<?xml version="1.0" encoding="UTF-8" standalone="no"?>
<!-- Created with CurveBenchmark -->
<svg
	xmlns:dc="http://purl.org/dc/elements/1.1/"
	xmlns:cc="http://creativecommons.org/ns#"
	xmlns:rdf="http://www.w3.org/1999/02/22-rdf-syntax-ns#"
	xmlns:svg="http://www.w3.org/2000/svg"
	xmlns="http://www.w3.org/2000/svg"
	xmlns:sodipodi="http://sodipodi.sourceforge.net/DTD/sodipodi-0.dtd"
	xmlns:inkscape="http://www.inkscape.org/namespaces/inkscape"
	width="1000"
	height="1000"
	id="svg2"
	version="1.1"
	sodipodi:docname="open-curves/ccrust-oc11.txt">
<defs
	id="defs4" />
<metadata
	id="metadata7">
	<rdf:RDF>
		<cc:Work
			rdf:about="">
			<dc:format>image/svg+xml</dc:format>
			<dc:type
				rdf:resource="http://purl.org/dc/dcmitype/StillImage" />
			<dc:title></dc:title>
		</cc:Work>
	</rdf:RDF>
</metadata>
<g
	inkscape:label="Layer 1"
	inkscape:groupmode="layer"
	id="layer1">
	<path style="fill:none;stroke:red;stroke-width:1px;stroke-linecap:butt;stroke-linejoin:miter;stroke-opacity:1" d="M 146.416,43.6186 166.673,42.8451 z" id="boundary" inkscape:connector-curvature="0" />
	<path style="fill:none;stroke:red;stroke-width:1px;stroke-linecap:butt;stroke-linejoin:miter;stroke-opacity:1" d="M 187.545,44.9446 166.673,42.8451 z" id="boundary" inkscape:connector-curvature="0" />
	<path style="fill:none;stroke:red;stroke-width:1px;stroke-linecap:butt;stroke-linejoin:miter;stroke-opacity:1" d="M 126.158,46.2705 146.416,43.6186 z" id="boundary" inkscape:connector-curvature="0" />
	<path style="fill:none;stroke:red;stroke-width:1px;stroke-linecap:butt;stroke-linejoin:miter;stroke-opacity:1" d="M 24.8713,50.3711 4,50.2115 z" id="boundary" inkscape:connector-curvature="0" />
	<path style="fill:none;stroke:red;stroke-width:1px;stroke-linecap:butt;stroke-linejoin:miter;stroke-opacity:1" d="M 105.901,50.2115 126.158,46.2705 z" id="boundary" inkscape:connector-curvature="0" />
	<path style="fill:none;stroke:red;stroke-width:1px;stroke-linecap:butt;stroke-linejoin:miter;stroke-opacity:1" d="M 105.901,50.2115 85.6436,52.225 z" id="boundary" inkscape:connector-curvature="0" />
	<path style="fill:none;stroke:red;stroke-width:1px;stroke-linecap:butt;stroke-linejoin:miter;stroke-opacity:1" d="M 187.545,44.9446 206.574,50.3097 z" id="boundary" inkscape:connector-curvature="0" />
	<path style="fill:none;stroke:red;stroke-width:1px;stroke-linecap:butt;stroke-linejoin:miter;stroke-opacity:1" d="M 348.376,33.6372 368.634,33.0234 z" id="boundary" inkscape:connector-curvature="0" />
	<path style="fill:none;stroke:red;stroke-width:1px;stroke-linecap:butt;stroke-linejoin:miter;stroke-opacity:1" d="M 368.634,33.0234 388.891,38.9042 z" id="boundary" inkscape:connector-curvature="0" />
	<path style="fill:none;stroke:red;stroke-width:1px;stroke-linecap:butt;stroke-linejoin:miter;stroke-opacity:1" d="M 409.149,50.2115 388.891,38.9042 z" id="boundary" inkscape:connector-curvature="0" />
	<path style="fill:none;stroke:red;stroke-width:1px;stroke-linecap:butt;stroke-linejoin:miter;stroke-opacity:1" d="M 328.119,40.623 348.376,33.6372 z" id="boundary" inkscape:connector-curvature="0" />
	<path style="fill:none;stroke:red;stroke-width:1px;stroke-linecap:butt;stroke-linejoin:miter;stroke-opacity:1" d="M 307.861,50.2115 328.119,40.623 z" id="boundary" inkscape:connector-curvature="0" />
	<path style="fill:none;stroke:red;stroke-width:1px;stroke-linecap:butt;stroke-linejoin:miter;stroke-opacity:1" d="M 409.149,50.2115 430.02,62.4887 z" id="boundary" inkscape:connector-curvature="0" />
	<path style="fill:none;stroke:red;stroke-width:1px;stroke-linecap:butt;stroke-linejoin:miter;stroke-opacity:1" d="M 45.1287,51.697 24.8713,50.3711 z" id="boundary" inkscape:connector-curvature="0" />
	<path style="fill:none;stroke:red;stroke-width:1px;stroke-linecap:butt;stroke-linejoin:miter;stroke-opacity:1" d="M 206.574,50.3097 226.832,56.6079 z" id="boundary" inkscape:connector-curvature="0" />
	<path style="fill:none;stroke:red;stroke-width:1px;stroke-linecap:butt;stroke-linejoin:miter;stroke-opacity:1" d="M 65.3861,52.8265 85.6436,52.225 z" id="boundary" inkscape:connector-curvature="0" />
	<path style="fill:none;stroke:red;stroke-width:1px;stroke-linecap:butt;stroke-linejoin:miter;stroke-opacity:1" d="M 65.3861,52.8265 45.1287,51.697 z" id="boundary" inkscape:connector-curvature="0" />
	<path style="fill:none;stroke:red;stroke-width:1px;stroke-linecap:butt;stroke-linejoin:miter;stroke-opacity:1" d="M 226.832,56.6079 247.089,61.5679 z" id="boundary" inkscape:connector-curvature="0" />
	<path style="fill:none;stroke:red;stroke-width:1px;stroke-linecap:butt;stroke-linejoin:miter;stroke-opacity:1" d="M 267.347,62.6606 247.089,61.5679 z" id="boundary" inkscape:connector-curvature="0" />
	<path style="fill:none;stroke:red;stroke-width:1px;stroke-linecap:butt;stroke-linejoin:miter;stroke-opacity:1" d="M 287.604,58.2653 267.347,62.6606 z" id="boundary" inkscape:connector-curvature="0" />
	<path style="fill:none;stroke:red;stroke-width:1px;stroke-linecap:butt;stroke-linejoin:miter;stroke-opacity:1" d="M 307.861,50.2115 287.604,58.2653 z" id="boundary" inkscape:connector-curvature="0" />
	<path style="fill:none;stroke:red;stroke-width:1px;stroke-linecap:butt;stroke-linejoin:miter;stroke-opacity:1" d="M 430.02,62.4887 450.277,71.0828 z" id="boundary" inkscape:connector-curvature="0" />
	<path style="fill:none;stroke:red;stroke-width:1px;stroke-linecap:butt;stroke-linejoin:miter;stroke-opacity:1" d="M 450.277,71.0828 469.921,72.4824 z" id="boundary" inkscape:connector-curvature="0" />
	<path style="fill:none;stroke:red;stroke-width:1px;stroke-linecap:butt;stroke-linejoin:miter;stroke-opacity:1" d="M 469.921,72.4824 490.792,64.0725 z" id="boundary" inkscape:connector-curvature="0" />
	<path style="fill:none;stroke:red;stroke-width:1px;stroke-linecap:butt;stroke-linejoin:miter;stroke-opacity:1" d="M 509.822,50.0642 490.792,64.0725 z" id="boundary" inkscape:connector-curvature="0" />
	<path style="fill:none;stroke:red;stroke-width:1px;stroke-linecap:butt;stroke-linejoin:miter;stroke-opacity:1" d="M 549.723,24.2574 570.594,22.8455 z" id="boundary" inkscape:connector-curvature="0" />
	<path style="fill:none;stroke:red;stroke-width:1px;stroke-linecap:butt;stroke-linejoin:miter;stroke-opacity:1" d="M 570.594,22.8455 590.851,33.0234 z" id="boundary" inkscape:connector-curvature="0" />
	<path style="fill:none;stroke:red;stroke-width:1px;stroke-linecap:butt;stroke-linejoin:miter;stroke-opacity:1" d="M 772.554,13.3798 753.525,14.9636 z" id="boundary" inkscape:connector-curvature="0" />
	<path style="fill:none;stroke:red;stroke-width:1px;stroke-linecap:butt;stroke-linejoin:miter;stroke-opacity:1" d="M 590.851,33.0234 611.109,50.2115 z" id="boundary" inkscape:connector-curvature="0" />
	<path style="fill:none;stroke:red;stroke-width:1px;stroke-linecap:butt;stroke-linejoin:miter;stroke-opacity:1" d="M 530.079,34.865 549.723,24.2574 z" id="boundary" inkscape:connector-curvature="0" />
	<path style="fill:none;stroke:red;stroke-width:1px;stroke-linecap:butt;stroke-linejoin:miter;stroke-opacity:1" d="M 753.525,14.9636 733.267,28.9596 z" id="boundary" inkscape:connector-curvature="0" />
	<path style="fill:none;stroke:red;stroke-width:1px;stroke-linecap:butt;stroke-linejoin:miter;stroke-opacity:1" d="M 792.812,27.0566 772.554,13.3798 z" id="boundary" inkscape:connector-curvature="0" />
	<path style="fill:none;stroke:red;stroke-width:1px;stroke-linecap:butt;stroke-linejoin:miter;stroke-opacity:1" d="M 954.871,4.95762 975.743,4 z" id="boundary" inkscape:connector-curvature="0" />
	<path style="fill:none;stroke:red;stroke-width:1px;stroke-linecap:butt;stroke-linejoin:miter;stroke-opacity:1" d="M 975.743,4 996,21.2127 z" id="boundary" inkscape:connector-curvature="0" />
	<path style="fill:none;stroke:red;stroke-width:1px;stroke-linecap:butt;stroke-linejoin:miter;stroke-opacity:1" d="M 813.069,50.2851 792.812,27.0566 z" id="boundary" inkscape:connector-curvature="0" />
	<path style="fill:none;stroke:red;stroke-width:1px;stroke-linecap:butt;stroke-linejoin:miter;stroke-opacity:1" d="M 954.871,4.95762 935.228,22.6737 z" id="boundary" inkscape:connector-curvature="0" />
	<path style="fill:none;stroke:red;stroke-width:1px;stroke-linecap:butt;stroke-linejoin:miter;stroke-opacity:1" d="M 914.356,50.2115 935.228,22.6737 z" id="boundary" inkscape:connector-curvature="0" />
	<path style="fill:none;stroke:red;stroke-width:1px;stroke-linecap:butt;stroke-linejoin:miter;stroke-opacity:1" d="M 611.109,50.2115 631.366,68.48 z" id="boundary" inkscape:connector-curvature="0" />
	<path style="fill:none;stroke:red;stroke-width:1px;stroke-linecap:butt;stroke-linejoin:miter;stroke-opacity:1" d="M 509.822,50.0642 530.079,34.865 z" id="boundary" inkscape:connector-curvature="0" />
	<path style="fill:none;stroke:red;stroke-width:1px;stroke-linecap:butt;stroke-linejoin:miter;stroke-opacity:1" d="M 713.01,50.2974 692.139,69.941 z" id="boundary" inkscape:connector-curvature="0" />
	<path style="fill:none;stroke:red;stroke-width:1px;stroke-linecap:butt;stroke-linejoin:miter;stroke-opacity:1" d="M 631.366,68.48 651.624,80.9046 z" id="boundary" inkscape:connector-curvature="0" />
	<path style="fill:none;stroke:red;stroke-width:1px;stroke-linecap:butt;stroke-linejoin:miter;stroke-opacity:1" d="M 692.139,69.941 672.495,81.6044 z" id="boundary" inkscape:connector-curvature="0" />
	<path style="fill:none;stroke:red;stroke-width:1px;stroke-linecap:butt;stroke-linejoin:miter;stroke-opacity:1" d="M 672.495,81.6044 651.624,80.9046 z" id="boundary" inkscape:connector-curvature="0" />
	<path style="fill:none;stroke:red;stroke-width:1px;stroke-linecap:butt;stroke-linejoin:miter;stroke-opacity:1" d="M 733.267,28.9596 713.01,50.2974 z" id="boundary" inkscape:connector-curvature="0" />
	<path style="fill:none;stroke:red;stroke-width:1px;stroke-linecap:butt;stroke-linejoin:miter;stroke-opacity:1" d="M 833.327,74.1521 813.069,50.2851 z" id="boundary" inkscape:connector-curvature="0" />
	<path style="fill:none;stroke:red;stroke-width:1px;stroke-linecap:butt;stroke-linejoin:miter;stroke-opacity:1" d="M 833.327,74.1521 852.97,90.1984 z" id="boundary" inkscape:connector-curvature="0" />
	<path style="fill:none;stroke:red;stroke-width:1px;stroke-linecap:butt;stroke-linejoin:miter;stroke-opacity:1" d="M 873.842,91.7822 894.099,76.4602 z" id="boundary" inkscape:connector-curvature="0" />
	<path style="fill:none;stroke:red;stroke-width:1px;stroke-linecap:butt;stroke-linejoin:miter;stroke-opacity:1" d="M 873.842,91.7822 852.97,90.1984 z" id="boundary" inkscape:connector-curvature="0" />
	<path style="fill:none;stroke:red;stroke-width:1px;stroke-linecap:butt;stroke-linejoin:miter;stroke-opacity:1" d="M 914.356,50.2115 894.099,76.4602 z" id="boundary" inkscape:connector-curvature="0" />
	<circle cx="4" cy="50.2115" r="4" fill="#0" id="circle0"/>
	<circle cx="24.8713" cy="50.3711" r="4" fill="#0" id="circle1"/>
	<circle cx="45.1287" cy="51.697" r="4" fill="#0" id="circle2"/>
	<circle cx="65.3861" cy="52.8265" r="4" fill="#0" id="circle3"/>
	<circle cx="85.6436" cy="52.225" r="4" fill="#0" id="circle4"/>
	<circle cx="105.901" cy="50.2115" r="4" fill="#0" id="circle5"/>
	<circle cx="126.158" cy="46.2705" r="4" fill="#0" id="circle6"/>
	<circle cx="146.416" cy="43.6186" r="4" fill="#0" id="circle7"/>
	<circle cx="166.673" cy="42.8451" r="4" fill="#0" id="circle8"/>
	<circle cx="187.545" cy="44.9446" r="4" fill="#0" id="circle9"/>
	<circle cx="206.574" cy="50.3097" r="4" fill="#0" id="circle10"/>
	<circle cx="226.832" cy="56.6079" r="4" fill="#0" id="circle11"/>
	<circle cx="247.089" cy="61.5679" r="4" fill="#0" id="circle12"/>
	<circle cx="267.347" cy="62.6606" r="4" fill="#0" id="circle13"/>
	<circle cx="287.604" cy="58.2653" r="4" fill="#0" id="circle14"/>
	<circle cx="307.861" cy="50.2115" r="4" fill="#0" id="circle15"/>
	<circle cx="328.119" cy="40.623" r="4" fill="#0" id="circle16"/>
	<circle cx="348.376" cy="33.6372" r="4" fill="#0" id="circle17"/>
	<circle cx="368.634" cy="33.0234" r="4" fill="#0" id="circle18"/>
	<circle cx="388.891" cy="38.9042" r="4" fill="#0" id="circle19"/>
	<circle cx="409.149" cy="50.2115" r="4" fill="#0" id="circle20"/>
	<circle cx="430.02" cy="62.4887" r="4" fill="#0" id="circle21"/>
	<circle cx="450.277" cy="71.0828" r="4" fill="#0" id="circle22"/>
	<circle cx="469.921" cy="72.4824" r="4" fill="#0" id="circle23"/>
	<circle cx="490.792" cy="64.0725" r="4" fill="#0" id="circle24"/>
	<circle cx="509.822" cy="50.0642" r="4" fill="#0" id="circle25"/>
	<circle cx="530.079" cy="34.865" r="4" fill="#0" id="circle26"/>
	<circle cx="549.723" cy="24.2574" r="4" fill="#0" id="circle27"/>
	<circle cx="570.594" cy="22.8455" r="4" fill="#0" id="circle28"/>
	<circle cx="590.851" cy="33.0234" r="4" fill="#0" id="circle29"/>
	<circle cx="611.109" cy="50.2115" r="4" fill="#0" id="circle30"/>
	<circle cx="631.366" cy="68.48" r="4" fill="#0" id="circle31"/>
	<circle cx="651.624" cy="80.9046" r="4" fill="#0" id="circle32"/>
	<circle cx="672.495" cy="81.6044" r="4" fill="#0" id="circle33"/>
	<circle cx="692.139" cy="69.941" r="4" fill="#0" id="circle34"/>
	<circle cx="713.01" cy="50.2974" r="4" fill="#0" id="circle35"/>
	<circle cx="733.267" cy="28.9596" r="4" fill="#0" id="circle36"/>
	<circle cx="753.525" cy="14.9636" r="4" fill="#0" id="circle37"/>
	<circle cx="772.554" cy="13.3798" r="4" fill="#0" id="circle38"/>
	<circle cx="792.812" cy="27.0566" r="4" fill="#0" id="circle39"/>
	<circle cx="813.069" cy="50.2851" r="4" fill="#0" id="circle40"/>
	<circle cx="833.327" cy="74.1521" r="4" fill="#0" id="circle41"/>
	<circle cx="852.97" cy="90.1984" r="4" fill="#0" id="circle42"/>
	<circle cx="873.842" cy="91.7822" r="4" fill="#0" id="circle43"/>
	<circle cx="894.099" cy="76.4602" r="4" fill="#0" id="circle44"/>
	<circle cx="914.356" cy="50.2115" r="4" fill="#0" id="circle45"/>
	<circle cx="935.228" cy="22.6737" r="4" fill="#0" id="circle46"/>
	<circle cx="954.871" cy="4.95762" r="4" fill="#0" id="circle47"/>
	<circle cx="975.743" cy="4" r="4" fill="#0" id="circle48"/>
	<circle cx="996" cy="21.2127" r="4" fill="#0" id="circle49"/>
	</g>
</svg>