<?xml version="1.0" encoding="UTF-8" standalone="no"?>
<!-- Created with CurveBenchmark -->
<svg
	xmlns:dc="http://purl.org/dc/elements/1.1/"
	xmlns:cc="http://creativecommons.org/ns#"
	xmlns:rdf="http://www.w3.org/1999/02/22-rdf-syntax-ns#"
	xmlns:svg="http://www.w3.org/2000/svg"
	xmlns="http://www.w3.org/2000/svg"
	xmlns:sodipodi="http://sodipodi.sourceforge.net/DTD/sodipodi-0.dtd"
	xmlns:inkscape="http://www.inkscape.org/namespaces/inkscape"
	width="1000"
	height="1000"
	id="svg2"
	version="1.1"
	sodipodi:docname="open-curves/ccrust-oc15.txt">
<defs
	id="defs4" />
<metadata
	id="metadata7">
	<rdf:RDF>
		<cc:Work
			rdf:about="">
			<dc:format>image/svg+xml</dc:format>
			<dc:type
				rdf:resource="http://purl.org/dc/dcmitype/StillImage" />
			<dc:title></dc:title>
		</cc:Work>
	</rdf:RDF>
</metadata>
<g
	inkscape:label="Layer 1"
	inkscape:groupmode="layer"
	id="layer1">
	<path style="fill:none;stroke:red;stroke-width:1px;stroke-linecap:butt;stroke-linejoin:miter;stroke-opacity:1" d="M 140.35,257.72 268.169,249.203 z" id="boundary" inkscape:connector-curvature="0" />
	<path style="fill:none;stroke:red;stroke-width:1px;stroke-linecap:butt;stroke-linejoin:miter;stroke-opacity:1" d="M 268.169,249.203 246.015,370.21 z" id="boundary" inkscape:connector-curvature="0" />
	<path style="fill:none;stroke:red;stroke-width:1px;stroke-linecap:butt;stroke-linejoin:miter;stroke-opacity:1" d="M 305.666,136.713 268.169,249.203 z" id="boundary" inkscape:connector-curvature="0" />
	<path style="fill:none;stroke:red;stroke-width:1px;stroke-linecap:butt;stroke-linejoin:miter;stroke-opacity:1" d="M 4,262.839 26.1541,262.839 z" id="boundary" inkscape:connector-curvature="0" />
	<path style="fill:none;stroke:red;stroke-width:1px;stroke-linecap:butt;stroke-linejoin:miter;stroke-opacity:1" d="M 140.35,257.72 26.1541,262.839 z" id="boundary" inkscape:connector-curvature="0" />
	<path style="fill:none;stroke:red;stroke-width:1px;stroke-linecap:butt;stroke-linejoin:miter;stroke-opacity:1" d="M 246.015,370.21 249.427,417.931 z" id="boundary" inkscape:connector-curvature="0" />
	<path style="fill:none;stroke:red;stroke-width:1px;stroke-linecap:butt;stroke-linejoin:miter;stroke-opacity:1" d="M 348.281,27.6354 357.129,4 z" id="boundary" inkscape:connector-curvature="0" />
	<path style="fill:none;stroke:red;stroke-width:1px;stroke-linecap:butt;stroke-linejoin:miter;stroke-opacity:1" d="M 348.281,27.6354 305.666,136.713 z" id="boundary" inkscape:connector-curvature="0" />
	<path style="fill:none;stroke:red;stroke-width:1px;stroke-linecap:butt;stroke-linejoin:miter;stroke-opacity:1" d="M 561.317,230.461 397.708,245.79 z" id="boundary" inkscape:connector-curvature="0" />
	<path style="fill:none;stroke:red;stroke-width:1px;stroke-linecap:butt;stroke-linejoin:miter;stroke-opacity:1" d="M 709.597,211.706 561.317,230.461 z" id="boundary" inkscape:connector-curvature="0" />
	<path style="fill:none;stroke:red;stroke-width:1px;stroke-linecap:butt;stroke-linejoin:miter;stroke-opacity:1" d="M 249.427,417.931 264.77,446.91 z" id="boundary" inkscape:connector-curvature="0" />
	<path style="fill:none;stroke:red;stroke-width:1px;stroke-linecap:butt;stroke-linejoin:miter;stroke-opacity:1" d="M 290.336,470.77 264.77,446.91 z" id="boundary" inkscape:connector-curvature="0" />
	<path style="fill:none;stroke:red;stroke-width:1px;stroke-linecap:butt;stroke-linejoin:miter;stroke-opacity:1" d="M 336.351,494.63 290.336,470.77 z" id="boundary" inkscape:connector-curvature="0" />
	<path style="fill:none;stroke:red;stroke-width:1px;stroke-linecap:butt;stroke-linejoin:miter;stroke-opacity:1" d="M 336.351,494.63 442.016,508.266 z" id="boundary" inkscape:connector-curvature="0" />
	<path style="fill:none;stroke:red;stroke-width:1px;stroke-linecap:butt;stroke-linejoin:miter;stroke-opacity:1" d="M 534.045,508.266 607.332,602.001 z" id="boundary" inkscape:connector-curvature="0" />
	<path style="fill:none;stroke:red;stroke-width:1px;stroke-linecap:butt;stroke-linejoin:miter;stroke-opacity:1" d="M 607.332,602.001 595.401,653.134 z" id="boundary" inkscape:connector-curvature="0" />
	<path style="fill:none;stroke:red;stroke-width:1px;stroke-linecap:butt;stroke-linejoin:miter;stroke-opacity:1" d="M 787.99,845.723 666.982,825.275 z" id="boundary" inkscape:connector-curvature="0" />
	<path style="fill:none;stroke:red;stroke-width:1px;stroke-linecap:butt;stroke-linejoin:miter;stroke-opacity:1" d="M 666.982,825.275 600.52,734.939 z" id="boundary" inkscape:connector-curvature="0" />
	<path style="fill:none;stroke:red;stroke-width:1px;stroke-linecap:butt;stroke-linejoin:miter;stroke-opacity:1" d="M 600.52,734.939 595.401,653.134 z" id="boundary" inkscape:connector-curvature="0" />
	<path style="fill:none;stroke:red;stroke-width:1px;stroke-linecap:butt;stroke-linejoin:miter;stroke-opacity:1" d="M 442.016,508.266 534.045,508.266 z" id="boundary" inkscape:connector-curvature="0" />
	<path style="fill:none;stroke:red;stroke-width:1px;stroke-linecap:butt;stroke-linejoin:miter;stroke-opacity:1" d="M 869.808,167.398 891.882,158.113 z" id="boundary" inkscape:connector-curvature="0" />
	<path style="fill:none;stroke:red;stroke-width:1px;stroke-linecap:butt;stroke-linejoin:miter;stroke-opacity:1" d="M 891.882,158.113 902.186,177.622 z" id="boundary" inkscape:connector-curvature="0" />
	<path style="fill:none;stroke:red;stroke-width:1px;stroke-linecap:butt;stroke-linejoin:miter;stroke-opacity:1" d="M 910.505,148.378 891.882,158.113 z" id="boundary" inkscape:connector-curvature="0" />
	<path style="fill:none;stroke:red;stroke-width:1px;stroke-linecap:butt;stroke-linejoin:miter;stroke-opacity:1" d="M 779.472,194.671 832.311,179.328 z" id="boundary" inkscape:connector-curvature="0" />
	<path style="fill:none;stroke:red;stroke-width:1px;stroke-linecap:butt;stroke-linejoin:miter;stroke-opacity:1" d="M 869.808,167.398 832.311,179.328 z" id="boundary" inkscape:connector-curvature="0" />
	<path style="fill:none;stroke:red;stroke-width:1px;stroke-linecap:butt;stroke-linejoin:miter;stroke-opacity:1" d="M 940.608,144.225 930.093,137.374 z" id="boundary" inkscape:connector-curvature="0" />
	<path style="fill:none;stroke:red;stroke-width:1px;stroke-linecap:butt;stroke-linejoin:miter;stroke-opacity:1" d="M 926.35,156.103 910.505,148.378 z" id="boundary" inkscape:connector-curvature="0" />
	<path style="fill:none;stroke:red;stroke-width:1px;stroke-linecap:butt;stroke-linejoin:miter;stroke-opacity:1" d="M 779.472,194.671 709.597,211.706 z" id="boundary" inkscape:connector-curvature="0" />
	<path style="fill:none;stroke:red;stroke-width:1px;stroke-linecap:butt;stroke-linejoin:miter;stroke-opacity:1" d="M 765.836,325.902 697.667,416.225 z" id="boundary" inkscape:connector-curvature="0" />
	<path style="fill:none;stroke:red;stroke-width:1px;stroke-linecap:butt;stroke-linejoin:miter;stroke-opacity:1" d="M 764.129,513.372 816.969,525.302 z" id="boundary" inkscape:connector-curvature="0" />
	<path style="fill:none;stroke:red;stroke-width:1px;stroke-linecap:butt;stroke-linejoin:miter;stroke-opacity:1" d="M 764.129,513.372 697.667,416.225 z" id="boundary" inkscape:connector-curvature="0" />
	<path style="fill:none;stroke:red;stroke-width:1px;stroke-linecap:butt;stroke-linejoin:miter;stroke-opacity:1" d="M 908.997,567.917 816.969,525.302 z" id="boundary" inkscape:connector-curvature="0" />
	<path style="fill:none;stroke:red;stroke-width:1px;stroke-linecap:butt;stroke-linejoin:miter;stroke-opacity:1" d="M 765.836,325.902 832.311,250.909 z" id="boundary" inkscape:connector-curvature="0" />
	<path style="fill:none;stroke:red;stroke-width:1px;stroke-linecap:butt;stroke-linejoin:miter;stroke-opacity:1" d="M 908.997,567.917 955.025,678.701 z" id="boundary" inkscape:connector-curvature="0" />
	<path style="fill:none;stroke:red;stroke-width:1px;stroke-linecap:butt;stroke-linejoin:miter;stroke-opacity:1" d="M 955.025,678.701 886.843,792.883 z" id="boundary" inkscape:connector-curvature="0" />
	<path style="fill:none;stroke:red;stroke-width:1px;stroke-linecap:butt;stroke-linejoin:miter;stroke-opacity:1" d="M 886.843,792.883 787.99,845.723 z" id="boundary" inkscape:connector-curvature="0" />
	<circle cx="357.129" cy="4" r="4" fill="#0" id="circle0"/>
	<circle cx="348.281" cy="27.6354" r="4" fill="#0" id="circle1"/>
	<circle cx="305.666" cy="136.713" r="4" fill="#0" id="circle2"/>
	<circle cx="268.169" cy="249.203" r="4" fill="#0" id="circle3"/>
	<circle cx="246.015" cy="370.21" r="4" fill="#0" id="circle4"/>
	<circle cx="249.427" cy="417.931" r="4" fill="#0" id="circle5"/>
	<circle cx="264.77" cy="446.91" r="4" fill="#0" id="circle6"/>
	<circle cx="290.336" cy="470.77" r="4" fill="#0" id="circle7"/>
	<circle cx="336.351" cy="494.63" r="4" fill="#0" id="circle8"/>
	<circle cx="534.045" cy="508.266" r="4" fill="#0" id="circle9"/>
	<circle cx="764.129" cy="513.372" r="4" fill="#0" id="circle10"/>
	<circle cx="816.969" cy="525.302" r="4" fill="#0" id="circle11"/>
	<circle cx="908.997" cy="567.917" r="4" fill="#0" id="circle12"/>
	<circle cx="955.025" cy="678.701" r="4" fill="#0" id="circle13"/>
	<circle cx="886.843" cy="792.883" r="4" fill="#0" id="circle14"/>
	<circle cx="787.99" cy="845.723" r="4" fill="#0" id="circle15"/>
	<circle cx="666.982" cy="825.275" r="4" fill="#0" id="circle16"/>
	<circle cx="600.52" cy="734.939" r="4" fill="#0" id="circle17"/>
	<circle cx="595.401" cy="653.134" r="4" fill="#0" id="circle18"/>
	<circle cx="607.332" cy="602.001" r="4" fill="#0" id="circle19"/>
	<circle cx="697.667" cy="416.225" r="4" fill="#0" id="circle20"/>
	<circle cx="765.836" cy="325.902" r="4" fill="#0" id="circle21"/>
	<circle cx="832.311" cy="250.909" r="4" fill="#0" id="circle22"/>
	<circle cx="878.325" cy="203.188" r="4" fill="#0" id="circle23"/>
	<circle cx="902.186" cy="177.622" r="4" fill="#0" id="circle24"/>
	<circle cx="926.35" cy="156.103" r="4" fill="#0" id="circle25"/>
	<circle cx="940.608" cy="144.225" r="4" fill="#0" id="circle26"/>
	<circle cx="996" cy="94.2431" r="4" fill="#0" id="circle27"/>
	<circle cx="930.093" cy="137.374" r="4" fill="#0" id="circle28"/>
	<circle cx="910.505" cy="148.378" r="4" fill="#0" id="circle29"/>
	<circle cx="891.882" cy="158.113" r="4" fill="#0" id="circle30"/>
	<circle cx="869.808" cy="167.398" r="4" fill="#0" id="circle31"/>
	<circle cx="832.311" cy="179.328" r="4" fill="#0" id="circle32"/>
	<circle cx="779.472" cy="194.671" r="4" fill="#0" id="circle33"/>
	<circle cx="709.597" cy="211.706" r="4" fill="#0" id="circle34"/>
	<circle cx="561.317" cy="230.461" r="4" fill="#0" id="circle35"/>
	<circle cx="397.708" cy="245.79" r="4" fill="#0" id="circle36"/>
	<circle cx="140.35" cy="257.72" r="4" fill="#0" id="circle37"/>
	<circle cx="26.1541" cy="262.839" r="4" fill="#0" id="circle38"/>
	<circle cx="4" cy="262.839" r="4" fill="#0" id="circle39"/>
	<circle cx="442.016" cy="508.266" r="4" fill="#0" id="circle40"/>
	</g>
</svg>