<?xml version="1.0" encoding="UTF-8" standalone="no"?>
<!-- Created with CurveBenchmark -->
<svg
	xmlns:dc="http://purl.org/dc/elements/1.1/"
	xmlns:cc="http://creativecommons.org/ns#"
	xmlns:rdf="http://www.w3.org/1999/02/22-rdf-syntax-ns#"
	xmlns:svg="http://www.w3.org/2000/svg"
	xmlns="http://www.w3.org/2000/svg"
	xmlns:sodipodi="http://sodipodi.sourceforge.net/DTD/sodipodi-0.dtd"
	xmlns:inkscape="http://www.inkscape.org/namespaces/inkscape"
	width="1000"
	height="1000"
	id="svg2"
	version="1.1"
	sodipodi:docname="open-curves/gathan1-oc23.txt">
<defs
	id="defs4" />
<metadata
	id="metadata7">
	<rdf:RDF>
		<cc:Work
			rdf:about="">
			<dc:format>image/svg+xml</dc:format>
			<dc:type
				rdf:resource="http://purl.org/dc/dcmitype/StillImage" />
			<dc:title></dc:title>
		</cc:Work>
	</rdf:RDF>
</metadata>
<g
	inkscape:label="Layer 1"
	inkscape:groupmode="layer"
	id="layer1">
	<path style="fill:none;stroke:red;stroke-width:1px;stroke-linecap:butt;stroke-linejoin:miter;stroke-opacity:1" d="M 250.199,135.71 259.806,69.5729 z" id="boundary" inkscape:connector-curvature="0" />
	<path style="fill:none;stroke:red;stroke-width:1px;stroke-linecap:butt;stroke-linejoin:miter;stroke-opacity:1" d="M 250.199,135.71 224.378,198.305 z" id="boundary" inkscape:connector-curvature="0" />
	<path style="fill:none;stroke:red;stroke-width:1px;stroke-linecap:butt;stroke-linejoin:miter;stroke-opacity:1" d="M 224.378,198.305 194.354,256.131 z" id="boundary" inkscape:connector-curvature="0" />
	<path style="fill:none;stroke:red;stroke-width:1px;stroke-linecap:butt;stroke-linejoin:miter;stroke-opacity:1" d="M 194.354,256.131 159.525,299.09 z" id="boundary" inkscape:connector-curvature="0" />
	<path style="fill:none;stroke:red;stroke-width:1px;stroke-linecap:butt;stroke-linejoin:miter;stroke-opacity:1" d="M 267.012,4 259.806,69.5729 z" id="boundary" inkscape:connector-curvature="0" />
	<path style="fill:none;stroke:red;stroke-width:1px;stroke-linecap:butt;stroke-linejoin:miter;stroke-opacity:1" d="M 289.831,65.1053 310.247,124.277 z" id="boundary" inkscape:connector-curvature="0" />
	<path style="fill:none;stroke:red;stroke-width:1px;stroke-linecap:butt;stroke-linejoin:miter;stroke-opacity:1" d="M 333.666,179.474 310.247,124.277 z" id="boundary" inkscape:connector-curvature="0" />
	<path style="fill:none;stroke:red;stroke-width:1px;stroke-linecap:butt;stroke-linejoin:miter;stroke-opacity:1" d="M 358.286,233.457 333.666,179.474 z" id="boundary" inkscape:connector-curvature="0" />
	<path style="fill:none;stroke:red;stroke-width:1px;stroke-linecap:butt;stroke-linejoin:miter;stroke-opacity:1" d="M 267.012,4 289.831,65.1053 z" id="boundary" inkscape:connector-curvature="0" />
	<path style="fill:none;stroke:red;stroke-width:1px;stroke-linecap:butt;stroke-linejoin:miter;stroke-opacity:1" d="M 383.506,277.881 358.286,233.457 z" id="boundary" inkscape:connector-curvature="0" />
	<path style="fill:none;stroke:red;stroke-width:1px;stroke-linecap:butt;stroke-linejoin:miter;stroke-opacity:1" d="M 159.525,299.09 4,437.85 z" id="boundary" inkscape:connector-curvature="0" />
	<path style="fill:none;stroke:red;stroke-width:1px;stroke-linecap:butt;stroke-linejoin:miter;stroke-opacity:1" d="M 25.0169,471.177 4,437.85 z" id="boundary" inkscape:connector-curvature="0" />
	<path style="fill:none;stroke:red;stroke-width:1px;stroke-linecap:butt;stroke-linejoin:miter;stroke-opacity:1" d="M 31.6223,522.999 25.0169,471.177 z" id="boundary" inkscape:connector-curvature="0" />
	<path style="fill:none;stroke:red;stroke-width:1px;stroke-linecap:butt;stroke-linejoin:miter;stroke-opacity:1" d="M 355.884,552.747 369.094,601.938 z" id="boundary" inkscape:connector-curvature="0" />
	<path style="fill:none;stroke:red;stroke-width:1px;stroke-linecap:butt;stroke-linejoin:miter;stroke-opacity:1" d="M 366.692,504.143 355.884,552.747 z" id="boundary" inkscape:connector-curvature="0" />
	<path style="fill:none;stroke:red;stroke-width:1px;stroke-linecap:butt;stroke-linejoin:miter;stroke-opacity:1" d="M 369.094,601.938 399.719,630.978 z" id="boundary" inkscape:connector-curvature="0" />
	<path style="fill:none;stroke:red;stroke-width:1px;stroke-linecap:butt;stroke-linejoin:miter;stroke-opacity:1" d="M 469.976,460.764 511.409,451.961 z" id="boundary" inkscape:connector-curvature="0" />
	<path style="fill:none;stroke:red;stroke-width:1px;stroke-linecap:butt;stroke-linejoin:miter;stroke-opacity:1" d="M 469.976,460.764 409.927,474.78 z" id="boundary" inkscape:connector-curvature="0" />
	<path style="fill:none;stroke:red;stroke-width:1px;stroke-linecap:butt;stroke-linejoin:miter;stroke-opacity:1" d="M 555.245,462.77 511.409,451.961 z" id="boundary" inkscape:connector-curvature="0" />
	<path style="fill:none;stroke:red;stroke-width:1px;stroke-linecap:butt;stroke-linejoin:miter;stroke-opacity:1" d="M 557.646,572.454 424.339,610.489 z" id="boundary" inkscape:connector-curvature="0" />
	<path style="fill:none;stroke:red;stroke-width:1px;stroke-linecap:butt;stroke-linejoin:miter;stroke-opacity:1" d="M 424.339,610.489 399.719,630.978 z" id="boundary" inkscape:connector-curvature="0" />
	<path style="fill:none;stroke:red;stroke-width:1px;stroke-linecap:butt;stroke-linejoin:miter;stroke-opacity:1" d="M 366.692,504.143 409.927,474.78 z" id="boundary" inkscape:connector-curvature="0" />
	<path style="fill:none;stroke:red;stroke-width:1px;stroke-linecap:butt;stroke-linejoin:miter;stroke-opacity:1" d="M 696.959,143.168 726.983,111.307 z" id="boundary" inkscape:connector-curvature="0" />
	<path style="fill:none;stroke:red;stroke-width:1px;stroke-linecap:butt;stroke-linejoin:miter;stroke-opacity:1" d="M 835.07,56.9147 833.869,100.017 z" id="boundary" inkscape:connector-curvature="0" />
	<path style="fill:none;stroke:red;stroke-width:1px;stroke-linecap:butt;stroke-linejoin:miter;stroke-opacity:1" d="M 666.935,179.341 696.959,143.168 z" id="boundary" inkscape:connector-curvature="0" />
	<path style="fill:none;stroke:red;stroke-width:1px;stroke-linecap:butt;stroke-linejoin:miter;stroke-opacity:1" d="M 666.935,179.341 636.31,236.916 z" id="boundary" inkscape:connector-curvature="0" />
	<path style="fill:none;stroke:red;stroke-width:1px;stroke-linecap:butt;stroke-linejoin:miter;stroke-opacity:1" d="M 833.869,100.017 833.869,140.91 z" id="boundary" inkscape:connector-curvature="0" />
	<path style="fill:none;stroke:red;stroke-width:1px;stroke-linecap:butt;stroke-linejoin:miter;stroke-opacity:1" d="M 838.073,15.8415 835.07,56.9147 z" id="boundary" inkscape:connector-curvature="0" />
	<path style="fill:none;stroke:red;stroke-width:1px;stroke-linecap:butt;stroke-linejoin:miter;stroke-opacity:1" d="M 726.983,111.307 838.073,15.8415 z" id="boundary" inkscape:connector-curvature="0" />
	<path style="fill:none;stroke:red;stroke-width:1px;stroke-linecap:butt;stroke-linejoin:miter;stroke-opacity:1" d="M 890.915,386.508 906.528,356.484 z" id="boundary" inkscape:connector-curvature="0" />
	<path style="fill:none;stroke:red;stroke-width:1px;stroke-linecap:butt;stroke-linejoin:miter;stroke-opacity:1" d="M 906.528,356.484 942.557,345.928 z" id="boundary" inkscape:connector-curvature="0" />
	<path style="fill:none;stroke:red;stroke-width:1px;stroke-linecap:butt;stroke-linejoin:miter;stroke-opacity:1" d="M 974.983,353.65 942.557,345.928 z" id="boundary" inkscape:connector-curvature="0" />
	<path style="fill:none;stroke:red;stroke-width:1px;stroke-linecap:butt;stroke-linejoin:miter;stroke-opacity:1" d="M 974.983,353.65 996,386.388 z" id="boundary" inkscape:connector-curvature="0" />
	<path style="fill:none;stroke:red;stroke-width:1px;stroke-linecap:butt;stroke-linejoin:miter;stroke-opacity:1" d="M 599.08,479.331 636.31,512.274 z" id="boundary" inkscape:connector-curvature="0" />
	<path style="fill:none;stroke:red;stroke-width:1px;stroke-linecap:butt;stroke-linejoin:miter;stroke-opacity:1" d="M 644.717,545.168 636.31,512.274 z" id="boundary" inkscape:connector-curvature="0" />
	<path style="fill:none;stroke:red;stroke-width:1px;stroke-linecap:butt;stroke-linejoin:miter;stroke-opacity:1" d="M 606.886,585.869 557.646,572.454 z" id="boundary" inkscape:connector-curvature="0" />
	<path style="fill:none;stroke:red;stroke-width:1px;stroke-linecap:butt;stroke-linejoin:miter;stroke-opacity:1" d="M 644.717,545.168 644.717,586.338 z" id="boundary" inkscape:connector-curvature="0" />
	<path style="fill:none;stroke:red;stroke-width:1px;stroke-linecap:butt;stroke-linejoin:miter;stroke-opacity:1" d="M 644.717,586.338 606.886,585.869 z" id="boundary" inkscape:connector-curvature="0" />
	<path style="fill:none;stroke:red;stroke-width:1px;stroke-linecap:butt;stroke-linejoin:miter;stroke-opacity:1" d="M 555.245,462.77 599.08,479.331 z" id="boundary" inkscape:connector-curvature="0" />
	<path style="fill:none;stroke:red;stroke-width:1px;stroke-linecap:butt;stroke-linejoin:miter;stroke-opacity:1" d="M 890.915,421.937 890.915,386.508 z" id="boundary" inkscape:connector-curvature="0" />
	<path style="fill:none;stroke:red;stroke-width:1px;stroke-linecap:butt;stroke-linejoin:miter;stroke-opacity:1" d="M 914.935,449.824 890.915,421.937 z" id="boundary" inkscape:connector-curvature="0" />
	<path style="fill:none;stroke:red;stroke-width:1px;stroke-linecap:butt;stroke-linejoin:miter;stroke-opacity:1" d="M 996,424.819 961.772,460.368 z" id="boundary" inkscape:connector-curvature="0" />
	<path style="fill:none;stroke:red;stroke-width:1px;stroke-linecap:butt;stroke-linejoin:miter;stroke-opacity:1" d="M 961.772,460.368 914.935,449.824 z" id="boundary" inkscape:connector-curvature="0" />
	<path style="fill:none;stroke:red;stroke-width:1px;stroke-linecap:butt;stroke-linejoin:miter;stroke-opacity:1" d="M 996,386.388 996,424.819 z" id="boundary" inkscape:connector-curvature="0" />
	<circle cx="4" cy="437.85" r="4" fill="#0" id="circle0"/>
	<circle cx="25.0169" cy="471.177" r="4" fill="#0" id="circle1"/>
	<circle cx="31.6223" cy="522.999" r="4" fill="#0" id="circle2"/>
	<circle cx="159.525" cy="299.09" r="4" fill="#0" id="circle3"/>
	<circle cx="194.354" cy="256.131" r="4" fill="#0" id="circle4"/>
	<circle cx="224.378" cy="198.305" r="4" fill="#0" id="circle5"/>
	<circle cx="250.199" cy="135.71" r="4" fill="#0" id="circle6"/>
	<circle cx="259.806" cy="69.5729" r="4" fill="#0" id="circle7"/>
	<circle cx="267.012" cy="4" r="4" fill="#0" id="circle8"/>
	<circle cx="289.831" cy="65.1053" r="4" fill="#0" id="circle9"/>
	<circle cx="310.247" cy="124.277" r="4" fill="#0" id="circle10"/>
	<circle cx="333.666" cy="179.474" r="4" fill="#0" id="circle11"/>
	<circle cx="355.884" cy="552.747" r="4" fill="#0" id="circle12"/>
	<circle cx="358.286" cy="233.457" r="4" fill="#0" id="circle13"/>
	<circle cx="366.692" cy="504.143" r="4" fill="#0" id="circle14"/>
	<circle cx="369.094" cy="601.938" r="4" fill="#0" id="circle15"/>
	<circle cx="383.506" cy="277.881" r="4" fill="#0" id="circle16"/>
	<circle cx="399.719" cy="630.978" r="4" fill="#0" id="circle17"/>
	<circle cx="409.927" cy="474.78" r="4" fill="#0" id="circle18"/>
	<circle cx="424.339" cy="610.489" r="4" fill="#0" id="circle19"/>
	<circle cx="469.976" cy="460.764" r="4" fill="#0" id="circle20"/>
	<circle cx="511.409" cy="451.961" r="4" fill="#0" id="circle21"/>
	<circle cx="555.245" cy="462.77" r="4" fill="#0" id="circle22"/>
	<circle cx="557.646" cy="572.454" r="4" fill="#0" id="circle23"/>
	<circle cx="599.08" cy="479.331" r="4" fill="#0" id="circle24"/>
	<circle cx="606.886" cy="585.869" r="4" fill="#0" id="circle25"/>
	<circle cx="636.31" cy="236.916" r="4" fill="#0" id="circle26"/>
	<circle cx="636.31" cy="512.274" r="4" fill="#0" id="circle27"/>
	<circle cx="644.717" cy="545.168" r="4" fill="#0" id="circle28"/>
	<circle cx="644.717" cy="586.338" r="4" fill="#0" id="circle29"/>
	<circle cx="666.935" cy="179.341" r="4" fill="#0" id="circle30"/>
	<circle cx="696.959" cy="143.168" r="4" fill="#0" id="circle31"/>
	<circle cx="726.983" cy="111.307" r="4" fill="#0" id="circle32"/>
	<circle cx="833.869" cy="100.017" r="4" fill="#0" id="circle33"/>
	<circle cx="833.869" cy="140.91" r="4" fill="#0" id="circle34"/>
	<circle cx="835.07" cy="56.9147" r="4" fill="#0" id="circle35"/>
	<circle cx="838.073" cy="15.8415" r="4" fill="#0" id="circle36"/>
	<circle cx="890.915" cy="386.508" r="4" fill="#0" id="circle37"/>
	<circle cx="890.915" cy="421.937" r="4" fill="#0" id="circle38"/>
	<circle cx="906.528" cy="356.484" r="4" fill="#0" id="circle39"/>
	<circle cx="914.935" cy="449.824" r="4" fill="#0" id="circle40"/>
	<circle cx="942.557" cy="345.928" r="4" fill="#0" id="circle41"/>
	<circle cx="961.772" cy="460.368" r="4" fill="#0" id="circle42"/>
	<circle cx="974.983" cy="353.65" r="4" fill="#0" id="circle43"/>
	<circle cx="996" cy="386.388" r="4" fill="#0" id="circle44"/>
	<circle cx="996" cy="424.819" r="4" fill="#0" id="circle45"/>
	</g>
</svg>