<?xml version="1.0" encoding="UTF-8" standalone="no"?>
<!-- Created with CurveBenchmark -->
<svg
	xmlns:dc="http://purl.org/dc/elements/1.1/"
	xmlns:cc="http://creativecommons.org/ns#"
	xmlns:rdf="http://www.w3.org/1999/02/22-rdf-syntax-ns#"
	xmlns:svg="http://www.w3.org/2000/svg"
	xmlns="http://www.w3.org/2000/svg"
	xmlns:sodipodi="http://sodipodi.sourceforge.net/DTD/sodipodi-0.dtd"
	xmlns:inkscape="http://www.inkscape.org/namespaces/inkscape"
	width="1000"
	height="1000"
	id="svg2"
	version="1.1"
	sodipodi:docname="open-curves/gathan1-oc6.txt">
<defs
	id="defs4" />
<metadata
	id="metadata7">
	<rdf:RDF>
		<cc:Work
			rdf:about="">
			<dc:format>image/svg+xml</dc:format>
			<dc:type
				rdf:resource="http://purl.org/dc/dcmitype/StillImage" />
			<dc:title></dc:title>
		</cc:Work>
	</rdf:RDF>
</metadata>
<g
	inkscape:label="Layer 1"
	inkscape:groupmode="layer"
	id="layer1">
	<path style="fill:none;stroke:red;stroke-width:1px;stroke-linecap:butt;stroke-linejoin:miter;stroke-opacity:1" d="M 219.903,198.049 222.049,179.538 z" id="boundary" inkscape:connector-curvature="0" />
	<path style="fill:none;stroke:red;stroke-width:1px;stroke-linecap:butt;stroke-linejoin:miter;stroke-opacity:1" d="M 225.538,161.231 222.049,179.538 z" id="boundary" inkscape:connector-curvature="0" />
	<path style="fill:none;stroke:red;stroke-width:1px;stroke-linecap:butt;stroke-linejoin:miter;stroke-opacity:1" d="M 236.757,124.881 229.602,143.917 z" id="boundary" inkscape:connector-curvature="0" />
	<path style="fill:none;stroke:red;stroke-width:1px;stroke-linecap:butt;stroke-linejoin:miter;stroke-opacity:1" d="M 229.602,143.917 225.538,161.231 z" id="boundary" inkscape:connector-curvature="0" />
	<path style="fill:none;stroke:red;stroke-width:1px;stroke-linecap:butt;stroke-linejoin:miter;stroke-opacity:1" d="M 218.03,222.58 219.903,198.049 z" id="boundary" inkscape:connector-curvature="0" />
	<path style="fill:none;stroke:red;stroke-width:1px;stroke-linecap:butt;stroke-linejoin:miter;stroke-opacity:1" d="M 215.987,273.615 216.793,248.506 z" id="boundary" inkscape:connector-curvature="0" />
	<path style="fill:none;stroke:red;stroke-width:1px;stroke-linecap:butt;stroke-linejoin:miter;stroke-opacity:1" d="M 216.793,248.506 218.03,222.58 z" id="boundary" inkscape:connector-curvature="0" />
	<path style="fill:none;stroke:red;stroke-width:1px;stroke-linecap:butt;stroke-linejoin:miter;stroke-opacity:1" d="M 354.817,258.51 353.284,278.755 z" id="boundary" inkscape:connector-curvature="0" />
	<path style="fill:none;stroke:red;stroke-width:1px;stroke-linecap:butt;stroke-linejoin:miter;stroke-opacity:1" d="M 287.638,62.4339 304.334,52.1554 z" id="boundary" inkscape:connector-curvature="0" />
	<path style="fill:none;stroke:red;stroke-width:1px;stroke-linecap:butt;stroke-linejoin:miter;stroke-opacity:1" d="M 304.334,52.1554 321.029,43.2966 z" id="boundary" inkscape:connector-curvature="0" />
	<path style="fill:none;stroke:red;stroke-width:1px;stroke-linecap:butt;stroke-linejoin:miter;stroke-opacity:1" d="M 321.029,43.2966 337.724,35.6115 z" id="boundary" inkscape:connector-curvature="0" />
	<path style="fill:none;stroke:red;stroke-width:1px;stroke-linecap:butt;stroke-linejoin:miter;stroke-opacity:1" d="M 236.757,124.881 245.105,107.192 z" id="boundary" inkscape:connector-curvature="0" />
	<path style="fill:none;stroke:red;stroke-width:1px;stroke-linecap:butt;stroke-linejoin:miter;stroke-opacity:1" d="M 256.235,90.463 245.105,107.192 z" id="boundary" inkscape:connector-curvature="0" />
	<path style="fill:none;stroke:red;stroke-width:1px;stroke-linecap:butt;stroke-linejoin:miter;stroke-opacity:1" d="M 256.235,90.463 270.943,74.946 z" id="boundary" inkscape:connector-curvature="0" />
	<path style="fill:none;stroke:red;stroke-width:1px;stroke-linecap:butt;stroke-linejoin:miter;stroke-opacity:1" d="M 270.943,74.946 287.638,62.4339 z" id="boundary" inkscape:connector-curvature="0" />
	<path style="fill:none;stroke:red;stroke-width:1px;stroke-linecap:butt;stroke-linejoin:miter;stroke-opacity:1" d="M 337.724,35.6115 354.42,29.0431 z" id="boundary" inkscape:connector-curvature="0" />
	<path style="fill:none;stroke:red;stroke-width:1px;stroke-linecap:butt;stroke-linejoin:miter;stroke-opacity:1" d="M 353.284,278.755 350.798,301.463 z" id="boundary" inkscape:connector-curvature="0" />
	<path style="fill:none;stroke:red;stroke-width:1px;stroke-linecap:butt;stroke-linejoin:miter;stroke-opacity:1" d="M 38.0023,362.251 54.6977,354.433 z" id="boundary" inkscape:connector-curvature="0" />
	<path style="fill:none;stroke:red;stroke-width:1px;stroke-linecap:butt;stroke-linejoin:miter;stroke-opacity:1" d="M 54.6977,354.433 71.3931,355.323 z" id="boundary" inkscape:connector-curvature="0" />
	<path style="fill:none;stroke:red;stroke-width:1px;stroke-linecap:butt;stroke-linejoin:miter;stroke-opacity:1" d="M 71.3931,355.323 88.0885,363.216 z" id="boundary" inkscape:connector-curvature="0" />
	<path style="fill:none;stroke:red;stroke-width:1px;stroke-linecap:butt;stroke-linejoin:miter;stroke-opacity:1" d="M 104.784,374.895 88.0885,363.216 z" id="boundary" inkscape:connector-curvature="0" />
	<path style="fill:none;stroke:red;stroke-width:1px;stroke-linecap:butt;stroke-linejoin:miter;stroke-opacity:1" d="M 22.102,376.204 38.0023,362.251 z" id="boundary" inkscape:connector-curvature="0" />
	<path style="fill:none;stroke:red;stroke-width:1px;stroke-linecap:butt;stroke-linejoin:miter;stroke-opacity:1" d="M 210.919,382.069 208.136,398.682 z" id="boundary" inkscape:connector-curvature="0" />
	<path style="fill:none;stroke:red;stroke-width:1px;stroke-linecap:butt;stroke-linejoin:miter;stroke-opacity:1" d="M 212.641,364.711 210.919,382.069 z" id="boundary" inkscape:connector-curvature="0" />
	<path style="fill:none;stroke:red;stroke-width:1px;stroke-linecap:butt;stroke-linejoin:miter;stroke-opacity:1" d="M 113.927,381.142 104.784,374.895 z" id="boundary" inkscape:connector-curvature="0" />
	<path style="fill:none;stroke:red;stroke-width:1px;stroke-linecap:butt;stroke-linejoin:miter;stroke-opacity:1" d="M 214.951,325.945 215.733,300.712 z" id="boundary" inkscape:connector-curvature="0" />
	<path style="fill:none;stroke:red;stroke-width:1px;stroke-linecap:butt;stroke-linejoin:miter;stroke-opacity:1" d="M 214.951,325.945 214.042,345.877 z" id="boundary" inkscape:connector-curvature="0" />
	<path style="fill:none;stroke:red;stroke-width:1px;stroke-linecap:butt;stroke-linejoin:miter;stroke-opacity:1" d="M 349.082,322.026 350.798,301.463 z" id="boundary" inkscape:connector-curvature="0" />
	<path style="fill:none;stroke:red;stroke-width:1px;stroke-linecap:butt;stroke-linejoin:miter;stroke-opacity:1" d="M 215.733,300.712 215.987,273.615 z" id="boundary" inkscape:connector-curvature="0" />
	<path style="fill:none;stroke:red;stroke-width:1px;stroke-linecap:butt;stroke-linejoin:miter;stroke-opacity:1" d="M 212.641,364.711 214.042,345.877 z" id="boundary" inkscape:connector-curvature="0" />
	<path style="fill:none;stroke:red;stroke-width:1px;stroke-linecap:butt;stroke-linejoin:miter;stroke-opacity:1" d="M 347.833,341.618 346.072,365.758 z" id="boundary" inkscape:connector-curvature="0" />
	<path style="fill:none;stroke:red;stroke-width:1px;stroke-linecap:butt;stroke-linejoin:miter;stroke-opacity:1" d="M 347.833,341.618 349.082,322.026 z" id="boundary" inkscape:connector-curvature="0" />
	<path style="fill:none;stroke:red;stroke-width:1px;stroke-linecap:butt;stroke-linejoin:miter;stroke-opacity:1" d="M 267.763,366.434 268.955,404.356 z" id="boundary" inkscape:connector-curvature="0" />
	<path style="fill:none;stroke:red;stroke-width:1px;stroke-linecap:butt;stroke-linejoin:miter;stroke-opacity:1" d="M 346.072,365.758 344.482,396.883 z" id="boundary" inkscape:connector-curvature="0" />
	<path style="fill:none;stroke:red;stroke-width:1px;stroke-linecap:butt;stroke-linejoin:miter;stroke-opacity:1" d="M 378.986,74.4235 375.002,92.1966 z" id="boundary" inkscape:connector-curvature="0" />
	<path style="fill:none;stroke:red;stroke-width:1px;stroke-linecap:butt;stroke-linejoin:miter;stroke-opacity:1" d="M 390.991,61.9796 378.986,74.4235 z" id="boundary" inkscape:connector-curvature="0" />
	<path style="fill:none;stroke:red;stroke-width:1px;stroke-linecap:butt;stroke-linejoin:miter;stroke-opacity:1" d="M 371.115,23.3455 387.811,18.4807 z" id="boundary" inkscape:connector-curvature="0" />
	<path style="fill:none;stroke:red;stroke-width:1px;stroke-linecap:butt;stroke-linejoin:miter;stroke-opacity:1" d="M 401.882,83.129 390.991,61.9796 z" id="boundary" inkscape:connector-curvature="0" />
	<path style="fill:none;stroke:red;stroke-width:1px;stroke-linecap:butt;stroke-linejoin:miter;stroke-opacity:1" d="M 369.128,128.856 371.57,111.119 z" id="boundary" inkscape:connector-curvature="0" />
	<path style="fill:none;stroke:red;stroke-width:1px;stroke-linecap:butt;stroke-linejoin:miter;stroke-opacity:1" d="M 371.57,111.119 375.002,92.1966 z" id="boundary" inkscape:connector-curvature="0" />
	<path style="fill:none;stroke:red;stroke-width:1px;stroke-linecap:butt;stroke-linejoin:miter;stroke-opacity:1" d="M 401.882,83.129 404.96,103.056 z" id="boundary" inkscape:connector-curvature="0" />
	<path style="fill:none;stroke:red;stroke-width:1px;stroke-linecap:butt;stroke-linejoin:miter;stroke-opacity:1" d="M 387.811,18.4807 404.506,14.411 z" id="boundary" inkscape:connector-curvature="0" />
	<path style="fill:none;stroke:red;stroke-width:1px;stroke-linecap:butt;stroke-linejoin:miter;stroke-opacity:1" d="M 369.128,128.856 366.168,149.04 z" id="boundary" inkscape:connector-curvature="0" />
	<path style="fill:none;stroke:red;stroke-width:1px;stroke-linecap:butt;stroke-linejoin:miter;stroke-opacity:1" d="M 454.592,6.40399 471.288,5.0411 z" id="boundary" inkscape:connector-curvature="0" />
	<path style="fill:none;stroke:red;stroke-width:1px;stroke-linecap:butt;stroke-linejoin:miter;stroke-opacity:1" d="M 404.506,14.411 421.201,11.0984 z" id="boundary" inkscape:connector-curvature="0" />
	<path style="fill:none;stroke:red;stroke-width:1px;stroke-linecap:butt;stroke-linejoin:miter;stroke-opacity:1" d="M 421.201,11.0984 437.897,8.41046 z" id="boundary" inkscape:connector-curvature="0" />
	<path style="fill:none;stroke:red;stroke-width:1px;stroke-linecap:butt;stroke-linejoin:miter;stroke-opacity:1" d="M 408.382,124.053 404.96,103.056 z" id="boundary" inkscape:connector-curvature="0" />
	<path style="fill:none;stroke:red;stroke-width:1px;stroke-linecap:butt;stroke-linejoin:miter;stroke-opacity:1" d="M 437.897,8.41046 454.592,6.40399 z" id="boundary" inkscape:connector-curvature="0" />
	<path style="fill:none;stroke:red;stroke-width:1px;stroke-linecap:butt;stroke-linejoin:miter;stroke-opacity:1" d="M 410.639,142.579 408.382,124.053 z" id="boundary" inkscape:connector-curvature="0" />
	<path style="fill:none;stroke:red;stroke-width:1px;stroke-linecap:butt;stroke-linejoin:miter;stroke-opacity:1" d="M 412.986,162.997 410.639,142.579 z" id="boundary" inkscape:connector-curvature="0" />
	<path style="fill:none;stroke:red;stroke-width:1px;stroke-linecap:butt;stroke-linejoin:miter;stroke-opacity:1" d="M 363.43,169.976 366.168,149.04 z" id="boundary" inkscape:connector-curvature="0" />
	<path style="fill:none;stroke:red;stroke-width:1px;stroke-linecap:butt;stroke-linejoin:miter;stroke-opacity:1" d="M 412.986,162.997 415.296,185.226 z" id="boundary" inkscape:connector-curvature="0" />
	<path style="fill:none;stroke:red;stroke-width:1px;stroke-linecap:butt;stroke-linejoin:miter;stroke-opacity:1" d="M 361.121,189.656 363.43,169.976 z" id="boundary" inkscape:connector-curvature="0" />
	<path style="fill:none;stroke:red;stroke-width:1px;stroke-linecap:butt;stroke-linejoin:miter;stroke-opacity:1" d="M 356.407,240.622 357.997,223.264 z" id="boundary" inkscape:connector-curvature="0" />
	<path style="fill:none;stroke:red;stroke-width:1px;stroke-linecap:butt;stroke-linejoin:miter;stroke-opacity:1" d="M 356.407,240.622 354.817,258.51 z" id="boundary" inkscape:connector-curvature="0" />
	<path style="fill:none;stroke:red;stroke-width:1px;stroke-linecap:butt;stroke-linejoin:miter;stroke-opacity:1" d="M 359.587,206.701 357.997,223.264 z" id="boundary" inkscape:connector-curvature="0" />
	<path style="fill:none;stroke:red;stroke-width:1px;stroke-linecap:butt;stroke-linejoin:miter;stroke-opacity:1" d="M 361.121,189.656 359.587,206.701 z" id="boundary" inkscape:connector-curvature="0" />
	<path style="fill:none;stroke:red;stroke-width:1px;stroke-linecap:butt;stroke-linejoin:miter;stroke-opacity:1" d="M 415.296,185.226 417.226,205.954 z" id="boundary" inkscape:connector-curvature="0" />
	<path style="fill:none;stroke:red;stroke-width:1px;stroke-linecap:butt;stroke-linejoin:miter;stroke-opacity:1" d="M 417.226,205.954 418.419,222.469 z" id="boundary" inkscape:connector-curvature="0" />
	<path style="fill:none;stroke:red;stroke-width:1px;stroke-linecap:butt;stroke-linejoin:miter;stroke-opacity:1" d="M 420.208,240.622 421.798,262.187 z" id="boundary" inkscape:connector-curvature="0" />
	<path style="fill:none;stroke:red;stroke-width:1px;stroke-linecap:butt;stroke-linejoin:miter;stroke-opacity:1" d="M 420.208,240.622 418.419,222.469 z" id="boundary" inkscape:connector-curvature="0" />
	<path style="fill:none;stroke:red;stroke-width:1px;stroke-linecap:butt;stroke-linejoin:miter;stroke-opacity:1" d="M 421.798,262.187 423.359,283.411 z" id="boundary" inkscape:connector-curvature="0" />
	<path style="fill:none;stroke:red;stroke-width:1px;stroke-linecap:butt;stroke-linejoin:miter;stroke-opacity:1" d="M 423.359,283.411 424.779,305.367 z" id="boundary" inkscape:connector-curvature="0" />
	<path style="fill:none;stroke:red;stroke-width:1px;stroke-linecap:butt;stroke-linejoin:miter;stroke-opacity:1" d="M 427.86,351.627 426.369,327.975 z" id="boundary" inkscape:connector-curvature="0" />
	<path style="fill:none;stroke:red;stroke-width:1px;stroke-linecap:butt;stroke-linejoin:miter;stroke-opacity:1" d="M 426.369,327.975 424.779,305.367 z" id="boundary" inkscape:connector-curvature="0" />
	<path style="fill:none;stroke:red;stroke-width:1px;stroke-linecap:butt;stroke-linejoin:miter;stroke-opacity:1" d="M 427.86,351.627 429.549,373.192 z" id="boundary" inkscape:connector-curvature="0" />
	<path style="fill:none;stroke:red;stroke-width:1px;stroke-linecap:butt;stroke-linejoin:miter;stroke-opacity:1" d="M 431.139,391.146 429.549,373.192 z" id="boundary" inkscape:connector-curvature="0" />
	<path style="fill:none;stroke:red;stroke-width:1px;stroke-linecap:butt;stroke-linejoin:miter;stroke-opacity:1" d="M 354.42,29.0431 371.115,23.3455 z" id="boundary" inkscape:connector-curvature="0" />
	<path style="fill:none;stroke:red;stroke-width:1px;stroke-linecap:butt;stroke-linejoin:miter;stroke-opacity:1" d="M 4,417.59 10.0321,393.609 z" id="boundary" inkscape:connector-curvature="0" />
	<path style="fill:none;stroke:red;stroke-width:1px;stroke-linecap:butt;stroke-linejoin:miter;stroke-opacity:1" d="M 10.5742,443.75 4,417.59 z" id="boundary" inkscape:connector-curvature="0" />
	<path style="fill:none;stroke:red;stroke-width:1px;stroke-linecap:butt;stroke-linejoin:miter;stroke-opacity:1" d="M 10.0321,393.609 22.102,376.204 z" id="boundary" inkscape:connector-curvature="0" />
	<path style="fill:none;stroke:red;stroke-width:1px;stroke-linecap:butt;stroke-linejoin:miter;stroke-opacity:1" d="M 21.3069,460.153 10.5742,443.75 z" id="boundary" inkscape:connector-curvature="0" />
	<path style="fill:none;stroke:red;stroke-width:1px;stroke-linecap:butt;stroke-linejoin:miter;stroke-opacity:1" d="M 36.4123,475.617 53.1077,487.864 z" id="boundary" inkscape:connector-curvature="0" />
	<path style="fill:none;stroke:red;stroke-width:1px;stroke-linecap:butt;stroke-linejoin:miter;stroke-opacity:1" d="M 36.4123,475.617 21.3069,460.153 z" id="boundary" inkscape:connector-curvature="0" />
	<path style="fill:none;stroke:red;stroke-width:1px;stroke-linecap:butt;stroke-linejoin:miter;stroke-opacity:1" d="M 153.28,495.606 169.975,482.999 z" id="boundary" inkscape:connector-curvature="0" />
	<path style="fill:none;stroke:red;stroke-width:1px;stroke-linecap:butt;stroke-linejoin:miter;stroke-opacity:1" d="M 183.888,466.89 169.975,482.999 z" id="boundary" inkscape:connector-curvature="0" />
	<path style="fill:none;stroke:red;stroke-width:1px;stroke-linecap:butt;stroke-linejoin:miter;stroke-opacity:1" d="M 153.28,495.606 136.585,503.366 z" id="boundary" inkscape:connector-curvature="0" />
	<path style="fill:none;stroke:red;stroke-width:1px;stroke-linecap:butt;stroke-linejoin:miter;stroke-opacity:1" d="M 205.297,414.476 208.136,398.682 z" id="boundary" inkscape:connector-curvature="0" />
	<path style="fill:none;stroke:red;stroke-width:1px;stroke-linecap:butt;stroke-linejoin:miter;stroke-opacity:1" d="M 200.186,433.216 193.429,450.269 z" id="boundary" inkscape:connector-curvature="0" />
	<path style="fill:none;stroke:red;stroke-width:1px;stroke-linecap:butt;stroke-linejoin:miter;stroke-opacity:1" d="M 268.955,404.356 269.921,432.193 z" id="boundary" inkscape:connector-curvature="0" />
	<path style="fill:none;stroke:red;stroke-width:1px;stroke-linecap:butt;stroke-linejoin:miter;stroke-opacity:1" d="M 271.34,472.966 270.489,453.375 z" id="boundary" inkscape:connector-curvature="0" />
	<path style="fill:none;stroke:red;stroke-width:1px;stroke-linecap:butt;stroke-linejoin:miter;stroke-opacity:1" d="M 200.186,433.216 205.297,414.476 z" id="boundary" inkscape:connector-curvature="0" />
	<path style="fill:none;stroke:red;stroke-width:1px;stroke-linecap:butt;stroke-linejoin:miter;stroke-opacity:1" d="M 183.888,466.89 193.429,450.269 z" id="boundary" inkscape:connector-curvature="0" />
	<path style="fill:none;stroke:red;stroke-width:1px;stroke-linecap:butt;stroke-linejoin:miter;stroke-opacity:1" d="M 69.8031,496.798 53.1077,487.864 z" id="boundary" inkscape:connector-curvature="0" />
	<path style="fill:none;stroke:red;stroke-width:1px;stroke-linecap:butt;stroke-linejoin:miter;stroke-opacity:1" d="M 269.921,432.193 270.489,453.375 z" id="boundary" inkscape:connector-curvature="0" />
	<path style="fill:none;stroke:red;stroke-width:1px;stroke-linecap:butt;stroke-linejoin:miter;stroke-opacity:1" d="M 272.886,496.42 271.34,472.966 z" id="boundary" inkscape:connector-curvature="0" />
	<path style="fill:none;stroke:red;stroke-width:1px;stroke-linecap:butt;stroke-linejoin:miter;stroke-opacity:1" d="M 69.8031,496.798 86.4985,502.893 z" id="boundary" inkscape:connector-curvature="0" />
	<path style="fill:none;stroke:red;stroke-width:1px;stroke-linecap:butt;stroke-linejoin:miter;stroke-opacity:1" d="M 274.759,522.417 276.11,545.644 z" id="boundary" inkscape:connector-curvature="0" />
	<path style="fill:none;stroke:red;stroke-width:1px;stroke-linecap:butt;stroke-linejoin:miter;stroke-opacity:1" d="M 136.585,503.366 119.889,506.774 z" id="boundary" inkscape:connector-curvature="0" />
	<path style="fill:none;stroke:red;stroke-width:1px;stroke-linecap:butt;stroke-linejoin:miter;stroke-opacity:1" d="M 272.886,496.42 274.759,522.417 z" id="boundary" inkscape:connector-curvature="0" />
	<path style="fill:none;stroke:red;stroke-width:1px;stroke-linecap:butt;stroke-linejoin:miter;stroke-opacity:1" d="M 103.194,506.376 86.4985,502.893 z" id="boundary" inkscape:connector-curvature="0" />
	<path style="fill:none;stroke:red;stroke-width:1px;stroke-linecap:butt;stroke-linejoin:miter;stroke-opacity:1" d="M 103.194,506.376 119.889,506.774 z" id="boundary" inkscape:connector-curvature="0" />
	<path style="fill:none;stroke:red;stroke-width:1px;stroke-linecap:butt;stroke-linejoin:miter;stroke-opacity:1" d="M 279.39,582.282 277.701,563.466 z" id="boundary" inkscape:connector-curvature="0" />
	<path style="fill:none;stroke:red;stroke-width:1px;stroke-linecap:butt;stroke-linejoin:miter;stroke-opacity:1" d="M 277.701,563.466 276.11,545.644 z" id="boundary" inkscape:connector-curvature="0" />
	<path style="fill:none;stroke:red;stroke-width:1px;stroke-linecap:butt;stroke-linejoin:miter;stroke-opacity:1" d="M 281.994,603.27 284.061,625.544 z" id="boundary" inkscape:connector-curvature="0" />
	<path style="fill:none;stroke:red;stroke-width:1px;stroke-linecap:butt;stroke-linejoin:miter;stroke-opacity:1" d="M 284.061,625.544 286.503,643.612 z" id="boundary" inkscape:connector-curvature="0" />
	<path style="fill:none;stroke:red;stroke-width:1px;stroke-linecap:butt;stroke-linejoin:miter;stroke-opacity:1" d="M 289.935,662.269 286.503,643.612 z" id="boundary" inkscape:connector-curvature="0" />
	<path style="fill:none;stroke:red;stroke-width:1px;stroke-linecap:butt;stroke-linejoin:miter;stroke-opacity:1" d="M 279.39,582.282 281.994,603.27 z" id="boundary" inkscape:connector-curvature="0" />
	<path style="fill:none;stroke:red;stroke-width:1px;stroke-linecap:butt;stroke-linejoin:miter;stroke-opacity:1" d="M 289.935,662.269 293.005,679.82 z" id="boundary" inkscape:connector-curvature="0" />
	<path style="fill:none;stroke:red;stroke-width:1px;stroke-linecap:butt;stroke-linejoin:miter;stroke-opacity:1" d="M 322.619,666.653 319.638,683.497 z" id="boundary" inkscape:connector-curvature="0" />
	<path style="fill:none;stroke:red;stroke-width:1px;stroke-linecap:butt;stroke-linejoin:miter;stroke-opacity:1" d="M 319.638,683.497 309.501,708.789 z" id="boundary" inkscape:connector-curvature="0" />
	<path style="fill:none;stroke:red;stroke-width:1px;stroke-linecap:butt;stroke-linejoin:miter;stroke-opacity:1" d="M 309.501,708.789 298.371,700.491 z" id="boundary" inkscape:connector-curvature="0" />
	<path style="fill:none;stroke:red;stroke-width:1px;stroke-linecap:butt;stroke-linejoin:miter;stroke-opacity:1" d="M 298.371,700.491 293.005,679.82 z" id="boundary" inkscape:connector-curvature="0" />
	<path style="fill:none;stroke:red;stroke-width:1px;stroke-linecap:butt;stroke-linejoin:miter;stroke-opacity:1" d="M 340.337,475.352 341.401,452.097 z" id="boundary" inkscape:connector-curvature="0" />
	<path style="fill:none;stroke:red;stroke-width:1px;stroke-linecap:butt;stroke-linejoin:miter;stroke-opacity:1" d="M 340.337,475.352 338.917,498.258 z" id="boundary" inkscape:connector-curvature="0" />
	<path style="fill:none;stroke:red;stroke-width:1px;stroke-linecap:butt;stroke-linejoin:miter;stroke-opacity:1" d="M 341.401,452.097 342.892,426.816 z" id="boundary" inkscape:connector-curvature="0" />
	<path style="fill:none;stroke:red;stroke-width:1px;stroke-linecap:butt;stroke-linejoin:miter;stroke-opacity:1" d="M 342.892,426.816 344.482,396.883 z" id="boundary" inkscape:connector-curvature="0" />
	<path style="fill:none;stroke:red;stroke-width:1px;stroke-linecap:butt;stroke-linejoin:miter;stroke-opacity:1" d="M 334.942,557.04 335.869,538.887 z" id="boundary" inkscape:connector-curvature="0" />
	<path style="fill:none;stroke:red;stroke-width:1px;stroke-linecap:butt;stroke-linejoin:miter;stroke-opacity:1" d="M 334.942,557.04 333.352,575.126 z" id="boundary" inkscape:connector-curvature="0" />
	<path style="fill:none;stroke:red;stroke-width:1px;stroke-linecap:butt;stroke-linejoin:miter;stroke-opacity:1" d="M 335.869,538.887 337.327,520.568 z" id="boundary" inkscape:connector-curvature="0" />
	<path style="fill:none;stroke:red;stroke-width:1px;stroke-linecap:butt;stroke-linejoin:miter;stroke-opacity:1" d="M 338.917,498.258 337.327,520.568 z" id="boundary" inkscape:connector-curvature="0" />
	<path style="fill:none;stroke:red;stroke-width:1px;stroke-linecap:butt;stroke-linejoin:miter;stroke-opacity:1" d="M 432.729,410.16 434.49,427.31 z" id="boundary" inkscape:connector-curvature="0" />
	<path style="fill:none;stroke:red;stroke-width:1px;stroke-linecap:butt;stroke-linejoin:miter;stroke-opacity:1" d="M 436.108,446.482 434.49,427.31 z" id="boundary" inkscape:connector-curvature="0" />
	<path style="fill:none;stroke:red;stroke-width:1px;stroke-linecap:butt;stroke-linejoin:miter;stroke-opacity:1" d="M 437.698,467.302 436.108,446.482 z" id="boundary" inkscape:connector-curvature="0" />
	<path style="fill:none;stroke:red;stroke-width:1px;stroke-linecap:butt;stroke-linejoin:miter;stroke-opacity:1" d="M 439.288,488.42 440.878,509.985 z" id="boundary" inkscape:connector-curvature="0" />
	<path style="fill:none;stroke:red;stroke-width:1px;stroke-linecap:butt;stroke-linejoin:miter;stroke-opacity:1" d="M 445.847,573.713 444.058,552.121 z" id="boundary" inkscape:connector-curvature="0" />
	<path style="fill:none;stroke:red;stroke-width:1px;stroke-linecap:butt;stroke-linejoin:miter;stroke-opacity:1" d="M 444.058,552.121 442.468,531.45 z" id="boundary" inkscape:connector-curvature="0" />
	<path style="fill:none;stroke:red;stroke-width:1px;stroke-linecap:butt;stroke-linejoin:miter;stroke-opacity:1" d="M 440.878,509.985 442.468,531.45 z" id="boundary" inkscape:connector-curvature="0" />
	<path style="fill:none;stroke:red;stroke-width:1px;stroke-linecap:butt;stroke-linejoin:miter;stroke-opacity:1" d="M 437.698,467.302 439.288,488.42 z" id="boundary" inkscape:connector-curvature="0" />
	<path style="fill:none;stroke:red;stroke-width:1px;stroke-linecap:butt;stroke-linejoin:miter;stroke-opacity:1" d="M 431.139,391.146 432.729,410.16 z" id="boundary" inkscape:connector-curvature="0" />
	<path style="fill:none;stroke:red;stroke-width:1px;stroke-linecap:butt;stroke-linejoin:miter;stroke-opacity:1" d="M 331.591,593.071 333.352,575.126 z" id="boundary" inkscape:connector-curvature="0" />
	<path style="fill:none;stroke:red;stroke-width:1px;stroke-linecap:butt;stroke-linejoin:miter;stroke-opacity:1" d="M 331.591,593.071 329.509,612.183 z" id="boundary" inkscape:connector-curvature="0" />
	<path style="fill:none;stroke:red;stroke-width:1px;stroke-linecap:butt;stroke-linejoin:miter;stroke-opacity:1" d="M 445.847,573.713 447.04,595.598 z" id="boundary" inkscape:connector-curvature="0" />
	<path style="fill:none;stroke:red;stroke-width:1px;stroke-linecap:butt;stroke-linejoin:miter;stroke-opacity:1" d="M 450.319,633.461 448.63,614.082 z" id="boundary" inkscape:connector-curvature="0" />
	<path style="fill:none;stroke:red;stroke-width:1px;stroke-linecap:butt;stroke-linejoin:miter;stroke-opacity:1" d="M 322.619,666.653 325.402,649.792 z" id="boundary" inkscape:connector-curvature="0" />
	<path style="fill:none;stroke:red;stroke-width:1px;stroke-linecap:butt;stroke-linejoin:miter;stroke-opacity:1" d="M 327.787,632.169 329.509,612.183 z" id="boundary" inkscape:connector-curvature="0" />
	<path style="fill:none;stroke:red;stroke-width:1px;stroke-linecap:butt;stroke-linejoin:miter;stroke-opacity:1" d="M 327.787,632.169 325.402,649.792 z" id="boundary" inkscape:connector-curvature="0" />
	<path style="fill:none;stroke:red;stroke-width:1px;stroke-linecap:butt;stroke-linejoin:miter;stroke-opacity:1" d="M 447.04,595.598 448.63,614.082 z" id="boundary" inkscape:connector-curvature="0" />
	<path style="fill:none;stroke:red;stroke-width:1px;stroke-linecap:butt;stroke-linejoin:miter;stroke-opacity:1" d="M 452.737,654.761 455.046,677.684 z" id="boundary" inkscape:connector-curvature="0" />
	<path style="fill:none;stroke:red;stroke-width:1px;stroke-linecap:butt;stroke-linejoin:miter;stroke-opacity:1" d="M 452.737,654.761 450.319,633.461 z" id="boundary" inkscape:connector-curvature="0" />
	<path style="fill:none;stroke:red;stroke-width:1px;stroke-linecap:butt;stroke-linejoin:miter;stroke-opacity:1" d="M 486.393,654.628 489.573,636.641 z" id="boundary" inkscape:connector-curvature="0" />
	<path style="fill:none;stroke:red;stroke-width:1px;stroke-linecap:butt;stroke-linejoin:miter;stroke-opacity:1" d="M 492.412,618.455 489.573,636.641 z" id="boundary" inkscape:connector-curvature="0" />
	<path style="fill:none;stroke:red;stroke-width:1px;stroke-linecap:butt;stroke-linejoin:miter;stroke-opacity:1" d="M 486.393,654.628 482.815,672.556 z" id="boundary" inkscape:connector-curvature="0" />
	<path style="fill:none;stroke:red;stroke-width:1px;stroke-linecap:butt;stroke-linejoin:miter;stroke-opacity:1" d="M 455.046,677.684 458.302,696.367 z" id="boundary" inkscape:connector-curvature="0" />
	<path style="fill:none;stroke:red;stroke-width:1px;stroke-linecap:butt;stroke-linejoin:miter;stroke-opacity:1" d="M 479.579,689.552 468.903,713.971 z" id="boundary" inkscape:connector-curvature="0" />
	<path style="fill:none;stroke:red;stroke-width:1px;stroke-linecap:butt;stroke-linejoin:miter;stroke-opacity:1" d="M 468.903,713.971 458.302,696.367 z" id="boundary" inkscape:connector-curvature="0" />
	<path style="fill:none;stroke:red;stroke-width:1px;stroke-linecap:butt;stroke-linejoin:miter;stroke-opacity:1" d="M 482.815,672.556 479.579,689.552 z" id="boundary" inkscape:connector-curvature="0" />
	<path style="fill:none;stroke:red;stroke-width:1px;stroke-linecap:butt;stroke-linejoin:miter;stroke-opacity:1" d="M 471.288,5.0411 487.983,4.30286 z" id="boundary" inkscape:connector-curvature="0" />
	<path style="fill:none;stroke:red;stroke-width:1px;stroke-linecap:butt;stroke-linejoin:miter;stroke-opacity:1" d="M 504.678,4 521.374,4.7193 z" id="boundary" inkscape:connector-curvature="0" />
	<path style="fill:none;stroke:red;stroke-width:1px;stroke-linecap:butt;stroke-linejoin:miter;stroke-opacity:1" d="M 563.828,60.8685 557.945,79.4719 z" id="boundary" inkscape:connector-curvature="0" />
	<path style="fill:none;stroke:red;stroke-width:1px;stroke-linecap:butt;stroke-linejoin:miter;stroke-opacity:1" d="M 521.374,4.7193 538.069,5.83611 z" id="boundary" inkscape:connector-curvature="0" />
	<path style="fill:none;stroke:red;stroke-width:1px;stroke-linecap:butt;stroke-linejoin:miter;stroke-opacity:1" d="M 549.597,132.036 551.982,114.943 z" id="boundary" inkscape:connector-curvature="0" />
	<path style="fill:none;stroke:red;stroke-width:1px;stroke-linecap:butt;stroke-linejoin:miter;stroke-opacity:1" d="M 551.982,114.943 554.424,98.2287 z" id="boundary" inkscape:connector-curvature="0" />
	<path style="fill:none;stroke:red;stroke-width:1px;stroke-linecap:butt;stroke-linejoin:miter;stroke-opacity:1" d="M 557.945,79.4719 554.424,98.2287 z" id="boundary" inkscape:connector-curvature="0" />
	<path style="fill:none;stroke:red;stroke-width:1px;stroke-linecap:butt;stroke-linejoin:miter;stroke-opacity:1" d="M 538.069,5.83611 554.765,7.57758 z" id="boundary" inkscape:connector-curvature="0" />
	<path style="fill:none;stroke:red;stroke-width:1px;stroke-linecap:butt;stroke-linejoin:miter;stroke-opacity:1" d="M 549.597,132.036 546.576,152.455 z" id="boundary" inkscape:connector-curvature="0" />
	<path style="fill:none;stroke:red;stroke-width:1px;stroke-linecap:butt;stroke-linejoin:miter;stroke-opacity:1" d="M 576.23,53.2344 563.828,60.8685 z" id="boundary" inkscape:connector-curvature="0" />
	<path style="fill:none;stroke:red;stroke-width:1px;stroke-linecap:butt;stroke-linejoin:miter;stroke-opacity:1" d="M 571.46,9.96264 588.155,13.067 z" id="boundary" inkscape:connector-curvature="0" />
	<path style="fill:none;stroke:red;stroke-width:1px;stroke-linecap:butt;stroke-linejoin:miter;stroke-opacity:1" d="M 588.155,13.067 604.851,16.8339 z" id="boundary" inkscape:connector-curvature="0" />
	<path style="fill:none;stroke:red;stroke-width:1px;stroke-linecap:butt;stroke-linejoin:miter;stroke-opacity:1" d="M 587.449,76.6937 591.247,94.8467 z" id="boundary" inkscape:connector-curvature="0" />
	<path style="fill:none;stroke:red;stroke-width:1px;stroke-linecap:butt;stroke-linejoin:miter;stroke-opacity:1" d="M 594.175,113.788 591.247,94.8467 z" id="boundary" inkscape:connector-curvature="0" />
	<path style="fill:none;stroke:red;stroke-width:1px;stroke-linecap:butt;stroke-linejoin:miter;stroke-opacity:1" d="M 597.241,132.585 594.175,113.788 z" id="boundary" inkscape:connector-curvature="0" />
	<path style="fill:none;stroke:red;stroke-width:1px;stroke-linecap:butt;stroke-linejoin:miter;stroke-opacity:1" d="M 600.081,152.46 597.241,132.585 z" id="boundary" inkscape:connector-curvature="0" />
	<path style="fill:none;stroke:red;stroke-width:1px;stroke-linecap:butt;stroke-linejoin:miter;stroke-opacity:1" d="M 554.765,7.57758 571.46,9.96264 z" id="boundary" inkscape:connector-curvature="0" />
	<path style="fill:none;stroke:red;stroke-width:1px;stroke-linecap:butt;stroke-linejoin:miter;stroke-opacity:1" d="M 532.802,288.472 534.492,269.044 z" id="boundary" inkscape:connector-curvature="0" />
	<path style="fill:none;stroke:red;stroke-width:1px;stroke-linecap:butt;stroke-linejoin:miter;stroke-opacity:1" d="M 536.082,252.349 534.492,269.044 z" id="boundary" inkscape:connector-curvature="0" />
	<path style="fill:none;stroke:red;stroke-width:1px;stroke-linecap:butt;stroke-linejoin:miter;stroke-opacity:1" d="M 537.672,236.051 539.205,218.39 z" id="boundary" inkscape:connector-curvature="0" />
	<path style="fill:none;stroke:red;stroke-width:1px;stroke-linecap:butt;stroke-linejoin:miter;stroke-opacity:1" d="M 537.672,236.051 536.082,252.349 z" id="boundary" inkscape:connector-curvature="0" />
	<path style="fill:none;stroke:red;stroke-width:1px;stroke-linecap:butt;stroke-linejoin:miter;stroke-opacity:1" d="M 523.494,374.561 525.879,353.802 z" id="boundary" inkscape:connector-curvature="0" />
	<path style="fill:none;stroke:red;stroke-width:1px;stroke-linecap:butt;stroke-linejoin:miter;stroke-opacity:1" d="M 530.384,311.489 527.933,333.391 z" id="boundary" inkscape:connector-curvature="0" />
	<path style="fill:none;stroke:red;stroke-width:1px;stroke-linecap:butt;stroke-linejoin:miter;stroke-opacity:1" d="M 532.802,288.472 530.384,311.489 z" id="boundary" inkscape:connector-curvature="0" />
	<path style="fill:none;stroke:red;stroke-width:1px;stroke-linecap:butt;stroke-linejoin:miter;stroke-opacity:1" d="M 525.879,353.802 527.933,333.391 z" id="boundary" inkscape:connector-curvature="0" />
	<path style="fill:none;stroke:red;stroke-width:1px;stroke-linecap:butt;stroke-linejoin:miter;stroke-opacity:1" d="M 543.899,174.79 546.576,152.455 z" id="boundary" inkscape:connector-curvature="0" />
	<path style="fill:none;stroke:red;stroke-width:1px;stroke-linecap:butt;stroke-linejoin:miter;stroke-opacity:1" d="M 600.081,152.46 602.565,169.965 z" id="boundary" inkscape:connector-curvature="0" />
	<path style="fill:none;stroke:red;stroke-width:1px;stroke-linecap:butt;stroke-linejoin:miter;stroke-opacity:1" d="M 602.565,169.965 604.553,188.648 z" id="boundary" inkscape:connector-curvature="0" />
	<path style="fill:none;stroke:red;stroke-width:1px;stroke-linecap:butt;stroke-linejoin:miter;stroke-opacity:1" d="M 604.553,188.648 606.971,209.771 z" id="boundary" inkscape:connector-curvature="0" />
	<path style="fill:none;stroke:red;stroke-width:1px;stroke-linecap:butt;stroke-linejoin:miter;stroke-opacity:1" d="M 541.514,197.183 543.899,174.79 z" id="boundary" inkscape:connector-curvature="0" />
	<path style="fill:none;stroke:red;stroke-width:1px;stroke-linecap:butt;stroke-linejoin:miter;stroke-opacity:1" d="M 609.356,233.533 606.971,209.771 z" id="boundary" inkscape:connector-curvature="0" />
	<path style="fill:none;stroke:red;stroke-width:1px;stroke-linecap:butt;stroke-linejoin:miter;stroke-opacity:1" d="M 611.665,255.642 609.356,233.533 z" id="boundary" inkscape:connector-curvature="0" />
	<path style="fill:none;stroke:red;stroke-width:1px;stroke-linecap:butt;stroke-linejoin:miter;stroke-opacity:1" d="M 539.205,218.39 541.514,197.183 z" id="boundary" inkscape:connector-curvature="0" />
	<path style="fill:none;stroke:red;stroke-width:1px;stroke-linecap:butt;stroke-linejoin:miter;stroke-opacity:1" d="M 611.665,255.642 613.198,274.411 z" id="boundary" inkscape:connector-curvature="0" />
	<path style="fill:none;stroke:red;stroke-width:1px;stroke-linecap:butt;stroke-linejoin:miter;stroke-opacity:1" d="M 604.851,16.8339 621.546,21.4336 z" id="boundary" inkscape:connector-curvature="0" />
	<path style="fill:none;stroke:red;stroke-width:1px;stroke-linecap:butt;stroke-linejoin:miter;stroke-opacity:1" d="M 523.494,374.561 521.109,395.099 z" id="boundary" inkscape:connector-curvature="0" />
	<path style="fill:none;stroke:red;stroke-width:1px;stroke-linecap:butt;stroke-linejoin:miter;stroke-opacity:1" d="M 638.242,26.8663 654.937,33.1318 z" id="boundary" inkscape:connector-curvature="0" />
	<path style="fill:none;stroke:red;stroke-width:1px;stroke-linecap:butt;stroke-linejoin:miter;stroke-opacity:1" d="M 654.937,33.1318 671.632,40.4384 z" id="boundary" inkscape:connector-curvature="0" />
	<path style="fill:none;stroke:red;stroke-width:1px;stroke-linecap:butt;stroke-linejoin:miter;stroke-opacity:1" d="M 671.632,40.4384 688.328,48.9186 z" id="boundary" inkscape:connector-curvature="0" />
	<path style="fill:none;stroke:red;stroke-width:1px;stroke-linecap:butt;stroke-linejoin:miter;stroke-opacity:1" d="M 705.023,58.7617 721.719,70.2516 z" id="boundary" inkscape:connector-curvature="0" />
	<path style="fill:none;stroke:red;stroke-width:1px;stroke-linecap:butt;stroke-linejoin:miter;stroke-opacity:1" d="M 721.719,70.2516 738.016,84.083 z" id="boundary" inkscape:connector-curvature="0" />
	<path style="fill:none;stroke:red;stroke-width:1px;stroke-linecap:butt;stroke-linejoin:miter;stroke-opacity:1" d="M 688.328,48.9186 705.023,58.7617 z" id="boundary" inkscape:connector-curvature="0" />
	<path style="fill:none;stroke:red;stroke-width:1px;stroke-linecap:butt;stroke-linejoin:miter;stroke-opacity:1" d="M 738.016,84.083 751.532,100.415 z" id="boundary" inkscape:connector-curvature="0" />
	<path style="fill:none;stroke:red;stroke-width:1px;stroke-linecap:butt;stroke-linejoin:miter;stroke-opacity:1" d="M 761.072,116.838 767.83,133.38 z" id="boundary" inkscape:connector-curvature="0" />
	<path style="fill:none;stroke:red;stroke-width:1px;stroke-linecap:butt;stroke-linejoin:miter;stroke-opacity:1" d="M 979.305,402.163 964.199,387.975 z" id="boundary" inkscape:connector-curvature="0" />
	<path style="fill:none;stroke:red;stroke-width:1px;stroke-linecap:butt;stroke-linejoin:miter;stroke-opacity:1" d="M 767.83,133.38 773.483,150.145 z" id="boundary" inkscape:connector-curvature="0" />
	<path style="fill:none;stroke:red;stroke-width:1px;stroke-linecap:butt;stroke-linejoin:miter;stroke-opacity:1" d="M 773.483,150.145 777.37,169.843 z" id="boundary" inkscape:connector-curvature="0" />
	<path style="fill:none;stroke:red;stroke-width:1px;stroke-linecap:butt;stroke-linejoin:miter;stroke-opacity:1" d="M 777.37,169.843 779.357,187.621 z" id="boundary" inkscape:connector-curvature="0" />
	<path style="fill:none;stroke:red;stroke-width:1px;stroke-linecap:butt;stroke-linejoin:miter;stroke-opacity:1" d="M 779.357,187.621 778.96,199.48 z" id="boundary" inkscape:connector-curvature="0" />
	<path style="fill:none;stroke:red;stroke-width:1px;stroke-linecap:butt;stroke-linejoin:miter;stroke-opacity:1" d="M 780.947,212.717 781.051,219.777 z" id="boundary" inkscape:connector-curvature="0" />
	<path style="fill:none;stroke:red;stroke-width:1px;stroke-linecap:butt;stroke-linejoin:miter;stroke-opacity:1" d="M 778.96,199.48 780.947,212.717 z" id="boundary" inkscape:connector-curvature="0" />
	<path style="fill:none;stroke:red;stroke-width:1px;stroke-linecap:butt;stroke-linejoin:miter;stroke-opacity:1" d="M 751.532,100.415 761.072,116.838 z" id="boundary" inkscape:connector-curvature="0" />
	<path style="fill:none;stroke:red;stroke-width:1px;stroke-linecap:butt;stroke-linejoin:miter;stroke-opacity:1" d="M 781.051,219.777 780.947,243.802 z" id="boundary" inkscape:connector-curvature="0" />
	<path style="fill:none;stroke:red;stroke-width:1px;stroke-linecap:butt;stroke-linejoin:miter;stroke-opacity:1" d="M 614.788,292.232 616.379,310.716 z" id="boundary" inkscape:connector-curvature="0" />
	<path style="fill:none;stroke:red;stroke-width:1px;stroke-linecap:butt;stroke-linejoin:miter;stroke-opacity:1" d="M 618.139,327.535 619.729,346.729 z" id="boundary" inkscape:connector-curvature="0" />
	<path style="fill:none;stroke:red;stroke-width:1px;stroke-linecap:butt;stroke-linejoin:miter;stroke-opacity:1" d="M 618.139,327.535 616.379,310.716 z" id="boundary" inkscape:connector-curvature="0" />
	<path style="fill:none;stroke:red;stroke-width:1px;stroke-linecap:butt;stroke-linejoin:miter;stroke-opacity:1" d="M 619.729,346.729 621.149,368.571 z" id="boundary" inkscape:connector-curvature="0" />
	<path style="fill:none;stroke:red;stroke-width:1px;stroke-linecap:butt;stroke-linejoin:miter;stroke-opacity:1" d="M 721.321,386.508 728.079,356.297 z" id="boundary" inkscape:connector-curvature="0" />
	<path style="fill:none;stroke:red;stroke-width:1px;stroke-linecap:butt;stroke-linejoin:miter;stroke-opacity:1" d="M 776.31,358.616 776.972,384.282 z" id="boundary" inkscape:connector-curvature="0" />
	<path style="fill:none;stroke:red;stroke-width:1px;stroke-linecap:butt;stroke-linejoin:miter;stroke-opacity:1" d="M 777.37,339.744 776.31,358.616 z" id="boundary" inkscape:connector-curvature="0" />
	<path style="fill:none;stroke:red;stroke-width:1px;stroke-linecap:butt;stroke-linejoin:miter;stroke-opacity:1" d="M 621.149,368.571 622.739,392.868 z" id="boundary" inkscape:connector-curvature="0" />
	<path style="fill:none;stroke:red;stroke-width:1px;stroke-linecap:butt;stroke-linejoin:miter;stroke-opacity:1" d="M 614.788,292.232 613.198,274.411 z" id="boundary" inkscape:connector-curvature="0" />
	<path style="fill:none;stroke:red;stroke-width:1px;stroke-linecap:butt;stroke-linejoin:miter;stroke-opacity:1" d="M 777.824,318.562 779.402,294.043 z" id="boundary" inkscape:connector-curvature="0" />
	<path style="fill:none;stroke:red;stroke-width:1px;stroke-linecap:butt;stroke-linejoin:miter;stroke-opacity:1" d="M 779.402,294.043 779.982,270.521 z" id="boundary" inkscape:connector-curvature="0" />
	<path style="fill:none;stroke:red;stroke-width:1px;stroke-linecap:butt;stroke-linejoin:miter;stroke-opacity:1" d="M 779.982,270.521 780.947,243.802 z" id="boundary" inkscape:connector-curvature="0" />
	<path style="fill:none;stroke:red;stroke-width:1px;stroke-linecap:butt;stroke-linejoin:miter;stroke-opacity:1" d="M 930.808,383.792 947.504,380.725 z" id="boundary" inkscape:connector-curvature="0" />
	<path style="fill:none;stroke:red;stroke-width:1px;stroke-linecap:butt;stroke-linejoin:miter;stroke-opacity:1" d="M 947.504,380.725 964.199,387.975 z" id="boundary" inkscape:connector-curvature="0" />
	<path style="fill:none;stroke:red;stroke-width:1px;stroke-linecap:butt;stroke-linejoin:miter;stroke-opacity:1" d="M 777.37,339.744 777.824,318.562 z" id="boundary" inkscape:connector-curvature="0" />
	<path style="fill:none;stroke:red;stroke-width:1px;stroke-linecap:butt;stroke-linejoin:miter;stroke-opacity:1" d="M 930.808,383.792 914.113,393.749 z" id="boundary" inkscape:connector-curvature="0" />
	<path style="fill:none;stroke:red;stroke-width:1px;stroke-linecap:butt;stroke-linejoin:miter;stroke-opacity:1" d="M 776.972,384.282 778.506,411.296 z" id="boundary" inkscape:connector-curvature="0" />
	<path style="fill:none;stroke:red;stroke-width:1px;stroke-linecap:butt;stroke-linejoin:miter;stroke-opacity:1" d="M 621.546,21.4336 638.242,26.8663 z" id="boundary" inkscape:connector-curvature="0" />
	<path style="fill:none;stroke:red;stroke-width:1px;stroke-linecap:butt;stroke-linejoin:miter;stroke-opacity:1" d="M 512.231,474.954 514.219,454.482 z" id="boundary" inkscape:connector-curvature="0" />
	<path style="fill:none;stroke:red;stroke-width:1px;stroke-linecap:butt;stroke-linejoin:miter;stroke-opacity:1" d="M 512.231,474.954 509.846,493.968 z" id="boundary" inkscape:connector-curvature="0" />
	<path style="fill:none;stroke:red;stroke-width:1px;stroke-linecap:butt;stroke-linejoin:miter;stroke-opacity:1" d="M 514.219,454.482 516.339,435.424 z" id="boundary" inkscape:connector-curvature="0" />
	<path style="fill:none;stroke:red;stroke-width:1px;stroke-linecap:butt;stroke-linejoin:miter;stroke-opacity:1" d="M 518.724,415.372 516.339,435.424 z" id="boundary" inkscape:connector-curvature="0" />
	<path style="fill:none;stroke:red;stroke-width:1px;stroke-linecap:butt;stroke-linejoin:miter;stroke-opacity:1" d="M 502.691,548.824 505.076,530.87 z" id="boundary" inkscape:connector-curvature="0" />
	<path style="fill:none;stroke:red;stroke-width:1px;stroke-linecap:butt;stroke-linejoin:miter;stroke-opacity:1" d="M 507.461,512.651 509.846,493.968 z" id="boundary" inkscape:connector-curvature="0" />
	<path style="fill:none;stroke:red;stroke-width:1px;stroke-linecap:butt;stroke-linejoin:miter;stroke-opacity:1" d="M 507.461,512.651 505.076,530.87 z" id="boundary" inkscape:connector-curvature="0" />
	<path style="fill:none;stroke:red;stroke-width:1px;stroke-linecap:butt;stroke-linejoin:miter;stroke-opacity:1" d="M 622.739,392.868 624.329,416.421 z" id="boundary" inkscape:connector-curvature="0" />
	<path style="fill:none;stroke:red;stroke-width:1px;stroke-linecap:butt;stroke-linejoin:miter;stroke-opacity:1" d="M 624.329,416.421 625.919,439.128 z" id="boundary" inkscape:connector-curvature="0" />
	<path style="fill:none;stroke:red;stroke-width:1px;stroke-linecap:butt;stroke-linejoin:miter;stroke-opacity:1" d="M 629.298,484.544 627.553,462.543 z" id="boundary" inkscape:connector-curvature="0" />
	<path style="fill:none;stroke:red;stroke-width:1px;stroke-linecap:butt;stroke-linejoin:miter;stroke-opacity:1" d="M 627.553,462.543 625.919,439.128 z" id="boundary" inkscape:connector-curvature="0" />
	<path style="fill:none;stroke:red;stroke-width:1px;stroke-linecap:butt;stroke-linejoin:miter;stroke-opacity:1" d="M 629.298,484.544 630.746,506.471 z" id="boundary" inkscape:connector-curvature="0" />
	<path style="fill:none;stroke:red;stroke-width:1px;stroke-linecap:butt;stroke-linejoin:miter;stroke-opacity:1" d="M 635.629,563.769 633.869,544.982 z" id="boundary" inkscape:connector-curvature="0" />
	<path style="fill:none;stroke:red;stroke-width:1px;stroke-linecap:butt;stroke-linejoin:miter;stroke-opacity:1" d="M 633.869,544.982 632.279,526.895 z" id="boundary" inkscape:connector-curvature="0" />
	<path style="fill:none;stroke:red;stroke-width:1px;stroke-linecap:butt;stroke-linejoin:miter;stroke-opacity:1" d="M 630.746,506.471 632.279,526.895 z" id="boundary" inkscape:connector-curvature="0" />
	<path style="fill:none;stroke:red;stroke-width:1px;stroke-linecap:butt;stroke-linejoin:miter;stroke-opacity:1" d="M 518.724,415.372 521.109,395.099 z" id="boundary" inkscape:connector-curvature="0" />
	<path style="fill:none;stroke:red;stroke-width:1px;stroke-linecap:butt;stroke-linejoin:miter;stroke-opacity:1" d="M 502.691,548.824 500.306,566.182 z" id="boundary" inkscape:connector-curvature="0" />
	<path style="fill:none;stroke:red;stroke-width:1px;stroke-linecap:butt;stroke-linejoin:miter;stroke-opacity:1" d="M 497.921,582.878 500.306,566.182 z" id="boundary" inkscape:connector-curvature="0" />
	<path style="fill:none;stroke:red;stroke-width:1px;stroke-linecap:butt;stroke-linejoin:miter;stroke-opacity:1" d="M 497.921,582.878 495.479,600.567 z" id="boundary" inkscape:connector-curvature="0" />
	<path style="fill:none;stroke:red;stroke-width:1px;stroke-linecap:butt;stroke-linejoin:miter;stroke-opacity:1" d="M 635.629,563.769 637.219,582.168 z" id="boundary" inkscape:connector-curvature="0" />
	<path style="fill:none;stroke:red;stroke-width:1px;stroke-linecap:butt;stroke-linejoin:miter;stroke-opacity:1" d="M 641.762,624.815 639.832,602.873 z" id="boundary" inkscape:connector-curvature="0" />
	<path style="fill:none;stroke:red;stroke-width:1px;stroke-linecap:butt;stroke-linejoin:miter;stroke-opacity:1" d="M 637.219,582.168 639.832,602.873 z" id="boundary" inkscape:connector-curvature="0" />
	<path style="fill:none;stroke:red;stroke-width:1px;stroke-linecap:butt;stroke-linejoin:miter;stroke-opacity:1" d="M 492.412,618.455 495.479,600.567 z" id="boundary" inkscape:connector-curvature="0" />
	<path style="fill:none;stroke:red;stroke-width:1px;stroke-linecap:butt;stroke-linejoin:miter;stroke-opacity:1" d="M 644.204,644.691 641.762,624.815 z" id="boundary" inkscape:connector-curvature="0" />
	<path style="fill:none;stroke:red;stroke-width:1px;stroke-linecap:butt;stroke-linejoin:miter;stroke-opacity:1" d="M 691.849,610.618 688.782,629.812 z" id="boundary" inkscape:connector-curvature="0" />
	<path style="fill:none;stroke:red;stroke-width:1px;stroke-linecap:butt;stroke-linejoin:miter;stroke-opacity:1" d="M 644.204,644.691 646.646,662.294 z" id="boundary" inkscape:connector-curvature="0" />
	<path style="fill:none;stroke:red;stroke-width:1px;stroke-linecap:butt;stroke-linejoin:miter;stroke-opacity:1" d="M 650.456,682.02 646.646,662.294 z" id="boundary" inkscape:connector-curvature="0" />
	<path style="fill:none;stroke:red;stroke-width:1px;stroke-linecap:butt;stroke-linejoin:miter;stroke-opacity:1" d="M 685.943,648.715 682.674,667.923 z" id="boundary" inkscape:connector-curvature="0" />
	<path style="fill:none;stroke:red;stroke-width:1px;stroke-linecap:butt;stroke-linejoin:miter;stroke-opacity:1" d="M 685.943,648.715 688.782,629.812 z" id="boundary" inkscape:connector-curvature="0" />
	<path style="fill:none;stroke:red;stroke-width:1px;stroke-linecap:butt;stroke-linejoin:miter;stroke-opacity:1" d="M 650.456,682.02 653.744,701.004 z" id="boundary" inkscape:connector-curvature="0" />
	<path style="fill:none;stroke:red;stroke-width:1px;stroke-linecap:butt;stroke-linejoin:miter;stroke-opacity:1" d="M 675.21,703.456 664.477,718.684 z" id="boundary" inkscape:connector-curvature="0" />
	<path style="fill:none;stroke:red;stroke-width:1px;stroke-linecap:butt;stroke-linejoin:miter;stroke-opacity:1" d="M 664.477,718.684 653.744,701.004 z" id="boundary" inkscape:connector-curvature="0" />
	<path style="fill:none;stroke:red;stroke-width:1px;stroke-linecap:butt;stroke-linejoin:miter;stroke-opacity:1" d="M 679.284,684.889 675.21,703.456 z" id="boundary" inkscape:connector-curvature="0" />
	<path style="fill:none;stroke:red;stroke-width:1px;stroke-linecap:butt;stroke-linejoin:miter;stroke-opacity:1" d="M 682.674,667.923 679.284,684.889 z" id="boundary" inkscape:connector-curvature="0" />
	<path style="fill:none;stroke:red;stroke-width:1px;stroke-linecap:butt;stroke-linejoin:miter;stroke-opacity:1" d="M 715.756,422.748 718.198,404.992 z" id="boundary" inkscape:connector-curvature="0" />
	<path style="fill:none;stroke:red;stroke-width:1px;stroke-linecap:butt;stroke-linejoin:miter;stroke-opacity:1" d="M 778.506,411.296 781.742,432.699 z" id="boundary" inkscape:connector-curvature="0" />
	<path style="fill:none;stroke:red;stroke-width:1px;stroke-linecap:butt;stroke-linejoin:miter;stroke-opacity:1" d="M 784.923,450.441 781.742,432.699 z" id="boundary" inkscape:connector-curvature="0" />
	<path style="fill:none;stroke:red;stroke-width:1px;stroke-linecap:butt;stroke-linejoin:miter;stroke-opacity:1" d="M 718.198,404.992 721.321,386.508 z" id="boundary" inkscape:connector-curvature="0" />
	<path style="fill:none;stroke:red;stroke-width:1px;stroke-linecap:butt;stroke-linejoin:miter;stroke-opacity:1" d="M 713.371,440.304 715.756,422.748 z" id="boundary" inkscape:connector-curvature="0" />
	<path style="fill:none;stroke:red;stroke-width:1px;stroke-linecap:butt;stroke-linejoin:miter;stroke-opacity:1" d="M 708.601,477.538 710.986,458.524 z" id="boundary" inkscape:connector-curvature="0" />
	<path style="fill:none;stroke:red;stroke-width:1px;stroke-linecap:butt;stroke-linejoin:miter;stroke-opacity:1" d="M 708.601,477.538 706.216,496.685 z" id="boundary" inkscape:connector-curvature="0" />
	<path style="fill:none;stroke:red;stroke-width:1px;stroke-linecap:butt;stroke-linejoin:miter;stroke-opacity:1" d="M 710.986,458.524 713.371,440.304 z" id="boundary" inkscape:connector-curvature="0" />
	<path style="fill:none;stroke:red;stroke-width:1px;stroke-linecap:butt;stroke-linejoin:miter;stroke-opacity:1" d="M 784.923,450.441 790.488,467.998 z" id="boundary" inkscape:connector-curvature="0" />
	<path style="fill:none;stroke:red;stroke-width:1px;stroke-linecap:butt;stroke-linejoin:miter;stroke-opacity:1" d="M 897.418,407.548 914.113,393.749 z" id="boundary" inkscape:connector-curvature="0" />
	<path style="fill:none;stroke:red;stroke-width:1px;stroke-linecap:butt;stroke-linejoin:miter;stroke-opacity:1" d="M 979.305,402.163 990.117,419.462 z" id="boundary" inkscape:connector-curvature="0" />
	<path style="fill:none;stroke:red;stroke-width:1px;stroke-linecap:butt;stroke-linejoin:miter;stroke-opacity:1" d="M 798.438,484.925 790.488,467.998 z" id="boundary" inkscape:connector-curvature="0" />
	<path style="fill:none;stroke:red;stroke-width:1px;stroke-linecap:butt;stroke-linejoin:miter;stroke-opacity:1" d="M 995.546,434.749 996,452.977 z" id="boundary" inkscape:connector-curvature="0" />
	<path style="fill:none;stroke:red;stroke-width:1px;stroke-linecap:butt;stroke-linejoin:miter;stroke-opacity:1" d="M 996,452.977 988.447,472.337 z" id="boundary" inkscape:connector-curvature="0" />
	<path style="fill:none;stroke:red;stroke-width:1px;stroke-linecap:butt;stroke-linejoin:miter;stroke-opacity:1" d="M 810.761,502.215 798.438,484.925 z" id="boundary" inkscape:connector-curvature="0" />
	<path style="fill:none;stroke:red;stroke-width:1px;stroke-linecap:butt;stroke-linejoin:miter;stroke-opacity:1" d="M 990.117,419.462 995.546,434.749 z" id="boundary" inkscape:connector-curvature="0" />
	<path style="fill:none;stroke:red;stroke-width:1px;stroke-linecap:butt;stroke-linejoin:miter;stroke-opacity:1" d="M 988.447,472.337 976.125,489.264 z" id="boundary" inkscape:connector-curvature="0" />
	<path style="fill:none;stroke:red;stroke-width:1px;stroke-linecap:butt;stroke-linejoin:miter;stroke-opacity:1" d="M 703.831,516.03 706.216,496.685 z" id="boundary" inkscape:connector-curvature="0" />
	<path style="fill:none;stroke:red;stroke-width:1px;stroke-linecap:butt;stroke-linejoin:miter;stroke-opacity:1" d="M 703.831,516.03 701.446,535.375 z" id="boundary" inkscape:connector-curvature="0" />
	<path style="fill:none;stroke:red;stroke-width:1px;stroke-linecap:butt;stroke-linejoin:miter;stroke-opacity:1" d="M 826.661,516.768 810.761,502.215 z" id="boundary" inkscape:connector-curvature="0" />
	<path style="fill:none;stroke:red;stroke-width:1px;stroke-linecap:butt;stroke-linejoin:miter;stroke-opacity:1" d="M 694.29,591.689 696.675,573.536 z" id="boundary" inkscape:connector-curvature="0" />
	<path style="fill:none;stroke:red;stroke-width:1px;stroke-linecap:butt;stroke-linejoin:miter;stroke-opacity:1" d="M 694.29,591.689 691.849,610.618 z" id="boundary" inkscape:connector-curvature="0" />
	<path style="fill:none;stroke:red;stroke-width:1px;stroke-linecap:butt;stroke-linejoin:miter;stroke-opacity:1" d="M 699.06,554.588 696.675,573.536 z" id="boundary" inkscape:connector-curvature="0" />
	<path style="fill:none;stroke:red;stroke-width:1px;stroke-linecap:butt;stroke-linejoin:miter;stroke-opacity:1" d="M 699.06,554.588 701.446,535.375 z" id="boundary" inkscape:connector-curvature="0" />
	<path style="fill:none;stroke:red;stroke-width:1px;stroke-linecap:butt;stroke-linejoin:miter;stroke-opacity:1" d="M 826.661,516.768 843.356,526.592 z" id="boundary" inkscape:connector-curvature="0" />
	<path style="fill:none;stroke:red;stroke-width:1px;stroke-linecap:butt;stroke-linejoin:miter;stroke-opacity:1" d="M 926.833,523.072 943.529,514.989 z" id="boundary" inkscape:connector-curvature="0" />
	<path style="fill:none;stroke:red;stroke-width:1px;stroke-linecap:butt;stroke-linejoin:miter;stroke-opacity:1" d="M 926.833,523.072 910.138,528.826 z" id="boundary" inkscape:connector-curvature="0" />
	<path style="fill:none;stroke:red;stroke-width:1px;stroke-linecap:butt;stroke-linejoin:miter;stroke-opacity:1" d="M 910.138,528.826 893.443,532.366 z" id="boundary" inkscape:connector-curvature="0" />
	<path style="fill:none;stroke:red;stroke-width:1px;stroke-linecap:butt;stroke-linejoin:miter;stroke-opacity:1" d="M 943.529,514.989 960.224,503.953 z" id="boundary" inkscape:connector-curvature="0" />
	<path style="fill:none;stroke:red;stroke-width:1px;stroke-linecap:butt;stroke-linejoin:miter;stroke-opacity:1" d="M 843.356,526.592 860.052,531.911 z" id="boundary" inkscape:connector-curvature="0" />
	<path style="fill:none;stroke:red;stroke-width:1px;stroke-linecap:butt;stroke-linejoin:miter;stroke-opacity:1" d="M 876.747,533.388 860.052,531.911 z" id="boundary" inkscape:connector-curvature="0" />
	<path style="fill:none;stroke:red;stroke-width:1px;stroke-linecap:butt;stroke-linejoin:miter;stroke-opacity:1" d="M 876.747,533.388 893.443,532.366 z" id="boundary" inkscape:connector-curvature="0" />
	<path style="fill:none;stroke:red;stroke-width:1px;stroke-linecap:butt;stroke-linejoin:miter;stroke-opacity:1" d="M 976.125,489.264 960.224,503.953 z" id="boundary" inkscape:connector-curvature="0" />
	<path style="fill:none;stroke:red;stroke-width:1px;stroke-linecap:butt;stroke-linejoin:miter;stroke-opacity:1" d="M 487.983,4.30286 504.678,4 z" id="boundary" inkscape:connector-curvature="0" />
	<circle cx="4" cy="417.59" r="4" fill="#0" id="circle0"/>
	<circle cx="10.0321" cy="393.609" r="4" fill="#0" id="circle1"/>
	<circle cx="10.5742" cy="443.75" r="4" fill="#0" id="circle2"/>
	<circle cx="21.3069" cy="460.153" r="4" fill="#0" id="circle3"/>
	<circle cx="22.102" cy="376.204" r="4" fill="#0" id="circle4"/>
	<circle cx="36.4123" cy="475.617" r="4" fill="#0" id="circle5"/>
	<circle cx="38.0023" cy="362.251" r="4" fill="#0" id="circle6"/>
	<circle cx="53.1077" cy="487.864" r="4" fill="#0" id="circle7"/>
	<circle cx="54.6977" cy="354.433" r="4" fill="#0" id="circle8"/>
	<circle cx="69.8031" cy="496.798" r="4" fill="#0" id="circle9"/>
	<circle cx="71.3931" cy="355.323" r="4" fill="#0" id="circle10"/>
	<circle cx="86.4985" cy="502.893" r="4" fill="#0" id="circle11"/>
	<circle cx="88.0885" cy="363.216" r="4" fill="#0" id="circle12"/>
	<circle cx="103.194" cy="506.376" r="4" fill="#0" id="circle13"/>
	<circle cx="104.784" cy="374.895" r="4" fill="#0" id="circle14"/>
	<circle cx="119.889" cy="506.774" r="4" fill="#0" id="circle15"/>
	<circle cx="113.927" cy="381.142" r="4" fill="#0" id="circle16"/>
	<circle cx="136.585" cy="503.366" r="4" fill="#0" id="circle17"/>
	<circle cx="153.28" cy="495.606" r="4" fill="#0" id="circle18"/>
	<circle cx="169.975" cy="482.999" r="4" fill="#0" id="circle19"/>
	<circle cx="183.888" cy="466.89" r="4" fill="#0" id="circle20"/>
	<circle cx="193.429" cy="450.269" r="4" fill="#0" id="circle21"/>
	<circle cx="200.186" cy="433.216" r="4" fill="#0" id="circle22"/>
	<circle cx="205.297" cy="414.476" r="4" fill="#0" id="circle23"/>
	<circle cx="208.136" cy="398.682" r="4" fill="#0" id="circle24"/>
	<circle cx="210.919" cy="382.069" r="4" fill="#0" id="circle25"/>
	<circle cx="212.641" cy="364.711" r="4" fill="#0" id="circle26"/>
	<circle cx="214.042" cy="345.877" r="4" fill="#0" id="circle27"/>
	<circle cx="214.951" cy="325.945" r="4" fill="#0" id="circle28"/>
	<circle cx="215.733" cy="300.712" r="4" fill="#0" id="circle29"/>
	<circle cx="215.987" cy="273.615" r="4" fill="#0" id="circle30"/>
	<circle cx="216.793" cy="248.506" r="4" fill="#0" id="circle31"/>
	<circle cx="218.03" cy="222.58" r="4" fill="#0" id="circle32"/>
	<circle cx="219.903" cy="198.049" r="4" fill="#0" id="circle33"/>
	<circle cx="222.049" cy="179.538" r="4" fill="#0" id="circle34"/>
	<circle cx="225.538" cy="161.231" r="4" fill="#0" id="circle35"/>
	<circle cx="229.602" cy="143.917" r="4" fill="#0" id="circle36"/>
	<circle cx="236.757" cy="124.881" r="4" fill="#0" id="circle37"/>
	<circle cx="245.105" cy="107.192" r="4" fill="#0" id="circle38"/>
	<circle cx="256.235" cy="90.463" r="4" fill="#0" id="circle39"/>
	<circle cx="270.943" cy="74.946" r="4" fill="#0" id="circle40"/>
	<circle cx="268.955" cy="404.356" r="4" fill="#0" id="circle41"/>
	<circle cx="269.921" cy="432.193" r="4" fill="#0" id="circle42"/>
	<circle cx="267.763" cy="366.434" r="4" fill="#0" id="circle43"/>
	<circle cx="270.489" cy="453.375" r="4" fill="#0" id="circle44"/>
	<circle cx="271.34" cy="472.966" r="4" fill="#0" id="circle45"/>
	<circle cx="272.886" cy="496.42" r="4" fill="#0" id="circle46"/>
	<circle cx="274.759" cy="522.417" r="4" fill="#0" id="circle47"/>
	<circle cx="276.11" cy="545.644" r="4" fill="#0" id="circle48"/>
	<circle cx="277.701" cy="563.466" r="4" fill="#0" id="circle49"/>
	<circle cx="279.39" cy="582.282" r="4" fill="#0" id="circle50"/>
	<circle cx="281.994" cy="603.27" r="4" fill="#0" id="circle51"/>
	<circle cx="287.638" cy="62.4339" r="4" fill="#0" id="circle52"/>
	<circle cx="284.061" cy="625.544" r="4" fill="#0" id="circle53"/>
	<circle cx="286.503" cy="643.612" r="4" fill="#0" id="circle54"/>
	<circle cx="289.935" cy="662.269" r="4" fill="#0" id="circle55"/>
	<circle cx="293.005" cy="679.82" r="4" fill="#0" id="circle56"/>
	<circle cx="298.371" cy="700.491" r="4" fill="#0" id="circle57"/>
	<circle cx="304.334" cy="52.1554" r="4" fill="#0" id="circle58"/>
	<circle cx="309.501" cy="708.789" r="4" fill="#0" id="circle59"/>
	<circle cx="321.029" cy="43.2966" r="4" fill="#0" id="circle60"/>
	<circle cx="319.638" cy="683.497" r="4" fill="#0" id="circle61"/>
	<circle cx="322.619" cy="666.653" r="4" fill="#0" id="circle62"/>
	<circle cx="325.402" cy="649.792" r="4" fill="#0" id="circle63"/>
	<circle cx="327.787" cy="632.169" r="4" fill="#0" id="circle64"/>
	<circle cx="329.509" cy="612.183" r="4" fill="#0" id="circle65"/>
	<circle cx="331.591" cy="593.071" r="4" fill="#0" id="circle66"/>
	<circle cx="337.724" cy="35.6115" r="4" fill="#0" id="circle67"/>
	<circle cx="333.352" cy="575.126" r="4" fill="#0" id="circle68"/>
	<circle cx="334.942" cy="557.04" r="4" fill="#0" id="circle69"/>
	<circle cx="335.869" cy="538.887" r="4" fill="#0" id="circle70"/>
	<circle cx="337.327" cy="520.568" r="4" fill="#0" id="circle71"/>
	<circle cx="338.917" cy="498.258" r="4" fill="#0" id="circle72"/>
	<circle cx="340.337" cy="475.352" r="4" fill="#0" id="circle73"/>
	<circle cx="341.401" cy="452.097" r="4" fill="#0" id="circle74"/>
	<circle cx="342.892" cy="426.816" r="4" fill="#0" id="circle75"/>
	<circle cx="344.482" cy="396.883" r="4" fill="#0" id="circle76"/>
	<circle cx="346.072" cy="365.758" r="4" fill="#0" id="circle77"/>
	<circle cx="347.833" cy="341.618" r="4" fill="#0" id="circle78"/>
	<circle cx="354.42" cy="29.0431" r="4" fill="#0" id="circle79"/>
	<circle cx="349.082" cy="322.026" r="4" fill="#0" id="circle80"/>
	<circle cx="350.798" cy="301.463" r="4" fill="#0" id="circle81"/>
	<circle cx="353.284" cy="278.755" r="4" fill="#0" id="circle82"/>
	<circle cx="354.817" cy="258.51" r="4" fill="#0" id="circle83"/>
	<circle cx="356.407" cy="240.622" r="4" fill="#0" id="circle84"/>
	<circle cx="357.997" cy="223.264" r="4" fill="#0" id="circle85"/>
	<circle cx="359.587" cy="206.701" r="4" fill="#0" id="circle86"/>
	<circle cx="361.121" cy="189.656" r="4" fill="#0" id="circle87"/>
	<circle cx="363.43" cy="169.976" r="4" fill="#0" id="circle88"/>
	<circle cx="371.115" cy="23.3455" r="4" fill="#0" id="circle89"/>
	<circle cx="366.168" cy="149.04" r="4" fill="#0" id="circle90"/>
	<circle cx="369.128" cy="128.856" r="4" fill="#0" id="circle91"/>
	<circle cx="371.57" cy="111.119" r="4" fill="#0" id="circle92"/>
	<circle cx="375.002" cy="92.1966" r="4" fill="#0" id="circle93"/>
	<circle cx="378.986" cy="74.4235" r="4" fill="#0" id="circle94"/>
	<circle cx="387.811" cy="18.4807" r="4" fill="#0" id="circle95"/>
	<circle cx="390.991" cy="61.9796" r="4" fill="#0" id="circle96"/>
	<circle cx="404.506" cy="14.411" r="4" fill="#0" id="circle97"/>
	<circle cx="401.882" cy="83.129" r="4" fill="#0" id="circle98"/>
	<circle cx="404.96" cy="103.056" r="4" fill="#0" id="circle99"/>
	<circle cx="408.382" cy="124.053" r="4" fill="#0" id="circle100"/>
	<circle cx="410.639" cy="142.579" r="4" fill="#0" id="circle101"/>
	<circle cx="412.986" cy="162.997" r="4" fill="#0" id="circle102"/>
	<circle cx="415.296" cy="185.226" r="4" fill="#0" id="circle103"/>
	<circle cx="421.201" cy="11.0984" r="4" fill="#0" id="circle104"/>
	<circle cx="417.226" cy="205.954" r="4" fill="#0" id="circle105"/>
	<circle cx="418.419" cy="222.469" r="4" fill="#0" id="circle106"/>
	<circle cx="420.208" cy="240.622" r="4" fill="#0" id="circle107"/>
	<circle cx="421.798" cy="262.187" r="4" fill="#0" id="circle108"/>
	<circle cx="423.359" cy="283.411" r="4" fill="#0" id="circle109"/>
	<circle cx="424.779" cy="305.367" r="4" fill="#0" id="circle110"/>
	<circle cx="426.369" cy="327.975" r="4" fill="#0" id="circle111"/>
	<circle cx="427.86" cy="351.627" r="4" fill="#0" id="circle112"/>
	<circle cx="429.549" cy="373.192" r="4" fill="#0" id="circle113"/>
	<circle cx="431.139" cy="391.146" r="4" fill="#0" id="circle114"/>
	<circle cx="437.897" cy="8.41046" r="4" fill="#0" id="circle115"/>
	<circle cx="432.729" cy="410.16" r="4" fill="#0" id="circle116"/>
	<circle cx="434.49" cy="427.31" r="4" fill="#0" id="circle117"/>
	<circle cx="436.108" cy="446.482" r="4" fill="#0" id="circle118"/>
	<circle cx="437.698" cy="467.302" r="4" fill="#0" id="circle119"/>
	<circle cx="439.288" cy="488.42" r="4" fill="#0" id="circle120"/>
	<circle cx="440.878" cy="509.985" r="4" fill="#0" id="circle121"/>
	<circle cx="442.468" cy="531.45" r="4" fill="#0" id="circle122"/>
	<circle cx="444.058" cy="552.121" r="4" fill="#0" id="circle123"/>
	<circle cx="445.847" cy="573.713" r="4" fill="#0" id="circle124"/>
	<circle cx="447.04" cy="595.598" r="4" fill="#0" id="circle125"/>
	<circle cx="448.63" cy="614.082" r="4" fill="#0" id="circle126"/>
	<circle cx="454.592" cy="6.40399" r="4" fill="#0" id="circle127"/>
	<circle cx="450.319" cy="633.461" r="4" fill="#0" id="circle128"/>
	<circle cx="452.737" cy="654.761" r="4" fill="#0" id="circle129"/>
	<circle cx="455.046" cy="677.684" r="4" fill="#0" id="circle130"/>
	<circle cx="458.302" cy="696.367" r="4" fill="#0" id="circle131"/>
	<circle cx="468.903" cy="713.971" r="4" fill="#0" id="circle132"/>
	<circle cx="471.288" cy="5.0411" r="4" fill="#0" id="circle133"/>
	<circle cx="479.579" cy="689.552" r="4" fill="#0" id="circle134"/>
	<circle cx="482.815" cy="672.556" r="4" fill="#0" id="circle135"/>
	<circle cx="487.983" cy="4.30286" r="4" fill="#0" id="circle136"/>
	<circle cx="486.393" cy="654.628" r="4" fill="#0" id="circle137"/>
	<circle cx="489.573" cy="636.641" r="4" fill="#0" id="circle138"/>
	<circle cx="492.412" cy="618.455" r="4" fill="#0" id="circle139"/>
	<circle cx="495.479" cy="600.567" r="4" fill="#0" id="circle140"/>
	<circle cx="497.921" cy="582.878" r="4" fill="#0" id="circle141"/>
	<circle cx="504.678" cy="4" r="4" fill="#0" id="circle142"/>
	<circle cx="500.306" cy="566.182" r="4" fill="#0" id="circle143"/>
	<circle cx="502.691" cy="548.824" r="4" fill="#0" id="circle144"/>
	<circle cx="505.076" cy="530.87" r="4" fill="#0" id="circle145"/>
	<circle cx="507.461" cy="512.651" r="4" fill="#0" id="circle146"/>
	<circle cx="509.846" cy="493.968" r="4" fill="#0" id="circle147"/>
	<circle cx="512.231" cy="474.954" r="4" fill="#0" id="circle148"/>
	<circle cx="514.219" cy="454.482" r="4" fill="#0" id="circle149"/>
	<circle cx="521.374" cy="4.7193" r="4" fill="#0" id="circle150"/>
	<circle cx="516.339" cy="435.424" r="4" fill="#0" id="circle151"/>
	<circle cx="518.724" cy="415.372" r="4" fill="#0" id="circle152"/>
	<circle cx="521.109" cy="395.099" r="4" fill="#0" id="circle153"/>
	<circle cx="523.494" cy="374.561" r="4" fill="#0" id="circle154"/>
	<circle cx="525.879" cy="353.802" r="4" fill="#0" id="circle155"/>
	<circle cx="527.933" cy="333.391" r="4" fill="#0" id="circle156"/>
	<circle cx="530.384" cy="311.489" r="4" fill="#0" id="circle157"/>
	<circle cx="538.069" cy="5.83611" r="4" fill="#0" id="circle158"/>
	<circle cx="532.802" cy="288.472" r="4" fill="#0" id="circle159"/>
	<circle cx="534.492" cy="269.044" r="4" fill="#0" id="circle160"/>
	<circle cx="536.082" cy="252.349" r="4" fill="#0" id="circle161"/>
	<circle cx="537.672" cy="236.051" r="4" fill="#0" id="circle162"/>
	<circle cx="539.205" cy="218.39" r="4" fill="#0" id="circle163"/>
	<circle cx="541.514" cy="197.183" r="4" fill="#0" id="circle164"/>
	<circle cx="543.899" cy="174.79" r="4" fill="#0" id="circle165"/>
	<circle cx="546.576" cy="152.455" r="4" fill="#0" id="circle166"/>
	<circle cx="554.765" cy="7.57758" r="4" fill="#0" id="circle167"/>
	<circle cx="549.597" cy="132.036" r="4" fill="#0" id="circle168"/>
	<circle cx="551.982" cy="114.943" r="4" fill="#0" id="circle169"/>
	<circle cx="554.424" cy="98.2287" r="4" fill="#0" id="circle170"/>
	<circle cx="557.945" cy="79.4719" r="4" fill="#0" id="circle171"/>
	<circle cx="563.828" cy="60.8685" r="4" fill="#0" id="circle172"/>
	<circle cx="571.46" cy="9.96264" r="4" fill="#0" id="circle173"/>
	<circle cx="576.23" cy="53.2344" r="4" fill="#0" id="circle174"/>
	<circle cx="588.155" cy="13.067" r="4" fill="#0" id="circle175"/>
	<circle cx="587.449" cy="76.6937" r="4" fill="#0" id="circle176"/>
	<circle cx="591.247" cy="94.8467" r="4" fill="#0" id="circle177"/>
	<circle cx="594.175" cy="113.788" r="4" fill="#0" id="circle178"/>
	<circle cx="597.241" cy="132.585" r="4" fill="#0" id="circle179"/>
	<circle cx="604.851" cy="16.8339" r="4" fill="#0" id="circle180"/>
	<circle cx="600.081" cy="152.46" r="4" fill="#0" id="circle181"/>
	<circle cx="602.565" cy="169.965" r="4" fill="#0" id="circle182"/>
	<circle cx="604.553" cy="188.648" r="4" fill="#0" id="circle183"/>
	<circle cx="606.971" cy="209.771" r="4" fill="#0" id="circle184"/>
	<circle cx="609.356" cy="233.533" r="4" fill="#0" id="circle185"/>
	<circle cx="611.665" cy="255.642" r="4" fill="#0" id="circle186"/>
	<circle cx="613.198" cy="274.411" r="4" fill="#0" id="circle187"/>
	<circle cx="614.788" cy="292.232" r="4" fill="#0" id="circle188"/>
	<circle cx="621.546" cy="21.4336" r="4" fill="#0" id="circle189"/>
	<circle cx="616.379" cy="310.716" r="4" fill="#0" id="circle190"/>
	<circle cx="618.139" cy="327.535" r="4" fill="#0" id="circle191"/>
	<circle cx="619.729" cy="346.729" r="4" fill="#0" id="circle192"/>
	<circle cx="621.149" cy="368.571" r="4" fill="#0" id="circle193"/>
	<circle cx="622.739" cy="392.868" r="4" fill="#0" id="circle194"/>
	<circle cx="624.329" cy="416.421" r="4" fill="#0" id="circle195"/>
	<circle cx="625.919" cy="439.128" r="4" fill="#0" id="circle196"/>
	<circle cx="627.553" cy="462.543" r="4" fill="#0" id="circle197"/>
	<circle cx="629.298" cy="484.544" r="4" fill="#0" id="circle198"/>
	<circle cx="630.746" cy="506.471" r="4" fill="#0" id="circle199"/>
	<circle cx="632.279" cy="526.895" r="4" fill="#0" id="circle200"/>
	<circle cx="638.242" cy="26.8663" r="4" fill="#0" id="circle201"/>
	<circle cx="633.869" cy="544.982" r="4" fill="#0" id="circle202"/>
	<circle cx="635.629" cy="563.769" r="4" fill="#0" id="circle203"/>
	<circle cx="637.219" cy="582.168" r="4" fill="#0" id="circle204"/>
	<circle cx="639.832" cy="602.873" r="4" fill="#0" id="circle205"/>
	<circle cx="641.762" cy="624.815" r="4" fill="#0" id="circle206"/>
	<circle cx="644.204" cy="644.691" r="4" fill="#0" id="circle207"/>
	<circle cx="646.646" cy="662.294" r="4" fill="#0" id="circle208"/>
	<circle cx="654.937" cy="33.1318" r="4" fill="#0" id="circle209"/>
	<circle cx="650.456" cy="682.02" r="4" fill="#0" id="circle210"/>
	<circle cx="653.744" cy="701.004" r="4" fill="#0" id="circle211"/>
	<circle cx="664.477" cy="718.684" r="4" fill="#0" id="circle212"/>
	<circle cx="671.632" cy="40.4384" r="4" fill="#0" id="circle213"/>
	<circle cx="675.21" cy="703.456" r="4" fill="#0" id="circle214"/>
	<circle cx="679.284" cy="684.889" r="4" fill="#0" id="circle215"/>
	<circle cx="682.674" cy="667.923" r="4" fill="#0" id="circle216"/>
	<circle cx="688.328" cy="48.9186" r="4" fill="#0" id="circle217"/>
	<circle cx="685.943" cy="648.715" r="4" fill="#0" id="circle218"/>
	<circle cx="688.782" cy="629.812" r="4" fill="#0" id="circle219"/>
	<circle cx="691.849" cy="610.618" r="4" fill="#0" id="circle220"/>
	<circle cx="694.29" cy="591.689" r="4" fill="#0" id="circle221"/>
	<circle cx="696.675" cy="573.536" r="4" fill="#0" id="circle222"/>
	<circle cx="699.06" cy="554.588" r="4" fill="#0" id="circle223"/>
	<circle cx="705.023" cy="58.7617" r="4" fill="#0" id="circle224"/>
	<circle cx="701.446" cy="535.375" r="4" fill="#0" id="circle225"/>
	<circle cx="703.831" cy="516.03" r="4" fill="#0" id="circle226"/>
	<circle cx="706.216" cy="496.685" r="4" fill="#0" id="circle227"/>
	<circle cx="708.601" cy="477.538" r="4" fill="#0" id="circle228"/>
	<circle cx="710.986" cy="458.524" r="4" fill="#0" id="circle229"/>
	<circle cx="713.371" cy="440.304" r="4" fill="#0" id="circle230"/>
	<circle cx="715.756" cy="422.748" r="4" fill="#0" id="circle231"/>
	<circle cx="721.719" cy="70.2516" r="4" fill="#0" id="circle232"/>
	<circle cx="718.198" cy="404.992" r="4" fill="#0" id="circle233"/>
	<circle cx="721.321" cy="386.508" r="4" fill="#0" id="circle234"/>
	<circle cx="728.079" cy="356.297" r="4" fill="#0" id="circle235"/>
	<circle cx="738.016" cy="84.083" r="4" fill="#0" id="circle236"/>
	<circle cx="751.532" cy="100.415" r="4" fill="#0" id="circle237"/>
	<circle cx="761.072" cy="116.838" r="4" fill="#0" id="circle238"/>
	<circle cx="767.83" cy="133.38" r="4" fill="#0" id="circle239"/>
	<circle cx="773.483" cy="150.145" r="4" fill="#0" id="circle240"/>
	<circle cx="776.972" cy="384.282" r="4" fill="#0" id="circle241"/>
	<circle cx="776.31" cy="358.616" r="4" fill="#0" id="circle242"/>
	<circle cx="777.37" cy="169.843" r="4" fill="#0" id="circle243"/>
	<circle cx="777.37" cy="339.744" r="4" fill="#0" id="circle244"/>
	<circle cx="778.506" cy="411.296" r="4" fill="#0" id="circle245"/>
	<circle cx="777.824" cy="318.562" r="4" fill="#0" id="circle246"/>
	<circle cx="779.402" cy="294.043" r="4" fill="#0" id="circle247"/>
	<circle cx="779.357" cy="187.621" r="4" fill="#0" id="circle248"/>
	<circle cx="779.982" cy="270.521" r="4" fill="#0" id="circle249"/>
	<circle cx="781.742" cy="432.699" r="4" fill="#0" id="circle250"/>
	<circle cx="780.947" cy="243.802" r="4" fill="#0" id="circle251"/>
	<circle cx="780.947" cy="212.717" r="4" fill="#0" id="circle252"/>
	<circle cx="778.96" cy="199.48" r="4" fill="#0" id="circle253"/>
	<circle cx="784.923" cy="450.441" r="4" fill="#0" id="circle254"/>
	<circle cx="790.488" cy="467.998" r="4" fill="#0" id="circle255"/>
	<circle cx="798.438" cy="484.925" r="4" fill="#0" id="circle256"/>
	<circle cx="810.761" cy="502.215" r="4" fill="#0" id="circle257"/>
	<circle cx="826.661" cy="516.768" r="4" fill="#0" id="circle258"/>
	<circle cx="843.356" cy="526.592" r="4" fill="#0" id="circle259"/>
	<circle cx="860.052" cy="531.911" r="4" fill="#0" id="circle260"/>
	<circle cx="876.747" cy="533.388" r="4" fill="#0" id="circle261"/>
	<circle cx="893.443" cy="532.366" r="4" fill="#0" id="circle262"/>
	<circle cx="897.418" cy="407.548" r="4" fill="#0" id="circle263"/>
	<circle cx="910.138" cy="528.826" r="4" fill="#0" id="circle264"/>
	<circle cx="914.113" cy="393.749" r="4" fill="#0" id="circle265"/>
	<circle cx="926.833" cy="523.072" r="4" fill="#0" id="circle266"/>
	<circle cx="930.808" cy="383.792" r="4" fill="#0" id="circle267"/>
	<circle cx="943.529" cy="514.989" r="4" fill="#0" id="circle268"/>
	<circle cx="947.504" cy="380.725" r="4" fill="#0" id="circle269"/>
	<circle cx="960.224" cy="503.953" r="4" fill="#0" id="circle270"/>
	<circle cx="964.199" cy="387.975" r="4" fill="#0" id="circle271"/>
	<circle cx="976.125" cy="489.264" r="4" fill="#0" id="circle272"/>
	<circle cx="979.305" cy="402.163" r="4" fill="#0" id="circle273"/>
	<circle cx="988.447" cy="472.337" r="4" fill="#0" id="circle274"/>
	<circle cx="990.117" cy="419.462" r="4" fill="#0" id="circle275"/>
	<circle cx="996" cy="452.977" r="4" fill="#0" id="circle276"/>
	<circle cx="995.546" cy="434.749" r="4" fill="#0" id="circle277"/>
	<circle cx="781.051" cy="219.777" r="4" fill="#0" id="circle278"/>
	</g>
</svg>