<?xml version="1.0" encoding="UTF-8" standalone="no"?>
<!-- Created with CurveBenchmark -->
<svg
	xmlns:dc="http://purl.org/dc/elements/1.1/"
	xmlns:cc="http://creativecommons.org/ns#"
	xmlns:rdf="http://www.w3.org/1999/02/22-rdf-syntax-ns#"
	xmlns:svg="http://www.w3.org/2000/svg"
	xmlns="http://www.w3.org/2000/svg"
	xmlns:sodipodi="http://sodipodi.sourceforge.net/DTD/sodipodi-0.dtd"
	xmlns:inkscape="http://www.inkscape.org/namespaces/inkscape"
	width="1000"
	height="1000"
	id="svg2"
	version="1.1"
	sodipodi:docname="manifold/ccrust-kk0734.png.txt">
<defs
	id="defs4" />
<metadata
	id="metadata7">
	<rdf:RDF>
		<cc:Work
			rdf:about="">
			<dc:format>image/svg+xml</dc:format>
			<dc:type
				rdf:resource="http://purl.org/dc/dcmitype/StillImage" />
			<dc:title></dc:title>
		</cc:Work>
	</rdf:RDF>
</metadata>
<g
	inkscape:label="Layer 1"
	inkscape:groupmode="layer"
	id="layer1">
	<path style="fill:none;stroke:red;stroke-width:1px;stroke-linecap:butt;stroke-linejoin:miter;stroke-opacity:1" d="M 201.421,211.211 190,224.263 z" id="boundary" inkscape:connector-curvature="0" />
	<path style="fill:none;stroke:red;stroke-width:1px;stroke-linecap:butt;stroke-linejoin:miter;stroke-opacity:1" d="M 190,224.263 175.316,232.421 z" id="boundary" inkscape:connector-curvature="0" />
	<path style="fill:none;stroke:red;stroke-width:1px;stroke-linecap:butt;stroke-linejoin:miter;stroke-opacity:1" d="M 142.684,245.474 159,237.316 z" id="boundary" inkscape:connector-curvature="0" />
	<path style="fill:none;stroke:red;stroke-width:1px;stroke-linecap:butt;stroke-linejoin:miter;stroke-opacity:1" d="M 159,237.316 175.316,232.421 z" id="boundary" inkscape:connector-curvature="0" />
	<path style="fill:none;stroke:red;stroke-width:1px;stroke-linecap:butt;stroke-linejoin:miter;stroke-opacity:1" d="M 126.368,253.632 142.684,245.474 z" id="boundary" inkscape:connector-curvature="0" />
	<path style="fill:none;stroke:red;stroke-width:1px;stroke-linecap:butt;stroke-linejoin:miter;stroke-opacity:1" d="M 242.211,178.579 255.263,167.158 z" id="boundary" inkscape:connector-curvature="0" />
	<path style="fill:none;stroke:red;stroke-width:1px;stroke-linecap:butt;stroke-linejoin:miter;stroke-opacity:1" d="M 230.789,191.632 242.211,178.579 z" id="boundary" inkscape:connector-curvature="0" />
	<path style="fill:none;stroke:red;stroke-width:1px;stroke-linecap:butt;stroke-linejoin:miter;stroke-opacity:1" d="M 230.789,191.632 217.737,203.053 z" id="boundary" inkscape:connector-curvature="0" />
	<path style="fill:none;stroke:red;stroke-width:1px;stroke-linecap:butt;stroke-linejoin:miter;stroke-opacity:1" d="M 217.737,203.053 201.421,211.211 z" id="boundary" inkscape:connector-curvature="0" />
	<path style="fill:none;stroke:red;stroke-width:1px;stroke-linecap:butt;stroke-linejoin:miter;stroke-opacity:1" d="M 261.789,150.842 255.263,167.158 z" id="boundary" inkscape:connector-curvature="0" />
	<path style="fill:none;stroke:red;stroke-width:1px;stroke-linecap:butt;stroke-linejoin:miter;stroke-opacity:1" d="M 48.0526,297.684 33.3684,305.842 z" id="boundary" inkscape:connector-curvature="0" />
	<path style="fill:none;stroke:red;stroke-width:1px;stroke-linecap:butt;stroke-linejoin:miter;stroke-opacity:1" d="M 33.3684,305.842 17.0526,305.842 z" id="boundary" inkscape:connector-curvature="0" />
	<path style="fill:none;stroke:red;stroke-width:1px;stroke-linecap:butt;stroke-linejoin:miter;stroke-opacity:1" d="M 13.7895,331.947 4,318.895 z" id="boundary" inkscape:connector-curvature="0" />
	<path style="fill:none;stroke:red;stroke-width:1px;stroke-linecap:butt;stroke-linejoin:miter;stroke-opacity:1" d="M 4,318.895 17.0526,305.842 z" id="boundary" inkscape:connector-curvature="0" />
	<path style="fill:none;stroke:red;stroke-width:1px;stroke-linecap:butt;stroke-linejoin:miter;stroke-opacity:1" d="M 28.4737,340.105 13.7895,331.947 z" id="boundary" inkscape:connector-curvature="0" />
	<path style="fill:none;stroke:red;stroke-width:1px;stroke-linecap:butt;stroke-linejoin:miter;stroke-opacity:1" d="M 93.7368,269.947 110.053,261.789 z" id="boundary" inkscape:connector-curvature="0" />
	<path style="fill:none;stroke:red;stroke-width:1px;stroke-linecap:butt;stroke-linejoin:miter;stroke-opacity:1" d="M 126.368,253.632 110.053,261.789 z" id="boundary" inkscape:connector-curvature="0" />
	<path style="fill:none;stroke:red;stroke-width:1px;stroke-linecap:butt;stroke-linejoin:miter;stroke-opacity:1" d="M 64.3684,291.158 77.4211,278.105 z" id="boundary" inkscape:connector-curvature="0" />
	<path style="fill:none;stroke:red;stroke-width:1px;stroke-linecap:butt;stroke-linejoin:miter;stroke-opacity:1" d="M 77.4211,278.105 93.7368,269.947 z" id="boundary" inkscape:connector-curvature="0" />
	<path style="fill:none;stroke:red;stroke-width:1px;stroke-linecap:butt;stroke-linejoin:miter;stroke-opacity:1" d="M 64.3684,291.158 48.0526,297.684 z" id="boundary" inkscape:connector-curvature="0" />
	<path style="fill:none;stroke:red;stroke-width:1px;stroke-linecap:butt;stroke-linejoin:miter;stroke-opacity:1" d="M 343.368,28.4737 356.421,15.4211 z" id="boundary" inkscape:connector-curvature="0" />
	<path style="fill:none;stroke:red;stroke-width:1px;stroke-linecap:butt;stroke-linejoin:miter;stroke-opacity:1" d="M 369.474,4 356.421,15.4211 z" id="boundary" inkscape:connector-curvature="0" />
	<path style="fill:none;stroke:red;stroke-width:1px;stroke-linecap:butt;stroke-linejoin:miter;stroke-opacity:1" d="M 318.895,61.1053 330.316,41.5263 z" id="boundary" inkscape:connector-curvature="0" />
	<path style="fill:none;stroke:red;stroke-width:1px;stroke-linecap:butt;stroke-linejoin:miter;stroke-opacity:1" d="M 343.368,28.4737 330.316,41.5263 z" id="boundary" inkscape:connector-curvature="0" />
	<path style="fill:none;stroke:red;stroke-width:1px;stroke-linecap:butt;stroke-linejoin:miter;stroke-opacity:1" d="M 369.474,4 385.789,4 z" id="boundary" inkscape:connector-curvature="0" />
	<path style="fill:none;stroke:red;stroke-width:1px;stroke-linecap:butt;stroke-linejoin:miter;stroke-opacity:1" d="M 400.474,12.1579 411.895,25.2105 z" id="boundary" inkscape:connector-curvature="0" />
	<path style="fill:none;stroke:red;stroke-width:1px;stroke-linecap:butt;stroke-linejoin:miter;stroke-opacity:1" d="M 424.947,36.6316 436.368,49.6842 z" id="boundary" inkscape:connector-curvature="0" />
	<path style="fill:none;stroke:red;stroke-width:1px;stroke-linecap:butt;stroke-linejoin:miter;stroke-opacity:1" d="M 424.947,36.6316 411.895,25.2105 z" id="boundary" inkscape:connector-curvature="0" />
	<path style="fill:none;stroke:red;stroke-width:1px;stroke-linecap:butt;stroke-linejoin:miter;stroke-opacity:1" d="M 385.789,4 400.474,12.1579 z" id="boundary" inkscape:connector-curvature="0" />
	<path style="fill:none;stroke:red;stroke-width:1px;stroke-linecap:butt;stroke-linejoin:miter;stroke-opacity:1" d="M 312.368,77.4211 318.895,61.1053 z" id="boundary" inkscape:connector-curvature="0" />
	<path style="fill:none;stroke:red;stroke-width:1px;stroke-linecap:butt;stroke-linejoin:miter;stroke-opacity:1" d="M 291.158,105.158 299.316,88.8421 z" id="boundary" inkscape:connector-curvature="0" />
	<path style="fill:none;stroke:red;stroke-width:1px;stroke-linecap:butt;stroke-linejoin:miter;stroke-opacity:1" d="M 299.316,88.8421 312.368,77.4211 z" id="boundary" inkscape:connector-curvature="0" />
	<path style="fill:none;stroke:red;stroke-width:1px;stroke-linecap:butt;stroke-linejoin:miter;stroke-opacity:1" d="M 283,121.474 274.842,137.789 z" id="boundary" inkscape:connector-curvature="0" />
	<path style="fill:none;stroke:red;stroke-width:1px;stroke-linecap:butt;stroke-linejoin:miter;stroke-opacity:1" d="M 274.842,137.789 261.789,150.842 z" id="boundary" inkscape:connector-curvature="0" />
	<path style="fill:none;stroke:red;stroke-width:1px;stroke-linecap:butt;stroke-linejoin:miter;stroke-opacity:1" d="M 291.158,105.158 283,121.474 z" id="boundary" inkscape:connector-curvature="0" />
	<path style="fill:none;stroke:red;stroke-width:1px;stroke-linecap:butt;stroke-linejoin:miter;stroke-opacity:1" d="M 449.421,61.1053 464.105,69.2632 z" id="boundary" inkscape:connector-curvature="0" />
	<path style="fill:none;stroke:red;stroke-width:1px;stroke-linecap:butt;stroke-linejoin:miter;stroke-opacity:1" d="M 464.105,69.2632 477.158,80.6842 z" id="boundary" inkscape:connector-curvature="0" />
	<path style="fill:none;stroke:red;stroke-width:1px;stroke-linecap:butt;stroke-linejoin:miter;stroke-opacity:1" d="M 449.421,61.1053 436.368,49.6842 z" id="boundary" inkscape:connector-curvature="0" />
	<path style="fill:none;stroke:red;stroke-width:1px;stroke-linecap:butt;stroke-linejoin:miter;stroke-opacity:1" d="M 477.158,80.6842 486.947,93.7368 z" id="boundary" inkscape:connector-curvature="0" />
	<path style="fill:none;stroke:red;stroke-width:1px;stroke-linecap:butt;stroke-linejoin:miter;stroke-opacity:1" d="M 28.4737,340.105 43.1579,348.263 z" id="boundary" inkscape:connector-curvature="0" />
	<path style="fill:none;stroke:red;stroke-width:1px;stroke-linecap:butt;stroke-linejoin:miter;stroke-opacity:1" d="M 57.8421,356.421 70.8947,367.842 z" id="boundary" inkscape:connector-curvature="0" />
	<path style="fill:none;stroke:red;stroke-width:1px;stroke-linecap:butt;stroke-linejoin:miter;stroke-opacity:1" d="M 43.1579,348.263 57.8421,356.421 z" id="boundary" inkscape:connector-curvature="0" />
	<path style="fill:none;stroke:red;stroke-width:1px;stroke-linecap:butt;stroke-linejoin:miter;stroke-opacity:1" d="M 70.8947,367.842 82.3158,380.895 z" id="boundary" inkscape:connector-curvature="0" />
	<path style="fill:none;stroke:red;stroke-width:1px;stroke-linecap:butt;stroke-linejoin:miter;stroke-opacity:1" d="M 82.3158,380.895 97,389.053 z" id="boundary" inkscape:connector-curvature="0" />
	<path style="fill:none;stroke:red;stroke-width:1px;stroke-linecap:butt;stroke-linejoin:miter;stroke-opacity:1" d="M 134.526,421.684 121.474,411.895 z" id="boundary" inkscape:connector-curvature="0" />
	<path style="fill:none;stroke:red;stroke-width:1px;stroke-linecap:butt;stroke-linejoin:miter;stroke-opacity:1" d="M 121.474,411.895 110.053,398.842 z" id="boundary" inkscape:connector-curvature="0" />
	<path style="fill:none;stroke:red;stroke-width:1px;stroke-linecap:butt;stroke-linejoin:miter;stroke-opacity:1" d="M 97,389.053 110.053,398.842 z" id="boundary" inkscape:connector-curvature="0" />
	<path style="fill:none;stroke:red;stroke-width:1px;stroke-linecap:butt;stroke-linejoin:miter;stroke-opacity:1" d="M 149.211,429.842 134.526,421.684 z" id="boundary" inkscape:connector-curvature="0" />
	<path style="fill:none;stroke:red;stroke-width:1px;stroke-linecap:butt;stroke-linejoin:miter;stroke-opacity:1" d="M 160.632,442.895 149.211,429.842 z" id="boundary" inkscape:connector-curvature="0" />
	<path style="fill:none;stroke:red;stroke-width:1px;stroke-linecap:butt;stroke-linejoin:miter;stroke-opacity:1" d="M 173.684,454.316 160.632,442.895 z" id="boundary" inkscape:connector-curvature="0" />
	<path style="fill:none;stroke:red;stroke-width:1px;stroke-linecap:butt;stroke-linejoin:miter;stroke-opacity:1" d="M 198.158,478.789 185.105,467.368 z" id="boundary" inkscape:connector-curvature="0" />
	<path style="fill:none;stroke:red;stroke-width:1px;stroke-linecap:butt;stroke-linejoin:miter;stroke-opacity:1" d="M 185.105,467.368 173.684,454.316 z" id="boundary" inkscape:connector-curvature="0" />
	<path style="fill:none;stroke:red;stroke-width:1px;stroke-linecap:butt;stroke-linejoin:miter;stroke-opacity:1" d="M 198.158,478.789 209.579,491.842 z" id="boundary" inkscape:connector-curvature="0" />
	<path style="fill:none;stroke:red;stroke-width:1px;stroke-linecap:butt;stroke-linejoin:miter;stroke-opacity:1" d="M 209.579,491.842 222.632,503.263 z" id="boundary" inkscape:connector-curvature="0" />
	<path style="fill:none;stroke:red;stroke-width:1px;stroke-linecap:butt;stroke-linejoin:miter;stroke-opacity:1" d="M 222.632,503.263 229.158,519.579 z" id="boundary" inkscape:connector-curvature="0" />
	<path style="fill:none;stroke:red;stroke-width:1px;stroke-linecap:butt;stroke-linejoin:miter;stroke-opacity:1" d="M 240.579,550.579 232.421,535.895 z" id="boundary" inkscape:connector-curvature="0" />
	<path style="fill:none;stroke:red;stroke-width:1px;stroke-linecap:butt;stroke-linejoin:miter;stroke-opacity:1" d="M 232.421,535.895 229.158,519.579 z" id="boundary" inkscape:connector-curvature="0" />
	<path style="fill:none;stroke:red;stroke-width:1px;stroke-linecap:butt;stroke-linejoin:miter;stroke-opacity:1" d="M 240.579,550.579 243.842,566.895 z" id="boundary" inkscape:connector-curvature="0" />
	<path style="fill:none;stroke:red;stroke-width:1px;stroke-linecap:butt;stroke-linejoin:miter;stroke-opacity:1" d="M 243.842,566.895 256.895,576.684 z" id="boundary" inkscape:connector-curvature="0" />
	<path style="fill:none;stroke:red;stroke-width:1px;stroke-linecap:butt;stroke-linejoin:miter;stroke-opacity:1" d="M 256.895,576.684 256.895,593 z" id="boundary" inkscape:connector-curvature="0" />
	<path style="fill:none;stroke:red;stroke-width:1px;stroke-linecap:butt;stroke-linejoin:miter;stroke-opacity:1" d="M 256.895,593 266.684,606.053 z" id="boundary" inkscape:connector-curvature="0" />
	<path style="fill:none;stroke:red;stroke-width:1px;stroke-linecap:butt;stroke-linejoin:miter;stroke-opacity:1" d="M 266.684,606.053 274.842,620.737 z" id="boundary" inkscape:connector-curvature="0" />
	<path style="fill:none;stroke:red;stroke-width:1px;stroke-linecap:butt;stroke-linejoin:miter;stroke-opacity:1" d="M 274.842,620.737 281.368,637.053 z" id="boundary" inkscape:connector-curvature="0" />
	<path style="fill:none;stroke:red;stroke-width:1px;stroke-linecap:butt;stroke-linejoin:miter;stroke-opacity:1" d="M 460.842,617.474 473.895,607.684 z" id="boundary" inkscape:connector-curvature="0" />
	<path style="fill:none;stroke:red;stroke-width:1px;stroke-linecap:butt;stroke-linejoin:miter;stroke-opacity:1" d="M 446.158,625.632 429.842,633.789 z" id="boundary" inkscape:connector-curvature="0" />
	<path style="fill:none;stroke:red;stroke-width:1px;stroke-linecap:butt;stroke-linejoin:miter;stroke-opacity:1" d="M 416.789,648.474 429.842,633.789 z" id="boundary" inkscape:connector-curvature="0" />
	<path style="fill:none;stroke:red;stroke-width:1px;stroke-linecap:butt;stroke-linejoin:miter;stroke-opacity:1" d="M 446.158,625.632 460.842,617.474 z" id="boundary" inkscape:connector-curvature="0" />
	<path style="fill:none;stroke:red;stroke-width:1px;stroke-linecap:butt;stroke-linejoin:miter;stroke-opacity:1" d="M 314,674.579 300.947,664.789 z" id="boundary" inkscape:connector-curvature="0" />
	<path style="fill:none;stroke:red;stroke-width:1px;stroke-linecap:butt;stroke-linejoin:miter;stroke-opacity:1" d="M 328.684,682.737 314,674.579 z" id="boundary" inkscape:connector-curvature="0" />
	<path style="fill:none;stroke:red;stroke-width:1px;stroke-linecap:butt;stroke-linejoin:miter;stroke-opacity:1" d="M 358.053,682.737 343.368,690.895 z" id="boundary" inkscape:connector-curvature="0" />
	<path style="fill:none;stroke:red;stroke-width:1px;stroke-linecap:butt;stroke-linejoin:miter;stroke-opacity:1" d="M 343.368,690.895 328.684,682.737 z" id="boundary" inkscape:connector-curvature="0" />
	<path style="fill:none;stroke:red;stroke-width:1px;stroke-linecap:butt;stroke-linejoin:miter;stroke-opacity:1" d="M 300.947,664.789 289.526,651.737 z" id="boundary" inkscape:connector-curvature="0" />
	<path style="fill:none;stroke:red;stroke-width:1px;stroke-linecap:butt;stroke-linejoin:miter;stroke-opacity:1" d="M 402.105,658.263 416.789,648.474 z" id="boundary" inkscape:connector-curvature="0" />
	<path style="fill:none;stroke:red;stroke-width:1px;stroke-linecap:butt;stroke-linejoin:miter;stroke-opacity:1" d="M 387.421,666.421 372.737,674.579 z" id="boundary" inkscape:connector-curvature="0" />
	<path style="fill:none;stroke:red;stroke-width:1px;stroke-linecap:butt;stroke-linejoin:miter;stroke-opacity:1" d="M 358.053,682.737 372.737,674.579 z" id="boundary" inkscape:connector-curvature="0" />
	<path style="fill:none;stroke:red;stroke-width:1px;stroke-linecap:butt;stroke-linejoin:miter;stroke-opacity:1" d="M 289.526,651.737 281.368,637.053 z" id="boundary" inkscape:connector-curvature="0" />
	<path style="fill:none;stroke:red;stroke-width:1px;stroke-linecap:butt;stroke-linejoin:miter;stroke-opacity:1" d="M 387.421,666.421 402.105,658.263 z" id="boundary" inkscape:connector-curvature="0" />
	<path style="fill:none;stroke:red;stroke-width:1px;stroke-linecap:butt;stroke-linejoin:miter;stroke-opacity:1" d="M 486.947,93.7368 495.105,108.421 z" id="boundary" inkscape:connector-curvature="0" />
	<path style="fill:none;stroke:red;stroke-width:1px;stroke-linecap:butt;stroke-linejoin:miter;stroke-opacity:1" d="M 495.105,108.421 508.158,119.842 z" id="boundary" inkscape:connector-curvature="0" />
	<path style="fill:none;stroke:red;stroke-width:1px;stroke-linecap:butt;stroke-linejoin:miter;stroke-opacity:1" d="M 519.579,132.895 508.158,119.842 z" id="boundary" inkscape:connector-curvature="0" />
	<path style="fill:none;stroke:red;stroke-width:1px;stroke-linecap:butt;stroke-linejoin:miter;stroke-opacity:1" d="M 519.579,132.895 527.737,147.579 z" id="boundary" inkscape:connector-curvature="0" />
	<path style="fill:none;stroke:red;stroke-width:1px;stroke-linecap:butt;stroke-linejoin:miter;stroke-opacity:1" d="M 953.579,346.632 937.263,346.632 z" id="boundary" inkscape:connector-curvature="0" />
	<path style="fill:none;stroke:red;stroke-width:1px;stroke-linecap:butt;stroke-linejoin:miter;stroke-opacity:1" d="M 540.789,178.579 544.053,194.895 z" id="boundary" inkscape:connector-curvature="0" />
	<path style="fill:none;stroke:red;stroke-width:1px;stroke-linecap:butt;stroke-linejoin:miter;stroke-opacity:1" d="M 544.053,194.895 552.211,209.579 z" id="boundary" inkscape:connector-curvature="0" />
	<path style="fill:none;stroke:red;stroke-width:1px;stroke-linecap:butt;stroke-linejoin:miter;stroke-opacity:1" d="M 552.211,209.579 552.211,225.895 z" id="boundary" inkscape:connector-curvature="0" />
	<path style="fill:none;stroke:red;stroke-width:1px;stroke-linecap:butt;stroke-linejoin:miter;stroke-opacity:1" d="M 560.368,240.579 552.211,225.895 z" id="boundary" inkscape:connector-curvature="0" />
	<path style="fill:none;stroke:red;stroke-width:1px;stroke-linecap:butt;stroke-linejoin:miter;stroke-opacity:1" d="M 527.737,147.579 535.895,162.263 z" id="boundary" inkscape:connector-curvature="0" />
	<path style="fill:none;stroke:red;stroke-width:1px;stroke-linecap:butt;stroke-linejoin:miter;stroke-opacity:1" d="M 535.895,162.263 540.789,178.579 z" id="boundary" inkscape:connector-curvature="0" />
	<path style="fill:none;stroke:red;stroke-width:1px;stroke-linecap:butt;stroke-linejoin:miter;stroke-opacity:1" d="M 560.368,240.579 560.368,256.895 z" id="boundary" inkscape:connector-curvature="0" />
	<path style="fill:none;stroke:red;stroke-width:1px;stroke-linecap:butt;stroke-linejoin:miter;stroke-opacity:1" d="M 576.684,261.789 560.368,256.895 z" id="boundary" inkscape:connector-curvature="0" />
	<path style="fill:none;stroke:red;stroke-width:1px;stroke-linecap:butt;stroke-linejoin:miter;stroke-opacity:1" d="M 576.684,315.632 589.737,304.211 z" id="boundary" inkscape:connector-curvature="0" />
	<path style="fill:none;stroke:red;stroke-width:1px;stroke-linecap:butt;stroke-linejoin:miter;stroke-opacity:1" d="M 579.947,331.947 576.684,315.632 z" id="boundary" inkscape:connector-curvature="0" />
	<path style="fill:none;stroke:red;stroke-width:1px;stroke-linecap:butt;stroke-linejoin:miter;stroke-opacity:1" d="M 591.368,269.947 576.684,261.789 z" id="boundary" inkscape:connector-curvature="0" />
	<path style="fill:none;stroke:red;stroke-width:1px;stroke-linecap:butt;stroke-linejoin:miter;stroke-opacity:1" d="M 593,286.263 589.737,304.211 z" id="boundary" inkscape:connector-curvature="0" />
	<path style="fill:none;stroke:red;stroke-width:1px;stroke-linecap:butt;stroke-linejoin:miter;stroke-opacity:1" d="M 612.579,338.474 596.263,338.474 z" id="boundary" inkscape:connector-curvature="0" />
	<path style="fill:none;stroke:red;stroke-width:1px;stroke-linecap:butt;stroke-linejoin:miter;stroke-opacity:1" d="M 628.895,338.474 612.579,338.474 z" id="boundary" inkscape:connector-curvature="0" />
	<path style="fill:none;stroke:red;stroke-width:1px;stroke-linecap:butt;stroke-linejoin:miter;stroke-opacity:1" d="M 596.263,338.474 579.947,331.947 z" id="boundary" inkscape:connector-curvature="0" />
	<path style="fill:none;stroke:red;stroke-width:1px;stroke-linecap:butt;stroke-linejoin:miter;stroke-opacity:1" d="M 593,286.263 591.368,269.947 z" id="boundary" inkscape:connector-curvature="0" />
	<path style="fill:none;stroke:red;stroke-width:1px;stroke-linecap:butt;stroke-linejoin:miter;stroke-opacity:1" d="M 628.895,338.474 645.211,338.474 z" id="boundary" inkscape:connector-curvature="0" />
	<path style="fill:none;stroke:red;stroke-width:1px;stroke-linecap:butt;stroke-linejoin:miter;stroke-opacity:1" d="M 661.526,338.474 677.842,338.474 z" id="boundary" inkscape:connector-curvature="0" />
	<path style="fill:none;stroke:red;stroke-width:1px;stroke-linecap:butt;stroke-linejoin:miter;stroke-opacity:1" d="M 692.526,346.632 677.842,338.474 z" id="boundary" inkscape:connector-curvature="0" />
	<path style="fill:none;stroke:red;stroke-width:1px;stroke-linecap:butt;stroke-linejoin:miter;stroke-opacity:1" d="M 708.842,346.632 692.526,346.632 z" id="boundary" inkscape:connector-curvature="0" />
	<path style="fill:none;stroke:red;stroke-width:1px;stroke-linecap:butt;stroke-linejoin:miter;stroke-opacity:1" d="M 645.211,338.474 661.526,338.474 z" id="boundary" inkscape:connector-curvature="0" />
	<path style="fill:none;stroke:red;stroke-width:1px;stroke-linecap:butt;stroke-linejoin:miter;stroke-opacity:1" d="M 708.842,346.632 725.158,346.632 z" id="boundary" inkscape:connector-curvature="0" />
	<path style="fill:none;stroke:red;stroke-width:1px;stroke-linecap:butt;stroke-linejoin:miter;stroke-opacity:1" d="M 741.474,346.632 757.789,346.632 z" id="boundary" inkscape:connector-curvature="0" />
	<path style="fill:none;stroke:red;stroke-width:1px;stroke-linecap:butt;stroke-linejoin:miter;stroke-opacity:1" d="M 741.474,346.632 725.158,346.632 z" id="boundary" inkscape:connector-curvature="0" />
	<path style="fill:none;stroke:red;stroke-width:1px;stroke-linecap:butt;stroke-linejoin:miter;stroke-opacity:1" d="M 757.789,346.632 774.105,346.632 z" id="boundary" inkscape:connector-curvature="0" />
	<path style="fill:none;stroke:red;stroke-width:1px;stroke-linecap:butt;stroke-linejoin:miter;stroke-opacity:1" d="M 790.421,346.632 806.737,346.632 z" id="boundary" inkscape:connector-curvature="0" />
	<path style="fill:none;stroke:red;stroke-width:1px;stroke-linecap:butt;stroke-linejoin:miter;stroke-opacity:1" d="M 790.421,346.632 774.105,346.632 z" id="boundary" inkscape:connector-curvature="0" />
	<path style="fill:none;stroke:red;stroke-width:1px;stroke-linecap:butt;stroke-linejoin:miter;stroke-opacity:1" d="M 823.053,346.632 839.368,346.632 z" id="boundary" inkscape:connector-curvature="0" />
	<path style="fill:none;stroke:red;stroke-width:1px;stroke-linecap:butt;stroke-linejoin:miter;stroke-opacity:1" d="M 823.053,346.632 806.737,346.632 z" id="boundary" inkscape:connector-curvature="0" />
	<path style="fill:none;stroke:red;stroke-width:1px;stroke-linecap:butt;stroke-linejoin:miter;stroke-opacity:1" d="M 839.368,346.632 855.684,346.632 z" id="boundary" inkscape:connector-curvature="0" />
	<path style="fill:none;stroke:red;stroke-width:1px;stroke-linecap:butt;stroke-linejoin:miter;stroke-opacity:1" d="M 872,346.632 888.316,346.632 z" id="boundary" inkscape:connector-curvature="0" />
	<path style="fill:none;stroke:red;stroke-width:1px;stroke-linecap:butt;stroke-linejoin:miter;stroke-opacity:1" d="M 872,346.632 855.684,346.632 z" id="boundary" inkscape:connector-curvature="0" />
	<path style="fill:none;stroke:red;stroke-width:1px;stroke-linecap:butt;stroke-linejoin:miter;stroke-opacity:1" d="M 904.632,346.632 920.947,346.632 z" id="boundary" inkscape:connector-curvature="0" />
	<path style="fill:none;stroke:red;stroke-width:1px;stroke-linecap:butt;stroke-linejoin:miter;stroke-opacity:1" d="M 904.632,346.632 888.316,346.632 z" id="boundary" inkscape:connector-curvature="0" />
	<path style="fill:none;stroke:red;stroke-width:1px;stroke-linecap:butt;stroke-linejoin:miter;stroke-opacity:1" d="M 920.947,346.632 937.263,346.632 z" id="boundary" inkscape:connector-curvature="0" />
	<path style="fill:none;stroke:red;stroke-width:1px;stroke-linecap:butt;stroke-linejoin:miter;stroke-opacity:1" d="M 609.316,405.368 625.632,405.368 z" id="boundary" inkscape:connector-curvature="0" />
	<path style="fill:none;stroke:red;stroke-width:1px;stroke-linecap:butt;stroke-linejoin:miter;stroke-opacity:1" d="M 584.842,429.842 593,413.526 z" id="boundary" inkscape:connector-curvature="0" />
	<path style="fill:none;stroke:red;stroke-width:1px;stroke-linecap:butt;stroke-linejoin:miter;stroke-opacity:1" d="M 593,413.526 609.316,405.368 z" id="boundary" inkscape:connector-curvature="0" />
	<path style="fill:none;stroke:red;stroke-width:1px;stroke-linecap:butt;stroke-linejoin:miter;stroke-opacity:1" d="M 584.842,454.316 584.842,429.842 z" id="boundary" inkscape:connector-curvature="0" />
	<path style="fill:none;stroke:red;stroke-width:1px;stroke-linecap:butt;stroke-linejoin:miter;stroke-opacity:1" d="M 658.263,397.211 641.947,397.211 z" id="boundary" inkscape:connector-curvature="0" />
	<path style="fill:none;stroke:red;stroke-width:1px;stroke-linecap:butt;stroke-linejoin:miter;stroke-opacity:1" d="M 707.211,389.053 690.895,397.211 z" id="boundary" inkscape:connector-curvature="0" />
	<path style="fill:none;stroke:red;stroke-width:1px;stroke-linecap:butt;stroke-linejoin:miter;stroke-opacity:1" d="M 674.579,397.211 658.263,397.211 z" id="boundary" inkscape:connector-curvature="0" />
	<path style="fill:none;stroke:red;stroke-width:1px;stroke-linecap:butt;stroke-linejoin:miter;stroke-opacity:1" d="M 690.895,397.211 674.579,397.211 z" id="boundary" inkscape:connector-curvature="0" />
	<path style="fill:none;stroke:red;stroke-width:1px;stroke-linecap:butt;stroke-linejoin:miter;stroke-opacity:1" d="M 625.632,405.368 641.947,397.211 z" id="boundary" inkscape:connector-curvature="0" />
	<path style="fill:none;stroke:red;stroke-width:1px;stroke-linecap:butt;stroke-linejoin:miter;stroke-opacity:1" d="M 519.579,552.211 527.737,527.737 z" id="boundary" inkscape:connector-curvature="0" />
	<path style="fill:none;stroke:red;stroke-width:1px;stroke-linecap:butt;stroke-linejoin:miter;stroke-opacity:1" d="M 519.579,552.211 508.158,565.263 z" id="boundary" inkscape:connector-curvature="0" />
	<path style="fill:none;stroke:red;stroke-width:1px;stroke-linecap:butt;stroke-linejoin:miter;stroke-opacity:1" d="M 486.947,593 495.105,576.684 z" id="boundary" inkscape:connector-curvature="0" />
	<path style="fill:none;stroke:red;stroke-width:1px;stroke-linecap:butt;stroke-linejoin:miter;stroke-opacity:1" d="M 495.105,576.684 508.158,565.263 z" id="boundary" inkscape:connector-curvature="0" />
	<path style="fill:none;stroke:red;stroke-width:1px;stroke-linecap:butt;stroke-linejoin:miter;stroke-opacity:1" d="M 486.947,593 473.895,607.684 z" id="boundary" inkscape:connector-curvature="0" />
	<path style="fill:none;stroke:red;stroke-width:1px;stroke-linecap:butt;stroke-linejoin:miter;stroke-opacity:1" d="M 535.895,503.263 527.737,527.737 z" id="boundary" inkscape:connector-curvature="0" />
	<path style="fill:none;stroke:red;stroke-width:1px;stroke-linecap:butt;stroke-linejoin:miter;stroke-opacity:1" d="M 573.421,467.368 584.842,454.316 z" id="boundary" inkscape:connector-curvature="0" />
	<path style="fill:none;stroke:red;stroke-width:1px;stroke-linecap:butt;stroke-linejoin:miter;stroke-opacity:1" d="M 573.421,467.368 560.368,478.789 z" id="boundary" inkscape:connector-curvature="0" />
	<path style="fill:none;stroke:red;stroke-width:1px;stroke-linecap:butt;stroke-linejoin:miter;stroke-opacity:1" d="M 560.368,478.789 548.947,491.842 z" id="boundary" inkscape:connector-curvature="0" />
	<path style="fill:none;stroke:red;stroke-width:1px;stroke-linecap:butt;stroke-linejoin:miter;stroke-opacity:1" d="M 548.947,491.842 535.895,503.263 z" id="boundary" inkscape:connector-curvature="0" />
	<path style="fill:none;stroke:red;stroke-width:1px;stroke-linecap:butt;stroke-linejoin:miter;stroke-opacity:1" d="M 707.211,389.053 723.526,389.053 z" id="boundary" inkscape:connector-curvature="0" />
	<path style="fill:none;stroke:red;stroke-width:1px;stroke-linecap:butt;stroke-linejoin:miter;stroke-opacity:1" d="M 934,372.737 950.316,372.737 z" id="boundary" inkscape:connector-curvature="0" />
	<path style="fill:none;stroke:red;stroke-width:1px;stroke-linecap:butt;stroke-linejoin:miter;stroke-opacity:1" d="M 917.684,376 934,372.737 z" id="boundary" inkscape:connector-curvature="0" />
	<path style="fill:none;stroke:red;stroke-width:1px;stroke-linecap:butt;stroke-linejoin:miter;stroke-opacity:1" d="M 852.421,380.895 836.105,380.895 z" id="boundary" inkscape:connector-curvature="0" />
	<path style="fill:none;stroke:red;stroke-width:1px;stroke-linecap:butt;stroke-linejoin:miter;stroke-opacity:1" d="M 917.684,376 901.368,380.895 z" id="boundary" inkscape:connector-curvature="0" />
	<path style="fill:none;stroke:red;stroke-width:1px;stroke-linecap:butt;stroke-linejoin:miter;stroke-opacity:1" d="M 819.789,380.895 836.105,380.895 z" id="boundary" inkscape:connector-curvature="0" />
	<path style="fill:none;stroke:red;stroke-width:1px;stroke-linecap:butt;stroke-linejoin:miter;stroke-opacity:1" d="M 805.105,389.053 819.789,380.895 z" id="boundary" inkscape:connector-curvature="0" />
	<path style="fill:none;stroke:red;stroke-width:1px;stroke-linecap:butt;stroke-linejoin:miter;stroke-opacity:1" d="M 968.263,354.789 966.632,372.737 z" id="boundary" inkscape:connector-curvature="0" />
	<path style="fill:none;stroke:red;stroke-width:1px;stroke-linecap:butt;stroke-linejoin:miter;stroke-opacity:1" d="M 966.632,372.737 950.316,372.737 z" id="boundary" inkscape:connector-curvature="0" />
	<path style="fill:none;stroke:red;stroke-width:1px;stroke-linecap:butt;stroke-linejoin:miter;stroke-opacity:1" d="M 968.263,354.789 953.579,346.632 z" id="boundary" inkscape:connector-curvature="0" />
	<path style="fill:none;stroke:red;stroke-width:1px;stroke-linecap:butt;stroke-linejoin:miter;stroke-opacity:1" d="M 982.947,372.737 966.632,372.737 z" id="boundary" inkscape:connector-curvature="0" />
	<path style="fill:none;stroke:red;stroke-width:1px;stroke-linecap:butt;stroke-linejoin:miter;stroke-opacity:1" d="M 996,362.947 982.947,372.737 z" id="boundary" inkscape:connector-curvature="0" />
	<path style="fill:none;stroke:red;stroke-width:1px;stroke-linecap:butt;stroke-linejoin:miter;stroke-opacity:1" d="M 723.526,389.053 739.842,389.053 z" id="boundary" inkscape:connector-curvature="0" />
	<path style="fill:none;stroke:red;stroke-width:1px;stroke-linecap:butt;stroke-linejoin:miter;stroke-opacity:1" d="M 756.158,389.053 772.474,389.053 z" id="boundary" inkscape:connector-curvature="0" />
	<path style="fill:none;stroke:red;stroke-width:1px;stroke-linecap:butt;stroke-linejoin:miter;stroke-opacity:1" d="M 788.789,389.053 772.474,389.053 z" id="boundary" inkscape:connector-curvature="0" />
	<path style="fill:none;stroke:red;stroke-width:1px;stroke-linecap:butt;stroke-linejoin:miter;stroke-opacity:1" d="M 756.158,389.053 739.842,389.053 z" id="boundary" inkscape:connector-curvature="0" />
	<path style="fill:none;stroke:red;stroke-width:1px;stroke-linecap:butt;stroke-linejoin:miter;stroke-opacity:1" d="M 852.421,380.895 868.737,380.895 z" id="boundary" inkscape:connector-curvature="0" />
	<path style="fill:none;stroke:red;stroke-width:1px;stroke-linecap:butt;stroke-linejoin:miter;stroke-opacity:1" d="M 885.053,380.895 901.368,380.895 z" id="boundary" inkscape:connector-curvature="0" />
	<path style="fill:none;stroke:red;stroke-width:1px;stroke-linecap:butt;stroke-linejoin:miter;stroke-opacity:1" d="M 868.737,380.895 885.053,380.895 z" id="boundary" inkscape:connector-curvature="0" />
	<path style="fill:none;stroke:red;stroke-width:1px;stroke-linecap:butt;stroke-linejoin:miter;stroke-opacity:1" d="M 805.105,389.053 788.789,389.053 z" id="boundary" inkscape:connector-curvature="0" />
	<circle cx="4" cy="318.895" r="4" fill="#0" id="circle0"/>
	<circle cx="13.7895" cy="331.947" r="4" fill="#0" id="circle1"/>
	<circle cx="17.0526" cy="305.842" r="4" fill="#0" id="circle2"/>
	<circle cx="28.4737" cy="340.105" r="4" fill="#0" id="circle3"/>
	<circle cx="33.3684" cy="305.842" r="4" fill="#0" id="circle4"/>
	<circle cx="43.1579" cy="348.263" r="4" fill="#0" id="circle5"/>
	<circle cx="48.0526" cy="297.684" r="4" fill="#0" id="circle6"/>
	<circle cx="57.8421" cy="356.421" r="4" fill="#0" id="circle7"/>
	<circle cx="64.3684" cy="291.158" r="4" fill="#0" id="circle8"/>
	<circle cx="70.8947" cy="367.842" r="4" fill="#0" id="circle9"/>
	<circle cx="77.4211" cy="278.105" r="4" fill="#0" id="circle10"/>
	<circle cx="82.3158" cy="380.895" r="4" fill="#0" id="circle11"/>
	<circle cx="93.7368" cy="269.947" r="4" fill="#0" id="circle12"/>
	<circle cx="97" cy="389.053" r="4" fill="#0" id="circle13"/>
	<circle cx="110.053" cy="261.789" r="4" fill="#0" id="circle14"/>
	<circle cx="110.053" cy="398.842" r="4" fill="#0" id="circle15"/>
	<circle cx="121.474" cy="411.895" r="4" fill="#0" id="circle16"/>
	<circle cx="126.368" cy="253.632" r="4" fill="#0" id="circle17"/>
	<circle cx="134.526" cy="421.684" r="4" fill="#0" id="circle18"/>
	<circle cx="142.684" cy="245.474" r="4" fill="#0" id="circle19"/>
	<circle cx="149.211" cy="429.842" r="4" fill="#0" id="circle20"/>
	<circle cx="159" cy="237.316" r="4" fill="#0" id="circle21"/>
	<circle cx="160.632" cy="442.895" r="4" fill="#0" id="circle22"/>
	<circle cx="173.684" cy="454.316" r="4" fill="#0" id="circle23"/>
	<circle cx="175.316" cy="232.421" r="4" fill="#0" id="circle24"/>
	<circle cx="185.105" cy="467.368" r="4" fill="#0" id="circle25"/>
	<circle cx="190" cy="224.263" r="4" fill="#0" id="circle26"/>
	<circle cx="198.158" cy="478.789" r="4" fill="#0" id="circle27"/>
	<circle cx="201.421" cy="211.211" r="4" fill="#0" id="circle28"/>
	<circle cx="209.579" cy="491.842" r="4" fill="#0" id="circle29"/>
	<circle cx="217.737" cy="203.053" r="4" fill="#0" id="circle30"/>
	<circle cx="222.632" cy="503.263" r="4" fill="#0" id="circle31"/>
	<circle cx="229.158" cy="519.579" r="4" fill="#0" id="circle32"/>
	<circle cx="230.789" cy="191.632" r="4" fill="#0" id="circle33"/>
	<circle cx="232.421" cy="535.895" r="4" fill="#0" id="circle34"/>
	<circle cx="240.579" cy="550.579" r="4" fill="#0" id="circle35"/>
	<circle cx="242.211" cy="178.579" r="4" fill="#0" id="circle36"/>
	<circle cx="243.842" cy="566.895" r="4" fill="#0" id="circle37"/>
	<circle cx="255.263" cy="167.158" r="4" fill="#0" id="circle38"/>
	<circle cx="256.895" cy="576.684" r="4" fill="#0" id="circle39"/>
	<circle cx="256.895" cy="593" r="4" fill="#0" id="circle40"/>
	<circle cx="261.789" cy="150.842" r="4" fill="#0" id="circle41"/>
	<circle cx="266.684" cy="606.053" r="4" fill="#0" id="circle42"/>
	<circle cx="274.842" cy="137.789" r="4" fill="#0" id="circle43"/>
	<circle cx="274.842" cy="620.737" r="4" fill="#0" id="circle44"/>
	<circle cx="281.368" cy="637.053" r="4" fill="#0" id="circle45"/>
	<circle cx="283" cy="121.474" r="4" fill="#0" id="circle46"/>
	<circle cx="289.526" cy="651.737" r="4" fill="#0" id="circle47"/>
	<circle cx="291.158" cy="105.158" r="4" fill="#0" id="circle48"/>
	<circle cx="299.316" cy="88.8421" r="4" fill="#0" id="circle49"/>
	<circle cx="300.947" cy="664.789" r="4" fill="#0" id="circle50"/>
	<circle cx="312.368" cy="77.4211" r="4" fill="#0" id="circle51"/>
	<circle cx="314" cy="674.579" r="4" fill="#0" id="circle52"/>
	<circle cx="318.895" cy="61.1053" r="4" fill="#0" id="circle53"/>
	<circle cx="328.684" cy="682.737" r="4" fill="#0" id="circle54"/>
	<circle cx="330.316" cy="41.5263" r="4" fill="#0" id="circle55"/>
	<circle cx="343.368" cy="28.4737" r="4" fill="#0" id="circle56"/>
	<circle cx="343.368" cy="690.895" r="4" fill="#0" id="circle57"/>
	<circle cx="356.421" cy="15.4211" r="4" fill="#0" id="circle58"/>
	<circle cx="358.053" cy="682.737" r="4" fill="#0" id="circle59"/>
	<circle cx="369.474" cy="4" r="4" fill="#0" id="circle60"/>
	<circle cx="372.737" cy="674.579" r="4" fill="#0" id="circle61"/>
	<circle cx="385.789" cy="4" r="4" fill="#0" id="circle62"/>
	<circle cx="387.421" cy="666.421" r="4" fill="#0" id="circle63"/>
	<circle cx="400.474" cy="12.1579" r="4" fill="#0" id="circle64"/>
	<circle cx="402.105" cy="658.263" r="4" fill="#0" id="circle65"/>
	<circle cx="411.895" cy="25.2105" r="4" fill="#0" id="circle66"/>
	<circle cx="416.789" cy="648.474" r="4" fill="#0" id="circle67"/>
	<circle cx="424.947" cy="36.6316" r="4" fill="#0" id="circle68"/>
	<circle cx="429.842" cy="633.789" r="4" fill="#0" id="circle69"/>
	<circle cx="436.368" cy="49.6842" r="4" fill="#0" id="circle70"/>
	<circle cx="446.158" cy="625.632" r="4" fill="#0" id="circle71"/>
	<circle cx="449.421" cy="61.1053" r="4" fill="#0" id="circle72"/>
	<circle cx="460.842" cy="617.474" r="4" fill="#0" id="circle73"/>
	<circle cx="464.105" cy="69.2632" r="4" fill="#0" id="circle74"/>
	<circle cx="473.895" cy="607.684" r="4" fill="#0" id="circle75"/>
	<circle cx="477.158" cy="80.6842" r="4" fill="#0" id="circle76"/>
	<circle cx="486.947" cy="93.7368" r="4" fill="#0" id="circle77"/>
	<circle cx="486.947" cy="593" r="4" fill="#0" id="circle78"/>
	<circle cx="495.105" cy="108.421" r="4" fill="#0" id="circle79"/>
	<circle cx="495.105" cy="576.684" r="4" fill="#0" id="circle80"/>
	<circle cx="508.158" cy="119.842" r="4" fill="#0" id="circle81"/>
	<circle cx="508.158" cy="565.263" r="4" fill="#0" id="circle82"/>
	<circle cx="519.579" cy="132.895" r="4" fill="#0" id="circle83"/>
	<circle cx="519.579" cy="552.211" r="4" fill="#0" id="circle84"/>
	<circle cx="527.737" cy="147.579" r="4" fill="#0" id="circle85"/>
	<circle cx="527.737" cy="527.737" r="4" fill="#0" id="circle86"/>
	<circle cx="535.895" cy="162.263" r="4" fill="#0" id="circle87"/>
	<circle cx="535.895" cy="503.263" r="4" fill="#0" id="circle88"/>
	<circle cx="540.789" cy="178.579" r="4" fill="#0" id="circle89"/>
	<circle cx="544.053" cy="194.895" r="4" fill="#0" id="circle90"/>
	<circle cx="548.947" cy="491.842" r="4" fill="#0" id="circle91"/>
	<circle cx="552.211" cy="209.579" r="4" fill="#0" id="circle92"/>
	<circle cx="552.211" cy="225.895" r="4" fill="#0" id="circle93"/>
	<circle cx="560.368" cy="240.579" r="4" fill="#0" id="circle94"/>
	<circle cx="560.368" cy="256.895" r="4" fill="#0" id="circle95"/>
	<circle cx="560.368" cy="478.789" r="4" fill="#0" id="circle96"/>
	<circle cx="573.421" cy="467.368" r="4" fill="#0" id="circle97"/>
	<circle cx="576.684" cy="261.789" r="4" fill="#0" id="circle98"/>
	<circle cx="576.684" cy="315.632" r="4" fill="#0" id="circle99"/>
	<circle cx="579.947" cy="331.947" r="4" fill="#0" id="circle100"/>
	<circle cx="584.842" cy="429.842" r="4" fill="#0" id="circle101"/>
	<circle cx="584.842" cy="454.316" r="4" fill="#0" id="circle102"/>
	<circle cx="589.737" cy="304.211" r="4" fill="#0" id="circle103"/>
	<circle cx="591.368" cy="269.947" r="4" fill="#0" id="circle104"/>
	<circle cx="593" cy="286.263" r="4" fill="#0" id="circle105"/>
	<circle cx="593" cy="413.526" r="4" fill="#0" id="circle106"/>
	<circle cx="596.263" cy="338.474" r="4" fill="#0" id="circle107"/>
	<circle cx="609.316" cy="405.368" r="4" fill="#0" id="circle108"/>
	<circle cx="612.579" cy="338.474" r="4" fill="#0" id="circle109"/>
	<circle cx="625.632" cy="405.368" r="4" fill="#0" id="circle110"/>
	<circle cx="628.895" cy="338.474" r="4" fill="#0" id="circle111"/>
	<circle cx="641.947" cy="397.211" r="4" fill="#0" id="circle112"/>
	<circle cx="645.211" cy="338.474" r="4" fill="#0" id="circle113"/>
	<circle cx="658.263" cy="397.211" r="4" fill="#0" id="circle114"/>
	<circle cx="661.526" cy="338.474" r="4" fill="#0" id="circle115"/>
	<circle cx="674.579" cy="397.211" r="4" fill="#0" id="circle116"/>
	<circle cx="677.842" cy="338.474" r="4" fill="#0" id="circle117"/>
	<circle cx="690.895" cy="397.211" r="4" fill="#0" id="circle118"/>
	<circle cx="692.526" cy="346.632" r="4" fill="#0" id="circle119"/>
	<circle cx="707.211" cy="389.053" r="4" fill="#0" id="circle120"/>
	<circle cx="708.842" cy="346.632" r="4" fill="#0" id="circle121"/>
	<circle cx="723.526" cy="389.053" r="4" fill="#0" id="circle122"/>
	<circle cx="725.158" cy="346.632" r="4" fill="#0" id="circle123"/>
	<circle cx="739.842" cy="389.053" r="4" fill="#0" id="circle124"/>
	<circle cx="741.474" cy="346.632" r="4" fill="#0" id="circle125"/>
	<circle cx="756.158" cy="389.053" r="4" fill="#0" id="circle126"/>
	<circle cx="757.789" cy="346.632" r="4" fill="#0" id="circle127"/>
	<circle cx="772.474" cy="389.053" r="4" fill="#0" id="circle128"/>
	<circle cx="774.105" cy="346.632" r="4" fill="#0" id="circle129"/>
	<circle cx="788.789" cy="389.053" r="4" fill="#0" id="circle130"/>
	<circle cx="790.421" cy="346.632" r="4" fill="#0" id="circle131"/>
	<circle cx="805.105" cy="389.053" r="4" fill="#0" id="circle132"/>
	<circle cx="806.737" cy="346.632" r="4" fill="#0" id="circle133"/>
	<circle cx="819.789" cy="380.895" r="4" fill="#0" id="circle134"/>
	<circle cx="823.053" cy="346.632" r="4" fill="#0" id="circle135"/>
	<circle cx="836.105" cy="380.895" r="4" fill="#0" id="circle136"/>
	<circle cx="839.368" cy="346.632" r="4" fill="#0" id="circle137"/>
	<circle cx="852.421" cy="380.895" r="4" fill="#0" id="circle138"/>
	<circle cx="855.684" cy="346.632" r="4" fill="#0" id="circle139"/>
	<circle cx="868.737" cy="380.895" r="4" fill="#0" id="circle140"/>
	<circle cx="872" cy="346.632" r="4" fill="#0" id="circle141"/>
	<circle cx="885.053" cy="380.895" r="4" fill="#0" id="circle142"/>
	<circle cx="888.316" cy="346.632" r="4" fill="#0" id="circle143"/>
	<circle cx="901.368" cy="380.895" r="4" fill="#0" id="circle144"/>
	<circle cx="904.632" cy="346.632" r="4" fill="#0" id="circle145"/>
	<circle cx="917.684" cy="376" r="4" fill="#0" id="circle146"/>
	<circle cx="920.947" cy="346.632" r="4" fill="#0" id="circle147"/>
	<circle cx="934" cy="372.737" r="4" fill="#0" id="circle148"/>
	<circle cx="937.263" cy="346.632" r="4" fill="#0" id="circle149"/>
	<circle cx="950.316" cy="372.737" r="4" fill="#0" id="circle150"/>
	<circle cx="953.579" cy="346.632" r="4" fill="#0" id="circle151"/>
	<circle cx="966.632" cy="372.737" r="4" fill="#0" id="circle152"/>
	<circle cx="968.263" cy="354.789" r="4" fill="#0" id="circle153"/>
	<circle cx="982.947" cy="372.737" r="4" fill="#0" id="circle154"/>
	<circle cx="996" cy="362.947" r="4" fill="#0" id="circle155"/>
	</g>
</svg>