<?xml version="1.0" encoding="UTF-8" standalone="no"?>
<!-- Created with CurveBenchmark -->
<svg
	xmlns:dc="http://purl.org/dc/elements/1.1/"
	xmlns:cc="http://creativecommons.org/ns#"
	xmlns:rdf="http://www.w3.org/1999/02/22-rdf-syntax-ns#"
	xmlns:svg="http://www.w3.org/2000/svg"
	xmlns="http://www.w3.org/2000/svg"
	xmlns:sodipodi="http://sodipodi.sourceforge.net/DTD/sodipodi-0.dtd"
	xmlns:inkscape="http://www.inkscape.org/namespaces/inkscape"
	width="1000"
	height="1000"
	id="svg2"
	version="1.1"
	sodipodi:docname="manifold/ccrust-octopus-7.png.txt">
<defs
	id="defs4" />
<metadata
	id="metadata7">
	<rdf:RDF>
		<cc:Work
			rdf:about="">
			<dc:format>image/svg+xml</dc:format>
			<dc:type
				rdf:resource="http://purl.org/dc/dcmitype/StillImage" />
			<dc:title></dc:title>
		</cc:Work>
	</rdf:RDF>
</metadata>
<g
	inkscape:label="Layer 1"
	inkscape:groupmode="layer"
	id="layer1">
	<path style="fill:none;stroke:red;stroke-width:1px;stroke-linecap:butt;stroke-linejoin:miter;stroke-opacity:1" d="M 140.996,578.895 153.228,578.895 z" id="boundary" inkscape:connector-curvature="0" />
	<path style="fill:none;stroke:red;stroke-width:1px;stroke-linecap:butt;stroke-linejoin:miter;stroke-opacity:1" d="M 129.988,585.011 140.996,578.895 z" id="boundary" inkscape:connector-curvature="0" />
	<path style="fill:none;stroke:red;stroke-width:1px;stroke-linecap:butt;stroke-linejoin:miter;stroke-opacity:1" d="M 177.692,578.895 165.46,578.895 z" id="boundary" inkscape:connector-curvature="0" />
	<path style="fill:none;stroke:red;stroke-width:1px;stroke-linecap:butt;stroke-linejoin:miter;stroke-opacity:1" d="M 165.46,578.895 153.228,578.895 z" id="boundary" inkscape:connector-curvature="0" />
	<path style="fill:none;stroke:red;stroke-width:1px;stroke-linecap:butt;stroke-linejoin:miter;stroke-opacity:1" d="M 189.924,578.895 177.692,578.895 z" id="boundary" inkscape:connector-curvature="0" />
	<path style="fill:none;stroke:red;stroke-width:1px;stroke-linecap:butt;stroke-linejoin:miter;stroke-opacity:1" d="M 96.9618,599.689 106.747,591.127 z" id="boundary" inkscape:connector-curvature="0" />
	<path style="fill:none;stroke:red;stroke-width:1px;stroke-linecap:butt;stroke-linejoin:miter;stroke-opacity:1" d="M 117.756,585.011 106.747,591.127 z" id="boundary" inkscape:connector-curvature="0" />
	<path style="fill:none;stroke:red;stroke-width:1px;stroke-linecap:butt;stroke-linejoin:miter;stroke-opacity:1" d="M 117.756,585.011 129.988,585.011 z" id="boundary" inkscape:connector-curvature="0" />
	<path style="fill:none;stroke:red;stroke-width:1px;stroke-linecap:butt;stroke-linejoin:miter;stroke-opacity:1" d="M 202.155,578.895 189.924,578.895 z" id="boundary" inkscape:connector-curvature="0" />
	<path style="fill:none;stroke:red;stroke-width:1px;stroke-linecap:butt;stroke-linejoin:miter;stroke-opacity:1" d="M 202.155,578.895 213.164,585.011 z" id="boundary" inkscape:connector-curvature="0" />
	<path style="fill:none;stroke:red;stroke-width:1px;stroke-linecap:butt;stroke-linejoin:miter;stroke-opacity:1" d="M 211.941,405.203 211.941,417.435 z" id="boundary" inkscape:connector-curvature="0" />
	<path style="fill:none;stroke:red;stroke-width:1px;stroke-linecap:butt;stroke-linejoin:miter;stroke-opacity:1" d="M 96.9618,599.689 84.73,605.805 z" id="boundary" inkscape:connector-curvature="0" />
	<path style="fill:none;stroke:red;stroke-width:1px;stroke-linecap:butt;stroke-linejoin:miter;stroke-opacity:1" d="M 211.941,417.435 211.941,429.667 z" id="boundary" inkscape:connector-curvature="0" />
	<path style="fill:none;stroke:red;stroke-width:1px;stroke-linecap:butt;stroke-linejoin:miter;stroke-opacity:1" d="M 211.941,441.899 211.941,429.667 z" id="boundary" inkscape:connector-curvature="0" />
	<path style="fill:none;stroke:red;stroke-width:1px;stroke-linecap:butt;stroke-linejoin:miter;stroke-opacity:1" d="M 211.941,441.899 211.941,454.131 z" id="boundary" inkscape:connector-curvature="0" />
	<path style="fill:none;stroke:red;stroke-width:1px;stroke-linecap:butt;stroke-linejoin:miter;stroke-opacity:1" d="M 211.941,466.363 211.941,454.131 z" id="boundary" inkscape:connector-curvature="0" />
	<path style="fill:none;stroke:red;stroke-width:1px;stroke-linecap:butt;stroke-linejoin:miter;stroke-opacity:1" d="M 211.941,478.594 211.941,490.826 z" id="boundary" inkscape:connector-curvature="0" />
	<path style="fill:none;stroke:red;stroke-width:1px;stroke-linecap:butt;stroke-linejoin:miter;stroke-opacity:1" d="M 211.941,503.058 211.941,490.826 z" id="boundary" inkscape:connector-curvature="0" />
	<path style="fill:none;stroke:red;stroke-width:1px;stroke-linecap:butt;stroke-linejoin:miter;stroke-opacity:1" d="M 211.941,515.29 211.941,503.058 z" id="boundary" inkscape:connector-curvature="0" />
	<path style="fill:none;stroke:red;stroke-width:1px;stroke-linecap:butt;stroke-linejoin:miter;stroke-opacity:1" d="M 218.057,538.53 211.941,527.522 z" id="boundary" inkscape:connector-curvature="0" />
	<path style="fill:none;stroke:red;stroke-width:1px;stroke-linecap:butt;stroke-linejoin:miter;stroke-opacity:1" d="M 211.941,527.522 211.941,515.29 z" id="boundary" inkscape:connector-curvature="0" />
	<path style="fill:none;stroke:red;stroke-width:1px;stroke-linecap:butt;stroke-linejoin:miter;stroke-opacity:1" d="M 211.941,466.363 211.941,478.594 z" id="boundary" inkscape:connector-curvature="0" />
	<path style="fill:none;stroke:red;stroke-width:1px;stroke-linecap:butt;stroke-linejoin:miter;stroke-opacity:1" d="M 211.941,405.203 218.057,392.972 z" id="boundary" inkscape:connector-curvature="0" />
	<path style="fill:none;stroke:red;stroke-width:1px;stroke-linecap:butt;stroke-linejoin:miter;stroke-opacity:1" d="M 44.365,640.054 54.1504,630.269 z" id="boundary" inkscape:connector-curvature="0" />
	<path style="fill:none;stroke:red;stroke-width:1px;stroke-linecap:butt;stroke-linejoin:miter;stroke-opacity:1" d="M 63.9359,621.707 54.1504,630.269 z" id="boundary" inkscape:connector-curvature="0" />
	<path style="fill:none;stroke:red;stroke-width:1px;stroke-linecap:butt;stroke-linejoin:miter;stroke-opacity:1" d="M 84.73,605.805 74.9445,615.591 z" id="boundary" inkscape:connector-curvature="0" />
	<path style="fill:none;stroke:red;stroke-width:1px;stroke-linecap:butt;stroke-linejoin:miter;stroke-opacity:1" d="M 74.9445,615.591 63.9359,621.707 z" id="boundary" inkscape:connector-curvature="0" />
	<path style="fill:none;stroke:red;stroke-width:1px;stroke-linecap:butt;stroke-linejoin:miter;stroke-opacity:1" d="M 34.5795,649.84 44.365,640.054 z" id="boundary" inkscape:connector-curvature="0" />
	<path style="fill:none;stroke:red;stroke-width:1px;stroke-linecap:butt;stroke-linejoin:miter;stroke-opacity:1" d="M 4,698.767 10.1159,686.535 z" id="boundary" inkscape:connector-curvature="0" />
	<path style="fill:none;stroke:red;stroke-width:1px;stroke-linecap:butt;stroke-linejoin:miter;stroke-opacity:1" d="M 10.1159,709.776 4,698.767 z" id="boundary" inkscape:connector-curvature="0" />
	<path style="fill:none;stroke:red;stroke-width:1px;stroke-linecap:butt;stroke-linejoin:miter;stroke-opacity:1" d="M 10.1159,686.535 19.9014,676.75 z" id="boundary" inkscape:connector-curvature="0" />
	<path style="fill:none;stroke:red;stroke-width:1px;stroke-linecap:butt;stroke-linejoin:miter;stroke-opacity:1" d="M 26.0173,664.518 34.5795,649.84 z" id="boundary" inkscape:connector-curvature="0" />
	<path style="fill:none;stroke:red;stroke-width:1px;stroke-linecap:butt;stroke-linejoin:miter;stroke-opacity:1" d="M 26.0173,664.518 19.9014,676.75 z" id="boundary" inkscape:connector-curvature="0" />
	<path style="fill:none;stroke:red;stroke-width:1px;stroke-linecap:butt;stroke-linejoin:miter;stroke-opacity:1" d="M 16.2318,720.784 10.1159,709.776 z" id="boundary" inkscape:connector-curvature="0" />
	<path style="fill:none;stroke:red;stroke-width:1px;stroke-linecap:butt;stroke-linejoin:miter;stroke-opacity:1" d="M 145.889,671.857 158.121,671.857 z" id="boundary" inkscape:connector-curvature="0" />
	<path style="fill:none;stroke:red;stroke-width:1px;stroke-linecap:butt;stroke-linejoin:miter;stroke-opacity:1" d="M 137.327,681.642 145.889,671.857 z" id="boundary" inkscape:connector-curvature="0" />
	<path style="fill:none;stroke:red;stroke-width:1px;stroke-linecap:butt;stroke-linejoin:miter;stroke-opacity:1" d="M 170.353,671.857 182.584,671.857 z" id="boundary" inkscape:connector-curvature="0" />
	<path style="fill:none;stroke:red;stroke-width:1px;stroke-linecap:butt;stroke-linejoin:miter;stroke-opacity:1" d="M 170.353,671.857 158.121,671.857 z" id="boundary" inkscape:connector-curvature="0" />
	<path style="fill:none;stroke:red;stroke-width:1px;stroke-linecap:butt;stroke-linejoin:miter;stroke-opacity:1" d="M 182.584,671.857 194.816,671.857 z" id="boundary" inkscape:connector-curvature="0" />
	<path style="fill:none;stroke:red;stroke-width:1px;stroke-linecap:butt;stroke-linejoin:miter;stroke-opacity:1" d="M 106.747,706.106 115.309,696.321 z" id="boundary" inkscape:connector-curvature="0" />
	<path style="fill:none;stroke:red;stroke-width:1px;stroke-linecap:butt;stroke-linejoin:miter;stroke-opacity:1" d="M 125.095,687.758 115.309,696.321 z" id="boundary" inkscape:connector-curvature="0" />
	<path style="fill:none;stroke:red;stroke-width:1px;stroke-linecap:butt;stroke-linejoin:miter;stroke-opacity:1" d="M 194.816,671.857 207.048,674.303 z" id="boundary" inkscape:connector-curvature="0" />
	<path style="fill:none;stroke:red;stroke-width:1px;stroke-linecap:butt;stroke-linejoin:miter;stroke-opacity:1" d="M 207.048,674.303 219.28,677.973 z" id="boundary" inkscape:connector-curvature="0" />
	<path style="fill:none;stroke:red;stroke-width:1px;stroke-linecap:butt;stroke-linejoin:miter;stroke-opacity:1" d="M 125.095,687.758 137.327,681.642 z" id="boundary" inkscape:connector-curvature="0" />
	<path style="fill:none;stroke:red;stroke-width:1px;stroke-linecap:butt;stroke-linejoin:miter;stroke-opacity:1" d="M 313.465,126.318 319.581,114.086 z" id="boundary" inkscape:connector-curvature="0" />
	<path style="fill:none;stroke:red;stroke-width:1px;stroke-linecap:butt;stroke-linejoin:miter;stroke-opacity:1" d="M 319.581,114.086 329.366,104.301 z" id="boundary" inkscape:connector-curvature="0" />
	<path style="fill:none;stroke:red;stroke-width:1px;stroke-linecap:butt;stroke-linejoin:miter;stroke-opacity:1" d="M 313.465,126.318 303.679,136.104 z" id="boundary" inkscape:connector-curvature="0" />
	<path style="fill:none;stroke:red;stroke-width:1px;stroke-linecap:butt;stroke-linejoin:miter;stroke-opacity:1" d="M 347.714,85.9531 339.152,95.7386 z" id="boundary" inkscape:connector-curvature="0" />
	<path style="fill:none;stroke:red;stroke-width:1px;stroke-linecap:butt;stroke-linejoin:miter;stroke-opacity:1" d="M 339.152,95.7386 329.366,104.301 z" id="boundary" inkscape:connector-curvature="0" />
	<path style="fill:none;stroke:red;stroke-width:1px;stroke-linecap:butt;stroke-linejoin:miter;stroke-opacity:1" d="M 266.984,197.263 273.1,185.031 z" id="boundary" inkscape:connector-curvature="0" />
	<path style="fill:none;stroke:red;stroke-width:1px;stroke-linecap:butt;stroke-linejoin:miter;stroke-opacity:1" d="M 273.1,185.031 282.885,175.245 z" id="boundary" inkscape:connector-curvature="0" />
	<path style="fill:none;stroke:red;stroke-width:1px;stroke-linecap:butt;stroke-linejoin:miter;stroke-opacity:1" d="M 289.001,163.014 282.885,175.245 z" id="boundary" inkscape:connector-curvature="0" />
	<path style="fill:none;stroke:red;stroke-width:1px;stroke-linecap:butt;stroke-linejoin:miter;stroke-opacity:1" d="M 260.868,215.61 266.984,197.263 z" id="boundary" inkscape:connector-curvature="0" />
	<path style="fill:none;stroke:red;stroke-width:1px;stroke-linecap:butt;stroke-linejoin:miter;stroke-opacity:1" d="M 295.117,150.782 303.679,136.104 z" id="boundary" inkscape:connector-curvature="0" />
	<path style="fill:none;stroke:red;stroke-width:1px;stroke-linecap:butt;stroke-linejoin:miter;stroke-opacity:1" d="M 295.117,150.782 289.001,163.014 z" id="boundary" inkscape:connector-curvature="0" />
	<path style="fill:none;stroke:red;stroke-width:1px;stroke-linecap:butt;stroke-linejoin:miter;stroke-opacity:1" d="M 347.714,85.9531 357.499,77.3909 z" id="boundary" inkscape:connector-curvature="0" />
	<path style="fill:none;stroke:red;stroke-width:1px;stroke-linecap:butt;stroke-linejoin:miter;stroke-opacity:1" d="M 418.658,28.4636 429.667,22.3477 z" id="boundary" inkscape:connector-curvature="0" />
	<path style="fill:none;stroke:red;stroke-width:1px;stroke-linecap:butt;stroke-linejoin:miter;stroke-opacity:1" d="M 429.667,22.3477 441.899,22.3477 z" id="boundary" inkscape:connector-curvature="0" />
	<path style="fill:none;stroke:red;stroke-width:1px;stroke-linecap:butt;stroke-linejoin:miter;stroke-opacity:1" d="M 452.908,16.2318 441.899,22.3477 z" id="boundary" inkscape:connector-curvature="0" />
	<path style="fill:none;stroke:red;stroke-width:1px;stroke-linecap:butt;stroke-linejoin:miter;stroke-opacity:1" d="M 463.916,10.1159 452.908,16.2318 z" id="boundary" inkscape:connector-curvature="0" />
	<path style="fill:none;stroke:red;stroke-width:1px;stroke-linecap:butt;stroke-linejoin:miter;stroke-opacity:1" d="M 408.873,37.0259 418.658,28.4636 z" id="boundary" inkscape:connector-curvature="0" />
	<path style="fill:none;stroke:red;stroke-width:1px;stroke-linecap:butt;stroke-linejoin:miter;stroke-opacity:1" d="M 357.499,77.3909 366.062,67.6054 z" id="boundary" inkscape:connector-curvature="0" />
	<path style="fill:none;stroke:red;stroke-width:1px;stroke-linecap:butt;stroke-linejoin:miter;stroke-opacity:1" d="M 366.062,67.6054 375.847,59.0432 z" id="boundary" inkscape:connector-curvature="0" />
	<path style="fill:none;stroke:red;stroke-width:1px;stroke-linecap:butt;stroke-linejoin:miter;stroke-opacity:1" d="M 375.847,59.0432 386.856,52.9273 z" id="boundary" inkscape:connector-curvature="0" />
	<path style="fill:none;stroke:red;stroke-width:1px;stroke-linecap:butt;stroke-linejoin:miter;stroke-opacity:1" d="M 386.856,52.9273 396.641,43.1418 z" id="boundary" inkscape:connector-curvature="0" />
	<path style="fill:none;stroke:red;stroke-width:1px;stroke-linecap:butt;stroke-linejoin:miter;stroke-opacity:1" d="M 396.641,43.1418 408.873,37.0259 z" id="boundary" inkscape:connector-curvature="0" />
	<path style="fill:none;stroke:red;stroke-width:1px;stroke-linecap:butt;stroke-linejoin:miter;stroke-opacity:1" d="M 218.057,356.276 218.057,368.508 z" id="boundary" inkscape:connector-curvature="0" />
	<path style="fill:none;stroke:red;stroke-width:1px;stroke-linecap:butt;stroke-linejoin:miter;stroke-opacity:1" d="M 218.057,356.276 224.173,337.928 z" id="boundary" inkscape:connector-curvature="0" />
	<path style="fill:none;stroke:red;stroke-width:1px;stroke-linecap:butt;stroke-linejoin:miter;stroke-opacity:1" d="M 218.057,380.74 218.057,368.508 z" id="boundary" inkscape:connector-curvature="0" />
	<path style="fill:none;stroke:red;stroke-width:1px;stroke-linecap:butt;stroke-linejoin:miter;stroke-opacity:1" d="M 224.173,325.697 224.173,337.928 z" id="boundary" inkscape:connector-curvature="0" />
	<path style="fill:none;stroke:red;stroke-width:1px;stroke-linecap:butt;stroke-linejoin:miter;stroke-opacity:1" d="M 224.173,325.697 230.289,313.465 z" id="boundary" inkscape:connector-curvature="0" />
	<path style="fill:none;stroke:red;stroke-width:1px;stroke-linecap:butt;stroke-linejoin:miter;stroke-opacity:1" d="M 218.057,392.972 218.057,380.74 z" id="boundary" inkscape:connector-curvature="0" />
	<path style="fill:none;stroke:red;stroke-width:1px;stroke-linecap:butt;stroke-linejoin:miter;stroke-opacity:1" d="M 218.057,538.53 218.057,550.762 z" id="boundary" inkscape:connector-curvature="0" />
	<path style="fill:none;stroke:red;stroke-width:1px;stroke-linecap:butt;stroke-linejoin:miter;stroke-opacity:1" d="M 219.28,677.973 231.512,677.973 z" id="boundary" inkscape:connector-curvature="0" />
	<path style="fill:none;stroke:red;stroke-width:1px;stroke-linecap:butt;stroke-linejoin:miter;stroke-opacity:1" d="M 224.173,698.767 211.941,704.883 z" id="boundary" inkscape:connector-curvature="0" />
	<path style="fill:none;stroke:red;stroke-width:1px;stroke-linecap:butt;stroke-linejoin:miter;stroke-opacity:1" d="M 218.057,562.994 218.057,550.762 z" id="boundary" inkscape:connector-curvature="0" />
	<path style="fill:none;stroke:red;stroke-width:1px;stroke-linecap:butt;stroke-linejoin:miter;stroke-opacity:1" d="M 236.404,276.769 242.52,258.422 z" id="boundary" inkscape:connector-curvature="0" />
	<path style="fill:none;stroke:red;stroke-width:1px;stroke-linecap:butt;stroke-linejoin:miter;stroke-opacity:1" d="M 236.404,289.001 236.404,276.769 z" id="boundary" inkscape:connector-curvature="0" />
	<path style="fill:none;stroke:red;stroke-width:1px;stroke-linecap:butt;stroke-linejoin:miter;stroke-opacity:1" d="M 236.404,289.001 230.289,301.233 z" id="boundary" inkscape:connector-curvature="0" />
	<path style="fill:none;stroke:red;stroke-width:1px;stroke-linecap:butt;stroke-linejoin:miter;stroke-opacity:1" d="M 248.636,240.074 254.752,227.842 z" id="boundary" inkscape:connector-curvature="0" />
	<path style="fill:none;stroke:red;stroke-width:1px;stroke-linecap:butt;stroke-linejoin:miter;stroke-opacity:1" d="M 242.52,258.422 248.636,240.074 z" id="boundary" inkscape:connector-curvature="0" />
	<path style="fill:none;stroke:red;stroke-width:1px;stroke-linecap:butt;stroke-linejoin:miter;stroke-opacity:1" d="M 260.868,215.61 254.752,227.842 z" id="boundary" inkscape:connector-curvature="0" />
	<path style="fill:none;stroke:red;stroke-width:1px;stroke-linecap:butt;stroke-linejoin:miter;stroke-opacity:1" d="M 242.52,684.089 231.512,677.973 z" id="boundary" inkscape:connector-curvature="0" />
	<path style="fill:none;stroke:red;stroke-width:1px;stroke-linecap:butt;stroke-linejoin:miter;stroke-opacity:1" d="M 230.289,313.465 230.289,301.233 z" id="boundary" inkscape:connector-curvature="0" />
	<path style="fill:none;stroke:red;stroke-width:1px;stroke-linecap:butt;stroke-linejoin:miter;stroke-opacity:1" d="M 224.173,698.767 236.404,695.097 z" id="boundary" inkscape:connector-curvature="0" />
	<path style="fill:none;stroke:red;stroke-width:1px;stroke-linecap:butt;stroke-linejoin:miter;stroke-opacity:1" d="M 16.2318,720.784 22.3477,731.793 z" id="boundary" inkscape:connector-curvature="0" />
	<path style="fill:none;stroke:red;stroke-width:1px;stroke-linecap:butt;stroke-linejoin:miter;stroke-opacity:1" d="M 22.3477,731.793 24.7941,744.025 z" id="boundary" inkscape:connector-curvature="0" />
	<path style="fill:none;stroke:red;stroke-width:1px;stroke-linecap:butt;stroke-linejoin:miter;stroke-opacity:1" d="M 34.5795,751.364 24.7941,744.025 z" id="boundary" inkscape:connector-curvature="0" />
	<path style="fill:none;stroke:red;stroke-width:1px;stroke-linecap:butt;stroke-linejoin:miter;stroke-opacity:1" d="M 83.5068,766.042 84.73,745.248 z" id="boundary" inkscape:connector-curvature="0" />
	<path style="fill:none;stroke:red;stroke-width:1px;stroke-linecap:butt;stroke-linejoin:miter;stroke-opacity:1" d="M 90.8459,726.9 84.73,745.248 z" id="boundary" inkscape:connector-curvature="0" />
	<path style="fill:none;stroke:red;stroke-width:1px;stroke-linecap:butt;stroke-linejoin:miter;stroke-opacity:1" d="M 51.7041,769.711 41.9186,761.149 z" id="boundary" inkscape:connector-curvature="0" />
	<path style="fill:none;stroke:red;stroke-width:1px;stroke-linecap:butt;stroke-linejoin:miter;stroke-opacity:1" d="M 41.9186,761.149 34.5795,751.364 z" id="boundary" inkscape:connector-curvature="0" />
	<path style="fill:none;stroke:red;stroke-width:1px;stroke-linecap:butt;stroke-linejoin:miter;stroke-opacity:1" d="M 51.7041,769.711 56.5968,781.943 z" id="boundary" inkscape:connector-curvature="0" />
	<path style="fill:none;stroke:red;stroke-width:1px;stroke-linecap:butt;stroke-linejoin:miter;stroke-opacity:1" d="M 83.5068,766.042 77.3909,778.274 z" id="boundary" inkscape:connector-curvature="0" />
	<path style="fill:none;stroke:red;stroke-width:1px;stroke-linecap:butt;stroke-linejoin:miter;stroke-opacity:1" d="M 67.6054,788.059 56.5968,781.943 z" id="boundary" inkscape:connector-curvature="0" />
	<path style="fill:none;stroke:red;stroke-width:1px;stroke-linecap:butt;stroke-linejoin:miter;stroke-opacity:1" d="M 77.3909,778.274 67.6054,788.059 z" id="boundary" inkscape:connector-curvature="0" />
	<path style="fill:none;stroke:red;stroke-width:1px;stroke-linecap:butt;stroke-linejoin:miter;stroke-opacity:1" d="M 167.906,725.677 158.121,734.239 z" id="boundary" inkscape:connector-curvature="0" />
	<path style="fill:none;stroke:red;stroke-width:1px;stroke-linecap:butt;stroke-linejoin:miter;stroke-opacity:1" d="M 178.915,719.561 189.924,713.445 z" id="boundary" inkscape:connector-curvature="0" />
	<path style="fill:none;stroke:red;stroke-width:1px;stroke-linecap:butt;stroke-linejoin:miter;stroke-opacity:1" d="M 189.924,713.445 202.155,713.445 z" id="boundary" inkscape:connector-curvature="0" />
	<path style="fill:none;stroke:red;stroke-width:1px;stroke-linecap:butt;stroke-linejoin:miter;stroke-opacity:1" d="M 178.915,719.561 167.906,725.677 z" id="boundary" inkscape:connector-curvature="0" />
	<path style="fill:none;stroke:red;stroke-width:1px;stroke-linecap:butt;stroke-linejoin:miter;stroke-opacity:1" d="M 211.941,704.883 202.155,713.445 z" id="boundary" inkscape:connector-curvature="0" />
	<path style="fill:none;stroke:red;stroke-width:1px;stroke-linecap:butt;stroke-linejoin:miter;stroke-opacity:1" d="M 106.747,706.106 100.631,718.338 z" id="boundary" inkscape:connector-curvature="0" />
	<path style="fill:none;stroke:red;stroke-width:1px;stroke-linecap:butt;stroke-linejoin:miter;stroke-opacity:1" d="M 100.631,718.338 90.8459,726.9 z" id="boundary" inkscape:connector-curvature="0" />
	<path style="fill:none;stroke:red;stroke-width:1px;stroke-linecap:butt;stroke-linejoin:miter;stroke-opacity:1" d="M 123.872,774.604 114.086,784.39 z" id="boundary" inkscape:connector-curvature="0" />
	<path style="fill:none;stroke:red;stroke-width:1px;stroke-linecap:butt;stroke-linejoin:miter;stroke-opacity:1" d="M 129.988,762.372 123.872,774.604 z" id="boundary" inkscape:connector-curvature="0" />
	<path style="fill:none;stroke:red;stroke-width:1px;stroke-linecap:butt;stroke-linejoin:miter;stroke-opacity:1" d="M 129.988,762.372 139.773,752.587 z" id="boundary" inkscape:connector-curvature="0" />
	<path style="fill:none;stroke:red;stroke-width:1px;stroke-linecap:butt;stroke-linejoin:miter;stroke-opacity:1" d="M 158.121,734.239 152.005,746.471 z" id="boundary" inkscape:connector-curvature="0" />
	<path style="fill:none;stroke:red;stroke-width:1px;stroke-linecap:butt;stroke-linejoin:miter;stroke-opacity:1" d="M 152.005,746.471 139.773,752.587 z" id="boundary" inkscape:connector-curvature="0" />
	<path style="fill:none;stroke:red;stroke-width:1px;stroke-linecap:butt;stroke-linejoin:miter;stroke-opacity:1" d="M 114.086,784.39 107.97,796.621 z" id="boundary" inkscape:connector-curvature="0" />
	<path style="fill:none;stroke:red;stroke-width:1px;stroke-linecap:butt;stroke-linejoin:miter;stroke-opacity:1" d="M 101.855,808.853 95.7386,821.085 z" id="boundary" inkscape:connector-curvature="0" />
	<path style="fill:none;stroke:red;stroke-width:1px;stroke-linecap:butt;stroke-linejoin:miter;stroke-opacity:1" d="M 115.309,836.986 105.524,829.647 z" id="boundary" inkscape:connector-curvature="0" />
	<path style="fill:none;stroke:red;stroke-width:1px;stroke-linecap:butt;stroke-linejoin:miter;stroke-opacity:1" d="M 101.855,808.853 107.97,796.621 z" id="boundary" inkscape:connector-curvature="0" />
	<path style="fill:none;stroke:red;stroke-width:1px;stroke-linecap:butt;stroke-linejoin:miter;stroke-opacity:1" d="M 105.524,829.647 95.7386,821.085 z" id="boundary" inkscape:connector-curvature="0" />
	<path style="fill:none;stroke:red;stroke-width:1px;stroke-linecap:butt;stroke-linejoin:miter;stroke-opacity:1" d="M 115.309,836.986 126.318,843.102 z" id="boundary" inkscape:connector-curvature="0" />
	<path style="fill:none;stroke:red;stroke-width:1px;stroke-linecap:butt;stroke-linejoin:miter;stroke-opacity:1" d="M 126.318,843.102 133.657,852.888 z" id="boundary" inkscape:connector-curvature="0" />
	<path style="fill:none;stroke:red;stroke-width:1px;stroke-linecap:butt;stroke-linejoin:miter;stroke-opacity:1" d="M 143.443,861.45 133.657,852.888 z" id="boundary" inkscape:connector-curvature="0" />
	<path style="fill:none;stroke:red;stroke-width:1px;stroke-linecap:butt;stroke-linejoin:miter;stroke-opacity:1" d="M 154.451,867.566 143.443,861.45 z" id="boundary" inkscape:connector-curvature="0" />
	<path style="fill:none;stroke:red;stroke-width:1px;stroke-linecap:butt;stroke-linejoin:miter;stroke-opacity:1" d="M 166.683,872.459 154.451,867.566 z" id="boundary" inkscape:connector-curvature="0" />
	<path style="fill:none;stroke:red;stroke-width:1px;stroke-linecap:butt;stroke-linejoin:miter;stroke-opacity:1" d="M 178.915,866.343 166.683,872.459 z" id="boundary" inkscape:connector-curvature="0" />
	<path style="fill:none;stroke:red;stroke-width:1px;stroke-linecap:butt;stroke-linejoin:miter;stroke-opacity:1" d="M 182.584,849.218 188.7,836.986 z" id="boundary" inkscape:connector-curvature="0" />
	<path style="fill:none;stroke:red;stroke-width:1px;stroke-linecap:butt;stroke-linejoin:miter;stroke-opacity:1" d="M 194.816,824.755 188.7,836.986 z" id="boundary" inkscape:connector-curvature="0" />
	<path style="fill:none;stroke:red;stroke-width:1px;stroke-linecap:butt;stroke-linejoin:miter;stroke-opacity:1" d="M 194.816,824.755 205.825,818.639 z" id="boundary" inkscape:connector-curvature="0" />
	<path style="fill:none;stroke:red;stroke-width:1px;stroke-linecap:butt;stroke-linejoin:miter;stroke-opacity:1" d="M 215.61,811.3 205.825,818.639 z" id="boundary" inkscape:connector-curvature="0" />
	<path style="fill:none;stroke:red;stroke-width:1px;stroke-linecap:butt;stroke-linejoin:miter;stroke-opacity:1" d="M 240.074,854.111 230.289,863.896 z" id="boundary" inkscape:connector-curvature="0" />
	<path style="fill:none;stroke:red;stroke-width:1px;stroke-linecap:butt;stroke-linejoin:miter;stroke-opacity:1" d="M 224.173,888.36 218.057,900.592 z" id="boundary" inkscape:connector-curvature="0" />
	<path style="fill:none;stroke:red;stroke-width:1px;stroke-linecap:butt;stroke-linejoin:miter;stroke-opacity:1" d="M 178.915,866.343 182.584,849.218 z" id="boundary" inkscape:connector-curvature="0" />
	<path style="fill:none;stroke:red;stroke-width:1px;stroke-linecap:butt;stroke-linejoin:miter;stroke-opacity:1" d="M 224.173,876.128 224.173,888.36 z" id="boundary" inkscape:connector-curvature="0" />
	<path style="fill:none;stroke:red;stroke-width:1px;stroke-linecap:butt;stroke-linejoin:miter;stroke-opacity:1" d="M 240.074,910.377 227.842,909.154 z" id="boundary" inkscape:connector-curvature="0" />
	<path style="fill:none;stroke:red;stroke-width:1px;stroke-linecap:butt;stroke-linejoin:miter;stroke-opacity:1" d="M 224.173,876.128 230.289,863.896 z" id="boundary" inkscape:connector-curvature="0" />
	<path style="fill:none;stroke:red;stroke-width:1px;stroke-linecap:butt;stroke-linejoin:miter;stroke-opacity:1" d="M 227.842,909.154 218.057,900.592 z" id="boundary" inkscape:connector-curvature="0" />
	<path style="fill:none;stroke:red;stroke-width:1px;stroke-linecap:butt;stroke-linejoin:miter;stroke-opacity:1" d="M 215.61,811.3 225.396,800.291 z" id="boundary" inkscape:connector-curvature="0" />
	<path style="fill:none;stroke:red;stroke-width:1px;stroke-linecap:butt;stroke-linejoin:miter;stroke-opacity:1" d="M 237.628,794.175 225.396,800.291 z" id="boundary" inkscape:connector-curvature="0" />
	<path style="fill:none;stroke:red;stroke-width:1px;stroke-linecap:butt;stroke-linejoin:miter;stroke-opacity:1" d="M 237.628,794.175 249.859,788.059 z" id="boundary" inkscape:connector-curvature="0" />
	<path style="fill:none;stroke:red;stroke-width:1px;stroke-linecap:butt;stroke-linejoin:miter;stroke-opacity:1" d="M 262.091,788.059 274.323,788.059 z" id="boundary" inkscape:connector-curvature="0" />
	<path style="fill:none;stroke:red;stroke-width:1px;stroke-linecap:butt;stroke-linejoin:miter;stroke-opacity:1" d="M 262.091,788.059 249.859,788.059 z" id="boundary" inkscape:connector-curvature="0" />
	<path style="fill:none;stroke:red;stroke-width:1px;stroke-linecap:butt;stroke-linejoin:miter;stroke-opacity:1" d="M 274.323,788.059 286.555,788.059 z" id="boundary" inkscape:connector-curvature="0" />
	<path style="fill:none;stroke:red;stroke-width:1px;stroke-linecap:butt;stroke-linejoin:miter;stroke-opacity:1" d="M 284.109,805.184 274.323,813.746 z" id="boundary" inkscape:connector-curvature="0" />
	<path style="fill:none;stroke:red;stroke-width:1px;stroke-linecap:butt;stroke-linejoin:miter;stroke-opacity:1" d="M 251.083,916.493 240.074,910.377 z" id="boundary" inkscape:connector-curvature="0" />
	<path style="fill:none;stroke:red;stroke-width:1px;stroke-linecap:butt;stroke-linejoin:miter;stroke-opacity:1" d="M 246.19,841.879 240.074,854.111 z" id="boundary" inkscape:connector-curvature="0" />
	<path style="fill:none;stroke:red;stroke-width:1px;stroke-linecap:butt;stroke-linejoin:miter;stroke-opacity:1" d="M 246.19,841.879 255.975,832.094 z" id="boundary" inkscape:connector-curvature="0" />
	<path style="fill:none;stroke:red;stroke-width:1px;stroke-linecap:butt;stroke-linejoin:miter;stroke-opacity:1" d="M 265.761,823.531 255.975,832.094 z" id="boundary" inkscape:connector-curvature="0" />
	<path style="fill:none;stroke:red;stroke-width:1px;stroke-linecap:butt;stroke-linejoin:miter;stroke-opacity:1" d="M 274.323,813.746 265.761,823.531 z" id="boundary" inkscape:connector-curvature="0" />
	<path style="fill:none;stroke:red;stroke-width:1px;stroke-linecap:butt;stroke-linejoin:miter;stroke-opacity:1" d="M 284.109,805.184 295.117,799.068 z" id="boundary" inkscape:connector-curvature="0" />
	<path style="fill:none;stroke:red;stroke-width:1px;stroke-linecap:butt;stroke-linejoin:miter;stroke-opacity:1" d="M 295.117,799.068 286.555,788.059 z" id="boundary" inkscape:connector-curvature="0" />
	<path style="fill:none;stroke:red;stroke-width:1px;stroke-linecap:butt;stroke-linejoin:miter;stroke-opacity:1" d="M 352.607,876.128 364.838,873.682 z" id="boundary" inkscape:connector-curvature="0" />
	<path style="fill:none;stroke:red;stroke-width:1px;stroke-linecap:butt;stroke-linejoin:miter;stroke-opacity:1" d="M 377.07,873.682 364.838,873.682 z" id="boundary" inkscape:connector-curvature="0" />
	<path style="fill:none;stroke:red;stroke-width:1px;stroke-linecap:butt;stroke-linejoin:miter;stroke-opacity:1" d="M 352.607,876.128 340.375,879.798 z" id="boundary" inkscape:connector-curvature="0" />
	<path style="fill:none;stroke:red;stroke-width:1px;stroke-linecap:butt;stroke-linejoin:miter;stroke-opacity:1" d="M 320.804,895.699 311.018,904.261 z" id="boundary" inkscape:connector-curvature="0" />
	<path style="fill:none;stroke:red;stroke-width:1px;stroke-linecap:butt;stroke-linejoin:miter;stroke-opacity:1" d="M 329.366,885.914 320.804,895.699 z" id="boundary" inkscape:connector-curvature="0" />
	<path style="fill:none;stroke:red;stroke-width:1px;stroke-linecap:butt;stroke-linejoin:miter;stroke-opacity:1" d="M 311.018,916.493 311.018,904.261 z" id="boundary" inkscape:connector-curvature="0" />
	<path style="fill:none;stroke:red;stroke-width:1px;stroke-linecap:butt;stroke-linejoin:miter;stroke-opacity:1" d="M 374.624,890.806 364.838,900.592 z" id="boundary" inkscape:connector-curvature="0" />
	<path style="fill:none;stroke:red;stroke-width:1px;stroke-linecap:butt;stroke-linejoin:miter;stroke-opacity:1" d="M 329.366,885.914 340.375,879.798 z" id="boundary" inkscape:connector-curvature="0" />
	<path style="fill:none;stroke:red;stroke-width:1px;stroke-linecap:butt;stroke-linejoin:miter;stroke-opacity:1" d="M 463.916,922.609 455.354,932.395 z" id="boundary" inkscape:connector-curvature="0" />
	<path style="fill:none;stroke:red;stroke-width:1px;stroke-linecap:butt;stroke-linejoin:miter;stroke-opacity:1" d="M 364.838,900.592 358.723,912.824 z" id="boundary" inkscape:connector-curvature="0" />
	<path style="fill:none;stroke:red;stroke-width:1px;stroke-linecap:butt;stroke-linejoin:miter;stroke-opacity:1" d="M 251.083,916.493 262.091,922.609 z" id="boundary" inkscape:connector-curvature="0" />
	<path style="fill:none;stroke:red;stroke-width:1px;stroke-linecap:butt;stroke-linejoin:miter;stroke-opacity:1" d="M 358.723,912.824 358.723,925.055 z" id="boundary" inkscape:connector-curvature="0" />
	<path style="fill:none;stroke:red;stroke-width:1px;stroke-linecap:butt;stroke-linejoin:miter;stroke-opacity:1" d="M 273.1,928.725 262.091,922.609 z" id="boundary" inkscape:connector-curvature="0" />
	<path style="fill:none;stroke:red;stroke-width:1px;stroke-linecap:butt;stroke-linejoin:miter;stroke-opacity:1" d="M 358.723,925.055 352.607,937.287 z" id="boundary" inkscape:connector-curvature="0" />
	<path style="fill:none;stroke:red;stroke-width:1px;stroke-linecap:butt;stroke-linejoin:miter;stroke-opacity:1" d="M 273.1,928.725 284.109,934.841 z" id="boundary" inkscape:connector-curvature="0" />
	<path style="fill:none;stroke:red;stroke-width:1px;stroke-linecap:butt;stroke-linejoin:miter;stroke-opacity:1" d="M 295.117,940.957 284.109,934.841 z" id="boundary" inkscape:connector-curvature="0" />
	<path style="fill:none;stroke:red;stroke-width:1px;stroke-linecap:butt;stroke-linejoin:miter;stroke-opacity:1" d="M 304.903,928.725 295.117,940.957 z" id="boundary" inkscape:connector-curvature="0" />
	<path style="fill:none;stroke:red;stroke-width:1px;stroke-linecap:butt;stroke-linejoin:miter;stroke-opacity:1" d="M 352.607,937.287 352.607,949.519 z" id="boundary" inkscape:connector-curvature="0" />
	<path style="fill:none;stroke:red;stroke-width:1px;stroke-linecap:butt;stroke-linejoin:miter;stroke-opacity:1" d="M 304.903,928.725 311.018,916.493 z" id="boundary" inkscape:connector-curvature="0" />
	<path style="fill:none;stroke:red;stroke-width:1px;stroke-linecap:butt;stroke-linejoin:miter;stroke-opacity:1" d="M 352.607,949.519 358.723,960.528 z" id="boundary" inkscape:connector-curvature="0" />
	<path style="fill:none;stroke:red;stroke-width:1px;stroke-linecap:butt;stroke-linejoin:miter;stroke-opacity:1" d="M 370.954,965.42 358.723,960.528 z" id="boundary" inkscape:connector-curvature="0" />
	<path style="fill:none;stroke:red;stroke-width:1px;stroke-linecap:butt;stroke-linejoin:miter;stroke-opacity:1" d="M 370.954,965.42 381.963,971.536 z" id="boundary" inkscape:connector-curvature="0" />
	<path style="fill:none;stroke:red;stroke-width:1px;stroke-linecap:butt;stroke-linejoin:miter;stroke-opacity:1" d="M 445.568,965.42 445.568,953.189 z" id="boundary" inkscape:connector-curvature="0" />
	<path style="fill:none;stroke:red;stroke-width:1px;stroke-linecap:butt;stroke-linejoin:miter;stroke-opacity:1" d="M 445.568,953.189 445.568,940.957 z" id="boundary" inkscape:connector-curvature="0" />
	<path style="fill:none;stroke:red;stroke-width:1px;stroke-linecap:butt;stroke-linejoin:miter;stroke-opacity:1" d="M 445.568,940.957 455.354,932.395 z" id="boundary" inkscape:connector-curvature="0" />
	<path style="fill:none;stroke:red;stroke-width:1px;stroke-linecap:butt;stroke-linejoin:miter;stroke-opacity:1" d="M 381.963,971.536 394.195,971.536 z" id="boundary" inkscape:connector-curvature="0" />
	<path style="fill:none;stroke:red;stroke-width:1px;stroke-linecap:butt;stroke-linejoin:miter;stroke-opacity:1" d="M 406.427,971.536 394.195,971.536 z" id="boundary" inkscape:connector-curvature="0" />
	<path style="fill:none;stroke:red;stroke-width:1px;stroke-linecap:butt;stroke-linejoin:miter;stroke-opacity:1" d="M 406.427,971.536 417.435,977.652 z" id="boundary" inkscape:connector-curvature="0" />
	<path style="fill:none;stroke:red;stroke-width:1px;stroke-linecap:butt;stroke-linejoin:miter;stroke-opacity:1" d="M 417.435,977.652 429.667,977.652 z" id="boundary" inkscape:connector-curvature="0" />
	<path style="fill:none;stroke:red;stroke-width:1px;stroke-linecap:butt;stroke-linejoin:miter;stroke-opacity:1" d="M 429.667,977.652 441.899,982.545 z" id="boundary" inkscape:connector-curvature="0" />
	<path style="fill:none;stroke:red;stroke-width:1px;stroke-linecap:butt;stroke-linejoin:miter;stroke-opacity:1" d="M 463.916,10.1159 476.148,10.1159 z" id="boundary" inkscape:connector-curvature="0" />
	<path style="fill:none;stroke:red;stroke-width:1px;stroke-linecap:butt;stroke-linejoin:miter;stroke-opacity:1" d="M 500.612,4 512.843,4 z" id="boundary" inkscape:connector-curvature="0" />
	<path style="fill:none;stroke:red;stroke-width:1px;stroke-linecap:butt;stroke-linejoin:miter;stroke-opacity:1" d="M 488.38,6.44636 500.612,4 z" id="boundary" inkscape:connector-curvature="0" />
	<path style="fill:none;stroke:red;stroke-width:1px;stroke-linecap:butt;stroke-linejoin:miter;stroke-opacity:1" d="M 525.075,4 537.307,4 z" id="boundary" inkscape:connector-curvature="0" />
	<path style="fill:none;stroke:red;stroke-width:1px;stroke-linecap:butt;stroke-linejoin:miter;stroke-opacity:1" d="M 537.307,4 549.539,4 z" id="boundary" inkscape:connector-curvature="0" />
	<path style="fill:none;stroke:red;stroke-width:1px;stroke-linecap:butt;stroke-linejoin:miter;stroke-opacity:1" d="M 549.539,4 560.547,10.1159 z" id="boundary" inkscape:connector-curvature="0" />
	<path style="fill:none;stroke:red;stroke-width:1px;stroke-linecap:butt;stroke-linejoin:miter;stroke-opacity:1" d="M 512.843,4 525.075,4 z" id="boundary" inkscape:connector-curvature="0" />
	<path style="fill:none;stroke:red;stroke-width:1px;stroke-linecap:butt;stroke-linejoin:miter;stroke-opacity:1" d="M 476.148,10.1159 488.38,6.44636 z" id="boundary" inkscape:connector-curvature="0" />
	<path style="fill:none;stroke:red;stroke-width:1px;stroke-linecap:butt;stroke-linejoin:miter;stroke-opacity:1" d="M 572.779,10.1159 585.011,12.5623 z" id="boundary" inkscape:connector-curvature="0" />
	<path style="fill:none;stroke:red;stroke-width:1px;stroke-linecap:butt;stroke-linejoin:miter;stroke-opacity:1" d="M 585.011,12.5623 596.02,18.6782 z" id="boundary" inkscape:connector-curvature="0" />
	<path style="fill:none;stroke:red;stroke-width:1px;stroke-linecap:butt;stroke-linejoin:miter;stroke-opacity:1" d="M 608.252,22.3477 596.02,18.6782 z" id="boundary" inkscape:connector-curvature="0" />
	<path style="fill:none;stroke:red;stroke-width:1px;stroke-linecap:butt;stroke-linejoin:miter;stroke-opacity:1" d="M 560.547,10.1159 572.779,10.1159 z" id="boundary" inkscape:connector-curvature="0" />
	<path style="fill:none;stroke:red;stroke-width:1px;stroke-linecap:butt;stroke-linejoin:miter;stroke-opacity:1" d="M 619.26,28.4636 630.269,34.5795 z" id="boundary" inkscape:connector-curvature="0" />
	<path style="fill:none;stroke:red;stroke-width:1px;stroke-linecap:butt;stroke-linejoin:miter;stroke-opacity:1" d="M 630.269,34.5795 641.277,40.6954 z" id="boundary" inkscape:connector-curvature="0" />
	<path style="fill:none;stroke:red;stroke-width:1px;stroke-linecap:butt;stroke-linejoin:miter;stroke-opacity:1" d="M 641.277,40.6954 651.063,48.0345 z" id="boundary" inkscape:connector-curvature="0" />
	<path style="fill:none;stroke:red;stroke-width:1px;stroke-linecap:butt;stroke-linejoin:miter;stroke-opacity:1" d="M 662.072,54.1504 651.063,48.0345 z" id="boundary" inkscape:connector-curvature="0" />
	<path style="fill:none;stroke:red;stroke-width:1px;stroke-linecap:butt;stroke-linejoin:miter;stroke-opacity:1" d="M 671.857,62.7127 680.419,72.4982 z" id="boundary" inkscape:connector-curvature="0" />
	<path style="fill:none;stroke:red;stroke-width:1px;stroke-linecap:butt;stroke-linejoin:miter;stroke-opacity:1" d="M 690.205,81.0604 680.419,72.4982 z" id="boundary" inkscape:connector-curvature="0" />
	<path style="fill:none;stroke:red;stroke-width:1px;stroke-linecap:butt;stroke-linejoin:miter;stroke-opacity:1" d="M 662.072,54.1504 671.857,62.7127 z" id="boundary" inkscape:connector-curvature="0" />
	<path style="fill:none;stroke:red;stroke-width:1px;stroke-linecap:butt;stroke-linejoin:miter;stroke-opacity:1" d="M 708.552,99.4081 698.767,90.8459 z" id="boundary" inkscape:connector-curvature="0" />
	<path style="fill:none;stroke:red;stroke-width:1px;stroke-linecap:butt;stroke-linejoin:miter;stroke-opacity:1" d="M 698.767,90.8459 690.205,81.0604 z" id="boundary" inkscape:connector-curvature="0" />
	<path style="fill:none;stroke:red;stroke-width:1px;stroke-linecap:butt;stroke-linejoin:miter;stroke-opacity:1" d="M 608.252,22.3477 619.26,28.4636 z" id="boundary" inkscape:connector-curvature="0" />
	<path style="fill:none;stroke:red;stroke-width:1px;stroke-linecap:butt;stroke-linejoin:miter;stroke-opacity:1" d="M 708.552,99.4081 717.115,109.194 z" id="boundary" inkscape:connector-curvature="0" />
	<path style="fill:none;stroke:red;stroke-width:1px;stroke-linecap:butt;stroke-linejoin:miter;stroke-opacity:1" d="M 717.115,109.194 726.9,117.756 z" id="boundary" inkscape:connector-curvature="0" />
	<path style="fill:none;stroke:red;stroke-width:1px;stroke-linecap:butt;stroke-linejoin:miter;stroke-opacity:1" d="M 726.9,117.756 731.793,129.988 z" id="boundary" inkscape:connector-curvature="0" />
	<path style="fill:none;stroke:red;stroke-width:1px;stroke-linecap:butt;stroke-linejoin:miter;stroke-opacity:1" d="M 731.793,129.988 739.132,139.773 z" id="boundary" inkscape:connector-curvature="0" />
	<path style="fill:none;stroke:red;stroke-width:1px;stroke-linecap:butt;stroke-linejoin:miter;stroke-opacity:1" d="M 739.132,139.773 745.248,150.782 z" id="boundary" inkscape:connector-curvature="0" />
	<path style="fill:none;stroke:red;stroke-width:1px;stroke-linecap:butt;stroke-linejoin:miter;stroke-opacity:1" d="M 745.248,150.782 751.364,161.79 z" id="boundary" inkscape:connector-curvature="0" />
	<path style="fill:none;stroke:red;stroke-width:1px;stroke-linecap:butt;stroke-linejoin:miter;stroke-opacity:1" d="M 766.042,182.584 757.48,172.799 z" id="boundary" inkscape:connector-curvature="0" />
	<path style="fill:none;stroke:red;stroke-width:1px;stroke-linecap:butt;stroke-linejoin:miter;stroke-opacity:1" d="M 757.48,172.799 751.364,161.79 z" id="boundary" inkscape:connector-curvature="0" />
	<path style="fill:none;stroke:red;stroke-width:1px;stroke-linecap:butt;stroke-linejoin:miter;stroke-opacity:1" d="M 781.943,216.834 775.827,205.825 z" id="boundary" inkscape:connector-curvature="0" />
	<path style="fill:none;stroke:red;stroke-width:1px;stroke-linecap:butt;stroke-linejoin:miter;stroke-opacity:1" d="M 775.827,205.825 772.158,193.593 z" id="boundary" inkscape:connector-curvature="0" />
	<path style="fill:none;stroke:red;stroke-width:1px;stroke-linecap:butt;stroke-linejoin:miter;stroke-opacity:1" d="M 788.059,227.842 781.943,216.834 z" id="boundary" inkscape:connector-curvature="0" />
	<path style="fill:none;stroke:red;stroke-width:1px;stroke-linecap:butt;stroke-linejoin:miter;stroke-opacity:1" d="M 766.042,182.584 772.158,193.593 z" id="boundary" inkscape:connector-curvature="0" />
	<path style="fill:none;stroke:red;stroke-width:1px;stroke-linecap:butt;stroke-linejoin:miter;stroke-opacity:1" d="M 788.059,227.842 792.952,240.074 z" id="boundary" inkscape:connector-curvature="0" />
	<path style="fill:none;stroke:red;stroke-width:1px;stroke-linecap:butt;stroke-linejoin:miter;stroke-opacity:1" d="M 792.952,240.074 794.175,252.306 z" id="boundary" inkscape:connector-curvature="0" />
	<path style="fill:none;stroke:red;stroke-width:1px;stroke-linecap:butt;stroke-linejoin:miter;stroke-opacity:1" d="M 800.291,263.314 794.175,252.306 z" id="boundary" inkscape:connector-curvature="0" />
	<path style="fill:none;stroke:red;stroke-width:1px;stroke-linecap:butt;stroke-linejoin:miter;stroke-opacity:1" d="M 803.961,275.546 806.407,287.778 z" id="boundary" inkscape:connector-curvature="0" />
	<path style="fill:none;stroke:red;stroke-width:1px;stroke-linecap:butt;stroke-linejoin:miter;stroke-opacity:1" d="M 803.961,275.546 800.291,263.314 z" id="boundary" inkscape:connector-curvature="0" />
	<path style="fill:none;stroke:red;stroke-width:1px;stroke-linecap:butt;stroke-linejoin:miter;stroke-opacity:1" d="M 810.076,300.01 806.407,287.778 z" id="boundary" inkscape:connector-curvature="0" />
	<path style="fill:none;stroke:red;stroke-width:1px;stroke-linecap:butt;stroke-linejoin:miter;stroke-opacity:1" d="M 806.407,708.552 794.175,708.552 z" id="boundary" inkscape:connector-curvature="0" />
	<path style="fill:none;stroke:red;stroke-width:1px;stroke-linecap:butt;stroke-linejoin:miter;stroke-opacity:1" d="M 812.523,312.242 810.076,300.01 z" id="boundary" inkscape:connector-curvature="0" />
	<path style="fill:none;stroke:red;stroke-width:1px;stroke-linecap:butt;stroke-linejoin:miter;stroke-opacity:1" d="M 816.192,324.473 812.523,312.242 z" id="boundary" inkscape:connector-curvature="0" />
	<path style="fill:none;stroke:red;stroke-width:1px;stroke-linecap:butt;stroke-linejoin:miter;stroke-opacity:1" d="M 812.523,610.698 824.755,615.591 z" id="boundary" inkscape:connector-curvature="0" />
	<path style="fill:none;stroke:red;stroke-width:1px;stroke-linecap:butt;stroke-linejoin:miter;stroke-opacity:1" d="M 816.192,324.473 818.639,336.705 z" id="boundary" inkscape:connector-curvature="0" />
	<path style="fill:none;stroke:red;stroke-width:1px;stroke-linecap:butt;stroke-linejoin:miter;stroke-opacity:1" d="M 818.639,336.705 818.639,348.937 z" id="boundary" inkscape:connector-curvature="0" />
	<path style="fill:none;stroke:red;stroke-width:1px;stroke-linecap:butt;stroke-linejoin:miter;stroke-opacity:1" d="M 818.639,348.937 824.755,359.946 z" id="boundary" inkscape:connector-curvature="0" />
	<path style="fill:none;stroke:red;stroke-width:1px;stroke-linecap:butt;stroke-linejoin:miter;stroke-opacity:1" d="M 824.755,359.946 824.755,372.178 z" id="boundary" inkscape:connector-curvature="0" />
	<path style="fill:none;stroke:red;stroke-width:1px;stroke-linecap:butt;stroke-linejoin:miter;stroke-opacity:1" d="M 824.755,372.178 824.755,384.409 z" id="boundary" inkscape:connector-curvature="0" />
	<path style="fill:none;stroke:red;stroke-width:1px;stroke-linecap:butt;stroke-linejoin:miter;stroke-opacity:1" d="M 824.755,384.409 824.755,396.641 z" id="boundary" inkscape:connector-curvature="0" />
	<path style="fill:none;stroke:red;stroke-width:1px;stroke-linecap:butt;stroke-linejoin:miter;stroke-opacity:1" d="M 830.871,407.65 824.755,396.641 z" id="boundary" inkscape:connector-curvature="0" />
	<path style="fill:none;stroke:red;stroke-width:1px;stroke-linecap:butt;stroke-linejoin:miter;stroke-opacity:1" d="M 824.755,531.191 824.755,543.423 z" id="boundary" inkscape:connector-curvature="0" />
	<path style="fill:none;stroke:red;stroke-width:1px;stroke-linecap:butt;stroke-linejoin:miter;stroke-opacity:1" d="M 824.755,531.191 830.871,517.736 z" id="boundary" inkscape:connector-curvature="0" />
	<path style="fill:none;stroke:red;stroke-width:1px;stroke-linecap:butt;stroke-linejoin:miter;stroke-opacity:1" d="M 824.755,555.655 824.755,543.423 z" id="boundary" inkscape:connector-curvature="0" />
	<path style="fill:none;stroke:red;stroke-width:1px;stroke-linecap:butt;stroke-linejoin:miter;stroke-opacity:1" d="M 824.755,555.655 824.755,567.887 z" id="boundary" inkscape:connector-curvature="0" />
	<path style="fill:none;stroke:red;stroke-width:1px;stroke-linecap:butt;stroke-linejoin:miter;stroke-opacity:1" d="M 824.755,567.887 818.639,580.118 z" id="boundary" inkscape:connector-curvature="0" />
	<path style="fill:none;stroke:red;stroke-width:1px;stroke-linecap:butt;stroke-linejoin:miter;stroke-opacity:1" d="M 818.639,580.118 818.639,592.35 z" id="boundary" inkscape:connector-curvature="0" />
	<path style="fill:none;stroke:red;stroke-width:1px;stroke-linecap:butt;stroke-linejoin:miter;stroke-opacity:1" d="M 818.639,592.35 812.523,610.698 z" id="boundary" inkscape:connector-curvature="0" />
	<path style="fill:none;stroke:red;stroke-width:1px;stroke-linecap:butt;stroke-linejoin:miter;stroke-opacity:1" d="M 830.871,419.882 830.871,432.113 z" id="boundary" inkscape:connector-curvature="0" />
	<path style="fill:none;stroke:red;stroke-width:1px;stroke-linecap:butt;stroke-linejoin:miter;stroke-opacity:1" d="M 830.871,419.882 830.871,407.65 z" id="boundary" inkscape:connector-curvature="0" />
	<path style="fill:none;stroke:red;stroke-width:1px;stroke-linecap:butt;stroke-linejoin:miter;stroke-opacity:1" d="M 830.871,444.345 830.871,456.577 z" id="boundary" inkscape:connector-curvature="0" />
	<path style="fill:none;stroke:red;stroke-width:1px;stroke-linecap:butt;stroke-linejoin:miter;stroke-opacity:1" d="M 830.871,444.345 830.871,432.113 z" id="boundary" inkscape:connector-curvature="0" />
	<path style="fill:none;stroke:red;stroke-width:1px;stroke-linecap:butt;stroke-linejoin:miter;stroke-opacity:1" d="M 830.871,456.577 830.871,468.809 z" id="boundary" inkscape:connector-curvature="0" />
	<path style="fill:none;stroke:red;stroke-width:1px;stroke-linecap:butt;stroke-linejoin:miter;stroke-opacity:1" d="M 830.871,481.041 830.871,493.273 z" id="boundary" inkscape:connector-curvature="0" />
	<path style="fill:none;stroke:red;stroke-width:1px;stroke-linecap:butt;stroke-linejoin:miter;stroke-opacity:1" d="M 830.871,468.809 830.871,481.041 z" id="boundary" inkscape:connector-curvature="0" />
	<path style="fill:none;stroke:red;stroke-width:1px;stroke-linecap:butt;stroke-linejoin:miter;stroke-opacity:1" d="M 830.871,493.273 830.871,505.504 z" id="boundary" inkscape:connector-curvature="0" />
	<path style="fill:none;stroke:red;stroke-width:1px;stroke-linecap:butt;stroke-linejoin:miter;stroke-opacity:1" d="M 830.871,505.504 830.871,517.736 z" id="boundary" inkscape:connector-curvature="0" />
	<path style="fill:none;stroke:red;stroke-width:1px;stroke-linecap:butt;stroke-linejoin:miter;stroke-opacity:1" d="M 818.639,708.552 806.407,708.552 z" id="boundary" inkscape:connector-curvature="0" />
	<path style="fill:none;stroke:red;stroke-width:1px;stroke-linecap:butt;stroke-linejoin:miter;stroke-opacity:1" d="M 836.986,615.591 824.755,615.591 z" id="boundary" inkscape:connector-curvature="0" />
	<path style="fill:none;stroke:red;stroke-width:1px;stroke-linecap:butt;stroke-linejoin:miter;stroke-opacity:1" d="M 836.986,615.591 849.218,615.591 z" id="boundary" inkscape:connector-curvature="0" />
	<path style="fill:none;stroke:red;stroke-width:1px;stroke-linecap:butt;stroke-linejoin:miter;stroke-opacity:1" d="M 849.218,615.591 861.45,615.591 z" id="boundary" inkscape:connector-curvature="0" />
	<path style="fill:none;stroke:red;stroke-width:1px;stroke-linecap:butt;stroke-linejoin:miter;stroke-opacity:1" d="M 818.639,708.552 830.871,708.552 z" id="boundary" inkscape:connector-curvature="0" />
	<path style="fill:none;stroke:red;stroke-width:1px;stroke-linecap:butt;stroke-linejoin:miter;stroke-opacity:1" d="M 843.102,708.552 830.871,708.552 z" id="boundary" inkscape:connector-curvature="0" />
	<path style="fill:none;stroke:red;stroke-width:1px;stroke-linecap:butt;stroke-linejoin:miter;stroke-opacity:1" d="M 867.566,710.999 855.334,708.552 z" id="boundary" inkscape:connector-curvature="0" />
	<path style="fill:none;stroke:red;stroke-width:1px;stroke-linecap:butt;stroke-linejoin:miter;stroke-opacity:1" d="M 855.334,708.552 843.102,708.552 z" id="boundary" inkscape:connector-curvature="0" />
	<path style="fill:none;stroke:red;stroke-width:1px;stroke-linecap:butt;stroke-linejoin:miter;stroke-opacity:1" d="M 873.682,615.591 885.914,619.26 z" id="boundary" inkscape:connector-curvature="0" />
	<path style="fill:none;stroke:red;stroke-width:1px;stroke-linecap:butt;stroke-linejoin:miter;stroke-opacity:1" d="M 861.45,615.591 873.682,615.591 z" id="boundary" inkscape:connector-curvature="0" />
	<path style="fill:none;stroke:red;stroke-width:1px;stroke-linecap:butt;stroke-linejoin:miter;stroke-opacity:1" d="M 909.154,630.269 896.922,625.376 z" id="boundary" inkscape:connector-curvature="0" />
	<path style="fill:none;stroke:red;stroke-width:1px;stroke-linecap:butt;stroke-linejoin:miter;stroke-opacity:1" d="M 896.922,625.376 885.914,619.26 z" id="boundary" inkscape:connector-curvature="0" />
	<path style="fill:none;stroke:red;stroke-width:1px;stroke-linecap:butt;stroke-linejoin:miter;stroke-opacity:1" d="M 940.957,649.84 928.725,646.17 z" id="boundary" inkscape:connector-curvature="0" />
	<path style="fill:none;stroke:red;stroke-width:1px;stroke-linecap:butt;stroke-linejoin:miter;stroke-opacity:1" d="M 928.725,646.17 920.163,636.385 z" id="boundary" inkscape:connector-curvature="0" />
	<path style="fill:none;stroke:red;stroke-width:1px;stroke-linecap:butt;stroke-linejoin:miter;stroke-opacity:1" d="M 940.957,649.84 949.519,659.625 z" id="boundary" inkscape:connector-curvature="0" />
	<path style="fill:none;stroke:red;stroke-width:1px;stroke-linecap:butt;stroke-linejoin:miter;stroke-opacity:1" d="M 909.154,630.269 920.163,636.385 z" id="boundary" inkscape:connector-curvature="0" />
	<path style="fill:none;stroke:red;stroke-width:1px;stroke-linecap:butt;stroke-linejoin:miter;stroke-opacity:1" d="M 878.575,717.115 867.566,710.999 z" id="boundary" inkscape:connector-curvature="0" />
	<path style="fill:none;stroke:red;stroke-width:1px;stroke-linecap:butt;stroke-linejoin:miter;stroke-opacity:1" d="M 949.519,659.625 959.305,668.187 z" id="boundary" inkscape:connector-curvature="0" />
	<path style="fill:none;stroke:red;stroke-width:1px;stroke-linecap:butt;stroke-linejoin:miter;stroke-opacity:1" d="M 967.867,677.973 959.305,668.187 z" id="boundary" inkscape:connector-curvature="0" />
	<path style="fill:none;stroke:red;stroke-width:1px;stroke-linecap:butt;stroke-linejoin:miter;stroke-opacity:1" d="M 977.652,686.535 967.867,677.973 z" id="boundary" inkscape:connector-curvature="0" />
	<path style="fill:none;stroke:red;stroke-width:1px;stroke-linecap:butt;stroke-linejoin:miter;stroke-opacity:1" d="M 977.652,686.535 981.322,699.99 z" id="boundary" inkscape:connector-curvature="0" />
	<path style="fill:none;stroke:red;stroke-width:1px;stroke-linecap:butt;stroke-linejoin:miter;stroke-opacity:1" d="M 981.322,699.99 969.09,706.106 z" id="boundary" inkscape:connector-curvature="0" />
	<path style="fill:none;stroke:red;stroke-width:1px;stroke-linecap:butt;stroke-linejoin:miter;stroke-opacity:1" d="M 969.09,706.106 956.858,712.222 z" id="boundary" inkscape:connector-curvature="0" />
	<path style="fill:none;stroke:red;stroke-width:1px;stroke-linecap:butt;stroke-linejoin:miter;stroke-opacity:1" d="M 631.492,910.377 629.046,898.145 z" id="boundary" inkscape:connector-curvature="0" />
	<path style="fill:none;stroke:red;stroke-width:1px;stroke-linecap:butt;stroke-linejoin:miter;stroke-opacity:1" d="M 629.046,898.145 640.054,892.03 z" id="boundary" inkscape:connector-curvature="0" />
	<path style="fill:none;stroke:red;stroke-width:1px;stroke-linecap:butt;stroke-linejoin:miter;stroke-opacity:1" d="M 640.054,892.03 652.286,892.03 z" id="boundary" inkscape:connector-curvature="0" />
	<path style="fill:none;stroke:red;stroke-width:1px;stroke-linecap:butt;stroke-linejoin:miter;stroke-opacity:1" d="M 663.295,885.914 652.286,892.03 z" id="boundary" inkscape:connector-curvature="0" />
	<path style="fill:none;stroke:red;stroke-width:1px;stroke-linecap:butt;stroke-linejoin:miter;stroke-opacity:1" d="M 652.286,925.055 643.724,915.27 z" id="boundary" inkscape:connector-curvature="0" />
	<path style="fill:none;stroke:red;stroke-width:1px;stroke-linecap:butt;stroke-linejoin:miter;stroke-opacity:1" d="M 643.724,915.27 631.492,910.377 z" id="boundary" inkscape:connector-curvature="0" />
	<path style="fill:none;stroke:red;stroke-width:1px;stroke-linecap:butt;stroke-linejoin:miter;stroke-opacity:1" d="M 476.148,922.609 488.38,925.055 z" id="boundary" inkscape:connector-curvature="0" />
	<path style="fill:none;stroke:red;stroke-width:1px;stroke-linecap:butt;stroke-linejoin:miter;stroke-opacity:1" d="M 488.38,925.055 500.612,928.725 z" id="boundary" inkscape:connector-curvature="0" />
	<path style="fill:none;stroke:red;stroke-width:1px;stroke-linecap:butt;stroke-linejoin:miter;stroke-opacity:1" d="M 511.62,934.841 500.612,928.725 z" id="boundary" inkscape:connector-curvature="0" />
	<path style="fill:none;stroke:red;stroke-width:1px;stroke-linecap:butt;stroke-linejoin:miter;stroke-opacity:1" d="M 511.62,934.841 522.629,940.957 z" id="boundary" inkscape:connector-curvature="0" />
	<path style="fill:none;stroke:red;stroke-width:1px;stroke-linecap:butt;stroke-linejoin:miter;stroke-opacity:1" d="M 476.148,922.609 463.916,922.609 z" id="boundary" inkscape:connector-curvature="0" />
	<path style="fill:none;stroke:red;stroke-width:1px;stroke-linecap:butt;stroke-linejoin:miter;stroke-opacity:1" d="M 675.527,885.914 663.295,885.914 z" id="boundary" inkscape:connector-curvature="0" />
	<path style="fill:none;stroke:red;stroke-width:1px;stroke-linecap:butt;stroke-linejoin:miter;stroke-opacity:1" d="M 750.141,817.416 739.132,811.3 z" id="boundary" inkscape:connector-curvature="0" />
	<path style="fill:none;stroke:red;stroke-width:1px;stroke-linecap:butt;stroke-linejoin:miter;stroke-opacity:1" d="M 745.248,800.291 756.256,806.407 z" id="boundary" inkscape:connector-curvature="0" />
	<path style="fill:none;stroke:red;stroke-width:1px;stroke-linecap:butt;stroke-linejoin:miter;stroke-opacity:1" d="M 756.256,806.407 750.141,817.416 z" id="boundary" inkscape:connector-curvature="0" />
	<path style="fill:none;stroke:red;stroke-width:1px;stroke-linecap:butt;stroke-linejoin:miter;stroke-opacity:1" d="M 675.527,885.914 687.758,885.914 z" id="boundary" inkscape:connector-curvature="0" />
	<path style="fill:none;stroke:red;stroke-width:1px;stroke-linecap:butt;stroke-linejoin:miter;stroke-opacity:1" d="M 698.767,892.03 687.758,885.914 z" id="boundary" inkscape:connector-curvature="0" />
	<path style="fill:none;stroke:red;stroke-width:1px;stroke-linecap:butt;stroke-linejoin:miter;stroke-opacity:1" d="M 698.767,892.03 704.883,903.038 z" id="boundary" inkscape:connector-curvature="0" />
	<path style="fill:none;stroke:red;stroke-width:1px;stroke-linecap:butt;stroke-linejoin:miter;stroke-opacity:1" d="M 704.883,903.038 713.445,912.824 z" id="boundary" inkscape:connector-curvature="0" />
	<path style="fill:none;stroke:red;stroke-width:1px;stroke-linecap:butt;stroke-linejoin:miter;stroke-opacity:1" d="M 755.033,926.279 745.248,934.841 z" id="boundary" inkscape:connector-curvature="0" />
	<path style="fill:none;stroke:red;stroke-width:1px;stroke-linecap:butt;stroke-linejoin:miter;stroke-opacity:1" d="M 659.625,934.841 652.286,925.055 z" id="boundary" inkscape:connector-curvature="0" />
	<path style="fill:none;stroke:red;stroke-width:1px;stroke-linecap:butt;stroke-linejoin:miter;stroke-opacity:1" d="M 719.561,923.832 713.445,912.824 z" id="boundary" inkscape:connector-curvature="0" />
	<path style="fill:none;stroke:red;stroke-width:1px;stroke-linecap:butt;stroke-linejoin:miter;stroke-opacity:1" d="M 522.629,940.957 534.861,940.957 z" id="boundary" inkscape:connector-curvature="0" />
	<path style="fill:none;stroke:red;stroke-width:1px;stroke-linecap:butt;stroke-linejoin:miter;stroke-opacity:1" d="M 534.861,940.957 543.423,950.742 z" id="boundary" inkscape:connector-curvature="0" />
	<path style="fill:none;stroke:red;stroke-width:1px;stroke-linecap:butt;stroke-linejoin:miter;stroke-opacity:1" d="M 543.423,950.742 555.655,955.635 z" id="boundary" inkscape:connector-curvature="0" />
	<path style="fill:none;stroke:red;stroke-width:1px;stroke-linecap:butt;stroke-linejoin:miter;stroke-opacity:1" d="M 555.655,955.635 560.547,967.867 z" id="boundary" inkscape:connector-curvature="0" />
	<path style="fill:none;stroke:red;stroke-width:1px;stroke-linecap:butt;stroke-linejoin:miter;stroke-opacity:1" d="M 570.333,976.429 560.547,967.867 z" id="boundary" inkscape:connector-curvature="0" />
	<path style="fill:none;stroke:red;stroke-width:1px;stroke-linecap:butt;stroke-linejoin:miter;stroke-opacity:1" d="M 578.895,986.215 586.234,996 z" id="boundary" inkscape:connector-curvature="0" />
	<path style="fill:none;stroke:red;stroke-width:1px;stroke-linecap:butt;stroke-linejoin:miter;stroke-opacity:1" d="M 578.895,986.215 570.333,976.429 z" id="boundary" inkscape:connector-curvature="0" />
	<path style="fill:none;stroke:red;stroke-width:1px;stroke-linecap:butt;stroke-linejoin:miter;stroke-opacity:1" d="M 598.466,996 586.234,996 z" id="boundary" inkscape:connector-curvature="0" />
	<path style="fill:none;stroke:red;stroke-width:1px;stroke-linecap:butt;stroke-linejoin:miter;stroke-opacity:1" d="M 610.698,996 598.466,996 z" id="boundary" inkscape:connector-curvature="0" />
	<path style="fill:none;stroke:red;stroke-width:1px;stroke-linecap:butt;stroke-linejoin:miter;stroke-opacity:1" d="M 622.93,996 610.698,996 z" id="boundary" inkscape:connector-curvature="0" />
	<path style="fill:none;stroke:red;stroke-width:1px;stroke-linecap:butt;stroke-linejoin:miter;stroke-opacity:1" d="M 665.741,945.85 659.625,934.841 z" id="boundary" inkscape:connector-curvature="0" />
	<path style="fill:none;stroke:red;stroke-width:1px;stroke-linecap:butt;stroke-linejoin:miter;stroke-opacity:1" d="M 719.561,923.832 725.677,934.841 z" id="boundary" inkscape:connector-curvature="0" />
	<path style="fill:none;stroke:red;stroke-width:1px;stroke-linecap:butt;stroke-linejoin:miter;stroke-opacity:1" d="M 725.677,934.841 725.677,947.073 z" id="boundary" inkscape:connector-curvature="0" />
	<path style="fill:none;stroke:red;stroke-width:1px;stroke-linecap:butt;stroke-linejoin:miter;stroke-opacity:1" d="M 665.741,945.85 665.741,958.081 z" id="boundary" inkscape:connector-curvature="0" />
	<path style="fill:none;stroke:red;stroke-width:1px;stroke-linecap:butt;stroke-linejoin:miter;stroke-opacity:1" d="M 737.909,949.519 725.677,947.073 z" id="boundary" inkscape:connector-curvature="0" />
	<path style="fill:none;stroke:red;stroke-width:1px;stroke-linecap:butt;stroke-linejoin:miter;stroke-opacity:1" d="M 745.248,934.841 737.909,949.519 z" id="boundary" inkscape:connector-curvature="0" />
	<path style="fill:none;stroke:red;stroke-width:1px;stroke-linecap:butt;stroke-linejoin:miter;stroke-opacity:1" d="M 659.625,989.884 647.393,996 z" id="boundary" inkscape:connector-curvature="0" />
	<path style="fill:none;stroke:red;stroke-width:1px;stroke-linecap:butt;stroke-linejoin:miter;stroke-opacity:1" d="M 647.393,996 635.162,996 z" id="boundary" inkscape:connector-curvature="0" />
	<path style="fill:none;stroke:red;stroke-width:1px;stroke-linecap:butt;stroke-linejoin:miter;stroke-opacity:1" d="M 659.625,989.884 671.857,989.884 z" id="boundary" inkscape:connector-curvature="0" />
	<path style="fill:none;stroke:red;stroke-width:1px;stroke-linecap:butt;stroke-linejoin:miter;stroke-opacity:1" d="M 671.857,969.09 665.741,958.081 z" id="boundary" inkscape:connector-curvature="0" />
	<path style="fill:none;stroke:red;stroke-width:1px;stroke-linecap:butt;stroke-linejoin:miter;stroke-opacity:1" d="M 635.162,996 622.93,996 z" id="boundary" inkscape:connector-curvature="0" />
	<path style="fill:none;stroke:red;stroke-width:1px;stroke-linecap:butt;stroke-linejoin:miter;stroke-opacity:1" d="M 750.141,817.416 759.926,824.755 z" id="boundary" inkscape:connector-curvature="0" />
	<path style="fill:none;stroke:red;stroke-width:1px;stroke-linecap:butt;stroke-linejoin:miter;stroke-opacity:1" d="M 768.488,806.407 756.256,806.407 z" id="boundary" inkscape:connector-curvature="0" />
	<path style="fill:none;stroke:red;stroke-width:1px;stroke-linecap:butt;stroke-linejoin:miter;stroke-opacity:1" d="M 812.523,725.677 800.291,723.231 z" id="boundary" inkscape:connector-curvature="0" />
	<path style="fill:none;stroke:red;stroke-width:1px;stroke-linecap:butt;stroke-linejoin:miter;stroke-opacity:1" d="M 788.059,719.561 800.291,723.231 z" id="boundary" inkscape:connector-curvature="0" />
	<path style="fill:none;stroke:red;stroke-width:1px;stroke-linecap:butt;stroke-linejoin:miter;stroke-opacity:1" d="M 823.531,731.793 812.523,725.677 z" id="boundary" inkscape:connector-curvature="0" />
	<path style="fill:none;stroke:red;stroke-width:1px;stroke-linecap:butt;stroke-linejoin:miter;stroke-opacity:1" d="M 833.317,739.132 823.531,731.793 z" id="boundary" inkscape:connector-curvature="0" />
	<path style="fill:none;stroke:red;stroke-width:1px;stroke-linecap:butt;stroke-linejoin:miter;stroke-opacity:1" d="M 833.317,739.132 843.102,747.694 z" id="boundary" inkscape:connector-curvature="0" />
	<path style="fill:none;stroke:red;stroke-width:1px;stroke-linecap:butt;stroke-linejoin:miter;stroke-opacity:1" d="M 861.45,766.042 851.665,757.48 z" id="boundary" inkscape:connector-curvature="0" />
	<path style="fill:none;stroke:red;stroke-width:1px;stroke-linecap:butt;stroke-linejoin:miter;stroke-opacity:1" d="M 843.102,747.694 851.665,757.48 z" id="boundary" inkscape:connector-curvature="0" />
	<path style="fill:none;stroke:red;stroke-width:1px;stroke-linecap:butt;stroke-linejoin:miter;stroke-opacity:1" d="M 873.682,788.059 866.343,778.274 z" id="boundary" inkscape:connector-curvature="0" />
	<path style="fill:none;stroke:red;stroke-width:1px;stroke-linecap:butt;stroke-linejoin:miter;stroke-opacity:1" d="M 866.343,778.274 861.45,766.042 z" id="boundary" inkscape:connector-curvature="0" />
	<path style="fill:none;stroke:red;stroke-width:1px;stroke-linecap:butt;stroke-linejoin:miter;stroke-opacity:1" d="M 888.36,725.677 896.922,735.462 z" id="boundary" inkscape:connector-curvature="0" />
	<path style="fill:none;stroke:red;stroke-width:1px;stroke-linecap:butt;stroke-linejoin:miter;stroke-opacity:1" d="M 888.36,725.677 878.575,717.115 z" id="boundary" inkscape:connector-curvature="0" />
	<path style="fill:none;stroke:red;stroke-width:1px;stroke-linecap:butt;stroke-linejoin:miter;stroke-opacity:1" d="M 942.18,733.016 947.073,720.784 z" id="boundary" inkscape:connector-curvature="0" />
	<path style="fill:none;stroke:red;stroke-width:1px;stroke-linecap:butt;stroke-linejoin:miter;stroke-opacity:1" d="M 947.073,720.784 956.858,712.222 z" id="boundary" inkscape:connector-curvature="0" />
	<path style="fill:none;stroke:red;stroke-width:1px;stroke-linecap:butt;stroke-linejoin:miter;stroke-opacity:1" d="M 942.18,733.016 931.171,739.132 z" id="boundary" inkscape:connector-curvature="0" />
	<path style="fill:none;stroke:red;stroke-width:1px;stroke-linecap:butt;stroke-linejoin:miter;stroke-opacity:1" d="M 877.351,803.961 873.682,788.059 z" id="boundary" inkscape:connector-curvature="0" />
	<path style="fill:none;stroke:red;stroke-width:1px;stroke-linecap:butt;stroke-linejoin:miter;stroke-opacity:1" d="M 896.922,735.462 906.708,744.025 z" id="boundary" inkscape:connector-curvature="0" />
	<path style="fill:none;stroke:red;stroke-width:1px;stroke-linecap:butt;stroke-linejoin:miter;stroke-opacity:1" d="M 906.708,744.025 911.6,756.256 z" id="boundary" inkscape:connector-curvature="0" />
	<path style="fill:none;stroke:red;stroke-width:1px;stroke-linecap:butt;stroke-linejoin:miter;stroke-opacity:1" d="M 911.6,756.256 921.386,747.694 z" id="boundary" inkscape:connector-curvature="0" />
	<path style="fill:none;stroke:red;stroke-width:1px;stroke-linecap:butt;stroke-linejoin:miter;stroke-opacity:1" d="M 931.171,739.132 921.386,747.694 z" id="boundary" inkscape:connector-curvature="0" />
	<path style="fill:none;stroke:red;stroke-width:1px;stroke-linecap:butt;stroke-linejoin:miter;stroke-opacity:1" d="M 877.351,803.961 865.12,810.076 z" id="boundary" inkscape:connector-curvature="0" />
	<path style="fill:none;stroke:red;stroke-width:1px;stroke-linecap:butt;stroke-linejoin:miter;stroke-opacity:1" d="M 768.488,806.407 779.497,812.523 z" id="boundary" inkscape:connector-curvature="0" />
	<path style="fill:none;stroke:red;stroke-width:1px;stroke-linecap:butt;stroke-linejoin:miter;stroke-opacity:1" d="M 779.497,812.523 788.059,822.308 z" id="boundary" inkscape:connector-curvature="0" />
	<path style="fill:none;stroke:red;stroke-width:1px;stroke-linecap:butt;stroke-linejoin:miter;stroke-opacity:1" d="M 769.711,833.317 759.926,824.755 z" id="boundary" inkscape:connector-curvature="0" />
	<path style="fill:none;stroke:red;stroke-width:1px;stroke-linecap:butt;stroke-linejoin:miter;stroke-opacity:1" d="M 774.604,845.549 769.711,833.317 z" id="boundary" inkscape:connector-curvature="0" />
	<path style="fill:none;stroke:red;stroke-width:1px;stroke-linecap:butt;stroke-linejoin:miter;stroke-opacity:1" d="M 767.265,920.163 755.033,926.279 z" id="boundary" inkscape:connector-curvature="0" />
	<path style="fill:none;stroke:red;stroke-width:1px;stroke-linecap:butt;stroke-linejoin:miter;stroke-opacity:1" d="M 775.827,910.377 767.265,920.163 z" id="boundary" inkscape:connector-curvature="0" />
	<path style="fill:none;stroke:red;stroke-width:1px;stroke-linecap:butt;stroke-linejoin:miter;stroke-opacity:1" d="M 774.604,845.549 781.943,855.334 z" id="boundary" inkscape:connector-curvature="0" />
	<path style="fill:none;stroke:red;stroke-width:1px;stroke-linecap:butt;stroke-linejoin:miter;stroke-opacity:1" d="M 785.613,901.815 775.827,910.377 z" id="boundary" inkscape:connector-curvature="0" />
	<path style="fill:none;stroke:red;stroke-width:1px;stroke-linecap:butt;stroke-linejoin:miter;stroke-opacity:1" d="M 781.943,855.334 788.059,866.343 z" id="boundary" inkscape:connector-curvature="0" />
	<path style="fill:none;stroke:red;stroke-width:1px;stroke-linecap:butt;stroke-linejoin:miter;stroke-opacity:1" d="M 788.059,822.308 794.175,833.317 z" id="boundary" inkscape:connector-curvature="0" />
	<path style="fill:none;stroke:red;stroke-width:1px;stroke-linecap:butt;stroke-linejoin:miter;stroke-opacity:1" d="M 802.737,843.102 794.175,833.317 z" id="boundary" inkscape:connector-curvature="0" />
	<path style="fill:none;stroke:red;stroke-width:1px;stroke-linecap:butt;stroke-linejoin:miter;stroke-opacity:1" d="M 846.772,834.54 836.986,843.102 z" id="boundary" inkscape:connector-curvature="0" />
	<path style="fill:none;stroke:red;stroke-width:1px;stroke-linecap:butt;stroke-linejoin:miter;stroke-opacity:1" d="M 836.986,843.102 828.424,852.888 z" id="boundary" inkscape:connector-curvature="0" />
	<path style="fill:none;stroke:red;stroke-width:1px;stroke-linecap:butt;stroke-linejoin:miter;stroke-opacity:1" d="M 802.737,843.102 808.853,854.111 z" id="boundary" inkscape:connector-curvature="0" />
	<path style="fill:none;stroke:red;stroke-width:1px;stroke-linecap:butt;stroke-linejoin:miter;stroke-opacity:1" d="M 846.772,834.54 855.334,818.639 z" id="boundary" inkscape:connector-curvature="0" />
	<path style="fill:none;stroke:red;stroke-width:1px;stroke-linecap:butt;stroke-linejoin:miter;stroke-opacity:1" d="M 855.334,818.639 865.12,810.076 z" id="boundary" inkscape:connector-curvature="0" />
	<path style="fill:none;stroke:red;stroke-width:1px;stroke-linecap:butt;stroke-linejoin:miter;stroke-opacity:1" d="M 794.175,877.351 794.175,889.583 z" id="boundary" inkscape:connector-curvature="0" />
	<path style="fill:none;stroke:red;stroke-width:1px;stroke-linecap:butt;stroke-linejoin:miter;stroke-opacity:1" d="M 794.175,889.583 785.613,901.815 z" id="boundary" inkscape:connector-curvature="0" />
	<path style="fill:none;stroke:red;stroke-width:1px;stroke-linecap:butt;stroke-linejoin:miter;stroke-opacity:1" d="M 794.175,877.351 788.059,866.343 z" id="boundary" inkscape:connector-curvature="0" />
	<path style="fill:none;stroke:red;stroke-width:1px;stroke-linecap:butt;stroke-linejoin:miter;stroke-opacity:1" d="M 828.424,852.888 818.639,861.45 z" id="boundary" inkscape:connector-curvature="0" />
	<path style="fill:none;stroke:red;stroke-width:1px;stroke-linecap:butt;stroke-linejoin:miter;stroke-opacity:1" d="M 818.639,861.45 808.853,854.111 z" id="boundary" inkscape:connector-curvature="0" />
	<circle cx="4" cy="698.767" r="4" fill="#0" id="circle0"/>
	<circle cx="10.1159" cy="686.535" r="4" fill="#0" id="circle1"/>
	<circle cx="10.1159" cy="709.776" r="4" fill="#0" id="circle2"/>
	<circle cx="16.2318" cy="720.784" r="4" fill="#0" id="circle3"/>
	<circle cx="19.9014" cy="676.75" r="4" fill="#0" id="circle4"/>
	<circle cx="22.3477" cy="731.793" r="4" fill="#0" id="circle5"/>
	<circle cx="24.7941" cy="744.025" r="4" fill="#0" id="circle6"/>
	<circle cx="26.0173" cy="664.518" r="4" fill="#0" id="circle7"/>
	<circle cx="34.5795" cy="649.84" r="4" fill="#0" id="circle8"/>
	<circle cx="34.5795" cy="751.364" r="4" fill="#0" id="circle9"/>
	<circle cx="41.9186" cy="761.149" r="4" fill="#0" id="circle10"/>
	<circle cx="44.365" cy="640.054" r="4" fill="#0" id="circle11"/>
	<circle cx="51.7041" cy="769.711" r="4" fill="#0" id="circle12"/>
	<circle cx="54.1504" cy="630.269" r="4" fill="#0" id="circle13"/>
	<circle cx="56.5968" cy="781.943" r="4" fill="#0" id="circle14"/>
	<circle cx="63.9359" cy="621.707" r="4" fill="#0" id="circle15"/>
	<circle cx="67.6054" cy="788.059" r="4" fill="#0" id="circle16"/>
	<circle cx="74.9445" cy="615.591" r="4" fill="#0" id="circle17"/>
	<circle cx="77.3909" cy="778.274" r="4" fill="#0" id="circle18"/>
	<circle cx="83.5068" cy="766.042" r="4" fill="#0" id="circle19"/>
	<circle cx="84.73" cy="605.805" r="4" fill="#0" id="circle20"/>
	<circle cx="84.73" cy="745.248" r="4" fill="#0" id="circle21"/>
	<circle cx="90.8459" cy="726.9" r="4" fill="#0" id="circle22"/>
	<circle cx="95.7386" cy="821.085" r="4" fill="#0" id="circle23"/>
	<circle cx="96.9618" cy="599.689" r="4" fill="#0" id="circle24"/>
	<circle cx="100.631" cy="718.338" r="4" fill="#0" id="circle25"/>
	<circle cx="101.855" cy="808.853" r="4" fill="#0" id="circle26"/>
	<circle cx="105.524" cy="829.647" r="4" fill="#0" id="circle27"/>
	<circle cx="106.747" cy="591.127" r="4" fill="#0" id="circle28"/>
	<circle cx="106.747" cy="706.106" r="4" fill="#0" id="circle29"/>
	<circle cx="107.97" cy="796.621" r="4" fill="#0" id="circle30"/>
	<circle cx="114.086" cy="784.39" r="4" fill="#0" id="circle31"/>
	<circle cx="115.309" cy="696.321" r="4" fill="#0" id="circle32"/>
	<circle cx="115.309" cy="836.986" r="4" fill="#0" id="circle33"/>
	<circle cx="117.756" cy="585.011" r="4" fill="#0" id="circle34"/>
	<circle cx="123.872" cy="774.604" r="4" fill="#0" id="circle35"/>
	<circle cx="125.095" cy="687.758" r="4" fill="#0" id="circle36"/>
	<circle cx="126.318" cy="843.102" r="4" fill="#0" id="circle37"/>
	<circle cx="129.988" cy="585.011" r="4" fill="#0" id="circle38"/>
	<circle cx="129.988" cy="762.372" r="4" fill="#0" id="circle39"/>
	<circle cx="133.657" cy="852.888" r="4" fill="#0" id="circle40"/>
	<circle cx="137.327" cy="681.642" r="4" fill="#0" id="circle41"/>
	<circle cx="139.773" cy="752.587" r="4" fill="#0" id="circle42"/>
	<circle cx="140.996" cy="578.895" r="4" fill="#0" id="circle43"/>
	<circle cx="143.443" cy="861.45" r="4" fill="#0" id="circle44"/>
	<circle cx="145.889" cy="671.857" r="4" fill="#0" id="circle45"/>
	<circle cx="152.005" cy="746.471" r="4" fill="#0" id="circle46"/>
	<circle cx="153.228" cy="578.895" r="4" fill="#0" id="circle47"/>
	<circle cx="154.451" cy="867.566" r="4" fill="#0" id="circle48"/>
	<circle cx="158.121" cy="671.857" r="4" fill="#0" id="circle49"/>
	<circle cx="158.121" cy="734.239" r="4" fill="#0" id="circle50"/>
	<circle cx="165.46" cy="578.895" r="4" fill="#0" id="circle51"/>
	<circle cx="166.683" cy="872.459" r="4" fill="#0" id="circle52"/>
	<circle cx="167.906" cy="725.677" r="4" fill="#0" id="circle53"/>
	<circle cx="170.353" cy="671.857" r="4" fill="#0" id="circle54"/>
	<circle cx="177.692" cy="578.895" r="4" fill="#0" id="circle55"/>
	<circle cx="178.915" cy="719.561" r="4" fill="#0" id="circle56"/>
	<circle cx="178.915" cy="866.343" r="4" fill="#0" id="circle57"/>
	<circle cx="182.584" cy="671.857" r="4" fill="#0" id="circle58"/>
	<circle cx="182.584" cy="849.218" r="4" fill="#0" id="circle59"/>
	<circle cx="188.7" cy="836.986" r="4" fill="#0" id="circle60"/>
	<circle cx="189.924" cy="578.895" r="4" fill="#0" id="circle61"/>
	<circle cx="189.924" cy="713.445" r="4" fill="#0" id="circle62"/>
	<circle cx="194.816" cy="671.857" r="4" fill="#0" id="circle63"/>
	<circle cx="194.816" cy="824.755" r="4" fill="#0" id="circle64"/>
	<circle cx="202.155" cy="578.895" r="4" fill="#0" id="circle65"/>
	<circle cx="202.155" cy="713.445" r="4" fill="#0" id="circle66"/>
	<circle cx="205.825" cy="818.639" r="4" fill="#0" id="circle67"/>
	<circle cx="207.048" cy="674.303" r="4" fill="#0" id="circle68"/>
	<circle cx="211.941" cy="405.203" r="4" fill="#0" id="circle69"/>
	<circle cx="211.941" cy="417.435" r="4" fill="#0" id="circle70"/>
	<circle cx="211.941" cy="429.667" r="4" fill="#0" id="circle71"/>
	<circle cx="211.941" cy="441.899" r="4" fill="#0" id="circle72"/>
	<circle cx="211.941" cy="454.131" r="4" fill="#0" id="circle73"/>
	<circle cx="211.941" cy="466.363" r="4" fill="#0" id="circle74"/>
	<circle cx="211.941" cy="478.594" r="4" fill="#0" id="circle75"/>
	<circle cx="211.941" cy="490.826" r="4" fill="#0" id="circle76"/>
	<circle cx="211.941" cy="503.058" r="4" fill="#0" id="circle77"/>
	<circle cx="211.941" cy="515.29" r="4" fill="#0" id="circle78"/>
	<circle cx="211.941" cy="527.522" r="4" fill="#0" id="circle79"/>
	<circle cx="211.941" cy="704.883" r="4" fill="#0" id="circle80"/>
	<circle cx="213.164" cy="585.011" r="4" fill="#0" id="circle81"/>
	<circle cx="215.61" cy="811.3" r="4" fill="#0" id="circle82"/>
	<circle cx="218.057" cy="356.276" r="4" fill="#0" id="circle83"/>
	<circle cx="218.057" cy="368.508" r="4" fill="#0" id="circle84"/>
	<circle cx="218.057" cy="380.74" r="4" fill="#0" id="circle85"/>
	<circle cx="218.057" cy="392.972" r="4" fill="#0" id="circle86"/>
	<circle cx="218.057" cy="538.53" r="4" fill="#0" id="circle87"/>
	<circle cx="218.057" cy="550.762" r="4" fill="#0" id="circle88"/>
	<circle cx="218.057" cy="562.994" r="4" fill="#0" id="circle89"/>
	<circle cx="218.057" cy="900.592" r="4" fill="#0" id="circle90"/>
	<circle cx="219.28" cy="677.973" r="4" fill="#0" id="circle91"/>
	<circle cx="224.173" cy="325.697" r="4" fill="#0" id="circle92"/>
	<circle cx="224.173" cy="337.928" r="4" fill="#0" id="circle93"/>
	<circle cx="224.173" cy="698.767" r="4" fill="#0" id="circle94"/>
	<circle cx="224.173" cy="876.128" r="4" fill="#0" id="circle95"/>
	<circle cx="224.173" cy="888.36" r="4" fill="#0" id="circle96"/>
	<circle cx="225.396" cy="800.291" r="4" fill="#0" id="circle97"/>
	<circle cx="227.842" cy="909.154" r="4" fill="#0" id="circle98"/>
	<circle cx="230.289" cy="301.233" r="4" fill="#0" id="circle99"/>
	<circle cx="230.289" cy="313.465" r="4" fill="#0" id="circle100"/>
	<circle cx="230.289" cy="863.896" r="4" fill="#0" id="circle101"/>
	<circle cx="231.512" cy="677.973" r="4" fill="#0" id="circle102"/>
	<circle cx="236.404" cy="276.769" r="4" fill="#0" id="circle103"/>
	<circle cx="236.404" cy="289.001" r="4" fill="#0" id="circle104"/>
	<circle cx="236.404" cy="695.097" r="4" fill="#0" id="circle105"/>
	<circle cx="237.628" cy="794.175" r="4" fill="#0" id="circle106"/>
	<circle cx="240.074" cy="854.111" r="4" fill="#0" id="circle107"/>
	<circle cx="240.074" cy="910.377" r="4" fill="#0" id="circle108"/>
	<circle cx="242.52" cy="258.422" r="4" fill="#0" id="circle109"/>
	<circle cx="242.52" cy="684.089" r="4" fill="#0" id="circle110"/>
	<circle cx="246.19" cy="841.879" r="4" fill="#0" id="circle111"/>
	<circle cx="248.636" cy="240.074" r="4" fill="#0" id="circle112"/>
	<circle cx="248.636" cy="695.097" r="4" fill="#0" id="circle113"/>
	<circle cx="249.859" cy="788.059" r="4" fill="#0" id="circle114"/>
	<circle cx="251.083" cy="916.493" r="4" fill="#0" id="circle115"/>
	<circle cx="254.752" cy="227.842" r="4" fill="#0" id="circle116"/>
	<circle cx="255.975" cy="832.094" r="4" fill="#0" id="circle117"/>
	<circle cx="260.868" cy="215.61" r="4" fill="#0" id="circle118"/>
	<circle cx="262.091" cy="788.059" r="4" fill="#0" id="circle119"/>
	<circle cx="262.091" cy="922.609" r="4" fill="#0" id="circle120"/>
	<circle cx="265.761" cy="823.531" r="4" fill="#0" id="circle121"/>
	<circle cx="266.984" cy="197.263" r="4" fill="#0" id="circle122"/>
	<circle cx="273.1" cy="185.031" r="4" fill="#0" id="circle123"/>
	<circle cx="273.1" cy="928.725" r="4" fill="#0" id="circle124"/>
	<circle cx="274.323" cy="788.059" r="4" fill="#0" id="circle125"/>
	<circle cx="274.323" cy="813.746" r="4" fill="#0" id="circle126"/>
	<circle cx="282.885" cy="175.245" r="4" fill="#0" id="circle127"/>
	<circle cx="284.109" cy="805.184" r="4" fill="#0" id="circle128"/>
	<circle cx="284.109" cy="934.841" r="4" fill="#0" id="circle129"/>
	<circle cx="286.555" cy="788.059" r="4" fill="#0" id="circle130"/>
	<circle cx="289.001" cy="163.014" r="4" fill="#0" id="circle131"/>
	<circle cx="295.117" cy="150.782" r="4" fill="#0" id="circle132"/>
	<circle cx="295.117" cy="799.068" r="4" fill="#0" id="circle133"/>
	<circle cx="295.117" cy="940.957" r="4" fill="#0" id="circle134"/>
	<circle cx="303.679" cy="136.104" r="4" fill="#0" id="circle135"/>
	<circle cx="304.903" cy="928.725" r="4" fill="#0" id="circle136"/>
	<circle cx="311.018" cy="904.261" r="4" fill="#0" id="circle137"/>
	<circle cx="311.018" cy="916.493" r="4" fill="#0" id="circle138"/>
	<circle cx="313.465" cy="126.318" r="4" fill="#0" id="circle139"/>
	<circle cx="319.581" cy="114.086" r="4" fill="#0" id="circle140"/>
	<circle cx="320.804" cy="895.699" r="4" fill="#0" id="circle141"/>
	<circle cx="329.366" cy="104.301" r="4" fill="#0" id="circle142"/>
	<circle cx="329.366" cy="885.914" r="4" fill="#0" id="circle143"/>
	<circle cx="339.152" cy="95.7386" r="4" fill="#0" id="circle144"/>
	<circle cx="340.375" cy="879.798" r="4" fill="#0" id="circle145"/>
	<circle cx="347.714" cy="85.9531" r="4" fill="#0" id="circle146"/>
	<circle cx="352.607" cy="876.128" r="4" fill="#0" id="circle147"/>
	<circle cx="352.607" cy="937.287" r="4" fill="#0" id="circle148"/>
	<circle cx="352.607" cy="949.519" r="4" fill="#0" id="circle149"/>
	<circle cx="357.499" cy="77.3909" r="4" fill="#0" id="circle150"/>
	<circle cx="358.723" cy="912.824" r="4" fill="#0" id="circle151"/>
	<circle cx="358.723" cy="925.055" r="4" fill="#0" id="circle152"/>
	<circle cx="358.723" cy="960.528" r="4" fill="#0" id="circle153"/>
	<circle cx="364.838" cy="873.682" r="4" fill="#0" id="circle154"/>
	<circle cx="364.838" cy="900.592" r="4" fill="#0" id="circle155"/>
	<circle cx="366.062" cy="67.6054" r="4" fill="#0" id="circle156"/>
	<circle cx="370.954" cy="965.42" r="4" fill="#0" id="circle157"/>
	<circle cx="374.624" cy="890.806" r="4" fill="#0" id="circle158"/>
	<circle cx="375.847" cy="59.0432" r="4" fill="#0" id="circle159"/>
	<circle cx="377.07" cy="873.682" r="4" fill="#0" id="circle160"/>
	<circle cx="381.963" cy="971.536" r="4" fill="#0" id="circle161"/>
	<circle cx="386.856" cy="52.9273" r="4" fill="#0" id="circle162"/>
	<circle cx="394.195" cy="971.536" r="4" fill="#0" id="circle163"/>
	<circle cx="396.641" cy="43.1418" r="4" fill="#0" id="circle164"/>
	<circle cx="406.427" cy="971.536" r="4" fill="#0" id="circle165"/>
	<circle cx="408.873" cy="37.0259" r="4" fill="#0" id="circle166"/>
	<circle cx="417.435" cy="977.652" r="4" fill="#0" id="circle167"/>
	<circle cx="418.658" cy="28.4636" r="4" fill="#0" id="circle168"/>
	<circle cx="429.667" cy="22.3477" r="4" fill="#0" id="circle169"/>
	<circle cx="429.667" cy="977.652" r="4" fill="#0" id="circle170"/>
	<circle cx="441.899" cy="22.3477" r="4" fill="#0" id="circle171"/>
	<circle cx="441.899" cy="982.545" r="4" fill="#0" id="circle172"/>
	<circle cx="445.568" cy="940.957" r="4" fill="#0" id="circle173"/>
	<circle cx="445.568" cy="953.189" r="4" fill="#0" id="circle174"/>
	<circle cx="445.568" cy="965.42" r="4" fill="#0" id="circle175"/>
	<circle cx="452.908" cy="16.2318" r="4" fill="#0" id="circle176"/>
	<circle cx="455.354" cy="932.395" r="4" fill="#0" id="circle177"/>
	<circle cx="463.916" cy="10.1159" r="4" fill="#0" id="circle178"/>
	<circle cx="463.916" cy="922.609" r="4" fill="#0" id="circle179"/>
	<circle cx="476.148" cy="10.1159" r="4" fill="#0" id="circle180"/>
	<circle cx="476.148" cy="922.609" r="4" fill="#0" id="circle181"/>
	<circle cx="488.38" cy="6.44636" r="4" fill="#0" id="circle182"/>
	<circle cx="488.38" cy="925.055" r="4" fill="#0" id="circle183"/>
	<circle cx="500.612" cy="4" r="4" fill="#0" id="circle184"/>
	<circle cx="500.612" cy="928.725" r="4" fill="#0" id="circle185"/>
	<circle cx="511.62" cy="934.841" r="4" fill="#0" id="circle186"/>
	<circle cx="512.843" cy="4" r="4" fill="#0" id="circle187"/>
	<circle cx="522.629" cy="940.957" r="4" fill="#0" id="circle188"/>
	<circle cx="525.075" cy="4" r="4" fill="#0" id="circle189"/>
	<circle cx="534.861" cy="940.957" r="4" fill="#0" id="circle190"/>
	<circle cx="537.307" cy="4" r="4" fill="#0" id="circle191"/>
	<circle cx="543.423" cy="950.742" r="4" fill="#0" id="circle192"/>
	<circle cx="549.539" cy="4" r="4" fill="#0" id="circle193"/>
	<circle cx="555.655" cy="955.635" r="4" fill="#0" id="circle194"/>
	<circle cx="560.547" cy="10.1159" r="4" fill="#0" id="circle195"/>
	<circle cx="560.547" cy="967.867" r="4" fill="#0" id="circle196"/>
	<circle cx="570.333" cy="976.429" r="4" fill="#0" id="circle197"/>
	<circle cx="572.779" cy="10.1159" r="4" fill="#0" id="circle198"/>
	<circle cx="578.895" cy="986.215" r="4" fill="#0" id="circle199"/>
	<circle cx="585.011" cy="12.5623" r="4" fill="#0" id="circle200"/>
	<circle cx="586.234" cy="996" r="4" fill="#0" id="circle201"/>
	<circle cx="596.02" cy="18.6782" r="4" fill="#0" id="circle202"/>
	<circle cx="598.466" cy="996" r="4" fill="#0" id="circle203"/>
	<circle cx="608.252" cy="22.3477" r="4" fill="#0" id="circle204"/>
	<circle cx="610.698" cy="996" r="4" fill="#0" id="circle205"/>
	<circle cx="619.26" cy="28.4636" r="4" fill="#0" id="circle206"/>
	<circle cx="622.93" cy="996" r="4" fill="#0" id="circle207"/>
	<circle cx="629.046" cy="898.145" r="4" fill="#0" id="circle208"/>
	<circle cx="630.269" cy="34.5795" r="4" fill="#0" id="circle209"/>
	<circle cx="631.492" cy="910.377" r="4" fill="#0" id="circle210"/>
	<circle cx="635.162" cy="996" r="4" fill="#0" id="circle211"/>
	<circle cx="640.054" cy="892.03" r="4" fill="#0" id="circle212"/>
	<circle cx="641.277" cy="40.6954" r="4" fill="#0" id="circle213"/>
	<circle cx="643.724" cy="915.27" r="4" fill="#0" id="circle214"/>
	<circle cx="647.393" cy="996" r="4" fill="#0" id="circle215"/>
	<circle cx="651.063" cy="48.0345" r="4" fill="#0" id="circle216"/>
	<circle cx="652.286" cy="892.03" r="4" fill="#0" id="circle217"/>
	<circle cx="652.286" cy="925.055" r="4" fill="#0" id="circle218"/>
	<circle cx="659.625" cy="934.841" r="4" fill="#0" id="circle219"/>
	<circle cx="659.625" cy="989.884" r="4" fill="#0" id="circle220"/>
	<circle cx="662.072" cy="54.1504" r="4" fill="#0" id="circle221"/>
	<circle cx="663.295" cy="885.914" r="4" fill="#0" id="circle222"/>
	<circle cx="665.741" cy="945.85" r="4" fill="#0" id="circle223"/>
	<circle cx="665.741" cy="958.081" r="4" fill="#0" id="circle224"/>
	<circle cx="671.857" cy="62.7127" r="4" fill="#0" id="circle225"/>
	<circle cx="671.857" cy="969.09" r="4" fill="#0" id="circle226"/>
	<circle cx="671.857" cy="989.884" r="4" fill="#0" id="circle227"/>
	<circle cx="675.527" cy="885.914" r="4" fill="#0" id="circle228"/>
	<circle cx="680.419" cy="72.4982" r="4" fill="#0" id="circle229"/>
	<circle cx="687.758" cy="885.914" r="4" fill="#0" id="circle230"/>
	<circle cx="690.205" cy="81.0604" r="4" fill="#0" id="circle231"/>
	<circle cx="698.767" cy="90.8459" r="4" fill="#0" id="circle232"/>
	<circle cx="698.767" cy="892.03" r="4" fill="#0" id="circle233"/>
	<circle cx="704.883" cy="903.038" r="4" fill="#0" id="circle234"/>
	<circle cx="708.552" cy="99.4081" r="4" fill="#0" id="circle235"/>
	<circle cx="713.445" cy="912.824" r="4" fill="#0" id="circle236"/>
	<circle cx="717.115" cy="109.194" r="4" fill="#0" id="circle237"/>
	<circle cx="719.561" cy="923.832" r="4" fill="#0" id="circle238"/>
	<circle cx="725.677" cy="934.841" r="4" fill="#0" id="circle239"/>
	<circle cx="725.677" cy="947.073" r="4" fill="#0" id="circle240"/>
	<circle cx="726.9" cy="117.756" r="4" fill="#0" id="circle241"/>
	<circle cx="731.793" cy="129.988" r="4" fill="#0" id="circle242"/>
	<circle cx="733.016" cy="800.291" r="4" fill="#0" id="circle243"/>
	<circle cx="737.909" cy="949.519" r="4" fill="#0" id="circle244"/>
	<circle cx="739.132" cy="139.773" r="4" fill="#0" id="circle245"/>
	<circle cx="739.132" cy="811.3" r="4" fill="#0" id="circle246"/>
	<circle cx="745.248" cy="150.782" r="4" fill="#0" id="circle247"/>
	<circle cx="745.248" cy="800.291" r="4" fill="#0" id="circle248"/>
	<circle cx="745.248" cy="934.841" r="4" fill="#0" id="circle249"/>
	<circle cx="750.141" cy="817.416" r="4" fill="#0" id="circle250"/>
	<circle cx="751.364" cy="161.79" r="4" fill="#0" id="circle251"/>
	<circle cx="755.033" cy="926.279" r="4" fill="#0" id="circle252"/>
	<circle cx="756.256" cy="806.407" r="4" fill="#0" id="circle253"/>
	<circle cx="757.48" cy="172.799" r="4" fill="#0" id="circle254"/>
	<circle cx="759.926" cy="824.755" r="4" fill="#0" id="circle255"/>
	<circle cx="766.042" cy="182.584" r="4" fill="#0" id="circle256"/>
	<circle cx="767.265" cy="920.163" r="4" fill="#0" id="circle257"/>
	<circle cx="768.488" cy="806.407" r="4" fill="#0" id="circle258"/>
	<circle cx="769.711" cy="833.317" r="4" fill="#0" id="circle259"/>
	<circle cx="772.158" cy="193.593" r="4" fill="#0" id="circle260"/>
	<circle cx="774.604" cy="845.549" r="4" fill="#0" id="circle261"/>
	<circle cx="775.827" cy="205.825" r="4" fill="#0" id="circle262"/>
	<circle cx="775.827" cy="910.377" r="4" fill="#0" id="circle263"/>
	<circle cx="779.497" cy="812.523" r="4" fill="#0" id="circle264"/>
	<circle cx="781.943" cy="216.834" r="4" fill="#0" id="circle265"/>
	<circle cx="781.943" cy="708.552" r="4" fill="#0" id="circle266"/>
	<circle cx="781.943" cy="855.334" r="4" fill="#0" id="circle267"/>
	<circle cx="785.613" cy="901.815" r="4" fill="#0" id="circle268"/>
	<circle cx="788.059" cy="227.842" r="4" fill="#0" id="circle269"/>
	<circle cx="788.059" cy="719.561" r="4" fill="#0" id="circle270"/>
	<circle cx="788.059" cy="822.308" r="4" fill="#0" id="circle271"/>
	<circle cx="788.059" cy="866.343" r="4" fill="#0" id="circle272"/>
	<circle cx="792.952" cy="240.074" r="4" fill="#0" id="circle273"/>
	<circle cx="794.175" cy="252.306" r="4" fill="#0" id="circle274"/>
	<circle cx="794.175" cy="708.552" r="4" fill="#0" id="circle275"/>
	<circle cx="794.175" cy="833.317" r="4" fill="#0" id="circle276"/>
	<circle cx="794.175" cy="877.351" r="4" fill="#0" id="circle277"/>
	<circle cx="794.175" cy="889.583" r="4" fill="#0" id="circle278"/>
	<circle cx="800.291" cy="263.314" r="4" fill="#0" id="circle279"/>
	<circle cx="800.291" cy="723.231" r="4" fill="#0" id="circle280"/>
	<circle cx="802.737" cy="843.102" r="4" fill="#0" id="circle281"/>
	<circle cx="803.961" cy="275.546" r="4" fill="#0" id="circle282"/>
	<circle cx="806.407" cy="287.778" r="4" fill="#0" id="circle283"/>
	<circle cx="806.407" cy="708.552" r="4" fill="#0" id="circle284"/>
	<circle cx="808.853" cy="854.111" r="4" fill="#0" id="circle285"/>
	<circle cx="810.076" cy="300.01" r="4" fill="#0" id="circle286"/>
	<circle cx="812.523" cy="312.242" r="4" fill="#0" id="circle287"/>
	<circle cx="812.523" cy="610.698" r="4" fill="#0" id="circle288"/>
	<circle cx="812.523" cy="725.677" r="4" fill="#0" id="circle289"/>
	<circle cx="816.192" cy="324.473" r="4" fill="#0" id="circle290"/>
	<circle cx="818.639" cy="336.705" r="4" fill="#0" id="circle291"/>
	<circle cx="818.639" cy="348.937" r="4" fill="#0" id="circle292"/>
	<circle cx="818.639" cy="580.118" r="4" fill="#0" id="circle293"/>
	<circle cx="818.639" cy="592.35" r="4" fill="#0" id="circle294"/>
	<circle cx="818.639" cy="708.552" r="4" fill="#0" id="circle295"/>
	<circle cx="818.639" cy="861.45" r="4" fill="#0" id="circle296"/>
	<circle cx="823.531" cy="731.793" r="4" fill="#0" id="circle297"/>
	<circle cx="824.755" cy="359.946" r="4" fill="#0" id="circle298"/>
	<circle cx="824.755" cy="372.178" r="4" fill="#0" id="circle299"/>
	<circle cx="824.755" cy="384.409" r="4" fill="#0" id="circle300"/>
	<circle cx="824.755" cy="396.641" r="4" fill="#0" id="circle301"/>
	<circle cx="824.755" cy="531.191" r="4" fill="#0" id="circle302"/>
	<circle cx="824.755" cy="543.423" r="4" fill="#0" id="circle303"/>
	<circle cx="824.755" cy="555.655" r="4" fill="#0" id="circle304"/>
	<circle cx="824.755" cy="567.887" r="4" fill="#0" id="circle305"/>
	<circle cx="824.755" cy="615.591" r="4" fill="#0" id="circle306"/>
	<circle cx="828.424" cy="852.888" r="4" fill="#0" id="circle307"/>
	<circle cx="830.871" cy="407.65" r="4" fill="#0" id="circle308"/>
	<circle cx="830.871" cy="419.882" r="4" fill="#0" id="circle309"/>
	<circle cx="830.871" cy="432.113" r="4" fill="#0" id="circle310"/>
	<circle cx="830.871" cy="444.345" r="4" fill="#0" id="circle311"/>
	<circle cx="830.871" cy="456.577" r="4" fill="#0" id="circle312"/>
	<circle cx="830.871" cy="468.809" r="4" fill="#0" id="circle313"/>
	<circle cx="830.871" cy="481.041" r="4" fill="#0" id="circle314"/>
	<circle cx="830.871" cy="493.273" r="4" fill="#0" id="circle315"/>
	<circle cx="830.871" cy="505.504" r="4" fill="#0" id="circle316"/>
	<circle cx="830.871" cy="517.736" r="4" fill="#0" id="circle317"/>
	<circle cx="830.871" cy="708.552" r="4" fill="#0" id="circle318"/>
	<circle cx="833.317" cy="739.132" r="4" fill="#0" id="circle319"/>
	<circle cx="836.986" cy="615.591" r="4" fill="#0" id="circle320"/>
	<circle cx="836.986" cy="843.102" r="4" fill="#0" id="circle321"/>
	<circle cx="843.102" cy="708.552" r="4" fill="#0" id="circle322"/>
	<circle cx="843.102" cy="747.694" r="4" fill="#0" id="circle323"/>
	<circle cx="846.772" cy="834.54" r="4" fill="#0" id="circle324"/>
	<circle cx="849.218" cy="615.591" r="4" fill="#0" id="circle325"/>
	<circle cx="851.665" cy="757.48" r="4" fill="#0" id="circle326"/>
	<circle cx="855.334" cy="708.552" r="4" fill="#0" id="circle327"/>
	<circle cx="855.334" cy="818.639" r="4" fill="#0" id="circle328"/>
	<circle cx="861.45" cy="615.591" r="4" fill="#0" id="circle329"/>
	<circle cx="861.45" cy="766.042" r="4" fill="#0" id="circle330"/>
	<circle cx="865.12" cy="810.076" r="4" fill="#0" id="circle331"/>
	<circle cx="866.343" cy="778.274" r="4" fill="#0" id="circle332"/>
	<circle cx="867.566" cy="710.999" r="4" fill="#0" id="circle333"/>
	<circle cx="873.682" cy="615.591" r="4" fill="#0" id="circle334"/>
	<circle cx="873.682" cy="788.059" r="4" fill="#0" id="circle335"/>
	<circle cx="877.351" cy="803.961" r="4" fill="#0" id="circle336"/>
	<circle cx="878.575" cy="717.115" r="4" fill="#0" id="circle337"/>
	<circle cx="885.914" cy="619.26" r="4" fill="#0" id="circle338"/>
	<circle cx="888.36" cy="725.677" r="4" fill="#0" id="circle339"/>
	<circle cx="896.922" cy="625.376" r="4" fill="#0" id="circle340"/>
	<circle cx="896.922" cy="735.462" r="4" fill="#0" id="circle341"/>
	<circle cx="906.708" cy="744.025" r="4" fill="#0" id="circle342"/>
	<circle cx="909.154" cy="630.269" r="4" fill="#0" id="circle343"/>
	<circle cx="911.6" cy="756.256" r="4" fill="#0" id="circle344"/>
	<circle cx="920.163" cy="636.385" r="4" fill="#0" id="circle345"/>
	<circle cx="921.386" cy="747.694" r="4" fill="#0" id="circle346"/>
	<circle cx="928.725" cy="646.17" r="4" fill="#0" id="circle347"/>
	<circle cx="931.171" cy="739.132" r="4" fill="#0" id="circle348"/>
	<circle cx="940.957" cy="649.84" r="4" fill="#0" id="circle349"/>
	<circle cx="942.18" cy="733.016" r="4" fill="#0" id="circle350"/>
	<circle cx="947.073" cy="720.784" r="4" fill="#0" id="circle351"/>
	<circle cx="949.519" cy="659.625" r="4" fill="#0" id="circle352"/>
	<circle cx="956.858" cy="712.222" r="4" fill="#0" id="circle353"/>
	<circle cx="959.305" cy="668.187" r="4" fill="#0" id="circle354"/>
	<circle cx="967.867" cy="677.973" r="4" fill="#0" id="circle355"/>
	<circle cx="969.09" cy="706.106" r="4" fill="#0" id="circle356"/>
	<circle cx="977.652" cy="686.535" r="4" fill="#0" id="circle357"/>
	<circle cx="981.322" cy="699.99" r="4" fill="#0" id="circle358"/>
	</g>
</svg>