<?xml version="1.0" encoding="UTF-8" standalone="no"?>
<!-- Created with CurveBenchmark -->
<svg
	xmlns:dc="http://purl.org/dc/elements/1.1/"
	xmlns:cc="http://creativecommons.org/ns#"
	xmlns:rdf="http://www.w3.org/1999/02/22-rdf-syntax-ns#"
	xmlns:svg="http://www.w3.org/2000/svg"
	xmlns="http://www.w3.org/2000/svg"
	xmlns:sodipodi="http://sodipodi.sourceforge.net/DTD/sodipodi-0.dtd"
	xmlns:inkscape="http://www.inkscape.org/namespaces/inkscape"
	width="1000"
	height="1000"
	id="svg2"
	version="1.1"
	sodipodi:docname="manifold/ccrust-stef17.png.txt">
<defs
	id="defs4" />
<metadata
	id="metadata7">
	<rdf:RDF>
		<cc:Work
			rdf:about="">
			<dc:format>image/svg+xml</dc:format>
			<dc:type
				rdf:resource="http://purl.org/dc/dcmitype/StillImage" />
			<dc:title></dc:title>
		</cc:Work>
	</rdf:RDF>
</metadata>
<g
	inkscape:label="Layer 1"
	inkscape:groupmode="layer"
	id="layer1">
	<path style="fill:none;stroke:red;stroke-width:1px;stroke-linecap:butt;stroke-linejoin:miter;stroke-opacity:1" d="M 15.9231,35 35,15.9231 z" id="boundary" inkscape:connector-curvature="0" />
	<path style="fill:none;stroke:red;stroke-width:1px;stroke-linecap:butt;stroke-linejoin:miter;stroke-opacity:1" d="M 4,58.8462 15.9231,35 z" id="boundary" inkscape:connector-curvature="0" />
	<path style="fill:none;stroke:red;stroke-width:1px;stroke-linecap:butt;stroke-linejoin:miter;stroke-opacity:1" d="M 4,82.6923 4,58.8462 z" id="boundary" inkscape:connector-curvature="0" />
	<path style="fill:none;stroke:red;stroke-width:1px;stroke-linecap:butt;stroke-linejoin:miter;stroke-opacity:1" d="M 35,15.9231 56.4615,4 z" id="boundary" inkscape:connector-curvature="0" />
	<path style="fill:none;stroke:red;stroke-width:1px;stroke-linecap:butt;stroke-linejoin:miter;stroke-opacity:1" d="M 56.4615,4 80.3077,4 z" id="boundary" inkscape:connector-curvature="0" />
	<path style="fill:none;stroke:red;stroke-width:1px;stroke-linecap:butt;stroke-linejoin:miter;stroke-opacity:1" d="M 80.3077,4 104.154,4 z" id="boundary" inkscape:connector-curvature="0" />
	<path style="fill:none;stroke:red;stroke-width:1px;stroke-linecap:butt;stroke-linejoin:miter;stroke-opacity:1" d="M 104.154,4 125.615,15.9231 z" id="boundary" inkscape:connector-curvature="0" />
	<path style="fill:none;stroke:red;stroke-width:1px;stroke-linecap:butt;stroke-linejoin:miter;stroke-opacity:1" d="M 173.308,70.7692 154.231,54.0769 z" id="boundary" inkscape:connector-curvature="0" />
	<path style="fill:none;stroke:red;stroke-width:1px;stroke-linecap:butt;stroke-linejoin:miter;stroke-opacity:1" d="M 154.231,54.0769 144.692,30.2308 z" id="boundary" inkscape:connector-curvature="0" />
	<path style="fill:none;stroke:red;stroke-width:1px;stroke-linecap:butt;stroke-linejoin:miter;stroke-opacity:1" d="M 125.615,15.9231 144.692,30.2308 z" id="boundary" inkscape:connector-curvature="0" />
	<path style="fill:none;stroke:red;stroke-width:1px;stroke-linecap:butt;stroke-linejoin:miter;stroke-opacity:1" d="M 4,106.538 15.9231,128 z" id="boundary" inkscape:connector-curvature="0" />
	<path style="fill:none;stroke:red;stroke-width:1px;stroke-linecap:butt;stroke-linejoin:miter;stroke-opacity:1" d="M 4,106.538 4,82.6923 z" id="boundary" inkscape:connector-curvature="0" />
	<path style="fill:none;stroke:red;stroke-width:1px;stroke-linecap:butt;stroke-linejoin:miter;stroke-opacity:1" d="M 27.8462,149.462 49.3077,161.385 z" id="boundary" inkscape:connector-curvature="0" />
	<path style="fill:none;stroke:red;stroke-width:1px;stroke-linecap:butt;stroke-linejoin:miter;stroke-opacity:1" d="M 27.8462,149.462 15.9231,128 z" id="boundary" inkscape:connector-curvature="0" />
	<path style="fill:none;stroke:red;stroke-width:1px;stroke-linecap:butt;stroke-linejoin:miter;stroke-opacity:1" d="M 49.3077,161.385 70.7692,173.308 z" id="boundary" inkscape:connector-curvature="0" />
	<path style="fill:none;stroke:red;stroke-width:1px;stroke-linecap:butt;stroke-linejoin:miter;stroke-opacity:1" d="M 111.308,201.923 123.231,223.385 z" id="boundary" inkscape:connector-curvature="0" />
	<path style="fill:none;stroke:red;stroke-width:1px;stroke-linecap:butt;stroke-linejoin:miter;stroke-opacity:1" d="M 111.308,201.923 94.6154,182.846 z" id="boundary" inkscape:connector-curvature="0" />
	<path style="fill:none;stroke:red;stroke-width:1px;stroke-linecap:butt;stroke-linejoin:miter;stroke-opacity:1" d="M 70.7692,173.308 94.6154,182.846 z" id="boundary" inkscape:connector-curvature="0" />
	<path style="fill:none;stroke:red;stroke-width:1px;stroke-linecap:butt;stroke-linejoin:miter;stroke-opacity:1" d="M 139.923,242.462 159,256.769 z" id="boundary" inkscape:connector-curvature="0" />
	<path style="fill:none;stroke:red;stroke-width:1px;stroke-linecap:butt;stroke-linejoin:miter;stroke-opacity:1" d="M 159,256.769 166.154,280.615 z" id="boundary" inkscape:connector-curvature="0" />
	<path style="fill:none;stroke:red;stroke-width:1px;stroke-linecap:butt;stroke-linejoin:miter;stroke-opacity:1" d="M 139.923,242.462 123.231,223.385 z" id="boundary" inkscape:connector-curvature="0" />
	<path style="fill:none;stroke:red;stroke-width:1px;stroke-linecap:butt;stroke-linejoin:miter;stroke-opacity:1" d="M 185.231,297.308 166.154,280.615 z" id="boundary" inkscape:connector-curvature="0" />
	<path style="fill:none;stroke:red;stroke-width:1px;stroke-linecap:butt;stroke-linejoin:miter;stroke-opacity:1" d="M 173.308,70.7692 194.769,82.6923 z" id="boundary" inkscape:connector-curvature="0" />
	<path style="fill:none;stroke:red;stroke-width:1px;stroke-linecap:butt;stroke-linejoin:miter;stroke-opacity:1" d="M 218.615,80.3077 194.769,82.6923 z" id="boundary" inkscape:connector-curvature="0" />
	<path style="fill:none;stroke:red;stroke-width:1px;stroke-linecap:butt;stroke-linejoin:miter;stroke-opacity:1" d="M 230.538,316.385 206.692,309.231 z" id="boundary" inkscape:connector-curvature="0" />
	<path style="fill:none;stroke:red;stroke-width:1px;stroke-linecap:butt;stroke-linejoin:miter;stroke-opacity:1" d="M 254.385,316.385 230.538,316.385 z" id="boundary" inkscape:connector-curvature="0" />
	<path style="fill:none;stroke:red;stroke-width:1px;stroke-linecap:butt;stroke-linejoin:miter;stroke-opacity:1" d="M 206.692,309.231 185.231,297.308 z" id="boundary" inkscape:connector-curvature="0" />
	<path style="fill:none;stroke:red;stroke-width:1px;stroke-linecap:butt;stroke-linejoin:miter;stroke-opacity:1" d="M 304.462,94.6154 280.615,94.6154 z" id="boundary" inkscape:connector-curvature="0" />
	<path style="fill:none;stroke:red;stroke-width:1px;stroke-linecap:butt;stroke-linejoin:miter;stroke-opacity:1" d="M 328.308,94.6154 304.462,94.6154 z" id="boundary" inkscape:connector-curvature="0" />
	<path style="fill:none;stroke:red;stroke-width:1px;stroke-linecap:butt;stroke-linejoin:miter;stroke-opacity:1" d="M 256.769,99.3846 280.615,94.6154 z" id="boundary" inkscape:connector-curvature="0" />
	<path style="fill:none;stroke:red;stroke-width:1px;stroke-linecap:butt;stroke-linejoin:miter;stroke-opacity:1" d="M 256.769,99.3846 242.462,80.3077 z" id="boundary" inkscape:connector-curvature="0" />
	<path style="fill:none;stroke:red;stroke-width:1px;stroke-linecap:butt;stroke-linejoin:miter;stroke-opacity:1" d="M 328.308,94.6154 349.769,106.538 z" id="boundary" inkscape:connector-curvature="0" />
	<path style="fill:none;stroke:red;stroke-width:1px;stroke-linecap:butt;stroke-linejoin:miter;stroke-opacity:1" d="M 373.615,111.308 349.769,106.538 z" id="boundary" inkscape:connector-curvature="0" />
	<path style="fill:none;stroke:red;stroke-width:1px;stroke-linecap:butt;stroke-linejoin:miter;stroke-opacity:1" d="M 218.615,80.3077 242.462,80.3077 z" id="boundary" inkscape:connector-curvature="0" />
	<path style="fill:none;stroke:red;stroke-width:1px;stroke-linecap:butt;stroke-linejoin:miter;stroke-opacity:1" d="M 275.846,328.308 292.538,347.385 z" id="boundary" inkscape:connector-curvature="0" />
	<path style="fill:none;stroke:red;stroke-width:1px;stroke-linecap:butt;stroke-linejoin:miter;stroke-opacity:1" d="M 275.846,328.308 254.385,316.385 z" id="boundary" inkscape:connector-curvature="0" />
	<path style="fill:none;stroke:red;stroke-width:1px;stroke-linecap:butt;stroke-linejoin:miter;stroke-opacity:1" d="M 273.462,433.231 263.923,457.077 z" id="boundary" inkscape:connector-curvature="0" />
	<path style="fill:none;stroke:red;stroke-width:1px;stroke-linecap:butt;stroke-linejoin:miter;stroke-opacity:1" d="M 263.923,457.077 244.846,473.769 z" id="boundary" inkscape:connector-curvature="0" />
	<path style="fill:none;stroke:red;stroke-width:1px;stroke-linecap:butt;stroke-linejoin:miter;stroke-opacity:1" d="M 292.538,347.385 316.385,356.923 z" id="boundary" inkscape:connector-curvature="0" />
	<path style="fill:none;stroke:red;stroke-width:1px;stroke-linecap:butt;stroke-linejoin:miter;stroke-opacity:1" d="M 316.385,356.923 337.846,368.846 z" id="boundary" inkscape:connector-curvature="0" />
	<path style="fill:none;stroke:red;stroke-width:1px;stroke-linecap:butt;stroke-linejoin:miter;stroke-opacity:1" d="M 292.538,414.154 316.385,402.231 z" id="boundary" inkscape:connector-curvature="0" />
	<path style="fill:none;stroke:red;stroke-width:1px;stroke-linecap:butt;stroke-linejoin:miter;stroke-opacity:1" d="M 340.231,392.692 316.385,402.231 z" id="boundary" inkscape:connector-curvature="0" />
	<path style="fill:none;stroke:red;stroke-width:1px;stroke-linecap:butt;stroke-linejoin:miter;stroke-opacity:1" d="M 337.846,368.846 340.231,392.692 z" id="boundary" inkscape:connector-curvature="0" />
	<path style="fill:none;stroke:red;stroke-width:1px;stroke-linecap:butt;stroke-linejoin:miter;stroke-opacity:1" d="M 273.462,433.231 292.538,414.154 z" id="boundary" inkscape:connector-curvature="0" />
	<path style="fill:none;stroke:red;stroke-width:1px;stroke-linecap:butt;stroke-linejoin:miter;stroke-opacity:1" d="M 373.615,511.923 349.769,507.154 z" id="boundary" inkscape:connector-curvature="0" />
	<path style="fill:none;stroke:red;stroke-width:1px;stroke-linecap:butt;stroke-linejoin:miter;stroke-opacity:1" d="M 182.846,559.615 194.769,535.769 z" id="boundary" inkscape:connector-curvature="0" />
	<path style="fill:none;stroke:red;stroke-width:1px;stroke-linecap:butt;stroke-linejoin:miter;stroke-opacity:1" d="M 182.846,583.462 194.769,604.923 z" id="boundary" inkscape:connector-curvature="0" />
	<path style="fill:none;stroke:red;stroke-width:1px;stroke-linecap:butt;stroke-linejoin:miter;stroke-opacity:1" d="M 194.769,604.923 194.769,631.154 z" id="boundary" inkscape:connector-curvature="0" />
	<path style="fill:none;stroke:red;stroke-width:1px;stroke-linecap:butt;stroke-linejoin:miter;stroke-opacity:1" d="M 182.846,583.462 182.846,559.615 z" id="boundary" inkscape:connector-curvature="0" />
	<path style="fill:none;stroke:red;stroke-width:1px;stroke-linecap:butt;stroke-linejoin:miter;stroke-opacity:1" d="M 194.769,631.154 194.769,666.923 z" id="boundary" inkscape:connector-curvature="0" />
	<path style="fill:none;stroke:red;stroke-width:1px;stroke-linecap:butt;stroke-linejoin:miter;stroke-opacity:1" d="M 194.769,690.769 194.769,666.923 z" id="boundary" inkscape:connector-curvature="0" />
	<path style="fill:none;stroke:red;stroke-width:1px;stroke-linecap:butt;stroke-linejoin:miter;stroke-opacity:1" d="M 194.769,714.615 194.769,690.769 z" id="boundary" inkscape:connector-curvature="0" />
	<path style="fill:none;stroke:red;stroke-width:1px;stroke-linecap:butt;stroke-linejoin:miter;stroke-opacity:1" d="M 194.769,774.231 194.769,750.385 z" id="boundary" inkscape:connector-curvature="0" />
	<path style="fill:none;stroke:red;stroke-width:1px;stroke-linecap:butt;stroke-linejoin:miter;stroke-opacity:1" d="M 194.769,798.077 194.769,774.231 z" id="boundary" inkscape:connector-curvature="0" />
	<path style="fill:none;stroke:red;stroke-width:1px;stroke-linecap:butt;stroke-linejoin:miter;stroke-opacity:1" d="M 194.769,714.615 194.769,750.385 z" id="boundary" inkscape:connector-curvature="0" />
	<path style="fill:none;stroke:red;stroke-width:1px;stroke-linecap:butt;stroke-linejoin:miter;stroke-opacity:1" d="M 213.846,516.692 194.769,535.769 z" id="boundary" inkscape:connector-curvature="0" />
	<path style="fill:none;stroke:red;stroke-width:1px;stroke-linecap:butt;stroke-linejoin:miter;stroke-opacity:1" d="M 135.154,893.462 154.231,874.385 z" id="boundary" inkscape:connector-curvature="0" />
	<path style="fill:none;stroke:red;stroke-width:1px;stroke-linecap:butt;stroke-linejoin:miter;stroke-opacity:1" d="M 137.538,936.385 123.231,917.308 z" id="boundary" inkscape:connector-curvature="0" />
	<path style="fill:none;stroke:red;stroke-width:1px;stroke-linecap:butt;stroke-linejoin:miter;stroke-opacity:1" d="M 123.231,917.308 135.154,893.462 z" id="boundary" inkscape:connector-curvature="0" />
	<path style="fill:none;stroke:red;stroke-width:1px;stroke-linecap:butt;stroke-linejoin:miter;stroke-opacity:1" d="M 161.385,941.154 137.538,936.385 z" id="boundary" inkscape:connector-curvature="0" />
	<path style="fill:none;stroke:red;stroke-width:1px;stroke-linecap:butt;stroke-linejoin:miter;stroke-opacity:1" d="M 161.385,941.154 178.077,960.231 z" id="boundary" inkscape:connector-curvature="0" />
	<path style="fill:none;stroke:red;stroke-width:1px;stroke-linecap:butt;stroke-linejoin:miter;stroke-opacity:1" d="M 154.231,874.385 178.077,862.462 z" id="boundary" inkscape:connector-curvature="0" />
	<path style="fill:none;stroke:red;stroke-width:1px;stroke-linecap:butt;stroke-linejoin:miter;stroke-opacity:1" d="M 194.769,833.846 178.077,862.462 z" id="boundary" inkscape:connector-curvature="0" />
	<path style="fill:none;stroke:red;stroke-width:1px;stroke-linecap:butt;stroke-linejoin:miter;stroke-opacity:1" d="M 194.769,798.077 194.769,833.846 z" id="boundary" inkscape:connector-curvature="0" />
	<path style="fill:none;stroke:red;stroke-width:1px;stroke-linecap:butt;stroke-linejoin:miter;stroke-opacity:1" d="M 178.077,960.231 201.923,960.231 z" id="boundary" inkscape:connector-curvature="0" />
	<path style="fill:none;stroke:red;stroke-width:1px;stroke-linecap:butt;stroke-linejoin:miter;stroke-opacity:1" d="M 225.769,960.231 201.923,960.231 z" id="boundary" inkscape:connector-curvature="0" />
	<path style="fill:none;stroke:red;stroke-width:1px;stroke-linecap:butt;stroke-linejoin:miter;stroke-opacity:1" d="M 225.769,960.231 247.231,972.154 z" id="boundary" inkscape:connector-curvature="0" />
	<path style="fill:none;stroke:red;stroke-width:1px;stroke-linecap:butt;stroke-linejoin:miter;stroke-opacity:1" d="M 304.462,519.077 304.462,542.923 z" id="boundary" inkscape:connector-curvature="0" />
	<path style="fill:none;stroke:red;stroke-width:1px;stroke-linecap:butt;stroke-linejoin:miter;stroke-opacity:1" d="M 232.923,497.615 244.846,473.769 z" id="boundary" inkscape:connector-curvature="0" />
	<path style="fill:none;stroke:red;stroke-width:1px;stroke-linecap:butt;stroke-linejoin:miter;stroke-opacity:1" d="M 304.462,542.923 304.462,566.769 z" id="boundary" inkscape:connector-curvature="0" />
	<path style="fill:none;stroke:red;stroke-width:1px;stroke-linecap:butt;stroke-linejoin:miter;stroke-opacity:1" d="M 304.462,590.615 304.462,566.769 z" id="boundary" inkscape:connector-curvature="0" />
	<path style="fill:none;stroke:red;stroke-width:1px;stroke-linecap:butt;stroke-linejoin:miter;stroke-opacity:1" d="M 304.462,519.077 328.308,519.077 z" id="boundary" inkscape:connector-curvature="0" />
	<path style="fill:none;stroke:red;stroke-width:1px;stroke-linecap:butt;stroke-linejoin:miter;stroke-opacity:1" d="M 304.462,590.615 304.462,614.462 z" id="boundary" inkscape:connector-curvature="0" />
	<path style="fill:none;stroke:red;stroke-width:1px;stroke-linecap:butt;stroke-linejoin:miter;stroke-opacity:1" d="M 349.769,507.154 328.308,519.077 z" id="boundary" inkscape:connector-curvature="0" />
	<path style="fill:none;stroke:red;stroke-width:1px;stroke-linecap:butt;stroke-linejoin:miter;stroke-opacity:1" d="M 316.385,635.923 304.462,614.462 z" id="boundary" inkscape:connector-curvature="0" />
	<path style="fill:none;stroke:red;stroke-width:1px;stroke-linecap:butt;stroke-linejoin:miter;stroke-opacity:1" d="M 316.385,635.923 316.385,659.769 z" id="boundary" inkscape:connector-curvature="0" />
	<path style="fill:none;stroke:red;stroke-width:1px;stroke-linecap:butt;stroke-linejoin:miter;stroke-opacity:1" d="M 316.385,683.615 316.385,659.769 z" id="boundary" inkscape:connector-curvature="0" />
	<path style="fill:none;stroke:red;stroke-width:1px;stroke-linecap:butt;stroke-linejoin:miter;stroke-opacity:1" d="M 316.385,707.462 316.385,683.615 z" id="boundary" inkscape:connector-curvature="0" />
	<path style="fill:none;stroke:red;stroke-width:1px;stroke-linecap:butt;stroke-linejoin:miter;stroke-opacity:1" d="M 292.538,888.692 278.231,929.231 z" id="boundary" inkscape:connector-curvature="0" />
	<path style="fill:none;stroke:red;stroke-width:1px;stroke-linecap:butt;stroke-linejoin:miter;stroke-opacity:1" d="M 292.538,888.692 292.538,864.846 z" id="boundary" inkscape:connector-curvature="0" />
	<path style="fill:none;stroke:red;stroke-width:1px;stroke-linecap:butt;stroke-linejoin:miter;stroke-opacity:1" d="M 292.538,864.846 304.462,829.077 z" id="boundary" inkscape:connector-curvature="0" />
	<path style="fill:none;stroke:red;stroke-width:1px;stroke-linecap:butt;stroke-linejoin:miter;stroke-opacity:1" d="M 266.308,953.077 247.231,972.154 z" id="boundary" inkscape:connector-curvature="0" />
	<path style="fill:none;stroke:red;stroke-width:1px;stroke-linecap:butt;stroke-linejoin:miter;stroke-opacity:1" d="M 278.231,929.231 266.308,953.077 z" id="boundary" inkscape:connector-curvature="0" />
	<path style="fill:none;stroke:red;stroke-width:1px;stroke-linecap:butt;stroke-linejoin:miter;stroke-opacity:1" d="M 316.385,731.308 316.385,707.462 z" id="boundary" inkscape:connector-curvature="0" />
	<path style="fill:none;stroke:red;stroke-width:1px;stroke-linecap:butt;stroke-linejoin:miter;stroke-opacity:1" d="M 316.385,755.154 316.385,731.308 z" id="boundary" inkscape:connector-curvature="0" />
	<path style="fill:none;stroke:red;stroke-width:1px;stroke-linecap:butt;stroke-linejoin:miter;stroke-opacity:1" d="M 316.385,755.154 316.385,779 z" id="boundary" inkscape:connector-curvature="0" />
	<path style="fill:none;stroke:red;stroke-width:1px;stroke-linecap:butt;stroke-linejoin:miter;stroke-opacity:1" d="M 316.385,802.846 304.462,829.077 z" id="boundary" inkscape:connector-curvature="0" />
	<path style="fill:none;stroke:red;stroke-width:1px;stroke-linecap:butt;stroke-linejoin:miter;stroke-opacity:1" d="M 316.385,779 316.385,802.846 z" id="boundary" inkscape:connector-curvature="0" />
	<path style="fill:none;stroke:red;stroke-width:1px;stroke-linecap:butt;stroke-linejoin:miter;stroke-opacity:1" d="M 213.846,516.692 232.923,497.615 z" id="boundary" inkscape:connector-curvature="0" />
	<path style="fill:none;stroke:red;stroke-width:1px;stroke-linecap:butt;stroke-linejoin:miter;stroke-opacity:1" d="M 440.385,111.308 418.923,123.231 z" id="boundary" inkscape:connector-curvature="0" />
	<path style="fill:none;stroke:red;stroke-width:1px;stroke-linecap:butt;stroke-linejoin:miter;stroke-opacity:1" d="M 418.923,123.231 395.077,123.231 z" id="boundary" inkscape:connector-curvature="0" />
	<path style="fill:none;stroke:red;stroke-width:1px;stroke-linecap:butt;stroke-linejoin:miter;stroke-opacity:1" d="M 395.077,123.231 373.615,111.308 z" id="boundary" inkscape:connector-curvature="0" />
	<path style="fill:none;stroke:red;stroke-width:1px;stroke-linecap:butt;stroke-linejoin:miter;stroke-opacity:1" d="M 440.385,111.308 461.846,123.231 z" id="boundary" inkscape:connector-curvature="0" />
	<path style="fill:none;stroke:red;stroke-width:1px;stroke-linecap:butt;stroke-linejoin:miter;stroke-opacity:1" d="M 461.846,123.231 483.308,135.154 z" id="boundary" inkscape:connector-curvature="0" />
	<path style="fill:none;stroke:red;stroke-width:1px;stroke-linecap:butt;stroke-linejoin:miter;stroke-opacity:1" d="M 483.308,135.154 507.154,135.154 z" id="boundary" inkscape:connector-curvature="0" />
	<path style="fill:none;stroke:red;stroke-width:1px;stroke-linecap:butt;stroke-linejoin:miter;stroke-opacity:1" d="M 507.154,135.154 528.615,147.077 z" id="boundary" inkscape:connector-curvature="0" />
	<path style="fill:none;stroke:red;stroke-width:1px;stroke-linecap:butt;stroke-linejoin:miter;stroke-opacity:1" d="M 511.923,471.385 492.846,488.077 z" id="boundary" inkscape:connector-curvature="0" />
	<path style="fill:none;stroke:red;stroke-width:1px;stroke-linecap:butt;stroke-linejoin:miter;stroke-opacity:1" d="M 492.846,488.077 469,488.077 z" id="boundary" inkscape:connector-curvature="0" />
	<path style="fill:none;stroke:red;stroke-width:1px;stroke-linecap:butt;stroke-linejoin:miter;stroke-opacity:1" d="M 511.923,471.385 528.615,490.462 z" id="boundary" inkscape:connector-curvature="0" />
	<path style="fill:none;stroke:red;stroke-width:1px;stroke-linecap:butt;stroke-linejoin:miter;stroke-opacity:1" d="M 421.308,500 445.154,500 z" id="boundary" inkscape:connector-curvature="0" />
	<path style="fill:none;stroke:red;stroke-width:1px;stroke-linecap:butt;stroke-linejoin:miter;stroke-opacity:1" d="M 397.462,511.923 421.308,500 z" id="boundary" inkscape:connector-curvature="0" />
	<path style="fill:none;stroke:red;stroke-width:1px;stroke-linecap:butt;stroke-linejoin:miter;stroke-opacity:1" d="M 469,488.077 445.154,500 z" id="boundary" inkscape:connector-curvature="0" />
	<path style="fill:none;stroke:red;stroke-width:1px;stroke-linecap:butt;stroke-linejoin:miter;stroke-opacity:1" d="M 397.462,511.923 373.615,511.923 z" id="boundary" inkscape:connector-curvature="0" />
	<path style="fill:none;stroke:red;stroke-width:1px;stroke-linecap:butt;stroke-linejoin:miter;stroke-opacity:1" d="M 504.769,535.769 516.692,557.231 z" id="boundary" inkscape:connector-curvature="0" />
	<path style="fill:none;stroke:red;stroke-width:1px;stroke-linecap:butt;stroke-linejoin:miter;stroke-opacity:1" d="M 516.692,511.923 528.615,490.462 z" id="boundary" inkscape:connector-curvature="0" />
	<path style="fill:none;stroke:red;stroke-width:1px;stroke-linecap:butt;stroke-linejoin:miter;stroke-opacity:1" d="M 516.692,511.923 504.769,535.769 z" id="boundary" inkscape:connector-curvature="0" />
	<path style="fill:none;stroke:red;stroke-width:1px;stroke-linecap:butt;stroke-linejoin:miter;stroke-opacity:1" d="M 528.615,578.692 516.692,557.231 z" id="boundary" inkscape:connector-curvature="0" />
	<path style="fill:none;stroke:red;stroke-width:1px;stroke-linecap:butt;stroke-linejoin:miter;stroke-opacity:1" d="M 528.615,578.692 540.538,600.154 z" id="boundary" inkscape:connector-curvature="0" />
	<path style="fill:none;stroke:red;stroke-width:1px;stroke-linecap:butt;stroke-linejoin:miter;stroke-opacity:1" d="M 540.538,600.154 545.308,624 z" id="boundary" inkscape:connector-curvature="0" />
	<path style="fill:none;stroke:red;stroke-width:1px;stroke-linecap:butt;stroke-linejoin:miter;stroke-opacity:1" d="M 545.308,624 557.231,645.462 z" id="boundary" inkscape:connector-curvature="0" />
	<path style="fill:none;stroke:red;stroke-width:1px;stroke-linecap:butt;stroke-linejoin:miter;stroke-opacity:1" d="M 528.615,147.077 547.692,161.385 z" id="boundary" inkscape:connector-curvature="0" />
	<path style="fill:none;stroke:red;stroke-width:1px;stroke-linecap:butt;stroke-linejoin:miter;stroke-opacity:1" d="M 566.769,178.077 583.462,197.154 z" id="boundary" inkscape:connector-curvature="0" />
	<path style="fill:none;stroke:red;stroke-width:1px;stroke-linecap:butt;stroke-linejoin:miter;stroke-opacity:1" d="M 602.538,213.846 619.231,232.923 z" id="boundary" inkscape:connector-curvature="0" />
	<path style="fill:none;stroke:red;stroke-width:1px;stroke-linecap:butt;stroke-linejoin:miter;stroke-opacity:1" d="M 602.538,213.846 583.462,197.154 z" id="boundary" inkscape:connector-curvature="0" />
	<path style="fill:none;stroke:red;stroke-width:1px;stroke-linecap:butt;stroke-linejoin:miter;stroke-opacity:1" d="M 638.308,249.615 619.231,232.923 z" id="boundary" inkscape:connector-curvature="0" />
	<path style="fill:none;stroke:red;stroke-width:1px;stroke-linecap:butt;stroke-linejoin:miter;stroke-opacity:1" d="M 638.308,249.615 655,268.692 z" id="boundary" inkscape:connector-curvature="0" />
	<path style="fill:none;stroke:red;stroke-width:1px;stroke-linecap:butt;stroke-linejoin:miter;stroke-opacity:1" d="M 655,268.692 662.154,292.538 z" id="boundary" inkscape:connector-curvature="0" />
	<path style="fill:none;stroke:red;stroke-width:1px;stroke-linecap:butt;stroke-linejoin:miter;stroke-opacity:1" d="M 674.077,314 662.154,292.538 z" id="boundary" inkscape:connector-curvature="0" />
	<path style="fill:none;stroke:red;stroke-width:1px;stroke-linecap:butt;stroke-linejoin:miter;stroke-opacity:1" d="M 674.077,314 674.077,337.846 z" id="boundary" inkscape:connector-curvature="0" />
	<path style="fill:none;stroke:red;stroke-width:1px;stroke-linecap:butt;stroke-linejoin:miter;stroke-opacity:1" d="M 674.077,361.692 674.077,337.846 z" id="boundary" inkscape:connector-curvature="0" />
	<path style="fill:none;stroke:red;stroke-width:1px;stroke-linecap:butt;stroke-linejoin:miter;stroke-opacity:1" d="M 674.077,385.538 674.077,361.692 z" id="boundary" inkscape:connector-curvature="0" />
	<path style="fill:none;stroke:red;stroke-width:1px;stroke-linecap:butt;stroke-linejoin:miter;stroke-opacity:1" d="M 674.077,385.538 674.077,409.385 z" id="boundary" inkscape:connector-curvature="0" />
	<path style="fill:none;stroke:red;stroke-width:1px;stroke-linecap:butt;stroke-linejoin:miter;stroke-opacity:1" d="M 674.077,433.231 674.077,409.385 z" id="boundary" inkscape:connector-curvature="0" />
	<path style="fill:none;stroke:red;stroke-width:1px;stroke-linecap:butt;stroke-linejoin:miter;stroke-opacity:1" d="M 674.077,433.231 674.077,457.077 z" id="boundary" inkscape:connector-curvature="0" />
	<path style="fill:none;stroke:red;stroke-width:1px;stroke-linecap:butt;stroke-linejoin:miter;stroke-opacity:1" d="M 674.077,480.923 674.077,457.077 z" id="boundary" inkscape:connector-curvature="0" />
	<path style="fill:none;stroke:red;stroke-width:1px;stroke-linecap:butt;stroke-linejoin:miter;stroke-opacity:1" d="M 674.077,504.769 674.077,480.923 z" id="boundary" inkscape:connector-curvature="0" />
	<path style="fill:none;stroke:red;stroke-width:1px;stroke-linecap:butt;stroke-linejoin:miter;stroke-opacity:1" d="M 674.077,504.769 674.077,528.615 z" id="boundary" inkscape:connector-curvature="0" />
	<path style="fill:none;stroke:red;stroke-width:1px;stroke-linecap:butt;stroke-linejoin:miter;stroke-opacity:1" d="M 674.077,552.462 674.077,528.615 z" id="boundary" inkscape:connector-curvature="0" />
	<path style="fill:none;stroke:red;stroke-width:1px;stroke-linecap:butt;stroke-linejoin:miter;stroke-opacity:1" d="M 674.077,576.308 674.077,552.462 z" id="boundary" inkscape:connector-curvature="0" />
	<path style="fill:none;stroke:red;stroke-width:1px;stroke-linecap:butt;stroke-linejoin:miter;stroke-opacity:1" d="M 693.154,614.462 674.077,600.154 z" id="boundary" inkscape:connector-curvature="0" />
	<path style="fill:none;stroke:red;stroke-width:1px;stroke-linecap:butt;stroke-linejoin:miter;stroke-opacity:1" d="M 674.077,600.154 674.077,576.308 z" id="boundary" inkscape:connector-curvature="0" />
	<path style="fill:none;stroke:red;stroke-width:1px;stroke-linecap:butt;stroke-linejoin:miter;stroke-opacity:1" d="M 714.615,626.385 693.154,614.462 z" id="boundary" inkscape:connector-curvature="0" />
	<path style="fill:none;stroke:red;stroke-width:1px;stroke-linecap:butt;stroke-linejoin:miter;stroke-opacity:1" d="M 547.692,161.385 566.769,178.077 z" id="boundary" inkscape:connector-curvature="0" />
	<path style="fill:none;stroke:red;stroke-width:1px;stroke-linecap:butt;stroke-linejoin:miter;stroke-opacity:1" d="M 557.231,645.462 576.308,662.154 z" id="boundary" inkscape:connector-curvature="0" />
	<path style="fill:none;stroke:red;stroke-width:1px;stroke-linecap:butt;stroke-linejoin:miter;stroke-opacity:1" d="M 576.308,662.154 590.615,681.231 z" id="boundary" inkscape:connector-curvature="0" />
	<path style="fill:none;stroke:red;stroke-width:1px;stroke-linecap:butt;stroke-linejoin:miter;stroke-opacity:1" d="M 631.154,709.846 609.692,697.923 z" id="boundary" inkscape:connector-curvature="0" />
	<path style="fill:none;stroke:red;stroke-width:1px;stroke-linecap:butt;stroke-linejoin:miter;stroke-opacity:1" d="M 609.692,697.923 590.615,681.231 z" id="boundary" inkscape:connector-curvature="0" />
	<path style="fill:none;stroke:red;stroke-width:1px;stroke-linecap:butt;stroke-linejoin:miter;stroke-opacity:1" d="M 631.154,709.846 643.077,731.308 z" id="boundary" inkscape:connector-curvature="0" />
	<path style="fill:none;stroke:red;stroke-width:1px;stroke-linecap:butt;stroke-linejoin:miter;stroke-opacity:1" d="M 714.615,626.385 738.462,635.923 z" id="boundary" inkscape:connector-curvature="0" />
	<path style="fill:none;stroke:red;stroke-width:1px;stroke-linecap:butt;stroke-linejoin:miter;stroke-opacity:1" d="M 738.462,635.923 755.154,655 z" id="boundary" inkscape:connector-curvature="0" />
	<path style="fill:none;stroke:red;stroke-width:1px;stroke-linecap:butt;stroke-linejoin:miter;stroke-opacity:1" d="M 774.231,671.692 755.154,655 z" id="boundary" inkscape:connector-curvature="0" />
	<path style="fill:none;stroke:red;stroke-width:1px;stroke-linecap:butt;stroke-linejoin:miter;stroke-opacity:1" d="M 800.462,709.846 781.385,695.538 z" id="boundary" inkscape:connector-curvature="0" />
	<path style="fill:none;stroke:red;stroke-width:1px;stroke-linecap:butt;stroke-linejoin:miter;stroke-opacity:1" d="M 781.385,695.538 774.231,671.692 z" id="boundary" inkscape:connector-curvature="0" />
	<path style="fill:none;stroke:red;stroke-width:1px;stroke-linecap:butt;stroke-linejoin:miter;stroke-opacity:1" d="M 817.154,728.923 800.462,709.846 z" id="boundary" inkscape:connector-curvature="0" />
	<path style="fill:none;stroke:red;stroke-width:1px;stroke-linecap:butt;stroke-linejoin:miter;stroke-opacity:1" d="M 836.231,745.615 817.154,728.923 z" id="boundary" inkscape:connector-curvature="0" />
	<path style="fill:none;stroke:red;stroke-width:1px;stroke-linecap:butt;stroke-linejoin:miter;stroke-opacity:1" d="M 643.077,731.308 659.769,750.385 z" id="boundary" inkscape:connector-curvature="0" />
	<path style="fill:none;stroke:red;stroke-width:1px;stroke-linecap:butt;stroke-linejoin:miter;stroke-opacity:1" d="M 683.615,757.538 659.769,750.385 z" id="boundary" inkscape:connector-curvature="0" />
	<path style="fill:none;stroke:red;stroke-width:1px;stroke-linecap:butt;stroke-linejoin:miter;stroke-opacity:1" d="M 714.615,790.923 690.769,781.385 z" id="boundary" inkscape:connector-curvature="0" />
	<path style="fill:none;stroke:red;stroke-width:1px;stroke-linecap:butt;stroke-linejoin:miter;stroke-opacity:1" d="M 690.769,781.385 683.615,757.538 z" id="boundary" inkscape:connector-curvature="0" />
	<path style="fill:none;stroke:red;stroke-width:1px;stroke-linecap:butt;stroke-linejoin:miter;stroke-opacity:1" d="M 714.615,790.923 731.308,810 z" id="boundary" inkscape:connector-curvature="0" />
	<path style="fill:none;stroke:red;stroke-width:1px;stroke-linecap:butt;stroke-linejoin:miter;stroke-opacity:1" d="M 755.154,817.154 731.308,810 z" id="boundary" inkscape:connector-curvature="0" />
	<path style="fill:none;stroke:red;stroke-width:1px;stroke-linecap:butt;stroke-linejoin:miter;stroke-opacity:1" d="M 776.615,829.077 755.154,817.154 z" id="boundary" inkscape:connector-curvature="0" />
	<path style="fill:none;stroke:red;stroke-width:1px;stroke-linecap:butt;stroke-linejoin:miter;stroke-opacity:1" d="M 776.615,829.077 798.077,841 z" id="boundary" inkscape:connector-curvature="0" />
	<path style="fill:none;stroke:red;stroke-width:1px;stroke-linecap:butt;stroke-linejoin:miter;stroke-opacity:1" d="M 798.077,841 817.154,857.692 z" id="boundary" inkscape:connector-curvature="0" />
	<path style="fill:none;stroke:red;stroke-width:1px;stroke-linecap:butt;stroke-linejoin:miter;stroke-opacity:1" d="M 817.154,857.692 833.846,876.769 z" id="boundary" inkscape:connector-curvature="0" />
	<path style="fill:none;stroke:red;stroke-width:1px;stroke-linecap:butt;stroke-linejoin:miter;stroke-opacity:1" d="M 852.923,764.692 872,781.385 z" id="boundary" inkscape:connector-curvature="0" />
	<path style="fill:none;stroke:red;stroke-width:1px;stroke-linecap:butt;stroke-linejoin:miter;stroke-opacity:1" d="M 852.923,764.692 836.231,745.615 z" id="boundary" inkscape:connector-curvature="0" />
	<path style="fill:none;stroke:red;stroke-width:1px;stroke-linecap:butt;stroke-linejoin:miter;stroke-opacity:1" d="M 895.846,781.385 872,781.385 z" id="boundary" inkscape:connector-curvature="0" />
	<path style="fill:none;stroke:red;stroke-width:1px;stroke-linecap:butt;stroke-linejoin:miter;stroke-opacity:1" d="M 895.846,781.385 912.538,800.462 z" id="boundary" inkscape:connector-curvature="0" />
	<path style="fill:none;stroke:red;stroke-width:1px;stroke-linecap:butt;stroke-linejoin:miter;stroke-opacity:1" d="M 912.538,800.462 936.385,802.846 z" id="boundary" inkscape:connector-curvature="0" />
	<path style="fill:none;stroke:red;stroke-width:1px;stroke-linecap:butt;stroke-linejoin:miter;stroke-opacity:1" d="M 936.385,802.846 955.462,817.154 z" id="boundary" inkscape:connector-curvature="0" />
	<path style="fill:none;stroke:red;stroke-width:1px;stroke-linecap:butt;stroke-linejoin:miter;stroke-opacity:1" d="M 984.077,881.538 972.154,860.077 z" id="boundary" inkscape:connector-curvature="0" />
	<path style="fill:none;stroke:red;stroke-width:1px;stroke-linecap:butt;stroke-linejoin:miter;stroke-opacity:1" d="M 972.154,860.077 972.154,836.231 z" id="boundary" inkscape:connector-curvature="0" />
	<path style="fill:none;stroke:red;stroke-width:1px;stroke-linecap:butt;stroke-linejoin:miter;stroke-opacity:1" d="M 955.462,817.154 972.154,836.231 z" id="boundary" inkscape:connector-curvature="0" />
	<path style="fill:none;stroke:red;stroke-width:1px;stroke-linecap:butt;stroke-linejoin:miter;stroke-opacity:1" d="M 852.923,893.462 833.846,876.769 z" id="boundary" inkscape:connector-curvature="0" />
	<path style="fill:none;stroke:red;stroke-width:1px;stroke-linecap:butt;stroke-linejoin:miter;stroke-opacity:1" d="M 984.077,881.538 984.077,905.385 z" id="boundary" inkscape:connector-curvature="0" />
	<path style="fill:none;stroke:red;stroke-width:1px;stroke-linecap:butt;stroke-linejoin:miter;stroke-opacity:1" d="M 852.923,893.462 874.385,905.385 z" id="boundary" inkscape:connector-curvature="0" />
	<path style="fill:none;stroke:red;stroke-width:1px;stroke-linecap:butt;stroke-linejoin:miter;stroke-opacity:1" d="M 874.385,905.385 886.308,926.846 z" id="boundary" inkscape:connector-curvature="0" />
	<path style="fill:none;stroke:red;stroke-width:1px;stroke-linecap:butt;stroke-linejoin:miter;stroke-opacity:1" d="M 919.692,984.077 898.231,972.154 z" id="boundary" inkscape:connector-curvature="0" />
	<path style="fill:none;stroke:red;stroke-width:1px;stroke-linecap:butt;stroke-linejoin:miter;stroke-opacity:1" d="M 898.231,972.154 886.308,950.692 z" id="boundary" inkscape:connector-curvature="0" />
	<path style="fill:none;stroke:red;stroke-width:1px;stroke-linecap:butt;stroke-linejoin:miter;stroke-opacity:1" d="M 886.308,950.692 886.308,926.846 z" id="boundary" inkscape:connector-curvature="0" />
	<path style="fill:none;stroke:red;stroke-width:1px;stroke-linecap:butt;stroke-linejoin:miter;stroke-opacity:1" d="M 984.077,905.385 996,926.846 z" id="boundary" inkscape:connector-curvature="0" />
	<path style="fill:none;stroke:red;stroke-width:1px;stroke-linecap:butt;stroke-linejoin:miter;stroke-opacity:1" d="M 996,926.846 984.077,960.231 z" id="boundary" inkscape:connector-curvature="0" />
	<path style="fill:none;stroke:red;stroke-width:1px;stroke-linecap:butt;stroke-linejoin:miter;stroke-opacity:1" d="M 941.154,996 919.692,984.077 z" id="boundary" inkscape:connector-curvature="0" />
	<path style="fill:none;stroke:red;stroke-width:1px;stroke-linecap:butt;stroke-linejoin:miter;stroke-opacity:1" d="M 984.077,960.231 965,993.615 z" id="boundary" inkscape:connector-curvature="0" />
	<path style="fill:none;stroke:red;stroke-width:1px;stroke-linecap:butt;stroke-linejoin:miter;stroke-opacity:1" d="M 965,993.615 941.154,996 z" id="boundary" inkscape:connector-curvature="0" />
	<circle cx="4" cy="58.8462" r="4" fill="#0" id="circle0"/>
	<circle cx="4" cy="82.6923" r="4" fill="#0" id="circle1"/>
	<circle cx="4" cy="106.538" r="4" fill="#0" id="circle2"/>
	<circle cx="15.9231" cy="35" r="4" fill="#0" id="circle3"/>
	<circle cx="15.9231" cy="128" r="4" fill="#0" id="circle4"/>
	<circle cx="27.8462" cy="149.462" r="4" fill="#0" id="circle5"/>
	<circle cx="35" cy="15.9231" r="4" fill="#0" id="circle6"/>
	<circle cx="49.3077" cy="161.385" r="4" fill="#0" id="circle7"/>
	<circle cx="56.4615" cy="4" r="4" fill="#0" id="circle8"/>
	<circle cx="70.7692" cy="173.308" r="4" fill="#0" id="circle9"/>
	<circle cx="80.3077" cy="4" r="4" fill="#0" id="circle10"/>
	<circle cx="94.6154" cy="182.846" r="4" fill="#0" id="circle11"/>
	<circle cx="104.154" cy="4" r="4" fill="#0" id="circle12"/>
	<circle cx="111.308" cy="201.923" r="4" fill="#0" id="circle13"/>
	<circle cx="123.231" cy="223.385" r="4" fill="#0" id="circle14"/>
	<circle cx="123.231" cy="917.308" r="4" fill="#0" id="circle15"/>
	<circle cx="125.615" cy="15.9231" r="4" fill="#0" id="circle16"/>
	<circle cx="135.154" cy="893.462" r="4" fill="#0" id="circle17"/>
	<circle cx="137.538" cy="936.385" r="4" fill="#0" id="circle18"/>
	<circle cx="139.923" cy="242.462" r="4" fill="#0" id="circle19"/>
	<circle cx="144.692" cy="30.2308" r="4" fill="#0" id="circle20"/>
	<circle cx="154.231" cy="54.0769" r="4" fill="#0" id="circle21"/>
	<circle cx="154.231" cy="874.385" r="4" fill="#0" id="circle22"/>
	<circle cx="159" cy="256.769" r="4" fill="#0" id="circle23"/>
	<circle cx="161.385" cy="941.154" r="4" fill="#0" id="circle24"/>
	<circle cx="166.154" cy="280.615" r="4" fill="#0" id="circle25"/>
	<circle cx="173.308" cy="70.7692" r="4" fill="#0" id="circle26"/>
	<circle cx="178.077" cy="862.462" r="4" fill="#0" id="circle27"/>
	<circle cx="178.077" cy="960.231" r="4" fill="#0" id="circle28"/>
	<circle cx="182.846" cy="559.615" r="4" fill="#0" id="circle29"/>
	<circle cx="182.846" cy="583.462" r="4" fill="#0" id="circle30"/>
	<circle cx="185.231" cy="297.308" r="4" fill="#0" id="circle31"/>
	<circle cx="194.769" cy="82.6923" r="4" fill="#0" id="circle32"/>
	<circle cx="194.769" cy="535.769" r="4" fill="#0" id="circle33"/>
	<circle cx="194.769" cy="604.923" r="4" fill="#0" id="circle34"/>
	<circle cx="194.769" cy="631.154" r="4" fill="#0" id="circle35"/>
	<circle cx="194.769" cy="666.923" r="4" fill="#0" id="circle36"/>
	<circle cx="194.769" cy="690.769" r="4" fill="#0" id="circle37"/>
	<circle cx="194.769" cy="714.615" r="4" fill="#0" id="circle38"/>
	<circle cx="194.769" cy="750.385" r="4" fill="#0" id="circle39"/>
	<circle cx="194.769" cy="774.231" r="4" fill="#0" id="circle40"/>
	<circle cx="194.769" cy="798.077" r="4" fill="#0" id="circle41"/>
	<circle cx="194.769" cy="833.846" r="4" fill="#0" id="circle42"/>
	<circle cx="201.923" cy="960.231" r="4" fill="#0" id="circle43"/>
	<circle cx="206.692" cy="309.231" r="4" fill="#0" id="circle44"/>
	<circle cx="213.846" cy="516.692" r="4" fill="#0" id="circle45"/>
	<circle cx="218.615" cy="80.3077" r="4" fill="#0" id="circle46"/>
	<circle cx="225.769" cy="960.231" r="4" fill="#0" id="circle47"/>
	<circle cx="230.538" cy="316.385" r="4" fill="#0" id="circle48"/>
	<circle cx="232.923" cy="497.615" r="4" fill="#0" id="circle49"/>
	<circle cx="242.462" cy="80.3077" r="4" fill="#0" id="circle50"/>
	<circle cx="244.846" cy="473.769" r="4" fill="#0" id="circle51"/>
	<circle cx="247.231" cy="972.154" r="4" fill="#0" id="circle52"/>
	<circle cx="254.385" cy="316.385" r="4" fill="#0" id="circle53"/>
	<circle cx="256.769" cy="99.3846" r="4" fill="#0" id="circle54"/>
	<circle cx="263.923" cy="457.077" r="4" fill="#0" id="circle55"/>
	<circle cx="266.308" cy="953.077" r="4" fill="#0" id="circle56"/>
	<circle cx="273.462" cy="433.231" r="4" fill="#0" id="circle57"/>
	<circle cx="275.846" cy="328.308" r="4" fill="#0" id="circle58"/>
	<circle cx="278.231" cy="929.231" r="4" fill="#0" id="circle59"/>
	<circle cx="280.615" cy="94.6154" r="4" fill="#0" id="circle60"/>
	<circle cx="292.538" cy="347.385" r="4" fill="#0" id="circle61"/>
	<circle cx="292.538" cy="414.154" r="4" fill="#0" id="circle62"/>
	<circle cx="292.538" cy="864.846" r="4" fill="#0" id="circle63"/>
	<circle cx="292.538" cy="888.692" r="4" fill="#0" id="circle64"/>
	<circle cx="304.462" cy="94.6154" r="4" fill="#0" id="circle65"/>
	<circle cx="304.462" cy="519.077" r="4" fill="#0" id="circle66"/>
	<circle cx="304.462" cy="542.923" r="4" fill="#0" id="circle67"/>
	<circle cx="304.462" cy="566.769" r="4" fill="#0" id="circle68"/>
	<circle cx="304.462" cy="590.615" r="4" fill="#0" id="circle69"/>
	<circle cx="304.462" cy="614.462" r="4" fill="#0" id="circle70"/>
	<circle cx="304.462" cy="829.077" r="4" fill="#0" id="circle71"/>
	<circle cx="316.385" cy="356.923" r="4" fill="#0" id="circle72"/>
	<circle cx="316.385" cy="402.231" r="4" fill="#0" id="circle73"/>
	<circle cx="316.385" cy="635.923" r="4" fill="#0" id="circle74"/>
	<circle cx="316.385" cy="659.769" r="4" fill="#0" id="circle75"/>
	<circle cx="316.385" cy="683.615" r="4" fill="#0" id="circle76"/>
	<circle cx="316.385" cy="707.462" r="4" fill="#0" id="circle77"/>
	<circle cx="316.385" cy="731.308" r="4" fill="#0" id="circle78"/>
	<circle cx="316.385" cy="755.154" r="4" fill="#0" id="circle79"/>
	<circle cx="316.385" cy="779" r="4" fill="#0" id="circle80"/>
	<circle cx="316.385" cy="802.846" r="4" fill="#0" id="circle81"/>
	<circle cx="328.308" cy="94.6154" r="4" fill="#0" id="circle82"/>
	<circle cx="328.308" cy="519.077" r="4" fill="#0" id="circle83"/>
	<circle cx="337.846" cy="368.846" r="4" fill="#0" id="circle84"/>
	<circle cx="340.231" cy="392.692" r="4" fill="#0" id="circle85"/>
	<circle cx="349.769" cy="106.538" r="4" fill="#0" id="circle86"/>
	<circle cx="349.769" cy="507.154" r="4" fill="#0" id="circle87"/>
	<circle cx="373.615" cy="111.308" r="4" fill="#0" id="circle88"/>
	<circle cx="373.615" cy="511.923" r="4" fill="#0" id="circle89"/>
	<circle cx="395.077" cy="123.231" r="4" fill="#0" id="circle90"/>
	<circle cx="397.462" cy="511.923" r="4" fill="#0" id="circle91"/>
	<circle cx="418.923" cy="123.231" r="4" fill="#0" id="circle92"/>
	<circle cx="421.308" cy="500" r="4" fill="#0" id="circle93"/>
	<circle cx="440.385" cy="111.308" r="4" fill="#0" id="circle94"/>
	<circle cx="445.154" cy="500" r="4" fill="#0" id="circle95"/>
	<circle cx="461.846" cy="123.231" r="4" fill="#0" id="circle96"/>
	<circle cx="469" cy="488.077" r="4" fill="#0" id="circle97"/>
	<circle cx="483.308" cy="135.154" r="4" fill="#0" id="circle98"/>
	<circle cx="492.846" cy="488.077" r="4" fill="#0" id="circle99"/>
	<circle cx="504.769" cy="535.769" r="4" fill="#0" id="circle100"/>
	<circle cx="507.154" cy="135.154" r="4" fill="#0" id="circle101"/>
	<circle cx="511.923" cy="471.385" r="4" fill="#0" id="circle102"/>
	<circle cx="516.692" cy="511.923" r="4" fill="#0" id="circle103"/>
	<circle cx="516.692" cy="557.231" r="4" fill="#0" id="circle104"/>
	<circle cx="528.615" cy="147.077" r="4" fill="#0" id="circle105"/>
	<circle cx="528.615" cy="490.462" r="4" fill="#0" id="circle106"/>
	<circle cx="528.615" cy="578.692" r="4" fill="#0" id="circle107"/>
	<circle cx="540.538" cy="600.154" r="4" fill="#0" id="circle108"/>
	<circle cx="545.308" cy="624" r="4" fill="#0" id="circle109"/>
	<circle cx="547.692" cy="161.385" r="4" fill="#0" id="circle110"/>
	<circle cx="557.231" cy="645.462" r="4" fill="#0" id="circle111"/>
	<circle cx="566.769" cy="178.077" r="4" fill="#0" id="circle112"/>
	<circle cx="576.308" cy="662.154" r="4" fill="#0" id="circle113"/>
	<circle cx="583.462" cy="197.154" r="4" fill="#0" id="circle114"/>
	<circle cx="590.615" cy="681.231" r="4" fill="#0" id="circle115"/>
	<circle cx="602.538" cy="213.846" r="4" fill="#0" id="circle116"/>
	<circle cx="609.692" cy="697.923" r="4" fill="#0" id="circle117"/>
	<circle cx="619.231" cy="232.923" r="4" fill="#0" id="circle118"/>
	<circle cx="631.154" cy="709.846" r="4" fill="#0" id="circle119"/>
	<circle cx="638.308" cy="249.615" r="4" fill="#0" id="circle120"/>
	<circle cx="643.077" cy="731.308" r="4" fill="#0" id="circle121"/>
	<circle cx="655" cy="268.692" r="4" fill="#0" id="circle122"/>
	<circle cx="659.769" cy="750.385" r="4" fill="#0" id="circle123"/>
	<circle cx="662.154" cy="292.538" r="4" fill="#0" id="circle124"/>
	<circle cx="674.077" cy="314" r="4" fill="#0" id="circle125"/>
	<circle cx="674.077" cy="337.846" r="4" fill="#0" id="circle126"/>
	<circle cx="674.077" cy="361.692" r="4" fill="#0" id="circle127"/>
	<circle cx="674.077" cy="385.538" r="4" fill="#0" id="circle128"/>
	<circle cx="674.077" cy="409.385" r="4" fill="#0" id="circle129"/>
	<circle cx="674.077" cy="433.231" r="4" fill="#0" id="circle130"/>
	<circle cx="674.077" cy="457.077" r="4" fill="#0" id="circle131"/>
	<circle cx="674.077" cy="480.923" r="4" fill="#0" id="circle132"/>
	<circle cx="674.077" cy="504.769" r="4" fill="#0" id="circle133"/>
	<circle cx="674.077" cy="528.615" r="4" fill="#0" id="circle134"/>
	<circle cx="674.077" cy="552.462" r="4" fill="#0" id="circle135"/>
	<circle cx="674.077" cy="576.308" r="4" fill="#0" id="circle136"/>
	<circle cx="674.077" cy="600.154" r="4" fill="#0" id="circle137"/>
	<circle cx="683.615" cy="757.538" r="4" fill="#0" id="circle138"/>
	<circle cx="690.769" cy="781.385" r="4" fill="#0" id="circle139"/>
	<circle cx="693.154" cy="614.462" r="4" fill="#0" id="circle140"/>
	<circle cx="714.615" cy="626.385" r="4" fill="#0" id="circle141"/>
	<circle cx="714.615" cy="790.923" r="4" fill="#0" id="circle142"/>
	<circle cx="731.308" cy="810" r="4" fill="#0" id="circle143"/>
	<circle cx="738.462" cy="635.923" r="4" fill="#0" id="circle144"/>
	<circle cx="755.154" cy="655" r="4" fill="#0" id="circle145"/>
	<circle cx="755.154" cy="817.154" r="4" fill="#0" id="circle146"/>
	<circle cx="774.231" cy="671.692" r="4" fill="#0" id="circle147"/>
	<circle cx="776.615" cy="829.077" r="4" fill="#0" id="circle148"/>
	<circle cx="781.385" cy="695.538" r="4" fill="#0" id="circle149"/>
	<circle cx="798.077" cy="841" r="4" fill="#0" id="circle150"/>
	<circle cx="800.462" cy="709.846" r="4" fill="#0" id="circle151"/>
	<circle cx="817.154" cy="728.923" r="4" fill="#0" id="circle152"/>
	<circle cx="817.154" cy="857.692" r="4" fill="#0" id="circle153"/>
	<circle cx="833.846" cy="876.769" r="4" fill="#0" id="circle154"/>
	<circle cx="836.231" cy="745.615" r="4" fill="#0" id="circle155"/>
	<circle cx="852.923" cy="764.692" r="4" fill="#0" id="circle156"/>
	<circle cx="852.923" cy="893.462" r="4" fill="#0" id="circle157"/>
	<circle cx="872" cy="781.385" r="4" fill="#0" id="circle158"/>
	<circle cx="874.385" cy="905.385" r="4" fill="#0" id="circle159"/>
	<circle cx="886.308" cy="926.846" r="4" fill="#0" id="circle160"/>
	<circle cx="886.308" cy="950.692" r="4" fill="#0" id="circle161"/>
	<circle cx="895.846" cy="781.385" r="4" fill="#0" id="circle162"/>
	<circle cx="898.231" cy="972.154" r="4" fill="#0" id="circle163"/>
	<circle cx="912.538" cy="800.462" r="4" fill="#0" id="circle164"/>
	<circle cx="919.692" cy="984.077" r="4" fill="#0" id="circle165"/>
	<circle cx="936.385" cy="802.846" r="4" fill="#0" id="circle166"/>
	<circle cx="941.154" cy="996" r="4" fill="#0" id="circle167"/>
	<circle cx="955.462" cy="817.154" r="4" fill="#0" id="circle168"/>
	<circle cx="965" cy="993.615" r="4" fill="#0" id="circle169"/>
	<circle cx="972.154" cy="836.231" r="4" fill="#0" id="circle170"/>
	<circle cx="972.154" cy="860.077" r="4" fill="#0" id="circle171"/>
	<circle cx="984.077" cy="881.538" r="4" fill="#0" id="circle172"/>
	<circle cx="984.077" cy="905.385" r="4" fill="#0" id="circle173"/>
	<circle cx="984.077" cy="960.231" r="4" fill="#0" id="circle174"/>
	<circle cx="996" cy="926.846" r="4" fill="#0" id="circle175"/>
	</g>
</svg>