<?xml version="1.0" encoding="UTF-8" standalone="no"?>
<!-- Created with CurveBenchmark -->
<svg
	xmlns:dc="http://purl.org/dc/elements/1.1/"
	xmlns:cc="http://creativecommons.org/ns#"
	xmlns:rdf="http://www.w3.org/1999/02/22-rdf-syntax-ns#"
	xmlns:svg="http://www.w3.org/2000/svg"
	xmlns="http://www.w3.org/2000/svg"
	xmlns:sodipodi="http://sodipodi.sourceforge.net/DTD/sodipodi-0.dtd"
	xmlns:inkscape="http://www.inkscape.org/namespaces/inkscape"
	width="1000"
	height="1000"
	id="svg2"
	version="1.1"
	sodipodi:docname="manifold/ccrust-hammer-15.png.txt">
<defs
	id="defs4" />
<metadata
	id="metadata7">
	<rdf:RDF>
		<cc:Work
			rdf:about="">
			<dc:format>image/svg+xml</dc:format>
			<dc:type
				rdf:resource="http://purl.org/dc/dcmitype/StillImage" />
			<dc:title></dc:title>
		</cc:Work>
	</rdf:RDF>
</metadata>
<g
	inkscape:label="Layer 1"
	inkscape:groupmode="layer"
	id="layer1">
	<path style="fill:none;stroke:red;stroke-width:1px;stroke-linecap:butt;stroke-linejoin:miter;stroke-opacity:1" d="M 75.9234,187.201 85.4227,170.917 z" id="boundary" inkscape:connector-curvature="0" />
	<path style="fill:none;stroke:red;stroke-width:1px;stroke-linecap:butt;stroke-linejoin:miter;stroke-opacity:1" d="M 85.4227,170.917 96.2791,160.06 z" id="boundary" inkscape:connector-curvature="0" />
	<path style="fill:none;stroke:red;stroke-width:1px;stroke-linecap:butt;stroke-linejoin:miter;stroke-opacity:1" d="M 75.9234,187.201 65.067,198.057 z" id="boundary" inkscape:connector-curvature="0" />
	<path style="fill:none;stroke:red;stroke-width:1px;stroke-linecap:butt;stroke-linejoin:miter;stroke-opacity:1" d="M 41.9973,248.268 48.7825,234.698 z" id="boundary" inkscape:connector-curvature="0" />
	<path style="fill:none;stroke:red;stroke-width:1px;stroke-linecap:butt;stroke-linejoin:miter;stroke-opacity:1" d="M 58.2818,218.413 65.067,198.057 z" id="boundary" inkscape:connector-curvature="0" />
	<path style="fill:none;stroke:red;stroke-width:1px;stroke-linecap:butt;stroke-linejoin:miter;stroke-opacity:1" d="M 58.2818,218.413 48.7825,234.698 z" id="boundary" inkscape:connector-curvature="0" />
	<path style="fill:none;stroke:red;stroke-width:1px;stroke-linecap:butt;stroke-linejoin:miter;stroke-opacity:1" d="M 41.9973,248.268 31.1409,259.124 z" id="boundary" inkscape:connector-curvature="0" />
	<path style="fill:none;stroke:red;stroke-width:1px;stroke-linecap:butt;stroke-linejoin:miter;stroke-opacity:1" d="M 179.059,98.9932 168.202,108.492 z" id="boundary" inkscape:connector-curvature="0" />
	<path style="fill:none;stroke:red;stroke-width:1px;stroke-linecap:butt;stroke-linejoin:miter;stroke-opacity:1" d="M 168.202,108.492 154.632,115.278 z" id="boundary" inkscape:connector-curvature="0" />
	<path style="fill:none;stroke:red;stroke-width:1px;stroke-linecap:butt;stroke-linejoin:miter;stroke-opacity:1" d="M 154.632,115.278 141.062,122.063 z" id="boundary" inkscape:connector-curvature="0" />
	<path style="fill:none;stroke:red;stroke-width:1px;stroke-linecap:butt;stroke-linejoin:miter;stroke-opacity:1" d="M 107.135,149.204 117.992,139.705 z" id="boundary" inkscape:connector-curvature="0" />
	<path style="fill:none;stroke:red;stroke-width:1px;stroke-linecap:butt;stroke-linejoin:miter;stroke-opacity:1" d="M 117.992,139.705 130.205,132.919 z" id="boundary" inkscape:connector-curvature="0" />
	<path style="fill:none;stroke:red;stroke-width:1px;stroke-linecap:butt;stroke-linejoin:miter;stroke-opacity:1" d="M 130.205,132.919 141.062,122.063 z" id="boundary" inkscape:connector-curvature="0" />
	<path style="fill:none;stroke:red;stroke-width:1px;stroke-linecap:butt;stroke-linejoin:miter;stroke-opacity:1" d="M 96.2791,160.06 107.135,149.204 z" id="boundary" inkscape:connector-curvature="0" />
	<path style="fill:none;stroke:red;stroke-width:1px;stroke-linecap:butt;stroke-linejoin:miter;stroke-opacity:1" d="M 31.1409,259.124 24.3557,279.48 z" id="boundary" inkscape:connector-curvature="0" />
	<path style="fill:none;stroke:red;stroke-width:1px;stroke-linecap:butt;stroke-linejoin:miter;stroke-opacity:1" d="M 24.3557,279.48 17.5705,293.051 z" id="boundary" inkscape:connector-curvature="0" />
	<path style="fill:none;stroke:red;stroke-width:1px;stroke-linecap:butt;stroke-linejoin:miter;stroke-opacity:1" d="M 4,333.762 10.7852,313.406 z" id="boundary" inkscape:connector-curvature="0" />
	<path style="fill:none;stroke:red;stroke-width:1px;stroke-linecap:butt;stroke-linejoin:miter;stroke-opacity:1" d="M 10.7852,313.406 17.5705,293.051 z" id="boundary" inkscape:connector-curvature="0" />
	<path style="fill:none;stroke:red;stroke-width:1px;stroke-linecap:butt;stroke-linejoin:miter;stroke-opacity:1" d="M 93.565,324.263 81.3516,331.048 z" id="boundary" inkscape:connector-curvature="0" />
	<path style="fill:none;stroke:red;stroke-width:1px;stroke-linecap:butt;stroke-linejoin:miter;stroke-opacity:1" d="M 81.3516,331.048 67.7811,331.048 z" id="boundary" inkscape:connector-curvature="0" />
	<path style="fill:none;stroke:red;stroke-width:1px;stroke-linecap:butt;stroke-linejoin:miter;stroke-opacity:1" d="M 55.5677,337.833 67.7811,331.048 z" id="boundary" inkscape:connector-curvature="0" />
	<path style="fill:none;stroke:red;stroke-width:1px;stroke-linecap:butt;stroke-linejoin:miter;stroke-opacity:1" d="M 146.49,317.477 132.919,317.477 z" id="boundary" inkscape:connector-curvature="0" />
	<path style="fill:none;stroke:red;stroke-width:1px;stroke-linecap:butt;stroke-linejoin:miter;stroke-opacity:1" d="M 158.703,310.692 146.49,317.477 z" id="boundary" inkscape:connector-curvature="0" />
	<path style="fill:none;stroke:red;stroke-width:1px;stroke-linecap:butt;stroke-linejoin:miter;stroke-opacity:1" d="M 107.135,324.263 93.565,324.263 z" id="boundary" inkscape:connector-curvature="0" />
	<path style="fill:none;stroke:red;stroke-width:1px;stroke-linecap:butt;stroke-linejoin:miter;stroke-opacity:1" d="M 158.703,310.692 172.274,310.692 z" id="boundary" inkscape:connector-curvature="0" />
	<path style="fill:none;stroke:red;stroke-width:1px;stroke-linecap:butt;stroke-linejoin:miter;stroke-opacity:1" d="M 172.274,310.692 185.844,310.692 z" id="boundary" inkscape:connector-curvature="0" />
	<path style="fill:none;stroke:red;stroke-width:1px;stroke-linecap:butt;stroke-linejoin:miter;stroke-opacity:1" d="M 120.706,324.263 107.135,324.263 z" id="boundary" inkscape:connector-curvature="0" />
	<path style="fill:none;stroke:red;stroke-width:1px;stroke-linecap:butt;stroke-linejoin:miter;stroke-opacity:1" d="M 132.919,317.477 120.706,324.263 z" id="boundary" inkscape:connector-curvature="0" />
	<path style="fill:none;stroke:red;stroke-width:1px;stroke-linecap:butt;stroke-linejoin:miter;stroke-opacity:1" d="M 198.057,303.907 185.844,310.692 z" id="boundary" inkscape:connector-curvature="0" />
	<path style="fill:none;stroke:red;stroke-width:1px;stroke-linecap:butt;stroke-linejoin:miter;stroke-opacity:1" d="M 179.059,98.9932 191.272,92.2079 z" id="boundary" inkscape:connector-curvature="0" />
	<path style="fill:none;stroke:red;stroke-width:1px;stroke-linecap:butt;stroke-linejoin:miter;stroke-opacity:1" d="M 279.48,44.7114 293.051,37.9261 z" id="boundary" inkscape:connector-curvature="0" />
	<path style="fill:none;stroke:red;stroke-width:1px;stroke-linecap:butt;stroke-linejoin:miter;stroke-opacity:1" d="M 293.051,37.9261 306.621,37.9261 z" id="boundary" inkscape:connector-curvature="0" />
	<path style="fill:none;stroke:red;stroke-width:1px;stroke-linecap:butt;stroke-linejoin:miter;stroke-opacity:1" d="M 265.91,51.4966 279.48,44.7114 z" id="boundary" inkscape:connector-curvature="0" />
	<path style="fill:none;stroke:red;stroke-width:1px;stroke-linecap:butt;stroke-linejoin:miter;stroke-opacity:1" d="M 227.912,69.1382 238.769,58.2818 z" id="boundary" inkscape:connector-curvature="0" />
	<path style="fill:none;stroke:red;stroke-width:1px;stroke-linecap:butt;stroke-linejoin:miter;stroke-opacity:1" d="M 238.769,58.2818 252.339,58.2818 z" id="boundary" inkscape:connector-curvature="0" />
	<path style="fill:none;stroke:red;stroke-width:1px;stroke-linecap:butt;stroke-linejoin:miter;stroke-opacity:1" d="M 227.912,69.1382 214.342,75.9234 z" id="boundary" inkscape:connector-curvature="0" />
	<path style="fill:none;stroke:red;stroke-width:1px;stroke-linecap:butt;stroke-linejoin:miter;stroke-opacity:1" d="M 252.339,58.2818 265.91,51.4966 z" id="boundary" inkscape:connector-curvature="0" />
	<path style="fill:none;stroke:red;stroke-width:1px;stroke-linecap:butt;stroke-linejoin:miter;stroke-opacity:1" d="M 306.621,37.9261 320.192,37.9261 z" id="boundary" inkscape:connector-curvature="0" />
	<path style="fill:none;stroke:red;stroke-width:1px;stroke-linecap:butt;stroke-linejoin:miter;stroke-opacity:1" d="M 332.405,31.1409 345.975,31.1409 z" id="boundary" inkscape:connector-curvature="0" />
	<path style="fill:none;stroke:red;stroke-width:1px;stroke-linecap:butt;stroke-linejoin:miter;stroke-opacity:1" d="M 320.192,37.9261 332.405,31.1409 z" id="boundary" inkscape:connector-curvature="0" />
	<path style="fill:none;stroke:red;stroke-width:1px;stroke-linecap:butt;stroke-linejoin:miter;stroke-opacity:1" d="M 359.546,31.1409 345.975,31.1409 z" id="boundary" inkscape:connector-curvature="0" />
	<path style="fill:none;stroke:red;stroke-width:1px;stroke-linecap:butt;stroke-linejoin:miter;stroke-opacity:1" d="M 359.546,31.1409 373.116,31.1409 z" id="boundary" inkscape:connector-curvature="0" />
	<path style="fill:none;stroke:red;stroke-width:1px;stroke-linecap:butt;stroke-linejoin:miter;stroke-opacity:1" d="M 373.116,31.1409 386.687,31.1409 z" id="boundary" inkscape:connector-curvature="0" />
	<path style="fill:none;stroke:red;stroke-width:1px;stroke-linecap:butt;stroke-linejoin:miter;stroke-opacity:1" d="M 400.257,31.1409 386.687,31.1409 z" id="boundary" inkscape:connector-curvature="0" />
	<path style="fill:none;stroke:red;stroke-width:1px;stroke-linecap:butt;stroke-linejoin:miter;stroke-opacity:1" d="M 214.342,75.9234 203.486,85.4227 z" id="boundary" inkscape:connector-curvature="0" />
	<path style="fill:none;stroke:red;stroke-width:1px;stroke-linecap:butt;stroke-linejoin:miter;stroke-opacity:1" d="M 203.486,85.4227 191.272,92.2079 z" id="boundary" inkscape:connector-curvature="0" />
	<path style="fill:none;stroke:red;stroke-width:1px;stroke-linecap:butt;stroke-linejoin:miter;stroke-opacity:1" d="M 211.628,303.907 225.198,303.907 z" id="boundary" inkscape:connector-curvature="0" />
	<path style="fill:none;stroke:red;stroke-width:1px;stroke-linecap:butt;stroke-linejoin:miter;stroke-opacity:1" d="M 211.628,303.907 198.057,303.907 z" id="boundary" inkscape:connector-curvature="0" />
	<path style="fill:none;stroke:red;stroke-width:1px;stroke-linecap:butt;stroke-linejoin:miter;stroke-opacity:1" d="M 225.198,303.907 238.769,303.907 z" id="boundary" inkscape:connector-curvature="0" />
	<path style="fill:none;stroke:red;stroke-width:1px;stroke-linecap:butt;stroke-linejoin:miter;stroke-opacity:1" d="M 250.982,297.122 238.769,303.907 z" id="boundary" inkscape:connector-curvature="0" />
	<path style="fill:none;stroke:red;stroke-width:1px;stroke-linecap:butt;stroke-linejoin:miter;stroke-opacity:1" d="M 264.553,297.122 250.982,297.122 z" id="boundary" inkscape:connector-curvature="0" />
	<path style="fill:none;stroke:red;stroke-width:1px;stroke-linecap:butt;stroke-linejoin:miter;stroke-opacity:1" d="M 278.123,297.122 291.694,297.122 z" id="boundary" inkscape:connector-curvature="0" />
	<path style="fill:none;stroke:red;stroke-width:1px;stroke-linecap:butt;stroke-linejoin:miter;stroke-opacity:1" d="M 278.123,297.122 264.553,297.122 z" id="boundary" inkscape:connector-curvature="0" />
	<path style="fill:none;stroke:red;stroke-width:1px;stroke-linecap:butt;stroke-linejoin:miter;stroke-opacity:1" d="M 305.264,297.122 316.12,305.264 z" id="boundary" inkscape:connector-curvature="0" />
	<path style="fill:none;stroke:red;stroke-width:1px;stroke-linecap:butt;stroke-linejoin:miter;stroke-opacity:1" d="M 316.12,305.264 316.12,318.834 z" id="boundary" inkscape:connector-curvature="0" />
	<path style="fill:none;stroke:red;stroke-width:1px;stroke-linecap:butt;stroke-linejoin:miter;stroke-opacity:1" d="M 305.264,297.122 291.694,297.122 z" id="boundary" inkscape:connector-curvature="0" />
	<path style="fill:none;stroke:red;stroke-width:1px;stroke-linecap:butt;stroke-linejoin:miter;stroke-opacity:1" d="M 316.12,318.834 316.12,332.405 z" id="boundary" inkscape:connector-curvature="0" />
	<path style="fill:none;stroke:red;stroke-width:1px;stroke-linecap:butt;stroke-linejoin:miter;stroke-opacity:1" d="M 316.12,345.975 316.12,332.405 z" id="boundary" inkscape:connector-curvature="0" />
	<path style="fill:none;stroke:red;stroke-width:1px;stroke-linecap:butt;stroke-linejoin:miter;stroke-opacity:1" d="M 29.7839,344.618 41.9973,337.833 z" id="boundary" inkscape:connector-curvature="0" />
	<path style="fill:none;stroke:red;stroke-width:1px;stroke-linecap:butt;stroke-linejoin:miter;stroke-opacity:1" d="M 41.9973,337.833 55.5677,337.833 z" id="boundary" inkscape:connector-curvature="0" />
	<path style="fill:none;stroke:red;stroke-width:1px;stroke-linecap:butt;stroke-linejoin:miter;stroke-opacity:1" d="M 29.7839,344.618 17.5705,351.404 z" id="boundary" inkscape:connector-curvature="0" />
	<path style="fill:none;stroke:red;stroke-width:1px;stroke-linecap:butt;stroke-linejoin:miter;stroke-opacity:1" d="M 4,347.332 17.5705,351.404 z" id="boundary" inkscape:connector-curvature="0" />
	<path style="fill:none;stroke:red;stroke-width:1px;stroke-linecap:butt;stroke-linejoin:miter;stroke-opacity:1" d="M 4,347.332 4,333.762 z" id="boundary" inkscape:connector-curvature="0" />
	<path style="fill:none;stroke:red;stroke-width:1px;stroke-linecap:butt;stroke-linejoin:miter;stroke-opacity:1" d="M 316.12,359.546 316.12,345.975 z" id="boundary" inkscape:connector-curvature="0" />
	<path style="fill:none;stroke:red;stroke-width:1px;stroke-linecap:butt;stroke-linejoin:miter;stroke-opacity:1" d="M 316.12,359.546 316.12,373.116 z" id="boundary" inkscape:connector-curvature="0" />
	<path style="fill:none;stroke:red;stroke-width:1px;stroke-linecap:butt;stroke-linejoin:miter;stroke-opacity:1" d="M 316.12,373.116 316.12,386.687 z" id="boundary" inkscape:connector-curvature="0" />
	<path style="fill:none;stroke:red;stroke-width:1px;stroke-linecap:butt;stroke-linejoin:miter;stroke-opacity:1" d="M 316.12,386.687 316.12,400.257 z" id="boundary" inkscape:connector-curvature="0" />
	<path style="fill:none;stroke:red;stroke-width:1px;stroke-linecap:butt;stroke-linejoin:miter;stroke-opacity:1" d="M 316.12,400.257 316.12,413.828 z" id="boundary" inkscape:connector-curvature="0" />
	<path style="fill:none;stroke:red;stroke-width:1px;stroke-linecap:butt;stroke-linejoin:miter;stroke-opacity:1" d="M 316.12,427.398 316.12,440.969 z" id="boundary" inkscape:connector-curvature="0" />
	<path style="fill:none;stroke:red;stroke-width:1px;stroke-linecap:butt;stroke-linejoin:miter;stroke-opacity:1" d="M 316.12,427.398 316.12,413.828 z" id="boundary" inkscape:connector-curvature="0" />
	<path style="fill:none;stroke:red;stroke-width:1px;stroke-linecap:butt;stroke-linejoin:miter;stroke-opacity:1" d="M 316.12,454.539 316.12,468.109 z" id="boundary" inkscape:connector-curvature="0" />
	<path style="fill:none;stroke:red;stroke-width:1px;stroke-linecap:butt;stroke-linejoin:miter;stroke-opacity:1" d="M 316.12,454.539 316.12,440.969 z" id="boundary" inkscape:connector-curvature="0" />
	<path style="fill:none;stroke:red;stroke-width:1px;stroke-linecap:butt;stroke-linejoin:miter;stroke-opacity:1" d="M 316.12,468.109 316.12,481.68 z" id="boundary" inkscape:connector-curvature="0" />
	<path style="fill:none;stroke:red;stroke-width:1px;stroke-linecap:butt;stroke-linejoin:miter;stroke-opacity:1" d="M 316.12,481.68 316.12,495.25 z" id="boundary" inkscape:connector-curvature="0" />
	<path style="fill:none;stroke:red;stroke-width:1px;stroke-linecap:butt;stroke-linejoin:miter;stroke-opacity:1" d="M 316.12,495.25 316.12,508.821 z" id="boundary" inkscape:connector-curvature="0" />
	<path style="fill:none;stroke:red;stroke-width:1px;stroke-linecap:butt;stroke-linejoin:miter;stroke-opacity:1" d="M 316.12,522.391 316.12,508.821 z" id="boundary" inkscape:connector-curvature="0" />
	<path style="fill:none;stroke:red;stroke-width:1px;stroke-linecap:butt;stroke-linejoin:miter;stroke-opacity:1" d="M 316.12,535.962 316.12,549.532 z" id="boundary" inkscape:connector-curvature="0" />
	<path style="fill:none;stroke:red;stroke-width:1px;stroke-linecap:butt;stroke-linejoin:miter;stroke-opacity:1" d="M 316.12,563.103 316.12,549.532 z" id="boundary" inkscape:connector-curvature="0" />
	<path style="fill:none;stroke:red;stroke-width:1px;stroke-linecap:butt;stroke-linejoin:miter;stroke-opacity:1" d="M 316.12,522.391 316.12,535.962 z" id="boundary" inkscape:connector-curvature="0" />
	<path style="fill:none;stroke:red;stroke-width:1px;stroke-linecap:butt;stroke-linejoin:miter;stroke-opacity:1" d="M 316.12,563.103 316.12,576.673 z" id="boundary" inkscape:connector-curvature="0" />
	<path style="fill:none;stroke:red;stroke-width:1px;stroke-linecap:butt;stroke-linejoin:miter;stroke-opacity:1" d="M 316.12,590.244 316.12,576.673 z" id="boundary" inkscape:connector-curvature="0" />
	<path style="fill:none;stroke:red;stroke-width:1px;stroke-linecap:butt;stroke-linejoin:miter;stroke-opacity:1" d="M 316.12,590.244 316.12,603.814 z" id="boundary" inkscape:connector-curvature="0" />
	<path style="fill:none;stroke:red;stroke-width:1px;stroke-linecap:butt;stroke-linejoin:miter;stroke-opacity:1" d="M 316.12,617.384 316.12,603.814 z" id="boundary" inkscape:connector-curvature="0" />
	<path style="fill:none;stroke:red;stroke-width:1px;stroke-linecap:butt;stroke-linejoin:miter;stroke-opacity:1" d="M 316.12,617.384 316.12,630.955 z" id="boundary" inkscape:connector-curvature="0" />
	<path style="fill:none;stroke:red;stroke-width:1px;stroke-linecap:butt;stroke-linejoin:miter;stroke-opacity:1" d="M 316.12,644.525 316.12,630.955 z" id="boundary" inkscape:connector-curvature="0" />
	<path style="fill:none;stroke:red;stroke-width:1px;stroke-linecap:butt;stroke-linejoin:miter;stroke-opacity:1" d="M 316.12,644.525 316.12,658.096 z" id="boundary" inkscape:connector-curvature="0" />
	<path style="fill:none;stroke:red;stroke-width:1px;stroke-linecap:butt;stroke-linejoin:miter;stroke-opacity:1" d="M 316.12,671.666 316.12,658.096 z" id="boundary" inkscape:connector-curvature="0" />
	<path style="fill:none;stroke:red;stroke-width:1px;stroke-linecap:butt;stroke-linejoin:miter;stroke-opacity:1" d="M 316.12,671.666 316.12,685.237 z" id="boundary" inkscape:connector-curvature="0" />
	<path style="fill:none;stroke:red;stroke-width:1px;stroke-linecap:butt;stroke-linejoin:miter;stroke-opacity:1" d="M 316.12,698.807 316.12,685.237 z" id="boundary" inkscape:connector-curvature="0" />
	<path style="fill:none;stroke:red;stroke-width:1px;stroke-linecap:butt;stroke-linejoin:miter;stroke-opacity:1" d="M 316.12,712.378 316.12,698.807 z" id="boundary" inkscape:connector-curvature="0" />
	<path style="fill:none;stroke:red;stroke-width:1px;stroke-linecap:butt;stroke-linejoin:miter;stroke-opacity:1" d="M 316.12,712.378 316.12,725.948 z" id="boundary" inkscape:connector-curvature="0" />
	<path style="fill:none;stroke:red;stroke-width:1px;stroke-linecap:butt;stroke-linejoin:miter;stroke-opacity:1" d="M 316.12,739.518 316.12,725.948 z" id="boundary" inkscape:connector-curvature="0" />
	<path style="fill:none;stroke:red;stroke-width:1px;stroke-linecap:butt;stroke-linejoin:miter;stroke-opacity:1" d="M 316.12,739.518 316.12,753.089 z" id="boundary" inkscape:connector-curvature="0" />
	<path style="fill:none;stroke:red;stroke-width:1px;stroke-linecap:butt;stroke-linejoin:miter;stroke-opacity:1" d="M 316.12,766.659 316.12,753.089 z" id="boundary" inkscape:connector-curvature="0" />
	<path style="fill:none;stroke:red;stroke-width:1px;stroke-linecap:butt;stroke-linejoin:miter;stroke-opacity:1" d="M 316.12,766.659 316.12,780.23 z" id="boundary" inkscape:connector-curvature="0" />
	<path style="fill:none;stroke:red;stroke-width:1px;stroke-linecap:butt;stroke-linejoin:miter;stroke-opacity:1" d="M 316.12,793.8 316.12,780.23 z" id="boundary" inkscape:connector-curvature="0" />
	<path style="fill:none;stroke:red;stroke-width:1px;stroke-linecap:butt;stroke-linejoin:miter;stroke-opacity:1" d="M 316.12,793.8 316.12,807.371 z" id="boundary" inkscape:connector-curvature="0" />
	<path style="fill:none;stroke:red;stroke-width:1px;stroke-linecap:butt;stroke-linejoin:miter;stroke-opacity:1" d="M 316.12,820.941 316.12,807.371 z" id="boundary" inkscape:connector-curvature="0" />
	<path style="fill:none;stroke:red;stroke-width:1px;stroke-linecap:butt;stroke-linejoin:miter;stroke-opacity:1" d="M 316.12,820.941 316.12,834.512 z" id="boundary" inkscape:connector-curvature="0" />
	<path style="fill:none;stroke:red;stroke-width:1px;stroke-linecap:butt;stroke-linejoin:miter;stroke-opacity:1" d="M 316.12,848.082 316.12,834.512 z" id="boundary" inkscape:connector-curvature="0" />
	<path style="fill:none;stroke:red;stroke-width:1px;stroke-linecap:butt;stroke-linejoin:miter;stroke-opacity:1" d="M 316.12,848.082 316.12,861.653 z" id="boundary" inkscape:connector-curvature="0" />
	<path style="fill:none;stroke:red;stroke-width:1px;stroke-linecap:butt;stroke-linejoin:miter;stroke-opacity:1" d="M 316.12,875.223 316.12,861.653 z" id="boundary" inkscape:connector-curvature="0" />
	<path style="fill:none;stroke:red;stroke-width:1px;stroke-linecap:butt;stroke-linejoin:miter;stroke-opacity:1" d="M 316.12,875.223 316.12,888.793 z" id="boundary" inkscape:connector-curvature="0" />
	<path style="fill:none;stroke:red;stroke-width:1px;stroke-linecap:butt;stroke-linejoin:miter;stroke-opacity:1" d="M 316.12,902.364 316.12,888.793 z" id="boundary" inkscape:connector-curvature="0" />
	<path style="fill:none;stroke:red;stroke-width:1px;stroke-linecap:butt;stroke-linejoin:miter;stroke-opacity:1" d="M 316.12,915.934 316.12,902.364 z" id="boundary" inkscape:connector-curvature="0" />
	<path style="fill:none;stroke:red;stroke-width:1px;stroke-linecap:butt;stroke-linejoin:miter;stroke-opacity:1" d="M 316.12,915.934 316.12,929.505 z" id="boundary" inkscape:connector-curvature="0" />
	<path style="fill:none;stroke:red;stroke-width:1px;stroke-linecap:butt;stroke-linejoin:miter;stroke-opacity:1" d="M 316.12,943.075 316.12,956.646 z" id="boundary" inkscape:connector-curvature="0" />
	<path style="fill:none;stroke:red;stroke-width:1px;stroke-linecap:butt;stroke-linejoin:miter;stroke-opacity:1" d="M 316.12,943.075 316.12,929.505 z" id="boundary" inkscape:connector-curvature="0" />
	<path style="fill:none;stroke:red;stroke-width:1px;stroke-linecap:butt;stroke-linejoin:miter;stroke-opacity:1" d="M 404.328,996 390.758,996 z" id="boundary" inkscape:connector-curvature="0" />
	<path style="fill:none;stroke:red;stroke-width:1px;stroke-linecap:butt;stroke-linejoin:miter;stroke-opacity:1" d="M 316.12,970.216 316.12,983.787 z" id="boundary" inkscape:connector-curvature="0" />
	<path style="fill:none;stroke:red;stroke-width:1px;stroke-linecap:butt;stroke-linejoin:miter;stroke-opacity:1" d="M 336.476,996 322.906,996 z" id="boundary" inkscape:connector-curvature="0" />
	<path style="fill:none;stroke:red;stroke-width:1px;stroke-linecap:butt;stroke-linejoin:miter;stroke-opacity:1" d="M 322.906,996 316.12,983.787 z" id="boundary" inkscape:connector-curvature="0" />
	<path style="fill:none;stroke:red;stroke-width:1px;stroke-linecap:butt;stroke-linejoin:miter;stroke-opacity:1" d="M 350.047,996 336.476,996 z" id="boundary" inkscape:connector-curvature="0" />
	<path style="fill:none;stroke:red;stroke-width:1px;stroke-linecap:butt;stroke-linejoin:miter;stroke-opacity:1" d="M 316.12,970.216 316.12,956.646 z" id="boundary" inkscape:connector-curvature="0" />
	<path style="fill:none;stroke:red;stroke-width:1px;stroke-linecap:butt;stroke-linejoin:miter;stroke-opacity:1" d="M 377.187,996 363.617,996 z" id="boundary" inkscape:connector-curvature="0" />
	<path style="fill:none;stroke:red;stroke-width:1px;stroke-linecap:butt;stroke-linejoin:miter;stroke-opacity:1" d="M 363.617,996 350.047,996 z" id="boundary" inkscape:connector-curvature="0" />
	<path style="fill:none;stroke:red;stroke-width:1px;stroke-linecap:butt;stroke-linejoin:miter;stroke-opacity:1" d="M 390.758,996 377.187,996 z" id="boundary" inkscape:connector-curvature="0" />
	<path style="fill:none;stroke:red;stroke-width:1px;stroke-linecap:butt;stroke-linejoin:miter;stroke-opacity:1" d="M 427.398,31.1409 413.828,31.1409 z" id="boundary" inkscape:connector-curvature="0" />
	<path style="fill:none;stroke:red;stroke-width:1px;stroke-linecap:butt;stroke-linejoin:miter;stroke-opacity:1" d="M 413.828,31.1409 400.257,31.1409 z" id="boundary" inkscape:connector-curvature="0" />
	<path style="fill:none;stroke:red;stroke-width:1px;stroke-linecap:butt;stroke-linejoin:miter;stroke-opacity:1" d="M 440.969,31.1409 427.398,31.1409 z" id="boundary" inkscape:connector-curvature="0" />
	<path style="fill:none;stroke:red;stroke-width:1px;stroke-linecap:butt;stroke-linejoin:miter;stroke-opacity:1" d="M 440.969,31.1409 454.539,31.1409 z" id="boundary" inkscape:connector-curvature="0" />
	<path style="fill:none;stroke:red;stroke-width:1px;stroke-linecap:butt;stroke-linejoin:miter;stroke-opacity:1" d="M 468.109,31.1409 481.68,31.1409 z" id="boundary" inkscape:connector-curvature="0" />
	<path style="fill:none;stroke:red;stroke-width:1px;stroke-linecap:butt;stroke-linejoin:miter;stroke-opacity:1" d="M 468.109,31.1409 454.539,31.1409 z" id="boundary" inkscape:connector-curvature="0" />
	<path style="fill:none;stroke:red;stroke-width:1px;stroke-linecap:butt;stroke-linejoin:miter;stroke-opacity:1" d="M 495.25,31.1409 481.68,31.1409 z" id="boundary" inkscape:connector-curvature="0" />
	<path style="fill:none;stroke:red;stroke-width:1px;stroke-linecap:butt;stroke-linejoin:miter;stroke-opacity:1" d="M 512.892,8.07114 526.462,4 z" id="boundary" inkscape:connector-curvature="0" />
	<path style="fill:none;stroke:red;stroke-width:1px;stroke-linecap:butt;stroke-linejoin:miter;stroke-opacity:1" d="M 508.821,31.1409 512.892,8.07114 z" id="boundary" inkscape:connector-curvature="0" />
	<path style="fill:none;stroke:red;stroke-width:1px;stroke-linecap:butt;stroke-linejoin:miter;stroke-opacity:1" d="M 526.462,4 540.033,4 z" id="boundary" inkscape:connector-curvature="0" />
	<path style="fill:none;stroke:red;stroke-width:1px;stroke-linecap:butt;stroke-linejoin:miter;stroke-opacity:1" d="M 553.603,4 567.174,4 z" id="boundary" inkscape:connector-curvature="0" />
	<path style="fill:none;stroke:red;stroke-width:1px;stroke-linecap:butt;stroke-linejoin:miter;stroke-opacity:1" d="M 567.174,4 580.744,4 z" id="boundary" inkscape:connector-curvature="0" />
	<path style="fill:none;stroke:red;stroke-width:1px;stroke-linecap:butt;stroke-linejoin:miter;stroke-opacity:1" d="M 540.033,4 553.603,4 z" id="boundary" inkscape:connector-curvature="0" />
	<path style="fill:none;stroke:red;stroke-width:1px;stroke-linecap:butt;stroke-linejoin:miter;stroke-opacity:1" d="M 580.744,4 594.315,4 z" id="boundary" inkscape:connector-curvature="0" />
	<path style="fill:none;stroke:red;stroke-width:1px;stroke-linecap:butt;stroke-linejoin:miter;stroke-opacity:1" d="M 493.893,303.907 480.323,303.907 z" id="boundary" inkscape:connector-curvature="0" />
	<path style="fill:none;stroke:red;stroke-width:1px;stroke-linecap:butt;stroke-linejoin:miter;stroke-opacity:1" d="M 508.821,31.1409 495.25,31.1409 z" id="boundary" inkscape:connector-curvature="0" />
	<path style="fill:none;stroke:red;stroke-width:1px;stroke-linecap:butt;stroke-linejoin:miter;stroke-opacity:1" d="M 480.323,317.477 480.323,331.048 z" id="boundary" inkscape:connector-curvature="0" />
	<path style="fill:none;stroke:red;stroke-width:1px;stroke-linecap:butt;stroke-linejoin:miter;stroke-opacity:1" d="M 507.464,303.907 493.893,303.907 z" id="boundary" inkscape:connector-curvature="0" />
	<path style="fill:none;stroke:red;stroke-width:1px;stroke-linecap:butt;stroke-linejoin:miter;stroke-opacity:1" d="M 480.323,317.477 480.323,303.907 z" id="boundary" inkscape:connector-curvature="0" />
	<path style="fill:none;stroke:red;stroke-width:1px;stroke-linecap:butt;stroke-linejoin:miter;stroke-opacity:1" d="M 507.464,303.907 512.892,317.477 z" id="boundary" inkscape:connector-curvature="0" />
	<path style="fill:none;stroke:red;stroke-width:1px;stroke-linecap:butt;stroke-linejoin:miter;stroke-opacity:1" d="M 512.892,317.477 516.963,331.048 z" id="boundary" inkscape:connector-curvature="0" />
	<path style="fill:none;stroke:red;stroke-width:1px;stroke-linecap:butt;stroke-linejoin:miter;stroke-opacity:1" d="M 530.534,331.048 516.963,331.048 z" id="boundary" inkscape:connector-curvature="0" />
	<path style="fill:none;stroke:red;stroke-width:1px;stroke-linecap:butt;stroke-linejoin:miter;stroke-opacity:1" d="M 530.534,331.048 544.104,331.048 z" id="boundary" inkscape:connector-curvature="0" />
	<path style="fill:none;stroke:red;stroke-width:1px;stroke-linecap:butt;stroke-linejoin:miter;stroke-opacity:1" d="M 557.674,331.048 571.245,331.048 z" id="boundary" inkscape:connector-curvature="0" />
	<path style="fill:none;stroke:red;stroke-width:1px;stroke-linecap:butt;stroke-linejoin:miter;stroke-opacity:1" d="M 557.674,331.048 544.104,331.048 z" id="boundary" inkscape:connector-curvature="0" />
	<path style="fill:none;stroke:red;stroke-width:1px;stroke-linecap:butt;stroke-linejoin:miter;stroke-opacity:1" d="M 584.815,331.048 598.386,331.048 z" id="boundary" inkscape:connector-curvature="0" />
	<path style="fill:none;stroke:red;stroke-width:1px;stroke-linecap:butt;stroke-linejoin:miter;stroke-opacity:1" d="M 584.815,331.048 571.245,331.048 z" id="boundary" inkscape:connector-curvature="0" />
	<path style="fill:none;stroke:red;stroke-width:1px;stroke-linecap:butt;stroke-linejoin:miter;stroke-opacity:1" d="M 480.323,344.618 480.323,331.048 z" id="boundary" inkscape:connector-curvature="0" />
	<path style="fill:none;stroke:red;stroke-width:1px;stroke-linecap:butt;stroke-linejoin:miter;stroke-opacity:1" d="M 594.315,4 607.885,4 z" id="boundary" inkscape:connector-curvature="0" />
	<path style="fill:none;stroke:red;stroke-width:1px;stroke-linecap:butt;stroke-linejoin:miter;stroke-opacity:1" d="M 621.456,4 635.026,4 z" id="boundary" inkscape:connector-curvature="0" />
	<path style="fill:none;stroke:red;stroke-width:1px;stroke-linecap:butt;stroke-linejoin:miter;stroke-opacity:1" d="M 635.026,4 648.596,4 z" id="boundary" inkscape:connector-curvature="0" />
	<path style="fill:none;stroke:red;stroke-width:1px;stroke-linecap:butt;stroke-linejoin:miter;stroke-opacity:1" d="M 662.167,4 675.737,4 z" id="boundary" inkscape:connector-curvature="0" />
	<path style="fill:none;stroke:red;stroke-width:1px;stroke-linecap:butt;stroke-linejoin:miter;stroke-opacity:1" d="M 689.308,6.71409 690.665,20.2845 z" id="boundary" inkscape:connector-curvature="0" />
	<path style="fill:none;stroke:red;stroke-width:1px;stroke-linecap:butt;stroke-linejoin:miter;stroke-opacity:1" d="M 675.737,4 689.308,6.71409 z" id="boundary" inkscape:connector-curvature="0" />
	<path style="fill:none;stroke:red;stroke-width:1px;stroke-linecap:butt;stroke-linejoin:miter;stroke-opacity:1" d="M 648.596,4 662.167,4 z" id="boundary" inkscape:connector-curvature="0" />
	<path style="fill:none;stroke:red;stroke-width:1px;stroke-linecap:butt;stroke-linejoin:miter;stroke-opacity:1" d="M 690.665,20.2845 690.665,33.855 z" id="boundary" inkscape:connector-curvature="0" />
	<path style="fill:none;stroke:red;stroke-width:1px;stroke-linecap:butt;stroke-linejoin:miter;stroke-opacity:1" d="M 690.665,33.855 690.665,47.4254 z" id="boundary" inkscape:connector-curvature="0" />
	<path style="fill:none;stroke:red;stroke-width:1px;stroke-linecap:butt;stroke-linejoin:miter;stroke-opacity:1" d="M 690.665,60.9959 690.665,74.5663 z" id="boundary" inkscape:connector-curvature="0" />
	<path style="fill:none;stroke:red;stroke-width:1px;stroke-linecap:butt;stroke-linejoin:miter;stroke-opacity:1" d="M 690.665,47.4254 690.665,60.9959 z" id="boundary" inkscape:connector-curvature="0" />
	<path style="fill:none;stroke:red;stroke-width:1px;stroke-linecap:butt;stroke-linejoin:miter;stroke-opacity:1" d="M 690.665,88.1368 690.665,101.707 z" id="boundary" inkscape:connector-curvature="0" />
	<path style="fill:none;stroke:red;stroke-width:1px;stroke-linecap:butt;stroke-linejoin:miter;stroke-opacity:1" d="M 690.665,115.278 690.665,128.848 z" id="boundary" inkscape:connector-curvature="0" />
	<path style="fill:none;stroke:red;stroke-width:1px;stroke-linecap:butt;stroke-linejoin:miter;stroke-opacity:1" d="M 690.665,101.707 690.665,115.278 z" id="boundary" inkscape:connector-curvature="0" />
	<path style="fill:none;stroke:red;stroke-width:1px;stroke-linecap:butt;stroke-linejoin:miter;stroke-opacity:1" d="M 690.665,74.5663 690.665,88.1368 z" id="boundary" inkscape:connector-curvature="0" />
	<path style="fill:none;stroke:red;stroke-width:1px;stroke-linecap:butt;stroke-linejoin:miter;stroke-opacity:1" d="M 690.665,128.848 690.665,142.419 z" id="boundary" inkscape:connector-curvature="0" />
	<path style="fill:none;stroke:red;stroke-width:1px;stroke-linecap:butt;stroke-linejoin:miter;stroke-opacity:1" d="M 690.665,155.989 690.665,169.56 z" id="boundary" inkscape:connector-curvature="0" />
	<path style="fill:none;stroke:red;stroke-width:1px;stroke-linecap:butt;stroke-linejoin:miter;stroke-opacity:1" d="M 690.665,169.56 690.665,183.13 z" id="boundary" inkscape:connector-curvature="0" />
	<path style="fill:none;stroke:red;stroke-width:1px;stroke-linecap:butt;stroke-linejoin:miter;stroke-opacity:1" d="M 690.665,196.7 690.665,210.271 z" id="boundary" inkscape:connector-curvature="0" />
	<path style="fill:none;stroke:red;stroke-width:1px;stroke-linecap:butt;stroke-linejoin:miter;stroke-opacity:1" d="M 690.665,183.13 690.665,196.7 z" id="boundary" inkscape:connector-curvature="0" />
	<path style="fill:none;stroke:red;stroke-width:1px;stroke-linecap:butt;stroke-linejoin:miter;stroke-opacity:1" d="M 690.665,210.271 690.665,223.841 z" id="boundary" inkscape:connector-curvature="0" />
	<path style="fill:none;stroke:red;stroke-width:1px;stroke-linecap:butt;stroke-linejoin:miter;stroke-opacity:1" d="M 690.665,223.841 690.665,237.412 z" id="boundary" inkscape:connector-curvature="0" />
	<path style="fill:none;stroke:red;stroke-width:1px;stroke-linecap:butt;stroke-linejoin:miter;stroke-opacity:1" d="M 690.665,142.419 690.665,155.989 z" id="boundary" inkscape:connector-curvature="0" />
	<path style="fill:none;stroke:red;stroke-width:1px;stroke-linecap:butt;stroke-linejoin:miter;stroke-opacity:1" d="M 690.665,237.412 690.665,250.982 z" id="boundary" inkscape:connector-curvature="0" />
	<path style="fill:none;stroke:red;stroke-width:1px;stroke-linecap:butt;stroke-linejoin:miter;stroke-opacity:1" d="M 690.665,250.982 690.665,264.553 z" id="boundary" inkscape:connector-curvature="0" />
	<path style="fill:none;stroke:red;stroke-width:1px;stroke-linecap:butt;stroke-linejoin:miter;stroke-opacity:1" d="M 611.956,331.048 598.386,331.048 z" id="boundary" inkscape:connector-curvature="0" />
	<path style="fill:none;stroke:red;stroke-width:1px;stroke-linecap:butt;stroke-linejoin:miter;stroke-opacity:1" d="M 690.665,264.553 690.665,278.123 z" id="boundary" inkscape:connector-curvature="0" />
	<path style="fill:none;stroke:red;stroke-width:1px;stroke-linecap:butt;stroke-linejoin:miter;stroke-opacity:1" d="M 690.665,291.694 690.665,305.264 z" id="boundary" inkscape:connector-curvature="0" />
	<path style="fill:none;stroke:red;stroke-width:1px;stroke-linecap:butt;stroke-linejoin:miter;stroke-opacity:1" d="M 690.665,278.123 690.665,291.694 z" id="boundary" inkscape:connector-curvature="0" />
	<path style="fill:none;stroke:red;stroke-width:1px;stroke-linecap:butt;stroke-linejoin:miter;stroke-opacity:1" d="M 625.527,331.048 611.956,331.048 z" id="boundary" inkscape:connector-curvature="0" />
	<path style="fill:none;stroke:red;stroke-width:1px;stroke-linecap:butt;stroke-linejoin:miter;stroke-opacity:1" d="M 690.665,305.264 690.665,318.834 z" id="boundary" inkscape:connector-curvature="0" />
	<path style="fill:none;stroke:red;stroke-width:1px;stroke-linecap:butt;stroke-linejoin:miter;stroke-opacity:1" d="M 607.885,4 621.456,4 z" id="boundary" inkscape:connector-curvature="0" />
	<path style="fill:none;stroke:red;stroke-width:1px;stroke-linecap:butt;stroke-linejoin:miter;stroke-opacity:1" d="M 480.323,358.189 480.323,371.759 z" id="boundary" inkscape:connector-curvature="0" />
	<path style="fill:none;stroke:red;stroke-width:1px;stroke-linecap:butt;stroke-linejoin:miter;stroke-opacity:1" d="M 480.323,358.189 480.323,344.618 z" id="boundary" inkscape:connector-curvature="0" />
	<path style="fill:none;stroke:red;stroke-width:1px;stroke-linecap:butt;stroke-linejoin:miter;stroke-opacity:1" d="M 480.323,371.759 480.323,385.33 z" id="boundary" inkscape:connector-curvature="0" />
	<path style="fill:none;stroke:red;stroke-width:1px;stroke-linecap:butt;stroke-linejoin:miter;stroke-opacity:1" d="M 480.323,398.9 480.323,412.471 z" id="boundary" inkscape:connector-curvature="0" />
	<path style="fill:none;stroke:red;stroke-width:1px;stroke-linecap:butt;stroke-linejoin:miter;stroke-opacity:1" d="M 480.323,398.9 480.323,385.33 z" id="boundary" inkscape:connector-curvature="0" />
	<path style="fill:none;stroke:red;stroke-width:1px;stroke-linecap:butt;stroke-linejoin:miter;stroke-opacity:1" d="M 480.323,426.041 480.323,439.611 z" id="boundary" inkscape:connector-curvature="0" />
	<path style="fill:none;stroke:red;stroke-width:1px;stroke-linecap:butt;stroke-linejoin:miter;stroke-opacity:1" d="M 480.323,426.041 480.323,412.471 z" id="boundary" inkscape:connector-curvature="0" />
	<path style="fill:none;stroke:red;stroke-width:1px;stroke-linecap:butt;stroke-linejoin:miter;stroke-opacity:1" d="M 480.323,453.182 480.323,466.752 z" id="boundary" inkscape:connector-curvature="0" />
	<path style="fill:none;stroke:red;stroke-width:1px;stroke-linecap:butt;stroke-linejoin:miter;stroke-opacity:1" d="M 480.323,453.182 480.323,439.611 z" id="boundary" inkscape:connector-curvature="0" />
	<path style="fill:none;stroke:red;stroke-width:1px;stroke-linecap:butt;stroke-linejoin:miter;stroke-opacity:1" d="M 480.323,466.752 480.323,480.323 z" id="boundary" inkscape:connector-curvature="0" />
	<path style="fill:none;stroke:red;stroke-width:1px;stroke-linecap:butt;stroke-linejoin:miter;stroke-opacity:1" d="M 480.323,493.893 480.323,507.464 z" id="boundary" inkscape:connector-curvature="0" />
	<path style="fill:none;stroke:red;stroke-width:1px;stroke-linecap:butt;stroke-linejoin:miter;stroke-opacity:1" d="M 480.323,493.893 480.323,480.323 z" id="boundary" inkscape:connector-curvature="0" />
	<path style="fill:none;stroke:red;stroke-width:1px;stroke-linecap:butt;stroke-linejoin:miter;stroke-opacity:1" d="M 480.323,521.034 480.323,534.605 z" id="boundary" inkscape:connector-curvature="0" />
	<path style="fill:none;stroke:red;stroke-width:1px;stroke-linecap:butt;stroke-linejoin:miter;stroke-opacity:1" d="M 480.323,521.034 480.323,507.464 z" id="boundary" inkscape:connector-curvature="0" />
	<path style="fill:none;stroke:red;stroke-width:1px;stroke-linecap:butt;stroke-linejoin:miter;stroke-opacity:1" d="M 417.899,996 404.328,996 z" id="boundary" inkscape:connector-curvature="0" />
	<path style="fill:none;stroke:red;stroke-width:1px;stroke-linecap:butt;stroke-linejoin:miter;stroke-opacity:1" d="M 480.323,534.605 480.323,548.175 z" id="boundary" inkscape:connector-curvature="0" />
	<path style="fill:none;stroke:red;stroke-width:1px;stroke-linecap:butt;stroke-linejoin:miter;stroke-opacity:1" d="M 431.469,996 417.899,996 z" id="boundary" inkscape:connector-curvature="0" />
	<path style="fill:none;stroke:red;stroke-width:1px;stroke-linecap:butt;stroke-linejoin:miter;stroke-opacity:1" d="M 445.04,996 431.469,996 z" id="boundary" inkscape:connector-curvature="0" />
	<path style="fill:none;stroke:red;stroke-width:1px;stroke-linecap:butt;stroke-linejoin:miter;stroke-opacity:1" d="M 480.323,982.43 472.181,996 z" id="boundary" inkscape:connector-curvature="0" />
	<path style="fill:none;stroke:red;stroke-width:1px;stroke-linecap:butt;stroke-linejoin:miter;stroke-opacity:1" d="M 472.181,996 458.61,996 z" id="boundary" inkscape:connector-curvature="0" />
	<path style="fill:none;stroke:red;stroke-width:1px;stroke-linecap:butt;stroke-linejoin:miter;stroke-opacity:1" d="M 458.61,996 445.04,996 z" id="boundary" inkscape:connector-curvature="0" />
	<path style="fill:none;stroke:red;stroke-width:1px;stroke-linecap:butt;stroke-linejoin:miter;stroke-opacity:1" d="M 480.323,548.175 480.323,561.746 z" id="boundary" inkscape:connector-curvature="0" />
	<path style="fill:none;stroke:red;stroke-width:1px;stroke-linecap:butt;stroke-linejoin:miter;stroke-opacity:1" d="M 480.323,561.746 480.323,575.316 z" id="boundary" inkscape:connector-curvature="0" />
	<path style="fill:none;stroke:red;stroke-width:1px;stroke-linecap:butt;stroke-linejoin:miter;stroke-opacity:1" d="M 480.323,588.886 480.323,602.457 z" id="boundary" inkscape:connector-curvature="0" />
	<path style="fill:none;stroke:red;stroke-width:1px;stroke-linecap:butt;stroke-linejoin:miter;stroke-opacity:1" d="M 480.323,588.886 480.323,575.316 z" id="boundary" inkscape:connector-curvature="0" />
	<path style="fill:none;stroke:red;stroke-width:1px;stroke-linecap:butt;stroke-linejoin:miter;stroke-opacity:1" d="M 480.323,616.027 480.323,629.598 z" id="boundary" inkscape:connector-curvature="0" />
	<path style="fill:none;stroke:red;stroke-width:1px;stroke-linecap:butt;stroke-linejoin:miter;stroke-opacity:1" d="M 480.323,616.027 480.323,602.457 z" id="boundary" inkscape:connector-curvature="0" />
	<path style="fill:none;stroke:red;stroke-width:1px;stroke-linecap:butt;stroke-linejoin:miter;stroke-opacity:1" d="M 480.323,643.168 480.323,656.739 z" id="boundary" inkscape:connector-curvature="0" />
	<path style="fill:none;stroke:red;stroke-width:1px;stroke-linecap:butt;stroke-linejoin:miter;stroke-opacity:1" d="M 480.323,643.168 480.323,629.598 z" id="boundary" inkscape:connector-curvature="0" />
	<path style="fill:none;stroke:red;stroke-width:1px;stroke-linecap:butt;stroke-linejoin:miter;stroke-opacity:1" d="M 480.323,656.739 480.323,670.309 z" id="boundary" inkscape:connector-curvature="0" />
	<path style="fill:none;stroke:red;stroke-width:1px;stroke-linecap:butt;stroke-linejoin:miter;stroke-opacity:1" d="M 480.323,670.309 480.323,683.88 z" id="boundary" inkscape:connector-curvature="0" />
	<path style="fill:none;stroke:red;stroke-width:1px;stroke-linecap:butt;stroke-linejoin:miter;stroke-opacity:1" d="M 480.323,683.88 480.323,697.45 z" id="boundary" inkscape:connector-curvature="0" />
	<path style="fill:none;stroke:red;stroke-width:1px;stroke-linecap:butt;stroke-linejoin:miter;stroke-opacity:1" d="M 480.323,711.021 480.323,724.591 z" id="boundary" inkscape:connector-curvature="0" />
	<path style="fill:none;stroke:red;stroke-width:1px;stroke-linecap:butt;stroke-linejoin:miter;stroke-opacity:1" d="M 480.323,711.021 480.323,697.45 z" id="boundary" inkscape:connector-curvature="0" />
	<path style="fill:none;stroke:red;stroke-width:1px;stroke-linecap:butt;stroke-linejoin:miter;stroke-opacity:1" d="M 480.323,738.161 480.323,751.732 z" id="boundary" inkscape:connector-curvature="0" />
	<path style="fill:none;stroke:red;stroke-width:1px;stroke-linecap:butt;stroke-linejoin:miter;stroke-opacity:1" d="M 480.323,738.161 480.323,724.591 z" id="boundary" inkscape:connector-curvature="0" />
	<path style="fill:none;stroke:red;stroke-width:1px;stroke-linecap:butt;stroke-linejoin:miter;stroke-opacity:1" d="M 652.668,331.048 666.238,331.048 z" id="boundary" inkscape:connector-curvature="0" />
	<path style="fill:none;stroke:red;stroke-width:1px;stroke-linecap:butt;stroke-linejoin:miter;stroke-opacity:1" d="M 639.097,331.048 625.527,331.048 z" id="boundary" inkscape:connector-curvature="0" />
	<path style="fill:none;stroke:red;stroke-width:1px;stroke-linecap:butt;stroke-linejoin:miter;stroke-opacity:1" d="M 652.668,331.048 639.097,331.048 z" id="boundary" inkscape:connector-curvature="0" />
	<path style="fill:none;stroke:red;stroke-width:1px;stroke-linecap:butt;stroke-linejoin:miter;stroke-opacity:1" d="M 666.238,331.048 679.808,331.048 z" id="boundary" inkscape:connector-curvature="0" />
	<path style="fill:none;stroke:red;stroke-width:1px;stroke-linecap:butt;stroke-linejoin:miter;stroke-opacity:1" d="M 480.323,765.302 480.323,778.873 z" id="boundary" inkscape:connector-curvature="0" />
	<path style="fill:none;stroke:red;stroke-width:1px;stroke-linecap:butt;stroke-linejoin:miter;stroke-opacity:1" d="M 480.323,765.302 480.323,751.732 z" id="boundary" inkscape:connector-curvature="0" />
	<path style="fill:none;stroke:red;stroke-width:1px;stroke-linecap:butt;stroke-linejoin:miter;stroke-opacity:1" d="M 480.323,792.443 480.323,778.873 z" id="boundary" inkscape:connector-curvature="0" />
	<path style="fill:none;stroke:red;stroke-width:1px;stroke-linecap:butt;stroke-linejoin:miter;stroke-opacity:1" d="M 690.665,318.834 679.808,331.048 z" id="boundary" inkscape:connector-curvature="0" />
	<path style="fill:none;stroke:red;stroke-width:1px;stroke-linecap:butt;stroke-linejoin:miter;stroke-opacity:1" d="M 480.323,806.014 480.323,819.584 z" id="boundary" inkscape:connector-curvature="0" />
	<path style="fill:none;stroke:red;stroke-width:1px;stroke-linecap:butt;stroke-linejoin:miter;stroke-opacity:1" d="M 480.323,806.014 480.323,792.443 z" id="boundary" inkscape:connector-curvature="0" />
	<path style="fill:none;stroke:red;stroke-width:1px;stroke-linecap:butt;stroke-linejoin:miter;stroke-opacity:1" d="M 480.323,819.584 480.323,833.155 z" id="boundary" inkscape:connector-curvature="0" />
	<path style="fill:none;stroke:red;stroke-width:1px;stroke-linecap:butt;stroke-linejoin:miter;stroke-opacity:1" d="M 480.323,846.725 480.323,860.295 z" id="boundary" inkscape:connector-curvature="0" />
	<path style="fill:none;stroke:red;stroke-width:1px;stroke-linecap:butt;stroke-linejoin:miter;stroke-opacity:1" d="M 480.323,846.725 480.323,833.155 z" id="boundary" inkscape:connector-curvature="0" />
	<path style="fill:none;stroke:red;stroke-width:1px;stroke-linecap:butt;stroke-linejoin:miter;stroke-opacity:1" d="M 480.323,873.866 480.323,887.436 z" id="boundary" inkscape:connector-curvature="0" />
	<path style="fill:none;stroke:red;stroke-width:1px;stroke-linecap:butt;stroke-linejoin:miter;stroke-opacity:1" d="M 480.323,860.295 480.323,873.866 z" id="boundary" inkscape:connector-curvature="0" />
	<path style="fill:none;stroke:red;stroke-width:1px;stroke-linecap:butt;stroke-linejoin:miter;stroke-opacity:1" d="M 480.323,901.007 480.323,914.577 z" id="boundary" inkscape:connector-curvature="0" />
	<path style="fill:none;stroke:red;stroke-width:1px;stroke-linecap:butt;stroke-linejoin:miter;stroke-opacity:1" d="M 480.323,914.577 480.323,928.148 z" id="boundary" inkscape:connector-curvature="0" />
	<path style="fill:none;stroke:red;stroke-width:1px;stroke-linecap:butt;stroke-linejoin:miter;stroke-opacity:1" d="M 480.323,901.007 480.323,887.436 z" id="boundary" inkscape:connector-curvature="0" />
	<path style="fill:none;stroke:red;stroke-width:1px;stroke-linecap:butt;stroke-linejoin:miter;stroke-opacity:1" d="M 480.323,941.718 480.323,955.289 z" id="boundary" inkscape:connector-curvature="0" />
	<path style="fill:none;stroke:red;stroke-width:1px;stroke-linecap:butt;stroke-linejoin:miter;stroke-opacity:1" d="M 480.323,941.718 480.323,928.148 z" id="boundary" inkscape:connector-curvature="0" />
	<path style="fill:none;stroke:red;stroke-width:1px;stroke-linecap:butt;stroke-linejoin:miter;stroke-opacity:1" d="M 480.323,968.859 480.323,982.43 z" id="boundary" inkscape:connector-curvature="0" />
	<path style="fill:none;stroke:red;stroke-width:1px;stroke-linecap:butt;stroke-linejoin:miter;stroke-opacity:1" d="M 480.323,968.859 480.323,955.289 z" id="boundary" inkscape:connector-curvature="0" />
	<circle cx="4" cy="333.762" r="4" fill="#0" id="circle0"/>
	<circle cx="4" cy="347.332" r="4" fill="#0" id="circle1"/>
	<circle cx="10.7852" cy="313.406" r="4" fill="#0" id="circle2"/>
	<circle cx="17.5705" cy="293.051" r="4" fill="#0" id="circle3"/>
	<circle cx="17.5705" cy="351.404" r="4" fill="#0" id="circle4"/>
	<circle cx="24.3557" cy="279.48" r="4" fill="#0" id="circle5"/>
	<circle cx="29.7839" cy="344.618" r="4" fill="#0" id="circle6"/>
	<circle cx="31.1409" cy="259.124" r="4" fill="#0" id="circle7"/>
	<circle cx="41.9973" cy="248.268" r="4" fill="#0" id="circle8"/>
	<circle cx="41.9973" cy="337.833" r="4" fill="#0" id="circle9"/>
	<circle cx="48.7825" cy="234.698" r="4" fill="#0" id="circle10"/>
	<circle cx="55.5677" cy="337.833" r="4" fill="#0" id="circle11"/>
	<circle cx="58.2818" cy="218.413" r="4" fill="#0" id="circle12"/>
	<circle cx="65.067" cy="198.057" r="4" fill="#0" id="circle13"/>
	<circle cx="67.7811" cy="331.048" r="4" fill="#0" id="circle14"/>
	<circle cx="75.9234" cy="187.201" r="4" fill="#0" id="circle15"/>
	<circle cx="81.3516" cy="331.048" r="4" fill="#0" id="circle16"/>
	<circle cx="85.4227" cy="170.917" r="4" fill="#0" id="circle17"/>
	<circle cx="93.565" cy="324.263" r="4" fill="#0" id="circle18"/>
	<circle cx="96.2791" cy="160.06" r="4" fill="#0" id="circle19"/>
	<circle cx="107.135" cy="149.204" r="4" fill="#0" id="circle20"/>
	<circle cx="107.135" cy="324.263" r="4" fill="#0" id="circle21"/>
	<circle cx="117.992" cy="139.705" r="4" fill="#0" id="circle22"/>
	<circle cx="120.706" cy="324.263" r="4" fill="#0" id="circle23"/>
	<circle cx="130.205" cy="132.919" r="4" fill="#0" id="circle24"/>
	<circle cx="132.919" cy="317.477" r="4" fill="#0" id="circle25"/>
	<circle cx="141.062" cy="122.063" r="4" fill="#0" id="circle26"/>
	<circle cx="146.49" cy="317.477" r="4" fill="#0" id="circle27"/>
	<circle cx="154.632" cy="115.278" r="4" fill="#0" id="circle28"/>
	<circle cx="158.703" cy="310.692" r="4" fill="#0" id="circle29"/>
	<circle cx="168.202" cy="108.492" r="4" fill="#0" id="circle30"/>
	<circle cx="172.274" cy="310.692" r="4" fill="#0" id="circle31"/>
	<circle cx="179.059" cy="98.9932" r="4" fill="#0" id="circle32"/>
	<circle cx="185.844" cy="310.692" r="4" fill="#0" id="circle33"/>
	<circle cx="191.272" cy="92.2079" r="4" fill="#0" id="circle34"/>
	<circle cx="198.057" cy="303.907" r="4" fill="#0" id="circle35"/>
	<circle cx="203.486" cy="85.4227" r="4" fill="#0" id="circle36"/>
	<circle cx="211.628" cy="303.907" r="4" fill="#0" id="circle37"/>
	<circle cx="214.342" cy="75.9234" r="4" fill="#0" id="circle38"/>
	<circle cx="225.198" cy="303.907" r="4" fill="#0" id="circle39"/>
	<circle cx="227.912" cy="69.1382" r="4" fill="#0" id="circle40"/>
	<circle cx="238.769" cy="58.2818" r="4" fill="#0" id="circle41"/>
	<circle cx="238.769" cy="303.907" r="4" fill="#0" id="circle42"/>
	<circle cx="250.982" cy="297.122" r="4" fill="#0" id="circle43"/>
	<circle cx="252.339" cy="58.2818" r="4" fill="#0" id="circle44"/>
	<circle cx="264.553" cy="297.122" r="4" fill="#0" id="circle45"/>
	<circle cx="265.91" cy="51.4966" r="4" fill="#0" id="circle46"/>
	<circle cx="278.123" cy="297.122" r="4" fill="#0" id="circle47"/>
	<circle cx="279.48" cy="44.7114" r="4" fill="#0" id="circle48"/>
	<circle cx="291.694" cy="297.122" r="4" fill="#0" id="circle49"/>
	<circle cx="293.051" cy="37.9261" r="4" fill="#0" id="circle50"/>
	<circle cx="305.264" cy="297.122" r="4" fill="#0" id="circle51"/>
	<circle cx="306.621" cy="37.9261" r="4" fill="#0" id="circle52"/>
	<circle cx="316.12" cy="305.264" r="4" fill="#0" id="circle53"/>
	<circle cx="316.12" cy="318.834" r="4" fill="#0" id="circle54"/>
	<circle cx="316.12" cy="332.405" r="4" fill="#0" id="circle55"/>
	<circle cx="316.12" cy="345.975" r="4" fill="#0" id="circle56"/>
	<circle cx="316.12" cy="359.546" r="4" fill="#0" id="circle57"/>
	<circle cx="316.12" cy="373.116" r="4" fill="#0" id="circle58"/>
	<circle cx="316.12" cy="386.687" r="4" fill="#0" id="circle59"/>
	<circle cx="316.12" cy="400.257" r="4" fill="#0" id="circle60"/>
	<circle cx="316.12" cy="413.828" r="4" fill="#0" id="circle61"/>
	<circle cx="316.12" cy="427.398" r="4" fill="#0" id="circle62"/>
	<circle cx="316.12" cy="440.969" r="4" fill="#0" id="circle63"/>
	<circle cx="316.12" cy="454.539" r="4" fill="#0" id="circle64"/>
	<circle cx="316.12" cy="468.109" r="4" fill="#0" id="circle65"/>
	<circle cx="316.12" cy="481.68" r="4" fill="#0" id="circle66"/>
	<circle cx="316.12" cy="495.25" r="4" fill="#0" id="circle67"/>
	<circle cx="316.12" cy="508.821" r="4" fill="#0" id="circle68"/>
	<circle cx="316.12" cy="522.391" r="4" fill="#0" id="circle69"/>
	<circle cx="316.12" cy="535.962" r="4" fill="#0" id="circle70"/>
	<circle cx="316.12" cy="549.532" r="4" fill="#0" id="circle71"/>
	<circle cx="316.12" cy="563.103" r="4" fill="#0" id="circle72"/>
	<circle cx="316.12" cy="576.673" r="4" fill="#0" id="circle73"/>
	<circle cx="316.12" cy="590.244" r="4" fill="#0" id="circle74"/>
	<circle cx="316.12" cy="603.814" r="4" fill="#0" id="circle75"/>
	<circle cx="316.12" cy="617.384" r="4" fill="#0" id="circle76"/>
	<circle cx="316.12" cy="630.955" r="4" fill="#0" id="circle77"/>
	<circle cx="316.12" cy="644.525" r="4" fill="#0" id="circle78"/>
	<circle cx="316.12" cy="658.096" r="4" fill="#0" id="circle79"/>
	<circle cx="316.12" cy="671.666" r="4" fill="#0" id="circle80"/>
	<circle cx="316.12" cy="685.237" r="4" fill="#0" id="circle81"/>
	<circle cx="316.12" cy="698.807" r="4" fill="#0" id="circle82"/>
	<circle cx="316.12" cy="712.378" r="4" fill="#0" id="circle83"/>
	<circle cx="316.12" cy="725.948" r="4" fill="#0" id="circle84"/>
	<circle cx="316.12" cy="739.518" r="4" fill="#0" id="circle85"/>
	<circle cx="316.12" cy="753.089" r="4" fill="#0" id="circle86"/>
	<circle cx="316.12" cy="766.659" r="4" fill="#0" id="circle87"/>
	<circle cx="316.12" cy="780.23" r="4" fill="#0" id="circle88"/>
	<circle cx="316.12" cy="793.8" r="4" fill="#0" id="circle89"/>
	<circle cx="316.12" cy="807.371" r="4" fill="#0" id="circle90"/>
	<circle cx="316.12" cy="820.941" r="4" fill="#0" id="circle91"/>
	<circle cx="316.12" cy="834.512" r="4" fill="#0" id="circle92"/>
	<circle cx="316.12" cy="848.082" r="4" fill="#0" id="circle93"/>
	<circle cx="316.12" cy="861.653" r="4" fill="#0" id="circle94"/>
	<circle cx="316.12" cy="875.223" r="4" fill="#0" id="circle95"/>
	<circle cx="316.12" cy="888.793" r="4" fill="#0" id="circle96"/>
	<circle cx="316.12" cy="902.364" r="4" fill="#0" id="circle97"/>
	<circle cx="316.12" cy="915.934" r="4" fill="#0" id="circle98"/>
	<circle cx="316.12" cy="929.505" r="4" fill="#0" id="circle99"/>
	<circle cx="316.12" cy="943.075" r="4" fill="#0" id="circle100"/>
	<circle cx="316.12" cy="956.646" r="4" fill="#0" id="circle101"/>
	<circle cx="316.12" cy="970.216" r="4" fill="#0" id="circle102"/>
	<circle cx="316.12" cy="983.787" r="4" fill="#0" id="circle103"/>
	<circle cx="320.192" cy="37.9261" r="4" fill="#0" id="circle104"/>
	<circle cx="322.906" cy="996" r="4" fill="#0" id="circle105"/>
	<circle cx="332.405" cy="31.1409" r="4" fill="#0" id="circle106"/>
	<circle cx="336.476" cy="996" r="4" fill="#0" id="circle107"/>
	<circle cx="345.975" cy="31.1409" r="4" fill="#0" id="circle108"/>
	<circle cx="350.047" cy="996" r="4" fill="#0" id="circle109"/>
	<circle cx="359.546" cy="31.1409" r="4" fill="#0" id="circle110"/>
	<circle cx="363.617" cy="996" r="4" fill="#0" id="circle111"/>
	<circle cx="373.116" cy="31.1409" r="4" fill="#0" id="circle112"/>
	<circle cx="377.187" cy="996" r="4" fill="#0" id="circle113"/>
	<circle cx="386.687" cy="31.1409" r="4" fill="#0" id="circle114"/>
	<circle cx="390.758" cy="996" r="4" fill="#0" id="circle115"/>
	<circle cx="400.257" cy="31.1409" r="4" fill="#0" id="circle116"/>
	<circle cx="404.328" cy="996" r="4" fill="#0" id="circle117"/>
	<circle cx="413.828" cy="31.1409" r="4" fill="#0" id="circle118"/>
	<circle cx="417.899" cy="996" r="4" fill="#0" id="circle119"/>
	<circle cx="427.398" cy="31.1409" r="4" fill="#0" id="circle120"/>
	<circle cx="431.469" cy="996" r="4" fill="#0" id="circle121"/>
	<circle cx="440.969" cy="31.1409" r="4" fill="#0" id="circle122"/>
	<circle cx="445.04" cy="996" r="4" fill="#0" id="circle123"/>
	<circle cx="454.539" cy="31.1409" r="4" fill="#0" id="circle124"/>
	<circle cx="458.61" cy="996" r="4" fill="#0" id="circle125"/>
	<circle cx="468.109" cy="31.1409" r="4" fill="#0" id="circle126"/>
	<circle cx="472.181" cy="996" r="4" fill="#0" id="circle127"/>
	<circle cx="480.323" cy="303.907" r="4" fill="#0" id="circle128"/>
	<circle cx="480.323" cy="317.477" r="4" fill="#0" id="circle129"/>
	<circle cx="480.323" cy="331.048" r="4" fill="#0" id="circle130"/>
	<circle cx="480.323" cy="344.618" r="4" fill="#0" id="circle131"/>
	<circle cx="480.323" cy="358.189" r="4" fill="#0" id="circle132"/>
	<circle cx="480.323" cy="371.759" r="4" fill="#0" id="circle133"/>
	<circle cx="480.323" cy="385.33" r="4" fill="#0" id="circle134"/>
	<circle cx="480.323" cy="398.9" r="4" fill="#0" id="circle135"/>
	<circle cx="480.323" cy="412.471" r="4" fill="#0" id="circle136"/>
	<circle cx="480.323" cy="426.041" r="4" fill="#0" id="circle137"/>
	<circle cx="480.323" cy="439.611" r="4" fill="#0" id="circle138"/>
	<circle cx="480.323" cy="453.182" r="4" fill="#0" id="circle139"/>
	<circle cx="480.323" cy="466.752" r="4" fill="#0" id="circle140"/>
	<circle cx="480.323" cy="480.323" r="4" fill="#0" id="circle141"/>
	<circle cx="480.323" cy="493.893" r="4" fill="#0" id="circle142"/>
	<circle cx="480.323" cy="507.464" r="4" fill="#0" id="circle143"/>
	<circle cx="480.323" cy="521.034" r="4" fill="#0" id="circle144"/>
	<circle cx="480.323" cy="534.605" r="4" fill="#0" id="circle145"/>
	<circle cx="480.323" cy="548.175" r="4" fill="#0" id="circle146"/>
	<circle cx="480.323" cy="561.746" r="4" fill="#0" id="circle147"/>
	<circle cx="480.323" cy="575.316" r="4" fill="#0" id="circle148"/>
	<circle cx="480.323" cy="588.886" r="4" fill="#0" id="circle149"/>
	<circle cx="480.323" cy="602.457" r="4" fill="#0" id="circle150"/>
	<circle cx="480.323" cy="616.027" r="4" fill="#0" id="circle151"/>
	<circle cx="480.323" cy="629.598" r="4" fill="#0" id="circle152"/>
	<circle cx="480.323" cy="643.168" r="4" fill="#0" id="circle153"/>
	<circle cx="480.323" cy="656.739" r="4" fill="#0" id="circle154"/>
	<circle cx="480.323" cy="670.309" r="4" fill="#0" id="circle155"/>
	<circle cx="480.323" cy="683.88" r="4" fill="#0" id="circle156"/>
	<circle cx="480.323" cy="697.45" r="4" fill="#0" id="circle157"/>
	<circle cx="480.323" cy="711.021" r="4" fill="#0" id="circle158"/>
	<circle cx="480.323" cy="724.591" r="4" fill="#0" id="circle159"/>
	<circle cx="480.323" cy="738.161" r="4" fill="#0" id="circle160"/>
	<circle cx="480.323" cy="751.732" r="4" fill="#0" id="circle161"/>
	<circle cx="480.323" cy="765.302" r="4" fill="#0" id="circle162"/>
	<circle cx="480.323" cy="778.873" r="4" fill="#0" id="circle163"/>
	<circle cx="480.323" cy="792.443" r="4" fill="#0" id="circle164"/>
	<circle cx="480.323" cy="806.014" r="4" fill="#0" id="circle165"/>
	<circle cx="480.323" cy="819.584" r="4" fill="#0" id="circle166"/>
	<circle cx="480.323" cy="833.155" r="4" fill="#0" id="circle167"/>
	<circle cx="480.323" cy="846.725" r="4" fill="#0" id="circle168"/>
	<circle cx="480.323" cy="860.295" r="4" fill="#0" id="circle169"/>
	<circle cx="480.323" cy="873.866" r="4" fill="#0" id="circle170"/>
	<circle cx="480.323" cy="887.436" r="4" fill="#0" id="circle171"/>
	<circle cx="480.323" cy="901.007" r="4" fill="#0" id="circle172"/>
	<circle cx="480.323" cy="914.577" r="4" fill="#0" id="circle173"/>
	<circle cx="480.323" cy="928.148" r="4" fill="#0" id="circle174"/>
	<circle cx="480.323" cy="941.718" r="4" fill="#0" id="circle175"/>
	<circle cx="480.323" cy="955.289" r="4" fill="#0" id="circle176"/>
	<circle cx="480.323" cy="968.859" r="4" fill="#0" id="circle177"/>
	<circle cx="480.323" cy="982.43" r="4" fill="#0" id="circle178"/>
	<circle cx="481.68" cy="31.1409" r="4" fill="#0" id="circle179"/>
	<circle cx="493.893" cy="303.907" r="4" fill="#0" id="circle180"/>
	<circle cx="495.25" cy="31.1409" r="4" fill="#0" id="circle181"/>
	<circle cx="507.464" cy="303.907" r="4" fill="#0" id="circle182"/>
	<circle cx="508.821" cy="31.1409" r="4" fill="#0" id="circle183"/>
	<circle cx="512.892" cy="8.07114" r="4" fill="#0" id="circle184"/>
	<circle cx="512.892" cy="317.477" r="4" fill="#0" id="circle185"/>
	<circle cx="516.963" cy="331.048" r="4" fill="#0" id="circle186"/>
	<circle cx="526.462" cy="4" r="4" fill="#0" id="circle187"/>
	<circle cx="530.534" cy="331.048" r="4" fill="#0" id="circle188"/>
	<circle cx="540.033" cy="4" r="4" fill="#0" id="circle189"/>
	<circle cx="544.104" cy="331.048" r="4" fill="#0" id="circle190"/>
	<circle cx="553.603" cy="4" r="4" fill="#0" id="circle191"/>
	<circle cx="557.674" cy="331.048" r="4" fill="#0" id="circle192"/>
	<circle cx="567.174" cy="4" r="4" fill="#0" id="circle193"/>
	<circle cx="571.245" cy="331.048" r="4" fill="#0" id="circle194"/>
	<circle cx="580.744" cy="4" r="4" fill="#0" id="circle195"/>
	<circle cx="584.815" cy="331.048" r="4" fill="#0" id="circle196"/>
	<circle cx="594.315" cy="4" r="4" fill="#0" id="circle197"/>
	<circle cx="598.386" cy="331.048" r="4" fill="#0" id="circle198"/>
	<circle cx="607.885" cy="4" r="4" fill="#0" id="circle199"/>
	<circle cx="611.956" cy="331.048" r="4" fill="#0" id="circle200"/>
	<circle cx="621.456" cy="4" r="4" fill="#0" id="circle201"/>
	<circle cx="625.527" cy="331.048" r="4" fill="#0" id="circle202"/>
	<circle cx="635.026" cy="4" r="4" fill="#0" id="circle203"/>
	<circle cx="639.097" cy="331.048" r="4" fill="#0" id="circle204"/>
	<circle cx="648.596" cy="4" r="4" fill="#0" id="circle205"/>
	<circle cx="652.668" cy="331.048" r="4" fill="#0" id="circle206"/>
	<circle cx="662.167" cy="4" r="4" fill="#0" id="circle207"/>
	<circle cx="666.238" cy="331.048" r="4" fill="#0" id="circle208"/>
	<circle cx="675.737" cy="4" r="4" fill="#0" id="circle209"/>
	<circle cx="679.808" cy="331.048" r="4" fill="#0" id="circle210"/>
	<circle cx="689.308" cy="6.71409" r="4" fill="#0" id="circle211"/>
	<circle cx="690.665" cy="20.2845" r="4" fill="#0" id="circle212"/>
	<circle cx="690.665" cy="33.855" r="4" fill="#0" id="circle213"/>
	<circle cx="690.665" cy="47.4254" r="4" fill="#0" id="circle214"/>
	<circle cx="690.665" cy="60.9959" r="4" fill="#0" id="circle215"/>
	<circle cx="690.665" cy="74.5663" r="4" fill="#0" id="circle216"/>
	<circle cx="690.665" cy="88.1368" r="4" fill="#0" id="circle217"/>
	<circle cx="690.665" cy="101.707" r="4" fill="#0" id="circle218"/>
	<circle cx="690.665" cy="115.278" r="4" fill="#0" id="circle219"/>
	<circle cx="690.665" cy="128.848" r="4" fill="#0" id="circle220"/>
	<circle cx="690.665" cy="142.419" r="4" fill="#0" id="circle221"/>
	<circle cx="690.665" cy="155.989" r="4" fill="#0" id="circle222"/>
	<circle cx="690.665" cy="169.56" r="4" fill="#0" id="circle223"/>
	<circle cx="690.665" cy="183.13" r="4" fill="#0" id="circle224"/>
	<circle cx="690.665" cy="196.7" r="4" fill="#0" id="circle225"/>
	<circle cx="690.665" cy="210.271" r="4" fill="#0" id="circle226"/>
	<circle cx="690.665" cy="223.841" r="4" fill="#0" id="circle227"/>
	<circle cx="690.665" cy="237.412" r="4" fill="#0" id="circle228"/>
	<circle cx="690.665" cy="250.982" r="4" fill="#0" id="circle229"/>
	<circle cx="690.665" cy="264.553" r="4" fill="#0" id="circle230"/>
	<circle cx="690.665" cy="278.123" r="4" fill="#0" id="circle231"/>
	<circle cx="690.665" cy="291.694" r="4" fill="#0" id="circle232"/>
	<circle cx="690.665" cy="305.264" r="4" fill="#0" id="circle233"/>
	<circle cx="690.665" cy="318.834" r="4" fill="#0" id="circle234"/>
	</g>
</svg>