<?xml version="1.0" encoding="UTF-8" standalone="no"?>
<!-- Created with CurveBenchmark -->
<svg
	xmlns:dc="http://purl.org/dc/elements/1.1/"
	xmlns:cc="http://creativecommons.org/ns#"
	xmlns:rdf="http://www.w3.org/1999/02/22-rdf-syntax-ns#"
	xmlns:svg="http://www.w3.org/2000/svg"
	xmlns="http://www.w3.org/2000/svg"
	xmlns:sodipodi="http://sodipodi.sourceforge.net/DTD/sodipodi-0.dtd"
	xmlns:inkscape="http://www.inkscape.org/namespaces/inkscape"
	width="1000"
	height="1000"
	id="svg2"
	version="1.1"
	sodipodi:docname="manifold/ccrust-flightbird02.png.txt">
<defs
	id="defs4" />
<metadata
	id="metadata7">
	<rdf:RDF>
		<cc:Work
			rdf:about="">
			<dc:format>image/svg+xml</dc:format>
			<dc:type
				rdf:resource="http://purl.org/dc/dcmitype/StillImage" />
			<dc:title></dc:title>
		</cc:Work>
	</rdf:RDF>
</metadata>
<g
	inkscape:label="Layer 1"
	inkscape:groupmode="layer"
	id="layer1">
	<path style="fill:none;stroke:red;stroke-width:1px;stroke-linecap:butt;stroke-linejoin:miter;stroke-opacity:1" d="M 299.125,352.438 318.165,346.726 z" id="boundary" inkscape:connector-curvature="0" />
	<path style="fill:none;stroke:red;stroke-width:1px;stroke-linecap:butt;stroke-linejoin:miter;stroke-opacity:1" d="M 308.645,369.574 299.125,352.438 z" id="boundary" inkscape:connector-curvature="0" />
	<path style="fill:none;stroke:red;stroke-width:1px;stroke-linecap:butt;stroke-linejoin:miter;stroke-opacity:1" d="M 337.205,346.726 318.165,346.726 z" id="boundary" inkscape:connector-curvature="0" />
	<path style="fill:none;stroke:red;stroke-width:1px;stroke-linecap:butt;stroke-linejoin:miter;stroke-opacity:1" d="M 302.933,510.472 283.893,518.088 z" id="boundary" inkscape:connector-curvature="0" />
	<path style="fill:none;stroke:red;stroke-width:1px;stroke-linecap:butt;stroke-linejoin:miter;stroke-opacity:1" d="M 266.756,527.608 283.893,518.088 z" id="boundary" inkscape:connector-curvature="0" />
	<path style="fill:none;stroke:red;stroke-width:1px;stroke-linecap:butt;stroke-linejoin:miter;stroke-opacity:1" d="M 318.165,386.71 308.645,369.574 z" id="boundary" inkscape:connector-curvature="0" />
	<path style="fill:none;stroke:red;stroke-width:1px;stroke-linecap:butt;stroke-linejoin:miter;stroke-opacity:1" d="M 318.165,386.71 318.165,405.75 z" id="boundary" inkscape:connector-curvature="0" />
	<path style="fill:none;stroke:red;stroke-width:1px;stroke-linecap:butt;stroke-linejoin:miter;stroke-opacity:1" d="M 323.877,424.791 318.165,405.75 z" id="boundary" inkscape:connector-curvature="0" />
	<path style="fill:none;stroke:red;stroke-width:1px;stroke-linecap:butt;stroke-linejoin:miter;stroke-opacity:1" d="M 339.109,438.119 323.877,424.791 z" id="boundary" inkscape:connector-curvature="0" />
	<path style="fill:none;stroke:red;stroke-width:1px;stroke-linecap:butt;stroke-linejoin:miter;stroke-opacity:1" d="M 329.589,483.816 318.165,499.048 z" id="boundary" inkscape:connector-curvature="0" />
	<path style="fill:none;stroke:red;stroke-width:1px;stroke-linecap:butt;stroke-linejoin:miter;stroke-opacity:1" d="M 318.165,499.048 302.933,510.472 z" id="boundary" inkscape:connector-curvature="0" />
	<path style="fill:none;stroke:red;stroke-width:1px;stroke-linecap:butt;stroke-linejoin:miter;stroke-opacity:1" d="M 329.589,483.816 344.821,470.488 z" id="boundary" inkscape:connector-curvature="0" />
	<path style="fill:none;stroke:red;stroke-width:1px;stroke-linecap:butt;stroke-linejoin:miter;stroke-opacity:1" d="M 158.226,559.977 142.994,575.209 z" id="boundary" inkscape:connector-curvature="0" />
	<path style="fill:none;stroke:red;stroke-width:1px;stroke-linecap:butt;stroke-linejoin:miter;stroke-opacity:1" d="M 127.762,590.441 118.242,619.002 z" id="boundary" inkscape:connector-curvature="0" />
	<path style="fill:none;stroke:red;stroke-width:1px;stroke-linecap:butt;stroke-linejoin:miter;stroke-opacity:1" d="M 118.242,619.002 108.722,638.042 z" id="boundary" inkscape:connector-curvature="0" />
	<path style="fill:none;stroke:red;stroke-width:1px;stroke-linecap:butt;stroke-linejoin:miter;stroke-opacity:1" d="M 127.762,590.441 142.994,575.209 z" id="boundary" inkscape:connector-curvature="0" />
	<path style="fill:none;stroke:red;stroke-width:1px;stroke-linecap:butt;stroke-linejoin:miter;stroke-opacity:1" d="M 228.676,537.129 209.635,537.129 z" id="boundary" inkscape:connector-curvature="0" />
	<path style="fill:none;stroke:red;stroke-width:1px;stroke-linecap:butt;stroke-linejoin:miter;stroke-opacity:1" d="M 247.716,527.608 228.676,537.129 z" id="boundary" inkscape:connector-curvature="0" />
	<path style="fill:none;stroke:red;stroke-width:1px;stroke-linecap:butt;stroke-linejoin:miter;stroke-opacity:1" d="M 266.756,527.608 247.716,527.608 z" id="boundary" inkscape:connector-curvature="0" />
	<path style="fill:none;stroke:red;stroke-width:1px;stroke-linecap:butt;stroke-linejoin:miter;stroke-opacity:1" d="M 209.635,537.129 192.499,546.649 z" id="boundary" inkscape:connector-curvature="0" />
	<path style="fill:none;stroke:red;stroke-width:1px;stroke-linecap:butt;stroke-linejoin:miter;stroke-opacity:1" d="M 192.499,546.649 173.459,546.649 z" id="boundary" inkscape:connector-curvature="0" />
	<path style="fill:none;stroke:red;stroke-width:1px;stroke-linecap:butt;stroke-linejoin:miter;stroke-opacity:1" d="M 158.226,559.977 173.459,546.649 z" id="boundary" inkscape:connector-curvature="0" />
	<path style="fill:none;stroke:red;stroke-width:1px;stroke-linecap:butt;stroke-linejoin:miter;stroke-opacity:1" d="M 356.246,350.534 373.382,360.054 z" id="boundary" inkscape:connector-curvature="0" />
	<path style="fill:none;stroke:red;stroke-width:1px;stroke-linecap:butt;stroke-linejoin:miter;stroke-opacity:1" d="M 460.967,356.246 441.927,361.958 z" id="boundary" inkscape:connector-curvature="0" />
	<path style="fill:none;stroke:red;stroke-width:1px;stroke-linecap:butt;stroke-linejoin:miter;stroke-opacity:1" d="M 422.887,371.478 441.927,361.958 z" id="boundary" inkscape:connector-curvature="0" />
	<path style="fill:none;stroke:red;stroke-width:1px;stroke-linecap:butt;stroke-linejoin:miter;stroke-opacity:1" d="M 373.382,360.054 386.71,375.286 z" id="boundary" inkscape:connector-curvature="0" />
	<path style="fill:none;stroke:red;stroke-width:1px;stroke-linecap:butt;stroke-linejoin:miter;stroke-opacity:1" d="M 502.856,318.165 518.088,295.317 z" id="boundary" inkscape:connector-curvature="0" />
	<path style="fill:none;stroke:red;stroke-width:1px;stroke-linecap:butt;stroke-linejoin:miter;stroke-opacity:1" d="M 537.129,257.236 533.321,280.084 z" id="boundary" inkscape:connector-curvature="0" />
	<path style="fill:none;stroke:red;stroke-width:1px;stroke-linecap:butt;stroke-linejoin:miter;stroke-opacity:1" d="M 533.321,280.084 518.088,295.317 z" id="boundary" inkscape:connector-curvature="0" />
	<path style="fill:none;stroke:red;stroke-width:1px;stroke-linecap:butt;stroke-linejoin:miter;stroke-opacity:1" d="M 478.104,346.726 485.72,327.685 z" id="boundary" inkscape:connector-curvature="0" />
	<path style="fill:none;stroke:red;stroke-width:1px;stroke-linecap:butt;stroke-linejoin:miter;stroke-opacity:1" d="M 485.72,327.685 502.856,318.165 z" id="boundary" inkscape:connector-curvature="0" />
	<path style="fill:none;stroke:red;stroke-width:1px;stroke-linecap:butt;stroke-linejoin:miter;stroke-opacity:1" d="M 478.104,346.726 460.967,356.246 z" id="boundary" inkscape:connector-curvature="0" />
	<path style="fill:none;stroke:red;stroke-width:1px;stroke-linecap:butt;stroke-linejoin:miter;stroke-opacity:1" d="M 356.246,350.534 337.205,346.726 z" id="boundary" inkscape:connector-curvature="0" />
	<path style="fill:none;stroke:red;stroke-width:1px;stroke-linecap:butt;stroke-linejoin:miter;stroke-opacity:1" d="M 422.887,371.478 405.75,380.998 z" id="boundary" inkscape:connector-curvature="0" />
	<path style="fill:none;stroke:red;stroke-width:1px;stroke-linecap:butt;stroke-linejoin:miter;stroke-opacity:1" d="M 405.75,380.998 386.71,375.286 z" id="boundary" inkscape:connector-curvature="0" />
	<path style="fill:none;stroke:red;stroke-width:1px;stroke-linecap:butt;stroke-linejoin:miter;stroke-opacity:1" d="M 344.821,470.488 339.109,438.119 z" id="boundary" inkscape:connector-curvature="0" />
	<path style="fill:none;stroke:red;stroke-width:1px;stroke-linecap:butt;stroke-linejoin:miter;stroke-opacity:1" d="M 485.72,624.714 504.76,624.714 z" id="boundary" inkscape:connector-curvature="0" />
	<path style="fill:none;stroke:red;stroke-width:1px;stroke-linecap:butt;stroke-linejoin:miter;stroke-opacity:1" d="M 476.2,641.85 485.72,624.714 z" id="boundary" inkscape:connector-curvature="0" />
	<path style="fill:none;stroke:red;stroke-width:1px;stroke-linecap:butt;stroke-linejoin:miter;stroke-opacity:1" d="M 459.063,653.274 440.023,658.987 z" id="boundary" inkscape:connector-curvature="0" />
	<path style="fill:none;stroke:red;stroke-width:1px;stroke-linecap:butt;stroke-linejoin:miter;stroke-opacity:1" d="M 476.2,641.85 459.063,653.274 z" id="boundary" inkscape:connector-curvature="0" />
	<path style="fill:none;stroke:red;stroke-width:1px;stroke-linecap:butt;stroke-linejoin:miter;stroke-opacity:1" d="M 424.791,672.315 440.023,658.987 z" id="boundary" inkscape:connector-curvature="0" />
	<path style="fill:none;stroke:red;stroke-width:1px;stroke-linecap:butt;stroke-linejoin:miter;stroke-opacity:1" d="M 523.8,624.714 504.76,624.714 z" id="boundary" inkscape:connector-curvature="0" />
	<path style="fill:none;stroke:red;stroke-width:1px;stroke-linecap:butt;stroke-linejoin:miter;stroke-opacity:1" d="M 23.0403,799.885 32.5605,771.324 z" id="boundary" inkscape:connector-curvature="0" />
	<path style="fill:none;stroke:red;stroke-width:1px;stroke-linecap:butt;stroke-linejoin:miter;stroke-opacity:1" d="M 23.0403,799.885 23.0403,818.925 z" id="boundary" inkscape:connector-curvature="0" />
	<path style="fill:none;stroke:red;stroke-width:1px;stroke-linecap:butt;stroke-linejoin:miter;stroke-opacity:1" d="M 23.0403,818.925 13.5202,837.965 z" id="boundary" inkscape:connector-curvature="0" />
	<path style="fill:none;stroke:red;stroke-width:1px;stroke-linecap:butt;stroke-linejoin:miter;stroke-opacity:1" d="M 13.5202,857.006 13.5202,837.965 z" id="boundary" inkscape:connector-curvature="0" />
	<path style="fill:none;stroke:red;stroke-width:1px;stroke-linecap:butt;stroke-linejoin:miter;stroke-opacity:1" d="M 32.5605,771.324 42.0806,742.764 z" id="boundary" inkscape:connector-curvature="0" />
	<path style="fill:none;stroke:red;stroke-width:1px;stroke-linecap:butt;stroke-linejoin:miter;stroke-opacity:1" d="M 80.1612,676.123 95.3935,660.891 z" id="boundary" inkscape:connector-curvature="0" />
	<path style="fill:none;stroke:red;stroke-width:1px;stroke-linecap:butt;stroke-linejoin:miter;stroke-opacity:1" d="M 108.722,638.042 95.3935,660.891 z" id="boundary" inkscape:connector-curvature="0" />
	<path style="fill:none;stroke:red;stroke-width:1px;stroke-linecap:butt;stroke-linejoin:miter;stroke-opacity:1" d="M 70.6411,695.163 70.6411,714.203 z" id="boundary" inkscape:connector-curvature="0" />
	<path style="fill:none;stroke:red;stroke-width:1px;stroke-linecap:butt;stroke-linejoin:miter;stroke-opacity:1" d="M 70.6411,714.203 51.6008,723.724 z" id="boundary" inkscape:connector-curvature="0" />
	<path style="fill:none;stroke:red;stroke-width:1px;stroke-linecap:butt;stroke-linejoin:miter;stroke-opacity:1" d="M 80.1612,676.123 70.6411,695.163 z" id="boundary" inkscape:connector-curvature="0" />
	<path style="fill:none;stroke:red;stroke-width:1px;stroke-linecap:butt;stroke-linejoin:miter;stroke-opacity:1" d="M 42.0806,742.764 51.6008,723.724 z" id="boundary" inkscape:connector-curvature="0" />
	<path style="fill:none;stroke:red;stroke-width:1px;stroke-linecap:butt;stroke-linejoin:miter;stroke-opacity:1" d="M 4,876.046 13.5202,857.006 z" id="boundary" inkscape:connector-curvature="0" />
	<path style="fill:none;stroke:red;stroke-width:1px;stroke-linecap:butt;stroke-linejoin:miter;stroke-opacity:1" d="M 13.5202,893.182 4,876.046 z" id="boundary" inkscape:connector-curvature="0" />
	<path style="fill:none;stroke:red;stroke-width:1px;stroke-linecap:butt;stroke-linejoin:miter;stroke-opacity:1" d="M 4,952.207 4,933.167 z" id="boundary" inkscape:connector-curvature="0" />
	<path style="fill:none;stroke:red;stroke-width:1px;stroke-linecap:butt;stroke-linejoin:miter;stroke-opacity:1" d="M 23.0403,948.399 4,952.207 z" id="boundary" inkscape:connector-curvature="0" />
	<path style="fill:none;stroke:red;stroke-width:1px;stroke-linecap:butt;stroke-linejoin:miter;stroke-opacity:1" d="M 13.5202,912.223 4,933.167 z" id="boundary" inkscape:connector-curvature="0" />
	<path style="fill:none;stroke:red;stroke-width:1px;stroke-linecap:butt;stroke-linejoin:miter;stroke-opacity:1" d="M 13.5202,893.182 13.5202,912.223 z" id="boundary" inkscape:connector-curvature="0" />
	<path style="fill:none;stroke:red;stroke-width:1px;stroke-linecap:butt;stroke-linejoin:miter;stroke-opacity:1" d="M 66.833,946.495 51.6008,961.727 z" id="boundary" inkscape:connector-curvature="0" />
	<path style="fill:none;stroke:red;stroke-width:1px;stroke-linecap:butt;stroke-linejoin:miter;stroke-opacity:1" d="M 32.5605,965.536 51.6008,961.727 z" id="boundary" inkscape:connector-curvature="0" />
	<path style="fill:none;stroke:red;stroke-width:1px;stroke-linecap:butt;stroke-linejoin:miter;stroke-opacity:1" d="M 32.5605,965.536 23.0403,948.399 z" id="boundary" inkscape:connector-curvature="0" />
	<path style="fill:none;stroke:red;stroke-width:1px;stroke-linecap:butt;stroke-linejoin:miter;stroke-opacity:1" d="M 66.833,946.495 80.1612,961.727 z" id="boundary" inkscape:connector-curvature="0" />
	<path style="fill:none;stroke:red;stroke-width:1px;stroke-linecap:butt;stroke-linejoin:miter;stroke-opacity:1" d="M 99.2015,952.207 80.1612,961.727 z" id="boundary" inkscape:connector-curvature="0" />
	<path style="fill:none;stroke:red;stroke-width:1px;stroke-linecap:butt;stroke-linejoin:miter;stroke-opacity:1" d="M 306.741,754.188 287.701,763.708 z" id="boundary" inkscape:connector-curvature="0" />
	<path style="fill:none;stroke:red;stroke-width:1px;stroke-linecap:butt;stroke-linejoin:miter;stroke-opacity:1" d="M 249.62,782.749 268.66,773.228 z" id="boundary" inkscape:connector-curvature="0" />
	<path style="fill:none;stroke:red;stroke-width:1px;stroke-linecap:butt;stroke-linejoin:miter;stroke-opacity:1" d="M 249.62,782.749 230.58,792.269 z" id="boundary" inkscape:connector-curvature="0" />
	<path style="fill:none;stroke:red;stroke-width:1px;stroke-linecap:butt;stroke-linejoin:miter;stroke-opacity:1" d="M 268.66,773.228 287.701,763.708 z" id="boundary" inkscape:connector-curvature="0" />
	<path style="fill:none;stroke:red;stroke-width:1px;stroke-linecap:butt;stroke-linejoin:miter;stroke-opacity:1" d="M 424.791,672.315 411.463,687.547 z" id="boundary" inkscape:connector-curvature="0" />
	<path style="fill:none;stroke:red;stroke-width:1px;stroke-linecap:butt;stroke-linejoin:miter;stroke-opacity:1" d="M 411.463,687.547 396.23,700.875 z" id="boundary" inkscape:connector-curvature="0" />
	<path style="fill:none;stroke:red;stroke-width:1px;stroke-linecap:butt;stroke-linejoin:miter;stroke-opacity:1" d="M 396.23,700.875 377.19,700.875 z" id="boundary" inkscape:connector-curvature="0" />
	<path style="fill:none;stroke:red;stroke-width:1px;stroke-linecap:butt;stroke-linejoin:miter;stroke-opacity:1" d="M 377.19,700.875 363.862,725.628 z" id="boundary" inkscape:connector-curvature="0" />
	<path style="fill:none;stroke:red;stroke-width:1px;stroke-linecap:butt;stroke-linejoin:miter;stroke-opacity:1" d="M 363.862,725.628 344.821,735.148 z" id="boundary" inkscape:connector-curvature="0" />
	<path style="fill:none;stroke:red;stroke-width:1px;stroke-linecap:butt;stroke-linejoin:miter;stroke-opacity:1" d="M 325.781,744.668 344.821,735.148 z" id="boundary" inkscape:connector-curvature="0" />
	<path style="fill:none;stroke:red;stroke-width:1px;stroke-linecap:butt;stroke-linejoin:miter;stroke-opacity:1" d="M 306.741,754.188 325.781,744.668 z" id="boundary" inkscape:connector-curvature="0" />
	<path style="fill:none;stroke:red;stroke-width:1px;stroke-linecap:butt;stroke-linejoin:miter;stroke-opacity:1" d="M 125.858,896.99 110.626,910.319 z" id="boundary" inkscape:connector-curvature="0" />
	<path style="fill:none;stroke:red;stroke-width:1px;stroke-linecap:butt;stroke-linejoin:miter;stroke-opacity:1" d="M 101.106,929.359 110.626,910.319 z" id="boundary" inkscape:connector-curvature="0" />
	<path style="fill:none;stroke:red;stroke-width:1px;stroke-linecap:butt;stroke-linejoin:miter;stroke-opacity:1" d="M 101.106,929.359 99.2015,952.207 z" id="boundary" inkscape:connector-curvature="0" />
	<path style="fill:none;stroke:red;stroke-width:1px;stroke-linecap:butt;stroke-linejoin:miter;stroke-opacity:1" d="M 125.858,896.99 139.186,872.238 z" id="boundary" inkscape:connector-curvature="0" />
	<path style="fill:none;stroke:red;stroke-width:1px;stroke-linecap:butt;stroke-linejoin:miter;stroke-opacity:1" d="M 139.186,872.238 154.418,858.91 z" id="boundary" inkscape:connector-curvature="0" />
	<path style="fill:none;stroke:red;stroke-width:1px;stroke-linecap:butt;stroke-linejoin:miter;stroke-opacity:1" d="M 205.827,824.637 215.347,805.597 z" id="boundary" inkscape:connector-curvature="0" />
	<path style="fill:none;stroke:red;stroke-width:1px;stroke-linecap:butt;stroke-linejoin:miter;stroke-opacity:1" d="M 215.347,805.597 230.58,792.269 z" id="boundary" inkscape:connector-curvature="0" />
	<path style="fill:none;stroke:red;stroke-width:1px;stroke-linecap:butt;stroke-linejoin:miter;stroke-opacity:1" d="M 205.827,824.637 186.787,834.157 z" id="boundary" inkscape:connector-curvature="0" />
	<path style="fill:none;stroke:red;stroke-width:1px;stroke-linecap:butt;stroke-linejoin:miter;stroke-opacity:1" d="M 154.418,858.91 167.747,843.678 z" id="boundary" inkscape:connector-curvature="0" />
	<path style="fill:none;stroke:red;stroke-width:1px;stroke-linecap:butt;stroke-linejoin:miter;stroke-opacity:1" d="M 167.747,843.678 186.787,834.157 z" id="boundary" inkscape:connector-curvature="0" />
	<path style="fill:none;stroke:red;stroke-width:1px;stroke-linecap:butt;stroke-linejoin:miter;stroke-opacity:1" d="M 523.8,624.714 537.129,639.946 z" id="boundary" inkscape:connector-curvature="0" />
	<path style="fill:none;stroke:red;stroke-width:1px;stroke-linecap:butt;stroke-linejoin:miter;stroke-opacity:1" d="M 750.38,70.6411 759.9,53.5048 z" id="boundary" inkscape:connector-curvature="0" />
	<path style="fill:none;stroke:red;stroke-width:1px;stroke-linecap:butt;stroke-linejoin:miter;stroke-opacity:1" d="M 759.9,53.5048 778.94,51.6008 z" id="boundary" inkscape:connector-curvature="0" />
	<path style="fill:none;stroke:red;stroke-width:1px;stroke-linecap:butt;stroke-linejoin:miter;stroke-opacity:1" d="M 750.38,70.6411 733.244,80.1612 z" id="boundary" inkscape:connector-curvature="0" />
	<path style="fill:none;stroke:red;stroke-width:1px;stroke-linecap:butt;stroke-linejoin:miter;stroke-opacity:1" d="M 695.163,89.6814 714.203,80.1612 z" id="boundary" inkscape:connector-curvature="0" />
	<path style="fill:none;stroke:red;stroke-width:1px;stroke-linecap:butt;stroke-linejoin:miter;stroke-opacity:1" d="M 714.203,80.1612 733.244,80.1612 z" id="boundary" inkscape:connector-curvature="0" />
	<path style="fill:none;stroke:red;stroke-width:1px;stroke-linecap:butt;stroke-linejoin:miter;stroke-opacity:1" d="M 695.163,89.6814 678.027,99.2015 z" id="boundary" inkscape:connector-curvature="0" />
	<path style="fill:none;stroke:red;stroke-width:1px;stroke-linecap:butt;stroke-linejoin:miter;stroke-opacity:1" d="M 815.117,36.3685 834.157,32.5605 z" id="boundary" inkscape:connector-curvature="0" />
	<path style="fill:none;stroke:red;stroke-width:1px;stroke-linecap:butt;stroke-linejoin:miter;stroke-opacity:1" d="M 851.294,23.0403 834.157,32.5605 z" id="boundary" inkscape:connector-curvature="0" />
	<path style="fill:none;stroke:red;stroke-width:1px;stroke-linecap:butt;stroke-linejoin:miter;stroke-opacity:1" d="M 778.94,51.6008 796.077,42.0806 z" id="boundary" inkscape:connector-curvature="0" />
	<path style="fill:none;stroke:red;stroke-width:1px;stroke-linecap:butt;stroke-linejoin:miter;stroke-opacity:1" d="M 815.117,36.3685 796.077,42.0806 z" id="boundary" inkscape:connector-curvature="0" />
	<path style="fill:none;stroke:red;stroke-width:1px;stroke-linecap:butt;stroke-linejoin:miter;stroke-opacity:1" d="M 590.441,156.322 605.674,141.09 z" id="boundary" inkscape:connector-curvature="0" />
	<path style="fill:none;stroke:red;stroke-width:1px;stroke-linecap:butt;stroke-linejoin:miter;stroke-opacity:1" d="M 580.921,175.363 590.441,156.322 z" id="boundary" inkscape:connector-curvature="0" />
	<path style="fill:none;stroke:red;stroke-width:1px;stroke-linecap:butt;stroke-linejoin:miter;stroke-opacity:1" d="M 561.881,222.964 565.689,190.595 z" id="boundary" inkscape:connector-curvature="0" />
	<path style="fill:none;stroke:red;stroke-width:1px;stroke-linecap:butt;stroke-linejoin:miter;stroke-opacity:1" d="M 565.689,190.595 580.921,175.363 z" id="boundary" inkscape:connector-curvature="0" />
	<path style="fill:none;stroke:red;stroke-width:1px;stroke-linecap:butt;stroke-linejoin:miter;stroke-opacity:1" d="M 605.674,141.09 624.714,131.57 z" id="boundary" inkscape:connector-curvature="0" />
	<path style="fill:none;stroke:red;stroke-width:1px;stroke-linecap:butt;stroke-linejoin:miter;stroke-opacity:1" d="M 678.027,99.2015 662.795,112.53 z" id="boundary" inkscape:connector-curvature="0" />
	<path style="fill:none;stroke:red;stroke-width:1px;stroke-linecap:butt;stroke-linejoin:miter;stroke-opacity:1" d="M 662.795,112.53 643.754,122.05 z" id="boundary" inkscape:connector-curvature="0" />
	<path style="fill:none;stroke:red;stroke-width:1px;stroke-linecap:butt;stroke-linejoin:miter;stroke-opacity:1" d="M 643.754,122.05 624.714,131.57 z" id="boundary" inkscape:connector-curvature="0" />
	<path style="fill:none;stroke:red;stroke-width:1px;stroke-linecap:butt;stroke-linejoin:miter;stroke-opacity:1" d="M 820.829,230.58 839.869,221.06 z" id="boundary" inkscape:connector-curvature="0" />
	<path style="fill:none;stroke:red;stroke-width:1px;stroke-linecap:butt;stroke-linejoin:miter;stroke-opacity:1" d="M 853.198,196.307 839.869,221.06 z" id="boundary" inkscape:connector-curvature="0" />
	<path style="fill:none;stroke:red;stroke-width:1px;stroke-linecap:butt;stroke-linejoin:miter;stroke-opacity:1" d="M 820.829,230.58 805.597,243.908 z" id="boundary" inkscape:connector-curvature="0" />
	<path style="fill:none;stroke:red;stroke-width:1px;stroke-linecap:butt;stroke-linejoin:miter;stroke-opacity:1" d="M 851.294,23.0403 870.334,19.2322 z" id="boundary" inkscape:connector-curvature="0" />
	<path style="fill:none;stroke:red;stroke-width:1px;stroke-linecap:butt;stroke-linejoin:miter;stroke-opacity:1" d="M 889.374,13.5202 906.511,4 z" id="boundary" inkscape:connector-curvature="0" />
	<path style="fill:none;stroke:red;stroke-width:1px;stroke-linecap:butt;stroke-linejoin:miter;stroke-opacity:1" d="M 906.511,4 910.319,23.0403 z" id="boundary" inkscape:connector-curvature="0" />
	<path style="fill:none;stroke:red;stroke-width:1px;stroke-linecap:butt;stroke-linejoin:miter;stroke-opacity:1" d="M 889.374,13.5202 870.334,19.2322 z" id="boundary" inkscape:connector-curvature="0" />
	<path style="fill:none;stroke:red;stroke-width:1px;stroke-linecap:butt;stroke-linejoin:miter;stroke-opacity:1" d="M 927.455,32.5605 910.319,23.0403 z" id="boundary" inkscape:connector-curvature="0" />
	<path style="fill:none;stroke:red;stroke-width:1px;stroke-linecap:butt;stroke-linejoin:miter;stroke-opacity:1" d="M 927.455,32.5605 929.359,51.6008 z" id="boundary" inkscape:connector-curvature="0" />
	<path style="fill:none;stroke:red;stroke-width:1px;stroke-linecap:butt;stroke-linejoin:miter;stroke-opacity:1" d="M 946.495,28.7524 927.455,32.5605 z" id="boundary" inkscape:connector-curvature="0" />
	<path style="fill:none;stroke:red;stroke-width:1px;stroke-linecap:butt;stroke-linejoin:miter;stroke-opacity:1" d="M 946.495,28.7524 965.536,32.5605 z" id="boundary" inkscape:connector-curvature="0" />
	<path style="fill:none;stroke:red;stroke-width:1px;stroke-linecap:butt;stroke-linejoin:miter;stroke-opacity:1" d="M 929.359,51.6008 948.399,51.6008 z" id="boundary" inkscape:connector-curvature="0" />
	<path style="fill:none;stroke:red;stroke-width:1px;stroke-linecap:butt;stroke-linejoin:miter;stroke-opacity:1" d="M 948.399,51.6008 957.919,68.737 z" id="boundary" inkscape:connector-curvature="0" />
	<path style="fill:none;stroke:red;stroke-width:1px;stroke-linecap:butt;stroke-linejoin:miter;stroke-opacity:1" d="M 976.96,70.6411 957.919,68.737 z" id="boundary" inkscape:connector-curvature="0" />
	<path style="fill:none;stroke:red;stroke-width:1px;stroke-linecap:butt;stroke-linejoin:miter;stroke-opacity:1" d="M 957.919,68.737 957.919,91.5854 z" id="boundary" inkscape:connector-curvature="0" />
	<path style="fill:none;stroke:red;stroke-width:1px;stroke-linecap:butt;stroke-linejoin:miter;stroke-opacity:1" d="M 900.798,148.706 919.839,139.186 z" id="boundary" inkscape:connector-curvature="0" />
	<path style="fill:none;stroke:red;stroke-width:1px;stroke-linecap:butt;stroke-linejoin:miter;stroke-opacity:1" d="M 887.47,177.267 900.798,148.706 z" id="boundary" inkscape:connector-curvature="0" />
	<path style="fill:none;stroke:red;stroke-width:1px;stroke-linecap:butt;stroke-linejoin:miter;stroke-opacity:1" d="M 853.198,196.307 868.43,182.979 z" id="boundary" inkscape:connector-curvature="0" />
	<path style="fill:none;stroke:red;stroke-width:1px;stroke-linecap:butt;stroke-linejoin:miter;stroke-opacity:1" d="M 868.43,182.979 887.47,177.267 z" id="boundary" inkscape:connector-curvature="0" />
	<path style="fill:none;stroke:red;stroke-width:1px;stroke-linecap:butt;stroke-linejoin:miter;stroke-opacity:1" d="M 919.839,139.186 936.975,129.666 z" id="boundary" inkscape:connector-curvature="0" />
	<path style="fill:none;stroke:red;stroke-width:1px;stroke-linecap:butt;stroke-linejoin:miter;stroke-opacity:1" d="M 973.152,103.01 957.919,91.5854 z" id="boundary" inkscape:connector-curvature="0" />
	<path style="fill:none;stroke:red;stroke-width:1px;stroke-linecap:butt;stroke-linejoin:miter;stroke-opacity:1" d="M 996,76.3532 976.96,70.6411 z" id="boundary" inkscape:connector-curvature="0" />
	<path style="fill:none;stroke:red;stroke-width:1px;stroke-linecap:butt;stroke-linejoin:miter;stroke-opacity:1" d="M 954.111,120.146 936.975,129.666 z" id="boundary" inkscape:connector-curvature="0" />
	<path style="fill:none;stroke:red;stroke-width:1px;stroke-linecap:butt;stroke-linejoin:miter;stroke-opacity:1" d="M 552.361,242.004 537.129,257.236 z" id="boundary" inkscape:connector-curvature="0" />
	<path style="fill:none;stroke:red;stroke-width:1px;stroke-linecap:butt;stroke-linejoin:miter;stroke-opacity:1" d="M 561.881,222.964 552.361,242.004 z" id="boundary" inkscape:connector-curvature="0" />
	<path style="fill:none;stroke:red;stroke-width:1px;stroke-linecap:butt;stroke-linejoin:miter;stroke-opacity:1" d="M 577.113,548.553 596.154,529.512 z" id="boundary" inkscape:connector-curvature="0" />
	<path style="fill:none;stroke:red;stroke-width:1px;stroke-linecap:butt;stroke-linejoin:miter;stroke-opacity:1" d="M 586.633,565.689 577.113,548.553 z" id="boundary" inkscape:connector-curvature="0" />
	<path style="fill:none;stroke:red;stroke-width:1px;stroke-linecap:butt;stroke-linejoin:miter;stroke-opacity:1" d="M 605.674,510.472 596.154,529.512 z" id="boundary" inkscape:connector-curvature="0" />
	<path style="fill:none;stroke:red;stroke-width:1px;stroke-linecap:butt;stroke-linejoin:miter;stroke-opacity:1" d="M 601.866,577.113 586.633,565.689 z" id="boundary" inkscape:connector-curvature="0" />
	<path style="fill:none;stroke:red;stroke-width:1px;stroke-linecap:butt;stroke-linejoin:miter;stroke-opacity:1" d="M 641.85,500.952 624.714,510.472 z" id="boundary" inkscape:connector-curvature="0" />
	<path style="fill:none;stroke:red;stroke-width:1px;stroke-linecap:butt;stroke-linejoin:miter;stroke-opacity:1" d="M 624.714,510.472 605.674,510.472 z" id="boundary" inkscape:connector-curvature="0" />
	<path style="fill:none;stroke:red;stroke-width:1px;stroke-linecap:butt;stroke-linejoin:miter;stroke-opacity:1" d="M 653.274,481.912 641.85,500.952 z" id="boundary" inkscape:connector-curvature="0" />
	<path style="fill:none;stroke:red;stroke-width:1px;stroke-linecap:butt;stroke-linejoin:miter;stroke-opacity:1" d="M 619.002,586.633 601.866,577.113 z" id="boundary" inkscape:connector-curvature="0" />
	<path style="fill:none;stroke:red;stroke-width:1px;stroke-linecap:butt;stroke-linejoin:miter;stroke-opacity:1" d="M 619.002,586.633 628.522,603.77 z" id="boundary" inkscape:connector-curvature="0" />
	<path style="fill:none;stroke:red;stroke-width:1px;stroke-linecap:butt;stroke-linejoin:miter;stroke-opacity:1" d="M 537.129,639.946 546.649,657.083 z" id="boundary" inkscape:connector-curvature="0" />
	<path style="fill:none;stroke:red;stroke-width:1px;stroke-linecap:butt;stroke-linejoin:miter;stroke-opacity:1" d="M 556.169,674.219 546.649,657.083 z" id="boundary" inkscape:connector-curvature="0" />
	<path style="fill:none;stroke:red;stroke-width:1px;stroke-linecap:butt;stroke-linejoin:miter;stroke-opacity:1" d="M 556.169,674.219 569.497,689.451 z" id="boundary" inkscape:connector-curvature="0" />
	<path style="fill:none;stroke:red;stroke-width:1px;stroke-linecap:butt;stroke-linejoin:miter;stroke-opacity:1" d="M 569.497,689.451 575.209,708.491 z" id="boundary" inkscape:connector-curvature="0" />
	<path style="fill:none;stroke:red;stroke-width:1px;stroke-linecap:butt;stroke-linejoin:miter;stroke-opacity:1" d="M 586.633,723.724 575.209,708.491 z" id="boundary" inkscape:connector-curvature="0" />
	<path style="fill:none;stroke:red;stroke-width:1px;stroke-linecap:butt;stroke-linejoin:miter;stroke-opacity:1" d="M 628.522,603.77 641.85,619.002 z" id="boundary" inkscape:connector-curvature="0" />
	<path style="fill:none;stroke:red;stroke-width:1px;stroke-linecap:butt;stroke-linejoin:miter;stroke-opacity:1" d="M 636.138,748.476 617.098,748.476 z" id="boundary" inkscape:connector-curvature="0" />
	<path style="fill:none;stroke:red;stroke-width:1px;stroke-linecap:butt;stroke-linejoin:miter;stroke-opacity:1" d="M 617.098,748.476 599.962,738.956 z" id="boundary" inkscape:connector-curvature="0" />
	<path style="fill:none;stroke:red;stroke-width:1px;stroke-linecap:butt;stroke-linejoin:miter;stroke-opacity:1" d="M 599.962,738.956 586.633,723.724 z" id="boundary" inkscape:connector-curvature="0" />
	<path style="fill:none;stroke:red;stroke-width:1px;stroke-linecap:butt;stroke-linejoin:miter;stroke-opacity:1" d="M 641.85,619.002 651.37,636.138 z" id="boundary" inkscape:connector-curvature="0" />
	<path style="fill:none;stroke:red;stroke-width:1px;stroke-linecap:butt;stroke-linejoin:miter;stroke-opacity:1" d="M 718.012,405.75 729.436,377.19 z" id="boundary" inkscape:connector-curvature="0" />
	<path style="fill:none;stroke:red;stroke-width:1px;stroke-linecap:butt;stroke-linejoin:miter;stroke-opacity:1" d="M 718.012,405.75 706.587,420.983 z" id="boundary" inkscape:connector-curvature="0" />
	<path style="fill:none;stroke:red;stroke-width:1px;stroke-linecap:butt;stroke-linejoin:miter;stroke-opacity:1" d="M 706.587,420.983 691.355,434.311 z" id="boundary" inkscape:connector-curvature="0" />
	<path style="fill:none;stroke:red;stroke-width:1px;stroke-linecap:butt;stroke-linejoin:miter;stroke-opacity:1" d="M 678.027,449.543 691.355,434.311 z" id="boundary" inkscape:connector-curvature="0" />
	<path style="fill:none;stroke:red;stroke-width:1px;stroke-linecap:butt;stroke-linejoin:miter;stroke-opacity:1" d="M 729.436,377.19 738.956,358.15 z" id="boundary" inkscape:connector-curvature="0" />
	<path style="fill:none;stroke:red;stroke-width:1px;stroke-linecap:butt;stroke-linejoin:miter;stroke-opacity:1" d="M 782.749,287.701 773.228,306.741 z" id="boundary" inkscape:connector-curvature="0" />
	<path style="fill:none;stroke:red;stroke-width:1px;stroke-linecap:butt;stroke-linejoin:miter;stroke-opacity:1" d="M 796.077,262.948 805.597,243.908 z" id="boundary" inkscape:connector-curvature="0" />
	<path style="fill:none;stroke:red;stroke-width:1px;stroke-linecap:butt;stroke-linejoin:miter;stroke-opacity:1" d="M 782.749,287.701 796.077,262.948 z" id="boundary" inkscape:connector-curvature="0" />
	<path style="fill:none;stroke:red;stroke-width:1px;stroke-linecap:butt;stroke-linejoin:miter;stroke-opacity:1" d="M 773.228,306.741 763.708,325.781 z" id="boundary" inkscape:connector-curvature="0" />
	<path style="fill:none;stroke:red;stroke-width:1px;stroke-linecap:butt;stroke-linejoin:miter;stroke-opacity:1" d="M 763.708,325.781 748.476,339.109 z" id="boundary" inkscape:connector-curvature="0" />
	<path style="fill:none;stroke:red;stroke-width:1px;stroke-linecap:butt;stroke-linejoin:miter;stroke-opacity:1" d="M 738.956,358.15 748.476,339.109 z" id="boundary" inkscape:connector-curvature="0" />
	<path style="fill:none;stroke:red;stroke-width:1px;stroke-linecap:butt;stroke-linejoin:miter;stroke-opacity:1" d="M 662.795,462.871 653.274,481.912 z" id="boundary" inkscape:connector-curvature="0" />
	<path style="fill:none;stroke:red;stroke-width:1px;stroke-linecap:butt;stroke-linejoin:miter;stroke-opacity:1" d="M 678.027,662.795 662.795,651.37 z" id="boundary" inkscape:connector-curvature="0" />
	<path style="fill:none;stroke:red;stroke-width:1px;stroke-linecap:butt;stroke-linejoin:miter;stroke-opacity:1" d="M 662.795,651.37 651.37,636.138 z" id="boundary" inkscape:connector-curvature="0" />
	<path style="fill:none;stroke:red;stroke-width:1px;stroke-linecap:butt;stroke-linejoin:miter;stroke-opacity:1" d="M 655.179,748.476 636.138,748.476 z" id="boundary" inkscape:connector-curvature="0" />
	<path style="fill:none;stroke:red;stroke-width:1px;stroke-linecap:butt;stroke-linejoin:miter;stroke-opacity:1" d="M 662.795,462.871 678.027,449.543 z" id="boundary" inkscape:connector-curvature="0" />
	<path style="fill:none;stroke:red;stroke-width:1px;stroke-linecap:butt;stroke-linejoin:miter;stroke-opacity:1" d="M 691.355,678.027 678.027,662.795 z" id="boundary" inkscape:connector-curvature="0" />
	<path style="fill:none;stroke:red;stroke-width:1px;stroke-linecap:butt;stroke-linejoin:miter;stroke-opacity:1" d="M 691.355,678.027 691.355,697.067 z" id="boundary" inkscape:connector-curvature="0" />
	<path style="fill:none;stroke:red;stroke-width:1px;stroke-linecap:butt;stroke-linejoin:miter;stroke-opacity:1" d="M 681.835,719.916 672.315,738.956 z" id="boundary" inkscape:connector-curvature="0" />
	<path style="fill:none;stroke:red;stroke-width:1px;stroke-linecap:butt;stroke-linejoin:miter;stroke-opacity:1" d="M 672.315,738.956 655.179,748.476 z" id="boundary" inkscape:connector-curvature="0" />
	<path style="fill:none;stroke:red;stroke-width:1px;stroke-linecap:butt;stroke-linejoin:miter;stroke-opacity:1" d="M 691.355,697.067 681.835,719.916 z" id="boundary" inkscape:connector-curvature="0" />
	<circle cx="4" cy="876.046" r="4" fill="#0" id="circle0"/>
	<circle cx="4" cy="933.167" r="4" fill="#0" id="circle1"/>
	<circle cx="4" cy="952.207" r="4" fill="#0" id="circle2"/>
	<circle cx="13.5202" cy="837.965" r="4" fill="#0" id="circle3"/>
	<circle cx="13.5202" cy="857.006" r="4" fill="#0" id="circle4"/>
	<circle cx="13.5202" cy="893.182" r="4" fill="#0" id="circle5"/>
	<circle cx="13.5202" cy="912.223" r="4" fill="#0" id="circle6"/>
	<circle cx="23.0403" cy="799.885" r="4" fill="#0" id="circle7"/>
	<circle cx="23.0403" cy="818.925" r="4" fill="#0" id="circle8"/>
	<circle cx="23.0403" cy="948.399" r="4" fill="#0" id="circle9"/>
	<circle cx="32.5605" cy="771.324" r="4" fill="#0" id="circle10"/>
	<circle cx="32.5605" cy="965.536" r="4" fill="#0" id="circle11"/>
	<circle cx="42.0806" cy="742.764" r="4" fill="#0" id="circle12"/>
	<circle cx="51.6008" cy="723.724" r="4" fill="#0" id="circle13"/>
	<circle cx="51.6008" cy="961.727" r="4" fill="#0" id="circle14"/>
	<circle cx="66.833" cy="946.495" r="4" fill="#0" id="circle15"/>
	<circle cx="70.6411" cy="695.163" r="4" fill="#0" id="circle16"/>
	<circle cx="70.6411" cy="714.203" r="4" fill="#0" id="circle17"/>
	<circle cx="80.1612" cy="676.123" r="4" fill="#0" id="circle18"/>
	<circle cx="80.1612" cy="961.727" r="4" fill="#0" id="circle19"/>
	<circle cx="95.3935" cy="660.891" r="4" fill="#0" id="circle20"/>
	<circle cx="99.2015" cy="952.207" r="4" fill="#0" id="circle21"/>
	<circle cx="101.106" cy="929.359" r="4" fill="#0" id="circle22"/>
	<circle cx="108.722" cy="638.042" r="4" fill="#0" id="circle23"/>
	<circle cx="110.626" cy="910.319" r="4" fill="#0" id="circle24"/>
	<circle cx="118.242" cy="619.002" r="4" fill="#0" id="circle25"/>
	<circle cx="125.858" cy="896.99" r="4" fill="#0" id="circle26"/>
	<circle cx="127.762" cy="590.441" r="4" fill="#0" id="circle27"/>
	<circle cx="139.186" cy="872.238" r="4" fill="#0" id="circle28"/>
	<circle cx="142.994" cy="575.209" r="4" fill="#0" id="circle29"/>
	<circle cx="154.418" cy="858.91" r="4" fill="#0" id="circle30"/>
	<circle cx="158.226" cy="559.977" r="4" fill="#0" id="circle31"/>
	<circle cx="167.747" cy="843.678" r="4" fill="#0" id="circle32"/>
	<circle cx="173.459" cy="546.649" r="4" fill="#0" id="circle33"/>
	<circle cx="186.787" cy="834.157" r="4" fill="#0" id="circle34"/>
	<circle cx="192.499" cy="546.649" r="4" fill="#0" id="circle35"/>
	<circle cx="205.827" cy="824.637" r="4" fill="#0" id="circle36"/>
	<circle cx="209.635" cy="537.129" r="4" fill="#0" id="circle37"/>
	<circle cx="215.347" cy="805.597" r="4" fill="#0" id="circle38"/>
	<circle cx="228.676" cy="537.129" r="4" fill="#0" id="circle39"/>
	<circle cx="230.58" cy="792.269" r="4" fill="#0" id="circle40"/>
	<circle cx="247.716" cy="527.608" r="4" fill="#0" id="circle41"/>
	<circle cx="249.62" cy="782.749" r="4" fill="#0" id="circle42"/>
	<circle cx="266.756" cy="527.608" r="4" fill="#0" id="circle43"/>
	<circle cx="268.66" cy="773.228" r="4" fill="#0" id="circle44"/>
	<circle cx="283.893" cy="518.088" r="4" fill="#0" id="circle45"/>
	<circle cx="287.701" cy="763.708" r="4" fill="#0" id="circle46"/>
	<circle cx="299.125" cy="352.438" r="4" fill="#0" id="circle47"/>
	<circle cx="302.933" cy="510.472" r="4" fill="#0" id="circle48"/>
	<circle cx="306.741" cy="754.188" r="4" fill="#0" id="circle49"/>
	<circle cx="308.645" cy="369.574" r="4" fill="#0" id="circle50"/>
	<circle cx="318.165" cy="346.726" r="4" fill="#0" id="circle51"/>
	<circle cx="318.165" cy="386.71" r="4" fill="#0" id="circle52"/>
	<circle cx="318.165" cy="405.75" r="4" fill="#0" id="circle53"/>
	<circle cx="318.165" cy="499.048" r="4" fill="#0" id="circle54"/>
	<circle cx="323.877" cy="424.791" r="4" fill="#0" id="circle55"/>
	<circle cx="325.781" cy="744.668" r="4" fill="#0" id="circle56"/>
	<circle cx="329.589" cy="483.816" r="4" fill="#0" id="circle57"/>
	<circle cx="337.205" cy="346.726" r="4" fill="#0" id="circle58"/>
	<circle cx="339.109" cy="438.119" r="4" fill="#0" id="circle59"/>
	<circle cx="344.821" cy="470.488" r="4" fill="#0" id="circle60"/>
	<circle cx="344.821" cy="735.148" r="4" fill="#0" id="circle61"/>
	<circle cx="356.246" cy="350.534" r="4" fill="#0" id="circle62"/>
	<circle cx="363.862" cy="725.628" r="4" fill="#0" id="circle63"/>
	<circle cx="373.382" cy="360.054" r="4" fill="#0" id="circle64"/>
	<circle cx="377.19" cy="700.875" r="4" fill="#0" id="circle65"/>
	<circle cx="386.71" cy="375.286" r="4" fill="#0" id="circle66"/>
	<circle cx="396.23" cy="700.875" r="4" fill="#0" id="circle67"/>
	<circle cx="405.75" cy="380.998" r="4" fill="#0" id="circle68"/>
	<circle cx="411.463" cy="687.547" r="4" fill="#0" id="circle69"/>
	<circle cx="422.887" cy="371.478" r="4" fill="#0" id="circle70"/>
	<circle cx="424.791" cy="672.315" r="4" fill="#0" id="circle71"/>
	<circle cx="440.023" cy="658.987" r="4" fill="#0" id="circle72"/>
	<circle cx="441.927" cy="361.958" r="4" fill="#0" id="circle73"/>
	<circle cx="459.063" cy="653.274" r="4" fill="#0" id="circle74"/>
	<circle cx="460.967" cy="356.246" r="4" fill="#0" id="circle75"/>
	<circle cx="476.2" cy="641.85" r="4" fill="#0" id="circle76"/>
	<circle cx="478.104" cy="346.726" r="4" fill="#0" id="circle77"/>
	<circle cx="485.72" cy="327.685" r="4" fill="#0" id="circle78"/>
	<circle cx="485.72" cy="624.714" r="4" fill="#0" id="circle79"/>
	<circle cx="502.856" cy="318.165" r="4" fill="#0" id="circle80"/>
	<circle cx="504.76" cy="624.714" r="4" fill="#0" id="circle81"/>
	<circle cx="518.088" cy="295.317" r="4" fill="#0" id="circle82"/>
	<circle cx="523.8" cy="624.714" r="4" fill="#0" id="circle83"/>
	<circle cx="533.321" cy="280.084" r="4" fill="#0" id="circle84"/>
	<circle cx="537.129" cy="257.236" r="4" fill="#0" id="circle85"/>
	<circle cx="537.129" cy="639.946" r="4" fill="#0" id="circle86"/>
	<circle cx="546.649" cy="657.083" r="4" fill="#0" id="circle87"/>
	<circle cx="552.361" cy="242.004" r="4" fill="#0" id="circle88"/>
	<circle cx="556.169" cy="674.219" r="4" fill="#0" id="circle89"/>
	<circle cx="561.881" cy="222.964" r="4" fill="#0" id="circle90"/>
	<circle cx="565.689" cy="190.595" r="4" fill="#0" id="circle91"/>
	<circle cx="569.497" cy="689.451" r="4" fill="#0" id="circle92"/>
	<circle cx="575.209" cy="708.491" r="4" fill="#0" id="circle93"/>
	<circle cx="577.113" cy="548.553" r="4" fill="#0" id="circle94"/>
	<circle cx="580.921" cy="175.363" r="4" fill="#0" id="circle95"/>
	<circle cx="586.633" cy="565.689" r="4" fill="#0" id="circle96"/>
	<circle cx="586.633" cy="723.724" r="4" fill="#0" id="circle97"/>
	<circle cx="590.441" cy="156.322" r="4" fill="#0" id="circle98"/>
	<circle cx="596.154" cy="529.512" r="4" fill="#0" id="circle99"/>
	<circle cx="599.962" cy="738.956" r="4" fill="#0" id="circle100"/>
	<circle cx="601.866" cy="577.113" r="4" fill="#0" id="circle101"/>
	<circle cx="605.674" cy="141.09" r="4" fill="#0" id="circle102"/>
	<circle cx="605.674" cy="510.472" r="4" fill="#0" id="circle103"/>
	<circle cx="617.098" cy="748.476" r="4" fill="#0" id="circle104"/>
	<circle cx="619.002" cy="586.633" r="4" fill="#0" id="circle105"/>
	<circle cx="624.714" cy="131.57" r="4" fill="#0" id="circle106"/>
	<circle cx="624.714" cy="510.472" r="4" fill="#0" id="circle107"/>
	<circle cx="628.522" cy="603.77" r="4" fill="#0" id="circle108"/>
	<circle cx="636.138" cy="748.476" r="4" fill="#0" id="circle109"/>
	<circle cx="641.85" cy="500.952" r="4" fill="#0" id="circle110"/>
	<circle cx="641.85" cy="619.002" r="4" fill="#0" id="circle111"/>
	<circle cx="643.754" cy="122.05" r="4" fill="#0" id="circle112"/>
	<circle cx="651.37" cy="636.138" r="4" fill="#0" id="circle113"/>
	<circle cx="653.274" cy="481.912" r="4" fill="#0" id="circle114"/>
	<circle cx="655.179" cy="748.476" r="4" fill="#0" id="circle115"/>
	<circle cx="662.795" cy="112.53" r="4" fill="#0" id="circle116"/>
	<circle cx="662.795" cy="462.871" r="4" fill="#0" id="circle117"/>
	<circle cx="662.795" cy="651.37" r="4" fill="#0" id="circle118"/>
	<circle cx="672.315" cy="738.956" r="4" fill="#0" id="circle119"/>
	<circle cx="678.027" cy="99.2015" r="4" fill="#0" id="circle120"/>
	<circle cx="678.027" cy="449.543" r="4" fill="#0" id="circle121"/>
	<circle cx="678.027" cy="662.795" r="4" fill="#0" id="circle122"/>
	<circle cx="681.835" cy="719.916" r="4" fill="#0" id="circle123"/>
	<circle cx="691.355" cy="434.311" r="4" fill="#0" id="circle124"/>
	<circle cx="691.355" cy="678.027" r="4" fill="#0" id="circle125"/>
	<circle cx="691.355" cy="697.067" r="4" fill="#0" id="circle126"/>
	<circle cx="695.163" cy="89.6814" r="4" fill="#0" id="circle127"/>
	<circle cx="706.587" cy="420.983" r="4" fill="#0" id="circle128"/>
	<circle cx="714.203" cy="80.1612" r="4" fill="#0" id="circle129"/>
	<circle cx="718.012" cy="405.75" r="4" fill="#0" id="circle130"/>
	<circle cx="729.436" cy="377.19" r="4" fill="#0" id="circle131"/>
	<circle cx="733.244" cy="80.1612" r="4" fill="#0" id="circle132"/>
	<circle cx="738.956" cy="358.15" r="4" fill="#0" id="circle133"/>
	<circle cx="748.476" cy="339.109" r="4" fill="#0" id="circle134"/>
	<circle cx="750.38" cy="70.6411" r="4" fill="#0" id="circle135"/>
	<circle cx="759.9" cy="53.5048" r="4" fill="#0" id="circle136"/>
	<circle cx="763.708" cy="325.781" r="4" fill="#0" id="circle137"/>
	<circle cx="773.228" cy="306.741" r="4" fill="#0" id="circle138"/>
	<circle cx="778.94" cy="51.6008" r="4" fill="#0" id="circle139"/>
	<circle cx="782.749" cy="287.701" r="4" fill="#0" id="circle140"/>
	<circle cx="796.077" cy="42.0806" r="4" fill="#0" id="circle141"/>
	<circle cx="796.077" cy="262.948" r="4" fill="#0" id="circle142"/>
	<circle cx="805.597" cy="243.908" r="4" fill="#0" id="circle143"/>
	<circle cx="815.117" cy="36.3685" r="4" fill="#0" id="circle144"/>
	<circle cx="820.829" cy="230.58" r="4" fill="#0" id="circle145"/>
	<circle cx="834.157" cy="32.5605" r="4" fill="#0" id="circle146"/>
	<circle cx="839.869" cy="221.06" r="4" fill="#0" id="circle147"/>
	<circle cx="851.294" cy="23.0403" r="4" fill="#0" id="circle148"/>
	<circle cx="853.198" cy="196.307" r="4" fill="#0" id="circle149"/>
	<circle cx="868.43" cy="182.979" r="4" fill="#0" id="circle150"/>
	<circle cx="870.334" cy="19.2322" r="4" fill="#0" id="circle151"/>
	<circle cx="887.47" cy="177.267" r="4" fill="#0" id="circle152"/>
	<circle cx="889.374" cy="13.5202" r="4" fill="#0" id="circle153"/>
	<circle cx="900.798" cy="148.706" r="4" fill="#0" id="circle154"/>
	<circle cx="906.511" cy="4" r="4" fill="#0" id="circle155"/>
	<circle cx="910.319" cy="23.0403" r="4" fill="#0" id="circle156"/>
	<circle cx="919.839" cy="139.186" r="4" fill="#0" id="circle157"/>
	<circle cx="927.455" cy="32.5605" r="4" fill="#0" id="circle158"/>
	<circle cx="929.359" cy="51.6008" r="4" fill="#0" id="circle159"/>
	<circle cx="936.975" cy="129.666" r="4" fill="#0" id="circle160"/>
	<circle cx="946.495" cy="28.7524" r="4" fill="#0" id="circle161"/>
	<circle cx="948.399" cy="51.6008" r="4" fill="#0" id="circle162"/>
	<circle cx="954.111" cy="120.146" r="4" fill="#0" id="circle163"/>
	<circle cx="957.919" cy="68.737" r="4" fill="#0" id="circle164"/>
	<circle cx="957.919" cy="91.5854" r="4" fill="#0" id="circle165"/>
	<circle cx="965.536" cy="32.5605" r="4" fill="#0" id="circle166"/>
	<circle cx="973.152" cy="103.01" r="4" fill="#0" id="circle167"/>
	<circle cx="976.96" cy="70.6411" r="4" fill="#0" id="circle168"/>
	<circle cx="996" cy="76.3532" r="4" fill="#0" id="circle169"/>
	</g>
</svg>