<?xml version="1.0" encoding="UTF-8" standalone="no"?>
<!-- Created with CurveBenchmark -->
<svg
	xmlns:dc="http://purl.org/dc/elements/1.1/"
	xmlns:cc="http://creativecommons.org/ns#"
	xmlns:rdf="http://www.w3.org/1999/02/22-rdf-syntax-ns#"
	xmlns:svg="http://www.w3.org/2000/svg"
	xmlns="http://www.w3.org/2000/svg"
	xmlns:sodipodi="http://sodipodi.sourceforge.net/DTD/sodipodi-0.dtd"
	xmlns:inkscape="http://www.inkscape.org/namespaces/inkscape"
	width="1000"
	height="1000"
	id="svg2"
	version="1.1"
	sodipodi:docname="manifold/ccrust-bird47.png.txt">
<defs
	id="defs4" />
<metadata
	id="metadata7">
	<rdf:RDF>
		<cc:Work
			rdf:about="">
			<dc:format>image/svg+xml</dc:format>
			<dc:type
				rdf:resource="http://purl.org/dc/dcmitype/StillImage" />
			<dc:title></dc:title>
		</cc:Work>
	</rdf:RDF>
</metadata>
<g
	inkscape:label="Layer 1"
	inkscape:groupmode="layer"
	id="layer1">
	<path style="fill:none;stroke:red;stroke-width:1px;stroke-linecap:butt;stroke-linejoin:miter;stroke-opacity:1" d="M 74.8571,50.662 88.6829,38.5645 z" id="boundary" inkscape:connector-curvature="0" />
	<path style="fill:none;stroke:red;stroke-width:1px;stroke-linecap:butt;stroke-linejoin:miter;stroke-opacity:1" d="M 104.237,29.9233 88.6829,38.5645 z" id="boundary" inkscape:connector-curvature="0" />
	<path style="fill:none;stroke:red;stroke-width:1px;stroke-linecap:butt;stroke-linejoin:miter;stroke-opacity:1" d="M 118.063,16.0976 104.237,29.9233 z" id="boundary" inkscape:connector-curvature="0" />
	<path style="fill:none;stroke:red;stroke-width:1px;stroke-linecap:butt;stroke-linejoin:miter;stroke-opacity:1" d="M 61.0314,64.4878 74.8571,50.662 z" id="boundary" inkscape:connector-curvature="0" />
	<path style="fill:none;stroke:red;stroke-width:1px;stroke-linecap:butt;stroke-linejoin:miter;stroke-opacity:1" d="M 26.4669,73.1289 43.7491,64.4878 z" id="boundary" inkscape:connector-curvature="0" />
	<path style="fill:none;stroke:red;stroke-width:1px;stroke-linecap:butt;stroke-linejoin:miter;stroke-opacity:1" d="M 61.0314,64.4878 43.7491,64.4878 z" id="boundary" inkscape:connector-curvature="0" />
	<path style="fill:none;stroke:red;stroke-width:1px;stroke-linecap:butt;stroke-linejoin:miter;stroke-opacity:1" d="M 118.063,16.0976 135.345,7.45645 z" id="boundary" inkscape:connector-curvature="0" />
	<path style="fill:none;stroke:red;stroke-width:1px;stroke-linecap:butt;stroke-linejoin:miter;stroke-opacity:1" d="M 152.627,4 169.909,4 z" id="boundary" inkscape:connector-curvature="0" />
	<path style="fill:none;stroke:red;stroke-width:1px;stroke-linecap:butt;stroke-linejoin:miter;stroke-opacity:1" d="M 169.909,4 187.192,9.18467 z" id="boundary" inkscape:connector-curvature="0" />
	<path style="fill:none;stroke:red;stroke-width:1px;stroke-linecap:butt;stroke-linejoin:miter;stroke-opacity:1" d="M 135.345,7.45645 152.627,4 z" id="boundary" inkscape:connector-curvature="0" />
	<path style="fill:none;stroke:red;stroke-width:1px;stroke-linecap:butt;stroke-linejoin:miter;stroke-opacity:1" d="M 204.474,12.6411 220.028,21.2822 z" id="boundary" inkscape:connector-curvature="0" />
	<path style="fill:none;stroke:red;stroke-width:1px;stroke-linecap:butt;stroke-linejoin:miter;stroke-opacity:1" d="M 187.192,9.18467 204.474,12.6411 z" id="boundary" inkscape:connector-curvature="0" />
	<path style="fill:none;stroke:red;stroke-width:1px;stroke-linecap:butt;stroke-linejoin:miter;stroke-opacity:1" d="M 237.31,24.7387 220.028,21.2822 z" id="boundary" inkscape:connector-curvature="0" />
	<path style="fill:none;stroke:red;stroke-width:1px;stroke-linecap:butt;stroke-linejoin:miter;stroke-opacity:1" d="M 54.1185,100.78 38.5645,109.422 z" id="boundary" inkscape:connector-curvature="0" />
	<path style="fill:none;stroke:red;stroke-width:1px;stroke-linecap:butt;stroke-linejoin:miter;stroke-opacity:1" d="M 71.4007,100.78 54.1185,100.78 z" id="boundary" inkscape:connector-curvature="0" />
	<path style="fill:none;stroke:red;stroke-width:1px;stroke-linecap:butt;stroke-linejoin:miter;stroke-opacity:1" d="M 12.6411,86.9547 26.4669,73.1289 z" id="boundary" inkscape:connector-curvature="0" />
	<path style="fill:none;stroke:red;stroke-width:1px;stroke-linecap:butt;stroke-linejoin:miter;stroke-opacity:1" d="M 4,104.237 21.2822,109.422 z" id="boundary" inkscape:connector-curvature="0" />
	<path style="fill:none;stroke:red;stroke-width:1px;stroke-linecap:butt;stroke-linejoin:miter;stroke-opacity:1" d="M 4,104.237 12.6411,86.9547 z" id="boundary" inkscape:connector-curvature="0" />
	<path style="fill:none;stroke:red;stroke-width:1px;stroke-linecap:butt;stroke-linejoin:miter;stroke-opacity:1" d="M 38.5645,109.422 21.2822,109.422 z" id="boundary" inkscape:connector-curvature="0" />
	<path style="fill:none;stroke:red;stroke-width:1px;stroke-linecap:butt;stroke-linejoin:miter;stroke-opacity:1" d="M 71.4007,100.78 88.6829,100.78 z" id="boundary" inkscape:connector-curvature="0" />
	<path style="fill:none;stroke:red;stroke-width:1px;stroke-linecap:butt;stroke-linejoin:miter;stroke-opacity:1" d="M 138.801,116.334 121.519,109.422 z" id="boundary" inkscape:connector-curvature="0" />
	<path style="fill:none;stroke:red;stroke-width:1px;stroke-linecap:butt;stroke-linejoin:miter;stroke-opacity:1" d="M 121.519,109.422 105.965,100.78 z" id="boundary" inkscape:connector-curvature="0" />
	<path style="fill:none;stroke:red;stroke-width:1px;stroke-linecap:butt;stroke-linejoin:miter;stroke-opacity:1" d="M 88.6829,100.78 105.965,100.78 z" id="boundary" inkscape:connector-curvature="0" />
	<path style="fill:none;stroke:red;stroke-width:1px;stroke-linecap:butt;stroke-linejoin:miter;stroke-opacity:1" d="M 156.084,118.063 173.366,124.976 z" id="boundary" inkscape:connector-curvature="0" />
	<path style="fill:none;stroke:red;stroke-width:1px;stroke-linecap:butt;stroke-linejoin:miter;stroke-opacity:1" d="M 138.801,116.334 156.084,118.063 z" id="boundary" inkscape:connector-curvature="0" />
	<path style="fill:none;stroke:red;stroke-width:1px;stroke-linecap:butt;stroke-linejoin:miter;stroke-opacity:1" d="M 190.648,126.704 207.93,126.704 z" id="boundary" inkscape:connector-curvature="0" />
	<path style="fill:none;stroke:red;stroke-width:1px;stroke-linecap:butt;stroke-linejoin:miter;stroke-opacity:1" d="M 207.93,126.704 223.484,135.345 z" id="boundary" inkscape:connector-curvature="0" />
	<path style="fill:none;stroke:red;stroke-width:1px;stroke-linecap:butt;stroke-linejoin:miter;stroke-opacity:1" d="M 190.648,126.704 173.366,124.976 z" id="boundary" inkscape:connector-curvature="0" />
	<path style="fill:none;stroke:red;stroke-width:1px;stroke-linecap:butt;stroke-linejoin:miter;stroke-opacity:1" d="M 270.146,38.5645 252.864,33.3798 z" id="boundary" inkscape:connector-curvature="0" />
	<path style="fill:none;stroke:red;stroke-width:1px;stroke-linecap:butt;stroke-linejoin:miter;stroke-opacity:1" d="M 252.864,33.3798 237.31,24.7387 z" id="boundary" inkscape:connector-curvature="0" />
	<path style="fill:none;stroke:red;stroke-width:1px;stroke-linecap:butt;stroke-linejoin:miter;stroke-opacity:1" d="M 287.429,40.2927 270.146,38.5645 z" id="boundary" inkscape:connector-curvature="0" />
	<path style="fill:none;stroke:red;stroke-width:1px;stroke-linecap:butt;stroke-linejoin:miter;stroke-opacity:1" d="M 320.265,55.8467 302.983,48.9338 z" id="boundary" inkscape:connector-curvature="0" />
	<path style="fill:none;stroke:red;stroke-width:1px;stroke-linecap:butt;stroke-linejoin:miter;stroke-opacity:1" d="M 302.983,48.9338 287.429,40.2927 z" id="boundary" inkscape:connector-curvature="0" />
	<path style="fill:none;stroke:red;stroke-width:1px;stroke-linecap:butt;stroke-linejoin:miter;stroke-opacity:1" d="M 335.819,64.4878 353.101,64.4878 z" id="boundary" inkscape:connector-curvature="0" />
	<path style="fill:none;stroke:red;stroke-width:1px;stroke-linecap:butt;stroke-linejoin:miter;stroke-opacity:1" d="M 353.101,64.4878 368.655,73.1289 z" id="boundary" inkscape:connector-curvature="0" />
	<path style="fill:none;stroke:red;stroke-width:1px;stroke-linecap:butt;stroke-linejoin:miter;stroke-opacity:1" d="M 335.819,64.4878 320.265,55.8467 z" id="boundary" inkscape:connector-curvature="0" />
	<path style="fill:none;stroke:red;stroke-width:1px;stroke-linecap:butt;stroke-linejoin:miter;stroke-opacity:1" d="M 385.937,78.3136 368.655,73.1289 z" id="boundary" inkscape:connector-curvature="0" />
	<path style="fill:none;stroke:red;stroke-width:1px;stroke-linecap:butt;stroke-linejoin:miter;stroke-opacity:1" d="M 289.157,164.725 273.603,156.084 z" id="boundary" inkscape:connector-curvature="0" />
	<path style="fill:none;stroke:red;stroke-width:1px;stroke-linecap:butt;stroke-linejoin:miter;stroke-opacity:1" d="M 418.774,93.8676 401.491,86.9547 z" id="boundary" inkscape:connector-curvature="0" />
	<path style="fill:none;stroke:red;stroke-width:1px;stroke-linecap:butt;stroke-linejoin:miter;stroke-opacity:1" d="M 453.338,99.0523 436.056,99.0523 z" id="boundary" inkscape:connector-curvature="0" />
	<path style="fill:none;stroke:red;stroke-width:1px;stroke-linecap:butt;stroke-linejoin:miter;stroke-opacity:1" d="M 436.056,99.0523 418.774,93.8676 z" id="boundary" inkscape:connector-curvature="0" />
	<path style="fill:none;stroke:red;stroke-width:1px;stroke-linecap:butt;stroke-linejoin:miter;stroke-opacity:1" d="M 401.491,86.9547 385.937,78.3136 z" id="boundary" inkscape:connector-curvature="0" />
	<path style="fill:none;stroke:red;stroke-width:1px;stroke-linecap:butt;stroke-linejoin:miter;stroke-opacity:1" d="M 626.16,107.693 608.878,107.693 z" id="boundary" inkscape:connector-curvature="0" />
	<path style="fill:none;stroke:red;stroke-width:1px;stroke-linecap:butt;stroke-linejoin:miter;stroke-opacity:1" d="M 453.338,99.0523 470.62,102.509 z" id="boundary" inkscape:connector-curvature="0" />
	<path style="fill:none;stroke:red;stroke-width:1px;stroke-linecap:butt;stroke-linejoin:miter;stroke-opacity:1" d="M 487.902,107.693 470.62,102.509 z" id="boundary" inkscape:connector-curvature="0" />
	<path style="fill:none;stroke:red;stroke-width:1px;stroke-linecap:butt;stroke-linejoin:miter;stroke-opacity:1" d="M 505.185,107.693 487.902,107.693 z" id="boundary" inkscape:connector-curvature="0" />
	<path style="fill:none;stroke:red;stroke-width:1px;stroke-linecap:butt;stroke-linejoin:miter;stroke-opacity:1" d="M 223.484,135.345 240.767,140.53 z" id="boundary" inkscape:connector-curvature="0" />
	<path style="fill:none;stroke:red;stroke-width:1px;stroke-linecap:butt;stroke-linejoin:miter;stroke-opacity:1" d="M 240.767,140.53 256.321,149.171 z" id="boundary" inkscape:connector-curvature="0" />
	<path style="fill:none;stroke:red;stroke-width:1px;stroke-linecap:butt;stroke-linejoin:miter;stroke-opacity:1" d="M 273.603,156.084 256.321,149.171 z" id="boundary" inkscape:connector-curvature="0" />
	<path style="fill:none;stroke:red;stroke-width:1px;stroke-linecap:butt;stroke-linejoin:miter;stroke-opacity:1" d="M 522.467,107.693 505.185,107.693 z" id="boundary" inkscape:connector-curvature="0" />
	<path style="fill:none;stroke:red;stroke-width:1px;stroke-linecap:butt;stroke-linejoin:miter;stroke-opacity:1" d="M 539.749,107.693 522.467,107.693 z" id="boundary" inkscape:connector-curvature="0" />
	<path style="fill:none;stroke:red;stroke-width:1px;stroke-linecap:butt;stroke-linejoin:miter;stroke-opacity:1" d="M 539.749,107.693 557.031,107.693 z" id="boundary" inkscape:connector-curvature="0" />
	<path style="fill:none;stroke:red;stroke-width:1px;stroke-linecap:butt;stroke-linejoin:miter;stroke-opacity:1" d="M 574.314,107.693 591.596,107.693 z" id="boundary" inkscape:connector-curvature="0" />
	<path style="fill:none;stroke:red;stroke-width:1px;stroke-linecap:butt;stroke-linejoin:miter;stroke-opacity:1" d="M 574.314,107.693 557.031,107.693 z" id="boundary" inkscape:connector-curvature="0" />
	<path style="fill:none;stroke:red;stroke-width:1px;stroke-linecap:butt;stroke-linejoin:miter;stroke-opacity:1" d="M 608.878,107.693 591.596,107.693 z" id="boundary" inkscape:connector-curvature="0" />
	<path style="fill:none;stroke:red;stroke-width:1px;stroke-linecap:butt;stroke-linejoin:miter;stroke-opacity:1" d="M 289.157,164.725 306.439,169.909 z" id="boundary" inkscape:connector-curvature="0" />
	<path style="fill:none;stroke:red;stroke-width:1px;stroke-linecap:butt;stroke-linejoin:miter;stroke-opacity:1" d="M 306.439,169.909 316.808,183.735 z" id="boundary" inkscape:connector-curvature="0" />
	<path style="fill:none;stroke:red;stroke-width:1px;stroke-linecap:butt;stroke-linejoin:miter;stroke-opacity:1" d="M 330.634,195.833 342.732,209.659 z" id="boundary" inkscape:connector-curvature="0" />
	<path style="fill:none;stroke:red;stroke-width:1px;stroke-linecap:butt;stroke-linejoin:miter;stroke-opacity:1" d="M 342.732,209.659 351.373,225.213 z" id="boundary" inkscape:connector-curvature="0" />
	<path style="fill:none;stroke:red;stroke-width:1px;stroke-linecap:butt;stroke-linejoin:miter;stroke-opacity:1" d="M 366.927,233.854 351.373,225.213 z" id="boundary" inkscape:connector-curvature="0" />
	<path style="fill:none;stroke:red;stroke-width:1px;stroke-linecap:butt;stroke-linejoin:miter;stroke-opacity:1" d="M 316.808,183.735 330.634,195.833 z" id="boundary" inkscape:connector-curvature="0" />
	<path style="fill:none;stroke:red;stroke-width:1px;stroke-linecap:butt;stroke-linejoin:miter;stroke-opacity:1" d="M 493.087,334.091 477.533,325.449 z" id="boundary" inkscape:connector-curvature="0" />
	<path style="fill:none;stroke:red;stroke-width:1px;stroke-linecap:butt;stroke-linejoin:miter;stroke-opacity:1" d="M 380.753,245.951 392.85,259.777 z" id="boundary" inkscape:connector-curvature="0" />
	<path style="fill:none;stroke:red;stroke-width:1px;stroke-linecap:butt;stroke-linejoin:miter;stroke-opacity:1" d="M 366.927,233.854 380.753,245.951 z" id="boundary" inkscape:connector-curvature="0" />
	<path style="fill:none;stroke:red;stroke-width:1px;stroke-linecap:butt;stroke-linejoin:miter;stroke-opacity:1" d="M 406.676,271.875 418.774,285.7 z" id="boundary" inkscape:connector-curvature="0" />
	<path style="fill:none;stroke:red;stroke-width:1px;stroke-linecap:butt;stroke-linejoin:miter;stroke-opacity:1" d="M 392.85,259.777 406.676,271.875 z" id="boundary" inkscape:connector-curvature="0" />
	<path style="fill:none;stroke:red;stroke-width:1px;stroke-linecap:butt;stroke-linejoin:miter;stroke-opacity:1" d="M 432.599,297.798 448.153,306.439 z" id="boundary" inkscape:connector-curvature="0" />
	<path style="fill:none;stroke:red;stroke-width:1px;stroke-linecap:butt;stroke-linejoin:miter;stroke-opacity:1" d="M 448.153,306.439 461.979,316.808 z" id="boundary" inkscape:connector-curvature="0" />
	<path style="fill:none;stroke:red;stroke-width:1px;stroke-linecap:butt;stroke-linejoin:miter;stroke-opacity:1" d="M 432.599,297.798 418.774,285.7 z" id="boundary" inkscape:connector-curvature="0" />
	<path style="fill:none;stroke:red;stroke-width:1px;stroke-linecap:butt;stroke-linejoin:miter;stroke-opacity:1" d="M 453.338,591.596 436.056,596.78 z" id="boundary" inkscape:connector-curvature="0" />
	<path style="fill:none;stroke:red;stroke-width:1px;stroke-linecap:butt;stroke-linejoin:miter;stroke-opacity:1" d="M 468.892,582.955 453.338,591.596 z" id="boundary" inkscape:connector-curvature="0" />
	<path style="fill:none;stroke:red;stroke-width:1px;stroke-linecap:butt;stroke-linejoin:miter;stroke-opacity:1" d="M 470.62,631.345 453.338,636.53 z" id="boundary" inkscape:connector-curvature="0" />
	<path style="fill:none;stroke:red;stroke-width:1px;stroke-linecap:butt;stroke-linejoin:miter;stroke-opacity:1" d="M 432.599,617.519 436.056,596.78 z" id="boundary" inkscape:connector-curvature="0" />
	<path style="fill:none;stroke:red;stroke-width:1px;stroke-linecap:butt;stroke-linejoin:miter;stroke-opacity:1" d="M 436.056,636.53 418.774,631.345 z" id="boundary" inkscape:connector-curvature="0" />
	<path style="fill:none;stroke:red;stroke-width:1px;stroke-linecap:butt;stroke-linejoin:miter;stroke-opacity:1" d="M 453.338,636.53 436.056,636.53 z" id="boundary" inkscape:connector-curvature="0" />
	<path style="fill:none;stroke:red;stroke-width:1px;stroke-linecap:butt;stroke-linejoin:miter;stroke-opacity:1" d="M 477.533,325.449 461.979,316.808 z" id="boundary" inkscape:connector-curvature="0" />
	<path style="fill:none;stroke:red;stroke-width:1px;stroke-linecap:butt;stroke-linejoin:miter;stroke-opacity:1" d="M 493.087,334.091 506.913,346.188 z" id="boundary" inkscape:connector-curvature="0" />
	<path style="fill:none;stroke:red;stroke-width:1px;stroke-linecap:butt;stroke-linejoin:miter;stroke-opacity:1" d="M 484.446,619.247 470.62,631.345 z" id="boundary" inkscape:connector-curvature="0" />
	<path style="fill:none;stroke:red;stroke-width:1px;stroke-linecap:butt;stroke-linejoin:miter;stroke-opacity:1" d="M 501.728,617.519 484.446,619.247 z" id="boundary" inkscape:connector-curvature="0" />
	<path style="fill:none;stroke:red;stroke-width:1px;stroke-linecap:butt;stroke-linejoin:miter;stroke-opacity:1" d="M 468.892,582.955 486.174,582.955 z" id="boundary" inkscape:connector-curvature="0" />
	<path style="fill:none;stroke:red;stroke-width:1px;stroke-linecap:butt;stroke-linejoin:miter;stroke-opacity:1" d="M 501.728,574.314 486.174,582.955 z" id="boundary" inkscape:connector-curvature="0" />
	<path style="fill:none;stroke:red;stroke-width:1px;stroke-linecap:butt;stroke-linejoin:miter;stroke-opacity:1" d="M 539.749,360.014 522.467,354.829 z" id="boundary" inkscape:connector-curvature="0" />
	<path style="fill:none;stroke:red;stroke-width:1px;stroke-linecap:butt;stroke-linejoin:miter;stroke-opacity:1" d="M 522.467,354.829 506.913,346.188 z" id="boundary" inkscape:connector-curvature="0" />
	<path style="fill:none;stroke:red;stroke-width:1px;stroke-linecap:butt;stroke-linejoin:miter;stroke-opacity:1" d="M 539.749,360.014 555.303,368.655 z" id="boundary" inkscape:connector-curvature="0" />
	<path style="fill:none;stroke:red;stroke-width:1px;stroke-linecap:butt;stroke-linejoin:miter;stroke-opacity:1" d="M 581.226,496.544 567.401,508.641 z" id="boundary" inkscape:connector-curvature="0" />
	<path style="fill:none;stroke:red;stroke-width:1px;stroke-linecap:butt;stroke-linejoin:miter;stroke-opacity:1" d="M 555.303,368.655 570.857,377.296 z" id="boundary" inkscape:connector-curvature="0" />
	<path style="fill:none;stroke:red;stroke-width:1px;stroke-linecap:butt;stroke-linejoin:miter;stroke-opacity:1" d="M 593.324,482.718 581.226,496.544 z" id="boundary" inkscape:connector-curvature="0" />
	<path style="fill:none;stroke:red;stroke-width:1px;stroke-linecap:butt;stroke-linejoin:miter;stroke-opacity:1" d="M 567.401,508.641 555.303,522.467 z" id="boundary" inkscape:connector-curvature="0" />
	<path style="fill:none;stroke:red;stroke-width:1px;stroke-linecap:butt;stroke-linejoin:miter;stroke-opacity:1" d="M 600.237,398.035 608.878,413.589 z" id="boundary" inkscape:connector-curvature="0" />
	<path style="fill:none;stroke:red;stroke-width:1px;stroke-linecap:butt;stroke-linejoin:miter;stroke-opacity:1" d="M 600.237,398.035 588.139,384.209 z" id="boundary" inkscape:connector-curvature="0" />
	<path style="fill:none;stroke:red;stroke-width:1px;stroke-linecap:butt;stroke-linejoin:miter;stroke-opacity:1" d="M 615.791,494.815 601.965,506.913 z" id="boundary" inkscape:connector-curvature="0" />
	<path style="fill:none;stroke:red;stroke-width:1px;stroke-linecap:butt;stroke-linejoin:miter;stroke-opacity:1" d="M 593.324,482.718 607.15,470.62 z" id="boundary" inkscape:connector-curvature="0" />
	<path style="fill:none;stroke:red;stroke-width:1px;stroke-linecap:butt;stroke-linejoin:miter;stroke-opacity:1" d="M 633.073,486.174 615.791,494.815 z" id="boundary" inkscape:connector-curvature="0" />
	<path style="fill:none;stroke:red;stroke-width:1px;stroke-linecap:butt;stroke-linejoin:miter;stroke-opacity:1" d="M 589.868,520.739 601.965,506.913 z" id="boundary" inkscape:connector-curvature="0" />
	<path style="fill:none;stroke:red;stroke-width:1px;stroke-linecap:butt;stroke-linejoin:miter;stroke-opacity:1" d="M 617.519,446.425 607.15,470.62 z" id="boundary" inkscape:connector-curvature="0" />
	<path style="fill:none;stroke:red;stroke-width:1px;stroke-linecap:butt;stroke-linejoin:miter;stroke-opacity:1" d="M 570.857,377.296 588.139,384.209 z" id="boundary" inkscape:connector-curvature="0" />
	<path style="fill:none;stroke:red;stroke-width:1px;stroke-linecap:butt;stroke-linejoin:miter;stroke-opacity:1" d="M 527.652,548.39 541.477,534.564 z" id="boundary" inkscape:connector-curvature="0" />
	<path style="fill:none;stroke:red;stroke-width:1px;stroke-linecap:butt;stroke-linejoin:miter;stroke-opacity:1" d="M 519.01,565.672 527.652,548.39 z" id="boundary" inkscape:connector-curvature="0" />
	<path style="fill:none;stroke:red;stroke-width:1px;stroke-linecap:butt;stroke-linejoin:miter;stroke-opacity:1" d="M 501.728,617.519 515.554,601.965 z" id="boundary" inkscape:connector-curvature="0" />
	<path style="fill:none;stroke:red;stroke-width:1px;stroke-linecap:butt;stroke-linejoin:miter;stroke-opacity:1" d="M 532.836,593.324 515.554,601.965 z" id="boundary" inkscape:connector-curvature="0" />
	<path style="fill:none;stroke:red;stroke-width:1px;stroke-linecap:butt;stroke-linejoin:miter;stroke-opacity:1" d="M 501.728,574.314 519.01,565.672 z" id="boundary" inkscape:connector-curvature="0" />
	<path style="fill:none;stroke:red;stroke-width:1px;stroke-linecap:butt;stroke-linejoin:miter;stroke-opacity:1" d="M 532.836,593.324 550.118,593.324 z" id="boundary" inkscape:connector-curvature="0" />
	<path style="fill:none;stroke:red;stroke-width:1px;stroke-linecap:butt;stroke-linejoin:miter;stroke-opacity:1" d="M 589.868,520.739 576.042,532.836 z" id="boundary" inkscape:connector-curvature="0" />
	<path style="fill:none;stroke:red;stroke-width:1px;stroke-linecap:butt;stroke-linejoin:miter;stroke-opacity:1" d="M 576.042,532.836 563.944,546.662 z" id="boundary" inkscape:connector-curvature="0" />
	<path style="fill:none;stroke:red;stroke-width:1px;stroke-linecap:butt;stroke-linejoin:miter;stroke-opacity:1" d="M 567.401,565.672 567.401,584.683 z" id="boundary" inkscape:connector-curvature="0" />
	<path style="fill:none;stroke:red;stroke-width:1px;stroke-linecap:butt;stroke-linejoin:miter;stroke-opacity:1" d="M 567.401,584.683 550.118,593.324 z" id="boundary" inkscape:connector-curvature="0" />
	<path style="fill:none;stroke:red;stroke-width:1px;stroke-linecap:butt;stroke-linejoin:miter;stroke-opacity:1" d="M 541.477,534.564 555.303,522.467 z" id="boundary" inkscape:connector-curvature="0" />
	<path style="fill:none;stroke:red;stroke-width:1px;stroke-linecap:butt;stroke-linejoin:miter;stroke-opacity:1" d="M 626.16,107.693 643.443,107.693 z" id="boundary" inkscape:connector-curvature="0" />
	<path style="fill:none;stroke:red;stroke-width:1px;stroke-linecap:butt;stroke-linejoin:miter;stroke-opacity:1" d="M 660.725,107.693 643.443,107.693 z" id="boundary" inkscape:connector-curvature="0" />
	<path style="fill:none;stroke:red;stroke-width:1px;stroke-linecap:butt;stroke-linejoin:miter;stroke-opacity:1" d="M 710.843,118.063 693.561,116.334 z" id="boundary" inkscape:connector-curvature="0" />
	<path style="fill:none;stroke:red;stroke-width:1px;stroke-linecap:butt;stroke-linejoin:miter;stroke-opacity:1" d="M 693.561,116.334 678.007,107.693 z" id="boundary" inkscape:connector-curvature="0" />
	<path style="fill:none;stroke:red;stroke-width:1px;stroke-linecap:butt;stroke-linejoin:miter;stroke-opacity:1" d="M 710.843,118.063 728.125,124.976 z" id="boundary" inkscape:connector-curvature="0" />
	<path style="fill:none;stroke:red;stroke-width:1px;stroke-linecap:butt;stroke-linejoin:miter;stroke-opacity:1" d="M 660.725,107.693 678.007,107.693 z" id="boundary" inkscape:connector-curvature="0" />
	<path style="fill:none;stroke:red;stroke-width:1px;stroke-linecap:butt;stroke-linejoin:miter;stroke-opacity:1" d="M 745.408,126.704 728.125,124.976 z" id="boundary" inkscape:connector-curvature="0" />
	<path style="fill:none;stroke:red;stroke-width:1px;stroke-linecap:butt;stroke-linejoin:miter;stroke-opacity:1" d="M 762.69,133.617 745.408,126.704 z" id="boundary" inkscape:connector-curvature="0" />
	<path style="fill:none;stroke:red;stroke-width:1px;stroke-linecap:butt;stroke-linejoin:miter;stroke-opacity:1" d="M 762.69,133.617 778.244,142.258 z" id="boundary" inkscape:connector-curvature="0" />
	<path style="fill:none;stroke:red;stroke-width:1px;stroke-linecap:butt;stroke-linejoin:miter;stroke-opacity:1" d="M 795.526,142.258 778.244,142.258 z" id="boundary" inkscape:connector-curvature="0" />
	<path style="fill:none;stroke:red;stroke-width:1px;stroke-linecap:butt;stroke-linejoin:miter;stroke-opacity:1" d="M 859.47,133.617 843.916,142.258 z" id="boundary" inkscape:connector-curvature="0" />
	<path style="fill:none;stroke:red;stroke-width:1px;stroke-linecap:butt;stroke-linejoin:miter;stroke-opacity:1" d="M 887.122,111.15 875.024,124.976 z" id="boundary" inkscape:connector-curvature="0" />
	<path style="fill:none;stroke:red;stroke-width:1px;stroke-linecap:butt;stroke-linejoin:miter;stroke-opacity:1" d="M 875.024,124.976 859.47,133.617 z" id="boundary" inkscape:connector-curvature="0" />
	<path style="fill:none;stroke:red;stroke-width:1px;stroke-linecap:butt;stroke-linejoin:miter;stroke-opacity:1" d="M 795.526,142.258 811.08,150.899 z" id="boundary" inkscape:connector-curvature="0" />
	<path style="fill:none;stroke:red;stroke-width:1px;stroke-linecap:butt;stroke-linejoin:miter;stroke-opacity:1" d="M 814.537,330.634 800.711,342.732 z" id="boundary" inkscape:connector-curvature="0" />
	<path style="fill:none;stroke:red;stroke-width:1px;stroke-linecap:butt;stroke-linejoin:miter;stroke-opacity:1" d="M 831.819,325.449 814.537,330.634 z" id="boundary" inkscape:connector-curvature="0" />
	<path style="fill:none;stroke:red;stroke-width:1px;stroke-linecap:butt;stroke-linejoin:miter;stroke-opacity:1" d="M 800.711,342.732 814.537,353.101 z" id="boundary" inkscape:connector-curvature="0" />
	<path style="fill:none;stroke:red;stroke-width:1px;stroke-linecap:butt;stroke-linejoin:miter;stroke-opacity:1" d="M 736.767,368.655 752.321,360.014 z" id="boundary" inkscape:connector-curvature="0" />
	<path style="fill:none;stroke:red;stroke-width:1px;stroke-linecap:butt;stroke-linejoin:miter;stroke-opacity:1" d="M 752.321,360.014 769.603,360.014 z" id="boundary" inkscape:connector-curvature="0" />
	<path style="fill:none;stroke:red;stroke-width:1px;stroke-linecap:butt;stroke-linejoin:miter;stroke-opacity:1" d="M 786.885,366.927 769.603,360.014 z" id="boundary" inkscape:connector-curvature="0" />
	<path style="fill:none;stroke:red;stroke-width:1px;stroke-linecap:butt;stroke-linejoin:miter;stroke-opacity:1" d="M 786.885,366.927 798.983,380.753 z" id="boundary" inkscape:connector-curvature="0" />
	<path style="fill:none;stroke:red;stroke-width:1px;stroke-linecap:butt;stroke-linejoin:miter;stroke-opacity:1" d="M 843.916,142.258 828.362,150.899 z" id="boundary" inkscape:connector-curvature="0" />
	<path style="fill:none;stroke:red;stroke-width:1px;stroke-linecap:butt;stroke-linejoin:miter;stroke-opacity:1" d="M 828.362,150.899 811.08,150.899 z" id="boundary" inkscape:connector-curvature="0" />
	<path style="fill:none;stroke:red;stroke-width:1px;stroke-linecap:butt;stroke-linejoin:miter;stroke-opacity:1" d="M 823.178,368.655 814.537,353.101 z" id="boundary" inkscape:connector-curvature="0" />
	<path style="fill:none;stroke:red;stroke-width:1px;stroke-linecap:butt;stroke-linejoin:miter;stroke-opacity:1" d="M 831.819,325.449 849.101,321.993 z" id="boundary" inkscape:connector-curvature="0" />
	<path style="fill:none;stroke:red;stroke-width:1px;stroke-linecap:butt;stroke-linejoin:miter;stroke-opacity:1" d="M 881.937,308.167 866.383,316.808 z" id="boundary" inkscape:connector-curvature="0" />
	<path style="fill:none;stroke:red;stroke-width:1px;stroke-linecap:butt;stroke-linejoin:miter;stroke-opacity:1" d="M 866.383,316.808 849.101,321.993 z" id="boundary" inkscape:connector-curvature="0" />
	<path style="fill:none;stroke:red;stroke-width:1px;stroke-linecap:butt;stroke-linejoin:miter;stroke-opacity:1" d="M 881.937,308.167 899.22,306.439 z" id="boundary" inkscape:connector-curvature="0" />
	<path style="fill:none;stroke:red;stroke-width:1px;stroke-linecap:butt;stroke-linejoin:miter;stroke-opacity:1" d="M 736.767,368.655 719.484,373.84 z" id="boundary" inkscape:connector-curvature="0" />
	<path style="fill:none;stroke:red;stroke-width:1px;stroke-linecap:butt;stroke-linejoin:miter;stroke-opacity:1" d="M 913.045,85.2265 926.871,73.1289 z" id="boundary" inkscape:connector-curvature="0" />
	<path style="fill:none;stroke:red;stroke-width:1px;stroke-linecap:butt;stroke-linejoin:miter;stroke-opacity:1" d="M 942.425,64.4878 926.871,73.1289 z" id="boundary" inkscape:connector-curvature="0" />
	<path style="fill:none;stroke:red;stroke-width:1px;stroke-linecap:butt;stroke-linejoin:miter;stroke-opacity:1" d="M 957.979,55.8467 942.425,64.4878 z" id="boundary" inkscape:connector-curvature="0" />
	<path style="fill:none;stroke:red;stroke-width:1px;stroke-linecap:butt;stroke-linejoin:miter;stroke-opacity:1" d="M 913.045,85.2265 904.404,102.509 z" id="boundary" inkscape:connector-curvature="0" />
	<path style="fill:none;stroke:red;stroke-width:1px;stroke-linecap:butt;stroke-linejoin:miter;stroke-opacity:1" d="M 904.404,102.509 887.122,111.15 z" id="boundary" inkscape:connector-curvature="0" />
	<path style="fill:none;stroke:red;stroke-width:1px;stroke-linecap:butt;stroke-linejoin:miter;stroke-opacity:1" d="M 973.533,47.2056 990.815,47.2056 z" id="boundary" inkscape:connector-curvature="0" />
	<path style="fill:none;stroke:red;stroke-width:1px;stroke-linecap:butt;stroke-linejoin:miter;stroke-opacity:1" d="M 990.815,47.2056 996,71.4007 z" id="boundary" inkscape:connector-curvature="0" />
	<path style="fill:none;stroke:red;stroke-width:1px;stroke-linecap:butt;stroke-linejoin:miter;stroke-opacity:1" d="M 996,71.4007 978.718,80.0418 z" id="boundary" inkscape:connector-curvature="0" />
	<path style="fill:none;stroke:red;stroke-width:1px;stroke-linecap:butt;stroke-linejoin:miter;stroke-opacity:1" d="M 964.892,92.1394 978.718,80.0418 z" id="boundary" inkscape:connector-curvature="0" />
	<path style="fill:none;stroke:red;stroke-width:1px;stroke-linecap:butt;stroke-linejoin:miter;stroke-opacity:1" d="M 978.718,102.509 964.892,92.1394 z" id="boundary" inkscape:connector-curvature="0" />
	<path style="fill:none;stroke:red;stroke-width:1px;stroke-linecap:butt;stroke-linejoin:miter;stroke-opacity:1" d="M 980.446,126.704 978.718,102.509 z" id="boundary" inkscape:connector-curvature="0" />
	<path style="fill:none;stroke:red;stroke-width:1px;stroke-linecap:butt;stroke-linejoin:miter;stroke-opacity:1" d="M 957.979,55.8467 973.533,47.2056 z" id="boundary" inkscape:connector-curvature="0" />
	<path style="fill:none;stroke:red;stroke-width:1px;stroke-linecap:butt;stroke-linejoin:miter;stroke-opacity:1" d="M 980.446,126.704 964.892,135.345 z" id="boundary" inkscape:connector-curvature="0" />
	<path style="fill:none;stroke:red;stroke-width:1px;stroke-linecap:butt;stroke-linejoin:miter;stroke-opacity:1" d="M 938.969,187.192 952.794,175.094 z" id="boundary" inkscape:connector-curvature="0" />
	<path style="fill:none;stroke:red;stroke-width:1px;stroke-linecap:butt;stroke-linejoin:miter;stroke-opacity:1" d="M 947.61,202.746 938.969,187.192 z" id="boundary" inkscape:connector-curvature="0" />
	<path style="fill:none;stroke:red;stroke-width:1px;stroke-linecap:butt;stroke-linejoin:miter;stroke-opacity:1" d="M 899.22,306.439 916.502,299.526 z" id="boundary" inkscape:connector-curvature="0" />
	<path style="fill:none;stroke:red;stroke-width:1px;stroke-linecap:butt;stroke-linejoin:miter;stroke-opacity:1" d="M 916.502,299.526 933.784,297.798 z" id="boundary" inkscape:connector-curvature="0" />
	<path style="fill:none;stroke:red;stroke-width:1px;stroke-linecap:butt;stroke-linejoin:miter;stroke-opacity:1" d="M 933.784,297.798 951.066,289.157 z" id="boundary" inkscape:connector-curvature="0" />
	<path style="fill:none;stroke:red;stroke-width:1px;stroke-linecap:butt;stroke-linejoin:miter;stroke-opacity:1" d="M 964.892,273.603 951.066,289.157 z" id="boundary" inkscape:connector-curvature="0" />
	<path style="fill:none;stroke:red;stroke-width:1px;stroke-linecap:butt;stroke-linejoin:miter;stroke-opacity:1" d="M 964.892,202.746 947.61,202.746 z" id="boundary" inkscape:connector-curvature="0" />
	<path style="fill:none;stroke:red;stroke-width:1px;stroke-linecap:butt;stroke-linejoin:miter;stroke-opacity:1" d="M 980.446,211.387 964.892,202.746 z" id="boundary" inkscape:connector-curvature="0" />
	<path style="fill:none;stroke:red;stroke-width:1px;stroke-linecap:butt;stroke-linejoin:miter;stroke-opacity:1" d="M 961.436,157.812 952.794,175.094 z" id="boundary" inkscape:connector-curvature="0" />
	<path style="fill:none;stroke:red;stroke-width:1px;stroke-linecap:butt;stroke-linejoin:miter;stroke-opacity:1" d="M 961.436,157.812 964.892,135.345 z" id="boundary" inkscape:connector-curvature="0" />
	<path style="fill:none;stroke:red;stroke-width:1px;stroke-linecap:butt;stroke-linejoin:miter;stroke-opacity:1" d="M 964.892,273.603 973.533,256.321 z" id="boundary" inkscape:connector-curvature="0" />
	<path style="fill:none;stroke:red;stroke-width:1px;stroke-linecap:butt;stroke-linejoin:miter;stroke-opacity:1" d="M 982.174,239.038 973.533,256.321 z" id="boundary" inkscape:connector-curvature="0" />
	<path style="fill:none;stroke:red;stroke-width:1px;stroke-linecap:butt;stroke-linejoin:miter;stroke-opacity:1" d="M 982.174,239.038 980.446,211.387 z" id="boundary" inkscape:connector-curvature="0" />
	<path style="fill:none;stroke:red;stroke-width:1px;stroke-linecap:butt;stroke-linejoin:miter;stroke-opacity:1" d="M 636.53,420.502 636.53,403.22 z" id="boundary" inkscape:connector-curvature="0" />
	<path style="fill:none;stroke:red;stroke-width:1px;stroke-linecap:butt;stroke-linejoin:miter;stroke-opacity:1" d="M 636.53,403.22 650.355,391.122 z" id="boundary" inkscape:connector-curvature="0" />
	<path style="fill:none;stroke:red;stroke-width:1px;stroke-linecap:butt;stroke-linejoin:miter;stroke-opacity:1" d="M 667.638,382.481 650.355,391.122 z" id="boundary" inkscape:connector-curvature="0" />
	<path style="fill:none;stroke:red;stroke-width:1px;stroke-linecap:butt;stroke-linejoin:miter;stroke-opacity:1" d="M 636.53,420.502 636.53,437.784 z" id="boundary" inkscape:connector-curvature="0" />
	<path style="fill:none;stroke:red;stroke-width:1px;stroke-linecap:butt;stroke-linejoin:miter;stroke-opacity:1" d="M 617.519,429.143 608.878,413.589 z" id="boundary" inkscape:connector-curvature="0" />
	<path style="fill:none;stroke:red;stroke-width:1px;stroke-linecap:butt;stroke-linejoin:miter;stroke-opacity:1" d="M 617.519,446.425 617.519,429.143 z" id="boundary" inkscape:connector-curvature="0" />
	<path style="fill:none;stroke:red;stroke-width:1px;stroke-linecap:butt;stroke-linejoin:miter;stroke-opacity:1" d="M 667.638,382.481 684.92,377.296 z" id="boundary" inkscape:connector-curvature="0" />
	<path style="fill:none;stroke:red;stroke-width:1px;stroke-linecap:butt;stroke-linejoin:miter;stroke-opacity:1" d="M 719.484,373.84 702.202,377.296 z" id="boundary" inkscape:connector-curvature="0" />
	<path style="fill:none;stroke:red;stroke-width:1px;stroke-linecap:butt;stroke-linejoin:miter;stroke-opacity:1" d="M 702.202,377.296 684.92,377.296 z" id="boundary" inkscape:connector-curvature="0" />
	<path style="fill:none;stroke:red;stroke-width:1px;stroke-linecap:butt;stroke-linejoin:miter;stroke-opacity:1" d="M 636.53,455.066 636.53,437.784 z" id="boundary" inkscape:connector-curvature="0" />
	<path style="fill:none;stroke:red;stroke-width:1px;stroke-linecap:butt;stroke-linejoin:miter;stroke-opacity:1" d="M 807.624,396.307 798.983,380.753 z" id="boundary" inkscape:connector-curvature="0" />
	<path style="fill:none;stroke:red;stroke-width:1px;stroke-linecap:butt;stroke-linejoin:miter;stroke-opacity:1" d="M 816.265,411.861 816.265,429.143 z" id="boundary" inkscape:connector-curvature="0" />
	<path style="fill:none;stroke:red;stroke-width:1px;stroke-linecap:butt;stroke-linejoin:miter;stroke-opacity:1" d="M 807.624,396.307 816.265,411.861 z" id="boundary" inkscape:connector-curvature="0" />
	<path style="fill:none;stroke:red;stroke-width:1px;stroke-linecap:butt;stroke-linejoin:miter;stroke-opacity:1" d="M 835.275,399.763 816.265,411.861 z" id="boundary" inkscape:connector-curvature="0" />
	<path style="fill:none;stroke:red;stroke-width:1px;stroke-linecap:butt;stroke-linejoin:miter;stroke-opacity:1" d="M 738.495,570.857 748.864,584.683 z" id="boundary" inkscape:connector-curvature="0" />
	<path style="fill:none;stroke:red;stroke-width:1px;stroke-linecap:butt;stroke-linejoin:miter;stroke-opacity:1" d="M 764.418,593.324 748.864,584.683 z" id="boundary" inkscape:connector-curvature="0" />
	<path style="fill:none;stroke:red;stroke-width:1px;stroke-linecap:butt;stroke-linejoin:miter;stroke-opacity:1" d="M 755.777,565.672 773.059,565.672 z" id="boundary" inkscape:connector-curvature="0" />
	<path style="fill:none;stroke:red;stroke-width:1px;stroke-linecap:butt;stroke-linejoin:miter;stroke-opacity:1" d="M 773.059,565.672 790.341,565.672 z" id="boundary" inkscape:connector-curvature="0" />
	<path style="fill:none;stroke:red;stroke-width:1px;stroke-linecap:butt;stroke-linejoin:miter;stroke-opacity:1" d="M 790.341,565.672 807.624,565.672 z" id="boundary" inkscape:connector-curvature="0" />
	<path style="fill:none;stroke:red;stroke-width:1px;stroke-linecap:butt;stroke-linejoin:miter;stroke-opacity:1" d="M 781.7,593.324 798.983,588.139 z" id="boundary" inkscape:connector-curvature="0" />
	<path style="fill:none;stroke:red;stroke-width:1px;stroke-linecap:butt;stroke-linejoin:miter;stroke-opacity:1" d="M 798.983,588.139 816.265,584.683 z" id="boundary" inkscape:connector-curvature="0" />
	<path style="fill:none;stroke:red;stroke-width:1px;stroke-linecap:butt;stroke-linejoin:miter;stroke-opacity:1" d="M 816.265,584.683 830.091,600.237 z" id="boundary" inkscape:connector-curvature="0" />
	<path style="fill:none;stroke:red;stroke-width:1px;stroke-linecap:butt;stroke-linejoin:miter;stroke-opacity:1" d="M 830.091,600.237 816.265,614.063 z" id="boundary" inkscape:connector-curvature="0" />
	<path style="fill:none;stroke:red;stroke-width:1px;stroke-linecap:butt;stroke-linejoin:miter;stroke-opacity:1" d="M 764.418,593.324 781.7,593.324 z" id="boundary" inkscape:connector-curvature="0" />
	<path style="fill:none;stroke:red;stroke-width:1px;stroke-linecap:butt;stroke-linejoin:miter;stroke-opacity:1" d="M 830.091,574.314 816.265,584.683 z" id="boundary" inkscape:connector-curvature="0" />
	<path style="fill:none;stroke:red;stroke-width:1px;stroke-linecap:butt;stroke-linejoin:miter;stroke-opacity:1" d="M 823.178,557.031 807.624,565.672 z" id="boundary" inkscape:connector-curvature="0" />
	<path style="fill:none;stroke:red;stroke-width:1px;stroke-linecap:butt;stroke-linejoin:miter;stroke-opacity:1" d="M 816.265,614.063 830.091,626.16 z" id="boundary" inkscape:connector-curvature="0" />
	<path style="fill:none;stroke:red;stroke-width:1px;stroke-linecap:butt;stroke-linejoin:miter;stroke-opacity:1" d="M 835.275,382.481 835.275,399.763 z" id="boundary" inkscape:connector-curvature="0" />
	<path style="fill:none;stroke:red;stroke-width:1px;stroke-linecap:butt;stroke-linejoin:miter;stroke-opacity:1" d="M 835.275,382.481 823.178,368.655 z" id="boundary" inkscape:connector-curvature="0" />
	<path style="fill:none;stroke:red;stroke-width:1px;stroke-linecap:butt;stroke-linejoin:miter;stroke-opacity:1" d="M 843.916,415.317 835.275,399.763 z" id="boundary" inkscape:connector-curvature="0" />
	<path style="fill:none;stroke:red;stroke-width:1px;stroke-linecap:butt;stroke-linejoin:miter;stroke-opacity:1" d="M 828.362,461.979 824.906,444.697 z" id="boundary" inkscape:connector-curvature="0" />
	<path style="fill:none;stroke:red;stroke-width:1px;stroke-linecap:butt;stroke-linejoin:miter;stroke-opacity:1" d="M 833.547,479.261 833.547,496.544 z" id="boundary" inkscape:connector-curvature="0" />
	<path style="fill:none;stroke:red;stroke-width:1px;stroke-linecap:butt;stroke-linejoin:miter;stroke-opacity:1" d="M 828.362,461.979 833.547,479.261 z" id="boundary" inkscape:connector-curvature="0" />
	<path style="fill:none;stroke:red;stroke-width:1px;stroke-linecap:butt;stroke-linejoin:miter;stroke-opacity:1" d="M 843.916,415.317 843.916,432.599 z" id="boundary" inkscape:connector-curvature="0" />
	<path style="fill:none;stroke:red;stroke-width:1px;stroke-linecap:butt;stroke-linejoin:miter;stroke-opacity:1" d="M 816.265,429.143 824.906,444.697 z" id="boundary" inkscape:connector-curvature="0" />
	<path style="fill:none;stroke:red;stroke-width:1px;stroke-linecap:butt;stroke-linejoin:miter;stroke-opacity:1" d="M 852.557,448.153 843.916,432.599 z" id="boundary" inkscape:connector-curvature="0" />
	<path style="fill:none;stroke:red;stroke-width:1px;stroke-linecap:butt;stroke-linejoin:miter;stroke-opacity:1" d="M 852.557,448.153 852.557,465.436 z" id="boundary" inkscape:connector-curvature="0" />
	<path style="fill:none;stroke:red;stroke-width:1px;stroke-linecap:butt;stroke-linejoin:miter;stroke-opacity:1" d="M 843.916,432.599 824.906,444.697 z" id="boundary" inkscape:connector-curvature="0" />
	<path style="fill:none;stroke:red;stroke-width:1px;stroke-linecap:butt;stroke-linejoin:miter;stroke-opacity:1" d="M 861.199,480.99 864.655,498.272 z" id="boundary" inkscape:connector-curvature="0" />
	<path style="fill:none;stroke:red;stroke-width:1px;stroke-linecap:butt;stroke-linejoin:miter;stroke-opacity:1" d="M 861.199,480.99 852.557,465.436 z" id="boundary" inkscape:connector-curvature="0" />
	<path style="fill:none;stroke:red;stroke-width:1px;stroke-linecap:butt;stroke-linejoin:miter;stroke-opacity:1" d="M 842.188,512.098 833.547,496.544 z" id="boundary" inkscape:connector-curvature="0" />
	<path style="fill:none;stroke:red;stroke-width:1px;stroke-linecap:butt;stroke-linejoin:miter;stroke-opacity:1" d="M 881.937,505.185 864.655,498.272 z" id="boundary" inkscape:connector-curvature="0" />
	<path style="fill:none;stroke:red;stroke-width:1px;stroke-linecap:butt;stroke-linejoin:miter;stroke-opacity:1" d="M 881.937,505.185 878.481,532.836 z" id="boundary" inkscape:connector-curvature="0" />
	<path style="fill:none;stroke:red;stroke-width:1px;stroke-linecap:butt;stroke-linejoin:miter;stroke-opacity:1" d="M 842.188,529.38 838.732,548.39 z" id="boundary" inkscape:connector-curvature="0" />
	<path style="fill:none;stroke:red;stroke-width:1px;stroke-linecap:butt;stroke-linejoin:miter;stroke-opacity:1" d="M 838.732,548.39 823.178,557.031 z" id="boundary" inkscape:connector-curvature="0" />
	<path style="fill:none;stroke:red;stroke-width:1px;stroke-linecap:butt;stroke-linejoin:miter;stroke-opacity:1" d="M 842.188,529.38 842.188,512.098 z" id="boundary" inkscape:connector-curvature="0" />
	<path style="fill:none;stroke:red;stroke-width:1px;stroke-linecap:butt;stroke-linejoin:miter;stroke-opacity:1" d="M 838.732,548.39 850.829,562.216 z" id="boundary" inkscape:connector-curvature="0" />
	<path style="fill:none;stroke:red;stroke-width:1px;stroke-linecap:butt;stroke-linejoin:miter;stroke-opacity:1" d="M 830.091,574.314 823.178,557.031 z" id="boundary" inkscape:connector-curvature="0" />
	<path style="fill:none;stroke:red;stroke-width:1px;stroke-linecap:butt;stroke-linejoin:miter;stroke-opacity:1" d="M 847.373,617.519 830.091,626.16 z" id="boundary" inkscape:connector-curvature="0" />
	<path style="fill:none;stroke:red;stroke-width:1px;stroke-linecap:butt;stroke-linejoin:miter;stroke-opacity:1" d="M 830.091,574.314 843.916,586.411 z" id="boundary" inkscape:connector-curvature="0" />
	<path style="fill:none;stroke:red;stroke-width:1px;stroke-linecap:butt;stroke-linejoin:miter;stroke-opacity:1" d="M 843.916,586.411 830.091,600.237 z" id="boundary" inkscape:connector-curvature="0" />
	<path style="fill:none;stroke:red;stroke-width:1px;stroke-linecap:butt;stroke-linejoin:miter;stroke-opacity:1" d="M 878.481,532.836 878.481,550.118 z" id="boundary" inkscape:connector-curvature="0" />
	<path style="fill:none;stroke:red;stroke-width:1px;stroke-linecap:butt;stroke-linejoin:miter;stroke-opacity:1" d="M 869.84,576.042 850.829,562.216 z" id="boundary" inkscape:connector-curvature="0" />
	<path style="fill:none;stroke:red;stroke-width:1px;stroke-linecap:butt;stroke-linejoin:miter;stroke-opacity:1" d="M 843.916,586.411 861.199,593.324 z" id="boundary" inkscape:connector-curvature="0" />
	<path style="fill:none;stroke:red;stroke-width:1px;stroke-linecap:butt;stroke-linejoin:miter;stroke-opacity:1" d="M 869.84,576.042 861.199,593.324 z" id="boundary" inkscape:connector-curvature="0" />
	<circle cx="4" cy="104.237" r="4" fill="#0" id="circle0"/>
	<circle cx="12.6411" cy="86.9547" r="4" fill="#0" id="circle1"/>
	<circle cx="21.2822" cy="109.422" r="4" fill="#0" id="circle2"/>
	<circle cx="26.4669" cy="73.1289" r="4" fill="#0" id="circle3"/>
	<circle cx="38.5645" cy="109.422" r="4" fill="#0" id="circle4"/>
	<circle cx="43.7491" cy="64.4878" r="4" fill="#0" id="circle5"/>
	<circle cx="54.1185" cy="100.78" r="4" fill="#0" id="circle6"/>
	<circle cx="61.0314" cy="64.4878" r="4" fill="#0" id="circle7"/>
	<circle cx="71.4007" cy="100.78" r="4" fill="#0" id="circle8"/>
	<circle cx="74.8571" cy="50.662" r="4" fill="#0" id="circle9"/>
	<circle cx="88.6829" cy="38.5645" r="4" fill="#0" id="circle10"/>
	<circle cx="88.6829" cy="100.78" r="4" fill="#0" id="circle11"/>
	<circle cx="104.237" cy="29.9233" r="4" fill="#0" id="circle12"/>
	<circle cx="105.965" cy="100.78" r="4" fill="#0" id="circle13"/>
	<circle cx="118.063" cy="16.0976" r="4" fill="#0" id="circle14"/>
	<circle cx="121.519" cy="109.422" r="4" fill="#0" id="circle15"/>
	<circle cx="135.345" cy="7.45645" r="4" fill="#0" id="circle16"/>
	<circle cx="138.801" cy="116.334" r="4" fill="#0" id="circle17"/>
	<circle cx="152.627" cy="4" r="4" fill="#0" id="circle18"/>
	<circle cx="156.084" cy="118.063" r="4" fill="#0" id="circle19"/>
	<circle cx="169.909" cy="4" r="4" fill="#0" id="circle20"/>
	<circle cx="173.366" cy="124.976" r="4" fill="#0" id="circle21"/>
	<circle cx="187.192" cy="9.18467" r="4" fill="#0" id="circle22"/>
	<circle cx="190.648" cy="126.704" r="4" fill="#0" id="circle23"/>
	<circle cx="204.474" cy="12.6411" r="4" fill="#0" id="circle24"/>
	<circle cx="207.93" cy="126.704" r="4" fill="#0" id="circle25"/>
	<circle cx="220.028" cy="21.2822" r="4" fill="#0" id="circle26"/>
	<circle cx="223.484" cy="135.345" r="4" fill="#0" id="circle27"/>
	<circle cx="237.31" cy="24.7387" r="4" fill="#0" id="circle28"/>
	<circle cx="240.767" cy="140.53" r="4" fill="#0" id="circle29"/>
	<circle cx="252.864" cy="33.3798" r="4" fill="#0" id="circle30"/>
	<circle cx="256.321" cy="149.171" r="4" fill="#0" id="circle31"/>
	<circle cx="270.146" cy="38.5645" r="4" fill="#0" id="circle32"/>
	<circle cx="273.603" cy="156.084" r="4" fill="#0" id="circle33"/>
	<circle cx="287.429" cy="40.2927" r="4" fill="#0" id="circle34"/>
	<circle cx="289.157" cy="164.725" r="4" fill="#0" id="circle35"/>
	<circle cx="302.983" cy="48.9338" r="4" fill="#0" id="circle36"/>
	<circle cx="306.439" cy="169.909" r="4" fill="#0" id="circle37"/>
	<circle cx="316.808" cy="183.735" r="4" fill="#0" id="circle38"/>
	<circle cx="320.265" cy="55.8467" r="4" fill="#0" id="circle39"/>
	<circle cx="330.634" cy="195.833" r="4" fill="#0" id="circle40"/>
	<circle cx="335.819" cy="64.4878" r="4" fill="#0" id="circle41"/>
	<circle cx="342.732" cy="209.659" r="4" fill="#0" id="circle42"/>
	<circle cx="351.373" cy="225.213" r="4" fill="#0" id="circle43"/>
	<circle cx="353.101" cy="64.4878" r="4" fill="#0" id="circle44"/>
	<circle cx="366.927" cy="233.854" r="4" fill="#0" id="circle45"/>
	<circle cx="368.655" cy="73.1289" r="4" fill="#0" id="circle46"/>
	<circle cx="380.753" cy="245.951" r="4" fill="#0" id="circle47"/>
	<circle cx="385.937" cy="78.3136" r="4" fill="#0" id="circle48"/>
	<circle cx="392.85" cy="259.777" r="4" fill="#0" id="circle49"/>
	<circle cx="401.491" cy="86.9547" r="4" fill="#0" id="circle50"/>
	<circle cx="406.676" cy="271.875" r="4" fill="#0" id="circle51"/>
	<circle cx="418.774" cy="93.8676" r="4" fill="#0" id="circle52"/>
	<circle cx="418.774" cy="285.7" r="4" fill="#0" id="circle53"/>
	<circle cx="418.774" cy="631.345" r="4" fill="#0" id="circle54"/>
	<circle cx="432.599" cy="297.798" r="4" fill="#0" id="circle55"/>
	<circle cx="432.599" cy="617.519" r="4" fill="#0" id="circle56"/>
	<circle cx="436.056" cy="99.0523" r="4" fill="#0" id="circle57"/>
	<circle cx="436.056" cy="596.78" r="4" fill="#0" id="circle58"/>
	<circle cx="436.056" cy="636.53" r="4" fill="#0" id="circle59"/>
	<circle cx="448.153" cy="306.439" r="4" fill="#0" id="circle60"/>
	<circle cx="453.338" cy="99.0523" r="4" fill="#0" id="circle61"/>
	<circle cx="453.338" cy="591.596" r="4" fill="#0" id="circle62"/>
	<circle cx="453.338" cy="636.53" r="4" fill="#0" id="circle63"/>
	<circle cx="461.979" cy="316.808" r="4" fill="#0" id="circle64"/>
	<circle cx="468.892" cy="582.955" r="4" fill="#0" id="circle65"/>
	<circle cx="470.62" cy="102.509" r="4" fill="#0" id="circle66"/>
	<circle cx="470.62" cy="631.345" r="4" fill="#0" id="circle67"/>
	<circle cx="477.533" cy="325.449" r="4" fill="#0" id="circle68"/>
	<circle cx="484.446" cy="619.247" r="4" fill="#0" id="circle69"/>
	<circle cx="486.174" cy="582.955" r="4" fill="#0" id="circle70"/>
	<circle cx="487.902" cy="107.693" r="4" fill="#0" id="circle71"/>
	<circle cx="493.087" cy="334.091" r="4" fill="#0" id="circle72"/>
	<circle cx="501.728" cy="574.314" r="4" fill="#0" id="circle73"/>
	<circle cx="501.728" cy="617.519" r="4" fill="#0" id="circle74"/>
	<circle cx="505.185" cy="107.693" r="4" fill="#0" id="circle75"/>
	<circle cx="506.913" cy="346.188" r="4" fill="#0" id="circle76"/>
	<circle cx="515.554" cy="601.965" r="4" fill="#0" id="circle77"/>
	<circle cx="519.01" cy="565.672" r="4" fill="#0" id="circle78"/>
	<circle cx="522.467" cy="107.693" r="4" fill="#0" id="circle79"/>
	<circle cx="522.467" cy="354.829" r="4" fill="#0" id="circle80"/>
	<circle cx="527.652" cy="548.39" r="4" fill="#0" id="circle81"/>
	<circle cx="532.836" cy="593.324" r="4" fill="#0" id="circle82"/>
	<circle cx="539.749" cy="107.693" r="4" fill="#0" id="circle83"/>
	<circle cx="539.749" cy="360.014" r="4" fill="#0" id="circle84"/>
	<circle cx="541.477" cy="534.564" r="4" fill="#0" id="circle85"/>
	<circle cx="550.118" cy="558.76" r="4" fill="#0" id="circle86"/>
	<circle cx="550.118" cy="593.324" r="4" fill="#0" id="circle87"/>
	<circle cx="555.303" cy="368.655" r="4" fill="#0" id="circle88"/>
	<circle cx="555.303" cy="522.467" r="4" fill="#0" id="circle89"/>
	<circle cx="557.031" cy="107.693" r="4" fill="#0" id="circle90"/>
	<circle cx="563.944" cy="546.662" r="4" fill="#0" id="circle91"/>
	<circle cx="567.401" cy="508.641" r="4" fill="#0" id="circle92"/>
	<circle cx="567.401" cy="565.672" r="4" fill="#0" id="circle93"/>
	<circle cx="567.401" cy="584.683" r="4" fill="#0" id="circle94"/>
	<circle cx="570.857" cy="377.296" r="4" fill="#0" id="circle95"/>
	<circle cx="574.314" cy="107.693" r="4" fill="#0" id="circle96"/>
	<circle cx="576.042" cy="532.836" r="4" fill="#0" id="circle97"/>
	<circle cx="581.226" cy="496.544" r="4" fill="#0" id="circle98"/>
	<circle cx="588.139" cy="384.209" r="4" fill="#0" id="circle99"/>
	<circle cx="589.868" cy="520.739" r="4" fill="#0" id="circle100"/>
	<circle cx="591.596" cy="107.693" r="4" fill="#0" id="circle101"/>
	<circle cx="593.324" cy="482.718" r="4" fill="#0" id="circle102"/>
	<circle cx="600.237" cy="398.035" r="4" fill="#0" id="circle103"/>
	<circle cx="601.965" cy="506.913" r="4" fill="#0" id="circle104"/>
	<circle cx="607.15" cy="470.62" r="4" fill="#0" id="circle105"/>
	<circle cx="608.878" cy="107.693" r="4" fill="#0" id="circle106"/>
	<circle cx="608.878" cy="413.589" r="4" fill="#0" id="circle107"/>
	<circle cx="615.791" cy="494.815" r="4" fill="#0" id="circle108"/>
	<circle cx="617.519" cy="429.143" r="4" fill="#0" id="circle109"/>
	<circle cx="617.519" cy="446.425" r="4" fill="#0" id="circle110"/>
	<circle cx="626.16" cy="107.693" r="4" fill="#0" id="circle111"/>
	<circle cx="633.073" cy="486.174" r="4" fill="#0" id="circle112"/>
	<circle cx="636.53" cy="403.22" r="4" fill="#0" id="circle113"/>
	<circle cx="636.53" cy="420.502" r="4" fill="#0" id="circle114"/>
	<circle cx="636.53" cy="437.784" r="4" fill="#0" id="circle115"/>
	<circle cx="636.53" cy="455.066" r="4" fill="#0" id="circle116"/>
	<circle cx="643.443" cy="107.693" r="4" fill="#0" id="circle117"/>
	<circle cx="650.355" cy="391.122" r="4" fill="#0" id="circle118"/>
	<circle cx="660.725" cy="107.693" r="4" fill="#0" id="circle119"/>
	<circle cx="667.638" cy="382.481" r="4" fill="#0" id="circle120"/>
	<circle cx="678.007" cy="107.693" r="4" fill="#0" id="circle121"/>
	<circle cx="684.92" cy="377.296" r="4" fill="#0" id="circle122"/>
	<circle cx="693.561" cy="116.334" r="4" fill="#0" id="circle123"/>
	<circle cx="702.202" cy="377.296" r="4" fill="#0" id="circle124"/>
	<circle cx="710.843" cy="118.063" r="4" fill="#0" id="circle125"/>
	<circle cx="719.484" cy="373.84" r="4" fill="#0" id="circle126"/>
	<circle cx="728.125" cy="124.976" r="4" fill="#0" id="circle127"/>
	<circle cx="736.767" cy="368.655" r="4" fill="#0" id="circle128"/>
	<circle cx="738.495" cy="570.857" r="4" fill="#0" id="circle129"/>
	<circle cx="745.408" cy="126.704" r="4" fill="#0" id="circle130"/>
	<circle cx="748.864" cy="584.683" r="4" fill="#0" id="circle131"/>
	<circle cx="752.321" cy="360.014" r="4" fill="#0" id="circle132"/>
	<circle cx="755.777" cy="565.672" r="4" fill="#0" id="circle133"/>
	<circle cx="762.69" cy="133.617" r="4" fill="#0" id="circle134"/>
	<circle cx="764.418" cy="593.324" r="4" fill="#0" id="circle135"/>
	<circle cx="769.603" cy="360.014" r="4" fill="#0" id="circle136"/>
	<circle cx="773.059" cy="565.672" r="4" fill="#0" id="circle137"/>
	<circle cx="778.244" cy="142.258" r="4" fill="#0" id="circle138"/>
	<circle cx="781.7" cy="593.324" r="4" fill="#0" id="circle139"/>
	<circle cx="786.885" cy="366.927" r="4" fill="#0" id="circle140"/>
	<circle cx="790.341" cy="565.672" r="4" fill="#0" id="circle141"/>
	<circle cx="795.526" cy="142.258" r="4" fill="#0" id="circle142"/>
	<circle cx="798.983" cy="380.753" r="4" fill="#0" id="circle143"/>
	<circle cx="798.983" cy="588.139" r="4" fill="#0" id="circle144"/>
	<circle cx="800.711" cy="342.732" r="4" fill="#0" id="circle145"/>
	<circle cx="807.624" cy="396.307" r="4" fill="#0" id="circle146"/>
	<circle cx="807.624" cy="565.672" r="4" fill="#0" id="circle147"/>
	<circle cx="811.08" cy="150.899" r="4" fill="#0" id="circle148"/>
	<circle cx="814.537" cy="330.634" r="4" fill="#0" id="circle149"/>
	<circle cx="814.537" cy="353.101" r="4" fill="#0" id="circle150"/>
	<circle cx="816.265" cy="411.861" r="4" fill="#0" id="circle151"/>
	<circle cx="816.265" cy="429.143" r="4" fill="#0" id="circle152"/>
	<circle cx="816.265" cy="584.683" r="4" fill="#0" id="circle153"/>
	<circle cx="816.265" cy="614.063" r="4" fill="#0" id="circle154"/>
	<circle cx="823.178" cy="368.655" r="4" fill="#0" id="circle155"/>
	<circle cx="823.178" cy="557.031" r="4" fill="#0" id="circle156"/>
	<circle cx="824.906" cy="444.697" r="4" fill="#0" id="circle157"/>
	<circle cx="828.362" cy="150.899" r="4" fill="#0" id="circle158"/>
	<circle cx="828.362" cy="461.979" r="4" fill="#0" id="circle159"/>
	<circle cx="830.091" cy="574.314" r="4" fill="#0" id="circle160"/>
	<circle cx="830.091" cy="600.237" r="4" fill="#0" id="circle161"/>
	<circle cx="830.091" cy="626.16" r="4" fill="#0" id="circle162"/>
	<circle cx="831.819" cy="325.449" r="4" fill="#0" id="circle163"/>
	<circle cx="833.547" cy="479.261" r="4" fill="#0" id="circle164"/>
	<circle cx="833.547" cy="496.544" r="4" fill="#0" id="circle165"/>
	<circle cx="835.275" cy="382.481" r="4" fill="#0" id="circle166"/>
	<circle cx="835.275" cy="399.763" r="4" fill="#0" id="circle167"/>
	<circle cx="838.732" cy="548.39" r="4" fill="#0" id="circle168"/>
	<circle cx="842.188" cy="512.098" r="4" fill="#0" id="circle169"/>
	<circle cx="842.188" cy="529.38" r="4" fill="#0" id="circle170"/>
	<circle cx="843.916" cy="142.258" r="4" fill="#0" id="circle171"/>
	<circle cx="843.916" cy="415.317" r="4" fill="#0" id="circle172"/>
	<circle cx="843.916" cy="432.599" r="4" fill="#0" id="circle173"/>
	<circle cx="843.916" cy="586.411" r="4" fill="#0" id="circle174"/>
	<circle cx="847.373" cy="617.519" r="4" fill="#0" id="circle175"/>
	<circle cx="849.101" cy="321.993" r="4" fill="#0" id="circle176"/>
	<circle cx="850.829" cy="562.216" r="4" fill="#0" id="circle177"/>
	<circle cx="852.557" cy="448.153" r="4" fill="#0" id="circle178"/>
	<circle cx="852.557" cy="465.436" r="4" fill="#0" id="circle179"/>
	<circle cx="859.47" cy="133.617" r="4" fill="#0" id="circle180"/>
	<circle cx="861.199" cy="480.99" r="4" fill="#0" id="circle181"/>
	<circle cx="861.199" cy="593.324" r="4" fill="#0" id="circle182"/>
	<circle cx="864.655" cy="498.272" r="4" fill="#0" id="circle183"/>
	<circle cx="866.383" cy="316.808" r="4" fill="#0" id="circle184"/>
	<circle cx="869.84" cy="576.042" r="4" fill="#0" id="circle185"/>
	<circle cx="875.024" cy="124.976" r="4" fill="#0" id="circle186"/>
	<circle cx="878.481" cy="532.836" r="4" fill="#0" id="circle187"/>
	<circle cx="878.481" cy="550.118" r="4" fill="#0" id="circle188"/>
	<circle cx="881.937" cy="308.167" r="4" fill="#0" id="circle189"/>
	<circle cx="881.937" cy="505.185" r="4" fill="#0" id="circle190"/>
	<circle cx="887.122" cy="111.15" r="4" fill="#0" id="circle191"/>
	<circle cx="899.22" cy="306.439" r="4" fill="#0" id="circle192"/>
	<circle cx="904.404" cy="102.509" r="4" fill="#0" id="circle193"/>
	<circle cx="913.045" cy="85.2265" r="4" fill="#0" id="circle194"/>
	<circle cx="916.502" cy="299.526" r="4" fill="#0" id="circle195"/>
	<circle cx="926.871" cy="73.1289" r="4" fill="#0" id="circle196"/>
	<circle cx="933.784" cy="297.798" r="4" fill="#0" id="circle197"/>
	<circle cx="938.969" cy="187.192" r="4" fill="#0" id="circle198"/>
	<circle cx="942.425" cy="64.4878" r="4" fill="#0" id="circle199"/>
	<circle cx="947.61" cy="202.746" r="4" fill="#0" id="circle200"/>
	<circle cx="951.066" cy="289.157" r="4" fill="#0" id="circle201"/>
	<circle cx="952.794" cy="175.094" r="4" fill="#0" id="circle202"/>
	<circle cx="957.979" cy="55.8467" r="4" fill="#0" id="circle203"/>
	<circle cx="961.436" cy="157.812" r="4" fill="#0" id="circle204"/>
	<circle cx="964.892" cy="92.1394" r="4" fill="#0" id="circle205"/>
	<circle cx="964.892" cy="135.345" r="4" fill="#0" id="circle206"/>
	<circle cx="964.892" cy="202.746" r="4" fill="#0" id="circle207"/>
	<circle cx="964.892" cy="273.603" r="4" fill="#0" id="circle208"/>
	<circle cx="973.533" cy="47.2056" r="4" fill="#0" id="circle209"/>
	<circle cx="973.533" cy="256.321" r="4" fill="#0" id="circle210"/>
	<circle cx="978.718" cy="80.0418" r="4" fill="#0" id="circle211"/>
	<circle cx="978.718" cy="102.509" r="4" fill="#0" id="circle212"/>
	<circle cx="980.446" cy="126.704" r="4" fill="#0" id="circle213"/>
	<circle cx="980.446" cy="211.387" r="4" fill="#0" id="circle214"/>
	<circle cx="982.174" cy="239.038" r="4" fill="#0" id="circle215"/>
	<circle cx="990.815" cy="47.2056" r="4" fill="#0" id="circle216"/>
	<circle cx="996" cy="71.4007" r="4" fill="#0" id="circle217"/>
	</g>
</svg>