<?xml version="1.0" encoding="UTF-8" standalone="no"?>
<!-- Created with CurveBenchmark -->
<svg
	xmlns:dc="http://purl.org/dc/elements/1.1/"
	xmlns:cc="http://creativecommons.org/ns#"
	xmlns:rdf="http://www.w3.org/1999/02/22-rdf-syntax-ns#"
	xmlns:svg="http://www.w3.org/2000/svg"
	xmlns="http://www.w3.org/2000/svg"
	xmlns:sodipodi="http://sodipodi.sourceforge.net/DTD/sodipodi-0.dtd"
	xmlns:inkscape="http://www.inkscape.org/namespaces/inkscape"
	width="1000"
	height="1000"
	id="svg2"
	version="1.1"
	sodipodi:docname="manifold/ccrust-cat20.png.txt">
<defs
	id="defs4" />
<metadata
	id="metadata7">
	<rdf:RDF>
		<cc:Work
			rdf:about="">
			<dc:format>image/svg+xml</dc:format>
			<dc:type
				rdf:resource="http://purl.org/dc/dcmitype/StillImage" />
			<dc:title></dc:title>
		</cc:Work>
	</rdf:RDF>
</metadata>
<g
	inkscape:label="Layer 1"
	inkscape:groupmode="layer"
	id="layer1">
	<path style="fill:none;stroke:red;stroke-width:1px;stroke-linecap:butt;stroke-linejoin:miter;stroke-opacity:1" d="M 15.2408,91.1161 25.0765,67.2295 z" id="boundary" inkscape:connector-curvature="0" />
	<path style="fill:none;stroke:red;stroke-width:1px;stroke-linecap:butt;stroke-linejoin:miter;stroke-opacity:1" d="M 25.0765,67.2295 36.3173,55.9887 z" id="boundary" inkscape:connector-curvature="0" />
	<path style="fill:none;stroke:red;stroke-width:1px;stroke-linecap:butt;stroke-linejoin:miter;stroke-opacity:1" d="M 15.2408,91.1161 4,102.357 z" id="boundary" inkscape:connector-curvature="0" />
	<path style="fill:none;stroke:red;stroke-width:1px;stroke-linecap:butt;stroke-linejoin:miter;stroke-opacity:1" d="M 4,116.408 4,102.357 z" id="boundary" inkscape:connector-curvature="0" />
	<path style="fill:none;stroke:red;stroke-width:1px;stroke-linecap:butt;stroke-linejoin:miter;stroke-opacity:1" d="M 4,130.459 11.0255,143.105 z" id="boundary" inkscape:connector-curvature="0" />
	<path style="fill:none;stroke:red;stroke-width:1px;stroke-linecap:butt;stroke-linejoin:miter;stroke-opacity:1" d="M 4,130.459 4,116.408 z" id="boundary" inkscape:connector-curvature="0" />
	<path style="fill:none;stroke:red;stroke-width:1px;stroke-linecap:butt;stroke-linejoin:miter;stroke-opacity:1" d="M 74.255,4 88.3059,9.6204 z" id="boundary" inkscape:connector-curvature="0" />
	<path style="fill:none;stroke:red;stroke-width:1px;stroke-linecap:butt;stroke-linejoin:miter;stroke-opacity:1" d="M 100.952,16.6459 88.3059,9.6204 z" id="boundary" inkscape:connector-curvature="0" />
	<path style="fill:none;stroke:red;stroke-width:1px;stroke-linecap:butt;stroke-linejoin:miter;stroke-opacity:1" d="M 61.6091,37.7224 47.5581,44.7479 z" id="boundary" inkscape:connector-curvature="0" />
	<path style="fill:none;stroke:red;stroke-width:1px;stroke-linecap:butt;stroke-linejoin:miter;stroke-opacity:1" d="M 61.6091,37.7224 72.8499,27.8867 z" id="boundary" inkscape:connector-curvature="0" />
	<path style="fill:none;stroke:red;stroke-width:1px;stroke-linecap:butt;stroke-linejoin:miter;stroke-opacity:1" d="M 100.952,16.6459 110.788,27.8867 z" id="boundary" inkscape:connector-curvature="0" />
	<path style="fill:none;stroke:red;stroke-width:1px;stroke-linecap:butt;stroke-linejoin:miter;stroke-opacity:1" d="M 36.3173,55.9887 47.5581,44.7479 z" id="boundary" inkscape:connector-curvature="0" />
	<path style="fill:none;stroke:red;stroke-width:1px;stroke-linecap:butt;stroke-linejoin:miter;stroke-opacity:1" d="M 124.839,32.102 110.788,27.8867 z" id="boundary" inkscape:connector-curvature="0" />
	<path style="fill:none;stroke:red;stroke-width:1px;stroke-linecap:butt;stroke-linejoin:miter;stroke-opacity:1" d="M 18.051,155.751 30.6969,162.776 z" id="boundary" inkscape:connector-curvature="0" />
	<path style="fill:none;stroke:red;stroke-width:1px;stroke-linecap:butt;stroke-linejoin:miter;stroke-opacity:1" d="M 18.051,155.751 11.0255,143.105 z" id="boundary" inkscape:connector-curvature="0" />
	<path style="fill:none;stroke:red;stroke-width:1px;stroke-linecap:butt;stroke-linejoin:miter;stroke-opacity:1" d="M 43.3428,169.802 30.6969,162.776 z" id="boundary" inkscape:connector-curvature="0" />
	<path style="fill:none;stroke:red;stroke-width:1px;stroke-linecap:butt;stroke-linejoin:miter;stroke-opacity:1" d="M 55.9887,176.827 67.2295,185.258 z" id="boundary" inkscape:connector-curvature="0" />
	<path style="fill:none;stroke:red;stroke-width:1px;stroke-linecap:butt;stroke-linejoin:miter;stroke-opacity:1" d="M 67.2295,185.258 74.255,197.904 z" id="boundary" inkscape:connector-curvature="0" />
	<path style="fill:none;stroke:red;stroke-width:1px;stroke-linecap:butt;stroke-linejoin:miter;stroke-opacity:1" d="M 81.2805,210.55 74.255,197.904 z" id="boundary" inkscape:connector-curvature="0" />
	<path style="fill:none;stroke:red;stroke-width:1px;stroke-linecap:butt;stroke-linejoin:miter;stroke-opacity:1" d="M 43.3428,169.802 55.9887,176.827 z" id="boundary" inkscape:connector-curvature="0" />
	<path style="fill:none;stroke:red;stroke-width:1px;stroke-linecap:butt;stroke-linejoin:miter;stroke-opacity:1" d="M 81.2805,210.55 81.2805,224.601 z" id="boundary" inkscape:connector-curvature="0" />
	<path style="fill:none;stroke:red;stroke-width:1px;stroke-linecap:butt;stroke-linejoin:miter;stroke-opacity:1" d="M 81.2805,224.601 88.3059,237.246 z" id="boundary" inkscape:connector-curvature="0" />
	<path style="fill:none;stroke:red;stroke-width:1px;stroke-linecap:butt;stroke-linejoin:miter;stroke-opacity:1" d="M 88.3059,237.246 89.711,251.297 z" id="boundary" inkscape:connector-curvature="0" />
	<path style="fill:none;stroke:red;stroke-width:1px;stroke-linecap:butt;stroke-linejoin:miter;stroke-opacity:1" d="M 89.711,251.297 95.3314,265.348 z" id="boundary" inkscape:connector-curvature="0" />
	<path style="fill:none;stroke:red;stroke-width:1px;stroke-linecap:butt;stroke-linejoin:miter;stroke-opacity:1" d="M 95.3314,265.348 96.7365,279.399 z" id="boundary" inkscape:connector-curvature="0" />
	<path style="fill:none;stroke:red;stroke-width:1px;stroke-linecap:butt;stroke-linejoin:miter;stroke-opacity:1" d="M 96.7365,279.399 103.762,292.045 z" id="boundary" inkscape:connector-curvature="0" />
	<path style="fill:none;stroke:red;stroke-width:1px;stroke-linecap:butt;stroke-linejoin:miter;stroke-opacity:1" d="M 103.762,292.045 109.382,306.096 z" id="boundary" inkscape:connector-curvature="0" />
	<path style="fill:none;stroke:red;stroke-width:1px;stroke-linecap:butt;stroke-linejoin:miter;stroke-opacity:1" d="M 109.382,306.096 120.623,315.932 z" id="boundary" inkscape:connector-curvature="0" />
	<path style="fill:none;stroke:red;stroke-width:1px;stroke-linecap:butt;stroke-linejoin:miter;stroke-opacity:1" d="M 120.623,315.932 126.244,329.983 z" id="boundary" inkscape:connector-curvature="0" />
	<path style="fill:none;stroke:red;stroke-width:1px;stroke-linecap:butt;stroke-linejoin:miter;stroke-opacity:1" d="M 137.484,39.1275 148.725,48.9632 z" id="boundary" inkscape:connector-curvature="0" />
	<path style="fill:none;stroke:red;stroke-width:1px;stroke-linecap:butt;stroke-linejoin:miter;stroke-opacity:1" d="M 148.725,48.9632 158.561,60.204 z" id="boundary" inkscape:connector-curvature="0" />
	<path style="fill:none;stroke:red;stroke-width:1px;stroke-linecap:butt;stroke-linejoin:miter;stroke-opacity:1" d="M 169.802,70.0397 179.637,81.2805 z" id="boundary" inkscape:connector-curvature="0" />
	<path style="fill:none;stroke:red;stroke-width:1px;stroke-linecap:butt;stroke-linejoin:miter;stroke-opacity:1" d="M 169.802,70.0397 158.561,60.204 z" id="boundary" inkscape:connector-curvature="0" />
	<path style="fill:none;stroke:red;stroke-width:1px;stroke-linecap:butt;stroke-linejoin:miter;stroke-opacity:1" d="M 179.637,81.2805 190.878,91.1161 z" id="boundary" inkscape:connector-curvature="0" />
	<path style="fill:none;stroke:red;stroke-width:1px;stroke-linecap:butt;stroke-linejoin:miter;stroke-opacity:1" d="M 190.878,91.1161 195.093,105.167 z" id="boundary" inkscape:connector-curvature="0" />
	<path style="fill:none;stroke:red;stroke-width:1px;stroke-linecap:butt;stroke-linejoin:miter;stroke-opacity:1" d="M 325.768,133.269 311.717,133.269 z" id="boundary" inkscape:connector-curvature="0" />
	<path style="fill:none;stroke:red;stroke-width:1px;stroke-linecap:butt;stroke-linejoin:miter;stroke-opacity:1" d="M 195.093,105.167 206.334,113.598 z" id="boundary" inkscape:connector-curvature="0" />
	<path style="fill:none;stroke:red;stroke-width:1px;stroke-linecap:butt;stroke-linejoin:miter;stroke-opacity:1" d="M 206.334,113.598 216.17,124.839 z" id="boundary" inkscape:connector-curvature="0" />
	<path style="fill:none;stroke:red;stroke-width:1px;stroke-linecap:butt;stroke-linejoin:miter;stroke-opacity:1" d="M 216.17,124.839 230.221,126.244 z" id="boundary" inkscape:connector-curvature="0" />
	<path style="fill:none;stroke:red;stroke-width:1px;stroke-linecap:butt;stroke-linejoin:miter;stroke-opacity:1" d="M 230.221,126.244 242.867,133.269 z" id="boundary" inkscape:connector-curvature="0" />
	<path style="fill:none;stroke:red;stroke-width:1px;stroke-linecap:butt;stroke-linejoin:miter;stroke-opacity:1" d="M 256.918,133.269 242.867,133.269 z" id="boundary" inkscape:connector-curvature="0" />
	<path style="fill:none;stroke:red;stroke-width:1px;stroke-linecap:butt;stroke-linejoin:miter;stroke-opacity:1" d="M 285.02,136.079 270.969,133.269 z" id="boundary" inkscape:connector-curvature="0" />
	<path style="fill:none;stroke:red;stroke-width:1px;stroke-linecap:butt;stroke-linejoin:miter;stroke-opacity:1" d="M 270.969,133.269 256.918,133.269 z" id="boundary" inkscape:connector-curvature="0" />
	<path style="fill:none;stroke:red;stroke-width:1px;stroke-linecap:butt;stroke-linejoin:miter;stroke-opacity:1" d="M 137.484,39.1275 124.839,32.102 z" id="boundary" inkscape:connector-curvature="0" />
	<path style="fill:none;stroke:red;stroke-width:1px;stroke-linecap:butt;stroke-linejoin:miter;stroke-opacity:1" d="M 325.768,133.269 339.819,133.269 z" id="boundary" inkscape:connector-curvature="0" />
	<path style="fill:none;stroke:red;stroke-width:1px;stroke-linecap:butt;stroke-linejoin:miter;stroke-opacity:1" d="M 353.87,133.269 339.819,133.269 z" id="boundary" inkscape:connector-curvature="0" />
	<path style="fill:none;stroke:red;stroke-width:1px;stroke-linecap:butt;stroke-linejoin:miter;stroke-opacity:1" d="M 126.244,329.983 130.459,344.034 z" id="boundary" inkscape:connector-curvature="0" />
	<path style="fill:none;stroke:red;stroke-width:1px;stroke-linecap:butt;stroke-linejoin:miter;stroke-opacity:1" d="M 137.484,356.68 130.459,344.034 z" id="boundary" inkscape:connector-curvature="0" />
	<path style="fill:none;stroke:red;stroke-width:1px;stroke-linecap:butt;stroke-linejoin:miter;stroke-opacity:1" d="M 311.717,133.269 299.071,140.295 z" id="boundary" inkscape:connector-curvature="0" />
	<path style="fill:none;stroke:red;stroke-width:1px;stroke-linecap:butt;stroke-linejoin:miter;stroke-opacity:1" d="M 299.071,140.295 285.02,136.079 z" id="boundary" inkscape:connector-curvature="0" />
	<path style="fill:none;stroke:red;stroke-width:1px;stroke-linecap:butt;stroke-linejoin:miter;stroke-opacity:1" d="M 367.921,133.269 381.972,133.269 z" id="boundary" inkscape:connector-curvature="0" />
	<path style="fill:none;stroke:red;stroke-width:1px;stroke-linecap:butt;stroke-linejoin:miter;stroke-opacity:1" d="M 435.365,133.269 422.72,140.295 z" id="boundary" inkscape:connector-curvature="0" />
	<path style="fill:none;stroke:red;stroke-width:1px;stroke-linecap:butt;stroke-linejoin:miter;stroke-opacity:1" d="M 396.023,133.269 381.972,133.269 z" id="boundary" inkscape:connector-curvature="0" />
	<path style="fill:none;stroke:red;stroke-width:1px;stroke-linecap:butt;stroke-linejoin:miter;stroke-opacity:1" d="M 396.023,133.269 408.669,140.295 z" id="boundary" inkscape:connector-curvature="0" />
	<path style="fill:none;stroke:red;stroke-width:1px;stroke-linecap:butt;stroke-linejoin:miter;stroke-opacity:1" d="M 422.72,140.295 408.669,140.295 z" id="boundary" inkscape:connector-curvature="0" />
	<path style="fill:none;stroke:red;stroke-width:1px;stroke-linecap:butt;stroke-linejoin:miter;stroke-opacity:1" d="M 449.416,133.269 463.467,133.269 z" id="boundary" inkscape:connector-curvature="0" />
	<path style="fill:none;stroke:red;stroke-width:1px;stroke-linecap:butt;stroke-linejoin:miter;stroke-opacity:1" d="M 435.365,133.269 449.416,133.269 z" id="boundary" inkscape:connector-curvature="0" />
	<path style="fill:none;stroke:red;stroke-width:1px;stroke-linecap:butt;stroke-linejoin:miter;stroke-opacity:1" d="M 353.87,133.269 367.921,133.269 z" id="boundary" inkscape:connector-curvature="0" />
	<path style="fill:none;stroke:red;stroke-width:1px;stroke-linecap:butt;stroke-linejoin:miter;stroke-opacity:1" d="M 477.518,133.269 463.467,133.269 z" id="boundary" inkscape:connector-curvature="0" />
	<path style="fill:none;stroke:red;stroke-width:1px;stroke-linecap:butt;stroke-linejoin:miter;stroke-opacity:1" d="M 138.89,370.731 137.484,356.68 z" id="boundary" inkscape:connector-curvature="0" />
	<path style="fill:none;stroke:red;stroke-width:1px;stroke-linecap:butt;stroke-linejoin:miter;stroke-opacity:1" d="M 144.51,384.782 138.89,370.731 z" id="boundary" inkscape:connector-curvature="0" />
	<path style="fill:none;stroke:red;stroke-width:1px;stroke-linecap:butt;stroke-linejoin:miter;stroke-opacity:1" d="M 137.484,453.632 137.484,439.581 z" id="boundary" inkscape:connector-curvature="0" />
	<path style="fill:none;stroke:red;stroke-width:1px;stroke-linecap:butt;stroke-linejoin:miter;stroke-opacity:1" d="M 137.484,439.581 144.51,426.935 z" id="boundary" inkscape:connector-curvature="0" />
	<path style="fill:none;stroke:red;stroke-width:1px;stroke-linecap:butt;stroke-linejoin:miter;stroke-opacity:1" d="M 126.244,512.646 130.459,495.785 z" id="boundary" inkscape:connector-curvature="0" />
	<path style="fill:none;stroke:red;stroke-width:1px;stroke-linecap:butt;stroke-linejoin:miter;stroke-opacity:1" d="M 137.484,453.632 137.484,474.708 z" id="boundary" inkscape:connector-curvature="0" />
	<path style="fill:none;stroke:red;stroke-width:1px;stroke-linecap:butt;stroke-linejoin:miter;stroke-opacity:1" d="M 137.484,474.708 130.459,495.785 z" id="boundary" inkscape:connector-curvature="0" />
	<path style="fill:none;stroke:red;stroke-width:1px;stroke-linecap:butt;stroke-linejoin:miter;stroke-opacity:1" d="M 126.244,512.646 113.598,519.671 z" id="boundary" inkscape:connector-curvature="0" />
	<path style="fill:none;stroke:red;stroke-width:1px;stroke-linecap:butt;stroke-linejoin:miter;stroke-opacity:1" d="M 144.51,384.782 144.51,398.833 z" id="boundary" inkscape:connector-curvature="0" />
	<path style="fill:none;stroke:red;stroke-width:1px;stroke-linecap:butt;stroke-linejoin:miter;stroke-opacity:1" d="M 144.51,412.884 144.51,398.833 z" id="boundary" inkscape:connector-curvature="0" />
	<path style="fill:none;stroke:red;stroke-width:1px;stroke-linecap:butt;stroke-linejoin:miter;stroke-opacity:1" d="M 144.51,412.884 144.51,426.935 z" id="boundary" inkscape:connector-curvature="0" />
	<path style="fill:none;stroke:red;stroke-width:1px;stroke-linecap:butt;stroke-linejoin:miter;stroke-opacity:1" d="M 174.017,500 181.042,478.924 z" id="boundary" inkscape:connector-curvature="0" />
	<path style="fill:none;stroke:red;stroke-width:1px;stroke-linecap:butt;stroke-linejoin:miter;stroke-opacity:1" d="M 193.688,502.81 174.017,500 z" id="boundary" inkscape:connector-curvature="0" />
	<path style="fill:none;stroke:red;stroke-width:1px;stroke-linecap:butt;stroke-linejoin:miter;stroke-opacity:1" d="M 193.688,516.861 193.688,502.81 z" id="boundary" inkscape:connector-curvature="0" />
	<path style="fill:none;stroke:red;stroke-width:1px;stroke-linecap:butt;stroke-linejoin:miter;stroke-opacity:1" d="M 195.093,481.734 193.688,502.81 z" id="boundary" inkscape:connector-curvature="0" />
	<path style="fill:none;stroke:red;stroke-width:1px;stroke-linecap:butt;stroke-linejoin:miter;stroke-opacity:1" d="M 181.042,478.924 195.093,481.734 z" id="boundary" inkscape:connector-curvature="0" />
	<path style="fill:none;stroke:red;stroke-width:1px;stroke-linecap:butt;stroke-linejoin:miter;stroke-opacity:1" d="M 109.382,543.558 102.357,530.912 z" id="boundary" inkscape:connector-curvature="0" />
	<path style="fill:none;stroke:red;stroke-width:1px;stroke-linecap:butt;stroke-linejoin:miter;stroke-opacity:1" d="M 102.357,530.912 113.598,519.671 z" id="boundary" inkscape:connector-curvature="0" />
	<path style="fill:none;stroke:red;stroke-width:1px;stroke-linecap:butt;stroke-linejoin:miter;stroke-opacity:1" d="M 159.966,535.127 148.725,547.773 z" id="boundary" inkscape:connector-curvature="0" />
	<path style="fill:none;stroke:red;stroke-width:1px;stroke-linecap:butt;stroke-linejoin:miter;stroke-opacity:1" d="M 109.382,543.558 123.433,549.178 z" id="boundary" inkscape:connector-curvature="0" />
	<path style="fill:none;stroke:red;stroke-width:1px;stroke-linecap:butt;stroke-linejoin:miter;stroke-opacity:1" d="M 123.433,549.178 136.079,556.204 z" id="boundary" inkscape:connector-curvature="0" />
	<path style="fill:none;stroke:red;stroke-width:1px;stroke-linecap:butt;stroke-linejoin:miter;stroke-opacity:1" d="M 136.079,556.204 148.725,547.773 z" id="boundary" inkscape:connector-curvature="0" />
	<path style="fill:none;stroke:red;stroke-width:1px;stroke-linecap:butt;stroke-linejoin:miter;stroke-opacity:1" d="M 148.725,547.773 165.586,559.014 z" id="boundary" inkscape:connector-curvature="0" />
	<path style="fill:none;stroke:red;stroke-width:1px;stroke-linecap:butt;stroke-linejoin:miter;stroke-opacity:1" d="M 176.827,547.773 165.586,559.014 z" id="boundary" inkscape:connector-curvature="0" />
	<path style="fill:none;stroke:red;stroke-width:1px;stroke-linecap:butt;stroke-linejoin:miter;stroke-opacity:1" d="M 171.207,525.292 186.663,530.912 z" id="boundary" inkscape:connector-curvature="0" />
	<path style="fill:none;stroke:red;stroke-width:1px;stroke-linecap:butt;stroke-linejoin:miter;stroke-opacity:1" d="M 186.663,530.912 176.827,547.773 z" id="boundary" inkscape:connector-curvature="0" />
	<path style="fill:none;stroke:red;stroke-width:1px;stroke-linecap:butt;stroke-linejoin:miter;stroke-opacity:1" d="M 216.17,563.229 202.119,570.255 z" id="boundary" inkscape:connector-curvature="0" />
	<path style="fill:none;stroke:red;stroke-width:1px;stroke-linecap:butt;stroke-linejoin:miter;stroke-opacity:1" d="M 193.688,516.861 186.663,530.912 z" id="boundary" inkscape:connector-curvature="0" />
	<path style="fill:none;stroke:red;stroke-width:1px;stroke-linecap:butt;stroke-linejoin:miter;stroke-opacity:1" d="M 171.207,525.292 159.966,535.127 z" id="boundary" inkscape:connector-curvature="0" />
	<path style="fill:none;stroke:red;stroke-width:1px;stroke-linecap:butt;stroke-linejoin:miter;stroke-opacity:1" d="M 165.586,559.014 174.017,570.255 z" id="boundary" inkscape:connector-curvature="0" />
	<path style="fill:none;stroke:red;stroke-width:1px;stroke-linecap:butt;stroke-linejoin:miter;stroke-opacity:1" d="M 188.068,570.255 174.017,570.255 z" id="boundary" inkscape:connector-curvature="0" />
	<path style="fill:none;stroke:red;stroke-width:1px;stroke-linecap:butt;stroke-linejoin:miter;stroke-opacity:1" d="M 202.119,570.255 188.068,570.255 z" id="boundary" inkscape:connector-curvature="0" />
	<path style="fill:none;stroke:red;stroke-width:1px;stroke-linecap:butt;stroke-linejoin:miter;stroke-opacity:1" d="M 297.666,359.49 311.717,359.49 z" id="boundary" inkscape:connector-curvature="0" />
	<path style="fill:none;stroke:red;stroke-width:1px;stroke-linecap:butt;stroke-linejoin:miter;stroke-opacity:1" d="M 283.615,363.705 297.666,359.49 z" id="boundary" inkscape:connector-curvature="0" />
	<path style="fill:none;stroke:red;stroke-width:1px;stroke-linecap:butt;stroke-linejoin:miter;stroke-opacity:1" d="M 325.768,359.49 311.717,359.49 z" id="boundary" inkscape:connector-curvature="0" />
	<path style="fill:none;stroke:red;stroke-width:1px;stroke-linecap:butt;stroke-linejoin:miter;stroke-opacity:1" d="M 269.564,370.731 283.615,363.705 z" id="boundary" inkscape:connector-curvature="0" />
	<path style="fill:none;stroke:red;stroke-width:1px;stroke-linecap:butt;stroke-linejoin:miter;stroke-opacity:1" d="M 325.768,359.49 339.819,359.49 z" id="boundary" inkscape:connector-curvature="0" />
	<path style="fill:none;stroke:red;stroke-width:1px;stroke-linecap:butt;stroke-linejoin:miter;stroke-opacity:1" d="M 353.87,359.49 339.819,359.49 z" id="boundary" inkscape:connector-curvature="0" />
	<path style="fill:none;stroke:red;stroke-width:1px;stroke-linecap:butt;stroke-linejoin:miter;stroke-opacity:1" d="M 367.921,356.68 353.87,359.49 z" id="boundary" inkscape:connector-curvature="0" />
	<path style="fill:none;stroke:red;stroke-width:1px;stroke-linecap:butt;stroke-linejoin:miter;stroke-opacity:1" d="M 367.921,356.68 381.972,352.465 z" id="boundary" inkscape:connector-curvature="0" />
	<path style="fill:none;stroke:red;stroke-width:1px;stroke-linecap:butt;stroke-linejoin:miter;stroke-opacity:1" d="M 381.972,352.465 394.618,359.49 z" id="boundary" inkscape:connector-curvature="0" />
	<path style="fill:none;stroke:red;stroke-width:1px;stroke-linecap:butt;stroke-linejoin:miter;stroke-opacity:1" d="M 394.618,359.49 408.669,359.49 z" id="boundary" inkscape:connector-curvature="0" />
	<path style="fill:none;stroke:red;stroke-width:1px;stroke-linecap:butt;stroke-linejoin:miter;stroke-opacity:1" d="M 408.669,359.49 421.314,366.516 z" id="boundary" inkscape:connector-curvature="0" />
	<path style="fill:none;stroke:red;stroke-width:1px;stroke-linecap:butt;stroke-linejoin:miter;stroke-opacity:1" d="M 421.314,366.516 435.365,366.516 z" id="boundary" inkscape:connector-curvature="0" />
	<path style="fill:none;stroke:red;stroke-width:1px;stroke-linecap:butt;stroke-linejoin:miter;stroke-opacity:1" d="M 435.365,366.516 449.416,370.731 z" id="boundary" inkscape:connector-curvature="0" />
	<path style="fill:none;stroke:red;stroke-width:1px;stroke-linecap:butt;stroke-linejoin:miter;stroke-opacity:1" d="M 449.416,370.731 462.062,377.756 z" id="boundary" inkscape:connector-curvature="0" />
	<path style="fill:none;stroke:red;stroke-width:1px;stroke-linecap:butt;stroke-linejoin:miter;stroke-opacity:1" d="M 244.272,485.949 237.246,500 z" id="boundary" inkscape:connector-curvature="0" />
	<path style="fill:none;stroke:red;stroke-width:1px;stroke-linecap:butt;stroke-linejoin:miter;stroke-opacity:1" d="M 237.246,500 237.246,514.051 z" id="boundary" inkscape:connector-curvature="0" />
	<path style="fill:none;stroke:red;stroke-width:1px;stroke-linecap:butt;stroke-linejoin:miter;stroke-opacity:1" d="M 251.297,408.669 254.108,422.72 z" id="boundary" inkscape:connector-curvature="0" />
	<path style="fill:none;stroke:red;stroke-width:1px;stroke-linecap:butt;stroke-linejoin:miter;stroke-opacity:1" d="M 216.17,563.229 223.195,542.153 z" id="boundary" inkscape:connector-curvature="0" />
	<path style="fill:none;stroke:red;stroke-width:1px;stroke-linecap:butt;stroke-linejoin:miter;stroke-opacity:1" d="M 223.195,542.153 234.436,532.317 z" id="boundary" inkscape:connector-curvature="0" />
	<path style="fill:none;stroke:red;stroke-width:1px;stroke-linecap:butt;stroke-linejoin:miter;stroke-opacity:1" d="M 234.436,532.317 237.246,514.051 z" id="boundary" inkscape:connector-curvature="0" />
	<path style="fill:none;stroke:red;stroke-width:1px;stroke-linecap:butt;stroke-linejoin:miter;stroke-opacity:1" d="M 244.272,485.949 251.297,471.898 z" id="boundary" inkscape:connector-curvature="0" />
	<path style="fill:none;stroke:red;stroke-width:1px;stroke-linecap:butt;stroke-linejoin:miter;stroke-opacity:1" d="M 251.297,394.618 251.297,408.669 z" id="boundary" inkscape:connector-curvature="0" />
	<path style="fill:none;stroke:red;stroke-width:1px;stroke-linecap:butt;stroke-linejoin:miter;stroke-opacity:1" d="M 258.323,380.567 269.564,370.731 z" id="boundary" inkscape:connector-curvature="0" />
	<path style="fill:none;stroke:red;stroke-width:1px;stroke-linecap:butt;stroke-linejoin:miter;stroke-opacity:1" d="M 258.323,436.771 254.108,422.72 z" id="boundary" inkscape:connector-curvature="0" />
	<path style="fill:none;stroke:red;stroke-width:1px;stroke-linecap:butt;stroke-linejoin:miter;stroke-opacity:1" d="M 251.297,394.618 258.323,380.567 z" id="boundary" inkscape:connector-curvature="0" />
	<path style="fill:none;stroke:red;stroke-width:1px;stroke-linecap:butt;stroke-linejoin:miter;stroke-opacity:1" d="M 258.323,436.771 251.297,457.847 z" id="boundary" inkscape:connector-curvature="0" />
	<path style="fill:none;stroke:red;stroke-width:1px;stroke-linecap:butt;stroke-linejoin:miter;stroke-opacity:1" d="M 251.297,471.898 251.297,457.847 z" id="boundary" inkscape:connector-curvature="0" />
	<path style="fill:none;stroke:red;stroke-width:1px;stroke-linecap:butt;stroke-linejoin:miter;stroke-opacity:1" d="M 460.657,523.887 460.657,537.938 z" id="boundary" inkscape:connector-curvature="0" />
	<path style="fill:none;stroke:red;stroke-width:1px;stroke-linecap:butt;stroke-linejoin:miter;stroke-opacity:1" d="M 460.657,523.887 474.708,516.861 z" id="boundary" inkscape:connector-curvature="0" />
	<path style="fill:none;stroke:red;stroke-width:1px;stroke-linecap:butt;stroke-linejoin:miter;stroke-opacity:1" d="M 462.062,377.756 473.303,387.592 z" id="boundary" inkscape:connector-curvature="0" />
	<path style="fill:none;stroke:red;stroke-width:1px;stroke-linecap:butt;stroke-linejoin:miter;stroke-opacity:1" d="M 460.657,537.938 471.898,547.773 z" id="boundary" inkscape:connector-curvature="0" />
	<path style="fill:none;stroke:red;stroke-width:1px;stroke-linecap:butt;stroke-linejoin:miter;stroke-opacity:1" d="M 477.518,133.269 491.569,133.269 z" id="boundary" inkscape:connector-curvature="0" />
	<path style="fill:none;stroke:red;stroke-width:1px;stroke-linecap:butt;stroke-linejoin:miter;stroke-opacity:1" d="M 505.62,133.269 491.569,133.269 z" id="boundary" inkscape:connector-curvature="0" />
	<path style="fill:none;stroke:red;stroke-width:1px;stroke-linecap:butt;stroke-linejoin:miter;stroke-opacity:1" d="M 505.62,133.269 518.266,140.295 z" id="boundary" inkscape:connector-curvature="0" />
	<path style="fill:none;stroke:red;stroke-width:1px;stroke-linecap:butt;stroke-linejoin:miter;stroke-opacity:1" d="M 532.317,140.295 518.266,140.295 z" id="boundary" inkscape:connector-curvature="0" />
	<path style="fill:none;stroke:red;stroke-width:1px;stroke-linecap:butt;stroke-linejoin:miter;stroke-opacity:1" d="M 546.368,140.295 560.419,140.295 z" id="boundary" inkscape:connector-curvature="0" />
	<path style="fill:none;stroke:red;stroke-width:1px;stroke-linecap:butt;stroke-linejoin:miter;stroke-opacity:1" d="M 560.419,140.295 573.065,147.32 z" id="boundary" inkscape:connector-curvature="0" />
	<path style="fill:none;stroke:red;stroke-width:1px;stroke-linecap:butt;stroke-linejoin:miter;stroke-opacity:1" d="M 546.368,140.295 532.317,140.295 z" id="boundary" inkscape:connector-curvature="0" />
	<path style="fill:none;stroke:red;stroke-width:1px;stroke-linecap:butt;stroke-linejoin:miter;stroke-opacity:1" d="M 573.065,147.32 587.116,150.13 z" id="boundary" inkscape:connector-curvature="0" />
	<path style="fill:none;stroke:red;stroke-width:1px;stroke-linecap:butt;stroke-linejoin:miter;stroke-opacity:1" d="M 587.116,150.13 599.762,157.156 z" id="boundary" inkscape:connector-curvature="0" />
	<path style="fill:none;stroke:red;stroke-width:1px;stroke-linecap:butt;stroke-linejoin:miter;stroke-opacity:1" d="M 599.762,157.156 613.813,161.371 z" id="boundary" inkscape:connector-curvature="0" />
	<path style="fill:none;stroke:red;stroke-width:1px;stroke-linecap:butt;stroke-linejoin:miter;stroke-opacity:1" d="M 626.459,168.397 636.295,179.637 z" id="boundary" inkscape:connector-curvature="0" />
	<path style="fill:none;stroke:red;stroke-width:1px;stroke-linecap:butt;stroke-linejoin:miter;stroke-opacity:1" d="M 613.813,161.371 626.459,168.397 z" id="boundary" inkscape:connector-curvature="0" />
	<path style="fill:none;stroke:red;stroke-width:1px;stroke-linecap:butt;stroke-linejoin:miter;stroke-opacity:1" d="M 650.346,185.258 636.295,179.637 z" id="boundary" inkscape:connector-curvature="0" />
	<path style="fill:none;stroke:red;stroke-width:1px;stroke-linecap:butt;stroke-linejoin:miter;stroke-opacity:1" d="M 650.346,185.258 655.966,199.309 z" id="boundary" inkscape:connector-curvature="0" />
	<path style="fill:none;stroke:red;stroke-width:1px;stroke-linecap:butt;stroke-linejoin:miter;stroke-opacity:1" d="M 664.397,289.235 651.751,296.261 z" id="boundary" inkscape:connector-curvature="0" />
	<path style="fill:none;stroke:red;stroke-width:1px;stroke-linecap:butt;stroke-linejoin:miter;stroke-opacity:1" d="M 677.042,296.261 664.397,289.235 z" id="boundary" inkscape:connector-curvature="0" />
	<path style="fill:none;stroke:red;stroke-width:1px;stroke-linecap:butt;stroke-linejoin:miter;stroke-opacity:1" d="M 651.751,310.312 651.751,296.261 z" id="boundary" inkscape:connector-curvature="0" />
	<path style="fill:none;stroke:red;stroke-width:1px;stroke-linecap:butt;stroke-linejoin:miter;stroke-opacity:1" d="M 644.725,345.439 644.725,331.388 z" id="boundary" inkscape:connector-curvature="0" />
	<path style="fill:none;stroke:red;stroke-width:1px;stroke-linecap:butt;stroke-linejoin:miter;stroke-opacity:1" d="M 644.725,331.388 651.751,310.312 z" id="boundary" inkscape:connector-curvature="0" />
	<path style="fill:none;stroke:red;stroke-width:1px;stroke-linecap:butt;stroke-linejoin:miter;stroke-opacity:1" d="M 677.042,296.261 689.688,303.286 z" id="boundary" inkscape:connector-curvature="0" />
	<path style="fill:none;stroke:red;stroke-width:1px;stroke-linecap:butt;stroke-linejoin:miter;stroke-opacity:1" d="M 655.966,199.309 665.802,210.55 z" id="boundary" inkscape:connector-curvature="0" />
	<path style="fill:none;stroke:red;stroke-width:1px;stroke-linecap:butt;stroke-linejoin:miter;stroke-opacity:1" d="M 686.878,228.816 699.524,235.841 z" id="boundary" inkscape:connector-curvature="0" />
	<path style="fill:none;stroke:red;stroke-width:1px;stroke-linecap:butt;stroke-linejoin:miter;stroke-opacity:1" d="M 686.878,228.816 678.448,217.575 z" id="boundary" inkscape:connector-curvature="0" />
	<path style="fill:none;stroke:red;stroke-width:1px;stroke-linecap:butt;stroke-linejoin:miter;stroke-opacity:1" d="M 699.524,235.841 710.765,245.677 z" id="boundary" inkscape:connector-curvature="0" />
	<path style="fill:none;stroke:red;stroke-width:1px;stroke-linecap:butt;stroke-linejoin:miter;stroke-opacity:1" d="M 723.411,252.703 710.765,245.677 z" id="boundary" inkscape:connector-curvature="0" />
	<path style="fill:none;stroke:red;stroke-width:1px;stroke-linecap:butt;stroke-linejoin:miter;stroke-opacity:1" d="M 703.739,308.907 716.385,315.932 z" id="boundary" inkscape:connector-curvature="0" />
	<path style="fill:none;stroke:red;stroke-width:1px;stroke-linecap:butt;stroke-linejoin:miter;stroke-opacity:1" d="M 703.739,308.907 689.688,303.286 z" id="boundary" inkscape:connector-curvature="0" />
	<path style="fill:none;stroke:red;stroke-width:1px;stroke-linecap:butt;stroke-linejoin:miter;stroke-opacity:1" d="M 723.411,252.703 734.652,262.538 z" id="boundary" inkscape:connector-curvature="0" />
	<path style="fill:none;stroke:red;stroke-width:1px;stroke-linecap:butt;stroke-linejoin:miter;stroke-opacity:1" d="M 665.802,210.55 678.448,217.575 z" id="boundary" inkscape:connector-curvature="0" />
	<path style="fill:none;stroke:red;stroke-width:1px;stroke-linecap:butt;stroke-linejoin:miter;stroke-opacity:1" d="M 644.725,359.49 644.725,345.439 z" id="boundary" inkscape:connector-curvature="0" />
	<path style="fill:none;stroke:red;stroke-width:1px;stroke-linecap:butt;stroke-linejoin:miter;stroke-opacity:1" d="M 747.297,269.564 757.133,280.805 z" id="boundary" inkscape:connector-curvature="0" />
	<path style="fill:none;stroke:red;stroke-width:1px;stroke-linecap:butt;stroke-linejoin:miter;stroke-opacity:1" d="M 771.184,280.805 757.133,280.805 z" id="boundary" inkscape:connector-curvature="0" />
	<path style="fill:none;stroke:red;stroke-width:1px;stroke-linecap:butt;stroke-linejoin:miter;stroke-opacity:1" d="M 730.436,321.552 716.385,315.932 z" id="boundary" inkscape:connector-curvature="0" />
	<path style="fill:none;stroke:red;stroke-width:1px;stroke-linecap:butt;stroke-linejoin:miter;stroke-opacity:1" d="M 783.83,287.83 771.184,280.805 z" id="boundary" inkscape:connector-curvature="0" />
	<path style="fill:none;stroke:red;stroke-width:1px;stroke-linecap:butt;stroke-linejoin:miter;stroke-opacity:1" d="M 783.83,287.83 796.476,294.856 z" id="boundary" inkscape:connector-curvature="0" />
	<path style="fill:none;stroke:red;stroke-width:1px;stroke-linecap:butt;stroke-linejoin:miter;stroke-opacity:1" d="M 809.122,301.881 796.476,294.856 z" id="boundary" inkscape:connector-curvature="0" />
	<path style="fill:none;stroke:red;stroke-width:1px;stroke-linecap:butt;stroke-linejoin:miter;stroke-opacity:1" d="M 823.173,301.881 809.122,301.881 z" id="boundary" inkscape:connector-curvature="0" />
	<path style="fill:none;stroke:red;stroke-width:1px;stroke-linecap:butt;stroke-linejoin:miter;stroke-opacity:1" d="M 747.297,269.564 734.652,262.538 z" id="boundary" inkscape:connector-curvature="0" />
	<path style="fill:none;stroke:red;stroke-width:1px;stroke-linecap:butt;stroke-linejoin:miter;stroke-opacity:1" d="M 837.224,301.881 823.173,301.881 z" id="boundary" inkscape:connector-curvature="0" />
	<path style="fill:none;stroke:red;stroke-width:1px;stroke-linecap:butt;stroke-linejoin:miter;stroke-opacity:1" d="M 974.924,297.666 988.975,294.856 z" id="boundary" inkscape:connector-curvature="0" />
	<path style="fill:none;stroke:red;stroke-width:1px;stroke-linecap:butt;stroke-linejoin:miter;stroke-opacity:1" d="M 988.975,294.856 996,307.501 z" id="boundary" inkscape:connector-curvature="0" />
	<path style="fill:none;stroke:red;stroke-width:1px;stroke-linecap:butt;stroke-linejoin:miter;stroke-opacity:1" d="M 851.275,301.881 837.224,301.881 z" id="boundary" inkscape:connector-curvature="0" />
	<path style="fill:none;stroke:red;stroke-width:1px;stroke-linecap:butt;stroke-linejoin:miter;stroke-opacity:1" d="M 946.822,304.691 960.873,301.881 z" id="boundary" inkscape:connector-curvature="0" />
	<path style="fill:none;stroke:red;stroke-width:1px;stroke-linecap:butt;stroke-linejoin:miter;stroke-opacity:1" d="M 960.873,301.881 974.924,297.666 z" id="boundary" inkscape:connector-curvature="0" />
	<path style="fill:none;stroke:red;stroke-width:1px;stroke-linecap:butt;stroke-linejoin:miter;stroke-opacity:1" d="M 796.476,345.439 783.83,338.414 z" id="boundary" inkscape:connector-curvature="0" />
	<path style="fill:none;stroke:red;stroke-width:1px;stroke-linecap:butt;stroke-linejoin:miter;stroke-opacity:1" d="M 996,307.501 984.759,322.958 z" id="boundary" inkscape:connector-curvature="0" />
	<path style="fill:none;stroke:red;stroke-width:1px;stroke-linecap:butt;stroke-linejoin:miter;stroke-opacity:1" d="M 744.487,324.363 730.436,321.552 z" id="boundary" inkscape:connector-curvature="0" />
	<path style="fill:none;stroke:red;stroke-width:1px;stroke-linecap:butt;stroke-linejoin:miter;stroke-opacity:1" d="M 877.972,308.907 863.921,308.907 z" id="boundary" inkscape:connector-curvature="0" />
	<path style="fill:none;stroke:red;stroke-width:1px;stroke-linecap:butt;stroke-linejoin:miter;stroke-opacity:1" d="M 863.921,308.907 851.275,301.881 z" id="boundary" inkscape:connector-curvature="0" />
	<path style="fill:none;stroke:red;stroke-width:1px;stroke-linecap:butt;stroke-linejoin:miter;stroke-opacity:1" d="M 744.487,324.363 757.133,331.388 z" id="boundary" inkscape:connector-curvature="0" />
	<path style="fill:none;stroke:red;stroke-width:1px;stroke-linecap:butt;stroke-linejoin:miter;stroke-opacity:1" d="M 757.133,331.388 769.779,338.414 z" id="boundary" inkscape:connector-curvature="0" />
	<path style="fill:none;stroke:red;stroke-width:1px;stroke-linecap:butt;stroke-linejoin:miter;stroke-opacity:1" d="M 783.83,338.414 769.779,338.414 z" id="boundary" inkscape:connector-curvature="0" />
	<path style="fill:none;stroke:red;stroke-width:1px;stroke-linecap:butt;stroke-linejoin:miter;stroke-opacity:1" d="M 890.618,315.932 904.669,311.717 z" id="boundary" inkscape:connector-curvature="0" />
	<path style="fill:none;stroke:red;stroke-width:1px;stroke-linecap:butt;stroke-linejoin:miter;stroke-opacity:1" d="M 890.618,315.932 877.972,308.907 z" id="boundary" inkscape:connector-curvature="0" />
	<path style="fill:none;stroke:red;stroke-width:1px;stroke-linecap:butt;stroke-linejoin:miter;stroke-opacity:1" d="M 904.669,311.717 918.72,308.907 z" id="boundary" inkscape:connector-curvature="0" />
	<path style="fill:none;stroke:red;stroke-width:1px;stroke-linecap:butt;stroke-linejoin:miter;stroke-opacity:1" d="M 932.771,308.907 918.72,308.907 z" id="boundary" inkscape:connector-curvature="0" />
	<path style="fill:none;stroke:red;stroke-width:1px;stroke-linecap:butt;stroke-linejoin:miter;stroke-opacity:1" d="M 946.822,304.691 932.771,308.907 z" id="boundary" inkscape:connector-curvature="0" />
	<path style="fill:none;stroke:red;stroke-width:1px;stroke-linecap:butt;stroke-linejoin:miter;stroke-opacity:1" d="M 946.822,338.414 934.176,345.439 z" id="boundary" inkscape:connector-curvature="0" />
	<path style="fill:none;stroke:red;stroke-width:1px;stroke-linecap:butt;stroke-linejoin:miter;stroke-opacity:1" d="M 960.873,338.414 946.822,338.414 z" id="boundary" inkscape:connector-curvature="0" />
	<path style="fill:none;stroke:red;stroke-width:1px;stroke-linecap:butt;stroke-linejoin:miter;stroke-opacity:1" d="M 973.518,331.388 960.873,338.414 z" id="boundary" inkscape:connector-curvature="0" />
	<path style="fill:none;stroke:red;stroke-width:1px;stroke-linecap:butt;stroke-linejoin:miter;stroke-opacity:1" d="M 984.759,322.958 973.518,331.388 z" id="boundary" inkscape:connector-curvature="0" />
	<path style="fill:none;stroke:red;stroke-width:1px;stroke-linecap:butt;stroke-linejoin:miter;stroke-opacity:1" d="M 494.38,408.669 483.139,398.833 z" id="boundary" inkscape:connector-curvature="0" />
	<path style="fill:none;stroke:red;stroke-width:1px;stroke-linecap:butt;stroke-linejoin:miter;stroke-opacity:1" d="M 494.38,408.669 500,422.72 z" id="boundary" inkscape:connector-curvature="0" />
	<path style="fill:none;stroke:red;stroke-width:1px;stroke-linecap:butt;stroke-linejoin:miter;stroke-opacity:1" d="M 511.241,487.354 500,498.595 z" id="boundary" inkscape:connector-curvature="0" />
	<path style="fill:none;stroke:red;stroke-width:1px;stroke-linecap:butt;stroke-linejoin:miter;stroke-opacity:1" d="M 500,422.72 509.836,433.96 z" id="boundary" inkscape:connector-curvature="0" />
	<path style="fill:none;stroke:red;stroke-width:1px;stroke-linecap:butt;stroke-linejoin:miter;stroke-opacity:1" d="M 488.759,509.836 500,498.595 z" id="boundary" inkscape:connector-curvature="0" />
	<path style="fill:none;stroke:red;stroke-width:1px;stroke-linecap:butt;stroke-linejoin:miter;stroke-opacity:1" d="M 516.861,446.606 509.836,433.96 z" id="boundary" inkscape:connector-curvature="0" />
	<path style="fill:none;stroke:red;stroke-width:1px;stroke-linecap:butt;stroke-linejoin:miter;stroke-opacity:1" d="M 488.759,509.836 474.708,516.861 z" id="boundary" inkscape:connector-curvature="0" />
	<path style="fill:none;stroke:red;stroke-width:1px;stroke-linecap:butt;stroke-linejoin:miter;stroke-opacity:1" d="M 523.887,459.252 522.482,477.518 z" id="boundary" inkscape:connector-curvature="0" />
	<path style="fill:none;stroke:red;stroke-width:1px;stroke-linecap:butt;stroke-linejoin:miter;stroke-opacity:1" d="M 522.482,477.518 511.241,487.354 z" id="boundary" inkscape:connector-curvature="0" />
	<path style="fill:none;stroke:red;stroke-width:1px;stroke-linecap:butt;stroke-linejoin:miter;stroke-opacity:1" d="M 516.861,446.606 523.887,459.252 z" id="boundary" inkscape:connector-curvature="0" />
	<path style="fill:none;stroke:red;stroke-width:1px;stroke-linecap:butt;stroke-linejoin:miter;stroke-opacity:1" d="M 574.47,478.924 564.635,490.164 z" id="boundary" inkscape:connector-curvature="0" />
	<path style="fill:none;stroke:red;stroke-width:1px;stroke-linecap:butt;stroke-linejoin:miter;stroke-opacity:1" d="M 553.394,500 543.558,511.241 z" id="boundary" inkscape:connector-curvature="0" />
	<path style="fill:none;stroke:red;stroke-width:1px;stroke-linecap:butt;stroke-linejoin:miter;stroke-opacity:1" d="M 553.394,500 564.635,490.164 z" id="boundary" inkscape:connector-curvature="0" />
	<path style="fill:none;stroke:red;stroke-width:1px;stroke-linecap:butt;stroke-linejoin:miter;stroke-opacity:1" d="M 587.116,495.785 580.091,509.836 z" id="boundary" inkscape:connector-curvature="0" />
	<path style="fill:none;stroke:red;stroke-width:1px;stroke-linecap:butt;stroke-linejoin:miter;stroke-opacity:1" d="M 483.139,398.833 473.303,387.592 z" id="boundary" inkscape:connector-curvature="0" />
	<path style="fill:none;stroke:red;stroke-width:1px;stroke-linecap:butt;stroke-linejoin:miter;stroke-opacity:1" d="M 580.091,509.836 568.85,528.102 z" id="boundary" inkscape:connector-curvature="0" />
	<path style="fill:none;stroke:red;stroke-width:1px;stroke-linecap:butt;stroke-linejoin:miter;stroke-opacity:1" d="M 525.292,535.127 512.646,542.153 z" id="boundary" inkscape:connector-curvature="0" />
	<path style="fill:none;stroke:red;stroke-width:1px;stroke-linecap:butt;stroke-linejoin:miter;stroke-opacity:1" d="M 512.646,542.153 500,549.178 z" id="boundary" inkscape:connector-curvature="0" />
	<path style="fill:none;stroke:red;stroke-width:1px;stroke-linecap:butt;stroke-linejoin:miter;stroke-opacity:1" d="M 500,549.178 485.949,549.178 z" id="boundary" inkscape:connector-curvature="0" />
	<path style="fill:none;stroke:red;stroke-width:1px;stroke-linecap:butt;stroke-linejoin:miter;stroke-opacity:1" d="M 471.898,547.773 485.949,549.178 z" id="boundary" inkscape:connector-curvature="0" />
	<path style="fill:none;stroke:red;stroke-width:1px;stroke-linecap:butt;stroke-linejoin:miter;stroke-opacity:1" d="M 530.912,551.989 537.938,564.635 z" id="boundary" inkscape:connector-curvature="0" />
	<path style="fill:none;stroke:red;stroke-width:1px;stroke-linecap:butt;stroke-linejoin:miter;stroke-opacity:1" d="M 542.153,540.748 530.912,551.989 z" id="boundary" inkscape:connector-curvature="0" />
	<path style="fill:none;stroke:red;stroke-width:1px;stroke-linecap:butt;stroke-linejoin:miter;stroke-opacity:1" d="M 532.317,521.076 543.558,511.241 z" id="boundary" inkscape:connector-curvature="0" />
	<path style="fill:none;stroke:red;stroke-width:1px;stroke-linecap:butt;stroke-linejoin:miter;stroke-opacity:1" d="M 532.317,521.076 525.292,535.127 z" id="boundary" inkscape:connector-curvature="0" />
	<path style="fill:none;stroke:red;stroke-width:1px;stroke-linecap:butt;stroke-linejoin:miter;stroke-opacity:1" d="M 554.799,533.722 568.85,528.102 z" id="boundary" inkscape:connector-curvature="0" />
	<path style="fill:none;stroke:red;stroke-width:1px;stroke-linecap:butt;stroke-linejoin:miter;stroke-opacity:1" d="M 554.799,533.722 542.153,540.748 z" id="boundary" inkscape:connector-curvature="0" />
	<path style="fill:none;stroke:red;stroke-width:1px;stroke-linecap:butt;stroke-linejoin:miter;stroke-opacity:1" d="M 551.989,570.255 537.938,564.635 z" id="boundary" inkscape:connector-curvature="0" />
	<path style="fill:none;stroke:red;stroke-width:1px;stroke-linecap:butt;stroke-linejoin:miter;stroke-opacity:1" d="M 566.04,570.255 551.989,570.255 z" id="boundary" inkscape:connector-curvature="0" />
	<path style="fill:none;stroke:red;stroke-width:1px;stroke-linecap:butt;stroke-linejoin:miter;stroke-opacity:1" d="M 580.091,570.255 566.04,570.255 z" id="boundary" inkscape:connector-curvature="0" />
	<path style="fill:none;stroke:red;stroke-width:1px;stroke-linecap:butt;stroke-linejoin:miter;stroke-opacity:1" d="M 796.476,345.439 810.527,345.439 z" id="boundary" inkscape:connector-curvature="0" />
	<path style="fill:none;stroke:red;stroke-width:1px;stroke-linecap:butt;stroke-linejoin:miter;stroke-opacity:1" d="M 810.527,345.439 823.173,352.465 z" id="boundary" inkscape:connector-curvature="0" />
	<path style="fill:none;stroke:red;stroke-width:1px;stroke-linecap:butt;stroke-linejoin:miter;stroke-opacity:1" d="M 644.725,373.541 644.725,387.592 z" id="boundary" inkscape:connector-curvature="0" />
	<path style="fill:none;stroke:red;stroke-width:1px;stroke-linecap:butt;stroke-linejoin:miter;stroke-opacity:1" d="M 644.725,373.541 644.725,359.49 z" id="boundary" inkscape:connector-curvature="0" />
	<path style="fill:none;stroke:red;stroke-width:1px;stroke-linecap:butt;stroke-linejoin:miter;stroke-opacity:1" d="M 588.521,478.924 574.47,478.924 z" id="boundary" inkscape:connector-curvature="0" />
	<path style="fill:none;stroke:red;stroke-width:1px;stroke-linecap:butt;stroke-linejoin:miter;stroke-opacity:1" d="M 644.725,401.643 644.725,387.592 z" id="boundary" inkscape:connector-curvature="0" />
	<path style="fill:none;stroke:red;stroke-width:1px;stroke-linecap:butt;stroke-linejoin:miter;stroke-opacity:1" d="M 823.173,352.465 837.224,352.465 z" id="boundary" inkscape:connector-curvature="0" />
	<path style="fill:none;stroke:red;stroke-width:1px;stroke-linecap:butt;stroke-linejoin:miter;stroke-opacity:1" d="M 851.275,352.465 837.224,352.465 z" id="boundary" inkscape:connector-curvature="0" />
	<path style="fill:none;stroke:red;stroke-width:1px;stroke-linecap:butt;stroke-linejoin:miter;stroke-opacity:1" d="M 934.176,345.439 920.125,345.439 z" id="boundary" inkscape:connector-curvature="0" />
	<path style="fill:none;stroke:red;stroke-width:1px;stroke-linecap:butt;stroke-linejoin:miter;stroke-opacity:1" d="M 865.326,352.465 851.275,352.465 z" id="boundary" inkscape:connector-curvature="0" />
	<path style="fill:none;stroke:red;stroke-width:1px;stroke-linecap:butt;stroke-linejoin:miter;stroke-opacity:1" d="M 907.479,352.465 920.125,345.439 z" id="boundary" inkscape:connector-curvature="0" />
	<path style="fill:none;stroke:red;stroke-width:1px;stroke-linecap:butt;stroke-linejoin:miter;stroke-opacity:1" d="M 879.377,352.465 865.326,352.465 z" id="boundary" inkscape:connector-curvature="0" />
	<path style="fill:none;stroke:red;stroke-width:1px;stroke-linecap:butt;stroke-linejoin:miter;stroke-opacity:1" d="M 879.377,352.465 893.428,352.465 z" id="boundary" inkscape:connector-curvature="0" />
	<path style="fill:none;stroke:red;stroke-width:1px;stroke-linecap:butt;stroke-linejoin:miter;stroke-opacity:1" d="M 907.479,352.465 893.428,352.465 z" id="boundary" inkscape:connector-curvature="0" />
	<path style="fill:none;stroke:red;stroke-width:1px;stroke-linecap:butt;stroke-linejoin:miter;stroke-opacity:1" d="M 630.674,514.051 623.649,528.102 z" id="boundary" inkscape:connector-curvature="0" />
	<path style="fill:none;stroke:red;stroke-width:1px;stroke-linecap:butt;stroke-linejoin:miter;stroke-opacity:1" d="M 587.116,495.785 588.521,478.924 z" id="boundary" inkscape:connector-curvature="0" />
	<path style="fill:none;stroke:red;stroke-width:1px;stroke-linecap:butt;stroke-linejoin:miter;stroke-opacity:1" d="M 623.649,528.102 612.408,540.748 z" id="boundary" inkscape:connector-curvature="0" />
	<path style="fill:none;stroke:red;stroke-width:1px;stroke-linecap:butt;stroke-linejoin:miter;stroke-opacity:1" d="M 594.142,566.04 580.091,570.255 z" id="boundary" inkscape:connector-curvature="0" />
	<path style="fill:none;stroke:red;stroke-width:1px;stroke-linecap:butt;stroke-linejoin:miter;stroke-opacity:1" d="M 605.382,554.799 612.408,540.748 z" id="boundary" inkscape:connector-curvature="0" />
	<path style="fill:none;stroke:red;stroke-width:1px;stroke-linecap:butt;stroke-linejoin:miter;stroke-opacity:1" d="M 605.382,554.799 594.142,566.04 z" id="boundary" inkscape:connector-curvature="0" />
	<path style="fill:none;stroke:red;stroke-width:1px;stroke-linecap:butt;stroke-linejoin:miter;stroke-opacity:1" d="M 647.535,415.694 658.776,425.53 z" id="boundary" inkscape:connector-curvature="0" />
	<path style="fill:none;stroke:red;stroke-width:1px;stroke-linecap:butt;stroke-linejoin:miter;stroke-opacity:1" d="M 658.776,425.53 664.397,439.581 z" id="boundary" inkscape:connector-curvature="0" />
	<path style="fill:none;stroke:red;stroke-width:1px;stroke-linecap:butt;stroke-linejoin:miter;stroke-opacity:1" d="M 647.535,415.694 644.725,401.643 z" id="boundary" inkscape:connector-curvature="0" />
	<path style="fill:none;stroke:red;stroke-width:1px;stroke-linecap:butt;stroke-linejoin:miter;stroke-opacity:1" d="M 665.802,453.632 664.397,439.581 z" id="boundary" inkscape:connector-curvature="0" />
	<path style="fill:none;stroke:red;stroke-width:1px;stroke-linecap:butt;stroke-linejoin:miter;stroke-opacity:1" d="M 665.802,453.632 658.776,471.898 z" id="boundary" inkscape:connector-curvature="0" />
	<path style="fill:none;stroke:red;stroke-width:1px;stroke-linecap:butt;stroke-linejoin:miter;stroke-opacity:1" d="M 630.674,514.051 637.7,500 z" id="boundary" inkscape:connector-curvature="0" />
	<path style="fill:none;stroke:red;stroke-width:1px;stroke-linecap:butt;stroke-linejoin:miter;stroke-opacity:1" d="M 637.7,500 648.941,490.164 z" id="boundary" inkscape:connector-curvature="0" />
	<path style="fill:none;stroke:red;stroke-width:1px;stroke-linecap:butt;stroke-linejoin:miter;stroke-opacity:1" d="M 648.941,490.164 658.776,471.898 z" id="boundary" inkscape:connector-curvature="0" />
	<circle cx="4" cy="102.357" r="4" fill="#0" id="circle0"/>
	<circle cx="4" cy="116.408" r="4" fill="#0" id="circle1"/>
	<circle cx="4" cy="130.459" r="4" fill="#0" id="circle2"/>
	<circle cx="11.0255" cy="143.105" r="4" fill="#0" id="circle3"/>
	<circle cx="15.2408" cy="91.1161" r="4" fill="#0" id="circle4"/>
	<circle cx="18.051" cy="155.751" r="4" fill="#0" id="circle5"/>
	<circle cx="25.0765" cy="67.2295" r="4" fill="#0" id="circle6"/>
	<circle cx="30.6969" cy="162.776" r="4" fill="#0" id="circle7"/>
	<circle cx="36.3173" cy="55.9887" r="4" fill="#0" id="circle8"/>
	<circle cx="43.3428" cy="169.802" r="4" fill="#0" id="circle9"/>
	<circle cx="47.5581" cy="44.7479" r="4" fill="#0" id="circle10"/>
	<circle cx="55.9887" cy="176.827" r="4" fill="#0" id="circle11"/>
	<circle cx="61.6091" cy="37.7224" r="4" fill="#0" id="circle12"/>
	<circle cx="67.2295" cy="185.258" r="4" fill="#0" id="circle13"/>
	<circle cx="72.8499" cy="27.8867" r="4" fill="#0" id="circle14"/>
	<circle cx="74.255" cy="4" r="4" fill="#0" id="circle15"/>
	<circle cx="74.255" cy="197.904" r="4" fill="#0" id="circle16"/>
	<circle cx="81.2805" cy="210.55" r="4" fill="#0" id="circle17"/>
	<circle cx="81.2805" cy="224.601" r="4" fill="#0" id="circle18"/>
	<circle cx="88.3059" cy="9.6204" r="4" fill="#0" id="circle19"/>
	<circle cx="88.3059" cy="237.246" r="4" fill="#0" id="circle20"/>
	<circle cx="89.711" cy="251.297" r="4" fill="#0" id="circle21"/>
	<circle cx="95.3314" cy="265.348" r="4" fill="#0" id="circle22"/>
	<circle cx="96.7365" cy="279.399" r="4" fill="#0" id="circle23"/>
	<circle cx="100.952" cy="16.6459" r="4" fill="#0" id="circle24"/>
	<circle cx="102.357" cy="530.912" r="4" fill="#0" id="circle25"/>
	<circle cx="103.762" cy="292.045" r="4" fill="#0" id="circle26"/>
	<circle cx="109.382" cy="306.096" r="4" fill="#0" id="circle27"/>
	<circle cx="109.382" cy="543.558" r="4" fill="#0" id="circle28"/>
	<circle cx="110.788" cy="27.8867" r="4" fill="#0" id="circle29"/>
	<circle cx="113.598" cy="519.671" r="4" fill="#0" id="circle30"/>
	<circle cx="120.623" cy="315.932" r="4" fill="#0" id="circle31"/>
	<circle cx="123.433" cy="549.178" r="4" fill="#0" id="circle32"/>
	<circle cx="124.839" cy="32.102" r="4" fill="#0" id="circle33"/>
	<circle cx="126.244" cy="329.983" r="4" fill="#0" id="circle34"/>
	<circle cx="126.244" cy="512.646" r="4" fill="#0" id="circle35"/>
	<circle cx="130.459" cy="344.034" r="4" fill="#0" id="circle36"/>
	<circle cx="130.459" cy="495.785" r="4" fill="#0" id="circle37"/>
	<circle cx="136.079" cy="556.204" r="4" fill="#0" id="circle38"/>
	<circle cx="137.484" cy="39.1275" r="4" fill="#0" id="circle39"/>
	<circle cx="137.484" cy="356.68" r="4" fill="#0" id="circle40"/>
	<circle cx="137.484" cy="439.581" r="4" fill="#0" id="circle41"/>
	<circle cx="137.484" cy="453.632" r="4" fill="#0" id="circle42"/>
	<circle cx="137.484" cy="474.708" r="4" fill="#0" id="circle43"/>
	<circle cx="138.89" cy="370.731" r="4" fill="#0" id="circle44"/>
	<circle cx="144.51" cy="384.782" r="4" fill="#0" id="circle45"/>
	<circle cx="144.51" cy="398.833" r="4" fill="#0" id="circle46"/>
	<circle cx="144.51" cy="412.884" r="4" fill="#0" id="circle47"/>
	<circle cx="144.51" cy="426.935" r="4" fill="#0" id="circle48"/>
	<circle cx="148.725" cy="48.9632" r="4" fill="#0" id="circle49"/>
	<circle cx="148.725" cy="547.773" r="4" fill="#0" id="circle50"/>
	<circle cx="158.561" cy="60.204" r="4" fill="#0" id="circle51"/>
	<circle cx="159.966" cy="535.127" r="4" fill="#0" id="circle52"/>
	<circle cx="165.586" cy="559.014" r="4" fill="#0" id="circle53"/>
	<circle cx="169.802" cy="70.0397" r="4" fill="#0" id="circle54"/>
	<circle cx="171.207" cy="525.292" r="4" fill="#0" id="circle55"/>
	<circle cx="174.017" cy="500" r="4" fill="#0" id="circle56"/>
	<circle cx="174.017" cy="570.255" r="4" fill="#0" id="circle57"/>
	<circle cx="176.827" cy="547.773" r="4" fill="#0" id="circle58"/>
	<circle cx="179.637" cy="81.2805" r="4" fill="#0" id="circle59"/>
	<circle cx="181.042" cy="478.924" r="4" fill="#0" id="circle60"/>
	<circle cx="186.663" cy="530.912" r="4" fill="#0" id="circle61"/>
	<circle cx="188.068" cy="570.255" r="4" fill="#0" id="circle62"/>
	<circle cx="190.878" cy="91.1161" r="4" fill="#0" id="circle63"/>
	<circle cx="193.688" cy="502.81" r="4" fill="#0" id="circle64"/>
	<circle cx="193.688" cy="516.861" r="4" fill="#0" id="circle65"/>
	<circle cx="195.093" cy="105.167" r="4" fill="#0" id="circle66"/>
	<circle cx="195.093" cy="481.734" r="4" fill="#0" id="circle67"/>
	<circle cx="202.119" cy="570.255" r="4" fill="#0" id="circle68"/>
	<circle cx="206.334" cy="113.598" r="4" fill="#0" id="circle69"/>
	<circle cx="216.17" cy="124.839" r="4" fill="#0" id="circle70"/>
	<circle cx="216.17" cy="563.229" r="4" fill="#0" id="circle71"/>
	<circle cx="223.195" cy="542.153" r="4" fill="#0" id="circle72"/>
	<circle cx="230.221" cy="126.244" r="4" fill="#0" id="circle73"/>
	<circle cx="234.436" cy="532.317" r="4" fill="#0" id="circle74"/>
	<circle cx="237.246" cy="500" r="4" fill="#0" id="circle75"/>
	<circle cx="237.246" cy="514.051" r="4" fill="#0" id="circle76"/>
	<circle cx="242.867" cy="133.269" r="4" fill="#0" id="circle77"/>
	<circle cx="244.272" cy="485.949" r="4" fill="#0" id="circle78"/>
	<circle cx="251.297" cy="394.618" r="4" fill="#0" id="circle79"/>
	<circle cx="251.297" cy="408.669" r="4" fill="#0" id="circle80"/>
	<circle cx="251.297" cy="457.847" r="4" fill="#0" id="circle81"/>
	<circle cx="251.297" cy="471.898" r="4" fill="#0" id="circle82"/>
	<circle cx="254.108" cy="422.72" r="4" fill="#0" id="circle83"/>
	<circle cx="256.918" cy="133.269" r="4" fill="#0" id="circle84"/>
	<circle cx="258.323" cy="380.567" r="4" fill="#0" id="circle85"/>
	<circle cx="258.323" cy="436.771" r="4" fill="#0" id="circle86"/>
	<circle cx="269.564" cy="370.731" r="4" fill="#0" id="circle87"/>
	<circle cx="270.969" cy="133.269" r="4" fill="#0" id="circle88"/>
	<circle cx="283.615" cy="363.705" r="4" fill="#0" id="circle89"/>
	<circle cx="285.02" cy="136.079" r="4" fill="#0" id="circle90"/>
	<circle cx="297.666" cy="359.49" r="4" fill="#0" id="circle91"/>
	<circle cx="299.071" cy="140.295" r="4" fill="#0" id="circle92"/>
	<circle cx="311.717" cy="133.269" r="4" fill="#0" id="circle93"/>
	<circle cx="311.717" cy="359.49" r="4" fill="#0" id="circle94"/>
	<circle cx="325.768" cy="133.269" r="4" fill="#0" id="circle95"/>
	<circle cx="325.768" cy="359.49" r="4" fill="#0" id="circle96"/>
	<circle cx="339.819" cy="133.269" r="4" fill="#0" id="circle97"/>
	<circle cx="339.819" cy="359.49" r="4" fill="#0" id="circle98"/>
	<circle cx="353.87" cy="133.269" r="4" fill="#0" id="circle99"/>
	<circle cx="353.87" cy="359.49" r="4" fill="#0" id="circle100"/>
	<circle cx="367.921" cy="133.269" r="4" fill="#0" id="circle101"/>
	<circle cx="367.921" cy="356.68" r="4" fill="#0" id="circle102"/>
	<circle cx="381.972" cy="133.269" r="4" fill="#0" id="circle103"/>
	<circle cx="381.972" cy="352.465" r="4" fill="#0" id="circle104"/>
	<circle cx="394.618" cy="359.49" r="4" fill="#0" id="circle105"/>
	<circle cx="396.023" cy="133.269" r="4" fill="#0" id="circle106"/>
	<circle cx="408.669" cy="140.295" r="4" fill="#0" id="circle107"/>
	<circle cx="408.669" cy="359.49" r="4" fill="#0" id="circle108"/>
	<circle cx="421.314" cy="366.516" r="4" fill="#0" id="circle109"/>
	<circle cx="422.72" cy="140.295" r="4" fill="#0" id="circle110"/>
	<circle cx="435.365" cy="133.269" r="4" fill="#0" id="circle111"/>
	<circle cx="435.365" cy="366.516" r="4" fill="#0" id="circle112"/>
	<circle cx="449.416" cy="133.269" r="4" fill="#0" id="circle113"/>
	<circle cx="449.416" cy="370.731" r="4" fill="#0" id="circle114"/>
	<circle cx="460.657" cy="523.887" r="4" fill="#0" id="circle115"/>
	<circle cx="460.657" cy="537.938" r="4" fill="#0" id="circle116"/>
	<circle cx="462.062" cy="377.756" r="4" fill="#0" id="circle117"/>
	<circle cx="463.467" cy="133.269" r="4" fill="#0" id="circle118"/>
	<circle cx="471.898" cy="547.773" r="4" fill="#0" id="circle119"/>
	<circle cx="473.303" cy="387.592" r="4" fill="#0" id="circle120"/>
	<circle cx="474.708" cy="516.861" r="4" fill="#0" id="circle121"/>
	<circle cx="477.518" cy="133.269" r="4" fill="#0" id="circle122"/>
	<circle cx="483.139" cy="398.833" r="4" fill="#0" id="circle123"/>
	<circle cx="485.949" cy="549.178" r="4" fill="#0" id="circle124"/>
	<circle cx="488.759" cy="509.836" r="4" fill="#0" id="circle125"/>
	<circle cx="491.569" cy="133.269" r="4" fill="#0" id="circle126"/>
	<circle cx="494.38" cy="408.669" r="4" fill="#0" id="circle127"/>
	<circle cx="500" cy="422.72" r="4" fill="#0" id="circle128"/>
	<circle cx="500" cy="498.595" r="4" fill="#0" id="circle129"/>
	<circle cx="500" cy="549.178" r="4" fill="#0" id="circle130"/>
	<circle cx="505.62" cy="133.269" r="4" fill="#0" id="circle131"/>
	<circle cx="509.836" cy="433.96" r="4" fill="#0" id="circle132"/>
	<circle cx="511.241" cy="487.354" r="4" fill="#0" id="circle133"/>
	<circle cx="512.646" cy="542.153" r="4" fill="#0" id="circle134"/>
	<circle cx="516.861" cy="446.606" r="4" fill="#0" id="circle135"/>
	<circle cx="518.266" cy="140.295" r="4" fill="#0" id="circle136"/>
	<circle cx="522.482" cy="477.518" r="4" fill="#0" id="circle137"/>
	<circle cx="523.887" cy="459.252" r="4" fill="#0" id="circle138"/>
	<circle cx="525.292" cy="535.127" r="4" fill="#0" id="circle139"/>
	<circle cx="530.912" cy="551.989" r="4" fill="#0" id="circle140"/>
	<circle cx="532.317" cy="140.295" r="4" fill="#0" id="circle141"/>
	<circle cx="532.317" cy="521.076" r="4" fill="#0" id="circle142"/>
	<circle cx="537.938" cy="564.635" r="4" fill="#0" id="circle143"/>
	<circle cx="542.153" cy="540.748" r="4" fill="#0" id="circle144"/>
	<circle cx="543.558" cy="511.241" r="4" fill="#0" id="circle145"/>
	<circle cx="546.368" cy="140.295" r="4" fill="#0" id="circle146"/>
	<circle cx="551.989" cy="570.255" r="4" fill="#0" id="circle147"/>
	<circle cx="553.394" cy="500" r="4" fill="#0" id="circle148"/>
	<circle cx="554.799" cy="533.722" r="4" fill="#0" id="circle149"/>
	<circle cx="560.419" cy="140.295" r="4" fill="#0" id="circle150"/>
	<circle cx="564.635" cy="490.164" r="4" fill="#0" id="circle151"/>
	<circle cx="566.04" cy="570.255" r="4" fill="#0" id="circle152"/>
	<circle cx="568.85" cy="528.102" r="4" fill="#0" id="circle153"/>
	<circle cx="573.065" cy="147.32" r="4" fill="#0" id="circle154"/>
	<circle cx="574.47" cy="478.924" r="4" fill="#0" id="circle155"/>
	<circle cx="580.091" cy="509.836" r="4" fill="#0" id="circle156"/>
	<circle cx="580.091" cy="570.255" r="4" fill="#0" id="circle157"/>
	<circle cx="587.116" cy="150.13" r="4" fill="#0" id="circle158"/>
	<circle cx="587.116" cy="495.785" r="4" fill="#0" id="circle159"/>
	<circle cx="588.521" cy="478.924" r="4" fill="#0" id="circle160"/>
	<circle cx="594.142" cy="566.04" r="4" fill="#0" id="circle161"/>
	<circle cx="599.762" cy="157.156" r="4" fill="#0" id="circle162"/>
	<circle cx="605.382" cy="554.799" r="4" fill="#0" id="circle163"/>
	<circle cx="612.408" cy="540.748" r="4" fill="#0" id="circle164"/>
	<circle cx="613.813" cy="161.371" r="4" fill="#0" id="circle165"/>
	<circle cx="623.649" cy="528.102" r="4" fill="#0" id="circle166"/>
	<circle cx="626.459" cy="168.397" r="4" fill="#0" id="circle167"/>
	<circle cx="630.674" cy="514.051" r="4" fill="#0" id="circle168"/>
	<circle cx="636.295" cy="179.637" r="4" fill="#0" id="circle169"/>
	<circle cx="637.7" cy="500" r="4" fill="#0" id="circle170"/>
	<circle cx="644.725" cy="331.388" r="4" fill="#0" id="circle171"/>
	<circle cx="644.725" cy="345.439" r="4" fill="#0" id="circle172"/>
	<circle cx="644.725" cy="359.49" r="4" fill="#0" id="circle173"/>
	<circle cx="644.725" cy="373.541" r="4" fill="#0" id="circle174"/>
	<circle cx="644.725" cy="387.592" r="4" fill="#0" id="circle175"/>
	<circle cx="644.725" cy="401.643" r="4" fill="#0" id="circle176"/>
	<circle cx="647.535" cy="415.694" r="4" fill="#0" id="circle177"/>
	<circle cx="648.941" cy="490.164" r="4" fill="#0" id="circle178"/>
	<circle cx="650.346" cy="185.258" r="4" fill="#0" id="circle179"/>
	<circle cx="651.751" cy="296.261" r="4" fill="#0" id="circle180"/>
	<circle cx="651.751" cy="310.312" r="4" fill="#0" id="circle181"/>
	<circle cx="655.966" cy="199.309" r="4" fill="#0" id="circle182"/>
	<circle cx="658.776" cy="425.53" r="4" fill="#0" id="circle183"/>
	<circle cx="658.776" cy="471.898" r="4" fill="#0" id="circle184"/>
	<circle cx="664.397" cy="289.235" r="4" fill="#0" id="circle185"/>
	<circle cx="664.397" cy="439.581" r="4" fill="#0" id="circle186"/>
	<circle cx="665.802" cy="210.55" r="4" fill="#0" id="circle187"/>
	<circle cx="665.802" cy="453.632" r="4" fill="#0" id="circle188"/>
	<circle cx="677.042" cy="296.261" r="4" fill="#0" id="circle189"/>
	<circle cx="678.448" cy="217.575" r="4" fill="#0" id="circle190"/>
	<circle cx="686.878" cy="228.816" r="4" fill="#0" id="circle191"/>
	<circle cx="689.688" cy="303.286" r="4" fill="#0" id="circle192"/>
	<circle cx="699.524" cy="235.841" r="4" fill="#0" id="circle193"/>
	<circle cx="703.739" cy="308.907" r="4" fill="#0" id="circle194"/>
	<circle cx="710.765" cy="245.677" r="4" fill="#0" id="circle195"/>
	<circle cx="716.385" cy="315.932" r="4" fill="#0" id="circle196"/>
	<circle cx="723.411" cy="252.703" r="4" fill="#0" id="circle197"/>
	<circle cx="730.436" cy="321.552" r="4" fill="#0" id="circle198"/>
	<circle cx="734.652" cy="262.538" r="4" fill="#0" id="circle199"/>
	<circle cx="744.487" cy="324.363" r="4" fill="#0" id="circle200"/>
	<circle cx="747.297" cy="269.564" r="4" fill="#0" id="circle201"/>
	<circle cx="757.133" cy="280.805" r="4" fill="#0" id="circle202"/>
	<circle cx="757.133" cy="331.388" r="4" fill="#0" id="circle203"/>
	<circle cx="769.779" cy="338.414" r="4" fill="#0" id="circle204"/>
	<circle cx="771.184" cy="280.805" r="4" fill="#0" id="circle205"/>
	<circle cx="783.83" cy="287.83" r="4" fill="#0" id="circle206"/>
	<circle cx="783.83" cy="338.414" r="4" fill="#0" id="circle207"/>
	<circle cx="796.476" cy="294.856" r="4" fill="#0" id="circle208"/>
	<circle cx="796.476" cy="345.439" r="4" fill="#0" id="circle209"/>
	<circle cx="809.122" cy="301.881" r="4" fill="#0" id="circle210"/>
	<circle cx="810.527" cy="345.439" r="4" fill="#0" id="circle211"/>
	<circle cx="823.173" cy="301.881" r="4" fill="#0" id="circle212"/>
	<circle cx="823.173" cy="352.465" r="4" fill="#0" id="circle213"/>
	<circle cx="837.224" cy="301.881" r="4" fill="#0" id="circle214"/>
	<circle cx="837.224" cy="352.465" r="4" fill="#0" id="circle215"/>
	<circle cx="851.275" cy="301.881" r="4" fill="#0" id="circle216"/>
	<circle cx="851.275" cy="352.465" r="4" fill="#0" id="circle217"/>
	<circle cx="863.921" cy="308.907" r="4" fill="#0" id="circle218"/>
	<circle cx="865.326" cy="352.465" r="4" fill="#0" id="circle219"/>
	<circle cx="877.972" cy="308.907" r="4" fill="#0" id="circle220"/>
	<circle cx="879.377" cy="352.465" r="4" fill="#0" id="circle221"/>
	<circle cx="890.618" cy="315.932" r="4" fill="#0" id="circle222"/>
	<circle cx="893.428" cy="352.465" r="4" fill="#0" id="circle223"/>
	<circle cx="904.669" cy="311.717" r="4" fill="#0" id="circle224"/>
	<circle cx="907.479" cy="352.465" r="4" fill="#0" id="circle225"/>
	<circle cx="918.72" cy="308.907" r="4" fill="#0" id="circle226"/>
	<circle cx="920.125" cy="345.439" r="4" fill="#0" id="circle227"/>
	<circle cx="932.771" cy="308.907" r="4" fill="#0" id="circle228"/>
	<circle cx="934.176" cy="345.439" r="4" fill="#0" id="circle229"/>
	<circle cx="946.822" cy="304.691" r="4" fill="#0" id="circle230"/>
	<circle cx="946.822" cy="338.414" r="4" fill="#0" id="circle231"/>
	<circle cx="960.873" cy="301.881" r="4" fill="#0" id="circle232"/>
	<circle cx="960.873" cy="338.414" r="4" fill="#0" id="circle233"/>
	<circle cx="973.518" cy="331.388" r="4" fill="#0" id="circle234"/>
	<circle cx="974.924" cy="297.666" r="4" fill="#0" id="circle235"/>
	<circle cx="984.759" cy="322.958" r="4" fill="#0" id="circle236"/>
	<circle cx="988.975" cy="294.856" r="4" fill="#0" id="circle237"/>
	<circle cx="996" cy="307.501" r="4" fill="#0" id="circle238"/>
	</g>
</svg>