<?xml version="1.0" encoding="UTF-8" standalone="no"?>
<!-- Created with CurveBenchmark -->
<svg
	xmlns:dc="http://purl.org/dc/elements/1.1/"
	xmlns:cc="http://creativecommons.org/ns#"
	xmlns:rdf="http://www.w3.org/1999/02/22-rdf-syntax-ns#"
	xmlns:svg="http://www.w3.org/2000/svg"
	xmlns="http://www.w3.org/2000/svg"
	xmlns:sodipodi="http://sodipodi.sourceforge.net/DTD/sodipodi-0.dtd"
	xmlns:inkscape="http://www.inkscape.org/namespaces/inkscape"
	width="1000"
	height="1000"
	id="svg2"
	version="1.1"
	sodipodi:docname="manifold/ccrust-car-15.png.txt">
<defs
	id="defs4" />
<metadata
	id="metadata7">
	<rdf:RDF>
		<cc:Work
			rdf:about="">
			<dc:format>image/svg+xml</dc:format>
			<dc:type
				rdf:resource="http://purl.org/dc/dcmitype/StillImage" />
			<dc:title></dc:title>
		</cc:Work>
	</rdf:RDF>
</metadata>
<g
	inkscape:label="Layer 1"
	inkscape:groupmode="layer"
	id="layer1">
	<path style="fill:none;stroke:red;stroke-width:1px;stroke-linecap:butt;stroke-linejoin:miter;stroke-opacity:1" d="M 128.379,165.794 118.267,165.794 z" id="boundary" inkscape:connector-curvature="0" />
	<path style="fill:none;stroke:red;stroke-width:1px;stroke-linecap:butt;stroke-linejoin:miter;stroke-opacity:1" d="M 158.716,160.738 148.603,160.738 z" id="boundary" inkscape:connector-curvature="0" />
	<path style="fill:none;stroke:red;stroke-width:1px;stroke-linecap:butt;stroke-linejoin:miter;stroke-opacity:1" d="M 158.716,160.738 168.828,160.738 z" id="boundary" inkscape:connector-curvature="0" />
	<path style="fill:none;stroke:red;stroke-width:1px;stroke-linecap:butt;stroke-linejoin:miter;stroke-opacity:1" d="M 178.94,160.738 168.828,160.738 z" id="boundary" inkscape:connector-curvature="0" />
	<path style="fill:none;stroke:red;stroke-width:1px;stroke-linecap:butt;stroke-linejoin:miter;stroke-opacity:1" d="M 138.491,165.794 148.603,160.738 z" id="boundary" inkscape:connector-curvature="0" />
	<path style="fill:none;stroke:red;stroke-width:1px;stroke-linecap:butt;stroke-linejoin:miter;stroke-opacity:1" d="M 178.94,160.738 189.052,160.738 z" id="boundary" inkscape:connector-curvature="0" />
	<path style="fill:none;stroke:red;stroke-width:1px;stroke-linecap:butt;stroke-linejoin:miter;stroke-opacity:1" d="M 209.276,160.738 199.164,160.738 z" id="boundary" inkscape:connector-curvature="0" />
	<path style="fill:none;stroke:red;stroke-width:1px;stroke-linecap:butt;stroke-linejoin:miter;stroke-opacity:1" d="M 199.164,160.738 189.052,160.738 z" id="boundary" inkscape:connector-curvature="0" />
	<path style="fill:none;stroke:red;stroke-width:1px;stroke-linecap:butt;stroke-linejoin:miter;stroke-opacity:1" d="M 256.803,138.491 256.803,148.603 z" id="boundary" inkscape:connector-curvature="0" />
	<path style="fill:none;stroke:red;stroke-width:1px;stroke-linecap:butt;stroke-linejoin:miter;stroke-opacity:1" d="M 256.803,138.491 264.893,130.402 z" id="boundary" inkscape:connector-curvature="0" />
	<path style="fill:none;stroke:red;stroke-width:1px;stroke-linecap:butt;stroke-linejoin:miter;stroke-opacity:1" d="M 273.994,125.346 264.893,130.402 z" id="boundary" inkscape:connector-curvature="0" />
	<path style="fill:none;stroke:red;stroke-width:1px;stroke-linecap:butt;stroke-linejoin:miter;stroke-opacity:1" d="M 219.388,160.738 209.276,160.738 z" id="boundary" inkscape:connector-curvature="0" />
	<path style="fill:none;stroke:red;stroke-width:1px;stroke-linecap:butt;stroke-linejoin:miter;stroke-opacity:1" d="M 249.725,160.738 256.803,148.603 z" id="boundary" inkscape:connector-curvature="0" />
	<path style="fill:none;stroke:red;stroke-width:1px;stroke-linecap:butt;stroke-linejoin:miter;stroke-opacity:1" d="M 229.501,160.738 219.388,160.738 z" id="boundary" inkscape:connector-curvature="0" />
	<path style="fill:none;stroke:red;stroke-width:1px;stroke-linecap:butt;stroke-linejoin:miter;stroke-opacity:1" d="M 249.725,160.738 239.613,160.738 z" id="boundary" inkscape:connector-curvature="0" />
	<path style="fill:none;stroke:red;stroke-width:1px;stroke-linecap:butt;stroke-linejoin:miter;stroke-opacity:1" d="M 239.613,160.738 229.501,160.738 z" id="boundary" inkscape:connector-curvature="0" />
	<path style="fill:none;stroke:red;stroke-width:1px;stroke-linecap:butt;stroke-linejoin:miter;stroke-opacity:1" d="M 273.994,125.346 283.095,130.402 z" id="boundary" inkscape:connector-curvature="0" />
	<path style="fill:none;stroke:red;stroke-width:1px;stroke-linecap:butt;stroke-linejoin:miter;stroke-opacity:1" d="M 19.1682,229.501 24.2243,214.332 z" id="boundary" inkscape:connector-curvature="0" />
	<path style="fill:none;stroke:red;stroke-width:1px;stroke-linecap:butt;stroke-linejoin:miter;stroke-opacity:1" d="M 24.2243,214.332 32.314,206.243 z" id="boundary" inkscape:connector-curvature="0" />
	<path style="fill:none;stroke:red;stroke-width:1px;stroke-linecap:butt;stroke-linejoin:miter;stroke-opacity:1" d="M 19.1682,229.501 14.1121,239.613 z" id="boundary" inkscape:connector-curvature="0" />
	<path style="fill:none;stroke:red;stroke-width:1px;stroke-linecap:butt;stroke-linejoin:miter;stroke-opacity:1" d="M 32.314,206.243 42.4261,201.187 z" id="boundary" inkscape:connector-curvature="0" />
	<path style="fill:none;stroke:red;stroke-width:1px;stroke-linecap:butt;stroke-linejoin:miter;stroke-opacity:1" d="M 51.527,196.13 42.4261,201.187 z" id="boundary" inkscape:connector-curvature="0" />
	<path style="fill:none;stroke:red;stroke-width:1px;stroke-linecap:butt;stroke-linejoin:miter;stroke-opacity:1" d="M 9.05607,249.725 9.05607,259.837 z" id="boundary" inkscape:connector-curvature="0" />
	<path style="fill:none;stroke:red;stroke-width:1px;stroke-linecap:butt;stroke-linejoin:miter;stroke-opacity:1" d="M 9.05607,249.725 14.1121,239.613 z" id="boundary" inkscape:connector-curvature="0" />
	<path style="fill:none;stroke:red;stroke-width:1px;stroke-linecap:butt;stroke-linejoin:miter;stroke-opacity:1" d="M 9.05607,269.949 9.05607,259.837 z" id="boundary" inkscape:connector-curvature="0" />
	<path style="fill:none;stroke:red;stroke-width:1px;stroke-linecap:butt;stroke-linejoin:miter;stroke-opacity:1" d="M 9.05607,269.949 4,285.117 z" id="boundary" inkscape:connector-curvature="0" />
	<path style="fill:none;stroke:red;stroke-width:1px;stroke-linecap:butt;stroke-linejoin:miter;stroke-opacity:1" d="M 98.0428,170.85 108.155,170.85 z" id="boundary" inkscape:connector-curvature="0" />
	<path style="fill:none;stroke:red;stroke-width:1px;stroke-linecap:butt;stroke-linejoin:miter;stroke-opacity:1" d="M 87.9307,175.906 98.0428,170.85 z" id="boundary" inkscape:connector-curvature="0" />
	<path style="fill:none;stroke:red;stroke-width:1px;stroke-linecap:butt;stroke-linejoin:miter;stroke-opacity:1" d="M 118.267,165.794 108.155,170.85 z" id="boundary" inkscape:connector-curvature="0" />
	<path style="fill:none;stroke:red;stroke-width:1px;stroke-linecap:butt;stroke-linejoin:miter;stroke-opacity:1" d="M 128.379,165.794 138.491,165.794 z" id="boundary" inkscape:connector-curvature="0" />
	<path style="fill:none;stroke:red;stroke-width:1px;stroke-linecap:butt;stroke-linejoin:miter;stroke-opacity:1" d="M 51.527,196.13 60.6279,191.074 z" id="boundary" inkscape:connector-curvature="0" />
	<path style="fill:none;stroke:red;stroke-width:1px;stroke-linecap:butt;stroke-linejoin:miter;stroke-opacity:1" d="M 69.7288,186.018 78.8298,180.962 z" id="boundary" inkscape:connector-curvature="0" />
	<path style="fill:none;stroke:red;stroke-width:1px;stroke-linecap:butt;stroke-linejoin:miter;stroke-opacity:1" d="M 87.9307,175.906 78.8298,180.962 z" id="boundary" inkscape:connector-curvature="0" />
	<path style="fill:none;stroke:red;stroke-width:1px;stroke-linecap:butt;stroke-linejoin:miter;stroke-opacity:1" d="M 69.7288,186.018 60.6279,191.074 z" id="boundary" inkscape:connector-curvature="0" />
	<path style="fill:none;stroke:red;stroke-width:1px;stroke-linecap:butt;stroke-linejoin:miter;stroke-opacity:1" d="M 443.878,22.2018 443.878,32.314 z" id="boundary" inkscape:connector-curvature="0" />
	<path style="fill:none;stroke:red;stroke-width:1px;stroke-linecap:butt;stroke-linejoin:miter;stroke-opacity:1" d="M 443.878,42.4261 443.878,52.5382 z" id="boundary" inkscape:connector-curvature="0" />
	<path style="fill:none;stroke:red;stroke-width:1px;stroke-linecap:butt;stroke-linejoin:miter;stroke-opacity:1" d="M 443.878,42.4261 443.878,32.314 z" id="boundary" inkscape:connector-curvature="0" />
	<path style="fill:none;stroke:red;stroke-width:1px;stroke-linecap:butt;stroke-linejoin:miter;stroke-opacity:1" d="M 355.902,105.121 366.014,105.121 z" id="boundary" inkscape:connector-curvature="0" />
	<path style="fill:none;stroke:red;stroke-width:1px;stroke-linecap:butt;stroke-linejoin:miter;stroke-opacity:1" d="M 346.801,110.177 355.902,105.121 z" id="boundary" inkscape:connector-curvature="0" />
	<path style="fill:none;stroke:red;stroke-width:1px;stroke-linecap:butt;stroke-linejoin:miter;stroke-opacity:1" d="M 376.126,105.121 386.239,105.121 z" id="boundary" inkscape:connector-curvature="0" />
	<path style="fill:none;stroke:red;stroke-width:1px;stroke-linecap:butt;stroke-linejoin:miter;stroke-opacity:1" d="M 376.126,105.121 366.014,105.121 z" id="boundary" inkscape:connector-curvature="0" />
	<path style="fill:none;stroke:red;stroke-width:1px;stroke-linecap:butt;stroke-linejoin:miter;stroke-opacity:1" d="M 396.351,105.121 386.239,105.121 z" id="boundary" inkscape:connector-curvature="0" />
	<path style="fill:none;stroke:red;stroke-width:1px;stroke-linecap:butt;stroke-linejoin:miter;stroke-opacity:1" d="M 448.934,12.0897 443.878,22.2018 z" id="boundary" inkscape:connector-curvature="0" />
	<path style="fill:none;stroke:red;stroke-width:1px;stroke-linecap:butt;stroke-linejoin:miter;stroke-opacity:1" d="M 459.046,7.03364 469.158,4 z" id="boundary" inkscape:connector-curvature="0" />
	<path style="fill:none;stroke:red;stroke-width:1px;stroke-linecap:butt;stroke-linejoin:miter;stroke-opacity:1" d="M 448.934,12.0897 459.046,7.03364 z" id="boundary" inkscape:connector-curvature="0" />
	<path style="fill:none;stroke:red;stroke-width:1px;stroke-linecap:butt;stroke-linejoin:miter;stroke-opacity:1" d="M 443.878,62.6504 443.878,52.5382 z" id="boundary" inkscape:connector-curvature="0" />
	<path style="fill:none;stroke:red;stroke-width:1px;stroke-linecap:butt;stroke-linejoin:miter;stroke-opacity:1" d="M 443.878,72.7625 443.878,62.6504 z" id="boundary" inkscape:connector-curvature="0" />
	<path style="fill:none;stroke:red;stroke-width:1px;stroke-linecap:butt;stroke-linejoin:miter;stroke-opacity:1" d="M 443.878,82.8746 443.878,72.7625 z" id="boundary" inkscape:connector-curvature="0" />
	<path style="fill:none;stroke:red;stroke-width:1px;stroke-linecap:butt;stroke-linejoin:miter;stroke-opacity:1" d="M 443.878,82.8746 443.878,92.9867 z" id="boundary" inkscape:connector-curvature="0" />
	<path style="fill:none;stroke:red;stroke-width:1px;stroke-linecap:butt;stroke-linejoin:miter;stroke-opacity:1" d="M 443.878,103.099 443.878,92.9867 z" id="boundary" inkscape:connector-curvature="0" />
	<path style="fill:none;stroke:red;stroke-width:1px;stroke-linecap:butt;stroke-linejoin:miter;stroke-opacity:1" d="M 443.878,113.211 443.878,103.099 z" id="boundary" inkscape:connector-curvature="0" />
	<path style="fill:none;stroke:red;stroke-width:1px;stroke-linecap:butt;stroke-linejoin:miter;stroke-opacity:1" d="M 283.095,130.402 293.207,133.435 z" id="boundary" inkscape:connector-curvature="0" />
	<path style="fill:none;stroke:red;stroke-width:1px;stroke-linecap:butt;stroke-linejoin:miter;stroke-opacity:1" d="M 293.207,133.435 298.263,142.536 z" id="boundary" inkscape:connector-curvature="0" />
	<path style="fill:none;stroke:red;stroke-width:1px;stroke-linecap:butt;stroke-linejoin:miter;stroke-opacity:1" d="M 338.712,117.256 330.622,125.346 z" id="boundary" inkscape:connector-curvature="0" />
	<path style="fill:none;stroke:red;stroke-width:1px;stroke-linecap:butt;stroke-linejoin:miter;stroke-opacity:1" d="M 330.622,125.346 322.532,133.435 z" id="boundary" inkscape:connector-curvature="0" />
	<path style="fill:none;stroke:red;stroke-width:1px;stroke-linecap:butt;stroke-linejoin:miter;stroke-opacity:1" d="M 298.263,142.536 304.33,150.626 z" id="boundary" inkscape:connector-curvature="0" />
	<path style="fill:none;stroke:red;stroke-width:1px;stroke-linecap:butt;stroke-linejoin:miter;stroke-opacity:1" d="M 314.442,146.581 304.33,150.626 z" id="boundary" inkscape:connector-curvature="0" />
	<path style="fill:none;stroke:red;stroke-width:1px;stroke-linecap:butt;stroke-linejoin:miter;stroke-opacity:1" d="M 314.442,146.581 322.532,133.435 z" id="boundary" inkscape:connector-curvature="0" />
	<path style="fill:none;stroke:red;stroke-width:1px;stroke-linecap:butt;stroke-linejoin:miter;stroke-opacity:1" d="M 403.429,113.211 409.496,121.301 z" id="boundary" inkscape:connector-curvature="0" />
	<path style="fill:none;stroke:red;stroke-width:1px;stroke-linecap:butt;stroke-linejoin:miter;stroke-opacity:1" d="M 396.351,105.121 403.429,113.211 z" id="boundary" inkscape:connector-curvature="0" />
	<path style="fill:none;stroke:red;stroke-width:1px;stroke-linecap:butt;stroke-linejoin:miter;stroke-opacity:1" d="M 409.496,121.301 414.552,130.402 z" id="boundary" inkscape:connector-curvature="0" />
	<path style="fill:none;stroke:red;stroke-width:1px;stroke-linecap:butt;stroke-linejoin:miter;stroke-opacity:1" d="M 424.665,130.402 414.552,130.402 z" id="boundary" inkscape:connector-curvature="0" />
	<path style="fill:none;stroke:red;stroke-width:1px;stroke-linecap:butt;stroke-linejoin:miter;stroke-opacity:1" d="M 434.777,130.402 424.665,130.402 z" id="boundary" inkscape:connector-curvature="0" />
	<path style="fill:none;stroke:red;stroke-width:1px;stroke-linecap:butt;stroke-linejoin:miter;stroke-opacity:1" d="M 443.878,123.323 434.777,130.402 z" id="boundary" inkscape:connector-curvature="0" />
	<path style="fill:none;stroke:red;stroke-width:1px;stroke-linecap:butt;stroke-linejoin:miter;stroke-opacity:1" d="M 443.878,113.211 443.878,123.323 z" id="boundary" inkscape:connector-curvature="0" />
	<path style="fill:none;stroke:red;stroke-width:1px;stroke-linecap:butt;stroke-linejoin:miter;stroke-opacity:1" d="M 338.712,117.256 346.801,110.177 z" id="boundary" inkscape:connector-curvature="0" />
	<path style="fill:none;stroke:red;stroke-width:1px;stroke-linecap:butt;stroke-linejoin:miter;stroke-opacity:1" d="M 4,285.117 12.0897,292.196 z" id="boundary" inkscape:connector-curvature="0" />
	<path style="fill:none;stroke:red;stroke-width:1px;stroke-linecap:butt;stroke-linejoin:miter;stroke-opacity:1" d="M 12.0897,292.196 20.1794,298.263 z" id="boundary" inkscape:connector-curvature="0" />
	<path style="fill:none;stroke:red;stroke-width:1px;stroke-linecap:butt;stroke-linejoin:miter;stroke-opacity:1" d="M 29.2803,316.465 26.2467,306.353 z" id="boundary" inkscape:connector-curvature="0" />
	<path style="fill:none;stroke:red;stroke-width:1px;stroke-linecap:butt;stroke-linejoin:miter;stroke-opacity:1" d="M 20.1794,298.263 26.2467,306.353 z" id="boundary" inkscape:connector-curvature="0" />
	<path style="fill:none;stroke:red;stroke-width:1px;stroke-linecap:butt;stroke-linejoin:miter;stroke-opacity:1" d="M 29.2803,316.465 29.2803,326.577 z" id="boundary" inkscape:connector-curvature="0" />
	<path style="fill:none;stroke:red;stroke-width:1px;stroke-linecap:butt;stroke-linejoin:miter;stroke-opacity:1" d="M 29.2803,336.689 29.2803,326.577 z" id="boundary" inkscape:connector-curvature="0" />
	<path style="fill:none;stroke:red;stroke-width:1px;stroke-linecap:butt;stroke-linejoin:miter;stroke-opacity:1" d="M 29.2803,336.689 29.2803,346.801 z" id="boundary" inkscape:connector-curvature="0" />
	<path style="fill:none;stroke:red;stroke-width:1px;stroke-linecap:butt;stroke-linejoin:miter;stroke-opacity:1" d="M 29.2803,356.913 29.2803,346.801 z" id="boundary" inkscape:connector-curvature="0" />
	<path style="fill:none;stroke:red;stroke-width:1px;stroke-linecap:butt;stroke-linejoin:miter;stroke-opacity:1" d="M 29.2803,356.913 29.2803,367.025 z" id="boundary" inkscape:connector-curvature="0" />
	<path style="fill:none;stroke:red;stroke-width:1px;stroke-linecap:butt;stroke-linejoin:miter;stroke-opacity:1" d="M 29.2803,377.138 29.2803,367.025 z" id="boundary" inkscape:connector-curvature="0" />
	<path style="fill:none;stroke:red;stroke-width:1px;stroke-linecap:butt;stroke-linejoin:miter;stroke-opacity:1" d="M 29.2803,377.138 29.2803,387.25 z" id="boundary" inkscape:connector-curvature="0" />
	<path style="fill:none;stroke:red;stroke-width:1px;stroke-linecap:butt;stroke-linejoin:miter;stroke-opacity:1" d="M 29.2803,397.362 29.2803,387.25 z" id="boundary" inkscape:connector-curvature="0" />
	<path style="fill:none;stroke:red;stroke-width:1px;stroke-linecap:butt;stroke-linejoin:miter;stroke-opacity:1" d="M 29.2803,397.362 29.2803,407.474 z" id="boundary" inkscape:connector-curvature="0" />
	<path style="fill:none;stroke:red;stroke-width:1px;stroke-linecap:butt;stroke-linejoin:miter;stroke-opacity:1" d="M 30.2915,417.586 29.2803,407.474 z" id="boundary" inkscape:connector-curvature="0" />
	<path style="fill:none;stroke:red;stroke-width:1px;stroke-linecap:butt;stroke-linejoin:miter;stroke-opacity:1" d="M 44.4485,431.743 35.3476,426.687 z" id="boundary" inkscape:connector-curvature="0" />
	<path style="fill:none;stroke:red;stroke-width:1px;stroke-linecap:butt;stroke-linejoin:miter;stroke-opacity:1" d="M 35.3476,426.687 30.2915,417.586 z" id="boundary" inkscape:connector-curvature="0" />
	<path style="fill:none;stroke:red;stroke-width:1px;stroke-linecap:butt;stroke-linejoin:miter;stroke-opacity:1" d="M 44.4485,431.743 44.4485,441.855 z" id="boundary" inkscape:connector-curvature="0" />
	<path style="fill:none;stroke:red;stroke-width:1px;stroke-linecap:butt;stroke-linejoin:miter;stroke-opacity:1" d="M 49.5046,450.956 59.6167,455.001 z" id="boundary" inkscape:connector-curvature="0" />
	<path style="fill:none;stroke:red;stroke-width:1px;stroke-linecap:butt;stroke-linejoin:miter;stroke-opacity:1" d="M 59.6167,455.001 68.7176,460.057 z" id="boundary" inkscape:connector-curvature="0" />
	<path style="fill:none;stroke:red;stroke-width:1px;stroke-linecap:butt;stroke-linejoin:miter;stroke-opacity:1" d="M 49.5046,450.956 44.4485,441.855 z" id="boundary" inkscape:connector-curvature="0" />
	<path style="fill:none;stroke:red;stroke-width:1px;stroke-linecap:butt;stroke-linejoin:miter;stroke-opacity:1" d="M 68.7176,460.057 77.8186,465.113 z" id="boundary" inkscape:connector-curvature="0" />
	<path style="fill:none;stroke:red;stroke-width:1px;stroke-linecap:butt;stroke-linejoin:miter;stroke-opacity:1" d="M 98.0428,470.169 87.9307,469.158 z" id="boundary" inkscape:connector-curvature="0" />
	<path style="fill:none;stroke:red;stroke-width:1px;stroke-linecap:butt;stroke-linejoin:miter;stroke-opacity:1" d="M 87.9307,469.158 77.8186,465.113 z" id="boundary" inkscape:connector-curvature="0" />
	<path style="fill:none;stroke:red;stroke-width:1px;stroke-linecap:butt;stroke-linejoin:miter;stroke-opacity:1" d="M 141.525,444.889 149.615,437.81 z" id="boundary" inkscape:connector-curvature="0" />
	<path style="fill:none;stroke:red;stroke-width:1px;stroke-linecap:butt;stroke-linejoin:miter;stroke-opacity:1" d="M 149.615,437.81 159.727,434.777 z" id="boundary" inkscape:connector-curvature="0" />
	<path style="fill:none;stroke:red;stroke-width:1px;stroke-linecap:butt;stroke-linejoin:miter;stroke-opacity:1" d="M 159.727,434.777 169.839,434.777 z" id="boundary" inkscape:connector-curvature="0" />
	<path style="fill:none;stroke:red;stroke-width:1px;stroke-linecap:butt;stroke-linejoin:miter;stroke-opacity:1" d="M 169.839,434.777 179.951,434.777 z" id="boundary" inkscape:connector-curvature="0" />
	<path style="fill:none;stroke:red;stroke-width:1px;stroke-linecap:butt;stroke-linejoin:miter;stroke-opacity:1" d="M 108.155,470.169 98.0428,470.169 z" id="boundary" inkscape:connector-curvature="0" />
	<path style="fill:none;stroke:red;stroke-width:1px;stroke-linecap:butt;stroke-linejoin:miter;stroke-opacity:1" d="M 117.256,465.113 108.155,470.169 z" id="boundary" inkscape:connector-curvature="0" />
	<path style="fill:none;stroke:red;stroke-width:1px;stroke-linecap:butt;stroke-linejoin:miter;stroke-opacity:1" d="M 141.525,444.889 136.469,455.001 z" id="boundary" inkscape:connector-curvature="0" />
	<path style="fill:none;stroke:red;stroke-width:1px;stroke-linecap:butt;stroke-linejoin:miter;stroke-opacity:1" d="M 136.469,455.001 126.357,460.057 z" id="boundary" inkscape:connector-curvature="0" />
	<path style="fill:none;stroke:red;stroke-width:1px;stroke-linecap:butt;stroke-linejoin:miter;stroke-opacity:1" d="M 126.357,460.057 117.256,465.113 z" id="boundary" inkscape:connector-curvature="0" />
	<path style="fill:none;stroke:red;stroke-width:1px;stroke-linecap:butt;stroke-linejoin:miter;stroke-opacity:1" d="M 179.951,434.777 190.063,432.754 z" id="boundary" inkscape:connector-curvature="0" />
	<path style="fill:none;stroke:red;stroke-width:1px;stroke-linecap:butt;stroke-linejoin:miter;stroke-opacity:1" d="M 200.175,429.721 210.287,429.721 z" id="boundary" inkscape:connector-curvature="0" />
	<path style="fill:none;stroke:red;stroke-width:1px;stroke-linecap:butt;stroke-linejoin:miter;stroke-opacity:1" d="M 190.063,432.754 200.175,429.721 z" id="boundary" inkscape:connector-curvature="0" />
	<path style="fill:none;stroke:red;stroke-width:1px;stroke-linecap:butt;stroke-linejoin:miter;stroke-opacity:1" d="M 220.4,429.721 230.512,429.721 z" id="boundary" inkscape:connector-curvature="0" />
	<path style="fill:none;stroke:red;stroke-width:1px;stroke-linecap:butt;stroke-linejoin:miter;stroke-opacity:1" d="M 220.4,429.721 210.287,429.721 z" id="boundary" inkscape:connector-curvature="0" />
	<path style="fill:none;stroke:red;stroke-width:1px;stroke-linecap:butt;stroke-linejoin:miter;stroke-opacity:1" d="M 250.736,429.721 260.848,429.721 z" id="boundary" inkscape:connector-curvature="0" />
	<path style="fill:none;stroke:red;stroke-width:1px;stroke-linecap:butt;stroke-linejoin:miter;stroke-opacity:1" d="M 240.624,429.721 230.512,429.721 z" id="boundary" inkscape:connector-curvature="0" />
	<path style="fill:none;stroke:red;stroke-width:1px;stroke-linecap:butt;stroke-linejoin:miter;stroke-opacity:1" d="M 250.736,429.721 240.624,429.721 z" id="boundary" inkscape:connector-curvature="0" />
	<path style="fill:none;stroke:red;stroke-width:1px;stroke-linecap:butt;stroke-linejoin:miter;stroke-opacity:1" d="M 260.848,429.721 270.96,429.721 z" id="boundary" inkscape:connector-curvature="0" />
	<path style="fill:none;stroke:red;stroke-width:1px;stroke-linecap:butt;stroke-linejoin:miter;stroke-opacity:1" d="M 392.306,427.698 402.418,422.642 z" id="boundary" inkscape:connector-curvature="0" />
	<path style="fill:none;stroke:red;stroke-width:1px;stroke-linecap:butt;stroke-linejoin:miter;stroke-opacity:1" d="M 407.474,412.53 413.541,420.62 z" id="boundary" inkscape:connector-curvature="0" />
	<path style="fill:none;stroke:red;stroke-width:1px;stroke-linecap:butt;stroke-linejoin:miter;stroke-opacity:1" d="M 321.521,429.721 311.409,429.721 z" id="boundary" inkscape:connector-curvature="0" />
	<path style="fill:none;stroke:red;stroke-width:1px;stroke-linecap:butt;stroke-linejoin:miter;stroke-opacity:1" d="M 413.541,420.62 418.597,429.721 z" id="boundary" inkscape:connector-curvature="0" />
	<path style="fill:none;stroke:red;stroke-width:1px;stroke-linecap:butt;stroke-linejoin:miter;stroke-opacity:1" d="M 281.072,429.721 291.185,429.721 z" id="boundary" inkscape:connector-curvature="0" />
	<path style="fill:none;stroke:red;stroke-width:1px;stroke-linecap:butt;stroke-linejoin:miter;stroke-opacity:1" d="M 281.072,429.721 270.96,429.721 z" id="boundary" inkscape:connector-curvature="0" />
	<path style="fill:none;stroke:red;stroke-width:1px;stroke-linecap:butt;stroke-linejoin:miter;stroke-opacity:1" d="M 301.297,429.721 311.409,429.721 z" id="boundary" inkscape:connector-curvature="0" />
	<path style="fill:none;stroke:red;stroke-width:1px;stroke-linecap:butt;stroke-linejoin:miter;stroke-opacity:1" d="M 291.185,429.721 301.297,429.721 z" id="boundary" inkscape:connector-curvature="0" />
	<path style="fill:none;stroke:red;stroke-width:1px;stroke-linecap:butt;stroke-linejoin:miter;stroke-opacity:1" d="M 392.306,427.698 382.194,429.721 z" id="boundary" inkscape:connector-curvature="0" />
	<path style="fill:none;stroke:red;stroke-width:1px;stroke-linecap:butt;stroke-linejoin:miter;stroke-opacity:1" d="M 441.855,474.214 450.956,479.27 z" id="boundary" inkscape:connector-curvature="0" />
	<path style="fill:none;stroke:red;stroke-width:1px;stroke-linecap:butt;stroke-linejoin:miter;stroke-opacity:1" d="M 331.633,429.721 321.521,429.721 z" id="boundary" inkscape:connector-curvature="0" />
	<path style="fill:none;stroke:red;stroke-width:1px;stroke-linecap:butt;stroke-linejoin:miter;stroke-opacity:1" d="M 331.633,429.721 341.745,429.721 z" id="boundary" inkscape:connector-curvature="0" />
	<path style="fill:none;stroke:red;stroke-width:1px;stroke-linecap:butt;stroke-linejoin:miter;stroke-opacity:1" d="M 351.857,429.721 341.745,429.721 z" id="boundary" inkscape:connector-curvature="0" />
	<path style="fill:none;stroke:red;stroke-width:1px;stroke-linecap:butt;stroke-linejoin:miter;stroke-opacity:1" d="M 351.857,429.721 361.969,429.721 z" id="boundary" inkscape:connector-curvature="0" />
	<path style="fill:none;stroke:red;stroke-width:1px;stroke-linecap:butt;stroke-linejoin:miter;stroke-opacity:1" d="M 361.969,429.721 372.082,429.721 z" id="boundary" inkscape:connector-curvature="0" />
	<path style="fill:none;stroke:red;stroke-width:1px;stroke-linecap:butt;stroke-linejoin:miter;stroke-opacity:1" d="M 382.194,429.721 372.082,429.721 z" id="boundary" inkscape:connector-curvature="0" />
	<path style="fill:none;stroke:red;stroke-width:1px;stroke-linecap:butt;stroke-linejoin:miter;stroke-opacity:1" d="M 418.597,439.833 421.631,449.945 z" id="boundary" inkscape:connector-curvature="0" />
	<path style="fill:none;stroke:red;stroke-width:1px;stroke-linecap:butt;stroke-linejoin:miter;stroke-opacity:1" d="M 418.597,439.833 418.597,429.721 z" id="boundary" inkscape:connector-curvature="0" />
	<path style="fill:none;stroke:red;stroke-width:1px;stroke-linecap:butt;stroke-linejoin:miter;stroke-opacity:1" d="M 421.631,449.945 426.687,459.046 z" id="boundary" inkscape:connector-curvature="0" />
	<path style="fill:none;stroke:red;stroke-width:1px;stroke-linecap:butt;stroke-linejoin:miter;stroke-opacity:1" d="M 433.766,467.136 426.687,459.046 z" id="boundary" inkscape:connector-curvature="0" />
	<path style="fill:none;stroke:red;stroke-width:1px;stroke-linecap:butt;stroke-linejoin:miter;stroke-opacity:1" d="M 433.766,467.136 441.855,474.214 z" id="boundary" inkscape:connector-curvature="0" />
	<path style="fill:none;stroke:red;stroke-width:1px;stroke-linecap:butt;stroke-linejoin:miter;stroke-opacity:1" d="M 450.956,479.27 461.068,483.315 z" id="boundary" inkscape:connector-curvature="0" />
	<path style="fill:none;stroke:red;stroke-width:1px;stroke-linecap:butt;stroke-linejoin:miter;stroke-opacity:1" d="M 461.068,483.315 470.169,488.371 z" id="boundary" inkscape:connector-curvature="0" />
	<path style="fill:none;stroke:red;stroke-width:1px;stroke-linecap:butt;stroke-linejoin:miter;stroke-opacity:1" d="M 480.281,490.393 470.169,488.371 z" id="boundary" inkscape:connector-curvature="0" />
	<path style="fill:none;stroke:red;stroke-width:1px;stroke-linecap:butt;stroke-linejoin:miter;stroke-opacity:1" d="M 469.158,4 479.27,4 z" id="boundary" inkscape:connector-curvature="0" />
	<path style="fill:none;stroke:red;stroke-width:1px;stroke-linecap:butt;stroke-linejoin:miter;stroke-opacity:1" d="M 489.382,4 499.494,4 z" id="boundary" inkscape:connector-curvature="0" />
	<path style="fill:none;stroke:red;stroke-width:1px;stroke-linecap:butt;stroke-linejoin:miter;stroke-opacity:1" d="M 509.607,4 519.719,4 z" id="boundary" inkscape:connector-curvature="0" />
	<path style="fill:none;stroke:red;stroke-width:1px;stroke-linecap:butt;stroke-linejoin:miter;stroke-opacity:1" d="M 499.494,4 509.607,4 z" id="boundary" inkscape:connector-curvature="0" />
	<path style="fill:none;stroke:red;stroke-width:1px;stroke-linecap:butt;stroke-linejoin:miter;stroke-opacity:1" d="M 539.943,4 550.055,6.02243 z" id="boundary" inkscape:connector-curvature="0" />
	<path style="fill:none;stroke:red;stroke-width:1px;stroke-linecap:butt;stroke-linejoin:miter;stroke-opacity:1" d="M 529.831,4 539.943,4 z" id="boundary" inkscape:connector-curvature="0" />
	<path style="fill:none;stroke:red;stroke-width:1px;stroke-linecap:butt;stroke-linejoin:miter;stroke-opacity:1" d="M 519.719,4 529.831,4 z" id="boundary" inkscape:connector-curvature="0" />
	<path style="fill:none;stroke:red;stroke-width:1px;stroke-linecap:butt;stroke-linejoin:miter;stroke-opacity:1" d="M 550.055,6.02243 560.167,9.05607 z" id="boundary" inkscape:connector-curvature="0" />
	<path style="fill:none;stroke:red;stroke-width:1px;stroke-linecap:butt;stroke-linejoin:miter;stroke-opacity:1" d="M 570.279,9.05607 560.167,9.05607 z" id="boundary" inkscape:connector-curvature="0" />
	<path style="fill:none;stroke:red;stroke-width:1px;stroke-linecap:butt;stroke-linejoin:miter;stroke-opacity:1" d="M 580.391,9.05607 590.504,11.0785 z" id="boundary" inkscape:connector-curvature="0" />
	<path style="fill:none;stroke:red;stroke-width:1px;stroke-linecap:butt;stroke-linejoin:miter;stroke-opacity:1" d="M 570.279,9.05607 580.391,9.05607 z" id="boundary" inkscape:connector-curvature="0" />
	<path style="fill:none;stroke:red;stroke-width:1px;stroke-linecap:butt;stroke-linejoin:miter;stroke-opacity:1" d="M 590.504,11.0785 600.616,14.1121 z" id="boundary" inkscape:connector-curvature="0" />
	<path style="fill:none;stroke:red;stroke-width:1px;stroke-linecap:butt;stroke-linejoin:miter;stroke-opacity:1" d="M 610.728,14.1121 600.616,14.1121 z" id="boundary" inkscape:connector-curvature="0" />
	<path style="fill:none;stroke:red;stroke-width:1px;stroke-linecap:butt;stroke-linejoin:miter;stroke-opacity:1" d="M 620.84,14.1121 630.952,14.1121 z" id="boundary" inkscape:connector-curvature="0" />
	<path style="fill:none;stroke:red;stroke-width:1px;stroke-linecap:butt;stroke-linejoin:miter;stroke-opacity:1" d="M 620.84,14.1121 610.728,14.1121 z" id="boundary" inkscape:connector-curvature="0" />
	<path style="fill:none;stroke:red;stroke-width:1px;stroke-linecap:butt;stroke-linejoin:miter;stroke-opacity:1" d="M 641.064,14.1121 630.952,14.1121 z" id="boundary" inkscape:connector-curvature="0" />
	<path style="fill:none;stroke:red;stroke-width:1px;stroke-linecap:butt;stroke-linejoin:miter;stroke-opacity:1" d="M 641.064,14.1121 651.176,14.1121 z" id="boundary" inkscape:connector-curvature="0" />
	<path style="fill:none;stroke:red;stroke-width:1px;stroke-linecap:butt;stroke-linejoin:miter;stroke-opacity:1" d="M 661.288,14.1121 671.401,14.1121 z" id="boundary" inkscape:connector-curvature="0" />
	<path style="fill:none;stroke:red;stroke-width:1px;stroke-linecap:butt;stroke-linejoin:miter;stroke-opacity:1" d="M 661.288,14.1121 651.176,14.1121 z" id="boundary" inkscape:connector-curvature="0" />
	<path style="fill:none;stroke:red;stroke-width:1px;stroke-linecap:butt;stroke-linejoin:miter;stroke-opacity:1" d="M 681.513,14.1121 691.625,14.1121 z" id="boundary" inkscape:connector-curvature="0" />
	<path style="fill:none;stroke:red;stroke-width:1px;stroke-linecap:butt;stroke-linejoin:miter;stroke-opacity:1" d="M 701.737,14.1121 711.849,14.1121 z" id="boundary" inkscape:connector-curvature="0" />
	<path style="fill:none;stroke:red;stroke-width:1px;stroke-linecap:butt;stroke-linejoin:miter;stroke-opacity:1" d="M 701.737,14.1121 691.625,14.1121 z" id="boundary" inkscape:connector-curvature="0" />
	<path style="fill:none;stroke:red;stroke-width:1px;stroke-linecap:butt;stroke-linejoin:miter;stroke-opacity:1" d="M 681.513,14.1121 671.401,14.1121 z" id="boundary" inkscape:connector-curvature="0" />
	<path style="fill:none;stroke:red;stroke-width:1px;stroke-linecap:butt;stroke-linejoin:miter;stroke-opacity:1" d="M 721.961,16.1346 731.062,21.1906 z" id="boundary" inkscape:connector-curvature="0" />
	<path style="fill:none;stroke:red;stroke-width:1px;stroke-linecap:butt;stroke-linejoin:miter;stroke-opacity:1" d="M 731.062,21.1906 738.141,29.2803 z" id="boundary" inkscape:connector-curvature="0" />
	<path style="fill:none;stroke:red;stroke-width:1px;stroke-linecap:butt;stroke-linejoin:miter;stroke-opacity:1" d="M 738.141,29.2803 748.253,32.314 z" id="boundary" inkscape:connector-curvature="0" />
	<path style="fill:none;stroke:red;stroke-width:1px;stroke-linecap:butt;stroke-linejoin:miter;stroke-opacity:1" d="M 757.354,37.37 748.253,32.314 z" id="boundary" inkscape:connector-curvature="0" />
	<path style="fill:none;stroke:red;stroke-width:1px;stroke-linecap:butt;stroke-linejoin:miter;stroke-opacity:1" d="M 763.421,45.4597 757.354,37.37 z" id="boundary" inkscape:connector-curvature="0" />
	<path style="fill:none;stroke:red;stroke-width:1px;stroke-linecap:butt;stroke-linejoin:miter;stroke-opacity:1" d="M 768.477,54.5607 768.477,64.6728 z" id="boundary" inkscape:connector-curvature="0" />
	<path style="fill:none;stroke:red;stroke-width:1px;stroke-linecap:butt;stroke-linejoin:miter;stroke-opacity:1" d="M 763.421,45.4597 768.477,54.5607 z" id="boundary" inkscape:connector-curvature="0" />
	<path style="fill:none;stroke:red;stroke-width:1px;stroke-linecap:butt;stroke-linejoin:miter;stroke-opacity:1" d="M 768.477,74.7849 768.477,64.6728 z" id="boundary" inkscape:connector-curvature="0" />
	<path style="fill:none;stroke:red;stroke-width:1px;stroke-linecap:butt;stroke-linejoin:miter;stroke-opacity:1" d="M 711.849,14.1121 721.961,16.1346 z" id="boundary" inkscape:connector-curvature="0" />
	<path style="fill:none;stroke:red;stroke-width:1px;stroke-linecap:butt;stroke-linejoin:miter;stroke-opacity:1" d="M 768.477,74.7849 768.477,84.897 z" id="boundary" inkscape:connector-curvature="0" />
	<path style="fill:none;stroke:red;stroke-width:1px;stroke-linecap:butt;stroke-linejoin:miter;stroke-opacity:1" d="M 768.477,84.897 768.477,95.0092 z" id="boundary" inkscape:connector-curvature="0" />
	<path style="fill:none;stroke:red;stroke-width:1px;stroke-linecap:butt;stroke-linejoin:miter;stroke-opacity:1" d="M 768.477,105.121 768.477,115.233 z" id="boundary" inkscape:connector-curvature="0" />
	<path style="fill:none;stroke:red;stroke-width:1px;stroke-linecap:butt;stroke-linejoin:miter;stroke-opacity:1" d="M 776.567,121.301 768.477,115.233 z" id="boundary" inkscape:connector-curvature="0" />
	<path style="fill:none;stroke:red;stroke-width:1px;stroke-linecap:butt;stroke-linejoin:miter;stroke-opacity:1" d="M 768.477,105.121 768.477,95.0092 z" id="boundary" inkscape:connector-curvature="0" />
	<path style="fill:none;stroke:red;stroke-width:1px;stroke-linecap:butt;stroke-linejoin:miter;stroke-opacity:1" d="M 776.567,121.301 783.645,129.39 z" id="boundary" inkscape:connector-curvature="0" />
	<path style="fill:none;stroke:red;stroke-width:1px;stroke-linecap:butt;stroke-linejoin:miter;stroke-opacity:1" d="M 793.757,133.435 783.645,129.39 z" id="boundary" inkscape:connector-curvature="0" />
	<path style="fill:none;stroke:red;stroke-width:1px;stroke-linecap:butt;stroke-linejoin:miter;stroke-opacity:1" d="M 793.757,133.435 798.813,142.536 z" id="boundary" inkscape:connector-curvature="0" />
	<path style="fill:none;stroke:red;stroke-width:1px;stroke-linecap:butt;stroke-linejoin:miter;stroke-opacity:1" d="M 798.813,142.536 804.881,150.626 z" id="boundary" inkscape:connector-curvature="0" />
	<path style="fill:none;stroke:red;stroke-width:1px;stroke-linecap:butt;stroke-linejoin:miter;stroke-opacity:1" d="M 804.881,150.626 814.993,150.626 z" id="boundary" inkscape:connector-curvature="0" />
	<path style="fill:none;stroke:red;stroke-width:1px;stroke-linecap:butt;stroke-linejoin:miter;stroke-opacity:1" d="M 814.993,150.626 824.094,155.682 z" id="boundary" inkscape:connector-curvature="0" />
	<path style="fill:none;stroke:red;stroke-width:1px;stroke-linecap:butt;stroke-linejoin:miter;stroke-opacity:1" d="M 824.094,155.682 834.206,155.682 z" id="boundary" inkscape:connector-curvature="0" />
	<path style="fill:none;stroke:red;stroke-width:1px;stroke-linecap:butt;stroke-linejoin:miter;stroke-opacity:1" d="M 844.318,155.682 854.43,155.682 z" id="boundary" inkscape:connector-curvature="0" />
	<path style="fill:none;stroke:red;stroke-width:1px;stroke-linecap:butt;stroke-linejoin:miter;stroke-opacity:1" d="M 844.318,155.682 834.206,155.682 z" id="boundary" inkscape:connector-curvature="0" />
	<path style="fill:none;stroke:red;stroke-width:1px;stroke-linecap:butt;stroke-linejoin:miter;stroke-opacity:1" d="M 864.542,155.682 874.654,155.682 z" id="boundary" inkscape:connector-curvature="0" />
	<path style="fill:none;stroke:red;stroke-width:1px;stroke-linecap:butt;stroke-linejoin:miter;stroke-opacity:1" d="M 854.43,155.682 864.542,155.682 z" id="boundary" inkscape:connector-curvature="0" />
	<path style="fill:none;stroke:red;stroke-width:1px;stroke-linecap:butt;stroke-linejoin:miter;stroke-opacity:1" d="M 884.767,155.682 894.879,155.682 z" id="boundary" inkscape:connector-curvature="0" />
	<path style="fill:none;stroke:red;stroke-width:1px;stroke-linecap:butt;stroke-linejoin:miter;stroke-opacity:1" d="M 884.767,155.682 874.654,155.682 z" id="boundary" inkscape:connector-curvature="0" />
	<path style="fill:none;stroke:red;stroke-width:1px;stroke-linecap:butt;stroke-linejoin:miter;stroke-opacity:1" d="M 904.991,155.682 915.103,155.682 z" id="boundary" inkscape:connector-curvature="0" />
	<path style="fill:none;stroke:red;stroke-width:1px;stroke-linecap:butt;stroke-linejoin:miter;stroke-opacity:1" d="M 904.991,155.682 894.879,155.682 z" id="boundary" inkscape:connector-curvature="0" />
	<path style="fill:none;stroke:red;stroke-width:1px;stroke-linecap:butt;stroke-linejoin:miter;stroke-opacity:1" d="M 925.215,155.682 935.327,155.682 z" id="boundary" inkscape:connector-curvature="0" />
	<path style="fill:none;stroke:red;stroke-width:1px;stroke-linecap:butt;stroke-linejoin:miter;stroke-opacity:1" d="M 925.215,155.682 915.103,155.682 z" id="boundary" inkscape:connector-curvature="0" />
	<path style="fill:none;stroke:red;stroke-width:1px;stroke-linecap:butt;stroke-linejoin:miter;stroke-opacity:1" d="M 945.439,155.682 955.551,155.682 z" id="boundary" inkscape:connector-curvature="0" />
	<path style="fill:none;stroke:red;stroke-width:1px;stroke-linecap:butt;stroke-linejoin:miter;stroke-opacity:1" d="M 945.439,155.682 935.327,155.682 z" id="boundary" inkscape:connector-curvature="0" />
	<path style="fill:none;stroke:red;stroke-width:1px;stroke-linecap:butt;stroke-linejoin:miter;stroke-opacity:1" d="M 965.664,155.682 975.776,155.682 z" id="boundary" inkscape:connector-curvature="0" />
	<path style="fill:none;stroke:red;stroke-width:1px;stroke-linecap:butt;stroke-linejoin:miter;stroke-opacity:1" d="M 975.776,155.682 983.865,161.749 z" id="boundary" inkscape:connector-curvature="0" />
	<path style="fill:none;stroke:red;stroke-width:1px;stroke-linecap:butt;stroke-linejoin:miter;stroke-opacity:1" d="M 965.664,155.682 955.551,155.682 z" id="boundary" inkscape:connector-curvature="0" />
	<path style="fill:none;stroke:red;stroke-width:1px;stroke-linecap:butt;stroke-linejoin:miter;stroke-opacity:1" d="M 983.865,161.749 990.944,169.839 z" id="boundary" inkscape:connector-curvature="0" />
	<path style="fill:none;stroke:red;stroke-width:1px;stroke-linecap:butt;stroke-linejoin:miter;stroke-opacity:1" d="M 990.944,169.839 990.944,179.951 z" id="boundary" inkscape:connector-curvature="0" />
	<path style="fill:none;stroke:red;stroke-width:1px;stroke-linecap:butt;stroke-linejoin:miter;stroke-opacity:1" d="M 996,189.052 996,199.164 z" id="boundary" inkscape:connector-curvature="0" />
	<path style="fill:none;stroke:red;stroke-width:1px;stroke-linecap:butt;stroke-linejoin:miter;stroke-opacity:1" d="M 990.944,179.951 996,189.052 z" id="boundary" inkscape:connector-curvature="0" />
	<path style="fill:none;stroke:red;stroke-width:1px;stroke-linecap:butt;stroke-linejoin:miter;stroke-opacity:1" d="M 996,199.164 996,209.276 z" id="boundary" inkscape:connector-curvature="0" />
	<path style="fill:none;stroke:red;stroke-width:1px;stroke-linecap:butt;stroke-linejoin:miter;stroke-opacity:1" d="M 996,209.276 992.966,226.467 z" id="boundary" inkscape:connector-curvature="0" />
	<path style="fill:none;stroke:red;stroke-width:1px;stroke-linecap:butt;stroke-linejoin:miter;stroke-opacity:1" d="M 584.436,429.721 594.548,429.721 z" id="boundary" inkscape:connector-curvature="0" />
	<path style="fill:none;stroke:red;stroke-width:1px;stroke-linecap:butt;stroke-linejoin:miter;stroke-opacity:1" d="M 604.661,429.721 594.548,429.721 z" id="boundary" inkscape:connector-curvature="0" />
	<path style="fill:none;stroke:red;stroke-width:1px;stroke-linecap:butt;stroke-linejoin:miter;stroke-opacity:1" d="M 604.661,429.721 614.773,429.721 z" id="boundary" inkscape:connector-curvature="0" />
	<path style="fill:none;stroke:red;stroke-width:1px;stroke-linecap:butt;stroke-linejoin:miter;stroke-opacity:1" d="M 624.885,429.721 614.773,429.721 z" id="boundary" inkscape:connector-curvature="0" />
	<path style="fill:none;stroke:red;stroke-width:1px;stroke-linecap:butt;stroke-linejoin:miter;stroke-opacity:1" d="M 624.885,429.721 634.997,429.721 z" id="boundary" inkscape:connector-curvature="0" />
	<path style="fill:none;stroke:red;stroke-width:1px;stroke-linecap:butt;stroke-linejoin:miter;stroke-opacity:1" d="M 645.109,429.721 634.997,429.721 z" id="boundary" inkscape:connector-curvature="0" />
	<path style="fill:none;stroke:red;stroke-width:1px;stroke-linecap:butt;stroke-linejoin:miter;stroke-opacity:1" d="M 645.109,429.721 655.221,429.721 z" id="boundary" inkscape:connector-curvature="0" />
	<path style="fill:none;stroke:red;stroke-width:1px;stroke-linecap:butt;stroke-linejoin:miter;stroke-opacity:1" d="M 665.333,429.721 655.221,429.721 z" id="boundary" inkscape:connector-curvature="0" />
	<path style="fill:none;stroke:red;stroke-width:1px;stroke-linecap:butt;stroke-linejoin:miter;stroke-opacity:1" d="M 754.32,419.609 764.432,419.609 z" id="boundary" inkscape:connector-curvature="0" />
	<path style="fill:none;stroke:red;stroke-width:1px;stroke-linecap:butt;stroke-linejoin:miter;stroke-opacity:1" d="M 745.219,424.665 754.32,419.609 z" id="boundary" inkscape:connector-curvature="0" />
	<path style="fill:none;stroke:red;stroke-width:1px;stroke-linecap:butt;stroke-linejoin:miter;stroke-opacity:1" d="M 764.432,419.609 774.544,419.609 z" id="boundary" inkscape:connector-curvature="0" />
	<path style="fill:none;stroke:red;stroke-width:1px;stroke-linecap:butt;stroke-linejoin:miter;stroke-opacity:1" d="M 784.656,419.609 774.544,419.609 z" id="boundary" inkscape:connector-curvature="0" />
	<path style="fill:none;stroke:red;stroke-width:1px;stroke-linecap:butt;stroke-linejoin:miter;stroke-opacity:1" d="M 665.333,429.721 675.445,429.721 z" id="boundary" inkscape:connector-curvature="0" />
	<path style="fill:none;stroke:red;stroke-width:1px;stroke-linecap:butt;stroke-linejoin:miter;stroke-opacity:1" d="M 745.219,424.665 735.107,424.665 z" id="boundary" inkscape:connector-curvature="0" />
	<path style="fill:none;stroke:red;stroke-width:1px;stroke-linecap:butt;stroke-linejoin:miter;stroke-opacity:1" d="M 685.558,429.721 675.445,429.721 z" id="boundary" inkscape:connector-curvature="0" />
	<path style="fill:none;stroke:red;stroke-width:1px;stroke-linecap:butt;stroke-linejoin:miter;stroke-opacity:1" d="M 726.006,429.721 735.107,424.665 z" id="boundary" inkscape:connector-curvature="0" />
	<path style="fill:none;stroke:red;stroke-width:1px;stroke-linecap:butt;stroke-linejoin:miter;stroke-opacity:1" d="M 480.281,490.393 490.393,490.393 z" id="boundary" inkscape:connector-curvature="0" />
	<path style="fill:none;stroke:red;stroke-width:1px;stroke-linecap:butt;stroke-linejoin:miter;stroke-opacity:1" d="M 490.393,490.393 500.506,492.416 z" id="boundary" inkscape:connector-curvature="0" />
	<path style="fill:none;stroke:red;stroke-width:1px;stroke-linecap:butt;stroke-linejoin:miter;stroke-opacity:1" d="M 540.954,485.337 549.044,478.259 z" id="boundary" inkscape:connector-curvature="0" />
	<path style="fill:none;stroke:red;stroke-width:1px;stroke-linecap:butt;stroke-linejoin:miter;stroke-opacity:1" d="M 556.122,465.113 549.044,478.259 z" id="boundary" inkscape:connector-curvature="0" />
	<path style="fill:none;stroke:red;stroke-width:1px;stroke-linecap:butt;stroke-linejoin:miter;stroke-opacity:1" d="M 500.506,492.416 510.618,495.45 z" id="boundary" inkscape:connector-curvature="0" />
	<path style="fill:none;stroke:red;stroke-width:1px;stroke-linecap:butt;stroke-linejoin:miter;stroke-opacity:1" d="M 520.73,495.45 530.842,490.393 z" id="boundary" inkscape:connector-curvature="0" />
	<path style="fill:none;stroke:red;stroke-width:1px;stroke-linecap:butt;stroke-linejoin:miter;stroke-opacity:1" d="M 520.73,495.45 510.618,495.45 z" id="boundary" inkscape:connector-curvature="0" />
	<path style="fill:none;stroke:red;stroke-width:1px;stroke-linecap:butt;stroke-linejoin:miter;stroke-opacity:1" d="M 540.954,485.337 530.842,490.393 z" id="boundary" inkscape:connector-curvature="0" />
	<path style="fill:none;stroke:red;stroke-width:1px;stroke-linecap:butt;stroke-linejoin:miter;stroke-opacity:1" d="M 685.558,429.721 695.67,429.721 z" id="boundary" inkscape:connector-curvature="0" />
	<path style="fill:none;stroke:red;stroke-width:1px;stroke-linecap:butt;stroke-linejoin:miter;stroke-opacity:1" d="M 705.782,429.721 715.894,429.721 z" id="boundary" inkscape:connector-curvature="0" />
	<path style="fill:none;stroke:red;stroke-width:1px;stroke-linecap:butt;stroke-linejoin:miter;stroke-opacity:1" d="M 705.782,429.721 695.67,429.721 z" id="boundary" inkscape:connector-curvature="0" />
	<path style="fill:none;stroke:red;stroke-width:1px;stroke-linecap:butt;stroke-linejoin:miter;stroke-opacity:1" d="M 556.122,465.113 561.178,455.001 z" id="boundary" inkscape:connector-curvature="0" />
	<path style="fill:none;stroke:red;stroke-width:1px;stroke-linecap:butt;stroke-linejoin:miter;stroke-opacity:1" d="M 561.178,455.001 566.234,439.833 z" id="boundary" inkscape:connector-curvature="0" />
	<path style="fill:none;stroke:red;stroke-width:1px;stroke-linecap:butt;stroke-linejoin:miter;stroke-opacity:1" d="M 566.234,439.833 574.324,432.754 z" id="boundary" inkscape:connector-curvature="0" />
	<path style="fill:none;stroke:red;stroke-width:1px;stroke-linecap:butt;stroke-linejoin:miter;stroke-opacity:1" d="M 574.324,432.754 584.436,429.721 z" id="boundary" inkscape:connector-curvature="0" />
	<path style="fill:none;stroke:red;stroke-width:1px;stroke-linecap:butt;stroke-linejoin:miter;stroke-opacity:1" d="M 726.006,429.721 715.894,429.721 z" id="boundary" inkscape:connector-curvature="0" />
	<path style="fill:none;stroke:red;stroke-width:1px;stroke-linecap:butt;stroke-linejoin:miter;stroke-opacity:1" d="M 902.968,333.655 912.069,328.599 z" id="boundary" inkscape:connector-curvature="0" />
	<path style="fill:none;stroke:red;stroke-width:1px;stroke-linecap:butt;stroke-linejoin:miter;stroke-opacity:1" d="M 921.17,323.543 912.069,328.599 z" id="boundary" inkscape:connector-curvature="0" />
	<path style="fill:none;stroke:red;stroke-width:1px;stroke-linecap:butt;stroke-linejoin:miter;stroke-opacity:1" d="M 940.383,313.431 930.271,318.487 z" id="boundary" inkscape:connector-curvature="0" />
	<path style="fill:none;stroke:red;stroke-width:1px;stroke-linecap:butt;stroke-linejoin:miter;stroke-opacity:1" d="M 930.271,318.487 921.17,323.543 z" id="boundary" inkscape:connector-curvature="0" />
	<path style="fill:none;stroke:red;stroke-width:1px;stroke-linecap:butt;stroke-linejoin:miter;stroke-opacity:1" d="M 884.767,343.768 884.767,353.88 z" id="boundary" inkscape:connector-curvature="0" />
	<path style="fill:none;stroke:red;stroke-width:1px;stroke-linecap:butt;stroke-linejoin:miter;stroke-opacity:1" d="M 884.767,343.768 893.867,338.712 z" id="boundary" inkscape:connector-curvature="0" />
	<path style="fill:none;stroke:red;stroke-width:1px;stroke-linecap:butt;stroke-linejoin:miter;stroke-opacity:1" d="M 884.767,363.992 884.767,353.88 z" id="boundary" inkscape:connector-curvature="0" />
	<path style="fill:none;stroke:red;stroke-width:1px;stroke-linecap:butt;stroke-linejoin:miter;stroke-opacity:1" d="M 902.968,333.655 893.867,338.712 z" id="boundary" inkscape:connector-curvature="0" />
	<path style="fill:none;stroke:red;stroke-width:1px;stroke-linecap:butt;stroke-linejoin:miter;stroke-opacity:1" d="M 970.72,247.702 970.72,257.814 z" id="boundary" inkscape:connector-curvature="0" />
	<path style="fill:none;stroke:red;stroke-width:1px;stroke-linecap:butt;stroke-linejoin:miter;stroke-opacity:1" d="M 970.72,257.814 965.664,267.927 z" id="boundary" inkscape:connector-curvature="0" />
	<path style="fill:none;stroke:red;stroke-width:1px;stroke-linecap:butt;stroke-linejoin:miter;stroke-opacity:1" d="M 970.72,247.702 979.821,242.646 z" id="boundary" inkscape:connector-curvature="0" />
	<path style="fill:none;stroke:red;stroke-width:1px;stroke-linecap:butt;stroke-linejoin:miter;stroke-opacity:1" d="M 979.821,242.646 987.91,236.579 z" id="boundary" inkscape:connector-curvature="0" />
	<path style="fill:none;stroke:red;stroke-width:1px;stroke-linecap:butt;stroke-linejoin:miter;stroke-opacity:1" d="M 948.473,306.353 955.551,293.207 z" id="boundary" inkscape:connector-curvature="0" />
	<path style="fill:none;stroke:red;stroke-width:1px;stroke-linecap:butt;stroke-linejoin:miter;stroke-opacity:1" d="M 948.473,306.353 940.383,313.431 z" id="boundary" inkscape:connector-curvature="0" />
	<path style="fill:none;stroke:red;stroke-width:1px;stroke-linecap:butt;stroke-linejoin:miter;stroke-opacity:1" d="M 960.608,283.095 965.664,267.927 z" id="boundary" inkscape:connector-curvature="0" />
	<path style="fill:none;stroke:red;stroke-width:1px;stroke-linecap:butt;stroke-linejoin:miter;stroke-opacity:1" d="M 960.608,283.095 955.551,293.207 z" id="boundary" inkscape:connector-curvature="0" />
	<path style="fill:none;stroke:red;stroke-width:1px;stroke-linecap:butt;stroke-linejoin:miter;stroke-opacity:1" d="M 794.769,419.609 784.656,419.609 z" id="boundary" inkscape:connector-curvature="0" />
	<path style="fill:none;stroke:red;stroke-width:1px;stroke-linecap:butt;stroke-linejoin:miter;stroke-opacity:1" d="M 802.858,425.676 807.914,434.777 z" id="boundary" inkscape:connector-curvature="0" />
	<path style="fill:none;stroke:red;stroke-width:1px;stroke-linecap:butt;stroke-linejoin:miter;stroke-opacity:1" d="M 860.497,439.833 851.397,444.889 z" id="boundary" inkscape:connector-curvature="0" />
	<path style="fill:none;stroke:red;stroke-width:1px;stroke-linecap:butt;stroke-linejoin:miter;stroke-opacity:1" d="M 807.914,434.777 813.982,442.866 z" id="boundary" inkscape:connector-curvature="0" />
	<path style="fill:none;stroke:red;stroke-width:1px;stroke-linecap:butt;stroke-linejoin:miter;stroke-opacity:1" d="M 794.769,419.609 802.858,425.676 z" id="boundary" inkscape:connector-curvature="0" />
	<path style="fill:none;stroke:red;stroke-width:1px;stroke-linecap:butt;stroke-linejoin:miter;stroke-opacity:1" d="M 822.071,449.945 832.183,449.945 z" id="boundary" inkscape:connector-curvature="0" />
	<path style="fill:none;stroke:red;stroke-width:1px;stroke-linecap:butt;stroke-linejoin:miter;stroke-opacity:1" d="M 822.071,449.945 813.982,442.866 z" id="boundary" inkscape:connector-curvature="0" />
	<path style="fill:none;stroke:red;stroke-width:1px;stroke-linecap:butt;stroke-linejoin:miter;stroke-opacity:1" d="M 851.397,444.889 842.296,449.945 z" id="boundary" inkscape:connector-curvature="0" />
	<path style="fill:none;stroke:red;stroke-width:1px;stroke-linecap:butt;stroke-linejoin:miter;stroke-opacity:1" d="M 842.296,449.945 832.183,449.945 z" id="boundary" inkscape:connector-curvature="0" />
	<path style="fill:none;stroke:red;stroke-width:1px;stroke-linecap:butt;stroke-linejoin:miter;stroke-opacity:1" d="M 884.767,374.104 884.767,384.216 z" id="boundary" inkscape:connector-curvature="0" />
	<path style="fill:none;stroke:red;stroke-width:1px;stroke-linecap:butt;stroke-linejoin:miter;stroke-opacity:1" d="M 884.767,374.104 884.767,363.992 z" id="boundary" inkscape:connector-curvature="0" />
	<path style="fill:none;stroke:red;stroke-width:1px;stroke-linecap:butt;stroke-linejoin:miter;stroke-opacity:1" d="M 884.767,394.328 884.767,404.44 z" id="boundary" inkscape:connector-curvature="0" />
	<path style="fill:none;stroke:red;stroke-width:1px;stroke-linecap:butt;stroke-linejoin:miter;stroke-opacity:1" d="M 884.767,394.328 884.767,384.216 z" id="boundary" inkscape:connector-curvature="0" />
	<path style="fill:none;stroke:red;stroke-width:1px;stroke-linecap:butt;stroke-linejoin:miter;stroke-opacity:1" d="M 869.598,434.777 860.497,439.833 z" id="boundary" inkscape:connector-curvature="0" />
	<path style="fill:none;stroke:red;stroke-width:1px;stroke-linecap:butt;stroke-linejoin:miter;stroke-opacity:1" d="M 882.744,417.586 877.688,427.698 z" id="boundary" inkscape:connector-curvature="0" />
	<path style="fill:none;stroke:red;stroke-width:1px;stroke-linecap:butt;stroke-linejoin:miter;stroke-opacity:1" d="M 877.688,427.698 869.598,434.777 z" id="boundary" inkscape:connector-curvature="0" />
	<path style="fill:none;stroke:red;stroke-width:1px;stroke-linecap:butt;stroke-linejoin:miter;stroke-opacity:1" d="M 884.767,404.44 882.744,417.586 z" id="boundary" inkscape:connector-curvature="0" />
	<path style="fill:none;stroke:red;stroke-width:1px;stroke-linecap:butt;stroke-linejoin:miter;stroke-opacity:1" d="M 992.966,226.467 987.91,236.579 z" id="boundary" inkscape:connector-curvature="0" />
	<path style="fill:none;stroke:red;stroke-width:1px;stroke-linecap:butt;stroke-linejoin:miter;stroke-opacity:1" d="M 479.27,4 489.382,4 z" id="boundary" inkscape:connector-curvature="0" />
	<circle cx="4" cy="285.117" r="4" fill="#0" id="circle0"/>
	<circle cx="9.05607" cy="249.725" r="4" fill="#0" id="circle1"/>
	<circle cx="9.05607" cy="259.837" r="4" fill="#0" id="circle2"/>
	<circle cx="9.05607" cy="269.949" r="4" fill="#0" id="circle3"/>
	<circle cx="12.0897" cy="292.196" r="4" fill="#0" id="circle4"/>
	<circle cx="14.1121" cy="239.613" r="4" fill="#0" id="circle5"/>
	<circle cx="19.1682" cy="229.501" r="4" fill="#0" id="circle6"/>
	<circle cx="20.1794" cy="298.263" r="4" fill="#0" id="circle7"/>
	<circle cx="24.2243" cy="214.332" r="4" fill="#0" id="circle8"/>
	<circle cx="26.2467" cy="306.353" r="4" fill="#0" id="circle9"/>
	<circle cx="29.2803" cy="316.465" r="4" fill="#0" id="circle10"/>
	<circle cx="29.2803" cy="326.577" r="4" fill="#0" id="circle11"/>
	<circle cx="29.2803" cy="336.689" r="4" fill="#0" id="circle12"/>
	<circle cx="29.2803" cy="346.801" r="4" fill="#0" id="circle13"/>
	<circle cx="29.2803" cy="356.913" r="4" fill="#0" id="circle14"/>
	<circle cx="29.2803" cy="367.025" r="4" fill="#0" id="circle15"/>
	<circle cx="29.2803" cy="377.138" r="4" fill="#0" id="circle16"/>
	<circle cx="29.2803" cy="387.25" r="4" fill="#0" id="circle17"/>
	<circle cx="29.2803" cy="397.362" r="4" fill="#0" id="circle18"/>
	<circle cx="29.2803" cy="407.474" r="4" fill="#0" id="circle19"/>
	<circle cx="30.2915" cy="417.586" r="4" fill="#0" id="circle20"/>
	<circle cx="32.314" cy="206.243" r="4" fill="#0" id="circle21"/>
	<circle cx="35.3476" cy="426.687" r="4" fill="#0" id="circle22"/>
	<circle cx="42.4261" cy="201.187" r="4" fill="#0" id="circle23"/>
	<circle cx="44.4485" cy="431.743" r="4" fill="#0" id="circle24"/>
	<circle cx="44.4485" cy="441.855" r="4" fill="#0" id="circle25"/>
	<circle cx="49.5046" cy="450.956" r="4" fill="#0" id="circle26"/>
	<circle cx="51.527" cy="196.13" r="4" fill="#0" id="circle27"/>
	<circle cx="59.6167" cy="455.001" r="4" fill="#0" id="circle28"/>
	<circle cx="60.6279" cy="191.074" r="4" fill="#0" id="circle29"/>
	<circle cx="68.7176" cy="460.057" r="4" fill="#0" id="circle30"/>
	<circle cx="69.7288" cy="186.018" r="4" fill="#0" id="circle31"/>
	<circle cx="77.8186" cy="465.113" r="4" fill="#0" id="circle32"/>
	<circle cx="78.8298" cy="180.962" r="4" fill="#0" id="circle33"/>
	<circle cx="87.9307" cy="175.906" r="4" fill="#0" id="circle34"/>
	<circle cx="87.9307" cy="469.158" r="4" fill="#0" id="circle35"/>
	<circle cx="98.0428" cy="170.85" r="4" fill="#0" id="circle36"/>
	<circle cx="98.0428" cy="470.169" r="4" fill="#0" id="circle37"/>
	<circle cx="108.155" cy="170.85" r="4" fill="#0" id="circle38"/>
	<circle cx="108.155" cy="470.169" r="4" fill="#0" id="circle39"/>
	<circle cx="117.256" cy="465.113" r="4" fill="#0" id="circle40"/>
	<circle cx="118.267" cy="165.794" r="4" fill="#0" id="circle41"/>
	<circle cx="126.357" cy="460.057" r="4" fill="#0" id="circle42"/>
	<circle cx="128.379" cy="165.794" r="4" fill="#0" id="circle43"/>
	<circle cx="136.469" cy="455.001" r="4" fill="#0" id="circle44"/>
	<circle cx="138.491" cy="165.794" r="4" fill="#0" id="circle45"/>
	<circle cx="141.525" cy="444.889" r="4" fill="#0" id="circle46"/>
	<circle cx="148.603" cy="160.738" r="4" fill="#0" id="circle47"/>
	<circle cx="149.615" cy="437.81" r="4" fill="#0" id="circle48"/>
	<circle cx="158.716" cy="160.738" r="4" fill="#0" id="circle49"/>
	<circle cx="159.727" cy="434.777" r="4" fill="#0" id="circle50"/>
	<circle cx="168.828" cy="160.738" r="4" fill="#0" id="circle51"/>
	<circle cx="169.839" cy="434.777" r="4" fill="#0" id="circle52"/>
	<circle cx="178.94" cy="160.738" r="4" fill="#0" id="circle53"/>
	<circle cx="179.951" cy="434.777" r="4" fill="#0" id="circle54"/>
	<circle cx="189.052" cy="160.738" r="4" fill="#0" id="circle55"/>
	<circle cx="190.063" cy="432.754" r="4" fill="#0" id="circle56"/>
	<circle cx="199.164" cy="160.738" r="4" fill="#0" id="circle57"/>
	<circle cx="200.175" cy="429.721" r="4" fill="#0" id="circle58"/>
	<circle cx="209.276" cy="160.738" r="4" fill="#0" id="circle59"/>
	<circle cx="210.287" cy="429.721" r="4" fill="#0" id="circle60"/>
	<circle cx="219.388" cy="160.738" r="4" fill="#0" id="circle61"/>
	<circle cx="220.4" cy="429.721" r="4" fill="#0" id="circle62"/>
	<circle cx="229.501" cy="160.738" r="4" fill="#0" id="circle63"/>
	<circle cx="230.512" cy="429.721" r="4" fill="#0" id="circle64"/>
	<circle cx="239.613" cy="160.738" r="4" fill="#0" id="circle65"/>
	<circle cx="240.624" cy="429.721" r="4" fill="#0" id="circle66"/>
	<circle cx="249.725" cy="160.738" r="4" fill="#0" id="circle67"/>
	<circle cx="250.736" cy="429.721" r="4" fill="#0" id="circle68"/>
	<circle cx="256.803" cy="138.491" r="4" fill="#0" id="circle69"/>
	<circle cx="256.803" cy="148.603" r="4" fill="#0" id="circle70"/>
	<circle cx="260.848" cy="429.721" r="4" fill="#0" id="circle71"/>
	<circle cx="264.893" cy="130.402" r="4" fill="#0" id="circle72"/>
	<circle cx="270.96" cy="429.721" r="4" fill="#0" id="circle73"/>
	<circle cx="273.994" cy="125.346" r="4" fill="#0" id="circle74"/>
	<circle cx="281.072" cy="429.721" r="4" fill="#0" id="circle75"/>
	<circle cx="283.095" cy="130.402" r="4" fill="#0" id="circle76"/>
	<circle cx="291.185" cy="429.721" r="4" fill="#0" id="circle77"/>
	<circle cx="293.207" cy="133.435" r="4" fill="#0" id="circle78"/>
	<circle cx="298.263" cy="142.536" r="4" fill="#0" id="circle79"/>
	<circle cx="301.297" cy="429.721" r="4" fill="#0" id="circle80"/>
	<circle cx="304.33" cy="150.626" r="4" fill="#0" id="circle81"/>
	<circle cx="311.409" cy="429.721" r="4" fill="#0" id="circle82"/>
	<circle cx="314.442" cy="146.581" r="4" fill="#0" id="circle83"/>
	<circle cx="321.521" cy="429.721" r="4" fill="#0" id="circle84"/>
	<circle cx="322.532" cy="133.435" r="4" fill="#0" id="circle85"/>
	<circle cx="330.622" cy="125.346" r="4" fill="#0" id="circle86"/>
	<circle cx="331.633" cy="429.721" r="4" fill="#0" id="circle87"/>
	<circle cx="338.712" cy="117.256" r="4" fill="#0" id="circle88"/>
	<circle cx="341.745" cy="429.721" r="4" fill="#0" id="circle89"/>
	<circle cx="346.801" cy="110.177" r="4" fill="#0" id="circle90"/>
	<circle cx="351.857" cy="429.721" r="4" fill="#0" id="circle91"/>
	<circle cx="355.902" cy="105.121" r="4" fill="#0" id="circle92"/>
	<circle cx="361.969" cy="429.721" r="4" fill="#0" id="circle93"/>
	<circle cx="366.014" cy="105.121" r="4" fill="#0" id="circle94"/>
	<circle cx="372.082" cy="429.721" r="4" fill="#0" id="circle95"/>
	<circle cx="376.126" cy="105.121" r="4" fill="#0" id="circle96"/>
	<circle cx="382.194" cy="429.721" r="4" fill="#0" id="circle97"/>
	<circle cx="386.239" cy="105.121" r="4" fill="#0" id="circle98"/>
	<circle cx="392.306" cy="427.698" r="4" fill="#0" id="circle99"/>
	<circle cx="396.351" cy="105.121" r="4" fill="#0" id="circle100"/>
	<circle cx="402.418" cy="422.642" r="4" fill="#0" id="circle101"/>
	<circle cx="403.429" cy="113.211" r="4" fill="#0" id="circle102"/>
	<circle cx="407.474" cy="412.53" r="4" fill="#0" id="circle103"/>
	<circle cx="409.496" cy="121.301" r="4" fill="#0" id="circle104"/>
	<circle cx="413.541" cy="420.62" r="4" fill="#0" id="circle105"/>
	<circle cx="414.552" cy="130.402" r="4" fill="#0" id="circle106"/>
	<circle cx="418.597" cy="429.721" r="4" fill="#0" id="circle107"/>
	<circle cx="418.597" cy="439.833" r="4" fill="#0" id="circle108"/>
	<circle cx="421.631" cy="449.945" r="4" fill="#0" id="circle109"/>
	<circle cx="424.665" cy="130.402" r="4" fill="#0" id="circle110"/>
	<circle cx="426.687" cy="459.046" r="4" fill="#0" id="circle111"/>
	<circle cx="433.766" cy="467.136" r="4" fill="#0" id="circle112"/>
	<circle cx="434.777" cy="130.402" r="4" fill="#0" id="circle113"/>
	<circle cx="441.855" cy="474.214" r="4" fill="#0" id="circle114"/>
	<circle cx="443.878" cy="22.2018" r="4" fill="#0" id="circle115"/>
	<circle cx="443.878" cy="32.314" r="4" fill="#0" id="circle116"/>
	<circle cx="443.878" cy="42.4261" r="4" fill="#0" id="circle117"/>
	<circle cx="443.878" cy="52.5382" r="4" fill="#0" id="circle118"/>
	<circle cx="443.878" cy="62.6504" r="4" fill="#0" id="circle119"/>
	<circle cx="443.878" cy="72.7625" r="4" fill="#0" id="circle120"/>
	<circle cx="443.878" cy="82.8746" r="4" fill="#0" id="circle121"/>
	<circle cx="443.878" cy="92.9867" r="4" fill="#0" id="circle122"/>
	<circle cx="443.878" cy="103.099" r="4" fill="#0" id="circle123"/>
	<circle cx="443.878" cy="113.211" r="4" fill="#0" id="circle124"/>
	<circle cx="443.878" cy="123.323" r="4" fill="#0" id="circle125"/>
	<circle cx="448.934" cy="12.0897" r="4" fill="#0" id="circle126"/>
	<circle cx="450.956" cy="479.27" r="4" fill="#0" id="circle127"/>
	<circle cx="459.046" cy="7.03364" r="4" fill="#0" id="circle128"/>
	<circle cx="461.068" cy="483.315" r="4" fill="#0" id="circle129"/>
	<circle cx="469.158" cy="4" r="4" fill="#0" id="circle130"/>
	<circle cx="470.169" cy="488.371" r="4" fill="#0" id="circle131"/>
	<circle cx="479.27" cy="4" r="4" fill="#0" id="circle132"/>
	<circle cx="480.281" cy="490.393" r="4" fill="#0" id="circle133"/>
	<circle cx="489.382" cy="4" r="4" fill="#0" id="circle134"/>
	<circle cx="490.393" cy="490.393" r="4" fill="#0" id="circle135"/>
	<circle cx="499.494" cy="4" r="4" fill="#0" id="circle136"/>
	<circle cx="500.506" cy="492.416" r="4" fill="#0" id="circle137"/>
	<circle cx="509.607" cy="4" r="4" fill="#0" id="circle138"/>
	<circle cx="510.618" cy="495.45" r="4" fill="#0" id="circle139"/>
	<circle cx="519.719" cy="4" r="4" fill="#0" id="circle140"/>
	<circle cx="520.73" cy="495.45" r="4" fill="#0" id="circle141"/>
	<circle cx="529.831" cy="4" r="4" fill="#0" id="circle142"/>
	<circle cx="530.842" cy="490.393" r="4" fill="#0" id="circle143"/>
	<circle cx="539.943" cy="4" r="4" fill="#0" id="circle144"/>
	<circle cx="540.954" cy="485.337" r="4" fill="#0" id="circle145"/>
	<circle cx="549.044" cy="478.259" r="4" fill="#0" id="circle146"/>
	<circle cx="550.055" cy="6.02243" r="4" fill="#0" id="circle147"/>
	<circle cx="556.122" cy="465.113" r="4" fill="#0" id="circle148"/>
	<circle cx="560.167" cy="9.05607" r="4" fill="#0" id="circle149"/>
	<circle cx="561.178" cy="455.001" r="4" fill="#0" id="circle150"/>
	<circle cx="566.234" cy="439.833" r="4" fill="#0" id="circle151"/>
	<circle cx="570.279" cy="9.05607" r="4" fill="#0" id="circle152"/>
	<circle cx="574.324" cy="432.754" r="4" fill="#0" id="circle153"/>
	<circle cx="580.391" cy="9.05607" r="4" fill="#0" id="circle154"/>
	<circle cx="584.436" cy="429.721" r="4" fill="#0" id="circle155"/>
	<circle cx="590.504" cy="11.0785" r="4" fill="#0" id="circle156"/>
	<circle cx="594.548" cy="429.721" r="4" fill="#0" id="circle157"/>
	<circle cx="600.616" cy="14.1121" r="4" fill="#0" id="circle158"/>
	<circle cx="604.661" cy="429.721" r="4" fill="#0" id="circle159"/>
	<circle cx="610.728" cy="14.1121" r="4" fill="#0" id="circle160"/>
	<circle cx="614.773" cy="429.721" r="4" fill="#0" id="circle161"/>
	<circle cx="620.84" cy="14.1121" r="4" fill="#0" id="circle162"/>
	<circle cx="624.885" cy="429.721" r="4" fill="#0" id="circle163"/>
	<circle cx="630.952" cy="14.1121" r="4" fill="#0" id="circle164"/>
	<circle cx="634.997" cy="429.721" r="4" fill="#0" id="circle165"/>
	<circle cx="641.064" cy="14.1121" r="4" fill="#0" id="circle166"/>
	<circle cx="645.109" cy="429.721" r="4" fill="#0" id="circle167"/>
	<circle cx="651.176" cy="14.1121" r="4" fill="#0" id="circle168"/>
	<circle cx="655.221" cy="429.721" r="4" fill="#0" id="circle169"/>
	<circle cx="661.288" cy="14.1121" r="4" fill="#0" id="circle170"/>
	<circle cx="665.333" cy="429.721" r="4" fill="#0" id="circle171"/>
	<circle cx="671.401" cy="14.1121" r="4" fill="#0" id="circle172"/>
	<circle cx="675.445" cy="429.721" r="4" fill="#0" id="circle173"/>
	<circle cx="681.513" cy="14.1121" r="4" fill="#0" id="circle174"/>
	<circle cx="685.558" cy="429.721" r="4" fill="#0" id="circle175"/>
	<circle cx="691.625" cy="14.1121" r="4" fill="#0" id="circle176"/>
	<circle cx="695.67" cy="429.721" r="4" fill="#0" id="circle177"/>
	<circle cx="701.737" cy="14.1121" r="4" fill="#0" id="circle178"/>
	<circle cx="705.782" cy="429.721" r="4" fill="#0" id="circle179"/>
	<circle cx="711.849" cy="14.1121" r="4" fill="#0" id="circle180"/>
	<circle cx="715.894" cy="429.721" r="4" fill="#0" id="circle181"/>
	<circle cx="721.961" cy="16.1346" r="4" fill="#0" id="circle182"/>
	<circle cx="726.006" cy="429.721" r="4" fill="#0" id="circle183"/>
	<circle cx="731.062" cy="21.1906" r="4" fill="#0" id="circle184"/>
	<circle cx="735.107" cy="424.665" r="4" fill="#0" id="circle185"/>
	<circle cx="738.141" cy="29.2803" r="4" fill="#0" id="circle186"/>
	<circle cx="745.219" cy="424.665" r="4" fill="#0" id="circle187"/>
	<circle cx="748.253" cy="32.314" r="4" fill="#0" id="circle188"/>
	<circle cx="754.32" cy="419.609" r="4" fill="#0" id="circle189"/>
	<circle cx="757.354" cy="37.37" r="4" fill="#0" id="circle190"/>
	<circle cx="763.421" cy="45.4597" r="4" fill="#0" id="circle191"/>
	<circle cx="764.432" cy="419.609" r="4" fill="#0" id="circle192"/>
	<circle cx="768.477" cy="54.5607" r="4" fill="#0" id="circle193"/>
	<circle cx="768.477" cy="64.6728" r="4" fill="#0" id="circle194"/>
	<circle cx="768.477" cy="74.7849" r="4" fill="#0" id="circle195"/>
	<circle cx="768.477" cy="84.897" r="4" fill="#0" id="circle196"/>
	<circle cx="768.477" cy="95.0092" r="4" fill="#0" id="circle197"/>
	<circle cx="768.477" cy="105.121" r="4" fill="#0" id="circle198"/>
	<circle cx="768.477" cy="115.233" r="4" fill="#0" id="circle199"/>
	<circle cx="774.544" cy="419.609" r="4" fill="#0" id="circle200"/>
	<circle cx="776.567" cy="121.301" r="4" fill="#0" id="circle201"/>
	<circle cx="783.645" cy="129.39" r="4" fill="#0" id="circle202"/>
	<circle cx="784.656" cy="419.609" r="4" fill="#0" id="circle203"/>
	<circle cx="793.757" cy="133.435" r="4" fill="#0" id="circle204"/>
	<circle cx="794.769" cy="419.609" r="4" fill="#0" id="circle205"/>
	<circle cx="798.813" cy="142.536" r="4" fill="#0" id="circle206"/>
	<circle cx="802.858" cy="425.676" r="4" fill="#0" id="circle207"/>
	<circle cx="804.881" cy="150.626" r="4" fill="#0" id="circle208"/>
	<circle cx="807.914" cy="434.777" r="4" fill="#0" id="circle209"/>
	<circle cx="813.982" cy="442.866" r="4" fill="#0" id="circle210"/>
	<circle cx="814.993" cy="150.626" r="4" fill="#0" id="circle211"/>
	<circle cx="822.071" cy="449.945" r="4" fill="#0" id="circle212"/>
	<circle cx="824.094" cy="155.682" r="4" fill="#0" id="circle213"/>
	<circle cx="832.183" cy="449.945" r="4" fill="#0" id="circle214"/>
	<circle cx="834.206" cy="155.682" r="4" fill="#0" id="circle215"/>
	<circle cx="842.296" cy="449.945" r="4" fill="#0" id="circle216"/>
	<circle cx="844.318" cy="155.682" r="4" fill="#0" id="circle217"/>
	<circle cx="851.397" cy="444.889" r="4" fill="#0" id="circle218"/>
	<circle cx="854.43" cy="155.682" r="4" fill="#0" id="circle219"/>
	<circle cx="860.497" cy="439.833" r="4" fill="#0" id="circle220"/>
	<circle cx="864.542" cy="155.682" r="4" fill="#0" id="circle221"/>
	<circle cx="869.598" cy="434.777" r="4" fill="#0" id="circle222"/>
	<circle cx="874.654" cy="155.682" r="4" fill="#0" id="circle223"/>
	<circle cx="877.688" cy="427.698" r="4" fill="#0" id="circle224"/>
	<circle cx="882.744" cy="417.586" r="4" fill="#0" id="circle225"/>
	<circle cx="884.767" cy="155.682" r="4" fill="#0" id="circle226"/>
	<circle cx="884.767" cy="343.768" r="4" fill="#0" id="circle227"/>
	<circle cx="884.767" cy="353.88" r="4" fill="#0" id="circle228"/>
	<circle cx="884.767" cy="363.992" r="4" fill="#0" id="circle229"/>
	<circle cx="884.767" cy="374.104" r="4" fill="#0" id="circle230"/>
	<circle cx="884.767" cy="384.216" r="4" fill="#0" id="circle231"/>
	<circle cx="884.767" cy="394.328" r="4" fill="#0" id="circle232"/>
	<circle cx="884.767" cy="404.44" r="4" fill="#0" id="circle233"/>
	<circle cx="893.867" cy="338.712" r="4" fill="#0" id="circle234"/>
	<circle cx="894.879" cy="155.682" r="4" fill="#0" id="circle235"/>
	<circle cx="902.968" cy="333.655" r="4" fill="#0" id="circle236"/>
	<circle cx="904.991" cy="155.682" r="4" fill="#0" id="circle237"/>
	<circle cx="912.069" cy="328.599" r="4" fill="#0" id="circle238"/>
	<circle cx="915.103" cy="155.682" r="4" fill="#0" id="circle239"/>
	<circle cx="921.17" cy="323.543" r="4" fill="#0" id="circle240"/>
	<circle cx="925.215" cy="155.682" r="4" fill="#0" id="circle241"/>
	<circle cx="930.271" cy="318.487" r="4" fill="#0" id="circle242"/>
	<circle cx="935.327" cy="155.682" r="4" fill="#0" id="circle243"/>
	<circle cx="940.383" cy="313.431" r="4" fill="#0" id="circle244"/>
	<circle cx="945.439" cy="155.682" r="4" fill="#0" id="circle245"/>
	<circle cx="948.473" cy="306.353" r="4" fill="#0" id="circle246"/>
	<circle cx="955.551" cy="155.682" r="4" fill="#0" id="circle247"/>
	<circle cx="955.551" cy="293.207" r="4" fill="#0" id="circle248"/>
	<circle cx="960.608" cy="283.095" r="4" fill="#0" id="circle249"/>
	<circle cx="965.664" cy="155.682" r="4" fill="#0" id="circle250"/>
	<circle cx="965.664" cy="267.927" r="4" fill="#0" id="circle251"/>
	<circle cx="970.72" cy="247.702" r="4" fill="#0" id="circle252"/>
	<circle cx="970.72" cy="257.814" r="4" fill="#0" id="circle253"/>
	<circle cx="975.776" cy="155.682" r="4" fill="#0" id="circle254"/>
	<circle cx="979.821" cy="242.646" r="4" fill="#0" id="circle255"/>
	<circle cx="983.865" cy="161.749" r="4" fill="#0" id="circle256"/>
	<circle cx="987.91" cy="236.579" r="4" fill="#0" id="circle257"/>
	<circle cx="990.944" cy="169.839" r="4" fill="#0" id="circle258"/>
	<circle cx="990.944" cy="179.951" r="4" fill="#0" id="circle259"/>
	<circle cx="992.966" cy="226.467" r="4" fill="#0" id="circle260"/>
	<circle cx="996" cy="189.052" r="4" fill="#0" id="circle261"/>
	<circle cx="996" cy="199.164" r="4" fill="#0" id="circle262"/>
	<circle cx="996" cy="209.276" r="4" fill="#0" id="circle263"/>
	</g>
</svg>