<?xml version="1.0" encoding="UTF-8" standalone="no"?>
<!-- Created with CurveBenchmark -->
<svg
	xmlns:dc="http://purl.org/dc/elements/1.1/"
	xmlns:cc="http://creativecommons.org/ns#"
	xmlns:rdf="http://www.w3.org/1999/02/22-rdf-syntax-ns#"
	xmlns:svg="http://www.w3.org/2000/svg"
	xmlns="http://www.w3.org/2000/svg"
	xmlns:sodipodi="http://sodipodi.sourceforge.net/DTD/sodipodi-0.dtd"
	xmlns:inkscape="http://www.inkscape.org/namespaces/inkscape"
	width="1000"
	height="1000"
	id="svg2"
	version="1.1"
	sodipodi:docname="manifold/ccrust-television160.png.txt">
<defs
	id="defs4" />
<metadata
	id="metadata7">
	<rdf:RDF>
		<cc:Work
			rdf:about="">
			<dc:format>image/svg+xml</dc:format>
			<dc:type
				rdf:resource="http://purl.org/dc/dcmitype/StillImage" />
			<dc:title></dc:title>
		</cc:Work>
	</rdf:RDF>
</metadata>
<g
	inkscape:label="Layer 1"
	inkscape:groupmode="layer"
	id="layer1">
	<path style="fill:none;stroke:red;stroke-width:1px;stroke-linecap:butt;stroke-linejoin:miter;stroke-opacity:1" d="M 140.603,10.5049 140.603,43.0295 z" id="boundary" inkscape:connector-curvature="0" />
	<path style="fill:none;stroke:red;stroke-width:1px;stroke-linecap:butt;stroke-linejoin:miter;stroke-opacity:1" d="M 140.603,10.5049 173.128,4 z" id="boundary" inkscape:connector-curvature="0" />
	<path style="fill:none;stroke:red;stroke-width:1px;stroke-linecap:butt;stroke-linejoin:miter;stroke-opacity:1" d="M 140.603,75.5541 140.603,43.0295 z" id="boundary" inkscape:connector-curvature="0" />
	<path style="fill:none;stroke:red;stroke-width:1px;stroke-linecap:butt;stroke-linejoin:miter;stroke-opacity:1" d="M 140.603,108.079 140.603,140.603 z" id="boundary" inkscape:connector-curvature="0" />
	<path style="fill:none;stroke:red;stroke-width:1px;stroke-linecap:butt;stroke-linejoin:miter;stroke-opacity:1" d="M 140.603,173.128 140.603,140.603 z" id="boundary" inkscape:connector-curvature="0" />
	<path style="fill:none;stroke:red;stroke-width:1px;stroke-linecap:butt;stroke-linejoin:miter;stroke-opacity:1" d="M 140.603,108.079 140.603,75.5541 z" id="boundary" inkscape:connector-curvature="0" />
	<path style="fill:none;stroke:red;stroke-width:1px;stroke-linecap:butt;stroke-linejoin:miter;stroke-opacity:1" d="M 140.603,205.652 140.603,173.128 z" id="boundary" inkscape:connector-curvature="0" />
	<path style="fill:none;stroke:red;stroke-width:1px;stroke-linecap:butt;stroke-linejoin:miter;stroke-opacity:1" d="M 173.128,4 205.652,4 z" id="boundary" inkscape:connector-curvature="0" />
	<path style="fill:none;stroke:red;stroke-width:1px;stroke-linecap:butt;stroke-linejoin:miter;stroke-opacity:1" d="M 140.603,270.702 140.603,238.177 z" id="boundary" inkscape:connector-curvature="0" />
	<path style="fill:none;stroke:red;stroke-width:1px;stroke-linecap:butt;stroke-linejoin:miter;stroke-opacity:1" d="M 140.603,303.226 140.603,270.702 z" id="boundary" inkscape:connector-curvature="0" />
	<path style="fill:none;stroke:red;stroke-width:1px;stroke-linecap:butt;stroke-linejoin:miter;stroke-opacity:1" d="M 140.603,303.226 140.603,335.751 z" id="boundary" inkscape:connector-curvature="0" />
	<path style="fill:none;stroke:red;stroke-width:1px;stroke-linecap:butt;stroke-linejoin:miter;stroke-opacity:1" d="M 241.43,436.577 208.905,436.577 z" id="boundary" inkscape:connector-curvature="0" />
	<path style="fill:none;stroke:red;stroke-width:1px;stroke-linecap:butt;stroke-linejoin:miter;stroke-opacity:1" d="M 140.603,238.177 140.603,205.652 z" id="boundary" inkscape:connector-curvature="0" />
	<path style="fill:none;stroke:red;stroke-width:1px;stroke-linecap:butt;stroke-linejoin:miter;stroke-opacity:1" d="M 140.603,368.275 140.603,400.8 z" id="boundary" inkscape:connector-curvature="0" />
	<path style="fill:none;stroke:red;stroke-width:1px;stroke-linecap:butt;stroke-linejoin:miter;stroke-opacity:1" d="M 49.5344,556.918 78.8066,573.18 z" id="boundary" inkscape:connector-curvature="0" />
	<path style="fill:none;stroke:red;stroke-width:1px;stroke-linecap:butt;stroke-linejoin:miter;stroke-opacity:1" d="M 140.603,400.8 143.856,433.325 z" id="boundary" inkscape:connector-curvature="0" />
	<path style="fill:none;stroke:red;stroke-width:1px;stroke-linecap:butt;stroke-linejoin:miter;stroke-opacity:1" d="M 140.603,335.751 140.603,368.275 z" id="boundary" inkscape:connector-curvature="0" />
	<path style="fill:none;stroke:red;stroke-width:1px;stroke-linecap:butt;stroke-linejoin:miter;stroke-opacity:1" d="M 176.38,436.577 143.856,433.325 z" id="boundary" inkscape:connector-curvature="0" />
	<path style="fill:none;stroke:red;stroke-width:1px;stroke-linecap:butt;stroke-linejoin:miter;stroke-opacity:1" d="M 208.905,436.577 176.38,436.577 z" id="boundary" inkscape:connector-curvature="0" />
	<path style="fill:none;stroke:red;stroke-width:1px;stroke-linecap:butt;stroke-linejoin:miter;stroke-opacity:1" d="M 205.652,4 238.177,4 z" id="boundary" inkscape:connector-curvature="0" />
	<path style="fill:none;stroke:red;stroke-width:1px;stroke-linecap:butt;stroke-linejoin:miter;stroke-opacity:1" d="M 270.702,4 303.226,4 z" id="boundary" inkscape:connector-curvature="0" />
	<path style="fill:none;stroke:red;stroke-width:1px;stroke-linecap:butt;stroke-linejoin:miter;stroke-opacity:1" d="M 303.226,4 335.751,4 z" id="boundary" inkscape:connector-curvature="0" />
	<path style="fill:none;stroke:red;stroke-width:1px;stroke-linecap:butt;stroke-linejoin:miter;stroke-opacity:1" d="M 241.43,436.577 273.954,436.577 z" id="boundary" inkscape:connector-curvature="0" />
	<path style="fill:none;stroke:red;stroke-width:1px;stroke-linecap:butt;stroke-linejoin:miter;stroke-opacity:1" d="M 306.479,436.577 273.954,436.577 z" id="boundary" inkscape:connector-curvature="0" />
	<path style="fill:none;stroke:red;stroke-width:1px;stroke-linecap:butt;stroke-linejoin:miter;stroke-opacity:1" d="M 335.751,4 368.275,4 z" id="boundary" inkscape:connector-curvature="0" />
	<path style="fill:none;stroke:red;stroke-width:1px;stroke-linecap:butt;stroke-linejoin:miter;stroke-opacity:1" d="M 368.275,4 400.8,4 z" id="boundary" inkscape:connector-curvature="0" />
	<path style="fill:none;stroke:red;stroke-width:1px;stroke-linecap:butt;stroke-linejoin:miter;stroke-opacity:1" d="M 339.003,436.577 371.528,436.577 z" id="boundary" inkscape:connector-curvature="0" />
	<path style="fill:none;stroke:red;stroke-width:1px;stroke-linecap:butt;stroke-linejoin:miter;stroke-opacity:1" d="M 404.052,436.577 426.82,462.597 z" id="boundary" inkscape:connector-curvature="0" />
	<path style="fill:none;stroke:red;stroke-width:1px;stroke-linecap:butt;stroke-linejoin:miter;stroke-opacity:1" d="M 371.528,436.577 404.052,436.577 z" id="boundary" inkscape:connector-curvature="0" />
	<path style="fill:none;stroke:red;stroke-width:1px;stroke-linecap:butt;stroke-linejoin:miter;stroke-opacity:1" d="M 306.479,436.577 339.003,436.577 z" id="boundary" inkscape:connector-curvature="0" />
	<path style="fill:none;stroke:red;stroke-width:1px;stroke-linecap:butt;stroke-linejoin:miter;stroke-opacity:1" d="M 400.8,4 433.325,4 z" id="boundary" inkscape:connector-curvature="0" />
	<path style="fill:none;stroke:red;stroke-width:1px;stroke-linecap:butt;stroke-linejoin:miter;stroke-opacity:1" d="M 426.82,462.597 426.82,495.121 z" id="boundary" inkscape:connector-curvature="0" />
	<path style="fill:none;stroke:red;stroke-width:1px;stroke-linecap:butt;stroke-linejoin:miter;stroke-opacity:1" d="M 426.82,495.121 420.315,543.908 z" id="boundary" inkscape:connector-curvature="0" />
	<path style="fill:none;stroke:red;stroke-width:1px;stroke-linecap:butt;stroke-linejoin:miter;stroke-opacity:1" d="M 238.177,4 270.702,4 z" id="boundary" inkscape:connector-curvature="0" />
	<path style="fill:none;stroke:red;stroke-width:1px;stroke-linecap:butt;stroke-linejoin:miter;stroke-opacity:1" d="M 75.5541,677.259 49.5344,654.492 z" id="boundary" inkscape:connector-curvature="0" />
	<path style="fill:none;stroke:red;stroke-width:1px;stroke-linecap:butt;stroke-linejoin:miter;stroke-opacity:1" d="M 69.0492,745.561 36.5246,745.561 z" id="boundary" inkscape:connector-curvature="0" />
	<path style="fill:none;stroke:red;stroke-width:1px;stroke-linecap:butt;stroke-linejoin:miter;stroke-opacity:1" d="M 101.574,745.561 69.0492,745.561 z" id="boundary" inkscape:connector-curvature="0" />
	<path style="fill:none;stroke:red;stroke-width:1px;stroke-linecap:butt;stroke-linejoin:miter;stroke-opacity:1" d="M 36.5246,745.561 4,752.066 z" id="boundary" inkscape:connector-curvature="0" />
	<path style="fill:none;stroke:red;stroke-width:1px;stroke-linecap:butt;stroke-linejoin:miter;stroke-opacity:1" d="M 4,784.59 4,752.066 z" id="boundary" inkscape:connector-curvature="0" />
	<path style="fill:none;stroke:red;stroke-width:1px;stroke-linecap:butt;stroke-linejoin:miter;stroke-opacity:1" d="M 85.3115,813.862 52.7869,823.62 z" id="boundary" inkscape:connector-curvature="0" />
	<path style="fill:none;stroke:red;stroke-width:1px;stroke-linecap:butt;stroke-linejoin:miter;stroke-opacity:1" d="M 20.2623,813.862 4,784.59 z" id="boundary" inkscape:connector-curvature="0" />
	<path style="fill:none;stroke:red;stroke-width:1px;stroke-linecap:butt;stroke-linejoin:miter;stroke-opacity:1" d="M 85.3115,813.862 117.836,813.862 z" id="boundary" inkscape:connector-curvature="0" />
	<path style="fill:none;stroke:red;stroke-width:1px;stroke-linecap:butt;stroke-linejoin:miter;stroke-opacity:1" d="M 52.7869,823.62 20.2623,813.862 z" id="boundary" inkscape:connector-curvature="0" />
	<path style="fill:none;stroke:red;stroke-width:1px;stroke-linecap:butt;stroke-linejoin:miter;stroke-opacity:1" d="M 117.836,813.862 150.361,813.862 z" id="boundary" inkscape:connector-curvature="0" />
	<path style="fill:none;stroke:red;stroke-width:1px;stroke-linecap:butt;stroke-linejoin:miter;stroke-opacity:1" d="M 101.574,745.561 134.098,745.561 z" id="boundary" inkscape:connector-curvature="0" />
	<path style="fill:none;stroke:red;stroke-width:1px;stroke-linecap:butt;stroke-linejoin:miter;stroke-opacity:1" d="M 134.098,745.561 166.623,745.561 z" id="boundary" inkscape:connector-curvature="0" />
	<path style="fill:none;stroke:red;stroke-width:1px;stroke-linecap:butt;stroke-linejoin:miter;stroke-opacity:1" d="M 199.148,745.561 166.623,745.561 z" id="boundary" inkscape:connector-curvature="0" />
	<path style="fill:none;stroke:red;stroke-width:1px;stroke-linecap:butt;stroke-linejoin:miter;stroke-opacity:1" d="M 150.361,813.862 182.885,813.862 z" id="boundary" inkscape:connector-curvature="0" />
	<path style="fill:none;stroke:red;stroke-width:1px;stroke-linecap:butt;stroke-linejoin:miter;stroke-opacity:1" d="M 247.934,813.862 215.41,813.862 z" id="boundary" inkscape:connector-curvature="0" />
	<path style="fill:none;stroke:red;stroke-width:1px;stroke-linecap:butt;stroke-linejoin:miter;stroke-opacity:1" d="M 215.41,813.862 182.885,813.862 z" id="boundary" inkscape:connector-curvature="0" />
	<path style="fill:none;stroke:red;stroke-width:1px;stroke-linecap:butt;stroke-linejoin:miter;stroke-opacity:1" d="M 199.148,745.561 231.672,745.561 z" id="boundary" inkscape:connector-curvature="0" />
	<path style="fill:none;stroke:red;stroke-width:1px;stroke-linecap:butt;stroke-linejoin:miter;stroke-opacity:1" d="M 426.82,599.2 404.052,573.18 z" id="boundary" inkscape:connector-curvature="0" />
	<path style="fill:none;stroke:red;stroke-width:1px;stroke-linecap:butt;stroke-linejoin:miter;stroke-opacity:1" d="M 426.82,599.2 417.062,647.987 z" id="boundary" inkscape:connector-curvature="0" />
	<path style="fill:none;stroke:red;stroke-width:1px;stroke-linecap:butt;stroke-linejoin:miter;stroke-opacity:1" d="M 426.82,696.774 400.8,677.259 z" id="boundary" inkscape:connector-curvature="0" />
	<path style="fill:none;stroke:red;stroke-width:1px;stroke-linecap:butt;stroke-linejoin:miter;stroke-opacity:1" d="M 316.236,745.561 290.216,765.075 z" id="boundary" inkscape:connector-curvature="0" />
	<path style="fill:none;stroke:red;stroke-width:1px;stroke-linecap:butt;stroke-linejoin:miter;stroke-opacity:1" d="M 290.216,765.075 264.197,745.561 z" id="boundary" inkscape:connector-curvature="0" />
	<path style="fill:none;stroke:red;stroke-width:1px;stroke-linecap:butt;stroke-linejoin:miter;stroke-opacity:1" d="M 316.236,745.561 342.256,765.075 z" id="boundary" inkscape:connector-curvature="0" />
	<path style="fill:none;stroke:red;stroke-width:1px;stroke-linecap:butt;stroke-linejoin:miter;stroke-opacity:1" d="M 247.934,813.862 280.459,813.862 z" id="boundary" inkscape:connector-curvature="0" />
	<path style="fill:none;stroke:red;stroke-width:1px;stroke-linecap:butt;stroke-linejoin:miter;stroke-opacity:1" d="M 345.508,813.862 312.984,813.862 z" id="boundary" inkscape:connector-curvature="0" />
	<path style="fill:none;stroke:red;stroke-width:1px;stroke-linecap:butt;stroke-linejoin:miter;stroke-opacity:1" d="M 312.984,813.862 280.459,813.862 z" id="boundary" inkscape:connector-curvature="0" />
	<path style="fill:none;stroke:red;stroke-width:1px;stroke-linecap:butt;stroke-linejoin:miter;stroke-opacity:1" d="M 368.275,745.561 342.256,765.075 z" id="boundary" inkscape:connector-curvature="0" />
	<path style="fill:none;stroke:red;stroke-width:1px;stroke-linecap:butt;stroke-linejoin:miter;stroke-opacity:1" d="M 231.672,745.561 264.197,745.561 z" id="boundary" inkscape:connector-curvature="0" />
	<path style="fill:none;stroke:red;stroke-width:1px;stroke-linecap:butt;stroke-linejoin:miter;stroke-opacity:1" d="M 426.82,696.774 420.315,745.561 z" id="boundary" inkscape:connector-curvature="0" />
	<path style="fill:none;stroke:red;stroke-width:1px;stroke-linecap:butt;stroke-linejoin:miter;stroke-opacity:1" d="M 420.315,745.561 394.295,765.075 z" id="boundary" inkscape:connector-curvature="0" />
	<path style="fill:none;stroke:red;stroke-width:1px;stroke-linecap:butt;stroke-linejoin:miter;stroke-opacity:1" d="M 394.295,765.075 368.275,745.561 z" id="boundary" inkscape:connector-curvature="0" />
	<path style="fill:none;stroke:red;stroke-width:1px;stroke-linecap:butt;stroke-linejoin:miter;stroke-opacity:1" d="M 345.508,813.862 378.033,813.862 z" id="boundary" inkscape:connector-curvature="0" />
	<path style="fill:none;stroke:red;stroke-width:1px;stroke-linecap:butt;stroke-linejoin:miter;stroke-opacity:1" d="M 410.557,813.862 378.033,813.862 z" id="boundary" inkscape:connector-curvature="0" />
	<path style="fill:none;stroke:red;stroke-width:1px;stroke-linecap:butt;stroke-linejoin:miter;stroke-opacity:1" d="M 443.082,813.862 410.557,813.862 z" id="boundary" inkscape:connector-curvature="0" />
	<path style="fill:none;stroke:red;stroke-width:1px;stroke-linecap:butt;stroke-linejoin:miter;stroke-opacity:1" d="M 465.849,4 498.374,4 z" id="boundary" inkscape:connector-curvature="0" />
	<path style="fill:none;stroke:red;stroke-width:1px;stroke-linecap:butt;stroke-linejoin:miter;stroke-opacity:1" d="M 498.374,4 530.898,4 z" id="boundary" inkscape:connector-curvature="0" />
	<path style="fill:none;stroke:red;stroke-width:1px;stroke-linecap:butt;stroke-linejoin:miter;stroke-opacity:1" d="M 530.898,4 563.423,4 z" id="boundary" inkscape:connector-curvature="0" />
	<path style="fill:none;stroke:red;stroke-width:1px;stroke-linecap:butt;stroke-linejoin:miter;stroke-opacity:1" d="M 563.423,4 595.948,4 z" id="boundary" inkscape:connector-curvature="0" />
	<path style="fill:none;stroke:red;stroke-width:1px;stroke-linecap:butt;stroke-linejoin:miter;stroke-opacity:1" d="M 628.472,4 660.997,4 z" id="boundary" inkscape:connector-curvature="0" />
	<path style="fill:none;stroke:red;stroke-width:1px;stroke-linecap:butt;stroke-linejoin:miter;stroke-opacity:1" d="M 657.744,436.577 690.269,436.577 z" id="boundary" inkscape:connector-curvature="0" />
	<path style="fill:none;stroke:red;stroke-width:1px;stroke-linecap:butt;stroke-linejoin:miter;stroke-opacity:1" d="M 660.997,4 693.521,4 z" id="boundary" inkscape:connector-curvature="0" />
	<path style="fill:none;stroke:red;stroke-width:1px;stroke-linecap:butt;stroke-linejoin:miter;stroke-opacity:1" d="M 722.793,436.577 690.269,436.577 z" id="boundary" inkscape:connector-curvature="0" />
	<path style="fill:none;stroke:red;stroke-width:1px;stroke-linecap:butt;stroke-linejoin:miter;stroke-opacity:1" d="M 693.521,4 726.046,4 z" id="boundary" inkscape:connector-curvature="0" />
	<path style="fill:none;stroke:red;stroke-width:1px;stroke-linecap:butt;stroke-linejoin:miter;stroke-opacity:1" d="M 595.948,4 628.472,4 z" id="boundary" inkscape:connector-curvature="0" />
	<path style="fill:none;stroke:red;stroke-width:1px;stroke-linecap:butt;stroke-linejoin:miter;stroke-opacity:1" d="M 657.744,436.577 625.22,439.83 z" id="boundary" inkscape:connector-curvature="0" />
	<path style="fill:none;stroke:red;stroke-width:1px;stroke-linecap:butt;stroke-linejoin:miter;stroke-opacity:1" d="M 625.22,439.83 625.22,472.354 z" id="boundary" inkscape:connector-curvature="0" />
	<path style="fill:none;stroke:red;stroke-width:1px;stroke-linecap:butt;stroke-linejoin:miter;stroke-opacity:1" d="M 625.22,504.879 625.22,472.354 z" id="boundary" inkscape:connector-curvature="0" />
	<path style="fill:none;stroke:red;stroke-width:1px;stroke-linecap:butt;stroke-linejoin:miter;stroke-opacity:1" d="M 625.22,537.403 625.22,576.433 z" id="boundary" inkscape:connector-curvature="0" />
	<path style="fill:none;stroke:red;stroke-width:1px;stroke-linecap:butt;stroke-linejoin:miter;stroke-opacity:1" d="M 625.22,537.403 657.744,543.908 z" id="boundary" inkscape:connector-curvature="0" />
	<path style="fill:none;stroke:red;stroke-width:1px;stroke-linecap:butt;stroke-linejoin:miter;stroke-opacity:1" d="M 625.22,537.403 625.22,504.879 z" id="boundary" inkscape:connector-curvature="0" />
	<path style="fill:none;stroke:red;stroke-width:1px;stroke-linecap:butt;stroke-linejoin:miter;stroke-opacity:1" d="M 625.22,608.957 625.22,576.433 z" id="boundary" inkscape:connector-curvature="0" />
	<path style="fill:none;stroke:red;stroke-width:1px;stroke-linecap:butt;stroke-linejoin:miter;stroke-opacity:1" d="M 755.318,436.577 722.793,436.577 z" id="boundary" inkscape:connector-curvature="0" />
	<path style="fill:none;stroke:red;stroke-width:1px;stroke-linecap:butt;stroke-linejoin:miter;stroke-opacity:1" d="M 755.318,436.577 787.843,436.577 z" id="boundary" inkscape:connector-curvature="0" />
	<path style="fill:none;stroke:red;stroke-width:1px;stroke-linecap:butt;stroke-linejoin:miter;stroke-opacity:1" d="M 726.046,4 758.57,4 z" id="boundary" inkscape:connector-curvature="0" />
	<path style="fill:none;stroke:red;stroke-width:1px;stroke-linecap:butt;stroke-linejoin:miter;stroke-opacity:1" d="M 791.095,4 823.62,4 z" id="boundary" inkscape:connector-curvature="0" />
	<path style="fill:none;stroke:red;stroke-width:1px;stroke-linecap:butt;stroke-linejoin:miter;stroke-opacity:1" d="M 823.62,4 856.144,4 z" id="boundary" inkscape:connector-curvature="0" />
	<path style="fill:none;stroke:red;stroke-width:1px;stroke-linecap:butt;stroke-linejoin:miter;stroke-opacity:1" d="M 856.144,4 878.911,30.0197 z" id="boundary" inkscape:connector-curvature="0" />
	<path style="fill:none;stroke:red;stroke-width:1px;stroke-linecap:butt;stroke-linejoin:miter;stroke-opacity:1" d="M 878.911,30.0197 878.911,62.5443 z" id="boundary" inkscape:connector-curvature="0" />
	<path style="fill:none;stroke:red;stroke-width:1px;stroke-linecap:butt;stroke-linejoin:miter;stroke-opacity:1" d="M 878.911,95.0689 878.911,62.5443 z" id="boundary" inkscape:connector-curvature="0" />
	<path style="fill:none;stroke:red;stroke-width:1px;stroke-linecap:butt;stroke-linejoin:miter;stroke-opacity:1" d="M 878.911,127.593 878.911,95.0689 z" id="boundary" inkscape:connector-curvature="0" />
	<path style="fill:none;stroke:red;stroke-width:1px;stroke-linecap:butt;stroke-linejoin:miter;stroke-opacity:1" d="M 878.911,127.593 878.911,160.118 z" id="boundary" inkscape:connector-curvature="0" />
	<path style="fill:none;stroke:red;stroke-width:1px;stroke-linecap:butt;stroke-linejoin:miter;stroke-opacity:1" d="M 878.911,192.643 878.911,160.118 z" id="boundary" inkscape:connector-curvature="0" />
	<path style="fill:none;stroke:red;stroke-width:1px;stroke-linecap:butt;stroke-linejoin:miter;stroke-opacity:1" d="M 878.911,225.167 878.911,192.643 z" id="boundary" inkscape:connector-curvature="0" />
	<path style="fill:none;stroke:red;stroke-width:1px;stroke-linecap:butt;stroke-linejoin:miter;stroke-opacity:1" d="M 878.911,225.167 878.911,257.692 z" id="boundary" inkscape:connector-curvature="0" />
	<path style="fill:none;stroke:red;stroke-width:1px;stroke-linecap:butt;stroke-linejoin:miter;stroke-opacity:1" d="M 878.911,290.216 878.911,257.692 z" id="boundary" inkscape:connector-curvature="0" />
	<path style="fill:none;stroke:red;stroke-width:1px;stroke-linecap:butt;stroke-linejoin:miter;stroke-opacity:1" d="M 878.911,290.216 878.911,322.741 z" id="boundary" inkscape:connector-curvature="0" />
	<path style="fill:none;stroke:red;stroke-width:1px;stroke-linecap:butt;stroke-linejoin:miter;stroke-opacity:1" d="M 878.911,355.266 878.911,322.741 z" id="boundary" inkscape:connector-curvature="0" />
	<path style="fill:none;stroke:red;stroke-width:1px;stroke-linecap:butt;stroke-linejoin:miter;stroke-opacity:1" d="M 787.843,436.577 820.367,436.577 z" id="boundary" inkscape:connector-curvature="0" />
	<path style="fill:none;stroke:red;stroke-width:1px;stroke-linecap:butt;stroke-linejoin:miter;stroke-opacity:1" d="M 820.367,436.577 852.892,436.577 z" id="boundary" inkscape:connector-curvature="0" />
	<path style="fill:none;stroke:red;stroke-width:1px;stroke-linecap:butt;stroke-linejoin:miter;stroke-opacity:1" d="M 878.911,387.79 852.892,436.577 z" id="boundary" inkscape:connector-curvature="0" />
	<path style="fill:none;stroke:red;stroke-width:1px;stroke-linecap:butt;stroke-linejoin:miter;stroke-opacity:1" d="M 878.911,355.266 878.911,387.79 z" id="boundary" inkscape:connector-curvature="0" />
	<path style="fill:none;stroke:red;stroke-width:1px;stroke-linecap:butt;stroke-linejoin:miter;stroke-opacity:1" d="M 758.57,4 791.095,4 z" id="boundary" inkscape:connector-curvature="0" />
	<path style="fill:none;stroke:red;stroke-width:1px;stroke-linecap:butt;stroke-linejoin:miter;stroke-opacity:1" d="M 625.22,680.511 625.22,641.482 z" id="boundary" inkscape:connector-curvature="0" />
	<path style="fill:none;stroke:red;stroke-width:1px;stroke-linecap:butt;stroke-linejoin:miter;stroke-opacity:1" d="M 625.22,641.482 657.744,647.987 z" id="boundary" inkscape:connector-curvature="0" />
	<path style="fill:none;stroke:red;stroke-width:1px;stroke-linecap:butt;stroke-linejoin:miter;stroke-opacity:1" d="M 625.22,713.036 625.22,680.511 z" id="boundary" inkscape:connector-curvature="0" />
	<path style="fill:none;stroke:red;stroke-width:1px;stroke-linecap:butt;stroke-linejoin:miter;stroke-opacity:1" d="M 628.472,745.561 625.22,713.036 z" id="boundary" inkscape:connector-curvature="0" />
	<path style="fill:none;stroke:red;stroke-width:1px;stroke-linecap:butt;stroke-linejoin:miter;stroke-opacity:1" d="M 625.22,641.482 625.22,608.957 z" id="boundary" inkscape:connector-curvature="0" />
	<path style="fill:none;stroke:red;stroke-width:1px;stroke-linecap:butt;stroke-linejoin:miter;stroke-opacity:1" d="M 765.075,745.561 732.551,745.561 z" id="boundary" inkscape:connector-curvature="0" />
	<path style="fill:none;stroke:red;stroke-width:1px;stroke-linecap:butt;stroke-linejoin:miter;stroke-opacity:1" d="M 443.082,813.862 475.607,813.862 z" id="boundary" inkscape:connector-curvature="0" />
	<path style="fill:none;stroke:red;stroke-width:1px;stroke-linecap:butt;stroke-linejoin:miter;stroke-opacity:1" d="M 508.131,813.862 475.607,813.862 z" id="boundary" inkscape:connector-curvature="0" />
	<path style="fill:none;stroke:red;stroke-width:1px;stroke-linecap:butt;stroke-linejoin:miter;stroke-opacity:1" d="M 540.656,813.862 573.18,813.862 z" id="boundary" inkscape:connector-curvature="0" />
	<path style="fill:none;stroke:red;stroke-width:1px;stroke-linecap:butt;stroke-linejoin:miter;stroke-opacity:1" d="M 605.705,813.862 638.23,813.862 z" id="boundary" inkscape:connector-curvature="0" />
	<path style="fill:none;stroke:red;stroke-width:1px;stroke-linecap:butt;stroke-linejoin:miter;stroke-opacity:1" d="M 605.705,813.862 573.18,813.862 z" id="boundary" inkscape:connector-curvature="0" />
	<path style="fill:none;stroke:red;stroke-width:1px;stroke-linecap:butt;stroke-linejoin:miter;stroke-opacity:1" d="M 540.656,813.862 508.131,813.862 z" id="boundary" inkscape:connector-curvature="0" />
	<path style="fill:none;stroke:red;stroke-width:1px;stroke-linecap:butt;stroke-linejoin:miter;stroke-opacity:1" d="M 654.492,765.075 680.511,745.561 z" id="boundary" inkscape:connector-curvature="0" />
	<path style="fill:none;stroke:red;stroke-width:1px;stroke-linecap:butt;stroke-linejoin:miter;stroke-opacity:1" d="M 680.511,745.561 706.531,765.075 z" id="boundary" inkscape:connector-curvature="0" />
	<path style="fill:none;stroke:red;stroke-width:1px;stroke-linecap:butt;stroke-linejoin:miter;stroke-opacity:1" d="M 628.472,745.561 654.492,765.075 z" id="boundary" inkscape:connector-curvature="0" />
	<path style="fill:none;stroke:red;stroke-width:1px;stroke-linecap:butt;stroke-linejoin:miter;stroke-opacity:1" d="M 732.551,745.561 706.531,765.075 z" id="boundary" inkscape:connector-curvature="0" />
	<path style="fill:none;stroke:red;stroke-width:1px;stroke-linecap:butt;stroke-linejoin:miter;stroke-opacity:1" d="M 670.754,813.862 703.279,813.862 z" id="boundary" inkscape:connector-curvature="0" />
	<path style="fill:none;stroke:red;stroke-width:1px;stroke-linecap:butt;stroke-linejoin:miter;stroke-opacity:1" d="M 735.803,813.862 703.279,813.862 z" id="boundary" inkscape:connector-curvature="0" />
	<path style="fill:none;stroke:red;stroke-width:1px;stroke-linecap:butt;stroke-linejoin:miter;stroke-opacity:1" d="M 670.754,813.862 638.23,813.862 z" id="boundary" inkscape:connector-curvature="0" />
	<path style="fill:none;stroke:red;stroke-width:1px;stroke-linecap:butt;stroke-linejoin:miter;stroke-opacity:1" d="M 797.6,745.561 765.075,745.561 z" id="boundary" inkscape:connector-curvature="0" />
	<path style="fill:none;stroke:red;stroke-width:1px;stroke-linecap:butt;stroke-linejoin:miter;stroke-opacity:1" d="M 830.125,745.561 797.6,745.561 z" id="boundary" inkscape:connector-curvature="0" />
	<path style="fill:none;stroke:red;stroke-width:1px;stroke-linecap:butt;stroke-linejoin:miter;stroke-opacity:1" d="M 862.649,745.561 830.125,745.561 z" id="boundary" inkscape:connector-curvature="0" />
	<path style="fill:none;stroke:red;stroke-width:1px;stroke-linecap:butt;stroke-linejoin:miter;stroke-opacity:1" d="M 800.852,813.862 768.328,813.862 z" id="boundary" inkscape:connector-curvature="0" />
	<path style="fill:none;stroke:red;stroke-width:1px;stroke-linecap:butt;stroke-linejoin:miter;stroke-opacity:1" d="M 895.174,745.561 862.649,745.561 z" id="boundary" inkscape:connector-curvature="0" />
	<path style="fill:none;stroke:red;stroke-width:1px;stroke-linecap:butt;stroke-linejoin:miter;stroke-opacity:1" d="M 800.852,813.862 833.377,813.862 z" id="boundary" inkscape:connector-curvature="0" />
	<path style="fill:none;stroke:red;stroke-width:1px;stroke-linecap:butt;stroke-linejoin:miter;stroke-opacity:1" d="M 833.377,813.862 865.902,826.872 z" id="boundary" inkscape:connector-curvature="0" />
	<path style="fill:none;stroke:red;stroke-width:1px;stroke-linecap:butt;stroke-linejoin:miter;stroke-opacity:1" d="M 865.902,826.872 898.426,813.862 z" id="boundary" inkscape:connector-curvature="0" />
	<path style="fill:none;stroke:red;stroke-width:1px;stroke-linecap:butt;stroke-linejoin:miter;stroke-opacity:1" d="M 898.426,813.862 930.951,813.862 z" id="boundary" inkscape:connector-curvature="0" />
	<path style="fill:none;stroke:red;stroke-width:1px;stroke-linecap:butt;stroke-linejoin:miter;stroke-opacity:1" d="M 895.174,745.561 927.698,745.561 z" id="boundary" inkscape:connector-curvature="0" />
	<path style="fill:none;stroke:red;stroke-width:1px;stroke-linecap:butt;stroke-linejoin:miter;stroke-opacity:1" d="M 735.803,813.862 768.328,813.862 z" id="boundary" inkscape:connector-curvature="0" />
	<path style="fill:none;stroke:red;stroke-width:1px;stroke-linecap:butt;stroke-linejoin:miter;stroke-opacity:1" d="M 927.698,745.561 960.223,745.561 z" id="boundary" inkscape:connector-curvature="0" />
	<path style="fill:none;stroke:red;stroke-width:1px;stroke-linecap:butt;stroke-linejoin:miter;stroke-opacity:1" d="M 992.748,748.813 960.223,745.561 z" id="boundary" inkscape:connector-curvature="0" />
	<path style="fill:none;stroke:red;stroke-width:1px;stroke-linecap:butt;stroke-linejoin:miter;stroke-opacity:1" d="M 992.748,748.813 996,781.338 z" id="boundary" inkscape:connector-curvature="0" />
	<path style="fill:none;stroke:red;stroke-width:1px;stroke-linecap:butt;stroke-linejoin:miter;stroke-opacity:1" d="M 930.951,813.862 963.475,823.62 z" id="boundary" inkscape:connector-curvature="0" />
	<path style="fill:none;stroke:red;stroke-width:1px;stroke-linecap:butt;stroke-linejoin:miter;stroke-opacity:1" d="M 996,781.338 996,813.862 z" id="boundary" inkscape:connector-curvature="0" />
	<path style="fill:none;stroke:red;stroke-width:1px;stroke-linecap:butt;stroke-linejoin:miter;stroke-opacity:1" d="M 996,813.862 963.475,823.62 z" id="boundary" inkscape:connector-curvature="0" />
	<path style="fill:none;stroke:red;stroke-width:1px;stroke-linecap:butt;stroke-linejoin:miter;stroke-opacity:1" d="M 433.325,4 465.849,4 z" id="boundary" inkscape:connector-curvature="0" />
	<circle cx="4" cy="752.066" r="4" fill="#0" id="circle0"/>
	<circle cx="4" cy="784.59" r="4" fill="#0" id="circle1"/>
	<circle cx="20.2623" cy="813.862" r="4" fill="#0" id="circle2"/>
	<circle cx="36.5246" cy="745.561" r="4" fill="#0" id="circle3"/>
	<circle cx="49.5344" cy="556.918" r="4" fill="#0" id="circle4"/>
	<circle cx="49.5344" cy="654.492" r="4" fill="#0" id="circle5"/>
	<circle cx="52.7869" cy="823.62" r="4" fill="#0" id="circle6"/>
	<circle cx="69.0492" cy="745.561" r="4" fill="#0" id="circle7"/>
	<circle cx="75.5541" cy="677.259" r="4" fill="#0" id="circle8"/>
	<circle cx="78.8066" cy="573.18" r="4" fill="#0" id="circle9"/>
	<circle cx="85.3115" cy="813.862" r="4" fill="#0" id="circle10"/>
	<circle cx="91.8164" cy="647.987" r="4" fill="#0" id="circle11"/>
	<circle cx="95.0689" cy="543.908" r="4" fill="#0" id="circle12"/>
	<circle cx="101.574" cy="745.561" r="4" fill="#0" id="circle13"/>
	<circle cx="108.079" cy="677.259" r="4" fill="#0" id="circle14"/>
	<circle cx="111.331" cy="573.18" r="4" fill="#0" id="circle15"/>
	<circle cx="117.836" cy="813.862" r="4" fill="#0" id="circle16"/>
	<circle cx="124.341" cy="647.987" r="4" fill="#0" id="circle17"/>
	<circle cx="127.593" cy="543.908" r="4" fill="#0" id="circle18"/>
	<circle cx="134.098" cy="745.561" r="4" fill="#0" id="circle19"/>
	<circle cx="140.603" cy="10.5049" r="4" fill="#0" id="circle20"/>
	<circle cx="140.603" cy="43.0295" r="4" fill="#0" id="circle21"/>
	<circle cx="140.603" cy="75.5541" r="4" fill="#0" id="circle22"/>
	<circle cx="140.603" cy="108.079" r="4" fill="#0" id="circle23"/>
	<circle cx="140.603" cy="140.603" r="4" fill="#0" id="circle24"/>
	<circle cx="140.603" cy="173.128" r="4" fill="#0" id="circle25"/>
	<circle cx="140.603" cy="205.652" r="4" fill="#0" id="circle26"/>
	<circle cx="140.603" cy="238.177" r="4" fill="#0" id="circle27"/>
	<circle cx="140.603" cy="270.702" r="4" fill="#0" id="circle28"/>
	<circle cx="140.603" cy="303.226" r="4" fill="#0" id="circle29"/>
	<circle cx="140.603" cy="335.751" r="4" fill="#0" id="circle30"/>
	<circle cx="140.603" cy="368.275" r="4" fill="#0" id="circle31"/>
	<circle cx="140.603" cy="400.8" r="4" fill="#0" id="circle32"/>
	<circle cx="140.603" cy="677.259" r="4" fill="#0" id="circle33"/>
	<circle cx="143.856" cy="433.325" r="4" fill="#0" id="circle34"/>
	<circle cx="143.856" cy="573.18" r="4" fill="#0" id="circle35"/>
	<circle cx="150.361" cy="813.862" r="4" fill="#0" id="circle36"/>
	<circle cx="156.866" cy="647.987" r="4" fill="#0" id="circle37"/>
	<circle cx="160.118" cy="543.908" r="4" fill="#0" id="circle38"/>
	<circle cx="166.623" cy="745.561" r="4" fill="#0" id="circle39"/>
	<circle cx="173.128" cy="4" r="4" fill="#0" id="circle40"/>
	<circle cx="173.128" cy="677.259" r="4" fill="#0" id="circle41"/>
	<circle cx="176.38" cy="436.577" r="4" fill="#0" id="circle42"/>
	<circle cx="176.38" cy="573.18" r="4" fill="#0" id="circle43"/>
	<circle cx="182.885" cy="813.862" r="4" fill="#0" id="circle44"/>
	<circle cx="189.39" cy="647.987" r="4" fill="#0" id="circle45"/>
	<circle cx="192.643" cy="543.908" r="4" fill="#0" id="circle46"/>
	<circle cx="199.148" cy="745.561" r="4" fill="#0" id="circle47"/>
	<circle cx="205.652" cy="4" r="4" fill="#0" id="circle48"/>
	<circle cx="205.652" cy="677.259" r="4" fill="#0" id="circle49"/>
	<circle cx="208.905" cy="436.577" r="4" fill="#0" id="circle50"/>
	<circle cx="208.905" cy="573.18" r="4" fill="#0" id="circle51"/>
	<circle cx="215.41" cy="813.862" r="4" fill="#0" id="circle52"/>
	<circle cx="221.915" cy="647.987" r="4" fill="#0" id="circle53"/>
	<circle cx="225.167" cy="543.908" r="4" fill="#0" id="circle54"/>
	<circle cx="231.672" cy="745.561" r="4" fill="#0" id="circle55"/>
	<circle cx="238.177" cy="4" r="4" fill="#0" id="circle56"/>
	<circle cx="238.177" cy="677.259" r="4" fill="#0" id="circle57"/>
	<circle cx="241.43" cy="436.577" r="4" fill="#0" id="circle58"/>
	<circle cx="241.43" cy="573.18" r="4" fill="#0" id="circle59"/>
	<circle cx="247.934" cy="813.862" r="4" fill="#0" id="circle60"/>
	<circle cx="254.439" cy="647.987" r="4" fill="#0" id="circle61"/>
	<circle cx="257.692" cy="543.908" r="4" fill="#0" id="circle62"/>
	<circle cx="264.197" cy="745.561" r="4" fill="#0" id="circle63"/>
	<circle cx="270.702" cy="4" r="4" fill="#0" id="circle64"/>
	<circle cx="270.702" cy="677.259" r="4" fill="#0" id="circle65"/>
	<circle cx="273.954" cy="436.577" r="4" fill="#0" id="circle66"/>
	<circle cx="273.954" cy="573.18" r="4" fill="#0" id="circle67"/>
	<circle cx="280.459" cy="813.862" r="4" fill="#0" id="circle68"/>
	<circle cx="286.964" cy="647.987" r="4" fill="#0" id="circle69"/>
	<circle cx="290.216" cy="543.908" r="4" fill="#0" id="circle70"/>
	<circle cx="290.216" cy="765.075" r="4" fill="#0" id="circle71"/>
	<circle cx="303.226" cy="4" r="4" fill="#0" id="circle72"/>
	<circle cx="303.226" cy="677.259" r="4" fill="#0" id="circle73"/>
	<circle cx="306.479" cy="436.577" r="4" fill="#0" id="circle74"/>
	<circle cx="306.479" cy="573.18" r="4" fill="#0" id="circle75"/>
	<circle cx="312.984" cy="813.862" r="4" fill="#0" id="circle76"/>
	<circle cx="316.236" cy="745.561" r="4" fill="#0" id="circle77"/>
	<circle cx="319.489" cy="647.987" r="4" fill="#0" id="circle78"/>
	<circle cx="322.741" cy="543.908" r="4" fill="#0" id="circle79"/>
	<circle cx="335.751" cy="4" r="4" fill="#0" id="circle80"/>
	<circle cx="335.751" cy="677.259" r="4" fill="#0" id="circle81"/>
	<circle cx="339.003" cy="436.577" r="4" fill="#0" id="circle82"/>
	<circle cx="339.003" cy="573.18" r="4" fill="#0" id="circle83"/>
	<circle cx="342.256" cy="765.075" r="4" fill="#0" id="circle84"/>
	<circle cx="345.508" cy="813.862" r="4" fill="#0" id="circle85"/>
	<circle cx="352.013" cy="647.987" r="4" fill="#0" id="circle86"/>
	<circle cx="355.266" cy="543.908" r="4" fill="#0" id="circle87"/>
	<circle cx="368.275" cy="4" r="4" fill="#0" id="circle88"/>
	<circle cx="368.275" cy="677.259" r="4" fill="#0" id="circle89"/>
	<circle cx="368.275" cy="745.561" r="4" fill="#0" id="circle90"/>
	<circle cx="371.528" cy="436.577" r="4" fill="#0" id="circle91"/>
	<circle cx="371.528" cy="573.18" r="4" fill="#0" id="circle92"/>
	<circle cx="378.033" cy="813.862" r="4" fill="#0" id="circle93"/>
	<circle cx="384.538" cy="647.987" r="4" fill="#0" id="circle94"/>
	<circle cx="387.79" cy="543.908" r="4" fill="#0" id="circle95"/>
	<circle cx="394.295" cy="765.075" r="4" fill="#0" id="circle96"/>
	<circle cx="400.8" cy="4" r="4" fill="#0" id="circle97"/>
	<circle cx="400.8" cy="677.259" r="4" fill="#0" id="circle98"/>
	<circle cx="404.052" cy="436.577" r="4" fill="#0" id="circle99"/>
	<circle cx="404.052" cy="573.18" r="4" fill="#0" id="circle100"/>
	<circle cx="410.557" cy="813.862" r="4" fill="#0" id="circle101"/>
	<circle cx="417.062" cy="647.987" r="4" fill="#0" id="circle102"/>
	<circle cx="420.315" cy="543.908" r="4" fill="#0" id="circle103"/>
	<circle cx="420.315" cy="745.561" r="4" fill="#0" id="circle104"/>
	<circle cx="426.82" cy="462.597" r="4" fill="#0" id="circle105"/>
	<circle cx="426.82" cy="495.121" r="4" fill="#0" id="circle106"/>
	<circle cx="426.82" cy="599.2" r="4" fill="#0" id="circle107"/>
	<circle cx="426.82" cy="696.774" r="4" fill="#0" id="circle108"/>
	<circle cx="433.325" cy="4" r="4" fill="#0" id="circle109"/>
	<circle cx="443.082" cy="813.862" r="4" fill="#0" id="circle110"/>
	<circle cx="465.849" cy="4" r="4" fill="#0" id="circle111"/>
	<circle cx="475.607" cy="813.862" r="4" fill="#0" id="circle112"/>
	<circle cx="498.374" cy="4" r="4" fill="#0" id="circle113"/>
	<circle cx="508.131" cy="813.862" r="4" fill="#0" id="circle114"/>
	<circle cx="530.898" cy="4" r="4" fill="#0" id="circle115"/>
	<circle cx="540.656" cy="813.862" r="4" fill="#0" id="circle116"/>
	<circle cx="563.423" cy="4" r="4" fill="#0" id="circle117"/>
	<circle cx="573.18" cy="813.862" r="4" fill="#0" id="circle118"/>
	<circle cx="595.948" cy="4" r="4" fill="#0" id="circle119"/>
	<circle cx="605.705" cy="813.862" r="4" fill="#0" id="circle120"/>
	<circle cx="625.22" cy="439.83" r="4" fill="#0" id="circle121"/>
	<circle cx="625.22" cy="472.354" r="4" fill="#0" id="circle122"/>
	<circle cx="625.22" cy="504.879" r="4" fill="#0" id="circle123"/>
	<circle cx="625.22" cy="537.403" r="4" fill="#0" id="circle124"/>
	<circle cx="625.22" cy="576.433" r="4" fill="#0" id="circle125"/>
	<circle cx="625.22" cy="608.957" r="4" fill="#0" id="circle126"/>
	<circle cx="625.22" cy="641.482" r="4" fill="#0" id="circle127"/>
	<circle cx="625.22" cy="680.511" r="4" fill="#0" id="circle128"/>
	<circle cx="625.22" cy="713.036" r="4" fill="#0" id="circle129"/>
	<circle cx="628.472" cy="4" r="4" fill="#0" id="circle130"/>
	<circle cx="628.472" cy="745.561" r="4" fill="#0" id="circle131"/>
	<circle cx="638.23" cy="813.862" r="4" fill="#0" id="circle132"/>
	<circle cx="654.492" cy="765.075" r="4" fill="#0" id="circle133"/>
	<circle cx="657.744" cy="436.577" r="4" fill="#0" id="circle134"/>
	<circle cx="657.744" cy="543.908" r="4" fill="#0" id="circle135"/>
	<circle cx="657.744" cy="647.987" r="4" fill="#0" id="circle136"/>
	<circle cx="660.997" cy="4" r="4" fill="#0" id="circle137"/>
	<circle cx="670.754" cy="813.862" r="4" fill="#0" id="circle138"/>
	<circle cx="674.007" cy="573.18" r="4" fill="#0" id="circle139"/>
	<circle cx="674.007" cy="677.259" r="4" fill="#0" id="circle140"/>
	<circle cx="680.511" cy="745.561" r="4" fill="#0" id="circle141"/>
	<circle cx="690.269" cy="436.577" r="4" fill="#0" id="circle142"/>
	<circle cx="690.269" cy="543.908" r="4" fill="#0" id="circle143"/>
	<circle cx="690.269" cy="647.987" r="4" fill="#0" id="circle144"/>
	<circle cx="693.521" cy="4" r="4" fill="#0" id="circle145"/>
	<circle cx="703.279" cy="813.862" r="4" fill="#0" id="circle146"/>
	<circle cx="706.531" cy="573.18" r="4" fill="#0" id="circle147"/>
	<circle cx="706.531" cy="677.259" r="4" fill="#0" id="circle148"/>
	<circle cx="706.531" cy="765.075" r="4" fill="#0" id="circle149"/>
	<circle cx="722.793" cy="436.577" r="4" fill="#0" id="circle150"/>
	<circle cx="722.793" cy="543.908" r="4" fill="#0" id="circle151"/>
	<circle cx="722.793" cy="647.987" r="4" fill="#0" id="circle152"/>
	<circle cx="726.046" cy="4" r="4" fill="#0" id="circle153"/>
	<circle cx="732.551" cy="745.561" r="4" fill="#0" id="circle154"/>
	<circle cx="735.803" cy="813.862" r="4" fill="#0" id="circle155"/>
	<circle cx="739.056" cy="573.18" r="4" fill="#0" id="circle156"/>
	<circle cx="739.056" cy="677.259" r="4" fill="#0" id="circle157"/>
	<circle cx="755.318" cy="436.577" r="4" fill="#0" id="circle158"/>
	<circle cx="755.318" cy="543.908" r="4" fill="#0" id="circle159"/>
	<circle cx="755.318" cy="647.987" r="4" fill="#0" id="circle160"/>
	<circle cx="758.57" cy="4" r="4" fill="#0" id="circle161"/>
	<circle cx="765.075" cy="745.561" r="4" fill="#0" id="circle162"/>
	<circle cx="768.328" cy="813.862" r="4" fill="#0" id="circle163"/>
	<circle cx="771.58" cy="573.18" r="4" fill="#0" id="circle164"/>
	<circle cx="771.58" cy="677.259" r="4" fill="#0" id="circle165"/>
	<circle cx="787.843" cy="436.577" r="4" fill="#0" id="circle166"/>
	<circle cx="787.843" cy="543.908" r="4" fill="#0" id="circle167"/>
	<circle cx="787.843" cy="647.987" r="4" fill="#0" id="circle168"/>
	<circle cx="791.095" cy="4" r="4" fill="#0" id="circle169"/>
	<circle cx="797.6" cy="745.561" r="4" fill="#0" id="circle170"/>
	<circle cx="800.852" cy="813.862" r="4" fill="#0" id="circle171"/>
	<circle cx="804.105" cy="573.18" r="4" fill="#0" id="circle172"/>
	<circle cx="804.105" cy="677.259" r="4" fill="#0" id="circle173"/>
	<circle cx="820.367" cy="436.577" r="4" fill="#0" id="circle174"/>
	<circle cx="820.367" cy="543.908" r="4" fill="#0" id="circle175"/>
	<circle cx="820.367" cy="647.987" r="4" fill="#0" id="circle176"/>
	<circle cx="823.62" cy="4" r="4" fill="#0" id="circle177"/>
	<circle cx="830.125" cy="745.561" r="4" fill="#0" id="circle178"/>
	<circle cx="833.377" cy="813.862" r="4" fill="#0" id="circle179"/>
	<circle cx="836.63" cy="573.18" r="4" fill="#0" id="circle180"/>
	<circle cx="836.63" cy="677.259" r="4" fill="#0" id="circle181"/>
	<circle cx="852.892" cy="436.577" r="4" fill="#0" id="circle182"/>
	<circle cx="852.892" cy="543.908" r="4" fill="#0" id="circle183"/>
	<circle cx="852.892" cy="647.987" r="4" fill="#0" id="circle184"/>
	<circle cx="856.144" cy="4" r="4" fill="#0" id="circle185"/>
	<circle cx="862.649" cy="745.561" r="4" fill="#0" id="circle186"/>
	<circle cx="865.902" cy="826.872" r="4" fill="#0" id="circle187"/>
	<circle cx="869.154" cy="573.18" r="4" fill="#0" id="circle188"/>
	<circle cx="869.154" cy="677.259" r="4" fill="#0" id="circle189"/>
	<circle cx="878.911" cy="30.0197" r="4" fill="#0" id="circle190"/>
	<circle cx="878.911" cy="62.5443" r="4" fill="#0" id="circle191"/>
	<circle cx="878.911" cy="95.0689" r="4" fill="#0" id="circle192"/>
	<circle cx="878.911" cy="127.593" r="4" fill="#0" id="circle193"/>
	<circle cx="878.911" cy="160.118" r="4" fill="#0" id="circle194"/>
	<circle cx="878.911" cy="192.643" r="4" fill="#0" id="circle195"/>
	<circle cx="878.911" cy="225.167" r="4" fill="#0" id="circle196"/>
	<circle cx="878.911" cy="257.692" r="4" fill="#0" id="circle197"/>
	<circle cx="878.911" cy="290.216" r="4" fill="#0" id="circle198"/>
	<circle cx="878.911" cy="322.741" r="4" fill="#0" id="circle199"/>
	<circle cx="878.911" cy="355.266" r="4" fill="#0" id="circle200"/>
	<circle cx="878.911" cy="387.79" r="4" fill="#0" id="circle201"/>
	<circle cx="885.416" cy="543.908" r="4" fill="#0" id="circle202"/>
	<circle cx="885.416" cy="647.987" r="4" fill="#0" id="circle203"/>
	<circle cx="895.174" cy="745.561" r="4" fill="#0" id="circle204"/>
	<circle cx="898.426" cy="813.862" r="4" fill="#0" id="circle205"/>
	<circle cx="901.679" cy="573.18" r="4" fill="#0" id="circle206"/>
	<circle cx="901.679" cy="677.259" r="4" fill="#0" id="circle207"/>
	<circle cx="917.941" cy="647.987" r="4" fill="#0" id="circle208"/>
	<circle cx="927.698" cy="745.561" r="4" fill="#0" id="circle209"/>
	<circle cx="930.951" cy="813.862" r="4" fill="#0" id="circle210"/>
	<circle cx="960.223" cy="745.561" r="4" fill="#0" id="circle211"/>
	<circle cx="963.475" cy="823.62" r="4" fill="#0" id="circle212"/>
	<circle cx="992.748" cy="748.813" r="4" fill="#0" id="circle213"/>
	<circle cx="996" cy="781.338" r="4" fill="#0" id="circle214"/>
	<circle cx="996" cy="813.862" r="4" fill="#0" id="circle215"/>
	</g>
</svg>