<?xml version="1.0" encoding="UTF-8" standalone="no"?>
<!-- Created with CurveBenchmark -->
<svg
	xmlns:dc="http://purl.org/dc/elements/1.1/"
	xmlns:cc="http://creativecommons.org/ns#"
	xmlns:rdf="http://www.w3.org/1999/02/22-rdf-syntax-ns#"
	xmlns:svg="http://www.w3.org/2000/svg"
	xmlns="http://www.w3.org/2000/svg"
	xmlns:sodipodi="http://sodipodi.sourceforge.net/DTD/sodipodi-0.dtd"
	xmlns:inkscape="http://www.inkscape.org/namespaces/inkscape"
	width="1000"
	height="1000"
	id="svg2"
	version="1.1"
	sodipodi:docname="manifold/ccrust-breadknifebinary22.png.txt">
<defs
	id="defs4" />
<metadata
	id="metadata7">
	<rdf:RDF>
		<cc:Work
			rdf:about="">
			<dc:format>image/svg+xml</dc:format>
			<dc:type
				rdf:resource="http://purl.org/dc/dcmitype/StillImage" />
			<dc:title></dc:title>
		</cc:Work>
	</rdf:RDF>
</metadata>
<g
	inkscape:label="Layer 1"
	inkscape:groupmode="layer"
	id="layer1">
	<path style="fill:none;stroke:red;stroke-width:1px;stroke-linecap:butt;stroke-linejoin:miter;stroke-opacity:1" d="M 6.98795,63.759 4,33.8795 z" id="boundary" inkscape:connector-curvature="0" />
	<path style="fill:none;stroke:red;stroke-width:1px;stroke-linecap:butt;stroke-linejoin:miter;stroke-opacity:1" d="M 4,33.8795 24.9157,9.9759 z" id="boundary" inkscape:connector-curvature="0" />
	<path style="fill:none;stroke:red;stroke-width:1px;stroke-linecap:butt;stroke-linejoin:miter;stroke-opacity:1" d="M 24.9157,9.9759 54.7952,4 z" id="boundary" inkscape:connector-curvature="0" />
	<path style="fill:none;stroke:red;stroke-width:1px;stroke-linecap:butt;stroke-linejoin:miter;stroke-opacity:1" d="M 54.7952,4 84.6747,12.9639 z" id="boundary" inkscape:connector-curvature="0" />
	<path style="fill:none;stroke:red;stroke-width:1px;stroke-linecap:butt;stroke-linejoin:miter;stroke-opacity:1" d="M 21.9277,90.6506 6.98795,63.759 z" id="boundary" inkscape:connector-curvature="0" />
	<path style="fill:none;stroke:red;stroke-width:1px;stroke-linecap:butt;stroke-linejoin:miter;stroke-opacity:1" d="M 42.8434,114.554 72.7229,126.506 z" id="boundary" inkscape:connector-curvature="0" />
	<path style="fill:none;stroke:red;stroke-width:1px;stroke-linecap:butt;stroke-linejoin:miter;stroke-opacity:1" d="M 72.7229,126.506 99.6145,141.446 z" id="boundary" inkscape:connector-curvature="0" />
	<path style="fill:none;stroke:red;stroke-width:1px;stroke-linecap:butt;stroke-linejoin:miter;stroke-opacity:1" d="M 42.8434,114.554 21.9277,90.6506 z" id="boundary" inkscape:connector-curvature="0" />
	<path style="fill:none;stroke:red;stroke-width:1px;stroke-linecap:butt;stroke-linejoin:miter;stroke-opacity:1" d="M 84.6747,12.9639 111.566,27.9036 z" id="boundary" inkscape:connector-curvature="0" />
	<path style="fill:none;stroke:red;stroke-width:1px;stroke-linecap:butt;stroke-linejoin:miter;stroke-opacity:1" d="M 138.458,42.8434 162.361,60.7711 z" id="boundary" inkscape:connector-curvature="0" />
	<path style="fill:none;stroke:red;stroke-width:1px;stroke-linecap:butt;stroke-linejoin:miter;stroke-opacity:1" d="M 162.361,60.7711 189.253,75.7108 z" id="boundary" inkscape:connector-curvature="0" />
	<path style="fill:none;stroke:red;stroke-width:1px;stroke-linecap:butt;stroke-linejoin:miter;stroke-opacity:1" d="M 216.145,90.6506 189.253,75.7108 z" id="boundary" inkscape:connector-curvature="0" />
	<path style="fill:none;stroke:red;stroke-width:1px;stroke-linecap:butt;stroke-linejoin:miter;stroke-opacity:1" d="M 153.398,171.325 129.494,153.398 z" id="boundary" inkscape:connector-curvature="0" />
	<path style="fill:none;stroke:red;stroke-width:1px;stroke-linecap:butt;stroke-linejoin:miter;stroke-opacity:1" d="M 129.494,153.398 99.6145,141.446 z" id="boundary" inkscape:connector-curvature="0" />
	<path style="fill:none;stroke:red;stroke-width:1px;stroke-linecap:butt;stroke-linejoin:miter;stroke-opacity:1" d="M 216.145,90.6506 240.048,108.578 z" id="boundary" inkscape:connector-curvature="0" />
	<path style="fill:none;stroke:red;stroke-width:1px;stroke-linecap:butt;stroke-linejoin:miter;stroke-opacity:1" d="M 266.94,123.518 293.831,138.458 z" id="boundary" inkscape:connector-curvature="0" />
	<path style="fill:none;stroke:red;stroke-width:1px;stroke-linecap:butt;stroke-linejoin:miter;stroke-opacity:1" d="M 317.735,156.386 293.831,138.458 z" id="boundary" inkscape:connector-curvature="0" />
	<path style="fill:none;stroke:red;stroke-width:1px;stroke-linecap:butt;stroke-linejoin:miter;stroke-opacity:1" d="M 344.627,171.325 317.735,156.386 z" id="boundary" inkscape:connector-curvature="0" />
	<path style="fill:none;stroke:red;stroke-width:1px;stroke-linecap:butt;stroke-linejoin:miter;stroke-opacity:1" d="M 240.048,108.578 266.94,123.518 z" id="boundary" inkscape:connector-curvature="0" />
	<path style="fill:none;stroke:red;stroke-width:1px;stroke-linecap:butt;stroke-linejoin:miter;stroke-opacity:1" d="M 111.566,27.9036 138.458,42.8434 z" id="boundary" inkscape:connector-curvature="0" />
	<path style="fill:none;stroke:red;stroke-width:1px;stroke-linecap:butt;stroke-linejoin:miter;stroke-opacity:1" d="M 153.398,171.325 180.289,186.265 z" id="boundary" inkscape:connector-curvature="0" />
	<path style="fill:none;stroke:red;stroke-width:1px;stroke-linecap:butt;stroke-linejoin:miter;stroke-opacity:1" d="M 234.072,216.145 207.181,201.205 z" id="boundary" inkscape:connector-curvature="0" />
	<path style="fill:none;stroke:red;stroke-width:1px;stroke-linecap:butt;stroke-linejoin:miter;stroke-opacity:1" d="M 207.181,201.205 180.289,186.265 z" id="boundary" inkscape:connector-curvature="0" />
	<path style="fill:none;stroke:red;stroke-width:1px;stroke-linecap:butt;stroke-linejoin:miter;stroke-opacity:1" d="M 234.072,216.145 263.952,228.096 z" id="boundary" inkscape:connector-curvature="0" />
	<path style="fill:none;stroke:red;stroke-width:1px;stroke-linecap:butt;stroke-linejoin:miter;stroke-opacity:1" d="M 263.952,228.096 287.855,246.024 z" id="boundary" inkscape:connector-curvature="0" />
	<path style="fill:none;stroke:red;stroke-width:1px;stroke-linecap:butt;stroke-linejoin:miter;stroke-opacity:1" d="M 311.759,266.94 287.855,246.024 z" id="boundary" inkscape:connector-curvature="0" />
	<path style="fill:none;stroke:red;stroke-width:1px;stroke-linecap:butt;stroke-linejoin:miter;stroke-opacity:1" d="M 311.759,266.94 341.639,269.928 z" id="boundary" inkscape:connector-curvature="0" />
	<path style="fill:none;stroke:red;stroke-width:1px;stroke-linecap:butt;stroke-linejoin:miter;stroke-opacity:1" d="M 341.639,269.928 368.53,284.867 z" id="boundary" inkscape:connector-curvature="0" />
	<path style="fill:none;stroke:red;stroke-width:1px;stroke-linecap:butt;stroke-linejoin:miter;stroke-opacity:1" d="M 344.627,171.325 371.518,186.265 z" id="boundary" inkscape:connector-curvature="0" />
	<path style="fill:none;stroke:red;stroke-width:1px;stroke-linecap:butt;stroke-linejoin:miter;stroke-opacity:1" d="M 395.422,204.193 371.518,186.265 z" id="boundary" inkscape:connector-curvature="0" />
	<path style="fill:none;stroke:red;stroke-width:1px;stroke-linecap:butt;stroke-linejoin:miter;stroke-opacity:1" d="M 470.12,249.012 440.241,246.024 z" id="boundary" inkscape:connector-curvature="0" />
	<path style="fill:none;stroke:red;stroke-width:1px;stroke-linecap:butt;stroke-linejoin:miter;stroke-opacity:1" d="M 440.241,246.024 416.337,228.096 z" id="boundary" inkscape:connector-curvature="0" />
	<path style="fill:none;stroke:red;stroke-width:1px;stroke-linecap:butt;stroke-linejoin:miter;stroke-opacity:1" d="M 416.337,228.096 395.422,204.193 z" id="boundary" inkscape:connector-curvature="0" />
	<path style="fill:none;stroke:red;stroke-width:1px;stroke-linecap:butt;stroke-linejoin:miter;stroke-opacity:1" d="M 497.012,263.952 470.12,249.012 z" id="boundary" inkscape:connector-curvature="0" />
	<path style="fill:none;stroke:red;stroke-width:1px;stroke-linecap:butt;stroke-linejoin:miter;stroke-opacity:1" d="M 368.53,284.867 398.41,296.819 z" id="boundary" inkscape:connector-curvature="0" />
	<path style="fill:none;stroke:red;stroke-width:1px;stroke-linecap:butt;stroke-linejoin:miter;stroke-opacity:1" d="M 398.41,296.819 425.301,311.759 z" id="boundary" inkscape:connector-curvature="0" />
	<path style="fill:none;stroke:red;stroke-width:1px;stroke-linecap:butt;stroke-linejoin:miter;stroke-opacity:1" d="M 425.301,311.759 452.193,326.699 z" id="boundary" inkscape:connector-curvature="0" />
	<path style="fill:none;stroke:red;stroke-width:1px;stroke-linecap:butt;stroke-linejoin:miter;stroke-opacity:1" d="M 479.084,341.639 452.193,326.699 z" id="boundary" inkscape:connector-curvature="0" />
	<path style="fill:none;stroke:red;stroke-width:1px;stroke-linecap:butt;stroke-linejoin:miter;stroke-opacity:1" d="M 479.084,341.639 505.976,356.578 z" id="boundary" inkscape:connector-curvature="0" />
	<path style="fill:none;stroke:red;stroke-width:1px;stroke-linecap:butt;stroke-linejoin:miter;stroke-opacity:1" d="M 523.904,278.892 497.012,263.952 z" id="boundary" inkscape:connector-curvature="0" />
	<path style="fill:none;stroke:red;stroke-width:1px;stroke-linecap:butt;stroke-linejoin:miter;stroke-opacity:1" d="M 550.795,293.831 577.687,308.771 z" id="boundary" inkscape:connector-curvature="0" />
	<path style="fill:none;stroke:red;stroke-width:1px;stroke-linecap:butt;stroke-linejoin:miter;stroke-opacity:1" d="M 550.795,293.831 523.904,278.892 z" id="boundary" inkscape:connector-curvature="0" />
	<path style="fill:none;stroke:red;stroke-width:1px;stroke-linecap:butt;stroke-linejoin:miter;stroke-opacity:1" d="M 505.976,356.578 535.855,368.53 z" id="boundary" inkscape:connector-curvature="0" />
	<path style="fill:none;stroke:red;stroke-width:1px;stroke-linecap:butt;stroke-linejoin:miter;stroke-opacity:1" d="M 535.855,368.53 562.747,383.47 z" id="boundary" inkscape:connector-curvature="0" />
	<path style="fill:none;stroke:red;stroke-width:1px;stroke-linecap:butt;stroke-linejoin:miter;stroke-opacity:1" d="M 589.639,398.41 562.747,383.47 z" id="boundary" inkscape:connector-curvature="0" />
	<path style="fill:none;stroke:red;stroke-width:1px;stroke-linecap:butt;stroke-linejoin:miter;stroke-opacity:1" d="M 604.578,323.711 631.47,338.651 z" id="boundary" inkscape:connector-curvature="0" />
	<path style="fill:none;stroke:red;stroke-width:1px;stroke-linecap:butt;stroke-linejoin:miter;stroke-opacity:1" d="M 577.687,308.771 604.578,323.711 z" id="boundary" inkscape:connector-curvature="0" />
	<path style="fill:none;stroke:red;stroke-width:1px;stroke-linecap:butt;stroke-linejoin:miter;stroke-opacity:1" d="M 589.639,398.41 616.53,413.349 z" id="boundary" inkscape:connector-curvature="0" />
	<path style="fill:none;stroke:red;stroke-width:1px;stroke-linecap:butt;stroke-linejoin:miter;stroke-opacity:1" d="M 631.47,338.651 658.361,353.59 z" id="boundary" inkscape:connector-curvature="0" />
	<path style="fill:none;stroke:red;stroke-width:1px;stroke-linecap:butt;stroke-linejoin:miter;stroke-opacity:1" d="M 682.265,371.518 709.157,386.458 z" id="boundary" inkscape:connector-curvature="0" />
	<path style="fill:none;stroke:red;stroke-width:1px;stroke-linecap:butt;stroke-linejoin:miter;stroke-opacity:1" d="M 682.265,371.518 658.361,353.59 z" id="boundary" inkscape:connector-curvature="0" />
	<path style="fill:none;stroke:red;stroke-width:1px;stroke-linecap:butt;stroke-linejoin:miter;stroke-opacity:1" d="M 736.048,401.398 709.157,386.458 z" id="boundary" inkscape:connector-curvature="0" />
	<path style="fill:none;stroke:red;stroke-width:1px;stroke-linecap:butt;stroke-linejoin:miter;stroke-opacity:1" d="M 697.205,458.169 670.313,443.229 z" id="boundary" inkscape:connector-curvature="0" />
	<path style="fill:none;stroke:red;stroke-width:1px;stroke-linecap:butt;stroke-linejoin:miter;stroke-opacity:1" d="M 762.94,416.337 736.048,401.398 z" id="boundary" inkscape:connector-curvature="0" />
	<path style="fill:none;stroke:red;stroke-width:1px;stroke-linecap:butt;stroke-linejoin:miter;stroke-opacity:1" d="M 643.422,428.289 616.53,413.349 z" id="boundary" inkscape:connector-curvature="0" />
	<path style="fill:none;stroke:red;stroke-width:1px;stroke-linecap:butt;stroke-linejoin:miter;stroke-opacity:1" d="M 670.313,443.229 643.422,428.289 z" id="boundary" inkscape:connector-curvature="0" />
	<path style="fill:none;stroke:red;stroke-width:1px;stroke-linecap:butt;stroke-linejoin:miter;stroke-opacity:1" d="M 786.843,434.265 762.94,416.337 z" id="boundary" inkscape:connector-curvature="0" />
	<path style="fill:none;stroke:red;stroke-width:1px;stroke-linecap:butt;stroke-linejoin:miter;stroke-opacity:1" d="M 813.735,449.205 786.843,434.265 z" id="boundary" inkscape:connector-curvature="0" />
	<path style="fill:none;stroke:red;stroke-width:1px;stroke-linecap:butt;stroke-linejoin:miter;stroke-opacity:1" d="M 697.205,458.169 721.108,476.096 z" id="boundary" inkscape:connector-curvature="0" />
	<path style="fill:none;stroke:red;stroke-width:1px;stroke-linecap:butt;stroke-linejoin:miter;stroke-opacity:1" d="M 750.988,488.048 721.108,476.096 z" id="boundary" inkscape:connector-curvature="0" />
	<path style="fill:none;stroke:red;stroke-width:1px;stroke-linecap:butt;stroke-linejoin:miter;stroke-opacity:1" d="M 840.627,464.145 813.735,449.205 z" id="boundary" inkscape:connector-curvature="0" />
	<path style="fill:none;stroke:red;stroke-width:1px;stroke-linecap:butt;stroke-linejoin:miter;stroke-opacity:1" d="M 867.518,479.084 840.627,464.145 z" id="boundary" inkscape:connector-curvature="0" />
	<path style="fill:none;stroke:red;stroke-width:1px;stroke-linecap:butt;stroke-linejoin:miter;stroke-opacity:1" d="M 777.88,502.988 750.988,488.048 z" id="boundary" inkscape:connector-curvature="0" />
	<path style="fill:none;stroke:red;stroke-width:1px;stroke-linecap:butt;stroke-linejoin:miter;stroke-opacity:1" d="M 828.675,535.855 804.771,517.928 z" id="boundary" inkscape:connector-curvature="0" />
	<path style="fill:none;stroke:red;stroke-width:1px;stroke-linecap:butt;stroke-linejoin:miter;stroke-opacity:1" d="M 858.554,547.807 828.675,535.855 z" id="boundary" inkscape:connector-curvature="0" />
	<path style="fill:none;stroke:red;stroke-width:1px;stroke-linecap:butt;stroke-linejoin:miter;stroke-opacity:1" d="M 858.554,547.807 885.446,562.747 z" id="boundary" inkscape:connector-curvature="0" />
	<path style="fill:none;stroke:red;stroke-width:1px;stroke-linecap:butt;stroke-linejoin:miter;stroke-opacity:1" d="M 777.88,502.988 804.771,517.928 z" id="boundary" inkscape:connector-curvature="0" />
	<path style="fill:none;stroke:red;stroke-width:1px;stroke-linecap:butt;stroke-linejoin:miter;stroke-opacity:1" d="M 867.518,479.084 894.41,494.024 z" id="boundary" inkscape:connector-curvature="0" />
	<path style="fill:none;stroke:red;stroke-width:1px;stroke-linecap:butt;stroke-linejoin:miter;stroke-opacity:1" d="M 894.41,494.024 918.313,511.952 z" id="boundary" inkscape:connector-curvature="0" />
	<path style="fill:none;stroke:red;stroke-width:1px;stroke-linecap:butt;stroke-linejoin:miter;stroke-opacity:1" d="M 945.205,526.892 918.313,511.952 z" id="boundary" inkscape:connector-curvature="0" />
	<path style="fill:none;stroke:red;stroke-width:1px;stroke-linecap:butt;stroke-linejoin:miter;stroke-opacity:1" d="M 945.205,526.892 972.096,541.831 z" id="boundary" inkscape:connector-curvature="0" />
	<path style="fill:none;stroke:red;stroke-width:1px;stroke-linecap:butt;stroke-linejoin:miter;stroke-opacity:1" d="M 972.096,541.831 996,559.759 z" id="boundary" inkscape:connector-curvature="0" />
	<path style="fill:none;stroke:red;stroke-width:1px;stroke-linecap:butt;stroke-linejoin:miter;stroke-opacity:1" d="M 885.446,562.747 912.337,577.687 z" id="boundary" inkscape:connector-curvature="0" />
	<path style="fill:none;stroke:red;stroke-width:1px;stroke-linecap:butt;stroke-linejoin:miter;stroke-opacity:1" d="M 966.12,607.566 939.229,592.627 z" id="boundary" inkscape:connector-curvature="0" />
	<path style="fill:none;stroke:red;stroke-width:1px;stroke-linecap:butt;stroke-linejoin:miter;stroke-opacity:1" d="M 939.229,592.627 912.337,577.687 z" id="boundary" inkscape:connector-curvature="0" />
	<path style="fill:none;stroke:red;stroke-width:1px;stroke-linecap:butt;stroke-linejoin:miter;stroke-opacity:1" d="M 996,559.759 996,604.578 z" id="boundary" inkscape:connector-curvature="0" />
	<path style="fill:none;stroke:red;stroke-width:1px;stroke-linecap:butt;stroke-linejoin:miter;stroke-opacity:1" d="M 996,604.578 966.12,607.566 z" id="boundary" inkscape:connector-curvature="0" />
	<circle cx="4" cy="33.8795" r="4" fill="#0" id="circle0"/>
	<circle cx="6.98795" cy="63.759" r="4" fill="#0" id="circle1"/>
	<circle cx="21.9277" cy="90.6506" r="4" fill="#0" id="circle2"/>
	<circle cx="24.9157" cy="9.9759" r="4" fill="#0" id="circle3"/>
	<circle cx="42.8434" cy="114.554" r="4" fill="#0" id="circle4"/>
	<circle cx="54.7952" cy="4" r="4" fill="#0" id="circle5"/>
	<circle cx="72.7229" cy="126.506" r="4" fill="#0" id="circle6"/>
	<circle cx="84.6747" cy="12.9639" r="4" fill="#0" id="circle7"/>
	<circle cx="99.6145" cy="141.446" r="4" fill="#0" id="circle8"/>
	<circle cx="111.566" cy="27.9036" r="4" fill="#0" id="circle9"/>
	<circle cx="129.494" cy="153.398" r="4" fill="#0" id="circle10"/>
	<circle cx="138.458" cy="42.8434" r="4" fill="#0" id="circle11"/>
	<circle cx="153.398" cy="171.325" r="4" fill="#0" id="circle12"/>
	<circle cx="162.361" cy="60.7711" r="4" fill="#0" id="circle13"/>
	<circle cx="180.289" cy="186.265" r="4" fill="#0" id="circle14"/>
	<circle cx="189.253" cy="75.7108" r="4" fill="#0" id="circle15"/>
	<circle cx="207.181" cy="201.205" r="4" fill="#0" id="circle16"/>
	<circle cx="216.145" cy="90.6506" r="4" fill="#0" id="circle17"/>
	<circle cx="234.072" cy="216.145" r="4" fill="#0" id="circle18"/>
	<circle cx="240.048" cy="108.578" r="4" fill="#0" id="circle19"/>
	<circle cx="263.952" cy="228.096" r="4" fill="#0" id="circle20"/>
	<circle cx="266.94" cy="123.518" r="4" fill="#0" id="circle21"/>
	<circle cx="287.855" cy="246.024" r="4" fill="#0" id="circle22"/>
	<circle cx="293.831" cy="138.458" r="4" fill="#0" id="circle23"/>
	<circle cx="311.759" cy="266.94" r="4" fill="#0" id="circle24"/>
	<circle cx="317.735" cy="156.386" r="4" fill="#0" id="circle25"/>
	<circle cx="341.639" cy="269.928" r="4" fill="#0" id="circle26"/>
	<circle cx="344.627" cy="171.325" r="4" fill="#0" id="circle27"/>
	<circle cx="368.53" cy="284.867" r="4" fill="#0" id="circle28"/>
	<circle cx="371.518" cy="186.265" r="4" fill="#0" id="circle29"/>
	<circle cx="395.422" cy="204.193" r="4" fill="#0" id="circle30"/>
	<circle cx="398.41" cy="296.819" r="4" fill="#0" id="circle31"/>
	<circle cx="416.337" cy="228.096" r="4" fill="#0" id="circle32"/>
	<circle cx="425.301" cy="311.759" r="4" fill="#0" id="circle33"/>
	<circle cx="440.241" cy="246.024" r="4" fill="#0" id="circle34"/>
	<circle cx="452.193" cy="326.699" r="4" fill="#0" id="circle35"/>
	<circle cx="470.12" cy="249.012" r="4" fill="#0" id="circle36"/>
	<circle cx="479.084" cy="341.639" r="4" fill="#0" id="circle37"/>
	<circle cx="497.012" cy="263.952" r="4" fill="#0" id="circle38"/>
	<circle cx="505.976" cy="356.578" r="4" fill="#0" id="circle39"/>
	<circle cx="523.904" cy="278.892" r="4" fill="#0" id="circle40"/>
	<circle cx="535.855" cy="368.53" r="4" fill="#0" id="circle41"/>
	<circle cx="550.795" cy="293.831" r="4" fill="#0" id="circle42"/>
	<circle cx="562.747" cy="383.47" r="4" fill="#0" id="circle43"/>
	<circle cx="577.687" cy="308.771" r="4" fill="#0" id="circle44"/>
	<circle cx="589.639" cy="398.41" r="4" fill="#0" id="circle45"/>
	<circle cx="604.578" cy="323.711" r="4" fill="#0" id="circle46"/>
	<circle cx="616.53" cy="413.349" r="4" fill="#0" id="circle47"/>
	<circle cx="631.47" cy="338.651" r="4" fill="#0" id="circle48"/>
	<circle cx="643.422" cy="428.289" r="4" fill="#0" id="circle49"/>
	<circle cx="658.361" cy="353.59" r="4" fill="#0" id="circle50"/>
	<circle cx="670.313" cy="443.229" r="4" fill="#0" id="circle51"/>
	<circle cx="682.265" cy="371.518" r="4" fill="#0" id="circle52"/>
	<circle cx="697.205" cy="458.169" r="4" fill="#0" id="circle53"/>
	<circle cx="709.157" cy="386.458" r="4" fill="#0" id="circle54"/>
	<circle cx="721.108" cy="476.096" r="4" fill="#0" id="circle55"/>
	<circle cx="736.048" cy="401.398" r="4" fill="#0" id="circle56"/>
	<circle cx="750.988" cy="488.048" r="4" fill="#0" id="circle57"/>
	<circle cx="762.94" cy="416.337" r="4" fill="#0" id="circle58"/>
	<circle cx="777.88" cy="502.988" r="4" fill="#0" id="circle59"/>
	<circle cx="786.843" cy="434.265" r="4" fill="#0" id="circle60"/>
	<circle cx="804.771" cy="517.928" r="4" fill="#0" id="circle61"/>
	<circle cx="813.735" cy="449.205" r="4" fill="#0" id="circle62"/>
	<circle cx="828.675" cy="535.855" r="4" fill="#0" id="circle63"/>
	<circle cx="840.627" cy="464.145" r="4" fill="#0" id="circle64"/>
	<circle cx="858.554" cy="547.807" r="4" fill="#0" id="circle65"/>
	<circle cx="867.518" cy="479.084" r="4" fill="#0" id="circle66"/>
	<circle cx="885.446" cy="562.747" r="4" fill="#0" id="circle67"/>
	<circle cx="894.41" cy="494.024" r="4" fill="#0" id="circle68"/>
	<circle cx="912.337" cy="577.687" r="4" fill="#0" id="circle69"/>
	<circle cx="918.313" cy="511.952" r="4" fill="#0" id="circle70"/>
	<circle cx="939.229" cy="592.627" r="4" fill="#0" id="circle71"/>
	<circle cx="945.205" cy="526.892" r="4" fill="#0" id="circle72"/>
	<circle cx="966.12" cy="607.566" r="4" fill="#0" id="circle73"/>
	<circle cx="972.096" cy="541.831" r="4" fill="#0" id="circle74"/>
	<circle cx="996" cy="559.759" r="4" fill="#0" id="circle75"/>
	<circle cx="996" cy="604.578" r="4" fill="#0" id="circle76"/>
	</g>
</svg>