<?xml version="1.0" encoding="UTF-8" standalone="no"?>
<!-- Created with CurveBenchmark -->
<svg
	xmlns:dc="http://purl.org/dc/elements/1.1/"
	xmlns:cc="http://creativecommons.org/ns#"
	xmlns:rdf="http://www.w3.org/1999/02/22-rdf-syntax-ns#"
	xmlns:svg="http://www.w3.org/2000/svg"
	xmlns="http://www.w3.org/2000/svg"
	xmlns:sodipodi="http://sodipodi.sourceforge.net/DTD/sodipodi-0.dtd"
	xmlns:inkscape="http://www.inkscape.org/namespaces/inkscape"
	width="1000"
	height="1000"
	id="svg2"
	version="1.1"
	sodipodi:docname="manifold/ccrust-fish185.png.txt">
<defs
	id="defs4" />
<metadata
	id="metadata7">
	<rdf:RDF>
		<cc:Work
			rdf:about="">
			<dc:format>image/svg+xml</dc:format>
			<dc:type
				rdf:resource="http://purl.org/dc/dcmitype/StillImage" />
			<dc:title></dc:title>
		</cc:Work>
	</rdf:RDF>
</metadata>
<g
	inkscape:label="Layer 1"
	inkscape:groupmode="layer"
	id="layer1">
	<path style="fill:none;stroke:red;stroke-width:1px;stroke-linecap:butt;stroke-linejoin:miter;stroke-opacity:1" d="M 12.4306,161.371 4,133.269 z" id="boundary" inkscape:connector-curvature="0" />
	<path style="fill:none;stroke:red;stroke-width:1px;stroke-linecap:butt;stroke-linejoin:miter;stroke-opacity:1" d="M 4,133.269 32.102,122.028 z" id="boundary" inkscape:connector-curvature="0" />
	<path style="fill:none;stroke:red;stroke-width:1px;stroke-linecap:butt;stroke-linejoin:miter;stroke-opacity:1" d="M 32.102,122.028 60.204,127.649 z" id="boundary" inkscape:connector-curvature="0" />
	<path style="fill:none;stroke:red;stroke-width:1px;stroke-linecap:butt;stroke-linejoin:miter;stroke-opacity:1" d="M 88.3059,138.89 60.204,127.649 z" id="boundary" inkscape:connector-curvature="0" />
	<path style="fill:none;stroke:red;stroke-width:1px;stroke-linecap:butt;stroke-linejoin:miter;stroke-opacity:1" d="M 116.408,150.13 88.3059,138.89 z" id="boundary" inkscape:connector-curvature="0" />
	<path style="fill:none;stroke:red;stroke-width:1px;stroke-linecap:butt;stroke-linejoin:miter;stroke-opacity:1" d="M 12.4306,161.371 20.8612,189.473 z" id="boundary" inkscape:connector-curvature="0" />
	<path style="fill:none;stroke:red;stroke-width:1px;stroke-linecap:butt;stroke-linejoin:miter;stroke-opacity:1" d="M 26.4816,217.575 20.8612,189.473 z" id="boundary" inkscape:connector-curvature="0" />
	<path style="fill:none;stroke:red;stroke-width:1px;stroke-linecap:butt;stroke-linejoin:miter;stroke-opacity:1" d="M 223.195,166.992 197.904,183.853 z" id="boundary" inkscape:connector-curvature="0" />
	<path style="fill:none;stroke:red;stroke-width:1px;stroke-linecap:butt;stroke-linejoin:miter;stroke-opacity:1" d="M 197.904,183.853 169.802,175.422 z" id="boundary" inkscape:connector-curvature="0" />
	<path style="fill:none;stroke:red;stroke-width:1px;stroke-linecap:butt;stroke-linejoin:miter;stroke-opacity:1" d="M 169.802,175.422 144.51,161.371 z" id="boundary" inkscape:connector-curvature="0" />
	<path style="fill:none;stroke:red;stroke-width:1px;stroke-linecap:butt;stroke-linejoin:miter;stroke-opacity:1" d="M 116.408,150.13 144.51,161.371 z" id="boundary" inkscape:connector-curvature="0" />
	<path style="fill:none;stroke:red;stroke-width:1px;stroke-linecap:butt;stroke-linejoin:miter;stroke-opacity:1" d="M 26.4816,217.575 26.4816,245.677 z" id="boundary" inkscape:connector-curvature="0" />
	<path style="fill:none;stroke:red;stroke-width:1px;stroke-linecap:butt;stroke-linejoin:miter;stroke-opacity:1" d="M 307.501,88.3059 335.603,77.0652 z" id="boundary" inkscape:connector-curvature="0" />
	<path style="fill:none;stroke:red;stroke-width:1px;stroke-linecap:butt;stroke-linejoin:miter;stroke-opacity:1" d="M 335.603,77.0652 363.705,82.6856 z" id="boundary" inkscape:connector-curvature="0" />
	<path style="fill:none;stroke:red;stroke-width:1px;stroke-linecap:butt;stroke-linejoin:miter;stroke-opacity:1" d="M 391.807,91.1161 363.705,82.6856 z" id="boundary" inkscape:connector-curvature="0" />
	<path style="fill:none;stroke:red;stroke-width:1px;stroke-linecap:butt;stroke-linejoin:miter;stroke-opacity:1" d="M 467.683,71.4448 445.201,91.1161 z" id="boundary" inkscape:connector-curvature="0" />
	<path style="fill:none;stroke:red;stroke-width:1px;stroke-linecap:butt;stroke-linejoin:miter;stroke-opacity:1" d="M 285.02,105.167 307.501,88.3059 z" id="boundary" inkscape:connector-curvature="0" />
	<path style="fill:none;stroke:red;stroke-width:1px;stroke-linecap:butt;stroke-linejoin:miter;stroke-opacity:1" d="M 223.195,166.992 240.057,144.51 z" id="boundary" inkscape:connector-curvature="0" />
	<path style="fill:none;stroke:red;stroke-width:1px;stroke-linecap:butt;stroke-linejoin:miter;stroke-opacity:1" d="M 262.538,122.028 240.057,144.51 z" id="boundary" inkscape:connector-curvature="0" />
	<path style="fill:none;stroke:red;stroke-width:1px;stroke-linecap:butt;stroke-linejoin:miter;stroke-opacity:1" d="M 391.807,91.1161 417.099,105.167 z" id="boundary" inkscape:connector-curvature="0" />
	<path style="fill:none;stroke:red;stroke-width:1px;stroke-linecap:butt;stroke-linejoin:miter;stroke-opacity:1" d="M 445.201,91.1161 417.099,105.167 z" id="boundary" inkscape:connector-curvature="0" />
	<path style="fill:none;stroke:red;stroke-width:1px;stroke-linecap:butt;stroke-linejoin:miter;stroke-opacity:1" d="M 262.538,122.028 285.02,105.167 z" id="boundary" inkscape:connector-curvature="0" />
	<path style="fill:none;stroke:red;stroke-width:1px;stroke-linecap:butt;stroke-linejoin:miter;stroke-opacity:1" d="M 501.405,355.275 473.303,349.654 z" id="boundary" inkscape:connector-curvature="0" />
	<path style="fill:none;stroke:red;stroke-width:1px;stroke-linecap:butt;stroke-linejoin:miter;stroke-opacity:1" d="M 20.8612,273.779 26.4816,245.677 z" id="boundary" inkscape:connector-curvature="0" />
	<path style="fill:none;stroke:red;stroke-width:1px;stroke-linecap:butt;stroke-linejoin:miter;stroke-opacity:1" d="M 20.8612,273.779 9.6204,313.122 z" id="boundary" inkscape:connector-curvature="0" />
	<path style="fill:none;stroke:red;stroke-width:1px;stroke-linecap:butt;stroke-linejoin:miter;stroke-opacity:1" d="M 158.561,290.64 183.853,276.589 z" id="boundary" inkscape:connector-curvature="0" />
	<path style="fill:none;stroke:red;stroke-width:1px;stroke-linecap:butt;stroke-linejoin:miter;stroke-opacity:1" d="M 136.079,307.501 158.561,290.64 z" id="boundary" inkscape:connector-curvature="0" />
	<path style="fill:none;stroke:red;stroke-width:1px;stroke-linecap:butt;stroke-linejoin:miter;stroke-opacity:1" d="M 211.955,276.589 183.853,276.589 z" id="boundary" inkscape:connector-curvature="0" />
	<path style="fill:none;stroke:red;stroke-width:1px;stroke-linecap:butt;stroke-linejoin:miter;stroke-opacity:1" d="M 51.7734,338.414 23.6714,338.414 z" id="boundary" inkscape:connector-curvature="0" />
	<path style="fill:none;stroke:red;stroke-width:1px;stroke-linecap:butt;stroke-linejoin:miter;stroke-opacity:1" d="M 23.6714,338.414 9.6204,313.122 z" id="boundary" inkscape:connector-curvature="0" />
	<path style="fill:none;stroke:red;stroke-width:1px;stroke-linecap:butt;stroke-linejoin:miter;stroke-opacity:1" d="M 79.8754,332.793 51.7734,338.414 z" id="boundary" inkscape:connector-curvature="0" />
	<path style="fill:none;stroke:red;stroke-width:1px;stroke-linecap:butt;stroke-linejoin:miter;stroke-opacity:1" d="M 107.977,321.552 79.8754,332.793 z" id="boundary" inkscape:connector-curvature="0" />
	<path style="fill:none;stroke:red;stroke-width:1px;stroke-linecap:butt;stroke-linejoin:miter;stroke-opacity:1" d="M 107.977,321.552 136.079,307.501 z" id="boundary" inkscape:connector-curvature="0" />
	<path style="fill:none;stroke:red;stroke-width:1px;stroke-linecap:butt;stroke-linejoin:miter;stroke-opacity:1" d="M 211.955,276.589 223.195,304.691 z" id="boundary" inkscape:connector-curvature="0" />
	<path style="fill:none;stroke:red;stroke-width:1px;stroke-linecap:butt;stroke-linejoin:miter;stroke-opacity:1" d="M 223.195,304.691 234.436,332.793 z" id="boundary" inkscape:connector-curvature="0" />
	<path style="fill:none;stroke:red;stroke-width:1px;stroke-linecap:butt;stroke-linejoin:miter;stroke-opacity:1" d="M 417.099,349.654 388.997,344.034 z" id="boundary" inkscape:connector-curvature="0" />
	<path style="fill:none;stroke:red;stroke-width:1px;stroke-linecap:butt;stroke-linejoin:miter;stroke-opacity:1" d="M 445.201,349.654 417.099,349.654 z" id="boundary" inkscape:connector-curvature="0" />
	<path style="fill:none;stroke:red;stroke-width:1px;stroke-linecap:butt;stroke-linejoin:miter;stroke-opacity:1" d="M 360.895,352.465 388.997,344.034 z" id="boundary" inkscape:connector-curvature="0" />
	<path style="fill:none;stroke:red;stroke-width:1px;stroke-linecap:butt;stroke-linejoin:miter;stroke-opacity:1" d="M 276.589,366.516 248.487,358.085 z" id="boundary" inkscape:connector-curvature="0" />
	<path style="fill:none;stroke:red;stroke-width:1px;stroke-linecap:butt;stroke-linejoin:miter;stroke-opacity:1" d="M 248.487,358.085 234.436,332.793 z" id="boundary" inkscape:connector-curvature="0" />
	<path style="fill:none;stroke:red;stroke-width:1px;stroke-linecap:butt;stroke-linejoin:miter;stroke-opacity:1" d="M 304.691,366.516 276.589,366.516 z" id="boundary" inkscape:connector-curvature="0" />
	<path style="fill:none;stroke:red;stroke-width:1px;stroke-linecap:butt;stroke-linejoin:miter;stroke-opacity:1" d="M 332.793,360.895 360.895,352.465 z" id="boundary" inkscape:connector-curvature="0" />
	<path style="fill:none;stroke:red;stroke-width:1px;stroke-linecap:butt;stroke-linejoin:miter;stroke-opacity:1" d="M 332.793,360.895 304.691,366.516 z" id="boundary" inkscape:connector-curvature="0" />
	<path style="fill:none;stroke:red;stroke-width:1px;stroke-linecap:butt;stroke-linejoin:miter;stroke-opacity:1" d="M 445.201,349.654 473.303,349.654 z" id="boundary" inkscape:connector-curvature="0" />
	<path style="fill:none;stroke:red;stroke-width:1px;stroke-linecap:butt;stroke-linejoin:miter;stroke-opacity:1" d="M 467.683,71.4448 495.785,63.0142 z" id="boundary" inkscape:connector-curvature="0" />
	<path style="fill:none;stroke:red;stroke-width:1px;stroke-linecap:butt;stroke-linejoin:miter;stroke-opacity:1" d="M 577.28,34.9122 605.382,29.2918 z" id="boundary" inkscape:connector-curvature="0" />
	<path style="fill:none;stroke:red;stroke-width:1px;stroke-linecap:butt;stroke-linejoin:miter;stroke-opacity:1" d="M 627.864,9.6204 605.382,29.2918 z" id="boundary" inkscape:connector-curvature="0" />
	<path style="fill:none;stroke:red;stroke-width:1px;stroke-linecap:butt;stroke-linejoin:miter;stroke-opacity:1" d="M 627.864,9.6204 655.966,4 z" id="boundary" inkscape:connector-curvature="0" />
	<path style="fill:none;stroke:red;stroke-width:1px;stroke-linecap:butt;stroke-linejoin:miter;stroke-opacity:1" d="M 655.966,4 672.827,26.4816 z" id="boundary" inkscape:connector-curvature="0" />
	<path style="fill:none;stroke:red;stroke-width:1px;stroke-linecap:butt;stroke-linejoin:miter;stroke-opacity:1" d="M 577.28,34.9122 549.178,37.7224 z" id="boundary" inkscape:connector-curvature="0" />
	<path style="fill:none;stroke:red;stroke-width:1px;stroke-linecap:butt;stroke-linejoin:miter;stroke-opacity:1" d="M 672.827,26.4816 686.878,51.7734 z" id="boundary" inkscape:connector-curvature="0" />
	<path style="fill:none;stroke:red;stroke-width:1px;stroke-linecap:butt;stroke-linejoin:miter;stroke-opacity:1" d="M 549.178,37.7224 523.887,51.7734 z" id="boundary" inkscape:connector-curvature="0" />
	<path style="fill:none;stroke:red;stroke-width:1px;stroke-linecap:butt;stroke-linejoin:miter;stroke-opacity:1" d="M 523.887,51.7734 495.785,63.0142 z" id="boundary" inkscape:connector-curvature="0" />
	<path style="fill:none;stroke:red;stroke-width:1px;stroke-linecap:butt;stroke-linejoin:miter;stroke-opacity:1" d="M 686.878,51.7734 709.36,71.4448 z" id="boundary" inkscape:connector-curvature="0" />
	<path style="fill:none;stroke:red;stroke-width:1px;stroke-linecap:butt;stroke-linejoin:miter;stroke-opacity:1" d="M 709.36,71.4448 712.17,99.5467 z" id="boundary" inkscape:connector-curvature="0" />
	<path style="fill:none;stroke:red;stroke-width:1px;stroke-linecap:butt;stroke-linejoin:miter;stroke-opacity:1" d="M 740.272,105.167 712.17,99.5467 z" id="boundary" inkscape:connector-curvature="0" />
	<path style="fill:none;stroke:red;stroke-width:1px;stroke-linecap:butt;stroke-linejoin:miter;stroke-opacity:1" d="M 740.272,105.167 768.374,110.788 z" id="boundary" inkscape:connector-curvature="0" />
	<path style="fill:none;stroke:red;stroke-width:1px;stroke-linecap:butt;stroke-linejoin:miter;stroke-opacity:1" d="M 768.374,110.788 796.476,116.408 z" id="boundary" inkscape:connector-curvature="0" />
	<path style="fill:none;stroke:red;stroke-width:1px;stroke-linecap:butt;stroke-linejoin:miter;stroke-opacity:1" d="M 824.578,127.649 796.476,116.408 z" id="boundary" inkscape:connector-curvature="0" />
	<path style="fill:none;stroke:red;stroke-width:1px;stroke-linecap:butt;stroke-linejoin:miter;stroke-opacity:1" d="M 852.68,138.89 824.578,127.649 z" id="boundary" inkscape:connector-curvature="0" />
	<path style="fill:none;stroke:red;stroke-width:1px;stroke-linecap:butt;stroke-linejoin:miter;stroke-opacity:1" d="M 880.782,147.32 852.68,138.89 z" id="boundary" inkscape:connector-curvature="0" />
	<path style="fill:none;stroke:red;stroke-width:1px;stroke-linecap:butt;stroke-linejoin:miter;stroke-opacity:1" d="M 934.176,166.992 906.074,161.371 z" id="boundary" inkscape:connector-curvature="0" />
	<path style="fill:none;stroke:red;stroke-width:1px;stroke-linecap:butt;stroke-linejoin:miter;stroke-opacity:1" d="M 906.074,161.371 880.782,147.32 z" id="boundary" inkscape:connector-curvature="0" />
	<path style="fill:none;stroke:red;stroke-width:1px;stroke-linecap:butt;stroke-linejoin:miter;stroke-opacity:1" d="M 959.467,181.042 984.759,195.093 z" id="boundary" inkscape:connector-curvature="0" />
	<path style="fill:none;stroke:red;stroke-width:1px;stroke-linecap:butt;stroke-linejoin:miter;stroke-opacity:1" d="M 934.176,166.992 959.467,181.042 z" id="boundary" inkscape:connector-curvature="0" />
	<path style="fill:none;stroke:red;stroke-width:1px;stroke-linecap:butt;stroke-linejoin:miter;stroke-opacity:1" d="M 984.759,195.093 996,228.816 z" id="boundary" inkscape:connector-curvature="0" />
	<path style="fill:none;stroke:red;stroke-width:1px;stroke-linecap:butt;stroke-linejoin:miter;stroke-opacity:1" d="M 996,228.816 973.518,251.297 z" id="boundary" inkscape:connector-curvature="0" />
	<path style="fill:none;stroke:red;stroke-width:1px;stroke-linecap:butt;stroke-linejoin:miter;stroke-opacity:1" d="M 501.405,355.275 529.507,355.275 z" id="boundary" inkscape:connector-curvature="0" />
	<path style="fill:none;stroke:red;stroke-width:1px;stroke-linecap:butt;stroke-linejoin:miter;stroke-opacity:1" d="M 709.36,374.946 692.499,403.048 z" id="boundary" inkscape:connector-curvature="0" />
	<path style="fill:none;stroke:red;stroke-width:1px;stroke-linecap:butt;stroke-linejoin:miter;stroke-opacity:1" d="M 566.04,383.377 557.609,355.275 z" id="boundary" inkscape:connector-curvature="0" />
	<path style="fill:none;stroke:red;stroke-width:1px;stroke-linecap:butt;stroke-linejoin:miter;stroke-opacity:1" d="M 692.499,403.048 672.827,428.34 z" id="boundary" inkscape:connector-curvature="0" />
	<path style="fill:none;stroke:red;stroke-width:1px;stroke-linecap:butt;stroke-linejoin:miter;stroke-opacity:1" d="M 529.507,355.275 557.609,355.275 z" id="boundary" inkscape:connector-curvature="0" />
	<path style="fill:none;stroke:red;stroke-width:1px;stroke-linecap:butt;stroke-linejoin:miter;stroke-opacity:1" d="M 566.04,383.377 566.04,411.479 z" id="boundary" inkscape:connector-curvature="0" />
	<path style="fill:none;stroke:red;stroke-width:1px;stroke-linecap:butt;stroke-linejoin:miter;stroke-opacity:1" d="M 594.142,456.442 571.66,439.581 z" id="boundary" inkscape:connector-curvature="0" />
	<path style="fill:none;stroke:red;stroke-width:1px;stroke-linecap:butt;stroke-linejoin:miter;stroke-opacity:1" d="M 571.66,439.581 566.04,411.479 z" id="boundary" inkscape:connector-curvature="0" />
	<path style="fill:none;stroke:red;stroke-width:1px;stroke-linecap:butt;stroke-linejoin:miter;stroke-opacity:1" d="M 622.244,459.252 594.142,456.442 z" id="boundary" inkscape:connector-curvature="0" />
	<path style="fill:none;stroke:red;stroke-width:1px;stroke-linecap:butt;stroke-linejoin:miter;stroke-opacity:1" d="M 650.346,445.201 622.244,459.252 z" id="boundary" inkscape:connector-curvature="0" />
	<path style="fill:none;stroke:red;stroke-width:1px;stroke-linecap:butt;stroke-linejoin:miter;stroke-opacity:1" d="M 650.346,445.201 672.827,428.34 z" id="boundary" inkscape:connector-curvature="0" />
	<path style="fill:none;stroke:red;stroke-width:1px;stroke-linecap:butt;stroke-linejoin:miter;stroke-opacity:1" d="M 875.161,321.552 903.263,310.312 z" id="boundary" inkscape:connector-curvature="0" />
	<path style="fill:none;stroke:red;stroke-width:1px;stroke-linecap:butt;stroke-linejoin:miter;stroke-opacity:1" d="M 928.555,296.261 903.263,310.312 z" id="boundary" inkscape:connector-curvature="0" />
	<path style="fill:none;stroke:red;stroke-width:1px;stroke-linecap:butt;stroke-linejoin:miter;stroke-opacity:1" d="M 951.037,273.779 928.555,296.261 z" id="boundary" inkscape:connector-curvature="0" />
	<path style="fill:none;stroke:red;stroke-width:1px;stroke-linecap:butt;stroke-linejoin:miter;stroke-opacity:1" d="M 875.161,321.552 847.059,332.793 z" id="boundary" inkscape:connector-curvature="0" />
	<path style="fill:none;stroke:red;stroke-width:1px;stroke-linecap:butt;stroke-linejoin:miter;stroke-opacity:1" d="M 709.36,374.946 734.652,360.895 z" id="boundary" inkscape:connector-curvature="0" />
	<path style="fill:none;stroke:red;stroke-width:1px;stroke-linecap:butt;stroke-linejoin:miter;stroke-opacity:1" d="M 734.652,360.895 762.754,360.895 z" id="boundary" inkscape:connector-curvature="0" />
	<path style="fill:none;stroke:red;stroke-width:1px;stroke-linecap:butt;stroke-linejoin:miter;stroke-opacity:1" d="M 762.754,360.895 790.856,355.275 z" id="boundary" inkscape:connector-curvature="0" />
	<path style="fill:none;stroke:red;stroke-width:1px;stroke-linecap:butt;stroke-linejoin:miter;stroke-opacity:1" d="M 790.856,355.275 818.958,344.034 z" id="boundary" inkscape:connector-curvature="0" />
	<path style="fill:none;stroke:red;stroke-width:1px;stroke-linecap:butt;stroke-linejoin:miter;stroke-opacity:1" d="M 818.958,344.034 847.059,332.793 z" id="boundary" inkscape:connector-curvature="0" />
	<path style="fill:none;stroke:red;stroke-width:1px;stroke-linecap:butt;stroke-linejoin:miter;stroke-opacity:1" d="M 973.518,251.297 951.037,273.779 z" id="boundary" inkscape:connector-curvature="0" />
	<circle cx="4" cy="133.269" r="4" fill="#0" id="circle0"/>
	<circle cx="9.6204" cy="313.122" r="4" fill="#0" id="circle1"/>
	<circle cx="12.4306" cy="161.371" r="4" fill="#0" id="circle2"/>
	<circle cx="20.8612" cy="189.473" r="4" fill="#0" id="circle3"/>
	<circle cx="20.8612" cy="273.779" r="4" fill="#0" id="circle4"/>
	<circle cx="23.6714" cy="338.414" r="4" fill="#0" id="circle5"/>
	<circle cx="26.4816" cy="217.575" r="4" fill="#0" id="circle6"/>
	<circle cx="26.4816" cy="245.677" r="4" fill="#0" id="circle7"/>
	<circle cx="32.102" cy="122.028" r="4" fill="#0" id="circle8"/>
	<circle cx="51.7734" cy="338.414" r="4" fill="#0" id="circle9"/>
	<circle cx="60.204" cy="127.649" r="4" fill="#0" id="circle10"/>
	<circle cx="79.8754" cy="332.793" r="4" fill="#0" id="circle11"/>
	<circle cx="88.3059" cy="138.89" r="4" fill="#0" id="circle12"/>
	<circle cx="107.977" cy="321.552" r="4" fill="#0" id="circle13"/>
	<circle cx="116.408" cy="150.13" r="4" fill="#0" id="circle14"/>
	<circle cx="136.079" cy="307.501" r="4" fill="#0" id="circle15"/>
	<circle cx="144.51" cy="161.371" r="4" fill="#0" id="circle16"/>
	<circle cx="158.561" cy="290.64" r="4" fill="#0" id="circle17"/>
	<circle cx="169.802" cy="175.422" r="4" fill="#0" id="circle18"/>
	<circle cx="183.853" cy="276.589" r="4" fill="#0" id="circle19"/>
	<circle cx="197.904" cy="183.853" r="4" fill="#0" id="circle20"/>
	<circle cx="211.955" cy="276.589" r="4" fill="#0" id="circle21"/>
	<circle cx="223.195" cy="166.992" r="4" fill="#0" id="circle22"/>
	<circle cx="223.195" cy="304.691" r="4" fill="#0" id="circle23"/>
	<circle cx="234.436" cy="332.793" r="4" fill="#0" id="circle24"/>
	<circle cx="240.057" cy="144.51" r="4" fill="#0" id="circle25"/>
	<circle cx="248.487" cy="358.085" r="4" fill="#0" id="circle26"/>
	<circle cx="262.538" cy="122.028" r="4" fill="#0" id="circle27"/>
	<circle cx="276.589" cy="366.516" r="4" fill="#0" id="circle28"/>
	<circle cx="285.02" cy="105.167" r="4" fill="#0" id="circle29"/>
	<circle cx="304.691" cy="366.516" r="4" fill="#0" id="circle30"/>
	<circle cx="307.501" cy="88.3059" r="4" fill="#0" id="circle31"/>
	<circle cx="332.793" cy="360.895" r="4" fill="#0" id="circle32"/>
	<circle cx="335.603" cy="77.0652" r="4" fill="#0" id="circle33"/>
	<circle cx="360.895" cy="352.465" r="4" fill="#0" id="circle34"/>
	<circle cx="363.705" cy="82.6856" r="4" fill="#0" id="circle35"/>
	<circle cx="388.997" cy="344.034" r="4" fill="#0" id="circle36"/>
	<circle cx="391.807" cy="91.1161" r="4" fill="#0" id="circle37"/>
	<circle cx="417.099" cy="105.167" r="4" fill="#0" id="circle38"/>
	<circle cx="417.099" cy="349.654" r="4" fill="#0" id="circle39"/>
	<circle cx="445.201" cy="91.1161" r="4" fill="#0" id="circle40"/>
	<circle cx="445.201" cy="349.654" r="4" fill="#0" id="circle41"/>
	<circle cx="467.683" cy="71.4448" r="4" fill="#0" id="circle42"/>
	<circle cx="473.303" cy="349.654" r="4" fill="#0" id="circle43"/>
	<circle cx="495.785" cy="63.0142" r="4" fill="#0" id="circle44"/>
	<circle cx="501.405" cy="355.275" r="4" fill="#0" id="circle45"/>
	<circle cx="523.887" cy="51.7734" r="4" fill="#0" id="circle46"/>
	<circle cx="529.507" cy="355.275" r="4" fill="#0" id="circle47"/>
	<circle cx="549.178" cy="37.7224" r="4" fill="#0" id="circle48"/>
	<circle cx="557.609" cy="355.275" r="4" fill="#0" id="circle49"/>
	<circle cx="566.04" cy="383.377" r="4" fill="#0" id="circle50"/>
	<circle cx="566.04" cy="411.479" r="4" fill="#0" id="circle51"/>
	<circle cx="571.66" cy="439.581" r="4" fill="#0" id="circle52"/>
	<circle cx="577.28" cy="34.9122" r="4" fill="#0" id="circle53"/>
	<circle cx="594.142" cy="456.442" r="4" fill="#0" id="circle54"/>
	<circle cx="605.382" cy="29.2918" r="4" fill="#0" id="circle55"/>
	<circle cx="622.244" cy="459.252" r="4" fill="#0" id="circle56"/>
	<circle cx="627.864" cy="9.6204" r="4" fill="#0" id="circle57"/>
	<circle cx="650.346" cy="445.201" r="4" fill="#0" id="circle58"/>
	<circle cx="655.966" cy="4" r="4" fill="#0" id="circle59"/>
	<circle cx="672.827" cy="26.4816" r="4" fill="#0" id="circle60"/>
	<circle cx="672.827" cy="428.34" r="4" fill="#0" id="circle61"/>
	<circle cx="686.878" cy="51.7734" r="4" fill="#0" id="circle62"/>
	<circle cx="692.499" cy="403.048" r="4" fill="#0" id="circle63"/>
	<circle cx="709.36" cy="71.4448" r="4" fill="#0" id="circle64"/>
	<circle cx="709.36" cy="374.946" r="4" fill="#0" id="circle65"/>
	<circle cx="712.17" cy="99.5467" r="4" fill="#0" id="circle66"/>
	<circle cx="734.652" cy="360.895" r="4" fill="#0" id="circle67"/>
	<circle cx="740.272" cy="105.167" r="4" fill="#0" id="circle68"/>
	<circle cx="762.754" cy="360.895" r="4" fill="#0" id="circle69"/>
	<circle cx="768.374" cy="110.788" r="4" fill="#0" id="circle70"/>
	<circle cx="790.856" cy="355.275" r="4" fill="#0" id="circle71"/>
	<circle cx="796.476" cy="116.408" r="4" fill="#0" id="circle72"/>
	<circle cx="818.958" cy="344.034" r="4" fill="#0" id="circle73"/>
	<circle cx="824.578" cy="127.649" r="4" fill="#0" id="circle74"/>
	<circle cx="847.059" cy="332.793" r="4" fill="#0" id="circle75"/>
	<circle cx="852.68" cy="138.89" r="4" fill="#0" id="circle76"/>
	<circle cx="875.161" cy="321.552" r="4" fill="#0" id="circle77"/>
	<circle cx="880.782" cy="147.32" r="4" fill="#0" id="circle78"/>
	<circle cx="903.263" cy="310.312" r="4" fill="#0" id="circle79"/>
	<circle cx="906.074" cy="161.371" r="4" fill="#0" id="circle80"/>
	<circle cx="928.555" cy="296.261" r="4" fill="#0" id="circle81"/>
	<circle cx="934.176" cy="166.992" r="4" fill="#0" id="circle82"/>
	<circle cx="951.037" cy="273.779" r="4" fill="#0" id="circle83"/>
	<circle cx="959.467" cy="181.042" r="4" fill="#0" id="circle84"/>
	<circle cx="973.518" cy="251.297" r="4" fill="#0" id="circle85"/>
	<circle cx="984.759" cy="195.093" r="4" fill="#0" id="circle86"/>
	<circle cx="996" cy="228.816" r="4" fill="#0" id="circle87"/>
	</g>
</svg>