<?xml version="1.0" encoding="UTF-8" standalone="no"?>
<!-- Created with CurveBenchmark -->
<svg
	xmlns:dc="http://purl.org/dc/elements/1.1/"
	xmlns:cc="http://creativecommons.org/ns#"
	xmlns:rdf="http://www.w3.org/1999/02/22-rdf-syntax-ns#"
	xmlns:svg="http://www.w3.org/2000/svg"
	xmlns="http://www.w3.org/2000/svg"
	xmlns:sodipodi="http://sodipodi.sourceforge.net/DTD/sodipodi-0.dtd"
	xmlns:inkscape="http://www.inkscape.org/namespaces/inkscape"
	width="1000"
	height="1000"
	id="svg2"
	version="1.1"
	sodipodi:docname="manifold/ccrust-brick-11.png.txt">
<defs
	id="defs4" />
<metadata
	id="metadata7">
	<rdf:RDF>
		<cc:Work
			rdf:about="">
			<dc:format>image/svg+xml</dc:format>
			<dc:type
				rdf:resource="http://purl.org/dc/dcmitype/StillImage" />
			<dc:title></dc:title>
		</cc:Work>
	</rdf:RDF>
</metadata>
<g
	inkscape:label="Layer 1"
	inkscape:groupmode="layer"
	id="layer1">
	<path style="fill:none;stroke:red;stroke-width:1px;stroke-linecap:butt;stroke-linejoin:miter;stroke-opacity:1" d="M 85.5225,32.3183 89.8131,23.737 z" id="boundary" inkscape:connector-curvature="0" />
	<path style="fill:none;stroke:red;stroke-width:1px;stroke-linecap:butt;stroke-linejoin:miter;stroke-opacity:1" d="M 89.8131,40.0415 85.5225,32.3183 z" id="boundary" inkscape:connector-curvature="0" />
	<path style="fill:none;stroke:red;stroke-width:1px;stroke-linecap:butt;stroke-linejoin:miter;stroke-opacity:1" d="M 94.1038,47.7647 89.8131,40.0415 z" id="boundary" inkscape:connector-curvature="0" />
	<path style="fill:none;stroke:red;stroke-width:1px;stroke-linecap:butt;stroke-linejoin:miter;stroke-opacity:1" d="M 89.8131,23.737 98.3945,19.4464 z" id="boundary" inkscape:connector-curvature="0" />
	<path style="fill:none;stroke:red;stroke-width:1px;stroke-linecap:butt;stroke-linejoin:miter;stroke-opacity:1" d="M 94.1038,47.7647 94.1038,56.346 z" id="boundary" inkscape:connector-curvature="0" />
	<path style="fill:none;stroke:red;stroke-width:1px;stroke-linecap:butt;stroke-linejoin:miter;stroke-opacity:1" d="M 98.3945,64.0692 94.1038,56.346 z" id="boundary" inkscape:connector-curvature="0" />
	<path style="fill:none;stroke:red;stroke-width:1px;stroke-linecap:butt;stroke-linejoin:miter;stroke-opacity:1" d="M 98.3945,64.0692 98.3945,72.6505 z" id="boundary" inkscape:connector-curvature="0" />
	<path style="fill:none;stroke:red;stroke-width:1px;stroke-linecap:butt;stroke-linejoin:miter;stroke-opacity:1" d="M 100.111,89.8131 98.3945,81.2318 z" id="boundary" inkscape:connector-curvature="0" />
	<path style="fill:none;stroke:red;stroke-width:1px;stroke-linecap:butt;stroke-linejoin:miter;stroke-opacity:1" d="M 98.3945,81.2318 98.3945,72.6505 z" id="boundary" inkscape:connector-curvature="0" />
	<path style="fill:none;stroke:red;stroke-width:1px;stroke-linecap:butt;stroke-linejoin:miter;stroke-opacity:1" d="M 98.3945,19.4464 106.976,16.872 z" id="boundary" inkscape:connector-curvature="0" />
	<path style="fill:none;stroke:red;stroke-width:1px;stroke-linecap:butt;stroke-linejoin:miter;stroke-opacity:1" d="M 149.882,4 158.464,4 z" id="boundary" inkscape:connector-curvature="0" />
	<path style="fill:none;stroke:red;stroke-width:1px;stroke-linecap:butt;stroke-linejoin:miter;stroke-opacity:1" d="M 141.301,6.57439 149.882,4 z" id="boundary" inkscape:connector-curvature="0" />
	<path style="fill:none;stroke:red;stroke-width:1px;stroke-linecap:butt;stroke-linejoin:miter;stroke-opacity:1" d="M 167.045,4 175.626,4 z" id="boundary" inkscape:connector-curvature="0" />
	<path style="fill:none;stroke:red;stroke-width:1px;stroke-linecap:butt;stroke-linejoin:miter;stroke-opacity:1" d="M 158.464,4 167.045,4 z" id="boundary" inkscape:connector-curvature="0" />
	<path style="fill:none;stroke:red;stroke-width:1px;stroke-linecap:butt;stroke-linejoin:miter;stroke-opacity:1" d="M 115.557,15.1557 124.138,10.8651 z" id="boundary" inkscape:connector-curvature="0" />
	<path style="fill:none;stroke:red;stroke-width:1px;stroke-linecap:butt;stroke-linejoin:miter;stroke-opacity:1" d="M 115.557,15.1557 106.976,16.872 z" id="boundary" inkscape:connector-curvature="0" />
	<path style="fill:none;stroke:red;stroke-width:1px;stroke-linecap:butt;stroke-linejoin:miter;stroke-opacity:1" d="M 132.72,8.29066 141.301,6.57439 z" id="boundary" inkscape:connector-curvature="0" />
	<path style="fill:none;stroke:red;stroke-width:1px;stroke-linecap:butt;stroke-linejoin:miter;stroke-opacity:1" d="M 124.138,10.8651 132.72,8.29066 z" id="boundary" inkscape:connector-curvature="0" />
	<path style="fill:none;stroke:red;stroke-width:1px;stroke-linecap:butt;stroke-linejoin:miter;stroke-opacity:1" d="M 175.626,4 184.208,4 z" id="boundary" inkscape:connector-curvature="0" />
	<path style="fill:none;stroke:red;stroke-width:1px;stroke-linecap:butt;stroke-linejoin:miter;stroke-opacity:1" d="M 66.6436,184.208 73.5087,177.343 z" id="boundary" inkscape:connector-curvature="0" />
	<path style="fill:none;stroke:red;stroke-width:1px;stroke-linecap:butt;stroke-linejoin:miter;stroke-opacity:1" d="M 73.5087,177.343 82.09,173.052 z" id="boundary" inkscape:connector-curvature="0" />
	<path style="fill:none;stroke:red;stroke-width:1px;stroke-linecap:butt;stroke-linejoin:miter;stroke-opacity:1" d="M 82.09,173.052 88.955,167.045 z" id="boundary" inkscape:connector-curvature="0" />
	<path style="fill:none;stroke:red;stroke-width:1px;stroke-linecap:butt;stroke-linejoin:miter;stroke-opacity:1" d="M 94.1038,156.747 88.955,167.045 z" id="boundary" inkscape:connector-curvature="0" />
	<path style="fill:none;stroke:red;stroke-width:1px;stroke-linecap:butt;stroke-linejoin:miter;stroke-opacity:1" d="M 59.7785,191.073 66.6436,184.208 z" id="boundary" inkscape:connector-curvature="0" />
	<path style="fill:none;stroke:red;stroke-width:1px;stroke-linecap:butt;stroke-linejoin:miter;stroke-opacity:1" d="M 29.7439,216.817 36.609,209.952 z" id="boundary" inkscape:connector-curvature="0" />
	<path style="fill:none;stroke:red;stroke-width:1px;stroke-linecap:butt;stroke-linejoin:miter;stroke-opacity:1" d="M 36.609,209.952 44.3322,205.661 z" id="boundary" inkscape:connector-curvature="0" />
	<path style="fill:none;stroke:red;stroke-width:1px;stroke-linecap:butt;stroke-linejoin:miter;stroke-opacity:1" d="M 44.3322,205.661 51.1972,195.363 z" id="boundary" inkscape:connector-curvature="0" />
	<path style="fill:none;stroke:red;stroke-width:1px;stroke-linecap:butt;stroke-linejoin:miter;stroke-opacity:1" d="M 51.1972,195.363 59.7785,191.073 z" id="boundary" inkscape:connector-curvature="0" />
	<path style="fill:none;stroke:red;stroke-width:1px;stroke-linecap:butt;stroke-linejoin:miter;stroke-opacity:1" d="M 102.685,98.3945 100.111,89.8131 z" id="boundary" inkscape:connector-curvature="0" />
	<path style="fill:none;stroke:red;stroke-width:1px;stroke-linecap:butt;stroke-linejoin:miter;stroke-opacity:1" d="M 106.976,106.118 102.685,98.3945 z" id="boundary" inkscape:connector-curvature="0" />
	<path style="fill:none;stroke:red;stroke-width:1px;stroke-linecap:butt;stroke-linejoin:miter;stroke-opacity:1" d="M 106.976,106.118 111.266,113.841 z" id="boundary" inkscape:connector-curvature="0" />
	<path style="fill:none;stroke:red;stroke-width:1px;stroke-linecap:butt;stroke-linejoin:miter;stroke-opacity:1" d="M 111.266,113.841 115.557,121.564 z" id="boundary" inkscape:connector-curvature="0" />
	<path style="fill:none;stroke:red;stroke-width:1px;stroke-linecap:butt;stroke-linejoin:miter;stroke-opacity:1" d="M 115.557,121.564 115.557,130.145 z" id="boundary" inkscape:connector-curvature="0" />
	<path style="fill:none;stroke:red;stroke-width:1px;stroke-linecap:butt;stroke-linejoin:miter;stroke-opacity:1" d="M 94.1038,156.747 102.685,152.457 z" id="boundary" inkscape:connector-curvature="0" />
	<path style="fill:none;stroke:red;stroke-width:1px;stroke-linecap:butt;stroke-linejoin:miter;stroke-opacity:1" d="M 106.976,143.875 102.685,152.457 z" id="boundary" inkscape:connector-curvature="0" />
	<path style="fill:none;stroke:red;stroke-width:1px;stroke-linecap:butt;stroke-linejoin:miter;stroke-opacity:1" d="M 115.557,130.145 115.557,138.727 z" id="boundary" inkscape:connector-curvature="0" />
	<path style="fill:none;stroke:red;stroke-width:1px;stroke-linecap:butt;stroke-linejoin:miter;stroke-opacity:1" d="M 115.557,138.727 106.976,143.875 z" id="boundary" inkscape:connector-curvature="0" />
	<path style="fill:none;stroke:red;stroke-width:1px;stroke-linecap:butt;stroke-linejoin:miter;stroke-opacity:1" d="M 184.208,4 192.789,4 z" id="boundary" inkscape:connector-curvature="0" />
	<path style="fill:none;stroke:red;stroke-width:1px;stroke-linecap:butt;stroke-linejoin:miter;stroke-opacity:1" d="M 29.7439,216.817 21.1626,221.107 z" id="boundary" inkscape:connector-curvature="0" />
	<path style="fill:none;stroke:red;stroke-width:1px;stroke-linecap:butt;stroke-linejoin:miter;stroke-opacity:1" d="M 201.37,4 209.952,4 z" id="boundary" inkscape:connector-curvature="0" />
	<path style="fill:none;stroke:red;stroke-width:1px;stroke-linecap:butt;stroke-linejoin:miter;stroke-opacity:1" d="M 209.952,4 218.533,4 z" id="boundary" inkscape:connector-curvature="0" />
	<path style="fill:none;stroke:red;stroke-width:1px;stroke-linecap:butt;stroke-linejoin:miter;stroke-opacity:1" d="M 227.114,4 235.696,5.71626 z" id="boundary" inkscape:connector-curvature="0" />
	<path style="fill:none;stroke:red;stroke-width:1px;stroke-linecap:butt;stroke-linejoin:miter;stroke-opacity:1" d="M 235.696,5.71626 243.419,10.0069 z" id="boundary" inkscape:connector-curvature="0" />
	<path style="fill:none;stroke:red;stroke-width:1px;stroke-linecap:butt;stroke-linejoin:miter;stroke-opacity:1" d="M 243.419,10.0069 252,13.4394 z" id="boundary" inkscape:connector-curvature="0" />
	<path style="fill:none;stroke:red;stroke-width:1px;stroke-linecap:butt;stroke-linejoin:miter;stroke-opacity:1" d="M 259.723,17.7301 252,13.4394 z" id="boundary" inkscape:connector-curvature="0" />
	<path style="fill:none;stroke:red;stroke-width:1px;stroke-linecap:butt;stroke-linejoin:miter;stroke-opacity:1" d="M 218.533,4 227.114,4 z" id="boundary" inkscape:connector-curvature="0" />
	<path style="fill:none;stroke:red;stroke-width:1px;stroke-linecap:butt;stroke-linejoin:miter;stroke-opacity:1" d="M 259.723,17.7301 266.588,23.737 z" id="boundary" inkscape:connector-curvature="0" />
	<path style="fill:none;stroke:red;stroke-width:1px;stroke-linecap:butt;stroke-linejoin:miter;stroke-opacity:1" d="M 266.588,23.737 274.311,28.0277 z" id="boundary" inkscape:connector-curvature="0" />
	<path style="fill:none;stroke:red;stroke-width:1px;stroke-linecap:butt;stroke-linejoin:miter;stroke-opacity:1" d="M 274.311,28.0277 281.176,34.0346 z" id="boundary" inkscape:connector-curvature="0" />
	<path style="fill:none;stroke:red;stroke-width:1px;stroke-linecap:butt;stroke-linejoin:miter;stroke-opacity:1" d="M 288.9,38.3253 296.623,42.6159 z" id="boundary" inkscape:connector-curvature="0" />
	<path style="fill:none;stroke:red;stroke-width:1px;stroke-linecap:butt;stroke-linejoin:miter;stroke-opacity:1" d="M 288.9,38.3253 281.176,34.0346 z" id="boundary" inkscape:connector-curvature="0" />
	<path style="fill:none;stroke:red;stroke-width:1px;stroke-linecap:butt;stroke-linejoin:miter;stroke-opacity:1" d="M 305.204,45.1903 296.623,42.6159 z" id="boundary" inkscape:connector-curvature="0" />
	<path style="fill:none;stroke:red;stroke-width:1px;stroke-linecap:butt;stroke-linejoin:miter;stroke-opacity:1" d="M 305.204,45.1903 311.211,52.0554 z" id="boundary" inkscape:connector-curvature="0" />
	<path style="fill:none;stroke:red;stroke-width:1px;stroke-linecap:butt;stroke-linejoin:miter;stroke-opacity:1" d="M 319.792,55.4879 311.211,52.0554 z" id="boundary" inkscape:connector-curvature="0" />
	<path style="fill:none;stroke:red;stroke-width:1px;stroke-linecap:butt;stroke-linejoin:miter;stroke-opacity:1" d="M 332.664,68.3599 325.799,62.3529 z" id="boundary" inkscape:connector-curvature="0" />
	<path style="fill:none;stroke:red;stroke-width:1px;stroke-linecap:butt;stroke-linejoin:miter;stroke-opacity:1" d="M 325.799,62.3529 319.792,55.4879 z" id="boundary" inkscape:connector-curvature="0" />
	<path style="fill:none;stroke:red;stroke-width:1px;stroke-linecap:butt;stroke-linejoin:miter;stroke-opacity:1" d="M 332.664,68.3599 338.671,75.2249 z" id="boundary" inkscape:connector-curvature="0" />
	<path style="fill:none;stroke:red;stroke-width:1px;stroke-linecap:butt;stroke-linejoin:miter;stroke-opacity:1" d="M 361.841,76.9412 354.118,81.2318 z" id="boundary" inkscape:connector-curvature="0" />
	<path style="fill:none;stroke:red;stroke-width:1px;stroke-linecap:butt;stroke-linejoin:miter;stroke-opacity:1" d="M 370.422,76.9412 379.003,76.9412 z" id="boundary" inkscape:connector-curvature="0" />
	<path style="fill:none;stroke:red;stroke-width:1px;stroke-linecap:butt;stroke-linejoin:miter;stroke-opacity:1" d="M 370.422,76.9412 361.841,76.9412 z" id="boundary" inkscape:connector-curvature="0" />
	<path style="fill:none;stroke:red;stroke-width:1px;stroke-linecap:butt;stroke-linejoin:miter;stroke-opacity:1" d="M 387.585,76.9412 379.003,76.9412 z" id="boundary" inkscape:connector-curvature="0" />
	<path style="fill:none;stroke:red;stroke-width:1px;stroke-linecap:butt;stroke-linejoin:miter;stroke-opacity:1" d="M 345.536,81.2318 338.671,75.2249 z" id="boundary" inkscape:connector-curvature="0" />
	<path style="fill:none;stroke:red;stroke-width:1px;stroke-linecap:butt;stroke-linejoin:miter;stroke-opacity:1" d="M 354.118,81.2318 345.536,81.2318 z" id="boundary" inkscape:connector-curvature="0" />
	<path style="fill:none;stroke:red;stroke-width:1px;stroke-linecap:butt;stroke-linejoin:miter;stroke-opacity:1" d="M 396.166,76.9412 387.585,76.9412 z" id="boundary" inkscape:connector-curvature="0" />
	<path style="fill:none;stroke:red;stroke-width:1px;stroke-linecap:butt;stroke-linejoin:miter;stroke-opacity:1" d="M 404.747,76.9412 396.166,76.9412 z" id="boundary" inkscape:connector-curvature="0" />
	<path style="fill:none;stroke:red;stroke-width:1px;stroke-linecap:butt;stroke-linejoin:miter;stroke-opacity:1" d="M 446.796,72.6505 455.377,72.6505 z" id="boundary" inkscape:connector-curvature="0" />
	<path style="fill:none;stroke:red;stroke-width:1px;stroke-linecap:butt;stroke-linejoin:miter;stroke-opacity:1" d="M 439.073,76.9412 446.796,72.6505 z" id="boundary" inkscape:connector-curvature="0" />
	<path style="fill:none;stroke:red;stroke-width:1px;stroke-linecap:butt;stroke-linejoin:miter;stroke-opacity:1" d="M 463.958,72.6505 472.54,72.6505 z" id="boundary" inkscape:connector-curvature="0" />
	<path style="fill:none;stroke:red;stroke-width:1px;stroke-linecap:butt;stroke-linejoin:miter;stroke-opacity:1" d="M 481.121,72.6505 472.54,72.6505 z" id="boundary" inkscape:connector-curvature="0" />
	<path style="fill:none;stroke:red;stroke-width:1px;stroke-linecap:butt;stroke-linejoin:miter;stroke-opacity:1" d="M 463.958,72.6505 455.377,72.6505 z" id="boundary" inkscape:connector-curvature="0" />
	<path style="fill:none;stroke:red;stroke-width:1px;stroke-linecap:butt;stroke-linejoin:miter;stroke-opacity:1" d="M 404.747,76.9412 413.329,76.9412 z" id="boundary" inkscape:connector-curvature="0" />
	<path style="fill:none;stroke:red;stroke-width:1px;stroke-linecap:butt;stroke-linejoin:miter;stroke-opacity:1" d="M 421.91,76.9412 413.329,76.9412 z" id="boundary" inkscape:connector-curvature="0" />
	<path style="fill:none;stroke:red;stroke-width:1px;stroke-linecap:butt;stroke-linejoin:miter;stroke-opacity:1" d="M 439.073,76.9412 430.491,76.9412 z" id="boundary" inkscape:connector-curvature="0" />
	<path style="fill:none;stroke:red;stroke-width:1px;stroke-linecap:butt;stroke-linejoin:miter;stroke-opacity:1" d="M 430.491,76.9412 421.91,76.9412 z" id="boundary" inkscape:connector-curvature="0" />
	<path style="fill:none;stroke:red;stroke-width:1px;stroke-linecap:butt;stroke-linejoin:miter;stroke-opacity:1" d="M 489.702,72.6505 481.121,72.6505 z" id="boundary" inkscape:connector-curvature="0" />
	<path style="fill:none;stroke:red;stroke-width:1px;stroke-linecap:butt;stroke-linejoin:miter;stroke-opacity:1" d="M 192.789,4 201.37,4 z" id="boundary" inkscape:connector-curvature="0" />
	<path style="fill:none;stroke:red;stroke-width:1px;stroke-linecap:butt;stroke-linejoin:miter;stroke-opacity:1" d="M 4,251.142 4,242.561 z" id="boundary" inkscape:connector-curvature="0" />
	<path style="fill:none;stroke:red;stroke-width:1px;stroke-linecap:butt;stroke-linejoin:miter;stroke-opacity:1" d="M 4,268.304 4,259.723 z" id="boundary" inkscape:connector-curvature="0" />
	<path style="fill:none;stroke:red;stroke-width:1px;stroke-linecap:butt;stroke-linejoin:miter;stroke-opacity:1" d="M 4,259.723 4,251.142 z" id="boundary" inkscape:connector-curvature="0" />
	<path style="fill:none;stroke:red;stroke-width:1px;stroke-linecap:butt;stroke-linejoin:miter;stroke-opacity:1" d="M 8.29066,233.979 4,242.561 z" id="boundary" inkscape:connector-curvature="0" />
	<path style="fill:none;stroke:red;stroke-width:1px;stroke-linecap:butt;stroke-linejoin:miter;stroke-opacity:1" d="M 4,276.886 4,268.304 z" id="boundary" inkscape:connector-curvature="0" />
	<path style="fill:none;stroke:red;stroke-width:1px;stroke-linecap:butt;stroke-linejoin:miter;stroke-opacity:1" d="M 4,285.467 8.29066,293.19 z" id="boundary" inkscape:connector-curvature="0" />
	<path style="fill:none;stroke:red;stroke-width:1px;stroke-linecap:butt;stroke-linejoin:miter;stroke-opacity:1" d="M 8.29066,293.19 8.29066,301.772 z" id="boundary" inkscape:connector-curvature="0" />
	<path style="fill:none;stroke:red;stroke-width:1px;stroke-linecap:butt;stroke-linejoin:miter;stroke-opacity:1" d="M 4,285.467 4,276.886 z" id="boundary" inkscape:connector-curvature="0" />
	<path style="fill:none;stroke:red;stroke-width:1px;stroke-linecap:butt;stroke-linejoin:miter;stroke-opacity:1" d="M 8.29066,301.772 8.29066,310.353 z" id="boundary" inkscape:connector-curvature="0" />
	<path style="fill:none;stroke:red;stroke-width:1px;stroke-linecap:butt;stroke-linejoin:miter;stroke-opacity:1" d="M 8.29066,233.979 16.872,229.689 z" id="boundary" inkscape:connector-curvature="0" />
	<path style="fill:none;stroke:red;stroke-width:1px;stroke-linecap:butt;stroke-linejoin:miter;stroke-opacity:1" d="M 8.29066,310.353 8.29066,318.934 z" id="boundary" inkscape:connector-curvature="0" />
	<path style="fill:none;stroke:red;stroke-width:1px;stroke-linecap:butt;stroke-linejoin:miter;stroke-opacity:1" d="M 8.29066,327.516 8.29066,318.934 z" id="boundary" inkscape:connector-curvature="0" />
	<path style="fill:none;stroke:red;stroke-width:1px;stroke-linecap:butt;stroke-linejoin:miter;stroke-opacity:1" d="M 21.1626,221.107 16.872,229.689 z" id="boundary" inkscape:connector-curvature="0" />
	<path style="fill:none;stroke:red;stroke-width:1px;stroke-linecap:butt;stroke-linejoin:miter;stroke-opacity:1" d="M 8.29066,336.097 8.29066,344.678 z" id="boundary" inkscape:connector-curvature="0" />
	<path style="fill:none;stroke:red;stroke-width:1px;stroke-linecap:butt;stroke-linejoin:miter;stroke-opacity:1" d="M 153.315,346.394 161.896,343.82 z" id="boundary" inkscape:connector-curvature="0" />
	<path style="fill:none;stroke:red;stroke-width:1px;stroke-linecap:butt;stroke-linejoin:miter;stroke-opacity:1" d="M 8.29066,336.097 8.29066,327.516 z" id="boundary" inkscape:connector-curvature="0" />
	<path style="fill:none;stroke:red;stroke-width:1px;stroke-linecap:butt;stroke-linejoin:miter;stroke-opacity:1" d="M 161.896,343.82 170.478,343.82 z" id="boundary" inkscape:connector-curvature="0" />
	<path style="fill:none;stroke:red;stroke-width:1px;stroke-linecap:butt;stroke-linejoin:miter;stroke-opacity:1" d="M 170.478,343.82 178.201,348.111 z" id="boundary" inkscape:connector-curvature="0" />
	<path style="fill:none;stroke:red;stroke-width:1px;stroke-linecap:butt;stroke-linejoin:miter;stroke-opacity:1" d="M 8.29066,344.678 8.29066,353.26 z" id="boundary" inkscape:connector-curvature="0" />
	<path style="fill:none;stroke:red;stroke-width:1px;stroke-linecap:butt;stroke-linejoin:miter;stroke-opacity:1" d="M 12.5813,360.983 8.29066,353.26 z" id="boundary" inkscape:connector-curvature="0" />
	<path style="fill:none;stroke:red;stroke-width:1px;stroke-linecap:butt;stroke-linejoin:miter;stroke-opacity:1" d="M 51.1972,360.983 59.7785,360.983 z" id="boundary" inkscape:connector-curvature="0" />
	<path style="fill:none;stroke:red;stroke-width:1px;stroke-linecap:butt;stroke-linejoin:miter;stroke-opacity:1" d="M 42.6159,362.699 51.1972,360.983 z" id="boundary" inkscape:connector-curvature="0" />
	<path style="fill:none;stroke:red;stroke-width:1px;stroke-linecap:butt;stroke-linejoin:miter;stroke-opacity:1" d="M 68.3599,360.983 59.7785,360.983 z" id="boundary" inkscape:connector-curvature="0" />
	<path style="fill:none;stroke:red;stroke-width:1px;stroke-linecap:butt;stroke-linejoin:miter;stroke-opacity:1" d="M 42.6159,362.699 34.0346,365.273 z" id="boundary" inkscape:connector-curvature="0" />
	<path style="fill:none;stroke:red;stroke-width:1px;stroke-linecap:butt;stroke-linejoin:miter;stroke-opacity:1" d="M 17.7301,367.848 12.5813,360.983 z" id="boundary" inkscape:connector-curvature="0" />
	<path style="fill:none;stroke:red;stroke-width:1px;stroke-linecap:butt;stroke-linejoin:miter;stroke-opacity:1" d="M 26.3114,369.564 17.7301,367.848 z" id="boundary" inkscape:connector-curvature="0" />
	<path style="fill:none;stroke:red;stroke-width:1px;stroke-linecap:butt;stroke-linejoin:miter;stroke-opacity:1" d="M 34.0346,365.273 26.3114,369.564 z" id="boundary" inkscape:connector-curvature="0" />
	<path style="fill:none;stroke:red;stroke-width:1px;stroke-linecap:butt;stroke-linejoin:miter;stroke-opacity:1" d="M 68.3599,360.983 76.9412,360.983 z" id="boundary" inkscape:connector-curvature="0" />
	<path style="fill:none;stroke:red;stroke-width:1px;stroke-linecap:butt;stroke-linejoin:miter;stroke-opacity:1" d="M 136.152,352.401 127.571,354.976 z" id="boundary" inkscape:connector-curvature="0" />
	<path style="fill:none;stroke:red;stroke-width:1px;stroke-linecap:butt;stroke-linejoin:miter;stroke-opacity:1" d="M 136.152,352.401 144.734,350.685 z" id="boundary" inkscape:connector-curvature="0" />
	<path style="fill:none;stroke:red;stroke-width:1px;stroke-linecap:butt;stroke-linejoin:miter;stroke-opacity:1" d="M 110.408,356.692 101.827,356.692 z" id="boundary" inkscape:connector-curvature="0" />
	<path style="fill:none;stroke:red;stroke-width:1px;stroke-linecap:butt;stroke-linejoin:miter;stroke-opacity:1" d="M 153.315,346.394 144.734,350.685 z" id="boundary" inkscape:connector-curvature="0" />
	<path style="fill:none;stroke:red;stroke-width:1px;stroke-linecap:butt;stroke-linejoin:miter;stroke-opacity:1" d="M 118.99,356.692 127.571,354.976 z" id="boundary" inkscape:connector-curvature="0" />
	<path style="fill:none;stroke:red;stroke-width:1px;stroke-linecap:butt;stroke-linejoin:miter;stroke-opacity:1" d="M 76.9412,360.983 85.5225,360.983 z" id="boundary" inkscape:connector-curvature="0" />
	<path style="fill:none;stroke:red;stroke-width:1px;stroke-linecap:butt;stroke-linejoin:miter;stroke-opacity:1" d="M 93.2457,356.692 85.5225,360.983 z" id="boundary" inkscape:connector-curvature="0" />
	<path style="fill:none;stroke:red;stroke-width:1px;stroke-linecap:butt;stroke-linejoin:miter;stroke-opacity:1" d="M 101.827,356.692 93.2457,356.692 z" id="boundary" inkscape:connector-curvature="0" />
	<path style="fill:none;stroke:red;stroke-width:1px;stroke-linecap:butt;stroke-linejoin:miter;stroke-opacity:1" d="M 118.99,356.692 110.408,356.692 z" id="boundary" inkscape:connector-curvature="0" />
	<path style="fill:none;stroke:red;stroke-width:1px;stroke-linecap:butt;stroke-linejoin:miter;stroke-opacity:1" d="M 178.201,348.111 185.066,354.118 z" id="boundary" inkscape:connector-curvature="0" />
	<path style="fill:none;stroke:red;stroke-width:1px;stroke-linecap:butt;stroke-linejoin:miter;stroke-opacity:1" d="M 185.066,354.118 191.073,360.983 z" id="boundary" inkscape:connector-curvature="0" />
	<path style="fill:none;stroke:red;stroke-width:1px;stroke-linecap:butt;stroke-linejoin:miter;stroke-opacity:1" d="M 199.654,364.415 191.073,360.983 z" id="boundary" inkscape:connector-curvature="0" />
	<path style="fill:none;stroke:red;stroke-width:1px;stroke-linecap:butt;stroke-linejoin:miter;stroke-opacity:1" d="M 199.654,364.415 206.519,369.564 z" id="boundary" inkscape:connector-curvature="0" />
	<path style="fill:none;stroke:red;stroke-width:1px;stroke-linecap:butt;stroke-linejoin:miter;stroke-opacity:1" d="M 214.242,373.855 206.519,369.564 z" id="boundary" inkscape:connector-curvature="0" />
	<path style="fill:none;stroke:red;stroke-width:1px;stroke-linecap:butt;stroke-linejoin:miter;stroke-opacity:1" d="M 221.965,378.145 214.242,373.855 z" id="boundary" inkscape:connector-curvature="0" />
	<path style="fill:none;stroke:red;stroke-width:1px;stroke-linecap:butt;stroke-linejoin:miter;stroke-opacity:1" d="M 221.965,378.145 227.972,385.01 z" id="boundary" inkscape:connector-curvature="0" />
	<path style="fill:none;stroke:red;stroke-width:1px;stroke-linecap:butt;stroke-linejoin:miter;stroke-opacity:1" d="M 227.972,385.01 236.554,388.443 z" id="boundary" inkscape:connector-curvature="0" />
	<path style="fill:none;stroke:red;stroke-width:1px;stroke-linecap:butt;stroke-linejoin:miter;stroke-opacity:1" d="M 236.554,388.443 244.277,392.734 z" id="boundary" inkscape:connector-curvature="0" />
	<path style="fill:none;stroke:red;stroke-width:1px;stroke-linecap:butt;stroke-linejoin:miter;stroke-opacity:1" d="M 252.858,395.308 244.277,392.734 z" id="boundary" inkscape:connector-curvature="0" />
	<path style="fill:none;stroke:red;stroke-width:1px;stroke-linecap:butt;stroke-linejoin:miter;stroke-opacity:1" d="M 448.512,394.45 457.093,391.017 z" id="boundary" inkscape:connector-curvature="0" />
	<path style="fill:none;stroke:red;stroke-width:1px;stroke-linecap:butt;stroke-linejoin:miter;stroke-opacity:1" d="M 457.093,391.017 465.675,391.017 z" id="boundary" inkscape:connector-curvature="0" />
	<path style="fill:none;stroke:red;stroke-width:1px;stroke-linecap:butt;stroke-linejoin:miter;stroke-opacity:1" d="M 448.512,394.45 439.931,395.308 z" id="boundary" inkscape:connector-curvature="0" />
	<path style="fill:none;stroke:red;stroke-width:1px;stroke-linecap:butt;stroke-linejoin:miter;stroke-opacity:1" d="M 465.675,391.017 474.256,391.017 z" id="boundary" inkscape:connector-curvature="0" />
	<path style="fill:none;stroke:red;stroke-width:1px;stroke-linecap:butt;stroke-linejoin:miter;stroke-opacity:1" d="M 474.256,391.017 482.837,391.017 z" id="boundary" inkscape:connector-curvature="0" />
	<path style="fill:none;stroke:red;stroke-width:1px;stroke-linecap:butt;stroke-linejoin:miter;stroke-opacity:1" d="M 252.858,395.308 260.581,399.599 z" id="boundary" inkscape:connector-curvature="0" />
	<path style="fill:none;stroke:red;stroke-width:1px;stroke-linecap:butt;stroke-linejoin:miter;stroke-opacity:1" d="M 415.045,399.599 406.464,399.599 z" id="boundary" inkscape:connector-curvature="0" />
	<path style="fill:none;stroke:red;stroke-width:1px;stroke-linecap:butt;stroke-linejoin:miter;stroke-opacity:1" d="M 439.931,395.308 431.349,395.308 z" id="boundary" inkscape:connector-curvature="0" />
	<path style="fill:none;stroke:red;stroke-width:1px;stroke-linecap:butt;stroke-linejoin:miter;stroke-opacity:1" d="M 423.626,399.599 431.349,395.308 z" id="boundary" inkscape:connector-curvature="0" />
	<path style="fill:none;stroke:red;stroke-width:1px;stroke-linecap:butt;stroke-linejoin:miter;stroke-opacity:1" d="M 260.581,399.599 268.304,403.889 z" id="boundary" inkscape:connector-curvature="0" />
	<path style="fill:none;stroke:red;stroke-width:1px;stroke-linecap:butt;stroke-linejoin:miter;stroke-opacity:1" d="M 268.304,403.889 276.028,408.18 z" id="boundary" inkscape:connector-curvature="0" />
	<path style="fill:none;stroke:red;stroke-width:1px;stroke-linecap:butt;stroke-linejoin:miter;stroke-opacity:1" d="M 331.806,412.471 324.083,416.761 z" id="boundary" inkscape:connector-curvature="0" />
	<path style="fill:none;stroke:red;stroke-width:1px;stroke-linecap:butt;stroke-linejoin:miter;stroke-opacity:1" d="M 283.751,412.471 276.028,408.18 z" id="boundary" inkscape:connector-curvature="0" />
	<path style="fill:none;stroke:red;stroke-width:1px;stroke-linecap:butt;stroke-linejoin:miter;stroke-opacity:1" d="M 291.474,416.761 299.197,421.052 z" id="boundary" inkscape:connector-curvature="0" />
	<path style="fill:none;stroke:red;stroke-width:1px;stroke-linecap:butt;stroke-linejoin:miter;stroke-opacity:1" d="M 307.779,421.052 299.197,421.052 z" id="boundary" inkscape:connector-curvature="0" />
	<path style="fill:none;stroke:red;stroke-width:1px;stroke-linecap:butt;stroke-linejoin:miter;stroke-opacity:1" d="M 324.083,416.761 316.36,421.052 z" id="boundary" inkscape:connector-curvature="0" />
	<path style="fill:none;stroke:red;stroke-width:1px;stroke-linecap:butt;stroke-linejoin:miter;stroke-opacity:1" d="M 316.36,421.052 307.779,421.052 z" id="boundary" inkscape:connector-curvature="0" />
	<path style="fill:none;stroke:red;stroke-width:1px;stroke-linecap:butt;stroke-linejoin:miter;stroke-opacity:1" d="M 291.474,416.761 283.751,412.471 z" id="boundary" inkscape:connector-curvature="0" />
	<path style="fill:none;stroke:red;stroke-width:1px;stroke-linecap:butt;stroke-linejoin:miter;stroke-opacity:1" d="M 331.806,412.471 340.388,412.471 z" id="boundary" inkscape:connector-curvature="0" />
	<path style="fill:none;stroke:red;stroke-width:1px;stroke-linecap:butt;stroke-linejoin:miter;stroke-opacity:1" d="M 373.855,408.18 365.273,408.18 z" id="boundary" inkscape:connector-curvature="0" />
	<path style="fill:none;stroke:red;stroke-width:1px;stroke-linecap:butt;stroke-linejoin:miter;stroke-opacity:1" d="M 415.045,399.599 423.626,399.599 z" id="boundary" inkscape:connector-curvature="0" />
	<path style="fill:none;stroke:red;stroke-width:1px;stroke-linecap:butt;stroke-linejoin:miter;stroke-opacity:1" d="M 398.74,403.889 390.159,403.889 z" id="boundary" inkscape:connector-curvature="0" />
	<path style="fill:none;stroke:red;stroke-width:1px;stroke-linecap:butt;stroke-linejoin:miter;stroke-opacity:1" d="M 406.464,399.599 398.74,403.889 z" id="boundary" inkscape:connector-curvature="0" />
	<path style="fill:none;stroke:red;stroke-width:1px;stroke-linecap:butt;stroke-linejoin:miter;stroke-opacity:1" d="M 382.436,408.18 390.159,403.889 z" id="boundary" inkscape:connector-curvature="0" />
	<path style="fill:none;stroke:red;stroke-width:1px;stroke-linecap:butt;stroke-linejoin:miter;stroke-opacity:1" d="M 340.388,412.471 348.969,412.471 z" id="boundary" inkscape:connector-curvature="0" />
	<path style="fill:none;stroke:red;stroke-width:1px;stroke-linecap:butt;stroke-linejoin:miter;stroke-opacity:1" d="M 373.855,408.18 382.436,408.18 z" id="boundary" inkscape:connector-curvature="0" />
	<path style="fill:none;stroke:red;stroke-width:1px;stroke-linecap:butt;stroke-linejoin:miter;stroke-opacity:1" d="M 357.55,412.471 348.969,412.471 z" id="boundary" inkscape:connector-curvature="0" />
	<path style="fill:none;stroke:red;stroke-width:1px;stroke-linecap:butt;stroke-linejoin:miter;stroke-opacity:1" d="M 365.273,408.18 357.55,412.471 z" id="boundary" inkscape:connector-curvature="0" />
	<path style="fill:none;stroke:red;stroke-width:1px;stroke-linecap:butt;stroke-linejoin:miter;stroke-opacity:1" d="M 590.962,51.1972 599.543,51.1972 z" id="boundary" inkscape:connector-curvature="0" />
	<path style="fill:none;stroke:red;stroke-width:1px;stroke-linecap:butt;stroke-linejoin:miter;stroke-opacity:1" d="M 583.239,55.4879 590.962,51.1972 z" id="boundary" inkscape:connector-curvature="0" />
	<path style="fill:none;stroke:red;stroke-width:1px;stroke-linecap:butt;stroke-linejoin:miter;stroke-opacity:1" d="M 608.125,51.1972 616.706,51.1972 z" id="boundary" inkscape:connector-curvature="0" />
	<path style="fill:none;stroke:red;stroke-width:1px;stroke-linecap:butt;stroke-linejoin:miter;stroke-opacity:1" d="M 608.125,51.1972 599.543,51.1972 z" id="boundary" inkscape:connector-curvature="0" />
	<path style="fill:none;stroke:red;stroke-width:1px;stroke-linecap:butt;stroke-linejoin:miter;stroke-opacity:1" d="M 557.495,59.7785 548.913,59.7785 z" id="boundary" inkscape:connector-curvature="0" />
	<path style="fill:none;stroke:red;stroke-width:1px;stroke-linecap:butt;stroke-linejoin:miter;stroke-opacity:1" d="M 566.076,58.0623 557.495,59.7785 z" id="boundary" inkscape:connector-curvature="0" />
	<path style="fill:none;stroke:red;stroke-width:1px;stroke-linecap:butt;stroke-linejoin:miter;stroke-opacity:1" d="M 574.657,55.4879 566.076,58.0623 z" id="boundary" inkscape:connector-curvature="0" />
	<path style="fill:none;stroke:red;stroke-width:1px;stroke-linecap:butt;stroke-linejoin:miter;stroke-opacity:1" d="M 583.239,55.4879 574.657,55.4879 z" id="boundary" inkscape:connector-curvature="0" />
	<path style="fill:none;stroke:red;stroke-width:1px;stroke-linecap:butt;stroke-linejoin:miter;stroke-opacity:1" d="M 616.706,51.1972 625.287,51.1972 z" id="boundary" inkscape:connector-curvature="0" />
	<path style="fill:none;stroke:red;stroke-width:1px;stroke-linecap:butt;stroke-linejoin:miter;stroke-opacity:1" d="M 633.01,46.9066 625.287,51.1972 z" id="boundary" inkscape:connector-curvature="0" />
	<path style="fill:none;stroke:red;stroke-width:1px;stroke-linecap:butt;stroke-linejoin:miter;stroke-opacity:1" d="M 649.315,42.6159 657.896,42.6159 z" id="boundary" inkscape:connector-curvature="0" />
	<path style="fill:none;stroke:red;stroke-width:1px;stroke-linecap:butt;stroke-linejoin:miter;stroke-opacity:1" d="M 641.592,46.9066 649.315,42.6159 z" id="boundary" inkscape:connector-curvature="0" />
	<path style="fill:none;stroke:red;stroke-width:1px;stroke-linecap:butt;stroke-linejoin:miter;stroke-opacity:1" d="M 666.478,42.6159 675.059,42.6159 z" id="boundary" inkscape:connector-curvature="0" />
	<path style="fill:none;stroke:red;stroke-width:1px;stroke-linecap:butt;stroke-linejoin:miter;stroke-opacity:1" d="M 683.64,42.6159 675.059,42.6159 z" id="boundary" inkscape:connector-curvature="0" />
	<path style="fill:none;stroke:red;stroke-width:1px;stroke-linecap:butt;stroke-linejoin:miter;stroke-opacity:1" d="M 683.64,42.6159 691.363,46.9066 z" id="boundary" inkscape:connector-curvature="0" />
	<path style="fill:none;stroke:red;stroke-width:1px;stroke-linecap:butt;stroke-linejoin:miter;stroke-opacity:1" d="M 666.478,42.6159 657.896,42.6159 z" id="boundary" inkscape:connector-curvature="0" />
	<path style="fill:none;stroke:red;stroke-width:1px;stroke-linecap:butt;stroke-linejoin:miter;stroke-opacity:1" d="M 641.592,46.9066 633.01,46.9066 z" id="boundary" inkscape:connector-curvature="0" />
	<path style="fill:none;stroke:red;stroke-width:1px;stroke-linecap:butt;stroke-linejoin:miter;stroke-opacity:1" d="M 691.363,46.9066 699.945,49.481 z" id="boundary" inkscape:connector-curvature="0" />
	<path style="fill:none;stroke:red;stroke-width:1px;stroke-linecap:butt;stroke-linejoin:miter;stroke-opacity:1" d="M 699.945,49.481 707.668,53.7716 z" id="boundary" inkscape:connector-curvature="0" />
	<path style="fill:none;stroke:red;stroke-width:1px;stroke-linecap:butt;stroke-linejoin:miter;stroke-opacity:1" d="M 707.668,53.7716 714.533,59.7785 z" id="boundary" inkscape:connector-curvature="0" />
	<path style="fill:none;stroke:red;stroke-width:1px;stroke-linecap:butt;stroke-linejoin:miter;stroke-opacity:1" d="M 531.751,66.6436 540.332,62.3529 z" id="boundary" inkscape:connector-curvature="0" />
	<path style="fill:none;stroke:red;stroke-width:1px;stroke-linecap:butt;stroke-linejoin:miter;stroke-opacity:1" d="M 531.751,66.6436 523.17,68.3599 z" id="boundary" inkscape:connector-curvature="0" />
	<path style="fill:none;stroke:red;stroke-width:1px;stroke-linecap:butt;stroke-linejoin:miter;stroke-opacity:1" d="M 714.533,59.7785 720.54,66.6436 z" id="boundary" inkscape:connector-curvature="0" />
	<path style="fill:none;stroke:red;stroke-width:1px;stroke-linecap:butt;stroke-linejoin:miter;stroke-opacity:1" d="M 540.332,62.3529 548.913,59.7785 z" id="boundary" inkscape:connector-curvature="0" />
	<path style="fill:none;stroke:red;stroke-width:1px;stroke-linecap:butt;stroke-linejoin:miter;stroke-opacity:1" d="M 498.284,72.6505 506.007,68.3599 z" id="boundary" inkscape:connector-curvature="0" />
	<path style="fill:none;stroke:red;stroke-width:1px;stroke-linecap:butt;stroke-linejoin:miter;stroke-opacity:1" d="M 506.007,68.3599 514.588,68.3599 z" id="boundary" inkscape:connector-curvature="0" />
	<path style="fill:none;stroke:red;stroke-width:1px;stroke-linecap:butt;stroke-linejoin:miter;stroke-opacity:1" d="M 498.284,72.6505 489.702,72.6505 z" id="boundary" inkscape:connector-curvature="0" />
	<path style="fill:none;stroke:red;stroke-width:1px;stroke-linecap:butt;stroke-linejoin:miter;stroke-opacity:1" d="M 523.17,68.3599 514.588,68.3599 z" id="boundary" inkscape:connector-curvature="0" />
	<path style="fill:none;stroke:red;stroke-width:1px;stroke-linecap:butt;stroke-linejoin:miter;stroke-opacity:1" d="M 727.405,72.6505 735.128,76.9412 z" id="boundary" inkscape:connector-curvature="0" />
	<path style="fill:none;stroke:red;stroke-width:1px;stroke-linecap:butt;stroke-linejoin:miter;stroke-opacity:1" d="M 735.128,76.9412 738.561,85.5225 z" id="boundary" inkscape:connector-curvature="0" />
	<path style="fill:none;stroke:red;stroke-width:1px;stroke-linecap:butt;stroke-linejoin:miter;stroke-opacity:1" d="M 727.405,72.6505 720.54,66.6436 z" id="boundary" inkscape:connector-curvature="0" />
	<path style="fill:none;stroke:red;stroke-width:1px;stroke-linecap:butt;stroke-linejoin:miter;stroke-opacity:1" d="M 738.561,85.5225 745.426,90.6713 z" id="boundary" inkscape:connector-curvature="0" />
	<path style="fill:none;stroke:red;stroke-width:1px;stroke-linecap:butt;stroke-linejoin:miter;stroke-opacity:1" d="M 745.426,90.6713 751.433,97.5363 z" id="boundary" inkscape:connector-curvature="0" />
	<path style="fill:none;stroke:red;stroke-width:1px;stroke-linecap:butt;stroke-linejoin:miter;stroke-opacity:1" d="M 758.298,103.543 751.433,97.5363 z" id="boundary" inkscape:connector-curvature="0" />
	<path style="fill:none;stroke:red;stroke-width:1px;stroke-linecap:butt;stroke-linejoin:miter;stroke-opacity:1" d="M 758.298,103.543 764.304,110.408 z" id="boundary" inkscape:connector-curvature="0" />
	<path style="fill:none;stroke:red;stroke-width:1px;stroke-linecap:butt;stroke-linejoin:miter;stroke-opacity:1" d="M 764.304,110.408 768.595,118.131 z" id="boundary" inkscape:connector-curvature="0" />
	<path style="fill:none;stroke:red;stroke-width:1px;stroke-linecap:butt;stroke-linejoin:miter;stroke-opacity:1" d="M 786.616,128.429 778.893,132.72 z" id="boundary" inkscape:connector-curvature="0" />
	<path style="fill:none;stroke:red;stroke-width:1px;stroke-linecap:butt;stroke-linejoin:miter;stroke-opacity:1" d="M 778.893,132.72 772.028,126.713 z" id="boundary" inkscape:connector-curvature="0" />
	<path style="fill:none;stroke:red;stroke-width:1px;stroke-linecap:butt;stroke-linejoin:miter;stroke-opacity:1" d="M 772.028,126.713 768.595,118.131 z" id="boundary" inkscape:connector-curvature="0" />
	<path style="fill:none;stroke:red;stroke-width:1px;stroke-linecap:butt;stroke-linejoin:miter;stroke-opacity:1" d="M 896.457,119.848 905.038,119.848 z" id="boundary" inkscape:connector-curvature="0" />
	<path style="fill:none;stroke:red;stroke-width:1px;stroke-linecap:butt;stroke-linejoin:miter;stroke-opacity:1" d="M 888.734,124.138 896.457,119.848 z" id="boundary" inkscape:connector-curvature="0" />
	<path style="fill:none;stroke:red;stroke-width:1px;stroke-linecap:butt;stroke-linejoin:miter;stroke-opacity:1" d="M 913.619,118.131 905.038,119.848 z" id="boundary" inkscape:connector-curvature="0" />
	<path style="fill:none;stroke:red;stroke-width:1px;stroke-linecap:butt;stroke-linejoin:miter;stroke-opacity:1" d="M 913.619,118.131 922.201,115.557 z" id="boundary" inkscape:connector-curvature="0" />
	<path style="fill:none;stroke:red;stroke-width:1px;stroke-linecap:butt;stroke-linejoin:miter;stroke-opacity:1" d="M 929.924,111.266 922.201,115.557 z" id="boundary" inkscape:connector-curvature="0" />
	<path style="fill:none;stroke:red;stroke-width:1px;stroke-linecap:butt;stroke-linejoin:miter;stroke-opacity:1" d="M 795.197,128.429 803.779,128.429 z" id="boundary" inkscape:connector-curvature="0" />
	<path style="fill:none;stroke:red;stroke-width:1px;stroke-linecap:butt;stroke-linejoin:miter;stroke-opacity:1" d="M 812.36,128.429 803.779,128.429 z" id="boundary" inkscape:connector-curvature="0" />
	<path style="fill:none;stroke:red;stroke-width:1px;stroke-linecap:butt;stroke-linejoin:miter;stroke-opacity:1" d="M 888.734,124.138 880.152,124.138 z" id="boundary" inkscape:connector-curvature="0" />
	<path style="fill:none;stroke:red;stroke-width:1px;stroke-linecap:butt;stroke-linejoin:miter;stroke-opacity:1" d="M 872.429,128.429 880.152,124.138 z" id="boundary" inkscape:connector-curvature="0" />
	<path style="fill:none;stroke:red;stroke-width:1px;stroke-linecap:butt;stroke-linejoin:miter;stroke-opacity:1" d="M 795.197,128.429 786.616,128.429 z" id="boundary" inkscape:connector-curvature="0" />
	<path style="fill:none;stroke:red;stroke-width:1px;stroke-linecap:butt;stroke-linejoin:miter;stroke-opacity:1" d="M 946.228,106.976 953.952,102.685 z" id="boundary" inkscape:connector-curvature="0" />
	<path style="fill:none;stroke:red;stroke-width:1px;stroke-linecap:butt;stroke-linejoin:miter;stroke-opacity:1" d="M 953.952,102.685 962.533,102.685 z" id="boundary" inkscape:connector-curvature="0" />
	<path style="fill:none;stroke:red;stroke-width:1px;stroke-linecap:butt;stroke-linejoin:miter;stroke-opacity:1" d="M 962.533,102.685 970.256,98.3945 z" id="boundary" inkscape:connector-curvature="0" />
	<path style="fill:none;stroke:red;stroke-width:1px;stroke-linecap:butt;stroke-linejoin:miter;stroke-opacity:1" d="M 970.256,98.3945 978.837,100.969 z" id="boundary" inkscape:connector-curvature="0" />
	<path style="fill:none;stroke:red;stroke-width:1px;stroke-linecap:butt;stroke-linejoin:miter;stroke-opacity:1" d="M 978.837,100.969 984.844,107.834 z" id="boundary" inkscape:connector-curvature="0" />
	<path style="fill:none;stroke:red;stroke-width:1px;stroke-linecap:butt;stroke-linejoin:miter;stroke-opacity:1" d="M 946.228,106.976 938.505,111.266 z" id="boundary" inkscape:connector-curvature="0" />
	<path style="fill:none;stroke:red;stroke-width:1px;stroke-linecap:butt;stroke-linejoin:miter;stroke-opacity:1" d="M 938.505,111.266 929.924,111.266 z" id="boundary" inkscape:connector-curvature="0" />
	<path style="fill:none;stroke:red;stroke-width:1px;stroke-linecap:butt;stroke-linejoin:miter;stroke-opacity:1" d="M 987.419,124.997 987.419,116.415 z" id="boundary" inkscape:connector-curvature="0" />
	<path style="fill:none;stroke:red;stroke-width:1px;stroke-linecap:butt;stroke-linejoin:miter;stroke-opacity:1" d="M 991.709,132.72 987.419,124.997 z" id="boundary" inkscape:connector-curvature="0" />
	<path style="fill:none;stroke:red;stroke-width:1px;stroke-linecap:butt;stroke-linejoin:miter;stroke-opacity:1" d="M 984.844,107.834 987.419,116.415 z" id="boundary" inkscape:connector-curvature="0" />
	<path style="fill:none;stroke:red;stroke-width:1px;stroke-linecap:butt;stroke-linejoin:miter;stroke-opacity:1" d="M 812.36,128.429 820.941,128.429 z" id="boundary" inkscape:connector-curvature="0" />
	<path style="fill:none;stroke:red;stroke-width:1px;stroke-linecap:butt;stroke-linejoin:miter;stroke-opacity:1" d="M 829.522,128.429 838.104,128.429 z" id="boundary" inkscape:connector-curvature="0" />
	<path style="fill:none;stroke:red;stroke-width:1px;stroke-linecap:butt;stroke-linejoin:miter;stroke-opacity:1" d="M 829.522,128.429 820.941,128.429 z" id="boundary" inkscape:connector-curvature="0" />
	<path style="fill:none;stroke:red;stroke-width:1px;stroke-linecap:butt;stroke-linejoin:miter;stroke-opacity:1" d="M 846.685,128.429 855.266,128.429 z" id="boundary" inkscape:connector-curvature="0" />
	<path style="fill:none;stroke:red;stroke-width:1px;stroke-linecap:butt;stroke-linejoin:miter;stroke-opacity:1" d="M 863.848,128.429 872.429,128.429 z" id="boundary" inkscape:connector-curvature="0" />
	<path style="fill:none;stroke:red;stroke-width:1px;stroke-linecap:butt;stroke-linejoin:miter;stroke-opacity:1" d="M 855.266,128.429 863.848,128.429 z" id="boundary" inkscape:connector-curvature="0" />
	<path style="fill:none;stroke:red;stroke-width:1px;stroke-linecap:butt;stroke-linejoin:miter;stroke-opacity:1" d="M 838.104,128.429 846.685,128.429 z" id="boundary" inkscape:connector-curvature="0" />
	<path style="fill:none;stroke:red;stroke-width:1px;stroke-linecap:butt;stroke-linejoin:miter;stroke-opacity:1" d="M 991.709,141.301 991.709,149.882 z" id="boundary" inkscape:connector-curvature="0" />
	<path style="fill:none;stroke:red;stroke-width:1px;stroke-linecap:butt;stroke-linejoin:miter;stroke-opacity:1" d="M 991.709,141.301 991.709,132.72 z" id="boundary" inkscape:connector-curvature="0" />
	<path style="fill:none;stroke:red;stroke-width:1px;stroke-linecap:butt;stroke-linejoin:miter;stroke-opacity:1" d="M 996,166.187 991.709,158.464 z" id="boundary" inkscape:connector-curvature="0" />
	<path style="fill:none;stroke:red;stroke-width:1px;stroke-linecap:butt;stroke-linejoin:miter;stroke-opacity:1" d="M 991.709,158.464 991.709,149.882 z" id="boundary" inkscape:connector-curvature="0" />
	<path style="fill:none;stroke:red;stroke-width:1px;stroke-linecap:butt;stroke-linejoin:miter;stroke-opacity:1" d="M 996,166.187 996,174.768 z" id="boundary" inkscape:connector-curvature="0" />
	<path style="fill:none;stroke:red;stroke-width:1px;stroke-linecap:butt;stroke-linejoin:miter;stroke-opacity:1" d="M 996,183.349 996,191.931 z" id="boundary" inkscape:connector-curvature="0" />
	<path style="fill:none;stroke:red;stroke-width:1px;stroke-linecap:butt;stroke-linejoin:miter;stroke-opacity:1" d="M 996,174.768 996,183.349 z" id="boundary" inkscape:connector-curvature="0" />
	<path style="fill:none;stroke:red;stroke-width:1px;stroke-linecap:butt;stroke-linejoin:miter;stroke-opacity:1" d="M 991.709,210.81 987.419,219.391 z" id="boundary" inkscape:connector-curvature="0" />
	<path style="fill:none;stroke:red;stroke-width:1px;stroke-linecap:butt;stroke-linejoin:miter;stroke-opacity:1" d="M 996,191.931 996,200.512 z" id="boundary" inkscape:connector-curvature="0" />
	<path style="fill:none;stroke:red;stroke-width:1px;stroke-linecap:butt;stroke-linejoin:miter;stroke-opacity:1" d="M 996,200.512 991.709,210.81 z" id="boundary" inkscape:connector-curvature="0" />
	<path style="fill:none;stroke:red;stroke-width:1px;stroke-linecap:butt;stroke-linejoin:miter;stroke-opacity:1" d="M 987.419,219.391 983.128,227.972 z" id="boundary" inkscape:connector-curvature="0" />
	<path style="fill:none;stroke:red;stroke-width:1px;stroke-linecap:butt;stroke-linejoin:miter;stroke-opacity:1" d="M 534.325,378.145 542.907,378.145 z" id="boundary" inkscape:connector-curvature="0" />
	<path style="fill:none;stroke:red;stroke-width:1px;stroke-linecap:butt;stroke-linejoin:miter;stroke-opacity:1" d="M 525.744,381.578 534.325,378.145 z" id="boundary" inkscape:connector-curvature="0" />
	<path style="fill:none;stroke:red;stroke-width:1px;stroke-linecap:butt;stroke-linejoin:miter;stroke-opacity:1" d="M 559.211,373.855 551.488,378.145 z" id="boundary" inkscape:connector-curvature="0" />
	<path style="fill:none;stroke:red;stroke-width:1px;stroke-linecap:butt;stroke-linejoin:miter;stroke-opacity:1" d="M 551.488,378.145 542.907,378.145 z" id="boundary" inkscape:connector-curvature="0" />
	<path style="fill:none;stroke:red;stroke-width:1px;stroke-linecap:butt;stroke-linejoin:miter;stroke-opacity:1" d="M 567.792,373.855 559.211,373.855 z" id="boundary" inkscape:connector-curvature="0" />
	<path style="fill:none;stroke:red;stroke-width:1px;stroke-linecap:butt;stroke-linejoin:miter;stroke-opacity:1" d="M 575.516,369.564 567.792,373.855 z" id="boundary" inkscape:connector-curvature="0" />
	<path style="fill:none;stroke:red;stroke-width:1px;stroke-linecap:butt;stroke-linejoin:miter;stroke-opacity:1" d="M 491.419,390.159 500,386.727 z" id="boundary" inkscape:connector-curvature="0" />
	<path style="fill:none;stroke:red;stroke-width:1px;stroke-linecap:butt;stroke-linejoin:miter;stroke-opacity:1" d="M 500,386.727 508.581,385.869 z" id="boundary" inkscape:connector-curvature="0" />
	<path style="fill:none;stroke:red;stroke-width:1px;stroke-linecap:butt;stroke-linejoin:miter;stroke-opacity:1" d="M 517.163,382.436 508.581,385.869 z" id="boundary" inkscape:connector-curvature="0" />
	<path style="fill:none;stroke:red;stroke-width:1px;stroke-linecap:butt;stroke-linejoin:miter;stroke-opacity:1" d="M 525.744,381.578 517.163,382.436 z" id="boundary" inkscape:connector-curvature="0" />
	<path style="fill:none;stroke:red;stroke-width:1px;stroke-linecap:butt;stroke-linejoin:miter;stroke-opacity:1" d="M 584.097,369.564 592.678,365.273 z" id="boundary" inkscape:connector-curvature="0" />
	<path style="fill:none;stroke:red;stroke-width:1px;stroke-linecap:butt;stroke-linejoin:miter;stroke-opacity:1" d="M 592.678,365.273 601.26,365.273 z" id="boundary" inkscape:connector-curvature="0" />
	<path style="fill:none;stroke:red;stroke-width:1px;stroke-linecap:butt;stroke-linejoin:miter;stroke-opacity:1" d="M 609.841,365.273 618.422,365.273 z" id="boundary" inkscape:connector-curvature="0" />
	<path style="fill:none;stroke:red;stroke-width:1px;stroke-linecap:butt;stroke-linejoin:miter;stroke-opacity:1" d="M 627.003,366.99 618.422,365.273 z" id="boundary" inkscape:connector-curvature="0" />
	<path style="fill:none;stroke:red;stroke-width:1px;stroke-linecap:butt;stroke-linejoin:miter;stroke-opacity:1" d="M 601.26,365.273 609.841,365.273 z" id="boundary" inkscape:connector-curvature="0" />
	<path style="fill:none;stroke:red;stroke-width:1px;stroke-linecap:butt;stroke-linejoin:miter;stroke-opacity:1" d="M 627.003,366.99 634.727,371.28 z" id="boundary" inkscape:connector-curvature="0" />
	<path style="fill:none;stroke:red;stroke-width:1px;stroke-linecap:butt;stroke-linejoin:miter;stroke-opacity:1" d="M 584.097,369.564 575.516,369.564 z" id="boundary" inkscape:connector-curvature="0" />
	<path style="fill:none;stroke:red;stroke-width:1px;stroke-linecap:butt;stroke-linejoin:miter;stroke-opacity:1" d="M 649.315,381.578 641.592,377.287 z" id="boundary" inkscape:connector-curvature="0" />
	<path style="fill:none;stroke:red;stroke-width:1px;stroke-linecap:butt;stroke-linejoin:miter;stroke-opacity:1" d="M 641.592,377.287 634.727,371.28 z" id="boundary" inkscape:connector-curvature="0" />
	<path style="fill:none;stroke:red;stroke-width:1px;stroke-linecap:butt;stroke-linejoin:miter;stroke-opacity:1" d="M 649.315,381.578 656.18,386.727 z" id="boundary" inkscape:connector-curvature="0" />
	<path style="fill:none;stroke:red;stroke-width:1px;stroke-linecap:butt;stroke-linejoin:miter;stroke-opacity:1" d="M 656.18,386.727 663.903,391.017 z" id="boundary" inkscape:connector-curvature="0" />
	<path style="fill:none;stroke:red;stroke-width:1px;stroke-linecap:butt;stroke-linejoin:miter;stroke-opacity:1" d="M 663.903,391.017 672.484,391.017 z" id="boundary" inkscape:connector-curvature="0" />
	<path style="fill:none;stroke:red;stroke-width:1px;stroke-linecap:butt;stroke-linejoin:miter;stroke-opacity:1" d="M 672.484,391.017 680.208,395.308 z" id="boundary" inkscape:connector-curvature="0" />
	<path style="fill:none;stroke:red;stroke-width:1px;stroke-linecap:butt;stroke-linejoin:miter;stroke-opacity:1" d="M 687.073,401.315 693.08,408.18 z" id="boundary" inkscape:connector-curvature="0" />
	<path style="fill:none;stroke:red;stroke-width:1px;stroke-linecap:butt;stroke-linejoin:miter;stroke-opacity:1" d="M 687.073,401.315 680.208,395.308 z" id="boundary" inkscape:connector-curvature="0" />
	<path style="fill:none;stroke:red;stroke-width:1px;stroke-linecap:butt;stroke-linejoin:miter;stroke-opacity:1" d="M 693.08,408.18 701.661,411.612 z" id="boundary" inkscape:connector-curvature="0" />
	<path style="fill:none;stroke:red;stroke-width:1px;stroke-linecap:butt;stroke-linejoin:miter;stroke-opacity:1" d="M 709.384,415.903 701.661,411.612 z" id="boundary" inkscape:connector-curvature="0" />
	<path style="fill:none;stroke:red;stroke-width:1px;stroke-linecap:butt;stroke-linejoin:miter;stroke-opacity:1" d="M 709.384,415.903 716.249,421.052 z" id="boundary" inkscape:connector-curvature="0" />
	<path style="fill:none;stroke:red;stroke-width:1px;stroke-linecap:butt;stroke-linejoin:miter;stroke-opacity:1" d="M 716.249,421.052 723.972,425.343 z" id="boundary" inkscape:connector-curvature="0" />
	<path style="fill:none;stroke:red;stroke-width:1px;stroke-linecap:butt;stroke-linejoin:miter;stroke-opacity:1" d="M 731.696,429.633 723.972,425.343 z" id="boundary" inkscape:connector-curvature="0" />
	<path style="fill:none;stroke:red;stroke-width:1px;stroke-linecap:butt;stroke-linejoin:miter;stroke-opacity:1" d="M 748,436.498 739.419,433.924 z" id="boundary" inkscape:connector-curvature="0" />
	<path style="fill:none;stroke:red;stroke-width:1px;stroke-linecap:butt;stroke-linejoin:miter;stroke-opacity:1" d="M 739.419,433.924 731.696,429.633 z" id="boundary" inkscape:connector-curvature="0" />
	<path style="fill:none;stroke:red;stroke-width:1px;stroke-linecap:butt;stroke-linejoin:miter;stroke-opacity:1" d="M 765.163,438.215 756.581,438.215 z" id="boundary" inkscape:connector-curvature="0" />
	<path style="fill:none;stroke:red;stroke-width:1px;stroke-linecap:butt;stroke-linejoin:miter;stroke-opacity:1" d="M 756.581,438.215 748,436.498 z" id="boundary" inkscape:connector-curvature="0" />
	<path style="fill:none;stroke:red;stroke-width:1px;stroke-linecap:butt;stroke-linejoin:miter;stroke-opacity:1" d="M 782.325,438.215 773.744,438.215 z" id="boundary" inkscape:connector-curvature="0" />
	<path style="fill:none;stroke:red;stroke-width:1px;stroke-linecap:butt;stroke-linejoin:miter;stroke-opacity:1" d="M 773.744,438.215 765.163,438.215 z" id="boundary" inkscape:connector-curvature="0" />
	<path style="fill:none;stroke:red;stroke-width:1px;stroke-linecap:butt;stroke-linejoin:miter;stroke-opacity:1" d="M 790.907,438.215 782.325,438.215 z" id="boundary" inkscape:connector-curvature="0" />
	<path style="fill:none;stroke:red;stroke-width:1px;stroke-linecap:butt;stroke-linejoin:miter;stroke-opacity:1" d="M 482.837,391.017 491.419,390.159 z" id="boundary" inkscape:connector-curvature="0" />
	<path style="fill:none;stroke:red;stroke-width:1px;stroke-linecap:butt;stroke-linejoin:miter;stroke-opacity:1" d="M 914.478,313.785 914.478,322.367 z" id="boundary" inkscape:connector-curvature="0" />
	<path style="fill:none;stroke:red;stroke-width:1px;stroke-linecap:butt;stroke-linejoin:miter;stroke-opacity:1" d="M 914.478,313.785 914.478,305.204 z" id="boundary" inkscape:connector-curvature="0" />
	<path style="fill:none;stroke:red;stroke-width:1px;stroke-linecap:butt;stroke-linejoin:miter;stroke-opacity:1" d="M 914.478,305.204 921.343,299.197 z" id="boundary" inkscape:connector-curvature="0" />
	<path style="fill:none;stroke:red;stroke-width:1px;stroke-linecap:butt;stroke-linejoin:miter;stroke-opacity:1" d="M 914.478,330.948 914.478,322.367 z" id="boundary" inkscape:connector-curvature="0" />
	<path style="fill:none;stroke:red;stroke-width:1px;stroke-linecap:butt;stroke-linejoin:miter;stroke-opacity:1" d="M 927.349,292.332 921.343,299.197 z" id="boundary" inkscape:connector-curvature="0" />
	<path style="fill:none;stroke:red;stroke-width:1px;stroke-linecap:butt;stroke-linejoin:miter;stroke-opacity:1" d="M 799.488,438.215 790.907,438.215 z" id="boundary" inkscape:connector-curvature="0" />
	<path style="fill:none;stroke:red;stroke-width:1px;stroke-linecap:butt;stroke-linejoin:miter;stroke-opacity:1" d="M 914.478,330.948 914.478,339.529 z" id="boundary" inkscape:connector-curvature="0" />
	<path style="fill:none;stroke:red;stroke-width:1px;stroke-linecap:butt;stroke-linejoin:miter;stroke-opacity:1" d="M 914.478,348.111 914.478,356.692 z" id="boundary" inkscape:connector-curvature="0" />
	<path style="fill:none;stroke:red;stroke-width:1px;stroke-linecap:butt;stroke-linejoin:miter;stroke-opacity:1" d="M 914.478,365.273 914.478,356.692 z" id="boundary" inkscape:connector-curvature="0" />
	<path style="fill:none;stroke:red;stroke-width:1px;stroke-linecap:butt;stroke-linejoin:miter;stroke-opacity:1" d="M 914.478,348.111 914.478,339.529 z" id="boundary" inkscape:connector-curvature="0" />
	<path style="fill:none;stroke:red;stroke-width:1px;stroke-linecap:butt;stroke-linejoin:miter;stroke-opacity:1" d="M 954.81,270.021 959.1,261.439 z" id="boundary" inkscape:connector-curvature="0" />
	<path style="fill:none;stroke:red;stroke-width:1px;stroke-linecap:butt;stroke-linejoin:miter;stroke-opacity:1" d="M 959.1,261.439 965.965,253.716 z" id="boundary" inkscape:connector-curvature="0" />
	<path style="fill:none;stroke:red;stroke-width:1px;stroke-linecap:butt;stroke-linejoin:miter;stroke-opacity:1" d="M 972.83,247.709 977.121,239.128 z" id="boundary" inkscape:connector-curvature="0" />
	<path style="fill:none;stroke:red;stroke-width:1px;stroke-linecap:butt;stroke-linejoin:miter;stroke-opacity:1" d="M 977.121,239.128 983.128,227.972 z" id="boundary" inkscape:connector-curvature="0" />
	<path style="fill:none;stroke:red;stroke-width:1px;stroke-linecap:butt;stroke-linejoin:miter;stroke-opacity:1" d="M 972.83,247.709 965.965,253.716 z" id="boundary" inkscape:connector-curvature="0" />
	<path style="fill:none;stroke:red;stroke-width:1px;stroke-linecap:butt;stroke-linejoin:miter;stroke-opacity:1" d="M 934.215,286.325 927.349,292.332 z" id="boundary" inkscape:connector-curvature="0" />
	<path style="fill:none;stroke:red;stroke-width:1px;stroke-linecap:butt;stroke-linejoin:miter;stroke-opacity:1" d="M 940.221,279.46 934.215,286.325 z" id="boundary" inkscape:connector-curvature="0" />
	<path style="fill:none;stroke:red;stroke-width:1px;stroke-linecap:butt;stroke-linejoin:miter;stroke-opacity:1" d="M 947.945,275.17 940.221,279.46 z" id="boundary" inkscape:connector-curvature="0" />
	<path style="fill:none;stroke:red;stroke-width:1px;stroke-linecap:butt;stroke-linejoin:miter;stroke-opacity:1" d="M 954.81,270.021 947.945,275.17 z" id="boundary" inkscape:connector-curvature="0" />
	<path style="fill:none;stroke:red;stroke-width:1px;stroke-linecap:butt;stroke-linejoin:miter;stroke-opacity:1" d="M 914.478,373.855 914.478,365.273 z" id="boundary" inkscape:connector-curvature="0" />
	<path style="fill:none;stroke:red;stroke-width:1px;stroke-linecap:butt;stroke-linejoin:miter;stroke-opacity:1" d="M 841.536,433.924 850.118,433.924 z" id="boundary" inkscape:connector-curvature="0" />
	<path style="fill:none;stroke:red;stroke-width:1px;stroke-linecap:butt;stroke-linejoin:miter;stroke-opacity:1" d="M 833.813,438.215 841.536,433.924 z" id="boundary" inkscape:connector-curvature="0" />
	<path style="fill:none;stroke:red;stroke-width:1px;stroke-linecap:butt;stroke-linejoin:miter;stroke-opacity:1" d="M 858.699,433.924 866.422,429.633 z" id="boundary" inkscape:connector-curvature="0" />
	<path style="fill:none;stroke:red;stroke-width:1px;stroke-linecap:butt;stroke-linejoin:miter;stroke-opacity:1" d="M 866.422,429.633 875.003,427.059 z" id="boundary" inkscape:connector-curvature="0" />
	<path style="fill:none;stroke:red;stroke-width:1px;stroke-linecap:butt;stroke-linejoin:miter;stroke-opacity:1" d="M 858.699,433.924 850.118,433.924 z" id="boundary" inkscape:connector-curvature="0" />
	<path style="fill:none;stroke:red;stroke-width:1px;stroke-linecap:butt;stroke-linejoin:miter;stroke-opacity:1" d="M 825.232,438.215 816.651,438.215 z" id="boundary" inkscape:connector-curvature="0" />
	<path style="fill:none;stroke:red;stroke-width:1px;stroke-linecap:butt;stroke-linejoin:miter;stroke-opacity:1" d="M 833.813,438.215 825.232,438.215 z" id="boundary" inkscape:connector-curvature="0" />
	<path style="fill:none;stroke:red;stroke-width:1px;stroke-linecap:butt;stroke-linejoin:miter;stroke-opacity:1" d="M 816.651,438.215 808.069,438.215 z" id="boundary" inkscape:connector-curvature="0" />
	<path style="fill:none;stroke:red;stroke-width:1px;stroke-linecap:butt;stroke-linejoin:miter;stroke-opacity:1" d="M 808.069,438.215 799.488,438.215 z" id="boundary" inkscape:connector-curvature="0" />
	<path style="fill:none;stroke:red;stroke-width:1px;stroke-linecap:butt;stroke-linejoin:miter;stroke-opacity:1" d="M 914.478,373.855 914.478,382.436 z" id="boundary" inkscape:connector-curvature="0" />
	<path style="fill:none;stroke:red;stroke-width:1px;stroke-linecap:butt;stroke-linejoin:miter;stroke-opacity:1" d="M 914.478,391.017 914.478,399.599 z" id="boundary" inkscape:connector-curvature="0" />
	<path style="fill:none;stroke:red;stroke-width:1px;stroke-linecap:butt;stroke-linejoin:miter;stroke-opacity:1" d="M 914.478,408.18 914.478,399.599 z" id="boundary" inkscape:connector-curvature="0" />
	<path style="fill:none;stroke:red;stroke-width:1px;stroke-linecap:butt;stroke-linejoin:miter;stroke-opacity:1" d="M 914.478,391.017 914.478,382.436 z" id="boundary" inkscape:connector-curvature="0" />
	<path style="fill:none;stroke:red;stroke-width:1px;stroke-linecap:butt;stroke-linejoin:miter;stroke-opacity:1" d="M 875.003,427.059 883.585,425.343 z" id="boundary" inkscape:connector-curvature="0" />
	<path style="fill:none;stroke:red;stroke-width:1px;stroke-linecap:butt;stroke-linejoin:miter;stroke-opacity:1" d="M 883.585,425.343 892.166,425.343 z" id="boundary" inkscape:connector-curvature="0" />
	<path style="fill:none;stroke:red;stroke-width:1px;stroke-linecap:butt;stroke-linejoin:miter;stroke-opacity:1" d="M 907.612,420.194 900.747,425.343 z" id="boundary" inkscape:connector-curvature="0" />
	<path style="fill:none;stroke:red;stroke-width:1px;stroke-linecap:butt;stroke-linejoin:miter;stroke-opacity:1" d="M 900.747,425.343 892.166,425.343 z" id="boundary" inkscape:connector-curvature="0" />
	<path style="fill:none;stroke:red;stroke-width:1px;stroke-linecap:butt;stroke-linejoin:miter;stroke-opacity:1" d="M 914.478,408.18 907.612,420.194 z" id="boundary" inkscape:connector-curvature="0" />
	<circle cx="4" cy="242.561" r="4" fill="#0" id="circle0"/>
	<circle cx="4" cy="251.142" r="4" fill="#0" id="circle1"/>
	<circle cx="4" cy="259.723" r="4" fill="#0" id="circle2"/>
	<circle cx="4" cy="268.304" r="4" fill="#0" id="circle3"/>
	<circle cx="4" cy="276.886" r="4" fill="#0" id="circle4"/>
	<circle cx="4" cy="285.467" r="4" fill="#0" id="circle5"/>
	<circle cx="8.29066" cy="233.979" r="4" fill="#0" id="circle6"/>
	<circle cx="8.29066" cy="293.19" r="4" fill="#0" id="circle7"/>
	<circle cx="8.29066" cy="301.772" r="4" fill="#0" id="circle8"/>
	<circle cx="8.29066" cy="310.353" r="4" fill="#0" id="circle9"/>
	<circle cx="8.29066" cy="318.934" r="4" fill="#0" id="circle10"/>
	<circle cx="8.29066" cy="327.516" r="4" fill="#0" id="circle11"/>
	<circle cx="8.29066" cy="336.097" r="4" fill="#0" id="circle12"/>
	<circle cx="8.29066" cy="344.678" r="4" fill="#0" id="circle13"/>
	<circle cx="8.29066" cy="353.26" r="4" fill="#0" id="circle14"/>
	<circle cx="12.5813" cy="360.983" r="4" fill="#0" id="circle15"/>
	<circle cx="16.872" cy="229.689" r="4" fill="#0" id="circle16"/>
	<circle cx="17.7301" cy="367.848" r="4" fill="#0" id="circle17"/>
	<circle cx="21.1626" cy="221.107" r="4" fill="#0" id="circle18"/>
	<circle cx="26.3114" cy="369.564" r="4" fill="#0" id="circle19"/>
	<circle cx="29.7439" cy="216.817" r="4" fill="#0" id="circle20"/>
	<circle cx="34.0346" cy="365.273" r="4" fill="#0" id="circle21"/>
	<circle cx="36.609" cy="209.952" r="4" fill="#0" id="circle22"/>
	<circle cx="42.6159" cy="362.699" r="4" fill="#0" id="circle23"/>
	<circle cx="44.3322" cy="205.661" r="4" fill="#0" id="circle24"/>
	<circle cx="51.1972" cy="195.363" r="4" fill="#0" id="circle25"/>
	<circle cx="51.1972" cy="360.983" r="4" fill="#0" id="circle26"/>
	<circle cx="59.7785" cy="191.073" r="4" fill="#0" id="circle27"/>
	<circle cx="59.7785" cy="360.983" r="4" fill="#0" id="circle28"/>
	<circle cx="66.6436" cy="184.208" r="4" fill="#0" id="circle29"/>
	<circle cx="68.3599" cy="360.983" r="4" fill="#0" id="circle30"/>
	<circle cx="73.5087" cy="177.343" r="4" fill="#0" id="circle31"/>
	<circle cx="76.9412" cy="360.983" r="4" fill="#0" id="circle32"/>
	<circle cx="82.09" cy="173.052" r="4" fill="#0" id="circle33"/>
	<circle cx="85.5225" cy="32.3183" r="4" fill="#0" id="circle34"/>
	<circle cx="85.5225" cy="360.983" r="4" fill="#0" id="circle35"/>
	<circle cx="88.955" cy="167.045" r="4" fill="#0" id="circle36"/>
	<circle cx="89.8131" cy="23.737" r="4" fill="#0" id="circle37"/>
	<circle cx="89.8131" cy="40.0415" r="4" fill="#0" id="circle38"/>
	<circle cx="93.2457" cy="356.692" r="4" fill="#0" id="circle39"/>
	<circle cx="94.1038" cy="47.7647" r="4" fill="#0" id="circle40"/>
	<circle cx="94.1038" cy="56.346" r="4" fill="#0" id="circle41"/>
	<circle cx="94.1038" cy="156.747" r="4" fill="#0" id="circle42"/>
	<circle cx="98.3945" cy="19.4464" r="4" fill="#0" id="circle43"/>
	<circle cx="98.3945" cy="64.0692" r="4" fill="#0" id="circle44"/>
	<circle cx="98.3945" cy="72.6505" r="4" fill="#0" id="circle45"/>
	<circle cx="98.3945" cy="81.2318" r="4" fill="#0" id="circle46"/>
	<circle cx="100.111" cy="89.8131" r="4" fill="#0" id="circle47"/>
	<circle cx="101.827" cy="356.692" r="4" fill="#0" id="circle48"/>
	<circle cx="102.685" cy="98.3945" r="4" fill="#0" id="circle49"/>
	<circle cx="102.685" cy="152.457" r="4" fill="#0" id="circle50"/>
	<circle cx="106.976" cy="16.872" r="4" fill="#0" id="circle51"/>
	<circle cx="106.976" cy="106.118" r="4" fill="#0" id="circle52"/>
	<circle cx="106.976" cy="143.875" r="4" fill="#0" id="circle53"/>
	<circle cx="110.408" cy="356.692" r="4" fill="#0" id="circle54"/>
	<circle cx="111.266" cy="113.841" r="4" fill="#0" id="circle55"/>
	<circle cx="115.557" cy="15.1557" r="4" fill="#0" id="circle56"/>
	<circle cx="115.557" cy="121.564" r="4" fill="#0" id="circle57"/>
	<circle cx="115.557" cy="130.145" r="4" fill="#0" id="circle58"/>
	<circle cx="115.557" cy="138.727" r="4" fill="#0" id="circle59"/>
	<circle cx="118.99" cy="356.692" r="4" fill="#0" id="circle60"/>
	<circle cx="124.138" cy="10.8651" r="4" fill="#0" id="circle61"/>
	<circle cx="127.571" cy="354.976" r="4" fill="#0" id="circle62"/>
	<circle cx="132.72" cy="8.29066" r="4" fill="#0" id="circle63"/>
	<circle cx="136.152" cy="352.401" r="4" fill="#0" id="circle64"/>
	<circle cx="141.301" cy="6.57439" r="4" fill="#0" id="circle65"/>
	<circle cx="144.734" cy="350.685" r="4" fill="#0" id="circle66"/>
	<circle cx="149.882" cy="4" r="4" fill="#0" id="circle67"/>
	<circle cx="153.315" cy="346.394" r="4" fill="#0" id="circle68"/>
	<circle cx="158.464" cy="4" r="4" fill="#0" id="circle69"/>
	<circle cx="161.896" cy="343.82" r="4" fill="#0" id="circle70"/>
	<circle cx="167.045" cy="4" r="4" fill="#0" id="circle71"/>
	<circle cx="170.478" cy="343.82" r="4" fill="#0" id="circle72"/>
	<circle cx="175.626" cy="4" r="4" fill="#0" id="circle73"/>
	<circle cx="178.201" cy="348.111" r="4" fill="#0" id="circle74"/>
	<circle cx="184.208" cy="4" r="4" fill="#0" id="circle75"/>
	<circle cx="185.066" cy="354.118" r="4" fill="#0" id="circle76"/>
	<circle cx="191.073" cy="360.983" r="4" fill="#0" id="circle77"/>
	<circle cx="192.789" cy="4" r="4" fill="#0" id="circle78"/>
	<circle cx="199.654" cy="364.415" r="4" fill="#0" id="circle79"/>
	<circle cx="201.37" cy="4" r="4" fill="#0" id="circle80"/>
	<circle cx="206.519" cy="369.564" r="4" fill="#0" id="circle81"/>
	<circle cx="209.952" cy="4" r="4" fill="#0" id="circle82"/>
	<circle cx="214.242" cy="373.855" r="4" fill="#0" id="circle83"/>
	<circle cx="218.533" cy="4" r="4" fill="#0" id="circle84"/>
	<circle cx="221.965" cy="378.145" r="4" fill="#0" id="circle85"/>
	<circle cx="227.114" cy="4" r="4" fill="#0" id="circle86"/>
	<circle cx="227.972" cy="385.01" r="4" fill="#0" id="circle87"/>
	<circle cx="235.696" cy="5.71626" r="4" fill="#0" id="circle88"/>
	<circle cx="236.554" cy="388.443" r="4" fill="#0" id="circle89"/>
	<circle cx="243.419" cy="10.0069" r="4" fill="#0" id="circle90"/>
	<circle cx="244.277" cy="392.734" r="4" fill="#0" id="circle91"/>
	<circle cx="252" cy="13.4394" r="4" fill="#0" id="circle92"/>
	<circle cx="252.858" cy="395.308" r="4" fill="#0" id="circle93"/>
	<circle cx="259.723" cy="17.7301" r="4" fill="#0" id="circle94"/>
	<circle cx="260.581" cy="399.599" r="4" fill="#0" id="circle95"/>
	<circle cx="266.588" cy="23.737" r="4" fill="#0" id="circle96"/>
	<circle cx="268.304" cy="403.889" r="4" fill="#0" id="circle97"/>
	<circle cx="274.311" cy="28.0277" r="4" fill="#0" id="circle98"/>
	<circle cx="276.028" cy="408.18" r="4" fill="#0" id="circle99"/>
	<circle cx="281.176" cy="34.0346" r="4" fill="#0" id="circle100"/>
	<circle cx="283.751" cy="412.471" r="4" fill="#0" id="circle101"/>
	<circle cx="288.9" cy="38.3253" r="4" fill="#0" id="circle102"/>
	<circle cx="291.474" cy="416.761" r="4" fill="#0" id="circle103"/>
	<circle cx="296.623" cy="42.6159" r="4" fill="#0" id="circle104"/>
	<circle cx="299.197" cy="421.052" r="4" fill="#0" id="circle105"/>
	<circle cx="305.204" cy="45.1903" r="4" fill="#0" id="circle106"/>
	<circle cx="307.779" cy="421.052" r="4" fill="#0" id="circle107"/>
	<circle cx="311.211" cy="52.0554" r="4" fill="#0" id="circle108"/>
	<circle cx="316.36" cy="421.052" r="4" fill="#0" id="circle109"/>
	<circle cx="319.792" cy="55.4879" r="4" fill="#0" id="circle110"/>
	<circle cx="324.083" cy="416.761" r="4" fill="#0" id="circle111"/>
	<circle cx="325.799" cy="62.3529" r="4" fill="#0" id="circle112"/>
	<circle cx="331.806" cy="412.471" r="4" fill="#0" id="circle113"/>
	<circle cx="332.664" cy="68.3599" r="4" fill="#0" id="circle114"/>
	<circle cx="338.671" cy="75.2249" r="4" fill="#0" id="circle115"/>
	<circle cx="340.388" cy="412.471" r="4" fill="#0" id="circle116"/>
	<circle cx="345.536" cy="81.2318" r="4" fill="#0" id="circle117"/>
	<circle cx="348.969" cy="412.471" r="4" fill="#0" id="circle118"/>
	<circle cx="354.118" cy="81.2318" r="4" fill="#0" id="circle119"/>
	<circle cx="357.55" cy="412.471" r="4" fill="#0" id="circle120"/>
	<circle cx="361.841" cy="76.9412" r="4" fill="#0" id="circle121"/>
	<circle cx="365.273" cy="408.18" r="4" fill="#0" id="circle122"/>
	<circle cx="370.422" cy="76.9412" r="4" fill="#0" id="circle123"/>
	<circle cx="373.855" cy="408.18" r="4" fill="#0" id="circle124"/>
	<circle cx="379.003" cy="76.9412" r="4" fill="#0" id="circle125"/>
	<circle cx="382.436" cy="408.18" r="4" fill="#0" id="circle126"/>
	<circle cx="387.585" cy="76.9412" r="4" fill="#0" id="circle127"/>
	<circle cx="390.159" cy="403.889" r="4" fill="#0" id="circle128"/>
	<circle cx="396.166" cy="76.9412" r="4" fill="#0" id="circle129"/>
	<circle cx="398.74" cy="403.889" r="4" fill="#0" id="circle130"/>
	<circle cx="404.747" cy="76.9412" r="4" fill="#0" id="circle131"/>
	<circle cx="406.464" cy="399.599" r="4" fill="#0" id="circle132"/>
	<circle cx="413.329" cy="76.9412" r="4" fill="#0" id="circle133"/>
	<circle cx="415.045" cy="399.599" r="4" fill="#0" id="circle134"/>
	<circle cx="421.91" cy="76.9412" r="4" fill="#0" id="circle135"/>
	<circle cx="423.626" cy="399.599" r="4" fill="#0" id="circle136"/>
	<circle cx="430.491" cy="76.9412" r="4" fill="#0" id="circle137"/>
	<circle cx="431.349" cy="395.308" r="4" fill="#0" id="circle138"/>
	<circle cx="439.073" cy="76.9412" r="4" fill="#0" id="circle139"/>
	<circle cx="439.931" cy="395.308" r="4" fill="#0" id="circle140"/>
	<circle cx="446.796" cy="72.6505" r="4" fill="#0" id="circle141"/>
	<circle cx="448.512" cy="394.45" r="4" fill="#0" id="circle142"/>
	<circle cx="455.377" cy="72.6505" r="4" fill="#0" id="circle143"/>
	<circle cx="457.093" cy="391.017" r="4" fill="#0" id="circle144"/>
	<circle cx="463.958" cy="72.6505" r="4" fill="#0" id="circle145"/>
	<circle cx="465.675" cy="391.017" r="4" fill="#0" id="circle146"/>
	<circle cx="472.54" cy="72.6505" r="4" fill="#0" id="circle147"/>
	<circle cx="474.256" cy="391.017" r="4" fill="#0" id="circle148"/>
	<circle cx="481.121" cy="72.6505" r="4" fill="#0" id="circle149"/>
	<circle cx="482.837" cy="391.017" r="4" fill="#0" id="circle150"/>
	<circle cx="489.702" cy="72.6505" r="4" fill="#0" id="circle151"/>
	<circle cx="491.419" cy="390.159" r="4" fill="#0" id="circle152"/>
	<circle cx="498.284" cy="72.6505" r="4" fill="#0" id="circle153"/>
	<circle cx="500" cy="386.727" r="4" fill="#0" id="circle154"/>
	<circle cx="506.007" cy="68.3599" r="4" fill="#0" id="circle155"/>
	<circle cx="508.581" cy="385.869" r="4" fill="#0" id="circle156"/>
	<circle cx="514.588" cy="68.3599" r="4" fill="#0" id="circle157"/>
	<circle cx="517.163" cy="382.436" r="4" fill="#0" id="circle158"/>
	<circle cx="523.17" cy="68.3599" r="4" fill="#0" id="circle159"/>
	<circle cx="525.744" cy="381.578" r="4" fill="#0" id="circle160"/>
	<circle cx="531.751" cy="66.6436" r="4" fill="#0" id="circle161"/>
	<circle cx="534.325" cy="378.145" r="4" fill="#0" id="circle162"/>
	<circle cx="540.332" cy="62.3529" r="4" fill="#0" id="circle163"/>
	<circle cx="542.907" cy="378.145" r="4" fill="#0" id="circle164"/>
	<circle cx="548.913" cy="59.7785" r="4" fill="#0" id="circle165"/>
	<circle cx="551.488" cy="378.145" r="4" fill="#0" id="circle166"/>
	<circle cx="557.495" cy="59.7785" r="4" fill="#0" id="circle167"/>
	<circle cx="559.211" cy="373.855" r="4" fill="#0" id="circle168"/>
	<circle cx="566.076" cy="58.0623" r="4" fill="#0" id="circle169"/>
	<circle cx="567.792" cy="373.855" r="4" fill="#0" id="circle170"/>
	<circle cx="574.657" cy="55.4879" r="4" fill="#0" id="circle171"/>
	<circle cx="575.516" cy="369.564" r="4" fill="#0" id="circle172"/>
	<circle cx="583.239" cy="55.4879" r="4" fill="#0" id="circle173"/>
	<circle cx="584.097" cy="369.564" r="4" fill="#0" id="circle174"/>
	<circle cx="590.962" cy="51.1972" r="4" fill="#0" id="circle175"/>
	<circle cx="592.678" cy="365.273" r="4" fill="#0" id="circle176"/>
	<circle cx="599.543" cy="51.1972" r="4" fill="#0" id="circle177"/>
	<circle cx="601.26" cy="365.273" r="4" fill="#0" id="circle178"/>
	<circle cx="608.125" cy="51.1972" r="4" fill="#0" id="circle179"/>
	<circle cx="609.841" cy="365.273" r="4" fill="#0" id="circle180"/>
	<circle cx="616.706" cy="51.1972" r="4" fill="#0" id="circle181"/>
	<circle cx="618.422" cy="365.273" r="4" fill="#0" id="circle182"/>
	<circle cx="625.287" cy="51.1972" r="4" fill="#0" id="circle183"/>
	<circle cx="627.003" cy="366.99" r="4" fill="#0" id="circle184"/>
	<circle cx="633.01" cy="46.9066" r="4" fill="#0" id="circle185"/>
	<circle cx="634.727" cy="371.28" r="4" fill="#0" id="circle186"/>
	<circle cx="641.592" cy="46.9066" r="4" fill="#0" id="circle187"/>
	<circle cx="641.592" cy="377.287" r="4" fill="#0" id="circle188"/>
	<circle cx="649.315" cy="42.6159" r="4" fill="#0" id="circle189"/>
	<circle cx="649.315" cy="381.578" r="4" fill="#0" id="circle190"/>
	<circle cx="656.18" cy="386.727" r="4" fill="#0" id="circle191"/>
	<circle cx="657.896" cy="42.6159" r="4" fill="#0" id="circle192"/>
	<circle cx="663.903" cy="391.017" r="4" fill="#0" id="circle193"/>
	<circle cx="666.478" cy="42.6159" r="4" fill="#0" id="circle194"/>
	<circle cx="672.484" cy="391.017" r="4" fill="#0" id="circle195"/>
	<circle cx="675.059" cy="42.6159" r="4" fill="#0" id="circle196"/>
	<circle cx="680.208" cy="395.308" r="4" fill="#0" id="circle197"/>
	<circle cx="683.64" cy="42.6159" r="4" fill="#0" id="circle198"/>
	<circle cx="687.073" cy="401.315" r="4" fill="#0" id="circle199"/>
	<circle cx="691.363" cy="46.9066" r="4" fill="#0" id="circle200"/>
	<circle cx="693.08" cy="408.18" r="4" fill="#0" id="circle201"/>
	<circle cx="699.945" cy="49.481" r="4" fill="#0" id="circle202"/>
	<circle cx="701.661" cy="411.612" r="4" fill="#0" id="circle203"/>
	<circle cx="707.668" cy="53.7716" r="4" fill="#0" id="circle204"/>
	<circle cx="709.384" cy="415.903" r="4" fill="#0" id="circle205"/>
	<circle cx="714.533" cy="59.7785" r="4" fill="#0" id="circle206"/>
	<circle cx="716.249" cy="421.052" r="4" fill="#0" id="circle207"/>
	<circle cx="720.54" cy="66.6436" r="4" fill="#0" id="circle208"/>
	<circle cx="723.972" cy="425.343" r="4" fill="#0" id="circle209"/>
	<circle cx="727.405" cy="72.6505" r="4" fill="#0" id="circle210"/>
	<circle cx="731.696" cy="429.633" r="4" fill="#0" id="circle211"/>
	<circle cx="735.128" cy="76.9412" r="4" fill="#0" id="circle212"/>
	<circle cx="738.561" cy="85.5225" r="4" fill="#0" id="circle213"/>
	<circle cx="739.419" cy="433.924" r="4" fill="#0" id="circle214"/>
	<circle cx="745.426" cy="90.6713" r="4" fill="#0" id="circle215"/>
	<circle cx="748" cy="436.498" r="4" fill="#0" id="circle216"/>
	<circle cx="751.433" cy="97.5363" r="4" fill="#0" id="circle217"/>
	<circle cx="756.581" cy="438.215" r="4" fill="#0" id="circle218"/>
	<circle cx="758.298" cy="103.543" r="4" fill="#0" id="circle219"/>
	<circle cx="764.304" cy="110.408" r="4" fill="#0" id="circle220"/>
	<circle cx="765.163" cy="438.215" r="4" fill="#0" id="circle221"/>
	<circle cx="768.595" cy="118.131" r="4" fill="#0" id="circle222"/>
	<circle cx="772.028" cy="126.713" r="4" fill="#0" id="circle223"/>
	<circle cx="773.744" cy="438.215" r="4" fill="#0" id="circle224"/>
	<circle cx="778.893" cy="132.72" r="4" fill="#0" id="circle225"/>
	<circle cx="782.325" cy="438.215" r="4" fill="#0" id="circle226"/>
	<circle cx="786.616" cy="128.429" r="4" fill="#0" id="circle227"/>
	<circle cx="790.907" cy="438.215" r="4" fill="#0" id="circle228"/>
	<circle cx="795.197" cy="128.429" r="4" fill="#0" id="circle229"/>
	<circle cx="799.488" cy="438.215" r="4" fill="#0" id="circle230"/>
	<circle cx="803.779" cy="128.429" r="4" fill="#0" id="circle231"/>
	<circle cx="808.069" cy="438.215" r="4" fill="#0" id="circle232"/>
	<circle cx="812.36" cy="128.429" r="4" fill="#0" id="circle233"/>
	<circle cx="816.651" cy="438.215" r="4" fill="#0" id="circle234"/>
	<circle cx="820.941" cy="128.429" r="4" fill="#0" id="circle235"/>
	<circle cx="825.232" cy="438.215" r="4" fill="#0" id="circle236"/>
	<circle cx="829.522" cy="128.429" r="4" fill="#0" id="circle237"/>
	<circle cx="833.813" cy="438.215" r="4" fill="#0" id="circle238"/>
	<circle cx="838.104" cy="128.429" r="4" fill="#0" id="circle239"/>
	<circle cx="841.536" cy="433.924" r="4" fill="#0" id="circle240"/>
	<circle cx="846.685" cy="128.429" r="4" fill="#0" id="circle241"/>
	<circle cx="850.118" cy="433.924" r="4" fill="#0" id="circle242"/>
	<circle cx="855.266" cy="128.429" r="4" fill="#0" id="circle243"/>
	<circle cx="858.699" cy="433.924" r="4" fill="#0" id="circle244"/>
	<circle cx="863.848" cy="128.429" r="4" fill="#0" id="circle245"/>
	<circle cx="866.422" cy="429.633" r="4" fill="#0" id="circle246"/>
	<circle cx="872.429" cy="128.429" r="4" fill="#0" id="circle247"/>
	<circle cx="875.003" cy="427.059" r="4" fill="#0" id="circle248"/>
	<circle cx="880.152" cy="124.138" r="4" fill="#0" id="circle249"/>
	<circle cx="883.585" cy="425.343" r="4" fill="#0" id="circle250"/>
	<circle cx="888.734" cy="124.138" r="4" fill="#0" id="circle251"/>
	<circle cx="892.166" cy="425.343" r="4" fill="#0" id="circle252"/>
	<circle cx="896.457" cy="119.848" r="4" fill="#0" id="circle253"/>
	<circle cx="900.747" cy="425.343" r="4" fill="#0" id="circle254"/>
	<circle cx="905.038" cy="119.848" r="4" fill="#0" id="circle255"/>
	<circle cx="907.612" cy="420.194" r="4" fill="#0" id="circle256"/>
	<circle cx="913.619" cy="118.131" r="4" fill="#0" id="circle257"/>
	<circle cx="914.478" cy="305.204" r="4" fill="#0" id="circle258"/>
	<circle cx="914.478" cy="313.785" r="4" fill="#0" id="circle259"/>
	<circle cx="914.478" cy="322.367" r="4" fill="#0" id="circle260"/>
	<circle cx="914.478" cy="330.948" r="4" fill="#0" id="circle261"/>
	<circle cx="914.478" cy="339.529" r="4" fill="#0" id="circle262"/>
	<circle cx="914.478" cy="348.111" r="4" fill="#0" id="circle263"/>
	<circle cx="914.478" cy="356.692" r="4" fill="#0" id="circle264"/>
	<circle cx="914.478" cy="365.273" r="4" fill="#0" id="circle265"/>
	<circle cx="914.478" cy="373.855" r="4" fill="#0" id="circle266"/>
	<circle cx="914.478" cy="382.436" r="4" fill="#0" id="circle267"/>
	<circle cx="914.478" cy="391.017" r="4" fill="#0" id="circle268"/>
	<circle cx="914.478" cy="399.599" r="4" fill="#0" id="circle269"/>
	<circle cx="914.478" cy="408.18" r="4" fill="#0" id="circle270"/>
	<circle cx="921.343" cy="299.197" r="4" fill="#0" id="circle271"/>
	<circle cx="922.201" cy="115.557" r="4" fill="#0" id="circle272"/>
	<circle cx="927.349" cy="292.332" r="4" fill="#0" id="circle273"/>
	<circle cx="929.924" cy="111.266" r="4" fill="#0" id="circle274"/>
	<circle cx="934.215" cy="286.325" r="4" fill="#0" id="circle275"/>
	<circle cx="938.505" cy="111.266" r="4" fill="#0" id="circle276"/>
	<circle cx="940.221" cy="279.46" r="4" fill="#0" id="circle277"/>
	<circle cx="946.228" cy="106.976" r="4" fill="#0" id="circle278"/>
	<circle cx="947.945" cy="275.17" r="4" fill="#0" id="circle279"/>
	<circle cx="953.952" cy="102.685" r="4" fill="#0" id="circle280"/>
	<circle cx="954.81" cy="270.021" r="4" fill="#0" id="circle281"/>
	<circle cx="959.1" cy="261.439" r="4" fill="#0" id="circle282"/>
	<circle cx="962.533" cy="102.685" r="4" fill="#0" id="circle283"/>
	<circle cx="965.965" cy="253.716" r="4" fill="#0" id="circle284"/>
	<circle cx="970.256" cy="98.3945" r="4" fill="#0" id="circle285"/>
	<circle cx="972.83" cy="247.709" r="4" fill="#0" id="circle286"/>
	<circle cx="977.121" cy="239.128" r="4" fill="#0" id="circle287"/>
	<circle cx="978.837" cy="100.969" r="4" fill="#0" id="circle288"/>
	<circle cx="983.128" cy="227.972" r="4" fill="#0" id="circle289"/>
	<circle cx="984.844" cy="107.834" r="4" fill="#0" id="circle290"/>
	<circle cx="987.419" cy="116.415" r="4" fill="#0" id="circle291"/>
	<circle cx="987.419" cy="124.997" r="4" fill="#0" id="circle292"/>
	<circle cx="987.419" cy="219.391" r="4" fill="#0" id="circle293"/>
	<circle cx="991.709" cy="132.72" r="4" fill="#0" id="circle294"/>
	<circle cx="991.709" cy="141.301" r="4" fill="#0" id="circle295"/>
	<circle cx="991.709" cy="149.882" r="4" fill="#0" id="circle296"/>
	<circle cx="991.709" cy="158.464" r="4" fill="#0" id="circle297"/>
	<circle cx="991.709" cy="210.81" r="4" fill="#0" id="circle298"/>
	<circle cx="996" cy="166.187" r="4" fill="#0" id="circle299"/>
	<circle cx="996" cy="174.768" r="4" fill="#0" id="circle300"/>
	<circle cx="996" cy="183.349" r="4" fill="#0" id="circle301"/>
	<circle cx="996" cy="191.931" r="4" fill="#0" id="circle302"/>
	<circle cx="996" cy="200.512" r="4" fill="#0" id="circle303"/>
	</g>
</svg>