<?xml version="1.0" encoding="UTF-8" standalone="no"?>
<!-- Created with CurveBenchmark -->
<svg
	xmlns:dc="http://purl.org/dc/elements/1.1/"
	xmlns:cc="http://creativecommons.org/ns#"
	xmlns:rdf="http://www.w3.org/1999/02/22-rdf-syntax-ns#"
	xmlns:svg="http://www.w3.org/2000/svg"
	xmlns="http://www.w3.org/2000/svg"
	xmlns:sodipodi="http://sodipodi.sourceforge.net/DTD/sodipodi-0.dtd"
	xmlns:inkscape="http://www.inkscape.org/namespaces/inkscape"
	width="1000"
	height="1000"
	id="svg2"
	version="1.1"
	sodipodi:docname="manifold/ccrust-flightbird03.png.txt">
<defs
	id="defs4" />
<metadata
	id="metadata7">
	<rdf:RDF>
		<cc:Work
			rdf:about="">
			<dc:format>image/svg+xml</dc:format>
			<dc:type
				rdf:resource="http://purl.org/dc/dcmitype/StillImage" />
			<dc:title></dc:title>
		</cc:Work>
	</rdf:RDF>
</metadata>
<g
	inkscape:label="Layer 1"
	inkscape:groupmode="layer"
	id="layer1">
	<path style="fill:none;stroke:red;stroke-width:1px;stroke-linecap:butt;stroke-linejoin:miter;stroke-opacity:1" d="M 289.682,415.873 305.456,407.11 z" id="boundary" inkscape:connector-curvature="0" />
	<path style="fill:none;stroke:red;stroke-width:1px;stroke-linecap:butt;stroke-linejoin:miter;stroke-opacity:1" d="M 321.23,398.346 305.456,407.11 z" id="boundary" inkscape:connector-curvature="0" />
	<path style="fill:none;stroke:red;stroke-width:1px;stroke-linecap:butt;stroke-linejoin:miter;stroke-opacity:1" d="M 337.004,386.078 321.23,398.346 z" id="boundary" inkscape:connector-curvature="0" />
	<path style="fill:none;stroke:red;stroke-width:1px;stroke-linecap:butt;stroke-linejoin:miter;stroke-opacity:1" d="M 289.682,415.873 273.908,424.636 z" id="boundary" inkscape:connector-curvature="0" />
	<path style="fill:none;stroke:red;stroke-width:1px;stroke-linecap:butt;stroke-linejoin:miter;stroke-opacity:1" d="M 258.134,433.399 273.908,424.636 z" id="boundary" inkscape:connector-curvature="0" />
	<path style="fill:none;stroke:red;stroke-width:1px;stroke-linecap:butt;stroke-linejoin:miter;stroke-opacity:1" d="M 389.583,237.102 389.583,254.629 z" id="boundary" inkscape:connector-curvature="0" />
	<path style="fill:none;stroke:red;stroke-width:1px;stroke-linecap:butt;stroke-linejoin:miter;stroke-opacity:1" d="M 389.583,333.498 386.078,363.293 z" id="boundary" inkscape:connector-curvature="0" />
	<path style="fill:none;stroke:red;stroke-width:1px;stroke-linecap:butt;stroke-linejoin:miter;stroke-opacity:1" d="M 386.078,363.293 370.304,372.057 z" id="boundary" inkscape:connector-curvature="0" />
	<path style="fill:none;stroke:red;stroke-width:1px;stroke-linecap:butt;stroke-linejoin:miter;stroke-opacity:1" d="M 370.304,372.057 354.53,380.82 z" id="boundary" inkscape:connector-curvature="0" />
	<path style="fill:none;stroke:red;stroke-width:1px;stroke-linecap:butt;stroke-linejoin:miter;stroke-opacity:1" d="M 354.53,380.82 337.004,386.078 z" id="boundary" inkscape:connector-curvature="0" />
	<path style="fill:none;stroke:red;stroke-width:1px;stroke-linecap:butt;stroke-linejoin:miter;stroke-opacity:1" d="M 258.134,433.399 240.608,438.657 z" id="boundary" inkscape:connector-curvature="0" />
	<path style="fill:none;stroke:red;stroke-width:1px;stroke-linecap:butt;stroke-linejoin:miter;stroke-opacity:1" d="M 145.965,507.011 131.943,521.032 z" id="boundary" inkscape:connector-curvature="0" />
	<path style="fill:none;stroke:red;stroke-width:1px;stroke-linecap:butt;stroke-linejoin:miter;stroke-opacity:1" d="M 131.943,521.032 114.417,529.795 z" id="boundary" inkscape:connector-curvature="0" />
	<path style="fill:none;stroke:red;stroke-width:1px;stroke-linecap:butt;stroke-linejoin:miter;stroke-opacity:1" d="M 114.417,529.795 107.406,547.322 z" id="boundary" inkscape:connector-curvature="0" />
	<path style="fill:none;stroke:red;stroke-width:1px;stroke-linecap:butt;stroke-linejoin:miter;stroke-opacity:1" d="M 107.406,547.322 93.3852,559.59 z" id="boundary" inkscape:connector-curvature="0" />
	<path style="fill:none;stroke:red;stroke-width:1px;stroke-linecap:butt;stroke-linejoin:miter;stroke-opacity:1" d="M 93.3852,559.59 79.364,573.611 z" id="boundary" inkscape:connector-curvature="0" />
	<path style="fill:none;stroke:red;stroke-width:1px;stroke-linecap:butt;stroke-linejoin:miter;stroke-opacity:1" d="M 145.965,507.011 163.491,498.247 z" id="boundary" inkscape:connector-curvature="0" />
	<path style="fill:none;stroke:red;stroke-width:1px;stroke-linecap:butt;stroke-linejoin:miter;stroke-opacity:1" d="M 240.608,438.657 223.081,456.184 z" id="boundary" inkscape:connector-curvature="0" />
	<path style="fill:none;stroke:red;stroke-width:1px;stroke-linecap:butt;stroke-linejoin:miter;stroke-opacity:1" d="M 223.081,456.184 209.06,468.452 z" id="boundary" inkscape:connector-curvature="0" />
	<path style="fill:none;stroke:red;stroke-width:1px;stroke-linecap:butt;stroke-linejoin:miter;stroke-opacity:1" d="M 209.06,468.452 193.286,477.216 z" id="boundary" inkscape:connector-curvature="0" />
	<path style="fill:none;stroke:red;stroke-width:1px;stroke-linecap:butt;stroke-linejoin:miter;stroke-opacity:1" d="M 163.491,498.247 177.512,485.979 z" id="boundary" inkscape:connector-curvature="0" />
	<path style="fill:none;stroke:red;stroke-width:1px;stroke-linecap:butt;stroke-linejoin:miter;stroke-opacity:1" d="M 177.512,485.979 193.286,477.216 z" id="boundary" inkscape:connector-curvature="0" />
	<path style="fill:none;stroke:red;stroke-width:1px;stroke-linecap:butt;stroke-linejoin:miter;stroke-opacity:1" d="M 407.11,235.35 422.883,244.113 z" id="boundary" inkscape:connector-curvature="0" />
	<path style="fill:none;stroke:red;stroke-width:1px;stroke-linecap:butt;stroke-linejoin:miter;stroke-opacity:1" d="M 389.583,254.629 389.583,272.155 z" id="boundary" inkscape:connector-curvature="0" />
	<path style="fill:none;stroke:red;stroke-width:1px;stroke-linecap:butt;stroke-linejoin:miter;stroke-opacity:1" d="M 389.583,289.682 389.583,272.155 z" id="boundary" inkscape:connector-curvature="0" />
	<path style="fill:none;stroke:red;stroke-width:1px;stroke-linecap:butt;stroke-linejoin:miter;stroke-opacity:1" d="M 422.883,244.113 431.647,259.887 z" id="boundary" inkscape:connector-curvature="0" />
	<path style="fill:none;stroke:red;stroke-width:1px;stroke-linecap:butt;stroke-linejoin:miter;stroke-opacity:1" d="M 389.583,237.102 407.11,235.35 z" id="boundary" inkscape:connector-curvature="0" />
	<path style="fill:none;stroke:red;stroke-width:1px;stroke-linecap:butt;stroke-linejoin:miter;stroke-opacity:1" d="M 449.173,266.898 431.647,259.887 z" id="boundary" inkscape:connector-curvature="0" />
	<path style="fill:none;stroke:red;stroke-width:1px;stroke-linecap:butt;stroke-linejoin:miter;stroke-opacity:1" d="M 529.795,245.866 514.021,261.64 z" id="boundary" inkscape:connector-curvature="0" />
	<path style="fill:none;stroke:red;stroke-width:1px;stroke-linecap:butt;stroke-linejoin:miter;stroke-opacity:1" d="M 449.173,266.898 464.947,275.661 z" id="boundary" inkscape:connector-curvature="0" />
	<path style="fill:none;stroke:red;stroke-width:1px;stroke-linecap:butt;stroke-linejoin:miter;stroke-opacity:1" d="M 482.473,275.661 464.947,275.661 z" id="boundary" inkscape:connector-curvature="0" />
	<path style="fill:none;stroke:red;stroke-width:1px;stroke-linecap:butt;stroke-linejoin:miter;stroke-opacity:1" d="M 500,275.661 482.473,275.661 z" id="boundary" inkscape:connector-curvature="0" />
	<path style="fill:none;stroke:red;stroke-width:1px;stroke-linecap:butt;stroke-linejoin:miter;stroke-opacity:1" d="M 514.021,261.64 500,275.661 z" id="boundary" inkscape:connector-curvature="0" />
	<path style="fill:none;stroke:red;stroke-width:1px;stroke-linecap:butt;stroke-linejoin:miter;stroke-opacity:1" d="M 398.346,305.456 389.583,289.682 z" id="boundary" inkscape:connector-curvature="0" />
	<path style="fill:none;stroke:red;stroke-width:1px;stroke-linecap:butt;stroke-linejoin:miter;stroke-opacity:1" d="M 398.346,305.456 389.583,333.498 z" id="boundary" inkscape:connector-curvature="0" />
	<path style="fill:none;stroke:red;stroke-width:1px;stroke-linecap:butt;stroke-linejoin:miter;stroke-opacity:1" d="M 438.657,564.848 456.184,556.085 z" id="boundary" inkscape:connector-curvature="0" />
	<path style="fill:none;stroke:red;stroke-width:1px;stroke-linecap:butt;stroke-linejoin:miter;stroke-opacity:1" d="M 482.473,529.795 473.71,547.322 z" id="boundary" inkscape:connector-curvature="0" />
	<path style="fill:none;stroke:red;stroke-width:1px;stroke-linecap:butt;stroke-linejoin:miter;stroke-opacity:1" d="M 473.71,547.322 456.184,556.085 z" id="boundary" inkscape:connector-curvature="0" />
	<path style="fill:none;stroke:red;stroke-width:1px;stroke-linecap:butt;stroke-linejoin:miter;stroke-opacity:1" d="M 496.495,514.021 505.258,496.495 z" id="boundary" inkscape:connector-curvature="0" />
	<path style="fill:none;stroke:red;stroke-width:1px;stroke-linecap:butt;stroke-linejoin:miter;stroke-opacity:1" d="M 512.269,522.784 496.495,514.021 z" id="boundary" inkscape:connector-curvature="0" />
	<path style="fill:none;stroke:red;stroke-width:1px;stroke-linecap:butt;stroke-linejoin:miter;stroke-opacity:1" d="M 496.495,514.021 482.473,529.795 z" id="boundary" inkscape:connector-curvature="0" />
	<path style="fill:none;stroke:red;stroke-width:1px;stroke-linecap:butt;stroke-linejoin:miter;stroke-opacity:1" d="M 521.032,538.558 512.269,522.784 z" id="boundary" inkscape:connector-curvature="0" />
	<path style="fill:none;stroke:red;stroke-width:1px;stroke-linecap:butt;stroke-linejoin:miter;stroke-opacity:1" d="M 521.032,538.558 521.032,556.085 z" id="boundary" inkscape:connector-curvature="0" />
	<path style="fill:none;stroke:red;stroke-width:1px;stroke-linecap:butt;stroke-linejoin:miter;stroke-opacity:1" d="M 524.537,573.611 521.032,556.085 z" id="boundary" inkscape:connector-curvature="0" />
	<path style="fill:none;stroke:red;stroke-width:1px;stroke-linecap:butt;stroke-linejoin:miter;stroke-opacity:1" d="M 438.657,564.848 424.636,575.364 z" id="boundary" inkscape:connector-curvature="0" />
	<path style="fill:none;stroke:red;stroke-width:1px;stroke-linecap:butt;stroke-linejoin:miter;stroke-opacity:1" d="M 21.5265,671.76 4,666.502 z" id="boundary" inkscape:connector-curvature="0" />
	<path style="fill:none;stroke:red;stroke-width:1px;stroke-linecap:butt;stroke-linejoin:miter;stroke-opacity:1" d="M 30.2898,631.449 21.5265,648.975 z" id="boundary" inkscape:connector-curvature="0" />
	<path style="fill:none;stroke:red;stroke-width:1px;stroke-linecap:butt;stroke-linejoin:miter;stroke-opacity:1" d="M 21.5265,671.76 12.7633,692.792 z" id="boundary" inkscape:connector-curvature="0" />
	<path style="fill:none;stroke:red;stroke-width:1px;stroke-linecap:butt;stroke-linejoin:miter;stroke-opacity:1" d="M 21.5265,710.318 4,710.318 z" id="boundary" inkscape:connector-curvature="0" />
	<path style="fill:none;stroke:red;stroke-width:1px;stroke-linecap:butt;stroke-linejoin:miter;stroke-opacity:1" d="M 79.364,573.611 70.6007,591.138 z" id="boundary" inkscape:connector-curvature="0" />
	<path style="fill:none;stroke:red;stroke-width:1px;stroke-linecap:butt;stroke-linejoin:miter;stroke-opacity:1" d="M 70.6007,591.138 53.0742,599.901 z" id="boundary" inkscape:connector-curvature="0" />
	<path style="fill:none;stroke:red;stroke-width:1px;stroke-linecap:butt;stroke-linejoin:miter;stroke-opacity:1" d="M 30.2898,631.449 39.053,613.922 z" id="boundary" inkscape:connector-curvature="0" />
	<path style="fill:none;stroke:red;stroke-width:1px;stroke-linecap:butt;stroke-linejoin:miter;stroke-opacity:1" d="M 39.053,613.922 53.0742,599.901 z" id="boundary" inkscape:connector-curvature="0" />
	<path style="fill:none;stroke:red;stroke-width:1px;stroke-linecap:butt;stroke-linejoin:miter;stroke-opacity:1" d="M 21.5265,710.318 21.5265,727.845 z" id="boundary" inkscape:connector-curvature="0" />
	<path style="fill:none;stroke:red;stroke-width:1px;stroke-linecap:butt;stroke-linejoin:miter;stroke-opacity:1" d="M 44.311,741.866 30.2898,754.134 z" id="boundary" inkscape:connector-curvature="0" />
	<path style="fill:none;stroke:red;stroke-width:1px;stroke-linecap:butt;stroke-linejoin:miter;stroke-opacity:1" d="M 12.7633,754.134 30.2898,754.134 z" id="boundary" inkscape:connector-curvature="0" />
	<path style="fill:none;stroke:red;stroke-width:1px;stroke-linecap:butt;stroke-linejoin:miter;stroke-opacity:1" d="M 30.2898,754.134 39.053,769.908 z" id="boundary" inkscape:connector-curvature="0" />
	<path style="fill:none;stroke:red;stroke-width:1px;stroke-linecap:butt;stroke-linejoin:miter;stroke-opacity:1" d="M 56.5795,768.155 39.053,769.908 z" id="boundary" inkscape:connector-curvature="0" />
	<path style="fill:none;stroke:red;stroke-width:1px;stroke-linecap:butt;stroke-linejoin:miter;stroke-opacity:1" d="M 67.0954,750.629 44.311,741.866 z" id="boundary" inkscape:connector-curvature="0" />
	<path style="fill:none;stroke:red;stroke-width:1px;stroke-linecap:butt;stroke-linejoin:miter;stroke-opacity:1" d="M 56.5795,768.155 67.0954,750.629 z" id="boundary" inkscape:connector-curvature="0" />
	<path style="fill:none;stroke:red;stroke-width:1px;stroke-linecap:butt;stroke-linejoin:miter;stroke-opacity:1" d="M 322.982,619.18 340.509,619.18 z" id="boundary" inkscape:connector-curvature="0" />
	<path style="fill:none;stroke:red;stroke-width:1px;stroke-linecap:butt;stroke-linejoin:miter;stroke-opacity:1" d="M 356.283,610.417 340.509,619.18 z" id="boundary" inkscape:connector-curvature="0" />
	<path style="fill:none;stroke:red;stroke-width:1px;stroke-linecap:butt;stroke-linejoin:miter;stroke-opacity:1" d="M 307.208,627.943 298.445,643.717 z" id="boundary" inkscape:connector-curvature="0" />
	<path style="fill:none;stroke:red;stroke-width:1px;stroke-linecap:butt;stroke-linejoin:miter;stroke-opacity:1" d="M 298.445,643.717 280.919,645.47 z" id="boundary" inkscape:connector-curvature="0" />
	<path style="fill:none;stroke:red;stroke-width:1px;stroke-linecap:butt;stroke-linejoin:miter;stroke-opacity:1" d="M 231.845,662.996 216.071,671.76 z" id="boundary" inkscape:connector-curvature="0" />
	<path style="fill:none;stroke:red;stroke-width:1px;stroke-linecap:butt;stroke-linejoin:miter;stroke-opacity:1" d="M 307.208,627.943 322.982,619.18 z" id="boundary" inkscape:connector-curvature="0" />
	<path style="fill:none;stroke:red;stroke-width:1px;stroke-linecap:butt;stroke-linejoin:miter;stroke-opacity:1" d="M 265.145,654.233 280.919,645.47 z" id="boundary" inkscape:connector-curvature="0" />
	<path style="fill:none;stroke:red;stroke-width:1px;stroke-linecap:butt;stroke-linejoin:miter;stroke-opacity:1" d="M 408.862,584.127 424.636,575.364 z" id="boundary" inkscape:connector-curvature="0" />
	<path style="fill:none;stroke:red;stroke-width:1px;stroke-linecap:butt;stroke-linejoin:miter;stroke-opacity:1" d="M 391.336,592.89 373.809,601.654 z" id="boundary" inkscape:connector-curvature="0" />
	<path style="fill:none;stroke:red;stroke-width:1px;stroke-linecap:butt;stroke-linejoin:miter;stroke-opacity:1" d="M 391.336,592.89 408.862,584.127 z" id="boundary" inkscape:connector-curvature="0" />
	<path style="fill:none;stroke:red;stroke-width:1px;stroke-linecap:butt;stroke-linejoin:miter;stroke-opacity:1" d="M 356.283,610.417 373.809,601.654 z" id="boundary" inkscape:connector-curvature="0" />
	<path style="fill:none;stroke:red;stroke-width:1px;stroke-linecap:butt;stroke-linejoin:miter;stroke-opacity:1" d="M 163.491,724.339 177.512,712.071 z" id="boundary" inkscape:connector-curvature="0" />
	<path style="fill:none;stroke:red;stroke-width:1px;stroke-linecap:butt;stroke-linejoin:miter;stroke-opacity:1" d="M 149.47,741.866 163.491,724.339 z" id="boundary" inkscape:connector-curvature="0" />
	<path style="fill:none;stroke:red;stroke-width:1px;stroke-linecap:butt;stroke-linejoin:miter;stroke-opacity:1" d="M 117.922,754.134 131.943,741.866 z" id="boundary" inkscape:connector-curvature="0" />
	<path style="fill:none;stroke:red;stroke-width:1px;stroke-linecap:butt;stroke-linejoin:miter;stroke-opacity:1" d="M 131.943,741.866 149.47,741.866 z" id="boundary" inkscape:connector-curvature="0" />
	<path style="fill:none;stroke:red;stroke-width:1px;stroke-linecap:butt;stroke-linejoin:miter;stroke-opacity:1" d="M 265.145,654.233 249.371,662.996 z" id="boundary" inkscape:connector-curvature="0" />
	<path style="fill:none;stroke:red;stroke-width:1px;stroke-linecap:butt;stroke-linejoin:miter;stroke-opacity:1" d="M 249.371,662.996 231.845,662.996 z" id="boundary" inkscape:connector-curvature="0" />
	<path style="fill:none;stroke:red;stroke-width:1px;stroke-linecap:butt;stroke-linejoin:miter;stroke-opacity:1" d="M 203.802,685.781 189.781,698.049 z" id="boundary" inkscape:connector-curvature="0" />
	<path style="fill:none;stroke:red;stroke-width:1px;stroke-linecap:butt;stroke-linejoin:miter;stroke-opacity:1" d="M 189.781,698.049 177.512,712.071 z" id="boundary" inkscape:connector-curvature="0" />
	<path style="fill:none;stroke:red;stroke-width:1px;stroke-linecap:butt;stroke-linejoin:miter;stroke-opacity:1" d="M 203.802,685.781 216.071,671.76 z" id="boundary" inkscape:connector-curvature="0" />
	<path style="fill:none;stroke:red;stroke-width:1px;stroke-linecap:butt;stroke-linejoin:miter;stroke-opacity:1" d="M 524.537,573.611 529.795,591.138 z" id="boundary" inkscape:connector-curvature="0" />
	<path style="fill:none;stroke:red;stroke-width:1px;stroke-linecap:butt;stroke-linejoin:miter;stroke-opacity:1" d="M 776.919,51.3216 794.445,42.5583 z" id="boundary" inkscape:connector-curvature="0" />
	<path style="fill:none;stroke:red;stroke-width:1px;stroke-linecap:butt;stroke-linejoin:miter;stroke-opacity:1" d="M 766.403,65.3428 776.919,51.3216 z" id="boundary" inkscape:connector-curvature="0" />
	<path style="fill:none;stroke:red;stroke-width:1px;stroke-linecap:butt;stroke-linejoin:miter;stroke-opacity:1" d="M 734.855,82.8693 750.629,74.106 z" id="boundary" inkscape:connector-curvature="0" />
	<path style="fill:none;stroke:red;stroke-width:1px;stroke-linecap:butt;stroke-linejoin:miter;stroke-opacity:1" d="M 766.403,65.3428 750.629,74.106 z" id="boundary" inkscape:connector-curvature="0" />
	<path style="fill:none;stroke:red;stroke-width:1px;stroke-linecap:butt;stroke-linejoin:miter;stroke-opacity:1" d="M 794.445,42.5583 811.972,39.053 z" id="boundary" inkscape:connector-curvature="0" />
	<path style="fill:none;stroke:red;stroke-width:1px;stroke-linecap:butt;stroke-linejoin:miter;stroke-opacity:1" d="M 734.855,82.8693 719.081,91.6325 z" id="boundary" inkscape:connector-curvature="0" />
	<path style="fill:none;stroke:red;stroke-width:1px;stroke-linecap:butt;stroke-linejoin:miter;stroke-opacity:1" d="M 876.82,12.7633 861.046,21.5265 z" id="boundary" inkscape:connector-curvature="0" />
	<path style="fill:none;stroke:red;stroke-width:1px;stroke-linecap:butt;stroke-linejoin:miter;stroke-opacity:1" d="M 861.046,21.5265 843.519,21.5265 z" id="boundary" inkscape:connector-curvature="0" />
	<path style="fill:none;stroke:red;stroke-width:1px;stroke-linecap:butt;stroke-linejoin:miter;stroke-opacity:1" d="M 827.746,30.2898 811.972,39.053 z" id="boundary" inkscape:connector-curvature="0" />
	<path style="fill:none;stroke:red;stroke-width:1px;stroke-linecap:butt;stroke-linejoin:miter;stroke-opacity:1" d="M 827.746,30.2898 843.519,21.5265 z" id="boundary" inkscape:connector-curvature="0" />
	<path style="fill:none;stroke:red;stroke-width:1px;stroke-linecap:butt;stroke-linejoin:miter;stroke-opacity:1" d="M 640.212,144.212 657.739,135.449 z" id="boundary" inkscape:connector-curvature="0" />
	<path style="fill:none;stroke:red;stroke-width:1px;stroke-linecap:butt;stroke-linejoin:miter;stroke-opacity:1" d="M 633.201,161.739 640.212,144.212 z" id="boundary" inkscape:connector-curvature="0" />
	<path style="fill:none;stroke:red;stroke-width:1px;stroke-linecap:butt;stroke-linejoin:miter;stroke-opacity:1" d="M 671.76,121.428 657.739,135.449 z" id="boundary" inkscape:connector-curvature="0" />
	<path style="fill:none;stroke:red;stroke-width:1px;stroke-linecap:butt;stroke-linejoin:miter;stroke-opacity:1" d="M 605.159,188.028 619.18,174.007 z" id="boundary" inkscape:connector-curvature="0" />
	<path style="fill:none;stroke:red;stroke-width:1px;stroke-linecap:butt;stroke-linejoin:miter;stroke-opacity:1" d="M 633.201,161.739 619.18,174.007 z" id="boundary" inkscape:connector-curvature="0" />
	<path style="fill:none;stroke:red;stroke-width:1px;stroke-linecap:butt;stroke-linejoin:miter;stroke-opacity:1" d="M 689.286,112.664 703.307,100.396 z" id="boundary" inkscape:connector-curvature="0" />
	<path style="fill:none;stroke:red;stroke-width:1px;stroke-linecap:butt;stroke-linejoin:miter;stroke-opacity:1" d="M 703.307,100.396 719.081,91.6325 z" id="boundary" inkscape:connector-curvature="0" />
	<path style="fill:none;stroke:red;stroke-width:1px;stroke-linecap:butt;stroke-linejoin:miter;stroke-opacity:1" d="M 689.286,112.664 671.76,121.428 z" id="boundary" inkscape:connector-curvature="0" />
	<path style="fill:none;stroke:red;stroke-width:1px;stroke-linecap:butt;stroke-linejoin:miter;stroke-opacity:1" d="M 873.314,198.544 890.841,189.781 z" id="boundary" inkscape:connector-curvature="0" />
	<path style="fill:none;stroke:red;stroke-width:1px;stroke-linecap:butt;stroke-linejoin:miter;stroke-opacity:1" d="M 873.314,198.544 855.788,207.307 z" id="boundary" inkscape:connector-curvature="0" />
	<path style="fill:none;stroke:red;stroke-width:1px;stroke-linecap:butt;stroke-linejoin:miter;stroke-opacity:1" d="M 876.82,12.7633 894.346,12.7633 z" id="boundary" inkscape:connector-curvature="0" />
	<path style="fill:none;stroke:red;stroke-width:1px;stroke-linecap:butt;stroke-linejoin:miter;stroke-opacity:1" d="M 910.12,21.5265 927.647,21.5265 z" id="boundary" inkscape:connector-curvature="0" />
	<path style="fill:none;stroke:red;stroke-width:1px;stroke-linecap:butt;stroke-linejoin:miter;stroke-opacity:1" d="M 945.173,21.5265 927.647,21.5265 z" id="boundary" inkscape:connector-curvature="0" />
	<path style="fill:none;stroke:red;stroke-width:1px;stroke-linecap:butt;stroke-linejoin:miter;stroke-opacity:1" d="M 945.173,21.5265 952.184,39.053 z" id="boundary" inkscape:connector-curvature="0" />
	<path style="fill:none;stroke:red;stroke-width:1px;stroke-linecap:butt;stroke-linejoin:miter;stroke-opacity:1" d="M 960.947,12.7633 945.173,21.5265 z" id="boundary" inkscape:connector-curvature="0" />
	<path style="fill:none;stroke:red;stroke-width:1px;stroke-linecap:butt;stroke-linejoin:miter;stroke-opacity:1" d="M 969.71,39.053 952.184,39.053 z" id="boundary" inkscape:connector-curvature="0" />
	<path style="fill:none;stroke:red;stroke-width:1px;stroke-linecap:butt;stroke-linejoin:miter;stroke-opacity:1" d="M 976.721,4 960.947,12.7633 z" id="boundary" inkscape:connector-curvature="0" />
	<path style="fill:none;stroke:red;stroke-width:1px;stroke-linecap:butt;stroke-linejoin:miter;stroke-opacity:1" d="M 969.71,39.053 978.473,54.8269 z" id="boundary" inkscape:connector-curvature="0" />
	<path style="fill:none;stroke:red;stroke-width:1px;stroke-linecap:butt;stroke-linejoin:miter;stroke-opacity:1" d="M 978.473,74.106 960.947,67.0954 z" id="boundary" inkscape:connector-curvature="0" />
	<path style="fill:none;stroke:red;stroke-width:1px;stroke-linecap:butt;stroke-linejoin:miter;stroke-opacity:1" d="M 934.657,137.201 948.678,147.717 z" id="boundary" inkscape:connector-curvature="0" />
	<path style="fill:none;stroke:red;stroke-width:1px;stroke-linecap:butt;stroke-linejoin:miter;stroke-opacity:1" d="M 948.678,147.717 939.915,163.491 z" id="boundary" inkscape:connector-curvature="0" />
	<path style="fill:none;stroke:red;stroke-width:1px;stroke-linecap:butt;stroke-linejoin:miter;stroke-opacity:1" d="M 962.7,137.201 948.678,147.717 z" id="boundary" inkscape:connector-curvature="0" />
	<path style="fill:none;stroke:red;stroke-width:1px;stroke-linecap:butt;stroke-linejoin:miter;stroke-opacity:1" d="M 908.367,181.018 924.141,172.254 z" id="boundary" inkscape:connector-curvature="0" />
	<path style="fill:none;stroke:red;stroke-width:1px;stroke-linecap:butt;stroke-linejoin:miter;stroke-opacity:1" d="M 939.915,163.491 924.141,172.254 z" id="boundary" inkscape:connector-curvature="0" />
	<path style="fill:none;stroke:red;stroke-width:1px;stroke-linecap:butt;stroke-linejoin:miter;stroke-opacity:1" d="M 908.367,181.018 890.841,189.781 z" id="boundary" inkscape:connector-curvature="0" />
	<path style="fill:none;stroke:red;stroke-width:1px;stroke-linecap:butt;stroke-linejoin:miter;stroke-opacity:1" d="M 996,79.364 978.473,74.106 z" id="boundary" inkscape:connector-curvature="0" />
	<path style="fill:none;stroke:red;stroke-width:1px;stroke-linecap:butt;stroke-linejoin:miter;stroke-opacity:1" d="M 962.7,137.201 969.71,110.912 z" id="boundary" inkscape:connector-curvature="0" />
	<path style="fill:none;stroke:red;stroke-width:1px;stroke-linecap:butt;stroke-linejoin:miter;stroke-opacity:1" d="M 969.71,110.912 983.731,100.396 z" id="boundary" inkscape:connector-curvature="0" />
	<path style="fill:none;stroke:red;stroke-width:1px;stroke-linecap:butt;stroke-linejoin:miter;stroke-opacity:1" d="M 969.71,110.912 960.947,93.3852 z" id="boundary" inkscape:connector-curvature="0" />
	<path style="fill:none;stroke:red;stroke-width:1px;stroke-linecap:butt;stroke-linejoin:miter;stroke-opacity:1" d="M 561.343,223.081 577.117,214.318 z" id="boundary" inkscape:connector-curvature="0" />
	<path style="fill:none;stroke:red;stroke-width:1px;stroke-linecap:butt;stroke-linejoin:miter;stroke-opacity:1" d="M 591.138,202.049 577.117,214.318 z" id="boundary" inkscape:connector-curvature="0" />
	<path style="fill:none;stroke:red;stroke-width:1px;stroke-linecap:butt;stroke-linejoin:miter;stroke-opacity:1" d="M 529.795,245.866 543.816,231.845 z" id="boundary" inkscape:connector-curvature="0" />
	<path style="fill:none;stroke:red;stroke-width:1px;stroke-linecap:butt;stroke-linejoin:miter;stroke-opacity:1" d="M 543.816,231.845 561.343,223.081 z" id="boundary" inkscape:connector-curvature="0" />
	<path style="fill:none;stroke:red;stroke-width:1px;stroke-linecap:butt;stroke-linejoin:miter;stroke-opacity:1" d="M 605.159,188.028 591.138,202.049 z" id="boundary" inkscape:connector-curvature="0" />
	<path style="fill:none;stroke:red;stroke-width:1px;stroke-linecap:butt;stroke-linejoin:miter;stroke-opacity:1" d="M 633.201,414.12 619.18,426.389 z" id="boundary" inkscape:connector-curvature="0" />
	<path style="fill:none;stroke:red;stroke-width:1px;stroke-linecap:butt;stroke-linejoin:miter;stroke-opacity:1" d="M 666.502,398.346 650.728,408.862 z" id="boundary" inkscape:connector-curvature="0" />
	<path style="fill:none;stroke:red;stroke-width:1px;stroke-linecap:butt;stroke-linejoin:miter;stroke-opacity:1" d="M 650.728,408.862 633.201,414.12 z" id="boundary" inkscape:connector-curvature="0" />
	<path style="fill:none;stroke:red;stroke-width:1px;stroke-linecap:butt;stroke-linejoin:miter;stroke-opacity:1" d="M 624.438,452.678 610.417,442.163 z" id="boundary" inkscape:connector-curvature="0" />
	<path style="fill:none;stroke:red;stroke-width:1px;stroke-linecap:butt;stroke-linejoin:miter;stroke-opacity:1" d="M 624.438,452.678 636.707,466.7 z" id="boundary" inkscape:connector-curvature="0" />
	<path style="fill:none;stroke:red;stroke-width:1px;stroke-linecap:butt;stroke-linejoin:miter;stroke-opacity:1" d="M 529.795,591.138 540.311,605.159 z" id="boundary" inkscape:connector-curvature="0" />
	<path style="fill:none;stroke:red;stroke-width:1px;stroke-linecap:butt;stroke-linejoin:miter;stroke-opacity:1" d="M 556.085,613.922 540.311,605.159 z" id="boundary" inkscape:connector-curvature="0" />
	<path style="fill:none;stroke:red;stroke-width:1px;stroke-linecap:butt;stroke-linejoin:miter;stroke-opacity:1" d="M 573.611,619.18 556.085,613.922 z" id="boundary" inkscape:connector-curvature="0" />
	<path style="fill:none;stroke:red;stroke-width:1px;stroke-linecap:butt;stroke-linejoin:miter;stroke-opacity:1" d="M 591.138,619.18 573.611,619.18 z" id="boundary" inkscape:connector-curvature="0" />
	<path style="fill:none;stroke:red;stroke-width:1px;stroke-linecap:butt;stroke-linejoin:miter;stroke-opacity:1" d="M 654.233,468.452 636.707,466.7 z" id="boundary" inkscape:connector-curvature="0" />
	<path style="fill:none;stroke:red;stroke-width:1px;stroke-linecap:butt;stroke-linejoin:miter;stroke-opacity:1" d="M 654.233,468.452 668.254,478.968 z" id="boundary" inkscape:connector-curvature="0" />
	<path style="fill:none;stroke:red;stroke-width:1px;stroke-linecap:butt;stroke-linejoin:miter;stroke-opacity:1" d="M 671.76,575.364 657.739,591.138 z" id="boundary" inkscape:connector-curvature="0" />
	<path style="fill:none;stroke:red;stroke-width:1px;stroke-linecap:butt;stroke-linejoin:miter;stroke-opacity:1" d="M 608.664,613.922 626.191,605.159 z" id="boundary" inkscape:connector-curvature="0" />
	<path style="fill:none;stroke:red;stroke-width:1px;stroke-linecap:butt;stroke-linejoin:miter;stroke-opacity:1" d="M 626.191,605.159 643.717,601.654 z" id="boundary" inkscape:connector-curvature="0" />
	<path style="fill:none;stroke:red;stroke-width:1px;stroke-linecap:butt;stroke-linejoin:miter;stroke-opacity:1" d="M 608.664,613.922 591.138,619.18 z" id="boundary" inkscape:connector-curvature="0" />
	<path style="fill:none;stroke:red;stroke-width:1px;stroke-linecap:butt;stroke-linejoin:miter;stroke-opacity:1" d="M 657.739,591.138 643.717,601.654 z" id="boundary" inkscape:connector-curvature="0" />
	<path style="fill:none;stroke:red;stroke-width:1px;stroke-linecap:butt;stroke-linejoin:miter;stroke-opacity:1" d="M 762.898,310.714 776.919,294.94 z" id="boundary" inkscape:connector-curvature="0" />
	<path style="fill:none;stroke:red;stroke-width:1px;stroke-linecap:butt;stroke-linejoin:miter;stroke-opacity:1" d="M 754.134,328.24 762.898,310.714 z" id="boundary" inkscape:connector-curvature="0" />
	<path style="fill:none;stroke:red;stroke-width:1px;stroke-linecap:butt;stroke-linejoin:miter;stroke-opacity:1" d="M 727.845,354.53 736.608,337.004 z" id="boundary" inkscape:connector-curvature="0" />
	<path style="fill:none;stroke:red;stroke-width:1px;stroke-linecap:butt;stroke-linejoin:miter;stroke-opacity:1" d="M 736.608,337.004 754.134,328.24 z" id="boundary" inkscape:connector-curvature="0" />
	<path style="fill:none;stroke:red;stroke-width:1px;stroke-linecap:butt;stroke-linejoin:miter;stroke-opacity:1" d="M 727.845,354.53 713.823,365.046 z" id="boundary" inkscape:connector-curvature="0" />
	<path style="fill:none;stroke:red;stroke-width:1px;stroke-linecap:butt;stroke-linejoin:miter;stroke-opacity:1" d="M 776.919,294.94 790.94,282.671 z" id="boundary" inkscape:connector-curvature="0" />
	<path style="fill:none;stroke:red;stroke-width:1px;stroke-linecap:butt;stroke-linejoin:miter;stroke-opacity:1" d="M 825.993,230.092 838.261,216.071 z" id="boundary" inkscape:connector-curvature="0" />
	<path style="fill:none;stroke:red;stroke-width:1px;stroke-linecap:butt;stroke-linejoin:miter;stroke-opacity:1" d="M 838.261,216.071 855.788,207.307 z" id="boundary" inkscape:connector-curvature="0" />
	<path style="fill:none;stroke:red;stroke-width:1px;stroke-linecap:butt;stroke-linejoin:miter;stroke-opacity:1" d="M 825.993,230.092 811.972,242.36 z" id="boundary" inkscape:connector-curvature="0" />
	<path style="fill:none;stroke:red;stroke-width:1px;stroke-linecap:butt;stroke-linejoin:miter;stroke-opacity:1" d="M 811.972,242.36 803.208,268.65 z" id="boundary" inkscape:connector-curvature="0" />
	<path style="fill:none;stroke:red;stroke-width:1px;stroke-linecap:butt;stroke-linejoin:miter;stroke-opacity:1" d="M 803.208,268.65 790.94,282.671 z" id="boundary" inkscape:connector-curvature="0" />
	<path style="fill:none;stroke:red;stroke-width:1px;stroke-linecap:butt;stroke-linejoin:miter;stroke-opacity:1" d="M 666.502,398.346 684.028,389.583 z" id="boundary" inkscape:connector-curvature="0" />
	<path style="fill:none;stroke:red;stroke-width:1px;stroke-linecap:butt;stroke-linejoin:miter;stroke-opacity:1" d="M 698.049,373.809 684.028,389.583 z" id="boundary" inkscape:connector-curvature="0" />
	<path style="fill:none;stroke:red;stroke-width:1px;stroke-linecap:butt;stroke-linejoin:miter;stroke-opacity:1" d="M 680.523,492.989 668.254,478.968 z" id="boundary" inkscape:connector-curvature="0" />
	<path style="fill:none;stroke:red;stroke-width:1px;stroke-linecap:butt;stroke-linejoin:miter;stroke-opacity:1" d="M 694.544,505.258 680.523,492.989 z" id="boundary" inkscape:connector-curvature="0" />
	<path style="fill:none;stroke:red;stroke-width:1px;stroke-linecap:butt;stroke-linejoin:miter;stroke-opacity:1" d="M 713.823,365.046 698.049,373.809 z" id="boundary" inkscape:connector-curvature="0" />
	<path style="fill:none;stroke:red;stroke-width:1px;stroke-linecap:butt;stroke-linejoin:miter;stroke-opacity:1" d="M 685.781,563.095 694.544,545.569 z" id="boundary" inkscape:connector-curvature="0" />
	<path style="fill:none;stroke:red;stroke-width:1px;stroke-linecap:butt;stroke-linejoin:miter;stroke-opacity:1" d="M 685.781,563.095 671.76,575.364 z" id="boundary" inkscape:connector-curvature="0" />
	<path style="fill:none;stroke:red;stroke-width:1px;stroke-linecap:butt;stroke-linejoin:miter;stroke-opacity:1" d="M 703.307,528.042 694.544,545.569 z" id="boundary" inkscape:connector-curvature="0" />
	<path style="fill:none;stroke:red;stroke-width:1px;stroke-linecap:butt;stroke-linejoin:miter;stroke-opacity:1" d="M 694.544,505.258 703.307,528.042 z" id="boundary" inkscape:connector-curvature="0" />
	<circle cx="4" cy="666.502" r="4" fill="#0" id="circle0"/>
	<circle cx="4" cy="710.318" r="4" fill="#0" id="circle1"/>
	<circle cx="12.7633" cy="692.792" r="4" fill="#0" id="circle2"/>
	<circle cx="12.7633" cy="754.134" r="4" fill="#0" id="circle3"/>
	<circle cx="21.5265" cy="648.975" r="4" fill="#0" id="circle4"/>
	<circle cx="21.5265" cy="671.76" r="4" fill="#0" id="circle5"/>
	<circle cx="21.5265" cy="710.318" r="4" fill="#0" id="circle6"/>
	<circle cx="21.5265" cy="727.845" r="4" fill="#0" id="circle7"/>
	<circle cx="30.2898" cy="631.449" r="4" fill="#0" id="circle8"/>
	<circle cx="30.2898" cy="754.134" r="4" fill="#0" id="circle9"/>
	<circle cx="39.053" cy="613.922" r="4" fill="#0" id="circle10"/>
	<circle cx="39.053" cy="769.908" r="4" fill="#0" id="circle11"/>
	<circle cx="44.311" cy="741.866" r="4" fill="#0" id="circle12"/>
	<circle cx="53.0742" cy="599.901" r="4" fill="#0" id="circle13"/>
	<circle cx="56.5795" cy="768.155" r="4" fill="#0" id="circle14"/>
	<circle cx="67.0954" cy="750.629" r="4" fill="#0" id="circle15"/>
	<circle cx="70.6007" cy="591.138" r="4" fill="#0" id="circle16"/>
	<circle cx="79.364" cy="573.611" r="4" fill="#0" id="circle17"/>
	<circle cx="82.8693" cy="741.866" r="4" fill="#0" id="circle18"/>
	<circle cx="82.8693" cy="759.392" r="4" fill="#0" id="circle19"/>
	<circle cx="93.3852" cy="559.59" r="4" fill="#0" id="circle20"/>
	<circle cx="98.6431" cy="750.629" r="4" fill="#0" id="circle21"/>
	<circle cx="105.654" cy="768.155" r="4" fill="#0" id="circle22"/>
	<circle cx="107.406" cy="547.322" r="4" fill="#0" id="circle23"/>
	<circle cx="114.417" cy="529.795" r="4" fill="#0" id="circle24"/>
	<circle cx="117.922" cy="754.134" r="4" fill="#0" id="circle25"/>
	<circle cx="131.943" cy="521.032" r="4" fill="#0" id="circle26"/>
	<circle cx="131.943" cy="741.866" r="4" fill="#0" id="circle27"/>
	<circle cx="145.965" cy="507.011" r="4" fill="#0" id="circle28"/>
	<circle cx="149.47" cy="741.866" r="4" fill="#0" id="circle29"/>
	<circle cx="163.491" cy="498.247" r="4" fill="#0" id="circle30"/>
	<circle cx="163.491" cy="724.339" r="4" fill="#0" id="circle31"/>
	<circle cx="177.512" cy="485.979" r="4" fill="#0" id="circle32"/>
	<circle cx="177.512" cy="712.071" r="4" fill="#0" id="circle33"/>
	<circle cx="189.781" cy="698.049" r="4" fill="#0" id="circle34"/>
	<circle cx="193.286" cy="477.216" r="4" fill="#0" id="circle35"/>
	<circle cx="203.802" cy="685.781" r="4" fill="#0" id="circle36"/>
	<circle cx="209.06" cy="468.452" r="4" fill="#0" id="circle37"/>
	<circle cx="216.071" cy="671.76" r="4" fill="#0" id="circle38"/>
	<circle cx="223.081" cy="456.184" r="4" fill="#0" id="circle39"/>
	<circle cx="231.845" cy="662.996" r="4" fill="#0" id="circle40"/>
	<circle cx="240.608" cy="438.657" r="4" fill="#0" id="circle41"/>
	<circle cx="249.371" cy="662.996" r="4" fill="#0" id="circle42"/>
	<circle cx="258.134" cy="433.399" r="4" fill="#0" id="circle43"/>
	<circle cx="265.145" cy="654.233" r="4" fill="#0" id="circle44"/>
	<circle cx="273.908" cy="424.636" r="4" fill="#0" id="circle45"/>
	<circle cx="280.919" cy="645.47" r="4" fill="#0" id="circle46"/>
	<circle cx="289.682" cy="415.873" r="4" fill="#0" id="circle47"/>
	<circle cx="298.445" cy="643.717" r="4" fill="#0" id="circle48"/>
	<circle cx="305.456" cy="407.11" r="4" fill="#0" id="circle49"/>
	<circle cx="307.208" cy="627.943" r="4" fill="#0" id="circle50"/>
	<circle cx="321.23" cy="398.346" r="4" fill="#0" id="circle51"/>
	<circle cx="322.982" cy="619.18" r="4" fill="#0" id="circle52"/>
	<circle cx="337.004" cy="386.078" r="4" fill="#0" id="circle53"/>
	<circle cx="340.509" cy="619.18" r="4" fill="#0" id="circle54"/>
	<circle cx="354.53" cy="380.82" r="4" fill="#0" id="circle55"/>
	<circle cx="356.283" cy="610.417" r="4" fill="#0" id="circle56"/>
	<circle cx="370.304" cy="372.057" r="4" fill="#0" id="circle57"/>
	<circle cx="373.809" cy="601.654" r="4" fill="#0" id="circle58"/>
	<circle cx="386.078" cy="363.293" r="4" fill="#0" id="circle59"/>
	<circle cx="389.583" cy="237.102" r="4" fill="#0" id="circle60"/>
	<circle cx="389.583" cy="254.629" r="4" fill="#0" id="circle61"/>
	<circle cx="389.583" cy="272.155" r="4" fill="#0" id="circle62"/>
	<circle cx="389.583" cy="289.682" r="4" fill="#0" id="circle63"/>
	<circle cx="389.583" cy="333.498" r="4" fill="#0" id="circle64"/>
	<circle cx="391.336" cy="592.89" r="4" fill="#0" id="circle65"/>
	<circle cx="398.346" cy="305.456" r="4" fill="#0" id="circle66"/>
	<circle cx="407.11" cy="235.35" r="4" fill="#0" id="circle67"/>
	<circle cx="408.862" cy="584.127" r="4" fill="#0" id="circle68"/>
	<circle cx="422.883" cy="244.113" r="4" fill="#0" id="circle69"/>
	<circle cx="424.636" cy="575.364" r="4" fill="#0" id="circle70"/>
	<circle cx="431.647" cy="259.887" r="4" fill="#0" id="circle71"/>
	<circle cx="438.657" cy="564.848" r="4" fill="#0" id="circle72"/>
	<circle cx="449.173" cy="266.898" r="4" fill="#0" id="circle73"/>
	<circle cx="456.184" cy="556.085" r="4" fill="#0" id="circle74"/>
	<circle cx="464.947" cy="275.661" r="4" fill="#0" id="circle75"/>
	<circle cx="473.71" cy="547.322" r="4" fill="#0" id="circle76"/>
	<circle cx="482.473" cy="275.661" r="4" fill="#0" id="circle77"/>
	<circle cx="482.473" cy="529.795" r="4" fill="#0" id="circle78"/>
	<circle cx="496.495" cy="514.021" r="4" fill="#0" id="circle79"/>
	<circle cx="500" cy="275.661" r="4" fill="#0" id="circle80"/>
	<circle cx="505.258" cy="496.495" r="4" fill="#0" id="circle81"/>
	<circle cx="512.269" cy="522.784" r="4" fill="#0" id="circle82"/>
	<circle cx="514.021" cy="261.64" r="4" fill="#0" id="circle83"/>
	<circle cx="521.032" cy="538.558" r="4" fill="#0" id="circle84"/>
	<circle cx="521.032" cy="556.085" r="4" fill="#0" id="circle85"/>
	<circle cx="524.537" cy="573.611" r="4" fill="#0" id="circle86"/>
	<circle cx="529.795" cy="245.866" r="4" fill="#0" id="circle87"/>
	<circle cx="529.795" cy="591.138" r="4" fill="#0" id="circle88"/>
	<circle cx="540.311" cy="605.159" r="4" fill="#0" id="circle89"/>
	<circle cx="543.816" cy="231.845" r="4" fill="#0" id="circle90"/>
	<circle cx="556.085" cy="613.922" r="4" fill="#0" id="circle91"/>
	<circle cx="561.343" cy="223.081" r="4" fill="#0" id="circle92"/>
	<circle cx="573.611" cy="619.18" r="4" fill="#0" id="circle93"/>
	<circle cx="577.117" cy="214.318" r="4" fill="#0" id="circle94"/>
	<circle cx="591.138" cy="202.049" r="4" fill="#0" id="circle95"/>
	<circle cx="591.138" cy="619.18" r="4" fill="#0" id="circle96"/>
	<circle cx="601.654" cy="426.389" r="4" fill="#0" id="circle97"/>
	<circle cx="605.159" cy="188.028" r="4" fill="#0" id="circle98"/>
	<circle cx="608.664" cy="613.922" r="4" fill="#0" id="circle99"/>
	<circle cx="610.417" cy="442.163" r="4" fill="#0" id="circle100"/>
	<circle cx="619.18" cy="174.007" r="4" fill="#0" id="circle101"/>
	<circle cx="619.18" cy="426.389" r="4" fill="#0" id="circle102"/>
	<circle cx="624.438" cy="452.678" r="4" fill="#0" id="circle103"/>
	<circle cx="626.191" cy="605.159" r="4" fill="#0" id="circle104"/>
	<circle cx="633.201" cy="161.739" r="4" fill="#0" id="circle105"/>
	<circle cx="633.201" cy="414.12" r="4" fill="#0" id="circle106"/>
	<circle cx="636.707" cy="466.7" r="4" fill="#0" id="circle107"/>
	<circle cx="640.212" cy="144.212" r="4" fill="#0" id="circle108"/>
	<circle cx="643.717" cy="601.654" r="4" fill="#0" id="circle109"/>
	<circle cx="650.728" cy="408.862" r="4" fill="#0" id="circle110"/>
	<circle cx="654.233" cy="468.452" r="4" fill="#0" id="circle111"/>
	<circle cx="657.739" cy="135.449" r="4" fill="#0" id="circle112"/>
	<circle cx="657.739" cy="591.138" r="4" fill="#0" id="circle113"/>
	<circle cx="666.502" cy="398.346" r="4" fill="#0" id="circle114"/>
	<circle cx="668.254" cy="478.968" r="4" fill="#0" id="circle115"/>
	<circle cx="671.76" cy="121.428" r="4" fill="#0" id="circle116"/>
	<circle cx="671.76" cy="575.364" r="4" fill="#0" id="circle117"/>
	<circle cx="680.523" cy="492.989" r="4" fill="#0" id="circle118"/>
	<circle cx="684.028" cy="389.583" r="4" fill="#0" id="circle119"/>
	<circle cx="685.781" cy="563.095" r="4" fill="#0" id="circle120"/>
	<circle cx="689.286" cy="112.664" r="4" fill="#0" id="circle121"/>
	<circle cx="694.544" cy="505.258" r="4" fill="#0" id="circle122"/>
	<circle cx="694.544" cy="545.569" r="4" fill="#0" id="circle123"/>
	<circle cx="698.049" cy="373.809" r="4" fill="#0" id="circle124"/>
	<circle cx="703.307" cy="100.396" r="4" fill="#0" id="circle125"/>
	<circle cx="703.307" cy="528.042" r="4" fill="#0" id="circle126"/>
	<circle cx="713.823" cy="365.046" r="4" fill="#0" id="circle127"/>
	<circle cx="719.081" cy="91.6325" r="4" fill="#0" id="circle128"/>
	<circle cx="727.845" cy="354.53" r="4" fill="#0" id="circle129"/>
	<circle cx="734.855" cy="82.8693" r="4" fill="#0" id="circle130"/>
	<circle cx="736.608" cy="337.004" r="4" fill="#0" id="circle131"/>
	<circle cx="750.629" cy="74.106" r="4" fill="#0" id="circle132"/>
	<circle cx="754.134" cy="328.24" r="4" fill="#0" id="circle133"/>
	<circle cx="762.898" cy="310.714" r="4" fill="#0" id="circle134"/>
	<circle cx="766.403" cy="65.3428" r="4" fill="#0" id="circle135"/>
	<circle cx="776.919" cy="51.3216" r="4" fill="#0" id="circle136"/>
	<circle cx="776.919" cy="294.94" r="4" fill="#0" id="circle137"/>
	<circle cx="790.94" cy="282.671" r="4" fill="#0" id="circle138"/>
	<circle cx="794.445" cy="42.5583" r="4" fill="#0" id="circle139"/>
	<circle cx="803.208" cy="268.65" r="4" fill="#0" id="circle140"/>
	<circle cx="811.972" cy="39.053" r="4" fill="#0" id="circle141"/>
	<circle cx="811.972" cy="242.36" r="4" fill="#0" id="circle142"/>
	<circle cx="825.993" cy="230.092" r="4" fill="#0" id="circle143"/>
	<circle cx="827.746" cy="30.2898" r="4" fill="#0" id="circle144"/>
	<circle cx="838.261" cy="216.071" r="4" fill="#0" id="circle145"/>
	<circle cx="843.519" cy="21.5265" r="4" fill="#0" id="circle146"/>
	<circle cx="855.788" cy="207.307" r="4" fill="#0" id="circle147"/>
	<circle cx="861.046" cy="21.5265" r="4" fill="#0" id="circle148"/>
	<circle cx="873.314" cy="198.544" r="4" fill="#0" id="circle149"/>
	<circle cx="876.82" cy="12.7633" r="4" fill="#0" id="circle150"/>
	<circle cx="890.841" cy="189.781" r="4" fill="#0" id="circle151"/>
	<circle cx="894.346" cy="12.7633" r="4" fill="#0" id="circle152"/>
	<circle cx="908.367" cy="181.018" r="4" fill="#0" id="circle153"/>
	<circle cx="910.12" cy="4" r="4" fill="#0" id="circle154"/>
	<circle cx="910.12" cy="21.5265" r="4" fill="#0" id="circle155"/>
	<circle cx="924.141" cy="172.254" r="4" fill="#0" id="circle156"/>
	<circle cx="927.647" cy="21.5265" r="4" fill="#0" id="circle157"/>
	<circle cx="934.657" cy="137.201" r="4" fill="#0" id="circle158"/>
	<circle cx="939.915" cy="163.491" r="4" fill="#0" id="circle159"/>
	<circle cx="945.173" cy="21.5265" r="4" fill="#0" id="circle160"/>
	<circle cx="948.678" cy="147.717" r="4" fill="#0" id="circle161"/>
	<circle cx="952.184" cy="39.053" r="4" fill="#0" id="circle162"/>
	<circle cx="960.947" cy="12.7633" r="4" fill="#0" id="circle163"/>
	<circle cx="960.947" cy="67.0954" r="4" fill="#0" id="circle164"/>
	<circle cx="960.947" cy="93.3852" r="4" fill="#0" id="circle165"/>
	<circle cx="962.7" cy="137.201" r="4" fill="#0" id="circle166"/>
	<circle cx="969.71" cy="39.053" r="4" fill="#0" id="circle167"/>
	<circle cx="969.71" cy="110.912" r="4" fill="#0" id="circle168"/>
	<circle cx="976.721" cy="4" r="4" fill="#0" id="circle169"/>
	<circle cx="978.473" cy="54.8269" r="4" fill="#0" id="circle170"/>
	<circle cx="978.473" cy="74.106" r="4" fill="#0" id="circle171"/>
	<circle cx="983.731" cy="100.396" r="4" fill="#0" id="circle172"/>
	<circle cx="996" cy="79.364" r="4" fill="#0" id="circle173"/>
	</g>
</svg>