<?xml version="1.0" encoding="UTF-8" standalone="no"?>
<!-- Created with CurveBenchmark -->
<svg
	xmlns:dc="http://purl.org/dc/elements/1.1/"
	xmlns:cc="http://creativecommons.org/ns#"
	xmlns:rdf="http://www.w3.org/1999/02/22-rdf-syntax-ns#"
	xmlns:svg="http://www.w3.org/2000/svg"
	xmlns="http://www.w3.org/2000/svg"
	xmlns:sodipodi="http://sodipodi.sourceforge.net/DTD/sodipodi-0.dtd"
	xmlns:inkscape="http://www.inkscape.org/namespaces/inkscape"
	width="1000"
	height="1000"
	id="svg2"
	version="1.1"
	sodipodi:docname="manifold/ccrust-television090.png.txt">
<defs
	id="defs4" />
<metadata
	id="metadata7">
	<rdf:RDF>
		<cc:Work
			rdf:about="">
			<dc:format>image/svg+xml</dc:format>
			<dc:type
				rdf:resource="http://purl.org/dc/dcmitype/StillImage" />
			<dc:title></dc:title>
		</cc:Work>
	</rdf:RDF>
</metadata>
<g
	inkscape:label="Layer 1"
	inkscape:groupmode="layer"
	id="layer1">
	<path style="fill:none;stroke:red;stroke-width:1px;stroke-linecap:butt;stroke-linejoin:miter;stroke-opacity:1" d="M 185.801,35.6175 185.801,75.1394 z" id="boundary" inkscape:connector-curvature="0" />
	<path style="fill:none;stroke:red;stroke-width:1px;stroke-linecap:butt;stroke-linejoin:miter;stroke-opacity:1" d="M 185.801,114.661 185.801,75.1394 z" id="boundary" inkscape:connector-curvature="0" />
	<path style="fill:none;stroke:red;stroke-width:1px;stroke-linecap:butt;stroke-linejoin:miter;stroke-opacity:1" d="M 185.801,75.1394 237.179,75.1394 z" id="boundary" inkscape:connector-curvature="0" />
	<path style="fill:none;stroke:red;stroke-width:1px;stroke-linecap:butt;stroke-linejoin:miter;stroke-opacity:1" d="M 4,675.873 39.5697,695.633 z" id="boundary" inkscape:connector-curvature="0" />
	<path style="fill:none;stroke:red;stroke-width:1px;stroke-linecap:butt;stroke-linejoin:miter;stroke-opacity:1" d="M 185.801,114.661 185.801,154.183 z" id="boundary" inkscape:connector-curvature="0" />
	<path style="fill:none;stroke:red;stroke-width:1px;stroke-linecap:butt;stroke-linejoin:miter;stroke-opacity:1" d="M 185.801,193.705 185.801,154.183 z" id="boundary" inkscape:connector-curvature="0" />
	<path style="fill:none;stroke:red;stroke-width:1px;stroke-linecap:butt;stroke-linejoin:miter;stroke-opacity:1" d="M 185.801,193.705 185.801,233.227 z" id="boundary" inkscape:connector-curvature="0" />
	<path style="fill:none;stroke:red;stroke-width:1px;stroke-linecap:butt;stroke-linejoin:miter;stroke-opacity:1" d="M 185.801,272.749 185.801,233.227 z" id="boundary" inkscape:connector-curvature="0" />
	<path style="fill:none;stroke:red;stroke-width:1px;stroke-linecap:butt;stroke-linejoin:miter;stroke-opacity:1" d="M 185.801,312.271 185.801,272.749 z" id="boundary" inkscape:connector-curvature="0" />
	<path style="fill:none;stroke:red;stroke-width:1px;stroke-linecap:butt;stroke-linejoin:miter;stroke-opacity:1" d="M 185.801,312.271 185.801,351.793 z" id="boundary" inkscape:connector-curvature="0" />
	<path style="fill:none;stroke:red;stroke-width:1px;stroke-linecap:butt;stroke-linejoin:miter;stroke-opacity:1" d="M 185.801,391.315 185.801,351.793 z" id="boundary" inkscape:connector-curvature="0" />
	<path style="fill:none;stroke:red;stroke-width:1px;stroke-linecap:butt;stroke-linejoin:miter;stroke-opacity:1" d="M 185.801,430.837 185.801,391.315 z" id="boundary" inkscape:connector-curvature="0" />
	<path style="fill:none;stroke:red;stroke-width:1px;stroke-linecap:butt;stroke-linejoin:miter;stroke-opacity:1" d="M 229.275,529.641 193.705,509.88 z" id="boundary" inkscape:connector-curvature="0" />
	<path style="fill:none;stroke:red;stroke-width:1px;stroke-linecap:butt;stroke-linejoin:miter;stroke-opacity:1" d="M 193.705,509.88 185.801,470.359 z" id="boundary" inkscape:connector-curvature="0" />
	<path style="fill:none;stroke:red;stroke-width:1px;stroke-linecap:butt;stroke-linejoin:miter;stroke-opacity:1" d="M 185.801,470.359 185.801,430.837 z" id="boundary" inkscape:connector-curvature="0" />
	<path style="fill:none;stroke:red;stroke-width:1px;stroke-linecap:butt;stroke-linejoin:miter;stroke-opacity:1" d="M 4,794.438 35.6175,822.104 z" id="boundary" inkscape:connector-curvature="0" />
	<path style="fill:none;stroke:red;stroke-width:1px;stroke-linecap:butt;stroke-linejoin:miter;stroke-opacity:1" d="M 31.6653,992.048 4,960.43 z" id="boundary" inkscape:connector-curvature="0" />
	<path style="fill:none;stroke:red;stroke-width:1px;stroke-linecap:butt;stroke-linejoin:miter;stroke-opacity:1" d="M 4,960.43 4,920.908 z" id="boundary" inkscape:connector-curvature="0" />
	<path style="fill:none;stroke:red;stroke-width:1px;stroke-linecap:butt;stroke-linejoin:miter;stroke-opacity:1" d="M 4,920.908 43.5219,905.1 z" id="boundary" inkscape:connector-curvature="0" />
	<path style="fill:none;stroke:red;stroke-width:1px;stroke-linecap:butt;stroke-linejoin:miter;stroke-opacity:1" d="M 43.5219,905.1 83.0438,905.1 z" id="boundary" inkscape:connector-curvature="0" />
	<path style="fill:none;stroke:red;stroke-width:1px;stroke-linecap:butt;stroke-linejoin:miter;stroke-opacity:1" d="M 110.709,988.096 71.1873,996 z" id="boundary" inkscape:connector-curvature="0" />
	<path style="fill:none;stroke:red;stroke-width:1px;stroke-linecap:butt;stroke-linejoin:miter;stroke-opacity:1" d="M 71.1873,996 31.6653,992.048 z" id="boundary" inkscape:connector-curvature="0" />
	<path style="fill:none;stroke:red;stroke-width:1px;stroke-linecap:butt;stroke-linejoin:miter;stroke-opacity:1" d="M 150.231,988.096 110.709,988.096 z" id="boundary" inkscape:connector-curvature="0" />
	<path style="fill:none;stroke:red;stroke-width:1px;stroke-linecap:butt;stroke-linejoin:miter;stroke-opacity:1" d="M 83.0438,905.1 122.566,905.1 z" id="boundary" inkscape:connector-curvature="0" />
	<path style="fill:none;stroke:red;stroke-width:1px;stroke-linecap:butt;stroke-linejoin:miter;stroke-opacity:1" d="M 122.566,905.1 162.088,905.1 z" id="boundary" inkscape:connector-curvature="0" />
	<path style="fill:none;stroke:red;stroke-width:1px;stroke-linecap:butt;stroke-linejoin:miter;stroke-opacity:1" d="M 162.088,905.1 201.61,905.1 z" id="boundary" inkscape:connector-curvature="0" />
	<path style="fill:none;stroke:red;stroke-width:1px;stroke-linecap:butt;stroke-linejoin:miter;stroke-opacity:1" d="M 189.753,988.096 150.231,988.096 z" id="boundary" inkscape:connector-curvature="0" />
	<path style="fill:none;stroke:red;stroke-width:1px;stroke-linecap:butt;stroke-linejoin:miter;stroke-opacity:1" d="M 189.753,988.096 229.275,988.096 z" id="boundary" inkscape:connector-curvature="0" />
	<path style="fill:none;stroke:red;stroke-width:1px;stroke-linecap:butt;stroke-linejoin:miter;stroke-opacity:1" d="M 237.179,35.6175 237.179,75.1394 z" id="boundary" inkscape:connector-curvature="0" />
	<path style="fill:none;stroke:red;stroke-width:1px;stroke-linecap:butt;stroke-linejoin:miter;stroke-opacity:1" d="M 237.179,35.6175 209.514,4 z" id="boundary" inkscape:connector-curvature="0" />
	<path style="fill:none;stroke:red;stroke-width:1px;stroke-linecap:butt;stroke-linejoin:miter;stroke-opacity:1" d="M 276.701,83.0438 237.179,75.1394 z" id="boundary" inkscape:connector-curvature="0" />
	<path style="fill:none;stroke:red;stroke-width:1px;stroke-linecap:butt;stroke-linejoin:miter;stroke-opacity:1" d="M 316.223,83.0438 276.701,83.0438 z" id="boundary" inkscape:connector-curvature="0" />
	<path style="fill:none;stroke:red;stroke-width:1px;stroke-linecap:butt;stroke-linejoin:miter;stroke-opacity:1" d="M 316.223,83.0438 332.032,122.566 z" id="boundary" inkscape:connector-curvature="0" />
	<path style="fill:none;stroke:red;stroke-width:1px;stroke-linecap:butt;stroke-linejoin:miter;stroke-opacity:1" d="M 249.036,565.211 249.036,604.733 z" id="boundary" inkscape:connector-curvature="0" />
	<path style="fill:none;stroke:red;stroke-width:1px;stroke-linecap:butt;stroke-linejoin:miter;stroke-opacity:1" d="M 249.036,565.211 229.275,529.641 z" id="boundary" inkscape:connector-curvature="0" />
	<path style="fill:none;stroke:red;stroke-width:1px;stroke-linecap:butt;stroke-linejoin:miter;stroke-opacity:1" d="M 249.036,604.733 217.418,660.064 z" id="boundary" inkscape:connector-curvature="0" />
	<path style="fill:none;stroke:red;stroke-width:1px;stroke-linecap:butt;stroke-linejoin:miter;stroke-opacity:1" d="M 332.032,162.088 332.032,201.61 z" id="boundary" inkscape:connector-curvature="0" />
	<path style="fill:none;stroke:red;stroke-width:1px;stroke-linecap:butt;stroke-linejoin:miter;stroke-opacity:1" d="M 332.032,162.088 332.032,122.566 z" id="boundary" inkscape:connector-curvature="0" />
	<path style="fill:none;stroke:red;stroke-width:1px;stroke-linecap:butt;stroke-linejoin:miter;stroke-opacity:1" d="M 332.032,280.653 332.032,320.175 z" id="boundary" inkscape:connector-curvature="0" />
	<path style="fill:none;stroke:red;stroke-width:1px;stroke-linecap:butt;stroke-linejoin:miter;stroke-opacity:1" d="M 332.032,201.61 332.032,241.131 z" id="boundary" inkscape:connector-curvature="0" />
	<path style="fill:none;stroke:red;stroke-width:1px;stroke-linecap:butt;stroke-linejoin:miter;stroke-opacity:1" d="M 332.032,241.131 332.032,280.653 z" id="boundary" inkscape:connector-curvature="0" />
	<path style="fill:none;stroke:red;stroke-width:1px;stroke-linecap:butt;stroke-linejoin:miter;stroke-opacity:1" d="M 332.032,359.697 332.032,399.219 z" id="boundary" inkscape:connector-curvature="0" />
	<path style="fill:none;stroke:red;stroke-width:1px;stroke-linecap:butt;stroke-linejoin:miter;stroke-opacity:1" d="M 332.032,359.697 332.032,320.175 z" id="boundary" inkscape:connector-curvature="0" />
	<path style="fill:none;stroke:red;stroke-width:1px;stroke-linecap:butt;stroke-linejoin:miter;stroke-opacity:1" d="M 332.032,399.219 332.032,438.741 z" id="boundary" inkscape:connector-curvature="0" />
	<path style="fill:none;stroke:red;stroke-width:1px;stroke-linecap:butt;stroke-linejoin:miter;stroke-opacity:1" d="M 332.032,478.263 332.032,438.741 z" id="boundary" inkscape:connector-curvature="0" />
	<path style="fill:none;stroke:red;stroke-width:1px;stroke-linecap:butt;stroke-linejoin:miter;stroke-opacity:1" d="M 332.032,517.785 332.032,478.263 z" id="boundary" inkscape:connector-curvature="0" />
	<path style="fill:none;stroke:red;stroke-width:1px;stroke-linecap:butt;stroke-linejoin:miter;stroke-opacity:1" d="M 332.032,557.307 332.032,596.829 z" id="boundary" inkscape:connector-curvature="0" />
	<path style="fill:none;stroke:red;stroke-width:1px;stroke-linecap:butt;stroke-linejoin:miter;stroke-opacity:1" d="M 332.032,636.351 332.032,596.829 z" id="boundary" inkscape:connector-curvature="0" />
	<path style="fill:none;stroke:red;stroke-width:1px;stroke-linecap:butt;stroke-linejoin:miter;stroke-opacity:1" d="M 332.032,557.307 332.032,517.785 z" id="boundary" inkscape:connector-curvature="0" />
	<path style="fill:none;stroke:red;stroke-width:1px;stroke-linecap:butt;stroke-linejoin:miter;stroke-opacity:1" d="M 332.032,636.351 332.032,675.873 z" id="boundary" inkscape:connector-curvature="0" />
	<path style="fill:none;stroke:red;stroke-width:1px;stroke-linecap:butt;stroke-linejoin:miter;stroke-opacity:1" d="M 249.036,743.06 213.466,786.534 z" id="boundary" inkscape:connector-curvature="0" />
	<path style="fill:none;stroke:red;stroke-width:1px;stroke-linecap:butt;stroke-linejoin:miter;stroke-opacity:1" d="M 237.179,703.538 249.036,743.06 z" id="boundary" inkscape:connector-curvature="0" />
	<path style="fill:none;stroke:red;stroke-width:1px;stroke-linecap:butt;stroke-linejoin:miter;stroke-opacity:1" d="M 197.657,695.633 237.179,703.538 z" id="boundary" inkscape:connector-curvature="0" />
	<path style="fill:none;stroke:red;stroke-width:1px;stroke-linecap:butt;stroke-linejoin:miter;stroke-opacity:1" d="M 201.61,905.1 241.131,905.1 z" id="boundary" inkscape:connector-curvature="0" />
	<path style="fill:none;stroke:red;stroke-width:1px;stroke-linecap:butt;stroke-linejoin:miter;stroke-opacity:1" d="M 233.227,822.104 249.036,861.625 z" id="boundary" inkscape:connector-curvature="0" />
	<path style="fill:none;stroke:red;stroke-width:1px;stroke-linecap:butt;stroke-linejoin:miter;stroke-opacity:1" d="M 308.319,988.096 268.797,988.096 z" id="boundary" inkscape:connector-curvature="0" />
	<path style="fill:none;stroke:red;stroke-width:1px;stroke-linecap:butt;stroke-linejoin:miter;stroke-opacity:1" d="M 249.036,861.625 241.131,905.1 z" id="boundary" inkscape:connector-curvature="0" />
	<path style="fill:none;stroke:red;stroke-width:1px;stroke-linecap:butt;stroke-linejoin:miter;stroke-opacity:1" d="M 268.797,988.096 229.275,988.096 z" id="boundary" inkscape:connector-curvature="0" />
	<path style="fill:none;stroke:red;stroke-width:1px;stroke-linecap:butt;stroke-linejoin:miter;stroke-opacity:1" d="M 332.032,715.394 332.032,754.916 z" id="boundary" inkscape:connector-curvature="0" />
	<path style="fill:none;stroke:red;stroke-width:1px;stroke-linecap:butt;stroke-linejoin:miter;stroke-opacity:1" d="M 332.032,715.394 332.032,675.873 z" id="boundary" inkscape:connector-curvature="0" />
	<path style="fill:none;stroke:red;stroke-width:1px;stroke-linecap:butt;stroke-linejoin:miter;stroke-opacity:1" d="M 332.032,794.438 332.032,833.96 z" id="boundary" inkscape:connector-curvature="0" />
	<path style="fill:none;stroke:red;stroke-width:1px;stroke-linecap:butt;stroke-linejoin:miter;stroke-opacity:1" d="M 332.032,794.438 332.032,754.916 z" id="boundary" inkscape:connector-curvature="0" />
	<path style="fill:none;stroke:red;stroke-width:1px;stroke-linecap:butt;stroke-linejoin:miter;stroke-opacity:1" d="M 332.032,833.96 332.032,873.482 z" id="boundary" inkscape:connector-curvature="0" />
	<path style="fill:none;stroke:red;stroke-width:1px;stroke-linecap:butt;stroke-linejoin:miter;stroke-opacity:1" d="M 347.841,996 308.319,988.096 z" id="boundary" inkscape:connector-curvature="0" />
	<path style="fill:none;stroke:red;stroke-width:1px;stroke-linecap:butt;stroke-linejoin:miter;stroke-opacity:1" d="M 332.032,873.482 355.745,905.1 z" id="boundary" inkscape:connector-curvature="0" />
	<path style="fill:none;stroke:red;stroke-width:1px;stroke-linecap:butt;stroke-linejoin:miter;stroke-opacity:1" d="M 355.745,905.1 395.267,913.004 z" id="boundary" inkscape:connector-curvature="0" />
	<path style="fill:none;stroke:red;stroke-width:1px;stroke-linecap:butt;stroke-linejoin:miter;stroke-opacity:1" d="M 387.363,988.096 347.841,996 z" id="boundary" inkscape:connector-curvature="0" />
	<path style="fill:none;stroke:red;stroke-width:1px;stroke-linecap:butt;stroke-linejoin:miter;stroke-opacity:1" d="M 185.801,35.6175 209.514,4 z" id="boundary" inkscape:connector-curvature="0" />
	<circle cx="4" cy="675.873" r="4" fill="#0" id="circle0"/>
	<circle cx="4" cy="794.438" r="4" fill="#0" id="circle1"/>
	<circle cx="4" cy="920.908" r="4" fill="#0" id="circle2"/>
	<circle cx="4" cy="960.43" r="4" fill="#0" id="circle3"/>
	<circle cx="31.6653" cy="992.048" r="4" fill="#0" id="circle4"/>
	<circle cx="35.6175" cy="822.104" r="4" fill="#0" id="circle5"/>
	<circle cx="39.5697" cy="695.633" r="4" fill="#0" id="circle6"/>
	<circle cx="43.5219" cy="905.1" r="4" fill="#0" id="circle7"/>
	<circle cx="55.3785" cy="786.534" r="4" fill="#0" id="circle8"/>
	<circle cx="59.3307" cy="660.064" r="4" fill="#0" id="circle9"/>
	<circle cx="71.1873" cy="996" r="4" fill="#0" id="circle10"/>
	<circle cx="75.1394" cy="822.104" r="4" fill="#0" id="circle11"/>
	<circle cx="79.0916" cy="695.633" r="4" fill="#0" id="circle12"/>
	<circle cx="83.0438" cy="905.1" r="4" fill="#0" id="circle13"/>
	<circle cx="94.9004" cy="786.534" r="4" fill="#0" id="circle14"/>
	<circle cx="98.8526" cy="660.064" r="4" fill="#0" id="circle15"/>
	<circle cx="110.709" cy="988.096" r="4" fill="#0" id="circle16"/>
	<circle cx="114.661" cy="822.104" r="4" fill="#0" id="circle17"/>
	<circle cx="118.614" cy="695.633" r="4" fill="#0" id="circle18"/>
	<circle cx="122.566" cy="905.1" r="4" fill="#0" id="circle19"/>
	<circle cx="134.422" cy="786.534" r="4" fill="#0" id="circle20"/>
	<circle cx="138.375" cy="660.064" r="4" fill="#0" id="circle21"/>
	<circle cx="150.231" cy="988.096" r="4" fill="#0" id="circle22"/>
	<circle cx="154.183" cy="822.104" r="4" fill="#0" id="circle23"/>
	<circle cx="158.135" cy="695.633" r="4" fill="#0" id="circle24"/>
	<circle cx="162.088" cy="905.1" r="4" fill="#0" id="circle25"/>
	<circle cx="173.944" cy="786.534" r="4" fill="#0" id="circle26"/>
	<circle cx="177.896" cy="660.064" r="4" fill="#0" id="circle27"/>
	<circle cx="185.801" cy="35.6175" r="4" fill="#0" id="circle28"/>
	<circle cx="185.801" cy="75.1394" r="4" fill="#0" id="circle29"/>
	<circle cx="185.801" cy="114.661" r="4" fill="#0" id="circle30"/>
	<circle cx="185.801" cy="154.183" r="4" fill="#0" id="circle31"/>
	<circle cx="185.801" cy="193.705" r="4" fill="#0" id="circle32"/>
	<circle cx="185.801" cy="233.227" r="4" fill="#0" id="circle33"/>
	<circle cx="185.801" cy="272.749" r="4" fill="#0" id="circle34"/>
	<circle cx="185.801" cy="312.271" r="4" fill="#0" id="circle35"/>
	<circle cx="185.801" cy="351.793" r="4" fill="#0" id="circle36"/>
	<circle cx="185.801" cy="391.315" r="4" fill="#0" id="circle37"/>
	<circle cx="185.801" cy="430.837" r="4" fill="#0" id="circle38"/>
	<circle cx="185.801" cy="470.359" r="4" fill="#0" id="circle39"/>
	<circle cx="189.753" cy="988.096" r="4" fill="#0" id="circle40"/>
	<circle cx="193.705" cy="509.88" r="4" fill="#0" id="circle41"/>
	<circle cx="193.705" cy="822.104" r="4" fill="#0" id="circle42"/>
	<circle cx="197.657" cy="695.633" r="4" fill="#0" id="circle43"/>
	<circle cx="201.61" cy="905.1" r="4" fill="#0" id="circle44"/>
	<circle cx="209.514" cy="4" r="4" fill="#0" id="circle45"/>
	<circle cx="213.466" cy="786.534" r="4" fill="#0" id="circle46"/>
	<circle cx="217.418" cy="660.064" r="4" fill="#0" id="circle47"/>
	<circle cx="229.275" cy="529.641" r="4" fill="#0" id="circle48"/>
	<circle cx="229.275" cy="988.096" r="4" fill="#0" id="circle49"/>
	<circle cx="233.227" cy="822.104" r="4" fill="#0" id="circle50"/>
	<circle cx="237.179" cy="35.6175" r="4" fill="#0" id="circle51"/>
	<circle cx="237.179" cy="75.1394" r="4" fill="#0" id="circle52"/>
	<circle cx="237.179" cy="703.538" r="4" fill="#0" id="circle53"/>
	<circle cx="241.131" cy="905.1" r="4" fill="#0" id="circle54"/>
	<circle cx="249.036" cy="565.211" r="4" fill="#0" id="circle55"/>
	<circle cx="249.036" cy="604.733" r="4" fill="#0" id="circle56"/>
	<circle cx="249.036" cy="743.06" r="4" fill="#0" id="circle57"/>
	<circle cx="249.036" cy="861.625" r="4" fill="#0" id="circle58"/>
	<circle cx="268.797" cy="988.096" r="4" fill="#0" id="circle59"/>
	<circle cx="276.701" cy="83.0438" r="4" fill="#0" id="circle60"/>
	<circle cx="308.319" cy="988.096" r="4" fill="#0" id="circle61"/>
	<circle cx="316.223" cy="83.0438" r="4" fill="#0" id="circle62"/>
	<circle cx="332.032" cy="122.566" r="4" fill="#0" id="circle63"/>
	<circle cx="332.032" cy="162.088" r="4" fill="#0" id="circle64"/>
	<circle cx="332.032" cy="201.61" r="4" fill="#0" id="circle65"/>
	<circle cx="332.032" cy="241.131" r="4" fill="#0" id="circle66"/>
	<circle cx="332.032" cy="280.653" r="4" fill="#0" id="circle67"/>
	<circle cx="332.032" cy="320.175" r="4" fill="#0" id="circle68"/>
	<circle cx="332.032" cy="359.697" r="4" fill="#0" id="circle69"/>
	<circle cx="332.032" cy="399.219" r="4" fill="#0" id="circle70"/>
	<circle cx="332.032" cy="438.741" r="4" fill="#0" id="circle71"/>
	<circle cx="332.032" cy="478.263" r="4" fill="#0" id="circle72"/>
	<circle cx="332.032" cy="517.785" r="4" fill="#0" id="circle73"/>
	<circle cx="332.032" cy="557.307" r="4" fill="#0" id="circle74"/>
	<circle cx="332.032" cy="596.829" r="4" fill="#0" id="circle75"/>
	<circle cx="332.032" cy="636.351" r="4" fill="#0" id="circle76"/>
	<circle cx="332.032" cy="675.873" r="4" fill="#0" id="circle77"/>
	<circle cx="332.032" cy="715.394" r="4" fill="#0" id="circle78"/>
	<circle cx="332.032" cy="754.916" r="4" fill="#0" id="circle79"/>
	<circle cx="332.032" cy="794.438" r="4" fill="#0" id="circle80"/>
	<circle cx="332.032" cy="833.96" r="4" fill="#0" id="circle81"/>
	<circle cx="332.032" cy="873.482" r="4" fill="#0" id="circle82"/>
	<circle cx="347.841" cy="996" r="4" fill="#0" id="circle83"/>
	<circle cx="355.745" cy="905.1" r="4" fill="#0" id="circle84"/>
	<circle cx="387.363" cy="988.096" r="4" fill="#0" id="circle85"/>
	<circle cx="395.267" cy="913.004" r="4" fill="#0" id="circle86"/>
	</g>
</svg>