<?xml version="1.0" encoding="UTF-8" standalone="no"?>
<!-- Created with CurveBenchmark -->
<svg
	xmlns:dc="http://purl.org/dc/elements/1.1/"
	xmlns:cc="http://creativecommons.org/ns#"
	xmlns:rdf="http://www.w3.org/1999/02/22-rdf-syntax-ns#"
	xmlns:svg="http://www.w3.org/2000/svg"
	xmlns="http://www.w3.org/2000/svg"
	xmlns:sodipodi="http://sodipodi.sourceforge.net/DTD/sodipodi-0.dtd"
	xmlns:inkscape="http://www.inkscape.org/namespaces/inkscape"
	width="1000"
	height="1000"
	id="svg2"
	version="1.1"
	sodipodi:docname="manifold/ccrust-sea_snake-20.png.txt">
<defs
	id="defs4" />
<metadata
	id="metadata7">
	<rdf:RDF>
		<cc:Work
			rdf:about="">
			<dc:format>image/svg+xml</dc:format>
			<dc:type
				rdf:resource="http://purl.org/dc/dcmitype/StillImage" />
			<dc:title></dc:title>
		</cc:Work>
	</rdf:RDF>
</metadata>
<g
	inkscape:label="Layer 1"
	inkscape:groupmode="layer"
	id="layer1">
	<path style="fill:none;stroke:red;stroke-width:1px;stroke-linecap:butt;stroke-linejoin:miter;stroke-opacity:1" d="M 107.289,402.091 96.5293,423.61 z" id="boundary" inkscape:connector-curvature="0" />
	<path style="fill:none;stroke:red;stroke-width:1px;stroke-linecap:butt;stroke-linejoin:miter;stroke-opacity:1" d="M 96.5293,423.61 79.3145,440.824 z" id="boundary" inkscape:connector-curvature="0" />
	<path style="fill:none;stroke:red;stroke-width:1px;stroke-linecap:butt;stroke-linejoin:miter;stroke-opacity:1" d="M 173.996,486.013 156.781,501.076 z" id="boundary" inkscape:connector-curvature="0" />
	<path style="fill:none;stroke:red;stroke-width:1px;stroke-linecap:butt;stroke-linejoin:miter;stroke-opacity:1" d="M 68.5553,462.343 79.3145,440.824 z" id="boundary" inkscape:connector-curvature="0" />
	<path style="fill:none;stroke:red;stroke-width:1px;stroke-linecap:butt;stroke-linejoin:miter;stroke-opacity:1" d="M 47.0369,505.38 57.7961,483.861 z" id="boundary" inkscape:connector-curvature="0" />
	<path style="fill:none;stroke:red;stroke-width:1px;stroke-linecap:butt;stroke-linejoin:miter;stroke-opacity:1" d="M 57.7961,483.861 68.5553,462.343 z" id="boundary" inkscape:connector-curvature="0" />
	<path style="fill:none;stroke:red;stroke-width:1px;stroke-linecap:butt;stroke-linejoin:miter;stroke-opacity:1" d="M 141.718,369.813 150.325,348.295 z" id="boundary" inkscape:connector-curvature="0" />
	<path style="fill:none;stroke:red;stroke-width:1px;stroke-linecap:butt;stroke-linejoin:miter;stroke-opacity:1" d="M 141.718,369.813 124.503,384.876 z" id="boundary" inkscape:connector-curvature="0" />
	<path style="fill:none;stroke:red;stroke-width:1px;stroke-linecap:butt;stroke-linejoin:miter;stroke-opacity:1" d="M 156.781,501.076 146.022,522.594 z" id="boundary" inkscape:connector-curvature="0" />
	<path style="fill:none;stroke:red;stroke-width:1px;stroke-linecap:butt;stroke-linejoin:miter;stroke-opacity:1" d="M 107.289,402.091 124.503,384.876 z" id="boundary" inkscape:connector-curvature="0" />
	<path style="fill:none;stroke:red;stroke-width:1px;stroke-linecap:butt;stroke-linejoin:miter;stroke-opacity:1" d="M 124.503,565.631 135.262,544.113 z" id="boundary" inkscape:connector-curvature="0" />
	<path style="fill:none;stroke:red;stroke-width:1px;stroke-linecap:butt;stroke-linejoin:miter;stroke-opacity:1" d="M 150.325,348.295 167.54,331.08 z" id="boundary" inkscape:connector-curvature="0" />
	<path style="fill:none;stroke:red;stroke-width:1px;stroke-linecap:butt;stroke-linejoin:miter;stroke-opacity:1" d="M 146.022,522.594 135.262,544.113 z" id="boundary" inkscape:connector-curvature="0" />
	<path style="fill:none;stroke:red;stroke-width:1px;stroke-linecap:butt;stroke-linejoin:miter;stroke-opacity:1" d="M 14.7592,612.972 14.7592,591.453 z" id="boundary" inkscape:connector-curvature="0" />
	<path style="fill:none;stroke:red;stroke-width:1px;stroke-linecap:butt;stroke-linejoin:miter;stroke-opacity:1" d="M 4,634.49 14.7592,612.972 z" id="boundary" inkscape:connector-curvature="0" />
	<path style="fill:none;stroke:red;stroke-width:1px;stroke-linecap:butt;stroke-linejoin:miter;stroke-opacity:1" d="M 4,656.009 4,634.49 z" id="boundary" inkscape:connector-curvature="0" />
	<path style="fill:none;stroke:red;stroke-width:1px;stroke-linecap:butt;stroke-linejoin:miter;stroke-opacity:1" d="M 4,677.527 4,656.009 z" id="boundary" inkscape:connector-curvature="0" />
	<path style="fill:none;stroke:red;stroke-width:1px;stroke-linecap:butt;stroke-linejoin:miter;stroke-opacity:1" d="M 14.7592,591.453 25.5184,559.176 z" id="boundary" inkscape:connector-curvature="0" />
	<path style="fill:none;stroke:red;stroke-width:1px;stroke-linecap:butt;stroke-linejoin:miter;stroke-opacity:1" d="M 36.2777,526.898 47.0369,505.38 z" id="boundary" inkscape:connector-curvature="0" />
	<path style="fill:none;stroke:red;stroke-width:1px;stroke-linecap:butt;stroke-linejoin:miter;stroke-opacity:1" d="M 124.503,565.631 113.744,597.909 z" id="boundary" inkscape:connector-curvature="0" />
	<path style="fill:none;stroke:red;stroke-width:1px;stroke-linecap:butt;stroke-linejoin:miter;stroke-opacity:1" d="M 102.985,640.946 92.2256,673.223 z" id="boundary" inkscape:connector-curvature="0" />
	<path style="fill:none;stroke:red;stroke-width:1px;stroke-linecap:butt;stroke-linejoin:miter;stroke-opacity:1" d="M 102.985,619.427 102.985,640.946 z" id="boundary" inkscape:connector-curvature="0" />
	<path style="fill:none;stroke:red;stroke-width:1px;stroke-linecap:butt;stroke-linejoin:miter;stroke-opacity:1" d="M 102.985,619.427 113.744,597.909 z" id="boundary" inkscape:connector-curvature="0" />
	<path style="fill:none;stroke:red;stroke-width:1px;stroke-linecap:butt;stroke-linejoin:miter;stroke-opacity:1" d="M 92.2256,694.742 92.2256,673.223 z" id="boundary" inkscape:connector-curvature="0" />
	<path style="fill:none;stroke:red;stroke-width:1px;stroke-linecap:butt;stroke-linejoin:miter;stroke-opacity:1" d="M 25.5184,559.176 36.2777,526.898 z" id="boundary" inkscape:connector-curvature="0" />
	<path style="fill:none;stroke:red;stroke-width:1px;stroke-linecap:butt;stroke-linejoin:miter;stroke-opacity:1" d="M 238.551,272.98 253.614,255.766 z" id="boundary" inkscape:connector-curvature="0" />
	<path style="fill:none;stroke:red;stroke-width:1px;stroke-linecap:butt;stroke-linejoin:miter;stroke-opacity:1" d="M 253.614,255.766 275.132,251.462 z" id="boundary" inkscape:connector-curvature="0" />
	<path style="fill:none;stroke:red;stroke-width:1px;stroke-linecap:butt;stroke-linejoin:miter;stroke-opacity:1" d="M 294.499,236.399 275.132,251.462 z" id="boundary" inkscape:connector-curvature="0" />
	<path style="fill:none;stroke:red;stroke-width:1px;stroke-linecap:butt;stroke-linejoin:miter;stroke-opacity:1" d="M 221.336,288.043 238.551,272.98 z" id="boundary" inkscape:connector-curvature="0" />
	<path style="fill:none;stroke:red;stroke-width:1px;stroke-linecap:butt;stroke-linejoin:miter;stroke-opacity:1" d="M 184.755,316.017 199.818,298.803 z" id="boundary" inkscape:connector-curvature="0" />
	<path style="fill:none;stroke:red;stroke-width:1px;stroke-linecap:butt;stroke-linejoin:miter;stroke-opacity:1" d="M 184.755,316.017 167.54,331.08 z" id="boundary" inkscape:connector-curvature="0" />
	<path style="fill:none;stroke:red;stroke-width:1px;stroke-linecap:butt;stroke-linejoin:miter;stroke-opacity:1" d="M 221.336,288.043 199.818,298.803 z" id="boundary" inkscape:connector-curvature="0" />
	<path style="fill:none;stroke:red;stroke-width:1px;stroke-linecap:butt;stroke-linejoin:miter;stroke-opacity:1" d="M 337.536,214.881 359.054,204.121 z" id="boundary" inkscape:connector-curvature="0" />
	<path style="fill:none;stroke:red;stroke-width:1px;stroke-linecap:butt;stroke-linejoin:miter;stroke-opacity:1" d="M 380.573,193.362 359.054,204.121 z" id="boundary" inkscape:connector-curvature="0" />
	<path style="fill:none;stroke:red;stroke-width:1px;stroke-linecap:butt;stroke-linejoin:miter;stroke-opacity:1" d="M 419.306,296.651 399.939,307.41 z" id="boundary" inkscape:connector-curvature="0" />
	<path style="fill:none;stroke:red;stroke-width:1px;stroke-linecap:butt;stroke-linejoin:miter;stroke-opacity:1" d="M 294.499,236.399 316.017,225.64 z" id="boundary" inkscape:connector-curvature="0" />
	<path style="fill:none;stroke:red;stroke-width:1px;stroke-linecap:butt;stroke-linejoin:miter;stroke-opacity:1" d="M 316.017,225.64 337.536,214.881 z" id="boundary" inkscape:connector-curvature="0" />
	<path style="fill:none;stroke:red;stroke-width:1px;stroke-linecap:butt;stroke-linejoin:miter;stroke-opacity:1" d="M 399.939,307.41 380.573,318.169 z" id="boundary" inkscape:connector-curvature="0" />
	<path style="fill:none;stroke:red;stroke-width:1px;stroke-linecap:butt;stroke-linejoin:miter;stroke-opacity:1" d="M 217.033,432.217 232.095,415.002 z" id="boundary" inkscape:connector-curvature="0" />
	<path style="fill:none;stroke:red;stroke-width:1px;stroke-linecap:butt;stroke-linejoin:miter;stroke-opacity:1" d="M 217.033,432.217 199.818,447.28 z" id="boundary" inkscape:connector-curvature="0" />
	<path style="fill:none;stroke:red;stroke-width:1px;stroke-linecap:butt;stroke-linejoin:miter;stroke-opacity:1" d="M 249.31,399.939 232.095,415.002 z" id="boundary" inkscape:connector-curvature="0" />
	<path style="fill:none;stroke:red;stroke-width:1px;stroke-linecap:butt;stroke-linejoin:miter;stroke-opacity:1" d="M 173.996,486.013 184.755,464.495 z" id="boundary" inkscape:connector-curvature="0" />
	<path style="fill:none;stroke:red;stroke-width:1px;stroke-linecap:butt;stroke-linejoin:miter;stroke-opacity:1" d="M 184.755,464.495 199.818,447.28 z" id="boundary" inkscape:connector-curvature="0" />
	<path style="fill:none;stroke:red;stroke-width:1px;stroke-linecap:butt;stroke-linejoin:miter;stroke-opacity:1" d="M 303.106,361.206 322.473,350.447 z" id="boundary" inkscape:connector-curvature="0" />
	<path style="fill:none;stroke:red;stroke-width:1px;stroke-linecap:butt;stroke-linejoin:miter;stroke-opacity:1" d="M 361.206,328.928 341.839,339.688 z" id="boundary" inkscape:connector-curvature="0" />
	<path style="fill:none;stroke:red;stroke-width:1px;stroke-linecap:butt;stroke-linejoin:miter;stroke-opacity:1" d="M 380.573,318.169 361.206,328.928 z" id="boundary" inkscape:connector-curvature="0" />
	<path style="fill:none;stroke:red;stroke-width:1px;stroke-linecap:butt;stroke-linejoin:miter;stroke-opacity:1" d="M 322.473,350.447 341.839,339.688 z" id="boundary" inkscape:connector-curvature="0" />
	<path style="fill:none;stroke:red;stroke-width:1px;stroke-linecap:butt;stroke-linejoin:miter;stroke-opacity:1" d="M 264.373,382.725 283.74,371.965 z" id="boundary" inkscape:connector-curvature="0" />
	<path style="fill:none;stroke:red;stroke-width:1px;stroke-linecap:butt;stroke-linejoin:miter;stroke-opacity:1" d="M 249.31,399.939 264.373,382.725 z" id="boundary" inkscape:connector-curvature="0" />
	<path style="fill:none;stroke:red;stroke-width:1px;stroke-linecap:butt;stroke-linejoin:miter;stroke-opacity:1" d="M 303.106,361.206 283.74,371.965 z" id="boundary" inkscape:connector-curvature="0" />
	<path style="fill:none;stroke:red;stroke-width:1px;stroke-linecap:butt;stroke-linejoin:miter;stroke-opacity:1" d="M 4,742.082 4,720.564 z" id="boundary" inkscape:connector-curvature="0" />
	<path style="fill:none;stroke:red;stroke-width:1px;stroke-linecap:butt;stroke-linejoin:miter;stroke-opacity:1" d="M 14.7592,761.449 4,742.082 z" id="boundary" inkscape:connector-curvature="0" />
	<path style="fill:none;stroke:red;stroke-width:1px;stroke-linecap:butt;stroke-linejoin:miter;stroke-opacity:1" d="M 14.7592,761.449 14.7592,782.967 z" id="boundary" inkscape:connector-curvature="0" />
	<path style="fill:none;stroke:red;stroke-width:1px;stroke-linecap:butt;stroke-linejoin:miter;stroke-opacity:1" d="M 25.5184,823.852 14.7592,804.486 z" id="boundary" inkscape:connector-curvature="0" />
	<path style="fill:none;stroke:red;stroke-width:1px;stroke-linecap:butt;stroke-linejoin:miter;stroke-opacity:1" d="M 14.7592,804.486 14.7592,782.967 z" id="boundary" inkscape:connector-curvature="0" />
	<path style="fill:none;stroke:red;stroke-width:1px;stroke-linecap:butt;stroke-linejoin:miter;stroke-opacity:1" d="M 4,720.564 4,699.046 z" id="boundary" inkscape:connector-curvature="0" />
	<path style="fill:none;stroke:red;stroke-width:1px;stroke-linecap:butt;stroke-linejoin:miter;stroke-opacity:1" d="M 92.2256,694.742 92.2256,716.26 z" id="boundary" inkscape:connector-curvature="0" />
	<path style="fill:none;stroke:red;stroke-width:1px;stroke-linecap:butt;stroke-linejoin:miter;stroke-opacity:1" d="M 92.2256,737.779 92.2256,716.26 z" id="boundary" inkscape:connector-curvature="0" />
	<path style="fill:none;stroke:red;stroke-width:1px;stroke-linecap:butt;stroke-linejoin:miter;stroke-opacity:1" d="M 96.5293,759.297 92.2256,737.779 z" id="boundary" inkscape:connector-curvature="0" />
	<path style="fill:none;stroke:red;stroke-width:1px;stroke-linecap:butt;stroke-linejoin:miter;stroke-opacity:1" d="M 102.985,780.816 102.985,802.334 z" id="boundary" inkscape:connector-curvature="0" />
	<path style="fill:none;stroke:red;stroke-width:1px;stroke-linecap:butt;stroke-linejoin:miter;stroke-opacity:1" d="M 102.985,780.816 96.5293,759.297 z" id="boundary" inkscape:connector-curvature="0" />
	<path style="fill:none;stroke:red;stroke-width:1px;stroke-linecap:butt;stroke-linejoin:miter;stroke-opacity:1" d="M 113.744,821.701 102.985,802.334 z" id="boundary" inkscape:connector-curvature="0" />
	<path style="fill:none;stroke:red;stroke-width:1px;stroke-linecap:butt;stroke-linejoin:miter;stroke-opacity:1" d="M 4,699.046 4,677.527 z" id="boundary" inkscape:connector-curvature="0" />
	<path style="fill:none;stroke:red;stroke-width:1px;stroke-linecap:butt;stroke-linejoin:miter;stroke-opacity:1" d="M 42.7332,864.738 31.974,845.371 z" id="boundary" inkscape:connector-curvature="0" />
	<path style="fill:none;stroke:red;stroke-width:1px;stroke-linecap:butt;stroke-linejoin:miter;stroke-opacity:1" d="M 51.3406,886.256 42.7332,864.738 z" id="boundary" inkscape:connector-curvature="0" />
	<path style="fill:none;stroke:red;stroke-width:1px;stroke-linecap:butt;stroke-linejoin:miter;stroke-opacity:1" d="M 25.5184,823.852 31.974,845.371 z" id="boundary" inkscape:connector-curvature="0" />
	<path style="fill:none;stroke:red;stroke-width:1px;stroke-linecap:butt;stroke-linejoin:miter;stroke-opacity:1" d="M 51.3406,886.256 62.0998,905.623 z" id="boundary" inkscape:connector-curvature="0" />
	<path style="fill:none;stroke:red;stroke-width:1px;stroke-linecap:butt;stroke-linejoin:miter;stroke-opacity:1" d="M 62.0998,905.623 70.7072,927.141 z" id="boundary" inkscape:connector-curvature="0" />
	<path style="fill:none;stroke:red;stroke-width:1px;stroke-linecap:butt;stroke-linejoin:miter;stroke-opacity:1" d="M 87.9219,942.204 70.7072,927.141 z" id="boundary" inkscape:connector-curvature="0" />
	<path style="fill:none;stroke:red;stroke-width:1px;stroke-linecap:butt;stroke-linejoin:miter;stroke-opacity:1" d="M 141.718,856.13 124.503,841.067 z" id="boundary" inkscape:connector-curvature="0" />
	<path style="fill:none;stroke:red;stroke-width:1px;stroke-linecap:butt;stroke-linejoin:miter;stroke-opacity:1" d="M 124.503,841.067 113.744,821.701 z" id="boundary" inkscape:connector-curvature="0" />
	<path style="fill:none;stroke:red;stroke-width:1px;stroke-linecap:butt;stroke-linejoin:miter;stroke-opacity:1" d="M 161.085,866.889 141.718,856.13 z" id="boundary" inkscape:connector-curvature="0" />
	<path style="fill:none;stroke:red;stroke-width:1px;stroke-linecap:butt;stroke-linejoin:miter;stroke-opacity:1" d="M 87.9219,942.204 102.985,959.419 z" id="boundary" inkscape:connector-curvature="0" />
	<path style="fill:none;stroke:red;stroke-width:1px;stroke-linecap:butt;stroke-linejoin:miter;stroke-opacity:1" d="M 124.503,968.026 102.985,959.419 z" id="boundary" inkscape:connector-curvature="0" />
	<path style="fill:none;stroke:red;stroke-width:1px;stroke-linecap:butt;stroke-linejoin:miter;stroke-opacity:1" d="M 124.503,968.026 143.87,978.785 z" id="boundary" inkscape:connector-curvature="0" />
	<path style="fill:none;stroke:red;stroke-width:1px;stroke-linecap:butt;stroke-linejoin:miter;stroke-opacity:1" d="M 182.603,875.497 161.085,866.889 z" id="boundary" inkscape:connector-curvature="0" />
	<path style="fill:none;stroke:red;stroke-width:1px;stroke-linecap:butt;stroke-linejoin:miter;stroke-opacity:1" d="M 182.603,875.497 201.97,886.256 z" id="boundary" inkscape:connector-curvature="0" />
	<path style="fill:none;stroke:red;stroke-width:1px;stroke-linecap:butt;stroke-linejoin:miter;stroke-opacity:1" d="M 201.97,886.256 221.336,875.497 z" id="boundary" inkscape:connector-curvature="0" />
	<path style="fill:none;stroke:red;stroke-width:1px;stroke-linecap:butt;stroke-linejoin:miter;stroke-opacity:1" d="M 221.336,875.497 242.855,875.497 z" id="boundary" inkscape:connector-curvature="0" />
	<path style="fill:none;stroke:red;stroke-width:1px;stroke-linecap:butt;stroke-linejoin:miter;stroke-opacity:1" d="M 264.373,869.041 242.855,875.497 z" id="boundary" inkscape:connector-curvature="0" />
	<path style="fill:none;stroke:red;stroke-width:1px;stroke-linecap:butt;stroke-linejoin:miter;stroke-opacity:1" d="M 165.388,985.241 143.87,978.785 z" id="boundary" inkscape:connector-curvature="0" />
	<path style="fill:none;stroke:red;stroke-width:1px;stroke-linecap:butt;stroke-linejoin:miter;stroke-opacity:1" d="M 339.688,826.004 356.902,810.941 z" id="boundary" inkscape:connector-curvature="0" />
	<path style="fill:none;stroke:red;stroke-width:1px;stroke-linecap:butt;stroke-linejoin:miter;stroke-opacity:1" d="M 369.813,785.119 356.902,810.941 z" id="boundary" inkscape:connector-curvature="0" />
	<path style="fill:none;stroke:red;stroke-width:1px;stroke-linecap:butt;stroke-linejoin:miter;stroke-opacity:1" d="M 285.892,864.738 305.258,853.978 z" id="boundary" inkscape:connector-curvature="0" />
	<path style="fill:none;stroke:red;stroke-width:1px;stroke-linecap:butt;stroke-linejoin:miter;stroke-opacity:1" d="M 285.892,864.738 264.373,869.041 z" id="boundary" inkscape:connector-curvature="0" />
	<path style="fill:none;stroke:red;stroke-width:1px;stroke-linecap:butt;stroke-linejoin:miter;stroke-opacity:1" d="M 324.625,843.219 339.688,826.004 z" id="boundary" inkscape:connector-curvature="0" />
	<path style="fill:none;stroke:red;stroke-width:1px;stroke-linecap:butt;stroke-linejoin:miter;stroke-opacity:1" d="M 324.625,843.219 305.258,853.978 z" id="boundary" inkscape:connector-curvature="0" />
	<path style="fill:none;stroke:red;stroke-width:1px;stroke-linecap:butt;stroke-linejoin:miter;stroke-opacity:1" d="M 410.698,873.345 393.484,888.408 z" id="boundary" inkscape:connector-curvature="0" />
	<path style="fill:none;stroke:red;stroke-width:1px;stroke-linecap:butt;stroke-linejoin:miter;stroke-opacity:1" d="M 270.829,985.241 249.31,991.696 z" id="boundary" inkscape:connector-curvature="0" />
	<path style="fill:none;stroke:red;stroke-width:1px;stroke-linecap:butt;stroke-linejoin:miter;stroke-opacity:1" d="M 249.31,991.696 227.792,996 z" id="boundary" inkscape:connector-curvature="0" />
	<path style="fill:none;stroke:red;stroke-width:1px;stroke-linecap:butt;stroke-linejoin:miter;stroke-opacity:1" d="M 206.273,996 184.755,996 z" id="boundary" inkscape:connector-curvature="0" />
	<path style="fill:none;stroke:red;stroke-width:1px;stroke-linecap:butt;stroke-linejoin:miter;stroke-opacity:1" d="M 184.755,996 165.388,985.241 z" id="boundary" inkscape:connector-curvature="0" />
	<path style="fill:none;stroke:red;stroke-width:1px;stroke-linecap:butt;stroke-linejoin:miter;stroke-opacity:1" d="M 227.792,996 206.273,996 z" id="boundary" inkscape:connector-curvature="0" />
	<path style="fill:none;stroke:red;stroke-width:1px;stroke-linecap:butt;stroke-linejoin:miter;stroke-opacity:1" d="M 378.421,905.623 361.206,920.685 z" id="boundary" inkscape:connector-curvature="0" />
	<path style="fill:none;stroke:red;stroke-width:1px;stroke-linecap:butt;stroke-linejoin:miter;stroke-opacity:1" d="M 309.562,963.722 290.195,974.482 z" id="boundary" inkscape:connector-curvature="0" />
	<path style="fill:none;stroke:red;stroke-width:1px;stroke-linecap:butt;stroke-linejoin:miter;stroke-opacity:1" d="M 378.421,905.623 393.484,888.408 z" id="boundary" inkscape:connector-curvature="0" />
	<path style="fill:none;stroke:red;stroke-width:1px;stroke-linecap:butt;stroke-linejoin:miter;stroke-opacity:1" d="M 346.143,937.9 361.206,920.685 z" id="boundary" inkscape:connector-curvature="0" />
	<path style="fill:none;stroke:red;stroke-width:1px;stroke-linecap:butt;stroke-linejoin:miter;stroke-opacity:1" d="M 290.195,974.482 270.829,985.241 z" id="boundary" inkscape:connector-curvature="0" />
	<path style="fill:none;stroke:red;stroke-width:1px;stroke-linecap:butt;stroke-linejoin:miter;stroke-opacity:1" d="M 328.928,952.963 309.562,963.722 z" id="boundary" inkscape:connector-curvature="0" />
	<path style="fill:none;stroke:red;stroke-width:1px;stroke-linecap:butt;stroke-linejoin:miter;stroke-opacity:1" d="M 346.143,937.9 328.928,952.963 z" id="boundary" inkscape:connector-curvature="0" />
	<path style="fill:none;stroke:red;stroke-width:1px;stroke-linecap:butt;stroke-linejoin:miter;stroke-opacity:1" d="M 369.813,785.119 387.028,767.905 z" id="boundary" inkscape:connector-curvature="0" />
	<path style="fill:none;stroke:red;stroke-width:1px;stroke-linecap:butt;stroke-linejoin:miter;stroke-opacity:1" d="M 481.709,143.87 498.924,128.807 z" id="boundary" inkscape:connector-curvature="0" />
	<path style="fill:none;stroke:red;stroke-width:1px;stroke-linecap:butt;stroke-linejoin:miter;stroke-opacity:1" d="M 481.709,143.87 462.343,154.629 z" id="boundary" inkscape:connector-curvature="0" />
	<path style="fill:none;stroke:red;stroke-width:1px;stroke-linecap:butt;stroke-linejoin:miter;stroke-opacity:1" d="M 520.443,118.048 498.924,128.807 z" id="boundary" inkscape:connector-curvature="0" />
	<path style="fill:none;stroke:red;stroke-width:1px;stroke-linecap:butt;stroke-linejoin:miter;stroke-opacity:1" d="M 537.657,100.833 520.443,118.048 z" id="boundary" inkscape:connector-curvature="0" />
	<path style="fill:none;stroke:red;stroke-width:1px;stroke-linecap:butt;stroke-linejoin:miter;stroke-opacity:1" d="M 423.61,176.148 442.976,165.388 z" id="boundary" inkscape:connector-curvature="0" />
	<path style="fill:none;stroke:red;stroke-width:1px;stroke-linecap:butt;stroke-linejoin:miter;stroke-opacity:1" d="M 462.343,154.629 442.976,165.388 z" id="boundary" inkscape:connector-curvature="0" />
	<path style="fill:none;stroke:red;stroke-width:1px;stroke-linecap:butt;stroke-linejoin:miter;stroke-opacity:1" d="M 593.605,57.7961 608.668,40.5813 z" id="boundary" inkscape:connector-curvature="0" />
	<path style="fill:none;stroke:red;stroke-width:1px;stroke-linecap:butt;stroke-linejoin:miter;stroke-opacity:1" d="M 608.668,40.5813 630.187,29.8221 z" id="boundary" inkscape:connector-curvature="0" />
	<path style="fill:none;stroke:red;stroke-width:1px;stroke-linecap:butt;stroke-linejoin:miter;stroke-opacity:1" d="M 593.605,57.7961 576.39,72.859 z" id="boundary" inkscape:connector-curvature="0" />
	<path style="fill:none;stroke:red;stroke-width:1px;stroke-linecap:butt;stroke-linejoin:miter;stroke-opacity:1" d="M 576.39,72.859 559.176,90.0738 z" id="boundary" inkscape:connector-curvature="0" />
	<path style="fill:none;stroke:red;stroke-width:1px;stroke-linecap:butt;stroke-linejoin:miter;stroke-opacity:1" d="M 559.176,90.0738 537.657,100.833 z" id="boundary" inkscape:connector-curvature="0" />
	<path style="fill:none;stroke:red;stroke-width:1px;stroke-linecap:butt;stroke-linejoin:miter;stroke-opacity:1" d="M 423.61,176.148 402.091,182.603 z" id="boundary" inkscape:connector-curvature="0" />
	<path style="fill:none;stroke:red;stroke-width:1px;stroke-linecap:butt;stroke-linejoin:miter;stroke-opacity:1" d="M 479.557,264.373 458.039,275.132 z" id="boundary" inkscape:connector-curvature="0" />
	<path style="fill:none;stroke:red;stroke-width:1px;stroke-linecap:butt;stroke-linejoin:miter;stroke-opacity:1" d="M 501.076,253.614 479.557,264.373 z" id="boundary" inkscape:connector-curvature="0" />
	<path style="fill:none;stroke:red;stroke-width:1px;stroke-linecap:butt;stroke-linejoin:miter;stroke-opacity:1" d="M 419.306,296.651 438.672,285.892 z" id="boundary" inkscape:connector-curvature="0" />
	<path style="fill:none;stroke:red;stroke-width:1px;stroke-linecap:butt;stroke-linejoin:miter;stroke-opacity:1" d="M 458.039,275.132 438.672,285.892 z" id="boundary" inkscape:connector-curvature="0" />
	<path style="fill:none;stroke:red;stroke-width:1px;stroke-linecap:butt;stroke-linejoin:miter;stroke-opacity:1" d="M 597.909,189.059 619.427,189.059 z" id="boundary" inkscape:connector-curvature="0" />
	<path style="fill:none;stroke:red;stroke-width:1px;stroke-linecap:butt;stroke-linejoin:miter;stroke-opacity:1" d="M 580.694,208.425 597.909,189.059 z" id="boundary" inkscape:connector-curvature="0" />
	<path style="fill:none;stroke:red;stroke-width:1px;stroke-linecap:butt;stroke-linejoin:miter;stroke-opacity:1" d="M 619.427,189.059 640.946,189.059 z" id="boundary" inkscape:connector-curvature="0" />
	<path style="fill:none;stroke:red;stroke-width:1px;stroke-linecap:butt;stroke-linejoin:miter;stroke-opacity:1" d="M 522.594,242.855 541.961,232.095 z" id="boundary" inkscape:connector-curvature="0" />
	<path style="fill:none;stroke:red;stroke-width:1px;stroke-linecap:butt;stroke-linejoin:miter;stroke-opacity:1" d="M 522.594,242.855 501.076,253.614 z" id="boundary" inkscape:connector-curvature="0" />
	<path style="fill:none;stroke:red;stroke-width:1px;stroke-linecap:butt;stroke-linejoin:miter;stroke-opacity:1" d="M 541.961,232.095 559.176,219.184 z" id="boundary" inkscape:connector-curvature="0" />
	<path style="fill:none;stroke:red;stroke-width:1px;stroke-linecap:butt;stroke-linejoin:miter;stroke-opacity:1" d="M 580.694,208.425 559.176,219.184 z" id="boundary" inkscape:connector-curvature="0" />
	<path style="fill:none;stroke:red;stroke-width:1px;stroke-linecap:butt;stroke-linejoin:miter;stroke-opacity:1" d="M 630.187,29.8221 651.705,25.5184 z" id="boundary" inkscape:connector-curvature="0" />
	<path style="fill:none;stroke:red;stroke-width:1px;stroke-linecap:butt;stroke-linejoin:miter;stroke-opacity:1" d="M 402.091,182.603 380.573,193.362 z" id="boundary" inkscape:connector-curvature="0" />
	<path style="fill:none;stroke:red;stroke-width:1px;stroke-linecap:butt;stroke-linejoin:miter;stroke-opacity:1" d="M 692.59,10.4555 714.108,4 z" id="boundary" inkscape:connector-curvature="0" />
	<path style="fill:none;stroke:red;stroke-width:1px;stroke-linecap:butt;stroke-linejoin:miter;stroke-opacity:1" d="M 714.108,4 735.627,4 z" id="boundary" inkscape:connector-curvature="0" />
	<path style="fill:none;stroke:red;stroke-width:1px;stroke-linecap:butt;stroke-linejoin:miter;stroke-opacity:1" d="M 651.705,25.5184 671.072,14.7592 z" id="boundary" inkscape:connector-curvature="0" />
	<path style="fill:none;stroke:red;stroke-width:1px;stroke-linecap:butt;stroke-linejoin:miter;stroke-opacity:1" d="M 692.59,10.4555 671.072,14.7592 z" id="boundary" inkscape:connector-curvature="0" />
	<path style="fill:none;stroke:red;stroke-width:1px;stroke-linecap:butt;stroke-linejoin:miter;stroke-opacity:1" d="M 735.627,4 757.145,8.30369 z" id="boundary" inkscape:connector-curvature="0" />
	<path style="fill:none;stroke:red;stroke-width:1px;stroke-linecap:butt;stroke-linejoin:miter;stroke-opacity:1" d="M 776.512,19.0629 798.03,25.5184 z" id="boundary" inkscape:connector-curvature="0" />
	<path style="fill:none;stroke:red;stroke-width:1px;stroke-linecap:butt;stroke-linejoin:miter;stroke-opacity:1" d="M 776.512,19.0629 757.145,8.30369 z" id="boundary" inkscape:connector-curvature="0" />
	<path style="fill:none;stroke:red;stroke-width:1px;stroke-linecap:butt;stroke-linejoin:miter;stroke-opacity:1" d="M 798.03,25.5184 817.397,36.2777 z" id="boundary" inkscape:connector-curvature="0" />
	<path style="fill:none;stroke:red;stroke-width:1px;stroke-linecap:butt;stroke-linejoin:miter;stroke-opacity:1" d="M 817.397,36.2777 823.852,57.7961 z" id="boundary" inkscape:connector-curvature="0" />
	<path style="fill:none;stroke:red;stroke-width:1px;stroke-linecap:butt;stroke-linejoin:miter;stroke-opacity:1" d="M 813.093,81.4664 795.879,100.833 z" id="boundary" inkscape:connector-curvature="0" />
	<path style="fill:none;stroke:red;stroke-width:1px;stroke-linecap:butt;stroke-linejoin:miter;stroke-opacity:1" d="M 823.852,57.7961 813.093,81.4664 z" id="boundary" inkscape:connector-curvature="0" />
	<path style="fill:none;stroke:red;stroke-width:1px;stroke-linecap:butt;stroke-linejoin:miter;stroke-opacity:1" d="M 795.879,100.833 778.664,113.744 z" id="boundary" inkscape:connector-curvature="0" />
	<path style="fill:none;stroke:red;stroke-width:1px;stroke-linecap:butt;stroke-linejoin:miter;stroke-opacity:1" d="M 699.046,165.388 716.26,146.022 z" id="boundary" inkscape:connector-curvature="0" />
	<path style="fill:none;stroke:red;stroke-width:1px;stroke-linecap:butt;stroke-linejoin:miter;stroke-opacity:1" d="M 699.046,165.388 681.831,178.299 z" id="boundary" inkscape:connector-curvature="0" />
	<path style="fill:none;stroke:red;stroke-width:1px;stroke-linecap:butt;stroke-linejoin:miter;stroke-opacity:1" d="M 737.779,135.262 716.26,146.022 z" id="boundary" inkscape:connector-curvature="0" />
	<path style="fill:none;stroke:red;stroke-width:1px;stroke-linecap:butt;stroke-linejoin:miter;stroke-opacity:1" d="M 752.842,283.74 742.082,305.258 z" id="boundary" inkscape:connector-curvature="0" />
	<path style="fill:none;stroke:red;stroke-width:1px;stroke-linecap:butt;stroke-linejoin:miter;stroke-opacity:1" d="M 681.831,178.299 662.464,189.059 z" id="boundary" inkscape:connector-curvature="0" />
	<path style="fill:none;stroke:red;stroke-width:1px;stroke-linecap:butt;stroke-linejoin:miter;stroke-opacity:1" d="M 662.464,189.059 640.946,189.059 z" id="boundary" inkscape:connector-curvature="0" />
	<path style="fill:none;stroke:red;stroke-width:1px;stroke-linecap:butt;stroke-linejoin:miter;stroke-opacity:1" d="M 759.297,124.503 778.664,113.744 z" id="boundary" inkscape:connector-curvature="0" />
	<path style="fill:none;stroke:red;stroke-width:1px;stroke-linecap:butt;stroke-linejoin:miter;stroke-opacity:1" d="M 759.297,124.503 737.779,135.262 z" id="boundary" inkscape:connector-curvature="0" />
	<path style="fill:none;stroke:red;stroke-width:1px;stroke-linecap:butt;stroke-linejoin:miter;stroke-opacity:1" d="M 787.271,251.462 770.056,266.525 z" id="boundary" inkscape:connector-curvature="0" />
	<path style="fill:none;stroke:red;stroke-width:1px;stroke-linecap:butt;stroke-linejoin:miter;stroke-opacity:1" d="M 752.842,283.74 770.056,266.525 z" id="boundary" inkscape:connector-curvature="0" />
	<path style="fill:none;stroke:red;stroke-width:1px;stroke-linecap:butt;stroke-linejoin:miter;stroke-opacity:1" d="M 802.334,275.132 791.575,307.41 z" id="boundary" inkscape:connector-curvature="0" />
	<path style="fill:none;stroke:red;stroke-width:1px;stroke-linecap:butt;stroke-linejoin:miter;stroke-opacity:1" d="M 787.271,251.462 802.334,275.132 z" id="boundary" inkscape:connector-curvature="0" />
	<path style="fill:none;stroke:red;stroke-width:1px;stroke-linecap:butt;stroke-linejoin:miter;stroke-opacity:1" d="M 791.575,307.41 780.816,328.928 z" id="boundary" inkscape:connector-curvature="0" />
	<path style="fill:none;stroke:red;stroke-width:1px;stroke-linecap:butt;stroke-linejoin:miter;stroke-opacity:1" d="M 526.898,563.479 516.139,584.998 z" id="boundary" inkscape:connector-curvature="0" />
	<path style="fill:none;stroke:red;stroke-width:1px;stroke-linecap:butt;stroke-linejoin:miter;stroke-opacity:1" d="M 516.139,584.998 498.924,602.213 z" id="boundary" inkscape:connector-curvature="0" />
	<path style="fill:none;stroke:red;stroke-width:1px;stroke-linecap:butt;stroke-linejoin:miter;stroke-opacity:1" d="M 587.15,608.668 572.087,625.883 z" id="boundary" inkscape:connector-curvature="0" />
	<path style="fill:none;stroke:red;stroke-width:1px;stroke-linecap:butt;stroke-linejoin:miter;stroke-opacity:1" d="M 483.861,628.035 498.924,602.213 z" id="boundary" inkscape:connector-curvature="0" />
	<path style="fill:none;stroke:red;stroke-width:1px;stroke-linecap:butt;stroke-linejoin:miter;stroke-opacity:1" d="M 451.584,671.072 466.646,645.249 z" id="boundary" inkscape:connector-curvature="0" />
	<path style="fill:none;stroke:red;stroke-width:1px;stroke-linecap:butt;stroke-linejoin:miter;stroke-opacity:1" d="M 451.584,671.072 440.824,692.59 z" id="boundary" inkscape:connector-curvature="0" />
	<path style="fill:none;stroke:red;stroke-width:1px;stroke-linecap:butt;stroke-linejoin:miter;stroke-opacity:1" d="M 483.861,628.035 466.646,645.249 z" id="boundary" inkscape:connector-curvature="0" />
	<path style="fill:none;stroke:red;stroke-width:1px;stroke-linecap:butt;stroke-linejoin:miter;stroke-opacity:1" d="M 526.898,563.479 544.113,546.265 z" id="boundary" inkscape:connector-curvature="0" />
	<path style="fill:none;stroke:red;stroke-width:1px;stroke-linecap:butt;stroke-linejoin:miter;stroke-opacity:1" d="M 561.328,531.202 544.113,546.265 z" id="boundary" inkscape:connector-curvature="0" />
	<path style="fill:none;stroke:red;stroke-width:1px;stroke-linecap:butt;stroke-linejoin:miter;stroke-opacity:1" d="M 574.239,505.38 561.328,531.202 z" id="boundary" inkscape:connector-curvature="0" />
	<path style="fill:none;stroke:red;stroke-width:1px;stroke-linecap:butt;stroke-linejoin:miter;stroke-opacity:1" d="M 572.087,625.883 561.328,647.401 z" id="boundary" inkscape:connector-curvature="0" />
	<path style="fill:none;stroke:red;stroke-width:1px;stroke-linecap:butt;stroke-linejoin:miter;stroke-opacity:1" d="M 529.05,690.438 544.113,662.464 z" id="boundary" inkscape:connector-curvature="0" />
	<path style="fill:none;stroke:red;stroke-width:1px;stroke-linecap:butt;stroke-linejoin:miter;stroke-opacity:1" d="M 544.113,662.464 561.328,647.401 z" id="boundary" inkscape:connector-curvature="0" />
	<path style="fill:none;stroke:red;stroke-width:1px;stroke-linecap:butt;stroke-linejoin:miter;stroke-opacity:1" d="M 518.291,711.957 529.05,690.438 z" id="boundary" inkscape:connector-curvature="0" />
	<path style="fill:none;stroke:red;stroke-width:1px;stroke-linecap:butt;stroke-linejoin:miter;stroke-opacity:1" d="M 440.824,692.59 432.217,714.108 z" id="boundary" inkscape:connector-curvature="0" />
	<path style="fill:none;stroke:red;stroke-width:1px;stroke-linecap:butt;stroke-linejoin:miter;stroke-opacity:1" d="M 432.217,714.108 415.002,729.171 z" id="boundary" inkscape:connector-curvature="0" />
	<path style="fill:none;stroke:red;stroke-width:1px;stroke-linecap:butt;stroke-linejoin:miter;stroke-opacity:1" d="M 404.243,750.69 415.002,729.171 z" id="boundary" inkscape:connector-curvature="0" />
	<path style="fill:none;stroke:red;stroke-width:1px;stroke-linecap:butt;stroke-linejoin:miter;stroke-opacity:1" d="M 425.761,845.371 410.698,873.345 z" id="boundary" inkscape:connector-curvature="0" />
	<path style="fill:none;stroke:red;stroke-width:1px;stroke-linecap:butt;stroke-linejoin:miter;stroke-opacity:1" d="M 442.976,830.308 425.761,845.371 z" id="boundary" inkscape:connector-curvature="0" />
	<path style="fill:none;stroke:red;stroke-width:1px;stroke-linecap:butt;stroke-linejoin:miter;stroke-opacity:1" d="M 387.028,767.905 404.243,750.69 z" id="boundary" inkscape:connector-curvature="0" />
	<path style="fill:none;stroke:red;stroke-width:1px;stroke-linecap:butt;stroke-linejoin:miter;stroke-opacity:1" d="M 496.772,754.993 507.531,733.475 z" id="boundary" inkscape:connector-curvature="0" />
	<path style="fill:none;stroke:red;stroke-width:1px;stroke-linecap:butt;stroke-linejoin:miter;stroke-opacity:1" d="M 496.772,754.993 486.013,776.512 z" id="boundary" inkscape:connector-curvature="0" />
	<path style="fill:none;stroke:red;stroke-width:1px;stroke-linecap:butt;stroke-linejoin:miter;stroke-opacity:1" d="M 507.531,733.475 518.291,711.957 z" id="boundary" inkscape:connector-curvature="0" />
	<path style="fill:none;stroke:red;stroke-width:1px;stroke-linecap:butt;stroke-linejoin:miter;stroke-opacity:1" d="M 442.976,830.308 458.039,813.093 z" id="boundary" inkscape:connector-curvature="0" />
	<path style="fill:none;stroke:red;stroke-width:1px;stroke-linecap:butt;stroke-linejoin:miter;stroke-opacity:1" d="M 468.798,791.575 486.013,776.512 z" id="boundary" inkscape:connector-curvature="0" />
	<path style="fill:none;stroke:red;stroke-width:1px;stroke-linecap:butt;stroke-linejoin:miter;stroke-opacity:1" d="M 458.039,813.093 468.798,791.575 z" id="boundary" inkscape:connector-curvature="0" />
	<path style="fill:none;stroke:red;stroke-width:1px;stroke-linecap:butt;stroke-linejoin:miter;stroke-opacity:1" d="M 727.02,415.002 711.957,442.976 z" id="boundary" inkscape:connector-curvature="0" />
	<path style="fill:none;stroke:red;stroke-width:1px;stroke-linecap:butt;stroke-linejoin:miter;stroke-opacity:1" d="M 683.983,384.876 666.768,402.091 z" id="boundary" inkscape:connector-curvature="0" />
	<path style="fill:none;stroke:red;stroke-width:1px;stroke-linecap:butt;stroke-linejoin:miter;stroke-opacity:1" d="M 701.197,369.813 683.983,384.876 z" id="boundary" inkscape:connector-curvature="0" />
	<path style="fill:none;stroke:red;stroke-width:1px;stroke-linecap:butt;stroke-linejoin:miter;stroke-opacity:1" d="M 714.108,343.991 701.197,369.813 z" id="boundary" inkscape:connector-curvature="0" />
	<path style="fill:none;stroke:red;stroke-width:1px;stroke-linecap:butt;stroke-linejoin:miter;stroke-opacity:1" d="M 640.946,438.672 658.161,423.61 z" id="boundary" inkscape:connector-curvature="0" />
	<path style="fill:none;stroke:red;stroke-width:1px;stroke-linecap:butt;stroke-linejoin:miter;stroke-opacity:1" d="M 666.768,402.091 658.161,423.61 z" id="boundary" inkscape:connector-curvature="0" />
	<path style="fill:none;stroke:red;stroke-width:1px;stroke-linecap:butt;stroke-linejoin:miter;stroke-opacity:1" d="M 711.957,442.976 701.197,464.495 z" id="boundary" inkscape:connector-curvature="0" />
	<path style="fill:none;stroke:red;stroke-width:1px;stroke-linecap:butt;stroke-linejoin:miter;stroke-opacity:1" d="M 640.946,438.672 625.883,455.887 z" id="boundary" inkscape:connector-curvature="0" />
	<path style="fill:none;stroke:red;stroke-width:1px;stroke-linecap:butt;stroke-linejoin:miter;stroke-opacity:1" d="M 714.108,343.991 731.323,326.777 z" id="boundary" inkscape:connector-curvature="0" />
	<path style="fill:none;stroke:red;stroke-width:1px;stroke-linecap:butt;stroke-linejoin:miter;stroke-opacity:1" d="M 742.082,305.258 731.323,326.777 z" id="boundary" inkscape:connector-curvature="0" />
	<path style="fill:none;stroke:red;stroke-width:1px;stroke-linecap:butt;stroke-linejoin:miter;stroke-opacity:1" d="M 780.816,328.928 770.056,350.447 z" id="boundary" inkscape:connector-curvature="0" />
	<path style="fill:none;stroke:red;stroke-width:1px;stroke-linecap:butt;stroke-linejoin:miter;stroke-opacity:1" d="M 727.02,415.002 744.234,399.939 z" id="boundary" inkscape:connector-curvature="0" />
	<path style="fill:none;stroke:red;stroke-width:1px;stroke-linecap:butt;stroke-linejoin:miter;stroke-opacity:1" d="M 754.993,378.421 770.056,350.447 z" id="boundary" inkscape:connector-curvature="0" />
	<path style="fill:none;stroke:red;stroke-width:1px;stroke-linecap:butt;stroke-linejoin:miter;stroke-opacity:1" d="M 744.234,399.939 754.993,378.421 z" id="boundary" inkscape:connector-curvature="0" />
	<path style="fill:none;stroke:red;stroke-width:1px;stroke-linecap:butt;stroke-linejoin:miter;stroke-opacity:1" d="M 625.883,550.568 615.124,572.087 z" id="boundary" inkscape:connector-curvature="0" />
	<path style="fill:none;stroke:red;stroke-width:1px;stroke-linecap:butt;stroke-linejoin:miter;stroke-opacity:1" d="M 591.453,488.165 574.239,505.38 z" id="boundary" inkscape:connector-curvature="0" />
	<path style="fill:none;stroke:red;stroke-width:1px;stroke-linecap:butt;stroke-linejoin:miter;stroke-opacity:1" d="M 608.668,470.95 591.453,488.165 z" id="boundary" inkscape:connector-curvature="0" />
	<path style="fill:none;stroke:red;stroke-width:1px;stroke-linecap:butt;stroke-linejoin:miter;stroke-opacity:1" d="M 587.15,608.668 597.909,587.15 z" id="boundary" inkscape:connector-curvature="0" />
	<path style="fill:none;stroke:red;stroke-width:1px;stroke-linecap:butt;stroke-linejoin:miter;stroke-opacity:1" d="M 597.909,587.15 615.124,572.087 z" id="boundary" inkscape:connector-curvature="0" />
	<path style="fill:none;stroke:red;stroke-width:1px;stroke-linecap:butt;stroke-linejoin:miter;stroke-opacity:1" d="M 701.197,464.495 683.983,479.557 z" id="boundary" inkscape:connector-curvature="0" />
	<path style="fill:none;stroke:red;stroke-width:1px;stroke-linecap:butt;stroke-linejoin:miter;stroke-opacity:1" d="M 683.983,479.557 668.92,496.772 z" id="boundary" inkscape:connector-curvature="0" />
	<path style="fill:none;stroke:red;stroke-width:1px;stroke-linecap:butt;stroke-linejoin:miter;stroke-opacity:1" d="M 640.946,533.354 658.161,518.291 z" id="boundary" inkscape:connector-curvature="0" />
	<path style="fill:none;stroke:red;stroke-width:1px;stroke-linecap:butt;stroke-linejoin:miter;stroke-opacity:1" d="M 640.946,533.354 625.883,550.568 z" id="boundary" inkscape:connector-curvature="0" />
	<path style="fill:none;stroke:red;stroke-width:1px;stroke-linecap:butt;stroke-linejoin:miter;stroke-opacity:1" d="M 658.161,518.291 668.92,496.772 z" id="boundary" inkscape:connector-curvature="0" />
	<path style="fill:none;stroke:red;stroke-width:1px;stroke-linecap:butt;stroke-linejoin:miter;stroke-opacity:1" d="M 608.668,470.95 625.883,455.887 z" id="boundary" inkscape:connector-curvature="0" />
	<circle cx="4" cy="634.49" r="4" fill="#0" id="circle0"/>
	<circle cx="4" cy="656.009" r="4" fill="#0" id="circle1"/>
	<circle cx="4" cy="677.527" r="4" fill="#0" id="circle2"/>
	<circle cx="4" cy="699.046" r="4" fill="#0" id="circle3"/>
	<circle cx="4" cy="720.564" r="4" fill="#0" id="circle4"/>
	<circle cx="4" cy="742.082" r="4" fill="#0" id="circle5"/>
	<circle cx="14.7592" cy="591.453" r="4" fill="#0" id="circle6"/>
	<circle cx="14.7592" cy="612.972" r="4" fill="#0" id="circle7"/>
	<circle cx="14.7592" cy="761.449" r="4" fill="#0" id="circle8"/>
	<circle cx="14.7592" cy="782.967" r="4" fill="#0" id="circle9"/>
	<circle cx="14.7592" cy="804.486" r="4" fill="#0" id="circle10"/>
	<circle cx="25.5184" cy="559.176" r="4" fill="#0" id="circle11"/>
	<circle cx="25.5184" cy="823.852" r="4" fill="#0" id="circle12"/>
	<circle cx="31.974" cy="845.371" r="4" fill="#0" id="circle13"/>
	<circle cx="36.2777" cy="526.898" r="4" fill="#0" id="circle14"/>
	<circle cx="42.7332" cy="864.738" r="4" fill="#0" id="circle15"/>
	<circle cx="47.0369" cy="505.38" r="4" fill="#0" id="circle16"/>
	<circle cx="51.3406" cy="886.256" r="4" fill="#0" id="circle17"/>
	<circle cx="57.7961" cy="483.861" r="4" fill="#0" id="circle18"/>
	<circle cx="62.0998" cy="905.623" r="4" fill="#0" id="circle19"/>
	<circle cx="68.5553" cy="462.343" r="4" fill="#0" id="circle20"/>
	<circle cx="70.7072" cy="927.141" r="4" fill="#0" id="circle21"/>
	<circle cx="79.3145" cy="440.824" r="4" fill="#0" id="circle22"/>
	<circle cx="87.9219" cy="942.204" r="4" fill="#0" id="circle23"/>
	<circle cx="92.2256" cy="673.223" r="4" fill="#0" id="circle24"/>
	<circle cx="92.2256" cy="694.742" r="4" fill="#0" id="circle25"/>
	<circle cx="92.2256" cy="716.26" r="4" fill="#0" id="circle26"/>
	<circle cx="92.2256" cy="737.779" r="4" fill="#0" id="circle27"/>
	<circle cx="96.5293" cy="423.61" r="4" fill="#0" id="circle28"/>
	<circle cx="96.5293" cy="759.297" r="4" fill="#0" id="circle29"/>
	<circle cx="102.985" cy="619.427" r="4" fill="#0" id="circle30"/>
	<circle cx="102.985" cy="640.946" r="4" fill="#0" id="circle31"/>
	<circle cx="102.985" cy="780.816" r="4" fill="#0" id="circle32"/>
	<circle cx="102.985" cy="802.334" r="4" fill="#0" id="circle33"/>
	<circle cx="102.985" cy="959.419" r="4" fill="#0" id="circle34"/>
	<circle cx="107.289" cy="402.091" r="4" fill="#0" id="circle35"/>
	<circle cx="113.744" cy="597.909" r="4" fill="#0" id="circle36"/>
	<circle cx="113.744" cy="821.701" r="4" fill="#0" id="circle37"/>
	<circle cx="124.503" cy="384.876" r="4" fill="#0" id="circle38"/>
	<circle cx="124.503" cy="565.631" r="4" fill="#0" id="circle39"/>
	<circle cx="124.503" cy="841.067" r="4" fill="#0" id="circle40"/>
	<circle cx="124.503" cy="968.026" r="4" fill="#0" id="circle41"/>
	<circle cx="135.262" cy="544.113" r="4" fill="#0" id="circle42"/>
	<circle cx="141.718" cy="369.813" r="4" fill="#0" id="circle43"/>
	<circle cx="141.718" cy="856.13" r="4" fill="#0" id="circle44"/>
	<circle cx="143.87" cy="978.785" r="4" fill="#0" id="circle45"/>
	<circle cx="146.022" cy="522.594" r="4" fill="#0" id="circle46"/>
	<circle cx="150.325" cy="348.295" r="4" fill="#0" id="circle47"/>
	<circle cx="156.781" cy="501.076" r="4" fill="#0" id="circle48"/>
	<circle cx="161.085" cy="866.889" r="4" fill="#0" id="circle49"/>
	<circle cx="165.388" cy="985.241" r="4" fill="#0" id="circle50"/>
	<circle cx="167.54" cy="331.08" r="4" fill="#0" id="circle51"/>
	<circle cx="173.996" cy="486.013" r="4" fill="#0" id="circle52"/>
	<circle cx="182.603" cy="875.497" r="4" fill="#0" id="circle53"/>
	<circle cx="184.755" cy="316.017" r="4" fill="#0" id="circle54"/>
	<circle cx="184.755" cy="464.495" r="4" fill="#0" id="circle55"/>
	<circle cx="184.755" cy="996" r="4" fill="#0" id="circle56"/>
	<circle cx="199.818" cy="298.803" r="4" fill="#0" id="circle57"/>
	<circle cx="199.818" cy="447.28" r="4" fill="#0" id="circle58"/>
	<circle cx="201.97" cy="886.256" r="4" fill="#0" id="circle59"/>
	<circle cx="206.273" cy="996" r="4" fill="#0" id="circle60"/>
	<circle cx="217.033" cy="432.217" r="4" fill="#0" id="circle61"/>
	<circle cx="221.336" cy="288.043" r="4" fill="#0" id="circle62"/>
	<circle cx="221.336" cy="875.497" r="4" fill="#0" id="circle63"/>
	<circle cx="227.792" cy="996" r="4" fill="#0" id="circle64"/>
	<circle cx="232.095" cy="415.002" r="4" fill="#0" id="circle65"/>
	<circle cx="238.551" cy="272.98" r="4" fill="#0" id="circle66"/>
	<circle cx="242.855" cy="875.497" r="4" fill="#0" id="circle67"/>
	<circle cx="249.31" cy="399.939" r="4" fill="#0" id="circle68"/>
	<circle cx="249.31" cy="991.696" r="4" fill="#0" id="circle69"/>
	<circle cx="253.614" cy="255.766" r="4" fill="#0" id="circle70"/>
	<circle cx="264.373" cy="382.725" r="4" fill="#0" id="circle71"/>
	<circle cx="264.373" cy="869.041" r="4" fill="#0" id="circle72"/>
	<circle cx="270.829" cy="985.241" r="4" fill="#0" id="circle73"/>
	<circle cx="275.132" cy="251.462" r="4" fill="#0" id="circle74"/>
	<circle cx="283.74" cy="371.965" r="4" fill="#0" id="circle75"/>
	<circle cx="285.892" cy="864.738" r="4" fill="#0" id="circle76"/>
	<circle cx="290.195" cy="974.482" r="4" fill="#0" id="circle77"/>
	<circle cx="294.499" cy="236.399" r="4" fill="#0" id="circle78"/>
	<circle cx="303.106" cy="361.206" r="4" fill="#0" id="circle79"/>
	<circle cx="305.258" cy="853.978" r="4" fill="#0" id="circle80"/>
	<circle cx="309.562" cy="963.722" r="4" fill="#0" id="circle81"/>
	<circle cx="316.017" cy="225.64" r="4" fill="#0" id="circle82"/>
	<circle cx="322.473" cy="350.447" r="4" fill="#0" id="circle83"/>
	<circle cx="324.625" cy="843.219" r="4" fill="#0" id="circle84"/>
	<circle cx="328.928" cy="952.963" r="4" fill="#0" id="circle85"/>
	<circle cx="337.536" cy="214.881" r="4" fill="#0" id="circle86"/>
	<circle cx="339.688" cy="826.004" r="4" fill="#0" id="circle87"/>
	<circle cx="341.839" cy="339.688" r="4" fill="#0" id="circle88"/>
	<circle cx="346.143" cy="937.9" r="4" fill="#0" id="circle89"/>
	<circle cx="356.902" cy="810.941" r="4" fill="#0" id="circle90"/>
	<circle cx="359.054" cy="204.121" r="4" fill="#0" id="circle91"/>
	<circle cx="361.206" cy="328.928" r="4" fill="#0" id="circle92"/>
	<circle cx="361.206" cy="920.685" r="4" fill="#0" id="circle93"/>
	<circle cx="369.813" cy="785.119" r="4" fill="#0" id="circle94"/>
	<circle cx="378.421" cy="905.623" r="4" fill="#0" id="circle95"/>
	<circle cx="380.573" cy="193.362" r="4" fill="#0" id="circle96"/>
	<circle cx="380.573" cy="318.169" r="4" fill="#0" id="circle97"/>
	<circle cx="387.028" cy="767.905" r="4" fill="#0" id="circle98"/>
	<circle cx="393.484" cy="888.408" r="4" fill="#0" id="circle99"/>
	<circle cx="399.939" cy="307.41" r="4" fill="#0" id="circle100"/>
	<circle cx="402.091" cy="182.603" r="4" fill="#0" id="circle101"/>
	<circle cx="404.243" cy="750.69" r="4" fill="#0" id="circle102"/>
	<circle cx="410.698" cy="873.345" r="4" fill="#0" id="circle103"/>
	<circle cx="415.002" cy="729.171" r="4" fill="#0" id="circle104"/>
	<circle cx="419.306" cy="296.651" r="4" fill="#0" id="circle105"/>
	<circle cx="423.61" cy="176.148" r="4" fill="#0" id="circle106"/>
	<circle cx="425.761" cy="845.371" r="4" fill="#0" id="circle107"/>
	<circle cx="432.217" cy="714.108" r="4" fill="#0" id="circle108"/>
	<circle cx="438.672" cy="285.892" r="4" fill="#0" id="circle109"/>
	<circle cx="440.824" cy="692.59" r="4" fill="#0" id="circle110"/>
	<circle cx="442.976" cy="165.388" r="4" fill="#0" id="circle111"/>
	<circle cx="442.976" cy="830.308" r="4" fill="#0" id="circle112"/>
	<circle cx="451.584" cy="671.072" r="4" fill="#0" id="circle113"/>
	<circle cx="458.039" cy="275.132" r="4" fill="#0" id="circle114"/>
	<circle cx="458.039" cy="813.093" r="4" fill="#0" id="circle115"/>
	<circle cx="462.343" cy="154.629" r="4" fill="#0" id="circle116"/>
	<circle cx="466.646" cy="645.249" r="4" fill="#0" id="circle117"/>
	<circle cx="468.798" cy="791.575" r="4" fill="#0" id="circle118"/>
	<circle cx="479.557" cy="264.373" r="4" fill="#0" id="circle119"/>
	<circle cx="481.709" cy="143.87" r="4" fill="#0" id="circle120"/>
	<circle cx="483.861" cy="628.035" r="4" fill="#0" id="circle121"/>
	<circle cx="486.013" cy="776.512" r="4" fill="#0" id="circle122"/>
	<circle cx="496.772" cy="754.993" r="4" fill="#0" id="circle123"/>
	<circle cx="498.924" cy="128.807" r="4" fill="#0" id="circle124"/>
	<circle cx="498.924" cy="602.213" r="4" fill="#0" id="circle125"/>
	<circle cx="501.076" cy="253.614" r="4" fill="#0" id="circle126"/>
	<circle cx="507.531" cy="733.475" r="4" fill="#0" id="circle127"/>
	<circle cx="516.139" cy="584.998" r="4" fill="#0" id="circle128"/>
	<circle cx="518.291" cy="711.957" r="4" fill="#0" id="circle129"/>
	<circle cx="520.443" cy="118.048" r="4" fill="#0" id="circle130"/>
	<circle cx="522.594" cy="242.855" r="4" fill="#0" id="circle131"/>
	<circle cx="526.898" cy="563.479" r="4" fill="#0" id="circle132"/>
	<circle cx="529.05" cy="690.438" r="4" fill="#0" id="circle133"/>
	<circle cx="537.657" cy="100.833" r="4" fill="#0" id="circle134"/>
	<circle cx="541.961" cy="232.095" r="4" fill="#0" id="circle135"/>
	<circle cx="544.113" cy="546.265" r="4" fill="#0" id="circle136"/>
	<circle cx="544.113" cy="662.464" r="4" fill="#0" id="circle137"/>
	<circle cx="559.176" cy="90.0738" r="4" fill="#0" id="circle138"/>
	<circle cx="559.176" cy="219.184" r="4" fill="#0" id="circle139"/>
	<circle cx="561.328" cy="531.202" r="4" fill="#0" id="circle140"/>
	<circle cx="561.328" cy="647.401" r="4" fill="#0" id="circle141"/>
	<circle cx="572.087" cy="625.883" r="4" fill="#0" id="circle142"/>
	<circle cx="574.239" cy="505.38" r="4" fill="#0" id="circle143"/>
	<circle cx="576.39" cy="72.859" r="4" fill="#0" id="circle144"/>
	<circle cx="580.694" cy="208.425" r="4" fill="#0" id="circle145"/>
	<circle cx="587.15" cy="608.668" r="4" fill="#0" id="circle146"/>
	<circle cx="591.453" cy="488.165" r="4" fill="#0" id="circle147"/>
	<circle cx="593.605" cy="57.7961" r="4" fill="#0" id="circle148"/>
	<circle cx="597.909" cy="189.059" r="4" fill="#0" id="circle149"/>
	<circle cx="597.909" cy="587.15" r="4" fill="#0" id="circle150"/>
	<circle cx="608.668" cy="40.5813" r="4" fill="#0" id="circle151"/>
	<circle cx="608.668" cy="470.95" r="4" fill="#0" id="circle152"/>
	<circle cx="615.124" cy="572.087" r="4" fill="#0" id="circle153"/>
	<circle cx="619.427" cy="189.059" r="4" fill="#0" id="circle154"/>
	<circle cx="625.883" cy="455.887" r="4" fill="#0" id="circle155"/>
	<circle cx="625.883" cy="550.568" r="4" fill="#0" id="circle156"/>
	<circle cx="630.187" cy="29.8221" r="4" fill="#0" id="circle157"/>
	<circle cx="640.946" cy="189.059" r="4" fill="#0" id="circle158"/>
	<circle cx="640.946" cy="438.672" r="4" fill="#0" id="circle159"/>
	<circle cx="640.946" cy="533.354" r="4" fill="#0" id="circle160"/>
	<circle cx="651.705" cy="25.5184" r="4" fill="#0" id="circle161"/>
	<circle cx="658.161" cy="423.61" r="4" fill="#0" id="circle162"/>
	<circle cx="658.161" cy="518.291" r="4" fill="#0" id="circle163"/>
	<circle cx="662.464" cy="189.059" r="4" fill="#0" id="circle164"/>
	<circle cx="666.768" cy="402.091" r="4" fill="#0" id="circle165"/>
	<circle cx="668.92" cy="496.772" r="4" fill="#0" id="circle166"/>
	<circle cx="671.072" cy="14.7592" r="4" fill="#0" id="circle167"/>
	<circle cx="681.831" cy="178.299" r="4" fill="#0" id="circle168"/>
	<circle cx="683.983" cy="384.876" r="4" fill="#0" id="circle169"/>
	<circle cx="683.983" cy="479.557" r="4" fill="#0" id="circle170"/>
	<circle cx="692.59" cy="10.4555" r="4" fill="#0" id="circle171"/>
	<circle cx="699.046" cy="165.388" r="4" fill="#0" id="circle172"/>
	<circle cx="701.197" cy="369.813" r="4" fill="#0" id="circle173"/>
	<circle cx="701.197" cy="464.495" r="4" fill="#0" id="circle174"/>
	<circle cx="711.957" cy="442.976" r="4" fill="#0" id="circle175"/>
	<circle cx="714.108" cy="4" r="4" fill="#0" id="circle176"/>
	<circle cx="714.108" cy="343.991" r="4" fill="#0" id="circle177"/>
	<circle cx="716.26" cy="146.022" r="4" fill="#0" id="circle178"/>
	<circle cx="727.02" cy="415.002" r="4" fill="#0" id="circle179"/>
	<circle cx="731.323" cy="326.777" r="4" fill="#0" id="circle180"/>
	<circle cx="735.627" cy="4" r="4" fill="#0" id="circle181"/>
	<circle cx="737.779" cy="135.262" r="4" fill="#0" id="circle182"/>
	<circle cx="742.082" cy="305.258" r="4" fill="#0" id="circle183"/>
	<circle cx="744.234" cy="399.939" r="4" fill="#0" id="circle184"/>
	<circle cx="752.842" cy="283.74" r="4" fill="#0" id="circle185"/>
	<circle cx="754.993" cy="378.421" r="4" fill="#0" id="circle186"/>
	<circle cx="757.145" cy="8.30369" r="4" fill="#0" id="circle187"/>
	<circle cx="759.297" cy="124.503" r="4" fill="#0" id="circle188"/>
	<circle cx="770.056" cy="266.525" r="4" fill="#0" id="circle189"/>
	<circle cx="770.056" cy="350.447" r="4" fill="#0" id="circle190"/>
	<circle cx="776.512" cy="19.0629" r="4" fill="#0" id="circle191"/>
	<circle cx="778.664" cy="113.744" r="4" fill="#0" id="circle192"/>
	<circle cx="780.816" cy="328.928" r="4" fill="#0" id="circle193"/>
	<circle cx="787.271" cy="251.462" r="4" fill="#0" id="circle194"/>
	<circle cx="791.575" cy="307.41" r="4" fill="#0" id="circle195"/>
	<circle cx="795.879" cy="100.833" r="4" fill="#0" id="circle196"/>
	<circle cx="798.03" cy="25.5184" r="4" fill="#0" id="circle197"/>
	<circle cx="802.334" cy="275.132" r="4" fill="#0" id="circle198"/>
	<circle cx="813.093" cy="81.4664" r="4" fill="#0" id="circle199"/>
	<circle cx="817.397" cy="36.2777" r="4" fill="#0" id="circle200"/>
	<circle cx="823.852" cy="57.7961" r="4" fill="#0" id="circle201"/>
	</g>
</svg>