<?xml version="1.0" encoding="UTF-8" standalone="no"?>
<!-- Created with CurveBenchmark -->
<svg
	xmlns:dc="http://purl.org/dc/elements/1.1/"
	xmlns:cc="http://creativecommons.org/ns#"
	xmlns:rdf="http://www.w3.org/1999/02/22-rdf-syntax-ns#"
	xmlns:svg="http://www.w3.org/2000/svg"
	xmlns="http://www.w3.org/2000/svg"
	xmlns:sodipodi="http://sodipodi.sourceforge.net/DTD/sodipodi-0.dtd"
	xmlns:inkscape="http://www.inkscape.org/namespaces/inkscape"
	width="1000"
	height="1000"
	id="svg2"
	version="1.1"
	sodipodi:docname="manifold/ccrust-elephant18.png.txt">
<defs
	id="defs4" />
<metadata
	id="metadata7">
	<rdf:RDF>
		<cc:Work
			rdf:about="">
			<dc:format>image/svg+xml</dc:format>
			<dc:type
				rdf:resource="http://purl.org/dc/dcmitype/StillImage" />
			<dc:title></dc:title>
		</cc:Work>
	</rdf:RDF>
</metadata>
<g
	inkscape:label="Layer 1"
	inkscape:groupmode="layer"
	id="layer1">
	<path style="fill:none;stroke:red;stroke-width:1px;stroke-linecap:butt;stroke-linejoin:miter;stroke-opacity:1" d="M 28.2863,41.3635 43.2316,26.4181 z" id="boundary" inkscape:connector-curvature="0" />
	<path style="fill:none;stroke:red;stroke-width:1px;stroke-linecap:butt;stroke-linejoin:miter;stroke-opacity:1" d="M 80.5951,13.3409 61.9134,17.0772 z" id="boundary" inkscape:connector-curvature="0" />
	<path style="fill:none;stroke:red;stroke-width:1px;stroke-linecap:butt;stroke-linejoin:miter;stroke-opacity:1" d="M 97.4087,4 80.5951,13.3409 z" id="boundary" inkscape:connector-curvature="0" />
	<path style="fill:none;stroke:red;stroke-width:1px;stroke-linecap:butt;stroke-linejoin:miter;stroke-opacity:1" d="M 43.2316,26.4181 61.9134,17.0772 z" id="boundary" inkscape:connector-curvature="0" />
	<path style="fill:none;stroke:red;stroke-width:1px;stroke-linecap:butt;stroke-linejoin:miter;stroke-opacity:1" d="M 4,93.6723 4,74.9906 z" id="boundary" inkscape:connector-curvature="0" />
	<path style="fill:none;stroke:red;stroke-width:1px;stroke-linecap:butt;stroke-linejoin:miter;stroke-opacity:1" d="M 4,74.9906 13.3409,56.3089 z" id="boundary" inkscape:connector-curvature="0" />
	<path style="fill:none;stroke:red;stroke-width:1px;stroke-linecap:butt;stroke-linejoin:miter;stroke-opacity:1" d="M 13.3409,56.3089 28.2863,41.3635 z" id="boundary" inkscape:connector-curvature="0" />
	<path style="fill:none;stroke:red;stroke-width:1px;stroke-linecap:butt;stroke-linejoin:miter;stroke-opacity:1" d="M 106.75,61.9134 89.936,71.2542 z" id="boundary" inkscape:connector-curvature="0" />
	<path style="fill:none;stroke:red;stroke-width:1px;stroke-linecap:butt;stroke-linejoin:miter;stroke-opacity:1" d="M 97.4087,4 116.09,4 z" id="boundary" inkscape:connector-curvature="0" />
	<path style="fill:none;stroke:red;stroke-width:1px;stroke-linecap:butt;stroke-linejoin:miter;stroke-opacity:1" d="M 125.431,61.9134 106.75,61.9134 z" id="boundary" inkscape:connector-curvature="0" />
	<path style="fill:none;stroke:red;stroke-width:1px;stroke-linecap:butt;stroke-linejoin:miter;stroke-opacity:1" d="M 116.09,4 134.772,4 z" id="boundary" inkscape:connector-curvature="0" />
	<path style="fill:none;stroke:red;stroke-width:1px;stroke-linecap:butt;stroke-linejoin:miter;stroke-opacity:1" d="M 89.936,71.2542 89.936,89.936 z" id="boundary" inkscape:connector-curvature="0" />
	<path style="fill:none;stroke:red;stroke-width:1px;stroke-linecap:butt;stroke-linejoin:miter;stroke-opacity:1" d="M 108.618,123.563 99.2768,106.75 z" id="boundary" inkscape:connector-curvature="0" />
	<path style="fill:none;stroke:red;stroke-width:1px;stroke-linecap:butt;stroke-linejoin:miter;stroke-opacity:1" d="M 99.2768,106.75 89.936,89.936 z" id="boundary" inkscape:connector-curvature="0" />
	<path style="fill:none;stroke:red;stroke-width:1px;stroke-linecap:butt;stroke-linejoin:miter;stroke-opacity:1" d="M 4,112.354 13.3409,129.168 z" id="boundary" inkscape:connector-curvature="0" />
	<path style="fill:none;stroke:red;stroke-width:1px;stroke-linecap:butt;stroke-linejoin:miter;stroke-opacity:1" d="M 22.6817,145.981 13.3409,129.168 z" id="boundary" inkscape:connector-curvature="0" />
	<path style="fill:none;stroke:red;stroke-width:1px;stroke-linecap:butt;stroke-linejoin:miter;stroke-opacity:1" d="M 22.6817,145.981 28.2863,164.663 z" id="boundary" inkscape:connector-curvature="0" />
	<path style="fill:none;stroke:red;stroke-width:1px;stroke-linecap:butt;stroke-linejoin:miter;stroke-opacity:1" d="M 28.2863,164.663 43.2316,177.74 z" id="boundary" inkscape:connector-curvature="0" />
	<path style="fill:none;stroke:red;stroke-width:1px;stroke-linecap:butt;stroke-linejoin:miter;stroke-opacity:1" d="M 50.7043,209.499 32.0226,215.104 z" id="boundary" inkscape:connector-curvature="0" />
	<path style="fill:none;stroke:red;stroke-width:1px;stroke-linecap:butt;stroke-linejoin:miter;stroke-opacity:1" d="M 41.3635,231.917 32.0226,215.104 z" id="boundary" inkscape:connector-curvature="0" />
	<path style="fill:none;stroke:red;stroke-width:1px;stroke-linecap:butt;stroke-linejoin:miter;stroke-opacity:1" d="M 4,112.354 4,93.6723 z" id="boundary" inkscape:connector-curvature="0" />
	<path style="fill:none;stroke:red;stroke-width:1px;stroke-linecap:butt;stroke-linejoin:miter;stroke-opacity:1" d="M 108.618,123.563 123.563,134.772 z" id="boundary" inkscape:connector-curvature="0" />
	<path style="fill:none;stroke:red;stroke-width:1px;stroke-linecap:butt;stroke-linejoin:miter;stroke-opacity:1" d="M 60.0452,192.685 43.2316,177.74 z" id="boundary" inkscape:connector-curvature="0" />
	<path style="fill:none;stroke:red;stroke-width:1px;stroke-linecap:butt;stroke-linejoin:miter;stroke-opacity:1" d="M 140.377,144.113 123.563,134.772 z" id="boundary" inkscape:connector-curvature="0" />
	<path style="fill:none;stroke:red;stroke-width:1px;stroke-linecap:butt;stroke-linejoin:miter;stroke-opacity:1" d="M 54.4407,246.863 41.3635,231.917 z" id="boundary" inkscape:connector-curvature="0" />
	<path style="fill:none;stroke:red;stroke-width:1px;stroke-linecap:butt;stroke-linejoin:miter;stroke-opacity:1" d="M 73.1224,254.335 54.4407,246.863 z" id="boundary" inkscape:connector-curvature="0" />
	<path style="fill:none;stroke:red;stroke-width:1px;stroke-linecap:butt;stroke-linejoin:miter;stroke-opacity:1" d="M 91.8041,258.072 73.1224,254.335 z" id="boundary" inkscape:connector-curvature="0" />
	<path style="fill:none;stroke:red;stroke-width:1px;stroke-linecap:butt;stroke-linejoin:miter;stroke-opacity:1" d="M 140.377,144.113 157.19,153.454 z" id="boundary" inkscape:connector-curvature="0" />
	<path style="fill:none;stroke:red;stroke-width:1px;stroke-linecap:butt;stroke-linejoin:miter;stroke-opacity:1" d="M 134.772,4 151.586,13.3409 z" id="boundary" inkscape:connector-curvature="0" />
	<path style="fill:none;stroke:red;stroke-width:1px;stroke-linecap:butt;stroke-linejoin:miter;stroke-opacity:1" d="M 151.586,13.3409 170.267,15.209 z" id="boundary" inkscape:connector-curvature="0" />
	<path style="fill:none;stroke:red;stroke-width:1px;stroke-linecap:butt;stroke-linejoin:miter;stroke-opacity:1" d="M 187.081,24.5499 170.267,15.209 z" id="boundary" inkscape:connector-curvature="0" />
	<path style="fill:none;stroke:red;stroke-width:1px;stroke-linecap:butt;stroke-linejoin:miter;stroke-opacity:1" d="M 144.113,61.9134 144.113,80.5951 z" id="boundary" inkscape:connector-curvature="0" />
	<path style="fill:none;stroke:red;stroke-width:1px;stroke-linecap:butt;stroke-linejoin:miter;stroke-opacity:1" d="M 125.431,61.9134 144.113,61.9134 z" id="boundary" inkscape:connector-curvature="0" />
	<path style="fill:none;stroke:red;stroke-width:1px;stroke-linecap:butt;stroke-linejoin:miter;stroke-opacity:1" d="M 168.399,99.2768 149.718,99.2768 z" id="boundary" inkscape:connector-curvature="0" />
	<path style="fill:none;stroke:red;stroke-width:1px;stroke-linecap:butt;stroke-linejoin:miter;stroke-opacity:1" d="M 149.718,99.2768 144.113,80.5951 z" id="boundary" inkscape:connector-curvature="0" />
	<path style="fill:none;stroke:red;stroke-width:1px;stroke-linecap:butt;stroke-linejoin:miter;stroke-opacity:1" d="M 187.081,24.5499 202.026,37.6271 z" id="boundary" inkscape:connector-curvature="0" />
	<path style="fill:none;stroke:red;stroke-width:1px;stroke-linecap:butt;stroke-linejoin:miter;stroke-opacity:1" d="M 187.081,97.4087 196.422,80.5951 z" id="boundary" inkscape:connector-curvature="0" />
	<path style="fill:none;stroke:red;stroke-width:1px;stroke-linecap:butt;stroke-linejoin:miter;stroke-opacity:1" d="M 187.081,97.4087 168.399,99.2768 z" id="boundary" inkscape:connector-curvature="0" />
	<path style="fill:none;stroke:red;stroke-width:1px;stroke-linecap:butt;stroke-linejoin:miter;stroke-opacity:1" d="M 202.026,37.6271 211.367,54.4407 z" id="boundary" inkscape:connector-curvature="0" />
	<path style="fill:none;stroke:red;stroke-width:1px;stroke-linecap:butt;stroke-linejoin:miter;stroke-opacity:1" d="M 211.367,54.4407 196.422,80.5951 z" id="boundary" inkscape:connector-curvature="0" />
	<path style="fill:none;stroke:red;stroke-width:1px;stroke-linecap:butt;stroke-linejoin:miter;stroke-opacity:1" d="M 373.898,106.75 355.217,106.75 z" id="boundary" inkscape:connector-curvature="0" />
	<path style="fill:none;stroke:red;stroke-width:1px;stroke-linecap:butt;stroke-linejoin:miter;stroke-opacity:1" d="M 411.262,106.75 428.075,97.4087 z" id="boundary" inkscape:connector-curvature="0" />
	<path style="fill:none;stroke:red;stroke-width:1px;stroke-linecap:butt;stroke-linejoin:miter;stroke-opacity:1" d="M 428.075,97.4087 446.757,97.4087 z" id="boundary" inkscape:connector-curvature="0" />
	<path style="fill:none;stroke:red;stroke-width:1px;stroke-linecap:butt;stroke-linejoin:miter;stroke-opacity:1" d="M 446.757,97.4087 465.439,97.4087 z" id="boundary" inkscape:connector-curvature="0" />
	<path style="fill:none;stroke:red;stroke-width:1px;stroke-linecap:butt;stroke-linejoin:miter;stroke-opacity:1" d="M 209.499,134.772 228.181,134.772 z" id="boundary" inkscape:connector-curvature="0" />
	<path style="fill:none;stroke:red;stroke-width:1px;stroke-linecap:butt;stroke-linejoin:miter;stroke-opacity:1" d="M 282.358,125.431 265.544,134.772 z" id="boundary" inkscape:connector-curvature="0" />
	<path style="fill:none;stroke:red;stroke-width:1px;stroke-linecap:butt;stroke-linejoin:miter;stroke-opacity:1" d="M 265.544,134.772 246.863,134.772 z" id="boundary" inkscape:connector-curvature="0" />
	<path style="fill:none;stroke:red;stroke-width:1px;stroke-linecap:butt;stroke-linejoin:miter;stroke-opacity:1" d="M 246.863,134.772 228.181,134.772 z" id="boundary" inkscape:connector-curvature="0" />
	<path style="fill:none;stroke:red;stroke-width:1px;stroke-linecap:butt;stroke-linejoin:miter;stroke-opacity:1" d="M 175.872,153.454 157.19,153.454 z" id="boundary" inkscape:connector-curvature="0" />
	<path style="fill:none;stroke:red;stroke-width:1px;stroke-linecap:butt;stroke-linejoin:miter;stroke-opacity:1" d="M 190.817,140.377 175.872,153.454 z" id="boundary" inkscape:connector-curvature="0" />
	<path style="fill:none;stroke:red;stroke-width:1px;stroke-linecap:butt;stroke-linejoin:miter;stroke-opacity:1" d="M 190.817,140.377 209.499,134.772 z" id="boundary" inkscape:connector-curvature="0" />
	<path style="fill:none;stroke:red;stroke-width:1px;stroke-linecap:butt;stroke-linejoin:miter;stroke-opacity:1" d="M 282.358,125.431 301.04,125.431 z" id="boundary" inkscape:connector-curvature="0" />
	<path style="fill:none;stroke:red;stroke-width:1px;stroke-linecap:butt;stroke-linejoin:miter;stroke-opacity:1" d="M 373.898,106.75 392.58,106.75 z" id="boundary" inkscape:connector-curvature="0" />
	<path style="fill:none;stroke:red;stroke-width:1px;stroke-linecap:butt;stroke-linejoin:miter;stroke-opacity:1" d="M 465.439,97.4087 482.252,106.75 z" id="boundary" inkscape:connector-curvature="0" />
	<path style="fill:none;stroke:red;stroke-width:1px;stroke-linecap:butt;stroke-linejoin:miter;stroke-opacity:1" d="M 482.252,106.75 491.593,123.563 z" id="boundary" inkscape:connector-curvature="0" />
	<path style="fill:none;stroke:red;stroke-width:1px;stroke-linecap:butt;stroke-linejoin:miter;stroke-opacity:1" d="M 411.262,106.75 392.58,106.75 z" id="boundary" inkscape:connector-curvature="0" />
	<path style="fill:none;stroke:red;stroke-width:1px;stroke-linecap:butt;stroke-linejoin:miter;stroke-opacity:1" d="M 301.04,125.431 317.853,116.09 z" id="boundary" inkscape:connector-curvature="0" />
	<path style="fill:none;stroke:red;stroke-width:1px;stroke-linecap:butt;stroke-linejoin:miter;stroke-opacity:1" d="M 317.853,116.09 336.535,116.09 z" id="boundary" inkscape:connector-curvature="0" />
	<path style="fill:none;stroke:red;stroke-width:1px;stroke-linecap:butt;stroke-linejoin:miter;stroke-opacity:1" d="M 355.217,106.75 336.535,116.09 z" id="boundary" inkscape:connector-curvature="0" />
	<path style="fill:none;stroke:red;stroke-width:1px;stroke-linecap:butt;stroke-linejoin:miter;stroke-opacity:1" d="M 106.75,269.281 116.09,286.094 z" id="boundary" inkscape:connector-curvature="0" />
	<path style="fill:none;stroke:red;stroke-width:1px;stroke-linecap:butt;stroke-linejoin:miter;stroke-opacity:1" d="M 106.75,269.281 91.8041,258.072 z" id="boundary" inkscape:connector-curvature="0" />
	<path style="fill:none;stroke:red;stroke-width:1px;stroke-linecap:butt;stroke-linejoin:miter;stroke-opacity:1" d="M 134.772,286.094 116.09,286.094 z" id="boundary" inkscape:connector-curvature="0" />
	<path style="fill:none;stroke:red;stroke-width:1px;stroke-linecap:butt;stroke-linejoin:miter;stroke-opacity:1" d="M 134.772,286.094 151.586,295.435 z" id="boundary" inkscape:connector-curvature="0" />
	<path style="fill:none;stroke:red;stroke-width:1px;stroke-linecap:butt;stroke-linejoin:miter;stroke-opacity:1" d="M 170.267,295.435 151.586,295.435 z" id="boundary" inkscape:connector-curvature="0" />
	<path style="fill:none;stroke:red;stroke-width:1px;stroke-linecap:butt;stroke-linejoin:miter;stroke-opacity:1" d="M 170.267,295.435 188.949,295.435 z" id="boundary" inkscape:connector-curvature="0" />
	<path style="fill:none;stroke:red;stroke-width:1px;stroke-linecap:butt;stroke-linejoin:miter;stroke-opacity:1" d="M 188.949,295.435 205.763,304.776 z" id="boundary" inkscape:connector-curvature="0" />
	<path style="fill:none;stroke:red;stroke-width:1px;stroke-linecap:butt;stroke-linejoin:miter;stroke-opacity:1" d="M 220.708,317.853 233.785,332.798 z" id="boundary" inkscape:connector-curvature="0" />
	<path style="fill:none;stroke:red;stroke-width:1px;stroke-linecap:butt;stroke-linejoin:miter;stroke-opacity:1" d="M 284.226,360.821 265.544,355.217 z" id="boundary" inkscape:connector-curvature="0" />
	<path style="fill:none;stroke:red;stroke-width:1px;stroke-linecap:butt;stroke-linejoin:miter;stroke-opacity:1" d="M 265.544,355.217 248.731,345.876 z" id="boundary" inkscape:connector-curvature="0" />
	<path style="fill:none;stroke:red;stroke-width:1px;stroke-linecap:butt;stroke-linejoin:miter;stroke-opacity:1" d="M 248.731,345.876 233.785,332.798 z" id="boundary" inkscape:connector-curvature="0" />
	<path style="fill:none;stroke:red;stroke-width:1px;stroke-linecap:butt;stroke-linejoin:miter;stroke-opacity:1" d="M 243.126,555.111 252.467,536.429 z" id="boundary" inkscape:connector-curvature="0" />
	<path style="fill:none;stroke:red;stroke-width:1px;stroke-linecap:butt;stroke-linejoin:miter;stroke-opacity:1" d="M 261.808,517.748 252.467,536.429 z" id="boundary" inkscape:connector-curvature="0" />
	<path style="fill:none;stroke:red;stroke-width:1px;stroke-linecap:butt;stroke-linejoin:miter;stroke-opacity:1" d="M 274.885,495.33 261.808,517.748 z" id="boundary" inkscape:connector-curvature="0" />
	<path style="fill:none;stroke:red;stroke-width:1px;stroke-linecap:butt;stroke-linejoin:miter;stroke-opacity:1" d="M 220.708,317.853 205.763,304.776 z" id="boundary" inkscape:connector-curvature="0" />
	<path style="fill:none;stroke:red;stroke-width:1px;stroke-linecap:butt;stroke-linejoin:miter;stroke-opacity:1" d="M 162.795,682.147 177.74,667.202 z" id="boundary" inkscape:connector-curvature="0" />
	<path style="fill:none;stroke:red;stroke-width:1px;stroke-linecap:butt;stroke-linejoin:miter;stroke-opacity:1" d="M 177.74,667.202 196.422,667.202 z" id="boundary" inkscape:connector-curvature="0" />
	<path style="fill:none;stroke:red;stroke-width:1px;stroke-linecap:butt;stroke-linejoin:miter;stroke-opacity:1" d="M 216.972,734.456 198.29,734.456 z" id="boundary" inkscape:connector-curvature="0" />
	<path style="fill:none;stroke:red;stroke-width:1px;stroke-linecap:butt;stroke-linejoin:miter;stroke-opacity:1" d="M 205.763,648.52 196.422,667.202 z" id="boundary" inkscape:connector-curvature="0" />
	<path style="fill:none;stroke:red;stroke-width:1px;stroke-linecap:butt;stroke-linejoin:miter;stroke-opacity:1" d="M 209.499,616.761 205.763,648.52 z" id="boundary" inkscape:connector-curvature="0" />
	<path style="fill:none;stroke:red;stroke-width:1px;stroke-linecap:butt;stroke-linejoin:miter;stroke-opacity:1" d="M 162.795,700.829 162.795,682.147 z" id="boundary" inkscape:connector-curvature="0" />
	<path style="fill:none;stroke:red;stroke-width:1px;stroke-linecap:butt;stroke-linejoin:miter;stroke-opacity:1" d="M 162.795,700.829 162.795,719.51 z" id="boundary" inkscape:connector-curvature="0" />
	<path style="fill:none;stroke:red;stroke-width:1px;stroke-linecap:butt;stroke-linejoin:miter;stroke-opacity:1" d="M 181.476,725.115 162.795,719.51 z" id="boundary" inkscape:connector-curvature="0" />
	<path style="fill:none;stroke:red;stroke-width:1px;stroke-linecap:butt;stroke-linejoin:miter;stroke-opacity:1" d="M 181.476,725.115 198.29,734.456 z" id="boundary" inkscape:connector-curvature="0" />
	<path style="fill:none;stroke:red;stroke-width:1px;stroke-linecap:butt;stroke-linejoin:miter;stroke-opacity:1" d="M 209.499,616.761 218.84,588.738 z" id="boundary" inkscape:connector-curvature="0" />
	<path style="fill:none;stroke:red;stroke-width:1px;stroke-linecap:butt;stroke-linejoin:miter;stroke-opacity:1" d="M 218.84,588.738 233.785,573.793 z" id="boundary" inkscape:connector-curvature="0" />
	<path style="fill:none;stroke:red;stroke-width:1px;stroke-linecap:butt;stroke-linejoin:miter;stroke-opacity:1" d="M 243.126,555.111 233.785,573.793 z" id="boundary" inkscape:connector-curvature="0" />
	<path style="fill:none;stroke:red;stroke-width:1px;stroke-linecap:butt;stroke-linejoin:miter;stroke-opacity:1" d="M 216.972,734.456 235.653,734.456 z" id="boundary" inkscape:connector-curvature="0" />
	<path style="fill:none;stroke:red;stroke-width:1px;stroke-linecap:butt;stroke-linejoin:miter;stroke-opacity:1" d="M 254.335,734.456 273.017,734.456 z" id="boundary" inkscape:connector-curvature="0" />
	<path style="fill:none;stroke:red;stroke-width:1px;stroke-linecap:butt;stroke-linejoin:miter;stroke-opacity:1" d="M 254.335,734.456 235.653,734.456 z" id="boundary" inkscape:connector-curvature="0" />
	<path style="fill:none;stroke:red;stroke-width:1px;stroke-linecap:butt;stroke-linejoin:miter;stroke-opacity:1" d="M 293.567,377.635 293.567,396.316 z" id="boundary" inkscape:connector-curvature="0" />
	<path style="fill:none;stroke:red;stroke-width:1px;stroke-linecap:butt;stroke-linejoin:miter;stroke-opacity:1" d="M 293.567,377.635 284.226,360.821 z" id="boundary" inkscape:connector-curvature="0" />
	<path style="fill:none;stroke:red;stroke-width:1px;stroke-linecap:butt;stroke-linejoin:miter;stroke-opacity:1" d="M 293.567,396.316 284.226,420.603 z" id="boundary" inkscape:connector-curvature="0" />
	<path style="fill:none;stroke:red;stroke-width:1px;stroke-linecap:butt;stroke-linejoin:miter;stroke-opacity:1" d="M 284.226,420.603 284.226,439.284 z" id="boundary" inkscape:connector-curvature="0" />
	<path style="fill:none;stroke:red;stroke-width:1px;stroke-linecap:butt;stroke-linejoin:miter;stroke-opacity:1" d="M 284.226,457.966 284.226,476.648 z" id="boundary" inkscape:connector-curvature="0" />
	<path style="fill:none;stroke:red;stroke-width:1px;stroke-linecap:butt;stroke-linejoin:miter;stroke-opacity:1" d="M 284.226,476.648 274.885,495.33 z" id="boundary" inkscape:connector-curvature="0" />
	<path style="fill:none;stroke:red;stroke-width:1px;stroke-linecap:butt;stroke-linejoin:miter;stroke-opacity:1" d="M 284.226,457.966 284.226,439.284 z" id="boundary" inkscape:connector-curvature="0" />
	<path style="fill:none;stroke:red;stroke-width:1px;stroke-linecap:butt;stroke-linejoin:miter;stroke-opacity:1" d="M 360.821,622.365 370.162,603.684 z" id="boundary" inkscape:connector-curvature="0" />
	<path style="fill:none;stroke:red;stroke-width:1px;stroke-linecap:butt;stroke-linejoin:miter;stroke-opacity:1" d="M 392.58,631.706 386.976,613.024 z" id="boundary" inkscape:connector-curvature="0" />
	<path style="fill:none;stroke:red;stroke-width:1px;stroke-linecap:butt;stroke-linejoin:miter;stroke-opacity:1" d="M 336.535,678.411 332.798,659.729 z" id="boundary" inkscape:connector-curvature="0" />
	<path style="fill:none;stroke:red;stroke-width:1px;stroke-linecap:butt;stroke-linejoin:miter;stroke-opacity:1" d="M 332.798,659.729 347.744,646.652 z" id="boundary" inkscape:connector-curvature="0" />
	<path style="fill:none;stroke:red;stroke-width:1px;stroke-linecap:butt;stroke-linejoin:miter;stroke-opacity:1" d="M 360.821,622.365 347.744,646.652 z" id="boundary" inkscape:connector-curvature="0" />
	<path style="fill:none;stroke:red;stroke-width:1px;stroke-linecap:butt;stroke-linejoin:miter;stroke-opacity:1" d="M 392.58,631.706 396.316,650.388 z" id="boundary" inkscape:connector-curvature="0" />
	<path style="fill:none;stroke:red;stroke-width:1px;stroke-linecap:butt;stroke-linejoin:miter;stroke-opacity:1" d="M 405.657,667.202 396.316,650.388 z" id="boundary" inkscape:connector-curvature="0" />
	<path style="fill:none;stroke:red;stroke-width:1px;stroke-linecap:butt;stroke-linejoin:miter;stroke-opacity:1" d="M 291.699,730.719 273.017,734.456 z" id="boundary" inkscape:connector-curvature="0" />
	<path style="fill:none;stroke:red;stroke-width:1px;stroke-linecap:butt;stroke-linejoin:miter;stroke-opacity:1" d="M 336.535,678.411 342.139,697.092 z" id="boundary" inkscape:connector-curvature="0" />
	<path style="fill:none;stroke:red;stroke-width:1px;stroke-linecap:butt;stroke-linejoin:miter;stroke-opacity:1" d="M 368.294,738.192 368.294,719.51 z" id="boundary" inkscape:connector-curvature="0" />
	<path style="fill:none;stroke:red;stroke-width:1px;stroke-linecap:butt;stroke-linejoin:miter;stroke-opacity:1" d="M 383.239,751.269 368.294,738.192 z" id="boundary" inkscape:connector-curvature="0" />
	<path style="fill:none;stroke:red;stroke-width:1px;stroke-linecap:butt;stroke-linejoin:miter;stroke-opacity:1" d="M 383.239,704.565 368.294,719.51 z" id="boundary" inkscape:connector-curvature="0" />
	<path style="fill:none;stroke:red;stroke-width:1px;stroke-linecap:butt;stroke-linejoin:miter;stroke-opacity:1" d="M 329.062,721.379 342.139,697.092 z" id="boundary" inkscape:connector-curvature="0" />
	<path style="fill:none;stroke:red;stroke-width:1px;stroke-linecap:butt;stroke-linejoin:miter;stroke-opacity:1" d="M 291.699,730.719 310.38,725.115 z" id="boundary" inkscape:connector-curvature="0" />
	<path style="fill:none;stroke:red;stroke-width:1px;stroke-linecap:butt;stroke-linejoin:miter;stroke-opacity:1" d="M 310.38,725.115 329.062,721.379 z" id="boundary" inkscape:connector-curvature="0" />
	<path style="fill:none;stroke:red;stroke-width:1px;stroke-linecap:butt;stroke-linejoin:miter;stroke-opacity:1" d="M 401.921,753.137 383.239,751.269 z" id="boundary" inkscape:connector-curvature="0" />
	<path style="fill:none;stroke:red;stroke-width:1px;stroke-linecap:butt;stroke-linejoin:miter;stroke-opacity:1" d="M 383.239,704.565 401.921,695.224 z" id="boundary" inkscape:connector-curvature="0" />
	<path style="fill:none;stroke:red;stroke-width:1px;stroke-linecap:butt;stroke-linejoin:miter;stroke-opacity:1" d="M 401.921,695.224 405.657,667.202 z" id="boundary" inkscape:connector-curvature="0" />
	<path style="fill:none;stroke:red;stroke-width:1px;stroke-linecap:butt;stroke-linejoin:miter;stroke-opacity:1" d="M 401.921,753.137 418.734,762.478 z" id="boundary" inkscape:connector-curvature="0" />
	<path style="fill:none;stroke:red;stroke-width:1px;stroke-linecap:butt;stroke-linejoin:miter;stroke-opacity:1" d="M 437.416,762.478 418.734,762.478 z" id="boundary" inkscape:connector-curvature="0" />
	<path style="fill:none;stroke:red;stroke-width:1px;stroke-linecap:butt;stroke-linejoin:miter;stroke-opacity:1" d="M 474.78,762.478 456.098,762.478 z" id="boundary" inkscape:connector-curvature="0" />
	<path style="fill:none;stroke:red;stroke-width:1px;stroke-linecap:butt;stroke-linejoin:miter;stroke-opacity:1" d="M 456.098,762.478 437.416,762.478 z" id="boundary" inkscape:connector-curvature="0" />
	<path style="fill:none;stroke:red;stroke-width:1px;stroke-linecap:butt;stroke-linejoin:miter;stroke-opacity:1" d="M 491.593,123.563 500.934,140.377 z" id="boundary" inkscape:connector-curvature="0" />
	<path style="fill:none;stroke:red;stroke-width:1px;stroke-linecap:butt;stroke-linejoin:miter;stroke-opacity:1" d="M 508.407,159.058 500.934,140.377 z" id="boundary" inkscape:connector-curvature="0" />
	<path style="fill:none;stroke:red;stroke-width:1px;stroke-linecap:butt;stroke-linejoin:miter;stroke-opacity:1" d="M 508.407,159.058 510.275,177.74 z" id="boundary" inkscape:connector-curvature="0" />
	<path style="fill:none;stroke:red;stroke-width:1px;stroke-linecap:butt;stroke-linejoin:miter;stroke-opacity:1" d="M 525.22,190.817 510.275,177.74 z" id="boundary" inkscape:connector-curvature="0" />
	<path style="fill:none;stroke:red;stroke-width:1px;stroke-linecap:butt;stroke-linejoin:miter;stroke-opacity:1" d="M 598.079,181.476 616.761,181.476 z" id="boundary" inkscape:connector-curvature="0" />
	<path style="fill:none;stroke:red;stroke-width:1px;stroke-linecap:butt;stroke-linejoin:miter;stroke-opacity:1" d="M 598.079,181.476 579.397,181.476 z" id="boundary" inkscape:connector-curvature="0" />
	<path style="fill:none;stroke:red;stroke-width:1px;stroke-linecap:butt;stroke-linejoin:miter;stroke-opacity:1" d="M 633.574,172.136 616.761,181.476 z" id="boundary" inkscape:connector-curvature="0" />
	<path style="fill:none;stroke:red;stroke-width:1px;stroke-linecap:butt;stroke-linejoin:miter;stroke-opacity:1" d="M 562.584,190.817 579.397,181.476 z" id="boundary" inkscape:connector-curvature="0" />
	<path style="fill:none;stroke:red;stroke-width:1px;stroke-linecap:butt;stroke-linejoin:miter;stroke-opacity:1" d="M 633.574,172.136 652.256,172.136 z" id="boundary" inkscape:connector-curvature="0" />
	<path style="fill:none;stroke:red;stroke-width:1px;stroke-linecap:butt;stroke-linejoin:miter;stroke-opacity:1" d="M 689.62,172.136 708.301,172.136 z" id="boundary" inkscape:connector-curvature="0" />
	<path style="fill:none;stroke:red;stroke-width:1px;stroke-linecap:butt;stroke-linejoin:miter;stroke-opacity:1" d="M 689.62,172.136 670.938,172.136 z" id="boundary" inkscape:connector-curvature="0" />
	<path style="fill:none;stroke:red;stroke-width:1px;stroke-linecap:butt;stroke-linejoin:miter;stroke-opacity:1" d="M 670.938,172.136 652.256,172.136 z" id="boundary" inkscape:connector-curvature="0" />
	<path style="fill:none;stroke:red;stroke-width:1px;stroke-linecap:butt;stroke-linejoin:miter;stroke-opacity:1" d="M 726.983,172.136 743.797,181.476 z" id="boundary" inkscape:connector-curvature="0" />
	<path style="fill:none;stroke:red;stroke-width:1px;stroke-linecap:butt;stroke-linejoin:miter;stroke-opacity:1" d="M 708.301,172.136 726.983,172.136 z" id="boundary" inkscape:connector-curvature="0" />
	<path style="fill:none;stroke:red;stroke-width:1px;stroke-linecap:butt;stroke-linejoin:miter;stroke-opacity:1" d="M 762.478,181.476 743.797,181.476 z" id="boundary" inkscape:connector-curvature="0" />
	<path style="fill:none;stroke:red;stroke-width:1px;stroke-linecap:butt;stroke-linejoin:miter;stroke-opacity:1" d="M 762.478,181.476 781.16,181.476 z" id="boundary" inkscape:connector-curvature="0" />
	<path style="fill:none;stroke:red;stroke-width:1px;stroke-linecap:butt;stroke-linejoin:miter;stroke-opacity:1" d="M 781.16,181.476 799.842,187.081 z" id="boundary" inkscape:connector-curvature="0" />
	<path style="fill:none;stroke:red;stroke-width:1px;stroke-linecap:butt;stroke-linejoin:miter;stroke-opacity:1" d="M 525.22,190.817 543.902,190.817 z" id="boundary" inkscape:connector-curvature="0" />
	<path style="fill:none;stroke:red;stroke-width:1px;stroke-linecap:butt;stroke-linejoin:miter;stroke-opacity:1" d="M 562.584,190.817 543.902,190.817 z" id="boundary" inkscape:connector-curvature="0" />
	<path style="fill:none;stroke:red;stroke-width:1px;stroke-linecap:butt;stroke-linejoin:miter;stroke-opacity:1" d="M 528.957,538.298 528.957,556.979 z" id="boundary" inkscape:connector-curvature="0" />
	<path style="fill:none;stroke:red;stroke-width:1px;stroke-linecap:butt;stroke-linejoin:miter;stroke-opacity:1" d="M 528.957,538.298 547.638,542.034 z" id="boundary" inkscape:connector-curvature="0" />
	<path style="fill:none;stroke:red;stroke-width:1px;stroke-linecap:butt;stroke-linejoin:miter;stroke-opacity:1" d="M 547.638,542.034 564.452,551.375 z" id="boundary" inkscape:connector-curvature="0" />
	<path style="fill:none;stroke:red;stroke-width:1px;stroke-linecap:butt;stroke-linejoin:miter;stroke-opacity:1" d="M 532.693,575.661 528.957,556.979 z" id="boundary" inkscape:connector-curvature="0" />
	<path style="fill:none;stroke:red;stroke-width:1px;stroke-linecap:butt;stroke-linejoin:miter;stroke-opacity:1" d="M 818.524,190.817 799.842,187.081 z" id="boundary" inkscape:connector-curvature="0" />
	<path style="fill:none;stroke:red;stroke-width:1px;stroke-linecap:butt;stroke-linejoin:miter;stroke-opacity:1" d="M 837.205,190.817 818.524,190.817 z" id="boundary" inkscape:connector-curvature="0" />
	<path style="fill:none;stroke:red;stroke-width:1px;stroke-linecap:butt;stroke-linejoin:miter;stroke-opacity:1" d="M 837.205,190.817 854.019,200.158 z" id="boundary" inkscape:connector-curvature="0" />
	<path style="fill:none;stroke:red;stroke-width:1px;stroke-linecap:butt;stroke-linejoin:miter;stroke-opacity:1" d="M 583.134,556.979 601.815,556.979 z" id="boundary" inkscape:connector-curvature="0" />
	<path style="fill:none;stroke:red;stroke-width:1px;stroke-linecap:butt;stroke-linejoin:miter;stroke-opacity:1" d="M 583.134,556.979 564.452,551.375 z" id="boundary" inkscape:connector-curvature="0" />
	<path style="fill:none;stroke:red;stroke-width:1px;stroke-linecap:butt;stroke-linejoin:miter;stroke-opacity:1" d="M 620.497,556.979 639.179,556.979 z" id="boundary" inkscape:connector-curvature="0" />
	<path style="fill:none;stroke:red;stroke-width:1px;stroke-linecap:butt;stroke-linejoin:miter;stroke-opacity:1" d="M 620.497,556.979 601.815,556.979 z" id="boundary" inkscape:connector-curvature="0" />
	<path style="fill:none;stroke:red;stroke-width:1px;stroke-linecap:butt;stroke-linejoin:miter;stroke-opacity:1" d="M 854.019,200.158 868.964,211.367 z" id="boundary" inkscape:connector-curvature="0" />
	<path style="fill:none;stroke:red;stroke-width:1px;stroke-linecap:butt;stroke-linejoin:miter;stroke-opacity:1" d="M 883.91,224.444 896.987,239.39 z" id="boundary" inkscape:connector-curvature="0" />
	<path style="fill:none;stroke:red;stroke-width:1px;stroke-linecap:butt;stroke-linejoin:miter;stroke-opacity:1" d="M 911.932,252.467 896.987,239.39 z" id="boundary" inkscape:connector-curvature="0" />
	<path style="fill:none;stroke:red;stroke-width:1px;stroke-linecap:butt;stroke-linejoin:miter;stroke-opacity:1" d="M 911.932,252.467 925.009,267.412 z" id="boundary" inkscape:connector-curvature="0" />
	<path style="fill:none;stroke:red;stroke-width:1px;stroke-linecap:butt;stroke-linejoin:miter;stroke-opacity:1" d="M 925.009,267.412 934.35,284.226 z" id="boundary" inkscape:connector-curvature="0" />
	<path style="fill:none;stroke:red;stroke-width:1px;stroke-linecap:butt;stroke-linejoin:miter;stroke-opacity:1" d="M 934.35,284.226 949.296,295.435 z" id="boundary" inkscape:connector-curvature="0" />
	<path style="fill:none;stroke:red;stroke-width:1px;stroke-linecap:butt;stroke-linejoin:miter;stroke-opacity:1" d="M 949.296,295.435 953.032,314.117 z" id="boundary" inkscape:connector-curvature="0" />
	<path style="fill:none;stroke:red;stroke-width:1px;stroke-linecap:butt;stroke-linejoin:miter;stroke-opacity:1" d="M 953.032,314.117 967.977,327.194 z" id="boundary" inkscape:connector-curvature="0" />
	<path style="fill:none;stroke:red;stroke-width:1px;stroke-linecap:butt;stroke-linejoin:miter;stroke-opacity:1" d="M 967.977,327.194 967.977,345.876 z" id="boundary" inkscape:connector-curvature="0" />
	<path style="fill:none;stroke:red;stroke-width:1px;stroke-linecap:butt;stroke-linejoin:miter;stroke-opacity:1" d="M 975.45,364.557 967.977,345.876 z" id="boundary" inkscape:connector-curvature="0" />
	<path style="fill:none;stroke:red;stroke-width:1px;stroke-linecap:butt;stroke-linejoin:miter;stroke-opacity:1" d="M 975.45,364.557 977.318,383.239 z" id="boundary" inkscape:connector-curvature="0" />
	<path style="fill:none;stroke:red;stroke-width:1px;stroke-linecap:butt;stroke-linejoin:miter;stroke-opacity:1" d="M 977.318,383.239 977.318,401.921 z" id="boundary" inkscape:connector-curvature="0" />
	<path style="fill:none;stroke:red;stroke-width:1px;stroke-linecap:butt;stroke-linejoin:miter;stroke-opacity:1" d="M 977.318,401.921 977.318,420.603 z" id="boundary" inkscape:connector-curvature="0" />
	<path style="fill:none;stroke:red;stroke-width:1px;stroke-linecap:butt;stroke-linejoin:miter;stroke-opacity:1" d="M 984.791,439.284 977.318,420.603 z" id="boundary" inkscape:connector-curvature="0" />
	<path style="fill:none;stroke:red;stroke-width:1px;stroke-linecap:butt;stroke-linejoin:miter;stroke-opacity:1" d="M 930.614,510.275 945.559,497.198 z" id="boundary" inkscape:connector-curvature="0" />
	<path style="fill:none;stroke:red;stroke-width:1px;stroke-linecap:butt;stroke-linejoin:miter;stroke-opacity:1" d="M 956.768,482.252 945.559,497.198 z" id="boundary" inkscape:connector-curvature="0" />
	<path style="fill:none;stroke:red;stroke-width:1px;stroke-linecap:butt;stroke-linejoin:miter;stroke-opacity:1" d="M 966.109,499.066 966.109,517.748 z" id="boundary" inkscape:connector-curvature="0" />
	<path style="fill:none;stroke:red;stroke-width:1px;stroke-linecap:butt;stroke-linejoin:miter;stroke-opacity:1" d="M 930.614,510.275 930.614,528.957 z" id="boundary" inkscape:connector-curvature="0" />
	<path style="fill:none;stroke:red;stroke-width:1px;stroke-linecap:butt;stroke-linejoin:miter;stroke-opacity:1" d="M 930.614,547.638 930.614,528.957 z" id="boundary" inkscape:connector-curvature="0" />
	<path style="fill:none;stroke:red;stroke-width:1px;stroke-linecap:butt;stroke-linejoin:miter;stroke-opacity:1" d="M 966.109,517.748 966.109,536.429 z" id="boundary" inkscape:connector-curvature="0" />
	<path style="fill:none;stroke:red;stroke-width:1px;stroke-linecap:butt;stroke-linejoin:miter;stroke-opacity:1" d="M 939.955,564.452 930.614,547.638 z" id="boundary" inkscape:connector-curvature="0" />
	<path style="fill:none;stroke:red;stroke-width:1px;stroke-linecap:butt;stroke-linejoin:miter;stroke-opacity:1" d="M 986.659,514.011 966.109,517.748 z" id="boundary" inkscape:connector-curvature="0" />
	<path style="fill:none;stroke:red;stroke-width:1px;stroke-linecap:butt;stroke-linejoin:miter;stroke-opacity:1" d="M 986.659,495.33 966.109,499.066 z" id="boundary" inkscape:connector-curvature="0" />
	<path style="fill:none;stroke:red;stroke-width:1px;stroke-linecap:butt;stroke-linejoin:miter;stroke-opacity:1" d="M 986.659,476.648 986.659,495.33 z" id="boundary" inkscape:connector-curvature="0" />
	<path style="fill:none;stroke:red;stroke-width:1px;stroke-linecap:butt;stroke-linejoin:miter;stroke-opacity:1" d="M 986.659,476.648 986.659,457.966 z" id="boundary" inkscape:connector-curvature="0" />
	<path style="fill:none;stroke:red;stroke-width:1px;stroke-linecap:butt;stroke-linejoin:miter;stroke-opacity:1" d="M 986.659,514.011 986.659,495.33 z" id="boundary" inkscape:connector-curvature="0" />
	<path style="fill:none;stroke:red;stroke-width:1px;stroke-linecap:butt;stroke-linejoin:miter;stroke-opacity:1" d="M 996,530.825 986.659,514.011 z" id="boundary" inkscape:connector-curvature="0" />
	<path style="fill:none;stroke:red;stroke-width:1px;stroke-linecap:butt;stroke-linejoin:miter;stroke-opacity:1" d="M 966.109,536.429 975.45,553.243 z" id="boundary" inkscape:connector-curvature="0" />
	<path style="fill:none;stroke:red;stroke-width:1px;stroke-linecap:butt;stroke-linejoin:miter;stroke-opacity:1" d="M 975.45,553.243 977.318,571.925 z" id="boundary" inkscape:connector-curvature="0" />
	<path style="fill:none;stroke:red;stroke-width:1px;stroke-linecap:butt;stroke-linejoin:miter;stroke-opacity:1" d="M 986.659,457.966 984.791,439.284 z" id="boundary" inkscape:connector-curvature="0" />
	<path style="fill:none;stroke:red;stroke-width:1px;stroke-linecap:butt;stroke-linejoin:miter;stroke-opacity:1" d="M 868.964,211.367 883.91,224.444 z" id="boundary" inkscape:connector-curvature="0" />
	<path style="fill:none;stroke:red;stroke-width:1px;stroke-linecap:butt;stroke-linejoin:miter;stroke-opacity:1" d="M 939.955,564.452 939.955,583.134 z" id="boundary" inkscape:connector-curvature="0" />
	<path style="fill:none;stroke:red;stroke-width:1px;stroke-linecap:butt;stroke-linejoin:miter;stroke-opacity:1" d="M 542.034,592.475 532.693,575.661 z" id="boundary" inkscape:connector-curvature="0" />
	<path style="fill:none;stroke:red;stroke-width:1px;stroke-linecap:butt;stroke-linejoin:miter;stroke-opacity:1" d="M 547.638,611.156 542.034,592.475 z" id="boundary" inkscape:connector-curvature="0" />
	<path style="fill:none;stroke:red;stroke-width:1px;stroke-linecap:butt;stroke-linejoin:miter;stroke-opacity:1" d="M 547.638,611.156 547.638,629.838 z" id="boundary" inkscape:connector-curvature="0" />
	<path style="fill:none;stroke:red;stroke-width:1px;stroke-linecap:butt;stroke-linejoin:miter;stroke-opacity:1" d="M 547.638,629.838 547.638,648.52 z" id="boundary" inkscape:connector-curvature="0" />
	<path style="fill:none;stroke:red;stroke-width:1px;stroke-linecap:butt;stroke-linejoin:miter;stroke-opacity:1" d="M 547.638,667.202 547.638,685.883 z" id="boundary" inkscape:connector-curvature="0" />
	<path style="fill:none;stroke:red;stroke-width:1px;stroke-linecap:butt;stroke-linejoin:miter;stroke-opacity:1" d="M 547.638,667.202 547.638,648.52 z" id="boundary" inkscape:connector-curvature="0" />
	<path style="fill:none;stroke:red;stroke-width:1px;stroke-linecap:butt;stroke-linejoin:miter;stroke-opacity:1" d="M 493.461,762.478 474.78,762.478 z" id="boundary" inkscape:connector-curvature="0" />
	<path style="fill:none;stroke:red;stroke-width:1px;stroke-linecap:butt;stroke-linejoin:miter;stroke-opacity:1" d="M 616.761,639.179 620.497,616.761 z" id="boundary" inkscape:connector-curvature="0" />
	<path style="fill:none;stroke:red;stroke-width:1px;stroke-linecap:butt;stroke-linejoin:miter;stroke-opacity:1" d="M 616.761,639.179 607.42,657.861 z" id="boundary" inkscape:connector-curvature="0" />
	<path style="fill:none;stroke:red;stroke-width:1px;stroke-linecap:butt;stroke-linejoin:miter;stroke-opacity:1" d="M 629.838,598.079 620.497,616.761 z" id="boundary" inkscape:connector-curvature="0" />
	<path style="fill:none;stroke:red;stroke-width:1px;stroke-linecap:butt;stroke-linejoin:miter;stroke-opacity:1" d="M 592.475,708.301 583.134,691.488 z" id="boundary" inkscape:connector-curvature="0" />
	<path style="fill:none;stroke:red;stroke-width:1px;stroke-linecap:butt;stroke-linejoin:miter;stroke-opacity:1" d="M 583.134,691.488 592.475,672.806 z" id="boundary" inkscape:connector-curvature="0" />
	<path style="fill:none;stroke:red;stroke-width:1px;stroke-linecap:butt;stroke-linejoin:miter;stroke-opacity:1" d="M 592.475,672.806 607.42,657.861 z" id="boundary" inkscape:connector-curvature="0" />
	<path style="fill:none;stroke:red;stroke-width:1px;stroke-linecap:butt;stroke-linejoin:miter;stroke-opacity:1" d="M 629.838,598.079 629.838,579.397 z" id="boundary" inkscape:connector-curvature="0" />
	<path style="fill:none;stroke:red;stroke-width:1px;stroke-linecap:butt;stroke-linejoin:miter;stroke-opacity:1" d="M 556.979,702.697 547.638,685.883 z" id="boundary" inkscape:connector-curvature="0" />
	<path style="fill:none;stroke:red;stroke-width:1px;stroke-linecap:butt;stroke-linejoin:miter;stroke-opacity:1" d="M 562.584,740.06 547.638,753.137 z" id="boundary" inkscape:connector-curvature="0" />
	<path style="fill:none;stroke:red;stroke-width:1px;stroke-linecap:butt;stroke-linejoin:miter;stroke-opacity:1" d="M 556.979,702.697 566.32,719.51 z" id="boundary" inkscape:connector-curvature="0" />
	<path style="fill:none;stroke:red;stroke-width:1px;stroke-linecap:butt;stroke-linejoin:miter;stroke-opacity:1" d="M 566.32,719.51 562.584,740.06 z" id="boundary" inkscape:connector-curvature="0" />
	<path style="fill:none;stroke:red;stroke-width:1px;stroke-linecap:butt;stroke-linejoin:miter;stroke-opacity:1" d="M 592.475,708.301 601.815,725.115 z" id="boundary" inkscape:connector-curvature="0" />
	<path style="fill:none;stroke:red;stroke-width:1px;stroke-linecap:butt;stroke-linejoin:miter;stroke-opacity:1" d="M 512.143,762.478 493.461,762.478 z" id="boundary" inkscape:connector-curvature="0" />
	<path style="fill:none;stroke:red;stroke-width:1px;stroke-linecap:butt;stroke-linejoin:miter;stroke-opacity:1" d="M 530.825,762.478 547.638,753.137 z" id="boundary" inkscape:connector-curvature="0" />
	<path style="fill:none;stroke:red;stroke-width:1px;stroke-linecap:butt;stroke-linejoin:miter;stroke-opacity:1" d="M 530.825,762.478 512.143,762.478 z" id="boundary" inkscape:connector-curvature="0" />
	<path style="fill:none;stroke:red;stroke-width:1px;stroke-linecap:butt;stroke-linejoin:miter;stroke-opacity:1" d="M 601.815,725.115 620.497,725.115 z" id="boundary" inkscape:connector-curvature="0" />
	<path style="fill:none;stroke:red;stroke-width:1px;stroke-linecap:butt;stroke-linejoin:miter;stroke-opacity:1" d="M 713.906,719.51 732.588,710.169 z" id="boundary" inkscape:connector-curvature="0" />
	<path style="fill:none;stroke:red;stroke-width:1px;stroke-linecap:butt;stroke-linejoin:miter;stroke-opacity:1" d="M 657.861,725.115 639.179,725.115 z" id="boundary" inkscape:connector-curvature="0" />
	<path style="fill:none;stroke:red;stroke-width:1px;stroke-linecap:butt;stroke-linejoin:miter;stroke-opacity:1" d="M 713.906,719.51 695.224,725.115 z" id="boundary" inkscape:connector-curvature="0" />
	<path style="fill:none;stroke:red;stroke-width:1px;stroke-linecap:butt;stroke-linejoin:miter;stroke-opacity:1" d="M 639.179,725.115 620.497,725.115 z" id="boundary" inkscape:connector-curvature="0" />
	<path style="fill:none;stroke:red;stroke-width:1px;stroke-linecap:butt;stroke-linejoin:miter;stroke-opacity:1" d="M 676.542,725.115 695.224,725.115 z" id="boundary" inkscape:connector-curvature="0" />
	<path style="fill:none;stroke:red;stroke-width:1px;stroke-linecap:butt;stroke-linejoin:miter;stroke-opacity:1" d="M 676.542,725.115 657.861,725.115 z" id="boundary" inkscape:connector-curvature="0" />
	<path style="fill:none;stroke:red;stroke-width:1px;stroke-linecap:butt;stroke-linejoin:miter;stroke-opacity:1" d="M 734.456,687.751 732.588,710.169 z" id="boundary" inkscape:connector-curvature="0" />
	<path style="fill:none;stroke:red;stroke-width:1px;stroke-linecap:butt;stroke-linejoin:miter;stroke-opacity:1" d="M 734.456,669.07 734.456,687.751 z" id="boundary" inkscape:connector-curvature="0" />
	<path style="fill:none;stroke:red;stroke-width:1px;stroke-linecap:butt;stroke-linejoin:miter;stroke-opacity:1" d="M 777.424,609.288 796.105,603.684 z" id="boundary" inkscape:connector-curvature="0" />
	<path style="fill:none;stroke:red;stroke-width:1px;stroke-linecap:butt;stroke-linejoin:miter;stroke-opacity:1" d="M 796.105,603.684 809.183,618.629 z" id="boundary" inkscape:connector-curvature="0" />
	<path style="fill:none;stroke:red;stroke-width:1px;stroke-linecap:butt;stroke-linejoin:miter;stroke-opacity:1" d="M 777.424,609.288 762.478,622.365 z" id="boundary" inkscape:connector-curvature="0" />
	<path style="fill:none;stroke:red;stroke-width:1px;stroke-linecap:butt;stroke-linejoin:miter;stroke-opacity:1" d="M 825.996,627.97 809.183,618.629 z" id="boundary" inkscape:connector-curvature="0" />
	<path style="fill:none;stroke:red;stroke-width:1px;stroke-linecap:butt;stroke-linejoin:miter;stroke-opacity:1" d="M 734.456,669.07 753.137,659.729 z" id="boundary" inkscape:connector-curvature="0" />
	<path style="fill:none;stroke:red;stroke-width:1px;stroke-linecap:butt;stroke-linejoin:miter;stroke-opacity:1" d="M 753.137,659.729 753.137,641.047 z" id="boundary" inkscape:connector-curvature="0" />
	<path style="fill:none;stroke:red;stroke-width:1px;stroke-linecap:butt;stroke-linejoin:miter;stroke-opacity:1" d="M 753.137,641.047 762.478,622.365 z" id="boundary" inkscape:connector-curvature="0" />
	<path style="fill:none;stroke:red;stroke-width:1px;stroke-linecap:butt;stroke-linejoin:miter;stroke-opacity:1" d="M 825.996,627.97 825.996,646.652 z" id="boundary" inkscape:connector-curvature="0" />
	<path style="fill:none;stroke:red;stroke-width:1px;stroke-linecap:butt;stroke-linejoin:miter;stroke-opacity:1" d="M 939.955,601.815 939.955,583.134 z" id="boundary" inkscape:connector-curvature="0" />
	<path style="fill:none;stroke:red;stroke-width:1px;stroke-linecap:butt;stroke-linejoin:miter;stroke-opacity:1" d="M 949.296,637.311 949.296,618.629 z" id="boundary" inkscape:connector-curvature="0" />
	<path style="fill:none;stroke:red;stroke-width:1px;stroke-linecap:butt;stroke-linejoin:miter;stroke-opacity:1" d="M 949.296,618.629 939.955,601.815 z" id="boundary" inkscape:connector-curvature="0" />
	<path style="fill:none;stroke:red;stroke-width:1px;stroke-linecap:butt;stroke-linejoin:miter;stroke-opacity:1" d="M 835.337,663.465 825.996,646.652 z" id="boundary" inkscape:connector-curvature="0" />
	<path style="fill:none;stroke:red;stroke-width:1px;stroke-linecap:butt;stroke-linejoin:miter;stroke-opacity:1" d="M 949.296,637.311 949.296,655.992 z" id="boundary" inkscape:connector-curvature="0" />
	<path style="fill:none;stroke:red;stroke-width:1px;stroke-linecap:butt;stroke-linejoin:miter;stroke-opacity:1" d="M 949.296,655.992 949.296,674.674 z" id="boundary" inkscape:connector-curvature="0" />
	<path style="fill:none;stroke:red;stroke-width:1px;stroke-linecap:butt;stroke-linejoin:miter;stroke-opacity:1" d="M 835.337,663.465 835.337,682.147 z" id="boundary" inkscape:connector-curvature="0" />
	<path style="fill:none;stroke:red;stroke-width:1px;stroke-linecap:butt;stroke-linejoin:miter;stroke-opacity:1" d="M 825.996,719.51 837.205,734.456 z" id="boundary" inkscape:connector-curvature="0" />
	<path style="fill:none;stroke:red;stroke-width:1px;stroke-linecap:butt;stroke-linejoin:miter;stroke-opacity:1" d="M 835.337,682.147 835.337,700.829 z" id="boundary" inkscape:connector-curvature="0" />
	<path style="fill:none;stroke:red;stroke-width:1px;stroke-linecap:butt;stroke-linejoin:miter;stroke-opacity:1" d="M 835.337,700.829 825.996,719.51 z" id="boundary" inkscape:connector-curvature="0" />
	<path style="fill:none;stroke:red;stroke-width:1px;stroke-linecap:butt;stroke-linejoin:miter;stroke-opacity:1" d="M 837.205,734.456 854.019,743.797 z" id="boundary" inkscape:connector-curvature="0" />
	<path style="fill:none;stroke:red;stroke-width:1px;stroke-linecap:butt;stroke-linejoin:miter;stroke-opacity:1" d="M 872.701,743.797 891.382,743.797 z" id="boundary" inkscape:connector-curvature="0" />
	<path style="fill:none;stroke:red;stroke-width:1px;stroke-linecap:butt;stroke-linejoin:miter;stroke-opacity:1" d="M 891.382,743.797 908.196,753.137 z" id="boundary" inkscape:connector-curvature="0" />
	<path style="fill:none;stroke:red;stroke-width:1px;stroke-linecap:butt;stroke-linejoin:miter;stroke-opacity:1" d="M 872.701,743.797 854.019,743.797 z" id="boundary" inkscape:connector-curvature="0" />
	<path style="fill:none;stroke:red;stroke-width:1px;stroke-linecap:butt;stroke-linejoin:miter;stroke-opacity:1" d="M 949.296,674.674 958.637,691.488 z" id="boundary" inkscape:connector-curvature="0" />
	<path style="fill:none;stroke:red;stroke-width:1px;stroke-linecap:butt;stroke-linejoin:miter;stroke-opacity:1" d="M 958.637,691.488 958.637,710.169 z" id="boundary" inkscape:connector-curvature="0" />
	<path style="fill:none;stroke:red;stroke-width:1px;stroke-linecap:butt;stroke-linejoin:miter;stroke-opacity:1" d="M 958.637,710.169 967.977,726.983 z" id="boundary" inkscape:connector-curvature="0" />
	<path style="fill:none;stroke:red;stroke-width:1px;stroke-linecap:butt;stroke-linejoin:miter;stroke-opacity:1" d="M 908.196,753.137 926.878,749.401 z" id="boundary" inkscape:connector-curvature="0" />
	<path style="fill:none;stroke:red;stroke-width:1px;stroke-linecap:butt;stroke-linejoin:miter;stroke-opacity:1" d="M 945.559,743.797 962.373,753.137 z" id="boundary" inkscape:connector-curvature="0" />
	<path style="fill:none;stroke:red;stroke-width:1px;stroke-linecap:butt;stroke-linejoin:miter;stroke-opacity:1" d="M 926.878,749.401 945.559,743.797 z" id="boundary" inkscape:connector-curvature="0" />
	<circle cx="4" cy="74.9906" r="4" fill="#0" id="circle0"/>
	<circle cx="4" cy="93.6723" r="4" fill="#0" id="circle1"/>
	<circle cx="4" cy="112.354" r="4" fill="#0" id="circle2"/>
	<circle cx="13.3409" cy="56.3089" r="4" fill="#0" id="circle3"/>
	<circle cx="13.3409" cy="129.168" r="4" fill="#0" id="circle4"/>
	<circle cx="22.6817" cy="145.981" r="4" fill="#0" id="circle5"/>
	<circle cx="28.2863" cy="41.3635" r="4" fill="#0" id="circle6"/>
	<circle cx="28.2863" cy="164.663" r="4" fill="#0" id="circle7"/>
	<circle cx="32.0226" cy="215.104" r="4" fill="#0" id="circle8"/>
	<circle cx="41.3635" cy="231.917" r="4" fill="#0" id="circle9"/>
	<circle cx="43.2316" cy="26.4181" r="4" fill="#0" id="circle10"/>
	<circle cx="43.2316" cy="177.74" r="4" fill="#0" id="circle11"/>
	<circle cx="50.7043" cy="209.499" r="4" fill="#0" id="circle12"/>
	<circle cx="54.4407" cy="246.863" r="4" fill="#0" id="circle13"/>
	<circle cx="60.0452" cy="192.685" r="4" fill="#0" id="circle14"/>
	<circle cx="61.9134" cy="17.0772" r="4" fill="#0" id="circle15"/>
	<circle cx="69.3861" cy="209.499" r="4" fill="#0" id="circle16"/>
	<circle cx="73.1224" cy="254.335" r="4" fill="#0" id="circle17"/>
	<circle cx="80.5951" cy="13.3409" r="4" fill="#0" id="circle18"/>
	<circle cx="89.936" cy="71.2542" r="4" fill="#0" id="circle19"/>
	<circle cx="89.936" cy="89.936" r="4" fill="#0" id="circle20"/>
	<circle cx="91.8041" cy="258.072" r="4" fill="#0" id="circle21"/>
	<circle cx="97.4087" cy="4" r="4" fill="#0" id="circle22"/>
	<circle cx="99.2768" cy="106.75" r="4" fill="#0" id="circle23"/>
	<circle cx="106.75" cy="61.9134" r="4" fill="#0" id="circle24"/>
	<circle cx="106.75" cy="269.281" r="4" fill="#0" id="circle25"/>
	<circle cx="108.618" cy="123.563" r="4" fill="#0" id="circle26"/>
	<circle cx="116.09" cy="4" r="4" fill="#0" id="circle27"/>
	<circle cx="116.09" cy="286.094" r="4" fill="#0" id="circle28"/>
	<circle cx="123.563" cy="134.772" r="4" fill="#0" id="circle29"/>
	<circle cx="125.431" cy="61.9134" r="4" fill="#0" id="circle30"/>
	<circle cx="134.772" cy="4" r="4" fill="#0" id="circle31"/>
	<circle cx="134.772" cy="286.094" r="4" fill="#0" id="circle32"/>
	<circle cx="140.377" cy="144.113" r="4" fill="#0" id="circle33"/>
	<circle cx="144.113" cy="61.9134" r="4" fill="#0" id="circle34"/>
	<circle cx="144.113" cy="80.5951" r="4" fill="#0" id="circle35"/>
	<circle cx="149.718" cy="99.2768" r="4" fill="#0" id="circle36"/>
	<circle cx="151.586" cy="13.3409" r="4" fill="#0" id="circle37"/>
	<circle cx="151.586" cy="295.435" r="4" fill="#0" id="circle38"/>
	<circle cx="157.19" cy="153.454" r="4" fill="#0" id="circle39"/>
	<circle cx="162.795" cy="682.147" r="4" fill="#0" id="circle40"/>
	<circle cx="162.795" cy="700.829" r="4" fill="#0" id="circle41"/>
	<circle cx="162.795" cy="719.51" r="4" fill="#0" id="circle42"/>
	<circle cx="168.399" cy="99.2768" r="4" fill="#0" id="circle43"/>
	<circle cx="170.267" cy="15.209" r="4" fill="#0" id="circle44"/>
	<circle cx="170.267" cy="295.435" r="4" fill="#0" id="circle45"/>
	<circle cx="175.872" cy="153.454" r="4" fill="#0" id="circle46"/>
	<circle cx="177.74" cy="667.202" r="4" fill="#0" id="circle47"/>
	<circle cx="181.476" cy="725.115" r="4" fill="#0" id="circle48"/>
	<circle cx="187.081" cy="24.5499" r="4" fill="#0" id="circle49"/>
	<circle cx="187.081" cy="97.4087" r="4" fill="#0" id="circle50"/>
	<circle cx="188.949" cy="295.435" r="4" fill="#0" id="circle51"/>
	<circle cx="190.817" cy="140.377" r="4" fill="#0" id="circle52"/>
	<circle cx="196.422" cy="80.5951" r="4" fill="#0" id="circle53"/>
	<circle cx="196.422" cy="667.202" r="4" fill="#0" id="circle54"/>
	<circle cx="198.29" cy="734.456" r="4" fill="#0" id="circle55"/>
	<circle cx="202.026" cy="37.6271" r="4" fill="#0" id="circle56"/>
	<circle cx="205.763" cy="304.776" r="4" fill="#0" id="circle57"/>
	<circle cx="205.763" cy="648.52" r="4" fill="#0" id="circle58"/>
	<circle cx="209.499" cy="134.772" r="4" fill="#0" id="circle59"/>
	<circle cx="209.499" cy="616.761" r="4" fill="#0" id="circle60"/>
	<circle cx="211.367" cy="54.4407" r="4" fill="#0" id="circle61"/>
	<circle cx="216.972" cy="734.456" r="4" fill="#0" id="circle62"/>
	<circle cx="218.84" cy="588.738" r="4" fill="#0" id="circle63"/>
	<circle cx="220.708" cy="317.853" r="4" fill="#0" id="circle64"/>
	<circle cx="228.181" cy="134.772" r="4" fill="#0" id="circle65"/>
	<circle cx="233.785" cy="332.798" r="4" fill="#0" id="circle66"/>
	<circle cx="233.785" cy="573.793" r="4" fill="#0" id="circle67"/>
	<circle cx="235.653" cy="734.456" r="4" fill="#0" id="circle68"/>
	<circle cx="243.126" cy="555.111" r="4" fill="#0" id="circle69"/>
	<circle cx="246.863" cy="134.772" r="4" fill="#0" id="circle70"/>
	<circle cx="248.731" cy="345.876" r="4" fill="#0" id="circle71"/>
	<circle cx="252.467" cy="536.429" r="4" fill="#0" id="circle72"/>
	<circle cx="254.335" cy="734.456" r="4" fill="#0" id="circle73"/>
	<circle cx="261.808" cy="517.748" r="4" fill="#0" id="circle74"/>
	<circle cx="265.544" cy="134.772" r="4" fill="#0" id="circle75"/>
	<circle cx="265.544" cy="355.217" r="4" fill="#0" id="circle76"/>
	<circle cx="273.017" cy="734.456" r="4" fill="#0" id="circle77"/>
	<circle cx="274.885" cy="495.33" r="4" fill="#0" id="circle78"/>
	<circle cx="282.358" cy="125.431" r="4" fill="#0" id="circle79"/>
	<circle cx="284.226" cy="360.821" r="4" fill="#0" id="circle80"/>
	<circle cx="284.226" cy="420.603" r="4" fill="#0" id="circle81"/>
	<circle cx="284.226" cy="439.284" r="4" fill="#0" id="circle82"/>
	<circle cx="284.226" cy="457.966" r="4" fill="#0" id="circle83"/>
	<circle cx="284.226" cy="476.648" r="4" fill="#0" id="circle84"/>
	<circle cx="291.699" cy="730.719" r="4" fill="#0" id="circle85"/>
	<circle cx="293.567" cy="377.635" r="4" fill="#0" id="circle86"/>
	<circle cx="293.567" cy="396.316" r="4" fill="#0" id="circle87"/>
	<circle cx="301.04" cy="125.431" r="4" fill="#0" id="circle88"/>
	<circle cx="310.38" cy="725.115" r="4" fill="#0" id="circle89"/>
	<circle cx="317.853" cy="116.09" r="4" fill="#0" id="circle90"/>
	<circle cx="329.062" cy="721.379" r="4" fill="#0" id="circle91"/>
	<circle cx="332.798" cy="659.729" r="4" fill="#0" id="circle92"/>
	<circle cx="336.535" cy="116.09" r="4" fill="#0" id="circle93"/>
	<circle cx="336.535" cy="678.411" r="4" fill="#0" id="circle94"/>
	<circle cx="342.139" cy="697.092" r="4" fill="#0" id="circle95"/>
	<circle cx="347.744" cy="646.652" r="4" fill="#0" id="circle96"/>
	<circle cx="355.217" cy="106.75" r="4" fill="#0" id="circle97"/>
	<circle cx="360.821" cy="622.365" r="4" fill="#0" id="circle98"/>
	<circle cx="368.294" cy="719.51" r="4" fill="#0" id="circle99"/>
	<circle cx="368.294" cy="738.192" r="4" fill="#0" id="circle100"/>
	<circle cx="370.162" cy="603.684" r="4" fill="#0" id="circle101"/>
	<circle cx="373.898" cy="106.75" r="4" fill="#0" id="circle102"/>
	<circle cx="383.239" cy="704.565" r="4" fill="#0" id="circle103"/>
	<circle cx="383.239" cy="751.269" r="4" fill="#0" id="circle104"/>
	<circle cx="386.976" cy="594.343" r="4" fill="#0" id="circle105"/>
	<circle cx="386.976" cy="613.024" r="4" fill="#0" id="circle106"/>
	<circle cx="392.58" cy="106.75" r="4" fill="#0" id="circle107"/>
	<circle cx="392.58" cy="631.706" r="4" fill="#0" id="circle108"/>
	<circle cx="396.316" cy="650.388" r="4" fill="#0" id="circle109"/>
	<circle cx="401.921" cy="695.224" r="4" fill="#0" id="circle110"/>
	<circle cx="401.921" cy="753.137" r="4" fill="#0" id="circle111"/>
	<circle cx="405.657" cy="667.202" r="4" fill="#0" id="circle112"/>
	<circle cx="411.262" cy="106.75" r="4" fill="#0" id="circle113"/>
	<circle cx="418.734" cy="762.478" r="4" fill="#0" id="circle114"/>
	<circle cx="428.075" cy="97.4087" r="4" fill="#0" id="circle115"/>
	<circle cx="437.416" cy="762.478" r="4" fill="#0" id="circle116"/>
	<circle cx="446.757" cy="97.4087" r="4" fill="#0" id="circle117"/>
	<circle cx="456.098" cy="762.478" r="4" fill="#0" id="circle118"/>
	<circle cx="465.439" cy="97.4087" r="4" fill="#0" id="circle119"/>
	<circle cx="474.78" cy="762.478" r="4" fill="#0" id="circle120"/>
	<circle cx="482.252" cy="106.75" r="4" fill="#0" id="circle121"/>
	<circle cx="491.593" cy="123.563" r="4" fill="#0" id="circle122"/>
	<circle cx="493.461" cy="762.478" r="4" fill="#0" id="circle123"/>
	<circle cx="500.934" cy="140.377" r="4" fill="#0" id="circle124"/>
	<circle cx="508.407" cy="159.058" r="4" fill="#0" id="circle125"/>
	<circle cx="510.275" cy="177.74" r="4" fill="#0" id="circle126"/>
	<circle cx="512.143" cy="762.478" r="4" fill="#0" id="circle127"/>
	<circle cx="525.22" cy="190.817" r="4" fill="#0" id="circle128"/>
	<circle cx="528.957" cy="538.298" r="4" fill="#0" id="circle129"/>
	<circle cx="528.957" cy="556.979" r="4" fill="#0" id="circle130"/>
	<circle cx="530.825" cy="762.478" r="4" fill="#0" id="circle131"/>
	<circle cx="532.693" cy="575.661" r="4" fill="#0" id="circle132"/>
	<circle cx="542.034" cy="592.475" r="4" fill="#0" id="circle133"/>
	<circle cx="543.902" cy="190.817" r="4" fill="#0" id="circle134"/>
	<circle cx="547.638" cy="542.034" r="4" fill="#0" id="circle135"/>
	<circle cx="547.638" cy="611.156" r="4" fill="#0" id="circle136"/>
	<circle cx="547.638" cy="629.838" r="4" fill="#0" id="circle137"/>
	<circle cx="547.638" cy="648.52" r="4" fill="#0" id="circle138"/>
	<circle cx="547.638" cy="667.202" r="4" fill="#0" id="circle139"/>
	<circle cx="547.638" cy="685.883" r="4" fill="#0" id="circle140"/>
	<circle cx="547.638" cy="753.137" r="4" fill="#0" id="circle141"/>
	<circle cx="556.979" cy="702.697" r="4" fill="#0" id="circle142"/>
	<circle cx="562.584" cy="190.817" r="4" fill="#0" id="circle143"/>
	<circle cx="562.584" cy="740.06" r="4" fill="#0" id="circle144"/>
	<circle cx="564.452" cy="551.375" r="4" fill="#0" id="circle145"/>
	<circle cx="566.32" cy="719.51" r="4" fill="#0" id="circle146"/>
	<circle cx="579.397" cy="181.476" r="4" fill="#0" id="circle147"/>
	<circle cx="583.134" cy="556.979" r="4" fill="#0" id="circle148"/>
	<circle cx="583.134" cy="691.488" r="4" fill="#0" id="circle149"/>
	<circle cx="592.475" cy="672.806" r="4" fill="#0" id="circle150"/>
	<circle cx="592.475" cy="708.301" r="4" fill="#0" id="circle151"/>
	<circle cx="598.079" cy="181.476" r="4" fill="#0" id="circle152"/>
	<circle cx="601.815" cy="556.979" r="4" fill="#0" id="circle153"/>
	<circle cx="601.815" cy="725.115" r="4" fill="#0" id="circle154"/>
	<circle cx="607.42" cy="657.861" r="4" fill="#0" id="circle155"/>
	<circle cx="616.761" cy="181.476" r="4" fill="#0" id="circle156"/>
	<circle cx="616.761" cy="639.179" r="4" fill="#0" id="circle157"/>
	<circle cx="620.497" cy="556.979" r="4" fill="#0" id="circle158"/>
	<circle cx="620.497" cy="616.761" r="4" fill="#0" id="circle159"/>
	<circle cx="620.497" cy="725.115" r="4" fill="#0" id="circle160"/>
	<circle cx="629.838" cy="579.397" r="4" fill="#0" id="circle161"/>
	<circle cx="629.838" cy="598.079" r="4" fill="#0" id="circle162"/>
	<circle cx="633.574" cy="172.136" r="4" fill="#0" id="circle163"/>
	<circle cx="639.179" cy="556.979" r="4" fill="#0" id="circle164"/>
	<circle cx="639.179" cy="725.115" r="4" fill="#0" id="circle165"/>
	<circle cx="652.256" cy="172.136" r="4" fill="#0" id="circle166"/>
	<circle cx="657.861" cy="725.115" r="4" fill="#0" id="circle167"/>
	<circle cx="670.938" cy="172.136" r="4" fill="#0" id="circle168"/>
	<circle cx="676.542" cy="725.115" r="4" fill="#0" id="circle169"/>
	<circle cx="689.62" cy="172.136" r="4" fill="#0" id="circle170"/>
	<circle cx="695.224" cy="725.115" r="4" fill="#0" id="circle171"/>
	<circle cx="708.301" cy="172.136" r="4" fill="#0" id="circle172"/>
	<circle cx="713.906" cy="719.51" r="4" fill="#0" id="circle173"/>
	<circle cx="726.983" cy="172.136" r="4" fill="#0" id="circle174"/>
	<circle cx="732.588" cy="710.169" r="4" fill="#0" id="circle175"/>
	<circle cx="734.456" cy="669.07" r="4" fill="#0" id="circle176"/>
	<circle cx="734.456" cy="687.751" r="4" fill="#0" id="circle177"/>
	<circle cx="743.797" cy="181.476" r="4" fill="#0" id="circle178"/>
	<circle cx="753.137" cy="641.047" r="4" fill="#0" id="circle179"/>
	<circle cx="753.137" cy="659.729" r="4" fill="#0" id="circle180"/>
	<circle cx="762.478" cy="181.476" r="4" fill="#0" id="circle181"/>
	<circle cx="762.478" cy="622.365" r="4" fill="#0" id="circle182"/>
	<circle cx="777.424" cy="609.288" r="4" fill="#0" id="circle183"/>
	<circle cx="781.16" cy="181.476" r="4" fill="#0" id="circle184"/>
	<circle cx="796.105" cy="603.684" r="4" fill="#0" id="circle185"/>
	<circle cx="799.842" cy="187.081" r="4" fill="#0" id="circle186"/>
	<circle cx="809.183" cy="618.629" r="4" fill="#0" id="circle187"/>
	<circle cx="818.524" cy="190.817" r="4" fill="#0" id="circle188"/>
	<circle cx="825.996" cy="627.97" r="4" fill="#0" id="circle189"/>
	<circle cx="825.996" cy="646.652" r="4" fill="#0" id="circle190"/>
	<circle cx="825.996" cy="719.51" r="4" fill="#0" id="circle191"/>
	<circle cx="835.337" cy="663.465" r="4" fill="#0" id="circle192"/>
	<circle cx="835.337" cy="682.147" r="4" fill="#0" id="circle193"/>
	<circle cx="835.337" cy="700.829" r="4" fill="#0" id="circle194"/>
	<circle cx="837.205" cy="190.817" r="4" fill="#0" id="circle195"/>
	<circle cx="837.205" cy="734.456" r="4" fill="#0" id="circle196"/>
	<circle cx="854.019" cy="200.158" r="4" fill="#0" id="circle197"/>
	<circle cx="854.019" cy="743.797" r="4" fill="#0" id="circle198"/>
	<circle cx="868.964" cy="211.367" r="4" fill="#0" id="circle199"/>
	<circle cx="872.701" cy="743.797" r="4" fill="#0" id="circle200"/>
	<circle cx="883.91" cy="224.444" r="4" fill="#0" id="circle201"/>
	<circle cx="891.382" cy="743.797" r="4" fill="#0" id="circle202"/>
	<circle cx="896.987" cy="239.39" r="4" fill="#0" id="circle203"/>
	<circle cx="908.196" cy="753.137" r="4" fill="#0" id="circle204"/>
	<circle cx="911.932" cy="252.467" r="4" fill="#0" id="circle205"/>
	<circle cx="925.009" cy="267.412" r="4" fill="#0" id="circle206"/>
	<circle cx="926.878" cy="749.401" r="4" fill="#0" id="circle207"/>
	<circle cx="930.614" cy="510.275" r="4" fill="#0" id="circle208"/>
	<circle cx="930.614" cy="528.957" r="4" fill="#0" id="circle209"/>
	<circle cx="930.614" cy="547.638" r="4" fill="#0" id="circle210"/>
	<circle cx="934.35" cy="284.226" r="4" fill="#0" id="circle211"/>
	<circle cx="939.955" cy="564.452" r="4" fill="#0" id="circle212"/>
	<circle cx="939.955" cy="583.134" r="4" fill="#0" id="circle213"/>
	<circle cx="939.955" cy="601.815" r="4" fill="#0" id="circle214"/>
	<circle cx="945.559" cy="497.198" r="4" fill="#0" id="circle215"/>
	<circle cx="945.559" cy="743.797" r="4" fill="#0" id="circle216"/>
	<circle cx="949.296" cy="295.435" r="4" fill="#0" id="circle217"/>
	<circle cx="949.296" cy="618.629" r="4" fill="#0" id="circle218"/>
	<circle cx="949.296" cy="637.311" r="4" fill="#0" id="circle219"/>
	<circle cx="949.296" cy="655.992" r="4" fill="#0" id="circle220"/>
	<circle cx="949.296" cy="674.674" r="4" fill="#0" id="circle221"/>
	<circle cx="953.032" cy="314.117" r="4" fill="#0" id="circle222"/>
	<circle cx="956.768" cy="482.252" r="4" fill="#0" id="circle223"/>
	<circle cx="958.637" cy="691.488" r="4" fill="#0" id="circle224"/>
	<circle cx="958.637" cy="710.169" r="4" fill="#0" id="circle225"/>
	<circle cx="962.373" cy="753.137" r="4" fill="#0" id="circle226"/>
	<circle cx="966.109" cy="499.066" r="4" fill="#0" id="circle227"/>
	<circle cx="966.109" cy="517.748" r="4" fill="#0" id="circle228"/>
	<circle cx="966.109" cy="536.429" r="4" fill="#0" id="circle229"/>
	<circle cx="967.977" cy="327.194" r="4" fill="#0" id="circle230"/>
	<circle cx="967.977" cy="345.876" r="4" fill="#0" id="circle231"/>
	<circle cx="967.977" cy="726.983" r="4" fill="#0" id="circle232"/>
	<circle cx="975.45" cy="364.557" r="4" fill="#0" id="circle233"/>
	<circle cx="975.45" cy="553.243" r="4" fill="#0" id="circle234"/>
	<circle cx="977.318" cy="383.239" r="4" fill="#0" id="circle235"/>
	<circle cx="977.318" cy="401.921" r="4" fill="#0" id="circle236"/>
	<circle cx="977.318" cy="420.603" r="4" fill="#0" id="circle237"/>
	<circle cx="977.318" cy="571.925" r="4" fill="#0" id="circle238"/>
	<circle cx="984.791" cy="439.284" r="4" fill="#0" id="circle239"/>
	<circle cx="986.659" cy="457.966" r="4" fill="#0" id="circle240"/>
	<circle cx="986.659" cy="476.648" r="4" fill="#0" id="circle241"/>
	<circle cx="986.659" cy="495.33" r="4" fill="#0" id="circle242"/>
	<circle cx="986.659" cy="514.011" r="4" fill="#0" id="circle243"/>
	<circle cx="994.132" cy="560.716" r="4" fill="#0" id="circle244"/>
	<circle cx="996" cy="530.825" r="4" fill="#0" id="circle245"/>
	</g>
</svg>