<?xml version="1.0" encoding="UTF-8" standalone="no"?>
<!-- Created with CurveBenchmark -->
<svg
	xmlns:dc="http://purl.org/dc/elements/1.1/"
	xmlns:cc="http://creativecommons.org/ns#"
	xmlns:rdf="http://www.w3.org/1999/02/22-rdf-syntax-ns#"
	xmlns:svg="http://www.w3.org/2000/svg"
	xmlns="http://www.w3.org/2000/svg"
	xmlns:sodipodi="http://sodipodi.sourceforge.net/DTD/sodipodi-0.dtd"
	xmlns:inkscape="http://www.inkscape.org/namespaces/inkscape"
	width="1000"
	height="1000"
	id="svg2"
	version="1.1"
	sodipodi:docname="manifold/ccrust-fish005.png.txt">
<defs
	id="defs4" />
<metadata
	id="metadata7">
	<rdf:RDF>
		<cc:Work
			rdf:about="">
			<dc:format>image/svg+xml</dc:format>
			<dc:type
				rdf:resource="http://purl.org/dc/dcmitype/StillImage" />
			<dc:title></dc:title>
		</cc:Work>
	</rdf:RDF>
</metadata>
<g
	inkscape:label="Layer 1"
	inkscape:groupmode="layer"
	id="layer1">
	<path style="fill:none;stroke:red;stroke-width:1px;stroke-linecap:butt;stroke-linejoin:miter;stroke-opacity:1" d="M 108.711,158.311 136.267,147.289 z" id="boundary" inkscape:connector-curvature="0" />
	<path style="fill:none;stroke:red;stroke-width:1px;stroke-linecap:butt;stroke-linejoin:miter;stroke-opacity:1" d="M 163.822,136.267 136.267,147.289 z" id="boundary" inkscape:connector-curvature="0" />
	<path style="fill:none;stroke:red;stroke-width:1px;stroke-linecap:butt;stroke-linejoin:miter;stroke-opacity:1" d="M 246.489,108.711 218.933,119.733 z" id="boundary" inkscape:connector-curvature="0" />
	<path style="fill:none;stroke:red;stroke-width:1px;stroke-linecap:butt;stroke-linejoin:miter;stroke-opacity:1" d="M 218.933,119.733 191.378,125.244 z" id="boundary" inkscape:connector-curvature="0" />
	<path style="fill:none;stroke:red;stroke-width:1px;stroke-linecap:butt;stroke-linejoin:miter;stroke-opacity:1" d="M 163.822,136.267 191.378,125.244 z" id="boundary" inkscape:connector-curvature="0" />
	<path style="fill:none;stroke:red;stroke-width:1px;stroke-linecap:butt;stroke-linejoin:miter;stroke-opacity:1" d="M 4,207.911 28.8,194.133 z" id="boundary" inkscape:connector-curvature="0" />
	<path style="fill:none;stroke:red;stroke-width:1px;stroke-linecap:butt;stroke-linejoin:miter;stroke-opacity:1" d="M 12.2667,235.467 4,207.911 z" id="boundary" inkscape:connector-curvature="0" />
	<path style="fill:none;stroke:red;stroke-width:1px;stroke-linecap:butt;stroke-linejoin:miter;stroke-opacity:1" d="M 34.3111,254.756 12.2667,235.467 z" id="boundary" inkscape:connector-curvature="0" />
	<path style="fill:none;stroke:red;stroke-width:1px;stroke-linecap:butt;stroke-linejoin:miter;stroke-opacity:1" d="M 28.8,194.133 53.6,180.356 z" id="boundary" inkscape:connector-curvature="0" />
	<path style="fill:none;stroke:red;stroke-width:1px;stroke-linecap:butt;stroke-linejoin:miter;stroke-opacity:1" d="M 81.1556,169.333 53.6,180.356 z" id="boundary" inkscape:connector-curvature="0" />
	<path style="fill:none;stroke:red;stroke-width:1px;stroke-linecap:butt;stroke-linejoin:miter;stroke-opacity:1" d="M 108.711,158.311 81.1556,169.333 z" id="boundary" inkscape:connector-curvature="0" />
	<path style="fill:none;stroke:red;stroke-width:1px;stroke-linecap:butt;stroke-linejoin:miter;stroke-opacity:1" d="M 337.422,23.2889 359.467,4 z" id="boundary" inkscape:connector-curvature="0" />
	<path style="fill:none;stroke:red;stroke-width:1px;stroke-linecap:butt;stroke-linejoin:miter;stroke-opacity:1" d="M 359.467,4 387.022,9.51111 z" id="boundary" inkscape:connector-curvature="0" />
	<path style="fill:none;stroke:red;stroke-width:1px;stroke-linecap:butt;stroke-linejoin:miter;stroke-opacity:1" d="M 461.422,45.3333 433.867,39.8222 z" id="boundary" inkscape:connector-curvature="0" />
	<path style="fill:none;stroke:red;stroke-width:1px;stroke-linecap:butt;stroke-linejoin:miter;stroke-opacity:1" d="M 433.867,39.8222 409.067,26.0444 z" id="boundary" inkscape:connector-curvature="0" />
	<path style="fill:none;stroke:red;stroke-width:1px;stroke-linecap:butt;stroke-linejoin:miter;stroke-opacity:1" d="M 409.067,26.0444 387.022,9.51111 z" id="boundary" inkscape:connector-curvature="0" />
	<path style="fill:none;stroke:red;stroke-width:1px;stroke-linecap:butt;stroke-linejoin:miter;stroke-opacity:1" d="M 323.644,48.0889 337.422,23.2889 z" id="boundary" inkscape:connector-curvature="0" />
	<path style="fill:none;stroke:red;stroke-width:1px;stroke-linecap:butt;stroke-linejoin:miter;stroke-opacity:1" d="M 296.089,59.1111 296.089,86.6667 z" id="boundary" inkscape:connector-curvature="0" />
	<path style="fill:none;stroke:red;stroke-width:1px;stroke-linecap:butt;stroke-linejoin:miter;stroke-opacity:1" d="M 296.089,86.6667 274.044,103.2 z" id="boundary" inkscape:connector-curvature="0" />
	<path style="fill:none;stroke:red;stroke-width:1px;stroke-linecap:butt;stroke-linejoin:miter;stroke-opacity:1" d="M 274.044,103.2 246.489,108.711 z" id="boundary" inkscape:connector-curvature="0" />
	<path style="fill:none;stroke:red;stroke-width:1px;stroke-linecap:butt;stroke-linejoin:miter;stroke-opacity:1" d="M 296.089,59.1111 323.644,48.0889 z" id="boundary" inkscape:connector-curvature="0" />
	<path style="fill:none;stroke:red;stroke-width:1px;stroke-linecap:butt;stroke-linejoin:miter;stroke-opacity:1" d="M 461.422,45.3333 486.222,59.1111 z" id="boundary" inkscape:connector-curvature="0" />
	<path style="fill:none;stroke:red;stroke-width:1px;stroke-linecap:butt;stroke-linejoin:miter;stroke-opacity:1" d="M 513.778,64.6222 486.222,59.1111 z" id="boundary" inkscape:connector-curvature="0" />
	<path style="fill:none;stroke:red;stroke-width:1px;stroke-linecap:butt;stroke-linejoin:miter;stroke-opacity:1" d="M 34.3111,254.756 53.6,276.8 z" id="boundary" inkscape:connector-curvature="0" />
	<path style="fill:none;stroke:red;stroke-width:1px;stroke-linecap:butt;stroke-linejoin:miter;stroke-opacity:1" d="M 75.6444,296.089 53.6,276.8 z" id="boundary" inkscape:connector-curvature="0" />
	<path style="fill:none;stroke:red;stroke-width:1px;stroke-linecap:butt;stroke-linejoin:miter;stroke-opacity:1" d="M 100.444,309.867 75.6444,296.089 z" id="boundary" inkscape:connector-curvature="0" />
	<path style="fill:none;stroke:red;stroke-width:1px;stroke-linecap:butt;stroke-linejoin:miter;stroke-opacity:1" d="M 100.444,309.867 128,320.889 z" id="boundary" inkscape:connector-curvature="0" />
	<path style="fill:none;stroke:red;stroke-width:1px;stroke-linecap:butt;stroke-linejoin:miter;stroke-opacity:1" d="M 155.556,331.911 183.111,342.933 z" id="boundary" inkscape:connector-curvature="0" />
	<path style="fill:none;stroke:red;stroke-width:1px;stroke-linecap:butt;stroke-linejoin:miter;stroke-opacity:1" d="M 210.667,353.956 183.111,342.933 z" id="boundary" inkscape:connector-curvature="0" />
	<path style="fill:none;stroke:red;stroke-width:1px;stroke-linecap:butt;stroke-linejoin:miter;stroke-opacity:1" d="M 238.222,359.467 265.778,364.978 z" id="boundary" inkscape:connector-curvature="0" />
	<path style="fill:none;stroke:red;stroke-width:1px;stroke-linecap:butt;stroke-linejoin:miter;stroke-opacity:1" d="M 238.222,359.467 210.667,353.956 z" id="boundary" inkscape:connector-curvature="0" />
	<path style="fill:none;stroke:red;stroke-width:1px;stroke-linecap:butt;stroke-linejoin:miter;stroke-opacity:1" d="M 265.778,364.978 293.333,370.489 z" id="boundary" inkscape:connector-curvature="0" />
	<path style="fill:none;stroke:red;stroke-width:1px;stroke-linecap:butt;stroke-linejoin:miter;stroke-opacity:1" d="M 293.333,370.489 307.111,395.289 z" id="boundary" inkscape:connector-curvature="0" />
	<path style="fill:none;stroke:red;stroke-width:1px;stroke-linecap:butt;stroke-linejoin:miter;stroke-opacity:1" d="M 155.556,331.911 128,320.889 z" id="boundary" inkscape:connector-curvature="0" />
	<path style="fill:none;stroke:red;stroke-width:1px;stroke-linecap:butt;stroke-linejoin:miter;stroke-opacity:1" d="M 323.644,417.333 307.111,395.289 z" id="boundary" inkscape:connector-curvature="0" />
	<path style="fill:none;stroke:red;stroke-width:1px;stroke-linecap:butt;stroke-linejoin:miter;stroke-opacity:1" d="M 461.422,359.467 488.978,353.956 z" id="boundary" inkscape:connector-curvature="0" />
	<path style="fill:none;stroke:red;stroke-width:1px;stroke-linecap:butt;stroke-linejoin:miter;stroke-opacity:1" d="M 442.133,387.022 433.867,359.467 z" id="boundary" inkscape:connector-curvature="0" />
	<path style="fill:none;stroke:red;stroke-width:1px;stroke-linecap:butt;stroke-linejoin:miter;stroke-opacity:1" d="M 433.867,359.467 461.422,359.467 z" id="boundary" inkscape:connector-curvature="0" />
	<path style="fill:none;stroke:red;stroke-width:1px;stroke-linecap:butt;stroke-linejoin:miter;stroke-opacity:1" d="M 436.622,422.844 442.133,387.022 z" id="boundary" inkscape:connector-curvature="0" />
	<path style="fill:none;stroke:red;stroke-width:1px;stroke-linecap:butt;stroke-linejoin:miter;stroke-opacity:1" d="M 364.978,455.911 342.933,439.378 z" id="boundary" inkscape:connector-curvature="0" />
	<path style="fill:none;stroke:red;stroke-width:1px;stroke-linecap:butt;stroke-linejoin:miter;stroke-opacity:1" d="M 342.933,439.378 323.644,417.333 z" id="boundary" inkscape:connector-curvature="0" />
	<path style="fill:none;stroke:red;stroke-width:1px;stroke-linecap:butt;stroke-linejoin:miter;stroke-opacity:1" d="M 436.622,422.844 420.089,455.911 z" id="boundary" inkscape:connector-curvature="0" />
	<path style="fill:none;stroke:red;stroke-width:1px;stroke-linecap:butt;stroke-linejoin:miter;stroke-opacity:1" d="M 420.089,455.911 392.533,464.178 z" id="boundary" inkscape:connector-curvature="0" />
	<path style="fill:none;stroke:red;stroke-width:1px;stroke-linecap:butt;stroke-linejoin:miter;stroke-opacity:1" d="M 392.533,464.178 364.978,455.911 z" id="boundary" inkscape:connector-curvature="0" />
	<path style="fill:none;stroke:red;stroke-width:1px;stroke-linecap:butt;stroke-linejoin:miter;stroke-opacity:1" d="M 488.978,353.956 516.533,353.956 z" id="boundary" inkscape:connector-curvature="0" />
	<path style="fill:none;stroke:red;stroke-width:1px;stroke-linecap:butt;stroke-linejoin:miter;stroke-opacity:1" d="M 513.778,64.6222 541.333,75.6444 z" id="boundary" inkscape:connector-curvature="0" />
	<path style="fill:none;stroke:red;stroke-width:1px;stroke-linecap:butt;stroke-linejoin:miter;stroke-opacity:1" d="M 541.333,75.6444 563.378,92.1778 z" id="boundary" inkscape:connector-curvature="0" />
	<path style="fill:none;stroke:red;stroke-width:1px;stroke-linecap:butt;stroke-linejoin:miter;stroke-opacity:1" d="M 640.533,86.6667 668.089,81.1556 z" id="boundary" inkscape:connector-curvature="0" />
	<path style="fill:none;stroke:red;stroke-width:1px;stroke-linecap:butt;stroke-linejoin:miter;stroke-opacity:1" d="M 695.644,86.6667 668.089,81.1556 z" id="boundary" inkscape:connector-curvature="0" />
	<path style="fill:none;stroke:red;stroke-width:1px;stroke-linecap:butt;stroke-linejoin:miter;stroke-opacity:1" d="M 695.644,86.6667 717.689,103.2 z" id="boundary" inkscape:connector-curvature="0" />
	<path style="fill:none;stroke:red;stroke-width:1px;stroke-linecap:butt;stroke-linejoin:miter;stroke-opacity:1" d="M 640.533,86.6667 612.978,94.9333 z" id="boundary" inkscape:connector-curvature="0" />
	<path style="fill:none;stroke:red;stroke-width:1px;stroke-linecap:butt;stroke-linejoin:miter;stroke-opacity:1" d="M 612.978,94.9333 585.422,108.711 z" id="boundary" inkscape:connector-curvature="0" />
	<path style="fill:none;stroke:red;stroke-width:1px;stroke-linecap:butt;stroke-linejoin:miter;stroke-opacity:1" d="M 585.422,108.711 563.378,92.1778 z" id="boundary" inkscape:connector-curvature="0" />
	<path style="fill:none;stroke:red;stroke-width:1px;stroke-linecap:butt;stroke-linejoin:miter;stroke-opacity:1" d="M 739.733,119.733 759.022,141.778 z" id="boundary" inkscape:connector-curvature="0" />
	<path style="fill:none;stroke:red;stroke-width:1px;stroke-linecap:butt;stroke-linejoin:miter;stroke-opacity:1" d="M 739.733,119.733 717.689,103.2 z" id="boundary" inkscape:connector-curvature="0" />
	<path style="fill:none;stroke:red;stroke-width:1px;stroke-linecap:butt;stroke-linejoin:miter;stroke-opacity:1" d="M 874.756,158.311 902.311,147.289 z" id="boundary" inkscape:connector-curvature="0" />
	<path style="fill:none;stroke:red;stroke-width:1px;stroke-linecap:butt;stroke-linejoin:miter;stroke-opacity:1" d="M 874.756,158.311 847.2,169.333 z" id="boundary" inkscape:connector-curvature="0" />
	<path style="fill:none;stroke:red;stroke-width:1px;stroke-linecap:butt;stroke-linejoin:miter;stroke-opacity:1" d="M 902.311,147.289 929.867,136.267 z" id="boundary" inkscape:connector-curvature="0" />
	<path style="fill:none;stroke:red;stroke-width:1px;stroke-linecap:butt;stroke-linejoin:miter;stroke-opacity:1" d="M 957.422,130.756 929.867,136.267 z" id="boundary" inkscape:connector-curvature="0" />
	<path style="fill:none;stroke:red;stroke-width:1px;stroke-linecap:butt;stroke-linejoin:miter;stroke-opacity:1" d="M 984.978,125.244 993.244,163.822 z" id="boundary" inkscape:connector-curvature="0" />
	<path style="fill:none;stroke:red;stroke-width:1px;stroke-linecap:butt;stroke-linejoin:miter;stroke-opacity:1" d="M 957.422,130.756 984.978,125.244 z" id="boundary" inkscape:connector-curvature="0" />
	<path style="fill:none;stroke:red;stroke-width:1px;stroke-linecap:butt;stroke-linejoin:miter;stroke-opacity:1" d="M 822.4,183.111 794.844,185.867 z" id="boundary" inkscape:connector-curvature="0" />
	<path style="fill:none;stroke:red;stroke-width:1px;stroke-linecap:butt;stroke-linejoin:miter;stroke-opacity:1" d="M 794.844,185.867 781.067,161.067 z" id="boundary" inkscape:connector-curvature="0" />
	<path style="fill:none;stroke:red;stroke-width:1px;stroke-linecap:butt;stroke-linejoin:miter;stroke-opacity:1" d="M 847.2,169.333 822.4,183.111 z" id="boundary" inkscape:connector-curvature="0" />
	<path style="fill:none;stroke:red;stroke-width:1px;stroke-linecap:butt;stroke-linejoin:miter;stroke-opacity:1" d="M 759.022,141.778 781.067,161.067 z" id="boundary" inkscape:connector-curvature="0" />
	<path style="fill:none;stroke:red;stroke-width:1px;stroke-linecap:butt;stroke-linejoin:miter;stroke-opacity:1" d="M 982.222,202.4 993.244,163.822 z" id="boundary" inkscape:connector-curvature="0" />
	<path style="fill:none;stroke:red;stroke-width:1px;stroke-linecap:butt;stroke-linejoin:miter;stroke-opacity:1" d="M 982.222,229.956 982.222,202.4 z" id="boundary" inkscape:connector-curvature="0" />
	<path style="fill:none;stroke:red;stroke-width:1px;stroke-linecap:butt;stroke-linejoin:miter;stroke-opacity:1" d="M 544.089,353.956 571.644,353.956 z" id="boundary" inkscape:connector-curvature="0" />
	<path style="fill:none;stroke:red;stroke-width:1px;stroke-linecap:butt;stroke-linejoin:miter;stroke-opacity:1" d="M 544.089,353.956 516.533,353.956 z" id="boundary" inkscape:connector-curvature="0" />
	<path style="fill:none;stroke:red;stroke-width:1px;stroke-linecap:butt;stroke-linejoin:miter;stroke-opacity:1" d="M 654.311,359.467 626.756,348.444 z" id="boundary" inkscape:connector-curvature="0" />
	<path style="fill:none;stroke:red;stroke-width:1px;stroke-linecap:butt;stroke-linejoin:miter;stroke-opacity:1" d="M 626.756,348.444 599.2,348.444 z" id="boundary" inkscape:connector-curvature="0" />
	<path style="fill:none;stroke:red;stroke-width:1px;stroke-linecap:butt;stroke-linejoin:miter;stroke-opacity:1" d="M 681.867,364.978 654.311,359.467 z" id="boundary" inkscape:connector-curvature="0" />
	<path style="fill:none;stroke:red;stroke-width:1px;stroke-linecap:butt;stroke-linejoin:miter;stroke-opacity:1" d="M 599.2,348.444 571.644,353.956 z" id="boundary" inkscape:connector-curvature="0" />
	<path style="fill:none;stroke:red;stroke-width:1px;stroke-linecap:butt;stroke-linejoin:miter;stroke-opacity:1" d="M 783.822,279.556 775.556,331.911 z" id="boundary" inkscape:connector-curvature="0" />
	<path style="fill:none;stroke:red;stroke-width:1px;stroke-linecap:butt;stroke-linejoin:miter;stroke-opacity:1" d="M 681.867,364.978 709.422,370.489 z" id="boundary" inkscape:connector-curvature="0" />
	<path style="fill:none;stroke:red;stroke-width:1px;stroke-linecap:butt;stroke-linejoin:miter;stroke-opacity:1" d="M 736.978,370.489 709.422,370.489 z" id="boundary" inkscape:connector-curvature="0" />
	<path style="fill:none;stroke:red;stroke-width:1px;stroke-linecap:butt;stroke-linejoin:miter;stroke-opacity:1" d="M 736.978,370.489 761.778,356.711 z" id="boundary" inkscape:connector-curvature="0" />
	<path style="fill:none;stroke:red;stroke-width:1px;stroke-linecap:butt;stroke-linejoin:miter;stroke-opacity:1" d="M 775.556,331.911 761.778,356.711 z" id="boundary" inkscape:connector-curvature="0" />
	<path style="fill:none;stroke:red;stroke-width:1px;stroke-linecap:butt;stroke-linejoin:miter;stroke-opacity:1" d="M 811.378,276.8 838.933,287.822 z" id="boundary" inkscape:connector-curvature="0" />
	<path style="fill:none;stroke:red;stroke-width:1px;stroke-linecap:butt;stroke-linejoin:miter;stroke-opacity:1" d="M 811.378,276.8 783.822,279.556 z" id="boundary" inkscape:connector-curvature="0" />
	<path style="fill:none;stroke:red;stroke-width:1px;stroke-linecap:butt;stroke-linejoin:miter;stroke-opacity:1" d="M 838.933,287.822 860.978,304.356 z" id="boundary" inkscape:connector-curvature="0" />
	<path style="fill:none;stroke:red;stroke-width:1px;stroke-linecap:butt;stroke-linejoin:miter;stroke-opacity:1" d="M 987.733,285.067 982.222,257.511 z" id="boundary" inkscape:connector-curvature="0" />
	<path style="fill:none;stroke:red;stroke-width:1px;stroke-linecap:butt;stroke-linejoin:miter;stroke-opacity:1" d="M 982.222,257.511 982.222,229.956 z" id="boundary" inkscape:connector-curvature="0" />
	<path style="fill:none;stroke:red;stroke-width:1px;stroke-linecap:butt;stroke-linejoin:miter;stroke-opacity:1" d="M 996,312.622 987.733,285.067 z" id="boundary" inkscape:connector-curvature="0" />
	<path style="fill:none;stroke:red;stroke-width:1px;stroke-linecap:butt;stroke-linejoin:miter;stroke-opacity:1" d="M 860.978,304.356 888.533,315.378 z" id="boundary" inkscape:connector-curvature="0" />
	<path style="fill:none;stroke:red;stroke-width:1px;stroke-linecap:butt;stroke-linejoin:miter;stroke-opacity:1" d="M 916.089,326.4 888.533,315.378 z" id="boundary" inkscape:connector-curvature="0" />
	<path style="fill:none;stroke:red;stroke-width:1px;stroke-linecap:butt;stroke-linejoin:miter;stroke-opacity:1" d="M 996,312.622 971.2,342.933 z" id="boundary" inkscape:connector-curvature="0" />
	<path style="fill:none;stroke:red;stroke-width:1px;stroke-linecap:butt;stroke-linejoin:miter;stroke-opacity:1" d="M 971.2,342.933 943.644,337.422 z" id="boundary" inkscape:connector-curvature="0" />
	<path style="fill:none;stroke:red;stroke-width:1px;stroke-linecap:butt;stroke-linejoin:miter;stroke-opacity:1" d="M 943.644,337.422 916.089,326.4 z" id="boundary" inkscape:connector-curvature="0" />
	<circle cx="4" cy="207.911" r="4" fill="#0" id="circle0"/>
	<circle cx="12.2667" cy="235.467" r="4" fill="#0" id="circle1"/>
	<circle cx="28.8" cy="194.133" r="4" fill="#0" id="circle2"/>
	<circle cx="34.3111" cy="254.756" r="4" fill="#0" id="circle3"/>
	<circle cx="53.6" cy="180.356" r="4" fill="#0" id="circle4"/>
	<circle cx="53.6" cy="276.8" r="4" fill="#0" id="circle5"/>
	<circle cx="75.6444" cy="296.089" r="4" fill="#0" id="circle6"/>
	<circle cx="81.1556" cy="169.333" r="4" fill="#0" id="circle7"/>
	<circle cx="100.444" cy="309.867" r="4" fill="#0" id="circle8"/>
	<circle cx="108.711" cy="158.311" r="4" fill="#0" id="circle9"/>
	<circle cx="128" cy="320.889" r="4" fill="#0" id="circle10"/>
	<circle cx="136.267" cy="147.289" r="4" fill="#0" id="circle11"/>
	<circle cx="155.556" cy="331.911" r="4" fill="#0" id="circle12"/>
	<circle cx="163.822" cy="136.267" r="4" fill="#0" id="circle13"/>
	<circle cx="183.111" cy="342.933" r="4" fill="#0" id="circle14"/>
	<circle cx="191.378" cy="125.244" r="4" fill="#0" id="circle15"/>
	<circle cx="210.667" cy="353.956" r="4" fill="#0" id="circle16"/>
	<circle cx="218.933" cy="119.733" r="4" fill="#0" id="circle17"/>
	<circle cx="238.222" cy="359.467" r="4" fill="#0" id="circle18"/>
	<circle cx="246.489" cy="108.711" r="4" fill="#0" id="circle19"/>
	<circle cx="265.778" cy="364.978" r="4" fill="#0" id="circle20"/>
	<circle cx="274.044" cy="103.2" r="4" fill="#0" id="circle21"/>
	<circle cx="293.333" cy="370.489" r="4" fill="#0" id="circle22"/>
	<circle cx="296.089" cy="59.1111" r="4" fill="#0" id="circle23"/>
	<circle cx="296.089" cy="86.6667" r="4" fill="#0" id="circle24"/>
	<circle cx="307.111" cy="395.289" r="4" fill="#0" id="circle25"/>
	<circle cx="323.644" cy="48.0889" r="4" fill="#0" id="circle26"/>
	<circle cx="323.644" cy="417.333" r="4" fill="#0" id="circle27"/>
	<circle cx="337.422" cy="23.2889" r="4" fill="#0" id="circle28"/>
	<circle cx="342.933" cy="439.378" r="4" fill="#0" id="circle29"/>
	<circle cx="359.467" cy="4" r="4" fill="#0" id="circle30"/>
	<circle cx="364.978" cy="455.911" r="4" fill="#0" id="circle31"/>
	<circle cx="387.022" cy="9.51111" r="4" fill="#0" id="circle32"/>
	<circle cx="392.533" cy="464.178" r="4" fill="#0" id="circle33"/>
	<circle cx="409.067" cy="26.0444" r="4" fill="#0" id="circle34"/>
	<circle cx="420.089" cy="455.911" r="4" fill="#0" id="circle35"/>
	<circle cx="433.867" cy="39.8222" r="4" fill="#0" id="circle36"/>
	<circle cx="433.867" cy="359.467" r="4" fill="#0" id="circle37"/>
	<circle cx="436.622" cy="422.844" r="4" fill="#0" id="circle38"/>
	<circle cx="442.133" cy="387.022" r="4" fill="#0" id="circle39"/>
	<circle cx="461.422" cy="45.3333" r="4" fill="#0" id="circle40"/>
	<circle cx="461.422" cy="359.467" r="4" fill="#0" id="circle41"/>
	<circle cx="486.222" cy="59.1111" r="4" fill="#0" id="circle42"/>
	<circle cx="488.978" cy="353.956" r="4" fill="#0" id="circle43"/>
	<circle cx="513.778" cy="64.6222" r="4" fill="#0" id="circle44"/>
	<circle cx="516.533" cy="353.956" r="4" fill="#0" id="circle45"/>
	<circle cx="541.333" cy="75.6444" r="4" fill="#0" id="circle46"/>
	<circle cx="544.089" cy="353.956" r="4" fill="#0" id="circle47"/>
	<circle cx="563.378" cy="92.1778" r="4" fill="#0" id="circle48"/>
	<circle cx="571.644" cy="353.956" r="4" fill="#0" id="circle49"/>
	<circle cx="585.422" cy="108.711" r="4" fill="#0" id="circle50"/>
	<circle cx="599.2" cy="348.444" r="4" fill="#0" id="circle51"/>
	<circle cx="612.978" cy="94.9333" r="4" fill="#0" id="circle52"/>
	<circle cx="626.756" cy="348.444" r="4" fill="#0" id="circle53"/>
	<circle cx="640.533" cy="86.6667" r="4" fill="#0" id="circle54"/>
	<circle cx="654.311" cy="359.467" r="4" fill="#0" id="circle55"/>
	<circle cx="668.089" cy="81.1556" r="4" fill="#0" id="circle56"/>
	<circle cx="681.867" cy="364.978" r="4" fill="#0" id="circle57"/>
	<circle cx="695.644" cy="86.6667" r="4" fill="#0" id="circle58"/>
	<circle cx="709.422" cy="370.489" r="4" fill="#0" id="circle59"/>
	<circle cx="717.689" cy="103.2" r="4" fill="#0" id="circle60"/>
	<circle cx="736.978" cy="370.489" r="4" fill="#0" id="circle61"/>
	<circle cx="739.733" cy="119.733" r="4" fill="#0" id="circle62"/>
	<circle cx="759.022" cy="141.778" r="4" fill="#0" id="circle63"/>
	<circle cx="761.778" cy="356.711" r="4" fill="#0" id="circle64"/>
	<circle cx="775.556" cy="331.911" r="4" fill="#0" id="circle65"/>
	<circle cx="781.067" cy="161.067" r="4" fill="#0" id="circle66"/>
	<circle cx="783.822" cy="279.556" r="4" fill="#0" id="circle67"/>
	<circle cx="794.844" cy="185.867" r="4" fill="#0" id="circle68"/>
	<circle cx="811.378" cy="276.8" r="4" fill="#0" id="circle69"/>
	<circle cx="822.4" cy="183.111" r="4" fill="#0" id="circle70"/>
	<circle cx="838.933" cy="287.822" r="4" fill="#0" id="circle71"/>
	<circle cx="847.2" cy="169.333" r="4" fill="#0" id="circle72"/>
	<circle cx="860.978" cy="304.356" r="4" fill="#0" id="circle73"/>
	<circle cx="874.756" cy="158.311" r="4" fill="#0" id="circle74"/>
	<circle cx="888.533" cy="315.378" r="4" fill="#0" id="circle75"/>
	<circle cx="902.311" cy="147.289" r="4" fill="#0" id="circle76"/>
	<circle cx="916.089" cy="326.4" r="4" fill="#0" id="circle77"/>
	<circle cx="929.867" cy="136.267" r="4" fill="#0" id="circle78"/>
	<circle cx="943.644" cy="337.422" r="4" fill="#0" id="circle79"/>
	<circle cx="957.422" cy="130.756" r="4" fill="#0" id="circle80"/>
	<circle cx="971.2" cy="342.933" r="4" fill="#0" id="circle81"/>
	<circle cx="982.222" cy="202.4" r="4" fill="#0" id="circle82"/>
	<circle cx="982.222" cy="229.956" r="4" fill="#0" id="circle83"/>
	<circle cx="982.222" cy="257.511" r="4" fill="#0" id="circle84"/>
	<circle cx="984.978" cy="125.244" r="4" fill="#0" id="circle85"/>
	<circle cx="987.733" cy="285.067" r="4" fill="#0" id="circle86"/>
	<circle cx="993.244" cy="163.822" r="4" fill="#0" id="circle87"/>
	<circle cx="996" cy="312.622" r="4" fill="#0" id="circle88"/>
	</g>
</svg>