<?xml version="1.0" encoding="UTF-8" standalone="no"?>
<!-- Created with CurveBenchmark -->
<svg
	xmlns:dc="http://purl.org/dc/elements/1.1/"
	xmlns:cc="http://creativecommons.org/ns#"
	xmlns:rdf="http://www.w3.org/1999/02/22-rdf-syntax-ns#"
	xmlns:svg="http://www.w3.org/2000/svg"
	xmlns="http://www.w3.org/2000/svg"
	xmlns:sodipodi="http://sodipodi.sourceforge.net/DTD/sodipodi-0.dtd"
	xmlns:inkscape="http://www.inkscape.org/namespaces/inkscape"
	width="1000"
	height="1000"
	id="svg2"
	version="1.1"
	sodipodi:docname="manifold/ccrust-fish125.png.txt">
<defs
	id="defs4" />
<metadata
	id="metadata7">
	<rdf:RDF>
		<cc:Work
			rdf:about="">
			<dc:format>image/svg+xml</dc:format>
			<dc:type
				rdf:resource="http://purl.org/dc/dcmitype/StillImage" />
			<dc:title></dc:title>
		</cc:Work>
	</rdf:RDF>
</metadata>
<g
	inkscape:label="Layer 1"
	inkscape:groupmode="layer"
	id="layer1">
	<path style="fill:none;stroke:red;stroke-width:1px;stroke-linecap:butt;stroke-linejoin:miter;stroke-opacity:1" d="M 13.3585,261.358 4,214.566 z" id="boundary" inkscape:connector-curvature="0" />
	<path style="fill:none;stroke:red;stroke-width:1px;stroke-linecap:butt;stroke-linejoin:miter;stroke-opacity:1" d="M 4,214.566 50.7925,200.528 z" id="boundary" inkscape:connector-curvature="0" />
	<path style="fill:none;stroke:red;stroke-width:1px;stroke-linecap:butt;stroke-linejoin:miter;stroke-opacity:1" d="M 50.7925,200.528 97.5849,219.245 z" id="boundary" inkscape:connector-curvature="0" />
	<path style="fill:none;stroke:red;stroke-width:1px;stroke-linecap:butt;stroke-linejoin:miter;stroke-opacity:1" d="M 135.019,247.321 97.5849,219.245 z" id="boundary" inkscape:connector-curvature="0" />
	<path style="fill:none;stroke:red;stroke-width:1px;stroke-linecap:butt;stroke-linejoin:miter;stroke-opacity:1" d="M 13.3585,261.358 22.717,308.151 z" id="boundary" inkscape:connector-curvature="0" />
	<path style="fill:none;stroke:red;stroke-width:1px;stroke-linecap:butt;stroke-linejoin:miter;stroke-opacity:1" d="M 22.717,308.151 22.717,354.943 z" id="boundary" inkscape:connector-curvature="0" />
	<path style="fill:none;stroke:red;stroke-width:1px;stroke-linecap:butt;stroke-linejoin:miter;stroke-opacity:1" d="M 135.019,247.321 172.453,275.396 z" id="boundary" inkscape:connector-curvature="0" />
	<path style="fill:none;stroke:red;stroke-width:1px;stroke-linecap:butt;stroke-linejoin:miter;stroke-opacity:1" d="M 219.245,261.358 172.453,275.396 z" id="boundary" inkscape:connector-curvature="0" />
	<path style="fill:none;stroke:red;stroke-width:1px;stroke-linecap:butt;stroke-linejoin:miter;stroke-opacity:1" d="M 294.113,139.698 340.906,120.981 z" id="boundary" inkscape:connector-curvature="0" />
	<path style="fill:none;stroke:red;stroke-width:1px;stroke-linecap:butt;stroke-linejoin:miter;stroke-opacity:1" d="M 340.906,120.981 378.34,149.057 z" id="boundary" inkscape:connector-curvature="0" />
	<path style="fill:none;stroke:red;stroke-width:1px;stroke-linecap:butt;stroke-linejoin:miter;stroke-opacity:1" d="M 453.208,111.623 425.132,149.057 z" id="boundary" inkscape:connector-curvature="0" />
	<path style="fill:none;stroke:red;stroke-width:1px;stroke-linecap:butt;stroke-linejoin:miter;stroke-opacity:1" d="M 425.132,149.057 378.34,149.057 z" id="boundary" inkscape:connector-curvature="0" />
	<path style="fill:none;stroke:red;stroke-width:1px;stroke-linecap:butt;stroke-linejoin:miter;stroke-opacity:1" d="M 490.642,74.1887 453.208,111.623 z" id="boundary" inkscape:connector-curvature="0" />
	<path style="fill:none;stroke:red;stroke-width:1px;stroke-linecap:butt;stroke-linejoin:miter;stroke-opacity:1" d="M 266.038,177.132 294.113,139.698 z" id="boundary" inkscape:connector-curvature="0" />
	<path style="fill:none;stroke:red;stroke-width:1px;stroke-linecap:butt;stroke-linejoin:miter;stroke-opacity:1" d="M 219.245,261.358 242.642,219.245 z" id="boundary" inkscape:connector-curvature="0" />
	<path style="fill:none;stroke:red;stroke-width:1px;stroke-linecap:butt;stroke-linejoin:miter;stroke-opacity:1" d="M 242.642,219.245 266.038,177.132 z" id="boundary" inkscape:connector-curvature="0" />
	<path style="fill:none;stroke:red;stroke-width:1px;stroke-linecap:butt;stroke-linejoin:miter;stroke-opacity:1" d="M 13.3585,485.962 22.717,401.736 z" id="boundary" inkscape:connector-curvature="0" />
	<path style="fill:none;stroke:red;stroke-width:1px;stroke-linecap:butt;stroke-linejoin:miter;stroke-opacity:1" d="M 13.3585,485.962 4,532.755 z" id="boundary" inkscape:connector-curvature="0" />
	<path style="fill:none;stroke:red;stroke-width:1px;stroke-linecap:butt;stroke-linejoin:miter;stroke-opacity:1" d="M 130.34,514.038 167.774,476.604 z" id="boundary" inkscape:connector-curvature="0" />
	<path style="fill:none;stroke:red;stroke-width:1px;stroke-linecap:butt;stroke-linejoin:miter;stroke-opacity:1" d="M 22.717,401.736 22.717,354.943 z" id="boundary" inkscape:connector-curvature="0" />
	<path style="fill:none;stroke:red;stroke-width:1px;stroke-linecap:butt;stroke-linejoin:miter;stroke-opacity:1" d="M 209.887,453.208 167.774,476.604 z" id="boundary" inkscape:connector-curvature="0" />
	<path style="fill:none;stroke:red;stroke-width:1px;stroke-linecap:butt;stroke-linejoin:miter;stroke-opacity:1" d="M 46.1132,556.151 4,532.755 z" id="boundary" inkscape:connector-curvature="0" />
	<path style="fill:none;stroke:red;stroke-width:1px;stroke-linecap:butt;stroke-linejoin:miter;stroke-opacity:1" d="M 92.9057,542.113 130.34,514.038 z" id="boundary" inkscape:connector-curvature="0" />
	<path style="fill:none;stroke:red;stroke-width:1px;stroke-linecap:butt;stroke-linejoin:miter;stroke-opacity:1" d="M 92.9057,542.113 46.1132,556.151 z" id="boundary" inkscape:connector-curvature="0" />
	<path style="fill:none;stroke:red;stroke-width:1px;stroke-linecap:butt;stroke-linejoin:miter;stroke-opacity:1" d="M 209.887,453.208 219.245,500 z" id="boundary" inkscape:connector-curvature="0" />
	<path style="fill:none;stroke:red;stroke-width:1px;stroke-linecap:butt;stroke-linejoin:miter;stroke-opacity:1" d="M 219.245,500 228.604,546.792 z" id="boundary" inkscape:connector-curvature="0" />
	<path style="fill:none;stroke:red;stroke-width:1px;stroke-linecap:butt;stroke-linejoin:miter;stroke-opacity:1" d="M 368.981,565.509 331.547,593.585 z" id="boundary" inkscape:connector-curvature="0" />
	<path style="fill:none;stroke:red;stroke-width:1px;stroke-linecap:butt;stroke-linejoin:miter;stroke-opacity:1" d="M 415.774,574.868 368.981,565.509 z" id="boundary" inkscape:connector-curvature="0" />
	<path style="fill:none;stroke:red;stroke-width:1px;stroke-linecap:butt;stroke-linejoin:miter;stroke-opacity:1" d="M 237.962,593.585 284.755,602.943 z" id="boundary" inkscape:connector-curvature="0" />
	<path style="fill:none;stroke:red;stroke-width:1px;stroke-linecap:butt;stroke-linejoin:miter;stroke-opacity:1" d="M 237.962,593.585 228.604,546.792 z" id="boundary" inkscape:connector-curvature="0" />
	<path style="fill:none;stroke:red;stroke-width:1px;stroke-linecap:butt;stroke-linejoin:miter;stroke-opacity:1" d="M 331.547,593.585 284.755,602.943 z" id="boundary" inkscape:connector-curvature="0" />
	<path style="fill:none;stroke:red;stroke-width:1px;stroke-linecap:butt;stroke-linejoin:miter;stroke-opacity:1" d="M 415.774,574.868 462.566,574.868 z" id="boundary" inkscape:connector-curvature="0" />
	<path style="fill:none;stroke:red;stroke-width:1px;stroke-linecap:butt;stroke-linejoin:miter;stroke-opacity:1" d="M 471.925,635.698 453.208,710.566 z" id="boundary" inkscape:connector-curvature="0" />
	<path style="fill:none;stroke:red;stroke-width:1px;stroke-linecap:butt;stroke-linejoin:miter;stroke-opacity:1" d="M 453.208,710.566 476.604,752.679 z" id="boundary" inkscape:connector-curvature="0" />
	<path style="fill:none;stroke:red;stroke-width:1px;stroke-linecap:butt;stroke-linejoin:miter;stroke-opacity:1" d="M 532.755,50.7925 574.868,27.3962 z" id="boundary" inkscape:connector-curvature="0" />
	<path style="fill:none;stroke:red;stroke-width:1px;stroke-linecap:butt;stroke-linejoin:miter;stroke-opacity:1" d="M 616.981,4 654.415,32.0755 z" id="boundary" inkscape:connector-curvature="0" />
	<path style="fill:none;stroke:red;stroke-width:1px;stroke-linecap:butt;stroke-linejoin:miter;stroke-opacity:1" d="M 574.868,27.3962 616.981,4 z" id="boundary" inkscape:connector-curvature="0" />
	<path style="fill:none;stroke:red;stroke-width:1px;stroke-linecap:butt;stroke-linejoin:miter;stroke-opacity:1" d="M 654.415,32.0755 677.811,74.1887 z" id="boundary" inkscape:connector-curvature="0" />
	<path style="fill:none;stroke:red;stroke-width:1px;stroke-linecap:butt;stroke-linejoin:miter;stroke-opacity:1" d="M 490.642,74.1887 532.755,50.7925 z" id="boundary" inkscape:connector-curvature="0" />
	<path style="fill:none;stroke:red;stroke-width:1px;stroke-linecap:butt;stroke-linejoin:miter;stroke-opacity:1" d="M 677.811,74.1887 691.849,139.698 z" id="boundary" inkscape:connector-curvature="0" />
	<path style="fill:none;stroke:red;stroke-width:1px;stroke-linecap:butt;stroke-linejoin:miter;stroke-opacity:1" d="M 691.849,139.698 729.283,167.774 z" id="boundary" inkscape:connector-curvature="0" />
	<path style="fill:none;stroke:red;stroke-width:1px;stroke-linecap:butt;stroke-linejoin:miter;stroke-opacity:1" d="M 776.075,177.132 729.283,167.774 z" id="boundary" inkscape:connector-curvature="0" />
	<path style="fill:none;stroke:red;stroke-width:1px;stroke-linecap:butt;stroke-linejoin:miter;stroke-opacity:1" d="M 504.679,598.264 462.566,574.868 z" id="boundary" inkscape:connector-curvature="0" />
	<path style="fill:none;stroke:red;stroke-width:1px;stroke-linecap:butt;stroke-linejoin:miter;stroke-opacity:1" d="M 813.509,205.208 776.075,177.132 z" id="boundary" inkscape:connector-curvature="0" />
	<path style="fill:none;stroke:red;stroke-width:1px;stroke-linecap:butt;stroke-linejoin:miter;stroke-opacity:1" d="M 860.302,223.925 813.509,205.208 z" id="boundary" inkscape:connector-curvature="0" />
	<path style="fill:none;stroke:red;stroke-width:1px;stroke-linecap:butt;stroke-linejoin:miter;stroke-opacity:1" d="M 860.302,223.925 907.094,233.283 z" id="boundary" inkscape:connector-curvature="0" />
	<path style="fill:none;stroke:red;stroke-width:1px;stroke-linecap:butt;stroke-linejoin:miter;stroke-opacity:1" d="M 907.094,233.283 939.849,270.717 z" id="boundary" inkscape:connector-curvature="0" />
	<path style="fill:none;stroke:red;stroke-width:1px;stroke-linecap:butt;stroke-linejoin:miter;stroke-opacity:1" d="M 939.849,270.717 967.925,308.151 z" id="boundary" inkscape:connector-curvature="0" />
	<path style="fill:none;stroke:red;stroke-width:1px;stroke-linecap:butt;stroke-linejoin:miter;stroke-opacity:1" d="M 996,345.585 977.283,425.132 z" id="boundary" inkscape:connector-curvature="0" />
	<path style="fill:none;stroke:red;stroke-width:1px;stroke-linecap:butt;stroke-linejoin:miter;stroke-opacity:1" d="M 967.925,308.151 996,345.585 z" id="boundary" inkscape:connector-curvature="0" />
	<path style="fill:none;stroke:red;stroke-width:1px;stroke-linecap:butt;stroke-linejoin:miter;stroke-opacity:1" d="M 471.925,635.698 504.679,598.264 z" id="boundary" inkscape:connector-curvature="0" />
	<path style="fill:none;stroke:red;stroke-width:1px;stroke-linecap:butt;stroke-linejoin:miter;stroke-opacity:1" d="M 588.906,673.132 635.698,687.17 z" id="boundary" inkscape:connector-curvature="0" />
	<path style="fill:none;stroke:red;stroke-width:1px;stroke-linecap:butt;stroke-linejoin:miter;stroke-opacity:1" d="M 560.83,710.566 588.906,673.132 z" id="boundary" inkscape:connector-curvature="0" />
	<path style="fill:none;stroke:red;stroke-width:1px;stroke-linecap:butt;stroke-linejoin:miter;stroke-opacity:1" d="M 476.604,752.679 523.396,738.642 z" id="boundary" inkscape:connector-curvature="0" />
	<path style="fill:none;stroke:red;stroke-width:1px;stroke-linecap:butt;stroke-linejoin:miter;stroke-opacity:1" d="M 523.396,738.642 560.83,710.566 z" id="boundary" inkscape:connector-curvature="0" />
	<path style="fill:none;stroke:red;stroke-width:1px;stroke-linecap:butt;stroke-linejoin:miter;stroke-opacity:1" d="M 635.698,687.17 663.774,724.604 z" id="boundary" inkscape:connector-curvature="0" />
	<path style="fill:none;stroke:red;stroke-width:1px;stroke-linecap:butt;stroke-linejoin:miter;stroke-opacity:1" d="M 663.774,724.604 696.528,762.038 z" id="boundary" inkscape:connector-curvature="0" />
	<path style="fill:none;stroke:red;stroke-width:1px;stroke-linecap:butt;stroke-linejoin:miter;stroke-opacity:1" d="M 832.226,551.472 879.019,532.755 z" id="boundary" inkscape:connector-curvature="0" />
	<path style="fill:none;stroke:red;stroke-width:1px;stroke-linecap:butt;stroke-linejoin:miter;stroke-opacity:1" d="M 921.132,509.358 958.566,471.925 z" id="boundary" inkscape:connector-curvature="0" />
	<path style="fill:none;stroke:red;stroke-width:1px;stroke-linecap:butt;stroke-linejoin:miter;stroke-opacity:1" d="M 921.132,509.358 879.019,532.755 z" id="boundary" inkscape:connector-curvature="0" />
	<path style="fill:none;stroke:red;stroke-width:1px;stroke-linecap:butt;stroke-linejoin:miter;stroke-opacity:1" d="M 790.113,574.868 748,598.264 z" id="boundary" inkscape:connector-curvature="0" />
	<path style="fill:none;stroke:red;stroke-width:1px;stroke-linecap:butt;stroke-linejoin:miter;stroke-opacity:1" d="M 738.642,719.925 696.528,762.038 z" id="boundary" inkscape:connector-curvature="0" />
	<path style="fill:none;stroke:red;stroke-width:1px;stroke-linecap:butt;stroke-linejoin:miter;stroke-opacity:1" d="M 757.358,645.057 748,598.264 z" id="boundary" inkscape:connector-curvature="0" />
	<path style="fill:none;stroke:red;stroke-width:1px;stroke-linecap:butt;stroke-linejoin:miter;stroke-opacity:1" d="M 790.113,574.868 832.226,551.472 z" id="boundary" inkscape:connector-curvature="0" />
	<path style="fill:none;stroke:red;stroke-width:1px;stroke-linecap:butt;stroke-linejoin:miter;stroke-opacity:1" d="M 757.358,645.057 738.642,719.925 z" id="boundary" inkscape:connector-curvature="0" />
	<path style="fill:none;stroke:red;stroke-width:1px;stroke-linecap:butt;stroke-linejoin:miter;stroke-opacity:1" d="M 977.283,425.132 958.566,471.925 z" id="boundary" inkscape:connector-curvature="0" />
	<circle cx="4" cy="214.566" r="4" fill="#0" id="circle0"/>
	<circle cx="4" cy="532.755" r="4" fill="#0" id="circle1"/>
	<circle cx="13.3585" cy="261.358" r="4" fill="#0" id="circle2"/>
	<circle cx="13.3585" cy="485.962" r="4" fill="#0" id="circle3"/>
	<circle cx="22.717" cy="308.151" r="4" fill="#0" id="circle4"/>
	<circle cx="22.717" cy="354.943" r="4" fill="#0" id="circle5"/>
	<circle cx="22.717" cy="401.736" r="4" fill="#0" id="circle6"/>
	<circle cx="46.1132" cy="556.151" r="4" fill="#0" id="circle7"/>
	<circle cx="50.7925" cy="200.528" r="4" fill="#0" id="circle8"/>
	<circle cx="92.9057" cy="542.113" r="4" fill="#0" id="circle9"/>
	<circle cx="97.5849" cy="219.245" r="4" fill="#0" id="circle10"/>
	<circle cx="130.34" cy="514.038" r="4" fill="#0" id="circle11"/>
	<circle cx="135.019" cy="247.321" r="4" fill="#0" id="circle12"/>
	<circle cx="167.774" cy="476.604" r="4" fill="#0" id="circle13"/>
	<circle cx="172.453" cy="275.396" r="4" fill="#0" id="circle14"/>
	<circle cx="209.887" cy="453.208" r="4" fill="#0" id="circle15"/>
	<circle cx="219.245" cy="261.358" r="4" fill="#0" id="circle16"/>
	<circle cx="219.245" cy="500" r="4" fill="#0" id="circle17"/>
	<circle cx="228.604" cy="546.792" r="4" fill="#0" id="circle18"/>
	<circle cx="237.962" cy="593.585" r="4" fill="#0" id="circle19"/>
	<circle cx="242.642" cy="219.245" r="4" fill="#0" id="circle20"/>
	<circle cx="266.038" cy="177.132" r="4" fill="#0" id="circle21"/>
	<circle cx="284.755" cy="602.943" r="4" fill="#0" id="circle22"/>
	<circle cx="294.113" cy="139.698" r="4" fill="#0" id="circle23"/>
	<circle cx="331.547" cy="593.585" r="4" fill="#0" id="circle24"/>
	<circle cx="340.906" cy="120.981" r="4" fill="#0" id="circle25"/>
	<circle cx="368.981" cy="565.509" r="4" fill="#0" id="circle26"/>
	<circle cx="378.34" cy="149.057" r="4" fill="#0" id="circle27"/>
	<circle cx="415.774" cy="574.868" r="4" fill="#0" id="circle28"/>
	<circle cx="425.132" cy="149.057" r="4" fill="#0" id="circle29"/>
	<circle cx="453.208" cy="111.623" r="4" fill="#0" id="circle30"/>
	<circle cx="453.208" cy="710.566" r="4" fill="#0" id="circle31"/>
	<circle cx="462.566" cy="574.868" r="4" fill="#0" id="circle32"/>
	<circle cx="471.925" cy="635.698" r="4" fill="#0" id="circle33"/>
	<circle cx="476.604" cy="752.679" r="4" fill="#0" id="circle34"/>
	<circle cx="490.642" cy="74.1887" r="4" fill="#0" id="circle35"/>
	<circle cx="504.679" cy="598.264" r="4" fill="#0" id="circle36"/>
	<circle cx="523.396" cy="738.642" r="4" fill="#0" id="circle37"/>
	<circle cx="532.755" cy="50.7925" r="4" fill="#0" id="circle38"/>
	<circle cx="560.83" cy="710.566" r="4" fill="#0" id="circle39"/>
	<circle cx="574.868" cy="27.3962" r="4" fill="#0" id="circle40"/>
	<circle cx="588.906" cy="673.132" r="4" fill="#0" id="circle41"/>
	<circle cx="616.981" cy="4" r="4" fill="#0" id="circle42"/>
	<circle cx="635.698" cy="687.17" r="4" fill="#0" id="circle43"/>
	<circle cx="654.415" cy="32.0755" r="4" fill="#0" id="circle44"/>
	<circle cx="663.774" cy="724.604" r="4" fill="#0" id="circle45"/>
	<circle cx="677.811" cy="74.1887" r="4" fill="#0" id="circle46"/>
	<circle cx="691.849" cy="139.698" r="4" fill="#0" id="circle47"/>
	<circle cx="696.528" cy="762.038" r="4" fill="#0" id="circle48"/>
	<circle cx="729.283" cy="167.774" r="4" fill="#0" id="circle49"/>
	<circle cx="738.642" cy="719.925" r="4" fill="#0" id="circle50"/>
	<circle cx="748" cy="598.264" r="4" fill="#0" id="circle51"/>
	<circle cx="757.358" cy="645.057" r="4" fill="#0" id="circle52"/>
	<circle cx="776.075" cy="177.132" r="4" fill="#0" id="circle53"/>
	<circle cx="790.113" cy="574.868" r="4" fill="#0" id="circle54"/>
	<circle cx="813.509" cy="205.208" r="4" fill="#0" id="circle55"/>
	<circle cx="832.226" cy="551.472" r="4" fill="#0" id="circle56"/>
	<circle cx="860.302" cy="223.925" r="4" fill="#0" id="circle57"/>
	<circle cx="879.019" cy="532.755" r="4" fill="#0" id="circle58"/>
	<circle cx="907.094" cy="233.283" r="4" fill="#0" id="circle59"/>
	<circle cx="921.132" cy="509.358" r="4" fill="#0" id="circle60"/>
	<circle cx="939.849" cy="270.717" r="4" fill="#0" id="circle61"/>
	<circle cx="958.566" cy="471.925" r="4" fill="#0" id="circle62"/>
	<circle cx="967.925" cy="308.151" r="4" fill="#0" id="circle63"/>
	<circle cx="977.283" cy="425.132" r="4" fill="#0" id="circle64"/>
	<circle cx="996" cy="345.585" r="4" fill="#0" id="circle65"/>
	</g>
</svg>