<?xml version="1.0" encoding="UTF-8" standalone="no"?>
<!-- Created with CurveBenchmark -->
<svg
	xmlns:dc="http://purl.org/dc/elements/1.1/"
	xmlns:cc="http://creativecommons.org/ns#"
	xmlns:rdf="http://www.w3.org/1999/02/22-rdf-syntax-ns#"
	xmlns:svg="http://www.w3.org/2000/svg"
	xmlns="http://www.w3.org/2000/svg"
	xmlns:sodipodi="http://sodipodi.sourceforge.net/DTD/sodipodi-0.dtd"
	xmlns:inkscape="http://www.inkscape.org/namespaces/inkscape"
	width="1000"
	height="1000"
	id="svg2"
	version="1.1"
	sodipodi:docname="manifold/ccrust-sink215.png.txt">
<defs
	id="defs4" />
<metadata
	id="metadata7">
	<rdf:RDF>
		<cc:Work
			rdf:about="">
			<dc:format>image/svg+xml</dc:format>
			<dc:type
				rdf:resource="http://purl.org/dc/dcmitype/StillImage" />
			<dc:title></dc:title>
		</cc:Work>
	</rdf:RDF>
</metadata>
<g
	inkscape:label="Layer 1"
	inkscape:groupmode="layer"
	id="layer1">
	<path style="fill:none;stroke:red;stroke-width:1px;stroke-linecap:butt;stroke-linejoin:miter;stroke-opacity:1" d="M 4,304.02 33.0341,265.307 z" id="boundary" inkscape:connector-curvature="0" />
	<path style="fill:none;stroke:red;stroke-width:1px;stroke-linecap:butt;stroke-linejoin:miter;stroke-opacity:1" d="M 129.815,265.307 81.4244,265.307 z" id="boundary" inkscape:connector-curvature="0" />
	<path style="fill:none;stroke:red;stroke-width:1px;stroke-linecap:butt;stroke-linejoin:miter;stroke-opacity:1" d="M 33.0341,265.307 81.4244,265.307 z" id="boundary" inkscape:connector-curvature="0" />
	<path style="fill:none;stroke:red;stroke-width:1px;stroke-linecap:butt;stroke-linejoin:miter;stroke-opacity:1" d="M 52.3902,318.537 91.1024,347.571 z" id="boundary" inkscape:connector-curvature="0" />
	<path style="fill:none;stroke:red;stroke-width:1px;stroke-linecap:butt;stroke-linejoin:miter;stroke-opacity:1" d="M 91.1024,347.571 110.459,395.961 z" id="boundary" inkscape:connector-curvature="0" />
	<path style="fill:none;stroke:red;stroke-width:1px;stroke-linecap:butt;stroke-linejoin:miter;stroke-opacity:1" d="M 110.459,395.961 120.137,444.351 z" id="boundary" inkscape:connector-curvature="0" />
	<path style="fill:none;stroke:red;stroke-width:1px;stroke-linecap:butt;stroke-linejoin:miter;stroke-opacity:1" d="M 120.137,444.351 120.137,492.741 z" id="boundary" inkscape:connector-curvature="0" />
	<path style="fill:none;stroke:red;stroke-width:1px;stroke-linecap:butt;stroke-linejoin:miter;stroke-opacity:1" d="M 178.205,265.307 129.815,265.307 z" id="boundary" inkscape:connector-curvature="0" />
	<path style="fill:none;stroke:red;stroke-width:1px;stroke-linecap:butt;stroke-linejoin:miter;stroke-opacity:1" d="M 226.595,265.307 265.307,226.595 z" id="boundary" inkscape:connector-curvature="0" />
	<path style="fill:none;stroke:red;stroke-width:1px;stroke-linecap:butt;stroke-linejoin:miter;stroke-opacity:1" d="M 284.663,178.205 265.307,226.595 z" id="boundary" inkscape:connector-curvature="0" />
	<path style="fill:none;stroke:red;stroke-width:1px;stroke-linecap:butt;stroke-linejoin:miter;stroke-opacity:1" d="M 178.205,265.307 226.595,265.307 z" id="boundary" inkscape:connector-curvature="0" />
	<path style="fill:none;stroke:red;stroke-width:1px;stroke-linecap:butt;stroke-linejoin:miter;stroke-opacity:1" d="M 337.893,458.868 289.502,468.546 z" id="boundary" inkscape:connector-curvature="0" />
	<path style="fill:none;stroke:red;stroke-width:1px;stroke-linecap:butt;stroke-linejoin:miter;stroke-opacity:1" d="M 289.502,468.546 289.502,516.937 z" id="boundary" inkscape:connector-curvature="0" />
	<path style="fill:none;stroke:red;stroke-width:1px;stroke-linecap:butt;stroke-linejoin:miter;stroke-opacity:1" d="M 284.663,178.205 333.054,168.527 z" id="boundary" inkscape:connector-curvature="0" />
	<path style="fill:none;stroke:red;stroke-width:1px;stroke-linecap:butt;stroke-linejoin:miter;stroke-opacity:1" d="M 120.137,492.741 120.137,541.132 z" id="boundary" inkscape:connector-curvature="0" />
	<path style="fill:none;stroke:red;stroke-width:1px;stroke-linecap:butt;stroke-linejoin:miter;stroke-opacity:1" d="M 120.137,589.522 120.137,637.912 z" id="boundary" inkscape:connector-curvature="0" />
	<path style="fill:none;stroke:red;stroke-width:1px;stroke-linecap:butt;stroke-linejoin:miter;stroke-opacity:1" d="M 120.137,589.522 120.137,541.132 z" id="boundary" inkscape:connector-curvature="0" />
	<path style="fill:none;stroke:red;stroke-width:1px;stroke-linecap:butt;stroke-linejoin:miter;stroke-opacity:1" d="M 120.137,637.912 120.137,686.302 z" id="boundary" inkscape:connector-curvature="0" />
	<path style="fill:none;stroke:red;stroke-width:1px;stroke-linecap:butt;stroke-linejoin:miter;stroke-opacity:1" d="M 144.332,996 95.9415,996 z" id="boundary" inkscape:connector-curvature="0" />
	<path style="fill:none;stroke:red;stroke-width:1px;stroke-linecap:butt;stroke-linejoin:miter;stroke-opacity:1" d="M 95.9415,996 71.7463,952.449 z" id="boundary" inkscape:connector-curvature="0" />
	<path style="fill:none;stroke:red;stroke-width:1px;stroke-linecap:butt;stroke-linejoin:miter;stroke-opacity:1" d="M 71.7463,952.449 100.78,904.059 z" id="boundary" inkscape:connector-curvature="0" />
	<path style="fill:none;stroke:red;stroke-width:1px;stroke-linecap:butt;stroke-linejoin:miter;stroke-opacity:1" d="M 120.137,831.473 100.78,904.059 z" id="boundary" inkscape:connector-curvature="0" />
	<path style="fill:none;stroke:red;stroke-width:1px;stroke-linecap:butt;stroke-linejoin:miter;stroke-opacity:1" d="M 120.137,686.302 120.137,734.693 z" id="boundary" inkscape:connector-curvature="0" />
	<path style="fill:none;stroke:red;stroke-width:1px;stroke-linecap:butt;stroke-linejoin:miter;stroke-opacity:1" d="M 120.137,734.693 120.137,783.083 z" id="boundary" inkscape:connector-curvature="0" />
	<path style="fill:none;stroke:red;stroke-width:1px;stroke-linecap:butt;stroke-linejoin:miter;stroke-opacity:1" d="M 289.502,565.327 289.502,516.937 z" id="boundary" inkscape:connector-curvature="0" />
	<path style="fill:none;stroke:red;stroke-width:1px;stroke-linecap:butt;stroke-linejoin:miter;stroke-opacity:1" d="M 120.137,831.473 120.137,783.083 z" id="boundary" inkscape:connector-curvature="0" />
	<path style="fill:none;stroke:red;stroke-width:1px;stroke-linecap:butt;stroke-linejoin:miter;stroke-opacity:1" d="M 192.722,996 144.332,996 z" id="boundary" inkscape:connector-curvature="0" />
	<path style="fill:none;stroke:red;stroke-width:1px;stroke-linecap:butt;stroke-linejoin:miter;stroke-opacity:1" d="M 241.112,996 192.722,996 z" id="boundary" inkscape:connector-curvature="0" />
	<path style="fill:none;stroke:red;stroke-width:1px;stroke-linecap:butt;stroke-linejoin:miter;stroke-opacity:1" d="M 289.502,565.327 289.502,613.717 z" id="boundary" inkscape:connector-curvature="0" />
	<path style="fill:none;stroke:red;stroke-width:1px;stroke-linecap:butt;stroke-linejoin:miter;stroke-opacity:1" d="M 323.376,23.3561 371.766,4 z" id="boundary" inkscape:connector-curvature="0" />
	<path style="fill:none;stroke:red;stroke-width:1px;stroke-linecap:butt;stroke-linejoin:miter;stroke-opacity:1" d="M 371.766,4 410.478,37.8732 z" id="boundary" inkscape:connector-curvature="0" />
	<path style="fill:none;stroke:red;stroke-width:1px;stroke-linecap:butt;stroke-linejoin:miter;stroke-opacity:1" d="M 294.341,62.0683 323.376,23.3561 z" id="boundary" inkscape:connector-curvature="0" />
	<path style="fill:none;stroke:red;stroke-width:1px;stroke-linecap:butt;stroke-linejoin:miter;stroke-opacity:1" d="M 333.054,168.527 381.444,168.527 z" id="boundary" inkscape:connector-curvature="0" />
	<path style="fill:none;stroke:red;stroke-width:1px;stroke-linecap:butt;stroke-linejoin:miter;stroke-opacity:1" d="M 381.444,168.527 429.834,168.527 z" id="boundary" inkscape:connector-curvature="0" />
	<path style="fill:none;stroke:red;stroke-width:1px;stroke-linecap:butt;stroke-linejoin:miter;stroke-opacity:1" d="M 449.19,120.137 449.19,71.7463 z" id="boundary" inkscape:connector-curvature="0" />
	<path style="fill:none;stroke:red;stroke-width:1px;stroke-linecap:butt;stroke-linejoin:miter;stroke-opacity:1" d="M 531.454,168.527 483.063,158.849 z" id="boundary" inkscape:connector-curvature="0" />
	<path style="fill:none;stroke:red;stroke-width:1px;stroke-linecap:butt;stroke-linejoin:miter;stroke-opacity:1" d="M 410.478,37.8732 449.19,71.7463 z" id="boundary" inkscape:connector-curvature="0" />
	<path style="fill:none;stroke:red;stroke-width:1px;stroke-linecap:butt;stroke-linejoin:miter;stroke-opacity:1" d="M 570.166,197.561 570.166,245.951 z" id="boundary" inkscape:connector-curvature="0" />
	<path style="fill:none;stroke:red;stroke-width:1px;stroke-linecap:butt;stroke-linejoin:miter;stroke-opacity:1" d="M 531.454,168.527 570.166,197.561 z" id="boundary" inkscape:connector-curvature="0" />
	<path style="fill:none;stroke:red;stroke-width:1px;stroke-linecap:butt;stroke-linejoin:miter;stroke-opacity:1" d="M 570.166,245.951 541.132,318.537 z" id="boundary" inkscape:connector-curvature="0" />
	<path style="fill:none;stroke:red;stroke-width:1px;stroke-linecap:butt;stroke-linejoin:miter;stroke-opacity:1" d="M 541.132,318.537 492.741,318.537 z" id="boundary" inkscape:connector-curvature="0" />
	<path style="fill:none;stroke:red;stroke-width:1px;stroke-linecap:butt;stroke-linejoin:miter;stroke-opacity:1" d="M 492.741,318.537 444.351,323.376 z" id="boundary" inkscape:connector-curvature="0" />
	<path style="fill:none;stroke:red;stroke-width:1px;stroke-linecap:butt;stroke-linejoin:miter;stroke-opacity:1" d="M 289.502,613.717 289.502,662.107 z" id="boundary" inkscape:connector-curvature="0" />
	<path style="fill:none;stroke:red;stroke-width:1px;stroke-linecap:butt;stroke-linejoin:miter;stroke-opacity:1" d="M 289.502,710.498 289.502,662.107 z" id="boundary" inkscape:connector-curvature="0" />
	<path style="fill:none;stroke:red;stroke-width:1px;stroke-linecap:butt;stroke-linejoin:miter;stroke-opacity:1" d="M 289.502,758.888 289.502,807.278 z" id="boundary" inkscape:connector-curvature="0" />
	<path style="fill:none;stroke:red;stroke-width:1px;stroke-linecap:butt;stroke-linejoin:miter;stroke-opacity:1" d="M 289.502,855.668 304.02,904.059 z" id="boundary" inkscape:connector-curvature="0" />
	<path style="fill:none;stroke:red;stroke-width:1px;stroke-linecap:butt;stroke-linejoin:miter;stroke-opacity:1" d="M 289.502,996 241.112,996 z" id="boundary" inkscape:connector-curvature="0" />
	<path style="fill:none;stroke:red;stroke-width:1px;stroke-linecap:butt;stroke-linejoin:miter;stroke-opacity:1" d="M 289.502,855.668 289.502,807.278 z" id="boundary" inkscape:connector-curvature="0" />
	<path style="fill:none;stroke:red;stroke-width:1px;stroke-linecap:butt;stroke-linejoin:miter;stroke-opacity:1" d="M 289.502,758.888 289.502,710.498 z" id="boundary" inkscape:connector-curvature="0" />
	<path style="fill:none;stroke:red;stroke-width:1px;stroke-linecap:butt;stroke-linejoin:miter;stroke-opacity:1" d="M 424.995,410.478 386.283,444.351 z" id="boundary" inkscape:connector-curvature="0" />
	<path style="fill:none;stroke:red;stroke-width:1px;stroke-linecap:butt;stroke-linejoin:miter;stroke-opacity:1" d="M 444.351,323.376 424.995,410.478 z" id="boundary" inkscape:connector-curvature="0" />
	<path style="fill:none;stroke:red;stroke-width:1px;stroke-linecap:butt;stroke-linejoin:miter;stroke-opacity:1" d="M 386.283,444.351 337.893,458.868 z" id="boundary" inkscape:connector-curvature="0" />
	<path style="fill:none;stroke:red;stroke-width:1px;stroke-linecap:butt;stroke-linejoin:miter;stroke-opacity:1" d="M 328.215,947.61 337.893,996 z" id="boundary" inkscape:connector-curvature="0" />
	<path style="fill:none;stroke:red;stroke-width:1px;stroke-linecap:butt;stroke-linejoin:miter;stroke-opacity:1" d="M 337.893,996 289.502,996 z" id="boundary" inkscape:connector-curvature="0" />
	<path style="fill:none;stroke:red;stroke-width:1px;stroke-linecap:butt;stroke-linejoin:miter;stroke-opacity:1" d="M 328.215,947.61 304.02,904.059 z" id="boundary" inkscape:connector-curvature="0" />
	<circle cx="4" cy="304.02" r="4" fill="#0" id="circle0"/>
	<circle cx="33.0341" cy="265.307" r="4" fill="#0" id="circle1"/>
	<circle cx="52.3902" cy="318.537" r="4" fill="#0" id="circle2"/>
	<circle cx="71.7463" cy="952.449" r="4" fill="#0" id="circle3"/>
	<circle cx="81.4244" cy="265.307" r="4" fill="#0" id="circle4"/>
	<circle cx="91.1024" cy="347.571" r="4" fill="#0" id="circle5"/>
	<circle cx="95.9415" cy="996" r="4" fill="#0" id="circle6"/>
	<circle cx="100.78" cy="904.059" r="4" fill="#0" id="circle7"/>
	<circle cx="110.459" cy="395.961" r="4" fill="#0" id="circle8"/>
	<circle cx="120.137" cy="444.351" r="4" fill="#0" id="circle9"/>
	<circle cx="120.137" cy="492.741" r="4" fill="#0" id="circle10"/>
	<circle cx="120.137" cy="541.132" r="4" fill="#0" id="circle11"/>
	<circle cx="120.137" cy="589.522" r="4" fill="#0" id="circle12"/>
	<circle cx="120.137" cy="637.912" r="4" fill="#0" id="circle13"/>
	<circle cx="120.137" cy="686.302" r="4" fill="#0" id="circle14"/>
	<circle cx="120.137" cy="734.693" r="4" fill="#0" id="circle15"/>
	<circle cx="120.137" cy="783.083" r="4" fill="#0" id="circle16"/>
	<circle cx="120.137" cy="831.473" r="4" fill="#0" id="circle17"/>
	<circle cx="129.815" cy="265.307" r="4" fill="#0" id="circle18"/>
	<circle cx="144.332" cy="996" r="4" fill="#0" id="circle19"/>
	<circle cx="178.205" cy="265.307" r="4" fill="#0" id="circle20"/>
	<circle cx="192.722" cy="996" r="4" fill="#0" id="circle21"/>
	<circle cx="226.595" cy="265.307" r="4" fill="#0" id="circle22"/>
	<circle cx="241.112" cy="996" r="4" fill="#0" id="circle23"/>
	<circle cx="265.307" cy="226.595" r="4" fill="#0" id="circle24"/>
	<circle cx="284.663" cy="178.205" r="4" fill="#0" id="circle25"/>
	<circle cx="289.502" cy="468.546" r="4" fill="#0" id="circle26"/>
	<circle cx="289.502" cy="516.937" r="4" fill="#0" id="circle27"/>
	<circle cx="289.502" cy="565.327" r="4" fill="#0" id="circle28"/>
	<circle cx="289.502" cy="613.717" r="4" fill="#0" id="circle29"/>
	<circle cx="289.502" cy="662.107" r="4" fill="#0" id="circle30"/>
	<circle cx="289.502" cy="710.498" r="4" fill="#0" id="circle31"/>
	<circle cx="289.502" cy="758.888" r="4" fill="#0" id="circle32"/>
	<circle cx="289.502" cy="807.278" r="4" fill="#0" id="circle33"/>
	<circle cx="289.502" cy="855.668" r="4" fill="#0" id="circle34"/>
	<circle cx="289.502" cy="996" r="4" fill="#0" id="circle35"/>
	<circle cx="294.341" cy="62.0683" r="4" fill="#0" id="circle36"/>
	<circle cx="304.02" cy="904.059" r="4" fill="#0" id="circle37"/>
	<circle cx="323.376" cy="23.3561" r="4" fill="#0" id="circle38"/>
	<circle cx="328.215" cy="947.61" r="4" fill="#0" id="circle39"/>
	<circle cx="333.054" cy="168.527" r="4" fill="#0" id="circle40"/>
	<circle cx="337.893" cy="458.868" r="4" fill="#0" id="circle41"/>
	<circle cx="337.893" cy="996" r="4" fill="#0" id="circle42"/>
	<circle cx="371.766" cy="4" r="4" fill="#0" id="circle43"/>
	<circle cx="381.444" cy="168.527" r="4" fill="#0" id="circle44"/>
	<circle cx="386.283" cy="444.351" r="4" fill="#0" id="circle45"/>
	<circle cx="410.478" cy="37.8732" r="4" fill="#0" id="circle46"/>
	<circle cx="424.995" cy="410.478" r="4" fill="#0" id="circle47"/>
	<circle cx="429.834" cy="168.527" r="4" fill="#0" id="circle48"/>
	<circle cx="444.351" cy="323.376" r="4" fill="#0" id="circle49"/>
	<circle cx="449.19" cy="71.7463" r="4" fill="#0" id="circle50"/>
	<circle cx="449.19" cy="120.137" r="4" fill="#0" id="circle51"/>
	<circle cx="483.063" cy="158.849" r="4" fill="#0" id="circle52"/>
	<circle cx="492.741" cy="318.537" r="4" fill="#0" id="circle53"/>
	<circle cx="531.454" cy="168.527" r="4" fill="#0" id="circle54"/>
	<circle cx="541.132" cy="318.537" r="4" fill="#0" id="circle55"/>
	<circle cx="570.166" cy="197.561" r="4" fill="#0" id="circle56"/>
	<circle cx="570.166" cy="245.951" r="4" fill="#0" id="circle57"/>
	</g>
</svg>