<?xml version="1.0" encoding="UTF-8" standalone="no"?>
<!-- Created with CurveBenchmark -->
<svg
	xmlns:dc="http://purl.org/dc/elements/1.1/"
	xmlns:cc="http://creativecommons.org/ns#"
	xmlns:rdf="http://www.w3.org/1999/02/22-rdf-syntax-ns#"
	xmlns:svg="http://www.w3.org/2000/svg"
	xmlns="http://www.w3.org/2000/svg"
	xmlns:sodipodi="http://sodipodi.sourceforge.net/DTD/sodipodi-0.dtd"
	xmlns:inkscape="http://www.inkscape.org/namespaces/inkscape"
	width="1000"
	height="1000"
	id="svg2"
	version="1.1"
	sodipodi:docname="manifold/ccrust-woodenspoonbinary23.png.txt">
<defs
	id="defs4" />
<metadata
	id="metadata7">
	<rdf:RDF>
		<cc:Work
			rdf:about="">
			<dc:format>image/svg+xml</dc:format>
			<dc:type
				rdf:resource="http://purl.org/dc/dcmitype/StillImage" />
			<dc:title></dc:title>
		</cc:Work>
	</rdf:RDF>
</metadata>
<g
	inkscape:label="Layer 1"
	inkscape:groupmode="layer"
	id="layer1">
	<path style="fill:none;stroke:red;stroke-width:1px;stroke-linecap:butt;stroke-linejoin:miter;stroke-opacity:1" d="M 6.10914,75.0078 11.0305,69.3834 z" id="boundary" inkscape:connector-curvature="0" />
	<path style="fill:none;stroke:red;stroke-width:1px;stroke-linecap:butt;stroke-linejoin:miter;stroke-opacity:1" d="M 11.0305,69.3834 18.0609,67.9773 z" id="boundary" inkscape:connector-curvature="0" />
	<path style="fill:none;stroke:red;stroke-width:1px;stroke-linecap:butt;stroke-linejoin:miter;stroke-opacity:1" d="M 25.0914,67.9773 18.0609,67.9773 z" id="boundary" inkscape:connector-curvature="0" />
	<path style="fill:none;stroke:red;stroke-width:1px;stroke-linecap:butt;stroke-linejoin:miter;stroke-opacity:1" d="M 39.1524,68.6804 32.1219,67.9773 z" id="boundary" inkscape:connector-curvature="0" />
	<path style="fill:none;stroke:red;stroke-width:1px;stroke-linecap:butt;stroke-linejoin:miter;stroke-opacity:1" d="M 46.1828,68.6804 39.1524,68.6804 z" id="boundary" inkscape:connector-curvature="0" />
	<path style="fill:none;stroke:red;stroke-width:1px;stroke-linecap:butt;stroke-linejoin:miter;stroke-opacity:1" d="M 32.1219,67.9773 25.0914,67.9773 z" id="boundary" inkscape:connector-curvature="0" />
	<path style="fill:none;stroke:red;stroke-width:1px;stroke-linecap:butt;stroke-linejoin:miter;stroke-opacity:1" d="M 60.2438,68.6804 53.2133,68.6804 z" id="boundary" inkscape:connector-curvature="0" />
	<path style="fill:none;stroke:red;stroke-width:1px;stroke-linecap:butt;stroke-linejoin:miter;stroke-opacity:1" d="M 67.2743,68.6804 60.2438,68.6804 z" id="boundary" inkscape:connector-curvature="0" />
	<path style="fill:none;stroke:red;stroke-width:1px;stroke-linecap:butt;stroke-linejoin:miter;stroke-opacity:1" d="M 46.1828,68.6804 53.2133,68.6804 z" id="boundary" inkscape:connector-curvature="0" />
	<path style="fill:none;stroke:red;stroke-width:1px;stroke-linecap:butt;stroke-linejoin:miter;stroke-opacity:1" d="M 74.3047,69.3834 81.3352,69.3834 z" id="boundary" inkscape:connector-curvature="0" />
	<path style="fill:none;stroke:red;stroke-width:1px;stroke-linecap:butt;stroke-linejoin:miter;stroke-opacity:1" d="M 74.3047,69.3834 67.2743,68.6804 z" id="boundary" inkscape:connector-curvature="0" />
	<path style="fill:none;stroke:red;stroke-width:1px;stroke-linecap:butt;stroke-linejoin:miter;stroke-opacity:1" d="M 95.3962,70.7895 88.3657,70.0865 z" id="boundary" inkscape:connector-curvature="0" />
	<path style="fill:none;stroke:red;stroke-width:1px;stroke-linecap:butt;stroke-linejoin:miter;stroke-opacity:1" d="M 102.427,70.7895 95.3962,70.7895 z" id="boundary" inkscape:connector-curvature="0" />
	<path style="fill:none;stroke:red;stroke-width:1px;stroke-linecap:butt;stroke-linejoin:miter;stroke-opacity:1" d="M 88.3657,70.0865 81.3352,69.3834 z" id="boundary" inkscape:connector-curvature="0" />
	<path style="fill:none;stroke:red;stroke-width:1px;stroke-linecap:butt;stroke-linejoin:miter;stroke-opacity:1" d="M 109.457,71.4926 102.427,70.7895 z" id="boundary" inkscape:connector-curvature="0" />
	<path style="fill:none;stroke:red;stroke-width:1px;stroke-linecap:butt;stroke-linejoin:miter;stroke-opacity:1" d="M 116.488,71.4926 109.457,71.4926 z" id="boundary" inkscape:connector-curvature="0" />
	<path style="fill:none;stroke:red;stroke-width:1px;stroke-linecap:butt;stroke-linejoin:miter;stroke-opacity:1" d="M 130.549,72.1956 123.518,72.1956 z" id="boundary" inkscape:connector-curvature="0" />
	<path style="fill:none;stroke:red;stroke-width:1px;stroke-linecap:butt;stroke-linejoin:miter;stroke-opacity:1" d="M 123.518,72.1956 116.488,71.4926 z" id="boundary" inkscape:connector-curvature="0" />
	<path style="fill:none;stroke:red;stroke-width:1px;stroke-linecap:butt;stroke-linejoin:miter;stroke-opacity:1" d="M 158.67,72.8987 151.64,73.6017 z" id="boundary" inkscape:connector-curvature="0" />
	<path style="fill:none;stroke:red;stroke-width:1px;stroke-linecap:butt;stroke-linejoin:miter;stroke-opacity:1" d="M 151.64,73.6017 144.609,72.1956 z" id="boundary" inkscape:connector-curvature="0" />
	<path style="fill:none;stroke:red;stroke-width:1px;stroke-linecap:butt;stroke-linejoin:miter;stroke-opacity:1" d="M 165.701,72.8987 158.67,72.8987 z" id="boundary" inkscape:connector-curvature="0" />
	<path style="fill:none;stroke:red;stroke-width:1px;stroke-linecap:butt;stroke-linejoin:miter;stroke-opacity:1" d="M 172.731,72.8987 165.701,72.8987 z" id="boundary" inkscape:connector-curvature="0" />
	<path style="fill:none;stroke:red;stroke-width:1px;stroke-linecap:butt;stroke-linejoin:miter;stroke-opacity:1" d="M 179.762,72.8987 172.731,72.8987 z" id="boundary" inkscape:connector-curvature="0" />
	<path style="fill:none;stroke:red;stroke-width:1px;stroke-linecap:butt;stroke-linejoin:miter;stroke-opacity:1" d="M 4,82.7413 6.10914,75.0078 z" id="boundary" inkscape:connector-curvature="0" />
	<path style="fill:none;stroke:red;stroke-width:1px;stroke-linecap:butt;stroke-linejoin:miter;stroke-opacity:1" d="M 137.579,73.6017 144.609,72.1956 z" id="boundary" inkscape:connector-curvature="0" />
	<path style="fill:none;stroke:red;stroke-width:1px;stroke-linecap:butt;stroke-linejoin:miter;stroke-opacity:1" d="M 130.549,72.1956 137.579,73.6017 z" id="boundary" inkscape:connector-curvature="0" />
	<path style="fill:none;stroke:red;stroke-width:1px;stroke-linecap:butt;stroke-linejoin:miter;stroke-opacity:1" d="M 186.792,72.8987 179.762,72.8987 z" id="boundary" inkscape:connector-curvature="0" />
	<path style="fill:none;stroke:red;stroke-width:1px;stroke-linecap:butt;stroke-linejoin:miter;stroke-opacity:1" d="M 186.792,72.8987 193.823,72.8987 z" id="boundary" inkscape:connector-curvature="0" />
	<path style="fill:none;stroke:red;stroke-width:1px;stroke-linecap:butt;stroke-linejoin:miter;stroke-opacity:1" d="M 200.853,73.6017 207.884,72.8987 z" id="boundary" inkscape:connector-curvature="0" />
	<path style="fill:none;stroke:red;stroke-width:1px;stroke-linecap:butt;stroke-linejoin:miter;stroke-opacity:1" d="M 200.853,73.6017 193.823,72.8987 z" id="boundary" inkscape:connector-curvature="0" />
	<path style="fill:none;stroke:red;stroke-width:1px;stroke-linecap:butt;stroke-linejoin:miter;stroke-opacity:1" d="M 214.914,73.6017 207.884,72.8987 z" id="boundary" inkscape:connector-curvature="0" />
	<path style="fill:none;stroke:red;stroke-width:1px;stroke-linecap:butt;stroke-linejoin:miter;stroke-opacity:1" d="M 221.945,73.6017 214.914,73.6017 z" id="boundary" inkscape:connector-curvature="0" />
	<path style="fill:none;stroke:red;stroke-width:1px;stroke-linecap:butt;stroke-linejoin:miter;stroke-opacity:1" d="M 228.975,74.3047 221.945,73.6017 z" id="boundary" inkscape:connector-curvature="0" />
	<path style="fill:none;stroke:red;stroke-width:1px;stroke-linecap:butt;stroke-linejoin:miter;stroke-opacity:1" d="M 236.006,74.3047 228.975,74.3047 z" id="boundary" inkscape:connector-curvature="0" />
	<path style="fill:none;stroke:red;stroke-width:1px;stroke-linecap:butt;stroke-linejoin:miter;stroke-opacity:1" d="M 243.036,74.3047 236.006,74.3047 z" id="boundary" inkscape:connector-curvature="0" />
	<path style="fill:none;stroke:red;stroke-width:1px;stroke-linecap:butt;stroke-linejoin:miter;stroke-opacity:1" d="M 250.067,74.3047 243.036,74.3047 z" id="boundary" inkscape:connector-curvature="0" />
	<path style="fill:none;stroke:red;stroke-width:1px;stroke-linecap:butt;stroke-linejoin:miter;stroke-opacity:1" d="M 257.097,74.3047 250.067,74.3047 z" id="boundary" inkscape:connector-curvature="0" />
	<path style="fill:none;stroke:red;stroke-width:1px;stroke-linecap:butt;stroke-linejoin:miter;stroke-opacity:1" d="M 257.097,74.3047 264.128,74.3047 z" id="boundary" inkscape:connector-curvature="0" />
	<path style="fill:none;stroke:red;stroke-width:1px;stroke-linecap:butt;stroke-linejoin:miter;stroke-opacity:1" d="M 271.158,74.3047 278.189,74.3047 z" id="boundary" inkscape:connector-curvature="0" />
	<path style="fill:none;stroke:red;stroke-width:1px;stroke-linecap:butt;stroke-linejoin:miter;stroke-opacity:1" d="M 271.158,74.3047 264.128,74.3047 z" id="boundary" inkscape:connector-curvature="0" />
	<path style="fill:none;stroke:red;stroke-width:1px;stroke-linecap:butt;stroke-linejoin:miter;stroke-opacity:1" d="M 285.219,74.3047 292.249,74.3047 z" id="boundary" inkscape:connector-curvature="0" />
	<path style="fill:none;stroke:red;stroke-width:1px;stroke-linecap:butt;stroke-linejoin:miter;stroke-opacity:1" d="M 299.28,74.3047 306.31,74.3047 z" id="boundary" inkscape:connector-curvature="0" />
	<path style="fill:none;stroke:red;stroke-width:1px;stroke-linecap:butt;stroke-linejoin:miter;stroke-opacity:1" d="M 313.341,74.3047 306.31,74.3047 z" id="boundary" inkscape:connector-curvature="0" />
	<path style="fill:none;stroke:red;stroke-width:1px;stroke-linecap:butt;stroke-linejoin:miter;stroke-opacity:1" d="M 299.28,74.3047 292.249,74.3047 z" id="boundary" inkscape:connector-curvature="0" />
	<path style="fill:none;stroke:red;stroke-width:1px;stroke-linecap:butt;stroke-linejoin:miter;stroke-opacity:1" d="M 285.219,74.3047 278.189,74.3047 z" id="boundary" inkscape:connector-curvature="0" />
	<path style="fill:none;stroke:red;stroke-width:1px;stroke-linecap:butt;stroke-linejoin:miter;stroke-opacity:1" d="M 320.371,74.3047 313.341,74.3047 z" id="boundary" inkscape:connector-curvature="0" />
	<path style="fill:none;stroke:red;stroke-width:1px;stroke-linecap:butt;stroke-linejoin:miter;stroke-opacity:1" d="M 376.615,74.3047 383.646,73.6017 z" id="boundary" inkscape:connector-curvature="0" />
	<path style="fill:none;stroke:red;stroke-width:1px;stroke-linecap:butt;stroke-linejoin:miter;stroke-opacity:1" d="M 397.707,73.6017 390.676,73.6017 z" id="boundary" inkscape:connector-curvature="0" />
	<path style="fill:none;stroke:red;stroke-width:1px;stroke-linecap:butt;stroke-linejoin:miter;stroke-opacity:1" d="M 404.737,73.6017 397.707,73.6017 z" id="boundary" inkscape:connector-curvature="0" />
	<path style="fill:none;stroke:red;stroke-width:1px;stroke-linecap:butt;stroke-linejoin:miter;stroke-opacity:1" d="M 383.646,73.6017 390.676,73.6017 z" id="boundary" inkscape:connector-curvature="0" />
	<path style="fill:none;stroke:red;stroke-width:1px;stroke-linecap:butt;stroke-linejoin:miter;stroke-opacity:1" d="M 418.798,73.6017 411.768,73.6017 z" id="boundary" inkscape:connector-curvature="0" />
	<path style="fill:none;stroke:red;stroke-width:1px;stroke-linecap:butt;stroke-linejoin:miter;stroke-opacity:1" d="M 418.798,73.6017 425.828,73.6017 z" id="boundary" inkscape:connector-curvature="0" />
	<path style="fill:none;stroke:red;stroke-width:1px;stroke-linecap:butt;stroke-linejoin:miter;stroke-opacity:1" d="M 432.859,73.6017 425.828,73.6017 z" id="boundary" inkscape:connector-curvature="0" />
	<path style="fill:none;stroke:red;stroke-width:1px;stroke-linecap:butt;stroke-linejoin:miter;stroke-opacity:1" d="M 439.889,73.6017 432.859,73.6017 z" id="boundary" inkscape:connector-curvature="0" />
	<path style="fill:none;stroke:red;stroke-width:1px;stroke-linecap:butt;stroke-linejoin:miter;stroke-opacity:1" d="M 411.768,73.6017 404.737,73.6017 z" id="boundary" inkscape:connector-curvature="0" />
	<path style="fill:none;stroke:red;stroke-width:1px;stroke-linecap:butt;stroke-linejoin:miter;stroke-opacity:1" d="M 320.371,74.3047 327.402,74.3047 z" id="boundary" inkscape:connector-curvature="0" />
	<path style="fill:none;stroke:red;stroke-width:1px;stroke-linecap:butt;stroke-linejoin:miter;stroke-opacity:1" d="M 341.463,73.6017 348.493,74.3047 z" id="boundary" inkscape:connector-curvature="0" />
	<path style="fill:none;stroke:red;stroke-width:1px;stroke-linecap:butt;stroke-linejoin:miter;stroke-opacity:1" d="M 334.432,74.3047 341.463,73.6017 z" id="boundary" inkscape:connector-curvature="0" />
	<path style="fill:none;stroke:red;stroke-width:1px;stroke-linecap:butt;stroke-linejoin:miter;stroke-opacity:1" d="M 334.432,74.3047 327.402,74.3047 z" id="boundary" inkscape:connector-curvature="0" />
	<path style="fill:none;stroke:red;stroke-width:1px;stroke-linecap:butt;stroke-linejoin:miter;stroke-opacity:1" d="M 355.524,74.3047 362.554,74.3047 z" id="boundary" inkscape:connector-curvature="0" />
	<path style="fill:none;stroke:red;stroke-width:1px;stroke-linecap:butt;stroke-linejoin:miter;stroke-opacity:1" d="M 369.585,74.3047 376.615,74.3047 z" id="boundary" inkscape:connector-curvature="0" />
	<path style="fill:none;stroke:red;stroke-width:1px;stroke-linecap:butt;stroke-linejoin:miter;stroke-opacity:1" d="M 439.889,73.6017 446.92,74.3047 z" id="boundary" inkscape:connector-curvature="0" />
	<path style="fill:none;stroke:red;stroke-width:1px;stroke-linecap:butt;stroke-linejoin:miter;stroke-opacity:1" d="M 369.585,74.3047 362.554,74.3047 z" id="boundary" inkscape:connector-curvature="0" />
	<path style="fill:none;stroke:red;stroke-width:1px;stroke-linecap:butt;stroke-linejoin:miter;stroke-opacity:1" d="M 355.524,74.3047 348.493,74.3047 z" id="boundary" inkscape:connector-curvature="0" />
	<path style="fill:none;stroke:red;stroke-width:1px;stroke-linecap:butt;stroke-linejoin:miter;stroke-opacity:1" d="M 453.95,74.3047 460.981,74.3047 z" id="boundary" inkscape:connector-curvature="0" />
	<path style="fill:none;stroke:red;stroke-width:1px;stroke-linecap:butt;stroke-linejoin:miter;stroke-opacity:1" d="M 468.011,74.3047 475.042,74.3047 z" id="boundary" inkscape:connector-curvature="0" />
	<path style="fill:none;stroke:red;stroke-width:1px;stroke-linecap:butt;stroke-linejoin:miter;stroke-opacity:1" d="M 482.072,74.3047 475.042,74.3047 z" id="boundary" inkscape:connector-curvature="0" />
	<path style="fill:none;stroke:red;stroke-width:1px;stroke-linecap:butt;stroke-linejoin:miter;stroke-opacity:1" d="M 468.011,74.3047 460.981,74.3047 z" id="boundary" inkscape:connector-curvature="0" />
	<path style="fill:none;stroke:red;stroke-width:1px;stroke-linecap:butt;stroke-linejoin:miter;stroke-opacity:1" d="M 489.103,74.3047 496.133,74.3047 z" id="boundary" inkscape:connector-curvature="0" />
	<path style="fill:none;stroke:red;stroke-width:1px;stroke-linecap:butt;stroke-linejoin:miter;stroke-opacity:1" d="M 517.225,75.0078 510.194,75.0078 z" id="boundary" inkscape:connector-curvature="0" />
	<path style="fill:none;stroke:red;stroke-width:1px;stroke-linecap:butt;stroke-linejoin:miter;stroke-opacity:1" d="M 510.194,75.0078 503.164,74.3047 z" id="boundary" inkscape:connector-curvature="0" />
	<path style="fill:none;stroke:red;stroke-width:1px;stroke-linecap:butt;stroke-linejoin:miter;stroke-opacity:1" d="M 524.255,75.0078 517.225,75.0078 z" id="boundary" inkscape:connector-curvature="0" />
	<path style="fill:none;stroke:red;stroke-width:1px;stroke-linecap:butt;stroke-linejoin:miter;stroke-opacity:1" d="M 496.133,74.3047 503.164,74.3047 z" id="boundary" inkscape:connector-curvature="0" />
	<path style="fill:none;stroke:red;stroke-width:1px;stroke-linecap:butt;stroke-linejoin:miter;stroke-opacity:1" d="M 482.072,74.3047 489.103,74.3047 z" id="boundary" inkscape:connector-curvature="0" />
	<path style="fill:none;stroke:red;stroke-width:1px;stroke-linecap:butt;stroke-linejoin:miter;stroke-opacity:1" d="M 446.92,74.3047 453.95,74.3047 z" id="boundary" inkscape:connector-curvature="0" />
	<path style="fill:none;stroke:red;stroke-width:1px;stroke-linecap:butt;stroke-linejoin:miter;stroke-opacity:1" d="M 5.40609,96.8023 4,89.7718 z" id="boundary" inkscape:connector-curvature="0" />
	<path style="fill:none;stroke:red;stroke-width:1px;stroke-linecap:butt;stroke-linejoin:miter;stroke-opacity:1" d="M 11.0305,101.021 5.40609,96.8023 z" id="boundary" inkscape:connector-curvature="0" />
	<path style="fill:none;stroke:red;stroke-width:1px;stroke-linecap:butt;stroke-linejoin:miter;stroke-opacity:1" d="M 18.0609,103.833 11.0305,101.021 z" id="boundary" inkscape:connector-curvature="0" />
	<path style="fill:none;stroke:red;stroke-width:1px;stroke-linecap:butt;stroke-linejoin:miter;stroke-opacity:1" d="M 4,89.7718 4,82.7413 z" id="boundary" inkscape:connector-curvature="0" />
	<path style="fill:none;stroke:red;stroke-width:1px;stroke-linecap:butt;stroke-linejoin:miter;stroke-opacity:1" d="M 25.0914,105.239 32.1219,105.942 z" id="boundary" inkscape:connector-curvature="0" />
	<path style="fill:none;stroke:red;stroke-width:1px;stroke-linecap:butt;stroke-linejoin:miter;stroke-opacity:1" d="M 25.0914,105.239 18.0609,103.833 z" id="boundary" inkscape:connector-curvature="0" />
	<path style="fill:none;stroke:red;stroke-width:1px;stroke-linecap:butt;stroke-linejoin:miter;stroke-opacity:1" d="M 46.1828,106.645 39.1524,106.645 z" id="boundary" inkscape:connector-curvature="0" />
	<path style="fill:none;stroke:red;stroke-width:1px;stroke-linecap:butt;stroke-linejoin:miter;stroke-opacity:1" d="M 46.1828,106.645 53.2133,105.239 z" id="boundary" inkscape:connector-curvature="0" />
	<path style="fill:none;stroke:red;stroke-width:1px;stroke-linecap:butt;stroke-linejoin:miter;stroke-opacity:1" d="M 39.1524,106.645 32.1219,105.942 z" id="boundary" inkscape:connector-curvature="0" />
	<path style="fill:none;stroke:red;stroke-width:1px;stroke-linecap:butt;stroke-linejoin:miter;stroke-opacity:1" d="M 67.2743,105.239 74.3047,106.645 z" id="boundary" inkscape:connector-curvature="0" />
	<path style="fill:none;stroke:red;stroke-width:1px;stroke-linecap:butt;stroke-linejoin:miter;stroke-opacity:1" d="M 60.2438,104.536 53.2133,105.239 z" id="boundary" inkscape:connector-curvature="0" />
	<path style="fill:none;stroke:red;stroke-width:1px;stroke-linecap:butt;stroke-linejoin:miter;stroke-opacity:1" d="M 74.3047,106.645 81.3352,108.754 z" id="boundary" inkscape:connector-curvature="0" />
	<path style="fill:none;stroke:red;stroke-width:1px;stroke-linecap:butt;stroke-linejoin:miter;stroke-opacity:1" d="M 60.2438,104.536 67.2743,105.239 z" id="boundary" inkscape:connector-curvature="0" />
	<path style="fill:none;stroke:red;stroke-width:1px;stroke-linecap:butt;stroke-linejoin:miter;stroke-opacity:1" d="M 88.3657,110.16 95.3962,110.16 z" id="boundary" inkscape:connector-curvature="0" />
	<path style="fill:none;stroke:red;stroke-width:1px;stroke-linecap:butt;stroke-linejoin:miter;stroke-opacity:1" d="M 88.3657,110.16 81.3352,108.754 z" id="boundary" inkscape:connector-curvature="0" />
	<path style="fill:none;stroke:red;stroke-width:1px;stroke-linecap:butt;stroke-linejoin:miter;stroke-opacity:1" d="M 102.427,109.457 109.457,109.457 z" id="boundary" inkscape:connector-curvature="0" />
	<path style="fill:none;stroke:red;stroke-width:1px;stroke-linecap:butt;stroke-linejoin:miter;stroke-opacity:1" d="M 109.457,109.457 116.488,110.863 z" id="boundary" inkscape:connector-curvature="0" />
	<path style="fill:none;stroke:red;stroke-width:1px;stroke-linecap:butt;stroke-linejoin:miter;stroke-opacity:1" d="M 102.427,109.457 95.3962,110.16 z" id="boundary" inkscape:connector-curvature="0" />
	<path style="fill:none;stroke:red;stroke-width:1px;stroke-linecap:butt;stroke-linejoin:miter;stroke-opacity:1" d="M 116.488,110.863 123.518,112.972 z" id="boundary" inkscape:connector-curvature="0" />
	<path style="fill:none;stroke:red;stroke-width:1px;stroke-linecap:butt;stroke-linejoin:miter;stroke-opacity:1" d="M 123.518,112.972 130.549,112.269 z" id="boundary" inkscape:connector-curvature="0" />
	<path style="fill:none;stroke:red;stroke-width:1px;stroke-linecap:butt;stroke-linejoin:miter;stroke-opacity:1" d="M 130.549,112.269 137.579,112.972 z" id="boundary" inkscape:connector-curvature="0" />
	<path style="fill:none;stroke:red;stroke-width:1px;stroke-linecap:butt;stroke-linejoin:miter;stroke-opacity:1" d="M 137.579,112.972 144.609,115.082 z" id="boundary" inkscape:connector-curvature="0" />
	<path style="fill:none;stroke:red;stroke-width:1px;stroke-linecap:butt;stroke-linejoin:miter;stroke-opacity:1" d="M 151.64,115.082 158.67,115.082 z" id="boundary" inkscape:connector-curvature="0" />
	<path style="fill:none;stroke:red;stroke-width:1px;stroke-linecap:butt;stroke-linejoin:miter;stroke-opacity:1" d="M 151.64,115.082 144.609,115.082 z" id="boundary" inkscape:connector-curvature="0" />
	<path style="fill:none;stroke:red;stroke-width:1px;stroke-linecap:butt;stroke-linejoin:miter;stroke-opacity:1" d="M 165.701,115.082 172.731,115.082 z" id="boundary" inkscape:connector-curvature="0" />
	<path style="fill:none;stroke:red;stroke-width:1px;stroke-linecap:butt;stroke-linejoin:miter;stroke-opacity:1" d="M 172.731,115.082 179.762,115.785 z" id="boundary" inkscape:connector-curvature="0" />
	<path style="fill:none;stroke:red;stroke-width:1px;stroke-linecap:butt;stroke-linejoin:miter;stroke-opacity:1" d="M 165.701,115.082 158.67,115.082 z" id="boundary" inkscape:connector-curvature="0" />
	<path style="fill:none;stroke:red;stroke-width:1px;stroke-linecap:butt;stroke-linejoin:miter;stroke-opacity:1" d="M 179.762,115.785 186.792,116.488 z" id="boundary" inkscape:connector-curvature="0" />
	<path style="fill:none;stroke:red;stroke-width:1px;stroke-linecap:butt;stroke-linejoin:miter;stroke-opacity:1" d="M 186.792,116.488 193.823,116.488 z" id="boundary" inkscape:connector-curvature="0" />
	<path style="fill:none;stroke:red;stroke-width:1px;stroke-linecap:butt;stroke-linejoin:miter;stroke-opacity:1" d="M 193.823,116.488 200.853,117.191 z" id="boundary" inkscape:connector-curvature="0" />
	<path style="fill:none;stroke:red;stroke-width:1px;stroke-linecap:butt;stroke-linejoin:miter;stroke-opacity:1" d="M 228.975,115.785 221.945,117.191 z" id="boundary" inkscape:connector-curvature="0" />
	<path style="fill:none;stroke:red;stroke-width:1px;stroke-linecap:butt;stroke-linejoin:miter;stroke-opacity:1" d="M 228.975,115.785 236.006,115.785 z" id="boundary" inkscape:connector-curvature="0" />
	<path style="fill:none;stroke:red;stroke-width:1px;stroke-linecap:butt;stroke-linejoin:miter;stroke-opacity:1" d="M 207.884,116.488 200.853,117.191 z" id="boundary" inkscape:connector-curvature="0" />
	<path style="fill:none;stroke:red;stroke-width:1px;stroke-linecap:butt;stroke-linejoin:miter;stroke-opacity:1" d="M 236.006,115.785 243.036,115.785 z" id="boundary" inkscape:connector-curvature="0" />
	<path style="fill:none;stroke:red;stroke-width:1px;stroke-linecap:butt;stroke-linejoin:miter;stroke-opacity:1" d="M 243.036,115.785 250.067,116.488 z" id="boundary" inkscape:connector-curvature="0" />
	<path style="fill:none;stroke:red;stroke-width:1px;stroke-linecap:butt;stroke-linejoin:miter;stroke-opacity:1" d="M 207.884,116.488 214.914,116.488 z" id="boundary" inkscape:connector-curvature="0" />
	<path style="fill:none;stroke:red;stroke-width:1px;stroke-linecap:butt;stroke-linejoin:miter;stroke-opacity:1" d="M 221.945,117.191 214.914,116.488 z" id="boundary" inkscape:connector-curvature="0" />
	<path style="fill:none;stroke:red;stroke-width:1px;stroke-linecap:butt;stroke-linejoin:miter;stroke-opacity:1" d="M 250.067,116.488 257.097,116.488 z" id="boundary" inkscape:connector-curvature="0" />
	<path style="fill:none;stroke:red;stroke-width:1px;stroke-linecap:butt;stroke-linejoin:miter;stroke-opacity:1" d="M 271.158,116.488 278.189,116.488 z" id="boundary" inkscape:connector-curvature="0" />
	<path style="fill:none;stroke:red;stroke-width:1px;stroke-linecap:butt;stroke-linejoin:miter;stroke-opacity:1" d="M 271.158,116.488 264.128,116.488 z" id="boundary" inkscape:connector-curvature="0" />
	<path style="fill:none;stroke:red;stroke-width:1px;stroke-linecap:butt;stroke-linejoin:miter;stroke-opacity:1" d="M 264.128,116.488 257.097,116.488 z" id="boundary" inkscape:connector-curvature="0" />
	<path style="fill:none;stroke:red;stroke-width:1px;stroke-linecap:butt;stroke-linejoin:miter;stroke-opacity:1" d="M 285.219,116.488 292.249,116.488 z" id="boundary" inkscape:connector-curvature="0" />
	<path style="fill:none;stroke:red;stroke-width:1px;stroke-linecap:butt;stroke-linejoin:miter;stroke-opacity:1" d="M 285.219,116.488 278.189,116.488 z" id="boundary" inkscape:connector-curvature="0" />
	<path style="fill:none;stroke:red;stroke-width:1px;stroke-linecap:butt;stroke-linejoin:miter;stroke-opacity:1" d="M 306.31,117.191 299.28,116.488 z" id="boundary" inkscape:connector-curvature="0" />
	<path style="fill:none;stroke:red;stroke-width:1px;stroke-linecap:butt;stroke-linejoin:miter;stroke-opacity:1" d="M 299.28,116.488 292.249,116.488 z" id="boundary" inkscape:connector-curvature="0" />
	<path style="fill:none;stroke:red;stroke-width:1px;stroke-linecap:butt;stroke-linejoin:miter;stroke-opacity:1" d="M 306.31,117.191 313.341,116.488 z" id="boundary" inkscape:connector-curvature="0" />
	<path style="fill:none;stroke:red;stroke-width:1px;stroke-linecap:butt;stroke-linejoin:miter;stroke-opacity:1" d="M 313.341,116.488 320.371,116.488 z" id="boundary" inkscape:connector-curvature="0" />
	<path style="fill:none;stroke:red;stroke-width:1px;stroke-linecap:butt;stroke-linejoin:miter;stroke-opacity:1" d="M 334.432,116.488 341.463,116.488 z" id="boundary" inkscape:connector-curvature="0" />
	<path style="fill:none;stroke:red;stroke-width:1px;stroke-linecap:butt;stroke-linejoin:miter;stroke-opacity:1" d="M 341.463,116.488 348.493,117.191 z" id="boundary" inkscape:connector-curvature="0" />
	<path style="fill:none;stroke:red;stroke-width:1px;stroke-linecap:butt;stroke-linejoin:miter;stroke-opacity:1" d="M 334.432,116.488 327.402,116.488 z" id="boundary" inkscape:connector-curvature="0" />
	<path style="fill:none;stroke:red;stroke-width:1px;stroke-linecap:butt;stroke-linejoin:miter;stroke-opacity:1" d="M 327.402,116.488 320.371,116.488 z" id="boundary" inkscape:connector-curvature="0" />
	<path style="fill:none;stroke:red;stroke-width:1px;stroke-linecap:butt;stroke-linejoin:miter;stroke-opacity:1" d="M 355.524,117.191 362.554,117.191 z" id="boundary" inkscape:connector-curvature="0" />
	<path style="fill:none;stroke:red;stroke-width:1px;stroke-linecap:butt;stroke-linejoin:miter;stroke-opacity:1" d="M 355.524,117.191 348.493,117.191 z" id="boundary" inkscape:connector-curvature="0" />
	<path style="fill:none;stroke:red;stroke-width:1px;stroke-linecap:butt;stroke-linejoin:miter;stroke-opacity:1" d="M 369.585,117.191 376.615,117.191 z" id="boundary" inkscape:connector-curvature="0" />
	<path style="fill:none;stroke:red;stroke-width:1px;stroke-linecap:butt;stroke-linejoin:miter;stroke-opacity:1" d="M 376.615,117.191 383.646,117.894 z" id="boundary" inkscape:connector-curvature="0" />
	<path style="fill:none;stroke:red;stroke-width:1px;stroke-linecap:butt;stroke-linejoin:miter;stroke-opacity:1" d="M 369.585,117.191 362.554,117.191 z" id="boundary" inkscape:connector-curvature="0" />
	<path style="fill:none;stroke:red;stroke-width:1px;stroke-linecap:butt;stroke-linejoin:miter;stroke-opacity:1" d="M 390.676,117.894 397.707,117.894 z" id="boundary" inkscape:connector-curvature="0" />
	<path style="fill:none;stroke:red;stroke-width:1px;stroke-linecap:butt;stroke-linejoin:miter;stroke-opacity:1" d="M 390.676,117.894 383.646,117.894 z" id="boundary" inkscape:connector-curvature="0" />
	<path style="fill:none;stroke:red;stroke-width:1px;stroke-linecap:butt;stroke-linejoin:miter;stroke-opacity:1" d="M 418.798,118.597 411.768,118.597 z" id="boundary" inkscape:connector-curvature="0" />
	<path style="fill:none;stroke:red;stroke-width:1px;stroke-linecap:butt;stroke-linejoin:miter;stroke-opacity:1" d="M 404.737,117.894 397.707,117.894 z" id="boundary" inkscape:connector-curvature="0" />
	<path style="fill:none;stroke:red;stroke-width:1px;stroke-linecap:butt;stroke-linejoin:miter;stroke-opacity:1" d="M 404.737,117.894 411.768,118.597 z" id="boundary" inkscape:connector-curvature="0" />
	<path style="fill:none;stroke:red;stroke-width:1px;stroke-linecap:butt;stroke-linejoin:miter;stroke-opacity:1" d="M 425.828,118.597 432.859,117.894 z" id="boundary" inkscape:connector-curvature="0" />
	<path style="fill:none;stroke:red;stroke-width:1px;stroke-linecap:butt;stroke-linejoin:miter;stroke-opacity:1" d="M 432.859,117.894 439.889,118.597 z" id="boundary" inkscape:connector-curvature="0" />
	<path style="fill:none;stroke:red;stroke-width:1px;stroke-linecap:butt;stroke-linejoin:miter;stroke-opacity:1" d="M 439.889,118.597 446.92,118.597 z" id="boundary" inkscape:connector-curvature="0" />
	<path style="fill:none;stroke:red;stroke-width:1px;stroke-linecap:butt;stroke-linejoin:miter;stroke-opacity:1" d="M 446.92,118.597 453.95,119.3 z" id="boundary" inkscape:connector-curvature="0" />
	<path style="fill:none;stroke:red;stroke-width:1px;stroke-linecap:butt;stroke-linejoin:miter;stroke-opacity:1" d="M 425.828,118.597 418.798,118.597 z" id="boundary" inkscape:connector-curvature="0" />
	<path style="fill:none;stroke:red;stroke-width:1px;stroke-linecap:butt;stroke-linejoin:miter;stroke-opacity:1" d="M 453.95,119.3 460.981,119.3 z" id="boundary" inkscape:connector-curvature="0" />
	<path style="fill:none;stroke:red;stroke-width:1px;stroke-linecap:butt;stroke-linejoin:miter;stroke-opacity:1" d="M 468.011,118.597 475.042,118.597 z" id="boundary" inkscape:connector-curvature="0" />
	<path style="fill:none;stroke:red;stroke-width:1px;stroke-linecap:butt;stroke-linejoin:miter;stroke-opacity:1" d="M 475.042,118.597 482.072,119.3 z" id="boundary" inkscape:connector-curvature="0" />
	<path style="fill:none;stroke:red;stroke-width:1px;stroke-linecap:butt;stroke-linejoin:miter;stroke-opacity:1" d="M 468.011,118.597 460.981,119.3 z" id="boundary" inkscape:connector-curvature="0" />
	<path style="fill:none;stroke:red;stroke-width:1px;stroke-linecap:butt;stroke-linejoin:miter;stroke-opacity:1" d="M 489.103,119.3 496.133,119.3 z" id="boundary" inkscape:connector-curvature="0" />
	<path style="fill:none;stroke:red;stroke-width:1px;stroke-linecap:butt;stroke-linejoin:miter;stroke-opacity:1" d="M 489.103,119.3 482.072,119.3 z" id="boundary" inkscape:connector-curvature="0" />
	<path style="fill:none;stroke:red;stroke-width:1px;stroke-linecap:butt;stroke-linejoin:miter;stroke-opacity:1" d="M 503.164,119.3 510.194,119.3 z" id="boundary" inkscape:connector-curvature="0" />
	<path style="fill:none;stroke:red;stroke-width:1px;stroke-linecap:butt;stroke-linejoin:miter;stroke-opacity:1" d="M 510.194,119.3 517.225,120.003 z" id="boundary" inkscape:connector-curvature="0" />
	<path style="fill:none;stroke:red;stroke-width:1px;stroke-linecap:butt;stroke-linejoin:miter;stroke-opacity:1" d="M 503.164,119.3 496.133,119.3 z" id="boundary" inkscape:connector-curvature="0" />
	<path style="fill:none;stroke:red;stroke-width:1px;stroke-linecap:butt;stroke-linejoin:miter;stroke-opacity:1" d="M 692.987,60.2438 700.017,57.4316 z" id="boundary" inkscape:connector-curvature="0" />
	<path style="fill:none;stroke:red;stroke-width:1px;stroke-linecap:butt;stroke-linejoin:miter;stroke-opacity:1" d="M 720.405,47.5889 714.078,51.1042 z" id="boundary" inkscape:connector-curvature="0" />
	<path style="fill:none;stroke:red;stroke-width:1px;stroke-linecap:butt;stroke-linejoin:miter;stroke-opacity:1" d="M 707.047,54.6194 714.078,51.1042 z" id="boundary" inkscape:connector-curvature="0" />
	<path style="fill:none;stroke:red;stroke-width:1px;stroke-linecap:butt;stroke-linejoin:miter;stroke-opacity:1" d="M 707.047,54.6194 700.017,57.4316 z" id="boundary" inkscape:connector-curvature="0" />
	<path style="fill:none;stroke:red;stroke-width:1px;stroke-linecap:butt;stroke-linejoin:miter;stroke-opacity:1" d="M 692.987,60.2438 685.956,62.3529 z" id="boundary" inkscape:connector-curvature="0" />
	<path style="fill:none;stroke:red;stroke-width:1px;stroke-linecap:butt;stroke-linejoin:miter;stroke-opacity:1" d="M 657.834,70.7895 664.865,68.6804 z" id="boundary" inkscape:connector-curvature="0" />
	<path style="fill:none;stroke:red;stroke-width:1px;stroke-linecap:butt;stroke-linejoin:miter;stroke-opacity:1" d="M 678.926,65.1651 671.895,67.2743 z" id="boundary" inkscape:connector-curvature="0" />
	<path style="fill:none;stroke:red;stroke-width:1px;stroke-linecap:butt;stroke-linejoin:miter;stroke-opacity:1" d="M 671.895,67.2743 664.865,68.6804 z" id="boundary" inkscape:connector-curvature="0" />
	<path style="fill:none;stroke:red;stroke-width:1px;stroke-linecap:butt;stroke-linejoin:miter;stroke-opacity:1" d="M 685.956,62.3529 678.926,65.1651 z" id="boundary" inkscape:connector-curvature="0" />
	<path style="fill:none;stroke:red;stroke-width:1px;stroke-linecap:butt;stroke-linejoin:miter;stroke-opacity:1" d="M 754.152,31.4189 761.182,28.6067 z" id="boundary" inkscape:connector-curvature="0" />
	<path style="fill:none;stroke:red;stroke-width:1px;stroke-linecap:butt;stroke-linejoin:miter;stroke-opacity:1" d="M 747.824,34.9341 754.152,31.4189 z" id="boundary" inkscape:connector-curvature="0" />
	<path style="fill:none;stroke:red;stroke-width:1px;stroke-linecap:butt;stroke-linejoin:miter;stroke-opacity:1" d="M 767.51,25.0914 761.182,28.6067 z" id="boundary" inkscape:connector-curvature="0" />
	<path style="fill:none;stroke:red;stroke-width:1px;stroke-linecap:butt;stroke-linejoin:miter;stroke-opacity:1" d="M 767.51,25.0914 773.837,21.5762 z" id="boundary" inkscape:connector-curvature="0" />
	<path style="fill:none;stroke:red;stroke-width:1px;stroke-linecap:butt;stroke-linejoin:miter;stroke-opacity:1" d="M 773.837,21.5762 780.867,19.467 z" id="boundary" inkscape:connector-curvature="0" />
	<path style="fill:none;stroke:red;stroke-width:1px;stroke-linecap:butt;stroke-linejoin:miter;stroke-opacity:1" d="M 720.405,47.5889 727.436,44.7768 z" id="boundary" inkscape:connector-curvature="0" />
	<path style="fill:none;stroke:red;stroke-width:1px;stroke-linecap:butt;stroke-linejoin:miter;stroke-opacity:1" d="M 734.466,41.9646 740.794,38.4493 z" id="boundary" inkscape:connector-curvature="0" />
	<path style="fill:none;stroke:red;stroke-width:1px;stroke-linecap:butt;stroke-linejoin:miter;stroke-opacity:1" d="M 734.466,41.9646 727.436,44.7768 z" id="boundary" inkscape:connector-curvature="0" />
	<path style="fill:none;stroke:red;stroke-width:1px;stroke-linecap:butt;stroke-linejoin:miter;stroke-opacity:1" d="M 740.794,38.4493 747.824,34.9341 z" id="boundary" inkscape:connector-curvature="0" />
	<path style="fill:none;stroke:red;stroke-width:1px;stroke-linecap:butt;stroke-linejoin:miter;stroke-opacity:1" d="M 524.255,75.0078 531.286,75.0078 z" id="boundary" inkscape:connector-curvature="0" />
	<path style="fill:none;stroke:red;stroke-width:1px;stroke-linecap:butt;stroke-linejoin:miter;stroke-opacity:1" d="M 531.286,75.0078 538.316,75.0078 z" id="boundary" inkscape:connector-curvature="0" />
	<path style="fill:none;stroke:red;stroke-width:1px;stroke-linecap:butt;stroke-linejoin:miter;stroke-opacity:1" d="M 545.347,75.7108 538.316,75.0078 z" id="boundary" inkscape:connector-curvature="0" />
	<path style="fill:none;stroke:red;stroke-width:1px;stroke-linecap:butt;stroke-linejoin:miter;stroke-opacity:1" d="M 552.377,75.7108 545.347,75.7108 z" id="boundary" inkscape:connector-curvature="0" />
	<path style="fill:none;stroke:red;stroke-width:1px;stroke-linecap:butt;stroke-linejoin:miter;stroke-opacity:1" d="M 552.377,75.7108 559.408,75.7108 z" id="boundary" inkscape:connector-curvature="0" />
	<path style="fill:none;stroke:red;stroke-width:1px;stroke-linecap:butt;stroke-linejoin:miter;stroke-opacity:1" d="M 566.438,75.7108 573.468,75.7108 z" id="boundary" inkscape:connector-curvature="0" />
	<path style="fill:none;stroke:red;stroke-width:1px;stroke-linecap:butt;stroke-linejoin:miter;stroke-opacity:1" d="M 580.499,75.7108 573.468,75.7108 z" id="boundary" inkscape:connector-curvature="0" />
	<path style="fill:none;stroke:red;stroke-width:1px;stroke-linecap:butt;stroke-linejoin:miter;stroke-opacity:1" d="M 566.438,75.7108 559.408,75.7108 z" id="boundary" inkscape:connector-curvature="0" />
	<path style="fill:none;stroke:red;stroke-width:1px;stroke-linecap:butt;stroke-linejoin:miter;stroke-opacity:1" d="M 615.651,75.7108 622.682,75.0078 z" id="boundary" inkscape:connector-curvature="0" />
	<path style="fill:none;stroke:red;stroke-width:1px;stroke-linecap:butt;stroke-linejoin:miter;stroke-opacity:1" d="M 629.712,75.0078 622.682,75.0078 z" id="boundary" inkscape:connector-curvature="0" />
	<path style="fill:none;stroke:red;stroke-width:1px;stroke-linecap:butt;stroke-linejoin:miter;stroke-opacity:1" d="M 636.743,74.3047 629.712,75.0078 z" id="boundary" inkscape:connector-curvature="0" />
	<path style="fill:none;stroke:red;stroke-width:1px;stroke-linecap:butt;stroke-linejoin:miter;stroke-opacity:1" d="M 636.743,74.3047 643.773,72.8987 z" id="boundary" inkscape:connector-curvature="0" />
	<path style="fill:none;stroke:red;stroke-width:1px;stroke-linecap:butt;stroke-linejoin:miter;stroke-opacity:1" d="M 587.529,75.7108 580.499,75.7108 z" id="boundary" inkscape:connector-curvature="0" />
	<path style="fill:none;stroke:red;stroke-width:1px;stroke-linecap:butt;stroke-linejoin:miter;stroke-opacity:1" d="M 643.773,72.8987 650.804,72.1956 z" id="boundary" inkscape:connector-curvature="0" />
	<path style="fill:none;stroke:red;stroke-width:1px;stroke-linecap:butt;stroke-linejoin:miter;stroke-opacity:1" d="M 587.529,75.7108 594.56,75.7108 z" id="boundary" inkscape:connector-curvature="0" />
	<path style="fill:none;stroke:red;stroke-width:1px;stroke-linecap:butt;stroke-linejoin:miter;stroke-opacity:1" d="M 601.59,75.7108 608.621,75.7108 z" id="boundary" inkscape:connector-curvature="0" />
	<path style="fill:none;stroke:red;stroke-width:1px;stroke-linecap:butt;stroke-linejoin:miter;stroke-opacity:1" d="M 615.651,75.7108 608.621,75.7108 z" id="boundary" inkscape:connector-curvature="0" />
	<path style="fill:none;stroke:red;stroke-width:1px;stroke-linecap:butt;stroke-linejoin:miter;stroke-opacity:1" d="M 601.59,75.7108 594.56,75.7108 z" id="boundary" inkscape:connector-curvature="0" />
	<path style="fill:none;stroke:red;stroke-width:1px;stroke-linecap:butt;stroke-linejoin:miter;stroke-opacity:1" d="M 657.834,70.7895 650.804,72.1956 z" id="boundary" inkscape:connector-curvature="0" />
	<path style="fill:none;stroke:red;stroke-width:1px;stroke-linecap:butt;stroke-linejoin:miter;stroke-opacity:1" d="M 830.081,6.81219 837.111,6.10914 z" id="boundary" inkscape:connector-curvature="0" />
	<path style="fill:none;stroke:red;stroke-width:1px;stroke-linecap:butt;stroke-linejoin:miter;stroke-opacity:1" d="M 823.05,8.21828 830.081,6.81219 z" id="boundary" inkscape:connector-curvature="0" />
	<path style="fill:none;stroke:red;stroke-width:1px;stroke-linecap:butt;stroke-linejoin:miter;stroke-opacity:1" d="M 837.111,6.10914 844.142,5.40609 z" id="boundary" inkscape:connector-curvature="0" />
	<path style="fill:none;stroke:red;stroke-width:1px;stroke-linecap:butt;stroke-linejoin:miter;stroke-opacity:1" d="M 851.172,4.70305 844.142,5.40609 z" id="boundary" inkscape:connector-curvature="0" />
	<path style="fill:none;stroke:red;stroke-width:1px;stroke-linecap:butt;stroke-linejoin:miter;stroke-opacity:1" d="M 794.928,13.8427 801.959,11.7335 z" id="boundary" inkscape:connector-curvature="0" />
	<path style="fill:none;stroke:red;stroke-width:1px;stroke-linecap:butt;stroke-linejoin:miter;stroke-opacity:1" d="M 823.05,8.21828 816.02,9.62438 z" id="boundary" inkscape:connector-curvature="0" />
	<path style="fill:none;stroke:red;stroke-width:1px;stroke-linecap:butt;stroke-linejoin:miter;stroke-opacity:1" d="M 816.02,9.62438 808.989,10.3274 z" id="boundary" inkscape:connector-curvature="0" />
	<path style="fill:none;stroke:red;stroke-width:1px;stroke-linecap:butt;stroke-linejoin:miter;stroke-opacity:1" d="M 801.959,11.7335 808.989,10.3274 z" id="boundary" inkscape:connector-curvature="0" />
	<path style="fill:none;stroke:red;stroke-width:1px;stroke-linecap:butt;stroke-linejoin:miter;stroke-opacity:1" d="M 787.898,16.6549 794.928,13.8427 z" id="boundary" inkscape:connector-curvature="0" />
	<path style="fill:none;stroke:red;stroke-width:1px;stroke-linecap:butt;stroke-linejoin:miter;stroke-opacity:1" d="M 872.264,4 879.294,4.70305 z" id="boundary" inkscape:connector-curvature="0" />
	<path style="fill:none;stroke:red;stroke-width:1px;stroke-linecap:butt;stroke-linejoin:miter;stroke-opacity:1" d="M 865.233,4 872.264,4 z" id="boundary" inkscape:connector-curvature="0" />
	<path style="fill:none;stroke:red;stroke-width:1px;stroke-linecap:butt;stroke-linejoin:miter;stroke-opacity:1" d="M 879.294,4.70305 886.325,5.40609 z" id="boundary" inkscape:connector-curvature="0" />
	<path style="fill:none;stroke:red;stroke-width:1px;stroke-linecap:butt;stroke-linejoin:miter;stroke-opacity:1" d="M 893.355,6.10914 900.386,8.21828 z" id="boundary" inkscape:connector-curvature="0" />
	<path style="fill:none;stroke:red;stroke-width:1px;stroke-linecap:butt;stroke-linejoin:miter;stroke-opacity:1" d="M 886.325,5.40609 893.355,6.10914 z" id="boundary" inkscape:connector-curvature="0" />
	<path style="fill:none;stroke:red;stroke-width:1px;stroke-linecap:butt;stroke-linejoin:miter;stroke-opacity:1" d="M 907.416,8.92133 900.386,8.21828 z" id="boundary" inkscape:connector-curvature="0" />
	<path style="fill:none;stroke:red;stroke-width:1px;stroke-linecap:butt;stroke-linejoin:miter;stroke-opacity:1" d="M 914.446,11.0305 921.477,13.8427 z" id="boundary" inkscape:connector-curvature="0" />
	<path style="fill:none;stroke:red;stroke-width:1px;stroke-linecap:butt;stroke-linejoin:miter;stroke-opacity:1" d="M 907.416,8.92133 914.446,11.0305 z" id="boundary" inkscape:connector-curvature="0" />
	<path style="fill:none;stroke:red;stroke-width:1px;stroke-linecap:butt;stroke-linejoin:miter;stroke-opacity:1" d="M 851.172,4.70305 858.203,4 z" id="boundary" inkscape:connector-curvature="0" />
	<path style="fill:none;stroke:red;stroke-width:1px;stroke-linecap:butt;stroke-linejoin:miter;stroke-opacity:1" d="M 858.203,4 865.233,4 z" id="boundary" inkscape:connector-curvature="0" />
	<path style="fill:none;stroke:red;stroke-width:1px;stroke-linecap:butt;stroke-linejoin:miter;stroke-opacity:1" d="M 780.867,19.467 787.898,16.6549 z" id="boundary" inkscape:connector-curvature="0" />
	<path style="fill:none;stroke:red;stroke-width:1px;stroke-linecap:butt;stroke-linejoin:miter;stroke-opacity:1" d="M 921.477,13.8427 928.507,16.6549 z" id="boundary" inkscape:connector-curvature="0" />
	<path style="fill:none;stroke:red;stroke-width:1px;stroke-linecap:butt;stroke-linejoin:miter;stroke-opacity:1" d="M 928.507,16.6549 935.538,19.467 z" id="boundary" inkscape:connector-curvature="0" />
	<path style="fill:none;stroke:red;stroke-width:1px;stroke-linecap:butt;stroke-linejoin:miter;stroke-opacity:1" d="M 942.568,22.2792 948.896,25.7945 z" id="boundary" inkscape:connector-curvature="0" />
	<path style="fill:none;stroke:red;stroke-width:1px;stroke-linecap:butt;stroke-linejoin:miter;stroke-opacity:1" d="M 948.896,25.7945 954.52,30.0128 z" id="boundary" inkscape:connector-curvature="0" />
	<path style="fill:none;stroke:red;stroke-width:1px;stroke-linecap:butt;stroke-linejoin:miter;stroke-opacity:1" d="M 954.52,30.0128 960.145,34.231 z" id="boundary" inkscape:connector-curvature="0" />
	<path style="fill:none;stroke:red;stroke-width:1px;stroke-linecap:butt;stroke-linejoin:miter;stroke-opacity:1" d="M 965.769,39.1524 960.145,34.231 z" id="boundary" inkscape:connector-curvature="0" />
	<path style="fill:none;stroke:red;stroke-width:1px;stroke-linecap:butt;stroke-linejoin:miter;stroke-opacity:1" d="M 971.393,43.3707 965.769,39.1524 z" id="boundary" inkscape:connector-curvature="0" />
	<path style="fill:none;stroke:red;stroke-width:1px;stroke-linecap:butt;stroke-linejoin:miter;stroke-opacity:1" d="M 935.538,19.467 942.568,22.2792 z" id="boundary" inkscape:connector-curvature="0" />
	<path style="fill:none;stroke:red;stroke-width:1px;stroke-linecap:butt;stroke-linejoin:miter;stroke-opacity:1" d="M 989.673,65.8682 984.048,60.9468 z" id="boundary" inkscape:connector-curvature="0" />
	<path style="fill:none;stroke:red;stroke-width:1px;stroke-linecap:butt;stroke-linejoin:miter;stroke-opacity:1" d="M 984.048,60.9468 980.533,54.6194 z" id="boundary" inkscape:connector-curvature="0" />
	<path style="fill:none;stroke:red;stroke-width:1px;stroke-linecap:butt;stroke-linejoin:miter;stroke-opacity:1" d="M 980.533,54.6194 976.315,48.995 z" id="boundary" inkscape:connector-curvature="0" />
	<path style="fill:none;stroke:red;stroke-width:1px;stroke-linecap:butt;stroke-linejoin:miter;stroke-opacity:1" d="M 993.188,72.1956 993.891,79.2261 z" id="boundary" inkscape:connector-curvature="0" />
	<path style="fill:none;stroke:red;stroke-width:1px;stroke-linecap:butt;stroke-linejoin:miter;stroke-opacity:1" d="M 989.673,65.8682 993.188,72.1956 z" id="boundary" inkscape:connector-curvature="0" />
	<path style="fill:none;stroke:red;stroke-width:1px;stroke-linecap:butt;stroke-linejoin:miter;stroke-opacity:1" d="M 996,86.2566 993.891,79.2261 z" id="boundary" inkscape:connector-curvature="0" />
	<path style="fill:none;stroke:red;stroke-width:1px;stroke-linecap:butt;stroke-linejoin:miter;stroke-opacity:1" d="M 996,86.2566 996,93.287 z" id="boundary" inkscape:connector-curvature="0" />
	<path style="fill:none;stroke:red;stroke-width:1px;stroke-linecap:butt;stroke-linejoin:miter;stroke-opacity:1" d="M 996,93.287 996,100.318 z" id="boundary" inkscape:connector-curvature="0" />
	<path style="fill:none;stroke:red;stroke-width:1px;stroke-linecap:butt;stroke-linejoin:miter;stroke-opacity:1" d="M 971.393,43.3707 976.315,48.995 z" id="boundary" inkscape:connector-curvature="0" />
	<path style="fill:none;stroke:red;stroke-width:1px;stroke-linecap:butt;stroke-linejoin:miter;stroke-opacity:1" d="M 524.255,120.003 531.286,120.003 z" id="boundary" inkscape:connector-curvature="0" />
	<path style="fill:none;stroke:red;stroke-width:1px;stroke-linecap:butt;stroke-linejoin:miter;stroke-opacity:1" d="M 538.316,120.003 545.347,120.003 z" id="boundary" inkscape:connector-curvature="0" />
	<path style="fill:none;stroke:red;stroke-width:1px;stroke-linecap:butt;stroke-linejoin:miter;stroke-opacity:1" d="M 538.316,120.003 531.286,120.003 z" id="boundary" inkscape:connector-curvature="0" />
	<path style="fill:none;stroke:red;stroke-width:1px;stroke-linecap:butt;stroke-linejoin:miter;stroke-opacity:1" d="M 552.377,120.003 559.408,120.706 z" id="boundary" inkscape:connector-curvature="0" />
	<path style="fill:none;stroke:red;stroke-width:1px;stroke-linecap:butt;stroke-linejoin:miter;stroke-opacity:1" d="M 545.347,120.003 552.377,120.003 z" id="boundary" inkscape:connector-curvature="0" />
	<path style="fill:none;stroke:red;stroke-width:1px;stroke-linecap:butt;stroke-linejoin:miter;stroke-opacity:1" d="M 566.438,120.706 573.468,120.706 z" id="boundary" inkscape:connector-curvature="0" />
	<path style="fill:none;stroke:red;stroke-width:1px;stroke-linecap:butt;stroke-linejoin:miter;stroke-opacity:1" d="M 573.468,120.706 580.499,121.409 z" id="boundary" inkscape:connector-curvature="0" />
	<path style="fill:none;stroke:red;stroke-width:1px;stroke-linecap:butt;stroke-linejoin:miter;stroke-opacity:1" d="M 566.438,120.706 559.408,120.706 z" id="boundary" inkscape:connector-curvature="0" />
	<path style="fill:none;stroke:red;stroke-width:1px;stroke-linecap:butt;stroke-linejoin:miter;stroke-opacity:1" d="M 587.529,121.409 594.56,121.409 z" id="boundary" inkscape:connector-curvature="0" />
	<path style="fill:none;stroke:red;stroke-width:1px;stroke-linecap:butt;stroke-linejoin:miter;stroke-opacity:1" d="M 594.56,121.409 601.59,122.112 z" id="boundary" inkscape:connector-curvature="0" />
	<path style="fill:none;stroke:red;stroke-width:1px;stroke-linecap:butt;stroke-linejoin:miter;stroke-opacity:1" d="M 587.529,121.409 580.499,121.409 z" id="boundary" inkscape:connector-curvature="0" />
	<path style="fill:none;stroke:red;stroke-width:1px;stroke-linecap:butt;stroke-linejoin:miter;stroke-opacity:1" d="M 601.59,122.112 608.621,122.112 z" id="boundary" inkscape:connector-curvature="0" />
	<path style="fill:none;stroke:red;stroke-width:1px;stroke-linecap:butt;stroke-linejoin:miter;stroke-opacity:1" d="M 622.682,122.815 615.651,122.112 z" id="boundary" inkscape:connector-curvature="0" />
	<path style="fill:none;stroke:red;stroke-width:1px;stroke-linecap:butt;stroke-linejoin:miter;stroke-opacity:1" d="M 636.743,124.924 629.712,123.518 z" id="boundary" inkscape:connector-curvature="0" />
	<path style="fill:none;stroke:red;stroke-width:1px;stroke-linecap:butt;stroke-linejoin:miter;stroke-opacity:1" d="M 643.773,125.627 636.743,124.924 z" id="boundary" inkscape:connector-curvature="0" />
	<path style="fill:none;stroke:red;stroke-width:1px;stroke-linecap:butt;stroke-linejoin:miter;stroke-opacity:1" d="M 622.682,122.815 629.712,123.518 z" id="boundary" inkscape:connector-curvature="0" />
	<path style="fill:none;stroke:red;stroke-width:1px;stroke-linecap:butt;stroke-linejoin:miter;stroke-opacity:1" d="M 608.621,122.112 615.651,122.112 z" id="boundary" inkscape:connector-curvature="0" />
	<path style="fill:none;stroke:red;stroke-width:1px;stroke-linecap:butt;stroke-linejoin:miter;stroke-opacity:1" d="M 657.834,127.736 650.804,126.33 z" id="boundary" inkscape:connector-curvature="0" />
	<path style="fill:none;stroke:red;stroke-width:1px;stroke-linecap:butt;stroke-linejoin:miter;stroke-opacity:1" d="M 664.865,128.439 671.895,129.142 z" id="boundary" inkscape:connector-curvature="0" />
	<path style="fill:none;stroke:red;stroke-width:1px;stroke-linecap:butt;stroke-linejoin:miter;stroke-opacity:1" d="M 671.895,129.142 678.223,132.658 z" id="boundary" inkscape:connector-curvature="0" />
	<path style="fill:none;stroke:red;stroke-width:1px;stroke-linecap:butt;stroke-linejoin:miter;stroke-opacity:1" d="M 664.865,128.439 657.834,127.736 z" id="boundary" inkscape:connector-curvature="0" />
	<path style="fill:none;stroke:red;stroke-width:1px;stroke-linecap:butt;stroke-linejoin:miter;stroke-opacity:1" d="M 698.611,141.094 704.235,145.313 z" id="boundary" inkscape:connector-curvature="0" />
	<path style="fill:none;stroke:red;stroke-width:1px;stroke-linecap:butt;stroke-linejoin:miter;stroke-opacity:1" d="M 698.611,141.094 692.283,137.579 z" id="boundary" inkscape:connector-curvature="0" />
	<path style="fill:none;stroke:red;stroke-width:1px;stroke-linecap:butt;stroke-linejoin:miter;stroke-opacity:1" d="M 710.563,148.828 704.235,145.313 z" id="boundary" inkscape:connector-curvature="0" />
	<path style="fill:none;stroke:red;stroke-width:1px;stroke-linecap:butt;stroke-linejoin:miter;stroke-opacity:1" d="M 685.253,135.47 692.283,137.579 z" id="boundary" inkscape:connector-curvature="0" />
	<path style="fill:none;stroke:red;stroke-width:1px;stroke-linecap:butt;stroke-linejoin:miter;stroke-opacity:1" d="M 685.253,135.47 678.223,132.658 z" id="boundary" inkscape:connector-curvature="0" />
	<path style="fill:none;stroke:red;stroke-width:1px;stroke-linecap:butt;stroke-linejoin:miter;stroke-opacity:1" d="M 716.89,152.343 723.218,155.858 z" id="boundary" inkscape:connector-curvature="0" />
	<path style="fill:none;stroke:red;stroke-width:1px;stroke-linecap:butt;stroke-linejoin:miter;stroke-opacity:1" d="M 723.218,155.858 730.248,158.67 z" id="boundary" inkscape:connector-curvature="0" />
	<path style="fill:none;stroke:red;stroke-width:1px;stroke-linecap:butt;stroke-linejoin:miter;stroke-opacity:1" d="M 736.575,162.186 730.248,158.67 z" id="boundary" inkscape:connector-curvature="0" />
	<path style="fill:none;stroke:red;stroke-width:1px;stroke-linecap:butt;stroke-linejoin:miter;stroke-opacity:1" d="M 736.575,162.186 742.2,166.404 z" id="boundary" inkscape:connector-curvature="0" />
	<path style="fill:none;stroke:red;stroke-width:1px;stroke-linecap:butt;stroke-linejoin:miter;stroke-opacity:1" d="M 716.89,152.343 710.563,148.828 z" id="boundary" inkscape:connector-curvature="0" />
	<path style="fill:none;stroke:red;stroke-width:1px;stroke-linecap:butt;stroke-linejoin:miter;stroke-opacity:1" d="M 742.2,166.404 748.527,169.919 z" id="boundary" inkscape:connector-curvature="0" />
	<path style="fill:none;stroke:red;stroke-width:1px;stroke-linecap:butt;stroke-linejoin:miter;stroke-opacity:1" d="M 766.807,181.168 760.479,177.653 z" id="boundary" inkscape:connector-curvature="0" />
	<path style="fill:none;stroke:red;stroke-width:1px;stroke-linecap:butt;stroke-linejoin:miter;stroke-opacity:1" d="M 760.479,177.653 754.855,173.434 z" id="boundary" inkscape:connector-curvature="0" />
	<path style="fill:none;stroke:red;stroke-width:1px;stroke-linecap:butt;stroke-linejoin:miter;stroke-opacity:1" d="M 748.527,169.919 754.855,173.434 z" id="boundary" inkscape:connector-curvature="0" />
	<path style="fill:none;stroke:red;stroke-width:1px;stroke-linecap:butt;stroke-linejoin:miter;stroke-opacity:1" d="M 643.773,125.627 650.804,126.33 z" id="boundary" inkscape:connector-curvature="0" />
	<path style="fill:none;stroke:red;stroke-width:1px;stroke-linecap:butt;stroke-linejoin:miter;stroke-opacity:1" d="M 766.807,181.168 773.134,184.683 z" id="boundary" inkscape:connector-curvature="0" />
	<path style="fill:none;stroke:red;stroke-width:1px;stroke-linecap:butt;stroke-linejoin:miter;stroke-opacity:1" d="M 773.134,184.683 779.461,188.198 z" id="boundary" inkscape:connector-curvature="0" />
	<path style="fill:none;stroke:red;stroke-width:1px;stroke-linecap:butt;stroke-linejoin:miter;stroke-opacity:1" d="M 786.492,191.011 779.461,188.198 z" id="boundary" inkscape:connector-curvature="0" />
	<path style="fill:none;stroke:red;stroke-width:1px;stroke-linecap:butt;stroke-linejoin:miter;stroke-opacity:1" d="M 799.85,196.635 792.819,194.526 z" id="boundary" inkscape:connector-curvature="0" />
	<path style="fill:none;stroke:red;stroke-width:1px;stroke-linecap:butt;stroke-linejoin:miter;stroke-opacity:1" d="M 792.819,194.526 786.492,191.011 z" id="boundary" inkscape:connector-curvature="0" />
	<path style="fill:none;stroke:red;stroke-width:1px;stroke-linecap:butt;stroke-linejoin:miter;stroke-opacity:1" d="M 965.066,174.841 959.442,180.465 z" id="boundary" inkscape:connector-curvature="0" />
	<path style="fill:none;stroke:red;stroke-width:1px;stroke-linecap:butt;stroke-linejoin:miter;stroke-opacity:1" d="M 959.442,180.465 953.114,184.683 z" id="boundary" inkscape:connector-curvature="0" />
	<path style="fill:none;stroke:red;stroke-width:1px;stroke-linecap:butt;stroke-linejoin:miter;stroke-opacity:1" d="M 806.88,198.744 799.85,196.635 z" id="boundary" inkscape:connector-curvature="0" />
	<path style="fill:none;stroke:red;stroke-width:1px;stroke-linecap:butt;stroke-linejoin:miter;stroke-opacity:1" d="M 933.429,195.229 939.756,191.714 z" id="boundary" inkscape:connector-curvature="0" />
	<path style="fill:none;stroke:red;stroke-width:1px;stroke-linecap:butt;stroke-linejoin:miter;stroke-opacity:1" d="M 946.084,188.198 939.756,191.714 z" id="boundary" inkscape:connector-curvature="0" />
	<path style="fill:none;stroke:red;stroke-width:1px;stroke-linecap:butt;stroke-linejoin:miter;stroke-opacity:1" d="M 946.084,188.198 953.114,184.683 z" id="boundary" inkscape:connector-curvature="0" />
	<path style="fill:none;stroke:red;stroke-width:1px;stroke-linecap:butt;stroke-linejoin:miter;stroke-opacity:1" d="M 933.429,195.229 926.398,197.338 z" id="boundary" inkscape:connector-curvature="0" />
	<path style="fill:none;stroke:red;stroke-width:1px;stroke-linecap:butt;stroke-linejoin:miter;stroke-opacity:1" d="M 989.673,133.361 986.157,141.797 z" id="boundary" inkscape:connector-curvature="0" />
	<path style="fill:none;stroke:red;stroke-width:1px;stroke-linecap:butt;stroke-linejoin:miter;stroke-opacity:1" d="M 992.485,126.33 994.594,114.378 z" id="boundary" inkscape:connector-curvature="0" />
	<path style="fill:none;stroke:red;stroke-width:1px;stroke-linecap:butt;stroke-linejoin:miter;stroke-opacity:1" d="M 994.594,114.378 996,107.348 z" id="boundary" inkscape:connector-curvature="0" />
	<path style="fill:none;stroke:red;stroke-width:1px;stroke-linecap:butt;stroke-linejoin:miter;stroke-opacity:1" d="M 992.485,126.33 989.673,133.361 z" id="boundary" inkscape:connector-curvature="0" />
	<path style="fill:none;stroke:red;stroke-width:1px;stroke-linecap:butt;stroke-linejoin:miter;stroke-opacity:1" d="M 986.157,141.797 982.642,150.234 z" id="boundary" inkscape:connector-curvature="0" />
	<path style="fill:none;stroke:red;stroke-width:1px;stroke-linecap:butt;stroke-linejoin:miter;stroke-opacity:1" d="M 970.69,169.216 965.066,174.841 z" id="boundary" inkscape:connector-curvature="0" />
	<path style="fill:none;stroke:red;stroke-width:1px;stroke-linecap:butt;stroke-linejoin:miter;stroke-opacity:1" d="M 974.909,163.592 970.69,169.216 z" id="boundary" inkscape:connector-curvature="0" />
	<path style="fill:none;stroke:red;stroke-width:1px;stroke-linecap:butt;stroke-linejoin:miter;stroke-opacity:1" d="M 982.642,150.234 979.127,157.264 z" id="boundary" inkscape:connector-curvature="0" />
	<path style="fill:none;stroke:red;stroke-width:1px;stroke-linecap:butt;stroke-linejoin:miter;stroke-opacity:1" d="M 979.127,157.264 974.909,163.592 z" id="boundary" inkscape:connector-curvature="0" />
	<path style="fill:none;stroke:red;stroke-width:1px;stroke-linecap:butt;stroke-linejoin:miter;stroke-opacity:1" d="M 806.88,198.744 813.911,201.556 z" id="boundary" inkscape:connector-curvature="0" />
	<path style="fill:none;stroke:red;stroke-width:1px;stroke-linecap:butt;stroke-linejoin:miter;stroke-opacity:1" d="M 813.911,201.556 820.941,202.962 z" id="boundary" inkscape:connector-curvature="0" />
	<path style="fill:none;stroke:red;stroke-width:1px;stroke-linecap:butt;stroke-linejoin:miter;stroke-opacity:1" d="M 827.972,203.665 820.941,202.962 z" id="boundary" inkscape:connector-curvature="0" />
	<path style="fill:none;stroke:red;stroke-width:1px;stroke-linecap:butt;stroke-linejoin:miter;stroke-opacity:1" d="M 827.972,203.665 835.002,205.072 z" id="boundary" inkscape:connector-curvature="0" />
	<path style="fill:none;stroke:red;stroke-width:1px;stroke-linecap:butt;stroke-linejoin:miter;stroke-opacity:1" d="M 842.033,205.775 835.002,205.072 z" id="boundary" inkscape:connector-curvature="0" />
	<path style="fill:none;stroke:red;stroke-width:1px;stroke-linecap:butt;stroke-linejoin:miter;stroke-opacity:1" d="M 849.063,206.478 842.033,205.775 z" id="boundary" inkscape:connector-curvature="0" />
	<path style="fill:none;stroke:red;stroke-width:1px;stroke-linecap:butt;stroke-linejoin:miter;stroke-opacity:1" d="M 856.094,207.181 849.063,206.478 z" id="boundary" inkscape:connector-curvature="0" />
	<path style="fill:none;stroke:red;stroke-width:1px;stroke-linecap:butt;stroke-linejoin:miter;stroke-opacity:1" d="M 898.276,202.962 905.307,202.259 z" id="boundary" inkscape:connector-curvature="0" />
	<path style="fill:none;stroke:red;stroke-width:1px;stroke-linecap:butt;stroke-linejoin:miter;stroke-opacity:1" d="M 891.246,204.369 898.276,202.962 z" id="boundary" inkscape:connector-curvature="0" />
	<path style="fill:none;stroke:red;stroke-width:1px;stroke-linecap:butt;stroke-linejoin:miter;stroke-opacity:1" d="M 912.337,201.556 919.368,198.744 z" id="boundary" inkscape:connector-curvature="0" />
	<path style="fill:none;stroke:red;stroke-width:1px;stroke-linecap:butt;stroke-linejoin:miter;stroke-opacity:1" d="M 919.368,198.744 926.398,197.338 z" id="boundary" inkscape:connector-curvature="0" />
	<path style="fill:none;stroke:red;stroke-width:1px;stroke-linecap:butt;stroke-linejoin:miter;stroke-opacity:1" d="M 912.337,201.556 905.307,202.259 z" id="boundary" inkscape:connector-curvature="0" />
	<path style="fill:none;stroke:red;stroke-width:1px;stroke-linecap:butt;stroke-linejoin:miter;stroke-opacity:1" d="M 870.155,207.181 863.124,207.884 z" id="boundary" inkscape:connector-curvature="0" />
	<path style="fill:none;stroke:red;stroke-width:1px;stroke-linecap:butt;stroke-linejoin:miter;stroke-opacity:1" d="M 863.124,207.884 856.094,207.181 z" id="boundary" inkscape:connector-curvature="0" />
	<path style="fill:none;stroke:red;stroke-width:1px;stroke-linecap:butt;stroke-linejoin:miter;stroke-opacity:1" d="M 891.246,204.369 884.215,205.775 z" id="boundary" inkscape:connector-curvature="0" />
	<path style="fill:none;stroke:red;stroke-width:1px;stroke-linecap:butt;stroke-linejoin:miter;stroke-opacity:1" d="M 884.215,205.775 877.185,206.478 z" id="boundary" inkscape:connector-curvature="0" />
	<path style="fill:none;stroke:red;stroke-width:1px;stroke-linecap:butt;stroke-linejoin:miter;stroke-opacity:1" d="M 877.185,206.478 870.155,207.181 z" id="boundary" inkscape:connector-curvature="0" />
	<path style="fill:none;stroke:red;stroke-width:1px;stroke-linecap:butt;stroke-linejoin:miter;stroke-opacity:1" d="M 996,100.318 996,107.348 z" id="boundary" inkscape:connector-curvature="0" />
	<path style="fill:none;stroke:red;stroke-width:1px;stroke-linecap:butt;stroke-linejoin:miter;stroke-opacity:1" d="M 517.225,120.003 524.255,120.003 z" id="boundary" inkscape:connector-curvature="0" />
	<circle cx="4" cy="82.7413" r="4" fill="#0" id="circle0"/>
	<circle cx="4" cy="89.7718" r="4" fill="#0" id="circle1"/>
	<circle cx="5.40609" cy="96.8023" r="4" fill="#0" id="circle2"/>
	<circle cx="6.10914" cy="75.0078" r="4" fill="#0" id="circle3"/>
	<circle cx="11.0305" cy="69.3834" r="4" fill="#0" id="circle4"/>
	<circle cx="11.0305" cy="101.021" r="4" fill="#0" id="circle5"/>
	<circle cx="18.0609" cy="67.9773" r="4" fill="#0" id="circle6"/>
	<circle cx="18.0609" cy="103.833" r="4" fill="#0" id="circle7"/>
	<circle cx="25.0914" cy="67.9773" r="4" fill="#0" id="circle8"/>
	<circle cx="25.0914" cy="105.239" r="4" fill="#0" id="circle9"/>
	<circle cx="32.1219" cy="67.9773" r="4" fill="#0" id="circle10"/>
	<circle cx="32.1219" cy="105.942" r="4" fill="#0" id="circle11"/>
	<circle cx="39.1524" cy="68.6804" r="4" fill="#0" id="circle12"/>
	<circle cx="39.1524" cy="106.645" r="4" fill="#0" id="circle13"/>
	<circle cx="46.1828" cy="68.6804" r="4" fill="#0" id="circle14"/>
	<circle cx="46.1828" cy="106.645" r="4" fill="#0" id="circle15"/>
	<circle cx="53.2133" cy="68.6804" r="4" fill="#0" id="circle16"/>
	<circle cx="53.2133" cy="105.239" r="4" fill="#0" id="circle17"/>
	<circle cx="60.2438" cy="68.6804" r="4" fill="#0" id="circle18"/>
	<circle cx="60.2438" cy="104.536" r="4" fill="#0" id="circle19"/>
	<circle cx="67.2743" cy="68.6804" r="4" fill="#0" id="circle20"/>
	<circle cx="67.2743" cy="105.239" r="4" fill="#0" id="circle21"/>
	<circle cx="74.3047" cy="69.3834" r="4" fill="#0" id="circle22"/>
	<circle cx="74.3047" cy="106.645" r="4" fill="#0" id="circle23"/>
	<circle cx="81.3352" cy="69.3834" r="4" fill="#0" id="circle24"/>
	<circle cx="81.3352" cy="108.754" r="4" fill="#0" id="circle25"/>
	<circle cx="88.3657" cy="70.0865" r="4" fill="#0" id="circle26"/>
	<circle cx="88.3657" cy="110.16" r="4" fill="#0" id="circle27"/>
	<circle cx="95.3962" cy="70.7895" r="4" fill="#0" id="circle28"/>
	<circle cx="95.3962" cy="110.16" r="4" fill="#0" id="circle29"/>
	<circle cx="102.427" cy="70.7895" r="4" fill="#0" id="circle30"/>
	<circle cx="102.427" cy="109.457" r="4" fill="#0" id="circle31"/>
	<circle cx="109.457" cy="71.4926" r="4" fill="#0" id="circle32"/>
	<circle cx="109.457" cy="109.457" r="4" fill="#0" id="circle33"/>
	<circle cx="116.488" cy="71.4926" r="4" fill="#0" id="circle34"/>
	<circle cx="116.488" cy="110.863" r="4" fill="#0" id="circle35"/>
	<circle cx="123.518" cy="72.1956" r="4" fill="#0" id="circle36"/>
	<circle cx="123.518" cy="112.972" r="4" fill="#0" id="circle37"/>
	<circle cx="130.549" cy="72.1956" r="4" fill="#0" id="circle38"/>
	<circle cx="130.549" cy="112.269" r="4" fill="#0" id="circle39"/>
	<circle cx="137.579" cy="73.6017" r="4" fill="#0" id="circle40"/>
	<circle cx="137.579" cy="112.972" r="4" fill="#0" id="circle41"/>
	<circle cx="144.609" cy="72.1956" r="4" fill="#0" id="circle42"/>
	<circle cx="144.609" cy="115.082" r="4" fill="#0" id="circle43"/>
	<circle cx="151.64" cy="73.6017" r="4" fill="#0" id="circle44"/>
	<circle cx="151.64" cy="115.082" r="4" fill="#0" id="circle45"/>
	<circle cx="158.67" cy="72.8987" r="4" fill="#0" id="circle46"/>
	<circle cx="158.67" cy="115.082" r="4" fill="#0" id="circle47"/>
	<circle cx="165.701" cy="72.8987" r="4" fill="#0" id="circle48"/>
	<circle cx="165.701" cy="115.082" r="4" fill="#0" id="circle49"/>
	<circle cx="172.731" cy="72.8987" r="4" fill="#0" id="circle50"/>
	<circle cx="172.731" cy="115.082" r="4" fill="#0" id="circle51"/>
	<circle cx="179.762" cy="72.8987" r="4" fill="#0" id="circle52"/>
	<circle cx="179.762" cy="115.785" r="4" fill="#0" id="circle53"/>
	<circle cx="186.792" cy="72.8987" r="4" fill="#0" id="circle54"/>
	<circle cx="186.792" cy="116.488" r="4" fill="#0" id="circle55"/>
	<circle cx="193.823" cy="72.8987" r="4" fill="#0" id="circle56"/>
	<circle cx="193.823" cy="116.488" r="4" fill="#0" id="circle57"/>
	<circle cx="200.853" cy="73.6017" r="4" fill="#0" id="circle58"/>
	<circle cx="200.853" cy="117.191" r="4" fill="#0" id="circle59"/>
	<circle cx="207.884" cy="72.8987" r="4" fill="#0" id="circle60"/>
	<circle cx="207.884" cy="116.488" r="4" fill="#0" id="circle61"/>
	<circle cx="214.914" cy="73.6017" r="4" fill="#0" id="circle62"/>
	<circle cx="214.914" cy="116.488" r="4" fill="#0" id="circle63"/>
	<circle cx="221.945" cy="73.6017" r="4" fill="#0" id="circle64"/>
	<circle cx="221.945" cy="117.191" r="4" fill="#0" id="circle65"/>
	<circle cx="228.975" cy="74.3047" r="4" fill="#0" id="circle66"/>
	<circle cx="228.975" cy="115.785" r="4" fill="#0" id="circle67"/>
	<circle cx="236.006" cy="74.3047" r="4" fill="#0" id="circle68"/>
	<circle cx="236.006" cy="115.785" r="4" fill="#0" id="circle69"/>
	<circle cx="243.036" cy="74.3047" r="4" fill="#0" id="circle70"/>
	<circle cx="243.036" cy="115.785" r="4" fill="#0" id="circle71"/>
	<circle cx="250.067" cy="74.3047" r="4" fill="#0" id="circle72"/>
	<circle cx="250.067" cy="116.488" r="4" fill="#0" id="circle73"/>
	<circle cx="257.097" cy="74.3047" r="4" fill="#0" id="circle74"/>
	<circle cx="257.097" cy="116.488" r="4" fill="#0" id="circle75"/>
	<circle cx="264.128" cy="74.3047" r="4" fill="#0" id="circle76"/>
	<circle cx="264.128" cy="116.488" r="4" fill="#0" id="circle77"/>
	<circle cx="271.158" cy="74.3047" r="4" fill="#0" id="circle78"/>
	<circle cx="271.158" cy="116.488" r="4" fill="#0" id="circle79"/>
	<circle cx="278.189" cy="74.3047" r="4" fill="#0" id="circle80"/>
	<circle cx="278.189" cy="116.488" r="4" fill="#0" id="circle81"/>
	<circle cx="285.219" cy="74.3047" r="4" fill="#0" id="circle82"/>
	<circle cx="285.219" cy="116.488" r="4" fill="#0" id="circle83"/>
	<circle cx="292.249" cy="74.3047" r="4" fill="#0" id="circle84"/>
	<circle cx="292.249" cy="116.488" r="4" fill="#0" id="circle85"/>
	<circle cx="299.28" cy="74.3047" r="4" fill="#0" id="circle86"/>
	<circle cx="299.28" cy="116.488" r="4" fill="#0" id="circle87"/>
	<circle cx="306.31" cy="74.3047" r="4" fill="#0" id="circle88"/>
	<circle cx="306.31" cy="117.191" r="4" fill="#0" id="circle89"/>
	<circle cx="313.341" cy="74.3047" r="4" fill="#0" id="circle90"/>
	<circle cx="313.341" cy="116.488" r="4" fill="#0" id="circle91"/>
	<circle cx="320.371" cy="74.3047" r="4" fill="#0" id="circle92"/>
	<circle cx="320.371" cy="116.488" r="4" fill="#0" id="circle93"/>
	<circle cx="327.402" cy="74.3047" r="4" fill="#0" id="circle94"/>
	<circle cx="327.402" cy="116.488" r="4" fill="#0" id="circle95"/>
	<circle cx="334.432" cy="74.3047" r="4" fill="#0" id="circle96"/>
	<circle cx="334.432" cy="116.488" r="4" fill="#0" id="circle97"/>
	<circle cx="341.463" cy="73.6017" r="4" fill="#0" id="circle98"/>
	<circle cx="341.463" cy="116.488" r="4" fill="#0" id="circle99"/>
	<circle cx="348.493" cy="74.3047" r="4" fill="#0" id="circle100"/>
	<circle cx="348.493" cy="117.191" r="4" fill="#0" id="circle101"/>
	<circle cx="355.524" cy="74.3047" r="4" fill="#0" id="circle102"/>
	<circle cx="355.524" cy="117.191" r="4" fill="#0" id="circle103"/>
	<circle cx="362.554" cy="74.3047" r="4" fill="#0" id="circle104"/>
	<circle cx="362.554" cy="117.191" r="4" fill="#0" id="circle105"/>
	<circle cx="369.585" cy="74.3047" r="4" fill="#0" id="circle106"/>
	<circle cx="369.585" cy="117.191" r="4" fill="#0" id="circle107"/>
	<circle cx="376.615" cy="74.3047" r="4" fill="#0" id="circle108"/>
	<circle cx="376.615" cy="117.191" r="4" fill="#0" id="circle109"/>
	<circle cx="383.646" cy="73.6017" r="4" fill="#0" id="circle110"/>
	<circle cx="383.646" cy="117.894" r="4" fill="#0" id="circle111"/>
	<circle cx="390.676" cy="73.6017" r="4" fill="#0" id="circle112"/>
	<circle cx="390.676" cy="117.894" r="4" fill="#0" id="circle113"/>
	<circle cx="397.707" cy="73.6017" r="4" fill="#0" id="circle114"/>
	<circle cx="397.707" cy="117.894" r="4" fill="#0" id="circle115"/>
	<circle cx="404.737" cy="73.6017" r="4" fill="#0" id="circle116"/>
	<circle cx="404.737" cy="117.894" r="4" fill="#0" id="circle117"/>
	<circle cx="411.768" cy="73.6017" r="4" fill="#0" id="circle118"/>
	<circle cx="411.768" cy="118.597" r="4" fill="#0" id="circle119"/>
	<circle cx="418.798" cy="73.6017" r="4" fill="#0" id="circle120"/>
	<circle cx="418.798" cy="118.597" r="4" fill="#0" id="circle121"/>
	<circle cx="425.828" cy="73.6017" r="4" fill="#0" id="circle122"/>
	<circle cx="425.828" cy="118.597" r="4" fill="#0" id="circle123"/>
	<circle cx="432.859" cy="73.6017" r="4" fill="#0" id="circle124"/>
	<circle cx="432.859" cy="117.894" r="4" fill="#0" id="circle125"/>
	<circle cx="439.889" cy="73.6017" r="4" fill="#0" id="circle126"/>
	<circle cx="439.889" cy="118.597" r="4" fill="#0" id="circle127"/>
	<circle cx="446.92" cy="74.3047" r="4" fill="#0" id="circle128"/>
	<circle cx="446.92" cy="118.597" r="4" fill="#0" id="circle129"/>
	<circle cx="453.95" cy="74.3047" r="4" fill="#0" id="circle130"/>
	<circle cx="453.95" cy="119.3" r="4" fill="#0" id="circle131"/>
	<circle cx="460.981" cy="74.3047" r="4" fill="#0" id="circle132"/>
	<circle cx="460.981" cy="119.3" r="4" fill="#0" id="circle133"/>
	<circle cx="468.011" cy="74.3047" r="4" fill="#0" id="circle134"/>
	<circle cx="468.011" cy="118.597" r="4" fill="#0" id="circle135"/>
	<circle cx="475.042" cy="74.3047" r="4" fill="#0" id="circle136"/>
	<circle cx="475.042" cy="118.597" r="4" fill="#0" id="circle137"/>
	<circle cx="482.072" cy="74.3047" r="4" fill="#0" id="circle138"/>
	<circle cx="482.072" cy="119.3" r="4" fill="#0" id="circle139"/>
	<circle cx="489.103" cy="74.3047" r="4" fill="#0" id="circle140"/>
	<circle cx="489.103" cy="119.3" r="4" fill="#0" id="circle141"/>
	<circle cx="496.133" cy="74.3047" r="4" fill="#0" id="circle142"/>
	<circle cx="496.133" cy="119.3" r="4" fill="#0" id="circle143"/>
	<circle cx="503.164" cy="74.3047" r="4" fill="#0" id="circle144"/>
	<circle cx="503.164" cy="119.3" r="4" fill="#0" id="circle145"/>
	<circle cx="510.194" cy="75.0078" r="4" fill="#0" id="circle146"/>
	<circle cx="510.194" cy="119.3" r="4" fill="#0" id="circle147"/>
	<circle cx="517.225" cy="75.0078" r="4" fill="#0" id="circle148"/>
	<circle cx="517.225" cy="120.003" r="4" fill="#0" id="circle149"/>
	<circle cx="524.255" cy="75.0078" r="4" fill="#0" id="circle150"/>
	<circle cx="524.255" cy="120.003" r="4" fill="#0" id="circle151"/>
	<circle cx="531.286" cy="75.0078" r="4" fill="#0" id="circle152"/>
	<circle cx="531.286" cy="120.003" r="4" fill="#0" id="circle153"/>
	<circle cx="538.316" cy="75.0078" r="4" fill="#0" id="circle154"/>
	<circle cx="538.316" cy="120.003" r="4" fill="#0" id="circle155"/>
	<circle cx="545.347" cy="75.7108" r="4" fill="#0" id="circle156"/>
	<circle cx="545.347" cy="120.003" r="4" fill="#0" id="circle157"/>
	<circle cx="552.377" cy="75.7108" r="4" fill="#0" id="circle158"/>
	<circle cx="552.377" cy="120.003" r="4" fill="#0" id="circle159"/>
	<circle cx="559.408" cy="75.7108" r="4" fill="#0" id="circle160"/>
	<circle cx="559.408" cy="120.706" r="4" fill="#0" id="circle161"/>
	<circle cx="566.438" cy="75.7108" r="4" fill="#0" id="circle162"/>
	<circle cx="566.438" cy="120.706" r="4" fill="#0" id="circle163"/>
	<circle cx="573.468" cy="75.7108" r="4" fill="#0" id="circle164"/>
	<circle cx="573.468" cy="120.706" r="4" fill="#0" id="circle165"/>
	<circle cx="580.499" cy="75.7108" r="4" fill="#0" id="circle166"/>
	<circle cx="580.499" cy="121.409" r="4" fill="#0" id="circle167"/>
	<circle cx="587.529" cy="75.7108" r="4" fill="#0" id="circle168"/>
	<circle cx="587.529" cy="121.409" r="4" fill="#0" id="circle169"/>
	<circle cx="594.56" cy="75.7108" r="4" fill="#0" id="circle170"/>
	<circle cx="594.56" cy="121.409" r="4" fill="#0" id="circle171"/>
	<circle cx="601.59" cy="75.7108" r="4" fill="#0" id="circle172"/>
	<circle cx="601.59" cy="122.112" r="4" fill="#0" id="circle173"/>
	<circle cx="608.621" cy="75.7108" r="4" fill="#0" id="circle174"/>
	<circle cx="608.621" cy="122.112" r="4" fill="#0" id="circle175"/>
	<circle cx="615.651" cy="75.7108" r="4" fill="#0" id="circle176"/>
	<circle cx="615.651" cy="122.112" r="4" fill="#0" id="circle177"/>
	<circle cx="622.682" cy="75.0078" r="4" fill="#0" id="circle178"/>
	<circle cx="622.682" cy="122.815" r="4" fill="#0" id="circle179"/>
	<circle cx="629.712" cy="75.0078" r="4" fill="#0" id="circle180"/>
	<circle cx="629.712" cy="123.518" r="4" fill="#0" id="circle181"/>
	<circle cx="636.743" cy="74.3047" r="4" fill="#0" id="circle182"/>
	<circle cx="636.743" cy="124.924" r="4" fill="#0" id="circle183"/>
	<circle cx="643.773" cy="72.8987" r="4" fill="#0" id="circle184"/>
	<circle cx="643.773" cy="125.627" r="4" fill="#0" id="circle185"/>
	<circle cx="650.804" cy="72.1956" r="4" fill="#0" id="circle186"/>
	<circle cx="650.804" cy="126.33" r="4" fill="#0" id="circle187"/>
	<circle cx="657.834" cy="70.7895" r="4" fill="#0" id="circle188"/>
	<circle cx="657.834" cy="127.736" r="4" fill="#0" id="circle189"/>
	<circle cx="664.865" cy="68.6804" r="4" fill="#0" id="circle190"/>
	<circle cx="664.865" cy="128.439" r="4" fill="#0" id="circle191"/>
	<circle cx="671.895" cy="67.2743" r="4" fill="#0" id="circle192"/>
	<circle cx="671.895" cy="129.142" r="4" fill="#0" id="circle193"/>
	<circle cx="678.223" cy="132.658" r="4" fill="#0" id="circle194"/>
	<circle cx="678.926" cy="65.1651" r="4" fill="#0" id="circle195"/>
	<circle cx="685.253" cy="135.47" r="4" fill="#0" id="circle196"/>
	<circle cx="685.956" cy="62.3529" r="4" fill="#0" id="circle197"/>
	<circle cx="692.283" cy="137.579" r="4" fill="#0" id="circle198"/>
	<circle cx="692.987" cy="60.2438" r="4" fill="#0" id="circle199"/>
	<circle cx="698.611" cy="141.094" r="4" fill="#0" id="circle200"/>
	<circle cx="700.017" cy="57.4316" r="4" fill="#0" id="circle201"/>
	<circle cx="704.235" cy="145.313" r="4" fill="#0" id="circle202"/>
	<circle cx="707.047" cy="54.6194" r="4" fill="#0" id="circle203"/>
	<circle cx="710.563" cy="148.828" r="4" fill="#0" id="circle204"/>
	<circle cx="714.078" cy="51.1042" r="4" fill="#0" id="circle205"/>
	<circle cx="716.89" cy="152.343" r="4" fill="#0" id="circle206"/>
	<circle cx="720.405" cy="47.5889" r="4" fill="#0" id="circle207"/>
	<circle cx="723.218" cy="155.858" r="4" fill="#0" id="circle208"/>
	<circle cx="727.436" cy="44.7768" r="4" fill="#0" id="circle209"/>
	<circle cx="730.248" cy="158.67" r="4" fill="#0" id="circle210"/>
	<circle cx="734.466" cy="41.9646" r="4" fill="#0" id="circle211"/>
	<circle cx="736.575" cy="162.186" r="4" fill="#0" id="circle212"/>
	<circle cx="740.794" cy="38.4493" r="4" fill="#0" id="circle213"/>
	<circle cx="742.2" cy="166.404" r="4" fill="#0" id="circle214"/>
	<circle cx="747.824" cy="34.9341" r="4" fill="#0" id="circle215"/>
	<circle cx="748.527" cy="169.919" r="4" fill="#0" id="circle216"/>
	<circle cx="754.152" cy="31.4189" r="4" fill="#0" id="circle217"/>
	<circle cx="754.855" cy="173.434" r="4" fill="#0" id="circle218"/>
	<circle cx="760.479" cy="177.653" r="4" fill="#0" id="circle219"/>
	<circle cx="761.182" cy="28.6067" r="4" fill="#0" id="circle220"/>
	<circle cx="766.807" cy="181.168" r="4" fill="#0" id="circle221"/>
	<circle cx="767.51" cy="25.0914" r="4" fill="#0" id="circle222"/>
	<circle cx="773.134" cy="184.683" r="4" fill="#0" id="circle223"/>
	<circle cx="773.837" cy="21.5762" r="4" fill="#0" id="circle224"/>
	<circle cx="779.461" cy="188.198" r="4" fill="#0" id="circle225"/>
	<circle cx="780.867" cy="19.467" r="4" fill="#0" id="circle226"/>
	<circle cx="786.492" cy="191.011" r="4" fill="#0" id="circle227"/>
	<circle cx="787.898" cy="16.6549" r="4" fill="#0" id="circle228"/>
	<circle cx="792.819" cy="194.526" r="4" fill="#0" id="circle229"/>
	<circle cx="794.928" cy="13.8427" r="4" fill="#0" id="circle230"/>
	<circle cx="799.85" cy="196.635" r="4" fill="#0" id="circle231"/>
	<circle cx="801.959" cy="11.7335" r="4" fill="#0" id="circle232"/>
	<circle cx="806.88" cy="198.744" r="4" fill="#0" id="circle233"/>
	<circle cx="808.989" cy="10.3274" r="4" fill="#0" id="circle234"/>
	<circle cx="813.911" cy="201.556" r="4" fill="#0" id="circle235"/>
	<circle cx="816.02" cy="9.62438" r="4" fill="#0" id="circle236"/>
	<circle cx="820.941" cy="202.962" r="4" fill="#0" id="circle237"/>
	<circle cx="823.05" cy="8.21828" r="4" fill="#0" id="circle238"/>
	<circle cx="827.972" cy="203.665" r="4" fill="#0" id="circle239"/>
	<circle cx="830.081" cy="6.81219" r="4" fill="#0" id="circle240"/>
	<circle cx="835.002" cy="205.072" r="4" fill="#0" id="circle241"/>
	<circle cx="837.111" cy="6.10914" r="4" fill="#0" id="circle242"/>
	<circle cx="842.033" cy="205.775" r="4" fill="#0" id="circle243"/>
	<circle cx="844.142" cy="5.40609" r="4" fill="#0" id="circle244"/>
	<circle cx="849.063" cy="206.478" r="4" fill="#0" id="circle245"/>
	<circle cx="851.172" cy="4.70305" r="4" fill="#0" id="circle246"/>
	<circle cx="856.094" cy="207.181" r="4" fill="#0" id="circle247"/>
	<circle cx="858.203" cy="4" r="4" fill="#0" id="circle248"/>
	<circle cx="863.124" cy="207.884" r="4" fill="#0" id="circle249"/>
	<circle cx="865.233" cy="4" r="4" fill="#0" id="circle250"/>
	<circle cx="870.155" cy="207.181" r="4" fill="#0" id="circle251"/>
	<circle cx="872.264" cy="4" r="4" fill="#0" id="circle252"/>
	<circle cx="877.185" cy="206.478" r="4" fill="#0" id="circle253"/>
	<circle cx="879.294" cy="4.70305" r="4" fill="#0" id="circle254"/>
	<circle cx="884.215" cy="205.775" r="4" fill="#0" id="circle255"/>
	<circle cx="886.325" cy="5.40609" r="4" fill="#0" id="circle256"/>
	<circle cx="891.246" cy="204.369" r="4" fill="#0" id="circle257"/>
	<circle cx="893.355" cy="6.10914" r="4" fill="#0" id="circle258"/>
	<circle cx="898.276" cy="202.962" r="4" fill="#0" id="circle259"/>
	<circle cx="900.386" cy="8.21828" r="4" fill="#0" id="circle260"/>
	<circle cx="905.307" cy="202.259" r="4" fill="#0" id="circle261"/>
	<circle cx="907.416" cy="8.92133" r="4" fill="#0" id="circle262"/>
	<circle cx="912.337" cy="201.556" r="4" fill="#0" id="circle263"/>
	<circle cx="914.446" cy="11.0305" r="4" fill="#0" id="circle264"/>
	<circle cx="919.368" cy="198.744" r="4" fill="#0" id="circle265"/>
	<circle cx="921.477" cy="13.8427" r="4" fill="#0" id="circle266"/>
	<circle cx="926.398" cy="197.338" r="4" fill="#0" id="circle267"/>
	<circle cx="928.507" cy="16.6549" r="4" fill="#0" id="circle268"/>
	<circle cx="933.429" cy="195.229" r="4" fill="#0" id="circle269"/>
	<circle cx="935.538" cy="19.467" r="4" fill="#0" id="circle270"/>
	<circle cx="939.756" cy="191.714" r="4" fill="#0" id="circle271"/>
	<circle cx="942.568" cy="22.2792" r="4" fill="#0" id="circle272"/>
	<circle cx="946.084" cy="188.198" r="4" fill="#0" id="circle273"/>
	<circle cx="948.896" cy="25.7945" r="4" fill="#0" id="circle274"/>
	<circle cx="953.114" cy="184.683" r="4" fill="#0" id="circle275"/>
	<circle cx="954.52" cy="30.0128" r="4" fill="#0" id="circle276"/>
	<circle cx="959.442" cy="180.465" r="4" fill="#0" id="circle277"/>
	<circle cx="960.145" cy="34.231" r="4" fill="#0" id="circle278"/>
	<circle cx="965.066" cy="174.841" r="4" fill="#0" id="circle279"/>
	<circle cx="965.769" cy="39.1524" r="4" fill="#0" id="circle280"/>
	<circle cx="970.69" cy="169.216" r="4" fill="#0" id="circle281"/>
	<circle cx="971.393" cy="43.3707" r="4" fill="#0" id="circle282"/>
	<circle cx="974.909" cy="163.592" r="4" fill="#0" id="circle283"/>
	<circle cx="976.315" cy="48.995" r="4" fill="#0" id="circle284"/>
	<circle cx="979.127" cy="157.264" r="4" fill="#0" id="circle285"/>
	<circle cx="980.533" cy="54.6194" r="4" fill="#0" id="circle286"/>
	<circle cx="982.642" cy="150.234" r="4" fill="#0" id="circle287"/>
	<circle cx="984.048" cy="60.9468" r="4" fill="#0" id="circle288"/>
	<circle cx="986.157" cy="141.797" r="4" fill="#0" id="circle289"/>
	<circle cx="989.673" cy="65.8682" r="4" fill="#0" id="circle290"/>
	<circle cx="989.673" cy="133.361" r="4" fill="#0" id="circle291"/>
	<circle cx="992.485" cy="126.33" r="4" fill="#0" id="circle292"/>
	<circle cx="993.188" cy="72.1956" r="4" fill="#0" id="circle293"/>
	<circle cx="993.891" cy="79.2261" r="4" fill="#0" id="circle294"/>
	<circle cx="994.594" cy="114.378" r="4" fill="#0" id="circle295"/>
	<circle cx="996" cy="86.2566" r="4" fill="#0" id="circle296"/>
	<circle cx="996" cy="93.287" r="4" fill="#0" id="circle297"/>
	<circle cx="996" cy="100.318" r="4" fill="#0" id="circle298"/>
	<circle cx="996" cy="107.348" r="4" fill="#0" id="circle299"/>
	</g>
</svg>