<?xml version="1.0" encoding="UTF-8" standalone="no"?>
<!-- Created with CurveBenchmark -->
<svg
	xmlns:dc="http://purl.org/dc/elements/1.1/"
	xmlns:cc="http://creativecommons.org/ns#"
	xmlns:rdf="http://www.w3.org/1999/02/22-rdf-syntax-ns#"
	xmlns:svg="http://www.w3.org/2000/svg"
	xmlns="http://www.w3.org/2000/svg"
	xmlns:sodipodi="http://sodipodi.sourceforge.net/DTD/sodipodi-0.dtd"
	xmlns:inkscape="http://www.inkscape.org/namespaces/inkscape"
	width="1000"
	height="1000"
	id="svg2"
	version="1.1"
	sodipodi:docname="manifold/ccrust-dude7.png.txt">
<defs
	id="defs4" />
<metadata
	id="metadata7">
	<rdf:RDF>
		<cc:Work
			rdf:about="">
			<dc:format>image/svg+xml</dc:format>
			<dc:type
				rdf:resource="http://purl.org/dc/dcmitype/StillImage" />
			<dc:title></dc:title>
		</cc:Work>
	</rdf:RDF>
</metadata>
<g
	inkscape:label="Layer 1"
	inkscape:groupmode="layer"
	id="layer1">
	<path style="fill:none;stroke:red;stroke-width:1px;stroke-linecap:butt;stroke-linejoin:miter;stroke-opacity:1" d="M 207.307,252.876 216.071,235.35 z" id="boundary" inkscape:connector-curvature="0" />
	<path style="fill:none;stroke:red;stroke-width:1px;stroke-linecap:butt;stroke-linejoin:miter;stroke-opacity:1" d="M 207.307,252.876 193.286,266.898 z" id="boundary" inkscape:connector-curvature="0" />
	<path style="fill:none;stroke:red;stroke-width:1px;stroke-linecap:butt;stroke-linejoin:miter;stroke-opacity:1" d="M 224.834,217.823 216.071,235.35 z" id="boundary" inkscape:connector-curvature="0" />
	<path style="fill:none;stroke:red;stroke-width:1px;stroke-linecap:butt;stroke-linejoin:miter;stroke-opacity:1" d="M 163.491,314.219 172.254,296.693 z" id="boundary" inkscape:connector-curvature="0" />
	<path style="fill:none;stroke:red;stroke-width:1px;stroke-linecap:butt;stroke-linejoin:miter;stroke-opacity:1" d="M 163.491,314.219 149.47,328.24 z" id="boundary" inkscape:connector-curvature="0" />
	<path style="fill:none;stroke:red;stroke-width:1px;stroke-linecap:butt;stroke-linejoin:miter;stroke-opacity:1" d="M 186.276,284.424 193.286,266.898 z" id="boundary" inkscape:connector-curvature="0" />
	<path style="fill:none;stroke:red;stroke-width:1px;stroke-linecap:butt;stroke-linejoin:miter;stroke-opacity:1" d="M 186.276,284.424 172.254,296.693 z" id="boundary" inkscape:connector-curvature="0" />
	<path style="fill:none;stroke:red;stroke-width:1px;stroke-linecap:butt;stroke-linejoin:miter;stroke-opacity:1" d="M 303.703,277.413 286.177,277.413 z" id="boundary" inkscape:connector-curvature="0" />
	<path style="fill:none;stroke:red;stroke-width:1px;stroke-linecap:butt;stroke-linejoin:miter;stroke-opacity:1" d="M 268.65,182.77 254.629,196.792 z" id="boundary" inkscape:connector-curvature="0" />
	<path style="fill:none;stroke:red;stroke-width:1px;stroke-linecap:butt;stroke-linejoin:miter;stroke-opacity:1" d="M 254.629,196.792 238.855,205.555 z" id="boundary" inkscape:connector-curvature="0" />
	<path style="fill:none;stroke:red;stroke-width:1px;stroke-linecap:butt;stroke-linejoin:miter;stroke-opacity:1" d="M 282.671,170.502 268.65,182.77 z" id="boundary" inkscape:connector-curvature="0" />
	<path style="fill:none;stroke:red;stroke-width:1px;stroke-linecap:butt;stroke-linejoin:miter;stroke-opacity:1" d="M 224.834,217.823 238.855,205.555 z" id="boundary" inkscape:connector-curvature="0" />
	<path style="fill:none;stroke:red;stroke-width:1px;stroke-linecap:butt;stroke-linejoin:miter;stroke-opacity:1" d="M 273.908,291.435 256.382,300.198 z" id="boundary" inkscape:connector-curvature="0" />
	<path style="fill:none;stroke:red;stroke-width:1px;stroke-linecap:butt;stroke-linejoin:miter;stroke-opacity:1" d="M 273.908,291.435 286.177,277.413 z" id="boundary" inkscape:connector-curvature="0" />
	<path style="fill:none;stroke:red;stroke-width:1px;stroke-linecap:butt;stroke-linejoin:miter;stroke-opacity:1" d="M 247.618,317.724 256.382,300.198 z" id="boundary" inkscape:connector-curvature="0" />
	<path style="fill:none;stroke:red;stroke-width:1px;stroke-linecap:butt;stroke-linejoin:miter;stroke-opacity:1" d="M 282.671,170.502 300.198,170.502 z" id="boundary" inkscape:connector-curvature="0" />
	<path style="fill:none;stroke:red;stroke-width:1px;stroke-linecap:butt;stroke-linejoin:miter;stroke-opacity:1" d="M 149.47,328.24 140.707,345.767 z" id="boundary" inkscape:connector-curvature="0" />
	<path style="fill:none;stroke:red;stroke-width:1px;stroke-linecap:butt;stroke-linejoin:miter;stroke-opacity:1" d="M 140.707,345.767 126.686,359.788 z" id="boundary" inkscape:connector-curvature="0" />
	<path style="fill:none;stroke:red;stroke-width:1px;stroke-linecap:butt;stroke-linejoin:miter;stroke-opacity:1" d="M 117.922,377.314 126.686,359.788 z" id="boundary" inkscape:connector-curvature="0" />
	<path style="fill:none;stroke:red;stroke-width:1px;stroke-linecap:butt;stroke-linejoin:miter;stroke-opacity:1" d="M 109.159,394.841 117.922,377.314 z" id="boundary" inkscape:connector-curvature="0" />
	<path style="fill:none;stroke:red;stroke-width:1px;stroke-linecap:butt;stroke-linejoin:miter;stroke-opacity:1" d="M 123.18,407.11 109.159,394.841 z" id="boundary" inkscape:connector-curvature="0" />
	<path style="fill:none;stroke:red;stroke-width:1px;stroke-linecap:butt;stroke-linejoin:miter;stroke-opacity:1" d="M 123.18,407.11 137.201,417.625 z" id="boundary" inkscape:connector-curvature="0" />
	<path style="fill:none;stroke:red;stroke-width:1px;stroke-linecap:butt;stroke-linejoin:miter;stroke-opacity:1" d="M 151.223,405.357 137.201,417.625 z" id="boundary" inkscape:connector-curvature="0" />
	<path style="fill:none;stroke:red;stroke-width:1px;stroke-linecap:butt;stroke-linejoin:miter;stroke-opacity:1" d="M 195.039,370.304 207.307,356.283 z" id="boundary" inkscape:connector-curvature="0" />
	<path style="fill:none;stroke:red;stroke-width:1px;stroke-linecap:butt;stroke-linejoin:miter;stroke-opacity:1" d="M 221.329,344.014 233.597,329.993 z" id="boundary" inkscape:connector-curvature="0" />
	<path style="fill:none;stroke:red;stroke-width:1px;stroke-linecap:butt;stroke-linejoin:miter;stroke-opacity:1" d="M 233.597,329.993 247.618,317.724 z" id="boundary" inkscape:connector-curvature="0" />
	<path style="fill:none;stroke:red;stroke-width:1px;stroke-linecap:butt;stroke-linejoin:miter;stroke-opacity:1" d="M 151.223,405.357 163.491,391.336 z" id="boundary" inkscape:connector-curvature="0" />
	<path style="fill:none;stroke:red;stroke-width:1px;stroke-linecap:butt;stroke-linejoin:miter;stroke-opacity:1" d="M 177.512,379.067 195.039,370.304 z" id="boundary" inkscape:connector-curvature="0" />
	<path style="fill:none;stroke:red;stroke-width:1px;stroke-linecap:butt;stroke-linejoin:miter;stroke-opacity:1" d="M 163.491,391.336 177.512,379.067 z" id="boundary" inkscape:connector-curvature="0" />
	<path style="fill:none;stroke:red;stroke-width:1px;stroke-linecap:butt;stroke-linejoin:miter;stroke-opacity:1" d="M 207.307,356.283 221.329,344.014 z" id="boundary" inkscape:connector-curvature="0" />
	<path style="fill:none;stroke:red;stroke-width:1px;stroke-linecap:butt;stroke-linejoin:miter;stroke-opacity:1" d="M 372.057,96.8905 372.057,79.364 z" id="boundary" inkscape:connector-curvature="0" />
	<path style="fill:none;stroke:red;stroke-width:1px;stroke-linecap:butt;stroke-linejoin:miter;stroke-opacity:1" d="M 380.82,112.664 372.057,96.8905 z" id="boundary" inkscape:connector-curvature="0" />
	<path style="fill:none;stroke:red;stroke-width:1px;stroke-linecap:butt;stroke-linejoin:miter;stroke-opacity:1" d="M 368.551,152.975 351.025,161.739 z" id="boundary" inkscape:connector-curvature="0" />
	<path style="fill:none;stroke:red;stroke-width:1px;stroke-linecap:butt;stroke-linejoin:miter;stroke-opacity:1" d="M 380.82,130.191 368.551,152.975 z" id="boundary" inkscape:connector-curvature="0" />
	<path style="fill:none;stroke:red;stroke-width:1px;stroke-linecap:butt;stroke-linejoin:miter;stroke-opacity:1" d="M 333.498,161.739 315.972,161.739 z" id="boundary" inkscape:connector-curvature="0" />
	<path style="fill:none;stroke:red;stroke-width:1px;stroke-linecap:butt;stroke-linejoin:miter;stroke-opacity:1" d="M 380.82,130.191 380.82,112.664 z" id="boundary" inkscape:connector-curvature="0" />
	<path style="fill:none;stroke:red;stroke-width:1px;stroke-linecap:butt;stroke-linejoin:miter;stroke-opacity:1" d="M 372.057,79.364 380.82,53.0742 z" id="boundary" inkscape:connector-curvature="0" />
	<path style="fill:none;stroke:red;stroke-width:1px;stroke-linecap:butt;stroke-linejoin:miter;stroke-opacity:1" d="M 380.82,53.0742 394.841,39.053 z" id="boundary" inkscape:connector-curvature="0" />
	<path style="fill:none;stroke:red;stroke-width:1px;stroke-linecap:butt;stroke-linejoin:miter;stroke-opacity:1" d="M 315.972,161.739 300.198,170.502 z" id="boundary" inkscape:connector-curvature="0" />
	<path style="fill:none;stroke:red;stroke-width:1px;stroke-linecap:butt;stroke-linejoin:miter;stroke-opacity:1" d="M 422.883,12.7633 438.657,4 z" id="boundary" inkscape:connector-curvature="0" />
	<path style="fill:none;stroke:red;stroke-width:1px;stroke-linecap:butt;stroke-linejoin:miter;stroke-opacity:1" d="M 438.657,4 456.184,4 z" id="boundary" inkscape:connector-curvature="0" />
	<path style="fill:none;stroke:red;stroke-width:1px;stroke-linecap:butt;stroke-linejoin:miter;stroke-opacity:1" d="M 456.184,4 471.958,12.7633 z" id="boundary" inkscape:connector-curvature="0" />
	<path style="fill:none;stroke:red;stroke-width:1px;stroke-linecap:butt;stroke-linejoin:miter;stroke-opacity:1" d="M 394.841,39.053 408.862,25.0318 z" id="boundary" inkscape:connector-curvature="0" />
	<path style="fill:none;stroke:red;stroke-width:1px;stroke-linecap:butt;stroke-linejoin:miter;stroke-opacity:1" d="M 408.862,25.0318 422.883,12.7633 z" id="boundary" inkscape:connector-curvature="0" />
	<path style="fill:none;stroke:red;stroke-width:1px;stroke-linecap:butt;stroke-linejoin:miter;stroke-opacity:1" d="M 319.477,286.177 303.703,277.413 z" id="boundary" inkscape:connector-curvature="0" />
	<path style="fill:none;stroke:red;stroke-width:1px;stroke-linecap:butt;stroke-linejoin:miter;stroke-opacity:1" d="M 328.24,301.951 328.24,319.477 z" id="boundary" inkscape:connector-curvature="0" />
	<path style="fill:none;stroke:red;stroke-width:1px;stroke-linecap:butt;stroke-linejoin:miter;stroke-opacity:1" d="M 337.004,335.251 328.24,319.477 z" id="boundary" inkscape:connector-curvature="0" />
	<path style="fill:none;stroke:red;stroke-width:1px;stroke-linecap:butt;stroke-linejoin:miter;stroke-opacity:1" d="M 328.24,301.951 319.477,286.177 z" id="boundary" inkscape:connector-curvature="0" />
	<path style="fill:none;stroke:red;stroke-width:1px;stroke-linecap:butt;stroke-linejoin:miter;stroke-opacity:1" d="M 333.498,161.739 351.025,161.739 z" id="boundary" inkscape:connector-curvature="0" />
	<path style="fill:none;stroke:red;stroke-width:1px;stroke-linecap:butt;stroke-linejoin:miter;stroke-opacity:1" d="M 337.004,335.251 338.756,352.777 z" id="boundary" inkscape:connector-curvature="0" />
	<path style="fill:none;stroke:red;stroke-width:1px;stroke-linecap:butt;stroke-linejoin:miter;stroke-opacity:1" d="M 345.767,370.304 338.756,352.777 z" id="boundary" inkscape:connector-curvature="0" />
	<path style="fill:none;stroke:red;stroke-width:1px;stroke-linecap:butt;stroke-linejoin:miter;stroke-opacity:1" d="M 354.53,386.078 345.767,370.304 z" id="boundary" inkscape:connector-curvature="0" />
	<path style="fill:none;stroke:red;stroke-width:1px;stroke-linecap:butt;stroke-linejoin:miter;stroke-opacity:1" d="M 354.53,386.078 354.53,403.604 z" id="boundary" inkscape:connector-curvature="0" />
	<path style="fill:none;stroke:red;stroke-width:1px;stroke-linecap:butt;stroke-linejoin:miter;stroke-opacity:1" d="M 354.53,403.604 363.293,419.378 z" id="boundary" inkscape:connector-curvature="0" />
	<path style="fill:none;stroke:red;stroke-width:1px;stroke-linecap:butt;stroke-linejoin:miter;stroke-opacity:1" d="M 363.293,419.378 363.293,436.905 z" id="boundary" inkscape:connector-curvature="0" />
	<path style="fill:none;stroke:red;stroke-width:1px;stroke-linecap:butt;stroke-linejoin:miter;stroke-opacity:1" d="M 372.057,452.678 363.293,436.905 z" id="boundary" inkscape:connector-curvature="0" />
	<path style="fill:none;stroke:red;stroke-width:1px;stroke-linecap:butt;stroke-linejoin:miter;stroke-opacity:1" d="M 372.057,470.205 372.057,452.678 z" id="boundary" inkscape:connector-curvature="0" />
	<path style="fill:none;stroke:red;stroke-width:1px;stroke-linecap:butt;stroke-linejoin:miter;stroke-opacity:1" d="M 121.428,724.339 103.901,731.35 z" id="boundary" inkscape:connector-curvature="0" />
	<path style="fill:none;stroke:red;stroke-width:1px;stroke-linecap:butt;stroke-linejoin:miter;stroke-opacity:1" d="M 103.901,731.35 86.3746,731.35 z" id="boundary" inkscape:connector-curvature="0" />
	<path style="fill:none;stroke:red;stroke-width:1px;stroke-linecap:butt;stroke-linejoin:miter;stroke-opacity:1" d="M 70.6007,740.113 86.3746,731.35 z" id="boundary" inkscape:connector-curvature="0" />
	<path style="fill:none;stroke:red;stroke-width:1px;stroke-linecap:butt;stroke-linejoin:miter;stroke-opacity:1" d="M 21.5265,754.134 35.5477,740.113 z" id="boundary" inkscape:connector-curvature="0" />
	<path style="fill:none;stroke:red;stroke-width:1px;stroke-linecap:butt;stroke-linejoin:miter;stroke-opacity:1" d="M 35.5477,740.113 53.0742,740.113 z" id="boundary" inkscape:connector-curvature="0" />
	<path style="fill:none;stroke:red;stroke-width:1px;stroke-linecap:butt;stroke-linejoin:miter;stroke-opacity:1" d="M 70.6007,740.113 53.0742,740.113 z" id="boundary" inkscape:connector-curvature="0" />
	<path style="fill:none;stroke:red;stroke-width:1px;stroke-linecap:butt;stroke-linejoin:miter;stroke-opacity:1" d="M 188.028,701.555 202.049,687.534 z" id="boundary" inkscape:connector-curvature="0" />
	<path style="fill:none;stroke:red;stroke-width:1px;stroke-linecap:butt;stroke-linejoin:miter;stroke-opacity:1" d="M 219.576,678.77 202.049,687.534 z" id="boundary" inkscape:connector-curvature="0" />
	<path style="fill:none;stroke:red;stroke-width:1px;stroke-linecap:butt;stroke-linejoin:miter;stroke-opacity:1" d="M 251.124,655.986 237.102,670.007 z" id="boundary" inkscape:connector-curvature="0" />
	<path style="fill:none;stroke:red;stroke-width:1px;stroke-linecap:butt;stroke-linejoin:miter;stroke-opacity:1" d="M 237.102,670.007 219.576,678.77 z" id="boundary" inkscape:connector-curvature="0" />
	<path style="fill:none;stroke:red;stroke-width:1px;stroke-linecap:butt;stroke-linejoin:miter;stroke-opacity:1" d="M 138.954,722.587 154.728,713.823 z" id="boundary" inkscape:connector-curvature="0" />
	<path style="fill:none;stroke:red;stroke-width:1px;stroke-linecap:butt;stroke-linejoin:miter;stroke-opacity:1" d="M 138.954,722.587 121.428,724.339 z" id="boundary" inkscape:connector-curvature="0" />
	<path style="fill:none;stroke:red;stroke-width:1px;stroke-linecap:butt;stroke-linejoin:miter;stroke-opacity:1" d="M 154.728,713.823 170.502,705.06 z" id="boundary" inkscape:connector-curvature="0" />
	<path style="fill:none;stroke:red;stroke-width:1px;stroke-linecap:butt;stroke-linejoin:miter;stroke-opacity:1" d="M 188.028,701.555 170.502,705.06 z" id="boundary" inkscape:connector-curvature="0" />
	<path style="fill:none;stroke:red;stroke-width:1px;stroke-linecap:butt;stroke-linejoin:miter;stroke-opacity:1" d="M 33.7951,783.929 18.0212,775.166 z" id="boundary" inkscape:connector-curvature="0" />
	<path style="fill:none;stroke:red;stroke-width:1px;stroke-linecap:butt;stroke-linejoin:miter;stroke-opacity:1" d="M 18.0212,775.166 4,762.898 z" id="boundary" inkscape:connector-curvature="0" />
	<path style="fill:none;stroke:red;stroke-width:1px;stroke-linecap:butt;stroke-linejoin:miter;stroke-opacity:1" d="M 51.3216,785.682 67.0954,794.445 z" id="boundary" inkscape:connector-curvature="0" />
	<path style="fill:none;stroke:red;stroke-width:1px;stroke-linecap:butt;stroke-linejoin:miter;stroke-opacity:1" d="M 33.7951,783.929 51.3216,785.682 z" id="boundary" inkscape:connector-curvature="0" />
	<path style="fill:none;stroke:red;stroke-width:1px;stroke-linecap:butt;stroke-linejoin:miter;stroke-opacity:1" d="M 84.6219,794.445 102.148,794.445 z" id="boundary" inkscape:connector-curvature="0" />
	<path style="fill:none;stroke:red;stroke-width:1px;stroke-linecap:butt;stroke-linejoin:miter;stroke-opacity:1" d="M 84.6219,794.445 67.0954,794.445 z" id="boundary" inkscape:connector-curvature="0" />
	<path style="fill:none;stroke:red;stroke-width:1px;stroke-linecap:butt;stroke-linejoin:miter;stroke-opacity:1" d="M 202.049,768.155 186.276,776.919 z" id="boundary" inkscape:connector-curvature="0" />
	<path style="fill:none;stroke:red;stroke-width:1px;stroke-linecap:butt;stroke-linejoin:miter;stroke-opacity:1" d="M 186.276,776.919 168.749,776.919 z" id="boundary" inkscape:connector-curvature="0" />
	<path style="fill:none;stroke:red;stroke-width:1px;stroke-linecap:butt;stroke-linejoin:miter;stroke-opacity:1" d="M 217.823,759.392 235.35,759.392 z" id="boundary" inkscape:connector-curvature="0" />
	<path style="fill:none;stroke:red;stroke-width:1px;stroke-linecap:butt;stroke-linejoin:miter;stroke-opacity:1" d="M 202.049,768.155 217.823,759.392 z" id="boundary" inkscape:connector-curvature="0" />
	<path style="fill:none;stroke:red;stroke-width:1px;stroke-linecap:butt;stroke-linejoin:miter;stroke-opacity:1" d="M 251.124,750.629 235.35,759.392 z" id="boundary" inkscape:connector-curvature="0" />
	<path style="fill:none;stroke:red;stroke-width:1px;stroke-linecap:butt;stroke-linejoin:miter;stroke-opacity:1" d="M 117.922,785.682 102.148,794.445 z" id="boundary" inkscape:connector-curvature="0" />
	<path style="fill:none;stroke:red;stroke-width:1px;stroke-linecap:butt;stroke-linejoin:miter;stroke-opacity:1" d="M 117.922,785.682 135.449,785.682 z" id="boundary" inkscape:connector-curvature="0" />
	<path style="fill:none;stroke:red;stroke-width:1px;stroke-linecap:butt;stroke-linejoin:miter;stroke-opacity:1" d="M 152.975,785.682 135.449,785.682 z" id="boundary" inkscape:connector-curvature="0" />
	<path style="fill:none;stroke:red;stroke-width:1px;stroke-linecap:butt;stroke-linejoin:miter;stroke-opacity:1" d="M 152.975,785.682 168.749,776.919 z" id="boundary" inkscape:connector-curvature="0" />
	<path style="fill:none;stroke:red;stroke-width:1px;stroke-linecap:butt;stroke-linejoin:miter;stroke-opacity:1" d="M 344.014,564.848 351.025,547.322 z" id="boundary" inkscape:connector-curvature="0" />
	<path style="fill:none;stroke:red;stroke-width:1px;stroke-linecap:butt;stroke-linejoin:miter;stroke-opacity:1" d="M 351.025,547.322 365.046,533.3 z" id="boundary" inkscape:connector-curvature="0" />
	<path style="fill:none;stroke:red;stroke-width:1px;stroke-linecap:butt;stroke-linejoin:miter;stroke-opacity:1" d="M 344.014,564.848 329.993,577.117 z" id="boundary" inkscape:connector-curvature="0" />
	<path style="fill:none;stroke:red;stroke-width:1px;stroke-linecap:butt;stroke-linejoin:miter;stroke-opacity:1" d="M 372.057,505.258 365.046,533.3 z" id="boundary" inkscape:connector-curvature="0" />
	<path style="fill:none;stroke:red;stroke-width:1px;stroke-linecap:butt;stroke-linejoin:miter;stroke-opacity:1" d="M 291.435,617.428 303.703,603.406 z" id="boundary" inkscape:connector-curvature="0" />
	<path style="fill:none;stroke:red;stroke-width:1px;stroke-linecap:butt;stroke-linejoin:miter;stroke-opacity:1" d="M 329.993,577.117 317.724,591.138 z" id="boundary" inkscape:connector-curvature="0" />
	<path style="fill:none;stroke:red;stroke-width:1px;stroke-linecap:butt;stroke-linejoin:miter;stroke-opacity:1" d="M 317.724,591.138 303.703,603.406 z" id="boundary" inkscape:connector-curvature="0" />
	<path style="fill:none;stroke:red;stroke-width:1px;stroke-linecap:butt;stroke-linejoin:miter;stroke-opacity:1" d="M 372.057,505.258 372.057,487.731 z" id="boundary" inkscape:connector-curvature="0" />
	<path style="fill:none;stroke:red;stroke-width:1px;stroke-linecap:butt;stroke-linejoin:miter;stroke-opacity:1" d="M 426.389,610.417 443.915,601.654 z" id="boundary" inkscape:connector-curvature="0" />
	<path style="fill:none;stroke:red;stroke-width:1px;stroke-linecap:butt;stroke-linejoin:miter;stroke-opacity:1" d="M 443.915,601.654 459.689,610.417 z" id="boundary" inkscape:connector-curvature="0" />
	<path style="fill:none;stroke:red;stroke-width:1px;stroke-linecap:butt;stroke-linejoin:miter;stroke-opacity:1" d="M 414.12,624.438 426.389,610.417 z" id="boundary" inkscape:connector-curvature="0" />
	<path style="fill:none;stroke:red;stroke-width:1px;stroke-linecap:butt;stroke-linejoin:miter;stroke-opacity:1" d="M 372.057,487.731 372.057,470.205 z" id="boundary" inkscape:connector-curvature="0" />
	<path style="fill:none;stroke:red;stroke-width:1px;stroke-linecap:butt;stroke-linejoin:miter;stroke-opacity:1" d="M 475.463,619.18 459.689,610.417 z" id="boundary" inkscape:connector-curvature="0" />
	<path style="fill:none;stroke:red;stroke-width:1px;stroke-linecap:butt;stroke-linejoin:miter;stroke-opacity:1" d="M 291.435,617.428 277.413,629.696 z" id="boundary" inkscape:connector-curvature="0" />
	<path style="fill:none;stroke:red;stroke-width:1px;stroke-linecap:butt;stroke-linejoin:miter;stroke-opacity:1" d="M 265.145,643.717 251.124,655.986 z" id="boundary" inkscape:connector-curvature="0" />
	<path style="fill:none;stroke:red;stroke-width:1px;stroke-linecap:butt;stroke-linejoin:miter;stroke-opacity:1" d="M 310.714,706.813 294.94,715.576 z" id="boundary" inkscape:connector-curvature="0" />
	<path style="fill:none;stroke:red;stroke-width:1px;stroke-linecap:butt;stroke-linejoin:miter;stroke-opacity:1" d="M 251.124,750.629 265.145,738.36 z" id="boundary" inkscape:connector-curvature="0" />
	<path style="fill:none;stroke:red;stroke-width:1px;stroke-linecap:butt;stroke-linejoin:miter;stroke-opacity:1" d="M 265.145,738.36 282.671,729.597 z" id="boundary" inkscape:connector-curvature="0" />
	<path style="fill:none;stroke:red;stroke-width:1px;stroke-linecap:butt;stroke-linejoin:miter;stroke-opacity:1" d="M 282.671,729.597 294.94,715.576 z" id="boundary" inkscape:connector-curvature="0" />
	<path style="fill:none;stroke:red;stroke-width:1px;stroke-linecap:butt;stroke-linejoin:miter;stroke-opacity:1" d="M 265.145,643.717 277.413,629.696 z" id="boundary" inkscape:connector-curvature="0" />
	<path style="fill:none;stroke:red;stroke-width:1px;stroke-linecap:butt;stroke-linejoin:miter;stroke-opacity:1" d="M 370.304,659.491 352.777,668.254 z" id="boundary" inkscape:connector-curvature="0" />
	<path style="fill:none;stroke:red;stroke-width:1px;stroke-linecap:butt;stroke-linejoin:miter;stroke-opacity:1" d="M 396.594,633.201 414.12,624.438 z" id="boundary" inkscape:connector-curvature="0" />
	<path style="fill:none;stroke:red;stroke-width:1px;stroke-linecap:butt;stroke-linejoin:miter;stroke-opacity:1" d="M 382.572,645.47 396.594,633.201 z" id="boundary" inkscape:connector-curvature="0" />
	<path style="fill:none;stroke:red;stroke-width:1px;stroke-linecap:butt;stroke-linejoin:miter;stroke-opacity:1" d="M 352.777,668.254 338.756,680.523 z" id="boundary" inkscape:connector-curvature="0" />
	<path style="fill:none;stroke:red;stroke-width:1px;stroke-linecap:butt;stroke-linejoin:miter;stroke-opacity:1" d="M 370.304,659.491 382.572,645.47 z" id="boundary" inkscape:connector-curvature="0" />
	<path style="fill:none;stroke:red;stroke-width:1px;stroke-linecap:butt;stroke-linejoin:miter;stroke-opacity:1" d="M 310.714,706.813 324.735,696.297 z" id="boundary" inkscape:connector-curvature="0" />
	<path style="fill:none;stroke:red;stroke-width:1px;stroke-linecap:butt;stroke-linejoin:miter;stroke-opacity:1" d="M 338.756,680.523 324.735,696.297 z" id="boundary" inkscape:connector-curvature="0" />
	<path style="fill:none;stroke:red;stroke-width:1px;stroke-linecap:butt;stroke-linejoin:miter;stroke-opacity:1" d="M 475.463,619.18 491.237,627.943 z" id="boundary" inkscape:connector-curvature="0" />
	<path style="fill:none;stroke:red;stroke-width:1px;stroke-linecap:butt;stroke-linejoin:miter;stroke-opacity:1" d="M 471.958,12.7633 487.731,21.5265 z" id="boundary" inkscape:connector-curvature="0" />
	<path style="fill:none;stroke:red;stroke-width:1px;stroke-linecap:butt;stroke-linejoin:miter;stroke-opacity:1" d="M 487.731,21.5265 496.495,37.3004 z" id="boundary" inkscape:connector-curvature="0" />
	<path style="fill:none;stroke:red;stroke-width:1px;stroke-linecap:butt;stroke-linejoin:miter;stroke-opacity:1" d="M 496.495,37.3004 510.516,49.5689 z" id="boundary" inkscape:connector-curvature="0" />
	<path style="fill:none;stroke:red;stroke-width:1px;stroke-linecap:butt;stroke-linejoin:miter;stroke-opacity:1" d="M 510.516,49.5689 514.021,67.0954 z" id="boundary" inkscape:connector-curvature="0" />
	<path style="fill:none;stroke:red;stroke-width:1px;stroke-linecap:butt;stroke-linejoin:miter;stroke-opacity:1" d="M 522.784,82.8693 514.021,67.0954 z" id="boundary" inkscape:connector-curvature="0" />
	<path style="fill:none;stroke:red;stroke-width:1px;stroke-linecap:butt;stroke-linejoin:miter;stroke-opacity:1" d="M 514.021,119.675 514.021,137.201 z" id="boundary" inkscape:connector-curvature="0" />
	<path style="fill:none;stroke:red;stroke-width:1px;stroke-linecap:butt;stroke-linejoin:miter;stroke-opacity:1" d="M 522.784,100.396 514.021,119.675 z" id="boundary" inkscape:connector-curvature="0" />
	<path style="fill:none;stroke:red;stroke-width:1px;stroke-linecap:butt;stroke-linejoin:miter;stroke-opacity:1" d="M 522.784,100.396 522.784,82.8693 z" id="boundary" inkscape:connector-curvature="0" />
	<path style="fill:none;stroke:red;stroke-width:1px;stroke-linecap:butt;stroke-linejoin:miter;stroke-opacity:1" d="M 514.021,137.201 522.784,152.975 z" id="boundary" inkscape:connector-curvature="0" />
	<path style="fill:none;stroke:red;stroke-width:1px;stroke-linecap:butt;stroke-linejoin:miter;stroke-opacity:1" d="M 538.558,161.739 522.784,152.975 z" id="boundary" inkscape:connector-curvature="0" />
	<path style="fill:none;stroke:red;stroke-width:1px;stroke-linecap:butt;stroke-linejoin:miter;stroke-opacity:1" d="M 556.085,161.739 538.558,161.739 z" id="boundary" inkscape:connector-curvature="0" />
	<path style="fill:none;stroke:red;stroke-width:1px;stroke-linecap:butt;stroke-linejoin:miter;stroke-opacity:1" d="M 573.611,161.739 591.138,161.739 z" id="boundary" inkscape:connector-curvature="0" />
	<path style="fill:none;stroke:red;stroke-width:1px;stroke-linecap:butt;stroke-linejoin:miter;stroke-opacity:1" d="M 591.138,161.739 606.912,170.502 z" id="boundary" inkscape:connector-curvature="0" />
	<path style="fill:none;stroke:red;stroke-width:1px;stroke-linecap:butt;stroke-linejoin:miter;stroke-opacity:1" d="M 573.611,161.739 556.085,161.739 z" id="boundary" inkscape:connector-curvature="0" />
	<path style="fill:none;stroke:red;stroke-width:1px;stroke-linecap:butt;stroke-linejoin:miter;stroke-opacity:1" d="M 622.686,179.265 606.912,170.502 z" id="boundary" inkscape:connector-curvature="0" />
	<path style="fill:none;stroke:red;stroke-width:1px;stroke-linecap:butt;stroke-linejoin:miter;stroke-opacity:1" d="M 638.459,188.028 622.686,179.265 z" id="boundary" inkscape:connector-curvature="0" />
	<path style="fill:none;stroke:red;stroke-width:1px;stroke-linecap:butt;stroke-linejoin:miter;stroke-opacity:1" d="M 549.074,373.809 549.074,391.336 z" id="boundary" inkscape:connector-curvature="0" />
	<path style="fill:none;stroke:red;stroke-width:1px;stroke-linecap:butt;stroke-linejoin:miter;stroke-opacity:1" d="M 549.074,391.336 540.311,417.625 z" id="boundary" inkscape:connector-curvature="0" />
	<path style="fill:none;stroke:red;stroke-width:1px;stroke-linecap:butt;stroke-linejoin:miter;stroke-opacity:1" d="M 540.311,435.152 540.311,417.625 z" id="boundary" inkscape:connector-curvature="0" />
	<path style="fill:none;stroke:red;stroke-width:1px;stroke-linecap:butt;stroke-linejoin:miter;stroke-opacity:1" d="M 531.548,452.678 531.548,470.205 z" id="boundary" inkscape:connector-curvature="0" />
	<path style="fill:none;stroke:red;stroke-width:1px;stroke-linecap:butt;stroke-linejoin:miter;stroke-opacity:1" d="M 531.548,452.678 540.311,435.152 z" id="boundary" inkscape:connector-curvature="0" />
	<path style="fill:none;stroke:red;stroke-width:1px;stroke-linecap:butt;stroke-linejoin:miter;stroke-opacity:1" d="M 531.548,487.731 531.548,470.205 z" id="boundary" inkscape:connector-curvature="0" />
	<path style="fill:none;stroke:red;stroke-width:1px;stroke-linecap:butt;stroke-linejoin:miter;stroke-opacity:1" d="M 566.601,294.94 575.364,277.413 z" id="boundary" inkscape:connector-curvature="0" />
	<path style="fill:none;stroke:red;stroke-width:1px;stroke-linecap:butt;stroke-linejoin:miter;stroke-opacity:1" d="M 575.364,277.413 592.89,277.413 z" id="boundary" inkscape:connector-curvature="0" />
	<path style="fill:none;stroke:red;stroke-width:1px;stroke-linecap:butt;stroke-linejoin:miter;stroke-opacity:1" d="M 592.89,277.413 610.417,280.919 z" id="boundary" inkscape:connector-curvature="0" />
	<path style="fill:none;stroke:red;stroke-width:1px;stroke-linecap:butt;stroke-linejoin:miter;stroke-opacity:1" d="M 626.191,289.682 610.417,280.919 z" id="boundary" inkscape:connector-curvature="0" />
	<path style="fill:none;stroke:red;stroke-width:1px;stroke-linecap:butt;stroke-linejoin:miter;stroke-opacity:1" d="M 557.837,329.993 557.837,347.519 z" id="boundary" inkscape:connector-curvature="0" />
	<path style="fill:none;stroke:red;stroke-width:1px;stroke-linecap:butt;stroke-linejoin:miter;stroke-opacity:1" d="M 557.837,347.519 549.074,373.809 z" id="boundary" inkscape:connector-curvature="0" />
	<path style="fill:none;stroke:red;stroke-width:1px;stroke-linecap:butt;stroke-linejoin:miter;stroke-opacity:1" d="M 557.837,329.993 566.601,312.466 z" id="boundary" inkscape:connector-curvature="0" />
	<path style="fill:none;stroke:red;stroke-width:1px;stroke-linecap:butt;stroke-linejoin:miter;stroke-opacity:1" d="M 566.601,294.94 566.601,312.466 z" id="boundary" inkscape:connector-curvature="0" />
	<path style="fill:none;stroke:red;stroke-width:1px;stroke-linecap:butt;stroke-linejoin:miter;stroke-opacity:1" d="M 531.548,487.731 535.053,505.258 z" id="boundary" inkscape:connector-curvature="0" />
	<path style="fill:none;stroke:red;stroke-width:1px;stroke-linecap:butt;stroke-linejoin:miter;stroke-opacity:1" d="M 652.481,200.297 662.996,214.318 z" id="boundary" inkscape:connector-curvature="0" />
	<path style="fill:none;stroke:red;stroke-width:1px;stroke-linecap:butt;stroke-linejoin:miter;stroke-opacity:1" d="M 652.481,200.297 638.459,188.028 z" id="boundary" inkscape:connector-curvature="0" />
	<path style="fill:none;stroke:red;stroke-width:1px;stroke-linecap:butt;stroke-linejoin:miter;stroke-opacity:1" d="M 662.996,214.318 671.76,230.092 z" id="boundary" inkscape:connector-curvature="0" />
	<path style="fill:none;stroke:red;stroke-width:1px;stroke-linecap:butt;stroke-linejoin:miter;stroke-opacity:1" d="M 640.212,301.951 647.223,319.477 z" id="boundary" inkscape:connector-curvature="0" />
	<path style="fill:none;stroke:red;stroke-width:1px;stroke-linecap:butt;stroke-linejoin:miter;stroke-opacity:1" d="M 626.191,289.682 640.212,301.951 z" id="boundary" inkscape:connector-curvature="0" />
	<path style="fill:none;stroke:red;stroke-width:1px;stroke-linecap:butt;stroke-linejoin:miter;stroke-opacity:1" d="M 661.244,329.993 647.223,319.477 z" id="boundary" inkscape:connector-curvature="0" />
	<path style="fill:none;stroke:red;stroke-width:1px;stroke-linecap:butt;stroke-linejoin:miter;stroke-opacity:1" d="M 671.76,230.092 685.781,242.36 z" id="boundary" inkscape:connector-curvature="0" />
	<path style="fill:none;stroke:red;stroke-width:1px;stroke-linecap:butt;stroke-linejoin:miter;stroke-opacity:1" d="M 661.244,329.993 671.76,344.014 z" id="boundary" inkscape:connector-curvature="0" />
	<path style="fill:none;stroke:red;stroke-width:1px;stroke-linecap:butt;stroke-linejoin:miter;stroke-opacity:1" d="M 698.049,256.382 706.813,272.155 z" id="boundary" inkscape:connector-curvature="0" />
	<path style="fill:none;stroke:red;stroke-width:1px;stroke-linecap:butt;stroke-linejoin:miter;stroke-opacity:1" d="M 698.049,256.382 685.781,242.36 z" id="boundary" inkscape:connector-curvature="0" />
	<path style="fill:none;stroke:red;stroke-width:1px;stroke-linecap:butt;stroke-linejoin:miter;stroke-opacity:1" d="M 719.081,286.177 706.813,272.155 z" id="boundary" inkscape:connector-curvature="0" />
	<path style="fill:none;stroke:red;stroke-width:1px;stroke-linecap:butt;stroke-linejoin:miter;stroke-opacity:1" d="M 719.081,286.177 727.845,301.951 z" id="boundary" inkscape:connector-curvature="0" />
	<path style="fill:none;stroke:red;stroke-width:1px;stroke-linecap:butt;stroke-linejoin:miter;stroke-opacity:1" d="M 740.113,315.972 727.845,301.951 z" id="boundary" inkscape:connector-curvature="0" />
	<path style="fill:none;stroke:red;stroke-width:1px;stroke-linecap:butt;stroke-linejoin:miter;stroke-opacity:1" d="M 748.876,331.746 740.113,315.972 z" id="boundary" inkscape:connector-curvature="0" />
	<path style="fill:none;stroke:red;stroke-width:1px;stroke-linecap:butt;stroke-linejoin:miter;stroke-opacity:1" d="M 759.392,345.767 748.876,331.746 z" id="boundary" inkscape:connector-curvature="0" />
	<path style="fill:none;stroke:red;stroke-width:1px;stroke-linecap:butt;stroke-linejoin:miter;stroke-opacity:1" d="M 685.781,356.283 696.297,370.304 z" id="boundary" inkscape:connector-curvature="0" />
	<path style="fill:none;stroke:red;stroke-width:1px;stroke-linecap:butt;stroke-linejoin:miter;stroke-opacity:1" d="M 685.781,356.283 671.76,344.014 z" id="boundary" inkscape:connector-curvature="0" />
	<path style="fill:none;stroke:red;stroke-width:1px;stroke-linecap:butt;stroke-linejoin:miter;stroke-opacity:1" d="M 705.06,386.078 696.297,370.304 z" id="boundary" inkscape:connector-curvature="0" />
	<path style="fill:none;stroke:red;stroke-width:1px;stroke-linecap:butt;stroke-linejoin:miter;stroke-opacity:1" d="M 719.081,398.346 705.06,386.078 z" id="boundary" inkscape:connector-curvature="0" />
	<path style="fill:none;stroke:red;stroke-width:1px;stroke-linecap:butt;stroke-linejoin:miter;stroke-opacity:1" d="M 731.35,412.367 748.876,417.625 z" id="boundary" inkscape:connector-curvature="0" />
	<path style="fill:none;stroke:red;stroke-width:1px;stroke-linecap:butt;stroke-linejoin:miter;stroke-opacity:1" d="M 748.876,417.625 759.392,431.647 z" id="boundary" inkscape:connector-curvature="0" />
	<path style="fill:none;stroke:red;stroke-width:1px;stroke-linecap:butt;stroke-linejoin:miter;stroke-opacity:1" d="M 731.35,412.367 719.081,398.346 z" id="boundary" inkscape:connector-curvature="0" />
	<path style="fill:none;stroke:red;stroke-width:1px;stroke-linecap:butt;stroke-linejoin:miter;stroke-opacity:1" d="M 768.155,361.541 782.177,373.809 z" id="boundary" inkscape:connector-curvature="0" />
	<path style="fill:none;stroke:red;stroke-width:1px;stroke-linecap:butt;stroke-linejoin:miter;stroke-opacity:1" d="M 768.155,361.541 759.392,345.767 z" id="boundary" inkscape:connector-curvature="0" />
	<path style="fill:none;stroke:red;stroke-width:1px;stroke-linecap:butt;stroke-linejoin:miter;stroke-opacity:1" d="M 782.177,373.809 789.187,391.336 z" id="boundary" inkscape:connector-curvature="0" />
	<path style="fill:none;stroke:red;stroke-width:1px;stroke-linecap:butt;stroke-linejoin:miter;stroke-opacity:1" d="M 797.951,407.11 789.187,391.336 z" id="boundary" inkscape:connector-curvature="0" />
	<path style="fill:none;stroke:red;stroke-width:1px;stroke-linecap:butt;stroke-linejoin:miter;stroke-opacity:1" d="M 776.919,435.152 759.392,431.647 z" id="boundary" inkscape:connector-curvature="0" />
	<path style="fill:none;stroke:red;stroke-width:1px;stroke-linecap:butt;stroke-linejoin:miter;stroke-opacity:1" d="M 794.445,435.152 797.951,407.11 z" id="boundary" inkscape:connector-curvature="0" />
	<path style="fill:none;stroke:red;stroke-width:1px;stroke-linecap:butt;stroke-linejoin:miter;stroke-opacity:1" d="M 794.445,435.152 776.919,435.152 z" id="boundary" inkscape:connector-curvature="0" />
	<path style="fill:none;stroke:red;stroke-width:1px;stroke-linecap:butt;stroke-linejoin:miter;stroke-opacity:1" d="M 543.816,521.032 549.074,538.558 z" id="boundary" inkscape:connector-curvature="0" />
	<path style="fill:none;stroke:red;stroke-width:1px;stroke-linecap:butt;stroke-linejoin:miter;stroke-opacity:1" d="M 543.816,521.032 535.053,505.258 z" id="boundary" inkscape:connector-curvature="0" />
	<path style="fill:none;stroke:red;stroke-width:1px;stroke-linecap:butt;stroke-linejoin:miter;stroke-opacity:1" d="M 563.095,549.074 549.074,538.558 z" id="boundary" inkscape:connector-curvature="0" />
	<path style="fill:none;stroke:red;stroke-width:1px;stroke-linecap:butt;stroke-linejoin:miter;stroke-opacity:1" d="M 505.258,640.212 517.527,654.233 z" id="boundary" inkscape:connector-curvature="0" />
	<path style="fill:none;stroke:red;stroke-width:1px;stroke-linecap:butt;stroke-linejoin:miter;stroke-opacity:1" d="M 505.258,640.212 491.237,627.943 z" id="boundary" inkscape:connector-curvature="0" />
	<path style="fill:none;stroke:red;stroke-width:1px;stroke-linecap:butt;stroke-linejoin:miter;stroke-opacity:1" d="M 563.095,549.074 575.364,563.095 z" id="boundary" inkscape:connector-curvature="0" />
	<path style="fill:none;stroke:red;stroke-width:1px;stroke-linecap:butt;stroke-linejoin:miter;stroke-opacity:1" d="M 575.364,563.095 584.127,578.869 z" id="boundary" inkscape:connector-curvature="0" />
	<path style="fill:none;stroke:red;stroke-width:1px;stroke-linecap:butt;stroke-linejoin:miter;stroke-opacity:1" d="M 596.396,592.89 584.127,578.869 z" id="boundary" inkscape:connector-curvature="0" />
	<path style="fill:none;stroke:red;stroke-width:1px;stroke-linecap:butt;stroke-linejoin:miter;stroke-opacity:1" d="M 596.396,592.89 610.417,605.159 z" id="boundary" inkscape:connector-curvature="0" />
	<path style="fill:none;stroke:red;stroke-width:1px;stroke-linecap:butt;stroke-linejoin:miter;stroke-opacity:1" d="M 622.686,619.18 636.707,631.449 z" id="boundary" inkscape:connector-curvature="0" />
	<path style="fill:none;stroke:red;stroke-width:1px;stroke-linecap:butt;stroke-linejoin:miter;stroke-opacity:1" d="M 622.686,619.18 610.417,605.159 z" id="boundary" inkscape:connector-curvature="0" />
	<path style="fill:none;stroke:red;stroke-width:1px;stroke-linecap:butt;stroke-linejoin:miter;stroke-opacity:1" d="M 636.707,631.449 648.975,645.47 z" id="boundary" inkscape:connector-curvature="0" />
	<path style="fill:none;stroke:red;stroke-width:1px;stroke-linecap:butt;stroke-linejoin:miter;stroke-opacity:1" d="M 666.502,652.481 648.975,645.47 z" id="boundary" inkscape:connector-curvature="0" />
	<path style="fill:none;stroke:red;stroke-width:1px;stroke-linecap:butt;stroke-linejoin:miter;stroke-opacity:1" d="M 666.502,652.481 671.76,670.007 z" id="boundary" inkscape:connector-curvature="0" />
	<path style="fill:none;stroke:red;stroke-width:1px;stroke-linecap:butt;stroke-linejoin:miter;stroke-opacity:1" d="M 517.527,654.233 535.053,661.244 z" id="boundary" inkscape:connector-curvature="0" />
	<path style="fill:none;stroke:red;stroke-width:1px;stroke-linecap:butt;stroke-linejoin:miter;stroke-opacity:1" d="M 535.053,661.244 547.322,675.265 z" id="boundary" inkscape:connector-curvature="0" />
	<path style="fill:none;stroke:red;stroke-width:1px;stroke-linecap:butt;stroke-linejoin:miter;stroke-opacity:1" d="M 561.343,687.534 547.322,675.265 z" id="boundary" inkscape:connector-curvature="0" />
	<path style="fill:none;stroke:red;stroke-width:1px;stroke-linecap:butt;stroke-linejoin:miter;stroke-opacity:1" d="M 561.343,687.534 573.611,701.555 z" id="boundary" inkscape:connector-curvature="0" />
	<path style="fill:none;stroke:red;stroke-width:1px;stroke-linecap:butt;stroke-linejoin:miter;stroke-opacity:1" d="M 591.138,706.813 573.611,701.555 z" id="boundary" inkscape:connector-curvature="0" />
	<path style="fill:none;stroke:red;stroke-width:1px;stroke-linecap:butt;stroke-linejoin:miter;stroke-opacity:1" d="M 591.138,706.813 601.654,720.834 z" id="boundary" inkscape:connector-curvature="0" />
	<path style="fill:none;stroke:red;stroke-width:1px;stroke-linecap:butt;stroke-linejoin:miter;stroke-opacity:1" d="M 627.943,747.124 615.675,733.102 z" id="boundary" inkscape:connector-curvature="0" />
	<path style="fill:none;stroke:red;stroke-width:1px;stroke-linecap:butt;stroke-linejoin:miter;stroke-opacity:1" d="M 648.975,776.919 641.965,759.392 z" id="boundary" inkscape:connector-curvature="0" />
	<path style="fill:none;stroke:red;stroke-width:1px;stroke-linecap:butt;stroke-linejoin:miter;stroke-opacity:1" d="M 641.965,759.392 627.943,747.124 z" id="boundary" inkscape:connector-curvature="0" />
	<path style="fill:none;stroke:red;stroke-width:1px;stroke-linecap:butt;stroke-linejoin:miter;stroke-opacity:1" d="M 615.675,733.102 601.654,720.834 z" id="boundary" inkscape:connector-curvature="0" />
	<path style="fill:none;stroke:red;stroke-width:1px;stroke-linecap:butt;stroke-linejoin:miter;stroke-opacity:1" d="M 648.975,776.919 661.244,790.94 z" id="boundary" inkscape:connector-curvature="0" />
	<path style="fill:none;stroke:red;stroke-width:1px;stroke-linecap:butt;stroke-linejoin:miter;stroke-opacity:1" d="M 661.244,790.94 670.007,806.714 z" id="boundary" inkscape:connector-curvature="0" />
	<path style="fill:none;stroke:red;stroke-width:1px;stroke-linecap:butt;stroke-linejoin:miter;stroke-opacity:1" d="M 678.77,822.488 670.007,806.714 z" id="boundary" inkscape:connector-curvature="0" />
	<path style="fill:none;stroke:red;stroke-width:1px;stroke-linecap:butt;stroke-linejoin:miter;stroke-opacity:1" d="M 671.76,670.007 685.781,680.523 z" id="boundary" inkscape:connector-curvature="0" />
	<path style="fill:none;stroke:red;stroke-width:1px;stroke-linecap:butt;stroke-linejoin:miter;stroke-opacity:1" d="M 698.049,694.544 706.813,710.318 z" id="boundary" inkscape:connector-curvature="0" />
	<path style="fill:none;stroke:red;stroke-width:1px;stroke-linecap:butt;stroke-linejoin:miter;stroke-opacity:1" d="M 719.081,724.339 706.813,710.318 z" id="boundary" inkscape:connector-curvature="0" />
	<path style="fill:none;stroke:red;stroke-width:1px;stroke-linecap:butt;stroke-linejoin:miter;stroke-opacity:1" d="M 692.792,855.788 696.297,873.314 z" id="boundary" inkscape:connector-curvature="0" />
	<path style="fill:none;stroke:red;stroke-width:1px;stroke-linecap:butt;stroke-linejoin:miter;stroke-opacity:1" d="M 692.792,855.788 687.534,838.261 z" id="boundary" inkscape:connector-curvature="0" />
	<path style="fill:none;stroke:red;stroke-width:1px;stroke-linecap:butt;stroke-linejoin:miter;stroke-opacity:1" d="M 727.845,740.113 733.102,757.64 z" id="boundary" inkscape:connector-curvature="0" />
	<path style="fill:none;stroke:red;stroke-width:1px;stroke-linecap:butt;stroke-linejoin:miter;stroke-opacity:1" d="M 727.845,740.113 719.081,724.339 z" id="boundary" inkscape:connector-curvature="0" />
	<path style="fill:none;stroke:red;stroke-width:1px;stroke-linecap:butt;stroke-linejoin:miter;stroke-opacity:1" d="M 733.102,757.64 741.866,773.413 z" id="boundary" inkscape:connector-curvature="0" />
	<path style="fill:none;stroke:red;stroke-width:1px;stroke-linecap:butt;stroke-linejoin:miter;stroke-opacity:1" d="M 685.781,680.523 698.049,694.544 z" id="boundary" inkscape:connector-curvature="0" />
	<path style="fill:none;stroke:red;stroke-width:1px;stroke-linecap:butt;stroke-linejoin:miter;stroke-opacity:1" d="M 687.534,838.261 678.77,822.488 z" id="boundary" inkscape:connector-curvature="0" />
	<path style="fill:none;stroke:red;stroke-width:1px;stroke-linecap:butt;stroke-linejoin:miter;stroke-opacity:1" d="M 755.887,785.682 741.866,773.413 z" id="boundary" inkscape:connector-curvature="0" />
	<path style="fill:none;stroke:red;stroke-width:1px;stroke-linecap:butt;stroke-linejoin:miter;stroke-opacity:1" d="M 755.887,785.682 759.392,803.208 z" id="boundary" inkscape:connector-curvature="0" />
	<path style="fill:none;stroke:red;stroke-width:1px;stroke-linecap:butt;stroke-linejoin:miter;stroke-opacity:1" d="M 768.155,818.982 759.392,803.208 z" id="boundary" inkscape:connector-curvature="0" />
	<path style="fill:none;stroke:red;stroke-width:1px;stroke-linecap:butt;stroke-linejoin:miter;stroke-opacity:1" d="M 768.155,818.982 768.155,836.509 z" id="boundary" inkscape:connector-curvature="0" />
	<path style="fill:none;stroke:red;stroke-width:1px;stroke-linecap:butt;stroke-linejoin:miter;stroke-opacity:1" d="M 776.919,852.283 768.155,836.509 z" id="boundary" inkscape:connector-curvature="0" />
	<path style="fill:none;stroke:red;stroke-width:1px;stroke-linecap:butt;stroke-linejoin:miter;stroke-opacity:1" d="M 776.919,852.283 776.919,869.809 z" id="boundary" inkscape:connector-curvature="0" />
	<path style="fill:none;stroke:red;stroke-width:1px;stroke-linecap:butt;stroke-linejoin:miter;stroke-opacity:1" d="M 696.297,873.314 705.06,889.088 z" id="boundary" inkscape:connector-curvature="0" />
	<path style="fill:none;stroke:red;stroke-width:1px;stroke-linecap:butt;stroke-linejoin:miter;stroke-opacity:1" d="M 705.06,889.088 705.06,906.615 z" id="boundary" inkscape:connector-curvature="0" />
	<path style="fill:none;stroke:red;stroke-width:1px;stroke-linecap:butt;stroke-linejoin:miter;stroke-opacity:1" d="M 713.823,922.389 705.06,906.615 z" id="boundary" inkscape:connector-curvature="0" />
	<path style="fill:none;stroke:red;stroke-width:1px;stroke-linecap:butt;stroke-linejoin:miter;stroke-opacity:1" d="M 713.823,922.389 713.823,939.915 z" id="boundary" inkscape:connector-curvature="0" />
	<path style="fill:none;stroke:red;stroke-width:1px;stroke-linecap:butt;stroke-linejoin:miter;stroke-opacity:1" d="M 715.576,957.442 713.823,939.915 z" id="boundary" inkscape:connector-curvature="0" />
	<path style="fill:none;stroke:red;stroke-width:1px;stroke-linecap:butt;stroke-linejoin:miter;stroke-opacity:1" d="M 715.576,957.442 722.587,974.968 z" id="boundary" inkscape:connector-curvature="0" />
	<path style="fill:none;stroke:red;stroke-width:1px;stroke-linecap:butt;stroke-linejoin:miter;stroke-opacity:1" d="M 776.919,904.862 776.919,922.389 z" id="boundary" inkscape:connector-curvature="0" />
	<path style="fill:none;stroke:red;stroke-width:1px;stroke-linecap:butt;stroke-linejoin:miter;stroke-opacity:1" d="M 776.919,904.862 776.919,887.336 z" id="boundary" inkscape:connector-curvature="0" />
	<path style="fill:none;stroke:red;stroke-width:1px;stroke-linecap:butt;stroke-linejoin:miter;stroke-opacity:1" d="M 776.919,939.915 771.661,967.958 z" id="boundary" inkscape:connector-curvature="0" />
	<path style="fill:none;stroke:red;stroke-width:1px;stroke-linecap:butt;stroke-linejoin:miter;stroke-opacity:1" d="M 776.919,939.915 776.919,922.389 z" id="boundary" inkscape:connector-curvature="0" />
	<path style="fill:none;stroke:red;stroke-width:1px;stroke-linecap:butt;stroke-linejoin:miter;stroke-opacity:1" d="M 731.35,990.742 748.876,996 z" id="boundary" inkscape:connector-curvature="0" />
	<path style="fill:none;stroke:red;stroke-width:1px;stroke-linecap:butt;stroke-linejoin:miter;stroke-opacity:1" d="M 762.898,985.484 748.876,996 z" id="boundary" inkscape:connector-curvature="0" />
	<path style="fill:none;stroke:red;stroke-width:1px;stroke-linecap:butt;stroke-linejoin:miter;stroke-opacity:1" d="M 731.35,990.742 722.587,974.968 z" id="boundary" inkscape:connector-curvature="0" />
	<path style="fill:none;stroke:red;stroke-width:1px;stroke-linecap:butt;stroke-linejoin:miter;stroke-opacity:1" d="M 771.661,967.958 762.898,985.484 z" id="boundary" inkscape:connector-curvature="0" />
	<path style="fill:none;stroke:red;stroke-width:1px;stroke-linecap:butt;stroke-linejoin:miter;stroke-opacity:1" d="M 776.919,869.809 776.919,887.336 z" id="boundary" inkscape:connector-curvature="0" />
	<circle cx="4" cy="762.898" r="4" fill="#0" id="circle0"/>
	<circle cx="18.0212" cy="775.166" r="4" fill="#0" id="circle1"/>
	<circle cx="21.5265" cy="754.134" r="4" fill="#0" id="circle2"/>
	<circle cx="33.7951" cy="783.929" r="4" fill="#0" id="circle3"/>
	<circle cx="35.5477" cy="740.113" r="4" fill="#0" id="circle4"/>
	<circle cx="51.3216" cy="785.682" r="4" fill="#0" id="circle5"/>
	<circle cx="53.0742" cy="740.113" r="4" fill="#0" id="circle6"/>
	<circle cx="67.0954" cy="794.445" r="4" fill="#0" id="circle7"/>
	<circle cx="70.6007" cy="740.113" r="4" fill="#0" id="circle8"/>
	<circle cx="84.6219" cy="794.445" r="4" fill="#0" id="circle9"/>
	<circle cx="86.3746" cy="731.35" r="4" fill="#0" id="circle10"/>
	<circle cx="102.148" cy="794.445" r="4" fill="#0" id="circle11"/>
	<circle cx="103.901" cy="731.35" r="4" fill="#0" id="circle12"/>
	<circle cx="109.159" cy="394.841" r="4" fill="#0" id="circle13"/>
	<circle cx="117.922" cy="377.314" r="4" fill="#0" id="circle14"/>
	<circle cx="117.922" cy="785.682" r="4" fill="#0" id="circle15"/>
	<circle cx="121.428" cy="724.339" r="4" fill="#0" id="circle16"/>
	<circle cx="123.18" cy="407.11" r="4" fill="#0" id="circle17"/>
	<circle cx="126.686" cy="359.788" r="4" fill="#0" id="circle18"/>
	<circle cx="135.449" cy="785.682" r="4" fill="#0" id="circle19"/>
	<circle cx="137.201" cy="417.625" r="4" fill="#0" id="circle20"/>
	<circle cx="138.954" cy="722.587" r="4" fill="#0" id="circle21"/>
	<circle cx="140.707" cy="345.767" r="4" fill="#0" id="circle22"/>
	<circle cx="149.47" cy="328.24" r="4" fill="#0" id="circle23"/>
	<circle cx="151.223" cy="405.357" r="4" fill="#0" id="circle24"/>
	<circle cx="152.975" cy="785.682" r="4" fill="#0" id="circle25"/>
	<circle cx="154.728" cy="713.823" r="4" fill="#0" id="circle26"/>
	<circle cx="163.491" cy="314.219" r="4" fill="#0" id="circle27"/>
	<circle cx="163.491" cy="391.336" r="4" fill="#0" id="circle28"/>
	<circle cx="168.749" cy="776.919" r="4" fill="#0" id="circle29"/>
	<circle cx="170.502" cy="705.06" r="4" fill="#0" id="circle30"/>
	<circle cx="172.254" cy="296.693" r="4" fill="#0" id="circle31"/>
	<circle cx="177.512" cy="379.067" r="4" fill="#0" id="circle32"/>
	<circle cx="186.276" cy="284.424" r="4" fill="#0" id="circle33"/>
	<circle cx="186.276" cy="776.919" r="4" fill="#0" id="circle34"/>
	<circle cx="188.028" cy="701.555" r="4" fill="#0" id="circle35"/>
	<circle cx="193.286" cy="266.898" r="4" fill="#0" id="circle36"/>
	<circle cx="195.039" cy="370.304" r="4" fill="#0" id="circle37"/>
	<circle cx="202.049" cy="687.534" r="4" fill="#0" id="circle38"/>
	<circle cx="202.049" cy="768.155" r="4" fill="#0" id="circle39"/>
	<circle cx="207.307" cy="252.876" r="4" fill="#0" id="circle40"/>
	<circle cx="207.307" cy="356.283" r="4" fill="#0" id="circle41"/>
	<circle cx="216.071" cy="235.35" r="4" fill="#0" id="circle42"/>
	<circle cx="217.823" cy="759.392" r="4" fill="#0" id="circle43"/>
	<circle cx="219.576" cy="678.77" r="4" fill="#0" id="circle44"/>
	<circle cx="221.329" cy="344.014" r="4" fill="#0" id="circle45"/>
	<circle cx="224.834" cy="217.823" r="4" fill="#0" id="circle46"/>
	<circle cx="233.597" cy="329.993" r="4" fill="#0" id="circle47"/>
	<circle cx="235.35" cy="759.392" r="4" fill="#0" id="circle48"/>
	<circle cx="237.102" cy="670.007" r="4" fill="#0" id="circle49"/>
	<circle cx="238.855" cy="205.555" r="4" fill="#0" id="circle50"/>
	<circle cx="247.618" cy="317.724" r="4" fill="#0" id="circle51"/>
	<circle cx="251.124" cy="655.986" r="4" fill="#0" id="circle52"/>
	<circle cx="251.124" cy="750.629" r="4" fill="#0" id="circle53"/>
	<circle cx="254.629" cy="196.792" r="4" fill="#0" id="circle54"/>
	<circle cx="256.382" cy="300.198" r="4" fill="#0" id="circle55"/>
	<circle cx="265.145" cy="643.717" r="4" fill="#0" id="circle56"/>
	<circle cx="265.145" cy="738.36" r="4" fill="#0" id="circle57"/>
	<circle cx="268.65" cy="182.77" r="4" fill="#0" id="circle58"/>
	<circle cx="273.908" cy="291.435" r="4" fill="#0" id="circle59"/>
	<circle cx="277.413" cy="629.696" r="4" fill="#0" id="circle60"/>
	<circle cx="282.671" cy="170.502" r="4" fill="#0" id="circle61"/>
	<circle cx="282.671" cy="729.597" r="4" fill="#0" id="circle62"/>
	<circle cx="286.177" cy="277.413" r="4" fill="#0" id="circle63"/>
	<circle cx="291.435" cy="617.428" r="4" fill="#0" id="circle64"/>
	<circle cx="294.94" cy="715.576" r="4" fill="#0" id="circle65"/>
	<circle cx="300.198" cy="170.502" r="4" fill="#0" id="circle66"/>
	<circle cx="303.703" cy="277.413" r="4" fill="#0" id="circle67"/>
	<circle cx="303.703" cy="603.406" r="4" fill="#0" id="circle68"/>
	<circle cx="310.714" cy="706.813" r="4" fill="#0" id="circle69"/>
	<circle cx="315.972" cy="161.739" r="4" fill="#0" id="circle70"/>
	<circle cx="317.724" cy="591.138" r="4" fill="#0" id="circle71"/>
	<circle cx="319.477" cy="286.177" r="4" fill="#0" id="circle72"/>
	<circle cx="324.735" cy="696.297" r="4" fill="#0" id="circle73"/>
	<circle cx="328.24" cy="301.951" r="4" fill="#0" id="circle74"/>
	<circle cx="328.24" cy="319.477" r="4" fill="#0" id="circle75"/>
	<circle cx="329.993" cy="577.117" r="4" fill="#0" id="circle76"/>
	<circle cx="333.498" cy="161.739" r="4" fill="#0" id="circle77"/>
	<circle cx="337.004" cy="335.251" r="4" fill="#0" id="circle78"/>
	<circle cx="338.756" cy="352.777" r="4" fill="#0" id="circle79"/>
	<circle cx="338.756" cy="680.523" r="4" fill="#0" id="circle80"/>
	<circle cx="344.014" cy="564.848" r="4" fill="#0" id="circle81"/>
	<circle cx="345.767" cy="370.304" r="4" fill="#0" id="circle82"/>
	<circle cx="351.025" cy="161.739" r="4" fill="#0" id="circle83"/>
	<circle cx="351.025" cy="547.322" r="4" fill="#0" id="circle84"/>
	<circle cx="352.777" cy="668.254" r="4" fill="#0" id="circle85"/>
	<circle cx="354.53" cy="386.078" r="4" fill="#0" id="circle86"/>
	<circle cx="354.53" cy="403.604" r="4" fill="#0" id="circle87"/>
	<circle cx="363.293" cy="419.378" r="4" fill="#0" id="circle88"/>
	<circle cx="363.293" cy="436.905" r="4" fill="#0" id="circle89"/>
	<circle cx="365.046" cy="533.3" r="4" fill="#0" id="circle90"/>
	<circle cx="368.551" cy="152.975" r="4" fill="#0" id="circle91"/>
	<circle cx="370.304" cy="659.491" r="4" fill="#0" id="circle92"/>
	<circle cx="372.057" cy="79.364" r="4" fill="#0" id="circle93"/>
	<circle cx="372.057" cy="96.8905" r="4" fill="#0" id="circle94"/>
	<circle cx="372.057" cy="452.678" r="4" fill="#0" id="circle95"/>
	<circle cx="372.057" cy="470.205" r="4" fill="#0" id="circle96"/>
	<circle cx="372.057" cy="487.731" r="4" fill="#0" id="circle97"/>
	<circle cx="372.057" cy="505.258" r="4" fill="#0" id="circle98"/>
	<circle cx="380.82" cy="53.0742" r="4" fill="#0" id="circle99"/>
	<circle cx="380.82" cy="112.664" r="4" fill="#0" id="circle100"/>
	<circle cx="380.82" cy="130.191" r="4" fill="#0" id="circle101"/>
	<circle cx="382.572" cy="645.47" r="4" fill="#0" id="circle102"/>
	<circle cx="394.841" cy="39.053" r="4" fill="#0" id="circle103"/>
	<circle cx="396.594" cy="633.201" r="4" fill="#0" id="circle104"/>
	<circle cx="408.862" cy="25.0318" r="4" fill="#0" id="circle105"/>
	<circle cx="414.12" cy="624.438" r="4" fill="#0" id="circle106"/>
	<circle cx="422.883" cy="12.7633" r="4" fill="#0" id="circle107"/>
	<circle cx="426.389" cy="610.417" r="4" fill="#0" id="circle108"/>
	<circle cx="438.657" cy="4" r="4" fill="#0" id="circle109"/>
	<circle cx="443.915" cy="601.654" r="4" fill="#0" id="circle110"/>
	<circle cx="456.184" cy="4" r="4" fill="#0" id="circle111"/>
	<circle cx="459.689" cy="610.417" r="4" fill="#0" id="circle112"/>
	<circle cx="471.958" cy="12.7633" r="4" fill="#0" id="circle113"/>
	<circle cx="475.463" cy="619.18" r="4" fill="#0" id="circle114"/>
	<circle cx="487.731" cy="21.5265" r="4" fill="#0" id="circle115"/>
	<circle cx="491.237" cy="627.943" r="4" fill="#0" id="circle116"/>
	<circle cx="496.495" cy="37.3004" r="4" fill="#0" id="circle117"/>
	<circle cx="505.258" cy="640.212" r="4" fill="#0" id="circle118"/>
	<circle cx="510.516" cy="49.5689" r="4" fill="#0" id="circle119"/>
	<circle cx="514.021" cy="67.0954" r="4" fill="#0" id="circle120"/>
	<circle cx="514.021" cy="119.675" r="4" fill="#0" id="circle121"/>
	<circle cx="514.021" cy="137.201" r="4" fill="#0" id="circle122"/>
	<circle cx="517.527" cy="654.233" r="4" fill="#0" id="circle123"/>
	<circle cx="522.784" cy="82.8693" r="4" fill="#0" id="circle124"/>
	<circle cx="522.784" cy="100.396" r="4" fill="#0" id="circle125"/>
	<circle cx="522.784" cy="152.975" r="4" fill="#0" id="circle126"/>
	<circle cx="531.548" cy="452.678" r="4" fill="#0" id="circle127"/>
	<circle cx="531.548" cy="470.205" r="4" fill="#0" id="circle128"/>
	<circle cx="531.548" cy="487.731" r="4" fill="#0" id="circle129"/>
	<circle cx="535.053" cy="505.258" r="4" fill="#0" id="circle130"/>
	<circle cx="535.053" cy="661.244" r="4" fill="#0" id="circle131"/>
	<circle cx="538.558" cy="161.739" r="4" fill="#0" id="circle132"/>
	<circle cx="540.311" cy="417.625" r="4" fill="#0" id="circle133"/>
	<circle cx="540.311" cy="435.152" r="4" fill="#0" id="circle134"/>
	<circle cx="543.816" cy="521.032" r="4" fill="#0" id="circle135"/>
	<circle cx="547.322" cy="675.265" r="4" fill="#0" id="circle136"/>
	<circle cx="549.074" cy="373.809" r="4" fill="#0" id="circle137"/>
	<circle cx="549.074" cy="391.336" r="4" fill="#0" id="circle138"/>
	<circle cx="549.074" cy="538.558" r="4" fill="#0" id="circle139"/>
	<circle cx="556.085" cy="161.739" r="4" fill="#0" id="circle140"/>
	<circle cx="557.837" cy="329.993" r="4" fill="#0" id="circle141"/>
	<circle cx="557.837" cy="347.519" r="4" fill="#0" id="circle142"/>
	<circle cx="561.343" cy="687.534" r="4" fill="#0" id="circle143"/>
	<circle cx="563.095" cy="549.074" r="4" fill="#0" id="circle144"/>
	<circle cx="566.601" cy="294.94" r="4" fill="#0" id="circle145"/>
	<circle cx="566.601" cy="312.466" r="4" fill="#0" id="circle146"/>
	<circle cx="573.611" cy="161.739" r="4" fill="#0" id="circle147"/>
	<circle cx="573.611" cy="701.555" r="4" fill="#0" id="circle148"/>
	<circle cx="575.364" cy="277.413" r="4" fill="#0" id="circle149"/>
	<circle cx="575.364" cy="563.095" r="4" fill="#0" id="circle150"/>
	<circle cx="584.127" cy="578.869" r="4" fill="#0" id="circle151"/>
	<circle cx="591.138" cy="161.739" r="4" fill="#0" id="circle152"/>
	<circle cx="591.138" cy="706.813" r="4" fill="#0" id="circle153"/>
	<circle cx="592.89" cy="277.413" r="4" fill="#0" id="circle154"/>
	<circle cx="596.396" cy="592.89" r="4" fill="#0" id="circle155"/>
	<circle cx="601.654" cy="720.834" r="4" fill="#0" id="circle156"/>
	<circle cx="606.912" cy="170.502" r="4" fill="#0" id="circle157"/>
	<circle cx="610.417" cy="280.919" r="4" fill="#0" id="circle158"/>
	<circle cx="610.417" cy="605.159" r="4" fill="#0" id="circle159"/>
	<circle cx="615.675" cy="733.102" r="4" fill="#0" id="circle160"/>
	<circle cx="622.686" cy="179.265" r="4" fill="#0" id="circle161"/>
	<circle cx="622.686" cy="619.18" r="4" fill="#0" id="circle162"/>
	<circle cx="626.191" cy="289.682" r="4" fill="#0" id="circle163"/>
	<circle cx="627.943" cy="747.124" r="4" fill="#0" id="circle164"/>
	<circle cx="636.707" cy="631.449" r="4" fill="#0" id="circle165"/>
	<circle cx="638.459" cy="188.028" r="4" fill="#0" id="circle166"/>
	<circle cx="640.212" cy="301.951" r="4" fill="#0" id="circle167"/>
	<circle cx="641.965" cy="759.392" r="4" fill="#0" id="circle168"/>
	<circle cx="647.223" cy="319.477" r="4" fill="#0" id="circle169"/>
	<circle cx="648.975" cy="645.47" r="4" fill="#0" id="circle170"/>
	<circle cx="648.975" cy="776.919" r="4" fill="#0" id="circle171"/>
	<circle cx="652.481" cy="200.297" r="4" fill="#0" id="circle172"/>
	<circle cx="661.244" cy="329.993" r="4" fill="#0" id="circle173"/>
	<circle cx="661.244" cy="790.94" r="4" fill="#0" id="circle174"/>
	<circle cx="662.996" cy="214.318" r="4" fill="#0" id="circle175"/>
	<circle cx="666.502" cy="652.481" r="4" fill="#0" id="circle176"/>
	<circle cx="670.007" cy="806.714" r="4" fill="#0" id="circle177"/>
	<circle cx="671.76" cy="230.092" r="4" fill="#0" id="circle178"/>
	<circle cx="671.76" cy="344.014" r="4" fill="#0" id="circle179"/>
	<circle cx="671.76" cy="670.007" r="4" fill="#0" id="circle180"/>
	<circle cx="678.77" cy="822.488" r="4" fill="#0" id="circle181"/>
	<circle cx="685.781" cy="242.36" r="4" fill="#0" id="circle182"/>
	<circle cx="685.781" cy="356.283" r="4" fill="#0" id="circle183"/>
	<circle cx="685.781" cy="680.523" r="4" fill="#0" id="circle184"/>
	<circle cx="687.534" cy="838.261" r="4" fill="#0" id="circle185"/>
	<circle cx="692.792" cy="855.788" r="4" fill="#0" id="circle186"/>
	<circle cx="696.297" cy="370.304" r="4" fill="#0" id="circle187"/>
	<circle cx="696.297" cy="873.314" r="4" fill="#0" id="circle188"/>
	<circle cx="698.049" cy="256.382" r="4" fill="#0" id="circle189"/>
	<circle cx="698.049" cy="694.544" r="4" fill="#0" id="circle190"/>
	<circle cx="705.06" cy="386.078" r="4" fill="#0" id="circle191"/>
	<circle cx="705.06" cy="889.088" r="4" fill="#0" id="circle192"/>
	<circle cx="705.06" cy="906.615" r="4" fill="#0" id="circle193"/>
	<circle cx="706.813" cy="272.155" r="4" fill="#0" id="circle194"/>
	<circle cx="706.813" cy="710.318" r="4" fill="#0" id="circle195"/>
	<circle cx="713.823" cy="922.389" r="4" fill="#0" id="circle196"/>
	<circle cx="713.823" cy="939.915" r="4" fill="#0" id="circle197"/>
	<circle cx="715.576" cy="957.442" r="4" fill="#0" id="circle198"/>
	<circle cx="719.081" cy="286.177" r="4" fill="#0" id="circle199"/>
	<circle cx="719.081" cy="398.346" r="4" fill="#0" id="circle200"/>
	<circle cx="719.081" cy="724.339" r="4" fill="#0" id="circle201"/>
	<circle cx="722.587" cy="974.968" r="4" fill="#0" id="circle202"/>
	<circle cx="727.845" cy="301.951" r="4" fill="#0" id="circle203"/>
	<circle cx="727.845" cy="740.113" r="4" fill="#0" id="circle204"/>
	<circle cx="731.35" cy="412.367" r="4" fill="#0" id="circle205"/>
	<circle cx="731.35" cy="990.742" r="4" fill="#0" id="circle206"/>
	<circle cx="733.102" cy="757.64" r="4" fill="#0" id="circle207"/>
	<circle cx="740.113" cy="315.972" r="4" fill="#0" id="circle208"/>
	<circle cx="741.866" cy="773.413" r="4" fill="#0" id="circle209"/>
	<circle cx="748.876" cy="331.746" r="4" fill="#0" id="circle210"/>
	<circle cx="748.876" cy="417.625" r="4" fill="#0" id="circle211"/>
	<circle cx="748.876" cy="996" r="4" fill="#0" id="circle212"/>
	<circle cx="755.887" cy="785.682" r="4" fill="#0" id="circle213"/>
	<circle cx="759.392" cy="345.767" r="4" fill="#0" id="circle214"/>
	<circle cx="759.392" cy="431.647" r="4" fill="#0" id="circle215"/>
	<circle cx="759.392" cy="803.208" r="4" fill="#0" id="circle216"/>
	<circle cx="762.898" cy="985.484" r="4" fill="#0" id="circle217"/>
	<circle cx="768.155" cy="361.541" r="4" fill="#0" id="circle218"/>
	<circle cx="768.155" cy="818.982" r="4" fill="#0" id="circle219"/>
	<circle cx="768.155" cy="836.509" r="4" fill="#0" id="circle220"/>
	<circle cx="771.661" cy="967.958" r="4" fill="#0" id="circle221"/>
	<circle cx="776.919" cy="435.152" r="4" fill="#0" id="circle222"/>
	<circle cx="776.919" cy="852.283" r="4" fill="#0" id="circle223"/>
	<circle cx="776.919" cy="869.809" r="4" fill="#0" id="circle224"/>
	<circle cx="776.919" cy="887.336" r="4" fill="#0" id="circle225"/>
	<circle cx="776.919" cy="904.862" r="4" fill="#0" id="circle226"/>
	<circle cx="776.919" cy="922.389" r="4" fill="#0" id="circle227"/>
	<circle cx="776.919" cy="939.915" r="4" fill="#0" id="circle228"/>
	<circle cx="782.177" cy="373.809" r="4" fill="#0" id="circle229"/>
	<circle cx="789.187" cy="391.336" r="4" fill="#0" id="circle230"/>
	<circle cx="794.445" cy="435.152" r="4" fill="#0" id="circle231"/>
	<circle cx="797.951" cy="407.11" r="4" fill="#0" id="circle232"/>
	</g>
</svg>