<?xml version="1.0" encoding="UTF-8" standalone="no"?>
<!-- Created with CurveBenchmark -->
<svg
	xmlns:dc="http://purl.org/dc/elements/1.1/"
	xmlns:cc="http://creativecommons.org/ns#"
	xmlns:rdf="http://www.w3.org/1999/02/22-rdf-syntax-ns#"
	xmlns:svg="http://www.w3.org/2000/svg"
	xmlns="http://www.w3.org/2000/svg"
	xmlns:sodipodi="http://sodipodi.sourceforge.net/DTD/sodipodi-0.dtd"
	xmlns:inkscape="http://www.inkscape.org/namespaces/inkscape"
	width="1000"
	height="1000"
	id="svg2"
	version="1.1"
	sodipodi:docname="manifold/ccrust-fish020.png.txt">
<defs
	id="defs4" />
<metadata
	id="metadata7">
	<rdf:RDF>
		<cc:Work
			rdf:about="">
			<dc:format>image/svg+xml</dc:format>
			<dc:type
				rdf:resource="http://purl.org/dc/dcmitype/StillImage" />
			<dc:title></dc:title>
		</cc:Work>
	</rdf:RDF>
</metadata>
<g
	inkscape:label="Layer 1"
	inkscape:groupmode="layer"
	id="layer1">
	<path style="fill:none;stroke:red;stroke-width:1px;stroke-linecap:butt;stroke-linejoin:miter;stroke-opacity:1" d="M 56.2105,178.035 85.2164,166.433 z" id="boundary" inkscape:connector-curvature="0" />
	<path style="fill:none;stroke:red;stroke-width:1px;stroke-linecap:butt;stroke-linejoin:miter;stroke-opacity:1" d="M 111.322,151.93 85.2164,166.433 z" id="boundary" inkscape:connector-curvature="0" />
	<path style="fill:none;stroke:red;stroke-width:1px;stroke-linecap:butt;stroke-linejoin:miter;stroke-opacity:1" d="M 195.439,120.023 166.433,131.626 z" id="boundary" inkscape:connector-curvature="0" />
	<path style="fill:none;stroke:red;stroke-width:1px;stroke-linecap:butt;stroke-linejoin:miter;stroke-opacity:1" d="M 166.433,131.626 137.427,137.427 z" id="boundary" inkscape:connector-curvature="0" />
	<path style="fill:none;stroke:red;stroke-width:1px;stroke-linecap:butt;stroke-linejoin:miter;stroke-opacity:1" d="M 111.322,151.93 137.427,137.427 z" id="boundary" inkscape:connector-curvature="0" />
	<path style="fill:none;stroke:red;stroke-width:1px;stroke-linecap:butt;stroke-linejoin:miter;stroke-opacity:1" d="M 6.90058,236.047 4,207.041 z" id="boundary" inkscape:connector-curvature="0" />
	<path style="fill:none;stroke:red;stroke-width:1px;stroke-linecap:butt;stroke-linejoin:miter;stroke-opacity:1" d="M 4,207.041 30.1053,192.538 z" id="boundary" inkscape:connector-curvature="0" />
	<path style="fill:none;stroke:red;stroke-width:1px;stroke-linecap:butt;stroke-linejoin:miter;stroke-opacity:1" d="M 30.1053,192.538 56.2105,178.035 z" id="boundary" inkscape:connector-curvature="0" />
	<path style="fill:none;stroke:red;stroke-width:1px;stroke-linecap:butt;stroke-linejoin:miter;stroke-opacity:1" d="M 50.4094,279.556 30.1053,256.351 z" id="boundary" inkscape:connector-curvature="0" />
	<path style="fill:none;stroke:red;stroke-width:1px;stroke-linecap:butt;stroke-linejoin:miter;stroke-opacity:1" d="M 30.1053,256.351 6.90058,236.047 z" id="boundary" inkscape:connector-curvature="0" />
	<path style="fill:none;stroke:red;stroke-width:1px;stroke-linecap:butt;stroke-linejoin:miter;stroke-opacity:1" d="M 323.064,33.0058 337.567,6.90058 z" id="boundary" inkscape:connector-curvature="0" />
	<path style="fill:none;stroke:red;stroke-width:1px;stroke-linecap:butt;stroke-linejoin:miter;stroke-opacity:1" d="M 337.567,6.90058 366.573,4 z" id="boundary" inkscape:connector-curvature="0" />
	<path style="fill:none;stroke:red;stroke-width:1px;stroke-linecap:butt;stroke-linejoin:miter;stroke-opacity:1" d="M 395.579,4 424.585,9.80117 z" id="boundary" inkscape:connector-curvature="0" />
	<path style="fill:none;stroke:red;stroke-width:1px;stroke-linecap:butt;stroke-linejoin:miter;stroke-opacity:1" d="M 453.591,21.4035 424.585,9.80117 z" id="boundary" inkscape:connector-curvature="0" />
	<path style="fill:none;stroke:red;stroke-width:1px;stroke-linecap:butt;stroke-linejoin:miter;stroke-opacity:1" d="M 366.573,4 395.579,4 z" id="boundary" inkscape:connector-curvature="0" />
	<path style="fill:none;stroke:red;stroke-width:1px;stroke-linecap:butt;stroke-linejoin:miter;stroke-opacity:1" d="M 195.439,120.023 224.444,108.421 z" id="boundary" inkscape:connector-curvature="0" />
	<path style="fill:none;stroke:red;stroke-width:1px;stroke-linecap:butt;stroke-linejoin:miter;stroke-opacity:1" d="M 253.45,102.62 224.444,108.421 z" id="boundary" inkscape:connector-curvature="0" />
	<path style="fill:none;stroke:red;stroke-width:1px;stroke-linecap:butt;stroke-linejoin:miter;stroke-opacity:1" d="M 282.456,96.8187 253.45,102.62 z" id="boundary" inkscape:connector-curvature="0" />
	<path style="fill:none;stroke:red;stroke-width:1px;stroke-linecap:butt;stroke-linejoin:miter;stroke-opacity:1" d="M 294.058,50.4094 282.456,96.8187 z" id="boundary" inkscape:connector-curvature="0" />
	<path style="fill:none;stroke:red;stroke-width:1px;stroke-linecap:butt;stroke-linejoin:miter;stroke-opacity:1" d="M 323.064,33.0058 294.058,50.4094 z" id="boundary" inkscape:connector-curvature="0" />
	<path style="fill:none;stroke:red;stroke-width:1px;stroke-linecap:butt;stroke-linejoin:miter;stroke-opacity:1" d="M 453.591,21.4035 479.696,35.9064 z" id="boundary" inkscape:connector-curvature="0" />
	<path style="fill:none;stroke:red;stroke-width:1px;stroke-linecap:butt;stroke-linejoin:miter;stroke-opacity:1" d="M 73.614,299.86 50.4094,279.556 z" id="boundary" inkscape:connector-curvature="0" />
	<path style="fill:none;stroke:red;stroke-width:1px;stroke-linecap:butt;stroke-linejoin:miter;stroke-opacity:1" d="M 96.8187,317.263 73.614,299.86 z" id="boundary" inkscape:connector-curvature="0" />
	<path style="fill:none;stroke:red;stroke-width:1px;stroke-linecap:butt;stroke-linejoin:miter;stroke-opacity:1" d="M 125.825,328.865 96.8187,317.263 z" id="boundary" inkscape:connector-curvature="0" />
	<path style="fill:none;stroke:red;stroke-width:1px;stroke-linecap:butt;stroke-linejoin:miter;stroke-opacity:1" d="M 125.825,328.865 154.83,337.567 z" id="boundary" inkscape:connector-curvature="0" />
	<path style="fill:none;stroke:red;stroke-width:1px;stroke-linecap:butt;stroke-linejoin:miter;stroke-opacity:1" d="M 154.83,337.567 183.836,349.17 z" id="boundary" inkscape:connector-curvature="0" />
	<path style="fill:none;stroke:red;stroke-width:1px;stroke-linecap:butt;stroke-linejoin:miter;stroke-opacity:1" d="M 241.848,369.474 212.842,360.772 z" id="boundary" inkscape:connector-curvature="0" />
	<path style="fill:none;stroke:red;stroke-width:1px;stroke-linecap:butt;stroke-linejoin:miter;stroke-opacity:1" d="M 212.842,360.772 183.836,349.17 z" id="boundary" inkscape:connector-curvature="0" />
	<path style="fill:none;stroke:red;stroke-width:1px;stroke-linecap:butt;stroke-linejoin:miter;stroke-opacity:1" d="M 288.257,395.579 299.86,424.585 z" id="boundary" inkscape:connector-curvature="0" />
	<path style="fill:none;stroke:red;stroke-width:1px;stroke-linecap:butt;stroke-linejoin:miter;stroke-opacity:1" d="M 288.257,395.579 270.854,372.374 z" id="boundary" inkscape:connector-curvature="0" />
	<path style="fill:none;stroke:red;stroke-width:1px;stroke-linecap:butt;stroke-linejoin:miter;stroke-opacity:1" d="M 241.848,369.474 270.854,372.374 z" id="boundary" inkscape:connector-curvature="0" />
	<path style="fill:none;stroke:red;stroke-width:1px;stroke-linecap:butt;stroke-linejoin:miter;stroke-opacity:1" d="M 299.86,424.585 317.263,447.789 z" id="boundary" inkscape:connector-curvature="0" />
	<path style="fill:none;stroke:red;stroke-width:1px;stroke-linecap:butt;stroke-linejoin:miter;stroke-opacity:1" d="M 441.988,363.673 470.994,366.573 z" id="boundary" inkscape:connector-curvature="0" />
	<path style="fill:none;stroke:red;stroke-width:1px;stroke-linecap:butt;stroke-linejoin:miter;stroke-opacity:1" d="M 470.994,366.573 500,360.772 z" id="boundary" inkscape:connector-curvature="0" />
	<path style="fill:none;stroke:red;stroke-width:1px;stroke-linecap:butt;stroke-linejoin:miter;stroke-opacity:1" d="M 459.392,421.684 453.591,392.678 z" id="boundary" inkscape:connector-curvature="0" />
	<path style="fill:none;stroke:red;stroke-width:1px;stroke-linecap:butt;stroke-linejoin:miter;stroke-opacity:1" d="M 450.69,453.591 459.392,421.684 z" id="boundary" inkscape:connector-curvature="0" />
	<path style="fill:none;stroke:red;stroke-width:1px;stroke-linecap:butt;stroke-linejoin:miter;stroke-opacity:1" d="M 398.48,465.193 369.474,476.795 z" id="boundary" inkscape:connector-curvature="0" />
	<path style="fill:none;stroke:red;stroke-width:1px;stroke-linecap:butt;stroke-linejoin:miter;stroke-opacity:1" d="M 369.474,476.795 340.468,465.193 z" id="boundary" inkscape:connector-curvature="0" />
	<path style="fill:none;stroke:red;stroke-width:1px;stroke-linecap:butt;stroke-linejoin:miter;stroke-opacity:1" d="M 340.468,465.193 317.263,447.789 z" id="boundary" inkscape:connector-curvature="0" />
	<path style="fill:none;stroke:red;stroke-width:1px;stroke-linecap:butt;stroke-linejoin:miter;stroke-opacity:1" d="M 450.69,453.591 427.485,476.795 z" id="boundary" inkscape:connector-curvature="0" />
	<path style="fill:none;stroke:red;stroke-width:1px;stroke-linecap:butt;stroke-linejoin:miter;stroke-opacity:1" d="M 427.485,476.795 398.48,465.193 z" id="boundary" inkscape:connector-curvature="0" />
	<path style="fill:none;stroke:red;stroke-width:1px;stroke-linecap:butt;stroke-linejoin:miter;stroke-opacity:1" d="M 500,360.772 529.006,360.772 z" id="boundary" inkscape:connector-curvature="0" />
	<path style="fill:none;stroke:red;stroke-width:1px;stroke-linecap:butt;stroke-linejoin:miter;stroke-opacity:1" d="M 479.696,35.9064 505.801,50.4094 z" id="boundary" inkscape:connector-curvature="0" />
	<path style="fill:none;stroke:red;stroke-width:1px;stroke-linecap:butt;stroke-linejoin:miter;stroke-opacity:1" d="M 531.906,64.9123 558.012,79.4152 z" id="boundary" inkscape:connector-curvature="0" />
	<path style="fill:none;stroke:red;stroke-width:1px;stroke-linecap:butt;stroke-linejoin:miter;stroke-opacity:1" d="M 531.906,64.9123 505.801,50.4094 z" id="boundary" inkscape:connector-curvature="0" />
	<path style="fill:none;stroke:red;stroke-width:1px;stroke-linecap:butt;stroke-linejoin:miter;stroke-opacity:1" d="M 668.234,73.614 639.228,79.4152 z" id="boundary" inkscape:connector-curvature="0" />
	<path style="fill:none;stroke:red;stroke-width:1px;stroke-linecap:butt;stroke-linejoin:miter;stroke-opacity:1" d="M 668.234,73.614 697.24,85.2164 z" id="boundary" inkscape:connector-curvature="0" />
	<path style="fill:none;stroke:red;stroke-width:1px;stroke-linecap:butt;stroke-linejoin:miter;stroke-opacity:1" d="M 639.228,79.4152 610.222,88.117 z" id="boundary" inkscape:connector-curvature="0" />
	<path style="fill:none;stroke:red;stroke-width:1px;stroke-linecap:butt;stroke-linejoin:miter;stroke-opacity:1" d="M 558.012,79.4152 581.216,96.8187 z" id="boundary" inkscape:connector-curvature="0" />
	<path style="fill:none;stroke:red;stroke-width:1px;stroke-linecap:butt;stroke-linejoin:miter;stroke-opacity:1" d="M 581.216,96.8187 610.222,88.117 z" id="boundary" inkscape:connector-curvature="0" />
	<path style="fill:none;stroke:red;stroke-width:1px;stroke-linecap:butt;stroke-linejoin:miter;stroke-opacity:1" d="M 697.24,85.2164 720.444,102.62 z" id="boundary" inkscape:connector-curvature="0" />
	<path style="fill:none;stroke:red;stroke-width:1px;stroke-linecap:butt;stroke-linejoin:miter;stroke-opacity:1" d="M 720.444,102.62 743.649,120.023 z" id="boundary" inkscape:connector-curvature="0" />
	<path style="fill:none;stroke:red;stroke-width:1px;stroke-linecap:butt;stroke-linejoin:miter;stroke-opacity:1" d="M 763.953,143.228 743.649,120.023 z" id="boundary" inkscape:connector-curvature="0" />
	<path style="fill:none;stroke:red;stroke-width:1px;stroke-linecap:butt;stroke-linejoin:miter;stroke-opacity:1" d="M 888.678,146.129 917.684,134.526 z" id="boundary" inkscape:connector-curvature="0" />
	<path style="fill:none;stroke:red;stroke-width:1px;stroke-linecap:butt;stroke-linejoin:miter;stroke-opacity:1" d="M 888.678,146.129 862.573,160.632 z" id="boundary" inkscape:connector-curvature="0" />
	<path style="fill:none;stroke:red;stroke-width:1px;stroke-linecap:butt;stroke-linejoin:miter;stroke-opacity:1" d="M 946.69,125.825 975.696,120.023 z" id="boundary" inkscape:connector-curvature="0" />
	<path style="fill:none;stroke:red;stroke-width:1px;stroke-linecap:butt;stroke-linejoin:miter;stroke-opacity:1" d="M 975.696,120.023 993.099,143.228 z" id="boundary" inkscape:connector-curvature="0" />
	<path style="fill:none;stroke:red;stroke-width:1px;stroke-linecap:butt;stroke-linejoin:miter;stroke-opacity:1" d="M 917.684,134.526 946.69,125.825 z" id="boundary" inkscape:connector-curvature="0" />
	<path style="fill:none;stroke:red;stroke-width:1px;stroke-linecap:butt;stroke-linejoin:miter;stroke-opacity:1" d="M 993.099,143.228 981.497,183.836 z" id="boundary" inkscape:connector-curvature="0" />
	<path style="fill:none;stroke:red;stroke-width:1px;stroke-linecap:butt;stroke-linejoin:miter;stroke-opacity:1" d="M 833.567,172.234 804.561,183.836 z" id="boundary" inkscape:connector-curvature="0" />
	<path style="fill:none;stroke:red;stroke-width:1px;stroke-linecap:butt;stroke-linejoin:miter;stroke-opacity:1" d="M 804.561,183.836 778.456,169.333 z" id="boundary" inkscape:connector-curvature="0" />
	<path style="fill:none;stroke:red;stroke-width:1px;stroke-linecap:butt;stroke-linejoin:miter;stroke-opacity:1" d="M 778.456,169.333 763.953,143.228 z" id="boundary" inkscape:connector-curvature="0" />
	<path style="fill:none;stroke:red;stroke-width:1px;stroke-linecap:butt;stroke-linejoin:miter;stroke-opacity:1" d="M 981.497,183.836 975.696,212.842 z" id="boundary" inkscape:connector-curvature="0" />
	<path style="fill:none;stroke:red;stroke-width:1px;stroke-linecap:butt;stroke-linejoin:miter;stroke-opacity:1" d="M 975.696,241.848 975.696,212.842 z" id="boundary" inkscape:connector-curvature="0" />
	<path style="fill:none;stroke:red;stroke-width:1px;stroke-linecap:butt;stroke-linejoin:miter;stroke-opacity:1" d="M 833.567,172.234 862.573,160.632 z" id="boundary" inkscape:connector-curvature="0" />
	<path style="fill:none;stroke:red;stroke-width:1px;stroke-linecap:butt;stroke-linejoin:miter;stroke-opacity:1" d="M 558.012,360.772 529.006,360.772 z" id="boundary" inkscape:connector-curvature="0" />
	<path style="fill:none;stroke:red;stroke-width:1px;stroke-linecap:butt;stroke-linejoin:miter;stroke-opacity:1" d="M 587.018,357.871 558.012,360.772 z" id="boundary" inkscape:connector-curvature="0" />
	<path style="fill:none;stroke:red;stroke-width:1px;stroke-linecap:butt;stroke-linejoin:miter;stroke-opacity:1" d="M 645.029,360.772 616.023,354.971 z" id="boundary" inkscape:connector-curvature="0" />
	<path style="fill:none;stroke:red;stroke-width:1px;stroke-linecap:butt;stroke-linejoin:miter;stroke-opacity:1" d="M 616.023,354.971 587.018,357.871 z" id="boundary" inkscape:connector-curvature="0" />
	<path style="fill:none;stroke:red;stroke-width:1px;stroke-linecap:butt;stroke-linejoin:miter;stroke-opacity:1" d="M 772.655,328.865 778.456,282.456 z" id="boundary" inkscape:connector-curvature="0" />
	<path style="fill:none;stroke:red;stroke-width:1px;stroke-linecap:butt;stroke-linejoin:miter;stroke-opacity:1" d="M 778.456,282.456 807.462,279.556 z" id="boundary" inkscape:connector-curvature="0" />
	<path style="fill:none;stroke:red;stroke-width:1px;stroke-linecap:butt;stroke-linejoin:miter;stroke-opacity:1" d="M 645.029,360.772 674.035,372.374 z" id="boundary" inkscape:connector-curvature="0" />
	<path style="fill:none;stroke:red;stroke-width:1px;stroke-linecap:butt;stroke-linejoin:miter;stroke-opacity:1" d="M 674.035,372.374 703.041,378.175 z" id="boundary" inkscape:connector-curvature="0" />
	<path style="fill:none;stroke:red;stroke-width:1px;stroke-linecap:butt;stroke-linejoin:miter;stroke-opacity:1" d="M 758.152,360.772 732.047,378.175 z" id="boundary" inkscape:connector-curvature="0" />
	<path style="fill:none;stroke:red;stroke-width:1px;stroke-linecap:butt;stroke-linejoin:miter;stroke-opacity:1" d="M 732.047,378.175 703.041,378.175 z" id="boundary" inkscape:connector-curvature="0" />
	<path style="fill:none;stroke:red;stroke-width:1px;stroke-linecap:butt;stroke-linejoin:miter;stroke-opacity:1" d="M 772.655,328.865 758.152,360.772 z" id="boundary" inkscape:connector-curvature="0" />
	<path style="fill:none;stroke:red;stroke-width:1px;stroke-linecap:butt;stroke-linejoin:miter;stroke-opacity:1" d="M 836.468,291.158 859.673,308.561 z" id="boundary" inkscape:connector-curvature="0" />
	<path style="fill:none;stroke:red;stroke-width:1px;stroke-linecap:butt;stroke-linejoin:miter;stroke-opacity:1" d="M 836.468,291.158 807.462,279.556 z" id="boundary" inkscape:connector-curvature="0" />
	<path style="fill:none;stroke:red;stroke-width:1px;stroke-linecap:butt;stroke-linejoin:miter;stroke-opacity:1" d="M 987.298,299.86 978.596,270.854 z" id="boundary" inkscape:connector-curvature="0" />
	<path style="fill:none;stroke:red;stroke-width:1px;stroke-linecap:butt;stroke-linejoin:miter;stroke-opacity:1" d="M 978.596,270.854 975.696,241.848 z" id="boundary" inkscape:connector-curvature="0" />
	<path style="fill:none;stroke:red;stroke-width:1px;stroke-linecap:butt;stroke-linejoin:miter;stroke-opacity:1" d="M 859.673,308.561 885.778,323.064 z" id="boundary" inkscape:connector-curvature="0" />
	<path style="fill:none;stroke:red;stroke-width:1px;stroke-linecap:butt;stroke-linejoin:miter;stroke-opacity:1" d="M 911.883,337.567 885.778,323.064 z" id="boundary" inkscape:connector-curvature="0" />
	<path style="fill:none;stroke:red;stroke-width:1px;stroke-linecap:butt;stroke-linejoin:miter;stroke-opacity:1" d="M 969.895,349.17 940.889,343.368 z" id="boundary" inkscape:connector-curvature="0" />
	<path style="fill:none;stroke:red;stroke-width:1px;stroke-linecap:butt;stroke-linejoin:miter;stroke-opacity:1" d="M 940.889,343.368 911.883,337.567 z" id="boundary" inkscape:connector-curvature="0" />
	<path style="fill:none;stroke:red;stroke-width:1px;stroke-linecap:butt;stroke-linejoin:miter;stroke-opacity:1" d="M 987.298,299.86 996,328.865 z" id="boundary" inkscape:connector-curvature="0" />
	<path style="fill:none;stroke:red;stroke-width:1px;stroke-linecap:butt;stroke-linejoin:miter;stroke-opacity:1" d="M 996,328.865 969.895,349.17 z" id="boundary" inkscape:connector-curvature="0" />
	<circle cx="4" cy="207.041" r="4" fill="#0" id="circle0"/>
	<circle cx="6.90058" cy="236.047" r="4" fill="#0" id="circle1"/>
	<circle cx="30.1053" cy="192.538" r="4" fill="#0" id="circle2"/>
	<circle cx="30.1053" cy="256.351" r="4" fill="#0" id="circle3"/>
	<circle cx="50.4094" cy="279.556" r="4" fill="#0" id="circle4"/>
	<circle cx="56.2105" cy="178.035" r="4" fill="#0" id="circle5"/>
	<circle cx="73.614" cy="299.86" r="4" fill="#0" id="circle6"/>
	<circle cx="85.2164" cy="166.433" r="4" fill="#0" id="circle7"/>
	<circle cx="96.8187" cy="317.263" r="4" fill="#0" id="circle8"/>
	<circle cx="111.322" cy="151.93" r="4" fill="#0" id="circle9"/>
	<circle cx="125.825" cy="328.865" r="4" fill="#0" id="circle10"/>
	<circle cx="137.427" cy="137.427" r="4" fill="#0" id="circle11"/>
	<circle cx="154.83" cy="337.567" r="4" fill="#0" id="circle12"/>
	<circle cx="166.433" cy="131.626" r="4" fill="#0" id="circle13"/>
	<circle cx="183.836" cy="349.17" r="4" fill="#0" id="circle14"/>
	<circle cx="195.439" cy="120.023" r="4" fill="#0" id="circle15"/>
	<circle cx="212.842" cy="360.772" r="4" fill="#0" id="circle16"/>
	<circle cx="224.444" cy="108.421" r="4" fill="#0" id="circle17"/>
	<circle cx="241.848" cy="369.474" r="4" fill="#0" id="circle18"/>
	<circle cx="253.45" cy="102.62" r="4" fill="#0" id="circle19"/>
	<circle cx="270.854" cy="372.374" r="4" fill="#0" id="circle20"/>
	<circle cx="282.456" cy="96.8187" r="4" fill="#0" id="circle21"/>
	<circle cx="288.257" cy="395.579" r="4" fill="#0" id="circle22"/>
	<circle cx="294.058" cy="50.4094" r="4" fill="#0" id="circle23"/>
	<circle cx="299.86" cy="424.585" r="4" fill="#0" id="circle24"/>
	<circle cx="317.263" cy="447.789" r="4" fill="#0" id="circle25"/>
	<circle cx="323.064" cy="33.0058" r="4" fill="#0" id="circle26"/>
	<circle cx="337.567" cy="6.90058" r="4" fill="#0" id="circle27"/>
	<circle cx="340.468" cy="465.193" r="4" fill="#0" id="circle28"/>
	<circle cx="366.573" cy="4" r="4" fill="#0" id="circle29"/>
	<circle cx="369.474" cy="476.795" r="4" fill="#0" id="circle30"/>
	<circle cx="395.579" cy="4" r="4" fill="#0" id="circle31"/>
	<circle cx="398.48" cy="465.193" r="4" fill="#0" id="circle32"/>
	<circle cx="424.585" cy="9.80117" r="4" fill="#0" id="circle33"/>
	<circle cx="427.485" cy="476.795" r="4" fill="#0" id="circle34"/>
	<circle cx="441.988" cy="363.673" r="4" fill="#0" id="circle35"/>
	<circle cx="450.69" cy="453.591" r="4" fill="#0" id="circle36"/>
	<circle cx="453.591" cy="21.4035" r="4" fill="#0" id="circle37"/>
	<circle cx="453.591" cy="392.678" r="4" fill="#0" id="circle38"/>
	<circle cx="459.392" cy="421.684" r="4" fill="#0" id="circle39"/>
	<circle cx="470.994" cy="366.573" r="4" fill="#0" id="circle40"/>
	<circle cx="479.696" cy="35.9064" r="4" fill="#0" id="circle41"/>
	<circle cx="500" cy="360.772" r="4" fill="#0" id="circle42"/>
	<circle cx="505.801" cy="50.4094" r="4" fill="#0" id="circle43"/>
	<circle cx="529.006" cy="360.772" r="4" fill="#0" id="circle44"/>
	<circle cx="531.906" cy="64.9123" r="4" fill="#0" id="circle45"/>
	<circle cx="558.012" cy="79.4152" r="4" fill="#0" id="circle46"/>
	<circle cx="558.012" cy="360.772" r="4" fill="#0" id="circle47"/>
	<circle cx="581.216" cy="96.8187" r="4" fill="#0" id="circle48"/>
	<circle cx="587.018" cy="357.871" r="4" fill="#0" id="circle49"/>
	<circle cx="610.222" cy="88.117" r="4" fill="#0" id="circle50"/>
	<circle cx="616.023" cy="354.971" r="4" fill="#0" id="circle51"/>
	<circle cx="639.228" cy="79.4152" r="4" fill="#0" id="circle52"/>
	<circle cx="645.029" cy="360.772" r="4" fill="#0" id="circle53"/>
	<circle cx="668.234" cy="73.614" r="4" fill="#0" id="circle54"/>
	<circle cx="674.035" cy="372.374" r="4" fill="#0" id="circle55"/>
	<circle cx="697.24" cy="85.2164" r="4" fill="#0" id="circle56"/>
	<circle cx="703.041" cy="378.175" r="4" fill="#0" id="circle57"/>
	<circle cx="720.444" cy="102.62" r="4" fill="#0" id="circle58"/>
	<circle cx="732.047" cy="378.175" r="4" fill="#0" id="circle59"/>
	<circle cx="743.649" cy="120.023" r="4" fill="#0" id="circle60"/>
	<circle cx="758.152" cy="360.772" r="4" fill="#0" id="circle61"/>
	<circle cx="763.953" cy="143.228" r="4" fill="#0" id="circle62"/>
	<circle cx="772.655" cy="328.865" r="4" fill="#0" id="circle63"/>
	<circle cx="778.456" cy="169.333" r="4" fill="#0" id="circle64"/>
	<circle cx="778.456" cy="282.456" r="4" fill="#0" id="circle65"/>
	<circle cx="804.561" cy="183.836" r="4" fill="#0" id="circle66"/>
	<circle cx="807.462" cy="279.556" r="4" fill="#0" id="circle67"/>
	<circle cx="833.567" cy="172.234" r="4" fill="#0" id="circle68"/>
	<circle cx="836.468" cy="291.158" r="4" fill="#0" id="circle69"/>
	<circle cx="859.673" cy="308.561" r="4" fill="#0" id="circle70"/>
	<circle cx="862.573" cy="160.632" r="4" fill="#0" id="circle71"/>
	<circle cx="885.778" cy="323.064" r="4" fill="#0" id="circle72"/>
	<circle cx="888.678" cy="146.129" r="4" fill="#0" id="circle73"/>
	<circle cx="911.883" cy="337.567" r="4" fill="#0" id="circle74"/>
	<circle cx="917.684" cy="134.526" r="4" fill="#0" id="circle75"/>
	<circle cx="940.889" cy="343.368" r="4" fill="#0" id="circle76"/>
	<circle cx="946.69" cy="125.825" r="4" fill="#0" id="circle77"/>
	<circle cx="969.895" cy="349.17" r="4" fill="#0" id="circle78"/>
	<circle cx="975.696" cy="120.023" r="4" fill="#0" id="circle79"/>
	<circle cx="975.696" cy="212.842" r="4" fill="#0" id="circle80"/>
	<circle cx="975.696" cy="241.848" r="4" fill="#0" id="circle81"/>
	<circle cx="978.596" cy="270.854" r="4" fill="#0" id="circle82"/>
	<circle cx="981.497" cy="183.836" r="4" fill="#0" id="circle83"/>
	<circle cx="987.298" cy="299.86" r="4" fill="#0" id="circle84"/>
	<circle cx="993.099" cy="143.228" r="4" fill="#0" id="circle85"/>
	<circle cx="996" cy="328.865" r="4" fill="#0" id="circle86"/>
	</g>
</svg>