<?xml version="1.0" encoding="UTF-8" standalone="no"?>
<!-- Created with CurveBenchmark -->
<svg
	xmlns:dc="http://purl.org/dc/elements/1.1/"
	xmlns:cc="http://creativecommons.org/ns#"
	xmlns:rdf="http://www.w3.org/1999/02/22-rdf-syntax-ns#"
	xmlns:svg="http://www.w3.org/2000/svg"
	xmlns="http://www.w3.org/2000/svg"
	xmlns:sodipodi="http://sodipodi.sourceforge.net/DTD/sodipodi-0.dtd"
	xmlns:inkscape="http://www.inkscape.org/namespaces/inkscape"
	width="1000"
	height="1000"
	id="svg2"
	version="1.1"
	sodipodi:docname="manifold/ccrust-television125.png.txt">
<defs
	id="defs4" />
<metadata
	id="metadata7">
	<rdf:RDF>
		<cc:Work
			rdf:about="">
			<dc:format>image/svg+xml</dc:format>
			<dc:type
				rdf:resource="http://purl.org/dc/dcmitype/StillImage" />
			<dc:title></dc:title>
		</cc:Work>
	</rdf:RDF>
</metadata>
<g
	inkscape:label="Layer 1"
	inkscape:groupmode="layer"
	id="layer1">
	<path style="fill:none;stroke:red;stroke-width:1px;stroke-linecap:butt;stroke-linejoin:miter;stroke-opacity:1" d="M 223.573,11.8419 223.573,51.0514 z" id="boundary" inkscape:connector-curvature="0" />
	<path style="fill:none;stroke:red;stroke-width:1px;stroke-linecap:butt;stroke-linejoin:miter;stroke-opacity:1" d="M 223.573,11.8419 262.783,4 z" id="boundary" inkscape:connector-curvature="0" />
	<path style="fill:none;stroke:red;stroke-width:1px;stroke-linecap:butt;stroke-linejoin:miter;stroke-opacity:1" d="M 223.573,90.2609 223.573,129.47 z" id="boundary" inkscape:connector-curvature="0" />
	<path style="fill:none;stroke:red;stroke-width:1px;stroke-linecap:butt;stroke-linejoin:miter;stroke-opacity:1" d="M 223.573,168.68 223.573,129.47 z" id="boundary" inkscape:connector-curvature="0" />
	<path style="fill:none;stroke:red;stroke-width:1px;stroke-linecap:butt;stroke-linejoin:miter;stroke-opacity:1" d="M 223.573,90.2609 223.573,51.0514 z" id="boundary" inkscape:connector-curvature="0" />
	<path style="fill:none;stroke:red;stroke-width:1px;stroke-linecap:butt;stroke-linejoin:miter;stroke-opacity:1" d="M 223.573,207.889 223.573,247.099 z" id="boundary" inkscape:connector-curvature="0" />
	<path style="fill:none;stroke:red;stroke-width:1px;stroke-linecap:butt;stroke-linejoin:miter;stroke-opacity:1" d="M 223.573,286.308 223.573,325.518 z" id="boundary" inkscape:connector-curvature="0" />
	<path style="fill:none;stroke:red;stroke-width:1px;stroke-linecap:butt;stroke-linejoin:miter;stroke-opacity:1" d="M 223.573,364.727 223.573,325.518 z" id="boundary" inkscape:connector-curvature="0" />
	<path style="fill:none;stroke:red;stroke-width:1px;stroke-linecap:butt;stroke-linejoin:miter;stroke-opacity:1" d="M 419.621,525.486 380.411,525.486 z" id="boundary" inkscape:connector-curvature="0" />
	<path style="fill:none;stroke:red;stroke-width:1px;stroke-linecap:butt;stroke-linejoin:miter;stroke-opacity:1" d="M 223.573,247.099 223.573,286.308 z" id="boundary" inkscape:connector-curvature="0" />
	<path style="fill:none;stroke:red;stroke-width:1px;stroke-linecap:butt;stroke-linejoin:miter;stroke-opacity:1" d="M 223.573,207.889 223.573,168.68 z" id="boundary" inkscape:connector-curvature="0" />
	<path style="fill:none;stroke:red;stroke-width:1px;stroke-linecap:butt;stroke-linejoin:miter;stroke-opacity:1" d="M 74.5771,690.166 43.2095,662.719 z" id="boundary" inkscape:connector-curvature="0" />
	<path style="fill:none;stroke:red;stroke-width:1px;stroke-linecap:butt;stroke-linejoin:miter;stroke-opacity:1" d="M 223.573,403.937 223.573,443.146 z" id="boundary" inkscape:connector-curvature="0" />
	<path style="fill:none;stroke:red;stroke-width:1px;stroke-linecap:butt;stroke-linejoin:miter;stroke-opacity:1" d="M 223.573,364.727 223.573,403.937 z" id="boundary" inkscape:connector-curvature="0" />
	<path style="fill:none;stroke:red;stroke-width:1px;stroke-linecap:butt;stroke-linejoin:miter;stroke-opacity:1" d="M 223.573,482.356 223.573,443.146 z" id="boundary" inkscape:connector-curvature="0" />
	<path style="fill:none;stroke:red;stroke-width:1px;stroke-linecap:butt;stroke-linejoin:miter;stroke-opacity:1" d="M 262.783,4 301.992,4 z" id="boundary" inkscape:connector-curvature="0" />
	<path style="fill:none;stroke:red;stroke-width:1px;stroke-linecap:butt;stroke-linejoin:miter;stroke-opacity:1" d="M 262.783,525.486 223.573,521.565 z" id="boundary" inkscape:connector-curvature="0" />
	<path style="fill:none;stroke:red;stroke-width:1px;stroke-linecap:butt;stroke-linejoin:miter;stroke-opacity:1" d="M 223.573,521.565 223.573,482.356 z" id="boundary" inkscape:connector-curvature="0" />
	<path style="fill:none;stroke:red;stroke-width:1px;stroke-linecap:butt;stroke-linejoin:miter;stroke-opacity:1" d="M 301.992,525.486 262.783,525.486 z" id="boundary" inkscape:connector-curvature="0" />
	<path style="fill:none;stroke:red;stroke-width:1px;stroke-linecap:butt;stroke-linejoin:miter;stroke-opacity:1" d="M 301.992,4 341.202,4 z" id="boundary" inkscape:connector-curvature="0" />
	<path style="fill:none;stroke:red;stroke-width:1px;stroke-linecap:butt;stroke-linejoin:miter;stroke-opacity:1" d="M 341.202,525.486 301.992,525.486 z" id="boundary" inkscape:connector-curvature="0" />
	<path style="fill:none;stroke:red;stroke-width:1px;stroke-linecap:butt;stroke-linejoin:miter;stroke-opacity:1" d="M 380.411,525.486 341.202,525.486 z" id="boundary" inkscape:connector-curvature="0" />
	<path style="fill:none;stroke:red;stroke-width:1px;stroke-linecap:butt;stroke-linejoin:miter;stroke-opacity:1" d="M 341.202,4 380.411,4 z" id="boundary" inkscape:connector-curvature="0" />
	<path style="fill:none;stroke:red;stroke-width:1px;stroke-linecap:butt;stroke-linejoin:miter;stroke-opacity:1" d="M 82.419,897.976 43.2095,897.976 z" id="boundary" inkscape:connector-curvature="0" />
	<path style="fill:none;stroke:red;stroke-width:1px;stroke-linecap:butt;stroke-linejoin:miter;stroke-opacity:1" d="M 43.2095,897.976 4,913.66 z" id="boundary" inkscape:connector-curvature="0" />
	<path style="fill:none;stroke:red;stroke-width:1px;stroke-linecap:butt;stroke-linejoin:miter;stroke-opacity:1" d="M 4,952.87 4,913.66 z" id="boundary" inkscape:connector-curvature="0" />
	<path style="fill:none;stroke:red;stroke-width:1px;stroke-linecap:butt;stroke-linejoin:miter;stroke-opacity:1" d="M 35.3676,980.316 4,952.87 z" id="boundary" inkscape:connector-curvature="0" />
	<path style="fill:none;stroke:red;stroke-width:1px;stroke-linecap:butt;stroke-linejoin:miter;stroke-opacity:1" d="M 74.5771,996 35.3676,980.316 z" id="boundary" inkscape:connector-curvature="0" />
	<path style="fill:none;stroke:red;stroke-width:1px;stroke-linecap:butt;stroke-linejoin:miter;stroke-opacity:1" d="M 113.787,980.316 74.5771,996 z" id="boundary" inkscape:connector-curvature="0" />
	<path style="fill:none;stroke:red;stroke-width:1px;stroke-linecap:butt;stroke-linejoin:miter;stroke-opacity:1" d="M 121.628,897.976 160.838,897.976 z" id="boundary" inkscape:connector-curvature="0" />
	<path style="fill:none;stroke:red;stroke-width:1px;stroke-linecap:butt;stroke-linejoin:miter;stroke-opacity:1" d="M 200.047,897.976 160.838,897.976 z" id="boundary" inkscape:connector-curvature="0" />
	<path style="fill:none;stroke:red;stroke-width:1px;stroke-linecap:butt;stroke-linejoin:miter;stroke-opacity:1" d="M 113.787,980.316 152.996,980.316 z" id="boundary" inkscape:connector-curvature="0" />
	<path style="fill:none;stroke:red;stroke-width:1px;stroke-linecap:butt;stroke-linejoin:miter;stroke-opacity:1" d="M 192.206,980.316 152.996,980.316 z" id="boundary" inkscape:connector-curvature="0" />
	<path style="fill:none;stroke:red;stroke-width:1px;stroke-linecap:butt;stroke-linejoin:miter;stroke-opacity:1" d="M 231.415,980.316 192.206,980.316 z" id="boundary" inkscape:connector-curvature="0" />
	<path style="fill:none;stroke:red;stroke-width:1px;stroke-linecap:butt;stroke-linejoin:miter;stroke-opacity:1" d="M 82.419,897.976 121.628,897.976 z" id="boundary" inkscape:connector-curvature="0" />
	<path style="fill:none;stroke:red;stroke-width:1px;stroke-linecap:butt;stroke-linejoin:miter;stroke-opacity:1" d="M 239.257,897.976 200.047,897.976 z" id="boundary" inkscape:connector-curvature="0" />
	<path style="fill:none;stroke:red;stroke-width:1px;stroke-linecap:butt;stroke-linejoin:miter;stroke-opacity:1" d="M 239.257,897.976 278.466,897.976 z" id="boundary" inkscape:connector-curvature="0" />
	<path style="fill:none;stroke:red;stroke-width:1px;stroke-linecap:butt;stroke-linejoin:miter;stroke-opacity:1" d="M 231.415,980.316 270.625,980.316 z" id="boundary" inkscape:connector-curvature="0" />
	<path style="fill:none;stroke:red;stroke-width:1px;stroke-linecap:butt;stroke-linejoin:miter;stroke-opacity:1" d="M 309.834,980.316 270.625,980.316 z" id="boundary" inkscape:connector-curvature="0" />
	<path style="fill:none;stroke:red;stroke-width:1px;stroke-linecap:butt;stroke-linejoin:miter;stroke-opacity:1" d="M 278.466,897.976 317.676,897.976 z" id="boundary" inkscape:connector-curvature="0" />
	<path style="fill:none;stroke:red;stroke-width:1px;stroke-linecap:butt;stroke-linejoin:miter;stroke-opacity:1" d="M 380.411,897.976 349.043,921.502 z" id="boundary" inkscape:connector-curvature="0" />
	<path style="fill:none;stroke:red;stroke-width:1px;stroke-linecap:butt;stroke-linejoin:miter;stroke-opacity:1" d="M 349.043,921.502 317.676,897.976 z" id="boundary" inkscape:connector-curvature="0" />
	<path style="fill:none;stroke:red;stroke-width:1px;stroke-linecap:butt;stroke-linejoin:miter;stroke-opacity:1" d="M 380.411,897.976 411.779,921.502 z" id="boundary" inkscape:connector-curvature="0" />
	<path style="fill:none;stroke:red;stroke-width:1px;stroke-linecap:butt;stroke-linejoin:miter;stroke-opacity:1" d="M 349.043,921.502 349.043,980.316 z" id="boundary" inkscape:connector-curvature="0" />
	<path style="fill:none;stroke:red;stroke-width:1px;stroke-linecap:butt;stroke-linejoin:miter;stroke-opacity:1" d="M 349.043,980.316 309.834,980.316 z" id="boundary" inkscape:connector-curvature="0" />
	<path style="fill:none;stroke:red;stroke-width:1px;stroke-linecap:butt;stroke-linejoin:miter;stroke-opacity:1" d="M 388.253,980.316 349.043,980.316 z" id="boundary" inkscape:connector-curvature="0" />
	<path style="fill:none;stroke:red;stroke-width:1px;stroke-linecap:butt;stroke-linejoin:miter;stroke-opacity:1" d="M 427.462,980.316 388.253,980.316 z" id="boundary" inkscape:connector-curvature="0" />
	<path style="fill:none;stroke:red;stroke-width:1px;stroke-linecap:butt;stroke-linejoin:miter;stroke-opacity:1" d="M 443.146,897.976 411.779,921.502 z" id="boundary" inkscape:connector-curvature="0" />
	<path style="fill:none;stroke:red;stroke-width:1px;stroke-linecap:butt;stroke-linejoin:miter;stroke-opacity:1" d="M 380.411,4 419.621,4 z" id="boundary" inkscape:connector-curvature="0" />
	<path style="fill:none;stroke:red;stroke-width:1px;stroke-linecap:butt;stroke-linejoin:miter;stroke-opacity:1" d="M 458.83,4 498.04,4 z" id="boundary" inkscape:connector-curvature="0" />
	<path style="fill:none;stroke:red;stroke-width:1px;stroke-linecap:butt;stroke-linejoin:miter;stroke-opacity:1" d="M 458.83,525.486 419.621,525.486 z" id="boundary" inkscape:connector-curvature="0" />
	<path style="fill:none;stroke:red;stroke-width:1px;stroke-linecap:butt;stroke-linejoin:miter;stroke-opacity:1" d="M 498.04,4 537.249,4 z" id="boundary" inkscape:connector-curvature="0" />
	<path style="fill:none;stroke:red;stroke-width:1px;stroke-linecap:butt;stroke-linejoin:miter;stroke-opacity:1" d="M 458.83,525.486 466.672,564.696 z" id="boundary" inkscape:connector-curvature="0" />
	<path style="fill:none;stroke:red;stroke-width:1px;stroke-linecap:butt;stroke-linejoin:miter;stroke-opacity:1" d="M 419.621,4 458.83,4 z" id="boundary" inkscape:connector-curvature="0" />
	<path style="fill:none;stroke:red;stroke-width:1px;stroke-linecap:butt;stroke-linejoin:miter;stroke-opacity:1" d="M 537.249,4 576.458,4 z" id="boundary" inkscape:connector-curvature="0" />
	<path style="fill:none;stroke:red;stroke-width:1px;stroke-linecap:butt;stroke-linejoin:miter;stroke-opacity:1" d="M 576.458,4 615.668,4 z" id="boundary" inkscape:connector-curvature="0" />
	<path style="fill:none;stroke:red;stroke-width:1px;stroke-linecap:butt;stroke-linejoin:miter;stroke-opacity:1" d="M 615.668,4 654.877,4 z" id="boundary" inkscape:connector-curvature="0" />
	<path style="fill:none;stroke:red;stroke-width:1px;stroke-linecap:butt;stroke-linejoin:miter;stroke-opacity:1" d="M 466.672,603.905 466.672,564.696 z" id="boundary" inkscape:connector-curvature="0" />
	<path style="fill:none;stroke:red;stroke-width:1px;stroke-linecap:butt;stroke-linejoin:miter;stroke-opacity:1" d="M 466.672,603.905 447.067,654.877 z" id="boundary" inkscape:connector-curvature="0" />
	<path style="fill:none;stroke:red;stroke-width:1px;stroke-linecap:butt;stroke-linejoin:miter;stroke-opacity:1" d="M 466.672,694.087 427.462,690.166 z" id="boundary" inkscape:connector-curvature="0" />
	<path style="fill:none;stroke:red;stroke-width:1px;stroke-linecap:butt;stroke-linejoin:miter;stroke-opacity:1" d="M 650.957,529.407 650.957,568.617 z" id="boundary" inkscape:connector-curvature="0" />
	<path style="fill:none;stroke:red;stroke-width:1px;stroke-linecap:butt;stroke-linejoin:miter;stroke-opacity:1" d="M 650.957,607.826 650.957,568.617 z" id="boundary" inkscape:connector-curvature="0" />
	<path style="fill:none;stroke:red;stroke-width:1px;stroke-linecap:butt;stroke-linejoin:miter;stroke-opacity:1" d="M 650.957,529.407 690.166,525.486 z" id="boundary" inkscape:connector-curvature="0" />
	<path style="fill:none;stroke:red;stroke-width:1px;stroke-linecap:butt;stroke-linejoin:miter;stroke-opacity:1" d="M 650.957,694.087 650.957,647.036 z" id="boundary" inkscape:connector-curvature="0" />
	<path style="fill:none;stroke:red;stroke-width:1px;stroke-linecap:butt;stroke-linejoin:miter;stroke-opacity:1" d="M 650.957,647.036 690.166,654.877 z" id="boundary" inkscape:connector-curvature="0" />
	<path style="fill:none;stroke:red;stroke-width:1px;stroke-linecap:butt;stroke-linejoin:miter;stroke-opacity:1" d="M 650.957,647.036 650.957,607.826 z" id="boundary" inkscape:connector-curvature="0" />
	<path style="fill:none;stroke:red;stroke-width:1px;stroke-linecap:butt;stroke-linejoin:miter;stroke-opacity:1" d="M 690.166,525.486 729.375,525.486 z" id="boundary" inkscape:connector-curvature="0" />
	<path style="fill:none;stroke:red;stroke-width:1px;stroke-linecap:butt;stroke-linejoin:miter;stroke-opacity:1" d="M 654.877,4 694.087,4 z" id="boundary" inkscape:connector-curvature="0" />
	<path style="fill:none;stroke:red;stroke-width:1px;stroke-linecap:butt;stroke-linejoin:miter;stroke-opacity:1" d="M 733.296,4 772.506,7.92095 z" id="boundary" inkscape:connector-curvature="0" />
	<path style="fill:none;stroke:red;stroke-width:1px;stroke-linecap:butt;stroke-linejoin:miter;stroke-opacity:1" d="M 772.506,7.92095 784.269,47.1304 z" id="boundary" inkscape:connector-curvature="0" />
	<path style="fill:none;stroke:red;stroke-width:1px;stroke-linecap:butt;stroke-linejoin:miter;stroke-opacity:1" d="M 784.269,47.1304 784.269,86.3399 z" id="boundary" inkscape:connector-curvature="0" />
	<path style="fill:none;stroke:red;stroke-width:1px;stroke-linecap:butt;stroke-linejoin:miter;stroke-opacity:1" d="M 784.269,125.549 784.269,86.3399 z" id="boundary" inkscape:connector-curvature="0" />
	<path style="fill:none;stroke:red;stroke-width:1px;stroke-linecap:butt;stroke-linejoin:miter;stroke-opacity:1" d="M 784.269,164.759 784.269,125.549 z" id="boundary" inkscape:connector-curvature="0" />
	<path style="fill:none;stroke:red;stroke-width:1px;stroke-linecap:butt;stroke-linejoin:miter;stroke-opacity:1" d="M 784.269,164.759 784.269,203.968 z" id="boundary" inkscape:connector-curvature="0" />
	<path style="fill:none;stroke:red;stroke-width:1px;stroke-linecap:butt;stroke-linejoin:miter;stroke-opacity:1" d="M 784.269,243.178 784.269,203.968 z" id="boundary" inkscape:connector-curvature="0" />
	<path style="fill:none;stroke:red;stroke-width:1px;stroke-linecap:butt;stroke-linejoin:miter;stroke-opacity:1" d="M 784.269,243.178 784.269,282.387 z" id="boundary" inkscape:connector-curvature="0" />
	<path style="fill:none;stroke:red;stroke-width:1px;stroke-linecap:butt;stroke-linejoin:miter;stroke-opacity:1" d="M 784.269,321.597 784.269,282.387 z" id="boundary" inkscape:connector-curvature="0" />
	<path style="fill:none;stroke:red;stroke-width:1px;stroke-linecap:butt;stroke-linejoin:miter;stroke-opacity:1" d="M 784.269,360.806 784.269,321.597 z" id="boundary" inkscape:connector-curvature="0" />
	<path style="fill:none;stroke:red;stroke-width:1px;stroke-linecap:butt;stroke-linejoin:miter;stroke-opacity:1" d="M 729.375,525.486 768.585,525.486 z" id="boundary" inkscape:connector-curvature="0" />
	<path style="fill:none;stroke:red;stroke-width:1px;stroke-linecap:butt;stroke-linejoin:miter;stroke-opacity:1" d="M 784.269,478.435 768.585,525.486 z" id="boundary" inkscape:connector-curvature="0" />
	<path style="fill:none;stroke:red;stroke-width:1px;stroke-linecap:butt;stroke-linejoin:miter;stroke-opacity:1" d="M 784.269,400.016 784.269,439.225 z" id="boundary" inkscape:connector-curvature="0" />
	<path style="fill:none;stroke:red;stroke-width:1px;stroke-linecap:butt;stroke-linejoin:miter;stroke-opacity:1" d="M 784.269,478.435 784.269,439.225 z" id="boundary" inkscape:connector-curvature="0" />
	<path style="fill:none;stroke:red;stroke-width:1px;stroke-linecap:butt;stroke-linejoin:miter;stroke-opacity:1" d="M 784.269,400.016 784.269,360.806 z" id="boundary" inkscape:connector-curvature="0" />
	<path style="fill:none;stroke:red;stroke-width:1px;stroke-linecap:butt;stroke-linejoin:miter;stroke-opacity:1" d="M 694.087,4 733.296,4 z" id="boundary" inkscape:connector-curvature="0" />
	<path style="fill:none;stroke:red;stroke-width:1px;stroke-linecap:butt;stroke-linejoin:miter;stroke-opacity:1" d="M 466.672,733.296 435.304,780.348 z" id="boundary" inkscape:connector-curvature="0" />
	<path style="fill:none;stroke:red;stroke-width:1px;stroke-linecap:butt;stroke-linejoin:miter;stroke-opacity:1" d="M 466.672,733.296 466.672,694.087 z" id="boundary" inkscape:connector-curvature="0" />
	<path style="fill:none;stroke:red;stroke-width:1px;stroke-linecap:butt;stroke-linejoin:miter;stroke-opacity:1" d="M 454.909,815.636 466.672,854.846 z" id="boundary" inkscape:connector-curvature="0" />
	<path style="fill:none;stroke:red;stroke-width:1px;stroke-linecap:butt;stroke-linejoin:miter;stroke-opacity:1" d="M 466.672,854.846 443.146,897.976 z" id="boundary" inkscape:connector-curvature="0" />
	<path style="fill:none;stroke:red;stroke-width:1px;stroke-linecap:butt;stroke-linejoin:miter;stroke-opacity:1" d="M 650.957,694.087 650.957,733.296 z" id="boundary" inkscape:connector-curvature="0" />
	<path style="fill:none;stroke:red;stroke-width:1px;stroke-linecap:butt;stroke-linejoin:miter;stroke-opacity:1" d="M 650.957,772.506 690.166,780.348 z" id="boundary" inkscape:connector-curvature="0" />
	<path style="fill:none;stroke:red;stroke-width:1px;stroke-linecap:butt;stroke-linejoin:miter;stroke-opacity:1" d="M 650.957,819.557 650.957,772.506 z" id="boundary" inkscape:connector-curvature="0" />
	<path style="fill:none;stroke:red;stroke-width:1px;stroke-linecap:butt;stroke-linejoin:miter;stroke-opacity:1" d="M 650.957,772.506 650.957,733.296 z" id="boundary" inkscape:connector-curvature="0" />
	<path style="fill:none;stroke:red;stroke-width:1px;stroke-linecap:butt;stroke-linejoin:miter;stroke-opacity:1" d="M 650.957,858.767 650.957,819.557 z" id="boundary" inkscape:connector-curvature="0" />
	<path style="fill:none;stroke:red;stroke-width:1px;stroke-linecap:butt;stroke-linejoin:miter;stroke-opacity:1" d="M 466.672,980.316 427.462,980.316 z" id="boundary" inkscape:connector-curvature="0" />
	<path style="fill:none;stroke:red;stroke-width:1px;stroke-linecap:butt;stroke-linejoin:miter;stroke-opacity:1" d="M 466.672,980.316 505.881,980.316 z" id="boundary" inkscape:connector-curvature="0" />
	<path style="fill:none;stroke:red;stroke-width:1px;stroke-linecap:butt;stroke-linejoin:miter;stroke-opacity:1" d="M 505.881,980.316 545.091,980.316 z" id="boundary" inkscape:connector-curvature="0" />
	<path style="fill:none;stroke:red;stroke-width:1px;stroke-linecap:butt;stroke-linejoin:miter;stroke-opacity:1" d="M 694.087,897.976 654.877,897.976 z" id="boundary" inkscape:connector-curvature="0" />
	<path style="fill:none;stroke:red;stroke-width:1px;stroke-linecap:butt;stroke-linejoin:miter;stroke-opacity:1" d="M 654.877,897.976 650.957,858.767 z" id="boundary" inkscape:connector-curvature="0" />
	<path style="fill:none;stroke:red;stroke-width:1px;stroke-linecap:butt;stroke-linejoin:miter;stroke-opacity:1" d="M 701.929,980.316 662.719,992.079 z" id="boundary" inkscape:connector-curvature="0" />
	<path style="fill:none;stroke:red;stroke-width:1px;stroke-linecap:butt;stroke-linejoin:miter;stroke-opacity:1" d="M 584.3,980.316 545.091,980.316 z" id="boundary" inkscape:connector-curvature="0" />
	<path style="fill:none;stroke:red;stroke-width:1px;stroke-linecap:butt;stroke-linejoin:miter;stroke-opacity:1" d="M 584.3,980.316 623.51,980.316 z" id="boundary" inkscape:connector-curvature="0" />
	<path style="fill:none;stroke:red;stroke-width:1px;stroke-linecap:butt;stroke-linejoin:miter;stroke-opacity:1" d="M 623.51,980.316 662.719,992.079 z" id="boundary" inkscape:connector-curvature="0" />
	<path style="fill:none;stroke:red;stroke-width:1px;stroke-linecap:butt;stroke-linejoin:miter;stroke-opacity:1" d="M 772.506,897.976 733.296,897.976 z" id="boundary" inkscape:connector-curvature="0" />
	<path style="fill:none;stroke:red;stroke-width:1px;stroke-linecap:butt;stroke-linejoin:miter;stroke-opacity:1" d="M 694.087,897.976 733.296,897.976 z" id="boundary" inkscape:connector-curvature="0" />
	<path style="fill:none;stroke:red;stroke-width:1px;stroke-linecap:butt;stroke-linejoin:miter;stroke-opacity:1" d="M 890.134,897.976 850.925,897.976 z" id="boundary" inkscape:connector-curvature="0" />
	<path style="fill:none;stroke:red;stroke-width:1px;stroke-linecap:butt;stroke-linejoin:miter;stroke-opacity:1" d="M 772.506,897.976 811.715,897.976 z" id="boundary" inkscape:connector-curvature="0" />
	<path style="fill:none;stroke:red;stroke-width:1px;stroke-linecap:butt;stroke-linejoin:miter;stroke-opacity:1" d="M 850.925,897.976 811.715,897.976 z" id="boundary" inkscape:connector-curvature="0" />
	<path style="fill:none;stroke:red;stroke-width:1px;stroke-linecap:butt;stroke-linejoin:miter;stroke-opacity:1" d="M 741.138,980.316 780.348,980.316 z" id="boundary" inkscape:connector-curvature="0" />
	<path style="fill:none;stroke:red;stroke-width:1px;stroke-linecap:butt;stroke-linejoin:miter;stroke-opacity:1" d="M 741.138,980.316 701.929,980.316 z" id="boundary" inkscape:connector-curvature="0" />
	<path style="fill:none;stroke:red;stroke-width:1px;stroke-linecap:butt;stroke-linejoin:miter;stroke-opacity:1" d="M 819.557,980.316 780.348,980.316 z" id="boundary" inkscape:connector-curvature="0" />
	<path style="fill:none;stroke:red;stroke-width:1px;stroke-linecap:butt;stroke-linejoin:miter;stroke-opacity:1" d="M 858.767,980.316 819.557,980.316 z" id="boundary" inkscape:connector-curvature="0" />
	<path style="fill:none;stroke:red;stroke-width:1px;stroke-linecap:butt;stroke-linejoin:miter;stroke-opacity:1" d="M 858.767,980.316 897.976,984.237 z" id="boundary" inkscape:connector-curvature="0" />
	<path style="fill:none;stroke:red;stroke-width:1px;stroke-linecap:butt;stroke-linejoin:miter;stroke-opacity:1" d="M 890.134,897.976 929.344,897.976 z" id="boundary" inkscape:connector-curvature="0" />
	<path style="fill:none;stroke:red;stroke-width:1px;stroke-linecap:butt;stroke-linejoin:miter;stroke-opacity:1" d="M 964.632,917.581 929.344,897.976 z" id="boundary" inkscape:connector-curvature="0" />
	<path style="fill:none;stroke:red;stroke-width:1px;stroke-linecap:butt;stroke-linejoin:miter;stroke-opacity:1" d="M 964.632,917.581 964.632,956.791 z" id="boundary" inkscape:connector-curvature="0" />
	<path style="fill:none;stroke:red;stroke-width:1px;stroke-linecap:butt;stroke-linejoin:miter;stroke-opacity:1" d="M 964.632,956.791 937.186,988.158 z" id="boundary" inkscape:connector-curvature="0" />
	<path style="fill:none;stroke:red;stroke-width:1px;stroke-linecap:butt;stroke-linejoin:miter;stroke-opacity:1" d="M 937.186,988.158 897.976,984.237 z" id="boundary" inkscape:connector-curvature="0" />
	<circle cx="4" cy="913.66" r="4" fill="#0" id="circle0"/>
	<circle cx="4" cy="952.87" r="4" fill="#0" id="circle1"/>
	<circle cx="35.3676" cy="980.316" r="4" fill="#0" id="circle2"/>
	<circle cx="43.2095" cy="662.719" r="4" fill="#0" id="circle3"/>
	<circle cx="43.2095" cy="780.348" r="4" fill="#0" id="circle4"/>
	<circle cx="43.2095" cy="897.976" r="4" fill="#0" id="circle5"/>
	<circle cx="62.8142" cy="815.636" r="4" fill="#0" id="circle6"/>
	<circle cx="74.5771" cy="690.166" r="4" fill="#0" id="circle7"/>
	<circle cx="74.5771" cy="996" r="4" fill="#0" id="circle8"/>
	<circle cx="82.419" cy="780.348" r="4" fill="#0" id="circle9"/>
	<circle cx="82.419" cy="897.976" r="4" fill="#0" id="circle10"/>
	<circle cx="94.1818" cy="654.877" r="4" fill="#0" id="circle11"/>
	<circle cx="102.024" cy="815.636" r="4" fill="#0" id="circle12"/>
	<circle cx="113.787" cy="690.166" r="4" fill="#0" id="circle13"/>
	<circle cx="113.787" cy="980.316" r="4" fill="#0" id="circle14"/>
	<circle cx="121.628" cy="780.348" r="4" fill="#0" id="circle15"/>
	<circle cx="121.628" cy="897.976" r="4" fill="#0" id="circle16"/>
	<circle cx="133.391" cy="654.877" r="4" fill="#0" id="circle17"/>
	<circle cx="141.233" cy="815.636" r="4" fill="#0" id="circle18"/>
	<circle cx="152.996" cy="690.166" r="4" fill="#0" id="circle19"/>
	<circle cx="152.996" cy="980.316" r="4" fill="#0" id="circle20"/>
	<circle cx="160.838" cy="780.348" r="4" fill="#0" id="circle21"/>
	<circle cx="160.838" cy="897.976" r="4" fill="#0" id="circle22"/>
	<circle cx="172.601" cy="654.877" r="4" fill="#0" id="circle23"/>
	<circle cx="180.443" cy="815.636" r="4" fill="#0" id="circle24"/>
	<circle cx="192.206" cy="690.166" r="4" fill="#0" id="circle25"/>
	<circle cx="192.206" cy="980.316" r="4" fill="#0" id="circle26"/>
	<circle cx="200.047" cy="780.348" r="4" fill="#0" id="circle27"/>
	<circle cx="200.047" cy="897.976" r="4" fill="#0" id="circle28"/>
	<circle cx="211.81" cy="654.877" r="4" fill="#0" id="circle29"/>
	<circle cx="219.652" cy="815.636" r="4" fill="#0" id="circle30"/>
	<circle cx="223.573" cy="11.8419" r="4" fill="#0" id="circle31"/>
	<circle cx="223.573" cy="51.0514" r="4" fill="#0" id="circle32"/>
	<circle cx="223.573" cy="90.2609" r="4" fill="#0" id="circle33"/>
	<circle cx="223.573" cy="129.47" r="4" fill="#0" id="circle34"/>
	<circle cx="223.573" cy="168.68" r="4" fill="#0" id="circle35"/>
	<circle cx="223.573" cy="207.889" r="4" fill="#0" id="circle36"/>
	<circle cx="223.573" cy="247.099" r="4" fill="#0" id="circle37"/>
	<circle cx="223.573" cy="286.308" r="4" fill="#0" id="circle38"/>
	<circle cx="223.573" cy="325.518" r="4" fill="#0" id="circle39"/>
	<circle cx="223.573" cy="364.727" r="4" fill="#0" id="circle40"/>
	<circle cx="223.573" cy="403.937" r="4" fill="#0" id="circle41"/>
	<circle cx="223.573" cy="443.146" r="4" fill="#0" id="circle42"/>
	<circle cx="223.573" cy="482.356" r="4" fill="#0" id="circle43"/>
	<circle cx="223.573" cy="521.565" r="4" fill="#0" id="circle44"/>
	<circle cx="231.415" cy="690.166" r="4" fill="#0" id="circle45"/>
	<circle cx="231.415" cy="980.316" r="4" fill="#0" id="circle46"/>
	<circle cx="239.257" cy="780.348" r="4" fill="#0" id="circle47"/>
	<circle cx="239.257" cy="897.976" r="4" fill="#0" id="circle48"/>
	<circle cx="251.02" cy="654.877" r="4" fill="#0" id="circle49"/>
	<circle cx="258.862" cy="815.636" r="4" fill="#0" id="circle50"/>
	<circle cx="262.783" cy="4" r="4" fill="#0" id="circle51"/>
	<circle cx="262.783" cy="525.486" r="4" fill="#0" id="circle52"/>
	<circle cx="270.625" cy="690.166" r="4" fill="#0" id="circle53"/>
	<circle cx="270.625" cy="980.316" r="4" fill="#0" id="circle54"/>
	<circle cx="278.466" cy="780.348" r="4" fill="#0" id="circle55"/>
	<circle cx="278.466" cy="897.976" r="4" fill="#0" id="circle56"/>
	<circle cx="290.229" cy="654.877" r="4" fill="#0" id="circle57"/>
	<circle cx="298.071" cy="815.636" r="4" fill="#0" id="circle58"/>
	<circle cx="301.992" cy="4" r="4" fill="#0" id="circle59"/>
	<circle cx="301.992" cy="525.486" r="4" fill="#0" id="circle60"/>
	<circle cx="309.834" cy="690.166" r="4" fill="#0" id="circle61"/>
	<circle cx="309.834" cy="980.316" r="4" fill="#0" id="circle62"/>
	<circle cx="317.676" cy="780.348" r="4" fill="#0" id="circle63"/>
	<circle cx="317.676" cy="897.976" r="4" fill="#0" id="circle64"/>
	<circle cx="329.439" cy="654.877" r="4" fill="#0" id="circle65"/>
	<circle cx="337.281" cy="815.636" r="4" fill="#0" id="circle66"/>
	<circle cx="341.202" cy="4" r="4" fill="#0" id="circle67"/>
	<circle cx="341.202" cy="525.486" r="4" fill="#0" id="circle68"/>
	<circle cx="349.043" cy="690.166" r="4" fill="#0" id="circle69"/>
	<circle cx="349.043" cy="921.502" r="4" fill="#0" id="circle70"/>
	<circle cx="349.043" cy="980.316" r="4" fill="#0" id="circle71"/>
	<circle cx="356.885" cy="780.348" r="4" fill="#0" id="circle72"/>
	<circle cx="368.648" cy="654.877" r="4" fill="#0" id="circle73"/>
	<circle cx="376.49" cy="815.636" r="4" fill="#0" id="circle74"/>
	<circle cx="380.411" cy="4" r="4" fill="#0" id="circle75"/>
	<circle cx="380.411" cy="525.486" r="4" fill="#0" id="circle76"/>
	<circle cx="380.411" cy="897.976" r="4" fill="#0" id="circle77"/>
	<circle cx="388.253" cy="690.166" r="4" fill="#0" id="circle78"/>
	<circle cx="388.253" cy="980.316" r="4" fill="#0" id="circle79"/>
	<circle cx="396.095" cy="780.348" r="4" fill="#0" id="circle80"/>
	<circle cx="407.858" cy="654.877" r="4" fill="#0" id="circle81"/>
	<circle cx="411.779" cy="921.502" r="4" fill="#0" id="circle82"/>
	<circle cx="415.7" cy="815.636" r="4" fill="#0" id="circle83"/>
	<circle cx="419.621" cy="4" r="4" fill="#0" id="circle84"/>
	<circle cx="419.621" cy="525.486" r="4" fill="#0" id="circle85"/>
	<circle cx="427.462" cy="690.166" r="4" fill="#0" id="circle86"/>
	<circle cx="427.462" cy="980.316" r="4" fill="#0" id="circle87"/>
	<circle cx="435.304" cy="780.348" r="4" fill="#0" id="circle88"/>
	<circle cx="443.146" cy="897.976" r="4" fill="#0" id="circle89"/>
	<circle cx="447.067" cy="654.877" r="4" fill="#0" id="circle90"/>
	<circle cx="454.909" cy="815.636" r="4" fill="#0" id="circle91"/>
	<circle cx="458.83" cy="4" r="4" fill="#0" id="circle92"/>
	<circle cx="458.83" cy="525.486" r="4" fill="#0" id="circle93"/>
	<circle cx="466.672" cy="564.696" r="4" fill="#0" id="circle94"/>
	<circle cx="466.672" cy="603.905" r="4" fill="#0" id="circle95"/>
	<circle cx="466.672" cy="694.087" r="4" fill="#0" id="circle96"/>
	<circle cx="466.672" cy="733.296" r="4" fill="#0" id="circle97"/>
	<circle cx="466.672" cy="854.846" r="4" fill="#0" id="circle98"/>
	<circle cx="466.672" cy="980.316" r="4" fill="#0" id="circle99"/>
	<circle cx="498.04" cy="4" r="4" fill="#0" id="circle100"/>
	<circle cx="505.881" cy="980.316" r="4" fill="#0" id="circle101"/>
	<circle cx="537.249" cy="4" r="4" fill="#0" id="circle102"/>
	<circle cx="545.091" cy="980.316" r="4" fill="#0" id="circle103"/>
	<circle cx="576.458" cy="4" r="4" fill="#0" id="circle104"/>
	<circle cx="584.3" cy="980.316" r="4" fill="#0" id="circle105"/>
	<circle cx="615.668" cy="4" r="4" fill="#0" id="circle106"/>
	<circle cx="623.51" cy="980.316" r="4" fill="#0" id="circle107"/>
	<circle cx="650.957" cy="529.407" r="4" fill="#0" id="circle108"/>
	<circle cx="650.957" cy="568.617" r="4" fill="#0" id="circle109"/>
	<circle cx="650.957" cy="607.826" r="4" fill="#0" id="circle110"/>
	<circle cx="650.957" cy="647.036" r="4" fill="#0" id="circle111"/>
	<circle cx="650.957" cy="694.087" r="4" fill="#0" id="circle112"/>
	<circle cx="650.957" cy="733.296" r="4" fill="#0" id="circle113"/>
	<circle cx="650.957" cy="772.506" r="4" fill="#0" id="circle114"/>
	<circle cx="650.957" cy="819.557" r="4" fill="#0" id="circle115"/>
	<circle cx="650.957" cy="858.767" r="4" fill="#0" id="circle116"/>
	<circle cx="654.877" cy="4" r="4" fill="#0" id="circle117"/>
	<circle cx="654.877" cy="897.976" r="4" fill="#0" id="circle118"/>
	<circle cx="662.719" cy="992.079" r="4" fill="#0" id="circle119"/>
	<circle cx="690.166" cy="525.486" r="4" fill="#0" id="circle120"/>
	<circle cx="690.166" cy="654.877" r="4" fill="#0" id="circle121"/>
	<circle cx="690.166" cy="780.348" r="4" fill="#0" id="circle122"/>
	<circle cx="694.087" cy="4" r="4" fill="#0" id="circle123"/>
	<circle cx="694.087" cy="897.976" r="4" fill="#0" id="circle124"/>
	<circle cx="701.929" cy="980.316" r="4" fill="#0" id="circle125"/>
	<circle cx="709.771" cy="690.166" r="4" fill="#0" id="circle126"/>
	<circle cx="709.771" cy="815.636" r="4" fill="#0" id="circle127"/>
	<circle cx="729.375" cy="525.486" r="4" fill="#0" id="circle128"/>
	<circle cx="729.375" cy="654.877" r="4" fill="#0" id="circle129"/>
	<circle cx="729.375" cy="780.348" r="4" fill="#0" id="circle130"/>
	<circle cx="733.296" cy="4" r="4" fill="#0" id="circle131"/>
	<circle cx="733.296" cy="897.976" r="4" fill="#0" id="circle132"/>
	<circle cx="741.138" cy="980.316" r="4" fill="#0" id="circle133"/>
	<circle cx="748.98" cy="690.166" r="4" fill="#0" id="circle134"/>
	<circle cx="748.98" cy="815.636" r="4" fill="#0" id="circle135"/>
	<circle cx="768.585" cy="525.486" r="4" fill="#0" id="circle136"/>
	<circle cx="768.585" cy="654.877" r="4" fill="#0" id="circle137"/>
	<circle cx="768.585" cy="780.348" r="4" fill="#0" id="circle138"/>
	<circle cx="772.506" cy="7.92095" r="4" fill="#0" id="circle139"/>
	<circle cx="772.506" cy="897.976" r="4" fill="#0" id="circle140"/>
	<circle cx="780.348" cy="980.316" r="4" fill="#0" id="circle141"/>
	<circle cx="784.269" cy="47.1304" r="4" fill="#0" id="circle142"/>
	<circle cx="784.269" cy="86.3399" r="4" fill="#0" id="circle143"/>
	<circle cx="784.269" cy="125.549" r="4" fill="#0" id="circle144"/>
	<circle cx="784.269" cy="164.759" r="4" fill="#0" id="circle145"/>
	<circle cx="784.269" cy="203.968" r="4" fill="#0" id="circle146"/>
	<circle cx="784.269" cy="243.178" r="4" fill="#0" id="circle147"/>
	<circle cx="784.269" cy="282.387" r="4" fill="#0" id="circle148"/>
	<circle cx="784.269" cy="321.597" r="4" fill="#0" id="circle149"/>
	<circle cx="784.269" cy="360.806" r="4" fill="#0" id="circle150"/>
	<circle cx="784.269" cy="400.016" r="4" fill="#0" id="circle151"/>
	<circle cx="784.269" cy="439.225" r="4" fill="#0" id="circle152"/>
	<circle cx="784.269" cy="478.435" r="4" fill="#0" id="circle153"/>
	<circle cx="788.19" cy="690.166" r="4" fill="#0" id="circle154"/>
	<circle cx="788.19" cy="815.636" r="4" fill="#0" id="circle155"/>
	<circle cx="807.794" cy="654.877" r="4" fill="#0" id="circle156"/>
	<circle cx="807.794" cy="780.348" r="4" fill="#0" id="circle157"/>
	<circle cx="811.715" cy="897.976" r="4" fill="#0" id="circle158"/>
	<circle cx="819.557" cy="980.316" r="4" fill="#0" id="circle159"/>
	<circle cx="827.399" cy="690.166" r="4" fill="#0" id="circle160"/>
	<circle cx="850.925" cy="897.976" r="4" fill="#0" id="circle161"/>
	<circle cx="858.767" cy="980.316" r="4" fill="#0" id="circle162"/>
	<circle cx="890.134" cy="897.976" r="4" fill="#0" id="circle163"/>
	<circle cx="897.976" cy="984.237" r="4" fill="#0" id="circle164"/>
	<circle cx="929.344" cy="897.976" r="4" fill="#0" id="circle165"/>
	<circle cx="937.186" cy="988.158" r="4" fill="#0" id="circle166"/>
	<circle cx="964.632" cy="917.581" r="4" fill="#0" id="circle167"/>
	<circle cx="964.632" cy="956.791" r="4" fill="#0" id="circle168"/>
	</g>
</svg>