<?xml version="1.0" encoding="UTF-8" standalone="no"?>
<!-- Created with CurveBenchmark -->
<svg
	xmlns:dc="http://purl.org/dc/elements/1.1/"
	xmlns:cc="http://creativecommons.org/ns#"
	xmlns:rdf="http://www.w3.org/1999/02/22-rdf-syntax-ns#"
	xmlns:svg="http://www.w3.org/2000/svg"
	xmlns="http://www.w3.org/2000/svg"
	xmlns:sodipodi="http://sodipodi.sourceforge.net/DTD/sodipodi-0.dtd"
	xmlns:inkscape="http://www.inkscape.org/namespaces/inkscape"
	width="1000"
	height="1000"
	id="svg2"
	version="1.1"
	sodipodi:docname="manifold/ccrust-fish0196.png.txt">
<defs
	id="defs4" />
<metadata
	id="metadata7">
	<rdf:RDF>
		<cc:Work
			rdf:about="">
			<dc:format>image/svg+xml</dc:format>
			<dc:type
				rdf:resource="http://purl.org/dc/dcmitype/StillImage" />
			<dc:title></dc:title>
		</cc:Work>
	</rdf:RDF>
</metadata>
<g
	inkscape:label="Layer 1"
	inkscape:groupmode="layer"
	id="layer1">
	<path style="fill:none;stroke:red;stroke-width:1px;stroke-linecap:butt;stroke-linejoin:miter;stroke-opacity:1" d="M 81.8039,99.634 65.5948,99.634 z" id="boundary" inkscape:connector-curvature="0" />
	<path style="fill:none;stroke:red;stroke-width:1px;stroke-linecap:butt;stroke-linejoin:miter;stroke-opacity:1" d="M 161.229,91.5294 145.02,91.5294 z" id="boundary" inkscape:connector-curvature="0" />
	<path style="fill:none;stroke:red;stroke-width:1px;stroke-linecap:butt;stroke-linejoin:miter;stroke-opacity:1" d="M 130.431,99.634 145.02,91.5294 z" id="boundary" inkscape:connector-curvature="0" />
	<path style="fill:none;stroke:red;stroke-width:1px;stroke-linecap:butt;stroke-linejoin:miter;stroke-opacity:1" d="M 177.438,91.5294 161.229,91.5294 z" id="boundary" inkscape:connector-curvature="0" />
	<path style="fill:none;stroke:red;stroke-width:1px;stroke-linecap:butt;stroke-linejoin:miter;stroke-opacity:1" d="M 193.647,93.1503 209.856,91.5294 z" id="boundary" inkscape:connector-curvature="0" />
	<path style="fill:none;stroke:red;stroke-width:1px;stroke-linecap:butt;stroke-linejoin:miter;stroke-opacity:1" d="M 226.065,91.5294 209.856,91.5294 z" id="boundary" inkscape:connector-curvature="0" />
	<path style="fill:none;stroke:red;stroke-width:1px;stroke-linecap:butt;stroke-linejoin:miter;stroke-opacity:1" d="M 242.275,91.5294 226.065,91.5294 z" id="boundary" inkscape:connector-curvature="0" />
	<path style="fill:none;stroke:red;stroke-width:1px;stroke-linecap:butt;stroke-linejoin:miter;stroke-opacity:1" d="M 193.647,93.1503 177.438,91.5294 z" id="boundary" inkscape:connector-curvature="0" />
	<path style="fill:none;stroke:red;stroke-width:1px;stroke-linecap:butt;stroke-linejoin:miter;stroke-opacity:1" d="M 16.9673,107.739 33.1765,107.739 z" id="boundary" inkscape:connector-curvature="0" />
	<path style="fill:none;stroke:red;stroke-width:1px;stroke-linecap:butt;stroke-linejoin:miter;stroke-opacity:1" d="M 12.1046,135.294 4,120.706 z" id="boundary" inkscape:connector-curvature="0" />
	<path style="fill:none;stroke:red;stroke-width:1px;stroke-linecap:butt;stroke-linejoin:miter;stroke-opacity:1" d="M 4,120.706 16.9673,107.739 z" id="boundary" inkscape:connector-curvature="0" />
	<path style="fill:none;stroke:red;stroke-width:1px;stroke-linecap:butt;stroke-linejoin:miter;stroke-opacity:1" d="M 23.451,148.261 12.1046,135.294 z" id="boundary" inkscape:connector-curvature="0" />
	<path style="fill:none;stroke:red;stroke-width:1px;stroke-linecap:butt;stroke-linejoin:miter;stroke-opacity:1" d="M 98.0131,99.634 81.8039,99.634 z" id="boundary" inkscape:connector-curvature="0" />
	<path style="fill:none;stroke:red;stroke-width:1px;stroke-linecap:butt;stroke-linejoin:miter;stroke-opacity:1" d="M 98.0131,99.634 114.222,99.634 z" id="boundary" inkscape:connector-curvature="0" />
	<path style="fill:none;stroke:red;stroke-width:1px;stroke-linecap:butt;stroke-linejoin:miter;stroke-opacity:1" d="M 130.431,99.634 114.222,99.634 z" id="boundary" inkscape:connector-curvature="0" />
	<path style="fill:none;stroke:red;stroke-width:1px;stroke-linecap:butt;stroke-linejoin:miter;stroke-opacity:1" d="M 33.1765,107.739 49.3856,107.739 z" id="boundary" inkscape:connector-curvature="0" />
	<path style="fill:none;stroke:red;stroke-width:1px;stroke-linecap:butt;stroke-linejoin:miter;stroke-opacity:1" d="M 65.5948,99.634 49.3856,107.739 z" id="boundary" inkscape:connector-curvature="0" />
	<path style="fill:none;stroke:red;stroke-width:1px;stroke-linecap:butt;stroke-linejoin:miter;stroke-opacity:1" d="M 358.98,34.7974 370.327,21.8301 z" id="boundary" inkscape:connector-curvature="0" />
	<path style="fill:none;stroke:red;stroke-width:1px;stroke-linecap:butt;stroke-linejoin:miter;stroke-opacity:1" d="M 358.98,34.7974 346.013,46.1438 z" id="boundary" inkscape:connector-curvature="0" />
	<path style="fill:none;stroke:red;stroke-width:1px;stroke-linecap:butt;stroke-linejoin:miter;stroke-opacity:1" d="M 333.046,59.1111 346.013,46.1438 z" id="boundary" inkscape:connector-curvature="0" />
	<path style="fill:none;stroke:red;stroke-width:1px;stroke-linecap:butt;stroke-linejoin:miter;stroke-opacity:1" d="M 386.536,13.7255 399.503,4 z" id="boundary" inkscape:connector-curvature="0" />
	<path style="fill:none;stroke:red;stroke-width:1px;stroke-linecap:butt;stroke-linejoin:miter;stroke-opacity:1" d="M 399.503,4 410.85,16.9673 z" id="boundary" inkscape:connector-curvature="0" />
	<path style="fill:none;stroke:red;stroke-width:1px;stroke-linecap:butt;stroke-linejoin:miter;stroke-opacity:1" d="M 386.536,13.7255 370.327,21.8301 z" id="boundary" inkscape:connector-curvature="0" />
	<path style="fill:none;stroke:red;stroke-width:1px;stroke-linecap:butt;stroke-linejoin:miter;stroke-opacity:1" d="M 418.954,31.5556 410.85,60.732 z" id="boundary" inkscape:connector-curvature="0" />
	<path style="fill:none;stroke:red;stroke-width:1px;stroke-linecap:butt;stroke-linejoin:miter;stroke-opacity:1" d="M 410.85,16.9673 418.954,31.5556 z" id="boundary" inkscape:connector-curvature="0" />
	<path style="fill:none;stroke:red;stroke-width:1px;stroke-linecap:butt;stroke-linejoin:miter;stroke-opacity:1" d="M 410.85,60.732 418.954,75.3203 z" id="boundary" inkscape:connector-curvature="0" />
	<path style="fill:none;stroke:red;stroke-width:1px;stroke-linecap:butt;stroke-linejoin:miter;stroke-opacity:1" d="M 303.869,80.183 290.902,91.5294 z" id="boundary" inkscape:connector-curvature="0" />
	<path style="fill:none;stroke:red;stroke-width:1px;stroke-linecap:butt;stroke-linejoin:miter;stroke-opacity:1" d="M 290.902,91.5294 274.693,85.0458 z" id="boundary" inkscape:connector-curvature="0" />
	<path style="fill:none;stroke:red;stroke-width:1px;stroke-linecap:butt;stroke-linejoin:miter;stroke-opacity:1" d="M 242.275,91.5294 258.484,91.5294 z" id="boundary" inkscape:connector-curvature="0" />
	<path style="fill:none;stroke:red;stroke-width:1px;stroke-linecap:butt;stroke-linejoin:miter;stroke-opacity:1" d="M 258.484,91.5294 274.693,85.0458 z" id="boundary" inkscape:connector-curvature="0" />
	<path style="fill:none;stroke:red;stroke-width:1px;stroke-linecap:butt;stroke-linejoin:miter;stroke-opacity:1" d="M 303.869,80.183 320.078,72.0784 z" id="boundary" inkscape:connector-curvature="0" />
	<path style="fill:none;stroke:red;stroke-width:1px;stroke-linecap:butt;stroke-linejoin:miter;stroke-opacity:1" d="M 320.078,72.0784 333.046,59.1111 z" id="boundary" inkscape:connector-curvature="0" />
	<path style="fill:none;stroke:red;stroke-width:1px;stroke-linecap:butt;stroke-linejoin:miter;stroke-opacity:1" d="M 435.163,75.3203 451.373,75.3203 z" id="boundary" inkscape:connector-curvature="0" />
	<path style="fill:none;stroke:red;stroke-width:1px;stroke-linecap:butt;stroke-linejoin:miter;stroke-opacity:1" d="M 451.373,75.3203 464.34,85.0458 z" id="boundary" inkscape:connector-curvature="0" />
	<path style="fill:none;stroke:red;stroke-width:1px;stroke-linecap:butt;stroke-linejoin:miter;stroke-opacity:1" d="M 435.163,75.3203 418.954,75.3203 z" id="boundary" inkscape:connector-curvature="0" />
	<path style="fill:none;stroke:red;stroke-width:1px;stroke-linecap:butt;stroke-linejoin:miter;stroke-opacity:1" d="M 23.451,148.261 39.6601,154.745 z" id="boundary" inkscape:connector-curvature="0" />
	<path style="fill:none;stroke:red;stroke-width:1px;stroke-linecap:butt;stroke-linejoin:miter;stroke-opacity:1" d="M 39.6601,154.745 52.6275,166.092 z" id="boundary" inkscape:connector-curvature="0" />
	<path style="fill:none;stroke:red;stroke-width:1px;stroke-linecap:butt;stroke-linejoin:miter;stroke-opacity:1" d="M 52.6275,166.092 67.2157,174.196 z" id="boundary" inkscape:connector-curvature="0" />
	<path style="fill:none;stroke:red;stroke-width:1px;stroke-linecap:butt;stroke-linejoin:miter;stroke-opacity:1" d="M 81.8039,182.301 94.7712,193.647 z" id="boundary" inkscape:connector-curvature="0" />
	<path style="fill:none;stroke:red;stroke-width:1px;stroke-linecap:butt;stroke-linejoin:miter;stroke-opacity:1" d="M 67.2157,174.196 81.8039,182.301 z" id="boundary" inkscape:connector-curvature="0" />
	<path style="fill:none;stroke:red;stroke-width:1px;stroke-linecap:butt;stroke-linejoin:miter;stroke-opacity:1" d="M 110.98,198.51 94.7712,193.647 z" id="boundary" inkscape:connector-curvature="0" />
	<path style="fill:none;stroke:red;stroke-width:1px;stroke-linecap:butt;stroke-linejoin:miter;stroke-opacity:1" d="M 110.98,198.51 127.19,201.752 z" id="boundary" inkscape:connector-curvature="0" />
	<path style="fill:none;stroke:red;stroke-width:1px;stroke-linecap:butt;stroke-linejoin:miter;stroke-opacity:1" d="M 127.19,201.752 138.536,214.719 z" id="boundary" inkscape:connector-curvature="0" />
	<path style="fill:none;stroke:red;stroke-width:1px;stroke-linecap:butt;stroke-linejoin:miter;stroke-opacity:1" d="M 185.542,227.686 169.333,222.824 z" id="boundary" inkscape:connector-curvature="0" />
	<path style="fill:none;stroke:red;stroke-width:1px;stroke-linecap:butt;stroke-linejoin:miter;stroke-opacity:1" d="M 153.124,222.824 169.333,222.824 z" id="boundary" inkscape:connector-curvature="0" />
	<path style="fill:none;stroke:red;stroke-width:1px;stroke-linecap:butt;stroke-linejoin:miter;stroke-opacity:1" d="M 153.124,222.824 138.536,214.719 z" id="boundary" inkscape:connector-curvature="0" />
	<path style="fill:none;stroke:red;stroke-width:1px;stroke-linecap:butt;stroke-linejoin:miter;stroke-opacity:1" d="M 185.542,227.686 198.51,239.033 z" id="boundary" inkscape:connector-curvature="0" />
	<path style="fill:none;stroke:red;stroke-width:1px;stroke-linecap:butt;stroke-linejoin:miter;stroke-opacity:1" d="M 214.719,239.033 198.51,239.033 z" id="boundary" inkscape:connector-curvature="0" />
	<path style="fill:none;stroke:red;stroke-width:1px;stroke-linecap:butt;stroke-linejoin:miter;stroke-opacity:1" d="M 222.824,253.621 222.824,269.83 z" id="boundary" inkscape:connector-curvature="0" />
	<path style="fill:none;stroke:red;stroke-width:1px;stroke-linecap:butt;stroke-linejoin:miter;stroke-opacity:1" d="M 222.824,253.621 214.719,239.033 z" id="boundary" inkscape:connector-curvature="0" />
	<path style="fill:none;stroke:red;stroke-width:1px;stroke-linecap:butt;stroke-linejoin:miter;stroke-opacity:1" d="M 222.824,269.83 235.791,279.556 z" id="boundary" inkscape:connector-curvature="0" />
	<path style="fill:none;stroke:red;stroke-width:1px;stroke-linecap:butt;stroke-linejoin:miter;stroke-opacity:1" d="M 235.791,279.556 239.033,307.111 z" id="boundary" inkscape:connector-curvature="0" />
	<path style="fill:none;stroke:red;stroke-width:1px;stroke-linecap:butt;stroke-linejoin:miter;stroke-opacity:1" d="M 334.667,239.033 350.876,239.033 z" id="boundary" inkscape:connector-curvature="0" />
	<path style="fill:none;stroke:red;stroke-width:1px;stroke-linecap:butt;stroke-linejoin:miter;stroke-opacity:1" d="M 320.078,247.137 334.667,239.033 z" id="boundary" inkscape:connector-curvature="0" />
	<path style="fill:none;stroke:red;stroke-width:1px;stroke-linecap:butt;stroke-linejoin:miter;stroke-opacity:1" d="M 367.085,239.033 383.294,239.033 z" id="boundary" inkscape:connector-curvature="0" />
	<path style="fill:none;stroke:red;stroke-width:1px;stroke-linecap:butt;stroke-linejoin:miter;stroke-opacity:1" d="M 367.085,239.033 350.876,239.033 z" id="boundary" inkscape:connector-curvature="0" />
	<path style="fill:none;stroke:red;stroke-width:1px;stroke-linecap:butt;stroke-linejoin:miter;stroke-opacity:1" d="M 462.719,222.824 446.51,229.307 z" id="boundary" inkscape:connector-curvature="0" />
	<path style="fill:none;stroke:red;stroke-width:1px;stroke-linecap:butt;stroke-linejoin:miter;stroke-opacity:1" d="M 446.51,229.307 430.301,230.928 z" id="boundary" inkscape:connector-curvature="0" />
	<path style="fill:none;stroke:red;stroke-width:1px;stroke-linecap:butt;stroke-linejoin:miter;stroke-opacity:1" d="M 430.301,230.928 415.712,239.033 z" id="boundary" inkscape:connector-curvature="0" />
	<path style="fill:none;stroke:red;stroke-width:1px;stroke-linecap:butt;stroke-linejoin:miter;stroke-opacity:1" d="M 415.712,239.033 399.503,239.033 z" id="boundary" inkscape:connector-curvature="0" />
	<path style="fill:none;stroke:red;stroke-width:1px;stroke-linecap:butt;stroke-linejoin:miter;stroke-opacity:1" d="M 399.503,239.033 383.294,239.033 z" id="boundary" inkscape:connector-curvature="0" />
	<path style="fill:none;stroke:red;stroke-width:1px;stroke-linecap:butt;stroke-linejoin:miter;stroke-opacity:1" d="M 263.346,331.425 252,318.458 z" id="boundary" inkscape:connector-curvature="0" />
	<path style="fill:none;stroke:red;stroke-width:1px;stroke-linecap:butt;stroke-linejoin:miter;stroke-opacity:1" d="M 289.281,255.242 289.281,271.451 z" id="boundary" inkscape:connector-curvature="0" />
	<path style="fill:none;stroke:red;stroke-width:1px;stroke-linecap:butt;stroke-linejoin:miter;stroke-opacity:1" d="M 289.281,311.974 279.556,336.288 z" id="boundary" inkscape:connector-curvature="0" />
	<path style="fill:none;stroke:red;stroke-width:1px;stroke-linecap:butt;stroke-linejoin:miter;stroke-opacity:1" d="M 279.556,336.288 263.346,331.425 z" id="boundary" inkscape:connector-curvature="0" />
	<path style="fill:none;stroke:red;stroke-width:1px;stroke-linecap:butt;stroke-linejoin:miter;stroke-opacity:1" d="M 289.281,271.451 289.281,295.765 z" id="boundary" inkscape:connector-curvature="0" />
	<path style="fill:none;stroke:red;stroke-width:1px;stroke-linecap:butt;stroke-linejoin:miter;stroke-opacity:1" d="M 239.033,307.111 252,318.458 z" id="boundary" inkscape:connector-curvature="0" />
	<path style="fill:none;stroke:red;stroke-width:1px;stroke-linecap:butt;stroke-linejoin:miter;stroke-opacity:1" d="M 303.869,247.137 320.078,247.137 z" id="boundary" inkscape:connector-curvature="0" />
	<path style="fill:none;stroke:red;stroke-width:1px;stroke-linecap:butt;stroke-linejoin:miter;stroke-opacity:1" d="M 289.281,295.765 289.281,311.974 z" id="boundary" inkscape:connector-curvature="0" />
	<path style="fill:none;stroke:red;stroke-width:1px;stroke-linecap:butt;stroke-linejoin:miter;stroke-opacity:1" d="M 289.281,255.242 303.869,247.137 z" id="boundary" inkscape:connector-curvature="0" />
	<path style="fill:none;stroke:red;stroke-width:1px;stroke-linecap:butt;stroke-linejoin:miter;stroke-opacity:1" d="M 462.719,222.824 478.928,222.824 z" id="boundary" inkscape:connector-curvature="0" />
	<path style="fill:none;stroke:red;stroke-width:1px;stroke-linecap:butt;stroke-linejoin:miter;stroke-opacity:1" d="M 464.34,85.0458 480.549,91.5294 z" id="boundary" inkscape:connector-curvature="0" />
	<path style="fill:none;stroke:red;stroke-width:1px;stroke-linecap:butt;stroke-linejoin:miter;stroke-opacity:1" d="M 480.549,91.5294 496.758,91.5294 z" id="boundary" inkscape:connector-curvature="0" />
	<path style="fill:none;stroke:red;stroke-width:1px;stroke-linecap:butt;stroke-linejoin:miter;stroke-opacity:1" d="M 512.967,91.5294 529.176,91.5294 z" id="boundary" inkscape:connector-curvature="0" />
	<path style="fill:none;stroke:red;stroke-width:1px;stroke-linecap:butt;stroke-linejoin:miter;stroke-opacity:1" d="M 512.967,91.5294 496.758,91.5294 z" id="boundary" inkscape:connector-curvature="0" />
	<path style="fill:none;stroke:red;stroke-width:1px;stroke-linecap:butt;stroke-linejoin:miter;stroke-opacity:1" d="M 545.386,93.1503 556.732,106.118 z" id="boundary" inkscape:connector-curvature="0" />
	<path style="fill:none;stroke:red;stroke-width:1px;stroke-linecap:butt;stroke-linejoin:miter;stroke-opacity:1" d="M 529.176,91.5294 545.386,93.1503 z" id="boundary" inkscape:connector-curvature="0" />
	<path style="fill:none;stroke:red;stroke-width:1px;stroke-linecap:butt;stroke-linejoin:miter;stroke-opacity:1" d="M 572.941,107.739 556.732,106.118 z" id="boundary" inkscape:connector-curvature="0" />
	<path style="fill:none;stroke:red;stroke-width:1px;stroke-linecap:butt;stroke-linejoin:miter;stroke-opacity:1" d="M 589.15,112.601 572.941,107.739 z" id="boundary" inkscape:connector-curvature="0" />
	<path style="fill:none;stroke:red;stroke-width:1px;stroke-linecap:butt;stroke-linejoin:miter;stroke-opacity:1" d="M 589.15,112.601 603.739,120.706 z" id="boundary" inkscape:connector-curvature="0" />
	<path style="fill:none;stroke:red;stroke-width:1px;stroke-linecap:butt;stroke-linejoin:miter;stroke-opacity:1" d="M 619.948,127.19 603.739,120.706 z" id="boundary" inkscape:connector-curvature="0" />
	<path style="fill:none;stroke:red;stroke-width:1px;stroke-linecap:butt;stroke-linejoin:miter;stroke-opacity:1" d="M 636.157,132.052 652.366,132.052 z" id="boundary" inkscape:connector-curvature="0" />
	<path style="fill:none;stroke:red;stroke-width:1px;stroke-linecap:butt;stroke-linejoin:miter;stroke-opacity:1" d="M 636.157,132.052 619.948,127.19 z" id="boundary" inkscape:connector-curvature="0" />
	<path style="fill:none;stroke:red;stroke-width:1px;stroke-linecap:butt;stroke-linejoin:miter;stroke-opacity:1" d="M 668.575,135.294 678.301,148.261 z" id="boundary" inkscape:connector-curvature="0" />
	<path style="fill:none;stroke:red;stroke-width:1px;stroke-linecap:butt;stroke-linejoin:miter;stroke-opacity:1" d="M 652.366,132.052 668.575,135.294 z" id="boundary" inkscape:connector-curvature="0" />
	<path style="fill:none;stroke:red;stroke-width:1px;stroke-linecap:butt;stroke-linejoin:miter;stroke-opacity:1" d="M 694.51,153.124 678.301,148.261 z" id="boundary" inkscape:connector-curvature="0" />
	<path style="fill:none;stroke:red;stroke-width:1px;stroke-linecap:butt;stroke-linejoin:miter;stroke-opacity:1" d="M 694.51,153.124 710.719,148.261 z" id="boundary" inkscape:connector-curvature="0" />
	<path style="fill:none;stroke:red;stroke-width:1px;stroke-linecap:butt;stroke-linejoin:miter;stroke-opacity:1" d="M 710.719,148.261 725.307,156.366 z" id="boundary" inkscape:connector-curvature="0" />
	<path style="fill:none;stroke:red;stroke-width:1px;stroke-linecap:butt;stroke-linejoin:miter;stroke-opacity:1" d="M 741.516,156.366 725.307,156.366 z" id="boundary" inkscape:connector-curvature="0" />
	<path style="fill:none;stroke:red;stroke-width:1px;stroke-linecap:butt;stroke-linejoin:miter;stroke-opacity:1" d="M 788.523,148.261 804.732,148.261 z" id="boundary" inkscape:connector-curvature="0" />
	<path style="fill:none;stroke:red;stroke-width:1px;stroke-linecap:butt;stroke-linejoin:miter;stroke-opacity:1" d="M 773.935,156.366 788.523,148.261 z" id="boundary" inkscape:connector-curvature="0" />
	<path style="fill:none;stroke:red;stroke-width:1px;stroke-linecap:butt;stroke-linejoin:miter;stroke-opacity:1" d="M 804.732,148.261 820.941,148.261 z" id="boundary" inkscape:connector-curvature="0" />
	<path style="fill:none;stroke:red;stroke-width:1px;stroke-linecap:butt;stroke-linejoin:miter;stroke-opacity:1" d="M 837.15,148.261 820.941,148.261 z" id="boundary" inkscape:connector-curvature="0" />
	<path style="fill:none;stroke:red;stroke-width:1px;stroke-linecap:butt;stroke-linejoin:miter;stroke-opacity:1" d="M 961.961,135.294 978.17,132.052 z" id="boundary" inkscape:connector-curvature="0" />
	<path style="fill:none;stroke:red;stroke-width:1px;stroke-linecap:butt;stroke-linejoin:miter;stroke-opacity:1" d="M 869.569,148.261 853.359,148.261 z" id="boundary" inkscape:connector-curvature="0" />
	<path style="fill:none;stroke:red;stroke-width:1px;stroke-linecap:butt;stroke-linejoin:miter;stroke-opacity:1" d="M 853.359,148.261 837.15,148.261 z" id="boundary" inkscape:connector-curvature="0" />
	<path style="fill:none;stroke:red;stroke-width:1px;stroke-linecap:butt;stroke-linejoin:miter;stroke-opacity:1" d="M 961.961,135.294 945.752,135.294 z" id="boundary" inkscape:connector-curvature="0" />
	<path style="fill:none;stroke:red;stroke-width:1px;stroke-linecap:butt;stroke-linejoin:miter;stroke-opacity:1" d="M 934.405,148.261 945.752,135.294 z" id="boundary" inkscape:connector-curvature="0" />
	<path style="fill:none;stroke:red;stroke-width:1px;stroke-linecap:butt;stroke-linejoin:miter;stroke-opacity:1" d="M 978.17,132.052 994.379,132.052 z" id="boundary" inkscape:connector-curvature="0" />
	<path style="fill:none;stroke:red;stroke-width:1px;stroke-linecap:butt;stroke-linejoin:miter;stroke-opacity:1" d="M 757.725,156.366 741.516,156.366 z" id="boundary" inkscape:connector-curvature="0" />
	<path style="fill:none;stroke:red;stroke-width:1px;stroke-linecap:butt;stroke-linejoin:miter;stroke-opacity:1" d="M 757.725,156.366 773.935,156.366 z" id="boundary" inkscape:connector-curvature="0" />
	<path style="fill:none;stroke:red;stroke-width:1px;stroke-linecap:butt;stroke-linejoin:miter;stroke-opacity:1" d="M 885.778,148.261 901.987,148.261 z" id="boundary" inkscape:connector-curvature="0" />
	<path style="fill:none;stroke:red;stroke-width:1px;stroke-linecap:butt;stroke-linejoin:miter;stroke-opacity:1" d="M 918.196,148.261 934.405,148.261 z" id="boundary" inkscape:connector-curvature="0" />
	<path style="fill:none;stroke:red;stroke-width:1px;stroke-linecap:butt;stroke-linejoin:miter;stroke-opacity:1" d="M 901.987,148.261 918.196,148.261 z" id="boundary" inkscape:connector-curvature="0" />
	<path style="fill:none;stroke:red;stroke-width:1px;stroke-linecap:butt;stroke-linejoin:miter;stroke-opacity:1" d="M 869.569,148.261 885.778,148.261 z" id="boundary" inkscape:connector-curvature="0" />
	<path style="fill:none;stroke:red;stroke-width:1px;stroke-linecap:butt;stroke-linejoin:miter;stroke-opacity:1" d="M 996,157.987 979.791,157.987 z" id="boundary" inkscape:connector-curvature="0" />
	<path style="fill:none;stroke:red;stroke-width:1px;stroke-linecap:butt;stroke-linejoin:miter;stroke-opacity:1" d="M 979.791,157.987 965.203,166.092 z" id="boundary" inkscape:connector-curvature="0" />
	<path style="fill:none;stroke:red;stroke-width:1px;stroke-linecap:butt;stroke-linejoin:miter;stroke-opacity:1" d="M 495.137,222.824 511.346,222.824 z" id="boundary" inkscape:connector-curvature="0" />
	<path style="fill:none;stroke:red;stroke-width:1px;stroke-linecap:butt;stroke-linejoin:miter;stroke-opacity:1" d="M 495.137,222.824 478.928,222.824 z" id="boundary" inkscape:connector-curvature="0" />
	<path style="fill:none;stroke:red;stroke-width:1px;stroke-linecap:butt;stroke-linejoin:miter;stroke-opacity:1" d="M 527.556,222.824 543.765,222.824 z" id="boundary" inkscape:connector-curvature="0" />
	<path style="fill:none;stroke:red;stroke-width:1px;stroke-linecap:butt;stroke-linejoin:miter;stroke-opacity:1" d="M 527.556,222.824 511.346,222.824 z" id="boundary" inkscape:connector-curvature="0" />
	<path style="fill:none;stroke:red;stroke-width:1px;stroke-linecap:butt;stroke-linejoin:miter;stroke-opacity:1" d="M 576.183,222.824 590.771,214.719 z" id="boundary" inkscape:connector-curvature="0" />
	<path style="fill:none;stroke:red;stroke-width:1px;stroke-linecap:butt;stroke-linejoin:miter;stroke-opacity:1" d="M 590.771,214.719 605.359,222.824 z" id="boundary" inkscape:connector-curvature="0" />
	<path style="fill:none;stroke:red;stroke-width:1px;stroke-linecap:butt;stroke-linejoin:miter;stroke-opacity:1" d="M 712.34,214.719 697.752,222.824 z" id="boundary" inkscape:connector-curvature="0" />
	<path style="fill:none;stroke:red;stroke-width:1px;stroke-linecap:butt;stroke-linejoin:miter;stroke-opacity:1" d="M 559.974,222.824 543.765,222.824 z" id="boundary" inkscape:connector-curvature="0" />
	<path style="fill:none;stroke:red;stroke-width:1px;stroke-linecap:butt;stroke-linejoin:miter;stroke-opacity:1" d="M 576.183,222.824 559.974,222.824 z" id="boundary" inkscape:connector-curvature="0" />
	<path style="fill:none;stroke:red;stroke-width:1px;stroke-linecap:butt;stroke-linejoin:miter;stroke-opacity:1" d="M 637.778,222.824 621.569,222.824 z" id="boundary" inkscape:connector-curvature="0" />
	<path style="fill:none;stroke:red;stroke-width:1px;stroke-linecap:butt;stroke-linejoin:miter;stroke-opacity:1" d="M 605.359,222.824 621.569,222.824 z" id="boundary" inkscape:connector-curvature="0" />
	<path style="fill:none;stroke:red;stroke-width:1px;stroke-linecap:butt;stroke-linejoin:miter;stroke-opacity:1" d="M 637.778,222.824 652.366,230.928 z" id="boundary" inkscape:connector-curvature="0" />
	<path style="fill:none;stroke:red;stroke-width:1px;stroke-linecap:butt;stroke-linejoin:miter;stroke-opacity:1" d="M 652.366,230.928 666.954,239.033 z" id="boundary" inkscape:connector-curvature="0" />
	<path style="fill:none;stroke:red;stroke-width:1px;stroke-linecap:butt;stroke-linejoin:miter;stroke-opacity:1" d="M 726.928,222.824 736.654,235.791 z" id="boundary" inkscape:connector-curvature="0" />
	<path style="fill:none;stroke:red;stroke-width:1px;stroke-linecap:butt;stroke-linejoin:miter;stroke-opacity:1" d="M 712.34,214.719 726.928,222.824 z" id="boundary" inkscape:connector-curvature="0" />
	<path style="fill:none;stroke:red;stroke-width:1px;stroke-linecap:butt;stroke-linejoin:miter;stroke-opacity:1" d="M 666.954,239.033 681.542,229.307 z" id="boundary" inkscape:connector-curvature="0" />
	<path style="fill:none;stroke:red;stroke-width:1px;stroke-linecap:butt;stroke-linejoin:miter;stroke-opacity:1" d="M 681.542,229.307 697.752,222.824 z" id="boundary" inkscape:connector-curvature="0" />
	<path style="fill:none;stroke:red;stroke-width:1px;stroke-linecap:butt;stroke-linejoin:miter;stroke-opacity:1" d="M 889.02,190.405 872.81,190.405 z" id="boundary" inkscape:connector-curvature="0" />
	<path style="fill:none;stroke:red;stroke-width:1px;stroke-linecap:butt;stroke-linejoin:miter;stroke-opacity:1" d="M 872.81,190.405 856.601,198.51 z" id="boundary" inkscape:connector-curvature="0" />
	<path style="fill:none;stroke:red;stroke-width:1px;stroke-linecap:butt;stroke-linejoin:miter;stroke-opacity:1" d="M 903.608,182.301 919.817,185.542 z" id="boundary" inkscape:connector-curvature="0" />
	<path style="fill:none;stroke:red;stroke-width:1px;stroke-linecap:butt;stroke-linejoin:miter;stroke-opacity:1" d="M 889.02,190.405 903.608,182.301 z" id="boundary" inkscape:connector-curvature="0" />
	<path style="fill:none;stroke:red;stroke-width:1px;stroke-linecap:butt;stroke-linejoin:miter;stroke-opacity:1" d="M 856.601,198.51 840.392,206.614 z" id="boundary" inkscape:connector-curvature="0" />
	<path style="fill:none;stroke:red;stroke-width:1px;stroke-linecap:butt;stroke-linejoin:miter;stroke-opacity:1" d="M 948.993,172.575 965.203,166.092 z" id="boundary" inkscape:connector-curvature="0" />
	<path style="fill:none;stroke:red;stroke-width:1px;stroke-linecap:butt;stroke-linejoin:miter;stroke-opacity:1" d="M 932.784,174.196 919.817,185.542 z" id="boundary" inkscape:connector-curvature="0" />
	<path style="fill:none;stroke:red;stroke-width:1px;stroke-linecap:butt;stroke-linejoin:miter;stroke-opacity:1" d="M 932.784,174.196 948.993,172.575 z" id="boundary" inkscape:connector-curvature="0" />
	<path style="fill:none;stroke:red;stroke-width:1px;stroke-linecap:butt;stroke-linejoin:miter;stroke-opacity:1" d="M 749.621,245.516 759.346,258.484 z" id="boundary" inkscape:connector-curvature="0" />
	<path style="fill:none;stroke:red;stroke-width:1px;stroke-linecap:butt;stroke-linejoin:miter;stroke-opacity:1" d="M 736.654,235.791 749.621,245.516 z" id="boundary" inkscape:connector-curvature="0" />
	<path style="fill:none;stroke:red;stroke-width:1px;stroke-linecap:butt;stroke-linejoin:miter;stroke-opacity:1" d="M 775.556,263.346 759.346,258.484 z" id="boundary" inkscape:connector-curvature="0" />
	<path style="fill:none;stroke:red;stroke-width:1px;stroke-linecap:butt;stroke-linejoin:miter;stroke-opacity:1" d="M 775.556,263.346 791.765,263.346 z" id="boundary" inkscape:connector-curvature="0" />
	<path style="fill:none;stroke:red;stroke-width:1px;stroke-linecap:butt;stroke-linejoin:miter;stroke-opacity:1" d="M 803.111,247.137 791.765,263.346 z" id="boundary" inkscape:connector-curvature="0" />
	<path style="fill:none;stroke:red;stroke-width:1px;stroke-linecap:butt;stroke-linejoin:miter;stroke-opacity:1" d="M 824.183,206.614 840.392,206.614 z" id="boundary" inkscape:connector-curvature="0" />
	<path style="fill:none;stroke:red;stroke-width:1px;stroke-linecap:butt;stroke-linejoin:miter;stroke-opacity:1" d="M 812.837,219.582 824.183,206.614 z" id="boundary" inkscape:connector-curvature="0" />
	<path style="fill:none;stroke:red;stroke-width:1px;stroke-linecap:butt;stroke-linejoin:miter;stroke-opacity:1" d="M 799.869,230.928 812.837,219.582 z" id="boundary" inkscape:connector-curvature="0" />
	<path style="fill:none;stroke:red;stroke-width:1px;stroke-linecap:butt;stroke-linejoin:miter;stroke-opacity:1" d="M 803.111,247.137 799.869,230.928 z" id="boundary" inkscape:connector-curvature="0" />
	<circle cx="4" cy="120.706" r="4" fill="#0" id="circle0"/>
	<circle cx="12.1046" cy="135.294" r="4" fill="#0" id="circle1"/>
	<circle cx="16.9673" cy="107.739" r="4" fill="#0" id="circle2"/>
	<circle cx="23.451" cy="148.261" r="4" fill="#0" id="circle3"/>
	<circle cx="33.1765" cy="107.739" r="4" fill="#0" id="circle4"/>
	<circle cx="39.6601" cy="154.745" r="4" fill="#0" id="circle5"/>
	<circle cx="49.3856" cy="107.739" r="4" fill="#0" id="circle6"/>
	<circle cx="52.6275" cy="166.092" r="4" fill="#0" id="circle7"/>
	<circle cx="65.5948" cy="99.634" r="4" fill="#0" id="circle8"/>
	<circle cx="67.2157" cy="174.196" r="4" fill="#0" id="circle9"/>
	<circle cx="81.8039" cy="99.634" r="4" fill="#0" id="circle10"/>
	<circle cx="81.8039" cy="182.301" r="4" fill="#0" id="circle11"/>
	<circle cx="94.7712" cy="193.647" r="4" fill="#0" id="circle12"/>
	<circle cx="98.0131" cy="99.634" r="4" fill="#0" id="circle13"/>
	<circle cx="110.98" cy="198.51" r="4" fill="#0" id="circle14"/>
	<circle cx="114.222" cy="99.634" r="4" fill="#0" id="circle15"/>
	<circle cx="127.19" cy="201.752" r="4" fill="#0" id="circle16"/>
	<circle cx="130.431" cy="99.634" r="4" fill="#0" id="circle17"/>
	<circle cx="138.536" cy="214.719" r="4" fill="#0" id="circle18"/>
	<circle cx="145.02" cy="91.5294" r="4" fill="#0" id="circle19"/>
	<circle cx="153.124" cy="222.824" r="4" fill="#0" id="circle20"/>
	<circle cx="161.229" cy="91.5294" r="4" fill="#0" id="circle21"/>
	<circle cx="169.333" cy="222.824" r="4" fill="#0" id="circle22"/>
	<circle cx="177.438" cy="91.5294" r="4" fill="#0" id="circle23"/>
	<circle cx="185.542" cy="227.686" r="4" fill="#0" id="circle24"/>
	<circle cx="193.647" cy="93.1503" r="4" fill="#0" id="circle25"/>
	<circle cx="198.51" cy="239.033" r="4" fill="#0" id="circle26"/>
	<circle cx="209.856" cy="91.5294" r="4" fill="#0" id="circle27"/>
	<circle cx="214.719" cy="239.033" r="4" fill="#0" id="circle28"/>
	<circle cx="222.824" cy="253.621" r="4" fill="#0" id="circle29"/>
	<circle cx="222.824" cy="269.83" r="4" fill="#0" id="circle30"/>
	<circle cx="226.065" cy="91.5294" r="4" fill="#0" id="circle31"/>
	<circle cx="235.791" cy="279.556" r="4" fill="#0" id="circle32"/>
	<circle cx="239.033" cy="307.111" r="4" fill="#0" id="circle33"/>
	<circle cx="242.275" cy="91.5294" r="4" fill="#0" id="circle34"/>
	<circle cx="252" cy="318.458" r="4" fill="#0" id="circle35"/>
	<circle cx="258.484" cy="91.5294" r="4" fill="#0" id="circle36"/>
	<circle cx="263.346" cy="331.425" r="4" fill="#0" id="circle37"/>
	<circle cx="274.693" cy="85.0458" r="4" fill="#0" id="circle38"/>
	<circle cx="279.556" cy="336.288" r="4" fill="#0" id="circle39"/>
	<circle cx="289.281" cy="255.242" r="4" fill="#0" id="circle40"/>
	<circle cx="289.281" cy="271.451" r="4" fill="#0" id="circle41"/>
	<circle cx="289.281" cy="295.765" r="4" fill="#0" id="circle42"/>
	<circle cx="289.281" cy="311.974" r="4" fill="#0" id="circle43"/>
	<circle cx="290.902" cy="91.5294" r="4" fill="#0" id="circle44"/>
	<circle cx="303.869" cy="80.183" r="4" fill="#0" id="circle45"/>
	<circle cx="303.869" cy="247.137" r="4" fill="#0" id="circle46"/>
	<circle cx="320.078" cy="72.0784" r="4" fill="#0" id="circle47"/>
	<circle cx="320.078" cy="247.137" r="4" fill="#0" id="circle48"/>
	<circle cx="333.046" cy="59.1111" r="4" fill="#0" id="circle49"/>
	<circle cx="334.667" cy="239.033" r="4" fill="#0" id="circle50"/>
	<circle cx="346.013" cy="46.1438" r="4" fill="#0" id="circle51"/>
	<circle cx="350.876" cy="239.033" r="4" fill="#0" id="circle52"/>
	<circle cx="358.98" cy="34.7974" r="4" fill="#0" id="circle53"/>
	<circle cx="367.085" cy="239.033" r="4" fill="#0" id="circle54"/>
	<circle cx="370.327" cy="21.8301" r="4" fill="#0" id="circle55"/>
	<circle cx="383.294" cy="239.033" r="4" fill="#0" id="circle56"/>
	<circle cx="386.536" cy="13.7255" r="4" fill="#0" id="circle57"/>
	<circle cx="399.503" cy="4" r="4" fill="#0" id="circle58"/>
	<circle cx="399.503" cy="239.033" r="4" fill="#0" id="circle59"/>
	<circle cx="410.85" cy="16.9673" r="4" fill="#0" id="circle60"/>
	<circle cx="410.85" cy="60.732" r="4" fill="#0" id="circle61"/>
	<circle cx="415.712" cy="239.033" r="4" fill="#0" id="circle62"/>
	<circle cx="418.954" cy="31.5556" r="4" fill="#0" id="circle63"/>
	<circle cx="418.954" cy="75.3203" r="4" fill="#0" id="circle64"/>
	<circle cx="430.301" cy="230.928" r="4" fill="#0" id="circle65"/>
	<circle cx="435.163" cy="75.3203" r="4" fill="#0" id="circle66"/>
	<circle cx="446.51" cy="229.307" r="4" fill="#0" id="circle67"/>
	<circle cx="451.373" cy="75.3203" r="4" fill="#0" id="circle68"/>
	<circle cx="462.719" cy="222.824" r="4" fill="#0" id="circle69"/>
	<circle cx="464.34" cy="85.0458" r="4" fill="#0" id="circle70"/>
	<circle cx="478.928" cy="222.824" r="4" fill="#0" id="circle71"/>
	<circle cx="480.549" cy="91.5294" r="4" fill="#0" id="circle72"/>
	<circle cx="495.137" cy="222.824" r="4" fill="#0" id="circle73"/>
	<circle cx="496.758" cy="91.5294" r="4" fill="#0" id="circle74"/>
	<circle cx="511.346" cy="222.824" r="4" fill="#0" id="circle75"/>
	<circle cx="512.967" cy="91.5294" r="4" fill="#0" id="circle76"/>
	<circle cx="527.556" cy="222.824" r="4" fill="#0" id="circle77"/>
	<circle cx="529.176" cy="91.5294" r="4" fill="#0" id="circle78"/>
	<circle cx="543.765" cy="222.824" r="4" fill="#0" id="circle79"/>
	<circle cx="545.386" cy="93.1503" r="4" fill="#0" id="circle80"/>
	<circle cx="556.732" cy="106.118" r="4" fill="#0" id="circle81"/>
	<circle cx="559.974" cy="222.824" r="4" fill="#0" id="circle82"/>
	<circle cx="572.941" cy="107.739" r="4" fill="#0" id="circle83"/>
	<circle cx="576.183" cy="222.824" r="4" fill="#0" id="circle84"/>
	<circle cx="589.15" cy="112.601" r="4" fill="#0" id="circle85"/>
	<circle cx="590.771" cy="214.719" r="4" fill="#0" id="circle86"/>
	<circle cx="603.739" cy="120.706" r="4" fill="#0" id="circle87"/>
	<circle cx="605.359" cy="222.824" r="4" fill="#0" id="circle88"/>
	<circle cx="619.948" cy="127.19" r="4" fill="#0" id="circle89"/>
	<circle cx="621.569" cy="222.824" r="4" fill="#0" id="circle90"/>
	<circle cx="636.157" cy="132.052" r="4" fill="#0" id="circle91"/>
	<circle cx="637.778" cy="222.824" r="4" fill="#0" id="circle92"/>
	<circle cx="652.366" cy="132.052" r="4" fill="#0" id="circle93"/>
	<circle cx="652.366" cy="230.928" r="4" fill="#0" id="circle94"/>
	<circle cx="666.954" cy="239.033" r="4" fill="#0" id="circle95"/>
	<circle cx="668.575" cy="135.294" r="4" fill="#0" id="circle96"/>
	<circle cx="678.301" cy="148.261" r="4" fill="#0" id="circle97"/>
	<circle cx="681.542" cy="229.307" r="4" fill="#0" id="circle98"/>
	<circle cx="694.51" cy="153.124" r="4" fill="#0" id="circle99"/>
	<circle cx="697.752" cy="222.824" r="4" fill="#0" id="circle100"/>
	<circle cx="710.719" cy="148.261" r="4" fill="#0" id="circle101"/>
	<circle cx="712.34" cy="214.719" r="4" fill="#0" id="circle102"/>
	<circle cx="725.307" cy="156.366" r="4" fill="#0" id="circle103"/>
	<circle cx="726.928" cy="222.824" r="4" fill="#0" id="circle104"/>
	<circle cx="736.654" cy="235.791" r="4" fill="#0" id="circle105"/>
	<circle cx="741.516" cy="156.366" r="4" fill="#0" id="circle106"/>
	<circle cx="749.621" cy="245.516" r="4" fill="#0" id="circle107"/>
	<circle cx="757.725" cy="156.366" r="4" fill="#0" id="circle108"/>
	<circle cx="759.346" cy="258.484" r="4" fill="#0" id="circle109"/>
	<circle cx="773.935" cy="156.366" r="4" fill="#0" id="circle110"/>
	<circle cx="775.556" cy="263.346" r="4" fill="#0" id="circle111"/>
	<circle cx="788.523" cy="148.261" r="4" fill="#0" id="circle112"/>
	<circle cx="791.765" cy="263.346" r="4" fill="#0" id="circle113"/>
	<circle cx="799.869" cy="230.928" r="4" fill="#0" id="circle114"/>
	<circle cx="803.111" cy="247.137" r="4" fill="#0" id="circle115"/>
	<circle cx="804.732" cy="148.261" r="4" fill="#0" id="circle116"/>
	<circle cx="812.837" cy="219.582" r="4" fill="#0" id="circle117"/>
	<circle cx="820.941" cy="148.261" r="4" fill="#0" id="circle118"/>
	<circle cx="824.183" cy="206.614" r="4" fill="#0" id="circle119"/>
	<circle cx="837.15" cy="148.261" r="4" fill="#0" id="circle120"/>
	<circle cx="840.392" cy="206.614" r="4" fill="#0" id="circle121"/>
	<circle cx="853.359" cy="148.261" r="4" fill="#0" id="circle122"/>
	<circle cx="856.601" cy="198.51" r="4" fill="#0" id="circle123"/>
	<circle cx="869.569" cy="148.261" r="4" fill="#0" id="circle124"/>
	<circle cx="872.81" cy="190.405" r="4" fill="#0" id="circle125"/>
	<circle cx="885.778" cy="148.261" r="4" fill="#0" id="circle126"/>
	<circle cx="889.02" cy="190.405" r="4" fill="#0" id="circle127"/>
	<circle cx="901.987" cy="148.261" r="4" fill="#0" id="circle128"/>
	<circle cx="903.608" cy="182.301" r="4" fill="#0" id="circle129"/>
	<circle cx="918.196" cy="148.261" r="4" fill="#0" id="circle130"/>
	<circle cx="919.817" cy="185.542" r="4" fill="#0" id="circle131"/>
	<circle cx="932.784" cy="174.196" r="4" fill="#0" id="circle132"/>
	<circle cx="934.405" cy="148.261" r="4" fill="#0" id="circle133"/>
	<circle cx="945.752" cy="135.294" r="4" fill="#0" id="circle134"/>
	<circle cx="948.993" cy="172.575" r="4" fill="#0" id="circle135"/>
	<circle cx="961.961" cy="135.294" r="4" fill="#0" id="circle136"/>
	<circle cx="965.203" cy="166.092" r="4" fill="#0" id="circle137"/>
	<circle cx="978.17" cy="132.052" r="4" fill="#0" id="circle138"/>
	<circle cx="979.791" cy="157.987" r="4" fill="#0" id="circle139"/>
	<circle cx="994.379" cy="132.052" r="4" fill="#0" id="circle140"/>
	<circle cx="996" cy="157.987" r="4" fill="#0" id="circle141"/>
	</g>
</svg>