<?xml version="1.0" encoding="UTF-8" standalone="no"?>
<!-- Created with CurveBenchmark -->
<svg
	xmlns:dc="http://purl.org/dc/elements/1.1/"
	xmlns:cc="http://creativecommons.org/ns#"
	xmlns:rdf="http://www.w3.org/1999/02/22-rdf-syntax-ns#"
	xmlns:svg="http://www.w3.org/2000/svg"
	xmlns="http://www.w3.org/2000/svg"
	xmlns:sodipodi="http://sodipodi.sourceforge.net/DTD/sodipodi-0.dtd"
	xmlns:inkscape="http://www.inkscape.org/namespaces/inkscape"
	width="1000"
	height="1000"
	id="svg2"
	version="1.1"
	sodipodi:docname="manifold/ccrust-truck-11.png.txt">
<defs
	id="defs4" />
<metadata
	id="metadata7">
	<rdf:RDF>
		<cc:Work
			rdf:about="">
			<dc:format>image/svg+xml</dc:format>
			<dc:type
				rdf:resource="http://purl.org/dc/dcmitype/StillImage" />
			<dc:title></dc:title>
		</cc:Work>
	</rdf:RDF>
</metadata>
<g
	inkscape:label="Layer 1"
	inkscape:groupmode="layer"
	id="layer1">
	<path style="fill:none;stroke:red;stroke-width:1px;stroke-linecap:butt;stroke-linejoin:miter;stroke-opacity:1" d="M 41.7186,160.532 60.5779,154.875 z" id="boundary" inkscape:connector-curvature="0" />
	<path style="fill:none;stroke:red;stroke-width:1px;stroke-linecap:butt;stroke-linejoin:miter;stroke-opacity:1" d="M 13.4297,188.821 22.8593,169.962 z" id="boundary" inkscape:connector-curvature="0" />
	<path style="fill:none;stroke:red;stroke-width:1px;stroke-linecap:butt;stroke-linejoin:miter;stroke-opacity:1" d="M 22.8593,169.962 41.7186,160.532 z" id="boundary" inkscape:connector-curvature="0" />
	<path style="fill:none;stroke:red;stroke-width:1px;stroke-linecap:butt;stroke-linejoin:miter;stroke-opacity:1" d="M 60.5779,154.875 79.4373,154.875 z" id="boundary" inkscape:connector-curvature="0" />
	<path style="fill:none;stroke:red;stroke-width:1px;stroke-linecap:butt;stroke-linejoin:miter;stroke-opacity:1" d="M 98.2966,154.875 79.4373,154.875 z" id="boundary" inkscape:connector-curvature="0" />
	<path style="fill:none;stroke:red;stroke-width:1px;stroke-linecap:butt;stroke-linejoin:miter;stroke-opacity:1" d="M 136.015,154.875 117.156,154.875 z" id="boundary" inkscape:connector-curvature="0" />
	<path style="fill:none;stroke:red;stroke-width:1px;stroke-linecap:butt;stroke-linejoin:miter;stroke-opacity:1" d="M 154.875,154.875 136.015,154.875 z" id="boundary" inkscape:connector-curvature="0" />
	<path style="fill:none;stroke:red;stroke-width:1px;stroke-linecap:butt;stroke-linejoin:miter;stroke-opacity:1" d="M 98.2966,154.875 117.156,154.875 z" id="boundary" inkscape:connector-curvature="0" />
	<path style="fill:none;stroke:red;stroke-width:1px;stroke-linecap:butt;stroke-linejoin:miter;stroke-opacity:1" d="M 90.7529,307.635 71.8935,307.635 z" id="boundary" inkscape:connector-curvature="0" />
	<path style="fill:none;stroke:red;stroke-width:1px;stroke-linecap:butt;stroke-linejoin:miter;stroke-opacity:1" d="M 4,207.681 13.4297,188.821 z" id="boundary" inkscape:connector-curvature="0" />
	<path style="fill:none;stroke:red;stroke-width:1px;stroke-linecap:butt;stroke-linejoin:miter;stroke-opacity:1" d="M 4,226.54 4,207.681 z" id="boundary" inkscape:connector-curvature="0" />
	<path style="fill:none;stroke:red;stroke-width:1px;stroke-linecap:butt;stroke-linejoin:miter;stroke-opacity:1" d="M 4,264.259 4,245.399 z" id="boundary" inkscape:connector-curvature="0" />
	<path style="fill:none;stroke:red;stroke-width:1px;stroke-linecap:butt;stroke-linejoin:miter;stroke-opacity:1" d="M 4,245.399 4,226.54 z" id="boundary" inkscape:connector-curvature="0" />
	<path style="fill:none;stroke:red;stroke-width:1px;stroke-linecap:butt;stroke-linejoin:miter;stroke-opacity:1" d="M 4,283.118 19.0875,296.319 z" id="boundary" inkscape:connector-curvature="0" />
	<path style="fill:none;stroke:red;stroke-width:1px;stroke-linecap:butt;stroke-linejoin:miter;stroke-opacity:1" d="M 4,283.118 4,264.259 z" id="boundary" inkscape:connector-curvature="0" />
	<path style="fill:none;stroke:red;stroke-width:1px;stroke-linecap:butt;stroke-linejoin:miter;stroke-opacity:1" d="M 34.1749,307.635 53.0342,307.635 z" id="boundary" inkscape:connector-curvature="0" />
	<path style="fill:none;stroke:red;stroke-width:1px;stroke-linecap:butt;stroke-linejoin:miter;stroke-opacity:1" d="M 34.1749,307.635 19.0875,296.319 z" id="boundary" inkscape:connector-curvature="0" />
	<path style="fill:none;stroke:red;stroke-width:1px;stroke-linecap:butt;stroke-linejoin:miter;stroke-opacity:1" d="M 53.0342,307.635 71.8935,307.635 z" id="boundary" inkscape:connector-curvature="0" />
	<path style="fill:none;stroke:red;stroke-width:1px;stroke-linecap:butt;stroke-linejoin:miter;stroke-opacity:1" d="M 386.844,98.2966 405.703,98.2966 z" id="boundary" inkscape:connector-curvature="0" />
	<path style="fill:none;stroke:red;stroke-width:1px;stroke-linecap:butt;stroke-linejoin:miter;stroke-opacity:1" d="M 371.757,113.384 386.844,98.2966 z" id="boundary" inkscape:connector-curvature="0" />
	<path style="fill:none;stroke:red;stroke-width:1px;stroke-linecap:butt;stroke-linejoin:miter;stroke-opacity:1" d="M 320.837,126.586 301.977,126.586 z" id="boundary" inkscape:connector-curvature="0" />
	<path style="fill:none;stroke:red;stroke-width:1px;stroke-linecap:butt;stroke-linejoin:miter;stroke-opacity:1" d="M 356.669,128.471 371.757,113.384 z" id="boundary" inkscape:connector-curvature="0" />
	<path style="fill:none;stroke:red;stroke-width:1px;stroke-linecap:butt;stroke-linejoin:miter;stroke-opacity:1" d="M 447.194,19.0875 466.053,9.65779 z" id="boundary" inkscape:connector-curvature="0" />
	<path style="fill:none;stroke:red;stroke-width:1px;stroke-linecap:butt;stroke-linejoin:miter;stroke-opacity:1" d="M 437.764,37.9468 447.194,19.0875 z" id="boundary" inkscape:connector-curvature="0" />
	<path style="fill:none;stroke:red;stroke-width:1px;stroke-linecap:butt;stroke-linejoin:miter;stroke-opacity:1" d="M 428.335,66.2357 437.764,37.9468 z" id="boundary" inkscape:connector-curvature="0" />
	<path style="fill:none;stroke:red;stroke-width:1px;stroke-linecap:butt;stroke-linejoin:miter;stroke-opacity:1" d="M 428.335,66.2357 422.677,88.8669 z" id="boundary" inkscape:connector-curvature="0" />
	<path style="fill:none;stroke:red;stroke-width:1px;stroke-linecap:butt;stroke-linejoin:miter;stroke-opacity:1" d="M 422.677,88.8669 405.703,98.2966 z" id="boundary" inkscape:connector-curvature="0" />
	<path style="fill:none;stroke:red;stroke-width:1px;stroke-linecap:butt;stroke-linejoin:miter;stroke-opacity:1" d="M 475.483,505.658 456.624,505.658 z" id="boundary" inkscape:connector-curvature="0" />
	<path style="fill:none;stroke:red;stroke-width:1px;stroke-linecap:butt;stroke-linejoin:miter;stroke-opacity:1" d="M 211.452,145.445 230.312,145.445 z" id="boundary" inkscape:connector-curvature="0" />
	<path style="fill:none;stroke:red;stroke-width:1px;stroke-linecap:butt;stroke-linejoin:miter;stroke-opacity:1" d="M 192.593,151.103 211.452,145.445 z" id="boundary" inkscape:connector-curvature="0" />
	<path style="fill:none;stroke:red;stroke-width:1px;stroke-linecap:butt;stroke-linejoin:miter;stroke-opacity:1" d="M 173.734,154.875 192.593,151.103 z" id="boundary" inkscape:connector-curvature="0" />
	<path style="fill:none;stroke:red;stroke-width:1px;stroke-linecap:butt;stroke-linejoin:miter;stroke-opacity:1" d="M 173.734,154.875 154.875,154.875 z" id="boundary" inkscape:connector-curvature="0" />
	<path style="fill:none;stroke:red;stroke-width:1px;stroke-linecap:butt;stroke-linejoin:miter;stroke-opacity:1" d="M 230.312,145.445 249.171,145.445 z" id="boundary" inkscape:connector-curvature="0" />
	<path style="fill:none;stroke:red;stroke-width:1px;stroke-linecap:butt;stroke-linejoin:miter;stroke-opacity:1" d="M 266.144,136.015 249.171,145.445 z" id="boundary" inkscape:connector-curvature="0" />
	<path style="fill:none;stroke:red;stroke-width:1px;stroke-linecap:butt;stroke-linejoin:miter;stroke-opacity:1" d="M 356.669,128.471 337.81,136.015 z" id="boundary" inkscape:connector-curvature="0" />
	<path style="fill:none;stroke:red;stroke-width:1px;stroke-linecap:butt;stroke-linejoin:miter;stroke-opacity:1" d="M 337.81,136.015 320.837,126.586 z" id="boundary" inkscape:connector-curvature="0" />
	<path style="fill:none;stroke:red;stroke-width:1px;stroke-linecap:butt;stroke-linejoin:miter;stroke-opacity:1" d="M 266.144,136.015 285.004,136.015 z" id="boundary" inkscape:connector-curvature="0" />
	<path style="fill:none;stroke:red;stroke-width:1px;stroke-linecap:butt;stroke-linejoin:miter;stroke-opacity:1" d="M 301.977,126.586 285.004,136.015 z" id="boundary" inkscape:connector-curvature="0" />
	<path style="fill:none;stroke:red;stroke-width:1px;stroke-linecap:butt;stroke-linejoin:miter;stroke-opacity:1" d="M 51.1483,377.414 66.2357,362.327 z" id="boundary" inkscape:connector-curvature="0" />
	<path style="fill:none;stroke:red;stroke-width:1px;stroke-linecap:butt;stroke-linejoin:miter;stroke-opacity:1" d="M 85.0951,352.897 66.2357,362.327 z" id="boundary" inkscape:connector-curvature="0" />
	<path style="fill:none;stroke:red;stroke-width:1px;stroke-linecap:butt;stroke-linejoin:miter;stroke-opacity:1" d="M 41.7186,415.133 41.7186,396.274 z" id="boundary" inkscape:connector-curvature="0" />
	<path style="fill:none;stroke:red;stroke-width:1px;stroke-linecap:butt;stroke-linejoin:miter;stroke-opacity:1" d="M 41.7186,396.274 51.1483,377.414 z" id="boundary" inkscape:connector-curvature="0" />
	<path style="fill:none;stroke:red;stroke-width:1px;stroke-linecap:butt;stroke-linejoin:miter;stroke-opacity:1" d="M 90.7529,307.635 109.612,307.635 z" id="boundary" inkscape:connector-curvature="0" />
	<path style="fill:none;stroke:red;stroke-width:1px;stroke-linecap:butt;stroke-linejoin:miter;stroke-opacity:1" d="M 126.586,317.065 122.814,343.468 z" id="boundary" inkscape:connector-curvature="0" />
	<path style="fill:none;stroke:red;stroke-width:1px;stroke-linecap:butt;stroke-linejoin:miter;stroke-opacity:1" d="M 122.814,343.468 103.954,343.468 z" id="boundary" inkscape:connector-curvature="0" />
	<path style="fill:none;stroke:red;stroke-width:1px;stroke-linecap:butt;stroke-linejoin:miter;stroke-opacity:1" d="M 109.612,307.635 126.586,317.065 z" id="boundary" inkscape:connector-curvature="0" />
	<path style="fill:none;stroke:red;stroke-width:1px;stroke-linecap:butt;stroke-linejoin:miter;stroke-opacity:1" d="M 85.0951,352.897 103.954,343.468 z" id="boundary" inkscape:connector-curvature="0" />
	<path style="fill:none;stroke:red;stroke-width:1px;stroke-linecap:butt;stroke-linejoin:miter;stroke-opacity:1" d="M 41.7186,415.133 41.7186,433.992 z" id="boundary" inkscape:connector-curvature="0" />
	<path style="fill:none;stroke:red;stroke-width:1px;stroke-linecap:butt;stroke-linejoin:miter;stroke-opacity:1" d="M 41.7186,452.852 41.7186,471.711 z" id="boundary" inkscape:connector-curvature="0" />
	<path style="fill:none;stroke:red;stroke-width:1px;stroke-linecap:butt;stroke-linejoin:miter;stroke-opacity:1" d="M 41.7186,490.57 41.7186,471.711 z" id="boundary" inkscape:connector-curvature="0" />
	<path style="fill:none;stroke:red;stroke-width:1px;stroke-linecap:butt;stroke-linejoin:miter;stroke-opacity:1" d="M 51.1483,507.544 41.7186,490.57 z" id="boundary" inkscape:connector-curvature="0" />
	<path style="fill:none;stroke:red;stroke-width:1px;stroke-linecap:butt;stroke-linejoin:miter;stroke-opacity:1" d="M 41.7186,433.992 41.7186,452.852 z" id="boundary" inkscape:connector-curvature="0" />
	<path style="fill:none;stroke:red;stroke-width:1px;stroke-linecap:butt;stroke-linejoin:miter;stroke-opacity:1" d="M 60.5779,524.517 51.1483,507.544 z" id="boundary" inkscape:connector-curvature="0" />
	<path style="fill:none;stroke:red;stroke-width:1px;stroke-linecap:butt;stroke-linejoin:miter;stroke-opacity:1" d="M 90.7529,543.376 71.8935,539.605 z" id="boundary" inkscape:connector-curvature="0" />
	<path style="fill:none;stroke:red;stroke-width:1px;stroke-linecap:butt;stroke-linejoin:miter;stroke-opacity:1" d="M 71.8935,539.605 60.5779,524.517 z" id="boundary" inkscape:connector-curvature="0" />
	<path style="fill:none;stroke:red;stroke-width:1px;stroke-linecap:butt;stroke-linejoin:miter;stroke-opacity:1" d="M 109.612,533.947 90.7529,543.376 z" id="boundary" inkscape:connector-curvature="0" />
	<path style="fill:none;stroke:red;stroke-width:1px;stroke-linecap:butt;stroke-linejoin:miter;stroke-opacity:1" d="M 126.586,524.517 109.612,533.947 z" id="boundary" inkscape:connector-curvature="0" />
	<path style="fill:none;stroke:red;stroke-width:1px;stroke-linecap:butt;stroke-linejoin:miter;stroke-opacity:1" d="M 268.03,505.658 286.89,505.658 z" id="boundary" inkscape:connector-curvature="0" />
	<path style="fill:none;stroke:red;stroke-width:1px;stroke-linecap:butt;stroke-linejoin:miter;stroke-opacity:1" d="M 251.057,515.087 268.03,505.658 z" id="boundary" inkscape:connector-curvature="0" />
	<path style="fill:none;stroke:red;stroke-width:1px;stroke-linecap:butt;stroke-linejoin:miter;stroke-opacity:1" d="M 305.749,505.658 324.608,505.658 z" id="boundary" inkscape:connector-curvature="0" />
	<path style="fill:none;stroke:red;stroke-width:1px;stroke-linecap:butt;stroke-linejoin:miter;stroke-opacity:1" d="M 305.749,505.658 286.89,505.658 z" id="boundary" inkscape:connector-curvature="0" />
	<path style="fill:none;stroke:red;stroke-width:1px;stroke-linecap:butt;stroke-linejoin:miter;stroke-opacity:1" d="M 343.468,505.658 362.327,505.658 z" id="boundary" inkscape:connector-curvature="0" />
	<path style="fill:none;stroke:red;stroke-width:1px;stroke-linecap:butt;stroke-linejoin:miter;stroke-opacity:1" d="M 343.468,505.658 324.608,505.658 z" id="boundary" inkscape:connector-curvature="0" />
	<path style="fill:none;stroke:red;stroke-width:1px;stroke-linecap:butt;stroke-linejoin:miter;stroke-opacity:1" d="M 362.327,505.658 381.186,505.658 z" id="boundary" inkscape:connector-curvature="0" />
	<path style="fill:none;stroke:red;stroke-width:1px;stroke-linecap:butt;stroke-linejoin:miter;stroke-opacity:1" d="M 400.046,505.658 381.186,505.658 z" id="boundary" inkscape:connector-curvature="0" />
	<path style="fill:none;stroke:red;stroke-width:1px;stroke-linecap:butt;stroke-linejoin:miter;stroke-opacity:1" d="M 126.586,524.517 143.559,533.947 z" id="boundary" inkscape:connector-curvature="0" />
	<path style="fill:none;stroke:red;stroke-width:1px;stroke-linecap:butt;stroke-linejoin:miter;stroke-opacity:1" d="M 160.532,543.376 143.559,533.947 z" id="boundary" inkscape:connector-curvature="0" />
	<path style="fill:none;stroke:red;stroke-width:1px;stroke-linecap:butt;stroke-linejoin:miter;stroke-opacity:1" d="M 196.365,552.806 177.506,552.806 z" id="boundary" inkscape:connector-curvature="0" />
	<path style="fill:none;stroke:red;stroke-width:1px;stroke-linecap:butt;stroke-linejoin:miter;stroke-opacity:1" d="M 177.506,552.806 160.532,543.376 z" id="boundary" inkscape:connector-curvature="0" />
	<path style="fill:none;stroke:red;stroke-width:1px;stroke-linecap:butt;stroke-linejoin:miter;stroke-opacity:1" d="M 213.338,543.376 196.365,552.806 z" id="boundary" inkscape:connector-curvature="0" />
	<path style="fill:none;stroke:red;stroke-width:1px;stroke-linecap:butt;stroke-linejoin:miter;stroke-opacity:1" d="M 418.905,505.658 437.764,505.658 z" id="boundary" inkscape:connector-curvature="0" />
	<path style="fill:none;stroke:red;stroke-width:1px;stroke-linecap:butt;stroke-linejoin:miter;stroke-opacity:1" d="M 251.057,515.087 232.198,533.947 z" id="boundary" inkscape:connector-curvature="0" />
	<path style="fill:none;stroke:red;stroke-width:1px;stroke-linecap:butt;stroke-linejoin:miter;stroke-opacity:1" d="M 232.198,533.947 213.338,543.376 z" id="boundary" inkscape:connector-curvature="0" />
	<path style="fill:none;stroke:red;stroke-width:1px;stroke-linecap:butt;stroke-linejoin:miter;stroke-opacity:1" d="M 400.046,505.658 418.905,505.658 z" id="boundary" inkscape:connector-curvature="0" />
	<path style="fill:none;stroke:red;stroke-width:1px;stroke-linecap:butt;stroke-linejoin:miter;stroke-opacity:1" d="M 437.764,505.658 456.624,505.658 z" id="boundary" inkscape:connector-curvature="0" />
	<path style="fill:none;stroke:red;stroke-width:1px;stroke-linecap:butt;stroke-linejoin:miter;stroke-opacity:1" d="M 466.053,9.65779 484.913,4 z" id="boundary" inkscape:connector-curvature="0" />
	<path style="fill:none;stroke:red;stroke-width:1px;stroke-linecap:butt;stroke-linejoin:miter;stroke-opacity:1" d="M 503.772,4 522.631,4 z" id="boundary" inkscape:connector-curvature="0" />
	<path style="fill:none;stroke:red;stroke-width:1px;stroke-linecap:butt;stroke-linejoin:miter;stroke-opacity:1" d="M 541.49,4 560.35,4 z" id="boundary" inkscape:connector-curvature="0" />
	<path style="fill:none;stroke:red;stroke-width:1px;stroke-linecap:butt;stroke-linejoin:miter;stroke-opacity:1" d="M 522.631,4 541.49,4 z" id="boundary" inkscape:connector-curvature="0" />
	<path style="fill:none;stroke:red;stroke-width:1px;stroke-linecap:butt;stroke-linejoin:miter;stroke-opacity:1" d="M 598.068,4 616.928,4 z" id="boundary" inkscape:connector-curvature="0" />
	<path style="fill:none;stroke:red;stroke-width:1px;stroke-linecap:butt;stroke-linejoin:miter;stroke-opacity:1" d="M 616.928,4 635.787,4 z" id="boundary" inkscape:connector-curvature="0" />
	<path style="fill:none;stroke:red;stroke-width:1px;stroke-linecap:butt;stroke-linejoin:miter;stroke-opacity:1" d="M 579.209,4 598.068,4 z" id="boundary" inkscape:connector-curvature="0" />
	<path style="fill:none;stroke:red;stroke-width:1px;stroke-linecap:butt;stroke-linejoin:miter;stroke-opacity:1" d="M 560.35,4 579.209,4 z" id="boundary" inkscape:connector-curvature="0" />
	<path style="fill:none;stroke:red;stroke-width:1px;stroke-linecap:butt;stroke-linejoin:miter;stroke-opacity:1" d="M 671.62,13.4297 688.593,22.8593 z" id="boundary" inkscape:connector-curvature="0" />
	<path style="fill:none;stroke:red;stroke-width:1px;stroke-linecap:butt;stroke-linejoin:miter;stroke-opacity:1" d="M 671.62,13.4297 654.646,4 z" id="boundary" inkscape:connector-curvature="0" />
	<path style="fill:none;stroke:red;stroke-width:1px;stroke-linecap:butt;stroke-linejoin:miter;stroke-opacity:1" d="M 688.593,22.8593 707.452,22.8593 z" id="boundary" inkscape:connector-curvature="0" />
	<path style="fill:none;stroke:red;stroke-width:1px;stroke-linecap:butt;stroke-linejoin:miter;stroke-opacity:1" d="M 707.452,22.8593 724.426,32.289 z" id="boundary" inkscape:connector-curvature="0" />
	<path style="fill:none;stroke:red;stroke-width:1px;stroke-linecap:butt;stroke-linejoin:miter;stroke-opacity:1" d="M 747.057,64.3498 750.829,83.2091 z" id="boundary" inkscape:connector-curvature="0" />
	<path style="fill:none;stroke:red;stroke-width:1px;stroke-linecap:butt;stroke-linejoin:miter;stroke-opacity:1" d="M 747.057,64.3498 739.513,45.4905 z" id="boundary" inkscape:connector-curvature="0" />
	<path style="fill:none;stroke:red;stroke-width:1px;stroke-linecap:butt;stroke-linejoin:miter;stroke-opacity:1" d="M 750.829,83.2091 750.829,102.068 z" id="boundary" inkscape:connector-curvature="0" />
	<path style="fill:none;stroke:red;stroke-width:1px;stroke-linecap:butt;stroke-linejoin:miter;stroke-opacity:1" d="M 750.829,120.928 750.829,102.068 z" id="boundary" inkscape:connector-curvature="0" />
	<path style="fill:none;stroke:red;stroke-width:1px;stroke-linecap:butt;stroke-linejoin:miter;stroke-opacity:1" d="M 760.259,137.901 750.829,120.928 z" id="boundary" inkscape:connector-curvature="0" />
	<path style="fill:none;stroke:red;stroke-width:1px;stroke-linecap:butt;stroke-linejoin:miter;stroke-opacity:1" d="M 724.426,32.289 739.513,45.4905 z" id="boundary" inkscape:connector-curvature="0" />
	<path style="fill:none;stroke:red;stroke-width:1px;stroke-linecap:butt;stroke-linejoin:miter;stroke-opacity:1" d="M 635.787,4 654.646,4 z" id="boundary" inkscape:connector-curvature="0" />
	<path style="fill:none;stroke:red;stroke-width:1px;stroke-linecap:butt;stroke-linejoin:miter;stroke-opacity:1" d="M 760.259,137.901 769.688,154.875 z" id="boundary" inkscape:connector-curvature="0" />
	<path style="fill:none;stroke:red;stroke-width:1px;stroke-linecap:butt;stroke-linejoin:miter;stroke-opacity:1" d="M 779.118,171.848 797.977,179.392 z" id="boundary" inkscape:connector-curvature="0" />
	<path style="fill:none;stroke:red;stroke-width:1px;stroke-linecap:butt;stroke-linejoin:miter;stroke-opacity:1" d="M 779.118,171.848 769.688,154.875 z" id="boundary" inkscape:connector-curvature="0" />
	<path style="fill:none;stroke:red;stroke-width:1px;stroke-linecap:butt;stroke-linejoin:miter;stroke-opacity:1" d="M 826.266,203.909 814.951,188.821 z" id="boundary" inkscape:connector-curvature="0" />
	<path style="fill:none;stroke:red;stroke-width:1px;stroke-linecap:butt;stroke-linejoin:miter;stroke-opacity:1" d="M 845.125,256.715 835.696,239.741 z" id="boundary" inkscape:connector-curvature="0" />
	<path style="fill:none;stroke:red;stroke-width:1px;stroke-linecap:butt;stroke-linejoin:miter;stroke-opacity:1" d="M 835.696,239.741 835.696,220.882 z" id="boundary" inkscape:connector-curvature="0" />
	<path style="fill:none;stroke:red;stroke-width:1px;stroke-linecap:butt;stroke-linejoin:miter;stroke-opacity:1" d="M 860.213,268.03 845.125,256.715 z" id="boundary" inkscape:connector-curvature="0" />
	<path style="fill:none;stroke:red;stroke-width:1px;stroke-linecap:butt;stroke-linejoin:miter;stroke-opacity:1" d="M 826.266,203.909 835.696,220.882 z" id="boundary" inkscape:connector-curvature="0" />
	<path style="fill:none;stroke:red;stroke-width:1px;stroke-linecap:butt;stroke-linejoin:miter;stroke-opacity:1" d="M 797.977,179.392 814.951,188.821 z" id="boundary" inkscape:connector-curvature="0" />
	<path style="fill:none;stroke:red;stroke-width:1px;stroke-linecap:butt;stroke-linejoin:miter;stroke-opacity:1" d="M 860.213,268.03 877.186,277.46 z" id="boundary" inkscape:connector-curvature="0" />
	<path style="fill:none;stroke:red;stroke-width:1px;stroke-linecap:butt;stroke-linejoin:miter;stroke-opacity:1" d="M 928.106,305.749 909.247,300.091 z" id="boundary" inkscape:connector-curvature="0" />
	<path style="fill:none;stroke:red;stroke-width:1px;stroke-linecap:butt;stroke-linejoin:miter;stroke-opacity:1" d="M 909.247,300.091 894.16,286.89 z" id="boundary" inkscape:connector-curvature="0" />
	<path style="fill:none;stroke:red;stroke-width:1px;stroke-linecap:butt;stroke-linejoin:miter;stroke-opacity:1" d="M 946.966,305.749 928.106,305.749 z" id="boundary" inkscape:connector-curvature="0" />
	<path style="fill:none;stroke:red;stroke-width:1px;stroke-linecap:butt;stroke-linejoin:miter;stroke-opacity:1" d="M 877.186,277.46 894.16,286.89 z" id="boundary" inkscape:connector-curvature="0" />
	<path style="fill:none;stroke:red;stroke-width:1px;stroke-linecap:butt;stroke-linejoin:miter;stroke-opacity:1" d="M 946.966,305.749 965.825,309.521 z" id="boundary" inkscape:connector-curvature="0" />
	<path style="fill:none;stroke:red;stroke-width:1px;stroke-linecap:butt;stroke-linejoin:miter;stroke-opacity:1" d="M 965.825,309.521 982.798,318.951 z" id="boundary" inkscape:connector-curvature="0" />
	<path style="fill:none;stroke:red;stroke-width:1px;stroke-linecap:butt;stroke-linejoin:miter;stroke-opacity:1" d="M 982.798,318.951 992.228,335.924 z" id="boundary" inkscape:connector-curvature="0" />
	<path style="fill:none;stroke:red;stroke-width:1px;stroke-linecap:butt;stroke-linejoin:miter;stroke-opacity:1" d="M 992.228,335.924 996,354.783 z" id="boundary" inkscape:connector-curvature="0" />
	<path style="fill:none;stroke:red;stroke-width:1px;stroke-linecap:butt;stroke-linejoin:miter;stroke-opacity:1" d="M 996,354.783 986.57,373.643 z" id="boundary" inkscape:connector-curvature="0" />
	<path style="fill:none;stroke:red;stroke-width:1px;stroke-linecap:butt;stroke-linejoin:miter;stroke-opacity:1" d="M 645.217,496.228 626.357,496.228 z" id="boundary" inkscape:connector-curvature="0" />
	<path style="fill:none;stroke:red;stroke-width:1px;stroke-linecap:butt;stroke-linejoin:miter;stroke-opacity:1" d="M 645.217,496.228 664.076,496.228 z" id="boundary" inkscape:connector-curvature="0" />
	<path style="fill:none;stroke:red;stroke-width:1px;stroke-linecap:butt;stroke-linejoin:miter;stroke-opacity:1" d="M 681.049,486.798 664.076,496.228 z" id="boundary" inkscape:connector-curvature="0" />
	<path style="fill:none;stroke:red;stroke-width:1px;stroke-linecap:butt;stroke-linejoin:miter;stroke-opacity:1" d="M 681.049,486.798 699.909,486.798 z" id="boundary" inkscape:connector-curvature="0" />
	<path style="fill:none;stroke:red;stroke-width:1px;stroke-linecap:butt;stroke-linejoin:miter;stroke-opacity:1" d="M 699.909,486.798 718.768,486.798 z" id="boundary" inkscape:connector-curvature="0" />
	<path style="fill:none;stroke:red;stroke-width:1px;stroke-linecap:butt;stroke-linejoin:miter;stroke-opacity:1" d="M 737.627,486.798 756.487,486.798 z" id="boundary" inkscape:connector-curvature="0" />
	<path style="fill:none;stroke:red;stroke-width:1px;stroke-linecap:butt;stroke-linejoin:miter;stroke-opacity:1" d="M 773.46,496.228 756.487,486.798 z" id="boundary" inkscape:connector-curvature="0" />
	<path style="fill:none;stroke:red;stroke-width:1px;stroke-linecap:butt;stroke-linejoin:miter;stroke-opacity:1" d="M 718.768,486.798 737.627,486.798 z" id="boundary" inkscape:connector-curvature="0" />
	<path style="fill:none;stroke:red;stroke-width:1px;stroke-linecap:butt;stroke-linejoin:miter;stroke-opacity:1" d="M 475.483,505.658 494.342,505.658 z" id="boundary" inkscape:connector-curvature="0" />
	<path style="fill:none;stroke:red;stroke-width:1px;stroke-linecap:butt;stroke-linejoin:miter;stroke-opacity:1" d="M 494.342,505.658 511.316,515.087 z" id="boundary" inkscape:connector-curvature="0" />
	<path style="fill:none;stroke:red;stroke-width:1px;stroke-linecap:butt;stroke-linejoin:miter;stroke-opacity:1" d="M 522.631,530.175 532.061,547.148 z" id="boundary" inkscape:connector-curvature="0" />
	<path style="fill:none;stroke:red;stroke-width:1px;stroke-linecap:butt;stroke-linejoin:miter;stroke-opacity:1" d="M 522.631,530.175 511.316,515.087 z" id="boundary" inkscape:connector-curvature="0" />
	<path style="fill:none;stroke:red;stroke-width:1px;stroke-linecap:butt;stroke-linejoin:miter;stroke-opacity:1" d="M 532.061,547.148 547.148,560.35 z" id="boundary" inkscape:connector-curvature="0" />
	<path style="fill:none;stroke:red;stroke-width:1px;stroke-linecap:butt;stroke-linejoin:miter;stroke-opacity:1" d="M 598.068,528.289 609.384,505.658 z" id="boundary" inkscape:connector-curvature="0" />
	<path style="fill:none;stroke:red;stroke-width:1px;stroke-linecap:butt;stroke-linejoin:miter;stroke-opacity:1" d="M 609.384,505.658 626.357,496.228 z" id="boundary" inkscape:connector-curvature="0" />
	<path style="fill:none;stroke:red;stroke-width:1px;stroke-linecap:butt;stroke-linejoin:miter;stroke-opacity:1" d="M 598.068,528.289 582.981,543.376 z" id="boundary" inkscape:connector-curvature="0" />
	<path style="fill:none;stroke:red;stroke-width:1px;stroke-linecap:butt;stroke-linejoin:miter;stroke-opacity:1" d="M 566.008,552.806 547.148,560.35 z" id="boundary" inkscape:connector-curvature="0" />
	<path style="fill:none;stroke:red;stroke-width:1px;stroke-linecap:butt;stroke-linejoin:miter;stroke-opacity:1" d="M 582.981,543.376 566.008,552.806 z" id="boundary" inkscape:connector-curvature="0" />
	<path style="fill:none;stroke:red;stroke-width:1px;stroke-linecap:butt;stroke-linejoin:miter;stroke-opacity:1" d="M 773.46,496.228 777.232,515.087 z" id="boundary" inkscape:connector-curvature="0" />
	<path style="fill:none;stroke:red;stroke-width:1px;stroke-linecap:butt;stroke-linejoin:miter;stroke-opacity:1" d="M 920.563,430.221 920.563,449.08 z" id="boundary" inkscape:connector-curvature="0" />
	<path style="fill:none;stroke:red;stroke-width:1px;stroke-linecap:butt;stroke-linejoin:miter;stroke-opacity:1" d="M 920.563,430.221 920.563,411.361 z" id="boundary" inkscape:connector-curvature="0" />
	<path style="fill:none;stroke:red;stroke-width:1px;stroke-linecap:butt;stroke-linejoin:miter;stroke-opacity:1" d="M 920.563,411.361 939.422,411.361 z" id="boundary" inkscape:connector-curvature="0" />
	<path style="fill:none;stroke:red;stroke-width:1px;stroke-linecap:butt;stroke-linejoin:miter;stroke-opacity:1" d="M 920.563,467.939 920.563,486.798 z" id="boundary" inkscape:connector-curvature="0" />
	<path style="fill:none;stroke:red;stroke-width:1px;stroke-linecap:butt;stroke-linejoin:miter;stroke-opacity:1" d="M 920.563,467.939 920.563,449.08 z" id="boundary" inkscape:connector-curvature="0" />
	<path style="fill:none;stroke:red;stroke-width:1px;stroke-linecap:butt;stroke-linejoin:miter;stroke-opacity:1" d="M 986.57,373.643 977.141,392.502 z" id="boundary" inkscape:connector-curvature="0" />
	<path style="fill:none;stroke:red;stroke-width:1px;stroke-linecap:butt;stroke-linejoin:miter;stroke-opacity:1" d="M 977.141,392.502 958.281,401.932 z" id="boundary" inkscape:connector-curvature="0" />
	<path style="fill:none;stroke:red;stroke-width:1px;stroke-linecap:butt;stroke-linejoin:miter;stroke-opacity:1" d="M 939.422,411.361 958.281,401.932 z" id="boundary" inkscape:connector-curvature="0" />
	<path style="fill:none;stroke:red;stroke-width:1px;stroke-linecap:butt;stroke-linejoin:miter;stroke-opacity:1" d="M 911.133,515.087 920.563,486.798 z" id="boundary" inkscape:connector-curvature="0" />
	<path style="fill:none;stroke:red;stroke-width:1px;stroke-linecap:butt;stroke-linejoin:miter;stroke-opacity:1" d="M 777.232,515.087 782.89,533.947 z" id="boundary" inkscape:connector-curvature="0" />
	<path style="fill:none;stroke:red;stroke-width:1px;stroke-linecap:butt;stroke-linejoin:miter;stroke-opacity:1" d="M 797.977,547.148 782.89,533.947 z" id="boundary" inkscape:connector-curvature="0" />
	<path style="fill:none;stroke:red;stroke-width:1px;stroke-linecap:butt;stroke-linejoin:miter;stroke-opacity:1" d="M 814.951,556.578 797.977,547.148 z" id="boundary" inkscape:connector-curvature="0" />
	<path style="fill:none;stroke:red;stroke-width:1px;stroke-linecap:butt;stroke-linejoin:miter;stroke-opacity:1" d="M 833.81,562.236 814.951,556.578 z" id="boundary" inkscape:connector-curvature="0" />
	<path style="fill:none;stroke:red;stroke-width:1px;stroke-linecap:butt;stroke-linejoin:miter;stroke-opacity:1" d="M 903.589,533.947 911.133,515.087 z" id="boundary" inkscape:connector-curvature="0" />
	<path style="fill:none;stroke:red;stroke-width:1px;stroke-linecap:butt;stroke-linejoin:miter;stroke-opacity:1" d="M 903.589,533.947 886.616,543.376 z" id="boundary" inkscape:connector-curvature="0" />
	<path style="fill:none;stroke:red;stroke-width:1px;stroke-linecap:butt;stroke-linejoin:miter;stroke-opacity:1" d="M 852.669,562.236 833.81,562.236 z" id="boundary" inkscape:connector-curvature="0" />
	<path style="fill:none;stroke:red;stroke-width:1px;stroke-linecap:butt;stroke-linejoin:miter;stroke-opacity:1" d="M 869.643,552.806 852.669,562.236 z" id="boundary" inkscape:connector-curvature="0" />
	<path style="fill:none;stroke:red;stroke-width:1px;stroke-linecap:butt;stroke-linejoin:miter;stroke-opacity:1" d="M 886.616,543.376 869.643,552.806 z" id="boundary" inkscape:connector-curvature="0" />
	<path style="fill:none;stroke:red;stroke-width:1px;stroke-linecap:butt;stroke-linejoin:miter;stroke-opacity:1" d="M 484.913,4 503.772,4 z" id="boundary" inkscape:connector-curvature="0" />
	<circle cx="4" cy="207.681" r="4" fill="#0" id="circle0"/>
	<circle cx="4" cy="226.54" r="4" fill="#0" id="circle1"/>
	<circle cx="4" cy="245.399" r="4" fill="#0" id="circle2"/>
	<circle cx="4" cy="264.259" r="4" fill="#0" id="circle3"/>
	<circle cx="4" cy="283.118" r="4" fill="#0" id="circle4"/>
	<circle cx="13.4297" cy="188.821" r="4" fill="#0" id="circle5"/>
	<circle cx="19.0875" cy="296.319" r="4" fill="#0" id="circle6"/>
	<circle cx="22.8593" cy="169.962" r="4" fill="#0" id="circle7"/>
	<circle cx="34.1749" cy="307.635" r="4" fill="#0" id="circle8"/>
	<circle cx="41.7186" cy="160.532" r="4" fill="#0" id="circle9"/>
	<circle cx="41.7186" cy="396.274" r="4" fill="#0" id="circle10"/>
	<circle cx="41.7186" cy="415.133" r="4" fill="#0" id="circle11"/>
	<circle cx="41.7186" cy="433.992" r="4" fill="#0" id="circle12"/>
	<circle cx="41.7186" cy="452.852" r="4" fill="#0" id="circle13"/>
	<circle cx="41.7186" cy="471.711" r="4" fill="#0" id="circle14"/>
	<circle cx="41.7186" cy="490.57" r="4" fill="#0" id="circle15"/>
	<circle cx="51.1483" cy="377.414" r="4" fill="#0" id="circle16"/>
	<circle cx="51.1483" cy="507.544" r="4" fill="#0" id="circle17"/>
	<circle cx="53.0342" cy="307.635" r="4" fill="#0" id="circle18"/>
	<circle cx="60.5779" cy="154.875" r="4" fill="#0" id="circle19"/>
	<circle cx="60.5779" cy="524.517" r="4" fill="#0" id="circle20"/>
	<circle cx="66.2357" cy="362.327" r="4" fill="#0" id="circle21"/>
	<circle cx="71.8935" cy="307.635" r="4" fill="#0" id="circle22"/>
	<circle cx="71.8935" cy="539.605" r="4" fill="#0" id="circle23"/>
	<circle cx="79.4373" cy="154.875" r="4" fill="#0" id="circle24"/>
	<circle cx="85.0951" cy="352.897" r="4" fill="#0" id="circle25"/>
	<circle cx="90.7529" cy="307.635" r="4" fill="#0" id="circle26"/>
	<circle cx="90.7529" cy="543.376" r="4" fill="#0" id="circle27"/>
	<circle cx="98.2966" cy="154.875" r="4" fill="#0" id="circle28"/>
	<circle cx="103.954" cy="343.468" r="4" fill="#0" id="circle29"/>
	<circle cx="109.612" cy="307.635" r="4" fill="#0" id="circle30"/>
	<circle cx="109.612" cy="533.947" r="4" fill="#0" id="circle31"/>
	<circle cx="117.156" cy="154.875" r="4" fill="#0" id="circle32"/>
	<circle cx="122.814" cy="343.468" r="4" fill="#0" id="circle33"/>
	<circle cx="126.586" cy="317.065" r="4" fill="#0" id="circle34"/>
	<circle cx="126.586" cy="524.517" r="4" fill="#0" id="circle35"/>
	<circle cx="136.015" cy="154.875" r="4" fill="#0" id="circle36"/>
	<circle cx="143.559" cy="533.947" r="4" fill="#0" id="circle37"/>
	<circle cx="154.875" cy="154.875" r="4" fill="#0" id="circle38"/>
	<circle cx="160.532" cy="543.376" r="4" fill="#0" id="circle39"/>
	<circle cx="173.734" cy="154.875" r="4" fill="#0" id="circle40"/>
	<circle cx="177.506" cy="552.806" r="4" fill="#0" id="circle41"/>
	<circle cx="192.593" cy="151.103" r="4" fill="#0" id="circle42"/>
	<circle cx="196.365" cy="552.806" r="4" fill="#0" id="circle43"/>
	<circle cx="211.452" cy="145.445" r="4" fill="#0" id="circle44"/>
	<circle cx="213.338" cy="543.376" r="4" fill="#0" id="circle45"/>
	<circle cx="230.312" cy="145.445" r="4" fill="#0" id="circle46"/>
	<circle cx="232.198" cy="533.947" r="4" fill="#0" id="circle47"/>
	<circle cx="249.171" cy="145.445" r="4" fill="#0" id="circle48"/>
	<circle cx="251.057" cy="515.087" r="4" fill="#0" id="circle49"/>
	<circle cx="266.144" cy="136.015" r="4" fill="#0" id="circle50"/>
	<circle cx="268.03" cy="505.658" r="4" fill="#0" id="circle51"/>
	<circle cx="285.004" cy="136.015" r="4" fill="#0" id="circle52"/>
	<circle cx="286.89" cy="505.658" r="4" fill="#0" id="circle53"/>
	<circle cx="301.977" cy="126.586" r="4" fill="#0" id="circle54"/>
	<circle cx="305.749" cy="505.658" r="4" fill="#0" id="circle55"/>
	<circle cx="320.837" cy="126.586" r="4" fill="#0" id="circle56"/>
	<circle cx="324.608" cy="505.658" r="4" fill="#0" id="circle57"/>
	<circle cx="337.81" cy="136.015" r="4" fill="#0" id="circle58"/>
	<circle cx="343.468" cy="505.658" r="4" fill="#0" id="circle59"/>
	<circle cx="356.669" cy="128.471" r="4" fill="#0" id="circle60"/>
	<circle cx="362.327" cy="505.658" r="4" fill="#0" id="circle61"/>
	<circle cx="371.757" cy="113.384" r="4" fill="#0" id="circle62"/>
	<circle cx="381.186" cy="505.658" r="4" fill="#0" id="circle63"/>
	<circle cx="386.844" cy="98.2966" r="4" fill="#0" id="circle64"/>
	<circle cx="400.046" cy="505.658" r="4" fill="#0" id="circle65"/>
	<circle cx="405.703" cy="98.2966" r="4" fill="#0" id="circle66"/>
	<circle cx="418.905" cy="505.658" r="4" fill="#0" id="circle67"/>
	<circle cx="422.677" cy="88.8669" r="4" fill="#0" id="circle68"/>
	<circle cx="428.335" cy="66.2357" r="4" fill="#0" id="circle69"/>
	<circle cx="437.764" cy="37.9468" r="4" fill="#0" id="circle70"/>
	<circle cx="437.764" cy="505.658" r="4" fill="#0" id="circle71"/>
	<circle cx="447.194" cy="19.0875" r="4" fill="#0" id="circle72"/>
	<circle cx="456.624" cy="505.658" r="4" fill="#0" id="circle73"/>
	<circle cx="466.053" cy="9.65779" r="4" fill="#0" id="circle74"/>
	<circle cx="475.483" cy="505.658" r="4" fill="#0" id="circle75"/>
	<circle cx="484.913" cy="4" r="4" fill="#0" id="circle76"/>
	<circle cx="494.342" cy="505.658" r="4" fill="#0" id="circle77"/>
	<circle cx="503.772" cy="4" r="4" fill="#0" id="circle78"/>
	<circle cx="511.316" cy="515.087" r="4" fill="#0" id="circle79"/>
	<circle cx="522.631" cy="4" r="4" fill="#0" id="circle80"/>
	<circle cx="522.631" cy="530.175" r="4" fill="#0" id="circle81"/>
	<circle cx="532.061" cy="547.148" r="4" fill="#0" id="circle82"/>
	<circle cx="541.49" cy="4" r="4" fill="#0" id="circle83"/>
	<circle cx="547.148" cy="560.35" r="4" fill="#0" id="circle84"/>
	<circle cx="560.35" cy="4" r="4" fill="#0" id="circle85"/>
	<circle cx="566.008" cy="552.806" r="4" fill="#0" id="circle86"/>
	<circle cx="579.209" cy="4" r="4" fill="#0" id="circle87"/>
	<circle cx="582.981" cy="543.376" r="4" fill="#0" id="circle88"/>
	<circle cx="598.068" cy="4" r="4" fill="#0" id="circle89"/>
	<circle cx="598.068" cy="528.289" r="4" fill="#0" id="circle90"/>
	<circle cx="609.384" cy="505.658" r="4" fill="#0" id="circle91"/>
	<circle cx="616.928" cy="4" r="4" fill="#0" id="circle92"/>
	<circle cx="626.357" cy="496.228" r="4" fill="#0" id="circle93"/>
	<circle cx="635.787" cy="4" r="4" fill="#0" id="circle94"/>
	<circle cx="645.217" cy="496.228" r="4" fill="#0" id="circle95"/>
	<circle cx="654.646" cy="4" r="4" fill="#0" id="circle96"/>
	<circle cx="664.076" cy="496.228" r="4" fill="#0" id="circle97"/>
	<circle cx="671.62" cy="13.4297" r="4" fill="#0" id="circle98"/>
	<circle cx="681.049" cy="486.798" r="4" fill="#0" id="circle99"/>
	<circle cx="688.593" cy="22.8593" r="4" fill="#0" id="circle100"/>
	<circle cx="699.909" cy="486.798" r="4" fill="#0" id="circle101"/>
	<circle cx="707.452" cy="22.8593" r="4" fill="#0" id="circle102"/>
	<circle cx="718.768" cy="486.798" r="4" fill="#0" id="circle103"/>
	<circle cx="724.426" cy="32.289" r="4" fill="#0" id="circle104"/>
	<circle cx="737.627" cy="486.798" r="4" fill="#0" id="circle105"/>
	<circle cx="739.513" cy="45.4905" r="4" fill="#0" id="circle106"/>
	<circle cx="747.057" cy="64.3498" r="4" fill="#0" id="circle107"/>
	<circle cx="750.829" cy="83.2091" r="4" fill="#0" id="circle108"/>
	<circle cx="750.829" cy="102.068" r="4" fill="#0" id="circle109"/>
	<circle cx="750.829" cy="120.928" r="4" fill="#0" id="circle110"/>
	<circle cx="756.487" cy="486.798" r="4" fill="#0" id="circle111"/>
	<circle cx="760.259" cy="137.901" r="4" fill="#0" id="circle112"/>
	<circle cx="769.688" cy="154.875" r="4" fill="#0" id="circle113"/>
	<circle cx="773.46" cy="496.228" r="4" fill="#0" id="circle114"/>
	<circle cx="777.232" cy="515.087" r="4" fill="#0" id="circle115"/>
	<circle cx="779.118" cy="171.848" r="4" fill="#0" id="circle116"/>
	<circle cx="782.89" cy="533.947" r="4" fill="#0" id="circle117"/>
	<circle cx="797.977" cy="179.392" r="4" fill="#0" id="circle118"/>
	<circle cx="797.977" cy="547.148" r="4" fill="#0" id="circle119"/>
	<circle cx="814.951" cy="188.821" r="4" fill="#0" id="circle120"/>
	<circle cx="814.951" cy="556.578" r="4" fill="#0" id="circle121"/>
	<circle cx="826.266" cy="203.909" r="4" fill="#0" id="circle122"/>
	<circle cx="833.81" cy="562.236" r="4" fill="#0" id="circle123"/>
	<circle cx="835.696" cy="220.882" r="4" fill="#0" id="circle124"/>
	<circle cx="835.696" cy="239.741" r="4" fill="#0" id="circle125"/>
	<circle cx="845.125" cy="256.715" r="4" fill="#0" id="circle126"/>
	<circle cx="852.669" cy="562.236" r="4" fill="#0" id="circle127"/>
	<circle cx="860.213" cy="268.03" r="4" fill="#0" id="circle128"/>
	<circle cx="869.643" cy="552.806" r="4" fill="#0" id="circle129"/>
	<circle cx="877.186" cy="277.46" r="4" fill="#0" id="circle130"/>
	<circle cx="886.616" cy="543.376" r="4" fill="#0" id="circle131"/>
	<circle cx="894.16" cy="286.89" r="4" fill="#0" id="circle132"/>
	<circle cx="903.589" cy="533.947" r="4" fill="#0" id="circle133"/>
	<circle cx="909.247" cy="300.091" r="4" fill="#0" id="circle134"/>
	<circle cx="911.133" cy="515.087" r="4" fill="#0" id="circle135"/>
	<circle cx="920.563" cy="411.361" r="4" fill="#0" id="circle136"/>
	<circle cx="920.563" cy="430.221" r="4" fill="#0" id="circle137"/>
	<circle cx="920.563" cy="449.08" r="4" fill="#0" id="circle138"/>
	<circle cx="920.563" cy="467.939" r="4" fill="#0" id="circle139"/>
	<circle cx="920.563" cy="486.798" r="4" fill="#0" id="circle140"/>
	<circle cx="928.106" cy="305.749" r="4" fill="#0" id="circle141"/>
	<circle cx="939.422" cy="411.361" r="4" fill="#0" id="circle142"/>
	<circle cx="946.966" cy="305.749" r="4" fill="#0" id="circle143"/>
	<circle cx="958.281" cy="401.932" r="4" fill="#0" id="circle144"/>
	<circle cx="965.825" cy="309.521" r="4" fill="#0" id="circle145"/>
	<circle cx="977.141" cy="392.502" r="4" fill="#0" id="circle146"/>
	<circle cx="982.798" cy="318.951" r="4" fill="#0" id="circle147"/>
	<circle cx="986.57" cy="373.643" r="4" fill="#0" id="circle148"/>
	<circle cx="992.228" cy="335.924" r="4" fill="#0" id="circle149"/>
	<circle cx="996" cy="354.783" r="4" fill="#0" id="circle150"/>
	</g>
</svg>