<?xml version="1.0" encoding="UTF-8" standalone="no"?>
<!-- Created with CurveBenchmark -->
<svg
	xmlns:dc="http://purl.org/dc/elements/1.1/"
	xmlns:cc="http://creativecommons.org/ns#"
	xmlns:rdf="http://www.w3.org/1999/02/22-rdf-syntax-ns#"
	xmlns:svg="http://www.w3.org/2000/svg"
	xmlns="http://www.w3.org/2000/svg"
	xmlns:sodipodi="http://sodipodi.sourceforge.net/DTD/sodipodi-0.dtd"
	xmlns:inkscape="http://www.inkscape.org/namespaces/inkscape"
	width="1000"
	height="1000"
	id="svg2"
	version="1.1"
	sodipodi:docname="manifold/ccrust-Misk07.png.txt">
<defs
	id="defs4" />
<metadata
	id="metadata7">
	<rdf:RDF>
		<cc:Work
			rdf:about="">
			<dc:format>image/svg+xml</dc:format>
			<dc:type
				rdf:resource="http://purl.org/dc/dcmitype/StillImage" />
			<dc:title></dc:title>
		</cc:Work>
	</rdf:RDF>
</metadata>
<g
	inkscape:label="Layer 1"
	inkscape:groupmode="layer"
	id="layer1">
	<path style="fill:none;stroke:red;stroke-width:1px;stroke-linecap:butt;stroke-linejoin:miter;stroke-opacity:1" d="M 4,200.403 17.3154,187.087 z" id="boundary" inkscape:connector-curvature="0" />
	<path style="fill:none;stroke:red;stroke-width:1px;stroke-linecap:butt;stroke-linejoin:miter;stroke-opacity:1" d="M 12.3221,215.383 4,200.403 z" id="boundary" inkscape:connector-curvature="0" />
	<path style="fill:none;stroke:red;stroke-width:1px;stroke-linecap:butt;stroke-linejoin:miter;stroke-opacity:1" d="M 17.3154,187.087 30.6309,173.772 z" id="boundary" inkscape:connector-curvature="0" />
	<path style="fill:none;stroke:red;stroke-width:1px;stroke-linecap:butt;stroke-linejoin:miter;stroke-opacity:1" d="M 35.6242,238.685 20.6443,230.362 z" id="boundary" inkscape:connector-curvature="0" />
	<path style="fill:none;stroke:red;stroke-width:1px;stroke-linecap:butt;stroke-linejoin:miter;stroke-opacity:1" d="M 20.6443,230.362 12.3221,215.383 z" id="boundary" inkscape:connector-curvature="0" />
	<path style="fill:none;stroke:red;stroke-width:1px;stroke-linecap:butt;stroke-linejoin:miter;stroke-opacity:1" d="M 35.6242,238.685 42.2819,255.329 z" id="boundary" inkscape:connector-curvature="0" />
	<path style="fill:none;stroke:red;stroke-width:1px;stroke-linecap:butt;stroke-linejoin:miter;stroke-opacity:1" d="M 122.174,98.8725 110.523,112.188 z" id="boundary" inkscape:connector-curvature="0" />
	<path style="fill:none;stroke:red;stroke-width:1px;stroke-linecap:butt;stroke-linejoin:miter;stroke-opacity:1" d="M 110.523,112.188 97.2081,123.839 z" id="boundary" inkscape:connector-curvature="0" />
	<path style="fill:none;stroke:red;stroke-width:1px;stroke-linecap:butt;stroke-linejoin:miter;stroke-opacity:1" d="M 85.557,137.154 97.2081,123.839 z" id="boundary" inkscape:connector-curvature="0" />
	<path style="fill:none;stroke:red;stroke-width:1px;stroke-linecap:butt;stroke-linejoin:miter;stroke-opacity:1" d="M 43.9463,162.121 60.5906,162.121 z" id="boundary" inkscape:connector-curvature="0" />
	<path style="fill:none;stroke:red;stroke-width:1px;stroke-linecap:butt;stroke-linejoin:miter;stroke-opacity:1" d="M 30.6309,173.772 43.9463,162.121 z" id="boundary" inkscape:connector-curvature="0" />
	<path style="fill:none;stroke:red;stroke-width:1px;stroke-linecap:butt;stroke-linejoin:miter;stroke-opacity:1" d="M 72.2416,148.805 60.5906,162.121 z" id="boundary" inkscape:connector-curvature="0" />
	<path style="fill:none;stroke:red;stroke-width:1px;stroke-linecap:butt;stroke-linejoin:miter;stroke-opacity:1" d="M 85.557,137.154 72.2416,148.805 z" id="boundary" inkscape:connector-curvature="0" />
	<path style="fill:none;stroke:red;stroke-width:1px;stroke-linecap:butt;stroke-linejoin:miter;stroke-opacity:1" d="M 42.2819,255.329 58.9262,261.987 z" id="boundary" inkscape:connector-curvature="0" />
	<path style="fill:none;stroke:red;stroke-width:1px;stroke-linecap:butt;stroke-linejoin:miter;stroke-opacity:1" d="M 58.9262,261.987 70.5772,275.302 z" id="boundary" inkscape:connector-curvature="0" />
	<path style="fill:none;stroke:red;stroke-width:1px;stroke-linecap:butt;stroke-linejoin:miter;stroke-opacity:1" d="M 83.8926,286.953 95.5436,300.268 z" id="boundary" inkscape:connector-curvature="0" />
	<path style="fill:none;stroke:red;stroke-width:1px;stroke-linecap:butt;stroke-linejoin:miter;stroke-opacity:1" d="M 95.5436,300.268 103.866,315.248 z" id="boundary" inkscape:connector-curvature="0" />
	<path style="fill:none;stroke:red;stroke-width:1px;stroke-linecap:butt;stroke-linejoin:miter;stroke-opacity:1" d="M 70.5772,275.302 83.8926,286.953 z" id="boundary" inkscape:connector-curvature="0" />
	<path style="fill:none;stroke:red;stroke-width:1px;stroke-linecap:butt;stroke-linejoin:miter;stroke-opacity:1" d="M 125.503,361.852 117.181,346.872 z" id="boundary" inkscape:connector-curvature="0" />
	<path style="fill:none;stroke:red;stroke-width:1px;stroke-linecap:butt;stroke-linejoin:miter;stroke-opacity:1" d="M 117.181,346.872 112.188,330.228 z" id="boundary" inkscape:connector-curvature="0" />
	<path style="fill:none;stroke:red;stroke-width:1px;stroke-linecap:butt;stroke-linejoin:miter;stroke-opacity:1" d="M 125.503,361.852 128.832,378.497 z" id="boundary" inkscape:connector-curvature="0" />
	<path style="fill:none;stroke:red;stroke-width:1px;stroke-linecap:butt;stroke-linejoin:miter;stroke-opacity:1" d="M 128.832,378.497 132.161,395.141 z" id="boundary" inkscape:connector-curvature="0" />
	<path style="fill:none;stroke:red;stroke-width:1px;stroke-linecap:butt;stroke-linejoin:miter;stroke-opacity:1" d="M 132.161,395.141 128.832,416.779 z" id="boundary" inkscape:connector-curvature="0" />
	<path style="fill:none;stroke:red;stroke-width:1px;stroke-linecap:butt;stroke-linejoin:miter;stroke-opacity:1" d="M 128.832,466.711 128.832,450.067 z" id="boundary" inkscape:connector-curvature="0" />
	<path style="fill:none;stroke:red;stroke-width:1px;stroke-linecap:butt;stroke-linejoin:miter;stroke-opacity:1" d="M 128.832,450.067 137.154,431.758 z" id="boundary" inkscape:connector-curvature="0" />
	<path style="fill:none;stroke:red;stroke-width:1px;stroke-linecap:butt;stroke-linejoin:miter;stroke-opacity:1" d="M 128.832,416.779 137.154,431.758 z" id="boundary" inkscape:connector-curvature="0" />
	<path style="fill:none;stroke:red;stroke-width:1px;stroke-linecap:butt;stroke-linejoin:miter;stroke-opacity:1" d="M 103.866,315.248 112.188,330.228 z" id="boundary" inkscape:connector-curvature="0" />
	<path style="fill:none;stroke:red;stroke-width:1px;stroke-linecap:butt;stroke-linejoin:miter;stroke-opacity:1" d="M 122.174,98.8725 138.819,90.5503 z" id="boundary" inkscape:connector-curvature="0" />
	<path style="fill:none;stroke:red;stroke-width:1px;stroke-linecap:butt;stroke-linejoin:miter;stroke-opacity:1" d="M 128.832,466.711 120.51,491.678 z" id="boundary" inkscape:connector-curvature="0" />
	<path style="fill:none;stroke:red;stroke-width:1px;stroke-linecap:butt;stroke-linejoin:miter;stroke-opacity:1" d="M 313.584,4 330.228,4 z" id="boundary" inkscape:connector-curvature="0" />
	<path style="fill:none;stroke:red;stroke-width:1px;stroke-linecap:butt;stroke-linejoin:miter;stroke-opacity:1" d="M 296.94,7.32886 313.584,4 z" id="boundary" inkscape:connector-curvature="0" />
	<path style="fill:none;stroke:red;stroke-width:1px;stroke-linecap:butt;stroke-linejoin:miter;stroke-opacity:1" d="M 263.651,15.651 280.295,7.32886 z" id="boundary" inkscape:connector-curvature="0" />
	<path style="fill:none;stroke:red;stroke-width:1px;stroke-linecap:butt;stroke-linejoin:miter;stroke-opacity:1" d="M 280.295,7.32886 296.94,7.32886 z" id="boundary" inkscape:connector-curvature="0" />
	<path style="fill:none;stroke:red;stroke-width:1px;stroke-linecap:butt;stroke-linejoin:miter;stroke-opacity:1" d="M 247.007,23.9732 263.651,15.651 z" id="boundary" inkscape:connector-curvature="0" />
	<path style="fill:none;stroke:red;stroke-width:1px;stroke-linecap:butt;stroke-linejoin:miter;stroke-opacity:1" d="M 330.228,4 346.872,4 z" id="boundary" inkscape:connector-curvature="0" />
	<path style="fill:none;stroke:red;stroke-width:1px;stroke-linecap:butt;stroke-linejoin:miter;stroke-opacity:1" d="M 396.805,4 380.161,8.99329 z" id="boundary" inkscape:connector-curvature="0" />
	<path style="fill:none;stroke:red;stroke-width:1px;stroke-linecap:butt;stroke-linejoin:miter;stroke-opacity:1" d="M 380.161,8.99329 363.517,4 z" id="boundary" inkscape:connector-curvature="0" />
	<path style="fill:none;stroke:red;stroke-width:1px;stroke-linecap:butt;stroke-linejoin:miter;stroke-opacity:1" d="M 396.805,4 411.785,12.3221 z" id="boundary" inkscape:connector-curvature="0" />
	<path style="fill:none;stroke:red;stroke-width:1px;stroke-linecap:butt;stroke-linejoin:miter;stroke-opacity:1" d="M 346.872,4 363.517,4 z" id="boundary" inkscape:connector-curvature="0" />
	<path style="fill:none;stroke:red;stroke-width:1px;stroke-linecap:butt;stroke-linejoin:miter;stroke-opacity:1" d="M 411.785,12.3221 428.43,12.3221 z" id="boundary" inkscape:connector-curvature="0" />
	<path style="fill:none;stroke:red;stroke-width:1px;stroke-linecap:butt;stroke-linejoin:miter;stroke-opacity:1" d="M 445.074,12.3221 460.054,20.6443 z" id="boundary" inkscape:connector-curvature="0" />
	<path style="fill:none;stroke:red;stroke-width:1px;stroke-linecap:butt;stroke-linejoin:miter;stroke-opacity:1" d="M 428.43,12.3221 445.074,12.3221 z" id="boundary" inkscape:connector-curvature="0" />
	<path style="fill:none;stroke:red;stroke-width:1px;stroke-linecap:butt;stroke-linejoin:miter;stroke-opacity:1" d="M 460.054,20.6443 475.034,28.9664 z" id="boundary" inkscape:connector-curvature="0" />
	<path style="fill:none;stroke:red;stroke-width:1px;stroke-linecap:butt;stroke-linejoin:miter;stroke-opacity:1" d="M 167.114,70.5772 180.43,57.2617 z" id="boundary" inkscape:connector-curvature="0" />
	<path style="fill:none;stroke:red;stroke-width:1px;stroke-linecap:butt;stroke-linejoin:miter;stroke-opacity:1" d="M 180.43,57.2617 197.074,48.9396 z" id="boundary" inkscape:connector-curvature="0" />
	<path style="fill:none;stroke:red;stroke-width:1px;stroke-linecap:butt;stroke-linejoin:miter;stroke-opacity:1" d="M 167.114,70.5772 152.134,78.8993 z" id="boundary" inkscape:connector-curvature="0" />
	<path style="fill:none;stroke:red;stroke-width:1px;stroke-linecap:butt;stroke-linejoin:miter;stroke-opacity:1" d="M 213.718,40.6174 230.362,32.2953 z" id="boundary" inkscape:connector-curvature="0" />
	<path style="fill:none;stroke:red;stroke-width:1px;stroke-linecap:butt;stroke-linejoin:miter;stroke-opacity:1" d="M 138.819,90.5503 152.134,78.8993 z" id="boundary" inkscape:connector-curvature="0" />
	<path style="fill:none;stroke:red;stroke-width:1px;stroke-linecap:butt;stroke-linejoin:miter;stroke-opacity:1" d="M 197.074,48.9396 213.718,40.6174 z" id="boundary" inkscape:connector-curvature="0" />
	<path style="fill:none;stroke:red;stroke-width:1px;stroke-linecap:butt;stroke-linejoin:miter;stroke-opacity:1" d="M 475.034,28.9664 490.013,37.2886 z" id="boundary" inkscape:connector-curvature="0" />
	<path style="fill:none;stroke:red;stroke-width:1px;stroke-linecap:butt;stroke-linejoin:miter;stroke-opacity:1" d="M 230.362,32.2953 247.007,23.9732 z" id="boundary" inkscape:connector-curvature="0" />
	<path style="fill:none;stroke:red;stroke-width:1px;stroke-linecap:butt;stroke-linejoin:miter;stroke-opacity:1" d="M 490.013,37.2886 504.993,45.6107 z" id="boundary" inkscape:connector-curvature="0" />
	<path style="fill:none;stroke:red;stroke-width:1px;stroke-linecap:butt;stroke-linejoin:miter;stroke-opacity:1" d="M 521.638,50.604 504.993,45.6107 z" id="boundary" inkscape:connector-curvature="0" />
	<path style="fill:none;stroke:red;stroke-width:1px;stroke-linecap:butt;stroke-linejoin:miter;stroke-opacity:1" d="M 45.6107,658.121 53.9329,641.477 z" id="boundary" inkscape:connector-curvature="0" />
	<path style="fill:none;stroke:red;stroke-width:1px;stroke-linecap:butt;stroke-linejoin:miter;stroke-opacity:1" d="M 62.255,624.832 53.9329,641.477 z" id="boundary" inkscape:connector-curvature="0" />
	<path style="fill:none;stroke:red;stroke-width:1px;stroke-linecap:butt;stroke-linejoin:miter;stroke-opacity:1" d="M 70.5772,608.188 62.255,624.832 z" id="boundary" inkscape:connector-curvature="0" />
	<path style="fill:none;stroke:red;stroke-width:1px;stroke-linecap:butt;stroke-linejoin:miter;stroke-opacity:1" d="M 37.2886,699.732 37.2886,683.087 z" id="boundary" inkscape:connector-curvature="0" />
	<path style="fill:none;stroke:red;stroke-width:1px;stroke-linecap:butt;stroke-linejoin:miter;stroke-opacity:1" d="M 45.6107,714.711 37.2886,699.732 z" id="boundary" inkscape:connector-curvature="0" />
	<path style="fill:none;stroke:red;stroke-width:1px;stroke-linecap:butt;stroke-linejoin:miter;stroke-opacity:1" d="M 45.6107,658.121 37.2886,683.087 z" id="boundary" inkscape:connector-curvature="0" />
	<path style="fill:none;stroke:red;stroke-width:1px;stroke-linecap:butt;stroke-linejoin:miter;stroke-opacity:1" d="M 120.51,491.678 120.51,508.322 z" id="boundary" inkscape:connector-curvature="0" />
	<path style="fill:none;stroke:red;stroke-width:1px;stroke-linecap:butt;stroke-linejoin:miter;stroke-opacity:1" d="M 120.51,508.322 112.188,524.966 z" id="boundary" inkscape:connector-curvature="0" />
	<path style="fill:none;stroke:red;stroke-width:1px;stroke-linecap:butt;stroke-linejoin:miter;stroke-opacity:1" d="M 112.188,524.966 103.866,541.611 z" id="boundary" inkscape:connector-curvature="0" />
	<path style="fill:none;stroke:red;stroke-width:1px;stroke-linecap:butt;stroke-linejoin:miter;stroke-opacity:1" d="M 78.8993,591.544 87.2215,574.899 z" id="boundary" inkscape:connector-curvature="0" />
	<path style="fill:none;stroke:red;stroke-width:1px;stroke-linecap:butt;stroke-linejoin:miter;stroke-opacity:1" d="M 87.2215,574.899 100.537,561.584 z" id="boundary" inkscape:connector-curvature="0" />
	<path style="fill:none;stroke:red;stroke-width:1px;stroke-linecap:butt;stroke-linejoin:miter;stroke-opacity:1" d="M 100.537,561.584 103.866,541.611 z" id="boundary" inkscape:connector-curvature="0" />
	<path style="fill:none;stroke:red;stroke-width:1px;stroke-linecap:butt;stroke-linejoin:miter;stroke-opacity:1" d="M 70.5772,608.188 78.8993,591.544 z" id="boundary" inkscape:connector-curvature="0" />
	<path style="fill:none;stroke:red;stroke-width:1px;stroke-linecap:butt;stroke-linejoin:miter;stroke-opacity:1" d="M 53.9329,746.336 45.6107,731.356 z" id="boundary" inkscape:connector-curvature="0" />
	<path style="fill:none;stroke:red;stroke-width:1px;stroke-linecap:butt;stroke-linejoin:miter;stroke-opacity:1" d="M 45.6107,731.356 45.6107,714.711 z" id="boundary" inkscape:connector-curvature="0" />
	<path style="fill:none;stroke:red;stroke-width:1px;stroke-linecap:butt;stroke-linejoin:miter;stroke-opacity:1" d="M 115.517,779.624 98.8725,779.624 z" id="boundary" inkscape:connector-curvature="0" />
	<path style="fill:none;stroke:red;stroke-width:1px;stroke-linecap:butt;stroke-linejoin:miter;stroke-opacity:1" d="M 53.9329,746.336 58.9262,762.98 z" id="boundary" inkscape:connector-curvature="0" />
	<path style="fill:none;stroke:red;stroke-width:1px;stroke-linecap:butt;stroke-linejoin:miter;stroke-opacity:1" d="M 70.5772,776.295 58.9262,762.98 z" id="boundary" inkscape:connector-curvature="0" />
	<path style="fill:none;stroke:red;stroke-width:1px;stroke-linecap:butt;stroke-linejoin:miter;stroke-opacity:1" d="M 83.8926,787.946 98.8725,779.624 z" id="boundary" inkscape:connector-curvature="0" />
	<path style="fill:none;stroke:red;stroke-width:1px;stroke-linecap:butt;stroke-linejoin:miter;stroke-opacity:1" d="M 83.8926,787.946 70.5772,776.295 z" id="boundary" inkscape:connector-curvature="0" />
	<path style="fill:none;stroke:red;stroke-width:1px;stroke-linecap:butt;stroke-linejoin:miter;stroke-opacity:1" d="M 130.497,787.946 115.517,779.624 z" id="boundary" inkscape:connector-curvature="0" />
	<path style="fill:none;stroke:red;stroke-width:1px;stroke-linecap:butt;stroke-linejoin:miter;stroke-opacity:1" d="M 130.497,787.946 145.477,796.268 z" id="boundary" inkscape:connector-curvature="0" />
	<path style="fill:none;stroke:red;stroke-width:1px;stroke-linecap:butt;stroke-linejoin:miter;stroke-opacity:1" d="M 145.477,796.268 153.799,811.248 z" id="boundary" inkscape:connector-curvature="0" />
	<path style="fill:none;stroke:red;stroke-width:1px;stroke-linecap:butt;stroke-linejoin:miter;stroke-opacity:1" d="M 153.799,811.248 162.121,826.228 z" id="boundary" inkscape:connector-curvature="0" />
	<path style="fill:none;stroke:red;stroke-width:1px;stroke-linecap:butt;stroke-linejoin:miter;stroke-opacity:1" d="M 170.443,841.208 178.765,856.188 z" id="boundary" inkscape:connector-curvature="0" />
	<path style="fill:none;stroke:red;stroke-width:1px;stroke-linecap:butt;stroke-linejoin:miter;stroke-opacity:1" d="M 170.443,841.208 162.121,826.228 z" id="boundary" inkscape:connector-curvature="0" />
	<path style="fill:none;stroke:red;stroke-width:1px;stroke-linecap:butt;stroke-linejoin:miter;stroke-opacity:1" d="M 178.765,856.188 187.087,871.168 z" id="boundary" inkscape:connector-curvature="0" />
	<path style="fill:none;stroke:red;stroke-width:1px;stroke-linecap:butt;stroke-linejoin:miter;stroke-opacity:1" d="M 210.389,896.134 197.074,884.483 z" id="boundary" inkscape:connector-curvature="0" />
	<path style="fill:none;stroke:red;stroke-width:1px;stroke-linecap:butt;stroke-linejoin:miter;stroke-opacity:1" d="M 197.074,884.483 187.087,871.168 z" id="boundary" inkscape:connector-curvature="0" />
	<path style="fill:none;stroke:red;stroke-width:1px;stroke-linecap:butt;stroke-linejoin:miter;stroke-opacity:1" d="M 210.389,896.134 222.04,909.45 z" id="boundary" inkscape:connector-curvature="0" />
	<path style="fill:none;stroke:red;stroke-width:1px;stroke-linecap:butt;stroke-linejoin:miter;stroke-opacity:1" d="M 222.04,909.45 238.685,912.779 z" id="boundary" inkscape:connector-curvature="0" />
	<path style="fill:none;stroke:red;stroke-width:1px;stroke-linecap:butt;stroke-linejoin:miter;stroke-opacity:1" d="M 238.685,912.779 253.664,921.101 z" id="boundary" inkscape:connector-curvature="0" />
	<path style="fill:none;stroke:red;stroke-width:1px;stroke-linecap:butt;stroke-linejoin:miter;stroke-opacity:1" d="M 270.309,921.101 253.664,921.101 z" id="boundary" inkscape:connector-curvature="0" />
	<path style="fill:none;stroke:red;stroke-width:1px;stroke-linecap:butt;stroke-linejoin:miter;stroke-opacity:1" d="M 504.993,777.96 496.671,762.98 z" id="boundary" inkscape:connector-curvature="0" />
	<path style="fill:none;stroke:red;stroke-width:1px;stroke-linecap:butt;stroke-linejoin:miter;stroke-opacity:1" d="M 496.671,762.98 504.993,746.336 z" id="boundary" inkscape:connector-curvature="0" />
	<path style="fill:none;stroke:red;stroke-width:1px;stroke-linecap:butt;stroke-linejoin:miter;stroke-opacity:1" d="M 504.993,746.336 518.309,734.685 z" id="boundary" inkscape:connector-curvature="0" />
	<path style="fill:none;stroke:red;stroke-width:1px;stroke-linecap:butt;stroke-linejoin:miter;stroke-opacity:1" d="M 270.309,921.101 286.953,921.101 z" id="boundary" inkscape:connector-curvature="0" />
	<path style="fill:none;stroke:red;stroke-width:1px;stroke-linecap:butt;stroke-linejoin:miter;stroke-opacity:1" d="M 286.953,921.101 301.933,929.423 z" id="boundary" inkscape:connector-curvature="0" />
	<path style="fill:none;stroke:red;stroke-width:1px;stroke-linecap:butt;stroke-linejoin:miter;stroke-opacity:1" d="M 519.973,786.282 504.993,777.96 z" id="boundary" inkscape:connector-curvature="0" />
	<path style="fill:none;stroke:red;stroke-width:1px;stroke-linecap:butt;stroke-linejoin:miter;stroke-opacity:1" d="M 536.617,789.611 519.973,786.282 z" id="boundary" inkscape:connector-curvature="0" />
	<path style="fill:none;stroke:red;stroke-width:1px;stroke-linecap:butt;stroke-linejoin:miter;stroke-opacity:1" d="M 526.631,718.04 518.309,734.685 z" id="boundary" inkscape:connector-curvature="0" />
	<path style="fill:none;stroke:red;stroke-width:1px;stroke-linecap:butt;stroke-linejoin:miter;stroke-opacity:1" d="M 316.913,937.745 301.933,929.423 z" id="boundary" inkscape:connector-curvature="0" />
	<path style="fill:none;stroke:red;stroke-width:1px;stroke-linecap:butt;stroke-linejoin:miter;stroke-opacity:1" d="M 333.557,944.403 316.913,937.745 z" id="boundary" inkscape:connector-curvature="0" />
	<path style="fill:none;stroke:red;stroke-width:1px;stroke-linecap:butt;stroke-linejoin:miter;stroke-opacity:1" d="M 333.557,944.403 348.537,952.725 z" id="boundary" inkscape:connector-curvature="0" />
	<path style="fill:none;stroke:red;stroke-width:1px;stroke-linecap:butt;stroke-linejoin:miter;stroke-opacity:1" d="M 348.537,952.725 365.181,954.389 z" id="boundary" inkscape:connector-curvature="0" />
	<path style="fill:none;stroke:red;stroke-width:1px;stroke-linecap:butt;stroke-linejoin:miter;stroke-opacity:1" d="M 365.181,954.389 380.161,962.711 z" id="boundary" inkscape:connector-curvature="0" />
	<path style="fill:none;stroke:red;stroke-width:1px;stroke-linecap:butt;stroke-linejoin:miter;stroke-opacity:1" d="M 380.161,962.711 395.141,971.034 z" id="boundary" inkscape:connector-curvature="0" />
	<path style="fill:none;stroke:red;stroke-width:1px;stroke-linecap:butt;stroke-linejoin:miter;stroke-opacity:1" d="M 411.785,971.034 395.141,971.034 z" id="boundary" inkscape:connector-curvature="0" />
	<path style="fill:none;stroke:red;stroke-width:1px;stroke-linecap:butt;stroke-linejoin:miter;stroke-opacity:1" d="M 411.785,971.034 426.765,979.356 z" id="boundary" inkscape:connector-curvature="0" />
	<path style="fill:none;stroke:red;stroke-width:1px;stroke-linecap:butt;stroke-linejoin:miter;stroke-opacity:1" d="M 441.745,987.678 426.765,979.356 z" id="boundary" inkscape:connector-curvature="0" />
	<path style="fill:none;stroke:red;stroke-width:1px;stroke-linecap:butt;stroke-linejoin:miter;stroke-opacity:1" d="M 458.389,994.336 475.034,994.336 z" id="boundary" inkscape:connector-curvature="0" />
	<path style="fill:none;stroke:red;stroke-width:1px;stroke-linecap:butt;stroke-linejoin:miter;stroke-opacity:1" d="M 475.034,994.336 491.678,996 z" id="boundary" inkscape:connector-curvature="0" />
	<path style="fill:none;stroke:red;stroke-width:1px;stroke-linecap:butt;stroke-linejoin:miter;stroke-opacity:1" d="M 458.389,994.336 441.745,987.678 z" id="boundary" inkscape:connector-curvature="0" />
	<path style="fill:none;stroke:red;stroke-width:1px;stroke-linecap:butt;stroke-linejoin:miter;stroke-opacity:1" d="M 508.322,996 491.678,996 z" id="boundary" inkscape:connector-curvature="0" />
	<path style="fill:none;stroke:red;stroke-width:1px;stroke-linecap:butt;stroke-linejoin:miter;stroke-opacity:1" d="M 524.966,994.336 508.322,996 z" id="boundary" inkscape:connector-curvature="0" />
	<path style="fill:none;stroke:red;stroke-width:1px;stroke-linecap:butt;stroke-linejoin:miter;stroke-opacity:1" d="M 521.638,50.604 534.953,62.255 z" id="boundary" inkscape:connector-curvature="0" />
	<path style="fill:none;stroke:red;stroke-width:1px;stroke-linecap:butt;stroke-linejoin:miter;stroke-opacity:1" d="M 561.584,83.8926 546.604,75.5705 z" id="boundary" inkscape:connector-curvature="0" />
	<path style="fill:none;stroke:red;stroke-width:1px;stroke-linecap:butt;stroke-linejoin:miter;stroke-opacity:1" d="M 546.604,75.5705 534.953,62.255 z" id="boundary" inkscape:connector-curvature="0" />
	<path style="fill:none;stroke:red;stroke-width:1px;stroke-linecap:butt;stroke-linejoin:miter;stroke-opacity:1" d="M 561.584,83.8926 574.899,95.5436 z" id="boundary" inkscape:connector-curvature="0" />
	<path style="fill:none;stroke:red;stroke-width:1px;stroke-linecap:butt;stroke-linejoin:miter;stroke-opacity:1" d="M 614.846,128.832 599.866,120.51 z" id="boundary" inkscape:connector-curvature="0" />
	<path style="fill:none;stroke:red;stroke-width:1px;stroke-linecap:butt;stroke-linejoin:miter;stroke-opacity:1" d="M 599.866,120.51 586.55,108.859 z" id="boundary" inkscape:connector-curvature="0" />
	<path style="fill:none;stroke:red;stroke-width:1px;stroke-linecap:butt;stroke-linejoin:miter;stroke-opacity:1" d="M 586.55,108.859 574.899,95.5436 z" id="boundary" inkscape:connector-curvature="0" />
	<path style="fill:none;stroke:red;stroke-width:1px;stroke-linecap:butt;stroke-linejoin:miter;stroke-opacity:1" d="M 643.141,148.805 628.161,140.483 z" id="boundary" inkscape:connector-curvature="0" />
	<path style="fill:none;stroke:red;stroke-width:1px;stroke-linecap:butt;stroke-linejoin:miter;stroke-opacity:1" d="M 628.161,140.483 614.846,128.832 z" id="boundary" inkscape:connector-curvature="0" />
	<path style="fill:none;stroke:red;stroke-width:1px;stroke-linecap:butt;stroke-linejoin:miter;stroke-opacity:1" d="M 643.141,148.805 646.47,172.107 z" id="boundary" inkscape:connector-curvature="0" />
	<path style="fill:none;stroke:red;stroke-width:1px;stroke-linecap:butt;stroke-linejoin:miter;stroke-opacity:1" d="M 621.503,222.04 629.826,205.396 z" id="boundary" inkscape:connector-curvature="0" />
	<path style="fill:none;stroke:red;stroke-width:1px;stroke-linecap:butt;stroke-linejoin:miter;stroke-opacity:1" d="M 689.745,270.309 673.101,270.309 z" id="boundary" inkscape:connector-curvature="0" />
	<path style="fill:none;stroke:red;stroke-width:1px;stroke-linecap:butt;stroke-linejoin:miter;stroke-opacity:1" d="M 646.47,172.107 643.141,193.745 z" id="boundary" inkscape:connector-curvature="0" />
	<path style="fill:none;stroke:red;stroke-width:1px;stroke-linecap:butt;stroke-linejoin:miter;stroke-opacity:1" d="M 643.141,193.745 629.826,205.396 z" id="boundary" inkscape:connector-curvature="0" />
	<path style="fill:none;stroke:red;stroke-width:1px;stroke-linecap:butt;stroke-linejoin:miter;stroke-opacity:1" d="M 621.503,222.04 621.503,238.685 z" id="boundary" inkscape:connector-curvature="0" />
	<path style="fill:none;stroke:red;stroke-width:1px;stroke-linecap:butt;stroke-linejoin:miter;stroke-opacity:1" d="M 641.477,261.987 624.832,255.329 z" id="boundary" inkscape:connector-curvature="0" />
	<path style="fill:none;stroke:red;stroke-width:1px;stroke-linecap:butt;stroke-linejoin:miter;stroke-opacity:1" d="M 624.832,255.329 621.503,238.685 z" id="boundary" inkscape:connector-curvature="0" />
	<path style="fill:none;stroke:red;stroke-width:1px;stroke-linecap:butt;stroke-linejoin:miter;stroke-opacity:1" d="M 621.503,546.604 624.832,563.248 z" id="boundary" inkscape:connector-curvature="0" />
	<path style="fill:none;stroke:red;stroke-width:1px;stroke-linecap:butt;stroke-linejoin:miter;stroke-opacity:1" d="M 621.503,546.604 638.148,538.282 z" id="boundary" inkscape:connector-curvature="0" />
	<path style="fill:none;stroke:red;stroke-width:1px;stroke-linecap:butt;stroke-linejoin:miter;stroke-opacity:1" d="M 638.148,538.282 654.792,529.96 z" id="boundary" inkscape:connector-curvature="0" />
	<path style="fill:none;stroke:red;stroke-width:1px;stroke-linecap:butt;stroke-linejoin:miter;stroke-opacity:1" d="M 633.154,578.228 624.832,563.248 z" id="boundary" inkscape:connector-curvature="0" />
	<path style="fill:none;stroke:red;stroke-width:1px;stroke-linecap:butt;stroke-linejoin:miter;stroke-opacity:1" d="M 641.477,261.987 656.456,270.309 z" id="boundary" inkscape:connector-curvature="0" />
	<path style="fill:none;stroke:red;stroke-width:1px;stroke-linecap:butt;stroke-linejoin:miter;stroke-opacity:1" d="M 673.101,270.309 656.456,270.309 z" id="boundary" inkscape:connector-curvature="0" />
	<path style="fill:none;stroke:red;stroke-width:1px;stroke-linecap:butt;stroke-linejoin:miter;stroke-opacity:1" d="M 654.792,529.96 668.107,518.309 z" id="boundary" inkscape:connector-curvature="0" />
	<path style="fill:none;stroke:red;stroke-width:1px;stroke-linecap:butt;stroke-linejoin:miter;stroke-opacity:1" d="M 661.45,598.201 644.805,591.544 z" id="boundary" inkscape:connector-curvature="0" />
	<path style="fill:none;stroke:red;stroke-width:1px;stroke-linecap:butt;stroke-linejoin:miter;stroke-opacity:1" d="M 644.805,591.544 633.154,578.228 z" id="boundary" inkscape:connector-curvature="0" />
	<path style="fill:none;stroke:red;stroke-width:1px;stroke-linecap:butt;stroke-linejoin:miter;stroke-opacity:1" d="M 661.45,598.201 678.094,603.195 z" id="boundary" inkscape:connector-curvature="0" />
	<path style="fill:none;stroke:red;stroke-width:1px;stroke-linecap:butt;stroke-linejoin:miter;stroke-opacity:1" d="M 694.738,603.195 678.094,603.195 z" id="boundary" inkscape:connector-curvature="0" />
	<path style="fill:none;stroke:red;stroke-width:1px;stroke-linecap:butt;stroke-linejoin:miter;stroke-opacity:1" d="M 706.389,270.309 689.745,270.309 z" id="boundary" inkscape:connector-curvature="0" />
	<path style="fill:none;stroke:red;stroke-width:1px;stroke-linecap:butt;stroke-linejoin:miter;stroke-opacity:1" d="M 739.678,263.651 723.034,270.309 z" id="boundary" inkscape:connector-curvature="0" />
	<path style="fill:none;stroke:red;stroke-width:1px;stroke-linecap:butt;stroke-linejoin:miter;stroke-opacity:1" d="M 723.034,270.309 706.389,270.309 z" id="boundary" inkscape:connector-curvature="0" />
	<path style="fill:none;stroke:red;stroke-width:1px;stroke-linecap:butt;stroke-linejoin:miter;stroke-opacity:1" d="M 739.678,263.651 756.322,270.309 z" id="boundary" inkscape:connector-curvature="0" />
	<path style="fill:none;stroke:red;stroke-width:1px;stroke-linecap:butt;stroke-linejoin:miter;stroke-opacity:1" d="M 771.302,278.631 756.322,270.309 z" id="boundary" inkscape:connector-curvature="0" />
	<path style="fill:none;stroke:red;stroke-width:1px;stroke-linecap:butt;stroke-linejoin:miter;stroke-opacity:1" d="M 771.302,278.631 779.624,293.611 z" id="boundary" inkscape:connector-curvature="0" />
	<path style="fill:none;stroke:red;stroke-width:1px;stroke-linecap:butt;stroke-linejoin:miter;stroke-opacity:1" d="M 779.624,293.611 792.94,305.262 z" id="boundary" inkscape:connector-curvature="0" />
	<path style="fill:none;stroke:red;stroke-width:1px;stroke-linecap:butt;stroke-linejoin:miter;stroke-opacity:1" d="M 792.94,305.262 796.268,321.906 z" id="boundary" inkscape:connector-curvature="0" />
	<path style="fill:none;stroke:red;stroke-width:1px;stroke-linecap:butt;stroke-linejoin:miter;stroke-opacity:1" d="M 796.268,321.906 796.268,338.55 z" id="boundary" inkscape:connector-curvature="0" />
	<path style="fill:none;stroke:red;stroke-width:1px;stroke-linecap:butt;stroke-linejoin:miter;stroke-opacity:1" d="M 787.946,363.517 784.617,385.154 z" id="boundary" inkscape:connector-curvature="0" />
	<path style="fill:none;stroke:red;stroke-width:1px;stroke-linecap:butt;stroke-linejoin:miter;stroke-opacity:1" d="M 787.946,363.517 796.268,338.55 z" id="boundary" inkscape:connector-curvature="0" />
	<path style="fill:none;stroke:red;stroke-width:1px;stroke-linecap:butt;stroke-linejoin:miter;stroke-opacity:1" d="M 776.295,401.799 784.617,385.154 z" id="boundary" inkscape:connector-curvature="0" />
	<path style="fill:none;stroke:red;stroke-width:1px;stroke-linecap:butt;stroke-linejoin:miter;stroke-opacity:1" d="M 776.295,401.799 762.98,413.45 z" id="boundary" inkscape:connector-curvature="0" />
	<path style="fill:none;stroke:red;stroke-width:1px;stroke-linecap:butt;stroke-linejoin:miter;stroke-opacity:1" d="M 709.718,485.02 696.403,496.671 z" id="boundary" inkscape:connector-curvature="0" />
	<path style="fill:none;stroke:red;stroke-width:1px;stroke-linecap:butt;stroke-linejoin:miter;stroke-opacity:1" d="M 721.369,471.705 709.718,485.02 z" id="boundary" inkscape:connector-curvature="0" />
	<path style="fill:none;stroke:red;stroke-width:1px;stroke-linecap:butt;stroke-linejoin:miter;stroke-opacity:1" d="M 684.752,509.987 696.403,496.671 z" id="boundary" inkscape:connector-curvature="0" />
	<path style="fill:none;stroke:red;stroke-width:1px;stroke-linecap:butt;stroke-linejoin:miter;stroke-opacity:1" d="M 668.107,518.309 684.752,509.987 z" id="boundary" inkscape:connector-curvature="0" />
	<path style="fill:none;stroke:red;stroke-width:1px;stroke-linecap:butt;stroke-linejoin:miter;stroke-opacity:1" d="M 709.718,611.517 726.362,611.517 z" id="boundary" inkscape:connector-curvature="0" />
	<path style="fill:none;stroke:red;stroke-width:1px;stroke-linecap:butt;stroke-linejoin:miter;stroke-opacity:1" d="M 709.718,611.517 694.738,603.195 z" id="boundary" inkscape:connector-curvature="0" />
	<path style="fill:none;stroke:red;stroke-width:1px;stroke-linecap:butt;stroke-linejoin:miter;stroke-opacity:1" d="M 743.007,611.517 726.362,611.517 z" id="boundary" inkscape:connector-curvature="0" />
	<path style="fill:none;stroke:red;stroke-width:1px;stroke-linecap:butt;stroke-linejoin:miter;stroke-opacity:1" d="M 746.336,446.738 754.658,430.094 z" id="boundary" inkscape:connector-curvature="0" />
	<path style="fill:none;stroke:red;stroke-width:1px;stroke-linecap:butt;stroke-linejoin:miter;stroke-opacity:1" d="M 746.336,446.738 734.685,460.054 z" id="boundary" inkscape:connector-curvature="0" />
	<path style="fill:none;stroke:red;stroke-width:1px;stroke-linecap:butt;stroke-linejoin:miter;stroke-opacity:1" d="M 734.685,460.054 721.369,471.705 z" id="boundary" inkscape:connector-curvature="0" />
	<path style="fill:none;stroke:red;stroke-width:1px;stroke-linecap:butt;stroke-linejoin:miter;stroke-opacity:1" d="M 754.658,430.094 762.98,413.45 z" id="boundary" inkscape:connector-curvature="0" />
	<path style="fill:none;stroke:red;stroke-width:1px;stroke-linecap:butt;stroke-linejoin:miter;stroke-opacity:1" d="M 759.651,613.181 743.007,611.517 z" id="boundary" inkscape:connector-curvature="0" />
	<path style="fill:none;stroke:red;stroke-width:1px;stroke-linecap:butt;stroke-linejoin:miter;stroke-opacity:1" d="M 776.295,619.839 759.651,613.181 z" id="boundary" inkscape:connector-curvature="0" />
	<path style="fill:none;stroke:red;stroke-width:1px;stroke-linecap:butt;stroke-linejoin:miter;stroke-opacity:1" d="M 791.275,628.161 776.295,619.839 z" id="boundary" inkscape:connector-curvature="0" />
	<path style="fill:none;stroke:red;stroke-width:1px;stroke-linecap:butt;stroke-linejoin:miter;stroke-opacity:1" d="M 538.282,704.725 553.262,696.403 z" id="boundary" inkscape:connector-curvature="0" />
	<path style="fill:none;stroke:red;stroke-width:1px;stroke-linecap:butt;stroke-linejoin:miter;stroke-opacity:1" d="M 568.242,688.081 553.262,696.403 z" id="boundary" inkscape:connector-curvature="0" />
	<path style="fill:none;stroke:red;stroke-width:1px;stroke-linecap:butt;stroke-linejoin:miter;stroke-opacity:1" d="M 553.262,789.611 536.617,789.611 z" id="boundary" inkscape:connector-curvature="0" />
	<path style="fill:none;stroke:red;stroke-width:1px;stroke-linecap:butt;stroke-linejoin:miter;stroke-opacity:1" d="M 526.631,718.04 538.282,704.725 z" id="boundary" inkscape:connector-curvature="0" />
	<path style="fill:none;stroke:red;stroke-width:1px;stroke-linecap:butt;stroke-linejoin:miter;stroke-opacity:1" d="M 553.262,789.611 568.242,797.933 z" id="boundary" inkscape:connector-curvature="0" />
	<path style="fill:none;stroke:red;stroke-width:1px;stroke-linecap:butt;stroke-linejoin:miter;stroke-opacity:1" d="M 568.242,688.081 584.886,688.081 z" id="boundary" inkscape:connector-curvature="0" />
	<path style="fill:none;stroke:red;stroke-width:1px;stroke-linecap:butt;stroke-linejoin:miter;stroke-opacity:1" d="M 584.886,688.081 601.53,688.081 z" id="boundary" inkscape:connector-curvature="0" />
	<path style="fill:none;stroke:red;stroke-width:1px;stroke-linecap:butt;stroke-linejoin:miter;stroke-opacity:1" d="M 618.174,688.081 601.53,688.081 z" id="boundary" inkscape:connector-curvature="0" />
	<path style="fill:none;stroke:red;stroke-width:1px;stroke-linecap:butt;stroke-linejoin:miter;stroke-opacity:1" d="M 568.242,797.933 584.886,796.268 z" id="boundary" inkscape:connector-curvature="0" />
	<path style="fill:none;stroke:red;stroke-width:1px;stroke-linecap:butt;stroke-linejoin:miter;stroke-opacity:1" d="M 584.886,796.268 601.53,802.926 z" id="boundary" inkscape:connector-curvature="0" />
	<path style="fill:none;stroke:red;stroke-width:1px;stroke-linecap:butt;stroke-linejoin:miter;stroke-opacity:1" d="M 649.799,696.403 634.819,688.081 z" id="boundary" inkscape:connector-curvature="0" />
	<path style="fill:none;stroke:red;stroke-width:1px;stroke-linecap:butt;stroke-linejoin:miter;stroke-opacity:1" d="M 666.443,696.403 649.799,696.403 z" id="boundary" inkscape:connector-curvature="0" />
	<path style="fill:none;stroke:red;stroke-width:1px;stroke-linecap:butt;stroke-linejoin:miter;stroke-opacity:1" d="M 618.174,688.081 634.819,688.081 z" id="boundary" inkscape:connector-curvature="0" />
	<path style="fill:none;stroke:red;stroke-width:1px;stroke-linecap:butt;stroke-linejoin:miter;stroke-opacity:1" d="M 606.523,971.034 591.544,979.356 z" id="boundary" inkscape:connector-curvature="0" />
	<path style="fill:none;stroke:red;stroke-width:1px;stroke-linecap:butt;stroke-linejoin:miter;stroke-opacity:1" d="M 524.966,994.336 541.611,994.336 z" id="boundary" inkscape:connector-curvature="0" />
	<path style="fill:none;stroke:red;stroke-width:1px;stroke-linecap:butt;stroke-linejoin:miter;stroke-opacity:1" d="M 558.255,987.678 541.611,994.336 z" id="boundary" inkscape:connector-curvature="0" />
	<path style="fill:none;stroke:red;stroke-width:1px;stroke-linecap:butt;stroke-linejoin:miter;stroke-opacity:1" d="M 558.255,987.678 574.899,986.013 z" id="boundary" inkscape:connector-curvature="0" />
	<path style="fill:none;stroke:red;stroke-width:1px;stroke-linecap:butt;stroke-linejoin:miter;stroke-opacity:1" d="M 591.544,979.356 574.899,986.013 z" id="boundary" inkscape:connector-curvature="0" />
	<path style="fill:none;stroke:red;stroke-width:1px;stroke-linecap:butt;stroke-linejoin:miter;stroke-opacity:1" d="M 601.53,802.926 616.51,811.248 z" id="boundary" inkscape:connector-curvature="0" />
	<path style="fill:none;stroke:red;stroke-width:1px;stroke-linecap:butt;stroke-linejoin:miter;stroke-opacity:1" d="M 648.134,819.57 631.49,819.57 z" id="boundary" inkscape:connector-curvature="0" />
	<path style="fill:none;stroke:red;stroke-width:1px;stroke-linecap:butt;stroke-linejoin:miter;stroke-opacity:1" d="M 631.49,819.57 616.51,811.248 z" id="boundary" inkscape:connector-curvature="0" />
	<path style="fill:none;stroke:red;stroke-width:1px;stroke-linecap:butt;stroke-linejoin:miter;stroke-opacity:1" d="M 648.134,819.57 663.114,827.893 z" id="boundary" inkscape:connector-curvature="0" />
	<path style="fill:none;stroke:red;stroke-width:1px;stroke-linecap:butt;stroke-linejoin:miter;stroke-opacity:1" d="M 621.503,962.711 638.148,962.711 z" id="boundary" inkscape:connector-curvature="0" />
	<path style="fill:none;stroke:red;stroke-width:1px;stroke-linecap:butt;stroke-linejoin:miter;stroke-opacity:1" d="M 606.523,971.034 621.503,962.711 z" id="boundary" inkscape:connector-curvature="0" />
	<path style="fill:none;stroke:red;stroke-width:1px;stroke-linecap:butt;stroke-linejoin:miter;stroke-opacity:1" d="M 653.128,954.389 638.148,962.711 z" id="boundary" inkscape:connector-curvature="0" />
	<path style="fill:none;stroke:red;stroke-width:1px;stroke-linecap:butt;stroke-linejoin:miter;stroke-opacity:1" d="M 668.107,946.067 653.128,954.389 z" id="boundary" inkscape:connector-curvature="0" />
	<path style="fill:none;stroke:red;stroke-width:1px;stroke-linecap:butt;stroke-linejoin:miter;stroke-opacity:1" d="M 681.423,704.725 696.403,713.047 z" id="boundary" inkscape:connector-curvature="0" />
	<path style="fill:none;stroke:red;stroke-width:1px;stroke-linecap:butt;stroke-linejoin:miter;stroke-opacity:1" d="M 713.047,716.376 696.403,713.047 z" id="boundary" inkscape:connector-curvature="0" />
	<path style="fill:none;stroke:red;stroke-width:1px;stroke-linecap:butt;stroke-linejoin:miter;stroke-opacity:1" d="M 679.758,832.886 663.114,827.893 z" id="boundary" inkscape:connector-curvature="0" />
	<path style="fill:none;stroke:red;stroke-width:1px;stroke-linecap:butt;stroke-linejoin:miter;stroke-opacity:1" d="M 744.671,721.369 728.027,724.698 z" id="boundary" inkscape:connector-curvature="0" />
	<path style="fill:none;stroke:red;stroke-width:1px;stroke-linecap:butt;stroke-linejoin:miter;stroke-opacity:1" d="M 728.027,724.698 713.047,716.376 z" id="boundary" inkscape:connector-curvature="0" />
	<path style="fill:none;stroke:red;stroke-width:1px;stroke-linecap:butt;stroke-linejoin:miter;stroke-opacity:1" d="M 744.671,721.369 759.651,729.691 z" id="boundary" inkscape:connector-curvature="0" />
	<path style="fill:none;stroke:red;stroke-width:1px;stroke-linecap:butt;stroke-linejoin:miter;stroke-opacity:1" d="M 681.423,704.725 666.443,696.403 z" id="boundary" inkscape:connector-curvature="0" />
	<path style="fill:none;stroke:red;stroke-width:1px;stroke-linecap:butt;stroke-linejoin:miter;stroke-opacity:1" d="M 791.275,628.161 804.591,638.148 z" id="boundary" inkscape:connector-curvature="0" />
	<path style="fill:none;stroke:red;stroke-width:1px;stroke-linecap:butt;stroke-linejoin:miter;stroke-opacity:1" d="M 812.913,653.128 804.591,638.148 z" id="boundary" inkscape:connector-curvature="0" />
	<path style="fill:none;stroke:red;stroke-width:1px;stroke-linecap:butt;stroke-linejoin:miter;stroke-opacity:1" d="M 812.913,653.128 812.913,669.772 z" id="boundary" inkscape:connector-curvature="0" />
	<path style="fill:none;stroke:red;stroke-width:1px;stroke-linecap:butt;stroke-linejoin:miter;stroke-opacity:1" d="M 791.275,719.705 776.295,729.691 z" id="boundary" inkscape:connector-curvature="0" />
	<path style="fill:none;stroke:red;stroke-width:1px;stroke-linecap:butt;stroke-linejoin:miter;stroke-opacity:1" d="M 776.295,729.691 759.651,729.691 z" id="boundary" inkscape:connector-curvature="0" />
	<path style="fill:none;stroke:red;stroke-width:1px;stroke-linecap:butt;stroke-linejoin:miter;stroke-opacity:1" d="M 804.591,696.403 812.913,669.772 z" id="boundary" inkscape:connector-curvature="0" />
	<path style="fill:none;stroke:red;stroke-width:1px;stroke-linecap:butt;stroke-linejoin:miter;stroke-opacity:1" d="M 804.591,696.403 791.275,719.705 z" id="boundary" inkscape:connector-curvature="0" />
	<path style="fill:none;stroke:red;stroke-width:1px;stroke-linecap:butt;stroke-linejoin:miter;stroke-opacity:1" d="M 679.758,832.886 696.403,836.215 z" id="boundary" inkscape:connector-curvature="0" />
	<path style="fill:none;stroke:red;stroke-width:1px;stroke-linecap:butt;stroke-linejoin:miter;stroke-opacity:1" d="M 711.383,844.537 696.403,836.215 z" id="boundary" inkscape:connector-curvature="0" />
	<path style="fill:none;stroke:red;stroke-width:1px;stroke-linecap:butt;stroke-linejoin:miter;stroke-opacity:1" d="M 683.087,937.745 668.107,946.067 z" id="boundary" inkscape:connector-curvature="0" />
	<path style="fill:none;stroke:red;stroke-width:1px;stroke-linecap:butt;stroke-linejoin:miter;stroke-opacity:1" d="M 713.047,921.101 698.067,929.423 z" id="boundary" inkscape:connector-curvature="0" />
	<path style="fill:none;stroke:red;stroke-width:1px;stroke-linecap:butt;stroke-linejoin:miter;stroke-opacity:1" d="M 698.067,929.423 683.087,937.745 z" id="boundary" inkscape:connector-curvature="0" />
	<path style="fill:none;stroke:red;stroke-width:1px;stroke-linecap:butt;stroke-linejoin:miter;stroke-opacity:1" d="M 711.383,844.537 726.362,852.859 z" id="boundary" inkscape:connector-curvature="0" />
	<path style="fill:none;stroke:red;stroke-width:1px;stroke-linecap:butt;stroke-linejoin:miter;stroke-opacity:1" d="M 741.342,861.181 726.362,852.859 z" id="boundary" inkscape:connector-curvature="0" />
	<path style="fill:none;stroke:red;stroke-width:1px;stroke-linecap:butt;stroke-linejoin:miter;stroke-opacity:1" d="M 754.658,871.168 741.342,861.181 z" id="boundary" inkscape:connector-curvature="0" />
	<path style="fill:none;stroke:red;stroke-width:1px;stroke-linecap:butt;stroke-linejoin:miter;stroke-opacity:1" d="M 743.007,904.456 728.027,912.779 z" id="boundary" inkscape:connector-curvature="0" />
	<path style="fill:none;stroke:red;stroke-width:1px;stroke-linecap:butt;stroke-linejoin:miter;stroke-opacity:1" d="M 754.658,871.168 757.987,894.47 z" id="boundary" inkscape:connector-curvature="0" />
	<path style="fill:none;stroke:red;stroke-width:1px;stroke-linecap:butt;stroke-linejoin:miter;stroke-opacity:1" d="M 757.987,894.47 743.007,904.456 z" id="boundary" inkscape:connector-curvature="0" />
	<path style="fill:none;stroke:red;stroke-width:1px;stroke-linecap:butt;stroke-linejoin:miter;stroke-opacity:1" d="M 728.027,912.779 713.047,921.101 z" id="boundary" inkscape:connector-curvature="0" />
	<circle cx="4" cy="200.403" r="4" fill="#0" id="circle0"/>
	<circle cx="12.3221" cy="215.383" r="4" fill="#0" id="circle1"/>
	<circle cx="17.3154" cy="187.087" r="4" fill="#0" id="circle2"/>
	<circle cx="20.6443" cy="230.362" r="4" fill="#0" id="circle3"/>
	<circle cx="30.6309" cy="173.772" r="4" fill="#0" id="circle4"/>
	<circle cx="35.6242" cy="238.685" r="4" fill="#0" id="circle5"/>
	<circle cx="37.2886" cy="683.087" r="4" fill="#0" id="circle6"/>
	<circle cx="37.2886" cy="699.732" r="4" fill="#0" id="circle7"/>
	<circle cx="42.2819" cy="255.329" r="4" fill="#0" id="circle8"/>
	<circle cx="43.9463" cy="162.121" r="4" fill="#0" id="circle9"/>
	<circle cx="45.6107" cy="658.121" r="4" fill="#0" id="circle10"/>
	<circle cx="45.6107" cy="714.711" r="4" fill="#0" id="circle11"/>
	<circle cx="45.6107" cy="731.356" r="4" fill="#0" id="circle12"/>
	<circle cx="53.9329" cy="641.477" r="4" fill="#0" id="circle13"/>
	<circle cx="53.9329" cy="746.336" r="4" fill="#0" id="circle14"/>
	<circle cx="58.9262" cy="261.987" r="4" fill="#0" id="circle15"/>
	<circle cx="58.9262" cy="762.98" r="4" fill="#0" id="circle16"/>
	<circle cx="60.5906" cy="162.121" r="4" fill="#0" id="circle17"/>
	<circle cx="62.255" cy="624.832" r="4" fill="#0" id="circle18"/>
	<circle cx="70.5772" cy="275.302" r="4" fill="#0" id="circle19"/>
	<circle cx="70.5772" cy="608.188" r="4" fill="#0" id="circle20"/>
	<circle cx="70.5772" cy="776.295" r="4" fill="#0" id="circle21"/>
	<circle cx="72.2416" cy="148.805" r="4" fill="#0" id="circle22"/>
	<circle cx="78.8993" cy="591.544" r="4" fill="#0" id="circle23"/>
	<circle cx="83.8926" cy="286.953" r="4" fill="#0" id="circle24"/>
	<circle cx="83.8926" cy="787.946" r="4" fill="#0" id="circle25"/>
	<circle cx="85.557" cy="137.154" r="4" fill="#0" id="circle26"/>
	<circle cx="87.2215" cy="574.899" r="4" fill="#0" id="circle27"/>
	<circle cx="95.5436" cy="300.268" r="4" fill="#0" id="circle28"/>
	<circle cx="97.2081" cy="123.839" r="4" fill="#0" id="circle29"/>
	<circle cx="98.8725" cy="779.624" r="4" fill="#0" id="circle30"/>
	<circle cx="100.537" cy="561.584" r="4" fill="#0" id="circle31"/>
	<circle cx="103.866" cy="315.248" r="4" fill="#0" id="circle32"/>
	<circle cx="103.866" cy="541.611" r="4" fill="#0" id="circle33"/>
	<circle cx="110.523" cy="112.188" r="4" fill="#0" id="circle34"/>
	<circle cx="112.188" cy="330.228" r="4" fill="#0" id="circle35"/>
	<circle cx="112.188" cy="524.966" r="4" fill="#0" id="circle36"/>
	<circle cx="115.517" cy="779.624" r="4" fill="#0" id="circle37"/>
	<circle cx="117.181" cy="346.872" r="4" fill="#0" id="circle38"/>
	<circle cx="120.51" cy="491.678" r="4" fill="#0" id="circle39"/>
	<circle cx="120.51" cy="508.322" r="4" fill="#0" id="circle40"/>
	<circle cx="122.174" cy="98.8725" r="4" fill="#0" id="circle41"/>
	<circle cx="125.503" cy="361.852" r="4" fill="#0" id="circle42"/>
	<circle cx="128.832" cy="378.497" r="4" fill="#0" id="circle43"/>
	<circle cx="128.832" cy="416.779" r="4" fill="#0" id="circle44"/>
	<circle cx="128.832" cy="450.067" r="4" fill="#0" id="circle45"/>
	<circle cx="128.832" cy="466.711" r="4" fill="#0" id="circle46"/>
	<circle cx="130.497" cy="787.946" r="4" fill="#0" id="circle47"/>
	<circle cx="132.161" cy="395.141" r="4" fill="#0" id="circle48"/>
	<circle cx="137.154" cy="431.758" r="4" fill="#0" id="circle49"/>
	<circle cx="138.819" cy="90.5503" r="4" fill="#0" id="circle50"/>
	<circle cx="145.477" cy="796.268" r="4" fill="#0" id="circle51"/>
	<circle cx="152.134" cy="78.8993" r="4" fill="#0" id="circle52"/>
	<circle cx="153.799" cy="811.248" r="4" fill="#0" id="circle53"/>
	<circle cx="162.121" cy="826.228" r="4" fill="#0" id="circle54"/>
	<circle cx="167.114" cy="70.5772" r="4" fill="#0" id="circle55"/>
	<circle cx="170.443" cy="841.208" r="4" fill="#0" id="circle56"/>
	<circle cx="178.765" cy="856.188" r="4" fill="#0" id="circle57"/>
	<circle cx="180.43" cy="57.2617" r="4" fill="#0" id="circle58"/>
	<circle cx="187.087" cy="871.168" r="4" fill="#0" id="circle59"/>
	<circle cx="197.074" cy="48.9396" r="4" fill="#0" id="circle60"/>
	<circle cx="197.074" cy="884.483" r="4" fill="#0" id="circle61"/>
	<circle cx="210.389" cy="896.134" r="4" fill="#0" id="circle62"/>
	<circle cx="213.718" cy="40.6174" r="4" fill="#0" id="circle63"/>
	<circle cx="222.04" cy="909.45" r="4" fill="#0" id="circle64"/>
	<circle cx="230.362" cy="32.2953" r="4" fill="#0" id="circle65"/>
	<circle cx="238.685" cy="912.779" r="4" fill="#0" id="circle66"/>
	<circle cx="247.007" cy="23.9732" r="4" fill="#0" id="circle67"/>
	<circle cx="253.664" cy="921.101" r="4" fill="#0" id="circle68"/>
	<circle cx="263.651" cy="15.651" r="4" fill="#0" id="circle69"/>
	<circle cx="270.309" cy="921.101" r="4" fill="#0" id="circle70"/>
	<circle cx="280.295" cy="7.32886" r="4" fill="#0" id="circle71"/>
	<circle cx="286.953" cy="921.101" r="4" fill="#0" id="circle72"/>
	<circle cx="296.94" cy="7.32886" r="4" fill="#0" id="circle73"/>
	<circle cx="301.933" cy="929.423" r="4" fill="#0" id="circle74"/>
	<circle cx="313.584" cy="4" r="4" fill="#0" id="circle75"/>
	<circle cx="316.913" cy="937.745" r="4" fill="#0" id="circle76"/>
	<circle cx="330.228" cy="4" r="4" fill="#0" id="circle77"/>
	<circle cx="333.557" cy="944.403" r="4" fill="#0" id="circle78"/>
	<circle cx="346.872" cy="4" r="4" fill="#0" id="circle79"/>
	<circle cx="348.537" cy="952.725" r="4" fill="#0" id="circle80"/>
	<circle cx="363.517" cy="4" r="4" fill="#0" id="circle81"/>
	<circle cx="365.181" cy="954.389" r="4" fill="#0" id="circle82"/>
	<circle cx="380.161" cy="8.99329" r="4" fill="#0" id="circle83"/>
	<circle cx="380.161" cy="962.711" r="4" fill="#0" id="circle84"/>
	<circle cx="395.141" cy="971.034" r="4" fill="#0" id="circle85"/>
	<circle cx="396.805" cy="4" r="4" fill="#0" id="circle86"/>
	<circle cx="411.785" cy="12.3221" r="4" fill="#0" id="circle87"/>
	<circle cx="411.785" cy="971.034" r="4" fill="#0" id="circle88"/>
	<circle cx="426.765" cy="979.356" r="4" fill="#0" id="circle89"/>
	<circle cx="428.43" cy="12.3221" r="4" fill="#0" id="circle90"/>
	<circle cx="441.745" cy="987.678" r="4" fill="#0" id="circle91"/>
	<circle cx="445.074" cy="12.3221" r="4" fill="#0" id="circle92"/>
	<circle cx="458.389" cy="994.336" r="4" fill="#0" id="circle93"/>
	<circle cx="460.054" cy="20.6443" r="4" fill="#0" id="circle94"/>
	<circle cx="475.034" cy="28.9664" r="4" fill="#0" id="circle95"/>
	<circle cx="475.034" cy="994.336" r="4" fill="#0" id="circle96"/>
	<circle cx="490.013" cy="37.2886" r="4" fill="#0" id="circle97"/>
	<circle cx="491.678" cy="996" r="4" fill="#0" id="circle98"/>
	<circle cx="496.671" cy="762.98" r="4" fill="#0" id="circle99"/>
	<circle cx="504.993" cy="45.6107" r="4" fill="#0" id="circle100"/>
	<circle cx="504.993" cy="746.336" r="4" fill="#0" id="circle101"/>
	<circle cx="504.993" cy="777.96" r="4" fill="#0" id="circle102"/>
	<circle cx="508.322" cy="996" r="4" fill="#0" id="circle103"/>
	<circle cx="518.309" cy="734.685" r="4" fill="#0" id="circle104"/>
	<circle cx="519.973" cy="786.282" r="4" fill="#0" id="circle105"/>
	<circle cx="521.638" cy="50.604" r="4" fill="#0" id="circle106"/>
	<circle cx="524.966" cy="994.336" r="4" fill="#0" id="circle107"/>
	<circle cx="526.631" cy="718.04" r="4" fill="#0" id="circle108"/>
	<circle cx="534.953" cy="62.255" r="4" fill="#0" id="circle109"/>
	<circle cx="536.617" cy="789.611" r="4" fill="#0" id="circle110"/>
	<circle cx="538.282" cy="704.725" r="4" fill="#0" id="circle111"/>
	<circle cx="541.611" cy="994.336" r="4" fill="#0" id="circle112"/>
	<circle cx="546.604" cy="75.5705" r="4" fill="#0" id="circle113"/>
	<circle cx="553.262" cy="696.403" r="4" fill="#0" id="circle114"/>
	<circle cx="553.262" cy="789.611" r="4" fill="#0" id="circle115"/>
	<circle cx="558.255" cy="987.678" r="4" fill="#0" id="circle116"/>
	<circle cx="561.584" cy="83.8926" r="4" fill="#0" id="circle117"/>
	<circle cx="568.242" cy="688.081" r="4" fill="#0" id="circle118"/>
	<circle cx="568.242" cy="797.933" r="4" fill="#0" id="circle119"/>
	<circle cx="574.899" cy="95.5436" r="4" fill="#0" id="circle120"/>
	<circle cx="574.899" cy="986.013" r="4" fill="#0" id="circle121"/>
	<circle cx="584.886" cy="688.081" r="4" fill="#0" id="circle122"/>
	<circle cx="584.886" cy="796.268" r="4" fill="#0" id="circle123"/>
	<circle cx="586.55" cy="108.859" r="4" fill="#0" id="circle124"/>
	<circle cx="591.544" cy="979.356" r="4" fill="#0" id="circle125"/>
	<circle cx="599.866" cy="120.51" r="4" fill="#0" id="circle126"/>
	<circle cx="601.53" cy="688.081" r="4" fill="#0" id="circle127"/>
	<circle cx="601.53" cy="802.926" r="4" fill="#0" id="circle128"/>
	<circle cx="606.523" cy="971.034" r="4" fill="#0" id="circle129"/>
	<circle cx="614.846" cy="128.832" r="4" fill="#0" id="circle130"/>
	<circle cx="616.51" cy="811.248" r="4" fill="#0" id="circle131"/>
	<circle cx="618.174" cy="688.081" r="4" fill="#0" id="circle132"/>
	<circle cx="621.503" cy="222.04" r="4" fill="#0" id="circle133"/>
	<circle cx="621.503" cy="238.685" r="4" fill="#0" id="circle134"/>
	<circle cx="621.503" cy="546.604" r="4" fill="#0" id="circle135"/>
	<circle cx="621.503" cy="962.711" r="4" fill="#0" id="circle136"/>
	<circle cx="624.832" cy="255.329" r="4" fill="#0" id="circle137"/>
	<circle cx="624.832" cy="563.248" r="4" fill="#0" id="circle138"/>
	<circle cx="628.161" cy="140.483" r="4" fill="#0" id="circle139"/>
	<circle cx="629.826" cy="205.396" r="4" fill="#0" id="circle140"/>
	<circle cx="631.49" cy="819.57" r="4" fill="#0" id="circle141"/>
	<circle cx="633.154" cy="578.228" r="4" fill="#0" id="circle142"/>
	<circle cx="634.819" cy="688.081" r="4" fill="#0" id="circle143"/>
	<circle cx="638.148" cy="538.282" r="4" fill="#0" id="circle144"/>
	<circle cx="638.148" cy="962.711" r="4" fill="#0" id="circle145"/>
	<circle cx="641.477" cy="261.987" r="4" fill="#0" id="circle146"/>
	<circle cx="643.141" cy="148.805" r="4" fill="#0" id="circle147"/>
	<circle cx="643.141" cy="193.745" r="4" fill="#0" id="circle148"/>
	<circle cx="644.805" cy="591.544" r="4" fill="#0" id="circle149"/>
	<circle cx="646.47" cy="172.107" r="4" fill="#0" id="circle150"/>
	<circle cx="648.134" cy="819.57" r="4" fill="#0" id="circle151"/>
	<circle cx="649.799" cy="696.403" r="4" fill="#0" id="circle152"/>
	<circle cx="653.128" cy="954.389" r="4" fill="#0" id="circle153"/>
	<circle cx="654.792" cy="529.96" r="4" fill="#0" id="circle154"/>
	<circle cx="656.456" cy="270.309" r="4" fill="#0" id="circle155"/>
	<circle cx="661.45" cy="598.201" r="4" fill="#0" id="circle156"/>
	<circle cx="663.114" cy="827.893" r="4" fill="#0" id="circle157"/>
	<circle cx="666.443" cy="696.403" r="4" fill="#0" id="circle158"/>
	<circle cx="668.107" cy="518.309" r="4" fill="#0" id="circle159"/>
	<circle cx="668.107" cy="946.067" r="4" fill="#0" id="circle160"/>
	<circle cx="673.101" cy="270.309" r="4" fill="#0" id="circle161"/>
	<circle cx="678.094" cy="603.195" r="4" fill="#0" id="circle162"/>
	<circle cx="679.758" cy="832.886" r="4" fill="#0" id="circle163"/>
	<circle cx="681.423" cy="704.725" r="4" fill="#0" id="circle164"/>
	<circle cx="683.087" cy="937.745" r="4" fill="#0" id="circle165"/>
	<circle cx="684.752" cy="509.987" r="4" fill="#0" id="circle166"/>
	<circle cx="689.745" cy="270.309" r="4" fill="#0" id="circle167"/>
	<circle cx="694.738" cy="603.195" r="4" fill="#0" id="circle168"/>
	<circle cx="696.403" cy="496.671" r="4" fill="#0" id="circle169"/>
	<circle cx="696.403" cy="713.047" r="4" fill="#0" id="circle170"/>
	<circle cx="696.403" cy="836.215" r="4" fill="#0" id="circle171"/>
	<circle cx="698.067" cy="929.423" r="4" fill="#0" id="circle172"/>
	<circle cx="706.389" cy="270.309" r="4" fill="#0" id="circle173"/>
	<circle cx="709.718" cy="485.02" r="4" fill="#0" id="circle174"/>
	<circle cx="709.718" cy="611.517" r="4" fill="#0" id="circle175"/>
	<circle cx="711.383" cy="844.537" r="4" fill="#0" id="circle176"/>
	<circle cx="713.047" cy="716.376" r="4" fill="#0" id="circle177"/>
	<circle cx="713.047" cy="921.101" r="4" fill="#0" id="circle178"/>
	<circle cx="721.369" cy="471.705" r="4" fill="#0" id="circle179"/>
	<circle cx="723.034" cy="270.309" r="4" fill="#0" id="circle180"/>
	<circle cx="726.362" cy="611.517" r="4" fill="#0" id="circle181"/>
	<circle cx="726.362" cy="852.859" r="4" fill="#0" id="circle182"/>
	<circle cx="728.027" cy="724.698" r="4" fill="#0" id="circle183"/>
	<circle cx="728.027" cy="912.779" r="4" fill="#0" id="circle184"/>
	<circle cx="734.685" cy="460.054" r="4" fill="#0" id="circle185"/>
	<circle cx="739.678" cy="263.651" r="4" fill="#0" id="circle186"/>
	<circle cx="741.342" cy="861.181" r="4" fill="#0" id="circle187"/>
	<circle cx="743.007" cy="611.517" r="4" fill="#0" id="circle188"/>
	<circle cx="743.007" cy="904.456" r="4" fill="#0" id="circle189"/>
	<circle cx="744.671" cy="721.369" r="4" fill="#0" id="circle190"/>
	<circle cx="746.336" cy="446.738" r="4" fill="#0" id="circle191"/>
	<circle cx="754.658" cy="430.094" r="4" fill="#0" id="circle192"/>
	<circle cx="754.658" cy="871.168" r="4" fill="#0" id="circle193"/>
	<circle cx="756.322" cy="270.309" r="4" fill="#0" id="circle194"/>
	<circle cx="757.987" cy="894.47" r="4" fill="#0" id="circle195"/>
	<circle cx="759.651" cy="613.181" r="4" fill="#0" id="circle196"/>
	<circle cx="759.651" cy="729.691" r="4" fill="#0" id="circle197"/>
	<circle cx="762.98" cy="413.45" r="4" fill="#0" id="circle198"/>
	<circle cx="771.302" cy="278.631" r="4" fill="#0" id="circle199"/>
	<circle cx="776.295" cy="401.799" r="4" fill="#0" id="circle200"/>
	<circle cx="776.295" cy="619.839" r="4" fill="#0" id="circle201"/>
	<circle cx="776.295" cy="729.691" r="4" fill="#0" id="circle202"/>
	<circle cx="779.624" cy="293.611" r="4" fill="#0" id="circle203"/>
	<circle cx="784.617" cy="385.154" r="4" fill="#0" id="circle204"/>
	<circle cx="787.946" cy="363.517" r="4" fill="#0" id="circle205"/>
	<circle cx="791.275" cy="628.161" r="4" fill="#0" id="circle206"/>
	<circle cx="791.275" cy="719.705" r="4" fill="#0" id="circle207"/>
	<circle cx="792.94" cy="305.262" r="4" fill="#0" id="circle208"/>
	<circle cx="796.268" cy="321.906" r="4" fill="#0" id="circle209"/>
	<circle cx="796.268" cy="338.55" r="4" fill="#0" id="circle210"/>
	<circle cx="804.591" cy="638.148" r="4" fill="#0" id="circle211"/>
	<circle cx="804.591" cy="696.403" r="4" fill="#0" id="circle212"/>
	<circle cx="812.913" cy="653.128" r="4" fill="#0" id="circle213"/>
	<circle cx="812.913" cy="669.772" r="4" fill="#0" id="circle214"/>
	</g>
</svg>