<?xml version="1.0" encoding="UTF-8" standalone="no"?>
<!-- Created with CurveBenchmark -->
<svg
	xmlns:dc="http://purl.org/dc/elements/1.1/"
	xmlns:cc="http://creativecommons.org/ns#"
	xmlns:rdf="http://www.w3.org/1999/02/22-rdf-syntax-ns#"
	xmlns:svg="http://www.w3.org/2000/svg"
	xmlns="http://www.w3.org/2000/svg"
	xmlns:sodipodi="http://sodipodi.sourceforge.net/DTD/sodipodi-0.dtd"
	xmlns:inkscape="http://www.inkscape.org/namespaces/inkscape"
	width="1000"
	height="1000"
	id="svg2"
	version="1.1"
	sodipodi:docname="manifold/ccrust-teddy200.png.txt">
<defs
	id="defs4" />
<metadata
	id="metadata7">
	<rdf:RDF>
		<cc:Work
			rdf:about="">
			<dc:format>image/svg+xml</dc:format>
			<dc:type
				rdf:resource="http://purl.org/dc/dcmitype/StillImage" />
			<dc:title></dc:title>
		</cc:Work>
	</rdf:RDF>
</metadata>
<g
	inkscape:label="Layer 1"
	inkscape:groupmode="layer"
	id="layer1">
	<path style="fill:none;stroke:red;stroke-width:1px;stroke-linecap:butt;stroke-linejoin:miter;stroke-opacity:1" d="M 100.091,66.1766 117.048,43.567 z" id="boundary" inkscape:connector-curvature="0" />
	<path style="fill:none;stroke:red;stroke-width:1px;stroke-linecap:butt;stroke-linejoin:miter;stroke-opacity:1" d="M 105.744,94.4387 100.091,66.1766 z" id="boundary" inkscape:connector-curvature="0" />
	<path style="fill:none;stroke:red;stroke-width:1px;stroke-linecap:butt;stroke-linejoin:miter;stroke-opacity:1" d="M 105.744,94.4387 108.57,122.701 z" id="boundary" inkscape:connector-curvature="0" />
	<path style="fill:none;stroke:red;stroke-width:1px;stroke-linecap:butt;stroke-linejoin:miter;stroke-opacity:1" d="M 117.048,43.567 139.658,20.9573 z" id="boundary" inkscape:connector-curvature="0" />
	<path style="fill:none;stroke:red;stroke-width:1px;stroke-linecap:butt;stroke-linejoin:miter;stroke-opacity:1" d="M 134.006,176.399 119.875,150.963 z" id="boundary" inkscape:connector-curvature="0" />
	<path style="fill:none;stroke:red;stroke-width:1px;stroke-linecap:butt;stroke-linejoin:miter;stroke-opacity:1" d="M 119.875,150.963 108.57,122.701 z" id="boundary" inkscape:connector-curvature="0" />
	<path style="fill:none;stroke:red;stroke-width:1px;stroke-linecap:butt;stroke-linejoin:miter;stroke-opacity:1" d="M 145.311,204.661 134.006,176.399 z" id="boundary" inkscape:connector-curvature="0" />
	<path style="fill:none;stroke:red;stroke-width:1px;stroke-linecap:butt;stroke-linejoin:miter;stroke-opacity:1" d="M 145.311,232.923 145.311,204.661 z" id="boundary" inkscape:connector-curvature="0" />
	<path style="fill:none;stroke:red;stroke-width:1px;stroke-linecap:butt;stroke-linejoin:miter;stroke-opacity:1" d="M 49.2194,439.236 71.8291,416.627 z" id="boundary" inkscape:connector-curvature="0" />
	<path style="fill:none;stroke:red;stroke-width:1px;stroke-linecap:butt;stroke-linejoin:miter;stroke-opacity:1" d="M 94.4387,399.67 71.8291,416.627 z" id="boundary" inkscape:connector-curvature="0" />
	<path style="fill:none;stroke:red;stroke-width:1px;stroke-linecap:butt;stroke-linejoin:miter;stroke-opacity:1" d="M 32.2621,461.846 49.2194,439.236 z" id="boundary" inkscape:connector-curvature="0" />
	<path style="fill:none;stroke:red;stroke-width:1px;stroke-linecap:butt;stroke-linejoin:miter;stroke-opacity:1" d="M 94.4387,399.67 122.701,388.365 z" id="boundary" inkscape:connector-curvature="0" />
	<path style="fill:none;stroke:red;stroke-width:1px;stroke-linecap:butt;stroke-linejoin:miter;stroke-opacity:1" d="M 145.311,261.185 150.963,289.447 z" id="boundary" inkscape:connector-curvature="0" />
	<path style="fill:none;stroke:red;stroke-width:1px;stroke-linecap:butt;stroke-linejoin:miter;stroke-opacity:1" d="M 145.311,261.185 145.311,232.923 z" id="boundary" inkscape:connector-curvature="0" />
	<path style="fill:none;stroke:red;stroke-width:1px;stroke-linecap:butt;stroke-linejoin:miter;stroke-opacity:1" d="M 150.963,289.447 150.963,317.709 z" id="boundary" inkscape:connector-curvature="0" />
	<path style="fill:none;stroke:red;stroke-width:1px;stroke-linecap:butt;stroke-linejoin:miter;stroke-opacity:1" d="M 139.658,20.9573 167.92,9.65242 z" id="boundary" inkscape:connector-curvature="0" />
	<path style="fill:none;stroke:red;stroke-width:1px;stroke-linecap:butt;stroke-linejoin:miter;stroke-opacity:1" d="M 32.2621,461.846 15.3048,484.456 z" id="boundary" inkscape:connector-curvature="0" />
	<path style="fill:none;stroke:red;stroke-width:1px;stroke-linecap:butt;stroke-linejoin:miter;stroke-opacity:1" d="M 167.92,9.65242 196.182,4 z" id="boundary" inkscape:connector-curvature="0" />
	<path style="fill:none;stroke:red;stroke-width:1px;stroke-linecap:butt;stroke-linejoin:miter;stroke-opacity:1" d="M 196.182,4 224.444,9.65242 z" id="boundary" inkscape:connector-curvature="0" />
	<path style="fill:none;stroke:red;stroke-width:1px;stroke-linecap:butt;stroke-linejoin:miter;stroke-opacity:1" d="M 252.707,15.3048 224.444,9.65242 z" id="boundary" inkscape:connector-curvature="0" />
	<path style="fill:none;stroke:red;stroke-width:1px;stroke-linecap:butt;stroke-linejoin:miter;stroke-opacity:1" d="M 252.707,15.3048 278.142,29.4359 z" id="boundary" inkscape:connector-curvature="0" />
	<path style="fill:none;stroke:red;stroke-width:1px;stroke-linecap:butt;stroke-linejoin:miter;stroke-opacity:1" d="M 416.627,43.567 444.889,37.9145 z" id="boundary" inkscape:connector-curvature="0" />
	<path style="fill:none;stroke:red;stroke-width:1px;stroke-linecap:butt;stroke-linejoin:miter;stroke-opacity:1" d="M 495.761,9.65242 470.325,23.7835 z" id="boundary" inkscape:connector-curvature="0" />
	<path style="fill:none;stroke:red;stroke-width:1px;stroke-linecap:butt;stroke-linejoin:miter;stroke-opacity:1" d="M 470.325,23.7835 444.889,37.9145 z" id="boundary" inkscape:connector-curvature="0" />
	<path style="fill:none;stroke:red;stroke-width:1px;stroke-linecap:butt;stroke-linejoin:miter;stroke-opacity:1" d="M 524.023,4 495.761,9.65242 z" id="boundary" inkscape:connector-curvature="0" />
	<path style="fill:none;stroke:red;stroke-width:1px;stroke-linecap:butt;stroke-linejoin:miter;stroke-opacity:1" d="M 278.142,29.4359 303.578,43.567 z" id="boundary" inkscape:connector-curvature="0" />
	<path style="fill:none;stroke:red;stroke-width:1px;stroke-linecap:butt;stroke-linejoin:miter;stroke-opacity:1" d="M 150.963,382.712 122.701,388.365 z" id="boundary" inkscape:connector-curvature="0" />
	<path style="fill:none;stroke:red;stroke-width:1px;stroke-linecap:butt;stroke-linejoin:miter;stroke-opacity:1" d="M 162.268,345.972 150.963,317.709 z" id="boundary" inkscape:connector-curvature="0" />
	<path style="fill:none;stroke:red;stroke-width:1px;stroke-linecap:butt;stroke-linejoin:miter;stroke-opacity:1" d="M 179.225,371.407 150.963,382.712 z" id="boundary" inkscape:connector-curvature="0" />
	<path style="fill:none;stroke:red;stroke-width:1px;stroke-linecap:butt;stroke-linejoin:miter;stroke-opacity:1" d="M 162.268,345.972 179.225,371.407 z" id="boundary" inkscape:connector-curvature="0" />
	<path style="fill:none;stroke:red;stroke-width:1px;stroke-linecap:butt;stroke-linejoin:miter;stroke-opacity:1" d="M 331.84,43.567 303.578,43.567 z" id="boundary" inkscape:connector-curvature="0" />
	<path style="fill:none;stroke:red;stroke-width:1px;stroke-linecap:butt;stroke-linejoin:miter;stroke-opacity:1" d="M 416.627,43.567 388.365,37.9145 z" id="boundary" inkscape:connector-curvature="0" />
	<path style="fill:none;stroke:red;stroke-width:1px;stroke-linecap:butt;stroke-linejoin:miter;stroke-opacity:1" d="M 388.365,37.9145 360.103,43.567 z" id="boundary" inkscape:connector-curvature="0" />
	<path style="fill:none;stroke:red;stroke-width:1px;stroke-linecap:butt;stroke-linejoin:miter;stroke-opacity:1" d="M 360.103,43.567 331.84,43.567 z" id="boundary" inkscape:connector-curvature="0" />
	<path style="fill:none;stroke:red;stroke-width:1px;stroke-linecap:butt;stroke-linejoin:miter;stroke-opacity:1" d="M 4,518.37 15.3048,484.456 z" id="boundary" inkscape:connector-curvature="0" />
	<path style="fill:none;stroke:red;stroke-width:1px;stroke-linecap:butt;stroke-linejoin:miter;stroke-opacity:1" d="M 9.65242,546.632 4,518.37 z" id="boundary" inkscape:connector-curvature="0" />
	<path style="fill:none;stroke:red;stroke-width:1px;stroke-linecap:butt;stroke-linejoin:miter;stroke-opacity:1" d="M 9.65242,546.632 15.3048,574.895 z" id="boundary" inkscape:connector-curvature="0" />
	<path style="fill:none;stroke:red;stroke-width:1px;stroke-linecap:butt;stroke-linejoin:miter;stroke-opacity:1" d="M 35.0883,597.504 15.3048,574.895 z" id="boundary" inkscape:connector-curvature="0" />
	<path style="fill:none;stroke:red;stroke-width:1px;stroke-linecap:butt;stroke-linejoin:miter;stroke-opacity:1" d="M 35.0883,597.504 57.698,617.288 z" id="boundary" inkscape:connector-curvature="0" />
	<path style="fill:none;stroke:red;stroke-width:1px;stroke-linecap:butt;stroke-linejoin:miter;stroke-opacity:1" d="M 80.3077,634.245 105.744,648.376 z" id="boundary" inkscape:connector-curvature="0" />
	<path style="fill:none;stroke:red;stroke-width:1px;stroke-linecap:butt;stroke-linejoin:miter;stroke-opacity:1" d="M 80.3077,634.245 57.698,617.288 z" id="boundary" inkscape:connector-curvature="0" />
	<path style="fill:none;stroke:red;stroke-width:1px;stroke-linecap:butt;stroke-linejoin:miter;stroke-opacity:1" d="M 71.8291,851.863 71.8291,880.125 z" id="boundary" inkscape:connector-curvature="0" />
	<path style="fill:none;stroke:red;stroke-width:1px;stroke-linecap:butt;stroke-linejoin:miter;stroke-opacity:1" d="M 74.6553,936.65 71.8291,908.387 z" id="boundary" inkscape:connector-curvature="0" />
	<path style="fill:none;stroke:red;stroke-width:1px;stroke-linecap:butt;stroke-linejoin:miter;stroke-opacity:1" d="M 71.8291,851.863 83.1339,812.296 z" id="boundary" inkscape:connector-curvature="0" />
	<path style="fill:none;stroke:red;stroke-width:1px;stroke-linecap:butt;stroke-linejoin:miter;stroke-opacity:1" d="M 71.8291,880.125 71.8291,908.387 z" id="boundary" inkscape:connector-curvature="0" />
	<path style="fill:none;stroke:red;stroke-width:1px;stroke-linecap:butt;stroke-linejoin:miter;stroke-opacity:1" d="M 94.4387,772.729 117.048,750.12 z" id="boundary" inkscape:connector-curvature="0" />
	<path style="fill:none;stroke:red;stroke-width:1px;stroke-linecap:butt;stroke-linejoin:miter;stroke-opacity:1" d="M 83.1339,812.296 94.4387,772.729 z" id="boundary" inkscape:connector-curvature="0" />
	<path style="fill:none;stroke:red;stroke-width:1px;stroke-linecap:butt;stroke-linejoin:miter;stroke-opacity:1" d="M 102.917,981.869 80.3077,964.912 z" id="boundary" inkscape:connector-curvature="0" />
	<path style="fill:none;stroke:red;stroke-width:1px;stroke-linecap:butt;stroke-linejoin:miter;stroke-opacity:1" d="M 80.3077,964.912 74.6553,936.65 z" id="boundary" inkscape:connector-curvature="0" />
	<path style="fill:none;stroke:red;stroke-width:1px;stroke-linecap:butt;stroke-linejoin:miter;stroke-opacity:1" d="M 117.048,750.12 139.658,733.162 z" id="boundary" inkscape:connector-curvature="0" />
	<path style="fill:none;stroke:red;stroke-width:1px;stroke-linecap:butt;stroke-linejoin:miter;stroke-opacity:1" d="M 105.744,648.376 131.179,662.507 z" id="boundary" inkscape:connector-curvature="0" />
	<path style="fill:none;stroke:red;stroke-width:1px;stroke-linecap:butt;stroke-linejoin:miter;stroke-opacity:1" d="M 167.92,716.205 139.658,733.162 z" id="boundary" inkscape:connector-curvature="0" />
	<path style="fill:none;stroke:red;stroke-width:1px;stroke-linecap:butt;stroke-linejoin:miter;stroke-opacity:1" d="M 159.442,668.16 131.179,662.507 z" id="boundary" inkscape:connector-curvature="0" />
	<path style="fill:none;stroke:red;stroke-width:1px;stroke-linecap:butt;stroke-linejoin:miter;stroke-opacity:1" d="M 156.615,996 128.353,996 z" id="boundary" inkscape:connector-curvature="0" />
	<path style="fill:none;stroke:red;stroke-width:1px;stroke-linecap:butt;stroke-linejoin:miter;stroke-opacity:1" d="M 128.353,996 102.917,981.869 z" id="boundary" inkscape:connector-curvature="0" />
	<path style="fill:none;stroke:red;stroke-width:1px;stroke-linecap:butt;stroke-linejoin:miter;stroke-opacity:1" d="M 159.442,668.16 167.92,716.205 z" id="boundary" inkscape:connector-curvature="0" />
	<path style="fill:none;stroke:red;stroke-width:1px;stroke-linecap:butt;stroke-linejoin:miter;stroke-opacity:1" d="M 495.761,984.695 467.499,990.348 z" id="boundary" inkscape:connector-curvature="0" />
	<path style="fill:none;stroke:red;stroke-width:1px;stroke-linecap:butt;stroke-linejoin:miter;stroke-opacity:1" d="M 467.499,990.348 439.236,990.348 z" id="boundary" inkscape:connector-curvature="0" />
	<path style="fill:none;stroke:red;stroke-width:1px;stroke-linecap:butt;stroke-linejoin:miter;stroke-opacity:1" d="M 410.974,996 439.236,990.348 z" id="boundary" inkscape:connector-curvature="0" />
	<path style="fill:none;stroke:red;stroke-width:1px;stroke-linecap:butt;stroke-linejoin:miter;stroke-opacity:1" d="M 184.877,996 156.615,996 z" id="boundary" inkscape:connector-curvature="0" />
	<path style="fill:none;stroke:red;stroke-width:1px;stroke-linecap:butt;stroke-linejoin:miter;stroke-opacity:1" d="M 241.402,996 213.14,996 z" id="boundary" inkscape:connector-curvature="0" />
	<path style="fill:none;stroke:red;stroke-width:1px;stroke-linecap:butt;stroke-linejoin:miter;stroke-opacity:1" d="M 269.664,990.348 241.402,996 z" id="boundary" inkscape:connector-curvature="0" />
	<path style="fill:none;stroke:red;stroke-width:1px;stroke-linecap:butt;stroke-linejoin:miter;stroke-opacity:1" d="M 213.14,996 184.877,996 z" id="boundary" inkscape:connector-curvature="0" />
	<path style="fill:none;stroke:red;stroke-width:1px;stroke-linecap:butt;stroke-linejoin:miter;stroke-opacity:1" d="M 326.188,996 297.926,996 z" id="boundary" inkscape:connector-curvature="0" />
	<path style="fill:none;stroke:red;stroke-width:1px;stroke-linecap:butt;stroke-linejoin:miter;stroke-opacity:1" d="M 297.926,996 269.664,990.348 z" id="boundary" inkscape:connector-curvature="0" />
	<path style="fill:none;stroke:red;stroke-width:1px;stroke-linecap:butt;stroke-linejoin:miter;stroke-opacity:1" d="M 382.712,996 354.45,996 z" id="boundary" inkscape:connector-curvature="0" />
	<path style="fill:none;stroke:red;stroke-width:1px;stroke-linecap:butt;stroke-linejoin:miter;stroke-opacity:1" d="M 410.974,996 382.712,996 z" id="boundary" inkscape:connector-curvature="0" />
	<path style="fill:none;stroke:red;stroke-width:1px;stroke-linecap:butt;stroke-linejoin:miter;stroke-opacity:1" d="M 354.45,996 326.188,996 z" id="boundary" inkscape:connector-curvature="0" />
	<path style="fill:none;stroke:red;stroke-width:1px;stroke-linecap:butt;stroke-linejoin:miter;stroke-opacity:1" d="M 524.023,4 552.285,4 z" id="boundary" inkscape:connector-curvature="0" />
	<path style="fill:none;stroke:red;stroke-width:1px;stroke-linecap:butt;stroke-linejoin:miter;stroke-opacity:1" d="M 552.285,4 580.547,15.3048 z" id="boundary" inkscape:connector-curvature="0" />
	<path style="fill:none;stroke:red;stroke-width:1px;stroke-linecap:butt;stroke-linejoin:miter;stroke-opacity:1" d="M 580.547,15.3048 605.983,29.4359 z" id="boundary" inkscape:connector-curvature="0" />
	<path style="fill:none;stroke:red;stroke-width:1px;stroke-linecap:butt;stroke-linejoin:miter;stroke-opacity:1" d="M 634.245,77.4815 628.593,117.048 z" id="boundary" inkscape:connector-curvature="0" />
	<path style="fill:none;stroke:red;stroke-width:1px;stroke-linecap:butt;stroke-linejoin:miter;stroke-opacity:1" d="M 634.245,77.4815 628.593,49.2194 z" id="boundary" inkscape:connector-curvature="0" />
	<path style="fill:none;stroke:red;stroke-width:1px;stroke-linecap:butt;stroke-linejoin:miter;stroke-opacity:1" d="M 617.288,145.311 628.593,117.048 z" id="boundary" inkscape:connector-curvature="0" />
	<path style="fill:none;stroke:red;stroke-width:1px;stroke-linecap:butt;stroke-linejoin:miter;stroke-opacity:1" d="M 605.983,29.4359 628.593,49.2194 z" id="boundary" inkscape:connector-curvature="0" />
	<path style="fill:none;stroke:red;stroke-width:1px;stroke-linecap:butt;stroke-linejoin:miter;stroke-opacity:1" d="M 617.288,145.311 605.983,179.225 z" id="boundary" inkscape:connector-curvature="0" />
	<path style="fill:none;stroke:red;stroke-width:1px;stroke-linecap:butt;stroke-linejoin:miter;stroke-opacity:1" d="M 634.245,382.712 605.983,382.712 z" id="boundary" inkscape:connector-curvature="0" />
	<path style="fill:none;stroke:red;stroke-width:1px;stroke-linecap:butt;stroke-linejoin:miter;stroke-opacity:1" d="M 594.678,343.145 580.547,368.581 z" id="boundary" inkscape:connector-curvature="0" />
	<path style="fill:none;stroke:red;stroke-width:1px;stroke-linecap:butt;stroke-linejoin:miter;stroke-opacity:1" d="M 580.547,368.581 605.983,382.712 z" id="boundary" inkscape:connector-curvature="0" />
	<path style="fill:none;stroke:red;stroke-width:1px;stroke-linecap:butt;stroke-linejoin:miter;stroke-opacity:1" d="M 608.809,207.487 611.635,235.749 z" id="boundary" inkscape:connector-curvature="0" />
	<path style="fill:none;stroke:red;stroke-width:1px;stroke-linecap:butt;stroke-linejoin:miter;stroke-opacity:1" d="M 605.983,179.225 608.809,207.487 z" id="boundary" inkscape:connector-curvature="0" />
	<path style="fill:none;stroke:red;stroke-width:1px;stroke-linecap:butt;stroke-linejoin:miter;stroke-opacity:1" d="M 611.635,235.749 611.635,280.969 z" id="boundary" inkscape:connector-curvature="0" />
	<path style="fill:none;stroke:red;stroke-width:1px;stroke-linecap:butt;stroke-linejoin:miter;stroke-opacity:1" d="M 662.507,394.017 634.245,382.712 z" id="boundary" inkscape:connector-curvature="0" />
	<path style="fill:none;stroke:red;stroke-width:1px;stroke-linecap:butt;stroke-linejoin:miter;stroke-opacity:1" d="M 608.809,317.709 594.678,343.145 z" id="boundary" inkscape:connector-curvature="0" />
	<path style="fill:none;stroke:red;stroke-width:1px;stroke-linecap:butt;stroke-linejoin:miter;stroke-opacity:1" d="M 611.635,280.969 608.809,317.709 z" id="boundary" inkscape:connector-curvature="0" />
	<path style="fill:none;stroke:red;stroke-width:1px;stroke-linecap:butt;stroke-linejoin:miter;stroke-opacity:1" d="M 662.507,394.017 690.769,405.322 z" id="boundary" inkscape:connector-curvature="0" />
	<path style="fill:none;stroke:red;stroke-width:1px;stroke-linecap:butt;stroke-linejoin:miter;stroke-opacity:1" d="M 690.769,405.322 707.726,427.932 z" id="boundary" inkscape:connector-curvature="0" />
	<path style="fill:none;stroke:red;stroke-width:1px;stroke-linecap:butt;stroke-linejoin:miter;stroke-opacity:1" d="M 707.726,427.932 735.989,427.932 z" id="boundary" inkscape:connector-curvature="0" />
	<path style="fill:none;stroke:red;stroke-width:1px;stroke-linecap:butt;stroke-linejoin:miter;stroke-opacity:1" d="M 764.251,433.584 735.989,427.932 z" id="boundary" inkscape:connector-curvature="0" />
	<path style="fill:none;stroke:red;stroke-width:1px;stroke-linecap:butt;stroke-linejoin:miter;stroke-opacity:1" d="M 764.251,433.584 792.513,439.236 z" id="boundary" inkscape:connector-curvature="0" />
	<path style="fill:none;stroke:red;stroke-width:1px;stroke-linecap:butt;stroke-linejoin:miter;stroke-opacity:1" d="M 792.513,439.236 820.775,450.541 z" id="boundary" inkscape:connector-curvature="0" />
	<path style="fill:none;stroke:red;stroke-width:1px;stroke-linecap:butt;stroke-linejoin:miter;stroke-opacity:1" d="M 849.037,461.846 820.775,450.541 z" id="boundary" inkscape:connector-curvature="0" />
	<path style="fill:none;stroke:red;stroke-width:1px;stroke-linecap:butt;stroke-linejoin:miter;stroke-opacity:1" d="M 778.382,634.245 803.818,620.114 z" id="boundary" inkscape:connector-curvature="0" />
	<path style="fill:none;stroke:red;stroke-width:1px;stroke-linecap:butt;stroke-linejoin:miter;stroke-opacity:1" d="M 721.858,651.202 750.12,645.55 z" id="boundary" inkscape:connector-curvature="0" />
	<path style="fill:none;stroke:red;stroke-width:1px;stroke-linecap:butt;stroke-linejoin:miter;stroke-opacity:1" d="M 778.382,634.245 750.12,645.55 z" id="boundary" inkscape:connector-curvature="0" />
	<path style="fill:none;stroke:red;stroke-width:1px;stroke-linecap:butt;stroke-linejoin:miter;stroke-opacity:1" d="M 846.211,583.373 829.254,605.983 z" id="boundary" inkscape:connector-curvature="0" />
	<path style="fill:none;stroke:red;stroke-width:1px;stroke-linecap:butt;stroke-linejoin:miter;stroke-opacity:1" d="M 829.254,605.983 803.818,620.114 z" id="boundary" inkscape:connector-curvature="0" />
	<path style="fill:none;stroke:red;stroke-width:1px;stroke-linecap:butt;stroke-linejoin:miter;stroke-opacity:1" d="M 860.342,557.937 846.211,583.373 z" id="boundary" inkscape:connector-curvature="0" />
	<path style="fill:none;stroke:red;stroke-width:1px;stroke-linecap:butt;stroke-linejoin:miter;stroke-opacity:1" d="M 860.342,557.937 868.821,512.718 z" id="boundary" inkscape:connector-curvature="0" />
	<path style="fill:none;stroke:red;stroke-width:1px;stroke-linecap:butt;stroke-linejoin:miter;stroke-opacity:1" d="M 849.037,461.846 865.994,484.456 z" id="boundary" inkscape:connector-curvature="0" />
	<path style="fill:none;stroke:red;stroke-width:1px;stroke-linecap:butt;stroke-linejoin:miter;stroke-opacity:1" d="M 865.994,484.456 868.821,512.718 z" id="boundary" inkscape:connector-curvature="0" />
	<path style="fill:none;stroke:red;stroke-width:1px;stroke-linecap:butt;stroke-linejoin:miter;stroke-opacity:1" d="M 611.635,670.986 639.897,670.986 z" id="boundary" inkscape:connector-curvature="0" />
	<path style="fill:none;stroke:red;stroke-width:1px;stroke-linecap:butt;stroke-linejoin:miter;stroke-opacity:1" d="M 617.288,699.248 611.635,670.986 z" id="boundary" inkscape:connector-curvature="0" />
	<path style="fill:none;stroke:red;stroke-width:1px;stroke-linecap:butt;stroke-linejoin:miter;stroke-opacity:1" d="M 665.333,656.855 639.897,670.986 z" id="boundary" inkscape:connector-curvature="0" />
	<path style="fill:none;stroke:red;stroke-width:1px;stroke-linecap:butt;stroke-linejoin:miter;stroke-opacity:1" d="M 617.288,699.248 639.897,716.205 z" id="boundary" inkscape:connector-curvature="0" />
	<path style="fill:none;stroke:red;stroke-width:1px;stroke-linecap:butt;stroke-linejoin:miter;stroke-opacity:1" d="M 668.16,721.858 639.897,716.205 z" id="boundary" inkscape:connector-curvature="0" />
	<path style="fill:none;stroke:red;stroke-width:1px;stroke-linecap:butt;stroke-linejoin:miter;stroke-opacity:1" d="M 665.333,656.855 693.595,662.507 z" id="boundary" inkscape:connector-curvature="0" />
	<path style="fill:none;stroke:red;stroke-width:1px;stroke-linecap:butt;stroke-linejoin:miter;stroke-opacity:1" d="M 721.858,651.202 693.595,662.507 z" id="boundary" inkscape:connector-curvature="0" />
	<path style="fill:none;stroke:red;stroke-width:1px;stroke-linecap:butt;stroke-linejoin:miter;stroke-opacity:1" d="M 696.422,733.162 668.16,721.858 z" id="boundary" inkscape:connector-curvature="0" />
	<path style="fill:none;stroke:red;stroke-width:1px;stroke-linecap:butt;stroke-linejoin:miter;stroke-opacity:1" d="M 747.293,996 719.031,996 z" id="boundary" inkscape:connector-curvature="0" />
	<path style="fill:none;stroke:red;stroke-width:1px;stroke-linecap:butt;stroke-linejoin:miter;stroke-opacity:1" d="M 552.285,973.39 580.547,973.39 z" id="boundary" inkscape:connector-curvature="0" />
	<path style="fill:none;stroke:red;stroke-width:1px;stroke-linecap:butt;stroke-linejoin:miter;stroke-opacity:1" d="M 524.023,979.043 552.285,973.39 z" id="boundary" inkscape:connector-curvature="0" />
	<path style="fill:none;stroke:red;stroke-width:1px;stroke-linecap:butt;stroke-linejoin:miter;stroke-opacity:1" d="M 495.761,984.695 524.023,979.043 z" id="boundary" inkscape:connector-curvature="0" />
	<path style="fill:none;stroke:red;stroke-width:1px;stroke-linecap:butt;stroke-linejoin:miter;stroke-opacity:1" d="M 637.071,973.39 662.507,987.521 z" id="boundary" inkscape:connector-curvature="0" />
	<path style="fill:none;stroke:red;stroke-width:1px;stroke-linecap:butt;stroke-linejoin:miter;stroke-opacity:1" d="M 637.071,973.39 608.809,967.738 z" id="boundary" inkscape:connector-curvature="0" />
	<path style="fill:none;stroke:red;stroke-width:1px;stroke-linecap:butt;stroke-linejoin:miter;stroke-opacity:1" d="M 719.031,996 690.769,996 z" id="boundary" inkscape:connector-curvature="0" />
	<path style="fill:none;stroke:red;stroke-width:1px;stroke-linecap:butt;stroke-linejoin:miter;stroke-opacity:1" d="M 690.769,996 662.507,987.521 z" id="boundary" inkscape:connector-curvature="0" />
	<path style="fill:none;stroke:red;stroke-width:1px;stroke-linecap:butt;stroke-linejoin:miter;stroke-opacity:1" d="M 580.547,973.39 608.809,967.738 z" id="boundary" inkscape:connector-curvature="0" />
	<path style="fill:none;stroke:red;stroke-width:1px;stroke-linecap:butt;stroke-linejoin:miter;stroke-opacity:1" d="M 724.684,727.51 696.422,733.162 z" id="boundary" inkscape:connector-curvature="0" />
	<path style="fill:none;stroke:red;stroke-width:1px;stroke-linecap:butt;stroke-linejoin:miter;stroke-opacity:1" d="M 724.684,727.51 752.946,727.51 z" id="boundary" inkscape:connector-curvature="0" />
	<path style="fill:none;stroke:red;stroke-width:1px;stroke-linecap:butt;stroke-linejoin:miter;stroke-opacity:1" d="M 781.208,727.51 809.47,727.51 z" id="boundary" inkscape:connector-curvature="0" />
	<path style="fill:none;stroke:red;stroke-width:1px;stroke-linecap:butt;stroke-linejoin:miter;stroke-opacity:1" d="M 809.47,727.51 832.08,744.467 z" id="boundary" inkscape:connector-curvature="0" />
	<path style="fill:none;stroke:red;stroke-width:1px;stroke-linecap:butt;stroke-linejoin:miter;stroke-opacity:1" d="M 781.208,727.51 752.946,727.51 z" id="boundary" inkscape:connector-curvature="0" />
	<path style="fill:none;stroke:red;stroke-width:1px;stroke-linecap:butt;stroke-linejoin:miter;stroke-opacity:1" d="M 832.08,744.467 854.689,761.425 z" id="boundary" inkscape:connector-curvature="0" />
	<path style="fill:none;stroke:red;stroke-width:1px;stroke-linecap:butt;stroke-linejoin:miter;stroke-opacity:1" d="M 854.689,761.425 868.821,786.86 z" id="boundary" inkscape:connector-curvature="0" />
	<path style="fill:none;stroke:red;stroke-width:1px;stroke-linecap:butt;stroke-linejoin:miter;stroke-opacity:1" d="M 868.821,786.86 877.299,815.123 z" id="boundary" inkscape:connector-curvature="0" />
	<path style="fill:none;stroke:red;stroke-width:1px;stroke-linecap:butt;stroke-linejoin:miter;stroke-opacity:1" d="M 877.299,815.123 882.952,843.385 z" id="boundary" inkscape:connector-curvature="0" />
	<path style="fill:none;stroke:red;stroke-width:1px;stroke-linecap:butt;stroke-linejoin:miter;stroke-opacity:1" d="M 854.689,959.259 832.08,979.043 z" id="boundary" inkscape:connector-curvature="0" />
	<path style="fill:none;stroke:red;stroke-width:1px;stroke-linecap:butt;stroke-linejoin:miter;stroke-opacity:1" d="M 832.08,979.043 803.818,990.348 z" id="boundary" inkscape:connector-curvature="0" />
	<path style="fill:none;stroke:red;stroke-width:1px;stroke-linecap:butt;stroke-linejoin:miter;stroke-opacity:1" d="M 803.818,990.348 775.556,996 z" id="boundary" inkscape:connector-curvature="0" />
	<path style="fill:none;stroke:red;stroke-width:1px;stroke-linecap:butt;stroke-linejoin:miter;stroke-opacity:1" d="M 775.556,996 747.293,996 z" id="boundary" inkscape:connector-curvature="0" />
	<path style="fill:none;stroke:red;stroke-width:1px;stroke-linecap:butt;stroke-linejoin:miter;stroke-opacity:1" d="M 882.952,899.909 877.299,930.997 z" id="boundary" inkscape:connector-curvature="0" />
	<path style="fill:none;stroke:red;stroke-width:1px;stroke-linecap:butt;stroke-linejoin:miter;stroke-opacity:1" d="M 877.299,930.997 854.689,959.259 z" id="boundary" inkscape:connector-curvature="0" />
	<path style="fill:none;stroke:red;stroke-width:1px;stroke-linecap:butt;stroke-linejoin:miter;stroke-opacity:1" d="M 882.952,871.647 882.952,899.909 z" id="boundary" inkscape:connector-curvature="0" />
	<path style="fill:none;stroke:red;stroke-width:1px;stroke-linecap:butt;stroke-linejoin:miter;stroke-opacity:1" d="M 882.952,843.385 882.952,871.647 z" id="boundary" inkscape:connector-curvature="0" />
	<circle cx="4" cy="518.37" r="4" fill="#0" id="circle0"/>
	<circle cx="9.65242" cy="546.632" r="4" fill="#0" id="circle1"/>
	<circle cx="15.3048" cy="484.456" r="4" fill="#0" id="circle2"/>
	<circle cx="15.3048" cy="574.895" r="4" fill="#0" id="circle3"/>
	<circle cx="32.2621" cy="461.846" r="4" fill="#0" id="circle4"/>
	<circle cx="35.0883" cy="597.504" r="4" fill="#0" id="circle5"/>
	<circle cx="49.2194" cy="439.236" r="4" fill="#0" id="circle6"/>
	<circle cx="57.698" cy="617.288" r="4" fill="#0" id="circle7"/>
	<circle cx="71.8291" cy="416.627" r="4" fill="#0" id="circle8"/>
	<circle cx="71.8291" cy="851.863" r="4" fill="#0" id="circle9"/>
	<circle cx="71.8291" cy="880.125" r="4" fill="#0" id="circle10"/>
	<circle cx="71.8291" cy="908.387" r="4" fill="#0" id="circle11"/>
	<circle cx="74.6553" cy="936.65" r="4" fill="#0" id="circle12"/>
	<circle cx="80.3077" cy="634.245" r="4" fill="#0" id="circle13"/>
	<circle cx="80.3077" cy="964.912" r="4" fill="#0" id="circle14"/>
	<circle cx="83.1339" cy="812.296" r="4" fill="#0" id="circle15"/>
	<circle cx="94.4387" cy="399.67" r="4" fill="#0" id="circle16"/>
	<circle cx="94.4387" cy="772.729" r="4" fill="#0" id="circle17"/>
	<circle cx="100.091" cy="66.1766" r="4" fill="#0" id="circle18"/>
	<circle cx="102.917" cy="981.869" r="4" fill="#0" id="circle19"/>
	<circle cx="105.744" cy="94.4387" r="4" fill="#0" id="circle20"/>
	<circle cx="105.744" cy="648.376" r="4" fill="#0" id="circle21"/>
	<circle cx="108.57" cy="122.701" r="4" fill="#0" id="circle22"/>
	<circle cx="117.048" cy="43.567" r="4" fill="#0" id="circle23"/>
	<circle cx="117.048" cy="750.12" r="4" fill="#0" id="circle24"/>
	<circle cx="119.875" cy="150.963" r="4" fill="#0" id="circle25"/>
	<circle cx="122.701" cy="388.365" r="4" fill="#0" id="circle26"/>
	<circle cx="128.353" cy="996" r="4" fill="#0" id="circle27"/>
	<circle cx="131.179" cy="662.507" r="4" fill="#0" id="circle28"/>
	<circle cx="134.006" cy="176.399" r="4" fill="#0" id="circle29"/>
	<circle cx="139.658" cy="20.9573" r="4" fill="#0" id="circle30"/>
	<circle cx="139.658" cy="733.162" r="4" fill="#0" id="circle31"/>
	<circle cx="145.311" cy="204.661" r="4" fill="#0" id="circle32"/>
	<circle cx="145.311" cy="232.923" r="4" fill="#0" id="circle33"/>
	<circle cx="145.311" cy="261.185" r="4" fill="#0" id="circle34"/>
	<circle cx="150.963" cy="289.447" r="4" fill="#0" id="circle35"/>
	<circle cx="150.963" cy="317.709" r="4" fill="#0" id="circle36"/>
	<circle cx="150.963" cy="382.712" r="4" fill="#0" id="circle37"/>
	<circle cx="156.615" cy="996" r="4" fill="#0" id="circle38"/>
	<circle cx="159.442" cy="668.16" r="4" fill="#0" id="circle39"/>
	<circle cx="162.268" cy="345.972" r="4" fill="#0" id="circle40"/>
	<circle cx="167.92" cy="9.65242" r="4" fill="#0" id="circle41"/>
	<circle cx="167.92" cy="716.205" r="4" fill="#0" id="circle42"/>
	<circle cx="179.225" cy="371.407" r="4" fill="#0" id="circle43"/>
	<circle cx="184.877" cy="996" r="4" fill="#0" id="circle44"/>
	<circle cx="196.182" cy="4" r="4" fill="#0" id="circle45"/>
	<circle cx="213.14" cy="996" r="4" fill="#0" id="circle46"/>
	<circle cx="224.444" cy="9.65242" r="4" fill="#0" id="circle47"/>
	<circle cx="241.402" cy="996" r="4" fill="#0" id="circle48"/>
	<circle cx="252.707" cy="15.3048" r="4" fill="#0" id="circle49"/>
	<circle cx="269.664" cy="990.348" r="4" fill="#0" id="circle50"/>
	<circle cx="278.142" cy="29.4359" r="4" fill="#0" id="circle51"/>
	<circle cx="297.926" cy="996" r="4" fill="#0" id="circle52"/>
	<circle cx="303.578" cy="43.567" r="4" fill="#0" id="circle53"/>
	<circle cx="326.188" cy="996" r="4" fill="#0" id="circle54"/>
	<circle cx="331.84" cy="43.567" r="4" fill="#0" id="circle55"/>
	<circle cx="354.45" cy="996" r="4" fill="#0" id="circle56"/>
	<circle cx="360.103" cy="43.567" r="4" fill="#0" id="circle57"/>
	<circle cx="382.712" cy="996" r="4" fill="#0" id="circle58"/>
	<circle cx="388.365" cy="37.9145" r="4" fill="#0" id="circle59"/>
	<circle cx="410.974" cy="996" r="4" fill="#0" id="circle60"/>
	<circle cx="416.627" cy="43.567" r="4" fill="#0" id="circle61"/>
	<circle cx="439.236" cy="990.348" r="4" fill="#0" id="circle62"/>
	<circle cx="444.889" cy="37.9145" r="4" fill="#0" id="circle63"/>
	<circle cx="467.499" cy="990.348" r="4" fill="#0" id="circle64"/>
	<circle cx="470.325" cy="23.7835" r="4" fill="#0" id="circle65"/>
	<circle cx="495.761" cy="9.65242" r="4" fill="#0" id="circle66"/>
	<circle cx="495.761" cy="984.695" r="4" fill="#0" id="circle67"/>
	<circle cx="524.023" cy="4" r="4" fill="#0" id="circle68"/>
	<circle cx="524.023" cy="979.043" r="4" fill="#0" id="circle69"/>
	<circle cx="552.285" cy="4" r="4" fill="#0" id="circle70"/>
	<circle cx="552.285" cy="973.39" r="4" fill="#0" id="circle71"/>
	<circle cx="580.547" cy="15.3048" r="4" fill="#0" id="circle72"/>
	<circle cx="580.547" cy="368.581" r="4" fill="#0" id="circle73"/>
	<circle cx="580.547" cy="973.39" r="4" fill="#0" id="circle74"/>
	<circle cx="594.678" cy="343.145" r="4" fill="#0" id="circle75"/>
	<circle cx="605.983" cy="29.4359" r="4" fill="#0" id="circle76"/>
	<circle cx="605.983" cy="179.225" r="4" fill="#0" id="circle77"/>
	<circle cx="605.983" cy="382.712" r="4" fill="#0" id="circle78"/>
	<circle cx="608.809" cy="207.487" r="4" fill="#0" id="circle79"/>
	<circle cx="608.809" cy="317.709" r="4" fill="#0" id="circle80"/>
	<circle cx="608.809" cy="967.738" r="4" fill="#0" id="circle81"/>
	<circle cx="611.635" cy="235.749" r="4" fill="#0" id="circle82"/>
	<circle cx="611.635" cy="280.969" r="4" fill="#0" id="circle83"/>
	<circle cx="611.635" cy="670.986" r="4" fill="#0" id="circle84"/>
	<circle cx="617.288" cy="145.311" r="4" fill="#0" id="circle85"/>
	<circle cx="617.288" cy="699.248" r="4" fill="#0" id="circle86"/>
	<circle cx="628.593" cy="49.2194" r="4" fill="#0" id="circle87"/>
	<circle cx="628.593" cy="117.048" r="4" fill="#0" id="circle88"/>
	<circle cx="634.245" cy="77.4815" r="4" fill="#0" id="circle89"/>
	<circle cx="634.245" cy="382.712" r="4" fill="#0" id="circle90"/>
	<circle cx="637.071" cy="973.39" r="4" fill="#0" id="circle91"/>
	<circle cx="639.897" cy="670.986" r="4" fill="#0" id="circle92"/>
	<circle cx="639.897" cy="716.205" r="4" fill="#0" id="circle93"/>
	<circle cx="662.507" cy="394.017" r="4" fill="#0" id="circle94"/>
	<circle cx="662.507" cy="987.521" r="4" fill="#0" id="circle95"/>
	<circle cx="665.333" cy="656.855" r="4" fill="#0" id="circle96"/>
	<circle cx="668.16" cy="721.858" r="4" fill="#0" id="circle97"/>
	<circle cx="690.769" cy="405.322" r="4" fill="#0" id="circle98"/>
	<circle cx="690.769" cy="996" r="4" fill="#0" id="circle99"/>
	<circle cx="693.595" cy="662.507" r="4" fill="#0" id="circle100"/>
	<circle cx="696.422" cy="733.162" r="4" fill="#0" id="circle101"/>
	<circle cx="707.726" cy="427.932" r="4" fill="#0" id="circle102"/>
	<circle cx="719.031" cy="996" r="4" fill="#0" id="circle103"/>
	<circle cx="721.858" cy="651.202" r="4" fill="#0" id="circle104"/>
	<circle cx="724.684" cy="727.51" r="4" fill="#0" id="circle105"/>
	<circle cx="735.989" cy="427.932" r="4" fill="#0" id="circle106"/>
	<circle cx="747.293" cy="996" r="4" fill="#0" id="circle107"/>
	<circle cx="750.12" cy="645.55" r="4" fill="#0" id="circle108"/>
	<circle cx="752.946" cy="727.51" r="4" fill="#0" id="circle109"/>
	<circle cx="764.251" cy="433.584" r="4" fill="#0" id="circle110"/>
	<circle cx="775.556" cy="996" r="4" fill="#0" id="circle111"/>
	<circle cx="778.382" cy="634.245" r="4" fill="#0" id="circle112"/>
	<circle cx="781.208" cy="727.51" r="4" fill="#0" id="circle113"/>
	<circle cx="792.513" cy="439.236" r="4" fill="#0" id="circle114"/>
	<circle cx="803.818" cy="620.114" r="4" fill="#0" id="circle115"/>
	<circle cx="803.818" cy="990.348" r="4" fill="#0" id="circle116"/>
	<circle cx="809.47" cy="727.51" r="4" fill="#0" id="circle117"/>
	<circle cx="820.775" cy="450.541" r="4" fill="#0" id="circle118"/>
	<circle cx="829.254" cy="605.983" r="4" fill="#0" id="circle119"/>
	<circle cx="832.08" cy="744.467" r="4" fill="#0" id="circle120"/>
	<circle cx="832.08" cy="979.043" r="4" fill="#0" id="circle121"/>
	<circle cx="846.211" cy="583.373" r="4" fill="#0" id="circle122"/>
	<circle cx="849.037" cy="461.846" r="4" fill="#0" id="circle123"/>
	<circle cx="854.689" cy="761.425" r="4" fill="#0" id="circle124"/>
	<circle cx="854.689" cy="959.259" r="4" fill="#0" id="circle125"/>
	<circle cx="860.342" cy="557.937" r="4" fill="#0" id="circle126"/>
	<circle cx="865.994" cy="484.456" r="4" fill="#0" id="circle127"/>
	<circle cx="868.821" cy="512.718" r="4" fill="#0" id="circle128"/>
	<circle cx="868.821" cy="786.86" r="4" fill="#0" id="circle129"/>
	<circle cx="877.299" cy="815.123" r="4" fill="#0" id="circle130"/>
	<circle cx="877.299" cy="930.997" r="4" fill="#0" id="circle131"/>
	<circle cx="882.952" cy="843.385" r="4" fill="#0" id="circle132"/>
	<circle cx="882.952" cy="871.647" r="4" fill="#0" id="circle133"/>
	<circle cx="882.952" cy="899.909" r="4" fill="#0" id="circle134"/>
	</g>
</svg>