<?xml version="1.0" encoding="UTF-8" standalone="no"?>
<!-- Created with CurveBenchmark -->
<svg
	xmlns:dc="http://purl.org/dc/elements/1.1/"
	xmlns:cc="http://creativecommons.org/ns#"
	xmlns:rdf="http://www.w3.org/1999/02/22-rdf-syntax-ns#"
	xmlns:svg="http://www.w3.org/2000/svg"
	xmlns="http://www.w3.org/2000/svg"
	xmlns:sodipodi="http://sodipodi.sourceforge.net/DTD/sodipodi-0.dtd"
	xmlns:inkscape="http://www.inkscape.org/namespaces/inkscape"
	width="1000"
	height="1000"
	id="svg2"
	version="1.1"
	sodipodi:docname="manifold/ccrust-textbox41.png.txt">
<defs
	id="defs4" />
<metadata
	id="metadata7">
	<rdf:RDF>
		<cc:Work
			rdf:about="">
			<dc:format>image/svg+xml</dc:format>
			<dc:type
				rdf:resource="http://purl.org/dc/dcmitype/StillImage" />
			<dc:title></dc:title>
		</cc:Work>
	</rdf:RDF>
</metadata>
<g
	inkscape:label="Layer 1"
	inkscape:groupmode="layer"
	id="layer1">
	<path style="fill:none;stroke:red;stroke-width:1px;stroke-linecap:butt;stroke-linejoin:miter;stroke-opacity:1" d="M 4,147.219 4,126.157 z" id="boundary" inkscape:connector-curvature="0" />
	<path style="fill:none;stroke:red;stroke-width:1px;stroke-linecap:butt;stroke-linejoin:miter;stroke-opacity:1" d="M 4,126.157 14.5308,105.096 z" id="boundary" inkscape:connector-curvature="0" />
	<path style="fill:none;stroke:red;stroke-width:1px;stroke-linecap:butt;stroke-linejoin:miter;stroke-opacity:1" d="M 4,189.342 4,168.28 z" id="boundary" inkscape:connector-curvature="0" />
	<path style="fill:none;stroke:red;stroke-width:1px;stroke-linecap:butt;stroke-linejoin:miter;stroke-opacity:1" d="M 4,168.28 4,147.219 z" id="boundary" inkscape:connector-curvature="0" />
	<path style="fill:none;stroke:red;stroke-width:1px;stroke-linecap:butt;stroke-linejoin:miter;stroke-opacity:1" d="M 67.1847,56.6539 88.2463,52.4416 z" id="boundary" inkscape:connector-curvature="0" />
	<path style="fill:none;stroke:red;stroke-width:1px;stroke-linecap:butt;stroke-linejoin:miter;stroke-opacity:1" d="M 109.308,46.1231 88.2463,52.4416 z" id="boundary" inkscape:connector-curvature="0" />
	<path style="fill:none;stroke:red;stroke-width:1px;stroke-linecap:butt;stroke-linejoin:miter;stroke-opacity:1" d="M 46.1231,62.9724 35.5924,84.034 z" id="boundary" inkscape:connector-curvature="0" />
	<path style="fill:none;stroke:red;stroke-width:1px;stroke-linecap:butt;stroke-linejoin:miter;stroke-opacity:1" d="M 35.5924,84.034 14.5308,105.096 z" id="boundary" inkscape:connector-curvature="0" />
	<path style="fill:none;stroke:red;stroke-width:1px;stroke-linecap:butt;stroke-linejoin:miter;stroke-opacity:1" d="M 46.1231,62.9724 67.1847,56.6539 z" id="boundary" inkscape:connector-curvature="0" />
	<path style="fill:none;stroke:red;stroke-width:1px;stroke-linecap:butt;stroke-linejoin:miter;stroke-opacity:1" d="M 4,210.403 4,189.342 z" id="boundary" inkscape:connector-curvature="0" />
	<path style="fill:none;stroke:red;stroke-width:1px;stroke-linecap:butt;stroke-linejoin:miter;stroke-opacity:1" d="M 4,231.465 4,210.403 z" id="boundary" inkscape:connector-curvature="0" />
	<path style="fill:none;stroke:red;stroke-width:1px;stroke-linecap:butt;stroke-linejoin:miter;stroke-opacity:1" d="M 4,273.588 4,252.527 z" id="boundary" inkscape:connector-curvature="0" />
	<path style="fill:none;stroke:red;stroke-width:1px;stroke-linecap:butt;stroke-linejoin:miter;stroke-opacity:1" d="M 4,252.527 4,231.465 z" id="boundary" inkscape:connector-curvature="0" />
	<path style="fill:none;stroke:red;stroke-width:1px;stroke-linecap:butt;stroke-linejoin:miter;stroke-opacity:1" d="M 4,315.711 4,294.65 z" id="boundary" inkscape:connector-curvature="0" />
	<path style="fill:none;stroke:red;stroke-width:1px;stroke-linecap:butt;stroke-linejoin:miter;stroke-opacity:1" d="M 4,357.834 4,336.773 z" id="boundary" inkscape:connector-curvature="0" />
	<path style="fill:none;stroke:red;stroke-width:1px;stroke-linecap:butt;stroke-linejoin:miter;stroke-opacity:1" d="M 4,378.896 4,357.834 z" id="boundary" inkscape:connector-curvature="0" />
	<path style="fill:none;stroke:red;stroke-width:1px;stroke-linecap:butt;stroke-linejoin:miter;stroke-opacity:1" d="M 4,336.773 4,315.711 z" id="boundary" inkscape:connector-curvature="0" />
	<path style="fill:none;stroke:red;stroke-width:1px;stroke-linecap:butt;stroke-linejoin:miter;stroke-opacity:1" d="M 4,294.65 4,273.588 z" id="boundary" inkscape:connector-curvature="0" />
	<path style="fill:none;stroke:red;stroke-width:1px;stroke-linecap:butt;stroke-linejoin:miter;stroke-opacity:1" d="M 149.325,35.5924 168.28,25.0616 z" id="boundary" inkscape:connector-curvature="0" />
	<path style="fill:none;stroke:red;stroke-width:1px;stroke-linecap:butt;stroke-linejoin:miter;stroke-opacity:1" d="M 168.28,25.0616 187.236,35.5924 z" id="boundary" inkscape:connector-curvature="0" />
	<path style="fill:none;stroke:red;stroke-width:1px;stroke-linecap:butt;stroke-linejoin:miter;stroke-opacity:1" d="M 187.236,35.5924 208.297,35.5924 z" id="boundary" inkscape:connector-curvature="0" />
	<path style="fill:none;stroke:red;stroke-width:1px;stroke-linecap:butt;stroke-linejoin:miter;stroke-opacity:1" d="M 229.359,35.5924 208.297,35.5924 z" id="boundary" inkscape:connector-curvature="0" />
	<path style="fill:none;stroke:red;stroke-width:1px;stroke-linecap:butt;stroke-linejoin:miter;stroke-opacity:1" d="M 130.369,46.1231 149.325,35.5924 z" id="boundary" inkscape:connector-curvature="0" />
	<path style="fill:none;stroke:red;stroke-width:1px;stroke-linecap:butt;stroke-linejoin:miter;stroke-opacity:1" d="M 387.321,16.6369 408.382,14.5308 z" id="boundary" inkscape:connector-curvature="0" />
	<path style="fill:none;stroke:red;stroke-width:1px;stroke-linecap:butt;stroke-linejoin:miter;stroke-opacity:1" d="M 376.79,35.5924 387.321,16.6369 z" id="boundary" inkscape:connector-curvature="0" />
	<path style="fill:none;stroke:red;stroke-width:1px;stroke-linecap:butt;stroke-linejoin:miter;stroke-opacity:1" d="M 429.444,14.5308 408.382,14.5308 z" id="boundary" inkscape:connector-curvature="0" />
	<path style="fill:none;stroke:red;stroke-width:1px;stroke-linecap:butt;stroke-linejoin:miter;stroke-opacity:1" d="M 250.42,35.5924 229.359,35.5924 z" id="boundary" inkscape:connector-curvature="0" />
	<path style="fill:none;stroke:red;stroke-width:1px;stroke-linecap:butt;stroke-linejoin:miter;stroke-opacity:1" d="M 429.444,14.5308 450.505,14.5308 z" id="boundary" inkscape:connector-curvature="0" />
	<path style="fill:none;stroke:red;stroke-width:1px;stroke-linecap:butt;stroke-linejoin:miter;stroke-opacity:1" d="M 250.42,35.5924 271.482,35.5924 z" id="boundary" inkscape:connector-curvature="0" />
	<path style="fill:none;stroke:red;stroke-width:1px;stroke-linecap:butt;stroke-linejoin:miter;stroke-opacity:1" d="M 109.308,46.1231 130.369,46.1231 z" id="boundary" inkscape:connector-curvature="0" />
	<path style="fill:none;stroke:red;stroke-width:1px;stroke-linecap:butt;stroke-linejoin:miter;stroke-opacity:1" d="M 271.482,35.5924 292.544,35.5924 z" id="boundary" inkscape:connector-curvature="0" />
	<path style="fill:none;stroke:red;stroke-width:1px;stroke-linecap:butt;stroke-linejoin:miter;stroke-opacity:1" d="M 292.544,35.5924 313.605,35.5924 z" id="boundary" inkscape:connector-curvature="0" />
	<path style="fill:none;stroke:red;stroke-width:1px;stroke-linecap:butt;stroke-linejoin:miter;stroke-opacity:1" d="M 313.605,35.5924 334.667,35.5924 z" id="boundary" inkscape:connector-curvature="0" />
	<path style="fill:none;stroke:red;stroke-width:1px;stroke-linecap:butt;stroke-linejoin:miter;stroke-opacity:1" d="M 355.728,35.5924 334.667,35.5924 z" id="boundary" inkscape:connector-curvature="0" />
	<path style="fill:none;stroke:red;stroke-width:1px;stroke-linecap:butt;stroke-linejoin:miter;stroke-opacity:1" d="M 376.79,35.5924 355.728,35.5924 z" id="boundary" inkscape:connector-curvature="0" />
	<path style="fill:none;stroke:red;stroke-width:1px;stroke-linecap:butt;stroke-linejoin:miter;stroke-opacity:1" d="M 458.93,616.892 437.868,616.892 z" id="boundary" inkscape:connector-curvature="0" />
	<path style="fill:none;stroke:red;stroke-width:1px;stroke-linecap:butt;stroke-linejoin:miter;stroke-opacity:1" d="M 4,399.958 14.5308,418.913 z" id="boundary" inkscape:connector-curvature="0" />
	<path style="fill:none;stroke:red;stroke-width:1px;stroke-linecap:butt;stroke-linejoin:miter;stroke-opacity:1" d="M 14.5308,418.913 14.5308,439.975 z" id="boundary" inkscape:connector-curvature="0" />
	<path style="fill:none;stroke:red;stroke-width:1px;stroke-linecap:butt;stroke-linejoin:miter;stroke-opacity:1" d="M 208.297,633.741 187.236,627.423 z" id="boundary" inkscape:connector-curvature="0" />
	<path style="fill:none;stroke:red;stroke-width:1px;stroke-linecap:butt;stroke-linejoin:miter;stroke-opacity:1" d="M 14.5308,439.975 14.5308,461.036 z" id="boundary" inkscape:connector-curvature="0" />
	<path style="fill:none;stroke:red;stroke-width:1px;stroke-linecap:butt;stroke-linejoin:miter;stroke-opacity:1" d="M 14.5308,482.098 14.5308,461.036 z" id="boundary" inkscape:connector-curvature="0" />
	<path style="fill:none;stroke:red;stroke-width:1px;stroke-linecap:butt;stroke-linejoin:miter;stroke-opacity:1" d="M 14.5308,482.098 14.5308,503.159 z" id="boundary" inkscape:connector-curvature="0" />
	<path style="fill:none;stroke:red;stroke-width:1px;stroke-linecap:butt;stroke-linejoin:miter;stroke-opacity:1" d="M 14.5308,524.221 14.5308,503.159 z" id="boundary" inkscape:connector-curvature="0" />
	<path style="fill:none;stroke:red;stroke-width:1px;stroke-linecap:butt;stroke-linejoin:miter;stroke-opacity:1" d="M 25.0616,564.238 14.5308,545.282 z" id="boundary" inkscape:connector-curvature="0" />
	<path style="fill:none;stroke:red;stroke-width:1px;stroke-linecap:butt;stroke-linejoin:miter;stroke-opacity:1" d="M 14.5308,545.282 14.5308,524.221 z" id="boundary" inkscape:connector-curvature="0" />
	<path style="fill:none;stroke:red;stroke-width:1px;stroke-linecap:butt;stroke-linejoin:miter;stroke-opacity:1" d="M 37.6985,581.087 25.0616,564.238 z" id="boundary" inkscape:connector-curvature="0" />
	<path style="fill:none;stroke:red;stroke-width:1px;stroke-linecap:butt;stroke-linejoin:miter;stroke-opacity:1" d="M 37.6985,581.087 48.2293,600.042 z" id="boundary" inkscape:connector-curvature="0" />
	<path style="fill:none;stroke:red;stroke-width:1px;stroke-linecap:butt;stroke-linejoin:miter;stroke-opacity:1" d="M 62.9724,616.892 84.034,616.892 z" id="boundary" inkscape:connector-curvature="0" />
	<path style="fill:none;stroke:red;stroke-width:1px;stroke-linecap:butt;stroke-linejoin:miter;stroke-opacity:1" d="M 62.9724,616.892 48.2293,600.042 z" id="boundary" inkscape:connector-curvature="0" />
	<path style="fill:none;stroke:red;stroke-width:1px;stroke-linecap:butt;stroke-linejoin:miter;stroke-opacity:1" d="M 105.096,616.892 84.034,616.892 z" id="boundary" inkscape:connector-curvature="0" />
	<path style="fill:none;stroke:red;stroke-width:1px;stroke-linecap:butt;stroke-linejoin:miter;stroke-opacity:1" d="M 105.096,616.892 124.051,627.423 z" id="boundary" inkscape:connector-curvature="0" />
	<path style="fill:none;stroke:red;stroke-width:1px;stroke-linecap:butt;stroke-linejoin:miter;stroke-opacity:1" d="M 145.113,627.423 124.051,627.423 z" id="boundary" inkscape:connector-curvature="0" />
	<path style="fill:none;stroke:red;stroke-width:1px;stroke-linecap:butt;stroke-linejoin:miter;stroke-opacity:1" d="M 145.113,627.423 166.174,627.423 z" id="boundary" inkscape:connector-curvature="0" />
	<path style="fill:none;stroke:red;stroke-width:1px;stroke-linecap:butt;stroke-linejoin:miter;stroke-opacity:1" d="M 166.174,627.423 187.236,627.423 z" id="boundary" inkscape:connector-curvature="0" />
	<path style="fill:none;stroke:red;stroke-width:1px;stroke-linecap:butt;stroke-linejoin:miter;stroke-opacity:1" d="M 4,399.958 4,378.896 z" id="boundary" inkscape:connector-curvature="0" />
	<path style="fill:none;stroke:red;stroke-width:1px;stroke-linecap:butt;stroke-linejoin:miter;stroke-opacity:1" d="M 208.297,633.741 225.146,646.378 z" id="boundary" inkscape:connector-curvature="0" />
	<path style="fill:none;stroke:red;stroke-width:1px;stroke-linecap:butt;stroke-linejoin:miter;stroke-opacity:1" d="M 225.146,646.378 235.677,665.333 z" id="boundary" inkscape:connector-curvature="0" />
	<path style="fill:none;stroke:red;stroke-width:1px;stroke-linecap:butt;stroke-linejoin:miter;stroke-opacity:1" d="M 235.677,665.333 237.783,686.395 z" id="boundary" inkscape:connector-curvature="0" />
	<path style="fill:none;stroke:red;stroke-width:1px;stroke-linecap:butt;stroke-linejoin:miter;stroke-opacity:1" d="M 237.783,686.395 246.208,707.456 z" id="boundary" inkscape:connector-curvature="0" />
	<path style="fill:none;stroke:red;stroke-width:1px;stroke-linecap:butt;stroke-linejoin:miter;stroke-opacity:1" d="M 427.338,659.015 427.338,637.953 z" id="boundary" inkscape:connector-curvature="0" />
	<path style="fill:none;stroke:red;stroke-width:1px;stroke-linecap:butt;stroke-linejoin:miter;stroke-opacity:1" d="M 412.594,680.076 393.639,690.607 z" id="boundary" inkscape:connector-curvature="0" />
	<path style="fill:none;stroke:red;stroke-width:1px;stroke-linecap:butt;stroke-linejoin:miter;stroke-opacity:1" d="M 427.338,659.015 412.594,680.076 z" id="boundary" inkscape:connector-curvature="0" />
	<path style="fill:none;stroke:red;stroke-width:1px;stroke-linecap:butt;stroke-linejoin:miter;stroke-opacity:1" d="M 381.002,707.456 393.639,690.607 z" id="boundary" inkscape:connector-curvature="0" />
	<path style="fill:none;stroke:red;stroke-width:1px;stroke-linecap:butt;stroke-linejoin:miter;stroke-opacity:1" d="M 427.338,637.953 437.868,616.892 z" id="boundary" inkscape:connector-curvature="0" />
	<path style="fill:none;stroke:red;stroke-width:1px;stroke-linecap:butt;stroke-linejoin:miter;stroke-opacity:1" d="M 246.208,707.456 263.057,722.2 z" id="boundary" inkscape:connector-curvature="0" />
	<path style="fill:none;stroke:red;stroke-width:1px;stroke-linecap:butt;stroke-linejoin:miter;stroke-opacity:1" d="M 296.756,774.854 279.907,760.11 z" id="boundary" inkscape:connector-curvature="0" />
	<path style="fill:none;stroke:red;stroke-width:1px;stroke-linecap:butt;stroke-linejoin:miter;stroke-opacity:1" d="M 279.907,760.11 277.8,739.049 z" id="boundary" inkscape:connector-curvature="0" />
	<path style="fill:none;stroke:red;stroke-width:1px;stroke-linecap:butt;stroke-linejoin:miter;stroke-opacity:1" d="M 317.817,774.854 296.756,774.854 z" id="boundary" inkscape:connector-curvature="0" />
	<path style="fill:none;stroke:red;stroke-width:1px;stroke-linecap:butt;stroke-linejoin:miter;stroke-opacity:1" d="M 263.057,722.2 277.8,739.049 z" id="boundary" inkscape:connector-curvature="0" />
	<path style="fill:none;stroke:red;stroke-width:1px;stroke-linecap:butt;stroke-linejoin:miter;stroke-opacity:1" d="M 364.153,722.2 381.002,707.456 z" id="boundary" inkscape:connector-curvature="0" />
	<path style="fill:none;stroke:red;stroke-width:1px;stroke-linecap:butt;stroke-linejoin:miter;stroke-opacity:1" d="M 357.834,751.686 364.153,722.2 z" id="boundary" inkscape:connector-curvature="0" />
	<path style="fill:none;stroke:red;stroke-width:1px;stroke-linecap:butt;stroke-linejoin:miter;stroke-opacity:1" d="M 317.817,774.854 336.773,762.217 z" id="boundary" inkscape:connector-curvature="0" />
	<path style="fill:none;stroke:red;stroke-width:1px;stroke-linecap:butt;stroke-linejoin:miter;stroke-opacity:1" d="M 336.773,762.217 357.834,751.686 z" id="boundary" inkscape:connector-curvature="0" />
	<path style="fill:none;stroke:red;stroke-width:1px;stroke-linecap:butt;stroke-linejoin:miter;stroke-opacity:1" d="M 450.505,14.5308 471.567,14.5308 z" id="boundary" inkscape:connector-curvature="0" />
	<path style="fill:none;stroke:red;stroke-width:1px;stroke-linecap:butt;stroke-linejoin:miter;stroke-opacity:1" d="M 492.628,14.5308 471.567,14.5308 z" id="boundary" inkscape:connector-curvature="0" />
	<path style="fill:none;stroke:red;stroke-width:1px;stroke-linecap:butt;stroke-linejoin:miter;stroke-opacity:1" d="M 513.69,14.5308 534.752,14.5308 z" id="boundary" inkscape:connector-curvature="0" />
	<path style="fill:none;stroke:red;stroke-width:1px;stroke-linecap:butt;stroke-linejoin:miter;stroke-opacity:1" d="M 513.69,14.5308 492.628,14.5308 z" id="boundary" inkscape:connector-curvature="0" />
	<path style="fill:none;stroke:red;stroke-width:1px;stroke-linecap:butt;stroke-linejoin:miter;stroke-opacity:1" d="M 555.813,14.5308 576.875,14.5308 z" id="boundary" inkscape:connector-curvature="0" />
	<path style="fill:none;stroke:red;stroke-width:1px;stroke-linecap:butt;stroke-linejoin:miter;stroke-opacity:1" d="M 597.936,14.5308 618.998,14.5308 z" id="boundary" inkscape:connector-curvature="0" />
	<path style="fill:none;stroke:red;stroke-width:1px;stroke-linecap:butt;stroke-linejoin:miter;stroke-opacity:1" d="M 640.059,14.5308 618.998,14.5308 z" id="boundary" inkscape:connector-curvature="0" />
	<path style="fill:none;stroke:red;stroke-width:1px;stroke-linecap:butt;stroke-linejoin:miter;stroke-opacity:1" d="M 597.936,14.5308 576.875,14.5308 z" id="boundary" inkscape:connector-curvature="0" />
	<path style="fill:none;stroke:red;stroke-width:1px;stroke-linecap:butt;stroke-linejoin:miter;stroke-opacity:1" d="M 555.813,14.5308 534.752,14.5308 z" id="boundary" inkscape:connector-curvature="0" />
	<path style="fill:none;stroke:red;stroke-width:1px;stroke-linecap:butt;stroke-linejoin:miter;stroke-opacity:1" d="M 661.121,14.5308 682.183,14.5308 z" id="boundary" inkscape:connector-curvature="0" />
	<path style="fill:none;stroke:red;stroke-width:1px;stroke-linecap:butt;stroke-linejoin:miter;stroke-opacity:1" d="M 703.244,14.5308 724.306,14.5308 z" id="boundary" inkscape:connector-curvature="0" />
	<path style="fill:none;stroke:red;stroke-width:1px;stroke-linecap:butt;stroke-linejoin:miter;stroke-opacity:1" d="M 703.244,14.5308 682.183,14.5308 z" id="boundary" inkscape:connector-curvature="0" />
	<path style="fill:none;stroke:red;stroke-width:1px;stroke-linecap:butt;stroke-linejoin:miter;stroke-opacity:1" d="M 745.367,14.5308 766.429,14.5308 z" id="boundary" inkscape:connector-curvature="0" />
	<path style="fill:none;stroke:red;stroke-width:1px;stroke-linecap:butt;stroke-linejoin:miter;stroke-opacity:1" d="M 787.49,14.5308 808.552,14.5308 z" id="boundary" inkscape:connector-curvature="0" />
	<path style="fill:none;stroke:red;stroke-width:1px;stroke-linecap:butt;stroke-linejoin:miter;stroke-opacity:1" d="M 829.614,14.5308 808.552,14.5308 z" id="boundary" inkscape:connector-curvature="0" />
	<path style="fill:none;stroke:red;stroke-width:1px;stroke-linecap:butt;stroke-linejoin:miter;stroke-opacity:1" d="M 848.569,4 829.614,14.5308 z" id="boundary" inkscape:connector-curvature="0" />
	<path style="fill:none;stroke:red;stroke-width:1px;stroke-linecap:butt;stroke-linejoin:miter;stroke-opacity:1" d="M 787.49,14.5308 766.429,14.5308 z" id="boundary" inkscape:connector-curvature="0" />
	<path style="fill:none;stroke:red;stroke-width:1px;stroke-linecap:butt;stroke-linejoin:miter;stroke-opacity:1" d="M 745.367,14.5308 724.306,14.5308 z" id="boundary" inkscape:connector-curvature="0" />
	<path style="fill:none;stroke:red;stroke-width:1px;stroke-linecap:butt;stroke-linejoin:miter;stroke-opacity:1" d="M 661.121,14.5308 640.059,14.5308 z" id="boundary" inkscape:connector-curvature="0" />
	<path style="fill:none;stroke:red;stroke-width:1px;stroke-linecap:butt;stroke-linejoin:miter;stroke-opacity:1" d="M 867.524,14.5308 848.569,4 z" id="boundary" inkscape:connector-curvature="0" />
	<path style="fill:none;stroke:red;stroke-width:1px;stroke-linecap:butt;stroke-linejoin:miter;stroke-opacity:1" d="M 888.586,14.5308 867.524,14.5308 z" id="boundary" inkscape:connector-curvature="0" />
	<path style="fill:none;stroke:red;stroke-width:1px;stroke-linecap:butt;stroke-linejoin:miter;stroke-opacity:1" d="M 909.648,18.7431 888.586,14.5308 z" id="boundary" inkscape:connector-curvature="0" />
	<path style="fill:none;stroke:red;stroke-width:1px;stroke-linecap:butt;stroke-linejoin:miter;stroke-opacity:1" d="M 909.648,18.7431 922.285,35.5924 z" id="boundary" inkscape:connector-curvature="0" />
	<path style="fill:none;stroke:red;stroke-width:1px;stroke-linecap:butt;stroke-linejoin:miter;stroke-opacity:1" d="M 922.285,35.5924 943.346,41.9108 z" id="boundary" inkscape:connector-curvature="0" />
	<path style="fill:none;stroke:red;stroke-width:1px;stroke-linecap:butt;stroke-linejoin:miter;stroke-opacity:1" d="M 943.346,41.9108 960.195,56.6539 z" id="boundary" inkscape:connector-curvature="0" />
	<path style="fill:none;stroke:red;stroke-width:1px;stroke-linecap:butt;stroke-linejoin:miter;stroke-opacity:1" d="M 960.195,56.6539 974.938,73.5032 z" id="boundary" inkscape:connector-curvature="0" />
	<path style="fill:none;stroke:red;stroke-width:1px;stroke-linecap:butt;stroke-linejoin:miter;stroke-opacity:1" d="M 974.938,73.5032 974.938,94.5648 z" id="boundary" inkscape:connector-curvature="0" />
	<path style="fill:none;stroke:red;stroke-width:1px;stroke-linecap:butt;stroke-linejoin:miter;stroke-opacity:1" d="M 985.469,113.52 974.938,94.5648 z" id="boundary" inkscape:connector-curvature="0" />
	<path style="fill:none;stroke:red;stroke-width:1px;stroke-linecap:butt;stroke-linejoin:miter;stroke-opacity:1" d="M 985.469,113.52 985.469,134.582 z" id="boundary" inkscape:connector-curvature="0" />
	<path style="fill:none;stroke:red;stroke-width:1px;stroke-linecap:butt;stroke-linejoin:miter;stroke-opacity:1" d="M 985.469,155.643 996,174.599 z" id="boundary" inkscape:connector-curvature="0" />
	<path style="fill:none;stroke:red;stroke-width:1px;stroke-linecap:butt;stroke-linejoin:miter;stroke-opacity:1" d="M 996,174.599 996,195.66 z" id="boundary" inkscape:connector-curvature="0" />
	<path style="fill:none;stroke:red;stroke-width:1px;stroke-linecap:butt;stroke-linejoin:miter;stroke-opacity:1" d="M 985.469,155.643 985.469,134.582 z" id="boundary" inkscape:connector-curvature="0" />
	<path style="fill:none;stroke:red;stroke-width:1px;stroke-linecap:butt;stroke-linejoin:miter;stroke-opacity:1" d="M 996,195.66 996,216.722 z" id="boundary" inkscape:connector-curvature="0" />
	<path style="fill:none;stroke:red;stroke-width:1px;stroke-linecap:butt;stroke-linejoin:miter;stroke-opacity:1" d="M 996,216.722 996,237.783 z" id="boundary" inkscape:connector-curvature="0" />
	<path style="fill:none;stroke:red;stroke-width:1px;stroke-linecap:butt;stroke-linejoin:miter;stroke-opacity:1" d="M 996,258.845 996,279.907 z" id="boundary" inkscape:connector-curvature="0" />
	<path style="fill:none;stroke:red;stroke-width:1px;stroke-linecap:butt;stroke-linejoin:miter;stroke-opacity:1" d="M 996,279.907 996,300.968 z" id="boundary" inkscape:connector-curvature="0" />
	<path style="fill:none;stroke:red;stroke-width:1px;stroke-linecap:butt;stroke-linejoin:miter;stroke-opacity:1" d="M 996,237.783 996,258.845 z" id="boundary" inkscape:connector-curvature="0" />
	<path style="fill:none;stroke:red;stroke-width:1px;stroke-linecap:butt;stroke-linejoin:miter;stroke-opacity:1" d="M 625.316,606.361 646.378,606.361 z" id="boundary" inkscape:connector-curvature="0" />
	<path style="fill:none;stroke:red;stroke-width:1px;stroke-linecap:butt;stroke-linejoin:miter;stroke-opacity:1" d="M 606.361,616.892 625.316,606.361 z" id="boundary" inkscape:connector-curvature="0" />
	<path style="fill:none;stroke:red;stroke-width:1px;stroke-linecap:butt;stroke-linejoin:miter;stroke-opacity:1" d="M 667.439,606.361 688.501,606.361 z" id="boundary" inkscape:connector-curvature="0" />
	<path style="fill:none;stroke:red;stroke-width:1px;stroke-linecap:butt;stroke-linejoin:miter;stroke-opacity:1" d="M 667.439,606.361 646.378,606.361 z" id="boundary" inkscape:connector-curvature="0" />
	<path style="fill:none;stroke:red;stroke-width:1px;stroke-linecap:butt;stroke-linejoin:miter;stroke-opacity:1" d="M 709.563,606.361 730.624,606.361 z" id="boundary" inkscape:connector-curvature="0" />
	<path style="fill:none;stroke:red;stroke-width:1px;stroke-linecap:butt;stroke-linejoin:miter;stroke-opacity:1" d="M 751.686,606.361 772.747,606.361 z" id="boundary" inkscape:connector-curvature="0" />
	<path style="fill:none;stroke:red;stroke-width:1px;stroke-linecap:butt;stroke-linejoin:miter;stroke-opacity:1" d="M 793.809,606.361 772.747,606.361 z" id="boundary" inkscape:connector-curvature="0" />
	<path style="fill:none;stroke:red;stroke-width:1px;stroke-linecap:butt;stroke-linejoin:miter;stroke-opacity:1" d="M 751.686,606.361 730.624,606.361 z" id="boundary" inkscape:connector-curvature="0" />
	<path style="fill:none;stroke:red;stroke-width:1px;stroke-linecap:butt;stroke-linejoin:miter;stroke-opacity:1" d="M 709.563,606.361 688.501,606.361 z" id="boundary" inkscape:connector-curvature="0" />
	<path style="fill:none;stroke:red;stroke-width:1px;stroke-linecap:butt;stroke-linejoin:miter;stroke-opacity:1" d="M 458.93,616.892 479.992,616.892 z" id="boundary" inkscape:connector-curvature="0" />
	<path style="fill:none;stroke:red;stroke-width:1px;stroke-linecap:butt;stroke-linejoin:miter;stroke-opacity:1" d="M 501.053,616.892 479.992,616.892 z" id="boundary" inkscape:connector-curvature="0" />
	<path style="fill:none;stroke:red;stroke-width:1px;stroke-linecap:butt;stroke-linejoin:miter;stroke-opacity:1" d="M 501.053,616.892 522.115,616.892 z" id="boundary" inkscape:connector-curvature="0" />
	<path style="fill:none;stroke:red;stroke-width:1px;stroke-linecap:butt;stroke-linejoin:miter;stroke-opacity:1" d="M 564.238,616.892 543.176,616.892 z" id="boundary" inkscape:connector-curvature="0" />
	<path style="fill:none;stroke:red;stroke-width:1px;stroke-linecap:butt;stroke-linejoin:miter;stroke-opacity:1" d="M 543.176,616.892 522.115,616.892 z" id="boundary" inkscape:connector-curvature="0" />
	<path style="fill:none;stroke:red;stroke-width:1px;stroke-linecap:butt;stroke-linejoin:miter;stroke-opacity:1" d="M 564.238,616.892 585.299,616.892 z" id="boundary" inkscape:connector-curvature="0" />
	<path style="fill:none;stroke:red;stroke-width:1px;stroke-linecap:butt;stroke-linejoin:miter;stroke-opacity:1" d="M 606.361,616.892 585.299,616.892 z" id="boundary" inkscape:connector-curvature="0" />
	<path style="fill:none;stroke:red;stroke-width:1px;stroke-linecap:butt;stroke-linejoin:miter;stroke-opacity:1" d="M 814.87,606.361 835.932,606.361 z" id="boundary" inkscape:connector-curvature="0" />
	<path style="fill:none;stroke:red;stroke-width:1px;stroke-linecap:butt;stroke-linejoin:miter;stroke-opacity:1" d="M 793.809,606.361 814.87,606.361 z" id="boundary" inkscape:connector-curvature="0" />
	<path style="fill:none;stroke:red;stroke-width:1px;stroke-linecap:butt;stroke-linejoin:miter;stroke-opacity:1" d="M 996,343.091 996,364.153 z" id="boundary" inkscape:connector-curvature="0" />
	<path style="fill:none;stroke:red;stroke-width:1px;stroke-linecap:butt;stroke-linejoin:miter;stroke-opacity:1" d="M 996,385.214 996,406.276 z" id="boundary" inkscape:connector-curvature="0" />
	<path style="fill:none;stroke:red;stroke-width:1px;stroke-linecap:butt;stroke-linejoin:miter;stroke-opacity:1" d="M 996,364.153 996,385.214 z" id="boundary" inkscape:connector-curvature="0" />
	<path style="fill:none;stroke:red;stroke-width:1px;stroke-linecap:butt;stroke-linejoin:miter;stroke-opacity:1" d="M 996,448.399 996,469.461 z" id="boundary" inkscape:connector-curvature="0" />
	<path style="fill:none;stroke:red;stroke-width:1px;stroke-linecap:butt;stroke-linejoin:miter;stroke-opacity:1" d="M 996,469.461 996,490.522 z" id="boundary" inkscape:connector-curvature="0" />
	<path style="fill:none;stroke:red;stroke-width:1px;stroke-linecap:butt;stroke-linejoin:miter;stroke-opacity:1" d="M 996,490.522 985.469,522.115 z" id="boundary" inkscape:connector-curvature="0" />
	<path style="fill:none;stroke:red;stroke-width:1px;stroke-linecap:butt;stroke-linejoin:miter;stroke-opacity:1" d="M 996,427.338 996,448.399 z" id="boundary" inkscape:connector-curvature="0" />
	<path style="fill:none;stroke:red;stroke-width:1px;stroke-linecap:butt;stroke-linejoin:miter;stroke-opacity:1" d="M 996,406.276 996,427.338 z" id="boundary" inkscape:connector-curvature="0" />
	<path style="fill:none;stroke:red;stroke-width:1px;stroke-linecap:butt;stroke-linejoin:miter;stroke-opacity:1" d="M 835.932,606.361 856.994,606.361 z" id="boundary" inkscape:connector-curvature="0" />
	<path style="fill:none;stroke:red;stroke-width:1px;stroke-linecap:butt;stroke-linejoin:miter;stroke-opacity:1" d="M 878.055,606.361 899.117,606.361 z" id="boundary" inkscape:connector-curvature="0" />
	<path style="fill:none;stroke:red;stroke-width:1px;stroke-linecap:butt;stroke-linejoin:miter;stroke-opacity:1" d="M 920.178,606.361 899.117,606.361 z" id="boundary" inkscape:connector-curvature="0" />
	<path style="fill:none;stroke:red;stroke-width:1px;stroke-linecap:butt;stroke-linejoin:miter;stroke-opacity:1" d="M 932.815,585.299 920.178,606.361 z" id="boundary" inkscape:connector-curvature="0" />
	<path style="fill:none;stroke:red;stroke-width:1px;stroke-linecap:butt;stroke-linejoin:miter;stroke-opacity:1" d="M 878.055,606.361 856.994,606.361 z" id="boundary" inkscape:connector-curvature="0" />
	<path style="fill:none;stroke:red;stroke-width:1px;stroke-linecap:butt;stroke-linejoin:miter;stroke-opacity:1" d="M 985.469,522.115 985.469,543.176 z" id="boundary" inkscape:connector-curvature="0" />
	<path style="fill:none;stroke:red;stroke-width:1px;stroke-linecap:butt;stroke-linejoin:miter;stroke-opacity:1" d="M 932.815,585.299 953.877,574.769 z" id="boundary" inkscape:connector-curvature="0" />
	<path style="fill:none;stroke:red;stroke-width:1px;stroke-linecap:butt;stroke-linejoin:miter;stroke-opacity:1" d="M 974.938,564.238 953.877,574.769 z" id="boundary" inkscape:connector-curvature="0" />
	<path style="fill:none;stroke:red;stroke-width:1px;stroke-linecap:butt;stroke-linejoin:miter;stroke-opacity:1" d="M 985.469,543.176 974.938,564.238 z" id="boundary" inkscape:connector-curvature="0" />
	<path style="fill:none;stroke:red;stroke-width:1px;stroke-linecap:butt;stroke-linejoin:miter;stroke-opacity:1" d="M 996,322.03 996,343.091 z" id="boundary" inkscape:connector-curvature="0" />
	<path style="fill:none;stroke:red;stroke-width:1px;stroke-linecap:butt;stroke-linejoin:miter;stroke-opacity:1" d="M 996,300.968 996,322.03 z" id="boundary" inkscape:connector-curvature="0" />
	<circle cx="4" cy="126.157" r="4" fill="#0" id="circle0"/>
	<circle cx="4" cy="147.219" r="4" fill="#0" id="circle1"/>
	<circle cx="4" cy="168.28" r="4" fill="#0" id="circle2"/>
	<circle cx="4" cy="189.342" r="4" fill="#0" id="circle3"/>
	<circle cx="4" cy="210.403" r="4" fill="#0" id="circle4"/>
	<circle cx="4" cy="231.465" r="4" fill="#0" id="circle5"/>
	<circle cx="4" cy="252.527" r="4" fill="#0" id="circle6"/>
	<circle cx="4" cy="273.588" r="4" fill="#0" id="circle7"/>
	<circle cx="4" cy="294.65" r="4" fill="#0" id="circle8"/>
	<circle cx="4" cy="315.711" r="4" fill="#0" id="circle9"/>
	<circle cx="4" cy="336.773" r="4" fill="#0" id="circle10"/>
	<circle cx="4" cy="357.834" r="4" fill="#0" id="circle11"/>
	<circle cx="4" cy="378.896" r="4" fill="#0" id="circle12"/>
	<circle cx="4" cy="399.958" r="4" fill="#0" id="circle13"/>
	<circle cx="14.5308" cy="105.096" r="4" fill="#0" id="circle14"/>
	<circle cx="14.5308" cy="418.913" r="4" fill="#0" id="circle15"/>
	<circle cx="14.5308" cy="439.975" r="4" fill="#0" id="circle16"/>
	<circle cx="14.5308" cy="461.036" r="4" fill="#0" id="circle17"/>
	<circle cx="14.5308" cy="482.098" r="4" fill="#0" id="circle18"/>
	<circle cx="14.5308" cy="503.159" r="4" fill="#0" id="circle19"/>
	<circle cx="14.5308" cy="524.221" r="4" fill="#0" id="circle20"/>
	<circle cx="14.5308" cy="545.282" r="4" fill="#0" id="circle21"/>
	<circle cx="25.0616" cy="564.238" r="4" fill="#0" id="circle22"/>
	<circle cx="35.5924" cy="84.034" r="4" fill="#0" id="circle23"/>
	<circle cx="37.6985" cy="581.087" r="4" fill="#0" id="circle24"/>
	<circle cx="46.1231" cy="62.9724" r="4" fill="#0" id="circle25"/>
	<circle cx="48.2293" cy="600.042" r="4" fill="#0" id="circle26"/>
	<circle cx="62.9724" cy="616.892" r="4" fill="#0" id="circle27"/>
	<circle cx="67.1847" cy="56.6539" r="4" fill="#0" id="circle28"/>
	<circle cx="84.034" cy="616.892" r="4" fill="#0" id="circle29"/>
	<circle cx="88.2463" cy="52.4416" r="4" fill="#0" id="circle30"/>
	<circle cx="105.096" cy="616.892" r="4" fill="#0" id="circle31"/>
	<circle cx="109.308" cy="46.1231" r="4" fill="#0" id="circle32"/>
	<circle cx="124.051" cy="627.423" r="4" fill="#0" id="circle33"/>
	<circle cx="130.369" cy="46.1231" r="4" fill="#0" id="circle34"/>
	<circle cx="145.113" cy="627.423" r="4" fill="#0" id="circle35"/>
	<circle cx="149.325" cy="35.5924" r="4" fill="#0" id="circle36"/>
	<circle cx="166.174" cy="627.423" r="4" fill="#0" id="circle37"/>
	<circle cx="168.28" cy="25.0616" r="4" fill="#0" id="circle38"/>
	<circle cx="187.236" cy="35.5924" r="4" fill="#0" id="circle39"/>
	<circle cx="187.236" cy="627.423" r="4" fill="#0" id="circle40"/>
	<circle cx="208.297" cy="35.5924" r="4" fill="#0" id="circle41"/>
	<circle cx="208.297" cy="633.741" r="4" fill="#0" id="circle42"/>
	<circle cx="225.146" cy="646.378" r="4" fill="#0" id="circle43"/>
	<circle cx="229.359" cy="35.5924" r="4" fill="#0" id="circle44"/>
	<circle cx="235.677" cy="665.333" r="4" fill="#0" id="circle45"/>
	<circle cx="237.783" cy="686.395" r="4" fill="#0" id="circle46"/>
	<circle cx="246.208" cy="707.456" r="4" fill="#0" id="circle47"/>
	<circle cx="250.42" cy="35.5924" r="4" fill="#0" id="circle48"/>
	<circle cx="263.057" cy="722.2" r="4" fill="#0" id="circle49"/>
	<circle cx="271.482" cy="35.5924" r="4" fill="#0" id="circle50"/>
	<circle cx="277.8" cy="739.049" r="4" fill="#0" id="circle51"/>
	<circle cx="279.907" cy="760.11" r="4" fill="#0" id="circle52"/>
	<circle cx="292.544" cy="35.5924" r="4" fill="#0" id="circle53"/>
	<circle cx="296.756" cy="774.854" r="4" fill="#0" id="circle54"/>
	<circle cx="313.605" cy="35.5924" r="4" fill="#0" id="circle55"/>
	<circle cx="317.817" cy="774.854" r="4" fill="#0" id="circle56"/>
	<circle cx="334.667" cy="35.5924" r="4" fill="#0" id="circle57"/>
	<circle cx="336.773" cy="762.217" r="4" fill="#0" id="circle58"/>
	<circle cx="355.728" cy="35.5924" r="4" fill="#0" id="circle59"/>
	<circle cx="357.834" cy="751.686" r="4" fill="#0" id="circle60"/>
	<circle cx="364.153" cy="722.2" r="4" fill="#0" id="circle61"/>
	<circle cx="376.79" cy="35.5924" r="4" fill="#0" id="circle62"/>
	<circle cx="381.002" cy="707.456" r="4" fill="#0" id="circle63"/>
	<circle cx="387.321" cy="16.6369" r="4" fill="#0" id="circle64"/>
	<circle cx="393.639" cy="690.607" r="4" fill="#0" id="circle65"/>
	<circle cx="408.382" cy="14.5308" r="4" fill="#0" id="circle66"/>
	<circle cx="412.594" cy="680.076" r="4" fill="#0" id="circle67"/>
	<circle cx="427.338" cy="637.953" r="4" fill="#0" id="circle68"/>
	<circle cx="427.338" cy="659.015" r="4" fill="#0" id="circle69"/>
	<circle cx="429.444" cy="14.5308" r="4" fill="#0" id="circle70"/>
	<circle cx="437.868" cy="616.892" r="4" fill="#0" id="circle71"/>
	<circle cx="450.505" cy="14.5308" r="4" fill="#0" id="circle72"/>
	<circle cx="458.93" cy="616.892" r="4" fill="#0" id="circle73"/>
	<circle cx="471.567" cy="14.5308" r="4" fill="#0" id="circle74"/>
	<circle cx="479.992" cy="616.892" r="4" fill="#0" id="circle75"/>
	<circle cx="492.628" cy="14.5308" r="4" fill="#0" id="circle76"/>
	<circle cx="501.053" cy="616.892" r="4" fill="#0" id="circle77"/>
	<circle cx="513.69" cy="14.5308" r="4" fill="#0" id="circle78"/>
	<circle cx="522.115" cy="616.892" r="4" fill="#0" id="circle79"/>
	<circle cx="534.752" cy="14.5308" r="4" fill="#0" id="circle80"/>
	<circle cx="543.176" cy="616.892" r="4" fill="#0" id="circle81"/>
	<circle cx="555.813" cy="14.5308" r="4" fill="#0" id="circle82"/>
	<circle cx="564.238" cy="616.892" r="4" fill="#0" id="circle83"/>
	<circle cx="576.875" cy="14.5308" r="4" fill="#0" id="circle84"/>
	<circle cx="585.299" cy="616.892" r="4" fill="#0" id="circle85"/>
	<circle cx="597.936" cy="14.5308" r="4" fill="#0" id="circle86"/>
	<circle cx="606.361" cy="616.892" r="4" fill="#0" id="circle87"/>
	<circle cx="618.998" cy="14.5308" r="4" fill="#0" id="circle88"/>
	<circle cx="625.316" cy="606.361" r="4" fill="#0" id="circle89"/>
	<circle cx="640.059" cy="14.5308" r="4" fill="#0" id="circle90"/>
	<circle cx="646.378" cy="606.361" r="4" fill="#0" id="circle91"/>
	<circle cx="661.121" cy="14.5308" r="4" fill="#0" id="circle92"/>
	<circle cx="667.439" cy="606.361" r="4" fill="#0" id="circle93"/>
	<circle cx="682.183" cy="14.5308" r="4" fill="#0" id="circle94"/>
	<circle cx="688.501" cy="606.361" r="4" fill="#0" id="circle95"/>
	<circle cx="703.244" cy="14.5308" r="4" fill="#0" id="circle96"/>
	<circle cx="709.563" cy="606.361" r="4" fill="#0" id="circle97"/>
	<circle cx="724.306" cy="14.5308" r="4" fill="#0" id="circle98"/>
	<circle cx="730.624" cy="606.361" r="4" fill="#0" id="circle99"/>
	<circle cx="745.367" cy="14.5308" r="4" fill="#0" id="circle100"/>
	<circle cx="751.686" cy="606.361" r="4" fill="#0" id="circle101"/>
	<circle cx="766.429" cy="14.5308" r="4" fill="#0" id="circle102"/>
	<circle cx="772.747" cy="606.361" r="4" fill="#0" id="circle103"/>
	<circle cx="787.49" cy="14.5308" r="4" fill="#0" id="circle104"/>
	<circle cx="793.809" cy="606.361" r="4" fill="#0" id="circle105"/>
	<circle cx="808.552" cy="14.5308" r="4" fill="#0" id="circle106"/>
	<circle cx="814.87" cy="606.361" r="4" fill="#0" id="circle107"/>
	<circle cx="829.614" cy="14.5308" r="4" fill="#0" id="circle108"/>
	<circle cx="835.932" cy="606.361" r="4" fill="#0" id="circle109"/>
	<circle cx="848.569" cy="4" r="4" fill="#0" id="circle110"/>
	<circle cx="856.994" cy="606.361" r="4" fill="#0" id="circle111"/>
	<circle cx="867.524" cy="14.5308" r="4" fill="#0" id="circle112"/>
	<circle cx="878.055" cy="606.361" r="4" fill="#0" id="circle113"/>
	<circle cx="888.586" cy="14.5308" r="4" fill="#0" id="circle114"/>
	<circle cx="899.117" cy="606.361" r="4" fill="#0" id="circle115"/>
	<circle cx="909.648" cy="18.7431" r="4" fill="#0" id="circle116"/>
	<circle cx="920.178" cy="606.361" r="4" fill="#0" id="circle117"/>
	<circle cx="922.285" cy="35.5924" r="4" fill="#0" id="circle118"/>
	<circle cx="932.815" cy="585.299" r="4" fill="#0" id="circle119"/>
	<circle cx="943.346" cy="41.9108" r="4" fill="#0" id="circle120"/>
	<circle cx="953.877" cy="574.769" r="4" fill="#0" id="circle121"/>
	<circle cx="960.195" cy="56.6539" r="4" fill="#0" id="circle122"/>
	<circle cx="974.938" cy="73.5032" r="4" fill="#0" id="circle123"/>
	<circle cx="974.938" cy="94.5648" r="4" fill="#0" id="circle124"/>
	<circle cx="974.938" cy="564.238" r="4" fill="#0" id="circle125"/>
	<circle cx="985.469" cy="113.52" r="4" fill="#0" id="circle126"/>
	<circle cx="985.469" cy="134.582" r="4" fill="#0" id="circle127"/>
	<circle cx="985.469" cy="155.643" r="4" fill="#0" id="circle128"/>
	<circle cx="985.469" cy="522.115" r="4" fill="#0" id="circle129"/>
	<circle cx="985.469" cy="543.176" r="4" fill="#0" id="circle130"/>
	<circle cx="996" cy="174.599" r="4" fill="#0" id="circle131"/>
	<circle cx="996" cy="195.66" r="4" fill="#0" id="circle132"/>
	<circle cx="996" cy="216.722" r="4" fill="#0" id="circle133"/>
	<circle cx="996" cy="237.783" r="4" fill="#0" id="circle134"/>
	<circle cx="996" cy="258.845" r="4" fill="#0" id="circle135"/>
	<circle cx="996" cy="279.907" r="4" fill="#0" id="circle136"/>
	<circle cx="996" cy="300.968" r="4" fill="#0" id="circle137"/>
	<circle cx="996" cy="322.03" r="4" fill="#0" id="circle138"/>
	<circle cx="996" cy="343.091" r="4" fill="#0" id="circle139"/>
	<circle cx="996" cy="364.153" r="4" fill="#0" id="circle140"/>
	<circle cx="996" cy="385.214" r="4" fill="#0" id="circle141"/>
	<circle cx="996" cy="406.276" r="4" fill="#0" id="circle142"/>
	<circle cx="996" cy="427.338" r="4" fill="#0" id="circle143"/>
	<circle cx="996" cy="448.399" r="4" fill="#0" id="circle144"/>
	<circle cx="996" cy="469.461" r="4" fill="#0" id="circle145"/>
	<circle cx="996" cy="490.522" r="4" fill="#0" id="circle146"/>
	</g>
</svg>