<?xml version="1.0" encoding="UTF-8" standalone="no"?>
<!-- Created with CurveBenchmark -->
<svg
	xmlns:dc="http://purl.org/dc/elements/1.1/"
	xmlns:cc="http://creativecommons.org/ns#"
	xmlns:rdf="http://www.w3.org/1999/02/22-rdf-syntax-ns#"
	xmlns:svg="http://www.w3.org/2000/svg"
	xmlns="http://www.w3.org/2000/svg"
	xmlns:sodipodi="http://sodipodi.sourceforge.net/DTD/sodipodi-0.dtd"
	xmlns:inkscape="http://www.inkscape.org/namespaces/inkscape"
	width="1000"
	height="1000"
	id="svg2"
	version="1.1"
	sodipodi:docname="manifold/ccrust-flatfish25.png.txt">
<defs
	id="defs4" />
<metadata
	id="metadata7">
	<rdf:RDF>
		<cc:Work
			rdf:about="">
			<dc:format>image/svg+xml</dc:format>
			<dc:type
				rdf:resource="http://purl.org/dc/dcmitype/StillImage" />
			<dc:title></dc:title>
		</cc:Work>
	</rdf:RDF>
</metadata>
<g
	inkscape:label="Layer 1"
	inkscape:groupmode="layer"
	id="layer1">
	<path style="fill:none;stroke:red;stroke-width:1px;stroke-linecap:butt;stroke-linejoin:miter;stroke-opacity:1" d="M 98.6316,163.895 114.947,155.737 z" id="boundary" inkscape:connector-curvature="0" />
	<path style="fill:none;stroke:red;stroke-width:1px;stroke-linecap:butt;stroke-linejoin:miter;stroke-opacity:1" d="M 131.263,147.579 114.947,155.737 z" id="boundary" inkscape:connector-curvature="0" />
	<path style="fill:none;stroke:red;stroke-width:1px;stroke-linecap:butt;stroke-linejoin:miter;stroke-opacity:1" d="M 70.8947,183.474 83.9474,172.053 z" id="boundary" inkscape:connector-curvature="0" />
	<path style="fill:none;stroke:red;stroke-width:1px;stroke-linecap:butt;stroke-linejoin:miter;stroke-opacity:1" d="M 83.9474,172.053 98.6316,163.895 z" id="boundary" inkscape:connector-curvature="0" />
	<path style="fill:none;stroke:red;stroke-width:1px;stroke-linecap:butt;stroke-linejoin:miter;stroke-opacity:1" d="M 183.474,95.3684 199.789,87.2105 z" id="boundary" inkscape:connector-curvature="0" />
	<path style="fill:none;stroke:red;stroke-width:1px;stroke-linecap:butt;stroke-linejoin:miter;stroke-opacity:1" d="M 173.684,114.947 183.474,95.3684 z" id="boundary" inkscape:connector-curvature="0" />
	<path style="fill:none;stroke:red;stroke-width:1px;stroke-linecap:butt;stroke-linejoin:miter;stroke-opacity:1" d="M 207.947,62.7368 199.789,87.2105 z" id="boundary" inkscape:connector-curvature="0" />
	<path style="fill:none;stroke:red;stroke-width:1px;stroke-linecap:butt;stroke-linejoin:miter;stroke-opacity:1" d="M 147.579,139.421 160.632,126.368 z" id="boundary" inkscape:connector-curvature="0" />
	<path style="fill:none;stroke:red;stroke-width:1px;stroke-linecap:butt;stroke-linejoin:miter;stroke-opacity:1" d="M 147.579,139.421 131.263,147.579 z" id="boundary" inkscape:connector-curvature="0" />
	<path style="fill:none;stroke:red;stroke-width:1px;stroke-linecap:butt;stroke-linejoin:miter;stroke-opacity:1" d="M 173.684,114.947 160.632,126.368 z" id="boundary" inkscape:connector-curvature="0" />
	<path style="fill:none;stroke:red;stroke-width:1px;stroke-linecap:butt;stroke-linejoin:miter;stroke-opacity:1" d="M 12.1579,315.632 12.1579,299.316 z" id="boundary" inkscape:connector-curvature="0" />
	<path style="fill:none;stroke:red;stroke-width:1px;stroke-linecap:butt;stroke-linejoin:miter;stroke-opacity:1" d="M 4,331.947 12.1579,315.632 z" id="boundary" inkscape:connector-curvature="0" />
	<path style="fill:none;stroke:red;stroke-width:1px;stroke-linecap:butt;stroke-linejoin:miter;stroke-opacity:1" d="M 12.1579,346.632 4,331.947 z" id="boundary" inkscape:connector-curvature="0" />
	<path style="fill:none;stroke:red;stroke-width:1px;stroke-linecap:butt;stroke-linejoin:miter;stroke-opacity:1" d="M 20.3158,361.316 12.1579,346.632 z" id="boundary" inkscape:connector-curvature="0" />
	<path style="fill:none;stroke:red;stroke-width:1px;stroke-linecap:butt;stroke-linejoin:miter;stroke-opacity:1" d="M 12.1579,299.316 20.3158,274.842 z" id="boundary" inkscape:connector-curvature="0" />
	<path style="fill:none;stroke:red;stroke-width:1px;stroke-linecap:butt;stroke-linejoin:miter;stroke-opacity:1" d="M 20.3158,274.842 33.3684,261.789 z" id="boundary" inkscape:connector-curvature="0" />
	<path style="fill:none;stroke:red;stroke-width:1px;stroke-linecap:butt;stroke-linejoin:miter;stroke-opacity:1" d="M 44.7895,209.579 57.8421,196.526 z" id="boundary" inkscape:connector-curvature="0" />
	<path style="fill:none;stroke:red;stroke-width:1px;stroke-linecap:butt;stroke-linejoin:miter;stroke-opacity:1" d="M 44.7895,225.895 44.7895,209.579 z" id="boundary" inkscape:connector-curvature="0" />
	<path style="fill:none;stroke:red;stroke-width:1px;stroke-linecap:butt;stroke-linejoin:miter;stroke-opacity:1" d="M 57.8421,196.526 70.8947,183.474 z" id="boundary" inkscape:connector-curvature="0" />
	<path style="fill:none;stroke:red;stroke-width:1px;stroke-linecap:butt;stroke-linejoin:miter;stroke-opacity:1" d="M 44.7895,225.895 41.5263,245.474 z" id="boundary" inkscape:connector-curvature="0" />
	<path style="fill:none;stroke:red;stroke-width:1px;stroke-linecap:butt;stroke-linejoin:miter;stroke-opacity:1" d="M 41.5263,245.474 33.3684,261.789 z" id="boundary" inkscape:connector-curvature="0" />
	<path style="fill:none;stroke:red;stroke-width:1px;stroke-linecap:butt;stroke-linejoin:miter;stroke-opacity:1" d="M 20.3158,361.316 25.2105,377.632 z" id="boundary" inkscape:connector-curvature="0" />
	<path style="fill:none;stroke:red;stroke-width:1px;stroke-linecap:butt;stroke-linejoin:miter;stroke-opacity:1" d="M 330.316,5.63158 346.632,8.89474 z" id="boundary" inkscape:connector-curvature="0" />
	<path style="fill:none;stroke:red;stroke-width:1px;stroke-linecap:butt;stroke-linejoin:miter;stroke-opacity:1" d="M 314,12.1579 330.316,5.63158 z" id="boundary" inkscape:connector-curvature="0" />
	<path style="fill:none;stroke:red;stroke-width:1px;stroke-linecap:butt;stroke-linejoin:miter;stroke-opacity:1" d="M 362.947,8.89474 346.632,8.89474 z" id="boundary" inkscape:connector-curvature="0" />
	<path style="fill:none;stroke:red;stroke-width:1px;stroke-linecap:butt;stroke-linejoin:miter;stroke-opacity:1" d="M 297.684,17.0526 314,12.1579 z" id="boundary" inkscape:connector-curvature="0" />
	<path style="fill:none;stroke:red;stroke-width:1px;stroke-linecap:butt;stroke-linejoin:miter;stroke-opacity:1" d="M 379.263,8.89474 362.947,8.89474 z" id="boundary" inkscape:connector-curvature="0" />
	<path style="fill:none;stroke:red;stroke-width:1px;stroke-linecap:butt;stroke-linejoin:miter;stroke-opacity:1" d="M 297.684,17.0526 281.368,21.9474 z" id="boundary" inkscape:connector-curvature="0" />
	<path style="fill:none;stroke:red;stroke-width:1px;stroke-linecap:butt;stroke-linejoin:miter;stroke-opacity:1" d="M 395.579,8.89474 379.263,8.89474 z" id="boundary" inkscape:connector-curvature="0" />
	<path style="fill:none;stroke:red;stroke-width:1px;stroke-linecap:butt;stroke-linejoin:miter;stroke-opacity:1" d="M 411.895,8.89474 395.579,8.89474 z" id="boundary" inkscape:connector-curvature="0" />
	<path style="fill:none;stroke:red;stroke-width:1px;stroke-linecap:butt;stroke-linejoin:miter;stroke-opacity:1" d="M 411.895,8.89474 428.211,8.89474 z" id="boundary" inkscape:connector-curvature="0" />
	<path style="fill:none;stroke:red;stroke-width:1px;stroke-linecap:butt;stroke-linejoin:miter;stroke-opacity:1" d="M 444.526,4 428.211,8.89474 z" id="boundary" inkscape:connector-curvature="0" />
	<path style="fill:none;stroke:red;stroke-width:1px;stroke-linecap:butt;stroke-linejoin:miter;stroke-opacity:1" d="M 444.526,4 454.316,17.0526 z" id="boundary" inkscape:connector-curvature="0" />
	<path style="fill:none;stroke:red;stroke-width:1px;stroke-linecap:butt;stroke-linejoin:miter;stroke-opacity:1" d="M 486.947,12.1579 470.632,17.0526 z" id="boundary" inkscape:connector-curvature="0" />
	<path style="fill:none;stroke:red;stroke-width:1px;stroke-linecap:butt;stroke-linejoin:miter;stroke-opacity:1" d="M 281.368,21.9474 268.316,33.3684 z" id="boundary" inkscape:connector-curvature="0" />
	<path style="fill:none;stroke:red;stroke-width:1px;stroke-linecap:butt;stroke-linejoin:miter;stroke-opacity:1" d="M 268.316,33.3684 253.632,41.5263 z" id="boundary" inkscape:connector-curvature="0" />
	<path style="fill:none;stroke:red;stroke-width:1px;stroke-linecap:butt;stroke-linejoin:miter;stroke-opacity:1" d="M 238.947,49.6842 224.263,57.8421 z" id="boundary" inkscape:connector-curvature="0" />
	<path style="fill:none;stroke:red;stroke-width:1px;stroke-linecap:butt;stroke-linejoin:miter;stroke-opacity:1" d="M 224.263,57.8421 207.947,62.7368 z" id="boundary" inkscape:connector-curvature="0" />
	<path style="fill:none;stroke:red;stroke-width:1px;stroke-linecap:butt;stroke-linejoin:miter;stroke-opacity:1" d="M 253.632,41.5263 238.947,49.6842 z" id="boundary" inkscape:connector-curvature="0" />
	<path style="fill:none;stroke:red;stroke-width:1px;stroke-linecap:butt;stroke-linejoin:miter;stroke-opacity:1" d="M 470.632,17.0526 454.316,17.0526 z" id="boundary" inkscape:connector-curvature="0" />
	<path style="fill:none;stroke:red;stroke-width:1px;stroke-linecap:butt;stroke-linejoin:miter;stroke-opacity:1" d="M 486.947,12.1579 503.263,17.0526 z" id="boundary" inkscape:connector-curvature="0" />
	<path style="fill:none;stroke:red;stroke-width:1px;stroke-linecap:butt;stroke-linejoin:miter;stroke-opacity:1" d="M 535.895,17.0526 519.579,17.0526 z" id="boundary" inkscape:connector-curvature="0" />
	<path style="fill:none;stroke:red;stroke-width:1px;stroke-linecap:butt;stroke-linejoin:miter;stroke-opacity:1" d="M 519.579,17.0526 503.263,17.0526 z" id="boundary" inkscape:connector-curvature="0" />
	<path style="fill:none;stroke:red;stroke-width:1px;stroke-linecap:butt;stroke-linejoin:miter;stroke-opacity:1" d="M 25.2105,377.632 38.2632,389.053 z" id="boundary" inkscape:connector-curvature="0" />
	<path style="fill:none;stroke:red;stroke-width:1px;stroke-linecap:butt;stroke-linejoin:miter;stroke-opacity:1" d="M 38.2632,389.053 49.6842,402.105 z" id="boundary" inkscape:connector-curvature="0" />
	<path style="fill:none;stroke:red;stroke-width:1px;stroke-linecap:butt;stroke-linejoin:miter;stroke-opacity:1" d="M 77.4211,421.684 62.7368,413.526 z" id="boundary" inkscape:connector-curvature="0" />
	<path style="fill:none;stroke:red;stroke-width:1px;stroke-linecap:butt;stroke-linejoin:miter;stroke-opacity:1" d="M 62.7368,413.526 49.6842,402.105 z" id="boundary" inkscape:connector-curvature="0" />
	<path style="fill:none;stroke:red;stroke-width:1px;stroke-linecap:butt;stroke-linejoin:miter;stroke-opacity:1" d="M 77.4211,421.684 87.2105,434.737 z" id="boundary" inkscape:connector-curvature="0" />
	<path style="fill:none;stroke:red;stroke-width:1px;stroke-linecap:butt;stroke-linejoin:miter;stroke-opacity:1" d="M 87.2105,434.737 101.895,442.895 z" id="boundary" inkscape:connector-curvature="0" />
	<path style="fill:none;stroke:red;stroke-width:1px;stroke-linecap:butt;stroke-linejoin:miter;stroke-opacity:1" d="M 116.579,451.053 101.895,442.895 z" id="boundary" inkscape:connector-curvature="0" />
	<path style="fill:none;stroke:red;stroke-width:1px;stroke-linecap:butt;stroke-linejoin:miter;stroke-opacity:1" d="M 131.263,459.211 147.579,459.211 z" id="boundary" inkscape:connector-curvature="0" />
	<path style="fill:none;stroke:red;stroke-width:1px;stroke-linecap:butt;stroke-linejoin:miter;stroke-opacity:1" d="M 147.579,459.211 160.632,470.632 z" id="boundary" inkscape:connector-curvature="0" />
	<path style="fill:none;stroke:red;stroke-width:1px;stroke-linecap:butt;stroke-linejoin:miter;stroke-opacity:1" d="M 131.263,459.211 116.579,451.053 z" id="boundary" inkscape:connector-curvature="0" />
	<path style="fill:none;stroke:red;stroke-width:1px;stroke-linecap:butt;stroke-linejoin:miter;stroke-opacity:1" d="M 160.632,470.632 167.158,495.105 z" id="boundary" inkscape:connector-curvature="0" />
	<path style="fill:none;stroke:red;stroke-width:1px;stroke-linecap:butt;stroke-linejoin:miter;stroke-opacity:1" d="M 216.105,508.158 199.789,511.421 z" id="boundary" inkscape:connector-curvature="0" />
	<path style="fill:none;stroke:red;stroke-width:1px;stroke-linecap:butt;stroke-linejoin:miter;stroke-opacity:1" d="M 183.474,516.316 167.158,511.421 z" id="boundary" inkscape:connector-curvature="0" />
	<path style="fill:none;stroke:red;stroke-width:1px;stroke-linecap:butt;stroke-linejoin:miter;stroke-opacity:1" d="M 167.158,511.421 167.158,495.105 z" id="boundary" inkscape:connector-curvature="0" />
	<path style="fill:none;stroke:red;stroke-width:1px;stroke-linecap:butt;stroke-linejoin:miter;stroke-opacity:1" d="M 199.789,511.421 183.474,516.316 z" id="boundary" inkscape:connector-curvature="0" />
	<path style="fill:none;stroke:red;stroke-width:1px;stroke-linecap:butt;stroke-linejoin:miter;stroke-opacity:1" d="M 216.105,508.158 232.421,508.158 z" id="boundary" inkscape:connector-curvature="0" />
	<path style="fill:none;stroke:red;stroke-width:1px;stroke-linecap:butt;stroke-linejoin:miter;stroke-opacity:1" d="M 232.421,508.158 248.737,508.158 z" id="boundary" inkscape:connector-curvature="0" />
	<path style="fill:none;stroke:red;stroke-width:1px;stroke-linecap:butt;stroke-linejoin:miter;stroke-opacity:1" d="M 248.737,508.158 265.053,508.158 z" id="boundary" inkscape:connector-curvature="0" />
	<path style="fill:none;stroke:red;stroke-width:1px;stroke-linecap:butt;stroke-linejoin:miter;stroke-opacity:1" d="M 297.684,545.684 286.263,532.632 z" id="boundary" inkscape:connector-curvature="0" />
	<path style="fill:none;stroke:red;stroke-width:1px;stroke-linecap:butt;stroke-linejoin:miter;stroke-opacity:1" d="M 286.263,532.632 279.737,516.316 z" id="boundary" inkscape:connector-curvature="0" />
	<path style="fill:none;stroke:red;stroke-width:1px;stroke-linecap:butt;stroke-linejoin:miter;stroke-opacity:1" d="M 265.053,508.158 279.737,516.316 z" id="boundary" inkscape:connector-curvature="0" />
	<path style="fill:none;stroke:red;stroke-width:1px;stroke-linecap:butt;stroke-linejoin:miter;stroke-opacity:1" d="M 297.684,545.684 305.842,560.368 z" id="boundary" inkscape:connector-curvature="0" />
	<path style="fill:none;stroke:red;stroke-width:1px;stroke-linecap:butt;stroke-linejoin:miter;stroke-opacity:1" d="M 362.947,508.158 377.632,500 z" id="boundary" inkscape:connector-curvature="0" />
	<path style="fill:none;stroke:red;stroke-width:1px;stroke-linecap:butt;stroke-linejoin:miter;stroke-opacity:1" d="M 377.632,500 389.053,513.053 z" id="boundary" inkscape:connector-curvature="0" />
	<path style="fill:none;stroke:red;stroke-width:1px;stroke-linecap:butt;stroke-linejoin:miter;stroke-opacity:1" d="M 348.263,532.632 348.263,516.316 z" id="boundary" inkscape:connector-curvature="0" />
	<path style="fill:none;stroke:red;stroke-width:1px;stroke-linecap:butt;stroke-linejoin:miter;stroke-opacity:1" d="M 348.263,516.316 362.947,508.158 z" id="boundary" inkscape:connector-curvature="0" />
	<path style="fill:none;stroke:red;stroke-width:1px;stroke-linecap:butt;stroke-linejoin:miter;stroke-opacity:1" d="M 405.368,516.316 389.053,513.053 z" id="boundary" inkscape:connector-curvature="0" />
	<path style="fill:none;stroke:red;stroke-width:1px;stroke-linecap:butt;stroke-linejoin:miter;stroke-opacity:1" d="M 421.684,519.579 405.368,516.316 z" id="boundary" inkscape:connector-curvature="0" />
	<path style="fill:none;stroke:red;stroke-width:1px;stroke-linecap:butt;stroke-linejoin:miter;stroke-opacity:1" d="M 462.474,516.316 449.421,531 z" id="boundary" inkscape:connector-curvature="0" />
	<path style="fill:none;stroke:red;stroke-width:1px;stroke-linecap:butt;stroke-linejoin:miter;stroke-opacity:1" d="M 478.789,516.316 462.474,516.316 z" id="boundary" inkscape:connector-curvature="0" />
	<path style="fill:none;stroke:red;stroke-width:1px;stroke-linecap:butt;stroke-linejoin:miter;stroke-opacity:1" d="M 495.105,516.316 511.421,516.316 z" id="boundary" inkscape:connector-curvature="0" />
	<path style="fill:none;stroke:red;stroke-width:1px;stroke-linecap:butt;stroke-linejoin:miter;stroke-opacity:1" d="M 478.789,516.316 495.105,516.316 z" id="boundary" inkscape:connector-curvature="0" />
	<path style="fill:none;stroke:red;stroke-width:1px;stroke-linecap:butt;stroke-linejoin:miter;stroke-opacity:1" d="M 511.421,516.316 527.737,516.316 z" id="boundary" inkscape:connector-curvature="0" />
	<path style="fill:none;stroke:red;stroke-width:1px;stroke-linecap:butt;stroke-linejoin:miter;stroke-opacity:1" d="M 421.684,519.579 433.105,532.632 z" id="boundary" inkscape:connector-curvature="0" />
	<path style="fill:none;stroke:red;stroke-width:1px;stroke-linecap:butt;stroke-linejoin:miter;stroke-opacity:1" d="M 318.895,571.789 305.842,560.368 z" id="boundary" inkscape:connector-curvature="0" />
	<path style="fill:none;stroke:red;stroke-width:1px;stroke-linecap:butt;stroke-linejoin:miter;stroke-opacity:1" d="M 348.263,532.632 348.263,548.947 z" id="boundary" inkscape:connector-curvature="0" />
	<path style="fill:none;stroke:red;stroke-width:1px;stroke-linecap:butt;stroke-linejoin:miter;stroke-opacity:1" d="M 341.737,589.737 325.421,588.105 z" id="boundary" inkscape:connector-curvature="0" />
	<path style="fill:none;stroke:red;stroke-width:1px;stroke-linecap:butt;stroke-linejoin:miter;stroke-opacity:1" d="M 325.421,588.105 318.895,571.789 z" id="boundary" inkscape:connector-curvature="0" />
	<path style="fill:none;stroke:red;stroke-width:1px;stroke-linecap:butt;stroke-linejoin:miter;stroke-opacity:1" d="M 356.421,563.632 348.263,548.947 z" id="boundary" inkscape:connector-curvature="0" />
	<path style="fill:none;stroke:red;stroke-width:1px;stroke-linecap:butt;stroke-linejoin:miter;stroke-opacity:1" d="M 433.105,532.632 449.421,531 z" id="boundary" inkscape:connector-curvature="0" />
	<path style="fill:none;stroke:red;stroke-width:1px;stroke-linecap:butt;stroke-linejoin:miter;stroke-opacity:1" d="M 356.421,563.632 356.421,579.947 z" id="boundary" inkscape:connector-curvature="0" />
	<path style="fill:none;stroke:red;stroke-width:1px;stroke-linecap:butt;stroke-linejoin:miter;stroke-opacity:1" d="M 527.737,516.316 544.053,516.316 z" id="boundary" inkscape:connector-curvature="0" />
	<path style="fill:none;stroke:red;stroke-width:1px;stroke-linecap:butt;stroke-linejoin:miter;stroke-opacity:1" d="M 535.895,17.0526 548.947,26.8421 z" id="boundary" inkscape:connector-curvature="0" />
	<path style="fill:none;stroke:red;stroke-width:1px;stroke-linecap:butt;stroke-linejoin:miter;stroke-opacity:1" d="M 548.947,26.8421 565.263,26.8421 z" id="boundary" inkscape:connector-curvature="0" />
	<path style="fill:none;stroke:red;stroke-width:1px;stroke-linecap:butt;stroke-linejoin:miter;stroke-opacity:1" d="M 565.263,26.8421 579.947,35 z" id="boundary" inkscape:connector-curvature="0" />
	<path style="fill:none;stroke:red;stroke-width:1px;stroke-linecap:butt;stroke-linejoin:miter;stroke-opacity:1" d="M 579.947,35 596.263,33.3684 z" id="boundary" inkscape:connector-curvature="0" />
	<path style="fill:none;stroke:red;stroke-width:1px;stroke-linecap:butt;stroke-linejoin:miter;stroke-opacity:1" d="M 596.263,33.3684 610.947,41.5263 z" id="boundary" inkscape:connector-curvature="0" />
	<path style="fill:none;stroke:red;stroke-width:1px;stroke-linecap:butt;stroke-linejoin:miter;stroke-opacity:1" d="M 610.947,41.5263 625.632,49.6842 z" id="boundary" inkscape:connector-curvature="0" />
	<path style="fill:none;stroke:red;stroke-width:1px;stroke-linecap:butt;stroke-linejoin:miter;stroke-opacity:1" d="M 625.632,49.6842 641.947,54.5789 z" id="boundary" inkscape:connector-curvature="0" />
	<path style="fill:none;stroke:red;stroke-width:1px;stroke-linecap:butt;stroke-linejoin:miter;stroke-opacity:1" d="M 641.947,54.5789 653.368,67.6316 z" id="boundary" inkscape:connector-curvature="0" />
	<path style="fill:none;stroke:red;stroke-width:1px;stroke-linecap:butt;stroke-linejoin:miter;stroke-opacity:1" d="M 669.684,74.1579 653.368,67.6316 z" id="boundary" inkscape:connector-curvature="0" />
	<path style="fill:none;stroke:red;stroke-width:1px;stroke-linecap:butt;stroke-linejoin:miter;stroke-opacity:1" d="M 669.684,74.1579 682.737,83.9474 z" id="boundary" inkscape:connector-curvature="0" />
	<path style="fill:none;stroke:red;stroke-width:1px;stroke-linecap:butt;stroke-linejoin:miter;stroke-opacity:1" d="M 695.789,93.7368 682.737,83.9474 z" id="boundary" inkscape:connector-curvature="0" />
	<path style="fill:none;stroke:red;stroke-width:1px;stroke-linecap:butt;stroke-linejoin:miter;stroke-opacity:1" d="M 695.789,93.7368 707.211,106.789 z" id="boundary" inkscape:connector-curvature="0" />
	<path style="fill:none;stroke:red;stroke-width:1px;stroke-linecap:butt;stroke-linejoin:miter;stroke-opacity:1" d="M 707.211,106.789 723.526,111.684 z" id="boundary" inkscape:connector-curvature="0" />
	<path style="fill:none;stroke:red;stroke-width:1px;stroke-linecap:butt;stroke-linejoin:miter;stroke-opacity:1" d="M 723.526,111.684 736.579,123.105 z" id="boundary" inkscape:connector-curvature="0" />
	<path style="fill:none;stroke:red;stroke-width:1px;stroke-linecap:butt;stroke-linejoin:miter;stroke-opacity:1" d="M 736.579,123.105 751.263,131.263 z" id="boundary" inkscape:connector-curvature="0" />
	<path style="fill:none;stroke:red;stroke-width:1px;stroke-linecap:butt;stroke-linejoin:miter;stroke-opacity:1" d="M 751.263,131.263 762.684,144.316 z" id="boundary" inkscape:connector-curvature="0" />
	<path style="fill:none;stroke:red;stroke-width:1px;stroke-linecap:butt;stroke-linejoin:miter;stroke-opacity:1" d="M 772.474,157.368 772.474,173.684 z" id="boundary" inkscape:connector-curvature="0" />
	<path style="fill:none;stroke:red;stroke-width:1px;stroke-linecap:butt;stroke-linejoin:miter;stroke-opacity:1" d="M 762.684,144.316 772.474,157.368 z" id="boundary" inkscape:connector-curvature="0" />
	<path style="fill:none;stroke:red;stroke-width:1px;stroke-linecap:butt;stroke-linejoin:miter;stroke-opacity:1" d="M 818.158,196.526 803.474,204.684 z" id="boundary" inkscape:connector-curvature="0" />
	<path style="fill:none;stroke:red;stroke-width:1px;stroke-linecap:butt;stroke-linejoin:miter;stroke-opacity:1" d="M 772.474,190 772.474,173.684 z" id="boundary" inkscape:connector-curvature="0" />
	<path style="fill:none;stroke:red;stroke-width:1px;stroke-linecap:butt;stroke-linejoin:miter;stroke-opacity:1" d="M 788.789,212.842 772.474,206.316 z" id="boundary" inkscape:connector-curvature="0" />
	<path style="fill:none;stroke:red;stroke-width:1px;stroke-linecap:butt;stroke-linejoin:miter;stroke-opacity:1" d="M 772.474,206.316 772.474,190 z" id="boundary" inkscape:connector-curvature="0" />
	<path style="fill:none;stroke:red;stroke-width:1px;stroke-linecap:butt;stroke-linejoin:miter;stroke-opacity:1" d="M 803.474,204.684 788.789,212.842 z" id="boundary" inkscape:connector-curvature="0" />
	<path style="fill:none;stroke:red;stroke-width:1px;stroke-linecap:butt;stroke-linejoin:miter;stroke-opacity:1" d="M 930.737,114.947 947.053,106.789 z" id="boundary" inkscape:connector-curvature="0" />
	<path style="fill:none;stroke:red;stroke-width:1px;stroke-linecap:butt;stroke-linejoin:miter;stroke-opacity:1" d="M 881.789,139.421 898.105,131.263 z" id="boundary" inkscape:connector-curvature="0" />
	<path style="fill:none;stroke:red;stroke-width:1px;stroke-linecap:butt;stroke-linejoin:miter;stroke-opacity:1" d="M 914.421,123.105 898.105,131.263 z" id="boundary" inkscape:connector-curvature="0" />
	<path style="fill:none;stroke:red;stroke-width:1px;stroke-linecap:butt;stroke-linejoin:miter;stroke-opacity:1" d="M 914.421,123.105 930.737,114.947 z" id="boundary" inkscape:connector-curvature="0" />
	<path style="fill:none;stroke:red;stroke-width:1px;stroke-linecap:butt;stroke-linejoin:miter;stroke-opacity:1" d="M 963.368,106.789 979.684,106.789 z" id="boundary" inkscape:connector-curvature="0" />
	<path style="fill:none;stroke:red;stroke-width:1px;stroke-linecap:butt;stroke-linejoin:miter;stroke-opacity:1" d="M 996,106.789 979.684,106.789 z" id="boundary" inkscape:connector-curvature="0" />
	<path style="fill:none;stroke:red;stroke-width:1px;stroke-linecap:butt;stroke-linejoin:miter;stroke-opacity:1" d="M 996,106.789 996,124.737 z" id="boundary" inkscape:connector-curvature="0" />
	<path style="fill:none;stroke:red;stroke-width:1px;stroke-linecap:butt;stroke-linejoin:miter;stroke-opacity:1" d="M 981.316,132.895 965,137.789 z" id="boundary" inkscape:connector-curvature="0" />
	<path style="fill:none;stroke:red;stroke-width:1px;stroke-linecap:butt;stroke-linejoin:miter;stroke-opacity:1" d="M 996,124.737 981.316,132.895 z" id="boundary" inkscape:connector-curvature="0" />
	<path style="fill:none;stroke:red;stroke-width:1px;stroke-linecap:butt;stroke-linejoin:miter;stroke-opacity:1" d="M 951.947,149.211 965,137.789 z" id="boundary" inkscape:connector-curvature="0" />
	<path style="fill:none;stroke:red;stroke-width:1px;stroke-linecap:butt;stroke-linejoin:miter;stroke-opacity:1" d="M 947.053,106.789 963.368,106.789 z" id="boundary" inkscape:connector-curvature="0" />
	<path style="fill:none;stroke:red;stroke-width:1px;stroke-linecap:butt;stroke-linejoin:miter;stroke-opacity:1" d="M 842.632,172.053 854.053,159 z" id="boundary" inkscape:connector-curvature="0" />
	<path style="fill:none;stroke:red;stroke-width:1px;stroke-linecap:butt;stroke-linejoin:miter;stroke-opacity:1" d="M 867.105,147.579 854.053,159 z" id="boundary" inkscape:connector-curvature="0" />
	<path style="fill:none;stroke:red;stroke-width:1px;stroke-linecap:butt;stroke-linejoin:miter;stroke-opacity:1" d="M 818.158,196.526 829.579,183.474 z" id="boundary" inkscape:connector-curvature="0" />
	<path style="fill:none;stroke:red;stroke-width:1px;stroke-linecap:butt;stroke-linejoin:miter;stroke-opacity:1" d="M 842.632,172.053 829.579,183.474 z" id="boundary" inkscape:connector-curvature="0" />
	<path style="fill:none;stroke:red;stroke-width:1px;stroke-linecap:butt;stroke-linejoin:miter;stroke-opacity:1" d="M 867.105,147.579 881.789,139.421 z" id="boundary" inkscape:connector-curvature="0" />
	<path style="fill:none;stroke:red;stroke-width:1px;stroke-linecap:butt;stroke-linejoin:miter;stroke-opacity:1" d="M 940.526,162.263 927.474,173.684 z" id="boundary" inkscape:connector-curvature="0" />
	<path style="fill:none;stroke:red;stroke-width:1px;stroke-linecap:butt;stroke-linejoin:miter;stroke-opacity:1" d="M 940.526,162.263 951.947,149.211 z" id="boundary" inkscape:connector-curvature="0" />
	<path style="fill:none;stroke:red;stroke-width:1px;stroke-linecap:butt;stroke-linejoin:miter;stroke-opacity:1" d="M 927.474,190 927.474,173.684 z" id="boundary" inkscape:connector-curvature="0" />
	<path style="fill:none;stroke:red;stroke-width:1px;stroke-linecap:butt;stroke-linejoin:miter;stroke-opacity:1" d="M 927.474,190 927.474,206.316 z" id="boundary" inkscape:connector-curvature="0" />
	<path style="fill:none;stroke:red;stroke-width:1px;stroke-linecap:butt;stroke-linejoin:miter;stroke-opacity:1" d="M 927.474,206.316 927.474,222.632 z" id="boundary" inkscape:connector-curvature="0" />
	<path style="fill:none;stroke:red;stroke-width:1px;stroke-linecap:butt;stroke-linejoin:miter;stroke-opacity:1" d="M 927.474,222.632 927.474,238.947 z" id="boundary" inkscape:connector-curvature="0" />
	<path style="fill:none;stroke:red;stroke-width:1px;stroke-linecap:butt;stroke-linejoin:miter;stroke-opacity:1" d="M 751.263,416.789 759.421,402.105 z" id="boundary" inkscape:connector-curvature="0" />
	<path style="fill:none;stroke:red;stroke-width:1px;stroke-linecap:butt;stroke-linejoin:miter;stroke-opacity:1" d="M 759.421,402.105 775.737,402.105 z" id="boundary" inkscape:connector-curvature="0" />
	<path style="fill:none;stroke:red;stroke-width:1px;stroke-linecap:butt;stroke-linejoin:miter;stroke-opacity:1" d="M 751.263,416.789 736.579,426.579 z" id="boundary" inkscape:connector-curvature="0" />
	<path style="fill:none;stroke:red;stroke-width:1px;stroke-linecap:butt;stroke-linejoin:miter;stroke-opacity:1" d="M 707.211,442.895 720.263,431.474 z" id="boundary" inkscape:connector-curvature="0" />
	<path style="fill:none;stroke:red;stroke-width:1px;stroke-linecap:butt;stroke-linejoin:miter;stroke-opacity:1" d="M 720.263,431.474 736.579,426.579 z" id="boundary" inkscape:connector-curvature="0" />
	<path style="fill:none;stroke:red;stroke-width:1px;stroke-linecap:butt;stroke-linejoin:miter;stroke-opacity:1" d="M 697.421,459.211 707.211,442.895 z" id="boundary" inkscape:connector-curvature="0" />
	<path style="fill:none;stroke:red;stroke-width:1px;stroke-linecap:butt;stroke-linejoin:miter;stroke-opacity:1" d="M 792.053,402.105 775.737,402.105 z" id="boundary" inkscape:connector-curvature="0" />
	<path style="fill:none;stroke:red;stroke-width:1px;stroke-linecap:butt;stroke-linejoin:miter;stroke-opacity:1" d="M 808.368,402.105 792.053,402.105 z" id="boundary" inkscape:connector-curvature="0" />
	<path style="fill:none;stroke:red;stroke-width:1px;stroke-linecap:butt;stroke-linejoin:miter;stroke-opacity:1" d="M 824.684,402.105 841,408.632 z" id="boundary" inkscape:connector-curvature="0" />
	<path style="fill:none;stroke:red;stroke-width:1px;stroke-linecap:butt;stroke-linejoin:miter;stroke-opacity:1" d="M 841,408.632 852.421,421.684 z" id="boundary" inkscape:connector-curvature="0" />
	<path style="fill:none;stroke:red;stroke-width:1px;stroke-linecap:butt;stroke-linejoin:miter;stroke-opacity:1" d="M 868.737,426.579 852.421,421.684 z" id="boundary" inkscape:connector-curvature="0" />
	<path style="fill:none;stroke:red;stroke-width:1px;stroke-linecap:butt;stroke-linejoin:miter;stroke-opacity:1" d="M 808.368,402.105 824.684,402.105 z" id="boundary" inkscape:connector-curvature="0" />
	<path style="fill:none;stroke:red;stroke-width:1px;stroke-linecap:butt;stroke-linejoin:miter;stroke-opacity:1" d="M 589.737,500 606.053,500 z" id="boundary" inkscape:connector-curvature="0" />
	<path style="fill:none;stroke:red;stroke-width:1px;stroke-linecap:butt;stroke-linejoin:miter;stroke-opacity:1" d="M 575.053,508.158 589.737,500 z" id="boundary" inkscape:connector-curvature="0" />
	<path style="fill:none;stroke:red;stroke-width:1px;stroke-linecap:butt;stroke-linejoin:miter;stroke-opacity:1" d="M 575.053,508.158 560.368,516.316 z" id="boundary" inkscape:connector-curvature="0" />
	<path style="fill:none;stroke:red;stroke-width:1px;stroke-linecap:butt;stroke-linejoin:miter;stroke-opacity:1" d="M 560.368,516.316 544.053,516.316 z" id="boundary" inkscape:connector-curvature="0" />
	<path style="fill:none;stroke:red;stroke-width:1px;stroke-linecap:butt;stroke-linejoin:miter;stroke-opacity:1" d="M 606.053,500 622.368,500 z" id="boundary" inkscape:connector-curvature="0" />
	<path style="fill:none;stroke:red;stroke-width:1px;stroke-linecap:butt;stroke-linejoin:miter;stroke-opacity:1" d="M 669.684,482.053 682.737,467.368 z" id="boundary" inkscape:connector-curvature="0" />
	<path style="fill:none;stroke:red;stroke-width:1px;stroke-linecap:butt;stroke-linejoin:miter;stroke-opacity:1" d="M 682.737,467.368 697.421,459.211 z" id="boundary" inkscape:connector-curvature="0" />
	<path style="fill:none;stroke:red;stroke-width:1px;stroke-linecap:butt;stroke-linejoin:miter;stroke-opacity:1" d="M 638.684,496.737 622.368,500 z" id="boundary" inkscape:connector-curvature="0" />
	<path style="fill:none;stroke:red;stroke-width:1px;stroke-linecap:butt;stroke-linejoin:miter;stroke-opacity:1" d="M 669.684,482.053 655,491.842 z" id="boundary" inkscape:connector-curvature="0" />
	<path style="fill:none;stroke:red;stroke-width:1px;stroke-linecap:butt;stroke-linejoin:miter;stroke-opacity:1" d="M 655,491.842 638.684,496.737 z" id="boundary" inkscape:connector-curvature="0" />
	<path style="fill:none;stroke:red;stroke-width:1px;stroke-linecap:butt;stroke-linejoin:miter;stroke-opacity:1" d="M 919.316,369.474 919.316,353.158 z" id="boundary" inkscape:connector-curvature="0" />
	<path style="fill:none;stroke:red;stroke-width:1px;stroke-linecap:butt;stroke-linejoin:miter;stroke-opacity:1" d="M 919.316,353.158 927.474,336.842 z" id="boundary" inkscape:connector-curvature="0" />
	<path style="fill:none;stroke:red;stroke-width:1px;stroke-linecap:butt;stroke-linejoin:miter;stroke-opacity:1" d="M 922.579,402.105 919.316,385.789 z" id="boundary" inkscape:connector-curvature="0" />
	<path style="fill:none;stroke:red;stroke-width:1px;stroke-linecap:butt;stroke-linejoin:miter;stroke-opacity:1" d="M 919.316,385.789 919.316,369.474 z" id="boundary" inkscape:connector-curvature="0" />
	<path style="fill:none;stroke:red;stroke-width:1px;stroke-linecap:butt;stroke-linejoin:miter;stroke-opacity:1" d="M 927.474,287.895 927.474,304.211 z" id="boundary" inkscape:connector-curvature="0" />
	<path style="fill:none;stroke:red;stroke-width:1px;stroke-linecap:butt;stroke-linejoin:miter;stroke-opacity:1" d="M 927.474,255.263 935.632,269.947 z" id="boundary" inkscape:connector-curvature="0" />
	<path style="fill:none;stroke:red;stroke-width:1px;stroke-linecap:butt;stroke-linejoin:miter;stroke-opacity:1" d="M 935.632,269.947 927.474,287.895 z" id="boundary" inkscape:connector-curvature="0" />
	<path style="fill:none;stroke:red;stroke-width:1px;stroke-linecap:butt;stroke-linejoin:miter;stroke-opacity:1" d="M 927.474,255.263 927.474,238.947 z" id="boundary" inkscape:connector-curvature="0" />
	<path style="fill:none;stroke:red;stroke-width:1px;stroke-linecap:butt;stroke-linejoin:miter;stroke-opacity:1" d="M 927.474,320.526 927.474,304.211 z" id="boundary" inkscape:connector-curvature="0" />
	<path style="fill:none;stroke:red;stroke-width:1px;stroke-linecap:butt;stroke-linejoin:miter;stroke-opacity:1" d="M 927.474,336.842 927.474,320.526 z" id="boundary" inkscape:connector-curvature="0" />
	<path style="fill:none;stroke:red;stroke-width:1px;stroke-linecap:butt;stroke-linejoin:miter;stroke-opacity:1" d="M 868.737,426.579 883.421,434.737 z" id="boundary" inkscape:connector-curvature="0" />
	<path style="fill:none;stroke:red;stroke-width:1px;stroke-linecap:butt;stroke-linejoin:miter;stroke-opacity:1" d="M 898.105,442.895 883.421,434.737 z" id="boundary" inkscape:connector-curvature="0" />
	<path style="fill:none;stroke:red;stroke-width:1px;stroke-linecap:butt;stroke-linejoin:miter;stroke-opacity:1" d="M 898.105,442.895 914.421,449.421 z" id="boundary" inkscape:connector-curvature="0" />
	<path style="fill:none;stroke:red;stroke-width:1px;stroke-linecap:butt;stroke-linejoin:miter;stroke-opacity:1" d="M 914.421,449.421 927.474,459.211 z" id="boundary" inkscape:connector-curvature="0" />
	<path style="fill:none;stroke:red;stroke-width:1px;stroke-linecap:butt;stroke-linejoin:miter;stroke-opacity:1" d="M 943.789,462.474 927.474,459.211 z" id="boundary" inkscape:connector-curvature="0" />
	<path style="fill:none;stroke:red;stroke-width:1px;stroke-linecap:butt;stroke-linejoin:miter;stroke-opacity:1" d="M 945.421,424.947 930.737,416.789 z" id="boundary" inkscape:connector-curvature="0" />
	<path style="fill:none;stroke:red;stroke-width:1px;stroke-linecap:butt;stroke-linejoin:miter;stroke-opacity:1" d="M 930.737,416.789 922.579,402.105 z" id="boundary" inkscape:connector-curvature="0" />
	<path style="fill:none;stroke:red;stroke-width:1px;stroke-linecap:butt;stroke-linejoin:miter;stroke-opacity:1" d="M 960.105,433.105 945.421,424.947 z" id="boundary" inkscape:connector-curvature="0" />
	<path style="fill:none;stroke:red;stroke-width:1px;stroke-linecap:butt;stroke-linejoin:miter;stroke-opacity:1" d="M 960.105,459.211 943.789,462.474 z" id="boundary" inkscape:connector-curvature="0" />
	<path style="fill:none;stroke:red;stroke-width:1px;stroke-linecap:butt;stroke-linejoin:miter;stroke-opacity:1" d="M 960.105,433.105 974.789,441.263 z" id="boundary" inkscape:connector-curvature="0" />
	<circle cx="4" cy="331.947" r="4" fill="#0" id="circle0"/>
	<circle cx="12.1579" cy="299.316" r="4" fill="#0" id="circle1"/>
	<circle cx="12.1579" cy="315.632" r="4" fill="#0" id="circle2"/>
	<circle cx="12.1579" cy="346.632" r="4" fill="#0" id="circle3"/>
	<circle cx="20.3158" cy="274.842" r="4" fill="#0" id="circle4"/>
	<circle cx="20.3158" cy="361.316" r="4" fill="#0" id="circle5"/>
	<circle cx="25.2105" cy="377.632" r="4" fill="#0" id="circle6"/>
	<circle cx="33.3684" cy="261.789" r="4" fill="#0" id="circle7"/>
	<circle cx="38.2632" cy="389.053" r="4" fill="#0" id="circle8"/>
	<circle cx="41.5263" cy="245.474" r="4" fill="#0" id="circle9"/>
	<circle cx="44.7895" cy="209.579" r="4" fill="#0" id="circle10"/>
	<circle cx="44.7895" cy="225.895" r="4" fill="#0" id="circle11"/>
	<circle cx="49.6842" cy="402.105" r="4" fill="#0" id="circle12"/>
	<circle cx="57.8421" cy="196.526" r="4" fill="#0" id="circle13"/>
	<circle cx="62.7368" cy="413.526" r="4" fill="#0" id="circle14"/>
	<circle cx="70.8947" cy="183.474" r="4" fill="#0" id="circle15"/>
	<circle cx="77.4211" cy="421.684" r="4" fill="#0" id="circle16"/>
	<circle cx="83.9474" cy="172.053" r="4" fill="#0" id="circle17"/>
	<circle cx="87.2105" cy="434.737" r="4" fill="#0" id="circle18"/>
	<circle cx="98.6316" cy="163.895" r="4" fill="#0" id="circle19"/>
	<circle cx="101.895" cy="442.895" r="4" fill="#0" id="circle20"/>
	<circle cx="114.947" cy="155.737" r="4" fill="#0" id="circle21"/>
	<circle cx="116.579" cy="451.053" r="4" fill="#0" id="circle22"/>
	<circle cx="131.263" cy="147.579" r="4" fill="#0" id="circle23"/>
	<circle cx="131.263" cy="459.211" r="4" fill="#0" id="circle24"/>
	<circle cx="147.579" cy="139.421" r="4" fill="#0" id="circle25"/>
	<circle cx="147.579" cy="459.211" r="4" fill="#0" id="circle26"/>
	<circle cx="160.632" cy="126.368" r="4" fill="#0" id="circle27"/>
	<circle cx="160.632" cy="470.632" r="4" fill="#0" id="circle28"/>
	<circle cx="167.158" cy="495.105" r="4" fill="#0" id="circle29"/>
	<circle cx="167.158" cy="511.421" r="4" fill="#0" id="circle30"/>
	<circle cx="173.684" cy="114.947" r="4" fill="#0" id="circle31"/>
	<circle cx="183.474" cy="95.3684" r="4" fill="#0" id="circle32"/>
	<circle cx="183.474" cy="516.316" r="4" fill="#0" id="circle33"/>
	<circle cx="199.789" cy="87.2105" r="4" fill="#0" id="circle34"/>
	<circle cx="199.789" cy="511.421" r="4" fill="#0" id="circle35"/>
	<circle cx="207.947" cy="62.7368" r="4" fill="#0" id="circle36"/>
	<circle cx="216.105" cy="508.158" r="4" fill="#0" id="circle37"/>
	<circle cx="224.263" cy="57.8421" r="4" fill="#0" id="circle38"/>
	<circle cx="232.421" cy="508.158" r="4" fill="#0" id="circle39"/>
	<circle cx="238.947" cy="49.6842" r="4" fill="#0" id="circle40"/>
	<circle cx="248.737" cy="508.158" r="4" fill="#0" id="circle41"/>
	<circle cx="253.632" cy="41.5263" r="4" fill="#0" id="circle42"/>
	<circle cx="265.053" cy="508.158" r="4" fill="#0" id="circle43"/>
	<circle cx="268.316" cy="33.3684" r="4" fill="#0" id="circle44"/>
	<circle cx="279.737" cy="516.316" r="4" fill="#0" id="circle45"/>
	<circle cx="281.368" cy="21.9474" r="4" fill="#0" id="circle46"/>
	<circle cx="286.263" cy="532.632" r="4" fill="#0" id="circle47"/>
	<circle cx="297.684" cy="17.0526" r="4" fill="#0" id="circle48"/>
	<circle cx="297.684" cy="545.684" r="4" fill="#0" id="circle49"/>
	<circle cx="305.842" cy="560.368" r="4" fill="#0" id="circle50"/>
	<circle cx="314" cy="12.1579" r="4" fill="#0" id="circle51"/>
	<circle cx="318.895" cy="571.789" r="4" fill="#0" id="circle52"/>
	<circle cx="325.421" cy="588.105" r="4" fill="#0" id="circle53"/>
	<circle cx="330.316" cy="5.63158" r="4" fill="#0" id="circle54"/>
	<circle cx="341.737" cy="589.737" r="4" fill="#0" id="circle55"/>
	<circle cx="346.632" cy="8.89474" r="4" fill="#0" id="circle56"/>
	<circle cx="348.263" cy="516.316" r="4" fill="#0" id="circle57"/>
	<circle cx="348.263" cy="532.632" r="4" fill="#0" id="circle58"/>
	<circle cx="348.263" cy="548.947" r="4" fill="#0" id="circle59"/>
	<circle cx="356.421" cy="563.632" r="4" fill="#0" id="circle60"/>
	<circle cx="356.421" cy="579.947" r="4" fill="#0" id="circle61"/>
	<circle cx="356.421" cy="597.895" r="4" fill="#0" id="circle62"/>
	<circle cx="362.947" cy="8.89474" r="4" fill="#0" id="circle63"/>
	<circle cx="362.947" cy="508.158" r="4" fill="#0" id="circle64"/>
	<circle cx="377.632" cy="500" r="4" fill="#0" id="circle65"/>
	<circle cx="379.263" cy="8.89474" r="4" fill="#0" id="circle66"/>
	<circle cx="389.053" cy="513.053" r="4" fill="#0" id="circle67"/>
	<circle cx="395.579" cy="8.89474" r="4" fill="#0" id="circle68"/>
	<circle cx="405.368" cy="516.316" r="4" fill="#0" id="circle69"/>
	<circle cx="411.895" cy="8.89474" r="4" fill="#0" id="circle70"/>
	<circle cx="421.684" cy="519.579" r="4" fill="#0" id="circle71"/>
	<circle cx="428.211" cy="8.89474" r="4" fill="#0" id="circle72"/>
	<circle cx="433.105" cy="532.632" r="4" fill="#0" id="circle73"/>
	<circle cx="444.526" cy="4" r="4" fill="#0" id="circle74"/>
	<circle cx="449.421" cy="531" r="4" fill="#0" id="circle75"/>
	<circle cx="454.316" cy="17.0526" r="4" fill="#0" id="circle76"/>
	<circle cx="462.474" cy="516.316" r="4" fill="#0" id="circle77"/>
	<circle cx="470.632" cy="17.0526" r="4" fill="#0" id="circle78"/>
	<circle cx="478.789" cy="516.316" r="4" fill="#0" id="circle79"/>
	<circle cx="486.947" cy="12.1579" r="4" fill="#0" id="circle80"/>
	<circle cx="495.105" cy="516.316" r="4" fill="#0" id="circle81"/>
	<circle cx="503.263" cy="17.0526" r="4" fill="#0" id="circle82"/>
	<circle cx="511.421" cy="516.316" r="4" fill="#0" id="circle83"/>
	<circle cx="519.579" cy="17.0526" r="4" fill="#0" id="circle84"/>
	<circle cx="527.737" cy="516.316" r="4" fill="#0" id="circle85"/>
	<circle cx="535.895" cy="17.0526" r="4" fill="#0" id="circle86"/>
	<circle cx="544.053" cy="516.316" r="4" fill="#0" id="circle87"/>
	<circle cx="548.947" cy="26.8421" r="4" fill="#0" id="circle88"/>
	<circle cx="560.368" cy="516.316" r="4" fill="#0" id="circle89"/>
	<circle cx="565.263" cy="26.8421" r="4" fill="#0" id="circle90"/>
	<circle cx="575.053" cy="508.158" r="4" fill="#0" id="circle91"/>
	<circle cx="579.947" cy="35" r="4" fill="#0" id="circle92"/>
	<circle cx="589.737" cy="500" r="4" fill="#0" id="circle93"/>
	<circle cx="596.263" cy="33.3684" r="4" fill="#0" id="circle94"/>
	<circle cx="606.053" cy="500" r="4" fill="#0" id="circle95"/>
	<circle cx="610.947" cy="41.5263" r="4" fill="#0" id="circle96"/>
	<circle cx="622.368" cy="500" r="4" fill="#0" id="circle97"/>
	<circle cx="625.632" cy="49.6842" r="4" fill="#0" id="circle98"/>
	<circle cx="638.684" cy="496.737" r="4" fill="#0" id="circle99"/>
	<circle cx="641.947" cy="54.5789" r="4" fill="#0" id="circle100"/>
	<circle cx="653.368" cy="67.6316" r="4" fill="#0" id="circle101"/>
	<circle cx="655" cy="491.842" r="4" fill="#0" id="circle102"/>
	<circle cx="669.684" cy="74.1579" r="4" fill="#0" id="circle103"/>
	<circle cx="669.684" cy="482.053" r="4" fill="#0" id="circle104"/>
	<circle cx="682.737" cy="83.9474" r="4" fill="#0" id="circle105"/>
	<circle cx="682.737" cy="467.368" r="4" fill="#0" id="circle106"/>
	<circle cx="695.789" cy="93.7368" r="4" fill="#0" id="circle107"/>
	<circle cx="697.421" cy="459.211" r="4" fill="#0" id="circle108"/>
	<circle cx="707.211" cy="106.789" r="4" fill="#0" id="circle109"/>
	<circle cx="707.211" cy="442.895" r="4" fill="#0" id="circle110"/>
	<circle cx="720.263" cy="431.474" r="4" fill="#0" id="circle111"/>
	<circle cx="723.526" cy="111.684" r="4" fill="#0" id="circle112"/>
	<circle cx="736.579" cy="123.105" r="4" fill="#0" id="circle113"/>
	<circle cx="736.579" cy="426.579" r="4" fill="#0" id="circle114"/>
	<circle cx="751.263" cy="131.263" r="4" fill="#0" id="circle115"/>
	<circle cx="751.263" cy="416.789" r="4" fill="#0" id="circle116"/>
	<circle cx="759.421" cy="402.105" r="4" fill="#0" id="circle117"/>
	<circle cx="762.684" cy="144.316" r="4" fill="#0" id="circle118"/>
	<circle cx="772.474" cy="157.368" r="4" fill="#0" id="circle119"/>
	<circle cx="772.474" cy="173.684" r="4" fill="#0" id="circle120"/>
	<circle cx="772.474" cy="190" r="4" fill="#0" id="circle121"/>
	<circle cx="772.474" cy="206.316" r="4" fill="#0" id="circle122"/>
	<circle cx="775.737" cy="402.105" r="4" fill="#0" id="circle123"/>
	<circle cx="788.789" cy="212.842" r="4" fill="#0" id="circle124"/>
	<circle cx="792.053" cy="402.105" r="4" fill="#0" id="circle125"/>
	<circle cx="803.474" cy="204.684" r="4" fill="#0" id="circle126"/>
	<circle cx="808.368" cy="402.105" r="4" fill="#0" id="circle127"/>
	<circle cx="818.158" cy="196.526" r="4" fill="#0" id="circle128"/>
	<circle cx="824.684" cy="402.105" r="4" fill="#0" id="circle129"/>
	<circle cx="829.579" cy="183.474" r="4" fill="#0" id="circle130"/>
	<circle cx="841" cy="408.632" r="4" fill="#0" id="circle131"/>
	<circle cx="842.632" cy="172.053" r="4" fill="#0" id="circle132"/>
	<circle cx="852.421" cy="421.684" r="4" fill="#0" id="circle133"/>
	<circle cx="854.053" cy="159" r="4" fill="#0" id="circle134"/>
	<circle cx="867.105" cy="147.579" r="4" fill="#0" id="circle135"/>
	<circle cx="868.737" cy="426.579" r="4" fill="#0" id="circle136"/>
	<circle cx="881.789" cy="139.421" r="4" fill="#0" id="circle137"/>
	<circle cx="883.421" cy="434.737" r="4" fill="#0" id="circle138"/>
	<circle cx="898.105" cy="131.263" r="4" fill="#0" id="circle139"/>
	<circle cx="898.105" cy="442.895" r="4" fill="#0" id="circle140"/>
	<circle cx="914.421" cy="123.105" r="4" fill="#0" id="circle141"/>
	<circle cx="914.421" cy="449.421" r="4" fill="#0" id="circle142"/>
	<circle cx="919.316" cy="353.158" r="4" fill="#0" id="circle143"/>
	<circle cx="919.316" cy="369.474" r="4" fill="#0" id="circle144"/>
	<circle cx="919.316" cy="385.789" r="4" fill="#0" id="circle145"/>
	<circle cx="922.579" cy="402.105" r="4" fill="#0" id="circle146"/>
	<circle cx="927.474" cy="173.684" r="4" fill="#0" id="circle147"/>
	<circle cx="927.474" cy="190" r="4" fill="#0" id="circle148"/>
	<circle cx="927.474" cy="206.316" r="4" fill="#0" id="circle149"/>
	<circle cx="927.474" cy="222.632" r="4" fill="#0" id="circle150"/>
	<circle cx="927.474" cy="238.947" r="4" fill="#0" id="circle151"/>
	<circle cx="927.474" cy="255.263" r="4" fill="#0" id="circle152"/>
	<circle cx="927.474" cy="287.895" r="4" fill="#0" id="circle153"/>
	<circle cx="927.474" cy="304.211" r="4" fill="#0" id="circle154"/>
	<circle cx="927.474" cy="320.526" r="4" fill="#0" id="circle155"/>
	<circle cx="927.474" cy="336.842" r="4" fill="#0" id="circle156"/>
	<circle cx="927.474" cy="459.211" r="4" fill="#0" id="circle157"/>
	<circle cx="930.737" cy="114.947" r="4" fill="#0" id="circle158"/>
	<circle cx="930.737" cy="416.789" r="4" fill="#0" id="circle159"/>
	<circle cx="935.632" cy="269.947" r="4" fill="#0" id="circle160"/>
	<circle cx="940.526" cy="162.263" r="4" fill="#0" id="circle161"/>
	<circle cx="943.789" cy="462.474" r="4" fill="#0" id="circle162"/>
	<circle cx="945.421" cy="424.947" r="4" fill="#0" id="circle163"/>
	<circle cx="947.053" cy="106.789" r="4" fill="#0" id="circle164"/>
	<circle cx="951.947" cy="149.211" r="4" fill="#0" id="circle165"/>
	<circle cx="960.105" cy="433.105" r="4" fill="#0" id="circle166"/>
	<circle cx="960.105" cy="459.211" r="4" fill="#0" id="circle167"/>
	<circle cx="963.368" cy="106.789" r="4" fill="#0" id="circle168"/>
	<circle cx="965" cy="137.789" r="4" fill="#0" id="circle169"/>
	<circle cx="974.789" cy="441.263" r="4" fill="#0" id="circle170"/>
	<circle cx="979.684" cy="106.789" r="4" fill="#0" id="circle171"/>
	<circle cx="981.316" cy="132.895" r="4" fill="#0" id="circle172"/>
	<circle cx="996" cy="106.789" r="4" fill="#0" id="circle173"/>
	<circle cx="996" cy="124.737" r="4" fill="#0" id="circle174"/>
	</g>
</svg>