<?xml version="1.0" encoding="UTF-8" standalone="no"?>
<!-- Created with CurveBenchmark -->
<svg
	xmlns:dc="http://purl.org/dc/elements/1.1/"
	xmlns:cc="http://creativecommons.org/ns#"
	xmlns:rdf="http://www.w3.org/1999/02/22-rdf-syntax-ns#"
	xmlns:svg="http://www.w3.org/2000/svg"
	xmlns="http://www.w3.org/2000/svg"
	xmlns:sodipodi="http://sodipodi.sourceforge.net/DTD/sodipodi-0.dtd"
	xmlns:inkscape="http://www.inkscape.org/namespaces/inkscape"
	width="1000"
	height="1000"
	id="svg2"
	version="1.1"
	sodipodi:docname="manifold/ccrust-lmfish-18.png.txt">
<defs
	id="defs4" />
<metadata
	id="metadata7">
	<rdf:RDF>
		<cc:Work
			rdf:about="">
			<dc:format>image/svg+xml</dc:format>
			<dc:type
				rdf:resource="http://purl.org/dc/dcmitype/StillImage" />
			<dc:title></dc:title>
		</cc:Work>
	</rdf:RDF>
</metadata>
<g
	inkscape:label="Layer 1"
	inkscape:groupmode="layer"
	id="layer1">
	<path style="fill:none;stroke:red;stroke-width:1px;stroke-linecap:butt;stroke-linejoin:miter;stroke-opacity:1" d="M 189.47,452.308 194.769,441.709 z" id="boundary" inkscape:connector-curvature="0" />
	<path style="fill:none;stroke:red;stroke-width:1px;stroke-linecap:butt;stroke-linejoin:miter;stroke-opacity:1" d="M 194.769,441.709 203.248,433.231 z" id="boundary" inkscape:connector-curvature="0" />
	<path style="fill:none;stroke:red;stroke-width:1px;stroke-linecap:butt;stroke-linejoin:miter;stroke-opacity:1" d="M 210.667,420.513 203.248,433.231 z" id="boundary" inkscape:connector-curvature="0" />
	<path style="fill:none;stroke:red;stroke-width:1px;stroke-linecap:butt;stroke-linejoin:miter;stroke-opacity:1" d="M 178.872,478.803 178.872,489.402 z" id="boundary" inkscape:connector-curvature="0" />
	<path style="fill:none;stroke:red;stroke-width:1px;stroke-linecap:butt;stroke-linejoin:miter;stroke-opacity:1" d="M 178.872,489.402 173.573,505.299 z" id="boundary" inkscape:connector-curvature="0" />
	<path style="fill:none;stroke:red;stroke-width:1px;stroke-linecap:butt;stroke-linejoin:miter;stroke-opacity:1" d="M 184.171,462.906 189.47,452.308 z" id="boundary" inkscape:connector-curvature="0" />
	<path style="fill:none;stroke:red;stroke-width:1px;stroke-linecap:butt;stroke-linejoin:miter;stroke-opacity:1" d="M 178.872,478.803 184.171,462.906 z" id="boundary" inkscape:connector-curvature="0" />
	<path style="fill:none;stroke:red;stroke-width:1px;stroke-linecap:butt;stroke-linejoin:miter;stroke-opacity:1" d="M 173.573,515.897 173.573,505.299 z" id="boundary" inkscape:connector-curvature="0" />
	<path style="fill:none;stroke:red;stroke-width:1px;stroke-linecap:butt;stroke-linejoin:miter;stroke-opacity:1" d="M 210.667,420.513 219.145,412.034 z" id="boundary" inkscape:connector-curvature="0" />
	<path style="fill:none;stroke:red;stroke-width:1px;stroke-linecap:butt;stroke-linejoin:miter;stroke-opacity:1" d="M 266.838,385.538 277.436,380.239 z" id="boundary" inkscape:connector-curvature="0" />
	<path style="fill:none;stroke:red;stroke-width:1px;stroke-linecap:butt;stroke-linejoin:miter;stroke-opacity:1" d="M 277.436,380.239 286.974,385.538 z" id="boundary" inkscape:connector-curvature="0" />
	<path style="fill:none;stroke:red;stroke-width:1px;stroke-linecap:butt;stroke-linejoin:miter;stroke-opacity:1" d="M 297.573,385.538 286.974,385.538 z" id="boundary" inkscape:connector-curvature="0" />
	<path style="fill:none;stroke:red;stroke-width:1px;stroke-linecap:butt;stroke-linejoin:miter;stroke-opacity:1" d="M 307.111,380.239 297.573,385.538 z" id="boundary" inkscape:connector-curvature="0" />
	<path style="fill:none;stroke:red;stroke-width:1px;stroke-linecap:butt;stroke-linejoin:miter;stroke-opacity:1" d="M 256.239,390.838 266.838,385.538 z" id="boundary" inkscape:connector-curvature="0" />
	<path style="fill:none;stroke:red;stroke-width:1px;stroke-linecap:butt;stroke-linejoin:miter;stroke-opacity:1" d="M 219.145,412.034 227.624,403.556 z" id="boundary" inkscape:connector-curvature="0" />
	<path style="fill:none;stroke:red;stroke-width:1px;stroke-linecap:butt;stroke-linejoin:miter;stroke-opacity:1" d="M 256.239,390.838 246.701,396.137 z" id="boundary" inkscape:connector-curvature="0" />
	<path style="fill:none;stroke:red;stroke-width:1px;stroke-linecap:butt;stroke-linejoin:miter;stroke-opacity:1" d="M 246.701,396.137 236.103,396.137 z" id="boundary" inkscape:connector-curvature="0" />
	<path style="fill:none;stroke:red;stroke-width:1px;stroke-linecap:butt;stroke-linejoin:miter;stroke-opacity:1" d="M 227.624,403.556 236.103,396.137 z" id="boundary" inkscape:connector-curvature="0" />
	<path style="fill:none;stroke:red;stroke-width:1px;stroke-linecap:butt;stroke-linejoin:miter;stroke-opacity:1" d="M 132.239,631.419 140.718,624 z" id="boundary" inkscape:connector-curvature="0" />
	<path style="fill:none;stroke:red;stroke-width:1px;stroke-linecap:butt;stroke-linejoin:miter;stroke-opacity:1" d="M 124.821,639.897 132.239,631.419 z" id="boundary" inkscape:connector-curvature="0" />
	<path style="fill:none;stroke:red;stroke-width:1px;stroke-linecap:butt;stroke-linejoin:miter;stroke-opacity:1" d="M 144.957,613.402 140.718,624 z" id="boundary" inkscape:connector-curvature="0" />
	<path style="fill:none;stroke:red;stroke-width:1px;stroke-linecap:butt;stroke-linejoin:miter;stroke-opacity:1" d="M 144.957,613.402 153.436,604.923 z" id="boundary" inkscape:connector-curvature="0" />
	<path style="fill:none;stroke:red;stroke-width:1px;stroke-linecap:butt;stroke-linejoin:miter;stroke-opacity:1" d="M 153.436,604.923 161.915,597.504 z" id="boundary" inkscape:connector-curvature="0" />
	<path style="fill:none;stroke:red;stroke-width:1px;stroke-linecap:butt;stroke-linejoin:miter;stroke-opacity:1" d="M 87.7265,687.59 94.0855,674.872 z" id="boundary" inkscape:connector-curvature="0" />
	<path style="fill:none;stroke:red;stroke-width:1px;stroke-linecap:butt;stroke-linejoin:miter;stroke-opacity:1" d="M 94.0855,674.872 102.564,666.393 z" id="boundary" inkscape:connector-curvature="0" />
	<path style="fill:none;stroke:red;stroke-width:1px;stroke-linecap:butt;stroke-linejoin:miter;stroke-opacity:1" d="M 107.863,655.795 102.564,666.393 z" id="boundary" inkscape:connector-curvature="0" />
	<path style="fill:none;stroke:red;stroke-width:1px;stroke-linecap:butt;stroke-linejoin:miter;stroke-opacity:1" d="M 116.342,647.316 124.821,639.897 z" id="boundary" inkscape:connector-curvature="0" />
	<path style="fill:none;stroke:red;stroke-width:1px;stroke-linecap:butt;stroke-linejoin:miter;stroke-opacity:1" d="M 107.863,655.795 116.342,647.316 z" id="boundary" inkscape:connector-curvature="0" />
	<path style="fill:none;stroke:red;stroke-width:1px;stroke-linecap:butt;stroke-linejoin:miter;stroke-opacity:1" d="M 173.573,526.496 173.573,537.094 z" id="boundary" inkscape:connector-curvature="0" />
	<path style="fill:none;stroke:red;stroke-width:1px;stroke-linecap:butt;stroke-linejoin:miter;stroke-opacity:1" d="M 186.291,555.111 178.872,546.632 z" id="boundary" inkscape:connector-curvature="0" />
	<path style="fill:none;stroke:red;stroke-width:1px;stroke-linecap:butt;stroke-linejoin:miter;stroke-opacity:1" d="M 173.573,537.094 178.872,546.632 z" id="boundary" inkscape:connector-curvature="0" />
	<path style="fill:none;stroke:red;stroke-width:1px;stroke-linecap:butt;stroke-linejoin:miter;stroke-opacity:1" d="M 173.573,526.496 173.573,515.897 z" id="boundary" inkscape:connector-curvature="0" />
	<path style="fill:none;stroke:red;stroke-width:1px;stroke-linecap:butt;stroke-linejoin:miter;stroke-opacity:1" d="M 161.915,597.504 169.333,589.026 z" id="boundary" inkscape:connector-curvature="0" />
	<path style="fill:none;stroke:red;stroke-width:1px;stroke-linecap:butt;stroke-linejoin:miter;stroke-opacity:1" d="M 169.333,589.026 177.812,581.607 z" id="boundary" inkscape:connector-curvature="0" />
	<path style="fill:none;stroke:red;stroke-width:1px;stroke-linecap:butt;stroke-linejoin:miter;stroke-opacity:1" d="M 185.231,573.128 177.812,581.607 z" id="boundary" inkscape:connector-curvature="0" />
	<path style="fill:none;stroke:red;stroke-width:1px;stroke-linecap:butt;stroke-linejoin:miter;stroke-opacity:1" d="M 185.231,573.128 186.291,555.111 z" id="boundary" inkscape:connector-curvature="0" />
	<path style="fill:none;stroke:red;stroke-width:1px;stroke-linecap:butt;stroke-linejoin:miter;stroke-opacity:1" d="M 380.239,335.726 380.239,346.325 z" id="boundary" inkscape:connector-curvature="0" />
	<path style="fill:none;stroke:red;stroke-width:1px;stroke-linecap:butt;stroke-linejoin:miter;stroke-opacity:1" d="M 380.239,346.325 374.94,362.222 z" id="boundary" inkscape:connector-curvature="0" />
	<path style="fill:none;stroke:red;stroke-width:1px;stroke-linecap:butt;stroke-linejoin:miter;stroke-opacity:1" d="M 380.239,335.726 385.538,325.128 z" id="boundary" inkscape:connector-curvature="0" />
	<path style="fill:none;stroke:red;stroke-width:1px;stroke-linecap:butt;stroke-linejoin:miter;stroke-opacity:1" d="M 317.709,383.419 307.111,380.239 z" id="boundary" inkscape:connector-curvature="0" />
	<path style="fill:none;stroke:red;stroke-width:1px;stroke-linecap:butt;stroke-linejoin:miter;stroke-opacity:1" d="M 374.94,372.821 374.94,362.222 z" id="boundary" inkscape:connector-curvature="0" />
	<path style="fill:none;stroke:red;stroke-width:1px;stroke-linecap:butt;stroke-linejoin:miter;stroke-opacity:1" d="M 328.308,385.538 317.709,383.419 z" id="boundary" inkscape:connector-curvature="0" />
	<path style="fill:none;stroke:red;stroke-width:1px;stroke-linecap:butt;stroke-linejoin:miter;stroke-opacity:1" d="M 385.538,325.128 390.838,314.53 z" id="boundary" inkscape:connector-curvature="0" />
	<path style="fill:none;stroke:red;stroke-width:1px;stroke-linecap:butt;stroke-linejoin:miter;stroke-opacity:1" d="M 390.838,314.53 399.316,306.051 z" id="boundary" inkscape:connector-curvature="0" />
	<path style="fill:none;stroke:red;stroke-width:1px;stroke-linecap:butt;stroke-linejoin:miter;stroke-opacity:1" d="M 439.59,260.479 444.889,249.88 z" id="boundary" inkscape:connector-curvature="0" />
	<path style="fill:none;stroke:red;stroke-width:1px;stroke-linecap:butt;stroke-linejoin:miter;stroke-opacity:1" d="M 444.889,249.88 455.487,244.581 z" id="boundary" inkscape:connector-curvature="0" />
	<path style="fill:none;stroke:red;stroke-width:1px;stroke-linecap:butt;stroke-linejoin:miter;stroke-opacity:1" d="M 439.59,260.479 431.111,268.957 z" id="boundary" inkscape:connector-curvature="0" />
	<path style="fill:none;stroke:red;stroke-width:1px;stroke-linecap:butt;stroke-linejoin:miter;stroke-opacity:1" d="M 463.966,237.162 455.487,244.581 z" id="boundary" inkscape:connector-curvature="0" />
	<path style="fill:none;stroke:red;stroke-width:1px;stroke-linecap:butt;stroke-linejoin:miter;stroke-opacity:1" d="M 471.385,228.684 463.966,237.162 z" id="boundary" inkscape:connector-curvature="0" />
	<path style="fill:none;stroke:red;stroke-width:1px;stroke-linecap:butt;stroke-linejoin:miter;stroke-opacity:1" d="M 407.795,297.573 416.274,290.154 z" id="boundary" inkscape:connector-curvature="0" />
	<path style="fill:none;stroke:red;stroke-width:1px;stroke-linecap:butt;stroke-linejoin:miter;stroke-opacity:1" d="M 407.795,297.573 399.316,306.051 z" id="boundary" inkscape:connector-curvature="0" />
	<path style="fill:none;stroke:red;stroke-width:1px;stroke-linecap:butt;stroke-linejoin:miter;stroke-opacity:1" d="M 416.274,290.154 422.632,277.436 z" id="boundary" inkscape:connector-curvature="0" />
	<path style="fill:none;stroke:red;stroke-width:1px;stroke-linecap:butt;stroke-linejoin:miter;stroke-opacity:1" d="M 422.632,277.436 431.111,268.957 z" id="boundary" inkscape:connector-curvature="0" />
	<path style="fill:none;stroke:red;stroke-width:1px;stroke-linecap:butt;stroke-linejoin:miter;stroke-opacity:1" d="M 372.821,385.538 374.94,372.821 z" id="boundary" inkscape:connector-curvature="0" />
	<path style="fill:none;stroke:red;stroke-width:1px;stroke-linecap:butt;stroke-linejoin:miter;stroke-opacity:1" d="M 336.786,391.897 344.205,400.376 z" id="boundary" inkscape:connector-curvature="0" />
	<path style="fill:none;stroke:red;stroke-width:1px;stroke-linecap:butt;stroke-linejoin:miter;stroke-opacity:1" d="M 336.786,391.897 328.308,385.538 z" id="boundary" inkscape:connector-curvature="0" />
	<path style="fill:none;stroke:red;stroke-width:1px;stroke-linecap:butt;stroke-linejoin:miter;stroke-opacity:1" d="M 363.282,406.735 367.521,396.137 z" id="boundary" inkscape:connector-curvature="0" />
	<path style="fill:none;stroke:red;stroke-width:1px;stroke-linecap:butt;stroke-linejoin:miter;stroke-opacity:1" d="M 372.821,385.538 367.521,396.137 z" id="boundary" inkscape:connector-curvature="0" />
	<path style="fill:none;stroke:red;stroke-width:1px;stroke-linecap:butt;stroke-linejoin:miter;stroke-opacity:1" d="M 352.684,406.735 344.205,400.376 z" id="boundary" inkscape:connector-curvature="0" />
	<path style="fill:none;stroke:red;stroke-width:1px;stroke-linecap:butt;stroke-linejoin:miter;stroke-opacity:1" d="M 423.692,662.154 418.393,672.752 z" id="boundary" inkscape:connector-curvature="0" />
	<path style="fill:none;stroke:red;stroke-width:1px;stroke-linecap:butt;stroke-linejoin:miter;stroke-opacity:1" d="M 352.684,406.735 363.282,406.735 z" id="boundary" inkscape:connector-curvature="0" />
	<path style="fill:none;stroke:red;stroke-width:1px;stroke-linecap:butt;stroke-linejoin:miter;stroke-opacity:1" d="M 432.171,654.735 439.59,646.256 z" id="boundary" inkscape:connector-curvature="0" />
	<path style="fill:none;stroke:red;stroke-width:1px;stroke-linecap:butt;stroke-linejoin:miter;stroke-opacity:1" d="M 432.171,654.735 423.692,662.154 z" id="boundary" inkscape:connector-curvature="0" />
	<path style="fill:none;stroke:red;stroke-width:1px;stroke-linecap:butt;stroke-linejoin:miter;stroke-opacity:1" d="M 448.068,638.838 455.487,630.359 z" id="boundary" inkscape:connector-curvature="0" />
	<path style="fill:none;stroke:red;stroke-width:1px;stroke-linecap:butt;stroke-linejoin:miter;stroke-opacity:1" d="M 448.068,638.838 439.59,646.256 z" id="boundary" inkscape:connector-curvature="0" />
	<path style="fill:none;stroke:red;stroke-width:1px;stroke-linecap:butt;stroke-linejoin:miter;stroke-opacity:1" d="M 423.692,682.291 433.231,674.872 z" id="boundary" inkscape:connector-curvature="0" />
	<path style="fill:none;stroke:red;stroke-width:1px;stroke-linecap:butt;stroke-linejoin:miter;stroke-opacity:1" d="M 423.692,682.291 418.393,672.752 z" id="boundary" inkscape:connector-curvature="0" />
	<path style="fill:none;stroke:red;stroke-width:1px;stroke-linecap:butt;stroke-linejoin:miter;stroke-opacity:1" d="M 443.829,669.573 454.427,666.393 z" id="boundary" inkscape:connector-curvature="0" />
	<path style="fill:none;stroke:red;stroke-width:1px;stroke-linecap:butt;stroke-linejoin:miter;stroke-opacity:1" d="M 454.427,666.393 460.786,678.051 z" id="boundary" inkscape:connector-curvature="0" />
	<path style="fill:none;stroke:red;stroke-width:1px;stroke-linecap:butt;stroke-linejoin:miter;stroke-opacity:1" d="M 433.231,674.872 443.829,669.573 z" id="boundary" inkscape:connector-curvature="0" />
	<path style="fill:none;stroke:red;stroke-width:1px;stroke-linecap:butt;stroke-linejoin:miter;stroke-opacity:1" d="M 460.786,678.051 453.368,686.53 z" id="boundary" inkscape:connector-curvature="0" />
	<path style="fill:none;stroke:red;stroke-width:1px;stroke-linecap:butt;stroke-linejoin:miter;stroke-opacity:1" d="M 455.487,630.359 463.966,622.94 z" id="boundary" inkscape:connector-curvature="0" />
	<path style="fill:none;stroke:red;stroke-width:1px;stroke-linecap:butt;stroke-linejoin:miter;stroke-opacity:1" d="M 9.29915,812.65 14.5983,796.752 z" id="boundary" inkscape:connector-curvature="0" />
	<path style="fill:none;stroke:red;stroke-width:1px;stroke-linecap:butt;stroke-linejoin:miter;stroke-opacity:1" d="M 14.5983,796.752 23.0769,788.274 z" id="boundary" inkscape:connector-curvature="0" />
	<path style="fill:none;stroke:red;stroke-width:1px;stroke-linecap:butt;stroke-linejoin:miter;stroke-opacity:1" d="M 9.29915,823.248 9.29915,812.65 z" id="boundary" inkscape:connector-curvature="0" />
	<path style="fill:none;stroke:red;stroke-width:1px;stroke-linecap:butt;stroke-linejoin:miter;stroke-opacity:1" d="M 30.4957,775.556 23.0769,788.274 z" id="boundary" inkscape:connector-curvature="0" />
	<path style="fill:none;stroke:red;stroke-width:1px;stroke-linecap:butt;stroke-linejoin:miter;stroke-opacity:1" d="M 35.7949,764.957 30.4957,775.556 z" id="boundary" inkscape:connector-curvature="0" />
	<path style="fill:none;stroke:red;stroke-width:1px;stroke-linecap:butt;stroke-linejoin:miter;stroke-opacity:1" d="M 9.29915,823.248 9.29915,833.846 z" id="boundary" inkscape:connector-curvature="0" />
	<path style="fill:none;stroke:red;stroke-width:1px;stroke-linecap:butt;stroke-linejoin:miter;stroke-opacity:1" d="M 9.29915,844.444 9.29915,855.043 z" id="boundary" inkscape:connector-curvature="0" />
	<path style="fill:none;stroke:red;stroke-width:1px;stroke-linecap:butt;stroke-linejoin:miter;stroke-opacity:1" d="M 9.29915,844.444 9.29915,833.846 z" id="boundary" inkscape:connector-curvature="0" />
	<path style="fill:none;stroke:red;stroke-width:1px;stroke-linecap:butt;stroke-linejoin:miter;stroke-opacity:1" d="M 65.4701,714.085 70.7692,703.487 z" id="boundary" inkscape:connector-curvature="0" />
	<path style="fill:none;stroke:red;stroke-width:1px;stroke-linecap:butt;stroke-linejoin:miter;stroke-opacity:1" d="M 70.7692,703.487 79.2479,695.009 z" id="boundary" inkscape:connector-curvature="0" />
	<path style="fill:none;stroke:red;stroke-width:1px;stroke-linecap:butt;stroke-linejoin:miter;stroke-opacity:1" d="M 65.4701,714.085 56.9915,722.564 z" id="boundary" inkscape:connector-curvature="0" />
	<path style="fill:none;stroke:red;stroke-width:1px;stroke-linecap:butt;stroke-linejoin:miter;stroke-opacity:1" d="M 79.2479,695.009 87.7265,687.59 z" id="boundary" inkscape:connector-curvature="0" />
	<path style="fill:none;stroke:red;stroke-width:1px;stroke-linecap:butt;stroke-linejoin:miter;stroke-opacity:1" d="M 41.094,754.359 35.7949,764.957 z" id="boundary" inkscape:connector-curvature="0" />
	<path style="fill:none;stroke:red;stroke-width:1px;stroke-linecap:butt;stroke-linejoin:miter;stroke-opacity:1" d="M 56.9915,722.564 54.8718,735.282 z" id="boundary" inkscape:connector-curvature="0" />
	<path style="fill:none;stroke:red;stroke-width:1px;stroke-linecap:butt;stroke-linejoin:miter;stroke-opacity:1" d="M 54.8718,735.282 46.3932,743.761 z" id="boundary" inkscape:connector-curvature="0" />
	<path style="fill:none;stroke:red;stroke-width:1px;stroke-linecap:butt;stroke-linejoin:miter;stroke-opacity:1" d="M 41.094,754.359 46.3932,743.761 z" id="boundary" inkscape:connector-curvature="0" />
	<path style="fill:none;stroke:red;stroke-width:1px;stroke-linecap:butt;stroke-linejoin:miter;stroke-opacity:1" d="M 9.29915,865.641 9.29915,876.239 z" id="boundary" inkscape:connector-curvature="0" />
	<path style="fill:none;stroke:red;stroke-width:1px;stroke-linecap:butt;stroke-linejoin:miter;stroke-opacity:1" d="M 9.29915,855.043 9.29915,865.641 z" id="boundary" inkscape:connector-curvature="0" />
	<path style="fill:none;stroke:red;stroke-width:1px;stroke-linecap:butt;stroke-linejoin:miter;stroke-opacity:1" d="M 9.29915,876.239 9.29915,886.838 z" id="boundary" inkscape:connector-curvature="0" />
	<path style="fill:none;stroke:red;stroke-width:1px;stroke-linecap:butt;stroke-linejoin:miter;stroke-opacity:1" d="M 9.29915,886.838 4,897.436 z" id="boundary" inkscape:connector-curvature="0" />
	<path style="fill:none;stroke:red;stroke-width:1px;stroke-linecap:butt;stroke-linejoin:miter;stroke-opacity:1" d="M 9.29915,906.974 4,897.436 z" id="boundary" inkscape:connector-curvature="0" />
	<path style="fill:none;stroke:red;stroke-width:1px;stroke-linecap:butt;stroke-linejoin:miter;stroke-opacity:1" d="M 16.7179,915.453 9.29915,906.974 z" id="boundary" inkscape:connector-curvature="0" />
	<path style="fill:none;stroke:red;stroke-width:1px;stroke-linecap:butt;stroke-linejoin:miter;stroke-opacity:1" d="M 50.6325,937.709 40.0342,937.709 z" id="boundary" inkscape:connector-curvature="0" />
	<path style="fill:none;stroke:red;stroke-width:1px;stroke-linecap:butt;stroke-linejoin:miter;stroke-opacity:1" d="M 40.0342,937.709 31.5556,930.291 z" id="boundary" inkscape:connector-curvature="0" />
	<path style="fill:none;stroke:red;stroke-width:1px;stroke-linecap:butt;stroke-linejoin:miter;stroke-opacity:1" d="M 31.5556,930.291 25.1966,921.812 z" id="boundary" inkscape:connector-curvature="0" />
	<path style="fill:none;stroke:red;stroke-width:1px;stroke-linecap:butt;stroke-linejoin:miter;stroke-opacity:1" d="M 16.7179,915.453 25.1966,921.812 z" id="boundary" inkscape:connector-curvature="0" />
	<path style="fill:none;stroke:red;stroke-width:1px;stroke-linecap:butt;stroke-linejoin:miter;stroke-opacity:1" d="M 100.444,927.111 111.043,921.812 z" id="boundary" inkscape:connector-curvature="0" />
	<path style="fill:none;stroke:red;stroke-width:1px;stroke-linecap:butt;stroke-linejoin:miter;stroke-opacity:1" d="M 111.043,921.812 121.641,921.812 z" id="boundary" inkscape:connector-curvature="0" />
	<path style="fill:none;stroke:red;stroke-width:1px;stroke-linecap:butt;stroke-linejoin:miter;stroke-opacity:1" d="M 131.179,916.513 121.641,921.812 z" id="boundary" inkscape:connector-curvature="0" />
	<path style="fill:none;stroke:red;stroke-width:1px;stroke-linecap:butt;stroke-linejoin:miter;stroke-opacity:1" d="M 93.0256,935.59 100.444,927.111 z" id="boundary" inkscape:connector-curvature="0" />
	<path style="fill:none;stroke:red;stroke-width:1px;stroke-linecap:butt;stroke-linejoin:miter;stroke-opacity:1" d="M 61.2308,937.709 50.6325,937.709 z" id="boundary" inkscape:connector-curvature="0" />
	<path style="fill:none;stroke:red;stroke-width:1px;stroke-linecap:butt;stroke-linejoin:miter;stroke-opacity:1" d="M 82.4274,937.709 71.8291,937.709 z" id="boundary" inkscape:connector-curvature="0" />
	<path style="fill:none;stroke:red;stroke-width:1px;stroke-linecap:butt;stroke-linejoin:miter;stroke-opacity:1" d="M 71.8291,937.709 61.2308,937.709 z" id="boundary" inkscape:connector-curvature="0" />
	<path style="fill:none;stroke:red;stroke-width:1px;stroke-linecap:butt;stroke-linejoin:miter;stroke-opacity:1" d="M 93.0256,935.59 82.4274,937.709 z" id="boundary" inkscape:connector-curvature="0" />
	<path style="fill:none;stroke:red;stroke-width:1px;stroke-linecap:butt;stroke-linejoin:miter;stroke-opacity:1" d="M 140.718,911.214 131.179,916.513 z" id="boundary" inkscape:connector-curvature="0" />
	<path style="fill:none;stroke:red;stroke-width:1px;stroke-linecap:butt;stroke-linejoin:miter;stroke-opacity:1" d="M 346.325,773.436 356.923,777.675 z" id="boundary" inkscape:connector-curvature="0" />
	<path style="fill:none;stroke:red;stroke-width:1px;stroke-linecap:butt;stroke-linejoin:miter;stroke-opacity:1" d="M 336.786,778.735 346.325,773.436 z" id="boundary" inkscape:connector-curvature="0" />
	<path style="fill:none;stroke:red;stroke-width:1px;stroke-linecap:butt;stroke-linejoin:miter;stroke-opacity:1" d="M 367.521,777.675 376,768.137 z" id="boundary" inkscape:connector-curvature="0" />
	<path style="fill:none;stroke:red;stroke-width:1px;stroke-linecap:butt;stroke-linejoin:miter;stroke-opacity:1" d="M 384.479,760.718 376,768.137 z" id="boundary" inkscape:connector-curvature="0" />
	<path style="fill:none;stroke:red;stroke-width:1px;stroke-linecap:butt;stroke-linejoin:miter;stroke-opacity:1" d="M 367.521,777.675 356.923,777.675 z" id="boundary" inkscape:connector-curvature="0" />
	<path style="fill:none;stroke:red;stroke-width:1px;stroke-linecap:butt;stroke-linejoin:miter;stroke-opacity:1" d="M 304.991,787.214 315.59,781.915 z" id="boundary" inkscape:connector-curvature="0" />
	<path style="fill:none;stroke:red;stroke-width:1px;stroke-linecap:butt;stroke-linejoin:miter;stroke-opacity:1" d="M 304.991,787.214 294.393,792.513 z" id="boundary" inkscape:connector-curvature="0" />
	<path style="fill:none;stroke:red;stroke-width:1px;stroke-linecap:butt;stroke-linejoin:miter;stroke-opacity:1" d="M 336.786,778.735 326.188,778.735 z" id="boundary" inkscape:connector-curvature="0" />
	<path style="fill:none;stroke:red;stroke-width:1px;stroke-linecap:butt;stroke-linejoin:miter;stroke-opacity:1" d="M 315.59,781.915 326.188,778.735 z" id="boundary" inkscape:connector-curvature="0" />
	<path style="fill:none;stroke:red;stroke-width:1px;stroke-linecap:butt;stroke-linejoin:miter;stroke-opacity:1" d="M 384.479,760.718 395.077,755.419 z" id="boundary" inkscape:connector-curvature="0" />
	<path style="fill:none;stroke:red;stroke-width:1px;stroke-linecap:butt;stroke-linejoin:miter;stroke-opacity:1" d="M 428.991,709.846 437.47,702.427 z" id="boundary" inkscape:connector-curvature="0" />
	<path style="fill:none;stroke:red;stroke-width:1px;stroke-linecap:butt;stroke-linejoin:miter;stroke-opacity:1" d="M 421.573,718.325 428.991,709.846 z" id="boundary" inkscape:connector-curvature="0" />
	<path style="fill:none;stroke:red;stroke-width:1px;stroke-linecap:butt;stroke-linejoin:miter;stroke-opacity:1" d="M 444.889,693.949 453.368,686.53 z" id="boundary" inkscape:connector-curvature="0" />
	<path style="fill:none;stroke:red;stroke-width:1px;stroke-linecap:butt;stroke-linejoin:miter;stroke-opacity:1" d="M 437.47,702.427 444.889,693.949 z" id="boundary" inkscape:connector-curvature="0" />
	<path style="fill:none;stroke:red;stroke-width:1px;stroke-linecap:butt;stroke-linejoin:miter;stroke-opacity:1" d="M 395.077,755.419 400.376,744.821 z" id="boundary" inkscape:connector-curvature="0" />
	<path style="fill:none;stroke:red;stroke-width:1px;stroke-linecap:butt;stroke-linejoin:miter;stroke-opacity:1" d="M 400.376,744.821 407.795,736.342 z" id="boundary" inkscape:connector-curvature="0" />
	<path style="fill:none;stroke:red;stroke-width:1px;stroke-linecap:butt;stroke-linejoin:miter;stroke-opacity:1" d="M 407.795,736.342 413.094,725.744 z" id="boundary" inkscape:connector-curvature="0" />
	<path style="fill:none;stroke:red;stroke-width:1px;stroke-linecap:butt;stroke-linejoin:miter;stroke-opacity:1" d="M 413.094,725.744 421.573,718.325 z" id="boundary" inkscape:connector-curvature="0" />
	<path style="fill:none;stroke:red;stroke-width:1px;stroke-linecap:butt;stroke-linejoin:miter;stroke-opacity:1" d="M 294.393,792.513 285.915,799.932 z" id="boundary" inkscape:connector-curvature="0" />
	<path style="fill:none;stroke:red;stroke-width:1px;stroke-linecap:butt;stroke-linejoin:miter;stroke-opacity:1" d="M 189.47,879.419 197.949,873.06 z" id="boundary" inkscape:connector-curvature="0" />
	<path style="fill:none;stroke:red;stroke-width:1px;stroke-linecap:butt;stroke-linejoin:miter;stroke-opacity:1" d="M 206.427,863.521 197.949,873.06 z" id="boundary" inkscape:connector-curvature="0" />
	<path style="fill:none;stroke:red;stroke-width:1px;stroke-linecap:butt;stroke-linejoin:miter;stroke-opacity:1" d="M 206.427,863.521 217.026,858.222 z" id="boundary" inkscape:connector-curvature="0" />
	<path style="fill:none;stroke:red;stroke-width:1px;stroke-linecap:butt;stroke-linejoin:miter;stroke-opacity:1" d="M 189.47,879.419 179.932,884.718 z" id="boundary" inkscape:connector-curvature="0" />
	<path style="fill:none;stroke:red;stroke-width:1px;stroke-linecap:butt;stroke-linejoin:miter;stroke-opacity:1" d="M 217.026,858.222 227.624,852.923 z" id="boundary" inkscape:connector-curvature="0" />
	<path style="fill:none;stroke:red;stroke-width:1px;stroke-linecap:butt;stroke-linejoin:miter;stroke-opacity:1" d="M 140.718,911.214 150.256,904.855 z" id="boundary" inkscape:connector-curvature="0" />
	<path style="fill:none;stroke:red;stroke-width:1px;stroke-linecap:butt;stroke-linejoin:miter;stroke-opacity:1" d="M 150.256,904.855 160.855,899.556 z" id="boundary" inkscape:connector-curvature="0" />
	<path style="fill:none;stroke:red;stroke-width:1px;stroke-linecap:butt;stroke-linejoin:miter;stroke-opacity:1" d="M 160.855,899.556 169.333,890.017 z" id="boundary" inkscape:connector-curvature="0" />
	<path style="fill:none;stroke:red;stroke-width:1px;stroke-linecap:butt;stroke-linejoin:miter;stroke-opacity:1" d="M 169.333,890.017 179.932,884.718 z" id="boundary" inkscape:connector-curvature="0" />
	<path style="fill:none;stroke:red;stroke-width:1px;stroke-linecap:butt;stroke-linejoin:miter;stroke-opacity:1" d="M 267.897,813.709 278.496,808.41 z" id="boundary" inkscape:connector-curvature="0" />
	<path style="fill:none;stroke:red;stroke-width:1px;stroke-linecap:butt;stroke-linejoin:miter;stroke-opacity:1" d="M 259.419,821.128 267.897,813.709 z" id="boundary" inkscape:connector-curvature="0" />
	<path style="fill:none;stroke:red;stroke-width:1px;stroke-linecap:butt;stroke-linejoin:miter;stroke-opacity:1" d="M 285.915,799.932 278.496,808.41 z" id="boundary" inkscape:connector-curvature="0" />
	<path style="fill:none;stroke:red;stroke-width:1px;stroke-linecap:butt;stroke-linejoin:miter;stroke-opacity:1" d="M 227.624,852.923 236.103,845.504 z" id="boundary" inkscape:connector-curvature="0" />
	<path style="fill:none;stroke:red;stroke-width:1px;stroke-linecap:butt;stroke-linejoin:miter;stroke-opacity:1" d="M 259.419,821.128 252,829.607 z" id="boundary" inkscape:connector-curvature="0" />
	<path style="fill:none;stroke:red;stroke-width:1px;stroke-linecap:butt;stroke-linejoin:miter;stroke-opacity:1" d="M 252,829.607 243.521,837.026 z" id="boundary" inkscape:connector-curvature="0" />
	<path style="fill:none;stroke:red;stroke-width:1px;stroke-linecap:butt;stroke-linejoin:miter;stroke-opacity:1" d="M 236.103,845.504 243.521,837.026 z" id="boundary" inkscape:connector-curvature="0" />
	<path style="fill:none;stroke:red;stroke-width:1px;stroke-linecap:butt;stroke-linejoin:miter;stroke-opacity:1" d="M 624,136.479 633.538,131.179 z" id="boundary" inkscape:connector-curvature="0" />
	<path style="fill:none;stroke:red;stroke-width:1px;stroke-linecap:butt;stroke-linejoin:miter;stroke-opacity:1" d="M 633.538,131.179 644.137,131.179 z" id="boundary" inkscape:connector-curvature="0" />
	<path style="fill:none;stroke:red;stroke-width:1px;stroke-linecap:butt;stroke-linejoin:miter;stroke-opacity:1" d="M 624,136.479 613.402,139.658 z" id="boundary" inkscape:connector-curvature="0" />
	<path style="fill:none;stroke:red;stroke-width:1px;stroke-linecap:butt;stroke-linejoin:miter;stroke-opacity:1" d="M 654.735,132.239 644.137,131.179 z" id="boundary" inkscape:connector-curvature="0" />
	<path style="fill:none;stroke:red;stroke-width:1px;stroke-linecap:butt;stroke-linejoin:miter;stroke-opacity:1" d="M 604.923,148.137 613.402,139.658 z" id="boundary" inkscape:connector-curvature="0" />
	<path style="fill:none;stroke:red;stroke-width:1px;stroke-linecap:butt;stroke-linejoin:miter;stroke-opacity:1" d="M 654.735,132.239 664.274,137.538 z" id="boundary" inkscape:connector-curvature="0" />
	<path style="fill:none;stroke:red;stroke-width:1px;stroke-linecap:butt;stroke-linejoin:miter;stroke-opacity:1" d="M 664.274,137.538 669.573,147.077 z" id="boundary" inkscape:connector-curvature="0" />
	<path style="fill:none;stroke:red;stroke-width:1px;stroke-linecap:butt;stroke-linejoin:miter;stroke-opacity:1" d="M 708.786,139.658 700.308,153.436 z" id="boundary" inkscape:connector-curvature="0" />
	<path style="fill:none;stroke:red;stroke-width:1px;stroke-linecap:butt;stroke-linejoin:miter;stroke-opacity:1" d="M 717.265,131.179 708.786,139.658 z" id="boundary" inkscape:connector-curvature="0" />
	<path style="fill:none;stroke:red;stroke-width:1px;stroke-linecap:butt;stroke-linejoin:miter;stroke-opacity:1" d="M 794.632,43.2137 786.154,51.6923 z" id="boundary" inkscape:connector-curvature="0" />
	<path style="fill:none;stroke:red;stroke-width:1px;stroke-linecap:butt;stroke-linejoin:miter;stroke-opacity:1" d="M 759.658,83.4872 767.077,70.7692 z" id="boundary" inkscape:connector-curvature="0" />
	<path style="fill:none;stroke:red;stroke-width:1px;stroke-linecap:butt;stroke-linejoin:miter;stroke-opacity:1" d="M 767.077,70.7692 777.675,60.1709 z" id="boundary" inkscape:connector-curvature="0" />
	<path style="fill:none;stroke:red;stroke-width:1px;stroke-linecap:butt;stroke-linejoin:miter;stroke-opacity:1" d="M 786.154,51.6923 777.675,60.1709 z" id="boundary" inkscape:connector-curvature="0" />
	<path style="fill:none;stroke:red;stroke-width:1px;stroke-linecap:butt;stroke-linejoin:miter;stroke-opacity:1" d="M 751.179,91.9658 759.658,83.4872 z" id="boundary" inkscape:connector-curvature="0" />
	<path style="fill:none;stroke:red;stroke-width:1px;stroke-linecap:butt;stroke-linejoin:miter;stroke-opacity:1" d="M 717.265,131.179 724.684,118.462 z" id="boundary" inkscape:connector-curvature="0" />
	<path style="fill:none;stroke:red;stroke-width:1px;stroke-linecap:butt;stroke-linejoin:miter;stroke-opacity:1" d="M 729.983,107.863 740.581,97.265 z" id="boundary" inkscape:connector-curvature="0" />
	<path style="fill:none;stroke:red;stroke-width:1px;stroke-linecap:butt;stroke-linejoin:miter;stroke-opacity:1" d="M 740.581,97.265 751.179,91.9658 z" id="boundary" inkscape:connector-curvature="0" />
	<path style="fill:none;stroke:red;stroke-width:1px;stroke-linecap:butt;stroke-linejoin:miter;stroke-opacity:1" d="M 724.684,118.462 729.983,107.863 z" id="boundary" inkscape:connector-curvature="0" />
	<path style="fill:none;stroke:red;stroke-width:1px;stroke-linecap:butt;stroke-linejoin:miter;stroke-opacity:1" d="M 534.974,180.991 545.573,175.692 z" id="boundary" inkscape:connector-curvature="0" />
	<path style="fill:none;stroke:red;stroke-width:1px;stroke-linecap:butt;stroke-linejoin:miter;stroke-opacity:1" d="M 554.051,168.274 545.573,175.692 z" id="boundary" inkscape:connector-curvature="0" />
	<path style="fill:none;stroke:red;stroke-width:1px;stroke-linecap:butt;stroke-linejoin:miter;stroke-opacity:1" d="M 554.051,168.274 563.59,162.974 z" id="boundary" inkscape:connector-curvature="0" />
	<path style="fill:none;stroke:red;stroke-width:1px;stroke-linecap:butt;stroke-linejoin:miter;stroke-opacity:1" d="M 534.974,180.991 524.376,186.291 z" id="boundary" inkscape:connector-curvature="0" />
	<path style="fill:none;stroke:red;stroke-width:1px;stroke-linecap:butt;stroke-linejoin:miter;stroke-opacity:1" d="M 490.462,215.966 497.88,207.487 z" id="boundary" inkscape:connector-curvature="0" />
	<path style="fill:none;stroke:red;stroke-width:1px;stroke-linecap:butt;stroke-linejoin:miter;stroke-opacity:1" d="M 524.376,186.291 515.897,194.769 z" id="boundary" inkscape:connector-curvature="0" />
	<path style="fill:none;stroke:red;stroke-width:1px;stroke-linecap:butt;stroke-linejoin:miter;stroke-opacity:1" d="M 515.897,194.769 506.359,200.068 z" id="boundary" inkscape:connector-curvature="0" />
	<path style="fill:none;stroke:red;stroke-width:1px;stroke-linecap:butt;stroke-linejoin:miter;stroke-opacity:1" d="M 497.88,207.487 506.359,200.068 z" id="boundary" inkscape:connector-curvature="0" />
	<path style="fill:none;stroke:red;stroke-width:1px;stroke-linecap:butt;stroke-linejoin:miter;stroke-opacity:1" d="M 574.188,157.675 583.726,152.376 z" id="boundary" inkscape:connector-curvature="0" />
	<path style="fill:none;stroke:red;stroke-width:1px;stroke-linecap:butt;stroke-linejoin:miter;stroke-opacity:1" d="M 583.726,152.376 594.325,152.376 z" id="boundary" inkscape:connector-curvature="0" />
	<path style="fill:none;stroke:red;stroke-width:1px;stroke-linecap:butt;stroke-linejoin:miter;stroke-opacity:1" d="M 604.923,148.137 594.325,152.376 z" id="boundary" inkscape:connector-curvature="0" />
	<path style="fill:none;stroke:red;stroke-width:1px;stroke-linecap:butt;stroke-linejoin:miter;stroke-opacity:1" d="M 676.991,155.556 669.573,147.077 z" id="boundary" inkscape:connector-curvature="0" />
	<path style="fill:none;stroke:red;stroke-width:1px;stroke-linecap:butt;stroke-linejoin:miter;stroke-opacity:1" d="M 682.291,165.094 688.65,173.573 z" id="boundary" inkscape:connector-curvature="0" />
	<path style="fill:none;stroke:red;stroke-width:1px;stroke-linecap:butt;stroke-linejoin:miter;stroke-opacity:1" d="M 676.991,155.556 682.291,165.094 z" id="boundary" inkscape:connector-curvature="0" />
	<path style="fill:none;stroke:red;stroke-width:1px;stroke-linecap:butt;stroke-linejoin:miter;stroke-opacity:1" d="M 700.308,153.436 695.009,164.034 z" id="boundary" inkscape:connector-curvature="0" />
	<path style="fill:none;stroke:red;stroke-width:1px;stroke-linecap:butt;stroke-linejoin:miter;stroke-opacity:1" d="M 563.59,162.974 574.188,157.675 z" id="boundary" inkscape:connector-curvature="0" />
	<path style="fill:none;stroke:red;stroke-width:1px;stroke-linecap:butt;stroke-linejoin:miter;stroke-opacity:1" d="M 843.385,15.6581 853.983,10.359 z" id="boundary" inkscape:connector-curvature="0" />
	<path style="fill:none;stroke:red;stroke-width:1px;stroke-linecap:butt;stroke-linejoin:miter;stroke-opacity:1" d="M 853.983,10.359 864.581,9.29915 z" id="boundary" inkscape:connector-curvature="0" />
	<path style="fill:none;stroke:red;stroke-width:1px;stroke-linecap:butt;stroke-linejoin:miter;stroke-opacity:1" d="M 864.581,9.29915 875.179,9.29915 z" id="boundary" inkscape:connector-curvature="0" />
	<path style="fill:none;stroke:red;stroke-width:1px;stroke-linecap:butt;stroke-linejoin:miter;stroke-opacity:1" d="M 885.778,9.29915 875.179,9.29915 z" id="boundary" inkscape:connector-curvature="0" />
	<path style="fill:none;stroke:red;stroke-width:1px;stroke-linecap:butt;stroke-linejoin:miter;stroke-opacity:1" d="M 896.376,5.05983 885.778,9.29915 z" id="boundary" inkscape:connector-curvature="0" />
	<path style="fill:none;stroke:red;stroke-width:1px;stroke-linecap:butt;stroke-linejoin:miter;stroke-opacity:1" d="M 805.231,37.9145 813.709,30.4957 z" id="boundary" inkscape:connector-curvature="0" />
	<path style="fill:none;stroke:red;stroke-width:1px;stroke-linecap:butt;stroke-linejoin:miter;stroke-opacity:1" d="M 813.709,30.4957 823.248,25.1966 z" id="boundary" inkscape:connector-curvature="0" />
	<path style="fill:none;stroke:red;stroke-width:1px;stroke-linecap:butt;stroke-linejoin:miter;stroke-opacity:1" d="M 805.231,37.9145 794.632,43.2137 z" id="boundary" inkscape:connector-curvature="0" />
	<path style="fill:none;stroke:red;stroke-width:1px;stroke-linecap:butt;stroke-linejoin:miter;stroke-opacity:1" d="M 823.248,25.1966 832.786,19.8974 z" id="boundary" inkscape:connector-curvature="0" />
	<path style="fill:none;stroke:red;stroke-width:1px;stroke-linecap:butt;stroke-linejoin:miter;stroke-opacity:1" d="M 832.786,19.8974 843.385,15.6581 z" id="boundary" inkscape:connector-curvature="0" />
	<path style="fill:none;stroke:red;stroke-width:1px;stroke-linecap:butt;stroke-linejoin:miter;stroke-opacity:1" d="M 917.573,4 927.111,9.29915 z" id="boundary" inkscape:connector-curvature="0" />
	<path style="fill:none;stroke:red;stroke-width:1px;stroke-linecap:butt;stroke-linejoin:miter;stroke-opacity:1" d="M 906.974,4 917.573,4 z" id="boundary" inkscape:connector-curvature="0" />
	<path style="fill:none;stroke:red;stroke-width:1px;stroke-linecap:butt;stroke-linejoin:miter;stroke-opacity:1" d="M 927.111,9.29915 936.65,14.5983 z" id="boundary" inkscape:connector-curvature="0" />
	<path style="fill:none;stroke:red;stroke-width:1px;stroke-linecap:butt;stroke-linejoin:miter;stroke-opacity:1" d="M 936.65,14.5983 945.128,20.9573 z" id="boundary" inkscape:connector-curvature="0" />
	<path style="fill:none;stroke:red;stroke-width:1px;stroke-linecap:butt;stroke-linejoin:miter;stroke-opacity:1" d="M 955.726,25.1966 945.128,20.9573 z" id="boundary" inkscape:connector-curvature="0" />
	<path style="fill:none;stroke:red;stroke-width:1px;stroke-linecap:butt;stroke-linejoin:miter;stroke-opacity:1" d="M 955.726,25.1966 965.265,30.4957 z" id="boundary" inkscape:connector-curvature="0" />
	<path style="fill:none;stroke:red;stroke-width:1px;stroke-linecap:butt;stroke-linejoin:miter;stroke-opacity:1" d="M 965.265,30.4957 973.744,37.9145 z" id="boundary" inkscape:connector-curvature="0" />
	<path style="fill:none;stroke:red;stroke-width:1px;stroke-linecap:butt;stroke-linejoin:miter;stroke-opacity:1" d="M 896.376,5.05983 906.974,4 z" id="boundary" inkscape:connector-curvature="0" />
	<path style="fill:none;stroke:red;stroke-width:1px;stroke-linecap:butt;stroke-linejoin:miter;stroke-opacity:1" d="M 973.744,37.9145 980.103,46.3932 z" id="boundary" inkscape:connector-curvature="0" />
	<path style="fill:none;stroke:red;stroke-width:1px;stroke-linecap:butt;stroke-linejoin:miter;stroke-opacity:1" d="M 980.103,46.3932 985.402,55.9316 z" id="boundary" inkscape:connector-curvature="0" />
	<path style="fill:none;stroke:red;stroke-width:1px;stroke-linecap:butt;stroke-linejoin:miter;stroke-opacity:1" d="M 980.103,158.735 972.684,172.513 z" id="boundary" inkscape:connector-curvature="0" />
	<path style="fill:none;stroke:red;stroke-width:1px;stroke-linecap:butt;stroke-linejoin:miter;stroke-opacity:1" d="M 946.188,209.607 953.607,201.128 z" id="boundary" inkscape:connector-curvature="0" />
	<path style="fill:none;stroke:red;stroke-width:1px;stroke-linecap:butt;stroke-linejoin:miter;stroke-opacity:1" d="M 953.607,201.128 962.085,193.709 z" id="boundary" inkscape:connector-curvature="0" />
	<path style="fill:none;stroke:red;stroke-width:1px;stroke-linecap:butt;stroke-linejoin:miter;stroke-opacity:1" d="M 962.085,193.709 967.385,183.111 z" id="boundary" inkscape:connector-curvature="0" />
	<path style="fill:none;stroke:red;stroke-width:1px;stroke-linecap:butt;stroke-linejoin:miter;stroke-opacity:1" d="M 972.684,172.513 967.385,183.111 z" id="boundary" inkscape:connector-curvature="0" />
	<path style="fill:none;stroke:red;stroke-width:1px;stroke-linecap:butt;stroke-linejoin:miter;stroke-opacity:1" d="M 990.701,65.4701 996,75.0085 z" id="boundary" inkscape:connector-curvature="0" />
	<path style="fill:none;stroke:red;stroke-width:1px;stroke-linecap:butt;stroke-linejoin:miter;stroke-opacity:1" d="M 996,75.0085 996,85.6068 z" id="boundary" inkscape:connector-curvature="0" />
	<path style="fill:none;stroke:red;stroke-width:1px;stroke-linecap:butt;stroke-linejoin:miter;stroke-opacity:1" d="M 996,85.6068 996,96.2051 z" id="boundary" inkscape:connector-curvature="0" />
	<path style="fill:none;stroke:red;stroke-width:1px;stroke-linecap:butt;stroke-linejoin:miter;stroke-opacity:1" d="M 985.402,137.538 985.402,148.137 z" id="boundary" inkscape:connector-curvature="0" />
	<path style="fill:none;stroke:red;stroke-width:1px;stroke-linecap:butt;stroke-linejoin:miter;stroke-opacity:1" d="M 985.402,148.137 980.103,158.735 z" id="boundary" inkscape:connector-curvature="0" />
	<path style="fill:none;stroke:red;stroke-width:1px;stroke-linecap:butt;stroke-linejoin:miter;stroke-opacity:1" d="M 985.402,137.538 990.701,126.94 z" id="boundary" inkscape:connector-curvature="0" />
	<path style="fill:none;stroke:red;stroke-width:1px;stroke-linecap:butt;stroke-linejoin:miter;stroke-opacity:1" d="M 990.701,116.342 996,106.803 z" id="boundary" inkscape:connector-curvature="0" />
	<path style="fill:none;stroke:red;stroke-width:1px;stroke-linecap:butt;stroke-linejoin:miter;stroke-opacity:1" d="M 990.701,126.94 990.701,116.342 z" id="boundary" inkscape:connector-curvature="0" />
	<path style="fill:none;stroke:red;stroke-width:1px;stroke-linecap:butt;stroke-linejoin:miter;stroke-opacity:1" d="M 996,96.2051 996,106.803 z" id="boundary" inkscape:connector-curvature="0" />
	<path style="fill:none;stroke:red;stroke-width:1px;stroke-linecap:butt;stroke-linejoin:miter;stroke-opacity:1" d="M 985.402,55.9316 990.701,65.4701 z" id="boundary" inkscape:connector-curvature="0" />
	<path style="fill:none;stroke:red;stroke-width:1px;stroke-linecap:butt;stroke-linejoin:miter;stroke-opacity:1" d="M 946.188,209.607 937.709,217.026 z" id="boundary" inkscape:connector-curvature="0" />
	<path style="fill:none;stroke:red;stroke-width:1px;stroke-linecap:butt;stroke-linejoin:miter;stroke-opacity:1" d="M 481.983,223.385 471.385,228.684 z" id="boundary" inkscape:connector-curvature="0" />
	<path style="fill:none;stroke:red;stroke-width:1px;stroke-linecap:butt;stroke-linejoin:miter;stroke-opacity:1" d="M 490.462,215.966 481.983,223.385 z" id="boundary" inkscape:connector-curvature="0" />
	<path style="fill:none;stroke:red;stroke-width:1px;stroke-linecap:butt;stroke-linejoin:miter;stroke-opacity:1" d="M 669.573,502.12 674.872,492.581 z" id="boundary" inkscape:connector-curvature="0" />
	<path style="fill:none;stroke:red;stroke-width:1px;stroke-linecap:butt;stroke-linejoin:miter;stroke-opacity:1" d="M 674.872,492.581 684.41,487.282 z" id="boundary" inkscape:connector-curvature="0" />
	<path style="fill:none;stroke:red;stroke-width:1px;stroke-linecap:butt;stroke-linejoin:miter;stroke-opacity:1" d="M 669.573,502.12 660.034,508.479 z" id="boundary" inkscape:connector-curvature="0" />
	<path style="fill:none;stroke:red;stroke-width:1px;stroke-linecap:butt;stroke-linejoin:miter;stroke-opacity:1" d="M 632.479,528.615 640.957,519.077 z" id="boundary" inkscape:connector-curvature="0" />
	<path style="fill:none;stroke:red;stroke-width:1px;stroke-linecap:butt;stroke-linejoin:miter;stroke-opacity:1" d="M 640.957,519.077 650.496,513.778 z" id="boundary" inkscape:connector-curvature="0" />
	<path style="fill:none;stroke:red;stroke-width:1px;stroke-linecap:butt;stroke-linejoin:miter;stroke-opacity:1" d="M 650.496,513.778 660.034,508.479 z" id="boundary" inkscape:connector-curvature="0" />
	<path style="fill:none;stroke:red;stroke-width:1px;stroke-linecap:butt;stroke-linejoin:miter;stroke-opacity:1" d="M 632.479,528.615 621.88,533.915 z" id="boundary" inkscape:connector-curvature="0" />
	<path style="fill:none;stroke:red;stroke-width:1px;stroke-linecap:butt;stroke-linejoin:miter;stroke-opacity:1" d="M 725.744,450.188 718.325,458.667 z" id="boundary" inkscape:connector-curvature="0" />
	<path style="fill:none;stroke:red;stroke-width:1px;stroke-linecap:butt;stroke-linejoin:miter;stroke-opacity:1" d="M 741.641,353.744 731.043,353.744 z" id="boundary" inkscape:connector-curvature="0" />
	<path style="fill:none;stroke:red;stroke-width:1px;stroke-linecap:butt;stroke-linejoin:miter;stroke-opacity:1" d="M 736.342,333.607 728.923,342.085 z" id="boundary" inkscape:connector-curvature="0" />
	<path style="fill:none;stroke:red;stroke-width:1px;stroke-linecap:butt;stroke-linejoin:miter;stroke-opacity:1" d="M 684.41,487.282 693.949,481.983 z" id="boundary" inkscape:connector-curvature="0" />
	<path style="fill:none;stroke:red;stroke-width:1px;stroke-linecap:butt;stroke-linejoin:miter;stroke-opacity:1" d="M 702.427,474.564 693.949,481.983 z" id="boundary" inkscape:connector-curvature="0" />
	<path style="fill:none;stroke:red;stroke-width:1px;stroke-linecap:butt;stroke-linejoin:miter;stroke-opacity:1" d="M 702.427,474.564 709.846,466.085 z" id="boundary" inkscape:connector-curvature="0" />
	<path style="fill:none;stroke:red;stroke-width:1px;stroke-linecap:butt;stroke-linejoin:miter;stroke-opacity:1" d="M 709.846,466.085 718.325,458.667 z" id="boundary" inkscape:connector-curvature="0" />
	<path style="fill:none;stroke:red;stroke-width:1px;stroke-linecap:butt;stroke-linejoin:miter;stroke-opacity:1" d="M 725.744,450.188 734.222,442.769 z" id="boundary" inkscape:connector-curvature="0" />
	<path style="fill:none;stroke:red;stroke-width:1px;stroke-linecap:butt;stroke-linejoin:miter;stroke-opacity:1" d="M 505.299,586.906 513.778,577.368 z" id="boundary" inkscape:connector-curvature="0" />
	<path style="fill:none;stroke:red;stroke-width:1px;stroke-linecap:butt;stroke-linejoin:miter;stroke-opacity:1" d="M 513.778,577.368 523.316,572.068 z" id="boundary" inkscape:connector-curvature="0" />
	<path style="fill:none;stroke:red;stroke-width:1px;stroke-linecap:butt;stroke-linejoin:miter;stroke-opacity:1" d="M 505.299,586.906 496.821,593.265 z" id="boundary" inkscape:connector-curvature="0" />
	<path style="fill:none;stroke:red;stroke-width:1px;stroke-linecap:butt;stroke-linejoin:miter;stroke-opacity:1" d="M 523.316,572.068 533.915,568.889 z" id="boundary" inkscape:connector-curvature="0" />
	<path style="fill:none;stroke:red;stroke-width:1px;stroke-linecap:butt;stroke-linejoin:miter;stroke-opacity:1" d="M 540.274,556.171 533.915,568.889 z" id="boundary" inkscape:connector-curvature="0" />
	<path style="fill:none;stroke:red;stroke-width:1px;stroke-linecap:butt;stroke-linejoin:miter;stroke-opacity:1" d="M 471.385,614.462 479.863,607.043 z" id="boundary" inkscape:connector-curvature="0" />
	<path style="fill:none;stroke:red;stroke-width:1px;stroke-linecap:butt;stroke-linejoin:miter;stroke-opacity:1" d="M 471.385,614.462 463.966,622.94 z" id="boundary" inkscape:connector-curvature="0" />
	<path style="fill:none;stroke:red;stroke-width:1px;stroke-linecap:butt;stroke-linejoin:miter;stroke-opacity:1" d="M 479.863,607.043 487.282,598.564 z" id="boundary" inkscape:connector-curvature="0" />
	<path style="fill:none;stroke:red;stroke-width:1px;stroke-linecap:butt;stroke-linejoin:miter;stroke-opacity:1" d="M 487.282,598.564 496.821,593.265 z" id="boundary" inkscape:connector-curvature="0" />
	<path style="fill:none;stroke:red;stroke-width:1px;stroke-linecap:butt;stroke-linejoin:miter;stroke-opacity:1" d="M 581.607,545.573 592.205,545.573 z" id="boundary" inkscape:connector-curvature="0" />
	<path style="fill:none;stroke:red;stroke-width:1px;stroke-linecap:butt;stroke-linejoin:miter;stroke-opacity:1" d="M 571.009,547.692 581.607,545.573 z" id="boundary" inkscape:connector-curvature="0" />
	<path style="fill:none;stroke:red;stroke-width:1px;stroke-linecap:butt;stroke-linejoin:miter;stroke-opacity:1" d="M 612.342,540.274 621.88,533.915 z" id="boundary" inkscape:connector-curvature="0" />
	<path style="fill:none;stroke:red;stroke-width:1px;stroke-linecap:butt;stroke-linejoin:miter;stroke-opacity:1" d="M 612.342,540.274 602.803,545.573 z" id="boundary" inkscape:connector-curvature="0" />
	<path style="fill:none;stroke:red;stroke-width:1px;stroke-linecap:butt;stroke-linejoin:miter;stroke-opacity:1" d="M 602.803,545.573 592.205,545.573 z" id="boundary" inkscape:connector-curvature="0" />
	<path style="fill:none;stroke:red;stroke-width:1px;stroke-linecap:butt;stroke-linejoin:miter;stroke-opacity:1" d="M 549.812,550.872 560.41,550.872 z" id="boundary" inkscape:connector-curvature="0" />
	<path style="fill:none;stroke:red;stroke-width:1px;stroke-linecap:butt;stroke-linejoin:miter;stroke-opacity:1" d="M 549.812,550.872 540.274,556.171 z" id="boundary" inkscape:connector-curvature="0" />
	<path style="fill:none;stroke:red;stroke-width:1px;stroke-linecap:butt;stroke-linejoin:miter;stroke-opacity:1" d="M 571.009,547.692 560.41,550.872 z" id="boundary" inkscape:connector-curvature="0" />
	<path style="fill:none;stroke:red;stroke-width:1px;stroke-linecap:butt;stroke-linejoin:miter;stroke-opacity:1" d="M 822.188,285.915 831.726,280.615 z" id="boundary" inkscape:connector-curvature="0" />
	<path style="fill:none;stroke:red;stroke-width:1px;stroke-linecap:butt;stroke-linejoin:miter;stroke-opacity:1" d="M 812.65,291.214 822.188,285.915 z" id="boundary" inkscape:connector-curvature="0" />
	<path style="fill:none;stroke:red;stroke-width:1px;stroke-linecap:butt;stroke-linejoin:miter;stroke-opacity:1" d="M 842.325,275.316 831.726,280.615 z" id="boundary" inkscape:connector-curvature="0" />
	<path style="fill:none;stroke:red;stroke-width:1px;stroke-linecap:butt;stroke-linejoin:miter;stroke-opacity:1" d="M 773.436,307.111 782.974,301.812 z" id="boundary" inkscape:connector-curvature="0" />
	<path style="fill:none;stroke:red;stroke-width:1px;stroke-linecap:butt;stroke-linejoin:miter;stroke-opacity:1" d="M 792.513,296.513 802.051,291.214 z" id="boundary" inkscape:connector-curvature="0" />
	<path style="fill:none;stroke:red;stroke-width:1px;stroke-linecap:butt;stroke-linejoin:miter;stroke-opacity:1" d="M 802.051,291.214 812.65,291.214 z" id="boundary" inkscape:connector-curvature="0" />
	<path style="fill:none;stroke:red;stroke-width:1px;stroke-linecap:butt;stroke-linejoin:miter;stroke-opacity:1" d="M 792.513,296.513 782.974,301.812 z" id="boundary" inkscape:connector-curvature="0" />
	<path style="fill:none;stroke:red;stroke-width:1px;stroke-linecap:butt;stroke-linejoin:miter;stroke-opacity:1" d="M 842.325,275.316 852.923,270.017 z" id="boundary" inkscape:connector-curvature="0" />
	<path style="fill:none;stroke:red;stroke-width:1px;stroke-linecap:butt;stroke-linejoin:miter;stroke-opacity:1" d="M 852.923,270.017 863.521,270.017 z" id="boundary" inkscape:connector-curvature="0" />
	<path style="fill:none;stroke:red;stroke-width:1px;stroke-linecap:butt;stroke-linejoin:miter;stroke-opacity:1" d="M 912.274,243.521 920.752,235.043 z" id="boundary" inkscape:connector-curvature="0" />
	<path style="fill:none;stroke:red;stroke-width:1px;stroke-linecap:butt;stroke-linejoin:miter;stroke-opacity:1" d="M 929.231,226.564 937.709,217.026 z" id="boundary" inkscape:connector-curvature="0" />
	<path style="fill:none;stroke:red;stroke-width:1px;stroke-linecap:butt;stroke-linejoin:miter;stroke-opacity:1" d="M 912.274,243.521 902.735,248.821 z" id="boundary" inkscape:connector-curvature="0" />
	<path style="fill:none;stroke:red;stroke-width:1px;stroke-linecap:butt;stroke-linejoin:miter;stroke-opacity:1" d="M 920.752,235.043 929.231,226.564 z" id="boundary" inkscape:connector-curvature="0" />
	<path style="fill:none;stroke:red;stroke-width:1px;stroke-linecap:butt;stroke-linejoin:miter;stroke-opacity:1" d="M 863.521,270.017 873.06,264.718 z" id="boundary" inkscape:connector-curvature="0" />
	<path style="fill:none;stroke:red;stroke-width:1px;stroke-linecap:butt;stroke-linejoin:miter;stroke-opacity:1" d="M 873.06,264.718 883.658,261.538 z" id="boundary" inkscape:connector-curvature="0" />
	<path style="fill:none;stroke:red;stroke-width:1px;stroke-linecap:butt;stroke-linejoin:miter;stroke-opacity:1" d="M 902.735,248.821 894.256,256.239 z" id="boundary" inkscape:connector-curvature="0" />
	<path style="fill:none;stroke:red;stroke-width:1px;stroke-linecap:butt;stroke-linejoin:miter;stroke-opacity:1" d="M 894.256,256.239 883.658,261.538 z" id="boundary" inkscape:connector-curvature="0" />
	<path style="fill:none;stroke:red;stroke-width:1px;stroke-linecap:butt;stroke-linejoin:miter;stroke-opacity:1" d="M 736.342,333.607 745.88,328.308 z" id="boundary" inkscape:connector-curvature="0" />
	<path style="fill:none;stroke:red;stroke-width:1px;stroke-linecap:butt;stroke-linejoin:miter;stroke-opacity:1" d="M 741.641,353.744 751.179,348.444 z" id="boundary" inkscape:connector-curvature="0" />
	<path style="fill:none;stroke:red;stroke-width:1px;stroke-linecap:butt;stroke-linejoin:miter;stroke-opacity:1" d="M 760.718,343.145 751.179,348.444 z" id="boundary" inkscape:connector-curvature="0" />
	<path style="fill:none;stroke:red;stroke-width:1px;stroke-linecap:butt;stroke-linejoin:miter;stroke-opacity:1" d="M 764.957,316.65 756.479,325.128 z" id="boundary" inkscape:connector-curvature="0" />
	<path style="fill:none;stroke:red;stroke-width:1px;stroke-linecap:butt;stroke-linejoin:miter;stroke-opacity:1" d="M 756.479,325.128 745.88,328.308 z" id="boundary" inkscape:connector-curvature="0" />
	<path style="fill:none;stroke:red;stroke-width:1px;stroke-linecap:butt;stroke-linejoin:miter;stroke-opacity:1" d="M 741.641,428.991 734.222,442.769 z" id="boundary" inkscape:connector-curvature="0" />
	<path style="fill:none;stroke:red;stroke-width:1px;stroke-linecap:butt;stroke-linejoin:miter;stroke-opacity:1" d="M 750.12,421.573 741.641,428.991 z" id="boundary" inkscape:connector-curvature="0" />
	<path style="fill:none;stroke:red;stroke-width:1px;stroke-linecap:butt;stroke-linejoin:miter;stroke-opacity:1" d="M 757.538,413.094 750.12,421.573 z" id="boundary" inkscape:connector-curvature="0" />
	<path style="fill:none;stroke:red;stroke-width:1px;stroke-linecap:butt;stroke-linejoin:miter;stroke-opacity:1" d="M 762.838,402.496 757.538,413.094 z" id="boundary" inkscape:connector-curvature="0" />
	<path style="fill:none;stroke:red;stroke-width:1px;stroke-linecap:butt;stroke-linejoin:miter;stroke-opacity:1" d="M 771.316,343.145 760.718,343.145 z" id="boundary" inkscape:connector-curvature="0" />
	<path style="fill:none;stroke:red;stroke-width:1px;stroke-linecap:butt;stroke-linejoin:miter;stroke-opacity:1" d="M 771.316,343.145 780.855,348.444 z" id="boundary" inkscape:connector-curvature="0" />
	<path style="fill:none;stroke:red;stroke-width:1px;stroke-linecap:butt;stroke-linejoin:miter;stroke-opacity:1" d="M 764.957,316.65 773.436,307.111 z" id="boundary" inkscape:connector-curvature="0" />
	<path style="fill:none;stroke:red;stroke-width:1px;stroke-linecap:butt;stroke-linejoin:miter;stroke-opacity:1" d="M 762.838,402.496 771.316,395.077 z" id="boundary" inkscape:connector-curvature="0" />
	<path style="fill:none;stroke:red;stroke-width:1px;stroke-linecap:butt;stroke-linejoin:miter;stroke-opacity:1" d="M 778.735,386.598 771.316,395.077 z" id="boundary" inkscape:connector-curvature="0" />
	<path style="fill:none;stroke:red;stroke-width:1px;stroke-linecap:butt;stroke-linejoin:miter;stroke-opacity:1" d="M 784.034,376 778.735,386.598 z" id="boundary" inkscape:connector-curvature="0" />
	<path style="fill:none;stroke:red;stroke-width:1px;stroke-linecap:butt;stroke-linejoin:miter;stroke-opacity:1" d="M 784.034,376 788.274,356.923 z" id="boundary" inkscape:connector-curvature="0" />
	<path style="fill:none;stroke:red;stroke-width:1px;stroke-linecap:butt;stroke-linejoin:miter;stroke-opacity:1" d="M 780.855,348.444 788.274,356.923 z" id="boundary" inkscape:connector-curvature="0" />
	<circle cx="4" cy="897.436" r="4" fill="#0" id="circle0"/>
	<circle cx="9.29915" cy="812.65" r="4" fill="#0" id="circle1"/>
	<circle cx="9.29915" cy="823.248" r="4" fill="#0" id="circle2"/>
	<circle cx="9.29915" cy="833.846" r="4" fill="#0" id="circle3"/>
	<circle cx="9.29915" cy="844.444" r="4" fill="#0" id="circle4"/>
	<circle cx="9.29915" cy="855.043" r="4" fill="#0" id="circle5"/>
	<circle cx="9.29915" cy="865.641" r="4" fill="#0" id="circle6"/>
	<circle cx="9.29915" cy="876.239" r="4" fill="#0" id="circle7"/>
	<circle cx="9.29915" cy="886.838" r="4" fill="#0" id="circle8"/>
	<circle cx="9.29915" cy="906.974" r="4" fill="#0" id="circle9"/>
	<circle cx="14.5983" cy="796.752" r="4" fill="#0" id="circle10"/>
	<circle cx="16.7179" cy="915.453" r="4" fill="#0" id="circle11"/>
	<circle cx="23.0769" cy="788.274" r="4" fill="#0" id="circle12"/>
	<circle cx="25.1966" cy="921.812" r="4" fill="#0" id="circle13"/>
	<circle cx="30.4957" cy="775.556" r="4" fill="#0" id="circle14"/>
	<circle cx="31.5556" cy="930.291" r="4" fill="#0" id="circle15"/>
	<circle cx="35.7949" cy="764.957" r="4" fill="#0" id="circle16"/>
	<circle cx="40.0342" cy="937.709" r="4" fill="#0" id="circle17"/>
	<circle cx="41.094" cy="754.359" r="4" fill="#0" id="circle18"/>
	<circle cx="46.3932" cy="743.761" r="4" fill="#0" id="circle19"/>
	<circle cx="50.6325" cy="937.709" r="4" fill="#0" id="circle20"/>
	<circle cx="54.8718" cy="735.282" r="4" fill="#0" id="circle21"/>
	<circle cx="56.9915" cy="722.564" r="4" fill="#0" id="circle22"/>
	<circle cx="61.2308" cy="937.709" r="4" fill="#0" id="circle23"/>
	<circle cx="65.4701" cy="714.085" r="4" fill="#0" id="circle24"/>
	<circle cx="70.7692" cy="703.487" r="4" fill="#0" id="circle25"/>
	<circle cx="71.8291" cy="937.709" r="4" fill="#0" id="circle26"/>
	<circle cx="79.2479" cy="695.009" r="4" fill="#0" id="circle27"/>
	<circle cx="82.4274" cy="937.709" r="4" fill="#0" id="circle28"/>
	<circle cx="87.7265" cy="687.59" r="4" fill="#0" id="circle29"/>
	<circle cx="93.0256" cy="935.59" r="4" fill="#0" id="circle30"/>
	<circle cx="94.0855" cy="674.872" r="4" fill="#0" id="circle31"/>
	<circle cx="100.444" cy="927.111" r="4" fill="#0" id="circle32"/>
	<circle cx="102.564" cy="666.393" r="4" fill="#0" id="circle33"/>
	<circle cx="107.863" cy="655.795" r="4" fill="#0" id="circle34"/>
	<circle cx="111.043" cy="921.812" r="4" fill="#0" id="circle35"/>
	<circle cx="116.342" cy="647.316" r="4" fill="#0" id="circle36"/>
	<circle cx="121.641" cy="921.812" r="4" fill="#0" id="circle37"/>
	<circle cx="124.821" cy="639.897" r="4" fill="#0" id="circle38"/>
	<circle cx="131.179" cy="916.513" r="4" fill="#0" id="circle39"/>
	<circle cx="132.239" cy="631.419" r="4" fill="#0" id="circle40"/>
	<circle cx="140.718" cy="624" r="4" fill="#0" id="circle41"/>
	<circle cx="140.718" cy="911.214" r="4" fill="#0" id="circle42"/>
	<circle cx="144.957" cy="613.402" r="4" fill="#0" id="circle43"/>
	<circle cx="150.256" cy="904.855" r="4" fill="#0" id="circle44"/>
	<circle cx="153.436" cy="604.923" r="4" fill="#0" id="circle45"/>
	<circle cx="160.855" cy="899.556" r="4" fill="#0" id="circle46"/>
	<circle cx="161.915" cy="597.504" r="4" fill="#0" id="circle47"/>
	<circle cx="169.333" cy="589.026" r="4" fill="#0" id="circle48"/>
	<circle cx="169.333" cy="890.017" r="4" fill="#0" id="circle49"/>
	<circle cx="173.573" cy="505.299" r="4" fill="#0" id="circle50"/>
	<circle cx="173.573" cy="515.897" r="4" fill="#0" id="circle51"/>
	<circle cx="173.573" cy="526.496" r="4" fill="#0" id="circle52"/>
	<circle cx="173.573" cy="537.094" r="4" fill="#0" id="circle53"/>
	<circle cx="177.812" cy="581.607" r="4" fill="#0" id="circle54"/>
	<circle cx="178.872" cy="478.803" r="4" fill="#0" id="circle55"/>
	<circle cx="178.872" cy="489.402" r="4" fill="#0" id="circle56"/>
	<circle cx="178.872" cy="546.632" r="4" fill="#0" id="circle57"/>
	<circle cx="179.932" cy="884.718" r="4" fill="#0" id="circle58"/>
	<circle cx="184.171" cy="462.906" r="4" fill="#0" id="circle59"/>
	<circle cx="185.231" cy="573.128" r="4" fill="#0" id="circle60"/>
	<circle cx="186.291" cy="555.111" r="4" fill="#0" id="circle61"/>
	<circle cx="189.47" cy="452.308" r="4" fill="#0" id="circle62"/>
	<circle cx="189.47" cy="879.419" r="4" fill="#0" id="circle63"/>
	<circle cx="194.769" cy="441.709" r="4" fill="#0" id="circle64"/>
	<circle cx="197.949" cy="873.06" r="4" fill="#0" id="circle65"/>
	<circle cx="203.248" cy="433.231" r="4" fill="#0" id="circle66"/>
	<circle cx="206.427" cy="863.521" r="4" fill="#0" id="circle67"/>
	<circle cx="210.667" cy="420.513" r="4" fill="#0" id="circle68"/>
	<circle cx="217.026" cy="858.222" r="4" fill="#0" id="circle69"/>
	<circle cx="219.145" cy="412.034" r="4" fill="#0" id="circle70"/>
	<circle cx="227.624" cy="403.556" r="4" fill="#0" id="circle71"/>
	<circle cx="227.624" cy="852.923" r="4" fill="#0" id="circle72"/>
	<circle cx="236.103" cy="396.137" r="4" fill="#0" id="circle73"/>
	<circle cx="236.103" cy="845.504" r="4" fill="#0" id="circle74"/>
	<circle cx="243.521" cy="837.026" r="4" fill="#0" id="circle75"/>
	<circle cx="246.701" cy="396.137" r="4" fill="#0" id="circle76"/>
	<circle cx="252" cy="829.607" r="4" fill="#0" id="circle77"/>
	<circle cx="256.239" cy="390.838" r="4" fill="#0" id="circle78"/>
	<circle cx="259.419" cy="821.128" r="4" fill="#0" id="circle79"/>
	<circle cx="266.838" cy="385.538" r="4" fill="#0" id="circle80"/>
	<circle cx="267.897" cy="813.709" r="4" fill="#0" id="circle81"/>
	<circle cx="277.436" cy="380.239" r="4" fill="#0" id="circle82"/>
	<circle cx="278.496" cy="808.41" r="4" fill="#0" id="circle83"/>
	<circle cx="285.915" cy="799.932" r="4" fill="#0" id="circle84"/>
	<circle cx="286.974" cy="385.538" r="4" fill="#0" id="circle85"/>
	<circle cx="294.393" cy="792.513" r="4" fill="#0" id="circle86"/>
	<circle cx="297.573" cy="385.538" r="4" fill="#0" id="circle87"/>
	<circle cx="304.991" cy="787.214" r="4" fill="#0" id="circle88"/>
	<circle cx="307.111" cy="380.239" r="4" fill="#0" id="circle89"/>
	<circle cx="315.59" cy="781.915" r="4" fill="#0" id="circle90"/>
	<circle cx="317.709" cy="383.419" r="4" fill="#0" id="circle91"/>
	<circle cx="326.188" cy="778.735" r="4" fill="#0" id="circle92"/>
	<circle cx="328.308" cy="385.538" r="4" fill="#0" id="circle93"/>
	<circle cx="336.786" cy="391.897" r="4" fill="#0" id="circle94"/>
	<circle cx="336.786" cy="778.735" r="4" fill="#0" id="circle95"/>
	<circle cx="344.205" cy="400.376" r="4" fill="#0" id="circle96"/>
	<circle cx="346.325" cy="773.436" r="4" fill="#0" id="circle97"/>
	<circle cx="352.684" cy="406.735" r="4" fill="#0" id="circle98"/>
	<circle cx="356.923" cy="777.675" r="4" fill="#0" id="circle99"/>
	<circle cx="363.282" cy="406.735" r="4" fill="#0" id="circle100"/>
	<circle cx="367.521" cy="396.137" r="4" fill="#0" id="circle101"/>
	<circle cx="367.521" cy="777.675" r="4" fill="#0" id="circle102"/>
	<circle cx="372.821" cy="385.538" r="4" fill="#0" id="circle103"/>
	<circle cx="374.94" cy="362.222" r="4" fill="#0" id="circle104"/>
	<circle cx="374.94" cy="372.821" r="4" fill="#0" id="circle105"/>
	<circle cx="376" cy="768.137" r="4" fill="#0" id="circle106"/>
	<circle cx="380.239" cy="335.726" r="4" fill="#0" id="circle107"/>
	<circle cx="380.239" cy="346.325" r="4" fill="#0" id="circle108"/>
	<circle cx="384.479" cy="760.718" r="4" fill="#0" id="circle109"/>
	<circle cx="385.538" cy="325.128" r="4" fill="#0" id="circle110"/>
	<circle cx="390.838" cy="314.53" r="4" fill="#0" id="circle111"/>
	<circle cx="395.077" cy="755.419" r="4" fill="#0" id="circle112"/>
	<circle cx="399.316" cy="306.051" r="4" fill="#0" id="circle113"/>
	<circle cx="400.376" cy="744.821" r="4" fill="#0" id="circle114"/>
	<circle cx="407.795" cy="297.573" r="4" fill="#0" id="circle115"/>
	<circle cx="407.795" cy="736.342" r="4" fill="#0" id="circle116"/>
	<circle cx="413.094" cy="725.744" r="4" fill="#0" id="circle117"/>
	<circle cx="416.274" cy="290.154" r="4" fill="#0" id="circle118"/>
	<circle cx="418.393" cy="672.752" r="4" fill="#0" id="circle119"/>
	<circle cx="421.573" cy="718.325" r="4" fill="#0" id="circle120"/>
	<circle cx="422.632" cy="277.436" r="4" fill="#0" id="circle121"/>
	<circle cx="423.692" cy="662.154" r="4" fill="#0" id="circle122"/>
	<circle cx="423.692" cy="682.291" r="4" fill="#0" id="circle123"/>
	<circle cx="428.991" cy="709.846" r="4" fill="#0" id="circle124"/>
	<circle cx="431.111" cy="268.957" r="4" fill="#0" id="circle125"/>
	<circle cx="432.171" cy="654.735" r="4" fill="#0" id="circle126"/>
	<circle cx="433.231" cy="674.872" r="4" fill="#0" id="circle127"/>
	<circle cx="437.47" cy="702.427" r="4" fill="#0" id="circle128"/>
	<circle cx="439.59" cy="260.479" r="4" fill="#0" id="circle129"/>
	<circle cx="439.59" cy="646.256" r="4" fill="#0" id="circle130"/>
	<circle cx="443.829" cy="669.573" r="4" fill="#0" id="circle131"/>
	<circle cx="444.889" cy="249.88" r="4" fill="#0" id="circle132"/>
	<circle cx="444.889" cy="693.949" r="4" fill="#0" id="circle133"/>
	<circle cx="448.068" cy="638.838" r="4" fill="#0" id="circle134"/>
	<circle cx="453.368" cy="686.53" r="4" fill="#0" id="circle135"/>
	<circle cx="454.427" cy="666.393" r="4" fill="#0" id="circle136"/>
	<circle cx="455.487" cy="244.581" r="4" fill="#0" id="circle137"/>
	<circle cx="455.487" cy="630.359" r="4" fill="#0" id="circle138"/>
	<circle cx="460.786" cy="678.051" r="4" fill="#0" id="circle139"/>
	<circle cx="463.966" cy="237.162" r="4" fill="#0" id="circle140"/>
	<circle cx="463.966" cy="622.94" r="4" fill="#0" id="circle141"/>
	<circle cx="471.385" cy="228.684" r="4" fill="#0" id="circle142"/>
	<circle cx="471.385" cy="614.462" r="4" fill="#0" id="circle143"/>
	<circle cx="479.863" cy="607.043" r="4" fill="#0" id="circle144"/>
	<circle cx="481.983" cy="223.385" r="4" fill="#0" id="circle145"/>
	<circle cx="487.282" cy="598.564" r="4" fill="#0" id="circle146"/>
	<circle cx="490.462" cy="215.966" r="4" fill="#0" id="circle147"/>
	<circle cx="496.821" cy="593.265" r="4" fill="#0" id="circle148"/>
	<circle cx="497.88" cy="207.487" r="4" fill="#0" id="circle149"/>
	<circle cx="505.299" cy="586.906" r="4" fill="#0" id="circle150"/>
	<circle cx="506.359" cy="200.068" r="4" fill="#0" id="circle151"/>
	<circle cx="513.778" cy="577.368" r="4" fill="#0" id="circle152"/>
	<circle cx="515.897" cy="194.769" r="4" fill="#0" id="circle153"/>
	<circle cx="523.316" cy="572.068" r="4" fill="#0" id="circle154"/>
	<circle cx="524.376" cy="186.291" r="4" fill="#0" id="circle155"/>
	<circle cx="533.915" cy="568.889" r="4" fill="#0" id="circle156"/>
	<circle cx="534.974" cy="180.991" r="4" fill="#0" id="circle157"/>
	<circle cx="540.274" cy="556.171" r="4" fill="#0" id="circle158"/>
	<circle cx="545.573" cy="175.692" r="4" fill="#0" id="circle159"/>
	<circle cx="549.812" cy="550.872" r="4" fill="#0" id="circle160"/>
	<circle cx="554.051" cy="168.274" r="4" fill="#0" id="circle161"/>
	<circle cx="560.41" cy="550.872" r="4" fill="#0" id="circle162"/>
	<circle cx="563.59" cy="162.974" r="4" fill="#0" id="circle163"/>
	<circle cx="571.009" cy="547.692" r="4" fill="#0" id="circle164"/>
	<circle cx="574.188" cy="157.675" r="4" fill="#0" id="circle165"/>
	<circle cx="581.607" cy="545.573" r="4" fill="#0" id="circle166"/>
	<circle cx="583.726" cy="152.376" r="4" fill="#0" id="circle167"/>
	<circle cx="592.205" cy="545.573" r="4" fill="#0" id="circle168"/>
	<circle cx="594.325" cy="152.376" r="4" fill="#0" id="circle169"/>
	<circle cx="602.803" cy="545.573" r="4" fill="#0" id="circle170"/>
	<circle cx="604.923" cy="148.137" r="4" fill="#0" id="circle171"/>
	<circle cx="612.342" cy="540.274" r="4" fill="#0" id="circle172"/>
	<circle cx="613.402" cy="139.658" r="4" fill="#0" id="circle173"/>
	<circle cx="621.88" cy="533.915" r="4" fill="#0" id="circle174"/>
	<circle cx="624" cy="136.479" r="4" fill="#0" id="circle175"/>
	<circle cx="632.479" cy="528.615" r="4" fill="#0" id="circle176"/>
	<circle cx="633.538" cy="131.179" r="4" fill="#0" id="circle177"/>
	<circle cx="640.957" cy="519.077" r="4" fill="#0" id="circle178"/>
	<circle cx="644.137" cy="131.179" r="4" fill="#0" id="circle179"/>
	<circle cx="650.496" cy="513.778" r="4" fill="#0" id="circle180"/>
	<circle cx="654.735" cy="132.239" r="4" fill="#0" id="circle181"/>
	<circle cx="660.034" cy="508.479" r="4" fill="#0" id="circle182"/>
	<circle cx="664.274" cy="137.538" r="4" fill="#0" id="circle183"/>
	<circle cx="669.573" cy="147.077" r="4" fill="#0" id="circle184"/>
	<circle cx="669.573" cy="502.12" r="4" fill="#0" id="circle185"/>
	<circle cx="674.872" cy="492.581" r="4" fill="#0" id="circle186"/>
	<circle cx="676.991" cy="155.556" r="4" fill="#0" id="circle187"/>
	<circle cx="682.291" cy="165.094" r="4" fill="#0" id="circle188"/>
	<circle cx="684.41" cy="487.282" r="4" fill="#0" id="circle189"/>
	<circle cx="688.65" cy="173.573" r="4" fill="#0" id="circle190"/>
	<circle cx="693.949" cy="481.983" r="4" fill="#0" id="circle191"/>
	<circle cx="695.009" cy="164.034" r="4" fill="#0" id="circle192"/>
	<circle cx="700.308" cy="153.436" r="4" fill="#0" id="circle193"/>
	<circle cx="702.427" cy="474.564" r="4" fill="#0" id="circle194"/>
	<circle cx="708.786" cy="139.658" r="4" fill="#0" id="circle195"/>
	<circle cx="709.846" cy="466.085" r="4" fill="#0" id="circle196"/>
	<circle cx="717.265" cy="131.179" r="4" fill="#0" id="circle197"/>
	<circle cx="718.325" cy="458.667" r="4" fill="#0" id="circle198"/>
	<circle cx="720.444" cy="349.504" r="4" fill="#0" id="circle199"/>
	<circle cx="724.684" cy="118.462" r="4" fill="#0" id="circle200"/>
	<circle cx="725.744" cy="450.188" r="4" fill="#0" id="circle201"/>
	<circle cx="728.923" cy="342.085" r="4" fill="#0" id="circle202"/>
	<circle cx="729.983" cy="107.863" r="4" fill="#0" id="circle203"/>
	<circle cx="731.043" cy="353.744" r="4" fill="#0" id="circle204"/>
	<circle cx="734.222" cy="442.769" r="4" fill="#0" id="circle205"/>
	<circle cx="736.342" cy="333.607" r="4" fill="#0" id="circle206"/>
	<circle cx="740.581" cy="97.265" r="4" fill="#0" id="circle207"/>
	<circle cx="741.641" cy="353.744" r="4" fill="#0" id="circle208"/>
	<circle cx="741.641" cy="428.991" r="4" fill="#0" id="circle209"/>
	<circle cx="745.88" cy="328.308" r="4" fill="#0" id="circle210"/>
	<circle cx="750.12" cy="421.573" r="4" fill="#0" id="circle211"/>
	<circle cx="751.179" cy="91.9658" r="4" fill="#0" id="circle212"/>
	<circle cx="751.179" cy="348.444" r="4" fill="#0" id="circle213"/>
	<circle cx="756.479" cy="325.128" r="4" fill="#0" id="circle214"/>
	<circle cx="757.538" cy="413.094" r="4" fill="#0" id="circle215"/>
	<circle cx="759.658" cy="83.4872" r="4" fill="#0" id="circle216"/>
	<circle cx="760.718" cy="343.145" r="4" fill="#0" id="circle217"/>
	<circle cx="762.838" cy="402.496" r="4" fill="#0" id="circle218"/>
	<circle cx="764.957" cy="316.65" r="4" fill="#0" id="circle219"/>
	<circle cx="767.077" cy="70.7692" r="4" fill="#0" id="circle220"/>
	<circle cx="771.316" cy="343.145" r="4" fill="#0" id="circle221"/>
	<circle cx="771.316" cy="395.077" r="4" fill="#0" id="circle222"/>
	<circle cx="773.436" cy="307.111" r="4" fill="#0" id="circle223"/>
	<circle cx="777.675" cy="60.1709" r="4" fill="#0" id="circle224"/>
	<circle cx="778.735" cy="386.598" r="4" fill="#0" id="circle225"/>
	<circle cx="780.855" cy="348.444" r="4" fill="#0" id="circle226"/>
	<circle cx="782.974" cy="301.812" r="4" fill="#0" id="circle227"/>
	<circle cx="784.034" cy="376" r="4" fill="#0" id="circle228"/>
	<circle cx="786.154" cy="51.6923" r="4" fill="#0" id="circle229"/>
	<circle cx="788.274" cy="356.923" r="4" fill="#0" id="circle230"/>
	<circle cx="792.513" cy="296.513" r="4" fill="#0" id="circle231"/>
	<circle cx="794.632" cy="43.2137" r="4" fill="#0" id="circle232"/>
	<circle cx="802.051" cy="291.214" r="4" fill="#0" id="circle233"/>
	<circle cx="805.231" cy="37.9145" r="4" fill="#0" id="circle234"/>
	<circle cx="812.65" cy="291.214" r="4" fill="#0" id="circle235"/>
	<circle cx="813.709" cy="30.4957" r="4" fill="#0" id="circle236"/>
	<circle cx="822.188" cy="285.915" r="4" fill="#0" id="circle237"/>
	<circle cx="823.248" cy="25.1966" r="4" fill="#0" id="circle238"/>
	<circle cx="831.726" cy="280.615" r="4" fill="#0" id="circle239"/>
	<circle cx="832.786" cy="19.8974" r="4" fill="#0" id="circle240"/>
	<circle cx="842.325" cy="275.316" r="4" fill="#0" id="circle241"/>
	<circle cx="843.385" cy="15.6581" r="4" fill="#0" id="circle242"/>
	<circle cx="852.923" cy="270.017" r="4" fill="#0" id="circle243"/>
	<circle cx="853.983" cy="10.359" r="4" fill="#0" id="circle244"/>
	<circle cx="863.521" cy="270.017" r="4" fill="#0" id="circle245"/>
	<circle cx="864.581" cy="9.29915" r="4" fill="#0" id="circle246"/>
	<circle cx="873.06" cy="264.718" r="4" fill="#0" id="circle247"/>
	<circle cx="875.179" cy="9.29915" r="4" fill="#0" id="circle248"/>
	<circle cx="883.658" cy="261.538" r="4" fill="#0" id="circle249"/>
	<circle cx="885.778" cy="9.29915" r="4" fill="#0" id="circle250"/>
	<circle cx="894.256" cy="256.239" r="4" fill="#0" id="circle251"/>
	<circle cx="896.376" cy="5.05983" r="4" fill="#0" id="circle252"/>
	<circle cx="902.735" cy="248.821" r="4" fill="#0" id="circle253"/>
	<circle cx="906.974" cy="4" r="4" fill="#0" id="circle254"/>
	<circle cx="912.274" cy="243.521" r="4" fill="#0" id="circle255"/>
	<circle cx="917.573" cy="4" r="4" fill="#0" id="circle256"/>
	<circle cx="920.752" cy="235.043" r="4" fill="#0" id="circle257"/>
	<circle cx="927.111" cy="9.29915" r="4" fill="#0" id="circle258"/>
	<circle cx="929.231" cy="226.564" r="4" fill="#0" id="circle259"/>
	<circle cx="936.65" cy="14.5983" r="4" fill="#0" id="circle260"/>
	<circle cx="937.709" cy="217.026" r="4" fill="#0" id="circle261"/>
	<circle cx="945.128" cy="20.9573" r="4" fill="#0" id="circle262"/>
	<circle cx="946.188" cy="209.607" r="4" fill="#0" id="circle263"/>
	<circle cx="953.607" cy="201.128" r="4" fill="#0" id="circle264"/>
	<circle cx="955.726" cy="25.1966" r="4" fill="#0" id="circle265"/>
	<circle cx="962.085" cy="193.709" r="4" fill="#0" id="circle266"/>
	<circle cx="965.265" cy="30.4957" r="4" fill="#0" id="circle267"/>
	<circle cx="967.385" cy="183.111" r="4" fill="#0" id="circle268"/>
	<circle cx="972.684" cy="172.513" r="4" fill="#0" id="circle269"/>
	<circle cx="973.744" cy="37.9145" r="4" fill="#0" id="circle270"/>
	<circle cx="980.103" cy="46.3932" r="4" fill="#0" id="circle271"/>
	<circle cx="980.103" cy="158.735" r="4" fill="#0" id="circle272"/>
	<circle cx="985.402" cy="55.9316" r="4" fill="#0" id="circle273"/>
	<circle cx="985.402" cy="137.538" r="4" fill="#0" id="circle274"/>
	<circle cx="985.402" cy="148.137" r="4" fill="#0" id="circle275"/>
	<circle cx="990.701" cy="65.4701" r="4" fill="#0" id="circle276"/>
	<circle cx="990.701" cy="116.342" r="4" fill="#0" id="circle277"/>
	<circle cx="990.701" cy="126.94" r="4" fill="#0" id="circle278"/>
	<circle cx="996" cy="75.0085" r="4" fill="#0" id="circle279"/>
	<circle cx="996" cy="85.6068" r="4" fill="#0" id="circle280"/>
	<circle cx="996" cy="96.2051" r="4" fill="#0" id="circle281"/>
	<circle cx="996" cy="106.803" r="4" fill="#0" id="circle282"/>
	</g>
</svg>