<?xml version="1.0" encoding="UTF-8" standalone="no"?>
<!-- Created with CurveBenchmark -->
<svg
	xmlns:dc="http://purl.org/dc/elements/1.1/"
	xmlns:cc="http://creativecommons.org/ns#"
	xmlns:rdf="http://www.w3.org/1999/02/22-rdf-syntax-ns#"
	xmlns:svg="http://www.w3.org/2000/svg"
	xmlns="http://www.w3.org/2000/svg"
	xmlns:sodipodi="http://sodipodi.sourceforge.net/DTD/sodipodi-0.dtd"
	xmlns:inkscape="http://www.inkscape.org/namespaces/inkscape"
	width="1000"
	height="1000"
	id="svg2"
	version="1.1"
	sodipodi:docname="manifold/ccrust-dude4.png.txt">
<defs
	id="defs4" />
<metadata
	id="metadata7">
	<rdf:RDF>
		<cc:Work
			rdf:about="">
			<dc:format>image/svg+xml</dc:format>
			<dc:type
				rdf:resource="http://purl.org/dc/dcmitype/StillImage" />
			<dc:title></dc:title>
		</cc:Work>
	</rdf:RDF>
</metadata>
<g
	inkscape:label="Layer 1"
	inkscape:groupmode="layer"
	id="layer1">
	<path style="fill:none;stroke:red;stroke-width:1px;stroke-linecap:butt;stroke-linejoin:miter;stroke-opacity:1" d="M 107.039,290.892 117.141,270.688 z" id="boundary" inkscape:connector-curvature="0" />
	<path style="fill:none;stroke:red;stroke-width:1px;stroke-linecap:butt;stroke-linejoin:miter;stroke-opacity:1" d="M 107.039,290.892 90.8758,307.055 z" id="boundary" inkscape:connector-curvature="0" />
	<path style="fill:none;stroke:red;stroke-width:1px;stroke-linecap:butt;stroke-linejoin:miter;stroke-opacity:1" d="M 127.242,250.485 117.141,270.688 z" id="boundary" inkscape:connector-curvature="0" />
	<path style="fill:none;stroke:red;stroke-width:1px;stroke-linecap:butt;stroke-linejoin:miter;stroke-opacity:1" d="M 90.8758,307.055 82.7943,327.259 z" id="boundary" inkscape:connector-curvature="0" />
	<path style="fill:none;stroke:red;stroke-width:1px;stroke-linecap:butt;stroke-linejoin:miter;stroke-opacity:1" d="M 82.7943,327.259 66.6314,341.401 z" id="boundary" inkscape:connector-curvature="0" />
	<path style="fill:none;stroke:red;stroke-width:1px;stroke-linecap:butt;stroke-linejoin:miter;stroke-opacity:1" d="M 212.098,319.177 191.894,327.259 z" id="boundary" inkscape:connector-curvature="0" />
	<path style="fill:none;stroke:red;stroke-width:1px;stroke-linecap:butt;stroke-linejoin:miter;stroke-opacity:1" d="M 177.752,210.077 161.589,226.24 z" id="boundary" inkscape:connector-curvature="0" />
	<path style="fill:none;stroke:red;stroke-width:1px;stroke-linecap:butt;stroke-linejoin:miter;stroke-opacity:1" d="M 161.589,226.24 143.405,236.342 z" id="boundary" inkscape:connector-curvature="0" />
	<path style="fill:none;stroke:red;stroke-width:1px;stroke-linecap:butt;stroke-linejoin:miter;stroke-opacity:1" d="M 193.914,195.935 177.752,210.077 z" id="boundary" inkscape:connector-curvature="0" />
	<path style="fill:none;stroke:red;stroke-width:1px;stroke-linecap:butt;stroke-linejoin:miter;stroke-opacity:1" d="M 191.894,327.259 175.731,339.381 z" id="boundary" inkscape:connector-curvature="0" />
	<path style="fill:none;stroke:red;stroke-width:1px;stroke-linecap:butt;stroke-linejoin:miter;stroke-opacity:1" d="M 127.242,250.485 143.405,236.342 z" id="boundary" inkscape:connector-curvature="0" />
	<path style="fill:none;stroke:red;stroke-width:1px;stroke-linecap:butt;stroke-linejoin:miter;stroke-opacity:1" d="M 193.914,195.935 214.118,195.935 z" id="boundary" inkscape:connector-curvature="0" />
	<path style="fill:none;stroke:red;stroke-width:1px;stroke-linecap:butt;stroke-linejoin:miter;stroke-opacity:1" d="M 175.731,339.381 157.548,349.483 z" id="boundary" inkscape:connector-curvature="0" />
	<path style="fill:none;stroke:red;stroke-width:1px;stroke-linecap:butt;stroke-linejoin:miter;stroke-opacity:1" d="M 30.2648,397.971 40.3666,377.768 z" id="boundary" inkscape:connector-curvature="0" />
	<path style="fill:none;stroke:red;stroke-width:1px;stroke-linecap:butt;stroke-linejoin:miter;stroke-opacity:1" d="M 30.2648,397.971 14.1018,414.134 z" id="boundary" inkscape:connector-curvature="0" />
	<path style="fill:none;stroke:red;stroke-width:1px;stroke-linecap:butt;stroke-linejoin:miter;stroke-opacity:1" d="M 56.5295,361.605 40.3666,377.768 z" id="boundary" inkscape:connector-curvature="0" />
	<path style="fill:none;stroke:red;stroke-width:1px;stroke-linecap:butt;stroke-linejoin:miter;stroke-opacity:1" d="M 66.6314,341.401 56.5295,361.605 z" id="boundary" inkscape:connector-curvature="0" />
	<path style="fill:none;stroke:red;stroke-width:1px;stroke-linecap:butt;stroke-linejoin:miter;stroke-opacity:1" d="M 4,454.542 4,434.338 z" id="boundary" inkscape:connector-curvature="0" />
	<path style="fill:none;stroke:red;stroke-width:1px;stroke-linecap:butt;stroke-linejoin:miter;stroke-opacity:1" d="M 4,434.338 14.1018,414.134 z" id="boundary" inkscape:connector-curvature="0" />
	<path style="fill:none;stroke:red;stroke-width:1px;stroke-linecap:butt;stroke-linejoin:miter;stroke-opacity:1" d="M 133.303,385.849 117.141,399.992 z" id="boundary" inkscape:connector-curvature="0" />
	<path style="fill:none;stroke:red;stroke-width:1px;stroke-linecap:butt;stroke-linejoin:miter;stroke-opacity:1" d="M 147.446,369.686 157.548,349.483 z" id="boundary" inkscape:connector-curvature="0" />
	<path style="fill:none;stroke:red;stroke-width:1px;stroke-linecap:butt;stroke-linejoin:miter;stroke-opacity:1" d="M 133.303,385.849 147.446,369.686 z" id="boundary" inkscape:connector-curvature="0" />
	<path style="fill:none;stroke:red;stroke-width:1px;stroke-linecap:butt;stroke-linejoin:miter;stroke-opacity:1" d="M 50.4684,458.582 66.6314,440.399 z" id="boundary" inkscape:connector-curvature="0" />
	<path style="fill:none;stroke:red;stroke-width:1px;stroke-linecap:butt;stroke-linejoin:miter;stroke-opacity:1" d="M 66.6314,440.399 84.8147,430.297 z" id="boundary" inkscape:connector-curvature="0" />
	<path style="fill:none;stroke:red;stroke-width:1px;stroke-linecap:butt;stroke-linejoin:miter;stroke-opacity:1" d="M 100.978,418.175 117.141,399.992 z" id="boundary" inkscape:connector-curvature="0" />
	<path style="fill:none;stroke:red;stroke-width:1px;stroke-linecap:butt;stroke-linejoin:miter;stroke-opacity:1" d="M 100.978,418.175 84.8147,430.297 z" id="boundary" inkscape:connector-curvature="0" />
	<path style="fill:none;stroke:red;stroke-width:1px;stroke-linecap:butt;stroke-linejoin:miter;stroke-opacity:1" d="M 296.953,90.8758 307.055,60.5703 z" id="boundary" inkscape:connector-curvature="0" />
	<path style="fill:none;stroke:red;stroke-width:1px;stroke-linecap:butt;stroke-linejoin:miter;stroke-opacity:1" d="M 307.055,60.5703 323.218,44.4073 z" id="boundary" inkscape:connector-curvature="0" />
	<path style="fill:none;stroke:red;stroke-width:1px;stroke-linecap:butt;stroke-linejoin:miter;stroke-opacity:1" d="M 296.953,111.079 307.055,129.263 z" id="boundary" inkscape:connector-curvature="0" />
	<path style="fill:none;stroke:red;stroke-width:1px;stroke-linecap:butt;stroke-linejoin:miter;stroke-opacity:1" d="M 307.055,129.263 307.055,149.466 z" id="boundary" inkscape:connector-curvature="0" />
	<path style="fill:none;stroke:red;stroke-width:1px;stroke-linecap:butt;stroke-linejoin:miter;stroke-opacity:1" d="M 296.953,111.079 296.953,90.8758 z" id="boundary" inkscape:connector-curvature="0" />
	<path style="fill:none;stroke:red;stroke-width:1px;stroke-linecap:butt;stroke-linejoin:miter;stroke-opacity:1" d="M 355.544,14.1018 373.727,4 z" id="boundary" inkscape:connector-curvature="0" />
	<path style="fill:none;stroke:red;stroke-width:1px;stroke-linecap:butt;stroke-linejoin:miter;stroke-opacity:1" d="M 373.727,4 393.931,4 z" id="boundary" inkscape:connector-curvature="0" />
	<path style="fill:none;stroke:red;stroke-width:1px;stroke-linecap:butt;stroke-linejoin:miter;stroke-opacity:1" d="M 393.931,4 412.114,14.1018 z" id="boundary" inkscape:connector-curvature="0" />
	<path style="fill:none;stroke:red;stroke-width:1px;stroke-linecap:butt;stroke-linejoin:miter;stroke-opacity:1" d="M 339.381,28.2444 355.544,14.1018 z" id="boundary" inkscape:connector-curvature="0" />
	<path style="fill:none;stroke:red;stroke-width:1px;stroke-linecap:butt;stroke-linejoin:miter;stroke-opacity:1" d="M 430.297,24.2037 440.399,42.387 z" id="boundary" inkscape:connector-curvature="0" />
	<path style="fill:none;stroke:red;stroke-width:1px;stroke-linecap:butt;stroke-linejoin:miter;stroke-opacity:1" d="M 412.114,14.1018 430.297,24.2037 z" id="boundary" inkscape:connector-curvature="0" />
	<path style="fill:none;stroke:red;stroke-width:1px;stroke-linecap:butt;stroke-linejoin:miter;stroke-opacity:1" d="M 456.562,56.5295 440.399,42.387 z" id="boundary" inkscape:connector-curvature="0" />
	<path style="fill:none;stroke:red;stroke-width:1px;stroke-linecap:butt;stroke-linejoin:miter;stroke-opacity:1" d="M 323.218,44.4073 339.381,28.2444 z" id="boundary" inkscape:connector-curvature="0" />
	<path style="fill:none;stroke:red;stroke-width:1px;stroke-linecap:butt;stroke-linejoin:miter;stroke-opacity:1" d="M 292.912,175.731 307.055,149.466 z" id="boundary" inkscape:connector-curvature="0" />
	<path style="fill:none;stroke:red;stroke-width:1px;stroke-linecap:butt;stroke-linejoin:miter;stroke-opacity:1" d="M 232.301,327.259 212.098,319.177 z" id="boundary" inkscape:connector-curvature="0" />
	<path style="fill:none;stroke:red;stroke-width:1px;stroke-linecap:butt;stroke-linejoin:miter;stroke-opacity:1" d="M 232.301,185.833 214.118,195.935 z" id="boundary" inkscape:connector-curvature="0" />
	<path style="fill:none;stroke:red;stroke-width:1px;stroke-linecap:butt;stroke-linejoin:miter;stroke-opacity:1" d="M 240.383,347.462 246.444,367.666 z" id="boundary" inkscape:connector-curvature="0" />
	<path style="fill:none;stroke:red;stroke-width:1px;stroke-linecap:butt;stroke-linejoin:miter;stroke-opacity:1" d="M 240.383,347.462 232.301,327.259 z" id="boundary" inkscape:connector-curvature="0" />
	<path style="fill:none;stroke:red;stroke-width:1px;stroke-linecap:butt;stroke-linejoin:miter;stroke-opacity:1" d="M 256.546,385.849 246.444,367.666 z" id="boundary" inkscape:connector-curvature="0" />
	<path style="fill:none;stroke:red;stroke-width:1px;stroke-linecap:butt;stroke-linejoin:miter;stroke-opacity:1" d="M 232.301,185.833 252.505,185.833 z" id="boundary" inkscape:connector-curvature="0" />
	<path style="fill:none;stroke:red;stroke-width:1px;stroke-linecap:butt;stroke-linejoin:miter;stroke-opacity:1" d="M 272.709,185.833 252.505,185.833 z" id="boundary" inkscape:connector-curvature="0" />
	<path style="fill:none;stroke:red;stroke-width:1px;stroke-linecap:butt;stroke-linejoin:miter;stroke-opacity:1" d="M 272.709,185.833 292.912,175.731 z" id="boundary" inkscape:connector-curvature="0" />
	<path style="fill:none;stroke:red;stroke-width:1px;stroke-linecap:butt;stroke-linejoin:miter;stroke-opacity:1" d="M 256.546,385.849 258.566,406.053 z" id="boundary" inkscape:connector-curvature="0" />
	<path style="fill:none;stroke:red;stroke-width:1px;stroke-linecap:butt;stroke-linejoin:miter;stroke-opacity:1" d="M 266.648,426.257 258.566,406.053 z" id="boundary" inkscape:connector-curvature="0" />
	<path style="fill:none;stroke:red;stroke-width:1px;stroke-linecap:butt;stroke-linejoin:miter;stroke-opacity:1" d="M 276.749,444.44 266.648,426.257 z" id="boundary" inkscape:connector-curvature="0" />
	<path style="fill:none;stroke:red;stroke-width:1px;stroke-linecap:butt;stroke-linejoin:miter;stroke-opacity:1" d="M 276.749,444.44 276.749,464.644 z" id="boundary" inkscape:connector-curvature="0" />
	<path style="fill:none;stroke:red;stroke-width:1px;stroke-linecap:butt;stroke-linejoin:miter;stroke-opacity:1" d="M 34.3055,474.745 14.1018,472.725 z" id="boundary" inkscape:connector-curvature="0" />
	<path style="fill:none;stroke:red;stroke-width:1px;stroke-linecap:butt;stroke-linejoin:miter;stroke-opacity:1" d="M 14.1018,472.725 4,454.542 z" id="boundary" inkscape:connector-curvature="0" />
	<path style="fill:none;stroke:red;stroke-width:1px;stroke-linecap:butt;stroke-linejoin:miter;stroke-opacity:1" d="M 50.4684,458.582 34.3055,474.745 z" id="boundary" inkscape:connector-curvature="0" />
	<path style="fill:none;stroke:red;stroke-width:1px;stroke-linecap:butt;stroke-linejoin:miter;stroke-opacity:1" d="M 161.589,812.147 151.487,832.35 z" id="boundary" inkscape:connector-curvature="0" />
	<path style="fill:none;stroke:red;stroke-width:1px;stroke-linecap:butt;stroke-linejoin:miter;stroke-opacity:1" d="M 131.283,872.758 141.385,852.554 z" id="boundary" inkscape:connector-curvature="0" />
	<path style="fill:none;stroke:red;stroke-width:1px;stroke-linecap:butt;stroke-linejoin:miter;stroke-opacity:1" d="M 151.487,832.35 141.385,852.554 z" id="boundary" inkscape:connector-curvature="0" />
	<path style="fill:none;stroke:red;stroke-width:1px;stroke-linecap:butt;stroke-linejoin:miter;stroke-opacity:1" d="M 131.283,872.758 115.12,888.921 z" id="boundary" inkscape:connector-curvature="0" />
	<path style="fill:none;stroke:red;stroke-width:1px;stroke-linecap:butt;stroke-linejoin:miter;stroke-opacity:1" d="M 201.996,751.536 216.138,727.291 z" id="boundary" inkscape:connector-curvature="0" />
	<path style="fill:none;stroke:red;stroke-width:1px;stroke-linecap:butt;stroke-linejoin:miter;stroke-opacity:1" d="M 242.403,690.925 232.301,711.128 z" id="boundary" inkscape:connector-curvature="0" />
	<path style="fill:none;stroke:red;stroke-width:1px;stroke-linecap:butt;stroke-linejoin:miter;stroke-opacity:1" d="M 232.301,711.128 216.138,727.291 z" id="boundary" inkscape:connector-curvature="0" />
	<path style="fill:none;stroke:red;stroke-width:1px;stroke-linecap:butt;stroke-linejoin:miter;stroke-opacity:1" d="M 175.731,787.902 191.894,771.739 z" id="boundary" inkscape:connector-curvature="0" />
	<path style="fill:none;stroke:red;stroke-width:1px;stroke-linecap:butt;stroke-linejoin:miter;stroke-opacity:1" d="M 175.731,787.902 161.589,812.147 z" id="boundary" inkscape:connector-curvature="0" />
	<path style="fill:none;stroke:red;stroke-width:1px;stroke-linecap:butt;stroke-linejoin:miter;stroke-opacity:1" d="M 201.996,751.536 191.894,771.739 z" id="boundary" inkscape:connector-curvature="0" />
	<path style="fill:none;stroke:red;stroke-width:1px;stroke-linecap:butt;stroke-linejoin:miter;stroke-opacity:1" d="M 238.363,874.778 224.22,890.941 z" id="boundary" inkscape:connector-curvature="0" />
	<path style="fill:none;stroke:red;stroke-width:1px;stroke-linecap:butt;stroke-linejoin:miter;stroke-opacity:1" d="M 105.018,909.124 94.9165,929.328 z" id="boundary" inkscape:connector-curvature="0" />
	<path style="fill:none;stroke:red;stroke-width:1px;stroke-linecap:butt;stroke-linejoin:miter;stroke-opacity:1" d="M 115.12,888.921 105.018,909.124 z" id="boundary" inkscape:connector-curvature="0" />
	<path style="fill:none;stroke:red;stroke-width:1px;stroke-linecap:butt;stroke-linejoin:miter;stroke-opacity:1" d="M 94.9165,977.817 84.8147,959.633 z" id="boundary" inkscape:connector-curvature="0" />
	<path style="fill:none;stroke:red;stroke-width:1px;stroke-linecap:butt;stroke-linejoin:miter;stroke-opacity:1" d="M 84.8147,959.633 94.9165,929.328 z" id="boundary" inkscape:connector-curvature="0" />
	<path style="fill:none;stroke:red;stroke-width:1px;stroke-linecap:butt;stroke-linejoin:miter;stroke-opacity:1" d="M 125.222,989.939 105.018,996 z" id="boundary" inkscape:connector-curvature="0" />
	<path style="fill:none;stroke:red;stroke-width:1px;stroke-linecap:butt;stroke-linejoin:miter;stroke-opacity:1" d="M 105.018,996 94.9165,977.817 z" id="boundary" inkscape:connector-curvature="0" />
	<path style="fill:none;stroke:red;stroke-width:1px;stroke-linecap:butt;stroke-linejoin:miter;stroke-opacity:1" d="M 193.914,931.348 208.057,905.084 z" id="boundary" inkscape:connector-curvature="0" />
	<path style="fill:none;stroke:red;stroke-width:1px;stroke-linecap:butt;stroke-linejoin:miter;stroke-opacity:1" d="M 208.057,905.084 224.22,890.941 z" id="boundary" inkscape:connector-curvature="0" />
	<path style="fill:none;stroke:red;stroke-width:1px;stroke-linecap:butt;stroke-linejoin:miter;stroke-opacity:1" d="M 125.222,989.939 145.426,979.837 z" id="boundary" inkscape:connector-curvature="0" />
	<path style="fill:none;stroke:red;stroke-width:1px;stroke-linecap:butt;stroke-linejoin:miter;stroke-opacity:1" d="M 161.589,963.674 177.752,945.491 z" id="boundary" inkscape:connector-curvature="0" />
	<path style="fill:none;stroke:red;stroke-width:1px;stroke-linecap:butt;stroke-linejoin:miter;stroke-opacity:1" d="M 177.752,945.491 193.914,931.348 z" id="boundary" inkscape:connector-curvature="0" />
	<path style="fill:none;stroke:red;stroke-width:1px;stroke-linecap:butt;stroke-linejoin:miter;stroke-opacity:1" d="M 161.589,963.674 145.426,979.837 z" id="boundary" inkscape:connector-curvature="0" />
	<path style="fill:none;stroke:red;stroke-width:1px;stroke-linecap:butt;stroke-linejoin:miter;stroke-opacity:1" d="M 286.851,482.827 276.749,464.644 z" id="boundary" inkscape:connector-curvature="0" />
	<path style="fill:none;stroke:red;stroke-width:1px;stroke-linecap:butt;stroke-linejoin:miter;stroke-opacity:1" d="M 286.851,482.827 286.851,503.031 z" id="boundary" inkscape:connector-curvature="0" />
	<path style="fill:none;stroke:red;stroke-width:1px;stroke-linecap:butt;stroke-linejoin:miter;stroke-opacity:1" d="M 242.403,690.925 252.505,670.721 z" id="boundary" inkscape:connector-curvature="0" />
	<path style="fill:none;stroke:red;stroke-width:1px;stroke-linecap:butt;stroke-linejoin:miter;stroke-opacity:1" d="M 266.648,646.477 252.505,670.721 z" id="boundary" inkscape:connector-curvature="0" />
	<path style="fill:none;stroke:red;stroke-width:1px;stroke-linecap:butt;stroke-linejoin:miter;stroke-opacity:1" d="M 276.749,616.171 266.648,646.477 z" id="boundary" inkscape:connector-curvature="0" />
	<path style="fill:none;stroke:red;stroke-width:1px;stroke-linecap:butt;stroke-linejoin:miter;stroke-opacity:1" d="M 286.851,503.031 296.953,521.214 z" id="boundary" inkscape:connector-curvature="0" />
	<path style="fill:none;stroke:red;stroke-width:1px;stroke-linecap:butt;stroke-linejoin:miter;stroke-opacity:1" d="M 296.953,521.214 296.953,541.418 z" id="boundary" inkscape:connector-curvature="0" />
	<path style="fill:none;stroke:red;stroke-width:1px;stroke-linecap:butt;stroke-linejoin:miter;stroke-opacity:1" d="M 296.953,561.621 296.953,541.418 z" id="boundary" inkscape:connector-curvature="0" />
	<path style="fill:none;stroke:red;stroke-width:1px;stroke-linecap:butt;stroke-linejoin:miter;stroke-opacity:1" d="M 286.851,595.967 296.953,561.621 z" id="boundary" inkscape:connector-curvature="0" />
	<path style="fill:none;stroke:red;stroke-width:1px;stroke-linecap:butt;stroke-linejoin:miter;stroke-opacity:1" d="M 379.788,703.047 399.992,703.047 z" id="boundary" inkscape:connector-curvature="0" />
	<path style="fill:none;stroke:red;stroke-width:1px;stroke-linecap:butt;stroke-linejoin:miter;stroke-opacity:1" d="M 365.646,719.21 379.788,703.047 z" id="boundary" inkscape:connector-curvature="0" />
	<path style="fill:none;stroke:red;stroke-width:1px;stroke-linecap:butt;stroke-linejoin:miter;stroke-opacity:1" d="M 276.749,616.171 286.851,595.967 z" id="boundary" inkscape:connector-curvature="0" />
	<path style="fill:none;stroke:red;stroke-width:1px;stroke-linecap:butt;stroke-linejoin:miter;stroke-opacity:1" d="M 418.175,713.149 399.992,703.047 z" id="boundary" inkscape:connector-curvature="0" />
	<path style="fill:none;stroke:red;stroke-width:1px;stroke-linecap:butt;stroke-linejoin:miter;stroke-opacity:1" d="M 294.933,810.126 278.77,824.269 z" id="boundary" inkscape:connector-curvature="0" />
	<path style="fill:none;stroke:red;stroke-width:1px;stroke-linecap:butt;stroke-linejoin:miter;stroke-opacity:1" d="M 278.77,824.269 264.627,840.432 z" id="boundary" inkscape:connector-curvature="0" />
	<path style="fill:none;stroke:red;stroke-width:1px;stroke-linecap:butt;stroke-linejoin:miter;stroke-opacity:1" d="M 294.933,810.126 309.075,783.862 z" id="boundary" inkscape:connector-curvature="0" />
	<path style="fill:none;stroke:red;stroke-width:1px;stroke-linecap:butt;stroke-linejoin:miter;stroke-opacity:1" d="M 309.075,783.862 325.238,769.719 z" id="boundary" inkscape:connector-curvature="0" />
	<path style="fill:none;stroke:red;stroke-width:1px;stroke-linecap:butt;stroke-linejoin:miter;stroke-opacity:1" d="M 254.525,860.635 238.363,874.778 z" id="boundary" inkscape:connector-curvature="0" />
	<path style="fill:none;stroke:red;stroke-width:1px;stroke-linecap:butt;stroke-linejoin:miter;stroke-opacity:1" d="M 264.627,840.432 254.525,860.635 z" id="boundary" inkscape:connector-curvature="0" />
	<path style="fill:none;stroke:red;stroke-width:1px;stroke-linecap:butt;stroke-linejoin:miter;stroke-opacity:1" d="M 418.175,713.149 430.297,729.312 z" id="boundary" inkscape:connector-curvature="0" />
	<path style="fill:none;stroke:red;stroke-width:1px;stroke-linecap:butt;stroke-linejoin:miter;stroke-opacity:1" d="M 430.297,729.312 440.399,747.495 z" id="boundary" inkscape:connector-curvature="0" />
	<path style="fill:none;stroke:red;stroke-width:1px;stroke-linecap:butt;stroke-linejoin:miter;stroke-opacity:1" d="M 325.238,769.719 339.381,753.556 z" id="boundary" inkscape:connector-curvature="0" />
	<path style="fill:none;stroke:red;stroke-width:1px;stroke-linecap:butt;stroke-linejoin:miter;stroke-opacity:1" d="M 339.381,753.556 349.483,733.352 z" id="boundary" inkscape:connector-curvature="0" />
	<path style="fill:none;stroke:red;stroke-width:1px;stroke-linecap:butt;stroke-linejoin:miter;stroke-opacity:1" d="M 349.483,733.352 365.646,719.21 z" id="boundary" inkscape:connector-curvature="0" />
	<path style="fill:none;stroke:red;stroke-width:1px;stroke-linecap:butt;stroke-linejoin:miter;stroke-opacity:1" d="M 440.399,747.495 454.542,763.658 z" id="boundary" inkscape:connector-curvature="0" />
	<path style="fill:none;stroke:red;stroke-width:1px;stroke-linecap:butt;stroke-linejoin:miter;stroke-opacity:1" d="M 470.705,94.9165 460.603,76.7332 z" id="boundary" inkscape:connector-curvature="0" />
	<path style="fill:none;stroke:red;stroke-width:1px;stroke-linecap:butt;stroke-linejoin:miter;stroke-opacity:1" d="M 460.603,76.7332 456.562,56.5295 z" id="boundary" inkscape:connector-curvature="0" />
	<path style="fill:none;stroke:red;stroke-width:1px;stroke-linecap:butt;stroke-linejoin:miter;stroke-opacity:1" d="M 470.705,94.9165 470.705,115.12 z" id="boundary" inkscape:connector-curvature="0" />
	<path style="fill:none;stroke:red;stroke-width:1px;stroke-linecap:butt;stroke-linejoin:miter;stroke-opacity:1" d="M 460.603,157.548 460.603,137.344 z" id="boundary" inkscape:connector-curvature="0" />
	<path style="fill:none;stroke:red;stroke-width:1px;stroke-linecap:butt;stroke-linejoin:miter;stroke-opacity:1" d="M 470.705,175.731 460.603,157.548 z" id="boundary" inkscape:connector-curvature="0" />
	<path style="fill:none;stroke:red;stroke-width:1px;stroke-linecap:butt;stroke-linejoin:miter;stroke-opacity:1" d="M 470.705,115.12 460.603,137.344 z" id="boundary" inkscape:connector-curvature="0" />
	<path style="fill:none;stroke:red;stroke-width:1px;stroke-linecap:butt;stroke-linejoin:miter;stroke-opacity:1" d="M 569.703,185.833 549.499,185.833 z" id="boundary" inkscape:connector-curvature="0" />
	<path style="fill:none;stroke:red;stroke-width:1px;stroke-linecap:butt;stroke-linejoin:miter;stroke-opacity:1" d="M 686.884,165.629 668.701,175.731 z" id="boundary" inkscape:connector-curvature="0" />
	<path style="fill:none;stroke:red;stroke-width:1px;stroke-linecap:butt;stroke-linejoin:miter;stroke-opacity:1" d="M 668.701,175.731 648.497,175.731 z" id="boundary" inkscape:connector-curvature="0" />
	<path style="fill:none;stroke:red;stroke-width:1px;stroke-linecap:butt;stroke-linejoin:miter;stroke-opacity:1" d="M 610.11,185.833 589.906,185.833 z" id="boundary" inkscape:connector-curvature="0" />
	<path style="fill:none;stroke:red;stroke-width:1px;stroke-linecap:butt;stroke-linejoin:miter;stroke-opacity:1" d="M 531.316,195.935 549.499,185.833 z" id="boundary" inkscape:connector-curvature="0" />
	<path style="fill:none;stroke:red;stroke-width:1px;stroke-linecap:butt;stroke-linejoin:miter;stroke-opacity:1" d="M 589.906,185.833 569.703,185.833 z" id="boundary" inkscape:connector-curvature="0" />
	<path style="fill:none;stroke:red;stroke-width:1px;stroke-linecap:butt;stroke-linejoin:miter;stroke-opacity:1" d="M 630.314,185.833 648.497,175.731 z" id="boundary" inkscape:connector-curvature="0" />
	<path style="fill:none;stroke:red;stroke-width:1px;stroke-linecap:butt;stroke-linejoin:miter;stroke-opacity:1" d="M 470.705,175.731 470.705,195.935 z" id="boundary" inkscape:connector-curvature="0" />
	<path style="fill:none;stroke:red;stroke-width:1px;stroke-linecap:butt;stroke-linejoin:miter;stroke-opacity:1" d="M 470.705,195.935 490.908,195.935 z" id="boundary" inkscape:connector-curvature="0" />
	<path style="fill:none;stroke:red;stroke-width:1px;stroke-linecap:butt;stroke-linejoin:miter;stroke-opacity:1" d="M 511.112,195.935 490.908,195.935 z" id="boundary" inkscape:connector-curvature="0" />
	<path style="fill:none;stroke:red;stroke-width:1px;stroke-linecap:butt;stroke-linejoin:miter;stroke-opacity:1" d="M 579.804,288.872 561.621,298.974 z" id="boundary" inkscape:connector-curvature="0" />
	<path style="fill:none;stroke:red;stroke-width:1px;stroke-linecap:butt;stroke-linejoin:miter;stroke-opacity:1" d="M 561.621,298.974 541.418,298.974 z" id="boundary" inkscape:connector-curvature="0" />
	<path style="fill:none;stroke:red;stroke-width:1px;stroke-linecap:butt;stroke-linejoin:miter;stroke-opacity:1" d="M 511.112,195.935 531.316,195.935 z" id="boundary" inkscape:connector-curvature="0" />
	<path style="fill:none;stroke:red;stroke-width:1px;stroke-linecap:butt;stroke-linejoin:miter;stroke-opacity:1" d="M 541.418,298.974 521.214,309.075 z" id="boundary" inkscape:connector-curvature="0" />
	<path style="fill:none;stroke:red;stroke-width:1px;stroke-linecap:butt;stroke-linejoin:miter;stroke-opacity:1" d="M 610.11,185.833 630.314,185.833 z" id="boundary" inkscape:connector-curvature="0" />
	<path style="fill:none;stroke:red;stroke-width:1px;stroke-linecap:butt;stroke-linejoin:miter;stroke-opacity:1" d="M 654.558,258.566 634.354,258.566 z" id="boundary" inkscape:connector-curvature="0" />
	<path style="fill:none;stroke:red;stroke-width:1px;stroke-linecap:butt;stroke-linejoin:miter;stroke-opacity:1" d="M 634.354,258.566 616.171,268.668 z" id="boundary" inkscape:connector-curvature="0" />
	<path style="fill:none;stroke:red;stroke-width:1px;stroke-linecap:butt;stroke-linejoin:miter;stroke-opacity:1" d="M 579.804,288.872 597.988,278.77 z" id="boundary" inkscape:connector-curvature="0" />
	<path style="fill:none;stroke:red;stroke-width:1px;stroke-linecap:butt;stroke-linejoin:miter;stroke-opacity:1" d="M 597.988,278.77 616.171,268.668 z" id="boundary" inkscape:connector-curvature="0" />
	<path style="fill:none;stroke:red;stroke-width:1px;stroke-linecap:butt;stroke-linejoin:miter;stroke-opacity:1" d="M 672.741,248.464 654.558,258.566 z" id="boundary" inkscape:connector-curvature="0" />
	<path style="fill:none;stroke:red;stroke-width:1px;stroke-linecap:butt;stroke-linejoin:miter;stroke-opacity:1" d="M 785.882,147.446 765.678,155.527 z" id="boundary" inkscape:connector-curvature="0" />
	<path style="fill:none;stroke:red;stroke-width:1px;stroke-linecap:butt;stroke-linejoin:miter;stroke-opacity:1" d="M 765.678,155.527 745.475,155.527 z" id="boundary" inkscape:connector-curvature="0" />
	<path style="fill:none;stroke:red;stroke-width:1px;stroke-linecap:butt;stroke-linejoin:miter;stroke-opacity:1" d="M 727.291,165.629 745.475,155.527 z" id="boundary" inkscape:connector-curvature="0" />
	<path style="fill:none;stroke:red;stroke-width:1px;stroke-linecap:butt;stroke-linejoin:miter;stroke-opacity:1" d="M 686.884,165.629 707.088,165.629 z" id="boundary" inkscape:connector-curvature="0" />
	<path style="fill:none;stroke:red;stroke-width:1px;stroke-linecap:butt;stroke-linejoin:miter;stroke-opacity:1" d="M 727.291,165.629 707.088,165.629 z" id="boundary" inkscape:connector-curvature="0" />
	<path style="fill:none;stroke:red;stroke-width:1px;stroke-linecap:butt;stroke-linejoin:miter;stroke-opacity:1" d="M 844.473,135.324 864.676,129.263 z" id="boundary" inkscape:connector-curvature="0" />
	<path style="fill:none;stroke:red;stroke-width:1px;stroke-linecap:butt;stroke-linejoin:miter;stroke-opacity:1" d="M 806.086,145.426 785.882,147.446 z" id="boundary" inkscape:connector-curvature="0" />
	<path style="fill:none;stroke:red;stroke-width:1px;stroke-linecap:butt;stroke-linejoin:miter;stroke-opacity:1" d="M 864.676,129.263 884.88,125.222 z" id="boundary" inkscape:connector-curvature="0" />
	<path style="fill:none;stroke:red;stroke-width:1px;stroke-linecap:butt;stroke-linejoin:miter;stroke-opacity:1" d="M 884.88,125.222 901.043,137.344 z" id="boundary" inkscape:connector-curvature="0" />
	<path style="fill:none;stroke:red;stroke-width:1px;stroke-linecap:butt;stroke-linejoin:miter;stroke-opacity:1" d="M 806.086,145.426 826.289,145.426 z" id="boundary" inkscape:connector-curvature="0" />
	<path style="fill:none;stroke:red;stroke-width:1px;stroke-linecap:butt;stroke-linejoin:miter;stroke-opacity:1" d="M 844.473,135.324 826.289,145.426 z" id="boundary" inkscape:connector-curvature="0" />
	<path style="fill:none;stroke:red;stroke-width:1px;stroke-linecap:butt;stroke-linejoin:miter;stroke-opacity:1" d="M 915.185,153.507 903.063,171.69 z" id="boundary" inkscape:connector-curvature="0" />
	<path style="fill:none;stroke:red;stroke-width:1px;stroke-linecap:butt;stroke-linejoin:miter;stroke-opacity:1" d="M 901.043,137.344 915.185,153.507 z" id="boundary" inkscape:connector-curvature="0" />
	<path style="fill:none;stroke:red;stroke-width:1px;stroke-linecap:butt;stroke-linejoin:miter;stroke-opacity:1" d="M 751.536,228.261 731.332,232.301 z" id="boundary" inkscape:connector-curvature="0" />
	<path style="fill:none;stroke:red;stroke-width:1px;stroke-linecap:butt;stroke-linejoin:miter;stroke-opacity:1" d="M 731.332,232.301 711.128,238.363 z" id="boundary" inkscape:connector-curvature="0" />
	<path style="fill:none;stroke:red;stroke-width:1px;stroke-linecap:butt;stroke-linejoin:miter;stroke-opacity:1" d="M 751.536,228.261 769.719,218.159 z" id="boundary" inkscape:connector-curvature="0" />
	<path style="fill:none;stroke:red;stroke-width:1px;stroke-linecap:butt;stroke-linejoin:miter;stroke-opacity:1" d="M 769.719,218.159 789.923,218.159 z" id="boundary" inkscape:connector-curvature="0" />
	<path style="fill:none;stroke:red;stroke-width:1px;stroke-linecap:butt;stroke-linejoin:miter;stroke-opacity:1" d="M 692.945,248.464 672.741,248.464 z" id="boundary" inkscape:connector-curvature="0" />
	<path style="fill:none;stroke:red;stroke-width:1px;stroke-linecap:butt;stroke-linejoin:miter;stroke-opacity:1" d="M 711.128,238.363 692.945,248.464 z" id="boundary" inkscape:connector-curvature="0" />
	<path style="fill:none;stroke:red;stroke-width:1px;stroke-linecap:butt;stroke-linejoin:miter;stroke-opacity:1" d="M 903.063,171.69 886.9,187.853 z" id="boundary" inkscape:connector-curvature="0" />
	<path style="fill:none;stroke:red;stroke-width:1px;stroke-linecap:butt;stroke-linejoin:miter;stroke-opacity:1" d="M 886.9,187.853 866.697,187.853 z" id="boundary" inkscape:connector-curvature="0" />
	<path style="fill:none;stroke:red;stroke-width:1px;stroke-linecap:butt;stroke-linejoin:miter;stroke-opacity:1" d="M 866.697,187.853 848.513,197.955 z" id="boundary" inkscape:connector-curvature="0" />
	<path style="fill:none;stroke:red;stroke-width:1px;stroke-linecap:butt;stroke-linejoin:miter;stroke-opacity:1" d="M 789.923,218.159 808.106,208.057 z" id="boundary" inkscape:connector-curvature="0" />
	<path style="fill:none;stroke:red;stroke-width:1px;stroke-linecap:butt;stroke-linejoin:miter;stroke-opacity:1" d="M 808.106,208.057 828.31,206.037 z" id="boundary" inkscape:connector-curvature="0" />
	<path style="fill:none;stroke:red;stroke-width:1px;stroke-linecap:butt;stroke-linejoin:miter;stroke-opacity:1" d="M 828.31,206.037 848.513,197.955 z" id="boundary" inkscape:connector-curvature="0" />
	<path style="fill:none;stroke:red;stroke-width:1px;stroke-linecap:butt;stroke-linejoin:miter;stroke-opacity:1" d="M 490.908,480.807 490.908,501.01 z" id="boundary" inkscape:connector-curvature="0" />
	<path style="fill:none;stroke:red;stroke-width:1px;stroke-linecap:butt;stroke-linejoin:miter;stroke-opacity:1" d="M 490.908,501.01 480.807,521.214 z" id="boundary" inkscape:connector-curvature="0" />
	<path style="fill:none;stroke:red;stroke-width:1px;stroke-linecap:butt;stroke-linejoin:miter;stroke-opacity:1" d="M 490.908,480.807 501.01,450.501 z" id="boundary" inkscape:connector-curvature="0" />
	<path style="fill:none;stroke:red;stroke-width:1px;stroke-linecap:butt;stroke-linejoin:miter;stroke-opacity:1" d="M 480.807,541.418 480.807,521.214 z" id="boundary" inkscape:connector-curvature="0" />
	<path style="fill:none;stroke:red;stroke-width:1px;stroke-linecap:butt;stroke-linejoin:miter;stroke-opacity:1" d="M 484.847,581.825 480.807,561.621 z" id="boundary" inkscape:connector-curvature="0" />
	<path style="fill:none;stroke:red;stroke-width:1px;stroke-linecap:butt;stroke-linejoin:miter;stroke-opacity:1" d="M 480.807,561.621 480.807,541.418 z" id="boundary" inkscape:connector-curvature="0" />
	<path style="fill:none;stroke:red;stroke-width:1px;stroke-linecap:butt;stroke-linejoin:miter;stroke-opacity:1" d="M 484.847,581.825 490.908,602.029 z" id="boundary" inkscape:connector-curvature="0" />
	<path style="fill:none;stroke:red;stroke-width:1px;stroke-linecap:butt;stroke-linejoin:miter;stroke-opacity:1" d="M 521.214,349.483 521.214,329.279 z" id="boundary" inkscape:connector-curvature="0" />
	<path style="fill:none;stroke:red;stroke-width:1px;stroke-linecap:butt;stroke-linejoin:miter;stroke-opacity:1" d="M 521.214,349.483 511.112,379.788 z" id="boundary" inkscape:connector-curvature="0" />
	<path style="fill:none;stroke:red;stroke-width:1px;stroke-linecap:butt;stroke-linejoin:miter;stroke-opacity:1" d="M 501.01,430.297 501.01,450.501 z" id="boundary" inkscape:connector-curvature="0" />
	<path style="fill:none;stroke:red;stroke-width:1px;stroke-linecap:butt;stroke-linejoin:miter;stroke-opacity:1" d="M 501.01,430.297 511.112,399.992 z" id="boundary" inkscape:connector-curvature="0" />
	<path style="fill:none;stroke:red;stroke-width:1px;stroke-linecap:butt;stroke-linejoin:miter;stroke-opacity:1" d="M 511.112,379.788 511.112,399.992 z" id="boundary" inkscape:connector-curvature="0" />
	<path style="fill:none;stroke:red;stroke-width:1px;stroke-linecap:butt;stroke-linejoin:miter;stroke-opacity:1" d="M 521.214,309.075 521.214,329.279 z" id="boundary" inkscape:connector-curvature="0" />
	<path style="fill:none;stroke:red;stroke-width:1px;stroke-linecap:butt;stroke-linejoin:miter;stroke-opacity:1" d="M 501.01,620.212 490.908,602.029 z" id="boundary" inkscape:connector-curvature="0" />
	<path style="fill:none;stroke:red;stroke-width:1px;stroke-linecap:butt;stroke-linejoin:miter;stroke-opacity:1" d="M 468.684,779.821 454.542,763.658 z" id="boundary" inkscape:connector-curvature="0" />
	<path style="fill:none;stroke:red;stroke-width:1px;stroke-linecap:butt;stroke-linejoin:miter;stroke-opacity:1" d="M 468.684,779.821 484.847,793.963 z" id="boundary" inkscape:connector-curvature="0" />
	<path style="fill:none;stroke:red;stroke-width:1px;stroke-linecap:butt;stroke-linejoin:miter;stroke-opacity:1" d="M 484.847,793.963 494.949,812.147 z" id="boundary" inkscape:connector-curvature="0" />
	<path style="fill:none;stroke:red;stroke-width:1px;stroke-linecap:butt;stroke-linejoin:miter;stroke-opacity:1" d="M 501.01,620.212 501.01,640.415 z" id="boundary" inkscape:connector-curvature="0" />
	<path style="fill:none;stroke:red;stroke-width:1px;stroke-linecap:butt;stroke-linejoin:miter;stroke-opacity:1" d="M 501.01,640.415 517.173,652.538 z" id="boundary" inkscape:connector-curvature="0" />
	<path style="fill:none;stroke:red;stroke-width:1px;stroke-linecap:butt;stroke-linejoin:miter;stroke-opacity:1" d="M 517.173,652.538 525.255,672.741 z" id="boundary" inkscape:connector-curvature="0" />
	<path style="fill:none;stroke:red;stroke-width:1px;stroke-linecap:butt;stroke-linejoin:miter;stroke-opacity:1" d="M 535.356,690.925 525.255,672.741 z" id="boundary" inkscape:connector-curvature="0" />
	<path style="fill:none;stroke:red;stroke-width:1px;stroke-linecap:butt;stroke-linejoin:miter;stroke-opacity:1" d="M 549.499,707.088 535.356,690.925 z" id="boundary" inkscape:connector-curvature="0" />
	<path style="fill:none;stroke:red;stroke-width:1px;stroke-linecap:butt;stroke-linejoin:miter;stroke-opacity:1" d="M 509.092,828.31 519.193,846.493 z" id="boundary" inkscape:connector-curvature="0" />
	<path style="fill:none;stroke:red;stroke-width:1px;stroke-linecap:butt;stroke-linejoin:miter;stroke-opacity:1" d="M 494.949,812.147 509.092,828.31 z" id="boundary" inkscape:connector-curvature="0" />
	<path style="fill:none;stroke:red;stroke-width:1px;stroke-linecap:butt;stroke-linejoin:miter;stroke-opacity:1" d="M 533.336,862.656 519.193,846.493 z" id="boundary" inkscape:connector-curvature="0" />
	<path style="fill:none;stroke:red;stroke-width:1px;stroke-linecap:butt;stroke-linejoin:miter;stroke-opacity:1" d="M 571.723,741.434 559.601,725.271 z" id="boundary" inkscape:connector-curvature="0" />
	<path style="fill:none;stroke:red;stroke-width:1px;stroke-linecap:butt;stroke-linejoin:miter;stroke-opacity:1" d="M 559.601,725.271 549.499,707.088 z" id="boundary" inkscape:connector-curvature="0" />
	<path style="fill:none;stroke:red;stroke-width:1px;stroke-linecap:butt;stroke-linejoin:miter;stroke-opacity:1" d="M 571.723,741.434 581.825,759.617 z" id="boundary" inkscape:connector-curvature="0" />
	<path style="fill:none;stroke:red;stroke-width:1px;stroke-linecap:butt;stroke-linejoin:miter;stroke-opacity:1" d="M 561.621,890.941 549.499,874.778 z" id="boundary" inkscape:connector-curvature="0" />
	<path style="fill:none;stroke:red;stroke-width:1px;stroke-linecap:butt;stroke-linejoin:miter;stroke-opacity:1" d="M 581.825,759.617 591.927,777.8 z" id="boundary" inkscape:connector-curvature="0" />
	<path style="fill:none;stroke:red;stroke-width:1px;stroke-linecap:butt;stroke-linejoin:miter;stroke-opacity:1" d="M 591.927,777.8 606.069,793.963 z" id="boundary" inkscape:connector-curvature="0" />
	<path style="fill:none;stroke:red;stroke-width:1px;stroke-linecap:butt;stroke-linejoin:miter;stroke-opacity:1" d="M 561.621,890.941 571.723,909.124 z" id="boundary" inkscape:connector-curvature="0" />
	<path style="fill:none;stroke:red;stroke-width:1px;stroke-linecap:butt;stroke-linejoin:miter;stroke-opacity:1" d="M 549.499,874.778 533.336,862.656 z" id="boundary" inkscape:connector-curvature="0" />
	<path style="fill:none;stroke:red;stroke-width:1px;stroke-linecap:butt;stroke-linejoin:miter;stroke-opacity:1" d="M 616.171,812.147 606.069,793.963 z" id="boundary" inkscape:connector-curvature="0" />
	<path style="fill:none;stroke:red;stroke-width:1px;stroke-linecap:butt;stroke-linejoin:miter;stroke-opacity:1" d="M 630.314,828.31 616.171,812.147 z" id="boundary" inkscape:connector-curvature="0" />
	<path style="fill:none;stroke:red;stroke-width:1px;stroke-linecap:butt;stroke-linejoin:miter;stroke-opacity:1" d="M 630.314,828.31 640.415,846.493 z" id="boundary" inkscape:connector-curvature="0" />
	<path style="fill:none;stroke:red;stroke-width:1px;stroke-linecap:butt;stroke-linejoin:miter;stroke-opacity:1" d="M 652.538,862.656 640.415,846.493 z" id="boundary" inkscape:connector-curvature="0" />
	<path style="fill:none;stroke:red;stroke-width:1px;stroke-linecap:butt;stroke-linejoin:miter;stroke-opacity:1" d="M 652.538,862.656 662.64,880.839 z" id="boundary" inkscape:connector-curvature="0" />
	<path style="fill:none;stroke:red;stroke-width:1px;stroke-linecap:butt;stroke-linejoin:miter;stroke-opacity:1" d="M 602.029,939.43 585.866,925.287 z" id="boundary" inkscape:connector-curvature="0" />
	<path style="fill:none;stroke:red;stroke-width:1px;stroke-linecap:butt;stroke-linejoin:miter;stroke-opacity:1" d="M 585.866,925.287 571.723,909.124 z" id="boundary" inkscape:connector-curvature="0" />
	<path style="fill:none;stroke:red;stroke-width:1px;stroke-linecap:butt;stroke-linejoin:miter;stroke-opacity:1" d="M 602.029,939.43 616.171,955.593 z" id="boundary" inkscape:connector-curvature="0" />
	<path style="fill:none;stroke:red;stroke-width:1px;stroke-linecap:butt;stroke-linejoin:miter;stroke-opacity:1" d="M 616.171,955.593 632.334,969.735 z" id="boundary" inkscape:connector-curvature="0" />
	<path style="fill:none;stroke:red;stroke-width:1px;stroke-linecap:butt;stroke-linejoin:miter;stroke-opacity:1" d="M 632.334,969.735 646.477,985.898 z" id="boundary" inkscape:connector-curvature="0" />
	<path style="fill:none;stroke:red;stroke-width:1px;stroke-linecap:butt;stroke-linejoin:miter;stroke-opacity:1" d="M 682.843,917.206 692.945,935.389 z" id="boundary" inkscape:connector-curvature="0" />
	<path style="fill:none;stroke:red;stroke-width:1px;stroke-linecap:butt;stroke-linejoin:miter;stroke-opacity:1" d="M 672.741,899.022 662.64,880.839 z" id="boundary" inkscape:connector-curvature="0" />
	<path style="fill:none;stroke:red;stroke-width:1px;stroke-linecap:butt;stroke-linejoin:miter;stroke-opacity:1" d="M 682.843,917.206 672.741,899.022 z" id="boundary" inkscape:connector-curvature="0" />
	<path style="fill:none;stroke:red;stroke-width:1px;stroke-linecap:butt;stroke-linejoin:miter;stroke-opacity:1" d="M 692.945,935.389 696.986,955.593 z" id="boundary" inkscape:connector-curvature="0" />
	<path style="fill:none;stroke:red;stroke-width:1px;stroke-linecap:butt;stroke-linejoin:miter;stroke-opacity:1" d="M 666.68,993.98 686.884,996 z" id="boundary" inkscape:connector-curvature="0" />
	<path style="fill:none;stroke:red;stroke-width:1px;stroke-linecap:butt;stroke-linejoin:miter;stroke-opacity:1" d="M 703.047,975.796 686.884,996 z" id="boundary" inkscape:connector-curvature="0" />
	<path style="fill:none;stroke:red;stroke-width:1px;stroke-linecap:butt;stroke-linejoin:miter;stroke-opacity:1" d="M 696.986,955.593 703.047,975.796 z" id="boundary" inkscape:connector-curvature="0" />
	<path style="fill:none;stroke:red;stroke-width:1px;stroke-linecap:butt;stroke-linejoin:miter;stroke-opacity:1" d="M 666.68,993.98 646.477,985.898 z" id="boundary" inkscape:connector-curvature="0" />
	<circle cx="4" cy="434.338" r="4" fill="#0" id="circle0"/>
	<circle cx="4" cy="454.542" r="4" fill="#0" id="circle1"/>
	<circle cx="14.1018" cy="414.134" r="4" fill="#0" id="circle2"/>
	<circle cx="14.1018" cy="472.725" r="4" fill="#0" id="circle3"/>
	<circle cx="30.2648" cy="397.971" r="4" fill="#0" id="circle4"/>
	<circle cx="34.3055" cy="474.745" r="4" fill="#0" id="circle5"/>
	<circle cx="40.3666" cy="377.768" r="4" fill="#0" id="circle6"/>
	<circle cx="50.4684" cy="458.582" r="4" fill="#0" id="circle7"/>
	<circle cx="56.5295" cy="361.605" r="4" fill="#0" id="circle8"/>
	<circle cx="66.6314" cy="341.401" r="4" fill="#0" id="circle9"/>
	<circle cx="66.6314" cy="440.399" r="4" fill="#0" id="circle10"/>
	<circle cx="82.7943" cy="327.259" r="4" fill="#0" id="circle11"/>
	<circle cx="84.8147" cy="430.297" r="4" fill="#0" id="circle12"/>
	<circle cx="84.8147" cy="959.633" r="4" fill="#0" id="circle13"/>
	<circle cx="90.8758" cy="307.055" r="4" fill="#0" id="circle14"/>
	<circle cx="94.9165" cy="929.328" r="4" fill="#0" id="circle15"/>
	<circle cx="94.9165" cy="977.817" r="4" fill="#0" id="circle16"/>
	<circle cx="100.978" cy="418.175" r="4" fill="#0" id="circle17"/>
	<circle cx="105.018" cy="909.124" r="4" fill="#0" id="circle18"/>
	<circle cx="105.018" cy="996" r="4" fill="#0" id="circle19"/>
	<circle cx="107.039" cy="290.892" r="4" fill="#0" id="circle20"/>
	<circle cx="115.12" cy="888.921" r="4" fill="#0" id="circle21"/>
	<circle cx="117.141" cy="270.688" r="4" fill="#0" id="circle22"/>
	<circle cx="117.141" cy="399.992" r="4" fill="#0" id="circle23"/>
	<circle cx="125.222" cy="989.939" r="4" fill="#0" id="circle24"/>
	<circle cx="127.242" cy="250.485" r="4" fill="#0" id="circle25"/>
	<circle cx="131.283" cy="872.758" r="4" fill="#0" id="circle26"/>
	<circle cx="133.303" cy="385.849" r="4" fill="#0" id="circle27"/>
	<circle cx="141.385" cy="852.554" r="4" fill="#0" id="circle28"/>
	<circle cx="143.405" cy="236.342" r="4" fill="#0" id="circle29"/>
	<circle cx="145.426" cy="979.837" r="4" fill="#0" id="circle30"/>
	<circle cx="147.446" cy="369.686" r="4" fill="#0" id="circle31"/>
	<circle cx="151.487" cy="832.35" r="4" fill="#0" id="circle32"/>
	<circle cx="157.548" cy="349.483" r="4" fill="#0" id="circle33"/>
	<circle cx="161.589" cy="226.24" r="4" fill="#0" id="circle34"/>
	<circle cx="161.589" cy="812.147" r="4" fill="#0" id="circle35"/>
	<circle cx="161.589" cy="963.674" r="4" fill="#0" id="circle36"/>
	<circle cx="175.731" cy="339.381" r="4" fill="#0" id="circle37"/>
	<circle cx="175.731" cy="787.902" r="4" fill="#0" id="circle38"/>
	<circle cx="177.752" cy="210.077" r="4" fill="#0" id="circle39"/>
	<circle cx="177.752" cy="945.491" r="4" fill="#0" id="circle40"/>
	<circle cx="191.894" cy="327.259" r="4" fill="#0" id="circle41"/>
	<circle cx="191.894" cy="771.739" r="4" fill="#0" id="circle42"/>
	<circle cx="193.914" cy="195.935" r="4" fill="#0" id="circle43"/>
	<circle cx="193.914" cy="931.348" r="4" fill="#0" id="circle44"/>
	<circle cx="201.996" cy="751.536" r="4" fill="#0" id="circle45"/>
	<circle cx="208.057" cy="905.084" r="4" fill="#0" id="circle46"/>
	<circle cx="212.098" cy="319.177" r="4" fill="#0" id="circle47"/>
	<circle cx="214.118" cy="195.935" r="4" fill="#0" id="circle48"/>
	<circle cx="216.138" cy="727.291" r="4" fill="#0" id="circle49"/>
	<circle cx="224.22" cy="890.941" r="4" fill="#0" id="circle50"/>
	<circle cx="232.301" cy="185.833" r="4" fill="#0" id="circle51"/>
	<circle cx="232.301" cy="327.259" r="4" fill="#0" id="circle52"/>
	<circle cx="232.301" cy="711.128" r="4" fill="#0" id="circle53"/>
	<circle cx="238.363" cy="874.778" r="4" fill="#0" id="circle54"/>
	<circle cx="240.383" cy="347.462" r="4" fill="#0" id="circle55"/>
	<circle cx="242.403" cy="690.925" r="4" fill="#0" id="circle56"/>
	<circle cx="246.444" cy="367.666" r="4" fill="#0" id="circle57"/>
	<circle cx="252.505" cy="185.833" r="4" fill="#0" id="circle58"/>
	<circle cx="252.505" cy="670.721" r="4" fill="#0" id="circle59"/>
	<circle cx="254.525" cy="860.635" r="4" fill="#0" id="circle60"/>
	<circle cx="256.546" cy="385.849" r="4" fill="#0" id="circle61"/>
	<circle cx="258.566" cy="406.053" r="4" fill="#0" id="circle62"/>
	<circle cx="264.627" cy="840.432" r="4" fill="#0" id="circle63"/>
	<circle cx="266.648" cy="426.257" r="4" fill="#0" id="circle64"/>
	<circle cx="266.648" cy="646.477" r="4" fill="#0" id="circle65"/>
	<circle cx="272.709" cy="185.833" r="4" fill="#0" id="circle66"/>
	<circle cx="276.749" cy="444.44" r="4" fill="#0" id="circle67"/>
	<circle cx="276.749" cy="464.644" r="4" fill="#0" id="circle68"/>
	<circle cx="276.749" cy="616.171" r="4" fill="#0" id="circle69"/>
	<circle cx="278.77" cy="824.269" r="4" fill="#0" id="circle70"/>
	<circle cx="286.851" cy="482.827" r="4" fill="#0" id="circle71"/>
	<circle cx="286.851" cy="503.031" r="4" fill="#0" id="circle72"/>
	<circle cx="286.851" cy="595.967" r="4" fill="#0" id="circle73"/>
	<circle cx="292.912" cy="175.731" r="4" fill="#0" id="circle74"/>
	<circle cx="294.933" cy="810.126" r="4" fill="#0" id="circle75"/>
	<circle cx="296.953" cy="90.8758" r="4" fill="#0" id="circle76"/>
	<circle cx="296.953" cy="111.079" r="4" fill="#0" id="circle77"/>
	<circle cx="296.953" cy="521.214" r="4" fill="#0" id="circle78"/>
	<circle cx="296.953" cy="541.418" r="4" fill="#0" id="circle79"/>
	<circle cx="296.953" cy="561.621" r="4" fill="#0" id="circle80"/>
	<circle cx="307.055" cy="60.5703" r="4" fill="#0" id="circle81"/>
	<circle cx="307.055" cy="129.263" r="4" fill="#0" id="circle82"/>
	<circle cx="307.055" cy="149.466" r="4" fill="#0" id="circle83"/>
	<circle cx="309.075" cy="783.862" r="4" fill="#0" id="circle84"/>
	<circle cx="323.218" cy="44.4073" r="4" fill="#0" id="circle85"/>
	<circle cx="325.238" cy="769.719" r="4" fill="#0" id="circle86"/>
	<circle cx="339.381" cy="28.2444" r="4" fill="#0" id="circle87"/>
	<circle cx="339.381" cy="753.556" r="4" fill="#0" id="circle88"/>
	<circle cx="349.483" cy="733.352" r="4" fill="#0" id="circle89"/>
	<circle cx="355.544" cy="14.1018" r="4" fill="#0" id="circle90"/>
	<circle cx="365.646" cy="719.21" r="4" fill="#0" id="circle91"/>
	<circle cx="373.727" cy="4" r="4" fill="#0" id="circle92"/>
	<circle cx="379.788" cy="703.047" r="4" fill="#0" id="circle93"/>
	<circle cx="393.931" cy="4" r="4" fill="#0" id="circle94"/>
	<circle cx="399.992" cy="703.047" r="4" fill="#0" id="circle95"/>
	<circle cx="412.114" cy="14.1018" r="4" fill="#0" id="circle96"/>
	<circle cx="418.175" cy="713.149" r="4" fill="#0" id="circle97"/>
	<circle cx="430.297" cy="24.2037" r="4" fill="#0" id="circle98"/>
	<circle cx="430.297" cy="729.312" r="4" fill="#0" id="circle99"/>
	<circle cx="440.399" cy="42.387" r="4" fill="#0" id="circle100"/>
	<circle cx="440.399" cy="747.495" r="4" fill="#0" id="circle101"/>
	<circle cx="454.542" cy="763.658" r="4" fill="#0" id="circle102"/>
	<circle cx="456.562" cy="56.5295" r="4" fill="#0" id="circle103"/>
	<circle cx="460.603" cy="76.7332" r="4" fill="#0" id="circle104"/>
	<circle cx="460.603" cy="137.344" r="4" fill="#0" id="circle105"/>
	<circle cx="460.603" cy="157.548" r="4" fill="#0" id="circle106"/>
	<circle cx="468.684" cy="779.821" r="4" fill="#0" id="circle107"/>
	<circle cx="470.705" cy="94.9165" r="4" fill="#0" id="circle108"/>
	<circle cx="470.705" cy="115.12" r="4" fill="#0" id="circle109"/>
	<circle cx="470.705" cy="175.731" r="4" fill="#0" id="circle110"/>
	<circle cx="470.705" cy="195.935" r="4" fill="#0" id="circle111"/>
	<circle cx="480.807" cy="521.214" r="4" fill="#0" id="circle112"/>
	<circle cx="480.807" cy="541.418" r="4" fill="#0" id="circle113"/>
	<circle cx="480.807" cy="561.621" r="4" fill="#0" id="circle114"/>
	<circle cx="484.847" cy="581.825" r="4" fill="#0" id="circle115"/>
	<circle cx="484.847" cy="793.963" r="4" fill="#0" id="circle116"/>
	<circle cx="490.908" cy="195.935" r="4" fill="#0" id="circle117"/>
	<circle cx="490.908" cy="480.807" r="4" fill="#0" id="circle118"/>
	<circle cx="490.908" cy="501.01" r="4" fill="#0" id="circle119"/>
	<circle cx="490.908" cy="602.029" r="4" fill="#0" id="circle120"/>
	<circle cx="494.949" cy="812.147" r="4" fill="#0" id="circle121"/>
	<circle cx="501.01" cy="430.297" r="4" fill="#0" id="circle122"/>
	<circle cx="501.01" cy="450.501" r="4" fill="#0" id="circle123"/>
	<circle cx="501.01" cy="620.212" r="4" fill="#0" id="circle124"/>
	<circle cx="501.01" cy="640.415" r="4" fill="#0" id="circle125"/>
	<circle cx="509.092" cy="828.31" r="4" fill="#0" id="circle126"/>
	<circle cx="511.112" cy="195.935" r="4" fill="#0" id="circle127"/>
	<circle cx="511.112" cy="379.788" r="4" fill="#0" id="circle128"/>
	<circle cx="511.112" cy="399.992" r="4" fill="#0" id="circle129"/>
	<circle cx="517.173" cy="652.538" r="4" fill="#0" id="circle130"/>
	<circle cx="519.193" cy="846.493" r="4" fill="#0" id="circle131"/>
	<circle cx="521.214" cy="309.075" r="4" fill="#0" id="circle132"/>
	<circle cx="521.214" cy="329.279" r="4" fill="#0" id="circle133"/>
	<circle cx="521.214" cy="349.483" r="4" fill="#0" id="circle134"/>
	<circle cx="525.255" cy="672.741" r="4" fill="#0" id="circle135"/>
	<circle cx="531.316" cy="195.935" r="4" fill="#0" id="circle136"/>
	<circle cx="533.336" cy="862.656" r="4" fill="#0" id="circle137"/>
	<circle cx="535.356" cy="690.925" r="4" fill="#0" id="circle138"/>
	<circle cx="541.418" cy="298.974" r="4" fill="#0" id="circle139"/>
	<circle cx="549.499" cy="185.833" r="4" fill="#0" id="circle140"/>
	<circle cx="549.499" cy="707.088" r="4" fill="#0" id="circle141"/>
	<circle cx="549.499" cy="874.778" r="4" fill="#0" id="circle142"/>
	<circle cx="559.601" cy="725.271" r="4" fill="#0" id="circle143"/>
	<circle cx="561.621" cy="298.974" r="4" fill="#0" id="circle144"/>
	<circle cx="561.621" cy="890.941" r="4" fill="#0" id="circle145"/>
	<circle cx="569.703" cy="185.833" r="4" fill="#0" id="circle146"/>
	<circle cx="571.723" cy="741.434" r="4" fill="#0" id="circle147"/>
	<circle cx="571.723" cy="909.124" r="4" fill="#0" id="circle148"/>
	<circle cx="579.804" cy="288.872" r="4" fill="#0" id="circle149"/>
	<circle cx="581.825" cy="759.617" r="4" fill="#0" id="circle150"/>
	<circle cx="585.866" cy="925.287" r="4" fill="#0" id="circle151"/>
	<circle cx="589.906" cy="185.833" r="4" fill="#0" id="circle152"/>
	<circle cx="591.927" cy="777.8" r="4" fill="#0" id="circle153"/>
	<circle cx="597.988" cy="278.77" r="4" fill="#0" id="circle154"/>
	<circle cx="602.029" cy="939.43" r="4" fill="#0" id="circle155"/>
	<circle cx="606.069" cy="793.963" r="4" fill="#0" id="circle156"/>
	<circle cx="610.11" cy="185.833" r="4" fill="#0" id="circle157"/>
	<circle cx="616.171" cy="268.668" r="4" fill="#0" id="circle158"/>
	<circle cx="616.171" cy="812.147" r="4" fill="#0" id="circle159"/>
	<circle cx="616.171" cy="955.593" r="4" fill="#0" id="circle160"/>
	<circle cx="630.314" cy="185.833" r="4" fill="#0" id="circle161"/>
	<circle cx="630.314" cy="828.31" r="4" fill="#0" id="circle162"/>
	<circle cx="632.334" cy="969.735" r="4" fill="#0" id="circle163"/>
	<circle cx="634.354" cy="258.566" r="4" fill="#0" id="circle164"/>
	<circle cx="640.415" cy="846.493" r="4" fill="#0" id="circle165"/>
	<circle cx="646.477" cy="985.898" r="4" fill="#0" id="circle166"/>
	<circle cx="648.497" cy="175.731" r="4" fill="#0" id="circle167"/>
	<circle cx="652.538" cy="862.656" r="4" fill="#0" id="circle168"/>
	<circle cx="654.558" cy="258.566" r="4" fill="#0" id="circle169"/>
	<circle cx="662.64" cy="880.839" r="4" fill="#0" id="circle170"/>
	<circle cx="666.68" cy="993.98" r="4" fill="#0" id="circle171"/>
	<circle cx="668.701" cy="175.731" r="4" fill="#0" id="circle172"/>
	<circle cx="672.741" cy="248.464" r="4" fill="#0" id="circle173"/>
	<circle cx="672.741" cy="899.022" r="4" fill="#0" id="circle174"/>
	<circle cx="682.843" cy="917.206" r="4" fill="#0" id="circle175"/>
	<circle cx="686.884" cy="165.629" r="4" fill="#0" id="circle176"/>
	<circle cx="686.884" cy="996" r="4" fill="#0" id="circle177"/>
	<circle cx="692.945" cy="248.464" r="4" fill="#0" id="circle178"/>
	<circle cx="692.945" cy="935.389" r="4" fill="#0" id="circle179"/>
	<circle cx="696.986" cy="955.593" r="4" fill="#0" id="circle180"/>
	<circle cx="703.047" cy="975.796" r="4" fill="#0" id="circle181"/>
	<circle cx="707.088" cy="165.629" r="4" fill="#0" id="circle182"/>
	<circle cx="711.128" cy="238.363" r="4" fill="#0" id="circle183"/>
	<circle cx="727.291" cy="165.629" r="4" fill="#0" id="circle184"/>
	<circle cx="731.332" cy="232.301" r="4" fill="#0" id="circle185"/>
	<circle cx="745.475" cy="155.527" r="4" fill="#0" id="circle186"/>
	<circle cx="751.536" cy="228.261" r="4" fill="#0" id="circle187"/>
	<circle cx="765.678" cy="155.527" r="4" fill="#0" id="circle188"/>
	<circle cx="769.719" cy="218.159" r="4" fill="#0" id="circle189"/>
	<circle cx="785.882" cy="147.446" r="4" fill="#0" id="circle190"/>
	<circle cx="789.923" cy="218.159" r="4" fill="#0" id="circle191"/>
	<circle cx="806.086" cy="145.426" r="4" fill="#0" id="circle192"/>
	<circle cx="808.106" cy="208.057" r="4" fill="#0" id="circle193"/>
	<circle cx="826.289" cy="145.426" r="4" fill="#0" id="circle194"/>
	<circle cx="828.31" cy="206.037" r="4" fill="#0" id="circle195"/>
	<circle cx="844.473" cy="135.324" r="4" fill="#0" id="circle196"/>
	<circle cx="848.513" cy="197.955" r="4" fill="#0" id="circle197"/>
	<circle cx="864.676" cy="129.263" r="4" fill="#0" id="circle198"/>
	<circle cx="866.697" cy="187.853" r="4" fill="#0" id="circle199"/>
	<circle cx="884.88" cy="125.222" r="4" fill="#0" id="circle200"/>
	<circle cx="886.9" cy="187.853" r="4" fill="#0" id="circle201"/>
	<circle cx="901.043" cy="137.344" r="4" fill="#0" id="circle202"/>
	<circle cx="903.063" cy="171.69" r="4" fill="#0" id="circle203"/>
	<circle cx="915.185" cy="153.507" r="4" fill="#0" id="circle204"/>
	</g>
</svg>