<?xml version="1.0" encoding="UTF-8" standalone="no"?>
<!-- Created with CurveBenchmark -->
<svg
	xmlns:dc="http://purl.org/dc/elements/1.1/"
	xmlns:cc="http://creativecommons.org/ns#"
	xmlns:rdf="http://www.w3.org/1999/02/22-rdf-syntax-ns#"
	xmlns:svg="http://www.w3.org/2000/svg"
	xmlns="http://www.w3.org/2000/svg"
	xmlns:sodipodi="http://sodipodi.sourceforge.net/DTD/sodipodi-0.dtd"
	xmlns:inkscape="http://www.inkscape.org/namespaces/inkscape"
	width="1000"
	height="1000"
	id="svg2"
	version="1.1"
	sodipodi:docname="manifold/ccrust-ray0743.png.txt">
<defs
	id="defs4" />
<metadata
	id="metadata7">
	<rdf:RDF>
		<cc:Work
			rdf:about="">
			<dc:format>image/svg+xml</dc:format>
			<dc:type
				rdf:resource="http://purl.org/dc/dcmitype/StillImage" />
			<dc:title></dc:title>
		</cc:Work>
	</rdf:RDF>
</metadata>
<g
	inkscape:label="Layer 1"
	inkscape:groupmode="layer"
	id="layer1">
	<path style="fill:none;stroke:red;stroke-width:1px;stroke-linecap:butt;stroke-linejoin:miter;stroke-opacity:1" d="M 4,257.767 4,244.951 z" id="boundary" inkscape:connector-curvature="0" />
	<path style="fill:none;stroke:red;stroke-width:1px;stroke-linecap:butt;stroke-linejoin:miter;stroke-opacity:1" d="M 4,244.951 10.4083,225.726 z" id="boundary" inkscape:connector-curvature="0" />
	<path style="fill:none;stroke:red;stroke-width:1px;stroke-linecap:butt;stroke-linejoin:miter;stroke-opacity:1" d="M 4,270.584 4,257.767 z" id="boundary" inkscape:connector-curvature="0" />
	<path style="fill:none;stroke:red;stroke-width:1px;stroke-linecap:butt;stroke-linejoin:miter;stroke-opacity:1" d="M 10.4083,294.935 4,283.401 z" id="boundary" inkscape:connector-curvature="0" />
	<path style="fill:none;stroke:red;stroke-width:1px;stroke-linecap:butt;stroke-linejoin:miter;stroke-opacity:1" d="M 4,283.401 4,270.584 z" id="boundary" inkscape:connector-curvature="0" />
	<path style="fill:none;stroke:red;stroke-width:1px;stroke-linecap:butt;stroke-linejoin:miter;stroke-opacity:1" d="M 16.8165,212.91 29.6331,206.501 z" id="boundary" inkscape:connector-curvature="0" />
	<path style="fill:none;stroke:red;stroke-width:1px;stroke-linecap:butt;stroke-linejoin:miter;stroke-opacity:1" d="M 10.4083,225.726 16.8165,212.91 z" id="boundary" inkscape:connector-curvature="0" />
	<path style="fill:none;stroke:red;stroke-width:1px;stroke-linecap:butt;stroke-linejoin:miter;stroke-opacity:1" d="M 61.6744,174.46 68.0827,161.643 z" id="boundary" inkscape:connector-curvature="0" />
	<path style="fill:none;stroke:red;stroke-width:1px;stroke-linecap:butt;stroke-linejoin:miter;stroke-opacity:1" d="M 68.0827,161.643 80.8992,157.798 z" id="boundary" inkscape:connector-curvature="0" />
	<path style="fill:none;stroke:red;stroke-width:1px;stroke-linecap:butt;stroke-linejoin:miter;stroke-opacity:1" d="M 61.6744,174.46 48.8579,180.868 z" id="boundary" inkscape:connector-curvature="0" />
	<path style="fill:none;stroke:red;stroke-width:1px;stroke-linecap:butt;stroke-linejoin:miter;stroke-opacity:1" d="M 29.6331,206.501 36.0413,187.276 z" id="boundary" inkscape:connector-curvature="0" />
	<path style="fill:none;stroke:red;stroke-width:1px;stroke-linecap:butt;stroke-linejoin:miter;stroke-opacity:1" d="M 36.0413,187.276 48.8579,180.868 z" id="boundary" inkscape:connector-curvature="0" />
	<path style="fill:none;stroke:red;stroke-width:1px;stroke-linecap:butt;stroke-linejoin:miter;stroke-opacity:1" d="M 16.8165,319.287 10.4083,307.752 z" id="boundary" inkscape:connector-curvature="0" />
	<path style="fill:none;stroke:red;stroke-width:1px;stroke-linecap:butt;stroke-linejoin:miter;stroke-opacity:1" d="M 10.4083,307.752 10.4083,294.935 z" id="boundary" inkscape:connector-curvature="0" />
	<path style="fill:none;stroke:red;stroke-width:1px;stroke-linecap:butt;stroke-linejoin:miter;stroke-opacity:1" d="M 16.8165,319.287 20.6615,332.103 z" id="boundary" inkscape:connector-curvature="0" />
	<path style="fill:none;stroke:red;stroke-width:1px;stroke-linecap:butt;stroke-linejoin:miter;stroke-opacity:1" d="M 20.6615,332.103 30.9147,341.075 z" id="boundary" inkscape:connector-curvature="0" />
	<path style="fill:none;stroke:red;stroke-width:1px;stroke-linecap:butt;stroke-linejoin:miter;stroke-opacity:1" d="M 30.9147,341.075 36.0413,353.891 z" id="boundary" inkscape:connector-curvature="0" />
	<path style="fill:none;stroke:red;stroke-width:1px;stroke-linecap:butt;stroke-linejoin:miter;stroke-opacity:1" d="M 36.0413,353.891 42.4496,365.426 z" id="boundary" inkscape:connector-curvature="0" />
	<path style="fill:none;stroke:red;stroke-width:1px;stroke-linecap:butt;stroke-linejoin:miter;stroke-opacity:1" d="M 42.4496,365.426 51.4212,375.68 z" id="boundary" inkscape:connector-curvature="0" />
	<path style="fill:none;stroke:red;stroke-width:1px;stroke-linecap:butt;stroke-linejoin:miter;stroke-opacity:1" d="M 51.4212,375.68 57.8295,387.214 z" id="boundary" inkscape:connector-curvature="0" />
	<path style="fill:none;stroke:red;stroke-width:1px;stroke-linecap:butt;stroke-linejoin:miter;stroke-opacity:1" d="M 68.0827,396.186 57.8295,387.214 z" id="boundary" inkscape:connector-curvature="0" />
	<path style="fill:none;stroke:red;stroke-width:1px;stroke-linecap:butt;stroke-linejoin:miter;stroke-opacity:1" d="M 82.1809,417.974 71.9276,409.003 z" id="boundary" inkscape:connector-curvature="0" />
	<path style="fill:none;stroke:red;stroke-width:1px;stroke-linecap:butt;stroke-linejoin:miter;stroke-opacity:1" d="M 71.9276,409.003 68.0827,396.186 z" id="boundary" inkscape:connector-curvature="0" />
	<path style="fill:none;stroke:red;stroke-width:1px;stroke-linecap:butt;stroke-linejoin:miter;stroke-opacity:1" d="M 91.1525,428.227 82.1809,417.974 z" id="boundary" inkscape:connector-curvature="0" />
	<path style="fill:none;stroke:red;stroke-width:1px;stroke-linecap:butt;stroke-linejoin:miter;stroke-opacity:1" d="M 80.8992,157.798 92.4341,151.39 z" id="boundary" inkscape:connector-curvature="0" />
	<path style="fill:none;stroke:red;stroke-width:1px;stroke-linecap:butt;stroke-linejoin:miter;stroke-opacity:1" d="M 242.388,55.2661 250.078,43.7313 z" id="boundary" inkscape:connector-curvature="0" />
	<path style="fill:none;stroke:red;stroke-width:1px;stroke-linecap:butt;stroke-linejoin:miter;stroke-opacity:1" d="M 250.078,43.7313 260.331,36.0413 z" id="boundary" inkscape:connector-curvature="0" />
	<path style="fill:none;stroke:red;stroke-width:1px;stroke-linecap:butt;stroke-linejoin:miter;stroke-opacity:1" d="M 271.866,29.6331 260.331,36.0413 z" id="boundary" inkscape:connector-curvature="0" />
	<path style="fill:none;stroke:red;stroke-width:1px;stroke-linecap:butt;stroke-linejoin:miter;stroke-opacity:1" d="M 219.318,68.0827 229.571,57.8295 z" id="boundary" inkscape:connector-curvature="0" />
	<path style="fill:none;stroke:red;stroke-width:1px;stroke-linecap:butt;stroke-linejoin:miter;stroke-opacity:1" d="M 229.571,57.8295 242.388,55.2661 z" id="boundary" inkscape:connector-curvature="0" />
	<path style="fill:none;stroke:red;stroke-width:1px;stroke-linecap:butt;stroke-linejoin:miter;stroke-opacity:1" d="M 219.318,68.0827 206.501,74.491 z" id="boundary" inkscape:connector-curvature="0" />
	<path style="fill:none;stroke:red;stroke-width:1px;stroke-linecap:butt;stroke-linejoin:miter;stroke-opacity:1" d="M 303.907,4 316.724,4 z" id="boundary" inkscape:connector-curvature="0" />
	<path style="fill:none;stroke:red;stroke-width:1px;stroke-linecap:butt;stroke-linejoin:miter;stroke-opacity:1" d="M 293.654,12.9716 303.907,4 z" id="boundary" inkscape:connector-curvature="0" />
	<path style="fill:none;stroke:red;stroke-width:1px;stroke-linecap:butt;stroke-linejoin:miter;stroke-opacity:1" d="M 316.724,4 329.54,4 z" id="boundary" inkscape:connector-curvature="0" />
	<path style="fill:none;stroke:red;stroke-width:1px;stroke-linecap:butt;stroke-linejoin:miter;stroke-opacity:1" d="M 329.54,4 341.075,10.4083 z" id="boundary" inkscape:connector-curvature="0" />
	<path style="fill:none;stroke:red;stroke-width:1px;stroke-linecap:butt;stroke-linejoin:miter;stroke-opacity:1" d="M 283.401,23.2248 293.654,12.9716 z" id="boundary" inkscape:connector-curvature="0" />
	<path style="fill:none;stroke:red;stroke-width:1px;stroke-linecap:butt;stroke-linejoin:miter;stroke-opacity:1" d="M 283.401,23.2248 271.866,29.6331 z" id="boundary" inkscape:connector-curvature="0" />
	<path style="fill:none;stroke:red;stroke-width:1px;stroke-linecap:butt;stroke-linejoin:miter;stroke-opacity:1" d="M 101.406,141.137 111.659,132.165 z" id="boundary" inkscape:connector-curvature="0" />
	<path style="fill:none;stroke:red;stroke-width:1px;stroke-linecap:butt;stroke-linejoin:miter;stroke-opacity:1" d="M 111.659,132.165 123.194,125.757 z" id="boundary" inkscape:connector-curvature="0" />
	<path style="fill:none;stroke:red;stroke-width:1px;stroke-linecap:butt;stroke-linejoin:miter;stroke-opacity:1" d="M 136.01,119.349 123.194,125.757 z" id="boundary" inkscape:connector-curvature="0" />
	<path style="fill:none;stroke:red;stroke-width:1px;stroke-linecap:butt;stroke-linejoin:miter;stroke-opacity:1" d="M 146.264,109.096 136.01,119.349 z" id="boundary" inkscape:connector-curvature="0" />
	<path style="fill:none;stroke:red;stroke-width:1px;stroke-linecap:butt;stroke-linejoin:miter;stroke-opacity:1" d="M 92.4341,151.39 101.406,141.137 z" id="boundary" inkscape:connector-curvature="0" />
	<path style="fill:none;stroke:red;stroke-width:1px;stroke-linecap:butt;stroke-linejoin:miter;stroke-opacity:1" d="M 180.868,87.3075 193.685,80.8992 z" id="boundary" inkscape:connector-curvature="0" />
	<path style="fill:none;stroke:red;stroke-width:1px;stroke-linecap:butt;stroke-linejoin:miter;stroke-opacity:1" d="M 170.615,97.5607 180.868,87.3075 z" id="boundary" inkscape:connector-curvature="0" />
	<path style="fill:none;stroke:red;stroke-width:1px;stroke-linecap:butt;stroke-linejoin:miter;stroke-opacity:1" d="M 206.501,74.491 193.685,80.8992 z" id="boundary" inkscape:connector-curvature="0" />
	<path style="fill:none;stroke:red;stroke-width:1px;stroke-linecap:butt;stroke-linejoin:miter;stroke-opacity:1" d="M 170.615,97.5607 159.08,106.532 z" id="boundary" inkscape:connector-curvature="0" />
	<path style="fill:none;stroke:red;stroke-width:1px;stroke-linecap:butt;stroke-linejoin:miter;stroke-opacity:1" d="M 159.08,106.532 146.264,109.096 z" id="boundary" inkscape:connector-curvature="0" />
	<path style="fill:none;stroke:red;stroke-width:1px;stroke-linecap:butt;stroke-linejoin:miter;stroke-opacity:1" d="M 91.1525,428.227 93.7158,441.044 z" id="boundary" inkscape:connector-curvature="0" />
	<path style="fill:none;stroke:red;stroke-width:1px;stroke-linecap:butt;stroke-linejoin:miter;stroke-opacity:1" d="M 93.7158,441.044 105.251,447.452 z" id="boundary" inkscape:connector-curvature="0" />
	<path style="fill:none;stroke:red;stroke-width:1px;stroke-linecap:butt;stroke-linejoin:miter;stroke-opacity:1" d="M 105.251,447.452 112.941,457.705 z" id="boundary" inkscape:connector-curvature="0" />
	<path style="fill:none;stroke:red;stroke-width:1px;stroke-linecap:butt;stroke-linejoin:miter;stroke-opacity:1" d="M 112.941,457.705 119.349,469.24 z" id="boundary" inkscape:connector-curvature="0" />
	<path style="fill:none;stroke:red;stroke-width:1px;stroke-linecap:butt;stroke-linejoin:miter;stroke-opacity:1" d="M 119.349,469.24 129.602,478.212 z" id="boundary" inkscape:connector-curvature="0" />
	<path style="fill:none;stroke:red;stroke-width:1px;stroke-linecap:butt;stroke-linejoin:miter;stroke-opacity:1" d="M 138.574,488.465 129.602,478.212 z" id="boundary" inkscape:connector-curvature="0" />
	<path style="fill:none;stroke:red;stroke-width:1px;stroke-linecap:butt;stroke-linejoin:miter;stroke-opacity:1" d="M 138.574,488.465 144.982,500 z" id="boundary" inkscape:connector-curvature="0" />
	<path style="fill:none;stroke:red;stroke-width:1px;stroke-linecap:butt;stroke-linejoin:miter;stroke-opacity:1" d="M 153.953,510.253 144.982,500 z" id="boundary" inkscape:connector-curvature="0" />
	<path style="fill:none;stroke:red;stroke-width:1px;stroke-linecap:butt;stroke-linejoin:miter;stroke-opacity:1" d="M 164.207,517.943 153.953,510.253 z" id="boundary" inkscape:connector-curvature="0" />
	<path style="fill:none;stroke:red;stroke-width:1px;stroke-linecap:butt;stroke-linejoin:miter;stroke-opacity:1" d="M 164.207,517.943 170.615,529.478 z" id="boundary" inkscape:connector-curvature="0" />
	<path style="fill:none;stroke:red;stroke-width:1px;stroke-linecap:butt;stroke-linejoin:miter;stroke-opacity:1" d="M 189.84,546.14 178.305,539.731 z" id="boundary" inkscape:connector-curvature="0" />
	<path style="fill:none;stroke:red;stroke-width:1px;stroke-linecap:butt;stroke-linejoin:miter;stroke-opacity:1" d="M 178.305,539.731 170.615,529.478 z" id="boundary" inkscape:connector-curvature="0" />
	<path style="fill:none;stroke:red;stroke-width:1px;stroke-linecap:butt;stroke-linejoin:miter;stroke-opacity:1" d="M 202.656,549.984 189.84,546.14 z" id="boundary" inkscape:connector-curvature="0" />
	<path style="fill:none;stroke:red;stroke-width:1px;stroke-linecap:butt;stroke-linejoin:miter;stroke-opacity:1" d="M 202.656,549.984 214.191,556.393 z" id="boundary" inkscape:connector-curvature="0" />
	<path style="fill:none;stroke:red;stroke-width:1px;stroke-linecap:butt;stroke-linejoin:miter;stroke-opacity:1" d="M 214.191,556.393 221.881,566.646 z" id="boundary" inkscape:connector-curvature="0" />
	<path style="fill:none;stroke:red;stroke-width:1px;stroke-linecap:butt;stroke-linejoin:miter;stroke-opacity:1" d="M 221.881,566.646 221.881,579.463 z" id="boundary" inkscape:connector-curvature="0" />
	<path style="fill:none;stroke:red;stroke-width:1px;stroke-linecap:butt;stroke-linejoin:miter;stroke-opacity:1" d="M 228.289,590.997 221.881,579.463 z" id="boundary" inkscape:connector-curvature="0" />
	<path style="fill:none;stroke:red;stroke-width:1px;stroke-linecap:butt;stroke-linejoin:miter;stroke-opacity:1" d="M 235.979,601.251 228.289,590.997 z" id="boundary" inkscape:connector-curvature="0" />
	<path style="fill:none;stroke:red;stroke-width:1px;stroke-linecap:butt;stroke-linejoin:miter;stroke-opacity:1" d="M 247.514,607.659 235.979,601.251 z" id="boundary" inkscape:connector-curvature="0" />
	<path style="fill:none;stroke:red;stroke-width:1px;stroke-linecap:butt;stroke-linejoin:miter;stroke-opacity:1" d="M 247.514,607.659 259.049,614.067 z" id="boundary" inkscape:connector-curvature="0" />
	<path style="fill:none;stroke:red;stroke-width:1px;stroke-linecap:butt;stroke-linejoin:miter;stroke-opacity:1" d="M 270.584,620.475 259.049,614.067 z" id="boundary" inkscape:connector-curvature="0" />
	<path style="fill:none;stroke:red;stroke-width:1px;stroke-linecap:butt;stroke-linejoin:miter;stroke-opacity:1" d="M 283.401,620.475 270.584,620.475 z" id="boundary" inkscape:connector-curvature="0" />
	<path style="fill:none;stroke:red;stroke-width:1px;stroke-linecap:butt;stroke-linejoin:miter;stroke-opacity:1" d="M 294.935,626.884 283.401,620.475 z" id="boundary" inkscape:connector-curvature="0" />
	<path style="fill:none;stroke:red;stroke-width:1px;stroke-linecap:butt;stroke-linejoin:miter;stroke-opacity:1" d="M 294.935,626.884 305.189,634.574 z" id="boundary" inkscape:connector-curvature="0" />
	<path style="fill:none;stroke:red;stroke-width:1px;stroke-linecap:butt;stroke-linejoin:miter;stroke-opacity:1" d="M 315.442,671.742 311.597,658.925 z" id="boundary" inkscape:connector-curvature="0" />
	<path style="fill:none;stroke:red;stroke-width:1px;stroke-linecap:butt;stroke-linejoin:miter;stroke-opacity:1" d="M 318.005,684.558 315.442,671.742 z" id="boundary" inkscape:connector-curvature="0" />
	<path style="fill:none;stroke:red;stroke-width:1px;stroke-linecap:butt;stroke-linejoin:miter;stroke-opacity:1" d="M 311.597,646.109 311.597,658.925 z" id="boundary" inkscape:connector-curvature="0" />
	<path style="fill:none;stroke:red;stroke-width:1px;stroke-linecap:butt;stroke-linejoin:miter;stroke-opacity:1" d="M 305.189,634.574 311.597,646.109 z" id="boundary" inkscape:connector-curvature="0" />
	<path style="fill:none;stroke:red;stroke-width:1px;stroke-linecap:butt;stroke-linejoin:miter;stroke-opacity:1" d="M 318.005,684.558 318.005,697.375 z" id="boundary" inkscape:connector-curvature="0" />
	<path style="fill:none;stroke:red;stroke-width:1px;stroke-linecap:butt;stroke-linejoin:miter;stroke-opacity:1" d="M 318.005,710.191 318.005,697.375 z" id="boundary" inkscape:connector-curvature="0" />
	<path style="fill:none;stroke:red;stroke-width:1px;stroke-linecap:butt;stroke-linejoin:miter;stroke-opacity:1" d="M 321.85,723.008 318.005,710.191 z" id="boundary" inkscape:connector-curvature="0" />
	<path style="fill:none;stroke:red;stroke-width:1px;stroke-linecap:butt;stroke-linejoin:miter;stroke-opacity:1" d="M 321.85,723.008 324.413,735.824 z" id="boundary" inkscape:connector-curvature="0" />
	<path style="fill:none;stroke:red;stroke-width:1px;stroke-linecap:butt;stroke-linejoin:miter;stroke-opacity:1" d="M 324.413,735.824 324.413,748.641 z" id="boundary" inkscape:connector-curvature="0" />
	<path style="fill:none;stroke:red;stroke-width:1px;stroke-linecap:butt;stroke-linejoin:miter;stroke-opacity:1" d="M 324.413,761.457 324.413,748.641 z" id="boundary" inkscape:connector-curvature="0" />
	<path style="fill:none;stroke:red;stroke-width:1px;stroke-linecap:butt;stroke-linejoin:miter;stroke-opacity:1" d="M 324.413,761.457 324.413,774.274 z" id="boundary" inkscape:connector-curvature="0" />
	<path style="fill:none;stroke:red;stroke-width:1px;stroke-linecap:butt;stroke-linejoin:miter;stroke-opacity:1" d="M 324.413,787.09 324.413,774.274 z" id="boundary" inkscape:connector-curvature="0" />
	<path style="fill:none;stroke:red;stroke-width:1px;stroke-linecap:butt;stroke-linejoin:miter;stroke-opacity:1" d="M 324.413,799.907 324.413,787.09 z" id="boundary" inkscape:connector-curvature="0" />
	<path style="fill:none;stroke:red;stroke-width:1px;stroke-linecap:butt;stroke-linejoin:miter;stroke-opacity:1" d="M 324.413,799.907 324.413,812.724 z" id="boundary" inkscape:connector-curvature="0" />
	<path style="fill:none;stroke:red;stroke-width:1px;stroke-linecap:butt;stroke-linejoin:miter;stroke-opacity:1" d="M 324.413,812.724 321.85,837.075 z" id="boundary" inkscape:connector-curvature="0" />
	<path style="fill:none;stroke:red;stroke-width:1px;stroke-linecap:butt;stroke-linejoin:miter;stroke-opacity:1" d="M 321.85,837.075 311.597,847.328 z" id="boundary" inkscape:connector-curvature="0" />
	<path style="fill:none;stroke:red;stroke-width:1px;stroke-linecap:butt;stroke-linejoin:miter;stroke-opacity:1" d="M 335.948,870.398 324.413,863.99 z" id="boundary" inkscape:connector-curvature="0" />
	<path style="fill:none;stroke:red;stroke-width:1px;stroke-linecap:butt;stroke-linejoin:miter;stroke-opacity:1" d="M 324.413,863.99 311.597,860.145 z" id="boundary" inkscape:connector-curvature="0" />
	<path style="fill:none;stroke:red;stroke-width:1px;stroke-linecap:butt;stroke-linejoin:miter;stroke-opacity:1" d="M 311.597,860.145 311.597,847.328 z" id="boundary" inkscape:connector-curvature="0" />
	<path style="fill:none;stroke:red;stroke-width:1px;stroke-linecap:butt;stroke-linejoin:miter;stroke-opacity:1" d="M 337.23,883.214 337.23,896.031 z" id="boundary" inkscape:connector-curvature="0" />
	<path style="fill:none;stroke:red;stroke-width:1px;stroke-linecap:butt;stroke-linejoin:miter;stroke-opacity:1" d="M 343.638,907.566 337.23,896.031 z" id="boundary" inkscape:connector-curvature="0" />
	<path style="fill:none;stroke:red;stroke-width:1px;stroke-linecap:butt;stroke-linejoin:miter;stroke-opacity:1" d="M 335.948,870.398 337.23,883.214 z" id="boundary" inkscape:connector-curvature="0" />
	<path style="fill:none;stroke:red;stroke-width:1px;stroke-linecap:butt;stroke-linejoin:miter;stroke-opacity:1" d="M 343.638,907.566 343.638,920.382 z" id="boundary" inkscape:connector-curvature="0" />
	<path style="fill:none;stroke:red;stroke-width:1px;stroke-linecap:butt;stroke-linejoin:miter;stroke-opacity:1" d="M 343.638,933.199 343.638,920.382 z" id="boundary" inkscape:connector-curvature="0" />
	<path style="fill:none;stroke:red;stroke-width:1px;stroke-linecap:butt;stroke-linejoin:miter;stroke-opacity:1" d="M 343.638,933.199 343.638,946.016 z" id="boundary" inkscape:connector-curvature="0" />
	<path style="fill:none;stroke:red;stroke-width:1px;stroke-linecap:butt;stroke-linejoin:miter;stroke-opacity:1" d="M 370.553,29.6331 357.736,29.6331 z" id="boundary" inkscape:connector-curvature="0" />
	<path style="fill:none;stroke:red;stroke-width:1px;stroke-linecap:butt;stroke-linejoin:miter;stroke-opacity:1" d="M 357.736,29.6331 352.61,16.8165 z" id="boundary" inkscape:connector-curvature="0" />
	<path style="fill:none;stroke:red;stroke-width:1px;stroke-linecap:butt;stroke-linejoin:miter;stroke-opacity:1" d="M 370.553,29.6331 380.806,37.323 z" id="boundary" inkscape:connector-curvature="0" />
	<path style="fill:none;stroke:red;stroke-width:1px;stroke-linecap:butt;stroke-linejoin:miter;stroke-opacity:1" d="M 400.031,55.2661 389.778,47.5762 z" id="boundary" inkscape:connector-curvature="0" />
	<path style="fill:none;stroke:red;stroke-width:1px;stroke-linecap:butt;stroke-linejoin:miter;stroke-opacity:1" d="M 389.778,47.5762 380.806,37.323 z" id="boundary" inkscape:connector-curvature="0" />
	<path style="fill:none;stroke:red;stroke-width:1px;stroke-linecap:butt;stroke-linejoin:miter;stroke-opacity:1" d="M 411.566,61.6744 400.031,55.2661 z" id="boundary" inkscape:connector-curvature="0" />
	<path style="fill:none;stroke:red;stroke-width:1px;stroke-linecap:butt;stroke-linejoin:miter;stroke-opacity:1" d="M 423.101,68.0827 411.566,61.6744 z" id="boundary" inkscape:connector-curvature="0" />
	<path style="fill:none;stroke:red;stroke-width:1px;stroke-linecap:butt;stroke-linejoin:miter;stroke-opacity:1" d="M 434.636,74.491 423.101,68.0827 z" id="boundary" inkscape:connector-curvature="0" />
	<path style="fill:none;stroke:red;stroke-width:1px;stroke-linecap:butt;stroke-linejoin:miter;stroke-opacity:1" d="M 446.171,80.8992 458.987,83.4625 z" id="boundary" inkscape:connector-curvature="0" />
	<path style="fill:none;stroke:red;stroke-width:1px;stroke-linecap:butt;stroke-linejoin:miter;stroke-opacity:1" d="M 458.987,83.4625 464.114,96.2791 z" id="boundary" inkscape:connector-curvature="0" />
	<path style="fill:none;stroke:red;stroke-width:1px;stroke-linecap:butt;stroke-linejoin:miter;stroke-opacity:1" d="M 446.171,80.8992 434.636,74.491 z" id="boundary" inkscape:connector-curvature="0" />
	<path style="fill:none;stroke:red;stroke-width:1px;stroke-linecap:butt;stroke-linejoin:miter;stroke-opacity:1" d="M 476.93,101.406 464.114,96.2791 z" id="boundary" inkscape:connector-curvature="0" />
	<path style="fill:none;stroke:red;stroke-width:1px;stroke-linecap:butt;stroke-linejoin:miter;stroke-opacity:1" d="M 498.718,116.786 485.902,111.659 z" id="boundary" inkscape:connector-curvature="0" />
	<path style="fill:none;stroke:red;stroke-width:1px;stroke-linecap:butt;stroke-linejoin:miter;stroke-opacity:1" d="M 485.902,111.659 476.93,101.406 z" id="boundary" inkscape:connector-curvature="0" />
	<path style="fill:none;stroke:red;stroke-width:1px;stroke-linecap:butt;stroke-linejoin:miter;stroke-opacity:1" d="M 498.718,116.786 507.69,127.039 z" id="boundary" inkscape:connector-curvature="0" />
	<path style="fill:none;stroke:red;stroke-width:1px;stroke-linecap:butt;stroke-linejoin:miter;stroke-opacity:1" d="M 520.506,132.165 507.69,127.039 z" id="boundary" inkscape:connector-curvature="0" />
	<path style="fill:none;stroke:red;stroke-width:1px;stroke-linecap:butt;stroke-linejoin:miter;stroke-opacity:1" d="M 520.506,132.165 529.478,142.419 z" id="boundary" inkscape:connector-curvature="0" />
	<path style="fill:none;stroke:red;stroke-width:1px;stroke-linecap:butt;stroke-linejoin:miter;stroke-opacity:1" d="M 551.266,157.798 539.731,151.39 z" id="boundary" inkscape:connector-curvature="0" />
	<path style="fill:none;stroke:red;stroke-width:1px;stroke-linecap:butt;stroke-linejoin:miter;stroke-opacity:1" d="M 539.731,151.39 529.478,142.419 z" id="boundary" inkscape:connector-curvature="0" />
	<path style="fill:none;stroke:red;stroke-width:1px;stroke-linecap:butt;stroke-linejoin:miter;stroke-opacity:1" d="M 530.76,466.677 537.168,447.452 z" id="boundary" inkscape:connector-curvature="0" />
	<path style="fill:none;stroke:red;stroke-width:1px;stroke-linecap:butt;stroke-linejoin:miter;stroke-opacity:1" d="M 537.168,447.452 547.421,438.481 z" id="boundary" inkscape:connector-curvature="0" />
	<path style="fill:none;stroke:red;stroke-width:1px;stroke-linecap:butt;stroke-linejoin:miter;stroke-opacity:1" d="M 530.76,466.677 517.943,473.085 z" id="boundary" inkscape:connector-curvature="0" />
	<path style="fill:none;stroke:red;stroke-width:1px;stroke-linecap:butt;stroke-linejoin:miter;stroke-opacity:1" d="M 556.393,421.819 547.421,438.481 z" id="boundary" inkscape:connector-curvature="0" />
	<path style="fill:none;stroke:red;stroke-width:1px;stroke-linecap:butt;stroke-linejoin:miter;stroke-opacity:1" d="M 562.801,164.207 551.266,157.798 z" id="boundary" inkscape:connector-curvature="0" />
	<path style="fill:none;stroke:red;stroke-width:1px;stroke-linecap:butt;stroke-linejoin:miter;stroke-opacity:1" d="M 511.535,485.902 517.943,473.085 z" id="boundary" inkscape:connector-curvature="0" />
	<path style="fill:none;stroke:red;stroke-width:1px;stroke-linecap:butt;stroke-linejoin:miter;stroke-opacity:1" d="M 562.801,164.207 573.054,171.897 z" id="boundary" inkscape:connector-curvature="0" />
	<path style="fill:none;stroke:red;stroke-width:1px;stroke-linecap:butt;stroke-linejoin:miter;stroke-opacity:1" d="M 573.054,171.897 582.026,182.15 z" id="boundary" inkscape:connector-curvature="0" />
	<path style="fill:none;stroke:red;stroke-width:1px;stroke-linecap:butt;stroke-linejoin:miter;stroke-opacity:1" d="M 594.842,187.276 582.026,182.15 z" id="boundary" inkscape:connector-curvature="0" />
	<path style="fill:none;stroke:red;stroke-width:1px;stroke-linecap:butt;stroke-linejoin:miter;stroke-opacity:1" d="M 594.842,187.276 606.377,193.685 z" id="boundary" inkscape:connector-curvature="0" />
	<path style="fill:none;stroke:red;stroke-width:1px;stroke-linecap:butt;stroke-linejoin:miter;stroke-opacity:1" d="M 606.377,193.685 614.067,203.938 z" id="boundary" inkscape:connector-curvature="0" />
	<path style="fill:none;stroke:red;stroke-width:1px;stroke-linecap:butt;stroke-linejoin:miter;stroke-opacity:1" d="M 624.32,211.628 614.067,203.938 z" id="boundary" inkscape:connector-curvature="0" />
	<path style="fill:none;stroke:red;stroke-width:1px;stroke-linecap:butt;stroke-linejoin:miter;stroke-opacity:1" d="M 624.32,211.628 633.292,221.881 z" id="boundary" inkscape:connector-curvature="0" />
	<path style="fill:none;stroke:red;stroke-width:1px;stroke-linecap:butt;stroke-linejoin:miter;stroke-opacity:1" d="M 633.292,221.881 639.7,233.416 z" id="boundary" inkscape:connector-curvature="0" />
	<path style="fill:none;stroke:red;stroke-width:1px;stroke-linecap:butt;stroke-linejoin:miter;stroke-opacity:1" d="M 637.137,284.682 639.7,268.021 z" id="boundary" inkscape:connector-curvature="0" />
	<path style="fill:none;stroke:red;stroke-width:1px;stroke-linecap:butt;stroke-linejoin:miter;stroke-opacity:1" d="M 639.7,268.021 646.109,244.951 z" id="boundary" inkscape:connector-curvature="0" />
	<path style="fill:none;stroke:red;stroke-width:1px;stroke-linecap:butt;stroke-linejoin:miter;stroke-opacity:1" d="M 639.7,233.416 646.109,244.951 z" id="boundary" inkscape:connector-curvature="0" />
	<path style="fill:none;stroke:red;stroke-width:1px;stroke-linecap:butt;stroke-linejoin:miter;stroke-opacity:1" d="M 637.137,284.682 630.729,297.499 z" id="boundary" inkscape:connector-curvature="0" />
	<path style="fill:none;stroke:red;stroke-width:1px;stroke-linecap:butt;stroke-linejoin:miter;stroke-opacity:1" d="M 588.434,364.145 588.434,376.961 z" id="boundary" inkscape:connector-curvature="0" />
	<path style="fill:none;stroke:red;stroke-width:1px;stroke-linecap:butt;stroke-linejoin:miter;stroke-opacity:1" d="M 588.434,376.961 579.463,387.214 z" id="boundary" inkscape:connector-curvature="0" />
	<path style="fill:none;stroke:red;stroke-width:1px;stroke-linecap:butt;stroke-linejoin:miter;stroke-opacity:1" d="M 579.463,387.214 569.209,396.186 z" id="boundary" inkscape:connector-curvature="0" />
	<path style="fill:none;stroke:red;stroke-width:1px;stroke-linecap:butt;stroke-linejoin:miter;stroke-opacity:1" d="M 588.434,364.145 594.842,351.328 z" id="boundary" inkscape:connector-curvature="0" />
	<path style="fill:none;stroke:red;stroke-width:1px;stroke-linecap:butt;stroke-linejoin:miter;stroke-opacity:1" d="M 556.393,421.819 562.801,409.003 z" id="boundary" inkscape:connector-curvature="0" />
	<path style="fill:none;stroke:red;stroke-width:1px;stroke-linecap:butt;stroke-linejoin:miter;stroke-opacity:1" d="M 569.209,396.186 562.801,409.003 z" id="boundary" inkscape:connector-curvature="0" />
	<path style="fill:none;stroke:red;stroke-width:1px;stroke-linecap:butt;stroke-linejoin:miter;stroke-opacity:1" d="M 630.729,297.499 624.32,310.315 z" id="boundary" inkscape:connector-curvature="0" />
	<path style="fill:none;stroke:red;stroke-width:1px;stroke-linecap:butt;stroke-linejoin:miter;stroke-opacity:1" d="M 624.32,310.315 614.067,319.287 z" id="boundary" inkscape:connector-curvature="0" />
	<path style="fill:none;stroke:red;stroke-width:1px;stroke-linecap:butt;stroke-linejoin:miter;stroke-opacity:1" d="M 614.067,332.103 614.067,319.287 z" id="boundary" inkscape:connector-curvature="0" />
	<path style="fill:none;stroke:red;stroke-width:1px;stroke-linecap:butt;stroke-linejoin:miter;stroke-opacity:1" d="M 605.096,342.357 594.842,351.328 z" id="boundary" inkscape:connector-curvature="0" />
	<path style="fill:none;stroke:red;stroke-width:1px;stroke-linecap:butt;stroke-linejoin:miter;stroke-opacity:1" d="M 614.067,332.103 605.096,342.357 z" id="boundary" inkscape:connector-curvature="0" />
	<path style="fill:none;stroke:red;stroke-width:1px;stroke-linecap:butt;stroke-linejoin:miter;stroke-opacity:1" d="M 370.553,652.517 370.553,665.333 z" id="boundary" inkscape:connector-curvature="0" />
	<path style="fill:none;stroke:red;stroke-width:1px;stroke-linecap:butt;stroke-linejoin:miter;stroke-opacity:1" d="M 370.553,652.517 370.553,639.7 z" id="boundary" inkscape:connector-curvature="0" />
	<path style="fill:none;stroke:red;stroke-width:1px;stroke-linecap:butt;stroke-linejoin:miter;stroke-opacity:1" d="M 370.553,639.7 380.806,630.729 z" id="boundary" inkscape:connector-curvature="0" />
	<path style="fill:none;stroke:red;stroke-width:1px;stroke-linecap:butt;stroke-linejoin:miter;stroke-opacity:1" d="M 370.553,665.333 370.553,678.15 z" id="boundary" inkscape:connector-curvature="0" />
	<path style="fill:none;stroke:red;stroke-width:1px;stroke-linecap:butt;stroke-linejoin:miter;stroke-opacity:1" d="M 364.145,825.54 364.145,812.724 z" id="boundary" inkscape:connector-curvature="0" />
	<path style="fill:none;stroke:red;stroke-width:1px;stroke-linecap:butt;stroke-linejoin:miter;stroke-opacity:1" d="M 364.145,812.724 370.553,793.499 z" id="boundary" inkscape:connector-curvature="0" />
	<path style="fill:none;stroke:red;stroke-width:1px;stroke-linecap:butt;stroke-linejoin:miter;stroke-opacity:1" d="M 370.553,678.15 370.553,690.966 z" id="boundary" inkscape:connector-curvature="0" />
	<path style="fill:none;stroke:red;stroke-width:1px;stroke-linecap:butt;stroke-linejoin:miter;stroke-opacity:1" d="M 370.553,690.966 370.553,703.783 z" id="boundary" inkscape:connector-curvature="0" />
	<path style="fill:none;stroke:red;stroke-width:1px;stroke-linecap:butt;stroke-linejoin:miter;stroke-opacity:1" d="M 364.145,825.54 364.145,838.357 z" id="boundary" inkscape:connector-curvature="0" />
	<path style="fill:none;stroke:red;stroke-width:1px;stroke-linecap:butt;stroke-linejoin:miter;stroke-opacity:1" d="M 370.553,703.783 370.553,716.599 z" id="boundary" inkscape:connector-curvature="0" />
	<path style="fill:none;stroke:red;stroke-width:1px;stroke-linecap:butt;stroke-linejoin:miter;stroke-opacity:1" d="M 370.553,716.599 370.553,729.416 z" id="boundary" inkscape:connector-curvature="0" />
	<path style="fill:none;stroke:red;stroke-width:1px;stroke-linecap:butt;stroke-linejoin:miter;stroke-opacity:1" d="M 370.553,742.233 370.553,755.049 z" id="boundary" inkscape:connector-curvature="0" />
	<path style="fill:none;stroke:red;stroke-width:1px;stroke-linecap:butt;stroke-linejoin:miter;stroke-opacity:1" d="M 370.553,742.233 370.553,729.416 z" id="boundary" inkscape:connector-curvature="0" />
	<path style="fill:none;stroke:red;stroke-width:1px;stroke-linecap:butt;stroke-linejoin:miter;stroke-opacity:1" d="M 370.553,755.049 370.553,767.866 z" id="boundary" inkscape:connector-curvature="0" />
	<path style="fill:none;stroke:red;stroke-width:1px;stroke-linecap:butt;stroke-linejoin:miter;stroke-opacity:1" d="M 364.145,960.114 350.047,957.55 z" id="boundary" inkscape:connector-curvature="0" />
	<path style="fill:none;stroke:red;stroke-width:1px;stroke-linecap:butt;stroke-linejoin:miter;stroke-opacity:1" d="M 370.553,939.607 364.145,960.114 z" id="boundary" inkscape:connector-curvature="0" />
	<path style="fill:none;stroke:red;stroke-width:1px;stroke-linecap:butt;stroke-linejoin:miter;stroke-opacity:1" d="M 364.145,838.357 364.145,851.173 z" id="boundary" inkscape:connector-curvature="0" />
	<path style="fill:none;stroke:red;stroke-width:1px;stroke-linecap:butt;stroke-linejoin:miter;stroke-opacity:1" d="M 350.047,970.367 350.047,957.55 z" id="boundary" inkscape:connector-curvature="0" />
	<path style="fill:none;stroke:red;stroke-width:1px;stroke-linecap:butt;stroke-linejoin:miter;stroke-opacity:1" d="M 343.638,946.016 350.047,957.55 z" id="boundary" inkscape:connector-curvature="0" />
	<path style="fill:none;stroke:red;stroke-width:1px;stroke-linecap:butt;stroke-linejoin:miter;stroke-opacity:1" d="M 351.328,996 350.047,983.183 z" id="boundary" inkscape:connector-curvature="0" />
	<path style="fill:none;stroke:red;stroke-width:1px;stroke-linecap:butt;stroke-linejoin:miter;stroke-opacity:1" d="M 350.047,970.367 364.145,972.93 z" id="boundary" inkscape:connector-curvature="0" />
	<path style="fill:none;stroke:red;stroke-width:1px;stroke-linecap:butt;stroke-linejoin:miter;stroke-opacity:1" d="M 350.047,983.183 350.047,970.367 z" id="boundary" inkscape:connector-curvature="0" />
	<path style="fill:none;stroke:red;stroke-width:1px;stroke-linecap:butt;stroke-linejoin:miter;stroke-opacity:1" d="M 364.145,851.173 364.145,863.99 z" id="boundary" inkscape:connector-curvature="0" />
	<path style="fill:none;stroke:red;stroke-width:1px;stroke-linecap:butt;stroke-linejoin:miter;stroke-opacity:1" d="M 364.145,863.99 364.145,876.806 z" id="boundary" inkscape:connector-curvature="0" />
	<path style="fill:none;stroke:red;stroke-width:1px;stroke-linecap:butt;stroke-linejoin:miter;stroke-opacity:1" d="M 370.553,888.341 364.145,876.806 z" id="boundary" inkscape:connector-curvature="0" />
	<path style="fill:none;stroke:red;stroke-width:1px;stroke-linecap:butt;stroke-linejoin:miter;stroke-opacity:1" d="M 364.145,960.114 364.145,972.93 z" id="boundary" inkscape:connector-curvature="0" />
	<path style="fill:none;stroke:red;stroke-width:1px;stroke-linecap:butt;stroke-linejoin:miter;stroke-opacity:1" d="M 364.145,985.747 364.145,972.93 z" id="boundary" inkscape:connector-curvature="0" />
	<path style="fill:none;stroke:red;stroke-width:1px;stroke-linecap:butt;stroke-linejoin:miter;stroke-opacity:1" d="M 370.553,901.158 370.553,913.974 z" id="boundary" inkscape:connector-curvature="0" />
	<path style="fill:none;stroke:red;stroke-width:1px;stroke-linecap:butt;stroke-linejoin:miter;stroke-opacity:1" d="M 370.553,767.866 370.553,780.682 z" id="boundary" inkscape:connector-curvature="0" />
	<path style="fill:none;stroke:red;stroke-width:1px;stroke-linecap:butt;stroke-linejoin:miter;stroke-opacity:1" d="M 434.636,575.618 434.636,562.801 z" id="boundary" inkscape:connector-curvature="0" />
	<path style="fill:none;stroke:red;stroke-width:1px;stroke-linecap:butt;stroke-linejoin:miter;stroke-opacity:1" d="M 434.636,562.801 444.889,553.829 z" id="boundary" inkscape:connector-curvature="0" />
	<path style="fill:none;stroke:red;stroke-width:1px;stroke-linecap:butt;stroke-linejoin:miter;stroke-opacity:1" d="M 457.705,547.421 444.889,553.829 z" id="boundary" inkscape:connector-curvature="0" />
	<path style="fill:none;stroke:red;stroke-width:1px;stroke-linecap:butt;stroke-linejoin:miter;stroke-opacity:1" d="M 465.395,537.168 457.705,547.421 z" id="boundary" inkscape:connector-curvature="0" />
	<path style="fill:none;stroke:red;stroke-width:1px;stroke-linecap:butt;stroke-linejoin:miter;stroke-opacity:1" d="M 434.636,575.618 428.227,588.434 z" id="boundary" inkscape:connector-curvature="0" />
	<path style="fill:none;stroke:red;stroke-width:1px;stroke-linecap:butt;stroke-linejoin:miter;stroke-opacity:1" d="M 428.227,588.434 417.974,599.969 z" id="boundary" inkscape:connector-curvature="0" />
	<path style="fill:none;stroke:red;stroke-width:1px;stroke-linecap:butt;stroke-linejoin:miter;stroke-opacity:1" d="M 511.535,485.902 505.127,498.718 z" id="boundary" inkscape:connector-curvature="0" />
	<path style="fill:none;stroke:red;stroke-width:1px;stroke-linecap:butt;stroke-linejoin:miter;stroke-opacity:1" d="M 505.127,498.718 496.155,508.972 z" id="boundary" inkscape:connector-curvature="0" />
	<path style="fill:none;stroke:red;stroke-width:1px;stroke-linecap:butt;stroke-linejoin:miter;stroke-opacity:1" d="M 496.155,508.972 485.902,517.943 z" id="boundary" inkscape:connector-curvature="0" />
	<path style="fill:none;stroke:red;stroke-width:1px;stroke-linecap:butt;stroke-linejoin:miter;stroke-opacity:1" d="M 485.902,517.943 475.649,529.478 z" id="boundary" inkscape:connector-curvature="0" />
	<path style="fill:none;stroke:red;stroke-width:1px;stroke-linecap:butt;stroke-linejoin:miter;stroke-opacity:1" d="M 475.649,529.478 465.395,537.168 z" id="boundary" inkscape:connector-curvature="0" />
	<path style="fill:none;stroke:red;stroke-width:1px;stroke-linecap:butt;stroke-linejoin:miter;stroke-opacity:1" d="M 370.553,780.682 370.553,793.499 z" id="boundary" inkscape:connector-curvature="0" />
	<path style="fill:none;stroke:red;stroke-width:1px;stroke-linecap:butt;stroke-linejoin:miter;stroke-opacity:1" d="M 370.553,888.341 370.553,901.158 z" id="boundary" inkscape:connector-curvature="0" />
	<path style="fill:none;stroke:red;stroke-width:1px;stroke-linecap:butt;stroke-linejoin:miter;stroke-opacity:1" d="M 370.553,913.974 370.553,926.791 z" id="boundary" inkscape:connector-curvature="0" />
	<path style="fill:none;stroke:red;stroke-width:1px;stroke-linecap:butt;stroke-linejoin:miter;stroke-opacity:1" d="M 380.806,630.729 383.37,614.067 z" id="boundary" inkscape:connector-curvature="0" />
	<path style="fill:none;stroke:red;stroke-width:1px;stroke-linecap:butt;stroke-linejoin:miter;stroke-opacity:1" d="M 383.37,614.067 394.904,607.659 z" id="boundary" inkscape:connector-curvature="0" />
	<path style="fill:none;stroke:red;stroke-width:1px;stroke-linecap:butt;stroke-linejoin:miter;stroke-opacity:1" d="M 407.721,607.659 394.904,607.659 z" id="boundary" inkscape:connector-curvature="0" />
	<path style="fill:none;stroke:red;stroke-width:1px;stroke-linecap:butt;stroke-linejoin:miter;stroke-opacity:1" d="M 417.974,599.969 407.721,607.659 z" id="boundary" inkscape:connector-curvature="0" />
	<path style="fill:none;stroke:red;stroke-width:1px;stroke-linecap:butt;stroke-linejoin:miter;stroke-opacity:1" d="M 370.553,926.791 370.553,939.607 z" id="boundary" inkscape:connector-curvature="0" />
	<path style="fill:none;stroke:red;stroke-width:1px;stroke-linecap:butt;stroke-linejoin:miter;stroke-opacity:1" d="M 341.075,10.4083 352.61,16.8165 z" id="boundary" inkscape:connector-curvature="0" />
	<circle cx="4" cy="244.951" r="4" fill="#0" id="circle0"/>
	<circle cx="4" cy="257.767" r="4" fill="#0" id="circle1"/>
	<circle cx="4" cy="270.584" r="4" fill="#0" id="circle2"/>
	<circle cx="4" cy="283.401" r="4" fill="#0" id="circle3"/>
	<circle cx="10.4083" cy="225.726" r="4" fill="#0" id="circle4"/>
	<circle cx="10.4083" cy="294.935" r="4" fill="#0" id="circle5"/>
	<circle cx="10.4083" cy="307.752" r="4" fill="#0" id="circle6"/>
	<circle cx="16.8165" cy="212.91" r="4" fill="#0" id="circle7"/>
	<circle cx="16.8165" cy="319.287" r="4" fill="#0" id="circle8"/>
	<circle cx="20.6615" cy="332.103" r="4" fill="#0" id="circle9"/>
	<circle cx="29.6331" cy="206.501" r="4" fill="#0" id="circle10"/>
	<circle cx="30.9147" cy="341.075" r="4" fill="#0" id="circle11"/>
	<circle cx="36.0413" cy="187.276" r="4" fill="#0" id="circle12"/>
	<circle cx="36.0413" cy="353.891" r="4" fill="#0" id="circle13"/>
	<circle cx="42.4496" cy="365.426" r="4" fill="#0" id="circle14"/>
	<circle cx="48.8579" cy="180.868" r="4" fill="#0" id="circle15"/>
	<circle cx="51.4212" cy="375.68" r="4" fill="#0" id="circle16"/>
	<circle cx="57.8295" cy="387.214" r="4" fill="#0" id="circle17"/>
	<circle cx="61.6744" cy="174.46" r="4" fill="#0" id="circle18"/>
	<circle cx="68.0827" cy="161.643" r="4" fill="#0" id="circle19"/>
	<circle cx="68.0827" cy="396.186" r="4" fill="#0" id="circle20"/>
	<circle cx="71.9276" cy="409.003" r="4" fill="#0" id="circle21"/>
	<circle cx="80.8992" cy="157.798" r="4" fill="#0" id="circle22"/>
	<circle cx="82.1809" cy="417.974" r="4" fill="#0" id="circle23"/>
	<circle cx="91.1525" cy="428.227" r="4" fill="#0" id="circle24"/>
	<circle cx="92.4341" cy="151.39" r="4" fill="#0" id="circle25"/>
	<circle cx="93.7158" cy="441.044" r="4" fill="#0" id="circle26"/>
	<circle cx="101.406" cy="141.137" r="4" fill="#0" id="circle27"/>
	<circle cx="105.251" cy="447.452" r="4" fill="#0" id="circle28"/>
	<circle cx="111.659" cy="132.165" r="4" fill="#0" id="circle29"/>
	<circle cx="112.941" cy="457.705" r="4" fill="#0" id="circle30"/>
	<circle cx="119.349" cy="469.24" r="4" fill="#0" id="circle31"/>
	<circle cx="123.194" cy="125.757" r="4" fill="#0" id="circle32"/>
	<circle cx="129.602" cy="478.212" r="4" fill="#0" id="circle33"/>
	<circle cx="136.01" cy="119.349" r="4" fill="#0" id="circle34"/>
	<circle cx="138.574" cy="488.465" r="4" fill="#0" id="circle35"/>
	<circle cx="144.982" cy="500" r="4" fill="#0" id="circle36"/>
	<circle cx="146.264" cy="109.096" r="4" fill="#0" id="circle37"/>
	<circle cx="153.953" cy="510.253" r="4" fill="#0" id="circle38"/>
	<circle cx="159.08" cy="106.532" r="4" fill="#0" id="circle39"/>
	<circle cx="164.207" cy="517.943" r="4" fill="#0" id="circle40"/>
	<circle cx="170.615" cy="97.5607" r="4" fill="#0" id="circle41"/>
	<circle cx="170.615" cy="529.478" r="4" fill="#0" id="circle42"/>
	<circle cx="178.305" cy="539.731" r="4" fill="#0" id="circle43"/>
	<circle cx="180.868" cy="87.3075" r="4" fill="#0" id="circle44"/>
	<circle cx="189.84" cy="546.14" r="4" fill="#0" id="circle45"/>
	<circle cx="193.685" cy="80.8992" r="4" fill="#0" id="circle46"/>
	<circle cx="202.656" cy="549.984" r="4" fill="#0" id="circle47"/>
	<circle cx="206.501" cy="74.491" r="4" fill="#0" id="circle48"/>
	<circle cx="214.191" cy="556.393" r="4" fill="#0" id="circle49"/>
	<circle cx="219.318" cy="68.0827" r="4" fill="#0" id="circle50"/>
	<circle cx="221.881" cy="566.646" r="4" fill="#0" id="circle51"/>
	<circle cx="221.881" cy="579.463" r="4" fill="#0" id="circle52"/>
	<circle cx="228.289" cy="590.997" r="4" fill="#0" id="circle53"/>
	<circle cx="229.571" cy="57.8295" r="4" fill="#0" id="circle54"/>
	<circle cx="235.979" cy="601.251" r="4" fill="#0" id="circle55"/>
	<circle cx="242.388" cy="55.2661" r="4" fill="#0" id="circle56"/>
	<circle cx="247.514" cy="607.659" r="4" fill="#0" id="circle57"/>
	<circle cx="250.078" cy="43.7313" r="4" fill="#0" id="circle58"/>
	<circle cx="259.049" cy="614.067" r="4" fill="#0" id="circle59"/>
	<circle cx="260.331" cy="36.0413" r="4" fill="#0" id="circle60"/>
	<circle cx="270.584" cy="620.475" r="4" fill="#0" id="circle61"/>
	<circle cx="271.866" cy="29.6331" r="4" fill="#0" id="circle62"/>
	<circle cx="283.401" cy="23.2248" r="4" fill="#0" id="circle63"/>
	<circle cx="283.401" cy="620.475" r="4" fill="#0" id="circle64"/>
	<circle cx="293.654" cy="12.9716" r="4" fill="#0" id="circle65"/>
	<circle cx="294.935" cy="626.884" r="4" fill="#0" id="circle66"/>
	<circle cx="303.907" cy="4" r="4" fill="#0" id="circle67"/>
	<circle cx="305.189" cy="634.574" r="4" fill="#0" id="circle68"/>
	<circle cx="311.597" cy="646.109" r="4" fill="#0" id="circle69"/>
	<circle cx="311.597" cy="658.925" r="4" fill="#0" id="circle70"/>
	<circle cx="311.597" cy="847.328" r="4" fill="#0" id="circle71"/>
	<circle cx="311.597" cy="860.145" r="4" fill="#0" id="circle72"/>
	<circle cx="315.442" cy="671.742" r="4" fill="#0" id="circle73"/>
	<circle cx="316.724" cy="4" r="4" fill="#0" id="circle74"/>
	<circle cx="318.005" cy="684.558" r="4" fill="#0" id="circle75"/>
	<circle cx="318.005" cy="697.375" r="4" fill="#0" id="circle76"/>
	<circle cx="318.005" cy="710.191" r="4" fill="#0" id="circle77"/>
	<circle cx="321.85" cy="723.008" r="4" fill="#0" id="circle78"/>
	<circle cx="321.85" cy="837.075" r="4" fill="#0" id="circle79"/>
	<circle cx="324.413" cy="735.824" r="4" fill="#0" id="circle80"/>
	<circle cx="324.413" cy="748.641" r="4" fill="#0" id="circle81"/>
	<circle cx="324.413" cy="761.457" r="4" fill="#0" id="circle82"/>
	<circle cx="324.413" cy="774.274" r="4" fill="#0" id="circle83"/>
	<circle cx="324.413" cy="787.09" r="4" fill="#0" id="circle84"/>
	<circle cx="324.413" cy="799.907" r="4" fill="#0" id="circle85"/>
	<circle cx="324.413" cy="812.724" r="4" fill="#0" id="circle86"/>
	<circle cx="324.413" cy="863.99" r="4" fill="#0" id="circle87"/>
	<circle cx="329.54" cy="4" r="4" fill="#0" id="circle88"/>
	<circle cx="335.948" cy="870.398" r="4" fill="#0" id="circle89"/>
	<circle cx="337.23" cy="883.214" r="4" fill="#0" id="circle90"/>
	<circle cx="337.23" cy="896.031" r="4" fill="#0" id="circle91"/>
	<circle cx="341.075" cy="10.4083" r="4" fill="#0" id="circle92"/>
	<circle cx="343.638" cy="907.566" r="4" fill="#0" id="circle93"/>
	<circle cx="343.638" cy="920.382" r="4" fill="#0" id="circle94"/>
	<circle cx="343.638" cy="933.199" r="4" fill="#0" id="circle95"/>
	<circle cx="343.638" cy="946.016" r="4" fill="#0" id="circle96"/>
	<circle cx="350.047" cy="957.55" r="4" fill="#0" id="circle97"/>
	<circle cx="350.047" cy="970.367" r="4" fill="#0" id="circle98"/>
	<circle cx="350.047" cy="983.183" r="4" fill="#0" id="circle99"/>
	<circle cx="351.328" cy="996" r="4" fill="#0" id="circle100"/>
	<circle cx="352.61" cy="16.8165" r="4" fill="#0" id="circle101"/>
	<circle cx="357.736" cy="29.6331" r="4" fill="#0" id="circle102"/>
	<circle cx="364.145" cy="812.724" r="4" fill="#0" id="circle103"/>
	<circle cx="364.145" cy="825.54" r="4" fill="#0" id="circle104"/>
	<circle cx="364.145" cy="838.357" r="4" fill="#0" id="circle105"/>
	<circle cx="364.145" cy="851.173" r="4" fill="#0" id="circle106"/>
	<circle cx="364.145" cy="863.99" r="4" fill="#0" id="circle107"/>
	<circle cx="364.145" cy="876.806" r="4" fill="#0" id="circle108"/>
	<circle cx="364.145" cy="960.114" r="4" fill="#0" id="circle109"/>
	<circle cx="364.145" cy="972.93" r="4" fill="#0" id="circle110"/>
	<circle cx="364.145" cy="985.747" r="4" fill="#0" id="circle111"/>
	<circle cx="370.553" cy="29.6331" r="4" fill="#0" id="circle112"/>
	<circle cx="370.553" cy="639.7" r="4" fill="#0" id="circle113"/>
	<circle cx="370.553" cy="652.517" r="4" fill="#0" id="circle114"/>
	<circle cx="370.553" cy="665.333" r="4" fill="#0" id="circle115"/>
	<circle cx="370.553" cy="678.15" r="4" fill="#0" id="circle116"/>
	<circle cx="370.553" cy="690.966" r="4" fill="#0" id="circle117"/>
	<circle cx="370.553" cy="703.783" r="4" fill="#0" id="circle118"/>
	<circle cx="370.553" cy="716.599" r="4" fill="#0" id="circle119"/>
	<circle cx="370.553" cy="729.416" r="4" fill="#0" id="circle120"/>
	<circle cx="370.553" cy="742.233" r="4" fill="#0" id="circle121"/>
	<circle cx="370.553" cy="755.049" r="4" fill="#0" id="circle122"/>
	<circle cx="370.553" cy="767.866" r="4" fill="#0" id="circle123"/>
	<circle cx="370.553" cy="780.682" r="4" fill="#0" id="circle124"/>
	<circle cx="370.553" cy="793.499" r="4" fill="#0" id="circle125"/>
	<circle cx="370.553" cy="888.341" r="4" fill="#0" id="circle126"/>
	<circle cx="370.553" cy="901.158" r="4" fill="#0" id="circle127"/>
	<circle cx="370.553" cy="913.974" r="4" fill="#0" id="circle128"/>
	<circle cx="370.553" cy="926.791" r="4" fill="#0" id="circle129"/>
	<circle cx="370.553" cy="939.607" r="4" fill="#0" id="circle130"/>
	<circle cx="380.806" cy="37.323" r="4" fill="#0" id="circle131"/>
	<circle cx="380.806" cy="630.729" r="4" fill="#0" id="circle132"/>
	<circle cx="383.37" cy="614.067" r="4" fill="#0" id="circle133"/>
	<circle cx="389.778" cy="47.5762" r="4" fill="#0" id="circle134"/>
	<circle cx="394.904" cy="607.659" r="4" fill="#0" id="circle135"/>
	<circle cx="400.031" cy="55.2661" r="4" fill="#0" id="circle136"/>
	<circle cx="407.721" cy="607.659" r="4" fill="#0" id="circle137"/>
	<circle cx="411.566" cy="61.6744" r="4" fill="#0" id="circle138"/>
	<circle cx="417.974" cy="599.969" r="4" fill="#0" id="circle139"/>
	<circle cx="423.101" cy="68.0827" r="4" fill="#0" id="circle140"/>
	<circle cx="428.227" cy="588.434" r="4" fill="#0" id="circle141"/>
	<circle cx="434.636" cy="74.491" r="4" fill="#0" id="circle142"/>
	<circle cx="434.636" cy="562.801" r="4" fill="#0" id="circle143"/>
	<circle cx="434.636" cy="575.618" r="4" fill="#0" id="circle144"/>
	<circle cx="444.889" cy="553.829" r="4" fill="#0" id="circle145"/>
	<circle cx="446.171" cy="80.8992" r="4" fill="#0" id="circle146"/>
	<circle cx="457.705" cy="547.421" r="4" fill="#0" id="circle147"/>
	<circle cx="458.987" cy="83.4625" r="4" fill="#0" id="circle148"/>
	<circle cx="464.114" cy="96.2791" r="4" fill="#0" id="circle149"/>
	<circle cx="465.395" cy="537.168" r="4" fill="#0" id="circle150"/>
	<circle cx="475.649" cy="529.478" r="4" fill="#0" id="circle151"/>
	<circle cx="476.93" cy="101.406" r="4" fill="#0" id="circle152"/>
	<circle cx="485.902" cy="111.659" r="4" fill="#0" id="circle153"/>
	<circle cx="485.902" cy="517.943" r="4" fill="#0" id="circle154"/>
	<circle cx="496.155" cy="508.972" r="4" fill="#0" id="circle155"/>
	<circle cx="498.718" cy="116.786" r="4" fill="#0" id="circle156"/>
	<circle cx="505.127" cy="498.718" r="4" fill="#0" id="circle157"/>
	<circle cx="507.69" cy="127.039" r="4" fill="#0" id="circle158"/>
	<circle cx="511.535" cy="485.902" r="4" fill="#0" id="circle159"/>
	<circle cx="517.943" cy="473.085" r="4" fill="#0" id="circle160"/>
	<circle cx="520.506" cy="132.165" r="4" fill="#0" id="circle161"/>
	<circle cx="529.478" cy="142.419" r="4" fill="#0" id="circle162"/>
	<circle cx="530.76" cy="466.677" r="4" fill="#0" id="circle163"/>
	<circle cx="537.168" cy="447.452" r="4" fill="#0" id="circle164"/>
	<circle cx="539.731" cy="151.39" r="4" fill="#0" id="circle165"/>
	<circle cx="547.421" cy="438.481" r="4" fill="#0" id="circle166"/>
	<circle cx="551.266" cy="157.798" r="4" fill="#0" id="circle167"/>
	<circle cx="556.393" cy="421.819" r="4" fill="#0" id="circle168"/>
	<circle cx="562.801" cy="164.207" r="4" fill="#0" id="circle169"/>
	<circle cx="562.801" cy="409.003" r="4" fill="#0" id="circle170"/>
	<circle cx="569.209" cy="396.186" r="4" fill="#0" id="circle171"/>
	<circle cx="573.054" cy="171.897" r="4" fill="#0" id="circle172"/>
	<circle cx="579.463" cy="387.214" r="4" fill="#0" id="circle173"/>
	<circle cx="582.026" cy="182.15" r="4" fill="#0" id="circle174"/>
	<circle cx="588.434" cy="364.145" r="4" fill="#0" id="circle175"/>
	<circle cx="588.434" cy="376.961" r="4" fill="#0" id="circle176"/>
	<circle cx="594.842" cy="187.276" r="4" fill="#0" id="circle177"/>
	<circle cx="594.842" cy="351.328" r="4" fill="#0" id="circle178"/>
	<circle cx="605.096" cy="342.357" r="4" fill="#0" id="circle179"/>
	<circle cx="606.377" cy="193.685" r="4" fill="#0" id="circle180"/>
	<circle cx="614.067" cy="203.938" r="4" fill="#0" id="circle181"/>
	<circle cx="614.067" cy="319.287" r="4" fill="#0" id="circle182"/>
	<circle cx="614.067" cy="332.103" r="4" fill="#0" id="circle183"/>
	<circle cx="624.32" cy="211.628" r="4" fill="#0" id="circle184"/>
	<circle cx="624.32" cy="310.315" r="4" fill="#0" id="circle185"/>
	<circle cx="630.729" cy="297.499" r="4" fill="#0" id="circle186"/>
	<circle cx="633.292" cy="221.881" r="4" fill="#0" id="circle187"/>
	<circle cx="637.137" cy="284.682" r="4" fill="#0" id="circle188"/>
	<circle cx="639.7" cy="233.416" r="4" fill="#0" id="circle189"/>
	<circle cx="639.7" cy="268.021" r="4" fill="#0" id="circle190"/>
	<circle cx="646.109" cy="244.951" r="4" fill="#0" id="circle191"/>
	</g>
</svg>