<?xml version="1.0" encoding="UTF-8" standalone="no"?>
<!-- Created with CurveBenchmark -->
<svg
	xmlns:dc="http://purl.org/dc/elements/1.1/"
	xmlns:cc="http://creativecommons.org/ns#"
	xmlns:rdf="http://www.w3.org/1999/02/22-rdf-syntax-ns#"
	xmlns:svg="http://www.w3.org/2000/svg"
	xmlns="http://www.w3.org/2000/svg"
	xmlns:sodipodi="http://sodipodi.sourceforge.net/DTD/sodipodi-0.dtd"
	xmlns:inkscape="http://www.inkscape.org/namespaces/inkscape"
	width="1000"
	height="1000"
	id="svg2"
	version="1.1"
	sodipodi:docname="manifold/ccrust-cthand09.png.txt">
<defs
	id="defs4" />
<metadata
	id="metadata7">
	<rdf:RDF>
		<cc:Work
			rdf:about="">
			<dc:format>image/svg+xml</dc:format>
			<dc:type
				rdf:resource="http://purl.org/dc/dcmitype/StillImage" />
			<dc:title></dc:title>
		</cc:Work>
	</rdf:RDF>
</metadata>
<g
	inkscape:label="Layer 1"
	inkscape:groupmode="layer"
	id="layer1">
	<path style="fill:none;stroke:red;stroke-width:1px;stroke-linecap:butt;stroke-linejoin:miter;stroke-opacity:1" d="M 31.7267,216.571 44.0497,204.248 z" id="boundary" inkscape:connector-curvature="0" />
	<path style="fill:none;stroke:red;stroke-width:1px;stroke-linecap:butt;stroke-linejoin:miter;stroke-opacity:1" d="M 44.0497,204.248 57.913,211.95 z" id="boundary" inkscape:connector-curvature="0" />
	<path style="fill:none;stroke:red;stroke-width:1px;stroke-linecap:butt;stroke-linejoin:miter;stroke-opacity:1" d="M 67.1553,224.273 57.913,211.95 z" id="boundary" inkscape:connector-curvature="0" />
	<path style="fill:none;stroke:red;stroke-width:1px;stroke-linecap:butt;stroke-linejoin:miter;stroke-opacity:1" d="M 31.7267,216.571 19.4037,228.894 z" id="boundary" inkscape:connector-curvature="0" />
	<path style="fill:none;stroke:red;stroke-width:1px;stroke-linecap:butt;stroke-linejoin:miter;stroke-opacity:1" d="M 16.323,247.379 19.4037,228.894 z" id="boundary" inkscape:connector-curvature="0" />
	<path style="fill:none;stroke:red;stroke-width:1px;stroke-linecap:butt;stroke-linejoin:miter;stroke-opacity:1" d="M 111.826,221.193 111.826,236.596 z" id="boundary" inkscape:connector-curvature="0" />
	<path style="fill:none;stroke:red;stroke-width:1px;stroke-linecap:butt;stroke-linejoin:miter;stroke-opacity:1" d="M 74.8571,238.137 67.1553,224.273 z" id="boundary" inkscape:connector-curvature="0" />
	<path style="fill:none;stroke:red;stroke-width:1px;stroke-linecap:butt;stroke-linejoin:miter;stroke-opacity:1" d="M 111.826,221.193 119.528,205.789 z" id="boundary" inkscape:connector-curvature="0" />
	<path style="fill:none;stroke:red;stroke-width:1px;stroke-linecap:butt;stroke-linejoin:miter;stroke-opacity:1" d="M 82.559,252 74.8571,238.137 z" id="boundary" inkscape:connector-curvature="0" />
	<path style="fill:none;stroke:red;stroke-width:1px;stroke-linecap:butt;stroke-linejoin:miter;stroke-opacity:1" d="M 119.528,113.366 119.528,128.77 z" id="boundary" inkscape:connector-curvature="0" />
	<path style="fill:none;stroke:red;stroke-width:1px;stroke-linecap:butt;stroke-linejoin:miter;stroke-opacity:1" d="M 119.528,144.174 119.528,128.77 z" id="boundary" inkscape:connector-curvature="0" />
	<path style="fill:none;stroke:red;stroke-width:1px;stroke-linecap:butt;stroke-linejoin:miter;stroke-opacity:1" d="M 119.528,113.366 131.851,101.043 z" id="boundary" inkscape:connector-curvature="0" />
	<path style="fill:none;stroke:red;stroke-width:1px;stroke-linecap:butt;stroke-linejoin:miter;stroke-opacity:1" d="M 131.851,101.043 144.174,88.7205 z" id="boundary" inkscape:connector-curvature="0" />
	<path style="fill:none;stroke:red;stroke-width:1px;stroke-linecap:butt;stroke-linejoin:miter;stroke-opacity:1" d="M 151.876,73.3168 144.174,88.7205 z" id="boundary" inkscape:connector-curvature="0" />
	<path style="fill:none;stroke:red;stroke-width:1px;stroke-linecap:butt;stroke-linejoin:miter;stroke-opacity:1" d="M 119.528,144.174 119.528,159.578 z" id="boundary" inkscape:connector-curvature="0" />
	<path style="fill:none;stroke:red;stroke-width:1px;stroke-linecap:butt;stroke-linejoin:miter;stroke-opacity:1" d="M 119.528,174.981 119.528,190.385 z" id="boundary" inkscape:connector-curvature="0" />
	<path style="fill:none;stroke:red;stroke-width:1px;stroke-linecap:butt;stroke-linejoin:miter;stroke-opacity:1" d="M 119.528,205.789 119.528,190.385 z" id="boundary" inkscape:connector-curvature="0" />
	<path style="fill:none;stroke:red;stroke-width:1px;stroke-linecap:butt;stroke-linejoin:miter;stroke-opacity:1" d="M 119.528,174.981 119.528,159.578 z" id="boundary" inkscape:connector-curvature="0" />
	<path style="fill:none;stroke:red;stroke-width:1px;stroke-linecap:butt;stroke-linejoin:miter;stroke-opacity:1" d="M 111.826,252 111.826,236.596 z" id="boundary" inkscape:connector-curvature="0" />
	<path style="fill:none;stroke:red;stroke-width:1px;stroke-linecap:butt;stroke-linejoin:miter;stroke-opacity:1" d="M 4,275.106 4,259.702 z" id="boundary" inkscape:connector-curvature="0" />
	<path style="fill:none;stroke:red;stroke-width:1px;stroke-linecap:butt;stroke-linejoin:miter;stroke-opacity:1" d="M 4,259.702 16.323,247.379 z" id="boundary" inkscape:connector-curvature="0" />
	<path style="fill:none;stroke:red;stroke-width:1px;stroke-linecap:butt;stroke-linejoin:miter;stroke-opacity:1" d="M 82.559,267.404 82.559,252 z" id="boundary" inkscape:connector-curvature="0" />
	<path style="fill:none;stroke:red;stroke-width:1px;stroke-linecap:butt;stroke-linejoin:miter;stroke-opacity:1" d="M 4,275.106 11.7019,288.969 z" id="boundary" inkscape:connector-curvature="0" />
	<path style="fill:none;stroke:red;stroke-width:1px;stroke-linecap:butt;stroke-linejoin:miter;stroke-opacity:1" d="M 11.7019,288.969 11.7019,304.373 z" id="boundary" inkscape:connector-curvature="0" />
	<path style="fill:none;stroke:red;stroke-width:1px;stroke-linecap:butt;stroke-linejoin:miter;stroke-opacity:1" d="M 11.7019,304.373 11.7019,319.776 z" id="boundary" inkscape:connector-curvature="0" />
	<path style="fill:none;stroke:red;stroke-width:1px;stroke-linecap:butt;stroke-linejoin:miter;stroke-opacity:1" d="M 11.7019,335.18 11.7019,319.776 z" id="boundary" inkscape:connector-curvature="0" />
	<path style="fill:none;stroke:red;stroke-width:1px;stroke-linecap:butt;stroke-linejoin:miter;stroke-opacity:1" d="M 11.7019,335.18 11.7019,350.584 z" id="boundary" inkscape:connector-curvature="0" />
	<path style="fill:none;stroke:red;stroke-width:1px;stroke-linecap:butt;stroke-linejoin:miter;stroke-opacity:1" d="M 82.559,267.404 82.559,282.807 z" id="boundary" inkscape:connector-curvature="0" />
	<path style="fill:none;stroke:red;stroke-width:1px;stroke-linecap:butt;stroke-linejoin:miter;stroke-opacity:1" d="M 82.559,282.807 82.559,298.211 z" id="boundary" inkscape:connector-curvature="0" />
	<path style="fill:none;stroke:red;stroke-width:1px;stroke-linecap:butt;stroke-linejoin:miter;stroke-opacity:1" d="M 104.124,298.211 82.559,298.211 z" id="boundary" inkscape:connector-curvature="0" />
	<path style="fill:none;stroke:red;stroke-width:1px;stroke-linecap:butt;stroke-linejoin:miter;stroke-opacity:1" d="M 111.826,267.404 111.826,252 z" id="boundary" inkscape:connector-curvature="0" />
	<path style="fill:none;stroke:red;stroke-width:1px;stroke-linecap:butt;stroke-linejoin:miter;stroke-opacity:1" d="M 111.826,282.807 111.826,267.404 z" id="boundary" inkscape:connector-curvature="0" />
	<path style="fill:none;stroke:red;stroke-width:1px;stroke-linecap:butt;stroke-linejoin:miter;stroke-opacity:1" d="M 111.826,282.807 104.124,298.211 z" id="boundary" inkscape:connector-curvature="0" />
	<path style="fill:none;stroke:red;stroke-width:1px;stroke-linecap:butt;stroke-linejoin:miter;stroke-opacity:1" d="M 82.559,313.615 82.559,329.019 z" id="boundary" inkscape:connector-curvature="0" />
	<path style="fill:none;stroke:red;stroke-width:1px;stroke-linecap:butt;stroke-linejoin:miter;stroke-opacity:1" d="M 82.559,313.615 104.124,313.615 z" id="boundary" inkscape:connector-curvature="0" />
	<path style="fill:none;stroke:red;stroke-width:1px;stroke-linecap:butt;stroke-linejoin:miter;stroke-opacity:1" d="M 111.826,327.478 104.124,313.615 z" id="boundary" inkscape:connector-curvature="0" />
	<path style="fill:none;stroke:red;stroke-width:1px;stroke-linecap:butt;stroke-linejoin:miter;stroke-opacity:1" d="M 104.124,313.615 104.124,298.211 z" id="boundary" inkscape:connector-curvature="0" />
	<path style="fill:none;stroke:red;stroke-width:1px;stroke-linecap:butt;stroke-linejoin:miter;stroke-opacity:1" d="M 82.559,313.615 82.559,298.211 z" id="boundary" inkscape:connector-curvature="0" />
	<path style="fill:none;stroke:red;stroke-width:1px;stroke-linecap:butt;stroke-linejoin:miter;stroke-opacity:1" d="M 82.559,329.019 82.559,344.422 z" id="boundary" inkscape:connector-curvature="0" />
	<path style="fill:none;stroke:red;stroke-width:1px;stroke-linecap:butt;stroke-linejoin:miter;stroke-opacity:1" d="M 111.826,327.478 111.826,342.882 z" id="boundary" inkscape:connector-curvature="0" />
	<path style="fill:none;stroke:red;stroke-width:1px;stroke-linecap:butt;stroke-linejoin:miter;stroke-opacity:1" d="M 178.062,70.236 188.845,82.559 z" id="boundary" inkscape:connector-curvature="0" />
	<path style="fill:none;stroke:red;stroke-width:1px;stroke-linecap:butt;stroke-linejoin:miter;stroke-opacity:1" d="M 178.062,70.236 164.199,62.5342 z" id="boundary" inkscape:connector-curvature="0" />
	<path style="fill:none;stroke:red;stroke-width:1px;stroke-linecap:butt;stroke-linejoin:miter;stroke-opacity:1" d="M 188.845,82.559 196.547,96.4224 z" id="boundary" inkscape:connector-curvature="0" />
	<path style="fill:none;stroke:red;stroke-width:1px;stroke-linecap:butt;stroke-linejoin:miter;stroke-opacity:1" d="M 196.547,96.4224 198.087,111.826 z" id="boundary" inkscape:connector-curvature="0" />
	<path style="fill:none;stroke:red;stroke-width:1px;stroke-linecap:butt;stroke-linejoin:miter;stroke-opacity:1" d="M 198.087,111.826 198.087,127.23 z" id="boundary" inkscape:connector-curvature="0" />
	<path style="fill:none;stroke:red;stroke-width:1px;stroke-linecap:butt;stroke-linejoin:miter;stroke-opacity:1" d="M 198.087,142.634 198.087,158.037 z" id="boundary" inkscape:connector-curvature="0" />
	<path style="fill:none;stroke:red;stroke-width:1px;stroke-linecap:butt;stroke-linejoin:miter;stroke-opacity:1" d="M 198.087,173.441 198.087,158.037 z" id="boundary" inkscape:connector-curvature="0" />
	<path style="fill:none;stroke:red;stroke-width:1px;stroke-linecap:butt;stroke-linejoin:miter;stroke-opacity:1" d="M 198.087,142.634 198.087,127.23 z" id="boundary" inkscape:connector-curvature="0" />
	<path style="fill:none;stroke:red;stroke-width:1px;stroke-linecap:butt;stroke-linejoin:miter;stroke-opacity:1" d="M 198.087,173.441 190.385,195.006 z" id="boundary" inkscape:connector-curvature="0" />
	<path style="fill:none;stroke:red;stroke-width:1px;stroke-linecap:butt;stroke-linejoin:miter;stroke-opacity:1" d="M 250.46,67.1553 250.46,82.559 z" id="boundary" inkscape:connector-curvature="0" />
	<path style="fill:none;stroke:red;stroke-width:1px;stroke-linecap:butt;stroke-linejoin:miter;stroke-opacity:1" d="M 250.46,97.9627 250.46,113.366 z" id="boundary" inkscape:connector-curvature="0" />
	<path style="fill:none;stroke:red;stroke-width:1px;stroke-linecap:butt;stroke-linejoin:miter;stroke-opacity:1" d="M 250.46,128.77 250.46,113.366 z" id="boundary" inkscape:connector-curvature="0" />
	<path style="fill:none;stroke:red;stroke-width:1px;stroke-linecap:butt;stroke-linejoin:miter;stroke-opacity:1" d="M 250.46,97.9627 250.46,82.559 z" id="boundary" inkscape:connector-curvature="0" />
	<path style="fill:none;stroke:red;stroke-width:1px;stroke-linecap:butt;stroke-linejoin:miter;stroke-opacity:1" d="M 242.758,159.578 242.758,174.981 z" id="boundary" inkscape:connector-curvature="0" />
	<path style="fill:none;stroke:red;stroke-width:1px;stroke-linecap:butt;stroke-linejoin:miter;stroke-opacity:1" d="M 242.758,159.578 250.46,144.174 z" id="boundary" inkscape:connector-curvature="0" />
	<path style="fill:none;stroke:red;stroke-width:1px;stroke-linecap:butt;stroke-linejoin:miter;stroke-opacity:1" d="M 242.758,190.385 242.758,174.981 z" id="boundary" inkscape:connector-curvature="0" />
	<path style="fill:none;stroke:red;stroke-width:1px;stroke-linecap:butt;stroke-linejoin:miter;stroke-opacity:1" d="M 227.354,352.124 227.354,336.72 z" id="boundary" inkscape:connector-curvature="0" />
	<path style="fill:none;stroke:red;stroke-width:1px;stroke-linecap:butt;stroke-linejoin:miter;stroke-opacity:1" d="M 250.46,128.77 250.46,144.174 z" id="boundary" inkscape:connector-curvature="0" />
	<path style="fill:none;stroke:red;stroke-width:1px;stroke-linecap:butt;stroke-linejoin:miter;stroke-opacity:1" d="M 250.46,51.7516 250.46,67.1553 z" id="boundary" inkscape:connector-curvature="0" />
	<path style="fill:none;stroke:red;stroke-width:1px;stroke-linecap:butt;stroke-linejoin:miter;stroke-opacity:1" d="M 262.783,39.4286 250.46,51.7516 z" id="boundary" inkscape:connector-curvature="0" />
	<path style="fill:none;stroke:red;stroke-width:1px;stroke-linecap:butt;stroke-linejoin:miter;stroke-opacity:1" d="M 190.385,195.006 190.385,210.41 z" id="boundary" inkscape:connector-curvature="0" />
	<path style="fill:none;stroke:red;stroke-width:1px;stroke-linecap:butt;stroke-linejoin:miter;stroke-opacity:1" d="M 190.385,225.814 190.385,210.41 z" id="boundary" inkscape:connector-curvature="0" />
	<path style="fill:none;stroke:red;stroke-width:1px;stroke-linecap:butt;stroke-linejoin:miter;stroke-opacity:1" d="M 190.385,225.814 190.385,241.217 z" id="boundary" inkscape:connector-curvature="0" />
	<path style="fill:none;stroke:red;stroke-width:1px;stroke-linecap:butt;stroke-linejoin:miter;stroke-opacity:1" d="M 190.385,256.621 190.385,241.217 z" id="boundary" inkscape:connector-curvature="0" />
	<path style="fill:none;stroke:red;stroke-width:1px;stroke-linecap:butt;stroke-linejoin:miter;stroke-opacity:1" d="M 190.385,256.621 190.385,272.025 z" id="boundary" inkscape:connector-curvature="0" />
	<path style="fill:none;stroke:red;stroke-width:1px;stroke-linecap:butt;stroke-linejoin:miter;stroke-opacity:1" d="M 190.385,287.429 190.385,272.025 z" id="boundary" inkscape:connector-curvature="0" />
	<path style="fill:none;stroke:red;stroke-width:1px;stroke-linecap:butt;stroke-linejoin:miter;stroke-opacity:1" d="M 198.087,316.696 190.385,302.832 z" id="boundary" inkscape:connector-curvature="0" />
	<path style="fill:none;stroke:red;stroke-width:1px;stroke-linecap:butt;stroke-linejoin:miter;stroke-opacity:1" d="M 190.385,302.832 190.385,287.429 z" id="boundary" inkscape:connector-curvature="0" />
	<path style="fill:none;stroke:red;stroke-width:1px;stroke-linecap:butt;stroke-linejoin:miter;stroke-opacity:1" d="M 198.087,316.696 198.087,332.099 z" id="boundary" inkscape:connector-curvature="0" />
	<path style="fill:none;stroke:red;stroke-width:1px;stroke-linecap:butt;stroke-linejoin:miter;stroke-opacity:1" d="M 227.354,259.702 227.354,275.106 z" id="boundary" inkscape:connector-curvature="0" />
	<path style="fill:none;stroke:red;stroke-width:1px;stroke-linecap:butt;stroke-linejoin:miter;stroke-opacity:1" d="M 227.354,259.702 227.354,244.298 z" id="boundary" inkscape:connector-curvature="0" />
	<path style="fill:none;stroke:red;stroke-width:1px;stroke-linecap:butt;stroke-linejoin:miter;stroke-opacity:1" d="M 227.354,244.298 235.056,228.894 z" id="boundary" inkscape:connector-curvature="0" />
	<path style="fill:none;stroke:red;stroke-width:1px;stroke-linecap:butt;stroke-linejoin:miter;stroke-opacity:1" d="M 235.056,228.894 235.056,213.491 z" id="boundary" inkscape:connector-curvature="0" />
	<path style="fill:none;stroke:red;stroke-width:1px;stroke-linecap:butt;stroke-linejoin:miter;stroke-opacity:1" d="M 227.354,290.509 227.354,275.106 z" id="boundary" inkscape:connector-curvature="0" />
	<path style="fill:none;stroke:red;stroke-width:1px;stroke-linecap:butt;stroke-linejoin:miter;stroke-opacity:1" d="M 227.354,305.913 227.354,321.317 z" id="boundary" inkscape:connector-curvature="0" />
	<path style="fill:none;stroke:red;stroke-width:1px;stroke-linecap:butt;stroke-linejoin:miter;stroke-opacity:1" d="M 227.354,290.509 227.354,305.913 z" id="boundary" inkscape:connector-curvature="0" />
	<path style="fill:none;stroke:red;stroke-width:1px;stroke-linecap:butt;stroke-linejoin:miter;stroke-opacity:1" d="M 227.354,321.317 227.354,336.72 z" id="boundary" inkscape:connector-curvature="0" />
	<path style="fill:none;stroke:red;stroke-width:1px;stroke-linecap:butt;stroke-linejoin:miter;stroke-opacity:1" d="M 242.758,190.385 235.056,213.491 z" id="boundary" inkscape:connector-curvature="0" />
	<path style="fill:none;stroke:red;stroke-width:1px;stroke-linecap:butt;stroke-linejoin:miter;stroke-opacity:1" d="M 151.876,73.3168 164.199,62.5342 z" id="boundary" inkscape:connector-curvature="0" />
	<path style="fill:none;stroke:red;stroke-width:1px;stroke-linecap:butt;stroke-linejoin:miter;stroke-opacity:1" d="M 198.087,347.503 198.087,332.099 z" id="boundary" inkscape:connector-curvature="0" />
	<path style="fill:none;stroke:red;stroke-width:1px;stroke-linecap:butt;stroke-linejoin:miter;stroke-opacity:1" d="M 11.7019,350.584 19.4037,364.447 z" id="boundary" inkscape:connector-curvature="0" />
	<path style="fill:none;stroke:red;stroke-width:1px;stroke-linecap:butt;stroke-linejoin:miter;stroke-opacity:1" d="M 19.4037,364.447 19.4037,379.851 z" id="boundary" inkscape:connector-curvature="0" />
	<path style="fill:none;stroke:red;stroke-width:1px;stroke-linecap:butt;stroke-linejoin:miter;stroke-opacity:1" d="M 19.4037,379.851 19.4037,395.255 z" id="boundary" inkscape:connector-curvature="0" />
	<path style="fill:none;stroke:red;stroke-width:1px;stroke-linecap:butt;stroke-linejoin:miter;stroke-opacity:1" d="M 19.4037,410.658 19.4037,395.255 z" id="boundary" inkscape:connector-curvature="0" />
	<path style="fill:none;stroke:red;stroke-width:1px;stroke-linecap:butt;stroke-linejoin:miter;stroke-opacity:1" d="M 19.4037,410.658 19.4037,426.062 z" id="boundary" inkscape:connector-curvature="0" />
	<path style="fill:none;stroke:red;stroke-width:1px;stroke-linecap:butt;stroke-linejoin:miter;stroke-opacity:1" d="M 24.0248,441.466 19.4037,426.062 z" id="boundary" inkscape:connector-curvature="0" />
	<path style="fill:none;stroke:red;stroke-width:1px;stroke-linecap:butt;stroke-linejoin:miter;stroke-opacity:1" d="M 34.8075,470.733 27.1056,456.87 z" id="boundary" inkscape:connector-curvature="0" />
	<path style="fill:none;stroke:red;stroke-width:1px;stroke-linecap:butt;stroke-linejoin:miter;stroke-opacity:1" d="M 27.1056,456.87 24.0248,441.466 z" id="boundary" inkscape:connector-curvature="0" />
	<path style="fill:none;stroke:red;stroke-width:1px;stroke-linecap:butt;stroke-linejoin:miter;stroke-opacity:1" d="M 34.8075,470.733 34.8075,486.137 z" id="boundary" inkscape:connector-curvature="0" />
	<path style="fill:none;stroke:red;stroke-width:1px;stroke-linecap:butt;stroke-linejoin:miter;stroke-opacity:1" d="M 34.8075,486.137 34.8075,501.54 z" id="boundary" inkscape:connector-curvature="0" />
	<path style="fill:none;stroke:red;stroke-width:1px;stroke-linecap:butt;stroke-linejoin:miter;stroke-opacity:1" d="M 34.8075,516.944 34.8075,501.54 z" id="boundary" inkscape:connector-curvature="0" />
	<path style="fill:none;stroke:red;stroke-width:1px;stroke-linecap:butt;stroke-linejoin:miter;stroke-opacity:1" d="M 34.8075,516.944 34.8075,532.348 z" id="boundary" inkscape:connector-curvature="0" />
	<path style="fill:none;stroke:red;stroke-width:1px;stroke-linecap:butt;stroke-linejoin:miter;stroke-opacity:1" d="M 34.8075,547.752 34.8075,532.348 z" id="boundary" inkscape:connector-curvature="0" />
	<path style="fill:none;stroke:red;stroke-width:1px;stroke-linecap:butt;stroke-linejoin:miter;stroke-opacity:1" d="M 34.8075,547.752 34.8075,563.155 z" id="boundary" inkscape:connector-curvature="0" />
	<path style="fill:none;stroke:red;stroke-width:1px;stroke-linecap:butt;stroke-linejoin:miter;stroke-opacity:1" d="M 34.8075,578.559 42.5093,592.422 z" id="boundary" inkscape:connector-curvature="0" />
	<path style="fill:none;stroke:red;stroke-width:1px;stroke-linecap:butt;stroke-linejoin:miter;stroke-opacity:1" d="M 42.5093,592.422 42.5093,607.826 z" id="boundary" inkscape:connector-curvature="0" />
	<path style="fill:none;stroke:red;stroke-width:1px;stroke-linecap:butt;stroke-linejoin:miter;stroke-opacity:1" d="M 34.8075,578.559 34.8075,563.155 z" id="boundary" inkscape:connector-curvature="0" />
	<path style="fill:none;stroke:red;stroke-width:1px;stroke-linecap:butt;stroke-linejoin:miter;stroke-opacity:1" d="M 42.5093,607.826 42.5093,623.23 z" id="boundary" inkscape:connector-curvature="0" />
	<path style="fill:none;stroke:red;stroke-width:1px;stroke-linecap:butt;stroke-linejoin:miter;stroke-opacity:1" d="M 42.5093,623.23 42.5093,638.634 z" id="boundary" inkscape:connector-curvature="0" />
	<path style="fill:none;stroke:red;stroke-width:1px;stroke-linecap:butt;stroke-linejoin:miter;stroke-opacity:1" d="M 42.5093,654.037 50.2112,667.901 z" id="boundary" inkscape:connector-curvature="0" />
	<path style="fill:none;stroke:red;stroke-width:1px;stroke-linecap:butt;stroke-linejoin:miter;stroke-opacity:1" d="M 50.2112,667.901 50.2112,683.304 z" id="boundary" inkscape:connector-curvature="0" />
	<path style="fill:none;stroke:red;stroke-width:1px;stroke-linecap:butt;stroke-linejoin:miter;stroke-opacity:1" d="M 42.5093,654.037 42.5093,638.634 z" id="boundary" inkscape:connector-curvature="0" />
	<path style="fill:none;stroke:red;stroke-width:1px;stroke-linecap:butt;stroke-linejoin:miter;stroke-opacity:1" d="M 50.2112,683.304 50.2112,698.708 z" id="boundary" inkscape:connector-curvature="0" />
	<path style="fill:none;stroke:red;stroke-width:1px;stroke-linecap:butt;stroke-linejoin:miter;stroke-opacity:1" d="M 57.913,743.379 50.2112,729.516 z" id="boundary" inkscape:connector-curvature="0" />
	<path style="fill:none;stroke:red;stroke-width:1px;stroke-linecap:butt;stroke-linejoin:miter;stroke-opacity:1" d="M 50.2112,729.516 50.2112,714.112 z" id="boundary" inkscape:connector-curvature="0" />
	<path style="fill:none;stroke:red;stroke-width:1px;stroke-linecap:butt;stroke-linejoin:miter;stroke-opacity:1" d="M 50.2112,714.112 50.2112,698.708 z" id="boundary" inkscape:connector-curvature="0" />
	<path style="fill:none;stroke:red;stroke-width:1px;stroke-linecap:butt;stroke-linejoin:miter;stroke-opacity:1" d="M 57.913,743.379 57.913,758.783 z" id="boundary" inkscape:connector-curvature="0" />
	<path style="fill:none;stroke:red;stroke-width:1px;stroke-linecap:butt;stroke-linejoin:miter;stroke-opacity:1" d="M 57.913,758.783 57.913,774.186 z" id="boundary" inkscape:connector-curvature="0" />
	<path style="fill:none;stroke:red;stroke-width:1px;stroke-linecap:butt;stroke-linejoin:miter;stroke-opacity:1" d="M 65.6149,818.857 57.913,804.994 z" id="boundary" inkscape:connector-curvature="0" />
	<path style="fill:none;stroke:red;stroke-width:1px;stroke-linecap:butt;stroke-linejoin:miter;stroke-opacity:1" d="M 57.913,804.994 57.913,789.59 z" id="boundary" inkscape:connector-curvature="0" />
	<path style="fill:none;stroke:red;stroke-width:1px;stroke-linecap:butt;stroke-linejoin:miter;stroke-opacity:1" d="M 57.913,789.59 57.913,774.186 z" id="boundary" inkscape:connector-curvature="0" />
	<path style="fill:none;stroke:red;stroke-width:1px;stroke-linecap:butt;stroke-linejoin:miter;stroke-opacity:1" d="M 65.6149,818.857 65.6149,834.261 z" id="boundary" inkscape:connector-curvature="0" />
	<path style="fill:none;stroke:red;stroke-width:1px;stroke-linecap:butt;stroke-linejoin:miter;stroke-opacity:1" d="M 57.913,975.975 57.913,991.379 z" id="boundary" inkscape:connector-curvature="0" />
	<path style="fill:none;stroke:red;stroke-width:1px;stroke-linecap:butt;stroke-linejoin:miter;stroke-opacity:1" d="M 73.3168,996 57.913,991.379 z" id="boundary" inkscape:connector-curvature="0" />
	<path style="fill:none;stroke:red;stroke-width:1px;stroke-linecap:butt;stroke-linejoin:miter;stroke-opacity:1" d="M 73.3168,848.124 65.6149,834.261 z" id="boundary" inkscape:connector-curvature="0" />
	<path style="fill:none;stroke:red;stroke-width:1px;stroke-linecap:butt;stroke-linejoin:miter;stroke-opacity:1" d="M 73.3168,848.124 73.3168,863.528 z" id="boundary" inkscape:connector-curvature="0" />
	<path style="fill:none;stroke:red;stroke-width:1px;stroke-linecap:butt;stroke-linejoin:miter;stroke-opacity:1" d="M 73.3168,937.466 65.6149,960.571 z" id="boundary" inkscape:connector-curvature="0" />
	<path style="fill:none;stroke:red;stroke-width:1px;stroke-linecap:butt;stroke-linejoin:miter;stroke-opacity:1" d="M 65.6149,960.571 57.913,975.975 z" id="boundary" inkscape:connector-curvature="0" />
	<path style="fill:none;stroke:red;stroke-width:1px;stroke-linecap:butt;stroke-linejoin:miter;stroke-opacity:1" d="M 272.025,988.298 256.621,988.298 z" id="boundary" inkscape:connector-curvature="0" />
	<path style="fill:none;stroke:red;stroke-width:1px;stroke-linecap:butt;stroke-linejoin:miter;stroke-opacity:1" d="M 82.559,359.826 82.559,344.422 z" id="boundary" inkscape:connector-curvature="0" />
	<path style="fill:none;stroke:red;stroke-width:1px;stroke-linecap:butt;stroke-linejoin:miter;stroke-opacity:1" d="M 90.2609,389.093 90.2609,373.689 z" id="boundary" inkscape:connector-curvature="0" />
	<path style="fill:none;stroke:red;stroke-width:1px;stroke-linecap:butt;stroke-linejoin:miter;stroke-opacity:1" d="M 90.2609,373.689 111.826,373.689 z" id="boundary" inkscape:connector-curvature="0" />
	<path style="fill:none;stroke:red;stroke-width:1px;stroke-linecap:butt;stroke-linejoin:miter;stroke-opacity:1" d="M 90.2609,373.689 82.559,359.826 z" id="boundary" inkscape:connector-curvature="0" />
	<path style="fill:none;stroke:red;stroke-width:1px;stroke-linecap:butt;stroke-linejoin:miter;stroke-opacity:1" d="M 94.882,404.497 97.9627,419.901 z" id="boundary" inkscape:connector-curvature="0" />
	<path style="fill:none;stroke:red;stroke-width:1px;stroke-linecap:butt;stroke-linejoin:miter;stroke-opacity:1" d="M 94.882,404.497 90.2609,389.093 z" id="boundary" inkscape:connector-curvature="0" />
	<path style="fill:none;stroke:red;stroke-width:1px;stroke-linecap:butt;stroke-linejoin:miter;stroke-opacity:1" d="M 107.205,447.627 97.9627,435.304 z" id="boundary" inkscape:connector-curvature="0" />
	<path style="fill:none;stroke:red;stroke-width:1px;stroke-linecap:butt;stroke-linejoin:miter;stroke-opacity:1" d="M 107.205,447.627 113.366,463.031 z" id="boundary" inkscape:connector-curvature="0" />
	<path style="fill:none;stroke:red;stroke-width:1px;stroke-linecap:butt;stroke-linejoin:miter;stroke-opacity:1" d="M 97.9627,419.901 97.9627,435.304 z" id="boundary" inkscape:connector-curvature="0" />
	<path style="fill:none;stroke:red;stroke-width:1px;stroke-linecap:butt;stroke-linejoin:miter;stroke-opacity:1" d="M 111.826,342.882 111.826,358.286 z" id="boundary" inkscape:connector-curvature="0" />
	<path style="fill:none;stroke:red;stroke-width:1px;stroke-linecap:butt;stroke-linejoin:miter;stroke-opacity:1" d="M 210.41,356.745 227.354,352.124 z" id="boundary" inkscape:connector-curvature="0" />
	<path style="fill:none;stroke:red;stroke-width:1px;stroke-linecap:butt;stroke-linejoin:miter;stroke-opacity:1" d="M 218.112,370.609 210.41,356.745 z" id="boundary" inkscape:connector-curvature="0" />
	<path style="fill:none;stroke:red;stroke-width:1px;stroke-linecap:butt;stroke-linejoin:miter;stroke-opacity:1" d="M 210.41,356.745 198.087,347.503 z" id="boundary" inkscape:connector-curvature="0" />
	<path style="fill:none;stroke:red;stroke-width:1px;stroke-linecap:butt;stroke-linejoin:miter;stroke-opacity:1" d="M 119.528,387.553 119.528,402.957 z" id="boundary" inkscape:connector-curvature="0" />
	<path style="fill:none;stroke:red;stroke-width:1px;stroke-linecap:butt;stroke-linejoin:miter;stroke-opacity:1" d="M 119.528,387.553 111.826,373.689 z" id="boundary" inkscape:connector-curvature="0" />
	<path style="fill:none;stroke:red;stroke-width:1px;stroke-linecap:butt;stroke-linejoin:miter;stroke-opacity:1" d="M 111.826,373.689 111.826,358.286 z" id="boundary" inkscape:connector-curvature="0" />
	<path style="fill:none;stroke:red;stroke-width:1px;stroke-linecap:butt;stroke-linejoin:miter;stroke-opacity:1" d="M 119.528,402.957 119.528,418.36 z" id="boundary" inkscape:connector-curvature="0" />
	<path style="fill:none;stroke:red;stroke-width:1px;stroke-linecap:butt;stroke-linejoin:miter;stroke-opacity:1" d="M 119.528,433.764 119.528,418.36 z" id="boundary" inkscape:connector-curvature="0" />
	<path style="fill:none;stroke:red;stroke-width:1px;stroke-linecap:butt;stroke-linejoin:miter;stroke-opacity:1" d="M 73.3168,863.528 76.3975,878.932 z" id="boundary" inkscape:connector-curvature="0" />
	<path style="fill:none;stroke:red;stroke-width:1px;stroke-linecap:butt;stroke-linejoin:miter;stroke-opacity:1" d="M 81.0186,894.335 76.3975,878.932 z" id="boundary" inkscape:connector-curvature="0" />
	<path style="fill:none;stroke:red;stroke-width:1px;stroke-linecap:butt;stroke-linejoin:miter;stroke-opacity:1" d="M 81.0186,909.739 81.0186,894.335 z" id="boundary" inkscape:connector-curvature="0" />
	<path style="fill:none;stroke:red;stroke-width:1px;stroke-linecap:butt;stroke-linejoin:miter;stroke-opacity:1" d="M 88.7205,996 73.3168,996 z" id="boundary" inkscape:connector-curvature="0" />
	<path style="fill:none;stroke:red;stroke-width:1px;stroke-linecap:butt;stroke-linejoin:miter;stroke-opacity:1" d="M 104.124,996 88.7205,996 z" id="boundary" inkscape:connector-curvature="0" />
	<path style="fill:none;stroke:red;stroke-width:1px;stroke-linecap:butt;stroke-linejoin:miter;stroke-opacity:1" d="M 73.3168,937.466 81.0186,909.739 z" id="boundary" inkscape:connector-curvature="0" />
	<path style="fill:none;stroke:red;stroke-width:1px;stroke-linecap:butt;stroke-linejoin:miter;stroke-opacity:1" d="M 119.528,996 104.124,996 z" id="boundary" inkscape:connector-curvature="0" />
	<path style="fill:none;stroke:red;stroke-width:1px;stroke-linecap:butt;stroke-linejoin:miter;stroke-opacity:1" d="M 256.621,988.298 241.217,988.298 z" id="boundary" inkscape:connector-curvature="0" />
	<path style="fill:none;stroke:red;stroke-width:1px;stroke-linecap:butt;stroke-linejoin:miter;stroke-opacity:1" d="M 134.932,996 119.528,996 z" id="boundary" inkscape:connector-curvature="0" />
	<path style="fill:none;stroke:red;stroke-width:1px;stroke-linecap:butt;stroke-linejoin:miter;stroke-opacity:1" d="M 150.335,996 134.932,996 z" id="boundary" inkscape:connector-curvature="0" />
	<path style="fill:none;stroke:red;stroke-width:1px;stroke-linecap:butt;stroke-linejoin:miter;stroke-opacity:1" d="M 241.217,988.298 225.814,988.298 z" id="boundary" inkscape:connector-curvature="0" />
	<path style="fill:none;stroke:red;stroke-width:1px;stroke-linecap:butt;stroke-linejoin:miter;stroke-opacity:1" d="M 211.95,996 225.814,988.298 z" id="boundary" inkscape:connector-curvature="0" />
	<path style="fill:none;stroke:red;stroke-width:1px;stroke-linecap:butt;stroke-linejoin:miter;stroke-opacity:1" d="M 165.739,996 150.335,996 z" id="boundary" inkscape:connector-curvature="0" />
	<path style="fill:none;stroke:red;stroke-width:1px;stroke-linecap:butt;stroke-linejoin:miter;stroke-opacity:1" d="M 196.547,996 181.143,996 z" id="boundary" inkscape:connector-curvature="0" />
	<path style="fill:none;stroke:red;stroke-width:1px;stroke-linecap:butt;stroke-linejoin:miter;stroke-opacity:1" d="M 211.95,996 196.547,996 z" id="boundary" inkscape:connector-curvature="0" />
	<path style="fill:none;stroke:red;stroke-width:1px;stroke-linecap:butt;stroke-linejoin:miter;stroke-opacity:1" d="M 181.143,996 165.739,996 z" id="boundary" inkscape:connector-curvature="0" />
	<path style="fill:none;stroke:red;stroke-width:1px;stroke-linecap:butt;stroke-linejoin:miter;stroke-opacity:1" d="M 287.429,16.323 298.211,4 z" id="boundary" inkscape:connector-curvature="0" />
	<path style="fill:none;stroke:red;stroke-width:1px;stroke-linecap:butt;stroke-linejoin:miter;stroke-opacity:1" d="M 298.211,4 312.075,11.7019 z" id="boundary" inkscape:connector-curvature="0" />
	<path style="fill:none;stroke:red;stroke-width:1px;stroke-linecap:butt;stroke-linejoin:miter;stroke-opacity:1" d="M 287.429,16.323 275.106,27.1056 z" id="boundary" inkscape:connector-curvature="0" />
	<path style="fill:none;stroke:red;stroke-width:1px;stroke-linecap:butt;stroke-linejoin:miter;stroke-opacity:1" d="M 312.075,11.7019 321.317,24.0248 z" id="boundary" inkscape:connector-curvature="0" />
	<path style="fill:none;stroke:red;stroke-width:1px;stroke-linecap:butt;stroke-linejoin:miter;stroke-opacity:1" d="M 262.783,39.4286 275.106,27.1056 z" id="boundary" inkscape:connector-curvature="0" />
	<path style="fill:none;stroke:red;stroke-width:1px;stroke-linecap:butt;stroke-linejoin:miter;stroke-opacity:1" d="M 336.72,67.1553 329.019,94.882 z" id="boundary" inkscape:connector-curvature="0" />
	<path style="fill:none;stroke:red;stroke-width:1px;stroke-linecap:butt;stroke-linejoin:miter;stroke-opacity:1" d="M 329.019,110.286 329.019,94.882 z" id="boundary" inkscape:connector-curvature="0" />
	<path style="fill:none;stroke:red;stroke-width:1px;stroke-linecap:butt;stroke-linejoin:miter;stroke-opacity:1" d="M 321.317,24.0248 329.019,37.8882 z" id="boundary" inkscape:connector-curvature="0" />
	<path style="fill:none;stroke:red;stroke-width:1px;stroke-linecap:butt;stroke-linejoin:miter;stroke-opacity:1" d="M 329.019,110.286 329.019,125.689 z" id="boundary" inkscape:connector-curvature="0" />
	<path style="fill:none;stroke:red;stroke-width:1px;stroke-linecap:butt;stroke-linejoin:miter;stroke-opacity:1" d="M 365.988,90.2609 358.286,113.366 z" id="boundary" inkscape:connector-curvature="0" />
	<path style="fill:none;stroke:red;stroke-width:1px;stroke-linecap:butt;stroke-linejoin:miter;stroke-opacity:1" d="M 329.019,37.8882 336.72,51.7516 z" id="boundary" inkscape:connector-curvature="0" />
	<path style="fill:none;stroke:red;stroke-width:1px;stroke-linecap:butt;stroke-linejoin:miter;stroke-opacity:1" d="M 336.72,51.7516 336.72,67.1553 z" id="boundary" inkscape:connector-curvature="0" />
	<path style="fill:none;stroke:red;stroke-width:1px;stroke-linecap:butt;stroke-linejoin:miter;stroke-opacity:1" d="M 365.988,74.8571 336.72,67.1553 z" id="boundary" inkscape:connector-curvature="0" />
	<path style="fill:none;stroke:red;stroke-width:1px;stroke-linecap:butt;stroke-linejoin:miter;stroke-opacity:1" d="M 329.019,141.093 329.019,125.689 z" id="boundary" inkscape:connector-curvature="0" />
	<path style="fill:none;stroke:red;stroke-width:1px;stroke-linecap:butt;stroke-linejoin:miter;stroke-opacity:1" d="M 329.019,141.093 329.019,156.497 z" id="boundary" inkscape:connector-curvature="0" />
	<path style="fill:none;stroke:red;stroke-width:1px;stroke-linecap:butt;stroke-linejoin:miter;stroke-opacity:1" d="M 329.019,171.901 329.019,187.304 z" id="boundary" inkscape:connector-curvature="0" />
	<path style="fill:none;stroke:red;stroke-width:1px;stroke-linecap:butt;stroke-linejoin:miter;stroke-opacity:1" d="M 329.019,202.708 329.019,187.304 z" id="boundary" inkscape:connector-curvature="0" />
	<path style="fill:none;stroke:red;stroke-width:1px;stroke-linecap:butt;stroke-linejoin:miter;stroke-opacity:1" d="M 329.019,171.901 329.019,156.497 z" id="boundary" inkscape:connector-curvature="0" />
	<path style="fill:none;stroke:red;stroke-width:1px;stroke-linecap:butt;stroke-linejoin:miter;stroke-opacity:1" d="M 329.019,218.112 329.019,202.708 z" id="boundary" inkscape:connector-curvature="0" />
	<path style="fill:none;stroke:red;stroke-width:1px;stroke-linecap:butt;stroke-linejoin:miter;stroke-opacity:1" d="M 321.317,241.217 321.317,256.621 z" id="boundary" inkscape:connector-curvature="0" />
	<path style="fill:none;stroke:red;stroke-width:1px;stroke-linecap:butt;stroke-linejoin:miter;stroke-opacity:1" d="M 358.286,252 350.584,275.106 z" id="boundary" inkscape:connector-curvature="0" />
	<path style="fill:none;stroke:red;stroke-width:1px;stroke-linecap:butt;stroke-linejoin:miter;stroke-opacity:1" d="M 321.317,272.025 321.317,287.429 z" id="boundary" inkscape:connector-curvature="0" />
	<path style="fill:none;stroke:red;stroke-width:1px;stroke-linecap:butt;stroke-linejoin:miter;stroke-opacity:1" d="M 321.317,272.025 321.317,256.621 z" id="boundary" inkscape:connector-curvature="0" />
	<path style="fill:none;stroke:red;stroke-width:1px;stroke-linecap:butt;stroke-linejoin:miter;stroke-opacity:1" d="M 321.317,302.832 321.317,318.236 z" id="boundary" inkscape:connector-curvature="0" />
	<path style="fill:none;stroke:red;stroke-width:1px;stroke-linecap:butt;stroke-linejoin:miter;stroke-opacity:1" d="M 321.317,333.64 321.317,349.043 z" id="boundary" inkscape:connector-curvature="0" />
	<path style="fill:none;stroke:red;stroke-width:1px;stroke-linecap:butt;stroke-linejoin:miter;stroke-opacity:1" d="M 321.317,364.447 321.317,349.043 z" id="boundary" inkscape:connector-curvature="0" />
	<path style="fill:none;stroke:red;stroke-width:1px;stroke-linecap:butt;stroke-linejoin:miter;stroke-opacity:1" d="M 321.317,333.64 321.317,318.236 z" id="boundary" inkscape:connector-curvature="0" />
	<path style="fill:none;stroke:red;stroke-width:1px;stroke-linecap:butt;stroke-linejoin:miter;stroke-opacity:1" d="M 321.317,302.832 321.317,287.429 z" id="boundary" inkscape:connector-curvature="0" />
	<path style="fill:none;stroke:red;stroke-width:1px;stroke-linecap:butt;stroke-linejoin:miter;stroke-opacity:1" d="M 350.584,275.106 350.584,290.509 z" id="boundary" inkscape:connector-curvature="0" />
	<path style="fill:none;stroke:red;stroke-width:1px;stroke-linecap:butt;stroke-linejoin:miter;stroke-opacity:1" d="M 321.317,241.217 329.019,218.112 z" id="boundary" inkscape:connector-curvature="0" />
	<path style="fill:none;stroke:red;stroke-width:1px;stroke-linecap:butt;stroke-linejoin:miter;stroke-opacity:1" d="M 350.584,290.509 350.584,305.913 z" id="boundary" inkscape:connector-curvature="0" />
	<path style="fill:none;stroke:red;stroke-width:1px;stroke-linecap:butt;stroke-linejoin:miter;stroke-opacity:1" d="M 350.584,321.317 350.584,305.913 z" id="boundary" inkscape:connector-curvature="0" />
	<path style="fill:none;stroke:red;stroke-width:1px;stroke-linecap:butt;stroke-linejoin:miter;stroke-opacity:1" d="M 350.584,321.317 350.584,336.72 z" id="boundary" inkscape:connector-curvature="0" />
	<path style="fill:none;stroke:red;stroke-width:1px;stroke-linecap:butt;stroke-linejoin:miter;stroke-opacity:1" d="M 329.019,393.714 321.317,379.851 z" id="boundary" inkscape:connector-curvature="0" />
	<path style="fill:none;stroke:red;stroke-width:1px;stroke-linecap:butt;stroke-linejoin:miter;stroke-opacity:1" d="M 321.317,379.851 321.317,364.447 z" id="boundary" inkscape:connector-curvature="0" />
	<path style="fill:none;stroke:red;stroke-width:1px;stroke-linecap:butt;stroke-linejoin:miter;stroke-opacity:1" d="M 350.584,352.124 336.72,373.689 z" id="boundary" inkscape:connector-curvature="0" />
	<path style="fill:none;stroke:red;stroke-width:1px;stroke-linecap:butt;stroke-linejoin:miter;stroke-opacity:1" d="M 350.584,352.124 350.584,336.72 z" id="boundary" inkscape:connector-curvature="0" />
	<path style="fill:none;stroke:red;stroke-width:1px;stroke-linecap:butt;stroke-linejoin:miter;stroke-opacity:1" d="M 358.286,113.366 358.286,128.77 z" id="boundary" inkscape:connector-curvature="0" />
	<path style="fill:none;stroke:red;stroke-width:1px;stroke-linecap:butt;stroke-linejoin:miter;stroke-opacity:1" d="M 365.988,90.2609 365.988,74.8571 z" id="boundary" inkscape:connector-curvature="0" />
	<path style="fill:none;stroke:red;stroke-width:1px;stroke-linecap:butt;stroke-linejoin:miter;stroke-opacity:1" d="M 365.988,74.8571 381.391,59.4534 z" id="boundary" inkscape:connector-curvature="0" />
	<path style="fill:none;stroke:red;stroke-width:1px;stroke-linecap:butt;stroke-linejoin:miter;stroke-opacity:1" d="M 421.441,102.584 424.522,117.988 z" id="boundary" inkscape:connector-curvature="0" />
	<path style="fill:none;stroke:red;stroke-width:1px;stroke-linecap:butt;stroke-linejoin:miter;stroke-opacity:1" d="M 358.286,128.77 358.286,144.174 z" id="boundary" inkscape:connector-curvature="0" />
	<path style="fill:none;stroke:red;stroke-width:1px;stroke-linecap:butt;stroke-linejoin:miter;stroke-opacity:1" d="M 358.286,159.578 358.286,174.981 z" id="boundary" inkscape:connector-curvature="0" />
	<path style="fill:none;stroke:red;stroke-width:1px;stroke-linecap:butt;stroke-linejoin:miter;stroke-opacity:1" d="M 358.286,190.385 358.286,174.981 z" id="boundary" inkscape:connector-curvature="0" />
	<path style="fill:none;stroke:red;stroke-width:1px;stroke-linecap:butt;stroke-linejoin:miter;stroke-opacity:1" d="M 358.286,159.578 358.286,144.174 z" id="boundary" inkscape:connector-curvature="0" />
	<path style="fill:none;stroke:red;stroke-width:1px;stroke-linecap:butt;stroke-linejoin:miter;stroke-opacity:1" d="M 393.714,47.1304 398.335,62.5342 z" id="boundary" inkscape:connector-curvature="0" />
	<path style="fill:none;stroke:red;stroke-width:1px;stroke-linecap:butt;stroke-linejoin:miter;stroke-opacity:1" d="M 406.037,76.3975 398.335,62.5342 z" id="boundary" inkscape:connector-curvature="0" />
	<path style="fill:none;stroke:red;stroke-width:1px;stroke-linecap:butt;stroke-linejoin:miter;stroke-opacity:1" d="M 418.36,87.1801 406.037,76.3975 z" id="boundary" inkscape:connector-curvature="0" />
	<path style="fill:none;stroke:red;stroke-width:1px;stroke-linecap:butt;stroke-linejoin:miter;stroke-opacity:1" d="M 418.36,87.1801 421.441,102.584 z" id="boundary" inkscape:connector-curvature="0" />
	<path style="fill:none;stroke:red;stroke-width:1px;stroke-linecap:butt;stroke-linejoin:miter;stroke-opacity:1" d="M 436.845,128.77 424.522,117.988 z" id="boundary" inkscape:connector-curvature="0" />
	<path style="fill:none;stroke:red;stroke-width:1px;stroke-linecap:butt;stroke-linejoin:miter;stroke-opacity:1" d="M 436.845,128.77 436.845,144.174 z" id="boundary" inkscape:connector-curvature="0" />
	<path style="fill:none;stroke:red;stroke-width:1px;stroke-linecap:butt;stroke-linejoin:miter;stroke-opacity:1" d="M 444.547,188.845 436.845,174.981 z" id="boundary" inkscape:connector-curvature="0" />
	<path style="fill:none;stroke:red;stroke-width:1px;stroke-linecap:butt;stroke-linejoin:miter;stroke-opacity:1" d="M 436.845,174.981 436.845,159.578 z" id="boundary" inkscape:connector-curvature="0" />
	<path style="fill:none;stroke:red;stroke-width:1px;stroke-linecap:butt;stroke-linejoin:miter;stroke-opacity:1" d="M 436.845,159.578 436.845,144.174 z" id="boundary" inkscape:connector-curvature="0" />
	<path style="fill:none;stroke:red;stroke-width:1px;stroke-linecap:butt;stroke-linejoin:miter;stroke-opacity:1" d="M 358.286,205.789 358.286,190.385 z" id="boundary" inkscape:connector-curvature="0" />
	<path style="fill:none;stroke:red;stroke-width:1px;stroke-linecap:butt;stroke-linejoin:miter;stroke-opacity:1" d="M 444.547,188.845 444.547,204.248 z" id="boundary" inkscape:connector-curvature="0" />
	<path style="fill:none;stroke:red;stroke-width:1px;stroke-linecap:butt;stroke-linejoin:miter;stroke-opacity:1" d="M 358.286,205.789 358.286,221.193 z" id="boundary" inkscape:connector-curvature="0" />
	<path style="fill:none;stroke:red;stroke-width:1px;stroke-linecap:butt;stroke-linejoin:miter;stroke-opacity:1" d="M 444.547,204.248 444.547,219.652 z" id="boundary" inkscape:connector-curvature="0" />
	<path style="fill:none;stroke:red;stroke-width:1px;stroke-linecap:butt;stroke-linejoin:miter;stroke-opacity:1" d="M 444.547,219.652 444.547,235.056 z" id="boundary" inkscape:connector-curvature="0" />
	<path style="fill:none;stroke:red;stroke-width:1px;stroke-linecap:butt;stroke-linejoin:miter;stroke-opacity:1" d="M 358.286,236.596 358.286,252 z" id="boundary" inkscape:connector-curvature="0" />
	<path style="fill:none;stroke:red;stroke-width:1px;stroke-linecap:butt;stroke-linejoin:miter;stroke-opacity:1" d="M 436.845,302.832 436.845,287.429 z" id="boundary" inkscape:connector-curvature="0" />
	<path style="fill:none;stroke:red;stroke-width:1px;stroke-linecap:butt;stroke-linejoin:miter;stroke-opacity:1" d="M 444.547,316.696 436.845,302.832 z" id="boundary" inkscape:connector-curvature="0" />
	<path style="fill:none;stroke:red;stroke-width:1px;stroke-linecap:butt;stroke-linejoin:miter;stroke-opacity:1" d="M 444.547,265.863 436.845,287.429 z" id="boundary" inkscape:connector-curvature="0" />
	<path style="fill:none;stroke:red;stroke-width:1px;stroke-linecap:butt;stroke-linejoin:miter;stroke-opacity:1" d="M 444.547,235.056 444.547,250.46 z" id="boundary" inkscape:connector-curvature="0" />
	<path style="fill:none;stroke:red;stroke-width:1px;stroke-linecap:butt;stroke-linejoin:miter;stroke-opacity:1" d="M 358.286,236.596 358.286,221.193 z" id="boundary" inkscape:connector-curvature="0" />
	<path style="fill:none;stroke:red;stroke-width:1px;stroke-linecap:butt;stroke-linejoin:miter;stroke-opacity:1" d="M 444.547,250.46 444.547,265.863 z" id="boundary" inkscape:connector-curvature="0" />
	<path style="fill:none;stroke:red;stroke-width:1px;stroke-linecap:butt;stroke-linejoin:miter;stroke-opacity:1" d="M 444.547,316.696 444.547,332.099 z" id="boundary" inkscape:connector-curvature="0" />
	<path style="fill:none;stroke:red;stroke-width:1px;stroke-linecap:butt;stroke-linejoin:miter;stroke-opacity:1" d="M 444.547,347.503 444.547,332.099 z" id="boundary" inkscape:connector-curvature="0" />
	<path style="fill:none;stroke:red;stroke-width:1px;stroke-linecap:butt;stroke-linejoin:miter;stroke-opacity:1" d="M 444.547,362.907 444.547,378.311 z" id="boundary" inkscape:connector-curvature="0" />
	<path style="fill:none;stroke:red;stroke-width:1px;stroke-linecap:butt;stroke-linejoin:miter;stroke-opacity:1" d="M 444.547,393.714 444.547,409.118 z" id="boundary" inkscape:connector-curvature="0" />
	<path style="fill:none;stroke:red;stroke-width:1px;stroke-linecap:butt;stroke-linejoin:miter;stroke-opacity:1" d="M 444.547,424.522 444.547,409.118 z" id="boundary" inkscape:connector-curvature="0" />
	<path style="fill:none;stroke:red;stroke-width:1px;stroke-linecap:butt;stroke-linejoin:miter;stroke-opacity:1" d="M 444.547,393.714 444.547,378.311 z" id="boundary" inkscape:connector-curvature="0" />
	<path style="fill:none;stroke:red;stroke-width:1px;stroke-linecap:butt;stroke-linejoin:miter;stroke-opacity:1" d="M 444.547,362.907 444.547,347.503 z" id="boundary" inkscape:connector-curvature="0" />
	<path style="fill:none;stroke:red;stroke-width:1px;stroke-linecap:butt;stroke-linejoin:miter;stroke-opacity:1" d="M 444.547,424.522 444.547,439.925 z" id="boundary" inkscape:connector-curvature="0" />
	<path style="fill:none;stroke:red;stroke-width:1px;stroke-linecap:butt;stroke-linejoin:miter;stroke-opacity:1" d="M 444.547,455.329 444.547,439.925 z" id="boundary" inkscape:connector-curvature="0" />
	<path style="fill:none;stroke:red;stroke-width:1px;stroke-linecap:butt;stroke-linejoin:miter;stroke-opacity:1" d="M 452.248,469.193 444.547,455.329 z" id="boundary" inkscape:connector-curvature="0" />
	<path style="fill:none;stroke:red;stroke-width:1px;stroke-linecap:butt;stroke-linejoin:miter;stroke-opacity:1" d="M 452.248,469.193 452.248,484.596 z" id="boundary" inkscape:connector-curvature="0" />
	<path style="fill:none;stroke:red;stroke-width:1px;stroke-linecap:butt;stroke-linejoin:miter;stroke-opacity:1" d="M 452.248,515.404 452.248,500 z" id="boundary" inkscape:connector-curvature="0" />
	<path style="fill:none;stroke:red;stroke-width:1px;stroke-linecap:butt;stroke-linejoin:miter;stroke-opacity:1" d="M 452.248,484.596 452.248,500 z" id="boundary" inkscape:connector-curvature="0" />
	<path style="fill:none;stroke:red;stroke-width:1px;stroke-linecap:butt;stroke-linejoin:miter;stroke-opacity:1" d="M 459.95,544.671 452.248,530.807 z" id="boundary" inkscape:connector-curvature="0" />
	<path style="fill:none;stroke:red;stroke-width:1px;stroke-linecap:butt;stroke-linejoin:miter;stroke-opacity:1" d="M 452.248,530.807 452.248,515.404 z" id="boundary" inkscape:connector-curvature="0" />
	<path style="fill:none;stroke:red;stroke-width:1px;stroke-linecap:butt;stroke-linejoin:miter;stroke-opacity:1" d="M 467.652,558.534 459.95,544.671 z" id="boundary" inkscape:connector-curvature="0" />
	<path style="fill:none;stroke:red;stroke-width:1px;stroke-linecap:butt;stroke-linejoin:miter;stroke-opacity:1" d="M 476.894,570.857 467.652,558.534 z" id="boundary" inkscape:connector-curvature="0" />
	<path style="fill:none;stroke:red;stroke-width:1px;stroke-linecap:butt;stroke-linejoin:miter;stroke-opacity:1" d="M 476.894,570.857 483.056,586.261 z" id="boundary" inkscape:connector-curvature="0" />
	<path style="fill:none;stroke:red;stroke-width:1px;stroke-linecap:butt;stroke-linejoin:miter;stroke-opacity:1" d="M 483.056,586.261 483.056,601.665 z" id="boundary" inkscape:connector-curvature="0" />
	<path style="fill:none;stroke:red;stroke-width:1px;stroke-linecap:butt;stroke-linejoin:miter;stroke-opacity:1" d="M 483.056,601.665 495.379,610.907 z" id="boundary" inkscape:connector-curvature="0" />
	<path style="fill:none;stroke:red;stroke-width:1px;stroke-linecap:butt;stroke-linejoin:miter;stroke-opacity:1" d="M 495.379,610.907 501.54,626.311 z" id="boundary" inkscape:connector-curvature="0" />
	<path style="fill:none;stroke:red;stroke-width:1px;stroke-linecap:butt;stroke-linejoin:miter;stroke-opacity:1" d="M 509.242,640.174 501.54,626.311 z" id="boundary" inkscape:connector-curvature="0" />
	<path style="fill:none;stroke:red;stroke-width:1px;stroke-linecap:butt;stroke-linejoin:miter;stroke-opacity:1" d="M 524.646,640.174 509.242,640.174 z" id="boundary" inkscape:connector-curvature="0" />
	<path style="fill:none;stroke:red;stroke-width:1px;stroke-linecap:butt;stroke-linejoin:miter;stroke-opacity:1" d="M 541.59,808.075 529.267,818.857 z" id="boundary" inkscape:connector-curvature="0" />
	<path style="fill:none;stroke:red;stroke-width:1px;stroke-linecap:butt;stroke-linejoin:miter;stroke-opacity:1" d="M 521.565,834.261 529.267,818.857 z" id="boundary" inkscape:connector-curvature="0" />
	<path style="fill:none;stroke:red;stroke-width:1px;stroke-linecap:butt;stroke-linejoin:miter;stroke-opacity:1" d="M 521.565,834.261 510.783,846.584 z" id="boundary" inkscape:connector-curvature="0" />
	<path style="fill:none;stroke:red;stroke-width:1px;stroke-linecap:butt;stroke-linejoin:miter;stroke-opacity:1" d="M 272.025,988.298 287.429,988.298 z" id="boundary" inkscape:connector-curvature="0" />
	<path style="fill:none;stroke:red;stroke-width:1px;stroke-linecap:butt;stroke-linejoin:miter;stroke-opacity:1" d="M 302.832,988.298 287.429,988.298 z" id="boundary" inkscape:connector-curvature="0" />
	<path style="fill:none;stroke:red;stroke-width:1px;stroke-linecap:butt;stroke-linejoin:miter;stroke-opacity:1" d="M 379.851,985.217 389.093,972.894 z" id="boundary" inkscape:connector-curvature="0" />
	<path style="fill:none;stroke:red;stroke-width:1px;stroke-linecap:butt;stroke-linejoin:miter;stroke-opacity:1" d="M 318.236,988.298 302.832,988.298 z" id="boundary" inkscape:connector-curvature="0" />
	<path style="fill:none;stroke:red;stroke-width:1px;stroke-linecap:butt;stroke-linejoin:miter;stroke-opacity:1" d="M 379.851,985.217 364.447,988.298 z" id="boundary" inkscape:connector-curvature="0" />
	<path style="fill:none;stroke:red;stroke-width:1px;stroke-linecap:butt;stroke-linejoin:miter;stroke-opacity:1" d="M 333.64,988.298 318.236,988.298 z" id="boundary" inkscape:connector-curvature="0" />
	<path style="fill:none;stroke:red;stroke-width:1px;stroke-linecap:butt;stroke-linejoin:miter;stroke-opacity:1" d="M 333.64,988.298 349.043,988.298 z" id="boundary" inkscape:connector-curvature="0" />
	<path style="fill:none;stroke:red;stroke-width:1px;stroke-linecap:butt;stroke-linejoin:miter;stroke-opacity:1" d="M 398.335,957.491 389.093,972.894 z" id="boundary" inkscape:connector-curvature="0" />
	<path style="fill:none;stroke:red;stroke-width:1px;stroke-linecap:butt;stroke-linejoin:miter;stroke-opacity:1" d="M 364.447,988.298 349.043,988.298 z" id="boundary" inkscape:connector-curvature="0" />
	<path style="fill:none;stroke:red;stroke-width:1px;stroke-linecap:butt;stroke-linejoin:miter;stroke-opacity:1" d="M 458.41,903.578 470.733,894.335 z" id="boundary" inkscape:connector-curvature="0" />
	<path style="fill:none;stroke:red;stroke-width:1px;stroke-linecap:butt;stroke-linejoin:miter;stroke-opacity:1" d="M 449.168,915.901 458.41,903.578 z" id="boundary" inkscape:connector-curvature="0" />
	<path style="fill:none;stroke:red;stroke-width:1px;stroke-linecap:butt;stroke-linejoin:miter;stroke-opacity:1" d="M 483.056,872.77 470.733,894.335 z" id="boundary" inkscape:connector-curvature="0" />
	<path style="fill:none;stroke:red;stroke-width:1px;stroke-linecap:butt;stroke-linejoin:miter;stroke-opacity:1" d="M 498.46,857.366 510.783,846.584 z" id="boundary" inkscape:connector-curvature="0" />
	<path style="fill:none;stroke:red;stroke-width:1px;stroke-linecap:butt;stroke-linejoin:miter;stroke-opacity:1" d="M 498.46,857.366 483.056,872.77 z" id="boundary" inkscape:connector-curvature="0" />
	<path style="fill:none;stroke:red;stroke-width:1px;stroke-linecap:butt;stroke-linejoin:miter;stroke-opacity:1" d="M 410.658,946.708 398.335,957.491 z" id="boundary" inkscape:connector-curvature="0" />
	<path style="fill:none;stroke:red;stroke-width:1px;stroke-linecap:butt;stroke-linejoin:miter;stroke-opacity:1" d="M 421.441,934.385 410.658,946.708 z" id="boundary" inkscape:connector-curvature="0" />
	<path style="fill:none;stroke:red;stroke-width:1px;stroke-linecap:butt;stroke-linejoin:miter;stroke-opacity:1" d="M 449.168,915.901 436.845,926.683 z" id="boundary" inkscape:connector-curvature="0" />
	<path style="fill:none;stroke:red;stroke-width:1px;stroke-linecap:butt;stroke-linejoin:miter;stroke-opacity:1" d="M 436.845,926.683 421.441,934.385 z" id="boundary" inkscape:connector-curvature="0" />
	<path style="fill:none;stroke:red;stroke-width:1px;stroke-linecap:butt;stroke-linejoin:miter;stroke-opacity:1" d="M 635.553,513.863 647.876,501.54 z" id="boundary" inkscape:connector-curvature="0" />
	<path style="fill:none;stroke:red;stroke-width:1px;stroke-linecap:butt;stroke-linejoin:miter;stroke-opacity:1" d="M 647.876,501.54 663.28,493.839 z" id="boundary" inkscape:connector-curvature="0" />
	<path style="fill:none;stroke:red;stroke-width:1px;stroke-linecap:butt;stroke-linejoin:miter;stroke-opacity:1" d="M 675.602,481.516 663.28,493.839 z" id="boundary" inkscape:connector-curvature="0" />
	<path style="fill:none;stroke:red;stroke-width:1px;stroke-linecap:butt;stroke-linejoin:miter;stroke-opacity:1" d="M 624.77,532.348 635.553,513.863 z" id="boundary" inkscape:connector-curvature="0" />
	<path style="fill:none;stroke:red;stroke-width:1px;stroke-linecap:butt;stroke-linejoin:miter;stroke-opacity:1" d="M 589.342,590.882 597.043,575.478 z" id="boundary" inkscape:connector-curvature="0" />
	<path style="fill:none;stroke:red;stroke-width:1px;stroke-linecap:butt;stroke-linejoin:miter;stroke-opacity:1" d="M 609.366,563.155 612.447,544.671 z" id="boundary" inkscape:connector-curvature="0" />
	<path style="fill:none;stroke:red;stroke-width:1px;stroke-linecap:butt;stroke-linejoin:miter;stroke-opacity:1" d="M 612.447,544.671 624.77,532.348 z" id="boundary" inkscape:connector-curvature="0" />
	<path style="fill:none;stroke:red;stroke-width:1px;stroke-linecap:butt;stroke-linejoin:miter;stroke-opacity:1" d="M 609.366,563.155 597.043,575.478 z" id="boundary" inkscape:connector-curvature="0" />
	<path style="fill:none;stroke:red;stroke-width:1px;stroke-linecap:butt;stroke-linejoin:miter;stroke-opacity:1" d="M 675.602,481.516 691.006,478.435 z" id="boundary" inkscape:connector-curvature="0" />
	<path style="fill:none;stroke:red;stroke-width:1px;stroke-linecap:butt;stroke-linejoin:miter;stroke-opacity:1" d="M 691.006,478.435 706.41,478.435 z" id="boundary" inkscape:connector-curvature="0" />
	<path style="fill:none;stroke:red;stroke-width:1px;stroke-linecap:butt;stroke-linejoin:miter;stroke-opacity:1" d="M 729.516,492.298 729.516,507.702 z" id="boundary" inkscape:connector-curvature="0" />
	<path style="fill:none;stroke:red;stroke-width:1px;stroke-linecap:butt;stroke-linejoin:miter;stroke-opacity:1" d="M 706.41,478.435 721.814,478.435 z" id="boundary" inkscape:connector-curvature="0" />
	<path style="fill:none;stroke:red;stroke-width:1px;stroke-linecap:butt;stroke-linejoin:miter;stroke-opacity:1" d="M 721.814,478.435 729.516,492.298 z" id="boundary" inkscape:connector-curvature="0" />
	<path style="fill:none;stroke:red;stroke-width:1px;stroke-linecap:butt;stroke-linejoin:miter;stroke-opacity:1" d="M 729.516,507.702 729.516,523.106 z" id="boundary" inkscape:connector-curvature="0" />
	<path style="fill:none;stroke:red;stroke-width:1px;stroke-linecap:butt;stroke-linejoin:miter;stroke-opacity:1" d="M 706.41,580.099 698.708,595.503 z" id="boundary" inkscape:connector-curvature="0" />
	<path style="fill:none;stroke:red;stroke-width:1px;stroke-linecap:butt;stroke-linejoin:miter;stroke-opacity:1" d="M 721.814,541.59 714.112,556.994 z" id="boundary" inkscape:connector-curvature="0" />
	<path style="fill:none;stroke:red;stroke-width:1px;stroke-linecap:butt;stroke-linejoin:miter;stroke-opacity:1" d="M 729.516,523.106 721.814,541.59 z" id="boundary" inkscape:connector-curvature="0" />
	<path style="fill:none;stroke:red;stroke-width:1px;stroke-linecap:butt;stroke-linejoin:miter;stroke-opacity:1" d="M 706.41,580.099 714.112,556.994 z" id="boundary" inkscape:connector-curvature="0" />
	<path style="fill:none;stroke:red;stroke-width:1px;stroke-linecap:butt;stroke-linejoin:miter;stroke-opacity:1" d="M 698.708,595.503 691.006,610.907 z" id="boundary" inkscape:connector-curvature="0" />
	<path style="fill:none;stroke:red;stroke-width:1px;stroke-linecap:butt;stroke-linejoin:miter;stroke-opacity:1" d="M 598.584,741.839 590.882,757.242 z" id="boundary" inkscape:connector-curvature="0" />
	<path style="fill:none;stroke:red;stroke-width:1px;stroke-linecap:butt;stroke-linejoin:miter;stroke-opacity:1" d="M 540.05,640.174 524.646,640.174 z" id="boundary" inkscape:connector-curvature="0" />
	<path style="fill:none;stroke:red;stroke-width:1px;stroke-linecap:butt;stroke-linejoin:miter;stroke-opacity:1" d="M 555.453,632.472 540.05,640.174 z" id="boundary" inkscape:connector-curvature="0" />
	<path style="fill:none;stroke:red;stroke-width:1px;stroke-linecap:butt;stroke-linejoin:miter;stroke-opacity:1" d="M 567.776,620.149 555.453,632.472 z" id="boundary" inkscape:connector-curvature="0" />
	<path style="fill:none;stroke:red;stroke-width:1px;stroke-linecap:butt;stroke-linejoin:miter;stroke-opacity:1" d="M 589.342,590.882 580.099,609.366 z" id="boundary" inkscape:connector-curvature="0" />
	<path style="fill:none;stroke:red;stroke-width:1px;stroke-linecap:butt;stroke-linejoin:miter;stroke-opacity:1" d="M 580.099,609.366 567.776,620.149 z" id="boundary" inkscape:connector-curvature="0" />
	<path style="fill:none;stroke:red;stroke-width:1px;stroke-linecap:butt;stroke-linejoin:miter;stroke-opacity:1" d="M 541.59,808.075 552.373,795.752 z" id="boundary" inkscape:connector-curvature="0" />
	<path style="fill:none;stroke:red;stroke-width:1px;stroke-linecap:butt;stroke-linejoin:miter;stroke-opacity:1" d="M 552.373,795.752 567.776,788.05 z" id="boundary" inkscape:connector-curvature="0" />
	<path style="fill:none;stroke:red;stroke-width:1px;stroke-linecap:butt;stroke-linejoin:miter;stroke-opacity:1" d="M 590.882,757.242 580.099,777.267 z" id="boundary" inkscape:connector-curvature="0" />
	<path style="fill:none;stroke:red;stroke-width:1px;stroke-linecap:butt;stroke-linejoin:miter;stroke-opacity:1" d="M 580.099,777.267 567.776,788.05 z" id="boundary" inkscape:connector-curvature="0" />
	<path style="fill:none;stroke:red;stroke-width:1px;stroke-linecap:butt;stroke-linejoin:miter;stroke-opacity:1" d="M 650.957,672.522 663.28,663.28 z" id="boundary" inkscape:connector-curvature="0" />
	<path style="fill:none;stroke:red;stroke-width:1px;stroke-linecap:butt;stroke-linejoin:miter;stroke-opacity:1" d="M 641.714,684.845 650.957,672.522 z" id="boundary" inkscape:connector-curvature="0" />
	<path style="fill:none;stroke:red;stroke-width:1px;stroke-linecap:butt;stroke-linejoin:miter;stroke-opacity:1" d="M 670.981,647.876 663.28,663.28 z" id="boundary" inkscape:connector-curvature="0" />
	<path style="fill:none;stroke:red;stroke-width:1px;stroke-linecap:butt;stroke-linejoin:miter;stroke-opacity:1" d="M 670.981,647.876 683.304,626.311 z" id="boundary" inkscape:connector-curvature="0" />
	<path style="fill:none;stroke:red;stroke-width:1px;stroke-linecap:butt;stroke-linejoin:miter;stroke-opacity:1" d="M 598.584,741.839 610.907,731.056 z" id="boundary" inkscape:connector-curvature="0" />
	<path style="fill:none;stroke:red;stroke-width:1px;stroke-linecap:butt;stroke-linejoin:miter;stroke-opacity:1" d="M 613.988,711.031 610.907,731.056 z" id="boundary" inkscape:connector-curvature="0" />
	<path style="fill:none;stroke:red;stroke-width:1px;stroke-linecap:butt;stroke-linejoin:miter;stroke-opacity:1" d="M 629.391,695.627 641.714,684.845 z" id="boundary" inkscape:connector-curvature="0" />
	<path style="fill:none;stroke:red;stroke-width:1px;stroke-linecap:butt;stroke-linejoin:miter;stroke-opacity:1" d="M 629.391,695.627 613.988,711.031 z" id="boundary" inkscape:connector-curvature="0" />
	<path style="fill:none;stroke:red;stroke-width:1px;stroke-linecap:butt;stroke-linejoin:miter;stroke-opacity:1" d="M 691.006,610.907 683.304,626.311 z" id="boundary" inkscape:connector-curvature="0" />
	<circle cx="4" cy="259.702" r="4" fill="#0" id="circle0"/>
	<circle cx="4" cy="275.106" r="4" fill="#0" id="circle1"/>
	<circle cx="11.7019" cy="288.969" r="4" fill="#0" id="circle2"/>
	<circle cx="11.7019" cy="304.373" r="4" fill="#0" id="circle3"/>
	<circle cx="11.7019" cy="319.776" r="4" fill="#0" id="circle4"/>
	<circle cx="11.7019" cy="335.18" r="4" fill="#0" id="circle5"/>
	<circle cx="11.7019" cy="350.584" r="4" fill="#0" id="circle6"/>
	<circle cx="16.323" cy="247.379" r="4" fill="#0" id="circle7"/>
	<circle cx="19.4037" cy="228.894" r="4" fill="#0" id="circle8"/>
	<circle cx="19.4037" cy="364.447" r="4" fill="#0" id="circle9"/>
	<circle cx="19.4037" cy="379.851" r="4" fill="#0" id="circle10"/>
	<circle cx="19.4037" cy="395.255" r="4" fill="#0" id="circle11"/>
	<circle cx="19.4037" cy="410.658" r="4" fill="#0" id="circle12"/>
	<circle cx="19.4037" cy="426.062" r="4" fill="#0" id="circle13"/>
	<circle cx="24.0248" cy="441.466" r="4" fill="#0" id="circle14"/>
	<circle cx="27.1056" cy="456.87" r="4" fill="#0" id="circle15"/>
	<circle cx="31.7267" cy="216.571" r="4" fill="#0" id="circle16"/>
	<circle cx="34.8075" cy="470.733" r="4" fill="#0" id="circle17"/>
	<circle cx="34.8075" cy="486.137" r="4" fill="#0" id="circle18"/>
	<circle cx="34.8075" cy="501.54" r="4" fill="#0" id="circle19"/>
	<circle cx="34.8075" cy="516.944" r="4" fill="#0" id="circle20"/>
	<circle cx="34.8075" cy="532.348" r="4" fill="#0" id="circle21"/>
	<circle cx="34.8075" cy="547.752" r="4" fill="#0" id="circle22"/>
	<circle cx="34.8075" cy="563.155" r="4" fill="#0" id="circle23"/>
	<circle cx="34.8075" cy="578.559" r="4" fill="#0" id="circle24"/>
	<circle cx="42.5093" cy="592.422" r="4" fill="#0" id="circle25"/>
	<circle cx="42.5093" cy="607.826" r="4" fill="#0" id="circle26"/>
	<circle cx="42.5093" cy="623.23" r="4" fill="#0" id="circle27"/>
	<circle cx="42.5093" cy="638.634" r="4" fill="#0" id="circle28"/>
	<circle cx="42.5093" cy="654.037" r="4" fill="#0" id="circle29"/>
	<circle cx="44.0497" cy="204.248" r="4" fill="#0" id="circle30"/>
	<circle cx="50.2112" cy="667.901" r="4" fill="#0" id="circle31"/>
	<circle cx="50.2112" cy="683.304" r="4" fill="#0" id="circle32"/>
	<circle cx="50.2112" cy="698.708" r="4" fill="#0" id="circle33"/>
	<circle cx="50.2112" cy="714.112" r="4" fill="#0" id="circle34"/>
	<circle cx="50.2112" cy="729.516" r="4" fill="#0" id="circle35"/>
	<circle cx="57.913" cy="211.95" r="4" fill="#0" id="circle36"/>
	<circle cx="57.913" cy="743.379" r="4" fill="#0" id="circle37"/>
	<circle cx="57.913" cy="758.783" r="4" fill="#0" id="circle38"/>
	<circle cx="57.913" cy="774.186" r="4" fill="#0" id="circle39"/>
	<circle cx="57.913" cy="789.59" r="4" fill="#0" id="circle40"/>
	<circle cx="57.913" cy="804.994" r="4" fill="#0" id="circle41"/>
	<circle cx="57.913" cy="975.975" r="4" fill="#0" id="circle42"/>
	<circle cx="57.913" cy="991.379" r="4" fill="#0" id="circle43"/>
	<circle cx="65.6149" cy="818.857" r="4" fill="#0" id="circle44"/>
	<circle cx="65.6149" cy="834.261" r="4" fill="#0" id="circle45"/>
	<circle cx="65.6149" cy="960.571" r="4" fill="#0" id="circle46"/>
	<circle cx="67.1553" cy="224.273" r="4" fill="#0" id="circle47"/>
	<circle cx="73.3168" cy="848.124" r="4" fill="#0" id="circle48"/>
	<circle cx="73.3168" cy="863.528" r="4" fill="#0" id="circle49"/>
	<circle cx="73.3168" cy="937.466" r="4" fill="#0" id="circle50"/>
	<circle cx="73.3168" cy="996" r="4" fill="#0" id="circle51"/>
	<circle cx="74.8571" cy="238.137" r="4" fill="#0" id="circle52"/>
	<circle cx="76.3975" cy="878.932" r="4" fill="#0" id="circle53"/>
	<circle cx="81.0186" cy="894.335" r="4" fill="#0" id="circle54"/>
	<circle cx="81.0186" cy="909.739" r="4" fill="#0" id="circle55"/>
	<circle cx="82.559" cy="252" r="4" fill="#0" id="circle56"/>
	<circle cx="82.559" cy="267.404" r="4" fill="#0" id="circle57"/>
	<circle cx="82.559" cy="282.807" r="4" fill="#0" id="circle58"/>
	<circle cx="82.559" cy="298.211" r="4" fill="#0" id="circle59"/>
	<circle cx="82.559" cy="313.615" r="4" fill="#0" id="circle60"/>
	<circle cx="82.559" cy="329.019" r="4" fill="#0" id="circle61"/>
	<circle cx="82.559" cy="344.422" r="4" fill="#0" id="circle62"/>
	<circle cx="82.559" cy="359.826" r="4" fill="#0" id="circle63"/>
	<circle cx="88.7205" cy="996" r="4" fill="#0" id="circle64"/>
	<circle cx="90.2609" cy="373.689" r="4" fill="#0" id="circle65"/>
	<circle cx="90.2609" cy="389.093" r="4" fill="#0" id="circle66"/>
	<circle cx="94.882" cy="404.497" r="4" fill="#0" id="circle67"/>
	<circle cx="97.9627" cy="419.901" r="4" fill="#0" id="circle68"/>
	<circle cx="97.9627" cy="435.304" r="4" fill="#0" id="circle69"/>
	<circle cx="104.124" cy="298.211" r="4" fill="#0" id="circle70"/>
	<circle cx="104.124" cy="313.615" r="4" fill="#0" id="circle71"/>
	<circle cx="104.124" cy="996" r="4" fill="#0" id="circle72"/>
	<circle cx="107.205" cy="447.627" r="4" fill="#0" id="circle73"/>
	<circle cx="111.826" cy="221.193" r="4" fill="#0" id="circle74"/>
	<circle cx="111.826" cy="236.596" r="4" fill="#0" id="circle75"/>
	<circle cx="111.826" cy="252" r="4" fill="#0" id="circle76"/>
	<circle cx="111.826" cy="267.404" r="4" fill="#0" id="circle77"/>
	<circle cx="111.826" cy="282.807" r="4" fill="#0" id="circle78"/>
	<circle cx="111.826" cy="327.478" r="4" fill="#0" id="circle79"/>
	<circle cx="111.826" cy="342.882" r="4" fill="#0" id="circle80"/>
	<circle cx="111.826" cy="358.286" r="4" fill="#0" id="circle81"/>
	<circle cx="111.826" cy="373.689" r="4" fill="#0" id="circle82"/>
	<circle cx="113.366" cy="463.031" r="4" fill="#0" id="circle83"/>
	<circle cx="119.528" cy="113.366" r="4" fill="#0" id="circle84"/>
	<circle cx="119.528" cy="128.77" r="4" fill="#0" id="circle85"/>
	<circle cx="119.528" cy="144.174" r="4" fill="#0" id="circle86"/>
	<circle cx="119.528" cy="159.578" r="4" fill="#0" id="circle87"/>
	<circle cx="119.528" cy="174.981" r="4" fill="#0" id="circle88"/>
	<circle cx="119.528" cy="190.385" r="4" fill="#0" id="circle89"/>
	<circle cx="119.528" cy="205.789" r="4" fill="#0" id="circle90"/>
	<circle cx="119.528" cy="387.553" r="4" fill="#0" id="circle91"/>
	<circle cx="119.528" cy="402.957" r="4" fill="#0" id="circle92"/>
	<circle cx="119.528" cy="418.36" r="4" fill="#0" id="circle93"/>
	<circle cx="119.528" cy="433.764" r="4" fill="#0" id="circle94"/>
	<circle cx="119.528" cy="996" r="4" fill="#0" id="circle95"/>
	<circle cx="131.851" cy="101.043" r="4" fill="#0" id="circle96"/>
	<circle cx="134.932" cy="996" r="4" fill="#0" id="circle97"/>
	<circle cx="144.174" cy="88.7205" r="4" fill="#0" id="circle98"/>
	<circle cx="150.335" cy="996" r="4" fill="#0" id="circle99"/>
	<circle cx="151.876" cy="73.3168" r="4" fill="#0" id="circle100"/>
	<circle cx="164.199" cy="62.5342" r="4" fill="#0" id="circle101"/>
	<circle cx="165.739" cy="996" r="4" fill="#0" id="circle102"/>
	<circle cx="178.062" cy="70.236" r="4" fill="#0" id="circle103"/>
	<circle cx="181.143" cy="996" r="4" fill="#0" id="circle104"/>
	<circle cx="188.845" cy="82.559" r="4" fill="#0" id="circle105"/>
	<circle cx="190.385" cy="195.006" r="4" fill="#0" id="circle106"/>
	<circle cx="190.385" cy="210.41" r="4" fill="#0" id="circle107"/>
	<circle cx="190.385" cy="225.814" r="4" fill="#0" id="circle108"/>
	<circle cx="190.385" cy="241.217" r="4" fill="#0" id="circle109"/>
	<circle cx="190.385" cy="256.621" r="4" fill="#0" id="circle110"/>
	<circle cx="190.385" cy="272.025" r="4" fill="#0" id="circle111"/>
	<circle cx="190.385" cy="287.429" r="4" fill="#0" id="circle112"/>
	<circle cx="190.385" cy="302.832" r="4" fill="#0" id="circle113"/>
	<circle cx="196.547" cy="96.4224" r="4" fill="#0" id="circle114"/>
	<circle cx="196.547" cy="996" r="4" fill="#0" id="circle115"/>
	<circle cx="198.087" cy="111.826" r="4" fill="#0" id="circle116"/>
	<circle cx="198.087" cy="127.23" r="4" fill="#0" id="circle117"/>
	<circle cx="198.087" cy="142.634" r="4" fill="#0" id="circle118"/>
	<circle cx="198.087" cy="158.037" r="4" fill="#0" id="circle119"/>
	<circle cx="198.087" cy="173.441" r="4" fill="#0" id="circle120"/>
	<circle cx="198.087" cy="316.696" r="4" fill="#0" id="circle121"/>
	<circle cx="198.087" cy="332.099" r="4" fill="#0" id="circle122"/>
	<circle cx="198.087" cy="347.503" r="4" fill="#0" id="circle123"/>
	<circle cx="210.41" cy="356.745" r="4" fill="#0" id="circle124"/>
	<circle cx="211.95" cy="996" r="4" fill="#0" id="circle125"/>
	<circle cx="218.112" cy="370.609" r="4" fill="#0" id="circle126"/>
	<circle cx="225.814" cy="988.298" r="4" fill="#0" id="circle127"/>
	<circle cx="227.354" cy="244.298" r="4" fill="#0" id="circle128"/>
	<circle cx="227.354" cy="259.702" r="4" fill="#0" id="circle129"/>
	<circle cx="227.354" cy="275.106" r="4" fill="#0" id="circle130"/>
	<circle cx="227.354" cy="290.509" r="4" fill="#0" id="circle131"/>
	<circle cx="227.354" cy="305.913" r="4" fill="#0" id="circle132"/>
	<circle cx="227.354" cy="321.317" r="4" fill="#0" id="circle133"/>
	<circle cx="227.354" cy="336.72" r="4" fill="#0" id="circle134"/>
	<circle cx="227.354" cy="352.124" r="4" fill="#0" id="circle135"/>
	<circle cx="235.056" cy="213.491" r="4" fill="#0" id="circle136"/>
	<circle cx="235.056" cy="228.894" r="4" fill="#0" id="circle137"/>
	<circle cx="241.217" cy="988.298" r="4" fill="#0" id="circle138"/>
	<circle cx="242.758" cy="159.578" r="4" fill="#0" id="circle139"/>
	<circle cx="242.758" cy="174.981" r="4" fill="#0" id="circle140"/>
	<circle cx="242.758" cy="190.385" r="4" fill="#0" id="circle141"/>
	<circle cx="250.46" cy="51.7516" r="4" fill="#0" id="circle142"/>
	<circle cx="250.46" cy="67.1553" r="4" fill="#0" id="circle143"/>
	<circle cx="250.46" cy="82.559" r="4" fill="#0" id="circle144"/>
	<circle cx="250.46" cy="97.9627" r="4" fill="#0" id="circle145"/>
	<circle cx="250.46" cy="113.366" r="4" fill="#0" id="circle146"/>
	<circle cx="250.46" cy="128.77" r="4" fill="#0" id="circle147"/>
	<circle cx="250.46" cy="144.174" r="4" fill="#0" id="circle148"/>
	<circle cx="256.621" cy="988.298" r="4" fill="#0" id="circle149"/>
	<circle cx="262.783" cy="39.4286" r="4" fill="#0" id="circle150"/>
	<circle cx="272.025" cy="988.298" r="4" fill="#0" id="circle151"/>
	<circle cx="275.106" cy="27.1056" r="4" fill="#0" id="circle152"/>
	<circle cx="287.429" cy="16.323" r="4" fill="#0" id="circle153"/>
	<circle cx="287.429" cy="988.298" r="4" fill="#0" id="circle154"/>
	<circle cx="298.211" cy="4" r="4" fill="#0" id="circle155"/>
	<circle cx="302.832" cy="988.298" r="4" fill="#0" id="circle156"/>
	<circle cx="312.075" cy="11.7019" r="4" fill="#0" id="circle157"/>
	<circle cx="318.236" cy="988.298" r="4" fill="#0" id="circle158"/>
	<circle cx="321.317" cy="24.0248" r="4" fill="#0" id="circle159"/>
	<circle cx="321.317" cy="241.217" r="4" fill="#0" id="circle160"/>
	<circle cx="321.317" cy="256.621" r="4" fill="#0" id="circle161"/>
	<circle cx="321.317" cy="272.025" r="4" fill="#0" id="circle162"/>
	<circle cx="321.317" cy="287.429" r="4" fill="#0" id="circle163"/>
	<circle cx="321.317" cy="302.832" r="4" fill="#0" id="circle164"/>
	<circle cx="321.317" cy="318.236" r="4" fill="#0" id="circle165"/>
	<circle cx="321.317" cy="333.64" r="4" fill="#0" id="circle166"/>
	<circle cx="321.317" cy="349.043" r="4" fill="#0" id="circle167"/>
	<circle cx="321.317" cy="364.447" r="4" fill="#0" id="circle168"/>
	<circle cx="321.317" cy="379.851" r="4" fill="#0" id="circle169"/>
	<circle cx="329.019" cy="37.8882" r="4" fill="#0" id="circle170"/>
	<circle cx="329.019" cy="94.882" r="4" fill="#0" id="circle171"/>
	<circle cx="329.019" cy="110.286" r="4" fill="#0" id="circle172"/>
	<circle cx="329.019" cy="125.689" r="4" fill="#0" id="circle173"/>
	<circle cx="329.019" cy="141.093" r="4" fill="#0" id="circle174"/>
	<circle cx="329.019" cy="156.497" r="4" fill="#0" id="circle175"/>
	<circle cx="329.019" cy="171.901" r="4" fill="#0" id="circle176"/>
	<circle cx="329.019" cy="187.304" r="4" fill="#0" id="circle177"/>
	<circle cx="329.019" cy="202.708" r="4" fill="#0" id="circle178"/>
	<circle cx="329.019" cy="218.112" r="4" fill="#0" id="circle179"/>
	<circle cx="329.019" cy="393.714" r="4" fill="#0" id="circle180"/>
	<circle cx="333.64" cy="988.298" r="4" fill="#0" id="circle181"/>
	<circle cx="336.72" cy="51.7516" r="4" fill="#0" id="circle182"/>
	<circle cx="336.72" cy="67.1553" r="4" fill="#0" id="circle183"/>
	<circle cx="336.72" cy="373.689" r="4" fill="#0" id="circle184"/>
	<circle cx="349.043" cy="988.298" r="4" fill="#0" id="circle185"/>
	<circle cx="350.584" cy="275.106" r="4" fill="#0" id="circle186"/>
	<circle cx="350.584" cy="290.509" r="4" fill="#0" id="circle187"/>
	<circle cx="350.584" cy="305.913" r="4" fill="#0" id="circle188"/>
	<circle cx="350.584" cy="321.317" r="4" fill="#0" id="circle189"/>
	<circle cx="350.584" cy="336.72" r="4" fill="#0" id="circle190"/>
	<circle cx="350.584" cy="352.124" r="4" fill="#0" id="circle191"/>
	<circle cx="358.286" cy="113.366" r="4" fill="#0" id="circle192"/>
	<circle cx="358.286" cy="128.77" r="4" fill="#0" id="circle193"/>
	<circle cx="358.286" cy="144.174" r="4" fill="#0" id="circle194"/>
	<circle cx="358.286" cy="159.578" r="4" fill="#0" id="circle195"/>
	<circle cx="358.286" cy="174.981" r="4" fill="#0" id="circle196"/>
	<circle cx="358.286" cy="190.385" r="4" fill="#0" id="circle197"/>
	<circle cx="358.286" cy="205.789" r="4" fill="#0" id="circle198"/>
	<circle cx="358.286" cy="221.193" r="4" fill="#0" id="circle199"/>
	<circle cx="358.286" cy="236.596" r="4" fill="#0" id="circle200"/>
	<circle cx="358.286" cy="252" r="4" fill="#0" id="circle201"/>
	<circle cx="364.447" cy="988.298" r="4" fill="#0" id="circle202"/>
	<circle cx="365.988" cy="74.8571" r="4" fill="#0" id="circle203"/>
	<circle cx="365.988" cy="90.2609" r="4" fill="#0" id="circle204"/>
	<circle cx="379.851" cy="985.217" r="4" fill="#0" id="circle205"/>
	<circle cx="381.391" cy="59.4534" r="4" fill="#0" id="circle206"/>
	<circle cx="389.093" cy="972.894" r="4" fill="#0" id="circle207"/>
	<circle cx="393.714" cy="47.1304" r="4" fill="#0" id="circle208"/>
	<circle cx="398.335" cy="62.5342" r="4" fill="#0" id="circle209"/>
	<circle cx="398.335" cy="957.491" r="4" fill="#0" id="circle210"/>
	<circle cx="406.037" cy="76.3975" r="4" fill="#0" id="circle211"/>
	<circle cx="410.658" cy="946.708" r="4" fill="#0" id="circle212"/>
	<circle cx="418.36" cy="87.1801" r="4" fill="#0" id="circle213"/>
	<circle cx="421.441" cy="102.584" r="4" fill="#0" id="circle214"/>
	<circle cx="421.441" cy="934.385" r="4" fill="#0" id="circle215"/>
	<circle cx="424.522" cy="117.988" r="4" fill="#0" id="circle216"/>
	<circle cx="436.845" cy="128.77" r="4" fill="#0" id="circle217"/>
	<circle cx="436.845" cy="144.174" r="4" fill="#0" id="circle218"/>
	<circle cx="436.845" cy="159.578" r="4" fill="#0" id="circle219"/>
	<circle cx="436.845" cy="174.981" r="4" fill="#0" id="circle220"/>
	<circle cx="436.845" cy="287.429" r="4" fill="#0" id="circle221"/>
	<circle cx="436.845" cy="302.832" r="4" fill="#0" id="circle222"/>
	<circle cx="436.845" cy="926.683" r="4" fill="#0" id="circle223"/>
	<circle cx="444.547" cy="188.845" r="4" fill="#0" id="circle224"/>
	<circle cx="444.547" cy="204.248" r="4" fill="#0" id="circle225"/>
	<circle cx="444.547" cy="219.652" r="4" fill="#0" id="circle226"/>
	<circle cx="444.547" cy="235.056" r="4" fill="#0" id="circle227"/>
	<circle cx="444.547" cy="250.46" r="4" fill="#0" id="circle228"/>
	<circle cx="444.547" cy="265.863" r="4" fill="#0" id="circle229"/>
	<circle cx="444.547" cy="316.696" r="4" fill="#0" id="circle230"/>
	<circle cx="444.547" cy="332.099" r="4" fill="#0" id="circle231"/>
	<circle cx="444.547" cy="347.503" r="4" fill="#0" id="circle232"/>
	<circle cx="444.547" cy="362.907" r="4" fill="#0" id="circle233"/>
	<circle cx="444.547" cy="378.311" r="4" fill="#0" id="circle234"/>
	<circle cx="444.547" cy="393.714" r="4" fill="#0" id="circle235"/>
	<circle cx="444.547" cy="409.118" r="4" fill="#0" id="circle236"/>
	<circle cx="444.547" cy="424.522" r="4" fill="#0" id="circle237"/>
	<circle cx="444.547" cy="439.925" r="4" fill="#0" id="circle238"/>
	<circle cx="444.547" cy="455.329" r="4" fill="#0" id="circle239"/>
	<circle cx="449.168" cy="915.901" r="4" fill="#0" id="circle240"/>
	<circle cx="452.248" cy="469.193" r="4" fill="#0" id="circle241"/>
	<circle cx="452.248" cy="484.596" r="4" fill="#0" id="circle242"/>
	<circle cx="452.248" cy="500" r="4" fill="#0" id="circle243"/>
	<circle cx="452.248" cy="515.404" r="4" fill="#0" id="circle244"/>
	<circle cx="452.248" cy="530.807" r="4" fill="#0" id="circle245"/>
	<circle cx="458.41" cy="903.578" r="4" fill="#0" id="circle246"/>
	<circle cx="459.95" cy="544.671" r="4" fill="#0" id="circle247"/>
	<circle cx="467.652" cy="558.534" r="4" fill="#0" id="circle248"/>
	<circle cx="470.733" cy="894.335" r="4" fill="#0" id="circle249"/>
	<circle cx="476.894" cy="570.857" r="4" fill="#0" id="circle250"/>
	<circle cx="483.056" cy="586.261" r="4" fill="#0" id="circle251"/>
	<circle cx="483.056" cy="601.665" r="4" fill="#0" id="circle252"/>
	<circle cx="483.056" cy="872.77" r="4" fill="#0" id="circle253"/>
	<circle cx="495.379" cy="610.907" r="4" fill="#0" id="circle254"/>
	<circle cx="498.46" cy="857.366" r="4" fill="#0" id="circle255"/>
	<circle cx="501.54" cy="626.311" r="4" fill="#0" id="circle256"/>
	<circle cx="509.242" cy="640.174" r="4" fill="#0" id="circle257"/>
	<circle cx="510.783" cy="846.584" r="4" fill="#0" id="circle258"/>
	<circle cx="521.565" cy="834.261" r="4" fill="#0" id="circle259"/>
	<circle cx="524.646" cy="640.174" r="4" fill="#0" id="circle260"/>
	<circle cx="529.267" cy="818.857" r="4" fill="#0" id="circle261"/>
	<circle cx="540.05" cy="640.174" r="4" fill="#0" id="circle262"/>
	<circle cx="541.59" cy="808.075" r="4" fill="#0" id="circle263"/>
	<circle cx="552.373" cy="795.752" r="4" fill="#0" id="circle264"/>
	<circle cx="555.453" cy="632.472" r="4" fill="#0" id="circle265"/>
	<circle cx="567.776" cy="620.149" r="4" fill="#0" id="circle266"/>
	<circle cx="567.776" cy="788.05" r="4" fill="#0" id="circle267"/>
	<circle cx="580.099" cy="609.366" r="4" fill="#0" id="circle268"/>
	<circle cx="580.099" cy="777.267" r="4" fill="#0" id="circle269"/>
	<circle cx="589.342" cy="590.882" r="4" fill="#0" id="circle270"/>
	<circle cx="590.882" cy="757.242" r="4" fill="#0" id="circle271"/>
	<circle cx="597.043" cy="575.478" r="4" fill="#0" id="circle272"/>
	<circle cx="598.584" cy="741.839" r="4" fill="#0" id="circle273"/>
	<circle cx="609.366" cy="563.155" r="4" fill="#0" id="circle274"/>
	<circle cx="610.907" cy="731.056" r="4" fill="#0" id="circle275"/>
	<circle cx="612.447" cy="544.671" r="4" fill="#0" id="circle276"/>
	<circle cx="613.988" cy="711.031" r="4" fill="#0" id="circle277"/>
	<circle cx="624.77" cy="532.348" r="4" fill="#0" id="circle278"/>
	<circle cx="629.391" cy="695.627" r="4" fill="#0" id="circle279"/>
	<circle cx="635.553" cy="513.863" r="4" fill="#0" id="circle280"/>
	<circle cx="641.714" cy="684.845" r="4" fill="#0" id="circle281"/>
	<circle cx="647.876" cy="501.54" r="4" fill="#0" id="circle282"/>
	<circle cx="650.957" cy="672.522" r="4" fill="#0" id="circle283"/>
	<circle cx="663.28" cy="493.839" r="4" fill="#0" id="circle284"/>
	<circle cx="663.28" cy="663.28" r="4" fill="#0" id="circle285"/>
	<circle cx="670.981" cy="647.876" r="4" fill="#0" id="circle286"/>
	<circle cx="675.602" cy="481.516" r="4" fill="#0" id="circle287"/>
	<circle cx="683.304" cy="626.311" r="4" fill="#0" id="circle288"/>
	<circle cx="691.006" cy="478.435" r="4" fill="#0" id="circle289"/>
	<circle cx="691.006" cy="610.907" r="4" fill="#0" id="circle290"/>
	<circle cx="698.708" cy="595.503" r="4" fill="#0" id="circle291"/>
	<circle cx="706.41" cy="478.435" r="4" fill="#0" id="circle292"/>
	<circle cx="706.41" cy="580.099" r="4" fill="#0" id="circle293"/>
	<circle cx="714.112" cy="556.994" r="4" fill="#0" id="circle294"/>
	<circle cx="721.814" cy="478.435" r="4" fill="#0" id="circle295"/>
	<circle cx="721.814" cy="541.59" r="4" fill="#0" id="circle296"/>
	<circle cx="729.516" cy="492.298" r="4" fill="#0" id="circle297"/>
	<circle cx="729.516" cy="507.702" r="4" fill="#0" id="circle298"/>
	<circle cx="729.516" cy="523.106" r="4" fill="#0" id="circle299"/>
	</g>
</svg>