<?xml version="1.0" encoding="UTF-8" standalone="no"?>
<!-- Created with CurveBenchmark -->
<svg
	xmlns:dc="http://purl.org/dc/elements/1.1/"
	xmlns:cc="http://creativecommons.org/ns#"
	xmlns:rdf="http://www.w3.org/1999/02/22-rdf-syntax-ns#"
	xmlns:svg="http://www.w3.org/2000/svg"
	xmlns="http://www.w3.org/2000/svg"
	xmlns:sodipodi="http://sodipodi.sourceforge.net/DTD/sodipodi-0.dtd"
	xmlns:inkscape="http://www.inkscape.org/namespaces/inkscape"
	width="1000"
	height="1000"
	id="svg2"
	version="1.1"
	sodipodi:docname="manifold/ccrust-tool27.png.txt">
<defs
	id="defs4" />
<metadata
	id="metadata7">
	<rdf:RDF>
		<cc:Work
			rdf:about="">
			<dc:format>image/svg+xml</dc:format>
			<dc:type
				rdf:resource="http://purl.org/dc/dcmitype/StillImage" />
			<dc:title></dc:title>
		</cc:Work>
	</rdf:RDF>
</metadata>
<g
	inkscape:label="Layer 1"
	inkscape:groupmode="layer"
	id="layer1">
	<path style="fill:none;stroke:red;stroke-width:1px;stroke-linecap:butt;stroke-linejoin:miter;stroke-opacity:1" d="M 4,110.374 4,85.6359 z" id="boundary" inkscape:connector-curvature="0" />
	<path style="fill:none;stroke:red;stroke-width:1px;stroke-linecap:butt;stroke-linejoin:miter;stroke-opacity:1" d="M 4,85.6359 16.3691,48.5287 z" id="boundary" inkscape:connector-curvature="0" />
	<path style="fill:none;stroke:red;stroke-width:1px;stroke-linecap:butt;stroke-linejoin:miter;stroke-opacity:1" d="M 16.3691,48.5287 41.1072,53.4763 z" id="boundary" inkscape:connector-curvature="0" />
	<path style="fill:none;stroke:red;stroke-width:1px;stroke-linecap:butt;stroke-linejoin:miter;stroke-opacity:1" d="M 55.9501,73.2668 55.9501,98.005 z" id="boundary" inkscape:connector-curvature="0" />
	<path style="fill:none;stroke:red;stroke-width:1px;stroke-linecap:butt;stroke-linejoin:miter;stroke-opacity:1" d="M 55.9501,73.2668 41.1072,53.4763 z" id="boundary" inkscape:connector-curvature="0" />
	<path style="fill:none;stroke:red;stroke-width:1px;stroke-linecap:butt;stroke-linejoin:miter;stroke-opacity:1" d="M 55.9501,98.005 68.3192,120.269 z" id="boundary" inkscape:connector-curvature="0" />
	<path style="fill:none;stroke:red;stroke-width:1px;stroke-linecap:butt;stroke-linejoin:miter;stroke-opacity:1" d="M 4,135.112 4,110.374 z" id="boundary" inkscape:connector-curvature="0" />
	<path style="fill:none;stroke:red;stroke-width:1px;stroke-linecap:butt;stroke-linejoin:miter;stroke-opacity:1" d="M 4,135.112 16.3691,157.377 z" id="boundary" inkscape:connector-curvature="0" />
	<path style="fill:none;stroke:red;stroke-width:1px;stroke-linecap:butt;stroke-linejoin:miter;stroke-opacity:1" d="M 16.3691,157.377 16.3691,182.115 z" id="boundary" inkscape:connector-curvature="0" />
	<path style="fill:none;stroke:red;stroke-width:1px;stroke-linecap:butt;stroke-linejoin:miter;stroke-opacity:1" d="M 28.7382,204.379 16.3691,182.115 z" id="boundary" inkscape:connector-curvature="0" />
	<path style="fill:none;stroke:red;stroke-width:1px;stroke-linecap:butt;stroke-linejoin:miter;stroke-opacity:1" d="M 28.7382,204.379 43.581,224.17 z" id="boundary" inkscape:connector-curvature="0" />
	<path style="fill:none;stroke:red;stroke-width:1px;stroke-linecap:butt;stroke-linejoin:miter;stroke-opacity:1" d="M 63.3716,241.486 65.8454,266.224 z" id="boundary" inkscape:connector-curvature="0" />
	<path style="fill:none;stroke:red;stroke-width:1px;stroke-linecap:butt;stroke-linejoin:miter;stroke-opacity:1" d="M 43.581,224.17 63.3716,241.486 z" id="boundary" inkscape:connector-curvature="0" />
	<path style="fill:none;stroke:red;stroke-width:1px;stroke-linecap:butt;stroke-linejoin:miter;stroke-opacity:1" d="M 88.1097,278.594 65.8454,266.224 z" id="boundary" inkscape:connector-curvature="0" />
	<path style="fill:none;stroke:red;stroke-width:1px;stroke-linecap:butt;stroke-linejoin:miter;stroke-opacity:1" d="M 152.429,36.1596 152.429,60.8978 z" id="boundary" inkscape:connector-curvature="0" />
	<path style="fill:none;stroke:red;stroke-width:1px;stroke-linecap:butt;stroke-linejoin:miter;stroke-opacity:1" d="M 152.429,11.4214 152.429,36.1596 z" id="boundary" inkscape:connector-curvature="0" />
	<path style="fill:none;stroke:red;stroke-width:1px;stroke-linecap:butt;stroke-linejoin:miter;stroke-opacity:1" d="M 152.429,60.8978 167.272,80.6883 z" id="boundary" inkscape:connector-curvature="0" />
	<path style="fill:none;stroke:red;stroke-width:1px;stroke-linecap:butt;stroke-linejoin:miter;stroke-opacity:1" d="M 90.5835,328.07 90.5835,303.332 z" id="boundary" inkscape:connector-curvature="0" />
	<path style="fill:none;stroke:red;stroke-width:1px;stroke-linecap:butt;stroke-linejoin:miter;stroke-opacity:1" d="M 93.0574,127.691 68.3192,120.269 z" id="boundary" inkscape:connector-curvature="0" />
	<path style="fill:none;stroke:red;stroke-width:1px;stroke-linecap:butt;stroke-linejoin:miter;stroke-opacity:1" d="M 152.429,11.4214 177.167,4 z" id="boundary" inkscape:connector-curvature="0" />
	<path style="fill:none;stroke:red;stroke-width:1px;stroke-linecap:butt;stroke-linejoin:miter;stroke-opacity:1" d="M 90.5835,303.332 88.1097,278.594 z" id="boundary" inkscape:connector-curvature="0" />
	<path style="fill:none;stroke:red;stroke-width:1px;stroke-linecap:butt;stroke-linejoin:miter;stroke-opacity:1" d="M 90.5835,328.07 90.5835,352.808 z" id="boundary" inkscape:connector-curvature="0" />
	<path style="fill:none;stroke:red;stroke-width:1px;stroke-linecap:butt;stroke-linejoin:miter;stroke-opacity:1" d="M 115.322,140.06 93.0574,127.691 z" id="boundary" inkscape:connector-curvature="0" />
	<path style="fill:none;stroke:red;stroke-width:1px;stroke-linecap:butt;stroke-linejoin:miter;stroke-opacity:1" d="M 98.005,377.546 90.5835,352.808 z" id="boundary" inkscape:connector-curvature="0" />
	<path style="fill:none;stroke:red;stroke-width:1px;stroke-linecap:butt;stroke-linejoin:miter;stroke-opacity:1" d="M 154.903,120.269 140.06,140.06 z" id="boundary" inkscape:connector-curvature="0" />
	<path style="fill:none;stroke:red;stroke-width:1px;stroke-linecap:butt;stroke-linejoin:miter;stroke-opacity:1" d="M 140.06,140.06 115.322,140.06 z" id="boundary" inkscape:connector-curvature="0" />
	<path style="fill:none;stroke:red;stroke-width:1px;stroke-linecap:butt;stroke-linejoin:miter;stroke-opacity:1" d="M 98.005,377.546 102.953,402.284 z" id="boundary" inkscape:connector-curvature="0" />
	<path style="fill:none;stroke:red;stroke-width:1px;stroke-linecap:butt;stroke-linejoin:miter;stroke-opacity:1" d="M 102.953,402.284 102.953,427.022 z" id="boundary" inkscape:connector-curvature="0" />
	<path style="fill:none;stroke:red;stroke-width:1px;stroke-linecap:butt;stroke-linejoin:miter;stroke-opacity:1" d="M 102.953,476.499 102.953,451.761 z" id="boundary" inkscape:connector-curvature="0" />
	<path style="fill:none;stroke:red;stroke-width:1px;stroke-linecap:butt;stroke-linejoin:miter;stroke-opacity:1" d="M 102.953,427.022 102.953,451.761 z" id="boundary" inkscape:connector-curvature="0" />
	<path style="fill:none;stroke:red;stroke-width:1px;stroke-linecap:butt;stroke-linejoin:miter;stroke-opacity:1" d="M 102.953,501.237 102.953,476.499 z" id="boundary" inkscape:connector-curvature="0" />
	<path style="fill:none;stroke:red;stroke-width:1px;stroke-linecap:butt;stroke-linejoin:miter;stroke-opacity:1" d="M 102.953,525.975 102.953,501.237 z" id="boundary" inkscape:connector-curvature="0" />
	<path style="fill:none;stroke:red;stroke-width:1px;stroke-linecap:butt;stroke-linejoin:miter;stroke-opacity:1" d="M 115.322,600.19 115.322,575.451 z" id="boundary" inkscape:connector-curvature="0" />
	<path style="fill:none;stroke:red;stroke-width:1px;stroke-linecap:butt;stroke-linejoin:miter;stroke-opacity:1" d="M 102.953,525.975 110.374,550.713 z" id="boundary" inkscape:connector-curvature="0" />
	<path style="fill:none;stroke:red;stroke-width:1px;stroke-linecap:butt;stroke-linejoin:miter;stroke-opacity:1" d="M 115.322,575.451 110.374,550.713 z" id="boundary" inkscape:connector-curvature="0" />
	<path style="fill:none;stroke:red;stroke-width:1px;stroke-linecap:butt;stroke-linejoin:miter;stroke-opacity:1" d="M 115.322,600.19 115.322,624.928 z" id="boundary" inkscape:connector-curvature="0" />
	<path style="fill:none;stroke:red;stroke-width:1px;stroke-linecap:butt;stroke-linejoin:miter;stroke-opacity:1" d="M 122.743,649.666 115.322,624.928 z" id="boundary" inkscape:connector-curvature="0" />
	<path style="fill:none;stroke:red;stroke-width:1px;stroke-linecap:butt;stroke-linejoin:miter;stroke-opacity:1" d="M 115.322,864.888 115.322,889.626 z" id="boundary" inkscape:connector-curvature="0" />
	<path style="fill:none;stroke:red;stroke-width:1px;stroke-linecap:butt;stroke-linejoin:miter;stroke-opacity:1" d="M 115.322,864.888 140.06,840.15 z" id="boundary" inkscape:connector-curvature="0" />
	<path style="fill:none;stroke:red;stroke-width:1px;stroke-linecap:butt;stroke-linejoin:miter;stroke-opacity:1" d="M 115.322,889.626 115.322,914.364 z" id="boundary" inkscape:connector-curvature="0" />
	<path style="fill:none;stroke:red;stroke-width:1px;stroke-linecap:butt;stroke-linejoin:miter;stroke-opacity:1" d="M 122.743,649.666 140.06,669.456 z" id="boundary" inkscape:connector-curvature="0" />
	<path style="fill:none;stroke:red;stroke-width:1px;stroke-linecap:butt;stroke-linejoin:miter;stroke-opacity:1" d="M 140.06,669.456 140.06,694.195 z" id="boundary" inkscape:connector-curvature="0" />
	<path style="fill:none;stroke:red;stroke-width:1px;stroke-linecap:butt;stroke-linejoin:miter;stroke-opacity:1" d="M 140.06,718.933 140.06,694.195 z" id="boundary" inkscape:connector-curvature="0" />
	<path style="fill:none;stroke:red;stroke-width:1px;stroke-linecap:butt;stroke-linejoin:miter;stroke-opacity:1" d="M 152.429,768.409 142.534,743.671 z" id="boundary" inkscape:connector-curvature="0" />
	<path style="fill:none;stroke:red;stroke-width:1px;stroke-linecap:butt;stroke-linejoin:miter;stroke-opacity:1" d="M 142.534,743.671 140.06,718.933 z" id="boundary" inkscape:connector-curvature="0" />
	<path style="fill:none;stroke:red;stroke-width:1px;stroke-linecap:butt;stroke-linejoin:miter;stroke-opacity:1" d="M 130.165,934.155 115.322,914.364 z" id="boundary" inkscape:connector-curvature="0" />
	<path style="fill:none;stroke:red;stroke-width:1px;stroke-linecap:butt;stroke-linejoin:miter;stroke-opacity:1" d="M 140.06,815.411 140.06,840.15 z" id="boundary" inkscape:connector-curvature="0" />
	<path style="fill:none;stroke:red;stroke-width:1px;stroke-linecap:butt;stroke-linejoin:miter;stroke-opacity:1" d="M 130.165,934.155 140.06,958.893 z" id="boundary" inkscape:connector-curvature="0" />
	<path style="fill:none;stroke:red;stroke-width:1px;stroke-linecap:butt;stroke-linejoin:miter;stroke-opacity:1" d="M 140.06,815.411 152.429,793.147 z" id="boundary" inkscape:connector-curvature="0" />
	<path style="fill:none;stroke:red;stroke-width:1px;stroke-linecap:butt;stroke-linejoin:miter;stroke-opacity:1" d="M 152.429,981.157 140.06,958.893 z" id="boundary" inkscape:connector-curvature="0" />
	<path style="fill:none;stroke:red;stroke-width:1px;stroke-linecap:butt;stroke-linejoin:miter;stroke-opacity:1" d="M 152.429,768.409 152.429,793.147 z" id="boundary" inkscape:connector-curvature="0" />
	<path style="fill:none;stroke:red;stroke-width:1px;stroke-linecap:butt;stroke-linejoin:miter;stroke-opacity:1" d="M 167.272,80.6883 177.167,105.426 z" id="boundary" inkscape:connector-curvature="0" />
	<path style="fill:none;stroke:red;stroke-width:1px;stroke-linecap:butt;stroke-linejoin:miter;stroke-opacity:1" d="M 177.167,105.426 154.903,120.269 z" id="boundary" inkscape:connector-curvature="0" />
	<path style="fill:none;stroke:red;stroke-width:1px;stroke-linecap:butt;stroke-linejoin:miter;stroke-opacity:1" d="M 192.01,241.486 179.641,278.594 z" id="boundary" inkscape:connector-curvature="0" />
	<path style="fill:none;stroke:red;stroke-width:1px;stroke-linecap:butt;stroke-linejoin:miter;stroke-opacity:1" d="M 192.01,23.7905 209.327,43.581 z" id="boundary" inkscape:connector-curvature="0" />
	<path style="fill:none;stroke:red;stroke-width:1px;stroke-linecap:butt;stroke-linejoin:miter;stroke-opacity:1" d="M 179.641,278.594 179.641,303.332 z" id="boundary" inkscape:connector-curvature="0" />
	<path style="fill:none;stroke:red;stroke-width:1px;stroke-linecap:butt;stroke-linejoin:miter;stroke-opacity:1" d="M 204.379,216.748 192.01,241.486 z" id="boundary" inkscape:connector-curvature="0" />
	<path style="fill:none;stroke:red;stroke-width:1px;stroke-linecap:butt;stroke-linejoin:miter;stroke-opacity:1" d="M 179.641,328.07 179.641,303.332 z" id="boundary" inkscape:connector-curvature="0" />
	<path style="fill:none;stroke:red;stroke-width:1px;stroke-linecap:butt;stroke-linejoin:miter;stroke-opacity:1" d="M 192.01,23.7905 177.167,4 z" id="boundary" inkscape:connector-curvature="0" />
	<path style="fill:none;stroke:red;stroke-width:1px;stroke-linecap:butt;stroke-linejoin:miter;stroke-opacity:1" d="M 184.589,377.546 179.641,352.808 z" id="boundary" inkscape:connector-curvature="0" />
	<path style="fill:none;stroke:red;stroke-width:1px;stroke-linecap:butt;stroke-linejoin:miter;stroke-opacity:1" d="M 179.641,352.808 179.641,328.07 z" id="boundary" inkscape:connector-curvature="0" />
	<path style="fill:none;stroke:red;stroke-width:1px;stroke-linecap:butt;stroke-linejoin:miter;stroke-opacity:1" d="M 192.01,402.284 184.589,377.546 z" id="boundary" inkscape:connector-curvature="0" />
	<path style="fill:none;stroke:red;stroke-width:1px;stroke-linecap:butt;stroke-linejoin:miter;stroke-opacity:1" d="M 192.01,402.284 192.01,427.022 z" id="boundary" inkscape:connector-curvature="0" />
	<path style="fill:none;stroke:red;stroke-width:1px;stroke-linecap:butt;stroke-linejoin:miter;stroke-opacity:1" d="M 192.01,451.761 192.01,476.499 z" id="boundary" inkscape:connector-curvature="0" />
	<path style="fill:none;stroke:red;stroke-width:1px;stroke-linecap:butt;stroke-linejoin:miter;stroke-opacity:1" d="M 192.01,451.761 192.01,427.022 z" id="boundary" inkscape:connector-curvature="0" />
	<path style="fill:none;stroke:red;stroke-width:1px;stroke-linecap:butt;stroke-linejoin:miter;stroke-opacity:1" d="M 192.01,476.499 192.01,501.237 z" id="boundary" inkscape:connector-curvature="0" />
	<path style="fill:none;stroke:red;stroke-width:1px;stroke-linecap:butt;stroke-linejoin:miter;stroke-opacity:1" d="M 209.327,43.581 234.065,53.4763 z" id="boundary" inkscape:connector-curvature="0" />
	<path style="fill:none;stroke:red;stroke-width:1px;stroke-linecap:butt;stroke-linejoin:miter;stroke-opacity:1" d="M 234.065,53.4763 241.486,78.2145 z" id="boundary" inkscape:connector-curvature="0" />
	<path style="fill:none;stroke:red;stroke-width:1px;stroke-linecap:butt;stroke-linejoin:miter;stroke-opacity:1" d="M 253.855,100.479 241.486,78.2145 z" id="boundary" inkscape:connector-curvature="0" />
	<path style="fill:none;stroke:red;stroke-width:1px;stroke-linecap:butt;stroke-linejoin:miter;stroke-opacity:1" d="M 253.855,100.479 253.855,125.217 z" id="boundary" inkscape:connector-curvature="0" />
	<path style="fill:none;stroke:red;stroke-width:1px;stroke-linecap:butt;stroke-linejoin:miter;stroke-opacity:1" d="M 253.855,149.955 253.855,125.217 z" id="boundary" inkscape:connector-curvature="0" />
	<path style="fill:none;stroke:red;stroke-width:1px;stroke-linecap:butt;stroke-linejoin:miter;stroke-opacity:1" d="M 253.855,149.955 241.486,179.641 z" id="boundary" inkscape:connector-curvature="0" />
	<path style="fill:none;stroke:red;stroke-width:1px;stroke-linecap:butt;stroke-linejoin:miter;stroke-opacity:1" d="M 192.01,525.975 192.01,501.237 z" id="boundary" inkscape:connector-curvature="0" />
	<path style="fill:none;stroke:red;stroke-width:1px;stroke-linecap:butt;stroke-linejoin:miter;stroke-opacity:1" d="M 204.379,548.239 192.01,525.975 z" id="boundary" inkscape:connector-curvature="0" />
	<path style="fill:none;stroke:red;stroke-width:1px;stroke-linecap:butt;stroke-linejoin:miter;stroke-opacity:1" d="M 204.379,216.748 226.643,204.379 z" id="boundary" inkscape:connector-curvature="0" />
	<path style="fill:none;stroke:red;stroke-width:1px;stroke-linecap:butt;stroke-linejoin:miter;stroke-opacity:1" d="M 226.643,204.379 241.486,179.641 z" id="boundary" inkscape:connector-curvature="0" />
	<path style="fill:none;stroke:red;stroke-width:1px;stroke-linecap:butt;stroke-linejoin:miter;stroke-opacity:1" d="M 204.379,548.239 204.379,572.978 z" id="boundary" inkscape:connector-curvature="0" />
	<path style="fill:none;stroke:red;stroke-width:1px;stroke-linecap:butt;stroke-linejoin:miter;stroke-opacity:1" d="M 204.379,572.978 204.379,597.716 z" id="boundary" inkscape:connector-curvature="0" />
	<path style="fill:none;stroke:red;stroke-width:1px;stroke-linecap:butt;stroke-linejoin:miter;stroke-opacity:1" d="M 204.379,622.454 204.379,647.192 z" id="boundary" inkscape:connector-curvature="0" />
	<path style="fill:none;stroke:red;stroke-width:1px;stroke-linecap:butt;stroke-linejoin:miter;stroke-opacity:1" d="M 204.379,622.454 204.379,597.716 z" id="boundary" inkscape:connector-curvature="0" />
	<path style="fill:none;stroke:red;stroke-width:1px;stroke-linecap:butt;stroke-linejoin:miter;stroke-opacity:1" d="M 216.748,669.456 204.379,647.192 z" id="boundary" inkscape:connector-curvature="0" />
	<path style="fill:none;stroke:red;stroke-width:1px;stroke-linecap:butt;stroke-linejoin:miter;stroke-opacity:1" d="M 216.748,669.456 216.748,694.195 z" id="boundary" inkscape:connector-curvature="0" />
	<path style="fill:none;stroke:red;stroke-width:1px;stroke-linecap:butt;stroke-linejoin:miter;stroke-opacity:1" d="M 216.748,718.933 216.748,694.195 z" id="boundary" inkscape:connector-curvature="0" />
	<path style="fill:none;stroke:red;stroke-width:1px;stroke-linecap:butt;stroke-linejoin:miter;stroke-opacity:1" d="M 216.748,718.933 216.748,743.671 z" id="boundary" inkscape:connector-curvature="0" />
	<path style="fill:none;stroke:red;stroke-width:1px;stroke-linecap:butt;stroke-linejoin:miter;stroke-opacity:1" d="M 192.01,934.155 196.958,958.893 z" id="boundary" inkscape:connector-curvature="0" />
	<path style="fill:none;stroke:red;stroke-width:1px;stroke-linecap:butt;stroke-linejoin:miter;stroke-opacity:1" d="M 192.01,909.416 192.01,934.155 z" id="boundary" inkscape:connector-curvature="0" />
	<path style="fill:none;stroke:red;stroke-width:1px;stroke-linecap:butt;stroke-linejoin:miter;stroke-opacity:1" d="M 192.01,909.416 216.748,909.416 z" id="boundary" inkscape:connector-curvature="0" />
	<path style="fill:none;stroke:red;stroke-width:1px;stroke-linecap:butt;stroke-linejoin:miter;stroke-opacity:1" d="M 172.219,996 152.429,981.157 z" id="boundary" inkscape:connector-curvature="0" />
	<path style="fill:none;stroke:red;stroke-width:1px;stroke-linecap:butt;stroke-linejoin:miter;stroke-opacity:1" d="M 246.434,785.726 253.855,810.464 z" id="boundary" inkscape:connector-curvature="0" />
	<path style="fill:none;stroke:red;stroke-width:1px;stroke-linecap:butt;stroke-linejoin:miter;stroke-opacity:1" d="M 196.958,958.893 196.958,993.526 z" id="boundary" inkscape:connector-curvature="0" />
	<path style="fill:none;stroke:red;stroke-width:1px;stroke-linecap:butt;stroke-linejoin:miter;stroke-opacity:1" d="M 196.958,993.526 172.219,996 z" id="boundary" inkscape:connector-curvature="0" />
	<path style="fill:none;stroke:red;stroke-width:1px;stroke-linecap:butt;stroke-linejoin:miter;stroke-opacity:1" d="M 216.748,743.671 236.539,760.988 z" id="boundary" inkscape:connector-curvature="0" />
	<path style="fill:none;stroke:red;stroke-width:1px;stroke-linecap:butt;stroke-linejoin:miter;stroke-opacity:1" d="M 246.434,785.726 236.539,760.988 z" id="boundary" inkscape:connector-curvature="0" />
	<path style="fill:none;stroke:red;stroke-width:1px;stroke-linecap:butt;stroke-linejoin:miter;stroke-opacity:1" d="M 273.646,825.307 253.855,810.464 z" id="boundary" inkscape:connector-curvature="0" />
	<path style="fill:none;stroke:red;stroke-width:1px;stroke-linecap:butt;stroke-linejoin:miter;stroke-opacity:1" d="M 273.646,825.307 290.963,845.097 z" id="boundary" inkscape:connector-curvature="0" />
	<path style="fill:none;stroke:red;stroke-width:1px;stroke-linecap:butt;stroke-linejoin:miter;stroke-opacity:1" d="M 290.963,845.097 290.963,869.835 z" id="boundary" inkscape:connector-curvature="0" />
	<path style="fill:none;stroke:red;stroke-width:1px;stroke-linecap:butt;stroke-linejoin:miter;stroke-opacity:1" d="M 303.332,892.1 290.963,869.835 z" id="boundary" inkscape:connector-curvature="0" />
	<path style="fill:none;stroke:red;stroke-width:1px;stroke-linecap:butt;stroke-linejoin:miter;stroke-opacity:1" d="M 241.486,914.364 216.748,909.416 z" id="boundary" inkscape:connector-curvature="0" />
	<path style="fill:none;stroke:red;stroke-width:1px;stroke-linecap:butt;stroke-linejoin:miter;stroke-opacity:1" d="M 251.382,939.102 251.382,963.84 z" id="boundary" inkscape:connector-curvature="0" />
	<path style="fill:none;stroke:red;stroke-width:1px;stroke-linecap:butt;stroke-linejoin:miter;stroke-opacity:1" d="M 251.382,939.102 241.486,914.364 z" id="boundary" inkscape:connector-curvature="0" />
	<path style="fill:none;stroke:red;stroke-width:1px;stroke-linecap:butt;stroke-linejoin:miter;stroke-opacity:1" d="M 303.332,941.576 290.963,983.631 z" id="boundary" inkscape:connector-curvature="0" />
	<path style="fill:none;stroke:red;stroke-width:1px;stroke-linecap:butt;stroke-linejoin:miter;stroke-opacity:1" d="M 266.224,983.631 290.963,983.631 z" id="boundary" inkscape:connector-curvature="0" />
	<path style="fill:none;stroke:red;stroke-width:1px;stroke-linecap:butt;stroke-linejoin:miter;stroke-opacity:1" d="M 266.224,983.631 251.382,963.84 z" id="boundary" inkscape:connector-curvature="0" />
	<path style="fill:none;stroke:red;stroke-width:1px;stroke-linecap:butt;stroke-linejoin:miter;stroke-opacity:1" d="M 303.332,916.838 303.332,941.576 z" id="boundary" inkscape:connector-curvature="0" />
	<path style="fill:none;stroke:red;stroke-width:1px;stroke-linecap:butt;stroke-linejoin:miter;stroke-opacity:1" d="M 303.332,892.1 303.332,916.838 z" id="boundary" inkscape:connector-curvature="0" />
	<circle cx="4" cy="85.6359" r="4" fill="#0" id="circle0"/>
	<circle cx="4" cy="110.374" r="4" fill="#0" id="circle1"/>
	<circle cx="4" cy="135.112" r="4" fill="#0" id="circle2"/>
	<circle cx="16.3691" cy="48.5287" r="4" fill="#0" id="circle3"/>
	<circle cx="16.3691" cy="157.377" r="4" fill="#0" id="circle4"/>
	<circle cx="16.3691" cy="182.115" r="4" fill="#0" id="circle5"/>
	<circle cx="28.7382" cy="204.379" r="4" fill="#0" id="circle6"/>
	<circle cx="41.1072" cy="53.4763" r="4" fill="#0" id="circle7"/>
	<circle cx="43.581" cy="224.17" r="4" fill="#0" id="circle8"/>
	<circle cx="55.9501" cy="73.2668" r="4" fill="#0" id="circle9"/>
	<circle cx="55.9501" cy="98.005" r="4" fill="#0" id="circle10"/>
	<circle cx="63.3716" cy="241.486" r="4" fill="#0" id="circle11"/>
	<circle cx="65.8454" cy="266.224" r="4" fill="#0" id="circle12"/>
	<circle cx="68.3192" cy="120.269" r="4" fill="#0" id="circle13"/>
	<circle cx="88.1097" cy="278.594" r="4" fill="#0" id="circle14"/>
	<circle cx="90.5835" cy="303.332" r="4" fill="#0" id="circle15"/>
	<circle cx="90.5835" cy="328.07" r="4" fill="#0" id="circle16"/>
	<circle cx="90.5835" cy="352.808" r="4" fill="#0" id="circle17"/>
	<circle cx="93.0574" cy="127.691" r="4" fill="#0" id="circle18"/>
	<circle cx="98.005" cy="377.546" r="4" fill="#0" id="circle19"/>
	<circle cx="102.953" cy="402.284" r="4" fill="#0" id="circle20"/>
	<circle cx="102.953" cy="427.022" r="4" fill="#0" id="circle21"/>
	<circle cx="102.953" cy="451.761" r="4" fill="#0" id="circle22"/>
	<circle cx="102.953" cy="476.499" r="4" fill="#0" id="circle23"/>
	<circle cx="102.953" cy="501.237" r="4" fill="#0" id="circle24"/>
	<circle cx="102.953" cy="525.975" r="4" fill="#0" id="circle25"/>
	<circle cx="110.374" cy="550.713" r="4" fill="#0" id="circle26"/>
	<circle cx="115.322" cy="140.06" r="4" fill="#0" id="circle27"/>
	<circle cx="115.322" cy="575.451" r="4" fill="#0" id="circle28"/>
	<circle cx="115.322" cy="600.19" r="4" fill="#0" id="circle29"/>
	<circle cx="115.322" cy="624.928" r="4" fill="#0" id="circle30"/>
	<circle cx="115.322" cy="864.888" r="4" fill="#0" id="circle31"/>
	<circle cx="115.322" cy="889.626" r="4" fill="#0" id="circle32"/>
	<circle cx="115.322" cy="914.364" r="4" fill="#0" id="circle33"/>
	<circle cx="122.743" cy="649.666" r="4" fill="#0" id="circle34"/>
	<circle cx="130.165" cy="934.155" r="4" fill="#0" id="circle35"/>
	<circle cx="140.06" cy="140.06" r="4" fill="#0" id="circle36"/>
	<circle cx="140.06" cy="669.456" r="4" fill="#0" id="circle37"/>
	<circle cx="140.06" cy="694.195" r="4" fill="#0" id="circle38"/>
	<circle cx="140.06" cy="718.933" r="4" fill="#0" id="circle39"/>
	<circle cx="140.06" cy="815.411" r="4" fill="#0" id="circle40"/>
	<circle cx="140.06" cy="840.15" r="4" fill="#0" id="circle41"/>
	<circle cx="140.06" cy="958.893" r="4" fill="#0" id="circle42"/>
	<circle cx="142.534" cy="743.671" r="4" fill="#0" id="circle43"/>
	<circle cx="152.429" cy="11.4214" r="4" fill="#0" id="circle44"/>
	<circle cx="152.429" cy="36.1596" r="4" fill="#0" id="circle45"/>
	<circle cx="152.429" cy="60.8978" r="4" fill="#0" id="circle46"/>
	<circle cx="152.429" cy="768.409" r="4" fill="#0" id="circle47"/>
	<circle cx="152.429" cy="793.147" r="4" fill="#0" id="circle48"/>
	<circle cx="152.429" cy="981.157" r="4" fill="#0" id="circle49"/>
	<circle cx="154.903" cy="120.269" r="4" fill="#0" id="circle50"/>
	<circle cx="167.272" cy="80.6883" r="4" fill="#0" id="circle51"/>
	<circle cx="172.219" cy="996" r="4" fill="#0" id="circle52"/>
	<circle cx="177.167" cy="4" r="4" fill="#0" id="circle53"/>
	<circle cx="177.167" cy="105.426" r="4" fill="#0" id="circle54"/>
	<circle cx="179.641" cy="278.594" r="4" fill="#0" id="circle55"/>
	<circle cx="179.641" cy="303.332" r="4" fill="#0" id="circle56"/>
	<circle cx="179.641" cy="328.07" r="4" fill="#0" id="circle57"/>
	<circle cx="179.641" cy="352.808" r="4" fill="#0" id="circle58"/>
	<circle cx="184.589" cy="377.546" r="4" fill="#0" id="circle59"/>
	<circle cx="192.01" cy="23.7905" r="4" fill="#0" id="circle60"/>
	<circle cx="192.01" cy="241.486" r="4" fill="#0" id="circle61"/>
	<circle cx="192.01" cy="402.284" r="4" fill="#0" id="circle62"/>
	<circle cx="192.01" cy="427.022" r="4" fill="#0" id="circle63"/>
	<circle cx="192.01" cy="451.761" r="4" fill="#0" id="circle64"/>
	<circle cx="192.01" cy="476.499" r="4" fill="#0" id="circle65"/>
	<circle cx="192.01" cy="501.237" r="4" fill="#0" id="circle66"/>
	<circle cx="192.01" cy="525.975" r="4" fill="#0" id="circle67"/>
	<circle cx="192.01" cy="909.416" r="4" fill="#0" id="circle68"/>
	<circle cx="192.01" cy="934.155" r="4" fill="#0" id="circle69"/>
	<circle cx="196.958" cy="958.893" r="4" fill="#0" id="circle70"/>
	<circle cx="196.958" cy="993.526" r="4" fill="#0" id="circle71"/>
	<circle cx="204.379" cy="216.748" r="4" fill="#0" id="circle72"/>
	<circle cx="204.379" cy="548.239" r="4" fill="#0" id="circle73"/>
	<circle cx="204.379" cy="572.978" r="4" fill="#0" id="circle74"/>
	<circle cx="204.379" cy="597.716" r="4" fill="#0" id="circle75"/>
	<circle cx="204.379" cy="622.454" r="4" fill="#0" id="circle76"/>
	<circle cx="204.379" cy="647.192" r="4" fill="#0" id="circle77"/>
	<circle cx="209.327" cy="43.581" r="4" fill="#0" id="circle78"/>
	<circle cx="216.748" cy="669.456" r="4" fill="#0" id="circle79"/>
	<circle cx="216.748" cy="694.195" r="4" fill="#0" id="circle80"/>
	<circle cx="216.748" cy="718.933" r="4" fill="#0" id="circle81"/>
	<circle cx="216.748" cy="743.671" r="4" fill="#0" id="circle82"/>
	<circle cx="216.748" cy="909.416" r="4" fill="#0" id="circle83"/>
	<circle cx="226.643" cy="204.379" r="4" fill="#0" id="circle84"/>
	<circle cx="234.065" cy="53.4763" r="4" fill="#0" id="circle85"/>
	<circle cx="236.539" cy="760.988" r="4" fill="#0" id="circle86"/>
	<circle cx="241.486" cy="78.2145" r="4" fill="#0" id="circle87"/>
	<circle cx="241.486" cy="179.641" r="4" fill="#0" id="circle88"/>
	<circle cx="241.486" cy="914.364" r="4" fill="#0" id="circle89"/>
	<circle cx="246.434" cy="785.726" r="4" fill="#0" id="circle90"/>
	<circle cx="251.382" cy="939.102" r="4" fill="#0" id="circle91"/>
	<circle cx="251.382" cy="963.84" r="4" fill="#0" id="circle92"/>
	<circle cx="253.855" cy="100.479" r="4" fill="#0" id="circle93"/>
	<circle cx="253.855" cy="125.217" r="4" fill="#0" id="circle94"/>
	<circle cx="253.855" cy="149.955" r="4" fill="#0" id="circle95"/>
	<circle cx="253.855" cy="810.464" r="4" fill="#0" id="circle96"/>
	<circle cx="266.224" cy="983.631" r="4" fill="#0" id="circle97"/>
	<circle cx="273.646" cy="825.307" r="4" fill="#0" id="circle98"/>
	<circle cx="290.963" cy="845.097" r="4" fill="#0" id="circle99"/>
	<circle cx="290.963" cy="869.835" r="4" fill="#0" id="circle100"/>
	<circle cx="290.963" cy="983.631" r="4" fill="#0" id="circle101"/>
	<circle cx="303.332" cy="892.1" r="4" fill="#0" id="circle102"/>
	<circle cx="303.332" cy="916.838" r="4" fill="#0" id="circle103"/>
	<circle cx="303.332" cy="941.576" r="4" fill="#0" id="circle104"/>
	</g>
</svg>