<?xml version="1.0" encoding="UTF-8" standalone="no"?>
<!-- Created with CurveBenchmark -->
<svg
	xmlns:dc="http://purl.org/dc/elements/1.1/"
	xmlns:cc="http://creativecommons.org/ns#"
	xmlns:rdf="http://www.w3.org/1999/02/22-rdf-syntax-ns#"
	xmlns:svg="http://www.w3.org/2000/svg"
	xmlns="http://www.w3.org/2000/svg"
	xmlns:sodipodi="http://sodipodi.sourceforge.net/DTD/sodipodi-0.dtd"
	xmlns:inkscape="http://www.inkscape.org/namespaces/inkscape"
	width="1000"
	height="1000"
	id="svg2"
	version="1.1"
	sodipodi:docname="manifold/ccrust-fish085.png.txt">
<defs
	id="defs4" />
<metadata
	id="metadata7">
	<rdf:RDF>
		<cc:Work
			rdf:about="">
			<dc:format>image/svg+xml</dc:format>
			<dc:type
				rdf:resource="http://purl.org/dc/dcmitype/StillImage" />
			<dc:title></dc:title>
		</cc:Work>
	</rdf:RDF>
</metadata>
<g
	inkscape:label="Layer 1"
	inkscape:groupmode="layer"
	id="layer1">
	<path style="fill:none;stroke:red;stroke-width:1px;stroke-linecap:butt;stroke-linejoin:miter;stroke-opacity:1" d="M 91.8987,430.937 54.2278,493.722 z" id="boundary" inkscape:connector-curvature="0" />
	<path style="fill:none;stroke:red;stroke-width:1px;stroke-linecap:butt;stroke-linejoin:miter;stroke-opacity:1" d="M 54.2278,493.722 4,531.392 z" id="boundary" inkscape:connector-curvature="0" />
	<path style="fill:none;stroke:red;stroke-width:1px;stroke-linecap:butt;stroke-linejoin:miter;stroke-opacity:1" d="M 4,594.177 4,531.392 z" id="boundary" inkscape:connector-curvature="0" />
	<path style="fill:none;stroke:red;stroke-width:1px;stroke-linecap:butt;stroke-linejoin:miter;stroke-opacity:1" d="M 16.557,656.962 4,594.177 z" id="boundary" inkscape:connector-curvature="0" />
	<path style="fill:none;stroke:red;stroke-width:1px;stroke-linecap:butt;stroke-linejoin:miter;stroke-opacity:1" d="M 117.013,355.595 91.8987,430.937 z" id="boundary" inkscape:connector-curvature="0" />
	<path style="fill:none;stroke:red;stroke-width:1px;stroke-linecap:butt;stroke-linejoin:miter;stroke-opacity:1" d="M 280.253,117.013 248.861,223.747 z" id="boundary" inkscape:connector-curvature="0" />
	<path style="fill:none;stroke:red;stroke-width:1px;stroke-linecap:butt;stroke-linejoin:miter;stroke-opacity:1" d="M 248.861,223.747 192.354,255.139 z" id="boundary" inkscape:connector-curvature="0" />
	<path style="fill:none;stroke:red;stroke-width:1px;stroke-linecap:butt;stroke-linejoin:miter;stroke-opacity:1" d="M 154.684,305.367 117.013,355.595 z" id="boundary" inkscape:connector-curvature="0" />
	<path style="fill:none;stroke:red;stroke-width:1px;stroke-linecap:butt;stroke-linejoin:miter;stroke-opacity:1" d="M 192.354,255.139 154.684,305.367 z" id="boundary" inkscape:connector-curvature="0" />
	<path style="fill:none;stroke:red;stroke-width:1px;stroke-linecap:butt;stroke-linejoin:miter;stroke-opacity:1" d="M 160.962,732.304 98.1772,751.139 z" id="boundary" inkscape:connector-curvature="0" />
	<path style="fill:none;stroke:red;stroke-width:1px;stroke-linecap:butt;stroke-linejoin:miter;stroke-opacity:1" d="M 98.1772,751.139 47.9494,713.468 z" id="boundary" inkscape:connector-curvature="0" />
	<path style="fill:none;stroke:red;stroke-width:1px;stroke-linecap:butt;stroke-linejoin:miter;stroke-opacity:1" d="M 47.9494,713.468 16.557,656.962 z" id="boundary" inkscape:connector-curvature="0" />
	<path style="fill:none;stroke:red;stroke-width:1px;stroke-linecap:butt;stroke-linejoin:miter;stroke-opacity:1" d="M 198.633,788.81 173.519,851.595 z" id="boundary" inkscape:connector-curvature="0" />
	<path style="fill:none;stroke:red;stroke-width:1px;stroke-linecap:butt;stroke-linejoin:miter;stroke-opacity:1" d="M 179.797,977.165 117.013,983.443 z" id="boundary" inkscape:connector-curvature="0" />
	<path style="fill:none;stroke:red;stroke-width:1px;stroke-linecap:butt;stroke-linejoin:miter;stroke-opacity:1" d="M 160.962,732.304 198.633,788.81 z" id="boundary" inkscape:connector-curvature="0" />
	<path style="fill:none;stroke:red;stroke-width:1px;stroke-linecap:butt;stroke-linejoin:miter;stroke-opacity:1" d="M 336.759,788.81 273.975,795.089 z" id="boundary" inkscape:connector-curvature="0" />
	<path style="fill:none;stroke:red;stroke-width:1px;stroke-linecap:butt;stroke-linejoin:miter;stroke-opacity:1" d="M 242.582,851.595 273.975,795.089 z" id="boundary" inkscape:connector-curvature="0" />
	<path style="fill:none;stroke:red;stroke-width:1px;stroke-linecap:butt;stroke-linejoin:miter;stroke-opacity:1" d="M 336.759,788.81 386.987,826.481 z" id="boundary" inkscape:connector-curvature="0" />
	<path style="fill:none;stroke:red;stroke-width:1px;stroke-linecap:butt;stroke-linejoin:miter;stroke-opacity:1" d="M 292.81,4 349.316,35.3924 z" id="boundary" inkscape:connector-curvature="0" />
	<path style="fill:none;stroke:red;stroke-width:1px;stroke-linecap:butt;stroke-linejoin:miter;stroke-opacity:1" d="M 386.987,160.962 361.873,98.1772 z" id="boundary" inkscape:connector-curvature="0" />
	<path style="fill:none;stroke:red;stroke-width:1px;stroke-linecap:butt;stroke-linejoin:miter;stroke-opacity:1" d="M 361.873,98.1772 349.316,35.3924 z" id="boundary" inkscape:connector-curvature="0" />
	<path style="fill:none;stroke:red;stroke-width:1px;stroke-linecap:butt;stroke-linejoin:miter;stroke-opacity:1" d="M 386.987,160.962 412.101,223.747 z" id="boundary" inkscape:connector-curvature="0" />
	<path style="fill:none;stroke:red;stroke-width:1px;stroke-linecap:butt;stroke-linejoin:miter;stroke-opacity:1" d="M 280.253,117.013 361.873,98.1772 z" id="boundary" inkscape:connector-curvature="0" />
	<path style="fill:none;stroke:red;stroke-width:1px;stroke-linecap:butt;stroke-linejoin:miter;stroke-opacity:1" d="M 412.101,223.747 462.329,267.696 z" id="boundary" inkscape:connector-curvature="0" />
	<path style="fill:none;stroke:red;stroke-width:1px;stroke-linecap:butt;stroke-linejoin:miter;stroke-opacity:1" d="M 462.329,267.696 474.886,330.481 z" id="boundary" inkscape:connector-curvature="0" />
	<path style="fill:none;stroke:red;stroke-width:1px;stroke-linecap:butt;stroke-linejoin:miter;stroke-opacity:1" d="M 474.886,330.481 500,393.266 z" id="boundary" inkscape:connector-curvature="0" />
	<path style="fill:none;stroke:red;stroke-width:1px;stroke-linecap:butt;stroke-linejoin:miter;stroke-opacity:1" d="M 512.557,456.051 500,393.266 z" id="boundary" inkscape:connector-curvature="0" />
	<path style="fill:none;stroke:red;stroke-width:1px;stroke-linecap:butt;stroke-linejoin:miter;stroke-opacity:1" d="M 594.177,493.722 531.392,518.835 z" id="boundary" inkscape:connector-curvature="0" />
	<path style="fill:none;stroke:red;stroke-width:1px;stroke-linecap:butt;stroke-linejoin:miter;stroke-opacity:1" d="M 531.392,518.835 512.557,456.051 z" id="boundary" inkscape:connector-curvature="0" />
	<path style="fill:none;stroke:red;stroke-width:1px;stroke-linecap:butt;stroke-linejoin:miter;stroke-opacity:1" d="M 650.684,525.114 663.241,606.734 z" id="boundary" inkscape:connector-curvature="0" />
	<path style="fill:none;stroke:red;stroke-width:1px;stroke-linecap:butt;stroke-linejoin:miter;stroke-opacity:1" d="M 594.177,493.722 650.684,525.114 z" id="boundary" inkscape:connector-curvature="0" />
	<path style="fill:none;stroke:red;stroke-width:1px;stroke-linecap:butt;stroke-linejoin:miter;stroke-opacity:1" d="M 424.658,744.861 449.772,807.646 z" id="boundary" inkscape:connector-curvature="0" />
	<path style="fill:none;stroke:red;stroke-width:1px;stroke-linecap:butt;stroke-linejoin:miter;stroke-opacity:1" d="M 449.772,807.646 386.987,826.481 z" id="boundary" inkscape:connector-curvature="0" />
	<path style="fill:none;stroke:red;stroke-width:1px;stroke-linecap:butt;stroke-linejoin:miter;stroke-opacity:1" d="M 481.165,864.152 449.772,807.646 z" id="boundary" inkscape:connector-curvature="0" />
	<path style="fill:none;stroke:red;stroke-width:1px;stroke-linecap:butt;stroke-linejoin:miter;stroke-opacity:1" d="M 418.38,882.987 386.987,826.481 z" id="boundary" inkscape:connector-curvature="0" />
	<path style="fill:none;stroke:red;stroke-width:1px;stroke-linecap:butt;stroke-linejoin:miter;stroke-opacity:1" d="M 418.38,882.987 481.165,864.152 z" id="boundary" inkscape:connector-curvature="0" />
	<path style="fill:none;stroke:red;stroke-width:1px;stroke-linecap:butt;stroke-linejoin:miter;stroke-opacity:1" d="M 449.772,939.494 418.38,882.987 z" id="boundary" inkscape:connector-curvature="0" />
	<path style="fill:none;stroke:red;stroke-width:1px;stroke-linecap:butt;stroke-linejoin:miter;stroke-opacity:1" d="M 512.557,933.215 449.772,939.494 z" id="boundary" inkscape:connector-curvature="0" />
	<path style="fill:none;stroke:red;stroke-width:1px;stroke-linecap:butt;stroke-linejoin:miter;stroke-opacity:1" d="M 424.658,744.861 487.443,726.025 z" id="boundary" inkscape:connector-curvature="0" />
	<path style="fill:none;stroke:red;stroke-width:1px;stroke-linecap:butt;stroke-linejoin:miter;stroke-opacity:1" d="M 613.013,719.747 663.241,669.519 z" id="boundary" inkscape:connector-curvature="0" />
	<path style="fill:none;stroke:red;stroke-width:1px;stroke-linecap:butt;stroke-linejoin:miter;stroke-opacity:1" d="M 613.013,719.747 550.228,751.139 z" id="boundary" inkscape:connector-curvature="0" />
	<path style="fill:none;stroke:red;stroke-width:1px;stroke-linecap:butt;stroke-linejoin:miter;stroke-opacity:1" d="M 550.228,751.139 487.443,726.025 z" id="boundary" inkscape:connector-curvature="0" />
	<path style="fill:none;stroke:red;stroke-width:1px;stroke-linecap:butt;stroke-linejoin:miter;stroke-opacity:1" d="M 663.241,606.734 663.241,669.519 z" id="boundary" inkscape:connector-curvature="0" />
	<circle cx="4" cy="531.392" r="4" fill="#0" id="circle0"/>
	<circle cx="4" cy="594.177" r="4" fill="#0" id="circle1"/>
	<circle cx="16.557" cy="656.962" r="4" fill="#0" id="circle2"/>
	<circle cx="47.9494" cy="713.468" r="4" fill="#0" id="circle3"/>
	<circle cx="54.2278" cy="493.722" r="4" fill="#0" id="circle4"/>
	<circle cx="91.8987" cy="430.937" r="4" fill="#0" id="circle5"/>
	<circle cx="98.1772" cy="751.139" r="4" fill="#0" id="circle6"/>
	<circle cx="117.013" cy="355.595" r="4" fill="#0" id="circle7"/>
	<circle cx="117.013" cy="983.443" r="4" fill="#0" id="circle8"/>
	<circle cx="142.127" cy="908.101" r="4" fill="#0" id="circle9"/>
	<circle cx="154.684" cy="305.367" r="4" fill="#0" id="circle10"/>
	<circle cx="160.962" cy="732.304" r="4" fill="#0" id="circle11"/>
	<circle cx="173.519" cy="851.595" r="4" fill="#0" id="circle12"/>
	<circle cx="179.797" cy="977.165" r="4" fill="#0" id="circle13"/>
	<circle cx="192.354" cy="255.139" r="4" fill="#0" id="circle14"/>
	<circle cx="198.633" cy="788.81" r="4" fill="#0" id="circle15"/>
	<circle cx="211.19" cy="908.101" r="4" fill="#0" id="circle16"/>
	<circle cx="242.582" cy="851.595" r="4" fill="#0" id="circle17"/>
	<circle cx="248.861" cy="223.747" r="4" fill="#0" id="circle18"/>
	<circle cx="273.975" cy="795.089" r="4" fill="#0" id="circle19"/>
	<circle cx="280.253" cy="117.013" r="4" fill="#0" id="circle20"/>
	<circle cx="292.81" cy="4" r="4" fill="#0" id="circle21"/>
	<circle cx="336.759" cy="788.81" r="4" fill="#0" id="circle22"/>
	<circle cx="349.316" cy="35.3924" r="4" fill="#0" id="circle23"/>
	<circle cx="361.873" cy="98.1772" r="4" fill="#0" id="circle24"/>
	<circle cx="386.987" cy="160.962" r="4" fill="#0" id="circle25"/>
	<circle cx="386.987" cy="826.481" r="4" fill="#0" id="circle26"/>
	<circle cx="412.101" cy="223.747" r="4" fill="#0" id="circle27"/>
	<circle cx="418.38" cy="882.987" r="4" fill="#0" id="circle28"/>
	<circle cx="424.658" cy="744.861" r="4" fill="#0" id="circle29"/>
	<circle cx="449.772" cy="807.646" r="4" fill="#0" id="circle30"/>
	<circle cx="449.772" cy="939.494" r="4" fill="#0" id="circle31"/>
	<circle cx="462.329" cy="267.696" r="4" fill="#0" id="circle32"/>
	<circle cx="474.886" cy="330.481" r="4" fill="#0" id="circle33"/>
	<circle cx="481.165" cy="864.152" r="4" fill="#0" id="circle34"/>
	<circle cx="481.165" cy="996" r="4" fill="#0" id="circle35"/>
	<circle cx="487.443" cy="726.025" r="4" fill="#0" id="circle36"/>
	<circle cx="500" cy="393.266" r="4" fill="#0" id="circle37"/>
	<circle cx="512.557" cy="456.051" r="4" fill="#0" id="circle38"/>
	<circle cx="512.557" cy="933.215" r="4" fill="#0" id="circle39"/>
	<circle cx="531.392" cy="518.835" r="4" fill="#0" id="circle40"/>
	<circle cx="550.228" cy="751.139" r="4" fill="#0" id="circle41"/>
	<circle cx="594.177" cy="493.722" r="4" fill="#0" id="circle42"/>
	<circle cx="613.013" cy="719.747" r="4" fill="#0" id="circle43"/>
	<circle cx="650.684" cy="525.114" r="4" fill="#0" id="circle44"/>
	<circle cx="663.241" cy="606.734" r="4" fill="#0" id="circle45"/>
	<circle cx="663.241" cy="669.519" r="4" fill="#0" id="circle46"/>
	</g>
</svg>