<?xml version="1.0" encoding="UTF-8" standalone="no"?>
<!-- Created with CurveBenchmark -->
<svg
	xmlns:dc="http://purl.org/dc/elements/1.1/"
	xmlns:cc="http://creativecommons.org/ns#"
	xmlns:rdf="http://www.w3.org/1999/02/22-rdf-syntax-ns#"
	xmlns:svg="http://www.w3.org/2000/svg"
	xmlns="http://www.w3.org/2000/svg"
	xmlns:sodipodi="http://sodipodi.sourceforge.net/DTD/sodipodi-0.dtd"
	xmlns:inkscape="http://www.inkscape.org/namespaces/inkscape"
	width="1000"
	height="1000"
	id="svg2"
	version="1.1"
	sodipodi:docname="manifold/ccrust-hammer140.png.txt">
<defs
	id="defs4" />
<metadata
	id="metadata7">
	<rdf:RDF>
		<cc:Work
			rdf:about="">
			<dc:format>image/svg+xml</dc:format>
			<dc:type
				rdf:resource="http://purl.org/dc/dcmitype/StillImage" />
			<dc:title></dc:title>
		</cc:Work>
	</rdf:RDF>
</metadata>
<g
	inkscape:label="Layer 1"
	inkscape:groupmode="layer"
	id="layer1">
	<path style="fill:none;stroke:red;stroke-width:1px;stroke-linecap:butt;stroke-linejoin:miter;stroke-opacity:1" d="M 4,61.5072 4,32.7536 z" id="boundary" inkscape:connector-curvature="0" />
	<path style="fill:none;stroke:red;stroke-width:1px;stroke-linecap:butt;stroke-linejoin:miter;stroke-opacity:1" d="M 75.8841,9.75072 47.1304,4 z" id="boundary" inkscape:connector-curvature="0" />
	<path style="fill:none;stroke:red;stroke-width:1px;stroke-linecap:butt;stroke-linejoin:miter;stroke-opacity:1" d="M 104.638,4 75.8841,9.75072 z" id="boundary" inkscape:connector-curvature="0" />
	<path style="fill:none;stroke:red;stroke-width:1px;stroke-linecap:butt;stroke-linejoin:miter;stroke-opacity:1" d="M 4,32.7536 18.3768,6.87536 z" id="boundary" inkscape:connector-curvature="0" />
	<path style="fill:none;stroke:red;stroke-width:1px;stroke-linecap:butt;stroke-linejoin:miter;stroke-opacity:1" d="M 18.3768,6.87536 47.1304,4 z" id="boundary" inkscape:connector-curvature="0" />
	<path style="fill:none;stroke:red;stroke-width:1px;stroke-linecap:butt;stroke-linejoin:miter;stroke-opacity:1" d="M 75.8841,78.7594 50.0058,93.1362 z" id="boundary" inkscape:connector-curvature="0" />
	<path style="fill:none;stroke:red;stroke-width:1px;stroke-linecap:butt;stroke-linejoin:miter;stroke-opacity:1" d="M 50.0058,93.1362 21.2522,84.5101 z" id="boundary" inkscape:connector-curvature="0" />
	<path style="fill:none;stroke:red;stroke-width:1px;stroke-linecap:butt;stroke-linejoin:miter;stroke-opacity:1" d="M 21.2522,84.5101 4,61.5072 z" id="boundary" inkscape:connector-curvature="0" />
	<path style="fill:none;stroke:red;stroke-width:1px;stroke-linecap:butt;stroke-linejoin:miter;stroke-opacity:1" d="M 75.8841,78.7594 98.887,96.0116 z" id="boundary" inkscape:connector-curvature="0" />
	<path style="fill:none;stroke:red;stroke-width:1px;stroke-linecap:butt;stroke-linejoin:miter;stroke-opacity:1" d="M 101.762,124.765 101.762,153.519 z" id="boundary" inkscape:connector-curvature="0" />
	<path style="fill:none;stroke:red;stroke-width:1px;stroke-linecap:butt;stroke-linejoin:miter;stroke-opacity:1" d="M 101.762,124.765 98.887,96.0116 z" id="boundary" inkscape:connector-curvature="0" />
	<path style="fill:none;stroke:red;stroke-width:1px;stroke-linecap:butt;stroke-linejoin:miter;stroke-opacity:1" d="M 119.014,176.522 101.762,153.519 z" id="boundary" inkscape:connector-curvature="0" />
	<path style="fill:none;stroke:red;stroke-width:1px;stroke-linecap:butt;stroke-linejoin:miter;stroke-opacity:1" d="M 119.014,176.522 124.765,205.275 z" id="boundary" inkscape:connector-curvature="0" />
	<path style="fill:none;stroke:red;stroke-width:1px;stroke-linecap:butt;stroke-linejoin:miter;stroke-opacity:1" d="M 133.391,4 162.145,4 z" id="boundary" inkscape:connector-curvature="0" />
	<path style="fill:none;stroke:red;stroke-width:1px;stroke-linecap:butt;stroke-linejoin:miter;stroke-opacity:1" d="M 130.516,234.029 124.765,205.275 z" id="boundary" inkscape:connector-curvature="0" />
	<path style="fill:none;stroke:red;stroke-width:1px;stroke-linecap:butt;stroke-linejoin:miter;stroke-opacity:1" d="M 130.516,234.029 130.516,262.783 z" id="boundary" inkscape:connector-curvature="0" />
	<path style="fill:none;stroke:red;stroke-width:1px;stroke-linecap:butt;stroke-linejoin:miter;stroke-opacity:1" d="M 130.516,291.536 130.516,262.783 z" id="boundary" inkscape:connector-curvature="0" />
	<path style="fill:none;stroke:red;stroke-width:1px;stroke-linecap:butt;stroke-linejoin:miter;stroke-opacity:1" d="M 130.516,320.29 130.516,349.043 z" id="boundary" inkscape:connector-curvature="0" />
	<path style="fill:none;stroke:red;stroke-width:1px;stroke-linecap:butt;stroke-linejoin:miter;stroke-opacity:1" d="M 130.516,377.797 130.516,349.043 z" id="boundary" inkscape:connector-curvature="0" />
	<path style="fill:none;stroke:red;stroke-width:1px;stroke-linecap:butt;stroke-linejoin:miter;stroke-opacity:1" d="M 130.516,320.29 130.516,291.536 z" id="boundary" inkscape:connector-curvature="0" />
	<path style="fill:none;stroke:red;stroke-width:1px;stroke-linecap:butt;stroke-linejoin:miter;stroke-opacity:1" d="M 130.516,406.551 130.516,377.797 z" id="boundary" inkscape:connector-curvature="0" />
	<path style="fill:none;stroke:red;stroke-width:1px;stroke-linecap:butt;stroke-linejoin:miter;stroke-opacity:1" d="M 104.638,4 133.391,4 z" id="boundary" inkscape:connector-curvature="0" />
	<path style="fill:none;stroke:red;stroke-width:1px;stroke-linecap:butt;stroke-linejoin:miter;stroke-opacity:1" d="M 107.513,504.313 107.513,533.067 z" id="boundary" inkscape:connector-curvature="0" />
	<path style="fill:none;stroke:red;stroke-width:1px;stroke-linecap:butt;stroke-linejoin:miter;stroke-opacity:1" d="M 107.513,504.313 107.513,475.559 z" id="boundary" inkscape:connector-curvature="0" />
	<path style="fill:none;stroke:red;stroke-width:1px;stroke-linecap:butt;stroke-linejoin:miter;stroke-opacity:1" d="M 107.513,475.559 121.89,449.681 z" id="boundary" inkscape:connector-curvature="0" />
	<path style="fill:none;stroke:red;stroke-width:1px;stroke-linecap:butt;stroke-linejoin:miter;stroke-opacity:1" d="M 107.513,561.82 107.513,590.574 z" id="boundary" inkscape:connector-curvature="0" />
	<path style="fill:none;stroke:red;stroke-width:1px;stroke-linecap:butt;stroke-linejoin:miter;stroke-opacity:1" d="M 107.513,561.82 107.513,533.067 z" id="boundary" inkscape:connector-curvature="0" />
	<path style="fill:none;stroke:red;stroke-width:1px;stroke-linecap:butt;stroke-linejoin:miter;stroke-opacity:1" d="M 107.513,590.574 107.513,619.328 z" id="boundary" inkscape:connector-curvature="0" />
	<path style="fill:none;stroke:red;stroke-width:1px;stroke-linecap:butt;stroke-linejoin:miter;stroke-opacity:1" d="M 101.762,895.362 101.762,924.116 z" id="boundary" inkscape:connector-curvature="0" />
	<path style="fill:none;stroke:red;stroke-width:1px;stroke-linecap:butt;stroke-linejoin:miter;stroke-opacity:1" d="M 101.762,924.116 96.0116,975.872 z" id="boundary" inkscape:connector-curvature="0" />
	<path style="fill:none;stroke:red;stroke-width:1px;stroke-linecap:butt;stroke-linejoin:miter;stroke-opacity:1" d="M 107.513,648.081 107.513,676.835 z" id="boundary" inkscape:connector-curvature="0" />
	<path style="fill:none;stroke:red;stroke-width:1px;stroke-linecap:butt;stroke-linejoin:miter;stroke-opacity:1" d="M 107.513,705.588 107.513,676.835 z" id="boundary" inkscape:connector-curvature="0" />
	<path style="fill:none;stroke:red;stroke-width:1px;stroke-linecap:butt;stroke-linejoin:miter;stroke-opacity:1" d="M 107.513,619.328 107.513,648.081 z" id="boundary" inkscape:connector-curvature="0" />
	<path style="fill:none;stroke:red;stroke-width:1px;stroke-linecap:butt;stroke-linejoin:miter;stroke-opacity:1" d="M 107.513,705.588 107.513,734.342 z" id="boundary" inkscape:connector-curvature="0" />
	<path style="fill:none;stroke:red;stroke-width:1px;stroke-linecap:butt;stroke-linejoin:miter;stroke-opacity:1" d="M 107.513,763.096 107.513,734.342 z" id="boundary" inkscape:connector-curvature="0" />
	<path style="fill:none;stroke:red;stroke-width:1px;stroke-linecap:butt;stroke-linejoin:miter;stroke-opacity:1" d="M 107.513,791.849 107.513,763.096 z" id="boundary" inkscape:connector-curvature="0" />
	<path style="fill:none;stroke:red;stroke-width:1px;stroke-linecap:butt;stroke-linejoin:miter;stroke-opacity:1" d="M 130.516,406.551 121.89,449.681 z" id="boundary" inkscape:connector-curvature="0" />
	<path style="fill:none;stroke:red;stroke-width:1px;stroke-linecap:butt;stroke-linejoin:miter;stroke-opacity:1" d="M 107.513,791.849 107.513,820.603 z" id="boundary" inkscape:connector-curvature="0" />
	<path style="fill:none;stroke:red;stroke-width:1px;stroke-linecap:butt;stroke-linejoin:miter;stroke-opacity:1" d="M 107.513,849.357 107.513,820.603 z" id="boundary" inkscape:connector-curvature="0" />
	<path style="fill:none;stroke:red;stroke-width:1px;stroke-linecap:butt;stroke-linejoin:miter;stroke-opacity:1" d="M 101.762,895.362 107.513,849.357 z" id="boundary" inkscape:connector-curvature="0" />
	<path style="fill:none;stroke:red;stroke-width:1px;stroke-linecap:butt;stroke-linejoin:miter;stroke-opacity:1" d="M 119.014,996 96.0116,975.872 z" id="boundary" inkscape:connector-curvature="0" />
	<path style="fill:none;stroke:red;stroke-width:1px;stroke-linecap:butt;stroke-linejoin:miter;stroke-opacity:1" d="M 147.768,996 119.014,996 z" id="boundary" inkscape:connector-curvature="0" />
	<path style="fill:none;stroke:red;stroke-width:1px;stroke-linecap:butt;stroke-linejoin:miter;stroke-opacity:1" d="M 176.522,996 147.768,996 z" id="boundary" inkscape:connector-curvature="0" />
	<path style="fill:none;stroke:red;stroke-width:1px;stroke-linecap:butt;stroke-linejoin:miter;stroke-opacity:1" d="M 190.899,4 219.652,4 z" id="boundary" inkscape:connector-curvature="0" />
	<path style="fill:none;stroke:red;stroke-width:1px;stroke-linecap:butt;stroke-linejoin:miter;stroke-opacity:1" d="M 219.652,4 248.406,4 z" id="boundary" inkscape:connector-curvature="0" />
	<path style="fill:none;stroke:red;stroke-width:1px;stroke-linecap:butt;stroke-linejoin:miter;stroke-opacity:1" d="M 248.406,4 271.409,21.2522 z" id="boundary" inkscape:connector-curvature="0" />
	<path style="fill:none;stroke:red;stroke-width:1px;stroke-linecap:butt;stroke-linejoin:miter;stroke-opacity:1" d="M 213.901,205.275 225.403,159.27 z" id="boundary" inkscape:connector-curvature="0" />
	<path style="fill:none;stroke:red;stroke-width:1px;stroke-linecap:butt;stroke-linejoin:miter;stroke-opacity:1" d="M 208.151,257.032 208.151,285.786 z" id="boundary" inkscape:connector-curvature="0" />
	<path style="fill:none;stroke:red;stroke-width:1px;stroke-linecap:butt;stroke-linejoin:miter;stroke-opacity:1" d="M 208.151,257.032 213.901,205.275 z" id="boundary" inkscape:connector-curvature="0" />
	<path style="fill:none;stroke:red;stroke-width:1px;stroke-linecap:butt;stroke-linejoin:miter;stroke-opacity:1" d="M 208.151,285.786 208.151,314.539 z" id="boundary" inkscape:connector-curvature="0" />
	<path style="fill:none;stroke:red;stroke-width:1px;stroke-linecap:butt;stroke-linejoin:miter;stroke-opacity:1" d="M 208.151,343.293 208.151,314.539 z" id="boundary" inkscape:connector-curvature="0" />
	<path style="fill:none;stroke:red;stroke-width:1px;stroke-linecap:butt;stroke-linejoin:miter;stroke-opacity:1" d="M 208.151,372.046 208.151,343.293 z" id="boundary" inkscape:connector-curvature="0" />
	<path style="fill:none;stroke:red;stroke-width:1px;stroke-linecap:butt;stroke-linejoin:miter;stroke-opacity:1" d="M 236.904,119.014 262.783,133.391 z" id="boundary" inkscape:connector-curvature="0" />
	<path style="fill:none;stroke:red;stroke-width:1px;stroke-linecap:butt;stroke-linejoin:miter;stroke-opacity:1" d="M 208.151,372.046 208.151,400.8 z" id="boundary" inkscape:connector-curvature="0" />
	<path style="fill:none;stroke:red;stroke-width:1px;stroke-linecap:butt;stroke-linejoin:miter;stroke-opacity:1" d="M 291.536,44.2551 308.788,67.258 z" id="boundary" inkscape:connector-curvature="0" />
	<path style="fill:none;stroke:red;stroke-width:1px;stroke-linecap:butt;stroke-linejoin:miter;stroke-opacity:1" d="M 308.788,67.258 326.041,90.2609 z" id="boundary" inkscape:connector-curvature="0" />
	<path style="fill:none;stroke:red;stroke-width:1px;stroke-linecap:butt;stroke-linejoin:miter;stroke-opacity:1" d="M 326.041,90.2609 340.417,116.139 z" id="boundary" inkscape:connector-curvature="0" />
	<path style="fill:none;stroke:red;stroke-width:1px;stroke-linecap:butt;stroke-linejoin:miter;stroke-opacity:1" d="M 262.783,133.391 280.035,156.394 z" id="boundary" inkscape:connector-curvature="0" />
	<path style="fill:none;stroke:red;stroke-width:1px;stroke-linecap:butt;stroke-linejoin:miter;stroke-opacity:1" d="M 297.287,179.397 280.035,156.394 z" id="boundary" inkscape:connector-curvature="0" />
	<path style="fill:none;stroke:red;stroke-width:1px;stroke-linecap:butt;stroke-linejoin:miter;stroke-opacity:1" d="M 326.041,179.397 297.287,179.397 z" id="boundary" inkscape:connector-curvature="0" />
	<path style="fill:none;stroke:red;stroke-width:1px;stroke-linecap:butt;stroke-linejoin:miter;stroke-opacity:1" d="M 346.168,144.893 354.794,173.646 z" id="boundary" inkscape:connector-curvature="0" />
	<path style="fill:none;stroke:red;stroke-width:1px;stroke-linecap:butt;stroke-linejoin:miter;stroke-opacity:1" d="M 354.794,173.646 326.041,179.397 z" id="boundary" inkscape:connector-curvature="0" />
	<path style="fill:none;stroke:red;stroke-width:1px;stroke-linecap:butt;stroke-linejoin:miter;stroke-opacity:1" d="M 346.168,144.893 340.417,116.139 z" id="boundary" inkscape:connector-curvature="0" />
	<path style="fill:none;stroke:red;stroke-width:1px;stroke-linecap:butt;stroke-linejoin:miter;stroke-opacity:1" d="M 271.409,21.2522 291.536,44.2551 z" id="boundary" inkscape:connector-curvature="0" />
	<path style="fill:none;stroke:red;stroke-width:1px;stroke-linecap:butt;stroke-linejoin:miter;stroke-opacity:1" d="M 213.901,429.554 222.528,458.307 z" id="boundary" inkscape:connector-curvature="0" />
	<path style="fill:none;stroke:red;stroke-width:1px;stroke-linecap:butt;stroke-linejoin:miter;stroke-opacity:1" d="M 213.901,429.554 208.151,400.8 z" id="boundary" inkscape:connector-curvature="0" />
	<path style="fill:none;stroke:red;stroke-width:1px;stroke-linecap:butt;stroke-linejoin:miter;stroke-opacity:1" d="M 231.154,487.061 236.904,515.814 z" id="boundary" inkscape:connector-curvature="0" />
	<path style="fill:none;stroke:red;stroke-width:1px;stroke-linecap:butt;stroke-linejoin:miter;stroke-opacity:1" d="M 222.528,458.307 231.154,487.061 z" id="boundary" inkscape:connector-curvature="0" />
	<path style="fill:none;stroke:red;stroke-width:1px;stroke-linecap:butt;stroke-linejoin:miter;stroke-opacity:1" d="M 236.904,515.814 236.904,544.568 z" id="boundary" inkscape:connector-curvature="0" />
	<path style="fill:none;stroke:red;stroke-width:1px;stroke-linecap:butt;stroke-linejoin:miter;stroke-opacity:1" d="M 239.78,947.119 234.029,996 z" id="boundary" inkscape:connector-curvature="0" />
	<path style="fill:none;stroke:red;stroke-width:1px;stroke-linecap:butt;stroke-linejoin:miter;stroke-opacity:1" d="M 234.029,996 205.275,996 z" id="boundary" inkscape:connector-curvature="0" />
	<path style="fill:none;stroke:red;stroke-width:1px;stroke-linecap:butt;stroke-linejoin:miter;stroke-opacity:1" d="M 236.904,544.568 236.904,573.322 z" id="boundary" inkscape:connector-curvature="0" />
	<path style="fill:none;stroke:red;stroke-width:1px;stroke-linecap:butt;stroke-linejoin:miter;stroke-opacity:1" d="M 236.904,573.322 236.904,602.075 z" id="boundary" inkscape:connector-curvature="0" />
	<path style="fill:none;stroke:red;stroke-width:1px;stroke-linecap:butt;stroke-linejoin:miter;stroke-opacity:1" d="M 236.904,602.075 236.904,630.829 z" id="boundary" inkscape:connector-curvature="0" />
	<path style="fill:none;stroke:red;stroke-width:1px;stroke-linecap:butt;stroke-linejoin:miter;stroke-opacity:1" d="M 236.904,688.336 236.904,717.09 z" id="boundary" inkscape:connector-curvature="0" />
	<path style="fill:none;stroke:red;stroke-width:1px;stroke-linecap:butt;stroke-linejoin:miter;stroke-opacity:1" d="M 236.904,630.829 236.904,659.583 z" id="boundary" inkscape:connector-curvature="0" />
	<path style="fill:none;stroke:red;stroke-width:1px;stroke-linecap:butt;stroke-linejoin:miter;stroke-opacity:1" d="M 236.904,659.583 236.904,688.336 z" id="boundary" inkscape:connector-curvature="0" />
	<path style="fill:none;stroke:red;stroke-width:1px;stroke-linecap:butt;stroke-linejoin:miter;stroke-opacity:1" d="M 236.904,745.843 236.904,774.597 z" id="boundary" inkscape:connector-curvature="0" />
	<path style="fill:none;stroke:red;stroke-width:1px;stroke-linecap:butt;stroke-linejoin:miter;stroke-opacity:1" d="M 236.904,745.843 236.904,717.09 z" id="boundary" inkscape:connector-curvature="0" />
	<path style="fill:none;stroke:red;stroke-width:1px;stroke-linecap:butt;stroke-linejoin:miter;stroke-opacity:1" d="M 236.904,774.597 236.904,803.351 z" id="boundary" inkscape:connector-curvature="0" />
	<path style="fill:none;stroke:red;stroke-width:1px;stroke-linecap:butt;stroke-linejoin:miter;stroke-opacity:1" d="M 236.904,832.104 236.904,860.858 z" id="boundary" inkscape:connector-curvature="0" />
	<path style="fill:none;stroke:red;stroke-width:1px;stroke-linecap:butt;stroke-linejoin:miter;stroke-opacity:1" d="M 236.904,832.104 236.904,803.351 z" id="boundary" inkscape:connector-curvature="0" />
	<path style="fill:none;stroke:red;stroke-width:1px;stroke-linecap:butt;stroke-linejoin:miter;stroke-opacity:1" d="M 236.904,860.858 236.904,889.612 z" id="boundary" inkscape:connector-curvature="0" />
	<path style="fill:none;stroke:red;stroke-width:1px;stroke-linecap:butt;stroke-linejoin:miter;stroke-opacity:1" d="M 239.78,947.119 236.904,918.365 z" id="boundary" inkscape:connector-curvature="0" />
	<path style="fill:none;stroke:red;stroke-width:1px;stroke-linecap:butt;stroke-linejoin:miter;stroke-opacity:1" d="M 236.904,918.365 236.904,889.612 z" id="boundary" inkscape:connector-curvature="0" />
	<path style="fill:none;stroke:red;stroke-width:1px;stroke-linecap:butt;stroke-linejoin:miter;stroke-opacity:1" d="M 205.275,996 176.522,996 z" id="boundary" inkscape:connector-curvature="0" />
	<path style="fill:none;stroke:red;stroke-width:1px;stroke-linecap:butt;stroke-linejoin:miter;stroke-opacity:1" d="M 162.145,4 190.899,4 z" id="boundary" inkscape:connector-curvature="0" />
	<circle cx="4" cy="32.7536" r="4" fill="#0" id="circle0"/>
	<circle cx="4" cy="61.5072" r="4" fill="#0" id="circle1"/>
	<circle cx="18.3768" cy="6.87536" r="4" fill="#0" id="circle2"/>
	<circle cx="21.2522" cy="84.5101" r="4" fill="#0" id="circle3"/>
	<circle cx="47.1304" cy="4" r="4" fill="#0" id="circle4"/>
	<circle cx="50.0058" cy="93.1362" r="4" fill="#0" id="circle5"/>
	<circle cx="75.8841" cy="9.75072" r="4" fill="#0" id="circle6"/>
	<circle cx="75.8841" cy="78.7594" r="4" fill="#0" id="circle7"/>
	<circle cx="96.0116" cy="975.872" r="4" fill="#0" id="circle8"/>
	<circle cx="98.887" cy="96.0116" r="4" fill="#0" id="circle9"/>
	<circle cx="101.762" cy="124.765" r="4" fill="#0" id="circle10"/>
	<circle cx="101.762" cy="153.519" r="4" fill="#0" id="circle11"/>
	<circle cx="101.762" cy="895.362" r="4" fill="#0" id="circle12"/>
	<circle cx="101.762" cy="924.116" r="4" fill="#0" id="circle13"/>
	<circle cx="104.638" cy="4" r="4" fill="#0" id="circle14"/>
	<circle cx="107.513" cy="475.559" r="4" fill="#0" id="circle15"/>
	<circle cx="107.513" cy="504.313" r="4" fill="#0" id="circle16"/>
	<circle cx="107.513" cy="533.067" r="4" fill="#0" id="circle17"/>
	<circle cx="107.513" cy="561.82" r="4" fill="#0" id="circle18"/>
	<circle cx="107.513" cy="590.574" r="4" fill="#0" id="circle19"/>
	<circle cx="107.513" cy="619.328" r="4" fill="#0" id="circle20"/>
	<circle cx="107.513" cy="648.081" r="4" fill="#0" id="circle21"/>
	<circle cx="107.513" cy="676.835" r="4" fill="#0" id="circle22"/>
	<circle cx="107.513" cy="705.588" r="4" fill="#0" id="circle23"/>
	<circle cx="107.513" cy="734.342" r="4" fill="#0" id="circle24"/>
	<circle cx="107.513" cy="763.096" r="4" fill="#0" id="circle25"/>
	<circle cx="107.513" cy="791.849" r="4" fill="#0" id="circle26"/>
	<circle cx="107.513" cy="820.603" r="4" fill="#0" id="circle27"/>
	<circle cx="107.513" cy="849.357" r="4" fill="#0" id="circle28"/>
	<circle cx="119.014" cy="176.522" r="4" fill="#0" id="circle29"/>
	<circle cx="119.014" cy="996" r="4" fill="#0" id="circle30"/>
	<circle cx="121.89" cy="449.681" r="4" fill="#0" id="circle31"/>
	<circle cx="124.765" cy="205.275" r="4" fill="#0" id="circle32"/>
	<circle cx="130.516" cy="234.029" r="4" fill="#0" id="circle33"/>
	<circle cx="130.516" cy="262.783" r="4" fill="#0" id="circle34"/>
	<circle cx="130.516" cy="291.536" r="4" fill="#0" id="circle35"/>
	<circle cx="130.516" cy="320.29" r="4" fill="#0" id="circle36"/>
	<circle cx="130.516" cy="349.043" r="4" fill="#0" id="circle37"/>
	<circle cx="130.516" cy="377.797" r="4" fill="#0" id="circle38"/>
	<circle cx="130.516" cy="406.551" r="4" fill="#0" id="circle39"/>
	<circle cx="133.391" cy="4" r="4" fill="#0" id="circle40"/>
	<circle cx="147.768" cy="996" r="4" fill="#0" id="circle41"/>
	<circle cx="162.145" cy="4" r="4" fill="#0" id="circle42"/>
	<circle cx="176.522" cy="996" r="4" fill="#0" id="circle43"/>
	<circle cx="190.899" cy="4" r="4" fill="#0" id="circle44"/>
	<circle cx="205.275" cy="996" r="4" fill="#0" id="circle45"/>
	<circle cx="208.151" cy="257.032" r="4" fill="#0" id="circle46"/>
	<circle cx="208.151" cy="285.786" r="4" fill="#0" id="circle47"/>
	<circle cx="208.151" cy="314.539" r="4" fill="#0" id="circle48"/>
	<circle cx="208.151" cy="343.293" r="4" fill="#0" id="circle49"/>
	<circle cx="208.151" cy="372.046" r="4" fill="#0" id="circle50"/>
	<circle cx="208.151" cy="400.8" r="4" fill="#0" id="circle51"/>
	<circle cx="213.901" cy="205.275" r="4" fill="#0" id="circle52"/>
	<circle cx="213.901" cy="429.554" r="4" fill="#0" id="circle53"/>
	<circle cx="219.652" cy="4" r="4" fill="#0" id="circle54"/>
	<circle cx="222.528" cy="458.307" r="4" fill="#0" id="circle55"/>
	<circle cx="225.403" cy="159.27" r="4" fill="#0" id="circle56"/>
	<circle cx="231.154" cy="487.061" r="4" fill="#0" id="circle57"/>
	<circle cx="234.029" cy="996" r="4" fill="#0" id="circle58"/>
	<circle cx="236.904" cy="119.014" r="4" fill="#0" id="circle59"/>
	<circle cx="236.904" cy="515.814" r="4" fill="#0" id="circle60"/>
	<circle cx="236.904" cy="544.568" r="4" fill="#0" id="circle61"/>
	<circle cx="236.904" cy="573.322" r="4" fill="#0" id="circle62"/>
	<circle cx="236.904" cy="602.075" r="4" fill="#0" id="circle63"/>
	<circle cx="236.904" cy="630.829" r="4" fill="#0" id="circle64"/>
	<circle cx="236.904" cy="659.583" r="4" fill="#0" id="circle65"/>
	<circle cx="236.904" cy="688.336" r="4" fill="#0" id="circle66"/>
	<circle cx="236.904" cy="717.09" r="4" fill="#0" id="circle67"/>
	<circle cx="236.904" cy="745.843" r="4" fill="#0" id="circle68"/>
	<circle cx="236.904" cy="774.597" r="4" fill="#0" id="circle69"/>
	<circle cx="236.904" cy="803.351" r="4" fill="#0" id="circle70"/>
	<circle cx="236.904" cy="832.104" r="4" fill="#0" id="circle71"/>
	<circle cx="236.904" cy="860.858" r="4" fill="#0" id="circle72"/>
	<circle cx="236.904" cy="889.612" r="4" fill="#0" id="circle73"/>
	<circle cx="236.904" cy="918.365" r="4" fill="#0" id="circle74"/>
	<circle cx="239.78" cy="947.119" r="4" fill="#0" id="circle75"/>
	<circle cx="248.406" cy="4" r="4" fill="#0" id="circle76"/>
	<circle cx="262.783" cy="133.391" r="4" fill="#0" id="circle77"/>
	<circle cx="271.409" cy="21.2522" r="4" fill="#0" id="circle78"/>
	<circle cx="280.035" cy="156.394" r="4" fill="#0" id="circle79"/>
	<circle cx="291.536" cy="44.2551" r="4" fill="#0" id="circle80"/>
	<circle cx="297.287" cy="179.397" r="4" fill="#0" id="circle81"/>
	<circle cx="308.788" cy="67.258" r="4" fill="#0" id="circle82"/>
	<circle cx="326.041" cy="90.2609" r="4" fill="#0" id="circle83"/>
	<circle cx="326.041" cy="179.397" r="4" fill="#0" id="circle84"/>
	<circle cx="340.417" cy="116.139" r="4" fill="#0" id="circle85"/>
	<circle cx="346.168" cy="144.893" r="4" fill="#0" id="circle86"/>
	<circle cx="354.794" cy="173.646" r="4" fill="#0" id="circle87"/>
	</g>
</svg>