<?xml version="1.0" encoding="UTF-8" standalone="no"?>
<!-- Created with CurveBenchmark -->
<svg
	xmlns:dc="http://purl.org/dc/elements/1.1/"
	xmlns:cc="http://creativecommons.org/ns#"
	xmlns:rdf="http://www.w3.org/1999/02/22-rdf-syntax-ns#"
	xmlns:svg="http://www.w3.org/2000/svg"
	xmlns="http://www.w3.org/2000/svg"
	xmlns:sodipodi="http://sodipodi.sourceforge.net/DTD/sodipodi-0.dtd"
	xmlns:inkscape="http://www.inkscape.org/namespaces/inkscape"
	width="1000"
	height="1000"
	id="svg2"
	version="1.1"
	sodipodi:docname="manifold/ccrust-kitchenknifebinary22.png.txt">
<defs
	id="defs4" />
<metadata
	id="metadata7">
	<rdf:RDF>
		<cc:Work
			rdf:about="">
			<dc:format>image/svg+xml</dc:format>
			<dc:type
				rdf:resource="http://purl.org/dc/dcmitype/StillImage" />
			<dc:title></dc:title>
		</cc:Work>
	</rdf:RDF>
</metadata>
<g
	inkscape:label="Layer 1"
	inkscape:groupmode="layer"
	id="layer1">
	<path style="fill:none;stroke:red;stroke-width:1px;stroke-linecap:butt;stroke-linejoin:miter;stroke-opacity:1" d="M 44.4174,23.8542 51.5082,21.0179 z" id="boundary" inkscape:connector-curvature="0" />
	<path style="fill:none;stroke:red;stroke-width:1px;stroke-linecap:butt;stroke-linejoin:miter;stroke-opacity:1" d="M 57.8899,17.4725 51.5082,21.0179 z" id="boundary" inkscape:connector-curvature="0" />
	<path style="fill:none;stroke:red;stroke-width:1px;stroke-linecap:butt;stroke-linejoin:miter;stroke-opacity:1" d="M 57.8899,17.4725 64.9807,19.5997 z" id="boundary" inkscape:connector-curvature="0" />
	<path style="fill:none;stroke:red;stroke-width:1px;stroke-linecap:butt;stroke-linejoin:miter;stroke-opacity:1" d="M 44.4174,23.8542 37.3267,25.9814 z" id="boundary" inkscape:connector-curvature="0" />
	<path style="fill:none;stroke:red;stroke-width:1px;stroke-linecap:butt;stroke-linejoin:miter;stroke-opacity:1" d="M 64.9807,19.5997 70.6533,23.8542 z" id="boundary" inkscape:connector-curvature="0" />
	<path style="fill:none;stroke:red;stroke-width:1px;stroke-linecap:butt;stroke-linejoin:miter;stroke-opacity:1" d="M 28.1086,77.035 22.436,72.7806 z" id="boundary" inkscape:connector-curvature="0" />
	<path style="fill:none;stroke:red;stroke-width:1px;stroke-linecap:butt;stroke-linejoin:miter;stroke-opacity:1" d="M 37.3267,25.9814 30.945,29.5268 z" id="boundary" inkscape:connector-curvature="0" />
	<path style="fill:none;stroke:red;stroke-width:1px;stroke-linecap:butt;stroke-linejoin:miter;stroke-opacity:1" d="M 83.4167,29.5268 76.3259,28.1086 z" id="boundary" inkscape:connector-curvature="0" />
	<path style="fill:none;stroke:red;stroke-width:1px;stroke-linecap:butt;stroke-linejoin:miter;stroke-opacity:1" d="M 76.3259,28.1086 70.6533,23.8542 z" id="boundary" inkscape:connector-curvature="0" />
	<path style="fill:none;stroke:red;stroke-width:1px;stroke-linecap:butt;stroke-linejoin:miter;stroke-opacity:1" d="M 90.5075,30.945 83.4167,29.5268 z" id="boundary" inkscape:connector-curvature="0" />
	<path style="fill:none;stroke:red;stroke-width:1px;stroke-linecap:butt;stroke-linejoin:miter;stroke-opacity:1" d="M 196.16,25.9814 203.251,24.5633 z" id="boundary" inkscape:connector-curvature="0" />
	<path style="fill:none;stroke:red;stroke-width:1px;stroke-linecap:butt;stroke-linejoin:miter;stroke-opacity:1" d="M 210.342,24.5633 203.251,24.5633 z" id="boundary" inkscape:connector-curvature="0" />
	<path style="fill:none;stroke:red;stroke-width:1px;stroke-linecap:butt;stroke-linejoin:miter;stroke-opacity:1" d="M 217.432,23.1451 210.342,24.5633 z" id="boundary" inkscape:connector-curvature="0" />
	<path style="fill:none;stroke:red;stroke-width:1px;stroke-linecap:butt;stroke-linejoin:miter;stroke-opacity:1" d="M 217.432,23.1451 224.523,20.3088 z" id="boundary" inkscape:connector-curvature="0" />
	<path style="fill:none;stroke:red;stroke-width:1px;stroke-linecap:butt;stroke-linejoin:miter;stroke-opacity:1" d="M 224.523,20.3088 231.614,21.7269 z" id="boundary" inkscape:connector-curvature="0" />
	<path style="fill:none;stroke:red;stroke-width:1px;stroke-linecap:butt;stroke-linejoin:miter;stroke-opacity:1" d="M 238.705,21.7269 231.614,21.7269 z" id="boundary" inkscape:connector-curvature="0" />
	<path style="fill:none;stroke:red;stroke-width:1px;stroke-linecap:butt;stroke-linejoin:miter;stroke-opacity:1" d="M 174.888,28.8177 167.797,28.1086 z" id="boundary" inkscape:connector-curvature="0" />
	<path style="fill:none;stroke:red;stroke-width:1px;stroke-linecap:butt;stroke-linejoin:miter;stroke-opacity:1" d="M 181.979,27.3996 174.888,28.8177 z" id="boundary" inkscape:connector-curvature="0" />
	<path style="fill:none;stroke:red;stroke-width:1px;stroke-linecap:butt;stroke-linejoin:miter;stroke-opacity:1" d="M 189.069,26.6905 181.979,27.3996 z" id="boundary" inkscape:connector-curvature="0" />
	<path style="fill:none;stroke:red;stroke-width:1px;stroke-linecap:butt;stroke-linejoin:miter;stroke-opacity:1" d="M 196.16,25.9814 189.069,26.6905 z" id="boundary" inkscape:connector-curvature="0" />
	<path style="fill:none;stroke:red;stroke-width:1px;stroke-linecap:butt;stroke-linejoin:miter;stroke-opacity:1" d="M 160.706,30.945 167.797,28.1086 z" id="boundary" inkscape:connector-curvature="0" />
	<path style="fill:none;stroke:red;stroke-width:1px;stroke-linecap:butt;stroke-linejoin:miter;stroke-opacity:1" d="M 5.41816,49.381 4,42.2902 z" id="boundary" inkscape:connector-curvature="0" />
	<path style="fill:none;stroke:red;stroke-width:1px;stroke-linecap:butt;stroke-linejoin:miter;stroke-opacity:1" d="M 4,42.2902 11.0908,39.4539 z" id="boundary" inkscape:connector-curvature="0" />
	<path style="fill:none;stroke:red;stroke-width:1px;stroke-linecap:butt;stroke-linejoin:miter;stroke-opacity:1" d="M 17.4725,35.9085 11.0908,39.4539 z" id="boundary" inkscape:connector-curvature="0" />
	<path style="fill:none;stroke:red;stroke-width:1px;stroke-linecap:butt;stroke-linejoin:miter;stroke-opacity:1" d="M 17.4725,35.9085 24.5633,33.0722 z" id="boundary" inkscape:connector-curvature="0" />
	<path style="fill:none;stroke:red;stroke-width:1px;stroke-linecap:butt;stroke-linejoin:miter;stroke-opacity:1" d="M 30.945,29.5268 24.5633,33.0722 z" id="boundary" inkscape:connector-curvature="0" />
	<path style="fill:none;stroke:red;stroke-width:1px;stroke-linecap:butt;stroke-linejoin:miter;stroke-opacity:1" d="M 90.5075,30.945 96.8892,34.4904 z" id="boundary" inkscape:connector-curvature="0" />
	<path style="fill:none;stroke:red;stroke-width:1px;stroke-linecap:butt;stroke-linejoin:miter;stroke-opacity:1" d="M 8.25447,56.4718 5.41816,49.381 z" id="boundary" inkscape:connector-curvature="0" />
	<path style="fill:none;stroke:red;stroke-width:1px;stroke-linecap:butt;stroke-linejoin:miter;stroke-opacity:1" d="M 11.7999,62.8535 8.25447,56.4718 z" id="boundary" inkscape:connector-curvature="0" />
	<path style="fill:none;stroke:red;stroke-width:1px;stroke-linecap:butt;stroke-linejoin:miter;stroke-opacity:1" d="M 16.7634,68.5261 11.7999,62.8535 z" id="boundary" inkscape:connector-curvature="0" />
	<path style="fill:none;stroke:red;stroke-width:1px;stroke-linecap:butt;stroke-linejoin:miter;stroke-opacity:1" d="M 22.436,72.7806 16.7634,68.5261 z" id="boundary" inkscape:connector-curvature="0" />
	<path style="fill:none;stroke:red;stroke-width:1px;stroke-linecap:butt;stroke-linejoin:miter;stroke-opacity:1" d="M 132.343,34.4904 125.252,33.0722 z" id="boundary" inkscape:connector-curvature="0" />
	<path style="fill:none;stroke:red;stroke-width:1px;stroke-linecap:butt;stroke-linejoin:miter;stroke-opacity:1" d="M 139.434,31.654 132.343,34.4904 z" id="boundary" inkscape:connector-curvature="0" />
	<path style="fill:none;stroke:red;stroke-width:1px;stroke-linecap:butt;stroke-linejoin:miter;stroke-opacity:1" d="M 125.252,33.0722 118.162,33.7813 z" id="boundary" inkscape:connector-curvature="0" />
	<path style="fill:none;stroke:red;stroke-width:1px;stroke-linecap:butt;stroke-linejoin:miter;stroke-opacity:1" d="M 153.615,31.654 146.525,30.945 z" id="boundary" inkscape:connector-curvature="0" />
	<path style="fill:none;stroke:red;stroke-width:1px;stroke-linecap:butt;stroke-linejoin:miter;stroke-opacity:1" d="M 160.706,30.945 153.615,31.654 z" id="boundary" inkscape:connector-curvature="0" />
	<path style="fill:none;stroke:red;stroke-width:1px;stroke-linecap:butt;stroke-linejoin:miter;stroke-opacity:1" d="M 139.434,31.654 146.525,30.945 z" id="boundary" inkscape:connector-curvature="0" />
	<path style="fill:none;stroke:red;stroke-width:1px;stroke-linecap:butt;stroke-linejoin:miter;stroke-opacity:1" d="M 103.98,35.1994 96.8892,34.4904 z" id="boundary" inkscape:connector-curvature="0" />
	<path style="fill:none;stroke:red;stroke-width:1px;stroke-linecap:butt;stroke-linejoin:miter;stroke-opacity:1" d="M 111.071,35.9085 118.162,33.7813 z" id="boundary" inkscape:connector-curvature="0" />
	<path style="fill:none;stroke:red;stroke-width:1px;stroke-linecap:butt;stroke-linejoin:miter;stroke-opacity:1" d="M 111.071,35.9085 103.98,35.1994 z" id="boundary" inkscape:connector-curvature="0" />
	<path style="fill:none;stroke:red;stroke-width:1px;stroke-linecap:butt;stroke-linejoin:miter;stroke-opacity:1" d="M 292.595,18.8906 285.504,18.1816 z" id="boundary" inkscape:connector-curvature="0" />
	<path style="fill:none;stroke:red;stroke-width:1px;stroke-linecap:butt;stroke-linejoin:miter;stroke-opacity:1" d="M 306.776,19.5997 299.685,19.5997 z" id="boundary" inkscape:connector-curvature="0" />
	<path style="fill:none;stroke:red;stroke-width:1px;stroke-linecap:butt;stroke-linejoin:miter;stroke-opacity:1" d="M 299.685,19.5997 292.595,18.8906 z" id="boundary" inkscape:connector-curvature="0" />
	<path style="fill:none;stroke:red;stroke-width:1px;stroke-linecap:butt;stroke-linejoin:miter;stroke-opacity:1" d="M 281.249,23.8542 285.504,18.1816 z" id="boundary" inkscape:connector-curvature="0" />
	<path style="fill:none;stroke:red;stroke-width:1px;stroke-linecap:butt;stroke-linejoin:miter;stroke-opacity:1" d="M 320.958,21.7269 313.867,21.0179 z" id="boundary" inkscape:connector-curvature="0" />
	<path style="fill:none;stroke:red;stroke-width:1px;stroke-linecap:butt;stroke-linejoin:miter;stroke-opacity:1" d="M 313.867,21.0179 306.776,19.5997 z" id="boundary" inkscape:connector-curvature="0" />
	<path style="fill:none;stroke:red;stroke-width:1px;stroke-linecap:butt;stroke-linejoin:miter;stroke-opacity:1" d="M 313.867,21.0179 315.285,28.1086 z" id="boundary" inkscape:connector-curvature="0" />
	<path style="fill:none;stroke:red;stroke-width:1px;stroke-linecap:butt;stroke-linejoin:miter;stroke-opacity:1" d="M 402.502,15.3452 396.12,18.8906 z" id="boundary" inkscape:connector-curvature="0" />
	<path style="fill:none;stroke:red;stroke-width:1px;stroke-linecap:butt;stroke-linejoin:miter;stroke-opacity:1" d="M 415.974,8.96355 423.065,11.7999 z" id="boundary" inkscape:connector-curvature="0" />
	<path style="fill:none;stroke:red;stroke-width:1px;stroke-linecap:butt;stroke-linejoin:miter;stroke-opacity:1" d="M 409.593,13.218 415.974,8.96355 z" id="boundary" inkscape:connector-curvature="0" />
	<path style="fill:none;stroke:red;stroke-width:1px;stroke-linecap:butt;stroke-linejoin:miter;stroke-opacity:1" d="M 445.756,5.41816 438.665,6.12723 z" id="boundary" inkscape:connector-curvature="0" />
	<path style="fill:none;stroke:red;stroke-width:1px;stroke-linecap:butt;stroke-linejoin:miter;stroke-opacity:1" d="M 434.41,11.7999 429.447,6.12723 z" id="boundary" inkscape:connector-curvature="0" />
	<path style="fill:none;stroke:red;stroke-width:1px;stroke-linecap:butt;stroke-linejoin:miter;stroke-opacity:1" d="M 438.665,6.12723 434.41,11.7999 z" id="boundary" inkscape:connector-curvature="0" />
	<path style="fill:none;stroke:red;stroke-width:1px;stroke-linecap:butt;stroke-linejoin:miter;stroke-opacity:1" d="M 428.738,16.0543 423.065,11.7999 z" id="boundary" inkscape:connector-curvature="0" />
	<path style="fill:none;stroke:red;stroke-width:1px;stroke-linecap:butt;stroke-linejoin:miter;stroke-opacity:1" d="M 402.502,15.3452 409.593,13.218 z" id="boundary" inkscape:connector-curvature="0" />
	<path style="fill:none;stroke:red;stroke-width:1px;stroke-linecap:butt;stroke-linejoin:miter;stroke-opacity:1" d="M 433.701,21.7269 428.738,16.0543 z" id="boundary" inkscape:connector-curvature="0" />
	<path style="fill:none;stroke:red;stroke-width:1px;stroke-linecap:butt;stroke-linejoin:miter;stroke-opacity:1" d="M 428.738,16.0543 434.41,11.7999 z" id="boundary" inkscape:connector-curvature="0" />
	<path style="fill:none;stroke:red;stroke-width:1px;stroke-linecap:butt;stroke-linejoin:miter;stroke-opacity:1" d="M 439.374,17.4725 434.41,11.7999 z" id="boundary" inkscape:connector-curvature="0" />
	<path style="fill:none;stroke:red;stroke-width:1px;stroke-linecap:butt;stroke-linejoin:miter;stroke-opacity:1" d="M 439.374,17.4725 433.701,21.7269 z" id="boundary" inkscape:connector-curvature="0" />
	<path style="fill:none;stroke:red;stroke-width:1px;stroke-linecap:butt;stroke-linejoin:miter;stroke-opacity:1" d="M 245.796,22.436 252.886,22.436 z" id="boundary" inkscape:connector-curvature="0" />
	<path style="fill:none;stroke:red;stroke-width:1px;stroke-linecap:butt;stroke-linejoin:miter;stroke-opacity:1" d="M 245.796,22.436 238.705,21.7269 z" id="boundary" inkscape:connector-curvature="0" />
	<path style="fill:none;stroke:red;stroke-width:1px;stroke-linecap:butt;stroke-linejoin:miter;stroke-opacity:1" d="M 259.977,23.1451 267.068,22.436 z" id="boundary" inkscape:connector-curvature="0" />
	<path style="fill:none;stroke:red;stroke-width:1px;stroke-linecap:butt;stroke-linejoin:miter;stroke-opacity:1" d="M 267.068,22.436 274.159,23.8542 z" id="boundary" inkscape:connector-curvature="0" />
	<path style="fill:none;stroke:red;stroke-width:1px;stroke-linecap:butt;stroke-linejoin:miter;stroke-opacity:1" d="M 259.977,23.1451 252.886,22.436 z" id="boundary" inkscape:connector-curvature="0" />
	<path style="fill:none;stroke:red;stroke-width:1px;stroke-linecap:butt;stroke-linejoin:miter;stroke-opacity:1" d="M 274.159,23.8542 281.249,23.8542 z" id="boundary" inkscape:connector-curvature="0" />
	<path style="fill:none;stroke:red;stroke-width:1px;stroke-linecap:butt;stroke-linejoin:miter;stroke-opacity:1" d="M 320.958,21.7269 323.085,28.8177 z" id="boundary" inkscape:connector-curvature="0" />
	<path style="fill:none;stroke:red;stroke-width:1px;stroke-linecap:butt;stroke-linejoin:miter;stroke-opacity:1" d="M 337.267,28.1086 330.176,28.8177 z" id="boundary" inkscape:connector-curvature="0" />
	<path style="fill:none;stroke:red;stroke-width:1px;stroke-linecap:butt;stroke-linejoin:miter;stroke-opacity:1" d="M 330.176,28.8177 323.085,28.8177 z" id="boundary" inkscape:connector-curvature="0" />
	<path style="fill:none;stroke:red;stroke-width:1px;stroke-linecap:butt;stroke-linejoin:miter;stroke-opacity:1" d="M 357.121,21.0179 350.739,25.2723 z" id="boundary" inkscape:connector-curvature="0" />
	<path style="fill:none;stroke:red;stroke-width:1px;stroke-linecap:butt;stroke-linejoin:miter;stroke-opacity:1" d="M 350.739,25.2723 343.648,24.5633 z" id="boundary" inkscape:connector-curvature="0" />
	<path style="fill:none;stroke:red;stroke-width:1px;stroke-linecap:butt;stroke-linejoin:miter;stroke-opacity:1" d="M 383.357,26.6905 376.266,28.1086 z" id="boundary" inkscape:connector-curvature="0" />
	<path style="fill:none;stroke:red;stroke-width:1px;stroke-linecap:butt;stroke-linejoin:miter;stroke-opacity:1" d="M 357.121,21.0179 362.793,25.9814 z" id="boundary" inkscape:connector-curvature="0" />
	<path style="fill:none;stroke:red;stroke-width:1px;stroke-linecap:butt;stroke-linejoin:miter;stroke-opacity:1" d="M 390.447,23.8542 383.357,26.6905 z" id="boundary" inkscape:connector-curvature="0" />
	<path style="fill:none;stroke:red;stroke-width:1px;stroke-linecap:butt;stroke-linejoin:miter;stroke-opacity:1" d="M 396.12,18.8906 390.447,23.8542 z" id="boundary" inkscape:connector-curvature="0" />
	<path style="fill:none;stroke:red;stroke-width:1px;stroke-linecap:butt;stroke-linejoin:miter;stroke-opacity:1" d="M 343.648,24.5633 337.267,28.1086 z" id="boundary" inkscape:connector-curvature="0" />
	<path style="fill:none;stroke:red;stroke-width:1px;stroke-linecap:butt;stroke-linejoin:miter;stroke-opacity:1" d="M 362.793,25.9814 369.175,29.5268 z" id="boundary" inkscape:connector-curvature="0" />
	<path style="fill:none;stroke:red;stroke-width:1px;stroke-linecap:butt;stroke-linejoin:miter;stroke-opacity:1" d="M 369.175,29.5268 376.266,28.1086 z" id="boundary" inkscape:connector-curvature="0" />
	<path style="fill:none;stroke:red;stroke-width:1px;stroke-linecap:butt;stroke-linejoin:miter;stroke-opacity:1" d="M 420.938,74.9078 413.847,74.9078 z" id="boundary" inkscape:connector-curvature="0" />
	<path style="fill:none;stroke:red;stroke-width:1px;stroke-linecap:butt;stroke-linejoin:miter;stroke-opacity:1" d="M 442.21,74.9078 435.119,74.1987 z" id="boundary" inkscape:connector-curvature="0" />
	<path style="fill:none;stroke:red;stroke-width:1px;stroke-linecap:butt;stroke-linejoin:miter;stroke-opacity:1" d="M 413.847,74.9078 406.756,76.3259 z" id="boundary" inkscape:connector-curvature="0" />
	<path style="fill:none;stroke:red;stroke-width:1px;stroke-linecap:butt;stroke-linejoin:miter;stroke-opacity:1" d="M 33.7813,81.2895 28.1086,77.035 z" id="boundary" inkscape:connector-curvature="0" />
	<path style="fill:none;stroke:red;stroke-width:1px;stroke-linecap:butt;stroke-linejoin:miter;stroke-opacity:1" d="M 40.8721,84.1258 33.7813,81.2895 z" id="boundary" inkscape:connector-curvature="0" />
	<path style="fill:none;stroke:red;stroke-width:1px;stroke-linecap:butt;stroke-linejoin:miter;stroke-opacity:1" d="M 47.9628,86.253 40.8721,84.1258 z" id="boundary" inkscape:connector-curvature="0" />
	<path style="fill:none;stroke:red;stroke-width:1px;stroke-linecap:butt;stroke-linejoin:miter;stroke-opacity:1" d="M 218.142,86.9621 211.051,86.253 z" id="boundary" inkscape:connector-curvature="0" />
	<path style="fill:none;stroke:red;stroke-width:1px;stroke-linecap:butt;stroke-linejoin:miter;stroke-opacity:1" d="M 225.232,86.253 218.142,86.9621 z" id="boundary" inkscape:connector-curvature="0" />
	<path style="fill:none;stroke:red;stroke-width:1px;stroke-linecap:butt;stroke-linejoin:miter;stroke-opacity:1" d="M 225.232,86.253 232.323,86.253 z" id="boundary" inkscape:connector-curvature="0" />
	<path style="fill:none;stroke:red;stroke-width:1px;stroke-linecap:butt;stroke-linejoin:miter;stroke-opacity:1" d="M 203.96,86.9621 211.051,86.253 z" id="boundary" inkscape:connector-curvature="0" />
	<path style="fill:none;stroke:red;stroke-width:1px;stroke-linecap:butt;stroke-linejoin:miter;stroke-opacity:1" d="M 168.506,87.6712 161.415,89.0893 z" id="boundary" inkscape:connector-curvature="0" />
	<path style="fill:none;stroke:red;stroke-width:1px;stroke-linecap:butt;stroke-linejoin:miter;stroke-opacity:1" d="M 196.869,88.3803 203.96,86.9621 z" id="boundary" inkscape:connector-curvature="0" />
	<path style="fill:none;stroke:red;stroke-width:1px;stroke-linecap:butt;stroke-linejoin:miter;stroke-opacity:1" d="M 147.234,89.7984 140.143,91.2166 z" id="boundary" inkscape:connector-curvature="0" />
	<path style="fill:none;stroke:red;stroke-width:1px;stroke-linecap:butt;stroke-linejoin:miter;stroke-opacity:1" d="M 267.777,84.8349 260.686,84.8349 z" id="boundary" inkscape:connector-curvature="0" />
	<path style="fill:none;stroke:red;stroke-width:1px;stroke-linecap:butt;stroke-linejoin:miter;stroke-opacity:1" d="M 274.868,84.1258 267.777,84.8349 z" id="boundary" inkscape:connector-curvature="0" />
	<path style="fill:none;stroke:red;stroke-width:1px;stroke-linecap:butt;stroke-linejoin:miter;stroke-opacity:1" d="M 281.959,83.4167 289.049,82.7076 z" id="boundary" inkscape:connector-curvature="0" />
	<path style="fill:none;stroke:red;stroke-width:1px;stroke-linecap:butt;stroke-linejoin:miter;stroke-opacity:1" d="M 281.959,83.4167 274.868,84.1258 z" id="boundary" inkscape:connector-curvature="0" />
	<path style="fill:none;stroke:red;stroke-width:1px;stroke-linecap:butt;stroke-linejoin:miter;stroke-opacity:1" d="M 296.14,82.7076 289.049,82.7076 z" id="boundary" inkscape:connector-curvature="0" />
	<path style="fill:none;stroke:red;stroke-width:1px;stroke-linecap:butt;stroke-linejoin:miter;stroke-opacity:1" d="M 260.686,84.8349 253.595,85.544 z" id="boundary" inkscape:connector-curvature="0" />
	<path style="fill:none;stroke:red;stroke-width:1px;stroke-linecap:butt;stroke-linejoin:miter;stroke-opacity:1" d="M 232.323,86.253 239.414,85.544 z" id="boundary" inkscape:connector-curvature="0" />
	<path style="fill:none;stroke:red;stroke-width:1px;stroke-linecap:butt;stroke-linejoin:miter;stroke-opacity:1" d="M 239.414,85.544 246.505,85.544 z" id="boundary" inkscape:connector-curvature="0" />
	<path style="fill:none;stroke:red;stroke-width:1px;stroke-linecap:butt;stroke-linejoin:miter;stroke-opacity:1" d="M 253.595,85.544 246.505,85.544 z" id="boundary" inkscape:connector-curvature="0" />
	<path style="fill:none;stroke:red;stroke-width:1px;stroke-linecap:butt;stroke-linejoin:miter;stroke-opacity:1" d="M 62.1444,89.7984 55.0536,88.3803 z" id="boundary" inkscape:connector-curvature="0" />
	<path style="fill:none;stroke:red;stroke-width:1px;stroke-linecap:butt;stroke-linejoin:miter;stroke-opacity:1" d="M 111.78,91.9257 104.689,91.9257 z" id="boundary" inkscape:connector-curvature="0" />
	<path style="fill:none;stroke:red;stroke-width:1px;stroke-linecap:butt;stroke-linejoin:miter;stroke-opacity:1" d="M 118.871,91.9257 111.78,91.9257 z" id="boundary" inkscape:connector-curvature="0" />
	<path style="fill:none;stroke:red;stroke-width:1px;stroke-linecap:butt;stroke-linejoin:miter;stroke-opacity:1" d="M 97.5983,92.6347 104.689,91.9257 z" id="boundary" inkscape:connector-curvature="0" />
	<path style="fill:none;stroke:red;stroke-width:1px;stroke-linecap:butt;stroke-linejoin:miter;stroke-opacity:1" d="M 62.1444,89.7984 69.2352,89.7984 z" id="boundary" inkscape:connector-curvature="0" />
	<path style="fill:none;stroke:red;stroke-width:1px;stroke-linecap:butt;stroke-linejoin:miter;stroke-opacity:1" d="M 69.2352,89.7984 76.3259,92.6347 z" id="boundary" inkscape:connector-curvature="0" />
	<path style="fill:none;stroke:red;stroke-width:1px;stroke-linecap:butt;stroke-linejoin:miter;stroke-opacity:1" d="M 83.4167,93.3438 76.3259,92.6347 z" id="boundary" inkscape:connector-curvature="0" />
	<path style="fill:none;stroke:red;stroke-width:1px;stroke-linecap:butt;stroke-linejoin:miter;stroke-opacity:1" d="M 90.5075,94.0529 97.5983,92.6347 z" id="boundary" inkscape:connector-curvature="0" />
	<path style="fill:none;stroke:red;stroke-width:1px;stroke-linecap:butt;stroke-linejoin:miter;stroke-opacity:1" d="M 90.5075,94.0529 83.4167,93.3438 z" id="boundary" inkscape:connector-curvature="0" />
	<path style="fill:none;stroke:red;stroke-width:1px;stroke-linecap:butt;stroke-linejoin:miter;stroke-opacity:1" d="M 55.0536,88.3803 47.9628,86.253 z" id="boundary" inkscape:connector-curvature="0" />
	<path style="fill:none;stroke:red;stroke-width:1px;stroke-linecap:butt;stroke-linejoin:miter;stroke-opacity:1" d="M 147.234,89.7984 154.325,89.7984 z" id="boundary" inkscape:connector-curvature="0" />
	<path style="fill:none;stroke:red;stroke-width:1px;stroke-linecap:butt;stroke-linejoin:miter;stroke-opacity:1" d="M 168.506,87.6712 175.597,89.7984 z" id="boundary" inkscape:connector-curvature="0" />
	<path style="fill:none;stroke:red;stroke-width:1px;stroke-linecap:butt;stroke-linejoin:miter;stroke-opacity:1" d="M 161.415,89.0893 154.325,89.7984 z" id="boundary" inkscape:connector-curvature="0" />
	<path style="fill:none;stroke:red;stroke-width:1px;stroke-linecap:butt;stroke-linejoin:miter;stroke-opacity:1" d="M 196.869,88.3803 189.778,87.6712 z" id="boundary" inkscape:connector-curvature="0" />
	<path style="fill:none;stroke:red;stroke-width:1px;stroke-linecap:butt;stroke-linejoin:miter;stroke-opacity:1" d="M 125.961,91.2166 118.871,91.9257 z" id="boundary" inkscape:connector-curvature="0" />
	<path style="fill:none;stroke:red;stroke-width:1px;stroke-linecap:butt;stroke-linejoin:miter;stroke-opacity:1" d="M 182.688,89.7984 189.778,87.6712 z" id="boundary" inkscape:connector-curvature="0" />
	<path style="fill:none;stroke:red;stroke-width:1px;stroke-linecap:butt;stroke-linejoin:miter;stroke-opacity:1" d="M 125.961,91.2166 133.052,91.2166 z" id="boundary" inkscape:connector-curvature="0" />
	<path style="fill:none;stroke:red;stroke-width:1px;stroke-linecap:butt;stroke-linejoin:miter;stroke-opacity:1" d="M 175.597,89.7984 182.688,89.7984 z" id="boundary" inkscape:connector-curvature="0" />
	<path style="fill:none;stroke:red;stroke-width:1px;stroke-linecap:butt;stroke-linejoin:miter;stroke-opacity:1" d="M 140.143,91.2166 133.052,91.2166 z" id="boundary" inkscape:connector-curvature="0" />
	<path style="fill:none;stroke:red;stroke-width:1px;stroke-linecap:butt;stroke-linejoin:miter;stroke-opacity:1" d="M 338.685,81.9986 331.594,82.7076 z" id="boundary" inkscape:connector-curvature="0" />
	<path style="fill:none;stroke:red;stroke-width:1px;stroke-linecap:butt;stroke-linejoin:miter;stroke-opacity:1" d="M 378.393,78.4532 371.302,77.7441 z" id="boundary" inkscape:connector-curvature="0" />
	<path style="fill:none;stroke:red;stroke-width:1px;stroke-linecap:butt;stroke-linejoin:miter;stroke-opacity:1" d="M 365.63,81.9986 371.302,77.7441 z" id="boundary" inkscape:connector-curvature="0" />
	<path style="fill:none;stroke:red;stroke-width:1px;stroke-linecap:butt;stroke-linejoin:miter;stroke-opacity:1" d="M 310.322,81.9986 303.231,82.7076 z" id="boundary" inkscape:connector-curvature="0" />
	<path style="fill:none;stroke:red;stroke-width:1px;stroke-linecap:butt;stroke-linejoin:miter;stroke-opacity:1" d="M 331.594,82.7076 324.503,82.7076 z" id="boundary" inkscape:connector-curvature="0" />
	<path style="fill:none;stroke:red;stroke-width:1px;stroke-linecap:butt;stroke-linejoin:miter;stroke-opacity:1" d="M 317.412,81.9986 324.503,82.7076 z" id="boundary" inkscape:connector-curvature="0" />
	<path style="fill:none;stroke:red;stroke-width:1px;stroke-linecap:butt;stroke-linejoin:miter;stroke-opacity:1" d="M 359.248,86.253 352.866,82.7076 z" id="boundary" inkscape:connector-curvature="0" />
	<path style="fill:none;stroke:red;stroke-width:1px;stroke-linecap:butt;stroke-linejoin:miter;stroke-opacity:1" d="M 365.63,81.9986 359.248,86.253 z" id="boundary" inkscape:connector-curvature="0" />
	<path style="fill:none;stroke:red;stroke-width:1px;stroke-linecap:butt;stroke-linejoin:miter;stroke-opacity:1" d="M 303.231,82.7076 296.14,82.7076 z" id="boundary" inkscape:connector-curvature="0" />
	<path style="fill:none;stroke:red;stroke-width:1px;stroke-linecap:butt;stroke-linejoin:miter;stroke-opacity:1" d="M 392.575,77.7441 385.484,77.7441 z" id="boundary" inkscape:connector-curvature="0" />
	<path style="fill:none;stroke:red;stroke-width:1px;stroke-linecap:butt;stroke-linejoin:miter;stroke-opacity:1" d="M 385.484,77.7441 378.393,78.4532 z" id="boundary" inkscape:connector-curvature="0" />
	<path style="fill:none;stroke:red;stroke-width:1px;stroke-linecap:butt;stroke-linejoin:miter;stroke-opacity:1" d="M 435.119,74.1987 428.029,75.6169 z" id="boundary" inkscape:connector-curvature="0" />
	<path style="fill:none;stroke:red;stroke-width:1px;stroke-linecap:butt;stroke-linejoin:miter;stroke-opacity:1" d="M 428.029,75.6169 420.938,74.9078 z" id="boundary" inkscape:connector-curvature="0" />
	<path style="fill:none;stroke:red;stroke-width:1px;stroke-linecap:butt;stroke-linejoin:miter;stroke-opacity:1" d="M 435.828,81.2895 435.119,74.1987 z" id="boundary" inkscape:connector-curvature="0" />
	<path style="fill:none;stroke:red;stroke-width:1px;stroke-linecap:butt;stroke-linejoin:miter;stroke-opacity:1" d="M 406.756,76.3259 399.665,77.7441 z" id="boundary" inkscape:connector-curvature="0" />
	<path style="fill:none;stroke:red;stroke-width:1px;stroke-linecap:butt;stroke-linejoin:miter;stroke-opacity:1" d="M 392.575,77.7441 399.665,77.7441 z" id="boundary" inkscape:connector-curvature="0" />
	<path style="fill:none;stroke:red;stroke-width:1px;stroke-linecap:butt;stroke-linejoin:miter;stroke-opacity:1" d="M 423.065,82.7076 415.974,82.7076 z" id="boundary" inkscape:connector-curvature="0" />
	<path style="fill:none;stroke:red;stroke-width:1px;stroke-linecap:butt;stroke-linejoin:miter;stroke-opacity:1" d="M 435.828,81.2895 430.156,85.544 z" id="boundary" inkscape:connector-curvature="0" />
	<path style="fill:none;stroke:red;stroke-width:1px;stroke-linecap:butt;stroke-linejoin:miter;stroke-opacity:1" d="M 409.593,86.253 415.974,82.7076 z" id="boundary" inkscape:connector-curvature="0" />
	<path style="fill:none;stroke:red;stroke-width:1px;stroke-linecap:butt;stroke-linejoin:miter;stroke-opacity:1" d="M 430.156,85.544 423.065,82.7076 z" id="boundary" inkscape:connector-curvature="0" />
	<path style="fill:none;stroke:red;stroke-width:1px;stroke-linecap:butt;stroke-linejoin:miter;stroke-opacity:1" d="M 441.501,85.544 435.828,81.2895 z" id="boundary" inkscape:connector-curvature="0" />
	<path style="fill:none;stroke:red;stroke-width:1px;stroke-linecap:butt;stroke-linejoin:miter;stroke-opacity:1" d="M 313.867,88.3803 320.958,89.7984 z" id="boundary" inkscape:connector-curvature="0" />
	<path style="fill:none;stroke:red;stroke-width:1px;stroke-linecap:butt;stroke-linejoin:miter;stroke-opacity:1" d="M 342.23,89.0893 335.139,89.0893 z" id="boundary" inkscape:connector-curvature="0" />
	<path style="fill:none;stroke:red;stroke-width:1px;stroke-linecap:butt;stroke-linejoin:miter;stroke-opacity:1" d="M 335.139,89.0893 328.049,89.7984 z" id="boundary" inkscape:connector-curvature="0" />
	<path style="fill:none;stroke:red;stroke-width:1px;stroke-linecap:butt;stroke-linejoin:miter;stroke-opacity:1" d="M 328.049,89.7984 320.958,89.7984 z" id="boundary" inkscape:connector-curvature="0" />
	<path style="fill:none;stroke:red;stroke-width:1px;stroke-linecap:butt;stroke-linejoin:miter;stroke-opacity:1" d="M 328.049,89.7984 330.885,96.8892 z" id="boundary" inkscape:connector-curvature="0" />
	<path style="fill:none;stroke:red;stroke-width:1px;stroke-linecap:butt;stroke-linejoin:miter;stroke-opacity:1" d="M 337.976,99.7255 330.885,96.8892 z" id="boundary" inkscape:connector-curvature="0" />
	<path style="fill:none;stroke:red;stroke-width:1px;stroke-linecap:butt;stroke-linejoin:miter;stroke-opacity:1" d="M 345.066,99.0164 337.976,99.7255 z" id="boundary" inkscape:connector-curvature="0" />
	<path style="fill:none;stroke:red;stroke-width:1px;stroke-linecap:butt;stroke-linejoin:miter;stroke-opacity:1" d="M 345.066,99.0164 352.157,97.5983 z" id="boundary" inkscape:connector-curvature="0" />
	<path style="fill:none;stroke:red;stroke-width:1px;stroke-linecap:butt;stroke-linejoin:miter;stroke-opacity:1" d="M 352.157,97.5983 359.248,100.435 z" id="boundary" inkscape:connector-curvature="0" />
	<path style="fill:none;stroke:red;stroke-width:1px;stroke-linecap:butt;stroke-linejoin:miter;stroke-opacity:1" d="M 359.248,86.253 362.793,94.0529 z" id="boundary" inkscape:connector-curvature="0" />
	<path style="fill:none;stroke:red;stroke-width:1px;stroke-linecap:butt;stroke-linejoin:miter;stroke-opacity:1" d="M 374.139,84.8349 381.229,86.253 z" id="boundary" inkscape:connector-curvature="0" />
	<path style="fill:none;stroke:red;stroke-width:1px;stroke-linecap:butt;stroke-linejoin:miter;stroke-opacity:1" d="M 409.593,86.253 402.502,86.253 z" id="boundary" inkscape:connector-curvature="0" />
	<path style="fill:none;stroke:red;stroke-width:1px;stroke-linecap:butt;stroke-linejoin:miter;stroke-opacity:1" d="M 402.502,86.253 395.411,86.9621 z" id="boundary" inkscape:connector-curvature="0" />
	<path style="fill:none;stroke:red;stroke-width:1px;stroke-linecap:butt;stroke-linejoin:miter;stroke-opacity:1" d="M 395.411,86.9621 388.32,86.9621 z" id="boundary" inkscape:connector-curvature="0" />
	<path style="fill:none;stroke:red;stroke-width:1px;stroke-linecap:butt;stroke-linejoin:miter;stroke-opacity:1" d="M 359.248,100.435 362.793,94.0529 z" id="boundary" inkscape:connector-curvature="0" />
	<path style="fill:none;stroke:red;stroke-width:1px;stroke-linecap:butt;stroke-linejoin:miter;stroke-opacity:1" d="M 388.32,86.9621 381.229,86.253 z" id="boundary" inkscape:connector-curvature="0" />
	<path style="fill:none;stroke:red;stroke-width:1px;stroke-linecap:butt;stroke-linejoin:miter;stroke-opacity:1" d="M 442.21,74.9078 447.883,79.1623 z" id="boundary" inkscape:connector-curvature="0" />
	<path style="fill:none;stroke:red;stroke-width:1px;stroke-linecap:butt;stroke-linejoin:miter;stroke-opacity:1" d="M 445.756,5.41816 452.846,5.41816 z" id="boundary" inkscape:connector-curvature="0" />
	<path style="fill:none;stroke:red;stroke-width:1px;stroke-linecap:butt;stroke-linejoin:miter;stroke-opacity:1" d="M 459.937,4.70908 467.028,4.70908 z" id="boundary" inkscape:connector-curvature="0" />
	<path style="fill:none;stroke:red;stroke-width:1px;stroke-linecap:butt;stroke-linejoin:miter;stroke-opacity:1" d="M 495.391,4.70908 488.3,5.41816 z" id="boundary" inkscape:connector-curvature="0" />
	<path style="fill:none;stroke:red;stroke-width:1px;stroke-linecap:butt;stroke-linejoin:miter;stroke-opacity:1" d="M 474.119,4.70908 467.028,4.70908 z" id="boundary" inkscape:connector-curvature="0" />
	<path style="fill:none;stroke:red;stroke-width:1px;stroke-linecap:butt;stroke-linejoin:miter;stroke-opacity:1" d="M 474.119,4.70908 481.209,5.41816 z" id="boundary" inkscape:connector-curvature="0" />
	<path style="fill:none;stroke:red;stroke-width:1px;stroke-linecap:butt;stroke-linejoin:miter;stroke-opacity:1" d="M 495.391,4.70908 502.482,4.70908 z" id="boundary" inkscape:connector-curvature="0" />
	<path style="fill:none;stroke:red;stroke-width:1px;stroke-linecap:butt;stroke-linejoin:miter;stroke-opacity:1" d="M 488.3,5.41816 481.209,5.41816 z" id="boundary" inkscape:connector-curvature="0" />
	<path style="fill:none;stroke:red;stroke-width:1px;stroke-linecap:butt;stroke-linejoin:miter;stroke-opacity:1" d="M 509.573,4.70908 502.482,4.70908 z" id="boundary" inkscape:connector-curvature="0" />
	<path style="fill:none;stroke:red;stroke-width:1px;stroke-linecap:butt;stroke-linejoin:miter;stroke-opacity:1" d="M 516.663,4 509.573,4.70908 z" id="boundary" inkscape:connector-curvature="0" />
	<path style="fill:none;stroke:red;stroke-width:1px;stroke-linecap:butt;stroke-linejoin:miter;stroke-opacity:1" d="M 459.937,4.70908 452.846,5.41816 z" id="boundary" inkscape:connector-curvature="0" />
	<path style="fill:none;stroke:red;stroke-width:1px;stroke-linecap:butt;stroke-linejoin:miter;stroke-opacity:1" d="M 516.663,4 523.754,4.70908 z" id="boundary" inkscape:connector-curvature="0" />
	<path style="fill:none;stroke:red;stroke-width:1px;stroke-linecap:butt;stroke-linejoin:miter;stroke-opacity:1" d="M 530.845,4 523.754,4.70908 z" id="boundary" inkscape:connector-curvature="0" />
	<path style="fill:none;stroke:red;stroke-width:1px;stroke-linecap:butt;stroke-linejoin:miter;stroke-opacity:1" d="M 530.845,4 537.936,4.70908 z" id="boundary" inkscape:connector-curvature="0" />
	<path style="fill:none;stroke:red;stroke-width:1px;stroke-linecap:butt;stroke-linejoin:miter;stroke-opacity:1" d="M 545.026,5.41816 537.936,4.70908 z" id="boundary" inkscape:connector-curvature="0" />
	<path style="fill:none;stroke:red;stroke-width:1px;stroke-linecap:butt;stroke-linejoin:miter;stroke-opacity:1" d="M 552.117,6.83631 559.208,6.83631 z" id="boundary" inkscape:connector-curvature="0" />
	<path style="fill:none;stroke:red;stroke-width:1px;stroke-linecap:butt;stroke-linejoin:miter;stroke-opacity:1" d="M 559.208,6.83631 566.299,8.96355 z" id="boundary" inkscape:connector-curvature="0" />
	<path style="fill:none;stroke:red;stroke-width:1px;stroke-linecap:butt;stroke-linejoin:miter;stroke-opacity:1" d="M 552.117,6.83631 545.026,5.41816 z" id="boundary" inkscape:connector-curvature="0" />
	<path style="fill:none;stroke:red;stroke-width:1px;stroke-linecap:butt;stroke-linejoin:miter;stroke-opacity:1" d="M 573.39,9.67262 566.299,8.96355 z" id="boundary" inkscape:connector-curvature="0" />
	<path style="fill:none;stroke:red;stroke-width:1px;stroke-linecap:butt;stroke-linejoin:miter;stroke-opacity:1" d="M 580.48,10.3817 573.39,9.67262 z" id="boundary" inkscape:connector-curvature="0" />
	<path style="fill:none;stroke:red;stroke-width:1px;stroke-linecap:butt;stroke-linejoin:miter;stroke-opacity:1" d="M 587.571,11.0908 594.662,11.0908 z" id="boundary" inkscape:connector-curvature="0" />
	<path style="fill:none;stroke:red;stroke-width:1px;stroke-linecap:butt;stroke-linejoin:miter;stroke-opacity:1" d="M 587.571,11.0908 580.48,10.3817 z" id="boundary" inkscape:connector-curvature="0" />
	<path style="fill:none;stroke:red;stroke-width:1px;stroke-linecap:butt;stroke-linejoin:miter;stroke-opacity:1" d="M 601.753,11.7999 608.843,11.7999 z" id="boundary" inkscape:connector-curvature="0" />
	<path style="fill:none;stroke:red;stroke-width:1px;stroke-linecap:butt;stroke-linejoin:miter;stroke-opacity:1" d="M 601.753,11.7999 594.662,11.0908 z" id="boundary" inkscape:connector-curvature="0" />
	<path style="fill:none;stroke:red;stroke-width:1px;stroke-linecap:butt;stroke-linejoin:miter;stroke-opacity:1" d="M 615.934,11.7999 608.843,11.7999 z" id="boundary" inkscape:connector-curvature="0" />
	<path style="fill:none;stroke:red;stroke-width:1px;stroke-linecap:butt;stroke-linejoin:miter;stroke-opacity:1" d="M 623.025,13.218 630.116,13.218 z" id="boundary" inkscape:connector-curvature="0" />
	<path style="fill:none;stroke:red;stroke-width:1px;stroke-linecap:butt;stroke-linejoin:miter;stroke-opacity:1" d="M 623.025,13.218 615.934,11.7999 z" id="boundary" inkscape:connector-curvature="0" />
	<path style="fill:none;stroke:red;stroke-width:1px;stroke-linecap:butt;stroke-linejoin:miter;stroke-opacity:1" d="M 637.207,13.9271 644.297,13.9271 z" id="boundary" inkscape:connector-curvature="0" />
	<path style="fill:none;stroke:red;stroke-width:1px;stroke-linecap:butt;stroke-linejoin:miter;stroke-opacity:1" d="M 637.207,13.9271 630.116,13.218 z" id="boundary" inkscape:connector-curvature="0" />
	<path style="fill:none;stroke:red;stroke-width:1px;stroke-linecap:butt;stroke-linejoin:miter;stroke-opacity:1" d="M 651.388,13.9271 644.297,13.9271 z" id="boundary" inkscape:connector-curvature="0" />
	<path style="fill:none;stroke:red;stroke-width:1px;stroke-linecap:butt;stroke-linejoin:miter;stroke-opacity:1" d="M 658.479,14.6362 665.57,14.6362 z" id="boundary" inkscape:connector-curvature="0" />
	<path style="fill:none;stroke:red;stroke-width:1px;stroke-linecap:butt;stroke-linejoin:miter;stroke-opacity:1" d="M 658.479,14.6362 651.388,13.9271 z" id="boundary" inkscape:connector-curvature="0" />
	<path style="fill:none;stroke:red;stroke-width:1px;stroke-linecap:butt;stroke-linejoin:miter;stroke-opacity:1" d="M 672.66,14.6362 679.751,14.6362 z" id="boundary" inkscape:connector-curvature="0" />
	<path style="fill:none;stroke:red;stroke-width:1px;stroke-linecap:butt;stroke-linejoin:miter;stroke-opacity:1" d="M 686.842,15.3452 679.751,14.6362 z" id="boundary" inkscape:connector-curvature="0" />
	<path style="fill:none;stroke:red;stroke-width:1px;stroke-linecap:butt;stroke-linejoin:miter;stroke-opacity:1" d="M 693.933,15.3452 686.842,15.3452 z" id="boundary" inkscape:connector-curvature="0" />
	<path style="fill:none;stroke:red;stroke-width:1px;stroke-linecap:butt;stroke-linejoin:miter;stroke-opacity:1" d="M 665.57,14.6362 672.66,14.6362 z" id="boundary" inkscape:connector-curvature="0" />
	<path style="fill:none;stroke:red;stroke-width:1px;stroke-linecap:butt;stroke-linejoin:miter;stroke-opacity:1" d="M 693.933,15.3452 701.024,15.3452 z" id="boundary" inkscape:connector-curvature="0" />
	<path style="fill:none;stroke:red;stroke-width:1px;stroke-linecap:butt;stroke-linejoin:miter;stroke-opacity:1" d="M 708.114,16.0543 715.205,16.0543 z" id="boundary" inkscape:connector-curvature="0" />
	<path style="fill:none;stroke:red;stroke-width:1px;stroke-linecap:butt;stroke-linejoin:miter;stroke-opacity:1" d="M 708.114,16.0543 701.024,15.3452 z" id="boundary" inkscape:connector-curvature="0" />
	<path style="fill:none;stroke:red;stroke-width:1px;stroke-linecap:butt;stroke-linejoin:miter;stroke-opacity:1" d="M 722.296,16.7634 715.205,16.0543 z" id="boundary" inkscape:connector-curvature="0" />
	<path style="fill:none;stroke:red;stroke-width:1px;stroke-linecap:butt;stroke-linejoin:miter;stroke-opacity:1" d="M 729.387,16.0543 722.296,16.7634 z" id="boundary" inkscape:connector-curvature="0" />
	<path style="fill:none;stroke:red;stroke-width:1px;stroke-linecap:butt;stroke-linejoin:miter;stroke-opacity:1" d="M 729.387,16.0543 736.477,16.7634 z" id="boundary" inkscape:connector-curvature="0" />
	<path style="fill:none;stroke:red;stroke-width:1px;stroke-linecap:butt;stroke-linejoin:miter;stroke-opacity:1" d="M 757.75,17.4725 750.659,17.4725 z" id="boundary" inkscape:connector-curvature="0" />
	<path style="fill:none;stroke:red;stroke-width:1px;stroke-linecap:butt;stroke-linejoin:miter;stroke-opacity:1" d="M 743.568,17.4725 750.659,17.4725 z" id="boundary" inkscape:connector-curvature="0" />
	<path style="fill:none;stroke:red;stroke-width:1px;stroke-linecap:butt;stroke-linejoin:miter;stroke-opacity:1" d="M 743.568,17.4725 736.477,16.7634 z" id="boundary" inkscape:connector-curvature="0" />
	<path style="fill:none;stroke:red;stroke-width:1px;stroke-linecap:butt;stroke-linejoin:miter;stroke-opacity:1" d="M 757.75,17.4725 764.841,17.4725 z" id="boundary" inkscape:connector-curvature="0" />
	<path style="fill:none;stroke:red;stroke-width:1px;stroke-linecap:butt;stroke-linejoin:miter;stroke-opacity:1" d="M 764.841,17.4725 771.931,17.4725 z" id="boundary" inkscape:connector-curvature="0" />
	<path style="fill:none;stroke:red;stroke-width:1px;stroke-linecap:butt;stroke-linejoin:miter;stroke-opacity:1" d="M 779.022,18.1816 771.931,17.4725 z" id="boundary" inkscape:connector-curvature="0" />
	<path style="fill:none;stroke:red;stroke-width:1px;stroke-linecap:butt;stroke-linejoin:miter;stroke-opacity:1" d="M 786.113,18.8906 779.022,18.1816 z" id="boundary" inkscape:connector-curvature="0" />
	<path style="fill:none;stroke:red;stroke-width:1px;stroke-linecap:butt;stroke-linejoin:miter;stroke-opacity:1" d="M 793.204,18.8906 786.113,18.8906 z" id="boundary" inkscape:connector-curvature="0" />
	<path style="fill:none;stroke:red;stroke-width:1px;stroke-linecap:butt;stroke-linejoin:miter;stroke-opacity:1" d="M 793.204,18.8906 800.294,18.8906 z" id="boundary" inkscape:connector-curvature="0" />
	<path style="fill:none;stroke:red;stroke-width:1px;stroke-linecap:butt;stroke-linejoin:miter;stroke-opacity:1" d="M 821.567,19.5997 814.476,19.5997 z" id="boundary" inkscape:connector-curvature="0" />
	<path style="fill:none;stroke:red;stroke-width:1px;stroke-linecap:butt;stroke-linejoin:miter;stroke-opacity:1" d="M 814.476,19.5997 807.385,18.8906 z" id="boundary" inkscape:connector-curvature="0" />
	<path style="fill:none;stroke:red;stroke-width:1px;stroke-linecap:butt;stroke-linejoin:miter;stroke-opacity:1" d="M 828.658,19.5997 821.567,19.5997 z" id="boundary" inkscape:connector-curvature="0" />
	<path style="fill:none;stroke:red;stroke-width:1px;stroke-linecap:butt;stroke-linejoin:miter;stroke-opacity:1" d="M 800.294,18.8906 807.385,18.8906 z" id="boundary" inkscape:connector-curvature="0" />
	<path style="fill:none;stroke:red;stroke-width:1px;stroke-linecap:butt;stroke-linejoin:miter;stroke-opacity:1" d="M 835.748,20.3088 828.658,19.5997 z" id="boundary" inkscape:connector-curvature="0" />
	<path style="fill:none;stroke:red;stroke-width:1px;stroke-linecap:butt;stroke-linejoin:miter;stroke-opacity:1" d="M 842.839,21.0179 849.93,21.0179 z" id="boundary" inkscape:connector-curvature="0" />
	<path style="fill:none;stroke:red;stroke-width:1px;stroke-linecap:butt;stroke-linejoin:miter;stroke-opacity:1" d="M 842.839,21.0179 835.748,20.3088 z" id="boundary" inkscape:connector-curvature="0" />
	<path style="fill:none;stroke:red;stroke-width:1px;stroke-linecap:butt;stroke-linejoin:miter;stroke-opacity:1" d="M 857.021,21.7269 849.93,21.0179 z" id="boundary" inkscape:connector-curvature="0" />
	<path style="fill:none;stroke:red;stroke-width:1px;stroke-linecap:butt;stroke-linejoin:miter;stroke-opacity:1" d="M 864.112,21.7269 857.021,21.7269 z" id="boundary" inkscape:connector-curvature="0" />
	<path style="fill:none;stroke:red;stroke-width:1px;stroke-linecap:butt;stroke-linejoin:miter;stroke-opacity:1" d="M 864.112,21.7269 871.202,22.436 z" id="boundary" inkscape:connector-curvature="0" />
	<path style="fill:none;stroke:red;stroke-width:1px;stroke-linecap:butt;stroke-linejoin:miter;stroke-opacity:1" d="M 878.293,23.1451 885.384,23.1451 z" id="boundary" inkscape:connector-curvature="0" />
	<path style="fill:none;stroke:red;stroke-width:1px;stroke-linecap:butt;stroke-linejoin:miter;stroke-opacity:1" d="M 878.293,23.1451 871.202,22.436 z" id="boundary" inkscape:connector-curvature="0" />
	<path style="fill:none;stroke:red;stroke-width:1px;stroke-linecap:butt;stroke-linejoin:miter;stroke-opacity:1" d="M 885.384,23.1451 892.475,23.8542 z" id="boundary" inkscape:connector-curvature="0" />
	<path style="fill:none;stroke:red;stroke-width:1px;stroke-linecap:butt;stroke-linejoin:miter;stroke-opacity:1" d="M 899.565,24.5633 906.656,25.2723 z" id="boundary" inkscape:connector-curvature="0" />
	<path style="fill:none;stroke:red;stroke-width:1px;stroke-linecap:butt;stroke-linejoin:miter;stroke-opacity:1" d="M 913.747,26.6905 920.838,27.3996 z" id="boundary" inkscape:connector-curvature="0" />
	<path style="fill:none;stroke:red;stroke-width:1px;stroke-linecap:butt;stroke-linejoin:miter;stroke-opacity:1" d="M 913.747,26.6905 906.656,25.2723 z" id="boundary" inkscape:connector-curvature="0" />
	<path style="fill:none;stroke:red;stroke-width:1px;stroke-linecap:butt;stroke-linejoin:miter;stroke-opacity:1" d="M 892.475,23.8542 899.565,24.5633 z" id="boundary" inkscape:connector-curvature="0" />
	<path style="fill:none;stroke:red;stroke-width:1px;stroke-linecap:butt;stroke-linejoin:miter;stroke-opacity:1" d="M 920.838,27.3996 927.929,28.8177 z" id="boundary" inkscape:connector-curvature="0" />
	<path style="fill:none;stroke:red;stroke-width:1px;stroke-linecap:butt;stroke-linejoin:miter;stroke-opacity:1" d="M 935.019,30.2359 942.11,33.0722 z" id="boundary" inkscape:connector-curvature="0" />
	<path style="fill:none;stroke:red;stroke-width:1px;stroke-linecap:butt;stroke-linejoin:miter;stroke-opacity:1" d="M 949.201,34.4904 942.11,33.0722 z" id="boundary" inkscape:connector-curvature="0" />
	<path style="fill:none;stroke:red;stroke-width:1px;stroke-linecap:butt;stroke-linejoin:miter;stroke-opacity:1" d="M 949.201,34.4904 956.292,37.3267 z" id="boundary" inkscape:connector-curvature="0" />
	<path style="fill:none;stroke:red;stroke-width:1px;stroke-linecap:butt;stroke-linejoin:miter;stroke-opacity:1" d="M 956.292,37.3267 963.382,40.163 z" id="boundary" inkscape:connector-curvature="0" />
	<path style="fill:none;stroke:red;stroke-width:1px;stroke-linecap:butt;stroke-linejoin:miter;stroke-opacity:1" d="M 969.764,43.7084 976.855,46.5447 z" id="boundary" inkscape:connector-curvature="0" />
	<path style="fill:none;stroke:red;stroke-width:1px;stroke-linecap:butt;stroke-linejoin:miter;stroke-opacity:1" d="M 969.764,43.7084 963.382,40.163 z" id="boundary" inkscape:connector-curvature="0" />
	<path style="fill:none;stroke:red;stroke-width:1px;stroke-linecap:butt;stroke-linejoin:miter;stroke-opacity:1" d="M 996,56.4718 988.909,54.3445 z" id="boundary" inkscape:connector-curvature="0" />
	<path style="fill:none;stroke:red;stroke-width:1px;stroke-linecap:butt;stroke-linejoin:miter;stroke-opacity:1" d="M 988.909,54.3445 982.528,50.7991 z" id="boundary" inkscape:connector-curvature="0" />
	<path style="fill:none;stroke:red;stroke-width:1px;stroke-linecap:butt;stroke-linejoin:miter;stroke-opacity:1" d="M 982.528,50.7991 976.855,46.5447 z" id="boundary" inkscape:connector-curvature="0" />
	<path style="fill:none;stroke:red;stroke-width:1px;stroke-linecap:butt;stroke-linejoin:miter;stroke-opacity:1" d="M 927.929,28.8177 935.019,30.2359 z" id="boundary" inkscape:connector-curvature="0" />
	<path style="fill:none;stroke:red;stroke-width:1px;stroke-linecap:butt;stroke-linejoin:miter;stroke-opacity:1" d="M 601.044,79.1623 593.953,79.8713 z" id="boundary" inkscape:connector-curvature="0" />
	<path style="fill:none;stroke:red;stroke-width:1px;stroke-linecap:butt;stroke-linejoin:miter;stroke-opacity:1" d="M 615.225,78.4532 608.134,79.1623 z" id="boundary" inkscape:connector-curvature="0" />
	<path style="fill:none;stroke:red;stroke-width:1px;stroke-linecap:butt;stroke-linejoin:miter;stroke-opacity:1" d="M 622.316,78.4532 615.225,78.4532 z" id="boundary" inkscape:connector-curvature="0" />
	<path style="fill:none;stroke:red;stroke-width:1px;stroke-linecap:butt;stroke-linejoin:miter;stroke-opacity:1" d="M 636.497,77.7441 629.407,77.7441 z" id="boundary" inkscape:connector-curvature="0" />
	<path style="fill:none;stroke:red;stroke-width:1px;stroke-linecap:butt;stroke-linejoin:miter;stroke-opacity:1" d="M 629.407,77.7441 622.316,78.4532 z" id="boundary" inkscape:connector-curvature="0" />
	<path style="fill:none;stroke:red;stroke-width:1px;stroke-linecap:butt;stroke-linejoin:miter;stroke-opacity:1" d="M 558.499,80.5804 551.408,81.2895 z" id="boundary" inkscape:connector-curvature="0" />
	<path style="fill:none;stroke:red;stroke-width:1px;stroke-linecap:butt;stroke-linejoin:miter;stroke-opacity:1" d="M 452.137,84.8349 447.883,79.1623 z" id="boundary" inkscape:connector-curvature="0" />
	<path style="fill:none;stroke:red;stroke-width:1px;stroke-linecap:butt;stroke-linejoin:miter;stroke-opacity:1" d="M 447.883,79.1623 453.555,74.9078 z" id="boundary" inkscape:connector-curvature="0" />
	<path style="fill:none;stroke:red;stroke-width:1px;stroke-linecap:butt;stroke-linejoin:miter;stroke-opacity:1" d="M 608.134,79.1623 601.044,79.1623 z" id="boundary" inkscape:connector-curvature="0" />
	<path style="fill:none;stroke:red;stroke-width:1px;stroke-linecap:butt;stroke-linejoin:miter;stroke-opacity:1" d="M 579.771,79.8713 572.68,80.5804 z" id="boundary" inkscape:connector-curvature="0" />
	<path style="fill:none;stroke:red;stroke-width:1px;stroke-linecap:butt;stroke-linejoin:miter;stroke-opacity:1" d="M 586.862,79.8713 579.771,79.8713 z" id="boundary" inkscape:connector-curvature="0" />
	<path style="fill:none;stroke:red;stroke-width:1px;stroke-linecap:butt;stroke-linejoin:miter;stroke-opacity:1" d="M 636.497,77.7441 643.588,77.7441 z" id="boundary" inkscape:connector-curvature="0" />
	<path style="fill:none;stroke:red;stroke-width:1px;stroke-linecap:butt;stroke-linejoin:miter;stroke-opacity:1" d="M 671.951,76.3259 664.861,76.3259 z" id="boundary" inkscape:connector-curvature="0" />
	<path style="fill:none;stroke:red;stroke-width:1px;stroke-linecap:butt;stroke-linejoin:miter;stroke-opacity:1" d="M 664.861,76.3259 657.77,77.035 z" id="boundary" inkscape:connector-curvature="0" />
	<path style="fill:none;stroke:red;stroke-width:1px;stroke-linecap:butt;stroke-linejoin:miter;stroke-opacity:1" d="M 700.315,75.6169 693.224,75.6169 z" id="boundary" inkscape:connector-curvature="0" />
	<path style="fill:none;stroke:red;stroke-width:1px;stroke-linecap:butt;stroke-linejoin:miter;stroke-opacity:1" d="M 693.224,75.6169 686.133,75.6169 z" id="boundary" inkscape:connector-curvature="0" />
	<path style="fill:none;stroke:red;stroke-width:1px;stroke-linecap:butt;stroke-linejoin:miter;stroke-opacity:1" d="M 700.315,75.6169 707.405,74.9078 z" id="boundary" inkscape:connector-curvature="0" />
	<path style="fill:none;stroke:red;stroke-width:1px;stroke-linecap:butt;stroke-linejoin:miter;stroke-opacity:1" d="M 707.405,74.9078 714.496,74.9078 z" id="boundary" inkscape:connector-curvature="0" />
	<path style="fill:none;stroke:red;stroke-width:1px;stroke-linecap:butt;stroke-linejoin:miter;stroke-opacity:1" d="M 679.042,76.3259 686.133,75.6169 z" id="boundary" inkscape:connector-curvature="0" />
	<path style="fill:none;stroke:red;stroke-width:1px;stroke-linecap:butt;stroke-linejoin:miter;stroke-opacity:1" d="M 643.588,77.7441 650.679,77.035 z" id="boundary" inkscape:connector-curvature="0" />
	<path style="fill:none;stroke:red;stroke-width:1px;stroke-linecap:butt;stroke-linejoin:miter;stroke-opacity:1" d="M 650.679,77.035 657.77,77.035 z" id="boundary" inkscape:connector-curvature="0" />
	<path style="fill:none;stroke:red;stroke-width:1px;stroke-linecap:butt;stroke-linejoin:miter;stroke-opacity:1" d="M 671.951,76.3259 679.042,76.3259 z" id="boundary" inkscape:connector-curvature="0" />
	<path style="fill:none;stroke:red;stroke-width:1px;stroke-linecap:butt;stroke-linejoin:miter;stroke-opacity:1" d="M 487.591,83.4167 494.682,83.4167 z" id="boundary" inkscape:connector-curvature="0" />
	<path style="fill:none;stroke:red;stroke-width:1px;stroke-linecap:butt;stroke-linejoin:miter;stroke-opacity:1" d="M 480.5,84.1258 487.591,83.4167 z" id="boundary" inkscape:connector-curvature="0" />
	<path style="fill:none;stroke:red;stroke-width:1px;stroke-linecap:butt;stroke-linejoin:miter;stroke-opacity:1" d="M 501.773,83.4167 508.863,82.7076 z" id="boundary" inkscape:connector-curvature="0" />
	<path style="fill:none;stroke:red;stroke-width:1px;stroke-linecap:butt;stroke-linejoin:miter;stroke-opacity:1" d="M 508.863,82.7076 515.954,82.7076 z" id="boundary" inkscape:connector-curvature="0" />
	<path style="fill:none;stroke:red;stroke-width:1px;stroke-linecap:butt;stroke-linejoin:miter;stroke-opacity:1" d="M 501.773,83.4167 494.682,83.4167 z" id="boundary" inkscape:connector-curvature="0" />
	<path style="fill:none;stroke:red;stroke-width:1px;stroke-linecap:butt;stroke-linejoin:miter;stroke-opacity:1" d="M 452.137,84.8349 459.228,84.8349 z" id="boundary" inkscape:connector-curvature="0" />
	<path style="fill:none;stroke:red;stroke-width:1px;stroke-linecap:butt;stroke-linejoin:miter;stroke-opacity:1" d="M 466.319,84.8349 473.41,84.1258 z" id="boundary" inkscape:connector-curvature="0" />
	<path style="fill:none;stroke:red;stroke-width:1px;stroke-linecap:butt;stroke-linejoin:miter;stroke-opacity:1" d="M 473.41,84.1258 480.5,84.1258 z" id="boundary" inkscape:connector-curvature="0" />
	<path style="fill:none;stroke:red;stroke-width:1px;stroke-linecap:butt;stroke-linejoin:miter;stroke-opacity:1" d="M 466.319,84.8349 459.228,84.8349 z" id="boundary" inkscape:connector-curvature="0" />
	<path style="fill:none;stroke:red;stroke-width:1px;stroke-linecap:butt;stroke-linejoin:miter;stroke-opacity:1" d="M 558.499,80.5804 565.59,80.5804 z" id="boundary" inkscape:connector-curvature="0" />
	<path style="fill:none;stroke:red;stroke-width:1px;stroke-linecap:butt;stroke-linejoin:miter;stroke-opacity:1" d="M 586.862,79.8713 593.953,79.8713 z" id="boundary" inkscape:connector-curvature="0" />
	<path style="fill:none;stroke:red;stroke-width:1px;stroke-linecap:butt;stroke-linejoin:miter;stroke-opacity:1" d="M 572.68,80.5804 565.59,80.5804 z" id="boundary" inkscape:connector-curvature="0" />
	<path style="fill:none;stroke:red;stroke-width:1px;stroke-linecap:butt;stroke-linejoin:miter;stroke-opacity:1" d="M 523.045,81.9986 530.136,81.9986 z" id="boundary" inkscape:connector-curvature="0" />
	<path style="fill:none;stroke:red;stroke-width:1px;stroke-linecap:butt;stroke-linejoin:miter;stroke-opacity:1" d="M 515.954,82.7076 523.045,81.9986 z" id="boundary" inkscape:connector-curvature="0" />
	<path style="fill:none;stroke:red;stroke-width:1px;stroke-linecap:butt;stroke-linejoin:miter;stroke-opacity:1" d="M 537.227,81.9986 544.317,81.2895 z" id="boundary" inkscape:connector-curvature="0" />
	<path style="fill:none;stroke:red;stroke-width:1px;stroke-linecap:butt;stroke-linejoin:miter;stroke-opacity:1" d="M 544.317,81.2895 551.408,81.2895 z" id="boundary" inkscape:connector-curvature="0" />
	<path style="fill:none;stroke:red;stroke-width:1px;stroke-linecap:butt;stroke-linejoin:miter;stroke-opacity:1" d="M 537.227,81.9986 530.136,81.9986 z" id="boundary" inkscape:connector-curvature="0" />
	<path style="fill:none;stroke:red;stroke-width:1px;stroke-linecap:butt;stroke-linejoin:miter;stroke-opacity:1" d="M 891.766,67.817 898.856,67.817 z" id="boundary" inkscape:connector-curvature="0" />
	<path style="fill:none;stroke:red;stroke-width:1px;stroke-linecap:butt;stroke-linejoin:miter;stroke-opacity:1" d="M 884.675,68.5261 891.766,67.817 z" id="boundary" inkscape:connector-curvature="0" />
	<path style="fill:none;stroke:red;stroke-width:1px;stroke-linecap:butt;stroke-linejoin:miter;stroke-opacity:1" d="M 913.038,67.1079 905.947,67.1079 z" id="boundary" inkscape:connector-curvature="0" />
	<path style="fill:none;stroke:red;stroke-width:1px;stroke-linecap:butt;stroke-linejoin:miter;stroke-opacity:1" d="M 905.947,67.1079 898.856,67.817 z" id="boundary" inkscape:connector-curvature="0" />
	<path style="fill:none;stroke:red;stroke-width:1px;stroke-linecap:butt;stroke-linejoin:miter;stroke-opacity:1" d="M 913.038,67.1079 920.129,66.3989 z" id="boundary" inkscape:connector-curvature="0" />
	<path style="fill:none;stroke:red;stroke-width:1px;stroke-linecap:butt;stroke-linejoin:miter;stroke-opacity:1" d="M 920.129,66.3989 927.219,66.3989 z" id="boundary" inkscape:connector-curvature="0" />
	<path style="fill:none;stroke:red;stroke-width:1px;stroke-linecap:butt;stroke-linejoin:miter;stroke-opacity:1" d="M 849.221,69.2352 856.312,69.2352 z" id="boundary" inkscape:connector-curvature="0" />
	<path style="fill:none;stroke:red;stroke-width:1px;stroke-linecap:butt;stroke-linejoin:miter;stroke-opacity:1" d="M 842.13,69.9442 849.221,69.2352 z" id="boundary" inkscape:connector-curvature="0" />
	<path style="fill:none;stroke:red;stroke-width:1px;stroke-linecap:butt;stroke-linejoin:miter;stroke-opacity:1" d="M 863.402,69.2352 856.312,69.2352 z" id="boundary" inkscape:connector-curvature="0" />
	<path style="fill:none;stroke:red;stroke-width:1px;stroke-linecap:butt;stroke-linejoin:miter;stroke-opacity:1" d="M 877.584,68.5261 870.493,68.5261 z" id="boundary" inkscape:connector-curvature="0" />
	<path style="fill:none;stroke:red;stroke-width:1px;stroke-linecap:butt;stroke-linejoin:miter;stroke-opacity:1" d="M 884.675,68.5261 877.584,68.5261 z" id="boundary" inkscape:connector-curvature="0" />
	<path style="fill:none;stroke:red;stroke-width:1px;stroke-linecap:butt;stroke-linejoin:miter;stroke-opacity:1" d="M 863.402,69.2352 870.493,68.5261 z" id="boundary" inkscape:connector-curvature="0" />
	<path style="fill:none;stroke:red;stroke-width:1px;stroke-linecap:butt;stroke-linejoin:miter;stroke-opacity:1" d="M 962.673,64.9807 969.764,64.9807 z" id="boundary" inkscape:connector-curvature="0" />
	<path style="fill:none;stroke:red;stroke-width:1px;stroke-linecap:butt;stroke-linejoin:miter;stroke-opacity:1" d="M 955.583,65.6898 962.673,64.9807 z" id="boundary" inkscape:connector-curvature="0" />
	<path style="fill:none;stroke:red;stroke-width:1px;stroke-linecap:butt;stroke-linejoin:miter;stroke-opacity:1" d="M 976.855,64.9807 983.946,64.9807 z" id="boundary" inkscape:connector-curvature="0" />
	<path style="fill:none;stroke:red;stroke-width:1px;stroke-linecap:butt;stroke-linejoin:miter;stroke-opacity:1" d="M 991.036,64.9807 983.946,64.9807 z" id="boundary" inkscape:connector-curvature="0" />
	<path style="fill:none;stroke:red;stroke-width:1px;stroke-linecap:butt;stroke-linejoin:miter;stroke-opacity:1" d="M 976.855,64.9807 969.764,64.9807 z" id="boundary" inkscape:connector-curvature="0" />
	<path style="fill:none;stroke:red;stroke-width:1px;stroke-linecap:butt;stroke-linejoin:miter;stroke-opacity:1" d="M 927.219,66.3989 934.31,65.6898 z" id="boundary" inkscape:connector-curvature="0" />
	<path style="fill:none;stroke:red;stroke-width:1px;stroke-linecap:butt;stroke-linejoin:miter;stroke-opacity:1" d="M 934.31,65.6898 941.401,66.3989 z" id="boundary" inkscape:connector-curvature="0" />
	<path style="fill:none;stroke:red;stroke-width:1px;stroke-linecap:butt;stroke-linejoin:miter;stroke-opacity:1" d="M 941.401,66.3989 948.492,65.6898 z" id="boundary" inkscape:connector-curvature="0" />
	<path style="fill:none;stroke:red;stroke-width:1px;stroke-linecap:butt;stroke-linejoin:miter;stroke-opacity:1" d="M 948.492,65.6898 955.583,65.6898 z" id="boundary" inkscape:connector-curvature="0" />
	<path style="fill:none;stroke:red;stroke-width:1px;stroke-linecap:butt;stroke-linejoin:miter;stroke-opacity:1" d="M 813.767,70.6533 806.676,71.3624 z" id="boundary" inkscape:connector-curvature="0" />
	<path style="fill:none;stroke:red;stroke-width:1px;stroke-linecap:butt;stroke-linejoin:miter;stroke-opacity:1" d="M 749.95,73.4896 742.859,73.4896 z" id="boundary" inkscape:connector-curvature="0" />
	<path style="fill:none;stroke:red;stroke-width:1px;stroke-linecap:butt;stroke-linejoin:miter;stroke-opacity:1" d="M 742.859,73.4896 735.768,74.1987 z" id="boundary" inkscape:connector-curvature="0" />
	<path style="fill:none;stroke:red;stroke-width:1px;stroke-linecap:butt;stroke-linejoin:miter;stroke-opacity:1" d="M 771.222,72.7806 764.132,72.7806 z" id="boundary" inkscape:connector-curvature="0" />
	<path style="fill:none;stroke:red;stroke-width:1px;stroke-linecap:butt;stroke-linejoin:miter;stroke-opacity:1" d="M 764.132,72.7806 757.041,72.7806 z" id="boundary" inkscape:connector-curvature="0" />
	<path style="fill:none;stroke:red;stroke-width:1px;stroke-linecap:butt;stroke-linejoin:miter;stroke-opacity:1" d="M 771.222,72.7806 778.313,72.0715 z" id="boundary" inkscape:connector-curvature="0" />
	<path style="fill:none;stroke:red;stroke-width:1px;stroke-linecap:butt;stroke-linejoin:miter;stroke-opacity:1" d="M 778.313,72.0715 785.404,72.0715 z" id="boundary" inkscape:connector-curvature="0" />
	<path style="fill:none;stroke:red;stroke-width:1px;stroke-linecap:butt;stroke-linejoin:miter;stroke-opacity:1" d="M 749.95,73.4896 757.041,72.7806 z" id="boundary" inkscape:connector-curvature="0" />
	<path style="fill:none;stroke:red;stroke-width:1px;stroke-linecap:butt;stroke-linejoin:miter;stroke-opacity:1" d="M 714.496,74.9078 721.587,74.1987 z" id="boundary" inkscape:connector-curvature="0" />
	<path style="fill:none;stroke:red;stroke-width:1px;stroke-linecap:butt;stroke-linejoin:miter;stroke-opacity:1" d="M 721.587,74.1987 728.678,74.1987 z" id="boundary" inkscape:connector-curvature="0" />
	<path style="fill:none;stroke:red;stroke-width:1px;stroke-linecap:butt;stroke-linejoin:miter;stroke-opacity:1" d="M 735.768,74.1987 728.678,74.1987 z" id="boundary" inkscape:connector-curvature="0" />
	<path style="fill:none;stroke:red;stroke-width:1px;stroke-linecap:butt;stroke-linejoin:miter;stroke-opacity:1" d="M 813.767,70.6533 820.858,70.6533 z" id="boundary" inkscape:connector-curvature="0" />
	<path style="fill:none;stroke:red;stroke-width:1px;stroke-linecap:butt;stroke-linejoin:miter;stroke-opacity:1" d="M 842.13,69.9442 835.039,69.9442 z" id="boundary" inkscape:connector-curvature="0" />
	<path style="fill:none;stroke:red;stroke-width:1px;stroke-linecap:butt;stroke-linejoin:miter;stroke-opacity:1" d="M 827.949,70.6533 820.858,70.6533 z" id="boundary" inkscape:connector-curvature="0" />
	<path style="fill:none;stroke:red;stroke-width:1px;stroke-linecap:butt;stroke-linejoin:miter;stroke-opacity:1" d="M 835.039,69.9442 827.949,70.6533 z" id="boundary" inkscape:connector-curvature="0" />
	<path style="fill:none;stroke:red;stroke-width:1px;stroke-linecap:butt;stroke-linejoin:miter;stroke-opacity:1" d="M 785.404,72.0715 792.495,72.0715 z" id="boundary" inkscape:connector-curvature="0" />
	<path style="fill:none;stroke:red;stroke-width:1px;stroke-linecap:butt;stroke-linejoin:miter;stroke-opacity:1" d="M 806.676,71.3624 799.585,71.3624 z" id="boundary" inkscape:connector-curvature="0" />
	<path style="fill:none;stroke:red;stroke-width:1px;stroke-linecap:butt;stroke-linejoin:miter;stroke-opacity:1" d="M 792.495,72.0715 799.585,71.3624 z" id="boundary" inkscape:connector-curvature="0" />
	<circle cx="4" cy="42.2902" r="4" fill="#0" id="circle0"/>
	<circle cx="5.41816" cy="49.381" r="4" fill="#0" id="circle1"/>
	<circle cx="8.25447" cy="56.4718" r="4" fill="#0" id="circle2"/>
	<circle cx="11.0908" cy="39.4539" r="4" fill="#0" id="circle3"/>
	<circle cx="11.7999" cy="62.8535" r="4" fill="#0" id="circle4"/>
	<circle cx="16.7634" cy="68.5261" r="4" fill="#0" id="circle5"/>
	<circle cx="17.4725" cy="35.9085" r="4" fill="#0" id="circle6"/>
	<circle cx="22.436" cy="72.7806" r="4" fill="#0" id="circle7"/>
	<circle cx="24.5633" cy="33.0722" r="4" fill="#0" id="circle8"/>
	<circle cx="28.1086" cy="77.035" r="4" fill="#0" id="circle9"/>
	<circle cx="30.945" cy="29.5268" r="4" fill="#0" id="circle10"/>
	<circle cx="33.7813" cy="81.2895" r="4" fill="#0" id="circle11"/>
	<circle cx="37.3267" cy="25.9814" r="4" fill="#0" id="circle12"/>
	<circle cx="40.8721" cy="84.1258" r="4" fill="#0" id="circle13"/>
	<circle cx="44.4174" cy="23.8542" r="4" fill="#0" id="circle14"/>
	<circle cx="47.9628" cy="86.253" r="4" fill="#0" id="circle15"/>
	<circle cx="51.5082" cy="21.0179" r="4" fill="#0" id="circle16"/>
	<circle cx="55.0536" cy="88.3803" r="4" fill="#0" id="circle17"/>
	<circle cx="57.8899" cy="17.4725" r="4" fill="#0" id="circle18"/>
	<circle cx="62.1444" cy="89.7984" r="4" fill="#0" id="circle19"/>
	<circle cx="64.9807" cy="19.5997" r="4" fill="#0" id="circle20"/>
	<circle cx="69.2352" cy="89.7984" r="4" fill="#0" id="circle21"/>
	<circle cx="70.6533" cy="23.8542" r="4" fill="#0" id="circle22"/>
	<circle cx="76.3259" cy="28.1086" r="4" fill="#0" id="circle23"/>
	<circle cx="76.3259" cy="92.6347" r="4" fill="#0" id="circle24"/>
	<circle cx="83.4167" cy="29.5268" r="4" fill="#0" id="circle25"/>
	<circle cx="83.4167" cy="93.3438" r="4" fill="#0" id="circle26"/>
	<circle cx="90.5075" cy="30.945" r="4" fill="#0" id="circle27"/>
	<circle cx="90.5075" cy="94.0529" r="4" fill="#0" id="circle28"/>
	<circle cx="96.8892" cy="34.4904" r="4" fill="#0" id="circle29"/>
	<circle cx="97.5983" cy="92.6347" r="4" fill="#0" id="circle30"/>
	<circle cx="103.98" cy="35.1994" r="4" fill="#0" id="circle31"/>
	<circle cx="104.689" cy="91.9257" r="4" fill="#0" id="circle32"/>
	<circle cx="111.071" cy="35.9085" r="4" fill="#0" id="circle33"/>
	<circle cx="111.78" cy="91.9257" r="4" fill="#0" id="circle34"/>
	<circle cx="118.162" cy="33.7813" r="4" fill="#0" id="circle35"/>
	<circle cx="118.871" cy="91.9257" r="4" fill="#0" id="circle36"/>
	<circle cx="125.252" cy="33.0722" r="4" fill="#0" id="circle37"/>
	<circle cx="125.961" cy="91.2166" r="4" fill="#0" id="circle38"/>
	<circle cx="132.343" cy="34.4904" r="4" fill="#0" id="circle39"/>
	<circle cx="133.052" cy="91.2166" r="4" fill="#0" id="circle40"/>
	<circle cx="139.434" cy="31.654" r="4" fill="#0" id="circle41"/>
	<circle cx="140.143" cy="91.2166" r="4" fill="#0" id="circle42"/>
	<circle cx="146.525" cy="30.945" r="4" fill="#0" id="circle43"/>
	<circle cx="147.234" cy="89.7984" r="4" fill="#0" id="circle44"/>
	<circle cx="153.615" cy="31.654" r="4" fill="#0" id="circle45"/>
	<circle cx="154.325" cy="89.7984" r="4" fill="#0" id="circle46"/>
	<circle cx="160.706" cy="30.945" r="4" fill="#0" id="circle47"/>
	<circle cx="161.415" cy="89.0893" r="4" fill="#0" id="circle48"/>
	<circle cx="167.797" cy="28.1086" r="4" fill="#0" id="circle49"/>
	<circle cx="168.506" cy="87.6712" r="4" fill="#0" id="circle50"/>
	<circle cx="174.888" cy="28.8177" r="4" fill="#0" id="circle51"/>
	<circle cx="175.597" cy="89.7984" r="4" fill="#0" id="circle52"/>
	<circle cx="181.979" cy="27.3996" r="4" fill="#0" id="circle53"/>
	<circle cx="182.688" cy="89.7984" r="4" fill="#0" id="circle54"/>
	<circle cx="189.069" cy="26.6905" r="4" fill="#0" id="circle55"/>
	<circle cx="189.778" cy="87.6712" r="4" fill="#0" id="circle56"/>
	<circle cx="196.16" cy="25.9814" r="4" fill="#0" id="circle57"/>
	<circle cx="196.869" cy="88.3803" r="4" fill="#0" id="circle58"/>
	<circle cx="203.251" cy="24.5633" r="4" fill="#0" id="circle59"/>
	<circle cx="203.96" cy="86.9621" r="4" fill="#0" id="circle60"/>
	<circle cx="210.342" cy="24.5633" r="4" fill="#0" id="circle61"/>
	<circle cx="211.051" cy="86.253" r="4" fill="#0" id="circle62"/>
	<circle cx="217.432" cy="23.1451" r="4" fill="#0" id="circle63"/>
	<circle cx="218.142" cy="86.9621" r="4" fill="#0" id="circle64"/>
	<circle cx="224.523" cy="20.3088" r="4" fill="#0" id="circle65"/>
	<circle cx="225.232" cy="86.253" r="4" fill="#0" id="circle66"/>
	<circle cx="231.614" cy="21.7269" r="4" fill="#0" id="circle67"/>
	<circle cx="232.323" cy="86.253" r="4" fill="#0" id="circle68"/>
	<circle cx="238.705" cy="21.7269" r="4" fill="#0" id="circle69"/>
	<circle cx="239.414" cy="85.544" r="4" fill="#0" id="circle70"/>
	<circle cx="245.796" cy="22.436" r="4" fill="#0" id="circle71"/>
	<circle cx="246.505" cy="85.544" r="4" fill="#0" id="circle72"/>
	<circle cx="252.886" cy="22.436" r="4" fill="#0" id="circle73"/>
	<circle cx="253.595" cy="85.544" r="4" fill="#0" id="circle74"/>
	<circle cx="259.977" cy="23.1451" r="4" fill="#0" id="circle75"/>
	<circle cx="260.686" cy="84.8349" r="4" fill="#0" id="circle76"/>
	<circle cx="267.068" cy="22.436" r="4" fill="#0" id="circle77"/>
	<circle cx="267.777" cy="84.8349" r="4" fill="#0" id="circle78"/>
	<circle cx="274.159" cy="23.8542" r="4" fill="#0" id="circle79"/>
	<circle cx="274.868" cy="84.1258" r="4" fill="#0" id="circle80"/>
	<circle cx="281.249" cy="23.8542" r="4" fill="#0" id="circle81"/>
	<circle cx="281.959" cy="83.4167" r="4" fill="#0" id="circle82"/>
	<circle cx="285.504" cy="18.1816" r="4" fill="#0" id="circle83"/>
	<circle cx="289.049" cy="82.7076" r="4" fill="#0" id="circle84"/>
	<circle cx="292.595" cy="18.8906" r="4" fill="#0" id="circle85"/>
	<circle cx="296.14" cy="82.7076" r="4" fill="#0" id="circle86"/>
	<circle cx="299.685" cy="19.5997" r="4" fill="#0" id="circle87"/>
	<circle cx="303.231" cy="82.7076" r="4" fill="#0" id="circle88"/>
	<circle cx="306.776" cy="19.5997" r="4" fill="#0" id="circle89"/>
	<circle cx="310.322" cy="81.9986" r="4" fill="#0" id="circle90"/>
	<circle cx="313.867" cy="21.0179" r="4" fill="#0" id="circle91"/>
	<circle cx="313.867" cy="88.3803" r="4" fill="#0" id="circle92"/>
	<circle cx="315.285" cy="28.1086" r="4" fill="#0" id="circle93"/>
	<circle cx="317.412" cy="81.9986" r="4" fill="#0" id="circle94"/>
	<circle cx="320.958" cy="21.7269" r="4" fill="#0" id="circle95"/>
	<circle cx="320.958" cy="89.7984" r="4" fill="#0" id="circle96"/>
	<circle cx="323.085" cy="28.8177" r="4" fill="#0" id="circle97"/>
	<circle cx="324.503" cy="82.7076" r="4" fill="#0" id="circle98"/>
	<circle cx="328.049" cy="89.7984" r="4" fill="#0" id="circle99"/>
	<circle cx="330.176" cy="28.8177" r="4" fill="#0" id="circle100"/>
	<circle cx="330.885" cy="96.8892" r="4" fill="#0" id="circle101"/>
	<circle cx="331.594" cy="82.7076" r="4" fill="#0" id="circle102"/>
	<circle cx="335.139" cy="89.0893" r="4" fill="#0" id="circle103"/>
	<circle cx="337.267" cy="28.1086" r="4" fill="#0" id="circle104"/>
	<circle cx="337.976" cy="99.7255" r="4" fill="#0" id="circle105"/>
	<circle cx="338.685" cy="81.9986" r="4" fill="#0" id="circle106"/>
	<circle cx="342.23" cy="89.0893" r="4" fill="#0" id="circle107"/>
	<circle cx="343.648" cy="24.5633" r="4" fill="#0" id="circle108"/>
	<circle cx="345.066" cy="99.0164" r="4" fill="#0" id="circle109"/>
	<circle cx="350.739" cy="25.2723" r="4" fill="#0" id="circle110"/>
	<circle cx="352.157" cy="97.5983" r="4" fill="#0" id="circle111"/>
	<circle cx="352.866" cy="82.7076" r="4" fill="#0" id="circle112"/>
	<circle cx="357.121" cy="21.0179" r="4" fill="#0" id="circle113"/>
	<circle cx="359.248" cy="86.253" r="4" fill="#0" id="circle114"/>
	<circle cx="359.248" cy="100.435" r="4" fill="#0" id="circle115"/>
	<circle cx="362.793" cy="25.9814" r="4" fill="#0" id="circle116"/>
	<circle cx="362.793" cy="94.0529" r="4" fill="#0" id="circle117"/>
	<circle cx="365.63" cy="81.9986" r="4" fill="#0" id="circle118"/>
	<circle cx="369.175" cy="29.5268" r="4" fill="#0" id="circle119"/>
	<circle cx="371.302" cy="77.7441" r="4" fill="#0" id="circle120"/>
	<circle cx="374.139" cy="84.8349" r="4" fill="#0" id="circle121"/>
	<circle cx="376.266" cy="28.1086" r="4" fill="#0" id="circle122"/>
	<circle cx="378.393" cy="78.4532" r="4" fill="#0" id="circle123"/>
	<circle cx="381.229" cy="86.253" r="4" fill="#0" id="circle124"/>
	<circle cx="383.357" cy="26.6905" r="4" fill="#0" id="circle125"/>
	<circle cx="385.484" cy="77.7441" r="4" fill="#0" id="circle126"/>
	<circle cx="388.32" cy="86.9621" r="4" fill="#0" id="circle127"/>
	<circle cx="390.447" cy="23.8542" r="4" fill="#0" id="circle128"/>
	<circle cx="392.575" cy="77.7441" r="4" fill="#0" id="circle129"/>
	<circle cx="395.411" cy="86.9621" r="4" fill="#0" id="circle130"/>
	<circle cx="396.12" cy="18.8906" r="4" fill="#0" id="circle131"/>
	<circle cx="399.665" cy="77.7441" r="4" fill="#0" id="circle132"/>
	<circle cx="402.502" cy="15.3452" r="4" fill="#0" id="circle133"/>
	<circle cx="402.502" cy="86.253" r="4" fill="#0" id="circle134"/>
	<circle cx="406.756" cy="76.3259" r="4" fill="#0" id="circle135"/>
	<circle cx="409.593" cy="13.218" r="4" fill="#0" id="circle136"/>
	<circle cx="409.593" cy="86.253" r="4" fill="#0" id="circle137"/>
	<circle cx="413.847" cy="74.9078" r="4" fill="#0" id="circle138"/>
	<circle cx="415.974" cy="8.96355" r="4" fill="#0" id="circle139"/>
	<circle cx="415.974" cy="82.7076" r="4" fill="#0" id="circle140"/>
	<circle cx="420.938" cy="74.9078" r="4" fill="#0" id="circle141"/>
	<circle cx="423.065" cy="11.7999" r="4" fill="#0" id="circle142"/>
	<circle cx="423.065" cy="82.7076" r="4" fill="#0" id="circle143"/>
	<circle cx="428.029" cy="75.6169" r="4" fill="#0" id="circle144"/>
	<circle cx="428.738" cy="16.0543" r="4" fill="#0" id="circle145"/>
	<circle cx="429.447" cy="6.12723" r="4" fill="#0" id="circle146"/>
	<circle cx="430.156" cy="85.544" r="4" fill="#0" id="circle147"/>
	<circle cx="433.701" cy="21.7269" r="4" fill="#0" id="circle148"/>
	<circle cx="434.41" cy="11.7999" r="4" fill="#0" id="circle149"/>
	<circle cx="435.119" cy="74.1987" r="4" fill="#0" id="circle150"/>
	<circle cx="435.828" cy="81.2895" r="4" fill="#0" id="circle151"/>
	<circle cx="438.665" cy="6.12723" r="4" fill="#0" id="circle152"/>
	<circle cx="439.374" cy="17.4725" r="4" fill="#0" id="circle153"/>
	<circle cx="441.501" cy="85.544" r="4" fill="#0" id="circle154"/>
	<circle cx="442.21" cy="74.9078" r="4" fill="#0" id="circle155"/>
	<circle cx="445.756" cy="5.41816" r="4" fill="#0" id="circle156"/>
	<circle cx="447.883" cy="79.1623" r="4" fill="#0" id="circle157"/>
	<circle cx="452.137" cy="84.8349" r="4" fill="#0" id="circle158"/>
	<circle cx="452.846" cy="5.41816" r="4" fill="#0" id="circle159"/>
	<circle cx="453.555" cy="74.9078" r="4" fill="#0" id="circle160"/>
	<circle cx="459.228" cy="84.8349" r="4" fill="#0" id="circle161"/>
	<circle cx="459.937" cy="4.70908" r="4" fill="#0" id="circle162"/>
	<circle cx="466.319" cy="84.8349" r="4" fill="#0" id="circle163"/>
	<circle cx="467.028" cy="4.70908" r="4" fill="#0" id="circle164"/>
	<circle cx="473.41" cy="84.1258" r="4" fill="#0" id="circle165"/>
	<circle cx="474.119" cy="4.70908" r="4" fill="#0" id="circle166"/>
	<circle cx="480.5" cy="84.1258" r="4" fill="#0" id="circle167"/>
	<circle cx="481.209" cy="5.41816" r="4" fill="#0" id="circle168"/>
	<circle cx="487.591" cy="83.4167" r="4" fill="#0" id="circle169"/>
	<circle cx="488.3" cy="5.41816" r="4" fill="#0" id="circle170"/>
	<circle cx="494.682" cy="83.4167" r="4" fill="#0" id="circle171"/>
	<circle cx="495.391" cy="4.70908" r="4" fill="#0" id="circle172"/>
	<circle cx="501.773" cy="83.4167" r="4" fill="#0" id="circle173"/>
	<circle cx="502.482" cy="4.70908" r="4" fill="#0" id="circle174"/>
	<circle cx="508.863" cy="82.7076" r="4" fill="#0" id="circle175"/>
	<circle cx="509.573" cy="4.70908" r="4" fill="#0" id="circle176"/>
	<circle cx="515.954" cy="82.7076" r="4" fill="#0" id="circle177"/>
	<circle cx="516.663" cy="4" r="4" fill="#0" id="circle178"/>
	<circle cx="523.045" cy="81.9986" r="4" fill="#0" id="circle179"/>
	<circle cx="523.754" cy="4.70908" r="4" fill="#0" id="circle180"/>
	<circle cx="530.136" cy="81.9986" r="4" fill="#0" id="circle181"/>
	<circle cx="530.845" cy="4" r="4" fill="#0" id="circle182"/>
	<circle cx="537.227" cy="81.9986" r="4" fill="#0" id="circle183"/>
	<circle cx="537.936" cy="4.70908" r="4" fill="#0" id="circle184"/>
	<circle cx="544.317" cy="81.2895" r="4" fill="#0" id="circle185"/>
	<circle cx="545.026" cy="5.41816" r="4" fill="#0" id="circle186"/>
	<circle cx="551.408" cy="81.2895" r="4" fill="#0" id="circle187"/>
	<circle cx="552.117" cy="6.83631" r="4" fill="#0" id="circle188"/>
	<circle cx="558.499" cy="80.5804" r="4" fill="#0" id="circle189"/>
	<circle cx="559.208" cy="6.83631" r="4" fill="#0" id="circle190"/>
	<circle cx="565.59" cy="80.5804" r="4" fill="#0" id="circle191"/>
	<circle cx="566.299" cy="8.96355" r="4" fill="#0" id="circle192"/>
	<circle cx="572.68" cy="80.5804" r="4" fill="#0" id="circle193"/>
	<circle cx="573.39" cy="9.67262" r="4" fill="#0" id="circle194"/>
	<circle cx="579.771" cy="79.8713" r="4" fill="#0" id="circle195"/>
	<circle cx="580.48" cy="10.3817" r="4" fill="#0" id="circle196"/>
	<circle cx="586.862" cy="79.8713" r="4" fill="#0" id="circle197"/>
	<circle cx="587.571" cy="11.0908" r="4" fill="#0" id="circle198"/>
	<circle cx="593.953" cy="79.8713" r="4" fill="#0" id="circle199"/>
	<circle cx="594.662" cy="11.0908" r="4" fill="#0" id="circle200"/>
	<circle cx="601.044" cy="79.1623" r="4" fill="#0" id="circle201"/>
	<circle cx="601.753" cy="11.7999" r="4" fill="#0" id="circle202"/>
	<circle cx="608.134" cy="79.1623" r="4" fill="#0" id="circle203"/>
	<circle cx="608.843" cy="11.7999" r="4" fill="#0" id="circle204"/>
	<circle cx="615.225" cy="78.4532" r="4" fill="#0" id="circle205"/>
	<circle cx="615.934" cy="11.7999" r="4" fill="#0" id="circle206"/>
	<circle cx="622.316" cy="78.4532" r="4" fill="#0" id="circle207"/>
	<circle cx="623.025" cy="13.218" r="4" fill="#0" id="circle208"/>
	<circle cx="629.407" cy="77.7441" r="4" fill="#0" id="circle209"/>
	<circle cx="630.116" cy="13.218" r="4" fill="#0" id="circle210"/>
	<circle cx="636.497" cy="77.7441" r="4" fill="#0" id="circle211"/>
	<circle cx="637.207" cy="13.9271" r="4" fill="#0" id="circle212"/>
	<circle cx="643.588" cy="77.7441" r="4" fill="#0" id="circle213"/>
	<circle cx="644.297" cy="13.9271" r="4" fill="#0" id="circle214"/>
	<circle cx="650.679" cy="77.035" r="4" fill="#0" id="circle215"/>
	<circle cx="651.388" cy="13.9271" r="4" fill="#0" id="circle216"/>
	<circle cx="657.77" cy="77.035" r="4" fill="#0" id="circle217"/>
	<circle cx="658.479" cy="14.6362" r="4" fill="#0" id="circle218"/>
	<circle cx="664.861" cy="76.3259" r="4" fill="#0" id="circle219"/>
	<circle cx="665.57" cy="14.6362" r="4" fill="#0" id="circle220"/>
	<circle cx="671.951" cy="76.3259" r="4" fill="#0" id="circle221"/>
	<circle cx="672.66" cy="14.6362" r="4" fill="#0" id="circle222"/>
	<circle cx="679.042" cy="76.3259" r="4" fill="#0" id="circle223"/>
	<circle cx="679.751" cy="14.6362" r="4" fill="#0" id="circle224"/>
	<circle cx="686.133" cy="75.6169" r="4" fill="#0" id="circle225"/>
	<circle cx="686.842" cy="15.3452" r="4" fill="#0" id="circle226"/>
	<circle cx="693.224" cy="75.6169" r="4" fill="#0" id="circle227"/>
	<circle cx="693.933" cy="15.3452" r="4" fill="#0" id="circle228"/>
	<circle cx="700.315" cy="75.6169" r="4" fill="#0" id="circle229"/>
	<circle cx="701.024" cy="15.3452" r="4" fill="#0" id="circle230"/>
	<circle cx="707.405" cy="74.9078" r="4" fill="#0" id="circle231"/>
	<circle cx="708.114" cy="16.0543" r="4" fill="#0" id="circle232"/>
	<circle cx="714.496" cy="74.9078" r="4" fill="#0" id="circle233"/>
	<circle cx="715.205" cy="16.0543" r="4" fill="#0" id="circle234"/>
	<circle cx="721.587" cy="74.1987" r="4" fill="#0" id="circle235"/>
	<circle cx="722.296" cy="16.7634" r="4" fill="#0" id="circle236"/>
	<circle cx="728.678" cy="74.1987" r="4" fill="#0" id="circle237"/>
	<circle cx="729.387" cy="16.0543" r="4" fill="#0" id="circle238"/>
	<circle cx="735.768" cy="74.1987" r="4" fill="#0" id="circle239"/>
	<circle cx="736.477" cy="16.7634" r="4" fill="#0" id="circle240"/>
	<circle cx="742.859" cy="73.4896" r="4" fill="#0" id="circle241"/>
	<circle cx="743.568" cy="17.4725" r="4" fill="#0" id="circle242"/>
	<circle cx="749.95" cy="73.4896" r="4" fill="#0" id="circle243"/>
	<circle cx="750.659" cy="17.4725" r="4" fill="#0" id="circle244"/>
	<circle cx="757.041" cy="72.7806" r="4" fill="#0" id="circle245"/>
	<circle cx="757.75" cy="17.4725" r="4" fill="#0" id="circle246"/>
	<circle cx="764.132" cy="72.7806" r="4" fill="#0" id="circle247"/>
	<circle cx="764.841" cy="17.4725" r="4" fill="#0" id="circle248"/>
	<circle cx="771.222" cy="72.7806" r="4" fill="#0" id="circle249"/>
	<circle cx="771.931" cy="17.4725" r="4" fill="#0" id="circle250"/>
	<circle cx="778.313" cy="72.0715" r="4" fill="#0" id="circle251"/>
	<circle cx="779.022" cy="18.1816" r="4" fill="#0" id="circle252"/>
	<circle cx="785.404" cy="72.0715" r="4" fill="#0" id="circle253"/>
	<circle cx="786.113" cy="18.8906" r="4" fill="#0" id="circle254"/>
	<circle cx="792.495" cy="72.0715" r="4" fill="#0" id="circle255"/>
	<circle cx="793.204" cy="18.8906" r="4" fill="#0" id="circle256"/>
	<circle cx="799.585" cy="71.3624" r="4" fill="#0" id="circle257"/>
	<circle cx="800.294" cy="18.8906" r="4" fill="#0" id="circle258"/>
	<circle cx="806.676" cy="71.3624" r="4" fill="#0" id="circle259"/>
	<circle cx="807.385" cy="18.8906" r="4" fill="#0" id="circle260"/>
	<circle cx="813.767" cy="70.6533" r="4" fill="#0" id="circle261"/>
	<circle cx="814.476" cy="19.5997" r="4" fill="#0" id="circle262"/>
	<circle cx="820.858" cy="70.6533" r="4" fill="#0" id="circle263"/>
	<circle cx="821.567" cy="19.5997" r="4" fill="#0" id="circle264"/>
	<circle cx="827.949" cy="70.6533" r="4" fill="#0" id="circle265"/>
	<circle cx="828.658" cy="19.5997" r="4" fill="#0" id="circle266"/>
	<circle cx="835.039" cy="69.9442" r="4" fill="#0" id="circle267"/>
	<circle cx="835.748" cy="20.3088" r="4" fill="#0" id="circle268"/>
	<circle cx="842.13" cy="69.9442" r="4" fill="#0" id="circle269"/>
	<circle cx="842.839" cy="21.0179" r="4" fill="#0" id="circle270"/>
	<circle cx="849.221" cy="69.2352" r="4" fill="#0" id="circle271"/>
	<circle cx="849.93" cy="21.0179" r="4" fill="#0" id="circle272"/>
	<circle cx="856.312" cy="69.2352" r="4" fill="#0" id="circle273"/>
	<circle cx="857.021" cy="21.7269" r="4" fill="#0" id="circle274"/>
	<circle cx="863.402" cy="69.2352" r="4" fill="#0" id="circle275"/>
	<circle cx="864.112" cy="21.7269" r="4" fill="#0" id="circle276"/>
	<circle cx="870.493" cy="68.5261" r="4" fill="#0" id="circle277"/>
	<circle cx="871.202" cy="22.436" r="4" fill="#0" id="circle278"/>
	<circle cx="877.584" cy="68.5261" r="4" fill="#0" id="circle279"/>
	<circle cx="878.293" cy="23.1451" r="4" fill="#0" id="circle280"/>
	<circle cx="884.675" cy="68.5261" r="4" fill="#0" id="circle281"/>
	<circle cx="885.384" cy="23.1451" r="4" fill="#0" id="circle282"/>
	<circle cx="891.766" cy="67.817" r="4" fill="#0" id="circle283"/>
	<circle cx="892.475" cy="23.8542" r="4" fill="#0" id="circle284"/>
	<circle cx="898.856" cy="67.817" r="4" fill="#0" id="circle285"/>
	<circle cx="899.565" cy="24.5633" r="4" fill="#0" id="circle286"/>
	<circle cx="905.947" cy="67.1079" r="4" fill="#0" id="circle287"/>
	<circle cx="906.656" cy="25.2723" r="4" fill="#0" id="circle288"/>
	<circle cx="913.038" cy="67.1079" r="4" fill="#0" id="circle289"/>
	<circle cx="913.747" cy="26.6905" r="4" fill="#0" id="circle290"/>
	<circle cx="920.129" cy="66.3989" r="4" fill="#0" id="circle291"/>
	<circle cx="920.838" cy="27.3996" r="4" fill="#0" id="circle292"/>
	<circle cx="927.219" cy="66.3989" r="4" fill="#0" id="circle293"/>
	<circle cx="927.929" cy="28.8177" r="4" fill="#0" id="circle294"/>
	<circle cx="934.31" cy="65.6898" r="4" fill="#0" id="circle295"/>
	<circle cx="935.019" cy="30.2359" r="4" fill="#0" id="circle296"/>
	<circle cx="941.401" cy="66.3989" r="4" fill="#0" id="circle297"/>
	<circle cx="942.11" cy="33.0722" r="4" fill="#0" id="circle298"/>
	<circle cx="948.492" cy="65.6898" r="4" fill="#0" id="circle299"/>
	<circle cx="949.201" cy="34.4904" r="4" fill="#0" id="circle300"/>
	<circle cx="955.583" cy="65.6898" r="4" fill="#0" id="circle301"/>
	<circle cx="956.292" cy="37.3267" r="4" fill="#0" id="circle302"/>
	<circle cx="962.673" cy="64.9807" r="4" fill="#0" id="circle303"/>
	<circle cx="963.382" cy="40.163" r="4" fill="#0" id="circle304"/>
	<circle cx="969.764" cy="43.7084" r="4" fill="#0" id="circle305"/>
	<circle cx="969.764" cy="64.9807" r="4" fill="#0" id="circle306"/>
	<circle cx="976.855" cy="46.5447" r="4" fill="#0" id="circle307"/>
	<circle cx="976.855" cy="64.9807" r="4" fill="#0" id="circle308"/>
	<circle cx="982.528" cy="50.7991" r="4" fill="#0" id="circle309"/>
	<circle cx="983.946" cy="64.9807" r="4" fill="#0" id="circle310"/>
	<circle cx="988.909" cy="54.3445" r="4" fill="#0" id="circle311"/>
	<circle cx="991.036" cy="64.9807" r="4" fill="#0" id="circle312"/>
	<circle cx="996" cy="56.4718" r="4" fill="#0" id="circle313"/>
	</g>
</svg>