<?xml version="1.0" encoding="UTF-8" standalone="no"?>
<!-- Created with CurveBenchmark -->
<svg
	xmlns:dc="http://purl.org/dc/elements/1.1/"
	xmlns:cc="http://creativecommons.org/ns#"
	xmlns:rdf="http://www.w3.org/1999/02/22-rdf-syntax-ns#"
	xmlns:svg="http://www.w3.org/2000/svg"
	xmlns="http://www.w3.org/2000/svg"
	xmlns:sodipodi="http://sodipodi.sourceforge.net/DTD/sodipodi-0.dtd"
	xmlns:inkscape="http://www.inkscape.org/namespaces/inkscape"
	width="1000"
	height="1000"
	id="svg2"
	version="1.1"
	sodipodi:docname="manifold/ccrust-textbox40.png.txt">
<defs
	id="defs4" />
<metadata
	id="metadata7">
	<rdf:RDF>
		<cc:Work
			rdf:about="">
			<dc:format>image/svg+xml</dc:format>
			<dc:type
				rdf:resource="http://purl.org/dc/dcmitype/StillImage" />
			<dc:title></dc:title>
		</cc:Work>
	</rdf:RDF>
</metadata>
<g
	inkscape:label="Layer 1"
	inkscape:groupmode="layer"
	id="layer1">
	<path style="fill:none;stroke:red;stroke-width:1px;stroke-linecap:butt;stroke-linejoin:miter;stroke-opacity:1" d="M 4,124.874 24.8403,118.622 z" id="boundary" inkscape:connector-curvature="0" />
	<path style="fill:none;stroke:red;stroke-width:1px;stroke-linecap:butt;stroke-linejoin:miter;stroke-opacity:1" d="M 4,145.714 4,124.874 z" id="boundary" inkscape:connector-curvature="0" />
	<path style="fill:none;stroke:red;stroke-width:1px;stroke-linecap:butt;stroke-linejoin:miter;stroke-opacity:1" d="M 37.3445,101.95 24.8403,118.622 z" id="boundary" inkscape:connector-curvature="0" />
	<path style="fill:none;stroke:red;stroke-width:1px;stroke-linecap:butt;stroke-linejoin:miter;stroke-opacity:1" d="M 4,166.555 4,145.714 z" id="boundary" inkscape:connector-curvature="0" />
	<path style="fill:none;stroke:red;stroke-width:1px;stroke-linecap:butt;stroke-linejoin:miter;stroke-opacity:1" d="M 4,187.395 4,166.555 z" id="boundary" inkscape:connector-curvature="0" />
	<path style="fill:none;stroke:red;stroke-width:1px;stroke-linecap:butt;stroke-linejoin:miter;stroke-opacity:1" d="M 101.95,45.6807 83.1933,56.1008 z" id="boundary" inkscape:connector-curvature="0" />
	<path style="fill:none;stroke:red;stroke-width:1px;stroke-linecap:butt;stroke-linejoin:miter;stroke-opacity:1" d="M 83.1933,56.1008 62.3529,56.1008 z" id="boundary" inkscape:connector-curvature="0" />
	<path style="fill:none;stroke:red;stroke-width:1px;stroke-linecap:butt;stroke-linejoin:miter;stroke-opacity:1" d="M 37.3445,101.95 45.6807,72.7731 z" id="boundary" inkscape:connector-curvature="0" />
	<path style="fill:none;stroke:red;stroke-width:1px;stroke-linecap:butt;stroke-linejoin:miter;stroke-opacity:1" d="M 45.6807,72.7731 62.3529,56.1008 z" id="boundary" inkscape:connector-curvature="0" />
	<path style="fill:none;stroke:red;stroke-width:1px;stroke-linecap:butt;stroke-linejoin:miter;stroke-opacity:1" d="M 4,208.235 4,187.395 z" id="boundary" inkscape:connector-curvature="0" />
	<path style="fill:none;stroke:red;stroke-width:1px;stroke-linecap:butt;stroke-linejoin:miter;stroke-opacity:1" d="M 4,249.916 4,229.076 z" id="boundary" inkscape:connector-curvature="0" />
	<path style="fill:none;stroke:red;stroke-width:1px;stroke-linecap:butt;stroke-linejoin:miter;stroke-opacity:1" d="M 4,229.076 4,208.235 z" id="boundary" inkscape:connector-curvature="0" />
	<path style="fill:none;stroke:red;stroke-width:1px;stroke-linecap:butt;stroke-linejoin:miter;stroke-opacity:1" d="M 4,291.597 4,270.756 z" id="boundary" inkscape:connector-curvature="0" />
	<path style="fill:none;stroke:red;stroke-width:1px;stroke-linecap:butt;stroke-linejoin:miter;stroke-opacity:1" d="M 24.8403,297.849 4,291.597 z" id="boundary" inkscape:connector-curvature="0" />
	<path style="fill:none;stroke:red;stroke-width:1px;stroke-linecap:butt;stroke-linejoin:miter;stroke-opacity:1" d="M 35.2605,316.605 35.2605,337.445 z" id="boundary" inkscape:connector-curvature="0" />
	<path style="fill:none;stroke:red;stroke-width:1px;stroke-linecap:butt;stroke-linejoin:miter;stroke-opacity:1" d="M 24.8403,297.849 35.2605,316.605 z" id="boundary" inkscape:connector-curvature="0" />
	<path style="fill:none;stroke:red;stroke-width:1px;stroke-linecap:butt;stroke-linejoin:miter;stroke-opacity:1" d="M 4,270.756 4,249.916 z" id="boundary" inkscape:connector-curvature="0" />
	<path style="fill:none;stroke:red;stroke-width:1px;stroke-linecap:butt;stroke-linejoin:miter;stroke-opacity:1" d="M 35.2605,337.445 35.2605,358.286 z" id="boundary" inkscape:connector-curvature="0" />
	<path style="fill:none;stroke:red;stroke-width:1px;stroke-linecap:butt;stroke-linejoin:miter;stroke-opacity:1" d="M 101.95,45.6807 122.79,45.6807 z" id="boundary" inkscape:connector-curvature="0" />
	<path style="fill:none;stroke:red;stroke-width:1px;stroke-linecap:butt;stroke-linejoin:miter;stroke-opacity:1" d="M 283.261,14.4202 304.101,14.4202 z" id="boundary" inkscape:connector-curvature="0" />
	<path style="fill:none;stroke:red;stroke-width:1px;stroke-linecap:butt;stroke-linejoin:miter;stroke-opacity:1" d="M 264.504,24.8403 283.261,14.4202 z" id="boundary" inkscape:connector-curvature="0" />
	<path style="fill:none;stroke:red;stroke-width:1px;stroke-linecap:butt;stroke-linejoin:miter;stroke-opacity:1" d="M 324.941,14.4202 345.782,14.4202 z" id="boundary" inkscape:connector-curvature="0" />
	<path style="fill:none;stroke:red;stroke-width:1px;stroke-linecap:butt;stroke-linejoin:miter;stroke-opacity:1" d="M 324.941,14.4202 304.101,14.4202 z" id="boundary" inkscape:connector-curvature="0" />
	<path style="fill:none;stroke:red;stroke-width:1px;stroke-linecap:butt;stroke-linejoin:miter;stroke-opacity:1" d="M 345.782,14.4202 366.622,14.4202 z" id="boundary" inkscape:connector-curvature="0" />
	<path style="fill:none;stroke:red;stroke-width:1px;stroke-linecap:butt;stroke-linejoin:miter;stroke-opacity:1" d="M 387.462,14.4202 366.622,14.4202 z" id="boundary" inkscape:connector-curvature="0" />
	<path style="fill:none;stroke:red;stroke-width:1px;stroke-linecap:butt;stroke-linejoin:miter;stroke-opacity:1" d="M 429.143,14.4202 408.303,14.4202 z" id="boundary" inkscape:connector-curvature="0" />
	<path style="fill:none;stroke:red;stroke-width:1px;stroke-linecap:butt;stroke-linejoin:miter;stroke-opacity:1" d="M 449.983,14.4202 429.143,14.4202 z" id="boundary" inkscape:connector-curvature="0" />
	<path style="fill:none;stroke:red;stroke-width:1px;stroke-linecap:butt;stroke-linejoin:miter;stroke-opacity:1" d="M 387.462,14.4202 408.303,14.4202 z" id="boundary" inkscape:connector-curvature="0" />
	<path style="fill:none;stroke:red;stroke-width:1px;stroke-linecap:butt;stroke-linejoin:miter;stroke-opacity:1" d="M 160.303,24.8403 181.143,24.8403 z" id="boundary" inkscape:connector-curvature="0" />
	<path style="fill:none;stroke:red;stroke-width:1px;stroke-linecap:butt;stroke-linejoin:miter;stroke-opacity:1" d="M 122.79,45.6807 139.462,31.0924 z" id="boundary" inkscape:connector-curvature="0" />
	<path style="fill:none;stroke:red;stroke-width:1px;stroke-linecap:butt;stroke-linejoin:miter;stroke-opacity:1" d="M 139.462,31.0924 160.303,24.8403 z" id="boundary" inkscape:connector-curvature="0" />
	<path style="fill:none;stroke:red;stroke-width:1px;stroke-linecap:butt;stroke-linejoin:miter;stroke-opacity:1" d="M 181.143,24.8403 201.983,24.8403 z" id="boundary" inkscape:connector-curvature="0" />
	<path style="fill:none;stroke:red;stroke-width:1px;stroke-linecap:butt;stroke-linejoin:miter;stroke-opacity:1" d="M 222.824,24.8403 201.983,24.8403 z" id="boundary" inkscape:connector-curvature="0" />
	<path style="fill:none;stroke:red;stroke-width:1px;stroke-linecap:butt;stroke-linejoin:miter;stroke-opacity:1" d="M 222.824,24.8403 243.664,24.8403 z" id="boundary" inkscape:connector-curvature="0" />
	<path style="fill:none;stroke:red;stroke-width:1px;stroke-linecap:butt;stroke-linejoin:miter;stroke-opacity:1" d="M 264.504,24.8403 243.664,24.8403 z" id="boundary" inkscape:connector-curvature="0" />
	<path style="fill:none;stroke:red;stroke-width:1px;stroke-linecap:butt;stroke-linejoin:miter;stroke-opacity:1" d="M 470.824,14.4202 449.983,14.4202 z" id="boundary" inkscape:connector-curvature="0" />
	<path style="fill:none;stroke:red;stroke-width:1px;stroke-linecap:butt;stroke-linejoin:miter;stroke-opacity:1" d="M 35.2605,358.286 35.2605,379.126 z" id="boundary" inkscape:connector-curvature="0" />
	<path style="fill:none;stroke:red;stroke-width:1px;stroke-linecap:butt;stroke-linejoin:miter;stroke-opacity:1" d="M 35.2605,399.966 35.2605,379.126 z" id="boundary" inkscape:connector-curvature="0" />
	<path style="fill:none;stroke:red;stroke-width:1px;stroke-linecap:butt;stroke-linejoin:miter;stroke-opacity:1" d="M 35.2605,399.966 35.2605,420.807 z" id="boundary" inkscape:connector-curvature="0" />
	<path style="fill:none;stroke:red;stroke-width:1px;stroke-linecap:butt;stroke-linejoin:miter;stroke-opacity:1" d="M 35.2605,441.647 35.2605,420.807 z" id="boundary" inkscape:connector-curvature="0" />
	<path style="fill:none;stroke:red;stroke-width:1px;stroke-linecap:butt;stroke-linejoin:miter;stroke-opacity:1" d="M 35.2605,441.647 35.2605,462.487 z" id="boundary" inkscape:connector-curvature="0" />
	<path style="fill:none;stroke:red;stroke-width:1px;stroke-linecap:butt;stroke-linejoin:miter;stroke-opacity:1" d="M 35.2605,483.328 35.2605,462.487 z" id="boundary" inkscape:connector-curvature="0" />
	<path style="fill:none;stroke:red;stroke-width:1px;stroke-linecap:butt;stroke-linejoin:miter;stroke-opacity:1" d="M 39.4286,525.008 35.2605,504.168 z" id="boundary" inkscape:connector-curvature="0" />
	<path style="fill:none;stroke:red;stroke-width:1px;stroke-linecap:butt;stroke-linejoin:miter;stroke-opacity:1" d="M 35.2605,504.168 35.2605,483.328 z" id="boundary" inkscape:connector-curvature="0" />
	<path style="fill:none;stroke:red;stroke-width:1px;stroke-linecap:butt;stroke-linejoin:miter;stroke-opacity:1" d="M 45.6807,545.849 49.8487,566.689 z" id="boundary" inkscape:connector-curvature="0" />
	<path style="fill:none;stroke:red;stroke-width:1px;stroke-linecap:butt;stroke-linejoin:miter;stroke-opacity:1" d="M 39.4286,525.008 45.6807,545.849 z" id="boundary" inkscape:connector-curvature="0" />
	<path style="fill:none;stroke:red;stroke-width:1px;stroke-linecap:butt;stroke-linejoin:miter;stroke-opacity:1" d="M 66.521,579.193 49.8487,566.689 z" id="boundary" inkscape:connector-curvature="0" />
	<path style="fill:none;stroke:red;stroke-width:1px;stroke-linecap:butt;stroke-linejoin:miter;stroke-opacity:1" d="M 66.521,579.193 85.2773,589.613 z" id="boundary" inkscape:connector-curvature="0" />
	<path style="fill:none;stroke:red;stroke-width:1px;stroke-linecap:butt;stroke-linejoin:miter;stroke-opacity:1" d="M 85.2773,589.613 99.8655,606.286 z" id="boundary" inkscape:connector-curvature="0" />
	<path style="fill:none;stroke:red;stroke-width:1px;stroke-linecap:butt;stroke-linejoin:miter;stroke-opacity:1" d="M 99.8655,606.286 120.706,610.454 z" id="boundary" inkscape:connector-curvature="0" />
	<path style="fill:none;stroke:red;stroke-width:1px;stroke-linecap:butt;stroke-linejoin:miter;stroke-opacity:1" d="M 141.546,610.454 162.387,610.454 z" id="boundary" inkscape:connector-curvature="0" />
	<path style="fill:none;stroke:red;stroke-width:1px;stroke-linecap:butt;stroke-linejoin:miter;stroke-opacity:1" d="M 141.546,610.454 120.706,610.454 z" id="boundary" inkscape:connector-curvature="0" />
	<path style="fill:none;stroke:red;stroke-width:1px;stroke-linecap:butt;stroke-linejoin:miter;stroke-opacity:1" d="M 183.227,614.622 191.563,635.462 z" id="boundary" inkscape:connector-curvature="0" />
	<path style="fill:none;stroke:red;stroke-width:1px;stroke-linecap:butt;stroke-linejoin:miter;stroke-opacity:1" d="M 162.387,610.454 183.227,614.622 z" id="boundary" inkscape:connector-curvature="0" />
	<path style="fill:none;stroke:red;stroke-width:1px;stroke-linecap:butt;stroke-linejoin:miter;stroke-opacity:1" d="M 191.563,635.462 201.983,654.218 z" id="boundary" inkscape:connector-curvature="0" />
	<path style="fill:none;stroke:red;stroke-width:1px;stroke-linecap:butt;stroke-linejoin:miter;stroke-opacity:1" d="M 201.983,654.218 201.983,675.059 z" id="boundary" inkscape:connector-curvature="0" />
	<path style="fill:none;stroke:red;stroke-width:1px;stroke-linecap:butt;stroke-linejoin:miter;stroke-opacity:1" d="M 360.37,672.975 339.529,683.395 z" id="boundary" inkscape:connector-curvature="0" />
	<path style="fill:none;stroke:red;stroke-width:1px;stroke-linecap:butt;stroke-linejoin:miter;stroke-opacity:1" d="M 201.983,675.059 201.983,695.899 z" id="boundary" inkscape:connector-curvature="0" />
	<path style="fill:none;stroke:red;stroke-width:1px;stroke-linecap:butt;stroke-linejoin:miter;stroke-opacity:1" d="M 431.227,610.454 452.067,610.454 z" id="boundary" inkscape:connector-curvature="0" />
	<path style="fill:none;stroke:red;stroke-width:1px;stroke-linecap:butt;stroke-linejoin:miter;stroke-opacity:1" d="M 412.471,620.874 431.227,610.454 z" id="boundary" inkscape:connector-curvature="0" />
	<path style="fill:none;stroke:red;stroke-width:1px;stroke-linecap:butt;stroke-linejoin:miter;stroke-opacity:1" d="M 381.21,652.134 391.63,631.294 z" id="boundary" inkscape:connector-curvature="0" />
	<path style="fill:none;stroke:red;stroke-width:1px;stroke-linecap:butt;stroke-linejoin:miter;stroke-opacity:1" d="M 391.63,631.294 412.471,620.874 z" id="boundary" inkscape:connector-curvature="0" />
	<path style="fill:none;stroke:red;stroke-width:1px;stroke-linecap:butt;stroke-linejoin:miter;stroke-opacity:1" d="M 381.21,652.134 360.37,672.975 z" id="boundary" inkscape:connector-curvature="0" />
	<path style="fill:none;stroke:red;stroke-width:1px;stroke-linecap:butt;stroke-linejoin:miter;stroke-opacity:1" d="M 201.983,695.899 222.824,704.235 z" id="boundary" inkscape:connector-curvature="0" />
	<path style="fill:none;stroke:red;stroke-width:1px;stroke-linecap:butt;stroke-linejoin:miter;stroke-opacity:1" d="M 222.824,704.235 235.328,720.908 z" id="boundary" inkscape:connector-curvature="0" />
	<path style="fill:none;stroke:red;stroke-width:1px;stroke-linecap:butt;stroke-linejoin:miter;stroke-opacity:1" d="M 279.092,745.916 260.336,756.336 z" id="boundary" inkscape:connector-curvature="0" />
	<path style="fill:none;stroke:red;stroke-width:1px;stroke-linecap:butt;stroke-linejoin:miter;stroke-opacity:1" d="M 260.336,756.336 243.664,741.748 z" id="boundary" inkscape:connector-curvature="0" />
	<path style="fill:none;stroke:red;stroke-width:1px;stroke-linecap:butt;stroke-linejoin:miter;stroke-opacity:1" d="M 243.664,741.748 235.328,720.908 z" id="boundary" inkscape:connector-curvature="0" />
	<path style="fill:none;stroke:red;stroke-width:1px;stroke-linecap:butt;stroke-linejoin:miter;stroke-opacity:1" d="M 327.025,708.403 339.529,683.395 z" id="boundary" inkscape:connector-curvature="0" />
	<path style="fill:none;stroke:red;stroke-width:1px;stroke-linecap:butt;stroke-linejoin:miter;stroke-opacity:1" d="M 327.025,708.403 306.185,714.655 z" id="boundary" inkscape:connector-curvature="0" />
	<path style="fill:none;stroke:red;stroke-width:1px;stroke-linecap:butt;stroke-linejoin:miter;stroke-opacity:1" d="M 279.092,745.916 287.429,725.076 z" id="boundary" inkscape:connector-curvature="0" />
	<path style="fill:none;stroke:red;stroke-width:1px;stroke-linecap:butt;stroke-linejoin:miter;stroke-opacity:1" d="M 287.429,725.076 306.185,714.655 z" id="boundary" inkscape:connector-curvature="0" />
	<path style="fill:none;stroke:red;stroke-width:1px;stroke-linecap:butt;stroke-linejoin:miter;stroke-opacity:1" d="M 452.067,610.454 472.908,610.454 z" id="boundary" inkscape:connector-curvature="0" />
	<path style="fill:none;stroke:red;stroke-width:1px;stroke-linecap:butt;stroke-linejoin:miter;stroke-opacity:1" d="M 512.504,14.4202 491.664,14.4202 z" id="boundary" inkscape:connector-curvature="0" />
	<path style="fill:none;stroke:red;stroke-width:1px;stroke-linecap:butt;stroke-linejoin:miter;stroke-opacity:1" d="M 718.824,4 739.664,4 z" id="boundary" inkscape:connector-curvature="0" />
	<path style="fill:none;stroke:red;stroke-width:1px;stroke-linecap:butt;stroke-linejoin:miter;stroke-opacity:1" d="M 697.983,4 718.824,4 z" id="boundary" inkscape:connector-curvature="0" />
	<path style="fill:none;stroke:red;stroke-width:1px;stroke-linecap:butt;stroke-linejoin:miter;stroke-opacity:1" d="M 679.227,14.4202 697.983,4 z" id="boundary" inkscape:connector-curvature="0" />
	<path style="fill:none;stroke:red;stroke-width:1px;stroke-linecap:butt;stroke-linejoin:miter;stroke-opacity:1" d="M 491.664,14.4202 470.824,14.4202 z" id="boundary" inkscape:connector-curvature="0" />
	<path style="fill:none;stroke:red;stroke-width:1px;stroke-linecap:butt;stroke-linejoin:miter;stroke-opacity:1" d="M 739.664,4 760.504,4 z" id="boundary" inkscape:connector-curvature="0" />
	<path style="fill:none;stroke:red;stroke-width:1px;stroke-linecap:butt;stroke-linejoin:miter;stroke-opacity:1" d="M 760.504,4 781.345,4 z" id="boundary" inkscape:connector-curvature="0" />
	<path style="fill:none;stroke:red;stroke-width:1px;stroke-linecap:butt;stroke-linejoin:miter;stroke-opacity:1" d="M 781.345,4 802.185,4 z" id="boundary" inkscape:connector-curvature="0" />
	<path style="fill:none;stroke:red;stroke-width:1px;stroke-linecap:butt;stroke-linejoin:miter;stroke-opacity:1" d="M 802.185,4 823.025,4 z" id="boundary" inkscape:connector-curvature="0" />
	<path style="fill:none;stroke:red;stroke-width:1px;stroke-linecap:butt;stroke-linejoin:miter;stroke-opacity:1" d="M 512.504,14.4202 533.345,14.4202 z" id="boundary" inkscape:connector-curvature="0" />
	<path style="fill:none;stroke:red;stroke-width:1px;stroke-linecap:butt;stroke-linejoin:miter;stroke-opacity:1" d="M 554.185,14.4202 575.025,14.4202 z" id="boundary" inkscape:connector-curvature="0" />
	<path style="fill:none;stroke:red;stroke-width:1px;stroke-linecap:butt;stroke-linejoin:miter;stroke-opacity:1" d="M 554.185,14.4202 533.345,14.4202 z" id="boundary" inkscape:connector-curvature="0" />
	<path style="fill:none;stroke:red;stroke-width:1px;stroke-linecap:butt;stroke-linejoin:miter;stroke-opacity:1" d="M 595.866,14.4202 616.706,14.4202 z" id="boundary" inkscape:connector-curvature="0" />
	<path style="fill:none;stroke:red;stroke-width:1px;stroke-linecap:butt;stroke-linejoin:miter;stroke-opacity:1" d="M 637.546,14.4202 658.387,14.4202 z" id="boundary" inkscape:connector-curvature="0" />
	<path style="fill:none;stroke:red;stroke-width:1px;stroke-linecap:butt;stroke-linejoin:miter;stroke-opacity:1" d="M 679.227,14.4202 658.387,14.4202 z" id="boundary" inkscape:connector-curvature="0" />
	<path style="fill:none;stroke:red;stroke-width:1px;stroke-linecap:butt;stroke-linejoin:miter;stroke-opacity:1" d="M 637.546,14.4202 616.706,14.4202 z" id="boundary" inkscape:connector-curvature="0" />
	<path style="fill:none;stroke:red;stroke-width:1px;stroke-linecap:butt;stroke-linejoin:miter;stroke-opacity:1" d="M 595.866,14.4202 575.025,14.4202 z" id="boundary" inkscape:connector-curvature="0" />
	<path style="fill:none;stroke:red;stroke-width:1px;stroke-linecap:butt;stroke-linejoin:miter;stroke-opacity:1" d="M 823.025,4 843.866,4 z" id="boundary" inkscape:connector-curvature="0" />
	<path style="fill:none;stroke:red;stroke-width:1px;stroke-linecap:butt;stroke-linejoin:miter;stroke-opacity:1" d="M 843.866,4 862.622,14.4202 z" id="boundary" inkscape:connector-curvature="0" />
	<path style="fill:none;stroke:red;stroke-width:1px;stroke-linecap:butt;stroke-linejoin:miter;stroke-opacity:1" d="M 862.622,14.4202 883.462,14.4202 z" id="boundary" inkscape:connector-curvature="0" />
	<path style="fill:none;stroke:red;stroke-width:1px;stroke-linecap:butt;stroke-linejoin:miter;stroke-opacity:1" d="M 883.462,14.4202 902.218,24.8403 z" id="boundary" inkscape:connector-curvature="0" />
	<path style="fill:none;stroke:red;stroke-width:1px;stroke-linecap:butt;stroke-linejoin:miter;stroke-opacity:1" d="M 902.218,24.8403 923.059,24.8403 z" id="boundary" inkscape:connector-curvature="0" />
	<path style="fill:none;stroke:red;stroke-width:1px;stroke-linecap:butt;stroke-linejoin:miter;stroke-opacity:1" d="M 923.059,24.8403 933.479,43.5966 z" id="boundary" inkscape:connector-curvature="0" />
	<path style="fill:none;stroke:red;stroke-width:1px;stroke-linecap:butt;stroke-linejoin:miter;stroke-opacity:1" d="M 933.479,43.5966 950.151,56.1008 z" id="boundary" inkscape:connector-curvature="0" />
	<path style="fill:none;stroke:red;stroke-width:1px;stroke-linecap:butt;stroke-linejoin:miter;stroke-opacity:1" d="M 970.992,58.1849 950.151,56.1008 z" id="boundary" inkscape:connector-curvature="0" />
	<path style="fill:none;stroke:red;stroke-width:1px;stroke-linecap:butt;stroke-linejoin:miter;stroke-opacity:1" d="M 985.58,74.8571 985.58,95.6975 z" id="boundary" inkscape:connector-curvature="0" />
	<path style="fill:none;stroke:red;stroke-width:1px;stroke-linecap:butt;stroke-linejoin:miter;stroke-opacity:1" d="M 996,114.454 985.58,95.6975 z" id="boundary" inkscape:connector-curvature="0" />
	<path style="fill:none;stroke:red;stroke-width:1px;stroke-linecap:butt;stroke-linejoin:miter;stroke-opacity:1" d="M 970.992,58.1849 985.58,74.8571 z" id="boundary" inkscape:connector-curvature="0" />
	<path style="fill:none;stroke:red;stroke-width:1px;stroke-linecap:butt;stroke-linejoin:miter;stroke-opacity:1" d="M 996,114.454 996,135.294 z" id="boundary" inkscape:connector-curvature="0" />
	<path style="fill:none;stroke:red;stroke-width:1px;stroke-linecap:butt;stroke-linejoin:miter;stroke-opacity:1" d="M 996,156.134 996,176.975 z" id="boundary" inkscape:connector-curvature="0" />
	<path style="fill:none;stroke:red;stroke-width:1px;stroke-linecap:butt;stroke-linejoin:miter;stroke-opacity:1" d="M 996,135.294 996,156.134 z" id="boundary" inkscape:connector-curvature="0" />
	<path style="fill:none;stroke:red;stroke-width:1px;stroke-linecap:butt;stroke-linejoin:miter;stroke-opacity:1" d="M 996,197.815 996,218.655 z" id="boundary" inkscape:connector-curvature="0" />
	<path style="fill:none;stroke:red;stroke-width:1px;stroke-linecap:butt;stroke-linejoin:miter;stroke-opacity:1" d="M 996,239.496 996,260.336 z" id="boundary" inkscape:connector-curvature="0" />
	<path style="fill:none;stroke:red;stroke-width:1px;stroke-linecap:butt;stroke-linejoin:miter;stroke-opacity:1" d="M 996,260.336 996,281.176 z" id="boundary" inkscape:connector-curvature="0" />
	<path style="fill:none;stroke:red;stroke-width:1px;stroke-linecap:butt;stroke-linejoin:miter;stroke-opacity:1" d="M 996,218.655 996,239.496 z" id="boundary" inkscape:connector-curvature="0" />
	<path style="fill:none;stroke:red;stroke-width:1px;stroke-linecap:butt;stroke-linejoin:miter;stroke-opacity:1" d="M 996,176.975 996,197.815 z" id="boundary" inkscape:connector-curvature="0" />
	<path style="fill:none;stroke:red;stroke-width:1px;stroke-linecap:butt;stroke-linejoin:miter;stroke-opacity:1" d="M 996,281.176 996,302.017 z" id="boundary" inkscape:connector-curvature="0" />
	<path style="fill:none;stroke:red;stroke-width:1px;stroke-linecap:butt;stroke-linejoin:miter;stroke-opacity:1" d="M 506.252,589.613 527.092,589.613 z" id="boundary" inkscape:connector-curvature="0" />
	<path style="fill:none;stroke:red;stroke-width:1px;stroke-linecap:butt;stroke-linejoin:miter;stroke-opacity:1" d="M 493.748,610.454 506.252,589.613 z" id="boundary" inkscape:connector-curvature="0" />
	<path style="fill:none;stroke:red;stroke-width:1px;stroke-linecap:butt;stroke-linejoin:miter;stroke-opacity:1" d="M 547.933,589.613 568.773,589.613 z" id="boundary" inkscape:connector-curvature="0" />
	<path style="fill:none;stroke:red;stroke-width:1px;stroke-linecap:butt;stroke-linejoin:miter;stroke-opacity:1" d="M 547.933,589.613 527.092,589.613 z" id="boundary" inkscape:connector-curvature="0" />
	<path style="fill:none;stroke:red;stroke-width:1px;stroke-linecap:butt;stroke-linejoin:miter;stroke-opacity:1" d="M 589.613,589.613 610.454,589.613 z" id="boundary" inkscape:connector-curvature="0" />
	<path style="fill:none;stroke:red;stroke-width:1px;stroke-linecap:butt;stroke-linejoin:miter;stroke-opacity:1" d="M 631.294,589.613 652.134,589.613 z" id="boundary" inkscape:connector-curvature="0" />
	<path style="fill:none;stroke:red;stroke-width:1px;stroke-linecap:butt;stroke-linejoin:miter;stroke-opacity:1" d="M 672.975,589.613 652.134,589.613 z" id="boundary" inkscape:connector-curvature="0" />
	<path style="fill:none;stroke:red;stroke-width:1px;stroke-linecap:butt;stroke-linejoin:miter;stroke-opacity:1" d="M 631.294,589.613 610.454,589.613 z" id="boundary" inkscape:connector-curvature="0" />
	<path style="fill:none;stroke:red;stroke-width:1px;stroke-linecap:butt;stroke-linejoin:miter;stroke-opacity:1" d="M 589.613,589.613 568.773,589.613 z" id="boundary" inkscape:connector-curvature="0" />
	<path style="fill:none;stroke:red;stroke-width:1px;stroke-linecap:butt;stroke-linejoin:miter;stroke-opacity:1" d="M 693.815,589.613 714.655,589.613 z" id="boundary" inkscape:connector-curvature="0" />
	<path style="fill:none;stroke:red;stroke-width:1px;stroke-linecap:butt;stroke-linejoin:miter;stroke-opacity:1" d="M 472.908,610.454 493.748,610.454 z" id="boundary" inkscape:connector-curvature="0" />
	<path style="fill:none;stroke:red;stroke-width:1px;stroke-linecap:butt;stroke-linejoin:miter;stroke-opacity:1" d="M 714.655,589.613 735.496,589.613 z" id="boundary" inkscape:connector-curvature="0" />
	<path style="fill:none;stroke:red;stroke-width:1px;stroke-linecap:butt;stroke-linejoin:miter;stroke-opacity:1" d="M 672.975,589.613 693.815,589.613 z" id="boundary" inkscape:connector-curvature="0" />
	<path style="fill:none;stroke:red;stroke-width:1px;stroke-linecap:butt;stroke-linejoin:miter;stroke-opacity:1" d="M 735.496,589.613 756.336,589.613 z" id="boundary" inkscape:connector-curvature="0" />
	<path style="fill:none;stroke:red;stroke-width:1px;stroke-linecap:butt;stroke-linejoin:miter;stroke-opacity:1" d="M 777.176,589.613 798.017,589.613 z" id="boundary" inkscape:connector-curvature="0" />
	<path style="fill:none;stroke:red;stroke-width:1px;stroke-linecap:butt;stroke-linejoin:miter;stroke-opacity:1" d="M 818.857,589.613 798.017,589.613 z" id="boundary" inkscape:connector-curvature="0" />
	<path style="fill:none;stroke:red;stroke-width:1px;stroke-linecap:butt;stroke-linejoin:miter;stroke-opacity:1" d="M 777.176,589.613 756.336,589.613 z" id="boundary" inkscape:connector-curvature="0" />
	<path style="fill:none;stroke:red;stroke-width:1px;stroke-linecap:butt;stroke-linejoin:miter;stroke-opacity:1" d="M 818.857,589.613 839.697,589.613 z" id="boundary" inkscape:connector-curvature="0" />
	<path style="fill:none;stroke:red;stroke-width:1px;stroke-linecap:butt;stroke-linejoin:miter;stroke-opacity:1" d="M 996,322.857 996,343.697 z" id="boundary" inkscape:connector-curvature="0" />
	<path style="fill:none;stroke:red;stroke-width:1px;stroke-linecap:butt;stroke-linejoin:miter;stroke-opacity:1" d="M 996,364.538 996,385.378 z" id="boundary" inkscape:connector-curvature="0" />
	<path style="fill:none;stroke:red;stroke-width:1px;stroke-linecap:butt;stroke-linejoin:miter;stroke-opacity:1" d="M 996,343.697 996,364.538 z" id="boundary" inkscape:connector-curvature="0" />
	<path style="fill:none;stroke:red;stroke-width:1px;stroke-linecap:butt;stroke-linejoin:miter;stroke-opacity:1" d="M 996,406.218 996,427.059 z" id="boundary" inkscape:connector-curvature="0" />
	<path style="fill:none;stroke:red;stroke-width:1px;stroke-linecap:butt;stroke-linejoin:miter;stroke-opacity:1" d="M 996,427.059 996,447.899 z" id="boundary" inkscape:connector-curvature="0" />
	<path style="fill:none;stroke:red;stroke-width:1px;stroke-linecap:butt;stroke-linejoin:miter;stroke-opacity:1" d="M 996,447.899 996,468.739 z" id="boundary" inkscape:connector-curvature="0" />
	<path style="fill:none;stroke:red;stroke-width:1px;stroke-linecap:butt;stroke-linejoin:miter;stroke-opacity:1" d="M 996,385.378 996,406.218 z" id="boundary" inkscape:connector-curvature="0" />
	<path style="fill:none;stroke:red;stroke-width:1px;stroke-linecap:butt;stroke-linejoin:miter;stroke-opacity:1" d="M 900.134,579.193 920.975,579.193 z" id="boundary" inkscape:connector-curvature="0" />
	<path style="fill:none;stroke:red;stroke-width:1px;stroke-linecap:butt;stroke-linejoin:miter;stroke-opacity:1" d="M 881.378,589.613 900.134,579.193 z" id="boundary" inkscape:connector-curvature="0" />
	<path style="fill:none;stroke:red;stroke-width:1px;stroke-linecap:butt;stroke-linejoin:miter;stroke-opacity:1" d="M 939.731,568.773 920.975,579.193 z" id="boundary" inkscape:connector-curvature="0" />
	<path style="fill:none;stroke:red;stroke-width:1px;stroke-linecap:butt;stroke-linejoin:miter;stroke-opacity:1" d="M 839.697,589.613 860.538,589.613 z" id="boundary" inkscape:connector-curvature="0" />
	<path style="fill:none;stroke:red;stroke-width:1px;stroke-linecap:butt;stroke-linejoin:miter;stroke-opacity:1" d="M 881.378,589.613 860.538,589.613 z" id="boundary" inkscape:connector-curvature="0" />
	<path style="fill:none;stroke:red;stroke-width:1px;stroke-linecap:butt;stroke-linejoin:miter;stroke-opacity:1" d="M 996,489.58 985.58,527.092 z" id="boundary" inkscape:connector-curvature="0" />
	<path style="fill:none;stroke:red;stroke-width:1px;stroke-linecap:butt;stroke-linejoin:miter;stroke-opacity:1" d="M 975.16,547.933 960.571,568.773 z" id="boundary" inkscape:connector-curvature="0" />
	<path style="fill:none;stroke:red;stroke-width:1px;stroke-linecap:butt;stroke-linejoin:miter;stroke-opacity:1" d="M 960.571,568.773 939.731,568.773 z" id="boundary" inkscape:connector-curvature="0" />
	<path style="fill:none;stroke:red;stroke-width:1px;stroke-linecap:butt;stroke-linejoin:miter;stroke-opacity:1" d="M 985.58,527.092 975.16,547.933 z" id="boundary" inkscape:connector-curvature="0" />
	<path style="fill:none;stroke:red;stroke-width:1px;stroke-linecap:butt;stroke-linejoin:miter;stroke-opacity:1" d="M 996,468.739 996,489.58 z" id="boundary" inkscape:connector-curvature="0" />
	<path style="fill:none;stroke:red;stroke-width:1px;stroke-linecap:butt;stroke-linejoin:miter;stroke-opacity:1" d="M 996,302.017 996,322.857 z" id="boundary" inkscape:connector-curvature="0" />
	<circle cx="4" cy="124.874" r="4" fill="#0" id="circle0"/>
	<circle cx="4" cy="145.714" r="4" fill="#0" id="circle1"/>
	<circle cx="4" cy="166.555" r="4" fill="#0" id="circle2"/>
	<circle cx="4" cy="187.395" r="4" fill="#0" id="circle3"/>
	<circle cx="4" cy="208.235" r="4" fill="#0" id="circle4"/>
	<circle cx="4" cy="229.076" r="4" fill="#0" id="circle5"/>
	<circle cx="4" cy="249.916" r="4" fill="#0" id="circle6"/>
	<circle cx="4" cy="270.756" r="4" fill="#0" id="circle7"/>
	<circle cx="4" cy="291.597" r="4" fill="#0" id="circle8"/>
	<circle cx="24.8403" cy="118.622" r="4" fill="#0" id="circle9"/>
	<circle cx="24.8403" cy="297.849" r="4" fill="#0" id="circle10"/>
	<circle cx="35.2605" cy="316.605" r="4" fill="#0" id="circle11"/>
	<circle cx="35.2605" cy="337.445" r="4" fill="#0" id="circle12"/>
	<circle cx="35.2605" cy="358.286" r="4" fill="#0" id="circle13"/>
	<circle cx="35.2605" cy="379.126" r="4" fill="#0" id="circle14"/>
	<circle cx="35.2605" cy="399.966" r="4" fill="#0" id="circle15"/>
	<circle cx="35.2605" cy="420.807" r="4" fill="#0" id="circle16"/>
	<circle cx="35.2605" cy="441.647" r="4" fill="#0" id="circle17"/>
	<circle cx="35.2605" cy="462.487" r="4" fill="#0" id="circle18"/>
	<circle cx="35.2605" cy="483.328" r="4" fill="#0" id="circle19"/>
	<circle cx="35.2605" cy="504.168" r="4" fill="#0" id="circle20"/>
	<circle cx="37.3445" cy="101.95" r="4" fill="#0" id="circle21"/>
	<circle cx="39.4286" cy="525.008" r="4" fill="#0" id="circle22"/>
	<circle cx="45.6807" cy="72.7731" r="4" fill="#0" id="circle23"/>
	<circle cx="45.6807" cy="545.849" r="4" fill="#0" id="circle24"/>
	<circle cx="49.8487" cy="566.689" r="4" fill="#0" id="circle25"/>
	<circle cx="62.3529" cy="56.1008" r="4" fill="#0" id="circle26"/>
	<circle cx="66.521" cy="579.193" r="4" fill="#0" id="circle27"/>
	<circle cx="83.1933" cy="56.1008" r="4" fill="#0" id="circle28"/>
	<circle cx="85.2773" cy="589.613" r="4" fill="#0" id="circle29"/>
	<circle cx="99.8655" cy="606.286" r="4" fill="#0" id="circle30"/>
	<circle cx="101.95" cy="45.6807" r="4" fill="#0" id="circle31"/>
	<circle cx="120.706" cy="610.454" r="4" fill="#0" id="circle32"/>
	<circle cx="122.79" cy="45.6807" r="4" fill="#0" id="circle33"/>
	<circle cx="139.462" cy="31.0924" r="4" fill="#0" id="circle34"/>
	<circle cx="141.546" cy="610.454" r="4" fill="#0" id="circle35"/>
	<circle cx="160.303" cy="24.8403" r="4" fill="#0" id="circle36"/>
	<circle cx="162.387" cy="610.454" r="4" fill="#0" id="circle37"/>
	<circle cx="181.143" cy="24.8403" r="4" fill="#0" id="circle38"/>
	<circle cx="183.227" cy="614.622" r="4" fill="#0" id="circle39"/>
	<circle cx="191.563" cy="635.462" r="4" fill="#0" id="circle40"/>
	<circle cx="201.983" cy="24.8403" r="4" fill="#0" id="circle41"/>
	<circle cx="201.983" cy="654.218" r="4" fill="#0" id="circle42"/>
	<circle cx="201.983" cy="675.059" r="4" fill="#0" id="circle43"/>
	<circle cx="201.983" cy="695.899" r="4" fill="#0" id="circle44"/>
	<circle cx="222.824" cy="24.8403" r="4" fill="#0" id="circle45"/>
	<circle cx="222.824" cy="704.235" r="4" fill="#0" id="circle46"/>
	<circle cx="235.328" cy="720.908" r="4" fill="#0" id="circle47"/>
	<circle cx="243.664" cy="24.8403" r="4" fill="#0" id="circle48"/>
	<circle cx="243.664" cy="741.748" r="4" fill="#0" id="circle49"/>
	<circle cx="260.336" cy="756.336" r="4" fill="#0" id="circle50"/>
	<circle cx="264.504" cy="24.8403" r="4" fill="#0" id="circle51"/>
	<circle cx="279.092" cy="745.916" r="4" fill="#0" id="circle52"/>
	<circle cx="283.261" cy="14.4202" r="4" fill="#0" id="circle53"/>
	<circle cx="287.429" cy="725.076" r="4" fill="#0" id="circle54"/>
	<circle cx="304.101" cy="14.4202" r="4" fill="#0" id="circle55"/>
	<circle cx="306.185" cy="714.655" r="4" fill="#0" id="circle56"/>
	<circle cx="324.941" cy="14.4202" r="4" fill="#0" id="circle57"/>
	<circle cx="327.025" cy="708.403" r="4" fill="#0" id="circle58"/>
	<circle cx="339.529" cy="683.395" r="4" fill="#0" id="circle59"/>
	<circle cx="345.782" cy="14.4202" r="4" fill="#0" id="circle60"/>
	<circle cx="360.37" cy="672.975" r="4" fill="#0" id="circle61"/>
	<circle cx="366.622" cy="14.4202" r="4" fill="#0" id="circle62"/>
	<circle cx="381.21" cy="652.134" r="4" fill="#0" id="circle63"/>
	<circle cx="387.462" cy="14.4202" r="4" fill="#0" id="circle64"/>
	<circle cx="391.63" cy="631.294" r="4" fill="#0" id="circle65"/>
	<circle cx="408.303" cy="14.4202" r="4" fill="#0" id="circle66"/>
	<circle cx="412.471" cy="620.874" r="4" fill="#0" id="circle67"/>
	<circle cx="429.143" cy="14.4202" r="4" fill="#0" id="circle68"/>
	<circle cx="431.227" cy="610.454" r="4" fill="#0" id="circle69"/>
	<circle cx="449.983" cy="14.4202" r="4" fill="#0" id="circle70"/>
	<circle cx="452.067" cy="610.454" r="4" fill="#0" id="circle71"/>
	<circle cx="470.824" cy="14.4202" r="4" fill="#0" id="circle72"/>
	<circle cx="472.908" cy="610.454" r="4" fill="#0" id="circle73"/>
	<circle cx="491.664" cy="14.4202" r="4" fill="#0" id="circle74"/>
	<circle cx="493.748" cy="610.454" r="4" fill="#0" id="circle75"/>
	<circle cx="506.252" cy="589.613" r="4" fill="#0" id="circle76"/>
	<circle cx="512.504" cy="14.4202" r="4" fill="#0" id="circle77"/>
	<circle cx="527.092" cy="589.613" r="4" fill="#0" id="circle78"/>
	<circle cx="533.345" cy="14.4202" r="4" fill="#0" id="circle79"/>
	<circle cx="547.933" cy="589.613" r="4" fill="#0" id="circle80"/>
	<circle cx="554.185" cy="14.4202" r="4" fill="#0" id="circle81"/>
	<circle cx="568.773" cy="589.613" r="4" fill="#0" id="circle82"/>
	<circle cx="575.025" cy="14.4202" r="4" fill="#0" id="circle83"/>
	<circle cx="589.613" cy="589.613" r="4" fill="#0" id="circle84"/>
	<circle cx="595.866" cy="14.4202" r="4" fill="#0" id="circle85"/>
	<circle cx="610.454" cy="589.613" r="4" fill="#0" id="circle86"/>
	<circle cx="616.706" cy="14.4202" r="4" fill="#0" id="circle87"/>
	<circle cx="631.294" cy="589.613" r="4" fill="#0" id="circle88"/>
	<circle cx="637.546" cy="14.4202" r="4" fill="#0" id="circle89"/>
	<circle cx="652.134" cy="589.613" r="4" fill="#0" id="circle90"/>
	<circle cx="658.387" cy="14.4202" r="4" fill="#0" id="circle91"/>
	<circle cx="672.975" cy="589.613" r="4" fill="#0" id="circle92"/>
	<circle cx="679.227" cy="14.4202" r="4" fill="#0" id="circle93"/>
	<circle cx="693.815" cy="589.613" r="4" fill="#0" id="circle94"/>
	<circle cx="697.983" cy="4" r="4" fill="#0" id="circle95"/>
	<circle cx="714.655" cy="589.613" r="4" fill="#0" id="circle96"/>
	<circle cx="718.824" cy="4" r="4" fill="#0" id="circle97"/>
	<circle cx="735.496" cy="589.613" r="4" fill="#0" id="circle98"/>
	<circle cx="739.664" cy="4" r="4" fill="#0" id="circle99"/>
	<circle cx="756.336" cy="589.613" r="4" fill="#0" id="circle100"/>
	<circle cx="760.504" cy="4" r="4" fill="#0" id="circle101"/>
	<circle cx="777.176" cy="589.613" r="4" fill="#0" id="circle102"/>
	<circle cx="781.345" cy="4" r="4" fill="#0" id="circle103"/>
	<circle cx="798.017" cy="589.613" r="4" fill="#0" id="circle104"/>
	<circle cx="802.185" cy="4" r="4" fill="#0" id="circle105"/>
	<circle cx="818.857" cy="589.613" r="4" fill="#0" id="circle106"/>
	<circle cx="823.025" cy="4" r="4" fill="#0" id="circle107"/>
	<circle cx="839.697" cy="589.613" r="4" fill="#0" id="circle108"/>
	<circle cx="843.866" cy="4" r="4" fill="#0" id="circle109"/>
	<circle cx="860.538" cy="589.613" r="4" fill="#0" id="circle110"/>
	<circle cx="862.622" cy="14.4202" r="4" fill="#0" id="circle111"/>
	<circle cx="881.378" cy="589.613" r="4" fill="#0" id="circle112"/>
	<circle cx="883.462" cy="14.4202" r="4" fill="#0" id="circle113"/>
	<circle cx="900.134" cy="579.193" r="4" fill="#0" id="circle114"/>
	<circle cx="902.218" cy="24.8403" r="4" fill="#0" id="circle115"/>
	<circle cx="920.975" cy="579.193" r="4" fill="#0" id="circle116"/>
	<circle cx="923.059" cy="24.8403" r="4" fill="#0" id="circle117"/>
	<circle cx="933.479" cy="43.5966" r="4" fill="#0" id="circle118"/>
	<circle cx="939.731" cy="568.773" r="4" fill="#0" id="circle119"/>
	<circle cx="950.151" cy="56.1008" r="4" fill="#0" id="circle120"/>
	<circle cx="960.571" cy="568.773" r="4" fill="#0" id="circle121"/>
	<circle cx="970.992" cy="58.1849" r="4" fill="#0" id="circle122"/>
	<circle cx="975.16" cy="547.933" r="4" fill="#0" id="circle123"/>
	<circle cx="985.58" cy="74.8571" r="4" fill="#0" id="circle124"/>
	<circle cx="985.58" cy="95.6975" r="4" fill="#0" id="circle125"/>
	<circle cx="985.58" cy="527.092" r="4" fill="#0" id="circle126"/>
	<circle cx="996" cy="114.454" r="4" fill="#0" id="circle127"/>
	<circle cx="996" cy="135.294" r="4" fill="#0" id="circle128"/>
	<circle cx="996" cy="156.134" r="4" fill="#0" id="circle129"/>
	<circle cx="996" cy="176.975" r="4" fill="#0" id="circle130"/>
	<circle cx="996" cy="197.815" r="4" fill="#0" id="circle131"/>
	<circle cx="996" cy="218.655" r="4" fill="#0" id="circle132"/>
	<circle cx="996" cy="239.496" r="4" fill="#0" id="circle133"/>
	<circle cx="996" cy="260.336" r="4" fill="#0" id="circle134"/>
	<circle cx="996" cy="281.176" r="4" fill="#0" id="circle135"/>
	<circle cx="996" cy="302.017" r="4" fill="#0" id="circle136"/>
	<circle cx="996" cy="322.857" r="4" fill="#0" id="circle137"/>
	<circle cx="996" cy="343.697" r="4" fill="#0" id="circle138"/>
	<circle cx="996" cy="364.538" r="4" fill="#0" id="circle139"/>
	<circle cx="996" cy="385.378" r="4" fill="#0" id="circle140"/>
	<circle cx="996" cy="406.218" r="4" fill="#0" id="circle141"/>
	<circle cx="996" cy="427.059" r="4" fill="#0" id="circle142"/>
	<circle cx="996" cy="447.899" r="4" fill="#0" id="circle143"/>
	<circle cx="996" cy="468.739" r="4" fill="#0" id="circle144"/>
	<circle cx="996" cy="489.58" r="4" fill="#0" id="circle145"/>
	</g>
</svg>