<?xml version="1.0" encoding="UTF-8" standalone="no"?>
<!-- Created with CurveBenchmark -->
<svg
	xmlns:dc="http://purl.org/dc/elements/1.1/"
	xmlns:cc="http://creativecommons.org/ns#"
	xmlns:rdf="http://www.w3.org/1999/02/22-rdf-syntax-ns#"
	xmlns:svg="http://www.w3.org/2000/svg"
	xmlns="http://www.w3.org/2000/svg"
	xmlns:sodipodi="http://sodipodi.sourceforge.net/DTD/sodipodi-0.dtd"
	xmlns:inkscape="http://www.inkscape.org/namespaces/inkscape"
	width="1000"
	height="1000"
	id="svg2"
	version="1.1"
	sodipodi:docname="manifold/ccrust-teddy150.png.txt">
<defs
	id="defs4" />
<metadata
	id="metadata7">
	<rdf:RDF>
		<cc:Work
			rdf:about="">
			<dc:format>image/svg+xml</dc:format>
			<dc:type
				rdf:resource="http://purl.org/dc/dcmitype/StillImage" />
			<dc:title></dc:title>
		</cc:Work>
	</rdf:RDF>
</metadata>
<g
	inkscape:label="Layer 1"
	inkscape:groupmode="layer"
	id="layer1">
	<path style="fill:none;stroke:red;stroke-width:1px;stroke-linecap:butt;stroke-linejoin:miter;stroke-opacity:1" d="M 4,233.577 9.66857,188.229 z" id="boundary" inkscape:connector-curvature="0" />
	<path style="fill:none;stroke:red;stroke-width:1px;stroke-linecap:butt;stroke-linejoin:miter;stroke-opacity:1" d="M 9.66857,188.229 21.0057,159.886 z" id="boundary" inkscape:connector-curvature="0" />
	<path style="fill:none;stroke:red;stroke-width:1px;stroke-linecap:butt;stroke-linejoin:miter;stroke-opacity:1" d="M 6.83429,261.92 4,233.577 z" id="boundary" inkscape:connector-curvature="0" />
	<path style="fill:none;stroke:red;stroke-width:1px;stroke-linecap:butt;stroke-linejoin:miter;stroke-opacity:1" d="M 49.3486,108.869 32.3429,131.543 z" id="boundary" inkscape:connector-curvature="0" />
	<path style="fill:none;stroke:red;stroke-width:1px;stroke-linecap:butt;stroke-linejoin:miter;stroke-opacity:1" d="M 21.0057,159.886 32.3429,131.543 z" id="boundary" inkscape:connector-curvature="0" />
	<path style="fill:none;stroke:red;stroke-width:1px;stroke-linecap:butt;stroke-linejoin:miter;stroke-opacity:1" d="M 21.0057,318.606 9.66857,290.263 z" id="boundary" inkscape:connector-curvature="0" />
	<path style="fill:none;stroke:red;stroke-width:1px;stroke-linecap:butt;stroke-linejoin:miter;stroke-opacity:1" d="M 9.66857,290.263 6.83429,261.92 z" id="boundary" inkscape:connector-curvature="0" />
	<path style="fill:none;stroke:red;stroke-width:1px;stroke-linecap:butt;stroke-linejoin:miter;stroke-opacity:1" d="M 38.0114,341.28 21.0057,318.606 z" id="boundary" inkscape:connector-curvature="0" />
	<path style="fill:none;stroke:red;stroke-width:1px;stroke-linecap:butt;stroke-linejoin:miter;stroke-opacity:1" d="M 38.0114,341.28 52.1829,366.789 z" id="boundary" inkscape:connector-curvature="0" />
	<path style="fill:none;stroke:red;stroke-width:1px;stroke-linecap:butt;stroke-linejoin:miter;stroke-opacity:1" d="M 60.6857,395.131 49.3486,426.309 z" id="boundary" inkscape:connector-curvature="0" />
	<path style="fill:none;stroke:red;stroke-width:1px;stroke-linecap:butt;stroke-linejoin:miter;stroke-opacity:1" d="M 52.1829,366.789 60.6857,395.131 z" id="boundary" inkscape:connector-curvature="0" />
	<path style="fill:none;stroke:red;stroke-width:1px;stroke-linecap:butt;stroke-linejoin:miter;stroke-opacity:1" d="M 49.3486,426.309 38.0114,465.989 z" id="boundary" inkscape:connector-curvature="0" />
	<path style="fill:none;stroke:red;stroke-width:1px;stroke-linecap:butt;stroke-linejoin:miter;stroke-opacity:1" d="M 72.0229,35.1771 72.0229,63.52 z" id="boundary" inkscape:connector-curvature="0" />
	<path style="fill:none;stroke:red;stroke-width:1px;stroke-linecap:butt;stroke-linejoin:miter;stroke-opacity:1" d="M 72.0229,63.52 49.3486,108.869 z" id="boundary" inkscape:connector-curvature="0" />
	<path style="fill:none;stroke:red;stroke-width:1px;stroke-linecap:butt;stroke-linejoin:miter;stroke-opacity:1" d="M 94.6971,12.5029 123.04,6.83429 z" id="boundary" inkscape:connector-curvature="0" />
	<path style="fill:none;stroke:red;stroke-width:1px;stroke-linecap:butt;stroke-linejoin:miter;stroke-opacity:1" d="M 151.383,4 179.726,15.3371 z" id="boundary" inkscape:connector-curvature="0" />
	<path style="fill:none;stroke:red;stroke-width:1px;stroke-linecap:butt;stroke-linejoin:miter;stroke-opacity:1" d="M 123.04,6.83429 151.383,4 z" id="boundary" inkscape:connector-curvature="0" />
	<path style="fill:none;stroke:red;stroke-width:1px;stroke-linecap:butt;stroke-linejoin:miter;stroke-opacity:1" d="M 202.4,32.3429 225.074,12.5029 z" id="boundary" inkscape:connector-curvature="0" />
	<path style="fill:none;stroke:red;stroke-width:1px;stroke-linecap:butt;stroke-linejoin:miter;stroke-opacity:1" d="M 225.074,12.5029 253.417,6.83429 z" id="boundary" inkscape:connector-curvature="0" />
	<path style="fill:none;stroke:red;stroke-width:1px;stroke-linecap:butt;stroke-linejoin:miter;stroke-opacity:1" d="M 281.76,4 253.417,6.83429 z" id="boundary" inkscape:connector-curvature="0" />
	<path style="fill:none;stroke:red;stroke-width:1px;stroke-linecap:butt;stroke-linejoin:miter;stroke-opacity:1" d="M 281.76,4 307.269,18.1714 z" id="boundary" inkscape:connector-curvature="0" />
	<path style="fill:none;stroke:red;stroke-width:1px;stroke-linecap:butt;stroke-linejoin:miter;stroke-opacity:1" d="M 179.726,15.3371 202.4,32.3429 z" id="boundary" inkscape:connector-curvature="0" />
	<path style="fill:none;stroke:red;stroke-width:1px;stroke-linecap:butt;stroke-linejoin:miter;stroke-opacity:1" d="M 335.611,69.1886 335.611,97.5314 z" id="boundary" inkscape:connector-curvature="0" />
	<path style="fill:none;stroke:red;stroke-width:1px;stroke-linecap:butt;stroke-linejoin:miter;stroke-opacity:1" d="M 324.274,40.8457 307.269,18.1714 z" id="boundary" inkscape:connector-curvature="0" />
	<path style="fill:none;stroke:red;stroke-width:1px;stroke-linecap:butt;stroke-linejoin:miter;stroke-opacity:1" d="M 352.617,120.206 335.611,97.5314 z" id="boundary" inkscape:connector-curvature="0" />
	<path style="fill:none;stroke:red;stroke-width:1px;stroke-linecap:butt;stroke-linejoin:miter;stroke-opacity:1" d="M 335.611,69.1886 324.274,40.8457 z" id="boundary" inkscape:connector-curvature="0" />
	<path style="fill:none;stroke:red;stroke-width:1px;stroke-linecap:butt;stroke-linejoin:miter;stroke-opacity:1" d="M 72.0229,35.1771 94.6971,12.5029 z" id="boundary" inkscape:connector-curvature="0" />
	<path style="fill:none;stroke:red;stroke-width:1px;stroke-linecap:butt;stroke-linejoin:miter;stroke-opacity:1" d="M 35.1771,528.343 32.3429,500 z" id="boundary" inkscape:connector-curvature="0" />
	<path style="fill:none;stroke:red;stroke-width:1px;stroke-linecap:butt;stroke-linejoin:miter;stroke-opacity:1" d="M 49.3486,553.851 35.1771,528.343 z" id="boundary" inkscape:connector-curvature="0" />
	<path style="fill:none;stroke:red;stroke-width:1px;stroke-linecap:butt;stroke-linejoin:miter;stroke-opacity:1" d="M 38.0114,465.989 32.3429,500 z" id="boundary" inkscape:connector-curvature="0" />
	<path style="fill:none;stroke:red;stroke-width:1px;stroke-linecap:butt;stroke-linejoin:miter;stroke-opacity:1" d="M 55.0171,610.537 49.3486,582.194 z" id="boundary" inkscape:connector-curvature="0" />
	<path style="fill:none;stroke:red;stroke-width:1px;stroke-linecap:butt;stroke-linejoin:miter;stroke-opacity:1" d="M 49.3486,582.194 49.3486,553.851 z" id="boundary" inkscape:connector-curvature="0" />
	<path style="fill:none;stroke:red;stroke-width:1px;stroke-linecap:butt;stroke-linejoin:miter;stroke-opacity:1" d="M 55.0171,610.537 55.0171,638.88 z" id="boundary" inkscape:connector-curvature="0" />
	<path style="fill:none;stroke:red;stroke-width:1px;stroke-linecap:butt;stroke-linejoin:miter;stroke-opacity:1" d="M 49.3486,687.063 49.3486,715.406 z" id="boundary" inkscape:connector-curvature="0" />
	<path style="fill:none;stroke:red;stroke-width:1px;stroke-linecap:butt;stroke-linejoin:miter;stroke-opacity:1" d="M 49.3486,743.749 49.3486,715.406 z" id="boundary" inkscape:connector-curvature="0" />
	<path style="fill:none;stroke:red;stroke-width:1px;stroke-linecap:butt;stroke-linejoin:miter;stroke-opacity:1" d="M 66.3543,794.766 49.3486,772.091 z" id="boundary" inkscape:connector-curvature="0" />
	<path style="fill:none;stroke:red;stroke-width:1px;stroke-linecap:butt;stroke-linejoin:miter;stroke-opacity:1" d="M 49.3486,772.091 49.3486,743.749 z" id="boundary" inkscape:connector-curvature="0" />
	<path style="fill:none;stroke:red;stroke-width:1px;stroke-linecap:butt;stroke-linejoin:miter;stroke-opacity:1" d="M 66.3543,794.766 66.3543,823.109 z" id="boundary" inkscape:connector-curvature="0" />
	<path style="fill:none;stroke:red;stroke-width:1px;stroke-linecap:butt;stroke-linejoin:miter;stroke-opacity:1" d="M 66.3543,823.109 66.3543,851.451 z" id="boundary" inkscape:connector-curvature="0" />
	<path style="fill:none;stroke:red;stroke-width:1px;stroke-linecap:butt;stroke-linejoin:miter;stroke-opacity:1" d="M 55.0171,638.88 49.3486,687.063 z" id="boundary" inkscape:connector-curvature="0" />
	<path style="fill:none;stroke:red;stroke-width:1px;stroke-linecap:butt;stroke-linejoin:miter;stroke-opacity:1" d="M 72.0229,908.137 66.3543,879.794 z" id="boundary" inkscape:connector-curvature="0" />
	<path style="fill:none;stroke:red;stroke-width:1px;stroke-linecap:butt;stroke-linejoin:miter;stroke-opacity:1" d="M 66.3543,879.794 66.3543,851.451 z" id="boundary" inkscape:connector-curvature="0" />
	<path style="fill:none;stroke:red;stroke-width:1px;stroke-linecap:butt;stroke-linejoin:miter;stroke-opacity:1" d="M 83.36,964.823 77.6914,936.48 z" id="boundary" inkscape:connector-curvature="0" />
	<path style="fill:none;stroke:red;stroke-width:1px;stroke-linecap:butt;stroke-linejoin:miter;stroke-opacity:1" d="M 108.869,978.994 83.36,964.823 z" id="boundary" inkscape:connector-curvature="0" />
	<path style="fill:none;stroke:red;stroke-width:1px;stroke-linecap:butt;stroke-linejoin:miter;stroke-opacity:1" d="M 137.211,990.331 108.869,978.994 z" id="boundary" inkscape:connector-curvature="0" />
	<path style="fill:none;stroke:red;stroke-width:1px;stroke-linecap:butt;stroke-linejoin:miter;stroke-opacity:1" d="M 77.6914,936.48 72.0229,908.137 z" id="boundary" inkscape:connector-curvature="0" />
	<path style="fill:none;stroke:red;stroke-width:1px;stroke-linecap:butt;stroke-linejoin:miter;stroke-opacity:1" d="M 165.554,996 137.211,990.331 z" id="boundary" inkscape:connector-curvature="0" />
	<path style="fill:none;stroke:red;stroke-width:1px;stroke-linecap:butt;stroke-linejoin:miter;stroke-opacity:1" d="M 193.897,996 165.554,996 z" id="boundary" inkscape:connector-curvature="0" />
	<path style="fill:none;stroke:red;stroke-width:1px;stroke-linecap:butt;stroke-linejoin:miter;stroke-opacity:1" d="M 250.583,990.331 222.24,990.331 z" id="boundary" inkscape:connector-curvature="0" />
	<path style="fill:none;stroke:red;stroke-width:1px;stroke-linecap:butt;stroke-linejoin:miter;stroke-opacity:1" d="M 278.926,984.663 250.583,990.331 z" id="boundary" inkscape:connector-curvature="0" />
	<path style="fill:none;stroke:red;stroke-width:1px;stroke-linecap:butt;stroke-linejoin:miter;stroke-opacity:1" d="M 307.269,990.331 335.611,996 z" id="boundary" inkscape:connector-curvature="0" />
	<path style="fill:none;stroke:red;stroke-width:1px;stroke-linecap:butt;stroke-linejoin:miter;stroke-opacity:1" d="M 307.269,990.331 278.926,984.663 z" id="boundary" inkscape:connector-curvature="0" />
	<path style="fill:none;stroke:red;stroke-width:1px;stroke-linecap:butt;stroke-linejoin:miter;stroke-opacity:1" d="M 193.897,996 222.24,990.331 z" id="boundary" inkscape:connector-curvature="0" />
	<path style="fill:none;stroke:red;stroke-width:1px;stroke-linecap:butt;stroke-linejoin:miter;stroke-opacity:1" d="M 363.954,996 335.611,996 z" id="boundary" inkscape:connector-curvature="0" />
	<path style="fill:none;stroke:red;stroke-width:1px;stroke-linecap:butt;stroke-linejoin:miter;stroke-opacity:1" d="M 369.623,142.88 386.629,165.554 z" id="boundary" inkscape:connector-curvature="0" />
	<path style="fill:none;stroke:red;stroke-width:1px;stroke-linecap:butt;stroke-linejoin:miter;stroke-opacity:1" d="M 369.623,142.88 352.617,120.206 z" id="boundary" inkscape:connector-curvature="0" />
	<path style="fill:none;stroke:red;stroke-width:1px;stroke-linecap:butt;stroke-linejoin:miter;stroke-opacity:1" d="M 437.646,188.229 409.303,182.56 z" id="boundary" inkscape:connector-curvature="0" />
	<path style="fill:none;stroke:red;stroke-width:1px;stroke-linecap:butt;stroke-linejoin:miter;stroke-opacity:1" d="M 409.303,182.56 386.629,165.554 z" id="boundary" inkscape:connector-curvature="0" />
	<path style="fill:none;stroke:red;stroke-width:1px;stroke-linecap:butt;stroke-linejoin:miter;stroke-opacity:1" d="M 463.154,202.4 437.646,188.229 z" id="boundary" inkscape:connector-curvature="0" />
	<path style="fill:none;stroke:red;stroke-width:1px;stroke-linecap:butt;stroke-linejoin:miter;stroke-opacity:1" d="M 403.634,397.966 420.64,375.291 z" id="boundary" inkscape:connector-curvature="0" />
	<path style="fill:none;stroke:red;stroke-width:1px;stroke-linecap:butt;stroke-linejoin:miter;stroke-opacity:1" d="M 420.64,420.64 403.634,397.966 z" id="boundary" inkscape:connector-curvature="0" />
	<path style="fill:none;stroke:red;stroke-width:1px;stroke-linecap:butt;stroke-linejoin:miter;stroke-opacity:1" d="M 448.983,426.309 420.64,420.64 z" id="boundary" inkscape:connector-curvature="0" />
	<path style="fill:none;stroke:red;stroke-width:1px;stroke-linecap:butt;stroke-linejoin:miter;stroke-opacity:1" d="M 446.149,361.12 471.657,346.949 z" id="boundary" inkscape:connector-curvature="0" />
	<path style="fill:none;stroke:red;stroke-width:1px;stroke-linecap:butt;stroke-linejoin:miter;stroke-opacity:1" d="M 485.829,321.44 471.657,346.949 z" id="boundary" inkscape:connector-curvature="0" />
	<path style="fill:none;stroke:red;stroke-width:1px;stroke-linecap:butt;stroke-linejoin:miter;stroke-opacity:1" d="M 448.983,426.309 477.326,431.977 z" id="boundary" inkscape:connector-curvature="0" />
	<path style="fill:none;stroke:red;stroke-width:1px;stroke-linecap:butt;stroke-linejoin:miter;stroke-opacity:1" d="M 505.669,431.977 477.326,431.977 z" id="boundary" inkscape:connector-curvature="0" />
	<path style="fill:none;stroke:red;stroke-width:1px;stroke-linecap:butt;stroke-linejoin:miter;stroke-opacity:1" d="M 420.64,375.291 446.149,361.12 z" id="boundary" inkscape:connector-curvature="0" />
	<path style="fill:none;stroke:red;stroke-width:1px;stroke-linecap:butt;stroke-linejoin:miter;stroke-opacity:1" d="M 491.497,293.097 485.829,321.44 z" id="boundary" inkscape:connector-curvature="0" />
	<path style="fill:none;stroke:red;stroke-width:1px;stroke-linecap:butt;stroke-linejoin:miter;stroke-opacity:1" d="M 463.154,202.4 488.663,216.571 z" id="boundary" inkscape:connector-curvature="0" />
	<path style="fill:none;stroke:red;stroke-width:1px;stroke-linecap:butt;stroke-linejoin:miter;stroke-opacity:1" d="M 488.663,216.571 497.166,264.754 z" id="boundary" inkscape:connector-curvature="0" />
	<path style="fill:none;stroke:red;stroke-width:1px;stroke-linecap:butt;stroke-linejoin:miter;stroke-opacity:1" d="M 497.166,264.754 491.497,293.097 z" id="boundary" inkscape:connector-curvature="0" />
	<path style="fill:none;stroke:red;stroke-width:1px;stroke-linecap:butt;stroke-linejoin:miter;stroke-opacity:1" d="M 534.011,443.314 505.669,431.977 z" id="boundary" inkscape:connector-curvature="0" />
	<path style="fill:none;stroke:red;stroke-width:1px;stroke-linecap:butt;stroke-linejoin:miter;stroke-opacity:1" d="M 534.011,443.314 562.354,454.651 z" id="boundary" inkscape:connector-curvature="0" />
	<path style="fill:none;stroke:red;stroke-width:1px;stroke-linecap:butt;stroke-linejoin:miter;stroke-opacity:1" d="M 585.029,471.657 562.354,454.651 z" id="boundary" inkscape:connector-curvature="0" />
	<path style="fill:none;stroke:red;stroke-width:1px;stroke-linecap:butt;stroke-linejoin:miter;stroke-opacity:1" d="M 573.691,590.697 551.017,613.371 z" id="boundary" inkscape:connector-curvature="0" />
	<path style="fill:none;stroke:red;stroke-width:1px;stroke-linecap:butt;stroke-linejoin:miter;stroke-opacity:1" d="M 551.017,613.371 525.509,627.543 z" id="boundary" inkscape:connector-curvature="0" />
	<path style="fill:none;stroke:red;stroke-width:1px;stroke-linecap:butt;stroke-linejoin:miter;stroke-opacity:1" d="M 596.366,500 596.366,528.343 z" id="boundary" inkscape:connector-curvature="0" />
	<path style="fill:none;stroke:red;stroke-width:1px;stroke-linecap:butt;stroke-linejoin:miter;stroke-opacity:1" d="M 596.366,500 585.029,471.657 z" id="boundary" inkscape:connector-curvature="0" />
	<path style="fill:none;stroke:red;stroke-width:1px;stroke-linecap:butt;stroke-linejoin:miter;stroke-opacity:1" d="M 590.697,556.686 596.366,528.343 z" id="boundary" inkscape:connector-curvature="0" />
	<path style="fill:none;stroke:red;stroke-width:1px;stroke-linecap:butt;stroke-linejoin:miter;stroke-opacity:1" d="M 590.697,556.686 573.691,590.697 z" id="boundary" inkscape:connector-curvature="0" />
	<path style="fill:none;stroke:red;stroke-width:1px;stroke-linecap:butt;stroke-linejoin:miter;stroke-opacity:1" d="M 525.509,627.543 500,641.714 z" id="boundary" inkscape:connector-curvature="0" />
	<path style="fill:none;stroke:red;stroke-width:1px;stroke-linecap:butt;stroke-linejoin:miter;stroke-opacity:1" d="M 500,670.057 505.669,698.4 z" id="boundary" inkscape:connector-curvature="0" />
	<path style="fill:none;stroke:red;stroke-width:1px;stroke-linecap:butt;stroke-linejoin:miter;stroke-opacity:1" d="M 471.657,973.326 443.314,976.16 z" id="boundary" inkscape:connector-curvature="0" />
	<path style="fill:none;stroke:red;stroke-width:1px;stroke-linecap:butt;stroke-linejoin:miter;stroke-opacity:1" d="M 536.846,732.411 508.503,726.743 z" id="boundary" inkscape:connector-curvature="0" />
	<path style="fill:none;stroke:red;stroke-width:1px;stroke-linecap:butt;stroke-linejoin:miter;stroke-opacity:1" d="M 508.503,726.743 505.669,698.4 z" id="boundary" inkscape:connector-curvature="0" />
	<path style="fill:none;stroke:red;stroke-width:1px;stroke-linecap:butt;stroke-linejoin:miter;stroke-opacity:1" d="M 565.189,726.743 536.846,732.411 z" id="boundary" inkscape:connector-curvature="0" />
	<path style="fill:none;stroke:red;stroke-width:1px;stroke-linecap:butt;stroke-linejoin:miter;stroke-opacity:1" d="M 500,670.057 500,641.714 z" id="boundary" inkscape:connector-curvature="0" />
	<path style="fill:none;stroke:red;stroke-width:1px;stroke-linecap:butt;stroke-linejoin:miter;stroke-opacity:1" d="M 500,984.663 471.657,973.326 z" id="boundary" inkscape:connector-curvature="0" />
	<path style="fill:none;stroke:red;stroke-width:1px;stroke-linecap:butt;stroke-linejoin:miter;stroke-opacity:1" d="M 443.314,976.16 420.64,993.166 z" id="boundary" inkscape:connector-curvature="0" />
	<path style="fill:none;stroke:red;stroke-width:1px;stroke-linecap:butt;stroke-linejoin:miter;stroke-opacity:1" d="M 420.64,993.166 392.297,996 z" id="boundary" inkscape:connector-curvature="0" />
	<path style="fill:none;stroke:red;stroke-width:1px;stroke-linecap:butt;stroke-linejoin:miter;stroke-opacity:1" d="M 392.297,996 363.954,996 z" id="boundary" inkscape:connector-curvature="0" />
	<path style="fill:none;stroke:red;stroke-width:1px;stroke-linecap:butt;stroke-linejoin:miter;stroke-opacity:1" d="M 500,984.663 528.343,990.331 z" id="boundary" inkscape:connector-curvature="0" />
	<path style="fill:none;stroke:red;stroke-width:1px;stroke-linecap:butt;stroke-linejoin:miter;stroke-opacity:1" d="M 528.343,990.331 556.686,996 z" id="boundary" inkscape:connector-curvature="0" />
	<path style="fill:none;stroke:red;stroke-width:1px;stroke-linecap:butt;stroke-linejoin:miter;stroke-opacity:1" d="M 565.189,726.743 593.531,726.743 z" id="boundary" inkscape:connector-curvature="0" />
	<path style="fill:none;stroke:red;stroke-width:1px;stroke-linecap:butt;stroke-linejoin:miter;stroke-opacity:1" d="M 593.531,726.743 621.874,726.743 z" id="boundary" inkscape:connector-curvature="0" />
	<path style="fill:none;stroke:red;stroke-width:1px;stroke-linecap:butt;stroke-linejoin:miter;stroke-opacity:1" d="M 667.223,755.086 675.726,783.429 z" id="boundary" inkscape:connector-curvature="0" />
	<path style="fill:none;stroke:red;stroke-width:1px;stroke-linecap:butt;stroke-linejoin:miter;stroke-opacity:1" d="M 667.223,755.086 650.217,732.411 z" id="boundary" inkscape:connector-curvature="0" />
	<path style="fill:none;stroke:red;stroke-width:1px;stroke-linecap:butt;stroke-linejoin:miter;stroke-opacity:1" d="M 675.726,783.429 675.726,811.771 z" id="boundary" inkscape:connector-curvature="0" />
	<path style="fill:none;stroke:red;stroke-width:1px;stroke-linecap:butt;stroke-linejoin:miter;stroke-opacity:1" d="M 681.394,840.114 675.726,811.771 z" id="boundary" inkscape:connector-curvature="0" />
	<path style="fill:none;stroke:red;stroke-width:1px;stroke-linecap:butt;stroke-linejoin:miter;stroke-opacity:1" d="M 621.874,726.743 650.217,732.411 z" id="boundary" inkscape:connector-curvature="0" />
	<path style="fill:none;stroke:red;stroke-width:1px;stroke-linecap:butt;stroke-linejoin:miter;stroke-opacity:1" d="M 638.88,973.326 613.371,987.497 z" id="boundary" inkscape:connector-curvature="0" />
	<path style="fill:none;stroke:red;stroke-width:1px;stroke-linecap:butt;stroke-linejoin:miter;stroke-opacity:1" d="M 613.371,987.497 585.029,996 z" id="boundary" inkscape:connector-curvature="0" />
	<path style="fill:none;stroke:red;stroke-width:1px;stroke-linecap:butt;stroke-linejoin:miter;stroke-opacity:1" d="M 585.029,996 556.686,996 z" id="boundary" inkscape:connector-curvature="0" />
	<path style="fill:none;stroke:red;stroke-width:1px;stroke-linecap:butt;stroke-linejoin:miter;stroke-opacity:1" d="M 675.726,879.794 681.394,840.114 z" id="boundary" inkscape:connector-curvature="0" />
	<path style="fill:none;stroke:red;stroke-width:1px;stroke-linecap:butt;stroke-linejoin:miter;stroke-opacity:1" d="M 672.891,927.977 675.726,879.794 z" id="boundary" inkscape:connector-curvature="0" />
	<path style="fill:none;stroke:red;stroke-width:1px;stroke-linecap:butt;stroke-linejoin:miter;stroke-opacity:1" d="M 661.554,956.32 638.88,973.326 z" id="boundary" inkscape:connector-curvature="0" />
	<path style="fill:none;stroke:red;stroke-width:1px;stroke-linecap:butt;stroke-linejoin:miter;stroke-opacity:1" d="M 672.891,927.977 661.554,956.32 z" id="boundary" inkscape:connector-curvature="0" />
	<circle cx="4" cy="233.577" r="4" fill="#0" id="circle0"/>
	<circle cx="6.83429" cy="261.92" r="4" fill="#0" id="circle1"/>
	<circle cx="9.66857" cy="188.229" r="4" fill="#0" id="circle2"/>
	<circle cx="9.66857" cy="290.263" r="4" fill="#0" id="circle3"/>
	<circle cx="21.0057" cy="159.886" r="4" fill="#0" id="circle4"/>
	<circle cx="21.0057" cy="318.606" r="4" fill="#0" id="circle5"/>
	<circle cx="32.3429" cy="131.543" r="4" fill="#0" id="circle6"/>
	<circle cx="32.3429" cy="500" r="4" fill="#0" id="circle7"/>
	<circle cx="35.1771" cy="528.343" r="4" fill="#0" id="circle8"/>
	<circle cx="38.0114" cy="341.28" r="4" fill="#0" id="circle9"/>
	<circle cx="38.0114" cy="465.989" r="4" fill="#0" id="circle10"/>
	<circle cx="49.3486" cy="108.869" r="4" fill="#0" id="circle11"/>
	<circle cx="49.3486" cy="426.309" r="4" fill="#0" id="circle12"/>
	<circle cx="49.3486" cy="553.851" r="4" fill="#0" id="circle13"/>
	<circle cx="49.3486" cy="582.194" r="4" fill="#0" id="circle14"/>
	<circle cx="49.3486" cy="687.063" r="4" fill="#0" id="circle15"/>
	<circle cx="49.3486" cy="715.406" r="4" fill="#0" id="circle16"/>
	<circle cx="49.3486" cy="743.749" r="4" fill="#0" id="circle17"/>
	<circle cx="49.3486" cy="772.091" r="4" fill="#0" id="circle18"/>
	<circle cx="52.1829" cy="366.789" r="4" fill="#0" id="circle19"/>
	<circle cx="55.0171" cy="610.537" r="4" fill="#0" id="circle20"/>
	<circle cx="55.0171" cy="638.88" r="4" fill="#0" id="circle21"/>
	<circle cx="60.6857" cy="395.131" r="4" fill="#0" id="circle22"/>
	<circle cx="66.3543" cy="794.766" r="4" fill="#0" id="circle23"/>
	<circle cx="66.3543" cy="823.109" r="4" fill="#0" id="circle24"/>
	<circle cx="66.3543" cy="851.451" r="4" fill="#0" id="circle25"/>
	<circle cx="66.3543" cy="879.794" r="4" fill="#0" id="circle26"/>
	<circle cx="72.0229" cy="35.1771" r="4" fill="#0" id="circle27"/>
	<circle cx="72.0229" cy="63.52" r="4" fill="#0" id="circle28"/>
	<circle cx="72.0229" cy="908.137" r="4" fill="#0" id="circle29"/>
	<circle cx="77.6914" cy="936.48" r="4" fill="#0" id="circle30"/>
	<circle cx="83.36" cy="964.823" r="4" fill="#0" id="circle31"/>
	<circle cx="94.6971" cy="12.5029" r="4" fill="#0" id="circle32"/>
	<circle cx="108.869" cy="978.994" r="4" fill="#0" id="circle33"/>
	<circle cx="123.04" cy="6.83429" r="4" fill="#0" id="circle34"/>
	<circle cx="137.211" cy="990.331" r="4" fill="#0" id="circle35"/>
	<circle cx="151.383" cy="4" r="4" fill="#0" id="circle36"/>
	<circle cx="165.554" cy="996" r="4" fill="#0" id="circle37"/>
	<circle cx="179.726" cy="15.3371" r="4" fill="#0" id="circle38"/>
	<circle cx="193.897" cy="996" r="4" fill="#0" id="circle39"/>
	<circle cx="202.4" cy="32.3429" r="4" fill="#0" id="circle40"/>
	<circle cx="222.24" cy="990.331" r="4" fill="#0" id="circle41"/>
	<circle cx="225.074" cy="12.5029" r="4" fill="#0" id="circle42"/>
	<circle cx="250.583" cy="990.331" r="4" fill="#0" id="circle43"/>
	<circle cx="253.417" cy="6.83429" r="4" fill="#0" id="circle44"/>
	<circle cx="278.926" cy="984.663" r="4" fill="#0" id="circle45"/>
	<circle cx="281.76" cy="4" r="4" fill="#0" id="circle46"/>
	<circle cx="307.269" cy="18.1714" r="4" fill="#0" id="circle47"/>
	<circle cx="307.269" cy="990.331" r="4" fill="#0" id="circle48"/>
	<circle cx="324.274" cy="40.8457" r="4" fill="#0" id="circle49"/>
	<circle cx="335.611" cy="69.1886" r="4" fill="#0" id="circle50"/>
	<circle cx="335.611" cy="97.5314" r="4" fill="#0" id="circle51"/>
	<circle cx="335.611" cy="996" r="4" fill="#0" id="circle52"/>
	<circle cx="352.617" cy="120.206" r="4" fill="#0" id="circle53"/>
	<circle cx="363.954" cy="996" r="4" fill="#0" id="circle54"/>
	<circle cx="369.623" cy="142.88" r="4" fill="#0" id="circle55"/>
	<circle cx="386.629" cy="165.554" r="4" fill="#0" id="circle56"/>
	<circle cx="392.297" cy="996" r="4" fill="#0" id="circle57"/>
	<circle cx="403.634" cy="397.966" r="4" fill="#0" id="circle58"/>
	<circle cx="409.303" cy="182.56" r="4" fill="#0" id="circle59"/>
	<circle cx="420.64" cy="375.291" r="4" fill="#0" id="circle60"/>
	<circle cx="420.64" cy="420.64" r="4" fill="#0" id="circle61"/>
	<circle cx="420.64" cy="993.166" r="4" fill="#0" id="circle62"/>
	<circle cx="437.646" cy="188.229" r="4" fill="#0" id="circle63"/>
	<circle cx="443.314" cy="976.16" r="4" fill="#0" id="circle64"/>
	<circle cx="446.149" cy="361.12" r="4" fill="#0" id="circle65"/>
	<circle cx="448.983" cy="426.309" r="4" fill="#0" id="circle66"/>
	<circle cx="463.154" cy="202.4" r="4" fill="#0" id="circle67"/>
	<circle cx="471.657" cy="346.949" r="4" fill="#0" id="circle68"/>
	<circle cx="471.657" cy="973.326" r="4" fill="#0" id="circle69"/>
	<circle cx="477.326" cy="431.977" r="4" fill="#0" id="circle70"/>
	<circle cx="485.829" cy="321.44" r="4" fill="#0" id="circle71"/>
	<circle cx="488.663" cy="216.571" r="4" fill="#0" id="circle72"/>
	<circle cx="491.497" cy="293.097" r="4" fill="#0" id="circle73"/>
	<circle cx="497.166" cy="264.754" r="4" fill="#0" id="circle74"/>
	<circle cx="500" cy="641.714" r="4" fill="#0" id="circle75"/>
	<circle cx="500" cy="670.057" r="4" fill="#0" id="circle76"/>
	<circle cx="500" cy="984.663" r="4" fill="#0" id="circle77"/>
	<circle cx="505.669" cy="431.977" r="4" fill="#0" id="circle78"/>
	<circle cx="505.669" cy="698.4" r="4" fill="#0" id="circle79"/>
	<circle cx="508.503" cy="726.743" r="4" fill="#0" id="circle80"/>
	<circle cx="525.509" cy="627.543" r="4" fill="#0" id="circle81"/>
	<circle cx="528.343" cy="990.331" r="4" fill="#0" id="circle82"/>
	<circle cx="534.011" cy="443.314" r="4" fill="#0" id="circle83"/>
	<circle cx="536.846" cy="732.411" r="4" fill="#0" id="circle84"/>
	<circle cx="551.017" cy="613.371" r="4" fill="#0" id="circle85"/>
	<circle cx="556.686" cy="996" r="4" fill="#0" id="circle86"/>
	<circle cx="562.354" cy="454.651" r="4" fill="#0" id="circle87"/>
	<circle cx="565.189" cy="726.743" r="4" fill="#0" id="circle88"/>
	<circle cx="573.691" cy="590.697" r="4" fill="#0" id="circle89"/>
	<circle cx="585.029" cy="471.657" r="4" fill="#0" id="circle90"/>
	<circle cx="585.029" cy="996" r="4" fill="#0" id="circle91"/>
	<circle cx="590.697" cy="556.686" r="4" fill="#0" id="circle92"/>
	<circle cx="593.531" cy="726.743" r="4" fill="#0" id="circle93"/>
	<circle cx="596.366" cy="500" r="4" fill="#0" id="circle94"/>
	<circle cx="596.366" cy="528.343" r="4" fill="#0" id="circle95"/>
	<circle cx="613.371" cy="987.497" r="4" fill="#0" id="circle96"/>
	<circle cx="621.874" cy="726.743" r="4" fill="#0" id="circle97"/>
	<circle cx="638.88" cy="973.326" r="4" fill="#0" id="circle98"/>
	<circle cx="650.217" cy="732.411" r="4" fill="#0" id="circle99"/>
	<circle cx="661.554" cy="956.32" r="4" fill="#0" id="circle100"/>
	<circle cx="667.223" cy="755.086" r="4" fill="#0" id="circle101"/>
	<circle cx="672.891" cy="927.977" r="4" fill="#0" id="circle102"/>
	<circle cx="675.726" cy="783.429" r="4" fill="#0" id="circle103"/>
	<circle cx="675.726" cy="811.771" r="4" fill="#0" id="circle104"/>
	<circle cx="675.726" cy="879.794" r="4" fill="#0" id="circle105"/>
	<circle cx="681.394" cy="840.114" r="4" fill="#0" id="circle106"/>
	</g>
</svg>