<?xml version="1.0" encoding="UTF-8" standalone="no"?>
<!-- Created with CurveBenchmark -->
<svg
	xmlns:dc="http://purl.org/dc/elements/1.1/"
	xmlns:cc="http://creativecommons.org/ns#"
	xmlns:rdf="http://www.w3.org/1999/02/22-rdf-syntax-ns#"
	xmlns:svg="http://www.w3.org/2000/svg"
	xmlns="http://www.w3.org/2000/svg"
	xmlns:sodipodi="http://sodipodi.sourceforge.net/DTD/sodipodi-0.dtd"
	xmlns:inkscape="http://www.inkscape.org/namespaces/inkscape"
	width="1000"
	height="1000"
	id="svg2"
	version="1.1"
	sodipodi:docname="manifold/ccrust-textbox49.png.txt">
<defs
	id="defs4" />
<metadata
	id="metadata7">
	<rdf:RDF>
		<cc:Work
			rdf:about="">
			<dc:format>image/svg+xml</dc:format>
			<dc:type
				rdf:resource="http://purl.org/dc/dcmitype/StillImage" />
			<dc:title></dc:title>
		</cc:Work>
	</rdf:RDF>
</metadata>
<g
	inkscape:label="Layer 1"
	inkscape:groupmode="layer"
	id="layer1">
	<path style="fill:none;stroke:red;stroke-width:1px;stroke-linecap:butt;stroke-linejoin:miter;stroke-opacity:1" d="M 56.5795,272.155 65.3428,254.629 z" id="boundary" inkscape:connector-curvature="0" />
	<path style="fill:none;stroke:red;stroke-width:1px;stroke-linecap:butt;stroke-linejoin:miter;stroke-opacity:1" d="M 65.3428,254.629 82.8693,237.102 z" id="boundary" inkscape:connector-curvature="0" />
	<path style="fill:none;stroke:red;stroke-width:1px;stroke-linecap:butt;stroke-linejoin:miter;stroke-opacity:1" d="M 56.5795,272.155 47.8163,293.187 z" id="boundary" inkscape:connector-curvature="0" />
	<path style="fill:none;stroke:red;stroke-width:1px;stroke-linecap:butt;stroke-linejoin:miter;stroke-opacity:1" d="M 47.8163,293.187 30.2898,298.445 z" id="boundary" inkscape:connector-curvature="0" />
	<path style="fill:none;stroke:red;stroke-width:1px;stroke-linecap:butt;stroke-linejoin:miter;stroke-opacity:1" d="M 21.5265,324.735 30.2898,298.445 z" id="boundary" inkscape:connector-curvature="0" />
	<path style="fill:none;stroke:red;stroke-width:1px;stroke-linecap:butt;stroke-linejoin:miter;stroke-opacity:1" d="M 82.8693,219.576 82.8693,237.102 z" id="boundary" inkscape:connector-curvature="0" />
	<path style="fill:none;stroke:red;stroke-width:1px;stroke-linecap:butt;stroke-linejoin:miter;stroke-opacity:1" d="M 126.686,131.943 117.922,152.975 z" id="boundary" inkscape:connector-curvature="0" />
	<path style="fill:none;stroke:red;stroke-width:1px;stroke-linecap:butt;stroke-linejoin:miter;stroke-opacity:1" d="M 117.922,152.975 100.396,158.233 z" id="boundary" inkscape:connector-curvature="0" />
	<path style="fill:none;stroke:red;stroke-width:1px;stroke-linecap:butt;stroke-linejoin:miter;stroke-opacity:1" d="M 91.6325,175.76 100.396,158.233 z" id="boundary" inkscape:connector-curvature="0" />
	<path style="fill:none;stroke:red;stroke-width:1px;stroke-linecap:butt;stroke-linejoin:miter;stroke-opacity:1" d="M 82.8693,219.576 91.6325,193.286 z" id="boundary" inkscape:connector-curvature="0" />
	<path style="fill:none;stroke:red;stroke-width:1px;stroke-linecap:butt;stroke-linejoin:miter;stroke-opacity:1" d="M 91.6325,175.76 91.6325,193.286 z" id="boundary" inkscape:connector-curvature="0" />
	<path style="fill:none;stroke:red;stroke-width:1px;stroke-linecap:butt;stroke-linejoin:miter;stroke-opacity:1" d="M 21.5265,324.735 21.5265,342.261 z" id="boundary" inkscape:connector-curvature="0" />
	<path style="fill:none;stroke:red;stroke-width:1px;stroke-linecap:butt;stroke-linejoin:miter;stroke-opacity:1" d="M 21.5265,342.261 4,359.788 z" id="boundary" inkscape:connector-curvature="0" />
	<path style="fill:none;stroke:red;stroke-width:1px;stroke-linecap:butt;stroke-linejoin:miter;stroke-opacity:1" d="M 4,377.314 4,359.788 z" id="boundary" inkscape:connector-curvature="0" />
	<path style="fill:none;stroke:red;stroke-width:1px;stroke-linecap:butt;stroke-linejoin:miter;stroke-opacity:1" d="M 14.5159,408.862 4,394.841 z" id="boundary" inkscape:connector-curvature="0" />
	<path style="fill:none;stroke:red;stroke-width:1px;stroke-linecap:butt;stroke-linejoin:miter;stroke-opacity:1" d="M 4,394.841 4,377.314 z" id="boundary" inkscape:connector-curvature="0" />
	<path style="fill:none;stroke:red;stroke-width:1px;stroke-linecap:butt;stroke-linejoin:miter;stroke-opacity:1" d="M 14.5159,408.862 21.5265,426.389 z" id="boundary" inkscape:connector-curvature="0" />
	<path style="fill:none;stroke:red;stroke-width:1px;stroke-linecap:butt;stroke-linejoin:miter;stroke-opacity:1" d="M 40.8057,470.205 30.2898,456.184 z" id="boundary" inkscape:connector-curvature="0" />
	<path style="fill:none;stroke:red;stroke-width:1px;stroke-linecap:butt;stroke-linejoin:miter;stroke-opacity:1" d="M 30.2898,456.184 21.5265,426.389 z" id="boundary" inkscape:connector-curvature="0" />
	<path style="fill:none;stroke:red;stroke-width:1px;stroke-linecap:butt;stroke-linejoin:miter;stroke-opacity:1" d="M 40.8057,470.205 30.2898,491.237 z" id="boundary" inkscape:connector-curvature="0" />
	<path style="fill:none;stroke:red;stroke-width:1px;stroke-linecap:butt;stroke-linejoin:miter;stroke-opacity:1" d="M 30.2898,491.237 30.2898,508.763 z" id="boundary" inkscape:connector-curvature="0" />
	<path style="fill:none;stroke:red;stroke-width:1px;stroke-linecap:butt;stroke-linejoin:miter;stroke-opacity:1" d="M 30.2898,526.29 30.2898,508.763 z" id="boundary" inkscape:connector-curvature="0" />
	<path style="fill:none;stroke:red;stroke-width:1px;stroke-linecap:butt;stroke-linejoin:miter;stroke-opacity:1" d="M 30.2898,526.29 30.2898,543.816 z" id="boundary" inkscape:connector-curvature="0" />
	<path style="fill:none;stroke:red;stroke-width:1px;stroke-linecap:butt;stroke-linejoin:miter;stroke-opacity:1" d="M 126.686,131.943 140.707,117.922 z" id="boundary" inkscape:connector-curvature="0" />
	<path style="fill:none;stroke:red;stroke-width:1px;stroke-linecap:butt;stroke-linejoin:miter;stroke-opacity:1" d="M 361.541,39.053 373.809,25.0318 z" id="boundary" inkscape:connector-curvature="0" />
	<path style="fill:none;stroke:red;stroke-width:1px;stroke-linecap:butt;stroke-linejoin:miter;stroke-opacity:1" d="M 373.809,25.0318 391.336,21.5265 z" id="boundary" inkscape:connector-curvature="0" />
	<path style="fill:none;stroke:red;stroke-width:1px;stroke-linecap:butt;stroke-linejoin:miter;stroke-opacity:1" d="M 361.541,39.053 345.767,47.8163 z" id="boundary" inkscape:connector-curvature="0" />
	<path style="fill:none;stroke:red;stroke-width:1px;stroke-linecap:butt;stroke-linejoin:miter;stroke-opacity:1" d="M 231.845,74.106 214.318,74.106 z" id="boundary" inkscape:connector-curvature="0" />
	<path style="fill:none;stroke:red;stroke-width:1px;stroke-linecap:butt;stroke-linejoin:miter;stroke-opacity:1" d="M 322.982,75.8587 331.746,58.3322 z" id="boundary" inkscape:connector-curvature="0" />
	<path style="fill:none;stroke:red;stroke-width:1px;stroke-linecap:butt;stroke-linejoin:miter;stroke-opacity:1" d="M 331.746,58.3322 345.767,47.8163 z" id="boundary" inkscape:connector-curvature="0" />
	<path style="fill:none;stroke:red;stroke-width:1px;stroke-linecap:butt;stroke-linejoin:miter;stroke-opacity:1" d="M 214.318,74.106 196.792,79.364 z" id="boundary" inkscape:connector-curvature="0" />
	<path style="fill:none;stroke:red;stroke-width:1px;stroke-linecap:butt;stroke-linejoin:miter;stroke-opacity:1" d="M 391.336,21.5265 408.862,21.5265 z" id="boundary" inkscape:connector-curvature="0" />
	<path style="fill:none;stroke:red;stroke-width:1px;stroke-linecap:butt;stroke-linejoin:miter;stroke-opacity:1" d="M 426.389,21.5265 408.862,21.5265 z" id="boundary" inkscape:connector-curvature="0" />
	<path style="fill:none;stroke:red;stroke-width:1px;stroke-linecap:butt;stroke-linejoin:miter;stroke-opacity:1" d="M 426.389,21.5265 435.152,37.3004 z" id="boundary" inkscape:connector-curvature="0" />
	<path style="fill:none;stroke:red;stroke-width:1px;stroke-linecap:butt;stroke-linejoin:miter;stroke-opacity:1" d="M 452.678,44.311 435.152,37.3004 z" id="boundary" inkscape:connector-curvature="0" />
	<path style="fill:none;stroke:red;stroke-width:1px;stroke-linecap:butt;stroke-linejoin:miter;stroke-opacity:1" d="M 470.205,47.8163 452.678,44.311 z" id="boundary" inkscape:connector-curvature="0" />
	<path style="fill:none;stroke:red;stroke-width:1px;stroke-linecap:butt;stroke-linejoin:miter;stroke-opacity:1" d="M 182.77,91.6325 196.792,79.364 z" id="boundary" inkscape:connector-curvature="0" />
	<path style="fill:none;stroke:red;stroke-width:1px;stroke-linecap:butt;stroke-linejoin:miter;stroke-opacity:1" d="M 166.996,100.396 182.77,91.6325 z" id="boundary" inkscape:connector-curvature="0" />
	<path style="fill:none;stroke:red;stroke-width:1px;stroke-linecap:butt;stroke-linejoin:miter;stroke-opacity:1" d="M 140.707,117.922 149.47,100.396 z" id="boundary" inkscape:connector-curvature="0" />
	<path style="fill:none;stroke:red;stroke-width:1px;stroke-linecap:butt;stroke-linejoin:miter;stroke-opacity:1" d="M 149.47,100.396 166.996,100.396 z" id="boundary" inkscape:connector-curvature="0" />
	<path style="fill:none;stroke:red;stroke-width:1px;stroke-linecap:butt;stroke-linejoin:miter;stroke-opacity:1" d="M 249.371,74.106 266.898,74.106 z" id="boundary" inkscape:connector-curvature="0" />
	<path style="fill:none;stroke:red;stroke-width:1px;stroke-linecap:butt;stroke-linejoin:miter;stroke-opacity:1" d="M 266.898,74.106 277.413,88.1272 z" id="boundary" inkscape:connector-curvature="0" />
	<path style="fill:none;stroke:red;stroke-width:1px;stroke-linecap:butt;stroke-linejoin:miter;stroke-opacity:1" d="M 294.94,91.6325 277.413,88.1272 z" id="boundary" inkscape:connector-curvature="0" />
	<path style="fill:none;stroke:red;stroke-width:1px;stroke-linecap:butt;stroke-linejoin:miter;stroke-opacity:1" d="M 322.982,75.8587 312.466,91.6325 z" id="boundary" inkscape:connector-curvature="0" />
	<path style="fill:none;stroke:red;stroke-width:1px;stroke-linecap:butt;stroke-linejoin:miter;stroke-opacity:1" d="M 312.466,91.6325 294.94,91.6325 z" id="boundary" inkscape:connector-curvature="0" />
	<path style="fill:none;stroke:red;stroke-width:1px;stroke-linecap:butt;stroke-linejoin:miter;stroke-opacity:1" d="M 231.845,74.106 249.371,74.106 z" id="boundary" inkscape:connector-curvature="0" />
	<path style="fill:none;stroke:red;stroke-width:1px;stroke-linecap:butt;stroke-linejoin:miter;stroke-opacity:1" d="M 30.2898,543.816 30.2898,561.343 z" id="boundary" inkscape:connector-curvature="0" />
	<path style="fill:none;stroke:red;stroke-width:1px;stroke-linecap:butt;stroke-linejoin:miter;stroke-opacity:1" d="M 47.8163,566.601 30.2898,561.343 z" id="boundary" inkscape:connector-curvature="0" />
	<path style="fill:none;stroke:red;stroke-width:1px;stroke-linecap:butt;stroke-linejoin:miter;stroke-opacity:1" d="M 56.5795,599.901 47.8163,584.127 z" id="boundary" inkscape:connector-curvature="0" />
	<path style="fill:none;stroke:red;stroke-width:1px;stroke-linecap:butt;stroke-linejoin:miter;stroke-opacity:1" d="M 47.8163,584.127 47.8163,566.601 z" id="boundary" inkscape:connector-curvature="0" />
	<path style="fill:none;stroke:red;stroke-width:1px;stroke-linecap:butt;stroke-linejoin:miter;stroke-opacity:1" d="M 56.5795,599.901 56.5795,617.428 z" id="boundary" inkscape:connector-curvature="0" />
	<path style="fill:none;stroke:red;stroke-width:1px;stroke-linecap:butt;stroke-linejoin:miter;stroke-opacity:1" d="M 70.6007,627.943 56.5795,617.428 z" id="boundary" inkscape:connector-curvature="0" />
	<path style="fill:none;stroke:red;stroke-width:1px;stroke-linecap:butt;stroke-linejoin:miter;stroke-opacity:1" d="M 88.1272,634.954 70.6007,627.943 z" id="boundary" inkscape:connector-curvature="0" />
	<path style="fill:none;stroke:red;stroke-width:1px;stroke-linecap:butt;stroke-linejoin:miter;stroke-opacity:1" d="M 88.1272,634.954 103.901,643.717 z" id="boundary" inkscape:connector-curvature="0" />
	<path style="fill:none;stroke:red;stroke-width:1px;stroke-linecap:butt;stroke-linejoin:miter;stroke-opacity:1" d="M 121.428,645.47 103.901,643.717 z" id="boundary" inkscape:connector-curvature="0" />
	<path style="fill:none;stroke:red;stroke-width:1px;stroke-linecap:butt;stroke-linejoin:miter;stroke-opacity:1" d="M 121.428,645.47 138.954,645.47 z" id="boundary" inkscape:connector-curvature="0" />
	<path style="fill:none;stroke:red;stroke-width:1px;stroke-linecap:butt;stroke-linejoin:miter;stroke-opacity:1" d="M 138.954,645.47 144.212,662.996 z" id="boundary" inkscape:connector-curvature="0" />
	<path style="fill:none;stroke:red;stroke-width:1px;stroke-linecap:butt;stroke-linejoin:miter;stroke-opacity:1" d="M 144.212,662.996 159.986,671.76 z" id="boundary" inkscape:connector-curvature="0" />
	<path style="fill:none;stroke:red;stroke-width:1px;stroke-linecap:butt;stroke-linejoin:miter;stroke-opacity:1" d="M 159.986,671.76 166.996,689.286 z" id="boundary" inkscape:connector-curvature="0" />
	<path style="fill:none;stroke:red;stroke-width:1px;stroke-linecap:butt;stroke-linejoin:miter;stroke-opacity:1" d="M 166.996,689.286 170.502,706.813 z" id="boundary" inkscape:connector-curvature="0" />
	<path style="fill:none;stroke:red;stroke-width:1px;stroke-linecap:butt;stroke-linejoin:miter;stroke-opacity:1" d="M 198.544,724.339 181.018,720.834 z" id="boundary" inkscape:connector-curvature="0" />
	<path style="fill:none;stroke:red;stroke-width:1px;stroke-linecap:butt;stroke-linejoin:miter;stroke-opacity:1" d="M 181.018,720.834 170.502,706.813 z" id="boundary" inkscape:connector-curvature="0" />
	<path style="fill:none;stroke:red;stroke-width:1px;stroke-linecap:butt;stroke-linejoin:miter;stroke-opacity:1" d="M 198.544,724.339 214.318,733.102 z" id="boundary" inkscape:connector-curvature="0" />
	<path style="fill:none;stroke:red;stroke-width:1px;stroke-linecap:butt;stroke-linejoin:miter;stroke-opacity:1" d="M 247.618,741.866 230.092,741.866 z" id="boundary" inkscape:connector-curvature="0" />
	<path style="fill:none;stroke:red;stroke-width:1px;stroke-linecap:butt;stroke-linejoin:miter;stroke-opacity:1" d="M 230.092,741.866 214.318,733.102 z" id="boundary" inkscape:connector-curvature="0" />
	<path style="fill:none;stroke:red;stroke-width:1px;stroke-linecap:butt;stroke-linejoin:miter;stroke-opacity:1" d="M 247.618,741.866 263.392,750.629 z" id="boundary" inkscape:connector-curvature="0" />
	<path style="fill:none;stroke:red;stroke-width:1px;stroke-linecap:butt;stroke-linejoin:miter;stroke-opacity:1" d="M 296.693,741.866 280.919,750.629 z" id="boundary" inkscape:connector-curvature="0" />
	<path style="fill:none;stroke:red;stroke-width:1px;stroke-linecap:butt;stroke-linejoin:miter;stroke-opacity:1" d="M 280.919,750.629 263.392,750.629 z" id="boundary" inkscape:connector-curvature="0" />
	<path style="fill:none;stroke:red;stroke-width:1px;stroke-linecap:butt;stroke-linejoin:miter;stroke-opacity:1" d="M 296.693,741.866 314.219,741.866 z" id="boundary" inkscape:connector-curvature="0" />
	<path style="fill:none;stroke:red;stroke-width:1px;stroke-linecap:butt;stroke-linejoin:miter;stroke-opacity:1" d="M 363.293,715.576 347.519,724.339 z" id="boundary" inkscape:connector-curvature="0" />
	<path style="fill:none;stroke:red;stroke-width:1px;stroke-linecap:butt;stroke-linejoin:miter;stroke-opacity:1" d="M 347.519,724.339 329.993,724.339 z" id="boundary" inkscape:connector-curvature="0" />
	<path style="fill:none;stroke:red;stroke-width:1px;stroke-linecap:butt;stroke-linejoin:miter;stroke-opacity:1" d="M 314.219,741.866 329.993,724.339 z" id="boundary" inkscape:connector-curvature="0" />
	<path style="fill:none;stroke:red;stroke-width:1px;stroke-linecap:butt;stroke-linejoin:miter;stroke-opacity:1" d="M 363.293,715.576 372.057,731.35 z" id="boundary" inkscape:connector-curvature="0" />
	<path style="fill:none;stroke:red;stroke-width:1px;stroke-linecap:butt;stroke-linejoin:miter;stroke-opacity:1" d="M 372.057,731.35 375.562,748.876 z" id="boundary" inkscape:connector-curvature="0" />
	<path style="fill:none;stroke:red;stroke-width:1px;stroke-linecap:butt;stroke-linejoin:miter;stroke-opacity:1" d="M 375.562,748.876 393.088,755.887 z" id="boundary" inkscape:connector-curvature="0" />
	<path style="fill:none;stroke:red;stroke-width:1px;stroke-linecap:butt;stroke-linejoin:miter;stroke-opacity:1" d="M 393.088,755.887 398.346,773.413 z" id="boundary" inkscape:connector-curvature="0" />
	<path style="fill:none;stroke:red;stroke-width:1px;stroke-linecap:butt;stroke-linejoin:miter;stroke-opacity:1" d="M 412.367,785.682 398.346,773.413 z" id="boundary" inkscape:connector-curvature="0" />
	<path style="fill:none;stroke:red;stroke-width:1px;stroke-linecap:butt;stroke-linejoin:miter;stroke-opacity:1" d="M 412.367,785.682 415.873,803.208 z" id="boundary" inkscape:connector-curvature="0" />
	<path style="fill:none;stroke:red;stroke-width:1px;stroke-linecap:butt;stroke-linejoin:miter;stroke-opacity:1" d="M 415.873,803.208 398.346,815.477 z" id="boundary" inkscape:connector-curvature="0" />
	<path style="fill:none;stroke:red;stroke-width:1px;stroke-linecap:butt;stroke-linejoin:miter;stroke-opacity:1" d="M 398.346,833.004 398.346,815.477 z" id="boundary" inkscape:connector-curvature="0" />
	<path style="fill:none;stroke:red;stroke-width:1px;stroke-linecap:butt;stroke-linejoin:miter;stroke-opacity:1" d="M 398.346,833.004 408.862,847.025 z" id="boundary" inkscape:connector-curvature="0" />
	<path style="fill:none;stroke:red;stroke-width:1px;stroke-linecap:butt;stroke-linejoin:miter;stroke-opacity:1" d="M 408.862,847.025 415.873,864.551 z" id="boundary" inkscape:connector-curvature="0" />
	<path style="fill:none;stroke:red;stroke-width:1px;stroke-linecap:butt;stroke-linejoin:miter;stroke-opacity:1" d="M 415.873,864.551 421.131,882.078 z" id="boundary" inkscape:connector-curvature="0" />
	<path style="fill:none;stroke:red;stroke-width:1px;stroke-linecap:butt;stroke-linejoin:miter;stroke-opacity:1" d="M 421.131,882.078 433.399,896.099 z" id="boundary" inkscape:connector-curvature="0" />
	<path style="fill:none;stroke:red;stroke-width:1px;stroke-linecap:butt;stroke-linejoin:miter;stroke-opacity:1" d="M 433.399,896.099 433.399,913.625 z" id="boundary" inkscape:connector-curvature="0" />
	<path style="fill:none;stroke:red;stroke-width:1px;stroke-linecap:butt;stroke-linejoin:miter;stroke-opacity:1" d="M 433.399,913.625 433.399,931.152 z" id="boundary" inkscape:connector-curvature="0" />
	<path style="fill:none;stroke:red;stroke-width:1px;stroke-linecap:butt;stroke-linejoin:miter;stroke-opacity:1" d="M 433.399,931.152 442.163,946.926 z" id="boundary" inkscape:connector-curvature="0" />
	<path style="fill:none;stroke:red;stroke-width:1px;stroke-linecap:butt;stroke-linejoin:miter;stroke-opacity:1" d="M 450.926,962.7 442.163,946.926 z" id="boundary" inkscape:connector-curvature="0" />
	<path style="fill:none;stroke:red;stroke-width:1px;stroke-linecap:butt;stroke-linejoin:miter;stroke-opacity:1" d="M 450.926,962.7 450.926,980.226 z" id="boundary" inkscape:connector-curvature="0" />
	<path style="fill:none;stroke:red;stroke-width:1px;stroke-linecap:butt;stroke-linejoin:miter;stroke-opacity:1" d="M 450.926,980.226 468.452,987.237 z" id="boundary" inkscape:connector-curvature="0" />
	<path style="fill:none;stroke:red;stroke-width:1px;stroke-linecap:butt;stroke-linejoin:miter;stroke-opacity:1" d="M 468.452,987.237 484.226,996 z" id="boundary" inkscape:connector-curvature="0" />
	<path style="fill:none;stroke:red;stroke-width:1px;stroke-linecap:butt;stroke-linejoin:miter;stroke-opacity:1" d="M 470.205,47.8163 485.979,56.5795 z" id="boundary" inkscape:connector-curvature="0" />
	<path style="fill:none;stroke:red;stroke-width:1px;stroke-linecap:butt;stroke-linejoin:miter;stroke-opacity:1" d="M 559.59,4 577.117,4 z" id="boundary" inkscape:connector-curvature="0" />
	<path style="fill:none;stroke:red;stroke-width:1px;stroke-linecap:butt;stroke-linejoin:miter;stroke-opacity:1" d="M 577.117,4 592.89,12.7633 z" id="boundary" inkscape:connector-curvature="0" />
	<path style="fill:none;stroke:red;stroke-width:1px;stroke-linecap:butt;stroke-linejoin:miter;stroke-opacity:1" d="M 526.29,12.7633 543.816,12.7633 z" id="boundary" inkscape:connector-curvature="0" />
	<path style="fill:none;stroke:red;stroke-width:1px;stroke-linecap:butt;stroke-linejoin:miter;stroke-opacity:1" d="M 512.269,26.7845 526.29,12.7633 z" id="boundary" inkscape:connector-curvature="0" />
	<path style="fill:none;stroke:red;stroke-width:1px;stroke-linecap:butt;stroke-linejoin:miter;stroke-opacity:1" d="M 559.59,4 543.816,12.7633 z" id="boundary" inkscape:connector-curvature="0" />
	<path style="fill:none;stroke:red;stroke-width:1px;stroke-linecap:butt;stroke-linejoin:miter;stroke-opacity:1" d="M 610.417,12.7633 592.89,12.7633 z" id="boundary" inkscape:connector-curvature="0" />
	<path style="fill:none;stroke:red;stroke-width:1px;stroke-linecap:butt;stroke-linejoin:miter;stroke-opacity:1" d="M 717.329,4 734.855,4 z" id="boundary" inkscape:connector-curvature="0" />
	<path style="fill:none;stroke:red;stroke-width:1px;stroke-linecap:butt;stroke-linejoin:miter;stroke-opacity:1" d="M 734.855,4 750.629,12.7633 z" id="boundary" inkscape:connector-curvature="0" />
	<path style="fill:none;stroke:red;stroke-width:1px;stroke-linecap:butt;stroke-linejoin:miter;stroke-opacity:1" d="M 684.028,12.7633 701.555,12.7633 z" id="boundary" inkscape:connector-curvature="0" />
	<path style="fill:none;stroke:red;stroke-width:1px;stroke-linecap:butt;stroke-linejoin:miter;stroke-opacity:1" d="M 668.254,21.5265 684.028,12.7633 z" id="boundary" inkscape:connector-curvature="0" />
	<path style="fill:none;stroke:red;stroke-width:1px;stroke-linecap:butt;stroke-linejoin:miter;stroke-opacity:1" d="M 717.329,4 701.555,12.7633 z" id="boundary" inkscape:connector-curvature="0" />
	<path style="fill:none;stroke:red;stroke-width:1px;stroke-linecap:butt;stroke-linejoin:miter;stroke-opacity:1" d="M 768.155,12.7633 750.629,12.7633 z" id="boundary" inkscape:connector-curvature="0" />
	<path style="fill:none;stroke:red;stroke-width:1px;stroke-linecap:butt;stroke-linejoin:miter;stroke-opacity:1" d="M 627.943,18.0212 610.417,12.7633 z" id="boundary" inkscape:connector-curvature="0" />
	<path style="fill:none;stroke:red;stroke-width:1px;stroke-linecap:butt;stroke-linejoin:miter;stroke-opacity:1" d="M 627.943,18.0212 636.707,33.7951 z" id="boundary" inkscape:connector-curvature="0" />
	<path style="fill:none;stroke:red;stroke-width:1px;stroke-linecap:butt;stroke-linejoin:miter;stroke-opacity:1" d="M 650.728,21.5265 636.707,33.7951 z" id="boundary" inkscape:connector-curvature="0" />
	<path style="fill:none;stroke:red;stroke-width:1px;stroke-linecap:butt;stroke-linejoin:miter;stroke-opacity:1" d="M 485.979,56.5795 501.753,47.8163 z" id="boundary" inkscape:connector-curvature="0" />
	<path style="fill:none;stroke:red;stroke-width:1px;stroke-linecap:butt;stroke-linejoin:miter;stroke-opacity:1" d="M 501.753,47.8163 512.269,26.7845 z" id="boundary" inkscape:connector-curvature="0" />
	<path style="fill:none;stroke:red;stroke-width:1px;stroke-linecap:butt;stroke-linejoin:miter;stroke-opacity:1" d="M 650.728,21.5265 668.254,21.5265 z" id="boundary" inkscape:connector-curvature="0" />
	<path style="fill:none;stroke:red;stroke-width:1px;stroke-linecap:butt;stroke-linejoin:miter;stroke-opacity:1" d="M 768.155,12.7633 782.177,23.2792 z" id="boundary" inkscape:connector-curvature="0" />
	<path style="fill:none;stroke:red;stroke-width:1px;stroke-linecap:butt;stroke-linejoin:miter;stroke-opacity:1" d="M 782.177,23.2792 785.682,40.8057 z" id="boundary" inkscape:connector-curvature="0" />
	<path style="fill:none;stroke:red;stroke-width:1px;stroke-linecap:butt;stroke-linejoin:miter;stroke-opacity:1" d="M 785.682,40.8057 799.703,51.3216 z" id="boundary" inkscape:connector-curvature="0" />
	<path style="fill:none;stroke:red;stroke-width:1px;stroke-linecap:butt;stroke-linejoin:miter;stroke-opacity:1" d="M 799.703,51.3216 803.208,68.8481 z" id="boundary" inkscape:connector-curvature="0" />
	<path style="fill:none;stroke:red;stroke-width:1px;stroke-linecap:butt;stroke-linejoin:miter;stroke-opacity:1" d="M 818.982,77.6113 803.208,68.8481 z" id="boundary" inkscape:connector-curvature="0" />
	<path style="fill:none;stroke:red;stroke-width:1px;stroke-linecap:butt;stroke-linejoin:miter;stroke-opacity:1" d="M 818.982,77.6113 820.735,95.1378 z" id="boundary" inkscape:connector-curvature="0" />
	<path style="fill:none;stroke:red;stroke-width:1px;stroke-linecap:butt;stroke-linejoin:miter;stroke-opacity:1" d="M 836.509,103.901 820.735,95.1378 z" id="boundary" inkscape:connector-curvature="0" />
	<path style="fill:none;stroke:red;stroke-width:1px;stroke-linecap:butt;stroke-linejoin:miter;stroke-opacity:1" d="M 864.551,123.18 847.025,117.922 z" id="boundary" inkscape:connector-curvature="0" />
	<path style="fill:none;stroke:red;stroke-width:1px;stroke-linecap:butt;stroke-linejoin:miter;stroke-opacity:1" d="M 847.025,117.922 836.509,103.901 z" id="boundary" inkscape:connector-curvature="0" />
	<path style="fill:none;stroke:red;stroke-width:1px;stroke-linecap:butt;stroke-linejoin:miter;stroke-opacity:1" d="M 864.551,123.18 873.314,138.954 z" id="boundary" inkscape:connector-curvature="0" />
	<path style="fill:none;stroke:red;stroke-width:1px;stroke-linecap:butt;stroke-linejoin:miter;stroke-opacity:1" d="M 899.604,161.739 883.83,152.975 z" id="boundary" inkscape:connector-curvature="0" />
	<path style="fill:none;stroke:red;stroke-width:1px;stroke-linecap:butt;stroke-linejoin:miter;stroke-opacity:1" d="M 883.83,152.975 873.314,138.954 z" id="boundary" inkscape:connector-curvature="0" />
	<path style="fill:none;stroke:red;stroke-width:1px;stroke-linecap:butt;stroke-linejoin:miter;stroke-opacity:1" d="M 899.604,161.739 899.604,179.265 z" id="boundary" inkscape:connector-curvature="0" />
	<path style="fill:none;stroke:red;stroke-width:1px;stroke-linecap:butt;stroke-linejoin:miter;stroke-opacity:1" d="M 908.367,212.565 899.604,196.792 z" id="boundary" inkscape:connector-curvature="0" />
	<path style="fill:none;stroke:red;stroke-width:1px;stroke-linecap:butt;stroke-linejoin:miter;stroke-opacity:1" d="M 899.604,196.792 899.604,179.265 z" id="boundary" inkscape:connector-curvature="0" />
	<path style="fill:none;stroke:red;stroke-width:1px;stroke-linecap:butt;stroke-linejoin:miter;stroke-opacity:1" d="M 908.367,212.565 908.367,230.092 z" id="boundary" inkscape:connector-curvature="0" />
	<path style="fill:none;stroke:red;stroke-width:1px;stroke-linecap:butt;stroke-linejoin:miter;stroke-opacity:1" d="M 908.367,230.092 908.367,247.618 z" id="boundary" inkscape:connector-curvature="0" />
	<path style="fill:none;stroke:red;stroke-width:1px;stroke-linecap:butt;stroke-linejoin:miter;stroke-opacity:1" d="M 908.367,265.145 908.367,247.618 z" id="boundary" inkscape:connector-curvature="0" />
	<path style="fill:none;stroke:red;stroke-width:1px;stroke-linecap:butt;stroke-linejoin:miter;stroke-opacity:1" d="M 908.367,282.671 908.367,300.198 z" id="boundary" inkscape:connector-curvature="0" />
	<path style="fill:none;stroke:red;stroke-width:1px;stroke-linecap:butt;stroke-linejoin:miter;stroke-opacity:1" d="M 908.367,317.724 908.367,300.198 z" id="boundary" inkscape:connector-curvature="0" />
	<path style="fill:none;stroke:red;stroke-width:1px;stroke-linecap:butt;stroke-linejoin:miter;stroke-opacity:1" d="M 917.131,333.498 908.367,317.724 z" id="boundary" inkscape:connector-curvature="0" />
	<path style="fill:none;stroke:red;stroke-width:1px;stroke-linecap:butt;stroke-linejoin:miter;stroke-opacity:1" d="M 908.367,282.671 908.367,265.145 z" id="boundary" inkscape:connector-curvature="0" />
	<path style="fill:none;stroke:red;stroke-width:1px;stroke-linecap:butt;stroke-linejoin:miter;stroke-opacity:1" d="M 929.399,365.046 917.131,351.025 z" id="boundary" inkscape:connector-curvature="0" />
	<path style="fill:none;stroke:red;stroke-width:1px;stroke-linecap:butt;stroke-linejoin:miter;stroke-opacity:1" d="M 917.131,351.025 917.131,333.498 z" id="boundary" inkscape:connector-curvature="0" />
	<path style="fill:none;stroke:red;stroke-width:1px;stroke-linecap:butt;stroke-linejoin:miter;stroke-opacity:1" d="M 934.657,382.572 934.657,400.099 z" id="boundary" inkscape:connector-curvature="0" />
	<path style="fill:none;stroke:red;stroke-width:1px;stroke-linecap:butt;stroke-linejoin:miter;stroke-opacity:1" d="M 934.657,400.099 917.131,417.625 z" id="boundary" inkscape:connector-curvature="0" />
	<path style="fill:none;stroke:red;stroke-width:1px;stroke-linecap:butt;stroke-linejoin:miter;stroke-opacity:1" d="M 929.399,365.046 934.657,382.572 z" id="boundary" inkscape:connector-curvature="0" />
	<path style="fill:none;stroke:red;stroke-width:1px;stroke-linecap:butt;stroke-linejoin:miter;stroke-opacity:1" d="M 917.131,435.152 917.131,417.625 z" id="boundary" inkscape:connector-curvature="0" />
	<path style="fill:none;stroke:red;stroke-width:1px;stroke-linecap:butt;stroke-linejoin:miter;stroke-opacity:1" d="M 549.074,759.392 563.095,747.124 z" id="boundary" inkscape:connector-curvature="0" />
	<path style="fill:none;stroke:red;stroke-width:1px;stroke-linecap:butt;stroke-linejoin:miter;stroke-opacity:1" d="M 584.127,715.576 580.622,738.36 z" id="boundary" inkscape:connector-curvature="0" />
	<path style="fill:none;stroke:red;stroke-width:1px;stroke-linecap:butt;stroke-linejoin:miter;stroke-opacity:1" d="M 580.622,738.36 563.095,747.124 z" id="boundary" inkscape:connector-curvature="0" />
	<path style="fill:none;stroke:red;stroke-width:1px;stroke-linecap:butt;stroke-linejoin:miter;stroke-opacity:1" d="M 531.548,759.392 549.074,759.392 z" id="boundary" inkscape:connector-curvature="0" />
	<path style="fill:none;stroke:red;stroke-width:1px;stroke-linecap:butt;stroke-linejoin:miter;stroke-opacity:1" d="M 531.548,776.919 531.548,759.392 z" id="boundary" inkscape:connector-curvature="0" />
	<path style="fill:none;stroke:red;stroke-width:1px;stroke-linecap:butt;stroke-linejoin:miter;stroke-opacity:1" d="M 545.569,787.435 531.548,776.919 z" id="boundary" inkscape:connector-curvature="0" />
	<path style="fill:none;stroke:red;stroke-width:1px;stroke-linecap:butt;stroke-linejoin:miter;stroke-opacity:1" d="M 610.417,689.286 610.417,671.76 z" id="boundary" inkscape:connector-curvature="0" />
	<path style="fill:none;stroke:red;stroke-width:1px;stroke-linecap:butt;stroke-linejoin:miter;stroke-opacity:1" d="M 610.417,671.76 627.943,671.76 z" id="boundary" inkscape:connector-curvature="0" />
	<path style="fill:none;stroke:red;stroke-width:1px;stroke-linecap:butt;stroke-linejoin:miter;stroke-opacity:1" d="M 638.459,685.781 627.943,671.76 z" id="boundary" inkscape:connector-curvature="0" />
	<path style="fill:none;stroke:red;stroke-width:1px;stroke-linecap:butt;stroke-linejoin:miter;stroke-opacity:1" d="M 655.986,689.286 638.459,685.781 z" id="boundary" inkscape:connector-curvature="0" />
	<path style="fill:none;stroke:red;stroke-width:1px;stroke-linecap:butt;stroke-linejoin:miter;stroke-opacity:1" d="M 599.901,706.813 584.127,715.576 z" id="boundary" inkscape:connector-curvature="0" />
	<path style="fill:none;stroke:red;stroke-width:1px;stroke-linecap:butt;stroke-linejoin:miter;stroke-opacity:1" d="M 610.417,689.286 599.901,706.813 z" id="boundary" inkscape:connector-curvature="0" />
	<path style="fill:none;stroke:red;stroke-width:1px;stroke-linecap:butt;stroke-linejoin:miter;stroke-opacity:1" d="M 549.074,882.078 549.074,899.604 z" id="boundary" inkscape:connector-curvature="0" />
	<path style="fill:none;stroke:red;stroke-width:1px;stroke-linecap:butt;stroke-linejoin:miter;stroke-opacity:1" d="M 538.558,943.42 522.784,952.184 z" id="boundary" inkscape:connector-curvature="0" />
	<path style="fill:none;stroke:red;stroke-width:1px;stroke-linecap:butt;stroke-linejoin:miter;stroke-opacity:1" d="M 549.074,917.131 538.558,943.42 z" id="boundary" inkscape:connector-curvature="0" />
	<path style="fill:none;stroke:red;stroke-width:1px;stroke-linecap:butt;stroke-linejoin:miter;stroke-opacity:1" d="M 517.527,985.484 501.753,996 z" id="boundary" inkscape:connector-curvature="0" />
	<path style="fill:none;stroke:red;stroke-width:1px;stroke-linecap:butt;stroke-linejoin:miter;stroke-opacity:1" d="M 501.753,996 484.226,996 z" id="boundary" inkscape:connector-curvature="0" />
	<path style="fill:none;stroke:red;stroke-width:1px;stroke-linecap:butt;stroke-linejoin:miter;stroke-opacity:1" d="M 522.784,952.184 517.527,985.484 z" id="boundary" inkscape:connector-curvature="0" />
	<path style="fill:none;stroke:red;stroke-width:1px;stroke-linecap:butt;stroke-linejoin:miter;stroke-opacity:1" d="M 557.837,801.456 566.601,817.23 z" id="boundary" inkscape:connector-curvature="0" />
	<path style="fill:none;stroke:red;stroke-width:1px;stroke-linecap:butt;stroke-linejoin:miter;stroke-opacity:1" d="M 566.601,817.23 557.837,847.025 z" id="boundary" inkscape:connector-curvature="0" />
	<path style="fill:none;stroke:red;stroke-width:1px;stroke-linecap:butt;stroke-linejoin:miter;stroke-opacity:1" d="M 557.837,864.551 557.837,847.025 z" id="boundary" inkscape:connector-curvature="0" />
	<path style="fill:none;stroke:red;stroke-width:1px;stroke-linecap:butt;stroke-linejoin:miter;stroke-opacity:1" d="M 557.837,864.551 549.074,882.078 z" id="boundary" inkscape:connector-curvature="0" />
	<path style="fill:none;stroke:red;stroke-width:1px;stroke-linecap:butt;stroke-linejoin:miter;stroke-opacity:1" d="M 549.074,917.131 549.074,899.604 z" id="boundary" inkscape:connector-curvature="0" />
	<path style="fill:none;stroke:red;stroke-width:1px;stroke-linecap:butt;stroke-linejoin:miter;stroke-opacity:1" d="M 545.569,787.435 557.837,801.456 z" id="boundary" inkscape:connector-curvature="0" />
	<path style="fill:none;stroke:red;stroke-width:1px;stroke-linecap:butt;stroke-linejoin:miter;stroke-opacity:1" d="M 820.735,549.074 803.208,549.074 z" id="boundary" inkscape:connector-curvature="0" />
	<path style="fill:none;stroke:red;stroke-width:1px;stroke-linecap:butt;stroke-linejoin:miter;stroke-opacity:1" d="M 829.498,531.548 820.735,549.074 z" id="boundary" inkscape:connector-curvature="0" />
	<path style="fill:none;stroke:red;stroke-width:1px;stroke-linecap:butt;stroke-linejoin:miter;stroke-opacity:1" d="M 847.025,531.548 829.498,531.548 z" id="boundary" inkscape:connector-curvature="0" />
	<path style="fill:none;stroke:red;stroke-width:1px;stroke-linecap:butt;stroke-linejoin:miter;stroke-opacity:1" d="M 861.046,519.279 847.025,531.548 z" id="boundary" inkscape:connector-curvature="0" />
	<path style="fill:none;stroke:red;stroke-width:1px;stroke-linecap:butt;stroke-linejoin:miter;stroke-opacity:1" d="M 803.208,584.127 803.208,566.601 z" id="boundary" inkscape:connector-curvature="0" />
	<path style="fill:none;stroke:red;stroke-width:1px;stroke-linecap:butt;stroke-linejoin:miter;stroke-opacity:1" d="M 803.208,566.601 803.208,549.074 z" id="boundary" inkscape:connector-curvature="0" />
	<path style="fill:none;stroke:red;stroke-width:1px;stroke-linecap:butt;stroke-linejoin:miter;stroke-opacity:1" d="M 803.208,584.127 785.682,592.89 z" id="boundary" inkscape:connector-curvature="0" />
	<path style="fill:none;stroke:red;stroke-width:1px;stroke-linecap:butt;stroke-linejoin:miter;stroke-opacity:1" d="M 904.862,484.226 908.367,452.678 z" id="boundary" inkscape:connector-curvature="0" />
	<path style="fill:none;stroke:red;stroke-width:1px;stroke-linecap:butt;stroke-linejoin:miter;stroke-opacity:1" d="M 908.367,452.678 917.131,435.152 z" id="boundary" inkscape:connector-curvature="0" />
	<path style="fill:none;stroke:red;stroke-width:1px;stroke-linecap:butt;stroke-linejoin:miter;stroke-opacity:1" d="M 861.046,519.279 873.314,496.495 z" id="boundary" inkscape:connector-curvature="0" />
	<path style="fill:none;stroke:red;stroke-width:1px;stroke-linecap:butt;stroke-linejoin:miter;stroke-opacity:1" d="M 873.314,496.495 890.841,496.495 z" id="boundary" inkscape:connector-curvature="0" />
	<path style="fill:none;stroke:red;stroke-width:1px;stroke-linecap:butt;stroke-linejoin:miter;stroke-opacity:1" d="M 904.862,484.226 890.841,496.495 z" id="boundary" inkscape:connector-curvature="0" />
	<path style="fill:none;stroke:red;stroke-width:1px;stroke-linecap:butt;stroke-linejoin:miter;stroke-opacity:1" d="M 724.339,689.286 706.813,689.286 z" id="boundary" inkscape:connector-curvature="0" />
	<path style="fill:none;stroke:red;stroke-width:1px;stroke-linecap:butt;stroke-linejoin:miter;stroke-opacity:1" d="M 741.866,671.76 724.339,689.286 z" id="boundary" inkscape:connector-curvature="0" />
	<path style="fill:none;stroke:red;stroke-width:1px;stroke-linecap:butt;stroke-linejoin:miter;stroke-opacity:1" d="M 699.802,706.813 706.813,689.286 z" id="boundary" inkscape:connector-curvature="0" />
	<path style="fill:none;stroke:red;stroke-width:1px;stroke-linecap:butt;stroke-linejoin:miter;stroke-opacity:1" d="M 682.276,706.813 664.749,705.06 z" id="boundary" inkscape:connector-curvature="0" />
	<path style="fill:none;stroke:red;stroke-width:1px;stroke-linecap:butt;stroke-linejoin:miter;stroke-opacity:1" d="M 664.749,705.06 655.986,689.286 z" id="boundary" inkscape:connector-curvature="0" />
	<path style="fill:none;stroke:red;stroke-width:1px;stroke-linecap:butt;stroke-linejoin:miter;stroke-opacity:1" d="M 699.802,706.813 682.276,706.813 z" id="boundary" inkscape:connector-curvature="0" />
	<path style="fill:none;stroke:red;stroke-width:1px;stroke-linecap:butt;stroke-linejoin:miter;stroke-opacity:1" d="M 785.682,592.89 785.682,610.417 z" id="boundary" inkscape:connector-curvature="0" />
	<path style="fill:none;stroke:red;stroke-width:1px;stroke-linecap:butt;stroke-linejoin:miter;stroke-opacity:1" d="M 785.682,610.417 776.919,627.943 z" id="boundary" inkscape:connector-curvature="0" />
	<path style="fill:none;stroke:red;stroke-width:1px;stroke-linecap:butt;stroke-linejoin:miter;stroke-opacity:1" d="M 776.919,627.943 766.403,645.47 z" id="boundary" inkscape:connector-curvature="0" />
	<path style="fill:none;stroke:red;stroke-width:1px;stroke-linecap:butt;stroke-linejoin:miter;stroke-opacity:1" d="M 766.403,645.47 755.887,659.491 z" id="boundary" inkscape:connector-curvature="0" />
	<path style="fill:none;stroke:red;stroke-width:1px;stroke-linecap:butt;stroke-linejoin:miter;stroke-opacity:1" d="M 755.887,659.491 741.866,671.76 z" id="boundary" inkscape:connector-curvature="0" />
	<circle cx="4" cy="359.788" r="4" fill="#0" id="circle0"/>
	<circle cx="4" cy="377.314" r="4" fill="#0" id="circle1"/>
	<circle cx="4" cy="394.841" r="4" fill="#0" id="circle2"/>
	<circle cx="14.5159" cy="408.862" r="4" fill="#0" id="circle3"/>
	<circle cx="21.5265" cy="324.735" r="4" fill="#0" id="circle4"/>
	<circle cx="21.5265" cy="342.261" r="4" fill="#0" id="circle5"/>
	<circle cx="21.5265" cy="426.389" r="4" fill="#0" id="circle6"/>
	<circle cx="30.2898" cy="298.445" r="4" fill="#0" id="circle7"/>
	<circle cx="30.2898" cy="456.184" r="4" fill="#0" id="circle8"/>
	<circle cx="30.2898" cy="491.237" r="4" fill="#0" id="circle9"/>
	<circle cx="30.2898" cy="508.763" r="4" fill="#0" id="circle10"/>
	<circle cx="30.2898" cy="526.29" r="4" fill="#0" id="circle11"/>
	<circle cx="30.2898" cy="543.816" r="4" fill="#0" id="circle12"/>
	<circle cx="30.2898" cy="561.343" r="4" fill="#0" id="circle13"/>
	<circle cx="40.8057" cy="470.205" r="4" fill="#0" id="circle14"/>
	<circle cx="47.8163" cy="293.187" r="4" fill="#0" id="circle15"/>
	<circle cx="47.8163" cy="566.601" r="4" fill="#0" id="circle16"/>
	<circle cx="47.8163" cy="584.127" r="4" fill="#0" id="circle17"/>
	<circle cx="56.5795" cy="272.155" r="4" fill="#0" id="circle18"/>
	<circle cx="56.5795" cy="599.901" r="4" fill="#0" id="circle19"/>
	<circle cx="56.5795" cy="617.428" r="4" fill="#0" id="circle20"/>
	<circle cx="65.3428" cy="254.629" r="4" fill="#0" id="circle21"/>
	<circle cx="70.6007" cy="627.943" r="4" fill="#0" id="circle22"/>
	<circle cx="82.8693" cy="219.576" r="4" fill="#0" id="circle23"/>
	<circle cx="82.8693" cy="237.102" r="4" fill="#0" id="circle24"/>
	<circle cx="88.1272" cy="634.954" r="4" fill="#0" id="circle25"/>
	<circle cx="91.6325" cy="175.76" r="4" fill="#0" id="circle26"/>
	<circle cx="91.6325" cy="193.286" r="4" fill="#0" id="circle27"/>
	<circle cx="100.396" cy="158.233" r="4" fill="#0" id="circle28"/>
	<circle cx="103.901" cy="643.717" r="4" fill="#0" id="circle29"/>
	<circle cx="117.922" cy="152.975" r="4" fill="#0" id="circle30"/>
	<circle cx="121.428" cy="645.47" r="4" fill="#0" id="circle31"/>
	<circle cx="126.686" cy="131.943" r="4" fill="#0" id="circle32"/>
	<circle cx="138.954" cy="645.47" r="4" fill="#0" id="circle33"/>
	<circle cx="140.707" cy="117.922" r="4" fill="#0" id="circle34"/>
	<circle cx="144.212" cy="662.996" r="4" fill="#0" id="circle35"/>
	<circle cx="149.47" cy="100.396" r="4" fill="#0" id="circle36"/>
	<circle cx="159.986" cy="671.76" r="4" fill="#0" id="circle37"/>
	<circle cx="166.996" cy="100.396" r="4" fill="#0" id="circle38"/>
	<circle cx="166.996" cy="689.286" r="4" fill="#0" id="circle39"/>
	<circle cx="170.502" cy="706.813" r="4" fill="#0" id="circle40"/>
	<circle cx="181.018" cy="720.834" r="4" fill="#0" id="circle41"/>
	<circle cx="182.77" cy="91.6325" r="4" fill="#0" id="circle42"/>
	<circle cx="196.792" cy="79.364" r="4" fill="#0" id="circle43"/>
	<circle cx="198.544" cy="724.339" r="4" fill="#0" id="circle44"/>
	<circle cx="214.318" cy="74.106" r="4" fill="#0" id="circle45"/>
	<circle cx="214.318" cy="733.102" r="4" fill="#0" id="circle46"/>
	<circle cx="230.092" cy="741.866" r="4" fill="#0" id="circle47"/>
	<circle cx="231.845" cy="74.106" r="4" fill="#0" id="circle48"/>
	<circle cx="247.618" cy="741.866" r="4" fill="#0" id="circle49"/>
	<circle cx="249.371" cy="74.106" r="4" fill="#0" id="circle50"/>
	<circle cx="263.392" cy="750.629" r="4" fill="#0" id="circle51"/>
	<circle cx="266.898" cy="74.106" r="4" fill="#0" id="circle52"/>
	<circle cx="277.413" cy="88.1272" r="4" fill="#0" id="circle53"/>
	<circle cx="280.919" cy="750.629" r="4" fill="#0" id="circle54"/>
	<circle cx="294.94" cy="91.6325" r="4" fill="#0" id="circle55"/>
	<circle cx="296.693" cy="741.866" r="4" fill="#0" id="circle56"/>
	<circle cx="312.466" cy="91.6325" r="4" fill="#0" id="circle57"/>
	<circle cx="314.219" cy="741.866" r="4" fill="#0" id="circle58"/>
	<circle cx="322.982" cy="75.8587" r="4" fill="#0" id="circle59"/>
	<circle cx="329.993" cy="724.339" r="4" fill="#0" id="circle60"/>
	<circle cx="331.746" cy="58.3322" r="4" fill="#0" id="circle61"/>
	<circle cx="345.767" cy="47.8163" r="4" fill="#0" id="circle62"/>
	<circle cx="347.519" cy="724.339" r="4" fill="#0" id="circle63"/>
	<circle cx="361.541" cy="39.053" r="4" fill="#0" id="circle64"/>
	<circle cx="363.293" cy="715.576" r="4" fill="#0" id="circle65"/>
	<circle cx="372.057" cy="731.35" r="4" fill="#0" id="circle66"/>
	<circle cx="373.809" cy="25.0318" r="4" fill="#0" id="circle67"/>
	<circle cx="375.562" cy="748.876" r="4" fill="#0" id="circle68"/>
	<circle cx="391.336" cy="21.5265" r="4" fill="#0" id="circle69"/>
	<circle cx="393.088" cy="755.887" r="4" fill="#0" id="circle70"/>
	<circle cx="398.346" cy="773.413" r="4" fill="#0" id="circle71"/>
	<circle cx="398.346" cy="815.477" r="4" fill="#0" id="circle72"/>
	<circle cx="398.346" cy="833.004" r="4" fill="#0" id="circle73"/>
	<circle cx="408.862" cy="21.5265" r="4" fill="#0" id="circle74"/>
	<circle cx="408.862" cy="847.025" r="4" fill="#0" id="circle75"/>
	<circle cx="412.367" cy="785.682" r="4" fill="#0" id="circle76"/>
	<circle cx="415.873" cy="803.208" r="4" fill="#0" id="circle77"/>
	<circle cx="415.873" cy="864.551" r="4" fill="#0" id="circle78"/>
	<circle cx="421.131" cy="882.078" r="4" fill="#0" id="circle79"/>
	<circle cx="426.389" cy="21.5265" r="4" fill="#0" id="circle80"/>
	<circle cx="433.399" cy="896.099" r="4" fill="#0" id="circle81"/>
	<circle cx="433.399" cy="913.625" r="4" fill="#0" id="circle82"/>
	<circle cx="433.399" cy="931.152" r="4" fill="#0" id="circle83"/>
	<circle cx="435.152" cy="37.3004" r="4" fill="#0" id="circle84"/>
	<circle cx="442.163" cy="946.926" r="4" fill="#0" id="circle85"/>
	<circle cx="450.926" cy="962.7" r="4" fill="#0" id="circle86"/>
	<circle cx="450.926" cy="980.226" r="4" fill="#0" id="circle87"/>
	<circle cx="452.678" cy="44.311" r="4" fill="#0" id="circle88"/>
	<circle cx="468.452" cy="987.237" r="4" fill="#0" id="circle89"/>
	<circle cx="470.205" cy="47.8163" r="4" fill="#0" id="circle90"/>
	<circle cx="484.226" cy="996" r="4" fill="#0" id="circle91"/>
	<circle cx="485.979" cy="56.5795" r="4" fill="#0" id="circle92"/>
	<circle cx="501.753" cy="47.8163" r="4" fill="#0" id="circle93"/>
	<circle cx="501.753" cy="996" r="4" fill="#0" id="circle94"/>
	<circle cx="512.269" cy="26.7845" r="4" fill="#0" id="circle95"/>
	<circle cx="517.527" cy="985.484" r="4" fill="#0" id="circle96"/>
	<circle cx="522.784" cy="952.184" r="4" fill="#0" id="circle97"/>
	<circle cx="526.29" cy="12.7633" r="4" fill="#0" id="circle98"/>
	<circle cx="531.548" cy="759.392" r="4" fill="#0" id="circle99"/>
	<circle cx="531.548" cy="776.919" r="4" fill="#0" id="circle100"/>
	<circle cx="538.558" cy="943.42" r="4" fill="#0" id="circle101"/>
	<circle cx="543.816" cy="12.7633" r="4" fill="#0" id="circle102"/>
	<circle cx="545.569" cy="787.435" r="4" fill="#0" id="circle103"/>
	<circle cx="549.074" cy="759.392" r="4" fill="#0" id="circle104"/>
	<circle cx="549.074" cy="882.078" r="4" fill="#0" id="circle105"/>
	<circle cx="549.074" cy="899.604" r="4" fill="#0" id="circle106"/>
	<circle cx="549.074" cy="917.131" r="4" fill="#0" id="circle107"/>
	<circle cx="557.837" cy="801.456" r="4" fill="#0" id="circle108"/>
	<circle cx="557.837" cy="847.025" r="4" fill="#0" id="circle109"/>
	<circle cx="557.837" cy="864.551" r="4" fill="#0" id="circle110"/>
	<circle cx="559.59" cy="4" r="4" fill="#0" id="circle111"/>
	<circle cx="563.095" cy="747.124" r="4" fill="#0" id="circle112"/>
	<circle cx="566.601" cy="817.23" r="4" fill="#0" id="circle113"/>
	<circle cx="577.117" cy="4" r="4" fill="#0" id="circle114"/>
	<circle cx="580.622" cy="738.36" r="4" fill="#0" id="circle115"/>
	<circle cx="584.127" cy="715.576" r="4" fill="#0" id="circle116"/>
	<circle cx="592.89" cy="12.7633" r="4" fill="#0" id="circle117"/>
	<circle cx="599.901" cy="706.813" r="4" fill="#0" id="circle118"/>
	<circle cx="610.417" cy="12.7633" r="4" fill="#0" id="circle119"/>
	<circle cx="610.417" cy="671.76" r="4" fill="#0" id="circle120"/>
	<circle cx="610.417" cy="689.286" r="4" fill="#0" id="circle121"/>
	<circle cx="627.943" cy="18.0212" r="4" fill="#0" id="circle122"/>
	<circle cx="627.943" cy="671.76" r="4" fill="#0" id="circle123"/>
	<circle cx="636.707" cy="33.7951" r="4" fill="#0" id="circle124"/>
	<circle cx="638.459" cy="685.781" r="4" fill="#0" id="circle125"/>
	<circle cx="650.728" cy="21.5265" r="4" fill="#0" id="circle126"/>
	<circle cx="655.986" cy="689.286" r="4" fill="#0" id="circle127"/>
	<circle cx="664.749" cy="705.06" r="4" fill="#0" id="circle128"/>
	<circle cx="668.254" cy="21.5265" r="4" fill="#0" id="circle129"/>
	<circle cx="682.276" cy="706.813" r="4" fill="#0" id="circle130"/>
	<circle cx="684.028" cy="12.7633" r="4" fill="#0" id="circle131"/>
	<circle cx="699.802" cy="706.813" r="4" fill="#0" id="circle132"/>
	<circle cx="701.555" cy="12.7633" r="4" fill="#0" id="circle133"/>
	<circle cx="706.813" cy="689.286" r="4" fill="#0" id="circle134"/>
	<circle cx="717.329" cy="4" r="4" fill="#0" id="circle135"/>
	<circle cx="724.339" cy="689.286" r="4" fill="#0" id="circle136"/>
	<circle cx="734.855" cy="4" r="4" fill="#0" id="circle137"/>
	<circle cx="741.866" cy="671.76" r="4" fill="#0" id="circle138"/>
	<circle cx="750.629" cy="12.7633" r="4" fill="#0" id="circle139"/>
	<circle cx="755.887" cy="659.491" r="4" fill="#0" id="circle140"/>
	<circle cx="766.403" cy="645.47" r="4" fill="#0" id="circle141"/>
	<circle cx="768.155" cy="12.7633" r="4" fill="#0" id="circle142"/>
	<circle cx="776.919" cy="627.943" r="4" fill="#0" id="circle143"/>
	<circle cx="782.177" cy="23.2792" r="4" fill="#0" id="circle144"/>
	<circle cx="785.682" cy="40.8057" r="4" fill="#0" id="circle145"/>
	<circle cx="785.682" cy="592.89" r="4" fill="#0" id="circle146"/>
	<circle cx="785.682" cy="610.417" r="4" fill="#0" id="circle147"/>
	<circle cx="799.703" cy="51.3216" r="4" fill="#0" id="circle148"/>
	<circle cx="803.208" cy="68.8481" r="4" fill="#0" id="circle149"/>
	<circle cx="803.208" cy="549.074" r="4" fill="#0" id="circle150"/>
	<circle cx="803.208" cy="566.601" r="4" fill="#0" id="circle151"/>
	<circle cx="803.208" cy="584.127" r="4" fill="#0" id="circle152"/>
	<circle cx="818.982" cy="77.6113" r="4" fill="#0" id="circle153"/>
	<circle cx="820.735" cy="95.1378" r="4" fill="#0" id="circle154"/>
	<circle cx="820.735" cy="549.074" r="4" fill="#0" id="circle155"/>
	<circle cx="829.498" cy="531.548" r="4" fill="#0" id="circle156"/>
	<circle cx="836.509" cy="103.901" r="4" fill="#0" id="circle157"/>
	<circle cx="847.025" cy="117.922" r="4" fill="#0" id="circle158"/>
	<circle cx="847.025" cy="531.548" r="4" fill="#0" id="circle159"/>
	<circle cx="861.046" cy="519.279" r="4" fill="#0" id="circle160"/>
	<circle cx="864.551" cy="123.18" r="4" fill="#0" id="circle161"/>
	<circle cx="873.314" cy="138.954" r="4" fill="#0" id="circle162"/>
	<circle cx="873.314" cy="496.495" r="4" fill="#0" id="circle163"/>
	<circle cx="883.83" cy="152.975" r="4" fill="#0" id="circle164"/>
	<circle cx="890.841" cy="496.495" r="4" fill="#0" id="circle165"/>
	<circle cx="899.604" cy="161.739" r="4" fill="#0" id="circle166"/>
	<circle cx="899.604" cy="179.265" r="4" fill="#0" id="circle167"/>
	<circle cx="899.604" cy="196.792" r="4" fill="#0" id="circle168"/>
	<circle cx="904.862" cy="484.226" r="4" fill="#0" id="circle169"/>
	<circle cx="908.367" cy="212.565" r="4" fill="#0" id="circle170"/>
	<circle cx="908.367" cy="230.092" r="4" fill="#0" id="circle171"/>
	<circle cx="908.367" cy="247.618" r="4" fill="#0" id="circle172"/>
	<circle cx="908.367" cy="265.145" r="4" fill="#0" id="circle173"/>
	<circle cx="908.367" cy="282.671" r="4" fill="#0" id="circle174"/>
	<circle cx="908.367" cy="300.198" r="4" fill="#0" id="circle175"/>
	<circle cx="908.367" cy="317.724" r="4" fill="#0" id="circle176"/>
	<circle cx="908.367" cy="452.678" r="4" fill="#0" id="circle177"/>
	<circle cx="917.131" cy="333.498" r="4" fill="#0" id="circle178"/>
	<circle cx="917.131" cy="351.025" r="4" fill="#0" id="circle179"/>
	<circle cx="917.131" cy="417.625" r="4" fill="#0" id="circle180"/>
	<circle cx="917.131" cy="435.152" r="4" fill="#0" id="circle181"/>
	<circle cx="929.399" cy="365.046" r="4" fill="#0" id="circle182"/>
	<circle cx="934.657" cy="382.572" r="4" fill="#0" id="circle183"/>
	<circle cx="934.657" cy="400.099" r="4" fill="#0" id="circle184"/>
	</g>
</svg>