<?xml version="1.0" encoding="UTF-8" standalone="no"?>
<!-- Created with CurveBenchmark -->
<svg
	xmlns:dc="http://purl.org/dc/elements/1.1/"
	xmlns:cc="http://creativecommons.org/ns#"
	xmlns:rdf="http://www.w3.org/1999/02/22-rdf-syntax-ns#"
	xmlns:svg="http://www.w3.org/2000/svg"
	xmlns="http://www.w3.org/2000/svg"
	xmlns:sodipodi="http://sodipodi.sourceforge.net/DTD/sodipodi-0.dtd"
	xmlns:inkscape="http://www.inkscape.org/namespaces/inkscape"
	width="1000"
	height="1000"
	id="svg2"
	version="1.1"
	sodipodi:docname="manifold/ccrust-handbent1.png.txt">
<defs
	id="defs4" />
<metadata
	id="metadata7">
	<rdf:RDF>
		<cc:Work
			rdf:about="">
			<dc:format>image/svg+xml</dc:format>
			<dc:type
				rdf:resource="http://purl.org/dc/dcmitype/StillImage" />
			<dc:title></dc:title>
		</cc:Work>
	</rdf:RDF>
</metadata>
<g
	inkscape:label="Layer 1"
	inkscape:groupmode="layer"
	id="layer1">
	<path style="fill:none;stroke:red;stroke-width:1px;stroke-linecap:butt;stroke-linejoin:miter;stroke-opacity:1" d="M 213.351,81.2987 213.351,97.4026 z" id="boundary" inkscape:connector-curvature="0" />
	<path style="fill:none;stroke:red;stroke-width:1px;stroke-linecap:butt;stroke-linejoin:miter;stroke-opacity:1" d="M 213.351,81.2987 226.234,68.4156 z" id="boundary" inkscape:connector-curvature="0" />
	<path style="fill:none;stroke:red;stroke-width:1px;stroke-linecap:butt;stroke-linejoin:miter;stroke-opacity:1" d="M 213.351,113.506 213.351,129.61 z" id="boundary" inkscape:connector-curvature="0" />
	<path style="fill:none;stroke:red;stroke-width:1px;stroke-linecap:butt;stroke-linejoin:miter;stroke-opacity:1" d="M 213.351,113.506 213.351,97.4026 z" id="boundary" inkscape:connector-curvature="0" />
	<path style="fill:none;stroke:red;stroke-width:1px;stroke-linecap:butt;stroke-linejoin:miter;stroke-opacity:1" d="M 28.1558,237.506 42.6494,229.455 z" id="boundary" inkscape:connector-curvature="0" />
	<path style="fill:none;stroke:red;stroke-width:1px;stroke-linecap:butt;stroke-linejoin:miter;stroke-opacity:1" d="M 42.6494,229.455 58.7532,229.455 z" id="boundary" inkscape:connector-curvature="0" />
	<path style="fill:none;stroke:red;stroke-width:1px;stroke-linecap:butt;stroke-linejoin:miter;stroke-opacity:1" d="M 74.8571,231.065 58.7532,229.455 z" id="boundary" inkscape:connector-curvature="0" />
	<path style="fill:none;stroke:red;stroke-width:1px;stroke-linecap:butt;stroke-linejoin:miter;stroke-opacity:1" d="M 213.351,145.714 213.351,161.818 z" id="boundary" inkscape:connector-curvature="0" />
	<path style="fill:none;stroke:red;stroke-width:1px;stroke-linecap:butt;stroke-linejoin:miter;stroke-opacity:1" d="M 213.351,129.61 213.351,145.714 z" id="boundary" inkscape:connector-curvature="0" />
	<path style="fill:none;stroke:red;stroke-width:1px;stroke-linecap:butt;stroke-linejoin:miter;stroke-opacity:1" d="M 74.8571,231.065 86.1299,243.948 z" id="boundary" inkscape:connector-curvature="0" />
	<path style="fill:none;stroke:red;stroke-width:1px;stroke-linecap:butt;stroke-linejoin:miter;stroke-opacity:1" d="M 240.727,60.3636 256.831,60.3636 z" id="boundary" inkscape:connector-curvature="0" />
	<path style="fill:none;stroke:red;stroke-width:1px;stroke-linecap:butt;stroke-linejoin:miter;stroke-opacity:1" d="M 226.234,68.4156 240.727,60.3636 z" id="boundary" inkscape:connector-curvature="0" />
	<path style="fill:none;stroke:red;stroke-width:1px;stroke-linecap:butt;stroke-linejoin:miter;stroke-opacity:1" d="M 387.273,4 374.39,16.8831 z" id="boundary" inkscape:connector-curvature="0" />
	<path style="fill:none;stroke:red;stroke-width:1px;stroke-linecap:butt;stroke-linejoin:miter;stroke-opacity:1" d="M 272.935,60.3636 256.831,60.3636 z" id="boundary" inkscape:connector-curvature="0" />
	<path style="fill:none;stroke:red;stroke-width:1px;stroke-linecap:butt;stroke-linejoin:miter;stroke-opacity:1" d="M 213.351,177.922 213.351,161.818 z" id="boundary" inkscape:connector-curvature="0" />
	<path style="fill:none;stroke:red;stroke-width:1px;stroke-linecap:butt;stroke-linejoin:miter;stroke-opacity:1" d="M 213.351,177.922 213.351,194.026 z" id="boundary" inkscape:connector-curvature="0" />
	<path style="fill:none;stroke:red;stroke-width:1px;stroke-linecap:butt;stroke-linejoin:miter;stroke-opacity:1" d="M 213.351,194.026 213.351,210.13 z" id="boundary" inkscape:connector-curvature="0" />
	<path style="fill:none;stroke:red;stroke-width:1px;stroke-linecap:butt;stroke-linejoin:miter;stroke-opacity:1" d="M 221.403,224.623 213.351,210.13 z" id="boundary" inkscape:connector-curvature="0" />
	<path style="fill:none;stroke:red;stroke-width:1px;stroke-linecap:butt;stroke-linejoin:miter;stroke-opacity:1" d="M 229.455,239.117 221.403,224.623 z" id="boundary" inkscape:connector-curvature="0" />
	<path style="fill:none;stroke:red;stroke-width:1px;stroke-linecap:butt;stroke-linejoin:miter;stroke-opacity:1" d="M 229.455,255.221 229.455,239.117 z" id="boundary" inkscape:connector-curvature="0" />
	<path style="fill:none;stroke:red;stroke-width:1px;stroke-linecap:butt;stroke-linejoin:miter;stroke-opacity:1" d="M 28.1558,237.506 12.0519,242.338 z" id="boundary" inkscape:connector-curvature="0" />
	<path style="fill:none;stroke:red;stroke-width:1px;stroke-linecap:butt;stroke-linejoin:miter;stroke-opacity:1" d="M 4,258.442 12.0519,242.338 z" id="boundary" inkscape:connector-curvature="0" />
	<path style="fill:none;stroke:red;stroke-width:1px;stroke-linecap:butt;stroke-linejoin:miter;stroke-opacity:1" d="M 4,274.545 4,258.442 z" id="boundary" inkscape:connector-curvature="0" />
	<path style="fill:none;stroke:red;stroke-width:1px;stroke-linecap:butt;stroke-linejoin:miter;stroke-opacity:1" d="M 99.013,255.221 86.1299,243.948 z" id="boundary" inkscape:connector-curvature="0" />
	<path style="fill:none;stroke:red;stroke-width:1px;stroke-linecap:butt;stroke-linejoin:miter;stroke-opacity:1" d="M 4,290.649 4,274.545 z" id="boundary" inkscape:connector-curvature="0" />
	<path style="fill:none;stroke:red;stroke-width:1px;stroke-linecap:butt;stroke-linejoin:miter;stroke-opacity:1" d="M 12.0519,305.143 4,290.649 z" id="boundary" inkscape:connector-curvature="0" />
	<path style="fill:none;stroke:red;stroke-width:1px;stroke-linecap:butt;stroke-linejoin:miter;stroke-opacity:1" d="M 20.1039,335.74 12.0519,321.247 z" id="boundary" inkscape:connector-curvature="0" />
	<path style="fill:none;stroke:red;stroke-width:1px;stroke-linecap:butt;stroke-linejoin:miter;stroke-opacity:1" d="M 12.0519,321.247 12.0519,305.143 z" id="boundary" inkscape:connector-curvature="0" />
	<path style="fill:none;stroke:red;stroke-width:1px;stroke-linecap:butt;stroke-linejoin:miter;stroke-opacity:1" d="M 20.1039,335.74 20.1039,351.844 z" id="boundary" inkscape:connector-curvature="0" />
	<path style="fill:none;stroke:red;stroke-width:1px;stroke-linecap:butt;stroke-linejoin:miter;stroke-opacity:1" d="M 99.013,255.221 105.455,271.325 z" id="boundary" inkscape:connector-curvature="0" />
	<path style="fill:none;stroke:red;stroke-width:1px;stroke-linecap:butt;stroke-linejoin:miter;stroke-opacity:1" d="M 105.455,271.325 110.286,287.429 z" id="boundary" inkscape:connector-curvature="0" />
	<path style="fill:none;stroke:red;stroke-width:1px;stroke-linecap:butt;stroke-linejoin:miter;stroke-opacity:1" d="M 229.455,255.221 229.455,271.325 z" id="boundary" inkscape:connector-curvature="0" />
	<path style="fill:none;stroke:red;stroke-width:1px;stroke-linecap:butt;stroke-linejoin:miter;stroke-opacity:1" d="M 229.455,287.429 229.455,271.325 z" id="boundary" inkscape:connector-curvature="0" />
	<path style="fill:none;stroke:red;stroke-width:1px;stroke-linecap:butt;stroke-linejoin:miter;stroke-opacity:1" d="M 118.338,301.922 110.286,287.429 z" id="boundary" inkscape:connector-curvature="0" />
	<path style="fill:none;stroke:red;stroke-width:1px;stroke-linecap:butt;stroke-linejoin:miter;stroke-opacity:1" d="M 118.338,301.922 126.39,316.416 z" id="boundary" inkscape:connector-curvature="0" />
	<path style="fill:none;stroke:red;stroke-width:1px;stroke-linecap:butt;stroke-linejoin:miter;stroke-opacity:1" d="M 139.273,327.688 126.39,316.416 z" id="boundary" inkscape:connector-curvature="0" />
	<path style="fill:none;stroke:red;stroke-width:1px;stroke-linecap:butt;stroke-linejoin:miter;stroke-opacity:1" d="M 150.545,340.571 139.273,327.688 z" id="boundary" inkscape:connector-curvature="0" />
	<path style="fill:none;stroke:red;stroke-width:1px;stroke-linecap:butt;stroke-linejoin:miter;stroke-opacity:1" d="M 229.455,319.636 229.455,303.532 z" id="boundary" inkscape:connector-curvature="0" />
	<path style="fill:none;stroke:red;stroke-width:1px;stroke-linecap:butt;stroke-linejoin:miter;stroke-opacity:1" d="M 229.455,287.429 229.455,303.532 z" id="boundary" inkscape:connector-curvature="0" />
	<path style="fill:none;stroke:red;stroke-width:1px;stroke-linecap:butt;stroke-linejoin:miter;stroke-opacity:1" d="M 272.935,60.3636 287.429,68.4156 z" id="boundary" inkscape:connector-curvature="0" />
	<path style="fill:none;stroke:red;stroke-width:1px;stroke-linecap:butt;stroke-linejoin:miter;stroke-opacity:1" d="M 287.429,68.4156 300.312,78.0779 z" id="boundary" inkscape:connector-curvature="0" />
	<path style="fill:none;stroke:red;stroke-width:1px;stroke-linecap:butt;stroke-linejoin:miter;stroke-opacity:1" d="M 300.312,78.0779 306.753,94.1818 z" id="boundary" inkscape:connector-curvature="0" />
	<path style="fill:none;stroke:red;stroke-width:1px;stroke-linecap:butt;stroke-linejoin:miter;stroke-opacity:1" d="M 311.584,110.286 306.753,94.1818 z" id="boundary" inkscape:connector-curvature="0" />
	<path style="fill:none;stroke:red;stroke-width:1px;stroke-linecap:butt;stroke-linejoin:miter;stroke-opacity:1" d="M 374.39,16.8831 366.338,41.039 z" id="boundary" inkscape:connector-curvature="0" />
	<path style="fill:none;stroke:red;stroke-width:1px;stroke-linecap:butt;stroke-linejoin:miter;stroke-opacity:1" d="M 311.584,110.286 311.584,126.39 z" id="boundary" inkscape:connector-curvature="0" />
	<path style="fill:none;stroke:red;stroke-width:1px;stroke-linecap:butt;stroke-linejoin:miter;stroke-opacity:1" d="M 311.584,142.494 311.584,158.597 z" id="boundary" inkscape:connector-curvature="0" />
	<path style="fill:none;stroke:red;stroke-width:1px;stroke-linecap:butt;stroke-linejoin:miter;stroke-opacity:1" d="M 311.584,174.701 311.584,158.597 z" id="boundary" inkscape:connector-curvature="0" />
	<path style="fill:none;stroke:red;stroke-width:1px;stroke-linecap:butt;stroke-linejoin:miter;stroke-opacity:1" d="M 311.584,142.494 311.584,126.39 z" id="boundary" inkscape:connector-curvature="0" />
	<path style="fill:none;stroke:red;stroke-width:1px;stroke-linecap:butt;stroke-linejoin:miter;stroke-opacity:1" d="M 366.338,41.039 366.338,57.1429 z" id="boundary" inkscape:connector-curvature="0" />
	<path style="fill:none;stroke:red;stroke-width:1px;stroke-linecap:butt;stroke-linejoin:miter;stroke-opacity:1" d="M 366.338,57.1429 366.338,73.2468 z" id="boundary" inkscape:connector-curvature="0" />
	<path style="fill:none;stroke:red;stroke-width:1px;stroke-linecap:butt;stroke-linejoin:miter;stroke-opacity:1" d="M 366.338,105.455 366.338,89.3506 z" id="boundary" inkscape:connector-curvature="0" />
	<path style="fill:none;stroke:red;stroke-width:1px;stroke-linecap:butt;stroke-linejoin:miter;stroke-opacity:1" d="M 366.338,89.3506 366.338,73.2468 z" id="boundary" inkscape:connector-curvature="0" />
	<path style="fill:none;stroke:red;stroke-width:1px;stroke-linecap:butt;stroke-linejoin:miter;stroke-opacity:1" d="M 366.338,121.558 366.338,105.455 z" id="boundary" inkscape:connector-curvature="0" />
	<path style="fill:none;stroke:red;stroke-width:1px;stroke-linecap:butt;stroke-linejoin:miter;stroke-opacity:1" d="M 366.338,121.558 366.338,137.662 z" id="boundary" inkscape:connector-curvature="0" />
	<path style="fill:none;stroke:red;stroke-width:1px;stroke-linecap:butt;stroke-linejoin:miter;stroke-opacity:1" d="M 366.338,153.766 366.338,169.87 z" id="boundary" inkscape:connector-curvature="0" />
	<path style="fill:none;stroke:red;stroke-width:1px;stroke-linecap:butt;stroke-linejoin:miter;stroke-opacity:1" d="M 366.338,185.974 366.338,169.87 z" id="boundary" inkscape:connector-curvature="0" />
	<path style="fill:none;stroke:red;stroke-width:1px;stroke-linecap:butt;stroke-linejoin:miter;stroke-opacity:1" d="M 319.636,189.195 311.584,174.701 z" id="boundary" inkscape:connector-curvature="0" />
	<path style="fill:none;stroke:red;stroke-width:1px;stroke-linecap:butt;stroke-linejoin:miter;stroke-opacity:1" d="M 366.338,153.766 366.338,137.662 z" id="boundary" inkscape:connector-curvature="0" />
	<path style="fill:none;stroke:red;stroke-width:1px;stroke-linecap:butt;stroke-linejoin:miter;stroke-opacity:1" d="M 366.338,202.078 366.338,185.974 z" id="boundary" inkscape:connector-curvature="0" />
	<path style="fill:none;stroke:red;stroke-width:1px;stroke-linecap:butt;stroke-linejoin:miter;stroke-opacity:1" d="M 319.636,189.195 319.636,205.299 z" id="boundary" inkscape:connector-curvature="0" />
	<path style="fill:none;stroke:red;stroke-width:1px;stroke-linecap:butt;stroke-linejoin:miter;stroke-opacity:1" d="M 319.636,221.403 319.636,205.299 z" id="boundary" inkscape:connector-curvature="0" />
	<path style="fill:none;stroke:red;stroke-width:1px;stroke-linecap:butt;stroke-linejoin:miter;stroke-opacity:1" d="M 319.636,221.403 319.636,237.506 z" id="boundary" inkscape:connector-curvature="0" />
	<path style="fill:none;stroke:red;stroke-width:1px;stroke-linecap:butt;stroke-linejoin:miter;stroke-opacity:1" d="M 319.636,253.61 319.636,237.506 z" id="boundary" inkscape:connector-curvature="0" />
	<path style="fill:none;stroke:red;stroke-width:1px;stroke-linecap:butt;stroke-linejoin:miter;stroke-opacity:1" d="M 319.636,253.61 327.688,268.104 z" id="boundary" inkscape:connector-curvature="0" />
	<path style="fill:none;stroke:red;stroke-width:1px;stroke-linecap:butt;stroke-linejoin:miter;stroke-opacity:1" d="M 327.688,268.104 327.688,284.208 z" id="boundary" inkscape:connector-curvature="0" />
	<path style="fill:none;stroke:red;stroke-width:1px;stroke-linecap:butt;stroke-linejoin:miter;stroke-opacity:1" d="M 327.688,284.208 335.74,298.701 z" id="boundary" inkscape:connector-curvature="0" />
	<path style="fill:none;stroke:red;stroke-width:1px;stroke-linecap:butt;stroke-linejoin:miter;stroke-opacity:1" d="M 335.74,298.701 335.74,314.805 z" id="boundary" inkscape:connector-curvature="0" />
	<path style="fill:none;stroke:red;stroke-width:1px;stroke-linecap:butt;stroke-linejoin:miter;stroke-opacity:1" d="M 335.74,314.805 335.74,330.909 z" id="boundary" inkscape:connector-curvature="0" />
	<path style="fill:none;stroke:red;stroke-width:1px;stroke-linecap:butt;stroke-linejoin:miter;stroke-opacity:1" d="M 366.338,218.182 366.338,234.286 z" id="boundary" inkscape:connector-curvature="0" />
	<path style="fill:none;stroke:red;stroke-width:1px;stroke-linecap:butt;stroke-linejoin:miter;stroke-opacity:1" d="M 366.338,218.182 366.338,202.078 z" id="boundary" inkscape:connector-curvature="0" />
	<path style="fill:none;stroke:red;stroke-width:1px;stroke-linecap:butt;stroke-linejoin:miter;stroke-opacity:1" d="M 366.338,250.39 366.338,266.494 z" id="boundary" inkscape:connector-curvature="0" />
	<path style="fill:none;stroke:red;stroke-width:1px;stroke-linecap:butt;stroke-linejoin:miter;stroke-opacity:1" d="M 366.338,250.39 366.338,234.286 z" id="boundary" inkscape:connector-curvature="0" />
	<path style="fill:none;stroke:red;stroke-width:1px;stroke-linecap:butt;stroke-linejoin:miter;stroke-opacity:1" d="M 366.338,266.494 366.338,282.597 z" id="boundary" inkscape:connector-curvature="0" />
	<path style="fill:none;stroke:red;stroke-width:1px;stroke-linecap:butt;stroke-linejoin:miter;stroke-opacity:1" d="M 366.338,298.701 366.338,314.805 z" id="boundary" inkscape:connector-curvature="0" />
	<path style="fill:none;stroke:red;stroke-width:1px;stroke-linecap:butt;stroke-linejoin:miter;stroke-opacity:1" d="M 366.338,282.597 366.338,298.701 z" id="boundary" inkscape:connector-curvature="0" />
	<path style="fill:none;stroke:red;stroke-width:1px;stroke-linecap:butt;stroke-linejoin:miter;stroke-opacity:1" d="M 366.338,330.909 366.338,314.805 z" id="boundary" inkscape:connector-curvature="0" />
	<path style="fill:none;stroke:red;stroke-width:1px;stroke-linecap:butt;stroke-linejoin:miter;stroke-opacity:1" d="M 229.455,335.74 229.455,319.636 z" id="boundary" inkscape:connector-curvature="0" />
	<path style="fill:none;stroke:red;stroke-width:1px;stroke-linecap:butt;stroke-linejoin:miter;stroke-opacity:1" d="M 366.338,347.013 366.338,330.909 z" id="boundary" inkscape:connector-curvature="0" />
	<path style="fill:none;stroke:red;stroke-width:1px;stroke-linecap:butt;stroke-linejoin:miter;stroke-opacity:1" d="M 343.792,345.403 335.74,330.909 z" id="boundary" inkscape:connector-curvature="0" />
	<path style="fill:none;stroke:red;stroke-width:1px;stroke-linecap:butt;stroke-linejoin:miter;stroke-opacity:1" d="M 20.1039,351.844 28.1558,366.338 z" id="boundary" inkscape:connector-curvature="0" />
	<path style="fill:none;stroke:red;stroke-width:1px;stroke-linecap:butt;stroke-linejoin:miter;stroke-opacity:1" d="M 37.8182,379.221 28.1558,366.338 z" id="boundary" inkscape:connector-curvature="0" />
	<path style="fill:none;stroke:red;stroke-width:1px;stroke-linecap:butt;stroke-linejoin:miter;stroke-opacity:1" d="M 37.8182,379.221 49.0909,392.104 z" id="boundary" inkscape:connector-curvature="0" />
	<path style="fill:none;stroke:red;stroke-width:1px;stroke-linecap:butt;stroke-linejoin:miter;stroke-opacity:1" d="M 61.974,403.377 49.0909,392.104 z" id="boundary" inkscape:connector-curvature="0" />
	<path style="fill:none;stroke:red;stroke-width:1px;stroke-linecap:butt;stroke-linejoin:miter;stroke-opacity:1" d="M 61.974,403.377 73.2468,416.26 z" id="boundary" inkscape:connector-curvature="0" />
	<path style="fill:none;stroke:red;stroke-width:1px;stroke-linecap:butt;stroke-linejoin:miter;stroke-opacity:1" d="M 73.2468,416.26 76.4675,432.364 z" id="boundary" inkscape:connector-curvature="0" />
	<path style="fill:none;stroke:red;stroke-width:1px;stroke-linecap:butt;stroke-linejoin:miter;stroke-opacity:1" d="M 86.1299,445.247 76.4675,432.364 z" id="boundary" inkscape:connector-curvature="0" />
	<path style="fill:none;stroke:red;stroke-width:1px;stroke-linecap:butt;stroke-linejoin:miter;stroke-opacity:1" d="M 99.013,456.519 86.1299,445.247 z" id="boundary" inkscape:connector-curvature="0" />
	<path style="fill:none;stroke:red;stroke-width:1px;stroke-linecap:butt;stroke-linejoin:miter;stroke-opacity:1" d="M 99.013,456.519 105.455,472.623 z" id="boundary" inkscape:connector-curvature="0" />
	<path style="fill:none;stroke:red;stroke-width:1px;stroke-linecap:butt;stroke-linejoin:miter;stroke-opacity:1" d="M 158.597,355.065 165.039,371.169 z" id="boundary" inkscape:connector-curvature="0" />
	<path style="fill:none;stroke:red;stroke-width:1px;stroke-linecap:butt;stroke-linejoin:miter;stroke-opacity:1" d="M 150.545,340.571 158.597,355.065 z" id="boundary" inkscape:connector-curvature="0" />
	<path style="fill:none;stroke:red;stroke-width:1px;stroke-linecap:butt;stroke-linejoin:miter;stroke-opacity:1" d="M 173.091,385.662 165.039,371.169 z" id="boundary" inkscape:connector-curvature="0" />
	<path style="fill:none;stroke:red;stroke-width:1px;stroke-linecap:butt;stroke-linejoin:miter;stroke-opacity:1" d="M 118.338,483.896 105.455,472.623 z" id="boundary" inkscape:connector-curvature="0" />
	<path style="fill:none;stroke:red;stroke-width:1px;stroke-linecap:butt;stroke-linejoin:miter;stroke-opacity:1" d="M 118.338,483.896 129.61,496.779 z" id="boundary" inkscape:connector-curvature="0" />
	<path style="fill:none;stroke:red;stroke-width:1px;stroke-linecap:butt;stroke-linejoin:miter;stroke-opacity:1" d="M 155.377,537.039 142.494,525.766 z" id="boundary" inkscape:connector-curvature="0" />
	<path style="fill:none;stroke:red;stroke-width:1px;stroke-linecap:butt;stroke-linejoin:miter;stroke-opacity:1" d="M 142.494,525.766 140.883,509.662 z" id="boundary" inkscape:connector-curvature="0" />
	<path style="fill:none;stroke:red;stroke-width:1px;stroke-linecap:butt;stroke-linejoin:miter;stroke-opacity:1" d="M 155.377,537.039 156.987,553.143 z" id="boundary" inkscape:connector-curvature="0" />
	<path style="fill:none;stroke:red;stroke-width:1px;stroke-linecap:butt;stroke-linejoin:miter;stroke-opacity:1" d="M 129.61,496.779 140.883,509.662 z" id="boundary" inkscape:connector-curvature="0" />
	<path style="fill:none;stroke:red;stroke-width:1px;stroke-linecap:butt;stroke-linejoin:miter;stroke-opacity:1" d="M 156.987,553.143 156.987,569.247 z" id="boundary" inkscape:connector-curvature="0" />
	<path style="fill:none;stroke:red;stroke-width:1px;stroke-linecap:butt;stroke-linejoin:miter;stroke-opacity:1" d="M 156.987,585.351 156.987,601.455 z" id="boundary" inkscape:connector-curvature="0" />
	<path style="fill:none;stroke:red;stroke-width:1px;stroke-linecap:butt;stroke-linejoin:miter;stroke-opacity:1" d="M 156.987,617.558 156.987,601.455 z" id="boundary" inkscape:connector-curvature="0" />
	<path style="fill:none;stroke:red;stroke-width:1px;stroke-linecap:butt;stroke-linejoin:miter;stroke-opacity:1" d="M 156.987,569.247 156.987,585.351 z" id="boundary" inkscape:connector-curvature="0" />
	<path style="fill:none;stroke:red;stroke-width:1px;stroke-linecap:butt;stroke-linejoin:miter;stroke-opacity:1" d="M 156.987,617.558 156.987,633.662 z" id="boundary" inkscape:connector-curvature="0" />
	<path style="fill:none;stroke:red;stroke-width:1px;stroke-linecap:butt;stroke-linejoin:miter;stroke-opacity:1" d="M 156.987,649.766 156.987,633.662 z" id="boundary" inkscape:connector-curvature="0" />
	<path style="fill:none;stroke:red;stroke-width:1px;stroke-linecap:butt;stroke-linejoin:miter;stroke-opacity:1" d="M 156.987,649.766 156.987,665.87 z" id="boundary" inkscape:connector-curvature="0" />
	<path style="fill:none;stroke:red;stroke-width:1px;stroke-linecap:butt;stroke-linejoin:miter;stroke-opacity:1" d="M 156.987,681.974 156.987,665.87 z" id="boundary" inkscape:connector-curvature="0" />
	<path style="fill:none;stroke:red;stroke-width:1px;stroke-linecap:butt;stroke-linejoin:miter;stroke-opacity:1" d="M 156.987,698.078 165.039,712.571 z" id="boundary" inkscape:connector-curvature="0" />
	<path style="fill:none;stroke:red;stroke-width:1px;stroke-linecap:butt;stroke-linejoin:miter;stroke-opacity:1" d="M 165.039,712.571 165.039,728.675 z" id="boundary" inkscape:connector-curvature="0" />
	<path style="fill:none;stroke:red;stroke-width:1px;stroke-linecap:butt;stroke-linejoin:miter;stroke-opacity:1" d="M 156.987,698.078 156.987,681.974 z" id="boundary" inkscape:connector-curvature="0" />
	<path style="fill:none;stroke:red;stroke-width:1px;stroke-linecap:butt;stroke-linejoin:miter;stroke-opacity:1" d="M 173.091,759.273 165.039,744.779 z" id="boundary" inkscape:connector-curvature="0" />
	<path style="fill:none;stroke:red;stroke-width:1px;stroke-linecap:butt;stroke-linejoin:miter;stroke-opacity:1" d="M 165.039,744.779 165.039,728.675 z" id="boundary" inkscape:connector-curvature="0" />
	<path style="fill:none;stroke:red;stroke-width:1px;stroke-linecap:butt;stroke-linejoin:miter;stroke-opacity:1" d="M 173.091,759.273 173.091,775.377 z" id="boundary" inkscape:connector-curvature="0" />
	<path style="fill:none;stroke:red;stroke-width:1px;stroke-linecap:butt;stroke-linejoin:miter;stroke-opacity:1" d="M 173.091,983.117 173.091,967.013 z" id="boundary" inkscape:connector-curvature="0" />
	<path style="fill:none;stroke:red;stroke-width:1px;stroke-linecap:butt;stroke-linejoin:miter;stroke-opacity:1" d="M 173.091,775.377 181.143,789.87 z" id="boundary" inkscape:connector-curvature="0" />
	<path style="fill:none;stroke:red;stroke-width:1px;stroke-linecap:butt;stroke-linejoin:miter;stroke-opacity:1" d="M 181.143,789.87 181.143,805.974 z" id="boundary" inkscape:connector-curvature="0" />
	<path style="fill:none;stroke:red;stroke-width:1px;stroke-linecap:butt;stroke-linejoin:miter;stroke-opacity:1" d="M 189.195,820.468 181.143,805.974 z" id="boundary" inkscape:connector-curvature="0" />
	<path style="fill:none;stroke:red;stroke-width:1px;stroke-linecap:butt;stroke-linejoin:miter;stroke-opacity:1" d="M 181.143,942.857 173.091,967.013 z" id="boundary" inkscape:connector-curvature="0" />
	<path style="fill:none;stroke:red;stroke-width:1px;stroke-linecap:butt;stroke-linejoin:miter;stroke-opacity:1" d="M 173.091,385.662 182.753,398.545 z" id="boundary" inkscape:connector-curvature="0" />
	<path style="fill:none;stroke:red;stroke-width:1px;stroke-linecap:butt;stroke-linejoin:miter;stroke-opacity:1" d="M 229.455,335.74 229.455,351.844 z" id="boundary" inkscape:connector-curvature="0" />
	<path style="fill:none;stroke:red;stroke-width:1px;stroke-linecap:butt;stroke-linejoin:miter;stroke-opacity:1" d="M 237.506,366.338 229.455,351.844 z" id="boundary" inkscape:connector-curvature="0" />
	<path style="fill:none;stroke:red;stroke-width:1px;stroke-linecap:butt;stroke-linejoin:miter;stroke-opacity:1" d="M 190.805,413.039 182.753,398.545 z" id="boundary" inkscape:connector-curvature="0" />
	<path style="fill:none;stroke:red;stroke-width:1px;stroke-linecap:butt;stroke-linejoin:miter;stroke-opacity:1" d="M 190.805,413.039 203.688,422.701 z" id="boundary" inkscape:connector-curvature="0" />
	<path style="fill:none;stroke:red;stroke-width:1px;stroke-linecap:butt;stroke-linejoin:miter;stroke-opacity:1" d="M 231.065,438.805 214.961,435.584 z" id="boundary" inkscape:connector-curvature="0" />
	<path style="fill:none;stroke:red;stroke-width:1px;stroke-linecap:butt;stroke-linejoin:miter;stroke-opacity:1" d="M 203.688,422.701 214.961,435.584 z" id="boundary" inkscape:connector-curvature="0" />
	<path style="fill:none;stroke:red;stroke-width:1px;stroke-linecap:butt;stroke-linejoin:miter;stroke-opacity:1" d="M 237.506,366.338 237.506,382.442 z" id="boundary" inkscape:connector-curvature="0" />
	<path style="fill:none;stroke:red;stroke-width:1px;stroke-linecap:butt;stroke-linejoin:miter;stroke-opacity:1" d="M 189.195,820.468 189.195,836.571 z" id="boundary" inkscape:connector-curvature="0" />
	<path style="fill:none;stroke:red;stroke-width:1px;stroke-linecap:butt;stroke-linejoin:miter;stroke-opacity:1" d="M 343.792,361.506 343.792,345.403 z" id="boundary" inkscape:connector-curvature="0" />
	<path style="fill:none;stroke:red;stroke-width:1px;stroke-linecap:butt;stroke-linejoin:miter;stroke-opacity:1" d="M 366.338,363.117 353.455,374.39 z" id="boundary" inkscape:connector-curvature="0" />
	<path style="fill:none;stroke:red;stroke-width:1px;stroke-linecap:butt;stroke-linejoin:miter;stroke-opacity:1" d="M 353.455,374.39 343.792,361.506 z" id="boundary" inkscape:connector-curvature="0" />
	<path style="fill:none;stroke:red;stroke-width:1px;stroke-linecap:butt;stroke-linejoin:miter;stroke-opacity:1" d="M 366.338,347.013 366.338,363.117 z" id="boundary" inkscape:connector-curvature="0" />
	<path style="fill:none;stroke:red;stroke-width:1px;stroke-linecap:butt;stroke-linejoin:miter;stroke-opacity:1" d="M 240.727,398.545 245.558,414.649 z" id="boundary" inkscape:connector-curvature="0" />
	<path style="fill:none;stroke:red;stroke-width:1px;stroke-linecap:butt;stroke-linejoin:miter;stroke-opacity:1" d="M 240.727,398.545 237.506,382.442 z" id="boundary" inkscape:connector-curvature="0" />
	<path style="fill:none;stroke:red;stroke-width:1px;stroke-linecap:butt;stroke-linejoin:miter;stroke-opacity:1" d="M 245.558,414.649 245.558,430.753 z" id="boundary" inkscape:connector-curvature="0" />
	<path style="fill:none;stroke:red;stroke-width:1px;stroke-linecap:butt;stroke-linejoin:miter;stroke-opacity:1" d="M 197.247,851.065 197.247,867.169 z" id="boundary" inkscape:connector-curvature="0" />
	<path style="fill:none;stroke:red;stroke-width:1px;stroke-linecap:butt;stroke-linejoin:miter;stroke-opacity:1" d="M 189.195,836.571 197.247,851.065 z" id="boundary" inkscape:connector-curvature="0" />
	<path style="fill:none;stroke:red;stroke-width:1px;stroke-linecap:butt;stroke-linejoin:miter;stroke-opacity:1" d="M 197.247,883.273 197.247,867.169 z" id="boundary" inkscape:connector-curvature="0" />
	<path style="fill:none;stroke:red;stroke-width:1px;stroke-linecap:butt;stroke-linejoin:miter;stroke-opacity:1" d="M 189.195,910.649 197.247,883.273 z" id="boundary" inkscape:connector-curvature="0" />
	<path style="fill:none;stroke:red;stroke-width:1px;stroke-linecap:butt;stroke-linejoin:miter;stroke-opacity:1" d="M 189.195,926.753 189.195,910.649 z" id="boundary" inkscape:connector-curvature="0" />
	<path style="fill:none;stroke:red;stroke-width:1px;stroke-linecap:butt;stroke-linejoin:miter;stroke-opacity:1" d="M 198.857,996 182.753,996 z" id="boundary" inkscape:connector-curvature="0" />
	<path style="fill:none;stroke:red;stroke-width:1px;stroke-linecap:butt;stroke-linejoin:miter;stroke-opacity:1" d="M 182.753,996 173.091,983.117 z" id="boundary" inkscape:connector-curvature="0" />
	<path style="fill:none;stroke:red;stroke-width:1px;stroke-linecap:butt;stroke-linejoin:miter;stroke-opacity:1" d="M 214.961,996 198.857,996 z" id="boundary" inkscape:connector-curvature="0" />
	<path style="fill:none;stroke:red;stroke-width:1px;stroke-linecap:butt;stroke-linejoin:miter;stroke-opacity:1" d="M 231.065,996 214.961,996 z" id="boundary" inkscape:connector-curvature="0" />
	<path style="fill:none;stroke:red;stroke-width:1px;stroke-linecap:butt;stroke-linejoin:miter;stroke-opacity:1" d="M 181.143,942.857 189.195,926.753 z" id="boundary" inkscape:connector-curvature="0" />
	<path style="fill:none;stroke:red;stroke-width:1px;stroke-linecap:butt;stroke-linejoin:miter;stroke-opacity:1" d="M 247.169,996 231.065,996 z" id="boundary" inkscape:connector-curvature="0" />
	<path style="fill:none;stroke:red;stroke-width:1px;stroke-linecap:butt;stroke-linejoin:miter;stroke-opacity:1" d="M 279.377,996 263.273,996 z" id="boundary" inkscape:connector-curvature="0" />
	<path style="fill:none;stroke:red;stroke-width:1px;stroke-linecap:butt;stroke-linejoin:miter;stroke-opacity:1" d="M 295.481,996 279.377,996 z" id="boundary" inkscape:connector-curvature="0" />
	<path style="fill:none;stroke:red;stroke-width:1px;stroke-linecap:butt;stroke-linejoin:miter;stroke-opacity:1" d="M 263.273,996 247.169,996 z" id="boundary" inkscape:connector-curvature="0" />
	<path style="fill:none;stroke:red;stroke-width:1px;stroke-linecap:butt;stroke-linejoin:miter;stroke-opacity:1" d="M 327.688,996 311.584,996 z" id="boundary" inkscape:connector-curvature="0" />
	<path style="fill:none;stroke:red;stroke-width:1px;stroke-linecap:butt;stroke-linejoin:miter;stroke-opacity:1" d="M 359.896,996 343.792,996 z" id="boundary" inkscape:connector-curvature="0" />
	<path style="fill:none;stroke:red;stroke-width:1px;stroke-linecap:butt;stroke-linejoin:miter;stroke-opacity:1" d="M 376,996 359.896,996 z" id="boundary" inkscape:connector-curvature="0" />
	<path style="fill:none;stroke:red;stroke-width:1px;stroke-linecap:butt;stroke-linejoin:miter;stroke-opacity:1" d="M 343.792,996 327.688,996 z" id="boundary" inkscape:connector-curvature="0" />
	<path style="fill:none;stroke:red;stroke-width:1px;stroke-linecap:butt;stroke-linejoin:miter;stroke-opacity:1" d="M 311.584,996 295.481,996 z" id="boundary" inkscape:connector-curvature="0" />
	<path style="fill:none;stroke:red;stroke-width:1px;stroke-linecap:butt;stroke-linejoin:miter;stroke-opacity:1" d="M 403.377,4 419.481,4 z" id="boundary" inkscape:connector-curvature="0" />
	<path style="fill:none;stroke:red;stroke-width:1px;stroke-linecap:butt;stroke-linejoin:miter;stroke-opacity:1" d="M 419.481,4 435.584,4 z" id="boundary" inkscape:connector-curvature="0" />
	<path style="fill:none;stroke:red;stroke-width:1px;stroke-linecap:butt;stroke-linejoin:miter;stroke-opacity:1" d="M 435.584,4 450.078,12.0519 z" id="boundary" inkscape:connector-curvature="0" />
	<path style="fill:none;stroke:red;stroke-width:1px;stroke-linecap:butt;stroke-linejoin:miter;stroke-opacity:1" d="M 450.078,12.0519 462.961,23.3247 z" id="boundary" inkscape:connector-curvature="0" />
	<path style="fill:none;stroke:red;stroke-width:1px;stroke-linecap:butt;stroke-linejoin:miter;stroke-opacity:1" d="M 462.961,23.3247 469.403,39.4286 z" id="boundary" inkscape:connector-curvature="0" />
	<path style="fill:none;stroke:red;stroke-width:1px;stroke-linecap:butt;stroke-linejoin:miter;stroke-opacity:1" d="M 464.571,198.857 464.571,182.753 z" id="boundary" inkscape:connector-curvature="0" />
	<path style="fill:none;stroke:red;stroke-width:1px;stroke-linecap:butt;stroke-linejoin:miter;stroke-opacity:1" d="M 472.623,136.052 472.623,152.156 z" id="boundary" inkscape:connector-curvature="0" />
	<path style="fill:none;stroke:red;stroke-width:1px;stroke-linecap:butt;stroke-linejoin:miter;stroke-opacity:1" d="M 469.403,39.4286 472.623,55.5325 z" id="boundary" inkscape:connector-curvature="0" />
	<path style="fill:none;stroke:red;stroke-width:1px;stroke-linecap:butt;stroke-linejoin:miter;stroke-opacity:1" d="M 464.571,198.857 467.792,214.961 z" id="boundary" inkscape:connector-curvature="0" />
	<path style="fill:none;stroke:red;stroke-width:1px;stroke-linecap:butt;stroke-linejoin:miter;stroke-opacity:1" d="M 472.623,55.5325 472.623,71.6364 z" id="boundary" inkscape:connector-curvature="0" />
	<path style="fill:none;stroke:red;stroke-width:1px;stroke-linecap:butt;stroke-linejoin:miter;stroke-opacity:1" d="M 472.623,87.7403 472.623,71.6364 z" id="boundary" inkscape:connector-curvature="0" />
	<path style="fill:none;stroke:red;stroke-width:1px;stroke-linecap:butt;stroke-linejoin:miter;stroke-opacity:1" d="M 472.623,103.844 472.623,87.7403 z" id="boundary" inkscape:connector-curvature="0" />
	<path style="fill:none;stroke:red;stroke-width:1px;stroke-linecap:butt;stroke-linejoin:miter;stroke-opacity:1" d="M 535.429,89.3506 527.377,113.506 z" id="boundary" inkscape:connector-curvature="0" />
	<path style="fill:none;stroke:red;stroke-width:1px;stroke-linecap:butt;stroke-linejoin:miter;stroke-opacity:1" d="M 472.623,119.948 472.623,103.844 z" id="boundary" inkscape:connector-curvature="0" />
	<path style="fill:none;stroke:red;stroke-width:1px;stroke-linecap:butt;stroke-linejoin:miter;stroke-opacity:1" d="M 472.623,119.948 472.623,136.052 z" id="boundary" inkscape:connector-curvature="0" />
	<path style="fill:none;stroke:red;stroke-width:1px;stroke-linecap:butt;stroke-linejoin:miter;stroke-opacity:1" d="M 472.623,168.26 472.623,152.156 z" id="boundary" inkscape:connector-curvature="0" />
	<path style="fill:none;stroke:red;stroke-width:1px;stroke-linecap:butt;stroke-linejoin:miter;stroke-opacity:1" d="M 472.623,168.26 464.571,182.753 z" id="boundary" inkscape:connector-curvature="0" />
	<path style="fill:none;stroke:red;stroke-width:1px;stroke-linecap:butt;stroke-linejoin:miter;stroke-opacity:1" d="M 527.377,113.506 527.377,129.61 z" id="boundary" inkscape:connector-curvature="0" />
	<path style="fill:none;stroke:red;stroke-width:1px;stroke-linecap:butt;stroke-linejoin:miter;stroke-opacity:1" d="M 472.623,231.065 472.623,247.169 z" id="boundary" inkscape:connector-curvature="0" />
	<path style="fill:none;stroke:red;stroke-width:1px;stroke-linecap:butt;stroke-linejoin:miter;stroke-opacity:1" d="M 472.623,247.169 472.623,263.273 z" id="boundary" inkscape:connector-curvature="0" />
	<path style="fill:none;stroke:red;stroke-width:1px;stroke-linecap:butt;stroke-linejoin:miter;stroke-opacity:1" d="M 472.623,263.273 472.623,279.377 z" id="boundary" inkscape:connector-curvature="0" />
	<path style="fill:none;stroke:red;stroke-width:1px;stroke-linecap:butt;stroke-linejoin:miter;stroke-opacity:1" d="M 472.623,279.377 472.623,295.481 z" id="boundary" inkscape:connector-curvature="0" />
	<path style="fill:none;stroke:red;stroke-width:1px;stroke-linecap:butt;stroke-linejoin:miter;stroke-opacity:1" d="M 472.623,311.584 472.623,327.688 z" id="boundary" inkscape:connector-curvature="0" />
	<path style="fill:none;stroke:red;stroke-width:1px;stroke-linecap:butt;stroke-linejoin:miter;stroke-opacity:1" d="M 472.623,343.792 472.623,327.688 z" id="boundary" inkscape:connector-curvature="0" />
	<path style="fill:none;stroke:red;stroke-width:1px;stroke-linecap:butt;stroke-linejoin:miter;stroke-opacity:1" d="M 472.623,311.584 472.623,295.481 z" id="boundary" inkscape:connector-curvature="0" />
	<path style="fill:none;stroke:red;stroke-width:1px;stroke-linecap:butt;stroke-linejoin:miter;stroke-opacity:1" d="M 472.623,343.792 472.623,359.896 z" id="boundary" inkscape:connector-curvature="0" />
	<path style="fill:none;stroke:red;stroke-width:1px;stroke-linecap:butt;stroke-linejoin:miter;stroke-opacity:1" d="M 503.221,322.857 495.169,338.961 z" id="boundary" inkscape:connector-curvature="0" />
	<path style="fill:none;stroke:red;stroke-width:1px;stroke-linecap:butt;stroke-linejoin:miter;stroke-opacity:1" d="M 503.221,306.753 503.221,322.857 z" id="boundary" inkscape:connector-curvature="0" />
	<path style="fill:none;stroke:red;stroke-width:1px;stroke-linecap:butt;stroke-linejoin:miter;stroke-opacity:1" d="M 511.273,282.597 503.221,306.753 z" id="boundary" inkscape:connector-curvature="0" />
	<path style="fill:none;stroke:red;stroke-width:1px;stroke-linecap:butt;stroke-linejoin:miter;stroke-opacity:1" d="M 511.273,282.597 511.273,266.494 z" id="boundary" inkscape:connector-curvature="0" />
	<path style="fill:none;stroke:red;stroke-width:1px;stroke-linecap:butt;stroke-linejoin:miter;stroke-opacity:1" d="M 511.273,266.494 527.377,258.442 z" id="boundary" inkscape:connector-curvature="0" />
	<path style="fill:none;stroke:red;stroke-width:1px;stroke-linecap:butt;stroke-linejoin:miter;stroke-opacity:1" d="M 495.169,338.961 495.169,355.065 z" id="boundary" inkscape:connector-curvature="0" />
	<path style="fill:none;stroke:red;stroke-width:1px;stroke-linecap:butt;stroke-linejoin:miter;stroke-opacity:1" d="M 472.623,359.896 472.623,376 z" id="boundary" inkscape:connector-curvature="0" />
	<path style="fill:none;stroke:red;stroke-width:1px;stroke-linecap:butt;stroke-linejoin:miter;stroke-opacity:1" d="M 480.675,390.494 472.623,376 z" id="boundary" inkscape:connector-curvature="0" />
	<path style="fill:none;stroke:red;stroke-width:1px;stroke-linecap:butt;stroke-linejoin:miter;stroke-opacity:1" d="M 495.169,355.065 495.169,371.169 z" id="boundary" inkscape:connector-curvature="0" />
	<path style="fill:none;stroke:red;stroke-width:1px;stroke-linecap:butt;stroke-linejoin:miter;stroke-opacity:1" d="M 472.623,231.065 467.792,214.961 z" id="boundary" inkscape:connector-curvature="0" />
	<path style="fill:none;stroke:red;stroke-width:1px;stroke-linecap:butt;stroke-linejoin:miter;stroke-opacity:1" d="M 527.377,129.61 527.377,145.714 z" id="boundary" inkscape:connector-curvature="0" />
	<path style="fill:none;stroke:red;stroke-width:1px;stroke-linecap:butt;stroke-linejoin:miter;stroke-opacity:1" d="M 548.312,76.4675 535.429,89.3506 z" id="boundary" inkscape:connector-curvature="0" />
	<path style="fill:none;stroke:red;stroke-width:1px;stroke-linecap:butt;stroke-linejoin:miter;stroke-opacity:1" d="M 562.805,68.4156 578.909,68.4156 z" id="boundary" inkscape:connector-curvature="0" />
	<path style="fill:none;stroke:red;stroke-width:1px;stroke-linecap:butt;stroke-linejoin:miter;stroke-opacity:1" d="M 548.312,76.4675 562.805,68.4156 z" id="boundary" inkscape:connector-curvature="0" />
	<path style="fill:none;stroke:red;stroke-width:1px;stroke-linecap:butt;stroke-linejoin:miter;stroke-opacity:1" d="M 625.61,123.169 625.61,139.273 z" id="boundary" inkscape:connector-curvature="0" />
	<path style="fill:none;stroke:red;stroke-width:1px;stroke-linecap:butt;stroke-linejoin:miter;stroke-opacity:1" d="M 527.377,145.714 527.377,161.818 z" id="boundary" inkscape:connector-curvature="0" />
	<path style="fill:none;stroke:red;stroke-width:1px;stroke-linecap:butt;stroke-linejoin:miter;stroke-opacity:1" d="M 527.377,177.922 527.377,194.026 z" id="boundary" inkscape:connector-curvature="0" />
	<path style="fill:none;stroke:red;stroke-width:1px;stroke-linecap:butt;stroke-linejoin:miter;stroke-opacity:1" d="M 527.377,210.13 527.377,194.026 z" id="boundary" inkscape:connector-curvature="0" />
	<path style="fill:none;stroke:red;stroke-width:1px;stroke-linecap:butt;stroke-linejoin:miter;stroke-opacity:1" d="M 527.377,177.922 527.377,161.818 z" id="boundary" inkscape:connector-curvature="0" />
	<path style="fill:none;stroke:red;stroke-width:1px;stroke-linecap:butt;stroke-linejoin:miter;stroke-opacity:1" d="M 607.896,79.6883 617.558,92.5714 z" id="boundary" inkscape:connector-curvature="0" />
	<path style="fill:none;stroke:red;stroke-width:1px;stroke-linecap:butt;stroke-linejoin:miter;stroke-opacity:1" d="M 617.558,92.5714 625.61,107.065 z" id="boundary" inkscape:connector-curvature="0" />
	<path style="fill:none;stroke:red;stroke-width:1px;stroke-linecap:butt;stroke-linejoin:miter;stroke-opacity:1" d="M 625.61,107.065 625.61,123.169 z" id="boundary" inkscape:connector-curvature="0" />
	<path style="fill:none;stroke:red;stroke-width:1px;stroke-linecap:butt;stroke-linejoin:miter;stroke-opacity:1" d="M 625.61,139.273 625.61,155.377 z" id="boundary" inkscape:connector-curvature="0" />
	<path style="fill:none;stroke:red;stroke-width:1px;stroke-linecap:butt;stroke-linejoin:miter;stroke-opacity:1" d="M 625.61,171.481 625.61,187.584 z" id="boundary" inkscape:connector-curvature="0" />
	<path style="fill:none;stroke:red;stroke-width:1px;stroke-linecap:butt;stroke-linejoin:miter;stroke-opacity:1" d="M 625.61,203.688 625.61,187.584 z" id="boundary" inkscape:connector-curvature="0" />
	<path style="fill:none;stroke:red;stroke-width:1px;stroke-linecap:butt;stroke-linejoin:miter;stroke-opacity:1" d="M 625.61,171.481 625.61,155.377 z" id="boundary" inkscape:connector-curvature="0" />
	<path style="fill:none;stroke:red;stroke-width:1px;stroke-linecap:butt;stroke-linejoin:miter;stroke-opacity:1" d="M 595.013,68.4156 607.896,79.6883 z" id="boundary" inkscape:connector-curvature="0" />
	<path style="fill:none;stroke:red;stroke-width:1px;stroke-linecap:butt;stroke-linejoin:miter;stroke-opacity:1" d="M 578.909,68.4156 595.013,68.4156 z" id="boundary" inkscape:connector-curvature="0" />
	<path style="fill:none;stroke:red;stroke-width:1px;stroke-linecap:butt;stroke-linejoin:miter;stroke-opacity:1" d="M 527.377,226.234 527.377,242.338 z" id="boundary" inkscape:connector-curvature="0" />
	<path style="fill:none;stroke:red;stroke-width:1px;stroke-linecap:butt;stroke-linejoin:miter;stroke-opacity:1" d="M 617.558,239.117 617.558,255.221 z" id="boundary" inkscape:connector-curvature="0" />
	<path style="fill:none;stroke:red;stroke-width:1px;stroke-linecap:butt;stroke-linejoin:miter;stroke-opacity:1" d="M 617.558,239.117 625.61,219.792 z" id="boundary" inkscape:connector-curvature="0" />
	<path style="fill:none;stroke:red;stroke-width:1px;stroke-linecap:butt;stroke-linejoin:miter;stroke-opacity:1" d="M 527.377,226.234 527.377,210.13 z" id="boundary" inkscape:connector-curvature="0" />
	<path style="fill:none;stroke:red;stroke-width:1px;stroke-linecap:butt;stroke-linejoin:miter;stroke-opacity:1" d="M 527.377,258.442 527.377,242.338 z" id="boundary" inkscape:connector-curvature="0" />
	<path style="fill:none;stroke:red;stroke-width:1px;stroke-linecap:butt;stroke-linejoin:miter;stroke-opacity:1" d="M 601.455,376 601.455,392.104 z" id="boundary" inkscape:connector-curvature="0" />
	<path style="fill:none;stroke:red;stroke-width:1px;stroke-linecap:butt;stroke-linejoin:miter;stroke-opacity:1" d="M 609.506,335.74 609.506,351.844 z" id="boundary" inkscape:connector-curvature="0" />
	<path style="fill:none;stroke:red;stroke-width:1px;stroke-linecap:butt;stroke-linejoin:miter;stroke-opacity:1" d="M 609.506,351.844 601.455,376 z" id="boundary" inkscape:connector-curvature="0" />
	<path style="fill:none;stroke:red;stroke-width:1px;stroke-linecap:butt;stroke-linejoin:miter;stroke-opacity:1" d="M 609.506,335.74 617.558,319.636 z" id="boundary" inkscape:connector-curvature="0" />
	<path style="fill:none;stroke:red;stroke-width:1px;stroke-linecap:butt;stroke-linejoin:miter;stroke-opacity:1" d="M 617.558,255.221 617.558,271.325 z" id="boundary" inkscape:connector-curvature="0" />
	<path style="fill:none;stroke:red;stroke-width:1px;stroke-linecap:butt;stroke-linejoin:miter;stroke-opacity:1" d="M 617.558,271.325 617.558,287.429 z" id="boundary" inkscape:connector-curvature="0" />
	<path style="fill:none;stroke:red;stroke-width:1px;stroke-linecap:butt;stroke-linejoin:miter;stroke-opacity:1" d="M 617.558,319.636 617.558,303.532 z" id="boundary" inkscape:connector-curvature="0" />
	<path style="fill:none;stroke:red;stroke-width:1px;stroke-linecap:butt;stroke-linejoin:miter;stroke-opacity:1" d="M 617.558,303.532 617.558,287.429 z" id="boundary" inkscape:connector-curvature="0" />
	<path style="fill:none;stroke:red;stroke-width:1px;stroke-linecap:butt;stroke-linejoin:miter;stroke-opacity:1" d="M 720.623,419.481 728.675,403.377 z" id="boundary" inkscape:connector-curvature="0" />
	<path style="fill:none;stroke:red;stroke-width:1px;stroke-linecap:butt;stroke-linejoin:miter;stroke-opacity:1" d="M 728.675,403.377 744.779,398.545 z" id="boundary" inkscape:connector-curvature="0" />
	<path style="fill:none;stroke:red;stroke-width:1px;stroke-linecap:butt;stroke-linejoin:miter;stroke-opacity:1" d="M 759.273,390.494 744.779,398.545 z" id="boundary" inkscape:connector-curvature="0" />
	<path style="fill:none;stroke:red;stroke-width:1px;stroke-linecap:butt;stroke-linejoin:miter;stroke-opacity:1" d="M 775.377,392.104 759.273,390.494 z" id="boundary" inkscape:connector-curvature="0" />
	<path style="fill:none;stroke:red;stroke-width:1px;stroke-linecap:butt;stroke-linejoin:miter;stroke-opacity:1" d="M 625.61,219.792 625.61,203.688 z" id="boundary" inkscape:connector-curvature="0" />
	<path style="fill:none;stroke:red;stroke-width:1px;stroke-linecap:butt;stroke-linejoin:miter;stroke-opacity:1" d="M 789.87,400.156 794.701,416.26 z" id="boundary" inkscape:connector-curvature="0" />
	<path style="fill:none;stroke:red;stroke-width:1px;stroke-linecap:butt;stroke-linejoin:miter;stroke-opacity:1" d="M 775.377,392.104 789.87,400.156 z" id="boundary" inkscape:connector-curvature="0" />
	<path style="fill:none;stroke:red;stroke-width:1px;stroke-linecap:butt;stroke-linejoin:miter;stroke-opacity:1" d="M 601.455,392.104 601.455,408.208 z" id="boundary" inkscape:connector-curvature="0" />
	<path style="fill:none;stroke:red;stroke-width:1px;stroke-linecap:butt;stroke-linejoin:miter;stroke-opacity:1" d="M 601.455,424.312 601.455,440.416 z" id="boundary" inkscape:connector-curvature="0" />
	<path style="fill:none;stroke:red;stroke-width:1px;stroke-linecap:butt;stroke-linejoin:miter;stroke-opacity:1" d="M 601.455,472.623 601.455,456.519 z" id="boundary" inkscape:connector-curvature="0" />
	<path style="fill:none;stroke:red;stroke-width:1px;stroke-linecap:butt;stroke-linejoin:miter;stroke-opacity:1" d="M 601.455,456.519 601.455,440.416 z" id="boundary" inkscape:connector-curvature="0" />
	<path style="fill:none;stroke:red;stroke-width:1px;stroke-linecap:butt;stroke-linejoin:miter;stroke-opacity:1" d="M 585.351,528.987 585.351,545.091 z" id="boundary" inkscape:connector-curvature="0" />
	<path style="fill:none;stroke:red;stroke-width:1px;stroke-linecap:butt;stroke-linejoin:miter;stroke-opacity:1" d="M 598.234,554.753 585.351,545.091 z" id="boundary" inkscape:connector-curvature="0" />
	<path style="fill:none;stroke:red;stroke-width:1px;stroke-linecap:butt;stroke-linejoin:miter;stroke-opacity:1" d="M 585.351,512.883 601.455,504.831 z" id="boundary" inkscape:connector-curvature="0" />
	<path style="fill:none;stroke:red;stroke-width:1px;stroke-linecap:butt;stroke-linejoin:miter;stroke-opacity:1" d="M 585.351,528.987 585.351,512.883 z" id="boundary" inkscape:connector-curvature="0" />
	<path style="fill:none;stroke:red;stroke-width:1px;stroke-linecap:butt;stroke-linejoin:miter;stroke-opacity:1" d="M 601.455,472.623 601.455,488.727 z" id="boundary" inkscape:connector-curvature="0" />
	<path style="fill:none;stroke:red;stroke-width:1px;stroke-linecap:butt;stroke-linejoin:miter;stroke-opacity:1" d="M 598.234,554.753 601.455,570.857 z" id="boundary" inkscape:connector-curvature="0" />
	<path style="fill:none;stroke:red;stroke-width:1px;stroke-linecap:butt;stroke-linejoin:miter;stroke-opacity:1" d="M 601.455,488.727 601.455,504.831 z" id="boundary" inkscape:connector-curvature="0" />
	<path style="fill:none;stroke:red;stroke-width:1px;stroke-linecap:butt;stroke-linejoin:miter;stroke-opacity:1" d="M 669.091,591.792 656.208,604.675 z" id="boundary" inkscape:connector-curvature="0" />
	<path style="fill:none;stroke:red;stroke-width:1px;stroke-linecap:butt;stroke-linejoin:miter;stroke-opacity:1" d="M 601.455,570.857 615.948,578.909 z" id="boundary" inkscape:connector-curvature="0" />
	<path style="fill:none;stroke:red;stroke-width:1px;stroke-linecap:butt;stroke-linejoin:miter;stroke-opacity:1" d="M 615.948,578.909 617.558,595.013 z" id="boundary" inkscape:connector-curvature="0" />
	<path style="fill:none;stroke:red;stroke-width:1px;stroke-linecap:butt;stroke-linejoin:miter;stroke-opacity:1" d="M 617.558,595.013 625.61,609.506 z" id="boundary" inkscape:connector-curvature="0" />
	<path style="fill:none;stroke:red;stroke-width:1px;stroke-linecap:butt;stroke-linejoin:miter;stroke-opacity:1" d="M 625.61,609.506 641.714,615.948 z" id="boundary" inkscape:connector-curvature="0" />
	<path style="fill:none;stroke:red;stroke-width:1px;stroke-linecap:butt;stroke-linejoin:miter;stroke-opacity:1" d="M 656.208,604.675 641.714,615.948 z" id="boundary" inkscape:connector-curvature="0" />
	<path style="fill:none;stroke:red;stroke-width:1px;stroke-linecap:butt;stroke-linejoin:miter;stroke-opacity:1" d="M 638.494,847.844 649.766,834.961 z" id="boundary" inkscape:connector-curvature="0" />
	<path style="fill:none;stroke:red;stroke-width:1px;stroke-linecap:butt;stroke-linejoin:miter;stroke-opacity:1" d="M 649.766,834.961 662.649,823.688 z" id="boundary" inkscape:connector-curvature="0" />
	<path style="fill:none;stroke:red;stroke-width:1px;stroke-linecap:butt;stroke-linejoin:miter;stroke-opacity:1" d="M 601.455,424.312 601.455,408.208 z" id="boundary" inkscape:connector-curvature="0" />
	<path style="fill:none;stroke:red;stroke-width:1px;stroke-linecap:butt;stroke-linejoin:miter;stroke-opacity:1" d="M 638.494,847.844 625.61,859.117 z" id="boundary" inkscape:connector-curvature="0" />
	<path style="fill:none;stroke:red;stroke-width:1px;stroke-linecap:butt;stroke-linejoin:miter;stroke-opacity:1" d="M 424.312,996 408.208,996 z" id="boundary" inkscape:connector-curvature="0" />
	<path style="fill:none;stroke:red;stroke-width:1px;stroke-linecap:butt;stroke-linejoin:miter;stroke-opacity:1" d="M 440.416,996 424.312,996 z" id="boundary" inkscape:connector-curvature="0" />
	<path style="fill:none;stroke:red;stroke-width:1px;stroke-linecap:butt;stroke-linejoin:miter;stroke-opacity:1" d="M 496.779,979.896 496.779,963.792 z" id="boundary" inkscape:connector-curvature="0" />
	<path style="fill:none;stroke:red;stroke-width:1px;stroke-linecap:butt;stroke-linejoin:miter;stroke-opacity:1" d="M 408.208,996 392.104,996 z" id="boundary" inkscape:connector-curvature="0" />
	<path style="fill:none;stroke:red;stroke-width:1px;stroke-linecap:butt;stroke-linejoin:miter;stroke-opacity:1" d="M 504.831,947.688 496.779,963.792 z" id="boundary" inkscape:connector-curvature="0" />
	<path style="fill:none;stroke:red;stroke-width:1px;stroke-linecap:butt;stroke-linejoin:miter;stroke-opacity:1" d="M 472.623,996 456.519,996 z" id="boundary" inkscape:connector-curvature="0" />
	<path style="fill:none;stroke:red;stroke-width:1px;stroke-linecap:butt;stroke-linejoin:miter;stroke-opacity:1" d="M 488.727,996 472.623,996 z" id="boundary" inkscape:connector-curvature="0" />
	<path style="fill:none;stroke:red;stroke-width:1px;stroke-linecap:butt;stroke-linejoin:miter;stroke-opacity:1" d="M 496.779,979.896 488.727,996 z" id="boundary" inkscape:connector-curvature="0" />
	<path style="fill:none;stroke:red;stroke-width:1px;stroke-linecap:butt;stroke-linejoin:miter;stroke-opacity:1" d="M 456.519,996 440.416,996 z" id="boundary" inkscape:connector-curvature="0" />
	<path style="fill:none;stroke:red;stroke-width:1px;stroke-linecap:butt;stroke-linejoin:miter;stroke-opacity:1" d="M 577.299,907.429 591.792,899.377 z" id="boundary" inkscape:connector-curvature="0" />
	<path style="fill:none;stroke:red;stroke-width:1px;stroke-linecap:butt;stroke-linejoin:miter;stroke-opacity:1" d="M 601.455,883.273 591.792,899.377 z" id="boundary" inkscape:connector-curvature="0" />
	<path style="fill:none;stroke:red;stroke-width:1px;stroke-linecap:butt;stroke-linejoin:miter;stroke-opacity:1" d="M 625.61,859.117 614.338,872 z" id="boundary" inkscape:connector-curvature="0" />
	<path style="fill:none;stroke:red;stroke-width:1px;stroke-linecap:butt;stroke-linejoin:miter;stroke-opacity:1" d="M 614.338,872 601.455,883.273 z" id="boundary" inkscape:connector-curvature="0" />
	<path style="fill:none;stroke:red;stroke-width:1px;stroke-linecap:butt;stroke-linejoin:miter;stroke-opacity:1" d="M 504.831,947.688 519.325,939.636 z" id="boundary" inkscape:connector-curvature="0" />
	<path style="fill:none;stroke:red;stroke-width:1px;stroke-linecap:butt;stroke-linejoin:miter;stroke-opacity:1" d="M 532.208,929.974 545.091,915.481 z" id="boundary" inkscape:connector-curvature="0" />
	<path style="fill:none;stroke:red;stroke-width:1px;stroke-linecap:butt;stroke-linejoin:miter;stroke-opacity:1" d="M 545.091,915.481 561.195,915.481 z" id="boundary" inkscape:connector-curvature="0" />
	<path style="fill:none;stroke:red;stroke-width:1px;stroke-linecap:butt;stroke-linejoin:miter;stroke-opacity:1" d="M 532.208,929.974 519.325,939.636 z" id="boundary" inkscape:connector-curvature="0" />
	<path style="fill:none;stroke:red;stroke-width:1px;stroke-linecap:butt;stroke-linejoin:miter;stroke-opacity:1" d="M 577.299,907.429 561.195,915.481 z" id="boundary" inkscape:connector-curvature="0" />
	<path style="fill:none;stroke:red;stroke-width:1px;stroke-linecap:butt;stroke-linejoin:miter;stroke-opacity:1" d="M 392.104,996 376,996 z" id="boundary" inkscape:connector-curvature="0" />
	<path style="fill:none;stroke:red;stroke-width:1px;stroke-linecap:butt;stroke-linejoin:miter;stroke-opacity:1" d="M 704.519,427.532 704.519,443.636 z" id="boundary" inkscape:connector-curvature="0" />
	<path style="fill:none;stroke:red;stroke-width:1px;stroke-linecap:butt;stroke-linejoin:miter;stroke-opacity:1" d="M 704.519,443.636 696.468,459.74 z" id="boundary" inkscape:connector-curvature="0" />
	<path style="fill:none;stroke:red;stroke-width:1px;stroke-linecap:butt;stroke-linejoin:miter;stroke-opacity:1" d="M 696.468,459.74 688.416,483.896 z" id="boundary" inkscape:connector-curvature="0" />
	<path style="fill:none;stroke:red;stroke-width:1px;stroke-linecap:butt;stroke-linejoin:miter;stroke-opacity:1" d="M 704.519,427.532 720.623,419.481 z" id="boundary" inkscape:connector-curvature="0" />
	<path style="fill:none;stroke:red;stroke-width:1px;stroke-linecap:butt;stroke-linejoin:miter;stroke-opacity:1" d="M 688.416,500 688.416,516.104 z" id="boundary" inkscape:connector-curvature="0" />
	<path style="fill:none;stroke:red;stroke-width:1px;stroke-linecap:butt;stroke-linejoin:miter;stroke-opacity:1" d="M 688.416,500 688.416,483.896 z" id="boundary" inkscape:connector-curvature="0" />
	<path style="fill:none;stroke:red;stroke-width:1px;stroke-linecap:butt;stroke-linejoin:miter;stroke-opacity:1" d="M 688.416,516.104 696.468,530.597 z" id="boundary" inkscape:connector-curvature="0" />
	<path style="fill:none;stroke:red;stroke-width:1px;stroke-linecap:butt;stroke-linejoin:miter;stroke-opacity:1" d="M 696.468,530.597 696.468,546.701 z" id="boundary" inkscape:connector-curvature="0" />
	<path style="fill:none;stroke:red;stroke-width:1px;stroke-linecap:butt;stroke-linejoin:miter;stroke-opacity:1" d="M 696.468,546.701 690.026,562.805 z" id="boundary" inkscape:connector-curvature="0" />
	<path style="fill:none;stroke:red;stroke-width:1px;stroke-linecap:butt;stroke-linejoin:miter;stroke-opacity:1" d="M 794.701,432.364 794.701,416.26 z" id="boundary" inkscape:connector-curvature="0" />
	<path style="fill:none;stroke:red;stroke-width:1px;stroke-linecap:butt;stroke-linejoin:miter;stroke-opacity:1" d="M 794.701,448.468 794.701,464.571 z" id="boundary" inkscape:connector-curvature="0" />
	<path style="fill:none;stroke:red;stroke-width:1px;stroke-linecap:butt;stroke-linejoin:miter;stroke-opacity:1" d="M 794.701,480.675 794.701,464.571 z" id="boundary" inkscape:connector-curvature="0" />
	<path style="fill:none;stroke:red;stroke-width:1px;stroke-linecap:butt;stroke-linejoin:miter;stroke-opacity:1" d="M 794.701,448.468 794.701,432.364 z" id="boundary" inkscape:connector-curvature="0" />
	<path style="fill:none;stroke:red;stroke-width:1px;stroke-linecap:butt;stroke-linejoin:miter;stroke-opacity:1" d="M 794.701,496.779 797.922,512.883 z" id="boundary" inkscape:connector-curvature="0" />
	<path style="fill:none;stroke:red;stroke-width:1px;stroke-linecap:butt;stroke-linejoin:miter;stroke-opacity:1" d="M 805.974,527.377 797.922,512.883 z" id="boundary" inkscape:connector-curvature="0" />
	<path style="fill:none;stroke:red;stroke-width:1px;stroke-linecap:butt;stroke-linejoin:miter;stroke-opacity:1" d="M 805.974,527.377 810.805,543.481 z" id="boundary" inkscape:connector-curvature="0" />
	<path style="fill:none;stroke:red;stroke-width:1px;stroke-linecap:butt;stroke-linejoin:miter;stroke-opacity:1" d="M 810.805,543.481 810.805,559.584 z" id="boundary" inkscape:connector-curvature="0" />
	<path style="fill:none;stroke:red;stroke-width:1px;stroke-linecap:butt;stroke-linejoin:miter;stroke-opacity:1" d="M 818.857,574.078 810.805,559.584 z" id="boundary" inkscape:connector-curvature="0" />
	<path style="fill:none;stroke:red;stroke-width:1px;stroke-linecap:butt;stroke-linejoin:miter;stroke-opacity:1" d="M 794.701,496.779 794.701,480.675 z" id="boundary" inkscape:connector-curvature="0" />
	<path style="fill:none;stroke:red;stroke-width:1px;stroke-linecap:butt;stroke-linejoin:miter;stroke-opacity:1" d="M 730.286,706.13 722.234,730.286 z" id="boundary" inkscape:connector-curvature="0" />
	<path style="fill:none;stroke:red;stroke-width:1px;stroke-linecap:butt;stroke-linejoin:miter;stroke-opacity:1" d="M 681.974,578.909 669.091,591.792 z" id="boundary" inkscape:connector-curvature="0" />
	<path style="fill:none;stroke:red;stroke-width:1px;stroke-linecap:butt;stroke-linejoin:miter;stroke-opacity:1" d="M 722.234,730.286 714.182,746.39 z" id="boundary" inkscape:connector-curvature="0" />
	<path style="fill:none;stroke:red;stroke-width:1px;stroke-linecap:butt;stroke-linejoin:miter;stroke-opacity:1" d="M 681.974,578.909 690.026,562.805 z" id="boundary" inkscape:connector-curvature="0" />
	<path style="fill:none;stroke:red;stroke-width:1px;stroke-linecap:butt;stroke-linejoin:miter;stroke-opacity:1" d="M 672.312,810.805 662.649,823.688 z" id="boundary" inkscape:connector-curvature="0" />
	<path style="fill:none;stroke:red;stroke-width:1px;stroke-linecap:butt;stroke-linejoin:miter;stroke-opacity:1" d="M 681.974,794.701 690.026,778.597 z" id="boundary" inkscape:connector-curvature="0" />
	<path style="fill:none;stroke:red;stroke-width:1px;stroke-linecap:butt;stroke-linejoin:miter;stroke-opacity:1" d="M 690.026,778.597 702.909,767.325 z" id="boundary" inkscape:connector-curvature="0" />
	<path style="fill:none;stroke:red;stroke-width:1px;stroke-linecap:butt;stroke-linejoin:miter;stroke-opacity:1" d="M 681.974,794.701 672.312,810.805 z" id="boundary" inkscape:connector-curvature="0" />
	<path style="fill:none;stroke:red;stroke-width:1px;stroke-linecap:butt;stroke-linejoin:miter;stroke-opacity:1" d="M 714.182,746.39 702.909,767.325 z" id="boundary" inkscape:connector-curvature="0" />
	<path style="fill:none;stroke:red;stroke-width:1px;stroke-linecap:butt;stroke-linejoin:miter;stroke-opacity:1" d="M 783.429,638.494 794.701,617.558 z" id="boundary" inkscape:connector-curvature="0" />
	<path style="fill:none;stroke:red;stroke-width:1px;stroke-linecap:butt;stroke-linejoin:miter;stroke-opacity:1" d="M 794.701,617.558 807.584,606.286 z" id="boundary" inkscape:connector-curvature="0" />
	<path style="fill:none;stroke:red;stroke-width:1px;stroke-linecap:butt;stroke-linejoin:miter;stroke-opacity:1" d="M 783.429,638.494 770.545,649.766 z" id="boundary" inkscape:connector-curvature="0" />
	<path style="fill:none;stroke:red;stroke-width:1px;stroke-linecap:butt;stroke-linejoin:miter;stroke-opacity:1" d="M 815.636,590.182 807.584,606.286 z" id="boundary" inkscape:connector-curvature="0" />
	<path style="fill:none;stroke:red;stroke-width:1px;stroke-linecap:butt;stroke-linejoin:miter;stroke-opacity:1" d="M 730.286,706.13 744.779,698.078 z" id="boundary" inkscape:connector-curvature="0" />
	<path style="fill:none;stroke:red;stroke-width:1px;stroke-linecap:butt;stroke-linejoin:miter;stroke-opacity:1" d="M 754.442,681.974 744.779,698.078 z" id="boundary" inkscape:connector-curvature="0" />
	<path style="fill:none;stroke:red;stroke-width:1px;stroke-linecap:butt;stroke-linejoin:miter;stroke-opacity:1" d="M 770.545,649.766 767.325,670.701 z" id="boundary" inkscape:connector-curvature="0" />
	<path style="fill:none;stroke:red;stroke-width:1px;stroke-linecap:butt;stroke-linejoin:miter;stroke-opacity:1" d="M 767.325,670.701 754.442,681.974 z" id="boundary" inkscape:connector-curvature="0" />
	<path style="fill:none;stroke:red;stroke-width:1px;stroke-linecap:butt;stroke-linejoin:miter;stroke-opacity:1" d="M 818.857,574.078 815.636,590.182 z" id="boundary" inkscape:connector-curvature="0" />
	<path style="fill:none;stroke:red;stroke-width:1px;stroke-linecap:butt;stroke-linejoin:miter;stroke-opacity:1" d="M 387.273,4 403.377,4 z" id="boundary" inkscape:connector-curvature="0" />
	<circle cx="4" cy="258.442" r="4" fill="#0" id="circle0"/>
	<circle cx="4" cy="274.545" r="4" fill="#0" id="circle1"/>
	<circle cx="4" cy="290.649" r="4" fill="#0" id="circle2"/>
	<circle cx="12.0519" cy="242.338" r="4" fill="#0" id="circle3"/>
	<circle cx="12.0519" cy="305.143" r="4" fill="#0" id="circle4"/>
	<circle cx="12.0519" cy="321.247" r="4" fill="#0" id="circle5"/>
	<circle cx="20.1039" cy="335.74" r="4" fill="#0" id="circle6"/>
	<circle cx="20.1039" cy="351.844" r="4" fill="#0" id="circle7"/>
	<circle cx="28.1558" cy="237.506" r="4" fill="#0" id="circle8"/>
	<circle cx="28.1558" cy="366.338" r="4" fill="#0" id="circle9"/>
	<circle cx="37.8182" cy="379.221" r="4" fill="#0" id="circle10"/>
	<circle cx="42.6494" cy="229.455" r="4" fill="#0" id="circle11"/>
	<circle cx="49.0909" cy="392.104" r="4" fill="#0" id="circle12"/>
	<circle cx="58.7532" cy="229.455" r="4" fill="#0" id="circle13"/>
	<circle cx="61.974" cy="403.377" r="4" fill="#0" id="circle14"/>
	<circle cx="73.2468" cy="416.26" r="4" fill="#0" id="circle15"/>
	<circle cx="74.8571" cy="231.065" r="4" fill="#0" id="circle16"/>
	<circle cx="76.4675" cy="432.364" r="4" fill="#0" id="circle17"/>
	<circle cx="86.1299" cy="243.948" r="4" fill="#0" id="circle18"/>
	<circle cx="86.1299" cy="445.247" r="4" fill="#0" id="circle19"/>
	<circle cx="99.013" cy="255.221" r="4" fill="#0" id="circle20"/>
	<circle cx="99.013" cy="456.519" r="4" fill="#0" id="circle21"/>
	<circle cx="105.455" cy="271.325" r="4" fill="#0" id="circle22"/>
	<circle cx="105.455" cy="472.623" r="4" fill="#0" id="circle23"/>
	<circle cx="110.286" cy="287.429" r="4" fill="#0" id="circle24"/>
	<circle cx="118.338" cy="301.922" r="4" fill="#0" id="circle25"/>
	<circle cx="118.338" cy="483.896" r="4" fill="#0" id="circle26"/>
	<circle cx="126.39" cy="316.416" r="4" fill="#0" id="circle27"/>
	<circle cx="129.61" cy="496.779" r="4" fill="#0" id="circle28"/>
	<circle cx="139.273" cy="327.688" r="4" fill="#0" id="circle29"/>
	<circle cx="140.883" cy="509.662" r="4" fill="#0" id="circle30"/>
	<circle cx="142.494" cy="525.766" r="4" fill="#0" id="circle31"/>
	<circle cx="150.545" cy="340.571" r="4" fill="#0" id="circle32"/>
	<circle cx="155.377" cy="537.039" r="4" fill="#0" id="circle33"/>
	<circle cx="156.987" cy="553.143" r="4" fill="#0" id="circle34"/>
	<circle cx="156.987" cy="569.247" r="4" fill="#0" id="circle35"/>
	<circle cx="156.987" cy="585.351" r="4" fill="#0" id="circle36"/>
	<circle cx="156.987" cy="601.455" r="4" fill="#0" id="circle37"/>
	<circle cx="156.987" cy="617.558" r="4" fill="#0" id="circle38"/>
	<circle cx="156.987" cy="633.662" r="4" fill="#0" id="circle39"/>
	<circle cx="156.987" cy="649.766" r="4" fill="#0" id="circle40"/>
	<circle cx="156.987" cy="665.87" r="4" fill="#0" id="circle41"/>
	<circle cx="156.987" cy="681.974" r="4" fill="#0" id="circle42"/>
	<circle cx="156.987" cy="698.078" r="4" fill="#0" id="circle43"/>
	<circle cx="158.597" cy="355.065" r="4" fill="#0" id="circle44"/>
	<circle cx="165.039" cy="371.169" r="4" fill="#0" id="circle45"/>
	<circle cx="165.039" cy="712.571" r="4" fill="#0" id="circle46"/>
	<circle cx="165.039" cy="728.675" r="4" fill="#0" id="circle47"/>
	<circle cx="165.039" cy="744.779" r="4" fill="#0" id="circle48"/>
	<circle cx="173.091" cy="385.662" r="4" fill="#0" id="circle49"/>
	<circle cx="173.091" cy="759.273" r="4" fill="#0" id="circle50"/>
	<circle cx="173.091" cy="775.377" r="4" fill="#0" id="circle51"/>
	<circle cx="173.091" cy="967.013" r="4" fill="#0" id="circle52"/>
	<circle cx="173.091" cy="983.117" r="4" fill="#0" id="circle53"/>
	<circle cx="181.143" cy="789.87" r="4" fill="#0" id="circle54"/>
	<circle cx="181.143" cy="805.974" r="4" fill="#0" id="circle55"/>
	<circle cx="181.143" cy="942.857" r="4" fill="#0" id="circle56"/>
	<circle cx="182.753" cy="398.545" r="4" fill="#0" id="circle57"/>
	<circle cx="182.753" cy="996" r="4" fill="#0" id="circle58"/>
	<circle cx="189.195" cy="820.468" r="4" fill="#0" id="circle59"/>
	<circle cx="189.195" cy="836.571" r="4" fill="#0" id="circle60"/>
	<circle cx="189.195" cy="910.649" r="4" fill="#0" id="circle61"/>
	<circle cx="189.195" cy="926.753" r="4" fill="#0" id="circle62"/>
	<circle cx="190.805" cy="413.039" r="4" fill="#0" id="circle63"/>
	<circle cx="197.247" cy="851.065" r="4" fill="#0" id="circle64"/>
	<circle cx="197.247" cy="867.169" r="4" fill="#0" id="circle65"/>
	<circle cx="197.247" cy="883.273" r="4" fill="#0" id="circle66"/>
	<circle cx="198.857" cy="996" r="4" fill="#0" id="circle67"/>
	<circle cx="203.688" cy="422.701" r="4" fill="#0" id="circle68"/>
	<circle cx="213.351" cy="81.2987" r="4" fill="#0" id="circle69"/>
	<circle cx="213.351" cy="97.4026" r="4" fill="#0" id="circle70"/>
	<circle cx="213.351" cy="113.506" r="4" fill="#0" id="circle71"/>
	<circle cx="213.351" cy="129.61" r="4" fill="#0" id="circle72"/>
	<circle cx="213.351" cy="145.714" r="4" fill="#0" id="circle73"/>
	<circle cx="213.351" cy="161.818" r="4" fill="#0" id="circle74"/>
	<circle cx="213.351" cy="177.922" r="4" fill="#0" id="circle75"/>
	<circle cx="213.351" cy="194.026" r="4" fill="#0" id="circle76"/>
	<circle cx="213.351" cy="210.13" r="4" fill="#0" id="circle77"/>
	<circle cx="214.961" cy="435.584" r="4" fill="#0" id="circle78"/>
	<circle cx="214.961" cy="996" r="4" fill="#0" id="circle79"/>
	<circle cx="221.403" cy="224.623" r="4" fill="#0" id="circle80"/>
	<circle cx="226.234" cy="68.4156" r="4" fill="#0" id="circle81"/>
	<circle cx="229.455" cy="239.117" r="4" fill="#0" id="circle82"/>
	<circle cx="229.455" cy="255.221" r="4" fill="#0" id="circle83"/>
	<circle cx="229.455" cy="271.325" r="4" fill="#0" id="circle84"/>
	<circle cx="229.455" cy="287.429" r="4" fill="#0" id="circle85"/>
	<circle cx="229.455" cy="303.532" r="4" fill="#0" id="circle86"/>
	<circle cx="229.455" cy="319.636" r="4" fill="#0" id="circle87"/>
	<circle cx="229.455" cy="335.74" r="4" fill="#0" id="circle88"/>
	<circle cx="229.455" cy="351.844" r="4" fill="#0" id="circle89"/>
	<circle cx="231.065" cy="438.805" r="4" fill="#0" id="circle90"/>
	<circle cx="231.065" cy="996" r="4" fill="#0" id="circle91"/>
	<circle cx="237.506" cy="366.338" r="4" fill="#0" id="circle92"/>
	<circle cx="237.506" cy="382.442" r="4" fill="#0" id="circle93"/>
	<circle cx="240.727" cy="60.3636" r="4" fill="#0" id="circle94"/>
	<circle cx="240.727" cy="398.545" r="4" fill="#0" id="circle95"/>
	<circle cx="245.558" cy="414.649" r="4" fill="#0" id="circle96"/>
	<circle cx="245.558" cy="430.753" r="4" fill="#0" id="circle97"/>
	<circle cx="245.558" cy="446.857" r="4" fill="#0" id="circle98"/>
	<circle cx="247.169" cy="996" r="4" fill="#0" id="circle99"/>
	<circle cx="256.831" cy="60.3636" r="4" fill="#0" id="circle100"/>
	<circle cx="263.273" cy="996" r="4" fill="#0" id="circle101"/>
	<circle cx="272.935" cy="60.3636" r="4" fill="#0" id="circle102"/>
	<circle cx="279.377" cy="996" r="4" fill="#0" id="circle103"/>
	<circle cx="287.429" cy="68.4156" r="4" fill="#0" id="circle104"/>
	<circle cx="295.481" cy="996" r="4" fill="#0" id="circle105"/>
	<circle cx="300.312" cy="78.0779" r="4" fill="#0" id="circle106"/>
	<circle cx="306.753" cy="94.1818" r="4" fill="#0" id="circle107"/>
	<circle cx="311.584" cy="110.286" r="4" fill="#0" id="circle108"/>
	<circle cx="311.584" cy="126.39" r="4" fill="#0" id="circle109"/>
	<circle cx="311.584" cy="142.494" r="4" fill="#0" id="circle110"/>
	<circle cx="311.584" cy="158.597" r="4" fill="#0" id="circle111"/>
	<circle cx="311.584" cy="174.701" r="4" fill="#0" id="circle112"/>
	<circle cx="311.584" cy="996" r="4" fill="#0" id="circle113"/>
	<circle cx="319.636" cy="189.195" r="4" fill="#0" id="circle114"/>
	<circle cx="319.636" cy="205.299" r="4" fill="#0" id="circle115"/>
	<circle cx="319.636" cy="221.403" r="4" fill="#0" id="circle116"/>
	<circle cx="319.636" cy="237.506" r="4" fill="#0" id="circle117"/>
	<circle cx="319.636" cy="253.61" r="4" fill="#0" id="circle118"/>
	<circle cx="327.688" cy="268.104" r="4" fill="#0" id="circle119"/>
	<circle cx="327.688" cy="284.208" r="4" fill="#0" id="circle120"/>
	<circle cx="327.688" cy="996" r="4" fill="#0" id="circle121"/>
	<circle cx="335.74" cy="298.701" r="4" fill="#0" id="circle122"/>
	<circle cx="335.74" cy="314.805" r="4" fill="#0" id="circle123"/>
	<circle cx="335.74" cy="330.909" r="4" fill="#0" id="circle124"/>
	<circle cx="343.792" cy="345.403" r="4" fill="#0" id="circle125"/>
	<circle cx="343.792" cy="361.506" r="4" fill="#0" id="circle126"/>
	<circle cx="343.792" cy="996" r="4" fill="#0" id="circle127"/>
	<circle cx="353.455" cy="374.39" r="4" fill="#0" id="circle128"/>
	<circle cx="359.896" cy="996" r="4" fill="#0" id="circle129"/>
	<circle cx="366.338" cy="41.039" r="4" fill="#0" id="circle130"/>
	<circle cx="366.338" cy="57.1429" r="4" fill="#0" id="circle131"/>
	<circle cx="366.338" cy="73.2468" r="4" fill="#0" id="circle132"/>
	<circle cx="366.338" cy="89.3506" r="4" fill="#0" id="circle133"/>
	<circle cx="366.338" cy="105.455" r="4" fill="#0" id="circle134"/>
	<circle cx="366.338" cy="121.558" r="4" fill="#0" id="circle135"/>
	<circle cx="366.338" cy="137.662" r="4" fill="#0" id="circle136"/>
	<circle cx="366.338" cy="153.766" r="4" fill="#0" id="circle137"/>
	<circle cx="366.338" cy="169.87" r="4" fill="#0" id="circle138"/>
	<circle cx="366.338" cy="185.974" r="4" fill="#0" id="circle139"/>
	<circle cx="366.338" cy="202.078" r="4" fill="#0" id="circle140"/>
	<circle cx="366.338" cy="218.182" r="4" fill="#0" id="circle141"/>
	<circle cx="366.338" cy="234.286" r="4" fill="#0" id="circle142"/>
	<circle cx="366.338" cy="250.39" r="4" fill="#0" id="circle143"/>
	<circle cx="366.338" cy="266.494" r="4" fill="#0" id="circle144"/>
	<circle cx="366.338" cy="282.597" r="4" fill="#0" id="circle145"/>
	<circle cx="366.338" cy="298.701" r="4" fill="#0" id="circle146"/>
	<circle cx="366.338" cy="314.805" r="4" fill="#0" id="circle147"/>
	<circle cx="366.338" cy="330.909" r="4" fill="#0" id="circle148"/>
	<circle cx="366.338" cy="347.013" r="4" fill="#0" id="circle149"/>
	<circle cx="366.338" cy="363.117" r="4" fill="#0" id="circle150"/>
	<circle cx="374.39" cy="16.8831" r="4" fill="#0" id="circle151"/>
	<circle cx="376" cy="996" r="4" fill="#0" id="circle152"/>
	<circle cx="387.273" cy="4" r="4" fill="#0" id="circle153"/>
	<circle cx="392.104" cy="996" r="4" fill="#0" id="circle154"/>
	<circle cx="403.377" cy="4" r="4" fill="#0" id="circle155"/>
	<circle cx="408.208" cy="996" r="4" fill="#0" id="circle156"/>
	<circle cx="419.481" cy="4" r="4" fill="#0" id="circle157"/>
	<circle cx="424.312" cy="996" r="4" fill="#0" id="circle158"/>
	<circle cx="435.584" cy="4" r="4" fill="#0" id="circle159"/>
	<circle cx="440.416" cy="996" r="4" fill="#0" id="circle160"/>
	<circle cx="450.078" cy="12.0519" r="4" fill="#0" id="circle161"/>
	<circle cx="456.519" cy="996" r="4" fill="#0" id="circle162"/>
	<circle cx="462.961" cy="23.3247" r="4" fill="#0" id="circle163"/>
	<circle cx="464.571" cy="182.753" r="4" fill="#0" id="circle164"/>
	<circle cx="464.571" cy="198.857" r="4" fill="#0" id="circle165"/>
	<circle cx="467.792" cy="214.961" r="4" fill="#0" id="circle166"/>
	<circle cx="469.403" cy="39.4286" r="4" fill="#0" id="circle167"/>
	<circle cx="472.623" cy="55.5325" r="4" fill="#0" id="circle168"/>
	<circle cx="472.623" cy="71.6364" r="4" fill="#0" id="circle169"/>
	<circle cx="472.623" cy="87.7403" r="4" fill="#0" id="circle170"/>
	<circle cx="472.623" cy="103.844" r="4" fill="#0" id="circle171"/>
	<circle cx="472.623" cy="119.948" r="4" fill="#0" id="circle172"/>
	<circle cx="472.623" cy="136.052" r="4" fill="#0" id="circle173"/>
	<circle cx="472.623" cy="152.156" r="4" fill="#0" id="circle174"/>
	<circle cx="472.623" cy="168.26" r="4" fill="#0" id="circle175"/>
	<circle cx="472.623" cy="231.065" r="4" fill="#0" id="circle176"/>
	<circle cx="472.623" cy="247.169" r="4" fill="#0" id="circle177"/>
	<circle cx="472.623" cy="263.273" r="4" fill="#0" id="circle178"/>
	<circle cx="472.623" cy="279.377" r="4" fill="#0" id="circle179"/>
	<circle cx="472.623" cy="295.481" r="4" fill="#0" id="circle180"/>
	<circle cx="472.623" cy="311.584" r="4" fill="#0" id="circle181"/>
	<circle cx="472.623" cy="327.688" r="4" fill="#0" id="circle182"/>
	<circle cx="472.623" cy="343.792" r="4" fill="#0" id="circle183"/>
	<circle cx="472.623" cy="359.896" r="4" fill="#0" id="circle184"/>
	<circle cx="472.623" cy="376" r="4" fill="#0" id="circle185"/>
	<circle cx="472.623" cy="996" r="4" fill="#0" id="circle186"/>
	<circle cx="480.675" cy="390.494" r="4" fill="#0" id="circle187"/>
	<circle cx="488.727" cy="996" r="4" fill="#0" id="circle188"/>
	<circle cx="495.169" cy="338.961" r="4" fill="#0" id="circle189"/>
	<circle cx="495.169" cy="355.065" r="4" fill="#0" id="circle190"/>
	<circle cx="495.169" cy="371.169" r="4" fill="#0" id="circle191"/>
	<circle cx="496.779" cy="963.792" r="4" fill="#0" id="circle192"/>
	<circle cx="496.779" cy="979.896" r="4" fill="#0" id="circle193"/>
	<circle cx="503.221" cy="306.753" r="4" fill="#0" id="circle194"/>
	<circle cx="503.221" cy="322.857" r="4" fill="#0" id="circle195"/>
	<circle cx="504.831" cy="947.688" r="4" fill="#0" id="circle196"/>
	<circle cx="511.273" cy="266.494" r="4" fill="#0" id="circle197"/>
	<circle cx="511.273" cy="282.597" r="4" fill="#0" id="circle198"/>
	<circle cx="519.325" cy="939.636" r="4" fill="#0" id="circle199"/>
	<circle cx="527.377" cy="113.506" r="4" fill="#0" id="circle200"/>
	<circle cx="527.377" cy="129.61" r="4" fill="#0" id="circle201"/>
	<circle cx="527.377" cy="145.714" r="4" fill="#0" id="circle202"/>
	<circle cx="527.377" cy="161.818" r="4" fill="#0" id="circle203"/>
	<circle cx="527.377" cy="177.922" r="4" fill="#0" id="circle204"/>
	<circle cx="527.377" cy="194.026" r="4" fill="#0" id="circle205"/>
	<circle cx="527.377" cy="210.13" r="4" fill="#0" id="circle206"/>
	<circle cx="527.377" cy="226.234" r="4" fill="#0" id="circle207"/>
	<circle cx="527.377" cy="242.338" r="4" fill="#0" id="circle208"/>
	<circle cx="527.377" cy="258.442" r="4" fill="#0" id="circle209"/>
	<circle cx="532.208" cy="929.974" r="4" fill="#0" id="circle210"/>
	<circle cx="535.429" cy="89.3506" r="4" fill="#0" id="circle211"/>
	<circle cx="545.091" cy="915.481" r="4" fill="#0" id="circle212"/>
	<circle cx="548.312" cy="76.4675" r="4" fill="#0" id="circle213"/>
	<circle cx="561.195" cy="915.481" r="4" fill="#0" id="circle214"/>
	<circle cx="562.805" cy="68.4156" r="4" fill="#0" id="circle215"/>
	<circle cx="577.299" cy="907.429" r="4" fill="#0" id="circle216"/>
	<circle cx="578.909" cy="68.4156" r="4" fill="#0" id="circle217"/>
	<circle cx="585.351" cy="512.883" r="4" fill="#0" id="circle218"/>
	<circle cx="585.351" cy="528.987" r="4" fill="#0" id="circle219"/>
	<circle cx="585.351" cy="545.091" r="4" fill="#0" id="circle220"/>
	<circle cx="591.792" cy="899.377" r="4" fill="#0" id="circle221"/>
	<circle cx="595.013" cy="68.4156" r="4" fill="#0" id="circle222"/>
	<circle cx="598.234" cy="554.753" r="4" fill="#0" id="circle223"/>
	<circle cx="601.455" cy="376" r="4" fill="#0" id="circle224"/>
	<circle cx="601.455" cy="392.104" r="4" fill="#0" id="circle225"/>
	<circle cx="601.455" cy="408.208" r="4" fill="#0" id="circle226"/>
	<circle cx="601.455" cy="424.312" r="4" fill="#0" id="circle227"/>
	<circle cx="601.455" cy="440.416" r="4" fill="#0" id="circle228"/>
	<circle cx="601.455" cy="456.519" r="4" fill="#0" id="circle229"/>
	<circle cx="601.455" cy="472.623" r="4" fill="#0" id="circle230"/>
	<circle cx="601.455" cy="488.727" r="4" fill="#0" id="circle231"/>
	<circle cx="601.455" cy="504.831" r="4" fill="#0" id="circle232"/>
	<circle cx="601.455" cy="570.857" r="4" fill="#0" id="circle233"/>
	<circle cx="601.455" cy="883.273" r="4" fill="#0" id="circle234"/>
	<circle cx="607.896" cy="79.6883" r="4" fill="#0" id="circle235"/>
	<circle cx="609.506" cy="335.74" r="4" fill="#0" id="circle236"/>
	<circle cx="609.506" cy="351.844" r="4" fill="#0" id="circle237"/>
	<circle cx="614.338" cy="872" r="4" fill="#0" id="circle238"/>
	<circle cx="615.948" cy="578.909" r="4" fill="#0" id="circle239"/>
	<circle cx="617.558" cy="92.5714" r="4" fill="#0" id="circle240"/>
	<circle cx="617.558" cy="239.117" r="4" fill="#0" id="circle241"/>
	<circle cx="617.558" cy="255.221" r="4" fill="#0" id="circle242"/>
	<circle cx="617.558" cy="271.325" r="4" fill="#0" id="circle243"/>
	<circle cx="617.558" cy="287.429" r="4" fill="#0" id="circle244"/>
	<circle cx="617.558" cy="303.532" r="4" fill="#0" id="circle245"/>
	<circle cx="617.558" cy="319.636" r="4" fill="#0" id="circle246"/>
	<circle cx="617.558" cy="595.013" r="4" fill="#0" id="circle247"/>
	<circle cx="625.61" cy="107.065" r="4" fill="#0" id="circle248"/>
	<circle cx="625.61" cy="123.169" r="4" fill="#0" id="circle249"/>
	<circle cx="625.61" cy="139.273" r="4" fill="#0" id="circle250"/>
	<circle cx="625.61" cy="155.377" r="4" fill="#0" id="circle251"/>
	<circle cx="625.61" cy="171.481" r="4" fill="#0" id="circle252"/>
	<circle cx="625.61" cy="187.584" r="4" fill="#0" id="circle253"/>
	<circle cx="625.61" cy="203.688" r="4" fill="#0" id="circle254"/>
	<circle cx="625.61" cy="219.792" r="4" fill="#0" id="circle255"/>
	<circle cx="625.61" cy="609.506" r="4" fill="#0" id="circle256"/>
	<circle cx="625.61" cy="859.117" r="4" fill="#0" id="circle257"/>
	<circle cx="638.494" cy="847.844" r="4" fill="#0" id="circle258"/>
	<circle cx="641.714" cy="615.948" r="4" fill="#0" id="circle259"/>
	<circle cx="649.766" cy="834.961" r="4" fill="#0" id="circle260"/>
	<circle cx="656.208" cy="604.675" r="4" fill="#0" id="circle261"/>
	<circle cx="662.649" cy="823.688" r="4" fill="#0" id="circle262"/>
	<circle cx="669.091" cy="591.792" r="4" fill="#0" id="circle263"/>
	<circle cx="672.312" cy="810.805" r="4" fill="#0" id="circle264"/>
	<circle cx="681.974" cy="578.909" r="4" fill="#0" id="circle265"/>
	<circle cx="681.974" cy="794.701" r="4" fill="#0" id="circle266"/>
	<circle cx="688.416" cy="483.896" r="4" fill="#0" id="circle267"/>
	<circle cx="688.416" cy="500" r="4" fill="#0" id="circle268"/>
	<circle cx="688.416" cy="516.104" r="4" fill="#0" id="circle269"/>
	<circle cx="690.026" cy="562.805" r="4" fill="#0" id="circle270"/>
	<circle cx="690.026" cy="778.597" r="4" fill="#0" id="circle271"/>
	<circle cx="696.468" cy="459.74" r="4" fill="#0" id="circle272"/>
	<circle cx="696.468" cy="530.597" r="4" fill="#0" id="circle273"/>
	<circle cx="696.468" cy="546.701" r="4" fill="#0" id="circle274"/>
	<circle cx="702.909" cy="767.325" r="4" fill="#0" id="circle275"/>
	<circle cx="704.519" cy="427.532" r="4" fill="#0" id="circle276"/>
	<circle cx="704.519" cy="443.636" r="4" fill="#0" id="circle277"/>
	<circle cx="714.182" cy="746.39" r="4" fill="#0" id="circle278"/>
	<circle cx="720.623" cy="419.481" r="4" fill="#0" id="circle279"/>
	<circle cx="722.234" cy="730.286" r="4" fill="#0" id="circle280"/>
	<circle cx="728.675" cy="403.377" r="4" fill="#0" id="circle281"/>
	<circle cx="730.286" cy="706.13" r="4" fill="#0" id="circle282"/>
	<circle cx="744.779" cy="398.545" r="4" fill="#0" id="circle283"/>
	<circle cx="744.779" cy="698.078" r="4" fill="#0" id="circle284"/>
	<circle cx="754.442" cy="681.974" r="4" fill="#0" id="circle285"/>
	<circle cx="759.273" cy="390.494" r="4" fill="#0" id="circle286"/>
	<circle cx="767.325" cy="670.701" r="4" fill="#0" id="circle287"/>
	<circle cx="770.545" cy="649.766" r="4" fill="#0" id="circle288"/>
	<circle cx="775.377" cy="392.104" r="4" fill="#0" id="circle289"/>
	<circle cx="783.429" cy="638.494" r="4" fill="#0" id="circle290"/>
	<circle cx="789.87" cy="400.156" r="4" fill="#0" id="circle291"/>
	<circle cx="794.701" cy="416.26" r="4" fill="#0" id="circle292"/>
	<circle cx="794.701" cy="432.364" r="4" fill="#0" id="circle293"/>
	<circle cx="794.701" cy="448.468" r="4" fill="#0" id="circle294"/>
	<circle cx="794.701" cy="464.571" r="4" fill="#0" id="circle295"/>
	<circle cx="794.701" cy="480.675" r="4" fill="#0" id="circle296"/>
	<circle cx="794.701" cy="496.779" r="4" fill="#0" id="circle297"/>
	<circle cx="794.701" cy="617.558" r="4" fill="#0" id="circle298"/>
	<circle cx="797.922" cy="512.883" r="4" fill="#0" id="circle299"/>
	<circle cx="805.974" cy="527.377" r="4" fill="#0" id="circle300"/>
	<circle cx="807.584" cy="606.286" r="4" fill="#0" id="circle301"/>
	<circle cx="810.805" cy="543.481" r="4" fill="#0" id="circle302"/>
	<circle cx="810.805" cy="559.584" r="4" fill="#0" id="circle303"/>
	<circle cx="815.636" cy="590.182" r="4" fill="#0" id="circle304"/>
	<circle cx="818.857" cy="574.078" r="4" fill="#0" id="circle305"/>
	</g>
</svg>