<?xml version="1.0" encoding="UTF-8" standalone="no"?>
<!-- Created with CurveBenchmark -->
<svg
	xmlns:dc="http://purl.org/dc/elements/1.1/"
	xmlns:cc="http://creativecommons.org/ns#"
	xmlns:rdf="http://www.w3.org/1999/02/22-rdf-syntax-ns#"
	xmlns:svg="http://www.w3.org/2000/svg"
	xmlns="http://www.w3.org/2000/svg"
	xmlns:sodipodi="http://sodipodi.sourceforge.net/DTD/sodipodi-0.dtd"
	xmlns:inkscape="http://www.inkscape.org/namespaces/inkscape"
	width="1000"
	height="1000"
	id="svg2"
	version="1.1"
	sodipodi:docname="manifold/ccrust-fork26.png.txt">
<defs
	id="defs4" />
<metadata
	id="metadata7">
	<rdf:RDF>
		<cc:Work
			rdf:about="">
			<dc:format>image/svg+xml</dc:format>
			<dc:type
				rdf:resource="http://purl.org/dc/dcmitype/StillImage" />
			<dc:title></dc:title>
		</cc:Work>
	</rdf:RDF>
</metadata>
<g
	inkscape:label="Layer 1"
	inkscape:groupmode="layer"
	id="layer1">
	<path style="fill:none;stroke:red;stroke-width:1px;stroke-linecap:butt;stroke-linejoin:miter;stroke-opacity:1" d="M 21.373,26.5849 38.7461,21.373 z" id="boundary" inkscape:connector-curvature="0" />
	<path style="fill:none;stroke:red;stroke-width:1px;stroke-linecap:butt;stroke-linejoin:miter;stroke-opacity:1" d="M 56.1191,21.373 38.7461,21.373 z" id="boundary" inkscape:connector-curvature="0" />
	<path style="fill:none;stroke:red;stroke-width:1px;stroke-linecap:butt;stroke-linejoin:miter;stroke-opacity:1" d="M 4,52.6445 4,35.2715 z" id="boundary" inkscape:connector-curvature="0" />
	<path style="fill:none;stroke:red;stroke-width:1px;stroke-linecap:butt;stroke-linejoin:miter;stroke-opacity:1" d="M 21.373,57.8564 4,52.6445 z" id="boundary" inkscape:connector-curvature="0" />
	<path style="fill:none;stroke:red;stroke-width:1px;stroke-linecap:butt;stroke-linejoin:miter;stroke-opacity:1" d="M 54.3818,49.1699 38.7461,57.8564 z" id="boundary" inkscape:connector-curvature="0" />
	<path style="fill:none;stroke:red;stroke-width:1px;stroke-linecap:butt;stroke-linejoin:miter;stroke-opacity:1" d="M 4,35.2715 21.373,26.5849 z" id="boundary" inkscape:connector-curvature="0" />
	<path style="fill:none;stroke:red;stroke-width:1px;stroke-linecap:butt;stroke-linejoin:miter;stroke-opacity:1" d="M 71.7548,49.1699 54.3818,49.1699 z" id="boundary" inkscape:connector-curvature="0" />
	<path style="fill:none;stroke:red;stroke-width:1px;stroke-linecap:butt;stroke-linejoin:miter;stroke-opacity:1" d="M 56.1191,21.373 73.4921,21.373 z" id="boundary" inkscape:connector-curvature="0" />
	<path style="fill:none;stroke:red;stroke-width:1px;stroke-linecap:butt;stroke-linejoin:miter;stroke-opacity:1" d="M 89.1278,12.6865 106.501,12.6865 z" id="boundary" inkscape:connector-curvature="0" />
	<path style="fill:none;stroke:red;stroke-width:1px;stroke-linecap:butt;stroke-linejoin:miter;stroke-opacity:1" d="M 123.874,12.6865 106.501,12.6865 z" id="boundary" inkscape:connector-curvature="0" />
	<path style="fill:none;stroke:red;stroke-width:1px;stroke-linecap:butt;stroke-linejoin:miter;stroke-opacity:1" d="M 89.1278,49.1699 71.7548,49.1699 z" id="boundary" inkscape:connector-curvature="0" />
	<path style="fill:none;stroke:red;stroke-width:1px;stroke-linecap:butt;stroke-linejoin:miter;stroke-opacity:1" d="M 73.4921,21.373 89.1278,12.6865 z" id="boundary" inkscape:connector-curvature="0" />
	<path style="fill:none;stroke:red;stroke-width:1px;stroke-linecap:butt;stroke-linejoin:miter;stroke-opacity:1" d="M 89.1278,49.1699 106.501,49.1699 z" id="boundary" inkscape:connector-curvature="0" />
	<path style="fill:none;stroke:red;stroke-width:1px;stroke-linecap:butt;stroke-linejoin:miter;stroke-opacity:1" d="M 123.874,49.1699 106.501,49.1699 z" id="boundary" inkscape:connector-curvature="0" />
	<path style="fill:none;stroke:red;stroke-width:1px;stroke-linecap:butt;stroke-linejoin:miter;stroke-opacity:1" d="M 123.874,12.6865 141.247,12.6865 z" id="boundary" inkscape:connector-curvature="0" />
	<path style="fill:none;stroke:red;stroke-width:1px;stroke-linecap:butt;stroke-linejoin:miter;stroke-opacity:1" d="M 21.373,57.8564 38.7461,57.8564 z" id="boundary" inkscape:connector-curvature="0" />
	<path style="fill:none;stroke:red;stroke-width:1px;stroke-linecap:butt;stroke-linejoin:miter;stroke-opacity:1" d="M 43.958,134.298 26.5849,134.298 z" id="boundary" inkscape:connector-curvature="0" />
	<path style="fill:none;stroke:red;stroke-width:1px;stroke-linecap:butt;stroke-linejoin:miter;stroke-opacity:1" d="M 26.5849,134.298 12.6865,148.196 z" id="boundary" inkscape:connector-curvature="0" />
	<path style="fill:none;stroke:red;stroke-width:1px;stroke-linecap:butt;stroke-linejoin:miter;stroke-opacity:1" d="M 12.6865,148.196 21.373,163.832 z" id="boundary" inkscape:connector-curvature="0" />
	<path style="fill:none;stroke:red;stroke-width:1px;stroke-linecap:butt;stroke-linejoin:miter;stroke-opacity:1" d="M 56.1191,165.569 38.7461,170.781 z" id="boundary" inkscape:connector-curvature="0" />
	<path style="fill:none;stroke:red;stroke-width:1px;stroke-linecap:butt;stroke-linejoin:miter;stroke-opacity:1" d="M 38.7461,170.781 21.373,163.832 z" id="boundary" inkscape:connector-curvature="0" />
	<path style="fill:none;stroke:red;stroke-width:1px;stroke-linecap:butt;stroke-linejoin:miter;stroke-opacity:1" d="M 61.331,134.298 43.958,134.298 z" id="boundary" inkscape:connector-curvature="0" />
	<path style="fill:none;stroke:red;stroke-width:1px;stroke-linecap:butt;stroke-linejoin:miter;stroke-opacity:1" d="M 61.331,134.298 78.704,134.298 z" id="boundary" inkscape:connector-curvature="0" />
	<path style="fill:none;stroke:red;stroke-width:1px;stroke-linecap:butt;stroke-linejoin:miter;stroke-opacity:1" d="M 96.0771,134.298 113.45,134.298 z" id="boundary" inkscape:connector-curvature="0" />
	<path style="fill:none;stroke:red;stroke-width:1px;stroke-linecap:butt;stroke-linejoin:miter;stroke-opacity:1" d="M 96.0771,134.298 78.704,134.298 z" id="boundary" inkscape:connector-curvature="0" />
	<path style="fill:none;stroke:red;stroke-width:1px;stroke-linecap:butt;stroke-linejoin:miter;stroke-opacity:1" d="M 56.1191,165.569 73.4921,170.781 z" id="boundary" inkscape:connector-curvature="0" />
	<path style="fill:none;stroke:red;stroke-width:1px;stroke-linecap:butt;stroke-linejoin:miter;stroke-opacity:1" d="M 90.8651,170.781 108.238,170.781 z" id="boundary" inkscape:connector-curvature="0" />
	<path style="fill:none;stroke:red;stroke-width:1px;stroke-linecap:butt;stroke-linejoin:miter;stroke-opacity:1" d="M 90.8651,170.781 73.4921,170.781 z" id="boundary" inkscape:connector-curvature="0" />
	<path style="fill:none;stroke:red;stroke-width:1px;stroke-linecap:butt;stroke-linejoin:miter;stroke-opacity:1" d="M 125.611,170.781 108.238,170.781 z" id="boundary" inkscape:connector-curvature="0" />
	<path style="fill:none;stroke:red;stroke-width:1px;stroke-linecap:butt;stroke-linejoin:miter;stroke-opacity:1" d="M 130.823,134.298 113.45,134.298 z" id="boundary" inkscape:connector-curvature="0" />
	<path style="fill:none;stroke:red;stroke-width:1px;stroke-linecap:butt;stroke-linejoin:miter;stroke-opacity:1" d="M 156.883,21.373 141.247,12.6865 z" id="boundary" inkscape:connector-curvature="0" />
	<path style="fill:none;stroke:red;stroke-width:1px;stroke-linecap:butt;stroke-linejoin:miter;stroke-opacity:1" d="M 207.264,5.7373 189.891,12.6865 z" id="boundary" inkscape:connector-curvature="0" />
	<path style="fill:none;stroke:red;stroke-width:1px;stroke-linecap:butt;stroke-linejoin:miter;stroke-opacity:1" d="M 189.891,12.6865 174.256,21.373 z" id="boundary" inkscape:connector-curvature="0" />
	<path style="fill:none;stroke:red;stroke-width:1px;stroke-linecap:butt;stroke-linejoin:miter;stroke-opacity:1" d="M 174.256,21.373 156.883,21.373 z" id="boundary" inkscape:connector-curvature="0" />
	<path style="fill:none;stroke:red;stroke-width:1px;stroke-linecap:butt;stroke-linejoin:miter;stroke-opacity:1" d="M 141.247,49.1699 158.62,49.1699 z" id="boundary" inkscape:connector-curvature="0" />
	<path style="fill:none;stroke:red;stroke-width:1px;stroke-linecap:butt;stroke-linejoin:miter;stroke-opacity:1" d="M 175.993,49.1699 158.62,49.1699 z" id="boundary" inkscape:connector-curvature="0" />
	<path style="fill:none;stroke:red;stroke-width:1px;stroke-linecap:butt;stroke-linejoin:miter;stroke-opacity:1" d="M 193.366,49.1699 175.993,49.1699 z" id="boundary" inkscape:connector-curvature="0" />
	<path style="fill:none;stroke:red;stroke-width:1px;stroke-linecap:butt;stroke-linejoin:miter;stroke-opacity:1" d="M 123.874,49.1699 141.247,49.1699 z" id="boundary" inkscape:connector-curvature="0" />
	<path style="fill:none;stroke:red;stroke-width:1px;stroke-linecap:butt;stroke-linejoin:miter;stroke-opacity:1" d="M 207.264,5.7373 224.637,4 z" id="boundary" inkscape:connector-curvature="0" />
	<path style="fill:none;stroke:red;stroke-width:1px;stroke-linecap:butt;stroke-linejoin:miter;stroke-opacity:1" d="M 224.637,4 242.011,4 z" id="boundary" inkscape:connector-curvature="0" />
	<path style="fill:none;stroke:red;stroke-width:1px;stroke-linecap:butt;stroke-linejoin:miter;stroke-opacity:1" d="M 193.366,49.1699 210.739,45.6953 z" id="boundary" inkscape:connector-curvature="0" />
	<path style="fill:none;stroke:red;stroke-width:1px;stroke-linecap:butt;stroke-linejoin:miter;stroke-opacity:1" d="M 245.485,40.4834 228.112,40.4834 z" id="boundary" inkscape:connector-curvature="0" />
	<path style="fill:none;stroke:red;stroke-width:1px;stroke-linecap:butt;stroke-linejoin:miter;stroke-opacity:1" d="M 228.112,40.4834 210.739,45.6953 z" id="boundary" inkscape:connector-curvature="0" />
	<path style="fill:none;stroke:red;stroke-width:1px;stroke-linecap:butt;stroke-linejoin:miter;stroke-opacity:1" d="M 242.011,4 257.646,12.6865 z" id="boundary" inkscape:connector-curvature="0" />
	<path style="fill:none;stroke:red;stroke-width:1px;stroke-linecap:butt;stroke-linejoin:miter;stroke-opacity:1" d="M 130.823,134.298 148.196,134.298 z" id="boundary" inkscape:connector-curvature="0" />
	<path style="fill:none;stroke:red;stroke-width:1px;stroke-linecap:butt;stroke-linejoin:miter;stroke-opacity:1" d="M 165.569,134.298 148.196,134.298 z" id="boundary" inkscape:connector-curvature="0" />
	<path style="fill:none;stroke:red;stroke-width:1px;stroke-linecap:butt;stroke-linejoin:miter;stroke-opacity:1" d="M 141.247,162.095 125.611,170.781 z" id="boundary" inkscape:connector-curvature="0" />
	<path style="fill:none;stroke:red;stroke-width:1px;stroke-linecap:butt;stroke-linejoin:miter;stroke-opacity:1" d="M 158.62,162.095 141.247,162.095 z" id="boundary" inkscape:connector-curvature="0" />
	<path style="fill:none;stroke:red;stroke-width:1px;stroke-linecap:butt;stroke-linejoin:miter;stroke-opacity:1" d="M 193.366,162.095 175.993,162.095 z" id="boundary" inkscape:connector-curvature="0" />
	<path style="fill:none;stroke:red;stroke-width:1px;stroke-linecap:butt;stroke-linejoin:miter;stroke-opacity:1" d="M 175.993,162.095 158.62,162.095 z" id="boundary" inkscape:connector-curvature="0" />
	<path style="fill:none;stroke:red;stroke-width:1px;stroke-linecap:butt;stroke-linejoin:miter;stroke-opacity:1" d="M 165.569,134.298 182.942,134.298 z" id="boundary" inkscape:connector-curvature="0" />
	<path style="fill:none;stroke:red;stroke-width:1px;stroke-linecap:butt;stroke-linejoin:miter;stroke-opacity:1" d="M 200.315,134.298 217.688,125.611 z" id="boundary" inkscape:connector-curvature="0" />
	<path style="fill:none;stroke:red;stroke-width:1px;stroke-linecap:butt;stroke-linejoin:miter;stroke-opacity:1" d="M 200.315,134.298 182.942,134.298 z" id="boundary" inkscape:connector-curvature="0" />
	<path style="fill:none;stroke:red;stroke-width:1px;stroke-linecap:butt;stroke-linejoin:miter;stroke-opacity:1" d="M 235.061,125.611 250.697,116.925 z" id="boundary" inkscape:connector-curvature="0" />
	<path style="fill:none;stroke:red;stroke-width:1px;stroke-linecap:butt;stroke-linejoin:miter;stroke-opacity:1" d="M 235.061,125.611 217.688,125.611 z" id="boundary" inkscape:connector-curvature="0" />
	<path style="fill:none;stroke:red;stroke-width:1px;stroke-linecap:butt;stroke-linejoin:miter;stroke-opacity:1" d="M 209.002,170.781 193.366,162.095 z" id="boundary" inkscape:connector-curvature="0" />
	<path style="fill:none;stroke:red;stroke-width:1px;stroke-linecap:butt;stroke-linejoin:miter;stroke-opacity:1" d="M 214.214,153.408 209.002,170.781 z" id="boundary" inkscape:connector-curvature="0" />
	<path style="fill:none;stroke:red;stroke-width:1px;stroke-linecap:butt;stroke-linejoin:miter;stroke-opacity:1" d="M 214.214,153.408 231.587,156.883 z" id="boundary" inkscape:connector-curvature="0" />
	<path style="fill:none;stroke:red;stroke-width:1px;stroke-linecap:butt;stroke-linejoin:miter;stroke-opacity:1" d="M 248.96,162.095 231.587,156.883 z" id="boundary" inkscape:connector-curvature="0" />
	<path style="fill:none;stroke:red;stroke-width:1px;stroke-linecap:butt;stroke-linejoin:miter;stroke-opacity:1" d="M 257.646,229.849 240.273,229.849 z" id="boundary" inkscape:connector-curvature="0" />
	<path style="fill:none;stroke:red;stroke-width:1px;stroke-linecap:butt;stroke-linejoin:miter;stroke-opacity:1" d="M 245.485,40.4834 255.909,54.3818 z" id="boundary" inkscape:connector-curvature="0" />
	<path style="fill:none;stroke:red;stroke-width:1px;stroke-linecap:butt;stroke-linejoin:miter;stroke-opacity:1" d="M 35.2715,238.536 52.6445,238.536 z" id="boundary" inkscape:connector-curvature="0" />
	<path style="fill:none;stroke:red;stroke-width:1px;stroke-linecap:butt;stroke-linejoin:miter;stroke-opacity:1" d="M 70.0175,238.536 52.6445,238.536 z" id="boundary" inkscape:connector-curvature="0" />
	<path style="fill:none;stroke:red;stroke-width:1px;stroke-linecap:butt;stroke-linejoin:miter;stroke-opacity:1" d="M 21.373,252.434 30.0595,268.07 z" id="boundary" inkscape:connector-curvature="0" />
	<path style="fill:none;stroke:red;stroke-width:1px;stroke-linecap:butt;stroke-linejoin:miter;stroke-opacity:1" d="M 21.373,252.434 35.2715,238.536 z" id="boundary" inkscape:connector-curvature="0" />
	<path style="fill:none;stroke:red;stroke-width:1px;stroke-linecap:butt;stroke-linejoin:miter;stroke-opacity:1" d="M 63.0683,266.333 47.4326,275.019 z" id="boundary" inkscape:connector-curvature="0" />
	<path style="fill:none;stroke:red;stroke-width:1px;stroke-linecap:butt;stroke-linejoin:miter;stroke-opacity:1" d="M 47.4326,275.019 30.0595,268.07 z" id="boundary" inkscape:connector-curvature="0" />
	<path style="fill:none;stroke:red;stroke-width:1px;stroke-linecap:butt;stroke-linejoin:miter;stroke-opacity:1" d="M 80.4413,266.333 63.0683,266.333 z" id="boundary" inkscape:connector-curvature="0" />
	<path style="fill:none;stroke:red;stroke-width:1px;stroke-linecap:butt;stroke-linejoin:miter;stroke-opacity:1" d="M 70.0175,238.536 87.3905,229.849 z" id="boundary" inkscape:connector-curvature="0" />
	<path style="fill:none;stroke:red;stroke-width:1px;stroke-linecap:butt;stroke-linejoin:miter;stroke-opacity:1" d="M 104.764,229.849 87.3905,229.849 z" id="boundary" inkscape:connector-curvature="0" />
	<path style="fill:none;stroke:red;stroke-width:1px;stroke-linecap:butt;stroke-linejoin:miter;stroke-opacity:1" d="M 122.137,229.849 104.764,229.849 z" id="boundary" inkscape:connector-curvature="0" />
	<path style="fill:none;stroke:red;stroke-width:1px;stroke-linecap:butt;stroke-linejoin:miter;stroke-opacity:1" d="M 80.4413,266.333 97.8144,266.333 z" id="boundary" inkscape:connector-curvature="0" />
	<path style="fill:none;stroke:red;stroke-width:1px;stroke-linecap:butt;stroke-linejoin:miter;stroke-opacity:1" d="M 115.187,266.333 97.8144,266.333 z" id="boundary" inkscape:connector-curvature="0" />
	<path style="fill:none;stroke:red;stroke-width:1px;stroke-linecap:butt;stroke-linejoin:miter;stroke-opacity:1" d="M 132.56,266.333 115.187,266.333 z" id="boundary" inkscape:connector-curvature="0" />
	<path style="fill:none;stroke:red;stroke-width:1px;stroke-linecap:butt;stroke-linejoin:miter;stroke-opacity:1" d="M 122.137,229.849 139.51,229.849 z" id="boundary" inkscape:connector-curvature="0" />
	<path style="fill:none;stroke:red;stroke-width:1px;stroke-linecap:butt;stroke-linejoin:miter;stroke-opacity:1" d="M 52.6445,386.207 35.2715,386.207 z" id="boundary" inkscape:connector-curvature="0" />
	<path style="fill:none;stroke:red;stroke-width:1px;stroke-linecap:butt;stroke-linejoin:miter;stroke-opacity:1" d="M 35.2715,386.207 21.373,400.105 z" id="boundary" inkscape:connector-curvature="0" />
	<path style="fill:none;stroke:red;stroke-width:1px;stroke-linecap:butt;stroke-linejoin:miter;stroke-opacity:1" d="M 52.6445,386.207 68.2802,394.893 z" id="boundary" inkscape:connector-curvature="0" />
	<path style="fill:none;stroke:red;stroke-width:1px;stroke-linecap:butt;stroke-linejoin:miter;stroke-opacity:1" d="M 30.0595,415.741 21.373,400.105 z" id="boundary" inkscape:connector-curvature="0" />
	<path style="fill:none;stroke:red;stroke-width:1px;stroke-linecap:butt;stroke-linejoin:miter;stroke-opacity:1" d="M 47.4326,422.69 64.8056,422.69 z" id="boundary" inkscape:connector-curvature="0" />
	<path style="fill:none;stroke:red;stroke-width:1px;stroke-linecap:butt;stroke-linejoin:miter;stroke-opacity:1" d="M 47.4326,422.69 30.0595,415.741 z" id="boundary" inkscape:connector-curvature="0" />
	<path style="fill:none;stroke:red;stroke-width:1px;stroke-linecap:butt;stroke-linejoin:miter;stroke-opacity:1" d="M 68.2802,394.893 85.6532,394.893 z" id="boundary" inkscape:connector-curvature="0" />
	<path style="fill:none;stroke:red;stroke-width:1px;stroke-linecap:butt;stroke-linejoin:miter;stroke-opacity:1" d="M 103.026,394.893 120.399,394.893 z" id="boundary" inkscape:connector-curvature="0" />
	<path style="fill:none;stroke:red;stroke-width:1px;stroke-linecap:butt;stroke-linejoin:miter;stroke-opacity:1" d="M 103.026,394.893 85.6532,394.893 z" id="boundary" inkscape:connector-curvature="0" />
	<path style="fill:none;stroke:red;stroke-width:1px;stroke-linecap:butt;stroke-linejoin:miter;stroke-opacity:1" d="M 82.1786,422.69 99.5517,422.69 z" id="boundary" inkscape:connector-curvature="0" />
	<path style="fill:none;stroke:red;stroke-width:1px;stroke-linecap:butt;stroke-linejoin:miter;stroke-opacity:1" d="M 116.925,422.69 134.298,422.69 z" id="boundary" inkscape:connector-curvature="0" />
	<path style="fill:none;stroke:red;stroke-width:1px;stroke-linecap:butt;stroke-linejoin:miter;stroke-opacity:1" d="M 134.298,422.69 149.933,431.377 z" id="boundary" inkscape:connector-curvature="0" />
	<path style="fill:none;stroke:red;stroke-width:1px;stroke-linecap:butt;stroke-linejoin:miter;stroke-opacity:1" d="M 116.925,422.69 99.5517,422.69 z" id="boundary" inkscape:connector-curvature="0" />
	<path style="fill:none;stroke:red;stroke-width:1px;stroke-linecap:butt;stroke-linejoin:miter;stroke-opacity:1" d="M 120.399,394.893 137.772,394.893 z" id="boundary" inkscape:connector-curvature="0" />
	<path style="fill:none;stroke:red;stroke-width:1px;stroke-linecap:butt;stroke-linejoin:miter;stroke-opacity:1" d="M 82.1786,422.69 64.8056,422.69 z" id="boundary" inkscape:connector-curvature="0" />
	<path style="fill:none;stroke:red;stroke-width:1px;stroke-linecap:butt;stroke-linejoin:miter;stroke-opacity:1" d="M 139.51,229.849 156.883,229.849 z" id="boundary" inkscape:connector-curvature="0" />
	<path style="fill:none;stroke:red;stroke-width:1px;stroke-linecap:butt;stroke-linejoin:miter;stroke-opacity:1" d="M 172.518,238.536 156.883,229.849 z" id="boundary" inkscape:connector-curvature="0" />
	<path style="fill:none;stroke:red;stroke-width:1px;stroke-linecap:butt;stroke-linejoin:miter;stroke-opacity:1" d="M 189.891,238.536 172.518,238.536 z" id="boundary" inkscape:connector-curvature="0" />
	<path style="fill:none;stroke:red;stroke-width:1px;stroke-linecap:butt;stroke-linejoin:miter;stroke-opacity:1" d="M 149.933,266.333 167.306,266.333 z" id="boundary" inkscape:connector-curvature="0" />
	<path style="fill:none;stroke:red;stroke-width:1px;stroke-linecap:butt;stroke-linejoin:miter;stroke-opacity:1" d="M 202.053,266.333 184.68,266.333 z" id="boundary" inkscape:connector-curvature="0" />
	<path style="fill:none;stroke:red;stroke-width:1px;stroke-linecap:butt;stroke-linejoin:miter;stroke-opacity:1" d="M 184.68,266.333 167.306,266.333 z" id="boundary" inkscape:connector-curvature="0" />
	<path style="fill:none;stroke:red;stroke-width:1px;stroke-linecap:butt;stroke-linejoin:miter;stroke-opacity:1" d="M 132.56,266.333 149.933,266.333 z" id="boundary" inkscape:connector-curvature="0" />
	<path style="fill:none;stroke:red;stroke-width:1px;stroke-linecap:butt;stroke-linejoin:miter;stroke-opacity:1" d="M 222.9,229.849 207.264,238.536 z" id="boundary" inkscape:connector-curvature="0" />
	<path style="fill:none;stroke:red;stroke-width:1px;stroke-linecap:butt;stroke-linejoin:miter;stroke-opacity:1" d="M 207.264,238.536 189.891,238.536 z" id="boundary" inkscape:connector-curvature="0" />
	<path style="fill:none;stroke:red;stroke-width:1px;stroke-linecap:butt;stroke-linejoin:miter;stroke-opacity:1" d="M 217.688,257.646 207.264,238.536 z" id="boundary" inkscape:connector-curvature="0" />
	<path style="fill:none;stroke:red;stroke-width:1px;stroke-linecap:butt;stroke-linejoin:miter;stroke-opacity:1" d="M 240.273,229.849 222.9,229.849 z" id="boundary" inkscape:connector-curvature="0" />
	<path style="fill:none;stroke:red;stroke-width:1px;stroke-linecap:butt;stroke-linejoin:miter;stroke-opacity:1" d="M 202.053,266.333 217.688,257.646 z" id="boundary" inkscape:connector-curvature="0" />
	<path style="fill:none;stroke:red;stroke-width:1px;stroke-linecap:butt;stroke-linejoin:miter;stroke-opacity:1" d="M 217.688,257.646 235.061,264.595 z" id="boundary" inkscape:connector-curvature="0" />
	<path style="fill:none;stroke:red;stroke-width:1px;stroke-linecap:butt;stroke-linejoin:miter;stroke-opacity:1" d="M 252.434,266.333 235.061,264.595 z" id="boundary" inkscape:connector-curvature="0" />
	<path style="fill:none;stroke:red;stroke-width:1px;stroke-linecap:butt;stroke-linejoin:miter;stroke-opacity:1" d="M 155.145,394.893 137.772,394.893 z" id="boundary" inkscape:connector-curvature="0" />
	<path style="fill:none;stroke:red;stroke-width:1px;stroke-linecap:butt;stroke-linejoin:miter;stroke-opacity:1" d="M 172.518,394.893 155.145,394.893 z" id="boundary" inkscape:connector-curvature="0" />
	<path style="fill:none;stroke:red;stroke-width:1px;stroke-linecap:butt;stroke-linejoin:miter;stroke-opacity:1" d="M 167.306,431.377 149.933,431.377 z" id="boundary" inkscape:connector-curvature="0" />
	<path style="fill:none;stroke:red;stroke-width:1px;stroke-linecap:butt;stroke-linejoin:miter;stroke-opacity:1" d="M 202.053,431.377 184.68,431.377 z" id="boundary" inkscape:connector-curvature="0" />
	<path style="fill:none;stroke:red;stroke-width:1px;stroke-linecap:butt;stroke-linejoin:miter;stroke-opacity:1" d="M 184.68,431.377 167.306,431.377 z" id="boundary" inkscape:connector-curvature="0" />
	<path style="fill:none;stroke:red;stroke-width:1px;stroke-linecap:butt;stroke-linejoin:miter;stroke-opacity:1" d="M 172.518,394.893 189.891,394.893 z" id="boundary" inkscape:connector-curvature="0" />
	<path style="fill:none;stroke:red;stroke-width:1px;stroke-linecap:butt;stroke-linejoin:miter;stroke-opacity:1" d="M 207.264,387.944 189.891,394.893 z" id="boundary" inkscape:connector-curvature="0" />
	<path style="fill:none;stroke:red;stroke-width:1px;stroke-linecap:butt;stroke-linejoin:miter;stroke-opacity:1" d="M 207.264,387.944 221.163,377.52 z" id="boundary" inkscape:connector-curvature="0" />
	<path style="fill:none;stroke:red;stroke-width:1px;stroke-linecap:butt;stroke-linejoin:miter;stroke-opacity:1" d="M 261.121,351.461 254.172,368.834 z" id="boundary" inkscape:connector-curvature="0" />
	<path style="fill:none;stroke:red;stroke-width:1px;stroke-linecap:butt;stroke-linejoin:miter;stroke-opacity:1" d="M 254.172,368.834 238.536,377.52 z" id="boundary" inkscape:connector-curvature="0" />
	<path style="fill:none;stroke:red;stroke-width:1px;stroke-linecap:butt;stroke-linejoin:miter;stroke-opacity:1" d="M 221.163,377.52 238.536,377.52 z" id="boundary" inkscape:connector-curvature="0" />
	<path style="fill:none;stroke:red;stroke-width:1px;stroke-linecap:butt;stroke-linejoin:miter;stroke-opacity:1" d="M 202.053,431.377 217.688,422.69 z" id="boundary" inkscape:connector-curvature="0" />
	<path style="fill:none;stroke:red;stroke-width:1px;stroke-linecap:butt;stroke-linejoin:miter;stroke-opacity:1" d="M 217.688,422.69 235.061,422.69 z" id="boundary" inkscape:connector-curvature="0" />
	<path style="fill:none;stroke:red;stroke-width:1px;stroke-linecap:butt;stroke-linejoin:miter;stroke-opacity:1" d="M 235.061,422.69 252.434,422.69 z" id="boundary" inkscape:connector-curvature="0" />
	<path style="fill:none;stroke:red;stroke-width:1px;stroke-linecap:butt;stroke-linejoin:miter;stroke-opacity:1" d="M 266.333,396.63 252.434,422.69 z" id="boundary" inkscape:connector-curvature="0" />
	<path style="fill:none;stroke:red;stroke-width:1px;stroke-linecap:butt;stroke-linejoin:miter;stroke-opacity:1" d="M 266.333,162.095 248.96,162.095 z" id="boundary" inkscape:connector-curvature="0" />
	<path style="fill:none;stroke:red;stroke-width:1px;stroke-linecap:butt;stroke-linejoin:miter;stroke-opacity:1" d="M 287.18,31.7968 271.545,23.1103 z" id="boundary" inkscape:connector-curvature="0" />
	<path style="fill:none;stroke:red;stroke-width:1px;stroke-linecap:butt;stroke-linejoin:miter;stroke-opacity:1" d="M 271.545,23.1103 257.646,12.6865 z" id="boundary" inkscape:connector-curvature="0" />
	<path style="fill:none;stroke:red;stroke-width:1px;stroke-linecap:butt;stroke-linejoin:miter;stroke-opacity:1" d="M 301.079,43.958 287.18,31.7968 z" id="boundary" inkscape:connector-curvature="0" />
	<path style="fill:none;stroke:red;stroke-width:1px;stroke-linecap:butt;stroke-linejoin:miter;stroke-opacity:1" d="M 255.909,54.3818 255.909,71.7548 z" id="boundary" inkscape:connector-curvature="0" />
	<path style="fill:none;stroke:red;stroke-width:1px;stroke-linecap:butt;stroke-linejoin:miter;stroke-opacity:1" d="M 264.595,104.764 250.697,116.925 z" id="boundary" inkscape:connector-curvature="0" />
	<path style="fill:none;stroke:red;stroke-width:1px;stroke-linecap:butt;stroke-linejoin:miter;stroke-opacity:1" d="M 264.595,87.3905 264.595,104.764 z" id="boundary" inkscape:connector-curvature="0" />
	<path style="fill:none;stroke:red;stroke-width:1px;stroke-linecap:butt;stroke-linejoin:miter;stroke-opacity:1" d="M 264.595,87.3905 255.909,71.7548 z" id="boundary" inkscape:connector-curvature="0" />
	<path style="fill:none;stroke:red;stroke-width:1px;stroke-linecap:butt;stroke-linejoin:miter;stroke-opacity:1" d="M 316.715,76.9667 308.028,61.331 z" id="boundary" inkscape:connector-curvature="0" />
	<path style="fill:none;stroke:red;stroke-width:1px;stroke-linecap:butt;stroke-linejoin:miter;stroke-opacity:1" d="M 308.028,61.331 301.079,43.958 z" id="boundary" inkscape:connector-curvature="0" />
	<path style="fill:none;stroke:red;stroke-width:1px;stroke-linecap:butt;stroke-linejoin:miter;stroke-opacity:1" d="M 316.715,76.9667 318.452,94.3398 z" id="boundary" inkscape:connector-curvature="0" />
	<path style="fill:none;stroke:red;stroke-width:1px;stroke-linecap:butt;stroke-linejoin:miter;stroke-opacity:1" d="M 318.452,94.3398 327.138,109.975 z" id="boundary" inkscape:connector-curvature="0" />
	<path style="fill:none;stroke:red;stroke-width:1px;stroke-linecap:butt;stroke-linejoin:miter;stroke-opacity:1" d="M 327.138,109.975 335.825,125.611 z" id="boundary" inkscape:connector-curvature="0" />
	<path style="fill:none;stroke:red;stroke-width:1px;stroke-linecap:butt;stroke-linejoin:miter;stroke-opacity:1" d="M 349.723,136.035 335.825,125.611 z" id="boundary" inkscape:connector-curvature="0" />
	<path style="fill:none;stroke:red;stroke-width:1px;stroke-linecap:butt;stroke-linejoin:miter;stroke-opacity:1" d="M 551.25,142.984 533.877,142.984 z" id="boundary" inkscape:connector-curvature="0" />
	<path style="fill:none;stroke:red;stroke-width:1px;stroke-linecap:butt;stroke-linejoin:miter;stroke-opacity:1" d="M 379.257,151.671 361.884,149.933 z" id="boundary" inkscape:connector-curvature="0" />
	<path style="fill:none;stroke:red;stroke-width:1px;stroke-linecap:butt;stroke-linejoin:miter;stroke-opacity:1" d="M 361.884,149.933 349.723,136.035 z" id="boundary" inkscape:connector-curvature="0" />
	<path style="fill:none;stroke:red;stroke-width:1px;stroke-linecap:butt;stroke-linejoin:miter;stroke-opacity:1" d="M 396.63,151.671 379.257,151.671 z" id="boundary" inkscape:connector-curvature="0" />
	<path style="fill:none;stroke:red;stroke-width:1px;stroke-linecap:butt;stroke-linejoin:miter;stroke-opacity:1" d="M 302.816,212.476 299.342,195.103 z" id="boundary" inkscape:connector-curvature="0" />
	<path style="fill:none;stroke:red;stroke-width:1px;stroke-linecap:butt;stroke-linejoin:miter;stroke-opacity:1" d="M 266.333,162.095 283.706,162.095 z" id="boundary" inkscape:connector-curvature="0" />
	<path style="fill:none;stroke:red;stroke-width:1px;stroke-linecap:butt;stroke-linejoin:miter;stroke-opacity:1" d="M 283.706,162.095 290.655,179.468 z" id="boundary" inkscape:connector-curvature="0" />
	<path style="fill:none;stroke:red;stroke-width:1px;stroke-linecap:butt;stroke-linejoin:miter;stroke-opacity:1" d="M 299.342,195.103 290.655,179.468 z" id="boundary" inkscape:connector-curvature="0" />
	<path style="fill:none;stroke:red;stroke-width:1px;stroke-linecap:butt;stroke-linejoin:miter;stroke-opacity:1" d="M 464.385,142.984 481.758,142.984 z" id="boundary" inkscape:connector-curvature="0" />
	<path style="fill:none;stroke:red;stroke-width:1px;stroke-linecap:butt;stroke-linejoin:miter;stroke-opacity:1" d="M 448.75,151.671 464.385,142.984 z" id="boundary" inkscape:connector-curvature="0" />
	<path style="fill:none;stroke:red;stroke-width:1px;stroke-linecap:butt;stroke-linejoin:miter;stroke-opacity:1" d="M 481.758,142.984 499.131,142.984 z" id="boundary" inkscape:connector-curvature="0" />
	<path style="fill:none;stroke:red;stroke-width:1px;stroke-linecap:butt;stroke-linejoin:miter;stroke-opacity:1" d="M 516.504,142.984 499.131,142.984 z" id="boundary" inkscape:connector-curvature="0" />
	<path style="fill:none;stroke:red;stroke-width:1px;stroke-linecap:butt;stroke-linejoin:miter;stroke-opacity:1" d="M 396.63,151.671 414.004,151.671 z" id="boundary" inkscape:connector-curvature="0" />
	<path style="fill:none;stroke:red;stroke-width:1px;stroke-linecap:butt;stroke-linejoin:miter;stroke-opacity:1" d="M 431.377,151.671 414.004,151.671 z" id="boundary" inkscape:connector-curvature="0" />
	<path style="fill:none;stroke:red;stroke-width:1px;stroke-linecap:butt;stroke-linejoin:miter;stroke-opacity:1" d="M 431.377,151.671 448.75,151.671 z" id="boundary" inkscape:connector-curvature="0" />
	<path style="fill:none;stroke:red;stroke-width:1px;stroke-linecap:butt;stroke-linejoin:miter;stroke-opacity:1" d="M 533.877,142.984 516.504,142.984 z" id="boundary" inkscape:connector-curvature="0" />
	<path style="fill:none;stroke:red;stroke-width:1px;stroke-linecap:butt;stroke-linejoin:miter;stroke-opacity:1" d="M 707.608,139.51 724.981,134.298 z" id="boundary" inkscape:connector-curvature="0" />
	<path style="fill:none;stroke:red;stroke-width:1px;stroke-linecap:butt;stroke-linejoin:miter;stroke-opacity:1" d="M 742.354,134.298 724.981,134.298 z" id="boundary" inkscape:connector-curvature="0" />
	<path style="fill:none;stroke:red;stroke-width:1px;stroke-linecap:butt;stroke-linejoin:miter;stroke-opacity:1" d="M 759.727,134.298 742.354,134.298 z" id="boundary" inkscape:connector-curvature="0" />
	<path style="fill:none;stroke:red;stroke-width:1px;stroke-linecap:butt;stroke-linejoin:miter;stroke-opacity:1" d="M 777.1,134.298 794.473,134.298 z" id="boundary" inkscape:connector-curvature="0" />
	<path style="fill:none;stroke:red;stroke-width:1px;stroke-linecap:butt;stroke-linejoin:miter;stroke-opacity:1" d="M 811.846,134.298 829.219,134.298 z" id="boundary" inkscape:connector-curvature="0" />
	<path style="fill:none;stroke:red;stroke-width:1px;stroke-linecap:butt;stroke-linejoin:miter;stroke-opacity:1" d="M 811.846,134.298 794.473,134.298 z" id="boundary" inkscape:connector-curvature="0" />
	<path style="fill:none;stroke:red;stroke-width:1px;stroke-linecap:butt;stroke-linejoin:miter;stroke-opacity:1" d="M 777.1,134.298 759.727,134.298 z" id="boundary" inkscape:connector-curvature="0" />
	<path style="fill:none;stroke:red;stroke-width:1px;stroke-linecap:butt;stroke-linejoin:miter;stroke-opacity:1" d="M 933.457,122.137 950.83,116.925 z" id="boundary" inkscape:connector-curvature="0" />
	<path style="fill:none;stroke:red;stroke-width:1px;stroke-linecap:butt;stroke-linejoin:miter;stroke-opacity:1" d="M 966.466,108.238 950.83,116.925 z" id="boundary" inkscape:connector-curvature="0" />
	<path style="fill:none;stroke:red;stroke-width:1px;stroke-linecap:butt;stroke-linejoin:miter;stroke-opacity:1" d="M 983.839,109.975 987.313,127.349 z" id="boundary" inkscape:connector-curvature="0" />
	<path style="fill:none;stroke:red;stroke-width:1px;stroke-linecap:butt;stroke-linejoin:miter;stroke-opacity:1" d="M 966.466,108.238 983.839,109.975 z" id="boundary" inkscape:connector-curvature="0" />
	<path style="fill:none;stroke:red;stroke-width:1px;stroke-linecap:butt;stroke-linejoin:miter;stroke-opacity:1" d="M 846.592,134.298 863.965,134.298 z" id="boundary" inkscape:connector-curvature="0" />
	<path style="fill:none;stroke:red;stroke-width:1px;stroke-linecap:butt;stroke-linejoin:miter;stroke-opacity:1" d="M 987.313,127.349 987.313,144.722 z" id="boundary" inkscape:connector-curvature="0" />
	<path style="fill:none;stroke:red;stroke-width:1px;stroke-linecap:butt;stroke-linejoin:miter;stroke-opacity:1" d="M 881.338,134.298 863.965,134.298 z" id="boundary" inkscape:connector-curvature="0" />
	<path style="fill:none;stroke:red;stroke-width:1px;stroke-linecap:butt;stroke-linejoin:miter;stroke-opacity:1" d="M 898.711,134.298 881.338,134.298 z" id="boundary" inkscape:connector-curvature="0" />
	<path style="fill:none;stroke:red;stroke-width:1px;stroke-linecap:butt;stroke-linejoin:miter;stroke-opacity:1" d="M 846.592,134.298 829.219,134.298 z" id="boundary" inkscape:connector-curvature="0" />
	<path style="fill:none;stroke:red;stroke-width:1px;stroke-linecap:butt;stroke-linejoin:miter;stroke-opacity:1" d="M 551.25,142.984 568.623,142.984 z" id="boundary" inkscape:connector-curvature="0" />
	<path style="fill:none;stroke:red;stroke-width:1px;stroke-linecap:butt;stroke-linejoin:miter;stroke-opacity:1" d="M 585.996,142.984 568.623,142.984 z" id="boundary" inkscape:connector-curvature="0" />
	<path style="fill:none;stroke:red;stroke-width:1px;stroke-linecap:butt;stroke-linejoin:miter;stroke-opacity:1" d="M 603.37,142.984 620.743,142.984 z" id="boundary" inkscape:connector-curvature="0" />
	<path style="fill:none;stroke:red;stroke-width:1px;stroke-linecap:butt;stroke-linejoin:miter;stroke-opacity:1" d="M 638.116,142.984 655.489,142.984 z" id="boundary" inkscape:connector-curvature="0" />
	<path style="fill:none;stroke:red;stroke-width:1px;stroke-linecap:butt;stroke-linejoin:miter;stroke-opacity:1" d="M 638.116,142.984 620.743,142.984 z" id="boundary" inkscape:connector-curvature="0" />
	<path style="fill:none;stroke:red;stroke-width:1px;stroke-linecap:butt;stroke-linejoin:miter;stroke-opacity:1" d="M 603.37,142.984 585.996,142.984 z" id="boundary" inkscape:connector-curvature="0" />
	<path style="fill:none;stroke:red;stroke-width:1px;stroke-linecap:butt;stroke-linejoin:miter;stroke-opacity:1" d="M 690.235,142.984 672.862,142.984 z" id="boundary" inkscape:connector-curvature="0" />
	<path style="fill:none;stroke:red;stroke-width:1px;stroke-linecap:butt;stroke-linejoin:miter;stroke-opacity:1" d="M 707.608,139.51 690.235,142.984 z" id="boundary" inkscape:connector-curvature="0" />
	<path style="fill:none;stroke:red;stroke-width:1px;stroke-linecap:butt;stroke-linejoin:miter;stroke-opacity:1" d="M 672.862,142.984 655.489,142.984 z" id="boundary" inkscape:connector-curvature="0" />
	<path style="fill:none;stroke:red;stroke-width:1px;stroke-linecap:butt;stroke-linejoin:miter;stroke-opacity:1" d="M 916.084,134.298 898.711,134.298 z" id="boundary" inkscape:connector-curvature="0" />
	<path style="fill:none;stroke:red;stroke-width:1px;stroke-linecap:butt;stroke-linejoin:miter;stroke-opacity:1" d="M 933.457,122.137 916.084,134.298 z" id="boundary" inkscape:connector-curvature="0" />
	<path style="fill:none;stroke:red;stroke-width:1px;stroke-linecap:butt;stroke-linejoin:miter;stroke-opacity:1" d="M 987.313,162.095 987.313,179.468 z" id="boundary" inkscape:connector-curvature="0" />
	<path style="fill:none;stroke:red;stroke-width:1px;stroke-linecap:butt;stroke-linejoin:miter;stroke-opacity:1" d="M 990.788,196.841 987.313,179.468 z" id="boundary" inkscape:connector-curvature="0" />
	<path style="fill:none;stroke:red;stroke-width:1px;stroke-linecap:butt;stroke-linejoin:miter;stroke-opacity:1" d="M 987.313,162.095 987.313,144.722 z" id="boundary" inkscape:connector-curvature="0" />
	<path style="fill:none;stroke:red;stroke-width:1px;stroke-linecap:butt;stroke-linejoin:miter;stroke-opacity:1" d="M 275.019,229.849 257.646,229.849 z" id="boundary" inkscape:connector-curvature="0" />
	<path style="fill:none;stroke:red;stroke-width:1px;stroke-linecap:butt;stroke-linejoin:miter;stroke-opacity:1" d="M 302.816,212.476 292.392,229.849 z" id="boundary" inkscape:connector-curvature="0" />
	<path style="fill:none;stroke:red;stroke-width:1px;stroke-linecap:butt;stroke-linejoin:miter;stroke-opacity:1" d="M 292.392,229.849 275.019,229.849 z" id="boundary" inkscape:connector-curvature="0" />
	<path style="fill:none;stroke:red;stroke-width:1px;stroke-linecap:butt;stroke-linejoin:miter;stroke-opacity:1" d="M 370.571,257.646 353.198,257.646 z" id="boundary" inkscape:connector-curvature="0" />
	<path style="fill:none;stroke:red;stroke-width:1px;stroke-linecap:butt;stroke-linejoin:miter;stroke-opacity:1" d="M 386.207,248.96 370.571,257.646 z" id="boundary" inkscape:connector-curvature="0" />
	<path style="fill:none;stroke:red;stroke-width:1px;stroke-linecap:butt;stroke-linejoin:miter;stroke-opacity:1" d="M 353.198,257.646 335.825,257.646 z" id="boundary" inkscape:connector-curvature="0" />
	<path style="fill:none;stroke:red;stroke-width:1px;stroke-linecap:butt;stroke-linejoin:miter;stroke-opacity:1" d="M 335.825,275.019 335.825,257.646 z" id="boundary" inkscape:connector-curvature="0" />
	<path style="fill:none;stroke:red;stroke-width:1px;stroke-linecap:butt;stroke-linejoin:miter;stroke-opacity:1" d="M 471.335,240.273 488.708,240.273 z" id="boundary" inkscape:connector-curvature="0" />
	<path style="fill:none;stroke:red;stroke-width:1px;stroke-linecap:butt;stroke-linejoin:miter;stroke-opacity:1" d="M 455.699,248.96 471.335,240.273 z" id="boundary" inkscape:connector-curvature="0" />
	<path style="fill:none;stroke:red;stroke-width:1px;stroke-linecap:butt;stroke-linejoin:miter;stroke-opacity:1" d="M 488.708,240.273 506.081,240.273 z" id="boundary" inkscape:connector-curvature="0" />
	<path style="fill:none;stroke:red;stroke-width:1px;stroke-linecap:butt;stroke-linejoin:miter;stroke-opacity:1" d="M 386.207,248.96 403.58,248.96 z" id="boundary" inkscape:connector-curvature="0" />
	<path style="fill:none;stroke:red;stroke-width:1px;stroke-linecap:butt;stroke-linejoin:miter;stroke-opacity:1" d="M 420.953,248.96 438.326,248.96 z" id="boundary" inkscape:connector-curvature="0" />
	<path style="fill:none;stroke:red;stroke-width:1px;stroke-linecap:butt;stroke-linejoin:miter;stroke-opacity:1" d="M 455.699,248.96 438.326,248.96 z" id="boundary" inkscape:connector-curvature="0" />
	<path style="fill:none;stroke:red;stroke-width:1px;stroke-linecap:butt;stroke-linejoin:miter;stroke-opacity:1" d="M 403.58,248.96 420.953,248.96 z" id="boundary" inkscape:connector-curvature="0" />
	<path style="fill:none;stroke:red;stroke-width:1px;stroke-linecap:butt;stroke-linejoin:miter;stroke-opacity:1" d="M 281.968,287.18 273.282,313.24 z" id="boundary" inkscape:connector-curvature="0" />
	<path style="fill:none;stroke:red;stroke-width:1px;stroke-linecap:butt;stroke-linejoin:miter;stroke-opacity:1" d="M 269.807,266.333 287.18,266.333 z" id="boundary" inkscape:connector-curvature="0" />
	<path style="fill:none;stroke:red;stroke-width:1px;stroke-linecap:butt;stroke-linejoin:miter;stroke-opacity:1" d="M 269.807,334.088 273.282,313.24 z" id="boundary" inkscape:connector-curvature="0" />
	<path style="fill:none;stroke:red;stroke-width:1px;stroke-linecap:butt;stroke-linejoin:miter;stroke-opacity:1" d="M 280.231,384.469 266.333,396.63 z" id="boundary" inkscape:connector-curvature="0" />
	<path style="fill:none;stroke:red;stroke-width:1px;stroke-linecap:butt;stroke-linejoin:miter;stroke-opacity:1" d="M 288.918,367.096 280.231,384.469 z" id="boundary" inkscape:connector-curvature="0" />
	<path style="fill:none;stroke:red;stroke-width:1px;stroke-linecap:butt;stroke-linejoin:miter;stroke-opacity:1" d="M 261.121,351.461 269.807,334.088 z" id="boundary" inkscape:connector-curvature="0" />
	<path style="fill:none;stroke:red;stroke-width:1px;stroke-linecap:butt;stroke-linejoin:miter;stroke-opacity:1" d="M 252.434,266.333 269.807,266.333 z" id="boundary" inkscape:connector-curvature="0" />
	<path style="fill:none;stroke:red;stroke-width:1px;stroke-linecap:butt;stroke-linejoin:miter;stroke-opacity:1" d="M 327.138,292.392 318.452,318.452 z" id="boundary" inkscape:connector-curvature="0" />
	<path style="fill:none;stroke:red;stroke-width:1px;stroke-linecap:butt;stroke-linejoin:miter;stroke-opacity:1" d="M 335.825,275.019 327.138,292.392 z" id="boundary" inkscape:connector-curvature="0" />
	<path style="fill:none;stroke:red;stroke-width:1px;stroke-linecap:butt;stroke-linejoin:miter;stroke-opacity:1" d="M 288.918,367.096 301.079,353.198 z" id="boundary" inkscape:connector-curvature="0" />
	<path style="fill:none;stroke:red;stroke-width:1px;stroke-linecap:butt;stroke-linejoin:miter;stroke-opacity:1" d="M 309.765,335.825 301.079,353.198 z" id="boundary" inkscape:connector-curvature="0" />
	<path style="fill:none;stroke:red;stroke-width:1px;stroke-linecap:butt;stroke-linejoin:miter;stroke-opacity:1" d="M 318.452,318.452 309.765,335.825 z" id="boundary" inkscape:connector-curvature="0" />
	<path style="fill:none;stroke:red;stroke-width:1px;stroke-linecap:butt;stroke-linejoin:miter;stroke-opacity:1" d="M 506.081,240.273 523.454,240.273 z" id="boundary" inkscape:connector-curvature="0" />
	<path style="fill:none;stroke:red;stroke-width:1px;stroke-linecap:butt;stroke-linejoin:miter;stroke-opacity:1" d="M 712.82,231.587 730.193,231.587 z" id="boundary" inkscape:connector-curvature="0" />
	<path style="fill:none;stroke:red;stroke-width:1px;stroke-linecap:butt;stroke-linejoin:miter;stroke-opacity:1" d="M 697.184,240.273 712.82,231.587 z" id="boundary" inkscape:connector-curvature="0" />
	<path style="fill:none;stroke:red;stroke-width:1px;stroke-linecap:butt;stroke-linejoin:miter;stroke-opacity:1" d="M 747.566,231.587 730.193,231.587 z" id="boundary" inkscape:connector-curvature="0" />
	<path style="fill:none;stroke:red;stroke-width:1px;stroke-linecap:butt;stroke-linejoin:miter;stroke-opacity:1" d="M 764.939,231.587 782.312,231.587 z" id="boundary" inkscape:connector-curvature="0" />
	<path style="fill:none;stroke:red;stroke-width:1px;stroke-linecap:butt;stroke-linejoin:miter;stroke-opacity:1" d="M 799.685,231.587 817.058,231.587 z" id="boundary" inkscape:connector-curvature="0" />
	<path style="fill:none;stroke:red;stroke-width:1px;stroke-linecap:butt;stroke-linejoin:miter;stroke-opacity:1" d="M 799.685,231.587 782.312,231.587 z" id="boundary" inkscape:connector-curvature="0" />
	<path style="fill:none;stroke:red;stroke-width:1px;stroke-linecap:butt;stroke-linejoin:miter;stroke-opacity:1" d="M 764.939,231.587 747.566,231.587 z" id="boundary" inkscape:connector-curvature="0" />
	<path style="fill:none;stroke:red;stroke-width:1px;stroke-linecap:butt;stroke-linejoin:miter;stroke-opacity:1" d="M 834.431,231.587 851.804,231.587 z" id="boundary" inkscape:connector-curvature="0" />
	<path style="fill:none;stroke:red;stroke-width:1px;stroke-linecap:butt;stroke-linejoin:miter;stroke-opacity:1" d="M 869.177,231.587 851.804,231.587 z" id="boundary" inkscape:connector-curvature="0" />
	<path style="fill:none;stroke:red;stroke-width:1px;stroke-linecap:butt;stroke-linejoin:miter;stroke-opacity:1" d="M 996,214.214 990.788,196.841 z" id="boundary" inkscape:connector-curvature="0" />
	<path style="fill:none;stroke:red;stroke-width:1px;stroke-linecap:butt;stroke-linejoin:miter;stroke-opacity:1" d="M 834.431,231.587 817.058,231.587 z" id="boundary" inkscape:connector-curvature="0" />
	<path style="fill:none;stroke:red;stroke-width:1px;stroke-linecap:butt;stroke-linejoin:miter;stroke-opacity:1" d="M 938.669,231.587 921.296,231.587 z" id="boundary" inkscape:connector-curvature="0" />
	<path style="fill:none;stroke:red;stroke-width:1px;stroke-linecap:butt;stroke-linejoin:miter;stroke-opacity:1" d="M 869.177,231.587 886.55,231.587 z" id="boundary" inkscape:connector-curvature="0" />
	<path style="fill:none;stroke:red;stroke-width:1px;stroke-linecap:butt;stroke-linejoin:miter;stroke-opacity:1" d="M 903.923,231.587 921.296,231.587 z" id="boundary" inkscape:connector-curvature="0" />
	<path style="fill:none;stroke:red;stroke-width:1px;stroke-linecap:butt;stroke-linejoin:miter;stroke-opacity:1" d="M 903.923,231.587 886.55,231.587 z" id="boundary" inkscape:connector-curvature="0" />
	<path style="fill:none;stroke:red;stroke-width:1px;stroke-linecap:butt;stroke-linejoin:miter;stroke-opacity:1" d="M 558.2,240.273 540.827,240.273 z" id="boundary" inkscape:connector-curvature="0" />
	<path style="fill:none;stroke:red;stroke-width:1px;stroke-linecap:butt;stroke-linejoin:miter;stroke-opacity:1" d="M 540.827,240.273 523.454,240.273 z" id="boundary" inkscape:connector-curvature="0" />
	<path style="fill:none;stroke:red;stroke-width:1px;stroke-linecap:butt;stroke-linejoin:miter;stroke-opacity:1" d="M 558.2,240.273 575.573,240.273 z" id="boundary" inkscape:connector-curvature="0" />
	<path style="fill:none;stroke:red;stroke-width:1px;stroke-linecap:butt;stroke-linejoin:miter;stroke-opacity:1" d="M 592.946,240.273 610.319,240.273 z" id="boundary" inkscape:connector-curvature="0" />
	<path style="fill:none;stroke:red;stroke-width:1px;stroke-linecap:butt;stroke-linejoin:miter;stroke-opacity:1" d="M 592.946,240.273 575.573,240.273 z" id="boundary" inkscape:connector-curvature="0" />
	<path style="fill:none;stroke:red;stroke-width:1px;stroke-linecap:butt;stroke-linejoin:miter;stroke-opacity:1" d="M 627.692,240.273 645.065,240.273 z" id="boundary" inkscape:connector-curvature="0" />
	<path style="fill:none;stroke:red;stroke-width:1px;stroke-linecap:butt;stroke-linejoin:miter;stroke-opacity:1" d="M 627.692,240.273 610.319,240.273 z" id="boundary" inkscape:connector-curvature="0" />
	<path style="fill:none;stroke:red;stroke-width:1px;stroke-linecap:butt;stroke-linejoin:miter;stroke-opacity:1" d="M 662.438,240.273 679.811,240.273 z" id="boundary" inkscape:connector-curvature="0" />
	<path style="fill:none;stroke:red;stroke-width:1px;stroke-linecap:butt;stroke-linejoin:miter;stroke-opacity:1" d="M 662.438,240.273 645.065,240.273 z" id="boundary" inkscape:connector-curvature="0" />
	<path style="fill:none;stroke:red;stroke-width:1px;stroke-linecap:butt;stroke-linejoin:miter;stroke-opacity:1" d="M 697.184,240.273 679.811,240.273 z" id="boundary" inkscape:connector-curvature="0" />
	<path style="fill:none;stroke:red;stroke-width:1px;stroke-linecap:butt;stroke-linejoin:miter;stroke-opacity:1" d="M 964.729,240.273 982.102,240.273 z" id="boundary" inkscape:connector-curvature="0" />
	<path style="fill:none;stroke:red;stroke-width:1px;stroke-linecap:butt;stroke-linejoin:miter;stroke-opacity:1" d="M 947.356,247.222 964.729,240.273 z" id="boundary" inkscape:connector-curvature="0" />
	<path style="fill:none;stroke:red;stroke-width:1px;stroke-linecap:butt;stroke-linejoin:miter;stroke-opacity:1" d="M 947.356,247.222 938.669,231.587 z" id="boundary" inkscape:connector-curvature="0" />
	<path style="fill:none;stroke:red;stroke-width:1px;stroke-linecap:butt;stroke-linejoin:miter;stroke-opacity:1" d="M 996,214.214 982.102,240.273 z" id="boundary" inkscape:connector-curvature="0" />
	<circle cx="4" cy="35.2715" r="4" fill="#0" id="circle0"/>
	<circle cx="4" cy="52.6445" r="4" fill="#0" id="circle1"/>
	<circle cx="12.6865" cy="148.196" r="4" fill="#0" id="circle2"/>
	<circle cx="21.373" cy="26.5849" r="4" fill="#0" id="circle3"/>
	<circle cx="21.373" cy="57.8564" r="4" fill="#0" id="circle4"/>
	<circle cx="21.373" cy="163.832" r="4" fill="#0" id="circle5"/>
	<circle cx="21.373" cy="252.434" r="4" fill="#0" id="circle6"/>
	<circle cx="21.373" cy="400.105" r="4" fill="#0" id="circle7"/>
	<circle cx="26.5849" cy="134.298" r="4" fill="#0" id="circle8"/>
	<circle cx="30.0595" cy="268.07" r="4" fill="#0" id="circle9"/>
	<circle cx="30.0595" cy="415.741" r="4" fill="#0" id="circle10"/>
	<circle cx="35.2715" cy="238.536" r="4" fill="#0" id="circle11"/>
	<circle cx="35.2715" cy="386.207" r="4" fill="#0" id="circle12"/>
	<circle cx="38.7461" cy="21.373" r="4" fill="#0" id="circle13"/>
	<circle cx="38.7461" cy="57.8564" r="4" fill="#0" id="circle14"/>
	<circle cx="38.7461" cy="170.781" r="4" fill="#0" id="circle15"/>
	<circle cx="43.958" cy="134.298" r="4" fill="#0" id="circle16"/>
	<circle cx="47.4326" cy="275.019" r="4" fill="#0" id="circle17"/>
	<circle cx="47.4326" cy="422.69" r="4" fill="#0" id="circle18"/>
	<circle cx="52.6445" cy="238.536" r="4" fill="#0" id="circle19"/>
	<circle cx="52.6445" cy="386.207" r="4" fill="#0" id="circle20"/>
	<circle cx="54.3818" cy="49.1699" r="4" fill="#0" id="circle21"/>
	<circle cx="56.1191" cy="21.373" r="4" fill="#0" id="circle22"/>
	<circle cx="56.1191" cy="165.569" r="4" fill="#0" id="circle23"/>
	<circle cx="61.331" cy="134.298" r="4" fill="#0" id="circle24"/>
	<circle cx="63.0683" cy="266.333" r="4" fill="#0" id="circle25"/>
	<circle cx="64.8056" cy="422.69" r="4" fill="#0" id="circle26"/>
	<circle cx="68.2802" cy="394.893" r="4" fill="#0" id="circle27"/>
	<circle cx="70.0175" cy="238.536" r="4" fill="#0" id="circle28"/>
	<circle cx="71.7548" cy="49.1699" r="4" fill="#0" id="circle29"/>
	<circle cx="73.4921" cy="21.373" r="4" fill="#0" id="circle30"/>
	<circle cx="73.4921" cy="170.781" r="4" fill="#0" id="circle31"/>
	<circle cx="78.704" cy="134.298" r="4" fill="#0" id="circle32"/>
	<circle cx="80.4413" cy="266.333" r="4" fill="#0" id="circle33"/>
	<circle cx="82.1786" cy="422.69" r="4" fill="#0" id="circle34"/>
	<circle cx="85.6532" cy="394.893" r="4" fill="#0" id="circle35"/>
	<circle cx="87.3905" cy="229.849" r="4" fill="#0" id="circle36"/>
	<circle cx="89.1278" cy="12.6865" r="4" fill="#0" id="circle37"/>
	<circle cx="89.1278" cy="49.1699" r="4" fill="#0" id="circle38"/>
	<circle cx="90.8651" cy="170.781" r="4" fill="#0" id="circle39"/>
	<circle cx="96.0771" cy="134.298" r="4" fill="#0" id="circle40"/>
	<circle cx="97.8144" cy="266.333" r="4" fill="#0" id="circle41"/>
	<circle cx="99.5517" cy="422.69" r="4" fill="#0" id="circle42"/>
	<circle cx="103.026" cy="394.893" r="4" fill="#0" id="circle43"/>
	<circle cx="104.764" cy="229.849" r="4" fill="#0" id="circle44"/>
	<circle cx="106.501" cy="12.6865" r="4" fill="#0" id="circle45"/>
	<circle cx="106.501" cy="49.1699" r="4" fill="#0" id="circle46"/>
	<circle cx="108.238" cy="170.781" r="4" fill="#0" id="circle47"/>
	<circle cx="113.45" cy="134.298" r="4" fill="#0" id="circle48"/>
	<circle cx="115.187" cy="266.333" r="4" fill="#0" id="circle49"/>
	<circle cx="116.925" cy="422.69" r="4" fill="#0" id="circle50"/>
	<circle cx="120.399" cy="394.893" r="4" fill="#0" id="circle51"/>
	<circle cx="122.137" cy="229.849" r="4" fill="#0" id="circle52"/>
	<circle cx="123.874" cy="12.6865" r="4" fill="#0" id="circle53"/>
	<circle cx="123.874" cy="49.1699" r="4" fill="#0" id="circle54"/>
	<circle cx="125.611" cy="170.781" r="4" fill="#0" id="circle55"/>
	<circle cx="130.823" cy="134.298" r="4" fill="#0" id="circle56"/>
	<circle cx="132.56" cy="266.333" r="4" fill="#0" id="circle57"/>
	<circle cx="134.298" cy="422.69" r="4" fill="#0" id="circle58"/>
	<circle cx="137.772" cy="394.893" r="4" fill="#0" id="circle59"/>
	<circle cx="139.51" cy="229.849" r="4" fill="#0" id="circle60"/>
	<circle cx="141.247" cy="12.6865" r="4" fill="#0" id="circle61"/>
	<circle cx="141.247" cy="49.1699" r="4" fill="#0" id="circle62"/>
	<circle cx="141.247" cy="162.095" r="4" fill="#0" id="circle63"/>
	<circle cx="148.196" cy="134.298" r="4" fill="#0" id="circle64"/>
	<circle cx="149.933" cy="266.333" r="4" fill="#0" id="circle65"/>
	<circle cx="149.933" cy="431.377" r="4" fill="#0" id="circle66"/>
	<circle cx="155.145" cy="394.893" r="4" fill="#0" id="circle67"/>
	<circle cx="156.883" cy="21.373" r="4" fill="#0" id="circle68"/>
	<circle cx="156.883" cy="229.849" r="4" fill="#0" id="circle69"/>
	<circle cx="158.62" cy="49.1699" r="4" fill="#0" id="circle70"/>
	<circle cx="158.62" cy="162.095" r="4" fill="#0" id="circle71"/>
	<circle cx="165.569" cy="134.298" r="4" fill="#0" id="circle72"/>
	<circle cx="167.306" cy="266.333" r="4" fill="#0" id="circle73"/>
	<circle cx="167.306" cy="431.377" r="4" fill="#0" id="circle74"/>
	<circle cx="172.518" cy="238.536" r="4" fill="#0" id="circle75"/>
	<circle cx="172.518" cy="394.893" r="4" fill="#0" id="circle76"/>
	<circle cx="174.256" cy="21.373" r="4" fill="#0" id="circle77"/>
	<circle cx="175.993" cy="49.1699" r="4" fill="#0" id="circle78"/>
	<circle cx="175.993" cy="162.095" r="4" fill="#0" id="circle79"/>
	<circle cx="182.942" cy="134.298" r="4" fill="#0" id="circle80"/>
	<circle cx="184.68" cy="266.333" r="4" fill="#0" id="circle81"/>
	<circle cx="184.68" cy="431.377" r="4" fill="#0" id="circle82"/>
	<circle cx="189.891" cy="12.6865" r="4" fill="#0" id="circle83"/>
	<circle cx="189.891" cy="238.536" r="4" fill="#0" id="circle84"/>
	<circle cx="189.891" cy="394.893" r="4" fill="#0" id="circle85"/>
	<circle cx="193.366" cy="49.1699" r="4" fill="#0" id="circle86"/>
	<circle cx="193.366" cy="162.095" r="4" fill="#0" id="circle87"/>
	<circle cx="200.315" cy="134.298" r="4" fill="#0" id="circle88"/>
	<circle cx="202.053" cy="266.333" r="4" fill="#0" id="circle89"/>
	<circle cx="202.053" cy="431.377" r="4" fill="#0" id="circle90"/>
	<circle cx="207.264" cy="5.7373" r="4" fill="#0" id="circle91"/>
	<circle cx="207.264" cy="238.536" r="4" fill="#0" id="circle92"/>
	<circle cx="207.264" cy="387.944" r="4" fill="#0" id="circle93"/>
	<circle cx="209.002" cy="170.781" r="4" fill="#0" id="circle94"/>
	<circle cx="210.739" cy="45.6953" r="4" fill="#0" id="circle95"/>
	<circle cx="214.214" cy="153.408" r="4" fill="#0" id="circle96"/>
	<circle cx="217.688" cy="125.611" r="4" fill="#0" id="circle97"/>
	<circle cx="217.688" cy="257.646" r="4" fill="#0" id="circle98"/>
	<circle cx="217.688" cy="422.69" r="4" fill="#0" id="circle99"/>
	<circle cx="221.163" cy="377.52" r="4" fill="#0" id="circle100"/>
	<circle cx="222.9" cy="229.849" r="4" fill="#0" id="circle101"/>
	<circle cx="224.637" cy="4" r="4" fill="#0" id="circle102"/>
	<circle cx="228.112" cy="40.4834" r="4" fill="#0" id="circle103"/>
	<circle cx="231.587" cy="156.883" r="4" fill="#0" id="circle104"/>
	<circle cx="235.061" cy="125.611" r="4" fill="#0" id="circle105"/>
	<circle cx="235.061" cy="264.595" r="4" fill="#0" id="circle106"/>
	<circle cx="235.061" cy="422.69" r="4" fill="#0" id="circle107"/>
	<circle cx="238.536" cy="377.52" r="4" fill="#0" id="circle108"/>
	<circle cx="240.273" cy="229.849" r="4" fill="#0" id="circle109"/>
	<circle cx="242.011" cy="4" r="4" fill="#0" id="circle110"/>
	<circle cx="245.485" cy="40.4834" r="4" fill="#0" id="circle111"/>
	<circle cx="248.96" cy="162.095" r="4" fill="#0" id="circle112"/>
	<circle cx="250.697" cy="116.925" r="4" fill="#0" id="circle113"/>
	<circle cx="252.434" cy="266.333" r="4" fill="#0" id="circle114"/>
	<circle cx="252.434" cy="422.69" r="4" fill="#0" id="circle115"/>
	<circle cx="254.172" cy="368.834" r="4" fill="#0" id="circle116"/>
	<circle cx="255.909" cy="54.3818" r="4" fill="#0" id="circle117"/>
	<circle cx="255.909" cy="71.7548" r="4" fill="#0" id="circle118"/>
	<circle cx="257.646" cy="12.6865" r="4" fill="#0" id="circle119"/>
	<circle cx="257.646" cy="229.849" r="4" fill="#0" id="circle120"/>
	<circle cx="261.121" cy="351.461" r="4" fill="#0" id="circle121"/>
	<circle cx="264.595" cy="87.3905" r="4" fill="#0" id="circle122"/>
	<circle cx="264.595" cy="104.764" r="4" fill="#0" id="circle123"/>
	<circle cx="266.333" cy="162.095" r="4" fill="#0" id="circle124"/>
	<circle cx="266.333" cy="396.63" r="4" fill="#0" id="circle125"/>
	<circle cx="269.807" cy="266.333" r="4" fill="#0" id="circle126"/>
	<circle cx="269.807" cy="334.088" r="4" fill="#0" id="circle127"/>
	<circle cx="271.545" cy="23.1103" r="4" fill="#0" id="circle128"/>
	<circle cx="273.282" cy="313.24" r="4" fill="#0" id="circle129"/>
	<circle cx="275.019" cy="229.849" r="4" fill="#0" id="circle130"/>
	<circle cx="280.231" cy="384.469" r="4" fill="#0" id="circle131"/>
	<circle cx="281.968" cy="287.18" r="4" fill="#0" id="circle132"/>
	<circle cx="283.706" cy="162.095" r="4" fill="#0" id="circle133"/>
	<circle cx="287.18" cy="31.7968" r="4" fill="#0" id="circle134"/>
	<circle cx="287.18" cy="266.333" r="4" fill="#0" id="circle135"/>
	<circle cx="288.918" cy="367.096" r="4" fill="#0" id="circle136"/>
	<circle cx="290.655" cy="179.468" r="4" fill="#0" id="circle137"/>
	<circle cx="292.392" cy="229.849" r="4" fill="#0" id="circle138"/>
	<circle cx="299.342" cy="195.103" r="4" fill="#0" id="circle139"/>
	<circle cx="301.079" cy="43.958" r="4" fill="#0" id="circle140"/>
	<circle cx="301.079" cy="353.198" r="4" fill="#0" id="circle141"/>
	<circle cx="302.816" cy="212.476" r="4" fill="#0" id="circle142"/>
	<circle cx="308.028" cy="61.331" r="4" fill="#0" id="circle143"/>
	<circle cx="309.765" cy="335.825" r="4" fill="#0" id="circle144"/>
	<circle cx="316.715" cy="76.9667" r="4" fill="#0" id="circle145"/>
	<circle cx="318.452" cy="94.3398" r="4" fill="#0" id="circle146"/>
	<circle cx="318.452" cy="318.452" r="4" fill="#0" id="circle147"/>
	<circle cx="327.138" cy="109.975" r="4" fill="#0" id="circle148"/>
	<circle cx="327.138" cy="292.392" r="4" fill="#0" id="circle149"/>
	<circle cx="335.825" cy="125.611" r="4" fill="#0" id="circle150"/>
	<circle cx="335.825" cy="257.646" r="4" fill="#0" id="circle151"/>
	<circle cx="335.825" cy="275.019" r="4" fill="#0" id="circle152"/>
	<circle cx="349.723" cy="136.035" r="4" fill="#0" id="circle153"/>
	<circle cx="353.198" cy="257.646" r="4" fill="#0" id="circle154"/>
	<circle cx="361.884" cy="149.933" r="4" fill="#0" id="circle155"/>
	<circle cx="370.571" cy="257.646" r="4" fill="#0" id="circle156"/>
	<circle cx="379.257" cy="151.671" r="4" fill="#0" id="circle157"/>
	<circle cx="386.207" cy="248.96" r="4" fill="#0" id="circle158"/>
	<circle cx="396.63" cy="151.671" r="4" fill="#0" id="circle159"/>
	<circle cx="403.58" cy="248.96" r="4" fill="#0" id="circle160"/>
	<circle cx="414.004" cy="151.671" r="4" fill="#0" id="circle161"/>
	<circle cx="420.953" cy="248.96" r="4" fill="#0" id="circle162"/>
	<circle cx="431.377" cy="151.671" r="4" fill="#0" id="circle163"/>
	<circle cx="438.326" cy="248.96" r="4" fill="#0" id="circle164"/>
	<circle cx="448.75" cy="151.671" r="4" fill="#0" id="circle165"/>
	<circle cx="455.699" cy="248.96" r="4" fill="#0" id="circle166"/>
	<circle cx="464.385" cy="142.984" r="4" fill="#0" id="circle167"/>
	<circle cx="471.335" cy="240.273" r="4" fill="#0" id="circle168"/>
	<circle cx="481.758" cy="142.984" r="4" fill="#0" id="circle169"/>
	<circle cx="488.708" cy="240.273" r="4" fill="#0" id="circle170"/>
	<circle cx="499.131" cy="142.984" r="4" fill="#0" id="circle171"/>
	<circle cx="506.081" cy="240.273" r="4" fill="#0" id="circle172"/>
	<circle cx="516.504" cy="142.984" r="4" fill="#0" id="circle173"/>
	<circle cx="523.454" cy="240.273" r="4" fill="#0" id="circle174"/>
	<circle cx="533.877" cy="142.984" r="4" fill="#0" id="circle175"/>
	<circle cx="540.827" cy="240.273" r="4" fill="#0" id="circle176"/>
	<circle cx="551.25" cy="142.984" r="4" fill="#0" id="circle177"/>
	<circle cx="558.2" cy="240.273" r="4" fill="#0" id="circle178"/>
	<circle cx="568.623" cy="142.984" r="4" fill="#0" id="circle179"/>
	<circle cx="575.573" cy="240.273" r="4" fill="#0" id="circle180"/>
	<circle cx="585.996" cy="142.984" r="4" fill="#0" id="circle181"/>
	<circle cx="592.946" cy="240.273" r="4" fill="#0" id="circle182"/>
	<circle cx="603.37" cy="142.984" r="4" fill="#0" id="circle183"/>
	<circle cx="610.319" cy="240.273" r="4" fill="#0" id="circle184"/>
	<circle cx="620.743" cy="142.984" r="4" fill="#0" id="circle185"/>
	<circle cx="627.692" cy="240.273" r="4" fill="#0" id="circle186"/>
	<circle cx="638.116" cy="142.984" r="4" fill="#0" id="circle187"/>
	<circle cx="645.065" cy="240.273" r="4" fill="#0" id="circle188"/>
	<circle cx="655.489" cy="142.984" r="4" fill="#0" id="circle189"/>
	<circle cx="662.438" cy="240.273" r="4" fill="#0" id="circle190"/>
	<circle cx="672.862" cy="142.984" r="4" fill="#0" id="circle191"/>
	<circle cx="679.811" cy="240.273" r="4" fill="#0" id="circle192"/>
	<circle cx="690.235" cy="142.984" r="4" fill="#0" id="circle193"/>
	<circle cx="697.184" cy="240.273" r="4" fill="#0" id="circle194"/>
	<circle cx="707.608" cy="139.51" r="4" fill="#0" id="circle195"/>
	<circle cx="712.82" cy="231.587" r="4" fill="#0" id="circle196"/>
	<circle cx="724.981" cy="134.298" r="4" fill="#0" id="circle197"/>
	<circle cx="730.193" cy="231.587" r="4" fill="#0" id="circle198"/>
	<circle cx="742.354" cy="134.298" r="4" fill="#0" id="circle199"/>
	<circle cx="747.566" cy="231.587" r="4" fill="#0" id="circle200"/>
	<circle cx="759.727" cy="134.298" r="4" fill="#0" id="circle201"/>
	<circle cx="764.939" cy="231.587" r="4" fill="#0" id="circle202"/>
	<circle cx="777.1" cy="134.298" r="4" fill="#0" id="circle203"/>
	<circle cx="782.312" cy="231.587" r="4" fill="#0" id="circle204"/>
	<circle cx="794.473" cy="134.298" r="4" fill="#0" id="circle205"/>
	<circle cx="799.685" cy="231.587" r="4" fill="#0" id="circle206"/>
	<circle cx="811.846" cy="134.298" r="4" fill="#0" id="circle207"/>
	<circle cx="817.058" cy="231.587" r="4" fill="#0" id="circle208"/>
	<circle cx="829.219" cy="134.298" r="4" fill="#0" id="circle209"/>
	<circle cx="834.431" cy="231.587" r="4" fill="#0" id="circle210"/>
	<circle cx="846.592" cy="134.298" r="4" fill="#0" id="circle211"/>
	<circle cx="851.804" cy="231.587" r="4" fill="#0" id="circle212"/>
	<circle cx="863.965" cy="134.298" r="4" fill="#0" id="circle213"/>
	<circle cx="869.177" cy="231.587" r="4" fill="#0" id="circle214"/>
	<circle cx="881.338" cy="134.298" r="4" fill="#0" id="circle215"/>
	<circle cx="886.55" cy="231.587" r="4" fill="#0" id="circle216"/>
	<circle cx="898.711" cy="134.298" r="4" fill="#0" id="circle217"/>
	<circle cx="903.923" cy="231.587" r="4" fill="#0" id="circle218"/>
	<circle cx="916.084" cy="134.298" r="4" fill="#0" id="circle219"/>
	<circle cx="921.296" cy="231.587" r="4" fill="#0" id="circle220"/>
	<circle cx="933.457" cy="122.137" r="4" fill="#0" id="circle221"/>
	<circle cx="938.669" cy="231.587" r="4" fill="#0" id="circle222"/>
	<circle cx="947.356" cy="247.222" r="4" fill="#0" id="circle223"/>
	<circle cx="950.83" cy="116.925" r="4" fill="#0" id="circle224"/>
	<circle cx="964.729" cy="240.273" r="4" fill="#0" id="circle225"/>
	<circle cx="966.466" cy="108.238" r="4" fill="#0" id="circle226"/>
	<circle cx="982.102" cy="240.273" r="4" fill="#0" id="circle227"/>
	<circle cx="983.839" cy="109.975" r="4" fill="#0" id="circle228"/>
	<circle cx="987.313" cy="127.349" r="4" fill="#0" id="circle229"/>
	<circle cx="987.313" cy="144.722" r="4" fill="#0" id="circle230"/>
	<circle cx="987.313" cy="162.095" r="4" fill="#0" id="circle231"/>
	<circle cx="987.313" cy="179.468" r="4" fill="#0" id="circle232"/>
	<circle cx="990.788" cy="196.841" r="4" fill="#0" id="circle233"/>
	<circle cx="996" cy="214.214" r="4" fill="#0" id="circle234"/>
	</g>
</svg>