<?xml version="1.0" encoding="UTF-8" standalone="no"?>
<!-- Created with CurveBenchmark -->
<svg
	xmlns:dc="http://purl.org/dc/elements/1.1/"
	xmlns:cc="http://creativecommons.org/ns#"
	xmlns:rdf="http://www.w3.org/1999/02/22-rdf-syntax-ns#"
	xmlns:svg="http://www.w3.org/2000/svg"
	xmlns="http://www.w3.org/2000/svg"
	xmlns:sodipodi="http://sodipodi.sourceforge.net/DTD/sodipodi-0.dtd"
	xmlns:inkscape="http://www.inkscape.org/namespaces/inkscape"
	width="1000"
	height="1000"
	id="svg2"
	version="1.1"
	sodipodi:docname="manifold/ccrust-fish14aff1.png.txt">
<defs
	id="defs4" />
<metadata
	id="metadata7">
	<rdf:RDF>
		<cc:Work
			rdf:about="">
			<dc:format>image/svg+xml</dc:format>
			<dc:type
				rdf:resource="http://purl.org/dc/dcmitype/StillImage" />
			<dc:title></dc:title>
		</cc:Work>
	</rdf:RDF>
</metadata>
<g
	inkscape:label="Layer 1"
	inkscape:groupmode="layer"
	id="layer1">
	<path style="fill:none;stroke:red;stroke-width:1px;stroke-linecap:butt;stroke-linejoin:miter;stroke-opacity:1" d="M 4,10.4696 25.5652,4 z" id="boundary" inkscape:connector-curvature="0" />
	<path style="fill:none;stroke:red;stroke-width:1px;stroke-linecap:butt;stroke-linejoin:miter;stroke-opacity:1" d="M 4,32.0348 4,10.4696 z" id="boundary" inkscape:connector-curvature="0" />
	<path style="fill:none;stroke:red;stroke-width:1px;stroke-linecap:butt;stroke-linejoin:miter;stroke-opacity:1" d="M 4,32.0348 14.7826,51.4435 z" id="boundary" inkscape:connector-curvature="0" />
	<path style="fill:none;stroke:red;stroke-width:1px;stroke-linecap:butt;stroke-linejoin:miter;stroke-opacity:1" d="M 25.5652,4 47.1304,8.31304 z" id="boundary" inkscape:connector-curvature="0" />
	<path style="fill:none;stroke:red;stroke-width:1px;stroke-linecap:butt;stroke-linejoin:miter;stroke-opacity:1" d="M 25.5652,70.8522 14.7826,51.4435 z" id="boundary" inkscape:connector-curvature="0" />
	<path style="fill:none;stroke:red;stroke-width:1px;stroke-linecap:butt;stroke-linejoin:miter;stroke-opacity:1" d="M 66.5391,19.0957 47.1304,8.31304 z" id="boundary" inkscape:connector-curvature="0" />
	<path style="fill:none;stroke:red;stroke-width:1px;stroke-linecap:butt;stroke-linejoin:miter;stroke-opacity:1" d="M 88.1043,27.7217 66.5391,19.0957 z" id="boundary" inkscape:connector-curvature="0" />
	<path style="fill:none;stroke:red;stroke-width:1px;stroke-linecap:butt;stroke-linejoin:miter;stroke-opacity:1" d="M 103.2,44.9739 88.1043,27.7217 z" id="boundary" inkscape:connector-curvature="0" />
	<path style="fill:none;stroke:red;stroke-width:1px;stroke-linecap:butt;stroke-linejoin:miter;stroke-opacity:1" d="M 124.765,53.6 103.2,44.9739 z" id="boundary" inkscape:connector-curvature="0" />
	<path style="fill:none;stroke:red;stroke-width:1px;stroke-linecap:butt;stroke-linejoin:miter;stroke-opacity:1" d="M 25.5652,70.8522 36.3478,90.2609 z" id="boundary" inkscape:connector-curvature="0" />
	<path style="fill:none;stroke:red;stroke-width:1px;stroke-linecap:butt;stroke-linejoin:miter;stroke-opacity:1" d="M 49.287,107.513 57.913,129.078 z" id="boundary" inkscape:connector-curvature="0" />
	<path style="fill:none;stroke:red;stroke-width:1px;stroke-linecap:butt;stroke-linejoin:miter;stroke-opacity:1" d="M 36.3478,90.2609 49.287,107.513 z" id="boundary" inkscape:connector-curvature="0" />
	<path style="fill:none;stroke:red;stroke-width:1px;stroke-linecap:butt;stroke-linejoin:miter;stroke-opacity:1" d="M 68.6957,148.487 83.7913,165.739 z" id="boundary" inkscape:connector-curvature="0" />
	<path style="fill:none;stroke:red;stroke-width:1px;stroke-linecap:butt;stroke-linejoin:miter;stroke-opacity:1" d="M 83.7913,165.739 94.5739,185.148 z" id="boundary" inkscape:connector-curvature="0" />
	<path style="fill:none;stroke:red;stroke-width:1px;stroke-linecap:butt;stroke-linejoin:miter;stroke-opacity:1" d="M 68.6957,148.487 57.913,129.078 z" id="boundary" inkscape:connector-curvature="0" />
	<path style="fill:none;stroke:red;stroke-width:1px;stroke-linecap:butt;stroke-linejoin:miter;stroke-opacity:1" d="M 120.452,221.809 103.2,206.713 z" id="boundary" inkscape:connector-curvature="0" />
	<path style="fill:none;stroke:red;stroke-width:1px;stroke-linecap:butt;stroke-linejoin:miter;stroke-opacity:1" d="M 103.2,206.713 94.5739,185.148 z" id="boundary" inkscape:connector-curvature="0" />
	<path style="fill:none;stroke:red;stroke-width:1px;stroke-linecap:butt;stroke-linejoin:miter;stroke-opacity:1" d="M 120.452,221.809 129.078,243.374 z" id="boundary" inkscape:connector-curvature="0" />
	<path style="fill:none;stroke:red;stroke-width:1px;stroke-linecap:butt;stroke-linejoin:miter;stroke-opacity:1" d="M 135.548,73.0087 157.113,79.4783 z" id="boundary" inkscape:connector-curvature="0" />
	<path style="fill:none;stroke:red;stroke-width:1px;stroke-linecap:butt;stroke-linejoin:miter;stroke-opacity:1" d="M 135.548,73.0087 124.765,53.6 z" id="boundary" inkscape:connector-curvature="0" />
	<path style="fill:none;stroke:red;stroke-width:1px;stroke-linecap:butt;stroke-linejoin:miter;stroke-opacity:1" d="M 157.113,79.4783 174.365,92.4174 z" id="boundary" inkscape:connector-curvature="0" />
	<path style="fill:none;stroke:red;stroke-width:1px;stroke-linecap:butt;stroke-linejoin:miter;stroke-opacity:1" d="M 174.365,92.4174 189.461,109.67 z" id="boundary" inkscape:connector-curvature="0" />
	<path style="fill:none;stroke:red;stroke-width:1px;stroke-linecap:butt;stroke-linejoin:miter;stroke-opacity:1" d="M 189.461,109.67 211.026,118.296 z" id="boundary" inkscape:connector-curvature="0" />
	<path style="fill:none;stroke:red;stroke-width:1px;stroke-linecap:butt;stroke-linejoin:miter;stroke-opacity:1" d="M 211.026,118.296 226.122,135.548 z" id="boundary" inkscape:connector-curvature="0" />
	<path style="fill:none;stroke:red;stroke-width:1px;stroke-linecap:butt;stroke-linejoin:miter;stroke-opacity:1" d="M 226.122,135.548 243.374,150.643 z" id="boundary" inkscape:connector-curvature="0" />
	<path style="fill:none;stroke:red;stroke-width:1px;stroke-linecap:butt;stroke-linejoin:miter;stroke-opacity:1" d="M 264.939,154.957 243.374,150.643 z" id="boundary" inkscape:connector-curvature="0" />
	<path style="fill:none;stroke:red;stroke-width:1px;stroke-linecap:butt;stroke-linejoin:miter;stroke-opacity:1" d="M 264.939,154.957 286.504,154.957 z" id="boundary" inkscape:connector-curvature="0" />
	<path style="fill:none;stroke:red;stroke-width:1px;stroke-linecap:butt;stroke-linejoin:miter;stroke-opacity:1" d="M 308.07,161.426 318.852,180.835 z" id="boundary" inkscape:connector-curvature="0" />
	<path style="fill:none;stroke:red;stroke-width:1px;stroke-linecap:butt;stroke-linejoin:miter;stroke-opacity:1" d="M 286.504,154.957 308.07,161.426 z" id="boundary" inkscape:connector-curvature="0" />
	<path style="fill:none;stroke:red;stroke-width:1px;stroke-linecap:butt;stroke-linejoin:miter;stroke-opacity:1" d="M 139.861,262.783 129.078,243.374 z" id="boundary" inkscape:connector-curvature="0" />
	<path style="fill:none;stroke:red;stroke-width:1px;stroke-linecap:butt;stroke-linejoin:miter;stroke-opacity:1" d="M 318.852,180.835 318.852,202.4 z" id="boundary" inkscape:connector-curvature="0" />
	<path style="fill:none;stroke:red;stroke-width:1px;stroke-linecap:butt;stroke-linejoin:miter;stroke-opacity:1" d="M 331.791,219.652 318.852,202.4 z" id="boundary" inkscape:connector-curvature="0" />
	<path style="fill:none;stroke:red;stroke-width:1px;stroke-linecap:butt;stroke-linejoin:miter;stroke-opacity:1" d="M 331.791,219.652 349.043,234.748 z" id="boundary" inkscape:connector-curvature="0" />
	<path style="fill:none;stroke:red;stroke-width:1px;stroke-linecap:butt;stroke-linejoin:miter;stroke-opacity:1" d="M 361.983,252 349.043,234.748 z" id="boundary" inkscape:connector-curvature="0" />
	<path style="fill:none;stroke:red;stroke-width:1px;stroke-linecap:butt;stroke-linejoin:miter;stroke-opacity:1" d="M 144.174,284.348 144.174,305.913 z" id="boundary" inkscape:connector-curvature="0" />
	<path style="fill:none;stroke:red;stroke-width:1px;stroke-linecap:butt;stroke-linejoin:miter;stroke-opacity:1" d="M 223.965,394.33 204.557,383.548 z" id="boundary" inkscape:connector-curvature="0" />
	<path style="fill:none;stroke:red;stroke-width:1px;stroke-linecap:butt;stroke-linejoin:miter;stroke-opacity:1" d="M 144.174,305.913 144.174,327.478 z" id="boundary" inkscape:connector-curvature="0" />
	<path style="fill:none;stroke:red;stroke-width:1px;stroke-linecap:butt;stroke-linejoin:miter;stroke-opacity:1" d="M 139.861,262.783 144.174,284.348 z" id="boundary" inkscape:connector-curvature="0" />
	<path style="fill:none;stroke:red;stroke-width:1px;stroke-linecap:butt;stroke-linejoin:miter;stroke-opacity:1" d="M 148.487,349.043 165.739,361.983 z" id="boundary" inkscape:connector-curvature="0" />
	<path style="fill:none;stroke:red;stroke-width:1px;stroke-linecap:butt;stroke-linejoin:miter;stroke-opacity:1" d="M 148.487,349.043 144.174,327.478 z" id="boundary" inkscape:connector-curvature="0" />
	<path style="fill:none;stroke:red;stroke-width:1px;stroke-linecap:butt;stroke-linejoin:miter;stroke-opacity:1" d="M 185.148,372.765 204.557,383.548 z" id="boundary" inkscape:connector-curvature="0" />
	<path style="fill:none;stroke:red;stroke-width:1px;stroke-linecap:butt;stroke-linejoin:miter;stroke-opacity:1" d="M 185.148,372.765 165.739,361.983 z" id="boundary" inkscape:connector-curvature="0" />
	<path style="fill:none;stroke:red;stroke-width:1px;stroke-linecap:butt;stroke-linejoin:miter;stroke-opacity:1" d="M 223.965,394.33 241.217,407.27 z" id="boundary" inkscape:connector-curvature="0" />
	<path style="fill:none;stroke:red;stroke-width:1px;stroke-linecap:butt;stroke-linejoin:miter;stroke-opacity:1" d="M 241.217,407.27 252,426.678 z" id="boundary" inkscape:connector-curvature="0" />
	<path style="fill:none;stroke:red;stroke-width:1px;stroke-linecap:butt;stroke-linejoin:miter;stroke-opacity:1" d="M 252,426.678 271.409,437.461 z" id="boundary" inkscape:connector-curvature="0" />
	<path style="fill:none;stroke:red;stroke-width:1px;stroke-linecap:butt;stroke-linejoin:miter;stroke-opacity:1" d="M 271.409,437.461 286.504,454.713 z" id="boundary" inkscape:connector-curvature="0" />
	<path style="fill:none;stroke:red;stroke-width:1px;stroke-linecap:butt;stroke-linejoin:miter;stroke-opacity:1" d="M 286.504,454.713 308.07,463.339 z" id="boundary" inkscape:connector-curvature="0" />
	<path style="fill:none;stroke:red;stroke-width:1px;stroke-linecap:butt;stroke-linejoin:miter;stroke-opacity:1" d="M 327.478,474.122 344.73,489.217 z" id="boundary" inkscape:connector-curvature="0" />
	<path style="fill:none;stroke:red;stroke-width:1px;stroke-linecap:butt;stroke-linejoin:miter;stroke-opacity:1" d="M 344.73,489.217 353.357,510.783 z" id="boundary" inkscape:connector-curvature="0" />
	<path style="fill:none;stroke:red;stroke-width:1px;stroke-linecap:butt;stroke-linejoin:miter;stroke-opacity:1" d="M 308.07,463.339 327.478,474.122 z" id="boundary" inkscape:connector-curvature="0" />
	<path style="fill:none;stroke:red;stroke-width:1px;stroke-linecap:butt;stroke-linejoin:miter;stroke-opacity:1" d="M 353.357,510.783 359.826,532.348 z" id="boundary" inkscape:connector-curvature="0" />
	<path style="fill:none;stroke:red;stroke-width:1px;stroke-linecap:butt;stroke-linejoin:miter;stroke-opacity:1" d="M 390.017,286.504 405.113,303.757 z" id="boundary" inkscape:connector-curvature="0" />
	<path style="fill:none;stroke:red;stroke-width:1px;stroke-linecap:butt;stroke-linejoin:miter;stroke-opacity:1" d="M 390.017,286.504 372.765,271.409 z" id="boundary" inkscape:connector-curvature="0" />
	<path style="fill:none;stroke:red;stroke-width:1px;stroke-linecap:butt;stroke-linejoin:miter;stroke-opacity:1" d="M 372.765,271.409 361.983,252 z" id="boundary" inkscape:connector-curvature="0" />
	<path style="fill:none;stroke:red;stroke-width:1px;stroke-linecap:butt;stroke-linejoin:miter;stroke-opacity:1" d="M 422.365,318.852 437.461,336.104 z" id="boundary" inkscape:connector-curvature="0" />
	<path style="fill:none;stroke:red;stroke-width:1px;stroke-linecap:butt;stroke-linejoin:miter;stroke-opacity:1" d="M 422.365,318.852 405.113,303.757 z" id="boundary" inkscape:connector-curvature="0" />
	<path style="fill:none;stroke:red;stroke-width:1px;stroke-linecap:butt;stroke-linejoin:miter;stroke-opacity:1" d="M 437.461,336.104 448.243,355.513 z" id="boundary" inkscape:connector-curvature="0" />
	<path style="fill:none;stroke:red;stroke-width:1px;stroke-linecap:butt;stroke-linejoin:miter;stroke-opacity:1" d="M 463.339,372.765 448.243,355.513 z" id="boundary" inkscape:connector-curvature="0" />
	<path style="fill:none;stroke:red;stroke-width:1px;stroke-linecap:butt;stroke-linejoin:miter;stroke-opacity:1" d="M 463.339,372.765 480.591,387.861 z" id="boundary" inkscape:connector-curvature="0" />
	<path style="fill:none;stroke:red;stroke-width:1px;stroke-linecap:butt;stroke-linejoin:miter;stroke-opacity:1" d="M 480.591,387.861 491.374,407.27 z" id="boundary" inkscape:connector-curvature="0" />
	<path style="fill:none;stroke:red;stroke-width:1px;stroke-linecap:butt;stroke-linejoin:miter;stroke-opacity:1" d="M 359.826,532.348 364.139,553.913 z" id="boundary" inkscape:connector-curvature="0" />
	<path style="fill:none;stroke:red;stroke-width:1px;stroke-linecap:butt;stroke-linejoin:miter;stroke-opacity:1" d="M 381.391,566.852 364.139,553.913 z" id="boundary" inkscape:connector-curvature="0" />
	<path style="fill:none;stroke:red;stroke-width:1px;stroke-linecap:butt;stroke-linejoin:miter;stroke-opacity:1" d="M 381.391,566.852 394.33,584.104 z" id="boundary" inkscape:connector-curvature="0" />
	<path style="fill:none;stroke:red;stroke-width:1px;stroke-linecap:butt;stroke-linejoin:miter;stroke-opacity:1" d="M 415.896,588.417 394.33,584.104 z" id="boundary" inkscape:connector-curvature="0" />
	<path style="fill:none;stroke:red;stroke-width:1px;stroke-linecap:butt;stroke-linejoin:miter;stroke-opacity:1" d="M 437.461,588.417 415.896,588.417 z" id="boundary" inkscape:connector-curvature="0" />
	<path style="fill:none;stroke:red;stroke-width:1px;stroke-linecap:butt;stroke-linejoin:miter;stroke-opacity:1" d="M 456.87,599.2 469.809,616.452 z" id="boundary" inkscape:connector-curvature="0" />
	<path style="fill:none;stroke:red;stroke-width:1px;stroke-linecap:butt;stroke-linejoin:miter;stroke-opacity:1" d="M 456.87,599.2 437.461,588.417 z" id="boundary" inkscape:connector-curvature="0" />
	<path style="fill:none;stroke:red;stroke-width:1px;stroke-linecap:butt;stroke-linejoin:miter;stroke-opacity:1" d="M 491.374,625.078 469.809,616.452 z" id="boundary" inkscape:connector-curvature="0" />
	<path style="fill:none;stroke:red;stroke-width:1px;stroke-linecap:butt;stroke-linejoin:miter;stroke-opacity:1" d="M 491.374,407.27 504.313,424.522 z" id="boundary" inkscape:connector-curvature="0" />
	<path style="fill:none;stroke:red;stroke-width:1px;stroke-linecap:butt;stroke-linejoin:miter;stroke-opacity:1" d="M 521.565,439.617 534.504,456.87 z" id="boundary" inkscape:connector-curvature="0" />
	<path style="fill:none;stroke:red;stroke-width:1px;stroke-linecap:butt;stroke-linejoin:miter;stroke-opacity:1" d="M 534.504,456.87 545.287,476.278 z" id="boundary" inkscape:connector-curvature="0" />
	<path style="fill:none;stroke:red;stroke-width:1px;stroke-linecap:butt;stroke-linejoin:miter;stroke-opacity:1" d="M 562.539,489.217 545.287,476.278 z" id="boundary" inkscape:connector-curvature="0" />
	<path style="fill:none;stroke:red;stroke-width:1px;stroke-linecap:butt;stroke-linejoin:miter;stroke-opacity:1" d="M 562.539,489.217 581.948,500 z" id="boundary" inkscape:connector-curvature="0" />
	<path style="fill:none;stroke:red;stroke-width:1px;stroke-linecap:butt;stroke-linejoin:miter;stroke-opacity:1" d="M 581.948,500 601.357,510.783 z" id="boundary" inkscape:connector-curvature="0" />
	<path style="fill:none;stroke:red;stroke-width:1px;stroke-linecap:butt;stroke-linejoin:miter;stroke-opacity:1" d="M 642.33,528.035 620.765,521.565 z" id="boundary" inkscape:connector-curvature="0" />
	<path style="fill:none;stroke:red;stroke-width:1px;stroke-linecap:butt;stroke-linejoin:miter;stroke-opacity:1" d="M 620.765,521.565 601.357,510.783 z" id="boundary" inkscape:connector-curvature="0" />
	<path style="fill:none;stroke:red;stroke-width:1px;stroke-linecap:butt;stroke-linejoin:miter;stroke-opacity:1" d="M 521.565,439.617 504.313,424.522 z" id="boundary" inkscape:connector-curvature="0" />
	<path style="fill:none;stroke:red;stroke-width:1px;stroke-linecap:butt;stroke-linejoin:miter;stroke-opacity:1" d="M 491.374,625.078 500,646.643 z" id="boundary" inkscape:connector-curvature="0" />
	<path style="fill:none;stroke:red;stroke-width:1px;stroke-linecap:butt;stroke-linejoin:miter;stroke-opacity:1" d="M 521.565,653.113 500,646.643 z" id="boundary" inkscape:connector-curvature="0" />
	<path style="fill:none;stroke:red;stroke-width:1px;stroke-linecap:butt;stroke-linejoin:miter;stroke-opacity:1" d="M 521.565,653.113 534.504,670.365 z" id="boundary" inkscape:connector-curvature="0" />
	<path style="fill:none;stroke:red;stroke-width:1px;stroke-linecap:butt;stroke-linejoin:miter;stroke-opacity:1" d="M 553.913,681.148 534.504,670.365 z" id="boundary" inkscape:connector-curvature="0" />
	<path style="fill:none;stroke:red;stroke-width:1px;stroke-linecap:butt;stroke-linejoin:miter;stroke-opacity:1" d="M 571.165,696.243 588.417,711.339 z" id="boundary" inkscape:connector-curvature="0" />
	<path style="fill:none;stroke:red;stroke-width:1px;stroke-linecap:butt;stroke-linejoin:miter;stroke-opacity:1" d="M 571.165,696.243 553.913,681.148 z" id="boundary" inkscape:connector-curvature="0" />
	<path style="fill:none;stroke:red;stroke-width:1px;stroke-linecap:butt;stroke-linejoin:miter;stroke-opacity:1" d="M 588.417,711.339 607.826,722.122 z" id="boundary" inkscape:connector-curvature="0" />
	<path style="fill:none;stroke:red;stroke-width:1px;stroke-linecap:butt;stroke-linejoin:miter;stroke-opacity:1" d="M 607.826,722.122 618.609,741.53 z" id="boundary" inkscape:connector-curvature="0" />
	<path style="fill:none;stroke:red;stroke-width:1px;stroke-linecap:butt;stroke-linejoin:miter;stroke-opacity:1" d="M 640.174,750.157 618.609,741.53 z" id="boundary" inkscape:connector-curvature="0" />
	<path style="fill:none;stroke:red;stroke-width:1px;stroke-linecap:butt;stroke-linejoin:miter;stroke-opacity:1" d="M 620.765,577.635 620.765,556.07 z" id="boundary" inkscape:connector-curvature="0" />
	<path style="fill:none;stroke:red;stroke-width:1px;stroke-linecap:butt;stroke-linejoin:miter;stroke-opacity:1" d="M 620.765,556.07 642.33,556.07 z" id="boundary" inkscape:connector-curvature="0" />
	<path style="fill:none;stroke:red;stroke-width:1px;stroke-linecap:butt;stroke-linejoin:miter;stroke-opacity:1" d="M 631.548,597.043 642.33,616.452 z" id="boundary" inkscape:connector-curvature="0" />
	<path style="fill:none;stroke:red;stroke-width:1px;stroke-linecap:butt;stroke-linejoin:miter;stroke-opacity:1" d="M 631.548,597.043 620.765,577.635 z" id="boundary" inkscape:connector-curvature="0" />
	<path style="fill:none;stroke:red;stroke-width:1px;stroke-linecap:butt;stroke-linejoin:miter;stroke-opacity:1" d="M 642.33,528.035 642.33,556.07 z" id="boundary" inkscape:connector-curvature="0" />
	<path style="fill:none;stroke:red;stroke-width:1px;stroke-linecap:butt;stroke-linejoin:miter;stroke-opacity:1" d="M 653.113,635.861 642.33,616.452 z" id="boundary" inkscape:connector-curvature="0" />
	<path style="fill:none;stroke:red;stroke-width:1px;stroke-linecap:butt;stroke-linejoin:miter;stroke-opacity:1" d="M 663.896,655.27 674.678,674.678 z" id="boundary" inkscape:connector-curvature="0" />
	<path style="fill:none;stroke:red;stroke-width:1px;stroke-linecap:butt;stroke-linejoin:miter;stroke-opacity:1" d="M 663.896,655.27 653.113,635.861 z" id="boundary" inkscape:connector-curvature="0" />
	<path style="fill:none;stroke:red;stroke-width:1px;stroke-linecap:butt;stroke-linejoin:miter;stroke-opacity:1" d="M 653.113,767.409 640.174,750.157 z" id="boundary" inkscape:connector-curvature="0" />
	<path style="fill:none;stroke:red;stroke-width:1px;stroke-linecap:butt;stroke-linejoin:miter;stroke-opacity:1" d="M 674.678,674.678 685.461,694.087 z" id="boundary" inkscape:connector-curvature="0" />
	<path style="fill:none;stroke:red;stroke-width:1px;stroke-linecap:butt;stroke-linejoin:miter;stroke-opacity:1" d="M 670.365,782.504 653.113,767.409 z" id="boundary" inkscape:connector-curvature="0" />
	<path style="fill:none;stroke:red;stroke-width:1px;stroke-linecap:butt;stroke-linejoin:miter;stroke-opacity:1" d="M 696.243,713.496 707.026,732.904 z" id="boundary" inkscape:connector-curvature="0" />
	<path style="fill:none;stroke:red;stroke-width:1px;stroke-linecap:butt;stroke-linejoin:miter;stroke-opacity:1" d="M 696.243,713.496 685.461,694.087 z" id="boundary" inkscape:connector-curvature="0" />
	<path style="fill:none;stroke:red;stroke-width:1px;stroke-linecap:butt;stroke-linejoin:miter;stroke-opacity:1" d="M 745.843,784.661 728.591,771.722 z" id="boundary" inkscape:connector-curvature="0" />
	<path style="fill:none;stroke:red;stroke-width:1px;stroke-linecap:butt;stroke-linejoin:miter;stroke-opacity:1" d="M 728.591,771.722 715.652,754.47 z" id="boundary" inkscape:connector-curvature="0" />
	<path style="fill:none;stroke:red;stroke-width:1px;stroke-linecap:butt;stroke-linejoin:miter;stroke-opacity:1" d="M 715.652,754.47 707.026,732.904 z" id="boundary" inkscape:connector-curvature="0" />
	<path style="fill:none;stroke:red;stroke-width:1px;stroke-linecap:butt;stroke-linejoin:miter;stroke-opacity:1" d="M 685.461,799.757 670.365,782.504 z" id="boundary" inkscape:connector-curvature="0" />
	<path style="fill:none;stroke:red;stroke-width:1px;stroke-linecap:butt;stroke-linejoin:miter;stroke-opacity:1" d="M 685.461,799.757 702.713,814.852 z" id="boundary" inkscape:connector-curvature="0" />
	<path style="fill:none;stroke:red;stroke-width:1px;stroke-linecap:butt;stroke-linejoin:miter;stroke-opacity:1" d="M 702.713,814.852 704.87,836.417 z" id="boundary" inkscape:connector-curvature="0" />
	<path style="fill:none;stroke:red;stroke-width:1px;stroke-linecap:butt;stroke-linejoin:miter;stroke-opacity:1" d="M 704.87,836.417 711.339,857.983 z" id="boundary" inkscape:connector-curvature="0" />
	<path style="fill:none;stroke:red;stroke-width:1px;stroke-linecap:butt;stroke-linejoin:miter;stroke-opacity:1" d="M 711.339,857.983 715.652,879.548 z" id="boundary" inkscape:connector-curvature="0" />
	<path style="fill:none;stroke:red;stroke-width:1px;stroke-linecap:butt;stroke-linejoin:miter;stroke-opacity:1" d="M 760.939,801.913 782.504,808.383 z" id="boundary" inkscape:connector-curvature="0" />
	<path style="fill:none;stroke:red;stroke-width:1px;stroke-linecap:butt;stroke-linejoin:miter;stroke-opacity:1" d="M 760.939,801.913 745.843,784.661 z" id="boundary" inkscape:connector-curvature="0" />
	<path style="fill:none;stroke:red;stroke-width:1px;stroke-linecap:butt;stroke-linejoin:miter;stroke-opacity:1" d="M 726.435,898.957 715.652,879.548 z" id="boundary" inkscape:connector-curvature="0" />
	<path style="fill:none;stroke:red;stroke-width:1px;stroke-linecap:butt;stroke-linejoin:miter;stroke-opacity:1" d="M 726.435,898.957 730.748,920.522 z" id="boundary" inkscape:connector-curvature="0" />
	<path style="fill:none;stroke:red;stroke-width:1px;stroke-linecap:butt;stroke-linejoin:miter;stroke-opacity:1" d="M 737.217,942.087 730.748,920.522 z" id="boundary" inkscape:connector-curvature="0" />
	<path style="fill:none;stroke:red;stroke-width:1px;stroke-linecap:butt;stroke-linejoin:miter;stroke-opacity:1" d="M 737.217,942.087 750.157,959.339 z" id="boundary" inkscape:connector-curvature="0" />
	<path style="fill:none;stroke:red;stroke-width:1px;stroke-linecap:butt;stroke-linejoin:miter;stroke-opacity:1" d="M 750.157,959.339 758.783,980.904 z" id="boundary" inkscape:connector-curvature="0" />
	<path style="fill:none;stroke:red;stroke-width:1px;stroke-linecap:butt;stroke-linejoin:miter;stroke-opacity:1" d="M 793.287,922.678 793.287,944.243 z" id="boundary" inkscape:connector-curvature="0" />
	<path style="fill:none;stroke:red;stroke-width:1px;stroke-linecap:butt;stroke-linejoin:miter;stroke-opacity:1" d="M 793.287,922.678 793.287,901.113 z" id="boundary" inkscape:connector-curvature="0" />
	<path style="fill:none;stroke:red;stroke-width:1px;stroke-linecap:butt;stroke-linejoin:miter;stroke-opacity:1" d="M 776.035,996 758.783,980.904 z" id="boundary" inkscape:connector-curvature="0" />
	<path style="fill:none;stroke:red;stroke-width:1px;stroke-linecap:butt;stroke-linejoin:miter;stroke-opacity:1" d="M 793.287,944.243 793.287,965.809 z" id="boundary" inkscape:connector-curvature="0" />
	<path style="fill:none;stroke:red;stroke-width:1px;stroke-linecap:butt;stroke-linejoin:miter;stroke-opacity:1" d="M 804.07,879.548 793.287,901.113 z" id="boundary" inkscape:connector-curvature="0" />
	<path style="fill:none;stroke:red;stroke-width:1px;stroke-linecap:butt;stroke-linejoin:miter;stroke-opacity:1" d="M 801.913,819.165 823.478,823.478 z" id="boundary" inkscape:connector-curvature="0" />
	<path style="fill:none;stroke:red;stroke-width:1px;stroke-linecap:butt;stroke-linejoin:miter;stroke-opacity:1" d="M 801.913,819.165 782.504,808.383 z" id="boundary" inkscape:connector-curvature="0" />
	<path style="fill:none;stroke:red;stroke-width:1px;stroke-linecap:butt;stroke-linejoin:miter;stroke-opacity:1" d="M 823.478,823.478 845.043,823.478 z" id="boundary" inkscape:connector-curvature="0" />
	<path style="fill:none;stroke:red;stroke-width:1px;stroke-linecap:butt;stroke-linejoin:miter;stroke-opacity:1" d="M 864.452,834.261 845.043,823.478 z" id="boundary" inkscape:connector-curvature="0" />
	<path style="fill:none;stroke:red;stroke-width:1px;stroke-linecap:butt;stroke-linejoin:miter;stroke-opacity:1" d="M 864.452,834.261 883.861,845.043 z" id="boundary" inkscape:connector-curvature="0" />
	<path style="fill:none;stroke:red;stroke-width:1px;stroke-linecap:butt;stroke-linejoin:miter;stroke-opacity:1" d="M 903.27,855.826 883.861,845.043 z" id="boundary" inkscape:connector-curvature="0" />
	<path style="fill:none;stroke:red;stroke-width:1px;stroke-linecap:butt;stroke-linejoin:miter;stroke-opacity:1" d="M 924.835,855.826 903.27,855.826 z" id="boundary" inkscape:connector-curvature="0" />
	<path style="fill:none;stroke:red;stroke-width:1px;stroke-linecap:butt;stroke-linejoin:miter;stroke-opacity:1" d="M 942.087,870.922 924.835,855.826 z" id="boundary" inkscape:connector-curvature="0" />
	<path style="fill:none;stroke:red;stroke-width:1px;stroke-linecap:butt;stroke-linejoin:miter;stroke-opacity:1" d="M 903.27,855.826 890.33,890.33 z" id="boundary" inkscape:connector-curvature="0" />
	<path style="fill:none;stroke:red;stroke-width:1px;stroke-linecap:butt;stroke-linejoin:miter;stroke-opacity:1" d="M 825.635,879.548 847.2,883.861 z" id="boundary" inkscape:connector-curvature="0" />
	<path style="fill:none;stroke:red;stroke-width:1px;stroke-linecap:butt;stroke-linejoin:miter;stroke-opacity:1" d="M 825.635,879.548 804.07,879.548 z" id="boundary" inkscape:connector-curvature="0" />
	<path style="fill:none;stroke:red;stroke-width:1px;stroke-linecap:butt;stroke-linejoin:miter;stroke-opacity:1" d="M 847.2,883.861 868.765,890.33 z" id="boundary" inkscape:connector-curvature="0" />
	<path style="fill:none;stroke:red;stroke-width:1px;stroke-linecap:butt;stroke-linejoin:miter;stroke-opacity:1" d="M 868.765,890.33 890.33,890.33 z" id="boundary" inkscape:connector-curvature="0" />
	<path style="fill:none;stroke:red;stroke-width:1px;stroke-linecap:butt;stroke-linejoin:miter;stroke-opacity:1" d="M 890.33,890.33 909.739,901.113 z" id="boundary" inkscape:connector-curvature="0" />
	<path style="fill:none;stroke:red;stroke-width:1px;stroke-linecap:butt;stroke-linejoin:miter;stroke-opacity:1" d="M 909.739,901.113 931.304,901.113 z" id="boundary" inkscape:connector-curvature="0" />
	<path style="fill:none;stroke:red;stroke-width:1px;stroke-linecap:butt;stroke-linejoin:miter;stroke-opacity:1" d="M 931.304,901.113 952.87,901.113 z" id="boundary" inkscape:connector-curvature="0" />
	<circle cx="4" cy="10.4696" r="4" fill="#0" id="circle0"/>
	<circle cx="4" cy="32.0348" r="4" fill="#0" id="circle1"/>
	<circle cx="14.7826" cy="51.4435" r="4" fill="#0" id="circle2"/>
	<circle cx="25.5652" cy="4" r="4" fill="#0" id="circle3"/>
	<circle cx="25.5652" cy="70.8522" r="4" fill="#0" id="circle4"/>
	<circle cx="36.3478" cy="90.2609" r="4" fill="#0" id="circle5"/>
	<circle cx="47.1304" cy="8.31304" r="4" fill="#0" id="circle6"/>
	<circle cx="49.287" cy="107.513" r="4" fill="#0" id="circle7"/>
	<circle cx="57.913" cy="129.078" r="4" fill="#0" id="circle8"/>
	<circle cx="66.5391" cy="19.0957" r="4" fill="#0" id="circle9"/>
	<circle cx="68.6957" cy="148.487" r="4" fill="#0" id="circle10"/>
	<circle cx="83.7913" cy="165.739" r="4" fill="#0" id="circle11"/>
	<circle cx="88.1043" cy="27.7217" r="4" fill="#0" id="circle12"/>
	<circle cx="94.5739" cy="185.148" r="4" fill="#0" id="circle13"/>
	<circle cx="103.2" cy="44.9739" r="4" fill="#0" id="circle14"/>
	<circle cx="103.2" cy="206.713" r="4" fill="#0" id="circle15"/>
	<circle cx="120.452" cy="221.809" r="4" fill="#0" id="circle16"/>
	<circle cx="124.765" cy="53.6" r="4" fill="#0" id="circle17"/>
	<circle cx="129.078" cy="243.374" r="4" fill="#0" id="circle18"/>
	<circle cx="135.548" cy="73.0087" r="4" fill="#0" id="circle19"/>
	<circle cx="139.861" cy="262.783" r="4" fill="#0" id="circle20"/>
	<circle cx="144.174" cy="284.348" r="4" fill="#0" id="circle21"/>
	<circle cx="144.174" cy="305.913" r="4" fill="#0" id="circle22"/>
	<circle cx="144.174" cy="327.478" r="4" fill="#0" id="circle23"/>
	<circle cx="148.487" cy="349.043" r="4" fill="#0" id="circle24"/>
	<circle cx="157.113" cy="79.4783" r="4" fill="#0" id="circle25"/>
	<circle cx="165.739" cy="361.983" r="4" fill="#0" id="circle26"/>
	<circle cx="174.365" cy="92.4174" r="4" fill="#0" id="circle27"/>
	<circle cx="185.148" cy="372.765" r="4" fill="#0" id="circle28"/>
	<circle cx="189.461" cy="109.67" r="4" fill="#0" id="circle29"/>
	<circle cx="204.557" cy="383.548" r="4" fill="#0" id="circle30"/>
	<circle cx="211.026" cy="118.296" r="4" fill="#0" id="circle31"/>
	<circle cx="223.965" cy="394.33" r="4" fill="#0" id="circle32"/>
	<circle cx="226.122" cy="135.548" r="4" fill="#0" id="circle33"/>
	<circle cx="241.217" cy="407.27" r="4" fill="#0" id="circle34"/>
	<circle cx="243.374" cy="150.643" r="4" fill="#0" id="circle35"/>
	<circle cx="252" cy="426.678" r="4" fill="#0" id="circle36"/>
	<circle cx="264.939" cy="154.957" r="4" fill="#0" id="circle37"/>
	<circle cx="271.409" cy="437.461" r="4" fill="#0" id="circle38"/>
	<circle cx="286.504" cy="154.957" r="4" fill="#0" id="circle39"/>
	<circle cx="286.504" cy="454.713" r="4" fill="#0" id="circle40"/>
	<circle cx="308.07" cy="161.426" r="4" fill="#0" id="circle41"/>
	<circle cx="308.07" cy="463.339" r="4" fill="#0" id="circle42"/>
	<circle cx="318.852" cy="180.835" r="4" fill="#0" id="circle43"/>
	<circle cx="318.852" cy="202.4" r="4" fill="#0" id="circle44"/>
	<circle cx="327.478" cy="474.122" r="4" fill="#0" id="circle45"/>
	<circle cx="331.791" cy="219.652" r="4" fill="#0" id="circle46"/>
	<circle cx="344.73" cy="489.217" r="4" fill="#0" id="circle47"/>
	<circle cx="349.043" cy="234.748" r="4" fill="#0" id="circle48"/>
	<circle cx="353.357" cy="510.783" r="4" fill="#0" id="circle49"/>
	<circle cx="359.826" cy="532.348" r="4" fill="#0" id="circle50"/>
	<circle cx="361.983" cy="252" r="4" fill="#0" id="circle51"/>
	<circle cx="364.139" cy="553.913" r="4" fill="#0" id="circle52"/>
	<circle cx="372.765" cy="271.409" r="4" fill="#0" id="circle53"/>
	<circle cx="381.391" cy="566.852" r="4" fill="#0" id="circle54"/>
	<circle cx="390.017" cy="286.504" r="4" fill="#0" id="circle55"/>
	<circle cx="394.33" cy="584.104" r="4" fill="#0" id="circle56"/>
	<circle cx="405.113" cy="303.757" r="4" fill="#0" id="circle57"/>
	<circle cx="415.896" cy="588.417" r="4" fill="#0" id="circle58"/>
	<circle cx="422.365" cy="318.852" r="4" fill="#0" id="circle59"/>
	<circle cx="437.461" cy="336.104" r="4" fill="#0" id="circle60"/>
	<circle cx="437.461" cy="588.417" r="4" fill="#0" id="circle61"/>
	<circle cx="448.243" cy="355.513" r="4" fill="#0" id="circle62"/>
	<circle cx="456.87" cy="599.2" r="4" fill="#0" id="circle63"/>
	<circle cx="463.339" cy="372.765" r="4" fill="#0" id="circle64"/>
	<circle cx="469.809" cy="616.452" r="4" fill="#0" id="circle65"/>
	<circle cx="480.591" cy="387.861" r="4" fill="#0" id="circle66"/>
	<circle cx="491.374" cy="407.27" r="4" fill="#0" id="circle67"/>
	<circle cx="491.374" cy="625.078" r="4" fill="#0" id="circle68"/>
	<circle cx="500" cy="646.643" r="4" fill="#0" id="circle69"/>
	<circle cx="504.313" cy="424.522" r="4" fill="#0" id="circle70"/>
	<circle cx="521.565" cy="439.617" r="4" fill="#0" id="circle71"/>
	<circle cx="521.565" cy="653.113" r="4" fill="#0" id="circle72"/>
	<circle cx="534.504" cy="456.87" r="4" fill="#0" id="circle73"/>
	<circle cx="534.504" cy="670.365" r="4" fill="#0" id="circle74"/>
	<circle cx="545.287" cy="476.278" r="4" fill="#0" id="circle75"/>
	<circle cx="553.913" cy="681.148" r="4" fill="#0" id="circle76"/>
	<circle cx="562.539" cy="489.217" r="4" fill="#0" id="circle77"/>
	<circle cx="571.165" cy="696.243" r="4" fill="#0" id="circle78"/>
	<circle cx="581.948" cy="500" r="4" fill="#0" id="circle79"/>
	<circle cx="588.417" cy="711.339" r="4" fill="#0" id="circle80"/>
	<circle cx="601.357" cy="510.783" r="4" fill="#0" id="circle81"/>
	<circle cx="607.826" cy="722.122" r="4" fill="#0" id="circle82"/>
	<circle cx="618.609" cy="741.53" r="4" fill="#0" id="circle83"/>
	<circle cx="620.765" cy="521.565" r="4" fill="#0" id="circle84"/>
	<circle cx="620.765" cy="556.07" r="4" fill="#0" id="circle85"/>
	<circle cx="620.765" cy="577.635" r="4" fill="#0" id="circle86"/>
	<circle cx="631.548" cy="597.043" r="4" fill="#0" id="circle87"/>
	<circle cx="640.174" cy="750.157" r="4" fill="#0" id="circle88"/>
	<circle cx="642.33" cy="528.035" r="4" fill="#0" id="circle89"/>
	<circle cx="642.33" cy="556.07" r="4" fill="#0" id="circle90"/>
	<circle cx="642.33" cy="616.452" r="4" fill="#0" id="circle91"/>
	<circle cx="653.113" cy="635.861" r="4" fill="#0" id="circle92"/>
	<circle cx="653.113" cy="767.409" r="4" fill="#0" id="circle93"/>
	<circle cx="663.896" cy="655.27" r="4" fill="#0" id="circle94"/>
	<circle cx="670.365" cy="782.504" r="4" fill="#0" id="circle95"/>
	<circle cx="674.678" cy="674.678" r="4" fill="#0" id="circle96"/>
	<circle cx="685.461" cy="694.087" r="4" fill="#0" id="circle97"/>
	<circle cx="685.461" cy="799.757" r="4" fill="#0" id="circle98"/>
	<circle cx="696.243" cy="713.496" r="4" fill="#0" id="circle99"/>
	<circle cx="702.713" cy="814.852" r="4" fill="#0" id="circle100"/>
	<circle cx="704.87" cy="836.417" r="4" fill="#0" id="circle101"/>
	<circle cx="707.026" cy="732.904" r="4" fill="#0" id="circle102"/>
	<circle cx="711.339" cy="857.983" r="4" fill="#0" id="circle103"/>
	<circle cx="715.652" cy="754.47" r="4" fill="#0" id="circle104"/>
	<circle cx="715.652" cy="879.548" r="4" fill="#0" id="circle105"/>
	<circle cx="726.435" cy="898.957" r="4" fill="#0" id="circle106"/>
	<circle cx="728.591" cy="771.722" r="4" fill="#0" id="circle107"/>
	<circle cx="730.748" cy="920.522" r="4" fill="#0" id="circle108"/>
	<circle cx="737.217" cy="942.087" r="4" fill="#0" id="circle109"/>
	<circle cx="745.843" cy="784.661" r="4" fill="#0" id="circle110"/>
	<circle cx="750.157" cy="959.339" r="4" fill="#0" id="circle111"/>
	<circle cx="758.783" cy="980.904" r="4" fill="#0" id="circle112"/>
	<circle cx="760.939" cy="801.913" r="4" fill="#0" id="circle113"/>
	<circle cx="776.035" cy="996" r="4" fill="#0" id="circle114"/>
	<circle cx="782.504" cy="808.383" r="4" fill="#0" id="circle115"/>
	<circle cx="793.287" cy="901.113" r="4" fill="#0" id="circle116"/>
	<circle cx="793.287" cy="922.678" r="4" fill="#0" id="circle117"/>
	<circle cx="793.287" cy="944.243" r="4" fill="#0" id="circle118"/>
	<circle cx="793.287" cy="965.809" r="4" fill="#0" id="circle119"/>
	<circle cx="801.913" cy="819.165" r="4" fill="#0" id="circle120"/>
	<circle cx="804.07" cy="879.548" r="4" fill="#0" id="circle121"/>
	<circle cx="823.478" cy="823.478" r="4" fill="#0" id="circle122"/>
	<circle cx="825.635" cy="879.548" r="4" fill="#0" id="circle123"/>
	<circle cx="845.043" cy="823.478" r="4" fill="#0" id="circle124"/>
	<circle cx="847.2" cy="883.861" r="4" fill="#0" id="circle125"/>
	<circle cx="864.452" cy="834.261" r="4" fill="#0" id="circle126"/>
	<circle cx="868.765" cy="890.33" r="4" fill="#0" id="circle127"/>
	<circle cx="883.861" cy="845.043" r="4" fill="#0" id="circle128"/>
	<circle cx="890.33" cy="890.33" r="4" fill="#0" id="circle129"/>
	<circle cx="903.27" cy="855.826" r="4" fill="#0" id="circle130"/>
	<circle cx="909.739" cy="901.113" r="4" fill="#0" id="circle131"/>
	<circle cx="924.835" cy="855.826" r="4" fill="#0" id="circle132"/>
	<circle cx="931.304" cy="901.113" r="4" fill="#0" id="circle133"/>
	<circle cx="942.087" cy="870.922" r="4" fill="#0" id="circle134"/>
	<circle cx="952.87" cy="901.113" r="4" fill="#0" id="circle135"/>
	</g>
</svg>