<?xml version="1.0" encoding="UTF-8" standalone="no"?>
<!-- Created with CurveBenchmark -->
<svg
	xmlns:dc="http://purl.org/dc/elements/1.1/"
	xmlns:cc="http://creativecommons.org/ns#"
	xmlns:rdf="http://www.w3.org/1999/02/22-rdf-syntax-ns#"
	xmlns:svg="http://www.w3.org/2000/svg"
	xmlns="http://www.w3.org/2000/svg"
	xmlns:sodipodi="http://sodipodi.sourceforge.net/DTD/sodipodi-0.dtd"
	xmlns:inkscape="http://www.inkscape.org/namespaces/inkscape"
	width="1000"
	height="1000"
	id="svg2"
	version="1.1"
	sodipodi:docname="manifold/ccrust-bird42.png.txt">
<defs
	id="defs4" />
<metadata
	id="metadata7">
	<rdf:RDF>
		<cc:Work
			rdf:about="">
			<dc:format>image/svg+xml</dc:format>
			<dc:type
				rdf:resource="http://purl.org/dc/dcmitype/StillImage" />
			<dc:title></dc:title>
		</cc:Work>
	</rdf:RDF>
</metadata>
<g
	inkscape:label="Layer 1"
	inkscape:groupmode="layer"
	id="layer1">
	<path style="fill:none;stroke:red;stroke-width:1px;stroke-linecap:butt;stroke-linejoin:miter;stroke-opacity:1" d="M 31.2764,82.958 39.89,65.7308 z" id="boundary" inkscape:connector-curvature="0" />
	<path style="fill:none;stroke:red;stroke-width:1px;stroke-linecap:butt;stroke-linejoin:miter;stroke-opacity:1" d="M 39.89,65.7308 54.246,61.424 z" id="boundary" inkscape:connector-curvature="0" />
	<path style="fill:none;stroke:red;stroke-width:1px;stroke-linecap:butt;stroke-linejoin:miter;stroke-opacity:1" d="M 31.2764,82.958 18.356,90.136 z" id="boundary" inkscape:connector-curvature="0" />
	<path style="fill:none;stroke:red;stroke-width:1px;stroke-linecap:butt;stroke-linejoin:miter;stroke-opacity:1" d="M 39.89,113.106 25.534,113.106 z" id="boundary" inkscape:connector-curvature="0" />
	<path style="fill:none;stroke:red;stroke-width:1px;stroke-linecap:butt;stroke-linejoin:miter;stroke-opacity:1" d="M 4,94.4428 11.178,107.363 z" id="boundary" inkscape:connector-curvature="0" />
	<path style="fill:none;stroke:red;stroke-width:1px;stroke-linecap:butt;stroke-linejoin:miter;stroke-opacity:1" d="M 4,94.4428 18.356,90.136 z" id="boundary" inkscape:connector-curvature="0" />
	<path style="fill:none;stroke:red;stroke-width:1px;stroke-linecap:butt;stroke-linejoin:miter;stroke-opacity:1" d="M 25.534,113.106 11.178,107.363 z" id="boundary" inkscape:connector-curvature="0" />
	<path style="fill:none;stroke:red;stroke-width:1px;stroke-linecap:butt;stroke-linejoin:miter;stroke-opacity:1" d="M 114.541,4 128.897,4 z" id="boundary" inkscape:connector-curvature="0" />
	<path style="fill:none;stroke:red;stroke-width:1px;stroke-linecap:butt;stroke-linejoin:miter;stroke-opacity:1" d="M 101.621,11.178 114.541,4 z" id="boundary" inkscape:connector-curvature="0" />
	<path style="fill:none;stroke:red;stroke-width:1px;stroke-linecap:butt;stroke-linejoin:miter;stroke-opacity:1" d="M 128.897,4 143.253,4 z" id="boundary" inkscape:connector-curvature="0" />
	<path style="fill:none;stroke:red;stroke-width:1px;stroke-linecap:butt;stroke-linejoin:miter;stroke-opacity:1" d="M 68.602,51.3748 75.78,37.0188 z" id="boundary" inkscape:connector-curvature="0" />
	<path style="fill:none;stroke:red;stroke-width:1px;stroke-linecap:butt;stroke-linejoin:miter;stroke-opacity:1" d="M 68.602,51.3748 54.246,61.424 z" id="boundary" inkscape:connector-curvature="0" />
	<path style="fill:none;stroke:red;stroke-width:1px;stroke-linecap:butt;stroke-linejoin:miter;stroke-opacity:1" d="M 90.136,22.6628 101.621,11.178 z" id="boundary" inkscape:connector-curvature="0" />
	<path style="fill:none;stroke:red;stroke-width:1px;stroke-linecap:butt;stroke-linejoin:miter;stroke-opacity:1" d="M 90.136,22.6628 75.78,37.0188 z" id="boundary" inkscape:connector-curvature="0" />
	<path style="fill:none;stroke:red;stroke-width:1px;stroke-linecap:butt;stroke-linejoin:miter;stroke-opacity:1" d="M 54.246,113.106 39.89,113.106 z" id="boundary" inkscape:connector-curvature="0" />
	<path style="fill:none;stroke:red;stroke-width:1px;stroke-linecap:butt;stroke-linejoin:miter;stroke-opacity:1" d="M 54.246,113.106 68.602,113.106 z" id="boundary" inkscape:connector-curvature="0" />
	<path style="fill:none;stroke:red;stroke-width:1px;stroke-linecap:butt;stroke-linejoin:miter;stroke-opacity:1" d="M 82.958,113.106 68.602,113.106 z" id="boundary" inkscape:connector-curvature="0" />
	<path style="fill:none;stroke:red;stroke-width:1px;stroke-linecap:butt;stroke-linejoin:miter;stroke-opacity:1" d="M 97.314,113.106 111.67,113.106 z" id="boundary" inkscape:connector-curvature="0" />
	<path style="fill:none;stroke:red;stroke-width:1px;stroke-linecap:butt;stroke-linejoin:miter;stroke-opacity:1" d="M 111.67,113.106 124.59,120.284 z" id="boundary" inkscape:connector-curvature="0" />
	<path style="fill:none;stroke:red;stroke-width:1px;stroke-linecap:butt;stroke-linejoin:miter;stroke-opacity:1" d="M 82.958,113.106 97.314,113.106 z" id="boundary" inkscape:connector-curvature="0" />
	<path style="fill:none;stroke:red;stroke-width:1px;stroke-linecap:butt;stroke-linejoin:miter;stroke-opacity:1" d="M 138.946,120.284 124.59,120.284 z" id="boundary" inkscape:connector-curvature="0" />
	<path style="fill:none;stroke:red;stroke-width:1px;stroke-linecap:butt;stroke-linejoin:miter;stroke-opacity:1" d="M 154.738,266.715 154.738,252.359 z" id="boundary" inkscape:connector-curvature="0" />
	<path style="fill:none;stroke:red;stroke-width:1px;stroke-linecap:butt;stroke-linejoin:miter;stroke-opacity:1" d="M 161.916,230.825 154.738,252.359 z" id="boundary" inkscape:connector-curvature="0" />
	<path style="fill:none;stroke:red;stroke-width:1px;stroke-linecap:butt;stroke-linejoin:miter;stroke-opacity:1" d="M 138.946,120.284 153.302,120.284 z" id="boundary" inkscape:connector-curvature="0" />
	<path style="fill:none;stroke:red;stroke-width:1px;stroke-linecap:butt;stroke-linejoin:miter;stroke-opacity:1" d="M 147.56,281.071 147.56,295.427 z" id="boundary" inkscape:connector-curvature="0" />
	<path style="fill:none;stroke:red;stroke-width:1px;stroke-linecap:butt;stroke-linejoin:miter;stroke-opacity:1" d="M 147.56,295.427 140.382,309.783 z" id="boundary" inkscape:connector-curvature="0" />
	<path style="fill:none;stroke:red;stroke-width:1px;stroke-linecap:butt;stroke-linejoin:miter;stroke-opacity:1" d="M 140.382,309.783 133.204,324.139 z" id="boundary" inkscape:connector-curvature="0" />
	<path style="fill:none;stroke:red;stroke-width:1px;stroke-linecap:butt;stroke-linejoin:miter;stroke-opacity:1" d="M 147.56,281.071 154.738,266.715 z" id="boundary" inkscape:connector-curvature="0" />
	<path style="fill:none;stroke:red;stroke-width:1px;stroke-linecap:butt;stroke-linejoin:miter;stroke-opacity:1" d="M 143.253,4 157.609,4 z" id="boundary" inkscape:connector-curvature="0" />
	<path style="fill:none;stroke:red;stroke-width:1px;stroke-linecap:butt;stroke-linejoin:miter;stroke-opacity:1" d="M 133.204,324.139 126.026,345.673 z" id="boundary" inkscape:connector-curvature="0" />
	<path style="fill:none;stroke:red;stroke-width:1px;stroke-linecap:butt;stroke-linejoin:miter;stroke-opacity:1" d="M 177.708,18.356 171.965,4 z" id="boundary" inkscape:connector-curvature="0" />
	<path style="fill:none;stroke:red;stroke-width:1px;stroke-linecap:butt;stroke-linejoin:miter;stroke-opacity:1" d="M 192.064,22.6628 177.708,18.356 z" id="boundary" inkscape:connector-curvature="0" />
	<path style="fill:none;stroke:red;stroke-width:1px;stroke-linecap:butt;stroke-linejoin:miter;stroke-opacity:1" d="M 204.984,29.8408 192.064,22.6628 z" id="boundary" inkscape:connector-curvature="0" />
	<path style="fill:none;stroke:red;stroke-width:1px;stroke-linecap:butt;stroke-linejoin:miter;stroke-opacity:1" d="M 204.984,29.8408 213.598,41.3256 z" id="boundary" inkscape:connector-curvature="0" />
	<path style="fill:none;stroke:red;stroke-width:1px;stroke-linecap:butt;stroke-linejoin:miter;stroke-opacity:1" d="M 169.094,141.818 169.094,156.174 z" id="boundary" inkscape:connector-curvature="0" />
	<path style="fill:none;stroke:red;stroke-width:1px;stroke-linecap:butt;stroke-linejoin:miter;stroke-opacity:1" d="M 169.094,141.818 166.223,127.462 z" id="boundary" inkscape:connector-curvature="0" />
	<path style="fill:none;stroke:red;stroke-width:1px;stroke-linecap:butt;stroke-linejoin:miter;stroke-opacity:1" d="M 166.223,127.462 153.302,120.284 z" id="boundary" inkscape:connector-curvature="0" />
	<path style="fill:none;stroke:red;stroke-width:1px;stroke-linecap:butt;stroke-linejoin:miter;stroke-opacity:1" d="M 213.598,41.3256 220.776,54.246 z" id="boundary" inkscape:connector-curvature="0" />
	<path style="fill:none;stroke:red;stroke-width:1px;stroke-linecap:butt;stroke-linejoin:miter;stroke-opacity:1" d="M 169.094,156.174 169.094,170.53 z" id="boundary" inkscape:connector-curvature="0" />
	<path style="fill:none;stroke:red;stroke-width:1px;stroke-linecap:butt;stroke-linejoin:miter;stroke-opacity:1" d="M 157.609,4 171.965,4 z" id="boundary" inkscape:connector-curvature="0" />
	<path style="fill:none;stroke:red;stroke-width:1px;stroke-linecap:butt;stroke-linejoin:miter;stroke-opacity:1" d="M 227.954,67.1664 220.776,54.246 z" id="boundary" inkscape:connector-curvature="0" />
	<path style="fill:none;stroke:red;stroke-width:1px;stroke-linecap:butt;stroke-linejoin:miter;stroke-opacity:1" d="M 235.132,80.0868 235.132,94.4428 z" id="boundary" inkscape:connector-curvature="0" />
	<path style="fill:none;stroke:red;stroke-width:1px;stroke-linecap:butt;stroke-linejoin:miter;stroke-opacity:1" d="M 227.954,67.1664 235.132,80.0868 z" id="boundary" inkscape:connector-curvature="0" />
	<path style="fill:none;stroke:red;stroke-width:1px;stroke-linecap:butt;stroke-linejoin:miter;stroke-opacity:1" d="M 235.132,94.4428 235.132,108.799 z" id="boundary" inkscape:connector-curvature="0" />
	<path style="fill:none;stroke:red;stroke-width:1px;stroke-linecap:butt;stroke-linejoin:miter;stroke-opacity:1" d="M 240.874,123.155 242.31,137.511 z" id="boundary" inkscape:connector-curvature="0" />
	<path style="fill:none;stroke:red;stroke-width:1px;stroke-linecap:butt;stroke-linejoin:miter;stroke-opacity:1" d="M 240.874,123.155 235.132,108.799 z" id="boundary" inkscape:connector-curvature="0" />
	<path style="fill:none;stroke:red;stroke-width:1px;stroke-linecap:butt;stroke-linejoin:miter;stroke-opacity:1" d="M 242.31,137.511 242.31,151.867 z" id="boundary" inkscape:connector-curvature="0" />
	<path style="fill:none;stroke:red;stroke-width:1px;stroke-linecap:butt;stroke-linejoin:miter;stroke-opacity:1" d="M 242.31,166.223 242.31,151.867 z" id="boundary" inkscape:connector-curvature="0" />
	<path style="fill:none;stroke:red;stroke-width:1px;stroke-linecap:butt;stroke-linejoin:miter;stroke-opacity:1" d="M 169.094,170.53 169.094,184.886 z" id="boundary" inkscape:connector-curvature="0" />
	<path style="fill:none;stroke:red;stroke-width:1px;stroke-linecap:butt;stroke-linejoin:miter;stroke-opacity:1" d="M 169.094,199.242 169.094,184.886 z" id="boundary" inkscape:connector-curvature="0" />
	<path style="fill:none;stroke:red;stroke-width:1px;stroke-linecap:butt;stroke-linejoin:miter;stroke-opacity:1" d="M 169.094,213.598 161.916,230.825 z" id="boundary" inkscape:connector-curvature="0" />
	<path style="fill:none;stroke:red;stroke-width:1px;stroke-linecap:butt;stroke-linejoin:miter;stroke-opacity:1" d="M 169.094,199.242 169.094,213.598 z" id="boundary" inkscape:connector-curvature="0" />
	<path style="fill:none;stroke:red;stroke-width:1px;stroke-linecap:butt;stroke-linejoin:miter;stroke-opacity:1" d="M 242.31,223.647 235.132,242.31 z" id="boundary" inkscape:connector-curvature="0" />
	<path style="fill:none;stroke:red;stroke-width:1px;stroke-linecap:butt;stroke-linejoin:miter;stroke-opacity:1" d="M 235.132,242.31 235.132,256.666 z" id="boundary" inkscape:connector-curvature="0" />
	<path style="fill:none;stroke:red;stroke-width:1px;stroke-linecap:butt;stroke-linejoin:miter;stroke-opacity:1" d="M 235.132,271.022 235.132,285.378 z" id="boundary" inkscape:connector-curvature="0" />
	<path style="fill:none;stroke:red;stroke-width:1px;stroke-linecap:butt;stroke-linejoin:miter;stroke-opacity:1" d="M 235.132,271.022 235.132,256.666 z" id="boundary" inkscape:connector-curvature="0" />
	<path style="fill:none;stroke:red;stroke-width:1px;stroke-linecap:butt;stroke-linejoin:miter;stroke-opacity:1" d="M 235.132,285.378 235.132,299.734 z" id="boundary" inkscape:connector-curvature="0" />
	<path style="fill:none;stroke:red;stroke-width:1px;stroke-linecap:butt;stroke-linejoin:miter;stroke-opacity:1" d="M 242.31,180.579 242.31,194.935 z" id="boundary" inkscape:connector-curvature="0" />
	<path style="fill:none;stroke:red;stroke-width:1px;stroke-linecap:butt;stroke-linejoin:miter;stroke-opacity:1" d="M 242.31,209.291 242.31,223.647 z" id="boundary" inkscape:connector-curvature="0" />
	<path style="fill:none;stroke:red;stroke-width:1px;stroke-linecap:butt;stroke-linejoin:miter;stroke-opacity:1" d="M 242.31,209.291 242.31,194.935 z" id="boundary" inkscape:connector-curvature="0" />
	<path style="fill:none;stroke:red;stroke-width:1px;stroke-linecap:butt;stroke-linejoin:miter;stroke-opacity:1" d="M 235.132,299.734 235.132,314.09 z" id="boundary" inkscape:connector-curvature="0" />
	<path style="fill:none;stroke:red;stroke-width:1px;stroke-linecap:butt;stroke-linejoin:miter;stroke-opacity:1" d="M 235.132,328.446 235.132,314.09 z" id="boundary" inkscape:connector-curvature="0" />
	<path style="fill:none;stroke:red;stroke-width:1px;stroke-linecap:butt;stroke-linejoin:miter;stroke-opacity:1" d="M 235.132,342.802 235.132,328.446 z" id="boundary" inkscape:connector-curvature="0" />
	<path style="fill:none;stroke:red;stroke-width:1px;stroke-linecap:butt;stroke-linejoin:miter;stroke-opacity:1" d="M 242.31,166.223 242.31,180.579 z" id="boundary" inkscape:connector-curvature="0" />
	<path style="fill:none;stroke:red;stroke-width:1px;stroke-linecap:butt;stroke-linejoin:miter;stroke-opacity:1" d="M 104.492,410.275 104.492,424.631 z" id="boundary" inkscape:connector-curvature="0" />
	<path style="fill:none;stroke:red;stroke-width:1px;stroke-linecap:butt;stroke-linejoin:miter;stroke-opacity:1" d="M 104.492,410.275 115.977,398.79 z" id="boundary" inkscape:connector-curvature="0" />
	<path style="fill:none;stroke:red;stroke-width:1px;stroke-linecap:butt;stroke-linejoin:miter;stroke-opacity:1" d="M 104.492,438.987 104.492,453.343 z" id="boundary" inkscape:connector-curvature="0" />
	<path style="fill:none;stroke:red;stroke-width:1px;stroke-linecap:butt;stroke-linejoin:miter;stroke-opacity:1" d="M 104.492,438.987 104.492,424.631 z" id="boundary" inkscape:connector-curvature="0" />
	<path style="fill:none;stroke:red;stroke-width:1px;stroke-linecap:butt;stroke-linejoin:miter;stroke-opacity:1" d="M 104.492,467.699 104.492,482.055 z" id="boundary" inkscape:connector-curvature="0" />
	<path style="fill:none;stroke:red;stroke-width:1px;stroke-linecap:butt;stroke-linejoin:miter;stroke-opacity:1" d="M 104.492,496.411 104.492,510.767 z" id="boundary" inkscape:connector-curvature="0" />
	<path style="fill:none;stroke:red;stroke-width:1px;stroke-linecap:butt;stroke-linejoin:miter;stroke-opacity:1" d="M 104.492,525.123 104.492,510.767 z" id="boundary" inkscape:connector-curvature="0" />
	<path style="fill:none;stroke:red;stroke-width:1px;stroke-linecap:butt;stroke-linejoin:miter;stroke-opacity:1" d="M 104.492,496.411 104.492,482.055 z" id="boundary" inkscape:connector-curvature="0" />
	<path style="fill:none;stroke:red;stroke-width:1px;stroke-linecap:butt;stroke-linejoin:miter;stroke-opacity:1" d="M 104.492,467.699 104.492,453.343 z" id="boundary" inkscape:connector-curvature="0" />
	<path style="fill:none;stroke:red;stroke-width:1px;stroke-linecap:butt;stroke-linejoin:miter;stroke-opacity:1" d="M 115.977,398.79 118.848,374.385 z" id="boundary" inkscape:connector-curvature="0" />
	<path style="fill:none;stroke:red;stroke-width:1px;stroke-linecap:butt;stroke-linejoin:miter;stroke-opacity:1" d="M 118.848,374.385 126.026,360.029 z" id="boundary" inkscape:connector-curvature="0" />
	<path style="fill:none;stroke:red;stroke-width:1px;stroke-linecap:butt;stroke-linejoin:miter;stroke-opacity:1" d="M 126.026,345.673 126.026,360.029 z" id="boundary" inkscape:connector-curvature="0" />
	<path style="fill:none;stroke:red;stroke-width:1px;stroke-linecap:butt;stroke-linejoin:miter;stroke-opacity:1" d="M 104.492,539.479 104.492,525.123 z" id="boundary" inkscape:connector-curvature="0" />
	<path style="fill:none;stroke:red;stroke-width:1px;stroke-linecap:butt;stroke-linejoin:miter;stroke-opacity:1" d="M 104.492,553.835 104.492,539.479 z" id="boundary" inkscape:connector-curvature="0" />
	<path style="fill:none;stroke:red;stroke-width:1px;stroke-linecap:butt;stroke-linejoin:miter;stroke-opacity:1" d="M 104.492,553.835 104.492,568.191 z" id="boundary" inkscape:connector-curvature="0" />
	<path style="fill:none;stroke:red;stroke-width:1px;stroke-linecap:butt;stroke-linejoin:miter;stroke-opacity:1" d="M 104.492,582.547 111.67,595.467 z" id="boundary" inkscape:connector-curvature="0" />
	<path style="fill:none;stroke:red;stroke-width:1px;stroke-linecap:butt;stroke-linejoin:miter;stroke-opacity:1" d="M 104.492,582.547 104.492,568.191 z" id="boundary" inkscape:connector-curvature="0" />
	<path style="fill:none;stroke:red;stroke-width:1px;stroke-linecap:butt;stroke-linejoin:miter;stroke-opacity:1" d="M 118.848,608.388 123.155,622.744 z" id="boundary" inkscape:connector-curvature="0" />
	<path style="fill:none;stroke:red;stroke-width:1px;stroke-linecap:butt;stroke-linejoin:miter;stroke-opacity:1" d="M 111.67,595.467 118.848,608.388 z" id="boundary" inkscape:connector-curvature="0" />
	<path style="fill:none;stroke:red;stroke-width:1px;stroke-linecap:butt;stroke-linejoin:miter;stroke-opacity:1" d="M 147.56,675.861 140.382,662.941 z" id="boundary" inkscape:connector-curvature="0" />
	<path style="fill:none;stroke:red;stroke-width:1px;stroke-linecap:butt;stroke-linejoin:miter;stroke-opacity:1" d="M 123.155,622.744 126.026,637.1 z" id="boundary" inkscape:connector-curvature="0" />
	<path style="fill:none;stroke:red;stroke-width:1px;stroke-linecap:butt;stroke-linejoin:miter;stroke-opacity:1" d="M 126.026,637.1 130.333,651.456 z" id="boundary" inkscape:connector-curvature="0" />
	<path style="fill:none;stroke:red;stroke-width:1px;stroke-linecap:butt;stroke-linejoin:miter;stroke-opacity:1" d="M 140.382,662.941 130.333,651.456 z" id="boundary" inkscape:connector-curvature="0" />
	<path style="fill:none;stroke:red;stroke-width:1px;stroke-linecap:butt;stroke-linejoin:miter;stroke-opacity:1" d="M 147.56,675.861 154.738,688.781 z" id="boundary" inkscape:connector-curvature="0" />
	<path style="fill:none;stroke:red;stroke-width:1px;stroke-linecap:butt;stroke-linejoin:miter;stroke-opacity:1" d="M 154.738,688.781 161.916,701.702 z" id="boundary" inkscape:connector-curvature="0" />
	<path style="fill:none;stroke:red;stroke-width:1px;stroke-linecap:butt;stroke-linejoin:miter;stroke-opacity:1" d="M 174.836,708.88 161.916,701.702 z" id="boundary" inkscape:connector-curvature="0" />
	<path style="fill:none;stroke:red;stroke-width:1px;stroke-linecap:butt;stroke-linejoin:miter;stroke-opacity:1" d="M 174.836,708.88 176.272,723.236 z" id="boundary" inkscape:connector-curvature="0" />
	<path style="fill:none;stroke:red;stroke-width:1px;stroke-linecap:butt;stroke-linejoin:miter;stroke-opacity:1" d="M 184.886,734.721 176.272,723.236 z" id="boundary" inkscape:connector-curvature="0" />
	<path style="fill:none;stroke:red;stroke-width:1px;stroke-linecap:butt;stroke-linejoin:miter;stroke-opacity:1" d="M 184.886,734.721 199.242,740.463 z" id="boundary" inkscape:connector-curvature="0" />
	<path style="fill:none;stroke:red;stroke-width:1px;stroke-linecap:butt;stroke-linejoin:miter;stroke-opacity:1" d="M 199.242,740.463 209.291,751.948 z" id="boundary" inkscape:connector-curvature="0" />
	<path style="fill:none;stroke:red;stroke-width:1px;stroke-linecap:butt;stroke-linejoin:miter;stroke-opacity:1" d="M 235.132,766.304 220.776,761.997 z" id="boundary" inkscape:connector-curvature="0" />
	<path style="fill:none;stroke:red;stroke-width:1px;stroke-linecap:butt;stroke-linejoin:miter;stroke-opacity:1" d="M 220.776,761.997 209.291,751.948 z" id="boundary" inkscape:connector-curvature="0" />
	<path style="fill:none;stroke:red;stroke-width:1px;stroke-linecap:butt;stroke-linejoin:miter;stroke-opacity:1" d="M 235.132,357.158 235.132,371.514 z" id="boundary" inkscape:connector-curvature="0" />
	<path style="fill:none;stroke:red;stroke-width:1px;stroke-linecap:butt;stroke-linejoin:miter;stroke-opacity:1" d="M 235.132,385.87 242.31,398.79 z" id="boundary" inkscape:connector-curvature="0" />
	<path style="fill:none;stroke:red;stroke-width:1px;stroke-linecap:butt;stroke-linejoin:miter;stroke-opacity:1" d="M 235.132,385.87 235.132,371.514 z" id="boundary" inkscape:connector-curvature="0" />
	<path style="fill:none;stroke:red;stroke-width:1px;stroke-linecap:butt;stroke-linejoin:miter;stroke-opacity:1" d="M 253.795,407.404 259.537,421.76 z" id="boundary" inkscape:connector-curvature="0" />
	<path style="fill:none;stroke:red;stroke-width:1px;stroke-linecap:butt;stroke-linejoin:miter;stroke-opacity:1" d="M 242.31,398.79 253.795,407.404 z" id="boundary" inkscape:connector-curvature="0" />
	<path style="fill:none;stroke:red;stroke-width:1px;stroke-linecap:butt;stroke-linejoin:miter;stroke-opacity:1" d="M 235.132,766.304 248.052,773.482 z" id="boundary" inkscape:connector-curvature="0" />
	<path style="fill:none;stroke:red;stroke-width:1px;stroke-linecap:butt;stroke-linejoin:miter;stroke-opacity:1" d="M 259.537,421.76 273.893,427.502 z" id="boundary" inkscape:connector-curvature="0" />
	<path style="fill:none;stroke:red;stroke-width:1px;stroke-linecap:butt;stroke-linejoin:miter;stroke-opacity:1" d="M 273.893,427.502 283.942,438.987 z" id="boundary" inkscape:connector-curvature="0" />
	<path style="fill:none;stroke:red;stroke-width:1px;stroke-linecap:butt;stroke-linejoin:miter;stroke-opacity:1" d="M 298.298,441.858 283.942,438.987 z" id="boundary" inkscape:connector-curvature="0" />
	<path style="fill:none;stroke:red;stroke-width:1px;stroke-linecap:butt;stroke-linejoin:miter;stroke-opacity:1" d="M 312.654,441.858 298.298,441.858 z" id="boundary" inkscape:connector-curvature="0" />
	<path style="fill:none;stroke:red;stroke-width:1px;stroke-linecap:butt;stroke-linejoin:miter;stroke-opacity:1" d="M 260.973,780.66 273.893,787.838 z" id="boundary" inkscape:connector-curvature="0" />
	<path style="fill:none;stroke:red;stroke-width:1px;stroke-linecap:butt;stroke-linejoin:miter;stroke-opacity:1" d="M 288.249,787.838 273.893,787.838 z" id="boundary" inkscape:connector-curvature="0" />
	<path style="fill:none;stroke:red;stroke-width:1px;stroke-linecap:butt;stroke-linejoin:miter;stroke-opacity:1" d="M 288.249,787.838 298.298,799.323 z" id="boundary" inkscape:connector-curvature="0" />
	<path style="fill:none;stroke:red;stroke-width:1px;stroke-linecap:butt;stroke-linejoin:miter;stroke-opacity:1" d="M 260.973,780.66 248.052,773.482 z" id="boundary" inkscape:connector-curvature="0" />
	<path style="fill:none;stroke:red;stroke-width:1px;stroke-linecap:butt;stroke-linejoin:miter;stroke-opacity:1" d="M 298.298,799.323 298.298,813.679 z" id="boundary" inkscape:connector-curvature="0" />
	<path style="fill:none;stroke:red;stroke-width:1px;stroke-linecap:butt;stroke-linejoin:miter;stroke-opacity:1" d="M 235.132,357.158 235.132,342.802 z" id="boundary" inkscape:connector-curvature="0" />
	<path style="fill:none;stroke:red;stroke-width:1px;stroke-linecap:butt;stroke-linejoin:miter;stroke-opacity:1" d="M 226.518,977.337 226.518,962.981 z" id="boundary" inkscape:connector-curvature="0" />
	<path style="fill:none;stroke:red;stroke-width:1px;stroke-linecap:butt;stroke-linejoin:miter;stroke-opacity:1" d="M 226.518,962.981 240.874,958.674 z" id="boundary" inkscape:connector-curvature="0" />
	<path style="fill:none;stroke:red;stroke-width:1px;stroke-linecap:butt;stroke-linejoin:miter;stroke-opacity:1" d="M 240.874,958.674 255.23,958.674 z" id="boundary" inkscape:connector-curvature="0" />
	<path style="fill:none;stroke:red;stroke-width:1px;stroke-linecap:butt;stroke-linejoin:miter;stroke-opacity:1" d="M 269.586,958.674 255.23,958.674 z" id="boundary" inkscape:connector-curvature="0" />
	<path style="fill:none;stroke:red;stroke-width:1px;stroke-linecap:butt;stroke-linejoin:miter;stroke-opacity:1" d="M 238.003,987.386 226.518,977.337 z" id="boundary" inkscape:connector-curvature="0" />
	<path style="fill:none;stroke:red;stroke-width:1px;stroke-linecap:butt;stroke-linejoin:miter;stroke-opacity:1" d="M 252.359,981.644 266.715,981.644 z" id="boundary" inkscape:connector-curvature="0" />
	<path style="fill:none;stroke:red;stroke-width:1px;stroke-linecap:butt;stroke-linejoin:miter;stroke-opacity:1" d="M 238.003,987.386 252.359,981.644 z" id="boundary" inkscape:connector-curvature="0" />
	<path style="fill:none;stroke:red;stroke-width:1px;stroke-linecap:butt;stroke-linejoin:miter;stroke-opacity:1" d="M 266.715,981.644 281.071,981.644 z" id="boundary" inkscape:connector-curvature="0" />
	<path style="fill:none;stroke:red;stroke-width:1px;stroke-linecap:butt;stroke-linejoin:miter;stroke-opacity:1" d="M 298.298,842.391 298.298,856.747 z" id="boundary" inkscape:connector-curvature="0" />
	<path style="fill:none;stroke:red;stroke-width:1px;stroke-linecap:butt;stroke-linejoin:miter;stroke-opacity:1" d="M 298.298,828.035 298.298,813.679 z" id="boundary" inkscape:connector-curvature="0" />
	<path style="fill:none;stroke:red;stroke-width:1px;stroke-linecap:butt;stroke-linejoin:miter;stroke-opacity:1" d="M 298.298,842.391 298.298,828.035 z" id="boundary" inkscape:connector-curvature="0" />
	<path style="fill:none;stroke:red;stroke-width:1px;stroke-linecap:butt;stroke-linejoin:miter;stroke-opacity:1" d="M 295.427,981.644 281.071,981.644 z" id="boundary" inkscape:connector-curvature="0" />
	<path style="fill:none;stroke:red;stroke-width:1px;stroke-linecap:butt;stroke-linejoin:miter;stroke-opacity:1" d="M 269.586,958.674 283.942,958.674 z" id="boundary" inkscape:connector-curvature="0" />
	<path style="fill:none;stroke:red;stroke-width:1px;stroke-linecap:butt;stroke-linejoin:miter;stroke-opacity:1" d="M 309.783,980.208 295.427,981.644 z" id="boundary" inkscape:connector-curvature="0" />
	<path style="fill:none;stroke:red;stroke-width:1px;stroke-linecap:butt;stroke-linejoin:miter;stroke-opacity:1" d="M 283.942,958.674 296.863,951.496 z" id="boundary" inkscape:connector-curvature="0" />
	<path style="fill:none;stroke:red;stroke-width:1px;stroke-linecap:butt;stroke-linejoin:miter;stroke-opacity:1" d="M 298.298,856.747 298.298,871.103 z" id="boundary" inkscape:connector-curvature="0" />
	<path style="fill:none;stroke:red;stroke-width:1px;stroke-linecap:butt;stroke-linejoin:miter;stroke-opacity:1" d="M 312.654,441.858 327.01,441.858 z" id="boundary" inkscape:connector-curvature="0" />
	<path style="fill:none;stroke:red;stroke-width:1px;stroke-linecap:butt;stroke-linejoin:miter;stroke-opacity:1" d="M 341.366,441.858 355.722,441.858 z" id="boundary" inkscape:connector-curvature="0" />
	<path style="fill:none;stroke:red;stroke-width:1px;stroke-linecap:butt;stroke-linejoin:miter;stroke-opacity:1" d="M 355.722,441.858 368.643,449.036 z" id="boundary" inkscape:connector-curvature="0" />
	<path style="fill:none;stroke:red;stroke-width:1px;stroke-linecap:butt;stroke-linejoin:miter;stroke-opacity:1" d="M 341.366,441.858 327.01,441.858 z" id="boundary" inkscape:connector-curvature="0" />
	<path style="fill:none;stroke:red;stroke-width:1px;stroke-linecap:butt;stroke-linejoin:miter;stroke-opacity:1" d="M 368.643,449.036 382.999,450.472 z" id="boundary" inkscape:connector-curvature="0" />
	<path style="fill:none;stroke:red;stroke-width:1px;stroke-linecap:butt;stroke-linejoin:miter;stroke-opacity:1" d="M 382.999,450.472 397.355,456.214 z" id="boundary" inkscape:connector-curvature="0" />
	<path style="fill:none;stroke:red;stroke-width:1px;stroke-linecap:butt;stroke-linejoin:miter;stroke-opacity:1" d="M 397.355,456.214 411.711,456.214 z" id="boundary" inkscape:connector-curvature="0" />
	<path style="fill:none;stroke:red;stroke-width:1px;stroke-linecap:butt;stroke-linejoin:miter;stroke-opacity:1" d="M 411.711,456.214 424.631,463.392 z" id="boundary" inkscape:connector-curvature="0" />
	<path style="fill:none;stroke:red;stroke-width:1px;stroke-linecap:butt;stroke-linejoin:miter;stroke-opacity:1" d="M 424.631,463.392 437.551,470.57 z" id="boundary" inkscape:connector-curvature="0" />
	<path style="fill:none;stroke:red;stroke-width:1px;stroke-linecap:butt;stroke-linejoin:miter;stroke-opacity:1" d="M 451.907,470.57 437.551,470.57 z" id="boundary" inkscape:connector-curvature="0" />
	<path style="fill:none;stroke:red;stroke-width:1px;stroke-linecap:butt;stroke-linejoin:miter;stroke-opacity:1" d="M 451.907,470.57 463.392,480.619 z" id="boundary" inkscape:connector-curvature="0" />
	<path style="fill:none;stroke:red;stroke-width:1px;stroke-linecap:butt;stroke-linejoin:miter;stroke-opacity:1" d="M 477.748,484.926 463.392,480.619 z" id="boundary" inkscape:connector-curvature="0" />
	<path style="fill:none;stroke:red;stroke-width:1px;stroke-linecap:butt;stroke-linejoin:miter;stroke-opacity:1" d="M 477.748,484.926 490.669,492.104 z" id="boundary" inkscape:connector-curvature="0" />
	<path style="fill:none;stroke:red;stroke-width:1px;stroke-linecap:butt;stroke-linejoin:miter;stroke-opacity:1" d="M 490.669,492.104 503.589,499.282 z" id="boundary" inkscape:connector-curvature="0" />
	<path style="fill:none;stroke:red;stroke-width:1px;stroke-linecap:butt;stroke-linejoin:miter;stroke-opacity:1" d="M 516.509,506.46 503.589,499.282 z" id="boundary" inkscape:connector-curvature="0" />
	<path style="fill:none;stroke:red;stroke-width:1px;stroke-linecap:butt;stroke-linejoin:miter;stroke-opacity:1" d="M 407.404,787.838 393.048,787.838 z" id="boundary" inkscape:connector-curvature="0" />
	<path style="fill:none;stroke:red;stroke-width:1px;stroke-linecap:butt;stroke-linejoin:miter;stroke-opacity:1" d="M 516.509,506.46 529.43,513.638 z" id="boundary" inkscape:connector-curvature="0" />
	<path style="fill:none;stroke:red;stroke-width:1px;stroke-linecap:butt;stroke-linejoin:miter;stroke-opacity:1" d="M 529.43,513.638 543.786,517.945 z" id="boundary" inkscape:connector-curvature="0" />
	<path style="fill:none;stroke:red;stroke-width:1px;stroke-linecap:butt;stroke-linejoin:miter;stroke-opacity:1" d="M 543.786,517.945 553.835,529.43 z" id="boundary" inkscape:connector-curvature="0" />
	<path style="fill:none;stroke:red;stroke-width:1px;stroke-linecap:butt;stroke-linejoin:miter;stroke-opacity:1" d="M 378.692,795.016 393.048,787.838 z" id="boundary" inkscape:connector-curvature="0" />
	<path style="fill:none;stroke:red;stroke-width:1px;stroke-linecap:butt;stroke-linejoin:miter;stroke-opacity:1" d="M 421.76,790.709 407.404,787.838 z" id="boundary" inkscape:connector-curvature="0" />
	<path style="fill:none;stroke:red;stroke-width:1px;stroke-linecap:butt;stroke-linejoin:miter;stroke-opacity:1" d="M 522.252,787.838 507.896,787.838 z" id="boundary" inkscape:connector-curvature="0" />
	<path style="fill:none;stroke:red;stroke-width:1px;stroke-linecap:butt;stroke-linejoin:miter;stroke-opacity:1" d="M 536.608,780.66 522.252,787.838 z" id="boundary" inkscape:connector-curvature="0" />
	<path style="fill:none;stroke:red;stroke-width:1px;stroke-linecap:butt;stroke-linejoin:miter;stroke-opacity:1" d="M 507.896,802.194 507.896,787.838 z" id="boundary" inkscape:connector-curvature="0" />
	<path style="fill:none;stroke:red;stroke-width:1px;stroke-linecap:butt;stroke-linejoin:miter;stroke-opacity:1" d="M 536.608,780.66 550.964,780.66 z" id="boundary" inkscape:connector-curvature="0" />
	<path style="fill:none;stroke:red;stroke-width:1px;stroke-linecap:butt;stroke-linejoin:miter;stroke-opacity:1" d="M 553.835,529.43 568.191,535.172 z" id="boundary" inkscape:connector-curvature="0" />
	<path style="fill:none;stroke:red;stroke-width:1px;stroke-linecap:butt;stroke-linejoin:miter;stroke-opacity:1" d="M 568.191,535.172 578.24,546.657 z" id="boundary" inkscape:connector-curvature="0" />
	<path style="fill:none;stroke:red;stroke-width:1px;stroke-linecap:butt;stroke-linejoin:miter;stroke-opacity:1" d="M 578.24,546.657 589.725,556.706 z" id="boundary" inkscape:connector-curvature="0" />
	<path style="fill:none;stroke:red;stroke-width:1px;stroke-linecap:butt;stroke-linejoin:miter;stroke-opacity:1" d="M 602.645,563.884 589.725,556.706 z" id="boundary" inkscape:connector-curvature="0" />
	<path style="fill:none;stroke:red;stroke-width:1px;stroke-linecap:butt;stroke-linejoin:miter;stroke-opacity:1" d="M 550.964,780.66 563.884,773.482 z" id="boundary" inkscape:connector-curvature="0" />
	<path style="fill:none;stroke:red;stroke-width:1px;stroke-linecap:butt;stroke-linejoin:miter;stroke-opacity:1" d="M 563.884,773.482 578.24,773.482 z" id="boundary" inkscape:connector-curvature="0" />
	<path style="fill:none;stroke:red;stroke-width:1px;stroke-linecap:butt;stroke-linejoin:miter;stroke-opacity:1" d="M 592.596,773.482 578.24,773.482 z" id="boundary" inkscape:connector-curvature="0" />
	<path style="fill:none;stroke:red;stroke-width:1px;stroke-linecap:butt;stroke-linejoin:miter;stroke-opacity:1" d="M 602.645,563.884 615.566,571.062 z" id="boundary" inkscape:connector-curvature="0" />
	<path style="fill:none;stroke:red;stroke-width:1px;stroke-linecap:butt;stroke-linejoin:miter;stroke-opacity:1" d="M 627.051,579.676 634.229,592.596 z" id="boundary" inkscape:connector-curvature="0" />
	<path style="fill:none;stroke:red;stroke-width:1px;stroke-linecap:butt;stroke-linejoin:miter;stroke-opacity:1" d="M 615.566,571.062 627.051,579.676 z" id="boundary" inkscape:connector-curvature="0" />
	<path style="fill:none;stroke:red;stroke-width:1px;stroke-linecap:butt;stroke-linejoin:miter;stroke-opacity:1" d="M 647.149,599.774 634.229,592.596 z" id="boundary" inkscape:connector-curvature="0" />
	<path style="fill:none;stroke:red;stroke-width:1px;stroke-linecap:butt;stroke-linejoin:miter;stroke-opacity:1" d="M 647.149,599.774 660.069,606.952 z" id="boundary" inkscape:connector-curvature="0" />
	<path style="fill:none;stroke:red;stroke-width:1px;stroke-linecap:butt;stroke-linejoin:miter;stroke-opacity:1" d="M 660.069,606.952 671.554,617.001 z" id="boundary" inkscape:connector-curvature="0" />
	<path style="fill:none;stroke:red;stroke-width:1px;stroke-linecap:butt;stroke-linejoin:miter;stroke-opacity:1" d="M 671.554,617.001 680.168,628.486 z" id="boundary" inkscape:connector-curvature="0" />
	<path style="fill:none;stroke:red;stroke-width:1px;stroke-linecap:butt;stroke-linejoin:miter;stroke-opacity:1" d="M 691.653,637.1 680.168,628.486 z" id="boundary" inkscape:connector-curvature="0" />
	<path style="fill:none;stroke:red;stroke-width:1px;stroke-linecap:butt;stroke-linejoin:miter;stroke-opacity:1" d="M 606.952,773.482 592.596,773.482 z" id="boundary" inkscape:connector-curvature="0" />
	<path style="fill:none;stroke:red;stroke-width:1px;stroke-linecap:butt;stroke-linejoin:miter;stroke-opacity:1" d="M 691.653,637.1 701.702,648.585 z" id="boundary" inkscape:connector-curvature="0" />
	<path style="fill:none;stroke:red;stroke-width:1px;stroke-linecap:butt;stroke-linejoin:miter;stroke-opacity:1" d="M 713.187,658.634 701.702,648.585 z" id="boundary" inkscape:connector-curvature="0" />
	<path style="fill:none;stroke:red;stroke-width:1px;stroke-linecap:butt;stroke-linejoin:miter;stroke-opacity:1" d="M 723.236,670.119 713.187,658.634 z" id="boundary" inkscape:connector-curvature="0" />
	<path style="fill:none;stroke:red;stroke-width:1px;stroke-linecap:butt;stroke-linejoin:miter;stroke-opacity:1" d="M 734.721,680.168 723.236,670.119 z" id="boundary" inkscape:connector-curvature="0" />
	<path style="fill:none;stroke:red;stroke-width:1px;stroke-linecap:butt;stroke-linejoin:miter;stroke-opacity:1" d="M 734.721,680.168 741.899,693.088 z" id="boundary" inkscape:connector-curvature="0" />
	<path style="fill:none;stroke:red;stroke-width:1px;stroke-linecap:butt;stroke-linejoin:miter;stroke-opacity:1" d="M 751.948,704.573 741.899,693.088 z" id="boundary" inkscape:connector-curvature="0" />
	<path style="fill:none;stroke:red;stroke-width:1px;stroke-linecap:butt;stroke-linejoin:miter;stroke-opacity:1" d="M 761.997,716.058 751.948,704.573 z" id="boundary" inkscape:connector-curvature="0" />
	<path style="fill:none;stroke:red;stroke-width:1px;stroke-linecap:butt;stroke-linejoin:miter;stroke-opacity:1" d="M 621.308,773.482 606.952,773.482 z" id="boundary" inkscape:connector-curvature="0" />
	<path style="fill:none;stroke:red;stroke-width:1px;stroke-linecap:butt;stroke-linejoin:miter;stroke-opacity:1" d="M 621.308,773.482 635.664,773.482 z" id="boundary" inkscape:connector-curvature="0" />
	<path style="fill:none;stroke:red;stroke-width:1px;stroke-linecap:butt;stroke-linejoin:miter;stroke-opacity:1" d="M 650.02,773.482 635.664,773.482 z" id="boundary" inkscape:connector-curvature="0" />
	<path style="fill:none;stroke:red;stroke-width:1px;stroke-linecap:butt;stroke-linejoin:miter;stroke-opacity:1" d="M 650.02,773.482 664.376,773.482 z" id="boundary" inkscape:connector-curvature="0" />
	<path style="fill:none;stroke:red;stroke-width:1px;stroke-linecap:butt;stroke-linejoin:miter;stroke-opacity:1" d="M 678.732,773.482 664.376,773.482 z" id="boundary" inkscape:connector-curvature="0" />
	<path style="fill:none;stroke:red;stroke-width:1px;stroke-linecap:butt;stroke-linejoin:miter;stroke-opacity:1" d="M 678.732,773.482 693.088,773.482 z" id="boundary" inkscape:connector-curvature="0" />
	<path style="fill:none;stroke:red;stroke-width:1px;stroke-linecap:butt;stroke-linejoin:miter;stroke-opacity:1" d="M 707.444,773.482 693.088,773.482 z" id="boundary" inkscape:connector-curvature="0" />
	<path style="fill:none;stroke:red;stroke-width:1px;stroke-linecap:butt;stroke-linejoin:miter;stroke-opacity:1" d="M 787.838,750.512 779.224,769.175 z" id="boundary" inkscape:connector-curvature="0" />
	<path style="fill:none;stroke:red;stroke-width:1px;stroke-linecap:butt;stroke-linejoin:miter;stroke-opacity:1" d="M 779.224,769.175 764.868,773.482 z" id="boundary" inkscape:connector-curvature="0" />
	<path style="fill:none;stroke:red;stroke-width:1px;stroke-linecap:butt;stroke-linejoin:miter;stroke-opacity:1" d="M 782.096,736.156 787.838,750.512 z" id="boundary" inkscape:connector-curvature="0" />
	<path style="fill:none;stroke:red;stroke-width:1px;stroke-linecap:butt;stroke-linejoin:miter;stroke-opacity:1" d="M 769.175,728.978 782.096,736.156 z" id="boundary" inkscape:connector-curvature="0" />
	<path style="fill:none;stroke:red;stroke-width:1px;stroke-linecap:butt;stroke-linejoin:miter;stroke-opacity:1" d="M 769.175,728.978 761.997,716.058 z" id="boundary" inkscape:connector-curvature="0" />
	<path style="fill:none;stroke:red;stroke-width:1px;stroke-linecap:butt;stroke-linejoin:miter;stroke-opacity:1" d="M 707.444,773.482 721.8,773.482 z" id="boundary" inkscape:connector-curvature="0" />
	<path style="fill:none;stroke:red;stroke-width:1px;stroke-linecap:butt;stroke-linejoin:miter;stroke-opacity:1" d="M 736.156,773.482 721.8,773.482 z" id="boundary" inkscape:connector-curvature="0" />
	<path style="fill:none;stroke:red;stroke-width:1px;stroke-linecap:butt;stroke-linejoin:miter;stroke-opacity:1" d="M 736.156,773.482 750.512,773.482 z" id="boundary" inkscape:connector-curvature="0" />
	<path style="fill:none;stroke:red;stroke-width:1px;stroke-linecap:butt;stroke-linejoin:miter;stroke-opacity:1" d="M 764.868,773.482 750.512,773.482 z" id="boundary" inkscape:connector-curvature="0" />
	<path style="fill:none;stroke:red;stroke-width:1px;stroke-linecap:butt;stroke-linejoin:miter;stroke-opacity:1" d="M 321.268,830.906 321.268,845.262 z" id="boundary" inkscape:connector-curvature="0" />
	<path style="fill:none;stroke:red;stroke-width:1px;stroke-linecap:butt;stroke-linejoin:miter;stroke-opacity:1" d="M 324.139,859.618 321.268,845.262 z" id="boundary" inkscape:connector-curvature="0" />
	<path style="fill:none;stroke:red;stroke-width:1px;stroke-linecap:butt;stroke-linejoin:miter;stroke-opacity:1" d="M 321.268,830.906 321.268,816.55 z" id="boundary" inkscape:connector-curvature="0" />
	<path style="fill:none;stroke:red;stroke-width:1px;stroke-linecap:butt;stroke-linejoin:miter;stroke-opacity:1" d="M 321.268,816.55 335.624,802.194 z" id="boundary" inkscape:connector-curvature="0" />
	<path style="fill:none;stroke:red;stroke-width:1px;stroke-linecap:butt;stroke-linejoin:miter;stroke-opacity:1" d="M 298.298,871.103 305.476,884.023 z" id="boundary" inkscape:connector-curvature="0" />
	<path style="fill:none;stroke:red;stroke-width:1px;stroke-linecap:butt;stroke-linejoin:miter;stroke-opacity:1" d="M 305.476,884.023 305.476,898.379 z" id="boundary" inkscape:connector-curvature="0" />
	<path style="fill:none;stroke:red;stroke-width:1px;stroke-linecap:butt;stroke-linejoin:miter;stroke-opacity:1" d="M 312.654,911.3 316.961,937.14 z" id="boundary" inkscape:connector-curvature="0" />
	<path style="fill:none;stroke:red;stroke-width:1px;stroke-linecap:butt;stroke-linejoin:miter;stroke-opacity:1" d="M 312.654,911.3 305.476,898.379 z" id="boundary" inkscape:connector-curvature="0" />
	<path style="fill:none;stroke:red;stroke-width:1px;stroke-linecap:butt;stroke-linejoin:miter;stroke-opacity:1" d="M 324.139,859.618 328.446,873.974 z" id="boundary" inkscape:connector-curvature="0" />
	<path style="fill:none;stroke:red;stroke-width:1px;stroke-linecap:butt;stroke-linejoin:miter;stroke-opacity:1" d="M 349.98,795.016 364.336,795.016 z" id="boundary" inkscape:connector-curvature="0" />
	<path style="fill:none;stroke:red;stroke-width:1px;stroke-linecap:butt;stroke-linejoin:miter;stroke-opacity:1" d="M 335.624,802.194 349.98,795.016 z" id="boundary" inkscape:connector-curvature="0" />
	<path style="fill:none;stroke:red;stroke-width:1px;stroke-linecap:butt;stroke-linejoin:miter;stroke-opacity:1" d="M 421.76,790.709 436.116,795.016 z" id="boundary" inkscape:connector-curvature="0" />
	<path style="fill:none;stroke:red;stroke-width:1px;stroke-linecap:butt;stroke-linejoin:miter;stroke-opacity:1" d="M 378.692,795.016 364.336,795.016 z" id="boundary" inkscape:connector-curvature="0" />
	<path style="fill:none;stroke:red;stroke-width:1px;stroke-linecap:butt;stroke-linejoin:miter;stroke-opacity:1" d="M 328.446,873.974 331.317,888.33 z" id="boundary" inkscape:connector-curvature="0" />
	<path style="fill:none;stroke:red;stroke-width:1px;stroke-linecap:butt;stroke-linejoin:miter;stroke-opacity:1" d="M 335.624,902.686 331.317,888.33 z" id="boundary" inkscape:connector-curvature="0" />
	<path style="fill:none;stroke:red;stroke-width:1px;stroke-linecap:butt;stroke-linejoin:miter;stroke-opacity:1" d="M 342.802,915.606 335.624,902.686 z" id="boundary" inkscape:connector-curvature="0" />
	<path style="fill:none;stroke:red;stroke-width:1px;stroke-linecap:butt;stroke-linejoin:miter;stroke-opacity:1" d="M 335.624,902.686 312.654,911.3 z" id="boundary" inkscape:connector-curvature="0" />
	<path style="fill:none;stroke:red;stroke-width:1px;stroke-linecap:butt;stroke-linejoin:miter;stroke-opacity:1" d="M 321.268,967.288 311.219,951.496 z" id="boundary" inkscape:connector-curvature="0" />
	<path style="fill:none;stroke:red;stroke-width:1px;stroke-linecap:butt;stroke-linejoin:miter;stroke-opacity:1" d="M 311.219,951.496 316.961,937.14 z" id="boundary" inkscape:connector-curvature="0" />
	<path style="fill:none;stroke:red;stroke-width:1px;stroke-linecap:butt;stroke-linejoin:miter;stroke-opacity:1" d="M 311.219,951.496 296.863,951.496 z" id="boundary" inkscape:connector-curvature="0" />
	<path style="fill:none;stroke:red;stroke-width:1px;stroke-linecap:butt;stroke-linejoin:miter;stroke-opacity:1" d="M 342.802,915.606 342.802,929.962 z" id="boundary" inkscape:connector-curvature="0" />
	<path style="fill:none;stroke:red;stroke-width:1px;stroke-linecap:butt;stroke-linejoin:miter;stroke-opacity:1" d="M 342.802,929.962 316.961,937.14 z" id="boundary" inkscape:connector-curvature="0" />
	<path style="fill:none;stroke:red;stroke-width:1px;stroke-linecap:butt;stroke-linejoin:miter;stroke-opacity:1" d="M 342.802,929.962 349.98,942.883 z" id="boundary" inkscape:connector-curvature="0" />
	<path style="fill:none;stroke:red;stroke-width:1px;stroke-linecap:butt;stroke-linejoin:miter;stroke-opacity:1" d="M 309.783,980.208 321.268,967.288 z" id="boundary" inkscape:connector-curvature="0" />
	<path style="fill:none;stroke:red;stroke-width:1px;stroke-linecap:butt;stroke-linejoin:miter;stroke-opacity:1" d="M 321.268,967.288 334.188,974.466 z" id="boundary" inkscape:connector-curvature="0" />
	<path style="fill:none;stroke:red;stroke-width:1px;stroke-linecap:butt;stroke-linejoin:miter;stroke-opacity:1" d="M 334.188,974.466 348.544,970.159 z" id="boundary" inkscape:connector-curvature="0" />
	<path style="fill:none;stroke:red;stroke-width:1px;stroke-linecap:butt;stroke-linejoin:miter;stroke-opacity:1" d="M 349.98,942.883 348.544,970.159 z" id="boundary" inkscape:connector-curvature="0" />
	<path style="fill:none;stroke:red;stroke-width:1px;stroke-linecap:butt;stroke-linejoin:miter;stroke-opacity:1" d="M 398.79,962.981 398.79,977.337 z" id="boundary" inkscape:connector-curvature="0" />
	<path style="fill:none;stroke:red;stroke-width:1px;stroke-linecap:butt;stroke-linejoin:miter;stroke-opacity:1" d="M 398.79,962.981 413.146,958.674 z" id="boundary" inkscape:connector-curvature="0" />
	<path style="fill:none;stroke:red;stroke-width:1px;stroke-linecap:butt;stroke-linejoin:miter;stroke-opacity:1" d="M 413.146,958.674 427.502,958.674 z" id="boundary" inkscape:connector-curvature="0" />
	<path style="fill:none;stroke:red;stroke-width:1px;stroke-linecap:butt;stroke-linejoin:miter;stroke-opacity:1" d="M 398.79,977.337 410.275,987.386 z" id="boundary" inkscape:connector-curvature="0" />
	<path style="fill:none;stroke:red;stroke-width:1px;stroke-linecap:butt;stroke-linejoin:miter;stroke-opacity:1" d="M 421.76,996 410.275,987.386 z" id="boundary" inkscape:connector-curvature="0" />
	<path style="fill:none;stroke:red;stroke-width:1px;stroke-linecap:butt;stroke-linejoin:miter;stroke-opacity:1" d="M 436.116,996 421.76,996 z" id="boundary" inkscape:connector-curvature="0" />
	<path style="fill:none;stroke:red;stroke-width:1px;stroke-linecap:butt;stroke-linejoin:miter;stroke-opacity:1" d="M 449.036,988.822 436.116,996 z" id="boundary" inkscape:connector-curvature="0" />
	<path style="fill:none;stroke:red;stroke-width:1px;stroke-linecap:butt;stroke-linejoin:miter;stroke-opacity:1" d="M 450.472,795.016 464.828,797.887 z" id="boundary" inkscape:connector-curvature="0" />
	<path style="fill:none;stroke:red;stroke-width:1px;stroke-linecap:butt;stroke-linejoin:miter;stroke-opacity:1" d="M 464.828,797.887 470.57,812.243 z" id="boundary" inkscape:connector-curvature="0" />
	<path style="fill:none;stroke:red;stroke-width:1px;stroke-linecap:butt;stroke-linejoin:miter;stroke-opacity:1" d="M 477.748,825.164 470.57,812.243 z" id="boundary" inkscape:connector-curvature="0" />
	<path style="fill:none;stroke:red;stroke-width:1px;stroke-linecap:butt;stroke-linejoin:miter;stroke-opacity:1" d="M 477.748,825.164 477.748,839.52 z" id="boundary" inkscape:connector-curvature="0" />
	<path style="fill:none;stroke:red;stroke-width:1px;stroke-linecap:butt;stroke-linejoin:miter;stroke-opacity:1" d="M 477.748,839.52 484.926,852.44 z" id="boundary" inkscape:connector-curvature="0" />
	<path style="fill:none;stroke:red;stroke-width:1px;stroke-linecap:butt;stroke-linejoin:miter;stroke-opacity:1" d="M 484.926,852.44 484.926,866.796 z" id="boundary" inkscape:connector-curvature="0" />
	<path style="fill:none;stroke:red;stroke-width:1px;stroke-linecap:butt;stroke-linejoin:miter;stroke-opacity:1" d="M 484.926,866.796 484.926,881.152 z" id="boundary" inkscape:connector-curvature="0" />
	<path style="fill:none;stroke:red;stroke-width:1px;stroke-linecap:butt;stroke-linejoin:miter;stroke-opacity:1" d="M 484.926,881.152 484.926,895.508 z" id="boundary" inkscape:connector-curvature="0" />
	<path style="fill:none;stroke:red;stroke-width:1px;stroke-linecap:butt;stroke-linejoin:miter;stroke-opacity:1" d="M 500.718,838.084 507.896,851.004 z" id="boundary" inkscape:connector-curvature="0" />
	<path style="fill:none;stroke:red;stroke-width:1px;stroke-linecap:butt;stroke-linejoin:miter;stroke-opacity:1" d="M 500.718,838.084 500.718,823.728 z" id="boundary" inkscape:connector-curvature="0" />
	<path style="fill:none;stroke:red;stroke-width:1px;stroke-linecap:butt;stroke-linejoin:miter;stroke-opacity:1" d="M 500.718,823.728 507.896,802.194 z" id="boundary" inkscape:connector-curvature="0" />
	<path style="fill:none;stroke:red;stroke-width:1px;stroke-linecap:butt;stroke-linejoin:miter;stroke-opacity:1" d="M 507.896,851.004 515.074,863.925 z" id="boundary" inkscape:connector-curvature="0" />
	<path style="fill:none;stroke:red;stroke-width:1px;stroke-linecap:butt;stroke-linejoin:miter;stroke-opacity:1" d="M 515.074,878.281 515.074,892.637 z" id="boundary" inkscape:connector-curvature="0" />
	<path style="fill:none;stroke:red;stroke-width:1px;stroke-linecap:butt;stroke-linejoin:miter;stroke-opacity:1" d="M 515.074,863.925 515.074,878.281 z" id="boundary" inkscape:connector-curvature="0" />
	<path style="fill:none;stroke:red;stroke-width:1px;stroke-linecap:butt;stroke-linejoin:miter;stroke-opacity:1" d="M 515.074,892.637 515.074,906.993 z" id="boundary" inkscape:connector-curvature="0" />
	<path style="fill:none;stroke:red;stroke-width:1px;stroke-linecap:butt;stroke-linejoin:miter;stroke-opacity:1" d="M 454.779,951.496 469.135,951.496 z" id="boundary" inkscape:connector-curvature="0" />
	<path style="fill:none;stroke:red;stroke-width:1px;stroke-linecap:butt;stroke-linejoin:miter;stroke-opacity:1" d="M 484.926,909.864 484.926,924.22 z" id="boundary" inkscape:connector-curvature="0" />
	<path style="fill:none;stroke:red;stroke-width:1px;stroke-linecap:butt;stroke-linejoin:miter;stroke-opacity:1" d="M 484.926,924.22 482.055,944.318 z" id="boundary" inkscape:connector-curvature="0" />
	<path style="fill:none;stroke:red;stroke-width:1px;stroke-linecap:butt;stroke-linejoin:miter;stroke-opacity:1" d="M 482.055,944.318 469.135,951.496 z" id="boundary" inkscape:connector-curvature="0" />
	<path style="fill:none;stroke:red;stroke-width:1px;stroke-linecap:butt;stroke-linejoin:miter;stroke-opacity:1" d="M 454.779,951.496 441.858,958.674 z" id="boundary" inkscape:connector-curvature="0" />
	<path style="fill:none;stroke:red;stroke-width:1px;stroke-linecap:butt;stroke-linejoin:miter;stroke-opacity:1" d="M 441.858,958.674 427.502,958.674 z" id="boundary" inkscape:connector-curvature="0" />
	<path style="fill:none;stroke:red;stroke-width:1px;stroke-linecap:butt;stroke-linejoin:miter;stroke-opacity:1" d="M 492.104,988.822 477.748,988.822 z" id="boundary" inkscape:connector-curvature="0" />
	<path style="fill:none;stroke:red;stroke-width:1px;stroke-linecap:butt;stroke-linejoin:miter;stroke-opacity:1" d="M 441.858,958.674 449.036,988.822 z" id="boundary" inkscape:connector-curvature="0" />
	<path style="fill:none;stroke:red;stroke-width:1px;stroke-linecap:butt;stroke-linejoin:miter;stroke-opacity:1" d="M 463.392,988.822 449.036,988.822 z" id="boundary" inkscape:connector-curvature="0" />
	<path style="fill:none;stroke:red;stroke-width:1px;stroke-linecap:butt;stroke-linejoin:miter;stroke-opacity:1" d="M 463.392,988.822 477.748,988.822 z" id="boundary" inkscape:connector-curvature="0" />
	<path style="fill:none;stroke:red;stroke-width:1px;stroke-linecap:butt;stroke-linejoin:miter;stroke-opacity:1" d="M 484.926,895.508 484.926,909.864 z" id="boundary" inkscape:connector-curvature="0" />
	<path style="fill:none;stroke:red;stroke-width:1px;stroke-linecap:butt;stroke-linejoin:miter;stroke-opacity:1" d="M 515.074,906.993 515.074,921.349 z" id="boundary" inkscape:connector-curvature="0" />
	<path style="fill:none;stroke:red;stroke-width:1px;stroke-linecap:butt;stroke-linejoin:miter;stroke-opacity:1" d="M 515.074,921.349 515.074,935.705 z" id="boundary" inkscape:connector-curvature="0" />
	<path style="fill:none;stroke:red;stroke-width:1px;stroke-linecap:butt;stroke-linejoin:miter;stroke-opacity:1" d="M 515.074,935.705 515.074,950.061 z" id="boundary" inkscape:connector-curvature="0" />
	<path style="fill:none;stroke:red;stroke-width:1px;stroke-linecap:butt;stroke-linejoin:miter;stroke-opacity:1" d="M 492.104,988.822 506.46,988.822 z" id="boundary" inkscape:connector-curvature="0" />
	<path style="fill:none;stroke:red;stroke-width:1px;stroke-linecap:butt;stroke-linejoin:miter;stroke-opacity:1" d="M 515.074,974.466 506.46,988.822 z" id="boundary" inkscape:connector-curvature="0" />
	<path style="fill:none;stroke:red;stroke-width:1px;stroke-linecap:butt;stroke-linejoin:miter;stroke-opacity:1" d="M 515.074,974.466 515.074,950.061 z" id="boundary" inkscape:connector-curvature="0" />
	<path style="fill:none;stroke:red;stroke-width:1px;stroke-linecap:butt;stroke-linejoin:miter;stroke-opacity:1" d="M 436.116,795.016 450.472,795.016 z" id="boundary" inkscape:connector-curvature="0" />
	<circle cx="4" cy="94.4428" r="4" fill="#0" id="circle0"/>
	<circle cx="11.178" cy="107.363" r="4" fill="#0" id="circle1"/>
	<circle cx="18.356" cy="90.136" r="4" fill="#0" id="circle2"/>
	<circle cx="25.534" cy="113.106" r="4" fill="#0" id="circle3"/>
	<circle cx="31.2764" cy="82.958" r="4" fill="#0" id="circle4"/>
	<circle cx="39.89" cy="65.7308" r="4" fill="#0" id="circle5"/>
	<circle cx="39.89" cy="113.106" r="4" fill="#0" id="circle6"/>
	<circle cx="54.246" cy="61.424" r="4" fill="#0" id="circle7"/>
	<circle cx="54.246" cy="113.106" r="4" fill="#0" id="circle8"/>
	<circle cx="68.602" cy="51.3748" r="4" fill="#0" id="circle9"/>
	<circle cx="68.602" cy="113.106" r="4" fill="#0" id="circle10"/>
	<circle cx="75.78" cy="37.0188" r="4" fill="#0" id="circle11"/>
	<circle cx="82.958" cy="113.106" r="4" fill="#0" id="circle12"/>
	<circle cx="90.136" cy="22.6628" r="4" fill="#0" id="circle13"/>
	<circle cx="97.314" cy="113.106" r="4" fill="#0" id="circle14"/>
	<circle cx="101.621" cy="11.178" r="4" fill="#0" id="circle15"/>
	<circle cx="104.492" cy="410.275" r="4" fill="#0" id="circle16"/>
	<circle cx="104.492" cy="424.631" r="4" fill="#0" id="circle17"/>
	<circle cx="104.492" cy="438.987" r="4" fill="#0" id="circle18"/>
	<circle cx="104.492" cy="453.343" r="4" fill="#0" id="circle19"/>
	<circle cx="104.492" cy="467.699" r="4" fill="#0" id="circle20"/>
	<circle cx="104.492" cy="482.055" r="4" fill="#0" id="circle21"/>
	<circle cx="104.492" cy="496.411" r="4" fill="#0" id="circle22"/>
	<circle cx="104.492" cy="510.767" r="4" fill="#0" id="circle23"/>
	<circle cx="104.492" cy="525.123" r="4" fill="#0" id="circle24"/>
	<circle cx="104.492" cy="539.479" r="4" fill="#0" id="circle25"/>
	<circle cx="104.492" cy="553.835" r="4" fill="#0" id="circle26"/>
	<circle cx="104.492" cy="568.191" r="4" fill="#0" id="circle27"/>
	<circle cx="104.492" cy="582.547" r="4" fill="#0" id="circle28"/>
	<circle cx="111.67" cy="113.106" r="4" fill="#0" id="circle29"/>
	<circle cx="111.67" cy="595.467" r="4" fill="#0" id="circle30"/>
	<circle cx="114.541" cy="4" r="4" fill="#0" id="circle31"/>
	<circle cx="115.977" cy="398.79" r="4" fill="#0" id="circle32"/>
	<circle cx="118.848" cy="374.385" r="4" fill="#0" id="circle33"/>
	<circle cx="118.848" cy="608.388" r="4" fill="#0" id="circle34"/>
	<circle cx="123.155" cy="622.744" r="4" fill="#0" id="circle35"/>
	<circle cx="124.59" cy="120.284" r="4" fill="#0" id="circle36"/>
	<circle cx="126.026" cy="345.673" r="4" fill="#0" id="circle37"/>
	<circle cx="126.026" cy="360.029" r="4" fill="#0" id="circle38"/>
	<circle cx="126.026" cy="637.1" r="4" fill="#0" id="circle39"/>
	<circle cx="128.897" cy="4" r="4" fill="#0" id="circle40"/>
	<circle cx="130.333" cy="651.456" r="4" fill="#0" id="circle41"/>
	<circle cx="133.204" cy="324.139" r="4" fill="#0" id="circle42"/>
	<circle cx="138.946" cy="120.284" r="4" fill="#0" id="circle43"/>
	<circle cx="140.382" cy="309.783" r="4" fill="#0" id="circle44"/>
	<circle cx="140.382" cy="662.941" r="4" fill="#0" id="circle45"/>
	<circle cx="143.253" cy="4" r="4" fill="#0" id="circle46"/>
	<circle cx="147.56" cy="281.071" r="4" fill="#0" id="circle47"/>
	<circle cx="147.56" cy="295.427" r="4" fill="#0" id="circle48"/>
	<circle cx="147.56" cy="675.861" r="4" fill="#0" id="circle49"/>
	<circle cx="153.302" cy="120.284" r="4" fill="#0" id="circle50"/>
	<circle cx="154.738" cy="252.359" r="4" fill="#0" id="circle51"/>
	<circle cx="154.738" cy="266.715" r="4" fill="#0" id="circle52"/>
	<circle cx="154.738" cy="688.781" r="4" fill="#0" id="circle53"/>
	<circle cx="157.609" cy="4" r="4" fill="#0" id="circle54"/>
	<circle cx="161.916" cy="230.825" r="4" fill="#0" id="circle55"/>
	<circle cx="161.916" cy="701.702" r="4" fill="#0" id="circle56"/>
	<circle cx="166.223" cy="127.462" r="4" fill="#0" id="circle57"/>
	<circle cx="169.094" cy="141.818" r="4" fill="#0" id="circle58"/>
	<circle cx="169.094" cy="156.174" r="4" fill="#0" id="circle59"/>
	<circle cx="169.094" cy="170.53" r="4" fill="#0" id="circle60"/>
	<circle cx="169.094" cy="184.886" r="4" fill="#0" id="circle61"/>
	<circle cx="169.094" cy="199.242" r="4" fill="#0" id="circle62"/>
	<circle cx="169.094" cy="213.598" r="4" fill="#0" id="circle63"/>
	<circle cx="171.965" cy="4" r="4" fill="#0" id="circle64"/>
	<circle cx="174.836" cy="708.88" r="4" fill="#0" id="circle65"/>
	<circle cx="176.272" cy="723.236" r="4" fill="#0" id="circle66"/>
	<circle cx="177.708" cy="18.356" r="4" fill="#0" id="circle67"/>
	<circle cx="184.886" cy="734.721" r="4" fill="#0" id="circle68"/>
	<circle cx="192.064" cy="22.6628" r="4" fill="#0" id="circle69"/>
	<circle cx="199.242" cy="740.463" r="4" fill="#0" id="circle70"/>
	<circle cx="204.984" cy="29.8408" r="4" fill="#0" id="circle71"/>
	<circle cx="209.291" cy="751.948" r="4" fill="#0" id="circle72"/>
	<circle cx="213.598" cy="41.3256" r="4" fill="#0" id="circle73"/>
	<circle cx="220.776" cy="54.246" r="4" fill="#0" id="circle74"/>
	<circle cx="220.776" cy="761.997" r="4" fill="#0" id="circle75"/>
	<circle cx="226.518" cy="962.981" r="4" fill="#0" id="circle76"/>
	<circle cx="226.518" cy="977.337" r="4" fill="#0" id="circle77"/>
	<circle cx="227.954" cy="67.1664" r="4" fill="#0" id="circle78"/>
	<circle cx="235.132" cy="80.0868" r="4" fill="#0" id="circle79"/>
	<circle cx="235.132" cy="94.4428" r="4" fill="#0" id="circle80"/>
	<circle cx="235.132" cy="108.799" r="4" fill="#0" id="circle81"/>
	<circle cx="235.132" cy="242.31" r="4" fill="#0" id="circle82"/>
	<circle cx="235.132" cy="256.666" r="4" fill="#0" id="circle83"/>
	<circle cx="235.132" cy="271.022" r="4" fill="#0" id="circle84"/>
	<circle cx="235.132" cy="285.378" r="4" fill="#0" id="circle85"/>
	<circle cx="235.132" cy="299.734" r="4" fill="#0" id="circle86"/>
	<circle cx="235.132" cy="314.09" r="4" fill="#0" id="circle87"/>
	<circle cx="235.132" cy="328.446" r="4" fill="#0" id="circle88"/>
	<circle cx="235.132" cy="342.802" r="4" fill="#0" id="circle89"/>
	<circle cx="235.132" cy="357.158" r="4" fill="#0" id="circle90"/>
	<circle cx="235.132" cy="371.514" r="4" fill="#0" id="circle91"/>
	<circle cx="235.132" cy="385.87" r="4" fill="#0" id="circle92"/>
	<circle cx="235.132" cy="766.304" r="4" fill="#0" id="circle93"/>
	<circle cx="238.003" cy="987.386" r="4" fill="#0" id="circle94"/>
	<circle cx="240.874" cy="123.155" r="4" fill="#0" id="circle95"/>
	<circle cx="240.874" cy="958.674" r="4" fill="#0" id="circle96"/>
	<circle cx="242.31" cy="137.511" r="4" fill="#0" id="circle97"/>
	<circle cx="242.31" cy="151.867" r="4" fill="#0" id="circle98"/>
	<circle cx="242.31" cy="166.223" r="4" fill="#0" id="circle99"/>
	<circle cx="242.31" cy="180.579" r="4" fill="#0" id="circle100"/>
	<circle cx="242.31" cy="194.935" r="4" fill="#0" id="circle101"/>
	<circle cx="242.31" cy="209.291" r="4" fill="#0" id="circle102"/>
	<circle cx="242.31" cy="223.647" r="4" fill="#0" id="circle103"/>
	<circle cx="242.31" cy="398.79" r="4" fill="#0" id="circle104"/>
	<circle cx="248.052" cy="773.482" r="4" fill="#0" id="circle105"/>
	<circle cx="252.359" cy="981.644" r="4" fill="#0" id="circle106"/>
	<circle cx="253.795" cy="407.404" r="4" fill="#0" id="circle107"/>
	<circle cx="255.23" cy="958.674" r="4" fill="#0" id="circle108"/>
	<circle cx="259.537" cy="421.76" r="4" fill="#0" id="circle109"/>
	<circle cx="260.973" cy="780.66" r="4" fill="#0" id="circle110"/>
	<circle cx="266.715" cy="981.644" r="4" fill="#0" id="circle111"/>
	<circle cx="269.586" cy="958.674" r="4" fill="#0" id="circle112"/>
	<circle cx="273.893" cy="427.502" r="4" fill="#0" id="circle113"/>
	<circle cx="273.893" cy="787.838" r="4" fill="#0" id="circle114"/>
	<circle cx="281.071" cy="981.644" r="4" fill="#0" id="circle115"/>
	<circle cx="283.942" cy="438.987" r="4" fill="#0" id="circle116"/>
	<circle cx="283.942" cy="958.674" r="4" fill="#0" id="circle117"/>
	<circle cx="288.249" cy="787.838" r="4" fill="#0" id="circle118"/>
	<circle cx="295.427" cy="981.644" r="4" fill="#0" id="circle119"/>
	<circle cx="296.863" cy="951.496" r="4" fill="#0" id="circle120"/>
	<circle cx="298.298" cy="441.858" r="4" fill="#0" id="circle121"/>
	<circle cx="298.298" cy="799.323" r="4" fill="#0" id="circle122"/>
	<circle cx="298.298" cy="813.679" r="4" fill="#0" id="circle123"/>
	<circle cx="298.298" cy="828.035" r="4" fill="#0" id="circle124"/>
	<circle cx="298.298" cy="842.391" r="4" fill="#0" id="circle125"/>
	<circle cx="298.298" cy="856.747" r="4" fill="#0" id="circle126"/>
	<circle cx="298.298" cy="871.103" r="4" fill="#0" id="circle127"/>
	<circle cx="305.476" cy="884.023" r="4" fill="#0" id="circle128"/>
	<circle cx="305.476" cy="898.379" r="4" fill="#0" id="circle129"/>
	<circle cx="309.783" cy="980.208" r="4" fill="#0" id="circle130"/>
	<circle cx="311.219" cy="951.496" r="4" fill="#0" id="circle131"/>
	<circle cx="312.654" cy="441.858" r="4" fill="#0" id="circle132"/>
	<circle cx="312.654" cy="911.3" r="4" fill="#0" id="circle133"/>
	<circle cx="316.961" cy="937.14" r="4" fill="#0" id="circle134"/>
	<circle cx="321.268" cy="816.55" r="4" fill="#0" id="circle135"/>
	<circle cx="321.268" cy="830.906" r="4" fill="#0" id="circle136"/>
	<circle cx="321.268" cy="845.262" r="4" fill="#0" id="circle137"/>
	<circle cx="321.268" cy="967.288" r="4" fill="#0" id="circle138"/>
	<circle cx="324.139" cy="859.618" r="4" fill="#0" id="circle139"/>
	<circle cx="327.01" cy="441.858" r="4" fill="#0" id="circle140"/>
	<circle cx="328.446" cy="873.974" r="4" fill="#0" id="circle141"/>
	<circle cx="331.317" cy="888.33" r="4" fill="#0" id="circle142"/>
	<circle cx="334.188" cy="974.466" r="4" fill="#0" id="circle143"/>
	<circle cx="335.624" cy="802.194" r="4" fill="#0" id="circle144"/>
	<circle cx="335.624" cy="902.686" r="4" fill="#0" id="circle145"/>
	<circle cx="341.366" cy="441.858" r="4" fill="#0" id="circle146"/>
	<circle cx="342.802" cy="915.606" r="4" fill="#0" id="circle147"/>
	<circle cx="342.802" cy="929.962" r="4" fill="#0" id="circle148"/>
	<circle cx="348.544" cy="970.159" r="4" fill="#0" id="circle149"/>
	<circle cx="349.98" cy="795.016" r="4" fill="#0" id="circle150"/>
	<circle cx="349.98" cy="942.883" r="4" fill="#0" id="circle151"/>
	<circle cx="355.722" cy="441.858" r="4" fill="#0" id="circle152"/>
	<circle cx="364.336" cy="795.016" r="4" fill="#0" id="circle153"/>
	<circle cx="368.643" cy="449.036" r="4" fill="#0" id="circle154"/>
	<circle cx="378.692" cy="795.016" r="4" fill="#0" id="circle155"/>
	<circle cx="382.999" cy="450.472" r="4" fill="#0" id="circle156"/>
	<circle cx="393.048" cy="787.838" r="4" fill="#0" id="circle157"/>
	<circle cx="397.355" cy="456.214" r="4" fill="#0" id="circle158"/>
	<circle cx="398.79" cy="962.981" r="4" fill="#0" id="circle159"/>
	<circle cx="398.79" cy="977.337" r="4" fill="#0" id="circle160"/>
	<circle cx="407.404" cy="787.838" r="4" fill="#0" id="circle161"/>
	<circle cx="410.275" cy="987.386" r="4" fill="#0" id="circle162"/>
	<circle cx="411.711" cy="456.214" r="4" fill="#0" id="circle163"/>
	<circle cx="413.146" cy="958.674" r="4" fill="#0" id="circle164"/>
	<circle cx="421.76" cy="790.709" r="4" fill="#0" id="circle165"/>
	<circle cx="421.76" cy="996" r="4" fill="#0" id="circle166"/>
	<circle cx="424.631" cy="463.392" r="4" fill="#0" id="circle167"/>
	<circle cx="427.502" cy="958.674" r="4" fill="#0" id="circle168"/>
	<circle cx="436.116" cy="795.016" r="4" fill="#0" id="circle169"/>
	<circle cx="436.116" cy="996" r="4" fill="#0" id="circle170"/>
	<circle cx="437.551" cy="470.57" r="4" fill="#0" id="circle171"/>
	<circle cx="441.858" cy="958.674" r="4" fill="#0" id="circle172"/>
	<circle cx="449.036" cy="988.822" r="4" fill="#0" id="circle173"/>
	<circle cx="450.472" cy="795.016" r="4" fill="#0" id="circle174"/>
	<circle cx="451.907" cy="470.57" r="4" fill="#0" id="circle175"/>
	<circle cx="454.779" cy="951.496" r="4" fill="#0" id="circle176"/>
	<circle cx="463.392" cy="480.619" r="4" fill="#0" id="circle177"/>
	<circle cx="463.392" cy="988.822" r="4" fill="#0" id="circle178"/>
	<circle cx="464.828" cy="797.887" r="4" fill="#0" id="circle179"/>
	<circle cx="469.135" cy="951.496" r="4" fill="#0" id="circle180"/>
	<circle cx="470.57" cy="812.243" r="4" fill="#0" id="circle181"/>
	<circle cx="477.748" cy="484.926" r="4" fill="#0" id="circle182"/>
	<circle cx="477.748" cy="825.164" r="4" fill="#0" id="circle183"/>
	<circle cx="477.748" cy="839.52" r="4" fill="#0" id="circle184"/>
	<circle cx="477.748" cy="988.822" r="4" fill="#0" id="circle185"/>
	<circle cx="482.055" cy="944.318" r="4" fill="#0" id="circle186"/>
	<circle cx="484.926" cy="852.44" r="4" fill="#0" id="circle187"/>
	<circle cx="484.926" cy="866.796" r="4" fill="#0" id="circle188"/>
	<circle cx="484.926" cy="881.152" r="4" fill="#0" id="circle189"/>
	<circle cx="484.926" cy="895.508" r="4" fill="#0" id="circle190"/>
	<circle cx="484.926" cy="909.864" r="4" fill="#0" id="circle191"/>
	<circle cx="484.926" cy="924.22" r="4" fill="#0" id="circle192"/>
	<circle cx="490.669" cy="492.104" r="4" fill="#0" id="circle193"/>
	<circle cx="492.104" cy="988.822" r="4" fill="#0" id="circle194"/>
	<circle cx="500.718" cy="823.728" r="4" fill="#0" id="circle195"/>
	<circle cx="500.718" cy="838.084" r="4" fill="#0" id="circle196"/>
	<circle cx="503.589" cy="499.282" r="4" fill="#0" id="circle197"/>
	<circle cx="506.46" cy="988.822" r="4" fill="#0" id="circle198"/>
	<circle cx="507.896" cy="787.838" r="4" fill="#0" id="circle199"/>
	<circle cx="507.896" cy="802.194" r="4" fill="#0" id="circle200"/>
	<circle cx="507.896" cy="851.004" r="4" fill="#0" id="circle201"/>
	<circle cx="515.074" cy="863.925" r="4" fill="#0" id="circle202"/>
	<circle cx="515.074" cy="878.281" r="4" fill="#0" id="circle203"/>
	<circle cx="515.074" cy="892.637" r="4" fill="#0" id="circle204"/>
	<circle cx="515.074" cy="906.993" r="4" fill="#0" id="circle205"/>
	<circle cx="515.074" cy="921.349" r="4" fill="#0" id="circle206"/>
	<circle cx="515.074" cy="935.705" r="4" fill="#0" id="circle207"/>
	<circle cx="515.074" cy="950.061" r="4" fill="#0" id="circle208"/>
	<circle cx="515.074" cy="974.466" r="4" fill="#0" id="circle209"/>
	<circle cx="516.509" cy="506.46" r="4" fill="#0" id="circle210"/>
	<circle cx="522.252" cy="787.838" r="4" fill="#0" id="circle211"/>
	<circle cx="529.43" cy="513.638" r="4" fill="#0" id="circle212"/>
	<circle cx="536.608" cy="780.66" r="4" fill="#0" id="circle213"/>
	<circle cx="543.786" cy="517.945" r="4" fill="#0" id="circle214"/>
	<circle cx="550.964" cy="780.66" r="4" fill="#0" id="circle215"/>
	<circle cx="553.835" cy="529.43" r="4" fill="#0" id="circle216"/>
	<circle cx="563.884" cy="773.482" r="4" fill="#0" id="circle217"/>
	<circle cx="568.191" cy="535.172" r="4" fill="#0" id="circle218"/>
	<circle cx="578.24" cy="546.657" r="4" fill="#0" id="circle219"/>
	<circle cx="578.24" cy="773.482" r="4" fill="#0" id="circle220"/>
	<circle cx="589.725" cy="556.706" r="4" fill="#0" id="circle221"/>
	<circle cx="592.596" cy="773.482" r="4" fill="#0" id="circle222"/>
	<circle cx="602.645" cy="563.884" r="4" fill="#0" id="circle223"/>
	<circle cx="606.952" cy="773.482" r="4" fill="#0" id="circle224"/>
	<circle cx="615.566" cy="571.062" r="4" fill="#0" id="circle225"/>
	<circle cx="621.308" cy="773.482" r="4" fill="#0" id="circle226"/>
	<circle cx="627.051" cy="579.676" r="4" fill="#0" id="circle227"/>
	<circle cx="634.229" cy="592.596" r="4" fill="#0" id="circle228"/>
	<circle cx="635.664" cy="773.482" r="4" fill="#0" id="circle229"/>
	<circle cx="647.149" cy="599.774" r="4" fill="#0" id="circle230"/>
	<circle cx="650.02" cy="773.482" r="4" fill="#0" id="circle231"/>
	<circle cx="660.069" cy="606.952" r="4" fill="#0" id="circle232"/>
	<circle cx="664.376" cy="773.482" r="4" fill="#0" id="circle233"/>
	<circle cx="671.554" cy="617.001" r="4" fill="#0" id="circle234"/>
	<circle cx="678.732" cy="773.482" r="4" fill="#0" id="circle235"/>
	<circle cx="680.168" cy="628.486" r="4" fill="#0" id="circle236"/>
	<circle cx="691.653" cy="637.1" r="4" fill="#0" id="circle237"/>
	<circle cx="693.088" cy="773.482" r="4" fill="#0" id="circle238"/>
	<circle cx="701.702" cy="648.585" r="4" fill="#0" id="circle239"/>
	<circle cx="707.444" cy="773.482" r="4" fill="#0" id="circle240"/>
	<circle cx="713.187" cy="658.634" r="4" fill="#0" id="circle241"/>
	<circle cx="721.8" cy="773.482" r="4" fill="#0" id="circle242"/>
	<circle cx="723.236" cy="670.119" r="4" fill="#0" id="circle243"/>
	<circle cx="734.721" cy="680.168" r="4" fill="#0" id="circle244"/>
	<circle cx="736.156" cy="773.482" r="4" fill="#0" id="circle245"/>
	<circle cx="741.899" cy="693.088" r="4" fill="#0" id="circle246"/>
	<circle cx="750.512" cy="773.482" r="4" fill="#0" id="circle247"/>
	<circle cx="751.948" cy="704.573" r="4" fill="#0" id="circle248"/>
	<circle cx="761.997" cy="716.058" r="4" fill="#0" id="circle249"/>
	<circle cx="764.868" cy="773.482" r="4" fill="#0" id="circle250"/>
	<circle cx="769.175" cy="728.978" r="4" fill="#0" id="circle251"/>
	<circle cx="779.224" cy="769.175" r="4" fill="#0" id="circle252"/>
	<circle cx="782.096" cy="736.156" r="4" fill="#0" id="circle253"/>
	<circle cx="787.838" cy="750.512" r="4" fill="#0" id="circle254"/>
	</g>
</svg>