<?xml version="1.0" encoding="UTF-8" standalone="no"?>
<!-- Created with CurveBenchmark -->
<svg
	xmlns:dc="http://purl.org/dc/elements/1.1/"
	xmlns:cc="http://creativecommons.org/ns#"
	xmlns:rdf="http://www.w3.org/1999/02/22-rdf-syntax-ns#"
	xmlns:svg="http://www.w3.org/2000/svg"
	xmlns="http://www.w3.org/2000/svg"
	xmlns:sodipodi="http://sodipodi.sourceforge.net/DTD/sodipodi-0.dtd"
	xmlns:inkscape="http://www.inkscape.org/namespaces/inkscape"
	width="1000"
	height="1000"
	id="svg2"
	version="1.1"
	sodipodi:docname="manifold/ccrust-chopper02.png.txt">
<defs
	id="defs4" />
<metadata
	id="metadata7">
	<rdf:RDF>
		<cc:Work
			rdf:about="">
			<dc:format>image/svg+xml</dc:format>
			<dc:type
				rdf:resource="http://purl.org/dc/dcmitype/StillImage" />
			<dc:title></dc:title>
		</cc:Work>
	</rdf:RDF>
</metadata>
<g
	inkscape:label="Layer 1"
	inkscape:groupmode="layer"
	id="layer1">
	<path style="fill:none;stroke:red;stroke-width:1px;stroke-linecap:butt;stroke-linejoin:miter;stroke-opacity:1" d="M 192.865,205.701 178.196,220.37 z" id="boundary" inkscape:connector-curvature="0" />
	<path style="fill:none;stroke:red;stroke-width:1px;stroke-linecap:butt;stroke-linejoin:miter;stroke-opacity:1" d="M 178.196,220.37 159.86,229.538 z" id="boundary" inkscape:connector-curvature="0" />
	<path style="fill:none;stroke:red;stroke-width:1px;stroke-linecap:butt;stroke-linejoin:miter;stroke-opacity:1" d="M 192.865,205.701 211.201,196.532 z" id="boundary" inkscape:connector-curvature="0" />
	<path style="fill:none;stroke:red;stroke-width:1px;stroke-linecap:butt;stroke-linejoin:miter;stroke-opacity:1" d="M 143.357,242.373 159.86,229.538 z" id="boundary" inkscape:connector-curvature="0" />
	<path style="fill:none;stroke:red;stroke-width:1px;stroke-linecap:butt;stroke-linejoin:miter;stroke-opacity:1" d="M 95.6821,275.379 110.351,260.71 z" id="boundary" inkscape:connector-curvature="0" />
	<path style="fill:none;stroke:red;stroke-width:1px;stroke-linecap:butt;stroke-linejoin:miter;stroke-opacity:1" d="M 110.351,260.71 126.854,251.542 z" id="boundary" inkscape:connector-curvature="0" />
	<path style="fill:none;stroke:red;stroke-width:1px;stroke-linecap:butt;stroke-linejoin:miter;stroke-opacity:1" d="M 143.357,242.373 126.854,251.542 z" id="boundary" inkscape:connector-curvature="0" />
	<path style="fill:none;stroke:red;stroke-width:1px;stroke-linecap:butt;stroke-linejoin:miter;stroke-opacity:1" d="M 247.874,187.364 229.538,187.364 z" id="boundary" inkscape:connector-curvature="0" />
	<path style="fill:none;stroke:red;stroke-width:1px;stroke-linecap:butt;stroke-linejoin:miter;stroke-opacity:1" d="M 229.538,187.364 211.201,196.532 z" id="boundary" inkscape:connector-curvature="0" />
	<path style="fill:none;stroke:red;stroke-width:1px;stroke-linecap:butt;stroke-linejoin:miter;stroke-opacity:1" d="M 266.211,187.364 247.874,187.364 z" id="boundary" inkscape:connector-curvature="0" />
	<path style="fill:none;stroke:red;stroke-width:1px;stroke-linecap:butt;stroke-linejoin:miter;stroke-opacity:1" d="M 266.211,187.364 284.547,187.364 z" id="boundary" inkscape:connector-curvature="0" />
	<path style="fill:none;stroke:red;stroke-width:1px;stroke-linecap:butt;stroke-linejoin:miter;stroke-opacity:1" d="M 302.884,178.196 284.547,187.364 z" id="boundary" inkscape:connector-curvature="0" />
	<path style="fill:none;stroke:red;stroke-width:1px;stroke-linecap:butt;stroke-linejoin:miter;stroke-opacity:1" d="M 297.383,37.0055 306.551,53.5083 z" id="boundary" inkscape:connector-curvature="0" />
	<path style="fill:none;stroke:red;stroke-width:1px;stroke-linecap:butt;stroke-linejoin:miter;stroke-opacity:1" d="M 49.841,348.725 49.841,376.229 z" id="boundary" inkscape:connector-curvature="0" />
	<path style="fill:none;stroke:red;stroke-width:1px;stroke-linecap:butt;stroke-linejoin:miter;stroke-opacity:1" d="M 49.841,348.725 59.0092,330.388 z" id="boundary" inkscape:connector-curvature="0" />
	<path style="fill:none;stroke:red;stroke-width:1px;stroke-linecap:butt;stroke-linejoin:miter;stroke-opacity:1" d="M 49.841,394.566 49.841,376.229 z" id="boundary" inkscape:connector-curvature="0" />
	<path style="fill:none;stroke:red;stroke-width:1px;stroke-linecap:butt;stroke-linejoin:miter;stroke-opacity:1" d="M 49.841,412.902 49.841,431.238 z" id="boundary" inkscape:connector-curvature="0" />
	<path style="fill:none;stroke:red;stroke-width:1px;stroke-linecap:butt;stroke-linejoin:miter;stroke-opacity:1" d="M 49.841,431.238 49.841,449.575 z" id="boundary" inkscape:connector-curvature="0" />
	<path style="fill:none;stroke:red;stroke-width:1px;stroke-linecap:butt;stroke-linejoin:miter;stroke-opacity:1" d="M 49.841,412.902 49.841,394.566 z" id="boundary" inkscape:connector-curvature="0" />
	<path style="fill:none;stroke:red;stroke-width:1px;stroke-linecap:butt;stroke-linejoin:miter;stroke-opacity:1" d="M 82.8466,297.383 95.6821,275.379 z" id="boundary" inkscape:connector-curvature="0" />
	<path style="fill:none;stroke:red;stroke-width:1px;stroke-linecap:butt;stroke-linejoin:miter;stroke-opacity:1" d="M 82.8466,297.383 73.6784,315.719 z" id="boundary" inkscape:connector-curvature="0" />
	<path style="fill:none;stroke:red;stroke-width:1px;stroke-linecap:butt;stroke-linejoin:miter;stroke-opacity:1" d="M 73.6784,315.719 59.0092,330.388 z" id="boundary" inkscape:connector-curvature="0" />
	<path style="fill:none;stroke:red;stroke-width:1px;stroke-linecap:butt;stroke-linejoin:miter;stroke-opacity:1" d="M 49.841,467.911 49.841,449.575 z" id="boundary" inkscape:connector-curvature="0" />
	<path style="fill:none;stroke:red;stroke-width:1px;stroke-linecap:butt;stroke-linejoin:miter;stroke-opacity:1" d="M 49.841,467.911 49.841,486.248 z" id="boundary" inkscape:connector-curvature="0" />
	<path style="fill:none;stroke:red;stroke-width:1px;stroke-linecap:butt;stroke-linejoin:miter;stroke-opacity:1" d="M 312.052,22.3364 330.388,22.3364 z" id="boundary" inkscape:connector-curvature="0" />
	<path style="fill:none;stroke:red;stroke-width:1px;stroke-linecap:butt;stroke-linejoin:miter;stroke-opacity:1" d="M 348.725,22.3364 330.388,22.3364 z" id="boundary" inkscape:connector-curvature="0" />
	<path style="fill:none;stroke:red;stroke-width:1px;stroke-linecap:butt;stroke-linejoin:miter;stroke-opacity:1" d="M 365.227,13.1682 348.725,22.3364 z" id="boundary" inkscape:connector-curvature="0" />
	<path style="fill:none;stroke:red;stroke-width:1px;stroke-linecap:butt;stroke-linejoin:miter;stroke-opacity:1" d="M 337.723,60.8429 319.386,68.1774 z" id="boundary" inkscape:connector-curvature="0" />
	<path style="fill:none;stroke:red;stroke-width:1px;stroke-linecap:butt;stroke-linejoin:miter;stroke-opacity:1" d="M 319.386,68.1774 306.551,53.5083 z" id="boundary" inkscape:connector-curvature="0" />
	<path style="fill:none;stroke:red;stroke-width:1px;stroke-linecap:butt;stroke-linejoin:miter;stroke-opacity:1" d="M 356.059,60.8429 337.723,60.8429 z" id="boundary" inkscape:connector-curvature="0" />
	<path style="fill:none;stroke:red;stroke-width:1px;stroke-linecap:butt;stroke-linejoin:miter;stroke-opacity:1" d="M 297.383,37.0055 312.052,22.3364 z" id="boundary" inkscape:connector-curvature="0" />
	<path style="fill:none;stroke:red;stroke-width:1px;stroke-linecap:butt;stroke-linejoin:miter;stroke-opacity:1" d="M 383.564,13.1682 365.227,13.1682 z" id="boundary" inkscape:connector-curvature="0" />
	<path style="fill:none;stroke:red;stroke-width:1px;stroke-linecap:butt;stroke-linejoin:miter;stroke-opacity:1" d="M 418.403,4 401.9,13.1682 z" id="boundary" inkscape:connector-curvature="0" />
	<path style="fill:none;stroke:red;stroke-width:1px;stroke-linecap:butt;stroke-linejoin:miter;stroke-opacity:1" d="M 401.9,13.1682 383.564,13.1682 z" id="boundary" inkscape:connector-curvature="0" />
	<path style="fill:none;stroke:red;stroke-width:1px;stroke-linecap:butt;stroke-linejoin:miter;stroke-opacity:1" d="M 370.728,71.8447 356.059,60.8429 z" id="boundary" inkscape:connector-curvature="0" />
	<path style="fill:none;stroke:red;stroke-width:1px;stroke-linecap:butt;stroke-linejoin:miter;stroke-opacity:1" d="M 370.728,71.8447 370.728,90.1811 z" id="boundary" inkscape:connector-curvature="0" />
	<path style="fill:none;stroke:red;stroke-width:1px;stroke-linecap:butt;stroke-linejoin:miter;stroke-opacity:1" d="M 370.728,90.1811 379.896,106.684 z" id="boundary" inkscape:connector-curvature="0" />
	<path style="fill:none;stroke:red;stroke-width:1px;stroke-linecap:butt;stroke-linejoin:miter;stroke-opacity:1" d="M 372.562,159.86 356.059,169.028 z" id="boundary" inkscape:connector-curvature="0" />
	<path style="fill:none;stroke:red;stroke-width:1px;stroke-linecap:butt;stroke-linejoin:miter;stroke-opacity:1" d="M 356.059,169.028 337.723,169.028 z" id="boundary" inkscape:connector-curvature="0" />
	<path style="fill:none;stroke:red;stroke-width:1px;stroke-linecap:butt;stroke-linejoin:miter;stroke-opacity:1" d="M 337.723,169.028 321.22,178.196 z" id="boundary" inkscape:connector-curvature="0" />
	<path style="fill:none;stroke:red;stroke-width:1px;stroke-linecap:butt;stroke-linejoin:miter;stroke-opacity:1" d="M 321.22,178.196 302.884,178.196 z" id="boundary" inkscape:connector-curvature="0" />
	<path style="fill:none;stroke:red;stroke-width:1px;stroke-linecap:butt;stroke-linejoin:miter;stroke-opacity:1" d="M 372.562,159.86 389.065,169.028 z" id="boundary" inkscape:connector-curvature="0" />
	<path style="fill:none;stroke:red;stroke-width:1px;stroke-linecap:butt;stroke-linejoin:miter;stroke-opacity:1" d="M 396.399,115.852 379.896,106.684 z" id="boundary" inkscape:connector-curvature="0" />
	<path style="fill:none;stroke:red;stroke-width:1px;stroke-linecap:butt;stroke-linejoin:miter;stroke-opacity:1" d="M 398.233,134.189 396.399,115.852 z" id="boundary" inkscape:connector-curvature="0" />
	<path style="fill:none;stroke:red;stroke-width:1px;stroke-linecap:butt;stroke-linejoin:miter;stroke-opacity:1" d="M 398.233,134.189 398.233,152.525 z" id="boundary" inkscape:connector-curvature="0" />
	<path style="fill:none;stroke:red;stroke-width:1px;stroke-linecap:butt;stroke-linejoin:miter;stroke-opacity:1" d="M 418.403,4 436.739,4 z" id="boundary" inkscape:connector-curvature="0" />
	<path style="fill:none;stroke:red;stroke-width:1px;stroke-linecap:butt;stroke-linejoin:miter;stroke-opacity:1" d="M 49.841,504.584 49.841,522.921 z" id="boundary" inkscape:connector-curvature="0" />
	<path style="fill:none;stroke:red;stroke-width:1px;stroke-linecap:butt;stroke-linejoin:miter;stroke-opacity:1" d="M 49.841,541.257 49.841,522.921 z" id="boundary" inkscape:connector-curvature="0" />
	<path style="fill:none;stroke:red;stroke-width:1px;stroke-linecap:butt;stroke-linejoin:miter;stroke-opacity:1" d="M 37.0055,645.774 18.6691,645.774 z" id="boundary" inkscape:connector-curvature="0" />
	<path style="fill:none;stroke:red;stroke-width:1px;stroke-linecap:butt;stroke-linejoin:miter;stroke-opacity:1" d="M 49.841,541.257 49.841,559.593 z" id="boundary" inkscape:connector-curvature="0" />
	<path style="fill:none;stroke:red;stroke-width:1px;stroke-linecap:butt;stroke-linejoin:miter;stroke-opacity:1" d="M 49.841,559.593 59.0092,576.096 z" id="boundary" inkscape:connector-curvature="0" />
	<path style="fill:none;stroke:red;stroke-width:1px;stroke-linecap:butt;stroke-linejoin:miter;stroke-opacity:1" d="M 18.6691,645.774 4,660.444 z" id="boundary" inkscape:connector-curvature="0" />
	<path style="fill:none;stroke:red;stroke-width:1px;stroke-linecap:butt;stroke-linejoin:miter;stroke-opacity:1" d="M 68.1774,592.599 59.0092,576.096 z" id="boundary" inkscape:connector-curvature="0" />
	<path style="fill:none;stroke:red;stroke-width:1px;stroke-linecap:butt;stroke-linejoin:miter;stroke-opacity:1" d="M 79.1793,607.268 68.1774,592.599 z" id="boundary" inkscape:connector-curvature="0" />
	<path style="fill:none;stroke:red;stroke-width:1px;stroke-linecap:butt;stroke-linejoin:miter;stroke-opacity:1" d="M 55.342,645.774 37.0055,645.774 z" id="boundary" inkscape:connector-curvature="0" />
	<path style="fill:none;stroke:red;stroke-width:1px;stroke-linecap:butt;stroke-linejoin:miter;stroke-opacity:1" d="M 70.0111,656.776 55.342,645.774 z" id="boundary" inkscape:connector-curvature="0" />
	<path style="fill:none;stroke:red;stroke-width:1px;stroke-linecap:butt;stroke-linejoin:miter;stroke-opacity:1" d="M 79.1793,607.268 86.5139,625.604 z" id="boundary" inkscape:connector-curvature="0" />
	<path style="fill:none;stroke:red;stroke-width:1px;stroke-linecap:butt;stroke-linejoin:miter;stroke-opacity:1" d="M 101.183,638.44 86.5139,625.604 z" id="boundary" inkscape:connector-curvature="0" />
	<path style="fill:none;stroke:red;stroke-width:1px;stroke-linecap:butt;stroke-linejoin:miter;stroke-opacity:1" d="M 4,697.116 4,678.78 z" id="boundary" inkscape:connector-curvature="0" />
	<path style="fill:none;stroke:red;stroke-width:1px;stroke-linecap:butt;stroke-linejoin:miter;stroke-opacity:1" d="M 31.5046,739.29 13.1682,731.956 z" id="boundary" inkscape:connector-curvature="0" />
	<path style="fill:none;stroke:red;stroke-width:1px;stroke-linecap:butt;stroke-linejoin:miter;stroke-opacity:1" d="M 13.1682,731.956 4,715.453 z" id="boundary" inkscape:connector-curvature="0" />
	<path style="fill:none;stroke:red;stroke-width:1px;stroke-linecap:butt;stroke-linejoin:miter;stroke-opacity:1" d="M 4,715.453 4,697.116 z" id="boundary" inkscape:connector-curvature="0" />
	<path style="fill:none;stroke:red;stroke-width:1px;stroke-linecap:butt;stroke-linejoin:miter;stroke-opacity:1" d="M 31.5046,739.29 48.0074,748.458 z" id="boundary" inkscape:connector-curvature="0" />
	<path style="fill:none;stroke:red;stroke-width:1px;stroke-linecap:butt;stroke-linejoin:miter;stroke-opacity:1" d="M 4,678.78 4,660.444 z" id="boundary" inkscape:connector-curvature="0" />
	<path style="fill:none;stroke:red;stroke-width:1px;stroke-linecap:butt;stroke-linejoin:miter;stroke-opacity:1" d="M 79.1793,673.279 70.0111,656.776 z" id="boundary" inkscape:connector-curvature="0" />
	<path style="fill:none;stroke:red;stroke-width:1px;stroke-linecap:butt;stroke-linejoin:miter;stroke-opacity:1" d="M 95.6821,682.447 79.1793,673.279 z" id="boundary" inkscape:connector-curvature="0" />
	<path style="fill:none;stroke:red;stroke-width:1px;stroke-linecap:butt;stroke-linejoin:miter;stroke-opacity:1" d="M 66.3438,748.458 48.0074,748.458 z" id="boundary" inkscape:connector-curvature="0" />
	<path style="fill:none;stroke:red;stroke-width:1px;stroke-linecap:butt;stroke-linejoin:miter;stroke-opacity:1" d="M 84.6802,748.458 66.3438,748.458 z" id="boundary" inkscape:connector-curvature="0" />
	<path style="fill:none;stroke:red;stroke-width:1px;stroke-linecap:butt;stroke-linejoin:miter;stroke-opacity:1" d="M 103.017,748.458 84.6802,748.458 z" id="boundary" inkscape:connector-curvature="0" />
	<path style="fill:none;stroke:red;stroke-width:1px;stroke-linecap:butt;stroke-linejoin:miter;stroke-opacity:1" d="M 101.183,638.44 119.519,645.774 z" id="boundary" inkscape:connector-curvature="0" />
	<path style="fill:none;stroke:red;stroke-width:1px;stroke-linecap:butt;stroke-linejoin:miter;stroke-opacity:1" d="M 49.841,486.248 49.841,504.584 z" id="boundary" inkscape:connector-curvature="0" />
	<path style="fill:none;stroke:red;stroke-width:1px;stroke-linecap:butt;stroke-linejoin:miter;stroke-opacity:1" d="M 119.519,645.774 137.856,638.44 z" id="boundary" inkscape:connector-curvature="0" />
	<path style="fill:none;stroke:red;stroke-width:1px;stroke-linecap:butt;stroke-linejoin:miter;stroke-opacity:1" d="M 156.192,638.44 137.856,638.44 z" id="boundary" inkscape:connector-curvature="0" />
	<path style="fill:none;stroke:red;stroke-width:1px;stroke-linecap:butt;stroke-linejoin:miter;stroke-opacity:1" d="M 114.018,682.447 132.355,682.447 z" id="boundary" inkscape:connector-curvature="0" />
	<path style="fill:none;stroke:red;stroke-width:1px;stroke-linecap:butt;stroke-linejoin:miter;stroke-opacity:1" d="M 159.86,656.776 150.691,682.447 z" id="boundary" inkscape:connector-curvature="0" />
	<path style="fill:none;stroke:red;stroke-width:1px;stroke-linecap:butt;stroke-linejoin:miter;stroke-opacity:1" d="M 150.691,682.447 132.355,682.447 z" id="boundary" inkscape:connector-curvature="0" />
	<path style="fill:none;stroke:red;stroke-width:1px;stroke-linecap:butt;stroke-linejoin:miter;stroke-opacity:1" d="M 156.192,638.44 159.86,656.776 z" id="boundary" inkscape:connector-curvature="0" />
	<path style="fill:none;stroke:red;stroke-width:1px;stroke-linecap:butt;stroke-linejoin:miter;stroke-opacity:1" d="M 95.6821,682.447 114.018,682.447 z" id="boundary" inkscape:connector-curvature="0" />
	<path style="fill:none;stroke:red;stroke-width:1px;stroke-linecap:butt;stroke-linejoin:miter;stroke-opacity:1" d="M 400.067,675.113 383.564,684.281 z" id="boundary" inkscape:connector-curvature="0" />
	<path style="fill:none;stroke:red;stroke-width:1px;stroke-linecap:butt;stroke-linejoin:miter;stroke-opacity:1" d="M 383.564,684.281 365.227,684.281 z" id="boundary" inkscape:connector-curvature="0" />
	<path style="fill:none;stroke:red;stroke-width:1px;stroke-linecap:butt;stroke-linejoin:miter;stroke-opacity:1" d="M 365.227,684.281 348.725,693.449 z" id="boundary" inkscape:connector-curvature="0" />
	<path style="fill:none;stroke:red;stroke-width:1px;stroke-linecap:butt;stroke-linejoin:miter;stroke-opacity:1" d="M 330.388,700.784 348.725,693.449 z" id="boundary" inkscape:connector-curvature="0" />
	<path style="fill:none;stroke:red;stroke-width:1px;stroke-linecap:butt;stroke-linejoin:miter;stroke-opacity:1" d="M 330.388,700.784 312.052,700.784 z" id="boundary" inkscape:connector-curvature="0" />
	<path style="fill:none;stroke:red;stroke-width:1px;stroke-linecap:butt;stroke-linejoin:miter;stroke-opacity:1" d="M 400.067,675.113 418.403,675.113 z" id="boundary" inkscape:connector-curvature="0" />
	<path style="fill:none;stroke:red;stroke-width:1px;stroke-linecap:butt;stroke-linejoin:miter;stroke-opacity:1" d="M 174.529,737.457 156.192,737.457 z" id="boundary" inkscape:connector-curvature="0" />
	<path style="fill:none;stroke:red;stroke-width:1px;stroke-linecap:butt;stroke-linejoin:miter;stroke-opacity:1" d="M 156.192,737.457 137.856,739.29 z" id="boundary" inkscape:connector-curvature="0" />
	<path style="fill:none;stroke:red;stroke-width:1px;stroke-linecap:butt;stroke-linejoin:miter;stroke-opacity:1" d="M 174.529,737.457 192.865,730.122 z" id="boundary" inkscape:connector-curvature="0" />
	<path style="fill:none;stroke:red;stroke-width:1px;stroke-linecap:butt;stroke-linejoin:miter;stroke-opacity:1" d="M 192.865,730.122 211.201,730.122 z" id="boundary" inkscape:connector-curvature="0" />
	<path style="fill:none;stroke:red;stroke-width:1px;stroke-linecap:butt;stroke-linejoin:miter;stroke-opacity:1" d="M 103.017,748.458 119.519,739.29 z" id="boundary" inkscape:connector-curvature="0" />
	<path style="fill:none;stroke:red;stroke-width:1px;stroke-linecap:butt;stroke-linejoin:miter;stroke-opacity:1" d="M 119.519,739.29 137.856,739.29 z" id="boundary" inkscape:connector-curvature="0" />
	<path style="fill:none;stroke:red;stroke-width:1px;stroke-linecap:butt;stroke-linejoin:miter;stroke-opacity:1" d="M 262.543,711.786 280.88,702.617 z" id="boundary" inkscape:connector-curvature="0" />
	<path style="fill:none;stroke:red;stroke-width:1px;stroke-linecap:butt;stroke-linejoin:miter;stroke-opacity:1" d="M 280.88,702.617 297.383,711.786 z" id="boundary" inkscape:connector-curvature="0" />
	<path style="fill:none;stroke:red;stroke-width:1px;stroke-linecap:butt;stroke-linejoin:miter;stroke-opacity:1" d="M 297.383,711.786 312.052,700.784 z" id="boundary" inkscape:connector-curvature="0" />
	<path style="fill:none;stroke:red;stroke-width:1px;stroke-linecap:butt;stroke-linejoin:miter;stroke-opacity:1" d="M 211.201,730.122 227.704,720.954 z" id="boundary" inkscape:connector-curvature="0" />
	<path style="fill:none;stroke:red;stroke-width:1px;stroke-linecap:butt;stroke-linejoin:miter;stroke-opacity:1" d="M 227.704,720.954 246.041,720.954 z" id="boundary" inkscape:connector-curvature="0" />
	<path style="fill:none;stroke:red;stroke-width:1px;stroke-linecap:butt;stroke-linejoin:miter;stroke-opacity:1" d="M 262.543,711.786 246.041,720.954 z" id="boundary" inkscape:connector-curvature="0" />
	<path style="fill:none;stroke:red;stroke-width:1px;stroke-linecap:butt;stroke-linejoin:miter;stroke-opacity:1" d="M 436.739,88.3475 455.076,88.3475 z" id="boundary" inkscape:connector-curvature="0" />
	<path style="fill:none;stroke:red;stroke-width:1px;stroke-linecap:butt;stroke-linejoin:miter;stroke-opacity:1" d="M 436.739,121.353 427.571,143.357 z" id="boundary" inkscape:connector-curvature="0" />
	<path style="fill:none;stroke:red;stroke-width:1px;stroke-linecap:butt;stroke-linejoin:miter;stroke-opacity:1" d="M 436.739,121.353 427.571,104.85 z" id="boundary" inkscape:connector-curvature="0" />
	<path style="fill:none;stroke:red;stroke-width:1px;stroke-linecap:butt;stroke-linejoin:miter;stroke-opacity:1" d="M 427.571,143.357 436.739,159.86 z" id="boundary" inkscape:connector-curvature="0" />
	<path style="fill:none;stroke:red;stroke-width:1px;stroke-linecap:butt;stroke-linejoin:miter;stroke-opacity:1" d="M 436.739,4 455.076,9.50092 z" id="boundary" inkscape:connector-curvature="0" />
	<path style="fill:none;stroke:red;stroke-width:1px;stroke-linecap:butt;stroke-linejoin:miter;stroke-opacity:1" d="M 478.913,57.1756 473.412,37.0055 z" id="boundary" inkscape:connector-curvature="0" />
	<path style="fill:none;stroke:red;stroke-width:1px;stroke-linecap:butt;stroke-linejoin:miter;stroke-opacity:1" d="M 473.412,37.0055 471.579,18.6691 z" id="boundary" inkscape:connector-curvature="0" />
	<path style="fill:none;stroke:red;stroke-width:1px;stroke-linecap:butt;stroke-linejoin:miter;stroke-opacity:1" d="M 478.913,57.1756 464.244,70.0111 z" id="boundary" inkscape:connector-curvature="0" />
	<path style="fill:none;stroke:red;stroke-width:1px;stroke-linecap:butt;stroke-linejoin:miter;stroke-opacity:1" d="M 455.076,88.3475 464.244,70.0111 z" id="boundary" inkscape:connector-curvature="0" />
	<path style="fill:none;stroke:red;stroke-width:1px;stroke-linecap:butt;stroke-linejoin:miter;stroke-opacity:1" d="M 473.412,159.86 455.076,154.359 z" id="boundary" inkscape:connector-curvature="0" />
	<path style="fill:none;stroke:red;stroke-width:1px;stroke-linecap:butt;stroke-linejoin:miter;stroke-opacity:1" d="M 455.076,9.50092 471.579,18.6691 z" id="boundary" inkscape:connector-curvature="0" />
	<path style="fill:none;stroke:red;stroke-width:1px;stroke-linecap:butt;stroke-linejoin:miter;stroke-opacity:1" d="M 455.076,154.359 436.739,159.86 z" id="boundary" inkscape:connector-curvature="0" />
	<path style="fill:none;stroke:red;stroke-width:1px;stroke-linecap:butt;stroke-linejoin:miter;stroke-opacity:1" d="M 491.749,159.86 473.412,159.86 z" id="boundary" inkscape:connector-curvature="0" />
	<path style="fill:none;stroke:red;stroke-width:1px;stroke-linecap:butt;stroke-linejoin:miter;stroke-opacity:1" d="M 510.085,159.86 528.421,159.86 z" id="boundary" inkscape:connector-curvature="0" />
	<path style="fill:none;stroke:red;stroke-width:1px;stroke-linecap:butt;stroke-linejoin:miter;stroke-opacity:1" d="M 546.758,159.86 528.421,159.86 z" id="boundary" inkscape:connector-curvature="0" />
	<path style="fill:none;stroke:red;stroke-width:1px;stroke-linecap:butt;stroke-linejoin:miter;stroke-opacity:1" d="M 510.085,159.86 491.749,159.86 z" id="boundary" inkscape:connector-curvature="0" />
	<path style="fill:none;stroke:red;stroke-width:1px;stroke-linecap:butt;stroke-linejoin:miter;stroke-opacity:1" d="M 565.094,159.86 583.431,159.86 z" id="boundary" inkscape:connector-curvature="0" />
	<path style="fill:none;stroke:red;stroke-width:1px;stroke-linecap:butt;stroke-linejoin:miter;stroke-opacity:1" d="M 583.431,159.86 601.767,165.36 z" id="boundary" inkscape:connector-curvature="0" />
	<path style="fill:none;stroke:red;stroke-width:1px;stroke-linecap:butt;stroke-linejoin:miter;stroke-opacity:1" d="M 645.774,262.543 629.272,271.712 z" id="boundary" inkscape:connector-curvature="0" />
	<path style="fill:none;stroke:red;stroke-width:1px;stroke-linecap:butt;stroke-linejoin:miter;stroke-opacity:1" d="M 636.606,178.196 618.27,174.529 z" id="boundary" inkscape:connector-curvature="0" />
	<path style="fill:none;stroke:red;stroke-width:1px;stroke-linecap:butt;stroke-linejoin:miter;stroke-opacity:1" d="M 618.27,174.529 601.767,165.36 z" id="boundary" inkscape:connector-curvature="0" />
	<path style="fill:none;stroke:red;stroke-width:1px;stroke-linecap:butt;stroke-linejoin:miter;stroke-opacity:1" d="M 654.943,178.196 636.606,178.196 z" id="boundary" inkscape:connector-curvature="0" />
	<path style="fill:none;stroke:red;stroke-width:1px;stroke-linecap:butt;stroke-linejoin:miter;stroke-opacity:1" d="M 546.758,159.86 565.094,159.86 z" id="boundary" inkscape:connector-curvature="0" />
	<path style="fill:none;stroke:red;stroke-width:1px;stroke-linecap:butt;stroke-linejoin:miter;stroke-opacity:1" d="M 629.272,271.712 638.44,288.214 z" id="boundary" inkscape:connector-curvature="0" />
	<path style="fill:none;stroke:red;stroke-width:1px;stroke-linecap:butt;stroke-linejoin:miter;stroke-opacity:1" d="M 675.113,244.207 664.111,262.543 z" id="boundary" inkscape:connector-curvature="0" />
	<path style="fill:none;stroke:red;stroke-width:1px;stroke-linecap:butt;stroke-linejoin:miter;stroke-opacity:1" d="M 664.111,262.543 645.774,262.543 z" id="boundary" inkscape:connector-curvature="0" />
	<path style="fill:none;stroke:red;stroke-width:1px;stroke-linecap:butt;stroke-linejoin:miter;stroke-opacity:1" d="M 673.279,181.863 654.943,178.196 z" id="boundary" inkscape:connector-curvature="0" />
	<path style="fill:none;stroke:red;stroke-width:1px;stroke-linecap:butt;stroke-linejoin:miter;stroke-opacity:1" d="M 656.776,288.214 638.44,288.214 z" id="boundary" inkscape:connector-curvature="0" />
	<path style="fill:none;stroke:red;stroke-width:1px;stroke-linecap:butt;stroke-linejoin:miter;stroke-opacity:1" d="M 675.113,288.214 656.776,288.214 z" id="boundary" inkscape:connector-curvature="0" />
	<path style="fill:none;stroke:red;stroke-width:1px;stroke-linecap:butt;stroke-linejoin:miter;stroke-opacity:1" d="M 673.279,181.863 675.113,200.2 z" id="boundary" inkscape:connector-curvature="0" />
	<path style="fill:none;stroke:red;stroke-width:1px;stroke-linecap:butt;stroke-linejoin:miter;stroke-opacity:1" d="M 675.113,200.2 675.113,225.871 z" id="boundary" inkscape:connector-curvature="0" />
	<path style="fill:none;stroke:red;stroke-width:1px;stroke-linecap:butt;stroke-linejoin:miter;stroke-opacity:1" d="M 675.113,244.207 675.113,225.871 z" id="boundary" inkscape:connector-curvature="0" />
	<path style="fill:none;stroke:red;stroke-width:1px;stroke-linecap:butt;stroke-linejoin:miter;stroke-opacity:1" d="M 931.823,288.214 913.486,288.214 z" id="boundary" inkscape:connector-curvature="0" />
	<path style="fill:none;stroke:red;stroke-width:1px;stroke-linecap:butt;stroke-linejoin:miter;stroke-opacity:1" d="M 986.832,284.547 968.495,282.713 z" id="boundary" inkscape:connector-curvature="0" />
	<path style="fill:none;stroke:red;stroke-width:1px;stroke-linecap:butt;stroke-linejoin:miter;stroke-opacity:1" d="M 693.449,288.214 675.113,288.214 z" id="boundary" inkscape:connector-curvature="0" />
	<path style="fill:none;stroke:red;stroke-width:1px;stroke-linecap:butt;stroke-linejoin:miter;stroke-opacity:1" d="M 693.449,288.214 711.786,288.214 z" id="boundary" inkscape:connector-curvature="0" />
	<path style="fill:none;stroke:red;stroke-width:1px;stroke-linecap:butt;stroke-linejoin:miter;stroke-opacity:1" d="M 730.122,288.214 711.786,288.214 z" id="boundary" inkscape:connector-curvature="0" />
	<path style="fill:none;stroke:red;stroke-width:1px;stroke-linecap:butt;stroke-linejoin:miter;stroke-opacity:1" d="M 748.458,288.214 766.795,288.214 z" id="boundary" inkscape:connector-curvature="0" />
	<path style="fill:none;stroke:red;stroke-width:1px;stroke-linecap:butt;stroke-linejoin:miter;stroke-opacity:1" d="M 785.131,288.214 766.795,288.214 z" id="boundary" inkscape:connector-curvature="0" />
	<path style="fill:none;stroke:red;stroke-width:1px;stroke-linecap:butt;stroke-linejoin:miter;stroke-opacity:1" d="M 748.458,288.214 730.122,288.214 z" id="boundary" inkscape:connector-curvature="0" />
	<path style="fill:none;stroke:red;stroke-width:1px;stroke-linecap:butt;stroke-linejoin:miter;stroke-opacity:1" d="M 803.468,288.214 821.804,288.214 z" id="boundary" inkscape:connector-curvature="0" />
	<path style="fill:none;stroke:red;stroke-width:1px;stroke-linecap:butt;stroke-linejoin:miter;stroke-opacity:1" d="M 840.14,288.214 821.804,288.214 z" id="boundary" inkscape:connector-curvature="0" />
	<path style="fill:none;stroke:red;stroke-width:1px;stroke-linecap:butt;stroke-linejoin:miter;stroke-opacity:1" d="M 858.477,288.214 876.813,288.214 z" id="boundary" inkscape:connector-curvature="0" />
	<path style="fill:none;stroke:red;stroke-width:1px;stroke-linecap:butt;stroke-linejoin:miter;stroke-opacity:1" d="M 895.15,288.214 913.486,288.214 z" id="boundary" inkscape:connector-curvature="0" />
	<path style="fill:none;stroke:red;stroke-width:1px;stroke-linecap:butt;stroke-linejoin:miter;stroke-opacity:1" d="M 895.15,288.214 876.813,288.214 z" id="boundary" inkscape:connector-curvature="0" />
	<path style="fill:none;stroke:red;stroke-width:1px;stroke-linecap:butt;stroke-linejoin:miter;stroke-opacity:1" d="M 858.477,288.214 840.14,288.214 z" id="boundary" inkscape:connector-curvature="0" />
	<path style="fill:none;stroke:red;stroke-width:1px;stroke-linecap:butt;stroke-linejoin:miter;stroke-opacity:1" d="M 803.468,288.214 785.131,288.214 z" id="boundary" inkscape:connector-curvature="0" />
	<path style="fill:none;stroke:red;stroke-width:1px;stroke-linecap:butt;stroke-linejoin:miter;stroke-opacity:1" d="M 986.832,284.547 996,301.05 z" id="boundary" inkscape:connector-curvature="0" />
	<path style="fill:none;stroke:red;stroke-width:1px;stroke-linecap:butt;stroke-linejoin:miter;stroke-opacity:1" d="M 702.617,464.244 706.285,482.58 z" id="boundary" inkscape:connector-curvature="0" />
	<path style="fill:none;stroke:red;stroke-width:1px;stroke-linecap:butt;stroke-linejoin:miter;stroke-opacity:1" d="M 682.447,623.771 664.111,629.272 z" id="boundary" inkscape:connector-curvature="0" />
	<path style="fill:none;stroke:red;stroke-width:1px;stroke-linecap:butt;stroke-linejoin:miter;stroke-opacity:1" d="M 702.617,464.244 720.954,455.076 z" id="boundary" inkscape:connector-curvature="0" />
	<path style="fill:none;stroke:red;stroke-width:1px;stroke-linecap:butt;stroke-linejoin:miter;stroke-opacity:1" d="M 700.784,623.771 682.447,623.771 z" id="boundary" inkscape:connector-curvature="0" />
	<path style="fill:none;stroke:red;stroke-width:1px;stroke-linecap:butt;stroke-linejoin:miter;stroke-opacity:1" d="M 715.453,610.935 700.784,623.771 z" id="boundary" inkscape:connector-curvature="0" />
	<path style="fill:none;stroke:red;stroke-width:1px;stroke-linecap:butt;stroke-linejoin:miter;stroke-opacity:1" d="M 627.438,642.107 645.774,632.939 z" id="boundary" inkscape:connector-curvature="0" />
	<path style="fill:none;stroke:red;stroke-width:1px;stroke-linecap:butt;stroke-linejoin:miter;stroke-opacity:1" d="M 645.774,632.939 664.111,629.272 z" id="boundary" inkscape:connector-curvature="0" />
	<path style="fill:none;stroke:red;stroke-width:1px;stroke-linecap:butt;stroke-linejoin:miter;stroke-opacity:1" d="M 706.285,482.58 715.453,499.083 z" id="boundary" inkscape:connector-curvature="0" />
	<path style="fill:none;stroke:red;stroke-width:1px;stroke-linecap:butt;stroke-linejoin:miter;stroke-opacity:1" d="M 733.789,499.083 715.453,499.083 z" id="boundary" inkscape:connector-curvature="0" />
	<path style="fill:none;stroke:red;stroke-width:1px;stroke-linecap:butt;stroke-linejoin:miter;stroke-opacity:1" d="M 720.954,455.076 737.457,445.908 z" id="boundary" inkscape:connector-curvature="0" />
	<path style="fill:none;stroke:red;stroke-width:1px;stroke-linecap:butt;stroke-linejoin:miter;stroke-opacity:1" d="M 733.789,610.935 715.453,610.935 z" id="boundary" inkscape:connector-curvature="0" />
	<path style="fill:none;stroke:red;stroke-width:1px;stroke-linecap:butt;stroke-linejoin:miter;stroke-opacity:1" d="M 750.292,601.767 733.789,610.935 z" id="boundary" inkscape:connector-curvature="0" />
	<path style="fill:none;stroke:red;stroke-width:1px;stroke-linecap:butt;stroke-linejoin:miter;stroke-opacity:1" d="M 752.126,499.083 733.789,499.083 z" id="boundary" inkscape:connector-curvature="0" />
	<path style="fill:none;stroke:red;stroke-width:1px;stroke-linecap:butt;stroke-linejoin:miter;stroke-opacity:1" d="M 480.747,656.776 462.41,656.776 z" id="boundary" inkscape:connector-curvature="0" />
	<path style="fill:none;stroke:red;stroke-width:1px;stroke-linecap:butt;stroke-linejoin:miter;stroke-opacity:1" d="M 462.41,656.776 445.908,647.608 z" id="boundary" inkscape:connector-curvature="0" />
	<path style="fill:none;stroke:red;stroke-width:1px;stroke-linecap:butt;stroke-linejoin:miter;stroke-opacity:1" d="M 499.083,656.776 480.747,656.776 z" id="boundary" inkscape:connector-curvature="0" />
	<path style="fill:none;stroke:red;stroke-width:1px;stroke-linecap:butt;stroke-linejoin:miter;stroke-opacity:1" d="M 436.739,665.945 445.908,647.608 z" id="boundary" inkscape:connector-curvature="0" />
	<path style="fill:none;stroke:red;stroke-width:1px;stroke-linecap:butt;stroke-linejoin:miter;stroke-opacity:1" d="M 418.403,675.113 436.739,665.945 z" id="boundary" inkscape:connector-curvature="0" />
	<path style="fill:none;stroke:red;stroke-width:1px;stroke-linecap:butt;stroke-linejoin:miter;stroke-opacity:1" d="M 499.083,656.776 517.42,656.776 z" id="boundary" inkscape:connector-curvature="0" />
	<path style="fill:none;stroke:red;stroke-width:1px;stroke-linecap:butt;stroke-linejoin:miter;stroke-opacity:1" d="M 627.438,642.107 609.102,647.608 z" id="boundary" inkscape:connector-curvature="0" />
	<path style="fill:none;stroke:red;stroke-width:1px;stroke-linecap:butt;stroke-linejoin:miter;stroke-opacity:1" d="M 609.102,647.608 590.765,647.608 z" id="boundary" inkscape:connector-curvature="0" />
	<path style="fill:none;stroke:red;stroke-width:1px;stroke-linecap:butt;stroke-linejoin:miter;stroke-opacity:1" d="M 572.429,651.275 590.765,647.608 z" id="boundary" inkscape:connector-curvature="0" />
	<path style="fill:none;stroke:red;stroke-width:1px;stroke-linecap:butt;stroke-linejoin:miter;stroke-opacity:1" d="M 517.42,656.776 535.756,656.776 z" id="boundary" inkscape:connector-curvature="0" />
	<path style="fill:none;stroke:red;stroke-width:1px;stroke-linecap:butt;stroke-linejoin:miter;stroke-opacity:1" d="M 554.092,656.776 572.429,651.275 z" id="boundary" inkscape:connector-curvature="0" />
	<path style="fill:none;stroke:red;stroke-width:1px;stroke-linecap:butt;stroke-linejoin:miter;stroke-opacity:1" d="M 554.092,656.776 535.756,656.776 z" id="boundary" inkscape:connector-curvature="0" />
	<path style="fill:none;stroke:red;stroke-width:1px;stroke-linecap:butt;stroke-linejoin:miter;stroke-opacity:1" d="M 931.823,354.226 913.486,354.226 z" id="boundary" inkscape:connector-curvature="0" />
	<path style="fill:none;stroke:red;stroke-width:1px;stroke-linecap:butt;stroke-linejoin:miter;stroke-opacity:1" d="M 913.486,354.226 895.15,363.394 z" id="boundary" inkscape:connector-curvature="0" />
	<path style="fill:none;stroke:red;stroke-width:1px;stroke-linecap:butt;stroke-linejoin:miter;stroke-opacity:1" d="M 948.325,345.057 931.823,354.226 z" id="boundary" inkscape:connector-curvature="0" />
	<path style="fill:none;stroke:red;stroke-width:1px;stroke-linecap:butt;stroke-linejoin:miter;stroke-opacity:1" d="M 858.477,381.73 876.813,372.562 z" id="boundary" inkscape:connector-curvature="0" />
	<path style="fill:none;stroke:red;stroke-width:1px;stroke-linecap:butt;stroke-linejoin:miter;stroke-opacity:1" d="M 895.15,363.394 876.813,372.562 z" id="boundary" inkscape:connector-curvature="0" />
	<path style="fill:none;stroke:red;stroke-width:1px;stroke-linecap:butt;stroke-linejoin:miter;stroke-opacity:1" d="M 858.477,381.73 840.14,390.898 z" id="boundary" inkscape:connector-curvature="0" />
	<path style="fill:none;stroke:red;stroke-width:1px;stroke-linecap:butt;stroke-linejoin:miter;stroke-opacity:1" d="M 950.159,288.214 968.495,282.713 z" id="boundary" inkscape:connector-curvature="0" />
	<path style="fill:none;stroke:red;stroke-width:1px;stroke-linecap:butt;stroke-linejoin:miter;stroke-opacity:1" d="M 996,301.05 996,319.386 z" id="boundary" inkscape:connector-curvature="0" />
	<path style="fill:none;stroke:red;stroke-width:1px;stroke-linecap:butt;stroke-linejoin:miter;stroke-opacity:1" d="M 996,319.386 981.331,334.055 z" id="boundary" inkscape:connector-curvature="0" />
	<path style="fill:none;stroke:red;stroke-width:1px;stroke-linecap:butt;stroke-linejoin:miter;stroke-opacity:1" d="M 981.331,334.055 966.662,345.057 z" id="boundary" inkscape:connector-curvature="0" />
	<path style="fill:none;stroke:red;stroke-width:1px;stroke-linecap:butt;stroke-linejoin:miter;stroke-opacity:1" d="M 966.662,345.057 948.325,345.057 z" id="boundary" inkscape:connector-curvature="0" />
	<path style="fill:none;stroke:red;stroke-width:1px;stroke-linecap:butt;stroke-linejoin:miter;stroke-opacity:1" d="M 931.823,288.214 950.159,288.214 z" id="boundary" inkscape:connector-curvature="0" />
	<path style="fill:none;stroke:red;stroke-width:1px;stroke-linecap:butt;stroke-linejoin:miter;stroke-opacity:1" d="M 753.959,436.739 770.462,427.571 z" id="boundary" inkscape:connector-curvature="0" />
	<path style="fill:none;stroke:red;stroke-width:1px;stroke-linecap:butt;stroke-linejoin:miter;stroke-opacity:1" d="M 737.457,445.908 753.959,436.739 z" id="boundary" inkscape:connector-curvature="0" />
	<path style="fill:none;stroke:red;stroke-width:1px;stroke-linecap:butt;stroke-linejoin:miter;stroke-opacity:1" d="M 764.961,513.752 752.126,499.083 z" id="boundary" inkscape:connector-curvature="0" />
	<path style="fill:none;stroke:red;stroke-width:1px;stroke-linecap:butt;stroke-linejoin:miter;stroke-opacity:1" d="M 768.628,601.767 750.292,601.767 z" id="boundary" inkscape:connector-curvature="0" />
	<path style="fill:none;stroke:red;stroke-width:1px;stroke-linecap:butt;stroke-linejoin:miter;stroke-opacity:1" d="M 775.963,574.262 768.628,601.767 z" id="boundary" inkscape:connector-curvature="0" />
	<path style="fill:none;stroke:red;stroke-width:1px;stroke-linecap:butt;stroke-linejoin:miter;stroke-opacity:1" d="M 764.961,513.752 775.963,537.59 z" id="boundary" inkscape:connector-curvature="0" />
	<path style="fill:none;stroke:red;stroke-width:1px;stroke-linecap:butt;stroke-linejoin:miter;stroke-opacity:1" d="M 770.462,427.571 788.799,425.738 z" id="boundary" inkscape:connector-curvature="0" />
	<path style="fill:none;stroke:red;stroke-width:1px;stroke-linecap:butt;stroke-linejoin:miter;stroke-opacity:1" d="M 803.468,409.235 821.804,400.067 z" id="boundary" inkscape:connector-curvature="0" />
	<path style="fill:none;stroke:red;stroke-width:1px;stroke-linecap:butt;stroke-linejoin:miter;stroke-opacity:1" d="M 788.799,425.738 803.468,409.235 z" id="boundary" inkscape:connector-curvature="0" />
	<path style="fill:none;stroke:red;stroke-width:1px;stroke-linecap:butt;stroke-linejoin:miter;stroke-opacity:1" d="M 840.14,390.898 821.804,400.067 z" id="boundary" inkscape:connector-curvature="0" />
	<path style="fill:none;stroke:red;stroke-width:1px;stroke-linecap:butt;stroke-linejoin:miter;stroke-opacity:1" d="M 775.963,537.59 775.963,555.926 z" id="boundary" inkscape:connector-curvature="0" />
	<path style="fill:none;stroke:red;stroke-width:1px;stroke-linecap:butt;stroke-linejoin:miter;stroke-opacity:1" d="M 775.963,555.926 775.963,574.262 z" id="boundary" inkscape:connector-curvature="0" />
	<circle cx="4" cy="660.444" r="4" fill="#0" id="circle0"/>
	<circle cx="4" cy="678.78" r="4" fill="#0" id="circle1"/>
	<circle cx="4" cy="697.116" r="4" fill="#0" id="circle2"/>
	<circle cx="4" cy="715.453" r="4" fill="#0" id="circle3"/>
	<circle cx="13.1682" cy="731.956" r="4" fill="#0" id="circle4"/>
	<circle cx="18.6691" cy="645.774" r="4" fill="#0" id="circle5"/>
	<circle cx="31.5046" cy="739.29" r="4" fill="#0" id="circle6"/>
	<circle cx="37.0055" cy="645.774" r="4" fill="#0" id="circle7"/>
	<circle cx="48.0074" cy="748.458" r="4" fill="#0" id="circle8"/>
	<circle cx="49.841" cy="348.725" r="4" fill="#0" id="circle9"/>
	<circle cx="49.841" cy="376.229" r="4" fill="#0" id="circle10"/>
	<circle cx="49.841" cy="394.566" r="4" fill="#0" id="circle11"/>
	<circle cx="49.841" cy="412.902" r="4" fill="#0" id="circle12"/>
	<circle cx="49.841" cy="431.238" r="4" fill="#0" id="circle13"/>
	<circle cx="49.841" cy="449.575" r="4" fill="#0" id="circle14"/>
	<circle cx="49.841" cy="467.911" r="4" fill="#0" id="circle15"/>
	<circle cx="49.841" cy="486.248" r="4" fill="#0" id="circle16"/>
	<circle cx="49.841" cy="504.584" r="4" fill="#0" id="circle17"/>
	<circle cx="49.841" cy="522.921" r="4" fill="#0" id="circle18"/>
	<circle cx="49.841" cy="541.257" r="4" fill="#0" id="circle19"/>
	<circle cx="49.841" cy="559.593" r="4" fill="#0" id="circle20"/>
	<circle cx="55.342" cy="645.774" r="4" fill="#0" id="circle21"/>
	<circle cx="59.0092" cy="330.388" r="4" fill="#0" id="circle22"/>
	<circle cx="59.0092" cy="576.096" r="4" fill="#0" id="circle23"/>
	<circle cx="66.3438" cy="748.458" r="4" fill="#0" id="circle24"/>
	<circle cx="68.1774" cy="592.599" r="4" fill="#0" id="circle25"/>
	<circle cx="70.0111" cy="656.776" r="4" fill="#0" id="circle26"/>
	<circle cx="73.6784" cy="315.719" r="4" fill="#0" id="circle27"/>
	<circle cx="79.1793" cy="607.268" r="4" fill="#0" id="circle28"/>
	<circle cx="79.1793" cy="673.279" r="4" fill="#0" id="circle29"/>
	<circle cx="82.8466" cy="297.383" r="4" fill="#0" id="circle30"/>
	<circle cx="84.6802" cy="748.458" r="4" fill="#0" id="circle31"/>
	<circle cx="86.5139" cy="625.604" r="4" fill="#0" id="circle32"/>
	<circle cx="95.6821" cy="275.379" r="4" fill="#0" id="circle33"/>
	<circle cx="95.6821" cy="682.447" r="4" fill="#0" id="circle34"/>
	<circle cx="101.183" cy="638.44" r="4" fill="#0" id="circle35"/>
	<circle cx="103.017" cy="748.458" r="4" fill="#0" id="circle36"/>
	<circle cx="110.351" cy="260.71" r="4" fill="#0" id="circle37"/>
	<circle cx="114.018" cy="682.447" r="4" fill="#0" id="circle38"/>
	<circle cx="119.519" cy="645.774" r="4" fill="#0" id="circle39"/>
	<circle cx="119.519" cy="739.29" r="4" fill="#0" id="circle40"/>
	<circle cx="126.854" cy="251.542" r="4" fill="#0" id="circle41"/>
	<circle cx="132.355" cy="682.447" r="4" fill="#0" id="circle42"/>
	<circle cx="137.856" cy="638.44" r="4" fill="#0" id="circle43"/>
	<circle cx="137.856" cy="739.29" r="4" fill="#0" id="circle44"/>
	<circle cx="143.357" cy="242.373" r="4" fill="#0" id="circle45"/>
	<circle cx="150.691" cy="682.447" r="4" fill="#0" id="circle46"/>
	<circle cx="156.192" cy="638.44" r="4" fill="#0" id="circle47"/>
	<circle cx="156.192" cy="737.457" r="4" fill="#0" id="circle48"/>
	<circle cx="159.86" cy="229.538" r="4" fill="#0" id="circle49"/>
	<circle cx="159.86" cy="656.776" r="4" fill="#0" id="circle50"/>
	<circle cx="174.529" cy="737.457" r="4" fill="#0" id="circle51"/>
	<circle cx="178.196" cy="220.37" r="4" fill="#0" id="circle52"/>
	<circle cx="192.865" cy="205.701" r="4" fill="#0" id="circle53"/>
	<circle cx="192.865" cy="730.122" r="4" fill="#0" id="circle54"/>
	<circle cx="211.201" cy="196.532" r="4" fill="#0" id="circle55"/>
	<circle cx="211.201" cy="730.122" r="4" fill="#0" id="circle56"/>
	<circle cx="227.704" cy="720.954" r="4" fill="#0" id="circle57"/>
	<circle cx="229.538" cy="187.364" r="4" fill="#0" id="circle58"/>
	<circle cx="246.041" cy="720.954" r="4" fill="#0" id="circle59"/>
	<circle cx="247.874" cy="187.364" r="4" fill="#0" id="circle60"/>
	<circle cx="262.543" cy="711.786" r="4" fill="#0" id="circle61"/>
	<circle cx="266.211" cy="187.364" r="4" fill="#0" id="circle62"/>
	<circle cx="280.88" cy="702.617" r="4" fill="#0" id="circle63"/>
	<circle cx="284.547" cy="187.364" r="4" fill="#0" id="circle64"/>
	<circle cx="297.383" cy="37.0055" r="4" fill="#0" id="circle65"/>
	<circle cx="297.383" cy="711.786" r="4" fill="#0" id="circle66"/>
	<circle cx="302.884" cy="178.196" r="4" fill="#0" id="circle67"/>
	<circle cx="306.551" cy="53.5083" r="4" fill="#0" id="circle68"/>
	<circle cx="312.052" cy="22.3364" r="4" fill="#0" id="circle69"/>
	<circle cx="312.052" cy="700.784" r="4" fill="#0" id="circle70"/>
	<circle cx="319.386" cy="68.1774" r="4" fill="#0" id="circle71"/>
	<circle cx="321.22" cy="178.196" r="4" fill="#0" id="circle72"/>
	<circle cx="330.388" cy="22.3364" r="4" fill="#0" id="circle73"/>
	<circle cx="330.388" cy="700.784" r="4" fill="#0" id="circle74"/>
	<circle cx="337.723" cy="60.8429" r="4" fill="#0" id="circle75"/>
	<circle cx="337.723" cy="169.028" r="4" fill="#0" id="circle76"/>
	<circle cx="348.725" cy="22.3364" r="4" fill="#0" id="circle77"/>
	<circle cx="348.725" cy="693.449" r="4" fill="#0" id="circle78"/>
	<circle cx="356.059" cy="60.8429" r="4" fill="#0" id="circle79"/>
	<circle cx="356.059" cy="169.028" r="4" fill="#0" id="circle80"/>
	<circle cx="365.227" cy="13.1682" r="4" fill="#0" id="circle81"/>
	<circle cx="365.227" cy="684.281" r="4" fill="#0" id="circle82"/>
	<circle cx="370.728" cy="71.8447" r="4" fill="#0" id="circle83"/>
	<circle cx="370.728" cy="90.1811" r="4" fill="#0" id="circle84"/>
	<circle cx="372.562" cy="159.86" r="4" fill="#0" id="circle85"/>
	<circle cx="379.896" cy="106.684" r="4" fill="#0" id="circle86"/>
	<circle cx="383.564" cy="13.1682" r="4" fill="#0" id="circle87"/>
	<circle cx="383.564" cy="684.281" r="4" fill="#0" id="circle88"/>
	<circle cx="389.065" cy="169.028" r="4" fill="#0" id="circle89"/>
	<circle cx="396.399" cy="115.852" r="4" fill="#0" id="circle90"/>
	<circle cx="398.233" cy="134.189" r="4" fill="#0" id="circle91"/>
	<circle cx="398.233" cy="152.525" r="4" fill="#0" id="circle92"/>
	<circle cx="400.067" cy="675.113" r="4" fill="#0" id="circle93"/>
	<circle cx="401.9" cy="13.1682" r="4" fill="#0" id="circle94"/>
	<circle cx="407.401" cy="169.028" r="4" fill="#0" id="circle95"/>
	<circle cx="418.403" cy="4" r="4" fill="#0" id="circle96"/>
	<circle cx="418.403" cy="88.3475" r="4" fill="#0" id="circle97"/>
	<circle cx="418.403" cy="675.113" r="4" fill="#0" id="circle98"/>
	<circle cx="427.571" cy="104.85" r="4" fill="#0" id="circle99"/>
	<circle cx="427.571" cy="143.357" r="4" fill="#0" id="circle100"/>
	<circle cx="436.739" cy="4" r="4" fill="#0" id="circle101"/>
	<circle cx="436.739" cy="88.3475" r="4" fill="#0" id="circle102"/>
	<circle cx="436.739" cy="121.353" r="4" fill="#0" id="circle103"/>
	<circle cx="436.739" cy="159.86" r="4" fill="#0" id="circle104"/>
	<circle cx="436.739" cy="665.945" r="4" fill="#0" id="circle105"/>
	<circle cx="445.908" cy="647.608" r="4" fill="#0" id="circle106"/>
	<circle cx="455.076" cy="9.50092" r="4" fill="#0" id="circle107"/>
	<circle cx="455.076" cy="88.3475" r="4" fill="#0" id="circle108"/>
	<circle cx="455.076" cy="154.359" r="4" fill="#0" id="circle109"/>
	<circle cx="462.41" cy="656.776" r="4" fill="#0" id="circle110"/>
	<circle cx="464.244" cy="70.0111" r="4" fill="#0" id="circle111"/>
	<circle cx="471.579" cy="18.6691" r="4" fill="#0" id="circle112"/>
	<circle cx="473.412" cy="37.0055" r="4" fill="#0" id="circle113"/>
	<circle cx="473.412" cy="159.86" r="4" fill="#0" id="circle114"/>
	<circle cx="478.913" cy="57.1756" r="4" fill="#0" id="circle115"/>
	<circle cx="480.747" cy="656.776" r="4" fill="#0" id="circle116"/>
	<circle cx="491.749" cy="159.86" r="4" fill="#0" id="circle117"/>
	<circle cx="499.083" cy="656.776" r="4" fill="#0" id="circle118"/>
	<circle cx="510.085" cy="159.86" r="4" fill="#0" id="circle119"/>
	<circle cx="517.42" cy="656.776" r="4" fill="#0" id="circle120"/>
	<circle cx="528.421" cy="159.86" r="4" fill="#0" id="circle121"/>
	<circle cx="535.756" cy="656.776" r="4" fill="#0" id="circle122"/>
	<circle cx="546.758" cy="159.86" r="4" fill="#0" id="circle123"/>
	<circle cx="554.092" cy="656.776" r="4" fill="#0" id="circle124"/>
	<circle cx="565.094" cy="159.86" r="4" fill="#0" id="circle125"/>
	<circle cx="572.429" cy="651.275" r="4" fill="#0" id="circle126"/>
	<circle cx="583.431" cy="159.86" r="4" fill="#0" id="circle127"/>
	<circle cx="590.765" cy="647.608" r="4" fill="#0" id="circle128"/>
	<circle cx="601.767" cy="165.36" r="4" fill="#0" id="circle129"/>
	<circle cx="609.102" cy="647.608" r="4" fill="#0" id="circle130"/>
	<circle cx="618.27" cy="174.529" r="4" fill="#0" id="circle131"/>
	<circle cx="627.438" cy="642.107" r="4" fill="#0" id="circle132"/>
	<circle cx="629.272" cy="271.712" r="4" fill="#0" id="circle133"/>
	<circle cx="636.606" cy="178.196" r="4" fill="#0" id="circle134"/>
	<circle cx="638.44" cy="288.214" r="4" fill="#0" id="circle135"/>
	<circle cx="645.774" cy="262.543" r="4" fill="#0" id="circle136"/>
	<circle cx="645.774" cy="632.939" r="4" fill="#0" id="circle137"/>
	<circle cx="654.943" cy="178.196" r="4" fill="#0" id="circle138"/>
	<circle cx="656.776" cy="288.214" r="4" fill="#0" id="circle139"/>
	<circle cx="664.111" cy="262.543" r="4" fill="#0" id="circle140"/>
	<circle cx="664.111" cy="629.272" r="4" fill="#0" id="circle141"/>
	<circle cx="673.279" cy="181.863" r="4" fill="#0" id="circle142"/>
	<circle cx="675.113" cy="200.2" r="4" fill="#0" id="circle143"/>
	<circle cx="675.113" cy="225.871" r="4" fill="#0" id="circle144"/>
	<circle cx="675.113" cy="244.207" r="4" fill="#0" id="circle145"/>
	<circle cx="675.113" cy="288.214" r="4" fill="#0" id="circle146"/>
	<circle cx="682.447" cy="623.771" r="4" fill="#0" id="circle147"/>
	<circle cx="693.449" cy="288.214" r="4" fill="#0" id="circle148"/>
	<circle cx="700.784" cy="623.771" r="4" fill="#0" id="circle149"/>
	<circle cx="702.617" cy="464.244" r="4" fill="#0" id="circle150"/>
	<circle cx="706.285" cy="482.58" r="4" fill="#0" id="circle151"/>
	<circle cx="711.786" cy="288.214" r="4" fill="#0" id="circle152"/>
	<circle cx="715.453" cy="499.083" r="4" fill="#0" id="circle153"/>
	<circle cx="715.453" cy="610.935" r="4" fill="#0" id="circle154"/>
	<circle cx="720.954" cy="455.076" r="4" fill="#0" id="circle155"/>
	<circle cx="730.122" cy="288.214" r="4" fill="#0" id="circle156"/>
	<circle cx="733.789" cy="499.083" r="4" fill="#0" id="circle157"/>
	<circle cx="733.789" cy="610.935" r="4" fill="#0" id="circle158"/>
	<circle cx="737.457" cy="445.908" r="4" fill="#0" id="circle159"/>
	<circle cx="748.458" cy="288.214" r="4" fill="#0" id="circle160"/>
	<circle cx="750.292" cy="601.767" r="4" fill="#0" id="circle161"/>
	<circle cx="752.126" cy="499.083" r="4" fill="#0" id="circle162"/>
	<circle cx="753.959" cy="436.739" r="4" fill="#0" id="circle163"/>
	<circle cx="764.961" cy="513.752" r="4" fill="#0" id="circle164"/>
	<circle cx="766.795" cy="288.214" r="4" fill="#0" id="circle165"/>
	<circle cx="768.628" cy="601.767" r="4" fill="#0" id="circle166"/>
	<circle cx="770.462" cy="427.571" r="4" fill="#0" id="circle167"/>
	<circle cx="775.963" cy="537.59" r="4" fill="#0" id="circle168"/>
	<circle cx="775.963" cy="555.926" r="4" fill="#0" id="circle169"/>
	<circle cx="775.963" cy="574.262" r="4" fill="#0" id="circle170"/>
	<circle cx="785.131" cy="288.214" r="4" fill="#0" id="circle171"/>
	<circle cx="788.799" cy="425.738" r="4" fill="#0" id="circle172"/>
	<circle cx="803.468" cy="288.214" r="4" fill="#0" id="circle173"/>
	<circle cx="803.468" cy="409.235" r="4" fill="#0" id="circle174"/>
	<circle cx="821.804" cy="288.214" r="4" fill="#0" id="circle175"/>
	<circle cx="821.804" cy="400.067" r="4" fill="#0" id="circle176"/>
	<circle cx="840.14" cy="288.214" r="4" fill="#0" id="circle177"/>
	<circle cx="840.14" cy="390.898" r="4" fill="#0" id="circle178"/>
	<circle cx="858.477" cy="288.214" r="4" fill="#0" id="circle179"/>
	<circle cx="858.477" cy="381.73" r="4" fill="#0" id="circle180"/>
	<circle cx="876.813" cy="288.214" r="4" fill="#0" id="circle181"/>
	<circle cx="876.813" cy="372.562" r="4" fill="#0" id="circle182"/>
	<circle cx="895.15" cy="288.214" r="4" fill="#0" id="circle183"/>
	<circle cx="895.15" cy="363.394" r="4" fill="#0" id="circle184"/>
	<circle cx="913.486" cy="288.214" r="4" fill="#0" id="circle185"/>
	<circle cx="913.486" cy="354.226" r="4" fill="#0" id="circle186"/>
	<circle cx="931.823" cy="288.214" r="4" fill="#0" id="circle187"/>
	<circle cx="931.823" cy="354.226" r="4" fill="#0" id="circle188"/>
	<circle cx="948.325" cy="345.057" r="4" fill="#0" id="circle189"/>
	<circle cx="950.159" cy="288.214" r="4" fill="#0" id="circle190"/>
	<circle cx="966.662" cy="345.057" r="4" fill="#0" id="circle191"/>
	<circle cx="968.495" cy="282.713" r="4" fill="#0" id="circle192"/>
	<circle cx="981.331" cy="334.055" r="4" fill="#0" id="circle193"/>
	<circle cx="986.832" cy="284.547" r="4" fill="#0" id="circle194"/>
	<circle cx="996" cy="301.05" r="4" fill="#0" id="circle195"/>
	<circle cx="996" cy="319.386" r="4" fill="#0" id="circle196"/>
	</g>
</svg>