<?xml version="1.0" encoding="UTF-8" standalone="no"?>
<!-- Created with CurveBenchmark -->
<svg
	xmlns:dc="http://purl.org/dc/elements/1.1/"
	xmlns:cc="http://creativecommons.org/ns#"
	xmlns:rdf="http://www.w3.org/1999/02/22-rdf-syntax-ns#"
	xmlns:svg="http://www.w3.org/2000/svg"
	xmlns="http://www.w3.org/2000/svg"
	xmlns:sodipodi="http://sodipodi.sourceforge.net/DTD/sodipodi-0.dtd"
	xmlns:inkscape="http://www.inkscape.org/namespaces/inkscape"
	width="1000"
	height="1000"
	id="svg2"
	version="1.1"
	sodipodi:docname="manifold/ccrust-fish065.png.txt">
<defs
	id="defs4" />
<metadata
	id="metadata7">
	<rdf:RDF>
		<cc:Work
			rdf:about="">
			<dc:format>image/svg+xml</dc:format>
			<dc:type
				rdf:resource="http://purl.org/dc/dcmitype/StillImage" />
			<dc:title></dc:title>
		</cc:Work>
	</rdf:RDF>
</metadata>
<g
	inkscape:label="Layer 1"
	inkscape:groupmode="layer"
	id="layer1">
	<path style="fill:none;stroke:red;stroke-width:1px;stroke-linecap:butt;stroke-linejoin:miter;stroke-opacity:1" d="M 213.157,254.988 159.373,284.867 z" id="boundary" inkscape:connector-curvature="0" />
	<path style="fill:none;stroke:red;stroke-width:1px;stroke-linecap:butt;stroke-linejoin:miter;stroke-opacity:1" d="M 159.373,284.867 99.6145,308.771 z" id="boundary" inkscape:connector-curvature="0" />
	<path style="fill:none;stroke:red;stroke-width:1px;stroke-linecap:butt;stroke-linejoin:miter;stroke-opacity:1" d="M 15.9518,535.855 4,476.096 z" id="boundary" inkscape:connector-curvature="0" />
	<path style="fill:none;stroke:red;stroke-width:1px;stroke-linecap:butt;stroke-linejoin:miter;stroke-opacity:1" d="M 4,476.096 27.9036,416.337 z" id="boundary" inkscape:connector-curvature="0" />
	<path style="fill:none;stroke:red;stroke-width:1px;stroke-linecap:butt;stroke-linejoin:miter;stroke-opacity:1" d="M 51.8072,344.627 99.6145,308.771 z" id="boundary" inkscape:connector-curvature="0" />
	<path style="fill:none;stroke:red;stroke-width:1px;stroke-linecap:butt;stroke-linejoin:miter;stroke-opacity:1" d="M 27.9036,416.337 51.8072,344.627 z" id="boundary" inkscape:connector-curvature="0" />
	<path style="fill:none;stroke:red;stroke-width:1px;stroke-linecap:butt;stroke-linejoin:miter;stroke-opacity:1" d="M 356.578,63.759 380.482,4 z" id="boundary" inkscape:connector-curvature="0" />
	<path style="fill:none;stroke:red;stroke-width:1px;stroke-linecap:butt;stroke-linejoin:miter;stroke-opacity:1" d="M 380.482,4 440.241,21.9277 z" id="boundary" inkscape:connector-curvature="0" />
	<path style="fill:none;stroke:red;stroke-width:1px;stroke-linecap:butt;stroke-linejoin:miter;stroke-opacity:1" d="M 356.578,63.759 326.699,117.542 z" id="boundary" inkscape:connector-curvature="0" />
	<path style="fill:none;stroke:red;stroke-width:1px;stroke-linecap:butt;stroke-linejoin:miter;stroke-opacity:1" d="M 440.241,21.9277 488.048,57.7831 z" id="boundary" inkscape:connector-curvature="0" />
	<path style="fill:none;stroke:red;stroke-width:1px;stroke-linecap:butt;stroke-linejoin:miter;stroke-opacity:1" d="M 326.699,117.542 326.699,177.301 z" id="boundary" inkscape:connector-curvature="0" />
	<path style="fill:none;stroke:red;stroke-width:1px;stroke-linecap:butt;stroke-linejoin:miter;stroke-opacity:1" d="M 326.699,177.301 266.94,225.108 z" id="boundary" inkscape:connector-curvature="0" />
	<path style="fill:none;stroke:red;stroke-width:1px;stroke-linecap:butt;stroke-linejoin:miter;stroke-opacity:1" d="M 266.94,225.108 213.157,254.988 z" id="boundary" inkscape:connector-curvature="0" />
	<path style="fill:none;stroke:red;stroke-width:1px;stroke-linecap:butt;stroke-linejoin:miter;stroke-opacity:1" d="M 488.048,57.7831 523.904,105.59 z" id="boundary" inkscape:connector-curvature="0" />
	<path style="fill:none;stroke:red;stroke-width:1px;stroke-linecap:butt;stroke-linejoin:miter;stroke-opacity:1" d="M 57.7831,649.398 27.9036,595.614 z" id="boundary" inkscape:connector-curvature="0" />
	<path style="fill:none;stroke:red;stroke-width:1px;stroke-linecap:butt;stroke-linejoin:miter;stroke-opacity:1" d="M 105.59,685.253 57.7831,649.398 z" id="boundary" inkscape:connector-curvature="0" />
	<path style="fill:none;stroke:red;stroke-width:1px;stroke-linecap:butt;stroke-linejoin:miter;stroke-opacity:1" d="M 105.59,685.253 159.373,715.133 z" id="boundary" inkscape:connector-curvature="0" />
	<path style="fill:none;stroke:red;stroke-width:1px;stroke-linecap:butt;stroke-linejoin:miter;stroke-opacity:1" d="M 27.9036,595.614 15.9518,535.855 z" id="boundary" inkscape:connector-curvature="0" />
	<path style="fill:none;stroke:red;stroke-width:1px;stroke-linecap:butt;stroke-linejoin:miter;stroke-opacity:1" d="M 213.157,745.012 159.373,715.133 z" id="boundary" inkscape:connector-curvature="0" />
	<path style="fill:none;stroke:red;stroke-width:1px;stroke-linecap:butt;stroke-linejoin:miter;stroke-opacity:1" d="M 231.084,834.651 231.084,894.41 z" id="boundary" inkscape:connector-curvature="0" />
	<path style="fill:none;stroke:red;stroke-width:1px;stroke-linecap:butt;stroke-linejoin:miter;stroke-opacity:1" d="M 231.084,834.651 213.157,745.012 z" id="boundary" inkscape:connector-curvature="0" />
	<path style="fill:none;stroke:red;stroke-width:1px;stroke-linecap:butt;stroke-linejoin:miter;stroke-opacity:1" d="M 231.084,894.41 231.084,954.169 z" id="boundary" inkscape:connector-curvature="0" />
	<path style="fill:none;stroke:red;stroke-width:1px;stroke-linecap:butt;stroke-linejoin:miter;stroke-opacity:1" d="M 356.578,882.458 380.482,822.699 z" id="boundary" inkscape:connector-curvature="0" />
	<path style="fill:none;stroke:red;stroke-width:1px;stroke-linecap:butt;stroke-linejoin:miter;stroke-opacity:1" d="M 380.482,822.699 434.265,852.578 z" id="boundary" inkscape:connector-curvature="0" />
	<path style="fill:none;stroke:red;stroke-width:1px;stroke-linecap:butt;stroke-linejoin:miter;stroke-opacity:1" d="M 356.578,882.458 320.723,942.217 z" id="boundary" inkscape:connector-curvature="0" />
	<path style="fill:none;stroke:red;stroke-width:1px;stroke-linecap:butt;stroke-linejoin:miter;stroke-opacity:1" d="M 470.12,900.386 434.265,852.578 z" id="boundary" inkscape:connector-curvature="0" />
	<path style="fill:none;stroke:red;stroke-width:1px;stroke-linecap:butt;stroke-linejoin:miter;stroke-opacity:1" d="M 278.892,990.024 320.723,942.217 z" id="boundary" inkscape:connector-curvature="0" />
	<path style="fill:none;stroke:red;stroke-width:1px;stroke-linecap:butt;stroke-linejoin:miter;stroke-opacity:1" d="M 278.892,990.024 231.084,954.169 z" id="boundary" inkscape:connector-curvature="0" />
	<path style="fill:none;stroke:red;stroke-width:1px;stroke-linecap:butt;stroke-linejoin:miter;stroke-opacity:1" d="M 470.12,900.386 517.928,942.217 z" id="boundary" inkscape:connector-curvature="0" />
	<path style="fill:none;stroke:red;stroke-width:1px;stroke-linecap:butt;stroke-linejoin:miter;stroke-opacity:1" d="M 517.928,942.217 565.735,984.048 z" id="boundary" inkscape:connector-curvature="0" />
	<path style="fill:none;stroke:red;stroke-width:1px;stroke-linecap:butt;stroke-linejoin:miter;stroke-opacity:1" d="M 535.855,762.94 571.711,810.747 z" id="boundary" inkscape:connector-curvature="0" />
	<path style="fill:none;stroke:red;stroke-width:1px;stroke-linecap:butt;stroke-linejoin:miter;stroke-opacity:1" d="M 523.904,105.59 565.735,153.398 z" id="boundary" inkscape:connector-curvature="0" />
	<path style="fill:none;stroke:red;stroke-width:1px;stroke-linecap:butt;stroke-linejoin:miter;stroke-opacity:1" d="M 703.181,165.349 643.422,171.325 z" id="boundary" inkscape:connector-curvature="0" />
	<path style="fill:none;stroke:red;stroke-width:1px;stroke-linecap:butt;stroke-linejoin:miter;stroke-opacity:1" d="M 703.181,165.349 739.036,213.157 z" id="boundary" inkscape:connector-curvature="0" />
	<path style="fill:none;stroke:red;stroke-width:1px;stroke-linecap:butt;stroke-linejoin:miter;stroke-opacity:1" d="M 643.422,171.325 595.614,207.181 z" id="boundary" inkscape:connector-curvature="0" />
	<path style="fill:none;stroke:red;stroke-width:1px;stroke-linecap:butt;stroke-linejoin:miter;stroke-opacity:1" d="M 595.614,207.181 565.735,153.398 z" id="boundary" inkscape:connector-curvature="0" />
	<path style="fill:none;stroke:red;stroke-width:1px;stroke-linecap:butt;stroke-linejoin:miter;stroke-opacity:1" d="M 739.036,213.157 762.94,272.916 z" id="boundary" inkscape:connector-curvature="0" />
	<path style="fill:none;stroke:red;stroke-width:1px;stroke-linecap:butt;stroke-linejoin:miter;stroke-opacity:1" d="M 762.94,272.916 786.843,332.675 z" id="boundary" inkscape:connector-curvature="0" />
	<path style="fill:none;stroke:red;stroke-width:1px;stroke-linecap:butt;stroke-linejoin:miter;stroke-opacity:1" d="M 858.554,338.651 906.361,290.843 z" id="boundary" inkscape:connector-curvature="0" />
	<path style="fill:none;stroke:red;stroke-width:1px;stroke-linecap:butt;stroke-linejoin:miter;stroke-opacity:1" d="M 960.145,260.964 990.024,314.747 z" id="boundary" inkscape:connector-curvature="0" />
	<path style="fill:none;stroke:red;stroke-width:1px;stroke-linecap:butt;stroke-linejoin:miter;stroke-opacity:1" d="M 906.361,290.843 960.145,260.964 z" id="boundary" inkscape:connector-curvature="0" />
	<path style="fill:none;stroke:red;stroke-width:1px;stroke-linecap:butt;stroke-linejoin:miter;stroke-opacity:1" d="M 990.024,314.747 978.072,404.386 z" id="boundary" inkscape:connector-curvature="0" />
	<path style="fill:none;stroke:red;stroke-width:1px;stroke-linecap:butt;stroke-linejoin:miter;stroke-opacity:1" d="M 978.072,404.386 978.072,464.145 z" id="boundary" inkscape:connector-curvature="0" />
	<path style="fill:none;stroke:red;stroke-width:1px;stroke-linecap:butt;stroke-linejoin:miter;stroke-opacity:1" d="M 816.723,386.458 858.554,338.651 z" id="boundary" inkscape:connector-curvature="0" />
	<path style="fill:none;stroke:red;stroke-width:1px;stroke-linecap:butt;stroke-linejoin:miter;stroke-opacity:1" d="M 978.072,464.145 978.072,523.904 z" id="boundary" inkscape:connector-curvature="0" />
	<path style="fill:none;stroke:red;stroke-width:1px;stroke-linecap:butt;stroke-linejoin:miter;stroke-opacity:1" d="M 786.843,332.675 816.723,386.458 z" id="boundary" inkscape:connector-curvature="0" />
	<path style="fill:none;stroke:red;stroke-width:1px;stroke-linecap:butt;stroke-linejoin:miter;stroke-opacity:1" d="M 601.59,756.964 661.349,768.916 z" id="boundary" inkscape:connector-curvature="0" />
	<path style="fill:none;stroke:red;stroke-width:1px;stroke-linecap:butt;stroke-linejoin:miter;stroke-opacity:1" d="M 786.843,679.277 774.892,739.036 z" id="boundary" inkscape:connector-curvature="0" />
	<path style="fill:none;stroke:red;stroke-width:1px;stroke-linecap:butt;stroke-linejoin:miter;stroke-opacity:1" d="M 774.892,739.036 721.108,792.819 z" id="boundary" inkscape:connector-curvature="0" />
	<path style="fill:none;stroke:red;stroke-width:1px;stroke-linecap:butt;stroke-linejoin:miter;stroke-opacity:1" d="M 721.108,792.819 661.349,768.916 z" id="boundary" inkscape:connector-curvature="0" />
	<path style="fill:none;stroke:red;stroke-width:1px;stroke-linecap:butt;stroke-linejoin:miter;stroke-opacity:1" d="M 589.639,876.482 607.566,936.241 z" id="boundary" inkscape:connector-curvature="0" />
	<path style="fill:none;stroke:red;stroke-width:1px;stroke-linecap:butt;stroke-linejoin:miter;stroke-opacity:1" d="M 571.711,810.747 589.639,876.482 z" id="boundary" inkscape:connector-curvature="0" />
	<path style="fill:none;stroke:red;stroke-width:1px;stroke-linecap:butt;stroke-linejoin:miter;stroke-opacity:1" d="M 607.566,936.241 565.735,984.048 z" id="boundary" inkscape:connector-curvature="0" />
	<path style="fill:none;stroke:red;stroke-width:1px;stroke-linecap:butt;stroke-linejoin:miter;stroke-opacity:1" d="M 798.795,607.566 846.602,649.398 z" id="boundary" inkscape:connector-curvature="0" />
	<path style="fill:none;stroke:red;stroke-width:1px;stroke-linecap:butt;stroke-linejoin:miter;stroke-opacity:1" d="M 978.072,583.663 990.024,643.422 z" id="boundary" inkscape:connector-curvature="0" />
	<path style="fill:none;stroke:red;stroke-width:1px;stroke-linecap:butt;stroke-linejoin:miter;stroke-opacity:1" d="M 978.072,583.663 978.072,523.904 z" id="boundary" inkscape:connector-curvature="0" />
	<path style="fill:none;stroke:red;stroke-width:1px;stroke-linecap:butt;stroke-linejoin:miter;stroke-opacity:1" d="M 888.434,697.205 846.602,649.398 z" id="boundary" inkscape:connector-curvature="0" />
	<path style="fill:none;stroke:red;stroke-width:1px;stroke-linecap:butt;stroke-linejoin:miter;stroke-opacity:1" d="M 888.434,697.205 936.241,733.06 z" id="boundary" inkscape:connector-curvature="0" />
	<path style="fill:none;stroke:red;stroke-width:1px;stroke-linecap:butt;stroke-linejoin:miter;stroke-opacity:1" d="M 936.241,733.06 996,703.181 z" id="boundary" inkscape:connector-curvature="0" />
	<path style="fill:none;stroke:red;stroke-width:1px;stroke-linecap:butt;stroke-linejoin:miter;stroke-opacity:1" d="M 990.024,643.422 996,703.181 z" id="boundary" inkscape:connector-curvature="0" />
	<circle cx="4" cy="476.096" r="4" fill="#0" id="circle0"/>
	<circle cx="15.9518" cy="535.855" r="4" fill="#0" id="circle1"/>
	<circle cx="27.9036" cy="416.337" r="4" fill="#0" id="circle2"/>
	<circle cx="27.9036" cy="595.614" r="4" fill="#0" id="circle3"/>
	<circle cx="51.8072" cy="344.627" r="4" fill="#0" id="circle4"/>
	<circle cx="57.7831" cy="649.398" r="4" fill="#0" id="circle5"/>
	<circle cx="99.6145" cy="308.771" r="4" fill="#0" id="circle6"/>
	<circle cx="105.59" cy="685.253" r="4" fill="#0" id="circle7"/>
	<circle cx="159.373" cy="284.867" r="4" fill="#0" id="circle8"/>
	<circle cx="159.373" cy="715.133" r="4" fill="#0" id="circle9"/>
	<circle cx="213.157" cy="254.988" r="4" fill="#0" id="circle10"/>
	<circle cx="213.157" cy="745.012" r="4" fill="#0" id="circle11"/>
	<circle cx="231.084" cy="834.651" r="4" fill="#0" id="circle12"/>
	<circle cx="231.084" cy="894.41" r="4" fill="#0" id="circle13"/>
	<circle cx="231.084" cy="954.169" r="4" fill="#0" id="circle14"/>
	<circle cx="266.94" cy="225.108" r="4" fill="#0" id="circle15"/>
	<circle cx="278.892" cy="990.024" r="4" fill="#0" id="circle16"/>
	<circle cx="320.723" cy="942.217" r="4" fill="#0" id="circle17"/>
	<circle cx="326.699" cy="117.542" r="4" fill="#0" id="circle18"/>
	<circle cx="326.699" cy="177.301" r="4" fill="#0" id="circle19"/>
	<circle cx="356.578" cy="63.759" r="4" fill="#0" id="circle20"/>
	<circle cx="356.578" cy="882.458" r="4" fill="#0" id="circle21"/>
	<circle cx="380.482" cy="4" r="4" fill="#0" id="circle22"/>
	<circle cx="380.482" cy="822.699" r="4" fill="#0" id="circle23"/>
	<circle cx="434.265" cy="852.578" r="4" fill="#0" id="circle24"/>
	<circle cx="440.241" cy="21.9277" r="4" fill="#0" id="circle25"/>
	<circle cx="470.12" cy="900.386" r="4" fill="#0" id="circle26"/>
	<circle cx="488.048" cy="57.7831" r="4" fill="#0" id="circle27"/>
	<circle cx="517.928" cy="942.217" r="4" fill="#0" id="circle28"/>
	<circle cx="523.904" cy="105.59" r="4" fill="#0" id="circle29"/>
	<circle cx="535.855" cy="762.94" r="4" fill="#0" id="circle30"/>
	<circle cx="565.735" cy="153.398" r="4" fill="#0" id="circle31"/>
	<circle cx="565.735" cy="984.048" r="4" fill="#0" id="circle32"/>
	<circle cx="571.711" cy="810.747" r="4" fill="#0" id="circle33"/>
	<circle cx="589.639" cy="876.482" r="4" fill="#0" id="circle34"/>
	<circle cx="595.614" cy="207.181" r="4" fill="#0" id="circle35"/>
	<circle cx="601.59" cy="756.964" r="4" fill="#0" id="circle36"/>
	<circle cx="607.566" cy="936.241" r="4" fill="#0" id="circle37"/>
	<circle cx="643.422" cy="171.325" r="4" fill="#0" id="circle38"/>
	<circle cx="661.349" cy="768.916" r="4" fill="#0" id="circle39"/>
	<circle cx="703.181" cy="165.349" r="4" fill="#0" id="circle40"/>
	<circle cx="721.108" cy="792.819" r="4" fill="#0" id="circle41"/>
	<circle cx="739.036" cy="213.157" r="4" fill="#0" id="circle42"/>
	<circle cx="762.94" cy="272.916" r="4" fill="#0" id="circle43"/>
	<circle cx="774.892" cy="739.036" r="4" fill="#0" id="circle44"/>
	<circle cx="786.843" cy="332.675" r="4" fill="#0" id="circle45"/>
	<circle cx="786.843" cy="679.277" r="4" fill="#0" id="circle46"/>
	<circle cx="798.795" cy="607.566" r="4" fill="#0" id="circle47"/>
	<circle cx="816.723" cy="386.458" r="4" fill="#0" id="circle48"/>
	<circle cx="846.602" cy="649.398" r="4" fill="#0" id="circle49"/>
	<circle cx="858.554" cy="338.651" r="4" fill="#0" id="circle50"/>
	<circle cx="888.434" cy="697.205" r="4" fill="#0" id="circle51"/>
	<circle cx="906.361" cy="290.843" r="4" fill="#0" id="circle52"/>
	<circle cx="936.241" cy="733.06" r="4" fill="#0" id="circle53"/>
	<circle cx="960.145" cy="260.964" r="4" fill="#0" id="circle54"/>
	<circle cx="978.072" cy="404.386" r="4" fill="#0" id="circle55"/>
	<circle cx="978.072" cy="464.145" r="4" fill="#0" id="circle56"/>
	<circle cx="978.072" cy="523.904" r="4" fill="#0" id="circle57"/>
	<circle cx="978.072" cy="583.663" r="4" fill="#0" id="circle58"/>
	<circle cx="990.024" cy="314.747" r="4" fill="#0" id="circle59"/>
	<circle cx="990.024" cy="643.422" r="4" fill="#0" id="circle60"/>
	<circle cx="996" cy="703.181" r="4" fill="#0" id="circle61"/>
	</g>
</svg>