<?xml version="1.0" encoding="UTF-8" standalone="no"?>
<!-- Created with CurveBenchmark -->
<svg
	xmlns:dc="http://purl.org/dc/elements/1.1/"
	xmlns:cc="http://creativecommons.org/ns#"
	xmlns:rdf="http://www.w3.org/1999/02/22-rdf-syntax-ns#"
	xmlns:svg="http://www.w3.org/2000/svg"
	xmlns="http://www.w3.org/2000/svg"
	xmlns:sodipodi="http://sodipodi.sourceforge.net/DTD/sodipodi-0.dtd"
	xmlns:inkscape="http://www.inkscape.org/namespaces/inkscape"
	width="1000"
	height="1000"
	id="svg2"
	version="1.1"
	sodipodi:docname="manifold/ccrust-cat31.png.txt">
<defs
	id="defs4" />
<metadata
	id="metadata7">
	<rdf:RDF>
		<cc:Work
			rdf:about="">
			<dc:format>image/svg+xml</dc:format>
			<dc:type
				rdf:resource="http://purl.org/dc/dcmitype/StillImage" />
			<dc:title></dc:title>
		</cc:Work>
	</rdf:RDF>
</metadata>
<g
	inkscape:label="Layer 1"
	inkscape:groupmode="layer"
	id="layer1">
	<path style="fill:none;stroke:red;stroke-width:1px;stroke-linecap:butt;stroke-linejoin:miter;stroke-opacity:1" d="M 53.1246,70.5559 40.4473,83.2332 z" id="boundary" inkscape:connector-curvature="0" />
	<path style="fill:none;stroke:red;stroke-width:1px;stroke-linecap:butt;stroke-linejoin:miter;stroke-opacity:1" d="M 67.3866,23.016 59.4633,8.75399 z" id="boundary" inkscape:connector-curvature="0" />
	<path style="fill:none;stroke:red;stroke-width:1px;stroke-linecap:butt;stroke-linejoin:miter;stroke-opacity:1" d="M 59.4633,8.75399 75.3099,4 z" id="boundary" inkscape:connector-curvature="0" />
	<path style="fill:none;stroke:red;stroke-width:1px;stroke-linecap:butt;stroke-linejoin:miter;stroke-opacity:1" d="M 67.3866,23.016 67.3866,38.8626 z" id="boundary" inkscape:connector-curvature="0" />
	<path style="fill:none;stroke:red;stroke-width:1px;stroke-linecap:butt;stroke-linejoin:miter;stroke-opacity:1" d="M 4,143.45 4,127.604 z" id="boundary" inkscape:connector-curvature="0" />
	<path style="fill:none;stroke:red;stroke-width:1px;stroke-linecap:butt;stroke-linejoin:miter;stroke-opacity:1" d="M 4,127.604 16.6773,114.927 z" id="boundary" inkscape:connector-curvature="0" />
	<path style="fill:none;stroke:red;stroke-width:1px;stroke-linecap:butt;stroke-linejoin:miter;stroke-opacity:1" d="M 27.77,95.9105 16.6773,114.927 z" id="boundary" inkscape:connector-curvature="0" />
	<path style="fill:none;stroke:red;stroke-width:1px;stroke-linecap:butt;stroke-linejoin:miter;stroke-opacity:1" d="M 40.4473,83.2332 27.77,95.9105 z" id="boundary" inkscape:connector-curvature="0" />
	<path style="fill:none;stroke:red;stroke-width:1px;stroke-linecap:butt;stroke-linejoin:miter;stroke-opacity:1" d="M 53.1246,70.5559 68.9712,62.6326 z" id="boundary" inkscape:connector-curvature="0" />
	<path style="fill:none;stroke:red;stroke-width:1px;stroke-linecap:butt;stroke-linejoin:miter;stroke-opacity:1" d="M 87.9872,13.508 100.665,24.6006 z" id="boundary" inkscape:connector-curvature="0" />
	<path style="fill:none;stroke:red;stroke-width:1px;stroke-linecap:butt;stroke-linejoin:miter;stroke-opacity:1" d="M 111.757,37.278 100.665,24.6006 z" id="boundary" inkscape:connector-curvature="0" />
	<path style="fill:none;stroke:red;stroke-width:1px;stroke-linecap:butt;stroke-linejoin:miter;stroke-opacity:1" d="M 67.3866,38.8626 68.9712,62.6326 z" id="boundary" inkscape:connector-curvature="0" />
	<path style="fill:none;stroke:red;stroke-width:1px;stroke-linecap:butt;stroke-linejoin:miter;stroke-opacity:1" d="M 140.281,51.5399 124.435,48.3706 z" id="boundary" inkscape:connector-curvature="0" />
	<path style="fill:none;stroke:red;stroke-width:1px;stroke-linecap:butt;stroke-linejoin:miter;stroke-opacity:1" d="M 124.435,48.3706 111.757,37.278 z" id="boundary" inkscape:connector-curvature="0" />
	<path style="fill:none;stroke:red;stroke-width:1px;stroke-linecap:butt;stroke-linejoin:miter;stroke-opacity:1" d="M 87.9872,13.508 75.3099,4 z" id="boundary" inkscape:connector-curvature="0" />
	<path style="fill:none;stroke:red;stroke-width:1px;stroke-linecap:butt;stroke-linejoin:miter;stroke-opacity:1" d="M 23.016,170.39 11.9233,157.712 z" id="boundary" inkscape:connector-curvature="0" />
	<path style="fill:none;stroke:red;stroke-width:1px;stroke-linecap:butt;stroke-linejoin:miter;stroke-opacity:1" d="M 11.9233,157.712 4,143.45 z" id="boundary" inkscape:connector-curvature="0" />
	<path style="fill:none;stroke:red;stroke-width:1px;stroke-linecap:butt;stroke-linejoin:miter;stroke-opacity:1" d="M 35.6933,179.898 49.9553,187.821 z" id="boundary" inkscape:connector-curvature="0" />
	<path style="fill:none;stroke:red;stroke-width:1px;stroke-linecap:butt;stroke-linejoin:miter;stroke-opacity:1" d="M 65.8019,187.821 49.9553,187.821 z" id="boundary" inkscape:connector-curvature="0" />
	<path style="fill:none;stroke:red;stroke-width:1px;stroke-linecap:butt;stroke-linejoin:miter;stroke-opacity:1" d="M 65.8019,187.821 80.0639,195.744 z" id="boundary" inkscape:connector-curvature="0" />
	<path style="fill:none;stroke:red;stroke-width:1px;stroke-linecap:butt;stroke-linejoin:miter;stroke-opacity:1" d="M 95.9105,195.744 80.0639,195.744 z" id="boundary" inkscape:connector-curvature="0" />
	<path style="fill:none;stroke:red;stroke-width:1px;stroke-linecap:butt;stroke-linejoin:miter;stroke-opacity:1" d="M 35.6933,179.898 23.016,170.39 z" id="boundary" inkscape:connector-curvature="0" />
	<path style="fill:none;stroke:red;stroke-width:1px;stroke-linecap:butt;stroke-linejoin:miter;stroke-opacity:1" d="M 126.019,210.006 133.942,224.268 z" id="boundary" inkscape:connector-curvature="0" />
	<path style="fill:none;stroke:red;stroke-width:1px;stroke-linecap:butt;stroke-linejoin:miter;stroke-opacity:1" d="M 111.757,202.083 126.019,210.006 z" id="boundary" inkscape:connector-curvature="0" />
	<path style="fill:none;stroke:red;stroke-width:1px;stroke-linecap:butt;stroke-linejoin:miter;stroke-opacity:1" d="M 133.942,224.268 138.696,240.115 z" id="boundary" inkscape:connector-curvature="0" />
	<path style="fill:none;stroke:red;stroke-width:1px;stroke-linecap:butt;stroke-linejoin:miter;stroke-opacity:1" d="M 138.696,240.115 140.281,255.962 z" id="boundary" inkscape:connector-curvature="0" />
	<path style="fill:none;stroke:red;stroke-width:1px;stroke-linecap:butt;stroke-linejoin:miter;stroke-opacity:1" d="M 146.62,271.808 140.281,255.962 z" id="boundary" inkscape:connector-curvature="0" />
	<path style="fill:none;stroke:red;stroke-width:1px;stroke-linecap:butt;stroke-linejoin:miter;stroke-opacity:1" d="M 146.62,271.808 148.204,287.655 z" id="boundary" inkscape:connector-curvature="0" />
	<path style="fill:none;stroke:red;stroke-width:1px;stroke-linecap:butt;stroke-linejoin:miter;stroke-opacity:1" d="M 154.543,303.502 148.204,287.655 z" id="boundary" inkscape:connector-curvature="0" />
	<path style="fill:none;stroke:red;stroke-width:1px;stroke-linecap:butt;stroke-linejoin:miter;stroke-opacity:1" d="M 95.9105,195.744 111.757,202.083 z" id="boundary" inkscape:connector-curvature="0" />
	<path style="fill:none;stroke:red;stroke-width:1px;stroke-linecap:butt;stroke-linejoin:miter;stroke-opacity:1" d="M 140.281,51.5399 152.958,61.0479 z" id="boundary" inkscape:connector-curvature="0" />
	<path style="fill:none;stroke:red;stroke-width:1px;stroke-linecap:butt;stroke-linejoin:miter;stroke-opacity:1" d="M 167.22,68.9712 179.898,80.0639 z" id="boundary" inkscape:connector-curvature="0" />
	<path style="fill:none;stroke:red;stroke-width:1px;stroke-linecap:butt;stroke-linejoin:miter;stroke-opacity:1" d="M 167.22,68.9712 152.958,61.0479 z" id="boundary" inkscape:connector-curvature="0" />
	<path style="fill:none;stroke:red;stroke-width:1px;stroke-linecap:butt;stroke-linejoin:miter;stroke-opacity:1" d="M 179.898,80.0639 192.575,91.1565 z" id="boundary" inkscape:connector-curvature="0" />
	<path style="fill:none;stroke:red;stroke-width:1px;stroke-linecap:butt;stroke-linejoin:miter;stroke-opacity:1" d="M 208.422,92.7412 192.575,91.1565 z" id="boundary" inkscape:connector-curvature="0" />
	<path style="fill:none;stroke:red;stroke-width:1px;stroke-linecap:butt;stroke-linejoin:miter;stroke-opacity:1" d="M 208.422,92.7412 224.268,91.1565 z" id="boundary" inkscape:connector-curvature="0" />
	<path style="fill:none;stroke:red;stroke-width:1px;stroke-linecap:butt;stroke-linejoin:miter;stroke-opacity:1" d="M 240.115,92.7412 224.268,91.1565 z" id="boundary" inkscape:connector-curvature="0" />
	<path style="fill:none;stroke:red;stroke-width:1px;stroke-linecap:butt;stroke-linejoin:miter;stroke-opacity:1" d="M 240.115,92.7412 255.962,99.0799 z" id="boundary" inkscape:connector-curvature="0" />
	<path style="fill:none;stroke:red;stroke-width:1px;stroke-linecap:butt;stroke-linejoin:miter;stroke-opacity:1" d="M 379.565,99.0799 393.827,91.1565 z" id="boundary" inkscape:connector-curvature="0" />
	<path style="fill:none;stroke:red;stroke-width:1px;stroke-linecap:butt;stroke-linejoin:miter;stroke-opacity:1" d="M 393.827,91.1565 409.674,91.1565 z" id="boundary" inkscape:connector-curvature="0" />
	<path style="fill:none;stroke:red;stroke-width:1px;stroke-linecap:butt;stroke-linejoin:miter;stroke-opacity:1" d="M 379.565,99.0799 365.304,91.1565 z" id="boundary" inkscape:connector-curvature="0" />
	<path style="fill:none;stroke:red;stroke-width:1px;stroke-linecap:butt;stroke-linejoin:miter;stroke-opacity:1" d="M 425.521,91.1565 441.367,91.1565 z" id="boundary" inkscape:connector-curvature="0" />
	<path style="fill:none;stroke:red;stroke-width:1px;stroke-linecap:butt;stroke-linejoin:miter;stroke-opacity:1" d="M 409.674,91.1565 425.521,91.1565 z" id="boundary" inkscape:connector-curvature="0" />
	<path style="fill:none;stroke:red;stroke-width:1px;stroke-linecap:butt;stroke-linejoin:miter;stroke-opacity:1" d="M 441.367,91.1565 457.214,91.1565 z" id="boundary" inkscape:connector-curvature="0" />
	<path style="fill:none;stroke:red;stroke-width:1px;stroke-linecap:butt;stroke-linejoin:miter;stroke-opacity:1" d="M 457.214,91.1565 473.061,91.1565 z" id="boundary" inkscape:connector-curvature="0" />
	<path style="fill:none;stroke:red;stroke-width:1px;stroke-linecap:butt;stroke-linejoin:miter;stroke-opacity:1" d="M 271.808,99.0799 255.962,99.0799 z" id="boundary" inkscape:connector-curvature="0" />
	<path style="fill:none;stroke:red;stroke-width:1px;stroke-linecap:butt;stroke-linejoin:miter;stroke-opacity:1" d="M 487.323,83.2332 473.061,91.1565 z" id="boundary" inkscape:connector-curvature="0" />
	<path style="fill:none;stroke:red;stroke-width:1px;stroke-linecap:butt;stroke-linejoin:miter;stroke-opacity:1" d="M 287.655,99.0799 271.808,99.0799 z" id="boundary" inkscape:connector-curvature="0" />
	<path style="fill:none;stroke:red;stroke-width:1px;stroke-linecap:butt;stroke-linejoin:miter;stroke-opacity:1" d="M 287.655,99.0799 303.502,99.0799 z" id="boundary" inkscape:connector-curvature="0" />
	<path style="fill:none;stroke:red;stroke-width:1px;stroke-linecap:butt;stroke-linejoin:miter;stroke-opacity:1" d="M 319.348,99.0799 303.502,99.0799 z" id="boundary" inkscape:connector-curvature="0" />
	<path style="fill:none;stroke:red;stroke-width:1px;stroke-linecap:butt;stroke-linejoin:miter;stroke-opacity:1" d="M 154.543,303.502 156.128,319.348 z" id="boundary" inkscape:connector-curvature="0" />
	<path style="fill:none;stroke:red;stroke-width:1px;stroke-linecap:butt;stroke-linejoin:miter;stroke-opacity:1" d="M 319.348,99.0799 335.195,99.0799 z" id="boundary" inkscape:connector-curvature="0" />
	<path style="fill:none;stroke:red;stroke-width:1px;stroke-linecap:butt;stroke-linejoin:miter;stroke-opacity:1" d="M 351.042,99.0799 335.195,99.0799 z" id="boundary" inkscape:connector-curvature="0" />
	<path style="fill:none;stroke:red;stroke-width:1px;stroke-linecap:butt;stroke-linejoin:miter;stroke-opacity:1" d="M 365.304,91.1565 351.042,99.0799 z" id="boundary" inkscape:connector-curvature="0" />
	<path style="fill:none;stroke:red;stroke-width:1px;stroke-linecap:butt;stroke-linejoin:miter;stroke-opacity:1" d="M 404.92,306.671 390.658,314.594 z" id="boundary" inkscape:connector-curvature="0" />
	<path style="fill:none;stroke:red;stroke-width:1px;stroke-linecap:butt;stroke-linejoin:miter;stroke-opacity:1" d="M 420.767,306.671 404.92,306.671 z" id="boundary" inkscape:connector-curvature="0" />
	<path style="fill:none;stroke:red;stroke-width:1px;stroke-linecap:butt;stroke-linejoin:miter;stroke-opacity:1" d="M 436.613,306.671 420.767,306.671 z" id="boundary" inkscape:connector-curvature="0" />
	<path style="fill:none;stroke:red;stroke-width:1px;stroke-linecap:butt;stroke-linejoin:miter;stroke-opacity:1" d="M 376.396,322.518 390.658,314.594 z" id="boundary" inkscape:connector-curvature="0" />
	<path style="fill:none;stroke:red;stroke-width:1px;stroke-linecap:butt;stroke-linejoin:miter;stroke-opacity:1" d="M 436.613,306.671 452.46,306.671 z" id="boundary" inkscape:connector-curvature="0" />
	<path style="fill:none;stroke:red;stroke-width:1px;stroke-linecap:butt;stroke-linejoin:miter;stroke-opacity:1" d="M 452.46,306.671 468.307,306.671 z" id="boundary" inkscape:connector-curvature="0" />
	<path style="fill:none;stroke:red;stroke-width:1px;stroke-linecap:butt;stroke-linejoin:miter;stroke-opacity:1" d="M 376.396,322.518 362.134,330.441 z" id="boundary" inkscape:connector-curvature="0" />
	<path style="fill:none;stroke:red;stroke-width:1px;stroke-linecap:butt;stroke-linejoin:miter;stroke-opacity:1" d="M 484.153,306.671 468.307,306.671 z" id="boundary" inkscape:connector-curvature="0" />
	<path style="fill:none;stroke:red;stroke-width:1px;stroke-linecap:butt;stroke-linejoin:miter;stroke-opacity:1" d="M 156.128,319.348 154.543,341.534 z" id="boundary" inkscape:connector-curvature="0" />
	<path style="fill:none;stroke:red;stroke-width:1px;stroke-linecap:butt;stroke-linejoin:miter;stroke-opacity:1" d="M 129.188,400.166 138.696,381.15 z" id="boundary" inkscape:connector-curvature="0" />
	<path style="fill:none;stroke:red;stroke-width:1px;stroke-linecap:butt;stroke-linejoin:miter;stroke-opacity:1" d="M 129.188,400.166 116.511,411.259 z" id="boundary" inkscape:connector-curvature="0" />
	<path style="fill:none;stroke:red;stroke-width:1px;stroke-linecap:butt;stroke-linejoin:miter;stroke-opacity:1" d="M 151.374,368.473 138.696,381.15 z" id="boundary" inkscape:connector-curvature="0" />
	<path style="fill:none;stroke:red;stroke-width:1px;stroke-linecap:butt;stroke-linejoin:miter;stroke-opacity:1" d="M 154.543,341.534 151.374,368.473 z" id="boundary" inkscape:connector-curvature="0" />
	<path style="fill:none;stroke:red;stroke-width:1px;stroke-linecap:butt;stroke-linejoin:miter;stroke-opacity:1" d="M 81.6486,447.706 92.7412,435.029 z" id="boundary" inkscape:connector-curvature="0" />
	<path style="fill:none;stroke:red;stroke-width:1px;stroke-linecap:butt;stroke-linejoin:miter;stroke-opacity:1" d="M 105.419,423.936 116.511,411.259 z" id="boundary" inkscape:connector-curvature="0" />
	<path style="fill:none;stroke:red;stroke-width:1px;stroke-linecap:butt;stroke-linejoin:miter;stroke-opacity:1" d="M 105.419,423.936 92.7412,435.029 z" id="boundary" inkscape:connector-curvature="0" />
	<path style="fill:none;stroke:red;stroke-width:1px;stroke-linecap:butt;stroke-linejoin:miter;stroke-opacity:1" d="M 224.268,398.581 211.591,409.674 z" id="boundary" inkscape:connector-curvature="0" />
	<path style="fill:none;stroke:red;stroke-width:1px;stroke-linecap:butt;stroke-linejoin:miter;stroke-opacity:1" d="M 232.192,382.735 224.268,398.581 z" id="boundary" inkscape:connector-curvature="0" />
	<path style="fill:none;stroke:red;stroke-width:1px;stroke-linecap:butt;stroke-linejoin:miter;stroke-opacity:1" d="M 243.284,370.058 232.192,382.735 z" id="boundary" inkscape:connector-curvature="0" />
	<path style="fill:none;stroke:red;stroke-width:1px;stroke-linecap:butt;stroke-linejoin:miter;stroke-opacity:1" d="M 187.821,433.444 171.974,441.367 z" id="boundary" inkscape:connector-curvature="0" />
	<path style="fill:none;stroke:red;stroke-width:1px;stroke-linecap:butt;stroke-linejoin:miter;stroke-opacity:1" d="M 200.498,422.351 211.591,409.674 z" id="boundary" inkscape:connector-curvature="0" />
	<path style="fill:none;stroke:red;stroke-width:1px;stroke-linecap:butt;stroke-linejoin:miter;stroke-opacity:1" d="M 200.498,422.351 187.821,433.444 z" id="boundary" inkscape:connector-curvature="0" />
	<path style="fill:none;stroke:red;stroke-width:1px;stroke-linecap:butt;stroke-linejoin:miter;stroke-opacity:1" d="M 81.6486,447.706 68.9712,458.799 z" id="boundary" inkscape:connector-curvature="0" />
	<path style="fill:none;stroke:red;stroke-width:1px;stroke-linecap:butt;stroke-linejoin:miter;stroke-opacity:1" d="M 171.974,441.367 156.128,449.291 z" id="boundary" inkscape:connector-curvature="0" />
	<path style="fill:none;stroke:red;stroke-width:1px;stroke-linecap:butt;stroke-linejoin:miter;stroke-opacity:1" d="M 19.8466,500 32.524,487.323 z" id="boundary" inkscape:connector-curvature="0" />
	<path style="fill:none;stroke:red;stroke-width:1px;stroke-linecap:butt;stroke-linejoin:miter;stroke-opacity:1" d="M 76.8946,512.677 61.0479,520.601 z" id="boundary" inkscape:connector-curvature="0" />
	<path style="fill:none;stroke:red;stroke-width:1px;stroke-linecap:butt;stroke-linejoin:miter;stroke-opacity:1" d="M 61.0479,474.645 48.3706,487.323 z" id="boundary" inkscape:connector-curvature="0" />
	<path style="fill:none;stroke:red;stroke-width:1px;stroke-linecap:butt;stroke-linejoin:miter;stroke-opacity:1" d="M 48.3706,487.323 32.524,487.323 z" id="boundary" inkscape:connector-curvature="0" />
	<path style="fill:none;stroke:red;stroke-width:1px;stroke-linecap:butt;stroke-linejoin:miter;stroke-opacity:1" d="M 68.9712,458.799 61.0479,474.645 z" id="boundary" inkscape:connector-curvature="0" />
	<path style="fill:none;stroke:red;stroke-width:1px;stroke-linecap:butt;stroke-linejoin:miter;stroke-opacity:1" d="M 29.3546,528.524 19.8466,515.847 z" id="boundary" inkscape:connector-curvature="0" />
	<path style="fill:none;stroke:red;stroke-width:1px;stroke-linecap:butt;stroke-linejoin:miter;stroke-opacity:1" d="M 45.2013,528.524 29.3546,528.524 z" id="boundary" inkscape:connector-curvature="0" />
	<path style="fill:none;stroke:red;stroke-width:1px;stroke-linecap:butt;stroke-linejoin:miter;stroke-opacity:1" d="M 45.2013,528.524 61.0479,520.601 z" id="boundary" inkscape:connector-curvature="0" />
	<path style="fill:none;stroke:red;stroke-width:1px;stroke-linecap:butt;stroke-linejoin:miter;stroke-opacity:1" d="M 19.8466,515.847 19.8466,500 z" id="boundary" inkscape:connector-curvature="0" />
	<path style="fill:none;stroke:red;stroke-width:1px;stroke-linecap:butt;stroke-linejoin:miter;stroke-opacity:1" d="M 116.511,480.984 105.419,493.661 z" id="boundary" inkscape:connector-curvature="0" />
	<path style="fill:none;stroke:red;stroke-width:1px;stroke-linecap:butt;stroke-linejoin:miter;stroke-opacity:1" d="M 130.773,473.061 116.511,480.984 z" id="boundary" inkscape:connector-curvature="0" />
	<path style="fill:none;stroke:red;stroke-width:1px;stroke-linecap:butt;stroke-linejoin:miter;stroke-opacity:1" d="M 143.45,463.553 156.128,449.291 z" id="boundary" inkscape:connector-curvature="0" />
	<path style="fill:none;stroke:red;stroke-width:1px;stroke-linecap:butt;stroke-linejoin:miter;stroke-opacity:1" d="M 143.45,463.553 130.773,473.061 z" id="boundary" inkscape:connector-curvature="0" />
	<path style="fill:none;stroke:red;stroke-width:1px;stroke-linecap:butt;stroke-linejoin:miter;stroke-opacity:1" d="M 76.8946,512.677 92.7412,504.754 z" id="boundary" inkscape:connector-curvature="0" />
	<path style="fill:none;stroke:red;stroke-width:1px;stroke-linecap:butt;stroke-linejoin:miter;stroke-opacity:1" d="M 105.419,493.661 92.7412,504.754 z" id="boundary" inkscape:connector-curvature="0" />
	<path style="fill:none;stroke:red;stroke-width:1px;stroke-linecap:butt;stroke-linejoin:miter;stroke-opacity:1" d="M 267.054,374.812 274.978,389.073 z" id="boundary" inkscape:connector-curvature="0" />
	<path style="fill:none;stroke:red;stroke-width:1px;stroke-linecap:butt;stroke-linejoin:miter;stroke-opacity:1" d="M 267.054,374.812 257.546,362.134 z" id="boundary" inkscape:connector-curvature="0" />
	<path style="fill:none;stroke:red;stroke-width:1px;stroke-linecap:butt;stroke-linejoin:miter;stroke-opacity:1" d="M 274.978,389.073 281.316,404.92 z" id="boundary" inkscape:connector-curvature="0" />
	<path style="fill:none;stroke:red;stroke-width:1px;stroke-linecap:butt;stroke-linejoin:miter;stroke-opacity:1" d="M 289.24,419.182 281.316,404.92 z" id="boundary" inkscape:connector-curvature="0" />
	<path style="fill:none;stroke:red;stroke-width:1px;stroke-linecap:butt;stroke-linejoin:miter;stroke-opacity:1" d="M 297.163,433.444 297.163,449.291 z" id="boundary" inkscape:connector-curvature="0" />
	<path style="fill:none;stroke:red;stroke-width:1px;stroke-linecap:butt;stroke-linejoin:miter;stroke-opacity:1" d="M 289.24,419.182 297.163,433.444 z" id="boundary" inkscape:connector-curvature="0" />
	<path style="fill:none;stroke:red;stroke-width:1px;stroke-linecap:butt;stroke-linejoin:miter;stroke-opacity:1" d="M 354.211,362.134 354.211,377.981 z" id="boundary" inkscape:connector-curvature="0" />
	<path style="fill:none;stroke:red;stroke-width:1px;stroke-linecap:butt;stroke-linejoin:miter;stroke-opacity:1" d="M 354.211,362.134 362.134,346.288 z" id="boundary" inkscape:connector-curvature="0" />
	<path style="fill:none;stroke:red;stroke-width:1px;stroke-linecap:butt;stroke-linejoin:miter;stroke-opacity:1" d="M 362.134,330.441 362.134,346.288 z" id="boundary" inkscape:connector-curvature="0" />
	<path style="fill:none;stroke:red;stroke-width:1px;stroke-linecap:butt;stroke-linejoin:miter;stroke-opacity:1" d="M 354.211,393.827 354.211,409.674 z" id="boundary" inkscape:connector-curvature="0" />
	<path style="fill:none;stroke:red;stroke-width:1px;stroke-linecap:butt;stroke-linejoin:miter;stroke-opacity:1" d="M 354.211,393.827 354.211,377.981 z" id="boundary" inkscape:connector-curvature="0" />
	<path style="fill:none;stroke:red;stroke-width:1px;stroke-linecap:butt;stroke-linejoin:miter;stroke-opacity:1" d="M 354.211,425.521 354.211,441.367 z" id="boundary" inkscape:connector-curvature="0" />
	<path style="fill:none;stroke:red;stroke-width:1px;stroke-linecap:butt;stroke-linejoin:miter;stroke-opacity:1" d="M 354.211,409.674 354.211,425.521 z" id="boundary" inkscape:connector-curvature="0" />
	<path style="fill:none;stroke:red;stroke-width:1px;stroke-linecap:butt;stroke-linejoin:miter;stroke-opacity:1" d="M 257.546,362.134 243.284,370.058 z" id="boundary" inkscape:connector-curvature="0" />
	<path style="fill:none;stroke:red;stroke-width:1px;stroke-linecap:butt;stroke-linejoin:miter;stroke-opacity:1" d="M 305.086,463.553 297.163,449.291 z" id="boundary" inkscape:connector-curvature="0" />
	<path style="fill:none;stroke:red;stroke-width:1px;stroke-linecap:butt;stroke-linejoin:miter;stroke-opacity:1" d="M 286.07,511.093 301.917,511.093 z" id="boundary" inkscape:connector-curvature="0" />
	<path style="fill:none;stroke:red;stroke-width:1px;stroke-linecap:butt;stroke-linejoin:miter;stroke-opacity:1" d="M 305.086,495.246 301.917,511.093 z" id="boundary" inkscape:connector-curvature="0" />
	<path style="fill:none;stroke:red;stroke-width:1px;stroke-linecap:butt;stroke-linejoin:miter;stroke-opacity:1" d="M 305.086,479.399 305.086,463.553 z" id="boundary" inkscape:connector-curvature="0" />
	<path style="fill:none;stroke:red;stroke-width:1px;stroke-linecap:butt;stroke-linejoin:miter;stroke-opacity:1" d="M 286.07,511.093 273.393,523.77 z" id="boundary" inkscape:connector-curvature="0" />
	<path style="fill:none;stroke:red;stroke-width:1px;stroke-linecap:butt;stroke-linejoin:miter;stroke-opacity:1" d="M 314.594,544.371 298.748,552.294 z" id="boundary" inkscape:connector-curvature="0" />
	<path style="fill:none;stroke:red;stroke-width:1px;stroke-linecap:butt;stroke-linejoin:miter;stroke-opacity:1" d="M 273.393,523.77 273.393,539.617 z" id="boundary" inkscape:connector-curvature="0" />
	<path style="fill:none;stroke:red;stroke-width:1px;stroke-linecap:butt;stroke-linejoin:miter;stroke-opacity:1" d="M 298.748,552.294 282.901,552.294 z" id="boundary" inkscape:connector-curvature="0" />
	<path style="fill:none;stroke:red;stroke-width:1px;stroke-linecap:butt;stroke-linejoin:miter;stroke-opacity:1" d="M 282.901,552.294 273.393,539.617 z" id="boundary" inkscape:connector-curvature="0" />
	<path style="fill:none;stroke:red;stroke-width:1px;stroke-linecap:butt;stroke-linejoin:miter;stroke-opacity:1" d="M 305.086,479.399 305.086,495.246 z" id="boundary" inkscape:connector-curvature="0" />
	<path style="fill:none;stroke:red;stroke-width:1px;stroke-linecap:butt;stroke-linejoin:miter;stroke-opacity:1" d="M 357.38,473.061 358.965,493.661 z" id="boundary" inkscape:connector-curvature="0" />
	<path style="fill:none;stroke:red;stroke-width:1px;stroke-linecap:butt;stroke-linejoin:miter;stroke-opacity:1" d="M 354.211,457.214 357.38,473.061 z" id="boundary" inkscape:connector-curvature="0" />
	<path style="fill:none;stroke:red;stroke-width:1px;stroke-linecap:butt;stroke-linejoin:miter;stroke-opacity:1" d="M 354.211,457.214 354.211,441.367 z" id="boundary" inkscape:connector-curvature="0" />
	<path style="fill:none;stroke:red;stroke-width:1px;stroke-linecap:butt;stroke-linejoin:miter;stroke-opacity:1" d="M 358.965,493.661 351.042,509.508 z" id="boundary" inkscape:connector-curvature="0" />
	<path style="fill:none;stroke:red;stroke-width:1px;stroke-linecap:butt;stroke-linejoin:miter;stroke-opacity:1" d="M 314.594,544.371 330.441,536.447 z" id="boundary" inkscape:connector-curvature="0" />
	<path style="fill:none;stroke:red;stroke-width:1px;stroke-linecap:butt;stroke-linejoin:miter;stroke-opacity:1" d="M 343.118,525.355 351.042,509.508 z" id="boundary" inkscape:connector-curvature="0" />
	<path style="fill:none;stroke:red;stroke-width:1px;stroke-linecap:butt;stroke-linejoin:miter;stroke-opacity:1" d="M 343.118,525.355 330.441,536.447 z" id="boundary" inkscape:connector-curvature="0" />
	<path style="fill:none;stroke:red;stroke-width:1px;stroke-linecap:butt;stroke-linejoin:miter;stroke-opacity:1" d="M 517.431,91.1565 501.585,91.1565 z" id="boundary" inkscape:connector-curvature="0" />
	<path style="fill:none;stroke:red;stroke-width:1px;stroke-linecap:butt;stroke-linejoin:miter;stroke-opacity:1" d="M 501.585,91.1565 487.323,83.2332 z" id="boundary" inkscape:connector-curvature="0" />
	<path style="fill:none;stroke:red;stroke-width:1px;stroke-linecap:butt;stroke-linejoin:miter;stroke-opacity:1" d="M 533.278,91.1565 517.431,91.1565 z" id="boundary" inkscape:connector-curvature="0" />
	<path style="fill:none;stroke:red;stroke-width:1px;stroke-linecap:butt;stroke-linejoin:miter;stroke-opacity:1" d="M 533.278,91.1565 549.125,91.1565 z" id="boundary" inkscape:connector-curvature="0" />
	<path style="fill:none;stroke:red;stroke-width:1px;stroke-linecap:butt;stroke-linejoin:miter;stroke-opacity:1" d="M 564.971,91.1565 580.818,91.1565 z" id="boundary" inkscape:connector-curvature="0" />
	<path style="fill:none;stroke:red;stroke-width:1px;stroke-linecap:butt;stroke-linejoin:miter;stroke-opacity:1" d="M 564.971,91.1565 549.125,91.1565 z" id="boundary" inkscape:connector-curvature="0" />
	<path style="fill:none;stroke:red;stroke-width:1px;stroke-linecap:butt;stroke-linejoin:miter;stroke-opacity:1" d="M 596.665,91.1565 612.511,91.1565 z" id="boundary" inkscape:connector-curvature="0" />
	<path style="fill:none;stroke:red;stroke-width:1px;stroke-linecap:butt;stroke-linejoin:miter;stroke-opacity:1" d="M 626.773,83.2332 612.511,91.1565 z" id="boundary" inkscape:connector-curvature="0" />
	<path style="fill:none;stroke:red;stroke-width:1px;stroke-linecap:butt;stroke-linejoin:miter;stroke-opacity:1" d="M 626.773,83.2332 641.035,91.1565 z" id="boundary" inkscape:connector-curvature="0" />
	<path style="fill:none;stroke:red;stroke-width:1px;stroke-linecap:butt;stroke-linejoin:miter;stroke-opacity:1" d="M 656.882,91.1565 641.035,91.1565 z" id="boundary" inkscape:connector-curvature="0" />
	<path style="fill:none;stroke:red;stroke-width:1px;stroke-linecap:butt;stroke-linejoin:miter;stroke-opacity:1" d="M 596.665,91.1565 580.818,91.1565 z" id="boundary" inkscape:connector-curvature="0" />
	<path style="fill:none;stroke:red;stroke-width:1px;stroke-linecap:butt;stroke-linejoin:miter;stroke-opacity:1" d="M 656.882,91.1565 672.728,91.1565 z" id="boundary" inkscape:connector-curvature="0" />
	<path style="fill:none;stroke:red;stroke-width:1px;stroke-linecap:butt;stroke-linejoin:miter;stroke-opacity:1" d="M 672.728,91.1565 686.99,99.0799 z" id="boundary" inkscape:connector-curvature="0" />
	<path style="fill:none;stroke:red;stroke-width:1px;stroke-linecap:butt;stroke-linejoin:miter;stroke-opacity:1" d="M 686.99,99.0799 701.252,107.003 z" id="boundary" inkscape:connector-curvature="0" />
	<path style="fill:none;stroke:red;stroke-width:1px;stroke-linecap:butt;stroke-linejoin:miter;stroke-opacity:1" d="M 717.099,110.173 701.252,107.003 z" id="boundary" inkscape:connector-curvature="0" />
	<path style="fill:none;stroke:red;stroke-width:1px;stroke-linecap:butt;stroke-linejoin:miter;stroke-opacity:1" d="M 484.153,306.671 500,306.671 z" id="boundary" inkscape:connector-curvature="0" />
	<path style="fill:none;stroke:red;stroke-width:1px;stroke-linecap:butt;stroke-linejoin:miter;stroke-opacity:1" d="M 515.847,306.671 500,306.671 z" id="boundary" inkscape:connector-curvature="0" />
	<path style="fill:none;stroke:red;stroke-width:1px;stroke-linecap:butt;stroke-linejoin:miter;stroke-opacity:1" d="M 731.361,118.096 717.099,110.173 z" id="boundary" inkscape:connector-curvature="0" />
	<path style="fill:none;stroke:red;stroke-width:1px;stroke-linecap:butt;stroke-linejoin:miter;stroke-opacity:1" d="M 747.208,124.435 731.361,118.096 z" id="boundary" inkscape:connector-curvature="0" />
	<path style="fill:none;stroke:red;stroke-width:1px;stroke-linecap:butt;stroke-linejoin:miter;stroke-opacity:1" d="M 515.847,306.671 531.693,306.671 z" id="boundary" inkscape:connector-curvature="0" />
	<path style="fill:none;stroke:red;stroke-width:1px;stroke-linecap:butt;stroke-linejoin:miter;stroke-opacity:1" d="M 547.54,306.671 558.633,319.348 z" id="boundary" inkscape:connector-curvature="0" />
	<path style="fill:none;stroke:red;stroke-width:1px;stroke-linecap:butt;stroke-linejoin:miter;stroke-opacity:1" d="M 531.693,306.671 547.54,306.671 z" id="boundary" inkscape:connector-curvature="0" />
	<path style="fill:none;stroke:red;stroke-width:1px;stroke-linecap:butt;stroke-linejoin:miter;stroke-opacity:1" d="M 558.633,319.348 566.556,333.61 z" id="boundary" inkscape:connector-curvature="0" />
	<path style="fill:none;stroke:red;stroke-width:1px;stroke-linecap:butt;stroke-linejoin:miter;stroke-opacity:1" d="M 747.208,124.435 761.47,132.358 z" id="boundary" inkscape:connector-curvature="0" />
	<path style="fill:none;stroke:red;stroke-width:1px;stroke-linecap:butt;stroke-linejoin:miter;stroke-opacity:1" d="M 761.47,132.358 774.147,143.45 z" id="boundary" inkscape:connector-curvature="0" />
	<path style="fill:none;stroke:red;stroke-width:1px;stroke-linecap:butt;stroke-linejoin:miter;stroke-opacity:1" d="M 788.409,151.374 774.147,143.45 z" id="boundary" inkscape:connector-curvature="0" />
	<path style="fill:none;stroke:red;stroke-width:1px;stroke-linecap:butt;stroke-linejoin:miter;stroke-opacity:1" d="M 789.994,289.24 782.07,274.978 z" id="boundary" inkscape:connector-curvature="0" />
	<path style="fill:none;stroke:red;stroke-width:1px;stroke-linecap:butt;stroke-linejoin:miter;stroke-opacity:1" d="M 789.994,289.24 789.994,305.086 z" id="boundary" inkscape:connector-curvature="0" />
	<path style="fill:none;stroke:red;stroke-width:1px;stroke-linecap:butt;stroke-linejoin:miter;stroke-opacity:1" d="M 782.07,274.978 782.07,259.131 z" id="boundary" inkscape:connector-curvature="0" />
	<path style="fill:none;stroke:red;stroke-width:1px;stroke-linecap:butt;stroke-linejoin:miter;stroke-opacity:1" d="M 782.07,259.131 797.917,262.3 z" id="boundary" inkscape:connector-curvature="0" />
	<path style="fill:none;stroke:red;stroke-width:1px;stroke-linecap:butt;stroke-linejoin:miter;stroke-opacity:1" d="M 813.764,192.575 805.84,178.313 z" id="boundary" inkscape:connector-curvature="0" />
	<path style="fill:none;stroke:red;stroke-width:1px;stroke-linecap:butt;stroke-linejoin:miter;stroke-opacity:1" d="M 805.84,178.313 801.086,162.466 z" id="boundary" inkscape:connector-curvature="0" />
	<path style="fill:none;stroke:red;stroke-width:1px;stroke-linecap:butt;stroke-linejoin:miter;stroke-opacity:1" d="M 821.687,206.837 813.764,192.575 z" id="boundary" inkscape:connector-curvature="0" />
	<path style="fill:none;stroke:red;stroke-width:1px;stroke-linecap:butt;stroke-linejoin:miter;stroke-opacity:1" d="M 821.687,206.837 829.61,221.099 z" id="boundary" inkscape:connector-curvature="0" />
	<path style="fill:none;stroke:red;stroke-width:1px;stroke-linecap:butt;stroke-linejoin:miter;stroke-opacity:1" d="M 829.61,221.099 839.118,233.776 z" id="boundary" inkscape:connector-curvature="0" />
	<path style="fill:none;stroke:red;stroke-width:1px;stroke-linecap:butt;stroke-linejoin:miter;stroke-opacity:1" d="M 851.796,244.869 839.118,233.776 z" id="boundary" inkscape:connector-curvature="0" />
	<path style="fill:none;stroke:red;stroke-width:1px;stroke-linecap:butt;stroke-linejoin:miter;stroke-opacity:1" d="M 809.01,274.978 797.917,262.3 z" id="boundary" inkscape:connector-curvature="0" />
	<path style="fill:none;stroke:red;stroke-width:1px;stroke-linecap:butt;stroke-linejoin:miter;stroke-opacity:1" d="M 788.409,151.374 801.086,162.466 z" id="boundary" inkscape:connector-curvature="0" />
	<path style="fill:none;stroke:red;stroke-width:1px;stroke-linecap:butt;stroke-linejoin:miter;stroke-opacity:1" d="M 967.476,249.623 981.738,241.7 z" id="boundary" inkscape:connector-curvature="0" />
	<path style="fill:none;stroke:red;stroke-width:1px;stroke-linecap:butt;stroke-linejoin:miter;stroke-opacity:1" d="M 981.738,241.7 996,249.623 z" id="boundary" inkscape:connector-curvature="0" />
	<path style="fill:none;stroke:red;stroke-width:1px;stroke-linecap:butt;stroke-linejoin:miter;stroke-opacity:1" d="M 996,249.623 996,265.47 z" id="boundary" inkscape:connector-curvature="0" />
	<path style="fill:none;stroke:red;stroke-width:1px;stroke-linecap:butt;stroke-linejoin:miter;stroke-opacity:1" d="M 851.796,244.869 861.304,257.546 z" id="boundary" inkscape:connector-curvature="0" />
	<path style="fill:none;stroke:red;stroke-width:1px;stroke-linecap:butt;stroke-linejoin:miter;stroke-opacity:1" d="M 877.15,262.3 861.304,257.546 z" id="boundary" inkscape:connector-curvature="0" />
	<path style="fill:none;stroke:red;stroke-width:1px;stroke-linecap:butt;stroke-linejoin:miter;stroke-opacity:1" d="M 967.476,249.623 954.799,262.3 z" id="boundary" inkscape:connector-curvature="0" />
	<path style="fill:none;stroke:red;stroke-width:1px;stroke-linecap:butt;stroke-linejoin:miter;stroke-opacity:1" d="M 954.799,262.3 938.952,270.224 z" id="boundary" inkscape:connector-curvature="0" />
	<path style="fill:none;stroke:red;stroke-width:1px;stroke-linecap:butt;stroke-linejoin:miter;stroke-opacity:1" d="M 996,265.47 983.323,289.24 z" id="boundary" inkscape:connector-curvature="0" />
	<path style="fill:none;stroke:red;stroke-width:1px;stroke-linecap:butt;stroke-linejoin:miter;stroke-opacity:1" d="M 797.917,319.348 789.994,305.086 z" id="boundary" inkscape:connector-curvature="0" />
	<path style="fill:none;stroke:red;stroke-width:1px;stroke-linecap:butt;stroke-linejoin:miter;stroke-opacity:1" d="M 821.687,286.07 809.01,274.978 z" id="boundary" inkscape:connector-curvature="0" />
	<path style="fill:none;stroke:red;stroke-width:1px;stroke-linecap:butt;stroke-linejoin:miter;stroke-opacity:1" d="M 848.626,305.086 832.78,298.748 z" id="boundary" inkscape:connector-curvature="0" />
	<path style="fill:none;stroke:red;stroke-width:1px;stroke-linecap:butt;stroke-linejoin:miter;stroke-opacity:1" d="M 832.78,298.748 821.687,286.07 z" id="boundary" inkscape:connector-curvature="0" />
	<path style="fill:none;stroke:red;stroke-width:1px;stroke-linecap:butt;stroke-linejoin:miter;stroke-opacity:1" d="M 877.15,262.3 891.412,270.224 z" id="boundary" inkscape:connector-curvature="0" />
	<path style="fill:none;stroke:red;stroke-width:1px;stroke-linecap:butt;stroke-linejoin:miter;stroke-opacity:1" d="M 805.84,333.61 797.917,319.348 z" id="boundary" inkscape:connector-curvature="0" />
	<path style="fill:none;stroke:red;stroke-width:1px;stroke-linecap:butt;stroke-linejoin:miter;stroke-opacity:1" d="M 848.626,305.086 861.304,314.594 z" id="boundary" inkscape:connector-curvature="0" />
	<path style="fill:none;stroke:red;stroke-width:1px;stroke-linecap:butt;stroke-linejoin:miter;stroke-opacity:1" d="M 877.15,317.764 861.304,314.594 z" id="boundary" inkscape:connector-curvature="0" />
	<path style="fill:none;stroke:red;stroke-width:1px;stroke-linecap:butt;stroke-linejoin:miter;stroke-opacity:1" d="M 892.997,322.518 877.15,317.764 z" id="boundary" inkscape:connector-curvature="0" />
	<path style="fill:none;stroke:red;stroke-width:1px;stroke-linecap:butt;stroke-linejoin:miter;stroke-opacity:1" d="M 907.259,273.393 923.105,273.393 z" id="boundary" inkscape:connector-curvature="0" />
	<path style="fill:none;stroke:red;stroke-width:1px;stroke-linecap:butt;stroke-linejoin:miter;stroke-opacity:1" d="M 923.105,273.393 938.952,270.224 z" id="boundary" inkscape:connector-curvature="0" />
	<path style="fill:none;stroke:red;stroke-width:1px;stroke-linecap:butt;stroke-linejoin:miter;stroke-opacity:1" d="M 983.323,289.24 970.645,301.917 z" id="boundary" inkscape:connector-curvature="0" />
	<path style="fill:none;stroke:red;stroke-width:1px;stroke-linecap:butt;stroke-linejoin:miter;stroke-opacity:1" d="M 907.259,273.393 891.412,270.224 z" id="boundary" inkscape:connector-curvature="0" />
	<path style="fill:none;stroke:red;stroke-width:1px;stroke-linecap:butt;stroke-linejoin:miter;stroke-opacity:1" d="M 938.952,314.594 924.69,322.518 z" id="boundary" inkscape:connector-curvature="0" />
	<path style="fill:none;stroke:red;stroke-width:1px;stroke-linecap:butt;stroke-linejoin:miter;stroke-opacity:1" d="M 908.843,322.518 892.997,322.518 z" id="boundary" inkscape:connector-curvature="0" />
	<path style="fill:none;stroke:red;stroke-width:1px;stroke-linecap:butt;stroke-linejoin:miter;stroke-opacity:1" d="M 954.799,309.84 970.645,301.917 z" id="boundary" inkscape:connector-curvature="0" />
	<path style="fill:none;stroke:red;stroke-width:1px;stroke-linecap:butt;stroke-linejoin:miter;stroke-opacity:1" d="M 954.799,309.84 938.952,314.594 z" id="boundary" inkscape:connector-curvature="0" />
	<path style="fill:none;stroke:red;stroke-width:1px;stroke-linecap:butt;stroke-linejoin:miter;stroke-opacity:1" d="M 574.479,347.872 582.403,362.134 z" id="boundary" inkscape:connector-curvature="0" />
	<path style="fill:none;stroke:red;stroke-width:1px;stroke-linecap:butt;stroke-linejoin:miter;stroke-opacity:1" d="M 591.911,374.812 582.403,362.134 z" id="boundary" inkscape:connector-curvature="0" />
	<path style="fill:none;stroke:red;stroke-width:1px;stroke-linecap:butt;stroke-linejoin:miter;stroke-opacity:1" d="M 591.911,374.812 598.249,390.658 z" id="boundary" inkscape:connector-curvature="0" />
	<path style="fill:none;stroke:red;stroke-width:1px;stroke-linecap:butt;stroke-linejoin:miter;stroke-opacity:1" d="M 606.173,404.92 598.249,390.658 z" id="boundary" inkscape:connector-curvature="0" />
	<path style="fill:none;stroke:red;stroke-width:1px;stroke-linecap:butt;stroke-linejoin:miter;stroke-opacity:1" d="M 606.173,404.92 614.096,419.182 z" id="boundary" inkscape:connector-curvature="0" />
	<path style="fill:none;stroke:red;stroke-width:1px;stroke-linecap:butt;stroke-linejoin:miter;stroke-opacity:1" d="M 574.479,347.872 566.556,333.61 z" id="boundary" inkscape:connector-curvature="0" />
	<path style="fill:none;stroke:red;stroke-width:1px;stroke-linecap:butt;stroke-linejoin:miter;stroke-opacity:1" d="M 679.067,377.981 682.236,393.827 z" id="boundary" inkscape:connector-curvature="0" />
	<path style="fill:none;stroke:red;stroke-width:1px;stroke-linecap:butt;stroke-linejoin:miter;stroke-opacity:1" d="M 679.067,377.981 679.067,362.134 z" id="boundary" inkscape:connector-curvature="0" />
	<path style="fill:none;stroke:red;stroke-width:1px;stroke-linecap:butt;stroke-linejoin:miter;stroke-opacity:1" d="M 679.067,362.134 694.914,362.134 z" id="boundary" inkscape:connector-curvature="0" />
	<path style="fill:none;stroke:red;stroke-width:1px;stroke-linecap:butt;stroke-linejoin:miter;stroke-opacity:1" d="M 694.914,362.134 709.176,370.058 z" id="boundary" inkscape:connector-curvature="0" />
	<path style="fill:none;stroke:red;stroke-width:1px;stroke-linecap:butt;stroke-linejoin:miter;stroke-opacity:1" d="M 682.236,393.827 686.99,409.674 z" id="boundary" inkscape:connector-curvature="0" />
	<path style="fill:none;stroke:red;stroke-width:1px;stroke-linecap:butt;stroke-linejoin:miter;stroke-opacity:1" d="M 622.019,433.444 614.096,419.182 z" id="boundary" inkscape:connector-curvature="0" />
	<path style="fill:none;stroke:red;stroke-width:1px;stroke-linecap:butt;stroke-linejoin:miter;stroke-opacity:1" d="M 683.821,430.275 686.99,409.674 z" id="boundary" inkscape:connector-curvature="0" />
	<path style="fill:none;stroke:red;stroke-width:1px;stroke-linecap:butt;stroke-linejoin:miter;stroke-opacity:1" d="M 683.821,430.275 675.898,446.121 z" id="boundary" inkscape:connector-curvature="0" />
	<path style="fill:none;stroke:red;stroke-width:1px;stroke-linecap:butt;stroke-linejoin:miter;stroke-opacity:1" d="M 709.176,370.058 718.684,382.735 z" id="boundary" inkscape:connector-curvature="0" />
	<path style="fill:none;stroke:red;stroke-width:1px;stroke-linecap:butt;stroke-linejoin:miter;stroke-opacity:1" d="M 622.019,433.444 614.096,452.46 z" id="boundary" inkscape:connector-curvature="0" />
	<path style="fill:none;stroke:red;stroke-width:1px;stroke-linecap:butt;stroke-linejoin:miter;stroke-opacity:1" d="M 571.31,503.169 587.157,495.246 z" id="boundary" inkscape:connector-curvature="0" />
	<path style="fill:none;stroke:red;stroke-width:1px;stroke-linecap:butt;stroke-linejoin:miter;stroke-opacity:1" d="M 599.834,482.569 587.157,495.246 z" id="boundary" inkscape:connector-curvature="0" />
	<path style="fill:none;stroke:red;stroke-width:1px;stroke-linecap:butt;stroke-linejoin:miter;stroke-opacity:1" d="M 614.096,531.693 598.249,536.447 z" id="boundary" inkscape:connector-curvature="0" />
	<path style="fill:none;stroke:red;stroke-width:1px;stroke-linecap:butt;stroke-linejoin:miter;stroke-opacity:1" d="M 614.096,452.46 612.511,471.476 z" id="boundary" inkscape:connector-curvature="0" />
	<path style="fill:none;stroke:red;stroke-width:1px;stroke-linecap:butt;stroke-linejoin:miter;stroke-opacity:1" d="M 612.511,471.476 599.834,482.569 z" id="boundary" inkscape:connector-curvature="0" />
	<path style="fill:none;stroke:red;stroke-width:1px;stroke-linecap:butt;stroke-linejoin:miter;stroke-opacity:1" d="M 558.633,515.847 566.556,530.109 z" id="boundary" inkscape:connector-curvature="0" />
	<path style="fill:none;stroke:red;stroke-width:1px;stroke-linecap:butt;stroke-linejoin:miter;stroke-opacity:1" d="M 558.633,515.847 571.31,503.169 z" id="boundary" inkscape:connector-curvature="0" />
	<path style="fill:none;stroke:red;stroke-width:1px;stroke-linecap:butt;stroke-linejoin:miter;stroke-opacity:1" d="M 582.403,536.447 566.556,530.109 z" id="boundary" inkscape:connector-curvature="0" />
	<path style="fill:none;stroke:red;stroke-width:1px;stroke-linecap:butt;stroke-linejoin:miter;stroke-opacity:1" d="M 598.249,536.447 582.403,536.447 z" id="boundary" inkscape:connector-curvature="0" />
	<path style="fill:none;stroke:red;stroke-width:1px;stroke-linecap:butt;stroke-linejoin:miter;stroke-opacity:1" d="M 655.297,473.061 647.374,488.907 z" id="boundary" inkscape:connector-curvature="0" />
	<path style="fill:none;stroke:red;stroke-width:1px;stroke-linecap:butt;stroke-linejoin:miter;stroke-opacity:1" d="M 667.974,461.968 675.898,446.121 z" id="boundary" inkscape:connector-curvature="0" />
	<path style="fill:none;stroke:red;stroke-width:1px;stroke-linecap:butt;stroke-linejoin:miter;stroke-opacity:1" d="M 667.974,461.968 655.297,473.061 z" id="boundary" inkscape:connector-curvature="0" />
	<path style="fill:none;stroke:red;stroke-width:1px;stroke-linecap:butt;stroke-linejoin:miter;stroke-opacity:1" d="M 614.096,531.693 629.942,523.77 z" id="boundary" inkscape:connector-curvature="0" />
	<path style="fill:none;stroke:red;stroke-width:1px;stroke-linecap:butt;stroke-linejoin:miter;stroke-opacity:1" d="M 637.866,507.923 647.374,488.907 z" id="boundary" inkscape:connector-curvature="0" />
	<path style="fill:none;stroke:red;stroke-width:1px;stroke-linecap:butt;stroke-linejoin:miter;stroke-opacity:1" d="M 637.866,507.923 629.942,523.77 z" id="boundary" inkscape:connector-curvature="0" />
	<path style="fill:none;stroke:red;stroke-width:1px;stroke-linecap:butt;stroke-linejoin:miter;stroke-opacity:1" d="M 734.53,389.073 718.684,382.735 z" id="boundary" inkscape:connector-curvature="0" />
	<path style="fill:none;stroke:red;stroke-width:1px;stroke-linecap:butt;stroke-linejoin:miter;stroke-opacity:1" d="M 734.53,389.073 745.623,401.751 z" id="boundary" inkscape:connector-curvature="0" />
	<path style="fill:none;stroke:red;stroke-width:1px;stroke-linecap:butt;stroke-linejoin:miter;stroke-opacity:1" d="M 761.47,408.089 775.732,416.013 z" id="boundary" inkscape:connector-curvature="0" />
	<path style="fill:none;stroke:red;stroke-width:1px;stroke-linecap:butt;stroke-linejoin:miter;stroke-opacity:1" d="M 761.47,408.089 745.623,401.751 z" id="boundary" inkscape:connector-curvature="0" />
	<path style="fill:none;stroke:red;stroke-width:1px;stroke-linecap:butt;stroke-linejoin:miter;stroke-opacity:1" d="M 788.409,425.521 775.732,416.013 z" id="boundary" inkscape:connector-curvature="0" />
	<path style="fill:none;stroke:red;stroke-width:1px;stroke-linecap:butt;stroke-linejoin:miter;stroke-opacity:1" d="M 788.409,425.521 796.332,439.783 z" id="boundary" inkscape:connector-curvature="0" />
	<path style="fill:none;stroke:red;stroke-width:1px;stroke-linecap:butt;stroke-linejoin:miter;stroke-opacity:1" d="M 805.84,333.61 813.764,347.872 z" id="boundary" inkscape:connector-curvature="0" />
	<path style="fill:none;stroke:red;stroke-width:1px;stroke-linecap:butt;stroke-linejoin:miter;stroke-opacity:1" d="M 823.272,360.55 829.61,376.396 z" id="boundary" inkscape:connector-curvature="0" />
	<path style="fill:none;stroke:red;stroke-width:1px;stroke-linecap:butt;stroke-linejoin:miter;stroke-opacity:1" d="M 823.272,360.55 813.764,347.872 z" id="boundary" inkscape:connector-curvature="0" />
	<path style="fill:none;stroke:red;stroke-width:1px;stroke-linecap:butt;stroke-linejoin:miter;stroke-opacity:1" d="M 924.69,322.518 908.843,322.518 z" id="boundary" inkscape:connector-curvature="0" />
	<path style="fill:none;stroke:red;stroke-width:1px;stroke-linecap:butt;stroke-linejoin:miter;stroke-opacity:1" d="M 837.534,390.658 845.457,404.92 z" id="boundary" inkscape:connector-curvature="0" />
	<path style="fill:none;stroke:red;stroke-width:1px;stroke-linecap:butt;stroke-linejoin:miter;stroke-opacity:1" d="M 837.534,390.658 829.61,376.396 z" id="boundary" inkscape:connector-curvature="0" />
	<path style="fill:none;stroke:red;stroke-width:1px;stroke-linecap:butt;stroke-linejoin:miter;stroke-opacity:1" d="M 845.457,404.92 845.457,420.767 z" id="boundary" inkscape:connector-curvature="0" />
	<path style="fill:none;stroke:red;stroke-width:1px;stroke-linecap:butt;stroke-linejoin:miter;stroke-opacity:1" d="M 796.332,439.783 804.256,454.045 z" id="boundary" inkscape:connector-curvature="0" />
	<path style="fill:none;stroke:red;stroke-width:1px;stroke-linecap:butt;stroke-linejoin:miter;stroke-opacity:1" d="M 804.256,454.045 805.84,469.891 z" id="boundary" inkscape:connector-curvature="0" />
	<path style="fill:none;stroke:red;stroke-width:1px;stroke-linecap:butt;stroke-linejoin:miter;stroke-opacity:1" d="M 805.84,469.891 812.179,485.738 z" id="boundary" inkscape:connector-curvature="0" />
	<path style="fill:none;stroke:red;stroke-width:1px;stroke-linecap:butt;stroke-linejoin:miter;stroke-opacity:1" d="M 796.332,515.847 796.332,531.693 z" id="boundary" inkscape:connector-curvature="0" />
	<path style="fill:none;stroke:red;stroke-width:1px;stroke-linecap:butt;stroke-linejoin:miter;stroke-opacity:1" d="M 809.01,542.786 796.332,531.693 z" id="boundary" inkscape:connector-curvature="0" />
	<path style="fill:none;stroke:red;stroke-width:1px;stroke-linecap:butt;stroke-linejoin:miter;stroke-opacity:1" d="M 796.332,515.847 809.01,503.169 z" id="boundary" inkscape:connector-curvature="0" />
	<path style="fill:none;stroke:red;stroke-width:1px;stroke-linecap:butt;stroke-linejoin:miter;stroke-opacity:1" d="M 824.856,542.786 809.01,542.786 z" id="boundary" inkscape:connector-curvature="0" />
	<path style="fill:none;stroke:red;stroke-width:1px;stroke-linecap:butt;stroke-linejoin:miter;stroke-opacity:1" d="M 812.179,485.738 809.01,503.169 z" id="boundary" inkscape:connector-curvature="0" />
	<path style="fill:none;stroke:red;stroke-width:1px;stroke-linecap:butt;stroke-linejoin:miter;stroke-opacity:1" d="M 853.38,450.875 853.38,466.722 z" id="boundary" inkscape:connector-curvature="0" />
	<path style="fill:none;stroke:red;stroke-width:1px;stroke-linecap:butt;stroke-linejoin:miter;stroke-opacity:1" d="M 853.38,450.875 845.457,436.613 z" id="boundary" inkscape:connector-curvature="0" />
	<path style="fill:none;stroke:red;stroke-width:1px;stroke-linecap:butt;stroke-linejoin:miter;stroke-opacity:1" d="M 845.457,436.613 845.457,420.767 z" id="boundary" inkscape:connector-curvature="0" />
	<path style="fill:none;stroke:red;stroke-width:1px;stroke-linecap:butt;stroke-linejoin:miter;stroke-opacity:1" d="M 853.38,466.722 853.38,482.569 z" id="boundary" inkscape:connector-curvature="0" />
	<path style="fill:none;stroke:red;stroke-width:1px;stroke-linecap:butt;stroke-linejoin:miter;stroke-opacity:1" d="M 853.38,482.569 853.38,498.415 z" id="boundary" inkscape:connector-curvature="0" />
	<path style="fill:none;stroke:red;stroke-width:1px;stroke-linecap:butt;stroke-linejoin:miter;stroke-opacity:1" d="M 840.703,534.863 824.856,542.786 z" id="boundary" inkscape:connector-curvature="0" />
	<path style="fill:none;stroke:red;stroke-width:1px;stroke-linecap:butt;stroke-linejoin:miter;stroke-opacity:1" d="M 848.626,519.016 840.703,534.863 z" id="boundary" inkscape:connector-curvature="0" />
	<path style="fill:none;stroke:red;stroke-width:1px;stroke-linecap:butt;stroke-linejoin:miter;stroke-opacity:1" d="M 853.38,498.415 848.626,519.016 z" id="boundary" inkscape:connector-curvature="0" />
	<circle cx="4" cy="127.604" r="4" fill="#0" id="circle0"/>
	<circle cx="4" cy="143.45" r="4" fill="#0" id="circle1"/>
	<circle cx="11.9233" cy="157.712" r="4" fill="#0" id="circle2"/>
	<circle cx="16.6773" cy="114.927" r="4" fill="#0" id="circle3"/>
	<circle cx="19.8466" cy="500" r="4" fill="#0" id="circle4"/>
	<circle cx="19.8466" cy="515.847" r="4" fill="#0" id="circle5"/>
	<circle cx="23.016" cy="170.39" r="4" fill="#0" id="circle6"/>
	<circle cx="27.77" cy="95.9105" r="4" fill="#0" id="circle7"/>
	<circle cx="29.3546" cy="528.524" r="4" fill="#0" id="circle8"/>
	<circle cx="32.524" cy="487.323" r="4" fill="#0" id="circle9"/>
	<circle cx="35.6933" cy="179.898" r="4" fill="#0" id="circle10"/>
	<circle cx="40.4473" cy="83.2332" r="4" fill="#0" id="circle11"/>
	<circle cx="45.2013" cy="528.524" r="4" fill="#0" id="circle12"/>
	<circle cx="48.3706" cy="487.323" r="4" fill="#0" id="circle13"/>
	<circle cx="49.9553" cy="187.821" r="4" fill="#0" id="circle14"/>
	<circle cx="53.1246" cy="70.5559" r="4" fill="#0" id="circle15"/>
	<circle cx="59.4633" cy="8.75399" r="4" fill="#0" id="circle16"/>
	<circle cx="61.0479" cy="474.645" r="4" fill="#0" id="circle17"/>
	<circle cx="61.0479" cy="520.601" r="4" fill="#0" id="circle18"/>
	<circle cx="65.8019" cy="187.821" r="4" fill="#0" id="circle19"/>
	<circle cx="67.3866" cy="23.016" r="4" fill="#0" id="circle20"/>
	<circle cx="67.3866" cy="38.8626" r="4" fill="#0" id="circle21"/>
	<circle cx="68.9712" cy="62.6326" r="4" fill="#0" id="circle22"/>
	<circle cx="68.9712" cy="458.799" r="4" fill="#0" id="circle23"/>
	<circle cx="75.3099" cy="4" r="4" fill="#0" id="circle24"/>
	<circle cx="76.8946" cy="512.677" r="4" fill="#0" id="circle25"/>
	<circle cx="80.0639" cy="195.744" r="4" fill="#0" id="circle26"/>
	<circle cx="81.6486" cy="447.706" r="4" fill="#0" id="circle27"/>
	<circle cx="87.9872" cy="13.508" r="4" fill="#0" id="circle28"/>
	<circle cx="92.7412" cy="435.029" r="4" fill="#0" id="circle29"/>
	<circle cx="92.7412" cy="504.754" r="4" fill="#0" id="circle30"/>
	<circle cx="95.9105" cy="195.744" r="4" fill="#0" id="circle31"/>
	<circle cx="100.665" cy="24.6006" r="4" fill="#0" id="circle32"/>
	<circle cx="105.419" cy="423.936" r="4" fill="#0" id="circle33"/>
	<circle cx="105.419" cy="493.661" r="4" fill="#0" id="circle34"/>
	<circle cx="111.757" cy="37.278" r="4" fill="#0" id="circle35"/>
	<circle cx="111.757" cy="202.083" r="4" fill="#0" id="circle36"/>
	<circle cx="116.511" cy="411.259" r="4" fill="#0" id="circle37"/>
	<circle cx="116.511" cy="480.984" r="4" fill="#0" id="circle38"/>
	<circle cx="124.435" cy="48.3706" r="4" fill="#0" id="circle39"/>
	<circle cx="126.019" cy="210.006" r="4" fill="#0" id="circle40"/>
	<circle cx="129.188" cy="400.166" r="4" fill="#0" id="circle41"/>
	<circle cx="130.773" cy="473.061" r="4" fill="#0" id="circle42"/>
	<circle cx="133.942" cy="224.268" r="4" fill="#0" id="circle43"/>
	<circle cx="138.696" cy="240.115" r="4" fill="#0" id="circle44"/>
	<circle cx="138.696" cy="381.15" r="4" fill="#0" id="circle45"/>
	<circle cx="140.281" cy="51.5399" r="4" fill="#0" id="circle46"/>
	<circle cx="140.281" cy="255.962" r="4" fill="#0" id="circle47"/>
	<circle cx="143.45" cy="463.553" r="4" fill="#0" id="circle48"/>
	<circle cx="146.62" cy="271.808" r="4" fill="#0" id="circle49"/>
	<circle cx="148.204" cy="287.655" r="4" fill="#0" id="circle50"/>
	<circle cx="151.374" cy="368.473" r="4" fill="#0" id="circle51"/>
	<circle cx="152.958" cy="61.0479" r="4" fill="#0" id="circle52"/>
	<circle cx="154.543" cy="303.502" r="4" fill="#0" id="circle53"/>
	<circle cx="154.543" cy="341.534" r="4" fill="#0" id="circle54"/>
	<circle cx="156.128" cy="319.348" r="4" fill="#0" id="circle55"/>
	<circle cx="156.128" cy="449.291" r="4" fill="#0" id="circle56"/>
	<circle cx="167.22" cy="68.9712" r="4" fill="#0" id="circle57"/>
	<circle cx="171.974" cy="441.367" r="4" fill="#0" id="circle58"/>
	<circle cx="179.898" cy="80.0639" r="4" fill="#0" id="circle59"/>
	<circle cx="187.821" cy="433.444" r="4" fill="#0" id="circle60"/>
	<circle cx="192.575" cy="91.1565" r="4" fill="#0" id="circle61"/>
	<circle cx="200.498" cy="422.351" r="4" fill="#0" id="circle62"/>
	<circle cx="208.422" cy="92.7412" r="4" fill="#0" id="circle63"/>
	<circle cx="211.591" cy="409.674" r="4" fill="#0" id="circle64"/>
	<circle cx="224.268" cy="91.1565" r="4" fill="#0" id="circle65"/>
	<circle cx="224.268" cy="398.581" r="4" fill="#0" id="circle66"/>
	<circle cx="232.192" cy="382.735" r="4" fill="#0" id="circle67"/>
	<circle cx="240.115" cy="92.7412" r="4" fill="#0" id="circle68"/>
	<circle cx="243.284" cy="370.058" r="4" fill="#0" id="circle69"/>
	<circle cx="255.962" cy="99.0799" r="4" fill="#0" id="circle70"/>
	<circle cx="257.546" cy="362.134" r="4" fill="#0" id="circle71"/>
	<circle cx="267.054" cy="374.812" r="4" fill="#0" id="circle72"/>
	<circle cx="271.808" cy="99.0799" r="4" fill="#0" id="circle73"/>
	<circle cx="273.393" cy="523.77" r="4" fill="#0" id="circle74"/>
	<circle cx="273.393" cy="539.617" r="4" fill="#0" id="circle75"/>
	<circle cx="274.978" cy="389.073" r="4" fill="#0" id="circle76"/>
	<circle cx="281.316" cy="404.92" r="4" fill="#0" id="circle77"/>
	<circle cx="282.901" cy="552.294" r="4" fill="#0" id="circle78"/>
	<circle cx="286.07" cy="511.093" r="4" fill="#0" id="circle79"/>
	<circle cx="287.655" cy="99.0799" r="4" fill="#0" id="circle80"/>
	<circle cx="289.24" cy="419.182" r="4" fill="#0" id="circle81"/>
	<circle cx="297.163" cy="433.444" r="4" fill="#0" id="circle82"/>
	<circle cx="297.163" cy="449.291" r="4" fill="#0" id="circle83"/>
	<circle cx="298.748" cy="552.294" r="4" fill="#0" id="circle84"/>
	<circle cx="301.917" cy="511.093" r="4" fill="#0" id="circle85"/>
	<circle cx="303.502" cy="99.0799" r="4" fill="#0" id="circle86"/>
	<circle cx="305.086" cy="463.553" r="4" fill="#0" id="circle87"/>
	<circle cx="305.086" cy="479.399" r="4" fill="#0" id="circle88"/>
	<circle cx="305.086" cy="495.246" r="4" fill="#0" id="circle89"/>
	<circle cx="314.594" cy="544.371" r="4" fill="#0" id="circle90"/>
	<circle cx="319.348" cy="99.0799" r="4" fill="#0" id="circle91"/>
	<circle cx="330.441" cy="536.447" r="4" fill="#0" id="circle92"/>
	<circle cx="335.195" cy="99.0799" r="4" fill="#0" id="circle93"/>
	<circle cx="343.118" cy="525.355" r="4" fill="#0" id="circle94"/>
	<circle cx="351.042" cy="99.0799" r="4" fill="#0" id="circle95"/>
	<circle cx="351.042" cy="509.508" r="4" fill="#0" id="circle96"/>
	<circle cx="354.211" cy="362.134" r="4" fill="#0" id="circle97"/>
	<circle cx="354.211" cy="377.981" r="4" fill="#0" id="circle98"/>
	<circle cx="354.211" cy="393.827" r="4" fill="#0" id="circle99"/>
	<circle cx="354.211" cy="409.674" r="4" fill="#0" id="circle100"/>
	<circle cx="354.211" cy="425.521" r="4" fill="#0" id="circle101"/>
	<circle cx="354.211" cy="441.367" r="4" fill="#0" id="circle102"/>
	<circle cx="354.211" cy="457.214" r="4" fill="#0" id="circle103"/>
	<circle cx="357.38" cy="473.061" r="4" fill="#0" id="circle104"/>
	<circle cx="358.965" cy="493.661" r="4" fill="#0" id="circle105"/>
	<circle cx="362.134" cy="330.441" r="4" fill="#0" id="circle106"/>
	<circle cx="362.134" cy="346.288" r="4" fill="#0" id="circle107"/>
	<circle cx="365.304" cy="91.1565" r="4" fill="#0" id="circle108"/>
	<circle cx="376.396" cy="322.518" r="4" fill="#0" id="circle109"/>
	<circle cx="379.565" cy="99.0799" r="4" fill="#0" id="circle110"/>
	<circle cx="390.658" cy="314.594" r="4" fill="#0" id="circle111"/>
	<circle cx="393.827" cy="91.1565" r="4" fill="#0" id="circle112"/>
	<circle cx="404.92" cy="306.671" r="4" fill="#0" id="circle113"/>
	<circle cx="409.674" cy="91.1565" r="4" fill="#0" id="circle114"/>
	<circle cx="420.767" cy="306.671" r="4" fill="#0" id="circle115"/>
	<circle cx="425.521" cy="91.1565" r="4" fill="#0" id="circle116"/>
	<circle cx="436.613" cy="306.671" r="4" fill="#0" id="circle117"/>
	<circle cx="441.367" cy="91.1565" r="4" fill="#0" id="circle118"/>
	<circle cx="452.46" cy="306.671" r="4" fill="#0" id="circle119"/>
	<circle cx="457.214" cy="91.1565" r="4" fill="#0" id="circle120"/>
	<circle cx="468.307" cy="306.671" r="4" fill="#0" id="circle121"/>
	<circle cx="473.061" cy="91.1565" r="4" fill="#0" id="circle122"/>
	<circle cx="484.153" cy="306.671" r="4" fill="#0" id="circle123"/>
	<circle cx="487.323" cy="83.2332" r="4" fill="#0" id="circle124"/>
	<circle cx="500" cy="306.671" r="4" fill="#0" id="circle125"/>
	<circle cx="501.585" cy="91.1565" r="4" fill="#0" id="circle126"/>
	<circle cx="515.847" cy="306.671" r="4" fill="#0" id="circle127"/>
	<circle cx="517.431" cy="91.1565" r="4" fill="#0" id="circle128"/>
	<circle cx="531.693" cy="306.671" r="4" fill="#0" id="circle129"/>
	<circle cx="533.278" cy="91.1565" r="4" fill="#0" id="circle130"/>
	<circle cx="547.54" cy="306.671" r="4" fill="#0" id="circle131"/>
	<circle cx="549.125" cy="91.1565" r="4" fill="#0" id="circle132"/>
	<circle cx="558.633" cy="319.348" r="4" fill="#0" id="circle133"/>
	<circle cx="558.633" cy="515.847" r="4" fill="#0" id="circle134"/>
	<circle cx="564.971" cy="91.1565" r="4" fill="#0" id="circle135"/>
	<circle cx="566.556" cy="333.61" r="4" fill="#0" id="circle136"/>
	<circle cx="566.556" cy="530.109" r="4" fill="#0" id="circle137"/>
	<circle cx="571.31" cy="503.169" r="4" fill="#0" id="circle138"/>
	<circle cx="574.479" cy="347.872" r="4" fill="#0" id="circle139"/>
	<circle cx="580.818" cy="91.1565" r="4" fill="#0" id="circle140"/>
	<circle cx="582.403" cy="362.134" r="4" fill="#0" id="circle141"/>
	<circle cx="582.403" cy="536.447" r="4" fill="#0" id="circle142"/>
	<circle cx="587.157" cy="495.246" r="4" fill="#0" id="circle143"/>
	<circle cx="591.911" cy="374.812" r="4" fill="#0" id="circle144"/>
	<circle cx="596.665" cy="91.1565" r="4" fill="#0" id="circle145"/>
	<circle cx="598.249" cy="390.658" r="4" fill="#0" id="circle146"/>
	<circle cx="598.249" cy="536.447" r="4" fill="#0" id="circle147"/>
	<circle cx="599.834" cy="482.569" r="4" fill="#0" id="circle148"/>
	<circle cx="606.173" cy="404.92" r="4" fill="#0" id="circle149"/>
	<circle cx="612.511" cy="91.1565" r="4" fill="#0" id="circle150"/>
	<circle cx="612.511" cy="471.476" r="4" fill="#0" id="circle151"/>
	<circle cx="614.096" cy="419.182" r="4" fill="#0" id="circle152"/>
	<circle cx="614.096" cy="452.46" r="4" fill="#0" id="circle153"/>
	<circle cx="614.096" cy="531.693" r="4" fill="#0" id="circle154"/>
	<circle cx="622.019" cy="433.444" r="4" fill="#0" id="circle155"/>
	<circle cx="626.773" cy="83.2332" r="4" fill="#0" id="circle156"/>
	<circle cx="629.942" cy="523.77" r="4" fill="#0" id="circle157"/>
	<circle cx="637.866" cy="507.923" r="4" fill="#0" id="circle158"/>
	<circle cx="641.035" cy="91.1565" r="4" fill="#0" id="circle159"/>
	<circle cx="647.374" cy="488.907" r="4" fill="#0" id="circle160"/>
	<circle cx="655.297" cy="473.061" r="4" fill="#0" id="circle161"/>
	<circle cx="656.882" cy="91.1565" r="4" fill="#0" id="circle162"/>
	<circle cx="667.974" cy="461.968" r="4" fill="#0" id="circle163"/>
	<circle cx="672.728" cy="91.1565" r="4" fill="#0" id="circle164"/>
	<circle cx="675.898" cy="446.121" r="4" fill="#0" id="circle165"/>
	<circle cx="679.067" cy="362.134" r="4" fill="#0" id="circle166"/>
	<circle cx="679.067" cy="377.981" r="4" fill="#0" id="circle167"/>
	<circle cx="682.236" cy="393.827" r="4" fill="#0" id="circle168"/>
	<circle cx="683.821" cy="430.275" r="4" fill="#0" id="circle169"/>
	<circle cx="686.99" cy="99.0799" r="4" fill="#0" id="circle170"/>
	<circle cx="686.99" cy="409.674" r="4" fill="#0" id="circle171"/>
	<circle cx="694.914" cy="362.134" r="4" fill="#0" id="circle172"/>
	<circle cx="701.252" cy="107.003" r="4" fill="#0" id="circle173"/>
	<circle cx="709.176" cy="370.058" r="4" fill="#0" id="circle174"/>
	<circle cx="717.099" cy="110.173" r="4" fill="#0" id="circle175"/>
	<circle cx="718.684" cy="382.735" r="4" fill="#0" id="circle176"/>
	<circle cx="731.361" cy="118.096" r="4" fill="#0" id="circle177"/>
	<circle cx="734.53" cy="389.073" r="4" fill="#0" id="circle178"/>
	<circle cx="745.623" cy="401.751" r="4" fill="#0" id="circle179"/>
	<circle cx="747.208" cy="124.435" r="4" fill="#0" id="circle180"/>
	<circle cx="761.47" cy="132.358" r="4" fill="#0" id="circle181"/>
	<circle cx="761.47" cy="408.089" r="4" fill="#0" id="circle182"/>
	<circle cx="774.147" cy="143.45" r="4" fill="#0" id="circle183"/>
	<circle cx="775.732" cy="416.013" r="4" fill="#0" id="circle184"/>
	<circle cx="782.07" cy="259.131" r="4" fill="#0" id="circle185"/>
	<circle cx="782.07" cy="274.978" r="4" fill="#0" id="circle186"/>
	<circle cx="788.409" cy="151.374" r="4" fill="#0" id="circle187"/>
	<circle cx="788.409" cy="425.521" r="4" fill="#0" id="circle188"/>
	<circle cx="789.994" cy="289.24" r="4" fill="#0" id="circle189"/>
	<circle cx="789.994" cy="305.086" r="4" fill="#0" id="circle190"/>
	<circle cx="796.332" cy="439.783" r="4" fill="#0" id="circle191"/>
	<circle cx="796.332" cy="515.847" r="4" fill="#0" id="circle192"/>
	<circle cx="796.332" cy="531.693" r="4" fill="#0" id="circle193"/>
	<circle cx="797.917" cy="262.3" r="4" fill="#0" id="circle194"/>
	<circle cx="797.917" cy="319.348" r="4" fill="#0" id="circle195"/>
	<circle cx="801.086" cy="162.466" r="4" fill="#0" id="circle196"/>
	<circle cx="804.256" cy="454.045" r="4" fill="#0" id="circle197"/>
	<circle cx="805.84" cy="178.313" r="4" fill="#0" id="circle198"/>
	<circle cx="805.84" cy="333.61" r="4" fill="#0" id="circle199"/>
	<circle cx="805.84" cy="469.891" r="4" fill="#0" id="circle200"/>
	<circle cx="809.01" cy="274.978" r="4" fill="#0" id="circle201"/>
	<circle cx="809.01" cy="503.169" r="4" fill="#0" id="circle202"/>
	<circle cx="809.01" cy="542.786" r="4" fill="#0" id="circle203"/>
	<circle cx="812.179" cy="485.738" r="4" fill="#0" id="circle204"/>
	<circle cx="813.764" cy="192.575" r="4" fill="#0" id="circle205"/>
	<circle cx="813.764" cy="347.872" r="4" fill="#0" id="circle206"/>
	<circle cx="821.687" cy="206.837" r="4" fill="#0" id="circle207"/>
	<circle cx="821.687" cy="286.07" r="4" fill="#0" id="circle208"/>
	<circle cx="823.272" cy="360.55" r="4" fill="#0" id="circle209"/>
	<circle cx="824.856" cy="542.786" r="4" fill="#0" id="circle210"/>
	<circle cx="829.61" cy="221.099" r="4" fill="#0" id="circle211"/>
	<circle cx="829.61" cy="376.396" r="4" fill="#0" id="circle212"/>
	<circle cx="832.78" cy="298.748" r="4" fill="#0" id="circle213"/>
	<circle cx="837.534" cy="390.658" r="4" fill="#0" id="circle214"/>
	<circle cx="839.118" cy="233.776" r="4" fill="#0" id="circle215"/>
	<circle cx="840.703" cy="534.863" r="4" fill="#0" id="circle216"/>
	<circle cx="845.457" cy="404.92" r="4" fill="#0" id="circle217"/>
	<circle cx="845.457" cy="420.767" r="4" fill="#0" id="circle218"/>
	<circle cx="845.457" cy="436.613" r="4" fill="#0" id="circle219"/>
	<circle cx="848.626" cy="305.086" r="4" fill="#0" id="circle220"/>
	<circle cx="848.626" cy="519.016" r="4" fill="#0" id="circle221"/>
	<circle cx="851.796" cy="244.869" r="4" fill="#0" id="circle222"/>
	<circle cx="853.38" cy="450.875" r="4" fill="#0" id="circle223"/>
	<circle cx="853.38" cy="466.722" r="4" fill="#0" id="circle224"/>
	<circle cx="853.38" cy="482.569" r="4" fill="#0" id="circle225"/>
	<circle cx="853.38" cy="498.415" r="4" fill="#0" id="circle226"/>
	<circle cx="861.304" cy="257.546" r="4" fill="#0" id="circle227"/>
	<circle cx="861.304" cy="314.594" r="4" fill="#0" id="circle228"/>
	<circle cx="877.15" cy="262.3" r="4" fill="#0" id="circle229"/>
	<circle cx="877.15" cy="317.764" r="4" fill="#0" id="circle230"/>
	<circle cx="891.412" cy="270.224" r="4" fill="#0" id="circle231"/>
	<circle cx="892.997" cy="322.518" r="4" fill="#0" id="circle232"/>
	<circle cx="907.259" cy="273.393" r="4" fill="#0" id="circle233"/>
	<circle cx="908.843" cy="322.518" r="4" fill="#0" id="circle234"/>
	<circle cx="923.105" cy="273.393" r="4" fill="#0" id="circle235"/>
	<circle cx="924.69" cy="322.518" r="4" fill="#0" id="circle236"/>
	<circle cx="938.952" cy="270.224" r="4" fill="#0" id="circle237"/>
	<circle cx="938.952" cy="314.594" r="4" fill="#0" id="circle238"/>
	<circle cx="954.799" cy="262.3" r="4" fill="#0" id="circle239"/>
	<circle cx="954.799" cy="309.84" r="4" fill="#0" id="circle240"/>
	<circle cx="967.476" cy="249.623" r="4" fill="#0" id="circle241"/>
	<circle cx="970.645" cy="301.917" r="4" fill="#0" id="circle242"/>
	<circle cx="981.738" cy="241.7" r="4" fill="#0" id="circle243"/>
	<circle cx="983.323" cy="289.24" r="4" fill="#0" id="circle244"/>
	<circle cx="996" cy="249.623" r="4" fill="#0" id="circle245"/>
	<circle cx="996" cy="265.47" r="4" fill="#0" id="circle246"/>
	</g>
</svg>