<?xml version="1.0" encoding="UTF-8" standalone="no"?>
<!-- Created with CurveBenchmark -->
<svg
	xmlns:dc="http://purl.org/dc/elements/1.1/"
	xmlns:cc="http://creativecommons.org/ns#"
	xmlns:rdf="http://www.w3.org/1999/02/22-rdf-syntax-ns#"
	xmlns:svg="http://www.w3.org/2000/svg"
	xmlns="http://www.w3.org/2000/svg"
	xmlns:sodipodi="http://sodipodi.sourceforge.net/DTD/sodipodi-0.dtd"
	xmlns:inkscape="http://www.inkscape.org/namespaces/inkscape"
	width="1000"
	height="1000"
	id="svg2"
	version="1.1"
	sodipodi:docname="manifold/ccrust-bed125.png.txt">
<defs
	id="defs4" />
<metadata
	id="metadata7">
	<rdf:RDF>
		<cc:Work
			rdf:about="">
			<dc:format>image/svg+xml</dc:format>
			<dc:type
				rdf:resource="http://purl.org/dc/dcmitype/StillImage" />
			<dc:title></dc:title>
		</cc:Work>
	</rdf:RDF>
</metadata>
<g
	inkscape:label="Layer 1"
	inkscape:groupmode="layer"
	id="layer1">
	<path style="fill:none;stroke:red;stroke-width:1px;stroke-linecap:butt;stroke-linejoin:miter;stroke-opacity:1" d="M 51.7081,87.9005 68.1592,81.3201 z" id="boundary" inkscape:connector-curvature="0" />
	<path style="fill:none;stroke:red;stroke-width:1px;stroke-linecap:butt;stroke-linejoin:miter;stroke-opacity:1" d="M 84.6103,74.7396 68.1592,81.3201 z" id="boundary" inkscape:connector-curvature="0" />
	<path style="fill:none;stroke:red;stroke-width:1px;stroke-linecap:butt;stroke-linejoin:miter;stroke-opacity:1" d="M 23.7413,105.997 36.9022,96.126 z" id="boundary" inkscape:connector-curvature="0" />
	<path style="fill:none;stroke:red;stroke-width:1px;stroke-linecap:butt;stroke-linejoin:miter;stroke-opacity:1" d="M 176.736,4 163.575,15.5158 z" id="boundary" inkscape:connector-curvature="0" />
	<path style="fill:none;stroke:red;stroke-width:1px;stroke-linecap:butt;stroke-linejoin:miter;stroke-opacity:1" d="M 36.9022,96.126 51.7081,87.9005 z" id="boundary" inkscape:connector-curvature="0" />
	<path style="fill:none;stroke:red;stroke-width:1px;stroke-linecap:butt;stroke-linejoin:miter;stroke-opacity:1" d="M 163.575,15.5158 155.35,30.3217 z" id="boundary" inkscape:connector-curvature="0" />
	<path style="fill:none;stroke:red;stroke-width:1px;stroke-linecap:butt;stroke-linejoin:miter;stroke-opacity:1" d="M 155.35,30.3217 142.189,40.1924 z" id="boundary" inkscape:connector-curvature="0" />
	<path style="fill:none;stroke:red;stroke-width:1px;stroke-linecap:butt;stroke-linejoin:miter;stroke-opacity:1" d="M 142.189,40.1924 129.028,50.063 z" id="boundary" inkscape:connector-curvature="0" />
	<path style="fill:none;stroke:red;stroke-width:1px;stroke-linecap:butt;stroke-linejoin:miter;stroke-opacity:1" d="M 129.028,50.063 117.512,63.2239 z" id="boundary" inkscape:connector-curvature="0" />
	<path style="fill:none;stroke:red;stroke-width:1px;stroke-linecap:butt;stroke-linejoin:miter;stroke-opacity:1" d="M 117.512,63.2239 101.061,68.1592 z" id="boundary" inkscape:connector-curvature="0" />
	<path style="fill:none;stroke:red;stroke-width:1px;stroke-linecap:butt;stroke-linejoin:miter;stroke-opacity:1" d="M 101.061,68.1592 84.6103,74.7396 z" id="boundary" inkscape:connector-curvature="0" />
	<path style="fill:none;stroke:red;stroke-width:1px;stroke-linecap:butt;stroke-linejoin:miter;stroke-opacity:1" d="M 4,132.318 10.5804,115.867 z" id="boundary" inkscape:connector-curvature="0" />
	<path style="fill:none;stroke:red;stroke-width:1px;stroke-linecap:butt;stroke-linejoin:miter;stroke-opacity:1" d="M 7.29022,148.769 4,132.318 z" id="boundary" inkscape:connector-curvature="0" />
	<path style="fill:none;stroke:red;stroke-width:1px;stroke-linecap:butt;stroke-linejoin:miter;stroke-opacity:1" d="M 7.29022,148.769 10.5804,165.221 z" id="boundary" inkscape:connector-curvature="0" />
	<path style="fill:none;stroke:red;stroke-width:1px;stroke-linecap:butt;stroke-linejoin:miter;stroke-opacity:1" d="M 10.5804,165.221 10.5804,181.672 z" id="boundary" inkscape:connector-curvature="0" />
	<path style="fill:none;stroke:red;stroke-width:1px;stroke-linecap:butt;stroke-linejoin:miter;stroke-opacity:1" d="M 10.5804,115.867 23.7413,105.997 z" id="boundary" inkscape:connector-curvature="0" />
	<path style="fill:none;stroke:red;stroke-width:1px;stroke-linecap:butt;stroke-linejoin:miter;stroke-opacity:1" d="M 13.8706,198.123 10.5804,181.672 z" id="boundary" inkscape:connector-curvature="0" />
	<path style="fill:none;stroke:red;stroke-width:1px;stroke-linecap:butt;stroke-linejoin:miter;stroke-opacity:1" d="M 13.8706,214.574 13.8706,231.025 z" id="boundary" inkscape:connector-curvature="0" />
	<path style="fill:none;stroke:red;stroke-width:1px;stroke-linecap:butt;stroke-linejoin:miter;stroke-opacity:1" d="M 13.8706,214.574 13.8706,198.123 z" id="boundary" inkscape:connector-curvature="0" />
	<path style="fill:none;stroke:red;stroke-width:1px;stroke-linecap:butt;stroke-linejoin:miter;stroke-opacity:1" d="M 10.5804,270.507 13.8706,247.476 z" id="boundary" inkscape:connector-curvature="0" />
	<path style="fill:none;stroke:red;stroke-width:1px;stroke-linecap:butt;stroke-linejoin:miter;stroke-opacity:1" d="M 10.5804,286.959 10.5804,270.507 z" id="boundary" inkscape:connector-curvature="0" />
	<path style="fill:none;stroke:red;stroke-width:1px;stroke-linecap:butt;stroke-linejoin:miter;stroke-opacity:1" d="M 13.8706,231.025 13.8706,247.476 z" id="boundary" inkscape:connector-curvature="0" />
	<path style="fill:none;stroke:red;stroke-width:1px;stroke-linecap:butt;stroke-linejoin:miter;stroke-opacity:1" d="M 10.5804,286.959 7.29022,303.41 z" id="boundary" inkscape:connector-curvature="0" />
	<path style="fill:none;stroke:red;stroke-width:1px;stroke-linecap:butt;stroke-linejoin:miter;stroke-opacity:1" d="M 193.187,7.29022 201.413,22.0962 z" id="boundary" inkscape:connector-curvature="0" />
	<path style="fill:none;stroke:red;stroke-width:1px;stroke-linecap:butt;stroke-linejoin:miter;stroke-opacity:1" d="M 226.09,43.4826 209.638,36.9022 z" id="boundary" inkscape:connector-curvature="0" />
	<path style="fill:none;stroke:red;stroke-width:1px;stroke-linecap:butt;stroke-linejoin:miter;stroke-opacity:1" d="M 209.638,36.9022 201.413,22.0962 z" id="boundary" inkscape:connector-curvature="0" />
	<path style="fill:none;stroke:red;stroke-width:1px;stroke-linecap:butt;stroke-linejoin:miter;stroke-opacity:1" d="M 226.09,43.4826 235.96,56.6434 z" id="boundary" inkscape:connector-curvature="0" />
	<path style="fill:none;stroke:red;stroke-width:1px;stroke-linecap:butt;stroke-linejoin:miter;stroke-opacity:1" d="M 249.121,66.5141 235.96,56.6434 z" id="boundary" inkscape:connector-curvature="0" />
	<path style="fill:none;stroke:red;stroke-width:1px;stroke-linecap:butt;stroke-linejoin:miter;stroke-opacity:1" d="M 265.572,73.0945 249.121,66.5141 z" id="boundary" inkscape:connector-curvature="0" />
	<path style="fill:none;stroke:red;stroke-width:1px;stroke-linecap:butt;stroke-linejoin:miter;stroke-opacity:1" d="M 282.023,79.675 298.474,86.2554 z" id="boundary" inkscape:connector-curvature="0" />
	<path style="fill:none;stroke:red;stroke-width:1px;stroke-linecap:butt;stroke-linejoin:miter;stroke-opacity:1" d="M 282.023,79.675 265.572,73.0945 z" id="boundary" inkscape:connector-curvature="0" />
	<path style="fill:none;stroke:red;stroke-width:1px;stroke-linecap:butt;stroke-linejoin:miter;stroke-opacity:1" d="M 313.28,94.4809 298.474,86.2554 z" id="boundary" inkscape:connector-curvature="0" />
	<path style="fill:none;stroke:red;stroke-width:1px;stroke-linecap:butt;stroke-linejoin:miter;stroke-opacity:1" d="M 326.441,104.352 337.957,117.512 z" id="boundary" inkscape:connector-curvature="0" />
	<path style="fill:none;stroke:red;stroke-width:1px;stroke-linecap:butt;stroke-linejoin:miter;stroke-opacity:1" d="M 331.376,168.511 339.602,153.705 z" id="boundary" inkscape:connector-curvature="0" />
	<path style="fill:none;stroke:red;stroke-width:1px;stroke-linecap:butt;stroke-linejoin:miter;stroke-opacity:1" d="M 329.731,189.897 331.376,168.511 z" id="boundary" inkscape:connector-curvature="0" />
	<path style="fill:none;stroke:red;stroke-width:1px;stroke-linecap:butt;stroke-linejoin:miter;stroke-opacity:1" d="M 342.892,201.413 329.731,189.897 z" id="boundary" inkscape:connector-curvature="0" />
	<path style="fill:none;stroke:red;stroke-width:1px;stroke-linecap:butt;stroke-linejoin:miter;stroke-opacity:1" d="M 359.343,204.703 342.892,201.413 z" id="boundary" inkscape:connector-curvature="0" />
	<path style="fill:none;stroke:red;stroke-width:1px;stroke-linecap:butt;stroke-linejoin:miter;stroke-opacity:1" d="M 337.957,117.512 344.537,133.964 z" id="boundary" inkscape:connector-curvature="0" />
	<path style="fill:none;stroke:red;stroke-width:1px;stroke-linecap:butt;stroke-linejoin:miter;stroke-opacity:1" d="M 344.537,133.964 339.602,153.705 z" id="boundary" inkscape:connector-curvature="0" />
	<path style="fill:none;stroke:red;stroke-width:1px;stroke-linecap:butt;stroke-linejoin:miter;stroke-opacity:1" d="M 313.28,94.4809 326.441,104.352 z" id="boundary" inkscape:connector-curvature="0" />
	<path style="fill:none;stroke:red;stroke-width:1px;stroke-linecap:butt;stroke-linejoin:miter;stroke-opacity:1" d="M 375.794,204.703 359.343,204.703 z" id="boundary" inkscape:connector-curvature="0" />
	<path style="fill:none;stroke:red;stroke-width:1px;stroke-linecap:butt;stroke-linejoin:miter;stroke-opacity:1" d="M 392.245,207.993 375.794,204.703 z" id="boundary" inkscape:connector-curvature="0" />
	<path style="fill:none;stroke:red;stroke-width:1px;stroke-linecap:butt;stroke-linejoin:miter;stroke-opacity:1" d="M 392.245,207.993 408.697,211.284 z" id="boundary" inkscape:connector-curvature="0" />
	<path style="fill:none;stroke:red;stroke-width:1px;stroke-linecap:butt;stroke-linejoin:miter;stroke-opacity:1" d="M 425.148,217.864 408.697,211.284 z" id="boundary" inkscape:connector-curvature="0" />
	<path style="fill:none;stroke:red;stroke-width:1px;stroke-linecap:butt;stroke-linejoin:miter;stroke-opacity:1" d="M 176.736,4 193.187,7.29022 z" id="boundary" inkscape:connector-curvature="0" />
	<path style="fill:none;stroke:red;stroke-width:1px;stroke-linecap:butt;stroke-linejoin:miter;stroke-opacity:1" d="M 4,375.794 4,359.343 z" id="boundary" inkscape:connector-curvature="0" />
	<path style="fill:none;stroke:red;stroke-width:1px;stroke-linecap:butt;stroke-linejoin:miter;stroke-opacity:1" d="M 4,392.245 4,375.794 z" id="boundary" inkscape:connector-curvature="0" />
	<path style="fill:none;stroke:red;stroke-width:1px;stroke-linecap:butt;stroke-linejoin:miter;stroke-opacity:1" d="M 4,408.697 4,392.245 z" id="boundary" inkscape:connector-curvature="0" />
	<path style="fill:none;stroke:red;stroke-width:1px;stroke-linecap:butt;stroke-linejoin:miter;stroke-opacity:1" d="M 84.6103,443.244 68.1592,443.244 z" id="boundary" inkscape:connector-curvature="0" />
	<path style="fill:none;stroke:red;stroke-width:1px;stroke-linecap:butt;stroke-linejoin:miter;stroke-opacity:1" d="M 4,359.343 4,342.892 z" id="boundary" inkscape:connector-curvature="0" />
	<path style="fill:none;stroke:red;stroke-width:1px;stroke-linecap:butt;stroke-linejoin:miter;stroke-opacity:1" d="M 7.29022,319.861 4,342.892 z" id="boundary" inkscape:connector-curvature="0" />
	<path style="fill:none;stroke:red;stroke-width:1px;stroke-linecap:butt;stroke-linejoin:miter;stroke-opacity:1" d="M 7.29022,303.41 7.29022,319.861 z" id="boundary" inkscape:connector-curvature="0" />
	<path style="fill:none;stroke:red;stroke-width:1px;stroke-linecap:butt;stroke-linejoin:miter;stroke-opacity:1" d="M 4,425.148 4,408.697 z" id="boundary" inkscape:connector-curvature="0" />
	<path style="fill:none;stroke:red;stroke-width:1px;stroke-linecap:butt;stroke-linejoin:miter;stroke-opacity:1" d="M 7.29022,441.599 4,425.148 z" id="boundary" inkscape:connector-curvature="0" />
	<path style="fill:none;stroke:red;stroke-width:1px;stroke-linecap:butt;stroke-linejoin:miter;stroke-opacity:1" d="M 68.1592,443.244 51.7081,443.244 z" id="boundary" inkscape:connector-curvature="0" />
	<path style="fill:none;stroke:red;stroke-width:1px;stroke-linecap:butt;stroke-linejoin:miter;stroke-opacity:1" d="M 51.7081,443.244 35.257,444.889 z" id="boundary" inkscape:connector-curvature="0" />
	<path style="fill:none;stroke:red;stroke-width:1px;stroke-linecap:butt;stroke-linejoin:miter;stroke-opacity:1" d="M 35.257,461.34 31.9668,481.081 z" id="boundary" inkscape:connector-curvature="0" />
	<path style="fill:none;stroke:red;stroke-width:1px;stroke-linecap:butt;stroke-linejoin:miter;stroke-opacity:1" d="M 13.8706,474.501 10.5804,458.05 z" id="boundary" inkscape:connector-curvature="0" />
	<path style="fill:none;stroke:red;stroke-width:1px;stroke-linecap:butt;stroke-linejoin:miter;stroke-opacity:1" d="M 13.8706,490.952 13.8706,474.501 z" id="boundary" inkscape:connector-curvature="0" />
	<path style="fill:none;stroke:red;stroke-width:1px;stroke-linecap:butt;stroke-linejoin:miter;stroke-opacity:1" d="M 31.9668,509.048 15.5158,507.403 z" id="boundary" inkscape:connector-curvature="0" />
	<path style="fill:none;stroke:red;stroke-width:1px;stroke-linecap:butt;stroke-linejoin:miter;stroke-opacity:1" d="M 15.5158,507.403 13.8706,490.952 z" id="boundary" inkscape:connector-curvature="0" />
	<path style="fill:none;stroke:red;stroke-width:1px;stroke-linecap:butt;stroke-linejoin:miter;stroke-opacity:1" d="M 7.29022,441.599 10.5804,458.05 z" id="boundary" inkscape:connector-curvature="0" />
	<path style="fill:none;stroke:red;stroke-width:1px;stroke-linecap:butt;stroke-linejoin:miter;stroke-opacity:1" d="M 84.6103,443.244 101.061,443.244 z" id="boundary" inkscape:connector-curvature="0" />
	<path style="fill:none;stroke:red;stroke-width:1px;stroke-linecap:butt;stroke-linejoin:miter;stroke-opacity:1" d="M 117.512,443.244 101.061,443.244 z" id="boundary" inkscape:connector-curvature="0" />
	<path style="fill:none;stroke:red;stroke-width:1px;stroke-linecap:butt;stroke-linejoin:miter;stroke-opacity:1" d="M 35.257,461.34 35.257,444.889 z" id="boundary" inkscape:connector-curvature="0" />
	<path style="fill:none;stroke:red;stroke-width:1px;stroke-linecap:butt;stroke-linejoin:miter;stroke-opacity:1" d="M 117.512,443.244 133.964,443.244 z" id="boundary" inkscape:connector-curvature="0" />
	<path style="fill:none;stroke:red;stroke-width:1px;stroke-linecap:butt;stroke-linejoin:miter;stroke-opacity:1" d="M 133.964,443.244 150.415,443.244 z" id="boundary" inkscape:connector-curvature="0" />
	<path style="fill:none;stroke:red;stroke-width:1px;stroke-linecap:butt;stroke-linejoin:miter;stroke-opacity:1" d="M 166.866,443.244 183.317,443.244 z" id="boundary" inkscape:connector-curvature="0" />
	<path style="fill:none;stroke:red;stroke-width:1px;stroke-linecap:butt;stroke-linejoin:miter;stroke-opacity:1" d="M 183.317,443.244 199.768,443.244 z" id="boundary" inkscape:connector-curvature="0" />
	<path style="fill:none;stroke:red;stroke-width:1px;stroke-linecap:butt;stroke-linejoin:miter;stroke-opacity:1" d="M 199.768,443.244 216.219,443.244 z" id="boundary" inkscape:connector-curvature="0" />
	<path style="fill:none;stroke:red;stroke-width:1px;stroke-linecap:butt;stroke-linejoin:miter;stroke-opacity:1" d="M 166.866,443.244 150.415,443.244 z" id="boundary" inkscape:connector-curvature="0" />
	<path style="fill:none;stroke:red;stroke-width:1px;stroke-linecap:butt;stroke-linejoin:miter;stroke-opacity:1" d="M 232.67,443.244 249.121,443.244 z" id="boundary" inkscape:connector-curvature="0" />
	<path style="fill:none;stroke:red;stroke-width:1px;stroke-linecap:butt;stroke-linejoin:miter;stroke-opacity:1" d="M 232.67,443.244 216.219,443.244 z" id="boundary" inkscape:connector-curvature="0" />
	<path style="fill:none;stroke:red;stroke-width:1px;stroke-linecap:butt;stroke-linejoin:miter;stroke-opacity:1" d="M 249.121,443.244 265.572,443.244 z" id="boundary" inkscape:connector-curvature="0" />
	<path style="fill:none;stroke:red;stroke-width:1px;stroke-linecap:butt;stroke-linejoin:miter;stroke-opacity:1" d="M 282.023,443.244 298.474,443.244 z" id="boundary" inkscape:connector-curvature="0" />
	<path style="fill:none;stroke:red;stroke-width:1px;stroke-linecap:butt;stroke-linejoin:miter;stroke-opacity:1" d="M 282.023,443.244 265.572,443.244 z" id="boundary" inkscape:connector-curvature="0" />
	<path style="fill:none;stroke:red;stroke-width:1px;stroke-linecap:butt;stroke-linejoin:miter;stroke-opacity:1" d="M 314.925,446.534 298.474,443.244 z" id="boundary" inkscape:connector-curvature="0" />
	<path style="fill:none;stroke:red;stroke-width:1px;stroke-linecap:butt;stroke-linejoin:miter;stroke-opacity:1" d="M 319.861,462.985 341.247,459.695 z" id="boundary" inkscape:connector-curvature="0" />
	<path style="fill:none;stroke:red;stroke-width:1px;stroke-linecap:butt;stroke-linejoin:miter;stroke-opacity:1" d="M 319.861,462.985 314.925,446.534 z" id="boundary" inkscape:connector-curvature="0" />
	<path style="fill:none;stroke:red;stroke-width:1px;stroke-linecap:butt;stroke-linejoin:miter;stroke-opacity:1" d="M 337.957,487.662 319.861,490.952 z" id="boundary" inkscape:connector-curvature="0" />
	<path style="fill:none;stroke:red;stroke-width:1px;stroke-linecap:butt;stroke-linejoin:miter;stroke-opacity:1" d="M 323.151,507.403 319.861,490.952 z" id="boundary" inkscape:connector-curvature="0" />
	<path style="fill:none;stroke:red;stroke-width:1px;stroke-linecap:butt;stroke-linejoin:miter;stroke-opacity:1" d="M 339.602,509.048 323.151,507.403 z" id="boundary" inkscape:connector-curvature="0" />
	<path style="fill:none;stroke:red;stroke-width:1px;stroke-linecap:butt;stroke-linejoin:miter;stroke-opacity:1" d="M 356.053,443.244 372.504,443.244 z" id="boundary" inkscape:connector-curvature="0" />
	<path style="fill:none;stroke:red;stroke-width:1px;stroke-linecap:butt;stroke-linejoin:miter;stroke-opacity:1" d="M 356.053,443.244 339.602,443.244 z" id="boundary" inkscape:connector-curvature="0" />
	<path style="fill:none;stroke:red;stroke-width:1px;stroke-linecap:butt;stroke-linejoin:miter;stroke-opacity:1" d="M 372.504,443.244 388.955,443.244 z" id="boundary" inkscape:connector-curvature="0" />
	<path style="fill:none;stroke:red;stroke-width:1px;stroke-linecap:butt;stroke-linejoin:miter;stroke-opacity:1" d="M 405.406,443.244 421.857,443.244 z" id="boundary" inkscape:connector-curvature="0" />
	<path style="fill:none;stroke:red;stroke-width:1px;stroke-linecap:butt;stroke-linejoin:miter;stroke-opacity:1" d="M 388.955,443.244 405.406,443.244 z" id="boundary" inkscape:connector-curvature="0" />
	<path style="fill:none;stroke:red;stroke-width:1px;stroke-linecap:butt;stroke-linejoin:miter;stroke-opacity:1" d="M 339.602,443.244 341.247,459.695 z" id="boundary" inkscape:connector-curvature="0" />
	<path style="fill:none;stroke:red;stroke-width:1px;stroke-linecap:butt;stroke-linejoin:miter;stroke-opacity:1" d="M 421.857,443.244 438.308,443.244 z" id="boundary" inkscape:connector-curvature="0" />
	<path style="fill:none;stroke:red;stroke-width:1px;stroke-linecap:butt;stroke-linejoin:miter;stroke-opacity:1" d="M 425.148,217.864 438.308,227.735 z" id="boundary" inkscape:connector-curvature="0" />
	<path style="fill:none;stroke:red;stroke-width:1px;stroke-linecap:butt;stroke-linejoin:miter;stroke-opacity:1" d="M 451.469,237.605 438.308,227.735 z" id="boundary" inkscape:connector-curvature="0" />
	<path style="fill:none;stroke:red;stroke-width:1px;stroke-linecap:butt;stroke-linejoin:miter;stroke-opacity:1" d="M 489.307,268.862 474.501,260.637 z" id="boundary" inkscape:connector-curvature="0" />
	<path style="fill:none;stroke:red;stroke-width:1px;stroke-linecap:butt;stroke-linejoin:miter;stroke-opacity:1" d="M 474.501,260.637 464.63,247.476 z" id="boundary" inkscape:connector-curvature="0" />
	<path style="fill:none;stroke:red;stroke-width:1px;stroke-linecap:butt;stroke-linejoin:miter;stroke-opacity:1" d="M 489.307,268.862 499.177,282.023 z" id="boundary" inkscape:connector-curvature="0" />
	<path style="fill:none;stroke:red;stroke-width:1px;stroke-linecap:butt;stroke-linejoin:miter;stroke-opacity:1" d="M 451.469,237.605 464.63,247.476 z" id="boundary" inkscape:connector-curvature="0" />
	<path style="fill:none;stroke:red;stroke-width:1px;stroke-linecap:butt;stroke-linejoin:miter;stroke-opacity:1" d="M 757.459,250.766 741.008,260.637 z" id="boundary" inkscape:connector-curvature="0" />
	<path style="fill:none;stroke:red;stroke-width:1px;stroke-linecap:butt;stroke-linejoin:miter;stroke-opacity:1" d="M 741.008,260.637 724.557,263.927 z" id="boundary" inkscape:connector-curvature="0" />
	<path style="fill:none;stroke:red;stroke-width:1px;stroke-linecap:butt;stroke-linejoin:miter;stroke-opacity:1" d="M 724.557,263.927 708.106,267.217 z" id="boundary" inkscape:connector-curvature="0" />
	<path style="fill:none;stroke:red;stroke-width:1px;stroke-linecap:butt;stroke-linejoin:miter;stroke-opacity:1" d="M 658.753,280.378 675.204,273.798 z" id="boundary" inkscape:connector-curvature="0" />
	<path style="fill:none;stroke:red;stroke-width:1px;stroke-linecap:butt;stroke-linejoin:miter;stroke-opacity:1" d="M 691.655,270.507 675.204,273.798 z" id="boundary" inkscape:connector-curvature="0" />
	<path style="fill:none;stroke:red;stroke-width:1px;stroke-linecap:butt;stroke-linejoin:miter;stroke-opacity:1" d="M 691.655,270.507 708.106,267.217 z" id="boundary" inkscape:connector-curvature="0" />
	<path style="fill:none;stroke:red;stroke-width:1px;stroke-linecap:butt;stroke-linejoin:miter;stroke-opacity:1" d="M 528.789,293.539 512.338,293.539 z" id="boundary" inkscape:connector-curvature="0" />
	<path style="fill:none;stroke:red;stroke-width:1px;stroke-linecap:butt;stroke-linejoin:miter;stroke-opacity:1" d="M 512.338,293.539 499.177,282.023 z" id="boundary" inkscape:connector-curvature="0" />
	<path style="fill:none;stroke:red;stroke-width:1px;stroke-linecap:butt;stroke-linejoin:miter;stroke-opacity:1" d="M 454.76,443.244 438.308,443.244 z" id="boundary" inkscape:connector-curvature="0" />
	<path style="fill:none;stroke:red;stroke-width:1px;stroke-linecap:butt;stroke-linejoin:miter;stroke-opacity:1" d="M 528.789,293.539 545.24,293.539 z" id="boundary" inkscape:connector-curvature="0" />
	<path style="fill:none;stroke:red;stroke-width:1px;stroke-linecap:butt;stroke-linejoin:miter;stroke-opacity:1" d="M 545.24,293.539 561.692,293.539 z" id="boundary" inkscape:connector-curvature="0" />
	<path style="fill:none;stroke:red;stroke-width:1px;stroke-linecap:butt;stroke-linejoin:miter;stroke-opacity:1" d="M 594.594,293.539 578.143,293.539 z" id="boundary" inkscape:connector-curvature="0" />
	<path style="fill:none;stroke:red;stroke-width:1px;stroke-linecap:butt;stroke-linejoin:miter;stroke-opacity:1" d="M 578.143,293.539 561.692,293.539 z" id="boundary" inkscape:connector-curvature="0" />
	<path style="fill:none;stroke:red;stroke-width:1px;stroke-linecap:butt;stroke-linejoin:miter;stroke-opacity:1" d="M 643.947,288.604 658.753,280.378 z" id="boundary" inkscape:connector-curvature="0" />
	<path style="fill:none;stroke:red;stroke-width:1px;stroke-linecap:butt;stroke-linejoin:miter;stroke-opacity:1" d="M 594.594,293.539 611.045,293.539 z" id="boundary" inkscape:connector-curvature="0" />
	<path style="fill:none;stroke:red;stroke-width:1px;stroke-linecap:butt;stroke-linejoin:miter;stroke-opacity:1" d="M 627.496,296.829 611.045,293.539 z" id="boundary" inkscape:connector-curvature="0" />
	<path style="fill:none;stroke:red;stroke-width:1px;stroke-linecap:butt;stroke-linejoin:miter;stroke-opacity:1" d="M 643.947,288.604 627.496,296.829 z" id="boundary" inkscape:connector-curvature="0" />
	<path style="fill:none;stroke:red;stroke-width:1px;stroke-linecap:butt;stroke-linejoin:miter;stroke-opacity:1" d="M 798.587,222.799 815.038,221.154 z" id="boundary" inkscape:connector-curvature="0" />
	<path style="fill:none;stroke:red;stroke-width:1px;stroke-linecap:butt;stroke-linejoin:miter;stroke-opacity:1" d="M 815.038,221.154 828.199,231.025 z" id="boundary" inkscape:connector-curvature="0" />
	<path style="fill:none;stroke:red;stroke-width:1px;stroke-linecap:butt;stroke-linejoin:miter;stroke-opacity:1" d="M 772.265,242.541 785.426,232.67 z" id="boundary" inkscape:connector-curvature="0" />
	<path style="fill:none;stroke:red;stroke-width:1px;stroke-linecap:butt;stroke-linejoin:miter;stroke-opacity:1" d="M 772.265,242.541 757.459,250.766 z" id="boundary" inkscape:connector-curvature="0" />
	<path style="fill:none;stroke:red;stroke-width:1px;stroke-linecap:butt;stroke-linejoin:miter;stroke-opacity:1" d="M 785.426,232.67 798.587,222.799 z" id="boundary" inkscape:connector-curvature="0" />
	<path style="fill:none;stroke:red;stroke-width:1px;stroke-linecap:butt;stroke-linejoin:miter;stroke-opacity:1" d="M 828.199,231.025 841.36,240.896 z" id="boundary" inkscape:connector-curvature="0" />
	<path style="fill:none;stroke:red;stroke-width:1px;stroke-linecap:butt;stroke-linejoin:miter;stroke-opacity:1" d="M 841.36,240.896 856.166,249.121 z" id="boundary" inkscape:connector-curvature="0" />
	<path style="fill:none;stroke:red;stroke-width:1px;stroke-linecap:butt;stroke-linejoin:miter;stroke-opacity:1" d="M 856.166,249.121 869.327,260.637 z" id="boundary" inkscape:connector-curvature="0" />
	<path style="fill:none;stroke:red;stroke-width:1px;stroke-linecap:butt;stroke-linejoin:miter;stroke-opacity:1" d="M 885.778,263.927 869.327,260.637 z" id="boundary" inkscape:connector-curvature="0" />
	<path style="fill:none;stroke:red;stroke-width:1px;stroke-linecap:butt;stroke-linejoin:miter;stroke-opacity:1" d="M 935.131,273.798 918.68,273.798 z" id="boundary" inkscape:connector-curvature="0" />
	<path style="fill:none;stroke:red;stroke-width:1px;stroke-linecap:butt;stroke-linejoin:miter;stroke-opacity:1" d="M 918.68,273.798 902.229,270.507 z" id="boundary" inkscape:connector-curvature="0" />
	<path style="fill:none;stroke:red;stroke-width:1px;stroke-linecap:butt;stroke-linejoin:miter;stroke-opacity:1" d="M 902.229,270.507 885.778,263.927 z" id="boundary" inkscape:connector-curvature="0" />
	<path style="fill:none;stroke:red;stroke-width:1px;stroke-linecap:butt;stroke-linejoin:miter;stroke-opacity:1" d="M 986.129,352.763 986.129,369.214 z" id="boundary" inkscape:connector-curvature="0" />
	<path style="fill:none;stroke:red;stroke-width:1px;stroke-linecap:butt;stroke-linejoin:miter;stroke-opacity:1" d="M 951.582,278.733 935.131,273.798 z" id="boundary" inkscape:connector-curvature="0" />
	<path style="fill:none;stroke:red;stroke-width:1px;stroke-linecap:butt;stroke-linejoin:miter;stroke-opacity:1" d="M 968.033,285.313 951.582,278.733 z" id="boundary" inkscape:connector-curvature="0" />
	<path style="fill:none;stroke:red;stroke-width:1px;stroke-linecap:butt;stroke-linejoin:miter;stroke-opacity:1" d="M 986.129,385.665 982.839,402.116 z" id="boundary" inkscape:connector-curvature="0" />
	<path style="fill:none;stroke:red;stroke-width:1px;stroke-linecap:butt;stroke-linejoin:miter;stroke-opacity:1" d="M 968.033,285.313 981.194,295.184 z" id="boundary" inkscape:connector-curvature="0" />
	<path style="fill:none;stroke:red;stroke-width:1px;stroke-linecap:butt;stroke-linejoin:miter;stroke-opacity:1" d="M 982.839,418.567 982.839,402.116 z" id="boundary" inkscape:connector-curvature="0" />
	<path style="fill:none;stroke:red;stroke-width:1px;stroke-linecap:butt;stroke-linejoin:miter;stroke-opacity:1" d="M 992.71,308.345 996,339.602 z" id="boundary" inkscape:connector-curvature="0" />
	<path style="fill:none;stroke:red;stroke-width:1px;stroke-linecap:butt;stroke-linejoin:miter;stroke-opacity:1" d="M 996,339.602 986.129,352.763 z" id="boundary" inkscape:connector-curvature="0" />
	<path style="fill:none;stroke:red;stroke-width:1px;stroke-linecap:butt;stroke-linejoin:miter;stroke-opacity:1" d="M 981.194,295.184 992.71,308.345 z" id="boundary" inkscape:connector-curvature="0" />
	<path style="fill:none;stroke:red;stroke-width:1px;stroke-linecap:butt;stroke-linejoin:miter;stroke-opacity:1" d="M 984.484,435.018 982.839,418.567 z" id="boundary" inkscape:connector-curvature="0" />
	<path style="fill:none;stroke:red;stroke-width:1px;stroke-linecap:butt;stroke-linejoin:miter;stroke-opacity:1" d="M 989.42,451.469 984.484,435.018 z" id="boundary" inkscape:connector-curvature="0" />
	<path style="fill:none;stroke:red;stroke-width:1px;stroke-linecap:butt;stroke-linejoin:miter;stroke-opacity:1" d="M 986.129,369.214 986.129,385.665 z" id="boundary" inkscape:connector-curvature="0" />
	<path style="fill:none;stroke:red;stroke-width:1px;stroke-linecap:butt;stroke-linejoin:miter;stroke-opacity:1" d="M 471.211,443.244 487.662,443.244 z" id="boundary" inkscape:connector-curvature="0" />
	<path style="fill:none;stroke:red;stroke-width:1px;stroke-linecap:butt;stroke-linejoin:miter;stroke-opacity:1" d="M 471.211,443.244 454.76,443.244 z" id="boundary" inkscape:connector-curvature="0" />
	<path style="fill:none;stroke:red;stroke-width:1px;stroke-linecap:butt;stroke-linejoin:miter;stroke-opacity:1" d="M 487.662,443.244 504.113,443.244 z" id="boundary" inkscape:connector-curvature="0" />
	<path style="fill:none;stroke:red;stroke-width:1px;stroke-linecap:butt;stroke-linejoin:miter;stroke-opacity:1" d="M 520.564,443.244 504.113,443.244 z" id="boundary" inkscape:connector-curvature="0" />
	<path style="fill:none;stroke:red;stroke-width:1px;stroke-linecap:butt;stroke-linejoin:miter;stroke-opacity:1" d="M 537.015,443.244 553.466,443.244 z" id="boundary" inkscape:connector-curvature="0" />
	<path style="fill:none;stroke:red;stroke-width:1px;stroke-linecap:butt;stroke-linejoin:miter;stroke-opacity:1" d="M 569.917,443.244 553.466,443.244 z" id="boundary" inkscape:connector-curvature="0" />
	<path style="fill:none;stroke:red;stroke-width:1px;stroke-linecap:butt;stroke-linejoin:miter;stroke-opacity:1" d="M 586.368,443.244 602.819,443.244 z" id="boundary" inkscape:connector-curvature="0" />
	<path style="fill:none;stroke:red;stroke-width:1px;stroke-linecap:butt;stroke-linejoin:miter;stroke-opacity:1" d="M 619.27,443.244 602.819,443.244 z" id="boundary" inkscape:connector-curvature="0" />
	<path style="fill:none;stroke:red;stroke-width:1px;stroke-linecap:butt;stroke-linejoin:miter;stroke-opacity:1" d="M 619.27,443.244 622.561,459.695 z" id="boundary" inkscape:connector-curvature="0" />
	<path style="fill:none;stroke:red;stroke-width:1px;stroke-linecap:butt;stroke-linejoin:miter;stroke-opacity:1" d="M 586.368,443.244 569.917,443.244 z" id="boundary" inkscape:connector-curvature="0" />
	<path style="fill:none;stroke:red;stroke-width:1px;stroke-linecap:butt;stroke-linejoin:miter;stroke-opacity:1" d="M 537.015,443.244 520.564,443.244 z" id="boundary" inkscape:connector-curvature="0" />
	<path style="fill:none;stroke:red;stroke-width:1px;stroke-linecap:butt;stroke-linejoin:miter;stroke-opacity:1" d="M 625.851,492.597 622.561,476.146 z" id="boundary" inkscape:connector-curvature="0" />
	<path style="fill:none;stroke:red;stroke-width:1px;stroke-linecap:butt;stroke-linejoin:miter;stroke-opacity:1" d="M 653.818,471.211 648.882,492.597 z" id="boundary" inkscape:connector-curvature="0" />
	<path style="fill:none;stroke:red;stroke-width:1px;stroke-linecap:butt;stroke-linejoin:miter;stroke-opacity:1" d="M 622.561,459.695 622.561,476.146 z" id="boundary" inkscape:connector-curvature="0" />
	<path style="fill:none;stroke:red;stroke-width:1px;stroke-linecap:butt;stroke-linejoin:miter;stroke-opacity:1" d="M 648.882,492.597 645.592,509.048 z" id="boundary" inkscape:connector-curvature="0" />
	<path style="fill:none;stroke:red;stroke-width:1px;stroke-linecap:butt;stroke-linejoin:miter;stroke-opacity:1" d="M 645.592,509.048 629.141,509.048 z" id="boundary" inkscape:connector-curvature="0" />
	<path style="fill:none;stroke:red;stroke-width:1px;stroke-linecap:butt;stroke-linejoin:miter;stroke-opacity:1" d="M 629.141,509.048 625.851,492.597 z" id="boundary" inkscape:connector-curvature="0" />
	<path style="fill:none;stroke:red;stroke-width:1px;stroke-linecap:butt;stroke-linejoin:miter;stroke-opacity:1" d="M 653.818,471.211 653.818,454.76 z" id="boundary" inkscape:connector-curvature="0" />
	<path style="fill:none;stroke:red;stroke-width:1px;stroke-linecap:butt;stroke-linejoin:miter;stroke-opacity:1" d="M 653.818,454.76 670.269,453.114 z" id="boundary" inkscape:connector-curvature="0" />
	<path style="fill:none;stroke:red;stroke-width:1px;stroke-linecap:butt;stroke-linejoin:miter;stroke-opacity:1" d="M 686.72,459.695 670.269,453.114 z" id="boundary" inkscape:connector-curvature="0" />
	<path style="fill:none;stroke:red;stroke-width:1px;stroke-linecap:butt;stroke-linejoin:miter;stroke-opacity:1" d="M 686.72,459.695 703.171,464.63 z" id="boundary" inkscape:connector-curvature="0" />
	<path style="fill:none;stroke:red;stroke-width:1px;stroke-linecap:butt;stroke-linejoin:miter;stroke-opacity:1" d="M 716.332,451.469 703.171,464.63 z" id="boundary" inkscape:connector-curvature="0" />
	<path style="fill:none;stroke:red;stroke-width:1px;stroke-linecap:butt;stroke-linejoin:miter;stroke-opacity:1" d="M 716.332,451.469 732.783,449.824 z" id="boundary" inkscape:connector-curvature="0" />
	<path style="fill:none;stroke:red;stroke-width:1px;stroke-linecap:butt;stroke-linejoin:miter;stroke-opacity:1" d="M 747.589,458.05 732.783,449.824 z" id="boundary" inkscape:connector-curvature="0" />
	<path style="fill:none;stroke:red;stroke-width:1px;stroke-linecap:butt;stroke-linejoin:miter;stroke-opacity:1" d="M 870.972,454.76 856.166,462.985 z" id="boundary" inkscape:connector-curvature="0" />
	<path style="fill:none;stroke:red;stroke-width:1px;stroke-linecap:butt;stroke-linejoin:miter;stroke-opacity:1" d="M 762.395,466.275 747.589,458.05 z" id="boundary" inkscape:connector-curvature="0" />
	<path style="fill:none;stroke:red;stroke-width:1px;stroke-linecap:butt;stroke-linejoin:miter;stroke-opacity:1" d="M 777.201,474.501 762.395,466.275 z" id="boundary" inkscape:connector-curvature="0" />
	<path style="fill:none;stroke:red;stroke-width:1px;stroke-linecap:butt;stroke-linejoin:miter;stroke-opacity:1" d="M 903.874,453.114 887.423,448.179 z" id="boundary" inkscape:connector-curvature="0" />
	<path style="fill:none;stroke:red;stroke-width:1px;stroke-linecap:butt;stroke-linejoin:miter;stroke-opacity:1" d="M 870.972,454.76 887.423,448.179 z" id="boundary" inkscape:connector-curvature="0" />
	<path style="fill:none;stroke:red;stroke-width:1px;stroke-linecap:butt;stroke-linejoin:miter;stroke-opacity:1" d="M 931.841,459.695 948.292,453.114 z" id="boundary" inkscape:connector-curvature="0" />
	<path style="fill:none;stroke:red;stroke-width:1px;stroke-linecap:butt;stroke-linejoin:miter;stroke-opacity:1" d="M 964.743,453.114 948.292,453.114 z" id="boundary" inkscape:connector-curvature="0" />
	<path style="fill:none;stroke:red;stroke-width:1px;stroke-linecap:butt;stroke-linejoin:miter;stroke-opacity:1" d="M 964.743,453.114 971.323,469.566 z" id="boundary" inkscape:connector-curvature="0" />
	<path style="fill:none;stroke:red;stroke-width:1px;stroke-linecap:butt;stroke-linejoin:miter;stroke-opacity:1" d="M 903.874,453.114 915.39,466.275 z" id="boundary" inkscape:connector-curvature="0" />
	<path style="fill:none;stroke:red;stroke-width:1px;stroke-linecap:butt;stroke-linejoin:miter;stroke-opacity:1" d="M 931.841,459.695 915.39,466.275 z" id="boundary" inkscape:connector-curvature="0" />
	<path style="fill:none;stroke:red;stroke-width:1px;stroke-linecap:butt;stroke-linejoin:miter;stroke-opacity:1" d="M 843.005,472.856 826.554,479.436 z" id="boundary" inkscape:connector-curvature="0" />
	<path style="fill:none;stroke:red;stroke-width:1px;stroke-linecap:butt;stroke-linejoin:miter;stroke-opacity:1" d="M 856.166,462.985 843.005,472.856 z" id="boundary" inkscape:connector-curvature="0" />
	<path style="fill:none;stroke:red;stroke-width:1px;stroke-linecap:butt;stroke-linejoin:miter;stroke-opacity:1" d="M 826.554,479.436 810.103,482.726 z" id="boundary" inkscape:connector-curvature="0" />
	<path style="fill:none;stroke:red;stroke-width:1px;stroke-linecap:butt;stroke-linejoin:miter;stroke-opacity:1" d="M 810.103,482.726 793.652,481.081 z" id="boundary" inkscape:connector-curvature="0" />
	<path style="fill:none;stroke:red;stroke-width:1px;stroke-linecap:butt;stroke-linejoin:miter;stroke-opacity:1" d="M 793.652,481.081 777.201,474.501 z" id="boundary" inkscape:connector-curvature="0" />
	<path style="fill:none;stroke:red;stroke-width:1px;stroke-linecap:butt;stroke-linejoin:miter;stroke-opacity:1" d="M 971.323,486.017 971.323,469.566 z" id="boundary" inkscape:connector-curvature="0" />
	<path style="fill:none;stroke:red;stroke-width:1px;stroke-linecap:butt;stroke-linejoin:miter;stroke-opacity:1" d="M 987.774,489.307 971.323,486.017 z" id="boundary" inkscape:connector-curvature="0" />
	<path style="fill:none;stroke:red;stroke-width:1px;stroke-linecap:butt;stroke-linejoin:miter;stroke-opacity:1" d="M 996,467.92 987.774,489.307 z" id="boundary" inkscape:connector-curvature="0" />
	<path style="fill:none;stroke:red;stroke-width:1px;stroke-linecap:butt;stroke-linejoin:miter;stroke-opacity:1" d="M 971.323,486.017 971.323,502.468 z" id="boundary" inkscape:connector-curvature="0" />
	<path style="fill:none;stroke:red;stroke-width:1px;stroke-linecap:butt;stroke-linejoin:miter;stroke-opacity:1" d="M 984.484,512.338 971.323,502.468 z" id="boundary" inkscape:connector-curvature="0" />
	<path style="fill:none;stroke:red;stroke-width:1px;stroke-linecap:butt;stroke-linejoin:miter;stroke-opacity:1" d="M 989.42,451.469 996,467.92 z" id="boundary" inkscape:connector-curvature="0" />
	<circle cx="4" cy="132.318" r="4" fill="#0" id="circle0"/>
	<circle cx="4" cy="342.892" r="4" fill="#0" id="circle1"/>
	<circle cx="4" cy="359.343" r="4" fill="#0" id="circle2"/>
	<circle cx="4" cy="375.794" r="4" fill="#0" id="circle3"/>
	<circle cx="4" cy="392.245" r="4" fill="#0" id="circle4"/>
	<circle cx="4" cy="408.697" r="4" fill="#0" id="circle5"/>
	<circle cx="4" cy="425.148" r="4" fill="#0" id="circle6"/>
	<circle cx="7.29022" cy="148.769" r="4" fill="#0" id="circle7"/>
	<circle cx="7.29022" cy="303.41" r="4" fill="#0" id="circle8"/>
	<circle cx="7.29022" cy="319.861" r="4" fill="#0" id="circle9"/>
	<circle cx="7.29022" cy="441.599" r="4" fill="#0" id="circle10"/>
	<circle cx="10.5804" cy="115.867" r="4" fill="#0" id="circle11"/>
	<circle cx="10.5804" cy="165.221" r="4" fill="#0" id="circle12"/>
	<circle cx="10.5804" cy="181.672" r="4" fill="#0" id="circle13"/>
	<circle cx="10.5804" cy="270.507" r="4" fill="#0" id="circle14"/>
	<circle cx="10.5804" cy="286.959" r="4" fill="#0" id="circle15"/>
	<circle cx="10.5804" cy="458.05" r="4" fill="#0" id="circle16"/>
	<circle cx="13.8706" cy="198.123" r="4" fill="#0" id="circle17"/>
	<circle cx="13.8706" cy="214.574" r="4" fill="#0" id="circle18"/>
	<circle cx="13.8706" cy="231.025" r="4" fill="#0" id="circle19"/>
	<circle cx="13.8706" cy="247.476" r="4" fill="#0" id="circle20"/>
	<circle cx="13.8706" cy="474.501" r="4" fill="#0" id="circle21"/>
	<circle cx="13.8706" cy="490.952" r="4" fill="#0" id="circle22"/>
	<circle cx="15.5158" cy="507.403" r="4" fill="#0" id="circle23"/>
	<circle cx="23.7413" cy="105.997" r="4" fill="#0" id="circle24"/>
	<circle cx="31.9668" cy="481.081" r="4" fill="#0" id="circle25"/>
	<circle cx="31.9668" cy="509.048" r="4" fill="#0" id="circle26"/>
	<circle cx="35.257" cy="444.889" r="4" fill="#0" id="circle27"/>
	<circle cx="35.257" cy="461.34" r="4" fill="#0" id="circle28"/>
	<circle cx="36.9022" cy="96.126" r="4" fill="#0" id="circle29"/>
	<circle cx="51.7081" cy="87.9005" r="4" fill="#0" id="circle30"/>
	<circle cx="51.7081" cy="443.244" r="4" fill="#0" id="circle31"/>
	<circle cx="68.1592" cy="81.3201" r="4" fill="#0" id="circle32"/>
	<circle cx="68.1592" cy="443.244" r="4" fill="#0" id="circle33"/>
	<circle cx="84.6103" cy="74.7396" r="4" fill="#0" id="circle34"/>
	<circle cx="84.6103" cy="443.244" r="4" fill="#0" id="circle35"/>
	<circle cx="101.061" cy="68.1592" r="4" fill="#0" id="circle36"/>
	<circle cx="101.061" cy="443.244" r="4" fill="#0" id="circle37"/>
	<circle cx="117.512" cy="63.2239" r="4" fill="#0" id="circle38"/>
	<circle cx="117.512" cy="443.244" r="4" fill="#0" id="circle39"/>
	<circle cx="129.028" cy="50.063" r="4" fill="#0" id="circle40"/>
	<circle cx="133.964" cy="443.244" r="4" fill="#0" id="circle41"/>
	<circle cx="142.189" cy="40.1924" r="4" fill="#0" id="circle42"/>
	<circle cx="150.415" cy="443.244" r="4" fill="#0" id="circle43"/>
	<circle cx="155.35" cy="30.3217" r="4" fill="#0" id="circle44"/>
	<circle cx="163.575" cy="15.5158" r="4" fill="#0" id="circle45"/>
	<circle cx="166.866" cy="443.244" r="4" fill="#0" id="circle46"/>
	<circle cx="176.736" cy="4" r="4" fill="#0" id="circle47"/>
	<circle cx="183.317" cy="443.244" r="4" fill="#0" id="circle48"/>
	<circle cx="193.187" cy="7.29022" r="4" fill="#0" id="circle49"/>
	<circle cx="199.768" cy="443.244" r="4" fill="#0" id="circle50"/>
	<circle cx="201.413" cy="22.0962" r="4" fill="#0" id="circle51"/>
	<circle cx="209.638" cy="36.9022" r="4" fill="#0" id="circle52"/>
	<circle cx="216.219" cy="443.244" r="4" fill="#0" id="circle53"/>
	<circle cx="226.09" cy="43.4826" r="4" fill="#0" id="circle54"/>
	<circle cx="232.67" cy="443.244" r="4" fill="#0" id="circle55"/>
	<circle cx="235.96" cy="56.6434" r="4" fill="#0" id="circle56"/>
	<circle cx="249.121" cy="66.5141" r="4" fill="#0" id="circle57"/>
	<circle cx="249.121" cy="443.244" r="4" fill="#0" id="circle58"/>
	<circle cx="265.572" cy="73.0945" r="4" fill="#0" id="circle59"/>
	<circle cx="265.572" cy="443.244" r="4" fill="#0" id="circle60"/>
	<circle cx="282.023" cy="79.675" r="4" fill="#0" id="circle61"/>
	<circle cx="282.023" cy="443.244" r="4" fill="#0" id="circle62"/>
	<circle cx="298.474" cy="86.2554" r="4" fill="#0" id="circle63"/>
	<circle cx="298.474" cy="443.244" r="4" fill="#0" id="circle64"/>
	<circle cx="313.28" cy="94.4809" r="4" fill="#0" id="circle65"/>
	<circle cx="314.925" cy="446.534" r="4" fill="#0" id="circle66"/>
	<circle cx="319.861" cy="462.985" r="4" fill="#0" id="circle67"/>
	<circle cx="319.861" cy="490.952" r="4" fill="#0" id="circle68"/>
	<circle cx="323.151" cy="507.403" r="4" fill="#0" id="circle69"/>
	<circle cx="326.441" cy="104.352" r="4" fill="#0" id="circle70"/>
	<circle cx="329.731" cy="189.897" r="4" fill="#0" id="circle71"/>
	<circle cx="331.376" cy="168.511" r="4" fill="#0" id="circle72"/>
	<circle cx="337.957" cy="117.512" r="4" fill="#0" id="circle73"/>
	<circle cx="337.957" cy="487.662" r="4" fill="#0" id="circle74"/>
	<circle cx="339.602" cy="153.705" r="4" fill="#0" id="circle75"/>
	<circle cx="339.602" cy="443.244" r="4" fill="#0" id="circle76"/>
	<circle cx="339.602" cy="509.048" r="4" fill="#0" id="circle77"/>
	<circle cx="341.247" cy="459.695" r="4" fill="#0" id="circle78"/>
	<circle cx="342.892" cy="201.413" r="4" fill="#0" id="circle79"/>
	<circle cx="344.537" cy="133.964" r="4" fill="#0" id="circle80"/>
	<circle cx="356.053" cy="443.244" r="4" fill="#0" id="circle81"/>
	<circle cx="359.343" cy="204.703" r="4" fill="#0" id="circle82"/>
	<circle cx="372.504" cy="443.244" r="4" fill="#0" id="circle83"/>
	<circle cx="375.794" cy="204.703" r="4" fill="#0" id="circle84"/>
	<circle cx="388.955" cy="443.244" r="4" fill="#0" id="circle85"/>
	<circle cx="392.245" cy="207.993" r="4" fill="#0" id="circle86"/>
	<circle cx="405.406" cy="443.244" r="4" fill="#0" id="circle87"/>
	<circle cx="408.697" cy="211.284" r="4" fill="#0" id="circle88"/>
	<circle cx="421.857" cy="443.244" r="4" fill="#0" id="circle89"/>
	<circle cx="425.148" cy="217.864" r="4" fill="#0" id="circle90"/>
	<circle cx="438.308" cy="227.735" r="4" fill="#0" id="circle91"/>
	<circle cx="438.308" cy="443.244" r="4" fill="#0" id="circle92"/>
	<circle cx="451.469" cy="237.605" r="4" fill="#0" id="circle93"/>
	<circle cx="454.76" cy="443.244" r="4" fill="#0" id="circle94"/>
	<circle cx="464.63" cy="247.476" r="4" fill="#0" id="circle95"/>
	<circle cx="471.211" cy="443.244" r="4" fill="#0" id="circle96"/>
	<circle cx="474.501" cy="260.637" r="4" fill="#0" id="circle97"/>
	<circle cx="487.662" cy="443.244" r="4" fill="#0" id="circle98"/>
	<circle cx="489.307" cy="268.862" r="4" fill="#0" id="circle99"/>
	<circle cx="499.177" cy="282.023" r="4" fill="#0" id="circle100"/>
	<circle cx="504.113" cy="443.244" r="4" fill="#0" id="circle101"/>
	<circle cx="512.338" cy="293.539" r="4" fill="#0" id="circle102"/>
	<circle cx="520.564" cy="443.244" r="4" fill="#0" id="circle103"/>
	<circle cx="528.789" cy="293.539" r="4" fill="#0" id="circle104"/>
	<circle cx="537.015" cy="443.244" r="4" fill="#0" id="circle105"/>
	<circle cx="545.24" cy="293.539" r="4" fill="#0" id="circle106"/>
	<circle cx="553.466" cy="443.244" r="4" fill="#0" id="circle107"/>
	<circle cx="561.692" cy="293.539" r="4" fill="#0" id="circle108"/>
	<circle cx="569.917" cy="443.244" r="4" fill="#0" id="circle109"/>
	<circle cx="578.143" cy="293.539" r="4" fill="#0" id="circle110"/>
	<circle cx="586.368" cy="443.244" r="4" fill="#0" id="circle111"/>
	<circle cx="594.594" cy="293.539" r="4" fill="#0" id="circle112"/>
	<circle cx="602.819" cy="443.244" r="4" fill="#0" id="circle113"/>
	<circle cx="611.045" cy="293.539" r="4" fill="#0" id="circle114"/>
	<circle cx="619.27" cy="443.244" r="4" fill="#0" id="circle115"/>
	<circle cx="622.561" cy="459.695" r="4" fill="#0" id="circle116"/>
	<circle cx="622.561" cy="476.146" r="4" fill="#0" id="circle117"/>
	<circle cx="625.851" cy="492.597" r="4" fill="#0" id="circle118"/>
	<circle cx="627.496" cy="296.829" r="4" fill="#0" id="circle119"/>
	<circle cx="629.141" cy="509.048" r="4" fill="#0" id="circle120"/>
	<circle cx="643.947" cy="288.604" r="4" fill="#0" id="circle121"/>
	<circle cx="645.592" cy="509.048" r="4" fill="#0" id="circle122"/>
	<circle cx="648.882" cy="492.597" r="4" fill="#0" id="circle123"/>
	<circle cx="653.818" cy="454.76" r="4" fill="#0" id="circle124"/>
	<circle cx="653.818" cy="471.211" r="4" fill="#0" id="circle125"/>
	<circle cx="658.753" cy="280.378" r="4" fill="#0" id="circle126"/>
	<circle cx="670.269" cy="453.114" r="4" fill="#0" id="circle127"/>
	<circle cx="675.204" cy="273.798" r="4" fill="#0" id="circle128"/>
	<circle cx="686.72" cy="459.695" r="4" fill="#0" id="circle129"/>
	<circle cx="691.655" cy="270.507" r="4" fill="#0" id="circle130"/>
	<circle cx="703.171" cy="464.63" r="4" fill="#0" id="circle131"/>
	<circle cx="708.106" cy="267.217" r="4" fill="#0" id="circle132"/>
	<circle cx="716.332" cy="451.469" r="4" fill="#0" id="circle133"/>
	<circle cx="724.557" cy="263.927" r="4" fill="#0" id="circle134"/>
	<circle cx="732.783" cy="449.824" r="4" fill="#0" id="circle135"/>
	<circle cx="741.008" cy="260.637" r="4" fill="#0" id="circle136"/>
	<circle cx="747.589" cy="458.05" r="4" fill="#0" id="circle137"/>
	<circle cx="757.459" cy="250.766" r="4" fill="#0" id="circle138"/>
	<circle cx="762.395" cy="466.275" r="4" fill="#0" id="circle139"/>
	<circle cx="772.265" cy="242.541" r="4" fill="#0" id="circle140"/>
	<circle cx="777.201" cy="474.501" r="4" fill="#0" id="circle141"/>
	<circle cx="785.426" cy="232.67" r="4" fill="#0" id="circle142"/>
	<circle cx="793.652" cy="481.081" r="4" fill="#0" id="circle143"/>
	<circle cx="798.587" cy="222.799" r="4" fill="#0" id="circle144"/>
	<circle cx="810.103" cy="482.726" r="4" fill="#0" id="circle145"/>
	<circle cx="815.038" cy="221.154" r="4" fill="#0" id="circle146"/>
	<circle cx="826.554" cy="479.436" r="4" fill="#0" id="circle147"/>
	<circle cx="828.199" cy="231.025" r="4" fill="#0" id="circle148"/>
	<circle cx="841.36" cy="240.896" r="4" fill="#0" id="circle149"/>
	<circle cx="843.005" cy="472.856" r="4" fill="#0" id="circle150"/>
	<circle cx="856.166" cy="249.121" r="4" fill="#0" id="circle151"/>
	<circle cx="856.166" cy="462.985" r="4" fill="#0" id="circle152"/>
	<circle cx="869.327" cy="260.637" r="4" fill="#0" id="circle153"/>
	<circle cx="870.972" cy="454.76" r="4" fill="#0" id="circle154"/>
	<circle cx="885.778" cy="263.927" r="4" fill="#0" id="circle155"/>
	<circle cx="887.423" cy="448.179" r="4" fill="#0" id="circle156"/>
	<circle cx="902.229" cy="270.507" r="4" fill="#0" id="circle157"/>
	<circle cx="903.874" cy="453.114" r="4" fill="#0" id="circle158"/>
	<circle cx="915.39" cy="466.275" r="4" fill="#0" id="circle159"/>
	<circle cx="918.68" cy="273.798" r="4" fill="#0" id="circle160"/>
	<circle cx="931.841" cy="459.695" r="4" fill="#0" id="circle161"/>
	<circle cx="935.131" cy="273.798" r="4" fill="#0" id="circle162"/>
	<circle cx="948.292" cy="453.114" r="4" fill="#0" id="circle163"/>
	<circle cx="951.582" cy="278.733" r="4" fill="#0" id="circle164"/>
	<circle cx="964.743" cy="453.114" r="4" fill="#0" id="circle165"/>
	<circle cx="968.033" cy="285.313" r="4" fill="#0" id="circle166"/>
	<circle cx="971.323" cy="469.566" r="4" fill="#0" id="circle167"/>
	<circle cx="971.323" cy="486.017" r="4" fill="#0" id="circle168"/>
	<circle cx="971.323" cy="502.468" r="4" fill="#0" id="circle169"/>
	<circle cx="981.194" cy="295.184" r="4" fill="#0" id="circle170"/>
	<circle cx="982.839" cy="402.116" r="4" fill="#0" id="circle171"/>
	<circle cx="982.839" cy="418.567" r="4" fill="#0" id="circle172"/>
	<circle cx="984.484" cy="435.018" r="4" fill="#0" id="circle173"/>
	<circle cx="984.484" cy="512.338" r="4" fill="#0" id="circle174"/>
	<circle cx="986.129" cy="352.763" r="4" fill="#0" id="circle175"/>
	<circle cx="986.129" cy="369.214" r="4" fill="#0" id="circle176"/>
	<circle cx="986.129" cy="385.665" r="4" fill="#0" id="circle177"/>
	<circle cx="987.774" cy="489.307" r="4" fill="#0" id="circle178"/>
	<circle cx="989.42" cy="451.469" r="4" fill="#0" id="circle179"/>
	<circle cx="992.71" cy="308.345" r="4" fill="#0" id="circle180"/>
	<circle cx="996" cy="339.602" r="4" fill="#0" id="circle181"/>
	<circle cx="996" cy="467.92" r="4" fill="#0" id="circle182"/>
	</g>
</svg>