<?xml version="1.0" encoding="UTF-8" standalone="no"?>
<!-- Created with CurveBenchmark -->
<svg
	xmlns:dc="http://purl.org/dc/elements/1.1/"
	xmlns:cc="http://creativecommons.org/ns#"
	xmlns:rdf="http://www.w3.org/1999/02/22-rdf-syntax-ns#"
	xmlns:svg="http://www.w3.org/2000/svg"
	xmlns="http://www.w3.org/2000/svg"
	xmlns:sodipodi="http://sodipodi.sourceforge.net/DTD/sodipodi-0.dtd"
	xmlns:inkscape="http://www.inkscape.org/namespaces/inkscape"
	width="1000"
	height="1000"
	id="svg2"
	version="1.1"
	sodipodi:docname="manifold/ccrust-chopper12.png.txt">
<defs
	id="defs4" />
<metadata
	id="metadata7">
	<rdf:RDF>
		<cc:Work
			rdf:about="">
			<dc:format>image/svg+xml</dc:format>
			<dc:type
				rdf:resource="http://purl.org/dc/dcmitype/StillImage" />
			<dc:title></dc:title>
		</cc:Work>
	</rdf:RDF>
</metadata>
<g
	inkscape:label="Layer 1"
	inkscape:groupmode="layer"
	id="layer1">
	<path style="fill:none;stroke:red;stroke-width:1px;stroke-linecap:butt;stroke-linejoin:miter;stroke-opacity:1" d="M 114.828,243.824 129.363,231.106 z" id="boundary" inkscape:connector-curvature="0" />
	<path style="fill:none;stroke:red;stroke-width:1px;stroke-linecap:butt;stroke-linejoin:miter;stroke-opacity:1" d="M 142.081,216.571 129.363,231.106 z" id="boundary" inkscape:connector-curvature="0" />
	<path style="fill:none;stroke:red;stroke-width:1px;stroke-linecap:butt;stroke-linejoin:miter;stroke-opacity:1" d="M 100.293,258.359 91.2088,276.527 z" id="boundary" inkscape:connector-curvature="0" />
	<path style="fill:none;stroke:red;stroke-width:1px;stroke-linecap:butt;stroke-linejoin:miter;stroke-opacity:1" d="M 91.2088,276.527 73.0403,285.612 z" id="boundary" inkscape:connector-curvature="0" />
	<path style="fill:none;stroke:red;stroke-width:1px;stroke-linecap:butt;stroke-linejoin:miter;stroke-opacity:1" d="M 100.293,258.359 114.828,243.824 z" id="boundary" inkscape:connector-curvature="0" />
	<path style="fill:none;stroke:red;stroke-width:1px;stroke-linecap:butt;stroke-linejoin:miter;stroke-opacity:1" d="M 225.656,178.418 207.487,185.685 z" id="boundary" inkscape:connector-curvature="0" />
	<path style="fill:none;stroke:red;stroke-width:1px;stroke-linecap:butt;stroke-linejoin:miter;stroke-opacity:1" d="M 191.136,194.769 207.487,185.685 z" id="boundary" inkscape:connector-curvature="0" />
	<path style="fill:none;stroke:red;stroke-width:1px;stroke-linecap:butt;stroke-linejoin:miter;stroke-opacity:1" d="M 191.136,194.769 172.967,194.769 z" id="boundary" inkscape:connector-curvature="0" />
	<path style="fill:none;stroke:red;stroke-width:1px;stroke-linecap:butt;stroke-linejoin:miter;stroke-opacity:1" d="M 142.081,216.571 156.615,203.853 z" id="boundary" inkscape:connector-curvature="0" />
	<path style="fill:none;stroke:red;stroke-width:1px;stroke-linecap:butt;stroke-linejoin:miter;stroke-opacity:1" d="M 156.615,203.853 172.967,194.769 z" id="boundary" inkscape:connector-curvature="0" />
	<path style="fill:none;stroke:red;stroke-width:1px;stroke-linecap:butt;stroke-linejoin:miter;stroke-opacity:1" d="M 22.1685,390.989 22.1685,409.158 z" id="boundary" inkscape:connector-curvature="0" />
	<path style="fill:none;stroke:red;stroke-width:1px;stroke-linecap:butt;stroke-linejoin:miter;stroke-opacity:1" d="M 22.1685,409.158 13.0842,436.41 z" id="boundary" inkscape:connector-curvature="0" />
	<path style="fill:none;stroke:red;stroke-width:1px;stroke-linecap:butt;stroke-linejoin:miter;stroke-opacity:1" d="M 22.1685,390.989 31.2527,372.821 z" id="boundary" inkscape:connector-curvature="0" />
	<path style="fill:none;stroke:red;stroke-width:1px;stroke-linecap:butt;stroke-linejoin:miter;stroke-opacity:1" d="M 13.0842,454.579 13.0842,436.41 z" id="boundary" inkscape:connector-curvature="0" />
	<path style="fill:none;stroke:red;stroke-width:1px;stroke-linecap:butt;stroke-linejoin:miter;stroke-opacity:1" d="M 13.0842,454.579 13.0842,472.747 z" id="boundary" inkscape:connector-curvature="0" />
	<path style="fill:none;stroke:red;stroke-width:1px;stroke-linecap:butt;stroke-linejoin:miter;stroke-opacity:1" d="M 22.1685,507.267 13.0842,490.916 z" id="boundary" inkscape:connector-curvature="0" />
	<path style="fill:none;stroke:red;stroke-width:1px;stroke-linecap:butt;stroke-linejoin:miter;stroke-opacity:1" d="M 13.0842,490.916 13.0842,472.747 z" id="boundary" inkscape:connector-curvature="0" />
	<path style="fill:none;stroke:red;stroke-width:1px;stroke-linecap:butt;stroke-linejoin:miter;stroke-opacity:1" d="M 49.4212,318.315 58.5055,300.147 z" id="boundary" inkscape:connector-curvature="0" />
	<path style="fill:none;stroke:red;stroke-width:1px;stroke-linecap:butt;stroke-linejoin:miter;stroke-opacity:1" d="M 58.5055,300.147 73.0403,285.612 z" id="boundary" inkscape:connector-curvature="0" />
	<path style="fill:none;stroke:red;stroke-width:1px;stroke-linecap:butt;stroke-linejoin:miter;stroke-opacity:1" d="M 49.4212,318.315 40.337,345.568 z" id="boundary" inkscape:connector-curvature="0" />
	<path style="fill:none;stroke:red;stroke-width:1px;stroke-linecap:butt;stroke-linejoin:miter;stroke-opacity:1" d="M 47.6044,532.703 31.2527,523.619 z" id="boundary" inkscape:connector-curvature="0" />
	<path style="fill:none;stroke:red;stroke-width:1px;stroke-linecap:butt;stroke-linejoin:miter;stroke-opacity:1" d="M 31.2527,523.619 22.1685,507.267 z" id="boundary" inkscape:connector-curvature="0" />
	<path style="fill:none;stroke:red;stroke-width:1px;stroke-linecap:butt;stroke-linejoin:miter;stroke-opacity:1" d="M 31.2527,372.821 40.337,345.568 z" id="boundary" inkscape:connector-curvature="0" />
	<path style="fill:none;stroke:red;stroke-width:1px;stroke-linecap:butt;stroke-linejoin:miter;stroke-opacity:1" d="M 225.656,178.418 243.824,176.601 z" id="boundary" inkscape:connector-curvature="0" />
	<path style="fill:none;stroke:red;stroke-width:1px;stroke-linecap:butt;stroke-linejoin:miter;stroke-opacity:1" d="M 349.201,36.7033 331.033,54.8718 z" id="boundary" inkscape:connector-curvature="0" />
	<path style="fill:none;stroke:red;stroke-width:1px;stroke-linecap:butt;stroke-linejoin:miter;stroke-opacity:1" d="M 331.033,73.0403 331.033,54.8718 z" id="boundary" inkscape:connector-curvature="0" />
	<path style="fill:none;stroke:red;stroke-width:1px;stroke-linecap:butt;stroke-linejoin:miter;stroke-opacity:1" d="M 331.033,73.0403 345.568,85.7582 z" id="boundary" inkscape:connector-curvature="0" />
	<path style="fill:none;stroke:red;stroke-width:1px;stroke-linecap:butt;stroke-linejoin:miter;stroke-opacity:1" d="M 363.736,78.4908 345.568,85.7582 z" id="boundary" inkscape:connector-curvature="0" />
	<path style="fill:none;stroke:red;stroke-width:1px;stroke-linecap:butt;stroke-linejoin:miter;stroke-opacity:1" d="M 367.37,96.6593 349.201,109.377 z" id="boundary" inkscape:connector-curvature="0" />
	<path style="fill:none;stroke:red;stroke-width:1px;stroke-linecap:butt;stroke-linejoin:miter;stroke-opacity:1" d="M 403.707,18.5348 385.538,27.619 z" id="boundary" inkscape:connector-curvature="0" />
	<path style="fill:none;stroke:red;stroke-width:1px;stroke-linecap:butt;stroke-linejoin:miter;stroke-opacity:1" d="M 385.538,27.619 367.37,31.2527 z" id="boundary" inkscape:connector-curvature="0" />
	<path style="fill:none;stroke:red;stroke-width:1px;stroke-linecap:butt;stroke-linejoin:miter;stroke-opacity:1" d="M 367.37,96.6593 363.736,78.4908 z" id="boundary" inkscape:connector-curvature="0" />
	<path style="fill:none;stroke:red;stroke-width:1px;stroke-linecap:butt;stroke-linejoin:miter;stroke-opacity:1" d="M 349.201,36.7033 367.37,31.2527 z" id="boundary" inkscape:connector-curvature="0" />
	<path style="fill:none;stroke:red;stroke-width:1px;stroke-linecap:butt;stroke-linejoin:miter;stroke-opacity:1" d="M 358.286,125.729 349.201,109.377 z" id="boundary" inkscape:connector-curvature="0" />
	<path style="fill:none;stroke:red;stroke-width:1px;stroke-linecap:butt;stroke-linejoin:miter;stroke-opacity:1" d="M 243.824,176.601 261.993,176.601 z" id="boundary" inkscape:connector-curvature="0" />
	<path style="fill:none;stroke:red;stroke-width:1px;stroke-linecap:butt;stroke-linejoin:miter;stroke-opacity:1" d="M 280.161,176.601 261.993,176.601 z" id="boundary" inkscape:connector-curvature="0" />
	<path style="fill:none;stroke:red;stroke-width:1px;stroke-linecap:butt;stroke-linejoin:miter;stroke-opacity:1" d="M 280.161,176.601 298.33,176.601 z" id="boundary" inkscape:connector-curvature="0" />
	<path style="fill:none;stroke:red;stroke-width:1px;stroke-linecap:butt;stroke-linejoin:miter;stroke-opacity:1" d="M 316.498,176.601 298.33,176.601 z" id="boundary" inkscape:connector-curvature="0" />
	<path style="fill:none;stroke:red;stroke-width:1px;stroke-linecap:butt;stroke-linejoin:miter;stroke-opacity:1" d="M 334.667,176.601 316.498,176.601 z" id="boundary" inkscape:connector-curvature="0" />
	<path style="fill:none;stroke:red;stroke-width:1px;stroke-linecap:butt;stroke-linejoin:miter;stroke-opacity:1" d="M 358.286,125.729 376.454,123.912 z" id="boundary" inkscape:connector-curvature="0" />
	<path style="fill:none;stroke:red;stroke-width:1px;stroke-linecap:butt;stroke-linejoin:miter;stroke-opacity:1" d="M 376.454,123.912 385.538,140.264 z" id="boundary" inkscape:connector-curvature="0" />
	<path style="fill:none;stroke:red;stroke-width:1px;stroke-linecap:butt;stroke-linejoin:miter;stroke-opacity:1" d="M 369.187,167.516 351.018,167.516 z" id="boundary" inkscape:connector-curvature="0" />
	<path style="fill:none;stroke:red;stroke-width:1px;stroke-linecap:butt;stroke-linejoin:miter;stroke-opacity:1" d="M 385.538,140.264 385.538,158.432 z" id="boundary" inkscape:connector-curvature="0" />
	<path style="fill:none;stroke:red;stroke-width:1px;stroke-linecap:butt;stroke-linejoin:miter;stroke-opacity:1" d="M 385.538,158.432 369.187,167.516 z" id="boundary" inkscape:connector-curvature="0" />
	<path style="fill:none;stroke:red;stroke-width:1px;stroke-linecap:butt;stroke-linejoin:miter;stroke-opacity:1" d="M 334.667,176.601 351.018,167.516 z" id="boundary" inkscape:connector-curvature="0" />
	<path style="fill:none;stroke:red;stroke-width:1px;stroke-linecap:butt;stroke-linejoin:miter;stroke-opacity:1" d="M 43.9707,585.392 27.619,576.308 z" id="boundary" inkscape:connector-curvature="0" />
	<path style="fill:none;stroke:red;stroke-width:1px;stroke-linecap:butt;stroke-linejoin:miter;stroke-opacity:1" d="M 27.619,576.308 13.0842,590.842 z" id="boundary" inkscape:connector-curvature="0" />
	<path style="fill:none;stroke:red;stroke-width:1px;stroke-linecap:butt;stroke-linejoin:miter;stroke-opacity:1" d="M 13.0842,625.363 4,609.011 z" id="boundary" inkscape:connector-curvature="0" />
	<path style="fill:none;stroke:red;stroke-width:1px;stroke-linecap:butt;stroke-linejoin:miter;stroke-opacity:1" d="M 4,609.011 13.0842,590.842 z" id="boundary" inkscape:connector-curvature="0" />
	<path style="fill:none;stroke:red;stroke-width:1px;stroke-linecap:butt;stroke-linejoin:miter;stroke-opacity:1" d="M 47.6044,532.703 63.956,541.788 z" id="boundary" inkscape:connector-curvature="0" />
	<path style="fill:none;stroke:red;stroke-width:1px;stroke-linecap:butt;stroke-linejoin:miter;stroke-opacity:1" d="M 63.956,541.788 82.1245,541.788 z" id="boundary" inkscape:connector-curvature="0" />
	<path style="fill:none;stroke:red;stroke-width:1px;stroke-linecap:butt;stroke-linejoin:miter;stroke-opacity:1" d="M 98.4762,550.872 82.1245,541.788 z" id="boundary" inkscape:connector-curvature="0" />
	<path style="fill:none;stroke:red;stroke-width:1px;stroke-linecap:butt;stroke-linejoin:miter;stroke-opacity:1" d="M 116.645,550.872 98.4762,550.872 z" id="boundary" inkscape:connector-curvature="0" />
	<path style="fill:none;stroke:red;stroke-width:1px;stroke-linecap:butt;stroke-linejoin:miter;stroke-opacity:1" d="M 116.645,550.872 134.813,550.872 z" id="boundary" inkscape:connector-curvature="0" />
	<path style="fill:none;stroke:red;stroke-width:1px;stroke-linecap:butt;stroke-linejoin:miter;stroke-opacity:1" d="M 43.9707,585.392 58.5055,598.11 z" id="boundary" inkscape:connector-curvature="0" />
	<path style="fill:none;stroke:red;stroke-width:1px;stroke-linecap:butt;stroke-linejoin:miter;stroke-opacity:1" d="M 132.996,607.194 114.828,616.278 z" id="boundary" inkscape:connector-curvature="0" />
	<path style="fill:none;stroke:red;stroke-width:1px;stroke-linecap:butt;stroke-linejoin:miter;stroke-opacity:1" d="M 58.5055,598.11 65.7729,616.278 z" id="boundary" inkscape:connector-curvature="0" />
	<path style="fill:none;stroke:red;stroke-width:1px;stroke-linecap:butt;stroke-linejoin:miter;stroke-opacity:1" d="M 78.4908,630.813 65.7729,616.278 z" id="boundary" inkscape:connector-curvature="0" />
	<path style="fill:none;stroke:red;stroke-width:1px;stroke-linecap:butt;stroke-linejoin:miter;stroke-opacity:1" d="M 96.6593,625.363 78.4908,630.813 z" id="boundary" inkscape:connector-curvature="0" />
	<path style="fill:none;stroke:red;stroke-width:1px;stroke-linecap:butt;stroke-linejoin:miter;stroke-opacity:1" d="M 25.8022,639.897 43.9707,641.714 z" id="boundary" inkscape:connector-curvature="0" />
	<path style="fill:none;stroke:red;stroke-width:1px;stroke-linecap:butt;stroke-linejoin:miter;stroke-opacity:1" d="M 43.9707,641.714 60.3223,650.799 z" id="boundary" inkscape:connector-curvature="0" />
	<path style="fill:none;stroke:red;stroke-width:1px;stroke-linecap:butt;stroke-linejoin:miter;stroke-opacity:1" d="M 25.8022,639.897 13.0842,625.363 z" id="boundary" inkscape:connector-curvature="0" />
	<path style="fill:none;stroke:red;stroke-width:1px;stroke-linecap:butt;stroke-linejoin:miter;stroke-opacity:1" d="M 78.4908,630.813 78.4908,650.799 z" id="boundary" inkscape:connector-curvature="0" />
	<path style="fill:none;stroke:red;stroke-width:1px;stroke-linecap:butt;stroke-linejoin:miter;stroke-opacity:1" d="M 78.4908,650.799 60.3223,650.799 z" id="boundary" inkscape:connector-curvature="0" />
	<path style="fill:none;stroke:red;stroke-width:1px;stroke-linecap:butt;stroke-linejoin:miter;stroke-opacity:1" d="M 96.6593,650.799 78.4908,650.799 z" id="boundary" inkscape:connector-curvature="0" />
	<path style="fill:none;stroke:red;stroke-width:1px;stroke-linecap:butt;stroke-linejoin:miter;stroke-opacity:1" d="M 96.6593,625.363 114.828,616.278 z" id="boundary" inkscape:connector-curvature="0" />
	<path style="fill:none;stroke:red;stroke-width:1px;stroke-linecap:butt;stroke-linejoin:miter;stroke-opacity:1" d="M 114.828,650.799 96.6593,650.799 z" id="boundary" inkscape:connector-curvature="0" />
	<path style="fill:none;stroke:red;stroke-width:1px;stroke-linecap:butt;stroke-linejoin:miter;stroke-opacity:1" d="M 132.996,650.799 114.828,650.799 z" id="boundary" inkscape:connector-curvature="0" />
	<path style="fill:none;stroke:red;stroke-width:1px;stroke-linecap:butt;stroke-linejoin:miter;stroke-opacity:1" d="M 151.165,650.799 132.996,650.799 z" id="boundary" inkscape:connector-curvature="0" />
	<path style="fill:none;stroke:red;stroke-width:1px;stroke-linecap:butt;stroke-linejoin:miter;stroke-opacity:1" d="M 134.813,550.872 152.982,550.872 z" id="boundary" inkscape:connector-curvature="0" />
	<path style="fill:none;stroke:red;stroke-width:1px;stroke-linecap:butt;stroke-linejoin:miter;stroke-opacity:1" d="M 169.333,559.956 152.982,550.872 z" id="boundary" inkscape:connector-curvature="0" />
	<path style="fill:none;stroke:red;stroke-width:1px;stroke-linecap:butt;stroke-linejoin:miter;stroke-opacity:1" d="M 187.502,559.956 169.333,559.956 z" id="boundary" inkscape:connector-curvature="0" />
	<path style="fill:none;stroke:red;stroke-width:1px;stroke-linecap:butt;stroke-linejoin:miter;stroke-opacity:1" d="M 169.333,594.476 151.165,598.11 z" id="boundary" inkscape:connector-curvature="0" />
	<path style="fill:none;stroke:red;stroke-width:1px;stroke-linecap:butt;stroke-linejoin:miter;stroke-opacity:1" d="M 185.685,585.392 169.333,594.476 z" id="boundary" inkscape:connector-curvature="0" />
	<path style="fill:none;stroke:red;stroke-width:1px;stroke-linecap:butt;stroke-linejoin:miter;stroke-opacity:1" d="M 132.996,607.194 151.165,598.11 z" id="boundary" inkscape:connector-curvature="0" />
	<path style="fill:none;stroke:red;stroke-width:1px;stroke-linecap:butt;stroke-linejoin:miter;stroke-opacity:1" d="M 205.67,563.59 203.853,585.392 z" id="boundary" inkscape:connector-curvature="0" />
	<path style="fill:none;stroke:red;stroke-width:1px;stroke-linecap:butt;stroke-linejoin:miter;stroke-opacity:1" d="M 203.853,585.392 185.685,585.392 z" id="boundary" inkscape:connector-curvature="0" />
	<path style="fill:none;stroke:red;stroke-width:1px;stroke-linecap:butt;stroke-linejoin:miter;stroke-opacity:1" d="M 187.502,559.956 205.67,563.59 z" id="boundary" inkscape:connector-curvature="0" />
	<path style="fill:none;stroke:red;stroke-width:1px;stroke-linecap:butt;stroke-linejoin:miter;stroke-opacity:1" d="M 360.103,605.377 343.751,614.462 z" id="boundary" inkscape:connector-curvature="0" />
	<path style="fill:none;stroke:red;stroke-width:1px;stroke-linecap:butt;stroke-linejoin:miter;stroke-opacity:1" d="M 343.751,614.462 327.399,605.377 z" id="boundary" inkscape:connector-curvature="0" />
	<path style="fill:none;stroke:red;stroke-width:1px;stroke-linecap:butt;stroke-linejoin:miter;stroke-opacity:1" d="M 360.103,605.377 378.271,605.377 z" id="boundary" inkscape:connector-curvature="0" />
	<path style="fill:none;stroke:red;stroke-width:1px;stroke-linecap:butt;stroke-linejoin:miter;stroke-opacity:1" d="M 205.67,636.264 187.502,632.63 z" id="boundary" inkscape:connector-curvature="0" />
	<path style="fill:none;stroke:red;stroke-width:1px;stroke-linecap:butt;stroke-linejoin:miter;stroke-opacity:1" d="M 223.839,632.63 205.67,636.264 z" id="boundary" inkscape:connector-curvature="0" />
	<path style="fill:none;stroke:red;stroke-width:1px;stroke-linecap:butt;stroke-linejoin:miter;stroke-opacity:1" d="M 242.007,632.63 223.839,632.63 z" id="boundary" inkscape:connector-curvature="0" />
	<path style="fill:none;stroke:red;stroke-width:1px;stroke-linecap:butt;stroke-linejoin:miter;stroke-opacity:1" d="M 151.165,650.799 169.333,641.714 z" id="boundary" inkscape:connector-curvature="0" />
	<path style="fill:none;stroke:red;stroke-width:1px;stroke-linecap:butt;stroke-linejoin:miter;stroke-opacity:1" d="M 169.333,641.714 187.502,632.63 z" id="boundary" inkscape:connector-curvature="0" />
	<path style="fill:none;stroke:red;stroke-width:1px;stroke-linecap:butt;stroke-linejoin:miter;stroke-opacity:1" d="M 327.399,605.377 311.048,614.462 z" id="boundary" inkscape:connector-curvature="0" />
	<path style="fill:none;stroke:red;stroke-width:1px;stroke-linecap:butt;stroke-linejoin:miter;stroke-opacity:1" d="M 311.048,614.462 292.879,614.462 z" id="boundary" inkscape:connector-curvature="0" />
	<path style="fill:none;stroke:red;stroke-width:1px;stroke-linecap:butt;stroke-linejoin:miter;stroke-opacity:1" d="M 378.271,605.377 396.44,605.377 z" id="boundary" inkscape:connector-curvature="0" />
	<path style="fill:none;stroke:red;stroke-width:1px;stroke-linecap:butt;stroke-linejoin:miter;stroke-opacity:1" d="M 276.527,623.546 292.879,614.462 z" id="boundary" inkscape:connector-curvature="0" />
	<path style="fill:none;stroke:red;stroke-width:1px;stroke-linecap:butt;stroke-linejoin:miter;stroke-opacity:1" d="M 276.527,623.546 258.359,623.546 z" id="boundary" inkscape:connector-curvature="0" />
	<path style="fill:none;stroke:red;stroke-width:1px;stroke-linecap:butt;stroke-linejoin:miter;stroke-opacity:1" d="M 242.007,632.63 258.359,623.546 z" id="boundary" inkscape:connector-curvature="0" />
	<path style="fill:none;stroke:red;stroke-width:1px;stroke-linecap:butt;stroke-linejoin:miter;stroke-opacity:1" d="M 396.44,605.377 414.608,605.377 z" id="boundary" inkscape:connector-curvature="0" />
	<path style="fill:none;stroke:red;stroke-width:1px;stroke-linecap:butt;stroke-linejoin:miter;stroke-opacity:1" d="M 420.059,80.3077 405.524,69.4066 z" id="boundary" inkscape:connector-curvature="0" />
	<path style="fill:none;stroke:red;stroke-width:1px;stroke-linecap:butt;stroke-linejoin:miter;stroke-opacity:1" d="M 432.777,42.1538 421.875,60.3223 z" id="boundary" inkscape:connector-curvature="0" />
	<path style="fill:none;stroke:red;stroke-width:1px;stroke-linecap:butt;stroke-linejoin:miter;stroke-opacity:1" d="M 414.608,123.912 414.608,105.744 z" id="boundary" inkscape:connector-curvature="0" />
	<path style="fill:none;stroke:red;stroke-width:1px;stroke-linecap:butt;stroke-linejoin:miter;stroke-opacity:1" d="M 420.059,80.3077 414.608,105.744 z" id="boundary" inkscape:connector-curvature="0" />
	<path style="fill:none;stroke:red;stroke-width:1px;stroke-linecap:butt;stroke-linejoin:miter;stroke-opacity:1" d="M 403.707,18.5348 421.875,18.5348 z" id="boundary" inkscape:connector-curvature="0" />
	<path style="fill:none;stroke:red;stroke-width:1px;stroke-linecap:butt;stroke-linejoin:miter;stroke-opacity:1" d="M 421.875,18.5348 432.777,42.1538 z" id="boundary" inkscape:connector-curvature="0" />
	<path style="fill:none;stroke:red;stroke-width:1px;stroke-linecap:butt;stroke-linejoin:miter;stroke-opacity:1" d="M 436.41,4 454.579,4 z" id="boundary" inkscape:connector-curvature="0" />
	<path style="fill:none;stroke:red;stroke-width:1px;stroke-linecap:butt;stroke-linejoin:miter;stroke-opacity:1" d="M 650.799,158.432 632.63,158.432 z" id="boundary" inkscape:connector-curvature="0" />
	<path style="fill:none;stroke:red;stroke-width:1px;stroke-linecap:butt;stroke-linejoin:miter;stroke-opacity:1" d="M 454.579,4 465.48,20.3516 z" id="boundary" inkscape:connector-curvature="0" />
	<path style="fill:none;stroke:red;stroke-width:1px;stroke-linecap:butt;stroke-linejoin:miter;stroke-opacity:1" d="M 465.48,20.3516 450.945,33.0696 z" id="boundary" inkscape:connector-curvature="0" />
	<path style="fill:none;stroke:red;stroke-width:1px;stroke-linecap:butt;stroke-linejoin:miter;stroke-opacity:1" d="M 450.945,33.0696 432.777,42.1538 z" id="boundary" inkscape:connector-curvature="0" />
	<path style="fill:none;stroke:red;stroke-width:1px;stroke-linecap:butt;stroke-linejoin:miter;stroke-opacity:1" d="M 496.366,131.179 478.198,131.179 z" id="boundary" inkscape:connector-curvature="0" />
	<path style="fill:none;stroke:red;stroke-width:1px;stroke-linecap:butt;stroke-linejoin:miter;stroke-opacity:1" d="M 421.875,18.5348 436.41,4 z" id="boundary" inkscape:connector-curvature="0" />
	<path style="fill:none;stroke:red;stroke-width:1px;stroke-linecap:butt;stroke-linejoin:miter;stroke-opacity:1" d="M 478.198,131.179 460.029,134.813 z" id="boundary" inkscape:connector-curvature="0" />
	<path style="fill:none;stroke:red;stroke-width:1px;stroke-linecap:butt;stroke-linejoin:miter;stroke-opacity:1" d="M 514.535,131.179 496.366,131.179 z" id="boundary" inkscape:connector-curvature="0" />
	<path style="fill:none;stroke:red;stroke-width:1px;stroke-linecap:butt;stroke-linejoin:miter;stroke-opacity:1" d="M 532.703,131.179 514.535,131.179 z" id="boundary" inkscape:connector-curvature="0" />
	<path style="fill:none;stroke:red;stroke-width:1px;stroke-linecap:butt;stroke-linejoin:miter;stroke-opacity:1" d="M 441.861,140.264 423.692,140.264 z" id="boundary" inkscape:connector-curvature="0" />
	<path style="fill:none;stroke:red;stroke-width:1px;stroke-linecap:butt;stroke-linejoin:miter;stroke-opacity:1" d="M 423.692,140.264 414.608,123.912 z" id="boundary" inkscape:connector-curvature="0" />
	<path style="fill:none;stroke:red;stroke-width:1px;stroke-linecap:butt;stroke-linejoin:miter;stroke-opacity:1" d="M 460.029,134.813 441.861,140.264 z" id="boundary" inkscape:connector-curvature="0" />
	<path style="fill:none;stroke:red;stroke-width:1px;stroke-linecap:butt;stroke-linejoin:miter;stroke-opacity:1" d="M 565.407,149.348 550.872,136.63 z" id="boundary" inkscape:connector-curvature="0" />
	<path style="fill:none;stroke:red;stroke-width:1px;stroke-linecap:butt;stroke-linejoin:miter;stroke-opacity:1" d="M 632.63,158.432 614.462,158.432 z" id="boundary" inkscape:connector-curvature="0" />
	<path style="fill:none;stroke:red;stroke-width:1px;stroke-linecap:butt;stroke-linejoin:miter;stroke-opacity:1" d="M 614.462,158.432 596.293,162.066 z" id="boundary" inkscape:connector-curvature="0" />
	<path style="fill:none;stroke:red;stroke-width:1px;stroke-linecap:butt;stroke-linejoin:miter;stroke-opacity:1" d="M 565.407,149.348 578.125,163.883 z" id="boundary" inkscape:connector-curvature="0" />
	<path style="fill:none;stroke:red;stroke-width:1px;stroke-linecap:butt;stroke-linejoin:miter;stroke-opacity:1" d="M 578.125,163.883 596.293,162.066 z" id="boundary" inkscape:connector-curvature="0" />
	<path style="fill:none;stroke:red;stroke-width:1px;stroke-linecap:butt;stroke-linejoin:miter;stroke-opacity:1" d="M 550.872,136.63 532.703,131.179 z" id="boundary" inkscape:connector-curvature="0" />
	<path style="fill:none;stroke:red;stroke-width:1px;stroke-linecap:butt;stroke-linejoin:miter;stroke-opacity:1" d="M 650.799,158.432 665.333,169.333 z" id="boundary" inkscape:connector-curvature="0" />
	<path style="fill:none;stroke:red;stroke-width:1px;stroke-linecap:butt;stroke-linejoin:miter;stroke-opacity:1" d="M 665.333,169.333 668.967,187.502 z" id="boundary" inkscape:connector-curvature="0" />
	<path style="fill:none;stroke:red;stroke-width:1px;stroke-linecap:butt;stroke-linejoin:miter;stroke-opacity:1" d="M 668.967,187.502 668.967,205.67 z" id="boundary" inkscape:connector-curvature="0" />
	<path style="fill:none;stroke:red;stroke-width:1px;stroke-linecap:butt;stroke-linejoin:miter;stroke-opacity:1" d="M 659.883,242.007 641.714,251.092 z" id="boundary" inkscape:connector-curvature="0" />
	<path style="fill:none;stroke:red;stroke-width:1px;stroke-linecap:butt;stroke-linejoin:miter;stroke-opacity:1" d="M 668.967,223.839 659.883,242.007 z" id="boundary" inkscape:connector-curvature="0" />
	<path style="fill:none;stroke:red;stroke-width:1px;stroke-linecap:butt;stroke-linejoin:miter;stroke-opacity:1" d="M 668.967,205.67 668.967,223.839 z" id="boundary" inkscape:connector-curvature="0" />
	<path style="fill:none;stroke:red;stroke-width:1px;stroke-linecap:butt;stroke-linejoin:miter;stroke-opacity:1" d="M 659.883,242.007 668.967,258.359 z" id="boundary" inkscape:connector-curvature="0" />
	<path style="fill:none;stroke:red;stroke-width:1px;stroke-linecap:butt;stroke-linejoin:miter;stroke-opacity:1" d="M 923.326,249.275 905.158,249.275 z" id="boundary" inkscape:connector-curvature="0" />
	<path style="fill:none;stroke:red;stroke-width:1px;stroke-linecap:butt;stroke-linejoin:miter;stroke-opacity:1" d="M 941.495,249.275 923.326,249.275 z" id="boundary" inkscape:connector-curvature="0" />
	<path style="fill:none;stroke:red;stroke-width:1px;stroke-linecap:butt;stroke-linejoin:miter;stroke-opacity:1" d="M 959.663,249.275 941.495,249.275 z" id="boundary" inkscape:connector-curvature="0" />
	<path style="fill:none;stroke:red;stroke-width:1px;stroke-linecap:butt;stroke-linejoin:miter;stroke-opacity:1" d="M 977.832,249.275 959.663,249.275 z" id="boundary" inkscape:connector-curvature="0" />
	<path style="fill:none;stroke:red;stroke-width:1px;stroke-linecap:butt;stroke-linejoin:miter;stroke-opacity:1" d="M 886.989,252.908 905.158,249.275 z" id="boundary" inkscape:connector-curvature="0" />
	<path style="fill:none;stroke:red;stroke-width:1px;stroke-linecap:butt;stroke-linejoin:miter;stroke-opacity:1" d="M 668.967,258.359 687.136,258.359 z" id="boundary" inkscape:connector-curvature="0" />
	<path style="fill:none;stroke:red;stroke-width:1px;stroke-linecap:butt;stroke-linejoin:miter;stroke-opacity:1" d="M 705.304,258.359 687.136,258.359 z" id="boundary" inkscape:connector-curvature="0" />
	<path style="fill:none;stroke:red;stroke-width:1px;stroke-linecap:butt;stroke-linejoin:miter;stroke-opacity:1" d="M 723.473,258.359 741.641,258.359 z" id="boundary" inkscape:connector-curvature="0" />
	<path style="fill:none;stroke:red;stroke-width:1px;stroke-linecap:butt;stroke-linejoin:miter;stroke-opacity:1" d="M 759.81,258.359 741.641,258.359 z" id="boundary" inkscape:connector-curvature="0" />
	<path style="fill:none;stroke:red;stroke-width:1px;stroke-linecap:butt;stroke-linejoin:miter;stroke-opacity:1" d="M 723.473,258.359 705.304,258.359 z" id="boundary" inkscape:connector-curvature="0" />
	<path style="fill:none;stroke:red;stroke-width:1px;stroke-linecap:butt;stroke-linejoin:miter;stroke-opacity:1" d="M 850.652,252.908 832.484,252.908 z" id="boundary" inkscape:connector-curvature="0" />
	<path style="fill:none;stroke:red;stroke-width:1px;stroke-linecap:butt;stroke-linejoin:miter;stroke-opacity:1" d="M 868.821,252.908 850.652,252.908 z" id="boundary" inkscape:connector-curvature="0" />
	<path style="fill:none;stroke:red;stroke-width:1px;stroke-linecap:butt;stroke-linejoin:miter;stroke-opacity:1" d="M 868.821,252.908 886.989,252.908 z" id="boundary" inkscape:connector-curvature="0" />
	<path style="fill:none;stroke:red;stroke-width:1px;stroke-linecap:butt;stroke-linejoin:miter;stroke-opacity:1" d="M 977.832,249.275 996,254.725 z" id="boundary" inkscape:connector-curvature="0" />
	<path style="fill:none;stroke:red;stroke-width:1px;stroke-linecap:butt;stroke-linejoin:miter;stroke-opacity:1" d="M 777.978,258.359 759.81,258.359 z" id="boundary" inkscape:connector-curvature="0" />
	<path style="fill:none;stroke:red;stroke-width:1px;stroke-linecap:butt;stroke-linejoin:miter;stroke-opacity:1" d="M 796.147,258.359 777.978,258.359 z" id="boundary" inkscape:connector-curvature="0" />
	<path style="fill:none;stroke:red;stroke-width:1px;stroke-linecap:butt;stroke-linejoin:miter;stroke-opacity:1" d="M 630.813,514.535 648.982,514.535 z" id="boundary" inkscape:connector-curvature="0" />
	<path style="fill:none;stroke:red;stroke-width:1px;stroke-linecap:butt;stroke-linejoin:miter;stroke-opacity:1" d="M 612.645,518.168 630.813,514.535 z" id="boundary" inkscape:connector-curvature="0" />
	<path style="fill:none;stroke:red;stroke-width:1px;stroke-linecap:butt;stroke-linejoin:miter;stroke-opacity:1" d="M 612.645,518.168 594.476,523.619 z" id="boundary" inkscape:connector-curvature="0" />
	<path style="fill:none;stroke:red;stroke-width:1px;stroke-linecap:butt;stroke-linejoin:miter;stroke-opacity:1" d="M 594.476,523.619 576.308,523.619 z" id="boundary" inkscape:connector-curvature="0" />
	<path style="fill:none;stroke:red;stroke-width:1px;stroke-linecap:butt;stroke-linejoin:miter;stroke-opacity:1" d="M 558.139,523.619 576.308,523.619 z" id="boundary" inkscape:connector-curvature="0" />
	<path style="fill:none;stroke:red;stroke-width:1px;stroke-linecap:butt;stroke-linejoin:miter;stroke-opacity:1" d="M 539.971,527.253 558.139,523.619 z" id="boundary" inkscape:connector-curvature="0" />
	<path style="fill:none;stroke:red;stroke-width:1px;stroke-linecap:butt;stroke-linejoin:miter;stroke-opacity:1" d="M 659.883,414.608 676.234,405.524 z" id="boundary" inkscape:connector-curvature="0" />
	<path style="fill:none;stroke:red;stroke-width:1px;stroke-linecap:butt;stroke-linejoin:miter;stroke-opacity:1" d="M 668.967,430.96 659.883,414.608 z" id="boundary" inkscape:connector-curvature="0" />
	<path style="fill:none;stroke:red;stroke-width:1px;stroke-linecap:butt;stroke-linejoin:miter;stroke-opacity:1" d="M 687.136,430.96 668.967,430.96 z" id="boundary" inkscape:connector-curvature="0" />
	<path style="fill:none;stroke:red;stroke-width:1px;stroke-linecap:butt;stroke-linejoin:miter;stroke-opacity:1" d="M 667.15,514.535 648.982,514.535 z" id="boundary" inkscape:connector-curvature="0" />
	<path style="fill:none;stroke:red;stroke-width:1px;stroke-linecap:butt;stroke-linejoin:miter;stroke-opacity:1" d="M 685.319,514.535 667.15,514.535 z" id="boundary" inkscape:connector-curvature="0" />
	<path style="fill:none;stroke:red;stroke-width:1px;stroke-linecap:butt;stroke-linejoin:miter;stroke-opacity:1" d="M 687.136,430.96 696.22,447.311 z" id="boundary" inkscape:connector-curvature="0" />
	<path style="fill:none;stroke:red;stroke-width:1px;stroke-linecap:butt;stroke-linejoin:miter;stroke-opacity:1" d="M 676.234,405.524 694.403,400.073 z" id="boundary" inkscape:connector-curvature="0" />
	<path style="fill:none;stroke:red;stroke-width:1px;stroke-linecap:butt;stroke-linejoin:miter;stroke-opacity:1" d="M 450.945,559.956 450.945,541.788 z" id="boundary" inkscape:connector-curvature="0" />
	<path style="fill:none;stroke:red;stroke-width:1px;stroke-linecap:butt;stroke-linejoin:miter;stroke-opacity:1" d="M 450.945,541.788 469.114,541.788 z" id="boundary" inkscape:connector-curvature="0" />
	<path style="fill:none;stroke:red;stroke-width:1px;stroke-linecap:butt;stroke-linejoin:miter;stroke-opacity:1" d="M 450.945,578.125 450.945,559.956 z" id="boundary" inkscape:connector-curvature="0" />
	<path style="fill:none;stroke:red;stroke-width:1px;stroke-linecap:butt;stroke-linejoin:miter;stroke-opacity:1" d="M 432.777,605.377 414.608,605.377 z" id="boundary" inkscape:connector-curvature="0" />
	<path style="fill:none;stroke:red;stroke-width:1px;stroke-linecap:butt;stroke-linejoin:miter;stroke-opacity:1" d="M 450.945,578.125 450.945,596.293 z" id="boundary" inkscape:connector-curvature="0" />
	<path style="fill:none;stroke:red;stroke-width:1px;stroke-linecap:butt;stroke-linejoin:miter;stroke-opacity:1" d="M 450.945,596.293 432.777,605.377 z" id="boundary" inkscape:connector-curvature="0" />
	<path style="fill:none;stroke:red;stroke-width:1px;stroke-linecap:butt;stroke-linejoin:miter;stroke-opacity:1" d="M 503.634,532.703 485.465,532.703 z" id="boundary" inkscape:connector-curvature="0" />
	<path style="fill:none;stroke:red;stroke-width:1px;stroke-linecap:butt;stroke-linejoin:miter;stroke-opacity:1" d="M 503.634,532.703 521.802,532.703 z" id="boundary" inkscape:connector-curvature="0" />
	<path style="fill:none;stroke:red;stroke-width:1px;stroke-linecap:butt;stroke-linejoin:miter;stroke-opacity:1" d="M 469.114,541.788 485.465,532.703 z" id="boundary" inkscape:connector-curvature="0" />
	<path style="fill:none;stroke:red;stroke-width:1px;stroke-linecap:butt;stroke-linejoin:miter;stroke-opacity:1" d="M 539.971,527.253 521.802,532.703 z" id="boundary" inkscape:connector-curvature="0" />
	<path style="fill:none;stroke:red;stroke-width:1px;stroke-linecap:butt;stroke-linejoin:miter;stroke-opacity:1" d="M 685.319,514.535 703.487,509.084 z" id="boundary" inkscape:connector-curvature="0" />
	<path style="fill:none;stroke:red;stroke-width:1px;stroke-linecap:butt;stroke-linejoin:miter;stroke-opacity:1" d="M 796.147,258.359 814.315,258.359 z" id="boundary" inkscape:connector-curvature="0" />
	<path style="fill:none;stroke:red;stroke-width:1px;stroke-linecap:butt;stroke-linejoin:miter;stroke-opacity:1" d="M 832.484,252.908 814.315,258.359 z" id="boundary" inkscape:connector-curvature="0" />
	<path style="fill:none;stroke:red;stroke-width:1px;stroke-linecap:butt;stroke-linejoin:miter;stroke-opacity:1" d="M 881.538,332.85 865.187,341.934 z" id="boundary" inkscape:connector-curvature="0" />
	<path style="fill:none;stroke:red;stroke-width:1px;stroke-linecap:butt;stroke-linejoin:miter;stroke-opacity:1" d="M 865.187,341.934 847.018,347.385 z" id="boundary" inkscape:connector-curvature="0" />
	<path style="fill:none;stroke:red;stroke-width:1px;stroke-linecap:butt;stroke-linejoin:miter;stroke-opacity:1" d="M 814.315,369.187 828.85,356.469 z" id="boundary" inkscape:connector-curvature="0" />
	<path style="fill:none;stroke:red;stroke-width:1px;stroke-linecap:butt;stroke-linejoin:miter;stroke-opacity:1" d="M 828.85,356.469 847.018,347.385 z" id="boundary" inkscape:connector-curvature="0" />
	<path style="fill:none;stroke:red;stroke-width:1px;stroke-linecap:butt;stroke-linejoin:miter;stroke-opacity:1" d="M 966.93,291.062 948.762,300.147 z" id="boundary" inkscape:connector-curvature="0" />
	<path style="fill:none;stroke:red;stroke-width:1px;stroke-linecap:butt;stroke-linejoin:miter;stroke-opacity:1" d="M 930.593,309.231 916.059,323.766 z" id="boundary" inkscape:connector-curvature="0" />
	<path style="fill:none;stroke:red;stroke-width:1px;stroke-linecap:butt;stroke-linejoin:miter;stroke-opacity:1" d="M 916.059,323.766 897.89,323.766 z" id="boundary" inkscape:connector-curvature="0" />
	<path style="fill:none;stroke:red;stroke-width:1px;stroke-linecap:butt;stroke-linejoin:miter;stroke-opacity:1" d="M 897.89,323.766 881.538,332.85 z" id="boundary" inkscape:connector-curvature="0" />
	<path style="fill:none;stroke:red;stroke-width:1px;stroke-linecap:butt;stroke-linejoin:miter;stroke-opacity:1" d="M 930.593,309.231 948.762,300.147 z" id="boundary" inkscape:connector-curvature="0" />
	<path style="fill:none;stroke:red;stroke-width:1px;stroke-linecap:butt;stroke-linejoin:miter;stroke-opacity:1" d="M 981.465,278.344 966.93,291.062 z" id="boundary" inkscape:connector-curvature="0" />
	<path style="fill:none;stroke:red;stroke-width:1px;stroke-linecap:butt;stroke-linejoin:miter;stroke-opacity:1" d="M 712.571,396.44 694.403,400.073 z" id="boundary" inkscape:connector-curvature="0" />
	<path style="fill:none;stroke:red;stroke-width:1px;stroke-linecap:butt;stroke-linejoin:miter;stroke-opacity:1" d="M 728.923,387.355 712.571,396.44 z" id="boundary" inkscape:connector-curvature="0" />
	<path style="fill:none;stroke:red;stroke-width:1px;stroke-linecap:butt;stroke-linejoin:miter;stroke-opacity:1" d="M 705.304,463.663 696.22,447.311 z" id="boundary" inkscape:connector-curvature="0" />
	<path style="fill:none;stroke:red;stroke-width:1px;stroke-linecap:butt;stroke-linejoin:miter;stroke-opacity:1" d="M 705.304,481.832 703.487,509.084 z" id="boundary" inkscape:connector-curvature="0" />
	<path style="fill:none;stroke:red;stroke-width:1px;stroke-linecap:butt;stroke-linejoin:miter;stroke-opacity:1" d="M 705.304,463.663 705.304,481.832 z" id="boundary" inkscape:connector-curvature="0" />
	<path style="fill:none;stroke:red;stroke-width:1px;stroke-linecap:butt;stroke-linejoin:miter;stroke-opacity:1" d="M 777.978,369.187 796.147,369.187 z" id="boundary" inkscape:connector-curvature="0" />
	<path style="fill:none;stroke:red;stroke-width:1px;stroke-linecap:butt;stroke-linejoin:miter;stroke-opacity:1" d="M 765.26,383.722 777.978,369.187 z" id="boundary" inkscape:connector-curvature="0" />
	<path style="fill:none;stroke:red;stroke-width:1px;stroke-linecap:butt;stroke-linejoin:miter;stroke-opacity:1" d="M 814.315,369.187 796.147,369.187 z" id="boundary" inkscape:connector-curvature="0" />
	<path style="fill:none;stroke:red;stroke-width:1px;stroke-linecap:butt;stroke-linejoin:miter;stroke-opacity:1" d="M 747.092,387.355 728.923,387.355 z" id="boundary" inkscape:connector-curvature="0" />
	<path style="fill:none;stroke:red;stroke-width:1px;stroke-linecap:butt;stroke-linejoin:miter;stroke-opacity:1" d="M 765.26,383.722 747.092,387.355 z" id="boundary" inkscape:connector-curvature="0" />
	<circle cx="4" cy="609.011" r="4" fill="#0" id="circle0"/>
	<circle cx="13.0842" cy="436.41" r="4" fill="#0" id="circle1"/>
	<circle cx="13.0842" cy="454.579" r="4" fill="#0" id="circle2"/>
	<circle cx="13.0842" cy="472.747" r="4" fill="#0" id="circle3"/>
	<circle cx="13.0842" cy="490.916" r="4" fill="#0" id="circle4"/>
	<circle cx="13.0842" cy="590.842" r="4" fill="#0" id="circle5"/>
	<circle cx="13.0842" cy="625.363" r="4" fill="#0" id="circle6"/>
	<circle cx="22.1685" cy="390.989" r="4" fill="#0" id="circle7"/>
	<circle cx="22.1685" cy="409.158" r="4" fill="#0" id="circle8"/>
	<circle cx="22.1685" cy="507.267" r="4" fill="#0" id="circle9"/>
	<circle cx="25.8022" cy="639.897" r="4" fill="#0" id="circle10"/>
	<circle cx="27.619" cy="576.308" r="4" fill="#0" id="circle11"/>
	<circle cx="31.2527" cy="372.821" r="4" fill="#0" id="circle12"/>
	<circle cx="31.2527" cy="523.619" r="4" fill="#0" id="circle13"/>
	<circle cx="40.337" cy="345.568" r="4" fill="#0" id="circle14"/>
	<circle cx="43.9707" cy="585.392" r="4" fill="#0" id="circle15"/>
	<circle cx="43.9707" cy="641.714" r="4" fill="#0" id="circle16"/>
	<circle cx="47.6044" cy="532.703" r="4" fill="#0" id="circle17"/>
	<circle cx="49.4212" cy="318.315" r="4" fill="#0" id="circle18"/>
	<circle cx="58.5055" cy="300.147" r="4" fill="#0" id="circle19"/>
	<circle cx="58.5055" cy="598.11" r="4" fill="#0" id="circle20"/>
	<circle cx="60.3223" cy="650.799" r="4" fill="#0" id="circle21"/>
	<circle cx="63.956" cy="541.788" r="4" fill="#0" id="circle22"/>
	<circle cx="65.7729" cy="616.278" r="4" fill="#0" id="circle23"/>
	<circle cx="73.0403" cy="285.612" r="4" fill="#0" id="circle24"/>
	<circle cx="78.4908" cy="630.813" r="4" fill="#0" id="circle25"/>
	<circle cx="78.4908" cy="650.799" r="4" fill="#0" id="circle26"/>
	<circle cx="82.1245" cy="541.788" r="4" fill="#0" id="circle27"/>
	<circle cx="91.2088" cy="276.527" r="4" fill="#0" id="circle28"/>
	<circle cx="96.6593" cy="625.363" r="4" fill="#0" id="circle29"/>
	<circle cx="96.6593" cy="650.799" r="4" fill="#0" id="circle30"/>
	<circle cx="98.4762" cy="550.872" r="4" fill="#0" id="circle31"/>
	<circle cx="100.293" cy="258.359" r="4" fill="#0" id="circle32"/>
	<circle cx="114.828" cy="243.824" r="4" fill="#0" id="circle33"/>
	<circle cx="114.828" cy="616.278" r="4" fill="#0" id="circle34"/>
	<circle cx="114.828" cy="650.799" r="4" fill="#0" id="circle35"/>
	<circle cx="116.645" cy="550.872" r="4" fill="#0" id="circle36"/>
	<circle cx="129.363" cy="231.106" r="4" fill="#0" id="circle37"/>
	<circle cx="132.996" cy="607.194" r="4" fill="#0" id="circle38"/>
	<circle cx="132.996" cy="650.799" r="4" fill="#0" id="circle39"/>
	<circle cx="134.813" cy="550.872" r="4" fill="#0" id="circle40"/>
	<circle cx="142.081" cy="216.571" r="4" fill="#0" id="circle41"/>
	<circle cx="151.165" cy="598.11" r="4" fill="#0" id="circle42"/>
	<circle cx="151.165" cy="650.799" r="4" fill="#0" id="circle43"/>
	<circle cx="152.982" cy="550.872" r="4" fill="#0" id="circle44"/>
	<circle cx="156.615" cy="203.853" r="4" fill="#0" id="circle45"/>
	<circle cx="169.333" cy="559.956" r="4" fill="#0" id="circle46"/>
	<circle cx="169.333" cy="594.476" r="4" fill="#0" id="circle47"/>
	<circle cx="169.333" cy="641.714" r="4" fill="#0" id="circle48"/>
	<circle cx="172.967" cy="194.769" r="4" fill="#0" id="circle49"/>
	<circle cx="185.685" cy="585.392" r="4" fill="#0" id="circle50"/>
	<circle cx="187.502" cy="559.956" r="4" fill="#0" id="circle51"/>
	<circle cx="187.502" cy="632.63" r="4" fill="#0" id="circle52"/>
	<circle cx="191.136" cy="194.769" r="4" fill="#0" id="circle53"/>
	<circle cx="203.853" cy="585.392" r="4" fill="#0" id="circle54"/>
	<circle cx="205.67" cy="563.59" r="4" fill="#0" id="circle55"/>
	<circle cx="205.67" cy="636.264" r="4" fill="#0" id="circle56"/>
	<circle cx="207.487" cy="185.685" r="4" fill="#0" id="circle57"/>
	<circle cx="223.839" cy="632.63" r="4" fill="#0" id="circle58"/>
	<circle cx="225.656" cy="178.418" r="4" fill="#0" id="circle59"/>
	<circle cx="242.007" cy="632.63" r="4" fill="#0" id="circle60"/>
	<circle cx="243.824" cy="176.601" r="4" fill="#0" id="circle61"/>
	<circle cx="258.359" cy="623.546" r="4" fill="#0" id="circle62"/>
	<circle cx="261.993" cy="176.601" r="4" fill="#0" id="circle63"/>
	<circle cx="276.527" cy="623.546" r="4" fill="#0" id="circle64"/>
	<circle cx="280.161" cy="176.601" r="4" fill="#0" id="circle65"/>
	<circle cx="292.879" cy="614.462" r="4" fill="#0" id="circle66"/>
	<circle cx="298.33" cy="176.601" r="4" fill="#0" id="circle67"/>
	<circle cx="311.048" cy="614.462" r="4" fill="#0" id="circle68"/>
	<circle cx="312.864" cy="63.956" r="4" fill="#0" id="circle69"/>
	<circle cx="316.498" cy="176.601" r="4" fill="#0" id="circle70"/>
	<circle cx="327.399" cy="605.377" r="4" fill="#0" id="circle71"/>
	<circle cx="331.033" cy="54.8718" r="4" fill="#0" id="circle72"/>
	<circle cx="331.033" cy="73.0403" r="4" fill="#0" id="circle73"/>
	<circle cx="334.667" cy="176.601" r="4" fill="#0" id="circle74"/>
	<circle cx="343.751" cy="614.462" r="4" fill="#0" id="circle75"/>
	<circle cx="345.568" cy="85.7582" r="4" fill="#0" id="circle76"/>
	<circle cx="349.201" cy="36.7033" r="4" fill="#0" id="circle77"/>
	<circle cx="349.201" cy="109.377" r="4" fill="#0" id="circle78"/>
	<circle cx="351.018" cy="167.516" r="4" fill="#0" id="circle79"/>
	<circle cx="358.286" cy="125.729" r="4" fill="#0" id="circle80"/>
	<circle cx="360.103" cy="605.377" r="4" fill="#0" id="circle81"/>
	<circle cx="363.736" cy="78.4908" r="4" fill="#0" id="circle82"/>
	<circle cx="367.37" cy="31.2527" r="4" fill="#0" id="circle83"/>
	<circle cx="367.37" cy="96.6593" r="4" fill="#0" id="circle84"/>
	<circle cx="369.187" cy="167.516" r="4" fill="#0" id="circle85"/>
	<circle cx="376.454" cy="123.912" r="4" fill="#0" id="circle86"/>
	<circle cx="378.271" cy="605.377" r="4" fill="#0" id="circle87"/>
	<circle cx="385.538" cy="27.619" r="4" fill="#0" id="circle88"/>
	<circle cx="385.538" cy="140.264" r="4" fill="#0" id="circle89"/>
	<circle cx="385.538" cy="158.432" r="4" fill="#0" id="circle90"/>
	<circle cx="396.44" cy="605.377" r="4" fill="#0" id="circle91"/>
	<circle cx="403.707" cy="18.5348" r="4" fill="#0" id="circle92"/>
	<circle cx="405.524" cy="69.4066" r="4" fill="#0" id="circle93"/>
	<circle cx="414.608" cy="105.744" r="4" fill="#0" id="circle94"/>
	<circle cx="414.608" cy="123.912" r="4" fill="#0" id="circle95"/>
	<circle cx="414.608" cy="605.377" r="4" fill="#0" id="circle96"/>
	<circle cx="420.059" cy="80.3077" r="4" fill="#0" id="circle97"/>
	<circle cx="421.875" cy="18.5348" r="4" fill="#0" id="circle98"/>
	<circle cx="421.875" cy="60.3223" r="4" fill="#0" id="circle99"/>
	<circle cx="423.692" cy="140.264" r="4" fill="#0" id="circle100"/>
	<circle cx="432.777" cy="42.1538" r="4" fill="#0" id="circle101"/>
	<circle cx="432.777" cy="605.377" r="4" fill="#0" id="circle102"/>
	<circle cx="436.41" cy="4" r="4" fill="#0" id="circle103"/>
	<circle cx="441.861" cy="140.264" r="4" fill="#0" id="circle104"/>
	<circle cx="450.945" cy="33.0696" r="4" fill="#0" id="circle105"/>
	<circle cx="450.945" cy="541.788" r="4" fill="#0" id="circle106"/>
	<circle cx="450.945" cy="559.956" r="4" fill="#0" id="circle107"/>
	<circle cx="450.945" cy="578.125" r="4" fill="#0" id="circle108"/>
	<circle cx="450.945" cy="596.293" r="4" fill="#0" id="circle109"/>
	<circle cx="454.579" cy="4" r="4" fill="#0" id="circle110"/>
	<circle cx="460.029" cy="134.813" r="4" fill="#0" id="circle111"/>
	<circle cx="465.48" cy="20.3516" r="4" fill="#0" id="circle112"/>
	<circle cx="469.114" cy="541.788" r="4" fill="#0" id="circle113"/>
	<circle cx="478.198" cy="131.179" r="4" fill="#0" id="circle114"/>
	<circle cx="485.465" cy="532.703" r="4" fill="#0" id="circle115"/>
	<circle cx="496.366" cy="131.179" r="4" fill="#0" id="circle116"/>
	<circle cx="503.634" cy="532.703" r="4" fill="#0" id="circle117"/>
	<circle cx="514.535" cy="131.179" r="4" fill="#0" id="circle118"/>
	<circle cx="521.802" cy="532.703" r="4" fill="#0" id="circle119"/>
	<circle cx="532.703" cy="131.179" r="4" fill="#0" id="circle120"/>
	<circle cx="539.971" cy="527.253" r="4" fill="#0" id="circle121"/>
	<circle cx="550.872" cy="136.63" r="4" fill="#0" id="circle122"/>
	<circle cx="558.139" cy="523.619" r="4" fill="#0" id="circle123"/>
	<circle cx="565.407" cy="149.348" r="4" fill="#0" id="circle124"/>
	<circle cx="576.308" cy="523.619" r="4" fill="#0" id="circle125"/>
	<circle cx="578.125" cy="163.883" r="4" fill="#0" id="circle126"/>
	<circle cx="594.476" cy="523.619" r="4" fill="#0" id="circle127"/>
	<circle cx="596.293" cy="162.066" r="4" fill="#0" id="circle128"/>
	<circle cx="612.645" cy="518.168" r="4" fill="#0" id="circle129"/>
	<circle cx="614.462" cy="158.432" r="4" fill="#0" id="circle130"/>
	<circle cx="630.813" cy="514.535" r="4" fill="#0" id="circle131"/>
	<circle cx="632.63" cy="158.432" r="4" fill="#0" id="circle132"/>
	<circle cx="641.714" cy="251.092" r="4" fill="#0" id="circle133"/>
	<circle cx="648.982" cy="514.535" r="4" fill="#0" id="circle134"/>
	<circle cx="650.799" cy="158.432" r="4" fill="#0" id="circle135"/>
	<circle cx="659.883" cy="242.007" r="4" fill="#0" id="circle136"/>
	<circle cx="659.883" cy="414.608" r="4" fill="#0" id="circle137"/>
	<circle cx="665.333" cy="169.333" r="4" fill="#0" id="circle138"/>
	<circle cx="667.15" cy="514.535" r="4" fill="#0" id="circle139"/>
	<circle cx="668.967" cy="187.502" r="4" fill="#0" id="circle140"/>
	<circle cx="668.967" cy="205.67" r="4" fill="#0" id="circle141"/>
	<circle cx="668.967" cy="223.839" r="4" fill="#0" id="circle142"/>
	<circle cx="668.967" cy="258.359" r="4" fill="#0" id="circle143"/>
	<circle cx="668.967" cy="430.96" r="4" fill="#0" id="circle144"/>
	<circle cx="676.234" cy="405.524" r="4" fill="#0" id="circle145"/>
	<circle cx="685.319" cy="514.535" r="4" fill="#0" id="circle146"/>
	<circle cx="687.136" cy="258.359" r="4" fill="#0" id="circle147"/>
	<circle cx="687.136" cy="430.96" r="4" fill="#0" id="circle148"/>
	<circle cx="694.403" cy="400.073" r="4" fill="#0" id="circle149"/>
	<circle cx="696.22" cy="447.311" r="4" fill="#0" id="circle150"/>
	<circle cx="703.487" cy="509.084" r="4" fill="#0" id="circle151"/>
	<circle cx="705.304" cy="258.359" r="4" fill="#0" id="circle152"/>
	<circle cx="705.304" cy="463.663" r="4" fill="#0" id="circle153"/>
	<circle cx="705.304" cy="481.832" r="4" fill="#0" id="circle154"/>
	<circle cx="712.571" cy="396.44" r="4" fill="#0" id="circle155"/>
	<circle cx="723.473" cy="258.359" r="4" fill="#0" id="circle156"/>
	<circle cx="728.923" cy="387.355" r="4" fill="#0" id="circle157"/>
	<circle cx="741.641" cy="258.359" r="4" fill="#0" id="circle158"/>
	<circle cx="747.092" cy="387.355" r="4" fill="#0" id="circle159"/>
	<circle cx="759.81" cy="258.359" r="4" fill="#0" id="circle160"/>
	<circle cx="765.26" cy="383.722" r="4" fill="#0" id="circle161"/>
	<circle cx="777.978" cy="258.359" r="4" fill="#0" id="circle162"/>
	<circle cx="777.978" cy="369.187" r="4" fill="#0" id="circle163"/>
	<circle cx="796.147" cy="258.359" r="4" fill="#0" id="circle164"/>
	<circle cx="796.147" cy="369.187" r="4" fill="#0" id="circle165"/>
	<circle cx="814.315" cy="258.359" r="4" fill="#0" id="circle166"/>
	<circle cx="814.315" cy="369.187" r="4" fill="#0" id="circle167"/>
	<circle cx="828.85" cy="356.469" r="4" fill="#0" id="circle168"/>
	<circle cx="832.484" cy="252.908" r="4" fill="#0" id="circle169"/>
	<circle cx="847.018" cy="347.385" r="4" fill="#0" id="circle170"/>
	<circle cx="850.652" cy="252.908" r="4" fill="#0" id="circle171"/>
	<circle cx="865.187" cy="341.934" r="4" fill="#0" id="circle172"/>
	<circle cx="868.821" cy="252.908" r="4" fill="#0" id="circle173"/>
	<circle cx="881.538" cy="332.85" r="4" fill="#0" id="circle174"/>
	<circle cx="886.989" cy="252.908" r="4" fill="#0" id="circle175"/>
	<circle cx="897.89" cy="323.766" r="4" fill="#0" id="circle176"/>
	<circle cx="905.158" cy="249.275" r="4" fill="#0" id="circle177"/>
	<circle cx="916.059" cy="323.766" r="4" fill="#0" id="circle178"/>
	<circle cx="923.326" cy="249.275" r="4" fill="#0" id="circle179"/>
	<circle cx="930.593" cy="309.231" r="4" fill="#0" id="circle180"/>
	<circle cx="941.495" cy="249.275" r="4" fill="#0" id="circle181"/>
	<circle cx="948.762" cy="300.147" r="4" fill="#0" id="circle182"/>
	<circle cx="959.663" cy="249.275" r="4" fill="#0" id="circle183"/>
	<circle cx="966.93" cy="291.062" r="4" fill="#0" id="circle184"/>
	<circle cx="977.832" cy="249.275" r="4" fill="#0" id="circle185"/>
	<circle cx="981.465" cy="278.344" r="4" fill="#0" id="circle186"/>
	<circle cx="996" cy="254.725" r="4" fill="#0" id="circle187"/>
	</g>
</svg>