<?xml version="1.0" encoding="UTF-8" standalone="no"?>
<!-- Created with CurveBenchmark -->
<svg
	xmlns:dc="http://purl.org/dc/elements/1.1/"
	xmlns:cc="http://creativecommons.org/ns#"
	xmlns:rdf="http://www.w3.org/1999/02/22-rdf-syntax-ns#"
	xmlns:svg="http://www.w3.org/2000/svg"
	xmlns="http://www.w3.org/2000/svg"
	xmlns:sodipodi="http://sodipodi.sourceforge.net/DTD/sodipodi-0.dtd"
	xmlns:inkscape="http://www.inkscape.org/namespaces/inkscape"
	width="1000"
	height="1000"
	id="svg2"
	version="1.1"
	sodipodi:docname="manifold/ccrust-chopper08.png.txt">
<defs
	id="defs4" />
<metadata
	id="metadata7">
	<rdf:RDF>
		<cc:Work
			rdf:about="">
			<dc:format>image/svg+xml</dc:format>
			<dc:type
				rdf:resource="http://purl.org/dc/dcmitype/StillImage" />
			<dc:title></dc:title>
		</cc:Work>
	</rdf:RDF>
</metadata>
<g
	inkscape:label="Layer 1"
	inkscape:groupmode="layer"
	id="layer1">
	<path style="fill:none;stroke:red;stroke-width:1px;stroke-linecap:butt;stroke-linejoin:miter;stroke-opacity:1" d="M 83.5821,290.866 92.8358,272.358 z" id="boundary" inkscape:connector-curvature="0" />
	<path style="fill:none;stroke:red;stroke-width:1px;stroke-linecap:butt;stroke-linejoin:miter;stroke-opacity:1" d="M 102.09,253.851 92.8358,272.358 z" id="boundary" inkscape:connector-curvature="0" />
	<path style="fill:none;stroke:red;stroke-width:1px;stroke-linecap:butt;stroke-linejoin:miter;stroke-opacity:1" d="M 102.09,253.851 116.896,239.045 z" id="boundary" inkscape:connector-curvature="0" />
	<path style="fill:none;stroke:red;stroke-width:1px;stroke-linecap:butt;stroke-linejoin:miter;stroke-opacity:1" d="M 55.8209,364.896 50.2687,342.687 z" id="boundary" inkscape:connector-curvature="0" />
	<path style="fill:none;stroke:red;stroke-width:1px;stroke-linecap:butt;stroke-linejoin:miter;stroke-opacity:1" d="M 50.2687,342.687 59.5224,324.179 z" id="boundary" inkscape:connector-curvature="0" />
	<path style="fill:none;stroke:red;stroke-width:1px;stroke-linecap:butt;stroke-linejoin:miter;stroke-opacity:1" d="M 74.3284,309.373 59.5224,324.179 z" id="boundary" inkscape:connector-curvature="0" />
	<path style="fill:none;stroke:red;stroke-width:1px;stroke-linecap:butt;stroke-linejoin:miter;stroke-opacity:1" d="M 83.5821,290.866 74.3284,309.373 z" id="boundary" inkscape:connector-curvature="0" />
	<path style="fill:none;stroke:red;stroke-width:1px;stroke-linecap:butt;stroke-linejoin:miter;stroke-opacity:1" d="M 144.657,211.284 159.463,198.328 z" id="boundary" inkscape:connector-curvature="0" />
	<path style="fill:none;stroke:red;stroke-width:1px;stroke-linecap:butt;stroke-linejoin:miter;stroke-opacity:1" d="M 159.463,198.328 176.119,189.075 z" id="boundary" inkscape:connector-curvature="0" />
	<path style="fill:none;stroke:red;stroke-width:1px;stroke-linecap:butt;stroke-linejoin:miter;stroke-opacity:1" d="M 194.627,179.821 176.119,189.075 z" id="boundary" inkscape:connector-curvature="0" />
	<path style="fill:none;stroke:red;stroke-width:1px;stroke-linecap:butt;stroke-linejoin:miter;stroke-opacity:1" d="M 144.657,211.284 131.701,226.09 z" id="boundary" inkscape:connector-curvature="0" />
	<path style="fill:none;stroke:red;stroke-width:1px;stroke-linecap:butt;stroke-linejoin:miter;stroke-opacity:1" d="M 131.701,226.09 116.896,239.045 z" id="boundary" inkscape:connector-curvature="0" />
	<path style="fill:none;stroke:red;stroke-width:1px;stroke-linecap:butt;stroke-linejoin:miter;stroke-opacity:1" d="M 22.5075,435.224 22.5075,453.731 z" id="boundary" inkscape:connector-curvature="0" />
	<path style="fill:none;stroke:red;stroke-width:1px;stroke-linecap:butt;stroke-linejoin:miter;stroke-opacity:1" d="M 22.5075,435.224 31.7612,416.716 z" id="boundary" inkscape:connector-curvature="0" />
	<path style="fill:none;stroke:red;stroke-width:1px;stroke-linecap:butt;stroke-linejoin:miter;stroke-opacity:1" d="M 22.5075,472.239 22.5075,453.731 z" id="boundary" inkscape:connector-curvature="0" />
	<path style="fill:none;stroke:red;stroke-width:1px;stroke-linecap:butt;stroke-linejoin:miter;stroke-opacity:1" d="M 22.5075,490.746 22.5075,509.254 z" id="boundary" inkscape:connector-curvature="0" />
	<path style="fill:none;stroke:red;stroke-width:1px;stroke-linecap:butt;stroke-linejoin:miter;stroke-opacity:1" d="M 22.5075,527.761 22.5075,509.254 z" id="boundary" inkscape:connector-curvature="0" />
	<path style="fill:none;stroke:red;stroke-width:1px;stroke-linecap:butt;stroke-linejoin:miter;stroke-opacity:1" d="M 31.7612,544.418 22.5075,527.761 z" id="boundary" inkscape:connector-curvature="0" />
	<path style="fill:none;stroke:red;stroke-width:1px;stroke-linecap:butt;stroke-linejoin:miter;stroke-opacity:1" d="M 22.5075,472.239 22.5075,490.746 z" id="boundary" inkscape:connector-curvature="0" />
	<path style="fill:none;stroke:red;stroke-width:1px;stroke-linecap:butt;stroke-linejoin:miter;stroke-opacity:1" d="M 41.0149,379.701 55.8209,364.896 z" id="boundary" inkscape:connector-curvature="0" />
	<path style="fill:none;stroke:red;stroke-width:1px;stroke-linecap:butt;stroke-linejoin:miter;stroke-opacity:1" d="M 41.0149,398.209 41.0149,379.701 z" id="boundary" inkscape:connector-curvature="0" />
	<path style="fill:none;stroke:red;stroke-width:1px;stroke-linecap:butt;stroke-linejoin:miter;stroke-opacity:1" d="M 31.7612,416.716 41.0149,398.209 z" id="boundary" inkscape:connector-curvature="0" />
	<path style="fill:none;stroke:red;stroke-width:1px;stroke-linecap:butt;stroke-linejoin:miter;stroke-opacity:1" d="M 59.5224,561.075 41.0149,561.075 z" id="boundary" inkscape:connector-curvature="0" />
	<path style="fill:none;stroke:red;stroke-width:1px;stroke-linecap:butt;stroke-linejoin:miter;stroke-opacity:1" d="M 41.0149,561.075 31.7612,544.418 z" id="boundary" inkscape:connector-curvature="0" />
	<path style="fill:none;stroke:red;stroke-width:1px;stroke-linecap:butt;stroke-linejoin:miter;stroke-opacity:1" d="M 194.627,179.821 213.134,179.821 z" id="boundary" inkscape:connector-curvature="0" />
	<path style="fill:none;stroke:red;stroke-width:1px;stroke-linecap:butt;stroke-linejoin:miter;stroke-opacity:1" d="M 318.627,37.3134 337.134,28.0597 z" id="boundary" inkscape:connector-curvature="0" />
	<path style="fill:none;stroke:red;stroke-width:1px;stroke-linecap:butt;stroke-linejoin:miter;stroke-opacity:1" d="M 318.627,55.8209 318.627,37.3134 z" id="boundary" inkscape:connector-curvature="0" />
	<path style="fill:none;stroke:red;stroke-width:1px;stroke-linecap:butt;stroke-linejoin:miter;stroke-opacity:1" d="M 355.642,18.806 337.134,28.0597 z" id="boundary" inkscape:connector-curvature="0" />
	<path style="fill:none;stroke:red;stroke-width:1px;stroke-linecap:butt;stroke-linejoin:miter;stroke-opacity:1" d="M 370.448,4 355.642,18.806 z" id="boundary" inkscape:connector-curvature="0" />
	<path style="fill:none;stroke:red;stroke-width:1px;stroke-linecap:butt;stroke-linejoin:miter;stroke-opacity:1" d="M 333.433,68.7761 318.627,55.8209 z" id="boundary" inkscape:connector-curvature="0" />
	<path style="fill:none;stroke:red;stroke-width:1px;stroke-linecap:butt;stroke-linejoin:miter;stroke-opacity:1" d="M 348.239,79.8806 333.433,68.7761 z" id="boundary" inkscape:connector-curvature="0" />
	<path style="fill:none;stroke:red;stroke-width:1px;stroke-linecap:butt;stroke-linejoin:miter;stroke-opacity:1" d="M 366.746,79.8806 348.239,79.8806 z" id="boundary" inkscape:connector-curvature="0" />
	<path style="fill:none;stroke:red;stroke-width:1px;stroke-linecap:butt;stroke-linejoin:miter;stroke-opacity:1" d="M 403.761,4 387.104,13.2537 z" id="boundary" inkscape:connector-curvature="0" />
	<path style="fill:none;stroke:red;stroke-width:1px;stroke-linecap:butt;stroke-linejoin:miter;stroke-opacity:1" d="M 387.104,13.2537 370.448,4 z" id="boundary" inkscape:connector-curvature="0" />
	<path style="fill:none;stroke:red;stroke-width:1px;stroke-linecap:butt;stroke-linejoin:miter;stroke-opacity:1" d="M 394.507,103.94 377.851,94.6866 z" id="boundary" inkscape:connector-curvature="0" />
	<path style="fill:none;stroke:red;stroke-width:1px;stroke-linecap:butt;stroke-linejoin:miter;stroke-opacity:1" d="M 377.851,94.6866 366.746,79.8806 z" id="boundary" inkscape:connector-curvature="0" />
	<path style="fill:none;stroke:red;stroke-width:1px;stroke-linecap:butt;stroke-linejoin:miter;stroke-opacity:1" d="M 285.313,161.313 266.806,163.164 z" id="boundary" inkscape:connector-curvature="0" />
	<path style="fill:none;stroke:red;stroke-width:1px;stroke-linecap:butt;stroke-linejoin:miter;stroke-opacity:1" d="M 303.821,153.91 285.313,161.313 z" id="boundary" inkscape:connector-curvature="0" />
	<path style="fill:none;stroke:red;stroke-width:1px;stroke-linecap:butt;stroke-linejoin:miter;stroke-opacity:1" d="M 303.821,153.91 322.328,152.06 z" id="boundary" inkscape:connector-curvature="0" />
	<path style="fill:none;stroke:red;stroke-width:1px;stroke-linecap:butt;stroke-linejoin:miter;stroke-opacity:1" d="M 248.299,170.567 266.806,163.164 z" id="boundary" inkscape:connector-curvature="0" />
	<path style="fill:none;stroke:red;stroke-width:1px;stroke-linecap:butt;stroke-linejoin:miter;stroke-opacity:1" d="M 248.299,170.567 231.642,179.821 z" id="boundary" inkscape:connector-curvature="0" />
	<path style="fill:none;stroke:red;stroke-width:1px;stroke-linecap:butt;stroke-linejoin:miter;stroke-opacity:1" d="M 231.642,179.821 213.134,179.821 z" id="boundary" inkscape:connector-curvature="0" />
	<path style="fill:none;stroke:red;stroke-width:1px;stroke-linecap:butt;stroke-linejoin:miter;stroke-opacity:1" d="M 387.104,126.149 377.851,144.657 z" id="boundary" inkscape:connector-curvature="0" />
	<path style="fill:none;stroke:red;stroke-width:1px;stroke-linecap:butt;stroke-linejoin:miter;stroke-opacity:1" d="M 377.851,144.657 359.343,152.06 z" id="boundary" inkscape:connector-curvature="0" />
	<path style="fill:none;stroke:red;stroke-width:1px;stroke-linecap:butt;stroke-linejoin:miter;stroke-opacity:1" d="M 340.836,153.91 322.328,152.06 z" id="boundary" inkscape:connector-curvature="0" />
	<path style="fill:none;stroke:red;stroke-width:1px;stroke-linecap:butt;stroke-linejoin:miter;stroke-opacity:1" d="M 359.343,152.06 340.836,153.91 z" id="boundary" inkscape:connector-curvature="0" />
	<path style="fill:none;stroke:red;stroke-width:1px;stroke-linecap:butt;stroke-linejoin:miter;stroke-opacity:1" d="M 394.507,103.94 387.104,126.149 z" id="boundary" inkscape:connector-curvature="0" />
	<path style="fill:none;stroke:red;stroke-width:1px;stroke-linecap:butt;stroke-linejoin:miter;stroke-opacity:1" d="M 50.2687,618.448 31.7612,620.299 z" id="boundary" inkscape:connector-curvature="0" />
	<path style="fill:none;stroke:red;stroke-width:1px;stroke-linecap:butt;stroke-linejoin:miter;stroke-opacity:1" d="M 31.7612,620.299 13.2537,629.552 z" id="boundary" inkscape:connector-curvature="0" />
	<path style="fill:none;stroke:red;stroke-width:1px;stroke-linecap:butt;stroke-linejoin:miter;stroke-opacity:1" d="M 57.6716,636.955 50.2687,618.448 z" id="boundary" inkscape:connector-curvature="0" />
	<path style="fill:none;stroke:red;stroke-width:1px;stroke-linecap:butt;stroke-linejoin:miter;stroke-opacity:1" d="M 4,648.06 13.2537,629.552 z" id="boundary" inkscape:connector-curvature="0" />
	<path style="fill:none;stroke:red;stroke-width:1px;stroke-linecap:butt;stroke-linejoin:miter;stroke-opacity:1" d="M 59.5224,561.075 76.1791,570.328 z" id="boundary" inkscape:connector-curvature="0" />
	<path style="fill:none;stroke:red;stroke-width:1px;stroke-linecap:butt;stroke-linejoin:miter;stroke-opacity:1" d="M 107.642,588.836 89.1343,585.134 z" id="boundary" inkscape:connector-curvature="0" />
	<path style="fill:none;stroke:red;stroke-width:1px;stroke-linecap:butt;stroke-linejoin:miter;stroke-opacity:1" d="M 89.1343,585.134 76.1791,570.328 z" id="boundary" inkscape:connector-curvature="0" />
	<path style="fill:none;stroke:red;stroke-width:1px;stroke-linecap:butt;stroke-linejoin:miter;stroke-opacity:1" d="M 126.149,588.836 107.642,588.836 z" id="boundary" inkscape:connector-curvature="0" />
	<path style="fill:none;stroke:red;stroke-width:1px;stroke-linecap:butt;stroke-linejoin:miter;stroke-opacity:1" d="M 126.149,588.836 144.657,588.836 z" id="boundary" inkscape:connector-curvature="0" />
	<path style="fill:none;stroke:red;stroke-width:1px;stroke-linecap:butt;stroke-linejoin:miter;stroke-opacity:1" d="M 128,651.761 146.507,653.612 z" id="boundary" inkscape:connector-curvature="0" />
	<path style="fill:none;stroke:red;stroke-width:1px;stroke-linecap:butt;stroke-linejoin:miter;stroke-opacity:1" d="M 128,651.761 111.343,661.015 z" id="boundary" inkscape:connector-curvature="0" />
	<path style="fill:none;stroke:red;stroke-width:1px;stroke-linecap:butt;stroke-linejoin:miter;stroke-opacity:1" d="M 18.806,679.522 4,666.567 z" id="boundary" inkscape:connector-curvature="0" />
	<path style="fill:none;stroke:red;stroke-width:1px;stroke-linecap:butt;stroke-linejoin:miter;stroke-opacity:1" d="M 4,666.567 4,648.06 z" id="boundary" inkscape:connector-curvature="0" />
	<path style="fill:none;stroke:red;stroke-width:1px;stroke-linecap:butt;stroke-linejoin:miter;stroke-opacity:1" d="M 57.6716,636.955 66.9254,653.612 z" id="boundary" inkscape:connector-curvature="0" />
	<path style="fill:none;stroke:red;stroke-width:1px;stroke-linecap:butt;stroke-linejoin:miter;stroke-opacity:1" d="M 35.4627,688.776 18.806,679.522 z" id="boundary" inkscape:connector-curvature="0" />
	<path style="fill:none;stroke:red;stroke-width:1px;stroke-linecap:butt;stroke-linejoin:miter;stroke-opacity:1" d="M 53.9701,690.627 35.4627,688.776 z" id="boundary" inkscape:connector-curvature="0" />
	<path style="fill:none;stroke:red;stroke-width:1px;stroke-linecap:butt;stroke-linejoin:miter;stroke-opacity:1" d="M 72.4776,690.627 53.9701,690.627 z" id="boundary" inkscape:connector-curvature="0" />
	<path style="fill:none;stroke:red;stroke-width:1px;stroke-linecap:butt;stroke-linejoin:miter;stroke-opacity:1" d="M 76.1791,670.269 72.4776,690.627 z" id="boundary" inkscape:connector-curvature="0" />
	<path style="fill:none;stroke:red;stroke-width:1px;stroke-linecap:butt;stroke-linejoin:miter;stroke-opacity:1" d="M 66.9254,653.612 76.1791,670.269 z" id="boundary" inkscape:connector-curvature="0" />
	<path style="fill:none;stroke:red;stroke-width:1px;stroke-linecap:butt;stroke-linejoin:miter;stroke-opacity:1" d="M 76.1791,670.269 92.8358,661.015 z" id="boundary" inkscape:connector-curvature="0" />
	<path style="fill:none;stroke:red;stroke-width:1px;stroke-linecap:butt;stroke-linejoin:miter;stroke-opacity:1" d="M 92.8358,661.015 111.343,661.015 z" id="boundary" inkscape:connector-curvature="0" />
	<path style="fill:none;stroke:red;stroke-width:1px;stroke-linecap:butt;stroke-linejoin:miter;stroke-opacity:1" d="M 109.493,690.627 90.9851,690.627 z" id="boundary" inkscape:connector-curvature="0" />
	<path style="fill:none;stroke:red;stroke-width:1px;stroke-linecap:butt;stroke-linejoin:miter;stroke-opacity:1" d="M 128,690.627 109.493,690.627 z" id="boundary" inkscape:connector-curvature="0" />
	<path style="fill:none;stroke:red;stroke-width:1px;stroke-linecap:butt;stroke-linejoin:miter;stroke-opacity:1" d="M 90.9851,690.627 72.4776,690.627 z" id="boundary" inkscape:connector-curvature="0" />
	<path style="fill:none;stroke:red;stroke-width:1px;stroke-linecap:butt;stroke-linejoin:miter;stroke-opacity:1" d="M 163.164,588.836 181.672,588.836 z" id="boundary" inkscape:connector-curvature="0" />
	<path style="fill:none;stroke:red;stroke-width:1px;stroke-linecap:butt;stroke-linejoin:miter;stroke-opacity:1" d="M 163.164,588.836 144.657,588.836 z" id="boundary" inkscape:connector-curvature="0" />
	<path style="fill:none;stroke:red;stroke-width:1px;stroke-linecap:butt;stroke-linejoin:miter;stroke-opacity:1" d="M 207.582,607.343 194.627,624 z" id="boundary" inkscape:connector-curvature="0" />
	<path style="fill:none;stroke:red;stroke-width:1px;stroke-linecap:butt;stroke-linejoin:miter;stroke-opacity:1" d="M 194.627,624 177.97,633.254 z" id="boundary" inkscape:connector-curvature="0" />
	<path style="fill:none;stroke:red;stroke-width:1px;stroke-linecap:butt;stroke-linejoin:miter;stroke-opacity:1" d="M 146.507,653.612 161.313,642.507 z" id="boundary" inkscape:connector-curvature="0" />
	<path style="fill:none;stroke:red;stroke-width:1px;stroke-linecap:butt;stroke-linejoin:miter;stroke-opacity:1" d="M 177.97,633.254 161.313,642.507 z" id="boundary" inkscape:connector-curvature="0" />
	<path style="fill:none;stroke:red;stroke-width:1px;stroke-linecap:butt;stroke-linejoin:miter;stroke-opacity:1" d="M 207.582,607.343 200.179,588.836 z" id="boundary" inkscape:connector-curvature="0" />
	<path style="fill:none;stroke:red;stroke-width:1px;stroke-linecap:butt;stroke-linejoin:miter;stroke-opacity:1" d="M 181.672,588.836 200.179,588.836 z" id="boundary" inkscape:connector-curvature="0" />
	<path style="fill:none;stroke:red;stroke-width:1px;stroke-linecap:butt;stroke-linejoin:miter;stroke-opacity:1" d="M 344.537,653.612 361.194,644.358 z" id="boundary" inkscape:connector-curvature="0" />
	<path style="fill:none;stroke:red;stroke-width:1px;stroke-linecap:butt;stroke-linejoin:miter;stroke-opacity:1" d="M 361.194,644.358 379.701,644.358 z" id="boundary" inkscape:connector-curvature="0" />
	<path style="fill:none;stroke:red;stroke-width:1px;stroke-linecap:butt;stroke-linejoin:miter;stroke-opacity:1" d="M 398.209,644.358 379.701,644.358 z" id="boundary" inkscape:connector-curvature="0" />
	<path style="fill:none;stroke:red;stroke-width:1px;stroke-linecap:butt;stroke-linejoin:miter;stroke-opacity:1" d="M 416.716,644.358 398.209,644.358 z" id="boundary" inkscape:connector-curvature="0" />
	<path style="fill:none;stroke:red;stroke-width:1px;stroke-linecap:butt;stroke-linejoin:miter;stroke-opacity:1" d="M 218.687,672.119 200.179,672.119 z" id="boundary" inkscape:connector-curvature="0" />
	<path style="fill:none;stroke:red;stroke-width:1px;stroke-linecap:butt;stroke-linejoin:miter;stroke-opacity:1" d="M 200.179,672.119 181.672,681.373 z" id="boundary" inkscape:connector-curvature="0" />
	<path style="fill:none;stroke:red;stroke-width:1px;stroke-linecap:butt;stroke-linejoin:miter;stroke-opacity:1" d="M 218.687,672.119 235.343,662.866 z" id="boundary" inkscape:connector-curvature="0" />
	<path style="fill:none;stroke:red;stroke-width:1px;stroke-linecap:butt;stroke-linejoin:miter;stroke-opacity:1" d="M 235.343,662.866 253.851,662.866 z" id="boundary" inkscape:connector-curvature="0" />
	<path style="fill:none;stroke:red;stroke-width:1px;stroke-linecap:butt;stroke-linejoin:miter;stroke-opacity:1" d="M 146.507,690.627 163.164,681.373 z" id="boundary" inkscape:connector-curvature="0" />
	<path style="fill:none;stroke:red;stroke-width:1px;stroke-linecap:butt;stroke-linejoin:miter;stroke-opacity:1" d="M 163.164,681.373 181.672,681.373 z" id="boundary" inkscape:connector-curvature="0" />
	<path style="fill:none;stroke:red;stroke-width:1px;stroke-linecap:butt;stroke-linejoin:miter;stroke-opacity:1" d="M 289.015,653.612 307.522,653.612 z" id="boundary" inkscape:connector-curvature="0" />
	<path style="fill:none;stroke:red;stroke-width:1px;stroke-linecap:butt;stroke-linejoin:miter;stroke-opacity:1" d="M 272.358,662.866 289.015,653.612 z" id="boundary" inkscape:connector-curvature="0" />
	<path style="fill:none;stroke:red;stroke-width:1px;stroke-linecap:butt;stroke-linejoin:miter;stroke-opacity:1" d="M 326.03,653.612 307.522,653.612 z" id="boundary" inkscape:connector-curvature="0" />
	<path style="fill:none;stroke:red;stroke-width:1px;stroke-linecap:butt;stroke-linejoin:miter;stroke-opacity:1" d="M 272.358,662.866 253.851,662.866 z" id="boundary" inkscape:connector-curvature="0" />
	<path style="fill:none;stroke:red;stroke-width:1px;stroke-linecap:butt;stroke-linejoin:miter;stroke-opacity:1" d="M 326.03,653.612 344.537,653.612 z" id="boundary" inkscape:connector-curvature="0" />
	<path style="fill:none;stroke:red;stroke-width:1px;stroke-linecap:butt;stroke-linejoin:miter;stroke-opacity:1" d="M 416.716,644.358 435.224,642.507 z" id="boundary" inkscape:connector-curvature="0" />
	<path style="fill:none;stroke:red;stroke-width:1px;stroke-linecap:butt;stroke-linejoin:miter;stroke-opacity:1" d="M 146.507,690.627 128,690.627 z" id="boundary" inkscape:connector-curvature="0" />
	<path style="fill:none;stroke:red;stroke-width:1px;stroke-linecap:butt;stroke-linejoin:miter;stroke-opacity:1" d="M 403.761,4 422.269,4 z" id="boundary" inkscape:connector-curvature="0" />
	<path style="fill:none;stroke:red;stroke-width:1px;stroke-linecap:butt;stroke-linejoin:miter;stroke-opacity:1" d="M 422.269,52.1194 438.925,42.8657 z" id="boundary" inkscape:connector-curvature="0" />
	<path style="fill:none;stroke:red;stroke-width:1px;stroke-linecap:butt;stroke-linejoin:miter;stroke-opacity:1" d="M 431.522,68.7761 422.269,52.1194 z" id="boundary" inkscape:connector-curvature="0" />
	<path style="fill:none;stroke:red;stroke-width:1px;stroke-linecap:butt;stroke-linejoin:miter;stroke-opacity:1" d="M 431.522,68.7761 450.03,74.3284 z" id="boundary" inkscape:connector-curvature="0" />
	<path style="fill:none;stroke:red;stroke-width:1px;stroke-linecap:butt;stroke-linejoin:miter;stroke-opacity:1" d="M 422.269,116.896 437.075,103.94 z" id="boundary" inkscape:connector-curvature="0" />
	<path style="fill:none;stroke:red;stroke-width:1px;stroke-linecap:butt;stroke-linejoin:miter;stroke-opacity:1" d="M 431.522,133.552 422.269,116.896 z" id="boundary" inkscape:connector-curvature="0" />
	<path style="fill:none;stroke:red;stroke-width:1px;stroke-linecap:butt;stroke-linejoin:miter;stroke-opacity:1" d="M 431.522,133.552 440.776,150.209 z" id="boundary" inkscape:connector-curvature="0" />
	<path style="fill:none;stroke:red;stroke-width:1px;stroke-linecap:butt;stroke-linejoin:miter;stroke-opacity:1" d="M 438.925,42.8657 453.731,31.7612 z" id="boundary" inkscape:connector-curvature="0" />
	<path style="fill:none;stroke:red;stroke-width:1px;stroke-linecap:butt;stroke-linejoin:miter;stroke-opacity:1" d="M 453.731,31.7612 440.776,4 z" id="boundary" inkscape:connector-curvature="0" />
	<path style="fill:none;stroke:red;stroke-width:1px;stroke-linecap:butt;stroke-linejoin:miter;stroke-opacity:1" d="M 455.582,94.6866 450.03,74.3284 z" id="boundary" inkscape:connector-curvature="0" />
	<path style="fill:none;stroke:red;stroke-width:1px;stroke-linecap:butt;stroke-linejoin:miter;stroke-opacity:1" d="M 477.791,142.806 459.284,142.806 z" id="boundary" inkscape:connector-curvature="0" />
	<path style="fill:none;stroke:red;stroke-width:1px;stroke-linecap:butt;stroke-linejoin:miter;stroke-opacity:1" d="M 496.299,142.806 477.791,142.806 z" id="boundary" inkscape:connector-curvature="0" />
	<path style="fill:none;stroke:red;stroke-width:1px;stroke-linecap:butt;stroke-linejoin:miter;stroke-opacity:1" d="M 440.776,150.209 459.284,142.806 z" id="boundary" inkscape:connector-curvature="0" />
	<path style="fill:none;stroke:red;stroke-width:1px;stroke-linecap:butt;stroke-linejoin:miter;stroke-opacity:1" d="M 437.075,103.94 455.582,94.6866 z" id="boundary" inkscape:connector-curvature="0" />
	<path style="fill:none;stroke:red;stroke-width:1px;stroke-linecap:butt;stroke-linejoin:miter;stroke-opacity:1" d="M 422.269,4 440.776,4 z" id="boundary" inkscape:connector-curvature="0" />
	<path style="fill:none;stroke:red;stroke-width:1px;stroke-linecap:butt;stroke-linejoin:miter;stroke-opacity:1" d="M 514.806,142.806 496.299,142.806 z" id="boundary" inkscape:connector-curvature="0" />
	<path style="fill:none;stroke:red;stroke-width:1px;stroke-linecap:butt;stroke-linejoin:miter;stroke-opacity:1" d="M 533.313,142.806 514.806,142.806 z" id="boundary" inkscape:connector-curvature="0" />
	<path style="fill:none;stroke:red;stroke-width:1px;stroke-linecap:butt;stroke-linejoin:miter;stroke-opacity:1" d="M 533.313,142.806 551.821,142.806 z" id="boundary" inkscape:connector-curvature="0" />
	<path style="fill:none;stroke:red;stroke-width:1px;stroke-linecap:butt;stroke-linejoin:miter;stroke-opacity:1" d="M 570.328,142.806 551.821,142.806 z" id="boundary" inkscape:connector-curvature="0" />
	<path style="fill:none;stroke:red;stroke-width:1px;stroke-linecap:butt;stroke-linejoin:miter;stroke-opacity:1" d="M 588.836,142.806 607.343,142.806 z" id="boundary" inkscape:connector-curvature="0" />
	<path style="fill:none;stroke:red;stroke-width:1px;stroke-linecap:butt;stroke-linejoin:miter;stroke-opacity:1" d="M 625.851,142.806 607.343,142.806 z" id="boundary" inkscape:connector-curvature="0" />
	<path style="fill:none;stroke:red;stroke-width:1px;stroke-linecap:butt;stroke-linejoin:miter;stroke-opacity:1" d="M 625.851,142.806 644.358,142.806 z" id="boundary" inkscape:connector-curvature="0" />
	<path style="fill:none;stroke:red;stroke-width:1px;stroke-linecap:butt;stroke-linejoin:miter;stroke-opacity:1" d="M 570.328,142.806 588.836,142.806 z" id="boundary" inkscape:connector-curvature="0" />
	<path style="fill:none;stroke:red;stroke-width:1px;stroke-linecap:butt;stroke-linejoin:miter;stroke-opacity:1" d="M 662.866,148.358 644.358,142.806 z" id="boundary" inkscape:connector-curvature="0" />
	<path style="fill:none;stroke:red;stroke-width:1px;stroke-linecap:butt;stroke-linejoin:miter;stroke-opacity:1" d="M 662.866,148.358 679.522,157.612 z" id="boundary" inkscape:connector-curvature="0" />
	<path style="fill:none;stroke:red;stroke-width:1px;stroke-linecap:butt;stroke-linejoin:miter;stroke-opacity:1" d="M 679.522,157.612 681.373,176.119 z" id="boundary" inkscape:connector-curvature="0" />
	<path style="fill:none;stroke:red;stroke-width:1px;stroke-linecap:butt;stroke-linejoin:miter;stroke-opacity:1" d="M 690.627,192.776 681.373,176.119 z" id="boundary" inkscape:connector-curvature="0" />
	<path style="fill:none;stroke:red;stroke-width:1px;stroke-linecap:butt;stroke-linejoin:miter;stroke-opacity:1" d="M 662.866,237.194 644.358,237.194 z" id="boundary" inkscape:connector-curvature="0" />
	<path style="fill:none;stroke:red;stroke-width:1px;stroke-linecap:butt;stroke-linejoin:miter;stroke-opacity:1" d="M 679.522,227.94 662.866,237.194 z" id="boundary" inkscape:connector-curvature="0" />
	<path style="fill:none;stroke:red;stroke-width:1px;stroke-linecap:butt;stroke-linejoin:miter;stroke-opacity:1" d="M 644.358,270.507 635.104,253.851 z" id="boundary" inkscape:connector-curvature="0" />
	<path style="fill:none;stroke:red;stroke-width:1px;stroke-linecap:butt;stroke-linejoin:miter;stroke-opacity:1" d="M 770.209,281.612 751.701,281.612 z" id="boundary" inkscape:connector-curvature="0" />
	<path style="fill:none;stroke:red;stroke-width:1px;stroke-linecap:butt;stroke-linejoin:miter;stroke-opacity:1" d="M 690.627,192.776 694.328,216.836 z" id="boundary" inkscape:connector-curvature="0" />
	<path style="fill:none;stroke:red;stroke-width:1px;stroke-linecap:butt;stroke-linejoin:miter;stroke-opacity:1" d="M 694.328,216.836 679.522,227.94 z" id="boundary" inkscape:connector-curvature="0" />
	<path style="fill:none;stroke:red;stroke-width:1px;stroke-linecap:butt;stroke-linejoin:miter;stroke-opacity:1" d="M 951.582,244.597 934.925,253.851 z" id="boundary" inkscape:connector-curvature="0" />
	<path style="fill:none;stroke:red;stroke-width:1px;stroke-linecap:butt;stroke-linejoin:miter;stroke-opacity:1" d="M 934.925,253.851 916.418,253.851 z" id="boundary" inkscape:connector-curvature="0" />
	<path style="fill:none;stroke:red;stroke-width:1px;stroke-linecap:butt;stroke-linejoin:miter;stroke-opacity:1" d="M 951.582,244.597 970.09,244.597 z" id="boundary" inkscape:connector-curvature="0" />
	<path style="fill:none;stroke:red;stroke-width:1px;stroke-linecap:butt;stroke-linejoin:miter;stroke-opacity:1" d="M 897.91,263.104 916.418,253.851 z" id="boundary" inkscape:connector-curvature="0" />
	<path style="fill:none;stroke:red;stroke-width:1px;stroke-linecap:butt;stroke-linejoin:miter;stroke-opacity:1" d="M 659.164,281.612 644.358,270.507 z" id="boundary" inkscape:connector-curvature="0" />
	<path style="fill:none;stroke:red;stroke-width:1px;stroke-linecap:butt;stroke-linejoin:miter;stroke-opacity:1" d="M 677.672,281.612 659.164,281.612 z" id="boundary" inkscape:connector-curvature="0" />
	<path style="fill:none;stroke:red;stroke-width:1px;stroke-linecap:butt;stroke-linejoin:miter;stroke-opacity:1" d="M 696.179,281.612 714.687,281.612 z" id="boundary" inkscape:connector-curvature="0" />
	<path style="fill:none;stroke:red;stroke-width:1px;stroke-linecap:butt;stroke-linejoin:miter;stroke-opacity:1" d="M 696.179,281.612 677.672,281.612 z" id="boundary" inkscape:connector-curvature="0" />
	<path style="fill:none;stroke:red;stroke-width:1px;stroke-linecap:butt;stroke-linejoin:miter;stroke-opacity:1" d="M 714.687,281.612 733.194,281.612 z" id="boundary" inkscape:connector-curvature="0" />
	<path style="fill:none;stroke:red;stroke-width:1px;stroke-linecap:butt;stroke-linejoin:miter;stroke-opacity:1" d="M 879.403,272.358 897.91,263.104 z" id="boundary" inkscape:connector-curvature="0" />
	<path style="fill:none;stroke:red;stroke-width:1px;stroke-linecap:butt;stroke-linejoin:miter;stroke-opacity:1" d="M 879.403,272.358 860.896,272.358 z" id="boundary" inkscape:connector-curvature="0" />
	<path style="fill:none;stroke:red;stroke-width:1px;stroke-linecap:butt;stroke-linejoin:miter;stroke-opacity:1" d="M 996,270.507 981.194,290.866 z" id="boundary" inkscape:connector-curvature="0" />
	<path style="fill:none;stroke:red;stroke-width:1px;stroke-linecap:butt;stroke-linejoin:miter;stroke-opacity:1" d="M 986.746,253.851 996,270.507 z" id="boundary" inkscape:connector-curvature="0" />
	<path style="fill:none;stroke:red;stroke-width:1px;stroke-linecap:butt;stroke-linejoin:miter;stroke-opacity:1" d="M 751.701,281.612 733.194,281.612 z" id="boundary" inkscape:connector-curvature="0" />
	<path style="fill:none;stroke:red;stroke-width:1px;stroke-linecap:butt;stroke-linejoin:miter;stroke-opacity:1" d="M 970.09,244.597 986.746,253.851 z" id="boundary" inkscape:connector-curvature="0" />
	<path style="fill:none;stroke:red;stroke-width:1px;stroke-linecap:butt;stroke-linejoin:miter;stroke-opacity:1" d="M 681.373,561.075 662.866,561.075 z" id="boundary" inkscape:connector-curvature="0" />
	<path style="fill:none;stroke:red;stroke-width:1px;stroke-linecap:butt;stroke-linejoin:miter;stroke-opacity:1" d="M 699.881,561.075 681.373,561.075 z" id="boundary" inkscape:connector-curvature="0" />
	<path style="fill:none;stroke:red;stroke-width:1px;stroke-linecap:butt;stroke-linejoin:miter;stroke-opacity:1" d="M 716.537,551.821 699.881,561.075 z" id="boundary" inkscape:connector-curvature="0" />
	<path style="fill:none;stroke:red;stroke-width:1px;stroke-linecap:butt;stroke-linejoin:miter;stroke-opacity:1" d="M 644.358,570.328 662.866,561.075 z" id="boundary" inkscape:connector-curvature="0" />
	<path style="fill:none;stroke:red;stroke-width:1px;stroke-linecap:butt;stroke-linejoin:miter;stroke-opacity:1" d="M 644.358,570.328 625.851,570.328 z" id="boundary" inkscape:connector-curvature="0" />
	<path style="fill:none;stroke:red;stroke-width:1px;stroke-linecap:butt;stroke-linejoin:miter;stroke-opacity:1" d="M 607.343,579.582 625.851,570.328 z" id="boundary" inkscape:connector-curvature="0" />
	<path style="fill:none;stroke:red;stroke-width:1px;stroke-linecap:butt;stroke-linejoin:miter;stroke-opacity:1" d="M 699.881,440.776 709.134,457.433 z" id="boundary" inkscape:connector-curvature="0" />
	<path style="fill:none;stroke:red;stroke-width:1px;stroke-linecap:butt;stroke-linejoin:miter;stroke-opacity:1" d="M 718.388,422.269 736.896,413.015 z" id="boundary" inkscape:connector-curvature="0" />
	<path style="fill:none;stroke:red;stroke-width:1px;stroke-linecap:butt;stroke-linejoin:miter;stroke-opacity:1" d="M 709.134,457.433 727.642,451.881 z" id="boundary" inkscape:connector-curvature="0" />
	<path style="fill:none;stroke:red;stroke-width:1px;stroke-linecap:butt;stroke-linejoin:miter;stroke-opacity:1" d="M 733.194,542.567 716.537,551.821 z" id="boundary" inkscape:connector-curvature="0" />
	<path style="fill:none;stroke:red;stroke-width:1px;stroke-linecap:butt;stroke-linejoin:miter;stroke-opacity:1" d="M 733.194,542.567 751.701,542.567 z" id="boundary" inkscape:connector-curvature="0" />
	<path style="fill:none;stroke:red;stroke-width:1px;stroke-linecap:butt;stroke-linejoin:miter;stroke-opacity:1" d="M 746.149,451.881 727.642,451.881 z" id="boundary" inkscape:connector-curvature="0" />
	<path style="fill:none;stroke:red;stroke-width:1px;stroke-linecap:butt;stroke-linejoin:miter;stroke-opacity:1" d="M 699.881,440.776 718.388,422.269 z" id="boundary" inkscape:connector-curvature="0" />
	<path style="fill:none;stroke:red;stroke-width:1px;stroke-linecap:butt;stroke-linejoin:miter;stroke-opacity:1" d="M 459.284,579.582 477.791,579.582 z" id="boundary" inkscape:connector-curvature="0" />
	<path style="fill:none;stroke:red;stroke-width:1px;stroke-linecap:butt;stroke-linejoin:miter;stroke-opacity:1" d="M 459.284,598.09 459.284,579.582 z" id="boundary" inkscape:connector-curvature="0" />
	<path style="fill:none;stroke:red;stroke-width:1px;stroke-linecap:butt;stroke-linejoin:miter;stroke-opacity:1" d="M 496.299,579.582 477.791,579.582 z" id="boundary" inkscape:connector-curvature="0" />
	<path style="fill:none;stroke:red;stroke-width:1px;stroke-linecap:butt;stroke-linejoin:miter;stroke-opacity:1" d="M 450.03,625.851 435.224,642.507 z" id="boundary" inkscape:connector-curvature="0" />
	<path style="fill:none;stroke:red;stroke-width:1px;stroke-linecap:butt;stroke-linejoin:miter;stroke-opacity:1" d="M 459.284,598.09 450.03,625.851 z" id="boundary" inkscape:connector-curvature="0" />
	<path style="fill:none;stroke:red;stroke-width:1px;stroke-linecap:butt;stroke-linejoin:miter;stroke-opacity:1" d="M 496.299,579.582 514.806,579.582 z" id="boundary" inkscape:connector-curvature="0" />
	<path style="fill:none;stroke:red;stroke-width:1px;stroke-linecap:butt;stroke-linejoin:miter;stroke-opacity:1" d="M 514.806,579.582 533.313,579.582 z" id="boundary" inkscape:connector-curvature="0" />
	<path style="fill:none;stroke:red;stroke-width:1px;stroke-linecap:butt;stroke-linejoin:miter;stroke-opacity:1" d="M 551.821,579.582 533.313,579.582 z" id="boundary" inkscape:connector-curvature="0" />
	<path style="fill:none;stroke:red;stroke-width:1px;stroke-linecap:butt;stroke-linejoin:miter;stroke-opacity:1" d="M 570.328,579.582 588.836,579.582 z" id="boundary" inkscape:connector-curvature="0" />
	<path style="fill:none;stroke:red;stroke-width:1px;stroke-linecap:butt;stroke-linejoin:miter;stroke-opacity:1" d="M 607.343,579.582 588.836,579.582 z" id="boundary" inkscape:connector-curvature="0" />
	<path style="fill:none;stroke:red;stroke-width:1px;stroke-linecap:butt;stroke-linejoin:miter;stroke-opacity:1" d="M 570.328,579.582 551.821,579.582 z" id="boundary" inkscape:connector-curvature="0" />
	<path style="fill:none;stroke:red;stroke-width:1px;stroke-linecap:butt;stroke-linejoin:miter;stroke-opacity:1" d="M 770.209,281.612 788.716,281.612 z" id="boundary" inkscape:connector-curvature="0" />
	<path style="fill:none;stroke:red;stroke-width:1px;stroke-linecap:butt;stroke-linejoin:miter;stroke-opacity:1" d="M 807.224,281.612 788.716,281.612 z" id="boundary" inkscape:connector-curvature="0" />
	<path style="fill:none;stroke:red;stroke-width:1px;stroke-linecap:butt;stroke-linejoin:miter;stroke-opacity:1" d="M 825.731,281.612 844.239,281.612 z" id="boundary" inkscape:connector-curvature="0" />
	<path style="fill:none;stroke:red;stroke-width:1px;stroke-linecap:butt;stroke-linejoin:miter;stroke-opacity:1" d="M 860.896,272.358 844.239,281.612 z" id="boundary" inkscape:connector-curvature="0" />
	<path style="fill:none;stroke:red;stroke-width:1px;stroke-linecap:butt;stroke-linejoin:miter;stroke-opacity:1" d="M 892.358,329.731 875.701,338.985 z" id="boundary" inkscape:connector-curvature="0" />
	<path style="fill:none;stroke:red;stroke-width:1px;stroke-linecap:butt;stroke-linejoin:miter;stroke-opacity:1" d="M 807.224,281.612 825.731,281.612 z" id="boundary" inkscape:connector-curvature="0" />
	<path style="fill:none;stroke:red;stroke-width:1px;stroke-linecap:butt;stroke-linejoin:miter;stroke-opacity:1" d="M 875.701,338.985 859.045,348.239 z" id="boundary" inkscape:connector-curvature="0" />
	<path style="fill:none;stroke:red;stroke-width:1px;stroke-linecap:butt;stroke-linejoin:miter;stroke-opacity:1" d="M 962.687,300.119 944.179,301.97 z" id="boundary" inkscape:connector-curvature="0" />
	<path style="fill:none;stroke:red;stroke-width:1px;stroke-linecap:butt;stroke-linejoin:miter;stroke-opacity:1" d="M 944.179,301.97 925.672,309.373 z" id="boundary" inkscape:connector-curvature="0" />
	<path style="fill:none;stroke:red;stroke-width:1px;stroke-linecap:butt;stroke-linejoin:miter;stroke-opacity:1" d="M 962.687,300.119 981.194,290.866 z" id="boundary" inkscape:connector-curvature="0" />
	<path style="fill:none;stroke:red;stroke-width:1px;stroke-linecap:butt;stroke-linejoin:miter;stroke-opacity:1" d="M 892.358,329.731 907.164,318.627 z" id="boundary" inkscape:connector-curvature="0" />
	<path style="fill:none;stroke:red;stroke-width:1px;stroke-linecap:butt;stroke-linejoin:miter;stroke-opacity:1" d="M 907.164,318.627 925.672,309.373 z" id="boundary" inkscape:connector-curvature="0" />
	<path style="fill:none;stroke:red;stroke-width:1px;stroke-linecap:butt;stroke-linejoin:miter;stroke-opacity:1" d="M 757.254,466.687 746.149,451.881 z" id="boundary" inkscape:connector-curvature="0" />
	<path style="fill:none;stroke:red;stroke-width:1px;stroke-linecap:butt;stroke-linejoin:miter;stroke-opacity:1" d="M 736.896,413.015 755.403,403.761 z" id="boundary" inkscape:connector-curvature="0" />
	<path style="fill:none;stroke:red;stroke-width:1px;stroke-linecap:butt;stroke-linejoin:miter;stroke-opacity:1" d="M 764.657,485.194 757.254,466.687 z" id="boundary" inkscape:connector-curvature="0" />
	<path style="fill:none;stroke:red;stroke-width:1px;stroke-linecap:butt;stroke-linejoin:miter;stroke-opacity:1" d="M 764.657,503.701 764.657,522.209 z" id="boundary" inkscape:connector-curvature="0" />
	<path style="fill:none;stroke:red;stroke-width:1px;stroke-linecap:butt;stroke-linejoin:miter;stroke-opacity:1" d="M 764.657,485.194 764.657,503.701 z" id="boundary" inkscape:connector-curvature="0" />
	<path style="fill:none;stroke:red;stroke-width:1px;stroke-linecap:butt;stroke-linejoin:miter;stroke-opacity:1" d="M 764.657,522.209 751.701,542.567 z" id="boundary" inkscape:connector-curvature="0" />
	<path style="fill:none;stroke:red;stroke-width:1px;stroke-linecap:butt;stroke-linejoin:miter;stroke-opacity:1" d="M 755.403,403.761 773.91,394.507 z" id="boundary" inkscape:connector-curvature="0" />
	<path style="fill:none;stroke:red;stroke-width:1px;stroke-linecap:butt;stroke-linejoin:miter;stroke-opacity:1" d="M 842.388,357.493 859.045,348.239 z" id="boundary" inkscape:connector-curvature="0" />
	<path style="fill:none;stroke:red;stroke-width:1px;stroke-linecap:butt;stroke-linejoin:miter;stroke-opacity:1" d="M 825.731,366.746 809.075,376 z" id="boundary" inkscape:connector-curvature="0" />
	<path style="fill:none;stroke:red;stroke-width:1px;stroke-linecap:butt;stroke-linejoin:miter;stroke-opacity:1" d="M 792.418,385.254 809.075,376 z" id="boundary" inkscape:connector-curvature="0" />
	<path style="fill:none;stroke:red;stroke-width:1px;stroke-linecap:butt;stroke-linejoin:miter;stroke-opacity:1" d="M 773.91,394.507 792.418,385.254 z" id="boundary" inkscape:connector-curvature="0" />
	<path style="fill:none;stroke:red;stroke-width:1px;stroke-linecap:butt;stroke-linejoin:miter;stroke-opacity:1" d="M 825.731,366.746 842.388,357.493 z" id="boundary" inkscape:connector-curvature="0" />
	<circle cx="4" cy="648.06" r="4" fill="#0" id="circle0"/>
	<circle cx="4" cy="666.567" r="4" fill="#0" id="circle1"/>
	<circle cx="13.2537" cy="629.552" r="4" fill="#0" id="circle2"/>
	<circle cx="18.806" cy="679.522" r="4" fill="#0" id="circle3"/>
	<circle cx="22.5075" cy="435.224" r="4" fill="#0" id="circle4"/>
	<circle cx="22.5075" cy="453.731" r="4" fill="#0" id="circle5"/>
	<circle cx="22.5075" cy="472.239" r="4" fill="#0" id="circle6"/>
	<circle cx="22.5075" cy="490.746" r="4" fill="#0" id="circle7"/>
	<circle cx="22.5075" cy="509.254" r="4" fill="#0" id="circle8"/>
	<circle cx="22.5075" cy="527.761" r="4" fill="#0" id="circle9"/>
	<circle cx="31.7612" cy="416.716" r="4" fill="#0" id="circle10"/>
	<circle cx="31.7612" cy="544.418" r="4" fill="#0" id="circle11"/>
	<circle cx="31.7612" cy="620.299" r="4" fill="#0" id="circle12"/>
	<circle cx="35.4627" cy="688.776" r="4" fill="#0" id="circle13"/>
	<circle cx="41.0149" cy="379.701" r="4" fill="#0" id="circle14"/>
	<circle cx="41.0149" cy="398.209" r="4" fill="#0" id="circle15"/>
	<circle cx="41.0149" cy="561.075" r="4" fill="#0" id="circle16"/>
	<circle cx="50.2687" cy="342.687" r="4" fill="#0" id="circle17"/>
	<circle cx="50.2687" cy="618.448" r="4" fill="#0" id="circle18"/>
	<circle cx="53.9701" cy="690.627" r="4" fill="#0" id="circle19"/>
	<circle cx="55.8209" cy="364.896" r="4" fill="#0" id="circle20"/>
	<circle cx="57.6716" cy="636.955" r="4" fill="#0" id="circle21"/>
	<circle cx="59.5224" cy="324.179" r="4" fill="#0" id="circle22"/>
	<circle cx="59.5224" cy="561.075" r="4" fill="#0" id="circle23"/>
	<circle cx="66.9254" cy="653.612" r="4" fill="#0" id="circle24"/>
	<circle cx="72.4776" cy="690.627" r="4" fill="#0" id="circle25"/>
	<circle cx="74.3284" cy="309.373" r="4" fill="#0" id="circle26"/>
	<circle cx="76.1791" cy="570.328" r="4" fill="#0" id="circle27"/>
	<circle cx="76.1791" cy="670.269" r="4" fill="#0" id="circle28"/>
	<circle cx="83.5821" cy="290.866" r="4" fill="#0" id="circle29"/>
	<circle cx="89.1343" cy="585.134" r="4" fill="#0" id="circle30"/>
	<circle cx="90.9851" cy="690.627" r="4" fill="#0" id="circle31"/>
	<circle cx="92.8358" cy="272.358" r="4" fill="#0" id="circle32"/>
	<circle cx="92.8358" cy="661.015" r="4" fill="#0" id="circle33"/>
	<circle cx="102.09" cy="253.851" r="4" fill="#0" id="circle34"/>
	<circle cx="107.642" cy="588.836" r="4" fill="#0" id="circle35"/>
	<circle cx="109.493" cy="690.627" r="4" fill="#0" id="circle36"/>
	<circle cx="111.343" cy="661.015" r="4" fill="#0" id="circle37"/>
	<circle cx="116.896" cy="239.045" r="4" fill="#0" id="circle38"/>
	<circle cx="126.149" cy="588.836" r="4" fill="#0" id="circle39"/>
	<circle cx="128" cy="651.761" r="4" fill="#0" id="circle40"/>
	<circle cx="128" cy="690.627" r="4" fill="#0" id="circle41"/>
	<circle cx="131.701" cy="226.09" r="4" fill="#0" id="circle42"/>
	<circle cx="144.657" cy="211.284" r="4" fill="#0" id="circle43"/>
	<circle cx="144.657" cy="588.836" r="4" fill="#0" id="circle44"/>
	<circle cx="146.507" cy="653.612" r="4" fill="#0" id="circle45"/>
	<circle cx="146.507" cy="690.627" r="4" fill="#0" id="circle46"/>
	<circle cx="159.463" cy="198.328" r="4" fill="#0" id="circle47"/>
	<circle cx="161.313" cy="642.507" r="4" fill="#0" id="circle48"/>
	<circle cx="163.164" cy="588.836" r="4" fill="#0" id="circle49"/>
	<circle cx="163.164" cy="681.373" r="4" fill="#0" id="circle50"/>
	<circle cx="176.119" cy="189.075" r="4" fill="#0" id="circle51"/>
	<circle cx="177.97" cy="633.254" r="4" fill="#0" id="circle52"/>
	<circle cx="181.672" cy="588.836" r="4" fill="#0" id="circle53"/>
	<circle cx="181.672" cy="681.373" r="4" fill="#0" id="circle54"/>
	<circle cx="194.627" cy="179.821" r="4" fill="#0" id="circle55"/>
	<circle cx="194.627" cy="624" r="4" fill="#0" id="circle56"/>
	<circle cx="200.179" cy="588.836" r="4" fill="#0" id="circle57"/>
	<circle cx="200.179" cy="672.119" r="4" fill="#0" id="circle58"/>
	<circle cx="207.582" cy="607.343" r="4" fill="#0" id="circle59"/>
	<circle cx="213.134" cy="179.821" r="4" fill="#0" id="circle60"/>
	<circle cx="218.687" cy="672.119" r="4" fill="#0" id="circle61"/>
	<circle cx="231.642" cy="179.821" r="4" fill="#0" id="circle62"/>
	<circle cx="235.343" cy="662.866" r="4" fill="#0" id="circle63"/>
	<circle cx="248.299" cy="170.567" r="4" fill="#0" id="circle64"/>
	<circle cx="253.851" cy="662.866" r="4" fill="#0" id="circle65"/>
	<circle cx="266.806" cy="163.164" r="4" fill="#0" id="circle66"/>
	<circle cx="272.358" cy="662.866" r="4" fill="#0" id="circle67"/>
	<circle cx="285.313" cy="161.313" r="4" fill="#0" id="circle68"/>
	<circle cx="289.015" cy="653.612" r="4" fill="#0" id="circle69"/>
	<circle cx="303.821" cy="153.91" r="4" fill="#0" id="circle70"/>
	<circle cx="307.522" cy="653.612" r="4" fill="#0" id="circle71"/>
	<circle cx="318.627" cy="37.3134" r="4" fill="#0" id="circle72"/>
	<circle cx="318.627" cy="55.8209" r="4" fill="#0" id="circle73"/>
	<circle cx="322.328" cy="152.06" r="4" fill="#0" id="circle74"/>
	<circle cx="326.03" cy="653.612" r="4" fill="#0" id="circle75"/>
	<circle cx="333.433" cy="68.7761" r="4" fill="#0" id="circle76"/>
	<circle cx="337.134" cy="28.0597" r="4" fill="#0" id="circle77"/>
	<circle cx="340.836" cy="153.91" r="4" fill="#0" id="circle78"/>
	<circle cx="344.537" cy="653.612" r="4" fill="#0" id="circle79"/>
	<circle cx="348.239" cy="79.8806" r="4" fill="#0" id="circle80"/>
	<circle cx="355.642" cy="18.806" r="4" fill="#0" id="circle81"/>
	<circle cx="359.343" cy="152.06" r="4" fill="#0" id="circle82"/>
	<circle cx="361.194" cy="644.358" r="4" fill="#0" id="circle83"/>
	<circle cx="366.746" cy="79.8806" r="4" fill="#0" id="circle84"/>
	<circle cx="370.448" cy="4" r="4" fill="#0" id="circle85"/>
	<circle cx="377.851" cy="94.6866" r="4" fill="#0" id="circle86"/>
	<circle cx="377.851" cy="144.657" r="4" fill="#0" id="circle87"/>
	<circle cx="379.701" cy="644.358" r="4" fill="#0" id="circle88"/>
	<circle cx="387.104" cy="13.2537" r="4" fill="#0" id="circle89"/>
	<circle cx="387.104" cy="126.149" r="4" fill="#0" id="circle90"/>
	<circle cx="394.507" cy="103.94" r="4" fill="#0" id="circle91"/>
	<circle cx="398.209" cy="644.358" r="4" fill="#0" id="circle92"/>
	<circle cx="403.761" cy="4" r="4" fill="#0" id="circle93"/>
	<circle cx="416.716" cy="644.358" r="4" fill="#0" id="circle94"/>
	<circle cx="422.269" cy="4" r="4" fill="#0" id="circle95"/>
	<circle cx="422.269" cy="52.1194" r="4" fill="#0" id="circle96"/>
	<circle cx="422.269" cy="116.896" r="4" fill="#0" id="circle97"/>
	<circle cx="431.522" cy="68.7761" r="4" fill="#0" id="circle98"/>
	<circle cx="431.522" cy="133.552" r="4" fill="#0" id="circle99"/>
	<circle cx="435.224" cy="642.507" r="4" fill="#0" id="circle100"/>
	<circle cx="437.075" cy="103.94" r="4" fill="#0" id="circle101"/>
	<circle cx="438.925" cy="42.8657" r="4" fill="#0" id="circle102"/>
	<circle cx="440.776" cy="4" r="4" fill="#0" id="circle103"/>
	<circle cx="440.776" cy="150.209" r="4" fill="#0" id="circle104"/>
	<circle cx="450.03" cy="74.3284" r="4" fill="#0" id="circle105"/>
	<circle cx="450.03" cy="625.851" r="4" fill="#0" id="circle106"/>
	<circle cx="453.731" cy="31.7612" r="4" fill="#0" id="circle107"/>
	<circle cx="455.582" cy="94.6866" r="4" fill="#0" id="circle108"/>
	<circle cx="459.284" cy="142.806" r="4" fill="#0" id="circle109"/>
	<circle cx="459.284" cy="579.582" r="4" fill="#0" id="circle110"/>
	<circle cx="459.284" cy="598.09" r="4" fill="#0" id="circle111"/>
	<circle cx="477.791" cy="142.806" r="4" fill="#0" id="circle112"/>
	<circle cx="477.791" cy="579.582" r="4" fill="#0" id="circle113"/>
	<circle cx="496.299" cy="142.806" r="4" fill="#0" id="circle114"/>
	<circle cx="496.299" cy="579.582" r="4" fill="#0" id="circle115"/>
	<circle cx="514.806" cy="142.806" r="4" fill="#0" id="circle116"/>
	<circle cx="514.806" cy="579.582" r="4" fill="#0" id="circle117"/>
	<circle cx="533.313" cy="142.806" r="4" fill="#0" id="circle118"/>
	<circle cx="533.313" cy="579.582" r="4" fill="#0" id="circle119"/>
	<circle cx="551.821" cy="142.806" r="4" fill="#0" id="circle120"/>
	<circle cx="551.821" cy="579.582" r="4" fill="#0" id="circle121"/>
	<circle cx="570.328" cy="142.806" r="4" fill="#0" id="circle122"/>
	<circle cx="570.328" cy="579.582" r="4" fill="#0" id="circle123"/>
	<circle cx="588.836" cy="142.806" r="4" fill="#0" id="circle124"/>
	<circle cx="588.836" cy="579.582" r="4" fill="#0" id="circle125"/>
	<circle cx="607.343" cy="142.806" r="4" fill="#0" id="circle126"/>
	<circle cx="607.343" cy="579.582" r="4" fill="#0" id="circle127"/>
	<circle cx="625.851" cy="142.806" r="4" fill="#0" id="circle128"/>
	<circle cx="625.851" cy="237.194" r="4" fill="#0" id="circle129"/>
	<circle cx="625.851" cy="570.328" r="4" fill="#0" id="circle130"/>
	<circle cx="635.104" cy="253.851" r="4" fill="#0" id="circle131"/>
	<circle cx="644.358" cy="142.806" r="4" fill="#0" id="circle132"/>
	<circle cx="644.358" cy="237.194" r="4" fill="#0" id="circle133"/>
	<circle cx="644.358" cy="270.507" r="4" fill="#0" id="circle134"/>
	<circle cx="644.358" cy="570.328" r="4" fill="#0" id="circle135"/>
	<circle cx="659.164" cy="281.612" r="4" fill="#0" id="circle136"/>
	<circle cx="662.866" cy="148.358" r="4" fill="#0" id="circle137"/>
	<circle cx="662.866" cy="237.194" r="4" fill="#0" id="circle138"/>
	<circle cx="662.866" cy="561.075" r="4" fill="#0" id="circle139"/>
	<circle cx="677.672" cy="281.612" r="4" fill="#0" id="circle140"/>
	<circle cx="679.522" cy="157.612" r="4" fill="#0" id="circle141"/>
	<circle cx="679.522" cy="227.94" r="4" fill="#0" id="circle142"/>
	<circle cx="681.373" cy="176.119" r="4" fill="#0" id="circle143"/>
	<circle cx="681.373" cy="561.075" r="4" fill="#0" id="circle144"/>
	<circle cx="690.627" cy="192.776" r="4" fill="#0" id="circle145"/>
	<circle cx="694.328" cy="216.836" r="4" fill="#0" id="circle146"/>
	<circle cx="696.179" cy="281.612" r="4" fill="#0" id="circle147"/>
	<circle cx="699.881" cy="440.776" r="4" fill="#0" id="circle148"/>
	<circle cx="699.881" cy="561.075" r="4" fill="#0" id="circle149"/>
	<circle cx="709.134" cy="457.433" r="4" fill="#0" id="circle150"/>
	<circle cx="714.687" cy="281.612" r="4" fill="#0" id="circle151"/>
	<circle cx="716.537" cy="551.821" r="4" fill="#0" id="circle152"/>
	<circle cx="718.388" cy="422.269" r="4" fill="#0" id="circle153"/>
	<circle cx="727.642" cy="451.881" r="4" fill="#0" id="circle154"/>
	<circle cx="733.194" cy="281.612" r="4" fill="#0" id="circle155"/>
	<circle cx="733.194" cy="542.567" r="4" fill="#0" id="circle156"/>
	<circle cx="736.896" cy="413.015" r="4" fill="#0" id="circle157"/>
	<circle cx="746.149" cy="451.881" r="4" fill="#0" id="circle158"/>
	<circle cx="751.701" cy="281.612" r="4" fill="#0" id="circle159"/>
	<circle cx="751.701" cy="542.567" r="4" fill="#0" id="circle160"/>
	<circle cx="755.403" cy="403.761" r="4" fill="#0" id="circle161"/>
	<circle cx="757.254" cy="466.687" r="4" fill="#0" id="circle162"/>
	<circle cx="764.657" cy="485.194" r="4" fill="#0" id="circle163"/>
	<circle cx="764.657" cy="503.701" r="4" fill="#0" id="circle164"/>
	<circle cx="764.657" cy="522.209" r="4" fill="#0" id="circle165"/>
	<circle cx="770.209" cy="281.612" r="4" fill="#0" id="circle166"/>
	<circle cx="773.91" cy="394.507" r="4" fill="#0" id="circle167"/>
	<circle cx="788.716" cy="281.612" r="4" fill="#0" id="circle168"/>
	<circle cx="792.418" cy="385.254" r="4" fill="#0" id="circle169"/>
	<circle cx="807.224" cy="281.612" r="4" fill="#0" id="circle170"/>
	<circle cx="809.075" cy="376" r="4" fill="#0" id="circle171"/>
	<circle cx="825.731" cy="281.612" r="4" fill="#0" id="circle172"/>
	<circle cx="825.731" cy="366.746" r="4" fill="#0" id="circle173"/>
	<circle cx="842.388" cy="357.493" r="4" fill="#0" id="circle174"/>
	<circle cx="844.239" cy="281.612" r="4" fill="#0" id="circle175"/>
	<circle cx="859.045" cy="348.239" r="4" fill="#0" id="circle176"/>
	<circle cx="860.896" cy="272.358" r="4" fill="#0" id="circle177"/>
	<circle cx="875.701" cy="338.985" r="4" fill="#0" id="circle178"/>
	<circle cx="879.403" cy="272.358" r="4" fill="#0" id="circle179"/>
	<circle cx="892.358" cy="329.731" r="4" fill="#0" id="circle180"/>
	<circle cx="897.91" cy="263.104" r="4" fill="#0" id="circle181"/>
	<circle cx="907.164" cy="318.627" r="4" fill="#0" id="circle182"/>
	<circle cx="916.418" cy="253.851" r="4" fill="#0" id="circle183"/>
	<circle cx="925.672" cy="309.373" r="4" fill="#0" id="circle184"/>
	<circle cx="934.925" cy="253.851" r="4" fill="#0" id="circle185"/>
	<circle cx="944.179" cy="301.97" r="4" fill="#0" id="circle186"/>
	<circle cx="951.582" cy="244.597" r="4" fill="#0" id="circle187"/>
	<circle cx="962.687" cy="300.119" r="4" fill="#0" id="circle188"/>
	<circle cx="970.09" cy="244.597" r="4" fill="#0" id="circle189"/>
	<circle cx="981.194" cy="290.866" r="4" fill="#0" id="circle190"/>
	<circle cx="986.746" cy="253.851" r="4" fill="#0" id="circle191"/>
	<circle cx="996" cy="270.507" r="4" fill="#0" id="circle192"/>
	</g>
</svg>