<?xml version="1.0" encoding="UTF-8" standalone="no"?>
<!-- Created with CurveBenchmark -->
<svg
	xmlns:dc="http://purl.org/dc/elements/1.1/"
	xmlns:cc="http://creativecommons.org/ns#"
	xmlns:rdf="http://www.w3.org/1999/02/22-rdf-syntax-ns#"
	xmlns:svg="http://www.w3.org/2000/svg"
	xmlns="http://www.w3.org/2000/svg"
	xmlns:sodipodi="http://sodipodi.sourceforge.net/DTD/sodipodi-0.dtd"
	xmlns:inkscape="http://www.inkscape.org/namespaces/inkscape"
	width="1000"
	height="1000"
	id="svg2"
	version="1.1"
	sodipodi:docname="manifold/ccrust-bed320.png.txt">
<defs
	id="defs4" />
<metadata
	id="metadata7">
	<rdf:RDF>
		<cc:Work
			rdf:about="">
			<dc:format>image/svg+xml</dc:format>
			<dc:type
				rdf:resource="http://purl.org/dc/dcmitype/StillImage" />
			<dc:title></dc:title>
		</cc:Work>
	</rdf:RDF>
</metadata>
<g
	inkscape:label="Layer 1"
	inkscape:groupmode="layer"
	id="layer1">
	<path style="fill:none;stroke:red;stroke-width:1px;stroke-linecap:butt;stroke-linejoin:miter;stroke-opacity:1" d="M 94.0303,284.094 110.703,277.425 z" id="boundary" inkscape:connector-curvature="0" />
	<path style="fill:none;stroke:red;stroke-width:1px;stroke-linecap:butt;stroke-linejoin:miter;stroke-opacity:1" d="M 60.6857,290.763 77.358,287.429 z" id="boundary" inkscape:connector-curvature="0" />
	<path style="fill:none;stroke:red;stroke-width:1px;stroke-linecap:butt;stroke-linejoin:miter;stroke-opacity:1" d="M 94.0303,284.094 77.358,287.429 z" id="boundary" inkscape:connector-curvature="0" />
	<path style="fill:none;stroke:red;stroke-width:1px;stroke-linecap:butt;stroke-linejoin:miter;stroke-opacity:1" d="M 110.703,277.425 127.375,274.091 z" id="boundary" inkscape:connector-curvature="0" />
	<path style="fill:none;stroke:red;stroke-width:1px;stroke-linecap:butt;stroke-linejoin:miter;stroke-opacity:1" d="M 127.375,274.091 144.047,274.091 z" id="boundary" inkscape:connector-curvature="0" />
	<path style="fill:none;stroke:red;stroke-width:1px;stroke-linecap:butt;stroke-linejoin:miter;stroke-opacity:1" d="M 60.6857,290.763 44.0134,294.097 z" id="boundary" inkscape:connector-curvature="0" />
	<path style="fill:none;stroke:red;stroke-width:1px;stroke-linecap:butt;stroke-linejoin:miter;stroke-opacity:1" d="M 194.064,264.087 207.402,254.084 z" id="boundary" inkscape:connector-curvature="0" />
	<path style="fill:none;stroke:red;stroke-width:1px;stroke-linecap:butt;stroke-linejoin:miter;stroke-opacity:1" d="M 207.402,254.084 224.074,247.415 z" id="boundary" inkscape:connector-curvature="0" />
	<path style="fill:none;stroke:red;stroke-width:1px;stroke-linecap:butt;stroke-linejoin:miter;stroke-opacity:1" d="M 194.064,264.087 177.392,270.756 z" id="boundary" inkscape:connector-curvature="0" />
	<path style="fill:none;stroke:red;stroke-width:1px;stroke-linecap:butt;stroke-linejoin:miter;stroke-opacity:1" d="M 160.719,274.091 144.047,274.091 z" id="boundary" inkscape:connector-curvature="0" />
	<path style="fill:none;stroke:red;stroke-width:1px;stroke-linecap:butt;stroke-linejoin:miter;stroke-opacity:1" d="M 177.392,270.756 160.719,274.091 z" id="boundary" inkscape:connector-curvature="0" />
	<path style="fill:none;stroke:red;stroke-width:1px;stroke-linecap:butt;stroke-linejoin:miter;stroke-opacity:1" d="M 237.412,237.412 224.074,247.415 z" id="boundary" inkscape:connector-curvature="0" />
	<path style="fill:none;stroke:red;stroke-width:1px;stroke-linecap:butt;stroke-linejoin:miter;stroke-opacity:1" d="M 4,324.108 14.0034,310.77 z" id="boundary" inkscape:connector-curvature="0" />
	<path style="fill:none;stroke:red;stroke-width:1px;stroke-linecap:butt;stroke-linejoin:miter;stroke-opacity:1" d="M 4,340.78 15.6706,354.118 z" id="boundary" inkscape:connector-curvature="0" />
	<path style="fill:none;stroke:red;stroke-width:1px;stroke-linecap:butt;stroke-linejoin:miter;stroke-opacity:1" d="M 15.6706,354.118 17.3378,370.79 z" id="boundary" inkscape:connector-curvature="0" />
	<path style="fill:none;stroke:red;stroke-width:1px;stroke-linecap:butt;stroke-linejoin:miter;stroke-opacity:1" d="M 4,340.78 4,324.108 z" id="boundary" inkscape:connector-curvature="0" />
	<path style="fill:none;stroke:red;stroke-width:1px;stroke-linecap:butt;stroke-linejoin:miter;stroke-opacity:1" d="M 14.0034,310.77 30.6756,304.101 z" id="boundary" inkscape:connector-curvature="0" />
	<path style="fill:none;stroke:red;stroke-width:1px;stroke-linecap:butt;stroke-linejoin:miter;stroke-opacity:1" d="M 30.6756,304.101 44.0134,294.097 z" id="boundary" inkscape:connector-curvature="0" />
	<path style="fill:none;stroke:red;stroke-width:1px;stroke-linecap:butt;stroke-linejoin:miter;stroke-opacity:1" d="M 20.6723,387.462 17.3378,370.79 z" id="boundary" inkscape:connector-curvature="0" />
	<path style="fill:none;stroke:red;stroke-width:1px;stroke-linecap:butt;stroke-linejoin:miter;stroke-opacity:1" d="M 20.6723,404.134 20.6723,420.807 z" id="boundary" inkscape:connector-curvature="0" />
	<path style="fill:none;stroke:red;stroke-width:1px;stroke-linecap:butt;stroke-linejoin:miter;stroke-opacity:1" d="M 20.6723,404.134 20.6723,387.462 z" id="boundary" inkscape:connector-curvature="0" />
	<path style="fill:none;stroke:red;stroke-width:1px;stroke-linecap:butt;stroke-linejoin:miter;stroke-opacity:1" d="M 20.6723,437.479 20.6723,420.807 z" id="boundary" inkscape:connector-curvature="0" />
	<path style="fill:none;stroke:red;stroke-width:1px;stroke-linecap:butt;stroke-linejoin:miter;stroke-opacity:1" d="M 254.084,230.743 270.756,234.077 z" id="boundary" inkscape:connector-curvature="0" />
	<path style="fill:none;stroke:red;stroke-width:1px;stroke-linecap:butt;stroke-linejoin:miter;stroke-opacity:1" d="M 237.412,237.412 254.084,230.743 z" id="boundary" inkscape:connector-curvature="0" />
	<path style="fill:none;stroke:red;stroke-width:1px;stroke-linecap:butt;stroke-linejoin:miter;stroke-opacity:1" d="M 552.518,119.039 544.182,134.044 z" id="boundary" inkscape:connector-curvature="0" />
	<path style="fill:none;stroke:red;stroke-width:1px;stroke-linecap:butt;stroke-linejoin:miter;stroke-opacity:1" d="M 285.761,242.413 300.766,250.75 z" id="boundary" inkscape:connector-curvature="0" />
	<path style="fill:none;stroke:red;stroke-width:1px;stroke-linecap:butt;stroke-linejoin:miter;stroke-opacity:1" d="M 270.756,234.077 285.761,242.413 z" id="boundary" inkscape:connector-curvature="0" />
	<path style="fill:none;stroke:red;stroke-width:1px;stroke-linecap:butt;stroke-linejoin:miter;stroke-opacity:1" d="M 317.439,254.084 300.766,250.75 z" id="boundary" inkscape:connector-curvature="0" />
	<path style="fill:none;stroke:red;stroke-width:1px;stroke-linecap:butt;stroke-linejoin:miter;stroke-opacity:1" d="M 544.182,217.405 527.509,220.739 z" id="boundary" inkscape:connector-curvature="0" />
	<path style="fill:none;stroke:red;stroke-width:1px;stroke-linecap:butt;stroke-linejoin:miter;stroke-opacity:1" d="M 527.509,220.739 512.504,229.076 z" id="boundary" inkscape:connector-curvature="0" />
	<path style="fill:none;stroke:red;stroke-width:1px;stroke-linecap:butt;stroke-linejoin:miter;stroke-opacity:1" d="M 487.496,250.75 497.499,237.412 z" id="boundary" inkscape:connector-curvature="0" />
	<path style="fill:none;stroke:red;stroke-width:1px;stroke-linecap:butt;stroke-linejoin:miter;stroke-opacity:1" d="M 497.499,237.412 512.504,229.076 z" id="boundary" inkscape:connector-curvature="0" />
	<path style="fill:none;stroke:red;stroke-width:1px;stroke-linecap:butt;stroke-linejoin:miter;stroke-opacity:1" d="M 487.496,250.75 470.824,257.418 z" id="boundary" inkscape:connector-curvature="0" />
	<path style="fill:none;stroke:red;stroke-width:1px;stroke-linecap:butt;stroke-linejoin:miter;stroke-opacity:1" d="M 317.439,254.084 329.109,267.422 z" id="boundary" inkscape:connector-curvature="0" />
	<path style="fill:none;stroke:red;stroke-width:1px;stroke-linecap:butt;stroke-linejoin:miter;stroke-opacity:1" d="M 345.782,270.756 329.109,267.422 z" id="boundary" inkscape:connector-curvature="0" />
	<path style="fill:none;stroke:red;stroke-width:1px;stroke-linecap:butt;stroke-linejoin:miter;stroke-opacity:1" d="M 362.454,274.091 345.782,270.756 z" id="boundary" inkscape:connector-curvature="0" />
	<path style="fill:none;stroke:red;stroke-width:1px;stroke-linecap:butt;stroke-linejoin:miter;stroke-opacity:1" d="M 379.126,274.091 362.454,274.091 z" id="boundary" inkscape:connector-curvature="0" />
	<path style="fill:none;stroke:red;stroke-width:1px;stroke-linecap:butt;stroke-linejoin:miter;stroke-opacity:1" d="M 379.126,274.091 395.798,277.425 z" id="boundary" inkscape:connector-curvature="0" />
	<path style="fill:none;stroke:red;stroke-width:1px;stroke-linecap:butt;stroke-linejoin:miter;stroke-opacity:1" d="M 412.471,277.425 395.798,277.425 z" id="boundary" inkscape:connector-curvature="0" />
	<path style="fill:none;stroke:red;stroke-width:1px;stroke-linecap:butt;stroke-linejoin:miter;stroke-opacity:1" d="M 459.153,274.091 470.824,257.418 z" id="boundary" inkscape:connector-curvature="0" />
	<path style="fill:none;stroke:red;stroke-width:1px;stroke-linecap:butt;stroke-linejoin:miter;stroke-opacity:1" d="M 429.143,284.094 412.471,277.425 z" id="boundary" inkscape:connector-curvature="0" />
	<path style="fill:none;stroke:red;stroke-width:1px;stroke-linecap:butt;stroke-linejoin:miter;stroke-opacity:1" d="M 459.153,274.091 445.815,285.761 z" id="boundary" inkscape:connector-curvature="0" />
	<path style="fill:none;stroke:red;stroke-width:1px;stroke-linecap:butt;stroke-linejoin:miter;stroke-opacity:1" d="M 445.815,285.761 429.143,284.094 z" id="boundary" inkscape:connector-curvature="0" />
	<path style="fill:none;stroke:red;stroke-width:1px;stroke-linecap:butt;stroke-linejoin:miter;stroke-opacity:1" d="M 40.679,459.153 27.3412,472.491 z" id="boundary" inkscape:connector-curvature="0" />
	<path style="fill:none;stroke:red;stroke-width:1px;stroke-linecap:butt;stroke-linejoin:miter;stroke-opacity:1" d="M 17.3378,457.486 20.6723,437.479 z" id="boundary" inkscape:connector-curvature="0" />
	<path style="fill:none;stroke:red;stroke-width:1px;stroke-linecap:butt;stroke-linejoin:miter;stroke-opacity:1" d="M 57.3513,459.153 74.0235,460.82 z" id="boundary" inkscape:connector-curvature="0" />
	<path style="fill:none;stroke:red;stroke-width:1px;stroke-linecap:butt;stroke-linejoin:miter;stroke-opacity:1" d="M 90.6958,464.155 74.0235,460.82 z" id="boundary" inkscape:connector-curvature="0" />
	<path style="fill:none;stroke:red;stroke-width:1px;stroke-linecap:butt;stroke-linejoin:miter;stroke-opacity:1" d="M 40.679,459.153 57.3513,459.153 z" id="boundary" inkscape:connector-curvature="0" />
	<path style="fill:none;stroke:red;stroke-width:1px;stroke-linecap:butt;stroke-linejoin:miter;stroke-opacity:1" d="M 124.04,462.487 137.378,452.484 z" id="boundary" inkscape:connector-curvature="0" />
	<path style="fill:none;stroke:red;stroke-width:1px;stroke-linecap:butt;stroke-linejoin:miter;stroke-opacity:1" d="M 137.378,452.484 154.05,452.484 z" id="boundary" inkscape:connector-curvature="0" />
	<path style="fill:none;stroke:red;stroke-width:1px;stroke-linecap:butt;stroke-linejoin:miter;stroke-opacity:1" d="M 169.055,460.82 154.05,452.484 z" id="boundary" inkscape:connector-curvature="0" />
	<path style="fill:none;stroke:red;stroke-width:1px;stroke-linecap:butt;stroke-linejoin:miter;stroke-opacity:1" d="M 185.728,465.822 169.055,460.82 z" id="boundary" inkscape:connector-curvature="0" />
	<path style="fill:none;stroke:red;stroke-width:1px;stroke-linecap:butt;stroke-linejoin:miter;stroke-opacity:1" d="M 107.368,469.156 124.04,462.487 z" id="boundary" inkscape:connector-curvature="0" />
	<path style="fill:none;stroke:red;stroke-width:1px;stroke-linecap:butt;stroke-linejoin:miter;stroke-opacity:1" d="M 107.368,469.156 90.6958,464.155 z" id="boundary" inkscape:connector-curvature="0" />
	<path style="fill:none;stroke:red;stroke-width:1px;stroke-linecap:butt;stroke-linejoin:miter;stroke-opacity:1" d="M 185.728,465.822 202.4,472.491 z" id="boundary" inkscape:connector-curvature="0" />
	<path style="fill:none;stroke:red;stroke-width:1px;stroke-linecap:butt;stroke-linejoin:miter;stroke-opacity:1" d="M 10.6689,474.158 27.3412,472.491 z" id="boundary" inkscape:connector-curvature="0" />
	<path style="fill:none;stroke:red;stroke-width:1px;stroke-linecap:butt;stroke-linejoin:miter;stroke-opacity:1" d="M 12.3361,490.83 10.6689,474.158 z" id="boundary" inkscape:connector-curvature="0" />
	<path style="fill:none;stroke:red;stroke-width:1px;stroke-linecap:butt;stroke-linejoin:miter;stroke-opacity:1" d="M 12.3361,490.83 25.6739,500.834 z" id="boundary" inkscape:connector-curvature="0" />
	<path style="fill:none;stroke:red;stroke-width:1px;stroke-linecap:butt;stroke-linejoin:miter;stroke-opacity:1" d="M 234.077,485.829 217.405,480.827 z" id="boundary" inkscape:connector-curvature="0" />
	<path style="fill:none;stroke:red;stroke-width:1px;stroke-linecap:butt;stroke-linejoin:miter;stroke-opacity:1" d="M 217.405,480.827 202.4,472.491 z" id="boundary" inkscape:connector-curvature="0" />
	<path style="fill:none;stroke:red;stroke-width:1px;stroke-linecap:butt;stroke-linejoin:miter;stroke-opacity:1" d="M 284.094,485.829 267.422,489.163 z" id="boundary" inkscape:connector-curvature="0" />
	<path style="fill:none;stroke:red;stroke-width:1px;stroke-linecap:butt;stroke-linejoin:miter;stroke-opacity:1" d="M 267.422,489.163 250.75,489.163 z" id="boundary" inkscape:connector-curvature="0" />
	<path style="fill:none;stroke:red;stroke-width:1px;stroke-linecap:butt;stroke-linejoin:miter;stroke-opacity:1" d="M 250.75,489.163 234.077,485.829 z" id="boundary" inkscape:connector-curvature="0" />
	<path style="fill:none;stroke:red;stroke-width:1px;stroke-linecap:butt;stroke-linejoin:miter;stroke-opacity:1" d="M 364.121,455.818 380.793,452.484 z" id="boundary" inkscape:connector-curvature="0" />
	<path style="fill:none;stroke:red;stroke-width:1px;stroke-linecap:butt;stroke-linejoin:miter;stroke-opacity:1" d="M 380.793,452.484 395.798,460.82 z" id="boundary" inkscape:connector-curvature="0" />
	<path style="fill:none;stroke:red;stroke-width:1px;stroke-linecap:butt;stroke-linejoin:miter;stroke-opacity:1" d="M 330.776,465.822 347.449,462.487 z" id="boundary" inkscape:connector-curvature="0" />
	<path style="fill:none;stroke:red;stroke-width:1px;stroke-linecap:butt;stroke-linejoin:miter;stroke-opacity:1" d="M 364.121,455.818 347.449,462.487 z" id="boundary" inkscape:connector-curvature="0" />
	<path style="fill:none;stroke:red;stroke-width:1px;stroke-linecap:butt;stroke-linejoin:miter;stroke-opacity:1" d="M 395.798,460.82 410.803,469.156 z" id="boundary" inkscape:connector-curvature="0" />
	<path style="fill:none;stroke:red;stroke-width:1px;stroke-linecap:butt;stroke-linejoin:miter;stroke-opacity:1" d="M 330.776,465.822 314.104,472.491 z" id="boundary" inkscape:connector-curvature="0" />
	<path style="fill:none;stroke:red;stroke-width:1px;stroke-linecap:butt;stroke-linejoin:miter;stroke-opacity:1" d="M 505.835,450.817 505.835,467.489 z" id="boundary" inkscape:connector-curvature="0" />
	<path style="fill:none;stroke:red;stroke-width:1px;stroke-linecap:butt;stroke-linejoin:miter;stroke-opacity:1" d="M 539.18,449.15 522.508,449.15 z" id="boundary" inkscape:connector-curvature="0" />
	<path style="fill:none;stroke:red;stroke-width:1px;stroke-linecap:butt;stroke-linejoin:miter;stroke-opacity:1" d="M 505.835,450.817 522.508,449.15 z" id="boundary" inkscape:connector-curvature="0" />
	<path style="fill:none;stroke:red;stroke-width:1px;stroke-linecap:butt;stroke-linejoin:miter;stroke-opacity:1" d="M 444.148,459.153 460.82,459.153 z" id="boundary" inkscape:connector-curvature="0" />
	<path style="fill:none;stroke:red;stroke-width:1px;stroke-linecap:butt;stroke-linejoin:miter;stroke-opacity:1" d="M 477.492,460.82 460.82,459.153 z" id="boundary" inkscape:connector-curvature="0" />
	<path style="fill:none;stroke:red;stroke-width:1px;stroke-linecap:butt;stroke-linejoin:miter;stroke-opacity:1" d="M 444.148,459.153 427.476,465.822 z" id="boundary" inkscape:connector-curvature="0" />
	<path style="fill:none;stroke:red;stroke-width:1px;stroke-linecap:butt;stroke-linejoin:miter;stroke-opacity:1" d="M 477.492,460.82 480.827,477.492 z" id="boundary" inkscape:connector-curvature="0" />
	<path style="fill:none;stroke:red;stroke-width:1px;stroke-linecap:butt;stroke-linejoin:miter;stroke-opacity:1" d="M 410.803,469.156 427.476,465.822 z" id="boundary" inkscape:connector-curvature="0" />
	<path style="fill:none;stroke:red;stroke-width:1px;stroke-linecap:butt;stroke-linejoin:miter;stroke-opacity:1" d="M 300.766,482.494 314.104,472.491 z" id="boundary" inkscape:connector-curvature="0" />
	<path style="fill:none;stroke:red;stroke-width:1px;stroke-linecap:butt;stroke-linejoin:miter;stroke-opacity:1" d="M 300.766,482.494 284.094,485.829 z" id="boundary" inkscape:connector-curvature="0" />
	<path style="fill:none;stroke:red;stroke-width:1px;stroke-linecap:butt;stroke-linejoin:miter;stroke-opacity:1" d="M 480.827,477.492 482.494,494.165 z" id="boundary" inkscape:connector-curvature="0" />
	<path style="fill:none;stroke:red;stroke-width:1px;stroke-linecap:butt;stroke-linejoin:miter;stroke-opacity:1" d="M 502.501,490.83 505.835,467.489 z" id="boundary" inkscape:connector-curvature="0" />
	<path style="fill:none;stroke:red;stroke-width:1px;stroke-linecap:butt;stroke-linejoin:miter;stroke-opacity:1" d="M 502.501,490.83 482.494,494.165 z" id="boundary" inkscape:connector-curvature="0" />
	<path style="fill:none;stroke:red;stroke-width:1px;stroke-linecap:butt;stroke-linejoin:miter;stroke-opacity:1" d="M 552.518,497.499 547.516,514.171 z" id="boundary" inkscape:connector-curvature="0" />
	<path style="fill:none;stroke:red;stroke-width:1px;stroke-linecap:butt;stroke-linejoin:miter;stroke-opacity:1" d="M 487.496,510.837 482.494,494.165 z" id="boundary" inkscape:connector-curvature="0" />
	<path style="fill:none;stroke:red;stroke-width:1px;stroke-linecap:butt;stroke-linejoin:miter;stroke-opacity:1" d="M 547.516,480.827 552.518,497.499 z" id="boundary" inkscape:connector-curvature="0" />
	<path style="fill:none;stroke:red;stroke-width:1px;stroke-linecap:butt;stroke-linejoin:miter;stroke-opacity:1" d="M 539.18,449.15 550.85,462.487 z" id="boundary" inkscape:connector-curvature="0" />
	<path style="fill:none;stroke:red;stroke-width:1px;stroke-linecap:butt;stroke-linejoin:miter;stroke-opacity:1" d="M 544.182,134.044 549.183,150.716 z" id="boundary" inkscape:connector-curvature="0" />
	<path style="fill:none;stroke:red;stroke-width:1px;stroke-linecap:butt;stroke-linejoin:miter;stroke-opacity:1" d="M 697.566,64.0202 707.57,50.6824 z" id="boundary" inkscape:connector-curvature="0" />
	<path style="fill:none;stroke:red;stroke-width:1px;stroke-linecap:butt;stroke-linejoin:miter;stroke-opacity:1" d="M 697.566,64.0202 680.894,70.6891 z" id="boundary" inkscape:connector-curvature="0" />
	<path style="fill:none;stroke:red;stroke-width:1px;stroke-linecap:butt;stroke-linejoin:miter;stroke-opacity:1" d="M 647.55,77.358 664.222,74.0235 z" id="boundary" inkscape:connector-curvature="0" />
	<path style="fill:none;stroke:red;stroke-width:1px;stroke-linecap:butt;stroke-linejoin:miter;stroke-opacity:1" d="M 680.894,70.6891 664.222,74.0235 z" id="boundary" inkscape:connector-curvature="0" />
	<path style="fill:none;stroke:red;stroke-width:1px;stroke-linecap:butt;stroke-linejoin:miter;stroke-opacity:1" d="M 720.908,40.679 707.57,50.6824 z" id="boundary" inkscape:connector-curvature="0" />
	<path style="fill:none;stroke:red;stroke-width:1px;stroke-linecap:butt;stroke-linejoin:miter;stroke-opacity:1" d="M 747.583,20.6723 755.919,5.66723 z" id="boundary" inkscape:connector-curvature="0" />
	<path style="fill:none;stroke:red;stroke-width:1px;stroke-linecap:butt;stroke-linejoin:miter;stroke-opacity:1" d="M 755.919,5.66723 772.592,4 z" id="boundary" inkscape:connector-curvature="0" />
	<path style="fill:none;stroke:red;stroke-width:1px;stroke-linecap:butt;stroke-linejoin:miter;stroke-opacity:1" d="M 784.262,17.3378 772.592,4 z" id="boundary" inkscape:connector-curvature="0" />
	<path style="fill:none;stroke:red;stroke-width:1px;stroke-linecap:butt;stroke-linejoin:miter;stroke-opacity:1" d="M 747.583,20.6723 737.58,37.3445 z" id="boundary" inkscape:connector-curvature="0" />
	<path style="fill:none;stroke:red;stroke-width:1px;stroke-linecap:butt;stroke-linejoin:miter;stroke-opacity:1" d="M 737.58,37.3445 720.908,40.679 z" id="boundary" inkscape:connector-curvature="0" />
	<path style="fill:none;stroke:red;stroke-width:1px;stroke-linecap:butt;stroke-linejoin:miter;stroke-opacity:1" d="M 647.55,77.358 630.877,80.6924 z" id="boundary" inkscape:connector-curvature="0" />
	<path style="fill:none;stroke:red;stroke-width:1px;stroke-linecap:butt;stroke-linejoin:miter;stroke-opacity:1" d="M 560.854,164.054 549.183,150.716 z" id="boundary" inkscape:connector-curvature="0" />
	<path style="fill:none;stroke:red;stroke-width:1px;stroke-linecap:butt;stroke-linejoin:miter;stroke-opacity:1" d="M 562.521,180.726 564.188,197.398 z" id="boundary" inkscape:connector-curvature="0" />
	<path style="fill:none;stroke:red;stroke-width:1px;stroke-linecap:butt;stroke-linejoin:miter;stroke-opacity:1" d="M 562.521,180.726 560.854,164.054 z" id="boundary" inkscape:connector-curvature="0" />
	<path style="fill:none;stroke:red;stroke-width:1px;stroke-linecap:butt;stroke-linejoin:miter;stroke-opacity:1" d="M 564.188,197.398 560.854,214.071 z" id="boundary" inkscape:connector-curvature="0" />
	<path style="fill:none;stroke:red;stroke-width:1px;stroke-linecap:butt;stroke-linejoin:miter;stroke-opacity:1" d="M 560.854,214.071 544.182,217.405 z" id="boundary" inkscape:connector-curvature="0" />
	<path style="fill:none;stroke:red;stroke-width:1px;stroke-linecap:butt;stroke-linejoin:miter;stroke-opacity:1" d="M 552.518,119.039 565.855,109.035 z" id="boundary" inkscape:connector-curvature="0" />
	<path style="fill:none;stroke:red;stroke-width:1px;stroke-linecap:butt;stroke-linejoin:miter;stroke-opacity:1" d="M 614.205,87.3613 630.877,80.6924 z" id="boundary" inkscape:connector-curvature="0" />
	<path style="fill:none;stroke:red;stroke-width:1px;stroke-linecap:butt;stroke-linejoin:miter;stroke-opacity:1" d="M 614.205,87.3613 597.533,94.0303 z" id="boundary" inkscape:connector-curvature="0" />
	<path style="fill:none;stroke:red;stroke-width:1px;stroke-linecap:butt;stroke-linejoin:miter;stroke-opacity:1" d="M 597.533,94.0303 580.861,97.3647 z" id="boundary" inkscape:connector-curvature="0" />
	<path style="fill:none;stroke:red;stroke-width:1px;stroke-linecap:butt;stroke-linejoin:miter;stroke-opacity:1" d="M 565.855,109.035 580.861,97.3647 z" id="boundary" inkscape:connector-curvature="0" />
	<path style="fill:none;stroke:red;stroke-width:1px;stroke-linecap:butt;stroke-linejoin:miter;stroke-opacity:1" d="M 784.262,17.3378 792.598,32.3429 z" id="boundary" inkscape:connector-curvature="0" />
	<path style="fill:none;stroke:red;stroke-width:1px;stroke-linecap:butt;stroke-linejoin:miter;stroke-opacity:1" d="M 807.603,40.679 792.598,32.3429 z" id="boundary" inkscape:connector-curvature="0" />
	<path style="fill:none;stroke:red;stroke-width:1px;stroke-linecap:butt;stroke-linejoin:miter;stroke-opacity:1" d="M 852.618,64.0202 835.946,59.0185 z" id="boundary" inkscape:connector-curvature="0" />
	<path style="fill:none;stroke:red;stroke-width:1px;stroke-linecap:butt;stroke-linejoin:miter;stroke-opacity:1" d="M 835.946,59.0185 824.276,45.6807 z" id="boundary" inkscape:connector-curvature="0" />
	<path style="fill:none;stroke:red;stroke-width:1px;stroke-linecap:butt;stroke-linejoin:miter;stroke-opacity:1" d="M 807.603,40.679 824.276,45.6807 z" id="boundary" inkscape:connector-curvature="0" />
	<path style="fill:none;stroke:red;stroke-width:1px;stroke-linecap:butt;stroke-linejoin:miter;stroke-opacity:1" d="M 869.291,70.6891 885.963,74.0235 z" id="boundary" inkscape:connector-curvature="0" />
	<path style="fill:none;stroke:red;stroke-width:1px;stroke-linecap:butt;stroke-linejoin:miter;stroke-opacity:1" d="M 869.291,70.6891 852.618,64.0202 z" id="boundary" inkscape:connector-curvature="0" />
	<path style="fill:none;stroke:red;stroke-width:1px;stroke-linecap:butt;stroke-linejoin:miter;stroke-opacity:1" d="M 902.635,77.358 885.963,74.0235 z" id="boundary" inkscape:connector-curvature="0" />
	<path style="fill:none;stroke:red;stroke-width:1px;stroke-linecap:butt;stroke-linejoin:miter;stroke-opacity:1" d="M 902.635,77.358 919.308,84.0269 z" id="boundary" inkscape:connector-curvature="0" />
	<path style="fill:none;stroke:red;stroke-width:1px;stroke-linecap:butt;stroke-linejoin:miter;stroke-opacity:1" d="M 935.98,90.6958 919.308,84.0269 z" id="boundary" inkscape:connector-curvature="0" />
	<path style="fill:none;stroke:red;stroke-width:1px;stroke-linecap:butt;stroke-linejoin:miter;stroke-opacity:1" d="M 935.98,90.6958 952.652,97.3647 z" id="boundary" inkscape:connector-curvature="0" />
	<path style="fill:none;stroke:red;stroke-width:1px;stroke-linecap:butt;stroke-linejoin:miter;stroke-opacity:1" d="M 989.331,160.719 989.331,177.392 z" id="boundary" inkscape:connector-curvature="0" />
	<path style="fill:none;stroke:red;stroke-width:1px;stroke-linecap:butt;stroke-linejoin:miter;stroke-opacity:1" d="M 982.662,207.402 982.662,224.074 z" id="boundary" inkscape:connector-curvature="0" />
	<path style="fill:none;stroke:red;stroke-width:1px;stroke-linecap:butt;stroke-linejoin:miter;stroke-opacity:1" d="M 982.662,207.402 989.331,177.392 z" id="boundary" inkscape:connector-curvature="0" />
	<path style="fill:none;stroke:red;stroke-width:1px;stroke-linecap:butt;stroke-linejoin:miter;stroke-opacity:1" d="M 982.662,240.746 982.662,224.074 z" id="boundary" inkscape:connector-curvature="0" />
	<path style="fill:none;stroke:red;stroke-width:1px;stroke-linecap:butt;stroke-linejoin:miter;stroke-opacity:1" d="M 969.324,104.034 982.662,114.037 z" id="boundary" inkscape:connector-curvature="0" />
	<path style="fill:none;stroke:red;stroke-width:1px;stroke-linecap:butt;stroke-linejoin:miter;stroke-opacity:1" d="M 982.662,240.746 982.662,257.418 z" id="boundary" inkscape:connector-curvature="0" />
	<path style="fill:none;stroke:red;stroke-width:1px;stroke-linecap:butt;stroke-linejoin:miter;stroke-opacity:1" d="M 996,144.047 989.331,160.719 z" id="boundary" inkscape:connector-curvature="0" />
	<path style="fill:none;stroke:red;stroke-width:1px;stroke-linecap:butt;stroke-linejoin:miter;stroke-opacity:1" d="M 982.662,114.037 994.333,127.375 z" id="boundary" inkscape:connector-curvature="0" />
	<path style="fill:none;stroke:red;stroke-width:1px;stroke-linecap:butt;stroke-linejoin:miter;stroke-opacity:1" d="M 994.333,127.375 996,144.047 z" id="boundary" inkscape:connector-curvature="0" />
	<path style="fill:none;stroke:red;stroke-width:1px;stroke-linecap:butt;stroke-linejoin:miter;stroke-opacity:1" d="M 989.331,274.091 982.662,257.418 z" id="boundary" inkscape:connector-curvature="0" />
	<path style="fill:none;stroke:red;stroke-width:1px;stroke-linecap:butt;stroke-linejoin:miter;stroke-opacity:1" d="M 952.652,97.3647 969.324,104.034 z" id="boundary" inkscape:connector-curvature="0" />
	<path style="fill:none;stroke:red;stroke-width:1px;stroke-linecap:butt;stroke-linejoin:miter;stroke-opacity:1" d="M 989.331,274.091 989.331,290.763 z" id="boundary" inkscape:connector-curvature="0" />
	<path style="fill:none;stroke:red;stroke-width:1px;stroke-linecap:butt;stroke-linejoin:miter;stroke-opacity:1" d="M 584.195,449.15 600.867,449.15 z" id="boundary" inkscape:connector-curvature="0" />
	<path style="fill:none;stroke:red;stroke-width:1px;stroke-linecap:butt;stroke-linejoin:miter;stroke-opacity:1" d="M 570.857,459.153 584.195,449.15 z" id="boundary" inkscape:connector-curvature="0" />
	<path style="fill:none;stroke:red;stroke-width:1px;stroke-linecap:butt;stroke-linejoin:miter;stroke-opacity:1" d="M 617.539,449.15 634.212,449.15 z" id="boundary" inkscape:connector-curvature="0" />
	<path style="fill:none;stroke:red;stroke-width:1px;stroke-linecap:butt;stroke-linejoin:miter;stroke-opacity:1" d="M 650.884,449.15 634.212,449.15 z" id="boundary" inkscape:connector-curvature="0" />
	<path style="fill:none;stroke:red;stroke-width:1px;stroke-linecap:butt;stroke-linejoin:miter;stroke-opacity:1" d="M 617.539,449.15 600.867,449.15 z" id="boundary" inkscape:connector-curvature="0" />
	<path style="fill:none;stroke:red;stroke-width:1px;stroke-linecap:butt;stroke-linejoin:miter;stroke-opacity:1" d="M 667.556,449.15 684.229,449.15 z" id="boundary" inkscape:connector-curvature="0" />
	<path style="fill:none;stroke:red;stroke-width:1px;stroke-linecap:butt;stroke-linejoin:miter;stroke-opacity:1" d="M 700.901,449.15 684.229,449.15 z" id="boundary" inkscape:connector-curvature="0" />
	<path style="fill:none;stroke:red;stroke-width:1px;stroke-linecap:butt;stroke-linejoin:miter;stroke-opacity:1" d="M 717.573,449.15 734.245,449.15 z" id="boundary" inkscape:connector-curvature="0" />
	<path style="fill:none;stroke:red;stroke-width:1px;stroke-linecap:butt;stroke-linejoin:miter;stroke-opacity:1" d="M 750.918,449.15 734.245,449.15 z" id="boundary" inkscape:connector-curvature="0" />
	<path style="fill:none;stroke:red;stroke-width:1px;stroke-linecap:butt;stroke-linejoin:miter;stroke-opacity:1" d="M 717.573,449.15 700.901,449.15 z" id="boundary" inkscape:connector-curvature="0" />
	<path style="fill:none;stroke:red;stroke-width:1px;stroke-linecap:butt;stroke-linejoin:miter;stroke-opacity:1" d="M 667.556,449.15 650.884,449.15 z" id="boundary" inkscape:connector-curvature="0" />
	<path style="fill:none;stroke:red;stroke-width:1px;stroke-linecap:butt;stroke-linejoin:miter;stroke-opacity:1" d="M 564.188,475.825 570.857,459.153 z" id="boundary" inkscape:connector-curvature="0" />
	<path style="fill:none;stroke:red;stroke-width:1px;stroke-linecap:butt;stroke-linejoin:miter;stroke-opacity:1" d="M 750.918,449.15 767.59,449.15 z" id="boundary" inkscape:connector-curvature="0" />
	<path style="fill:none;stroke:red;stroke-width:1px;stroke-linecap:butt;stroke-linejoin:miter;stroke-opacity:1" d="M 547.516,480.827 564.188,475.825 z" id="boundary" inkscape:connector-curvature="0" />
	<path style="fill:none;stroke:red;stroke-width:1px;stroke-linecap:butt;stroke-linejoin:miter;stroke-opacity:1" d="M 767.59,449.15 784.262,449.15 z" id="boundary" inkscape:connector-curvature="0" />
	<path style="fill:none;stroke:red;stroke-width:1px;stroke-linecap:butt;stroke-linejoin:miter;stroke-opacity:1" d="M 800.934,449.15 784.262,449.15 z" id="boundary" inkscape:connector-curvature="0" />
	<path style="fill:none;stroke:red;stroke-width:1px;stroke-linecap:butt;stroke-linejoin:miter;stroke-opacity:1" d="M 817.607,449.15 800.934,449.15 z" id="boundary" inkscape:connector-curvature="0" />
	<path style="fill:none;stroke:red;stroke-width:1px;stroke-linecap:butt;stroke-linejoin:miter;stroke-opacity:1" d="M 817.607,449.15 834.279,449.15 z" id="boundary" inkscape:connector-curvature="0" />
	<path style="fill:none;stroke:red;stroke-width:1px;stroke-linecap:butt;stroke-linejoin:miter;stroke-opacity:1" d="M 850.951,449.15 834.279,449.15 z" id="boundary" inkscape:connector-curvature="0" />
	<path style="fill:none;stroke:red;stroke-width:1px;stroke-linecap:butt;stroke-linejoin:miter;stroke-opacity:1" d="M 867.624,449.15 850.951,449.15 z" id="boundary" inkscape:connector-curvature="0" />
	<path style="fill:none;stroke:red;stroke-width:1px;stroke-linecap:butt;stroke-linejoin:miter;stroke-opacity:1" d="M 989.331,290.763 992.666,307.435 z" id="boundary" inkscape:connector-curvature="0" />
	<path style="fill:none;stroke:red;stroke-width:1px;stroke-linecap:butt;stroke-linejoin:miter;stroke-opacity:1" d="M 992.666,307.435 992.666,324.108 z" id="boundary" inkscape:connector-curvature="0" />
	<path style="fill:none;stroke:red;stroke-width:1px;stroke-linecap:butt;stroke-linejoin:miter;stroke-opacity:1" d="M 900.968,449.15 884.296,449.15 z" id="boundary" inkscape:connector-curvature="0" />
	<path style="fill:none;stroke:red;stroke-width:1px;stroke-linecap:butt;stroke-linejoin:miter;stroke-opacity:1" d="M 884.296,449.15 867.624,449.15 z" id="boundary" inkscape:connector-curvature="0" />
	<path style="fill:none;stroke:red;stroke-width:1px;stroke-linecap:butt;stroke-linejoin:miter;stroke-opacity:1" d="M 992.666,324.108 994.333,340.78 z" id="boundary" inkscape:connector-curvature="0" />
	<path style="fill:none;stroke:red;stroke-width:1px;stroke-linecap:butt;stroke-linejoin:miter;stroke-opacity:1" d="M 917.64,449.15 900.968,449.15 z" id="boundary" inkscape:connector-curvature="0" />
	<path style="fill:none;stroke:red;stroke-width:1px;stroke-linecap:butt;stroke-linejoin:miter;stroke-opacity:1" d="M 996,357.452 994.333,340.78 z" id="boundary" inkscape:connector-curvature="0" />
	<path style="fill:none;stroke:red;stroke-width:1px;stroke-linecap:butt;stroke-linejoin:miter;stroke-opacity:1" d="M 996,357.452 996,374.124 z" id="boundary" inkscape:connector-curvature="0" />
	<path style="fill:none;stroke:red;stroke-width:1px;stroke-linecap:butt;stroke-linejoin:miter;stroke-opacity:1" d="M 996,374.124 996,390.797 z" id="boundary" inkscape:connector-curvature="0" />
	<path style="fill:none;stroke:red;stroke-width:1px;stroke-linecap:butt;stroke-linejoin:miter;stroke-opacity:1" d="M 996,390.797 996,407.469 z" id="boundary" inkscape:connector-curvature="0" />
	<path style="fill:none;stroke:red;stroke-width:1px;stroke-linecap:butt;stroke-linejoin:miter;stroke-opacity:1" d="M 996,407.469 996,424.141 z" id="boundary" inkscape:connector-curvature="0" />
	<path style="fill:none;stroke:red;stroke-width:1px;stroke-linecap:butt;stroke-linejoin:miter;stroke-opacity:1" d="M 917.64,449.15 934.313,449.15 z" id="boundary" inkscape:connector-curvature="0" />
	<path style="fill:none;stroke:red;stroke-width:1px;stroke-linecap:butt;stroke-linejoin:miter;stroke-opacity:1" d="M 950.985,449.15 967.657,449.15 z" id="boundary" inkscape:connector-curvature="0" />
	<path style="fill:none;stroke:red;stroke-width:1px;stroke-linecap:butt;stroke-linejoin:miter;stroke-opacity:1" d="M 967.657,449.15 974.326,465.822 z" id="boundary" inkscape:connector-curvature="0" />
	<path style="fill:none;stroke:red;stroke-width:1px;stroke-linecap:butt;stroke-linejoin:miter;stroke-opacity:1" d="M 934.313,449.15 950.985,449.15 z" id="boundary" inkscape:connector-curvature="0" />
	<path style="fill:none;stroke:red;stroke-width:1px;stroke-linecap:butt;stroke-linejoin:miter;stroke-opacity:1" d="M 974.326,465.822 974.326,482.494 z" id="boundary" inkscape:connector-curvature="0" />
	<path style="fill:none;stroke:red;stroke-width:1px;stroke-linecap:butt;stroke-linejoin:miter;stroke-opacity:1" d="M 992.666,454.151 992.666,470.824 z" id="boundary" inkscape:connector-curvature="0" />
	<path style="fill:none;stroke:red;stroke-width:1px;stroke-linecap:butt;stroke-linejoin:miter;stroke-opacity:1" d="M 992.666,454.151 996,424.141 z" id="boundary" inkscape:connector-curvature="0" />
	<path style="fill:none;stroke:red;stroke-width:1px;stroke-linecap:butt;stroke-linejoin:miter;stroke-opacity:1" d="M 992.666,470.824 992.666,487.496 z" id="boundary" inkscape:connector-curvature="0" />
	<path style="fill:none;stroke:red;stroke-width:1px;stroke-linecap:butt;stroke-linejoin:miter;stroke-opacity:1" d="M 977.661,515.839 977.661,499.166 z" id="boundary" inkscape:connector-curvature="0" />
	<path style="fill:none;stroke:red;stroke-width:1px;stroke-linecap:butt;stroke-linejoin:miter;stroke-opacity:1" d="M 977.661,499.166 974.326,482.494 z" id="boundary" inkscape:connector-curvature="0" />
	<circle cx="4" cy="324.108" r="4" fill="#0" id="circle0"/>
	<circle cx="4" cy="340.78" r="4" fill="#0" id="circle1"/>
	<circle cx="10.6689" cy="474.158" r="4" fill="#0" id="circle2"/>
	<circle cx="10.6689" cy="514.171" r="4" fill="#0" id="circle3"/>
	<circle cx="12.3361" cy="490.83" r="4" fill="#0" id="circle4"/>
	<circle cx="14.0034" cy="310.77" r="4" fill="#0" id="circle5"/>
	<circle cx="15.6706" cy="354.118" r="4" fill="#0" id="circle6"/>
	<circle cx="17.3378" cy="370.79" r="4" fill="#0" id="circle7"/>
	<circle cx="17.3378" cy="457.486" r="4" fill="#0" id="circle8"/>
	<circle cx="20.6723" cy="387.462" r="4" fill="#0" id="circle9"/>
	<circle cx="20.6723" cy="404.134" r="4" fill="#0" id="circle10"/>
	<circle cx="20.6723" cy="420.807" r="4" fill="#0" id="circle11"/>
	<circle cx="20.6723" cy="437.479" r="4" fill="#0" id="circle12"/>
	<circle cx="25.6739" cy="500.834" r="4" fill="#0" id="circle13"/>
	<circle cx="27.3412" cy="472.491" r="4" fill="#0" id="circle14"/>
	<circle cx="30.6756" cy="304.101" r="4" fill="#0" id="circle15"/>
	<circle cx="40.679" cy="459.153" r="4" fill="#0" id="circle16"/>
	<circle cx="44.0134" cy="294.097" r="4" fill="#0" id="circle17"/>
	<circle cx="57.3513" cy="459.153" r="4" fill="#0" id="circle18"/>
	<circle cx="60.6857" cy="290.763" r="4" fill="#0" id="circle19"/>
	<circle cx="74.0235" cy="460.82" r="4" fill="#0" id="circle20"/>
	<circle cx="77.358" cy="287.429" r="4" fill="#0" id="circle21"/>
	<circle cx="90.6958" cy="464.155" r="4" fill="#0" id="circle22"/>
	<circle cx="94.0303" cy="284.094" r="4" fill="#0" id="circle23"/>
	<circle cx="107.368" cy="469.156" r="4" fill="#0" id="circle24"/>
	<circle cx="110.703" cy="277.425" r="4" fill="#0" id="circle25"/>
	<circle cx="124.04" cy="462.487" r="4" fill="#0" id="circle26"/>
	<circle cx="127.375" cy="274.091" r="4" fill="#0" id="circle27"/>
	<circle cx="137.378" cy="452.484" r="4" fill="#0" id="circle28"/>
	<circle cx="144.047" cy="274.091" r="4" fill="#0" id="circle29"/>
	<circle cx="154.05" cy="452.484" r="4" fill="#0" id="circle30"/>
	<circle cx="160.719" cy="274.091" r="4" fill="#0" id="circle31"/>
	<circle cx="169.055" cy="460.82" r="4" fill="#0" id="circle32"/>
	<circle cx="177.392" cy="270.756" r="4" fill="#0" id="circle33"/>
	<circle cx="185.728" cy="465.822" r="4" fill="#0" id="circle34"/>
	<circle cx="194.064" cy="264.087" r="4" fill="#0" id="circle35"/>
	<circle cx="202.4" cy="472.491" r="4" fill="#0" id="circle36"/>
	<circle cx="207.402" cy="254.084" r="4" fill="#0" id="circle37"/>
	<circle cx="217.405" cy="480.827" r="4" fill="#0" id="circle38"/>
	<circle cx="224.074" cy="247.415" r="4" fill="#0" id="circle39"/>
	<circle cx="234.077" cy="485.829" r="4" fill="#0" id="circle40"/>
	<circle cx="237.412" cy="237.412" r="4" fill="#0" id="circle41"/>
	<circle cx="250.75" cy="489.163" r="4" fill="#0" id="circle42"/>
	<circle cx="254.084" cy="230.743" r="4" fill="#0" id="circle43"/>
	<circle cx="267.422" cy="489.163" r="4" fill="#0" id="circle44"/>
	<circle cx="270.756" cy="234.077" r="4" fill="#0" id="circle45"/>
	<circle cx="284.094" cy="485.829" r="4" fill="#0" id="circle46"/>
	<circle cx="285.761" cy="242.413" r="4" fill="#0" id="circle47"/>
	<circle cx="300.766" cy="250.75" r="4" fill="#0" id="circle48"/>
	<circle cx="300.766" cy="482.494" r="4" fill="#0" id="circle49"/>
	<circle cx="314.104" cy="472.491" r="4" fill="#0" id="circle50"/>
	<circle cx="317.439" cy="254.084" r="4" fill="#0" id="circle51"/>
	<circle cx="329.109" cy="267.422" r="4" fill="#0" id="circle52"/>
	<circle cx="330.776" cy="465.822" r="4" fill="#0" id="circle53"/>
	<circle cx="345.782" cy="270.756" r="4" fill="#0" id="circle54"/>
	<circle cx="347.449" cy="462.487" r="4" fill="#0" id="circle55"/>
	<circle cx="362.454" cy="274.091" r="4" fill="#0" id="circle56"/>
	<circle cx="364.121" cy="455.818" r="4" fill="#0" id="circle57"/>
	<circle cx="379.126" cy="274.091" r="4" fill="#0" id="circle58"/>
	<circle cx="380.793" cy="452.484" r="4" fill="#0" id="circle59"/>
	<circle cx="395.798" cy="277.425" r="4" fill="#0" id="circle60"/>
	<circle cx="395.798" cy="460.82" r="4" fill="#0" id="circle61"/>
	<circle cx="410.803" cy="469.156" r="4" fill="#0" id="circle62"/>
	<circle cx="412.471" cy="277.425" r="4" fill="#0" id="circle63"/>
	<circle cx="427.476" cy="465.822" r="4" fill="#0" id="circle64"/>
	<circle cx="429.143" cy="284.094" r="4" fill="#0" id="circle65"/>
	<circle cx="444.148" cy="459.153" r="4" fill="#0" id="circle66"/>
	<circle cx="445.815" cy="285.761" r="4" fill="#0" id="circle67"/>
	<circle cx="459.153" cy="274.091" r="4" fill="#0" id="circle68"/>
	<circle cx="460.82" cy="459.153" r="4" fill="#0" id="circle69"/>
	<circle cx="470.824" cy="257.418" r="4" fill="#0" id="circle70"/>
	<circle cx="477.492" cy="460.82" r="4" fill="#0" id="circle71"/>
	<circle cx="480.827" cy="477.492" r="4" fill="#0" id="circle72"/>
	<circle cx="482.494" cy="494.165" r="4" fill="#0" id="circle73"/>
	<circle cx="487.496" cy="250.75" r="4" fill="#0" id="circle74"/>
	<circle cx="487.496" cy="510.837" r="4" fill="#0" id="circle75"/>
	<circle cx="497.499" cy="237.412" r="4" fill="#0" id="circle76"/>
	<circle cx="502.501" cy="490.83" r="4" fill="#0" id="circle77"/>
	<circle cx="505.835" cy="450.817" r="4" fill="#0" id="circle78"/>
	<circle cx="505.835" cy="467.489" r="4" fill="#0" id="circle79"/>
	<circle cx="512.504" cy="229.076" r="4" fill="#0" id="circle80"/>
	<circle cx="522.508" cy="449.15" r="4" fill="#0" id="circle81"/>
	<circle cx="527.509" cy="220.739" r="4" fill="#0" id="circle82"/>
	<circle cx="539.18" cy="449.15" r="4" fill="#0" id="circle83"/>
	<circle cx="544.182" cy="134.044" r="4" fill="#0" id="circle84"/>
	<circle cx="544.182" cy="217.405" r="4" fill="#0" id="circle85"/>
	<circle cx="547.516" cy="480.827" r="4" fill="#0" id="circle86"/>
	<circle cx="547.516" cy="514.171" r="4" fill="#0" id="circle87"/>
	<circle cx="549.183" cy="150.716" r="4" fill="#0" id="circle88"/>
	<circle cx="550.85" cy="462.487" r="4" fill="#0" id="circle89"/>
	<circle cx="552.518" cy="119.039" r="4" fill="#0" id="circle90"/>
	<circle cx="552.518" cy="497.499" r="4" fill="#0" id="circle91"/>
	<circle cx="560.854" cy="164.054" r="4" fill="#0" id="circle92"/>
	<circle cx="560.854" cy="214.071" r="4" fill="#0" id="circle93"/>
	<circle cx="562.521" cy="180.726" r="4" fill="#0" id="circle94"/>
	<circle cx="564.188" cy="197.398" r="4" fill="#0" id="circle95"/>
	<circle cx="564.188" cy="475.825" r="4" fill="#0" id="circle96"/>
	<circle cx="565.855" cy="109.035" r="4" fill="#0" id="circle97"/>
	<circle cx="570.857" cy="459.153" r="4" fill="#0" id="circle98"/>
	<circle cx="580.861" cy="97.3647" r="4" fill="#0" id="circle99"/>
	<circle cx="584.195" cy="449.15" r="4" fill="#0" id="circle100"/>
	<circle cx="597.533" cy="94.0303" r="4" fill="#0" id="circle101"/>
	<circle cx="600.867" cy="449.15" r="4" fill="#0" id="circle102"/>
	<circle cx="614.205" cy="87.3613" r="4" fill="#0" id="circle103"/>
	<circle cx="617.539" cy="449.15" r="4" fill="#0" id="circle104"/>
	<circle cx="630.877" cy="80.6924" r="4" fill="#0" id="circle105"/>
	<circle cx="634.212" cy="449.15" r="4" fill="#0" id="circle106"/>
	<circle cx="647.55" cy="77.358" r="4" fill="#0" id="circle107"/>
	<circle cx="650.884" cy="449.15" r="4" fill="#0" id="circle108"/>
	<circle cx="664.222" cy="74.0235" r="4" fill="#0" id="circle109"/>
	<circle cx="667.556" cy="449.15" r="4" fill="#0" id="circle110"/>
	<circle cx="680.894" cy="70.6891" r="4" fill="#0" id="circle111"/>
	<circle cx="684.229" cy="449.15" r="4" fill="#0" id="circle112"/>
	<circle cx="697.566" cy="64.0202" r="4" fill="#0" id="circle113"/>
	<circle cx="700.901" cy="449.15" r="4" fill="#0" id="circle114"/>
	<circle cx="707.57" cy="50.6824" r="4" fill="#0" id="circle115"/>
	<circle cx="717.573" cy="449.15" r="4" fill="#0" id="circle116"/>
	<circle cx="720.908" cy="40.679" r="4" fill="#0" id="circle117"/>
	<circle cx="734.245" cy="449.15" r="4" fill="#0" id="circle118"/>
	<circle cx="737.58" cy="37.3445" r="4" fill="#0" id="circle119"/>
	<circle cx="747.583" cy="20.6723" r="4" fill="#0" id="circle120"/>
	<circle cx="750.918" cy="449.15" r="4" fill="#0" id="circle121"/>
	<circle cx="755.919" cy="5.66723" r="4" fill="#0" id="circle122"/>
	<circle cx="767.59" cy="449.15" r="4" fill="#0" id="circle123"/>
	<circle cx="772.592" cy="4" r="4" fill="#0" id="circle124"/>
	<circle cx="784.262" cy="17.3378" r="4" fill="#0" id="circle125"/>
	<circle cx="784.262" cy="449.15" r="4" fill="#0" id="circle126"/>
	<circle cx="792.598" cy="32.3429" r="4" fill="#0" id="circle127"/>
	<circle cx="800.934" cy="449.15" r="4" fill="#0" id="circle128"/>
	<circle cx="807.603" cy="40.679" r="4" fill="#0" id="circle129"/>
	<circle cx="817.607" cy="449.15" r="4" fill="#0" id="circle130"/>
	<circle cx="824.276" cy="45.6807" r="4" fill="#0" id="circle131"/>
	<circle cx="834.279" cy="449.15" r="4" fill="#0" id="circle132"/>
	<circle cx="835.946" cy="59.0185" r="4" fill="#0" id="circle133"/>
	<circle cx="850.951" cy="449.15" r="4" fill="#0" id="circle134"/>
	<circle cx="852.618" cy="64.0202" r="4" fill="#0" id="circle135"/>
	<circle cx="867.624" cy="449.15" r="4" fill="#0" id="circle136"/>
	<circle cx="869.291" cy="70.6891" r="4" fill="#0" id="circle137"/>
	<circle cx="884.296" cy="449.15" r="4" fill="#0" id="circle138"/>
	<circle cx="885.963" cy="74.0235" r="4" fill="#0" id="circle139"/>
	<circle cx="900.968" cy="449.15" r="4" fill="#0" id="circle140"/>
	<circle cx="902.635" cy="77.358" r="4" fill="#0" id="circle141"/>
	<circle cx="917.64" cy="449.15" r="4" fill="#0" id="circle142"/>
	<circle cx="919.308" cy="84.0269" r="4" fill="#0" id="circle143"/>
	<circle cx="934.313" cy="449.15" r="4" fill="#0" id="circle144"/>
	<circle cx="935.98" cy="90.6958" r="4" fill="#0" id="circle145"/>
	<circle cx="950.985" cy="449.15" r="4" fill="#0" id="circle146"/>
	<circle cx="952.652" cy="97.3647" r="4" fill="#0" id="circle147"/>
	<circle cx="967.657" cy="449.15" r="4" fill="#0" id="circle148"/>
	<circle cx="969.324" cy="104.034" r="4" fill="#0" id="circle149"/>
	<circle cx="974.326" cy="465.822" r="4" fill="#0" id="circle150"/>
	<circle cx="974.326" cy="482.494" r="4" fill="#0" id="circle151"/>
	<circle cx="977.661" cy="499.166" r="4" fill="#0" id="circle152"/>
	<circle cx="977.661" cy="515.839" r="4" fill="#0" id="circle153"/>
	<circle cx="982.662" cy="114.037" r="4" fill="#0" id="circle154"/>
	<circle cx="982.662" cy="207.402" r="4" fill="#0" id="circle155"/>
	<circle cx="982.662" cy="224.074" r="4" fill="#0" id="circle156"/>
	<circle cx="982.662" cy="240.746" r="4" fill="#0" id="circle157"/>
	<circle cx="982.662" cy="257.418" r="4" fill="#0" id="circle158"/>
	<circle cx="989.331" cy="160.719" r="4" fill="#0" id="circle159"/>
	<circle cx="989.331" cy="177.392" r="4" fill="#0" id="circle160"/>
	<circle cx="989.331" cy="274.091" r="4" fill="#0" id="circle161"/>
	<circle cx="989.331" cy="290.763" r="4" fill="#0" id="circle162"/>
	<circle cx="992.666" cy="307.435" r="4" fill="#0" id="circle163"/>
	<circle cx="992.666" cy="324.108" r="4" fill="#0" id="circle164"/>
	<circle cx="992.666" cy="454.151" r="4" fill="#0" id="circle165"/>
	<circle cx="992.666" cy="470.824" r="4" fill="#0" id="circle166"/>
	<circle cx="992.666" cy="487.496" r="4" fill="#0" id="circle167"/>
	<circle cx="994.333" cy="127.375" r="4" fill="#0" id="circle168"/>
	<circle cx="994.333" cy="340.78" r="4" fill="#0" id="circle169"/>
	<circle cx="996" cy="144.047" r="4" fill="#0" id="circle170"/>
	<circle cx="996" cy="357.452" r="4" fill="#0" id="circle171"/>
	<circle cx="996" cy="374.124" r="4" fill="#0" id="circle172"/>
	<circle cx="996" cy="390.797" r="4" fill="#0" id="circle173"/>
	<circle cx="996" cy="407.469" r="4" fill="#0" id="circle174"/>
	<circle cx="996" cy="424.141" r="4" fill="#0" id="circle175"/>
	</g>
</svg>