<?xml version="1.0" encoding="UTF-8" standalone="no"?>
<!-- Created with CurveBenchmark -->
<svg
	xmlns:dc="http://purl.org/dc/elements/1.1/"
	xmlns:cc="http://creativecommons.org/ns#"
	xmlns:rdf="http://www.w3.org/1999/02/22-rdf-syntax-ns#"
	xmlns:svg="http://www.w3.org/2000/svg"
	xmlns="http://www.w3.org/2000/svg"
	xmlns:sodipodi="http://sodipodi.sourceforge.net/DTD/sodipodi-0.dtd"
	xmlns:inkscape="http://www.inkscape.org/namespaces/inkscape"
	width="1000"
	height="1000"
	id="svg2"
	version="1.1"
	sodipodi:docname="manifold/ccrust-classic10.png.txt">
<defs
	id="defs4" />
<metadata
	id="metadata7">
	<rdf:RDF>
		<cc:Work
			rdf:about="">
			<dc:format>image/svg+xml</dc:format>
			<dc:type
				rdf:resource="http://purl.org/dc/dcmitype/StillImage" />
			<dc:title></dc:title>
		</cc:Work>
	</rdf:RDF>
</metadata>
<g
	inkscape:label="Layer 1"
	inkscape:groupmode="layer"
	id="layer1">
	<path style="fill:none;stroke:red;stroke-width:1px;stroke-linecap:butt;stroke-linejoin:miter;stroke-opacity:1" d="M 149.882,474.992 129.042,468.739 z" id="boundary" inkscape:connector-curvature="0" />
	<path style="fill:none;stroke:red;stroke-width:1px;stroke-linecap:butt;stroke-linejoin:miter;stroke-opacity:1" d="M 160.303,416.639 145.714,452.067 z" id="boundary" inkscape:connector-curvature="0" />
	<path style="fill:none;stroke:red;stroke-width:1px;stroke-linecap:butt;stroke-linejoin:miter;stroke-opacity:1" d="M 149.882,474.992 162.387,491.664 z" id="boundary" inkscape:connector-curvature="0" />
	<path style="fill:none;stroke:red;stroke-width:1px;stroke-linecap:butt;stroke-linejoin:miter;stroke-opacity:1" d="M 179.059,506.252 162.387,491.664 z" id="boundary" inkscape:connector-curvature="0" />
	<path style="fill:none;stroke:red;stroke-width:1px;stroke-linecap:butt;stroke-linejoin:miter;stroke-opacity:1" d="M 176.975,399.966 160.303,416.639 z" id="boundary" inkscape:connector-curvature="0" />
	<path style="fill:none;stroke:red;stroke-width:1px;stroke-linecap:butt;stroke-linejoin:miter;stroke-opacity:1" d="M 176.975,566.689 160.303,583.361 z" id="boundary" inkscape:connector-curvature="0" />
	<path style="fill:none;stroke:red;stroke-width:1px;stroke-linecap:butt;stroke-linejoin:miter;stroke-opacity:1" d="M 160.303,583.361 139.462,583.361 z" id="boundary" inkscape:connector-curvature="0" />
	<path style="fill:none;stroke:red;stroke-width:1px;stroke-linecap:butt;stroke-linejoin:miter;stroke-opacity:1" d="M 41.5126,681.311 62.3529,681.311 z" id="boundary" inkscape:connector-curvature="0" />
	<path style="fill:none;stroke:red;stroke-width:1px;stroke-linecap:butt;stroke-linejoin:miter;stroke-opacity:1" d="M 79.0252,664.639 62.3529,681.311 z" id="boundary" inkscape:connector-curvature="0" />
	<path style="fill:none;stroke:red;stroke-width:1px;stroke-linecap:butt;stroke-linejoin:miter;stroke-opacity:1" d="M 24.8403,697.983 35.2605,716.739 z" id="boundary" inkscape:connector-curvature="0" />
	<path style="fill:none;stroke:red;stroke-width:1px;stroke-linecap:butt;stroke-linejoin:miter;stroke-opacity:1" d="M 35.2605,716.739 35.2605,737.58 z" id="boundary" inkscape:connector-curvature="0" />
	<path style="fill:none;stroke:red;stroke-width:1px;stroke-linecap:butt;stroke-linejoin:miter;stroke-opacity:1" d="M 24.8403,697.983 41.5126,681.311 z" id="boundary" inkscape:connector-curvature="0" />
	<path style="fill:none;stroke:red;stroke-width:1px;stroke-linecap:butt;stroke-linejoin:miter;stroke-opacity:1" d="M 126.958,618.79 110.286,633.378 z" id="boundary" inkscape:connector-curvature="0" />
	<path style="fill:none;stroke:red;stroke-width:1px;stroke-linecap:butt;stroke-linejoin:miter;stroke-opacity:1" d="M 139.462,583.361 126.958,618.79 z" id="boundary" inkscape:connector-curvature="0" />
	<path style="fill:none;stroke:red;stroke-width:1px;stroke-linecap:butt;stroke-linejoin:miter;stroke-opacity:1" d="M 95.6975,650.05 79.0252,664.639 z" id="boundary" inkscape:connector-curvature="0" />
	<path style="fill:none;stroke:red;stroke-width:1px;stroke-linecap:butt;stroke-linejoin:miter;stroke-opacity:1" d="M 110.286,633.378 95.6975,650.05 z" id="boundary" inkscape:connector-curvature="0" />
	<path style="fill:none;stroke:red;stroke-width:1px;stroke-linecap:butt;stroke-linejoin:miter;stroke-opacity:1" d="M 281.176,264.504 297.849,247.832 z" id="boundary" inkscape:connector-curvature="0" />
	<path style="fill:none;stroke:red;stroke-width:1px;stroke-linecap:butt;stroke-linejoin:miter;stroke-opacity:1" d="M 314.521,233.244 297.849,247.832 z" id="boundary" inkscape:connector-curvature="0" />
	<path style="fill:none;stroke:red;stroke-width:1px;stroke-linecap:butt;stroke-linejoin:miter;stroke-opacity:1" d="M 329.109,216.571 314.521,233.244 z" id="boundary" inkscape:connector-curvature="0" />
	<path style="fill:none;stroke:red;stroke-width:1px;stroke-linecap:butt;stroke-linejoin:miter;stroke-opacity:1" d="M 252,316.605 264.504,281.176 z" id="boundary" inkscape:connector-curvature="0" />
	<path style="fill:none;stroke:red;stroke-width:1px;stroke-linecap:butt;stroke-linejoin:miter;stroke-opacity:1" d="M 264.504,281.176 281.176,264.504 z" id="boundary" inkscape:connector-curvature="0" />
	<path style="fill:none;stroke:red;stroke-width:1px;stroke-linecap:butt;stroke-linejoin:miter;stroke-opacity:1" d="M 354.118,181.143 372.874,170.723 z" id="boundary" inkscape:connector-curvature="0" />
	<path style="fill:none;stroke:red;stroke-width:1px;stroke-linecap:butt;stroke-linejoin:miter;stroke-opacity:1" d="M 345.782,201.983 354.118,181.143 z" id="boundary" inkscape:connector-curvature="0" />
	<path style="fill:none;stroke:red;stroke-width:1px;stroke-linecap:butt;stroke-linejoin:miter;stroke-opacity:1" d="M 383.294,151.966 372.874,170.723 z" id="boundary" inkscape:connector-curvature="0" />
	<path style="fill:none;stroke:red;stroke-width:1px;stroke-linecap:butt;stroke-linejoin:miter;stroke-opacity:1" d="M 329.109,216.571 345.782,201.983 z" id="boundary" inkscape:connector-curvature="0" />
	<path style="fill:none;stroke:red;stroke-width:1px;stroke-linecap:butt;stroke-linejoin:miter;stroke-opacity:1" d="M 187.395,527.092 179.059,506.252 z" id="boundary" inkscape:connector-curvature="0" />
	<path style="fill:none;stroke:red;stroke-width:1px;stroke-linecap:butt;stroke-linejoin:miter;stroke-opacity:1" d="M 176.975,399.966 193.647,383.294 z" id="boundary" inkscape:connector-curvature="0" />
	<path style="fill:none;stroke:red;stroke-width:1px;stroke-linecap:butt;stroke-linejoin:miter;stroke-opacity:1" d="M 193.647,550.017 176.975,566.689 z" id="boundary" inkscape:connector-curvature="0" />
	<path style="fill:none;stroke:red;stroke-width:1px;stroke-linecap:butt;stroke-linejoin:miter;stroke-opacity:1" d="M 187.395,527.092 193.647,550.017 z" id="boundary" inkscape:connector-curvature="0" />
	<path style="fill:none;stroke:red;stroke-width:1px;stroke-linecap:butt;stroke-linejoin:miter;stroke-opacity:1" d="M 235.328,331.193 252,316.605 z" id="boundary" inkscape:connector-curvature="0" />
	<path style="fill:none;stroke:red;stroke-width:1px;stroke-linecap:butt;stroke-linejoin:miter;stroke-opacity:1" d="M 220.739,347.866 235.328,331.193 z" id="boundary" inkscape:connector-curvature="0" />
	<path style="fill:none;stroke:red;stroke-width:1px;stroke-linecap:butt;stroke-linejoin:miter;stroke-opacity:1" d="M 220.739,347.866 204.067,362.454 z" id="boundary" inkscape:connector-curvature="0" />
	<path style="fill:none;stroke:red;stroke-width:1px;stroke-linecap:butt;stroke-linejoin:miter;stroke-opacity:1" d="M 193.647,383.294 204.067,362.454 z" id="boundary" inkscape:connector-curvature="0" />
	<path style="fill:none;stroke:red;stroke-width:1px;stroke-linecap:butt;stroke-linejoin:miter;stroke-opacity:1" d="M 364.538,756.336 360.37,735.496 z" id="boundary" inkscape:connector-curvature="0" />
	<path style="fill:none;stroke:red;stroke-width:1px;stroke-linecap:butt;stroke-linejoin:miter;stroke-opacity:1" d="M 360.37,735.496 377.042,720.908 z" id="boundary" inkscape:connector-curvature="0" />
	<path style="fill:none;stroke:red;stroke-width:1px;stroke-linecap:butt;stroke-linejoin:miter;stroke-opacity:1" d="M 14.4202,770.924 14.4202,802.185 z" id="boundary" inkscape:connector-curvature="0" />
	<path style="fill:none;stroke:red;stroke-width:1px;stroke-linecap:butt;stroke-linejoin:miter;stroke-opacity:1" d="M 14.4202,770.924 35.2605,758.42 z" id="boundary" inkscape:connector-curvature="0" />
	<path style="fill:none;stroke:red;stroke-width:1px;stroke-linecap:butt;stroke-linejoin:miter;stroke-opacity:1" d="M 20.6723,889.714 4,875.126 z" id="boundary" inkscape:connector-curvature="0" />
	<path style="fill:none;stroke:red;stroke-width:1px;stroke-linecap:butt;stroke-linejoin:miter;stroke-opacity:1" d="M 4,875.126 4,854.286 z" id="boundary" inkscape:connector-curvature="0" />
	<path style="fill:none;stroke:red;stroke-width:1px;stroke-linecap:butt;stroke-linejoin:miter;stroke-opacity:1" d="M 14.4202,802.185 14.4202,833.445 z" id="boundary" inkscape:connector-curvature="0" />
	<path style="fill:none;stroke:red;stroke-width:1px;stroke-linecap:butt;stroke-linejoin:miter;stroke-opacity:1" d="M 14.4202,833.445 4,854.286 z" id="boundary" inkscape:connector-curvature="0" />
	<path style="fill:none;stroke:red;stroke-width:1px;stroke-linecap:butt;stroke-linejoin:miter;stroke-opacity:1" d="M 39.4286,900.134 20.6723,889.714 z" id="boundary" inkscape:connector-curvature="0" />
	<path style="fill:none;stroke:red;stroke-width:1px;stroke-linecap:butt;stroke-linejoin:miter;stroke-opacity:1" d="M 35.2605,737.58 35.2605,758.42 z" id="boundary" inkscape:connector-curvature="0" />
	<path style="fill:none;stroke:red;stroke-width:1px;stroke-linecap:butt;stroke-linejoin:miter;stroke-opacity:1" d="M 24.8403,948.067 35.2605,927.227 z" id="boundary" inkscape:connector-curvature="0" />
	<path style="fill:none;stroke:red;stroke-width:1px;stroke-linecap:butt;stroke-linejoin:miter;stroke-opacity:1" d="M 35.2605,966.824 24.8403,948.067 z" id="boundary" inkscape:connector-curvature="0" />
	<path style="fill:none;stroke:red;stroke-width:1px;stroke-linecap:butt;stroke-linejoin:miter;stroke-opacity:1" d="M 35.2605,966.824 35.2605,987.664 z" id="boundary" inkscape:connector-curvature="0" />
	<path style="fill:none;stroke:red;stroke-width:1px;stroke-linecap:butt;stroke-linejoin:miter;stroke-opacity:1" d="M 56.1008,989.748 35.2605,987.664 z" id="boundary" inkscape:connector-curvature="0" />
	<path style="fill:none;stroke:red;stroke-width:1px;stroke-linecap:butt;stroke-linejoin:miter;stroke-opacity:1" d="M 72.7731,975.16 56.1008,989.748 z" id="boundary" inkscape:connector-curvature="0" />
	<path style="fill:none;stroke:red;stroke-width:1px;stroke-linecap:butt;stroke-linejoin:miter;stroke-opacity:1" d="M 93.6134,983.496 72.7731,975.16 z" id="boundary" inkscape:connector-curvature="0" />
	<path style="fill:none;stroke:red;stroke-width:1px;stroke-linecap:butt;stroke-linejoin:miter;stroke-opacity:1" d="M 114.454,985.58 93.6134,983.496 z" id="boundary" inkscape:connector-curvature="0" />
	<path style="fill:none;stroke:red;stroke-width:1px;stroke-linecap:butt;stroke-linejoin:miter;stroke-opacity:1" d="M 114.454,985.58 133.21,996 z" id="boundary" inkscape:connector-curvature="0" />
	<path style="fill:none;stroke:red;stroke-width:1px;stroke-linecap:butt;stroke-linejoin:miter;stroke-opacity:1" d="M 35.2605,927.227 39.4286,900.134 z" id="boundary" inkscape:connector-curvature="0" />
	<path style="fill:none;stroke:red;stroke-width:1px;stroke-linecap:butt;stroke-linejoin:miter;stroke-opacity:1" d="M 318.689,891.798 339.529,881.378 z" id="boundary" inkscape:connector-curvature="0" />
	<path style="fill:none;stroke:red;stroke-width:1px;stroke-linecap:butt;stroke-linejoin:miter;stroke-opacity:1" d="M 349.95,860.538 339.529,881.378 z" id="boundary" inkscape:connector-curvature="0" />
	<path style="fill:none;stroke:red;stroke-width:1px;stroke-linecap:butt;stroke-linejoin:miter;stroke-opacity:1" d="M 235.328,902.218 256.168,902.218 z" id="boundary" inkscape:connector-curvature="0" />
	<path style="fill:none;stroke:red;stroke-width:1px;stroke-linecap:butt;stroke-linejoin:miter;stroke-opacity:1" d="M 235.328,933.479 235.328,902.218 z" id="boundary" inkscape:connector-curvature="0" />
	<path style="fill:none;stroke:red;stroke-width:1px;stroke-linecap:butt;stroke-linejoin:miter;stroke-opacity:1" d="M 277.008,902.218 256.168,902.218 z" id="boundary" inkscape:connector-curvature="0" />
	<path style="fill:none;stroke:red;stroke-width:1px;stroke-linecap:butt;stroke-linejoin:miter;stroke-opacity:1" d="M 364.538,756.336 370.79,777.176 z" id="boundary" inkscape:connector-curvature="0" />
	<path style="fill:none;stroke:red;stroke-width:1px;stroke-linecap:butt;stroke-linejoin:miter;stroke-opacity:1" d="M 349.95,860.538 366.622,845.95 z" id="boundary" inkscape:connector-curvature="0" />
	<path style="fill:none;stroke:red;stroke-width:1px;stroke-linecap:butt;stroke-linejoin:miter;stroke-opacity:1" d="M 370.79,777.176 374.958,798.017 z" id="boundary" inkscape:connector-curvature="0" />
	<path style="fill:none;stroke:red;stroke-width:1px;stroke-linecap:butt;stroke-linejoin:miter;stroke-opacity:1" d="M 210.319,970.992 193.647,985.58 z" id="boundary" inkscape:connector-curvature="0" />
	<path style="fill:none;stroke:red;stroke-width:1px;stroke-linecap:butt;stroke-linejoin:miter;stroke-opacity:1" d="M 154.05,996 133.21,996 z" id="boundary" inkscape:connector-curvature="0" />
	<path style="fill:none;stroke:red;stroke-width:1px;stroke-linecap:butt;stroke-linejoin:miter;stroke-opacity:1" d="M 174.891,996 154.05,996 z" id="boundary" inkscape:connector-curvature="0" />
	<path style="fill:none;stroke:red;stroke-width:1px;stroke-linecap:butt;stroke-linejoin:miter;stroke-opacity:1" d="M 193.647,985.58 174.891,996 z" id="boundary" inkscape:connector-curvature="0" />
	<path style="fill:none;stroke:red;stroke-width:1px;stroke-linecap:butt;stroke-linejoin:miter;stroke-opacity:1" d="M 277.008,902.218 297.849,902.218 z" id="boundary" inkscape:connector-curvature="0" />
	<path style="fill:none;stroke:red;stroke-width:1px;stroke-linecap:butt;stroke-linejoin:miter;stroke-opacity:1" d="M 318.689,891.798 297.849,902.218 z" id="boundary" inkscape:connector-curvature="0" />
	<path style="fill:none;stroke:red;stroke-width:1px;stroke-linecap:butt;stroke-linejoin:miter;stroke-opacity:1" d="M 224.908,954.319 210.319,970.992 z" id="boundary" inkscape:connector-curvature="0" />
	<path style="fill:none;stroke:red;stroke-width:1px;stroke-linecap:butt;stroke-linejoin:miter;stroke-opacity:1" d="M 224.908,954.319 235.328,933.479 z" id="boundary" inkscape:connector-curvature="0" />
	<path style="fill:none;stroke:red;stroke-width:1px;stroke-linecap:butt;stroke-linejoin:miter;stroke-opacity:1" d="M 527.092,18.5882 547.933,18.5882 z" id="boundary" inkscape:connector-curvature="0" />
	<path style="fill:none;stroke:red;stroke-width:1px;stroke-linecap:butt;stroke-linejoin:miter;stroke-opacity:1" d="M 510.42,35.2605 527.092,18.5882 z" id="boundary" inkscape:connector-curvature="0" />
	<path style="fill:none;stroke:red;stroke-width:1px;stroke-linecap:butt;stroke-linejoin:miter;stroke-opacity:1" d="M 564.605,4 547.933,18.5882 z" id="boundary" inkscape:connector-curvature="0" />
	<path style="fill:none;stroke:red;stroke-width:1px;stroke-linecap:butt;stroke-linejoin:miter;stroke-opacity:1" d="M 493.748,51.9328 510.42,35.2605 z" id="boundary" inkscape:connector-curvature="0" />
	<path style="fill:none;stroke:red;stroke-width:1px;stroke-linecap:butt;stroke-linejoin:miter;stroke-opacity:1" d="M 583.361,14.4202 597.95,31.0924 z" id="boundary" inkscape:connector-curvature="0" />
	<path style="fill:none;stroke:red;stroke-width:1px;stroke-linecap:butt;stroke-linejoin:miter;stroke-opacity:1" d="M 583.361,14.4202 564.605,4 z" id="boundary" inkscape:connector-curvature="0" />
	<path style="fill:none;stroke:red;stroke-width:1px;stroke-linecap:butt;stroke-linejoin:miter;stroke-opacity:1" d="M 597.95,31.0924 610.454,47.7647 z" id="boundary" inkscape:connector-curvature="0" />
	<path style="fill:none;stroke:red;stroke-width:1px;stroke-linecap:butt;stroke-linejoin:miter;stroke-opacity:1" d="M 610.454,47.7647 620.874,66.521 z" id="boundary" inkscape:connector-curvature="0" />
	<path style="fill:none;stroke:red;stroke-width:1px;stroke-linecap:butt;stroke-linejoin:miter;stroke-opacity:1" d="M 418.723,129.042 427.059,108.202 z" id="boundary" inkscape:connector-curvature="0" />
	<path style="fill:none;stroke:red;stroke-width:1px;stroke-linecap:butt;stroke-linejoin:miter;stroke-opacity:1" d="M 427.059,108.202 447.899,97.7815 z" id="boundary" inkscape:connector-curvature="0" />
	<path style="fill:none;stroke:red;stroke-width:1px;stroke-linecap:butt;stroke-linejoin:miter;stroke-opacity:1" d="M 418.723,129.042 399.966,139.462 z" id="boundary" inkscape:connector-curvature="0" />
	<path style="fill:none;stroke:red;stroke-width:1px;stroke-linecap:butt;stroke-linejoin:miter;stroke-opacity:1" d="M 399.966,139.462 383.294,151.966 z" id="boundary" inkscape:connector-curvature="0" />
	<path style="fill:none;stroke:red;stroke-width:1px;stroke-linecap:butt;stroke-linejoin:miter;stroke-opacity:1" d="M 477.076,66.521 493.748,51.9328 z" id="boundary" inkscape:connector-curvature="0" />
	<path style="fill:none;stroke:red;stroke-width:1px;stroke-linecap:butt;stroke-linejoin:miter;stroke-opacity:1" d="M 620.874,66.521 631.294,89.4454 z" id="boundary" inkscape:connector-curvature="0" />
	<path style="fill:none;stroke:red;stroke-width:1px;stroke-linecap:butt;stroke-linejoin:miter;stroke-opacity:1" d="M 458.319,76.9412 477.076,66.521 z" id="boundary" inkscape:connector-curvature="0" />
	<path style="fill:none;stroke:red;stroke-width:1px;stroke-linecap:butt;stroke-linejoin:miter;stroke-opacity:1" d="M 447.899,97.7815 458.319,76.9412 z" id="boundary" inkscape:connector-curvature="0" />
	<path style="fill:none;stroke:red;stroke-width:1px;stroke-linecap:butt;stroke-linejoin:miter;stroke-opacity:1" d="M 647.966,101.95 631.294,89.4454 z" id="boundary" inkscape:connector-curvature="0" />
	<path style="fill:none;stroke:red;stroke-width:1px;stroke-linecap:butt;stroke-linejoin:miter;stroke-opacity:1" d="M 693.815,91.5294 672.975,101.95 z" id="boundary" inkscape:connector-curvature="0" />
	<path style="fill:none;stroke:red;stroke-width:1px;stroke-linecap:butt;stroke-linejoin:miter;stroke-opacity:1" d="M 660.471,118.622 672.975,101.95 z" id="boundary" inkscape:connector-curvature="0" />
	<path style="fill:none;stroke:red;stroke-width:1px;stroke-linecap:butt;stroke-linejoin:miter;stroke-opacity:1" d="M 660.471,118.622 647.966,101.95 z" id="boundary" inkscape:connector-curvature="0" />
	<path style="fill:none;stroke:red;stroke-width:1px;stroke-linecap:butt;stroke-linejoin:miter;stroke-opacity:1" d="M 735.496,104.034 714.655,99.8655 z" id="boundary" inkscape:connector-curvature="0" />
	<path style="fill:none;stroke:red;stroke-width:1px;stroke-linecap:butt;stroke-linejoin:miter;stroke-opacity:1" d="M 735.496,104.034 735.496,124.874 z" id="boundary" inkscape:connector-curvature="0" />
	<path style="fill:none;stroke:red;stroke-width:1px;stroke-linecap:butt;stroke-linejoin:miter;stroke-opacity:1" d="M 752.168,139.462 735.496,124.874 z" id="boundary" inkscape:connector-curvature="0" />
	<path style="fill:none;stroke:red;stroke-width:1px;stroke-linecap:butt;stroke-linejoin:miter;stroke-opacity:1" d="M 764.672,156.134 752.168,139.462 z" id="boundary" inkscape:connector-curvature="0" />
	<path style="fill:none;stroke:red;stroke-width:1px;stroke-linecap:butt;stroke-linejoin:miter;stroke-opacity:1" d="M 781.345,170.723 800.101,160.303 z" id="boundary" inkscape:connector-curvature="0" />
	<path style="fill:none;stroke:red;stroke-width:1px;stroke-linecap:butt;stroke-linejoin:miter;stroke-opacity:1" d="M 800.101,160.303 808.437,181.143 z" id="boundary" inkscape:connector-curvature="0" />
	<path style="fill:none;stroke:red;stroke-width:1px;stroke-linecap:butt;stroke-linejoin:miter;stroke-opacity:1" d="M 781.345,170.723 764.672,156.134 z" id="boundary" inkscape:connector-curvature="0" />
	<path style="fill:none;stroke:red;stroke-width:1px;stroke-linecap:butt;stroke-linejoin:miter;stroke-opacity:1" d="M 818.857,204.067 818.857,224.908 z" id="boundary" inkscape:connector-curvature="0" />
	<path style="fill:none;stroke:red;stroke-width:1px;stroke-linecap:butt;stroke-linejoin:miter;stroke-opacity:1" d="M 818.857,204.067 808.437,181.143 z" id="boundary" inkscape:connector-curvature="0" />
	<path style="fill:none;stroke:red;stroke-width:1px;stroke-linecap:butt;stroke-linejoin:miter;stroke-opacity:1" d="M 808.437,277.008 808.437,256.168 z" id="boundary" inkscape:connector-curvature="0" />
	<path style="fill:none;stroke:red;stroke-width:1px;stroke-linecap:butt;stroke-linejoin:miter;stroke-opacity:1" d="M 818.857,295.765 808.437,277.008 z" id="boundary" inkscape:connector-curvature="0" />
	<path style="fill:none;stroke:red;stroke-width:1px;stroke-linecap:butt;stroke-linejoin:miter;stroke-opacity:1" d="M 818.857,224.908 808.437,256.168 z" id="boundary" inkscape:connector-curvature="0" />
	<path style="fill:none;stroke:red;stroke-width:1px;stroke-linecap:butt;stroke-linejoin:miter;stroke-opacity:1" d="M 531.261,537.513 520.84,556.269 z" id="boundary" inkscape:connector-curvature="0" />
	<path style="fill:none;stroke:red;stroke-width:1px;stroke-linecap:butt;stroke-linejoin:miter;stroke-opacity:1" d="M 520.84,556.269 504.168,568.773 z" id="boundary" inkscape:connector-curvature="0" />
	<path style="fill:none;stroke:red;stroke-width:1px;stroke-linecap:butt;stroke-linejoin:miter;stroke-opacity:1" d="M 472.908,600.034 485.412,579.193 z" id="boundary" inkscape:connector-curvature="0" />
	<path style="fill:none;stroke:red;stroke-width:1px;stroke-linecap:butt;stroke-linejoin:miter;stroke-opacity:1" d="M 485.412,579.193 504.168,568.773 z" id="boundary" inkscape:connector-curvature="0" />
	<path style="fill:none;stroke:red;stroke-width:1px;stroke-linecap:butt;stroke-linejoin:miter;stroke-opacity:1" d="M 472.908,600.034 454.151,610.454 z" id="boundary" inkscape:connector-curvature="0" />
	<path style="fill:none;stroke:red;stroke-width:1px;stroke-linecap:butt;stroke-linejoin:miter;stroke-opacity:1" d="M 531.261,537.513 552.101,545.849 z" id="boundary" inkscape:connector-curvature="0" />
	<path style="fill:none;stroke:red;stroke-width:1px;stroke-linecap:butt;stroke-linejoin:miter;stroke-opacity:1" d="M 572.941,545.849 552.101,545.849 z" id="boundary" inkscape:connector-curvature="0" />
	<path style="fill:none;stroke:red;stroke-width:1px;stroke-linecap:butt;stroke-linejoin:miter;stroke-opacity:1" d="M 572.941,545.849 593.782,545.849 z" id="boundary" inkscape:connector-curvature="0" />
	<path style="fill:none;stroke:red;stroke-width:1px;stroke-linecap:butt;stroke-linejoin:miter;stroke-opacity:1" d="M 614.622,535.429 593.782,545.849 z" id="boundary" inkscape:connector-curvature="0" />
	<path style="fill:none;stroke:red;stroke-width:1px;stroke-linecap:butt;stroke-linejoin:miter;stroke-opacity:1" d="M 381.21,693.815 377.042,720.908 z" id="boundary" inkscape:connector-curvature="0" />
	<path style="fill:none;stroke:red;stroke-width:1px;stroke-linecap:butt;stroke-linejoin:miter;stroke-opacity:1" d="M 374.958,798.017 377.042,825.109 z" id="boundary" inkscape:connector-curvature="0" />
	<path style="fill:none;stroke:red;stroke-width:1px;stroke-linecap:butt;stroke-linejoin:miter;stroke-opacity:1" d="M 377.042,825.109 366.622,845.95 z" id="boundary" inkscape:connector-curvature="0" />
	<path style="fill:none;stroke:red;stroke-width:1px;stroke-linecap:butt;stroke-linejoin:miter;stroke-opacity:1" d="M 381.21,693.815 397.882,679.227 z" id="boundary" inkscape:connector-curvature="0" />
	<path style="fill:none;stroke:red;stroke-width:1px;stroke-linecap:butt;stroke-linejoin:miter;stroke-opacity:1" d="M 443.731,631.294 454.151,610.454 z" id="boundary" inkscape:connector-curvature="0" />
	<path style="fill:none;stroke:red;stroke-width:1px;stroke-linecap:butt;stroke-linejoin:miter;stroke-opacity:1" d="M 443.731,631.294 429.143,647.966 z" id="boundary" inkscape:connector-curvature="0" />
	<path style="fill:none;stroke:red;stroke-width:1px;stroke-linecap:butt;stroke-linejoin:miter;stroke-opacity:1" d="M 412.471,662.555 429.143,647.966 z" id="boundary" inkscape:connector-curvature="0" />
	<path style="fill:none;stroke:red;stroke-width:1px;stroke-linecap:butt;stroke-linejoin:miter;stroke-opacity:1" d="M 397.882,679.227 412.471,662.555 z" id="boundary" inkscape:connector-curvature="0" />
	<path style="fill:none;stroke:red;stroke-width:1px;stroke-linecap:butt;stroke-linejoin:miter;stroke-opacity:1" d="M 731.328,422.891 710.487,422.891 z" id="boundary" inkscape:connector-curvature="0" />
	<path style="fill:none;stroke:red;stroke-width:1px;stroke-linecap:butt;stroke-linejoin:miter;stroke-opacity:1" d="M 710.487,422.891 691.731,412.471 z" id="boundary" inkscape:connector-curvature="0" />
	<path style="fill:none;stroke:red;stroke-width:1px;stroke-linecap:butt;stroke-linejoin:miter;stroke-opacity:1" d="M 672.975,454.151 672.975,422.891 z" id="boundary" inkscape:connector-curvature="0" />
	<path style="fill:none;stroke:red;stroke-width:1px;stroke-linecap:butt;stroke-linejoin:miter;stroke-opacity:1" d="M 672.975,422.891 691.731,412.471 z" id="boundary" inkscape:connector-curvature="0" />
	<path style="fill:none;stroke:red;stroke-width:1px;stroke-linecap:butt;stroke-linejoin:miter;stroke-opacity:1" d="M 787.597,412.471 768.84,422.891 z" id="boundary" inkscape:connector-curvature="0" />
	<path style="fill:none;stroke:red;stroke-width:1px;stroke-linecap:butt;stroke-linejoin:miter;stroke-opacity:1" d="M 804.269,397.882 808.437,370.79 z" id="boundary" inkscape:connector-curvature="0" />
	<path style="fill:none;stroke:red;stroke-width:1px;stroke-linecap:butt;stroke-linejoin:miter;stroke-opacity:1" d="M 808.437,370.79 818.857,349.95 z" id="boundary" inkscape:connector-curvature="0" />
	<path style="fill:none;stroke:red;stroke-width:1px;stroke-linecap:butt;stroke-linejoin:miter;stroke-opacity:1" d="M 804.269,397.882 787.597,412.471 z" id="boundary" inkscape:connector-curvature="0" />
	<path style="fill:none;stroke:red;stroke-width:1px;stroke-linecap:butt;stroke-linejoin:miter;stroke-opacity:1" d="M 818.857,318.689 818.857,349.95 z" id="boundary" inkscape:connector-curvature="0" />
	<path style="fill:none;stroke:red;stroke-width:1px;stroke-linecap:butt;stroke-linejoin:miter;stroke-opacity:1" d="M 662.555,474.992 662.555,495.832 z" id="boundary" inkscape:connector-curvature="0" />
	<path style="fill:none;stroke:red;stroke-width:1px;stroke-linecap:butt;stroke-linejoin:miter;stroke-opacity:1" d="M 662.555,495.832 652.134,516.672 z" id="boundary" inkscape:connector-curvature="0" />
	<path style="fill:none;stroke:red;stroke-width:1px;stroke-linecap:butt;stroke-linejoin:miter;stroke-opacity:1" d="M 614.622,535.429 635.462,535.429 z" id="boundary" inkscape:connector-curvature="0" />
	<path style="fill:none;stroke:red;stroke-width:1px;stroke-linecap:butt;stroke-linejoin:miter;stroke-opacity:1" d="M 652.134,516.672 635.462,535.429 z" id="boundary" inkscape:connector-curvature="0" />
	<path style="fill:none;stroke:red;stroke-width:1px;stroke-linecap:butt;stroke-linejoin:miter;stroke-opacity:1" d="M 768.84,422.891 750.084,433.311 z" id="boundary" inkscape:connector-curvature="0" />
	<path style="fill:none;stroke:red;stroke-width:1px;stroke-linecap:butt;stroke-linejoin:miter;stroke-opacity:1" d="M 750.084,433.311 731.328,422.891 z" id="boundary" inkscape:connector-curvature="0" />
	<path style="fill:none;stroke:red;stroke-width:1px;stroke-linecap:butt;stroke-linejoin:miter;stroke-opacity:1" d="M 662.555,474.992 672.975,454.151 z" id="boundary" inkscape:connector-curvature="0" />
	<path style="fill:none;stroke:red;stroke-width:1px;stroke-linecap:butt;stroke-linejoin:miter;stroke-opacity:1" d="M 818.857,295.765 818.857,318.689 z" id="boundary" inkscape:connector-curvature="0" />
	<circle cx="4" cy="854.286" r="4" fill="#0" id="circle0"/>
	<circle cx="4" cy="875.126" r="4" fill="#0" id="circle1"/>
	<circle cx="14.4202" cy="770.924" r="4" fill="#0" id="circle2"/>
	<circle cx="14.4202" cy="802.185" r="4" fill="#0" id="circle3"/>
	<circle cx="14.4202" cy="833.445" r="4" fill="#0" id="circle4"/>
	<circle cx="20.6723" cy="889.714" r="4" fill="#0" id="circle5"/>
	<circle cx="24.8403" cy="697.983" r="4" fill="#0" id="circle6"/>
	<circle cx="24.8403" cy="948.067" r="4" fill="#0" id="circle7"/>
	<circle cx="35.2605" cy="716.739" r="4" fill="#0" id="circle8"/>
	<circle cx="35.2605" cy="737.58" r="4" fill="#0" id="circle9"/>
	<circle cx="35.2605" cy="758.42" r="4" fill="#0" id="circle10"/>
	<circle cx="35.2605" cy="927.227" r="4" fill="#0" id="circle11"/>
	<circle cx="35.2605" cy="966.824" r="4" fill="#0" id="circle12"/>
	<circle cx="35.2605" cy="987.664" r="4" fill="#0" id="circle13"/>
	<circle cx="39.4286" cy="900.134" r="4" fill="#0" id="circle14"/>
	<circle cx="41.5126" cy="681.311" r="4" fill="#0" id="circle15"/>
	<circle cx="56.1008" cy="989.748" r="4" fill="#0" id="circle16"/>
	<circle cx="62.3529" cy="681.311" r="4" fill="#0" id="circle17"/>
	<circle cx="72.7731" cy="975.16" r="4" fill="#0" id="circle18"/>
	<circle cx="79.0252" cy="664.639" r="4" fill="#0" id="circle19"/>
	<circle cx="93.6134" cy="983.496" r="4" fill="#0" id="circle20"/>
	<circle cx="95.6975" cy="650.05" r="4" fill="#0" id="circle21"/>
	<circle cx="110.286" cy="633.378" r="4" fill="#0" id="circle22"/>
	<circle cx="114.454" cy="985.58" r="4" fill="#0" id="circle23"/>
	<circle cx="126.958" cy="618.79" r="4" fill="#0" id="circle24"/>
	<circle cx="129.042" cy="468.739" r="4" fill="#0" id="circle25"/>
	<circle cx="133.21" cy="996" r="4" fill="#0" id="circle26"/>
	<circle cx="139.462" cy="583.361" r="4" fill="#0" id="circle27"/>
	<circle cx="145.714" cy="452.067" r="4" fill="#0" id="circle28"/>
	<circle cx="149.882" cy="474.992" r="4" fill="#0" id="circle29"/>
	<circle cx="154.05" cy="996" r="4" fill="#0" id="circle30"/>
	<circle cx="160.303" cy="416.639" r="4" fill="#0" id="circle31"/>
	<circle cx="160.303" cy="583.361" r="4" fill="#0" id="circle32"/>
	<circle cx="162.387" cy="491.664" r="4" fill="#0" id="circle33"/>
	<circle cx="174.891" cy="996" r="4" fill="#0" id="circle34"/>
	<circle cx="176.975" cy="399.966" r="4" fill="#0" id="circle35"/>
	<circle cx="176.975" cy="566.689" r="4" fill="#0" id="circle36"/>
	<circle cx="179.059" cy="506.252" r="4" fill="#0" id="circle37"/>
	<circle cx="187.395" cy="527.092" r="4" fill="#0" id="circle38"/>
	<circle cx="193.647" cy="383.294" r="4" fill="#0" id="circle39"/>
	<circle cx="193.647" cy="550.017" r="4" fill="#0" id="circle40"/>
	<circle cx="193.647" cy="985.58" r="4" fill="#0" id="circle41"/>
	<circle cx="204.067" cy="362.454" r="4" fill="#0" id="circle42"/>
	<circle cx="210.319" cy="970.992" r="4" fill="#0" id="circle43"/>
	<circle cx="220.739" cy="347.866" r="4" fill="#0" id="circle44"/>
	<circle cx="224.908" cy="954.319" r="4" fill="#0" id="circle45"/>
	<circle cx="235.328" cy="331.193" r="4" fill="#0" id="circle46"/>
	<circle cx="235.328" cy="902.218" r="4" fill="#0" id="circle47"/>
	<circle cx="235.328" cy="933.479" r="4" fill="#0" id="circle48"/>
	<circle cx="252" cy="316.605" r="4" fill="#0" id="circle49"/>
	<circle cx="256.168" cy="902.218" r="4" fill="#0" id="circle50"/>
	<circle cx="264.504" cy="281.176" r="4" fill="#0" id="circle51"/>
	<circle cx="277.008" cy="902.218" r="4" fill="#0" id="circle52"/>
	<circle cx="281.176" cy="264.504" r="4" fill="#0" id="circle53"/>
	<circle cx="297.849" cy="247.832" r="4" fill="#0" id="circle54"/>
	<circle cx="297.849" cy="902.218" r="4" fill="#0" id="circle55"/>
	<circle cx="314.521" cy="233.244" r="4" fill="#0" id="circle56"/>
	<circle cx="318.689" cy="891.798" r="4" fill="#0" id="circle57"/>
	<circle cx="329.109" cy="216.571" r="4" fill="#0" id="circle58"/>
	<circle cx="339.529" cy="881.378" r="4" fill="#0" id="circle59"/>
	<circle cx="345.782" cy="201.983" r="4" fill="#0" id="circle60"/>
	<circle cx="349.95" cy="860.538" r="4" fill="#0" id="circle61"/>
	<circle cx="354.118" cy="181.143" r="4" fill="#0" id="circle62"/>
	<circle cx="360.37" cy="735.496" r="4" fill="#0" id="circle63"/>
	<circle cx="364.538" cy="756.336" r="4" fill="#0" id="circle64"/>
	<circle cx="366.622" cy="845.95" r="4" fill="#0" id="circle65"/>
	<circle cx="370.79" cy="777.176" r="4" fill="#0" id="circle66"/>
	<circle cx="372.874" cy="170.723" r="4" fill="#0" id="circle67"/>
	<circle cx="374.958" cy="798.017" r="4" fill="#0" id="circle68"/>
	<circle cx="377.042" cy="720.908" r="4" fill="#0" id="circle69"/>
	<circle cx="377.042" cy="825.109" r="4" fill="#0" id="circle70"/>
	<circle cx="381.21" cy="693.815" r="4" fill="#0" id="circle71"/>
	<circle cx="383.294" cy="151.966" r="4" fill="#0" id="circle72"/>
	<circle cx="397.882" cy="679.227" r="4" fill="#0" id="circle73"/>
	<circle cx="399.966" cy="139.462" r="4" fill="#0" id="circle74"/>
	<circle cx="412.471" cy="662.555" r="4" fill="#0" id="circle75"/>
	<circle cx="418.723" cy="129.042" r="4" fill="#0" id="circle76"/>
	<circle cx="427.059" cy="108.202" r="4" fill="#0" id="circle77"/>
	<circle cx="429.143" cy="647.966" r="4" fill="#0" id="circle78"/>
	<circle cx="443.731" cy="631.294" r="4" fill="#0" id="circle79"/>
	<circle cx="447.899" cy="97.7815" r="4" fill="#0" id="circle80"/>
	<circle cx="454.151" cy="610.454" r="4" fill="#0" id="circle81"/>
	<circle cx="458.319" cy="76.9412" r="4" fill="#0" id="circle82"/>
	<circle cx="472.908" cy="600.034" r="4" fill="#0" id="circle83"/>
	<circle cx="477.076" cy="66.521" r="4" fill="#0" id="circle84"/>
	<circle cx="485.412" cy="579.193" r="4" fill="#0" id="circle85"/>
	<circle cx="493.748" cy="51.9328" r="4" fill="#0" id="circle86"/>
	<circle cx="504.168" cy="568.773" r="4" fill="#0" id="circle87"/>
	<circle cx="510.42" cy="35.2605" r="4" fill="#0" id="circle88"/>
	<circle cx="520.84" cy="556.269" r="4" fill="#0" id="circle89"/>
	<circle cx="527.092" cy="18.5882" r="4" fill="#0" id="circle90"/>
	<circle cx="531.261" cy="537.513" r="4" fill="#0" id="circle91"/>
	<circle cx="547.933" cy="18.5882" r="4" fill="#0" id="circle92"/>
	<circle cx="552.101" cy="545.849" r="4" fill="#0" id="circle93"/>
	<circle cx="564.605" cy="4" r="4" fill="#0" id="circle94"/>
	<circle cx="572.941" cy="545.849" r="4" fill="#0" id="circle95"/>
	<circle cx="583.361" cy="14.4202" r="4" fill="#0" id="circle96"/>
	<circle cx="593.782" cy="545.849" r="4" fill="#0" id="circle97"/>
	<circle cx="597.95" cy="31.0924" r="4" fill="#0" id="circle98"/>
	<circle cx="610.454" cy="47.7647" r="4" fill="#0" id="circle99"/>
	<circle cx="614.622" cy="535.429" r="4" fill="#0" id="circle100"/>
	<circle cx="620.874" cy="66.521" r="4" fill="#0" id="circle101"/>
	<circle cx="631.294" cy="89.4454" r="4" fill="#0" id="circle102"/>
	<circle cx="635.462" cy="535.429" r="4" fill="#0" id="circle103"/>
	<circle cx="647.966" cy="101.95" r="4" fill="#0" id="circle104"/>
	<circle cx="652.134" cy="516.672" r="4" fill="#0" id="circle105"/>
	<circle cx="660.471" cy="118.622" r="4" fill="#0" id="circle106"/>
	<circle cx="662.555" cy="474.992" r="4" fill="#0" id="circle107"/>
	<circle cx="662.555" cy="495.832" r="4" fill="#0" id="circle108"/>
	<circle cx="672.975" cy="101.95" r="4" fill="#0" id="circle109"/>
	<circle cx="672.975" cy="422.891" r="4" fill="#0" id="circle110"/>
	<circle cx="672.975" cy="454.151" r="4" fill="#0" id="circle111"/>
	<circle cx="691.731" cy="412.471" r="4" fill="#0" id="circle112"/>
	<circle cx="693.815" cy="91.5294" r="4" fill="#0" id="circle113"/>
	<circle cx="710.487" cy="79.0252" r="4" fill="#0" id="circle114"/>
	<circle cx="710.487" cy="422.891" r="4" fill="#0" id="circle115"/>
	<circle cx="714.655" cy="99.8655" r="4" fill="#0" id="circle116"/>
	<circle cx="731.328" cy="422.891" r="4" fill="#0" id="circle117"/>
	<circle cx="735.496" cy="104.034" r="4" fill="#0" id="circle118"/>
	<circle cx="735.496" cy="124.874" r="4" fill="#0" id="circle119"/>
	<circle cx="750.084" cy="433.311" r="4" fill="#0" id="circle120"/>
	<circle cx="752.168" cy="139.462" r="4" fill="#0" id="circle121"/>
	<circle cx="764.672" cy="156.134" r="4" fill="#0" id="circle122"/>
	<circle cx="768.84" cy="422.891" r="4" fill="#0" id="circle123"/>
	<circle cx="781.345" cy="170.723" r="4" fill="#0" id="circle124"/>
	<circle cx="787.597" cy="412.471" r="4" fill="#0" id="circle125"/>
	<circle cx="800.101" cy="160.303" r="4" fill="#0" id="circle126"/>
	<circle cx="804.269" cy="397.882" r="4" fill="#0" id="circle127"/>
	<circle cx="808.437" cy="181.143" r="4" fill="#0" id="circle128"/>
	<circle cx="808.437" cy="256.168" r="4" fill="#0" id="circle129"/>
	<circle cx="808.437" cy="277.008" r="4" fill="#0" id="circle130"/>
	<circle cx="808.437" cy="370.79" r="4" fill="#0" id="circle131"/>
	<circle cx="818.857" cy="204.067" r="4" fill="#0" id="circle132"/>
	<circle cx="818.857" cy="224.908" r="4" fill="#0" id="circle133"/>
	<circle cx="818.857" cy="295.765" r="4" fill="#0" id="circle134"/>
	<circle cx="818.857" cy="318.689" r="4" fill="#0" id="circle135"/>
	<circle cx="818.857" cy="349.95" r="4" fill="#0" id="circle136"/>
	</g>
</svg>