<?xml version="1.0" encoding="UTF-8" standalone="no"?>
<!-- Created with CurveBenchmark -->
<svg
	xmlns:dc="http://purl.org/dc/elements/1.1/"
	xmlns:cc="http://creativecommons.org/ns#"
	xmlns:rdf="http://www.w3.org/1999/02/22-rdf-syntax-ns#"
	xmlns:svg="http://www.w3.org/2000/svg"
	xmlns="http://www.w3.org/2000/svg"
	xmlns:sodipodi="http://sodipodi.sourceforge.net/DTD/sodipodi-0.dtd"
	xmlns:inkscape="http://www.inkscape.org/namespaces/inkscape"
	width="1000"
	height="1000"
	id="svg2"
	version="1.1"
	sodipodi:docname="manifold/ccrust-camel16.png.txt">
<defs
	id="defs4" />
<metadata
	id="metadata7">
	<rdf:RDF>
		<cc:Work
			rdf:about="">
			<dc:format>image/svg+xml</dc:format>
			<dc:type
				rdf:resource="http://purl.org/dc/dcmitype/StillImage" />
			<dc:title></dc:title>
		</cc:Work>
	</rdf:RDF>
</metadata>
<g
	inkscape:label="Layer 1"
	inkscape:groupmode="layer"
	id="layer1">
	<path style="fill:none;stroke:red;stroke-width:1px;stroke-linecap:butt;stroke-linejoin:miter;stroke-opacity:1" d="M 69.768,98.9982 88.0368,95.3444 z" id="boundary" inkscape:connector-curvature="0" />
	<path style="fill:none;stroke:red;stroke-width:1px;stroke-linecap:butt;stroke-linejoin:miter;stroke-opacity:1" d="M 106.306,91.6906 88.0368,95.3444 z" id="boundary" inkscape:connector-curvature="0" />
	<path style="fill:none;stroke:red;stroke-width:1px;stroke-linecap:butt;stroke-linejoin:miter;stroke-opacity:1" d="M 124.575,86.2099 106.306,91.6906 z" id="boundary" inkscape:connector-curvature="0" />
	<path style="fill:none;stroke:red;stroke-width:1px;stroke-linecap:butt;stroke-linejoin:miter;stroke-opacity:1" d="M 142.843,86.2099 124.575,86.2099 z" id="boundary" inkscape:connector-curvature="0" />
	<path style="fill:none;stroke:red;stroke-width:1px;stroke-linecap:butt;stroke-linejoin:miter;stroke-opacity:1" d="M 159.285,77.0755 142.843,86.2099 z" id="boundary" inkscape:connector-curvature="0" />
	<path style="fill:none;stroke:red;stroke-width:1px;stroke-linecap:butt;stroke-linejoin:miter;stroke-opacity:1" d="M 4,137.363 18.6151,122.748 z" id="boundary" inkscape:connector-curvature="0" />
	<path style="fill:none;stroke:red;stroke-width:1px;stroke-linecap:butt;stroke-linejoin:miter;stroke-opacity:1" d="M 69.768,98.9982 51.4991,104.479 z" id="boundary" inkscape:connector-curvature="0" />
	<path style="fill:none;stroke:red;stroke-width:1px;stroke-linecap:butt;stroke-linejoin:miter;stroke-opacity:1" d="M 51.4991,104.479 33.2302,108.133 z" id="boundary" inkscape:connector-curvature="0" />
	<path style="fill:none;stroke:red;stroke-width:1px;stroke-linecap:butt;stroke-linejoin:miter;stroke-opacity:1" d="M 18.6151,122.748 33.2302,108.133 z" id="boundary" inkscape:connector-curvature="0" />
	<path style="fill:none;stroke:red;stroke-width:1px;stroke-linecap:butt;stroke-linejoin:miter;stroke-opacity:1" d="M 241.495,36.884 256.11,22.2689 z" id="boundary" inkscape:connector-curvature="0" />
	<path style="fill:none;stroke:red;stroke-width:1px;stroke-linecap:butt;stroke-linejoin:miter;stroke-opacity:1" d="M 270.726,7.65378 279.86,24.0958 z" id="boundary" inkscape:connector-curvature="0" />
	<path style="fill:none;stroke:red;stroke-width:1px;stroke-linecap:butt;stroke-linejoin:miter;stroke-opacity:1" d="M 226.88,49.6722 241.495,36.884 z" id="boundary" inkscape:connector-curvature="0" />
	<path style="fill:none;stroke:red;stroke-width:1px;stroke-linecap:butt;stroke-linejoin:miter;stroke-opacity:1" d="M 159.285,77.0755 175.727,67.9411 z" id="boundary" inkscape:connector-curvature="0" />
	<path style="fill:none;stroke:red;stroke-width:1px;stroke-linecap:butt;stroke-linejoin:miter;stroke-opacity:1" d="M 192.169,58.8066 208.611,49.6722 z" id="boundary" inkscape:connector-curvature="0" />
	<path style="fill:none;stroke:red;stroke-width:1px;stroke-linecap:butt;stroke-linejoin:miter;stroke-opacity:1" d="M 208.611,49.6722 226.88,49.6722 z" id="boundary" inkscape:connector-curvature="0" />
	<path style="fill:none;stroke:red;stroke-width:1px;stroke-linecap:butt;stroke-linejoin:miter;stroke-opacity:1" d="M 175.727,67.9411 192.169,58.8066 z" id="boundary" inkscape:connector-curvature="0" />
	<path style="fill:none;stroke:red;stroke-width:1px;stroke-linecap:butt;stroke-linejoin:miter;stroke-opacity:1" d="M 4,155.632 18.6151,168.42 z" id="boundary" inkscape:connector-curvature="0" />
	<path style="fill:none;stroke:red;stroke-width:1px;stroke-linecap:butt;stroke-linejoin:miter;stroke-opacity:1" d="M 4,155.632 4,137.363 z" id="boundary" inkscape:connector-curvature="0" />
	<path style="fill:none;stroke:red;stroke-width:1px;stroke-linecap:butt;stroke-linejoin:miter;stroke-opacity:1" d="M 51.4991,179.381 33.2302,179.381 z" id="boundary" inkscape:connector-curvature="0" />
	<path style="fill:none;stroke:red;stroke-width:1px;stroke-linecap:butt;stroke-linejoin:miter;stroke-opacity:1" d="M 33.2302,179.381 18.6151,168.42 z" id="boundary" inkscape:connector-curvature="0" />
	<path style="fill:none;stroke:red;stroke-width:1px;stroke-linecap:butt;stroke-linejoin:miter;stroke-opacity:1" d="M 77.0755,327.359 67.9411,347.455 z" id="boundary" inkscape:connector-curvature="0" />
	<path style="fill:none;stroke:red;stroke-width:1px;stroke-linecap:butt;stroke-linejoin:miter;stroke-opacity:1" d="M 67.9411,310.917 77.0755,327.359 z" id="boundary" inkscape:connector-curvature="0" />
	<path style="fill:none;stroke:red;stroke-width:1px;stroke-linecap:butt;stroke-linejoin:miter;stroke-opacity:1" d="M 86.2099,371.204 67.9411,365.724 z" id="boundary" inkscape:connector-curvature="0" />
	<path style="fill:none;stroke:red;stroke-width:1px;stroke-linecap:butt;stroke-linejoin:miter;stroke-opacity:1" d="M 67.9411,365.724 67.9411,347.455 z" id="boundary" inkscape:connector-curvature="0" />
	<path style="fill:none;stroke:red;stroke-width:1px;stroke-linecap:butt;stroke-linejoin:miter;stroke-opacity:1" d="M 77.0755,292.648 67.9411,310.917 z" id="boundary" inkscape:connector-curvature="0" />
	<path style="fill:none;stroke:red;stroke-width:1px;stroke-linecap:butt;stroke-linejoin:miter;stroke-opacity:1" d="M 51.4991,179.381 69.768,179.381 z" id="boundary" inkscape:connector-curvature="0" />
	<path style="fill:none;stroke:red;stroke-width:1px;stroke-linecap:butt;stroke-linejoin:miter;stroke-opacity:1" d="M 88.0368,179.381 106.306,183.035 z" id="boundary" inkscape:connector-curvature="0" />
	<path style="fill:none;stroke:red;stroke-width:1px;stroke-linecap:butt;stroke-linejoin:miter;stroke-opacity:1" d="M 88.0368,179.381 69.768,179.381 z" id="boundary" inkscape:connector-curvature="0" />
	<path style="fill:none;stroke:red;stroke-width:1px;stroke-linecap:butt;stroke-linejoin:miter;stroke-opacity:1" d="M 106.306,183.035 122.748,192.169 z" id="boundary" inkscape:connector-curvature="0" />
	<path style="fill:none;stroke:red;stroke-width:1px;stroke-linecap:butt;stroke-linejoin:miter;stroke-opacity:1" d="M 130.055,214.092 122.748,192.169 z" id="boundary" inkscape:connector-curvature="0" />
	<path style="fill:none;stroke:red;stroke-width:1px;stroke-linecap:butt;stroke-linejoin:miter;stroke-opacity:1" d="M 130.055,214.092 115.44,226.88 z" id="boundary" inkscape:connector-curvature="0" />
	<path style="fill:none;stroke:red;stroke-width:1px;stroke-linecap:butt;stroke-linejoin:miter;stroke-opacity:1" d="M 77.0755,292.648 86.2099,274.379 z" id="boundary" inkscape:connector-curvature="0" />
	<path style="fill:none;stroke:red;stroke-width:1px;stroke-linecap:butt;stroke-linejoin:miter;stroke-opacity:1" d="M 86.2099,256.11 86.2099,274.379 z" id="boundary" inkscape:connector-curvature="0" />
	<path style="fill:none;stroke:red;stroke-width:1px;stroke-linecap:butt;stroke-linejoin:miter;stroke-opacity:1" d="M 100.825,241.495 115.44,226.88 z" id="boundary" inkscape:connector-curvature="0" />
	<path style="fill:none;stroke:red;stroke-width:1px;stroke-linecap:butt;stroke-linejoin:miter;stroke-opacity:1" d="M 86.2099,256.11 100.825,241.495 z" id="boundary" inkscape:connector-curvature="0" />
	<path style="fill:none;stroke:red;stroke-width:1px;stroke-linecap:butt;stroke-linejoin:miter;stroke-opacity:1" d="M 279.86,24.0958 279.86,42.3646 z" id="boundary" inkscape:connector-curvature="0" />
	<path style="fill:none;stroke:red;stroke-width:1px;stroke-linecap:butt;stroke-linejoin:miter;stroke-opacity:1" d="M 279.86,42.3646 279.86,60.6335 z" id="boundary" inkscape:connector-curvature="0" />
	<path style="fill:none;stroke:red;stroke-width:1px;stroke-linecap:butt;stroke-linejoin:miter;stroke-opacity:1" d="M 298.129,67.9411 279.86,60.6335 z" id="boundary" inkscape:connector-curvature="0" />
	<path style="fill:none;stroke:red;stroke-width:1px;stroke-linecap:butt;stroke-linejoin:miter;stroke-opacity:1" d="M 415.05,91.6906 405.915,109.959 z" id="boundary" inkscape:connector-curvature="0" />
	<path style="fill:none;stroke:red;stroke-width:1px;stroke-linecap:butt;stroke-linejoin:miter;stroke-opacity:1" d="M 298.129,67.9411 312.744,78.9024 z" id="boundary" inkscape:connector-curvature="0" />
	<path style="fill:none;stroke:red;stroke-width:1px;stroke-linecap:butt;stroke-linejoin:miter;stroke-opacity:1" d="M 312.744,78.9024 316.398,106.306 z" id="boundary" inkscape:connector-curvature="0" />
	<path style="fill:none;stroke:red;stroke-width:1px;stroke-linecap:butt;stroke-linejoin:miter;stroke-opacity:1" d="M 316.398,106.306 325.532,122.748 z" id="boundary" inkscape:connector-curvature="0" />
	<path style="fill:none;stroke:red;stroke-width:1px;stroke-linecap:butt;stroke-linejoin:miter;stroke-opacity:1" d="M 405.915,128.228 396.781,146.497 z" id="boundary" inkscape:connector-curvature="0" />
	<path style="fill:none;stroke:red;stroke-width:1px;stroke-linecap:butt;stroke-linejoin:miter;stroke-opacity:1" d="M 334.667,142.843 325.532,122.748 z" id="boundary" inkscape:connector-curvature="0" />
	<path style="fill:none;stroke:red;stroke-width:1px;stroke-linecap:butt;stroke-linejoin:miter;stroke-opacity:1" d="M 405.915,109.959 405.915,128.228 z" id="boundary" inkscape:connector-curvature="0" />
	<path style="fill:none;stroke:red;stroke-width:1px;stroke-linecap:butt;stroke-linejoin:miter;stroke-opacity:1" d="M 396.781,146.497 387.646,173.901 z" id="boundary" inkscape:connector-curvature="0" />
	<path style="fill:none;stroke:red;stroke-width:1px;stroke-linecap:butt;stroke-linejoin:miter;stroke-opacity:1" d="M 334.667,142.843 334.667,161.112 z" id="boundary" inkscape:connector-curvature="0" />
	<path style="fill:none;stroke:red;stroke-width:1px;stroke-linecap:butt;stroke-linejoin:miter;stroke-opacity:1" d="M 462.549,25.9227 477.164,13.1344 z" id="boundary" inkscape:connector-curvature="0" />
	<path style="fill:none;stroke:red;stroke-width:1px;stroke-linecap:butt;stroke-linejoin:miter;stroke-opacity:1" d="M 477.164,13.1344 495.433,13.1344 z" id="boundary" inkscape:connector-curvature="0" />
	<path style="fill:none;stroke:red;stroke-width:1px;stroke-linecap:butt;stroke-linejoin:miter;stroke-opacity:1" d="M 462.549,25.9227 447.934,40.5378 z" id="boundary" inkscape:connector-curvature="0" />
	<path style="fill:none;stroke:red;stroke-width:1px;stroke-linecap:butt;stroke-linejoin:miter;stroke-opacity:1" d="M 513.702,14.9613 495.433,13.1344 z" id="boundary" inkscape:connector-curvature="0" />
	<path style="fill:none;stroke:red;stroke-width:1px;stroke-linecap:butt;stroke-linejoin:miter;stroke-opacity:1" d="M 415.05,91.6906 424.184,73.4217 z" id="boundary" inkscape:connector-curvature="0" />
	<path style="fill:none;stroke:red;stroke-width:1px;stroke-linecap:butt;stroke-linejoin:miter;stroke-opacity:1" d="M 424.184,73.4217 433.319,55.1529 z" id="boundary" inkscape:connector-curvature="0" />
	<path style="fill:none;stroke:red;stroke-width:1px;stroke-linecap:butt;stroke-linejoin:miter;stroke-opacity:1" d="M 433.319,55.1529 447.934,40.5378 z" id="boundary" inkscape:connector-curvature="0" />
	<path style="fill:none;stroke:red;stroke-width:1px;stroke-linecap:butt;stroke-linejoin:miter;stroke-opacity:1" d="M 307.263,288.994 288.994,298.129 z" id="boundary" inkscape:connector-curvature="0" />
	<path style="fill:none;stroke:red;stroke-width:1px;stroke-linecap:butt;stroke-linejoin:miter;stroke-opacity:1" d="M 341.974,265.245 332.84,283.514 z" id="boundary" inkscape:connector-curvature="0" />
	<path style="fill:none;stroke:red;stroke-width:1px;stroke-linecap:butt;stroke-linejoin:miter;stroke-opacity:1" d="M 316.398,261.591 331.013,248.803 z" id="boundary" inkscape:connector-curvature="0" />
	<path style="fill:none;stroke:red;stroke-width:1px;stroke-linecap:butt;stroke-linejoin:miter;stroke-opacity:1" d="M 332.84,283.514 323.705,301.783 z" id="boundary" inkscape:connector-curvature="0" />
	<path style="fill:none;stroke:red;stroke-width:1px;stroke-linecap:butt;stroke-linejoin:miter;stroke-opacity:1" d="M 323.705,301.783 307.263,288.994 z" id="boundary" inkscape:connector-curvature="0" />
	<path style="fill:none;stroke:red;stroke-width:1px;stroke-linecap:butt;stroke-linejoin:miter;stroke-opacity:1" d="M 279.86,316.398 288.994,298.129 z" id="boundary" inkscape:connector-curvature="0" />
	<path style="fill:none;stroke:red;stroke-width:1px;stroke-linecap:butt;stroke-linejoin:miter;stroke-opacity:1" d="M 305.436,320.052 288.994,332.84 z" id="boundary" inkscape:connector-curvature="0" />
	<path style="fill:none;stroke:red;stroke-width:1px;stroke-linecap:butt;stroke-linejoin:miter;stroke-opacity:1" d="M 288.994,332.84 279.86,316.398 z" id="boundary" inkscape:connector-curvature="0" />
	<path style="fill:none;stroke:red;stroke-width:1px;stroke-linecap:butt;stroke-linejoin:miter;stroke-opacity:1" d="M 305.436,320.052 323.705,301.783 z" id="boundary" inkscape:connector-curvature="0" />
	<path style="fill:none;stroke:red;stroke-width:1px;stroke-linecap:butt;stroke-linejoin:miter;stroke-opacity:1" d="M 334.667,179.381 334.667,197.65 z" id="boundary" inkscape:connector-curvature="0" />
	<path style="fill:none;stroke:red;stroke-width:1px;stroke-linecap:butt;stroke-linejoin:miter;stroke-opacity:1" d="M 334.667,179.381 334.667,161.112 z" id="boundary" inkscape:connector-curvature="0" />
	<path style="fill:none;stroke:red;stroke-width:1px;stroke-linecap:butt;stroke-linejoin:miter;stroke-opacity:1" d="M 387.646,173.901 378.512,192.169 z" id="boundary" inkscape:connector-curvature="0" />
	<path style="fill:none;stroke:red;stroke-width:1px;stroke-linecap:butt;stroke-linejoin:miter;stroke-opacity:1" d="M 369.378,210.438 378.512,192.169 z" id="boundary" inkscape:connector-curvature="0" />
	<path style="fill:none;stroke:red;stroke-width:1px;stroke-linecap:butt;stroke-linejoin:miter;stroke-opacity:1" d="M 360.243,228.707 351.109,246.976 z" id="boundary" inkscape:connector-curvature="0" />
	<path style="fill:none;stroke:red;stroke-width:1px;stroke-linecap:butt;stroke-linejoin:miter;stroke-opacity:1" d="M 334.667,215.919 360.243,228.707 z" id="boundary" inkscape:connector-curvature="0" />
	<path style="fill:none;stroke:red;stroke-width:1px;stroke-linecap:butt;stroke-linejoin:miter;stroke-opacity:1" d="M 369.378,210.438 360.243,228.707 z" id="boundary" inkscape:connector-curvature="0" />
	<path style="fill:none;stroke:red;stroke-width:1px;stroke-linecap:butt;stroke-linejoin:miter;stroke-opacity:1" d="M 334.667,215.919 334.667,197.65 z" id="boundary" inkscape:connector-curvature="0" />
	<path style="fill:none;stroke:red;stroke-width:1px;stroke-linecap:butt;stroke-linejoin:miter;stroke-opacity:1" d="M 515.529,544.759 497.26,544.759 z" id="boundary" inkscape:connector-curvature="0" />
	<path style="fill:none;stroke:red;stroke-width:1px;stroke-linecap:butt;stroke-linejoin:miter;stroke-opacity:1" d="M 86.2099,418.703 77.0755,402.262 z" id="boundary" inkscape:connector-curvature="0" />
	<path style="fill:none;stroke:red;stroke-width:1px;stroke-linecap:butt;stroke-linejoin:miter;stroke-opacity:1" d="M 86.2099,418.703 95.3444,435.145 z" id="boundary" inkscape:connector-curvature="0" />
	<path style="fill:none;stroke:red;stroke-width:1px;stroke-linecap:butt;stroke-linejoin:miter;stroke-opacity:1" d="M 106.306,449.761 95.3444,435.145 z" id="boundary" inkscape:connector-curvature="0" />
	<path style="fill:none;stroke:red;stroke-width:1px;stroke-linecap:butt;stroke-linejoin:miter;stroke-opacity:1" d="M 106.306,449.761 115.44,466.203 z" id="boundary" inkscape:connector-curvature="0" />
	<path style="fill:none;stroke:red;stroke-width:1px;stroke-linecap:butt;stroke-linejoin:miter;stroke-opacity:1" d="M 128.228,480.818 146.497,488.125 z" id="boundary" inkscape:connector-curvature="0" />
	<path style="fill:none;stroke:red;stroke-width:1px;stroke-linecap:butt;stroke-linejoin:miter;stroke-opacity:1" d="M 146.497,488.125 150.151,506.394 z" id="boundary" inkscape:connector-curvature="0" />
	<path style="fill:none;stroke:red;stroke-width:1px;stroke-linecap:butt;stroke-linejoin:miter;stroke-opacity:1" d="M 128.228,480.818 115.44,466.203 z" id="boundary" inkscape:connector-curvature="0" />
	<path style="fill:none;stroke:red;stroke-width:1px;stroke-linecap:butt;stroke-linejoin:miter;stroke-opacity:1" d="M 161.112,521.009 150.151,506.394 z" id="boundary" inkscape:connector-curvature="0" />
	<path style="fill:none;stroke:red;stroke-width:1px;stroke-linecap:butt;stroke-linejoin:miter;stroke-opacity:1" d="M 351.109,524.663 341.974,508.221 z" id="boundary" inkscape:connector-curvature="0" />
	<path style="fill:none;stroke:red;stroke-width:1px;stroke-linecap:butt;stroke-linejoin:miter;stroke-opacity:1" d="M 161.112,521.009 177.554,530.144 z" id="boundary" inkscape:connector-curvature="0" />
	<path style="fill:none;stroke:red;stroke-width:1px;stroke-linecap:butt;stroke-linejoin:miter;stroke-opacity:1" d="M 177.554,530.144 186.689,557.547 z" id="boundary" inkscape:connector-curvature="0" />
	<path style="fill:none;stroke:red;stroke-width:1px;stroke-linecap:butt;stroke-linejoin:miter;stroke-opacity:1" d="M 312.744,541.105 321.878,522.836 z" id="boundary" inkscape:connector-curvature="0" />
	<path style="fill:none;stroke:red;stroke-width:1px;stroke-linecap:butt;stroke-linejoin:miter;stroke-opacity:1" d="M 351.109,524.663 341.974,548.413 z" id="boundary" inkscape:connector-curvature="0" />
	<path style="fill:none;stroke:red;stroke-width:1px;stroke-linecap:butt;stroke-linejoin:miter;stroke-opacity:1" d="M 341.974,548.413 341.974,566.681 z" id="boundary" inkscape:connector-curvature="0" />
	<path style="fill:none;stroke:red;stroke-width:1px;stroke-linecap:butt;stroke-linejoin:miter;stroke-opacity:1" d="M 186.689,557.547 204.958,563.028 z" id="boundary" inkscape:connector-curvature="0" />
	<path style="fill:none;stroke:red;stroke-width:1px;stroke-linecap:butt;stroke-linejoin:miter;stroke-opacity:1" d="M 204.958,563.028 204.958,581.297 z" id="boundary" inkscape:connector-curvature="0" />
	<path style="fill:none;stroke:red;stroke-width:1px;stroke-linecap:butt;stroke-linejoin:miter;stroke-opacity:1" d="M 288.994,572.162 270.726,581.297 z" id="boundary" inkscape:connector-curvature="0" />
	<path style="fill:none;stroke:red;stroke-width:1px;stroke-linecap:butt;stroke-linejoin:miter;stroke-opacity:1" d="M 270.726,581.297 257.937,595.912 z" id="boundary" inkscape:connector-curvature="0" />
	<path style="fill:none;stroke:red;stroke-width:1px;stroke-linecap:butt;stroke-linejoin:miter;stroke-opacity:1" d="M 195.823,612.354 206.785,626.969 z" id="boundary" inkscape:connector-curvature="0" />
	<path style="fill:none;stroke:red;stroke-width:1px;stroke-linecap:butt;stroke-linejoin:miter;stroke-opacity:1" d="M 221.4,614.18 206.785,626.969 z" id="boundary" inkscape:connector-curvature="0" />
	<path style="fill:none;stroke:red;stroke-width:1px;stroke-linecap:butt;stroke-linejoin:miter;stroke-opacity:1" d="M 221.4,614.18 239.669,605.046 z" id="boundary" inkscape:connector-curvature="0" />
	<path style="fill:none;stroke:red;stroke-width:1px;stroke-linecap:butt;stroke-linejoin:miter;stroke-opacity:1" d="M 257.937,595.912 239.669,605.046 z" id="boundary" inkscape:connector-curvature="0" />
	<path style="fill:none;stroke:red;stroke-width:1px;stroke-linecap:butt;stroke-linejoin:miter;stroke-opacity:1" d="M 288.994,572.162 303.61,559.374 z" id="boundary" inkscape:connector-curvature="0" />
	<path style="fill:none;stroke:red;stroke-width:1px;stroke-linecap:butt;stroke-linejoin:miter;stroke-opacity:1" d="M 351.109,873.599 332.84,873.599 z" id="boundary" inkscape:connector-curvature="0" />
	<path style="fill:none;stroke:red;stroke-width:1px;stroke-linecap:butt;stroke-linejoin:miter;stroke-opacity:1" d="M 303.61,559.374 312.744,541.105 z" id="boundary" inkscape:connector-curvature="0" />
	<path style="fill:none;stroke:red;stroke-width:1px;stroke-linecap:butt;stroke-linejoin:miter;stroke-opacity:1" d="M 323.705,822.446 305.436,831.58 z" id="boundary" inkscape:connector-curvature="0" />
	<path style="fill:none;stroke:red;stroke-width:1px;stroke-linecap:butt;stroke-linejoin:miter;stroke-opacity:1" d="M 305.436,831.58 305.436,849.849 z" id="boundary" inkscape:connector-curvature="0" />
	<path style="fill:none;stroke:red;stroke-width:1px;stroke-linecap:butt;stroke-linejoin:miter;stroke-opacity:1" d="M 332.84,873.599 314.571,868.118 z" id="boundary" inkscape:connector-curvature="0" />
	<path style="fill:none;stroke:red;stroke-width:1px;stroke-linecap:butt;stroke-linejoin:miter;stroke-opacity:1" d="M 296.302,868.118 314.571,868.118 z" id="boundary" inkscape:connector-curvature="0" />
	<path style="fill:none;stroke:red;stroke-width:1px;stroke-linecap:butt;stroke-linejoin:miter;stroke-opacity:1" d="M 341.974,566.681 341.974,584.95 z" id="boundary" inkscape:connector-curvature="0" />
	<path style="fill:none;stroke:red;stroke-width:1px;stroke-linecap:butt;stroke-linejoin:miter;stroke-opacity:1" d="M 341.974,584.95 341.974,603.219 z" id="boundary" inkscape:connector-curvature="0" />
	<path style="fill:none;stroke:red;stroke-width:1px;stroke-linecap:butt;stroke-linejoin:miter;stroke-opacity:1" d="M 351.109,637.93 341.974,621.488 z" id="boundary" inkscape:connector-curvature="0" />
	<path style="fill:none;stroke:red;stroke-width:1px;stroke-linecap:butt;stroke-linejoin:miter;stroke-opacity:1" d="M 341.974,621.488 341.974,603.219 z" id="boundary" inkscape:connector-curvature="0" />
	<path style="fill:none;stroke:red;stroke-width:1px;stroke-linecap:butt;stroke-linejoin:miter;stroke-opacity:1" d="M 351.109,637.93 360.243,654.372 z" id="boundary" inkscape:connector-curvature="0" />
	<path style="fill:none;stroke:red;stroke-width:1px;stroke-linecap:butt;stroke-linejoin:miter;stroke-opacity:1" d="M 378.512,654.372 360.243,654.372 z" id="boundary" inkscape:connector-curvature="0" />
	<path style="fill:none;stroke:red;stroke-width:1px;stroke-linecap:butt;stroke-linejoin:miter;stroke-opacity:1" d="M 374.858,679.948 360.243,694.564 z" id="boundary" inkscape:connector-curvature="0" />
	<path style="fill:none;stroke:red;stroke-width:1px;stroke-linecap:butt;stroke-linejoin:miter;stroke-opacity:1" d="M 369.378,711.006 360.243,694.564 z" id="boundary" inkscape:connector-curvature="0" />
	<path style="fill:none;stroke:red;stroke-width:1px;stroke-linecap:butt;stroke-linejoin:miter;stroke-opacity:1" d="M 480.818,572.162 471.683,599.565 z" id="boundary" inkscape:connector-curvature="0" />
	<path style="fill:none;stroke:red;stroke-width:1px;stroke-linecap:butt;stroke-linejoin:miter;stroke-opacity:1" d="M 471.683,617.834 471.683,599.565 z" id="boundary" inkscape:connector-curvature="0" />
	<path style="fill:none;stroke:red;stroke-width:1px;stroke-linecap:butt;stroke-linejoin:miter;stroke-opacity:1" d="M 480.818,572.162 480.818,553.893 z" id="boundary" inkscape:connector-curvature="0" />
	<path style="fill:none;stroke:red;stroke-width:1px;stroke-linecap:butt;stroke-linejoin:miter;stroke-opacity:1" d="M 480.818,553.893 497.26,544.759 z" id="boundary" inkscape:connector-curvature="0" />
	<path style="fill:none;stroke:red;stroke-width:1px;stroke-linecap:butt;stroke-linejoin:miter;stroke-opacity:1" d="M 435.145,663.506 435.145,681.775 z" id="boundary" inkscape:connector-curvature="0" />
	<path style="fill:none;stroke:red;stroke-width:1px;stroke-linecap:butt;stroke-linejoin:miter;stroke-opacity:1" d="M 471.683,617.834 462.549,645.238 z" id="boundary" inkscape:connector-curvature="0" />
	<path style="fill:none;stroke:red;stroke-width:1px;stroke-linecap:butt;stroke-linejoin:miter;stroke-opacity:1" d="M 462.549,645.238 444.28,645.238 z" id="boundary" inkscape:connector-curvature="0" />
	<path style="fill:none;stroke:red;stroke-width:1px;stroke-linecap:butt;stroke-linejoin:miter;stroke-opacity:1" d="M 435.145,663.506 444.28,645.238 z" id="boundary" inkscape:connector-curvature="0" />
	<path style="fill:none;stroke:red;stroke-width:1px;stroke-linecap:butt;stroke-linejoin:miter;stroke-opacity:1" d="M 435.145,709.179 435.145,681.775 z" id="boundary" inkscape:connector-curvature="0" />
	<path style="fill:none;stroke:red;stroke-width:1px;stroke-linecap:butt;stroke-linejoin:miter;stroke-opacity:1" d="M 341.974,813.311 323.705,822.446 z" id="boundary" inkscape:connector-curvature="0" />
	<path style="fill:none;stroke:red;stroke-width:1px;stroke-linecap:butt;stroke-linejoin:miter;stroke-opacity:1" d="M 378.512,745.716 369.378,767.639 z" id="boundary" inkscape:connector-curvature="0" />
	<path style="fill:none;stroke:red;stroke-width:1px;stroke-linecap:butt;stroke-linejoin:miter;stroke-opacity:1" d="M 378.512,727.448 378.512,745.716 z" id="boundary" inkscape:connector-curvature="0" />
	<path style="fill:none;stroke:red;stroke-width:1px;stroke-linecap:butt;stroke-linejoin:miter;stroke-opacity:1" d="M 369.378,711.006 378.512,727.448 z" id="boundary" inkscape:connector-curvature="0" />
	<path style="fill:none;stroke:red;stroke-width:1px;stroke-linecap:butt;stroke-linejoin:miter;stroke-opacity:1" d="M 360.243,795.042 369.378,767.639 z" id="boundary" inkscape:connector-curvature="0" />
	<path style="fill:none;stroke:red;stroke-width:1px;stroke-linecap:butt;stroke-linejoin:miter;stroke-opacity:1" d="M 369.378,873.599 351.109,873.599 z" id="boundary" inkscape:connector-curvature="0" />
	<path style="fill:none;stroke:red;stroke-width:1px;stroke-linecap:butt;stroke-linejoin:miter;stroke-opacity:1" d="M 387.646,873.599 369.378,873.599 z" id="boundary" inkscape:connector-curvature="0" />
	<path style="fill:none;stroke:red;stroke-width:1px;stroke-linecap:butt;stroke-linejoin:miter;stroke-opacity:1" d="M 341.974,813.311 360.243,795.042 z" id="boundary" inkscape:connector-curvature="0" />
	<path style="fill:none;stroke:red;stroke-width:1px;stroke-linecap:butt;stroke-linejoin:miter;stroke-opacity:1" d="M 426.011,791.389 426.011,809.657 z" id="boundary" inkscape:connector-curvature="0" />
	<path style="fill:none;stroke:red;stroke-width:1px;stroke-linecap:butt;stroke-linejoin:miter;stroke-opacity:1" d="M 426.011,791.389 426.011,773.12 z" id="boundary" inkscape:connector-curvature="0" />
	<path style="fill:none;stroke:red;stroke-width:1px;stroke-linecap:butt;stroke-linejoin:miter;stroke-opacity:1" d="M 426.011,773.12 435.145,745.716 z" id="boundary" inkscape:connector-curvature="0" />
	<path style="fill:none;stroke:red;stroke-width:1px;stroke-linecap:butt;stroke-linejoin:miter;stroke-opacity:1" d="M 435.145,727.448 435.145,745.716 z" id="boundary" inkscape:connector-curvature="0" />
	<path style="fill:none;stroke:red;stroke-width:1px;stroke-linecap:butt;stroke-linejoin:miter;stroke-opacity:1" d="M 435.145,727.448 435.145,709.179 z" id="boundary" inkscape:connector-curvature="0" />
	<path style="fill:none;stroke:red;stroke-width:1px;stroke-linecap:butt;stroke-linejoin:miter;stroke-opacity:1" d="M 405.915,873.599 424.184,868.118 z" id="boundary" inkscape:connector-curvature="0" />
	<path style="fill:none;stroke:red;stroke-width:1px;stroke-linecap:butt;stroke-linejoin:miter;stroke-opacity:1" d="M 426.011,846.195 424.184,868.118 z" id="boundary" inkscape:connector-curvature="0" />
	<path style="fill:none;stroke:red;stroke-width:1px;stroke-linecap:butt;stroke-linejoin:miter;stroke-opacity:1" d="M 426.011,827.926 426.011,846.195 z" id="boundary" inkscape:connector-curvature="0" />
	<path style="fill:none;stroke:red;stroke-width:1px;stroke-linecap:butt;stroke-linejoin:miter;stroke-opacity:1" d="M 426.011,827.926 426.011,809.657 z" id="boundary" inkscape:connector-curvature="0" />
	<path style="fill:none;stroke:red;stroke-width:1px;stroke-linecap:butt;stroke-linejoin:miter;stroke-opacity:1" d="M 405.915,873.599 387.646,873.599 z" id="boundary" inkscape:connector-curvature="0" />
	<path style="fill:none;stroke:red;stroke-width:1px;stroke-linecap:butt;stroke-linejoin:miter;stroke-opacity:1" d="M 513.702,14.9613 530.144,24.0958 z" id="boundary" inkscape:connector-curvature="0" />
	<path style="fill:none;stroke:red;stroke-width:1px;stroke-linecap:butt;stroke-linejoin:miter;stroke-opacity:1" d="M 530.144,24.0958 544.759,36.884 z" id="boundary" inkscape:connector-curvature="0" />
	<path style="fill:none;stroke:red;stroke-width:1px;stroke-linecap:butt;stroke-linejoin:miter;stroke-opacity:1" d="M 544.759,36.884 553.893,53.326 z" id="boundary" inkscape:connector-curvature="0" />
	<path style="fill:none;stroke:red;stroke-width:1px;stroke-linecap:butt;stroke-linejoin:miter;stroke-opacity:1" d="M 597.738,91.6906 597.738,73.4217 z" id="boundary" inkscape:connector-curvature="0" />
	<path style="fill:none;stroke:red;stroke-width:1px;stroke-linecap:butt;stroke-linejoin:miter;stroke-opacity:1" d="M 636.103,16.7882 621.488,31.4033 z" id="boundary" inkscape:connector-curvature="0" />
	<path style="fill:none;stroke:red;stroke-width:1px;stroke-linecap:butt;stroke-linejoin:miter;stroke-opacity:1" d="M 650.718,4 636.103,16.7882 z" id="boundary" inkscape:connector-curvature="0" />
	<path style="fill:none;stroke:red;stroke-width:1px;stroke-linecap:butt;stroke-linejoin:miter;stroke-opacity:1" d="M 621.488,31.4033 606.873,46.0184 z" id="boundary" inkscape:connector-curvature="0" />
	<path style="fill:none;stroke:red;stroke-width:1px;stroke-linecap:butt;stroke-linejoin:miter;stroke-opacity:1" d="M 553.893,53.326 563.028,69.768 z" id="boundary" inkscape:connector-curvature="0" />
	<path style="fill:none;stroke:red;stroke-width:1px;stroke-linecap:butt;stroke-linejoin:miter;stroke-opacity:1" d="M 572.162,86.2099 563.028,69.768 z" id="boundary" inkscape:connector-curvature="0" />
	<path style="fill:none;stroke:red;stroke-width:1px;stroke-linecap:butt;stroke-linejoin:miter;stroke-opacity:1" d="M 606.873,46.0184 597.738,73.4217 z" id="boundary" inkscape:connector-curvature="0" />
	<path style="fill:none;stroke:red;stroke-width:1px;stroke-linecap:butt;stroke-linejoin:miter;stroke-opacity:1" d="M 572.162,86.2099 572.162,104.479 z" id="boundary" inkscape:connector-curvature="0" />
	<path style="fill:none;stroke:red;stroke-width:1px;stroke-linecap:butt;stroke-linejoin:miter;stroke-opacity:1" d="M 668.987,4 687.256,4 z" id="boundary" inkscape:connector-curvature="0" />
	<path style="fill:none;stroke:red;stroke-width:1px;stroke-linecap:butt;stroke-linejoin:miter;stroke-opacity:1" d="M 705.525,5.82689 718.313,20.442 z" id="boundary" inkscape:connector-curvature="0" />
	<path style="fill:none;stroke:red;stroke-width:1px;stroke-linecap:butt;stroke-linejoin:miter;stroke-opacity:1" d="M 687.256,4 705.525,5.82689 z" id="boundary" inkscape:connector-curvature="0" />
	<path style="fill:none;stroke:red;stroke-width:1px;stroke-linecap:butt;stroke-linejoin:miter;stroke-opacity:1" d="M 718.313,20.442 732.928,33.2302 z" id="boundary" inkscape:connector-curvature="0" />
	<path style="fill:none;stroke:red;stroke-width:1px;stroke-linecap:butt;stroke-linejoin:miter;stroke-opacity:1" d="M 732.928,33.2302 740.236,51.4991 z" id="boundary" inkscape:connector-curvature="0" />
	<path style="fill:none;stroke:red;stroke-width:1px;stroke-linecap:butt;stroke-linejoin:miter;stroke-opacity:1" d="M 740.236,51.4991 749.37,67.9411 z" id="boundary" inkscape:connector-curvature="0" />
	<path style="fill:none;stroke:red;stroke-width:1px;stroke-linecap:butt;stroke-linejoin:miter;stroke-opacity:1" d="M 754.851,86.2099 749.37,67.9411 z" id="boundary" inkscape:connector-curvature="0" />
	<path style="fill:none;stroke:red;stroke-width:1px;stroke-linecap:butt;stroke-linejoin:miter;stroke-opacity:1" d="M 650.718,4 668.987,4 z" id="boundary" inkscape:connector-curvature="0" />
	<path style="fill:none;stroke:red;stroke-width:1px;stroke-linecap:butt;stroke-linejoin:miter;stroke-opacity:1" d="M 754.851,86.2099 754.851,106.306 z" id="boundary" inkscape:connector-curvature="0" />
	<path style="fill:none;stroke:red;stroke-width:1px;stroke-linecap:butt;stroke-linejoin:miter;stroke-opacity:1" d="M 588.604,113.613 572.162,104.479 z" id="boundary" inkscape:connector-curvature="0" />
	<path style="fill:none;stroke:red;stroke-width:1px;stroke-linecap:butt;stroke-linejoin:miter;stroke-opacity:1" d="M 597.738,91.6906 588.604,113.613 z" id="boundary" inkscape:connector-curvature="0" />
	<path style="fill:none;stroke:red;stroke-width:1px;stroke-linecap:butt;stroke-linejoin:miter;stroke-opacity:1" d="M 606.873,535.624 588.604,539.278 z" id="boundary" inkscape:connector-curvature="0" />
	<path style="fill:none;stroke:red;stroke-width:1px;stroke-linecap:butt;stroke-linejoin:miter;stroke-opacity:1" d="M 621.488,524.663 606.873,535.624 z" id="boundary" inkscape:connector-curvature="0" />
	<path style="fill:none;stroke:red;stroke-width:1px;stroke-linecap:butt;stroke-linejoin:miter;stroke-opacity:1" d="M 533.797,544.759 552.066,544.759 z" id="boundary" inkscape:connector-curvature="0" />
	<path style="fill:none;stroke:red;stroke-width:1px;stroke-linecap:butt;stroke-linejoin:miter;stroke-opacity:1" d="M 533.797,544.759 515.529,544.759 z" id="boundary" inkscape:connector-curvature="0" />
	<path style="fill:none;stroke:red;stroke-width:1px;stroke-linecap:butt;stroke-linejoin:miter;stroke-opacity:1" d="M 588.604,539.278 570.335,544.759 z" id="boundary" inkscape:connector-curvature="0" />
	<path style="fill:none;stroke:red;stroke-width:1px;stroke-linecap:butt;stroke-linejoin:miter;stroke-opacity:1" d="M 570.335,544.759 552.066,544.759 z" id="boundary" inkscape:connector-curvature="0" />
	<path style="fill:none;stroke:red;stroke-width:1px;stroke-linecap:butt;stroke-linejoin:miter;stroke-opacity:1" d="M 763.985,122.748 754.851,106.306 z" id="boundary" inkscape:connector-curvature="0" />
	<path style="fill:none;stroke:red;stroke-width:1px;stroke-linecap:butt;stroke-linejoin:miter;stroke-opacity:1" d="M 639.757,515.529 621.488,524.663 z" id="boundary" inkscape:connector-curvature="0" />
	<path style="fill:none;stroke:red;stroke-width:1px;stroke-linecap:butt;stroke-linejoin:miter;stroke-opacity:1" d="M 661.68,521.009 670.814,537.451 z" id="boundary" inkscape:connector-curvature="0" />
	<path style="fill:none;stroke:red;stroke-width:1px;stroke-linecap:butt;stroke-linejoin:miter;stroke-opacity:1" d="M 670.814,537.451 670.814,557.547 z" id="boundary" inkscape:connector-curvature="0" />
	<path style="fill:none;stroke:red;stroke-width:1px;stroke-linecap:butt;stroke-linejoin:miter;stroke-opacity:1" d="M 679.948,592.258 670.814,575.816 z" id="boundary" inkscape:connector-curvature="0" />
	<path style="fill:none;stroke:red;stroke-width:1px;stroke-linecap:butt;stroke-linejoin:miter;stroke-opacity:1" d="M 670.814,575.816 670.814,557.547 z" id="boundary" inkscape:connector-curvature="0" />
	<path style="fill:none;stroke:red;stroke-width:1px;stroke-linecap:butt;stroke-linejoin:miter;stroke-opacity:1" d="M 763.985,122.748 773.12,139.19 z" id="boundary" inkscape:connector-curvature="0" />
	<path style="fill:none;stroke:red;stroke-width:1px;stroke-linecap:butt;stroke-linejoin:miter;stroke-opacity:1" d="M 782.254,155.632 795.042,170.247 z" id="boundary" inkscape:connector-curvature="0" />
	<path style="fill:none;stroke:red;stroke-width:1px;stroke-linecap:butt;stroke-linejoin:miter;stroke-opacity:1" d="M 782.254,155.632 773.12,139.19 z" id="boundary" inkscape:connector-curvature="0" />
	<path style="fill:none;stroke:red;stroke-width:1px;stroke-linecap:butt;stroke-linejoin:miter;stroke-opacity:1" d="M 795.042,170.247 809.657,183.035 z" id="boundary" inkscape:connector-curvature="0" />
	<path style="fill:none;stroke:red;stroke-width:1px;stroke-linecap:butt;stroke-linejoin:miter;stroke-opacity:1" d="M 809.657,183.035 822.446,197.65 z" id="boundary" inkscape:connector-curvature="0" />
	<path style="fill:none;stroke:red;stroke-width:1px;stroke-linecap:butt;stroke-linejoin:miter;stroke-opacity:1" d="M 837.061,210.438 822.446,197.65 z" id="boundary" inkscape:connector-curvature="0" />
	<path style="fill:none;stroke:red;stroke-width:1px;stroke-linecap:butt;stroke-linejoin:miter;stroke-opacity:1" d="M 853.503,219.573 837.061,210.438 z" id="boundary" inkscape:connector-curvature="0" />
	<path style="fill:none;stroke:red;stroke-width:1px;stroke-linecap:butt;stroke-linejoin:miter;stroke-opacity:1" d="M 891.867,256.11 873.599,250.63 z" id="boundary" inkscape:connector-curvature="0" />
	<path style="fill:none;stroke:red;stroke-width:1px;stroke-linecap:butt;stroke-linejoin:miter;stroke-opacity:1" d="M 873.599,250.63 862.637,236.015 z" id="boundary" inkscape:connector-curvature="0" />
	<path style="fill:none;stroke:red;stroke-width:1px;stroke-linecap:butt;stroke-linejoin:miter;stroke-opacity:1" d="M 862.637,236.015 853.503,219.573 z" id="boundary" inkscape:connector-curvature="0" />
	<path style="fill:none;stroke:red;stroke-width:1px;stroke-linecap:butt;stroke-linejoin:miter;stroke-opacity:1" d="M 899.175,274.379 891.867,256.11 z" id="boundary" inkscape:connector-curvature="0" />
	<path style="fill:none;stroke:red;stroke-width:1px;stroke-linecap:butt;stroke-linejoin:miter;stroke-opacity:1" d="M 910.136,288.994 899.175,274.379 z" id="boundary" inkscape:connector-curvature="0" />
	<path style="fill:none;stroke:red;stroke-width:1px;stroke-linecap:butt;stroke-linejoin:miter;stroke-opacity:1" d="M 910.136,288.994 910.136,316.398 z" id="boundary" inkscape:connector-curvature="0" />
	<path style="fill:none;stroke:red;stroke-width:1px;stroke-linecap:butt;stroke-linejoin:miter;stroke-opacity:1" d="M 919.271,332.84 910.136,316.398 z" id="boundary" inkscape:connector-curvature="0" />
	<path style="fill:none;stroke:red;stroke-width:1px;stroke-linecap:butt;stroke-linejoin:miter;stroke-opacity:1" d="M 910.136,380.339 910.136,352.936 z" id="boundary" inkscape:connector-curvature="0" />
	<path style="fill:none;stroke:red;stroke-width:1px;stroke-linecap:butt;stroke-linejoin:miter;stroke-opacity:1" d="M 910.136,352.936 919.271,332.84 z" id="boundary" inkscape:connector-curvature="0" />
	<path style="fill:none;stroke:red;stroke-width:1px;stroke-linecap:butt;stroke-linejoin:miter;stroke-opacity:1" d="M 919.271,424.184 910.136,407.742 z" id="boundary" inkscape:connector-curvature="0" />
	<path style="fill:none;stroke:red;stroke-width:1px;stroke-linecap:butt;stroke-linejoin:miter;stroke-opacity:1" d="M 910.136,407.742 910.136,380.339 z" id="boundary" inkscape:connector-curvature="0" />
	<path style="fill:none;stroke:red;stroke-width:1px;stroke-linecap:butt;stroke-linejoin:miter;stroke-opacity:1" d="M 928.405,440.626 919.271,424.184 z" id="boundary" inkscape:connector-curvature="0" />
	<path style="fill:none;stroke:red;stroke-width:1px;stroke-linecap:butt;stroke-linejoin:miter;stroke-opacity:1" d="M 827.926,524.663 818.792,508.221 z" id="boundary" inkscape:connector-curvature="0" />
	<path style="fill:none;stroke:red;stroke-width:1px;stroke-linecap:butt;stroke-linejoin:miter;stroke-opacity:1" d="M 846.195,521.009 827.926,524.663 z" id="boundary" inkscape:connector-curvature="0" />
	<path style="fill:none;stroke:red;stroke-width:1px;stroke-linecap:butt;stroke-linejoin:miter;stroke-opacity:1" d="M 818.792,544.759 818.792,563.028 z" id="boundary" inkscape:connector-curvature="0" />
	<path style="fill:none;stroke:red;stroke-width:1px;stroke-linecap:butt;stroke-linejoin:miter;stroke-opacity:1" d="M 846.195,521.009 844.368,539.278 z" id="boundary" inkscape:connector-curvature="0" />
	<path style="fill:none;stroke:red;stroke-width:1px;stroke-linecap:butt;stroke-linejoin:miter;stroke-opacity:1" d="M 862.637,544.759 844.368,539.278 z" id="boundary" inkscape:connector-curvature="0" />
	<path style="fill:none;stroke:red;stroke-width:1px;stroke-linecap:butt;stroke-linejoin:miter;stroke-opacity:1" d="M 818.792,544.759 827.926,524.663 z" id="boundary" inkscape:connector-curvature="0" />
	<path style="fill:none;stroke:red;stroke-width:1px;stroke-linecap:butt;stroke-linejoin:miter;stroke-opacity:1" d="M 862.637,544.759 871.772,561.201 z" id="boundary" inkscape:connector-curvature="0" />
	<path style="fill:none;stroke:red;stroke-width:1px;stroke-linecap:butt;stroke-linejoin:miter;stroke-opacity:1" d="M 928.405,458.895 937.54,475.337 z" id="boundary" inkscape:connector-curvature="0" />
	<path style="fill:none;stroke:red;stroke-width:1px;stroke-linecap:butt;stroke-linejoin:miter;stroke-opacity:1" d="M 928.405,458.895 928.405,440.626 z" id="boundary" inkscape:connector-curvature="0" />
	<path style="fill:none;stroke:red;stroke-width:1px;stroke-linecap:butt;stroke-linejoin:miter;stroke-opacity:1" d="M 946.674,491.779 937.54,475.337 z" id="boundary" inkscape:connector-curvature="0" />
	<path style="fill:none;stroke:red;stroke-width:1px;stroke-linecap:butt;stroke-linejoin:miter;stroke-opacity:1" d="M 957.635,506.394 946.674,491.779 z" id="boundary" inkscape:connector-curvature="0" />
	<path style="fill:none;stroke:red;stroke-width:1px;stroke-linecap:butt;stroke-linejoin:miter;stroke-opacity:1" d="M 972.25,519.182 957.635,506.394 z" id="boundary" inkscape:connector-curvature="0" />
	<path style="fill:none;stroke:red;stroke-width:1px;stroke-linecap:butt;stroke-linejoin:miter;stroke-opacity:1" d="M 880.906,577.643 871.772,561.201 z" id="boundary" inkscape:connector-curvature="0" />
	<path style="fill:none;stroke:red;stroke-width:1px;stroke-linecap:butt;stroke-linejoin:miter;stroke-opacity:1" d="M 972.25,519.182 974.077,537.451 z" id="boundary" inkscape:connector-curvature="0" />
	<path style="fill:none;stroke:red;stroke-width:1px;stroke-linecap:butt;stroke-linejoin:miter;stroke-opacity:1" d="M 983.212,572.162 974.077,555.72 z" id="boundary" inkscape:connector-curvature="0" />
	<path style="fill:none;stroke:red;stroke-width:1px;stroke-linecap:butt;stroke-linejoin:miter;stroke-opacity:1" d="M 974.077,555.72 974.077,537.451 z" id="boundary" inkscape:connector-curvature="0" />
	<path style="fill:none;stroke:red;stroke-width:1px;stroke-linecap:butt;stroke-linejoin:miter;stroke-opacity:1" d="M 818.792,581.297 818.792,563.028 z" id="boundary" inkscape:connector-curvature="0" />
	<path style="fill:none;stroke:red;stroke-width:1px;stroke-linecap:butt;stroke-linejoin:miter;stroke-opacity:1" d="M 983.212,572.162 983.212,590.431 z" id="boundary" inkscape:connector-curvature="0" />
	<path style="fill:none;stroke:red;stroke-width:1px;stroke-linecap:butt;stroke-linejoin:miter;stroke-opacity:1" d="M 670.814,621.488 679.948,592.258 z" id="boundary" inkscape:connector-curvature="0" />
	<path style="fill:none;stroke:red;stroke-width:1px;stroke-linecap:butt;stroke-linejoin:miter;stroke-opacity:1" d="M 679.948,637.93 670.814,621.488 z" id="boundary" inkscape:connector-curvature="0" />
	<path style="fill:none;stroke:red;stroke-width:1px;stroke-linecap:butt;stroke-linejoin:miter;stroke-opacity:1" d="M 679.948,637.93 692.737,652.545 z" id="boundary" inkscape:connector-curvature="0" />
	<path style="fill:none;stroke:red;stroke-width:1px;stroke-linecap:butt;stroke-linejoin:miter;stroke-opacity:1" d="M 711.006,654.372 692.737,652.545 z" id="boundary" inkscape:connector-curvature="0" />
	<path style="fill:none;stroke:red;stroke-width:1px;stroke-linecap:butt;stroke-linejoin:miter;stroke-opacity:1" d="M 716.486,685.429 716.486,703.698 z" id="boundary" inkscape:connector-curvature="0" />
	<path style="fill:none;stroke:red;stroke-width:1px;stroke-linecap:butt;stroke-linejoin:miter;stroke-opacity:1" d="M 711.006,654.372 725.621,665.333 z" id="boundary" inkscape:connector-curvature="0" />
	<path style="fill:none;stroke:red;stroke-width:1px;stroke-linecap:butt;stroke-linejoin:miter;stroke-opacity:1" d="M 725.621,665.333 716.486,685.429 z" id="boundary" inkscape:connector-curvature="0" />
	<path style="fill:none;stroke:red;stroke-width:1px;stroke-linecap:butt;stroke-linejoin:miter;stroke-opacity:1" d="M 716.486,721.967 716.486,703.698 z" id="boundary" inkscape:connector-curvature="0" />
	<path style="fill:none;stroke:red;stroke-width:1px;stroke-linecap:butt;stroke-linejoin:miter;stroke-opacity:1" d="M 725.621,665.333 763.985,672.641 z" id="boundary" inkscape:connector-curvature="0" />
	<path style="fill:none;stroke:red;stroke-width:1px;stroke-linecap:butt;stroke-linejoin:miter;stroke-opacity:1" d="M 809.657,599.565 813.311,617.834 z" id="boundary" inkscape:connector-curvature="0" />
	<path style="fill:none;stroke:red;stroke-width:1px;stroke-linecap:butt;stroke-linejoin:miter;stroke-opacity:1" d="M 796.869,654.372 780.427,663.506 z" id="boundary" inkscape:connector-curvature="0" />
	<path style="fill:none;stroke:red;stroke-width:1px;stroke-linecap:butt;stroke-linejoin:miter;stroke-opacity:1" d="M 813.311,617.834 815.138,650.718 z" id="boundary" inkscape:connector-curvature="0" />
	<path style="fill:none;stroke:red;stroke-width:1px;stroke-linecap:butt;stroke-linejoin:miter;stroke-opacity:1" d="M 815.138,650.718 796.869,654.372 z" id="boundary" inkscape:connector-curvature="0" />
	<path style="fill:none;stroke:red;stroke-width:1px;stroke-linecap:butt;stroke-linejoin:miter;stroke-opacity:1" d="M 809.657,599.565 818.792,581.297 z" id="boundary" inkscape:connector-curvature="0" />
	<path style="fill:none;stroke:red;stroke-width:1px;stroke-linecap:butt;stroke-linejoin:miter;stroke-opacity:1" d="M 745.716,727.448 760.331,714.659 z" id="boundary" inkscape:connector-curvature="0" />
	<path style="fill:none;stroke:red;stroke-width:1px;stroke-linecap:butt;stroke-linejoin:miter;stroke-opacity:1" d="M 745.716,745.716 745.716,727.448 z" id="boundary" inkscape:connector-curvature="0" />
	<path style="fill:none;stroke:red;stroke-width:1px;stroke-linecap:butt;stroke-linejoin:miter;stroke-opacity:1" d="M 763.985,672.641 780.427,663.506 z" id="boundary" inkscape:connector-curvature="0" />
	<path style="fill:none;stroke:red;stroke-width:1px;stroke-linecap:butt;stroke-linejoin:miter;stroke-opacity:1" d="M 769.466,696.39 763.985,672.641 z" id="boundary" inkscape:connector-curvature="0" />
	<path style="fill:none;stroke:red;stroke-width:1px;stroke-linecap:butt;stroke-linejoin:miter;stroke-opacity:1" d="M 769.466,696.39 760.331,714.659 z" id="boundary" inkscape:connector-curvature="0" />
	<path style="fill:none;stroke:red;stroke-width:1px;stroke-linecap:butt;stroke-linejoin:miter;stroke-opacity:1" d="M 716.486,740.236 716.486,721.967 z" id="boundary" inkscape:connector-curvature="0" />
	<path style="fill:none;stroke:red;stroke-width:1px;stroke-linecap:butt;stroke-linejoin:miter;stroke-opacity:1" d="M 689.083,822.446 674.468,835.234 z" id="boundary" inkscape:connector-curvature="0" />
	<path style="fill:none;stroke:red;stroke-width:1px;stroke-linecap:butt;stroke-linejoin:miter;stroke-opacity:1" d="M 698.217,795.042 689.083,822.446 z" id="boundary" inkscape:connector-curvature="0" />
	<path style="fill:none;stroke:red;stroke-width:1px;stroke-linecap:butt;stroke-linejoin:miter;stroke-opacity:1" d="M 674.468,835.234 658.026,844.368 z" id="boundary" inkscape:connector-curvature="0" />
	<path style="fill:none;stroke:red;stroke-width:1px;stroke-linecap:butt;stroke-linejoin:miter;stroke-opacity:1" d="M 643.411,858.983 654.372,873.599 z" id="boundary" inkscape:connector-curvature="0" />
	<path style="fill:none;stroke:red;stroke-width:1px;stroke-linecap:butt;stroke-linejoin:miter;stroke-opacity:1" d="M 643.411,858.983 658.026,844.368 z" id="boundary" inkscape:connector-curvature="0" />
	<path style="fill:none;stroke:red;stroke-width:1px;stroke-linecap:butt;stroke-linejoin:miter;stroke-opacity:1" d="M 690.91,877.252 672.641,873.599 z" id="boundary" inkscape:connector-curvature="0" />
	<path style="fill:none;stroke:red;stroke-width:1px;stroke-linecap:butt;stroke-linejoin:miter;stroke-opacity:1" d="M 654.372,873.599 672.641,873.599 z" id="boundary" inkscape:connector-curvature="0" />
	<path style="fill:none;stroke:red;stroke-width:1px;stroke-linecap:butt;stroke-linejoin:miter;stroke-opacity:1" d="M 690.91,877.252 709.179,882.733 z" id="boundary" inkscape:connector-curvature="0" />
	<path style="fill:none;stroke:red;stroke-width:1px;stroke-linecap:butt;stroke-linejoin:miter;stroke-opacity:1" d="M 707.352,758.505 707.352,776.773 z" id="boundary" inkscape:connector-curvature="0" />
	<path style="fill:none;stroke:red;stroke-width:1px;stroke-linecap:butt;stroke-linejoin:miter;stroke-opacity:1" d="M 707.352,776.773 698.217,795.042 z" id="boundary" inkscape:connector-curvature="0" />
	<path style="fill:none;stroke:red;stroke-width:1px;stroke-linecap:butt;stroke-linejoin:miter;stroke-opacity:1" d="M 745.716,763.985 736.582,782.254 z" id="boundary" inkscape:connector-curvature="0" />
	<path style="fill:none;stroke:red;stroke-width:1px;stroke-linecap:butt;stroke-linejoin:miter;stroke-opacity:1" d="M 707.352,758.505 716.486,740.236 z" id="boundary" inkscape:connector-curvature="0" />
	<path style="fill:none;stroke:red;stroke-width:1px;stroke-linecap:butt;stroke-linejoin:miter;stroke-opacity:1" d="M 736.582,782.254 707.352,776.773 z" id="boundary" inkscape:connector-curvature="0" />
	<path style="fill:none;stroke:red;stroke-width:1px;stroke-linecap:butt;stroke-linejoin:miter;stroke-opacity:1" d="M 745.716,745.716 745.716,763.985 z" id="boundary" inkscape:connector-curvature="0" />
	<path style="fill:none;stroke:red;stroke-width:1px;stroke-linecap:butt;stroke-linejoin:miter;stroke-opacity:1" d="M 736.582,800.523 736.582,782.254 z" id="boundary" inkscape:connector-curvature="0" />
	<path style="fill:none;stroke:red;stroke-width:1px;stroke-linecap:butt;stroke-linejoin:miter;stroke-opacity:1" d="M 709.179,882.733 718.313,864.464 z" id="boundary" inkscape:connector-curvature="0" />
	<path style="fill:none;stroke:red;stroke-width:1px;stroke-linecap:butt;stroke-linejoin:miter;stroke-opacity:1" d="M 727.448,827.926 736.582,800.523 z" id="boundary" inkscape:connector-curvature="0" />
	<path style="fill:none;stroke:red;stroke-width:1px;stroke-linecap:butt;stroke-linejoin:miter;stroke-opacity:1" d="M 727.448,846.195 727.448,827.926 z" id="boundary" inkscape:connector-curvature="0" />
	<path style="fill:none;stroke:red;stroke-width:1px;stroke-linecap:butt;stroke-linejoin:miter;stroke-opacity:1" d="M 727.448,846.195 718.313,864.464 z" id="boundary" inkscape:connector-curvature="0" />
	<path style="fill:none;stroke:red;stroke-width:1px;stroke-linecap:butt;stroke-linejoin:miter;stroke-opacity:1" d="M 880.906,577.643 890.041,594.085 z" id="boundary" inkscape:connector-curvature="0" />
	<path style="fill:none;stroke:red;stroke-width:1px;stroke-linecap:butt;stroke-linejoin:miter;stroke-opacity:1" d="M 899.175,610.527 890.041,594.085 z" id="boundary" inkscape:connector-curvature="0" />
	<path style="fill:none;stroke:red;stroke-width:1px;stroke-linecap:butt;stroke-linejoin:miter;stroke-opacity:1" d="M 899.175,610.527 899.175,630.622 z" id="boundary" inkscape:connector-curvature="0" />
	<path style="fill:none;stroke:red;stroke-width:1px;stroke-linecap:butt;stroke-linejoin:miter;stroke-opacity:1" d="M 899.175,630.622 908.309,647.064 z" id="boundary" inkscape:connector-curvature="0" />
	<path style="fill:none;stroke:red;stroke-width:1px;stroke-linecap:butt;stroke-linejoin:miter;stroke-opacity:1" d="M 926.578,654.372 908.309,647.064 z" id="boundary" inkscape:connector-curvature="0" />
	<path style="fill:none;stroke:red;stroke-width:1px;stroke-linecap:butt;stroke-linejoin:miter;stroke-opacity:1" d="M 935.713,670.814 935.713,689.083 z" id="boundary" inkscape:connector-curvature="0" />
	<path style="fill:none;stroke:red;stroke-width:1px;stroke-linecap:butt;stroke-linejoin:miter;stroke-opacity:1" d="M 935.713,670.814 926.578,654.372 z" id="boundary" inkscape:connector-curvature="0" />
	<path style="fill:none;stroke:red;stroke-width:1px;stroke-linecap:butt;stroke-linejoin:miter;stroke-opacity:1" d="M 983.212,608.7 992.346,625.142 z" id="boundary" inkscape:connector-curvature="0" />
	<path style="fill:none;stroke:red;stroke-width:1px;stroke-linecap:butt;stroke-linejoin:miter;stroke-opacity:1" d="M 983.212,608.7 983.212,590.431 z" id="boundary" inkscape:connector-curvature="0" />
	<path style="fill:none;stroke:red;stroke-width:1px;stroke-linecap:butt;stroke-linejoin:miter;stroke-opacity:1" d="M 992.346,625.142 992.346,645.238 z" id="boundary" inkscape:connector-curvature="0" />
	<path style="fill:none;stroke:red;stroke-width:1px;stroke-linecap:butt;stroke-linejoin:miter;stroke-opacity:1" d="M 992.346,645.238 992.346,663.506 z" id="boundary" inkscape:connector-curvature="0" />
	<path style="fill:none;stroke:red;stroke-width:1px;stroke-linecap:butt;stroke-linejoin:miter;stroke-opacity:1" d="M 926.578,731.101 935.713,707.352 z" id="boundary" inkscape:connector-curvature="0" />
	<path style="fill:none;stroke:red;stroke-width:1px;stroke-linecap:butt;stroke-linejoin:miter;stroke-opacity:1" d="M 983.212,700.044 974.077,727.448 z" id="boundary" inkscape:connector-curvature="0" />
	<path style="fill:none;stroke:red;stroke-width:1px;stroke-linecap:butt;stroke-linejoin:miter;stroke-opacity:1" d="M 992.346,663.506 996,681.775 z" id="boundary" inkscape:connector-curvature="0" />
	<path style="fill:none;stroke:red;stroke-width:1px;stroke-linecap:butt;stroke-linejoin:miter;stroke-opacity:1" d="M 996,681.775 983.212,700.044 z" id="boundary" inkscape:connector-curvature="0" />
	<path style="fill:none;stroke:red;stroke-width:1px;stroke-linecap:butt;stroke-linejoin:miter;stroke-opacity:1" d="M 935.713,707.352 935.713,689.083 z" id="boundary" inkscape:connector-curvature="0" />
	<path style="fill:none;stroke:red;stroke-width:1px;stroke-linecap:butt;stroke-linejoin:miter;stroke-opacity:1" d="M 974.077,745.716 974.077,727.448 z" id="boundary" inkscape:connector-curvature="0" />
	<path style="fill:none;stroke:red;stroke-width:1px;stroke-linecap:butt;stroke-linejoin:miter;stroke-opacity:1" d="M 935.713,882.733 917.444,882.733 z" id="boundary" inkscape:connector-curvature="0" />
	<path style="fill:none;stroke:red;stroke-width:1px;stroke-linecap:butt;stroke-linejoin:miter;stroke-opacity:1" d="M 926.578,758.505 926.578,731.101 z" id="boundary" inkscape:connector-curvature="0" />
	<path style="fill:none;stroke:red;stroke-width:1px;stroke-linecap:butt;stroke-linejoin:miter;stroke-opacity:1" d="M 917.444,804.177 904.656,835.234 z" id="boundary" inkscape:connector-curvature="0" />
	<path style="fill:none;stroke:red;stroke-width:1px;stroke-linecap:butt;stroke-linejoin:miter;stroke-opacity:1" d="M 904.656,835.234 890.041,849.849 z" id="boundary" inkscape:connector-curvature="0" />
	<path style="fill:none;stroke:red;stroke-width:1px;stroke-linecap:butt;stroke-linejoin:miter;stroke-opacity:1" d="M 871.772,868.118 880.906,884.56 z" id="boundary" inkscape:connector-curvature="0" />
	<path style="fill:none;stroke:red;stroke-width:1px;stroke-linecap:butt;stroke-linejoin:miter;stroke-opacity:1" d="M 899.175,882.733 880.906,884.56 z" id="boundary" inkscape:connector-curvature="0" />
	<path style="fill:none;stroke:red;stroke-width:1px;stroke-linecap:butt;stroke-linejoin:miter;stroke-opacity:1" d="M 917.444,882.733 899.175,882.733 z" id="boundary" inkscape:connector-curvature="0" />
	<path style="fill:none;stroke:red;stroke-width:1px;stroke-linecap:butt;stroke-linejoin:miter;stroke-opacity:1" d="M 871.772,868.118 890.041,849.849 z" id="boundary" inkscape:connector-curvature="0" />
	<path style="fill:none;stroke:red;stroke-width:1px;stroke-linecap:butt;stroke-linejoin:miter;stroke-opacity:1" d="M 926.578,758.505 926.578,776.773 z" id="boundary" inkscape:connector-curvature="0" />
	<path style="fill:none;stroke:red;stroke-width:1px;stroke-linecap:butt;stroke-linejoin:miter;stroke-opacity:1" d="M 926.578,776.773 917.444,804.177 z" id="boundary" inkscape:connector-curvature="0" />
	<path style="fill:none;stroke:red;stroke-width:1px;stroke-linecap:butt;stroke-linejoin:miter;stroke-opacity:1" d="M 974.077,745.716 974.077,773.12 z" id="boundary" inkscape:connector-curvature="0" />
	<path style="fill:none;stroke:red;stroke-width:1px;stroke-linecap:butt;stroke-linejoin:miter;stroke-opacity:1" d="M 974.077,773.12 974.077,791.389 z" id="boundary" inkscape:connector-curvature="0" />
	<path style="fill:none;stroke:red;stroke-width:1px;stroke-linecap:butt;stroke-linejoin:miter;stroke-opacity:1" d="M 974.077,809.657 974.077,791.389 z" id="boundary" inkscape:connector-curvature="0" />
	<path style="fill:none;stroke:red;stroke-width:1px;stroke-linecap:butt;stroke-linejoin:miter;stroke-opacity:1" d="M 974.077,809.657 964.943,827.926 z" id="boundary" inkscape:connector-curvature="0" />
	<path style="fill:none;stroke:red;stroke-width:1px;stroke-linecap:butt;stroke-linejoin:miter;stroke-opacity:1" d="M 935.713,882.733 953.982,882.733 z" id="boundary" inkscape:connector-curvature="0" />
	<path style="fill:none;stroke:red;stroke-width:1px;stroke-linecap:butt;stroke-linejoin:miter;stroke-opacity:1" d="M 964.943,864.464 953.982,882.733 z" id="boundary" inkscape:connector-curvature="0" />
	<path style="fill:none;stroke:red;stroke-width:1px;stroke-linecap:butt;stroke-linejoin:miter;stroke-opacity:1" d="M 964.943,846.195 964.943,827.926 z" id="boundary" inkscape:connector-curvature="0" />
	<path style="fill:none;stroke:red;stroke-width:1px;stroke-linecap:butt;stroke-linejoin:miter;stroke-opacity:1" d="M 964.943,864.464 964.943,846.195 z" id="boundary" inkscape:connector-curvature="0" />
	<circle cx="4" cy="137.363" r="4" fill="#0" id="circle0"/>
	<circle cx="4" cy="155.632" r="4" fill="#0" id="circle1"/>
	<circle cx="18.6151" cy="122.748" r="4" fill="#0" id="circle2"/>
	<circle cx="18.6151" cy="168.42" r="4" fill="#0" id="circle3"/>
	<circle cx="33.2302" cy="108.133" r="4" fill="#0" id="circle4"/>
	<circle cx="33.2302" cy="179.381" r="4" fill="#0" id="circle5"/>
	<circle cx="51.4991" cy="104.479" r="4" fill="#0" id="circle6"/>
	<circle cx="51.4991" cy="179.381" r="4" fill="#0" id="circle7"/>
	<circle cx="67.9411" cy="310.917" r="4" fill="#0" id="circle8"/>
	<circle cx="67.9411" cy="347.455" r="4" fill="#0" id="circle9"/>
	<circle cx="67.9411" cy="365.724" r="4" fill="#0" id="circle10"/>
	<circle cx="69.768" cy="98.9982" r="4" fill="#0" id="circle11"/>
	<circle cx="69.768" cy="179.381" r="4" fill="#0" id="circle12"/>
	<circle cx="77.0755" cy="292.648" r="4" fill="#0" id="circle13"/>
	<circle cx="77.0755" cy="327.359" r="4" fill="#0" id="circle14"/>
	<circle cx="77.0755" cy="402.262" r="4" fill="#0" id="circle15"/>
	<circle cx="86.2099" cy="256.11" r="4" fill="#0" id="circle16"/>
	<circle cx="86.2099" cy="274.379" r="4" fill="#0" id="circle17"/>
	<circle cx="86.2099" cy="371.204" r="4" fill="#0" id="circle18"/>
	<circle cx="86.2099" cy="418.703" r="4" fill="#0" id="circle19"/>
	<circle cx="88.0368" cy="95.3444" r="4" fill="#0" id="circle20"/>
	<circle cx="88.0368" cy="179.381" r="4" fill="#0" id="circle21"/>
	<circle cx="95.3444" cy="435.145" r="4" fill="#0" id="circle22"/>
	<circle cx="100.825" cy="241.495" r="4" fill="#0" id="circle23"/>
	<circle cx="106.306" cy="91.6906" r="4" fill="#0" id="circle24"/>
	<circle cx="106.306" cy="183.035" r="4" fill="#0" id="circle25"/>
	<circle cx="106.306" cy="449.761" r="4" fill="#0" id="circle26"/>
	<circle cx="115.44" cy="226.88" r="4" fill="#0" id="circle27"/>
	<circle cx="115.44" cy="466.203" r="4" fill="#0" id="circle28"/>
	<circle cx="122.748" cy="192.169" r="4" fill="#0" id="circle29"/>
	<circle cx="124.575" cy="86.2099" r="4" fill="#0" id="circle30"/>
	<circle cx="128.228" cy="480.818" r="4" fill="#0" id="circle31"/>
	<circle cx="130.055" cy="214.092" r="4" fill="#0" id="circle32"/>
	<circle cx="142.843" cy="86.2099" r="4" fill="#0" id="circle33"/>
	<circle cx="146.497" cy="488.125" r="4" fill="#0" id="circle34"/>
	<circle cx="150.151" cy="506.394" r="4" fill="#0" id="circle35"/>
	<circle cx="159.285" cy="77.0755" r="4" fill="#0" id="circle36"/>
	<circle cx="161.112" cy="521.009" r="4" fill="#0" id="circle37"/>
	<circle cx="175.727" cy="67.9411" r="4" fill="#0" id="circle38"/>
	<circle cx="177.554" cy="530.144" r="4" fill="#0" id="circle39"/>
	<circle cx="186.689" cy="557.547" r="4" fill="#0" id="circle40"/>
	<circle cx="192.169" cy="58.8066" r="4" fill="#0" id="circle41"/>
	<circle cx="195.823" cy="612.354" r="4" fill="#0" id="circle42"/>
	<circle cx="204.958" cy="563.028" r="4" fill="#0" id="circle43"/>
	<circle cx="204.958" cy="581.297" r="4" fill="#0" id="circle44"/>
	<circle cx="206.785" cy="626.969" r="4" fill="#0" id="circle45"/>
	<circle cx="208.611" cy="49.6722" r="4" fill="#0" id="circle46"/>
	<circle cx="221.4" cy="614.18" r="4" fill="#0" id="circle47"/>
	<circle cx="226.88" cy="49.6722" r="4" fill="#0" id="circle48"/>
	<circle cx="239.669" cy="605.046" r="4" fill="#0" id="circle49"/>
	<circle cx="241.495" cy="36.884" r="4" fill="#0" id="circle50"/>
	<circle cx="256.11" cy="22.2689" r="4" fill="#0" id="circle51"/>
	<circle cx="257.937" cy="595.912" r="4" fill="#0" id="circle52"/>
	<circle cx="270.726" cy="7.65378" r="4" fill="#0" id="circle53"/>
	<circle cx="270.726" cy="581.297" r="4" fill="#0" id="circle54"/>
	<circle cx="279.86" cy="24.0958" r="4" fill="#0" id="circle55"/>
	<circle cx="279.86" cy="42.3646" r="4" fill="#0" id="circle56"/>
	<circle cx="279.86" cy="60.6335" r="4" fill="#0" id="circle57"/>
	<circle cx="279.86" cy="316.398" r="4" fill="#0" id="circle58"/>
	<circle cx="288.994" cy="298.129" r="4" fill="#0" id="circle59"/>
	<circle cx="288.994" cy="332.84" r="4" fill="#0" id="circle60"/>
	<circle cx="288.994" cy="572.162" r="4" fill="#0" id="circle61"/>
	<circle cx="296.302" cy="868.118" r="4" fill="#0" id="circle62"/>
	<circle cx="298.129" cy="67.9411" r="4" fill="#0" id="circle63"/>
	<circle cx="303.61" cy="559.374" r="4" fill="#0" id="circle64"/>
	<circle cx="305.436" cy="320.052" r="4" fill="#0" id="circle65"/>
	<circle cx="305.436" cy="831.58" r="4" fill="#0" id="circle66"/>
	<circle cx="305.436" cy="849.849" r="4" fill="#0" id="circle67"/>
	<circle cx="307.263" cy="288.994" r="4" fill="#0" id="circle68"/>
	<circle cx="312.744" cy="78.9024" r="4" fill="#0" id="circle69"/>
	<circle cx="312.744" cy="541.105" r="4" fill="#0" id="circle70"/>
	<circle cx="314.571" cy="868.118" r="4" fill="#0" id="circle71"/>
	<circle cx="316.398" cy="106.306" r="4" fill="#0" id="circle72"/>
	<circle cx="316.398" cy="261.591" r="4" fill="#0" id="circle73"/>
	<circle cx="321.878" cy="522.836" r="4" fill="#0" id="circle74"/>
	<circle cx="323.705" cy="301.783" r="4" fill="#0" id="circle75"/>
	<circle cx="323.705" cy="822.446" r="4" fill="#0" id="circle76"/>
	<circle cx="325.532" cy="122.748" r="4" fill="#0" id="circle77"/>
	<circle cx="325.532" cy="480.818" r="4" fill="#0" id="circle78"/>
	<circle cx="325.532" cy="499.087" r="4" fill="#0" id="circle79"/>
	<circle cx="331.013" cy="248.803" r="4" fill="#0" id="circle80"/>
	<circle cx="332.84" cy="283.514" r="4" fill="#0" id="circle81"/>
	<circle cx="332.84" cy="873.599" r="4" fill="#0" id="circle82"/>
	<circle cx="334.667" cy="142.843" r="4" fill="#0" id="circle83"/>
	<circle cx="334.667" cy="161.112" r="4" fill="#0" id="circle84"/>
	<circle cx="334.667" cy="179.381" r="4" fill="#0" id="circle85"/>
	<circle cx="334.667" cy="197.65" r="4" fill="#0" id="circle86"/>
	<circle cx="334.667" cy="215.919" r="4" fill="#0" id="circle87"/>
	<circle cx="341.974" cy="265.245" r="4" fill="#0" id="circle88"/>
	<circle cx="341.974" cy="489.952" r="4" fill="#0" id="circle89"/>
	<circle cx="341.974" cy="508.221" r="4" fill="#0" id="circle90"/>
	<circle cx="341.974" cy="548.413" r="4" fill="#0" id="circle91"/>
	<circle cx="341.974" cy="566.681" r="4" fill="#0" id="circle92"/>
	<circle cx="341.974" cy="584.95" r="4" fill="#0" id="circle93"/>
	<circle cx="341.974" cy="603.219" r="4" fill="#0" id="circle94"/>
	<circle cx="341.974" cy="621.488" r="4" fill="#0" id="circle95"/>
	<circle cx="341.974" cy="813.311" r="4" fill="#0" id="circle96"/>
	<circle cx="351.109" cy="246.976" r="4" fill="#0" id="circle97"/>
	<circle cx="351.109" cy="524.663" r="4" fill="#0" id="circle98"/>
	<circle cx="351.109" cy="637.93" r="4" fill="#0" id="circle99"/>
	<circle cx="351.109" cy="873.599" r="4" fill="#0" id="circle100"/>
	<circle cx="360.243" cy="228.707" r="4" fill="#0" id="circle101"/>
	<circle cx="360.243" cy="654.372" r="4" fill="#0" id="circle102"/>
	<circle cx="360.243" cy="694.564" r="4" fill="#0" id="circle103"/>
	<circle cx="360.243" cy="795.042" r="4" fill="#0" id="circle104"/>
	<circle cx="369.378" cy="210.438" r="4" fill="#0" id="circle105"/>
	<circle cx="369.378" cy="711.006" r="4" fill="#0" id="circle106"/>
	<circle cx="369.378" cy="767.639" r="4" fill="#0" id="circle107"/>
	<circle cx="369.378" cy="873.599" r="4" fill="#0" id="circle108"/>
	<circle cx="374.858" cy="679.948" r="4" fill="#0" id="circle109"/>
	<circle cx="378.512" cy="192.169" r="4" fill="#0" id="circle110"/>
	<circle cx="378.512" cy="654.372" r="4" fill="#0" id="circle111"/>
	<circle cx="378.512" cy="727.448" r="4" fill="#0" id="circle112"/>
	<circle cx="378.512" cy="745.716" r="4" fill="#0" id="circle113"/>
	<circle cx="387.646" cy="173.901" r="4" fill="#0" id="circle114"/>
	<circle cx="387.646" cy="873.599" r="4" fill="#0" id="circle115"/>
	<circle cx="396.781" cy="146.497" r="4" fill="#0" id="circle116"/>
	<circle cx="405.915" cy="109.959" r="4" fill="#0" id="circle117"/>
	<circle cx="405.915" cy="128.228" r="4" fill="#0" id="circle118"/>
	<circle cx="405.915" cy="873.599" r="4" fill="#0" id="circle119"/>
	<circle cx="415.05" cy="91.6906" r="4" fill="#0" id="circle120"/>
	<circle cx="424.184" cy="73.4217" r="4" fill="#0" id="circle121"/>
	<circle cx="424.184" cy="868.118" r="4" fill="#0" id="circle122"/>
	<circle cx="426.011" cy="773.12" r="4" fill="#0" id="circle123"/>
	<circle cx="426.011" cy="791.389" r="4" fill="#0" id="circle124"/>
	<circle cx="426.011" cy="809.657" r="4" fill="#0" id="circle125"/>
	<circle cx="426.011" cy="827.926" r="4" fill="#0" id="circle126"/>
	<circle cx="426.011" cy="846.195" r="4" fill="#0" id="circle127"/>
	<circle cx="433.319" cy="55.1529" r="4" fill="#0" id="circle128"/>
	<circle cx="435.145" cy="663.506" r="4" fill="#0" id="circle129"/>
	<circle cx="435.145" cy="681.775" r="4" fill="#0" id="circle130"/>
	<circle cx="435.145" cy="709.179" r="4" fill="#0" id="circle131"/>
	<circle cx="435.145" cy="727.448" r="4" fill="#0" id="circle132"/>
	<circle cx="435.145" cy="745.716" r="4" fill="#0" id="circle133"/>
	<circle cx="444.28" cy="645.238" r="4" fill="#0" id="circle134"/>
	<circle cx="447.934" cy="40.5378" r="4" fill="#0" id="circle135"/>
	<circle cx="462.549" cy="25.9227" r="4" fill="#0" id="circle136"/>
	<circle cx="462.549" cy="645.238" r="4" fill="#0" id="circle137"/>
	<circle cx="471.683" cy="599.565" r="4" fill="#0" id="circle138"/>
	<circle cx="471.683" cy="617.834" r="4" fill="#0" id="circle139"/>
	<circle cx="477.164" cy="13.1344" r="4" fill="#0" id="circle140"/>
	<circle cx="480.818" cy="553.893" r="4" fill="#0" id="circle141"/>
	<circle cx="480.818" cy="572.162" r="4" fill="#0" id="circle142"/>
	<circle cx="495.433" cy="13.1344" r="4" fill="#0" id="circle143"/>
	<circle cx="497.26" cy="544.759" r="4" fill="#0" id="circle144"/>
	<circle cx="513.702" cy="14.9613" r="4" fill="#0" id="circle145"/>
	<circle cx="515.529" cy="544.759" r="4" fill="#0" id="circle146"/>
	<circle cx="530.144" cy="24.0958" r="4" fill="#0" id="circle147"/>
	<circle cx="533.797" cy="544.759" r="4" fill="#0" id="circle148"/>
	<circle cx="544.759" cy="36.884" r="4" fill="#0" id="circle149"/>
	<circle cx="552.066" cy="544.759" r="4" fill="#0" id="circle150"/>
	<circle cx="553.893" cy="53.326" r="4" fill="#0" id="circle151"/>
	<circle cx="563.028" cy="69.768" r="4" fill="#0" id="circle152"/>
	<circle cx="570.335" cy="544.759" r="4" fill="#0" id="circle153"/>
	<circle cx="572.162" cy="86.2099" r="4" fill="#0" id="circle154"/>
	<circle cx="572.162" cy="104.479" r="4" fill="#0" id="circle155"/>
	<circle cx="588.604" cy="113.613" r="4" fill="#0" id="circle156"/>
	<circle cx="588.604" cy="539.278" r="4" fill="#0" id="circle157"/>
	<circle cx="597.738" cy="73.4217" r="4" fill="#0" id="circle158"/>
	<circle cx="597.738" cy="91.6906" r="4" fill="#0" id="circle159"/>
	<circle cx="606.873" cy="46.0184" r="4" fill="#0" id="circle160"/>
	<circle cx="606.873" cy="535.624" r="4" fill="#0" id="circle161"/>
	<circle cx="621.488" cy="31.4033" r="4" fill="#0" id="circle162"/>
	<circle cx="621.488" cy="524.663" r="4" fill="#0" id="circle163"/>
	<circle cx="636.103" cy="16.7882" r="4" fill="#0" id="circle164"/>
	<circle cx="639.757" cy="515.529" r="4" fill="#0" id="circle165"/>
	<circle cx="643.411" cy="858.983" r="4" fill="#0" id="circle166"/>
	<circle cx="650.718" cy="4" r="4" fill="#0" id="circle167"/>
	<circle cx="654.372" cy="499.087" r="4" fill="#0" id="circle168"/>
	<circle cx="654.372" cy="873.599" r="4" fill="#0" id="circle169"/>
	<circle cx="658.026" cy="844.368" r="4" fill="#0" id="circle170"/>
	<circle cx="661.68" cy="521.009" r="4" fill="#0" id="circle171"/>
	<circle cx="668.987" cy="4" r="4" fill="#0" id="circle172"/>
	<circle cx="670.814" cy="537.451" r="4" fill="#0" id="circle173"/>
	<circle cx="670.814" cy="557.547" r="4" fill="#0" id="circle174"/>
	<circle cx="670.814" cy="575.816" r="4" fill="#0" id="circle175"/>
	<circle cx="670.814" cy="621.488" r="4" fill="#0" id="circle176"/>
	<circle cx="672.641" cy="873.599" r="4" fill="#0" id="circle177"/>
	<circle cx="674.468" cy="835.234" r="4" fill="#0" id="circle178"/>
	<circle cx="679.948" cy="592.258" r="4" fill="#0" id="circle179"/>
	<circle cx="679.948" cy="637.93" r="4" fill="#0" id="circle180"/>
	<circle cx="687.256" cy="4" r="4" fill="#0" id="circle181"/>
	<circle cx="689.083" cy="822.446" r="4" fill="#0" id="circle182"/>
	<circle cx="690.91" cy="877.252" r="4" fill="#0" id="circle183"/>
	<circle cx="692.737" cy="652.545" r="4" fill="#0" id="circle184"/>
	<circle cx="698.217" cy="795.042" r="4" fill="#0" id="circle185"/>
	<circle cx="705.525" cy="5.82689" r="4" fill="#0" id="circle186"/>
	<circle cx="707.352" cy="758.505" r="4" fill="#0" id="circle187"/>
	<circle cx="707.352" cy="776.773" r="4" fill="#0" id="circle188"/>
	<circle cx="709.179" cy="882.733" r="4" fill="#0" id="circle189"/>
	<circle cx="711.006" cy="654.372" r="4" fill="#0" id="circle190"/>
	<circle cx="716.486" cy="685.429" r="4" fill="#0" id="circle191"/>
	<circle cx="716.486" cy="703.698" r="4" fill="#0" id="circle192"/>
	<circle cx="716.486" cy="721.967" r="4" fill="#0" id="circle193"/>
	<circle cx="716.486" cy="740.236" r="4" fill="#0" id="circle194"/>
	<circle cx="718.313" cy="20.442" r="4" fill="#0" id="circle195"/>
	<circle cx="718.313" cy="864.464" r="4" fill="#0" id="circle196"/>
	<circle cx="725.621" cy="665.333" r="4" fill="#0" id="circle197"/>
	<circle cx="727.448" cy="827.926" r="4" fill="#0" id="circle198"/>
	<circle cx="727.448" cy="846.195" r="4" fill="#0" id="circle199"/>
	<circle cx="732.928" cy="33.2302" r="4" fill="#0" id="circle200"/>
	<circle cx="736.582" cy="782.254" r="4" fill="#0" id="circle201"/>
	<circle cx="736.582" cy="800.523" r="4" fill="#0" id="circle202"/>
	<circle cx="740.236" cy="51.4991" r="4" fill="#0" id="circle203"/>
	<circle cx="745.716" cy="727.448" r="4" fill="#0" id="circle204"/>
	<circle cx="745.716" cy="745.716" r="4" fill="#0" id="circle205"/>
	<circle cx="745.716" cy="763.985" r="4" fill="#0" id="circle206"/>
	<circle cx="749.37" cy="67.9411" r="4" fill="#0" id="circle207"/>
	<circle cx="754.851" cy="86.2099" r="4" fill="#0" id="circle208"/>
	<circle cx="754.851" cy="106.306" r="4" fill="#0" id="circle209"/>
	<circle cx="760.331" cy="714.659" r="4" fill="#0" id="circle210"/>
	<circle cx="763.985" cy="122.748" r="4" fill="#0" id="circle211"/>
	<circle cx="763.985" cy="672.641" r="4" fill="#0" id="circle212"/>
	<circle cx="769.466" cy="696.39" r="4" fill="#0" id="circle213"/>
	<circle cx="773.12" cy="139.19" r="4" fill="#0" id="circle214"/>
	<circle cx="780.427" cy="663.506" r="4" fill="#0" id="circle215"/>
	<circle cx="782.254" cy="155.632" r="4" fill="#0" id="circle216"/>
	<circle cx="795.042" cy="170.247" r="4" fill="#0" id="circle217"/>
	<circle cx="796.869" cy="654.372" r="4" fill="#0" id="circle218"/>
	<circle cx="809.657" cy="183.035" r="4" fill="#0" id="circle219"/>
	<circle cx="809.657" cy="599.565" r="4" fill="#0" id="circle220"/>
	<circle cx="813.311" cy="617.834" r="4" fill="#0" id="circle221"/>
	<circle cx="815.138" cy="650.718" r="4" fill="#0" id="circle222"/>
	<circle cx="818.792" cy="489.952" r="4" fill="#0" id="circle223"/>
	<circle cx="818.792" cy="508.221" r="4" fill="#0" id="circle224"/>
	<circle cx="818.792" cy="544.759" r="4" fill="#0" id="circle225"/>
	<circle cx="818.792" cy="563.028" r="4" fill="#0" id="circle226"/>
	<circle cx="818.792" cy="581.297" r="4" fill="#0" id="circle227"/>
	<circle cx="822.446" cy="197.65" r="4" fill="#0" id="circle228"/>
	<circle cx="827.926" cy="524.663" r="4" fill="#0" id="circle229"/>
	<circle cx="835.234" cy="499.087" r="4" fill="#0" id="circle230"/>
	<circle cx="837.061" cy="210.438" r="4" fill="#0" id="circle231"/>
	<circle cx="844.368" cy="539.278" r="4" fill="#0" id="circle232"/>
	<circle cx="846.195" cy="521.009" r="4" fill="#0" id="circle233"/>
	<circle cx="853.503" cy="219.573" r="4" fill="#0" id="circle234"/>
	<circle cx="862.637" cy="236.015" r="4" fill="#0" id="circle235"/>
	<circle cx="862.637" cy="544.759" r="4" fill="#0" id="circle236"/>
	<circle cx="871.772" cy="561.201" r="4" fill="#0" id="circle237"/>
	<circle cx="871.772" cy="868.118" r="4" fill="#0" id="circle238"/>
	<circle cx="873.599" cy="250.63" r="4" fill="#0" id="circle239"/>
	<circle cx="880.906" cy="577.643" r="4" fill="#0" id="circle240"/>
	<circle cx="880.906" cy="884.56" r="4" fill="#0" id="circle241"/>
	<circle cx="890.041" cy="594.085" r="4" fill="#0" id="circle242"/>
	<circle cx="890.041" cy="849.849" r="4" fill="#0" id="circle243"/>
	<circle cx="891.867" cy="256.11" r="4" fill="#0" id="circle244"/>
	<circle cx="899.175" cy="274.379" r="4" fill="#0" id="circle245"/>
	<circle cx="899.175" cy="610.527" r="4" fill="#0" id="circle246"/>
	<circle cx="899.175" cy="630.622" r="4" fill="#0" id="circle247"/>
	<circle cx="899.175" cy="882.733" r="4" fill="#0" id="circle248"/>
	<circle cx="904.656" cy="835.234" r="4" fill="#0" id="circle249"/>
	<circle cx="908.309" cy="647.064" r="4" fill="#0" id="circle250"/>
	<circle cx="910.136" cy="288.994" r="4" fill="#0" id="circle251"/>
	<circle cx="910.136" cy="316.398" r="4" fill="#0" id="circle252"/>
	<circle cx="910.136" cy="352.936" r="4" fill="#0" id="circle253"/>
	<circle cx="910.136" cy="380.339" r="4" fill="#0" id="circle254"/>
	<circle cx="910.136" cy="407.742" r="4" fill="#0" id="circle255"/>
	<circle cx="917.444" cy="804.177" r="4" fill="#0" id="circle256"/>
	<circle cx="917.444" cy="882.733" r="4" fill="#0" id="circle257"/>
	<circle cx="919.271" cy="332.84" r="4" fill="#0" id="circle258"/>
	<circle cx="919.271" cy="424.184" r="4" fill="#0" id="circle259"/>
	<circle cx="926.578" cy="654.372" r="4" fill="#0" id="circle260"/>
	<circle cx="926.578" cy="731.101" r="4" fill="#0" id="circle261"/>
	<circle cx="926.578" cy="758.505" r="4" fill="#0" id="circle262"/>
	<circle cx="926.578" cy="776.773" r="4" fill="#0" id="circle263"/>
	<circle cx="928.405" cy="440.626" r="4" fill="#0" id="circle264"/>
	<circle cx="928.405" cy="458.895" r="4" fill="#0" id="circle265"/>
	<circle cx="935.713" cy="670.814" r="4" fill="#0" id="circle266"/>
	<circle cx="935.713" cy="689.083" r="4" fill="#0" id="circle267"/>
	<circle cx="935.713" cy="707.352" r="4" fill="#0" id="circle268"/>
	<circle cx="935.713" cy="882.733" r="4" fill="#0" id="circle269"/>
	<circle cx="937.54" cy="475.337" r="4" fill="#0" id="circle270"/>
	<circle cx="946.674" cy="491.779" r="4" fill="#0" id="circle271"/>
	<circle cx="953.982" cy="882.733" r="4" fill="#0" id="circle272"/>
	<circle cx="957.635" cy="506.394" r="4" fill="#0" id="circle273"/>
	<circle cx="964.943" cy="827.926" r="4" fill="#0" id="circle274"/>
	<circle cx="964.943" cy="846.195" r="4" fill="#0" id="circle275"/>
	<circle cx="964.943" cy="864.464" r="4" fill="#0" id="circle276"/>
	<circle cx="972.25" cy="519.182" r="4" fill="#0" id="circle277"/>
	<circle cx="974.077" cy="537.451" r="4" fill="#0" id="circle278"/>
	<circle cx="974.077" cy="555.72" r="4" fill="#0" id="circle279"/>
	<circle cx="974.077" cy="727.448" r="4" fill="#0" id="circle280"/>
	<circle cx="974.077" cy="745.716" r="4" fill="#0" id="circle281"/>
	<circle cx="974.077" cy="773.12" r="4" fill="#0" id="circle282"/>
	<circle cx="974.077" cy="791.389" r="4" fill="#0" id="circle283"/>
	<circle cx="974.077" cy="809.657" r="4" fill="#0" id="circle284"/>
	<circle cx="983.212" cy="572.162" r="4" fill="#0" id="circle285"/>
	<circle cx="983.212" cy="590.431" r="4" fill="#0" id="circle286"/>
	<circle cx="983.212" cy="608.7" r="4" fill="#0" id="circle287"/>
	<circle cx="983.212" cy="700.044" r="4" fill="#0" id="circle288"/>
	<circle cx="992.346" cy="625.142" r="4" fill="#0" id="circle289"/>
	<circle cx="992.346" cy="645.238" r="4" fill="#0" id="circle290"/>
	<circle cx="992.346" cy="663.506" r="4" fill="#0" id="circle291"/>
	<circle cx="996" cy="681.775" r="4" fill="#0" id="circle292"/>
	</g>
</svg>