<?xml version="1.0" encoding="UTF-8" standalone="no"?>
<!-- Created with CurveBenchmark -->
<svg
	xmlns:dc="http://purl.org/dc/elements/1.1/"
	xmlns:cc="http://creativecommons.org/ns#"
	xmlns:rdf="http://www.w3.org/1999/02/22-rdf-syntax-ns#"
	xmlns:svg="http://www.w3.org/2000/svg"
	xmlns="http://www.w3.org/2000/svg"
	xmlns:sodipodi="http://sodipodi.sourceforge.net/DTD/sodipodi-0.dtd"
	xmlns:inkscape="http://www.inkscape.org/namespaces/inkscape"
	width="1000"
	height="1000"
	id="svg2"
	version="1.1"
	sodipodi:docname="manifold/ccrust-bed070.png.txt">
<defs
	id="defs4" />
<metadata
	id="metadata7">
	<rdf:RDF>
		<cc:Work
			rdf:about="">
			<dc:format>image/svg+xml</dc:format>
			<dc:type
				rdf:resource="http://purl.org/dc/dcmitype/StillImage" />
			<dc:title></dc:title>
		</cc:Work>
	</rdf:RDF>
</metadata>
<g
	inkscape:label="Layer 1"
	inkscape:groupmode="layer"
	id="layer1">
	<path style="fill:none;stroke:red;stroke-width:1px;stroke-linecap:butt;stroke-linejoin:miter;stroke-opacity:1" d="M 73.2879,66.5281 88.4974,54.6985 z" id="boundary" inkscape:connector-curvature="0" />
	<path style="fill:none;stroke:red;stroke-width:1px;stroke-linecap:butt;stroke-linejoin:miter;stroke-opacity:1" d="M 98.6371,41.1789 88.4974,54.6985 z" id="boundary" inkscape:connector-curvature="0" />
	<path style="fill:none;stroke:red;stroke-width:1px;stroke-linecap:butt;stroke-linejoin:miter;stroke-opacity:1" d="M 29.3492,96.9472 42.8688,83.4276 z" id="boundary" inkscape:connector-curvature="0" />
	<path style="fill:none;stroke:red;stroke-width:1px;stroke-linecap:butt;stroke-linejoin:miter;stroke-opacity:1" d="M 42.8688,83.4276 58.0784,74.9779 z" id="boundary" inkscape:connector-curvature="0" />
	<path style="fill:none;stroke:red;stroke-width:1px;stroke-linecap:butt;stroke-linejoin:miter;stroke-opacity:1" d="M 73.2879,66.5281 58.0784,74.9779 z" id="boundary" inkscape:connector-curvature="0" />
	<path style="fill:none;stroke:red;stroke-width:1px;stroke-linecap:butt;stroke-linejoin:miter;stroke-opacity:1" d="M 108.777,20.8995 115.537,4 z" id="boundary" inkscape:connector-curvature="0" />
	<path style="fill:none;stroke:red;stroke-width:1px;stroke-linecap:butt;stroke-linejoin:miter;stroke-opacity:1" d="M 115.537,4 132.436,4 z" id="boundary" inkscape:connector-curvature="0" />
	<path style="fill:none;stroke:red;stroke-width:1px;stroke-linecap:butt;stroke-linejoin:miter;stroke-opacity:1" d="M 132.436,4 142.576,17.5196 z" id="boundary" inkscape:connector-curvature="0" />
	<path style="fill:none;stroke:red;stroke-width:1px;stroke-linecap:butt;stroke-linejoin:miter;stroke-opacity:1" d="M 98.6371,41.1789 108.777,20.8995 z" id="boundary" inkscape:connector-curvature="0" />
	<path style="fill:none;stroke:red;stroke-width:1px;stroke-linecap:butt;stroke-linejoin:miter;stroke-opacity:1" d="M 142.576,17.5196 149.336,34.4191 z" id="boundary" inkscape:connector-curvature="0" />
	<path style="fill:none;stroke:red;stroke-width:1px;stroke-linecap:butt;stroke-linejoin:miter;stroke-opacity:1" d="M 162.855,46.2487 149.336,34.4191 z" id="boundary" inkscape:connector-curvature="0" />
	<path style="fill:none;stroke:red;stroke-width:1px;stroke-linecap:butt;stroke-linejoin:miter;stroke-opacity:1" d="M 29.3492,96.9472 15.8296,110.467 z" id="boundary" inkscape:connector-curvature="0" />
	<path style="fill:none;stroke:red;stroke-width:1px;stroke-linecap:butt;stroke-linejoin:miter;stroke-opacity:1" d="M 7.3799,125.676 7.3799,142.576 z" id="boundary" inkscape:connector-curvature="0" />
	<path style="fill:none;stroke:red;stroke-width:1px;stroke-linecap:butt;stroke-linejoin:miter;stroke-opacity:1" d="M 10.7598,159.475 10.7598,176.375 z" id="boundary" inkscape:connector-curvature="0" />
	<path style="fill:none;stroke:red;stroke-width:1px;stroke-linecap:butt;stroke-linejoin:miter;stroke-opacity:1" d="M 7.3799,142.576 10.7598,159.475 z" id="boundary" inkscape:connector-curvature="0" />
	<path style="fill:none;stroke:red;stroke-width:1px;stroke-linecap:butt;stroke-linejoin:miter;stroke-opacity:1" d="M 10.7598,176.375 10.7598,193.274 z" id="boundary" inkscape:connector-curvature="0" />
	<path style="fill:none;stroke:red;stroke-width:1px;stroke-linecap:butt;stroke-linejoin:miter;stroke-opacity:1" d="M 7.3799,125.676 15.8296,110.467 z" id="boundary" inkscape:connector-curvature="0" />
	<path style="fill:none;stroke:red;stroke-width:1px;stroke-linecap:butt;stroke-linejoin:miter;stroke-opacity:1" d="M 10.7598,193.274 10.7598,210.174 z" id="boundary" inkscape:connector-curvature="0" />
	<path style="fill:none;stroke:red;stroke-width:1px;stroke-linecap:butt;stroke-linejoin:miter;stroke-opacity:1" d="M 10.7598,227.073 10.7598,210.174 z" id="boundary" inkscape:connector-curvature="0" />
	<path style="fill:none;stroke:red;stroke-width:1px;stroke-linecap:butt;stroke-linejoin:miter;stroke-opacity:1" d="M 10.7598,227.073 10.7598,243.973 z" id="boundary" inkscape:connector-curvature="0" />
	<path style="fill:none;stroke:red;stroke-width:1px;stroke-linecap:butt;stroke-linejoin:miter;stroke-opacity:1" d="M 10.7598,260.872 10.7598,243.973 z" id="boundary" inkscape:connector-curvature="0" />
	<path style="fill:none;stroke:red;stroke-width:1px;stroke-linecap:butt;stroke-linejoin:miter;stroke-opacity:1" d="M 10.7598,277.772 10.7598,260.872 z" id="boundary" inkscape:connector-curvature="0" />
	<path style="fill:none;stroke:red;stroke-width:1px;stroke-linecap:butt;stroke-linejoin:miter;stroke-opacity:1" d="M 162.855,46.2487 167.925,63.1482 z" id="boundary" inkscape:connector-curvature="0" />
	<path style="fill:none;stroke:red;stroke-width:1px;stroke-linecap:butt;stroke-linejoin:miter;stroke-opacity:1" d="M 181.445,74.9779 167.925,63.1482 z" id="boundary" inkscape:connector-curvature="0" />
	<path style="fill:none;stroke:red;stroke-width:1px;stroke-linecap:butt;stroke-linejoin:miter;stroke-opacity:1" d="M 181.445,74.9779 196.654,83.4276 z" id="boundary" inkscape:connector-curvature="0" />
	<path style="fill:none;stroke:red;stroke-width:1px;stroke-linecap:butt;stroke-linejoin:miter;stroke-opacity:1" d="M 196.654,83.4276 208.484,96.9472 z" id="boundary" inkscape:connector-curvature="0" />
	<path style="fill:none;stroke:red;stroke-width:1px;stroke-linecap:butt;stroke-linejoin:miter;stroke-opacity:1" d="M 222.003,108.777 208.484,96.9472 z" id="boundary" inkscape:connector-curvature="0" />
	<path style="fill:none;stroke:red;stroke-width:1px;stroke-linecap:butt;stroke-linejoin:miter;stroke-opacity:1" d="M 228.763,125.676 222.003,108.777 z" id="boundary" inkscape:connector-curvature="0" />
	<path style="fill:none;stroke:red;stroke-width:1px;stroke-linecap:butt;stroke-linejoin:miter;stroke-opacity:1" d="M 232.143,142.576 228.763,125.676 z" id="boundary" inkscape:connector-curvature="0" />
	<path style="fill:none;stroke:red;stroke-width:1px;stroke-linecap:butt;stroke-linejoin:miter;stroke-opacity:1" d="M 232.143,142.576 222.003,162.855 z" id="boundary" inkscape:connector-curvature="0" />
	<path style="fill:none;stroke:red;stroke-width:1px;stroke-linecap:butt;stroke-linejoin:miter;stroke-opacity:1" d="M 238.903,186.514 222.003,179.755 z" id="boundary" inkscape:connector-curvature="0" />
	<path style="fill:none;stroke:red;stroke-width:1px;stroke-linecap:butt;stroke-linejoin:miter;stroke-opacity:1" d="M 222.003,179.755 222.003,162.855 z" id="boundary" inkscape:connector-curvature="0" />
	<path style="fill:none;stroke:red;stroke-width:1px;stroke-linecap:butt;stroke-linejoin:miter;stroke-opacity:1" d="M 255.802,189.894 238.903,186.514 z" id="boundary" inkscape:connector-curvature="0" />
	<path style="fill:none;stroke:red;stroke-width:1px;stroke-linecap:butt;stroke-linejoin:miter;stroke-opacity:1" d="M 271.012,198.344 255.802,189.894 z" id="boundary" inkscape:connector-curvature="0" />
	<path style="fill:none;stroke:red;stroke-width:1px;stroke-linecap:butt;stroke-linejoin:miter;stroke-opacity:1" d="M 318.33,206.794 301.431,210.174 z" id="boundary" inkscape:connector-curvature="0" />
	<path style="fill:none;stroke:red;stroke-width:1px;stroke-linecap:butt;stroke-linejoin:miter;stroke-opacity:1" d="M 271.012,198.344 284.532,208.484 z" id="boundary" inkscape:connector-curvature="0" />
	<path style="fill:none;stroke:red;stroke-width:1px;stroke-linecap:butt;stroke-linejoin:miter;stroke-opacity:1" d="M 301.431,210.174 284.532,208.484 z" id="boundary" inkscape:connector-curvature="0" />
	<path style="fill:none;stroke:red;stroke-width:1px;stroke-linecap:butt;stroke-linejoin:miter;stroke-opacity:1" d="M 318.33,206.794 335.23,206.794 z" id="boundary" inkscape:connector-curvature="0" />
	<path style="fill:none;stroke:red;stroke-width:1px;stroke-linecap:butt;stroke-linejoin:miter;stroke-opacity:1" d="M 335.23,206.794 352.129,210.174 z" id="boundary" inkscape:connector-curvature="0" />
	<path style="fill:none;stroke:red;stroke-width:1px;stroke-linecap:butt;stroke-linejoin:miter;stroke-opacity:1" d="M 369.029,215.244 352.129,210.174 z" id="boundary" inkscape:connector-curvature="0" />
	<path style="fill:none;stroke:red;stroke-width:1px;stroke-linecap:butt;stroke-linejoin:miter;stroke-opacity:1" d="M 385.928,222.003 369.029,215.244 z" id="boundary" inkscape:connector-curvature="0" />
	<path style="fill:none;stroke:red;stroke-width:1px;stroke-linecap:butt;stroke-linejoin:miter;stroke-opacity:1" d="M 385.928,222.003 401.138,230.453 z" id="boundary" inkscape:connector-curvature="0" />
	<path style="fill:none;stroke:red;stroke-width:1px;stroke-linecap:butt;stroke-linejoin:miter;stroke-opacity:1" d="M 414.658,240.593 401.138,230.453 z" id="boundary" inkscape:connector-curvature="0" />
	<path style="fill:none;stroke:red;stroke-width:1px;stroke-linecap:butt;stroke-linejoin:miter;stroke-opacity:1" d="M 428.177,250.733 414.658,240.593 z" id="boundary" inkscape:connector-curvature="0" />
	<path style="fill:none;stroke:red;stroke-width:1px;stroke-linecap:butt;stroke-linejoin:miter;stroke-opacity:1" d="M 10.7598,294.671 10.7598,277.772 z" id="boundary" inkscape:connector-curvature="0" />
	<path style="fill:none;stroke:red;stroke-width:1px;stroke-linecap:butt;stroke-linejoin:miter;stroke-opacity:1" d="M 7.3799,311.571 7.3799,328.47 z" id="boundary" inkscape:connector-curvature="0" />
	<path style="fill:none;stroke:red;stroke-width:1px;stroke-linecap:butt;stroke-linejoin:miter;stroke-opacity:1" d="M 7.3799,311.571 10.7598,294.671 z" id="boundary" inkscape:connector-curvature="0" />
	<path style="fill:none;stroke:red;stroke-width:1px;stroke-linecap:butt;stroke-linejoin:miter;stroke-opacity:1" d="M 4,416.348 4,399.448 z" id="boundary" inkscape:connector-curvature="0" />
	<path style="fill:none;stroke:red;stroke-width:1px;stroke-linecap:butt;stroke-linejoin:miter;stroke-opacity:1" d="M 7.3799,328.47 7.3799,345.37 z" id="boundary" inkscape:connector-curvature="0" />
	<path style="fill:none;stroke:red;stroke-width:1px;stroke-linecap:butt;stroke-linejoin:miter;stroke-opacity:1" d="M 7.3799,345.37 7.3799,362.269 z" id="boundary" inkscape:connector-curvature="0" />
	<path style="fill:none;stroke:red;stroke-width:1px;stroke-linecap:butt;stroke-linejoin:miter;stroke-opacity:1" d="M 73.2879,458.596 56.3884,455.216 z" id="boundary" inkscape:connector-curvature="0" />
	<path style="fill:none;stroke:red;stroke-width:1px;stroke-linecap:butt;stroke-linejoin:miter;stroke-opacity:1" d="M 7.3799,379.169 7.3799,362.269 z" id="boundary" inkscape:connector-curvature="0" />
	<path style="fill:none;stroke:red;stroke-width:1px;stroke-linecap:butt;stroke-linejoin:miter;stroke-opacity:1" d="M 7.3799,379.169 4,399.448 z" id="boundary" inkscape:connector-curvature="0" />
	<path style="fill:none;stroke:red;stroke-width:1px;stroke-linecap:butt;stroke-linejoin:miter;stroke-opacity:1" d="M 7.3799,450.147 7.3799,433.247 z" id="boundary" inkscape:connector-curvature="0" />
	<path style="fill:none;stroke:red;stroke-width:1px;stroke-linecap:butt;stroke-linejoin:miter;stroke-opacity:1" d="M 7.3799,433.247 4,416.348 z" id="boundary" inkscape:connector-curvature="0" />
	<path style="fill:none;stroke:red;stroke-width:1px;stroke-linecap:butt;stroke-linejoin:miter;stroke-opacity:1" d="M 56.3884,455.216 39.4889,456.906 z" id="boundary" inkscape:connector-curvature="0" />
	<path style="fill:none;stroke:red;stroke-width:1px;stroke-linecap:butt;stroke-linejoin:miter;stroke-opacity:1" d="M 140.886,458.596 123.986,458.596 z" id="boundary" inkscape:connector-curvature="0" />
	<path style="fill:none;stroke:red;stroke-width:1px;stroke-linecap:butt;stroke-linejoin:miter;stroke-opacity:1" d="M 14.1397,494.085 10.7598,467.046 z" id="boundary" inkscape:connector-curvature="0" />
	<path style="fill:none;stroke:red;stroke-width:1px;stroke-linecap:butt;stroke-linejoin:miter;stroke-opacity:1" d="M 10.7598,467.046 7.3799,450.147 z" id="boundary" inkscape:connector-curvature="0" />
	<path style="fill:none;stroke:red;stroke-width:1px;stroke-linecap:butt;stroke-linejoin:miter;stroke-opacity:1" d="M 39.4889,473.806 36.109,500.845 z" id="boundary" inkscape:connector-curvature="0" />
	<path style="fill:none;stroke:red;stroke-width:1px;stroke-linecap:butt;stroke-linejoin:miter;stroke-opacity:1" d="M 14.1397,494.085 14.1397,510.985 z" id="boundary" inkscape:connector-curvature="0" />
	<path style="fill:none;stroke:red;stroke-width:1px;stroke-linecap:butt;stroke-linejoin:miter;stroke-opacity:1" d="M 24.2794,524.504 14.1397,510.985 z" id="boundary" inkscape:connector-curvature="0" />
	<path style="fill:none;stroke:red;stroke-width:1px;stroke-linecap:butt;stroke-linejoin:miter;stroke-opacity:1" d="M 36.109,500.845 41.1789,519.434 z" id="boundary" inkscape:connector-curvature="0" />
	<path style="fill:none;stroke:red;stroke-width:1px;stroke-linecap:butt;stroke-linejoin:miter;stroke-opacity:1" d="M 41.1789,519.434 24.2794,524.504 z" id="boundary" inkscape:connector-curvature="0" />
	<path style="fill:none;stroke:red;stroke-width:1px;stroke-linecap:butt;stroke-linejoin:miter;stroke-opacity:1" d="M 39.4889,456.906 39.4889,473.806 z" id="boundary" inkscape:connector-curvature="0" />
	<path style="fill:none;stroke:red;stroke-width:1px;stroke-linecap:butt;stroke-linejoin:miter;stroke-opacity:1" d="M 73.2879,458.596 90.1874,458.596 z" id="boundary" inkscape:connector-curvature="0" />
	<path style="fill:none;stroke:red;stroke-width:1px;stroke-linecap:butt;stroke-linejoin:miter;stroke-opacity:1" d="M 90.1874,458.596 107.087,458.596 z" id="boundary" inkscape:connector-curvature="0" />
	<path style="fill:none;stroke:red;stroke-width:1px;stroke-linecap:butt;stroke-linejoin:miter;stroke-opacity:1" d="M 107.087,458.596 123.986,458.596 z" id="boundary" inkscape:connector-curvature="0" />
	<path style="fill:none;stroke:red;stroke-width:1px;stroke-linecap:butt;stroke-linejoin:miter;stroke-opacity:1" d="M 140.886,458.596 157.785,458.596 z" id="boundary" inkscape:connector-curvature="0" />
	<path style="fill:none;stroke:red;stroke-width:1px;stroke-linecap:butt;stroke-linejoin:miter;stroke-opacity:1" d="M 174.685,458.596 191.584,458.596 z" id="boundary" inkscape:connector-curvature="0" />
	<path style="fill:none;stroke:red;stroke-width:1px;stroke-linecap:butt;stroke-linejoin:miter;stroke-opacity:1" d="M 191.584,458.596 203.414,472.116 z" id="boundary" inkscape:connector-curvature="0" />
	<path style="fill:none;stroke:red;stroke-width:1px;stroke-linecap:butt;stroke-linejoin:miter;stroke-opacity:1" d="M 174.685,458.596 157.785,458.596 z" id="boundary" inkscape:connector-curvature="0" />
	<path style="fill:none;stroke:red;stroke-width:1px;stroke-linecap:butt;stroke-linejoin:miter;stroke-opacity:1" d="M 262.562,458.596 279.462,458.596 z" id="boundary" inkscape:connector-curvature="0" />
	<path style="fill:none;stroke:red;stroke-width:1px;stroke-linecap:butt;stroke-linejoin:miter;stroke-opacity:1" d="M 262.562,458.596 245.663,458.596 z" id="boundary" inkscape:connector-curvature="0" />
	<path style="fill:none;stroke:red;stroke-width:1px;stroke-linecap:butt;stroke-linejoin:miter;stroke-opacity:1" d="M 279.462,458.596 296.361,458.596 z" id="boundary" inkscape:connector-curvature="0" />
	<path style="fill:none;stroke:red;stroke-width:1px;stroke-linecap:butt;stroke-linejoin:miter;stroke-opacity:1" d="M 313.261,458.596 330.16,458.596 z" id="boundary" inkscape:connector-curvature="0" />
	<path style="fill:none;stroke:red;stroke-width:1px;stroke-linecap:butt;stroke-linejoin:miter;stroke-opacity:1" d="M 313.261,458.596 296.361,458.596 z" id="boundary" inkscape:connector-curvature="0" />
	<path style="fill:none;stroke:red;stroke-width:1px;stroke-linecap:butt;stroke-linejoin:miter;stroke-opacity:1" d="M 330.16,458.596 347.06,458.596 z" id="boundary" inkscape:connector-curvature="0" />
	<path style="fill:none;stroke:red;stroke-width:1px;stroke-linecap:butt;stroke-linejoin:miter;stroke-opacity:1" d="M 245.663,458.596 228.763,460.286 z" id="boundary" inkscape:connector-curvature="0" />
	<path style="fill:none;stroke:red;stroke-width:1px;stroke-linecap:butt;stroke-linejoin:miter;stroke-opacity:1" d="M 228.763,477.186 225.383,497.465 z" id="boundary" inkscape:connector-curvature="0" />
	<path style="fill:none;stroke:red;stroke-width:1px;stroke-linecap:butt;stroke-linejoin:miter;stroke-opacity:1" d="M 225.383,497.465 203.414,504.225 z" id="boundary" inkscape:connector-curvature="0" />
	<path style="fill:none;stroke:red;stroke-width:1px;stroke-linecap:butt;stroke-linejoin:miter;stroke-opacity:1" d="M 208.484,521.124 203.414,504.225 z" id="boundary" inkscape:connector-curvature="0" />
	<path style="fill:none;stroke:red;stroke-width:1px;stroke-linecap:butt;stroke-linejoin:miter;stroke-opacity:1" d="M 225.383,524.504 208.484,521.124 z" id="boundary" inkscape:connector-curvature="0" />
	<path style="fill:none;stroke:red;stroke-width:1px;stroke-linecap:butt;stroke-linejoin:miter;stroke-opacity:1" d="M 228.763,460.286 228.763,477.186 z" id="boundary" inkscape:connector-curvature="0" />
	<path style="fill:none;stroke:red;stroke-width:1px;stroke-linecap:butt;stroke-linejoin:miter;stroke-opacity:1" d="M 363.959,458.596 380.859,458.596 z" id="boundary" inkscape:connector-curvature="0" />
	<path style="fill:none;stroke:red;stroke-width:1px;stroke-linecap:butt;stroke-linejoin:miter;stroke-opacity:1" d="M 363.959,458.596 347.06,458.596 z" id="boundary" inkscape:connector-curvature="0" />
	<path style="fill:none;stroke:red;stroke-width:1px;stroke-linecap:butt;stroke-linejoin:miter;stroke-opacity:1" d="M 380.859,458.596 397.758,458.596 z" id="boundary" inkscape:connector-curvature="0" />
	<path style="fill:none;stroke:red;stroke-width:1px;stroke-linecap:butt;stroke-linejoin:miter;stroke-opacity:1" d="M 414.658,458.596 431.557,458.596 z" id="boundary" inkscape:connector-curvature="0" />
	<path style="fill:none;stroke:red;stroke-width:1px;stroke-linecap:butt;stroke-linejoin:miter;stroke-opacity:1" d="M 397.758,458.596 414.658,458.596 z" id="boundary" inkscape:connector-curvature="0" />
	<path style="fill:none;stroke:red;stroke-width:1px;stroke-linecap:butt;stroke-linejoin:miter;stroke-opacity:1" d="M 431.557,458.596 448.457,458.596 z" id="boundary" inkscape:connector-curvature="0" />
	<path style="fill:none;stroke:red;stroke-width:1px;stroke-linecap:butt;stroke-linejoin:miter;stroke-opacity:1" d="M 428.177,250.733 438.317,264.252 z" id="boundary" inkscape:connector-curvature="0" />
	<path style="fill:none;stroke:red;stroke-width:1px;stroke-linecap:butt;stroke-linejoin:miter;stroke-opacity:1" d="M 450.147,277.772 460.286,291.291 z" id="boundary" inkscape:connector-curvature="0" />
	<path style="fill:none;stroke:red;stroke-width:1px;stroke-linecap:butt;stroke-linejoin:miter;stroke-opacity:1" d="M 507.605,301.431 490.705,301.431 z" id="boundary" inkscape:connector-curvature="0" />
	<path style="fill:none;stroke:red;stroke-width:1px;stroke-linecap:butt;stroke-linejoin:miter;stroke-opacity:1" d="M 490.705,301.431 473.806,301.431 z" id="boundary" inkscape:connector-curvature="0" />
	<path style="fill:none;stroke:red;stroke-width:1px;stroke-linecap:butt;stroke-linejoin:miter;stroke-opacity:1" d="M 473.806,301.431 460.286,291.291 z" id="boundary" inkscape:connector-curvature="0" />
	<path style="fill:none;stroke:red;stroke-width:1px;stroke-linecap:butt;stroke-linejoin:miter;stroke-opacity:1" d="M 450.147,277.772 438.317,264.252 z" id="boundary" inkscape:connector-curvature="0" />
	<path style="fill:none;stroke:red;stroke-width:1px;stroke-linecap:butt;stroke-linejoin:miter;stroke-opacity:1" d="M 524.504,301.431 507.605,301.431 z" id="boundary" inkscape:connector-curvature="0" />
	<path style="fill:none;stroke:red;stroke-width:1px;stroke-linecap:butt;stroke-linejoin:miter;stroke-opacity:1" d="M 575.203,301.431 558.303,301.431 z" id="boundary" inkscape:connector-curvature="0" />
	<path style="fill:none;stroke:red;stroke-width:1px;stroke-linecap:butt;stroke-linejoin:miter;stroke-opacity:1" d="M 541.404,301.431 558.303,301.431 z" id="boundary" inkscape:connector-curvature="0" />
	<path style="fill:none;stroke:red;stroke-width:1px;stroke-linecap:butt;stroke-linejoin:miter;stroke-opacity:1" d="M 541.404,301.431 524.504,301.431 z" id="boundary" inkscape:connector-curvature="0" />
	<path style="fill:none;stroke:red;stroke-width:1px;stroke-linecap:butt;stroke-linejoin:miter;stroke-opacity:1" d="M 676.6,301.431 659.7,301.431 z" id="boundary" inkscape:connector-curvature="0" />
	<path style="fill:none;stroke:red;stroke-width:1px;stroke-linecap:butt;stroke-linejoin:miter;stroke-opacity:1" d="M 625.901,301.431 609.002,301.431 z" id="boundary" inkscape:connector-curvature="0" />
	<path style="fill:none;stroke:red;stroke-width:1px;stroke-linecap:butt;stroke-linejoin:miter;stroke-opacity:1" d="M 592.102,301.431 609.002,301.431 z" id="boundary" inkscape:connector-curvature="0" />
	<path style="fill:none;stroke:red;stroke-width:1px;stroke-linecap:butt;stroke-linejoin:miter;stroke-opacity:1" d="M 592.102,301.431 575.203,301.431 z" id="boundary" inkscape:connector-curvature="0" />
	<path style="fill:none;stroke:red;stroke-width:1px;stroke-linecap:butt;stroke-linejoin:miter;stroke-opacity:1" d="M 625.901,301.431 642.801,301.431 z" id="boundary" inkscape:connector-curvature="0" />
	<path style="fill:none;stroke:red;stroke-width:1px;stroke-linecap:butt;stroke-linejoin:miter;stroke-opacity:1" d="M 659.7,301.431 642.801,301.431 z" id="boundary" inkscape:connector-curvature="0" />
	<path style="fill:none;stroke:red;stroke-width:1px;stroke-linecap:butt;stroke-linejoin:miter;stroke-opacity:1" d="M 693.499,304.811 676.6,301.431 z" id="boundary" inkscape:connector-curvature="0" />
	<path style="fill:none;stroke:red;stroke-width:1px;stroke-linecap:butt;stroke-linejoin:miter;stroke-opacity:1" d="M 710.399,304.811 693.499,304.811 z" id="boundary" inkscape:connector-curvature="0" />
	<path style="fill:none;stroke:red;stroke-width:1px;stroke-linecap:butt;stroke-linejoin:miter;stroke-opacity:1" d="M 774.617,291.291 761.097,301.431 z" id="boundary" inkscape:connector-curvature="0" />
	<path style="fill:none;stroke:red;stroke-width:1px;stroke-linecap:butt;stroke-linejoin:miter;stroke-opacity:1" d="M 761.097,301.431 744.198,304.811 z" id="boundary" inkscape:connector-curvature="0" />
	<path style="fill:none;stroke:red;stroke-width:1px;stroke-linecap:butt;stroke-linejoin:miter;stroke-opacity:1" d="M 788.136,281.152 774.617,291.291 z" id="boundary" inkscape:connector-curvature="0" />
	<path style="fill:none;stroke:red;stroke-width:1px;stroke-linecap:butt;stroke-linejoin:miter;stroke-opacity:1" d="M 710.399,304.811 727.298,304.811 z" id="boundary" inkscape:connector-curvature="0" />
	<path style="fill:none;stroke:red;stroke-width:1px;stroke-linecap:butt;stroke-linejoin:miter;stroke-opacity:1" d="M 744.198,304.811 727.298,304.811 z" id="boundary" inkscape:connector-curvature="0" />
	<path style="fill:none;stroke:red;stroke-width:1px;stroke-linecap:butt;stroke-linejoin:miter;stroke-opacity:1" d="M 835.455,260.872 848.974,243.973 z" id="boundary" inkscape:connector-curvature="0" />
	<path style="fill:none;stroke:red;stroke-width:1px;stroke-linecap:butt;stroke-linejoin:miter;stroke-opacity:1" d="M 862.494,230.453 848.974,243.973 z" id="boundary" inkscape:connector-curvature="0" />
	<path style="fill:none;stroke:red;stroke-width:1px;stroke-linecap:butt;stroke-linejoin:miter;stroke-opacity:1" d="M 835.455,260.872 821.935,271.012 z" id="boundary" inkscape:connector-curvature="0" />
	<path style="fill:none;stroke:red;stroke-width:1px;stroke-linecap:butt;stroke-linejoin:miter;stroke-opacity:1" d="M 821.935,271.012 805.036,274.392 z" id="boundary" inkscape:connector-curvature="0" />
	<path style="fill:none;stroke:red;stroke-width:1px;stroke-linecap:butt;stroke-linejoin:miter;stroke-opacity:1" d="M 805.036,274.392 788.136,281.152 z" id="boundary" inkscape:connector-curvature="0" />
	<path style="fill:none;stroke:red;stroke-width:1px;stroke-linecap:butt;stroke-linejoin:miter;stroke-opacity:1" d="M 892.913,238.903 903.053,252.422 z" id="boundary" inkscape:connector-curvature="0" />
	<path style="fill:none;stroke:red;stroke-width:1px;stroke-linecap:butt;stroke-linejoin:miter;stroke-opacity:1" d="M 962.201,286.221 946.991,277.772 z" id="boundary" inkscape:connector-curvature="0" />
	<path style="fill:none;stroke:red;stroke-width:1px;stroke-linecap:butt;stroke-linejoin:miter;stroke-opacity:1" d="M 903.053,252.422 914.882,265.942 z" id="boundary" inkscape:connector-curvature="0" />
	<path style="fill:none;stroke:red;stroke-width:1px;stroke-linecap:butt;stroke-linejoin:miter;stroke-opacity:1" d="M 930.092,274.392 914.882,265.942 z" id="boundary" inkscape:connector-curvature="0" />
	<path style="fill:none;stroke:red;stroke-width:1px;stroke-linecap:butt;stroke-linejoin:miter;stroke-opacity:1" d="M 946.991,277.772 930.092,274.392 z" id="boundary" inkscape:connector-curvature="0" />
	<path style="fill:none;stroke:red;stroke-width:1px;stroke-linecap:butt;stroke-linejoin:miter;stroke-opacity:1" d="M 892.913,238.903 879.394,227.073 z" id="boundary" inkscape:connector-curvature="0" />
	<path style="fill:none;stroke:red;stroke-width:1px;stroke-linecap:butt;stroke-linejoin:miter;stroke-opacity:1" d="M 862.494,230.453 879.394,227.073 z" id="boundary" inkscape:connector-curvature="0" />
	<path style="fill:none;stroke:red;stroke-width:1px;stroke-linecap:butt;stroke-linejoin:miter;stroke-opacity:1" d="M 989.24,375.789 985.86,399.448 z" id="boundary" inkscape:connector-curvature="0" />
	<path style="fill:none;stroke:red;stroke-width:1px;stroke-linecap:butt;stroke-linejoin:miter;stroke-opacity:1" d="M 989.24,358.889 989.24,375.789 z" id="boundary" inkscape:connector-curvature="0" />
	<path style="fill:none;stroke:red;stroke-width:1px;stroke-linecap:butt;stroke-linejoin:miter;stroke-opacity:1" d="M 985.86,416.348 985.86,399.448 z" id="boundary" inkscape:connector-curvature="0" />
	<path style="fill:none;stroke:red;stroke-width:1px;stroke-linecap:butt;stroke-linejoin:miter;stroke-opacity:1" d="M 985.86,433.247 985.86,416.348 z" id="boundary" inkscape:connector-curvature="0" />
	<path style="fill:none;stroke:red;stroke-width:1px;stroke-linecap:butt;stroke-linejoin:miter;stroke-opacity:1" d="M 962.201,286.221 975.721,296.361 z" id="boundary" inkscape:connector-curvature="0" />
	<path style="fill:none;stroke:red;stroke-width:1px;stroke-linecap:butt;stroke-linejoin:miter;stroke-opacity:1" d="M 996,325.09 996,341.99 z" id="boundary" inkscape:connector-curvature="0" />
	<path style="fill:none;stroke:red;stroke-width:1px;stroke-linecap:butt;stroke-linejoin:miter;stroke-opacity:1" d="M 996,341.99 989.24,358.889 z" id="boundary" inkscape:connector-curvature="0" />
	<path style="fill:none;stroke:red;stroke-width:1px;stroke-linecap:butt;stroke-linejoin:miter;stroke-opacity:1" d="M 985.86,450.147 985.86,433.247 z" id="boundary" inkscape:connector-curvature="0" />
	<path style="fill:none;stroke:red;stroke-width:1px;stroke-linecap:butt;stroke-linejoin:miter;stroke-opacity:1" d="M 989.24,467.046 985.86,450.147 z" id="boundary" inkscape:connector-curvature="0" />
	<path style="fill:none;stroke:red;stroke-width:1px;stroke-linecap:butt;stroke-linejoin:miter;stroke-opacity:1" d="M 989.24,308.191 996,325.09 z" id="boundary" inkscape:connector-curvature="0" />
	<path style="fill:none;stroke:red;stroke-width:1px;stroke-linecap:butt;stroke-linejoin:miter;stroke-opacity:1" d="M 975.721,296.361 989.24,308.191 z" id="boundary" inkscape:connector-curvature="0" />
	<path style="fill:none;stroke:red;stroke-width:1px;stroke-linecap:butt;stroke-linejoin:miter;stroke-opacity:1" d="M 465.356,458.596 482.256,458.596 z" id="boundary" inkscape:connector-curvature="0" />
	<path style="fill:none;stroke:red;stroke-width:1px;stroke-linecap:butt;stroke-linejoin:miter;stroke-opacity:1" d="M 465.356,458.596 448.457,458.596 z" id="boundary" inkscape:connector-curvature="0" />
	<path style="fill:none;stroke:red;stroke-width:1px;stroke-linecap:butt;stroke-linejoin:miter;stroke-opacity:1" d="M 499.155,458.596 482.256,458.596 z" id="boundary" inkscape:connector-curvature="0" />
	<path style="fill:none;stroke:red;stroke-width:1px;stroke-linecap:butt;stroke-linejoin:miter;stroke-opacity:1" d="M 516.055,458.596 499.155,458.596 z" id="boundary" inkscape:connector-curvature="0" />
	<path style="fill:none;stroke:red;stroke-width:1px;stroke-linecap:butt;stroke-linejoin:miter;stroke-opacity:1" d="M 532.954,458.596 549.853,458.596 z" id="boundary" inkscape:connector-curvature="0" />
	<path style="fill:none;stroke:red;stroke-width:1px;stroke-linecap:butt;stroke-linejoin:miter;stroke-opacity:1" d="M 566.753,458.596 549.853,458.596 z" id="boundary" inkscape:connector-curvature="0" />
	<path style="fill:none;stroke:red;stroke-width:1px;stroke-linecap:butt;stroke-linejoin:miter;stroke-opacity:1" d="M 583.652,458.596 600.552,458.596 z" id="boundary" inkscape:connector-curvature="0" />
	<path style="fill:none;stroke:red;stroke-width:1px;stroke-linecap:butt;stroke-linejoin:miter;stroke-opacity:1" d="M 617.451,458.596 600.552,458.596 z" id="boundary" inkscape:connector-curvature="0" />
	<path style="fill:none;stroke:red;stroke-width:1px;stroke-linecap:butt;stroke-linejoin:miter;stroke-opacity:1" d="M 583.652,458.596 566.753,458.596 z" id="boundary" inkscape:connector-curvature="0" />
	<path style="fill:none;stroke:red;stroke-width:1px;stroke-linecap:butt;stroke-linejoin:miter;stroke-opacity:1" d="M 532.954,458.596 516.055,458.596 z" id="boundary" inkscape:connector-curvature="0" />
	<path style="fill:none;stroke:red;stroke-width:1px;stroke-linecap:butt;stroke-linejoin:miter;stroke-opacity:1" d="M 634.351,458.596 651.25,458.596 z" id="boundary" inkscape:connector-curvature="0" />
	<path style="fill:none;stroke:red;stroke-width:1px;stroke-linecap:butt;stroke-linejoin:miter;stroke-opacity:1" d="M 668.15,458.596 651.25,458.596 z" id="boundary" inkscape:connector-curvature="0" />
	<path style="fill:none;stroke:red;stroke-width:1px;stroke-linecap:butt;stroke-linejoin:miter;stroke-opacity:1" d="M 685.049,458.596 701.949,458.596 z" id="boundary" inkscape:connector-curvature="0" />
	<path style="fill:none;stroke:red;stroke-width:1px;stroke-linecap:butt;stroke-linejoin:miter;stroke-opacity:1" d="M 718.848,458.596 701.949,458.596 z" id="boundary" inkscape:connector-curvature="0" />
	<path style="fill:none;stroke:red;stroke-width:1px;stroke-linecap:butt;stroke-linejoin:miter;stroke-opacity:1" d="M 685.049,458.596 668.15,458.596 z" id="boundary" inkscape:connector-curvature="0" />
	<path style="fill:none;stroke:red;stroke-width:1px;stroke-linecap:butt;stroke-linejoin:miter;stroke-opacity:1" d="M 735.748,458.596 752.647,461.976 z" id="boundary" inkscape:connector-curvature="0" />
	<path style="fill:none;stroke:red;stroke-width:1px;stroke-linecap:butt;stroke-linejoin:miter;stroke-opacity:1" d="M 752.647,461.976 754.337,478.876 z" id="boundary" inkscape:connector-curvature="0" />
	<path style="fill:none;stroke:red;stroke-width:1px;stroke-linecap:butt;stroke-linejoin:miter;stroke-opacity:1" d="M 757.717,495.775 754.337,478.876 z" id="boundary" inkscape:connector-curvature="0" />
	<path style="fill:none;stroke:red;stroke-width:1px;stroke-linecap:butt;stroke-linejoin:miter;stroke-opacity:1" d="M 783.066,517.744 767.857,526.194 z" id="boundary" inkscape:connector-curvature="0" />
	<path style="fill:none;stroke:red;stroke-width:1px;stroke-linecap:butt;stroke-linejoin:miter;stroke-opacity:1" d="M 767.857,526.194 757.717,512.675 z" id="boundary" inkscape:connector-curvature="0" />
	<path style="fill:none;stroke:red;stroke-width:1px;stroke-linecap:butt;stroke-linejoin:miter;stroke-opacity:1" d="M 757.717,512.675 757.717,495.775 z" id="boundary" inkscape:connector-curvature="0" />
	<path style="fill:none;stroke:red;stroke-width:1px;stroke-linecap:butt;stroke-linejoin:miter;stroke-opacity:1" d="M 718.848,458.596 735.748,458.596 z" id="boundary" inkscape:connector-curvature="0" />
	<path style="fill:none;stroke:red;stroke-width:1px;stroke-linecap:butt;stroke-linejoin:miter;stroke-opacity:1" d="M 617.451,458.596 634.351,458.596 z" id="boundary" inkscape:connector-curvature="0" />
	<path style="fill:none;stroke:red;stroke-width:1px;stroke-linecap:butt;stroke-linejoin:miter;stroke-opacity:1" d="M 799.966,472.116 816.865,470.426 z" id="boundary" inkscape:connector-curvature="0" />
	<path style="fill:none;stroke:red;stroke-width:1px;stroke-linecap:butt;stroke-linejoin:miter;stroke-opacity:1" d="M 816.865,470.426 833.765,468.736 z" id="boundary" inkscape:connector-curvature="0" />
	<path style="fill:none;stroke:red;stroke-width:1px;stroke-linecap:butt;stroke-linejoin:miter;stroke-opacity:1" d="M 833.765,468.736 845.595,482.256 z" id="boundary" inkscape:connector-curvature="0" />
	<path style="fill:none;stroke:red;stroke-width:1px;stroke-linecap:butt;stroke-linejoin:miter;stroke-opacity:1" d="M 935.162,473.806 919.952,465.356 z" id="boundary" inkscape:connector-curvature="0" />
	<path style="fill:none;stroke:red;stroke-width:1px;stroke-linecap:butt;stroke-linejoin:miter;stroke-opacity:1" d="M 952.061,473.806 935.162,473.806 z" id="boundary" inkscape:connector-curvature="0" />
	<path style="fill:none;stroke:red;stroke-width:1px;stroke-linecap:butt;stroke-linejoin:miter;stroke-opacity:1" d="M 906.433,478.876 919.952,465.356 z" id="boundary" inkscape:connector-curvature="0" />
	<path style="fill:none;stroke:red;stroke-width:1px;stroke-linecap:butt;stroke-linejoin:miter;stroke-opacity:1" d="M 967.271,482.256 952.061,473.806 z" id="boundary" inkscape:connector-curvature="0" />
	<path style="fill:none;stroke:red;stroke-width:1px;stroke-linecap:butt;stroke-linejoin:miter;stroke-opacity:1" d="M 859.114,492.395 845.595,482.256 z" id="boundary" inkscape:connector-curvature="0" />
	<path style="fill:none;stroke:red;stroke-width:1px;stroke-linecap:butt;stroke-linejoin:miter;stroke-opacity:1" d="M 989.24,467.046 996,483.945 z" id="boundary" inkscape:connector-curvature="0" />
	<path style="fill:none;stroke:red;stroke-width:1px;stroke-linecap:butt;stroke-linejoin:miter;stroke-opacity:1" d="M 967.271,482.256 967.271,499.155 z" id="boundary" inkscape:connector-curvature="0" />
	<path style="fill:none;stroke:red;stroke-width:1px;stroke-linecap:butt;stroke-linejoin:miter;stroke-opacity:1" d="M 892.913,492.395 876.014,495.775 z" id="boundary" inkscape:connector-curvature="0" />
	<path style="fill:none;stroke:red;stroke-width:1px;stroke-linecap:butt;stroke-linejoin:miter;stroke-opacity:1" d="M 906.433,478.876 892.913,492.395 z" id="boundary" inkscape:connector-curvature="0" />
	<path style="fill:none;stroke:red;stroke-width:1px;stroke-linecap:butt;stroke-linejoin:miter;stroke-opacity:1" d="M 876.014,495.775 859.114,492.395 z" id="boundary" inkscape:connector-curvature="0" />
	<path style="fill:none;stroke:red;stroke-width:1px;stroke-linecap:butt;stroke-linejoin:miter;stroke-opacity:1" d="M 783.066,517.744 779.687,500.845 z" id="boundary" inkscape:connector-curvature="0" />
	<path style="fill:none;stroke:red;stroke-width:1px;stroke-linecap:butt;stroke-linejoin:miter;stroke-opacity:1" d="M 779.687,500.845 786.446,483.945 z" id="boundary" inkscape:connector-curvature="0" />
	<path style="fill:none;stroke:red;stroke-width:1px;stroke-linecap:butt;stroke-linejoin:miter;stroke-opacity:1" d="M 989.24,500.845 967.271,499.155 z" id="boundary" inkscape:connector-curvature="0" />
	<path style="fill:none;stroke:red;stroke-width:1px;stroke-linecap:butt;stroke-linejoin:miter;stroke-opacity:1" d="M 967.271,499.155 967.271,516.055 z" id="boundary" inkscape:connector-curvature="0" />
	<path style="fill:none;stroke:red;stroke-width:1px;stroke-linecap:butt;stroke-linejoin:miter;stroke-opacity:1" d="M 989.24,500.845 996,483.945 z" id="boundary" inkscape:connector-curvature="0" />
	<path style="fill:none;stroke:red;stroke-width:1px;stroke-linecap:butt;stroke-linejoin:miter;stroke-opacity:1" d="M 996,517.744 989.24,500.845 z" id="boundary" inkscape:connector-curvature="0" />
	<path style="fill:none;stroke:red;stroke-width:1px;stroke-linecap:butt;stroke-linejoin:miter;stroke-opacity:1" d="M 980.79,526.194 967.271,516.055 z" id="boundary" inkscape:connector-curvature="0" />
	<path style="fill:none;stroke:red;stroke-width:1px;stroke-linecap:butt;stroke-linejoin:miter;stroke-opacity:1" d="M 996,517.744 980.79,526.194 z" id="boundary" inkscape:connector-curvature="0" />
	<circle cx="4" cy="399.448" r="4" fill="#0" id="circle0"/>
	<circle cx="4" cy="416.348" r="4" fill="#0" id="circle1"/>
	<circle cx="7.3799" cy="125.676" r="4" fill="#0" id="circle2"/>
	<circle cx="7.3799" cy="142.576" r="4" fill="#0" id="circle3"/>
	<circle cx="7.3799" cy="311.571" r="4" fill="#0" id="circle4"/>
	<circle cx="7.3799" cy="328.47" r="4" fill="#0" id="circle5"/>
	<circle cx="7.3799" cy="345.37" r="4" fill="#0" id="circle6"/>
	<circle cx="7.3799" cy="362.269" r="4" fill="#0" id="circle7"/>
	<circle cx="7.3799" cy="379.169" r="4" fill="#0" id="circle8"/>
	<circle cx="7.3799" cy="433.247" r="4" fill="#0" id="circle9"/>
	<circle cx="7.3799" cy="450.147" r="4" fill="#0" id="circle10"/>
	<circle cx="10.7598" cy="159.475" r="4" fill="#0" id="circle11"/>
	<circle cx="10.7598" cy="176.375" r="4" fill="#0" id="circle12"/>
	<circle cx="10.7598" cy="193.274" r="4" fill="#0" id="circle13"/>
	<circle cx="10.7598" cy="210.174" r="4" fill="#0" id="circle14"/>
	<circle cx="10.7598" cy="227.073" r="4" fill="#0" id="circle15"/>
	<circle cx="10.7598" cy="243.973" r="4" fill="#0" id="circle16"/>
	<circle cx="10.7598" cy="260.872" r="4" fill="#0" id="circle17"/>
	<circle cx="10.7598" cy="277.772" r="4" fill="#0" id="circle18"/>
	<circle cx="10.7598" cy="294.671" r="4" fill="#0" id="circle19"/>
	<circle cx="10.7598" cy="467.046" r="4" fill="#0" id="circle20"/>
	<circle cx="14.1397" cy="494.085" r="4" fill="#0" id="circle21"/>
	<circle cx="14.1397" cy="510.985" r="4" fill="#0" id="circle22"/>
	<circle cx="15.8296" cy="110.467" r="4" fill="#0" id="circle23"/>
	<circle cx="24.2794" cy="524.504" r="4" fill="#0" id="circle24"/>
	<circle cx="29.3492" cy="96.9472" r="4" fill="#0" id="circle25"/>
	<circle cx="36.109" cy="500.845" r="4" fill="#0" id="circle26"/>
	<circle cx="39.4889" cy="456.906" r="4" fill="#0" id="circle27"/>
	<circle cx="39.4889" cy="473.806" r="4" fill="#0" id="circle28"/>
	<circle cx="41.1789" cy="519.434" r="4" fill="#0" id="circle29"/>
	<circle cx="42.8688" cy="83.4276" r="4" fill="#0" id="circle30"/>
	<circle cx="56.3884" cy="455.216" r="4" fill="#0" id="circle31"/>
	<circle cx="58.0784" cy="74.9779" r="4" fill="#0" id="circle32"/>
	<circle cx="73.2879" cy="66.5281" r="4" fill="#0" id="circle33"/>
	<circle cx="73.2879" cy="458.596" r="4" fill="#0" id="circle34"/>
	<circle cx="88.4974" cy="54.6985" r="4" fill="#0" id="circle35"/>
	<circle cx="90.1874" cy="458.596" r="4" fill="#0" id="circle36"/>
	<circle cx="98.6371" cy="41.1789" r="4" fill="#0" id="circle37"/>
	<circle cx="107.087" cy="458.596" r="4" fill="#0" id="circle38"/>
	<circle cx="108.777" cy="20.8995" r="4" fill="#0" id="circle39"/>
	<circle cx="115.537" cy="4" r="4" fill="#0" id="circle40"/>
	<circle cx="123.986" cy="458.596" r="4" fill="#0" id="circle41"/>
	<circle cx="132.436" cy="4" r="4" fill="#0" id="circle42"/>
	<circle cx="140.886" cy="458.596" r="4" fill="#0" id="circle43"/>
	<circle cx="142.576" cy="17.5196" r="4" fill="#0" id="circle44"/>
	<circle cx="149.336" cy="34.4191" r="4" fill="#0" id="circle45"/>
	<circle cx="157.785" cy="458.596" r="4" fill="#0" id="circle46"/>
	<circle cx="162.855" cy="46.2487" r="4" fill="#0" id="circle47"/>
	<circle cx="167.925" cy="63.1482" r="4" fill="#0" id="circle48"/>
	<circle cx="174.685" cy="458.596" r="4" fill="#0" id="circle49"/>
	<circle cx="181.445" cy="74.9779" r="4" fill="#0" id="circle50"/>
	<circle cx="191.584" cy="458.596" r="4" fill="#0" id="circle51"/>
	<circle cx="196.654" cy="83.4276" r="4" fill="#0" id="circle52"/>
	<circle cx="203.414" cy="472.116" r="4" fill="#0" id="circle53"/>
	<circle cx="203.414" cy="504.225" r="4" fill="#0" id="circle54"/>
	<circle cx="208.484" cy="96.9472" r="4" fill="#0" id="circle55"/>
	<circle cx="208.484" cy="521.124" r="4" fill="#0" id="circle56"/>
	<circle cx="222.003" cy="108.777" r="4" fill="#0" id="circle57"/>
	<circle cx="222.003" cy="162.855" r="4" fill="#0" id="circle58"/>
	<circle cx="222.003" cy="179.755" r="4" fill="#0" id="circle59"/>
	<circle cx="225.383" cy="497.465" r="4" fill="#0" id="circle60"/>
	<circle cx="225.383" cy="524.504" r="4" fill="#0" id="circle61"/>
	<circle cx="228.763" cy="125.676" r="4" fill="#0" id="circle62"/>
	<circle cx="228.763" cy="460.286" r="4" fill="#0" id="circle63"/>
	<circle cx="228.763" cy="477.186" r="4" fill="#0" id="circle64"/>
	<circle cx="232.143" cy="142.576" r="4" fill="#0" id="circle65"/>
	<circle cx="238.903" cy="186.514" r="4" fill="#0" id="circle66"/>
	<circle cx="245.663" cy="458.596" r="4" fill="#0" id="circle67"/>
	<circle cx="255.802" cy="189.894" r="4" fill="#0" id="circle68"/>
	<circle cx="262.562" cy="458.596" r="4" fill="#0" id="circle69"/>
	<circle cx="271.012" cy="198.344" r="4" fill="#0" id="circle70"/>
	<circle cx="279.462" cy="458.596" r="4" fill="#0" id="circle71"/>
	<circle cx="284.532" cy="208.484" r="4" fill="#0" id="circle72"/>
	<circle cx="296.361" cy="458.596" r="4" fill="#0" id="circle73"/>
	<circle cx="301.431" cy="210.174" r="4" fill="#0" id="circle74"/>
	<circle cx="313.261" cy="458.596" r="4" fill="#0" id="circle75"/>
	<circle cx="318.33" cy="206.794" r="4" fill="#0" id="circle76"/>
	<circle cx="330.16" cy="458.596" r="4" fill="#0" id="circle77"/>
	<circle cx="335.23" cy="206.794" r="4" fill="#0" id="circle78"/>
	<circle cx="347.06" cy="458.596" r="4" fill="#0" id="circle79"/>
	<circle cx="352.129" cy="210.174" r="4" fill="#0" id="circle80"/>
	<circle cx="363.959" cy="458.596" r="4" fill="#0" id="circle81"/>
	<circle cx="369.029" cy="215.244" r="4" fill="#0" id="circle82"/>
	<circle cx="380.859" cy="458.596" r="4" fill="#0" id="circle83"/>
	<circle cx="385.928" cy="222.003" r="4" fill="#0" id="circle84"/>
	<circle cx="397.758" cy="458.596" r="4" fill="#0" id="circle85"/>
	<circle cx="401.138" cy="230.453" r="4" fill="#0" id="circle86"/>
	<circle cx="414.658" cy="240.593" r="4" fill="#0" id="circle87"/>
	<circle cx="414.658" cy="458.596" r="4" fill="#0" id="circle88"/>
	<circle cx="428.177" cy="250.733" r="4" fill="#0" id="circle89"/>
	<circle cx="431.557" cy="458.596" r="4" fill="#0" id="circle90"/>
	<circle cx="438.317" cy="264.252" r="4" fill="#0" id="circle91"/>
	<circle cx="448.457" cy="458.596" r="4" fill="#0" id="circle92"/>
	<circle cx="450.147" cy="277.772" r="4" fill="#0" id="circle93"/>
	<circle cx="460.286" cy="291.291" r="4" fill="#0" id="circle94"/>
	<circle cx="465.356" cy="458.596" r="4" fill="#0" id="circle95"/>
	<circle cx="473.806" cy="301.431" r="4" fill="#0" id="circle96"/>
	<circle cx="482.256" cy="458.596" r="4" fill="#0" id="circle97"/>
	<circle cx="490.705" cy="301.431" r="4" fill="#0" id="circle98"/>
	<circle cx="499.155" cy="458.596" r="4" fill="#0" id="circle99"/>
	<circle cx="507.605" cy="301.431" r="4" fill="#0" id="circle100"/>
	<circle cx="516.055" cy="458.596" r="4" fill="#0" id="circle101"/>
	<circle cx="524.504" cy="301.431" r="4" fill="#0" id="circle102"/>
	<circle cx="532.954" cy="458.596" r="4" fill="#0" id="circle103"/>
	<circle cx="541.404" cy="301.431" r="4" fill="#0" id="circle104"/>
	<circle cx="549.853" cy="458.596" r="4" fill="#0" id="circle105"/>
	<circle cx="558.303" cy="301.431" r="4" fill="#0" id="circle106"/>
	<circle cx="566.753" cy="458.596" r="4" fill="#0" id="circle107"/>
	<circle cx="575.203" cy="301.431" r="4" fill="#0" id="circle108"/>
	<circle cx="583.652" cy="458.596" r="4" fill="#0" id="circle109"/>
	<circle cx="592.102" cy="301.431" r="4" fill="#0" id="circle110"/>
	<circle cx="600.552" cy="458.596" r="4" fill="#0" id="circle111"/>
	<circle cx="609.002" cy="301.431" r="4" fill="#0" id="circle112"/>
	<circle cx="617.451" cy="458.596" r="4" fill="#0" id="circle113"/>
	<circle cx="625.901" cy="301.431" r="4" fill="#0" id="circle114"/>
	<circle cx="634.351" cy="458.596" r="4" fill="#0" id="circle115"/>
	<circle cx="642.801" cy="301.431" r="4" fill="#0" id="circle116"/>
	<circle cx="651.25" cy="458.596" r="4" fill="#0" id="circle117"/>
	<circle cx="659.7" cy="301.431" r="4" fill="#0" id="circle118"/>
	<circle cx="668.15" cy="458.596" r="4" fill="#0" id="circle119"/>
	<circle cx="676.6" cy="301.431" r="4" fill="#0" id="circle120"/>
	<circle cx="685.049" cy="458.596" r="4" fill="#0" id="circle121"/>
	<circle cx="693.499" cy="304.811" r="4" fill="#0" id="circle122"/>
	<circle cx="701.949" cy="458.596" r="4" fill="#0" id="circle123"/>
	<circle cx="710.399" cy="304.811" r="4" fill="#0" id="circle124"/>
	<circle cx="718.848" cy="458.596" r="4" fill="#0" id="circle125"/>
	<circle cx="727.298" cy="304.811" r="4" fill="#0" id="circle126"/>
	<circle cx="735.748" cy="458.596" r="4" fill="#0" id="circle127"/>
	<circle cx="744.198" cy="304.811" r="4" fill="#0" id="circle128"/>
	<circle cx="752.647" cy="461.976" r="4" fill="#0" id="circle129"/>
	<circle cx="754.337" cy="478.876" r="4" fill="#0" id="circle130"/>
	<circle cx="757.717" cy="495.775" r="4" fill="#0" id="circle131"/>
	<circle cx="757.717" cy="512.675" r="4" fill="#0" id="circle132"/>
	<circle cx="761.097" cy="301.431" r="4" fill="#0" id="circle133"/>
	<circle cx="767.857" cy="526.194" r="4" fill="#0" id="circle134"/>
	<circle cx="774.617" cy="291.291" r="4" fill="#0" id="circle135"/>
	<circle cx="779.687" cy="500.845" r="4" fill="#0" id="circle136"/>
	<circle cx="783.066" cy="467.046" r="4" fill="#0" id="circle137"/>
	<circle cx="783.066" cy="517.744" r="4" fill="#0" id="circle138"/>
	<circle cx="786.446" cy="483.945" r="4" fill="#0" id="circle139"/>
	<circle cx="788.136" cy="281.152" r="4" fill="#0" id="circle140"/>
	<circle cx="799.966" cy="472.116" r="4" fill="#0" id="circle141"/>
	<circle cx="805.036" cy="274.392" r="4" fill="#0" id="circle142"/>
	<circle cx="816.865" cy="470.426" r="4" fill="#0" id="circle143"/>
	<circle cx="821.935" cy="271.012" r="4" fill="#0" id="circle144"/>
	<circle cx="833.765" cy="468.736" r="4" fill="#0" id="circle145"/>
	<circle cx="835.455" cy="260.872" r="4" fill="#0" id="circle146"/>
	<circle cx="845.595" cy="482.256" r="4" fill="#0" id="circle147"/>
	<circle cx="848.974" cy="243.973" r="4" fill="#0" id="circle148"/>
	<circle cx="859.114" cy="492.395" r="4" fill="#0" id="circle149"/>
	<circle cx="862.494" cy="230.453" r="4" fill="#0" id="circle150"/>
	<circle cx="876.014" cy="495.775" r="4" fill="#0" id="circle151"/>
	<circle cx="879.394" cy="227.073" r="4" fill="#0" id="circle152"/>
	<circle cx="892.913" cy="238.903" r="4" fill="#0" id="circle153"/>
	<circle cx="892.913" cy="492.395" r="4" fill="#0" id="circle154"/>
	<circle cx="903.053" cy="252.422" r="4" fill="#0" id="circle155"/>
	<circle cx="906.433" cy="478.876" r="4" fill="#0" id="circle156"/>
	<circle cx="914.882" cy="265.942" r="4" fill="#0" id="circle157"/>
	<circle cx="919.952" cy="465.356" r="4" fill="#0" id="circle158"/>
	<circle cx="930.092" cy="274.392" r="4" fill="#0" id="circle159"/>
	<circle cx="935.162" cy="473.806" r="4" fill="#0" id="circle160"/>
	<circle cx="946.991" cy="277.772" r="4" fill="#0" id="circle161"/>
	<circle cx="952.061" cy="473.806" r="4" fill="#0" id="circle162"/>
	<circle cx="962.201" cy="286.221" r="4" fill="#0" id="circle163"/>
	<circle cx="967.271" cy="482.256" r="4" fill="#0" id="circle164"/>
	<circle cx="967.271" cy="499.155" r="4" fill="#0" id="circle165"/>
	<circle cx="967.271" cy="516.055" r="4" fill="#0" id="circle166"/>
	<circle cx="975.721" cy="296.361" r="4" fill="#0" id="circle167"/>
	<circle cx="980.79" cy="526.194" r="4" fill="#0" id="circle168"/>
	<circle cx="985.86" cy="399.448" r="4" fill="#0" id="circle169"/>
	<circle cx="985.86" cy="416.348" r="4" fill="#0" id="circle170"/>
	<circle cx="985.86" cy="433.247" r="4" fill="#0" id="circle171"/>
	<circle cx="985.86" cy="450.147" r="4" fill="#0" id="circle172"/>
	<circle cx="989.24" cy="308.191" r="4" fill="#0" id="circle173"/>
	<circle cx="989.24" cy="358.889" r="4" fill="#0" id="circle174"/>
	<circle cx="989.24" cy="375.789" r="4" fill="#0" id="circle175"/>
	<circle cx="989.24" cy="467.046" r="4" fill="#0" id="circle176"/>
	<circle cx="989.24" cy="500.845" r="4" fill="#0" id="circle177"/>
	<circle cx="996" cy="325.09" r="4" fill="#0" id="circle178"/>
	<circle cx="996" cy="341.99" r="4" fill="#0" id="circle179"/>
	<circle cx="996" cy="483.945" r="4" fill="#0" id="circle180"/>
	<circle cx="996" cy="517.744" r="4" fill="#0" id="circle181"/>
	</g>
</svg>