<?xml version="1.0" encoding="UTF-8" standalone="no"?>
<!-- Created with CurveBenchmark -->
<svg
	xmlns:dc="http://purl.org/dc/elements/1.1/"
	xmlns:cc="http://creativecommons.org/ns#"
	xmlns:rdf="http://www.w3.org/1999/02/22-rdf-syntax-ns#"
	xmlns:svg="http://www.w3.org/2000/svg"
	xmlns="http://www.w3.org/2000/svg"
	xmlns:sodipodi="http://sodipodi.sourceforge.net/DTD/sodipodi-0.dtd"
	xmlns:inkscape="http://www.inkscape.org/namespaces/inkscape"
	width="1000"
	height="1000"
	id="svg2"
	version="1.1"
	sodipodi:docname="manifold/ccrust-bird34.png.txt">
<defs
	id="defs4" />
<metadata
	id="metadata7">
	<rdf:RDF>
		<cc:Work
			rdf:about="">
			<dc:format>image/svg+xml</dc:format>
			<dc:type
				rdf:resource="http://purl.org/dc/dcmitype/StillImage" />
			<dc:title></dc:title>
		</cc:Work>
	</rdf:RDF>
</metadata>
<g
	inkscape:label="Layer 1"
	inkscape:groupmode="layer"
	id="layer1">
	<path style="fill:none;stroke:red;stroke-width:1px;stroke-linecap:butt;stroke-linejoin:miter;stroke-opacity:1" d="M 38.8296,100.749 27.2198,107.199 z" id="boundary" inkscape:connector-curvature="0" />
	<path style="fill:none;stroke:red;stroke-width:1px;stroke-linecap:butt;stroke-linejoin:miter;stroke-opacity:1" d="M 27.2198,107.199 14.3199,107.199 z" id="boundary" inkscape:connector-curvature="0" />
	<path style="fill:none;stroke:red;stroke-width:1px;stroke-linecap:butt;stroke-linejoin:miter;stroke-opacity:1" d="M 4,117.519 10.4499,129.129 z" id="boundary" inkscape:connector-curvature="0" />
	<path style="fill:none;stroke:red;stroke-width:1px;stroke-linecap:butt;stroke-linejoin:miter;stroke-opacity:1" d="M 4,117.519 14.3199,107.199 z" id="boundary" inkscape:connector-curvature="0" />
	<path style="fill:none;stroke:red;stroke-width:1px;stroke-linecap:butt;stroke-linejoin:miter;stroke-opacity:1" d="M 19.4798,139.449 29.7997,147.189 z" id="boundary" inkscape:connector-curvature="0" />
	<path style="fill:none;stroke:red;stroke-width:1px;stroke-linecap:butt;stroke-linejoin:miter;stroke-opacity:1" d="M 19.4798,139.449 10.4499,129.129 z" id="boundary" inkscape:connector-curvature="0" />
	<path style="fill:none;stroke:red;stroke-width:1px;stroke-linecap:butt;stroke-linejoin:miter;stroke-opacity:1" d="M 41.4096,153.638 29.7997,147.189 z" id="boundary" inkscape:connector-curvature="0" />
	<path style="fill:none;stroke:red;stroke-width:1px;stroke-linecap:butt;stroke-linejoin:miter;stroke-opacity:1" d="M 102.039,51.7295 93.0091,62.0494 z" id="boundary" inkscape:connector-curvature="0" />
	<path style="fill:none;stroke:red;stroke-width:1px;stroke-linecap:butt;stroke-linejoin:miter;stroke-opacity:1" d="M 93.0091,62.0494 82.6892,71.0793 z" id="boundary" inkscape:connector-curvature="0" />
	<path style="fill:none;stroke:red;stroke-width:1px;stroke-linecap:butt;stroke-linejoin:miter;stroke-opacity:1" d="M 73.6593,81.3992 82.6892,71.0793 z" id="boundary" inkscape:connector-curvature="0" />
	<path style="fill:none;stroke:red;stroke-width:1px;stroke-linecap:butt;stroke-linejoin:miter;stroke-opacity:1" d="M 53.0195,160.088 41.4096,153.638 z" id="boundary" inkscape:connector-curvature="0" />
	<path style="fill:none;stroke:red;stroke-width:1px;stroke-linecap:butt;stroke-linejoin:miter;stroke-opacity:1" d="M 38.8296,100.749 51.7295,95.5891 z" id="boundary" inkscape:connector-curvature="0" />
	<path style="fill:none;stroke:red;stroke-width:1px;stroke-linecap:butt;stroke-linejoin:miter;stroke-opacity:1" d="M 51.7295,95.5891 62.0494,87.8492 z" id="boundary" inkscape:connector-curvature="0" />
	<path style="fill:none;stroke:red;stroke-width:1px;stroke-linecap:butt;stroke-linejoin:miter;stroke-opacity:1" d="M 73.6593,81.3992 62.0494,87.8492 z" id="boundary" inkscape:connector-curvature="0" />
	<path style="fill:none;stroke:red;stroke-width:1px;stroke-linecap:butt;stroke-linejoin:miter;stroke-opacity:1" d="M 62.0494,170.408 53.0195,160.088 z" id="boundary" inkscape:connector-curvature="0" />
	<path style="fill:none;stroke:red;stroke-width:1px;stroke-linecap:butt;stroke-linejoin:miter;stroke-opacity:1" d="M 68.4993,182.018 62.0494,170.408 z" id="boundary" inkscape:connector-curvature="0" />
	<path style="fill:none;stroke:red;stroke-width:1px;stroke-linecap:butt;stroke-linejoin:miter;stroke-opacity:1" d="M 68.4993,182.018 68.4993,194.918 z" id="boundary" inkscape:connector-curvature="0" />
	<path style="fill:none;stroke:red;stroke-width:1px;stroke-linecap:butt;stroke-linejoin:miter;stroke-opacity:1" d="M 68.4993,194.918 74.9493,206.528 z" id="boundary" inkscape:connector-curvature="0" />
	<path style="fill:none;stroke:red;stroke-width:1px;stroke-linecap:butt;stroke-linejoin:miter;stroke-opacity:1" d="M 74.9493,206.528 74.9493,219.428 z" id="boundary" inkscape:connector-curvature="0" />
	<path style="fill:none;stroke:red;stroke-width:1px;stroke-linecap:butt;stroke-linejoin:miter;stroke-opacity:1" d="M 74.9493,219.428 81.3992,231.038 z" id="boundary" inkscape:connector-curvature="0" />
	<path style="fill:none;stroke:red;stroke-width:1px;stroke-linecap:butt;stroke-linejoin:miter;stroke-opacity:1" d="M 81.3992,231.038 81.3992,243.938 z" id="boundary" inkscape:connector-curvature="0" />
	<path style="fill:none;stroke:red;stroke-width:1px;stroke-linecap:butt;stroke-linejoin:miter;stroke-opacity:1" d="M 81.3992,243.938 87.8492,255.547 z" id="boundary" inkscape:connector-curvature="0" />
	<path style="fill:none;stroke:red;stroke-width:1px;stroke-linecap:butt;stroke-linejoin:miter;stroke-opacity:1" d="M 87.8492,255.547 87.8492,268.447 z" id="boundary" inkscape:connector-curvature="0" />
	<path style="fill:none;stroke:red;stroke-width:1px;stroke-linecap:butt;stroke-linejoin:miter;stroke-opacity:1" d="M 87.8492,268.447 87.8492,281.347 z" id="boundary" inkscape:connector-curvature="0" />
	<path style="fill:none;stroke:red;stroke-width:1px;stroke-linecap:butt;stroke-linejoin:miter;stroke-opacity:1" d="M 90.4291,294.247 87.8492,281.347 z" id="boundary" inkscape:connector-curvature="0" />
	<path style="fill:none;stroke:red;stroke-width:1px;stroke-linecap:butt;stroke-linejoin:miter;stroke-opacity:1" d="M 90.4291,294.247 94.2991,307.147 z" id="boundary" inkscape:connector-curvature="0" />
	<path style="fill:none;stroke:red;stroke-width:1px;stroke-linecap:butt;stroke-linejoin:miter;stroke-opacity:1" d="M 100.749,318.757 94.2991,307.147 z" id="boundary" inkscape:connector-curvature="0" />
	<path style="fill:none;stroke:red;stroke-width:1px;stroke-linecap:butt;stroke-linejoin:miter;stroke-opacity:1" d="M 100.749,318.757 107.199,330.367 z" id="boundary" inkscape:connector-curvature="0" />
	<path style="fill:none;stroke:red;stroke-width:1px;stroke-linecap:butt;stroke-linejoin:miter;stroke-opacity:1" d="M 102.039,51.7295 114.939,45.2796 z" id="boundary" inkscape:connector-curvature="0" />
	<path style="fill:none;stroke:red;stroke-width:1px;stroke-linecap:butt;stroke-linejoin:miter;stroke-opacity:1" d="M 160.088,13.0299 172.988,6.57997 z" id="boundary" inkscape:connector-curvature="0" />
	<path style="fill:none;stroke:red;stroke-width:1px;stroke-linecap:butt;stroke-linejoin:miter;stroke-opacity:1" d="M 147.189,19.4798 160.088,13.0299 z" id="boundary" inkscape:connector-curvature="0" />
	<path style="fill:none;stroke:red;stroke-width:1px;stroke-linecap:butt;stroke-linejoin:miter;stroke-opacity:1" d="M 114.939,45.2796 125.259,36.2497 z" id="boundary" inkscape:connector-curvature="0" />
	<path style="fill:none;stroke:red;stroke-width:1px;stroke-linecap:butt;stroke-linejoin:miter;stroke-opacity:1" d="M 136.869,29.7997 147.189,19.4798 z" id="boundary" inkscape:connector-curvature="0" />
	<path style="fill:none;stroke:red;stroke-width:1px;stroke-linecap:butt;stroke-linejoin:miter;stroke-opacity:1" d="M 136.869,29.7997 125.259,36.2497 z" id="boundary" inkscape:connector-curvature="0" />
	<path style="fill:none;stroke:red;stroke-width:1px;stroke-linecap:butt;stroke-linejoin:miter;stroke-opacity:1" d="M 172.988,6.57997 185.888,4 z" id="boundary" inkscape:connector-curvature="0" />
	<path style="fill:none;stroke:red;stroke-width:1px;stroke-linecap:butt;stroke-linejoin:miter;stroke-opacity:1" d="M 198.788,7.86996 198.788,20.7698 z" id="boundary" inkscape:connector-curvature="0" />
	<path style="fill:none;stroke:red;stroke-width:1px;stroke-linecap:butt;stroke-linejoin:miter;stroke-opacity:1" d="M 185.888,4 198.788,7.86996 z" id="boundary" inkscape:connector-curvature="0" />
	<path style="fill:none;stroke:red;stroke-width:1px;stroke-linecap:butt;stroke-linejoin:miter;stroke-opacity:1" d="M 198.788,33.6697 205.238,45.2796 z" id="boundary" inkscape:connector-curvature="0" />
	<path style="fill:none;stroke:red;stroke-width:1px;stroke-linecap:butt;stroke-linejoin:miter;stroke-opacity:1" d="M 205.238,45.2796 198.788,63.3394 z" id="boundary" inkscape:connector-curvature="0" />
	<path style="fill:none;stroke:red;stroke-width:1px;stroke-linecap:butt;stroke-linejoin:miter;stroke-opacity:1" d="M 198.788,33.6697 198.788,20.7698 z" id="boundary" inkscape:connector-curvature="0" />
	<path style="fill:none;stroke:red;stroke-width:1px;stroke-linecap:butt;stroke-linejoin:miter;stroke-opacity:1" d="M 198.788,63.3394 205.238,74.9493 z" id="boundary" inkscape:connector-curvature="0" />
	<path style="fill:none;stroke:red;stroke-width:1px;stroke-linecap:butt;stroke-linejoin:miter;stroke-opacity:1" d="M 211.688,86.5592 218.138,98.1691 z" id="boundary" inkscape:connector-curvature="0" />
	<path style="fill:none;stroke:red;stroke-width:1px;stroke-linecap:butt;stroke-linejoin:miter;stroke-opacity:1" d="M 228.458,107.199 218.138,98.1691 z" id="boundary" inkscape:connector-curvature="0" />
	<path style="fill:none;stroke:red;stroke-width:1px;stroke-linecap:butt;stroke-linejoin:miter;stroke-opacity:1" d="M 211.688,86.5592 205.238,74.9493 z" id="boundary" inkscape:connector-curvature="0" />
	<path style="fill:none;stroke:red;stroke-width:1px;stroke-linecap:butt;stroke-linejoin:miter;stroke-opacity:1" d="M 228.458,107.199 240.068,113.649 z" id="boundary" inkscape:connector-curvature="0" />
	<path style="fill:none;stroke:red;stroke-width:1px;stroke-linecap:butt;stroke-linejoin:miter;stroke-opacity:1" d="M 250.388,121.389 240.068,113.649 z" id="boundary" inkscape:connector-curvature="0" />
	<path style="fill:none;stroke:red;stroke-width:1px;stroke-linecap:butt;stroke-linejoin:miter;stroke-opacity:1" d="M 250.388,121.389 256.837,132.999 z" id="boundary" inkscape:connector-curvature="0" />
	<path style="fill:none;stroke:red;stroke-width:1px;stroke-linecap:butt;stroke-linejoin:miter;stroke-opacity:1" d="M 113.649,341.977 120.099,353.586 z" id="boundary" inkscape:connector-curvature="0" />
	<path style="fill:none;stroke:red;stroke-width:1px;stroke-linecap:butt;stroke-linejoin:miter;stroke-opacity:1" d="M 127.839,363.906 120.099,353.586 z" id="boundary" inkscape:connector-curvature="0" />
	<path style="fill:none;stroke:red;stroke-width:1px;stroke-linecap:butt;stroke-linejoin:miter;stroke-opacity:1" d="M 263.287,144.609 256.837,132.999 z" id="boundary" inkscape:connector-curvature="0" />
	<path style="fill:none;stroke:red;stroke-width:1px;stroke-linecap:butt;stroke-linejoin:miter;stroke-opacity:1" d="M 273.607,153.638 263.287,144.609 z" id="boundary" inkscape:connector-curvature="0" />
	<path style="fill:none;stroke:red;stroke-width:1px;stroke-linecap:butt;stroke-linejoin:miter;stroke-opacity:1" d="M 278.767,166.538 289.087,175.568 z" id="boundary" inkscape:connector-curvature="0" />
	<path style="fill:none;stroke:red;stroke-width:1px;stroke-linecap:butt;stroke-linejoin:miter;stroke-opacity:1" d="M 273.607,153.638 278.767,166.538 z" id="boundary" inkscape:connector-curvature="0" />
	<path style="fill:none;stroke:red;stroke-width:1px;stroke-linecap:butt;stroke-linejoin:miter;stroke-opacity:1" d="M 289.087,175.568 301.987,178.148 z" id="boundary" inkscape:connector-curvature="0" />
	<path style="fill:none;stroke:red;stroke-width:1px;stroke-linecap:butt;stroke-linejoin:miter;stroke-opacity:1" d="M 301.987,178.148 312.307,185.888 z" id="boundary" inkscape:connector-curvature="0" />
	<path style="fill:none;stroke:red;stroke-width:1px;stroke-linecap:butt;stroke-linejoin:miter;stroke-opacity:1" d="M 113.649,341.977 107.199,330.367 z" id="boundary" inkscape:connector-curvature="0" />
	<path style="fill:none;stroke:red;stroke-width:1px;stroke-linecap:butt;stroke-linejoin:miter;stroke-opacity:1" d="M 323.917,192.338 312.307,185.888 z" id="boundary" inkscape:connector-curvature="0" />
	<path style="fill:none;stroke:red;stroke-width:1px;stroke-linecap:butt;stroke-linejoin:miter;stroke-opacity:1" d="M 336.817,197.498 348.427,203.948 z" id="boundary" inkscape:connector-curvature="0" />
	<path style="fill:none;stroke:red;stroke-width:1px;stroke-linecap:butt;stroke-linejoin:miter;stroke-opacity:1" d="M 323.917,192.338 336.817,197.498 z" id="boundary" inkscape:connector-curvature="0" />
	<path style="fill:none;stroke:red;stroke-width:1px;stroke-linecap:butt;stroke-linejoin:miter;stroke-opacity:1" d="M 143.319,385.836 134.289,375.516 z" id="boundary" inkscape:connector-curvature="0" />
	<path style="fill:none;stroke:red;stroke-width:1px;stroke-linecap:butt;stroke-linejoin:miter;stroke-opacity:1" d="M 134.289,375.516 127.839,363.906 z" id="boundary" inkscape:connector-curvature="0" />
	<path style="fill:none;stroke:red;stroke-width:1px;stroke-linecap:butt;stroke-linejoin:miter;stroke-opacity:1" d="M 143.319,385.836 149.769,397.446 z" id="boundary" inkscape:connector-curvature="0" />
	<path style="fill:none;stroke:red;stroke-width:1px;stroke-linecap:butt;stroke-linejoin:miter;stroke-opacity:1" d="M 149.769,397.446 158.798,407.766 z" id="boundary" inkscape:connector-curvature="0" />
	<path style="fill:none;stroke:red;stroke-width:1px;stroke-linecap:butt;stroke-linejoin:miter;stroke-opacity:1" d="M 169.118,416.796 178.148,427.116 z" id="boundary" inkscape:connector-curvature="0" />
	<path style="fill:none;stroke:red;stroke-width:1px;stroke-linecap:butt;stroke-linejoin:miter;stroke-opacity:1" d="M 158.798,407.766 169.118,416.796 z" id="boundary" inkscape:connector-curvature="0" />
	<path style="fill:none;stroke:red;stroke-width:1px;stroke-linecap:butt;stroke-linejoin:miter;stroke-opacity:1" d="M 188.468,436.146 178.148,427.116 z" id="boundary" inkscape:connector-curvature="0" />
	<path style="fill:none;stroke:red;stroke-width:1px;stroke-linecap:butt;stroke-linejoin:miter;stroke-opacity:1" d="M 210.398,450.336 197.498,446.466 z" id="boundary" inkscape:connector-curvature="0" />
	<path style="fill:none;stroke:red;stroke-width:1px;stroke-linecap:butt;stroke-linejoin:miter;stroke-opacity:1" d="M 197.498,446.466 188.468,436.146 z" id="boundary" inkscape:connector-curvature="0" />
	<path style="fill:none;stroke:red;stroke-width:1px;stroke-linecap:butt;stroke-linejoin:miter;stroke-opacity:1" d="M 210.398,450.336 218.138,460.655 z" id="boundary" inkscape:connector-curvature="0" />
	<path style="fill:none;stroke:red;stroke-width:1px;stroke-linecap:butt;stroke-linejoin:miter;stroke-opacity:1" d="M 228.458,469.685 218.138,460.655 z" id="boundary" inkscape:connector-curvature="0" />
	<path style="fill:none;stroke:red;stroke-width:1px;stroke-linecap:butt;stroke-linejoin:miter;stroke-opacity:1" d="M 241.358,469.685 228.458,469.685 z" id="boundary" inkscape:connector-curvature="0" />
	<path style="fill:none;stroke:red;stroke-width:1px;stroke-linecap:butt;stroke-linejoin:miter;stroke-opacity:1" d="M 241.358,469.685 252.967,476.135 z" id="boundary" inkscape:connector-curvature="0" />
	<path style="fill:none;stroke:red;stroke-width:1px;stroke-linecap:butt;stroke-linejoin:miter;stroke-opacity:1" d="M 188.468,565.144 194.918,552.244 z" id="boundary" inkscape:connector-curvature="0" />
	<path style="fill:none;stroke:red;stroke-width:1px;stroke-linecap:butt;stroke-linejoin:miter;stroke-opacity:1" d="M 188.468,565.144 178.148,575.464 z" id="boundary" inkscape:connector-curvature="0" />
	<path style="fill:none;stroke:red;stroke-width:1px;stroke-linecap:butt;stroke-linejoin:miter;stroke-opacity:1" d="M 207.818,545.795 194.918,552.244 z" id="boundary" inkscape:connector-curvature="0" />
	<path style="fill:none;stroke:red;stroke-width:1px;stroke-linecap:butt;stroke-linejoin:miter;stroke-opacity:1" d="M 178.148,575.464 178.148,588.364 z" id="boundary" inkscape:connector-curvature="0" />
	<path style="fill:none;stroke:red;stroke-width:1px;stroke-linecap:butt;stroke-linejoin:miter;stroke-opacity:1" d="M 184.598,599.974 197.498,605.134 z" id="boundary" inkscape:connector-curvature="0" />
	<path style="fill:none;stroke:red;stroke-width:1px;stroke-linecap:butt;stroke-linejoin:miter;stroke-opacity:1" d="M 207.818,597.394 197.498,605.134 z" id="boundary" inkscape:connector-curvature="0" />
	<path style="fill:none;stroke:red;stroke-width:1px;stroke-linecap:butt;stroke-linejoin:miter;stroke-opacity:1" d="M 184.598,599.974 178.148,588.364 z" id="boundary" inkscape:connector-curvature="0" />
	<path style="fill:none;stroke:red;stroke-width:1px;stroke-linecap:butt;stroke-linejoin:miter;stroke-opacity:1" d="M 220.718,539.345 233.618,539.345 z" id="boundary" inkscape:connector-curvature="0" />
	<path style="fill:none;stroke:red;stroke-width:1px;stroke-linecap:butt;stroke-linejoin:miter;stroke-opacity:1" d="M 245.228,532.895 233.618,539.345 z" id="boundary" inkscape:connector-curvature="0" />
	<path style="fill:none;stroke:red;stroke-width:1px;stroke-linecap:butt;stroke-linejoin:miter;stroke-opacity:1" d="M 255.547,549.664 242.648,553.534 z" id="boundary" inkscape:connector-curvature="0" />
	<path style="fill:none;stroke:red;stroke-width:1px;stroke-linecap:butt;stroke-linejoin:miter;stroke-opacity:1" d="M 242.648,553.534 233.618,539.345 z" id="boundary" inkscape:connector-curvature="0" />
	<path style="fill:none;stroke:red;stroke-width:1px;stroke-linecap:butt;stroke-linejoin:miter;stroke-opacity:1" d="M 242.648,553.534 231.038,559.984 z" id="boundary" inkscape:connector-curvature="0" />
	<path style="fill:none;stroke:red;stroke-width:1px;stroke-linecap:butt;stroke-linejoin:miter;stroke-opacity:1" d="M 214.268,584.494 207.818,597.394 z" id="boundary" inkscape:connector-curvature="0" />
	<path style="fill:none;stroke:red;stroke-width:1px;stroke-linecap:butt;stroke-linejoin:miter;stroke-opacity:1" d="M 218.138,566.434 231.038,559.984 z" id="boundary" inkscape:connector-curvature="0" />
	<path style="fill:none;stroke:red;stroke-width:1px;stroke-linecap:butt;stroke-linejoin:miter;stroke-opacity:1" d="M 214.268,584.494 218.138,566.434 z" id="boundary" inkscape:connector-curvature="0" />
	<path style="fill:none;stroke:red;stroke-width:1px;stroke-linecap:butt;stroke-linejoin:miter;stroke-opacity:1" d="M 207.818,545.795 220.718,539.345 z" id="boundary" inkscape:connector-curvature="0" />
	<path style="fill:none;stroke:red;stroke-width:1px;stroke-linecap:butt;stroke-linejoin:miter;stroke-opacity:1" d="M 256.837,526.445 245.228,532.895 z" id="boundary" inkscape:connector-curvature="0" />
	<path style="fill:none;stroke:red;stroke-width:1px;stroke-linecap:butt;stroke-linejoin:miter;stroke-opacity:1" d="M 265.867,481.295 278.767,482.585 z" id="boundary" inkscape:connector-curvature="0" />
	<path style="fill:none;stroke:red;stroke-width:1px;stroke-linecap:butt;stroke-linejoin:miter;stroke-opacity:1" d="M 265.867,481.295 252.967,476.135 z" id="boundary" inkscape:connector-curvature="0" />
	<path style="fill:none;stroke:red;stroke-width:1px;stroke-linecap:butt;stroke-linejoin:miter;stroke-opacity:1" d="M 290.377,489.035 278.767,482.585 z" id="boundary" inkscape:connector-curvature="0" />
	<path style="fill:none;stroke:red;stroke-width:1px;stroke-linecap:butt;stroke-linejoin:miter;stroke-opacity:1" d="M 303.277,492.905 290.377,489.035 z" id="boundary" inkscape:connector-curvature="0" />
	<path style="fill:none;stroke:red;stroke-width:1px;stroke-linecap:butt;stroke-linejoin:miter;stroke-opacity:1" d="M 256.837,526.445 268.447,519.995 z" id="boundary" inkscape:connector-curvature="0" />
	<path style="fill:none;stroke:red;stroke-width:1px;stroke-linecap:butt;stroke-linejoin:miter;stroke-opacity:1" d="M 291.667,532.895 278.767,539.345 z" id="boundary" inkscape:connector-curvature="0" />
	<path style="fill:none;stroke:red;stroke-width:1px;stroke-linecap:butt;stroke-linejoin:miter;stroke-opacity:1" d="M 268.447,519.995 281.347,517.415 z" id="boundary" inkscape:connector-curvature="0" />
	<path style="fill:none;stroke:red;stroke-width:1px;stroke-linecap:butt;stroke-linejoin:miter;stroke-opacity:1" d="M 278.767,539.345 268.447,547.085 z" id="boundary" inkscape:connector-curvature="0" />
	<path style="fill:none;stroke:red;stroke-width:1px;stroke-linecap:butt;stroke-linejoin:miter;stroke-opacity:1" d="M 294.247,513.545 281.347,517.415 z" id="boundary" inkscape:connector-curvature="0" />
	<path style="fill:none;stroke:red;stroke-width:1px;stroke-linecap:butt;stroke-linejoin:miter;stroke-opacity:1" d="M 303.277,492.905 305.857,507.095 z" id="boundary" inkscape:connector-curvature="0" />
	<path style="fill:none;stroke:red;stroke-width:1px;stroke-linecap:butt;stroke-linejoin:miter;stroke-opacity:1" d="M 305.857,507.095 294.247,513.545 z" id="boundary" inkscape:connector-curvature="0" />
	<path style="fill:none;stroke:red;stroke-width:1px;stroke-linecap:butt;stroke-linejoin:miter;stroke-opacity:1" d="M 353.586,508.385 341.977,514.835 z" id="boundary" inkscape:connector-curvature="0" />
	<path style="fill:none;stroke:red;stroke-width:1px;stroke-linecap:butt;stroke-linejoin:miter;stroke-opacity:1" d="M 341.977,514.835 329.077,514.835 z" id="boundary" inkscape:connector-curvature="0" />
	<path style="fill:none;stroke:red;stroke-width:1px;stroke-linecap:butt;stroke-linejoin:miter;stroke-opacity:1" d="M 329.077,514.835 317.467,521.285 z" id="boundary" inkscape:connector-curvature="0" />
	<path style="fill:none;stroke:red;stroke-width:1px;stroke-linecap:butt;stroke-linejoin:miter;stroke-opacity:1" d="M 291.667,532.895 304.567,526.445 z" id="boundary" inkscape:connector-curvature="0" />
	<path style="fill:none;stroke:red;stroke-width:1px;stroke-linecap:butt;stroke-linejoin:miter;stroke-opacity:1" d="M 304.567,526.445 317.467,521.285 z" id="boundary" inkscape:connector-curvature="0" />
	<path style="fill:none;stroke:red;stroke-width:1px;stroke-linecap:butt;stroke-linejoin:miter;stroke-opacity:1" d="M 360.036,574.174 349.717,584.494 z" id="boundary" inkscape:connector-curvature="0" />
	<path style="fill:none;stroke:red;stroke-width:1px;stroke-linecap:butt;stroke-linejoin:miter;stroke-opacity:1" d="M 255.547,549.664 268.447,547.085 z" id="boundary" inkscape:connector-curvature="0" />
	<path style="fill:none;stroke:red;stroke-width:1px;stroke-linecap:butt;stroke-linejoin:miter;stroke-opacity:1" d="M 320.047,620.614 307.147,633.514 z" id="boundary" inkscape:connector-curvature="0" />
	<path style="fill:none;stroke:red;stroke-width:1px;stroke-linecap:butt;stroke-linejoin:miter;stroke-opacity:1" d="M 307.147,633.514 294.247,646.414 z" id="boundary" inkscape:connector-curvature="0" />
	<path style="fill:none;stroke:red;stroke-width:1px;stroke-linecap:butt;stroke-linejoin:miter;stroke-opacity:1" d="M 294.247,646.414 294.247,659.313 z" id="boundary" inkscape:connector-curvature="0" />
	<path style="fill:none;stroke:red;stroke-width:1px;stroke-linecap:butt;stroke-linejoin:miter;stroke-opacity:1" d="M 304.567,668.343 317.467,661.893 z" id="boundary" inkscape:connector-curvature="0" />
	<path style="fill:none;stroke:red;stroke-width:1px;stroke-linecap:butt;stroke-linejoin:miter;stroke-opacity:1" d="M 304.567,668.343 294.247,659.313 z" id="boundary" inkscape:connector-curvature="0" />
	<path style="fill:none;stroke:red;stroke-width:1px;stroke-linecap:butt;stroke-linejoin:miter;stroke-opacity:1" d="M 321.337,643.834 317.467,661.893 z" id="boundary" inkscape:connector-curvature="0" />
	<path style="fill:none;stroke:red;stroke-width:1px;stroke-linecap:butt;stroke-linejoin:miter;stroke-opacity:1" d="M 307.147,633.514 321.337,643.834 z" id="boundary" inkscape:connector-curvature="0" />
	<path style="fill:none;stroke:red;stroke-width:1px;stroke-linecap:butt;stroke-linejoin:miter;stroke-opacity:1" d="M 326.497,607.714 339.397,594.814 z" id="boundary" inkscape:connector-curvature="0" />
	<path style="fill:none;stroke:red;stroke-width:1px;stroke-linecap:butt;stroke-linejoin:miter;stroke-opacity:1" d="M 357.456,596.104 351.007,609.004 z" id="boundary" inkscape:connector-curvature="0" />
	<path style="fill:none;stroke:red;stroke-width:1px;stroke-linecap:butt;stroke-linejoin:miter;stroke-opacity:1" d="M 349.717,584.494 357.456,596.104 z" id="boundary" inkscape:connector-curvature="0" />
	<path style="fill:none;stroke:red;stroke-width:1px;stroke-linecap:butt;stroke-linejoin:miter;stroke-opacity:1" d="M 339.397,594.814 349.717,584.494 z" id="boundary" inkscape:connector-curvature="0" />
	<path style="fill:none;stroke:red;stroke-width:1px;stroke-linecap:butt;stroke-linejoin:miter;stroke-opacity:1" d="M 351.007,609.004 340.687,618.034 z" id="boundary" inkscape:connector-curvature="0" />
	<path style="fill:none;stroke:red;stroke-width:1px;stroke-linecap:butt;stroke-linejoin:miter;stroke-opacity:1" d="M 320.047,620.614 331.657,634.804 z" id="boundary" inkscape:connector-curvature="0" />
	<path style="fill:none;stroke:red;stroke-width:1px;stroke-linecap:butt;stroke-linejoin:miter;stroke-opacity:1" d="M 331.657,634.804 321.337,643.834 z" id="boundary" inkscape:connector-curvature="0" />
	<path style="fill:none;stroke:red;stroke-width:1px;stroke-linecap:butt;stroke-linejoin:miter;stroke-opacity:1" d="M 320.047,620.614 326.497,607.714 z" id="boundary" inkscape:connector-curvature="0" />
	<path style="fill:none;stroke:red;stroke-width:1px;stroke-linecap:butt;stroke-linejoin:miter;stroke-opacity:1" d="M 348.427,203.948 360.036,210.398 z" id="boundary" inkscape:connector-curvature="0" />
	<path style="fill:none;stroke:red;stroke-width:1px;stroke-linecap:butt;stroke-linejoin:miter;stroke-opacity:1" d="M 371.646,216.848 383.256,223.298 z" id="boundary" inkscape:connector-curvature="0" />
	<path style="fill:none;stroke:red;stroke-width:1px;stroke-linecap:butt;stroke-linejoin:miter;stroke-opacity:1" d="M 371.646,216.848 360.036,210.398 z" id="boundary" inkscape:connector-curvature="0" />
	<path style="fill:none;stroke:red;stroke-width:1px;stroke-linecap:butt;stroke-linejoin:miter;stroke-opacity:1" d="M 396.156,224.588 383.256,223.298 z" id="boundary" inkscape:connector-curvature="0" />
	<path style="fill:none;stroke:red;stroke-width:1px;stroke-linecap:butt;stroke-linejoin:miter;stroke-opacity:1" d="M 407.766,231.038 418.086,240.068 z" id="boundary" inkscape:connector-curvature="0" />
	<path style="fill:none;stroke:red;stroke-width:1px;stroke-linecap:butt;stroke-linejoin:miter;stroke-opacity:1" d="M 418.086,240.068 429.696,246.518 z" id="boundary" inkscape:connector-curvature="0" />
	<path style="fill:none;stroke:red;stroke-width:1px;stroke-linecap:butt;stroke-linejoin:miter;stroke-opacity:1" d="M 442.596,251.678 429.696,246.518 z" id="boundary" inkscape:connector-curvature="0" />
	<path style="fill:none;stroke:red;stroke-width:1px;stroke-linecap:butt;stroke-linejoin:miter;stroke-opacity:1" d="M 396.156,224.588 407.766,231.038 z" id="boundary" inkscape:connector-curvature="0" />
	<path style="fill:none;stroke:red;stroke-width:1px;stroke-linecap:butt;stroke-linejoin:miter;stroke-opacity:1" d="M 467.105,263.287 454.205,258.127 z" id="boundary" inkscape:connector-curvature="0" />
	<path style="fill:none;stroke:red;stroke-width:1px;stroke-linecap:butt;stroke-linejoin:miter;stroke-opacity:1" d="M 454.205,258.127 442.596,251.678 z" id="boundary" inkscape:connector-curvature="0" />
	<path style="fill:none;stroke:red;stroke-width:1px;stroke-linecap:butt;stroke-linejoin:miter;stroke-opacity:1" d="M 480.005,268.447 467.105,263.287 z" id="boundary" inkscape:connector-curvature="0" />
	<path style="fill:none;stroke:red;stroke-width:1px;stroke-linecap:butt;stroke-linejoin:miter;stroke-opacity:1" d="M 503.225,281.347 491.615,274.897 z" id="boundary" inkscape:connector-curvature="0" />
	<path style="fill:none;stroke:red;stroke-width:1px;stroke-linecap:butt;stroke-linejoin:miter;stroke-opacity:1" d="M 526.445,294.247 514.835,287.797 z" id="boundary" inkscape:connector-curvature="0" />
	<path style="fill:none;stroke:red;stroke-width:1px;stroke-linecap:butt;stroke-linejoin:miter;stroke-opacity:1" d="M 514.835,287.797 503.225,281.347 z" id="boundary" inkscape:connector-curvature="0" />
	<path style="fill:none;stroke:red;stroke-width:1px;stroke-linecap:butt;stroke-linejoin:miter;stroke-opacity:1" d="M 480.005,268.447 491.615,274.897 z" id="boundary" inkscape:connector-curvature="0" />
	<path style="fill:none;stroke:red;stroke-width:1px;stroke-linecap:butt;stroke-linejoin:miter;stroke-opacity:1" d="M 549.664,307.147 536.765,301.987 z" id="boundary" inkscape:connector-curvature="0" />
	<path style="fill:none;stroke:red;stroke-width:1px;stroke-linecap:butt;stroke-linejoin:miter;stroke-opacity:1" d="M 536.765,301.987 526.445,294.247 z" id="boundary" inkscape:connector-curvature="0" />
	<path style="fill:none;stroke:red;stroke-width:1px;stroke-linecap:butt;stroke-linejoin:miter;stroke-opacity:1" d="M 561.274,313.597 549.664,307.147 z" id="boundary" inkscape:connector-curvature="0" />
	<path style="fill:none;stroke:red;stroke-width:1px;stroke-linecap:butt;stroke-linejoin:miter;stroke-opacity:1" d="M 561.274,313.597 572.884,320.047 z" id="boundary" inkscape:connector-curvature="0" />
	<path style="fill:none;stroke:red;stroke-width:1px;stroke-linecap:butt;stroke-linejoin:miter;stroke-opacity:1" d="M 572.884,320.047 584.494,326.497 z" id="boundary" inkscape:connector-curvature="0" />
	<path style="fill:none;stroke:red;stroke-width:1px;stroke-linecap:butt;stroke-linejoin:miter;stroke-opacity:1" d="M 584.494,326.497 596.104,332.947 z" id="boundary" inkscape:connector-curvature="0" />
	<path style="fill:none;stroke:red;stroke-width:1px;stroke-linecap:butt;stroke-linejoin:miter;stroke-opacity:1" d="M 596.104,332.947 609.004,334.237 z" id="boundary" inkscape:connector-curvature="0" />
	<path style="fill:none;stroke:red;stroke-width:1px;stroke-linecap:butt;stroke-linejoin:miter;stroke-opacity:1" d="M 621.904,339.397 634.804,340.687 z" id="boundary" inkscape:connector-curvature="0" />
	<path style="fill:none;stroke:red;stroke-width:1px;stroke-linecap:butt;stroke-linejoin:miter;stroke-opacity:1" d="M 621.904,339.397 609.004,334.237 z" id="boundary" inkscape:connector-curvature="0" />
	<path style="fill:none;stroke:red;stroke-width:1px;stroke-linecap:butt;stroke-linejoin:miter;stroke-opacity:1" d="M 602.554,418.086 615.454,418.086 z" id="boundary" inkscape:connector-curvature="0" />
	<path style="fill:none;stroke:red;stroke-width:1px;stroke-linecap:butt;stroke-linejoin:miter;stroke-opacity:1" d="M 628.354,418.086 641.254,418.086 z" id="boundary" inkscape:connector-curvature="0" />
	<path style="fill:none;stroke:red;stroke-width:1px;stroke-linecap:butt;stroke-linejoin:miter;stroke-opacity:1" d="M 628.354,418.086 615.454,418.086 z" id="boundary" inkscape:connector-curvature="0" />
	<path style="fill:none;stroke:red;stroke-width:1px;stroke-linecap:butt;stroke-linejoin:miter;stroke-opacity:1" d="M 634.804,340.687 647.704,345.847 z" id="boundary" inkscape:connector-curvature="0" />
	<path style="fill:none;stroke:red;stroke-width:1px;stroke-linecap:butt;stroke-linejoin:miter;stroke-opacity:1" d="M 602.554,418.086 589.654,418.086 z" id="boundary" inkscape:connector-curvature="0" />
	<path style="fill:none;stroke:red;stroke-width:1px;stroke-linecap:butt;stroke-linejoin:miter;stroke-opacity:1" d="M 578.044,424.536 589.654,418.086 z" id="boundary" inkscape:connector-curvature="0" />
	<path style="fill:none;stroke:red;stroke-width:1px;stroke-linecap:butt;stroke-linejoin:miter;stroke-opacity:1" d="M 647.704,345.847 660.603,345.847 z" id="boundary" inkscape:connector-curvature="0" />
	<path style="fill:none;stroke:red;stroke-width:1px;stroke-linecap:butt;stroke-linejoin:miter;stroke-opacity:1" d="M 673.503,345.847 660.603,345.847 z" id="boundary" inkscape:connector-curvature="0" />
	<path style="fill:none;stroke:red;stroke-width:1px;stroke-linecap:butt;stroke-linejoin:miter;stroke-opacity:1" d="M 673.503,345.847 686.403,345.847 z" id="boundary" inkscape:connector-curvature="0" />
	<path style="fill:none;stroke:red;stroke-width:1px;stroke-linecap:butt;stroke-linejoin:miter;stroke-opacity:1" d="M 699.303,347.137 686.403,345.847 z" id="boundary" inkscape:connector-curvature="0" />
	<path style="fill:none;stroke:red;stroke-width:1px;stroke-linecap:butt;stroke-linejoin:miter;stroke-opacity:1" d="M 699.303,347.137 712.203,352.296 z" id="boundary" inkscape:connector-curvature="0" />
	<path style="fill:none;stroke:red;stroke-width:1px;stroke-linecap:butt;stroke-linejoin:miter;stroke-opacity:1" d="M 725.103,352.296 712.203,352.296 z" id="boundary" inkscape:connector-curvature="0" />
	<path style="fill:none;stroke:red;stroke-width:1px;stroke-linecap:butt;stroke-linejoin:miter;stroke-opacity:1" d="M 738.003,352.296 725.103,352.296 z" id="boundary" inkscape:connector-curvature="0" />
	<path style="fill:none;stroke:red;stroke-width:1px;stroke-linecap:butt;stroke-linejoin:miter;stroke-opacity:1" d="M 679.953,418.086 667.053,418.086 z" id="boundary" inkscape:connector-curvature="0" />
	<path style="fill:none;stroke:red;stroke-width:1px;stroke-linecap:butt;stroke-linejoin:miter;stroke-opacity:1" d="M 738.003,352.296 750.902,352.296 z" id="boundary" inkscape:connector-curvature="0" />
	<path style="fill:none;stroke:red;stroke-width:1px;stroke-linecap:butt;stroke-linejoin:miter;stroke-opacity:1" d="M 763.802,352.296 775.412,358.746 z" id="boundary" inkscape:connector-curvature="0" />
	<path style="fill:none;stroke:red;stroke-width:1px;stroke-linecap:butt;stroke-linejoin:miter;stroke-opacity:1" d="M 750.902,352.296 763.802,352.296 z" id="boundary" inkscape:connector-curvature="0" />
	<path style="fill:none;stroke:red;stroke-width:1px;stroke-linecap:butt;stroke-linejoin:miter;stroke-opacity:1" d="M 788.312,358.746 775.412,358.746 z" id="boundary" inkscape:connector-curvature="0" />
	<path style="fill:none;stroke:red;stroke-width:1px;stroke-linecap:butt;stroke-linejoin:miter;stroke-opacity:1" d="M 788.312,358.746 799.922,365.196 z" id="boundary" inkscape:connector-curvature="0" />
	<path style="fill:none;stroke:red;stroke-width:1px;stroke-linecap:butt;stroke-linejoin:miter;stroke-opacity:1" d="M 812.822,365.196 799.922,365.196 z" id="boundary" inkscape:connector-curvature="0" />
	<path style="fill:none;stroke:red;stroke-width:1px;stroke-linecap:butt;stroke-linejoin:miter;stroke-opacity:1" d="M 812.822,365.196 825.722,365.196 z" id="boundary" inkscape:connector-curvature="0" />
	<path style="fill:none;stroke:red;stroke-width:1px;stroke-linecap:butt;stroke-linejoin:miter;stroke-opacity:1" d="M 838.622,365.196 825.722,365.196 z" id="boundary" inkscape:connector-curvature="0" />
	<path style="fill:none;stroke:red;stroke-width:1px;stroke-linecap:butt;stroke-linejoin:miter;stroke-opacity:1" d="M 863.131,371.646 850.231,371.646 z" id="boundary" inkscape:connector-curvature="0" />
	<path style="fill:none;stroke:red;stroke-width:1px;stroke-linecap:butt;stroke-linejoin:miter;stroke-opacity:1" d="M 850.231,371.646 838.622,365.196 z" id="boundary" inkscape:connector-curvature="0" />
	<path style="fill:none;stroke:red;stroke-width:1px;stroke-linecap:butt;stroke-linejoin:miter;stroke-opacity:1" d="M 876.031,371.646 863.131,371.646 z" id="boundary" inkscape:connector-curvature="0" />
	<path style="fill:none;stroke:red;stroke-width:1px;stroke-linecap:butt;stroke-linejoin:miter;stroke-opacity:1" d="M 654.153,418.086 667.053,418.086 z" id="boundary" inkscape:connector-curvature="0" />
	<path style="fill:none;stroke:red;stroke-width:1px;stroke-linecap:butt;stroke-linejoin:miter;stroke-opacity:1" d="M 888.931,371.646 876.031,371.646 z" id="boundary" inkscape:connector-curvature="0" />
	<path style="fill:none;stroke:red;stroke-width:1px;stroke-linecap:butt;stroke-linejoin:miter;stroke-opacity:1" d="M 901.831,371.646 888.931,371.646 z" id="boundary" inkscape:connector-curvature="0" />
	<path style="fill:none;stroke:red;stroke-width:1px;stroke-linecap:butt;stroke-linejoin:miter;stroke-opacity:1" d="M 901.831,371.646 913.441,378.096 z" id="boundary" inkscape:connector-curvature="0" />
	<path style="fill:none;stroke:red;stroke-width:1px;stroke-linecap:butt;stroke-linejoin:miter;stroke-opacity:1" d="M 926.341,380.676 913.441,378.096 z" id="boundary" inkscape:connector-curvature="0" />
	<path style="fill:none;stroke:red;stroke-width:1px;stroke-linecap:butt;stroke-linejoin:miter;stroke-opacity:1" d="M 952.14,387.126 939.241,384.546 z" id="boundary" inkscape:connector-curvature="0" />
	<path style="fill:none;stroke:red;stroke-width:1px;stroke-linecap:butt;stroke-linejoin:miter;stroke-opacity:1" d="M 939.241,384.546 926.341,380.676 z" id="boundary" inkscape:connector-curvature="0" />
	<path style="fill:none;stroke:red;stroke-width:1px;stroke-linecap:butt;stroke-linejoin:miter;stroke-opacity:1" d="M 952.14,387.126 959.88,397.446 z" id="boundary" inkscape:connector-curvature="0" />
	<path style="fill:none;stroke:red;stroke-width:1px;stroke-linecap:butt;stroke-linejoin:miter;stroke-opacity:1" d="M 972.78,401.316 959.88,397.446 z" id="boundary" inkscape:connector-curvature="0" />
	<path style="fill:none;stroke:red;stroke-width:1px;stroke-linecap:butt;stroke-linejoin:miter;stroke-opacity:1" d="M 984.39,407.766 972.78,401.316 z" id="boundary" inkscape:connector-curvature="0" />
	<path style="fill:none;stroke:red;stroke-width:1px;stroke-linecap:butt;stroke-linejoin:miter;stroke-opacity:1" d="M 654.153,418.086 641.254,418.086 z" id="boundary" inkscape:connector-curvature="0" />
	<path style="fill:none;stroke:red;stroke-width:1px;stroke-linecap:butt;stroke-linejoin:miter;stroke-opacity:1" d="M 469.685,463.235 459.365,474.845 z" id="boundary" inkscape:connector-curvature="0" />
	<path style="fill:none;stroke:red;stroke-width:1px;stroke-linecap:butt;stroke-linejoin:miter;stroke-opacity:1" d="M 459.365,474.845 449.046,482.585 z" id="boundary" inkscape:connector-curvature="0" />
	<path style="fill:none;stroke:red;stroke-width:1px;stroke-linecap:butt;stroke-linejoin:miter;stroke-opacity:1" d="M 449.046,482.585 437.436,489.035 z" id="boundary" inkscape:connector-curvature="0" />
	<path style="fill:none;stroke:red;stroke-width:1px;stroke-linecap:butt;stroke-linejoin:miter;stroke-opacity:1" d="M 469.685,463.235 481.295,456.785 z" id="boundary" inkscape:connector-curvature="0" />
	<path style="fill:none;stroke:red;stroke-width:1px;stroke-linecap:butt;stroke-linejoin:miter;stroke-opacity:1" d="M 366.486,510.965 353.586,508.385 z" id="boundary" inkscape:connector-curvature="0" />
	<path style="fill:none;stroke:red;stroke-width:1px;stroke-linecap:butt;stroke-linejoin:miter;stroke-opacity:1" d="M 424.536,521.285 424.536,508.385 z" id="boundary" inkscape:connector-curvature="0" />
	<path style="fill:none;stroke:red;stroke-width:1px;stroke-linecap:butt;stroke-linejoin:miter;stroke-opacity:1" d="M 424.536,508.385 424.536,495.485 z" id="boundary" inkscape:connector-curvature="0" />
	<path style="fill:none;stroke:red;stroke-width:1px;stroke-linecap:butt;stroke-linejoin:miter;stroke-opacity:1" d="M 424.536,495.485 437.436,489.035 z" id="boundary" inkscape:connector-curvature="0" />
	<path style="fill:none;stroke:red;stroke-width:1px;stroke-linecap:butt;stroke-linejoin:miter;stroke-opacity:1" d="M 516.125,437.436 529.025,437.436 z" id="boundary" inkscape:connector-curvature="0" />
	<path style="fill:none;stroke:red;stroke-width:1px;stroke-linecap:butt;stroke-linejoin:miter;stroke-opacity:1" d="M 504.515,443.886 516.125,437.436 z" id="boundary" inkscape:connector-curvature="0" />
	<path style="fill:none;stroke:red;stroke-width:1px;stroke-linecap:butt;stroke-linejoin:miter;stroke-opacity:1" d="M 553.534,430.986 541.925,437.436 z" id="boundary" inkscape:connector-curvature="0" />
	<path style="fill:none;stroke:red;stroke-width:1px;stroke-linecap:butt;stroke-linejoin:miter;stroke-opacity:1" d="M 541.925,437.436 529.025,437.436 z" id="boundary" inkscape:connector-curvature="0" />
	<path style="fill:none;stroke:red;stroke-width:1px;stroke-linecap:butt;stroke-linejoin:miter;stroke-opacity:1" d="M 566.434,430.986 553.534,430.986 z" id="boundary" inkscape:connector-curvature="0" />
	<path style="fill:none;stroke:red;stroke-width:1px;stroke-linecap:butt;stroke-linejoin:miter;stroke-opacity:1" d="M 578.044,424.536 566.434,430.986 z" id="boundary" inkscape:connector-curvature="0" />
	<path style="fill:none;stroke:red;stroke-width:1px;stroke-linecap:butt;stroke-linejoin:miter;stroke-opacity:1" d="M 492.905,450.336 504.515,443.886 z" id="boundary" inkscape:connector-curvature="0" />
	<path style="fill:none;stroke:red;stroke-width:1px;stroke-linecap:butt;stroke-linejoin:miter;stroke-opacity:1" d="M 492.905,450.336 481.295,456.785 z" id="boundary" inkscape:connector-curvature="0" />
	<path style="fill:none;stroke:red;stroke-width:1px;stroke-linecap:butt;stroke-linejoin:miter;stroke-opacity:1" d="M 366.486,510.965 378.096,517.415 z" id="boundary" inkscape:connector-curvature="0" />
	<path style="fill:none;stroke:red;stroke-width:1px;stroke-linecap:butt;stroke-linejoin:miter;stroke-opacity:1" d="M 389.706,545.795 379.386,554.824 z" id="boundary" inkscape:connector-curvature="0" />
	<path style="fill:none;stroke:red;stroke-width:1px;stroke-linecap:butt;stroke-linejoin:miter;stroke-opacity:1" d="M 379.386,554.824 370.356,565.144 z" id="boundary" inkscape:connector-curvature="0" />
	<path style="fill:none;stroke:red;stroke-width:1px;stroke-linecap:butt;stroke-linejoin:miter;stroke-opacity:1" d="M 370.356,589.654 357.456,596.104 z" id="boundary" inkscape:connector-curvature="0" />
	<path style="fill:none;stroke:red;stroke-width:1px;stroke-linecap:butt;stroke-linejoin:miter;stroke-opacity:1" d="M 379.386,579.334 370.356,589.654 z" id="boundary" inkscape:connector-curvature="0" />
	<path style="fill:none;stroke:red;stroke-width:1px;stroke-linecap:butt;stroke-linejoin:miter;stroke-opacity:1" d="M 370.356,565.144 379.386,579.334 z" id="boundary" inkscape:connector-curvature="0" />
	<path style="fill:none;stroke:red;stroke-width:1px;stroke-linecap:butt;stroke-linejoin:miter;stroke-opacity:1" d="M 360.036,574.174 370.356,565.144 z" id="boundary" inkscape:connector-curvature="0" />
	<path style="fill:none;stroke:red;stroke-width:1px;stroke-linecap:butt;stroke-linejoin:miter;stroke-opacity:1" d="M 389.706,545.795 390.996,521.285 z" id="boundary" inkscape:connector-curvature="0" />
	<path style="fill:none;stroke:red;stroke-width:1px;stroke-linecap:butt;stroke-linejoin:miter;stroke-opacity:1" d="M 389.706,545.795 398.736,559.984 z" id="boundary" inkscape:connector-curvature="0" />
	<path style="fill:none;stroke:red;stroke-width:1px;stroke-linecap:butt;stroke-linejoin:miter;stroke-opacity:1" d="M 418.086,540.635 424.536,521.285 z" id="boundary" inkscape:connector-curvature="0" />
	<path style="fill:none;stroke:red;stroke-width:1px;stroke-linecap:butt;stroke-linejoin:miter;stroke-opacity:1" d="M 390.996,521.285 378.096,517.415 z" id="boundary" inkscape:connector-curvature="0" />
	<path style="fill:none;stroke:red;stroke-width:1px;stroke-linecap:butt;stroke-linejoin:miter;stroke-opacity:1" d="M 418.086,540.635 411.636,553.534 z" id="boundary" inkscape:connector-curvature="0" />
	<path style="fill:none;stroke:red;stroke-width:1px;stroke-linecap:butt;stroke-linejoin:miter;stroke-opacity:1" d="M 379.386,579.334 390.996,572.884 z" id="boundary" inkscape:connector-curvature="0" />
	<path style="fill:none;stroke:red;stroke-width:1px;stroke-linecap:butt;stroke-linejoin:miter;stroke-opacity:1" d="M 398.736,559.984 411.636,553.534 z" id="boundary" inkscape:connector-curvature="0" />
	<path style="fill:none;stroke:red;stroke-width:1px;stroke-linecap:butt;stroke-linejoin:miter;stroke-opacity:1" d="M 390.996,572.884 398.736,559.984 z" id="boundary" inkscape:connector-curvature="0" />
	<path style="fill:none;stroke:red;stroke-width:1px;stroke-linecap:butt;stroke-linejoin:miter;stroke-opacity:1" d="M 679.953,418.086 691.563,424.536 z" id="boundary" inkscape:connector-curvature="0" />
	<path style="fill:none;stroke:red;stroke-width:1px;stroke-linecap:butt;stroke-linejoin:miter;stroke-opacity:1" d="M 704.463,424.536 691.563,424.536 z" id="boundary" inkscape:connector-curvature="0" />
	<path style="fill:none;stroke:red;stroke-width:1px;stroke-linecap:butt;stroke-linejoin:miter;stroke-opacity:1" d="M 717.363,429.696 728.973,436.146 z" id="boundary" inkscape:connector-curvature="0" />
	<path style="fill:none;stroke:red;stroke-width:1px;stroke-linecap:butt;stroke-linejoin:miter;stroke-opacity:1" d="M 717.363,429.696 704.463,424.536 z" id="boundary" inkscape:connector-curvature="0" />
	<path style="fill:none;stroke:red;stroke-width:1px;stroke-linecap:butt;stroke-linejoin:miter;stroke-opacity:1" d="M 741.873,437.436 728.973,436.146 z" id="boundary" inkscape:connector-curvature="0" />
	<path style="fill:none;stroke:red;stroke-width:1px;stroke-linecap:butt;stroke-linejoin:miter;stroke-opacity:1" d="M 741.873,437.436 754.772,441.306 z" id="boundary" inkscape:connector-curvature="0" />
	<path style="fill:none;stroke:red;stroke-width:1px;stroke-linecap:butt;stroke-linejoin:miter;stroke-opacity:1" d="M 754.772,441.306 767.672,443.886 z" id="boundary" inkscape:connector-curvature="0" />
	<path style="fill:none;stroke:red;stroke-width:1px;stroke-linecap:butt;stroke-linejoin:miter;stroke-opacity:1" d="M 767.672,443.886 779.282,450.336 z" id="boundary" inkscape:connector-curvature="0" />
	<path style="fill:none;stroke:red;stroke-width:1px;stroke-linecap:butt;stroke-linejoin:miter;stroke-opacity:1" d="M 829.592,456.785 816.692,456.785 z" id="boundary" inkscape:connector-curvature="0" />
	<path style="fill:none;stroke:red;stroke-width:1px;stroke-linecap:butt;stroke-linejoin:miter;stroke-opacity:1" d="M 779.282,450.336 792.182,450.336 z" id="boundary" inkscape:connector-curvature="0" />
	<path style="fill:none;stroke:red;stroke-width:1px;stroke-linecap:butt;stroke-linejoin:miter;stroke-opacity:1" d="M 792.182,450.336 803.792,456.785 z" id="boundary" inkscape:connector-curvature="0" />
	<path style="fill:none;stroke:red;stroke-width:1px;stroke-linecap:butt;stroke-linejoin:miter;stroke-opacity:1" d="M 994.71,430.986 996,447.756 z" id="boundary" inkscape:connector-curvature="0" />
	<path style="fill:none;stroke:red;stroke-width:1px;stroke-linecap:butt;stroke-linejoin:miter;stroke-opacity:1" d="M 996,447.756 985.68,456.785 z" id="boundary" inkscape:connector-curvature="0" />
	<path style="fill:none;stroke:red;stroke-width:1px;stroke-linecap:butt;stroke-linejoin:miter;stroke-opacity:1" d="M 816.692,456.785 803.792,456.785 z" id="boundary" inkscape:connector-curvature="0" />
	<path style="fill:none;stroke:red;stroke-width:1px;stroke-linecap:butt;stroke-linejoin:miter;stroke-opacity:1" d="M 984.39,407.766 992.13,418.086 z" id="boundary" inkscape:connector-curvature="0" />
	<path style="fill:none;stroke:red;stroke-width:1px;stroke-linecap:butt;stroke-linejoin:miter;stroke-opacity:1" d="M 992.13,418.086 994.71,430.986 z" id="boundary" inkscape:connector-curvature="0" />
	<path style="fill:none;stroke:red;stroke-width:1px;stroke-linecap:butt;stroke-linejoin:miter;stroke-opacity:1" d="M 829.592,456.785 841.202,463.235 z" id="boundary" inkscape:connector-curvature="0" />
	<path style="fill:none;stroke:red;stroke-width:1px;stroke-linecap:butt;stroke-linejoin:miter;stroke-opacity:1" d="M 854.101,463.235 841.202,463.235 z" id="boundary" inkscape:connector-curvature="0" />
	<path style="fill:none;stroke:red;stroke-width:1px;stroke-linecap:butt;stroke-linejoin:miter;stroke-opacity:1" d="M 854.101,463.235 865.711,469.685 z" id="boundary" inkscape:connector-curvature="0" />
	<path style="fill:none;stroke:red;stroke-width:1px;stroke-linecap:butt;stroke-linejoin:miter;stroke-opacity:1" d="M 878.611,469.685 865.711,469.685 z" id="boundary" inkscape:connector-curvature="0" />
	<path style="fill:none;stroke:red;stroke-width:1px;stroke-linecap:butt;stroke-linejoin:miter;stroke-opacity:1" d="M 878.611,469.685 890.221,476.135 z" id="boundary" inkscape:connector-curvature="0" />
	<path style="fill:none;stroke:red;stroke-width:1px;stroke-linecap:butt;stroke-linejoin:miter;stroke-opacity:1" d="M 890.221,476.135 903.121,480.005 z" id="boundary" inkscape:connector-curvature="0" />
	<path style="fill:none;stroke:red;stroke-width:1px;stroke-linecap:butt;stroke-linejoin:miter;stroke-opacity:1" d="M 928.921,482.585 916.021,482.585 z" id="boundary" inkscape:connector-curvature="0" />
	<path style="fill:none;stroke:red;stroke-width:1px;stroke-linecap:butt;stroke-linejoin:miter;stroke-opacity:1" d="M 977.94,469.685 985.68,456.785 z" id="boundary" inkscape:connector-curvature="0" />
	<path style="fill:none;stroke:red;stroke-width:1px;stroke-linecap:butt;stroke-linejoin:miter;stroke-opacity:1" d="M 977.94,469.685 966.33,476.135 z" id="boundary" inkscape:connector-curvature="0" />
	<path style="fill:none;stroke:red;stroke-width:1px;stroke-linecap:butt;stroke-linejoin:miter;stroke-opacity:1" d="M 916.021,482.585 903.121,480.005 z" id="boundary" inkscape:connector-curvature="0" />
	<path style="fill:none;stroke:red;stroke-width:1px;stroke-linecap:butt;stroke-linejoin:miter;stroke-opacity:1" d="M 941.821,482.585 954.72,482.585 z" id="boundary" inkscape:connector-curvature="0" />
	<path style="fill:none;stroke:red;stroke-width:1px;stroke-linecap:butt;stroke-linejoin:miter;stroke-opacity:1" d="M 966.33,476.135 954.72,482.585 z" id="boundary" inkscape:connector-curvature="0" />
	<path style="fill:none;stroke:red;stroke-width:1px;stroke-linecap:butt;stroke-linejoin:miter;stroke-opacity:1" d="M 941.821,482.585 928.921,482.585 z" id="boundary" inkscape:connector-curvature="0" />
	<circle cx="4" cy="117.519" r="4" fill="#0" id="circle0"/>
	<circle cx="10.4499" cy="129.129" r="4" fill="#0" id="circle1"/>
	<circle cx="14.3199" cy="107.199" r="4" fill="#0" id="circle2"/>
	<circle cx="19.4798" cy="139.449" r="4" fill="#0" id="circle3"/>
	<circle cx="27.2198" cy="107.199" r="4" fill="#0" id="circle4"/>
	<circle cx="29.7997" cy="147.189" r="4" fill="#0" id="circle5"/>
	<circle cx="38.8296" cy="100.749" r="4" fill="#0" id="circle6"/>
	<circle cx="41.4096" cy="153.638" r="4" fill="#0" id="circle7"/>
	<circle cx="51.7295" cy="95.5891" r="4" fill="#0" id="circle8"/>
	<circle cx="53.0195" cy="160.088" r="4" fill="#0" id="circle9"/>
	<circle cx="62.0494" cy="87.8492" r="4" fill="#0" id="circle10"/>
	<circle cx="62.0494" cy="170.408" r="4" fill="#0" id="circle11"/>
	<circle cx="68.4993" cy="182.018" r="4" fill="#0" id="circle12"/>
	<circle cx="68.4993" cy="194.918" r="4" fill="#0" id="circle13"/>
	<circle cx="73.6593" cy="81.3992" r="4" fill="#0" id="circle14"/>
	<circle cx="74.9493" cy="206.528" r="4" fill="#0" id="circle15"/>
	<circle cx="74.9493" cy="219.428" r="4" fill="#0" id="circle16"/>
	<circle cx="81.3992" cy="231.038" r="4" fill="#0" id="circle17"/>
	<circle cx="81.3992" cy="243.938" r="4" fill="#0" id="circle18"/>
	<circle cx="82.6892" cy="71.0793" r="4" fill="#0" id="circle19"/>
	<circle cx="87.8492" cy="255.547" r="4" fill="#0" id="circle20"/>
	<circle cx="87.8492" cy="268.447" r="4" fill="#0" id="circle21"/>
	<circle cx="87.8492" cy="281.347" r="4" fill="#0" id="circle22"/>
	<circle cx="90.4291" cy="294.247" r="4" fill="#0" id="circle23"/>
	<circle cx="93.0091" cy="62.0494" r="4" fill="#0" id="circle24"/>
	<circle cx="94.2991" cy="307.147" r="4" fill="#0" id="circle25"/>
	<circle cx="100.749" cy="318.757" r="4" fill="#0" id="circle26"/>
	<circle cx="102.039" cy="51.7295" r="4" fill="#0" id="circle27"/>
	<circle cx="107.199" cy="330.367" r="4" fill="#0" id="circle28"/>
	<circle cx="113.649" cy="341.977" r="4" fill="#0" id="circle29"/>
	<circle cx="114.939" cy="45.2796" r="4" fill="#0" id="circle30"/>
	<circle cx="120.099" cy="353.586" r="4" fill="#0" id="circle31"/>
	<circle cx="125.259" cy="36.2497" r="4" fill="#0" id="circle32"/>
	<circle cx="127.839" cy="363.906" r="4" fill="#0" id="circle33"/>
	<circle cx="134.289" cy="375.516" r="4" fill="#0" id="circle34"/>
	<circle cx="136.869" cy="29.7997" r="4" fill="#0" id="circle35"/>
	<circle cx="143.319" cy="385.836" r="4" fill="#0" id="circle36"/>
	<circle cx="147.189" cy="19.4798" r="4" fill="#0" id="circle37"/>
	<circle cx="149.769" cy="397.446" r="4" fill="#0" id="circle38"/>
	<circle cx="158.798" cy="407.766" r="4" fill="#0" id="circle39"/>
	<circle cx="160.088" cy="13.0299" r="4" fill="#0" id="circle40"/>
	<circle cx="169.118" cy="416.796" r="4" fill="#0" id="circle41"/>
	<circle cx="172.988" cy="6.57997" r="4" fill="#0" id="circle42"/>
	<circle cx="178.148" cy="427.116" r="4" fill="#0" id="circle43"/>
	<circle cx="178.148" cy="575.464" r="4" fill="#0" id="circle44"/>
	<circle cx="178.148" cy="588.364" r="4" fill="#0" id="circle45"/>
	<circle cx="184.598" cy="599.974" r="4" fill="#0" id="circle46"/>
	<circle cx="185.888" cy="4" r="4" fill="#0" id="circle47"/>
	<circle cx="188.468" cy="436.146" r="4" fill="#0" id="circle48"/>
	<circle cx="188.468" cy="565.144" r="4" fill="#0" id="circle49"/>
	<circle cx="194.918" cy="552.244" r="4" fill="#0" id="circle50"/>
	<circle cx="197.498" cy="446.466" r="4" fill="#0" id="circle51"/>
	<circle cx="197.498" cy="605.134" r="4" fill="#0" id="circle52"/>
	<circle cx="198.788" cy="7.86996" r="4" fill="#0" id="circle53"/>
	<circle cx="198.788" cy="20.7698" r="4" fill="#0" id="circle54"/>
	<circle cx="198.788" cy="33.6697" r="4" fill="#0" id="circle55"/>
	<circle cx="198.788" cy="63.3394" r="4" fill="#0" id="circle56"/>
	<circle cx="205.238" cy="45.2796" r="4" fill="#0" id="circle57"/>
	<circle cx="205.238" cy="74.9493" r="4" fill="#0" id="circle58"/>
	<circle cx="207.818" cy="545.795" r="4" fill="#0" id="circle59"/>
	<circle cx="207.818" cy="597.394" r="4" fill="#0" id="circle60"/>
	<circle cx="210.398" cy="450.336" r="4" fill="#0" id="circle61"/>
	<circle cx="211.688" cy="86.5592" r="4" fill="#0" id="circle62"/>
	<circle cx="214.268" cy="584.494" r="4" fill="#0" id="circle63"/>
	<circle cx="218.138" cy="98.1691" r="4" fill="#0" id="circle64"/>
	<circle cx="218.138" cy="460.655" r="4" fill="#0" id="circle65"/>
	<circle cx="218.138" cy="566.434" r="4" fill="#0" id="circle66"/>
	<circle cx="220.718" cy="539.345" r="4" fill="#0" id="circle67"/>
	<circle cx="228.458" cy="107.199" r="4" fill="#0" id="circle68"/>
	<circle cx="228.458" cy="469.685" r="4" fill="#0" id="circle69"/>
	<circle cx="231.038" cy="559.984" r="4" fill="#0" id="circle70"/>
	<circle cx="233.618" cy="539.345" r="4" fill="#0" id="circle71"/>
	<circle cx="240.068" cy="113.649" r="4" fill="#0" id="circle72"/>
	<circle cx="241.358" cy="469.685" r="4" fill="#0" id="circle73"/>
	<circle cx="242.648" cy="553.534" r="4" fill="#0" id="circle74"/>
	<circle cx="245.228" cy="532.895" r="4" fill="#0" id="circle75"/>
	<circle cx="250.388" cy="121.389" r="4" fill="#0" id="circle76"/>
	<circle cx="252.967" cy="476.135" r="4" fill="#0" id="circle77"/>
	<circle cx="255.547" cy="549.664" r="4" fill="#0" id="circle78"/>
	<circle cx="256.837" cy="132.999" r="4" fill="#0" id="circle79"/>
	<circle cx="256.837" cy="526.445" r="4" fill="#0" id="circle80"/>
	<circle cx="263.287" cy="144.609" r="4" fill="#0" id="circle81"/>
	<circle cx="265.867" cy="481.295" r="4" fill="#0" id="circle82"/>
	<circle cx="268.447" cy="519.995" r="4" fill="#0" id="circle83"/>
	<circle cx="268.447" cy="547.085" r="4" fill="#0" id="circle84"/>
	<circle cx="273.607" cy="153.638" r="4" fill="#0" id="circle85"/>
	<circle cx="278.767" cy="166.538" r="4" fill="#0" id="circle86"/>
	<circle cx="278.767" cy="482.585" r="4" fill="#0" id="circle87"/>
	<circle cx="278.767" cy="539.345" r="4" fill="#0" id="circle88"/>
	<circle cx="281.347" cy="517.415" r="4" fill="#0" id="circle89"/>
	<circle cx="289.087" cy="175.568" r="4" fill="#0" id="circle90"/>
	<circle cx="290.377" cy="489.035" r="4" fill="#0" id="circle91"/>
	<circle cx="291.667" cy="532.895" r="4" fill="#0" id="circle92"/>
	<circle cx="294.247" cy="513.545" r="4" fill="#0" id="circle93"/>
	<circle cx="294.247" cy="646.414" r="4" fill="#0" id="circle94"/>
	<circle cx="294.247" cy="659.313" r="4" fill="#0" id="circle95"/>
	<circle cx="301.987" cy="178.148" r="4" fill="#0" id="circle96"/>
	<circle cx="303.277" cy="492.905" r="4" fill="#0" id="circle97"/>
	<circle cx="304.567" cy="526.445" r="4" fill="#0" id="circle98"/>
	<circle cx="304.567" cy="668.343" r="4" fill="#0" id="circle99"/>
	<circle cx="305.857" cy="507.095" r="4" fill="#0" id="circle100"/>
	<circle cx="307.147" cy="633.514" r="4" fill="#0" id="circle101"/>
	<circle cx="312.307" cy="185.888" r="4" fill="#0" id="circle102"/>
	<circle cx="317.467" cy="521.285" r="4" fill="#0" id="circle103"/>
	<circle cx="317.467" cy="661.893" r="4" fill="#0" id="circle104"/>
	<circle cx="320.047" cy="620.614" r="4" fill="#0" id="circle105"/>
	<circle cx="321.337" cy="643.834" r="4" fill="#0" id="circle106"/>
	<circle cx="323.917" cy="192.338" r="4" fill="#0" id="circle107"/>
	<circle cx="326.497" cy="607.714" r="4" fill="#0" id="circle108"/>
	<circle cx="329.077" cy="514.835" r="4" fill="#0" id="circle109"/>
	<circle cx="331.657" cy="634.804" r="4" fill="#0" id="circle110"/>
	<circle cx="336.817" cy="197.498" r="4" fill="#0" id="circle111"/>
	<circle cx="339.397" cy="594.814" r="4" fill="#0" id="circle112"/>
	<circle cx="340.687" cy="618.034" r="4" fill="#0" id="circle113"/>
	<circle cx="341.977" cy="514.835" r="4" fill="#0" id="circle114"/>
	<circle cx="348.427" cy="203.948" r="4" fill="#0" id="circle115"/>
	<circle cx="349.717" cy="584.494" r="4" fill="#0" id="circle116"/>
	<circle cx="351.007" cy="609.004" r="4" fill="#0" id="circle117"/>
	<circle cx="353.586" cy="508.385" r="4" fill="#0" id="circle118"/>
	<circle cx="357.456" cy="596.104" r="4" fill="#0" id="circle119"/>
	<circle cx="360.036" cy="210.398" r="4" fill="#0" id="circle120"/>
	<circle cx="360.036" cy="574.174" r="4" fill="#0" id="circle121"/>
	<circle cx="366.486" cy="510.965" r="4" fill="#0" id="circle122"/>
	<circle cx="370.356" cy="565.144" r="4" fill="#0" id="circle123"/>
	<circle cx="370.356" cy="589.654" r="4" fill="#0" id="circle124"/>
	<circle cx="371.646" cy="216.848" r="4" fill="#0" id="circle125"/>
	<circle cx="378.096" cy="517.415" r="4" fill="#0" id="circle126"/>
	<circle cx="379.386" cy="554.824" r="4" fill="#0" id="circle127"/>
	<circle cx="379.386" cy="579.334" r="4" fill="#0" id="circle128"/>
	<circle cx="383.256" cy="223.298" r="4" fill="#0" id="circle129"/>
	<circle cx="389.706" cy="545.795" r="4" fill="#0" id="circle130"/>
	<circle cx="390.996" cy="521.285" r="4" fill="#0" id="circle131"/>
	<circle cx="390.996" cy="572.884" r="4" fill="#0" id="circle132"/>
	<circle cx="396.156" cy="224.588" r="4" fill="#0" id="circle133"/>
	<circle cx="398.736" cy="559.984" r="4" fill="#0" id="circle134"/>
	<circle cx="407.766" cy="231.038" r="4" fill="#0" id="circle135"/>
	<circle cx="411.636" cy="553.534" r="4" fill="#0" id="circle136"/>
	<circle cx="418.086" cy="240.068" r="4" fill="#0" id="circle137"/>
	<circle cx="418.086" cy="540.635" r="4" fill="#0" id="circle138"/>
	<circle cx="424.536" cy="495.485" r="4" fill="#0" id="circle139"/>
	<circle cx="424.536" cy="508.385" r="4" fill="#0" id="circle140"/>
	<circle cx="424.536" cy="521.285" r="4" fill="#0" id="circle141"/>
	<circle cx="429.696" cy="246.518" r="4" fill="#0" id="circle142"/>
	<circle cx="437.436" cy="489.035" r="4" fill="#0" id="circle143"/>
	<circle cx="442.596" cy="251.678" r="4" fill="#0" id="circle144"/>
	<circle cx="449.046" cy="482.585" r="4" fill="#0" id="circle145"/>
	<circle cx="454.205" cy="258.127" r="4" fill="#0" id="circle146"/>
	<circle cx="459.365" cy="474.845" r="4" fill="#0" id="circle147"/>
	<circle cx="467.105" cy="263.287" r="4" fill="#0" id="circle148"/>
	<circle cx="469.685" cy="463.235" r="4" fill="#0" id="circle149"/>
	<circle cx="480.005" cy="268.447" r="4" fill="#0" id="circle150"/>
	<circle cx="481.295" cy="456.785" r="4" fill="#0" id="circle151"/>
	<circle cx="491.615" cy="274.897" r="4" fill="#0" id="circle152"/>
	<circle cx="492.905" cy="450.336" r="4" fill="#0" id="circle153"/>
	<circle cx="503.225" cy="281.347" r="4" fill="#0" id="circle154"/>
	<circle cx="504.515" cy="443.886" r="4" fill="#0" id="circle155"/>
	<circle cx="514.835" cy="287.797" r="4" fill="#0" id="circle156"/>
	<circle cx="516.125" cy="437.436" r="4" fill="#0" id="circle157"/>
	<circle cx="526.445" cy="294.247" r="4" fill="#0" id="circle158"/>
	<circle cx="529.025" cy="437.436" r="4" fill="#0" id="circle159"/>
	<circle cx="536.765" cy="301.987" r="4" fill="#0" id="circle160"/>
	<circle cx="541.925" cy="437.436" r="4" fill="#0" id="circle161"/>
	<circle cx="549.664" cy="307.147" r="4" fill="#0" id="circle162"/>
	<circle cx="553.534" cy="430.986" r="4" fill="#0" id="circle163"/>
	<circle cx="561.274" cy="313.597" r="4" fill="#0" id="circle164"/>
	<circle cx="566.434" cy="430.986" r="4" fill="#0" id="circle165"/>
	<circle cx="572.884" cy="320.047" r="4" fill="#0" id="circle166"/>
	<circle cx="578.044" cy="424.536" r="4" fill="#0" id="circle167"/>
	<circle cx="584.494" cy="326.497" r="4" fill="#0" id="circle168"/>
	<circle cx="589.654" cy="418.086" r="4" fill="#0" id="circle169"/>
	<circle cx="596.104" cy="332.947" r="4" fill="#0" id="circle170"/>
	<circle cx="602.554" cy="418.086" r="4" fill="#0" id="circle171"/>
	<circle cx="609.004" cy="334.237" r="4" fill="#0" id="circle172"/>
	<circle cx="615.454" cy="418.086" r="4" fill="#0" id="circle173"/>
	<circle cx="621.904" cy="339.397" r="4" fill="#0" id="circle174"/>
	<circle cx="628.354" cy="418.086" r="4" fill="#0" id="circle175"/>
	<circle cx="634.804" cy="340.687" r="4" fill="#0" id="circle176"/>
	<circle cx="641.254" cy="418.086" r="4" fill="#0" id="circle177"/>
	<circle cx="647.704" cy="345.847" r="4" fill="#0" id="circle178"/>
	<circle cx="654.153" cy="418.086" r="4" fill="#0" id="circle179"/>
	<circle cx="660.603" cy="345.847" r="4" fill="#0" id="circle180"/>
	<circle cx="667.053" cy="418.086" r="4" fill="#0" id="circle181"/>
	<circle cx="673.503" cy="345.847" r="4" fill="#0" id="circle182"/>
	<circle cx="679.953" cy="418.086" r="4" fill="#0" id="circle183"/>
	<circle cx="686.403" cy="345.847" r="4" fill="#0" id="circle184"/>
	<circle cx="691.563" cy="424.536" r="4" fill="#0" id="circle185"/>
	<circle cx="699.303" cy="347.137" r="4" fill="#0" id="circle186"/>
	<circle cx="704.463" cy="424.536" r="4" fill="#0" id="circle187"/>
	<circle cx="712.203" cy="352.296" r="4" fill="#0" id="circle188"/>
	<circle cx="717.363" cy="429.696" r="4" fill="#0" id="circle189"/>
	<circle cx="725.103" cy="352.296" r="4" fill="#0" id="circle190"/>
	<circle cx="728.973" cy="436.146" r="4" fill="#0" id="circle191"/>
	<circle cx="738.003" cy="352.296" r="4" fill="#0" id="circle192"/>
	<circle cx="741.873" cy="437.436" r="4" fill="#0" id="circle193"/>
	<circle cx="750.902" cy="352.296" r="4" fill="#0" id="circle194"/>
	<circle cx="754.772" cy="441.306" r="4" fill="#0" id="circle195"/>
	<circle cx="763.802" cy="352.296" r="4" fill="#0" id="circle196"/>
	<circle cx="767.672" cy="443.886" r="4" fill="#0" id="circle197"/>
	<circle cx="775.412" cy="358.746" r="4" fill="#0" id="circle198"/>
	<circle cx="779.282" cy="450.336" r="4" fill="#0" id="circle199"/>
	<circle cx="788.312" cy="358.746" r="4" fill="#0" id="circle200"/>
	<circle cx="792.182" cy="450.336" r="4" fill="#0" id="circle201"/>
	<circle cx="799.922" cy="365.196" r="4" fill="#0" id="circle202"/>
	<circle cx="803.792" cy="456.785" r="4" fill="#0" id="circle203"/>
	<circle cx="812.822" cy="365.196" r="4" fill="#0" id="circle204"/>
	<circle cx="816.692" cy="456.785" r="4" fill="#0" id="circle205"/>
	<circle cx="825.722" cy="365.196" r="4" fill="#0" id="circle206"/>
	<circle cx="829.592" cy="456.785" r="4" fill="#0" id="circle207"/>
	<circle cx="838.622" cy="365.196" r="4" fill="#0" id="circle208"/>
	<circle cx="841.202" cy="463.235" r="4" fill="#0" id="circle209"/>
	<circle cx="850.231" cy="371.646" r="4" fill="#0" id="circle210"/>
	<circle cx="854.101" cy="463.235" r="4" fill="#0" id="circle211"/>
	<circle cx="863.131" cy="371.646" r="4" fill="#0" id="circle212"/>
	<circle cx="865.711" cy="469.685" r="4" fill="#0" id="circle213"/>
	<circle cx="876.031" cy="371.646" r="4" fill="#0" id="circle214"/>
	<circle cx="878.611" cy="469.685" r="4" fill="#0" id="circle215"/>
	<circle cx="888.931" cy="371.646" r="4" fill="#0" id="circle216"/>
	<circle cx="890.221" cy="476.135" r="4" fill="#0" id="circle217"/>
	<circle cx="901.831" cy="371.646" r="4" fill="#0" id="circle218"/>
	<circle cx="903.121" cy="480.005" r="4" fill="#0" id="circle219"/>
	<circle cx="913.441" cy="378.096" r="4" fill="#0" id="circle220"/>
	<circle cx="916.021" cy="482.585" r="4" fill="#0" id="circle221"/>
	<circle cx="926.341" cy="380.676" r="4" fill="#0" id="circle222"/>
	<circle cx="928.921" cy="482.585" r="4" fill="#0" id="circle223"/>
	<circle cx="939.241" cy="384.546" r="4" fill="#0" id="circle224"/>
	<circle cx="941.821" cy="482.585" r="4" fill="#0" id="circle225"/>
	<circle cx="952.14" cy="387.126" r="4" fill="#0" id="circle226"/>
	<circle cx="954.72" cy="482.585" r="4" fill="#0" id="circle227"/>
	<circle cx="959.88" cy="397.446" r="4" fill="#0" id="circle228"/>
	<circle cx="966.33" cy="476.135" r="4" fill="#0" id="circle229"/>
	<circle cx="972.78" cy="401.316" r="4" fill="#0" id="circle230"/>
	<circle cx="977.94" cy="469.685" r="4" fill="#0" id="circle231"/>
	<circle cx="984.39" cy="407.766" r="4" fill="#0" id="circle232"/>
	<circle cx="985.68" cy="456.785" r="4" fill="#0" id="circle233"/>
	<circle cx="992.13" cy="418.086" r="4" fill="#0" id="circle234"/>
	<circle cx="994.71" cy="430.986" r="4" fill="#0" id="circle235"/>
	<circle cx="996" cy="447.756" r="4" fill="#0" id="circle236"/>
	</g>
</svg>