<?xml version="1.0" encoding="UTF-8" standalone="no"?>
<!-- Created with CurveBenchmark -->
<svg
	xmlns:dc="http://purl.org/dc/elements/1.1/"
	xmlns:cc="http://creativecommons.org/ns#"
	xmlns:rdf="http://www.w3.org/1999/02/22-rdf-syntax-ns#"
	xmlns:svg="http://www.w3.org/2000/svg"
	xmlns="http://www.w3.org/2000/svg"
	xmlns:sodipodi="http://sodipodi.sourceforge.net/DTD/sodipodi-0.dtd"
	xmlns:inkscape="http://www.inkscape.org/namespaces/inkscape"
	width="1000"
	height="1000"
	id="svg2"
	version="1.1"
	sodipodi:docname="manifold/ccrust-brick13.png.txt">
<defs
	id="defs4" />
<metadata
	id="metadata7">
	<rdf:RDF>
		<cc:Work
			rdf:about="">
			<dc:format>image/svg+xml</dc:format>
			<dc:type
				rdf:resource="http://purl.org/dc/dcmitype/StillImage" />
			<dc:title></dc:title>
		</cc:Work>
	</rdf:RDF>
</metadata>
<g
	inkscape:label="Layer 1"
	inkscape:groupmode="layer"
	id="layer1">
	<path style="fill:none;stroke:red;stroke-width:1px;stroke-linecap:butt;stroke-linejoin:miter;stroke-opacity:1" d="M 98.2966,37.9468 113.384,22.8593 z" id="boundary" inkscape:connector-curvature="0" />
	<path style="fill:none;stroke:red;stroke-width:1px;stroke-linecap:butt;stroke-linejoin:miter;stroke-opacity:1" d="M 98.2966,56.8061 98.2966,37.9468 z" id="boundary" inkscape:connector-curvature="0" />
	<path style="fill:none;stroke:red;stroke-width:1px;stroke-linecap:butt;stroke-linejoin:miter;stroke-opacity:1" d="M 88.8669,75.6654 98.2966,56.8061 z" id="boundary" inkscape:connector-curvature="0" />
	<path style="fill:none;stroke:red;stroke-width:1px;stroke-linecap:butt;stroke-linejoin:miter;stroke-opacity:1" d="M 113.384,22.8593 130.357,13.4297 z" id="boundary" inkscape:connector-curvature="0" />
	<path style="fill:none;stroke:red;stroke-width:1px;stroke-linecap:butt;stroke-linejoin:miter;stroke-opacity:1" d="M 88.8669,75.6654 79.4373,103.954 z" id="boundary" inkscape:connector-curvature="0" />
	<path style="fill:none;stroke:red;stroke-width:1px;stroke-linecap:butt;stroke-linejoin:miter;stroke-opacity:1" d="M 147.331,4 166.19,4 z" id="boundary" inkscape:connector-curvature="0" />
	<path style="fill:none;stroke:red;stroke-width:1px;stroke-linecap:butt;stroke-linejoin:miter;stroke-opacity:1" d="M 130.357,13.4297 147.331,4 z" id="boundary" inkscape:connector-curvature="0" />
	<path style="fill:none;stroke:red;stroke-width:1px;stroke-linecap:butt;stroke-linejoin:miter;stroke-opacity:1" d="M 166.19,4 185.049,4 z" id="boundary" inkscape:connector-curvature="0" />
	<path style="fill:none;stroke:red;stroke-width:1px;stroke-linecap:butt;stroke-linejoin:miter;stroke-opacity:1" d="M 47.3764,202.023 60.5779,179.392 z" id="boundary" inkscape:connector-curvature="0" />
	<path style="fill:none;stroke:red;stroke-width:1px;stroke-linecap:butt;stroke-linejoin:miter;stroke-opacity:1" d="M 47.3764,202.023 32.289,217.11 z" id="boundary" inkscape:connector-curvature="0" />
	<path style="fill:none;stroke:red;stroke-width:1px;stroke-linecap:butt;stroke-linejoin:miter;stroke-opacity:1" d="M 19.0875,239.741 32.289,217.11 z" id="boundary" inkscape:connector-curvature="0" />
	<path style="fill:none;stroke:red;stroke-width:1px;stroke-linecap:butt;stroke-linejoin:miter;stroke-opacity:1" d="M 79.4373,103.954 79.4373,122.814 z" id="boundary" inkscape:connector-curvature="0" />
	<path style="fill:none;stroke:red;stroke-width:1px;stroke-linecap:butt;stroke-linejoin:miter;stroke-opacity:1" d="M 79.4373,141.673 79.4373,160.532 z" id="boundary" inkscape:connector-curvature="0" />
	<path style="fill:none;stroke:red;stroke-width:1px;stroke-linecap:butt;stroke-linejoin:miter;stroke-opacity:1" d="M 79.4373,160.532 60.5779,179.392 z" id="boundary" inkscape:connector-curvature="0" />
	<path style="fill:none;stroke:red;stroke-width:1px;stroke-linecap:butt;stroke-linejoin:miter;stroke-opacity:1" d="M 79.4373,141.673 79.4373,122.814 z" id="boundary" inkscape:connector-curvature="0" />
	<path style="fill:none;stroke:red;stroke-width:1px;stroke-linecap:butt;stroke-linejoin:miter;stroke-opacity:1" d="M 19.0875,239.741 4,254.829 z" id="boundary" inkscape:connector-curvature="0" />
	<path style="fill:none;stroke:red;stroke-width:1px;stroke-linecap:butt;stroke-linejoin:miter;stroke-opacity:1" d="M 220.882,13.4297 235.97,24.7452 z" id="boundary" inkscape:connector-curvature="0" />
	<path style="fill:none;stroke:red;stroke-width:1px;stroke-linecap:butt;stroke-linejoin:miter;stroke-opacity:1" d="M 220.882,13.4297 203.909,4 z" id="boundary" inkscape:connector-curvature="0" />
	<path style="fill:none;stroke:red;stroke-width:1px;stroke-linecap:butt;stroke-linejoin:miter;stroke-opacity:1" d="M 235.97,24.7452 251.057,37.9468 z" id="boundary" inkscape:connector-curvature="0" />
	<path style="fill:none;stroke:red;stroke-width:1px;stroke-linecap:butt;stroke-linejoin:miter;stroke-opacity:1" d="M 268.03,47.3764 251.057,37.9468 z" id="boundary" inkscape:connector-curvature="0" />
	<path style="fill:none;stroke:red;stroke-width:1px;stroke-linecap:butt;stroke-linejoin:miter;stroke-opacity:1" d="M 185.049,4 203.909,4 z" id="boundary" inkscape:connector-curvature="0" />
	<path style="fill:none;stroke:red;stroke-width:1px;stroke-linecap:butt;stroke-linejoin:miter;stroke-opacity:1" d="M 473.597,41.7186 454.738,41.7186 z" id="boundary" inkscape:connector-curvature="0" />
	<path style="fill:none;stroke:red;stroke-width:1px;stroke-linecap:butt;stroke-linejoin:miter;stroke-opacity:1" d="M 473.597,41.7186 492.456,41.7186 z" id="boundary" inkscape:connector-curvature="0" />
	<path style="fill:none;stroke:red;stroke-width:1px;stroke-linecap:butt;stroke-linejoin:miter;stroke-opacity:1" d="M 437.764,51.1483 454.738,41.7186 z" id="boundary" inkscape:connector-curvature="0" />
	<path style="fill:none;stroke:red;stroke-width:1px;stroke-linecap:butt;stroke-linejoin:miter;stroke-opacity:1" d="M 305.749,60.5779 286.89,54.9202 z" id="boundary" inkscape:connector-curvature="0" />
	<path style="fill:none;stroke:red;stroke-width:1px;stroke-linecap:butt;stroke-linejoin:miter;stroke-opacity:1" d="M 324.608,60.5779 305.749,60.5779 z" id="boundary" inkscape:connector-curvature="0" />
	<path style="fill:none;stroke:red;stroke-width:1px;stroke-linecap:butt;stroke-linejoin:miter;stroke-opacity:1" d="M 362.327,56.8061 343.468,60.5779 z" id="boundary" inkscape:connector-curvature="0" />
	<path style="fill:none;stroke:red;stroke-width:1px;stroke-linecap:butt;stroke-linejoin:miter;stroke-opacity:1" d="M 343.468,60.5779 324.608,60.5779 z" id="boundary" inkscape:connector-curvature="0" />
	<path style="fill:none;stroke:red;stroke-width:1px;stroke-linecap:butt;stroke-linejoin:miter;stroke-opacity:1" d="M 286.89,54.9202 268.03,47.3764 z" id="boundary" inkscape:connector-curvature="0" />
	<path style="fill:none;stroke:red;stroke-width:1px;stroke-linecap:butt;stroke-linejoin:miter;stroke-opacity:1" d="M 381.186,51.1483 400.046,51.1483 z" id="boundary" inkscape:connector-curvature="0" />
	<path style="fill:none;stroke:red;stroke-width:1px;stroke-linecap:butt;stroke-linejoin:miter;stroke-opacity:1" d="M 362.327,56.8061 381.186,51.1483 z" id="boundary" inkscape:connector-curvature="0" />
	<path style="fill:none;stroke:red;stroke-width:1px;stroke-linecap:butt;stroke-linejoin:miter;stroke-opacity:1" d="M 400.046,51.1483 418.905,51.1483 z" id="boundary" inkscape:connector-curvature="0" />
	<path style="fill:none;stroke:red;stroke-width:1px;stroke-linecap:butt;stroke-linejoin:miter;stroke-opacity:1" d="M 437.764,51.1483 418.905,51.1483 z" id="boundary" inkscape:connector-curvature="0" />
	<path style="fill:none;stroke:red;stroke-width:1px;stroke-linecap:butt;stroke-linejoin:miter;stroke-opacity:1" d="M 4,273.688 4,254.829 z" id="boundary" inkscape:connector-curvature="0" />
	<path style="fill:none;stroke:red;stroke-width:1px;stroke-linecap:butt;stroke-linejoin:miter;stroke-opacity:1" d="M 4,311.407 4,292.548 z" id="boundary" inkscape:connector-curvature="0" />
	<path style="fill:none;stroke:red;stroke-width:1px;stroke-linecap:butt;stroke-linejoin:miter;stroke-opacity:1" d="M 4,292.548 4,273.688 z" id="boundary" inkscape:connector-curvature="0" />
	<path style="fill:none;stroke:red;stroke-width:1px;stroke-linecap:butt;stroke-linejoin:miter;stroke-opacity:1" d="M 4,330.266 4,311.407 z" id="boundary" inkscape:connector-curvature="0" />
	<path style="fill:none;stroke:red;stroke-width:1px;stroke-linecap:butt;stroke-linejoin:miter;stroke-opacity:1" d="M 13.4297,347.24 4,330.266 z" id="boundary" inkscape:connector-curvature="0" />
	<path style="fill:none;stroke:red;stroke-width:1px;stroke-linecap:butt;stroke-linejoin:miter;stroke-opacity:1" d="M 100.183,345.354 119.042,345.354 z" id="boundary" inkscape:connector-curvature="0" />
	<path style="fill:none;stroke:red;stroke-width:1px;stroke-linecap:butt;stroke-linejoin:miter;stroke-opacity:1" d="M 81.3232,354.783 100.183,345.354 z" id="boundary" inkscape:connector-curvature="0" />
	<path style="fill:none;stroke:red;stroke-width:1px;stroke-linecap:butt;stroke-linejoin:miter;stroke-opacity:1" d="M 137.901,335.924 119.042,345.354 z" id="boundary" inkscape:connector-curvature="0" />
	<path style="fill:none;stroke:red;stroke-width:1px;stroke-linecap:butt;stroke-linejoin:miter;stroke-opacity:1" d="M 137.901,335.924 154.875,345.354 z" id="boundary" inkscape:connector-curvature="0" />
	<path style="fill:none;stroke:red;stroke-width:1px;stroke-linecap:butt;stroke-linejoin:miter;stroke-opacity:1" d="M 26.6312,362.327 13.4297,347.24 z" id="boundary" inkscape:connector-curvature="0" />
	<path style="fill:none;stroke:red;stroke-width:1px;stroke-linecap:butt;stroke-linejoin:miter;stroke-opacity:1" d="M 45.4905,364.213 26.6312,362.327 z" id="boundary" inkscape:connector-curvature="0" />
	<path style="fill:none;stroke:red;stroke-width:1px;stroke-linecap:butt;stroke-linejoin:miter;stroke-opacity:1" d="M 45.4905,364.213 64.3498,364.213 z" id="boundary" inkscape:connector-curvature="0" />
	<path style="fill:none;stroke:red;stroke-width:1px;stroke-linecap:butt;stroke-linejoin:miter;stroke-opacity:1" d="M 81.3232,354.783 64.3498,364.213 z" id="boundary" inkscape:connector-curvature="0" />
	<path style="fill:none;stroke:red;stroke-width:1px;stroke-linecap:butt;stroke-linejoin:miter;stroke-opacity:1" d="M 203.909,377.414 185.049,369.871 z" id="boundary" inkscape:connector-curvature="0" />
	<path style="fill:none;stroke:red;stroke-width:1px;stroke-linecap:butt;stroke-linejoin:miter;stroke-opacity:1" d="M 185.049,369.871 171.848,354.783 z" id="boundary" inkscape:connector-curvature="0" />
	<path style="fill:none;stroke:red;stroke-width:1px;stroke-linecap:butt;stroke-linejoin:miter;stroke-opacity:1" d="M 171.848,354.783 154.875,345.354 z" id="boundary" inkscape:connector-curvature="0" />
	<path style="fill:none;stroke:red;stroke-width:1px;stroke-linecap:butt;stroke-linejoin:miter;stroke-opacity:1" d="M 203.909,377.414 220.882,386.844 z" id="boundary" inkscape:connector-curvature="0" />
	<path style="fill:none;stroke:red;stroke-width:1px;stroke-linecap:butt;stroke-linejoin:miter;stroke-opacity:1" d="M 220.882,386.844 239.741,392.502 z" id="boundary" inkscape:connector-curvature="0" />
	<path style="fill:none;stroke:red;stroke-width:1px;stroke-linecap:butt;stroke-linejoin:miter;stroke-opacity:1" d="M 239.741,392.502 256.715,401.932 z" id="boundary" inkscape:connector-curvature="0" />
	<path style="fill:none;stroke:red;stroke-width:1px;stroke-linecap:butt;stroke-linejoin:miter;stroke-opacity:1" d="M 273.688,411.361 256.715,401.932 z" id="boundary" inkscape:connector-curvature="0" />
	<path style="fill:none;stroke:red;stroke-width:1px;stroke-linecap:butt;stroke-linejoin:miter;stroke-opacity:1" d="M 273.688,411.361 288.776,424.563 z" id="boundary" inkscape:connector-curvature="0" />
	<path style="fill:none;stroke:red;stroke-width:1px;stroke-linecap:butt;stroke-linejoin:miter;stroke-opacity:1" d="M 411.361,411.361 430.221,411.361 z" id="boundary" inkscape:connector-curvature="0" />
	<path style="fill:none;stroke:red;stroke-width:1px;stroke-linecap:butt;stroke-linejoin:miter;stroke-opacity:1" d="M 392.502,420.791 411.361,411.361 z" id="boundary" inkscape:connector-curvature="0" />
	<path style="fill:none;stroke:red;stroke-width:1px;stroke-linecap:butt;stroke-linejoin:miter;stroke-opacity:1" d="M 449.08,411.361 467.939,411.361 z" id="boundary" inkscape:connector-curvature="0" />
	<path style="fill:none;stroke:red;stroke-width:1px;stroke-linecap:butt;stroke-linejoin:miter;stroke-opacity:1" d="M 430.221,411.361 449.08,411.361 z" id="boundary" inkscape:connector-curvature="0" />
	<path style="fill:none;stroke:red;stroke-width:1px;stroke-linecap:butt;stroke-linejoin:miter;stroke-opacity:1" d="M 288.776,424.563 301.977,439.65 z" id="boundary" inkscape:connector-curvature="0" />
	<path style="fill:none;stroke:red;stroke-width:1px;stroke-linecap:butt;stroke-linejoin:miter;stroke-opacity:1" d="M 320.837,439.65 301.977,439.65 z" id="boundary" inkscape:connector-curvature="0" />
	<path style="fill:none;stroke:red;stroke-width:1px;stroke-linecap:butt;stroke-linejoin:miter;stroke-opacity:1" d="M 320.837,439.65 339.696,439.65 z" id="boundary" inkscape:connector-curvature="0" />
	<path style="fill:none;stroke:red;stroke-width:1px;stroke-linecap:butt;stroke-linejoin:miter;stroke-opacity:1" d="M 486.798,411.361 505.658,411.361 z" id="boundary" inkscape:connector-curvature="0" />
	<path style="fill:none;stroke:red;stroke-width:1px;stroke-linecap:butt;stroke-linejoin:miter;stroke-opacity:1" d="M 358.555,439.65 375.529,430.221 z" id="boundary" inkscape:connector-curvature="0" />
	<path style="fill:none;stroke:red;stroke-width:1px;stroke-linecap:butt;stroke-linejoin:miter;stroke-opacity:1" d="M 358.555,439.65 339.696,439.65 z" id="boundary" inkscape:connector-curvature="0" />
	<path style="fill:none;stroke:red;stroke-width:1px;stroke-linecap:butt;stroke-linejoin:miter;stroke-opacity:1" d="M 375.529,430.221 392.502,420.791 z" id="boundary" inkscape:connector-curvature="0" />
	<path style="fill:none;stroke:red;stroke-width:1px;stroke-linecap:butt;stroke-linejoin:miter;stroke-opacity:1" d="M 505.658,411.361 524.517,411.361 z" id="boundary" inkscape:connector-curvature="0" />
	<path style="fill:none;stroke:red;stroke-width:1px;stroke-linecap:butt;stroke-linejoin:miter;stroke-opacity:1" d="M 467.939,411.361 486.798,411.361 z" id="boundary" inkscape:connector-curvature="0" />
	<path style="fill:none;stroke:red;stroke-width:1px;stroke-linecap:butt;stroke-linejoin:miter;stroke-opacity:1" d="M 492.456,41.7186 511.316,41.7186 z" id="boundary" inkscape:connector-curvature="0" />
	<path style="fill:none;stroke:red;stroke-width:1px;stroke-linecap:butt;stroke-linejoin:miter;stroke-opacity:1" d="M 547.148,32.289 530.175,41.7186 z" id="boundary" inkscape:connector-curvature="0" />
	<path style="fill:none;stroke:red;stroke-width:1px;stroke-linecap:butt;stroke-linejoin:miter;stroke-opacity:1" d="M 530.175,41.7186 511.316,41.7186 z" id="boundary" inkscape:connector-curvature="0" />
	<path style="fill:none;stroke:red;stroke-width:1px;stroke-linecap:butt;stroke-linejoin:miter;stroke-opacity:1" d="M 566.008,32.289 547.148,32.289 z" id="boundary" inkscape:connector-curvature="0" />
	<path style="fill:none;stroke:red;stroke-width:1px;stroke-linecap:butt;stroke-linejoin:miter;stroke-opacity:1" d="M 566.008,32.289 584.867,32.289 z" id="boundary" inkscape:connector-curvature="0" />
	<path style="fill:none;stroke:red;stroke-width:1px;stroke-linecap:butt;stroke-linejoin:miter;stroke-opacity:1" d="M 584.867,32.289 603.726,32.289 z" id="boundary" inkscape:connector-curvature="0" />
	<path style="fill:none;stroke:red;stroke-width:1px;stroke-linecap:butt;stroke-linejoin:miter;stroke-opacity:1" d="M 622.586,32.289 603.726,32.289 z" id="boundary" inkscape:connector-curvature="0" />
	<path style="fill:none;stroke:red;stroke-width:1px;stroke-linecap:butt;stroke-linejoin:miter;stroke-opacity:1" d="M 622.586,32.289 641.445,32.289 z" id="boundary" inkscape:connector-curvature="0" />
	<path style="fill:none;stroke:red;stroke-width:1px;stroke-linecap:butt;stroke-linejoin:miter;stroke-opacity:1" d="M 660.304,32.289 641.445,32.289 z" id="boundary" inkscape:connector-curvature="0" />
	<path style="fill:none;stroke:red;stroke-width:1px;stroke-linecap:butt;stroke-linejoin:miter;stroke-opacity:1" d="M 660.304,32.289 677.278,41.7186 z" id="boundary" inkscape:connector-curvature="0" />
	<path style="fill:none;stroke:red;stroke-width:1px;stroke-linecap:butt;stroke-linejoin:miter;stroke-opacity:1" d="M 677.278,41.7186 694.251,51.1483 z" id="boundary" inkscape:connector-curvature="0" />
	<path style="fill:none;stroke:red;stroke-width:1px;stroke-linecap:butt;stroke-linejoin:miter;stroke-opacity:1" d="M 709.338,62.4639 722.54,77.5513 z" id="boundary" inkscape:connector-curvature="0" />
	<path style="fill:none;stroke:red;stroke-width:1px;stroke-linecap:butt;stroke-linejoin:miter;stroke-opacity:1" d="M 694.251,51.1483 709.338,62.4639 z" id="boundary" inkscape:connector-curvature="0" />
	<path style="fill:none;stroke:red;stroke-width:1px;stroke-linecap:butt;stroke-linejoin:miter;stroke-opacity:1" d="M 722.54,77.5513 741.399,85.0951 z" id="boundary" inkscape:connector-curvature="0" />
	<path style="fill:none;stroke:red;stroke-width:1px;stroke-linecap:butt;stroke-linejoin:miter;stroke-opacity:1" d="M 741.399,85.0951 758.373,94.5247 z" id="boundary" inkscape:connector-curvature="0" />
	<path style="fill:none;stroke:red;stroke-width:1px;stroke-linecap:butt;stroke-linejoin:miter;stroke-opacity:1" d="M 777.232,102.068 758.373,94.5247 z" id="boundary" inkscape:connector-curvature="0" />
	<path style="fill:none;stroke:red;stroke-width:1px;stroke-linecap:butt;stroke-linejoin:miter;stroke-opacity:1" d="M 777.232,102.068 794.205,111.498 z" id="boundary" inkscape:connector-curvature="0" />
	<path style="fill:none;stroke:red;stroke-width:1px;stroke-linecap:butt;stroke-linejoin:miter;stroke-opacity:1" d="M 813.065,117.156 831.924,117.156 z" id="boundary" inkscape:connector-curvature="0" />
	<path style="fill:none;stroke:red;stroke-width:1px;stroke-linecap:butt;stroke-linejoin:miter;stroke-opacity:1" d="M 813.065,117.156 794.205,111.498 z" id="boundary" inkscape:connector-curvature="0" />
	<path style="fill:none;stroke:red;stroke-width:1px;stroke-linecap:butt;stroke-linejoin:miter;stroke-opacity:1" d="M 850.783,117.156 831.924,117.156 z" id="boundary" inkscape:connector-curvature="0" />
	<path style="fill:none;stroke:red;stroke-width:1px;stroke-linecap:butt;stroke-linejoin:miter;stroke-opacity:1" d="M 943.194,98.2966 962.053,98.2966 z" id="boundary" inkscape:connector-curvature="0" />
	<path style="fill:none;stroke:red;stroke-width:1px;stroke-linecap:butt;stroke-linejoin:miter;stroke-opacity:1" d="M 888.502,117.156 905.475,107.726 z" id="boundary" inkscape:connector-curvature="0" />
	<path style="fill:none;stroke:red;stroke-width:1px;stroke-linecap:butt;stroke-linejoin:miter;stroke-opacity:1" d="M 905.475,107.726 924.335,107.726 z" id="boundary" inkscape:connector-curvature="0" />
	<path style="fill:none;stroke:red;stroke-width:1px;stroke-linecap:butt;stroke-linejoin:miter;stroke-opacity:1" d="M 924.335,107.726 943.194,98.2966 z" id="boundary" inkscape:connector-curvature="0" />
	<path style="fill:none;stroke:red;stroke-width:1px;stroke-linecap:butt;stroke-linejoin:miter;stroke-opacity:1" d="M 962.053,98.2966 979.027,107.726 z" id="boundary" inkscape:connector-curvature="0" />
	<path style="fill:none;stroke:red;stroke-width:1px;stroke-linecap:butt;stroke-linejoin:miter;stroke-opacity:1" d="M 979.027,107.726 986.57,126.586 z" id="boundary" inkscape:connector-curvature="0" />
	<path style="fill:none;stroke:red;stroke-width:1px;stroke-linecap:butt;stroke-linejoin:miter;stroke-opacity:1" d="M 850.783,117.156 869.643,117.156 z" id="boundary" inkscape:connector-curvature="0" />
	<path style="fill:none;stroke:red;stroke-width:1px;stroke-linecap:butt;stroke-linejoin:miter;stroke-opacity:1" d="M 869.643,117.156 888.502,117.156 z" id="boundary" inkscape:connector-curvature="0" />
	<path style="fill:none;stroke:red;stroke-width:1px;stroke-linecap:butt;stroke-linejoin:miter;stroke-opacity:1" d="M 996,162.418 996,181.278 z" id="boundary" inkscape:connector-curvature="0" />
	<path style="fill:none;stroke:red;stroke-width:1px;stroke-linecap:butt;stroke-linejoin:miter;stroke-opacity:1" d="M 996,143.559 996,162.418 z" id="boundary" inkscape:connector-curvature="0" />
	<path style="fill:none;stroke:red;stroke-width:1px;stroke-linecap:butt;stroke-linejoin:miter;stroke-opacity:1" d="M 986.57,126.586 996,143.559 z" id="boundary" inkscape:connector-curvature="0" />
	<path style="fill:none;stroke:red;stroke-width:1px;stroke-linecap:butt;stroke-linejoin:miter;stroke-opacity:1" d="M 996,181.278 996,200.137 z" id="boundary" inkscape:connector-curvature="0" />
	<path style="fill:none;stroke:red;stroke-width:1px;stroke-linecap:butt;stroke-linejoin:miter;stroke-opacity:1" d="M 996,200.137 996,218.996 z" id="boundary" inkscape:connector-curvature="0" />
	<path style="fill:none;stroke:red;stroke-width:1px;stroke-linecap:butt;stroke-linejoin:miter;stroke-opacity:1" d="M 543.376,411.361 562.236,411.361 z" id="boundary" inkscape:connector-curvature="0" />
	<path style="fill:none;stroke:red;stroke-width:1px;stroke-linecap:butt;stroke-linejoin:miter;stroke-opacity:1" d="M 543.376,411.361 524.517,411.361 z" id="boundary" inkscape:connector-curvature="0" />
	<path style="fill:none;stroke:red;stroke-width:1px;stroke-linecap:butt;stroke-linejoin:miter;stroke-opacity:1" d="M 562.236,411.361 581.095,411.361 z" id="boundary" inkscape:connector-curvature="0" />
	<path style="fill:none;stroke:red;stroke-width:1px;stroke-linecap:butt;stroke-linejoin:miter;stroke-opacity:1" d="M 599.954,411.361 618.814,411.361 z" id="boundary" inkscape:connector-curvature="0" />
	<path style="fill:none;stroke:red;stroke-width:1px;stroke-linecap:butt;stroke-linejoin:miter;stroke-opacity:1" d="M 637.673,411.361 656.532,411.361 z" id="boundary" inkscape:connector-curvature="0" />
	<path style="fill:none;stroke:red;stroke-width:1px;stroke-linecap:butt;stroke-linejoin:miter;stroke-opacity:1" d="M 637.673,411.361 618.814,411.361 z" id="boundary" inkscape:connector-curvature="0" />
	<path style="fill:none;stroke:red;stroke-width:1px;stroke-linecap:butt;stroke-linejoin:miter;stroke-opacity:1" d="M 599.954,411.361 581.095,411.361 z" id="boundary" inkscape:connector-curvature="0" />
	<path style="fill:none;stroke:red;stroke-width:1px;stroke-linecap:butt;stroke-linejoin:miter;stroke-opacity:1" d="M 675.392,411.361 694.251,411.361 z" id="boundary" inkscape:connector-curvature="0" />
	<path style="fill:none;stroke:red;stroke-width:1px;stroke-linecap:butt;stroke-linejoin:miter;stroke-opacity:1" d="M 713.11,415.133 730.084,424.563 z" id="boundary" inkscape:connector-curvature="0" />
	<path style="fill:none;stroke:red;stroke-width:1px;stroke-linecap:butt;stroke-linejoin:miter;stroke-opacity:1" d="M 694.251,411.361 713.11,415.133 z" id="boundary" inkscape:connector-curvature="0" />
	<path style="fill:none;stroke:red;stroke-width:1px;stroke-linecap:butt;stroke-linejoin:miter;stroke-opacity:1" d="M 748.943,430.221 730.084,424.563 z" id="boundary" inkscape:connector-curvature="0" />
	<path style="fill:none;stroke:red;stroke-width:1px;stroke-linecap:butt;stroke-linejoin:miter;stroke-opacity:1" d="M 748.943,430.221 765.916,439.65 z" id="boundary" inkscape:connector-curvature="0" />
	<path style="fill:none;stroke:red;stroke-width:1px;stroke-linecap:butt;stroke-linejoin:miter;stroke-opacity:1" d="M 782.89,449.08 765.916,439.65 z" id="boundary" inkscape:connector-curvature="0" />
	<path style="fill:none;stroke:red;stroke-width:1px;stroke-linecap:butt;stroke-linejoin:miter;stroke-opacity:1" d="M 820.608,458.51 801.749,456.624 z" id="boundary" inkscape:connector-curvature="0" />
	<path style="fill:none;stroke:red;stroke-width:1px;stroke-linecap:butt;stroke-linejoin:miter;stroke-opacity:1" d="M 801.749,456.624 782.89,449.08 z" id="boundary" inkscape:connector-curvature="0" />
	<path style="fill:none;stroke:red;stroke-width:1px;stroke-linecap:butt;stroke-linejoin:miter;stroke-opacity:1" d="M 656.532,411.361 675.392,411.361 z" id="boundary" inkscape:connector-curvature="0" />
	<path style="fill:none;stroke:red;stroke-width:1px;stroke-linecap:butt;stroke-linejoin:miter;stroke-opacity:1" d="M 939.422,317.065 939.422,335.924 z" id="boundary" inkscape:connector-curvature="0" />
	<path style="fill:none;stroke:red;stroke-width:1px;stroke-linecap:butt;stroke-linejoin:miter;stroke-opacity:1" d="M 939.422,335.924 943.194,354.783 z" id="boundary" inkscape:connector-curvature="0" />
	<path style="fill:none;stroke:red;stroke-width:1px;stroke-linecap:butt;stroke-linejoin:miter;stroke-opacity:1" d="M 939.422,317.065 939.422,298.205 z" id="boundary" inkscape:connector-curvature="0" />
	<path style="fill:none;stroke:red;stroke-width:1px;stroke-linecap:butt;stroke-linejoin:miter;stroke-opacity:1" d="M 939.422,298.205 954.51,285.004 z" id="boundary" inkscape:connector-curvature="0" />
	<path style="fill:none;stroke:red;stroke-width:1px;stroke-linecap:butt;stroke-linejoin:miter;stroke-opacity:1" d="M 977.141,251.057 992.228,237.856 z" id="boundary" inkscape:connector-curvature="0" />
	<path style="fill:none;stroke:red;stroke-width:1px;stroke-linecap:butt;stroke-linejoin:miter;stroke-opacity:1" d="M 977.141,251.057 963.939,266.144 z" id="boundary" inkscape:connector-curvature="0" />
	<path style="fill:none;stroke:red;stroke-width:1px;stroke-linecap:butt;stroke-linejoin:miter;stroke-opacity:1" d="M 954.51,285.004 963.939,266.144 z" id="boundary" inkscape:connector-curvature="0" />
	<path style="fill:none;stroke:red;stroke-width:1px;stroke-linecap:butt;stroke-linejoin:miter;stroke-opacity:1" d="M 948.852,373.643 943.194,354.783 z" id="boundary" inkscape:connector-curvature="0" />
	<path style="fill:none;stroke:red;stroke-width:1px;stroke-linecap:butt;stroke-linejoin:miter;stroke-opacity:1" d="M 875.3,449.08 892.274,439.65 z" id="boundary" inkscape:connector-curvature="0" />
	<path style="fill:none;stroke:red;stroke-width:1px;stroke-linecap:butt;stroke-linejoin:miter;stroke-opacity:1" d="M 892.274,439.65 911.133,439.65 z" id="boundary" inkscape:connector-curvature="0" />
	<path style="fill:none;stroke:red;stroke-width:1px;stroke-linecap:butt;stroke-linejoin:miter;stroke-opacity:1" d="M 839.468,458.51 820.608,458.51 z" id="boundary" inkscape:connector-curvature="0" />
	<path style="fill:none;stroke:red;stroke-width:1px;stroke-linecap:butt;stroke-linejoin:miter;stroke-opacity:1" d="M 858.327,458.51 839.468,458.51 z" id="boundary" inkscape:connector-curvature="0" />
	<path style="fill:none;stroke:red;stroke-width:1px;stroke-linecap:butt;stroke-linejoin:miter;stroke-opacity:1" d="M 875.3,449.08 858.327,458.51 z" id="boundary" inkscape:connector-curvature="0" />
	<path style="fill:none;stroke:red;stroke-width:1px;stroke-linecap:butt;stroke-linejoin:miter;stroke-opacity:1" d="M 948.852,392.502 948.852,373.643 z" id="boundary" inkscape:connector-curvature="0" />
	<path style="fill:none;stroke:red;stroke-width:1px;stroke-linecap:butt;stroke-linejoin:miter;stroke-opacity:1" d="M 945.08,426.449 929.992,439.65 z" id="boundary" inkscape:connector-curvature="0" />
	<path style="fill:none;stroke:red;stroke-width:1px;stroke-linecap:butt;stroke-linejoin:miter;stroke-opacity:1" d="M 929.992,439.65 911.133,439.65 z" id="boundary" inkscape:connector-curvature="0" />
	<path style="fill:none;stroke:red;stroke-width:1px;stroke-linecap:butt;stroke-linejoin:miter;stroke-opacity:1" d="M 948.852,392.502 945.08,426.449 z" id="boundary" inkscape:connector-curvature="0" />
	<path style="fill:none;stroke:red;stroke-width:1px;stroke-linecap:butt;stroke-linejoin:miter;stroke-opacity:1" d="M 996,218.996 992.228,237.856 z" id="boundary" inkscape:connector-curvature="0" />
	<circle cx="4" cy="254.829" r="4" fill="#0" id="circle0"/>
	<circle cx="4" cy="273.688" r="4" fill="#0" id="circle1"/>
	<circle cx="4" cy="292.548" r="4" fill="#0" id="circle2"/>
	<circle cx="4" cy="311.407" r="4" fill="#0" id="circle3"/>
	<circle cx="4" cy="330.266" r="4" fill="#0" id="circle4"/>
	<circle cx="13.4297" cy="347.24" r="4" fill="#0" id="circle5"/>
	<circle cx="19.0875" cy="239.741" r="4" fill="#0" id="circle6"/>
	<circle cx="26.6312" cy="362.327" r="4" fill="#0" id="circle7"/>
	<circle cx="32.289" cy="217.11" r="4" fill="#0" id="circle8"/>
	<circle cx="45.4905" cy="364.213" r="4" fill="#0" id="circle9"/>
	<circle cx="47.3764" cy="202.023" r="4" fill="#0" id="circle10"/>
	<circle cx="60.5779" cy="179.392" r="4" fill="#0" id="circle11"/>
	<circle cx="64.3498" cy="364.213" r="4" fill="#0" id="circle12"/>
	<circle cx="79.4373" cy="103.954" r="4" fill="#0" id="circle13"/>
	<circle cx="79.4373" cy="122.814" r="4" fill="#0" id="circle14"/>
	<circle cx="79.4373" cy="141.673" r="4" fill="#0" id="circle15"/>
	<circle cx="79.4373" cy="160.532" r="4" fill="#0" id="circle16"/>
	<circle cx="81.3232" cy="354.783" r="4" fill="#0" id="circle17"/>
	<circle cx="88.8669" cy="75.6654" r="4" fill="#0" id="circle18"/>
	<circle cx="98.2966" cy="37.9468" r="4" fill="#0" id="circle19"/>
	<circle cx="98.2966" cy="56.8061" r="4" fill="#0" id="circle20"/>
	<circle cx="100.183" cy="345.354" r="4" fill="#0" id="circle21"/>
	<circle cx="113.384" cy="22.8593" r="4" fill="#0" id="circle22"/>
	<circle cx="119.042" cy="345.354" r="4" fill="#0" id="circle23"/>
	<circle cx="130.357" cy="13.4297" r="4" fill="#0" id="circle24"/>
	<circle cx="137.901" cy="335.924" r="4" fill="#0" id="circle25"/>
	<circle cx="147.331" cy="4" r="4" fill="#0" id="circle26"/>
	<circle cx="154.875" cy="345.354" r="4" fill="#0" id="circle27"/>
	<circle cx="166.19" cy="4" r="4" fill="#0" id="circle28"/>
	<circle cx="171.848" cy="354.783" r="4" fill="#0" id="circle29"/>
	<circle cx="185.049" cy="4" r="4" fill="#0" id="circle30"/>
	<circle cx="185.049" cy="369.871" r="4" fill="#0" id="circle31"/>
	<circle cx="203.909" cy="4" r="4" fill="#0" id="circle32"/>
	<circle cx="203.909" cy="377.414" r="4" fill="#0" id="circle33"/>
	<circle cx="220.882" cy="13.4297" r="4" fill="#0" id="circle34"/>
	<circle cx="220.882" cy="386.844" r="4" fill="#0" id="circle35"/>
	<circle cx="235.97" cy="24.7452" r="4" fill="#0" id="circle36"/>
	<circle cx="239.741" cy="392.502" r="4" fill="#0" id="circle37"/>
	<circle cx="251.057" cy="37.9468" r="4" fill="#0" id="circle38"/>
	<circle cx="256.715" cy="401.932" r="4" fill="#0" id="circle39"/>
	<circle cx="268.03" cy="47.3764" r="4" fill="#0" id="circle40"/>
	<circle cx="273.688" cy="411.361" r="4" fill="#0" id="circle41"/>
	<circle cx="286.89" cy="54.9202" r="4" fill="#0" id="circle42"/>
	<circle cx="288.776" cy="424.563" r="4" fill="#0" id="circle43"/>
	<circle cx="301.977" cy="439.65" r="4" fill="#0" id="circle44"/>
	<circle cx="305.749" cy="60.5779" r="4" fill="#0" id="circle45"/>
	<circle cx="320.837" cy="439.65" r="4" fill="#0" id="circle46"/>
	<circle cx="324.608" cy="60.5779" r="4" fill="#0" id="circle47"/>
	<circle cx="339.696" cy="439.65" r="4" fill="#0" id="circle48"/>
	<circle cx="343.468" cy="60.5779" r="4" fill="#0" id="circle49"/>
	<circle cx="358.555" cy="439.65" r="4" fill="#0" id="circle50"/>
	<circle cx="362.327" cy="56.8061" r="4" fill="#0" id="circle51"/>
	<circle cx="375.529" cy="430.221" r="4" fill="#0" id="circle52"/>
	<circle cx="381.186" cy="51.1483" r="4" fill="#0" id="circle53"/>
	<circle cx="392.502" cy="420.791" r="4" fill="#0" id="circle54"/>
	<circle cx="400.046" cy="51.1483" r="4" fill="#0" id="circle55"/>
	<circle cx="411.361" cy="411.361" r="4" fill="#0" id="circle56"/>
	<circle cx="418.905" cy="51.1483" r="4" fill="#0" id="circle57"/>
	<circle cx="430.221" cy="411.361" r="4" fill="#0" id="circle58"/>
	<circle cx="437.764" cy="51.1483" r="4" fill="#0" id="circle59"/>
	<circle cx="449.08" cy="411.361" r="4" fill="#0" id="circle60"/>
	<circle cx="454.738" cy="41.7186" r="4" fill="#0" id="circle61"/>
	<circle cx="467.939" cy="411.361" r="4" fill="#0" id="circle62"/>
	<circle cx="473.597" cy="41.7186" r="4" fill="#0" id="circle63"/>
	<circle cx="486.798" cy="411.361" r="4" fill="#0" id="circle64"/>
	<circle cx="492.456" cy="41.7186" r="4" fill="#0" id="circle65"/>
	<circle cx="505.658" cy="411.361" r="4" fill="#0" id="circle66"/>
	<circle cx="511.316" cy="41.7186" r="4" fill="#0" id="circle67"/>
	<circle cx="524.517" cy="411.361" r="4" fill="#0" id="circle68"/>
	<circle cx="530.175" cy="41.7186" r="4" fill="#0" id="circle69"/>
	<circle cx="543.376" cy="411.361" r="4" fill="#0" id="circle70"/>
	<circle cx="547.148" cy="32.289" r="4" fill="#0" id="circle71"/>
	<circle cx="562.236" cy="411.361" r="4" fill="#0" id="circle72"/>
	<circle cx="566.008" cy="32.289" r="4" fill="#0" id="circle73"/>
	<circle cx="581.095" cy="411.361" r="4" fill="#0" id="circle74"/>
	<circle cx="584.867" cy="32.289" r="4" fill="#0" id="circle75"/>
	<circle cx="599.954" cy="411.361" r="4" fill="#0" id="circle76"/>
	<circle cx="603.726" cy="32.289" r="4" fill="#0" id="circle77"/>
	<circle cx="618.814" cy="411.361" r="4" fill="#0" id="circle78"/>
	<circle cx="622.586" cy="32.289" r="4" fill="#0" id="circle79"/>
	<circle cx="637.673" cy="411.361" r="4" fill="#0" id="circle80"/>
	<circle cx="641.445" cy="32.289" r="4" fill="#0" id="circle81"/>
	<circle cx="656.532" cy="411.361" r="4" fill="#0" id="circle82"/>
	<circle cx="660.304" cy="32.289" r="4" fill="#0" id="circle83"/>
	<circle cx="675.392" cy="411.361" r="4" fill="#0" id="circle84"/>
	<circle cx="677.278" cy="41.7186" r="4" fill="#0" id="circle85"/>
	<circle cx="694.251" cy="51.1483" r="4" fill="#0" id="circle86"/>
	<circle cx="694.251" cy="411.361" r="4" fill="#0" id="circle87"/>
	<circle cx="709.338" cy="62.4639" r="4" fill="#0" id="circle88"/>
	<circle cx="713.11" cy="415.133" r="4" fill="#0" id="circle89"/>
	<circle cx="722.54" cy="77.5513" r="4" fill="#0" id="circle90"/>
	<circle cx="730.084" cy="424.563" r="4" fill="#0" id="circle91"/>
	<circle cx="741.399" cy="85.0951" r="4" fill="#0" id="circle92"/>
	<circle cx="748.943" cy="430.221" r="4" fill="#0" id="circle93"/>
	<circle cx="758.373" cy="94.5247" r="4" fill="#0" id="circle94"/>
	<circle cx="765.916" cy="439.65" r="4" fill="#0" id="circle95"/>
	<circle cx="777.232" cy="102.068" r="4" fill="#0" id="circle96"/>
	<circle cx="782.89" cy="449.08" r="4" fill="#0" id="circle97"/>
	<circle cx="794.205" cy="111.498" r="4" fill="#0" id="circle98"/>
	<circle cx="801.749" cy="456.624" r="4" fill="#0" id="circle99"/>
	<circle cx="813.065" cy="117.156" r="4" fill="#0" id="circle100"/>
	<circle cx="820.608" cy="458.51" r="4" fill="#0" id="circle101"/>
	<circle cx="831.924" cy="117.156" r="4" fill="#0" id="circle102"/>
	<circle cx="839.468" cy="458.51" r="4" fill="#0" id="circle103"/>
	<circle cx="850.783" cy="117.156" r="4" fill="#0" id="circle104"/>
	<circle cx="858.327" cy="458.51" r="4" fill="#0" id="circle105"/>
	<circle cx="869.643" cy="117.156" r="4" fill="#0" id="circle106"/>
	<circle cx="875.3" cy="449.08" r="4" fill="#0" id="circle107"/>
	<circle cx="888.502" cy="117.156" r="4" fill="#0" id="circle108"/>
	<circle cx="892.274" cy="439.65" r="4" fill="#0" id="circle109"/>
	<circle cx="905.475" cy="107.726" r="4" fill="#0" id="circle110"/>
	<circle cx="911.133" cy="439.65" r="4" fill="#0" id="circle111"/>
	<circle cx="924.335" cy="107.726" r="4" fill="#0" id="circle112"/>
	<circle cx="929.992" cy="439.65" r="4" fill="#0" id="circle113"/>
	<circle cx="939.422" cy="298.205" r="4" fill="#0" id="circle114"/>
	<circle cx="939.422" cy="317.065" r="4" fill="#0" id="circle115"/>
	<circle cx="939.422" cy="335.924" r="4" fill="#0" id="circle116"/>
	<circle cx="943.194" cy="98.2966" r="4" fill="#0" id="circle117"/>
	<circle cx="943.194" cy="354.783" r="4" fill="#0" id="circle118"/>
	<circle cx="945.08" cy="426.449" r="4" fill="#0" id="circle119"/>
	<circle cx="948.852" cy="373.643" r="4" fill="#0" id="circle120"/>
	<circle cx="948.852" cy="392.502" r="4" fill="#0" id="circle121"/>
	<circle cx="954.51" cy="285.004" r="4" fill="#0" id="circle122"/>
	<circle cx="962.053" cy="98.2966" r="4" fill="#0" id="circle123"/>
	<circle cx="963.939" cy="266.144" r="4" fill="#0" id="circle124"/>
	<circle cx="977.141" cy="251.057" r="4" fill="#0" id="circle125"/>
	<circle cx="979.027" cy="107.726" r="4" fill="#0" id="circle126"/>
	<circle cx="986.57" cy="126.586" r="4" fill="#0" id="circle127"/>
	<circle cx="992.228" cy="237.856" r="4" fill="#0" id="circle128"/>
	<circle cx="996" cy="143.559" r="4" fill="#0" id="circle129"/>
	<circle cx="996" cy="162.418" r="4" fill="#0" id="circle130"/>
	<circle cx="996" cy="181.278" r="4" fill="#0" id="circle131"/>
	<circle cx="996" cy="200.137" r="4" fill="#0" id="circle132"/>
	<circle cx="996" cy="218.996" r="4" fill="#0" id="circle133"/>
	</g>
</svg>