<?xml version="1.0" encoding="UTF-8" standalone="no"?>
<!-- Created with CurveBenchmark -->
<svg
	xmlns:dc="http://purl.org/dc/elements/1.1/"
	xmlns:cc="http://creativecommons.org/ns#"
	xmlns:rdf="http://www.w3.org/1999/02/22-rdf-syntax-ns#"
	xmlns:svg="http://www.w3.org/2000/svg"
	xmlns="http://www.w3.org/2000/svg"
	xmlns:sodipodi="http://sodipodi.sourceforge.net/DTD/sodipodi-0.dtd"
	xmlns:inkscape="http://www.inkscape.org/namespaces/inkscape"
	width="1000"
	height="1000"
	id="svg2"
	version="1.1"
	sodipodi:docname="manifold/ccrust-tool63.png.txt">
<defs
	id="defs4" />
<metadata
	id="metadata7">
	<rdf:RDF>
		<cc:Work
			rdf:about="">
			<dc:format>image/svg+xml</dc:format>
			<dc:type
				rdf:resource="http://purl.org/dc/dcmitype/StillImage" />
			<dc:title></dc:title>
		</cc:Work>
	</rdf:RDF>
</metadata>
<g
	inkscape:label="Layer 1"
	inkscape:groupmode="layer"
	id="layer1">
	<path style="fill:none;stroke:red;stroke-width:1px;stroke-linecap:butt;stroke-linejoin:miter;stroke-opacity:1" d="M 150.361,573.18 182.885,573.18 z" id="boundary" inkscape:connector-curvature="0" />
	<path style="fill:none;stroke:red;stroke-width:1px;stroke-linecap:butt;stroke-linejoin:miter;stroke-opacity:1" d="M 182.885,573.18 212.157,589.443 z" id="boundary" inkscape:connector-curvature="0" />
	<path style="fill:none;stroke:red;stroke-width:1px;stroke-linecap:butt;stroke-linejoin:miter;stroke-opacity:1" d="M 325.993,524.393 299.974,547.161 z" id="boundary" inkscape:connector-curvature="0" />
	<path style="fill:none;stroke:red;stroke-width:1px;stroke-linecap:butt;stroke-linejoin:miter;stroke-opacity:1" d="M 299.974,547.161 267.449,563.423 z" id="boundary" inkscape:connector-curvature="0" />
	<path style="fill:none;stroke:red;stroke-width:1px;stroke-linecap:butt;stroke-linejoin:miter;stroke-opacity:1" d="M 244.682,589.443 267.449,563.423 z" id="boundary" inkscape:connector-curvature="0" />
	<path style="fill:none;stroke:red;stroke-width:1px;stroke-linecap:butt;stroke-linejoin:miter;stroke-opacity:1" d="M 62.5443,621.967 91.8164,605.705 z" id="boundary" inkscape:connector-curvature="0" />
	<path style="fill:none;stroke:red;stroke-width:1px;stroke-linecap:butt;stroke-linejoin:miter;stroke-opacity:1" d="M 121.089,589.443 91.8164,605.705 z" id="boundary" inkscape:connector-curvature="0" />
	<path style="fill:none;stroke:red;stroke-width:1px;stroke-linecap:butt;stroke-linejoin:miter;stroke-opacity:1" d="M 121.089,589.443 150.361,573.18 z" id="boundary" inkscape:connector-curvature="0" />
	<path style="fill:none;stroke:red;stroke-width:1px;stroke-linecap:butt;stroke-linejoin:miter;stroke-opacity:1" d="M 244.682,589.443 212.157,589.443 z" id="boundary" inkscape:connector-curvature="0" />
	<path style="fill:none;stroke:red;stroke-width:1px;stroke-linecap:butt;stroke-linejoin:miter;stroke-opacity:1" d="M 381.285,482.111 407.305,459.344 z" id="boundary" inkscape:connector-curvature="0" />
	<path style="fill:none;stroke:red;stroke-width:1px;stroke-linecap:butt;stroke-linejoin:miter;stroke-opacity:1" d="M 430.072,433.325 407.305,459.344 z" id="boundary" inkscape:connector-curvature="0" />
	<path style="fill:none;stroke:red;stroke-width:1px;stroke-linecap:butt;stroke-linejoin:miter;stroke-opacity:1" d="M 478.859,384.538 462.597,417.062 z" id="boundary" inkscape:connector-curvature="0" />
	<path style="fill:none;stroke:red;stroke-width:1px;stroke-linecap:butt;stroke-linejoin:miter;stroke-opacity:1" d="M 462.597,417.062 430.072,433.325 z" id="boundary" inkscape:connector-curvature="0" />
	<path style="fill:none;stroke:red;stroke-width:1px;stroke-linecap:butt;stroke-linejoin:miter;stroke-opacity:1" d="M 504.879,504.879 478.859,527.646 z" id="boundary" inkscape:connector-curvature="0" />
	<path style="fill:none;stroke:red;stroke-width:1px;stroke-linecap:butt;stroke-linejoin:miter;stroke-opacity:1" d="M 407.305,602.452 381.285,625.22 z" id="boundary" inkscape:connector-curvature="0" />
	<path style="fill:none;stroke:red;stroke-width:1px;stroke-linecap:butt;stroke-linejoin:miter;stroke-opacity:1" d="M 430.072,576.433 407.305,602.452 z" id="boundary" inkscape:connector-curvature="0" />
	<path style="fill:none;stroke:red;stroke-width:1px;stroke-linecap:butt;stroke-linejoin:miter;stroke-opacity:1" d="M 325.993,524.393 355.266,508.131 z" id="boundary" inkscape:connector-curvature="0" />
	<path style="fill:none;stroke:red;stroke-width:1px;stroke-linecap:butt;stroke-linejoin:miter;stroke-opacity:1" d="M 462.597,560.17 430.072,576.433 z" id="boundary" inkscape:connector-curvature="0" />
	<path style="fill:none;stroke:red;stroke-width:1px;stroke-linecap:butt;stroke-linejoin:miter;stroke-opacity:1" d="M 355.266,508.131 381.285,482.111 z" id="boundary" inkscape:connector-curvature="0" />
	<path style="fill:none;stroke:red;stroke-width:1px;stroke-linecap:butt;stroke-linejoin:miter;stroke-opacity:1" d="M 462.597,560.17 478.859,527.646 z" id="boundary" inkscape:connector-curvature="0" />
	<path style="fill:none;stroke:red;stroke-width:1px;stroke-linecap:butt;stroke-linejoin:miter;stroke-opacity:1" d="M 62.5443,621.967 30.0197,638.23 z" id="boundary" inkscape:connector-curvature="0" />
	<path style="fill:none;stroke:red;stroke-width:1px;stroke-linecap:butt;stroke-linejoin:miter;stroke-opacity:1" d="M 381.285,625.22 348.761,641.482 z" id="boundary" inkscape:connector-curvature="0" />
	<path style="fill:none;stroke:red;stroke-width:1px;stroke-linecap:butt;stroke-linejoin:miter;stroke-opacity:1" d="M 4,696.774 4,664.249 z" id="boundary" inkscape:connector-curvature="0" />
	<path style="fill:none;stroke:red;stroke-width:1px;stroke-linecap:butt;stroke-linejoin:miter;stroke-opacity:1" d="M 127.593,706.531 95.0689,706.531 z" id="boundary" inkscape:connector-curvature="0" />
	<path style="fill:none;stroke:red;stroke-width:1px;stroke-linecap:butt;stroke-linejoin:miter;stroke-opacity:1" d="M 4,664.249 30.0197,638.23 z" id="boundary" inkscape:connector-curvature="0" />
	<path style="fill:none;stroke:red;stroke-width:1px;stroke-linecap:butt;stroke-linejoin:miter;stroke-opacity:1" d="M 95.0689,706.531 62.5443,719.541 z" id="boundary" inkscape:connector-curvature="0" />
	<path style="fill:none;stroke:red;stroke-width:1px;stroke-linecap:butt;stroke-linejoin:miter;stroke-opacity:1" d="M 36.5246,739.056 4,729.298 z" id="boundary" inkscape:connector-curvature="0" />
	<path style="fill:none;stroke:red;stroke-width:1px;stroke-linecap:butt;stroke-linejoin:miter;stroke-opacity:1" d="M 4,729.298 4,696.774 z" id="boundary" inkscape:connector-curvature="0" />
	<path style="fill:none;stroke:red;stroke-width:1px;stroke-linecap:butt;stroke-linejoin:miter;stroke-opacity:1" d="M 62.5443,719.541 36.5246,739.056 z" id="boundary" inkscape:connector-curvature="0" />
	<path style="fill:none;stroke:red;stroke-width:1px;stroke-linecap:butt;stroke-linejoin:miter;stroke-opacity:1" d="M 117.836,826.872 134.098,794.348 z" id="boundary" inkscape:connector-curvature="0" />
	<path style="fill:none;stroke:red;stroke-width:1px;stroke-linecap:butt;stroke-linejoin:miter;stroke-opacity:1" d="M 137.351,852.892 117.836,826.872 z" id="boundary" inkscape:connector-curvature="0" />
	<path style="fill:none;stroke:red;stroke-width:1px;stroke-linecap:butt;stroke-linejoin:miter;stroke-opacity:1" d="M 169.875,852.892 137.351,852.892 z" id="boundary" inkscape:connector-curvature="0" />
	<path style="fill:none;stroke:red;stroke-width:1px;stroke-linecap:butt;stroke-linejoin:miter;stroke-opacity:1" d="M 127.593,706.531 150.361,732.551 z" id="boundary" inkscape:connector-curvature="0" />
	<path style="fill:none;stroke:red;stroke-width:1px;stroke-linecap:butt;stroke-linejoin:miter;stroke-opacity:1" d="M 293.469,732.551 277.207,765.075 z" id="boundary" inkscape:connector-curvature="0" />
	<path style="fill:none;stroke:red;stroke-width:1px;stroke-linecap:butt;stroke-linejoin:miter;stroke-opacity:1" d="M 332.498,674.007 309.731,700.026 z" id="boundary" inkscape:connector-curvature="0" />
	<path style="fill:none;stroke:red;stroke-width:1px;stroke-linecap:butt;stroke-linejoin:miter;stroke-opacity:1" d="M 332.498,674.007 348.761,641.482 z" id="boundary" inkscape:connector-curvature="0" />
	<path style="fill:none;stroke:red;stroke-width:1px;stroke-linecap:butt;stroke-linejoin:miter;stroke-opacity:1" d="M 293.469,732.551 309.731,700.026 z" id="boundary" inkscape:connector-curvature="0" />
	<path style="fill:none;stroke:red;stroke-width:1px;stroke-linecap:butt;stroke-linejoin:miter;stroke-opacity:1" d="M 195.895,830.125 169.875,852.892 z" id="boundary" inkscape:connector-curvature="0" />
	<path style="fill:none;stroke:red;stroke-width:1px;stroke-linecap:butt;stroke-linejoin:miter;stroke-opacity:1" d="M 228.42,813.862 195.895,830.125 z" id="boundary" inkscape:connector-curvature="0" />
	<path style="fill:none;stroke:red;stroke-width:1px;stroke-linecap:butt;stroke-linejoin:miter;stroke-opacity:1" d="M 134.098,794.348 160.118,768.328 z" id="boundary" inkscape:connector-curvature="0" />
	<path style="fill:none;stroke:red;stroke-width:1px;stroke-linecap:butt;stroke-linejoin:miter;stroke-opacity:1" d="M 228.42,813.862 251.187,787.843 z" id="boundary" inkscape:connector-curvature="0" />
	<path style="fill:none;stroke:red;stroke-width:1px;stroke-linecap:butt;stroke-linejoin:miter;stroke-opacity:1" d="M 251.187,787.843 277.207,765.075 z" id="boundary" inkscape:connector-curvature="0" />
	<path style="fill:none;stroke:red;stroke-width:1px;stroke-linecap:butt;stroke-linejoin:miter;stroke-opacity:1" d="M 160.118,768.328 150.361,732.551 z" id="boundary" inkscape:connector-curvature="0" />
	<path style="fill:none;stroke:red;stroke-width:1px;stroke-linecap:butt;stroke-linejoin:miter;stroke-opacity:1" d="M 761.823,52.7869 791.095,36.5246 z" id="boundary" inkscape:connector-curvature="0" />
	<path style="fill:none;stroke:red;stroke-width:1px;stroke-linecap:butt;stroke-linejoin:miter;stroke-opacity:1" d="M 817.115,13.7574 791.095,36.5246 z" id="boundary" inkscape:connector-curvature="0" />
	<path style="fill:none;stroke:red;stroke-width:1px;stroke-linecap:butt;stroke-linejoin:miter;stroke-opacity:1" d="M 852.892,101.574 836.63,72.3016 z" id="boundary" inkscape:connector-curvature="0" />
	<path style="fill:none;stroke:red;stroke-width:1px;stroke-linecap:butt;stroke-linejoin:miter;stroke-opacity:1" d="M 836.63,72.3016 869.154,62.5443 z" id="boundary" inkscape:connector-curvature="0" />
	<path style="fill:none;stroke:red;stroke-width:1px;stroke-linecap:butt;stroke-linejoin:miter;stroke-opacity:1" d="M 735.803,78.8066 761.823,52.7869 z" id="boundary" inkscape:connector-curvature="0" />
	<path style="fill:none;stroke:red;stroke-width:1px;stroke-linecap:butt;stroke-linejoin:miter;stroke-opacity:1" d="M 641.482,173.128 670.754,143.856 z" id="boundary" inkscape:connector-curvature="0" />
	<path style="fill:none;stroke:red;stroke-width:1px;stroke-linecap:butt;stroke-linejoin:miter;stroke-opacity:1" d="M 703.279,111.331 670.754,143.856 z" id="boundary" inkscape:connector-curvature="0" />
	<path style="fill:none;stroke:red;stroke-width:1px;stroke-linecap:butt;stroke-linejoin:miter;stroke-opacity:1" d="M 852.892,101.574 885.416,91.8164 z" id="boundary" inkscape:connector-curvature="0" />
	<path style="fill:none;stroke:red;stroke-width:1px;stroke-linecap:butt;stroke-linejoin:miter;stroke-opacity:1" d="M 703.279,111.331 735.803,78.8066 z" id="boundary" inkscape:connector-curvature="0" />
	<path style="fill:none;stroke:red;stroke-width:1px;stroke-linecap:butt;stroke-linejoin:miter;stroke-opacity:1" d="M 865.902,169.875 836.63,186.138 z" id="boundary" inkscape:connector-curvature="0" />
	<path style="fill:none;stroke:red;stroke-width:1px;stroke-linecap:butt;stroke-linejoin:miter;stroke-opacity:1" d="M 849.639,4 869.154,30.0197 z" id="boundary" inkscape:connector-curvature="0" />
	<path style="fill:none;stroke:red;stroke-width:1px;stroke-linecap:butt;stroke-linejoin:miter;stroke-opacity:1" d="M 817.115,13.7574 849.639,4 z" id="boundary" inkscape:connector-curvature="0" />
	<path style="fill:none;stroke:red;stroke-width:1px;stroke-linecap:butt;stroke-linejoin:miter;stroke-opacity:1" d="M 869.154,30.0197 869.154,62.5443 z" id="boundary" inkscape:connector-curvature="0" />
	<path style="fill:none;stroke:red;stroke-width:1px;stroke-linecap:butt;stroke-linejoin:miter;stroke-opacity:1" d="M 943.961,52.7869 973.233,36.5246 z" id="boundary" inkscape:connector-curvature="0" />
	<path style="fill:none;stroke:red;stroke-width:1px;stroke-linecap:butt;stroke-linejoin:miter;stroke-opacity:1" d="M 973.233,36.5246 996,62.5443 z" id="boundary" inkscape:connector-curvature="0" />
	<path style="fill:none;stroke:red;stroke-width:1px;stroke-linecap:butt;stroke-linejoin:miter;stroke-opacity:1" d="M 943.961,52.7869 917.941,75.5541 z" id="boundary" inkscape:connector-curvature="0" />
	<path style="fill:none;stroke:red;stroke-width:1px;stroke-linecap:butt;stroke-linejoin:miter;stroke-opacity:1" d="M 996,62.5443 969.98,104.826 z" id="boundary" inkscape:connector-curvature="0" />
	<path style="fill:none;stroke:red;stroke-width:1px;stroke-linecap:butt;stroke-linejoin:miter;stroke-opacity:1" d="M 924.446,150.361 898.426,169.875 z" id="boundary" inkscape:connector-curvature="0" />
	<path style="fill:none;stroke:red;stroke-width:1px;stroke-linecap:butt;stroke-linejoin:miter;stroke-opacity:1" d="M 917.941,75.5541 885.416,91.8164 z" id="boundary" inkscape:connector-curvature="0" />
	<path style="fill:none;stroke:red;stroke-width:1px;stroke-linecap:butt;stroke-linejoin:miter;stroke-opacity:1" d="M 885.416,91.8164 869.154,62.5443 z" id="boundary" inkscape:connector-curvature="0" />
	<path style="fill:none;stroke:red;stroke-width:1px;stroke-linecap:butt;stroke-linejoin:miter;stroke-opacity:1" d="M 898.426,169.875 865.902,169.875 z" id="boundary" inkscape:connector-curvature="0" />
	<path style="fill:none;stroke:red;stroke-width:1px;stroke-linecap:butt;stroke-linejoin:miter;stroke-opacity:1" d="M 924.446,150.361 940.708,121.089 z" id="boundary" inkscape:connector-curvature="0" />
	<path style="fill:none;stroke:red;stroke-width:1px;stroke-linecap:butt;stroke-linejoin:miter;stroke-opacity:1" d="M 940.708,121.089 969.98,104.826 z" id="boundary" inkscape:connector-curvature="0" />
	<path style="fill:none;stroke:red;stroke-width:1px;stroke-linecap:butt;stroke-linejoin:miter;stroke-opacity:1" d="M 556.918,225.167 556.918,257.692 z" id="boundary" inkscape:connector-curvature="0" />
	<path style="fill:none;stroke:red;stroke-width:1px;stroke-linecap:butt;stroke-linejoin:miter;stroke-opacity:1" d="M 504.879,361.77 478.859,384.538 z" id="boundary" inkscape:connector-curvature="0" />
	<path style="fill:none;stroke:red;stroke-width:1px;stroke-linecap:butt;stroke-linejoin:miter;stroke-opacity:1" d="M 573.18,286.964 556.918,257.692 z" id="boundary" inkscape:connector-curvature="0" />
	<path style="fill:none;stroke:red;stroke-width:1px;stroke-linecap:butt;stroke-linejoin:miter;stroke-opacity:1" d="M 556.918,225.167 589.443,208.905 z" id="boundary" inkscape:connector-curvature="0" />
	<path style="fill:none;stroke:red;stroke-width:1px;stroke-linecap:butt;stroke-linejoin:miter;stroke-opacity:1" d="M 573.18,286.964 540.656,306.479 z" id="boundary" inkscape:connector-curvature="0" />
	<path style="fill:none;stroke:red;stroke-width:1px;stroke-linecap:butt;stroke-linejoin:miter;stroke-opacity:1" d="M 534.151,345.508 540.656,306.479 z" id="boundary" inkscape:connector-curvature="0" />
	<path style="fill:none;stroke:red;stroke-width:1px;stroke-linecap:butt;stroke-linejoin:miter;stroke-opacity:1" d="M 527.646,478.859 504.879,504.879 z" id="boundary" inkscape:connector-curvature="0" />
	<path style="fill:none;stroke:red;stroke-width:1px;stroke-linecap:butt;stroke-linejoin:miter;stroke-opacity:1" d="M 543.908,446.334 527.646,478.859 z" id="boundary" inkscape:connector-curvature="0" />
	<path style="fill:none;stroke:red;stroke-width:1px;stroke-linecap:butt;stroke-linejoin:miter;stroke-opacity:1" d="M 573.18,430.072 543.908,446.334 z" id="boundary" inkscape:connector-curvature="0" />
	<path style="fill:none;stroke:red;stroke-width:1px;stroke-linecap:butt;stroke-linejoin:miter;stroke-opacity:1" d="M 599.2,410.557 573.18,430.072 z" id="boundary" inkscape:connector-curvature="0" />
	<path style="fill:none;stroke:red;stroke-width:1px;stroke-linecap:butt;stroke-linejoin:miter;stroke-opacity:1" d="M 504.879,361.77 534.151,345.508 z" id="boundary" inkscape:connector-curvature="0" />
	<path style="fill:none;stroke:red;stroke-width:1px;stroke-linecap:butt;stroke-linejoin:miter;stroke-opacity:1" d="M 589.443,208.905 621.967,199.148 z" id="boundary" inkscape:connector-curvature="0" />
	<path style="fill:none;stroke:red;stroke-width:1px;stroke-linecap:butt;stroke-linejoin:miter;stroke-opacity:1" d="M 621.967,199.148 641.482,173.128 z" id="boundary" inkscape:connector-curvature="0" />
	<path style="fill:none;stroke:red;stroke-width:1px;stroke-linecap:butt;stroke-linejoin:miter;stroke-opacity:1" d="M 755.318,251.187 729.298,280.459 z" id="boundary" inkscape:connector-curvature="0" />
	<path style="fill:none;stroke:red;stroke-width:1px;stroke-linecap:butt;stroke-linejoin:miter;stroke-opacity:1" d="M 784.59,234.925 755.318,251.187 z" id="boundary" inkscape:connector-curvature="0" />
	<path style="fill:none;stroke:red;stroke-width:1px;stroke-linecap:butt;stroke-linejoin:miter;stroke-opacity:1" d="M 810.61,215.41 784.59,234.925 z" id="boundary" inkscape:connector-curvature="0" />
	<path style="fill:none;stroke:red;stroke-width:1px;stroke-linecap:butt;stroke-linejoin:miter;stroke-opacity:1" d="M 810.61,215.41 836.63,186.138 z" id="boundary" inkscape:connector-curvature="0" />
	<path style="fill:none;stroke:red;stroke-width:1px;stroke-linecap:butt;stroke-linejoin:miter;stroke-opacity:1" d="M 599.2,410.557 615.462,378.033 z" id="boundary" inkscape:connector-curvature="0" />
	<path style="fill:none;stroke:red;stroke-width:1px;stroke-linecap:butt;stroke-linejoin:miter;stroke-opacity:1" d="M 615.462,378.033 647.987,361.77 z" id="boundary" inkscape:connector-curvature="0" />
	<path style="fill:none;stroke:red;stroke-width:1px;stroke-linecap:butt;stroke-linejoin:miter;stroke-opacity:1" d="M 703.279,299.974 674.007,316.236 z" id="boundary" inkscape:connector-curvature="0" />
	<path style="fill:none;stroke:red;stroke-width:1px;stroke-linecap:butt;stroke-linejoin:miter;stroke-opacity:1" d="M 729.298,280.459 703.279,299.974 z" id="boundary" inkscape:connector-curvature="0" />
	<path style="fill:none;stroke:red;stroke-width:1px;stroke-linecap:butt;stroke-linejoin:miter;stroke-opacity:1" d="M 647.987,361.77 674.007,316.236 z" id="boundary" inkscape:connector-curvature="0" />
	<circle cx="4" cy="664.249" r="4" fill="#0" id="circle0"/>
	<circle cx="4" cy="696.774" r="4" fill="#0" id="circle1"/>
	<circle cx="4" cy="729.298" r="4" fill="#0" id="circle2"/>
	<circle cx="30.0197" cy="638.23" r="4" fill="#0" id="circle3"/>
	<circle cx="36.5246" cy="739.056" r="4" fill="#0" id="circle4"/>
	<circle cx="62.5443" cy="621.967" r="4" fill="#0" id="circle5"/>
	<circle cx="62.5443" cy="719.541" r="4" fill="#0" id="circle6"/>
	<circle cx="91.8164" cy="605.705" r="4" fill="#0" id="circle7"/>
	<circle cx="95.0689" cy="706.531" r="4" fill="#0" id="circle8"/>
	<circle cx="117.836" cy="826.872" r="4" fill="#0" id="circle9"/>
	<circle cx="121.089" cy="589.443" r="4" fill="#0" id="circle10"/>
	<circle cx="127.593" cy="706.531" r="4" fill="#0" id="circle11"/>
	<circle cx="134.098" cy="794.348" r="4" fill="#0" id="circle12"/>
	<circle cx="137.351" cy="852.892" r="4" fill="#0" id="circle13"/>
	<circle cx="150.361" cy="573.18" r="4" fill="#0" id="circle14"/>
	<circle cx="150.361" cy="732.551" r="4" fill="#0" id="circle15"/>
	<circle cx="160.118" cy="768.328" r="4" fill="#0" id="circle16"/>
	<circle cx="169.875" cy="852.892" r="4" fill="#0" id="circle17"/>
	<circle cx="182.885" cy="573.18" r="4" fill="#0" id="circle18"/>
	<circle cx="195.895" cy="830.125" r="4" fill="#0" id="circle19"/>
	<circle cx="212.157" cy="589.443" r="4" fill="#0" id="circle20"/>
	<circle cx="228.42" cy="813.862" r="4" fill="#0" id="circle21"/>
	<circle cx="244.682" cy="589.443" r="4" fill="#0" id="circle22"/>
	<circle cx="251.187" cy="787.843" r="4" fill="#0" id="circle23"/>
	<circle cx="267.449" cy="563.423" r="4" fill="#0" id="circle24"/>
	<circle cx="277.207" cy="765.075" r="4" fill="#0" id="circle25"/>
	<circle cx="293.469" cy="732.551" r="4" fill="#0" id="circle26"/>
	<circle cx="299.974" cy="547.161" r="4" fill="#0" id="circle27"/>
	<circle cx="309.731" cy="700.026" r="4" fill="#0" id="circle28"/>
	<circle cx="325.993" cy="524.393" r="4" fill="#0" id="circle29"/>
	<circle cx="332.498" cy="674.007" r="4" fill="#0" id="circle30"/>
	<circle cx="348.761" cy="641.482" r="4" fill="#0" id="circle31"/>
	<circle cx="355.266" cy="508.131" r="4" fill="#0" id="circle32"/>
	<circle cx="381.285" cy="482.111" r="4" fill="#0" id="circle33"/>
	<circle cx="381.285" cy="625.22" r="4" fill="#0" id="circle34"/>
	<circle cx="407.305" cy="459.344" r="4" fill="#0" id="circle35"/>
	<circle cx="407.305" cy="602.452" r="4" fill="#0" id="circle36"/>
	<circle cx="430.072" cy="433.325" r="4" fill="#0" id="circle37"/>
	<circle cx="430.072" cy="576.433" r="4" fill="#0" id="circle38"/>
	<circle cx="462.597" cy="417.062" r="4" fill="#0" id="circle39"/>
	<circle cx="462.597" cy="560.17" r="4" fill="#0" id="circle40"/>
	<circle cx="478.859" cy="384.538" r="4" fill="#0" id="circle41"/>
	<circle cx="478.859" cy="527.646" r="4" fill="#0" id="circle42"/>
	<circle cx="504.879" cy="361.77" r="4" fill="#0" id="circle43"/>
	<circle cx="504.879" cy="504.879" r="4" fill="#0" id="circle44"/>
	<circle cx="527.646" cy="478.859" r="4" fill="#0" id="circle45"/>
	<circle cx="534.151" cy="345.508" r="4" fill="#0" id="circle46"/>
	<circle cx="540.656" cy="306.479" r="4" fill="#0" id="circle47"/>
	<circle cx="543.908" cy="446.334" r="4" fill="#0" id="circle48"/>
	<circle cx="556.918" cy="225.167" r="4" fill="#0" id="circle49"/>
	<circle cx="556.918" cy="257.692" r="4" fill="#0" id="circle50"/>
	<circle cx="573.18" cy="286.964" r="4" fill="#0" id="circle51"/>
	<circle cx="573.18" cy="430.072" r="4" fill="#0" id="circle52"/>
	<circle cx="589.443" cy="208.905" r="4" fill="#0" id="circle53"/>
	<circle cx="599.2" cy="410.557" r="4" fill="#0" id="circle54"/>
	<circle cx="615.462" cy="378.033" r="4" fill="#0" id="circle55"/>
	<circle cx="621.967" cy="199.148" r="4" fill="#0" id="circle56"/>
	<circle cx="641.482" cy="173.128" r="4" fill="#0" id="circle57"/>
	<circle cx="647.987" cy="361.77" r="4" fill="#0" id="circle58"/>
	<circle cx="670.754" cy="143.856" r="4" fill="#0" id="circle59"/>
	<circle cx="674.007" cy="316.236" r="4" fill="#0" id="circle60"/>
	<circle cx="703.279" cy="111.331" r="4" fill="#0" id="circle61"/>
	<circle cx="703.279" cy="299.974" r="4" fill="#0" id="circle62"/>
	<circle cx="729.298" cy="280.459" r="4" fill="#0" id="circle63"/>
	<circle cx="735.803" cy="78.8066" r="4" fill="#0" id="circle64"/>
	<circle cx="755.318" cy="251.187" r="4" fill="#0" id="circle65"/>
	<circle cx="761.823" cy="52.7869" r="4" fill="#0" id="circle66"/>
	<circle cx="784.59" cy="234.925" r="4" fill="#0" id="circle67"/>
	<circle cx="791.095" cy="36.5246" r="4" fill="#0" id="circle68"/>
	<circle cx="810.61" cy="215.41" r="4" fill="#0" id="circle69"/>
	<circle cx="817.115" cy="13.7574" r="4" fill="#0" id="circle70"/>
	<circle cx="836.63" cy="72.3016" r="4" fill="#0" id="circle71"/>
	<circle cx="836.63" cy="186.138" r="4" fill="#0" id="circle72"/>
	<circle cx="849.639" cy="4" r="4" fill="#0" id="circle73"/>
	<circle cx="852.892" cy="101.574" r="4" fill="#0" id="circle74"/>
	<circle cx="865.902" cy="169.875" r="4" fill="#0" id="circle75"/>
	<circle cx="869.154" cy="30.0197" r="4" fill="#0" id="circle76"/>
	<circle cx="869.154" cy="62.5443" r="4" fill="#0" id="circle77"/>
	<circle cx="885.416" cy="91.8164" r="4" fill="#0" id="circle78"/>
	<circle cx="898.426" cy="169.875" r="4" fill="#0" id="circle79"/>
	<circle cx="917.941" cy="75.5541" r="4" fill="#0" id="circle80"/>
	<circle cx="924.446" cy="150.361" r="4" fill="#0" id="circle81"/>
	<circle cx="940.708" cy="121.089" r="4" fill="#0" id="circle82"/>
	<circle cx="943.961" cy="52.7869" r="4" fill="#0" id="circle83"/>
	<circle cx="969.98" cy="104.826" r="4" fill="#0" id="circle84"/>
	<circle cx="973.233" cy="36.5246" r="4" fill="#0" id="circle85"/>
	<circle cx="996" cy="62.5443" r="4" fill="#0" id="circle86"/>
	</g>
</svg>