<?xml version="1.0" encoding="UTF-8" standalone="no"?>
<!-- Created with CurveBenchmark -->
<svg
	xmlns:dc="http://purl.org/dc/elements/1.1/"
	xmlns:cc="http://creativecommons.org/ns#"
	xmlns:rdf="http://www.w3.org/1999/02/22-rdf-syntax-ns#"
	xmlns:svg="http://www.w3.org/2000/svg"
	xmlns="http://www.w3.org/2000/svg"
	xmlns:sodipodi="http://sodipodi.sourceforge.net/DTD/sodipodi-0.dtd"
	xmlns:inkscape="http://www.inkscape.org/namespaces/inkscape"
	width="1000"
	height="1000"
	id="svg2"
	version="1.1"
	sodipodi:docname="manifold/ccrust-chopper10.png.txt">
<defs
	id="defs4" />
<metadata
	id="metadata7">
	<rdf:RDF>
		<cc:Work
			rdf:about="">
			<dc:format>image/svg+xml</dc:format>
			<dc:type
				rdf:resource="http://purl.org/dc/dcmitype/StillImage" />
			<dc:title></dc:title>
		</cc:Work>
	</rdf:RDF>
</metadata>
<g
	inkscape:label="Layer 1"
	inkscape:groupmode="layer"
	id="layer1">
	<path style="fill:none;stroke:red;stroke-width:1px;stroke-linecap:butt;stroke-linejoin:miter;stroke-opacity:1" d="M 214.755,149.348 196.586,152.982 z" id="boundary" inkscape:connector-curvature="0" />
	<path style="fill:none;stroke:red;stroke-width:1px;stroke-linecap:butt;stroke-linejoin:miter;stroke-opacity:1" d="M 196.586,152.982 178.418,152.982 z" id="boundary" inkscape:connector-curvature="0" />
	<path style="fill:none;stroke:red;stroke-width:1px;stroke-linecap:butt;stroke-linejoin:miter;stroke-opacity:1" d="M 160.249,162.066 178.418,152.982 z" id="boundary" inkscape:connector-curvature="0" />
	<path style="fill:none;stroke:red;stroke-width:1px;stroke-linecap:butt;stroke-linejoin:miter;stroke-opacity:1" d="M 151.165,180.234 160.249,162.066 z" id="boundary" inkscape:connector-curvature="0" />
	<path style="fill:none;stroke:red;stroke-width:1px;stroke-linecap:butt;stroke-linejoin:miter;stroke-opacity:1" d="M 151.165,180.234 132.996,189.319 z" id="boundary" inkscape:connector-curvature="0" />
	<path style="fill:none;stroke:red;stroke-width:1px;stroke-linecap:butt;stroke-linejoin:miter;stroke-opacity:1" d="M 214.755,149.348 232.923,149.348 z" id="boundary" inkscape:connector-curvature="0" />
	<path style="fill:none;stroke:red;stroke-width:1px;stroke-linecap:butt;stroke-linejoin:miter;stroke-opacity:1" d="M 287.429,140.264 269.26,140.264 z" id="boundary" inkscape:connector-curvature="0" />
	<path style="fill:none;stroke:red;stroke-width:1px;stroke-linecap:butt;stroke-linejoin:miter;stroke-opacity:1" d="M 269.26,140.264 251.092,143.897 z" id="boundary" inkscape:connector-curvature="0" />
	<path style="fill:none;stroke:red;stroke-width:1px;stroke-linecap:butt;stroke-linejoin:miter;stroke-opacity:1" d="M 294.696,27.619 312.864,33.0696 z" id="boundary" inkscape:connector-curvature="0" />
	<path style="fill:none;stroke:red;stroke-width:1px;stroke-linecap:butt;stroke-linejoin:miter;stroke-opacity:1" d="M 232.923,149.348 251.092,143.897 z" id="boundary" inkscape:connector-curvature="0" />
	<path style="fill:none;stroke:red;stroke-width:1px;stroke-linecap:butt;stroke-linejoin:miter;stroke-opacity:1" d="M 294.696,27.619 303.78,9.45055 z" id="boundary" inkscape:connector-curvature="0" />
	<path style="fill:none;stroke:red;stroke-width:1px;stroke-linecap:butt;stroke-linejoin:miter;stroke-opacity:1" d="M 40.337,291.062 54.8718,276.527 z" id="boundary" inkscape:connector-curvature="0" />
	<path style="fill:none;stroke:red;stroke-width:1px;stroke-linecap:butt;stroke-linejoin:miter;stroke-opacity:1" d="M 31.2527,309.231 40.337,291.062 z" id="boundary" inkscape:connector-curvature="0" />
	<path style="fill:none;stroke:red;stroke-width:1px;stroke-linecap:butt;stroke-linejoin:miter;stroke-opacity:1" d="M 22.1685,336.484 31.2527,309.231 z" id="boundary" inkscape:connector-curvature="0" />
	<path style="fill:none;stroke:red;stroke-width:1px;stroke-linecap:butt;stroke-linejoin:miter;stroke-opacity:1" d="M 27.619,358.286 22.1685,336.484 z" id="boundary" inkscape:connector-curvature="0" />
	<path style="fill:none;stroke:red;stroke-width:1px;stroke-linecap:butt;stroke-linejoin:miter;stroke-opacity:1" d="M 27.619,358.286 13.0842,372.821 z" id="boundary" inkscape:connector-curvature="0" />
	<path style="fill:none;stroke:red;stroke-width:1px;stroke-linecap:butt;stroke-linejoin:miter;stroke-opacity:1" d="M 54.8718,276.527 69.4066,261.993 z" id="boundary" inkscape:connector-curvature="0" />
	<path style="fill:none;stroke:red;stroke-width:1px;stroke-linecap:butt;stroke-linejoin:miter;stroke-opacity:1" d="M 132.996,189.319 118.462,203.853 z" id="boundary" inkscape:connector-curvature="0" />
	<path style="fill:none;stroke:red;stroke-width:1px;stroke-linecap:butt;stroke-linejoin:miter;stroke-opacity:1" d="M 118.462,203.853 102.11,212.938 z" id="boundary" inkscape:connector-curvature="0" />
	<path style="fill:none;stroke:red;stroke-width:1px;stroke-linecap:butt;stroke-linejoin:miter;stroke-opacity:1" d="M 69.4066,261.993 78.4908,243.824 z" id="boundary" inkscape:connector-curvature="0" />
	<path style="fill:none;stroke:red;stroke-width:1px;stroke-linecap:butt;stroke-linejoin:miter;stroke-opacity:1" d="M 87.5751,225.656 78.4908,243.824 z" id="boundary" inkscape:connector-curvature="0" />
	<path style="fill:none;stroke:red;stroke-width:1px;stroke-linecap:butt;stroke-linejoin:miter;stroke-opacity:1" d="M 87.5751,225.656 102.11,212.938 z" id="boundary" inkscape:connector-curvature="0" />
	<path style="fill:none;stroke:red;stroke-width:1px;stroke-linecap:butt;stroke-linejoin:miter;stroke-opacity:1" d="M 321.949,4 340.117,4 z" id="boundary" inkscape:connector-curvature="0" />
	<path style="fill:none;stroke:red;stroke-width:1px;stroke-linecap:butt;stroke-linejoin:miter;stroke-opacity:1" d="M 329.216,42.1538 312.864,33.0696 z" id="boundary" inkscape:connector-curvature="0" />
	<path style="fill:none;stroke:red;stroke-width:1px;stroke-linecap:butt;stroke-linejoin:miter;stroke-opacity:1" d="M 347.385,42.1538 329.216,42.1538 z" id="boundary" inkscape:connector-curvature="0" />
	<path style="fill:none;stroke:red;stroke-width:1px;stroke-linecap:butt;stroke-linejoin:miter;stroke-opacity:1" d="M 347.385,42.1538 349.201,60.3223 z" id="boundary" inkscape:connector-curvature="0" />
	<path style="fill:none;stroke:red;stroke-width:1px;stroke-linecap:butt;stroke-linejoin:miter;stroke-opacity:1" d="M 305.597,140.264 287.429,140.264 z" id="boundary" inkscape:connector-curvature="0" />
	<path style="fill:none;stroke:red;stroke-width:1px;stroke-linecap:butt;stroke-linejoin:miter;stroke-opacity:1" d="M 340.117,4 358.286,4 z" id="boundary" inkscape:connector-curvature="0" />
	<path style="fill:none;stroke:red;stroke-width:1px;stroke-linecap:butt;stroke-linejoin:miter;stroke-opacity:1" d="M 303.78,9.45055 321.949,4 z" id="boundary" inkscape:connector-curvature="0" />
	<path style="fill:none;stroke:red;stroke-width:1px;stroke-linecap:butt;stroke-linejoin:miter;stroke-opacity:1" d="M 376.454,4 394.623,4 z" id="boundary" inkscape:connector-curvature="0" />
	<path style="fill:none;stroke:red;stroke-width:1px;stroke-linecap:butt;stroke-linejoin:miter;stroke-opacity:1" d="M 414.608,23.9853 414.608,42.1538 z" id="boundary" inkscape:connector-curvature="0" />
	<path style="fill:none;stroke:red;stroke-width:1px;stroke-linecap:butt;stroke-linejoin:miter;stroke-opacity:1" d="M 414.608,23.9853 412.791,4 z" id="boundary" inkscape:connector-curvature="0" />
	<path style="fill:none;stroke:red;stroke-width:1px;stroke-linecap:butt;stroke-linejoin:miter;stroke-opacity:1" d="M 432.777,18.5348 414.608,23.9853 z" id="boundary" inkscape:connector-curvature="0" />
	<path style="fill:none;stroke:red;stroke-width:1px;stroke-linecap:butt;stroke-linejoin:miter;stroke-opacity:1" d="M 394.623,4 412.791,4 z" id="boundary" inkscape:connector-curvature="0" />
	<path style="fill:none;stroke:red;stroke-width:1px;stroke-linecap:butt;stroke-linejoin:miter;stroke-opacity:1" d="M 358.286,4 376.454,4 z" id="boundary" inkscape:connector-curvature="0" />
	<path style="fill:none;stroke:red;stroke-width:1px;stroke-linecap:butt;stroke-linejoin:miter;stroke-opacity:1" d="M 354.652,78.4908 349.201,60.3223 z" id="boundary" inkscape:connector-curvature="0" />
	<path style="fill:none;stroke:red;stroke-width:1px;stroke-linecap:butt;stroke-linejoin:miter;stroke-opacity:1" d="M 371.004,87.5751 354.652,78.4908 z" id="boundary" inkscape:connector-curvature="0" />
	<path style="fill:none;stroke:red;stroke-width:1px;stroke-linecap:butt;stroke-linejoin:miter;stroke-opacity:1" d="M 360.103,131.179 341.934,134.813 z" id="boundary" inkscape:connector-curvature="0" />
	<path style="fill:none;stroke:red;stroke-width:1px;stroke-linecap:butt;stroke-linejoin:miter;stroke-opacity:1" d="M 323.766,140.264 305.597,140.264 z" id="boundary" inkscape:connector-curvature="0" />
	<path style="fill:none;stroke:red;stroke-width:1px;stroke-linecap:butt;stroke-linejoin:miter;stroke-opacity:1" d="M 341.934,134.813 323.766,140.264 z" id="boundary" inkscape:connector-curvature="0" />
	<path style="fill:none;stroke:red;stroke-width:1px;stroke-linecap:butt;stroke-linejoin:miter;stroke-opacity:1" d="M 414.608,60.3223 414.608,78.4908 z" id="boundary" inkscape:connector-curvature="0" />
	<path style="fill:none;stroke:red;stroke-width:1px;stroke-linecap:butt;stroke-linejoin:miter;stroke-opacity:1" d="M 385.538,98.4762 371.004,87.5751 z" id="boundary" inkscape:connector-curvature="0" />
	<path style="fill:none;stroke:red;stroke-width:1px;stroke-linecap:butt;stroke-linejoin:miter;stroke-opacity:1" d="M 376.454,118.462 385.538,98.4762 z" id="boundary" inkscape:connector-curvature="0" />
	<path style="fill:none;stroke:red;stroke-width:1px;stroke-linecap:butt;stroke-linejoin:miter;stroke-opacity:1" d="M 414.608,96.6593 385.538,98.4762 z" id="boundary" inkscape:connector-curvature="0" />
	<path style="fill:none;stroke:red;stroke-width:1px;stroke-linecap:butt;stroke-linejoin:miter;stroke-opacity:1" d="M 414.608,78.4908 414.608,96.6593 z" id="boundary" inkscape:connector-curvature="0" />
	<path style="fill:none;stroke:red;stroke-width:1px;stroke-linecap:butt;stroke-linejoin:miter;stroke-opacity:1" d="M 360.103,131.179 376.454,118.462 z" id="boundary" inkscape:connector-curvature="0" />
	<path style="fill:none;stroke:red;stroke-width:1px;stroke-linecap:butt;stroke-linejoin:miter;stroke-opacity:1" d="M 414.608,42.1538 414.608,60.3223 z" id="boundary" inkscape:connector-curvature="0" />
	<path style="fill:none;stroke:red;stroke-width:1px;stroke-linecap:butt;stroke-linejoin:miter;stroke-opacity:1" d="M 13.0842,372.821 13.0842,390.989 z" id="boundary" inkscape:connector-curvature="0" />
	<path style="fill:none;stroke:red;stroke-width:1px;stroke-linecap:butt;stroke-linejoin:miter;stroke-opacity:1" d="M 13.0842,390.989 4,409.158 z" id="boundary" inkscape:connector-curvature="0" />
	<path style="fill:none;stroke:red;stroke-width:1px;stroke-linecap:butt;stroke-linejoin:miter;stroke-opacity:1" d="M 4,436.41 4,409.158 z" id="boundary" inkscape:connector-curvature="0" />
	<path style="fill:none;stroke:red;stroke-width:1px;stroke-linecap:butt;stroke-linejoin:miter;stroke-opacity:1" d="M 4,454.579 4,436.41 z" id="boundary" inkscape:connector-curvature="0" />
	<path style="fill:none;stroke:red;stroke-width:1px;stroke-linecap:butt;stroke-linejoin:miter;stroke-opacity:1" d="M 14.9011,469.114 33.0696,472.747 z" id="boundary" inkscape:connector-curvature="0" />
	<path style="fill:none;stroke:red;stroke-width:1px;stroke-linecap:butt;stroke-linejoin:miter;stroke-opacity:1" d="M 33.0696,472.747 45.7875,487.282 z" id="boundary" inkscape:connector-curvature="0" />
	<path style="fill:none;stroke:red;stroke-width:1px;stroke-linecap:butt;stroke-linejoin:miter;stroke-opacity:1" d="M 14.9011,469.114 4,454.579 z" id="boundary" inkscape:connector-curvature="0" />
	<path style="fill:none;stroke:red;stroke-width:1px;stroke-linecap:butt;stroke-linejoin:miter;stroke-opacity:1" d="M 94.8425,496.366 78.4908,505.451 z" id="boundary" inkscape:connector-curvature="0" />
	<path style="fill:none;stroke:red;stroke-width:1px;stroke-linecap:butt;stroke-linejoin:miter;stroke-opacity:1" d="M 78.4908,505.451 62.1392,496.366 z" id="boundary" inkscape:connector-curvature="0" />
	<path style="fill:none;stroke:red;stroke-width:1px;stroke-linecap:butt;stroke-linejoin:miter;stroke-opacity:1" d="M 62.1392,496.366 45.7875,487.282 z" id="boundary" inkscape:connector-curvature="0" />
	<path style="fill:none;stroke:red;stroke-width:1px;stroke-linecap:butt;stroke-linejoin:miter;stroke-opacity:1" d="M 94.8425,496.366 111.194,505.451 z" id="boundary" inkscape:connector-curvature="0" />
	<path style="fill:none;stroke:red;stroke-width:1px;stroke-linecap:butt;stroke-linejoin:miter;stroke-opacity:1" d="M 147.531,505.451 129.363,505.451 z" id="boundary" inkscape:connector-curvature="0" />
	<path style="fill:none;stroke:red;stroke-width:1px;stroke-linecap:butt;stroke-linejoin:miter;stroke-opacity:1" d="M 85.7582,594.476 103.927,594.476 z" id="boundary" inkscape:connector-curvature="0" />
	<path style="fill:none;stroke:red;stroke-width:1px;stroke-linecap:butt;stroke-linejoin:miter;stroke-opacity:1" d="M 78.4908,614.462 67.5897,599.927 z" id="boundary" inkscape:connector-curvature="0" />
	<path style="fill:none;stroke:red;stroke-width:1px;stroke-linecap:butt;stroke-linejoin:miter;stroke-opacity:1" d="M 96.6593,614.462 78.4908,614.462 z" id="boundary" inkscape:connector-curvature="0" />
	<path style="fill:none;stroke:red;stroke-width:1px;stroke-linecap:butt;stroke-linejoin:miter;stroke-opacity:1" d="M 114.828,614.462 96.6593,614.462 z" id="boundary" inkscape:connector-curvature="0" />
	<path style="fill:none;stroke:red;stroke-width:1px;stroke-linecap:butt;stroke-linejoin:miter;stroke-opacity:1" d="M 111.194,505.451 129.363,505.451 z" id="boundary" inkscape:connector-curvature="0" />
	<path style="fill:none;stroke:red;stroke-width:1px;stroke-linecap:butt;stroke-linejoin:miter;stroke-opacity:1" d="M 140.264,590.842 122.095,594.476 z" id="boundary" inkscape:connector-curvature="0" />
	<path style="fill:none;stroke:red;stroke-width:1px;stroke-linecap:butt;stroke-linejoin:miter;stroke-opacity:1" d="M 132.996,614.462 114.828,614.462 z" id="boundary" inkscape:connector-curvature="0" />
	<path style="fill:none;stroke:red;stroke-width:1px;stroke-linecap:butt;stroke-linejoin:miter;stroke-opacity:1" d="M 103.927,594.476 122.095,594.476 z" id="boundary" inkscape:connector-curvature="0" />
	<path style="fill:none;stroke:red;stroke-width:1px;stroke-linecap:butt;stroke-linejoin:miter;stroke-opacity:1" d="M 140.264,590.842 151.165,605.377 z" id="boundary" inkscape:connector-curvature="0" />
	<path style="fill:none;stroke:red;stroke-width:1px;stroke-linecap:butt;stroke-linejoin:miter;stroke-opacity:1" d="M 151.165,605.377 132.996,614.462 z" id="boundary" inkscape:connector-curvature="0" />
	<path style="fill:none;stroke:red;stroke-width:1px;stroke-linecap:butt;stroke-linejoin:miter;stroke-opacity:1" d="M 147.531,505.451 165.7,505.451 z" id="boundary" inkscape:connector-curvature="0" />
	<path style="fill:none;stroke:red;stroke-width:1px;stroke-linecap:butt;stroke-linejoin:miter;stroke-opacity:1" d="M 165.7,505.451 176.601,519.985 z" id="boundary" inkscape:connector-curvature="0" />
	<path style="fill:none;stroke:red;stroke-width:1px;stroke-linecap:butt;stroke-linejoin:miter;stroke-opacity:1" d="M 174.784,576.308 158.432,585.392 z" id="boundary" inkscape:connector-curvature="0" />
	<path style="fill:none;stroke:red;stroke-width:1px;stroke-linecap:butt;stroke-linejoin:miter;stroke-opacity:1" d="M 176.601,556.322 174.784,576.308 z" id="boundary" inkscape:connector-curvature="0" />
	<path style="fill:none;stroke:red;stroke-width:1px;stroke-linecap:butt;stroke-linejoin:miter;stroke-opacity:1" d="M 176.601,519.985 176.601,538.154 z" id="boundary" inkscape:connector-curvature="0" />
	<path style="fill:none;stroke:red;stroke-width:1px;stroke-linecap:butt;stroke-linejoin:miter;stroke-opacity:1" d="M 176.601,556.322 176.601,538.154 z" id="boundary" inkscape:connector-curvature="0" />
	<path style="fill:none;stroke:red;stroke-width:1px;stroke-linecap:butt;stroke-linejoin:miter;stroke-opacity:1" d="M 271.077,587.209 252.908,587.209 z" id="boundary" inkscape:connector-curvature="0" />
	<path style="fill:none;stroke:red;stroke-width:1px;stroke-linecap:butt;stroke-linejoin:miter;stroke-opacity:1" d="M 343.751,587.209 325.582,587.209 z" id="boundary" inkscape:connector-curvature="0" />
	<path style="fill:none;stroke:red;stroke-width:1px;stroke-linecap:butt;stroke-linejoin:miter;stroke-opacity:1" d="M 380.088,587.209 396.44,578.125 z" id="boundary" inkscape:connector-curvature="0" />
	<path style="fill:none;stroke:red;stroke-width:1px;stroke-linecap:butt;stroke-linejoin:miter;stroke-opacity:1" d="M 396.44,578.125 414.608,578.125 z" id="boundary" inkscape:connector-curvature="0" />
	<path style="fill:none;stroke:red;stroke-width:1px;stroke-linecap:butt;stroke-linejoin:miter;stroke-opacity:1" d="M 252.908,587.209 236.557,596.293 z" id="boundary" inkscape:connector-curvature="0" />
	<path style="fill:none;stroke:red;stroke-width:1px;stroke-linecap:butt;stroke-linejoin:miter;stroke-opacity:1" d="M 236.557,596.293 220.205,587.209 z" id="boundary" inkscape:connector-curvature="0" />
	<path style="fill:none;stroke:red;stroke-width:1px;stroke-linecap:butt;stroke-linejoin:miter;stroke-opacity:1" d="M 220.205,587.209 203.853,596.293 z" id="boundary" inkscape:connector-curvature="0" />
	<path style="fill:none;stroke:red;stroke-width:1px;stroke-linecap:butt;stroke-linejoin:miter;stroke-opacity:1" d="M 271.077,587.209 289.245,587.209 z" id="boundary" inkscape:connector-curvature="0" />
	<path style="fill:none;stroke:red;stroke-width:1px;stroke-linecap:butt;stroke-linejoin:miter;stroke-opacity:1" d="M 187.502,605.377 203.853,596.293 z" id="boundary" inkscape:connector-curvature="0" />
	<path style="fill:none;stroke:red;stroke-width:1px;stroke-linecap:butt;stroke-linejoin:miter;stroke-opacity:1" d="M 151.165,605.377 169.333,605.377 z" id="boundary" inkscape:connector-curvature="0" />
	<path style="fill:none;stroke:red;stroke-width:1px;stroke-linecap:butt;stroke-linejoin:miter;stroke-opacity:1" d="M 187.502,605.377 169.333,605.377 z" id="boundary" inkscape:connector-curvature="0" />
	<path style="fill:none;stroke:red;stroke-width:1px;stroke-linecap:butt;stroke-linejoin:miter;stroke-opacity:1" d="M 289.245,587.209 307.414,587.209 z" id="boundary" inkscape:connector-curvature="0" />
	<path style="fill:none;stroke:red;stroke-width:1px;stroke-linecap:butt;stroke-linejoin:miter;stroke-opacity:1" d="M 325.582,587.209 307.414,587.209 z" id="boundary" inkscape:connector-curvature="0" />
	<path style="fill:none;stroke:red;stroke-width:1px;stroke-linecap:butt;stroke-linejoin:miter;stroke-opacity:1" d="M 343.751,587.209 361.919,587.209 z" id="boundary" inkscape:connector-curvature="0" />
	<path style="fill:none;stroke:red;stroke-width:1px;stroke-linecap:butt;stroke-linejoin:miter;stroke-opacity:1" d="M 380.088,587.209 361.919,587.209 z" id="boundary" inkscape:connector-curvature="0" />
	<path style="fill:none;stroke:red;stroke-width:1px;stroke-linecap:butt;stroke-linejoin:miter;stroke-opacity:1" d="M 423.692,559.956 414.608,578.125 z" id="boundary" inkscape:connector-curvature="0" />
	<path style="fill:none;stroke:red;stroke-width:1px;stroke-linecap:butt;stroke-linejoin:miter;stroke-opacity:1" d="M 414.608,96.6593 423.692,113.011 z" id="boundary" inkscape:connector-curvature="0" />
	<path style="fill:none;stroke:red;stroke-width:1px;stroke-linecap:butt;stroke-linejoin:miter;stroke-opacity:1" d="M 478.198,98.4762 460.029,107.56 z" id="boundary" inkscape:connector-curvature="0" />
	<path style="fill:none;stroke:red;stroke-width:1px;stroke-linecap:butt;stroke-linejoin:miter;stroke-opacity:1" d="M 496.366,94.8425 478.198,98.4762 z" id="boundary" inkscape:connector-curvature="0" />
	<path style="fill:none;stroke:red;stroke-width:1px;stroke-linecap:butt;stroke-linejoin:miter;stroke-opacity:1" d="M 441.861,113.011 423.692,113.011 z" id="boundary" inkscape:connector-curvature="0" />
	<path style="fill:none;stroke:red;stroke-width:1px;stroke-linecap:butt;stroke-linejoin:miter;stroke-opacity:1" d="M 460.029,107.56 441.861,113.011 z" id="boundary" inkscape:connector-curvature="0" />
	<path style="fill:none;stroke:red;stroke-width:1px;stroke-linecap:butt;stroke-linejoin:miter;stroke-opacity:1" d="M 530.886,107.56 512.718,103.927 z" id="boundary" inkscape:connector-curvature="0" />
	<path style="fill:none;stroke:red;stroke-width:1px;stroke-linecap:butt;stroke-linejoin:miter;stroke-opacity:1" d="M 512.718,103.927 496.366,94.8425 z" id="boundary" inkscape:connector-curvature="0" />
	<path style="fill:none;stroke:red;stroke-width:1px;stroke-linecap:butt;stroke-linejoin:miter;stroke-opacity:1" d="M 530.886,107.56 532.703,125.729 z" id="boundary" inkscape:connector-curvature="0" />
	<path style="fill:none;stroke:red;stroke-width:1px;stroke-linecap:butt;stroke-linejoin:miter;stroke-opacity:1" d="M 543.604,140.264 532.703,125.729 z" id="boundary" inkscape:connector-curvature="0" />
	<path style="fill:none;stroke:red;stroke-width:1px;stroke-linecap:butt;stroke-linejoin:miter;stroke-opacity:1" d="M 650.799,145.714 632.63,143.897 z" id="boundary" inkscape:connector-curvature="0" />
	<path style="fill:none;stroke:red;stroke-width:1px;stroke-linecap:butt;stroke-linejoin:miter;stroke-opacity:1" d="M 559.956,149.348 578.125,149.348 z" id="boundary" inkscape:connector-curvature="0" />
	<path style="fill:none;stroke:red;stroke-width:1px;stroke-linecap:butt;stroke-linejoin:miter;stroke-opacity:1" d="M 559.956,149.348 543.604,140.264 z" id="boundary" inkscape:connector-curvature="0" />
	<path style="fill:none;stroke:red;stroke-width:1px;stroke-linecap:butt;stroke-linejoin:miter;stroke-opacity:1" d="M 578.125,149.348 596.293,149.348 z" id="boundary" inkscape:connector-curvature="0" />
	<path style="fill:none;stroke:red;stroke-width:1px;stroke-linecap:butt;stroke-linejoin:miter;stroke-opacity:1" d="M 630.813,196.586 614.462,205.67 z" id="boundary" inkscape:connector-curvature="0" />
	<path style="fill:none;stroke:red;stroke-width:1px;stroke-linecap:butt;stroke-linejoin:miter;stroke-opacity:1" d="M 641.714,178.418 630.813,196.586 z" id="boundary" inkscape:connector-curvature="0" />
	<path style="fill:none;stroke:red;stroke-width:1px;stroke-linecap:butt;stroke-linejoin:miter;stroke-opacity:1" d="M 632.63,249.275 614.462,249.275 z" id="boundary" inkscape:connector-curvature="0" />
	<path style="fill:none;stroke:red;stroke-width:1px;stroke-linecap:butt;stroke-linejoin:miter;stroke-opacity:1" d="M 614.462,205.67 596.293,214.755 z" id="boundary" inkscape:connector-curvature="0" />
	<path style="fill:none;stroke:red;stroke-width:1px;stroke-linecap:butt;stroke-linejoin:miter;stroke-opacity:1" d="M 614.462,249.275 596.293,247.458 z" id="boundary" inkscape:connector-curvature="0" />
	<path style="fill:none;stroke:red;stroke-width:1px;stroke-linecap:butt;stroke-linejoin:miter;stroke-opacity:1" d="M 596.293,247.458 587.209,231.106 z" id="boundary" inkscape:connector-curvature="0" />
	<path style="fill:none;stroke:red;stroke-width:1px;stroke-linecap:butt;stroke-linejoin:miter;stroke-opacity:1" d="M 596.293,149.348 614.462,149.348 z" id="boundary" inkscape:connector-curvature="0" />
	<path style="fill:none;stroke:red;stroke-width:1px;stroke-linecap:butt;stroke-linejoin:miter;stroke-opacity:1" d="M 632.63,143.897 614.462,149.348 z" id="boundary" inkscape:connector-curvature="0" />
	<path style="fill:none;stroke:red;stroke-width:1px;stroke-linecap:butt;stroke-linejoin:miter;stroke-opacity:1" d="M 827.033,231.106 810.681,240.19 z" id="boundary" inkscape:connector-curvature="0" />
	<path style="fill:none;stroke:red;stroke-width:1px;stroke-linecap:butt;stroke-linejoin:miter;stroke-opacity:1" d="M 896.073,225.656 877.905,231.106 z" id="boundary" inkscape:connector-curvature="0" />
	<path style="fill:none;stroke:red;stroke-width:1px;stroke-linecap:butt;stroke-linejoin:miter;stroke-opacity:1" d="M 877.905,231.106 861.553,240.19 z" id="boundary" inkscape:connector-curvature="0" />
	<path style="fill:none;stroke:red;stroke-width:1px;stroke-linecap:butt;stroke-linejoin:miter;stroke-opacity:1" d="M 777.978,240.19 759.81,243.824 z" id="boundary" inkscape:connector-curvature="0" />
	<path style="fill:none;stroke:red;stroke-width:1px;stroke-linecap:butt;stroke-linejoin:miter;stroke-opacity:1" d="M 932.41,231.106 914.242,231.106 z" id="boundary" inkscape:connector-curvature="0" />
	<path style="fill:none;stroke:red;stroke-width:1px;stroke-linecap:butt;stroke-linejoin:miter;stroke-opacity:1" d="M 914.242,231.106 896.073,225.656 z" id="boundary" inkscape:connector-curvature="0" />
	<path style="fill:none;stroke:red;stroke-width:1px;stroke-linecap:butt;stroke-linejoin:miter;stroke-opacity:1" d="M 950.579,231.106 932.41,231.106 z" id="boundary" inkscape:connector-curvature="0" />
	<path style="fill:none;stroke:red;stroke-width:1px;stroke-linecap:butt;stroke-linejoin:miter;stroke-opacity:1" d="M 968.747,231.106 950.579,231.106 z" id="boundary" inkscape:connector-curvature="0" />
	<path style="fill:none;stroke:red;stroke-width:1px;stroke-linecap:butt;stroke-linejoin:miter;stroke-opacity:1" d="M 986.916,231.106 968.747,231.106 z" id="boundary" inkscape:connector-curvature="0" />
	<path style="fill:none;stroke:red;stroke-width:1px;stroke-linecap:butt;stroke-linejoin:miter;stroke-opacity:1" d="M 632.63,249.275 650.799,249.275 z" id="boundary" inkscape:connector-curvature="0" />
	<path style="fill:none;stroke:red;stroke-width:1px;stroke-linecap:butt;stroke-linejoin:miter;stroke-opacity:1" d="M 668.967,249.275 650.799,249.275 z" id="boundary" inkscape:connector-curvature="0" />
	<path style="fill:none;stroke:red;stroke-width:1px;stroke-linecap:butt;stroke-linejoin:miter;stroke-opacity:1" d="M 687.136,249.275 705.304,249.275 z" id="boundary" inkscape:connector-curvature="0" />
	<path style="fill:none;stroke:red;stroke-width:1px;stroke-linecap:butt;stroke-linejoin:miter;stroke-opacity:1" d="M 741.641,249.275 723.473,254.725 z" id="boundary" inkscape:connector-curvature="0" />
	<path style="fill:none;stroke:red;stroke-width:1px;stroke-linecap:butt;stroke-linejoin:miter;stroke-opacity:1" d="M 723.473,254.725 705.304,249.275 z" id="boundary" inkscape:connector-curvature="0" />
	<path style="fill:none;stroke:red;stroke-width:1px;stroke-linecap:butt;stroke-linejoin:miter;stroke-opacity:1" d="M 687.136,249.275 668.967,249.275 z" id="boundary" inkscape:connector-curvature="0" />
	<path style="fill:none;stroke:red;stroke-width:1px;stroke-linecap:butt;stroke-linejoin:miter;stroke-opacity:1" d="M 794.33,249.275 810.681,240.19 z" id="boundary" inkscape:connector-curvature="0" />
	<path style="fill:none;stroke:red;stroke-width:1px;stroke-linecap:butt;stroke-linejoin:miter;stroke-opacity:1" d="M 827.033,231.106 843.385,240.19 z" id="boundary" inkscape:connector-curvature="0" />
	<path style="fill:none;stroke:red;stroke-width:1px;stroke-linecap:butt;stroke-linejoin:miter;stroke-opacity:1" d="M 861.553,240.19 843.385,240.19 z" id="boundary" inkscape:connector-curvature="0" />
	<path style="fill:none;stroke:red;stroke-width:1px;stroke-linecap:butt;stroke-linejoin:miter;stroke-opacity:1" d="M 777.978,240.19 794.33,249.275 z" id="boundary" inkscape:connector-curvature="0" />
	<path style="fill:none;stroke:red;stroke-width:1px;stroke-linecap:butt;stroke-linejoin:miter;stroke-opacity:1" d="M 986.916,231.106 996,247.458 z" id="boundary" inkscape:connector-curvature="0" />
	<path style="fill:none;stroke:red;stroke-width:1px;stroke-linecap:butt;stroke-linejoin:miter;stroke-opacity:1" d="M 996,247.458 981.465,260.176 z" id="boundary" inkscape:connector-curvature="0" />
	<path style="fill:none;stroke:red;stroke-width:1px;stroke-linecap:butt;stroke-linejoin:miter;stroke-opacity:1" d="M 741.641,249.275 759.81,243.824 z" id="boundary" inkscape:connector-curvature="0" />
	<path style="fill:none;stroke:red;stroke-width:1px;stroke-linecap:butt;stroke-linejoin:miter;stroke-opacity:1" d="M 612.645,487.282 594.476,487.282 z" id="boundary" inkscape:connector-curvature="0" />
	<path style="fill:none;stroke:red;stroke-width:1px;stroke-linecap:butt;stroke-linejoin:miter;stroke-opacity:1" d="M 594.476,487.282 576.308,490.916 z" id="boundary" inkscape:connector-curvature="0" />
	<path style="fill:none;stroke:red;stroke-width:1px;stroke-linecap:butt;stroke-linejoin:miter;stroke-opacity:1" d="M 612.645,487.282 630.813,487.282 z" id="boundary" inkscape:connector-curvature="0" />
	<path style="fill:none;stroke:red;stroke-width:1px;stroke-linecap:butt;stroke-linejoin:miter;stroke-opacity:1" d="M 648.982,487.282 630.813,487.282 z" id="boundary" inkscape:connector-curvature="0" />
	<path style="fill:none;stroke:red;stroke-width:1px;stroke-linecap:butt;stroke-linejoin:miter;stroke-opacity:1" d="M 659.883,378.271 659.883,396.44 z" id="boundary" inkscape:connector-curvature="0" />
	<path style="fill:none;stroke:red;stroke-width:1px;stroke-linecap:butt;stroke-linejoin:miter;stroke-opacity:1" d="M 678.051,403.707 659.883,396.44 z" id="boundary" inkscape:connector-curvature="0" />
	<path style="fill:none;stroke:red;stroke-width:1px;stroke-linecap:butt;stroke-linejoin:miter;stroke-opacity:1" d="M 659.883,378.271 676.234,369.187 z" id="boundary" inkscape:connector-curvature="0" />
	<path style="fill:none;stroke:red;stroke-width:1px;stroke-linecap:butt;stroke-linejoin:miter;stroke-opacity:1" d="M 694.403,369.187 676.234,369.187 z" id="boundary" inkscape:connector-curvature="0" />
	<path style="fill:none;stroke:red;stroke-width:1px;stroke-linecap:butt;stroke-linejoin:miter;stroke-opacity:1" d="M 710.755,360.103 694.403,369.187 z" id="boundary" inkscape:connector-curvature="0" />
	<path style="fill:none;stroke:red;stroke-width:1px;stroke-linecap:butt;stroke-linejoin:miter;stroke-opacity:1" d="M 685.319,490.916 667.15,487.282 z" id="boundary" inkscape:connector-curvature="0" />
	<path style="fill:none;stroke:red;stroke-width:1px;stroke-linecap:butt;stroke-linejoin:miter;stroke-opacity:1" d="M 667.15,487.282 648.982,487.282 z" id="boundary" inkscape:connector-curvature="0" />
	<path style="fill:none;stroke:red;stroke-width:1px;stroke-linecap:butt;stroke-linejoin:miter;stroke-opacity:1" d="M 696.22,403.707 678.051,403.707 z" id="boundary" inkscape:connector-curvature="0" />
	<path style="fill:none;stroke:red;stroke-width:1px;stroke-linecap:butt;stroke-linejoin:miter;stroke-opacity:1" d="M 449.128,514.535 467.297,514.535 z" id="boundary" inkscape:connector-curvature="0" />
	<path style="fill:none;stroke:red;stroke-width:1px;stroke-linecap:butt;stroke-linejoin:miter;stroke-opacity:1" d="M 485.465,514.535 467.297,514.535 z" id="boundary" inkscape:connector-curvature="0" />
	<path style="fill:none;stroke:red;stroke-width:1px;stroke-linecap:butt;stroke-linejoin:miter;stroke-opacity:1" d="M 503.634,509.084 485.465,514.535 z" id="boundary" inkscape:connector-curvature="0" />
	<path style="fill:none;stroke:red;stroke-width:1px;stroke-linecap:butt;stroke-linejoin:miter;stroke-opacity:1" d="M 432.777,523.619 432.777,541.788 z" id="boundary" inkscape:connector-curvature="0" />
	<path style="fill:none;stroke:red;stroke-width:1px;stroke-linecap:butt;stroke-linejoin:miter;stroke-opacity:1" d="M 432.777,541.788 423.692,559.956 z" id="boundary" inkscape:connector-curvature="0" />
	<path style="fill:none;stroke:red;stroke-width:1px;stroke-linecap:butt;stroke-linejoin:miter;stroke-opacity:1" d="M 432.777,523.619 449.128,514.535 z" id="boundary" inkscape:connector-curvature="0" />
	<path style="fill:none;stroke:red;stroke-width:1px;stroke-linecap:butt;stroke-linejoin:miter;stroke-opacity:1" d="M 558.139,496.366 576.308,490.916 z" id="boundary" inkscape:connector-curvature="0" />
	<path style="fill:none;stroke:red;stroke-width:1px;stroke-linecap:butt;stroke-linejoin:miter;stroke-opacity:1" d="M 558.139,496.366 539.971,500 z" id="boundary" inkscape:connector-curvature="0" />
	<path style="fill:none;stroke:red;stroke-width:1px;stroke-linecap:butt;stroke-linejoin:miter;stroke-opacity:1" d="M 521.802,505.451 503.634,509.084 z" id="boundary" inkscape:connector-curvature="0" />
	<path style="fill:none;stroke:red;stroke-width:1px;stroke-linecap:butt;stroke-linejoin:miter;stroke-opacity:1" d="M 521.802,505.451 539.971,500 z" id="boundary" inkscape:connector-curvature="0" />
	<path style="fill:none;stroke:red;stroke-width:1px;stroke-linecap:butt;stroke-linejoin:miter;stroke-opacity:1" d="M 685.319,490.916 703.487,487.282 z" id="boundary" inkscape:connector-curvature="0" />
	<path style="fill:none;stroke:red;stroke-width:1px;stroke-linecap:butt;stroke-linejoin:miter;stroke-opacity:1" d="M 696.22,403.707 705.304,420.059 z" id="boundary" inkscape:connector-curvature="0" />
	<path style="fill:none;stroke:red;stroke-width:1px;stroke-linecap:butt;stroke-linejoin:miter;stroke-opacity:1" d="M 859.736,296.513 843.385,305.597 z" id="boundary" inkscape:connector-curvature="0" />
	<path style="fill:none;stroke:red;stroke-width:1px;stroke-linecap:butt;stroke-linejoin:miter;stroke-opacity:1" d="M 877.905,287.429 859.736,296.513 z" id="boundary" inkscape:connector-curvature="0" />
	<path style="fill:none;stroke:red;stroke-width:1px;stroke-linecap:butt;stroke-linejoin:miter;stroke-opacity:1" d="M 812.498,327.399 827.033,314.681 z" id="boundary" inkscape:connector-curvature="0" />
	<path style="fill:none;stroke:red;stroke-width:1px;stroke-linecap:butt;stroke-linejoin:miter;stroke-opacity:1" d="M 827.033,314.681 843.385,305.597 z" id="boundary" inkscape:connector-curvature="0" />
	<path style="fill:none;stroke:red;stroke-width:1px;stroke-linecap:butt;stroke-linejoin:miter;stroke-opacity:1" d="M 877.905,287.429 896.073,287.429 z" id="boundary" inkscape:connector-curvature="0" />
	<path style="fill:none;stroke:red;stroke-width:1px;stroke-linecap:butt;stroke-linejoin:miter;stroke-opacity:1" d="M 946.945,269.26 963.297,260.176 z" id="boundary" inkscape:connector-curvature="0" />
	<path style="fill:none;stroke:red;stroke-width:1px;stroke-linecap:butt;stroke-linejoin:miter;stroke-opacity:1" d="M 963.297,260.176 981.465,260.176 z" id="boundary" inkscape:connector-curvature="0" />
	<path style="fill:none;stroke:red;stroke-width:1px;stroke-linecap:butt;stroke-linejoin:miter;stroke-opacity:1" d="M 946.945,269.26 930.593,278.344 z" id="boundary" inkscape:connector-curvature="0" />
	<path style="fill:none;stroke:red;stroke-width:1px;stroke-linecap:butt;stroke-linejoin:miter;stroke-opacity:1" d="M 896.073,287.429 912.425,278.344 z" id="boundary" inkscape:connector-curvature="0" />
	<path style="fill:none;stroke:red;stroke-width:1px;stroke-linecap:butt;stroke-linejoin:miter;stroke-opacity:1" d="M 912.425,278.344 930.593,278.344 z" id="boundary" inkscape:connector-curvature="0" />
	<path style="fill:none;stroke:red;stroke-width:1px;stroke-linecap:butt;stroke-linejoin:miter;stroke-opacity:1" d="M 710.755,360.103 728.923,360.103 z" id="boundary" inkscape:connector-curvature="0" />
	<path style="fill:none;stroke:red;stroke-width:1px;stroke-linecap:butt;stroke-linejoin:miter;stroke-opacity:1" d="M 705.304,438.227 705.304,420.059 z" id="boundary" inkscape:connector-curvature="0" />
	<path style="fill:none;stroke:red;stroke-width:1px;stroke-linecap:butt;stroke-linejoin:miter;stroke-opacity:1" d="M 705.304,438.227 705.304,456.396 z" id="boundary" inkscape:connector-curvature="0" />
	<path style="fill:none;stroke:red;stroke-width:1px;stroke-linecap:butt;stroke-linejoin:miter;stroke-opacity:1" d="M 705.304,456.396 714.388,472.747 z" id="boundary" inkscape:connector-curvature="0" />
	<path style="fill:none;stroke:red;stroke-width:1px;stroke-linecap:butt;stroke-linejoin:miter;stroke-opacity:1" d="M 714.388,472.747 703.487,487.282 z" id="boundary" inkscape:connector-curvature="0" />
	<path style="fill:none;stroke:red;stroke-width:1px;stroke-linecap:butt;stroke-linejoin:miter;stroke-opacity:1" d="M 812.498,327.399 797.963,341.934 z" id="boundary" inkscape:connector-curvature="0" />
	<path style="fill:none;stroke:red;stroke-width:1px;stroke-linecap:butt;stroke-linejoin:miter;stroke-opacity:1" d="M 797.963,341.934 779.795,341.934 z" id="boundary" inkscape:connector-curvature="0" />
	<path style="fill:none;stroke:red;stroke-width:1px;stroke-linecap:butt;stroke-linejoin:miter;stroke-opacity:1" d="M 763.443,351.018 779.795,341.934 z" id="boundary" inkscape:connector-curvature="0" />
	<path style="fill:none;stroke:red;stroke-width:1px;stroke-linecap:butt;stroke-linejoin:miter;stroke-opacity:1" d="M 763.443,351.018 747.092,360.103 z" id="boundary" inkscape:connector-curvature="0" />
	<path style="fill:none;stroke:red;stroke-width:1px;stroke-linecap:butt;stroke-linejoin:miter;stroke-opacity:1" d="M 747.092,360.103 728.923,360.103 z" id="boundary" inkscape:connector-curvature="0" />
	<circle cx="4" cy="409.158" r="4" fill="#0" id="circle0"/>
	<circle cx="4" cy="436.41" r="4" fill="#0" id="circle1"/>
	<circle cx="4" cy="454.579" r="4" fill="#0" id="circle2"/>
	<circle cx="13.0842" cy="372.821" r="4" fill="#0" id="circle3"/>
	<circle cx="13.0842" cy="390.989" r="4" fill="#0" id="circle4"/>
	<circle cx="14.9011" cy="469.114" r="4" fill="#0" id="circle5"/>
	<circle cx="22.1685" cy="336.484" r="4" fill="#0" id="circle6"/>
	<circle cx="27.619" cy="358.286" r="4" fill="#0" id="circle7"/>
	<circle cx="31.2527" cy="309.231" r="4" fill="#0" id="circle8"/>
	<circle cx="33.0696" cy="472.747" r="4" fill="#0" id="circle9"/>
	<circle cx="40.337" cy="291.062" r="4" fill="#0" id="circle10"/>
	<circle cx="45.7875" cy="487.282" r="4" fill="#0" id="circle11"/>
	<circle cx="54.8718" cy="276.527" r="4" fill="#0" id="circle12"/>
	<circle cx="62.1392" cy="496.366" r="4" fill="#0" id="circle13"/>
	<circle cx="67.5897" cy="599.927" r="4" fill="#0" id="circle14"/>
	<circle cx="69.4066" cy="261.993" r="4" fill="#0" id="circle15"/>
	<circle cx="78.4908" cy="243.824" r="4" fill="#0" id="circle16"/>
	<circle cx="78.4908" cy="505.451" r="4" fill="#0" id="circle17"/>
	<circle cx="78.4908" cy="614.462" r="4" fill="#0" id="circle18"/>
	<circle cx="85.7582" cy="594.476" r="4" fill="#0" id="circle19"/>
	<circle cx="87.5751" cy="225.656" r="4" fill="#0" id="circle20"/>
	<circle cx="94.8425" cy="496.366" r="4" fill="#0" id="circle21"/>
	<circle cx="96.6593" cy="614.462" r="4" fill="#0" id="circle22"/>
	<circle cx="102.11" cy="212.938" r="4" fill="#0" id="circle23"/>
	<circle cx="103.927" cy="594.476" r="4" fill="#0" id="circle24"/>
	<circle cx="111.194" cy="505.451" r="4" fill="#0" id="circle25"/>
	<circle cx="114.828" cy="614.462" r="4" fill="#0" id="circle26"/>
	<circle cx="118.462" cy="203.853" r="4" fill="#0" id="circle27"/>
	<circle cx="122.095" cy="594.476" r="4" fill="#0" id="circle28"/>
	<circle cx="129.363" cy="505.451" r="4" fill="#0" id="circle29"/>
	<circle cx="132.996" cy="189.319" r="4" fill="#0" id="circle30"/>
	<circle cx="132.996" cy="614.462" r="4" fill="#0" id="circle31"/>
	<circle cx="140.264" cy="590.842" r="4" fill="#0" id="circle32"/>
	<circle cx="147.531" cy="505.451" r="4" fill="#0" id="circle33"/>
	<circle cx="151.165" cy="180.234" r="4" fill="#0" id="circle34"/>
	<circle cx="151.165" cy="605.377" r="4" fill="#0" id="circle35"/>
	<circle cx="158.432" cy="585.392" r="4" fill="#0" id="circle36"/>
	<circle cx="160.249" cy="162.066" r="4" fill="#0" id="circle37"/>
	<circle cx="165.7" cy="505.451" r="4" fill="#0" id="circle38"/>
	<circle cx="169.333" cy="605.377" r="4" fill="#0" id="circle39"/>
	<circle cx="174.784" cy="576.308" r="4" fill="#0" id="circle40"/>
	<circle cx="176.601" cy="519.985" r="4" fill="#0" id="circle41"/>
	<circle cx="176.601" cy="538.154" r="4" fill="#0" id="circle42"/>
	<circle cx="176.601" cy="556.322" r="4" fill="#0" id="circle43"/>
	<circle cx="178.418" cy="152.982" r="4" fill="#0" id="circle44"/>
	<circle cx="187.502" cy="605.377" r="4" fill="#0" id="circle45"/>
	<circle cx="196.586" cy="152.982" r="4" fill="#0" id="circle46"/>
	<circle cx="203.853" cy="596.293" r="4" fill="#0" id="circle47"/>
	<circle cx="214.755" cy="149.348" r="4" fill="#0" id="circle48"/>
	<circle cx="220.205" cy="587.209" r="4" fill="#0" id="circle49"/>
	<circle cx="232.923" cy="149.348" r="4" fill="#0" id="circle50"/>
	<circle cx="236.557" cy="596.293" r="4" fill="#0" id="circle51"/>
	<circle cx="251.092" cy="143.897" r="4" fill="#0" id="circle52"/>
	<circle cx="252.908" cy="587.209" r="4" fill="#0" id="circle53"/>
	<circle cx="269.26" cy="140.264" r="4" fill="#0" id="circle54"/>
	<circle cx="271.077" cy="587.209" r="4" fill="#0" id="circle55"/>
	<circle cx="287.429" cy="140.264" r="4" fill="#0" id="circle56"/>
	<circle cx="289.245" cy="587.209" r="4" fill="#0" id="circle57"/>
	<circle cx="294.696" cy="27.619" r="4" fill="#0" id="circle58"/>
	<circle cx="303.78" cy="9.45055" r="4" fill="#0" id="circle59"/>
	<circle cx="305.597" cy="140.264" r="4" fill="#0" id="circle60"/>
	<circle cx="307.414" cy="587.209" r="4" fill="#0" id="circle61"/>
	<circle cx="312.864" cy="33.0696" r="4" fill="#0" id="circle62"/>
	<circle cx="321.949" cy="4" r="4" fill="#0" id="circle63"/>
	<circle cx="323.766" cy="140.264" r="4" fill="#0" id="circle64"/>
	<circle cx="325.582" cy="587.209" r="4" fill="#0" id="circle65"/>
	<circle cx="329.216" cy="42.1538" r="4" fill="#0" id="circle66"/>
	<circle cx="340.117" cy="4" r="4" fill="#0" id="circle67"/>
	<circle cx="341.934" cy="134.813" r="4" fill="#0" id="circle68"/>
	<circle cx="343.751" cy="587.209" r="4" fill="#0" id="circle69"/>
	<circle cx="347.385" cy="42.1538" r="4" fill="#0" id="circle70"/>
	<circle cx="349.201" cy="60.3223" r="4" fill="#0" id="circle71"/>
	<circle cx="354.652" cy="78.4908" r="4" fill="#0" id="circle72"/>
	<circle cx="358.286" cy="4" r="4" fill="#0" id="circle73"/>
	<circle cx="360.103" cy="131.179" r="4" fill="#0" id="circle74"/>
	<circle cx="361.919" cy="587.209" r="4" fill="#0" id="circle75"/>
	<circle cx="371.004" cy="87.5751" r="4" fill="#0" id="circle76"/>
	<circle cx="376.454" cy="4" r="4" fill="#0" id="circle77"/>
	<circle cx="376.454" cy="118.462" r="4" fill="#0" id="circle78"/>
	<circle cx="380.088" cy="587.209" r="4" fill="#0" id="circle79"/>
	<circle cx="385.538" cy="98.4762" r="4" fill="#0" id="circle80"/>
	<circle cx="394.623" cy="4" r="4" fill="#0" id="circle81"/>
	<circle cx="396.44" cy="578.125" r="4" fill="#0" id="circle82"/>
	<circle cx="412.791" cy="4" r="4" fill="#0" id="circle83"/>
	<circle cx="414.608" cy="23.9853" r="4" fill="#0" id="circle84"/>
	<circle cx="414.608" cy="42.1538" r="4" fill="#0" id="circle85"/>
	<circle cx="414.608" cy="60.3223" r="4" fill="#0" id="circle86"/>
	<circle cx="414.608" cy="78.4908" r="4" fill="#0" id="circle87"/>
	<circle cx="414.608" cy="96.6593" r="4" fill="#0" id="circle88"/>
	<circle cx="414.608" cy="578.125" r="4" fill="#0" id="circle89"/>
	<circle cx="423.692" cy="113.011" r="4" fill="#0" id="circle90"/>
	<circle cx="423.692" cy="559.956" r="4" fill="#0" id="circle91"/>
	<circle cx="432.777" cy="18.5348" r="4" fill="#0" id="circle92"/>
	<circle cx="432.777" cy="523.619" r="4" fill="#0" id="circle93"/>
	<circle cx="432.777" cy="541.788" r="4" fill="#0" id="circle94"/>
	<circle cx="441.861" cy="113.011" r="4" fill="#0" id="circle95"/>
	<circle cx="449.128" cy="514.535" r="4" fill="#0" id="circle96"/>
	<circle cx="460.029" cy="107.56" r="4" fill="#0" id="circle97"/>
	<circle cx="467.297" cy="514.535" r="4" fill="#0" id="circle98"/>
	<circle cx="478.198" cy="98.4762" r="4" fill="#0" id="circle99"/>
	<circle cx="485.465" cy="514.535" r="4" fill="#0" id="circle100"/>
	<circle cx="496.366" cy="94.8425" r="4" fill="#0" id="circle101"/>
	<circle cx="503.634" cy="509.084" r="4" fill="#0" id="circle102"/>
	<circle cx="512.718" cy="103.927" r="4" fill="#0" id="circle103"/>
	<circle cx="521.802" cy="505.451" r="4" fill="#0" id="circle104"/>
	<circle cx="530.886" cy="107.56" r="4" fill="#0" id="circle105"/>
	<circle cx="532.703" cy="125.729" r="4" fill="#0" id="circle106"/>
	<circle cx="539.971" cy="500" r="4" fill="#0" id="circle107"/>
	<circle cx="543.604" cy="140.264" r="4" fill="#0" id="circle108"/>
	<circle cx="558.139" cy="496.366" r="4" fill="#0" id="circle109"/>
	<circle cx="559.956" cy="149.348" r="4" fill="#0" id="circle110"/>
	<circle cx="576.308" cy="490.916" r="4" fill="#0" id="circle111"/>
	<circle cx="578.125" cy="149.348" r="4" fill="#0" id="circle112"/>
	<circle cx="578.125" cy="214.755" r="4" fill="#0" id="circle113"/>
	<circle cx="587.209" cy="231.106" r="4" fill="#0" id="circle114"/>
	<circle cx="594.476" cy="487.282" r="4" fill="#0" id="circle115"/>
	<circle cx="596.293" cy="149.348" r="4" fill="#0" id="circle116"/>
	<circle cx="596.293" cy="214.755" r="4" fill="#0" id="circle117"/>
	<circle cx="596.293" cy="247.458" r="4" fill="#0" id="circle118"/>
	<circle cx="612.645" cy="487.282" r="4" fill="#0" id="circle119"/>
	<circle cx="614.462" cy="149.348" r="4" fill="#0" id="circle120"/>
	<circle cx="614.462" cy="205.67" r="4" fill="#0" id="circle121"/>
	<circle cx="614.462" cy="249.275" r="4" fill="#0" id="circle122"/>
	<circle cx="630.813" cy="196.586" r="4" fill="#0" id="circle123"/>
	<circle cx="630.813" cy="487.282" r="4" fill="#0" id="circle124"/>
	<circle cx="632.63" cy="143.897" r="4" fill="#0" id="circle125"/>
	<circle cx="632.63" cy="249.275" r="4" fill="#0" id="circle126"/>
	<circle cx="641.714" cy="178.418" r="4" fill="#0" id="circle127"/>
	<circle cx="648.982" cy="487.282" r="4" fill="#0" id="circle128"/>
	<circle cx="650.799" cy="145.714" r="4" fill="#0" id="circle129"/>
	<circle cx="650.799" cy="249.275" r="4" fill="#0" id="circle130"/>
	<circle cx="659.883" cy="378.271" r="4" fill="#0" id="circle131"/>
	<circle cx="659.883" cy="396.44" r="4" fill="#0" id="circle132"/>
	<circle cx="667.15" cy="487.282" r="4" fill="#0" id="circle133"/>
	<circle cx="668.967" cy="249.275" r="4" fill="#0" id="circle134"/>
	<circle cx="676.234" cy="369.187" r="4" fill="#0" id="circle135"/>
	<circle cx="678.051" cy="403.707" r="4" fill="#0" id="circle136"/>
	<circle cx="685.319" cy="490.916" r="4" fill="#0" id="circle137"/>
	<circle cx="687.136" cy="249.275" r="4" fill="#0" id="circle138"/>
	<circle cx="694.403" cy="369.187" r="4" fill="#0" id="circle139"/>
	<circle cx="696.22" cy="403.707" r="4" fill="#0" id="circle140"/>
	<circle cx="703.487" cy="487.282" r="4" fill="#0" id="circle141"/>
	<circle cx="705.304" cy="249.275" r="4" fill="#0" id="circle142"/>
	<circle cx="705.304" cy="420.059" r="4" fill="#0" id="circle143"/>
	<circle cx="705.304" cy="438.227" r="4" fill="#0" id="circle144"/>
	<circle cx="705.304" cy="456.396" r="4" fill="#0" id="circle145"/>
	<circle cx="710.755" cy="360.103" r="4" fill="#0" id="circle146"/>
	<circle cx="714.388" cy="472.747" r="4" fill="#0" id="circle147"/>
	<circle cx="723.473" cy="254.725" r="4" fill="#0" id="circle148"/>
	<circle cx="728.923" cy="360.103" r="4" fill="#0" id="circle149"/>
	<circle cx="741.641" cy="249.275" r="4" fill="#0" id="circle150"/>
	<circle cx="747.092" cy="360.103" r="4" fill="#0" id="circle151"/>
	<circle cx="759.81" cy="243.824" r="4" fill="#0" id="circle152"/>
	<circle cx="763.443" cy="351.018" r="4" fill="#0" id="circle153"/>
	<circle cx="777.978" cy="240.19" r="4" fill="#0" id="circle154"/>
	<circle cx="779.795" cy="341.934" r="4" fill="#0" id="circle155"/>
	<circle cx="794.33" cy="249.275" r="4" fill="#0" id="circle156"/>
	<circle cx="797.963" cy="341.934" r="4" fill="#0" id="circle157"/>
	<circle cx="810.681" cy="240.19" r="4" fill="#0" id="circle158"/>
	<circle cx="812.498" cy="327.399" r="4" fill="#0" id="circle159"/>
	<circle cx="827.033" cy="231.106" r="4" fill="#0" id="circle160"/>
	<circle cx="827.033" cy="314.681" r="4" fill="#0" id="circle161"/>
	<circle cx="843.385" cy="240.19" r="4" fill="#0" id="circle162"/>
	<circle cx="843.385" cy="305.597" r="4" fill="#0" id="circle163"/>
	<circle cx="859.736" cy="296.513" r="4" fill="#0" id="circle164"/>
	<circle cx="861.553" cy="240.19" r="4" fill="#0" id="circle165"/>
	<circle cx="877.905" cy="231.106" r="4" fill="#0" id="circle166"/>
	<circle cx="877.905" cy="287.429" r="4" fill="#0" id="circle167"/>
	<circle cx="896.073" cy="225.656" r="4" fill="#0" id="circle168"/>
	<circle cx="896.073" cy="287.429" r="4" fill="#0" id="circle169"/>
	<circle cx="912.425" cy="278.344" r="4" fill="#0" id="circle170"/>
	<circle cx="914.242" cy="231.106" r="4" fill="#0" id="circle171"/>
	<circle cx="930.593" cy="278.344" r="4" fill="#0" id="circle172"/>
	<circle cx="932.41" cy="231.106" r="4" fill="#0" id="circle173"/>
	<circle cx="946.945" cy="269.26" r="4" fill="#0" id="circle174"/>
	<circle cx="950.579" cy="231.106" r="4" fill="#0" id="circle175"/>
	<circle cx="963.297" cy="260.176" r="4" fill="#0" id="circle176"/>
	<circle cx="968.747" cy="231.106" r="4" fill="#0" id="circle177"/>
	<circle cx="981.465" cy="260.176" r="4" fill="#0" id="circle178"/>
	<circle cx="986.916" cy="231.106" r="4" fill="#0" id="circle179"/>
	<circle cx="996" cy="247.458" r="4" fill="#0" id="circle180"/>
	</g>
</svg>