<?xml version="1.0" encoding="UTF-8" standalone="no"?>
<!-- Created with CurveBenchmark -->
<svg
	xmlns:dc="http://purl.org/dc/elements/1.1/"
	xmlns:cc="http://creativecommons.org/ns#"
	xmlns:rdf="http://www.w3.org/1999/02/22-rdf-syntax-ns#"
	xmlns:svg="http://www.w3.org/2000/svg"
	xmlns="http://www.w3.org/2000/svg"
	xmlns:sodipodi="http://sodipodi.sourceforge.net/DTD/sodipodi-0.dtd"
	xmlns:inkscape="http://www.inkscape.org/namespaces/inkscape"
	width="1000"
	height="1000"
	id="svg2"
	version="1.1"
	sodipodi:docname="manifold/ccrust-television030.png.txt">
<defs
	id="defs4" />
<metadata
	id="metadata7">
	<rdf:RDF>
		<cc:Work
			rdf:about="">
			<dc:format>image/svg+xml</dc:format>
			<dc:type
				rdf:resource="http://purl.org/dc/dcmitype/StillImage" />
			<dc:title></dc:title>
		</cc:Work>
	</rdf:RDF>
</metadata>
<g
	inkscape:label="Layer 1"
	inkscape:groupmode="layer"
	id="layer1">
	<path style="fill:none;stroke:red;stroke-width:1px;stroke-linecap:butt;stroke-linejoin:miter;stroke-opacity:1" d="M 150.963,10.6801 150.963,44.0808 z" id="boundary" inkscape:connector-curvature="0" />
	<path style="fill:none;stroke:red;stroke-width:1px;stroke-linecap:butt;stroke-linejoin:miter;stroke-opacity:1" d="M 150.963,10.6801 184.364,4 z" id="boundary" inkscape:connector-curvature="0" />
	<path style="fill:none;stroke:red;stroke-width:1px;stroke-linecap:butt;stroke-linejoin:miter;stroke-opacity:1" d="M 150.963,77.4815 150.963,44.0808 z" id="boundary" inkscape:connector-curvature="0" />
	<path style="fill:none;stroke:red;stroke-width:1px;stroke-linecap:butt;stroke-linejoin:miter;stroke-opacity:1" d="M 150.963,110.882 150.963,144.283 z" id="boundary" inkscape:connector-curvature="0" />
	<path style="fill:none;stroke:red;stroke-width:1px;stroke-linecap:butt;stroke-linejoin:miter;stroke-opacity:1" d="M 150.963,177.684 150.963,144.283 z" id="boundary" inkscape:connector-curvature="0" />
	<path style="fill:none;stroke:red;stroke-width:1px;stroke-linecap:butt;stroke-linejoin:miter;stroke-opacity:1" d="M 150.963,110.882 150.963,77.4815 z" id="boundary" inkscape:connector-curvature="0" />
	<path style="fill:none;stroke:red;stroke-width:1px;stroke-linecap:butt;stroke-linejoin:miter;stroke-opacity:1" d="M 150.963,277.886 150.963,244.485 z" id="boundary" inkscape:connector-curvature="0" />
	<path style="fill:none;stroke:red;stroke-width:1px;stroke-linecap:butt;stroke-linejoin:miter;stroke-opacity:1" d="M 150.963,211.084 150.963,177.684 z" id="boundary" inkscape:connector-curvature="0" />
	<path style="fill:none;stroke:red;stroke-width:1px;stroke-linecap:butt;stroke-linejoin:miter;stroke-opacity:1" d="M 150.963,311.286 150.963,277.886 z" id="boundary" inkscape:connector-curvature="0" />
	<path style="fill:none;stroke:red;stroke-width:1px;stroke-linecap:butt;stroke-linejoin:miter;stroke-opacity:1" d="M 150.963,211.084 150.963,244.485 z" id="boundary" inkscape:connector-curvature="0" />
	<path style="fill:none;stroke:red;stroke-width:1px;stroke-linecap:butt;stroke-linejoin:miter;stroke-opacity:1" d="M 150.963,344.687 150.963,311.286 z" id="boundary" inkscape:connector-curvature="0" />
	<path style="fill:none;stroke:red;stroke-width:1px;stroke-linecap:butt;stroke-linejoin:miter;stroke-opacity:1" d="M 150.963,378.088 150.963,344.687 z" id="boundary" inkscape:connector-curvature="0" />
	<path style="fill:none;stroke:red;stroke-width:1px;stroke-linecap:butt;stroke-linejoin:miter;stroke-opacity:1" d="M 70.8013,588.512 44.0808,565.131 z" id="boundary" inkscape:connector-curvature="0" />
	<path style="fill:none;stroke:red;stroke-width:1px;stroke-linecap:butt;stroke-linejoin:miter;stroke-opacity:1" d="M 187.704,448.229 154.303,444.889 z" id="boundary" inkscape:connector-curvature="0" />
	<path style="fill:none;stroke:red;stroke-width:1px;stroke-linecap:butt;stroke-linejoin:miter;stroke-opacity:1" d="M 154.303,444.889 150.963,411.488 z" id="boundary" inkscape:connector-curvature="0" />
	<path style="fill:none;stroke:red;stroke-width:1px;stroke-linecap:butt;stroke-linejoin:miter;stroke-opacity:1" d="M 150.963,411.488 150.963,378.088 z" id="boundary" inkscape:connector-curvature="0" />
	<path style="fill:none;stroke:red;stroke-width:1px;stroke-linecap:butt;stroke-linejoin:miter;stroke-opacity:1" d="M 187.704,448.229 221.104,448.229 z" id="boundary" inkscape:connector-curvature="0" />
	<path style="fill:none;stroke:red;stroke-width:1px;stroke-linecap:butt;stroke-linejoin:miter;stroke-opacity:1" d="M 184.364,4 217.764,4 z" id="boundary" inkscape:connector-curvature="0" />
	<path style="fill:none;stroke:red;stroke-width:1px;stroke-linecap:butt;stroke-linejoin:miter;stroke-opacity:1" d="M 251.165,4 284.566,4 z" id="boundary" inkscape:connector-curvature="0" />
	<path style="fill:none;stroke:red;stroke-width:1px;stroke-linecap:butt;stroke-linejoin:miter;stroke-opacity:1" d="M 284.566,4 317.966,4 z" id="boundary" inkscape:connector-curvature="0" />
	<path style="fill:none;stroke:red;stroke-width:1px;stroke-linecap:butt;stroke-linejoin:miter;stroke-opacity:1" d="M 221.104,448.229 254.505,448.229 z" id="boundary" inkscape:connector-curvature="0" />
	<path style="fill:none;stroke:red;stroke-width:1px;stroke-linecap:butt;stroke-linejoin:miter;stroke-opacity:1" d="M 287.906,448.229 254.505,448.229 z" id="boundary" inkscape:connector-curvature="0" />
	<path style="fill:none;stroke:red;stroke-width:1px;stroke-linecap:butt;stroke-linejoin:miter;stroke-opacity:1" d="M 317.966,4 351.367,4 z" id="boundary" inkscape:connector-curvature="0" />
	<path style="fill:none;stroke:red;stroke-width:1px;stroke-linecap:butt;stroke-linejoin:miter;stroke-opacity:1" d="M 351.367,4 384.768,4 z" id="boundary" inkscape:connector-curvature="0" />
	<path style="fill:none;stroke:red;stroke-width:1px;stroke-linecap:butt;stroke-linejoin:miter;stroke-opacity:1" d="M 321.306,448.229 354.707,448.229 z" id="boundary" inkscape:connector-curvature="0" />
	<path style="fill:none;stroke:red;stroke-width:1px;stroke-linecap:butt;stroke-linejoin:miter;stroke-opacity:1" d="M 421.508,448.229 388.108,448.229 z" id="boundary" inkscape:connector-curvature="0" />
	<path style="fill:none;stroke:red;stroke-width:1px;stroke-linecap:butt;stroke-linejoin:miter;stroke-opacity:1" d="M 388.108,448.229 354.707,448.229 z" id="boundary" inkscape:connector-curvature="0" />
	<path style="fill:none;stroke:red;stroke-width:1px;stroke-linecap:butt;stroke-linejoin:miter;stroke-opacity:1" d="M 384.768,4 418.168,4 z" id="boundary" inkscape:connector-curvature="0" />
	<path style="fill:none;stroke:red;stroke-width:1px;stroke-linecap:butt;stroke-linejoin:miter;stroke-opacity:1" d="M 321.306,448.229 287.906,448.229 z" id="boundary" inkscape:connector-curvature="0" />
	<path style="fill:none;stroke:red;stroke-width:1px;stroke-linecap:butt;stroke-linejoin:miter;stroke-opacity:1" d="M 438.209,511.69 421.508,558.451 z" id="boundary" inkscape:connector-curvature="0" />
	<path style="fill:none;stroke:red;stroke-width:1px;stroke-linecap:butt;stroke-linejoin:miter;stroke-opacity:1" d="M 421.508,448.229 438.209,478.29 z" id="boundary" inkscape:connector-curvature="0" />
	<path style="fill:none;stroke:red;stroke-width:1px;stroke-linecap:butt;stroke-linejoin:miter;stroke-opacity:1" d="M 418.168,4 451.569,4 z" id="boundary" inkscape:connector-curvature="0" />
	<path style="fill:none;stroke:red;stroke-width:1px;stroke-linecap:butt;stroke-linejoin:miter;stroke-opacity:1" d="M 217.764,4 251.165,4 z" id="boundary" inkscape:connector-curvature="0" />
	<path style="fill:none;stroke:red;stroke-width:1px;stroke-linecap:butt;stroke-linejoin:miter;stroke-opacity:1" d="M 70.8013,695.394 44.0808,672.013 z" id="boundary" inkscape:connector-curvature="0" />
	<path style="fill:none;stroke:red;stroke-width:1px;stroke-linecap:butt;stroke-linejoin:miter;stroke-opacity:1" d="M 70.8013,765.535 37.4007,765.535 z" id="boundary" inkscape:connector-curvature="0" />
	<path style="fill:none;stroke:red;stroke-width:1px;stroke-linecap:butt;stroke-linejoin:miter;stroke-opacity:1" d="M 104.202,765.535 70.8013,765.535 z" id="boundary" inkscape:connector-curvature="0" />
	<path style="fill:none;stroke:red;stroke-width:1px;stroke-linecap:butt;stroke-linejoin:miter;stroke-opacity:1" d="M 37.4007,765.535 4,772.215 z" id="boundary" inkscape:connector-curvature="0" />
	<path style="fill:none;stroke:red;stroke-width:1px;stroke-linecap:butt;stroke-linejoin:miter;stroke-opacity:1" d="M 4,805.616 4,772.215 z" id="boundary" inkscape:connector-curvature="0" />
	<path style="fill:none;stroke:red;stroke-width:1px;stroke-linecap:butt;stroke-linejoin:miter;stroke-opacity:1" d="M 87.5017,835.677 54.101,849.037 z" id="boundary" inkscape:connector-curvature="0" />
	<path style="fill:none;stroke:red;stroke-width:1px;stroke-linecap:butt;stroke-linejoin:miter;stroke-opacity:1" d="M 54.101,849.037 20.7003,835.677 z" id="boundary" inkscape:connector-curvature="0" />
	<path style="fill:none;stroke:red;stroke-width:1px;stroke-linecap:butt;stroke-linejoin:miter;stroke-opacity:1" d="M 20.7003,835.677 4,805.616 z" id="boundary" inkscape:connector-curvature="0" />
	<path style="fill:none;stroke:red;stroke-width:1px;stroke-linecap:butt;stroke-linejoin:miter;stroke-opacity:1" d="M 87.5017,835.677 120.902,835.677 z" id="boundary" inkscape:connector-curvature="0" />
	<path style="fill:none;stroke:red;stroke-width:1px;stroke-linecap:butt;stroke-linejoin:miter;stroke-opacity:1" d="M 137.603,765.535 171.003,765.535 z" id="boundary" inkscape:connector-curvature="0" />
	<path style="fill:none;stroke:red;stroke-width:1px;stroke-linecap:butt;stroke-linejoin:miter;stroke-opacity:1" d="M 204.404,765.535 171.003,765.535 z" id="boundary" inkscape:connector-curvature="0" />
	<path style="fill:none;stroke:red;stroke-width:1px;stroke-linecap:butt;stroke-linejoin:miter;stroke-opacity:1" d="M 120.902,835.677 154.303,835.677 z" id="boundary" inkscape:connector-curvature="0" />
	<path style="fill:none;stroke:red;stroke-width:1px;stroke-linecap:butt;stroke-linejoin:miter;stroke-opacity:1" d="M 154.303,835.677 187.704,845.697 z" id="boundary" inkscape:connector-curvature="0" />
	<path style="fill:none;stroke:red;stroke-width:1px;stroke-linecap:butt;stroke-linejoin:miter;stroke-opacity:1" d="M 187.704,845.697 221.104,835.677 z" id="boundary" inkscape:connector-curvature="0" />
	<path style="fill:none;stroke:red;stroke-width:1px;stroke-linecap:butt;stroke-linejoin:miter;stroke-opacity:1" d="M 221.104,835.677 254.505,835.677 z" id="boundary" inkscape:connector-curvature="0" />
	<path style="fill:none;stroke:red;stroke-width:1px;stroke-linecap:butt;stroke-linejoin:miter;stroke-opacity:1" d="M 204.404,765.535 237.805,765.535 z" id="boundary" inkscape:connector-curvature="0" />
	<path style="fill:none;stroke:red;stroke-width:1px;stroke-linecap:butt;stroke-linejoin:miter;stroke-opacity:1" d="M 104.202,765.535 137.603,765.535 z" id="boundary" inkscape:connector-curvature="0" />
	<path style="fill:none;stroke:red;stroke-width:1px;stroke-linecap:butt;stroke-linejoin:miter;stroke-opacity:1" d="M 438.209,625.253 421.508,665.333 z" id="boundary" inkscape:connector-curvature="0" />
	<path style="fill:none;stroke:red;stroke-width:1px;stroke-linecap:butt;stroke-linejoin:miter;stroke-opacity:1" d="M 237.805,765.535 271.205,765.535 z" id="boundary" inkscape:connector-curvature="0" />
	<path style="fill:none;stroke:red;stroke-width:1px;stroke-linecap:butt;stroke-linejoin:miter;stroke-opacity:1" d="M 304.606,765.535 271.205,765.535 z" id="boundary" inkscape:connector-curvature="0" />
	<path style="fill:none;stroke:red;stroke-width:1px;stroke-linecap:butt;stroke-linejoin:miter;stroke-opacity:1" d="M 254.505,835.677 287.906,835.677 z" id="boundary" inkscape:connector-curvature="0" />
	<path style="fill:none;stroke:red;stroke-width:1px;stroke-linecap:butt;stroke-linejoin:miter;stroke-opacity:1" d="M 321.306,835.677 287.906,835.677 z" id="boundary" inkscape:connector-curvature="0" />
	<path style="fill:none;stroke:red;stroke-width:1px;stroke-linecap:butt;stroke-linejoin:miter;stroke-opacity:1" d="M 304.606,765.535 338.007,765.535 z" id="boundary" inkscape:connector-curvature="0" />
	<path style="fill:none;stroke:red;stroke-width:1px;stroke-linecap:butt;stroke-linejoin:miter;stroke-opacity:1" d="M 371.407,765.535 338.007,765.535 z" id="boundary" inkscape:connector-curvature="0" />
	<path style="fill:none;stroke:red;stroke-width:1px;stroke-linecap:butt;stroke-linejoin:miter;stroke-opacity:1" d="M 404.808,765.535 371.407,765.535 z" id="boundary" inkscape:connector-curvature="0" />
	<path style="fill:none;stroke:red;stroke-width:1px;stroke-linecap:butt;stroke-linejoin:miter;stroke-opacity:1" d="M 354.707,835.677 388.108,835.677 z" id="boundary" inkscape:connector-curvature="0" />
	<path style="fill:none;stroke:red;stroke-width:1px;stroke-linecap:butt;stroke-linejoin:miter;stroke-opacity:1" d="M 421.508,835.677 388.108,835.677 z" id="boundary" inkscape:connector-curvature="0" />
	<path style="fill:none;stroke:red;stroke-width:1px;stroke-linecap:butt;stroke-linejoin:miter;stroke-opacity:1" d="M 438.209,732.135 404.808,765.535 z" id="boundary" inkscape:connector-curvature="0" />
	<path style="fill:none;stroke:red;stroke-width:1px;stroke-linecap:butt;stroke-linejoin:miter;stroke-opacity:1" d="M 454.909,835.677 421.508,835.677 z" id="boundary" inkscape:connector-curvature="0" />
	<path style="fill:none;stroke:red;stroke-width:1px;stroke-linecap:butt;stroke-linejoin:miter;stroke-opacity:1" d="M 354.707,835.677 321.306,835.677 z" id="boundary" inkscape:connector-curvature="0" />
	<path style="fill:none;stroke:red;stroke-width:1px;stroke-linecap:butt;stroke-linejoin:miter;stroke-opacity:1" d="M 438.209,698.734 404.808,695.394 z" id="boundary" inkscape:connector-curvature="0" />
	<path style="fill:none;stroke:red;stroke-width:1px;stroke-linecap:butt;stroke-linejoin:miter;stroke-opacity:1" d="M 438.209,591.852 404.808,588.512 z" id="boundary" inkscape:connector-curvature="0" />
	<path style="fill:none;stroke:red;stroke-width:1px;stroke-linecap:butt;stroke-linejoin:miter;stroke-opacity:1" d="M 484.97,4 518.37,4 z" id="boundary" inkscape:connector-curvature="0" />
	<path style="fill:none;stroke:red;stroke-width:1px;stroke-linecap:butt;stroke-linejoin:miter;stroke-opacity:1" d="M 551.771,4 585.172,4 z" id="boundary" inkscape:connector-curvature="0" />
	<path style="fill:none;stroke:red;stroke-width:1px;stroke-linecap:butt;stroke-linejoin:miter;stroke-opacity:1" d="M 585.172,4 618.572,4 z" id="boundary" inkscape:connector-curvature="0" />
	<path style="fill:none;stroke:red;stroke-width:1px;stroke-linecap:butt;stroke-linejoin:miter;stroke-opacity:1" d="M 518.37,4 551.771,4 z" id="boundary" inkscape:connector-curvature="0" />
	<path style="fill:none;stroke:red;stroke-width:1px;stroke-linecap:butt;stroke-linejoin:miter;stroke-opacity:1" d="M 618.572,4 651.973,4 z" id="boundary" inkscape:connector-curvature="0" />
	<path style="fill:none;stroke:red;stroke-width:1px;stroke-linecap:butt;stroke-linejoin:miter;stroke-opacity:1" d="M 651.973,4 685.374,4 z" id="boundary" inkscape:connector-curvature="0" />
	<path style="fill:none;stroke:red;stroke-width:1px;stroke-linecap:butt;stroke-linejoin:miter;stroke-opacity:1" d="M 668.673,448.229 702.074,448.229 z" id="boundary" inkscape:connector-curvature="0" />
	<path style="fill:none;stroke:red;stroke-width:1px;stroke-linecap:butt;stroke-linejoin:miter;stroke-opacity:1" d="M 735.475,448.229 768.875,448.229 z" id="boundary" inkscape:connector-curvature="0" />
	<path style="fill:none;stroke:red;stroke-width:1px;stroke-linecap:butt;stroke-linejoin:miter;stroke-opacity:1" d="M 735.475,448.229 702.074,448.229 z" id="boundary" inkscape:connector-curvature="0" />
	<path style="fill:none;stroke:red;stroke-width:1px;stroke-linecap:butt;stroke-linejoin:miter;stroke-opacity:1" d="M 685.374,4 718.774,4 z" id="boundary" inkscape:connector-curvature="0" />
	<path style="fill:none;stroke:red;stroke-width:1px;stroke-linecap:butt;stroke-linejoin:miter;stroke-opacity:1" d="M 668.673,448.229 635.273,451.569 z" id="boundary" inkscape:connector-curvature="0" />
	<path style="fill:none;stroke:red;stroke-width:1px;stroke-linecap:butt;stroke-linejoin:miter;stroke-opacity:1" d="M 635.273,451.569 635.273,484.97 z" id="boundary" inkscape:connector-curvature="0" />
	<path style="fill:none;stroke:red;stroke-width:1px;stroke-linecap:butt;stroke-linejoin:miter;stroke-opacity:1" d="M 438.209,511.69 438.209,478.29 z" id="boundary" inkscape:connector-curvature="0" />
	<path style="fill:none;stroke:red;stroke-width:1px;stroke-linecap:butt;stroke-linejoin:miter;stroke-opacity:1" d="M 635.273,484.97 635.273,518.37 z" id="boundary" inkscape:connector-curvature="0" />
	<path style="fill:none;stroke:red;stroke-width:1px;stroke-linecap:butt;stroke-linejoin:miter;stroke-opacity:1" d="M 635.273,518.37 635.273,551.771 z" id="boundary" inkscape:connector-curvature="0" />
	<path style="fill:none;stroke:red;stroke-width:1px;stroke-linecap:butt;stroke-linejoin:miter;stroke-opacity:1" d="M 668.673,558.451 635.273,551.771 z" id="boundary" inkscape:connector-curvature="0" />
	<path style="fill:none;stroke:red;stroke-width:1px;stroke-linecap:butt;stroke-linejoin:miter;stroke-opacity:1" d="M 635.273,591.852 635.273,551.771 z" id="boundary" inkscape:connector-curvature="0" />
	<path style="fill:none;stroke:red;stroke-width:1px;stroke-linecap:butt;stroke-linejoin:miter;stroke-opacity:1" d="M 718.774,4 752.175,4 z" id="boundary" inkscape:connector-curvature="0" />
	<path style="fill:none;stroke:red;stroke-width:1px;stroke-linecap:butt;stroke-linejoin:miter;stroke-opacity:1" d="M 451.569,4 484.97,4 z" id="boundary" inkscape:connector-curvature="0" />
	<path style="fill:none;stroke:red;stroke-width:1px;stroke-linecap:butt;stroke-linejoin:miter;stroke-opacity:1" d="M 785.576,4 818.976,4 z" id="boundary" inkscape:connector-curvature="0" />
	<path style="fill:none;stroke:red;stroke-width:1px;stroke-linecap:butt;stroke-linejoin:miter;stroke-opacity:1" d="M 818.976,4 852.377,10.6801 z" id="boundary" inkscape:connector-curvature="0" />
	<path style="fill:none;stroke:red;stroke-width:1px;stroke-linecap:butt;stroke-linejoin:miter;stroke-opacity:1" d="M 852.377,10.6801 855.717,44.0808 z" id="boundary" inkscape:connector-curvature="0" />
	<path style="fill:none;stroke:red;stroke-width:1px;stroke-linecap:butt;stroke-linejoin:miter;stroke-opacity:1" d="M 855.717,44.0808 855.717,77.4815 z" id="boundary" inkscape:connector-curvature="0" />
	<path style="fill:none;stroke:red;stroke-width:1px;stroke-linecap:butt;stroke-linejoin:miter;stroke-opacity:1" d="M 855.717,110.882 855.717,77.4815 z" id="boundary" inkscape:connector-curvature="0" />
	<path style="fill:none;stroke:red;stroke-width:1px;stroke-linecap:butt;stroke-linejoin:miter;stroke-opacity:1" d="M 855.717,144.283 855.717,110.882 z" id="boundary" inkscape:connector-curvature="0" />
	<path style="fill:none;stroke:red;stroke-width:1px;stroke-linecap:butt;stroke-linejoin:miter;stroke-opacity:1" d="M 855.717,144.283 855.717,177.684 z" id="boundary" inkscape:connector-curvature="0" />
	<path style="fill:none;stroke:red;stroke-width:1px;stroke-linecap:butt;stroke-linejoin:miter;stroke-opacity:1" d="M 855.717,211.084 855.717,177.684 z" id="boundary" inkscape:connector-curvature="0" />
	<path style="fill:none;stroke:red;stroke-width:1px;stroke-linecap:butt;stroke-linejoin:miter;stroke-opacity:1" d="M 855.717,244.485 855.717,211.084 z" id="boundary" inkscape:connector-curvature="0" />
	<path style="fill:none;stroke:red;stroke-width:1px;stroke-linecap:butt;stroke-linejoin:miter;stroke-opacity:1" d="M 855.717,244.485 855.717,277.886 z" id="boundary" inkscape:connector-curvature="0" />
	<path style="fill:none;stroke:red;stroke-width:1px;stroke-linecap:butt;stroke-linejoin:miter;stroke-opacity:1" d="M 855.717,311.286 855.717,277.886 z" id="boundary" inkscape:connector-curvature="0" />
	<path style="fill:none;stroke:red;stroke-width:1px;stroke-linecap:butt;stroke-linejoin:miter;stroke-opacity:1" d="M 855.717,311.286 855.717,344.687 z" id="boundary" inkscape:connector-curvature="0" />
	<path style="fill:none;stroke:red;stroke-width:1px;stroke-linecap:butt;stroke-linejoin:miter;stroke-opacity:1" d="M 855.717,378.088 855.717,344.687 z" id="boundary" inkscape:connector-curvature="0" />
	<path style="fill:none;stroke:red;stroke-width:1px;stroke-linecap:butt;stroke-linejoin:miter;stroke-opacity:1" d="M 768.875,448.229 802.276,448.229 z" id="boundary" inkscape:connector-curvature="0" />
	<path style="fill:none;stroke:red;stroke-width:1px;stroke-linecap:butt;stroke-linejoin:miter;stroke-opacity:1" d="M 802.276,448.229 835.677,448.229 z" id="boundary" inkscape:connector-curvature="0" />
	<path style="fill:none;stroke:red;stroke-width:1px;stroke-linecap:butt;stroke-linejoin:miter;stroke-opacity:1" d="M 855.717,411.488 835.677,448.229 z" id="boundary" inkscape:connector-curvature="0" />
	<path style="fill:none;stroke:red;stroke-width:1px;stroke-linecap:butt;stroke-linejoin:miter;stroke-opacity:1" d="M 855.717,378.088 855.717,411.488 z" id="boundary" inkscape:connector-curvature="0" />
	<path style="fill:none;stroke:red;stroke-width:1px;stroke-linecap:butt;stroke-linejoin:miter;stroke-opacity:1" d="M 752.175,4 785.576,4 z" id="boundary" inkscape:connector-curvature="0" />
	<path style="fill:none;stroke:red;stroke-width:1px;stroke-linecap:butt;stroke-linejoin:miter;stroke-opacity:1" d="M 635.273,591.852 635.273,625.253 z" id="boundary" inkscape:connector-curvature="0" />
	<path style="fill:none;stroke:red;stroke-width:1px;stroke-linecap:butt;stroke-linejoin:miter;stroke-opacity:1" d="M 438.209,625.253 438.209,591.852 z" id="boundary" inkscape:connector-curvature="0" />
	<path style="fill:none;stroke:red;stroke-width:1px;stroke-linecap:butt;stroke-linejoin:miter;stroke-opacity:1" d="M 635.273,625.253 635.273,658.653 z" id="boundary" inkscape:connector-curvature="0" />
	<path style="fill:none;stroke:red;stroke-width:1px;stroke-linecap:butt;stroke-linejoin:miter;stroke-opacity:1" d="M 438.209,732.135 438.209,698.734 z" id="boundary" inkscape:connector-curvature="0" />
	<path style="fill:none;stroke:red;stroke-width:1px;stroke-linecap:butt;stroke-linejoin:miter;stroke-opacity:1" d="M 635.273,658.653 635.273,698.734 z" id="boundary" inkscape:connector-curvature="0" />
	<path style="fill:none;stroke:red;stroke-width:1px;stroke-linecap:butt;stroke-linejoin:miter;stroke-opacity:1" d="M 668.673,665.333 635.273,658.653 z" id="boundary" inkscape:connector-curvature="0" />
	<path style="fill:none;stroke:red;stroke-width:1px;stroke-linecap:butt;stroke-linejoin:miter;stroke-opacity:1" d="M 635.273,698.734 635.273,732.135 z" id="boundary" inkscape:connector-curvature="0" />
	<path style="fill:none;stroke:red;stroke-width:1px;stroke-linecap:butt;stroke-linejoin:miter;stroke-opacity:1" d="M 488.31,835.677 454.909,835.677 z" id="boundary" inkscape:connector-curvature="0" />
	<path style="fill:none;stroke:red;stroke-width:1px;stroke-linecap:butt;stroke-linejoin:miter;stroke-opacity:1" d="M 521.71,835.677 488.31,835.677 z" id="boundary" inkscape:connector-curvature="0" />
	<path style="fill:none;stroke:red;stroke-width:1px;stroke-linecap:butt;stroke-linejoin:miter;stroke-opacity:1" d="M 555.111,835.677 588.512,835.677 z" id="boundary" inkscape:connector-curvature="0" />
	<path style="fill:none;stroke:red;stroke-width:1px;stroke-linecap:butt;stroke-linejoin:miter;stroke-opacity:1" d="M 621.912,835.677 588.512,835.677 z" id="boundary" inkscape:connector-curvature="0" />
	<path style="fill:none;stroke:red;stroke-width:1px;stroke-linecap:butt;stroke-linejoin:miter;stroke-opacity:1" d="M 555.111,835.677 521.71,835.677 z" id="boundary" inkscape:connector-curvature="0" />
	<path style="fill:none;stroke:red;stroke-width:1px;stroke-linecap:butt;stroke-linejoin:miter;stroke-opacity:1" d="M 638.613,765.535 672.013,765.535 z" id="boundary" inkscape:connector-curvature="0" />
	<path style="fill:none;stroke:red;stroke-width:1px;stroke-linecap:butt;stroke-linejoin:miter;stroke-opacity:1" d="M 638.613,765.535 635.273,732.135 z" id="boundary" inkscape:connector-curvature="0" />
	<path style="fill:none;stroke:red;stroke-width:1px;stroke-linecap:butt;stroke-linejoin:miter;stroke-opacity:1" d="M 705.414,765.535 672.013,765.535 z" id="boundary" inkscape:connector-curvature="0" />
	<path style="fill:none;stroke:red;stroke-width:1px;stroke-linecap:butt;stroke-linejoin:miter;stroke-opacity:1" d="M 655.313,835.677 688.714,835.677 z" id="boundary" inkscape:connector-curvature="0" />
	<path style="fill:none;stroke:red;stroke-width:1px;stroke-linecap:butt;stroke-linejoin:miter;stroke-opacity:1" d="M 755.515,835.677 722.114,835.677 z" id="boundary" inkscape:connector-curvature="0" />
	<path style="fill:none;stroke:red;stroke-width:1px;stroke-linecap:butt;stroke-linejoin:miter;stroke-opacity:1" d="M 722.114,835.677 688.714,835.677 z" id="boundary" inkscape:connector-curvature="0" />
	<path style="fill:none;stroke:red;stroke-width:1px;stroke-linecap:butt;stroke-linejoin:miter;stroke-opacity:1" d="M 705.414,765.535 738.815,765.535 z" id="boundary" inkscape:connector-curvature="0" />
	<path style="fill:none;stroke:red;stroke-width:1px;stroke-linecap:butt;stroke-linejoin:miter;stroke-opacity:1" d="M 655.313,835.677 621.912,835.677 z" id="boundary" inkscape:connector-curvature="0" />
	<path style="fill:none;stroke:red;stroke-width:1px;stroke-linecap:butt;stroke-linejoin:miter;stroke-opacity:1" d="M 805.616,765.535 772.215,765.535 z" id="boundary" inkscape:connector-curvature="0" />
	<path style="fill:none;stroke:red;stroke-width:1px;stroke-linecap:butt;stroke-linejoin:miter;stroke-opacity:1" d="M 738.815,765.535 772.215,765.535 z" id="boundary" inkscape:connector-curvature="0" />
	<path style="fill:none;stroke:red;stroke-width:1px;stroke-linecap:butt;stroke-linejoin:miter;stroke-opacity:1" d="M 839.017,765.535 805.616,765.535 z" id="boundary" inkscape:connector-curvature="0" />
	<path style="fill:none;stroke:red;stroke-width:1px;stroke-linecap:butt;stroke-linejoin:miter;stroke-opacity:1" d="M 872.418,765.535 839.017,765.535 z" id="boundary" inkscape:connector-curvature="0" />
	<path style="fill:none;stroke:red;stroke-width:1px;stroke-linecap:butt;stroke-linejoin:miter;stroke-opacity:1" d="M 788.916,835.677 755.515,835.677 z" id="boundary" inkscape:connector-curvature="0" />
	<path style="fill:none;stroke:red;stroke-width:1px;stroke-linecap:butt;stroke-linejoin:miter;stroke-opacity:1" d="M 855.717,835.677 822.316,849.037 z" id="boundary" inkscape:connector-curvature="0" />
	<path style="fill:none;stroke:red;stroke-width:1px;stroke-linecap:butt;stroke-linejoin:miter;stroke-opacity:1" d="M 788.916,835.677 822.316,849.037 z" id="boundary" inkscape:connector-curvature="0" />
	<path style="fill:none;stroke:red;stroke-width:1px;stroke-linecap:butt;stroke-linejoin:miter;stroke-opacity:1" d="M 855.717,835.677 889.118,835.677 z" id="boundary" inkscape:connector-curvature="0" />
	<path style="fill:none;stroke:red;stroke-width:1px;stroke-linecap:butt;stroke-linejoin:miter;stroke-opacity:1" d="M 889.118,835.677 922.519,835.677 z" id="boundary" inkscape:connector-curvature="0" />
	<path style="fill:none;stroke:red;stroke-width:1px;stroke-linecap:butt;stroke-linejoin:miter;stroke-opacity:1" d="M 872.418,765.535 905.818,765.535 z" id="boundary" inkscape:connector-curvature="0" />
	<path style="fill:none;stroke:red;stroke-width:1px;stroke-linecap:butt;stroke-linejoin:miter;stroke-opacity:1" d="M 905.818,765.535 939.219,765.535 z" id="boundary" inkscape:connector-curvature="0" />
	<path style="fill:none;stroke:red;stroke-width:1px;stroke-linecap:butt;stroke-linejoin:miter;stroke-opacity:1" d="M 972.62,765.535 939.219,765.535 z" id="boundary" inkscape:connector-curvature="0" />
	<path style="fill:none;stroke:red;stroke-width:1px;stroke-linecap:butt;stroke-linejoin:miter;stroke-opacity:1" d="M 922.519,835.677 955.919,835.677 z" id="boundary" inkscape:connector-curvature="0" />
	<path style="fill:none;stroke:red;stroke-width:1px;stroke-linecap:butt;stroke-linejoin:miter;stroke-opacity:1" d="M 996,792.256 989.32,835.677 z" id="boundary" inkscape:connector-curvature="0" />
	<path style="fill:none;stroke:red;stroke-width:1px;stroke-linecap:butt;stroke-linejoin:miter;stroke-opacity:1" d="M 989.32,835.677 955.919,835.677 z" id="boundary" inkscape:connector-curvature="0" />
	<path style="fill:none;stroke:red;stroke-width:1px;stroke-linecap:butt;stroke-linejoin:miter;stroke-opacity:1" d="M 972.62,765.535 996,792.256 z" id="boundary" inkscape:connector-curvature="0" />
	<circle cx="4" cy="772.215" r="4" fill="#0" id="circle0"/>
	<circle cx="4" cy="805.616" r="4" fill="#0" id="circle1"/>
	<circle cx="20.7003" cy="835.677" r="4" fill="#0" id="circle2"/>
	<circle cx="37.4007" cy="765.535" r="4" fill="#0" id="circle3"/>
	<circle cx="44.0808" cy="565.131" r="4" fill="#0" id="circle4"/>
	<circle cx="44.0808" cy="672.013" r="4" fill="#0" id="circle5"/>
	<circle cx="54.101" cy="849.037" r="4" fill="#0" id="circle6"/>
	<circle cx="70.8013" cy="588.512" r="4" fill="#0" id="circle7"/>
	<circle cx="70.8013" cy="695.394" r="4" fill="#0" id="circle8"/>
	<circle cx="70.8013" cy="765.535" r="4" fill="#0" id="circle9"/>
	<circle cx="87.5017" cy="558.451" r="4" fill="#0" id="circle10"/>
	<circle cx="87.5017" cy="665.333" r="4" fill="#0" id="circle11"/>
	<circle cx="87.5017" cy="835.677" r="4" fill="#0" id="circle12"/>
	<circle cx="104.202" cy="588.512" r="4" fill="#0" id="circle13"/>
	<circle cx="104.202" cy="695.394" r="4" fill="#0" id="circle14"/>
	<circle cx="104.202" cy="765.535" r="4" fill="#0" id="circle15"/>
	<circle cx="120.902" cy="558.451" r="4" fill="#0" id="circle16"/>
	<circle cx="120.902" cy="665.333" r="4" fill="#0" id="circle17"/>
	<circle cx="120.902" cy="835.677" r="4" fill="#0" id="circle18"/>
	<circle cx="137.603" cy="588.512" r="4" fill="#0" id="circle19"/>
	<circle cx="137.603" cy="695.394" r="4" fill="#0" id="circle20"/>
	<circle cx="137.603" cy="765.535" r="4" fill="#0" id="circle21"/>
	<circle cx="150.963" cy="10.6801" r="4" fill="#0" id="circle22"/>
	<circle cx="150.963" cy="44.0808" r="4" fill="#0" id="circle23"/>
	<circle cx="150.963" cy="77.4815" r="4" fill="#0" id="circle24"/>
	<circle cx="150.963" cy="110.882" r="4" fill="#0" id="circle25"/>
	<circle cx="150.963" cy="144.283" r="4" fill="#0" id="circle26"/>
	<circle cx="150.963" cy="177.684" r="4" fill="#0" id="circle27"/>
	<circle cx="150.963" cy="211.084" r="4" fill="#0" id="circle28"/>
	<circle cx="150.963" cy="244.485" r="4" fill="#0" id="circle29"/>
	<circle cx="150.963" cy="277.886" r="4" fill="#0" id="circle30"/>
	<circle cx="150.963" cy="311.286" r="4" fill="#0" id="circle31"/>
	<circle cx="150.963" cy="344.687" r="4" fill="#0" id="circle32"/>
	<circle cx="150.963" cy="378.088" r="4" fill="#0" id="circle33"/>
	<circle cx="150.963" cy="411.488" r="4" fill="#0" id="circle34"/>
	<circle cx="154.303" cy="444.889" r="4" fill="#0" id="circle35"/>
	<circle cx="154.303" cy="558.451" r="4" fill="#0" id="circle36"/>
	<circle cx="154.303" cy="665.333" r="4" fill="#0" id="circle37"/>
	<circle cx="154.303" cy="835.677" r="4" fill="#0" id="circle38"/>
	<circle cx="171.003" cy="588.512" r="4" fill="#0" id="circle39"/>
	<circle cx="171.003" cy="695.394" r="4" fill="#0" id="circle40"/>
	<circle cx="171.003" cy="765.535" r="4" fill="#0" id="circle41"/>
	<circle cx="184.364" cy="4" r="4" fill="#0" id="circle42"/>
	<circle cx="187.704" cy="448.229" r="4" fill="#0" id="circle43"/>
	<circle cx="187.704" cy="558.451" r="4" fill="#0" id="circle44"/>
	<circle cx="187.704" cy="665.333" r="4" fill="#0" id="circle45"/>
	<circle cx="187.704" cy="845.697" r="4" fill="#0" id="circle46"/>
	<circle cx="204.404" cy="588.512" r="4" fill="#0" id="circle47"/>
	<circle cx="204.404" cy="695.394" r="4" fill="#0" id="circle48"/>
	<circle cx="204.404" cy="765.535" r="4" fill="#0" id="circle49"/>
	<circle cx="217.764" cy="4" r="4" fill="#0" id="circle50"/>
	<circle cx="221.104" cy="448.229" r="4" fill="#0" id="circle51"/>
	<circle cx="221.104" cy="558.451" r="4" fill="#0" id="circle52"/>
	<circle cx="221.104" cy="665.333" r="4" fill="#0" id="circle53"/>
	<circle cx="221.104" cy="835.677" r="4" fill="#0" id="circle54"/>
	<circle cx="237.805" cy="588.512" r="4" fill="#0" id="circle55"/>
	<circle cx="237.805" cy="695.394" r="4" fill="#0" id="circle56"/>
	<circle cx="237.805" cy="765.535" r="4" fill="#0" id="circle57"/>
	<circle cx="251.165" cy="4" r="4" fill="#0" id="circle58"/>
	<circle cx="254.505" cy="448.229" r="4" fill="#0" id="circle59"/>
	<circle cx="254.505" cy="558.451" r="4" fill="#0" id="circle60"/>
	<circle cx="254.505" cy="665.333" r="4" fill="#0" id="circle61"/>
	<circle cx="254.505" cy="835.677" r="4" fill="#0" id="circle62"/>
	<circle cx="271.205" cy="588.512" r="4" fill="#0" id="circle63"/>
	<circle cx="271.205" cy="695.394" r="4" fill="#0" id="circle64"/>
	<circle cx="271.205" cy="765.535" r="4" fill="#0" id="circle65"/>
	<circle cx="284.566" cy="4" r="4" fill="#0" id="circle66"/>
	<circle cx="287.906" cy="448.229" r="4" fill="#0" id="circle67"/>
	<circle cx="287.906" cy="558.451" r="4" fill="#0" id="circle68"/>
	<circle cx="287.906" cy="665.333" r="4" fill="#0" id="circle69"/>
	<circle cx="287.906" cy="835.677" r="4" fill="#0" id="circle70"/>
	<circle cx="304.606" cy="588.512" r="4" fill="#0" id="circle71"/>
	<circle cx="304.606" cy="695.394" r="4" fill="#0" id="circle72"/>
	<circle cx="304.606" cy="765.535" r="4" fill="#0" id="circle73"/>
	<circle cx="317.966" cy="4" r="4" fill="#0" id="circle74"/>
	<circle cx="321.306" cy="448.229" r="4" fill="#0" id="circle75"/>
	<circle cx="321.306" cy="558.451" r="4" fill="#0" id="circle76"/>
	<circle cx="321.306" cy="665.333" r="4" fill="#0" id="circle77"/>
	<circle cx="321.306" cy="835.677" r="4" fill="#0" id="circle78"/>
	<circle cx="338.007" cy="588.512" r="4" fill="#0" id="circle79"/>
	<circle cx="338.007" cy="695.394" r="4" fill="#0" id="circle80"/>
	<circle cx="338.007" cy="765.535" r="4" fill="#0" id="circle81"/>
	<circle cx="351.367" cy="4" r="4" fill="#0" id="circle82"/>
	<circle cx="354.707" cy="448.229" r="4" fill="#0" id="circle83"/>
	<circle cx="354.707" cy="558.451" r="4" fill="#0" id="circle84"/>
	<circle cx="354.707" cy="665.333" r="4" fill="#0" id="circle85"/>
	<circle cx="354.707" cy="835.677" r="4" fill="#0" id="circle86"/>
	<circle cx="371.407" cy="588.512" r="4" fill="#0" id="circle87"/>
	<circle cx="371.407" cy="695.394" r="4" fill="#0" id="circle88"/>
	<circle cx="371.407" cy="765.535" r="4" fill="#0" id="circle89"/>
	<circle cx="384.768" cy="4" r="4" fill="#0" id="circle90"/>
	<circle cx="388.108" cy="448.229" r="4" fill="#0" id="circle91"/>
	<circle cx="388.108" cy="558.451" r="4" fill="#0" id="circle92"/>
	<circle cx="388.108" cy="665.333" r="4" fill="#0" id="circle93"/>
	<circle cx="388.108" cy="835.677" r="4" fill="#0" id="circle94"/>
	<circle cx="404.808" cy="588.512" r="4" fill="#0" id="circle95"/>
	<circle cx="404.808" cy="695.394" r="4" fill="#0" id="circle96"/>
	<circle cx="404.808" cy="765.535" r="4" fill="#0" id="circle97"/>
	<circle cx="418.168" cy="4" r="4" fill="#0" id="circle98"/>
	<circle cx="421.508" cy="448.229" r="4" fill="#0" id="circle99"/>
	<circle cx="421.508" cy="558.451" r="4" fill="#0" id="circle100"/>
	<circle cx="421.508" cy="665.333" r="4" fill="#0" id="circle101"/>
	<circle cx="421.508" cy="835.677" r="4" fill="#0" id="circle102"/>
	<circle cx="438.209" cy="478.29" r="4" fill="#0" id="circle103"/>
	<circle cx="438.209" cy="511.69" r="4" fill="#0" id="circle104"/>
	<circle cx="438.209" cy="591.852" r="4" fill="#0" id="circle105"/>
	<circle cx="438.209" cy="625.253" r="4" fill="#0" id="circle106"/>
	<circle cx="438.209" cy="698.734" r="4" fill="#0" id="circle107"/>
	<circle cx="438.209" cy="732.135" r="4" fill="#0" id="circle108"/>
	<circle cx="451.569" cy="4" r="4" fill="#0" id="circle109"/>
	<circle cx="454.909" cy="835.677" r="4" fill="#0" id="circle110"/>
	<circle cx="484.97" cy="4" r="4" fill="#0" id="circle111"/>
	<circle cx="488.31" cy="835.677" r="4" fill="#0" id="circle112"/>
	<circle cx="518.37" cy="4" r="4" fill="#0" id="circle113"/>
	<circle cx="521.71" cy="835.677" r="4" fill="#0" id="circle114"/>
	<circle cx="551.771" cy="4" r="4" fill="#0" id="circle115"/>
	<circle cx="555.111" cy="835.677" r="4" fill="#0" id="circle116"/>
	<circle cx="585.172" cy="4" r="4" fill="#0" id="circle117"/>
	<circle cx="588.512" cy="835.677" r="4" fill="#0" id="circle118"/>
	<circle cx="618.572" cy="4" r="4" fill="#0" id="circle119"/>
	<circle cx="621.912" cy="835.677" r="4" fill="#0" id="circle120"/>
	<circle cx="635.273" cy="451.569" r="4" fill="#0" id="circle121"/>
	<circle cx="635.273" cy="484.97" r="4" fill="#0" id="circle122"/>
	<circle cx="635.273" cy="518.37" r="4" fill="#0" id="circle123"/>
	<circle cx="635.273" cy="551.771" r="4" fill="#0" id="circle124"/>
	<circle cx="635.273" cy="591.852" r="4" fill="#0" id="circle125"/>
	<circle cx="635.273" cy="625.253" r="4" fill="#0" id="circle126"/>
	<circle cx="635.273" cy="658.653" r="4" fill="#0" id="circle127"/>
	<circle cx="635.273" cy="698.734" r="4" fill="#0" id="circle128"/>
	<circle cx="635.273" cy="732.135" r="4" fill="#0" id="circle129"/>
	<circle cx="638.613" cy="765.535" r="4" fill="#0" id="circle130"/>
	<circle cx="651.973" cy="4" r="4" fill="#0" id="circle131"/>
	<circle cx="655.313" cy="835.677" r="4" fill="#0" id="circle132"/>
	<circle cx="668.673" cy="448.229" r="4" fill="#0" id="circle133"/>
	<circle cx="668.673" cy="558.451" r="4" fill="#0" id="circle134"/>
	<circle cx="668.673" cy="665.333" r="4" fill="#0" id="circle135"/>
	<circle cx="672.013" cy="765.535" r="4" fill="#0" id="circle136"/>
	<circle cx="685.374" cy="4" r="4" fill="#0" id="circle137"/>
	<circle cx="685.374" cy="588.512" r="4" fill="#0" id="circle138"/>
	<circle cx="685.374" cy="695.394" r="4" fill="#0" id="circle139"/>
	<circle cx="688.714" cy="835.677" r="4" fill="#0" id="circle140"/>
	<circle cx="702.074" cy="448.229" r="4" fill="#0" id="circle141"/>
	<circle cx="702.074" cy="558.451" r="4" fill="#0" id="circle142"/>
	<circle cx="702.074" cy="665.333" r="4" fill="#0" id="circle143"/>
	<circle cx="705.414" cy="765.535" r="4" fill="#0" id="circle144"/>
	<circle cx="718.774" cy="4" r="4" fill="#0" id="circle145"/>
	<circle cx="718.774" cy="588.512" r="4" fill="#0" id="circle146"/>
	<circle cx="718.774" cy="695.394" r="4" fill="#0" id="circle147"/>
	<circle cx="722.114" cy="835.677" r="4" fill="#0" id="circle148"/>
	<circle cx="735.475" cy="448.229" r="4" fill="#0" id="circle149"/>
	<circle cx="735.475" cy="558.451" r="4" fill="#0" id="circle150"/>
	<circle cx="735.475" cy="665.333" r="4" fill="#0" id="circle151"/>
	<circle cx="738.815" cy="765.535" r="4" fill="#0" id="circle152"/>
	<circle cx="752.175" cy="4" r="4" fill="#0" id="circle153"/>
	<circle cx="752.175" cy="588.512" r="4" fill="#0" id="circle154"/>
	<circle cx="752.175" cy="695.394" r="4" fill="#0" id="circle155"/>
	<circle cx="755.515" cy="835.677" r="4" fill="#0" id="circle156"/>
	<circle cx="768.875" cy="448.229" r="4" fill="#0" id="circle157"/>
	<circle cx="768.875" cy="558.451" r="4" fill="#0" id="circle158"/>
	<circle cx="768.875" cy="665.333" r="4" fill="#0" id="circle159"/>
	<circle cx="772.215" cy="765.535" r="4" fill="#0" id="circle160"/>
	<circle cx="785.576" cy="4" r="4" fill="#0" id="circle161"/>
	<circle cx="785.576" cy="588.512" r="4" fill="#0" id="circle162"/>
	<circle cx="785.576" cy="695.394" r="4" fill="#0" id="circle163"/>
	<circle cx="788.916" cy="835.677" r="4" fill="#0" id="circle164"/>
	<circle cx="802.276" cy="448.229" r="4" fill="#0" id="circle165"/>
	<circle cx="802.276" cy="558.451" r="4" fill="#0" id="circle166"/>
	<circle cx="802.276" cy="665.333" r="4" fill="#0" id="circle167"/>
	<circle cx="805.616" cy="765.535" r="4" fill="#0" id="circle168"/>
	<circle cx="818.976" cy="4" r="4" fill="#0" id="circle169"/>
	<circle cx="818.976" cy="588.512" r="4" fill="#0" id="circle170"/>
	<circle cx="818.976" cy="695.394" r="4" fill="#0" id="circle171"/>
	<circle cx="822.316" cy="849.037" r="4" fill="#0" id="circle172"/>
	<circle cx="835.677" cy="448.229" r="4" fill="#0" id="circle173"/>
	<circle cx="835.677" cy="558.451" r="4" fill="#0" id="circle174"/>
	<circle cx="835.677" cy="665.333" r="4" fill="#0" id="circle175"/>
	<circle cx="839.017" cy="765.535" r="4" fill="#0" id="circle176"/>
	<circle cx="852.377" cy="10.6801" r="4" fill="#0" id="circle177"/>
	<circle cx="852.377" cy="588.512" r="4" fill="#0" id="circle178"/>
	<circle cx="852.377" cy="695.394" r="4" fill="#0" id="circle179"/>
	<circle cx="855.717" cy="44.0808" r="4" fill="#0" id="circle180"/>
	<circle cx="855.717" cy="77.4815" r="4" fill="#0" id="circle181"/>
	<circle cx="855.717" cy="110.882" r="4" fill="#0" id="circle182"/>
	<circle cx="855.717" cy="144.283" r="4" fill="#0" id="circle183"/>
	<circle cx="855.717" cy="177.684" r="4" fill="#0" id="circle184"/>
	<circle cx="855.717" cy="211.084" r="4" fill="#0" id="circle185"/>
	<circle cx="855.717" cy="244.485" r="4" fill="#0" id="circle186"/>
	<circle cx="855.717" cy="277.886" r="4" fill="#0" id="circle187"/>
	<circle cx="855.717" cy="311.286" r="4" fill="#0" id="circle188"/>
	<circle cx="855.717" cy="344.687" r="4" fill="#0" id="circle189"/>
	<circle cx="855.717" cy="378.088" r="4" fill="#0" id="circle190"/>
	<circle cx="855.717" cy="411.488" r="4" fill="#0" id="circle191"/>
	<circle cx="855.717" cy="835.677" r="4" fill="#0" id="circle192"/>
	<circle cx="869.077" cy="558.451" r="4" fill="#0" id="circle193"/>
	<circle cx="869.077" cy="665.333" r="4" fill="#0" id="circle194"/>
	<circle cx="872.418" cy="765.535" r="4" fill="#0" id="circle195"/>
	<circle cx="885.778" cy="588.512" r="4" fill="#0" id="circle196"/>
	<circle cx="885.778" cy="695.394" r="4" fill="#0" id="circle197"/>
	<circle cx="889.118" cy="835.677" r="4" fill="#0" id="circle198"/>
	<circle cx="902.478" cy="665.333" r="4" fill="#0" id="circle199"/>
	<circle cx="905.818" cy="765.535" r="4" fill="#0" id="circle200"/>
	<circle cx="922.519" cy="835.677" r="4" fill="#0" id="circle201"/>
	<circle cx="939.219" cy="765.535" r="4" fill="#0" id="circle202"/>
	<circle cx="955.919" cy="835.677" r="4" fill="#0" id="circle203"/>
	<circle cx="972.62" cy="765.535" r="4" fill="#0" id="circle204"/>
	<circle cx="989.32" cy="835.677" r="4" fill="#0" id="circle205"/>
	<circle cx="996" cy="792.256" r="4" fill="#0" id="circle206"/>
	</g>
</svg>