<?xml version="1.0" encoding="UTF-8" standalone="no"?>
<!-- Created with CurveBenchmark -->
<svg
	xmlns:dc="http://purl.org/dc/elements/1.1/"
	xmlns:cc="http://creativecommons.org/ns#"
	xmlns:rdf="http://www.w3.org/1999/02/22-rdf-syntax-ns#"
	xmlns:svg="http://www.w3.org/2000/svg"
	xmlns="http://www.w3.org/2000/svg"
	xmlns:sodipodi="http://sodipodi.sourceforge.net/DTD/sodipodi-0.dtd"
	xmlns:inkscape="http://www.inkscape.org/namespaces/inkscape"
	width="1000"
	height="1000"
	id="svg2"
	version="1.1"
	sodipodi:docname="manifold/ccrust-carriage15.png.txt">
<defs
	id="defs4" />
<metadata
	id="metadata7">
	<rdf:RDF>
		<cc:Work
			rdf:about="">
			<dc:format>image/svg+xml</dc:format>
			<dc:type
				rdf:resource="http://purl.org/dc/dcmitype/StillImage" />
			<dc:title></dc:title>
		</cc:Work>
	</rdf:RDF>
</metadata>
<g
	inkscape:label="Layer 1"
	inkscape:groupmode="layer"
	id="layer1">
	<path style="fill:none;stroke:red;stroke-width:1px;stroke-linecap:butt;stroke-linejoin:miter;stroke-opacity:1" d="M 37.2886,75.5705 50.604,62.255 z" id="boundary" inkscape:connector-curvature="0" />
	<path style="fill:none;stroke:red;stroke-width:1px;stroke-linecap:butt;stroke-linejoin:miter;stroke-opacity:1" d="M 50.604,62.255 65.5839,70.5772 z" id="boundary" inkscape:connector-curvature="0" />
	<path style="fill:none;stroke:red;stroke-width:1px;stroke-linecap:butt;stroke-linejoin:miter;stroke-opacity:1" d="M 82.2282,70.5772 65.5839,70.5772 z" id="boundary" inkscape:connector-curvature="0" />
	<path style="fill:none;stroke:red;stroke-width:1px;stroke-linecap:butt;stroke-linejoin:miter;stroke-opacity:1" d="M 28.9664,92.2148 37.2886,75.5705 z" id="boundary" inkscape:connector-curvature="0" />
	<path style="fill:none;stroke:red;stroke-width:1px;stroke-linecap:butt;stroke-linejoin:miter;stroke-opacity:1" d="M 12.3221,108.859 28.9664,92.2148 z" id="boundary" inkscape:connector-curvature="0" />
	<path style="fill:none;stroke:red;stroke-width:1px;stroke-linecap:butt;stroke-linejoin:miter;stroke-opacity:1" d="M 77.2349,118.846 63.9195,130.497 z" id="boundary" inkscape:connector-curvature="0" />
	<path style="fill:none;stroke:red;stroke-width:1px;stroke-linecap:butt;stroke-linejoin:miter;stroke-opacity:1" d="M 93.8792,113.852 77.2349,118.846 z" id="boundary" inkscape:connector-curvature="0" />
	<path style="fill:none;stroke:red;stroke-width:1px;stroke-linecap:butt;stroke-linejoin:miter;stroke-opacity:1" d="M 97.2081,78.8993 82.2282,70.5772 z" id="boundary" inkscape:connector-curvature="0" />
	<path style="fill:none;stroke:red;stroke-width:1px;stroke-linecap:butt;stroke-linejoin:miter;stroke-opacity:1" d="M 112.188,87.2215 97.2081,78.8993 z" id="boundary" inkscape:connector-curvature="0" />
	<path style="fill:none;stroke:red;stroke-width:1px;stroke-linecap:butt;stroke-linejoin:miter;stroke-opacity:1" d="M 128.832,87.2215 112.188,87.2215 z" id="boundary" inkscape:connector-curvature="0" />
	<path style="fill:none;stroke:red;stroke-width:1px;stroke-linecap:butt;stroke-linejoin:miter;stroke-opacity:1" d="M 128.832,87.2215 143.812,95.5436 z" id="boundary" inkscape:connector-curvature="0" />
	<path style="fill:none;stroke:red;stroke-width:1px;stroke-linecap:butt;stroke-linejoin:miter;stroke-opacity:1" d="M 95.5436,130.497 93.8792,113.852 z" id="boundary" inkscape:connector-curvature="0" />
	<path style="fill:none;stroke:red;stroke-width:1px;stroke-linecap:butt;stroke-linejoin:miter;stroke-opacity:1" d="M 155.463,108.859 143.812,95.5436 z" id="boundary" inkscape:connector-curvature="0" />
	<path style="fill:none;stroke:red;stroke-width:1px;stroke-linecap:butt;stroke-linejoin:miter;stroke-opacity:1" d="M 172.107,112.188 155.463,108.859 z" id="boundary" inkscape:connector-curvature="0" />
	<path style="fill:none;stroke:red;stroke-width:1px;stroke-linecap:butt;stroke-linejoin:miter;stroke-opacity:1" d="M 63.9195,130.497 55.5973,147.141 z" id="boundary" inkscape:connector-curvature="0" />
	<path style="fill:none;stroke:red;stroke-width:1px;stroke-linecap:butt;stroke-linejoin:miter;stroke-opacity:1" d="M 55.5973,147.141 40.6174,155.463 z" id="boundary" inkscape:connector-curvature="0" />
	<path style="fill:none;stroke:red;stroke-width:1px;stroke-linecap:butt;stroke-linejoin:miter;stroke-opacity:1" d="M 40.6174,155.463 23.9732,162.121 z" id="boundary" inkscape:connector-curvature="0" />
	<path style="fill:none;stroke:red;stroke-width:1px;stroke-linecap:butt;stroke-linejoin:miter;stroke-opacity:1" d="M 23.9732,162.121 12.3221,148.805 z" id="boundary" inkscape:connector-curvature="0" />
	<path style="fill:none;stroke:red;stroke-width:1px;stroke-linecap:butt;stroke-linejoin:miter;stroke-opacity:1" d="M 12.3221,148.805 4,133.826 z" id="boundary" inkscape:connector-curvature="0" />
	<path style="fill:none;stroke:red;stroke-width:1px;stroke-linecap:butt;stroke-linejoin:miter;stroke-opacity:1" d="M 4,133.826 12.3221,108.859 z" id="boundary" inkscape:connector-curvature="0" />
	<path style="fill:none;stroke:red;stroke-width:1px;stroke-linecap:butt;stroke-linejoin:miter;stroke-opacity:1" d="M 100.537,147.141 103.866,163.785 z" id="boundary" inkscape:connector-curvature="0" />
	<path style="fill:none;stroke:red;stroke-width:1px;stroke-linecap:butt;stroke-linejoin:miter;stroke-opacity:1" d="M 100.537,147.141 95.5436,130.497 z" id="boundary" inkscape:connector-curvature="0" />
	<path style="fill:none;stroke:red;stroke-width:1px;stroke-linecap:butt;stroke-linejoin:miter;stroke-opacity:1" d="M 112.188,178.765 112.188,195.409 z" id="boundary" inkscape:connector-curvature="0" />
	<path style="fill:none;stroke:red;stroke-width:1px;stroke-linecap:butt;stroke-linejoin:miter;stroke-opacity:1" d="M 103.866,163.785 112.188,178.765 z" id="boundary" inkscape:connector-curvature="0" />
	<path style="fill:none;stroke:red;stroke-width:1px;stroke-linecap:butt;stroke-linejoin:miter;stroke-opacity:1" d="M 112.188,212.054 112.188,228.698 z" id="boundary" inkscape:connector-curvature="0" />
	<path style="fill:none;stroke:red;stroke-width:1px;stroke-linecap:butt;stroke-linejoin:miter;stroke-opacity:1" d="M 112.188,212.054 112.188,195.409 z" id="boundary" inkscape:connector-curvature="0" />
	<path style="fill:none;stroke:red;stroke-width:1px;stroke-linecap:butt;stroke-linejoin:miter;stroke-opacity:1" d="M 112.188,228.698 112.188,245.342 z" id="boundary" inkscape:connector-curvature="0" />
	<path style="fill:none;stroke:red;stroke-width:1px;stroke-linecap:butt;stroke-linejoin:miter;stroke-opacity:1" d="M 197.074,128.832 180.43,127.168 z" id="boundary" inkscape:connector-curvature="0" />
	<path style="fill:none;stroke:red;stroke-width:1px;stroke-linecap:butt;stroke-linejoin:miter;stroke-opacity:1" d="M 180.43,127.168 172.107,112.188 z" id="boundary" inkscape:connector-curvature="0" />
	<path style="fill:none;stroke:red;stroke-width:1px;stroke-linecap:butt;stroke-linejoin:miter;stroke-opacity:1" d="M 197.074,128.832 212.054,137.154 z" id="boundary" inkscape:connector-curvature="0" />
	<path style="fill:none;stroke:red;stroke-width:1px;stroke-linecap:butt;stroke-linejoin:miter;stroke-opacity:1" d="M 212.054,137.154 228.698,137.154 z" id="boundary" inkscape:connector-curvature="0" />
	<path style="fill:none;stroke:red;stroke-width:1px;stroke-linecap:butt;stroke-linejoin:miter;stroke-opacity:1" d="M 245.342,137.154 228.698,137.154 z" id="boundary" inkscape:connector-curvature="0" />
	<path style="fill:none;stroke:red;stroke-width:1px;stroke-linecap:butt;stroke-linejoin:miter;stroke-opacity:1" d="M 340.215,112.188 325.235,120.51 z" id="boundary" inkscape:connector-curvature="0" />
	<path style="fill:none;stroke:red;stroke-width:1px;stroke-linecap:butt;stroke-linejoin:miter;stroke-opacity:1" d="M 325.235,120.51 308.591,120.51 z" id="boundary" inkscape:connector-curvature="0" />
	<path style="fill:none;stroke:red;stroke-width:1px;stroke-linecap:butt;stroke-linejoin:miter;stroke-opacity:1" d="M 340.215,112.188 353.53,123.839 z" id="boundary" inkscape:connector-curvature="0" />
	<path style="fill:none;stroke:red;stroke-width:1px;stroke-linecap:butt;stroke-linejoin:miter;stroke-opacity:1" d="M 293.611,128.832 308.591,120.51 z" id="boundary" inkscape:connector-curvature="0" />
	<path style="fill:none;stroke:red;stroke-width:1px;stroke-linecap:butt;stroke-linejoin:miter;stroke-opacity:1" d="M 261.987,137.154 278.631,137.154 z" id="boundary" inkscape:connector-curvature="0" />
	<path style="fill:none;stroke:red;stroke-width:1px;stroke-linecap:butt;stroke-linejoin:miter;stroke-opacity:1" d="M 293.611,128.832 278.631,137.154 z" id="boundary" inkscape:connector-curvature="0" />
	<path style="fill:none;stroke:red;stroke-width:1px;stroke-linecap:butt;stroke-linejoin:miter;stroke-opacity:1" d="M 261.987,137.154 245.342,137.154 z" id="boundary" inkscape:connector-curvature="0" />
	<path style="fill:none;stroke:red;stroke-width:1px;stroke-linecap:butt;stroke-linejoin:miter;stroke-opacity:1" d="M 353.53,123.839 363.517,137.154 z" id="boundary" inkscape:connector-curvature="0" />
	<path style="fill:none;stroke:red;stroke-width:1px;stroke-linecap:butt;stroke-linejoin:miter;stroke-opacity:1" d="M 385.154,163.785 371.839,152.134 z" id="boundary" inkscape:connector-curvature="0" />
	<path style="fill:none;stroke:red;stroke-width:1px;stroke-linecap:butt;stroke-linejoin:miter;stroke-opacity:1" d="M 371.839,152.134 363.517,137.154 z" id="boundary" inkscape:connector-curvature="0" />
	<path style="fill:none;stroke:red;stroke-width:1px;stroke-linecap:butt;stroke-linejoin:miter;stroke-opacity:1" d="M 391.812,180.43 385.154,163.785 z" id="boundary" inkscape:connector-curvature="0" />
	<path style="fill:none;stroke:red;stroke-width:1px;stroke-linecap:butt;stroke-linejoin:miter;stroke-opacity:1" d="M 285.289,238.685 268.644,238.685 z" id="boundary" inkscape:connector-curvature="0" />
	<path style="fill:none;stroke:red;stroke-width:1px;stroke-linecap:butt;stroke-linejoin:miter;stroke-opacity:1" d="M 268.644,238.685 252,238.685 z" id="boundary" inkscape:connector-curvature="0" />
	<path style="fill:none;stroke:red;stroke-width:1px;stroke-linecap:butt;stroke-linejoin:miter;stroke-opacity:1" d="M 400.134,195.409 391.812,180.43 z" id="boundary" inkscape:connector-curvature="0" />
	<path style="fill:none;stroke:red;stroke-width:1px;stroke-linecap:butt;stroke-linejoin:miter;stroke-opacity:1" d="M 405.128,212.054 400.134,195.409 z" id="boundary" inkscape:connector-curvature="0" />
	<path style="fill:none;stroke:red;stroke-width:1px;stroke-linecap:butt;stroke-linejoin:miter;stroke-opacity:1" d="M 463.383,220.376 446.738,223.705 z" id="boundary" inkscape:connector-curvature="0" />
	<path style="fill:none;stroke:red;stroke-width:1px;stroke-linecap:butt;stroke-linejoin:miter;stroke-opacity:1" d="M 405.128,212.054 413.45,227.034 z" id="boundary" inkscape:connector-curvature="0" />
	<path style="fill:none;stroke:red;stroke-width:1px;stroke-linecap:butt;stroke-linejoin:miter;stroke-opacity:1" d="M 430.094,228.698 413.45,227.034 z" id="boundary" inkscape:connector-curvature="0" />
	<path style="fill:none;stroke:red;stroke-width:1px;stroke-linecap:butt;stroke-linejoin:miter;stroke-opacity:1" d="M 430.094,228.698 446.738,223.705 z" id="boundary" inkscape:connector-curvature="0" />
	<path style="fill:none;stroke:red;stroke-width:1px;stroke-linecap:butt;stroke-linejoin:miter;stroke-opacity:1" d="M 463.383,220.376 480.027,220.376 z" id="boundary" inkscape:connector-curvature="0" />
	<path style="fill:none;stroke:red;stroke-width:1px;stroke-linecap:butt;stroke-linejoin:miter;stroke-opacity:1" d="M 252,238.685 235.356,243.678 z" id="boundary" inkscape:connector-curvature="0" />
	<path style="fill:none;stroke:red;stroke-width:1px;stroke-linecap:butt;stroke-linejoin:miter;stroke-opacity:1" d="M 112.188,261.987 112.188,245.342 z" id="boundary" inkscape:connector-curvature="0" />
	<path style="fill:none;stroke:red;stroke-width:1px;stroke-linecap:butt;stroke-linejoin:miter;stroke-opacity:1" d="M 185.423,255.329 170.443,263.651 z" id="boundary" inkscape:connector-curvature="0" />
	<path style="fill:none;stroke:red;stroke-width:1px;stroke-linecap:butt;stroke-linejoin:miter;stroke-opacity:1" d="M 112.188,261.987 112.188,278.631 z" id="boundary" inkscape:connector-curvature="0" />
	<path style="fill:none;stroke:red;stroke-width:1px;stroke-linecap:butt;stroke-linejoin:miter;stroke-opacity:1" d="M 170.443,263.651 160.456,276.966 z" id="boundary" inkscape:connector-curvature="0" />
	<path style="fill:none;stroke:red;stroke-width:1px;stroke-linecap:butt;stroke-linejoin:miter;stroke-opacity:1" d="M 160.456,276.966 143.812,285.289 z" id="boundary" inkscape:connector-curvature="0" />
	<path style="fill:none;stroke:red;stroke-width:1px;stroke-linecap:butt;stroke-linejoin:miter;stroke-opacity:1" d="M 185.423,255.329 202.067,255.329 z" id="boundary" inkscape:connector-curvature="0" />
	<path style="fill:none;stroke:red;stroke-width:1px;stroke-linecap:butt;stroke-linejoin:miter;stroke-opacity:1" d="M 235.356,243.678 218.711,252 z" id="boundary" inkscape:connector-curvature="0" />
	<path style="fill:none;stroke:red;stroke-width:1px;stroke-linecap:butt;stroke-linejoin:miter;stroke-opacity:1" d="M 301.933,238.685 285.289,238.685 z" id="boundary" inkscape:connector-curvature="0" />
	<path style="fill:none;stroke:red;stroke-width:1px;stroke-linecap:butt;stroke-linejoin:miter;stroke-opacity:1" d="M 301.933,238.685 311.919,258.658 z" id="boundary" inkscape:connector-curvature="0" />
	<path style="fill:none;stroke:red;stroke-width:1px;stroke-linecap:butt;stroke-linejoin:miter;stroke-opacity:1" d="M 218.711,252 202.067,255.329 z" id="boundary" inkscape:connector-curvature="0" />
	<path style="fill:none;stroke:red;stroke-width:1px;stroke-linecap:butt;stroke-linejoin:miter;stroke-opacity:1" d="M 311.919,275.302 311.919,258.658 z" id="boundary" inkscape:connector-curvature="0" />
	<path style="fill:none;stroke:red;stroke-width:1px;stroke-linecap:butt;stroke-linejoin:miter;stroke-opacity:1" d="M 103.866,325.235 95.5436,341.879 z" id="boundary" inkscape:connector-curvature="0" />
	<path style="fill:none;stroke:red;stroke-width:1px;stroke-linecap:butt;stroke-linejoin:miter;stroke-opacity:1" d="M 112.188,278.631 112.188,295.275 z" id="boundary" inkscape:connector-curvature="0" />
	<path style="fill:none;stroke:red;stroke-width:1px;stroke-linecap:butt;stroke-linejoin:miter;stroke-opacity:1" d="M 95.5436,358.523 95.5436,341.879 z" id="boundary" inkscape:connector-curvature="0" />
	<path style="fill:none;stroke:red;stroke-width:1px;stroke-linecap:butt;stroke-linejoin:miter;stroke-opacity:1" d="M 95.5436,390.148 87.2215,375.168 z" id="boundary" inkscape:connector-curvature="0" />
	<path style="fill:none;stroke:red;stroke-width:1px;stroke-linecap:butt;stroke-linejoin:miter;stroke-opacity:1" d="M 95.5436,358.523 87.2215,375.168 z" id="boundary" inkscape:connector-curvature="0" />
	<path style="fill:none;stroke:red;stroke-width:1px;stroke-linecap:butt;stroke-linejoin:miter;stroke-opacity:1" d="M 130.497,296.94 143.812,285.289 z" id="boundary" inkscape:connector-curvature="0" />
	<path style="fill:none;stroke:red;stroke-width:1px;stroke-linecap:butt;stroke-linejoin:miter;stroke-opacity:1" d="M 130.497,313.584 130.497,296.94 z" id="boundary" inkscape:connector-curvature="0" />
	<path style="fill:none;stroke:red;stroke-width:1px;stroke-linecap:butt;stroke-linejoin:miter;stroke-opacity:1" d="M 130.497,296.94 112.188,295.275 z" id="boundary" inkscape:connector-curvature="0" />
	<path style="fill:none;stroke:red;stroke-width:1px;stroke-linecap:butt;stroke-linejoin:miter;stroke-opacity:1" d="M 130.497,313.584 130.497,330.228 z" id="boundary" inkscape:connector-curvature="0" />
	<path style="fill:none;stroke:red;stroke-width:1px;stroke-linecap:butt;stroke-linejoin:miter;stroke-opacity:1" d="M 112.188,391.812 120.51,375.168 z" id="boundary" inkscape:connector-curvature="0" />
	<path style="fill:none;stroke:red;stroke-width:1px;stroke-linecap:butt;stroke-linejoin:miter;stroke-opacity:1" d="M 112.188,391.812 95.5436,390.148 z" id="boundary" inkscape:connector-curvature="0" />
	<path style="fill:none;stroke:red;stroke-width:1px;stroke-linecap:butt;stroke-linejoin:miter;stroke-opacity:1" d="M 130.497,346.872 120.51,375.168 z" id="boundary" inkscape:connector-curvature="0" />
	<path style="fill:none;stroke:red;stroke-width:1px;stroke-linecap:butt;stroke-linejoin:miter;stroke-opacity:1" d="M 130.497,330.228 130.497,346.872 z" id="boundary" inkscape:connector-curvature="0" />
	<path style="fill:none;stroke:red;stroke-width:1px;stroke-linecap:butt;stroke-linejoin:miter;stroke-opacity:1" d="M 371.839,263.651 371.839,280.295 z" id="boundary" inkscape:connector-curvature="0" />
	<path style="fill:none;stroke:red;stroke-width:1px;stroke-linecap:butt;stroke-linejoin:miter;stroke-opacity:1" d="M 320.242,290.282 311.919,275.302 z" id="boundary" inkscape:connector-curvature="0" />
	<path style="fill:none;stroke:red;stroke-width:1px;stroke-linecap:butt;stroke-linejoin:miter;stroke-opacity:1" d="M 371.839,263.651 386.819,255.329 z" id="boundary" inkscape:connector-curvature="0" />
	<path style="fill:none;stroke:red;stroke-width:1px;stroke-linecap:butt;stroke-linejoin:miter;stroke-opacity:1" d="M 371.839,280.295 371.839,296.94 z" id="boundary" inkscape:connector-curvature="0" />
	<path style="fill:none;stroke:red;stroke-width:1px;stroke-linecap:butt;stroke-linejoin:miter;stroke-opacity:1" d="M 371.839,296.94 371.839,313.584 z" id="boundary" inkscape:connector-curvature="0" />
	<path style="fill:none;stroke:red;stroke-width:1px;stroke-linecap:butt;stroke-linejoin:miter;stroke-opacity:1" d="M 320.242,306.926 320.242,290.282 z" id="boundary" inkscape:connector-curvature="0" />
	<path style="fill:none;stroke:red;stroke-width:1px;stroke-linecap:butt;stroke-linejoin:miter;stroke-opacity:1" d="M 320.242,323.57 320.242,306.926 z" id="boundary" inkscape:connector-curvature="0" />
	<path style="fill:none;stroke:red;stroke-width:1px;stroke-linecap:butt;stroke-linejoin:miter;stroke-opacity:1" d="M 401.799,263.651 386.819,255.329 z" id="boundary" inkscape:connector-curvature="0" />
	<path style="fill:none;stroke:red;stroke-width:1px;stroke-linecap:butt;stroke-linejoin:miter;stroke-opacity:1" d="M 418.443,263.651 401.799,263.651 z" id="boundary" inkscape:connector-curvature="0" />
	<path style="fill:none;stroke:red;stroke-width:1px;stroke-linecap:butt;stroke-linejoin:miter;stroke-opacity:1" d="M 418.443,263.651 433.423,271.973 z" id="boundary" inkscape:connector-curvature="0" />
	<path style="fill:none;stroke:red;stroke-width:1px;stroke-linecap:butt;stroke-linejoin:miter;stroke-opacity:1" d="M 433.423,271.973 445.074,285.289 z" id="boundary" inkscape:connector-curvature="0" />
	<path style="fill:none;stroke:red;stroke-width:1px;stroke-linecap:butt;stroke-linejoin:miter;stroke-opacity:1" d="M 445.074,285.289 445.074,301.933 z" id="boundary" inkscape:connector-curvature="0" />
	<path style="fill:none;stroke:red;stroke-width:1px;stroke-linecap:butt;stroke-linejoin:miter;stroke-opacity:1" d="M 445.074,301.933 445.074,318.577 z" id="boundary" inkscape:connector-curvature="0" />
	<path style="fill:none;stroke:red;stroke-width:1px;stroke-linecap:butt;stroke-linejoin:miter;stroke-opacity:1" d="M 376.832,335.221 371.839,313.584 z" id="boundary" inkscape:connector-curvature="0" />
	<path style="fill:none;stroke:red;stroke-width:1px;stroke-linecap:butt;stroke-linejoin:miter;stroke-opacity:1" d="M 320.242,340.215 320.242,323.57 z" id="boundary" inkscape:connector-curvature="0" />
	<path style="fill:none;stroke:red;stroke-width:1px;stroke-linecap:butt;stroke-linejoin:miter;stroke-opacity:1" d="M 320.242,356.859 320.242,340.215 z" id="boundary" inkscape:connector-curvature="0" />
	<path style="fill:none;stroke:red;stroke-width:1px;stroke-linecap:butt;stroke-linejoin:miter;stroke-opacity:1" d="M 320.242,356.859 320.242,373.503 z" id="boundary" inkscape:connector-curvature="0" />
	<path style="fill:none;stroke:red;stroke-width:1px;stroke-linecap:butt;stroke-linejoin:miter;stroke-opacity:1" d="M 336.886,380.161 320.242,373.503 z" id="boundary" inkscape:connector-curvature="0" />
	<path style="fill:none;stroke:red;stroke-width:1px;stroke-linecap:butt;stroke-linejoin:miter;stroke-opacity:1" d="M 336.886,380.161 353.53,383.49 z" id="boundary" inkscape:connector-curvature="0" />
	<path style="fill:none;stroke:red;stroke-width:1px;stroke-linecap:butt;stroke-linejoin:miter;stroke-opacity:1" d="M 363.517,363.517 353.53,383.49 z" id="boundary" inkscape:connector-curvature="0" />
	<path style="fill:none;stroke:red;stroke-width:1px;stroke-linecap:butt;stroke-linejoin:miter;stroke-opacity:1" d="M 363.517,346.872 363.517,363.517 z" id="boundary" inkscape:connector-curvature="0" />
	<path style="fill:none;stroke:red;stroke-width:1px;stroke-linecap:butt;stroke-linejoin:miter;stroke-opacity:1" d="M 445.074,335.221 445.074,351.866 z" id="boundary" inkscape:connector-curvature="0" />
	<path style="fill:none;stroke:red;stroke-width:1px;stroke-linecap:butt;stroke-linejoin:miter;stroke-opacity:1" d="M 376.832,335.221 363.517,346.872 z" id="boundary" inkscape:connector-curvature="0" />
	<path style="fill:none;stroke:red;stroke-width:1px;stroke-linecap:butt;stroke-linejoin:miter;stroke-opacity:1" d="M 458.389,363.517 445.074,351.866 z" id="boundary" inkscape:connector-curvature="0" />
	<path style="fill:none;stroke:red;stroke-width:1px;stroke-linecap:butt;stroke-linejoin:miter;stroke-opacity:1" d="M 458.389,363.517 461.718,380.161 z" id="boundary" inkscape:connector-curvature="0" />
	<path style="fill:none;stroke:red;stroke-width:1px;stroke-linecap:butt;stroke-linejoin:miter;stroke-opacity:1" d="M 476.698,388.483 461.718,380.161 z" id="boundary" inkscape:connector-curvature="0" />
	<path style="fill:none;stroke:red;stroke-width:1px;stroke-linecap:butt;stroke-linejoin:miter;stroke-opacity:1" d="M 445.074,335.221 445.074,318.577 z" id="boundary" inkscape:connector-curvature="0" />
	<path style="fill:none;stroke:red;stroke-width:1px;stroke-linecap:butt;stroke-linejoin:miter;stroke-opacity:1" d="M 476.698,388.483 488.349,401.799 z" id="boundary" inkscape:connector-curvature="0" />
	<path style="fill:none;stroke:red;stroke-width:1px;stroke-linecap:butt;stroke-linejoin:miter;stroke-opacity:1" d="M 541.611,45.6107 544.94,25.6376 z" id="boundary" inkscape:connector-curvature="0" />
	<path style="fill:none;stroke:red;stroke-width:1px;stroke-linecap:butt;stroke-linejoin:miter;stroke-opacity:1" d="M 541.611,45.6107 528.295,58.9262 z" id="boundary" inkscape:connector-curvature="0" />
	<path style="fill:none;stroke:red;stroke-width:1px;stroke-linecap:butt;stroke-linejoin:miter;stroke-opacity:1" d="M 558.255,12.3221 544.94,25.6376 z" id="boundary" inkscape:connector-curvature="0" />
	<path style="fill:none;stroke:red;stroke-width:1px;stroke-linecap:butt;stroke-linejoin:miter;stroke-opacity:1" d="M 528.295,58.9262 528.295,75.5705 z" id="boundary" inkscape:connector-curvature="0" />
	<path style="fill:none;stroke:red;stroke-width:1px;stroke-linecap:butt;stroke-linejoin:miter;stroke-opacity:1" d="M 528.295,75.5705 524.966,103.866 z" id="boundary" inkscape:connector-curvature="0" />
	<path style="fill:none;stroke:red;stroke-width:1px;stroke-linecap:butt;stroke-linejoin:miter;stroke-opacity:1" d="M 524.966,103.866 511.651,117.181 z" id="boundary" inkscape:connector-curvature="0" />
	<path style="fill:none;stroke:red;stroke-width:1px;stroke-linecap:butt;stroke-linejoin:miter;stroke-opacity:1" d="M 586.55,15.651 596.537,28.9664 z" id="boundary" inkscape:connector-curvature="0" />
	<path style="fill:none;stroke:red;stroke-width:1px;stroke-linecap:butt;stroke-linejoin:miter;stroke-opacity:1" d="M 586.55,15.651 573.235,4 z" id="boundary" inkscape:connector-curvature="0" />
	<path style="fill:none;stroke:red;stroke-width:1px;stroke-linecap:butt;stroke-linejoin:miter;stroke-opacity:1" d="M 596.537,28.9664 604.859,43.9463 z" id="boundary" inkscape:connector-curvature="0" />
	<path style="fill:none;stroke:red;stroke-width:1px;stroke-linecap:butt;stroke-linejoin:miter;stroke-opacity:1" d="M 613.181,58.9262 619.839,75.5705 z" id="boundary" inkscape:connector-curvature="0" />
	<path style="fill:none;stroke:red;stroke-width:1px;stroke-linecap:butt;stroke-linejoin:miter;stroke-opacity:1" d="M 613.181,58.9262 604.859,43.9463 z" id="boundary" inkscape:connector-curvature="0" />
	<path style="fill:none;stroke:red;stroke-width:1px;stroke-linecap:butt;stroke-linejoin:miter;stroke-opacity:1" d="M 619.839,75.5705 628.161,90.5503 z" id="boundary" inkscape:connector-curvature="0" />
	<path style="fill:none;stroke:red;stroke-width:1px;stroke-linecap:butt;stroke-linejoin:miter;stroke-opacity:1" d="M 638.148,103.866 628.161,90.5503 z" id="boundary" inkscape:connector-curvature="0" />
	<path style="fill:none;stroke:red;stroke-width:1px;stroke-linecap:butt;stroke-linejoin:miter;stroke-opacity:1" d="M 558.255,12.3221 573.235,4 z" id="boundary" inkscape:connector-curvature="0" />
	<path style="fill:none;stroke:red;stroke-width:1px;stroke-linecap:butt;stroke-linejoin:miter;stroke-opacity:1" d="M 495.007,150.47 503.329,133.826 z" id="boundary" inkscape:connector-curvature="0" />
	<path style="fill:none;stroke:red;stroke-width:1px;stroke-linecap:butt;stroke-linejoin:miter;stroke-opacity:1" d="M 495.007,167.114 495.007,150.47 z" id="boundary" inkscape:connector-curvature="0" />
	<path style="fill:none;stroke:red;stroke-width:1px;stroke-linecap:butt;stroke-linejoin:miter;stroke-opacity:1" d="M 511.651,117.181 503.329,133.826 z" id="boundary" inkscape:connector-curvature="0" />
	<path style="fill:none;stroke:red;stroke-width:1px;stroke-linecap:butt;stroke-linejoin:miter;stroke-opacity:1" d="M 486.685,192.081 495.007,167.114 z" id="boundary" inkscape:connector-curvature="0" />
	<path style="fill:none;stroke:red;stroke-width:1px;stroke-linecap:butt;stroke-linejoin:miter;stroke-opacity:1" d="M 495.007,207.06 486.685,192.081 z" id="boundary" inkscape:connector-curvature="0" />
	<path style="fill:none;stroke:red;stroke-width:1px;stroke-linecap:butt;stroke-linejoin:miter;stroke-opacity:1" d="M 480.027,220.376 495.007,207.06 z" id="boundary" inkscape:connector-curvature="0" />
	<path style="fill:none;stroke:red;stroke-width:1px;stroke-linecap:butt;stroke-linejoin:miter;stroke-opacity:1" d="M 638.148,120.51 638.148,103.866 z" id="boundary" inkscape:connector-curvature="0" />
	<path style="fill:none;stroke:red;stroke-width:1px;stroke-linecap:butt;stroke-linejoin:miter;stroke-opacity:1" d="M 638.148,137.154 638.148,120.51 z" id="boundary" inkscape:connector-curvature="0" />
	<path style="fill:none;stroke:red;stroke-width:1px;stroke-linecap:butt;stroke-linejoin:miter;stroke-opacity:1" d="M 638.148,137.154 629.826,155.463 z" id="boundary" inkscape:connector-curvature="0" />
	<path style="fill:none;stroke:red;stroke-width:1px;stroke-linecap:butt;stroke-linejoin:miter;stroke-opacity:1" d="M 629.826,155.463 629.826,172.107 z" id="boundary" inkscape:connector-curvature="0" />
	<path style="fill:none;stroke:red;stroke-width:1px;stroke-linecap:butt;stroke-linejoin:miter;stroke-opacity:1" d="M 654.792,207.06 638.148,212.054 z" id="boundary" inkscape:connector-curvature="0" />
	<path style="fill:none;stroke:red;stroke-width:1px;stroke-linecap:butt;stroke-linejoin:miter;stroke-opacity:1" d="M 638.148,212.054 629.826,197.074 z" id="boundary" inkscape:connector-curvature="0" />
	<path style="fill:none;stroke:red;stroke-width:1px;stroke-linecap:butt;stroke-linejoin:miter;stroke-opacity:1" d="M 629.826,197.074 629.826,172.107 z" id="boundary" inkscape:connector-curvature="0" />
	<path style="fill:none;stroke:red;stroke-width:1px;stroke-linecap:butt;stroke-linejoin:miter;stroke-opacity:1" d="M 777.96,92.2148 777.96,75.5705 z" id="boundary" inkscape:connector-curvature="0" />
	<path style="fill:none;stroke:red;stroke-width:1px;stroke-linecap:butt;stroke-linejoin:miter;stroke-opacity:1" d="M 777.96,75.5705 794.604,67.2483 z" id="boundary" inkscape:connector-curvature="0" />
	<path style="fill:none;stroke:red;stroke-width:1px;stroke-linecap:butt;stroke-linejoin:miter;stroke-opacity:1" d="M 811.248,62.255 794.604,67.2483 z" id="boundary" inkscape:connector-curvature="0" />
	<path style="fill:none;stroke:red;stroke-width:1px;stroke-linecap:butt;stroke-linejoin:miter;stroke-opacity:1" d="M 777.96,92.2148 777.96,108.859 z" id="boundary" inkscape:connector-curvature="0" />
	<path style="fill:none;stroke:red;stroke-width:1px;stroke-linecap:butt;stroke-linejoin:miter;stroke-opacity:1" d="M 777.96,108.859 762.98,120.51 z" id="boundary" inkscape:connector-curvature="0" />
	<path style="fill:none;stroke:red;stroke-width:1px;stroke-linecap:butt;stroke-linejoin:miter;stroke-opacity:1" d="M 811.248,62.255 824.564,72.2416 z" id="boundary" inkscape:connector-curvature="0" />
	<path style="fill:none;stroke:red;stroke-width:1px;stroke-linecap:butt;stroke-linejoin:miter;stroke-opacity:1" d="M 762.98,120.51 746.336,123.839 z" id="boundary" inkscape:connector-curvature="0" />
	<path style="fill:none;stroke:red;stroke-width:1px;stroke-linecap:butt;stroke-linejoin:miter;stroke-opacity:1" d="M 854.523,117.181 837.879,112.188 z" id="boundary" inkscape:connector-curvature="0" />
	<path style="fill:none;stroke:red;stroke-width:1px;stroke-linecap:butt;stroke-linejoin:miter;stroke-opacity:1" d="M 837.879,112.188 829.557,97.2081 z" id="boundary" inkscape:connector-curvature="0" />
	<path style="fill:none;stroke:red;stroke-width:1px;stroke-linecap:butt;stroke-linejoin:miter;stroke-opacity:1" d="M 829.557,97.2081 824.564,72.2416 z" id="boundary" inkscape:connector-curvature="0" />
	<path style="fill:none;stroke:red;stroke-width:1px;stroke-linecap:butt;stroke-linejoin:miter;stroke-opacity:1" d="M 871.168,120.51 854.523,117.181 z" id="boundary" inkscape:connector-curvature="0" />
	<path style="fill:none;stroke:red;stroke-width:1px;stroke-linecap:butt;stroke-linejoin:miter;stroke-opacity:1" d="M 887.812,120.51 904.456,120.51 z" id="boundary" inkscape:connector-curvature="0" />
	<path style="fill:none;stroke:red;stroke-width:1px;stroke-linecap:butt;stroke-linejoin:miter;stroke-opacity:1" d="M 887.812,120.51 871.168,120.51 z" id="boundary" inkscape:connector-curvature="0" />
	<path style="fill:none;stroke:red;stroke-width:1px;stroke-linecap:butt;stroke-linejoin:miter;stroke-opacity:1" d="M 921.101,125.503 904.456,120.51 z" id="boundary" inkscape:connector-curvature="0" />
	<path style="fill:none;stroke:red;stroke-width:1px;stroke-linecap:butt;stroke-linejoin:miter;stroke-opacity:1" d="M 719.705,150.47 703.06,158.792 z" id="boundary" inkscape:connector-curvature="0" />
	<path style="fill:none;stroke:red;stroke-width:1px;stroke-linecap:butt;stroke-linejoin:miter;stroke-opacity:1" d="M 733.02,137.154 719.705,150.47 z" id="boundary" inkscape:connector-curvature="0" />
	<path style="fill:none;stroke:red;stroke-width:1px;stroke-linecap:butt;stroke-linejoin:miter;stroke-opacity:1" d="M 691.409,178.765 703.06,158.792 z" id="boundary" inkscape:connector-curvature="0" />
	<path style="fill:none;stroke:red;stroke-width:1px;stroke-linecap:butt;stroke-linejoin:miter;stroke-opacity:1" d="M 671.436,207.06 654.792,207.06 z" id="boundary" inkscape:connector-curvature="0" />
	<path style="fill:none;stroke:red;stroke-width:1px;stroke-linecap:butt;stroke-linejoin:miter;stroke-opacity:1" d="M 684.752,195.409 671.436,207.06 z" id="boundary" inkscape:connector-curvature="0" />
	<path style="fill:none;stroke:red;stroke-width:1px;stroke-linecap:butt;stroke-linejoin:miter;stroke-opacity:1" d="M 684.752,195.409 691.409,178.765 z" id="boundary" inkscape:connector-curvature="0" />
	<path style="fill:none;stroke:red;stroke-width:1px;stroke-linecap:butt;stroke-linejoin:miter;stroke-opacity:1" d="M 921.101,142.148 929.423,157.128 z" id="boundary" inkscape:connector-curvature="0" />
	<path style="fill:none;stroke:red;stroke-width:1px;stroke-linecap:butt;stroke-linejoin:miter;stroke-opacity:1" d="M 921.101,125.503 921.101,142.148 z" id="boundary" inkscape:connector-curvature="0" />
	<path style="fill:none;stroke:red;stroke-width:1px;stroke-linecap:butt;stroke-linejoin:miter;stroke-opacity:1" d="M 929.423,157.128 937.745,172.107 z" id="boundary" inkscape:connector-curvature="0" />
	<path style="fill:none;stroke:red;stroke-width:1px;stroke-linecap:butt;stroke-linejoin:miter;stroke-opacity:1" d="M 946.067,187.087 946.067,203.732 z" id="boundary" inkscape:connector-curvature="0" />
	<path style="fill:none;stroke:red;stroke-width:1px;stroke-linecap:butt;stroke-linejoin:miter;stroke-opacity:1" d="M 937.745,172.107 946.067,187.087 z" id="boundary" inkscape:connector-curvature="0" />
	<path style="fill:none;stroke:red;stroke-width:1px;stroke-linecap:butt;stroke-linejoin:miter;stroke-opacity:1" d="M 733.02,137.154 746.336,123.839 z" id="boundary" inkscape:connector-curvature="0" />
	<path style="fill:none;stroke:red;stroke-width:1px;stroke-linecap:butt;stroke-linejoin:miter;stroke-opacity:1" d="M 946.067,203.732 946.067,230.362 z" id="boundary" inkscape:connector-curvature="0" />
	<path style="fill:none;stroke:red;stroke-width:1px;stroke-linecap:butt;stroke-linejoin:miter;stroke-opacity:1" d="M 604.859,255.329 604.859,271.973 z" id="boundary" inkscape:connector-curvature="0" />
	<path style="fill:none;stroke:red;stroke-width:1px;stroke-linecap:butt;stroke-linejoin:miter;stroke-opacity:1" d="M 604.859,271.973 604.859,288.617 z" id="boundary" inkscape:connector-curvature="0" />
	<path style="fill:none;stroke:red;stroke-width:1px;stroke-linecap:butt;stroke-linejoin:miter;stroke-opacity:1" d="M 604.859,305.262 604.859,288.617 z" id="boundary" inkscape:connector-curvature="0" />
	<path style="fill:none;stroke:red;stroke-width:1px;stroke-linecap:butt;stroke-linejoin:miter;stroke-opacity:1" d="M 604.859,321.906 604.859,305.262 z" id="boundary" inkscape:connector-curvature="0" />
	<path style="fill:none;stroke:red;stroke-width:1px;stroke-linecap:butt;stroke-linejoin:miter;stroke-opacity:1" d="M 604.859,321.906 596.537,338.55 z" id="boundary" inkscape:connector-curvature="0" />
	<path style="fill:none;stroke:red;stroke-width:1px;stroke-linecap:butt;stroke-linejoin:miter;stroke-opacity:1" d="M 629.826,260.322 619.839,247.007 z" id="boundary" inkscape:connector-curvature="0" />
	<path style="fill:none;stroke:red;stroke-width:1px;stroke-linecap:butt;stroke-linejoin:miter;stroke-opacity:1" d="M 653.128,285.289 643.141,271.973 z" id="boundary" inkscape:connector-curvature="0" />
	<path style="fill:none;stroke:red;stroke-width:1px;stroke-linecap:butt;stroke-linejoin:miter;stroke-opacity:1" d="M 629.826,260.322 643.141,271.973 z" id="boundary" inkscape:connector-curvature="0" />
	<path style="fill:none;stroke:red;stroke-width:1px;stroke-linecap:butt;stroke-linejoin:miter;stroke-opacity:1" d="M 644.805,300.268 653.128,285.289 z" id="boundary" inkscape:connector-curvature="0" />
	<path style="fill:none;stroke:red;stroke-width:1px;stroke-linecap:butt;stroke-linejoin:miter;stroke-opacity:1" d="M 658.121,311.919 644.805,300.268 z" id="boundary" inkscape:connector-curvature="0" />
	<path style="fill:none;stroke:red;stroke-width:1px;stroke-linecap:butt;stroke-linejoin:miter;stroke-opacity:1" d="M 658.121,311.919 661.45,328.564 z" id="boundary" inkscape:connector-curvature="0" />
	<path style="fill:none;stroke:red;stroke-width:1px;stroke-linecap:butt;stroke-linejoin:miter;stroke-opacity:1" d="M 579.893,371.839 568.242,388.483 z" id="boundary" inkscape:connector-curvature="0" />
	<path style="fill:none;stroke:red;stroke-width:1px;stroke-linecap:butt;stroke-linejoin:miter;stroke-opacity:1" d="M 568.242,388.483 553.262,396.805 z" id="boundary" inkscape:connector-curvature="0" />
	<path style="fill:none;stroke:red;stroke-width:1px;stroke-linecap:butt;stroke-linejoin:miter;stroke-opacity:1" d="M 504.993,405.128 488.349,401.799 z" id="boundary" inkscape:connector-curvature="0" />
	<path style="fill:none;stroke:red;stroke-width:1px;stroke-linecap:butt;stroke-linejoin:miter;stroke-opacity:1" d="M 504.993,405.128 521.638,405.128 z" id="boundary" inkscape:connector-curvature="0" />
	<path style="fill:none;stroke:red;stroke-width:1px;stroke-linecap:butt;stroke-linejoin:miter;stroke-opacity:1" d="M 538.282,405.128 521.638,405.128 z" id="boundary" inkscape:connector-curvature="0" />
	<path style="fill:none;stroke:red;stroke-width:1px;stroke-linecap:butt;stroke-linejoin:miter;stroke-opacity:1" d="M 553.262,396.805 538.282,405.128 z" id="boundary" inkscape:connector-curvature="0" />
	<path style="fill:none;stroke:red;stroke-width:1px;stroke-linecap:butt;stroke-linejoin:miter;stroke-opacity:1" d="M 689.745,330.228 706.389,330.228 z" id="boundary" inkscape:connector-curvature="0" />
	<path style="fill:none;stroke:red;stroke-width:1px;stroke-linecap:butt;stroke-linejoin:miter;stroke-opacity:1" d="M 674.765,338.55 689.745,330.228 z" id="boundary" inkscape:connector-curvature="0" />
	<path style="fill:none;stroke:red;stroke-width:1px;stroke-linecap:butt;stroke-linejoin:miter;stroke-opacity:1" d="M 723.034,330.228 706.389,330.228 z" id="boundary" inkscape:connector-curvature="0" />
	<path style="fill:none;stroke:red;stroke-width:1px;stroke-linecap:butt;stroke-linejoin:miter;stroke-opacity:1" d="M 596.537,338.55 596.537,355.195 z" id="boundary" inkscape:connector-curvature="0" />
	<path style="fill:none;stroke:red;stroke-width:1px;stroke-linecap:butt;stroke-linejoin:miter;stroke-opacity:1" d="M 596.537,355.195 579.893,371.839 z" id="boundary" inkscape:connector-curvature="0" />
	<path style="fill:none;stroke:red;stroke-width:1px;stroke-linecap:butt;stroke-linejoin:miter;stroke-opacity:1" d="M 661.45,328.564 674.765,338.55 z" id="boundary" inkscape:connector-curvature="0" />
	<path style="fill:none;stroke:red;stroke-width:1px;stroke-linecap:butt;stroke-linejoin:miter;stroke-opacity:1" d="M 946.067,230.362 959.383,240.349 z" id="boundary" inkscape:connector-curvature="0" />
	<path style="fill:none;stroke:red;stroke-width:1px;stroke-linecap:butt;stroke-linejoin:miter;stroke-opacity:1" d="M 971.034,253.664 959.383,240.349 z" id="boundary" inkscape:connector-curvature="0" />
	<path style="fill:none;stroke:red;stroke-width:1px;stroke-linecap:butt;stroke-linejoin:miter;stroke-opacity:1" d="M 779.624,358.523 771.302,343.544 z" id="boundary" inkscape:connector-curvature="0" />
	<path style="fill:none;stroke:red;stroke-width:1px;stroke-linecap:butt;stroke-linejoin:miter;stroke-opacity:1" d="M 739.678,330.228 756.322,335.221 z" id="boundary" inkscape:connector-curvature="0" />
	<path style="fill:none;stroke:red;stroke-width:1px;stroke-linecap:butt;stroke-linejoin:miter;stroke-opacity:1" d="M 771.302,343.544 756.322,335.221 z" id="boundary" inkscape:connector-curvature="0" />
	<path style="fill:none;stroke:red;stroke-width:1px;stroke-linecap:butt;stroke-linejoin:miter;stroke-opacity:1" d="M 971.034,253.664 979.356,268.644 z" id="boundary" inkscape:connector-curvature="0" />
	<path style="fill:none;stroke:red;stroke-width:1px;stroke-linecap:butt;stroke-linejoin:miter;stroke-opacity:1" d="M 739.678,330.228 723.034,330.228 z" id="boundary" inkscape:connector-curvature="0" />
	<path style="fill:none;stroke:red;stroke-width:1px;stroke-linecap:butt;stroke-linejoin:miter;stroke-opacity:1" d="M 979.356,268.644 992.671,280.295 z" id="boundary" inkscape:connector-curvature="0" />
	<path style="fill:none;stroke:red;stroke-width:1px;stroke-linecap:butt;stroke-linejoin:miter;stroke-opacity:1" d="M 992.671,280.295 996,296.94 z" id="boundary" inkscape:connector-curvature="0" />
	<path style="fill:none;stroke:red;stroke-width:1px;stroke-linecap:butt;stroke-linejoin:miter;stroke-opacity:1" d="M 996,296.94 996,313.584 z" id="boundary" inkscape:connector-curvature="0" />
	<path style="fill:none;stroke:red;stroke-width:1px;stroke-linecap:butt;stroke-linejoin:miter;stroke-opacity:1" d="M 971.034,355.195 984.349,343.544 z" id="boundary" inkscape:connector-curvature="0" />
	<path style="fill:none;stroke:red;stroke-width:1px;stroke-linecap:butt;stroke-linejoin:miter;stroke-opacity:1" d="M 962.711,371.839 971.034,355.195 z" id="boundary" inkscape:connector-curvature="0" />
	<path style="fill:none;stroke:red;stroke-width:1px;stroke-linecap:butt;stroke-linejoin:miter;stroke-opacity:1" d="M 996,313.584 996,330.228 z" id="boundary" inkscape:connector-curvature="0" />
	<path style="fill:none;stroke:red;stroke-width:1px;stroke-linecap:butt;stroke-linejoin:miter;stroke-opacity:1" d="M 996,330.228 984.349,343.544 z" id="boundary" inkscape:connector-curvature="0" />
	<path style="fill:none;stroke:red;stroke-width:1px;stroke-linecap:butt;stroke-linejoin:miter;stroke-opacity:1" d="M 799.597,386.819 786.282,375.168 z" id="boundary" inkscape:connector-curvature="0" />
	<path style="fill:none;stroke:red;stroke-width:1px;stroke-linecap:butt;stroke-linejoin:miter;stroke-opacity:1" d="M 786.282,375.168 779.624,358.523 z" id="boundary" inkscape:connector-curvature="0" />
	<path style="fill:none;stroke:red;stroke-width:1px;stroke-linecap:butt;stroke-linejoin:miter;stroke-opacity:1" d="M 799.597,386.819 811.248,400.134 z" id="boundary" inkscape:connector-curvature="0" />
	<path style="fill:none;stroke:red;stroke-width:1px;stroke-linecap:butt;stroke-linejoin:miter;stroke-opacity:1" d="M 811.248,400.134 827.893,405.128 z" id="boundary" inkscape:connector-curvature="0" />
	<path style="fill:none;stroke:red;stroke-width:1px;stroke-linecap:butt;stroke-linejoin:miter;stroke-opacity:1" d="M 827.893,405.128 842.872,413.45 z" id="boundary" inkscape:connector-curvature="0" />
	<path style="fill:none;stroke:red;stroke-width:1px;stroke-linecap:butt;stroke-linejoin:miter;stroke-opacity:1" d="M 842.872,413.45 857.852,421.772 z" id="boundary" inkscape:connector-curvature="0" />
	<path style="fill:none;stroke:red;stroke-width:1px;stroke-linecap:butt;stroke-linejoin:miter;stroke-opacity:1" d="M 874.497,421.772 857.852,421.772 z" id="boundary" inkscape:connector-curvature="0" />
	<path style="fill:none;stroke:red;stroke-width:1px;stroke-linecap:butt;stroke-linejoin:miter;stroke-opacity:1" d="M 962.711,371.839 951.06,393.477 z" id="boundary" inkscape:connector-curvature="0" />
	<path style="fill:none;stroke:red;stroke-width:1px;stroke-linecap:butt;stroke-linejoin:miter;stroke-opacity:1" d="M 951.06,393.477 937.745,405.128 z" id="boundary" inkscape:connector-curvature="0" />
	<path style="fill:none;stroke:red;stroke-width:1px;stroke-linecap:butt;stroke-linejoin:miter;stroke-opacity:1" d="M 937.745,405.128 922.765,413.45 z" id="boundary" inkscape:connector-curvature="0" />
	<path style="fill:none;stroke:red;stroke-width:1px;stroke-linecap:butt;stroke-linejoin:miter;stroke-opacity:1" d="M 891.141,421.772 874.497,421.772 z" id="boundary" inkscape:connector-curvature="0" />
	<path style="fill:none;stroke:red;stroke-width:1px;stroke-linecap:butt;stroke-linejoin:miter;stroke-opacity:1" d="M 922.765,413.45 907.785,421.772 z" id="boundary" inkscape:connector-curvature="0" />
	<path style="fill:none;stroke:red;stroke-width:1px;stroke-linecap:butt;stroke-linejoin:miter;stroke-opacity:1" d="M 907.785,421.772 891.141,421.772 z" id="boundary" inkscape:connector-curvature="0" />
	<circle cx="4" cy="133.826" r="4" fill="#0" id="circle0"/>
	<circle cx="12.3221" cy="108.859" r="4" fill="#0" id="circle1"/>
	<circle cx="12.3221" cy="148.805" r="4" fill="#0" id="circle2"/>
	<circle cx="23.9732" cy="162.121" r="4" fill="#0" id="circle3"/>
	<circle cx="28.9664" cy="92.2148" r="4" fill="#0" id="circle4"/>
	<circle cx="37.2886" cy="75.5705" r="4" fill="#0" id="circle5"/>
	<circle cx="40.6174" cy="155.463" r="4" fill="#0" id="circle6"/>
	<circle cx="50.604" cy="62.255" r="4" fill="#0" id="circle7"/>
	<circle cx="55.5973" cy="147.141" r="4" fill="#0" id="circle8"/>
	<circle cx="63.9195" cy="130.497" r="4" fill="#0" id="circle9"/>
	<circle cx="65.5839" cy="70.5772" r="4" fill="#0" id="circle10"/>
	<circle cx="77.2349" cy="118.846" r="4" fill="#0" id="circle11"/>
	<circle cx="82.2282" cy="70.5772" r="4" fill="#0" id="circle12"/>
	<circle cx="87.2215" cy="375.168" r="4" fill="#0" id="circle13"/>
	<circle cx="93.8792" cy="113.852" r="4" fill="#0" id="circle14"/>
	<circle cx="95.5436" cy="130.497" r="4" fill="#0" id="circle15"/>
	<circle cx="95.5436" cy="341.879" r="4" fill="#0" id="circle16"/>
	<circle cx="95.5436" cy="358.523" r="4" fill="#0" id="circle17"/>
	<circle cx="95.5436" cy="390.148" r="4" fill="#0" id="circle18"/>
	<circle cx="97.2081" cy="78.8993" r="4" fill="#0" id="circle19"/>
	<circle cx="100.537" cy="147.141" r="4" fill="#0" id="circle20"/>
	<circle cx="103.866" cy="163.785" r="4" fill="#0" id="circle21"/>
	<circle cx="103.866" cy="325.235" r="4" fill="#0" id="circle22"/>
	<circle cx="112.188" cy="87.2215" r="4" fill="#0" id="circle23"/>
	<circle cx="112.188" cy="178.765" r="4" fill="#0" id="circle24"/>
	<circle cx="112.188" cy="195.409" r="4" fill="#0" id="circle25"/>
	<circle cx="112.188" cy="212.054" r="4" fill="#0" id="circle26"/>
	<circle cx="112.188" cy="228.698" r="4" fill="#0" id="circle27"/>
	<circle cx="112.188" cy="245.342" r="4" fill="#0" id="circle28"/>
	<circle cx="112.188" cy="261.987" r="4" fill="#0" id="circle29"/>
	<circle cx="112.188" cy="278.631" r="4" fill="#0" id="circle30"/>
	<circle cx="112.188" cy="295.275" r="4" fill="#0" id="circle31"/>
	<circle cx="112.188" cy="391.812" r="4" fill="#0" id="circle32"/>
	<circle cx="120.51" cy="375.168" r="4" fill="#0" id="circle33"/>
	<circle cx="128.832" cy="87.2215" r="4" fill="#0" id="circle34"/>
	<circle cx="130.497" cy="296.94" r="4" fill="#0" id="circle35"/>
	<circle cx="130.497" cy="313.584" r="4" fill="#0" id="circle36"/>
	<circle cx="130.497" cy="330.228" r="4" fill="#0" id="circle37"/>
	<circle cx="130.497" cy="346.872" r="4" fill="#0" id="circle38"/>
	<circle cx="143.812" cy="95.5436" r="4" fill="#0" id="circle39"/>
	<circle cx="143.812" cy="285.289" r="4" fill="#0" id="circle40"/>
	<circle cx="155.463" cy="108.859" r="4" fill="#0" id="circle41"/>
	<circle cx="160.456" cy="276.966" r="4" fill="#0" id="circle42"/>
	<circle cx="170.443" cy="263.651" r="4" fill="#0" id="circle43"/>
	<circle cx="172.107" cy="112.188" r="4" fill="#0" id="circle44"/>
	<circle cx="180.43" cy="127.168" r="4" fill="#0" id="circle45"/>
	<circle cx="185.423" cy="255.329" r="4" fill="#0" id="circle46"/>
	<circle cx="197.074" cy="128.832" r="4" fill="#0" id="circle47"/>
	<circle cx="202.067" cy="255.329" r="4" fill="#0" id="circle48"/>
	<circle cx="212.054" cy="137.154" r="4" fill="#0" id="circle49"/>
	<circle cx="218.711" cy="252" r="4" fill="#0" id="circle50"/>
	<circle cx="228.698" cy="137.154" r="4" fill="#0" id="circle51"/>
	<circle cx="235.356" cy="243.678" r="4" fill="#0" id="circle52"/>
	<circle cx="245.342" cy="137.154" r="4" fill="#0" id="circle53"/>
	<circle cx="252" cy="238.685" r="4" fill="#0" id="circle54"/>
	<circle cx="261.987" cy="137.154" r="4" fill="#0" id="circle55"/>
	<circle cx="268.644" cy="238.685" r="4" fill="#0" id="circle56"/>
	<circle cx="278.631" cy="137.154" r="4" fill="#0" id="circle57"/>
	<circle cx="285.289" cy="238.685" r="4" fill="#0" id="circle58"/>
	<circle cx="293.611" cy="128.832" r="4" fill="#0" id="circle59"/>
	<circle cx="301.933" cy="238.685" r="4" fill="#0" id="circle60"/>
	<circle cx="308.591" cy="120.51" r="4" fill="#0" id="circle61"/>
	<circle cx="311.919" cy="258.658" r="4" fill="#0" id="circle62"/>
	<circle cx="311.919" cy="275.302" r="4" fill="#0" id="circle63"/>
	<circle cx="320.242" cy="290.282" r="4" fill="#0" id="circle64"/>
	<circle cx="320.242" cy="306.926" r="4" fill="#0" id="circle65"/>
	<circle cx="320.242" cy="323.57" r="4" fill="#0" id="circle66"/>
	<circle cx="320.242" cy="340.215" r="4" fill="#0" id="circle67"/>
	<circle cx="320.242" cy="356.859" r="4" fill="#0" id="circle68"/>
	<circle cx="320.242" cy="373.503" r="4" fill="#0" id="circle69"/>
	<circle cx="325.235" cy="120.51" r="4" fill="#0" id="circle70"/>
	<circle cx="336.886" cy="380.161" r="4" fill="#0" id="circle71"/>
	<circle cx="340.215" cy="112.188" r="4" fill="#0" id="circle72"/>
	<circle cx="353.53" cy="123.839" r="4" fill="#0" id="circle73"/>
	<circle cx="353.53" cy="383.49" r="4" fill="#0" id="circle74"/>
	<circle cx="363.517" cy="137.154" r="4" fill="#0" id="circle75"/>
	<circle cx="363.517" cy="346.872" r="4" fill="#0" id="circle76"/>
	<circle cx="363.517" cy="363.517" r="4" fill="#0" id="circle77"/>
	<circle cx="371.839" cy="152.134" r="4" fill="#0" id="circle78"/>
	<circle cx="371.839" cy="263.651" r="4" fill="#0" id="circle79"/>
	<circle cx="371.839" cy="280.295" r="4" fill="#0" id="circle80"/>
	<circle cx="371.839" cy="296.94" r="4" fill="#0" id="circle81"/>
	<circle cx="371.839" cy="313.584" r="4" fill="#0" id="circle82"/>
	<circle cx="376.832" cy="335.221" r="4" fill="#0" id="circle83"/>
	<circle cx="385.154" cy="163.785" r="4" fill="#0" id="circle84"/>
	<circle cx="386.819" cy="255.329" r="4" fill="#0" id="circle85"/>
	<circle cx="391.812" cy="180.43" r="4" fill="#0" id="circle86"/>
	<circle cx="400.134" cy="195.409" r="4" fill="#0" id="circle87"/>
	<circle cx="401.799" cy="263.651" r="4" fill="#0" id="circle88"/>
	<circle cx="405.128" cy="212.054" r="4" fill="#0" id="circle89"/>
	<circle cx="413.45" cy="227.034" r="4" fill="#0" id="circle90"/>
	<circle cx="418.443" cy="263.651" r="4" fill="#0" id="circle91"/>
	<circle cx="430.094" cy="228.698" r="4" fill="#0" id="circle92"/>
	<circle cx="433.423" cy="271.973" r="4" fill="#0" id="circle93"/>
	<circle cx="445.074" cy="285.289" r="4" fill="#0" id="circle94"/>
	<circle cx="445.074" cy="301.933" r="4" fill="#0" id="circle95"/>
	<circle cx="445.074" cy="318.577" r="4" fill="#0" id="circle96"/>
	<circle cx="445.074" cy="335.221" r="4" fill="#0" id="circle97"/>
	<circle cx="445.074" cy="351.866" r="4" fill="#0" id="circle98"/>
	<circle cx="446.738" cy="223.705" r="4" fill="#0" id="circle99"/>
	<circle cx="458.389" cy="363.517" r="4" fill="#0" id="circle100"/>
	<circle cx="461.718" cy="380.161" r="4" fill="#0" id="circle101"/>
	<circle cx="463.383" cy="220.376" r="4" fill="#0" id="circle102"/>
	<circle cx="476.698" cy="388.483" r="4" fill="#0" id="circle103"/>
	<circle cx="480.027" cy="220.376" r="4" fill="#0" id="circle104"/>
	<circle cx="486.685" cy="192.081" r="4" fill="#0" id="circle105"/>
	<circle cx="488.349" cy="401.799" r="4" fill="#0" id="circle106"/>
	<circle cx="495.007" cy="150.47" r="4" fill="#0" id="circle107"/>
	<circle cx="495.007" cy="167.114" r="4" fill="#0" id="circle108"/>
	<circle cx="495.007" cy="207.06" r="4" fill="#0" id="circle109"/>
	<circle cx="503.329" cy="133.826" r="4" fill="#0" id="circle110"/>
	<circle cx="504.993" cy="405.128" r="4" fill="#0" id="circle111"/>
	<circle cx="511.651" cy="117.181" r="4" fill="#0" id="circle112"/>
	<circle cx="521.638" cy="405.128" r="4" fill="#0" id="circle113"/>
	<circle cx="524.966" cy="103.866" r="4" fill="#0" id="circle114"/>
	<circle cx="528.295" cy="58.9262" r="4" fill="#0" id="circle115"/>
	<circle cx="528.295" cy="75.5705" r="4" fill="#0" id="circle116"/>
	<circle cx="538.282" cy="405.128" r="4" fill="#0" id="circle117"/>
	<circle cx="541.611" cy="45.6107" r="4" fill="#0" id="circle118"/>
	<circle cx="544.94" cy="25.6376" r="4" fill="#0" id="circle119"/>
	<circle cx="553.262" cy="396.805" r="4" fill="#0" id="circle120"/>
	<circle cx="558.255" cy="12.3221" r="4" fill="#0" id="circle121"/>
	<circle cx="568.242" cy="388.483" r="4" fill="#0" id="circle122"/>
	<circle cx="573.235" cy="4" r="4" fill="#0" id="circle123"/>
	<circle cx="579.893" cy="371.839" r="4" fill="#0" id="circle124"/>
	<circle cx="586.55" cy="15.651" r="4" fill="#0" id="circle125"/>
	<circle cx="596.537" cy="28.9664" r="4" fill="#0" id="circle126"/>
	<circle cx="596.537" cy="338.55" r="4" fill="#0" id="circle127"/>
	<circle cx="596.537" cy="355.195" r="4" fill="#0" id="circle128"/>
	<circle cx="604.859" cy="43.9463" r="4" fill="#0" id="circle129"/>
	<circle cx="604.859" cy="238.685" r="4" fill="#0" id="circle130"/>
	<circle cx="604.859" cy="255.329" r="4" fill="#0" id="circle131"/>
	<circle cx="604.859" cy="271.973" r="4" fill="#0" id="circle132"/>
	<circle cx="604.859" cy="288.617" r="4" fill="#0" id="circle133"/>
	<circle cx="604.859" cy="305.262" r="4" fill="#0" id="circle134"/>
	<circle cx="604.859" cy="321.906" r="4" fill="#0" id="circle135"/>
	<circle cx="613.181" cy="58.9262" r="4" fill="#0" id="circle136"/>
	<circle cx="619.839" cy="75.5705" r="4" fill="#0" id="circle137"/>
	<circle cx="619.839" cy="247.007" r="4" fill="#0" id="circle138"/>
	<circle cx="628.161" cy="90.5503" r="4" fill="#0" id="circle139"/>
	<circle cx="629.826" cy="155.463" r="4" fill="#0" id="circle140"/>
	<circle cx="629.826" cy="172.107" r="4" fill="#0" id="circle141"/>
	<circle cx="629.826" cy="197.074" r="4" fill="#0" id="circle142"/>
	<circle cx="629.826" cy="260.322" r="4" fill="#0" id="circle143"/>
	<circle cx="638.148" cy="103.866" r="4" fill="#0" id="circle144"/>
	<circle cx="638.148" cy="120.51" r="4" fill="#0" id="circle145"/>
	<circle cx="638.148" cy="137.154" r="4" fill="#0" id="circle146"/>
	<circle cx="638.148" cy="212.054" r="4" fill="#0" id="circle147"/>
	<circle cx="643.141" cy="271.973" r="4" fill="#0" id="circle148"/>
	<circle cx="644.805" cy="300.268" r="4" fill="#0" id="circle149"/>
	<circle cx="653.128" cy="285.289" r="4" fill="#0" id="circle150"/>
	<circle cx="654.792" cy="207.06" r="4" fill="#0" id="circle151"/>
	<circle cx="658.121" cy="311.919" r="4" fill="#0" id="circle152"/>
	<circle cx="661.45" cy="328.564" r="4" fill="#0" id="circle153"/>
	<circle cx="671.436" cy="207.06" r="4" fill="#0" id="circle154"/>
	<circle cx="674.765" cy="338.55" r="4" fill="#0" id="circle155"/>
	<circle cx="684.752" cy="195.409" r="4" fill="#0" id="circle156"/>
	<circle cx="689.745" cy="330.228" r="4" fill="#0" id="circle157"/>
	<circle cx="691.409" cy="178.765" r="4" fill="#0" id="circle158"/>
	<circle cx="703.06" cy="158.792" r="4" fill="#0" id="circle159"/>
	<circle cx="706.389" cy="330.228" r="4" fill="#0" id="circle160"/>
	<circle cx="719.705" cy="150.47" r="4" fill="#0" id="circle161"/>
	<circle cx="723.034" cy="330.228" r="4" fill="#0" id="circle162"/>
	<circle cx="733.02" cy="137.154" r="4" fill="#0" id="circle163"/>
	<circle cx="739.678" cy="330.228" r="4" fill="#0" id="circle164"/>
	<circle cx="746.336" cy="123.839" r="4" fill="#0" id="circle165"/>
	<circle cx="756.322" cy="335.221" r="4" fill="#0" id="circle166"/>
	<circle cx="762.98" cy="120.51" r="4" fill="#0" id="circle167"/>
	<circle cx="771.302" cy="343.544" r="4" fill="#0" id="circle168"/>
	<circle cx="777.96" cy="75.5705" r="4" fill="#0" id="circle169"/>
	<circle cx="777.96" cy="92.2148" r="4" fill="#0" id="circle170"/>
	<circle cx="777.96" cy="108.859" r="4" fill="#0" id="circle171"/>
	<circle cx="779.624" cy="358.523" r="4" fill="#0" id="circle172"/>
	<circle cx="786.282" cy="375.168" r="4" fill="#0" id="circle173"/>
	<circle cx="794.604" cy="67.2483" r="4" fill="#0" id="circle174"/>
	<circle cx="799.597" cy="386.819" r="4" fill="#0" id="circle175"/>
	<circle cx="811.248" cy="62.255" r="4" fill="#0" id="circle176"/>
	<circle cx="811.248" cy="400.134" r="4" fill="#0" id="circle177"/>
	<circle cx="824.564" cy="72.2416" r="4" fill="#0" id="circle178"/>
	<circle cx="827.893" cy="405.128" r="4" fill="#0" id="circle179"/>
	<circle cx="829.557" cy="97.2081" r="4" fill="#0" id="circle180"/>
	<circle cx="837.879" cy="112.188" r="4" fill="#0" id="circle181"/>
	<circle cx="842.872" cy="413.45" r="4" fill="#0" id="circle182"/>
	<circle cx="854.523" cy="117.181" r="4" fill="#0" id="circle183"/>
	<circle cx="857.852" cy="421.772" r="4" fill="#0" id="circle184"/>
	<circle cx="871.168" cy="120.51" r="4" fill="#0" id="circle185"/>
	<circle cx="874.497" cy="421.772" r="4" fill="#0" id="circle186"/>
	<circle cx="887.812" cy="120.51" r="4" fill="#0" id="circle187"/>
	<circle cx="891.141" cy="421.772" r="4" fill="#0" id="circle188"/>
	<circle cx="904.456" cy="120.51" r="4" fill="#0" id="circle189"/>
	<circle cx="907.785" cy="421.772" r="4" fill="#0" id="circle190"/>
	<circle cx="921.101" cy="125.503" r="4" fill="#0" id="circle191"/>
	<circle cx="921.101" cy="142.148" r="4" fill="#0" id="circle192"/>
	<circle cx="922.765" cy="413.45" r="4" fill="#0" id="circle193"/>
	<circle cx="929.423" cy="157.128" r="4" fill="#0" id="circle194"/>
	<circle cx="937.745" cy="172.107" r="4" fill="#0" id="circle195"/>
	<circle cx="937.745" cy="405.128" r="4" fill="#0" id="circle196"/>
	<circle cx="946.067" cy="187.087" r="4" fill="#0" id="circle197"/>
	<circle cx="946.067" cy="203.732" r="4" fill="#0" id="circle198"/>
	<circle cx="946.067" cy="230.362" r="4" fill="#0" id="circle199"/>
	<circle cx="951.06" cy="393.477" r="4" fill="#0" id="circle200"/>
	<circle cx="959.383" cy="240.349" r="4" fill="#0" id="circle201"/>
	<circle cx="962.711" cy="371.839" r="4" fill="#0" id="circle202"/>
	<circle cx="971.034" cy="253.664" r="4" fill="#0" id="circle203"/>
	<circle cx="971.034" cy="355.195" r="4" fill="#0" id="circle204"/>
	<circle cx="979.356" cy="268.644" r="4" fill="#0" id="circle205"/>
	<circle cx="984.349" cy="343.544" r="4" fill="#0" id="circle206"/>
	<circle cx="992.671" cy="280.295" r="4" fill="#0" id="circle207"/>
	<circle cx="996" cy="296.94" r="4" fill="#0" id="circle208"/>
	<circle cx="996" cy="313.584" r="4" fill="#0" id="circle209"/>
	<circle cx="996" cy="330.228" r="4" fill="#0" id="circle210"/>
	</g>
</svg>