<?xml version="1.0" encoding="UTF-8" standalone="no"?>
<!-- Created with CurveBenchmark -->
<svg
	xmlns:dc="http://purl.org/dc/elements/1.1/"
	xmlns:cc="http://creativecommons.org/ns#"
	xmlns:rdf="http://www.w3.org/1999/02/22-rdf-syntax-ns#"
	xmlns:svg="http://www.w3.org/2000/svg"
	xmlns="http://www.w3.org/2000/svg"
	xmlns:sodipodi="http://sodipodi.sourceforge.net/DTD/sodipodi-0.dtd"
	xmlns:inkscape="http://www.inkscape.org/namespaces/inkscape"
	width="1000"
	height="1000"
	id="svg2"
	version="1.1"
	sodipodi:docname="manifold/ccrust-rat05.png.txt">
<defs
	id="defs4" />
<metadata
	id="metadata7">
	<rdf:RDF>
		<cc:Work
			rdf:about="">
			<dc:format>image/svg+xml</dc:format>
			<dc:type
				rdf:resource="http://purl.org/dc/dcmitype/StillImage" />
			<dc:title></dc:title>
		</cc:Work>
	</rdf:RDF>
</metadata>
<g
	inkscape:label="Layer 1"
	inkscape:groupmode="layer"
	id="layer1">
	<path style="fill:none;stroke:red;stroke-width:1px;stroke-linecap:butt;stroke-linejoin:miter;stroke-opacity:1" d="M 109.532,94.9198 109.532,119.273 z" id="boundary" inkscape:connector-curvature="0" />
	<path style="fill:none;stroke:red;stroke-width:1px;stroke-linecap:butt;stroke-linejoin:miter;stroke-opacity:1" d="M 109.532,135.509 109.532,119.273 z" id="boundary" inkscape:connector-curvature="0" />
	<path style="fill:none;stroke:red;stroke-width:1px;stroke-linecap:butt;stroke-linejoin:miter;stroke-opacity:1" d="M 109.532,135.509 109.532,151.745 z" id="boundary" inkscape:connector-curvature="0" />
	<path style="fill:none;stroke:red;stroke-width:1px;stroke-linecap:butt;stroke-linejoin:miter;stroke-opacity:1" d="M 109.532,184.216 109.532,167.98 z" id="boundary" inkscape:connector-curvature="0" />
	<path style="fill:none;stroke:red;stroke-width:1px;stroke-linecap:butt;stroke-linejoin:miter;stroke-opacity:1" d="M 164.733,270.265 150.121,262.147 z" id="boundary" inkscape:connector-curvature="0" />
	<path style="fill:none;stroke:red;stroke-width:1px;stroke-linecap:butt;stroke-linejoin:miter;stroke-opacity:1" d="M 109.532,151.745 109.532,167.98 z" id="boundary" inkscape:connector-curvature="0" />
	<path style="fill:none;stroke:red;stroke-width:1px;stroke-linecap:butt;stroke-linejoin:miter;stroke-opacity:1" d="M 109.532,184.216 109.532,200.452 z" id="boundary" inkscape:connector-curvature="0" />
	<path style="fill:none;stroke:red;stroke-width:1px;stroke-linecap:butt;stroke-linejoin:miter;stroke-opacity:1" d="M 109.532,216.687 109.532,200.452 z" id="boundary" inkscape:connector-curvature="0" />
	<path style="fill:none;stroke:red;stroke-width:1px;stroke-linecap:butt;stroke-linejoin:miter;stroke-opacity:1" d="M 122.52,244.288 109.532,232.923 z" id="boundary" inkscape:connector-curvature="0" />
	<path style="fill:none;stroke:red;stroke-width:1px;stroke-linecap:butt;stroke-linejoin:miter;stroke-opacity:1" d="M 109.532,232.923 109.532,216.687 z" id="boundary" inkscape:connector-curvature="0" />
	<path style="fill:none;stroke:red;stroke-width:1px;stroke-linecap:butt;stroke-linejoin:miter;stroke-opacity:1" d="M 135.509,254.029 122.52,244.288 z" id="boundary" inkscape:connector-curvature="0" />
	<path style="fill:none;stroke:red;stroke-width:1px;stroke-linecap:butt;stroke-linejoin:miter;stroke-opacity:1" d="M 109.532,94.9198 125.768,86.802 z" id="boundary" inkscape:connector-curvature="0" />
	<path style="fill:none;stroke:red;stroke-width:1px;stroke-linecap:butt;stroke-linejoin:miter;stroke-opacity:1" d="M 125.768,54.3306 125.768,70.5663 z" id="boundary" inkscape:connector-curvature="0" />
	<path style="fill:none;stroke:red;stroke-width:1px;stroke-linecap:butt;stroke-linejoin:miter;stroke-opacity:1" d="M 125.768,54.3306 133.885,38.0949 z" id="boundary" inkscape:connector-curvature="0" />
	<path style="fill:none;stroke:red;stroke-width:1px;stroke-linecap:butt;stroke-linejoin:miter;stroke-opacity:1" d="M 125.768,86.802 125.768,70.5663 z" id="boundary" inkscape:connector-curvature="0" />
	<path style="fill:none;stroke:red;stroke-width:1px;stroke-linecap:butt;stroke-linejoin:miter;stroke-opacity:1" d="M 133.885,38.0949 146.874,25.1064 z" id="boundary" inkscape:connector-curvature="0" />
	<path style="fill:none;stroke:red;stroke-width:1px;stroke-linecap:butt;stroke-linejoin:miter;stroke-opacity:1" d="M 158.239,289.748 150.121,305.984 z" id="boundary" inkscape:connector-curvature="0" />
	<path style="fill:none;stroke:red;stroke-width:1px;stroke-linecap:butt;stroke-linejoin:miter;stroke-opacity:1" d="M 164.733,270.265 158.239,289.748 z" id="boundary" inkscape:connector-curvature="0" />
	<path style="fill:none;stroke:red;stroke-width:1px;stroke-linecap:butt;stroke-linejoin:miter;stroke-opacity:1" d="M 146.874,333.584 150.121,305.984 z" id="boundary" inkscape:connector-curvature="0" />
	<path style="fill:none;stroke:red;stroke-width:1px;stroke-linecap:butt;stroke-linejoin:miter;stroke-opacity:1" d="M 135.509,254.029 150.121,262.147 z" id="boundary" inkscape:connector-curvature="0" />
	<path style="fill:none;stroke:red;stroke-width:1px;stroke-linecap:butt;stroke-linejoin:miter;stroke-opacity:1" d="M 138.756,349.82 146.874,333.584 z" id="boundary" inkscape:connector-curvature="0" />
	<path style="fill:none;stroke:red;stroke-width:1px;stroke-linecap:butt;stroke-linejoin:miter;stroke-opacity:1" d="M 85.1784,581.99 85.1784,565.755 z" id="boundary" inkscape:connector-curvature="0" />
	<path style="fill:none;stroke:red;stroke-width:1px;stroke-linecap:butt;stroke-linejoin:miter;stroke-opacity:1" d="M 93.2962,541.401 85.1784,565.755 z" id="boundary" inkscape:connector-curvature="0" />
	<path style="fill:none;stroke:red;stroke-width:1px;stroke-linecap:butt;stroke-linejoin:miter;stroke-opacity:1" d="M 109.532,468.34 109.532,484.576 z" id="boundary" inkscape:connector-curvature="0" />
	<path style="fill:none;stroke:red;stroke-width:1px;stroke-linecap:butt;stroke-linejoin:miter;stroke-opacity:1" d="M 101.414,517.047 93.2962,541.401 z" id="boundary" inkscape:connector-curvature="0" />
	<path style="fill:none;stroke:red;stroke-width:1px;stroke-linecap:butt;stroke-linejoin:miter;stroke-opacity:1" d="M 109.532,468.34 122.52,455.352 z" id="boundary" inkscape:connector-curvature="0" />
	<path style="fill:none;stroke:red;stroke-width:1px;stroke-linecap:butt;stroke-linejoin:miter;stroke-opacity:1" d="M 85.1784,598.226 85.1784,581.99 z" id="boundary" inkscape:connector-curvature="0" />
	<path style="fill:none;stroke:red;stroke-width:1px;stroke-linecap:butt;stroke-linejoin:miter;stroke-opacity:1" d="M 171.227,627.45 158.239,638.815 z" id="boundary" inkscape:connector-curvature="0" />
	<path style="fill:none;stroke:red;stroke-width:1px;stroke-linecap:butt;stroke-linejoin:miter;stroke-opacity:1" d="M 94.9198,643.686 85.1784,630.697 z" id="boundary" inkscape:connector-curvature="0" />
	<path style="fill:none;stroke:red;stroke-width:1px;stroke-linecap:butt;stroke-linejoin:miter;stroke-opacity:1" d="M 85.1784,630.697 85.1784,614.462 z" id="boundary" inkscape:connector-curvature="0" />
	<path style="fill:none;stroke:red;stroke-width:1px;stroke-linecap:butt;stroke-linejoin:miter;stroke-opacity:1" d="M 85.1784,614.462 85.1784,598.226 z" id="boundary" inkscape:connector-curvature="0" />
	<path style="fill:none;stroke:red;stroke-width:1px;stroke-linecap:butt;stroke-linejoin:miter;stroke-opacity:1" d="M 109.532,484.576 109.532,500.812 z" id="boundary" inkscape:connector-curvature="0" />
	<path style="fill:none;stroke:red;stroke-width:1px;stroke-linecap:butt;stroke-linejoin:miter;stroke-opacity:1" d="M 109.532,500.812 101.414,517.047 z" id="boundary" inkscape:connector-curvature="0" />
	<path style="fill:none;stroke:red;stroke-width:1px;stroke-linecap:butt;stroke-linejoin:miter;stroke-opacity:1" d="M 125.768,362.809 125.768,379.044 z" id="boundary" inkscape:connector-curvature="0" />
	<path style="fill:none;stroke:red;stroke-width:1px;stroke-linecap:butt;stroke-linejoin:miter;stroke-opacity:1" d="M 125.768,362.809 138.756,349.82 z" id="boundary" inkscape:connector-curvature="0" />
	<path style="fill:none;stroke:red;stroke-width:1px;stroke-linecap:butt;stroke-linejoin:miter;stroke-opacity:1" d="M 125.768,411.516 125.768,395.28 z" id="boundary" inkscape:connector-curvature="0" />
	<path style="fill:none;stroke:red;stroke-width:1px;stroke-linecap:butt;stroke-linejoin:miter;stroke-opacity:1" d="M 125.768,395.28 125.768,379.044 z" id="boundary" inkscape:connector-curvature="0" />
	<path style="fill:none;stroke:red;stroke-width:1px;stroke-linecap:butt;stroke-linejoin:miter;stroke-opacity:1" d="M 125.768,411.516 117.65,435.869 z" id="boundary" inkscape:connector-curvature="0" />
	<path style="fill:none;stroke:red;stroke-width:1px;stroke-linecap:butt;stroke-linejoin:miter;stroke-opacity:1" d="M 117.65,435.869 122.52,455.352 z" id="boundary" inkscape:connector-curvature="0" />
	<path style="fill:none;stroke:red;stroke-width:1px;stroke-linecap:butt;stroke-linejoin:miter;stroke-opacity:1" d="M 158.239,638.815 142.003,646.933 z" id="boundary" inkscape:connector-curvature="0" />
	<path style="fill:none;stroke:red;stroke-width:1px;stroke-linecap:butt;stroke-linejoin:miter;stroke-opacity:1" d="M 142.003,646.933 125.768,651.804 z" id="boundary" inkscape:connector-curvature="0" />
	<path style="fill:none;stroke:red;stroke-width:1px;stroke-linecap:butt;stroke-linejoin:miter;stroke-opacity:1" d="M 176.098,4 192.334,8.8707 z" id="boundary" inkscape:connector-curvature="0" />
	<path style="fill:none;stroke:red;stroke-width:1px;stroke-linecap:butt;stroke-linejoin:miter;stroke-opacity:1" d="M 159.863,12.1178 176.098,4 z" id="boundary" inkscape:connector-curvature="0" />
	<path style="fill:none;stroke:red;stroke-width:1px;stroke-linecap:butt;stroke-linejoin:miter;stroke-opacity:1" d="M 208.57,8.8707 192.334,8.8707 z" id="boundary" inkscape:connector-curvature="0" />
	<path style="fill:none;stroke:red;stroke-width:1px;stroke-linecap:butt;stroke-linejoin:miter;stroke-opacity:1" d="M 224.805,8.8707 241.041,8.8707 z" id="boundary" inkscape:connector-curvature="0" />
	<path style="fill:none;stroke:red;stroke-width:1px;stroke-linecap:butt;stroke-linejoin:miter;stroke-opacity:1" d="M 224.805,8.8707 208.57,8.8707 z" id="boundary" inkscape:connector-curvature="0" />
	<path style="fill:none;stroke:red;stroke-width:1px;stroke-linecap:butt;stroke-linejoin:miter;stroke-opacity:1" d="M 257.277,8.8707 241.041,8.8707 z" id="boundary" inkscape:connector-curvature="0" />
	<path style="fill:none;stroke:red;stroke-width:1px;stroke-linecap:butt;stroke-linejoin:miter;stroke-opacity:1" d="M 273.512,8.8707 289.748,13.7414 z" id="boundary" inkscape:connector-curvature="0" />
	<path style="fill:none;stroke:red;stroke-width:1px;stroke-linecap:butt;stroke-linejoin:miter;stroke-opacity:1" d="M 289.748,13.7414 302.736,25.1064 z" id="boundary" inkscape:connector-curvature="0" />
	<path style="fill:none;stroke:red;stroke-width:1px;stroke-linecap:butt;stroke-linejoin:miter;stroke-opacity:1" d="M 317.349,33.2242 302.736,25.1064 z" id="boundary" inkscape:connector-curvature="0" />
	<path style="fill:none;stroke:red;stroke-width:1px;stroke-linecap:butt;stroke-linejoin:miter;stroke-opacity:1" d="M 257.277,8.8707 273.512,8.8707 z" id="boundary" inkscape:connector-curvature="0" />
	<path style="fill:none;stroke:red;stroke-width:1px;stroke-linecap:butt;stroke-linejoin:miter;stroke-opacity:1" d="M 317.349,33.2242 331.961,41.3421 z" id="boundary" inkscape:connector-curvature="0" />
	<path style="fill:none;stroke:red;stroke-width:1px;stroke-linecap:butt;stroke-linejoin:miter;stroke-opacity:1" d="M 331.961,41.3421 338.455,57.5777 z" id="boundary" inkscape:connector-curvature="0" />
	<path style="fill:none;stroke:red;stroke-width:1px;stroke-linecap:butt;stroke-linejoin:miter;stroke-opacity:1" d="M 338.455,57.5777 346.573,72.1899 z" id="boundary" inkscape:connector-curvature="0" />
	<path style="fill:none;stroke:red;stroke-width:1px;stroke-linecap:butt;stroke-linejoin:miter;stroke-opacity:1" d="M 361.185,103.038 354.691,86.802 z" id="boundary" inkscape:connector-curvature="0" />
	<path style="fill:none;stroke:red;stroke-width:1px;stroke-linecap:butt;stroke-linejoin:miter;stroke-opacity:1" d="M 346.573,72.1899 354.691,86.802 z" id="boundary" inkscape:connector-curvature="0" />
	<path style="fill:none;stroke:red;stroke-width:1px;stroke-linecap:butt;stroke-linejoin:miter;stroke-opacity:1" d="M 361.185,103.038 370.926,116.026 z" id="boundary" inkscape:connector-curvature="0" />
	<path style="fill:none;stroke:red;stroke-width:1px;stroke-linecap:butt;stroke-linejoin:miter;stroke-opacity:1" d="M 370.926,116.026 370.926,132.262 z" id="boundary" inkscape:connector-curvature="0" />
	<path style="fill:none;stroke:red;stroke-width:1px;stroke-linecap:butt;stroke-linejoin:miter;stroke-opacity:1" d="M 414.763,114.403 406.645,130.638 z" id="boundary" inkscape:connector-curvature="0" />
	<path style="fill:none;stroke:red;stroke-width:1px;stroke-linecap:butt;stroke-linejoin:miter;stroke-opacity:1" d="M 406.645,130.638 393.656,143.627 z" id="boundary" inkscape:connector-curvature="0" />
	<path style="fill:none;stroke:red;stroke-width:1px;stroke-linecap:butt;stroke-linejoin:miter;stroke-opacity:1" d="M 370.926,148.498 370.926,132.262 z" id="boundary" inkscape:connector-curvature="0" />
	<path style="fill:none;stroke:red;stroke-width:1px;stroke-linecap:butt;stroke-linejoin:miter;stroke-opacity:1" d="M 379.044,456.975 369.303,473.211 z" id="boundary" inkscape:connector-curvature="0" />
	<path style="fill:none;stroke:red;stroke-width:1px;stroke-linecap:butt;stroke-linejoin:miter;stroke-opacity:1" d="M 369.303,473.211 354.691,481.329 z" id="boundary" inkscape:connector-curvature="0" />
	<path style="fill:none;stroke:red;stroke-width:1px;stroke-linecap:butt;stroke-linejoin:miter;stroke-opacity:1" d="M 392.033,445.61 379.044,456.975 z" id="boundary" inkscape:connector-curvature="0" />
	<path style="fill:none;stroke:red;stroke-width:1px;stroke-linecap:butt;stroke-linejoin:miter;stroke-opacity:1" d="M 379.044,163.11 370.926,148.498 z" id="boundary" inkscape:connector-curvature="0" />
	<path style="fill:none;stroke:red;stroke-width:1px;stroke-linecap:butt;stroke-linejoin:miter;stroke-opacity:1" d="M 377.421,487.823 369.303,473.211 z" id="boundary" inkscape:connector-curvature="0" />
	<path style="fill:none;stroke:red;stroke-width:1px;stroke-linecap:butt;stroke-linejoin:miter;stroke-opacity:1" d="M 187.463,633.944 171.227,627.45 z" id="boundary" inkscape:connector-curvature="0" />
	<path style="fill:none;stroke:red;stroke-width:1px;stroke-linecap:butt;stroke-linejoin:miter;stroke-opacity:1" d="M 198.828,646.933 187.463,633.944 z" id="boundary" inkscape:connector-curvature="0" />
	<path style="fill:none;stroke:red;stroke-width:1px;stroke-linecap:butt;stroke-linejoin:miter;stroke-opacity:1" d="M 392.033,495.941 377.421,487.823 z" id="boundary" inkscape:connector-curvature="0" />
	<path style="fill:none;stroke:red;stroke-width:1px;stroke-linecap:butt;stroke-linejoin:miter;stroke-opacity:1" d="M 408.268,495.941 392.033,495.941 z" id="boundary" inkscape:connector-curvature="0" />
	<path style="fill:none;stroke:red;stroke-width:1px;stroke-linecap:butt;stroke-linejoin:miter;stroke-opacity:1" d="M 392.033,445.61 408.268,440.74 z" id="boundary" inkscape:connector-curvature="0" />
	<path style="fill:none;stroke:red;stroke-width:1px;stroke-linecap:butt;stroke-linejoin:miter;stroke-opacity:1" d="M 408.268,495.941 424.504,495.941 z" id="boundary" inkscape:connector-curvature="0" />
	<path style="fill:none;stroke:red;stroke-width:1px;stroke-linecap:butt;stroke-linejoin:miter;stroke-opacity:1" d="M 392.033,559.26 408.268,554.39 z" id="boundary" inkscape:connector-curvature="0" />
	<path style="fill:none;stroke:red;stroke-width:1px;stroke-linecap:butt;stroke-linejoin:miter;stroke-opacity:1" d="M 379.044,570.625 379.044,594.979 z" id="boundary" inkscape:connector-curvature="0" />
	<path style="fill:none;stroke:red;stroke-width:1px;stroke-linecap:butt;stroke-linejoin:miter;stroke-opacity:1" d="M 379.044,570.625 392.033,559.26 z" id="boundary" inkscape:connector-curvature="0" />
	<path style="fill:none;stroke:red;stroke-width:1px;stroke-linecap:butt;stroke-linejoin:miter;stroke-opacity:1" d="M 379.044,611.214 379.044,594.979 z" id="boundary" inkscape:connector-curvature="0" />
	<path style="fill:none;stroke:red;stroke-width:1px;stroke-linecap:butt;stroke-linejoin:miter;stroke-opacity:1" d="M 387.162,625.827 379.044,611.214 z" id="boundary" inkscape:connector-curvature="0" />
	<path style="fill:none;stroke:red;stroke-width:1px;stroke-linecap:butt;stroke-linejoin:miter;stroke-opacity:1" d="M 387.162,643.686 387.162,625.827 z" id="boundary" inkscape:connector-curvature="0" />
	<path style="fill:none;stroke:red;stroke-width:1px;stroke-linecap:butt;stroke-linejoin:miter;stroke-opacity:1" d="M 395.28,658.298 387.162,643.686 z" id="boundary" inkscape:connector-curvature="0" />
	<path style="fill:none;stroke:red;stroke-width:1px;stroke-linecap:butt;stroke-linejoin:miter;stroke-opacity:1" d="M 195.581,666.416 198.828,646.933 z" id="boundary" inkscape:connector-curvature="0" />
	<path style="fill:none;stroke:red;stroke-width:1px;stroke-linecap:butt;stroke-linejoin:miter;stroke-opacity:1" d="M 146.874,25.1064 159.863,12.1178 z" id="boundary" inkscape:connector-curvature="0" />
	<path style="fill:none;stroke:red;stroke-width:1px;stroke-linecap:butt;stroke-linejoin:miter;stroke-opacity:1" d="M 166.357,728.111 158.239,744.347 z" id="boundary" inkscape:connector-curvature="0" />
	<path style="fill:none;stroke:red;stroke-width:1px;stroke-linecap:butt;stroke-linejoin:miter;stroke-opacity:1" d="M 125.768,651.804 109.532,651.804 z" id="boundary" inkscape:connector-curvature="0" />
	<path style="fill:none;stroke:red;stroke-width:1px;stroke-linecap:butt;stroke-linejoin:miter;stroke-opacity:1" d="M 109.532,651.804 94.9198,643.686 z" id="boundary" inkscape:connector-curvature="0" />
	<path style="fill:none;stroke:red;stroke-width:1px;stroke-linecap:butt;stroke-linejoin:miter;stroke-opacity:1" d="M 158.239,744.347 166.357,758.959 z" id="boundary" inkscape:connector-curvature="0" />
	<path style="fill:none;stroke:red;stroke-width:1px;stroke-linecap:butt;stroke-linejoin:miter;stroke-opacity:1" d="M 166.357,758.959 158.239,784.936 z" id="boundary" inkscape:connector-curvature="0" />
	<path style="fill:none;stroke:red;stroke-width:1px;stroke-linecap:butt;stroke-linejoin:miter;stroke-opacity:1" d="M 158.239,801.172 158.239,784.936 z" id="boundary" inkscape:connector-curvature="0" />
	<path style="fill:none;stroke:red;stroke-width:1px;stroke-linecap:butt;stroke-linejoin:miter;stroke-opacity:1" d="M 16.9885,950.54 33.2242,950.54 z" id="boundary" inkscape:connector-curvature="0" />
	<path style="fill:none;stroke:red;stroke-width:1px;stroke-linecap:butt;stroke-linejoin:miter;stroke-opacity:1" d="M 65.6956,950.54 49.4599,950.54 z" id="boundary" inkscape:connector-curvature="0" />
	<path style="fill:none;stroke:red;stroke-width:1px;stroke-linecap:butt;stroke-linejoin:miter;stroke-opacity:1" d="M 49.4599,950.54 33.2242,950.54 z" id="boundary" inkscape:connector-curvature="0" />
	<path style="fill:none;stroke:red;stroke-width:1px;stroke-linecap:butt;stroke-linejoin:miter;stroke-opacity:1" d="M 158.239,817.408 158.239,833.643 z" id="boundary" inkscape:connector-curvature="0" />
	<path style="fill:none;stroke:red;stroke-width:1px;stroke-linecap:butt;stroke-linejoin:miter;stroke-opacity:1" d="M 158.239,801.172 158.239,817.408 z" id="boundary" inkscape:connector-curvature="0" />
	<path style="fill:none;stroke:red;stroke-width:1px;stroke-linecap:butt;stroke-linejoin:miter;stroke-opacity:1" d="M 16.9885,950.54 4,963.529 z" id="boundary" inkscape:connector-curvature="0" />
	<path style="fill:none;stroke:red;stroke-width:1px;stroke-linecap:butt;stroke-linejoin:miter;stroke-opacity:1" d="M 166.357,728.111 174.475,711.876 z" id="boundary" inkscape:connector-curvature="0" />
	<path style="fill:none;stroke:red;stroke-width:1px;stroke-linecap:butt;stroke-linejoin:miter;stroke-opacity:1" d="M 174.475,695.64 182.592,679.404 z" id="boundary" inkscape:connector-curvature="0" />
	<path style="fill:none;stroke:red;stroke-width:1px;stroke-linecap:butt;stroke-linejoin:miter;stroke-opacity:1" d="M 174.475,711.876 174.475,695.64 z" id="boundary" inkscape:connector-curvature="0" />
	<path style="fill:none;stroke:red;stroke-width:1px;stroke-linecap:butt;stroke-linejoin:miter;stroke-opacity:1" d="M 158.239,833.643 166.357,848.255 z" id="boundary" inkscape:connector-curvature="0" />
	<path style="fill:none;stroke:red;stroke-width:1px;stroke-linecap:butt;stroke-linejoin:miter;stroke-opacity:1" d="M 166.357,848.255 166.357,864.491 z" id="boundary" inkscape:connector-curvature="0" />
	<path style="fill:none;stroke:red;stroke-width:1px;stroke-linecap:butt;stroke-linejoin:miter;stroke-opacity:1" d="M 174.475,879.103 166.357,864.491 z" id="boundary" inkscape:connector-curvature="0" />
	<path style="fill:none;stroke:red;stroke-width:1px;stroke-linecap:butt;stroke-linejoin:miter;stroke-opacity:1" d="M 184.216,892.092 174.475,879.103 z" id="boundary" inkscape:connector-curvature="0" />
	<path style="fill:none;stroke:red;stroke-width:1px;stroke-linecap:butt;stroke-linejoin:miter;stroke-opacity:1" d="M 81.9313,950.54 65.6956,950.54 z" id="boundary" inkscape:connector-curvature="0" />
	<path style="fill:none;stroke:red;stroke-width:1px;stroke-linecap:butt;stroke-linejoin:miter;stroke-opacity:1" d="M 182.592,679.404 195.581,666.416 z" id="boundary" inkscape:connector-curvature="0" />
	<path style="fill:none;stroke:red;stroke-width:1px;stroke-linecap:butt;stroke-linejoin:miter;stroke-opacity:1" d="M 12.1178,978.141 4,963.529 z" id="boundary" inkscape:connector-curvature="0" />
	<path style="fill:none;stroke:red;stroke-width:1px;stroke-linecap:butt;stroke-linejoin:miter;stroke-opacity:1" d="M 81.9313,950.54 98.1669,950.54 z" id="boundary" inkscape:connector-curvature="0" />
	<path style="fill:none;stroke:red;stroke-width:1px;stroke-linecap:butt;stroke-linejoin:miter;stroke-opacity:1" d="M 101.414,992.753 85.1784,987.882 z" id="boundary" inkscape:connector-curvature="0" />
	<path style="fill:none;stroke:red;stroke-width:1px;stroke-linecap:butt;stroke-linejoin:miter;stroke-opacity:1" d="M 85.1784,987.882 68.9427,992.753 z" id="boundary" inkscape:connector-curvature="0" />
	<path style="fill:none;stroke:red;stroke-width:1px;stroke-linecap:butt;stroke-linejoin:miter;stroke-opacity:1" d="M 20.2357,992.753 36.4714,992.753 z" id="boundary" inkscape:connector-curvature="0" />
	<path style="fill:none;stroke:red;stroke-width:1px;stroke-linecap:butt;stroke-linejoin:miter;stroke-opacity:1" d="M 36.4714,992.753 52.707,996 z" id="boundary" inkscape:connector-curvature="0" />
	<path style="fill:none;stroke:red;stroke-width:1px;stroke-linecap:butt;stroke-linejoin:miter;stroke-opacity:1" d="M 20.2357,992.753 12.1178,978.141 z" id="boundary" inkscape:connector-curvature="0" />
	<path style="fill:none;stroke:red;stroke-width:1px;stroke-linecap:butt;stroke-linejoin:miter;stroke-opacity:1" d="M 52.707,996 68.9427,992.753 z" id="boundary" inkscape:connector-curvature="0" />
	<path style="fill:none;stroke:red;stroke-width:1px;stroke-linecap:butt;stroke-linejoin:miter;stroke-opacity:1" d="M 101.414,992.753 117.65,992.753 z" id="boundary" inkscape:connector-curvature="0" />
	<path style="fill:none;stroke:red;stroke-width:1px;stroke-linecap:butt;stroke-linejoin:miter;stroke-opacity:1" d="M 98.1669,950.54 114.403,950.54 z" id="boundary" inkscape:connector-curvature="0" />
	<path style="fill:none;stroke:red;stroke-width:1px;stroke-linecap:butt;stroke-linejoin:miter;stroke-opacity:1" d="M 114.403,950.54 130.638,950.54 z" id="boundary" inkscape:connector-curvature="0" />
	<path style="fill:none;stroke:red;stroke-width:1px;stroke-linecap:butt;stroke-linejoin:miter;stroke-opacity:1" d="M 146.874,950.54 163.11,950.54 z" id="boundary" inkscape:connector-curvature="0" />
	<path style="fill:none;stroke:red;stroke-width:1px;stroke-linecap:butt;stroke-linejoin:miter;stroke-opacity:1" d="M 179.345,950.54 163.11,950.54 z" id="boundary" inkscape:connector-curvature="0" />
	<path style="fill:none;stroke:red;stroke-width:1px;stroke-linecap:butt;stroke-linejoin:miter;stroke-opacity:1" d="M 146.874,950.54 130.638,950.54 z" id="boundary" inkscape:connector-curvature="0" />
	<path style="fill:none;stroke:red;stroke-width:1px;stroke-linecap:butt;stroke-linejoin:miter;stroke-opacity:1" d="M 117.65,992.753 133.885,992.753 z" id="boundary" inkscape:connector-curvature="0" />
	<path style="fill:none;stroke:red;stroke-width:1px;stroke-linecap:butt;stroke-linejoin:miter;stroke-opacity:1" d="M 150.121,992.753 166.357,992.753 z" id="boundary" inkscape:connector-curvature="0" />
	<path style="fill:none;stroke:red;stroke-width:1px;stroke-linecap:butt;stroke-linejoin:miter;stroke-opacity:1" d="M 182.592,992.753 166.357,992.753 z" id="boundary" inkscape:connector-curvature="0" />
	<path style="fill:none;stroke:red;stroke-width:1px;stroke-linecap:butt;stroke-linejoin:miter;stroke-opacity:1" d="M 150.121,992.753 133.885,992.753 z" id="boundary" inkscape:connector-curvature="0" />
	<path style="fill:none;stroke:red;stroke-width:1px;stroke-linecap:butt;stroke-linejoin:miter;stroke-opacity:1" d="M 179.345,950.54 195.581,950.54 z" id="boundary" inkscape:connector-curvature="0" />
	<path style="fill:none;stroke:red;stroke-width:1px;stroke-linecap:butt;stroke-linejoin:miter;stroke-opacity:1" d="M 182.592,992.753 198.828,992.753 z" id="boundary" inkscape:connector-curvature="0" />
	<path style="fill:none;stroke:red;stroke-width:1px;stroke-linecap:butt;stroke-linejoin:miter;stroke-opacity:1" d="M 255.653,870.985 241.041,879.103 z" id="boundary" inkscape:connector-curvature="0" />
	<path style="fill:none;stroke:red;stroke-width:1px;stroke-linecap:butt;stroke-linejoin:miter;stroke-opacity:1" d="M 270.265,862.867 255.653,870.985 z" id="boundary" inkscape:connector-curvature="0" />
	<path style="fill:none;stroke:red;stroke-width:1px;stroke-linecap:butt;stroke-linejoin:miter;stroke-opacity:1" d="M 270.265,862.867 286.501,862.867 z" id="boundary" inkscape:connector-curvature="0" />
	<path style="fill:none;stroke:red;stroke-width:1px;stroke-linecap:butt;stroke-linejoin:miter;stroke-opacity:1" d="M 286.501,862.867 301.113,870.985 z" id="boundary" inkscape:connector-curvature="0" />
	<path style="fill:none;stroke:red;stroke-width:1px;stroke-linecap:butt;stroke-linejoin:miter;stroke-opacity:1" d="M 315.725,862.867 301.113,870.985 z" id="boundary" inkscape:connector-curvature="0" />
	<path style="fill:none;stroke:red;stroke-width:1px;stroke-linecap:butt;stroke-linejoin:miter;stroke-opacity:1" d="M 241.041,879.103 241.041,895.339 z" id="boundary" inkscape:connector-curvature="0" />
	<path style="fill:none;stroke:red;stroke-width:1px;stroke-linecap:butt;stroke-linejoin:miter;stroke-opacity:1" d="M 197.205,903.457 184.216,892.092 z" id="boundary" inkscape:connector-curvature="0" />
	<path style="fill:none;stroke:red;stroke-width:1px;stroke-linecap:butt;stroke-linejoin:miter;stroke-opacity:1" d="M 241.041,911.574 241.041,895.339 z" id="boundary" inkscape:connector-curvature="0" />
	<path style="fill:none;stroke:red;stroke-width:1px;stroke-linecap:butt;stroke-linejoin:miter;stroke-opacity:1" d="M 244.288,927.81 241.041,911.574 z" id="boundary" inkscape:connector-curvature="0" />
	<path style="fill:none;stroke:red;stroke-width:1px;stroke-linecap:butt;stroke-linejoin:miter;stroke-opacity:1" d="M 198.828,922.939 197.205,903.457 z" id="boundary" inkscape:connector-curvature="0" />
	<path style="fill:none;stroke:red;stroke-width:1px;stroke-linecap:butt;stroke-linejoin:miter;stroke-opacity:1" d="M 315.725,862.867 328.714,872.609 z" id="boundary" inkscape:connector-curvature="0" />
	<path style="fill:none;stroke:red;stroke-width:1px;stroke-linecap:butt;stroke-linejoin:miter;stroke-opacity:1" d="M 395.28,690.769 408.268,700.511 z" id="boundary" inkscape:connector-curvature="0" />
	<path style="fill:none;stroke:red;stroke-width:1px;stroke-linecap:butt;stroke-linejoin:miter;stroke-opacity:1" d="M 408.268,700.511 411.516,716.746 z" id="boundary" inkscape:connector-curvature="0" />
	<path style="fill:none;stroke:red;stroke-width:1px;stroke-linecap:butt;stroke-linejoin:miter;stroke-opacity:1" d="M 395.28,690.769 395.28,674.534 z" id="boundary" inkscape:connector-curvature="0" />
	<path style="fill:none;stroke:red;stroke-width:1px;stroke-linecap:butt;stroke-linejoin:miter;stroke-opacity:1" d="M 411.516,716.746 411.516,732.982 z" id="boundary" inkscape:connector-curvature="0" />
	<path style="fill:none;stroke:red;stroke-width:1px;stroke-linecap:butt;stroke-linejoin:miter;stroke-opacity:1" d="M 395.28,674.534 395.28,658.298 z" id="boundary" inkscape:connector-curvature="0" />
	<path style="fill:none;stroke:red;stroke-width:1px;stroke-linecap:butt;stroke-linejoin:miter;stroke-opacity:1" d="M 336.831,887.221 336.831,903.457 z" id="boundary" inkscape:connector-curvature="0" />
	<path style="fill:none;stroke:red;stroke-width:1px;stroke-linecap:butt;stroke-linejoin:miter;stroke-opacity:1" d="M 336.831,887.221 328.714,872.609 z" id="boundary" inkscape:connector-curvature="0" />
	<path style="fill:none;stroke:red;stroke-width:1px;stroke-linecap:butt;stroke-linejoin:miter;stroke-opacity:1" d="M 395.28,919.692 403.398,895.339 z" id="boundary" inkscape:connector-curvature="0" />
	<path style="fill:none;stroke:red;stroke-width:1px;stroke-linecap:butt;stroke-linejoin:miter;stroke-opacity:1" d="M 419.633,747.594 411.516,732.982 z" id="boundary" inkscape:connector-curvature="0" />
	<path style="fill:none;stroke:red;stroke-width:1px;stroke-linecap:butt;stroke-linejoin:miter;stroke-opacity:1" d="M 336.831,903.457 336.831,919.692 z" id="boundary" inkscape:connector-curvature="0" />
	<path style="fill:none;stroke:red;stroke-width:1px;stroke-linecap:butt;stroke-linejoin:miter;stroke-opacity:1" d="M 195.581,950.54 198.828,922.939 z" id="boundary" inkscape:connector-curvature="0" />
	<path style="fill:none;stroke:red;stroke-width:1px;stroke-linecap:butt;stroke-linejoin:miter;stroke-opacity:1" d="M 336.831,919.692 336.831,935.928 z" id="boundary" inkscape:connector-curvature="0" />
	<path style="fill:none;stroke:red;stroke-width:1px;stroke-linecap:butt;stroke-linejoin:miter;stroke-opacity:1" d="M 244.288,927.81 249.159,952.164 z" id="boundary" inkscape:connector-curvature="0" />
	<path style="fill:none;stroke:red;stroke-width:1px;stroke-linecap:butt;stroke-linejoin:miter;stroke-opacity:1" d="M 198.828,992.753 215.064,992.753 z" id="boundary" inkscape:connector-curvature="0" />
	<path style="fill:none;stroke:red;stroke-width:1px;stroke-linecap:butt;stroke-linejoin:miter;stroke-opacity:1" d="M 231.3,987.882 241.041,968.399 z" id="boundary" inkscape:connector-curvature="0" />
	<path style="fill:none;stroke:red;stroke-width:1px;stroke-linecap:butt;stroke-linejoin:miter;stroke-opacity:1" d="M 231.3,987.882 215.064,992.753 z" id="boundary" inkscape:connector-curvature="0" />
	<path style="fill:none;stroke:red;stroke-width:1px;stroke-linecap:butt;stroke-linejoin:miter;stroke-opacity:1" d="M 241.041,968.399 249.159,952.164 z" id="boundary" inkscape:connector-curvature="0" />
	<path style="fill:none;stroke:red;stroke-width:1px;stroke-linecap:butt;stroke-linejoin:miter;stroke-opacity:1" d="M 336.831,935.928 336.831,952.164 z" id="boundary" inkscape:connector-curvature="0" />
	<path style="fill:none;stroke:red;stroke-width:1px;stroke-linecap:butt;stroke-linejoin:miter;stroke-opacity:1" d="M 379.044,935.928 379.044,919.692 z" id="boundary" inkscape:connector-curvature="0" />
	<path style="fill:none;stroke:red;stroke-width:1px;stroke-linecap:butt;stroke-linejoin:miter;stroke-opacity:1" d="M 379.044,919.692 395.28,919.692 z" id="boundary" inkscape:connector-curvature="0" />
	<path style="fill:none;stroke:red;stroke-width:1px;stroke-linecap:butt;stroke-linejoin:miter;stroke-opacity:1" d="M 403.398,950.54 387.162,950.54 z" id="boundary" inkscape:connector-curvature="0" />
	<path style="fill:none;stroke:red;stroke-width:1px;stroke-linecap:butt;stroke-linejoin:miter;stroke-opacity:1" d="M 387.162,950.54 379.044,935.928 z" id="boundary" inkscape:connector-curvature="0" />
	<path style="fill:none;stroke:red;stroke-width:1px;stroke-linecap:butt;stroke-linejoin:miter;stroke-opacity:1" d="M 419.633,950.54 403.398,950.54 z" id="boundary" inkscape:connector-curvature="0" />
	<path style="fill:none;stroke:red;stroke-width:1px;stroke-linecap:butt;stroke-linejoin:miter;stroke-opacity:1" d="M 351.444,976.517 336.831,968.399 z" id="boundary" inkscape:connector-curvature="0" />
	<path style="fill:none;stroke:red;stroke-width:1px;stroke-linecap:butt;stroke-linejoin:miter;stroke-opacity:1" d="M 336.831,968.399 336.831,952.164 z" id="boundary" inkscape:connector-curvature="0" />
	<path style="fill:none;stroke:red;stroke-width:1px;stroke-linecap:butt;stroke-linejoin:miter;stroke-opacity:1" d="M 367.679,976.517 351.444,976.517 z" id="boundary" inkscape:connector-curvature="0" />
	<path style="fill:none;stroke:red;stroke-width:1px;stroke-linecap:butt;stroke-linejoin:miter;stroke-opacity:1" d="M 383.915,976.517 367.679,976.517 z" id="boundary" inkscape:connector-curvature="0" />
	<path style="fill:none;stroke:red;stroke-width:1px;stroke-linecap:butt;stroke-linejoin:miter;stroke-opacity:1" d="M 400.151,976.517 383.915,976.517 z" id="boundary" inkscape:connector-curvature="0" />
	<path style="fill:none;stroke:red;stroke-width:1px;stroke-linecap:butt;stroke-linejoin:miter;stroke-opacity:1" d="M 416.386,976.517 400.151,976.517 z" id="boundary" inkscape:connector-curvature="0" />
	<path style="fill:none;stroke:red;stroke-width:1px;stroke-linecap:butt;stroke-linejoin:miter;stroke-opacity:1" d="M 422.881,98.1669 439.116,90.0491 z" id="boundary" inkscape:connector-curvature="0" />
	<path style="fill:none;stroke:red;stroke-width:1px;stroke-linecap:butt;stroke-linejoin:miter;stroke-opacity:1" d="M 414.763,114.403 422.881,98.1669 z" id="boundary" inkscape:connector-curvature="0" />
	<path style="fill:none;stroke:red;stroke-width:1px;stroke-linecap:butt;stroke-linejoin:miter;stroke-opacity:1" d="M 452.105,77.0606 439.116,90.0491 z" id="boundary" inkscape:connector-curvature="0" />
	<path style="fill:none;stroke:red;stroke-width:1px;stroke-linecap:butt;stroke-linejoin:miter;stroke-opacity:1" d="M 452.105,77.0606 468.34,68.9427 z" id="boundary" inkscape:connector-curvature="0" />
	<path style="fill:none;stroke:red;stroke-width:1px;stroke-linecap:butt;stroke-linejoin:miter;stroke-opacity:1" d="M 484.576,60.8249 468.34,68.9427 z" id="boundary" inkscape:connector-curvature="0" />
	<path style="fill:none;stroke:red;stroke-width:1px;stroke-linecap:butt;stroke-linejoin:miter;stroke-opacity:1" d="M 497.565,49.4599 484.576,60.8249 z" id="boundary" inkscape:connector-curvature="0" />
	<path style="fill:none;stroke:red;stroke-width:1px;stroke-linecap:butt;stroke-linejoin:miter;stroke-opacity:1" d="M 466.717,335.208 452.105,343.326 z" id="boundary" inkscape:connector-curvature="0" />
	<path style="fill:none;stroke:red;stroke-width:1px;stroke-linecap:butt;stroke-linejoin:miter;stroke-opacity:1" d="M 466.717,335.208 482.953,335.208 z" id="boundary" inkscape:connector-curvature="0" />
	<path style="fill:none;stroke:red;stroke-width:1px;stroke-linecap:butt;stroke-linejoin:miter;stroke-opacity:1" d="M 455.352,359.561 452.105,343.326 z" id="boundary" inkscape:connector-curvature="0" />
	<path style="fill:none;stroke:red;stroke-width:1px;stroke-linecap:butt;stroke-linejoin:miter;stroke-opacity:1" d="M 482.953,335.208 499.188,335.208 z" id="boundary" inkscape:connector-curvature="0" />
	<path style="fill:none;stroke:red;stroke-width:1px;stroke-linecap:butt;stroke-linejoin:miter;stroke-opacity:1" d="M 455.352,359.561 443.987,375.797 z" id="boundary" inkscape:connector-curvature="0" />
	<path style="fill:none;stroke:red;stroke-width:1px;stroke-linecap:butt;stroke-linejoin:miter;stroke-opacity:1" d="M 513.8,49.4599 530.036,49.4599 z" id="boundary" inkscape:connector-curvature="0" />
	<path style="fill:none;stroke:red;stroke-width:1px;stroke-linecap:butt;stroke-linejoin:miter;stroke-opacity:1" d="M 513.8,49.4599 497.565,49.4599 z" id="boundary" inkscape:connector-curvature="0" />
	<path style="fill:none;stroke:red;stroke-width:1px;stroke-linecap:butt;stroke-linejoin:miter;stroke-opacity:1" d="M 546.272,49.4599 530.036,49.4599 z" id="boundary" inkscape:connector-curvature="0" />
	<path style="fill:none;stroke:red;stroke-width:1px;stroke-linecap:butt;stroke-linejoin:miter;stroke-opacity:1" d="M 562.507,49.4599 546.272,49.4599 z" id="boundary" inkscape:connector-curvature="0" />
	<path style="fill:none;stroke:red;stroke-width:1px;stroke-linecap:butt;stroke-linejoin:miter;stroke-opacity:1" d="M 515.424,335.208 499.188,335.208 z" id="boundary" inkscape:connector-curvature="0" />
	<path style="fill:none;stroke:red;stroke-width:1px;stroke-linecap:butt;stroke-linejoin:miter;stroke-opacity:1" d="M 546.272,327.09 531.66,335.208 z" id="boundary" inkscape:connector-curvature="0" />
	<path style="fill:none;stroke:red;stroke-width:1px;stroke-linecap:butt;stroke-linejoin:miter;stroke-opacity:1" d="M 531.66,335.208 515.424,335.208 z" id="boundary" inkscape:connector-curvature="0" />
	<path style="fill:none;stroke:red;stroke-width:1px;stroke-linecap:butt;stroke-linejoin:miter;stroke-opacity:1" d="M 560.884,318.972 546.272,327.09 z" id="boundary" inkscape:connector-curvature="0" />
	<path style="fill:none;stroke:red;stroke-width:1px;stroke-linecap:butt;stroke-linejoin:miter;stroke-opacity:1" d="M 560.884,318.972 577.119,318.972 z" id="boundary" inkscape:connector-curvature="0" />
	<path style="fill:none;stroke:red;stroke-width:1px;stroke-linecap:butt;stroke-linejoin:miter;stroke-opacity:1" d="M 424.504,554.39 408.268,554.39 z" id="boundary" inkscape:connector-curvature="0" />
	<path style="fill:none;stroke:red;stroke-width:1px;stroke-linecap:butt;stroke-linejoin:miter;stroke-opacity:1" d="M 440.74,495.941 424.504,495.941 z" id="boundary" inkscape:connector-curvature="0" />
	<path style="fill:none;stroke:red;stroke-width:1px;stroke-linecap:butt;stroke-linejoin:miter;stroke-opacity:1" d="M 443.987,375.797 440.74,396.903 z" id="boundary" inkscape:connector-curvature="0" />
	<path style="fill:none;stroke:red;stroke-width:1px;stroke-linecap:butt;stroke-linejoin:miter;stroke-opacity:1" d="M 440.74,396.903 427.751,408.268 z" id="boundary" inkscape:connector-curvature="0" />
	<path style="fill:none;stroke:red;stroke-width:1px;stroke-linecap:butt;stroke-linejoin:miter;stroke-opacity:1" d="M 422.881,430.998 427.751,408.268 z" id="boundary" inkscape:connector-curvature="0" />
	<path style="fill:none;stroke:red;stroke-width:1px;stroke-linecap:butt;stroke-linejoin:miter;stroke-opacity:1" d="M 422.881,430.998 408.268,440.74 z" id="boundary" inkscape:connector-curvature="0" />
	<path style="fill:none;stroke:red;stroke-width:1px;stroke-linecap:butt;stroke-linejoin:miter;stroke-opacity:1" d="M 430.998,570.625 442.363,583.614 z" id="boundary" inkscape:connector-curvature="0" />
	<path style="fill:none;stroke:red;stroke-width:1px;stroke-linecap:butt;stroke-linejoin:miter;stroke-opacity:1" d="M 430.998,570.625 424.504,554.39 z" id="boundary" inkscape:connector-curvature="0" />
	<path style="fill:none;stroke:red;stroke-width:1px;stroke-linecap:butt;stroke-linejoin:miter;stroke-opacity:1" d="M 455.352,504.059 440.74,495.941 z" id="boundary" inkscape:connector-curvature="0" />
	<path style="fill:none;stroke:red;stroke-width:1px;stroke-linecap:butt;stroke-linejoin:miter;stroke-opacity:1" d="M 442.363,583.614 455.352,594.979 z" id="boundary" inkscape:connector-curvature="0" />
	<path style="fill:none;stroke:red;stroke-width:1px;stroke-linecap:butt;stroke-linejoin:miter;stroke-opacity:1" d="M 468.34,533.283 479.705,546.272 z" id="boundary" inkscape:connector-curvature="0" />
	<path style="fill:none;stroke:red;stroke-width:1px;stroke-linecap:butt;stroke-linejoin:miter;stroke-opacity:1" d="M 468.34,533.283 466.717,517.047 z" id="boundary" inkscape:connector-curvature="0" />
	<path style="fill:none;stroke:red;stroke-width:1px;stroke-linecap:butt;stroke-linejoin:miter;stroke-opacity:1" d="M 502.435,569.002 487.823,560.884 z" id="boundary" inkscape:connector-curvature="0" />
	<path style="fill:none;stroke:red;stroke-width:1px;stroke-linecap:butt;stroke-linejoin:miter;stroke-opacity:1" d="M 487.823,560.884 479.705,546.272 z" id="boundary" inkscape:connector-curvature="0" />
	<path style="fill:none;stroke:red;stroke-width:1px;stroke-linecap:butt;stroke-linejoin:miter;stroke-opacity:1" d="M 518.671,569.002 502.435,569.002 z" id="boundary" inkscape:connector-curvature="0" />
	<path style="fill:none;stroke:red;stroke-width:1px;stroke-linecap:butt;stroke-linejoin:miter;stroke-opacity:1" d="M 466.717,607.967 455.352,594.979 z" id="boundary" inkscape:connector-curvature="0" />
	<path style="fill:none;stroke:red;stroke-width:1px;stroke-linecap:butt;stroke-linejoin:miter;stroke-opacity:1" d="M 518.671,569.002 534.907,569.002 z" id="boundary" inkscape:connector-curvature="0" />
	<path style="fill:none;stroke:red;stroke-width:1px;stroke-linecap:butt;stroke-linejoin:miter;stroke-opacity:1" d="M 551.142,569.002 534.907,569.002 z" id="boundary" inkscape:connector-curvature="0" />
	<path style="fill:none;stroke:red;stroke-width:1px;stroke-linecap:butt;stroke-linejoin:miter;stroke-opacity:1" d="M 567.378,569.002 551.142,569.002 z" id="boundary" inkscape:connector-curvature="0" />
	<path style="fill:none;stroke:red;stroke-width:1px;stroke-linecap:butt;stroke-linejoin:miter;stroke-opacity:1" d="M 466.717,517.047 455.352,504.059 z" id="boundary" inkscape:connector-curvature="0" />
	<path style="fill:none;stroke:red;stroke-width:1px;stroke-linecap:butt;stroke-linejoin:miter;stroke-opacity:1" d="M 562.507,49.4599 577.119,57.5777 z" id="boundary" inkscape:connector-curvature="0" />
	<path style="fill:none;stroke:red;stroke-width:1px;stroke-linecap:butt;stroke-linejoin:miter;stroke-opacity:1" d="M 577.119,57.5777 593.355,57.5777 z" id="boundary" inkscape:connector-curvature="0" />
	<path style="fill:none;stroke:red;stroke-width:1px;stroke-linecap:butt;stroke-linejoin:miter;stroke-opacity:1" d="M 593.355,57.5777 607.967,65.6956 z" id="boundary" inkscape:connector-curvature="0" />
	<path style="fill:none;stroke:red;stroke-width:1px;stroke-linecap:butt;stroke-linejoin:miter;stroke-opacity:1" d="M 635.568,85.1784 620.956,77.0606 z" id="boundary" inkscape:connector-curvature="0" />
	<path style="fill:none;stroke:red;stroke-width:1px;stroke-linecap:butt;stroke-linejoin:miter;stroke-opacity:1" d="M 620.956,77.0606 607.967,65.6956 z" id="boundary" inkscape:connector-curvature="0" />
	<path style="fill:none;stroke:red;stroke-width:1px;stroke-linecap:butt;stroke-linejoin:miter;stroke-opacity:1" d="M 635.568,85.1784 643.686,99.7905 z" id="boundary" inkscape:connector-curvature="0" />
	<path style="fill:none;stroke:red;stroke-width:1px;stroke-linecap:butt;stroke-linejoin:miter;stroke-opacity:1" d="M 593.355,317.349 606.344,302.736 z" id="boundary" inkscape:connector-curvature="0" />
	<path style="fill:none;stroke:red;stroke-width:1px;stroke-linecap:butt;stroke-linejoin:miter;stroke-opacity:1" d="M 606.344,302.736 622.579,302.736 z" id="boundary" inkscape:connector-curvature="0" />
	<path style="fill:none;stroke:red;stroke-width:1px;stroke-linecap:butt;stroke-linejoin:miter;stroke-opacity:1" d="M 630.697,286.501 622.579,302.736 z" id="boundary" inkscape:connector-curvature="0" />
	<path style="fill:none;stroke:red;stroke-width:1px;stroke-linecap:butt;stroke-linejoin:miter;stroke-opacity:1" d="M 643.686,99.7905 646.933,116.026 z" id="boundary" inkscape:connector-curvature="0" />
	<path style="fill:none;stroke:red;stroke-width:1px;stroke-linecap:butt;stroke-linejoin:miter;stroke-opacity:1" d="M 630.697,286.501 643.686,275.136 z" id="boundary" inkscape:connector-curvature="0" />
	<path style="fill:none;stroke:red;stroke-width:1px;stroke-linecap:butt;stroke-linejoin:miter;stroke-opacity:1" d="M 646.933,197.205 646.933,213.44 z" id="boundary" inkscape:connector-curvature="0" />
	<path style="fill:none;stroke:red;stroke-width:1px;stroke-linecap:butt;stroke-linejoin:miter;stroke-opacity:1" d="M 593.355,317.349 577.119,318.972 z" id="boundary" inkscape:connector-curvature="0" />
	<path style="fill:none;stroke:red;stroke-width:1px;stroke-linecap:butt;stroke-linejoin:miter;stroke-opacity:1" d="M 646.933,132.262 646.933,148.498 z" id="boundary" inkscape:connector-curvature="0" />
	<path style="fill:none;stroke:red;stroke-width:1px;stroke-linecap:butt;stroke-linejoin:miter;stroke-opacity:1" d="M 646.933,132.262 646.933,116.026 z" id="boundary" inkscape:connector-curvature="0" />
	<path style="fill:none;stroke:red;stroke-width:1px;stroke-linecap:butt;stroke-linejoin:miter;stroke-opacity:1" d="M 646.933,164.733 646.933,180.969 z" id="boundary" inkscape:connector-curvature="0" />
	<path style="fill:none;stroke:red;stroke-width:1px;stroke-linecap:butt;stroke-linejoin:miter;stroke-opacity:1" d="M 646.933,164.733 646.933,148.498 z" id="boundary" inkscape:connector-curvature="0" />
	<path style="fill:none;stroke:red;stroke-width:1px;stroke-linecap:butt;stroke-linejoin:miter;stroke-opacity:1" d="M 646.933,180.969 646.933,197.205 z" id="boundary" inkscape:connector-curvature="0" />
	<path style="fill:none;stroke:red;stroke-width:1px;stroke-linecap:butt;stroke-linejoin:miter;stroke-opacity:1" d="M 646.933,213.44 646.933,229.676 z" id="boundary" inkscape:connector-curvature="0" />
	<path style="fill:none;stroke:red;stroke-width:1px;stroke-linecap:butt;stroke-linejoin:miter;stroke-opacity:1" d="M 646.933,229.676 646.933,245.912 z" id="boundary" inkscape:connector-curvature="0" />
	<path style="fill:none;stroke:red;stroke-width:1px;stroke-linecap:butt;stroke-linejoin:miter;stroke-opacity:1" d="M 646.933,245.912 643.686,275.136 z" id="boundary" inkscape:connector-curvature="0" />
	<path style="fill:none;stroke:red;stroke-width:1px;stroke-linecap:butt;stroke-linejoin:miter;stroke-opacity:1" d="M 661.545,533.283 658.298,552.766 z" id="boundary" inkscape:connector-curvature="0" />
	<path style="fill:none;stroke:red;stroke-width:1px;stroke-linecap:butt;stroke-linejoin:miter;stroke-opacity:1" d="M 581.99,577.119 567.378,569.002 z" id="boundary" inkscape:connector-curvature="0" />
	<path style="fill:none;stroke:red;stroke-width:1px;stroke-linecap:butt;stroke-linejoin:miter;stroke-opacity:1" d="M 674.534,520.295 661.545,533.283 z" id="boundary" inkscape:connector-curvature="0" />
	<path style="fill:none;stroke:red;stroke-width:1px;stroke-linecap:butt;stroke-linejoin:miter;stroke-opacity:1" d="M 650.18,569.002 658.298,552.766 z" id="boundary" inkscape:connector-curvature="0" />
	<path style="fill:none;stroke:red;stroke-width:1px;stroke-linecap:butt;stroke-linejoin:miter;stroke-opacity:1" d="M 658.298,552.766 687.522,562.507 z" id="boundary" inkscape:connector-curvature="0" />
	<path style="fill:none;stroke:red;stroke-width:1px;stroke-linecap:butt;stroke-linejoin:miter;stroke-opacity:1" d="M 687.522,507.306 674.534,520.295 z" id="boundary" inkscape:connector-curvature="0" />
	<path style="fill:none;stroke:red;stroke-width:1px;stroke-linecap:butt;stroke-linejoin:miter;stroke-opacity:1" d="M 590.108,591.732 581.99,577.119 z" id="boundary" inkscape:connector-curvature="0" />
	<path style="fill:none;stroke:red;stroke-width:1px;stroke-linecap:butt;stroke-linejoin:miter;stroke-opacity:1" d="M 637.191,581.99 650.18,569.002 z" id="boundary" inkscape:connector-curvature="0" />
	<path style="fill:none;stroke:red;stroke-width:1px;stroke-linecap:butt;stroke-linejoin:miter;stroke-opacity:1" d="M 637.191,581.99 637.191,598.226 z" id="boundary" inkscape:connector-curvature="0" />
	<path style="fill:none;stroke:red;stroke-width:1px;stroke-linecap:butt;stroke-linejoin:miter;stroke-opacity:1" d="M 679.404,586.861 671.286,603.097 z" id="boundary" inkscape:connector-curvature="0" />
	<path style="fill:none;stroke:red;stroke-width:1px;stroke-linecap:butt;stroke-linejoin:miter;stroke-opacity:1" d="M 700.511,495.941 715.123,487.823 z" id="boundary" inkscape:connector-curvature="0" />
	<path style="fill:none;stroke:red;stroke-width:1px;stroke-linecap:butt;stroke-linejoin:miter;stroke-opacity:1" d="M 700.511,495.941 687.522,507.306 z" id="boundary" inkscape:connector-curvature="0" />
	<path style="fill:none;stroke:red;stroke-width:1px;stroke-linecap:butt;stroke-linejoin:miter;stroke-opacity:1" d="M 731.358,487.823 745.971,495.941 z" id="boundary" inkscape:connector-curvature="0" />
	<path style="fill:none;stroke:red;stroke-width:1px;stroke-linecap:butt;stroke-linejoin:miter;stroke-opacity:1" d="M 731.358,487.823 715.123,487.823 z" id="boundary" inkscape:connector-curvature="0" />
	<path style="fill:none;stroke:red;stroke-width:1px;stroke-linecap:butt;stroke-linejoin:miter;stroke-opacity:1" d="M 752.465,512.177 745.971,495.941 z" id="boundary" inkscape:connector-curvature="0" />
	<path style="fill:none;stroke:red;stroke-width:1px;stroke-linecap:butt;stroke-linejoin:miter;stroke-opacity:1" d="M 752.465,512.177 742.723,525.165 z" id="boundary" inkscape:connector-curvature="0" />
	<path style="fill:none;stroke:red;stroke-width:1px;stroke-linecap:butt;stroke-linejoin:miter;stroke-opacity:1" d="M 687.522,562.507 695.64,546.272 z" id="boundary" inkscape:connector-curvature="0" />
	<path style="fill:none;stroke:red;stroke-width:1px;stroke-linecap:butt;stroke-linejoin:miter;stroke-opacity:1" d="M 695.64,577.119 687.522,562.507 z" id="boundary" inkscape:connector-curvature="0" />
	<path style="fill:none;stroke:red;stroke-width:1px;stroke-linecap:butt;stroke-linejoin:miter;stroke-opacity:1" d="M 695.64,546.272 711.876,538.154 z" id="boundary" inkscape:connector-curvature="0" />
	<path style="fill:none;stroke:red;stroke-width:1px;stroke-linecap:butt;stroke-linejoin:miter;stroke-opacity:1" d="M 695.64,577.119 679.404,586.861 z" id="boundary" inkscape:connector-curvature="0" />
	<path style="fill:none;stroke:red;stroke-width:1px;stroke-linecap:butt;stroke-linejoin:miter;stroke-opacity:1" d="M 726.488,530.036 742.723,525.165 z" id="boundary" inkscape:connector-curvature="0" />
	<path style="fill:none;stroke:red;stroke-width:1px;stroke-linecap:butt;stroke-linejoin:miter;stroke-opacity:1" d="M 711.876,538.154 726.488,530.036 z" id="boundary" inkscape:connector-curvature="0" />
	<path style="fill:none;stroke:red;stroke-width:1px;stroke-linecap:butt;stroke-linejoin:miter;stroke-opacity:1" d="M 419.633,747.594 427.751,762.206 z" id="boundary" inkscape:connector-curvature="0" />
	<path style="fill:none;stroke:red;stroke-width:1px;stroke-linecap:butt;stroke-linejoin:miter;stroke-opacity:1" d="M 474.835,622.579 466.717,607.967 z" id="boundary" inkscape:connector-curvature="0" />
	<path style="fill:none;stroke:red;stroke-width:1px;stroke-linecap:butt;stroke-linejoin:miter;stroke-opacity:1" d="M 468.34,775.195 484.576,780.065 z" id="boundary" inkscape:connector-curvature="0" />
	<path style="fill:none;stroke:red;stroke-width:1px;stroke-linecap:butt;stroke-linejoin:miter;stroke-opacity:1" d="M 474.835,622.579 482.953,637.191 z" id="boundary" inkscape:connector-curvature="0" />
	<path style="fill:none;stroke:red;stroke-width:1px;stroke-linecap:butt;stroke-linejoin:miter;stroke-opacity:1" d="M 468.34,775.195 452.105,780.065 z" id="boundary" inkscape:connector-curvature="0" />
	<path style="fill:none;stroke:red;stroke-width:1px;stroke-linecap:butt;stroke-linejoin:miter;stroke-opacity:1" d="M 435.869,776.818 452.105,780.065 z" id="boundary" inkscape:connector-curvature="0" />
	<path style="fill:none;stroke:red;stroke-width:1px;stroke-linecap:butt;stroke-linejoin:miter;stroke-opacity:1" d="M 427.751,762.206 435.869,776.818 z" id="boundary" inkscape:connector-curvature="0" />
	<path style="fill:none;stroke:red;stroke-width:1px;stroke-linecap:butt;stroke-linejoin:miter;stroke-opacity:1" d="M 466.717,822.278 450.481,822.278 z" id="boundary" inkscape:connector-curvature="0" />
	<path style="fill:none;stroke:red;stroke-width:1px;stroke-linecap:butt;stroke-linejoin:miter;stroke-opacity:1" d="M 450.481,822.278 434.245,822.278 z" id="boundary" inkscape:connector-curvature="0" />
	<path style="fill:none;stroke:red;stroke-width:1px;stroke-linecap:butt;stroke-linejoin:miter;stroke-opacity:1" d="M 482.953,637.191 491.07,651.804 z" id="boundary" inkscape:connector-curvature="0" />
	<path style="fill:none;stroke:red;stroke-width:1px;stroke-linecap:butt;stroke-linejoin:miter;stroke-opacity:1" d="M 434.245,822.278 419.633,830.396 z" id="boundary" inkscape:connector-curvature="0" />
	<path style="fill:none;stroke:red;stroke-width:1px;stroke-linecap:butt;stroke-linejoin:miter;stroke-opacity:1" d="M 520.295,651.804 505.682,659.921 z" id="boundary" inkscape:connector-curvature="0" />
	<path style="fill:none;stroke:red;stroke-width:1px;stroke-linecap:butt;stroke-linejoin:miter;stroke-opacity:1" d="M 505.682,659.921 491.07,651.804 z" id="boundary" inkscape:connector-curvature="0" />
	<path style="fill:none;stroke:red;stroke-width:1px;stroke-linecap:butt;stroke-linejoin:miter;stroke-opacity:1" d="M 525.165,635.568 520.295,651.804 z" id="boundary" inkscape:connector-curvature="0" />
	<path style="fill:none;stroke:red;stroke-width:1px;stroke-linecap:butt;stroke-linejoin:miter;stroke-opacity:1" d="M 499.188,822.278 482.953,822.278 z" id="boundary" inkscape:connector-curvature="0" />
	<path style="fill:none;stroke:red;stroke-width:1px;stroke-linecap:butt;stroke-linejoin:miter;stroke-opacity:1" d="M 482.953,822.278 466.717,822.278 z" id="boundary" inkscape:connector-curvature="0" />
	<path style="fill:none;stroke:red;stroke-width:1px;stroke-linecap:butt;stroke-linejoin:miter;stroke-opacity:1" d="M 500.812,780.065 517.047,775.195 z" id="boundary" inkscape:connector-curvature="0" />
	<path style="fill:none;stroke:red;stroke-width:1px;stroke-linecap:butt;stroke-linejoin:miter;stroke-opacity:1" d="M 500.812,780.065 484.576,780.065 z" id="boundary" inkscape:connector-curvature="0" />
	<path style="fill:none;stroke:red;stroke-width:1px;stroke-linecap:butt;stroke-linejoin:miter;stroke-opacity:1" d="M 517.047,775.195 533.283,771.948 z" id="boundary" inkscape:connector-curvature="0" />
	<path style="fill:none;stroke:red;stroke-width:1px;stroke-linecap:butt;stroke-linejoin:miter;stroke-opacity:1" d="M 531.66,817.408 515.424,822.278 z" id="boundary" inkscape:connector-curvature="0" />
	<path style="fill:none;stroke:red;stroke-width:1px;stroke-linecap:butt;stroke-linejoin:miter;stroke-opacity:1" d="M 525.165,635.568 539.777,627.45 z" id="boundary" inkscape:connector-curvature="0" />
	<path style="fill:none;stroke:red;stroke-width:1px;stroke-linecap:butt;stroke-linejoin:miter;stroke-opacity:1" d="M 411.516,862.867 411.516,879.103 z" id="boundary" inkscape:connector-curvature="0" />
	<path style="fill:none;stroke:red;stroke-width:1px;stroke-linecap:butt;stroke-linejoin:miter;stroke-opacity:1" d="M 411.516,879.103 403.398,895.339 z" id="boundary" inkscape:connector-curvature="0" />
	<path style="fill:none;stroke:red;stroke-width:1px;stroke-linecap:butt;stroke-linejoin:miter;stroke-opacity:1" d="M 411.516,862.867 419.633,846.632 z" id="boundary" inkscape:connector-curvature="0" />
	<path style="fill:none;stroke:red;stroke-width:1px;stroke-linecap:butt;stroke-linejoin:miter;stroke-opacity:1" d="M 419.633,846.632 419.633,830.396 z" id="boundary" inkscape:connector-curvature="0" />
	<path style="fill:none;stroke:red;stroke-width:1px;stroke-linecap:butt;stroke-linejoin:miter;stroke-opacity:1" d="M 466.717,934.304 450.481,934.304 z" id="boundary" inkscape:connector-curvature="0" />
	<path style="fill:none;stroke:red;stroke-width:1px;stroke-linecap:butt;stroke-linejoin:miter;stroke-opacity:1" d="M 450.481,934.304 434.245,939.175 z" id="boundary" inkscape:connector-curvature="0" />
	<path style="fill:none;stroke:red;stroke-width:1px;stroke-linecap:butt;stroke-linejoin:miter;stroke-opacity:1" d="M 432.622,976.517 416.386,976.517 z" id="boundary" inkscape:connector-curvature="0" />
	<path style="fill:none;stroke:red;stroke-width:1px;stroke-linecap:butt;stroke-linejoin:miter;stroke-opacity:1" d="M 448.858,976.517 432.622,976.517 z" id="boundary" inkscape:connector-curvature="0" />
	<path style="fill:none;stroke:red;stroke-width:1px;stroke-linecap:butt;stroke-linejoin:miter;stroke-opacity:1" d="M 419.633,950.54 434.245,939.175 z" id="boundary" inkscape:connector-curvature="0" />
	<path style="fill:none;stroke:red;stroke-width:1px;stroke-linecap:butt;stroke-linejoin:miter;stroke-opacity:1" d="M 465.093,976.517 448.858,976.517 z" id="boundary" inkscape:connector-curvature="0" />
	<path style="fill:none;stroke:red;stroke-width:1px;stroke-linecap:butt;stroke-linejoin:miter;stroke-opacity:1" d="M 466.717,934.304 482.953,934.304 z" id="boundary" inkscape:connector-curvature="0" />
	<path style="fill:none;stroke:red;stroke-width:1px;stroke-linecap:butt;stroke-linejoin:miter;stroke-opacity:1" d="M 499.188,822.278 515.424,822.278 z" id="boundary" inkscape:connector-curvature="0" />
	<path style="fill:none;stroke:red;stroke-width:1px;stroke-linecap:butt;stroke-linejoin:miter;stroke-opacity:1" d="M 515.424,934.304 499.188,934.304 z" id="boundary" inkscape:connector-curvature="0" />
	<path style="fill:none;stroke:red;stroke-width:1px;stroke-linecap:butt;stroke-linejoin:miter;stroke-opacity:1" d="M 499.188,934.304 482.953,934.304 z" id="boundary" inkscape:connector-curvature="0" />
	<path style="fill:none;stroke:red;stroke-width:1px;stroke-linecap:butt;stroke-linejoin:miter;stroke-opacity:1" d="M 492.694,992.753 476.458,989.506 z" id="boundary" inkscape:connector-curvature="0" />
	<path style="fill:none;stroke:red;stroke-width:1px;stroke-linecap:butt;stroke-linejoin:miter;stroke-opacity:1" d="M 476.458,989.506 465.093,976.517 z" id="boundary" inkscape:connector-curvature="0" />
	<path style="fill:none;stroke:red;stroke-width:1px;stroke-linecap:butt;stroke-linejoin:miter;stroke-opacity:1" d="M 525.165,992.753 508.93,992.753 z" id="boundary" inkscape:connector-curvature="0" />
	<path style="fill:none;stroke:red;stroke-width:1px;stroke-linecap:butt;stroke-linejoin:miter;stroke-opacity:1" d="M 508.93,992.753 492.694,992.753 z" id="boundary" inkscape:connector-curvature="0" />
	<path style="fill:none;stroke:red;stroke-width:1px;stroke-linecap:butt;stroke-linejoin:miter;stroke-opacity:1" d="M 531.66,934.304 515.424,934.304 z" id="boundary" inkscape:connector-curvature="0" />
	<path style="fill:none;stroke:red;stroke-width:1px;stroke-linecap:butt;stroke-linejoin:miter;stroke-opacity:1" d="M 556.013,627.45 539.777,627.45 z" id="boundary" inkscape:connector-curvature="0" />
	<path style="fill:none;stroke:red;stroke-width:1px;stroke-linecap:butt;stroke-linejoin:miter;stroke-opacity:1" d="M 572.249,627.45 585.237,617.709 z" id="boundary" inkscape:connector-curvature="0" />
	<path style="fill:none;stroke:red;stroke-width:1px;stroke-linecap:butt;stroke-linejoin:miter;stroke-opacity:1" d="M 572.249,627.45 556.013,627.45 z" id="boundary" inkscape:connector-curvature="0" />
	<path style="fill:none;stroke:red;stroke-width:1px;stroke-linecap:butt;stroke-linejoin:miter;stroke-opacity:1" d="M 585.237,617.709 590.108,591.732 z" id="boundary" inkscape:connector-curvature="0" />
	<path style="fill:none;stroke:red;stroke-width:1px;stroke-linecap:butt;stroke-linejoin:miter;stroke-opacity:1" d="M 620.956,630.697 585.237,617.709 z" id="boundary" inkscape:connector-curvature="0" />
	<path style="fill:none;stroke:red;stroke-width:1px;stroke-linecap:butt;stroke-linejoin:miter;stroke-opacity:1" d="M 620.956,630.697 620.956,655.051 z" id="boundary" inkscape:connector-curvature="0" />
	<path style="fill:none;stroke:red;stroke-width:1px;stroke-linecap:butt;stroke-linejoin:miter;stroke-opacity:1" d="M 612.838,687.522 612.838,703.758 z" id="boundary" inkscape:connector-curvature="0" />
	<path style="fill:none;stroke:red;stroke-width:1px;stroke-linecap:butt;stroke-linejoin:miter;stroke-opacity:1" d="M 612.838,703.758 604.72,719.993 z" id="boundary" inkscape:connector-curvature="0" />
	<path style="fill:none;stroke:red;stroke-width:1px;stroke-linecap:butt;stroke-linejoin:miter;stroke-opacity:1" d="M 620.956,671.286 612.838,687.522 z" id="boundary" inkscape:connector-curvature="0" />
	<path style="fill:none;stroke:red;stroke-width:1px;stroke-linecap:butt;stroke-linejoin:miter;stroke-opacity:1" d="M 620.956,655.051 620.956,671.286 z" id="boundary" inkscape:connector-curvature="0" />
	<path style="fill:none;stroke:red;stroke-width:1px;stroke-linecap:butt;stroke-linejoin:miter;stroke-opacity:1" d="M 633.944,617.709 637.191,598.226 z" id="boundary" inkscape:connector-curvature="0" />
	<path style="fill:none;stroke:red;stroke-width:1px;stroke-linecap:butt;stroke-linejoin:miter;stroke-opacity:1" d="M 633.944,617.709 620.956,630.697 z" id="boundary" inkscape:connector-curvature="0" />
	<path style="fill:none;stroke:red;stroke-width:1px;stroke-linecap:butt;stroke-linejoin:miter;stroke-opacity:1" d="M 671.286,603.097 671.286,619.332 z" id="boundary" inkscape:connector-curvature="0" />
	<path style="fill:none;stroke:red;stroke-width:1px;stroke-linecap:butt;stroke-linejoin:miter;stroke-opacity:1" d="M 671.286,635.568 671.286,619.332 z" id="boundary" inkscape:connector-curvature="0" />
	<path style="fill:none;stroke:red;stroke-width:1px;stroke-linecap:butt;stroke-linejoin:miter;stroke-opacity:1" d="M 671.286,635.568 671.286,651.804 z" id="boundary" inkscape:connector-curvature="0" />
	<path style="fill:none;stroke:red;stroke-width:1px;stroke-linecap:butt;stroke-linejoin:miter;stroke-opacity:1" d="M 671.286,668.039 671.286,684.275 z" id="boundary" inkscape:connector-curvature="0" />
	<path style="fill:none;stroke:red;stroke-width:1px;stroke-linecap:butt;stroke-linejoin:miter;stroke-opacity:1" d="M 671.286,651.804 671.286,668.039 z" id="boundary" inkscape:connector-curvature="0" />
	<path style="fill:none;stroke:red;stroke-width:1px;stroke-linecap:butt;stroke-linejoin:miter;stroke-opacity:1" d="M 671.286,684.275 671.286,700.511 z" id="boundary" inkscape:connector-curvature="0" />
	<path style="fill:none;stroke:red;stroke-width:1px;stroke-linecap:butt;stroke-linejoin:miter;stroke-opacity:1" d="M 668.039,721.617 671.286,700.511 z" id="boundary" inkscape:connector-curvature="0" />
	<path style="fill:none;stroke:red;stroke-width:1px;stroke-linecap:butt;stroke-linejoin:miter;stroke-opacity:1" d="M 668.039,721.617 655.051,732.982 z" id="boundary" inkscape:connector-curvature="0" />
	<path style="fill:none;stroke:red;stroke-width:1px;stroke-linecap:butt;stroke-linejoin:miter;stroke-opacity:1" d="M 533.283,771.948 547.895,763.83 z" id="boundary" inkscape:connector-curvature="0" />
	<path style="fill:none;stroke:red;stroke-width:1px;stroke-linecap:butt;stroke-linejoin:miter;stroke-opacity:1" d="M 564.131,806.043 547.895,809.29 z" id="boundary" inkscape:connector-curvature="0" />
	<path style="fill:none;stroke:red;stroke-width:1px;stroke-linecap:butt;stroke-linejoin:miter;stroke-opacity:1" d="M 547.895,763.83 564.131,758.959 z" id="boundary" inkscape:connector-curvature="0" />
	<path style="fill:none;stroke:red;stroke-width:1px;stroke-linecap:butt;stroke-linejoin:miter;stroke-opacity:1" d="M 580.367,801.172 564.131,806.043 z" id="boundary" inkscape:connector-curvature="0" />
	<path style="fill:none;stroke:red;stroke-width:1px;stroke-linecap:butt;stroke-linejoin:miter;stroke-opacity:1" d="M 531.66,817.408 547.895,809.29 z" id="boundary" inkscape:connector-curvature="0" />
	<path style="fill:none;stroke:red;stroke-width:1px;stroke-linecap:butt;stroke-linejoin:miter;stroke-opacity:1" d="M 531.66,934.304 546.272,942.422 z" id="boundary" inkscape:connector-curvature="0" />
	<path style="fill:none;stroke:red;stroke-width:1px;stroke-linecap:butt;stroke-linejoin:miter;stroke-opacity:1" d="M 541.401,992.753 525.165,992.753 z" id="boundary" inkscape:connector-curvature="0" />
	<path style="fill:none;stroke:red;stroke-width:1px;stroke-linecap:butt;stroke-linejoin:miter;stroke-opacity:1" d="M 565.755,968.399 557.637,984.635 z" id="boundary" inkscape:connector-curvature="0" />
	<path style="fill:none;stroke:red;stroke-width:1px;stroke-linecap:butt;stroke-linejoin:miter;stroke-opacity:1" d="M 560.884,950.54 546.272,942.422 z" id="boundary" inkscape:connector-curvature="0" />
	<path style="fill:none;stroke:red;stroke-width:1px;stroke-linecap:butt;stroke-linejoin:miter;stroke-opacity:1" d="M 560.884,950.54 565.755,968.399 z" id="boundary" inkscape:connector-curvature="0" />
	<path style="fill:none;stroke:red;stroke-width:1px;stroke-linecap:butt;stroke-linejoin:miter;stroke-opacity:1" d="M 557.637,984.635 541.401,992.753 z" id="boundary" inkscape:connector-curvature="0" />
	<path style="fill:none;stroke:red;stroke-width:1px;stroke-linecap:butt;stroke-linejoin:miter;stroke-opacity:1" d="M 580.367,760.583 596.602,752.465 z" id="boundary" inkscape:connector-curvature="0" />
	<path style="fill:none;stroke:red;stroke-width:1px;stroke-linecap:butt;stroke-linejoin:miter;stroke-opacity:1" d="M 604.72,736.229 596.602,752.465 z" id="boundary" inkscape:connector-curvature="0" />
	<path style="fill:none;stroke:red;stroke-width:1px;stroke-linecap:butt;stroke-linejoin:miter;stroke-opacity:1" d="M 604.72,736.229 604.72,719.993 z" id="boundary" inkscape:connector-curvature="0" />
	<path style="fill:none;stroke:red;stroke-width:1px;stroke-linecap:butt;stroke-linejoin:miter;stroke-opacity:1" d="M 655.051,749.218 655.051,732.982 z" id="boundary" inkscape:connector-curvature="0" />
	<path style="fill:none;stroke:red;stroke-width:1px;stroke-linecap:butt;stroke-linejoin:miter;stroke-opacity:1" d="M 580.367,760.583 564.131,758.959 z" id="boundary" inkscape:connector-curvature="0" />
	<path style="fill:none;stroke:red;stroke-width:1px;stroke-linecap:butt;stroke-linejoin:miter;stroke-opacity:1" d="M 655.051,749.218 642.062,763.83 z" id="boundary" inkscape:connector-curvature="0" />
	<path style="fill:none;stroke:red;stroke-width:1px;stroke-linecap:butt;stroke-linejoin:miter;stroke-opacity:1" d="M 596.602,793.054 612.838,784.936 z" id="boundary" inkscape:connector-curvature="0" />
	<path style="fill:none;stroke:red;stroke-width:1px;stroke-linecap:butt;stroke-linejoin:miter;stroke-opacity:1" d="M 580.367,801.172 596.602,793.054 z" id="boundary" inkscape:connector-curvature="0" />
	<path style="fill:none;stroke:red;stroke-width:1px;stroke-linecap:butt;stroke-linejoin:miter;stroke-opacity:1" d="M 612.838,784.936 629.074,776.818 z" id="boundary" inkscape:connector-curvature="0" />
	<path style="fill:none;stroke:red;stroke-width:1px;stroke-linecap:butt;stroke-linejoin:miter;stroke-opacity:1" d="M 629.074,776.818 642.062,763.83 z" id="boundary" inkscape:connector-curvature="0" />
	<circle cx="4" cy="963.529" r="4" fill="#0" id="circle0"/>
	<circle cx="12.1178" cy="978.141" r="4" fill="#0" id="circle1"/>
	<circle cx="16.9885" cy="950.54" r="4" fill="#0" id="circle2"/>
	<circle cx="20.2357" cy="992.753" r="4" fill="#0" id="circle3"/>
	<circle cx="33.2242" cy="950.54" r="4" fill="#0" id="circle4"/>
	<circle cx="36.4714" cy="992.753" r="4" fill="#0" id="circle5"/>
	<circle cx="49.4599" cy="950.54" r="4" fill="#0" id="circle6"/>
	<circle cx="52.707" cy="996" r="4" fill="#0" id="circle7"/>
	<circle cx="65.6956" cy="950.54" r="4" fill="#0" id="circle8"/>
	<circle cx="68.9427" cy="992.753" r="4" fill="#0" id="circle9"/>
	<circle cx="81.9313" cy="950.54" r="4" fill="#0" id="circle10"/>
	<circle cx="85.1784" cy="565.755" r="4" fill="#0" id="circle11"/>
	<circle cx="85.1784" cy="581.99" r="4" fill="#0" id="circle12"/>
	<circle cx="85.1784" cy="598.226" r="4" fill="#0" id="circle13"/>
	<circle cx="85.1784" cy="614.462" r="4" fill="#0" id="circle14"/>
	<circle cx="85.1784" cy="630.697" r="4" fill="#0" id="circle15"/>
	<circle cx="85.1784" cy="987.882" r="4" fill="#0" id="circle16"/>
	<circle cx="93.2962" cy="541.401" r="4" fill="#0" id="circle17"/>
	<circle cx="94.9198" cy="643.686" r="4" fill="#0" id="circle18"/>
	<circle cx="98.1669" cy="950.54" r="4" fill="#0" id="circle19"/>
	<circle cx="101.414" cy="517.047" r="4" fill="#0" id="circle20"/>
	<circle cx="101.414" cy="992.753" r="4" fill="#0" id="circle21"/>
	<circle cx="109.532" cy="94.9198" r="4" fill="#0" id="circle22"/>
	<circle cx="109.532" cy="119.273" r="4" fill="#0" id="circle23"/>
	<circle cx="109.532" cy="135.509" r="4" fill="#0" id="circle24"/>
	<circle cx="109.532" cy="151.745" r="4" fill="#0" id="circle25"/>
	<circle cx="109.532" cy="167.98" r="4" fill="#0" id="circle26"/>
	<circle cx="109.532" cy="184.216" r="4" fill="#0" id="circle27"/>
	<circle cx="109.532" cy="200.452" r="4" fill="#0" id="circle28"/>
	<circle cx="109.532" cy="216.687" r="4" fill="#0" id="circle29"/>
	<circle cx="109.532" cy="232.923" r="4" fill="#0" id="circle30"/>
	<circle cx="109.532" cy="468.34" r="4" fill="#0" id="circle31"/>
	<circle cx="109.532" cy="484.576" r="4" fill="#0" id="circle32"/>
	<circle cx="109.532" cy="500.812" r="4" fill="#0" id="circle33"/>
	<circle cx="109.532" cy="651.804" r="4" fill="#0" id="circle34"/>
	<circle cx="114.403" cy="950.54" r="4" fill="#0" id="circle35"/>
	<circle cx="117.65" cy="435.869" r="4" fill="#0" id="circle36"/>
	<circle cx="117.65" cy="992.753" r="4" fill="#0" id="circle37"/>
	<circle cx="122.52" cy="244.288" r="4" fill="#0" id="circle38"/>
	<circle cx="122.52" cy="455.352" r="4" fill="#0" id="circle39"/>
	<circle cx="125.768" cy="54.3306" r="4" fill="#0" id="circle40"/>
	<circle cx="125.768" cy="70.5663" r="4" fill="#0" id="circle41"/>
	<circle cx="125.768" cy="86.802" r="4" fill="#0" id="circle42"/>
	<circle cx="125.768" cy="362.809" r="4" fill="#0" id="circle43"/>
	<circle cx="125.768" cy="379.044" r="4" fill="#0" id="circle44"/>
	<circle cx="125.768" cy="395.28" r="4" fill="#0" id="circle45"/>
	<circle cx="125.768" cy="411.516" r="4" fill="#0" id="circle46"/>
	<circle cx="125.768" cy="651.804" r="4" fill="#0" id="circle47"/>
	<circle cx="130.638" cy="950.54" r="4" fill="#0" id="circle48"/>
	<circle cx="133.885" cy="38.0949" r="4" fill="#0" id="circle49"/>
	<circle cx="133.885" cy="992.753" r="4" fill="#0" id="circle50"/>
	<circle cx="135.509" cy="254.029" r="4" fill="#0" id="circle51"/>
	<circle cx="138.756" cy="349.82" r="4" fill="#0" id="circle52"/>
	<circle cx="142.003" cy="646.933" r="4" fill="#0" id="circle53"/>
	<circle cx="146.874" cy="25.1064" r="4" fill="#0" id="circle54"/>
	<circle cx="146.874" cy="333.584" r="4" fill="#0" id="circle55"/>
	<circle cx="146.874" cy="950.54" r="4" fill="#0" id="circle56"/>
	<circle cx="150.121" cy="262.147" r="4" fill="#0" id="circle57"/>
	<circle cx="150.121" cy="305.984" r="4" fill="#0" id="circle58"/>
	<circle cx="150.121" cy="992.753" r="4" fill="#0" id="circle59"/>
	<circle cx="158.239" cy="289.748" r="4" fill="#0" id="circle60"/>
	<circle cx="158.239" cy="638.815" r="4" fill="#0" id="circle61"/>
	<circle cx="158.239" cy="744.347" r="4" fill="#0" id="circle62"/>
	<circle cx="158.239" cy="784.936" r="4" fill="#0" id="circle63"/>
	<circle cx="158.239" cy="801.172" r="4" fill="#0" id="circle64"/>
	<circle cx="158.239" cy="817.408" r="4" fill="#0" id="circle65"/>
	<circle cx="158.239" cy="833.643" r="4" fill="#0" id="circle66"/>
	<circle cx="159.863" cy="12.1178" r="4" fill="#0" id="circle67"/>
	<circle cx="163.11" cy="950.54" r="4" fill="#0" id="circle68"/>
	<circle cx="164.733" cy="270.265" r="4" fill="#0" id="circle69"/>
	<circle cx="166.357" cy="728.111" r="4" fill="#0" id="circle70"/>
	<circle cx="166.357" cy="758.959" r="4" fill="#0" id="circle71"/>
	<circle cx="166.357" cy="848.255" r="4" fill="#0" id="circle72"/>
	<circle cx="166.357" cy="864.491" r="4" fill="#0" id="circle73"/>
	<circle cx="166.357" cy="992.753" r="4" fill="#0" id="circle74"/>
	<circle cx="171.227" cy="627.45" r="4" fill="#0" id="circle75"/>
	<circle cx="174.475" cy="695.64" r="4" fill="#0" id="circle76"/>
	<circle cx="174.475" cy="711.876" r="4" fill="#0" id="circle77"/>
	<circle cx="174.475" cy="879.103" r="4" fill="#0" id="circle78"/>
	<circle cx="176.098" cy="4" r="4" fill="#0" id="circle79"/>
	<circle cx="179.345" cy="950.54" r="4" fill="#0" id="circle80"/>
	<circle cx="182.592" cy="679.404" r="4" fill="#0" id="circle81"/>
	<circle cx="182.592" cy="992.753" r="4" fill="#0" id="circle82"/>
	<circle cx="184.216" cy="892.092" r="4" fill="#0" id="circle83"/>
	<circle cx="187.463" cy="633.944" r="4" fill="#0" id="circle84"/>
	<circle cx="192.334" cy="8.8707" r="4" fill="#0" id="circle85"/>
	<circle cx="195.581" cy="666.416" r="4" fill="#0" id="circle86"/>
	<circle cx="195.581" cy="950.54" r="4" fill="#0" id="circle87"/>
	<circle cx="197.205" cy="903.457" r="4" fill="#0" id="circle88"/>
	<circle cx="198.828" cy="646.933" r="4" fill="#0" id="circle89"/>
	<circle cx="198.828" cy="922.939" r="4" fill="#0" id="circle90"/>
	<circle cx="198.828" cy="992.753" r="4" fill="#0" id="circle91"/>
	<circle cx="208.57" cy="8.8707" r="4" fill="#0" id="circle92"/>
	<circle cx="215.064" cy="992.753" r="4" fill="#0" id="circle93"/>
	<circle cx="224.805" cy="8.8707" r="4" fill="#0" id="circle94"/>
	<circle cx="231.3" cy="987.882" r="4" fill="#0" id="circle95"/>
	<circle cx="241.041" cy="8.8707" r="4" fill="#0" id="circle96"/>
	<circle cx="241.041" cy="879.103" r="4" fill="#0" id="circle97"/>
	<circle cx="241.041" cy="895.339" r="4" fill="#0" id="circle98"/>
	<circle cx="241.041" cy="911.574" r="4" fill="#0" id="circle99"/>
	<circle cx="241.041" cy="968.399" r="4" fill="#0" id="circle100"/>
	<circle cx="244.288" cy="927.81" r="4" fill="#0" id="circle101"/>
	<circle cx="249.159" cy="952.164" r="4" fill="#0" id="circle102"/>
	<circle cx="255.653" cy="870.985" r="4" fill="#0" id="circle103"/>
	<circle cx="257.277" cy="8.8707" r="4" fill="#0" id="circle104"/>
	<circle cx="270.265" cy="862.867" r="4" fill="#0" id="circle105"/>
	<circle cx="273.512" cy="8.8707" r="4" fill="#0" id="circle106"/>
	<circle cx="286.501" cy="862.867" r="4" fill="#0" id="circle107"/>
	<circle cx="289.748" cy="13.7414" r="4" fill="#0" id="circle108"/>
	<circle cx="301.113" cy="870.985" r="4" fill="#0" id="circle109"/>
	<circle cx="302.736" cy="25.1064" r="4" fill="#0" id="circle110"/>
	<circle cx="315.725" cy="862.867" r="4" fill="#0" id="circle111"/>
	<circle cx="317.349" cy="33.2242" r="4" fill="#0" id="circle112"/>
	<circle cx="328.714" cy="872.609" r="4" fill="#0" id="circle113"/>
	<circle cx="331.961" cy="41.3421" r="4" fill="#0" id="circle114"/>
	<circle cx="336.831" cy="887.221" r="4" fill="#0" id="circle115"/>
	<circle cx="336.831" cy="903.457" r="4" fill="#0" id="circle116"/>
	<circle cx="336.831" cy="919.692" r="4" fill="#0" id="circle117"/>
	<circle cx="336.831" cy="935.928" r="4" fill="#0" id="circle118"/>
	<circle cx="336.831" cy="952.164" r="4" fill="#0" id="circle119"/>
	<circle cx="336.831" cy="968.399" r="4" fill="#0" id="circle120"/>
	<circle cx="338.455" cy="57.5777" r="4" fill="#0" id="circle121"/>
	<circle cx="346.573" cy="72.1899" r="4" fill="#0" id="circle122"/>
	<circle cx="351.444" cy="976.517" r="4" fill="#0" id="circle123"/>
	<circle cx="354.691" cy="86.802" r="4" fill="#0" id="circle124"/>
	<circle cx="354.691" cy="481.329" r="4" fill="#0" id="circle125"/>
	<circle cx="361.185" cy="103.038" r="4" fill="#0" id="circle126"/>
	<circle cx="367.679" cy="976.517" r="4" fill="#0" id="circle127"/>
	<circle cx="369.303" cy="473.211" r="4" fill="#0" id="circle128"/>
	<circle cx="370.926" cy="116.026" r="4" fill="#0" id="circle129"/>
	<circle cx="370.926" cy="132.262" r="4" fill="#0" id="circle130"/>
	<circle cx="370.926" cy="148.498" r="4" fill="#0" id="circle131"/>
	<circle cx="377.421" cy="487.823" r="4" fill="#0" id="circle132"/>
	<circle cx="379.044" cy="163.11" r="4" fill="#0" id="circle133"/>
	<circle cx="379.044" cy="456.975" r="4" fill="#0" id="circle134"/>
	<circle cx="379.044" cy="570.625" r="4" fill="#0" id="circle135"/>
	<circle cx="379.044" cy="594.979" r="4" fill="#0" id="circle136"/>
	<circle cx="379.044" cy="611.214" r="4" fill="#0" id="circle137"/>
	<circle cx="379.044" cy="919.692" r="4" fill="#0" id="circle138"/>
	<circle cx="379.044" cy="935.928" r="4" fill="#0" id="circle139"/>
	<circle cx="383.915" cy="976.517" r="4" fill="#0" id="circle140"/>
	<circle cx="387.162" cy="625.827" r="4" fill="#0" id="circle141"/>
	<circle cx="387.162" cy="643.686" r="4" fill="#0" id="circle142"/>
	<circle cx="387.162" cy="950.54" r="4" fill="#0" id="circle143"/>
	<circle cx="392.033" cy="445.61" r="4" fill="#0" id="circle144"/>
	<circle cx="392.033" cy="495.941" r="4" fill="#0" id="circle145"/>
	<circle cx="392.033" cy="559.26" r="4" fill="#0" id="circle146"/>
	<circle cx="393.656" cy="143.627" r="4" fill="#0" id="circle147"/>
	<circle cx="395.28" cy="658.298" r="4" fill="#0" id="circle148"/>
	<circle cx="395.28" cy="674.534" r="4" fill="#0" id="circle149"/>
	<circle cx="395.28" cy="690.769" r="4" fill="#0" id="circle150"/>
	<circle cx="395.28" cy="919.692" r="4" fill="#0" id="circle151"/>
	<circle cx="400.151" cy="976.517" r="4" fill="#0" id="circle152"/>
	<circle cx="403.398" cy="895.339" r="4" fill="#0" id="circle153"/>
	<circle cx="403.398" cy="950.54" r="4" fill="#0" id="circle154"/>
	<circle cx="406.645" cy="130.638" r="4" fill="#0" id="circle155"/>
	<circle cx="408.268" cy="440.74" r="4" fill="#0" id="circle156"/>
	<circle cx="408.268" cy="495.941" r="4" fill="#0" id="circle157"/>
	<circle cx="408.268" cy="554.39" r="4" fill="#0" id="circle158"/>
	<circle cx="408.268" cy="700.511" r="4" fill="#0" id="circle159"/>
	<circle cx="411.516" cy="716.746" r="4" fill="#0" id="circle160"/>
	<circle cx="411.516" cy="732.982" r="4" fill="#0" id="circle161"/>
	<circle cx="411.516" cy="862.867" r="4" fill="#0" id="circle162"/>
	<circle cx="411.516" cy="879.103" r="4" fill="#0" id="circle163"/>
	<circle cx="414.763" cy="114.403" r="4" fill="#0" id="circle164"/>
	<circle cx="416.386" cy="976.517" r="4" fill="#0" id="circle165"/>
	<circle cx="419.633" cy="747.594" r="4" fill="#0" id="circle166"/>
	<circle cx="419.633" cy="830.396" r="4" fill="#0" id="circle167"/>
	<circle cx="419.633" cy="846.632" r="4" fill="#0" id="circle168"/>
	<circle cx="419.633" cy="950.54" r="4" fill="#0" id="circle169"/>
	<circle cx="422.881" cy="98.1669" r="4" fill="#0" id="circle170"/>
	<circle cx="422.881" cy="430.998" r="4" fill="#0" id="circle171"/>
	<circle cx="424.504" cy="495.941" r="4" fill="#0" id="circle172"/>
	<circle cx="424.504" cy="554.39" r="4" fill="#0" id="circle173"/>
	<circle cx="427.751" cy="408.268" r="4" fill="#0" id="circle174"/>
	<circle cx="427.751" cy="762.206" r="4" fill="#0" id="circle175"/>
	<circle cx="430.998" cy="570.625" r="4" fill="#0" id="circle176"/>
	<circle cx="432.622" cy="976.517" r="4" fill="#0" id="circle177"/>
	<circle cx="434.245" cy="822.278" r="4" fill="#0" id="circle178"/>
	<circle cx="434.245" cy="939.175" r="4" fill="#0" id="circle179"/>
	<circle cx="435.869" cy="776.818" r="4" fill="#0" id="circle180"/>
	<circle cx="439.116" cy="90.0491" r="4" fill="#0" id="circle181"/>
	<circle cx="440.74" cy="396.903" r="4" fill="#0" id="circle182"/>
	<circle cx="440.74" cy="495.941" r="4" fill="#0" id="circle183"/>
	<circle cx="442.363" cy="583.614" r="4" fill="#0" id="circle184"/>
	<circle cx="443.987" cy="375.797" r="4" fill="#0" id="circle185"/>
	<circle cx="448.858" cy="976.517" r="4" fill="#0" id="circle186"/>
	<circle cx="450.481" cy="822.278" r="4" fill="#0" id="circle187"/>
	<circle cx="450.481" cy="934.304" r="4" fill="#0" id="circle188"/>
	<circle cx="452.105" cy="77.0606" r="4" fill="#0" id="circle189"/>
	<circle cx="452.105" cy="343.326" r="4" fill="#0" id="circle190"/>
	<circle cx="452.105" cy="780.065" r="4" fill="#0" id="circle191"/>
	<circle cx="455.352" cy="359.561" r="4" fill="#0" id="circle192"/>
	<circle cx="455.352" cy="504.059" r="4" fill="#0" id="circle193"/>
	<circle cx="455.352" cy="594.979" r="4" fill="#0" id="circle194"/>
	<circle cx="465.093" cy="976.517" r="4" fill="#0" id="circle195"/>
	<circle cx="466.717" cy="335.208" r="4" fill="#0" id="circle196"/>
	<circle cx="466.717" cy="517.047" r="4" fill="#0" id="circle197"/>
	<circle cx="466.717" cy="607.967" r="4" fill="#0" id="circle198"/>
	<circle cx="466.717" cy="822.278" r="4" fill="#0" id="circle199"/>
	<circle cx="466.717" cy="934.304" r="4" fill="#0" id="circle200"/>
	<circle cx="468.34" cy="68.9427" r="4" fill="#0" id="circle201"/>
	<circle cx="468.34" cy="533.283" r="4" fill="#0" id="circle202"/>
	<circle cx="468.34" cy="775.195" r="4" fill="#0" id="circle203"/>
	<circle cx="474.835" cy="622.579" r="4" fill="#0" id="circle204"/>
	<circle cx="476.458" cy="989.506" r="4" fill="#0" id="circle205"/>
	<circle cx="479.705" cy="546.272" r="4" fill="#0" id="circle206"/>
	<circle cx="482.953" cy="335.208" r="4" fill="#0" id="circle207"/>
	<circle cx="482.953" cy="637.191" r="4" fill="#0" id="circle208"/>
	<circle cx="482.953" cy="822.278" r="4" fill="#0" id="circle209"/>
	<circle cx="482.953" cy="934.304" r="4" fill="#0" id="circle210"/>
	<circle cx="484.576" cy="60.8249" r="4" fill="#0" id="circle211"/>
	<circle cx="484.576" cy="780.065" r="4" fill="#0" id="circle212"/>
	<circle cx="487.823" cy="560.884" r="4" fill="#0" id="circle213"/>
	<circle cx="491.07" cy="651.804" r="4" fill="#0" id="circle214"/>
	<circle cx="492.694" cy="992.753" r="4" fill="#0" id="circle215"/>
	<circle cx="497.565" cy="49.4599" r="4" fill="#0" id="circle216"/>
	<circle cx="499.188" cy="335.208" r="4" fill="#0" id="circle217"/>
	<circle cx="499.188" cy="822.278" r="4" fill="#0" id="circle218"/>
	<circle cx="499.188" cy="934.304" r="4" fill="#0" id="circle219"/>
	<circle cx="500.812" cy="780.065" r="4" fill="#0" id="circle220"/>
	<circle cx="502.435" cy="569.002" r="4" fill="#0" id="circle221"/>
	<circle cx="505.682" cy="659.921" r="4" fill="#0" id="circle222"/>
	<circle cx="508.93" cy="992.753" r="4" fill="#0" id="circle223"/>
	<circle cx="513.8" cy="49.4599" r="4" fill="#0" id="circle224"/>
	<circle cx="515.424" cy="335.208" r="4" fill="#0" id="circle225"/>
	<circle cx="515.424" cy="822.278" r="4" fill="#0" id="circle226"/>
	<circle cx="515.424" cy="934.304" r="4" fill="#0" id="circle227"/>
	<circle cx="517.047" cy="775.195" r="4" fill="#0" id="circle228"/>
	<circle cx="518.671" cy="569.002" r="4" fill="#0" id="circle229"/>
	<circle cx="520.295" cy="651.804" r="4" fill="#0" id="circle230"/>
	<circle cx="525.165" cy="635.568" r="4" fill="#0" id="circle231"/>
	<circle cx="525.165" cy="992.753" r="4" fill="#0" id="circle232"/>
	<circle cx="530.036" cy="49.4599" r="4" fill="#0" id="circle233"/>
	<circle cx="531.66" cy="335.208" r="4" fill="#0" id="circle234"/>
	<circle cx="531.66" cy="817.408" r="4" fill="#0" id="circle235"/>
	<circle cx="531.66" cy="934.304" r="4" fill="#0" id="circle236"/>
	<circle cx="533.283" cy="771.948" r="4" fill="#0" id="circle237"/>
	<circle cx="534.907" cy="569.002" r="4" fill="#0" id="circle238"/>
	<circle cx="539.777" cy="627.45" r="4" fill="#0" id="circle239"/>
	<circle cx="541.401" cy="992.753" r="4" fill="#0" id="circle240"/>
	<circle cx="546.272" cy="49.4599" r="4" fill="#0" id="circle241"/>
	<circle cx="546.272" cy="327.09" r="4" fill="#0" id="circle242"/>
	<circle cx="546.272" cy="942.422" r="4" fill="#0" id="circle243"/>
	<circle cx="547.895" cy="763.83" r="4" fill="#0" id="circle244"/>
	<circle cx="547.895" cy="809.29" r="4" fill="#0" id="circle245"/>
	<circle cx="551.142" cy="569.002" r="4" fill="#0" id="circle246"/>
	<circle cx="556.013" cy="627.45" r="4" fill="#0" id="circle247"/>
	<circle cx="557.637" cy="984.635" r="4" fill="#0" id="circle248"/>
	<circle cx="560.884" cy="318.972" r="4" fill="#0" id="circle249"/>
	<circle cx="560.884" cy="950.54" r="4" fill="#0" id="circle250"/>
	<circle cx="562.507" cy="49.4599" r="4" fill="#0" id="circle251"/>
	<circle cx="564.131" cy="758.959" r="4" fill="#0" id="circle252"/>
	<circle cx="564.131" cy="806.043" r="4" fill="#0" id="circle253"/>
	<circle cx="565.755" cy="968.399" r="4" fill="#0" id="circle254"/>
	<circle cx="567.378" cy="569.002" r="4" fill="#0" id="circle255"/>
	<circle cx="572.249" cy="627.45" r="4" fill="#0" id="circle256"/>
	<circle cx="577.119" cy="57.5777" r="4" fill="#0" id="circle257"/>
	<circle cx="577.119" cy="318.972" r="4" fill="#0" id="circle258"/>
	<circle cx="580.367" cy="760.583" r="4" fill="#0" id="circle259"/>
	<circle cx="580.367" cy="801.172" r="4" fill="#0" id="circle260"/>
	<circle cx="581.99" cy="577.119" r="4" fill="#0" id="circle261"/>
	<circle cx="585.237" cy="617.709" r="4" fill="#0" id="circle262"/>
	<circle cx="590.108" cy="591.732" r="4" fill="#0" id="circle263"/>
	<circle cx="593.355" cy="57.5777" r="4" fill="#0" id="circle264"/>
	<circle cx="593.355" cy="317.349" r="4" fill="#0" id="circle265"/>
	<circle cx="596.602" cy="752.465" r="4" fill="#0" id="circle266"/>
	<circle cx="596.602" cy="793.054" r="4" fill="#0" id="circle267"/>
	<circle cx="604.72" cy="719.993" r="4" fill="#0" id="circle268"/>
	<circle cx="604.72" cy="736.229" r="4" fill="#0" id="circle269"/>
	<circle cx="606.344" cy="302.736" r="4" fill="#0" id="circle270"/>
	<circle cx="607.967" cy="65.6956" r="4" fill="#0" id="circle271"/>
	<circle cx="612.838" cy="687.522" r="4" fill="#0" id="circle272"/>
	<circle cx="612.838" cy="703.758" r="4" fill="#0" id="circle273"/>
	<circle cx="612.838" cy="784.936" r="4" fill="#0" id="circle274"/>
	<circle cx="620.956" cy="77.0606" r="4" fill="#0" id="circle275"/>
	<circle cx="620.956" cy="630.697" r="4" fill="#0" id="circle276"/>
	<circle cx="620.956" cy="655.051" r="4" fill="#0" id="circle277"/>
	<circle cx="620.956" cy="671.286" r="4" fill="#0" id="circle278"/>
	<circle cx="622.579" cy="302.736" r="4" fill="#0" id="circle279"/>
	<circle cx="629.074" cy="776.818" r="4" fill="#0" id="circle280"/>
	<circle cx="630.697" cy="286.501" r="4" fill="#0" id="circle281"/>
	<circle cx="633.944" cy="617.709" r="4" fill="#0" id="circle282"/>
	<circle cx="635.568" cy="85.1784" r="4" fill="#0" id="circle283"/>
	<circle cx="637.191" cy="581.99" r="4" fill="#0" id="circle284"/>
	<circle cx="637.191" cy="598.226" r="4" fill="#0" id="circle285"/>
	<circle cx="642.062" cy="763.83" r="4" fill="#0" id="circle286"/>
	<circle cx="643.686" cy="99.7905" r="4" fill="#0" id="circle287"/>
	<circle cx="643.686" cy="275.136" r="4" fill="#0" id="circle288"/>
	<circle cx="646.933" cy="116.026" r="4" fill="#0" id="circle289"/>
	<circle cx="646.933" cy="132.262" r="4" fill="#0" id="circle290"/>
	<circle cx="646.933" cy="148.498" r="4" fill="#0" id="circle291"/>
	<circle cx="646.933" cy="164.733" r="4" fill="#0" id="circle292"/>
	<circle cx="646.933" cy="180.969" r="4" fill="#0" id="circle293"/>
	<circle cx="646.933" cy="197.205" r="4" fill="#0" id="circle294"/>
	<circle cx="646.933" cy="213.44" r="4" fill="#0" id="circle295"/>
	<circle cx="646.933" cy="229.676" r="4" fill="#0" id="circle296"/>
	<circle cx="646.933" cy="245.912" r="4" fill="#0" id="circle297"/>
	<circle cx="650.18" cy="569.002" r="4" fill="#0" id="circle298"/>
	<circle cx="655.051" cy="732.982" r="4" fill="#0" id="circle299"/>
	<circle cx="655.051" cy="749.218" r="4" fill="#0" id="circle300"/>
	<circle cx="658.298" cy="552.766" r="4" fill="#0" id="circle301"/>
	<circle cx="661.545" cy="533.283" r="4" fill="#0" id="circle302"/>
	<circle cx="668.039" cy="721.617" r="4" fill="#0" id="circle303"/>
	<circle cx="671.286" cy="603.097" r="4" fill="#0" id="circle304"/>
	<circle cx="671.286" cy="619.332" r="4" fill="#0" id="circle305"/>
	<circle cx="671.286" cy="635.568" r="4" fill="#0" id="circle306"/>
	<circle cx="671.286" cy="651.804" r="4" fill="#0" id="circle307"/>
	<circle cx="671.286" cy="668.039" r="4" fill="#0" id="circle308"/>
	<circle cx="671.286" cy="684.275" r="4" fill="#0" id="circle309"/>
	<circle cx="671.286" cy="700.511" r="4" fill="#0" id="circle310"/>
	<circle cx="674.534" cy="520.295" r="4" fill="#0" id="circle311"/>
	<circle cx="679.404" cy="586.861" r="4" fill="#0" id="circle312"/>
	<circle cx="687.522" cy="507.306" r="4" fill="#0" id="circle313"/>
	<circle cx="687.522" cy="562.507" r="4" fill="#0" id="circle314"/>
	<circle cx="695.64" cy="546.272" r="4" fill="#0" id="circle315"/>
	<circle cx="695.64" cy="577.119" r="4" fill="#0" id="circle316"/>
	<circle cx="700.511" cy="495.941" r="4" fill="#0" id="circle317"/>
	<circle cx="711.876" cy="538.154" r="4" fill="#0" id="circle318"/>
	<circle cx="715.123" cy="487.823" r="4" fill="#0" id="circle319"/>
	<circle cx="726.488" cy="530.036" r="4" fill="#0" id="circle320"/>
	<circle cx="731.358" cy="487.823" r="4" fill="#0" id="circle321"/>
	<circle cx="742.723" cy="525.165" r="4" fill="#0" id="circle322"/>
	<circle cx="745.971" cy="495.941" r="4" fill="#0" id="circle323"/>
	<circle cx="752.465" cy="512.177" r="4" fill="#0" id="circle324"/>
	</g>
</svg>