<?xml version="1.0" encoding="UTF-8" standalone="no"?>
<!-- Created with CurveBenchmark -->
<svg
	xmlns:dc="http://purl.org/dc/elements/1.1/"
	xmlns:cc="http://creativecommons.org/ns#"
	xmlns:rdf="http://www.w3.org/1999/02/22-rdf-syntax-ns#"
	xmlns:svg="http://www.w3.org/2000/svg"
	xmlns="http://www.w3.org/2000/svg"
	xmlns:sodipodi="http://sodipodi.sourceforge.net/DTD/sodipodi-0.dtd"
	xmlns:inkscape="http://www.inkscape.org/namespaces/inkscape"
	width="1000"
	height="1000"
	id="svg2"
	version="1.1"
	sodipodi:docname="manifold/ccrust-woodenspoonbinary14.png.txt">
<defs
	id="defs4" />
<metadata
	id="metadata7">
	<rdf:RDF>
		<cc:Work
			rdf:about="">
			<dc:format>image/svg+xml</dc:format>
			<dc:type
				rdf:resource="http://purl.org/dc/dcmitype/StillImage" />
			<dc:title></dc:title>
		</cc:Work>
	</rdf:RDF>
</metadata>
<g
	inkscape:label="Layer 1"
	inkscape:groupmode="layer"
	id="layer1">
	<path style="fill:none;stroke:red;stroke-width:1px;stroke-linecap:butt;stroke-linejoin:miter;stroke-opacity:1" d="M 60.3636,24.6667 68.8182,19.9697 z" id="boundary" inkscape:connector-curvature="0" />
	<path style="fill:none;stroke:red;stroke-width:1px;stroke-linecap:butt;stroke-linejoin:miter;stroke-opacity:1" d="M 68.8182,19.9697 78.2121,16.2121 z" id="boundary" inkscape:connector-curvature="0" />
	<path style="fill:none;stroke:red;stroke-width:1px;stroke-linecap:butt;stroke-linejoin:miter;stroke-opacity:1" d="M 87.6061,12.4545 97,9.63636 z" id="boundary" inkscape:connector-curvature="0" />
	<path style="fill:none;stroke:red;stroke-width:1px;stroke-linecap:butt;stroke-linejoin:miter;stroke-opacity:1" d="M 78.2121,16.2121 87.6061,12.4545 z" id="boundary" inkscape:connector-curvature="0" />
	<path style="fill:none;stroke:red;stroke-width:1px;stroke-linecap:butt;stroke-linejoin:miter;stroke-opacity:1" d="M 36.8788,41.5758 44.3939,35 z" id="boundary" inkscape:connector-curvature="0" />
	<path style="fill:none;stroke:red;stroke-width:1px;stroke-linecap:butt;stroke-linejoin:miter;stroke-opacity:1" d="M 51.9091,29.3636 60.3636,24.6667 z" id="boundary" inkscape:connector-curvature="0" />
	<path style="fill:none;stroke:red;stroke-width:1px;stroke-linecap:butt;stroke-linejoin:miter;stroke-opacity:1" d="M 44.3939,35 51.9091,29.3636 z" id="boundary" inkscape:connector-curvature="0" />
	<path style="fill:none;stroke:red;stroke-width:1px;stroke-linecap:butt;stroke-linejoin:miter;stroke-opacity:1" d="M 125.182,4.93939 134.576,4 z" id="boundary" inkscape:connector-curvature="0" />
	<path style="fill:none;stroke:red;stroke-width:1px;stroke-linecap:butt;stroke-linejoin:miter;stroke-opacity:1" d="M 134.576,4 143.97,4.93939 z" id="boundary" inkscape:connector-curvature="0" />
	<path style="fill:none;stroke:red;stroke-width:1px;stroke-linecap:butt;stroke-linejoin:miter;stroke-opacity:1" d="M 143.97,4.93939 153.364,4.93939 z" id="boundary" inkscape:connector-curvature="0" />
	<path style="fill:none;stroke:red;stroke-width:1px;stroke-linecap:butt;stroke-linejoin:miter;stroke-opacity:1" d="M 153.364,4.93939 162.758,5.87879 z" id="boundary" inkscape:connector-curvature="0" />
	<path style="fill:none;stroke:red;stroke-width:1px;stroke-linecap:butt;stroke-linejoin:miter;stroke-opacity:1" d="M 115.788,5.87879 125.182,4.93939 z" id="boundary" inkscape:connector-curvature="0" />
	<path style="fill:none;stroke:red;stroke-width:1px;stroke-linecap:butt;stroke-linejoin:miter;stroke-opacity:1" d="M 162.758,5.87879 172.152,7.75758 z" id="boundary" inkscape:connector-curvature="0" />
	<path style="fill:none;stroke:red;stroke-width:1px;stroke-linecap:butt;stroke-linejoin:miter;stroke-opacity:1" d="M 97,9.63636 106.394,6.81818 z" id="boundary" inkscape:connector-curvature="0" />
	<path style="fill:none;stroke:red;stroke-width:1px;stroke-linecap:butt;stroke-linejoin:miter;stroke-opacity:1" d="M 106.394,6.81818 115.788,5.87879 z" id="boundary" inkscape:connector-curvature="0" />
	<path style="fill:none;stroke:red;stroke-width:1px;stroke-linecap:butt;stroke-linejoin:miter;stroke-opacity:1" d="M 4,121.424 4.93939,109.212 z" id="boundary" inkscape:connector-curvature="0" />
	<path style="fill:none;stroke:red;stroke-width:1px;stroke-linecap:butt;stroke-linejoin:miter;stroke-opacity:1" d="M 5.87879,97 8.69697,87.6061 z" id="boundary" inkscape:connector-curvature="0" />
	<path style="fill:none;stroke:red;stroke-width:1px;stroke-linecap:butt;stroke-linejoin:miter;stroke-opacity:1" d="M 4.93939,109.212 5.87879,97 z" id="boundary" inkscape:connector-curvature="0" />
	<path style="fill:none;stroke:red;stroke-width:1px;stroke-linecap:butt;stroke-linejoin:miter;stroke-opacity:1" d="M 4,130.818 5.87879,143.97 z" id="boundary" inkscape:connector-curvature="0" />
	<path style="fill:none;stroke:red;stroke-width:1px;stroke-linecap:butt;stroke-linejoin:miter;stroke-opacity:1" d="M 5.87879,143.97 5.87879,153.364 z" id="boundary" inkscape:connector-curvature="0" />
	<path style="fill:none;stroke:red;stroke-width:1px;stroke-linecap:butt;stroke-linejoin:miter;stroke-opacity:1" d="M 4,130.818 4,121.424 z" id="boundary" inkscape:connector-curvature="0" />
	<path style="fill:none;stroke:red;stroke-width:1px;stroke-linecap:butt;stroke-linejoin:miter;stroke-opacity:1" d="M 8.69697,162.758 5.87879,153.364 z" id="boundary" inkscape:connector-curvature="0" />
	<path style="fill:none;stroke:red;stroke-width:1px;stroke-linecap:butt;stroke-linejoin:miter;stroke-opacity:1" d="M 18.0909,66 23.7273,56.6061 z" id="boundary" inkscape:connector-curvature="0" />
	<path style="fill:none;stroke:red;stroke-width:1px;stroke-linecap:butt;stroke-linejoin:miter;stroke-opacity:1" d="M 23.7273,56.6061 29.3636,48.1515 z" id="boundary" inkscape:connector-curvature="0" />
	<path style="fill:none;stroke:red;stroke-width:1px;stroke-linecap:butt;stroke-linejoin:miter;stroke-opacity:1" d="M 29.3636,48.1515 36.8788,41.5758 z" id="boundary" inkscape:connector-curvature="0" />
	<path style="fill:none;stroke:red;stroke-width:1px;stroke-linecap:butt;stroke-linejoin:miter;stroke-opacity:1" d="M 15.2727,181.545 11.5152,172.152 z" id="boundary" inkscape:connector-curvature="0" />
	<path style="fill:none;stroke:red;stroke-width:1px;stroke-linecap:butt;stroke-linejoin:miter;stroke-opacity:1" d="M 19.9697,190 15.2727,181.545 z" id="boundary" inkscape:connector-curvature="0" />
	<path style="fill:none;stroke:red;stroke-width:1px;stroke-linecap:butt;stroke-linejoin:miter;stroke-opacity:1" d="M 11.5152,172.152 8.69697,162.758 z" id="boundary" inkscape:connector-curvature="0" />
	<path style="fill:none;stroke:red;stroke-width:1px;stroke-linecap:butt;stroke-linejoin:miter;stroke-opacity:1" d="M 24.6667,198.455 19.9697,190 z" id="boundary" inkscape:connector-curvature="0" />
	<path style="fill:none;stroke:red;stroke-width:1px;stroke-linecap:butt;stroke-linejoin:miter;stroke-opacity:1" d="M 8.69697,87.6061 12.4545,75.3939 z" id="boundary" inkscape:connector-curvature="0" />
	<path style="fill:none;stroke:red;stroke-width:1px;stroke-linecap:butt;stroke-linejoin:miter;stroke-opacity:1" d="M 12.4545,75.3939 18.0909,66 z" id="boundary" inkscape:connector-curvature="0" />
	<path style="fill:none;stroke:red;stroke-width:1px;stroke-linecap:butt;stroke-linejoin:miter;stroke-opacity:1" d="M 172.152,7.75758 181.545,10.5758 z" id="boundary" inkscape:connector-curvature="0" />
	<path style="fill:none;stroke:red;stroke-width:1px;stroke-linecap:butt;stroke-linejoin:miter;stroke-opacity:1" d="M 181.545,10.5758 190.939,11.5152 z" id="boundary" inkscape:connector-curvature="0" />
	<path style="fill:none;stroke:red;stroke-width:1px;stroke-linecap:butt;stroke-linejoin:miter;stroke-opacity:1" d="M 190.939,11.5152 200.333,15.2727 z" id="boundary" inkscape:connector-curvature="0" />
	<path style="fill:none;stroke:red;stroke-width:1px;stroke-linecap:butt;stroke-linejoin:miter;stroke-opacity:1" d="M 200.333,15.2727 209.727,19.0303 z" id="boundary" inkscape:connector-curvature="0" />
	<path style="fill:none;stroke:red;stroke-width:1px;stroke-linecap:butt;stroke-linejoin:miter;stroke-opacity:1" d="M 219.121,21.8485 209.727,19.0303 z" id="boundary" inkscape:connector-curvature="0" />
	<path style="fill:none;stroke:red;stroke-width:1px;stroke-linecap:butt;stroke-linejoin:miter;stroke-opacity:1" d="M 219.121,21.8485 227.576,26.5455 z" id="boundary" inkscape:connector-curvature="0" />
	<path style="fill:none;stroke:red;stroke-width:1px;stroke-linecap:butt;stroke-linejoin:miter;stroke-opacity:1" d="M 236.97,30.303 227.576,26.5455 z" id="boundary" inkscape:connector-curvature="0" />
	<path style="fill:none;stroke:red;stroke-width:1px;stroke-linecap:butt;stroke-linejoin:miter;stroke-opacity:1" d="M 236.97,30.303 245.424,35 z" id="boundary" inkscape:connector-curvature="0" />
	<path style="fill:none;stroke:red;stroke-width:1px;stroke-linecap:butt;stroke-linejoin:miter;stroke-opacity:1" d="M 253.879,39.697 262.333,44.3939 z" id="boundary" inkscape:connector-curvature="0" />
	<path style="fill:none;stroke:red;stroke-width:1px;stroke-linecap:butt;stroke-linejoin:miter;stroke-opacity:1" d="M 262.333,44.3939 269.848,50.0303 z" id="boundary" inkscape:connector-curvature="0" />
	<path style="fill:none;stroke:red;stroke-width:1px;stroke-linecap:butt;stroke-linejoin:miter;stroke-opacity:1" d="M 269.848,50.0303 277.364,55.6667 z" id="boundary" inkscape:connector-curvature="0" />
	<path style="fill:none;stroke:red;stroke-width:1px;stroke-linecap:butt;stroke-linejoin:miter;stroke-opacity:1" d="M 284.879,61.303 292.394,66.9394 z" id="boundary" inkscape:connector-curvature="0" />
	<path style="fill:none;stroke:red;stroke-width:1px;stroke-linecap:butt;stroke-linejoin:miter;stroke-opacity:1" d="M 292.394,66.9394 299.909,73.5152 z" id="boundary" inkscape:connector-curvature="0" />
	<path style="fill:none;stroke:red;stroke-width:1px;stroke-linecap:butt;stroke-linejoin:miter;stroke-opacity:1" d="M 307.424,79.1515 299.909,73.5152 z" id="boundary" inkscape:connector-curvature="0" />
	<path style="fill:none;stroke:red;stroke-width:1px;stroke-linecap:butt;stroke-linejoin:miter;stroke-opacity:1" d="M 277.364,55.6667 284.879,61.303 z" id="boundary" inkscape:connector-curvature="0" />
	<path style="fill:none;stroke:red;stroke-width:1px;stroke-linecap:butt;stroke-linejoin:miter;stroke-opacity:1" d="M 245.424,35 253.879,39.697 z" id="boundary" inkscape:connector-curvature="0" />
	<path style="fill:none;stroke:red;stroke-width:1px;stroke-linecap:butt;stroke-linejoin:miter;stroke-opacity:1" d="M 314.939,85.7273 320.576,93.2424 z" id="boundary" inkscape:connector-curvature="0" />
	<path style="fill:none;stroke:red;stroke-width:1px;stroke-linecap:butt;stroke-linejoin:miter;stroke-opacity:1" d="M 307.424,79.1515 314.939,85.7273 z" id="boundary" inkscape:connector-curvature="0" />
	<path style="fill:none;stroke:red;stroke-width:1px;stroke-linecap:butt;stroke-linejoin:miter;stroke-opacity:1" d="M 328.091,98.8788 320.576,93.2424 z" id="boundary" inkscape:connector-curvature="0" />
	<path style="fill:none;stroke:red;stroke-width:1px;stroke-linecap:butt;stroke-linejoin:miter;stroke-opacity:1" d="M 335.606,105.455 328.091,98.8788 z" id="boundary" inkscape:connector-curvature="0" />
	<path style="fill:none;stroke:red;stroke-width:1px;stroke-linecap:butt;stroke-linejoin:miter;stroke-opacity:1" d="M 335.606,105.455 342.182,112.97 z" id="boundary" inkscape:connector-curvature="0" />
	<path style="fill:none;stroke:red;stroke-width:1px;stroke-linecap:butt;stroke-linejoin:miter;stroke-opacity:1" d="M 348.758,120.485 342.182,112.97 z" id="boundary" inkscape:connector-curvature="0" />
	<path style="fill:none;stroke:red;stroke-width:1px;stroke-linecap:butt;stroke-linejoin:miter;stroke-opacity:1" d="M 348.758,120.485 355.333,128 z" id="boundary" inkscape:connector-curvature="0" />
	<path style="fill:none;stroke:red;stroke-width:1px;stroke-linecap:butt;stroke-linejoin:miter;stroke-opacity:1" d="M 361.909,135.515 355.333,128 z" id="boundary" inkscape:connector-curvature="0" />
	<path style="fill:none;stroke:red;stroke-width:1px;stroke-linecap:butt;stroke-linejoin:miter;stroke-opacity:1" d="M 367.545,143.03 374.121,150.545 z" id="boundary" inkscape:connector-curvature="0" />
	<path style="fill:none;stroke:red;stroke-width:1px;stroke-linecap:butt;stroke-linejoin:miter;stroke-opacity:1" d="M 367.545,143.03 361.909,135.515 z" id="boundary" inkscape:connector-curvature="0" />
	<path style="fill:none;stroke:red;stroke-width:1px;stroke-linecap:butt;stroke-linejoin:miter;stroke-opacity:1" d="M 374.121,150.545 379.758,158.061 z" id="boundary" inkscape:connector-curvature="0" />
	<path style="fill:none;stroke:red;stroke-width:1px;stroke-linecap:butt;stroke-linejoin:miter;stroke-opacity:1" d="M 385.394,165.576 379.758,158.061 z" id="boundary" inkscape:connector-curvature="0" />
	<path style="fill:none;stroke:red;stroke-width:1px;stroke-linecap:butt;stroke-linejoin:miter;stroke-opacity:1" d="M 385.394,165.576 390.091,174.03 z" id="boundary" inkscape:connector-curvature="0" />
	<path style="fill:none;stroke:red;stroke-width:1px;stroke-linecap:butt;stroke-linejoin:miter;stroke-opacity:1" d="M 390.091,174.03 395.727,181.545 z" id="boundary" inkscape:connector-curvature="0" />
	<path style="fill:none;stroke:red;stroke-width:1px;stroke-linecap:butt;stroke-linejoin:miter;stroke-opacity:1" d="M 410.758,205.97 405.121,198.455 z" id="boundary" inkscape:connector-curvature="0" />
	<path style="fill:none;stroke:red;stroke-width:1px;stroke-linecap:butt;stroke-linejoin:miter;stroke-opacity:1" d="M 405.121,198.455 401.364,189.061 z" id="boundary" inkscape:connector-curvature="0" />
	<path style="fill:none;stroke:red;stroke-width:1px;stroke-linecap:butt;stroke-linejoin:miter;stroke-opacity:1" d="M 415.455,214.424 410.758,205.97 z" id="boundary" inkscape:connector-curvature="0" />
	<path style="fill:none;stroke:red;stroke-width:1px;stroke-linecap:butt;stroke-linejoin:miter;stroke-opacity:1" d="M 395.727,181.545 401.364,189.061 z" id="boundary" inkscape:connector-curvature="0" />
	<path style="fill:none;stroke:red;stroke-width:1px;stroke-linecap:butt;stroke-linejoin:miter;stroke-opacity:1" d="M 29.3636,206.909 24.6667,198.455 z" id="boundary" inkscape:connector-curvature="0" />
	<path style="fill:none;stroke:red;stroke-width:1px;stroke-linecap:butt;stroke-linejoin:miter;stroke-opacity:1" d="M 35,214.424 29.3636,206.909 z" id="boundary" inkscape:connector-curvature="0" />
	<path style="fill:none;stroke:red;stroke-width:1px;stroke-linecap:butt;stroke-linejoin:miter;stroke-opacity:1" d="M 55.6667,236.03 48.1515,229.455 z" id="boundary" inkscape:connector-curvature="0" />
	<path style="fill:none;stroke:red;stroke-width:1px;stroke-linecap:butt;stroke-linejoin:miter;stroke-opacity:1" d="M 48.1515,229.455 41.5758,221.939 z" id="boundary" inkscape:connector-curvature="0" />
	<path style="fill:none;stroke:red;stroke-width:1px;stroke-linecap:butt;stroke-linejoin:miter;stroke-opacity:1" d="M 41.5758,221.939 35,214.424 z" id="boundary" inkscape:connector-curvature="0" />
	<path style="fill:none;stroke:red;stroke-width:1px;stroke-linecap:butt;stroke-linejoin:miter;stroke-opacity:1" d="M 55.6667,236.03 63.1818,242.606 z" id="boundary" inkscape:connector-curvature="0" />
	<path style="fill:none;stroke:red;stroke-width:1px;stroke-linecap:butt;stroke-linejoin:miter;stroke-opacity:1" d="M 63.1818,242.606 69.7576,250.121 z" id="boundary" inkscape:connector-curvature="0" />
	<path style="fill:none;stroke:red;stroke-width:1px;stroke-linecap:butt;stroke-linejoin:miter;stroke-opacity:1" d="M 77.2727,255.758 69.7576,250.121 z" id="boundary" inkscape:connector-curvature="0" />
	<path style="fill:none;stroke:red;stroke-width:1px;stroke-linecap:butt;stroke-linejoin:miter;stroke-opacity:1" d="M 84.7879,261.394 93.2424,266.091 z" id="boundary" inkscape:connector-curvature="0" />
	<path style="fill:none;stroke:red;stroke-width:1px;stroke-linecap:butt;stroke-linejoin:miter;stroke-opacity:1" d="M 93.2424,266.091 100.758,271.727 z" id="boundary" inkscape:connector-curvature="0" />
	<path style="fill:none;stroke:red;stroke-width:1px;stroke-linecap:butt;stroke-linejoin:miter;stroke-opacity:1" d="M 84.7879,261.394 77.2727,255.758 z" id="boundary" inkscape:connector-curvature="0" />
	<path style="fill:none;stroke:red;stroke-width:1px;stroke-linecap:butt;stroke-linejoin:miter;stroke-opacity:1" d="M 100.758,271.727 108.273,277.364 z" id="boundary" inkscape:connector-curvature="0" />
	<path style="fill:none;stroke:red;stroke-width:1px;stroke-linecap:butt;stroke-linejoin:miter;stroke-opacity:1" d="M 116.727,282.061 108.273,277.364 z" id="boundary" inkscape:connector-curvature="0" />
	<path style="fill:none;stroke:red;stroke-width:1px;stroke-linecap:butt;stroke-linejoin:miter;stroke-opacity:1" d="M 133.636,291.455 125.182,286.758 z" id="boundary" inkscape:connector-curvature="0" />
	<path style="fill:none;stroke:red;stroke-width:1px;stroke-linecap:butt;stroke-linejoin:miter;stroke-opacity:1" d="M 151.485,299.909 142.091,296.152 z" id="boundary" inkscape:connector-curvature="0" />
	<path style="fill:none;stroke:red;stroke-width:1px;stroke-linecap:butt;stroke-linejoin:miter;stroke-opacity:1" d="M 142.091,296.152 133.636,291.455 z" id="boundary" inkscape:connector-curvature="0" />
	<path style="fill:none;stroke:red;stroke-width:1px;stroke-linecap:butt;stroke-linejoin:miter;stroke-opacity:1" d="M 125.182,286.758 116.727,282.061 z" id="boundary" inkscape:connector-curvature="0" />
	<path style="fill:none;stroke:red;stroke-width:1px;stroke-linecap:butt;stroke-linejoin:miter;stroke-opacity:1" d="M 151.485,299.909 159.939,304.606 z" id="boundary" inkscape:connector-curvature="0" />
	<path style="fill:none;stroke:red;stroke-width:1px;stroke-linecap:butt;stroke-linejoin:miter;stroke-opacity:1" d="M 168.394,309.303 177.788,312.121 z" id="boundary" inkscape:connector-curvature="0" />
	<path style="fill:none;stroke:red;stroke-width:1px;stroke-linecap:butt;stroke-linejoin:miter;stroke-opacity:1" d="M 177.788,312.121 187.182,315.879 z" id="boundary" inkscape:connector-curvature="0" />
	<path style="fill:none;stroke:red;stroke-width:1px;stroke-linecap:butt;stroke-linejoin:miter;stroke-opacity:1" d="M 168.394,309.303 159.939,304.606 z" id="boundary" inkscape:connector-curvature="0" />
	<path style="fill:none;stroke:red;stroke-width:1px;stroke-linecap:butt;stroke-linejoin:miter;stroke-opacity:1" d="M 187.182,315.879 196.576,318.697 z" id="boundary" inkscape:connector-curvature="0" />
	<path style="fill:none;stroke:red;stroke-width:1px;stroke-linecap:butt;stroke-linejoin:miter;stroke-opacity:1" d="M 196.576,318.697 205.97,322.455 z" id="boundary" inkscape:connector-curvature="0" />
	<path style="fill:none;stroke:red;stroke-width:1px;stroke-linecap:butt;stroke-linejoin:miter;stroke-opacity:1" d="M 205.97,322.455 215.364,325.273 z" id="boundary" inkscape:connector-curvature="0" />
	<path style="fill:none;stroke:red;stroke-width:1px;stroke-linecap:butt;stroke-linejoin:miter;stroke-opacity:1" d="M 224.758,328.091 215.364,325.273 z" id="boundary" inkscape:connector-curvature="0" />
	<path style="fill:none;stroke:red;stroke-width:1px;stroke-linecap:butt;stroke-linejoin:miter;stroke-opacity:1" d="M 224.758,328.091 234.152,330.909 z" id="boundary" inkscape:connector-curvature="0" />
	<path style="fill:none;stroke:red;stroke-width:1px;stroke-linecap:butt;stroke-linejoin:miter;stroke-opacity:1" d="M 243.545,333.727 234.152,330.909 z" id="boundary" inkscape:connector-curvature="0" />
	<path style="fill:none;stroke:red;stroke-width:1px;stroke-linecap:butt;stroke-linejoin:miter;stroke-opacity:1" d="M 243.545,333.727 252.939,335.606 z" id="boundary" inkscape:connector-curvature="0" />
	<path style="fill:none;stroke:red;stroke-width:1px;stroke-linecap:butt;stroke-linejoin:miter;stroke-opacity:1" d="M 262.333,336.545 252.939,335.606 z" id="boundary" inkscape:connector-curvature="0" />
	<path style="fill:none;stroke:red;stroke-width:1px;stroke-linecap:butt;stroke-linejoin:miter;stroke-opacity:1" d="M 262.333,336.545 271.727,338.424 z" id="boundary" inkscape:connector-curvature="0" />
	<path style="fill:none;stroke:red;stroke-width:1px;stroke-linecap:butt;stroke-linejoin:miter;stroke-opacity:1" d="M 281.121,340.303 290.515,341.242 z" id="boundary" inkscape:connector-curvature="0" />
	<path style="fill:none;stroke:red;stroke-width:1px;stroke-linecap:butt;stroke-linejoin:miter;stroke-opacity:1" d="M 281.121,340.303 271.727,338.424 z" id="boundary" inkscape:connector-curvature="0" />
	<path style="fill:none;stroke:red;stroke-width:1px;stroke-linecap:butt;stroke-linejoin:miter;stroke-opacity:1" d="M 309.303,342.182 299.909,342.182 z" id="boundary" inkscape:connector-curvature="0" />
	<path style="fill:none;stroke:red;stroke-width:1px;stroke-linecap:butt;stroke-linejoin:miter;stroke-opacity:1" d="M 299.909,342.182 290.515,341.242 z" id="boundary" inkscape:connector-curvature="0" />
	<path style="fill:none;stroke:red;stroke-width:1px;stroke-linecap:butt;stroke-linejoin:miter;stroke-opacity:1" d="M 419.212,223.818 415.455,214.424 z" id="boundary" inkscape:connector-curvature="0" />
	<path style="fill:none;stroke:red;stroke-width:1px;stroke-linecap:butt;stroke-linejoin:miter;stroke-opacity:1" d="M 424.848,231.333 419.212,223.818 z" id="boundary" inkscape:connector-curvature="0" />
	<path style="fill:none;stroke:red;stroke-width:1px;stroke-linecap:butt;stroke-linejoin:miter;stroke-opacity:1" d="M 424.848,231.333 429.545,239.788 z" id="boundary" inkscape:connector-curvature="0" />
	<path style="fill:none;stroke:red;stroke-width:1px;stroke-linecap:butt;stroke-linejoin:miter;stroke-opacity:1" d="M 337.485,344.061 328.091,343.121 z" id="boundary" inkscape:connector-curvature="0" />
	<path style="fill:none;stroke:red;stroke-width:1px;stroke-linecap:butt;stroke-linejoin:miter;stroke-opacity:1" d="M 318.697,343.121 309.303,342.182 z" id="boundary" inkscape:connector-curvature="0" />
	<path style="fill:none;stroke:red;stroke-width:1px;stroke-linecap:butt;stroke-linejoin:miter;stroke-opacity:1" d="M 328.091,343.121 318.697,343.121 z" id="boundary" inkscape:connector-curvature="0" />
	<path style="fill:none;stroke:red;stroke-width:1px;stroke-linecap:butt;stroke-linejoin:miter;stroke-opacity:1" d="M 429.545,239.788 434.242,248.242 z" id="boundary" inkscape:connector-curvature="0" />
	<path style="fill:none;stroke:red;stroke-width:1px;stroke-linecap:butt;stroke-linejoin:miter;stroke-opacity:1" d="M 438.939,256.697 444.576,264.212 z" id="boundary" inkscape:connector-curvature="0" />
	<path style="fill:none;stroke:red;stroke-width:1px;stroke-linecap:butt;stroke-linejoin:miter;stroke-opacity:1" d="M 438.939,256.697 434.242,248.242 z" id="boundary" inkscape:connector-curvature="0" />
	<path style="fill:none;stroke:red;stroke-width:1px;stroke-linecap:butt;stroke-linejoin:miter;stroke-opacity:1" d="M 444.576,264.212 450.212,271.727 z" id="boundary" inkscape:connector-curvature="0" />
	<path style="fill:none;stroke:red;stroke-width:1px;stroke-linecap:butt;stroke-linejoin:miter;stroke-opacity:1" d="M 454.909,280.182 450.212,271.727 z" id="boundary" inkscape:connector-curvature="0" />
	<path style="fill:none;stroke:red;stroke-width:1px;stroke-linecap:butt;stroke-linejoin:miter;stroke-opacity:1" d="M 461.485,287.697 454.909,280.182 z" id="boundary" inkscape:connector-curvature="0" />
	<path style="fill:none;stroke:red;stroke-width:1px;stroke-linecap:butt;stroke-linejoin:miter;stroke-opacity:1" d="M 467.121,295.212 461.485,287.697 z" id="boundary" inkscape:connector-curvature="0" />
	<path style="fill:none;stroke:red;stroke-width:1px;stroke-linecap:butt;stroke-linejoin:miter;stroke-opacity:1" d="M 474.636,301.788 467.121,295.212 z" id="boundary" inkscape:connector-curvature="0" />
	<path style="fill:none;stroke:red;stroke-width:1px;stroke-linecap:butt;stroke-linejoin:miter;stroke-opacity:1" d="M 482.152,308.364 474.636,301.788 z" id="boundary" inkscape:connector-curvature="0" />
	<path style="fill:none;stroke:red;stroke-width:1px;stroke-linecap:butt;stroke-linejoin:miter;stroke-opacity:1" d="M 346.879,345 337.485,344.061 z" id="boundary" inkscape:connector-curvature="0" />
	<path style="fill:none;stroke:red;stroke-width:1px;stroke-linecap:butt;stroke-linejoin:miter;stroke-opacity:1" d="M 356.273,345 365.667,345.939 z" id="boundary" inkscape:connector-curvature="0" />
	<path style="fill:none;stroke:red;stroke-width:1px;stroke-linecap:butt;stroke-linejoin:miter;stroke-opacity:1" d="M 346.879,345 356.273,345 z" id="boundary" inkscape:connector-curvature="0" />
	<path style="fill:none;stroke:red;stroke-width:1px;stroke-linecap:butt;stroke-linejoin:miter;stroke-opacity:1" d="M 375.061,345.939 384.455,346.879 z" id="boundary" inkscape:connector-curvature="0" />
	<path style="fill:none;stroke:red;stroke-width:1px;stroke-linecap:butt;stroke-linejoin:miter;stroke-opacity:1" d="M 365.667,345.939 375.061,345.939 z" id="boundary" inkscape:connector-curvature="0" />
	<path style="fill:none;stroke:red;stroke-width:1px;stroke-linecap:butt;stroke-linejoin:miter;stroke-opacity:1" d="M 384.455,346.879 393.848,347.818 z" id="boundary" inkscape:connector-curvature="0" />
	<path style="fill:none;stroke:red;stroke-width:1px;stroke-linecap:butt;stroke-linejoin:miter;stroke-opacity:1" d="M 403.242,348.758 393.848,347.818 z" id="boundary" inkscape:connector-curvature="0" />
	<path style="fill:none;stroke:red;stroke-width:1px;stroke-linecap:butt;stroke-linejoin:miter;stroke-opacity:1" d="M 403.242,348.758 412.636,351.576 z" id="boundary" inkscape:connector-curvature="0" />
	<path style="fill:none;stroke:red;stroke-width:1px;stroke-linecap:butt;stroke-linejoin:miter;stroke-opacity:1" d="M 412.636,351.576 422.03,353.455 z" id="boundary" inkscape:connector-curvature="0" />
	<path style="fill:none;stroke:red;stroke-width:1px;stroke-linecap:butt;stroke-linejoin:miter;stroke-opacity:1" d="M 422.03,353.455 431.424,356.273 z" id="boundary" inkscape:connector-curvature="0" />
	<path style="fill:none;stroke:red;stroke-width:1px;stroke-linecap:butt;stroke-linejoin:miter;stroke-opacity:1" d="M 440.818,359.091 431.424,356.273 z" id="boundary" inkscape:connector-curvature="0" />
	<path style="fill:none;stroke:red;stroke-width:1px;stroke-linecap:butt;stroke-linejoin:miter;stroke-opacity:1" d="M 458.667,367.545 450.212,362.848 z" id="boundary" inkscape:connector-curvature="0" />
	<path style="fill:none;stroke:red;stroke-width:1px;stroke-linecap:butt;stroke-linejoin:miter;stroke-opacity:1" d="M 484.03,381.636 474.636,377.879 z" id="boundary" inkscape:connector-curvature="0" />
	<path style="fill:none;stroke:red;stroke-width:1px;stroke-linecap:butt;stroke-linejoin:miter;stroke-opacity:1" d="M 474.636,377.879 467.121,372.242 z" id="boundary" inkscape:connector-curvature="0" />
	<path style="fill:none;stroke:red;stroke-width:1px;stroke-linecap:butt;stroke-linejoin:miter;stroke-opacity:1" d="M 458.667,367.545 467.121,372.242 z" id="boundary" inkscape:connector-curvature="0" />
	<path style="fill:none;stroke:red;stroke-width:1px;stroke-linecap:butt;stroke-linejoin:miter;stroke-opacity:1" d="M 440.818,359.091 450.212,362.848 z" id="boundary" inkscape:connector-curvature="0" />
	<path style="fill:none;stroke:red;stroke-width:1px;stroke-linecap:butt;stroke-linejoin:miter;stroke-opacity:1" d="M 482.152,308.364 489.667,314.939 z" id="boundary" inkscape:connector-curvature="0" />
	<path style="fill:none;stroke:red;stroke-width:1px;stroke-linecap:butt;stroke-linejoin:miter;stroke-opacity:1" d="M 484.03,381.636 491.545,387.273 z" id="boundary" inkscape:connector-curvature="0" />
	<path style="fill:none;stroke:red;stroke-width:1px;stroke-linecap:butt;stroke-linejoin:miter;stroke-opacity:1" d="M 497.182,320.576 505.636,325.273 z" id="boundary" inkscape:connector-curvature="0" />
	<path style="fill:none;stroke:red;stroke-width:1px;stroke-linecap:butt;stroke-linejoin:miter;stroke-opacity:1" d="M 497.182,320.576 489.667,314.939 z" id="boundary" inkscape:connector-curvature="0" />
	<path style="fill:none;stroke:red;stroke-width:1px;stroke-linecap:butt;stroke-linejoin:miter;stroke-opacity:1" d="M 505.636,325.273 513.152,330.909 z" id="boundary" inkscape:connector-curvature="0" />
	<path style="fill:none;stroke:red;stroke-width:1px;stroke-linecap:butt;stroke-linejoin:miter;stroke-opacity:1" d="M 521.606,335.606 513.152,330.909 z" id="boundary" inkscape:connector-curvature="0" />
	<path style="fill:none;stroke:red;stroke-width:1px;stroke-linecap:butt;stroke-linejoin:miter;stroke-opacity:1" d="M 500,391.97 491.545,387.273 z" id="boundary" inkscape:connector-curvature="0" />
	<path style="fill:none;stroke:red;stroke-width:1px;stroke-linecap:butt;stroke-linejoin:miter;stroke-opacity:1" d="M 521.606,335.606 530.061,340.303 z" id="boundary" inkscape:connector-curvature="0" />
	<path style="fill:none;stroke:red;stroke-width:1px;stroke-linecap:butt;stroke-linejoin:miter;stroke-opacity:1" d="M 537.576,345.939 530.061,340.303 z" id="boundary" inkscape:connector-curvature="0" />
	<path style="fill:none;stroke:red;stroke-width:1px;stroke-linecap:butt;stroke-linejoin:miter;stroke-opacity:1" d="M 546.03,350.636 537.576,345.939 z" id="boundary" inkscape:connector-curvature="0" />
	<path style="fill:none;stroke:red;stroke-width:1px;stroke-linecap:butt;stroke-linejoin:miter;stroke-opacity:1" d="M 553.545,356.273 546.03,350.636 z" id="boundary" inkscape:connector-curvature="0" />
	<path style="fill:none;stroke:red;stroke-width:1px;stroke-linecap:butt;stroke-linejoin:miter;stroke-opacity:1" d="M 562.939,360.03 553.545,356.273 z" id="boundary" inkscape:connector-curvature="0" />
	<path style="fill:none;stroke:red;stroke-width:1px;stroke-linecap:butt;stroke-linejoin:miter;stroke-opacity:1" d="M 562.939,360.03 570.455,366.606 z" id="boundary" inkscape:connector-curvature="0" />
	<path style="fill:none;stroke:red;stroke-width:1px;stroke-linecap:butt;stroke-linejoin:miter;stroke-opacity:1" d="M 578.909,371.303 570.455,366.606 z" id="boundary" inkscape:connector-curvature="0" />
	<path style="fill:none;stroke:red;stroke-width:1px;stroke-linecap:butt;stroke-linejoin:miter;stroke-opacity:1" d="M 578.909,371.303 587.364,376 z" id="boundary" inkscape:connector-curvature="0" />
	<path style="fill:none;stroke:red;stroke-width:1px;stroke-linecap:butt;stroke-linejoin:miter;stroke-opacity:1" d="M 587.364,376 594.879,381.636 z" id="boundary" inkscape:connector-curvature="0" />
	<path style="fill:none;stroke:red;stroke-width:1px;stroke-linecap:butt;stroke-linejoin:miter;stroke-opacity:1" d="M 603.333,386.333 594.879,381.636 z" id="boundary" inkscape:connector-curvature="0" />
	<path style="fill:none;stroke:red;stroke-width:1px;stroke-linecap:butt;stroke-linejoin:miter;stroke-opacity:1" d="M 611.788,391.03 603.333,386.333 z" id="boundary" inkscape:connector-curvature="0" />
	<path style="fill:none;stroke:red;stroke-width:1px;stroke-linecap:butt;stroke-linejoin:miter;stroke-opacity:1" d="M 500,391.97 508.455,396.667 z" id="boundary" inkscape:connector-curvature="0" />
	<path style="fill:none;stroke:red;stroke-width:1px;stroke-linecap:butt;stroke-linejoin:miter;stroke-opacity:1" d="M 508.455,396.667 515.97,402.303 z" id="boundary" inkscape:connector-curvature="0" />
	<path style="fill:none;stroke:red;stroke-width:1px;stroke-linecap:butt;stroke-linejoin:miter;stroke-opacity:1" d="M 515.97,402.303 524.424,407 z" id="boundary" inkscape:connector-curvature="0" />
	<path style="fill:none;stroke:red;stroke-width:1px;stroke-linecap:butt;stroke-linejoin:miter;stroke-opacity:1" d="M 532.879,411.697 524.424,407 z" id="boundary" inkscape:connector-curvature="0" />
	<path style="fill:none;stroke:red;stroke-width:1px;stroke-linecap:butt;stroke-linejoin:miter;stroke-opacity:1" d="M 532.879,411.697 540.394,417.333 z" id="boundary" inkscape:connector-curvature="0" />
	<path style="fill:none;stroke:red;stroke-width:1px;stroke-linecap:butt;stroke-linejoin:miter;stroke-opacity:1" d="M 548.848,422.03 540.394,417.333 z" id="boundary" inkscape:connector-curvature="0" />
	<path style="fill:none;stroke:red;stroke-width:1px;stroke-linecap:butt;stroke-linejoin:miter;stroke-opacity:1" d="M 548.848,422.03 557.303,426.727 z" id="boundary" inkscape:connector-curvature="0" />
	<path style="fill:none;stroke:red;stroke-width:1px;stroke-linecap:butt;stroke-linejoin:miter;stroke-opacity:1" d="M 557.303,426.727 564.818,432.364 z" id="boundary" inkscape:connector-curvature="0" />
	<path style="fill:none;stroke:red;stroke-width:1px;stroke-linecap:butt;stroke-linejoin:miter;stroke-opacity:1" d="M 564.818,432.364 572.333,438 z" id="boundary" inkscape:connector-curvature="0" />
	<path style="fill:none;stroke:red;stroke-width:1px;stroke-linecap:butt;stroke-linejoin:miter;stroke-opacity:1" d="M 580.788,442.697 572.333,438 z" id="boundary" inkscape:connector-curvature="0" />
	<path style="fill:none;stroke:red;stroke-width:1px;stroke-linecap:butt;stroke-linejoin:miter;stroke-opacity:1" d="M 619.303,396.667 611.788,391.03 z" id="boundary" inkscape:connector-curvature="0" />
	<path style="fill:none;stroke:red;stroke-width:1px;stroke-linecap:butt;stroke-linejoin:miter;stroke-opacity:1" d="M 627.758,401.364 619.303,396.667 z" id="boundary" inkscape:connector-curvature="0" />
	<path style="fill:none;stroke:red;stroke-width:1px;stroke-linecap:butt;stroke-linejoin:miter;stroke-opacity:1" d="M 580.788,442.697 589.242,447.394 z" id="boundary" inkscape:connector-curvature="0" />
	<path style="fill:none;stroke:red;stroke-width:1px;stroke-linecap:butt;stroke-linejoin:miter;stroke-opacity:1" d="M 605.212,457.727 597.697,452.091 z" id="boundary" inkscape:connector-curvature="0" />
	<path style="fill:none;stroke:red;stroke-width:1px;stroke-linecap:butt;stroke-linejoin:miter;stroke-opacity:1" d="M 613.667,462.424 605.212,457.727 z" id="boundary" inkscape:connector-curvature="0" />
	<path style="fill:none;stroke:red;stroke-width:1px;stroke-linecap:butt;stroke-linejoin:miter;stroke-opacity:1" d="M 589.242,447.394 597.697,452.091 z" id="boundary" inkscape:connector-curvature="0" />
	<path style="fill:none;stroke:red;stroke-width:1px;stroke-linecap:butt;stroke-linejoin:miter;stroke-opacity:1" d="M 635.273,407 643.727,411.697 z" id="boundary" inkscape:connector-curvature="0" />
	<path style="fill:none;stroke:red;stroke-width:1px;stroke-linecap:butt;stroke-linejoin:miter;stroke-opacity:1" d="M 635.273,407 627.758,401.364 z" id="boundary" inkscape:connector-curvature="0" />
	<path style="fill:none;stroke:red;stroke-width:1px;stroke-linecap:butt;stroke-linejoin:miter;stroke-opacity:1" d="M 643.727,411.697 651.242,417.333 z" id="boundary" inkscape:connector-curvature="0" />
	<path style="fill:none;stroke:red;stroke-width:1px;stroke-linecap:butt;stroke-linejoin:miter;stroke-opacity:1" d="M 659.697,422.03 651.242,417.333 z" id="boundary" inkscape:connector-curvature="0" />
	<path style="fill:none;stroke:red;stroke-width:1px;stroke-linecap:butt;stroke-linejoin:miter;stroke-opacity:1" d="M 622.121,467.121 613.667,462.424 z" id="boundary" inkscape:connector-curvature="0" />
	<path style="fill:none;stroke:red;stroke-width:1px;stroke-linecap:butt;stroke-linejoin:miter;stroke-opacity:1" d="M 622.121,467.121 630.576,471.818 z" id="boundary" inkscape:connector-curvature="0" />
	<path style="fill:none;stroke:red;stroke-width:1px;stroke-linecap:butt;stroke-linejoin:miter;stroke-opacity:1" d="M 630.576,471.818 638.091,477.455 z" id="boundary" inkscape:connector-curvature="0" />
	<path style="fill:none;stroke:red;stroke-width:1px;stroke-linecap:butt;stroke-linejoin:miter;stroke-opacity:1" d="M 659.697,422.03 668.152,426.727 z" id="boundary" inkscape:connector-curvature="0" />
	<path style="fill:none;stroke:red;stroke-width:1px;stroke-linecap:butt;stroke-linejoin:miter;stroke-opacity:1" d="M 675.667,432.364 684.121,437.061 z" id="boundary" inkscape:connector-curvature="0" />
	<path style="fill:none;stroke:red;stroke-width:1px;stroke-linecap:butt;stroke-linejoin:miter;stroke-opacity:1" d="M 675.667,432.364 668.152,426.727 z" id="boundary" inkscape:connector-curvature="0" />
	<path style="fill:none;stroke:red;stroke-width:1px;stroke-linecap:butt;stroke-linejoin:miter;stroke-opacity:1" d="M 691.636,442.697 700.091,447.394 z" id="boundary" inkscape:connector-curvature="0" />
	<path style="fill:none;stroke:red;stroke-width:1px;stroke-linecap:butt;stroke-linejoin:miter;stroke-opacity:1" d="M 691.636,442.697 684.121,437.061 z" id="boundary" inkscape:connector-curvature="0" />
	<path style="fill:none;stroke:red;stroke-width:1px;stroke-linecap:butt;stroke-linejoin:miter;stroke-opacity:1" d="M 707.606,453.03 716.061,457.727 z" id="boundary" inkscape:connector-curvature="0" />
	<path style="fill:none;stroke:red;stroke-width:1px;stroke-linecap:butt;stroke-linejoin:miter;stroke-opacity:1" d="M 707.606,453.03 700.091,447.394 z" id="boundary" inkscape:connector-curvature="0" />
	<path style="fill:none;stroke:red;stroke-width:1px;stroke-linecap:butt;stroke-linejoin:miter;stroke-opacity:1" d="M 716.061,457.727 724.515,462.424 z" id="boundary" inkscape:connector-curvature="0" />
	<path style="fill:none;stroke:red;stroke-width:1px;stroke-linecap:butt;stroke-linejoin:miter;stroke-opacity:1" d="M 732.03,468.061 724.515,462.424 z" id="boundary" inkscape:connector-curvature="0" />
	<path style="fill:none;stroke:red;stroke-width:1px;stroke-linecap:butt;stroke-linejoin:miter;stroke-opacity:1" d="M 740.485,472.758 732.03,468.061 z" id="boundary" inkscape:connector-curvature="0" />
	<path style="fill:none;stroke:red;stroke-width:1px;stroke-linecap:butt;stroke-linejoin:miter;stroke-opacity:1" d="M 638.091,477.455 646.545,482.152 z" id="boundary" inkscape:connector-curvature="0" />
	<path style="fill:none;stroke:red;stroke-width:1px;stroke-linecap:butt;stroke-linejoin:miter;stroke-opacity:1" d="M 646.545,482.152 654.061,487.788 z" id="boundary" inkscape:connector-curvature="0" />
	<path style="fill:none;stroke:red;stroke-width:1px;stroke-linecap:butt;stroke-linejoin:miter;stroke-opacity:1" d="M 654.061,487.788 662.515,492.485 z" id="boundary" inkscape:connector-curvature="0" />
	<path style="fill:none;stroke:red;stroke-width:1px;stroke-linecap:butt;stroke-linejoin:miter;stroke-opacity:1" d="M 662.515,492.485 670.03,498.121 z" id="boundary" inkscape:connector-curvature="0" />
	<path style="fill:none;stroke:red;stroke-width:1px;stroke-linecap:butt;stroke-linejoin:miter;stroke-opacity:1" d="M 670.03,498.121 678.485,502.818 z" id="boundary" inkscape:connector-curvature="0" />
	<path style="fill:none;stroke:red;stroke-width:1px;stroke-linecap:butt;stroke-linejoin:miter;stroke-opacity:1" d="M 678.485,502.818 686,508.455 z" id="boundary" inkscape:connector-curvature="0" />
	<path style="fill:none;stroke:red;stroke-width:1px;stroke-linecap:butt;stroke-linejoin:miter;stroke-opacity:1" d="M 686,508.455 694.455,513.152 z" id="boundary" inkscape:connector-curvature="0" />
	<path style="fill:none;stroke:red;stroke-width:1px;stroke-linecap:butt;stroke-linejoin:miter;stroke-opacity:1" d="M 748,478.394 740.485,472.758 z" id="boundary" inkscape:connector-curvature="0" />
	<path style="fill:none;stroke:red;stroke-width:1px;stroke-linecap:butt;stroke-linejoin:miter;stroke-opacity:1" d="M 756.455,483.091 748,478.394 z" id="boundary" inkscape:connector-curvature="0" />
	<path style="fill:none;stroke:red;stroke-width:1px;stroke-linecap:butt;stroke-linejoin:miter;stroke-opacity:1" d="M 756.455,483.091 764.909,487.788 z" id="boundary" inkscape:connector-curvature="0" />
	<path style="fill:none;stroke:red;stroke-width:1px;stroke-linecap:butt;stroke-linejoin:miter;stroke-opacity:1" d="M 772.424,493.424 780.879,498.121 z" id="boundary" inkscape:connector-curvature="0" />
	<path style="fill:none;stroke:red;stroke-width:1px;stroke-linecap:butt;stroke-linejoin:miter;stroke-opacity:1" d="M 772.424,493.424 764.909,487.788 z" id="boundary" inkscape:connector-curvature="0" />
	<path style="fill:none;stroke:red;stroke-width:1px;stroke-linecap:butt;stroke-linejoin:miter;stroke-opacity:1" d="M 788.394,503.758 796.848,508.455 z" id="boundary" inkscape:connector-curvature="0" />
	<path style="fill:none;stroke:red;stroke-width:1px;stroke-linecap:butt;stroke-linejoin:miter;stroke-opacity:1" d="M 788.394,503.758 780.879,498.121 z" id="boundary" inkscape:connector-curvature="0" />
	<path style="fill:none;stroke:red;stroke-width:1px;stroke-linecap:butt;stroke-linejoin:miter;stroke-opacity:1" d="M 804.364,514.091 796.848,508.455 z" id="boundary" inkscape:connector-curvature="0" />
	<path style="fill:none;stroke:red;stroke-width:1px;stroke-linecap:butt;stroke-linejoin:miter;stroke-opacity:1" d="M 812.818,518.788 804.364,514.091 z" id="boundary" inkscape:connector-curvature="0" />
	<path style="fill:none;stroke:red;stroke-width:1px;stroke-linecap:butt;stroke-linejoin:miter;stroke-opacity:1" d="M 702.909,517.848 694.455,513.152 z" id="boundary" inkscape:connector-curvature="0" />
	<path style="fill:none;stroke:red;stroke-width:1px;stroke-linecap:butt;stroke-linejoin:miter;stroke-opacity:1" d="M 702.909,517.848 711.364,522.545 z" id="boundary" inkscape:connector-curvature="0" />
	<path style="fill:none;stroke:red;stroke-width:1px;stroke-linecap:butt;stroke-linejoin:miter;stroke-opacity:1" d="M 711.364,522.545 718.879,528.182 z" id="boundary" inkscape:connector-curvature="0" />
	<path style="fill:none;stroke:red;stroke-width:1px;stroke-linecap:butt;stroke-linejoin:miter;stroke-opacity:1" d="M 718.879,528.182 727.333,532.879 z" id="boundary" inkscape:connector-curvature="0" />
	<path style="fill:none;stroke:red;stroke-width:1px;stroke-linecap:butt;stroke-linejoin:miter;stroke-opacity:1" d="M 727.333,532.879 734.848,538.515 z" id="boundary" inkscape:connector-curvature="0" />
	<path style="fill:none;stroke:red;stroke-width:1px;stroke-linecap:butt;stroke-linejoin:miter;stroke-opacity:1" d="M 734.848,538.515 743.303,543.212 z" id="boundary" inkscape:connector-curvature="0" />
	<path style="fill:none;stroke:red;stroke-width:1px;stroke-linecap:butt;stroke-linejoin:miter;stroke-opacity:1" d="M 743.303,543.212 750.818,548.848 z" id="boundary" inkscape:connector-curvature="0" />
	<path style="fill:none;stroke:red;stroke-width:1px;stroke-linecap:butt;stroke-linejoin:miter;stroke-opacity:1" d="M 750.818,548.848 759.273,553.545 z" id="boundary" inkscape:connector-curvature="0" />
	<path style="fill:none;stroke:red;stroke-width:1px;stroke-linecap:butt;stroke-linejoin:miter;stroke-opacity:1" d="M 812.818,518.788 821.273,523.485 z" id="boundary" inkscape:connector-curvature="0" />
	<path style="fill:none;stroke:red;stroke-width:1px;stroke-linecap:butt;stroke-linejoin:miter;stroke-opacity:1" d="M 828.788,529.121 837.242,533.818 z" id="boundary" inkscape:connector-curvature="0" />
	<path style="fill:none;stroke:red;stroke-width:1px;stroke-linecap:butt;stroke-linejoin:miter;stroke-opacity:1" d="M 828.788,529.121 821.273,523.485 z" id="boundary" inkscape:connector-curvature="0" />
	<path style="fill:none;stroke:red;stroke-width:1px;stroke-linecap:butt;stroke-linejoin:miter;stroke-opacity:1" d="M 845.697,538.515 837.242,533.818 z" id="boundary" inkscape:connector-curvature="0" />
	<path style="fill:none;stroke:red;stroke-width:1px;stroke-linecap:butt;stroke-linejoin:miter;stroke-opacity:1" d="M 767.727,558.242 759.273,553.545 z" id="boundary" inkscape:connector-curvature="0" />
	<path style="fill:none;stroke:red;stroke-width:1px;stroke-linecap:butt;stroke-linejoin:miter;stroke-opacity:1" d="M 853.212,544.152 845.697,538.515 z" id="boundary" inkscape:connector-curvature="0" />
	<path style="fill:none;stroke:red;stroke-width:1px;stroke-linecap:butt;stroke-linejoin:miter;stroke-opacity:1" d="M 853.212,544.152 860.727,549.788 z" id="boundary" inkscape:connector-curvature="0" />
	<path style="fill:none;stroke:red;stroke-width:1px;stroke-linecap:butt;stroke-linejoin:miter;stroke-opacity:1" d="M 869.182,554.485 860.727,549.788 z" id="boundary" inkscape:connector-curvature="0" />
	<path style="fill:none;stroke:red;stroke-width:1px;stroke-linecap:butt;stroke-linejoin:miter;stroke-opacity:1" d="M 767.727,558.242 776.182,562.939 z" id="boundary" inkscape:connector-curvature="0" />
	<path style="fill:none;stroke:red;stroke-width:1px;stroke-linecap:butt;stroke-linejoin:miter;stroke-opacity:1" d="M 776.182,562.939 783.697,569.515 z" id="boundary" inkscape:connector-curvature="0" />
	<path style="fill:none;stroke:red;stroke-width:1px;stroke-linecap:butt;stroke-linejoin:miter;stroke-opacity:1" d="M 783.697,569.515 792.152,574.212 z" id="boundary" inkscape:connector-curvature="0" />
	<path style="fill:none;stroke:red;stroke-width:1px;stroke-linecap:butt;stroke-linejoin:miter;stroke-opacity:1" d="M 800.606,578.909 792.152,574.212 z" id="boundary" inkscape:connector-curvature="0" />
	<path style="fill:none;stroke:red;stroke-width:1px;stroke-linecap:butt;stroke-linejoin:miter;stroke-opacity:1" d="M 800.606,578.909 808.121,584.545 z" id="boundary" inkscape:connector-curvature="0" />
	<path style="fill:none;stroke:red;stroke-width:1px;stroke-linecap:butt;stroke-linejoin:miter;stroke-opacity:1" d="M 815.636,590.182 808.121,584.545 z" id="boundary" inkscape:connector-curvature="0" />
	<path style="fill:none;stroke:red;stroke-width:1px;stroke-linecap:butt;stroke-linejoin:miter;stroke-opacity:1" d="M 815.636,590.182 824.091,594.879 z" id="boundary" inkscape:connector-curvature="0" />
	<path style="fill:none;stroke:red;stroke-width:1px;stroke-linecap:butt;stroke-linejoin:miter;stroke-opacity:1" d="M 832.545,599.576 840.061,605.212 z" id="boundary" inkscape:connector-curvature="0" />
	<path style="fill:none;stroke:red;stroke-width:1px;stroke-linecap:butt;stroke-linejoin:miter;stroke-opacity:1" d="M 824.091,594.879 832.545,599.576 z" id="boundary" inkscape:connector-curvature="0" />
	<path style="fill:none;stroke:red;stroke-width:1px;stroke-linecap:butt;stroke-linejoin:miter;stroke-opacity:1" d="M 848.515,609.909 840.061,605.212 z" id="boundary" inkscape:connector-curvature="0" />
	<path style="fill:none;stroke:red;stroke-width:1px;stroke-linecap:butt;stroke-linejoin:miter;stroke-opacity:1" d="M 885.152,564.818 876.697,560.121 z" id="boundary" inkscape:connector-curvature="0" />
	<path style="fill:none;stroke:red;stroke-width:1px;stroke-linecap:butt;stroke-linejoin:miter;stroke-opacity:1" d="M 876.697,560.121 869.182,554.485 z" id="boundary" inkscape:connector-curvature="0" />
	<path style="fill:none;stroke:red;stroke-width:1px;stroke-linecap:butt;stroke-linejoin:miter;stroke-opacity:1" d="M 848.515,609.909 856.97,614.606 z" id="boundary" inkscape:connector-curvature="0" />
	<path style="fill:none;stroke:red;stroke-width:1px;stroke-linecap:butt;stroke-linejoin:miter;stroke-opacity:1" d="M 856.97,614.606 864.485,620.242 z" id="boundary" inkscape:connector-curvature="0" />
	<path style="fill:none;stroke:red;stroke-width:1px;stroke-linecap:butt;stroke-linejoin:miter;stroke-opacity:1" d="M 864.485,620.242 872.939,624.939 z" id="boundary" inkscape:connector-curvature="0" />
	<path style="fill:none;stroke:red;stroke-width:1px;stroke-linecap:butt;stroke-linejoin:miter;stroke-opacity:1" d="M 872.939,624.939 881.394,629.636 z" id="boundary" inkscape:connector-curvature="0" />
	<path style="fill:none;stroke:red;stroke-width:1px;stroke-linecap:butt;stroke-linejoin:miter;stroke-opacity:1" d="M 881.394,629.636 888.909,635.273 z" id="boundary" inkscape:connector-curvature="0" />
	<path style="fill:none;stroke:red;stroke-width:1px;stroke-linecap:butt;stroke-linejoin:miter;stroke-opacity:1" d="M 885.152,564.818 892.667,570.455 z" id="boundary" inkscape:connector-curvature="0" />
	<path style="fill:none;stroke:red;stroke-width:1px;stroke-linecap:butt;stroke-linejoin:miter;stroke-opacity:1" d="M 901.121,575.152 909.576,579.848 z" id="boundary" inkscape:connector-curvature="0" />
	<path style="fill:none;stroke:red;stroke-width:1px;stroke-linecap:butt;stroke-linejoin:miter;stroke-opacity:1" d="M 909.576,579.848 917.091,585.485 z" id="boundary" inkscape:connector-curvature="0" />
	<path style="fill:none;stroke:red;stroke-width:1px;stroke-linecap:butt;stroke-linejoin:miter;stroke-opacity:1" d="M 925.545,590.182 917.091,585.485 z" id="boundary" inkscape:connector-curvature="0" />
	<path style="fill:none;stroke:red;stroke-width:1px;stroke-linecap:butt;stroke-linejoin:miter;stroke-opacity:1" d="M 933.061,595.818 925.545,590.182 z" id="boundary" inkscape:connector-curvature="0" />
	<path style="fill:none;stroke:red;stroke-width:1px;stroke-linecap:butt;stroke-linejoin:miter;stroke-opacity:1" d="M 942.455,597.697 933.061,595.818 z" id="boundary" inkscape:connector-curvature="0" />
	<path style="fill:none;stroke:red;stroke-width:1px;stroke-linecap:butt;stroke-linejoin:miter;stroke-opacity:1" d="M 951.848,600.515 942.455,597.697 z" id="boundary" inkscape:connector-curvature="0" />
	<path style="fill:none;stroke:red;stroke-width:1px;stroke-linecap:butt;stroke-linejoin:miter;stroke-opacity:1" d="M 901.121,575.152 892.667,570.455 z" id="boundary" inkscape:connector-curvature="0" />
	<path style="fill:none;stroke:red;stroke-width:1px;stroke-linecap:butt;stroke-linejoin:miter;stroke-opacity:1" d="M 964.061,614.606 955.606,609.909 z" id="boundary" inkscape:connector-curvature="0" />
	<path style="fill:none;stroke:red;stroke-width:1px;stroke-linecap:butt;stroke-linejoin:miter;stroke-opacity:1" d="M 961.242,602.394 970.636,605.212 z" id="boundary" inkscape:connector-curvature="0" />
	<path style="fill:none;stroke:red;stroke-width:1px;stroke-linecap:butt;stroke-linejoin:miter;stroke-opacity:1" d="M 979.091,609.909 970.636,605.212 z" id="boundary" inkscape:connector-curvature="0" />
	<path style="fill:none;stroke:red;stroke-width:1px;stroke-linecap:butt;stroke-linejoin:miter;stroke-opacity:1" d="M 988.485,608.97 979.091,609.909 z" id="boundary" inkscape:connector-curvature="0" />
	<path style="fill:none;stroke:red;stroke-width:1px;stroke-linecap:butt;stroke-linejoin:miter;stroke-opacity:1" d="M 971.576,620.242 964.061,614.606 z" id="boundary" inkscape:connector-curvature="0" />
	<path style="fill:none;stroke:red;stroke-width:1px;stroke-linecap:butt;stroke-linejoin:miter;stroke-opacity:1" d="M 980.03,624.939 971.576,620.242 z" id="boundary" inkscape:connector-curvature="0" />
	<path style="fill:none;stroke:red;stroke-width:1px;stroke-linecap:butt;stroke-linejoin:miter;stroke-opacity:1" d="M 987.545,630.576 980.03,624.939 z" id="boundary" inkscape:connector-curvature="0" />
	<path style="fill:none;stroke:red;stroke-width:1px;stroke-linecap:butt;stroke-linejoin:miter;stroke-opacity:1" d="M 888.909,635.273 896.424,640.909 z" id="boundary" inkscape:connector-curvature="0" />
	<path style="fill:none;stroke:red;stroke-width:1px;stroke-linecap:butt;stroke-linejoin:miter;stroke-opacity:1" d="M 904.879,645.606 913.333,650.303 z" id="boundary" inkscape:connector-curvature="0" />
	<path style="fill:none;stroke:red;stroke-width:1px;stroke-linecap:butt;stroke-linejoin:miter;stroke-opacity:1" d="M 913.333,650.303 920.848,655.939 z" id="boundary" inkscape:connector-curvature="0" />
	<path style="fill:none;stroke:red;stroke-width:1px;stroke-linecap:butt;stroke-linejoin:miter;stroke-opacity:1" d="M 904.879,645.606 896.424,640.909 z" id="boundary" inkscape:connector-curvature="0" />
	<path style="fill:none;stroke:red;stroke-width:1px;stroke-linecap:butt;stroke-linejoin:miter;stroke-opacity:1" d="M 920.848,655.939 929.303,660.636 z" id="boundary" inkscape:connector-curvature="0" />
	<path style="fill:none;stroke:red;stroke-width:1px;stroke-linecap:butt;stroke-linejoin:miter;stroke-opacity:1" d="M 929.303,660.636 936.818,666.273 z" id="boundary" inkscape:connector-curvature="0" />
	<path style="fill:none;stroke:red;stroke-width:1px;stroke-linecap:butt;stroke-linejoin:miter;stroke-opacity:1" d="M 936.818,666.273 944.333,672.848 z" id="boundary" inkscape:connector-curvature="0" />
	<path style="fill:none;stroke:red;stroke-width:1px;stroke-linecap:butt;stroke-linejoin:miter;stroke-opacity:1" d="M 987.545,630.576 994.121,638.091 z" id="boundary" inkscape:connector-curvature="0" />
	<path style="fill:none;stroke:red;stroke-width:1px;stroke-linecap:butt;stroke-linejoin:miter;stroke-opacity:1" d="M 994.121,638.091 996,647.485 z" id="boundary" inkscape:connector-curvature="0" />
	<path style="fill:none;stroke:red;stroke-width:1px;stroke-linecap:butt;stroke-linejoin:miter;stroke-opacity:1" d="M 996,647.485 996,659.697 z" id="boundary" inkscape:connector-curvature="0" />
	<path style="fill:none;stroke:red;stroke-width:1px;stroke-linecap:butt;stroke-linejoin:miter;stroke-opacity:1" d="M 963.121,680.364 953.727,676.606 z" id="boundary" inkscape:connector-curvature="0" />
	<path style="fill:none;stroke:red;stroke-width:1px;stroke-linecap:butt;stroke-linejoin:miter;stroke-opacity:1" d="M 972.515,679.424 963.121,680.364 z" id="boundary" inkscape:connector-curvature="0" />
	<path style="fill:none;stroke:red;stroke-width:1px;stroke-linecap:butt;stroke-linejoin:miter;stroke-opacity:1" d="M 981.909,675.667 972.515,679.424 z" id="boundary" inkscape:connector-curvature="0" />
	<path style="fill:none;stroke:red;stroke-width:1px;stroke-linecap:butt;stroke-linejoin:miter;stroke-opacity:1" d="M 996,659.697 991.303,670.97 z" id="boundary" inkscape:connector-curvature="0" />
	<path style="fill:none;stroke:red;stroke-width:1px;stroke-linecap:butt;stroke-linejoin:miter;stroke-opacity:1" d="M 991.303,670.97 981.909,675.667 z" id="boundary" inkscape:connector-curvature="0" />
	<path style="fill:none;stroke:red;stroke-width:1px;stroke-linecap:butt;stroke-linejoin:miter;stroke-opacity:1" d="M 953.727,676.606 944.333,672.848 z" id="boundary" inkscape:connector-curvature="0" />
	<circle cx="4" cy="121.424" r="4" fill="#0" id="circle0"/>
	<circle cx="4" cy="130.818" r="4" fill="#0" id="circle1"/>
	<circle cx="4.93939" cy="109.212" r="4" fill="#0" id="circle2"/>
	<circle cx="5.87879" cy="97" r="4" fill="#0" id="circle3"/>
	<circle cx="5.87879" cy="143.97" r="4" fill="#0" id="circle4"/>
	<circle cx="5.87879" cy="153.364" r="4" fill="#0" id="circle5"/>
	<circle cx="8.69697" cy="87.6061" r="4" fill="#0" id="circle6"/>
	<circle cx="8.69697" cy="162.758" r="4" fill="#0" id="circle7"/>
	<circle cx="11.5152" cy="172.152" r="4" fill="#0" id="circle8"/>
	<circle cx="12.4545" cy="75.3939" r="4" fill="#0" id="circle9"/>
	<circle cx="15.2727" cy="181.545" r="4" fill="#0" id="circle10"/>
	<circle cx="18.0909" cy="66" r="4" fill="#0" id="circle11"/>
	<circle cx="19.9697" cy="190" r="4" fill="#0" id="circle12"/>
	<circle cx="23.7273" cy="56.6061" r="4" fill="#0" id="circle13"/>
	<circle cx="24.6667" cy="198.455" r="4" fill="#0" id="circle14"/>
	<circle cx="29.3636" cy="48.1515" r="4" fill="#0" id="circle15"/>
	<circle cx="29.3636" cy="206.909" r="4" fill="#0" id="circle16"/>
	<circle cx="35" cy="214.424" r="4" fill="#0" id="circle17"/>
	<circle cx="36.8788" cy="41.5758" r="4" fill="#0" id="circle18"/>
	<circle cx="41.5758" cy="221.939" r="4" fill="#0" id="circle19"/>
	<circle cx="44.3939" cy="35" r="4" fill="#0" id="circle20"/>
	<circle cx="48.1515" cy="229.455" r="4" fill="#0" id="circle21"/>
	<circle cx="51.9091" cy="29.3636" r="4" fill="#0" id="circle22"/>
	<circle cx="55.6667" cy="236.03" r="4" fill="#0" id="circle23"/>
	<circle cx="60.3636" cy="24.6667" r="4" fill="#0" id="circle24"/>
	<circle cx="63.1818" cy="242.606" r="4" fill="#0" id="circle25"/>
	<circle cx="68.8182" cy="19.9697" r="4" fill="#0" id="circle26"/>
	<circle cx="69.7576" cy="250.121" r="4" fill="#0" id="circle27"/>
	<circle cx="77.2727" cy="255.758" r="4" fill="#0" id="circle28"/>
	<circle cx="78.2121" cy="16.2121" r="4" fill="#0" id="circle29"/>
	<circle cx="84.7879" cy="261.394" r="4" fill="#0" id="circle30"/>
	<circle cx="87.6061" cy="12.4545" r="4" fill="#0" id="circle31"/>
	<circle cx="93.2424" cy="266.091" r="4" fill="#0" id="circle32"/>
	<circle cx="97" cy="9.63636" r="4" fill="#0" id="circle33"/>
	<circle cx="100.758" cy="271.727" r="4" fill="#0" id="circle34"/>
	<circle cx="106.394" cy="6.81818" r="4" fill="#0" id="circle35"/>
	<circle cx="108.273" cy="277.364" r="4" fill="#0" id="circle36"/>
	<circle cx="115.788" cy="5.87879" r="4" fill="#0" id="circle37"/>
	<circle cx="116.727" cy="282.061" r="4" fill="#0" id="circle38"/>
	<circle cx="125.182" cy="4.93939" r="4" fill="#0" id="circle39"/>
	<circle cx="125.182" cy="286.758" r="4" fill="#0" id="circle40"/>
	<circle cx="133.636" cy="291.455" r="4" fill="#0" id="circle41"/>
	<circle cx="134.576" cy="4" r="4" fill="#0" id="circle42"/>
	<circle cx="142.091" cy="296.152" r="4" fill="#0" id="circle43"/>
	<circle cx="143.97" cy="4.93939" r="4" fill="#0" id="circle44"/>
	<circle cx="151.485" cy="299.909" r="4" fill="#0" id="circle45"/>
	<circle cx="153.364" cy="4.93939" r="4" fill="#0" id="circle46"/>
	<circle cx="159.939" cy="304.606" r="4" fill="#0" id="circle47"/>
	<circle cx="162.758" cy="5.87879" r="4" fill="#0" id="circle48"/>
	<circle cx="168.394" cy="309.303" r="4" fill="#0" id="circle49"/>
	<circle cx="172.152" cy="7.75758" r="4" fill="#0" id="circle50"/>
	<circle cx="177.788" cy="312.121" r="4" fill="#0" id="circle51"/>
	<circle cx="181.545" cy="10.5758" r="4" fill="#0" id="circle52"/>
	<circle cx="187.182" cy="315.879" r="4" fill="#0" id="circle53"/>
	<circle cx="190.939" cy="11.5152" r="4" fill="#0" id="circle54"/>
	<circle cx="196.576" cy="318.697" r="4" fill="#0" id="circle55"/>
	<circle cx="200.333" cy="15.2727" r="4" fill="#0" id="circle56"/>
	<circle cx="205.97" cy="322.455" r="4" fill="#0" id="circle57"/>
	<circle cx="209.727" cy="19.0303" r="4" fill="#0" id="circle58"/>
	<circle cx="215.364" cy="325.273" r="4" fill="#0" id="circle59"/>
	<circle cx="219.121" cy="21.8485" r="4" fill="#0" id="circle60"/>
	<circle cx="224.758" cy="328.091" r="4" fill="#0" id="circle61"/>
	<circle cx="227.576" cy="26.5455" r="4" fill="#0" id="circle62"/>
	<circle cx="234.152" cy="330.909" r="4" fill="#0" id="circle63"/>
	<circle cx="236.97" cy="30.303" r="4" fill="#0" id="circle64"/>
	<circle cx="243.545" cy="333.727" r="4" fill="#0" id="circle65"/>
	<circle cx="245.424" cy="35" r="4" fill="#0" id="circle66"/>
	<circle cx="252.939" cy="335.606" r="4" fill="#0" id="circle67"/>
	<circle cx="253.879" cy="39.697" r="4" fill="#0" id="circle68"/>
	<circle cx="262.333" cy="44.3939" r="4" fill="#0" id="circle69"/>
	<circle cx="262.333" cy="336.545" r="4" fill="#0" id="circle70"/>
	<circle cx="269.848" cy="50.0303" r="4" fill="#0" id="circle71"/>
	<circle cx="271.727" cy="338.424" r="4" fill="#0" id="circle72"/>
	<circle cx="277.364" cy="55.6667" r="4" fill="#0" id="circle73"/>
	<circle cx="281.121" cy="340.303" r="4" fill="#0" id="circle74"/>
	<circle cx="284.879" cy="61.303" r="4" fill="#0" id="circle75"/>
	<circle cx="290.515" cy="341.242" r="4" fill="#0" id="circle76"/>
	<circle cx="292.394" cy="66.9394" r="4" fill="#0" id="circle77"/>
	<circle cx="299.909" cy="73.5152" r="4" fill="#0" id="circle78"/>
	<circle cx="299.909" cy="342.182" r="4" fill="#0" id="circle79"/>
	<circle cx="307.424" cy="79.1515" r="4" fill="#0" id="circle80"/>
	<circle cx="309.303" cy="342.182" r="4" fill="#0" id="circle81"/>
	<circle cx="314.939" cy="85.7273" r="4" fill="#0" id="circle82"/>
	<circle cx="318.697" cy="343.121" r="4" fill="#0" id="circle83"/>
	<circle cx="320.576" cy="93.2424" r="4" fill="#0" id="circle84"/>
	<circle cx="328.091" cy="98.8788" r="4" fill="#0" id="circle85"/>
	<circle cx="328.091" cy="343.121" r="4" fill="#0" id="circle86"/>
	<circle cx="335.606" cy="105.455" r="4" fill="#0" id="circle87"/>
	<circle cx="337.485" cy="344.061" r="4" fill="#0" id="circle88"/>
	<circle cx="342.182" cy="112.97" r="4" fill="#0" id="circle89"/>
	<circle cx="346.879" cy="345" r="4" fill="#0" id="circle90"/>
	<circle cx="348.758" cy="120.485" r="4" fill="#0" id="circle91"/>
	<circle cx="355.333" cy="128" r="4" fill="#0" id="circle92"/>
	<circle cx="356.273" cy="345" r="4" fill="#0" id="circle93"/>
	<circle cx="361.909" cy="135.515" r="4" fill="#0" id="circle94"/>
	<circle cx="365.667" cy="345.939" r="4" fill="#0" id="circle95"/>
	<circle cx="367.545" cy="143.03" r="4" fill="#0" id="circle96"/>
	<circle cx="374.121" cy="150.545" r="4" fill="#0" id="circle97"/>
	<circle cx="375.061" cy="345.939" r="4" fill="#0" id="circle98"/>
	<circle cx="379.758" cy="158.061" r="4" fill="#0" id="circle99"/>
	<circle cx="384.455" cy="346.879" r="4" fill="#0" id="circle100"/>
	<circle cx="385.394" cy="165.576" r="4" fill="#0" id="circle101"/>
	<circle cx="390.091" cy="174.03" r="4" fill="#0" id="circle102"/>
	<circle cx="393.848" cy="347.818" r="4" fill="#0" id="circle103"/>
	<circle cx="395.727" cy="181.545" r="4" fill="#0" id="circle104"/>
	<circle cx="401.364" cy="189.061" r="4" fill="#0" id="circle105"/>
	<circle cx="403.242" cy="348.758" r="4" fill="#0" id="circle106"/>
	<circle cx="405.121" cy="198.455" r="4" fill="#0" id="circle107"/>
	<circle cx="410.758" cy="205.97" r="4" fill="#0" id="circle108"/>
	<circle cx="412.636" cy="351.576" r="4" fill="#0" id="circle109"/>
	<circle cx="415.455" cy="214.424" r="4" fill="#0" id="circle110"/>
	<circle cx="419.212" cy="223.818" r="4" fill="#0" id="circle111"/>
	<circle cx="422.03" cy="353.455" r="4" fill="#0" id="circle112"/>
	<circle cx="424.848" cy="231.333" r="4" fill="#0" id="circle113"/>
	<circle cx="429.545" cy="239.788" r="4" fill="#0" id="circle114"/>
	<circle cx="431.424" cy="356.273" r="4" fill="#0" id="circle115"/>
	<circle cx="434.242" cy="248.242" r="4" fill="#0" id="circle116"/>
	<circle cx="438.939" cy="256.697" r="4" fill="#0" id="circle117"/>
	<circle cx="440.818" cy="359.091" r="4" fill="#0" id="circle118"/>
	<circle cx="444.576" cy="264.212" r="4" fill="#0" id="circle119"/>
	<circle cx="450.212" cy="271.727" r="4" fill="#0" id="circle120"/>
	<circle cx="450.212" cy="362.848" r="4" fill="#0" id="circle121"/>
	<circle cx="454.909" cy="280.182" r="4" fill="#0" id="circle122"/>
	<circle cx="458.667" cy="367.545" r="4" fill="#0" id="circle123"/>
	<circle cx="461.485" cy="287.697" r="4" fill="#0" id="circle124"/>
	<circle cx="467.121" cy="295.212" r="4" fill="#0" id="circle125"/>
	<circle cx="467.121" cy="372.242" r="4" fill="#0" id="circle126"/>
	<circle cx="474.636" cy="301.788" r="4" fill="#0" id="circle127"/>
	<circle cx="474.636" cy="377.879" r="4" fill="#0" id="circle128"/>
	<circle cx="482.152" cy="308.364" r="4" fill="#0" id="circle129"/>
	<circle cx="484.03" cy="381.636" r="4" fill="#0" id="circle130"/>
	<circle cx="489.667" cy="314.939" r="4" fill="#0" id="circle131"/>
	<circle cx="491.545" cy="387.273" r="4" fill="#0" id="circle132"/>
	<circle cx="497.182" cy="320.576" r="4" fill="#0" id="circle133"/>
	<circle cx="500" cy="391.97" r="4" fill="#0" id="circle134"/>
	<circle cx="505.636" cy="325.273" r="4" fill="#0" id="circle135"/>
	<circle cx="508.455" cy="396.667" r="4" fill="#0" id="circle136"/>
	<circle cx="513.152" cy="330.909" r="4" fill="#0" id="circle137"/>
	<circle cx="515.97" cy="402.303" r="4" fill="#0" id="circle138"/>
	<circle cx="521.606" cy="335.606" r="4" fill="#0" id="circle139"/>
	<circle cx="524.424" cy="407" r="4" fill="#0" id="circle140"/>
	<circle cx="530.061" cy="340.303" r="4" fill="#0" id="circle141"/>
	<circle cx="532.879" cy="411.697" r="4" fill="#0" id="circle142"/>
	<circle cx="537.576" cy="345.939" r="4" fill="#0" id="circle143"/>
	<circle cx="540.394" cy="417.333" r="4" fill="#0" id="circle144"/>
	<circle cx="546.03" cy="350.636" r="4" fill="#0" id="circle145"/>
	<circle cx="548.848" cy="422.03" r="4" fill="#0" id="circle146"/>
	<circle cx="553.545" cy="356.273" r="4" fill="#0" id="circle147"/>
	<circle cx="557.303" cy="426.727" r="4" fill="#0" id="circle148"/>
	<circle cx="562.939" cy="360.03" r="4" fill="#0" id="circle149"/>
	<circle cx="564.818" cy="432.364" r="4" fill="#0" id="circle150"/>
	<circle cx="570.455" cy="366.606" r="4" fill="#0" id="circle151"/>
	<circle cx="572.333" cy="438" r="4" fill="#0" id="circle152"/>
	<circle cx="578.909" cy="371.303" r="4" fill="#0" id="circle153"/>
	<circle cx="580.788" cy="442.697" r="4" fill="#0" id="circle154"/>
	<circle cx="587.364" cy="376" r="4" fill="#0" id="circle155"/>
	<circle cx="589.242" cy="447.394" r="4" fill="#0" id="circle156"/>
	<circle cx="594.879" cy="381.636" r="4" fill="#0" id="circle157"/>
	<circle cx="597.697" cy="452.091" r="4" fill="#0" id="circle158"/>
	<circle cx="603.333" cy="386.333" r="4" fill="#0" id="circle159"/>
	<circle cx="605.212" cy="457.727" r="4" fill="#0" id="circle160"/>
	<circle cx="611.788" cy="391.03" r="4" fill="#0" id="circle161"/>
	<circle cx="613.667" cy="462.424" r="4" fill="#0" id="circle162"/>
	<circle cx="619.303" cy="396.667" r="4" fill="#0" id="circle163"/>
	<circle cx="622.121" cy="467.121" r="4" fill="#0" id="circle164"/>
	<circle cx="627.758" cy="401.364" r="4" fill="#0" id="circle165"/>
	<circle cx="630.576" cy="471.818" r="4" fill="#0" id="circle166"/>
	<circle cx="635.273" cy="407" r="4" fill="#0" id="circle167"/>
	<circle cx="638.091" cy="477.455" r="4" fill="#0" id="circle168"/>
	<circle cx="643.727" cy="411.697" r="4" fill="#0" id="circle169"/>
	<circle cx="646.545" cy="482.152" r="4" fill="#0" id="circle170"/>
	<circle cx="651.242" cy="417.333" r="4" fill="#0" id="circle171"/>
	<circle cx="654.061" cy="487.788" r="4" fill="#0" id="circle172"/>
	<circle cx="659.697" cy="422.03" r="4" fill="#0" id="circle173"/>
	<circle cx="662.515" cy="492.485" r="4" fill="#0" id="circle174"/>
	<circle cx="668.152" cy="426.727" r="4" fill="#0" id="circle175"/>
	<circle cx="670.03" cy="498.121" r="4" fill="#0" id="circle176"/>
	<circle cx="675.667" cy="432.364" r="4" fill="#0" id="circle177"/>
	<circle cx="678.485" cy="502.818" r="4" fill="#0" id="circle178"/>
	<circle cx="684.121" cy="437.061" r="4" fill="#0" id="circle179"/>
	<circle cx="686" cy="508.455" r="4" fill="#0" id="circle180"/>
	<circle cx="691.636" cy="442.697" r="4" fill="#0" id="circle181"/>
	<circle cx="694.455" cy="513.152" r="4" fill="#0" id="circle182"/>
	<circle cx="700.091" cy="447.394" r="4" fill="#0" id="circle183"/>
	<circle cx="702.909" cy="517.848" r="4" fill="#0" id="circle184"/>
	<circle cx="707.606" cy="453.03" r="4" fill="#0" id="circle185"/>
	<circle cx="711.364" cy="522.545" r="4" fill="#0" id="circle186"/>
	<circle cx="716.061" cy="457.727" r="4" fill="#0" id="circle187"/>
	<circle cx="718.879" cy="528.182" r="4" fill="#0" id="circle188"/>
	<circle cx="724.515" cy="462.424" r="4" fill="#0" id="circle189"/>
	<circle cx="727.333" cy="532.879" r="4" fill="#0" id="circle190"/>
	<circle cx="732.03" cy="468.061" r="4" fill="#0" id="circle191"/>
	<circle cx="734.848" cy="538.515" r="4" fill="#0" id="circle192"/>
	<circle cx="740.485" cy="472.758" r="4" fill="#0" id="circle193"/>
	<circle cx="743.303" cy="543.212" r="4" fill="#0" id="circle194"/>
	<circle cx="748" cy="478.394" r="4" fill="#0" id="circle195"/>
	<circle cx="750.818" cy="548.848" r="4" fill="#0" id="circle196"/>
	<circle cx="756.455" cy="483.091" r="4" fill="#0" id="circle197"/>
	<circle cx="759.273" cy="553.545" r="4" fill="#0" id="circle198"/>
	<circle cx="764.909" cy="487.788" r="4" fill="#0" id="circle199"/>
	<circle cx="767.727" cy="558.242" r="4" fill="#0" id="circle200"/>
	<circle cx="772.424" cy="493.424" r="4" fill="#0" id="circle201"/>
	<circle cx="776.182" cy="562.939" r="4" fill="#0" id="circle202"/>
	<circle cx="780.879" cy="498.121" r="4" fill="#0" id="circle203"/>
	<circle cx="783.697" cy="569.515" r="4" fill="#0" id="circle204"/>
	<circle cx="788.394" cy="503.758" r="4" fill="#0" id="circle205"/>
	<circle cx="792.152" cy="574.212" r="4" fill="#0" id="circle206"/>
	<circle cx="796.848" cy="508.455" r="4" fill="#0" id="circle207"/>
	<circle cx="800.606" cy="578.909" r="4" fill="#0" id="circle208"/>
	<circle cx="804.364" cy="514.091" r="4" fill="#0" id="circle209"/>
	<circle cx="808.121" cy="584.545" r="4" fill="#0" id="circle210"/>
	<circle cx="812.818" cy="518.788" r="4" fill="#0" id="circle211"/>
	<circle cx="815.636" cy="590.182" r="4" fill="#0" id="circle212"/>
	<circle cx="821.273" cy="523.485" r="4" fill="#0" id="circle213"/>
	<circle cx="824.091" cy="594.879" r="4" fill="#0" id="circle214"/>
	<circle cx="828.788" cy="529.121" r="4" fill="#0" id="circle215"/>
	<circle cx="832.545" cy="599.576" r="4" fill="#0" id="circle216"/>
	<circle cx="837.242" cy="533.818" r="4" fill="#0" id="circle217"/>
	<circle cx="840.061" cy="605.212" r="4" fill="#0" id="circle218"/>
	<circle cx="845.697" cy="538.515" r="4" fill="#0" id="circle219"/>
	<circle cx="848.515" cy="609.909" r="4" fill="#0" id="circle220"/>
	<circle cx="853.212" cy="544.152" r="4" fill="#0" id="circle221"/>
	<circle cx="856.97" cy="614.606" r="4" fill="#0" id="circle222"/>
	<circle cx="860.727" cy="549.788" r="4" fill="#0" id="circle223"/>
	<circle cx="864.485" cy="620.242" r="4" fill="#0" id="circle224"/>
	<circle cx="869.182" cy="554.485" r="4" fill="#0" id="circle225"/>
	<circle cx="872.939" cy="624.939" r="4" fill="#0" id="circle226"/>
	<circle cx="876.697" cy="560.121" r="4" fill="#0" id="circle227"/>
	<circle cx="881.394" cy="629.636" r="4" fill="#0" id="circle228"/>
	<circle cx="885.152" cy="564.818" r="4" fill="#0" id="circle229"/>
	<circle cx="888.909" cy="635.273" r="4" fill="#0" id="circle230"/>
	<circle cx="892.667" cy="570.455" r="4" fill="#0" id="circle231"/>
	<circle cx="896.424" cy="640.909" r="4" fill="#0" id="circle232"/>
	<circle cx="901.121" cy="575.152" r="4" fill="#0" id="circle233"/>
	<circle cx="904.879" cy="645.606" r="4" fill="#0" id="circle234"/>
	<circle cx="909.576" cy="579.848" r="4" fill="#0" id="circle235"/>
	<circle cx="913.333" cy="650.303" r="4" fill="#0" id="circle236"/>
	<circle cx="917.091" cy="585.485" r="4" fill="#0" id="circle237"/>
	<circle cx="920.848" cy="655.939" r="4" fill="#0" id="circle238"/>
	<circle cx="925.545" cy="590.182" r="4" fill="#0" id="circle239"/>
	<circle cx="929.303" cy="660.636" r="4" fill="#0" id="circle240"/>
	<circle cx="933.061" cy="595.818" r="4" fill="#0" id="circle241"/>
	<circle cx="936.818" cy="666.273" r="4" fill="#0" id="circle242"/>
	<circle cx="942.455" cy="597.697" r="4" fill="#0" id="circle243"/>
	<circle cx="944.333" cy="672.848" r="4" fill="#0" id="circle244"/>
	<circle cx="951.848" cy="600.515" r="4" fill="#0" id="circle245"/>
	<circle cx="953.727" cy="676.606" r="4" fill="#0" id="circle246"/>
	<circle cx="955.606" cy="609.909" r="4" fill="#0" id="circle247"/>
	<circle cx="961.242" cy="602.394" r="4" fill="#0" id="circle248"/>
	<circle cx="963.121" cy="680.364" r="4" fill="#0" id="circle249"/>
	<circle cx="964.061" cy="614.606" r="4" fill="#0" id="circle250"/>
	<circle cx="970.636" cy="605.212" r="4" fill="#0" id="circle251"/>
	<circle cx="971.576" cy="620.242" r="4" fill="#0" id="circle252"/>
	<circle cx="972.515" cy="679.424" r="4" fill="#0" id="circle253"/>
	<circle cx="979.091" cy="609.909" r="4" fill="#0" id="circle254"/>
	<circle cx="980.03" cy="624.939" r="4" fill="#0" id="circle255"/>
	<circle cx="981.909" cy="675.667" r="4" fill="#0" id="circle256"/>
	<circle cx="987.545" cy="630.576" r="4" fill="#0" id="circle257"/>
	<circle cx="988.485" cy="608.97" r="4" fill="#0" id="circle258"/>
	<circle cx="991.303" cy="670.97" r="4" fill="#0" id="circle259"/>
	<circle cx="994.121" cy="638.091" r="4" fill="#0" id="circle260"/>
	<circle cx="996" cy="647.485" r="4" fill="#0" id="circle261"/>
	<circle cx="996" cy="659.697" r="4" fill="#0" id="circle262"/>
	</g>
</svg>