<?xml version="1.0" encoding="UTF-8" standalone="no"?>
<!-- Created with CurveBenchmark -->
<svg
	xmlns:dc="http://purl.org/dc/elements/1.1/"
	xmlns:cc="http://creativecommons.org/ns#"
	xmlns:rdf="http://www.w3.org/1999/02/22-rdf-syntax-ns#"
	xmlns:svg="http://www.w3.org/2000/svg"
	xmlns="http://www.w3.org/2000/svg"
	xmlns:sodipodi="http://sodipodi.sourceforge.net/DTD/sodipodi-0.dtd"
	xmlns:inkscape="http://www.inkscape.org/namespaces/inkscape"
	width="1000"
	height="1000"
	id="svg2"
	version="1.1"
	sodipodi:docname="manifold/ccrust-pencil-14.png.txt">
<defs
	id="defs4" />
<metadata
	id="metadata7">
	<rdf:RDF>
		<cc:Work
			rdf:about="">
			<dc:format>image/svg+xml</dc:format>
			<dc:type
				rdf:resource="http://purl.org/dc/dcmitype/StillImage" />
			<dc:title></dc:title>
		</cc:Work>
	</rdf:RDF>
</metadata>
<g
	inkscape:label="Layer 1"
	inkscape:groupmode="layer"
	id="layer1">
	<path style="fill:none;stroke:red;stroke-width:1px;stroke-linecap:butt;stroke-linejoin:miter;stroke-opacity:1" d="M 30.1388,8.46272 36.5141,5.27506 z" id="boundary" inkscape:connector-curvature="0" />
	<path style="fill:none;stroke:red;stroke-width:1px;stroke-linecap:butt;stroke-linejoin:miter;stroke-opacity:1" d="M 49.2648,4 55.6401,4 z" id="boundary" inkscape:connector-curvature="0" />
	<path style="fill:none;stroke:red;stroke-width:1px;stroke-linecap:butt;stroke-linejoin:miter;stroke-opacity:1" d="M 55.6401,4 62.0154,5.9126 z" id="boundary" inkscape:connector-curvature="0" />
	<path style="fill:none;stroke:red;stroke-width:1px;stroke-linecap:butt;stroke-linejoin:miter;stroke-opacity:1" d="M 36.5141,5.27506 42.8895,4 z" id="boundary" inkscape:connector-curvature="0" />
	<path style="fill:none;stroke:red;stroke-width:1px;stroke-linecap:butt;stroke-linejoin:miter;stroke-opacity:1" d="M 42.8895,4 49.2648,4 z" id="boundary" inkscape:connector-curvature="0" />
	<path style="fill:none;stroke:red;stroke-width:1px;stroke-linecap:butt;stroke-linejoin:miter;stroke-opacity:1" d="M 62.0154,5.9126 68.3907,7.18766 z" id="boundary" inkscape:connector-curvature="0" />
	<path style="fill:none;stroke:red;stroke-width:1px;stroke-linecap:butt;stroke-linejoin:miter;stroke-opacity:1" d="M 68.3907,7.18766 74.7661,7.18766 z" id="boundary" inkscape:connector-curvature="0" />
	<path style="fill:none;stroke:red;stroke-width:1px;stroke-linecap:butt;stroke-linejoin:miter;stroke-opacity:1" d="M 81.1414,7.18766 74.7661,7.18766 z" id="boundary" inkscape:connector-curvature="0" />
	<path style="fill:none;stroke:red;stroke-width:1px;stroke-linecap:butt;stroke-linejoin:miter;stroke-opacity:1" d="M 87.5167,7.18766 81.1414,7.18766 z" id="boundary" inkscape:connector-curvature="0" />
	<path style="fill:none;stroke:red;stroke-width:1px;stroke-linecap:butt;stroke-linejoin:miter;stroke-opacity:1" d="M 93.892,7.18766 87.5167,7.18766 z" id="boundary" inkscape:connector-curvature="0" />
	<path style="fill:none;stroke:red;stroke-width:1px;stroke-linecap:butt;stroke-linejoin:miter;stroke-opacity:1" d="M 100.267,7.18766 93.892,7.18766 z" id="boundary" inkscape:connector-curvature="0" />
	<path style="fill:none;stroke:red;stroke-width:1px;stroke-linecap:butt;stroke-linejoin:miter;stroke-opacity:1" d="M 106.643,7.18766 113.018,7.18766 z" id="boundary" inkscape:connector-curvature="0" />
	<path style="fill:none;stroke:red;stroke-width:1px;stroke-linecap:butt;stroke-linejoin:miter;stroke-opacity:1" d="M 119.393,7.18766 113.018,7.18766 z" id="boundary" inkscape:connector-curvature="0" />
	<path style="fill:none;stroke:red;stroke-width:1px;stroke-linecap:butt;stroke-linejoin:miter;stroke-opacity:1" d="M 119.393,7.18766 125.131,10.3753 z" id="boundary" inkscape:connector-curvature="0" />
	<path style="fill:none;stroke:red;stroke-width:1px;stroke-linecap:butt;stroke-linejoin:miter;stroke-opacity:1" d="M 106.643,7.18766 100.267,7.18766 z" id="boundary" inkscape:connector-curvature="0" />
	<path style="fill:none;stroke:red;stroke-width:1px;stroke-linecap:butt;stroke-linejoin:miter;stroke-opacity:1" d="M 131.506,10.3753 125.131,10.3753 z" id="boundary" inkscape:connector-curvature="0" />
	<path style="fill:none;stroke:red;stroke-width:1px;stroke-linecap:butt;stroke-linejoin:miter;stroke-opacity:1" d="M 131.506,10.3753 137.882,10.3753 z" id="boundary" inkscape:connector-curvature="0" />
	<path style="fill:none;stroke:red;stroke-width:1px;stroke-linecap:butt;stroke-linejoin:miter;stroke-opacity:1" d="M 144.257,10.3753 137.882,10.3753 z" id="boundary" inkscape:connector-curvature="0" />
	<path style="fill:none;stroke:red;stroke-width:1px;stroke-linecap:butt;stroke-linejoin:miter;stroke-opacity:1" d="M 150.632,10.3753 144.257,10.3753 z" id="boundary" inkscape:connector-curvature="0" />
	<path style="fill:none;stroke:red;stroke-width:1px;stroke-linecap:butt;stroke-linejoin:miter;stroke-opacity:1" d="M 157.008,10.3753 150.632,10.3753 z" id="boundary" inkscape:connector-curvature="0" />
	<path style="fill:none;stroke:red;stroke-width:1px;stroke-linecap:butt;stroke-linejoin:miter;stroke-opacity:1" d="M 10.3753,40.9769 13.563,31.4139 z" id="boundary" inkscape:connector-curvature="0" />
	<path style="fill:none;stroke:red;stroke-width:1px;stroke-linecap:butt;stroke-linejoin:miter;stroke-opacity:1" d="M 25.0386,13.563 21.8509,19.9383 z" id="boundary" inkscape:connector-curvature="0" />
	<path style="fill:none;stroke:red;stroke-width:1px;stroke-linecap:butt;stroke-linejoin:miter;stroke-opacity:1" d="M 21.8509,19.9383 16.7506,25.0386 z" id="boundary" inkscape:connector-curvature="0" />
	<path style="fill:none;stroke:red;stroke-width:1px;stroke-linecap:butt;stroke-linejoin:miter;stroke-opacity:1" d="M 13.563,31.4139 16.7506,25.0386 z" id="boundary" inkscape:connector-curvature="0" />
	<path style="fill:none;stroke:red;stroke-width:1px;stroke-linecap:butt;stroke-linejoin:miter;stroke-opacity:1" d="M 4,72.8535 4,66.4781 z" id="boundary" inkscape:connector-curvature="0" />
	<path style="fill:none;stroke:red;stroke-width:1px;stroke-linecap:butt;stroke-linejoin:miter;stroke-opacity:1" d="M 4,66.4781 7.18766,56.9152 z" id="boundary" inkscape:connector-curvature="0" />
	<path style="fill:none;stroke:red;stroke-width:1px;stroke-linecap:butt;stroke-linejoin:miter;stroke-opacity:1" d="M 4,79.2288 4,72.8535 z" id="boundary" inkscape:connector-curvature="0" />
	<path style="fill:none;stroke:red;stroke-width:1px;stroke-linecap:butt;stroke-linejoin:miter;stroke-opacity:1" d="M 7.18766,50.5398 7.18766,56.9152 z" id="boundary" inkscape:connector-curvature="0" />
	<path style="fill:none;stroke:red;stroke-width:1px;stroke-linecap:butt;stroke-linejoin:miter;stroke-opacity:1" d="M 7.18766,50.5398 10.3753,40.9769 z" id="boundary" inkscape:connector-curvature="0" />
	<path style="fill:none;stroke:red;stroke-width:1px;stroke-linecap:butt;stroke-linejoin:miter;stroke-opacity:1" d="M 25.0386,13.563 30.1388,8.46272 z" id="boundary" inkscape:connector-curvature="0" />
	<path style="fill:none;stroke:red;stroke-width:1px;stroke-linecap:butt;stroke-linejoin:miter;stroke-opacity:1" d="M 157.008,10.3753 163.383,10.3753 z" id="boundary" inkscape:connector-curvature="0" />
	<path style="fill:none;stroke:red;stroke-width:1px;stroke-linecap:butt;stroke-linejoin:miter;stroke-opacity:1" d="M 181.871,13.563 175.496,13.563 z" id="boundary" inkscape:connector-curvature="0" />
	<path style="fill:none;stroke:red;stroke-width:1px;stroke-linecap:butt;stroke-linejoin:miter;stroke-opacity:1" d="M 175.496,13.563 169.758,10.3753 z" id="boundary" inkscape:connector-curvature="0" />
	<path style="fill:none;stroke:red;stroke-width:1px;stroke-linecap:butt;stroke-linejoin:miter;stroke-opacity:1" d="M 188.247,13.563 181.871,13.563 z" id="boundary" inkscape:connector-curvature="0" />
	<path style="fill:none;stroke:red;stroke-width:1px;stroke-linecap:butt;stroke-linejoin:miter;stroke-opacity:1" d="M 163.383,10.3753 169.758,10.3753 z" id="boundary" inkscape:connector-curvature="0" />
	<path style="fill:none;stroke:red;stroke-width:1px;stroke-linecap:butt;stroke-linejoin:miter;stroke-opacity:1" d="M 188.247,13.563 194.622,13.563 z" id="boundary" inkscape:connector-curvature="0" />
	<path style="fill:none;stroke:red;stroke-width:1px;stroke-linecap:butt;stroke-linejoin:miter;stroke-opacity:1" d="M 200.997,13.563 194.622,13.563 z" id="boundary" inkscape:connector-curvature="0" />
	<path style="fill:none;stroke:red;stroke-width:1px;stroke-linecap:butt;stroke-linejoin:miter;stroke-opacity:1" d="M 207.373,13.563 213.748,13.563 z" id="boundary" inkscape:connector-curvature="0" />
	<path style="fill:none;stroke:red;stroke-width:1px;stroke-linecap:butt;stroke-linejoin:miter;stroke-opacity:1" d="M 220.123,14.2005 213.748,13.563 z" id="boundary" inkscape:connector-curvature="0" />
	<path style="fill:none;stroke:red;stroke-width:1px;stroke-linecap:butt;stroke-linejoin:miter;stroke-opacity:1" d="M 200.997,13.563 207.373,13.563 z" id="boundary" inkscape:connector-curvature="0" />
	<path style="fill:none;stroke:red;stroke-width:1px;stroke-linecap:butt;stroke-linejoin:miter;stroke-opacity:1" d="M 220.123,14.2005 226.499,16.7506 z" id="boundary" inkscape:connector-curvature="0" />
	<path style="fill:none;stroke:red;stroke-width:1px;stroke-linecap:butt;stroke-linejoin:miter;stroke-opacity:1" d="M 226.499,16.7506 232.874,16.7506 z" id="boundary" inkscape:connector-curvature="0" />
	<path style="fill:none;stroke:red;stroke-width:1px;stroke-linecap:butt;stroke-linejoin:miter;stroke-opacity:1" d="M 239.249,16.7506 245.625,16.7506 z" id="boundary" inkscape:connector-curvature="0" />
	<path style="fill:none;stroke:red;stroke-width:1px;stroke-linecap:butt;stroke-linejoin:miter;stroke-opacity:1" d="M 252,16.7506 245.625,16.7506 z" id="boundary" inkscape:connector-curvature="0" />
	<path style="fill:none;stroke:red;stroke-width:1px;stroke-linecap:butt;stroke-linejoin:miter;stroke-opacity:1" d="M 239.249,16.7506 232.874,16.7506 z" id="boundary" inkscape:connector-curvature="0" />
	<path style="fill:none;stroke:red;stroke-width:1px;stroke-linecap:butt;stroke-linejoin:miter;stroke-opacity:1" d="M 258.375,16.7506 264.751,16.7506 z" id="boundary" inkscape:connector-curvature="0" />
	<path style="fill:none;stroke:red;stroke-width:1px;stroke-linecap:butt;stroke-linejoin:miter;stroke-opacity:1" d="M 271.126,16.7506 277.501,16.7506 z" id="boundary" inkscape:connector-curvature="0" />
	<path style="fill:none;stroke:red;stroke-width:1px;stroke-linecap:butt;stroke-linejoin:miter;stroke-opacity:1" d="M 277.501,16.7506 283.239,19.9383 z" id="boundary" inkscape:connector-curvature="0" />
	<path style="fill:none;stroke:red;stroke-width:1px;stroke-linecap:butt;stroke-linejoin:miter;stroke-opacity:1" d="M 289.614,19.9383 283.239,19.9383 z" id="boundary" inkscape:connector-curvature="0" />
	<path style="fill:none;stroke:red;stroke-width:1px;stroke-linecap:butt;stroke-linejoin:miter;stroke-opacity:1" d="M 264.751,16.7506 271.126,16.7506 z" id="boundary" inkscape:connector-curvature="0" />
	<path style="fill:none;stroke:red;stroke-width:1px;stroke-linecap:butt;stroke-linejoin:miter;stroke-opacity:1" d="M 252,16.7506 258.375,16.7506 z" id="boundary" inkscape:connector-curvature="0" />
	<path style="fill:none;stroke:red;stroke-width:1px;stroke-linecap:butt;stroke-linejoin:miter;stroke-opacity:1" d="M 289.614,19.9383 295.99,19.9383 z" id="boundary" inkscape:connector-curvature="0" />
	<path style="fill:none;stroke:red;stroke-width:1px;stroke-linecap:butt;stroke-linejoin:miter;stroke-opacity:1" d="M 302.365,19.9383 308.74,19.9383 z" id="boundary" inkscape:connector-curvature="0" />
	<path style="fill:none;stroke:red;stroke-width:1px;stroke-linecap:butt;stroke-linejoin:miter;stroke-opacity:1" d="M 315.116,19.9383 308.74,19.9383 z" id="boundary" inkscape:connector-curvature="0" />
	<path style="fill:none;stroke:red;stroke-width:1px;stroke-linecap:butt;stroke-linejoin:miter;stroke-opacity:1" d="M 302.365,19.9383 295.99,19.9383 z" id="boundary" inkscape:connector-curvature="0" />
	<path style="fill:none;stroke:red;stroke-width:1px;stroke-linecap:butt;stroke-linejoin:miter;stroke-opacity:1" d="M 321.491,19.9383 327.866,19.9383 z" id="boundary" inkscape:connector-curvature="0" />
	<path style="fill:none;stroke:red;stroke-width:1px;stroke-linecap:butt;stroke-linejoin:miter;stroke-opacity:1" d="M 346.355,23.126 339.979,23.126 z" id="boundary" inkscape:connector-curvature="0" />
	<path style="fill:none;stroke:red;stroke-width:1px;stroke-linecap:butt;stroke-linejoin:miter;stroke-opacity:1" d="M 339.979,23.126 334.242,19.9383 z" id="boundary" inkscape:connector-curvature="0" />
	<path style="fill:none;stroke:red;stroke-width:1px;stroke-linecap:butt;stroke-linejoin:miter;stroke-opacity:1" d="M 352.73,23.126 346.355,23.126 z" id="boundary" inkscape:connector-curvature="0" />
	<path style="fill:none;stroke:red;stroke-width:1px;stroke-linecap:butt;stroke-linejoin:miter;stroke-opacity:1" d="M 327.866,19.9383 334.242,19.9383 z" id="boundary" inkscape:connector-curvature="0" />
	<path style="fill:none;stroke:red;stroke-width:1px;stroke-linecap:butt;stroke-linejoin:miter;stroke-opacity:1" d="M 315.116,19.9383 321.491,19.9383 z" id="boundary" inkscape:connector-curvature="0" />
	<path style="fill:none;stroke:red;stroke-width:1px;stroke-linecap:butt;stroke-linejoin:miter;stroke-opacity:1" d="M 352.73,23.126 359.105,23.126 z" id="boundary" inkscape:connector-curvature="0" />
	<path style="fill:none;stroke:red;stroke-width:1px;stroke-linecap:butt;stroke-linejoin:miter;stroke-opacity:1" d="M 365.481,23.126 371.856,23.126 z" id="boundary" inkscape:connector-curvature="0" />
	<path style="fill:none;stroke:red;stroke-width:1px;stroke-linecap:butt;stroke-linejoin:miter;stroke-opacity:1" d="M 378.231,23.126 371.856,23.126 z" id="boundary" inkscape:connector-curvature="0" />
	<path style="fill:none;stroke:red;stroke-width:1px;stroke-linecap:butt;stroke-linejoin:miter;stroke-opacity:1" d="M 378.231,23.126 383.969,26.3136 z" id="boundary" inkscape:connector-curvature="0" />
	<path style="fill:none;stroke:red;stroke-width:1px;stroke-linecap:butt;stroke-linejoin:miter;stroke-opacity:1" d="M 365.481,23.126 359.105,23.126 z" id="boundary" inkscape:connector-curvature="0" />
	<path style="fill:none;stroke:red;stroke-width:1px;stroke-linecap:butt;stroke-linejoin:miter;stroke-opacity:1" d="M 383.969,26.3136 390.344,26.3136 z" id="boundary" inkscape:connector-curvature="0" />
	<path style="fill:none;stroke:red;stroke-width:1px;stroke-linecap:butt;stroke-linejoin:miter;stroke-opacity:1" d="M 390.344,26.3136 396.72,28.2262 z" id="boundary" inkscape:connector-curvature="0" />
	<path style="fill:none;stroke:red;stroke-width:1px;stroke-linecap:butt;stroke-linejoin:miter;stroke-opacity:1" d="M 409.47,29.5013 403.095,29.5013 z" id="boundary" inkscape:connector-curvature="0" />
	<path style="fill:none;stroke:red;stroke-width:1px;stroke-linecap:butt;stroke-linejoin:miter;stroke-opacity:1" d="M 403.095,29.5013 396.72,28.2262 z" id="boundary" inkscape:connector-curvature="0" />
	<path style="fill:none;stroke:red;stroke-width:1px;stroke-linecap:butt;stroke-linejoin:miter;stroke-opacity:1" d="M 415.846,29.5013 409.47,29.5013 z" id="boundary" inkscape:connector-curvature="0" />
	<path style="fill:none;stroke:red;stroke-width:1px;stroke-linecap:butt;stroke-linejoin:miter;stroke-opacity:1" d="M 415.846,29.5013 421.584,32.6889 z" id="boundary" inkscape:connector-curvature="0" />
	<path style="fill:none;stroke:red;stroke-width:1px;stroke-linecap:butt;stroke-linejoin:miter;stroke-opacity:1" d="M 427.959,32.6889 421.584,32.6889 z" id="boundary" inkscape:connector-curvature="0" />
	<path style="fill:none;stroke:red;stroke-width:1px;stroke-linecap:butt;stroke-linejoin:miter;stroke-opacity:1" d="M 427.959,32.6889 434.334,32.6889 z" id="boundary" inkscape:connector-curvature="0" />
	<path style="fill:none;stroke:red;stroke-width:1px;stroke-linecap:butt;stroke-linejoin:miter;stroke-opacity:1" d="M 440.71,32.6889 434.334,32.6889 z" id="boundary" inkscape:connector-curvature="0" />
	<path style="fill:none;stroke:red;stroke-width:1px;stroke-linecap:butt;stroke-linejoin:miter;stroke-opacity:1" d="M 447.085,32.6889 440.71,32.6889 z" id="boundary" inkscape:connector-curvature="0" />
	<path style="fill:none;stroke:red;stroke-width:1px;stroke-linecap:butt;stroke-linejoin:miter;stroke-opacity:1" d="M 453.46,33.964 459.835,35.8766 z" id="boundary" inkscape:connector-curvature="0" />
	<path style="fill:none;stroke:red;stroke-width:1px;stroke-linecap:butt;stroke-linejoin:miter;stroke-opacity:1" d="M 453.46,33.964 447.085,32.6889 z" id="boundary" inkscape:connector-curvature="0" />
	<path style="fill:none;stroke:red;stroke-width:1px;stroke-linecap:butt;stroke-linejoin:miter;stroke-opacity:1" d="M 466.211,35.8766 459.835,35.8766 z" id="boundary" inkscape:connector-curvature="0" />
	<path style="fill:none;stroke:red;stroke-width:1px;stroke-linecap:butt;stroke-linejoin:miter;stroke-opacity:1" d="M 472.586,35.8766 466.211,35.8766 z" id="boundary" inkscape:connector-curvature="0" />
	<path style="fill:none;stroke:red;stroke-width:1px;stroke-linecap:butt;stroke-linejoin:miter;stroke-opacity:1" d="M 478.961,35.8766 472.586,35.8766 z" id="boundary" inkscape:connector-curvature="0" />
	<path style="fill:none;stroke:red;stroke-width:1px;stroke-linecap:butt;stroke-linejoin:miter;stroke-opacity:1" d="M 485.337,35.8766 478.961,35.8766 z" id="boundary" inkscape:connector-curvature="0" />
	<path style="fill:none;stroke:red;stroke-width:1px;stroke-linecap:butt;stroke-linejoin:miter;stroke-opacity:1" d="M 4,98.3548 4,91.9794 z" id="boundary" inkscape:connector-curvature="0" />
	<path style="fill:none;stroke:red;stroke-width:1px;stroke-linecap:butt;stroke-linejoin:miter;stroke-opacity:1" d="M 4,104.73 4,98.3548 z" id="boundary" inkscape:connector-curvature="0" />
	<path style="fill:none;stroke:red;stroke-width:1px;stroke-linecap:butt;stroke-linejoin:miter;stroke-opacity:1" d="M 4,111.105 4,104.73 z" id="boundary" inkscape:connector-curvature="0" />
	<path style="fill:none;stroke:red;stroke-width:1px;stroke-linecap:butt;stroke-linejoin:miter;stroke-opacity:1" d="M 7.18766,116.843 4,111.105 z" id="boundary" inkscape:connector-curvature="0" />
	<path style="fill:none;stroke:red;stroke-width:1px;stroke-linecap:butt;stroke-linejoin:miter;stroke-opacity:1" d="M 7.18766,116.843 7.18766,123.219 z" id="boundary" inkscape:connector-curvature="0" />
	<path style="fill:none;stroke:red;stroke-width:1px;stroke-linecap:butt;stroke-linejoin:miter;stroke-opacity:1" d="M 10.3753,128.956 7.18766,123.219 z" id="boundary" inkscape:connector-curvature="0" />
	<path style="fill:none;stroke:red;stroke-width:1px;stroke-linecap:butt;stroke-linejoin:miter;stroke-opacity:1" d="M 14.2005,134.057 10.3753,128.956 z" id="boundary" inkscape:connector-curvature="0" />
	<path style="fill:none;stroke:red;stroke-width:1px;stroke-linecap:butt;stroke-linejoin:miter;stroke-opacity:1" d="M 19.3008,138.519 14.2005,134.057 z" id="boundary" inkscape:connector-curvature="0" />
	<path style="fill:none;stroke:red;stroke-width:1px;stroke-linecap:butt;stroke-linejoin:miter;stroke-opacity:1" d="M 25.0386,141.707 19.3008,138.519 z" id="boundary" inkscape:connector-curvature="0" />
	<path style="fill:none;stroke:red;stroke-width:1px;stroke-linecap:butt;stroke-linejoin:miter;stroke-opacity:1" d="M 4,91.9794 4,85.6041 z" id="boundary" inkscape:connector-curvature="0" />
	<path style="fill:none;stroke:red;stroke-width:1px;stroke-linecap:butt;stroke-linejoin:miter;stroke-opacity:1" d="M 30.7763,144.895 25.0386,141.707 z" id="boundary" inkscape:connector-curvature="0" />
	<path style="fill:none;stroke:red;stroke-width:1px;stroke-linecap:butt;stroke-linejoin:miter;stroke-opacity:1" d="M 37.1517,144.895 30.7763,144.895 z" id="boundary" inkscape:connector-curvature="0" />
	<path style="fill:none;stroke:red;stroke-width:1px;stroke-linecap:butt;stroke-linejoin:miter;stroke-opacity:1" d="M 37.1517,144.895 43.527,144.895 z" id="boundary" inkscape:connector-curvature="0" />
	<path style="fill:none;stroke:red;stroke-width:1px;stroke-linecap:butt;stroke-linejoin:miter;stroke-opacity:1" d="M 43.527,144.895 49.9023,144.895 z" id="boundary" inkscape:connector-curvature="0" />
	<path style="fill:none;stroke:red;stroke-width:1px;stroke-linecap:butt;stroke-linejoin:miter;stroke-opacity:1" d="M 56.2776,144.895 62.653,144.895 z" id="boundary" inkscape:connector-curvature="0" />
	<path style="fill:none;stroke:red;stroke-width:1px;stroke-linecap:butt;stroke-linejoin:miter;stroke-opacity:1" d="M 56.2776,144.895 49.9023,144.895 z" id="boundary" inkscape:connector-curvature="0" />
	<path style="fill:none;stroke:red;stroke-width:1px;stroke-linecap:butt;stroke-linejoin:miter;stroke-opacity:1" d="M 69.0283,144.895 75.4036,144.895 z" id="boundary" inkscape:connector-curvature="0" />
	<path style="fill:none;stroke:red;stroke-width:1px;stroke-linecap:butt;stroke-linejoin:miter;stroke-opacity:1" d="M 69.0283,144.895 62.653,144.895 z" id="boundary" inkscape:connector-curvature="0" />
	<path style="fill:none;stroke:red;stroke-width:1px;stroke-linecap:butt;stroke-linejoin:miter;stroke-opacity:1" d="M 4,85.6041 4,79.2288 z" id="boundary" inkscape:connector-curvature="0" />
	<path style="fill:none;stroke:red;stroke-width:1px;stroke-linecap:butt;stroke-linejoin:miter;stroke-opacity:1" d="M 75.4036,144.895 81.7789,144.895 z" id="boundary" inkscape:connector-curvature="0" />
	<path style="fill:none;stroke:red;stroke-width:1px;stroke-linecap:butt;stroke-linejoin:miter;stroke-opacity:1" d="M 88.1542,144.895 94.5296,144.895 z" id="boundary" inkscape:connector-curvature="0" />
	<path style="fill:none;stroke:red;stroke-width:1px;stroke-linecap:butt;stroke-linejoin:miter;stroke-opacity:1" d="M 88.1542,144.895 81.7789,144.895 z" id="boundary" inkscape:connector-curvature="0" />
	<path style="fill:none;stroke:red;stroke-width:1px;stroke-linecap:butt;stroke-linejoin:miter;stroke-opacity:1" d="M 100.905,144.895 107.28,144.895 z" id="boundary" inkscape:connector-curvature="0" />
	<path style="fill:none;stroke:red;stroke-width:1px;stroke-linecap:butt;stroke-linejoin:miter;stroke-opacity:1" d="M 100.905,144.895 94.5296,144.895 z" id="boundary" inkscape:connector-curvature="0" />
	<path style="fill:none;stroke:red;stroke-width:1px;stroke-linecap:butt;stroke-linejoin:miter;stroke-opacity:1" d="M 107.28,144.895 113.656,144.895 z" id="boundary" inkscape:connector-curvature="0" />
	<path style="fill:none;stroke:red;stroke-width:1px;stroke-linecap:butt;stroke-linejoin:miter;stroke-opacity:1" d="M 120.031,144.895 126.406,144.895 z" id="boundary" inkscape:connector-curvature="0" />
	<path style="fill:none;stroke:red;stroke-width:1px;stroke-linecap:butt;stroke-linejoin:miter;stroke-opacity:1" d="M 120.031,144.895 113.656,144.895 z" id="boundary" inkscape:connector-curvature="0" />
	<path style="fill:none;stroke:red;stroke-width:1px;stroke-linecap:butt;stroke-linejoin:miter;stroke-opacity:1" d="M 132.781,144.895 139.157,144.895 z" id="boundary" inkscape:connector-curvature="0" />
	<path style="fill:none;stroke:red;stroke-width:1px;stroke-linecap:butt;stroke-linejoin:miter;stroke-opacity:1" d="M 132.781,144.895 126.406,144.895 z" id="boundary" inkscape:connector-curvature="0" />
	<path style="fill:none;stroke:red;stroke-width:1px;stroke-linecap:butt;stroke-linejoin:miter;stroke-opacity:1" d="M 139.157,144.895 145.532,144.895 z" id="boundary" inkscape:connector-curvature="0" />
	<path style="fill:none;stroke:red;stroke-width:1px;stroke-linecap:butt;stroke-linejoin:miter;stroke-opacity:1" d="M 151.907,144.895 158.283,144.895 z" id="boundary" inkscape:connector-curvature="0" />
	<path style="fill:none;stroke:red;stroke-width:1px;stroke-linecap:butt;stroke-linejoin:miter;stroke-opacity:1" d="M 151.907,144.895 145.532,144.895 z" id="boundary" inkscape:connector-curvature="0" />
	<path style="fill:none;stroke:red;stroke-width:1px;stroke-linecap:butt;stroke-linejoin:miter;stroke-opacity:1" d="M 164.658,144.895 171.033,144.895 z" id="boundary" inkscape:connector-curvature="0" />
	<path style="fill:none;stroke:red;stroke-width:1px;stroke-linecap:butt;stroke-linejoin:miter;stroke-opacity:1" d="M 164.658,144.895 158.283,144.895 z" id="boundary" inkscape:connector-curvature="0" />
	<path style="fill:none;stroke:red;stroke-width:1px;stroke-linecap:butt;stroke-linejoin:miter;stroke-opacity:1" d="M 171.033,144.895 177.409,144.895 z" id="boundary" inkscape:connector-curvature="0" />
	<path style="fill:none;stroke:red;stroke-width:1px;stroke-linecap:butt;stroke-linejoin:miter;stroke-opacity:1" d="M 183.784,144.895 190.159,144.895 z" id="boundary" inkscape:connector-curvature="0" />
	<path style="fill:none;stroke:red;stroke-width:1px;stroke-linecap:butt;stroke-linejoin:miter;stroke-opacity:1" d="M 183.784,144.895 177.409,144.895 z" id="boundary" inkscape:connector-curvature="0" />
	<path style="fill:none;stroke:red;stroke-width:1px;stroke-linecap:butt;stroke-linejoin:miter;stroke-opacity:1" d="M 190.159,144.895 196.535,144.895 z" id="boundary" inkscape:connector-curvature="0" />
	<path style="fill:none;stroke:red;stroke-width:1px;stroke-linecap:butt;stroke-linejoin:miter;stroke-opacity:1" d="M 202.91,144.895 209.285,144.895 z" id="boundary" inkscape:connector-curvature="0" />
	<path style="fill:none;stroke:red;stroke-width:1px;stroke-linecap:butt;stroke-linejoin:miter;stroke-opacity:1" d="M 202.91,144.895 196.535,144.895 z" id="boundary" inkscape:connector-curvature="0" />
	<path style="fill:none;stroke:red;stroke-width:1px;stroke-linecap:butt;stroke-linejoin:miter;stroke-opacity:1" d="M 209.285,144.895 215.661,144.895 z" id="boundary" inkscape:connector-curvature="0" />
	<path style="fill:none;stroke:red;stroke-width:1px;stroke-linecap:butt;stroke-linejoin:miter;stroke-opacity:1" d="M 222.036,144.895 228.411,144.895 z" id="boundary" inkscape:connector-curvature="0" />
	<path style="fill:none;stroke:red;stroke-width:1px;stroke-linecap:butt;stroke-linejoin:miter;stroke-opacity:1" d="M 222.036,144.895 215.661,144.895 z" id="boundary" inkscape:connector-curvature="0" />
	<path style="fill:none;stroke:red;stroke-width:1px;stroke-linecap:butt;stroke-linejoin:miter;stroke-opacity:1" d="M 234.787,144.895 228.411,144.895 z" id="boundary" inkscape:connector-curvature="0" />
	<path style="fill:none;stroke:red;stroke-width:1px;stroke-linecap:butt;stroke-linejoin:miter;stroke-opacity:1" d="M 405.008,143.62 411.383,141.707 z" id="boundary" inkscape:connector-curvature="0" />
	<path style="fill:none;stroke:red;stroke-width:1px;stroke-linecap:butt;stroke-linejoin:miter;stroke-opacity:1" d="M 411.383,141.707 417.758,141.707 z" id="boundary" inkscape:connector-curvature="0" />
	<path style="fill:none;stroke:red;stroke-width:1px;stroke-linecap:butt;stroke-linejoin:miter;stroke-opacity:1" d="M 284.514,144.895 278.139,144.895 z" id="boundary" inkscape:connector-curvature="0" />
	<path style="fill:none;stroke:red;stroke-width:1px;stroke-linecap:butt;stroke-linejoin:miter;stroke-opacity:1" d="M 290.889,144.895 284.514,144.895 z" id="boundary" inkscape:connector-curvature="0" />
	<path style="fill:none;stroke:red;stroke-width:1px;stroke-linecap:butt;stroke-linejoin:miter;stroke-opacity:1" d="M 241.162,144.895 247.537,144.895 z" id="boundary" inkscape:connector-curvature="0" />
	<path style="fill:none;stroke:red;stroke-width:1px;stroke-linecap:butt;stroke-linejoin:miter;stroke-opacity:1" d="M 241.162,144.895 234.787,144.895 z" id="boundary" inkscape:connector-curvature="0" />
	<path style="fill:none;stroke:red;stroke-width:1px;stroke-linecap:butt;stroke-linejoin:miter;stroke-opacity:1" d="M 253.913,144.895 247.537,144.895 z" id="boundary" inkscape:connector-curvature="0" />
	<path style="fill:none;stroke:red;stroke-width:1px;stroke-linecap:butt;stroke-linejoin:miter;stroke-opacity:1" d="M 272.401,148.082 278.139,144.895 z" id="boundary" inkscape:connector-curvature="0" />
	<path style="fill:none;stroke:red;stroke-width:1px;stroke-linecap:butt;stroke-linejoin:miter;stroke-opacity:1" d="M 253.913,144.895 259.65,148.082 z" id="boundary" inkscape:connector-curvature="0" />
	<path style="fill:none;stroke:red;stroke-width:1px;stroke-linecap:butt;stroke-linejoin:miter;stroke-opacity:1" d="M 398.632,146.807 405.008,143.62 z" id="boundary" inkscape:connector-curvature="0" />
	<path style="fill:none;stroke:red;stroke-width:1px;stroke-linecap:butt;stroke-linejoin:miter;stroke-opacity:1" d="M 424.134,141.707 430.509,141.707 z" id="boundary" inkscape:connector-curvature="0" />
	<path style="fill:none;stroke:red;stroke-width:1px;stroke-linecap:butt;stroke-linejoin:miter;stroke-opacity:1" d="M 436.884,141.707 430.509,141.707 z" id="boundary" inkscape:connector-curvature="0" />
	<path style="fill:none;stroke:red;stroke-width:1px;stroke-linecap:butt;stroke-linejoin:miter;stroke-opacity:1" d="M 424.134,141.707 417.758,141.707 z" id="boundary" inkscape:connector-curvature="0" />
	<path style="fill:none;stroke:red;stroke-width:1px;stroke-linecap:butt;stroke-linejoin:miter;stroke-opacity:1" d="M 443.26,141.707 449.635,141.707 z" id="boundary" inkscape:connector-curvature="0" />
	<path style="fill:none;stroke:red;stroke-width:1px;stroke-linecap:butt;stroke-linejoin:miter;stroke-opacity:1" d="M 456.01,141.707 449.635,141.707 z" id="boundary" inkscape:connector-curvature="0" />
	<path style="fill:none;stroke:red;stroke-width:1px;stroke-linecap:butt;stroke-linejoin:miter;stroke-opacity:1" d="M 462.386,141.707 468.761,141.707 z" id="boundary" inkscape:connector-curvature="0" />
	<path style="fill:none;stroke:red;stroke-width:1px;stroke-linecap:butt;stroke-linejoin:miter;stroke-opacity:1" d="M 475.136,141.707 468.761,141.707 z" id="boundary" inkscape:connector-curvature="0" />
	<path style="fill:none;stroke:red;stroke-width:1px;stroke-linecap:butt;stroke-linejoin:miter;stroke-opacity:1" d="M 462.386,141.707 456.01,141.707 z" id="boundary" inkscape:connector-curvature="0" />
	<path style="fill:none;stroke:red;stroke-width:1px;stroke-linecap:butt;stroke-linejoin:miter;stroke-opacity:1" d="M 443.26,141.707 436.884,141.707 z" id="boundary" inkscape:connector-curvature="0" />
	<path style="fill:none;stroke:red;stroke-width:1px;stroke-linecap:butt;stroke-linejoin:miter;stroke-opacity:1" d="M 259.65,148.082 266.026,148.082 z" id="boundary" inkscape:connector-curvature="0" />
	<path style="fill:none;stroke:red;stroke-width:1px;stroke-linecap:butt;stroke-linejoin:miter;stroke-opacity:1" d="M 272.401,148.082 266.026,148.082 z" id="boundary" inkscape:connector-curvature="0" />
	<path style="fill:none;stroke:red;stroke-width:1px;stroke-linecap:butt;stroke-linejoin:miter;stroke-opacity:1" d="M 296.627,148.082 290.889,144.895 z" id="boundary" inkscape:connector-curvature="0" />
	<path style="fill:none;stroke:red;stroke-width:1px;stroke-linecap:butt;stroke-linejoin:miter;stroke-opacity:1" d="M 303.003,148.082 296.627,148.082 z" id="boundary" inkscape:connector-curvature="0" />
	<path style="fill:none;stroke:red;stroke-width:1px;stroke-linecap:butt;stroke-linejoin:miter;stroke-opacity:1" d="M 303.003,148.082 309.378,148.082 z" id="boundary" inkscape:connector-curvature="0" />
	<path style="fill:none;stroke:red;stroke-width:1px;stroke-linecap:butt;stroke-linejoin:miter;stroke-opacity:1" d="M 315.753,148.082 322.129,148.082 z" id="boundary" inkscape:connector-curvature="0" />
	<path style="fill:none;stroke:red;stroke-width:1px;stroke-linecap:butt;stroke-linejoin:miter;stroke-opacity:1" d="M 315.753,148.082 309.378,148.082 z" id="boundary" inkscape:connector-curvature="0" />
	<path style="fill:none;stroke:red;stroke-width:1px;stroke-linecap:butt;stroke-linejoin:miter;stroke-opacity:1" d="M 322.129,148.082 328.504,148.082 z" id="boundary" inkscape:connector-curvature="0" />
	<path style="fill:none;stroke:red;stroke-width:1px;stroke-linecap:butt;stroke-linejoin:miter;stroke-opacity:1" d="M 334.879,148.082 341.254,148.082 z" id="boundary" inkscape:connector-curvature="0" />
	<path style="fill:none;stroke:red;stroke-width:1px;stroke-linecap:butt;stroke-linejoin:miter;stroke-opacity:1" d="M 334.879,148.082 328.504,148.082 z" id="boundary" inkscape:connector-curvature="0" />
	<path style="fill:none;stroke:red;stroke-width:1px;stroke-linecap:butt;stroke-linejoin:miter;stroke-opacity:1" d="M 347.63,148.082 341.254,148.082 z" id="boundary" inkscape:connector-curvature="0" />
	<path style="fill:none;stroke:red;stroke-width:1px;stroke-linecap:butt;stroke-linejoin:miter;stroke-opacity:1" d="M 360.38,148.082 354.005,148.082 z" id="boundary" inkscape:connector-curvature="0" />
	<path style="fill:none;stroke:red;stroke-width:1px;stroke-linecap:butt;stroke-linejoin:miter;stroke-opacity:1" d="M 347.63,148.082 354.005,148.082 z" id="boundary" inkscape:connector-curvature="0" />
	<path style="fill:none;stroke:red;stroke-width:1px;stroke-linecap:butt;stroke-linejoin:miter;stroke-opacity:1" d="M 360.38,148.082 366.756,148.082 z" id="boundary" inkscape:connector-curvature="0" />
	<path style="fill:none;stroke:red;stroke-width:1px;stroke-linecap:butt;stroke-linejoin:miter;stroke-opacity:1" d="M 373.131,148.082 366.756,148.082 z" id="boundary" inkscape:connector-curvature="0" />
	<path style="fill:none;stroke:red;stroke-width:1px;stroke-linecap:butt;stroke-linejoin:miter;stroke-opacity:1" d="M 379.506,148.082 385.882,148.082 z" id="boundary" inkscape:connector-curvature="0" />
	<path style="fill:none;stroke:red;stroke-width:1px;stroke-linecap:butt;stroke-linejoin:miter;stroke-opacity:1" d="M 392.257,148.082 385.882,148.082 z" id="boundary" inkscape:connector-curvature="0" />
	<path style="fill:none;stroke:red;stroke-width:1px;stroke-linecap:butt;stroke-linejoin:miter;stroke-opacity:1" d="M 379.506,148.082 373.131,148.082 z" id="boundary" inkscape:connector-curvature="0" />
	<path style="fill:none;stroke:red;stroke-width:1px;stroke-linecap:butt;stroke-linejoin:miter;stroke-opacity:1" d="M 392.257,148.082 398.632,146.807 z" id="boundary" inkscape:connector-curvature="0" />
	<path style="fill:none;stroke:red;stroke-width:1px;stroke-linecap:butt;stroke-linejoin:miter;stroke-opacity:1" d="M 475.136,141.707 481.512,141.707 z" id="boundary" inkscape:connector-curvature="0" />
	<path style="fill:none;stroke:red;stroke-width:1px;stroke-linecap:butt;stroke-linejoin:miter;stroke-opacity:1" d="M 485.337,35.8766 491.712,35.8766 z" id="boundary" inkscape:connector-curvature="0" />
	<path style="fill:none;stroke:red;stroke-width:1px;stroke-linecap:butt;stroke-linejoin:miter;stroke-opacity:1" d="M 510.201,39.0643 503.825,39.0643 z" id="boundary" inkscape:connector-curvature="0" />
	<path style="fill:none;stroke:red;stroke-width:1px;stroke-linecap:butt;stroke-linejoin:miter;stroke-opacity:1" d="M 503.825,39.0643 498.087,35.8766 z" id="boundary" inkscape:connector-curvature="0" />
	<path style="fill:none;stroke:red;stroke-width:1px;stroke-linecap:butt;stroke-linejoin:miter;stroke-opacity:1" d="M 516.576,39.0643 510.201,39.0643 z" id="boundary" inkscape:connector-curvature="0" />
	<path style="fill:none;stroke:red;stroke-width:1px;stroke-linecap:butt;stroke-linejoin:miter;stroke-opacity:1" d="M 491.712,35.8766 498.087,35.8766 z" id="boundary" inkscape:connector-curvature="0" />
	<path style="fill:none;stroke:red;stroke-width:1px;stroke-linecap:butt;stroke-linejoin:miter;stroke-opacity:1" d="M 516.576,39.0643 522.951,39.0643 z" id="boundary" inkscape:connector-curvature="0" />
	<path style="fill:none;stroke:red;stroke-width:1px;stroke-linecap:butt;stroke-linejoin:miter;stroke-opacity:1" d="M 529.326,39.0643 535.702,39.0643 z" id="boundary" inkscape:connector-curvature="0" />
	<path style="fill:none;stroke:red;stroke-width:1px;stroke-linecap:butt;stroke-linejoin:miter;stroke-opacity:1" d="M 542.077,39.0643 535.702,39.0643 z" id="boundary" inkscape:connector-curvature="0" />
	<path style="fill:none;stroke:red;stroke-width:1px;stroke-linecap:butt;stroke-linejoin:miter;stroke-opacity:1" d="M 529.326,39.0643 522.951,39.0643 z" id="boundary" inkscape:connector-curvature="0" />
	<path style="fill:none;stroke:red;stroke-width:1px;stroke-linecap:butt;stroke-linejoin:miter;stroke-opacity:1" d="M 548.452,39.0643 542.077,39.0643 z" id="boundary" inkscape:connector-curvature="0" />
	<path style="fill:none;stroke:red;stroke-width:1px;stroke-linecap:butt;stroke-linejoin:miter;stroke-opacity:1" d="M 548.452,39.0643 554.19,42.2519 z" id="boundary" inkscape:connector-curvature="0" />
	<path style="fill:none;stroke:red;stroke-width:1px;stroke-linecap:butt;stroke-linejoin:miter;stroke-opacity:1" d="M 560.566,42.2519 554.19,42.2519 z" id="boundary" inkscape:connector-curvature="0" />
	<path style="fill:none;stroke:red;stroke-width:1px;stroke-linecap:butt;stroke-linejoin:miter;stroke-opacity:1" d="M 560.566,42.2519 566.941,42.2519 z" id="boundary" inkscape:connector-curvature="0" />
	<path style="fill:none;stroke:red;stroke-width:1px;stroke-linecap:butt;stroke-linejoin:miter;stroke-opacity:1" d="M 573.316,42.2519 566.941,42.2519 z" id="boundary" inkscape:connector-curvature="0" />
	<path style="fill:none;stroke:red;stroke-width:1px;stroke-linecap:butt;stroke-linejoin:miter;stroke-opacity:1" d="M 579.692,42.2519 573.316,42.2519 z" id="boundary" inkscape:connector-curvature="0" />
	<path style="fill:none;stroke:red;stroke-width:1px;stroke-linecap:butt;stroke-linejoin:miter;stroke-opacity:1" d="M 579.692,42.2519 586.067,42.2519 z" id="boundary" inkscape:connector-curvature="0" />
	<path style="fill:none;stroke:red;stroke-width:1px;stroke-linecap:butt;stroke-linejoin:miter;stroke-opacity:1" d="M 604.555,45.4396 598.18,45.4396 z" id="boundary" inkscape:connector-curvature="0" />
	<path style="fill:none;stroke:red;stroke-width:1px;stroke-linecap:butt;stroke-linejoin:miter;stroke-opacity:1" d="M 598.18,45.4396 592.442,42.2519 z" id="boundary" inkscape:connector-curvature="0" />
	<path style="fill:none;stroke:red;stroke-width:1px;stroke-linecap:butt;stroke-linejoin:miter;stroke-opacity:1" d="M 610.931,45.4396 604.555,45.4396 z" id="boundary" inkscape:connector-curvature="0" />
	<path style="fill:none;stroke:red;stroke-width:1px;stroke-linecap:butt;stroke-linejoin:miter;stroke-opacity:1" d="M 586.067,42.2519 592.442,42.2519 z" id="boundary" inkscape:connector-curvature="0" />
	<path style="fill:none;stroke:red;stroke-width:1px;stroke-linecap:butt;stroke-linejoin:miter;stroke-opacity:1" d="M 610.931,45.4396 617.306,45.4396 z" id="boundary" inkscape:connector-curvature="0" />
	<path style="fill:none;stroke:red;stroke-width:1px;stroke-linecap:butt;stroke-linejoin:miter;stroke-opacity:1" d="M 623.681,45.4396 630.057,45.4396 z" id="boundary" inkscape:connector-curvature="0" />
	<path style="fill:none;stroke:red;stroke-width:1px;stroke-linecap:butt;stroke-linejoin:miter;stroke-opacity:1" d="M 636.432,45.4396 630.057,45.4396 z" id="boundary" inkscape:connector-curvature="0" />
	<path style="fill:none;stroke:red;stroke-width:1px;stroke-linecap:butt;stroke-linejoin:miter;stroke-opacity:1" d="M 623.681,45.4396 617.306,45.4396 z" id="boundary" inkscape:connector-curvature="0" />
	<path style="fill:none;stroke:red;stroke-width:1px;stroke-linecap:butt;stroke-linejoin:miter;stroke-opacity:1" d="M 642.807,45.4396 648.545,48.6272 z" id="boundary" inkscape:connector-curvature="0" />
	<path style="fill:none;stroke:red;stroke-width:1px;stroke-linecap:butt;stroke-linejoin:miter;stroke-opacity:1" d="M 636.432,45.4396 642.807,45.4396 z" id="boundary" inkscape:connector-curvature="0" />
	<path style="fill:none;stroke:red;stroke-width:1px;stroke-linecap:butt;stroke-linejoin:miter;stroke-opacity:1" d="M 654.92,48.6272 648.545,48.6272 z" id="boundary" inkscape:connector-curvature="0" />
	<path style="fill:none;stroke:red;stroke-width:1px;stroke-linecap:butt;stroke-linejoin:miter;stroke-opacity:1" d="M 654.92,48.6272 661.296,48.6272 z" id="boundary" inkscape:connector-curvature="0" />
	<path style="fill:none;stroke:red;stroke-width:1px;stroke-linecap:butt;stroke-linejoin:miter;stroke-opacity:1" d="M 667.671,48.6272 661.296,48.6272 z" id="boundary" inkscape:connector-curvature="0" />
	<path style="fill:none;stroke:red;stroke-width:1px;stroke-linecap:butt;stroke-linejoin:miter;stroke-opacity:1" d="M 674.046,48.6272 667.671,48.6272 z" id="boundary" inkscape:connector-curvature="0" />
	<path style="fill:none;stroke:red;stroke-width:1px;stroke-linecap:butt;stroke-linejoin:miter;stroke-opacity:1" d="M 674.046,48.6272 680.422,48.6272 z" id="boundary" inkscape:connector-curvature="0" />
	<path style="fill:none;stroke:red;stroke-width:1px;stroke-linecap:butt;stroke-linejoin:miter;stroke-opacity:1" d="M 686.797,48.6272 693.172,48.6272 z" id="boundary" inkscape:connector-curvature="0" />
	<path style="fill:none;stroke:red;stroke-width:1px;stroke-linecap:butt;stroke-linejoin:miter;stroke-opacity:1" d="M 693.172,48.6272 698.91,51.8149 z" id="boundary" inkscape:connector-curvature="0" />
	<path style="fill:none;stroke:red;stroke-width:1px;stroke-linecap:butt;stroke-linejoin:miter;stroke-opacity:1" d="M 705.285,51.8149 698.91,51.8149 z" id="boundary" inkscape:connector-curvature="0" />
	<path style="fill:none;stroke:red;stroke-width:1px;stroke-linecap:butt;stroke-linejoin:miter;stroke-opacity:1" d="M 680.422,48.6272 686.797,48.6272 z" id="boundary" inkscape:connector-curvature="0" />
	<path style="fill:none;stroke:red;stroke-width:1px;stroke-linecap:butt;stroke-linejoin:miter;stroke-opacity:1" d="M 705.285,51.8149 711.661,51.8149 z" id="boundary" inkscape:connector-curvature="0" />
	<path style="fill:none;stroke:red;stroke-width:1px;stroke-linecap:butt;stroke-linejoin:miter;stroke-opacity:1" d="M 718.036,51.8149 711.661,51.8149 z" id="boundary" inkscape:connector-curvature="0" />
	<path style="fill:none;stroke:red;stroke-width:1px;stroke-linecap:butt;stroke-linejoin:miter;stroke-opacity:1" d="M 724.411,51.8149 730.787,51.8149 z" id="boundary" inkscape:connector-curvature="0" />
	<path style="fill:none;stroke:red;stroke-width:1px;stroke-linecap:butt;stroke-linejoin:miter;stroke-opacity:1" d="M 737.162,51.8149 730.787,51.8149 z" id="boundary" inkscape:connector-curvature="0" />
	<path style="fill:none;stroke:red;stroke-width:1px;stroke-linecap:butt;stroke-linejoin:miter;stroke-opacity:1" d="M 724.411,51.8149 718.036,51.8149 z" id="boundary" inkscape:connector-curvature="0" />
	<path style="fill:none;stroke:red;stroke-width:1px;stroke-linecap:butt;stroke-linejoin:miter;stroke-opacity:1" d="M 743.537,51.8149 737.162,51.8149 z" id="boundary" inkscape:connector-curvature="0" />
	<path style="fill:none;stroke:red;stroke-width:1px;stroke-linecap:butt;stroke-linejoin:miter;stroke-opacity:1" d="M 743.537,51.8149 749.275,55.0026 z" id="boundary" inkscape:connector-curvature="0" />
	<path style="fill:none;stroke:red;stroke-width:1px;stroke-linecap:butt;stroke-linejoin:miter;stroke-opacity:1" d="M 755.65,55.0026 749.275,55.0026 z" id="boundary" inkscape:connector-curvature="0" />
	<path style="fill:none;stroke:red;stroke-width:1px;stroke-linecap:butt;stroke-linejoin:miter;stroke-opacity:1" d="M 755.65,55.0026 762.026,55.0026 z" id="boundary" inkscape:connector-curvature="0" />
	<path style="fill:none;stroke:red;stroke-width:1px;stroke-linecap:butt;stroke-linejoin:miter;stroke-opacity:1" d="M 768.401,55.0026 762.026,55.0026 z" id="boundary" inkscape:connector-curvature="0" />
	<path style="fill:none;stroke:red;stroke-width:1px;stroke-linecap:butt;stroke-linejoin:miter;stroke-opacity:1" d="M 774.776,55.0026 768.401,55.0026 z" id="boundary" inkscape:connector-curvature="0" />
	<path style="fill:none;stroke:red;stroke-width:1px;stroke-linecap:butt;stroke-linejoin:miter;stroke-opacity:1" d="M 774.776,55.0026 781.152,55.0026 z" id="boundary" inkscape:connector-curvature="0" />
	<path style="fill:none;stroke:red;stroke-width:1px;stroke-linecap:butt;stroke-linejoin:miter;stroke-opacity:1" d="M 787.527,55.0026 793.902,55.0026 z" id="boundary" inkscape:connector-curvature="0" />
	<path style="fill:none;stroke:red;stroke-width:1px;stroke-linecap:butt;stroke-linejoin:miter;stroke-opacity:1" d="M 793.902,55.0026 799.64,58.1902 z" id="boundary" inkscape:connector-curvature="0" />
	<path style="fill:none;stroke:red;stroke-width:1px;stroke-linecap:butt;stroke-linejoin:miter;stroke-opacity:1" d="M 806.015,58.1902 799.64,58.1902 z" id="boundary" inkscape:connector-curvature="0" />
	<path style="fill:none;stroke:red;stroke-width:1px;stroke-linecap:butt;stroke-linejoin:miter;stroke-opacity:1" d="M 781.152,55.0026 787.527,55.0026 z" id="boundary" inkscape:connector-curvature="0" />
	<path style="fill:none;stroke:red;stroke-width:1px;stroke-linecap:butt;stroke-linejoin:miter;stroke-opacity:1" d="M 806.015,58.1902 812.391,58.1902 z" id="boundary" inkscape:connector-curvature="0" />
	<path style="fill:none;stroke:red;stroke-width:1px;stroke-linecap:butt;stroke-linejoin:miter;stroke-opacity:1" d="M 818.766,58.1902 825.141,58.1902 z" id="boundary" inkscape:connector-curvature="0" />
	<path style="fill:none;stroke:red;stroke-width:1px;stroke-linecap:butt;stroke-linejoin:miter;stroke-opacity:1" d="M 831.517,58.1902 825.141,58.1902 z" id="boundary" inkscape:connector-curvature="0" />
	<path style="fill:none;stroke:red;stroke-width:1px;stroke-linecap:butt;stroke-linejoin:miter;stroke-opacity:1" d="M 818.766,58.1902 812.391,58.1902 z" id="boundary" inkscape:connector-curvature="0" />
	<path style="fill:none;stroke:red;stroke-width:1px;stroke-linecap:butt;stroke-linejoin:miter;stroke-opacity:1" d="M 837.892,58.1902 843.63,61.3779 z" id="boundary" inkscape:connector-curvature="0" />
	<path style="fill:none;stroke:red;stroke-width:1px;stroke-linecap:butt;stroke-linejoin:miter;stroke-opacity:1" d="M 831.517,58.1902 837.892,58.1902 z" id="boundary" inkscape:connector-curvature="0" />
	<path style="fill:none;stroke:red;stroke-width:1px;stroke-linecap:butt;stroke-linejoin:miter;stroke-opacity:1" d="M 850.005,61.3779 843.63,61.3779 z" id="boundary" inkscape:connector-curvature="0" />
	<path style="fill:none;stroke:red;stroke-width:1px;stroke-linecap:butt;stroke-linejoin:miter;stroke-opacity:1" d="M 850.005,61.3779 856.38,61.3779 z" id="boundary" inkscape:connector-curvature="0" />
	<path style="fill:none;stroke:red;stroke-width:1px;stroke-linecap:butt;stroke-linejoin:miter;stroke-opacity:1" d="M 862.756,61.3779 856.38,61.3779 z" id="boundary" inkscape:connector-curvature="0" />
	<path style="fill:none;stroke:red;stroke-width:1px;stroke-linecap:butt;stroke-linejoin:miter;stroke-opacity:1" d="M 869.131,61.3779 862.756,61.3779 z" id="boundary" inkscape:connector-curvature="0" />
	<path style="fill:none;stroke:red;stroke-width:1px;stroke-linecap:butt;stroke-linejoin:miter;stroke-opacity:1" d="M 869.131,61.3779 875.506,61.3779 z" id="boundary" inkscape:connector-curvature="0" />
	<path style="fill:none;stroke:red;stroke-width:1px;stroke-linecap:butt;stroke-linejoin:miter;stroke-opacity:1" d="M 881.882,61.3779 888.257,61.3779 z" id="boundary" inkscape:connector-curvature="0" />
	<path style="fill:none;stroke:red;stroke-width:1px;stroke-linecap:butt;stroke-linejoin:miter;stroke-opacity:1" d="M 894.632,61.3779 888.257,61.3779 z" id="boundary" inkscape:connector-curvature="0" />
	<path style="fill:none;stroke:red;stroke-width:1px;stroke-linecap:butt;stroke-linejoin:miter;stroke-opacity:1" d="M 894.632,61.3779 900.37,64.5656 z" id="boundary" inkscape:connector-curvature="0" />
	<path style="fill:none;stroke:red;stroke-width:1px;stroke-linecap:butt;stroke-linejoin:miter;stroke-opacity:1" d="M 881.882,61.3779 875.506,61.3779 z" id="boundary" inkscape:connector-curvature="0" />
	<path style="fill:none;stroke:red;stroke-width:1px;stroke-linecap:butt;stroke-linejoin:miter;stroke-opacity:1" d="M 900.37,64.5656 906.746,64.5656 z" id="boundary" inkscape:connector-curvature="0" />
	<path style="fill:none;stroke:red;stroke-width:1px;stroke-linecap:butt;stroke-linejoin:miter;stroke-opacity:1" d="M 906.746,64.5656 913.121,66.4781 z" id="boundary" inkscape:connector-curvature="0" />
	<path style="fill:none;stroke:red;stroke-width:1px;stroke-linecap:butt;stroke-linejoin:miter;stroke-opacity:1" d="M 913.121,66.4781 919.496,67.7532 z" id="boundary" inkscape:connector-curvature="0" />
	<path style="fill:none;stroke:red;stroke-width:1px;stroke-linecap:butt;stroke-linejoin:miter;stroke-opacity:1" d="M 925.871,69.6658 919.496,67.7532 z" id="boundary" inkscape:connector-curvature="0" />
	<path style="fill:none;stroke:red;stroke-width:1px;stroke-linecap:butt;stroke-linejoin:miter;stroke-opacity:1" d="M 932.247,70.9409 925.871,69.6658 z" id="boundary" inkscape:connector-curvature="0" />
	<path style="fill:none;stroke:red;stroke-width:1px;stroke-linecap:butt;stroke-linejoin:miter;stroke-opacity:1" d="M 932.247,70.9409 937.985,74.1285 z" id="boundary" inkscape:connector-curvature="0" />
	<path style="fill:none;stroke:red;stroke-width:1px;stroke-linecap:butt;stroke-linejoin:miter;stroke-opacity:1" d="M 943.722,77.3162 950.098,77.9537 z" id="boundary" inkscape:connector-curvature="0" />
	<path style="fill:none;stroke:red;stroke-width:1px;stroke-linecap:butt;stroke-linejoin:miter;stroke-opacity:1" d="M 950.098,77.9537 955.835,81.1414 z" id="boundary" inkscape:connector-curvature="0" />
	<path style="fill:none;stroke:red;stroke-width:1px;stroke-linecap:butt;stroke-linejoin:miter;stroke-opacity:1" d="M 943.722,77.3162 937.985,74.1285 z" id="boundary" inkscape:connector-curvature="0" />
	<path style="fill:none;stroke:red;stroke-width:1px;stroke-linecap:butt;stroke-linejoin:miter;stroke-opacity:1" d="M 962.211,83.6915 955.835,81.1414 z" id="boundary" inkscape:connector-curvature="0" />
	<path style="fill:none;stroke:red;stroke-width:1px;stroke-linecap:butt;stroke-linejoin:miter;stroke-opacity:1" d="M 967.949,86.8792 962.211,83.6915 z" id="boundary" inkscape:connector-curvature="0" />
	<path style="fill:none;stroke:red;stroke-width:1px;stroke-linecap:butt;stroke-linejoin:miter;stroke-opacity:1" d="M 973.686,90.0668 967.949,86.8792 z" id="boundary" inkscape:connector-curvature="0" />
	<path style="fill:none;stroke:red;stroke-width:1px;stroke-linecap:butt;stroke-linejoin:miter;stroke-opacity:1" d="M 980.062,91.9794 973.686,90.0668 z" id="boundary" inkscape:connector-curvature="0" />
	<path style="fill:none;stroke:red;stroke-width:1px;stroke-linecap:butt;stroke-linejoin:miter;stroke-opacity:1" d="M 992.175,97.7172 985.799,95.1671 z" id="boundary" inkscape:connector-curvature="0" />
	<path style="fill:none;stroke:red;stroke-width:1px;stroke-linecap:butt;stroke-linejoin:miter;stroke-opacity:1" d="M 985.799,95.1671 980.062,91.9794 z" id="boundary" inkscape:connector-curvature="0" />
	<path style="fill:none;stroke:red;stroke-width:1px;stroke-linecap:butt;stroke-linejoin:miter;stroke-opacity:1" d="M 487.887,141.707 494.262,141.707 z" id="boundary" inkscape:connector-curvature="0" />
	<path style="fill:none;stroke:red;stroke-width:1px;stroke-linecap:butt;stroke-linejoin:miter;stroke-opacity:1" d="M 500.638,141.707 507.013,141.707 z" id="boundary" inkscape:connector-curvature="0" />
	<path style="fill:none;stroke:red;stroke-width:1px;stroke-linecap:butt;stroke-linejoin:miter;stroke-opacity:1" d="M 513.388,141.707 507.013,141.707 z" id="boundary" inkscape:connector-curvature="0" />
	<path style="fill:none;stroke:red;stroke-width:1px;stroke-linecap:butt;stroke-linejoin:miter;stroke-opacity:1" d="M 500.638,141.707 494.262,141.707 z" id="boundary" inkscape:connector-curvature="0" />
	<path style="fill:none;stroke:red;stroke-width:1px;stroke-linecap:butt;stroke-linejoin:miter;stroke-opacity:1" d="M 519.763,141.707 525.501,144.895 z" id="boundary" inkscape:connector-curvature="0" />
	<path style="fill:none;stroke:red;stroke-width:1px;stroke-linecap:butt;stroke-linejoin:miter;stroke-opacity:1" d="M 513.388,141.707 519.763,141.707 z" id="boundary" inkscape:connector-curvature="0" />
	<path style="fill:none;stroke:red;stroke-width:1px;stroke-linecap:butt;stroke-linejoin:miter;stroke-opacity:1" d="M 531.877,144.895 525.501,144.895 z" id="boundary" inkscape:connector-curvature="0" />
	<path style="fill:none;stroke:red;stroke-width:1px;stroke-linecap:butt;stroke-linejoin:miter;stroke-opacity:1" d="M 538.252,144.895 544.627,144.895 z" id="boundary" inkscape:connector-curvature="0" />
	<path style="fill:none;stroke:red;stroke-width:1px;stroke-linecap:butt;stroke-linejoin:miter;stroke-opacity:1" d="M 538.252,144.895 531.877,144.895 z" id="boundary" inkscape:connector-curvature="0" />
	<path style="fill:none;stroke:red;stroke-width:1px;stroke-linecap:butt;stroke-linejoin:miter;stroke-opacity:1" d="M 544.627,144.895 551.003,144.895 z" id="boundary" inkscape:connector-curvature="0" />
	<path style="fill:none;stroke:red;stroke-width:1px;stroke-linecap:butt;stroke-linejoin:miter;stroke-opacity:1" d="M 481.512,141.707 487.887,141.707 z" id="boundary" inkscape:connector-curvature="0" />
	<path style="fill:none;stroke:red;stroke-width:1px;stroke-linecap:butt;stroke-linejoin:miter;stroke-opacity:1" d="M 563.753,144.895 570.129,144.895 z" id="boundary" inkscape:connector-curvature="0" />
	<path style="fill:none;stroke:red;stroke-width:1px;stroke-linecap:butt;stroke-linejoin:miter;stroke-opacity:1" d="M 563.753,144.895 557.378,144.895 z" id="boundary" inkscape:connector-curvature="0" />
	<path style="fill:none;stroke:red;stroke-width:1px;stroke-linecap:butt;stroke-linejoin:miter;stroke-opacity:1" d="M 570.129,144.895 576.504,144.895 z" id="boundary" inkscape:connector-curvature="0" />
	<path style="fill:none;stroke:red;stroke-width:1px;stroke-linecap:butt;stroke-linejoin:miter;stroke-opacity:1" d="M 557.378,144.895 551.003,144.895 z" id="boundary" inkscape:connector-curvature="0" />
	<path style="fill:none;stroke:red;stroke-width:1px;stroke-linecap:butt;stroke-linejoin:miter;stroke-opacity:1" d="M 582.879,144.895 589.254,144.895 z" id="boundary" inkscape:connector-curvature="0" />
	<path style="fill:none;stroke:red;stroke-width:1px;stroke-linecap:butt;stroke-linejoin:miter;stroke-opacity:1" d="M 582.879,144.895 576.504,144.895 z" id="boundary" inkscape:connector-curvature="0" />
	<path style="fill:none;stroke:red;stroke-width:1px;stroke-linecap:butt;stroke-linejoin:miter;stroke-opacity:1" d="M 595.63,144.895 602.005,144.895 z" id="boundary" inkscape:connector-curvature="0" />
	<path style="fill:none;stroke:red;stroke-width:1px;stroke-linecap:butt;stroke-linejoin:miter;stroke-opacity:1" d="M 595.63,144.895 589.254,144.895 z" id="boundary" inkscape:connector-curvature="0" />
	<path style="fill:none;stroke:red;stroke-width:1px;stroke-linecap:butt;stroke-linejoin:miter;stroke-opacity:1" d="M 602.005,144.895 608.38,144.895 z" id="boundary" inkscape:connector-curvature="0" />
	<path style="fill:none;stroke:red;stroke-width:1px;stroke-linecap:butt;stroke-linejoin:miter;stroke-opacity:1" d="M 614.756,144.895 621.131,144.895 z" id="boundary" inkscape:connector-curvature="0" />
	<path style="fill:none;stroke:red;stroke-width:1px;stroke-linecap:butt;stroke-linejoin:miter;stroke-opacity:1" d="M 614.756,144.895 608.38,144.895 z" id="boundary" inkscape:connector-curvature="0" />
	<path style="fill:none;stroke:red;stroke-width:1px;stroke-linecap:butt;stroke-linejoin:miter;stroke-opacity:1" d="M 627.506,144.895 633.882,144.895 z" id="boundary" inkscape:connector-curvature="0" />
	<path style="fill:none;stroke:red;stroke-width:1px;stroke-linecap:butt;stroke-linejoin:miter;stroke-opacity:1" d="M 640.257,144.895 633.882,144.895 z" id="boundary" inkscape:connector-curvature="0" />
	<path style="fill:none;stroke:red;stroke-width:1px;stroke-linecap:butt;stroke-linejoin:miter;stroke-opacity:1" d="M 627.506,144.895 621.131,144.895 z" id="boundary" inkscape:connector-curvature="0" />
	<path style="fill:none;stroke:red;stroke-width:1px;stroke-linecap:butt;stroke-linejoin:miter;stroke-opacity:1" d="M 646.632,144.895 653.008,144.895 z" id="boundary" inkscape:connector-curvature="0" />
	<path style="fill:none;stroke:red;stroke-width:1px;stroke-linecap:butt;stroke-linejoin:miter;stroke-opacity:1" d="M 659.383,144.895 665.758,144.895 z" id="boundary" inkscape:connector-curvature="0" />
	<path style="fill:none;stroke:red;stroke-width:1px;stroke-linecap:butt;stroke-linejoin:miter;stroke-opacity:1" d="M 672.134,144.895 665.758,144.895 z" id="boundary" inkscape:connector-curvature="0" />
	<path style="fill:none;stroke:red;stroke-width:1px;stroke-linecap:butt;stroke-linejoin:miter;stroke-opacity:1" d="M 659.383,144.895 653.008,144.895 z" id="boundary" inkscape:connector-curvature="0" />
	<path style="fill:none;stroke:red;stroke-width:1px;stroke-linecap:butt;stroke-linejoin:miter;stroke-opacity:1" d="M 646.632,144.895 640.257,144.895 z" id="boundary" inkscape:connector-curvature="0" />
	<path style="fill:none;stroke:red;stroke-width:1px;stroke-linecap:butt;stroke-linejoin:miter;stroke-opacity:1" d="M 678.509,144.895 684.884,144.895 z" id="boundary" inkscape:connector-curvature="0" />
	<path style="fill:none;stroke:red;stroke-width:1px;stroke-linecap:butt;stroke-linejoin:miter;stroke-opacity:1" d="M 691.26,144.895 697.635,144.895 z" id="boundary" inkscape:connector-curvature="0" />
	<path style="fill:none;stroke:red;stroke-width:1px;stroke-linecap:butt;stroke-linejoin:miter;stroke-opacity:1" d="M 704.01,144.895 697.635,144.895 z" id="boundary" inkscape:connector-curvature="0" />
	<path style="fill:none;stroke:red;stroke-width:1px;stroke-linecap:butt;stroke-linejoin:miter;stroke-opacity:1" d="M 691.26,144.895 684.884,144.895 z" id="boundary" inkscape:connector-curvature="0" />
	<path style="fill:none;stroke:red;stroke-width:1px;stroke-linecap:butt;stroke-linejoin:miter;stroke-opacity:1" d="M 710.386,144.895 716.761,144.895 z" id="boundary" inkscape:connector-curvature="0" />
	<path style="fill:none;stroke:red;stroke-width:1px;stroke-linecap:butt;stroke-linejoin:miter;stroke-opacity:1" d="M 723.136,144.895 716.761,144.895 z" id="boundary" inkscape:connector-curvature="0" />
	<path style="fill:none;stroke:red;stroke-width:1px;stroke-linecap:butt;stroke-linejoin:miter;stroke-opacity:1" d="M 723.136,144.895 728.874,148.082 z" id="boundary" inkscape:connector-curvature="0" />
	<path style="fill:none;stroke:red;stroke-width:1px;stroke-linecap:butt;stroke-linejoin:miter;stroke-opacity:1" d="M 728.874,148.082 735.249,148.082 z" id="boundary" inkscape:connector-curvature="0" />
	<path style="fill:none;stroke:red;stroke-width:1px;stroke-linecap:butt;stroke-linejoin:miter;stroke-opacity:1" d="M 741.625,148.082 735.249,148.082 z" id="boundary" inkscape:connector-curvature="0" />
	<path style="fill:none;stroke:red;stroke-width:1px;stroke-linecap:butt;stroke-linejoin:miter;stroke-opacity:1" d="M 704.01,144.895 710.386,144.895 z" id="boundary" inkscape:connector-curvature="0" />
	<path style="fill:none;stroke:red;stroke-width:1px;stroke-linecap:butt;stroke-linejoin:miter;stroke-opacity:1" d="M 672.134,144.895 678.509,144.895 z" id="boundary" inkscape:connector-curvature="0" />
	<path style="fill:none;stroke:red;stroke-width:1px;stroke-linecap:butt;stroke-linejoin:miter;stroke-opacity:1" d="M 748,148.082 754.375,148.082 z" id="boundary" inkscape:connector-curvature="0" />
	<path style="fill:none;stroke:red;stroke-width:1px;stroke-linecap:butt;stroke-linejoin:miter;stroke-opacity:1" d="M 937.347,141.707 931.609,144.895 z" id="boundary" inkscape:connector-curvature="0" />
	<path style="fill:none;stroke:red;stroke-width:1px;stroke-linecap:butt;stroke-linejoin:miter;stroke-opacity:1" d="M 931.609,144.895 925.234,144.895 z" id="boundary" inkscape:connector-curvature="0" />
	<path style="fill:none;stroke:red;stroke-width:1px;stroke-linecap:butt;stroke-linejoin:miter;stroke-opacity:1" d="M 760.751,148.082 754.375,148.082 z" id="boundary" inkscape:connector-curvature="0" />
	<path style="fill:none;stroke:red;stroke-width:1px;stroke-linecap:butt;stroke-linejoin:miter;stroke-opacity:1" d="M 937.347,141.707 943.722,141.707 z" id="boundary" inkscape:connector-curvature="0" />
	<path style="fill:none;stroke:red;stroke-width:1px;stroke-linecap:butt;stroke-linejoin:miter;stroke-opacity:1" d="M 748,148.082 741.625,148.082 z" id="boundary" inkscape:connector-curvature="0" />
	<path style="fill:none;stroke:red;stroke-width:1px;stroke-linecap:butt;stroke-linejoin:miter;stroke-opacity:1" d="M 760.751,148.082 767.126,148.082 z" id="boundary" inkscape:connector-curvature="0" />
	<path style="fill:none;stroke:red;stroke-width:1px;stroke-linecap:butt;stroke-linejoin:miter;stroke-opacity:1" d="M 773.501,148.082 779.877,148.082 z" id="boundary" inkscape:connector-curvature="0" />
	<path style="fill:none;stroke:red;stroke-width:1px;stroke-linecap:butt;stroke-linejoin:miter;stroke-opacity:1" d="M 786.252,148.082 779.877,148.082 z" id="boundary" inkscape:connector-curvature="0" />
	<path style="fill:none;stroke:red;stroke-width:1px;stroke-linecap:butt;stroke-linejoin:miter;stroke-opacity:1" d="M 792.627,148.082 786.252,148.082 z" id="boundary" inkscape:connector-curvature="0" />
	<path style="fill:none;stroke:red;stroke-width:1px;stroke-linecap:butt;stroke-linejoin:miter;stroke-opacity:1" d="M 773.501,148.082 767.126,148.082 z" id="boundary" inkscape:connector-curvature="0" />
	<path style="fill:none;stroke:red;stroke-width:1px;stroke-linecap:butt;stroke-linejoin:miter;stroke-opacity:1" d="M 919.496,148.082 925.234,144.895 z" id="boundary" inkscape:connector-curvature="0" />
	<path style="fill:none;stroke:red;stroke-width:1px;stroke-linecap:butt;stroke-linejoin:miter;stroke-opacity:1" d="M 987.712,121.943 981.337,125.131 z" id="boundary" inkscape:connector-curvature="0" />
	<path style="fill:none;stroke:red;stroke-width:1px;stroke-linecap:butt;stroke-linejoin:miter;stroke-opacity:1" d="M 996,109.193 992.812,116.206 z" id="boundary" inkscape:connector-curvature="0" />
	<path style="fill:none;stroke:red;stroke-width:1px;stroke-linecap:butt;stroke-linejoin:miter;stroke-opacity:1" d="M 992.812,116.206 987.712,121.943 z" id="boundary" inkscape:connector-curvature="0" />
	<path style="fill:none;stroke:red;stroke-width:1px;stroke-linecap:butt;stroke-linejoin:miter;stroke-opacity:1" d="M 981.337,125.131 974.961,128.319 z" id="boundary" inkscape:connector-curvature="0" />
	<path style="fill:none;stroke:red;stroke-width:1px;stroke-linecap:butt;stroke-linejoin:miter;stroke-opacity:1" d="M 943.722,141.707 949.46,138.519 z" id="boundary" inkscape:connector-curvature="0" />
	<path style="fill:none;stroke:red;stroke-width:1px;stroke-linecap:butt;stroke-linejoin:miter;stroke-opacity:1" d="M 949.46,138.519 955.835,137.882 z" id="boundary" inkscape:connector-curvature="0" />
	<path style="fill:none;stroke:red;stroke-width:1px;stroke-linecap:butt;stroke-linejoin:miter;stroke-opacity:1" d="M 962.211,134.694 955.835,137.882 z" id="boundary" inkscape:connector-curvature="0" />
	<path style="fill:none;stroke:red;stroke-width:1px;stroke-linecap:butt;stroke-linejoin:miter;stroke-opacity:1" d="M 968.586,131.506 962.211,134.694 z" id="boundary" inkscape:connector-curvature="0" />
	<path style="fill:none;stroke:red;stroke-width:1px;stroke-linecap:butt;stroke-linejoin:miter;stroke-opacity:1" d="M 974.961,128.319 968.586,131.506 z" id="boundary" inkscape:connector-curvature="0" />
	<path style="fill:none;stroke:red;stroke-width:1px;stroke-linecap:butt;stroke-linejoin:miter;stroke-opacity:1" d="M 792.627,148.082 799.003,148.082 z" id="boundary" inkscape:connector-curvature="0" />
	<path style="fill:none;stroke:red;stroke-width:1px;stroke-linecap:butt;stroke-linejoin:miter;stroke-opacity:1" d="M 805.378,148.082 811.753,148.082 z" id="boundary" inkscape:connector-curvature="0" />
	<path style="fill:none;stroke:red;stroke-width:1px;stroke-linecap:butt;stroke-linejoin:miter;stroke-opacity:1" d="M 818.129,148.082 811.753,148.082 z" id="boundary" inkscape:connector-curvature="0" />
	<path style="fill:none;stroke:red;stroke-width:1px;stroke-linecap:butt;stroke-linejoin:miter;stroke-opacity:1" d="M 805.378,148.082 799.003,148.082 z" id="boundary" inkscape:connector-curvature="0" />
	<path style="fill:none;stroke:red;stroke-width:1px;stroke-linecap:butt;stroke-linejoin:miter;stroke-opacity:1" d="M 824.504,148.082 830.879,148.082 z" id="boundary" inkscape:connector-curvature="0" />
	<path style="fill:none;stroke:red;stroke-width:1px;stroke-linecap:butt;stroke-linejoin:miter;stroke-opacity:1" d="M 856.38,151.27 850.005,151.27 z" id="boundary" inkscape:connector-curvature="0" />
	<path style="fill:none;stroke:red;stroke-width:1px;stroke-linecap:butt;stroke-linejoin:miter;stroke-opacity:1" d="M 850.005,151.27 843.63,149.995 z" id="boundary" inkscape:connector-curvature="0" />
	<path style="fill:none;stroke:red;stroke-width:1px;stroke-linecap:butt;stroke-linejoin:miter;stroke-opacity:1" d="M 843.63,149.995 837.254,148.082 z" id="boundary" inkscape:connector-curvature="0" />
	<path style="fill:none;stroke:red;stroke-width:1px;stroke-linecap:butt;stroke-linejoin:miter;stroke-opacity:1" d="M 830.879,148.082 837.254,148.082 z" id="boundary" inkscape:connector-curvature="0" />
	<path style="fill:none;stroke:red;stroke-width:1px;stroke-linecap:butt;stroke-linejoin:miter;stroke-opacity:1" d="M 818.129,148.082 824.504,148.082 z" id="boundary" inkscape:connector-curvature="0" />
	<path style="fill:none;stroke:red;stroke-width:1px;stroke-linecap:butt;stroke-linejoin:miter;stroke-opacity:1" d="M 862.756,151.27 856.38,151.27 z" id="boundary" inkscape:connector-curvature="0" />
	<path style="fill:none;stroke:red;stroke-width:1px;stroke-linecap:butt;stroke-linejoin:miter;stroke-opacity:1" d="M 913.121,148.082 906.746,148.082 z" id="boundary" inkscape:connector-curvature="0" />
	<path style="fill:none;stroke:red;stroke-width:1px;stroke-linecap:butt;stroke-linejoin:miter;stroke-opacity:1" d="M 919.496,148.082 913.121,148.082 z" id="boundary" inkscape:connector-curvature="0" />
	<path style="fill:none;stroke:red;stroke-width:1px;stroke-linecap:butt;stroke-linejoin:miter;stroke-opacity:1" d="M 901.008,151.27 906.746,148.082 z" id="boundary" inkscape:connector-curvature="0" />
	<path style="fill:none;stroke:red;stroke-width:1px;stroke-linecap:butt;stroke-linejoin:miter;stroke-opacity:1" d="M 869.131,151.27 862.756,151.27 z" id="boundary" inkscape:connector-curvature="0" />
	<path style="fill:none;stroke:red;stroke-width:1px;stroke-linecap:butt;stroke-linejoin:miter;stroke-opacity:1" d="M 875.506,151.27 869.131,151.27 z" id="boundary" inkscape:connector-curvature="0" />
	<path style="fill:none;stroke:red;stroke-width:1px;stroke-linecap:butt;stroke-linejoin:miter;stroke-opacity:1" d="M 881.882,151.27 875.506,151.27 z" id="boundary" inkscape:connector-curvature="0" />
	<path style="fill:none;stroke:red;stroke-width:1px;stroke-linecap:butt;stroke-linejoin:miter;stroke-opacity:1" d="M 894.632,151.27 888.257,151.27 z" id="boundary" inkscape:connector-curvature="0" />
	<path style="fill:none;stroke:red;stroke-width:1px;stroke-linecap:butt;stroke-linejoin:miter;stroke-opacity:1" d="M 901.008,151.27 894.632,151.27 z" id="boundary" inkscape:connector-curvature="0" />
	<path style="fill:none;stroke:red;stroke-width:1px;stroke-linecap:butt;stroke-linejoin:miter;stroke-opacity:1" d="M 888.257,151.27 881.882,151.27 z" id="boundary" inkscape:connector-curvature="0" />
	<path style="fill:none;stroke:red;stroke-width:1px;stroke-linecap:butt;stroke-linejoin:miter;stroke-opacity:1" d="M 992.175,97.7172 996,102.817 z" id="boundary" inkscape:connector-curvature="0" />
	<path style="fill:none;stroke:red;stroke-width:1px;stroke-linecap:butt;stroke-linejoin:miter;stroke-opacity:1" d="M 996,102.817 996,109.193 z" id="boundary" inkscape:connector-curvature="0" />
	<circle cx="4" cy="66.4781" r="4" fill="#0" id="circle0"/>
	<circle cx="4" cy="72.8535" r="4" fill="#0" id="circle1"/>
	<circle cx="4" cy="79.2288" r="4" fill="#0" id="circle2"/>
	<circle cx="4" cy="85.6041" r="4" fill="#0" id="circle3"/>
	<circle cx="4" cy="91.9794" r="4" fill="#0" id="circle4"/>
	<circle cx="4" cy="98.3548" r="4" fill="#0" id="circle5"/>
	<circle cx="4" cy="104.73" r="4" fill="#0" id="circle6"/>
	<circle cx="4" cy="111.105" r="4" fill="#0" id="circle7"/>
	<circle cx="7.18766" cy="50.5398" r="4" fill="#0" id="circle8"/>
	<circle cx="7.18766" cy="56.9152" r="4" fill="#0" id="circle9"/>
	<circle cx="7.18766" cy="116.843" r="4" fill="#0" id="circle10"/>
	<circle cx="7.18766" cy="123.219" r="4" fill="#0" id="circle11"/>
	<circle cx="10.3753" cy="40.9769" r="4" fill="#0" id="circle12"/>
	<circle cx="10.3753" cy="128.956" r="4" fill="#0" id="circle13"/>
	<circle cx="13.563" cy="31.4139" r="4" fill="#0" id="circle14"/>
	<circle cx="14.2005" cy="134.057" r="4" fill="#0" id="circle15"/>
	<circle cx="16.7506" cy="25.0386" r="4" fill="#0" id="circle16"/>
	<circle cx="19.3008" cy="138.519" r="4" fill="#0" id="circle17"/>
	<circle cx="21.8509" cy="19.9383" r="4" fill="#0" id="circle18"/>
	<circle cx="25.0386" cy="13.563" r="4" fill="#0" id="circle19"/>
	<circle cx="25.0386" cy="141.707" r="4" fill="#0" id="circle20"/>
	<circle cx="30.1388" cy="8.46272" r="4" fill="#0" id="circle21"/>
	<circle cx="30.7763" cy="144.895" r="4" fill="#0" id="circle22"/>
	<circle cx="36.5141" cy="5.27506" r="4" fill="#0" id="circle23"/>
	<circle cx="37.1517" cy="144.895" r="4" fill="#0" id="circle24"/>
	<circle cx="42.8895" cy="4" r="4" fill="#0" id="circle25"/>
	<circle cx="43.527" cy="144.895" r="4" fill="#0" id="circle26"/>
	<circle cx="49.2648" cy="4" r="4" fill="#0" id="circle27"/>
	<circle cx="49.9023" cy="144.895" r="4" fill="#0" id="circle28"/>
	<circle cx="55.6401" cy="4" r="4" fill="#0" id="circle29"/>
	<circle cx="56.2776" cy="144.895" r="4" fill="#0" id="circle30"/>
	<circle cx="62.0154" cy="5.9126" r="4" fill="#0" id="circle31"/>
	<circle cx="62.653" cy="144.895" r="4" fill="#0" id="circle32"/>
	<circle cx="68.3907" cy="7.18766" r="4" fill="#0" id="circle33"/>
	<circle cx="69.0283" cy="144.895" r="4" fill="#0" id="circle34"/>
	<circle cx="74.7661" cy="7.18766" r="4" fill="#0" id="circle35"/>
	<circle cx="75.4036" cy="144.895" r="4" fill="#0" id="circle36"/>
	<circle cx="81.1414" cy="7.18766" r="4" fill="#0" id="circle37"/>
	<circle cx="81.7789" cy="144.895" r="4" fill="#0" id="circle38"/>
	<circle cx="87.5167" cy="7.18766" r="4" fill="#0" id="circle39"/>
	<circle cx="88.1542" cy="144.895" r="4" fill="#0" id="circle40"/>
	<circle cx="93.892" cy="7.18766" r="4" fill="#0" id="circle41"/>
	<circle cx="94.5296" cy="144.895" r="4" fill="#0" id="circle42"/>
	<circle cx="100.267" cy="7.18766" r="4" fill="#0" id="circle43"/>
	<circle cx="100.905" cy="144.895" r="4" fill="#0" id="circle44"/>
	<circle cx="106.643" cy="7.18766" r="4" fill="#0" id="circle45"/>
	<circle cx="107.28" cy="144.895" r="4" fill="#0" id="circle46"/>
	<circle cx="113.018" cy="7.18766" r="4" fill="#0" id="circle47"/>
	<circle cx="113.656" cy="144.895" r="4" fill="#0" id="circle48"/>
	<circle cx="119.393" cy="7.18766" r="4" fill="#0" id="circle49"/>
	<circle cx="120.031" cy="144.895" r="4" fill="#0" id="circle50"/>
	<circle cx="125.131" cy="10.3753" r="4" fill="#0" id="circle51"/>
	<circle cx="126.406" cy="144.895" r="4" fill="#0" id="circle52"/>
	<circle cx="131.506" cy="10.3753" r="4" fill="#0" id="circle53"/>
	<circle cx="132.781" cy="144.895" r="4" fill="#0" id="circle54"/>
	<circle cx="137.882" cy="10.3753" r="4" fill="#0" id="circle55"/>
	<circle cx="139.157" cy="144.895" r="4" fill="#0" id="circle56"/>
	<circle cx="144.257" cy="10.3753" r="4" fill="#0" id="circle57"/>
	<circle cx="145.532" cy="144.895" r="4" fill="#0" id="circle58"/>
	<circle cx="150.632" cy="10.3753" r="4" fill="#0" id="circle59"/>
	<circle cx="151.907" cy="144.895" r="4" fill="#0" id="circle60"/>
	<circle cx="157.008" cy="10.3753" r="4" fill="#0" id="circle61"/>
	<circle cx="158.283" cy="144.895" r="4" fill="#0" id="circle62"/>
	<circle cx="163.383" cy="10.3753" r="4" fill="#0" id="circle63"/>
	<circle cx="164.658" cy="144.895" r="4" fill="#0" id="circle64"/>
	<circle cx="169.758" cy="10.3753" r="4" fill="#0" id="circle65"/>
	<circle cx="171.033" cy="144.895" r="4" fill="#0" id="circle66"/>
	<circle cx="175.496" cy="13.563" r="4" fill="#0" id="circle67"/>
	<circle cx="177.409" cy="144.895" r="4" fill="#0" id="circle68"/>
	<circle cx="181.871" cy="13.563" r="4" fill="#0" id="circle69"/>
	<circle cx="183.784" cy="144.895" r="4" fill="#0" id="circle70"/>
	<circle cx="188.247" cy="13.563" r="4" fill="#0" id="circle71"/>
	<circle cx="190.159" cy="144.895" r="4" fill="#0" id="circle72"/>
	<circle cx="194.622" cy="13.563" r="4" fill="#0" id="circle73"/>
	<circle cx="196.535" cy="144.895" r="4" fill="#0" id="circle74"/>
	<circle cx="200.997" cy="13.563" r="4" fill="#0" id="circle75"/>
	<circle cx="202.91" cy="144.895" r="4" fill="#0" id="circle76"/>
	<circle cx="207.373" cy="13.563" r="4" fill="#0" id="circle77"/>
	<circle cx="209.285" cy="144.895" r="4" fill="#0" id="circle78"/>
	<circle cx="213.748" cy="13.563" r="4" fill="#0" id="circle79"/>
	<circle cx="215.661" cy="144.895" r="4" fill="#0" id="circle80"/>
	<circle cx="220.123" cy="14.2005" r="4" fill="#0" id="circle81"/>
	<circle cx="222.036" cy="144.895" r="4" fill="#0" id="circle82"/>
	<circle cx="226.499" cy="16.7506" r="4" fill="#0" id="circle83"/>
	<circle cx="228.411" cy="144.895" r="4" fill="#0" id="circle84"/>
	<circle cx="232.874" cy="16.7506" r="4" fill="#0" id="circle85"/>
	<circle cx="234.787" cy="144.895" r="4" fill="#0" id="circle86"/>
	<circle cx="239.249" cy="16.7506" r="4" fill="#0" id="circle87"/>
	<circle cx="241.162" cy="144.895" r="4" fill="#0" id="circle88"/>
	<circle cx="245.625" cy="16.7506" r="4" fill="#0" id="circle89"/>
	<circle cx="247.537" cy="144.895" r="4" fill="#0" id="circle90"/>
	<circle cx="252" cy="16.7506" r="4" fill="#0" id="circle91"/>
	<circle cx="253.913" cy="144.895" r="4" fill="#0" id="circle92"/>
	<circle cx="258.375" cy="16.7506" r="4" fill="#0" id="circle93"/>
	<circle cx="259.65" cy="148.082" r="4" fill="#0" id="circle94"/>
	<circle cx="264.751" cy="16.7506" r="4" fill="#0" id="circle95"/>
	<circle cx="266.026" cy="148.082" r="4" fill="#0" id="circle96"/>
	<circle cx="271.126" cy="16.7506" r="4" fill="#0" id="circle97"/>
	<circle cx="272.401" cy="148.082" r="4" fill="#0" id="circle98"/>
	<circle cx="277.501" cy="16.7506" r="4" fill="#0" id="circle99"/>
	<circle cx="278.139" cy="144.895" r="4" fill="#0" id="circle100"/>
	<circle cx="283.239" cy="19.9383" r="4" fill="#0" id="circle101"/>
	<circle cx="284.514" cy="144.895" r="4" fill="#0" id="circle102"/>
	<circle cx="289.614" cy="19.9383" r="4" fill="#0" id="circle103"/>
	<circle cx="290.889" cy="144.895" r="4" fill="#0" id="circle104"/>
	<circle cx="295.99" cy="19.9383" r="4" fill="#0" id="circle105"/>
	<circle cx="296.627" cy="148.082" r="4" fill="#0" id="circle106"/>
	<circle cx="302.365" cy="19.9383" r="4" fill="#0" id="circle107"/>
	<circle cx="303.003" cy="148.082" r="4" fill="#0" id="circle108"/>
	<circle cx="308.74" cy="19.9383" r="4" fill="#0" id="circle109"/>
	<circle cx="309.378" cy="148.082" r="4" fill="#0" id="circle110"/>
	<circle cx="315.116" cy="19.9383" r="4" fill="#0" id="circle111"/>
	<circle cx="315.753" cy="148.082" r="4" fill="#0" id="circle112"/>
	<circle cx="321.491" cy="19.9383" r="4" fill="#0" id="circle113"/>
	<circle cx="322.129" cy="148.082" r="4" fill="#0" id="circle114"/>
	<circle cx="327.866" cy="19.9383" r="4" fill="#0" id="circle115"/>
	<circle cx="328.504" cy="148.082" r="4" fill="#0" id="circle116"/>
	<circle cx="334.242" cy="19.9383" r="4" fill="#0" id="circle117"/>
	<circle cx="334.879" cy="148.082" r="4" fill="#0" id="circle118"/>
	<circle cx="339.979" cy="23.126" r="4" fill="#0" id="circle119"/>
	<circle cx="341.254" cy="148.082" r="4" fill="#0" id="circle120"/>
	<circle cx="346.355" cy="23.126" r="4" fill="#0" id="circle121"/>
	<circle cx="347.63" cy="148.082" r="4" fill="#0" id="circle122"/>
	<circle cx="352.73" cy="23.126" r="4" fill="#0" id="circle123"/>
	<circle cx="354.005" cy="148.082" r="4" fill="#0" id="circle124"/>
	<circle cx="359.105" cy="23.126" r="4" fill="#0" id="circle125"/>
	<circle cx="360.38" cy="148.082" r="4" fill="#0" id="circle126"/>
	<circle cx="365.481" cy="23.126" r="4" fill="#0" id="circle127"/>
	<circle cx="366.756" cy="148.082" r="4" fill="#0" id="circle128"/>
	<circle cx="371.856" cy="23.126" r="4" fill="#0" id="circle129"/>
	<circle cx="373.131" cy="148.082" r="4" fill="#0" id="circle130"/>
	<circle cx="378.231" cy="23.126" r="4" fill="#0" id="circle131"/>
	<circle cx="379.506" cy="148.082" r="4" fill="#0" id="circle132"/>
	<circle cx="383.969" cy="26.3136" r="4" fill="#0" id="circle133"/>
	<circle cx="385.882" cy="148.082" r="4" fill="#0" id="circle134"/>
	<circle cx="390.344" cy="26.3136" r="4" fill="#0" id="circle135"/>
	<circle cx="392.257" cy="148.082" r="4" fill="#0" id="circle136"/>
	<circle cx="396.72" cy="28.2262" r="4" fill="#0" id="circle137"/>
	<circle cx="398.632" cy="146.807" r="4" fill="#0" id="circle138"/>
	<circle cx="403.095" cy="29.5013" r="4" fill="#0" id="circle139"/>
	<circle cx="405.008" cy="143.62" r="4" fill="#0" id="circle140"/>
	<circle cx="409.47" cy="29.5013" r="4" fill="#0" id="circle141"/>
	<circle cx="411.383" cy="141.707" r="4" fill="#0" id="circle142"/>
	<circle cx="415.846" cy="29.5013" r="4" fill="#0" id="circle143"/>
	<circle cx="417.758" cy="141.707" r="4" fill="#0" id="circle144"/>
	<circle cx="421.584" cy="32.6889" r="4" fill="#0" id="circle145"/>
	<circle cx="424.134" cy="141.707" r="4" fill="#0" id="circle146"/>
	<circle cx="427.959" cy="32.6889" r="4" fill="#0" id="circle147"/>
	<circle cx="430.509" cy="141.707" r="4" fill="#0" id="circle148"/>
	<circle cx="434.334" cy="32.6889" r="4" fill="#0" id="circle149"/>
	<circle cx="436.884" cy="141.707" r="4" fill="#0" id="circle150"/>
	<circle cx="440.71" cy="32.6889" r="4" fill="#0" id="circle151"/>
	<circle cx="443.26" cy="141.707" r="4" fill="#0" id="circle152"/>
	<circle cx="447.085" cy="32.6889" r="4" fill="#0" id="circle153"/>
	<circle cx="449.635" cy="141.707" r="4" fill="#0" id="circle154"/>
	<circle cx="453.46" cy="33.964" r="4" fill="#0" id="circle155"/>
	<circle cx="456.01" cy="141.707" r="4" fill="#0" id="circle156"/>
	<circle cx="459.835" cy="35.8766" r="4" fill="#0" id="circle157"/>
	<circle cx="462.386" cy="141.707" r="4" fill="#0" id="circle158"/>
	<circle cx="466.211" cy="35.8766" r="4" fill="#0" id="circle159"/>
	<circle cx="468.761" cy="141.707" r="4" fill="#0" id="circle160"/>
	<circle cx="472.586" cy="35.8766" r="4" fill="#0" id="circle161"/>
	<circle cx="475.136" cy="141.707" r="4" fill="#0" id="circle162"/>
	<circle cx="478.961" cy="35.8766" r="4" fill="#0" id="circle163"/>
	<circle cx="481.512" cy="141.707" r="4" fill="#0" id="circle164"/>
	<circle cx="485.337" cy="35.8766" r="4" fill="#0" id="circle165"/>
	<circle cx="487.887" cy="141.707" r="4" fill="#0" id="circle166"/>
	<circle cx="491.712" cy="35.8766" r="4" fill="#0" id="circle167"/>
	<circle cx="494.262" cy="141.707" r="4" fill="#0" id="circle168"/>
	<circle cx="498.087" cy="35.8766" r="4" fill="#0" id="circle169"/>
	<circle cx="500.638" cy="141.707" r="4" fill="#0" id="circle170"/>
	<circle cx="503.825" cy="39.0643" r="4" fill="#0" id="circle171"/>
	<circle cx="507.013" cy="141.707" r="4" fill="#0" id="circle172"/>
	<circle cx="510.201" cy="39.0643" r="4" fill="#0" id="circle173"/>
	<circle cx="513.388" cy="141.707" r="4" fill="#0" id="circle174"/>
	<circle cx="516.576" cy="39.0643" r="4" fill="#0" id="circle175"/>
	<circle cx="519.763" cy="141.707" r="4" fill="#0" id="circle176"/>
	<circle cx="522.951" cy="39.0643" r="4" fill="#0" id="circle177"/>
	<circle cx="525.501" cy="144.895" r="4" fill="#0" id="circle178"/>
	<circle cx="529.326" cy="39.0643" r="4" fill="#0" id="circle179"/>
	<circle cx="531.877" cy="144.895" r="4" fill="#0" id="circle180"/>
	<circle cx="535.702" cy="39.0643" r="4" fill="#0" id="circle181"/>
	<circle cx="538.252" cy="144.895" r="4" fill="#0" id="circle182"/>
	<circle cx="542.077" cy="39.0643" r="4" fill="#0" id="circle183"/>
	<circle cx="544.627" cy="144.895" r="4" fill="#0" id="circle184"/>
	<circle cx="548.452" cy="39.0643" r="4" fill="#0" id="circle185"/>
	<circle cx="551.003" cy="144.895" r="4" fill="#0" id="circle186"/>
	<circle cx="554.19" cy="42.2519" r="4" fill="#0" id="circle187"/>
	<circle cx="557.378" cy="144.895" r="4" fill="#0" id="circle188"/>
	<circle cx="560.566" cy="42.2519" r="4" fill="#0" id="circle189"/>
	<circle cx="563.753" cy="144.895" r="4" fill="#0" id="circle190"/>
	<circle cx="566.941" cy="42.2519" r="4" fill="#0" id="circle191"/>
	<circle cx="570.129" cy="144.895" r="4" fill="#0" id="circle192"/>
	<circle cx="573.316" cy="42.2519" r="4" fill="#0" id="circle193"/>
	<circle cx="576.504" cy="144.895" r="4" fill="#0" id="circle194"/>
	<circle cx="579.692" cy="42.2519" r="4" fill="#0" id="circle195"/>
	<circle cx="582.879" cy="144.895" r="4" fill="#0" id="circle196"/>
	<circle cx="586.067" cy="42.2519" r="4" fill="#0" id="circle197"/>
	<circle cx="589.254" cy="144.895" r="4" fill="#0" id="circle198"/>
	<circle cx="592.442" cy="42.2519" r="4" fill="#0" id="circle199"/>
	<circle cx="595.63" cy="144.895" r="4" fill="#0" id="circle200"/>
	<circle cx="598.18" cy="45.4396" r="4" fill="#0" id="circle201"/>
	<circle cx="602.005" cy="144.895" r="4" fill="#0" id="circle202"/>
	<circle cx="604.555" cy="45.4396" r="4" fill="#0" id="circle203"/>
	<circle cx="608.38" cy="144.895" r="4" fill="#0" id="circle204"/>
	<circle cx="610.931" cy="45.4396" r="4" fill="#0" id="circle205"/>
	<circle cx="614.756" cy="144.895" r="4" fill="#0" id="circle206"/>
	<circle cx="617.306" cy="45.4396" r="4" fill="#0" id="circle207"/>
	<circle cx="621.131" cy="144.895" r="4" fill="#0" id="circle208"/>
	<circle cx="623.681" cy="45.4396" r="4" fill="#0" id="circle209"/>
	<circle cx="627.506" cy="144.895" r="4" fill="#0" id="circle210"/>
	<circle cx="630.057" cy="45.4396" r="4" fill="#0" id="circle211"/>
	<circle cx="633.882" cy="144.895" r="4" fill="#0" id="circle212"/>
	<circle cx="636.432" cy="45.4396" r="4" fill="#0" id="circle213"/>
	<circle cx="640.257" cy="144.895" r="4" fill="#0" id="circle214"/>
	<circle cx="642.807" cy="45.4396" r="4" fill="#0" id="circle215"/>
	<circle cx="646.632" cy="144.895" r="4" fill="#0" id="circle216"/>
	<circle cx="648.545" cy="48.6272" r="4" fill="#0" id="circle217"/>
	<circle cx="653.008" cy="144.895" r="4" fill="#0" id="circle218"/>
	<circle cx="654.92" cy="48.6272" r="4" fill="#0" id="circle219"/>
	<circle cx="659.383" cy="144.895" r="4" fill="#0" id="circle220"/>
	<circle cx="661.296" cy="48.6272" r="4" fill="#0" id="circle221"/>
	<circle cx="665.758" cy="144.895" r="4" fill="#0" id="circle222"/>
	<circle cx="667.671" cy="48.6272" r="4" fill="#0" id="circle223"/>
	<circle cx="672.134" cy="144.895" r="4" fill="#0" id="circle224"/>
	<circle cx="674.046" cy="48.6272" r="4" fill="#0" id="circle225"/>
	<circle cx="678.509" cy="144.895" r="4" fill="#0" id="circle226"/>
	<circle cx="680.422" cy="48.6272" r="4" fill="#0" id="circle227"/>
	<circle cx="684.884" cy="144.895" r="4" fill="#0" id="circle228"/>
	<circle cx="686.797" cy="48.6272" r="4" fill="#0" id="circle229"/>
	<circle cx="691.26" cy="144.895" r="4" fill="#0" id="circle230"/>
	<circle cx="693.172" cy="48.6272" r="4" fill="#0" id="circle231"/>
	<circle cx="697.635" cy="144.895" r="4" fill="#0" id="circle232"/>
	<circle cx="698.91" cy="51.8149" r="4" fill="#0" id="circle233"/>
	<circle cx="704.01" cy="144.895" r="4" fill="#0" id="circle234"/>
	<circle cx="705.285" cy="51.8149" r="4" fill="#0" id="circle235"/>
	<circle cx="710.386" cy="144.895" r="4" fill="#0" id="circle236"/>
	<circle cx="711.661" cy="51.8149" r="4" fill="#0" id="circle237"/>
	<circle cx="716.761" cy="144.895" r="4" fill="#0" id="circle238"/>
	<circle cx="718.036" cy="51.8149" r="4" fill="#0" id="circle239"/>
	<circle cx="723.136" cy="144.895" r="4" fill="#0" id="circle240"/>
	<circle cx="724.411" cy="51.8149" r="4" fill="#0" id="circle241"/>
	<circle cx="728.874" cy="148.082" r="4" fill="#0" id="circle242"/>
	<circle cx="730.787" cy="51.8149" r="4" fill="#0" id="circle243"/>
	<circle cx="735.249" cy="148.082" r="4" fill="#0" id="circle244"/>
	<circle cx="737.162" cy="51.8149" r="4" fill="#0" id="circle245"/>
	<circle cx="741.625" cy="148.082" r="4" fill="#0" id="circle246"/>
	<circle cx="743.537" cy="51.8149" r="4" fill="#0" id="circle247"/>
	<circle cx="748" cy="148.082" r="4" fill="#0" id="circle248"/>
	<circle cx="749.275" cy="55.0026" r="4" fill="#0" id="circle249"/>
	<circle cx="754.375" cy="148.082" r="4" fill="#0" id="circle250"/>
	<circle cx="755.65" cy="55.0026" r="4" fill="#0" id="circle251"/>
	<circle cx="760.751" cy="148.082" r="4" fill="#0" id="circle252"/>
	<circle cx="762.026" cy="55.0026" r="4" fill="#0" id="circle253"/>
	<circle cx="767.126" cy="148.082" r="4" fill="#0" id="circle254"/>
	<circle cx="768.401" cy="55.0026" r="4" fill="#0" id="circle255"/>
	<circle cx="773.501" cy="148.082" r="4" fill="#0" id="circle256"/>
	<circle cx="774.776" cy="55.0026" r="4" fill="#0" id="circle257"/>
	<circle cx="779.877" cy="148.082" r="4" fill="#0" id="circle258"/>
	<circle cx="781.152" cy="55.0026" r="4" fill="#0" id="circle259"/>
	<circle cx="786.252" cy="148.082" r="4" fill="#0" id="circle260"/>
	<circle cx="787.527" cy="55.0026" r="4" fill="#0" id="circle261"/>
	<circle cx="792.627" cy="148.082" r="4" fill="#0" id="circle262"/>
	<circle cx="793.902" cy="55.0026" r="4" fill="#0" id="circle263"/>
	<circle cx="799.003" cy="148.082" r="4" fill="#0" id="circle264"/>
	<circle cx="799.64" cy="58.1902" r="4" fill="#0" id="circle265"/>
	<circle cx="805.378" cy="148.082" r="4" fill="#0" id="circle266"/>
	<circle cx="806.015" cy="58.1902" r="4" fill="#0" id="circle267"/>
	<circle cx="811.753" cy="148.082" r="4" fill="#0" id="circle268"/>
	<circle cx="812.391" cy="58.1902" r="4" fill="#0" id="circle269"/>
	<circle cx="818.129" cy="148.082" r="4" fill="#0" id="circle270"/>
	<circle cx="818.766" cy="58.1902" r="4" fill="#0" id="circle271"/>
	<circle cx="824.504" cy="148.082" r="4" fill="#0" id="circle272"/>
	<circle cx="825.141" cy="58.1902" r="4" fill="#0" id="circle273"/>
	<circle cx="830.879" cy="148.082" r="4" fill="#0" id="circle274"/>
	<circle cx="831.517" cy="58.1902" r="4" fill="#0" id="circle275"/>
	<circle cx="837.254" cy="148.082" r="4" fill="#0" id="circle276"/>
	<circle cx="837.892" cy="58.1902" r="4" fill="#0" id="circle277"/>
	<circle cx="843.63" cy="61.3779" r="4" fill="#0" id="circle278"/>
	<circle cx="843.63" cy="149.995" r="4" fill="#0" id="circle279"/>
	<circle cx="850.005" cy="61.3779" r="4" fill="#0" id="circle280"/>
	<circle cx="850.005" cy="151.27" r="4" fill="#0" id="circle281"/>
	<circle cx="856.38" cy="61.3779" r="4" fill="#0" id="circle282"/>
	<circle cx="856.38" cy="151.27" r="4" fill="#0" id="circle283"/>
	<circle cx="862.756" cy="61.3779" r="4" fill="#0" id="circle284"/>
	<circle cx="862.756" cy="151.27" r="4" fill="#0" id="circle285"/>
	<circle cx="869.131" cy="61.3779" r="4" fill="#0" id="circle286"/>
	<circle cx="869.131" cy="151.27" r="4" fill="#0" id="circle287"/>
	<circle cx="875.506" cy="61.3779" r="4" fill="#0" id="circle288"/>
	<circle cx="875.506" cy="151.27" r="4" fill="#0" id="circle289"/>
	<circle cx="881.882" cy="61.3779" r="4" fill="#0" id="circle290"/>
	<circle cx="881.882" cy="151.27" r="4" fill="#0" id="circle291"/>
	<circle cx="888.257" cy="61.3779" r="4" fill="#0" id="circle292"/>
	<circle cx="888.257" cy="151.27" r="4" fill="#0" id="circle293"/>
	<circle cx="894.632" cy="61.3779" r="4" fill="#0" id="circle294"/>
	<circle cx="894.632" cy="151.27" r="4" fill="#0" id="circle295"/>
	<circle cx="900.37" cy="64.5656" r="4" fill="#0" id="circle296"/>
	<circle cx="901.008" cy="151.27" r="4" fill="#0" id="circle297"/>
	<circle cx="906.746" cy="64.5656" r="4" fill="#0" id="circle298"/>
	<circle cx="906.746" cy="148.082" r="4" fill="#0" id="circle299"/>
	<circle cx="913.121" cy="66.4781" r="4" fill="#0" id="circle300"/>
	<circle cx="913.121" cy="148.082" r="4" fill="#0" id="circle301"/>
	<circle cx="919.496" cy="67.7532" r="4" fill="#0" id="circle302"/>
	<circle cx="919.496" cy="148.082" r="4" fill="#0" id="circle303"/>
	<circle cx="925.234" cy="144.895" r="4" fill="#0" id="circle304"/>
	<circle cx="925.871" cy="69.6658" r="4" fill="#0" id="circle305"/>
	<circle cx="931.609" cy="144.895" r="4" fill="#0" id="circle306"/>
	<circle cx="932.247" cy="70.9409" r="4" fill="#0" id="circle307"/>
	<circle cx="937.347" cy="141.707" r="4" fill="#0" id="circle308"/>
	<circle cx="937.985" cy="74.1285" r="4" fill="#0" id="circle309"/>
	<circle cx="943.722" cy="77.3162" r="4" fill="#0" id="circle310"/>
	<circle cx="943.722" cy="141.707" r="4" fill="#0" id="circle311"/>
	<circle cx="949.46" cy="138.519" r="4" fill="#0" id="circle312"/>
	<circle cx="950.098" cy="77.9537" r="4" fill="#0" id="circle313"/>
	<circle cx="955.835" cy="81.1414" r="4" fill="#0" id="circle314"/>
	<circle cx="955.835" cy="137.882" r="4" fill="#0" id="circle315"/>
	<circle cx="962.211" cy="83.6915" r="4" fill="#0" id="circle316"/>
	<circle cx="962.211" cy="134.694" r="4" fill="#0" id="circle317"/>
	<circle cx="967.949" cy="86.8792" r="4" fill="#0" id="circle318"/>
	<circle cx="968.586" cy="131.506" r="4" fill="#0" id="circle319"/>
	<circle cx="973.686" cy="90.0668" r="4" fill="#0" id="circle320"/>
	<circle cx="974.961" cy="128.319" r="4" fill="#0" id="circle321"/>
	<circle cx="980.062" cy="91.9794" r="4" fill="#0" id="circle322"/>
	<circle cx="981.337" cy="125.131" r="4" fill="#0" id="circle323"/>
	<circle cx="985.799" cy="95.1671" r="4" fill="#0" id="circle324"/>
	<circle cx="987.712" cy="121.943" r="4" fill="#0" id="circle325"/>
	<circle cx="992.175" cy="97.7172" r="4" fill="#0" id="circle326"/>
	<circle cx="992.812" cy="116.206" r="4" fill="#0" id="circle327"/>
	<circle cx="996" cy="102.817" r="4" fill="#0" id="circle328"/>
	<circle cx="996" cy="109.193" r="4" fill="#0" id="circle329"/>
	</g>
</svg>