<?xml version="1.0" encoding="UTF-8" standalone="no"?>
<!-- Created with CurveBenchmark -->
<svg
	xmlns:dc="http://purl.org/dc/elements/1.1/"
	xmlns:cc="http://creativecommons.org/ns#"
	xmlns:rdf="http://www.w3.org/1999/02/22-rdf-syntax-ns#"
	xmlns:svg="http://www.w3.org/2000/svg"
	xmlns="http://www.w3.org/2000/svg"
	xmlns:sodipodi="http://sodipodi.sourceforge.net/DTD/sodipodi-0.dtd"
	xmlns:inkscape="http://www.inkscape.org/namespaces/inkscape"
	width="1000"
	height="1000"
	id="svg2"
	version="1.1"
	sodipodi:docname="manifold/ccrust-dude0occ4.png.txt">
<defs
	id="defs4" />
<metadata
	id="metadata7">
	<rdf:RDF>
		<cc:Work
			rdf:about="">
			<dc:format>image/svg+xml</dc:format>
			<dc:type
				rdf:resource="http://purl.org/dc/dcmitype/StillImage" />
			<dc:title></dc:title>
		</cc:Work>
	</rdf:RDF>
</metadata>
<g
	inkscape:label="Layer 1"
	inkscape:groupmode="layer"
	id="layer1">
	<path style="fill:none;stroke:red;stroke-width:1px;stroke-linecap:butt;stroke-linejoin:miter;stroke-opacity:1" d="M 141.385,276.749 131.283,296.953 z" id="boundary" inkscape:connector-curvature="0" />
	<path style="fill:none;stroke:red;stroke-width:1px;stroke-linecap:butt;stroke-linejoin:miter;stroke-opacity:1" d="M 131.283,296.953 115.12,313.116 z" id="boundary" inkscape:connector-curvature="0" />
	<path style="fill:none;stroke:red;stroke-width:1px;stroke-linecap:butt;stroke-linejoin:miter;stroke-opacity:1" d="M 151.487,256.546 141.385,276.749 z" id="boundary" inkscape:connector-curvature="0" />
	<path style="fill:none;stroke:red;stroke-width:1px;stroke-linecap:butt;stroke-linejoin:miter;stroke-opacity:1" d="M 208.057,339.381 191.894,357.564 z" id="boundary" inkscape:connector-curvature="0" />
	<path style="fill:none;stroke:red;stroke-width:1px;stroke-linecap:butt;stroke-linejoin:miter;stroke-opacity:1" d="M 105.018,333.32 115.12,313.116 z" id="boundary" inkscape:connector-curvature="0" />
	<path style="fill:none;stroke:red;stroke-width:1px;stroke-linecap:butt;stroke-linejoin:miter;stroke-opacity:1" d="M 60.5703,387.87 70.6721,367.666 z" id="boundary" inkscape:connector-curvature="0" />
	<path style="fill:none;stroke:red;stroke-width:1px;stroke-linecap:butt;stroke-linejoin:miter;stroke-opacity:1" d="M 60.5703,387.87 44.4073,404.033 z" id="boundary" inkscape:connector-curvature="0" />
	<path style="fill:none;stroke:red;stroke-width:1px;stroke-linecap:butt;stroke-linejoin:miter;stroke-opacity:1" d="M 88.8554,357.564 105.018,333.32 z" id="boundary" inkscape:connector-curvature="0" />
	<path style="fill:none;stroke:red;stroke-width:1px;stroke-linecap:butt;stroke-linejoin:miter;stroke-opacity:1" d="M 88.8554,357.564 70.6721,367.666 z" id="boundary" inkscape:connector-curvature="0" />
	<path style="fill:none;stroke:red;stroke-width:1px;stroke-linecap:butt;stroke-linejoin:miter;stroke-opacity:1" d="M 167.65,240.383 151.487,256.546 z" id="boundary" inkscape:connector-curvature="0" />
	<path style="fill:none;stroke:red;stroke-width:1px;stroke-linecap:butt;stroke-linejoin:miter;stroke-opacity:1" d="M 201.996,216.138 183.813,226.24 z" id="boundary" inkscape:connector-curvature="0" />
	<path style="fill:none;stroke:red;stroke-width:1px;stroke-linecap:butt;stroke-linejoin:miter;stroke-opacity:1" d="M 183.813,226.24 167.65,240.383 z" id="boundary" inkscape:connector-curvature="0" />
	<path style="fill:none;stroke:red;stroke-width:1px;stroke-linecap:butt;stroke-linejoin:miter;stroke-opacity:1" d="M 161.589,387.87 145.426,399.992 z" id="boundary" inkscape:connector-curvature="0" />
	<path style="fill:none;stroke:red;stroke-width:1px;stroke-linecap:butt;stroke-linejoin:miter;stroke-opacity:1" d="M 171.69,367.666 191.894,357.564 z" id="boundary" inkscape:connector-curvature="0" />
	<path style="fill:none;stroke:red;stroke-width:1px;stroke-linecap:butt;stroke-linejoin:miter;stroke-opacity:1" d="M 161.589,387.87 171.69,367.666 z" id="boundary" inkscape:connector-curvature="0" />
	<path style="fill:none;stroke:red;stroke-width:1px;stroke-linecap:butt;stroke-linejoin:miter;stroke-opacity:1" d="M 145.426,399.992 127.242,410.094 z" id="boundary" inkscape:connector-curvature="0" />
	<path style="fill:none;stroke:red;stroke-width:1px;stroke-linecap:butt;stroke-linejoin:miter;stroke-opacity:1" d="M 34.3055,424.236 34.3055,444.44 z" id="boundary" inkscape:connector-curvature="0" />
	<path style="fill:none;stroke:red;stroke-width:1px;stroke-linecap:butt;stroke-linejoin:miter;stroke-opacity:1" d="M 50.4684,458.582 34.3055,444.44 z" id="boundary" inkscape:connector-curvature="0" />
	<path style="fill:none;stroke:red;stroke-width:1px;stroke-linecap:butt;stroke-linejoin:miter;stroke-opacity:1" d="M 66.6314,470.705 50.4684,458.582 z" id="boundary" inkscape:connector-curvature="0" />
	<path style="fill:none;stroke:red;stroke-width:1px;stroke-linecap:butt;stroke-linejoin:miter;stroke-opacity:1" d="M 82.7943,456.562 66.6314,470.705 z" id="boundary" inkscape:connector-curvature="0" />
	<path style="fill:none;stroke:red;stroke-width:1px;stroke-linecap:butt;stroke-linejoin:miter;stroke-opacity:1" d="M 14.1018,555.56 14.1018,535.356 z" id="boundary" inkscape:connector-curvature="0" />
	<path style="fill:none;stroke:red;stroke-width:1px;stroke-linecap:butt;stroke-linejoin:miter;stroke-opacity:1" d="M 14.1018,535.356 34.3055,529.295 z" id="boundary" inkscape:connector-curvature="0" />
	<path style="fill:none;stroke:red;stroke-width:1px;stroke-linecap:butt;stroke-linejoin:miter;stroke-opacity:1" d="M 74.7128,529.295 54.5092,529.295 z" id="boundary" inkscape:connector-curvature="0" />
	<path style="fill:none;stroke:red;stroke-width:1px;stroke-linecap:butt;stroke-linejoin:miter;stroke-opacity:1" d="M 54.5092,529.295 34.3055,529.295 z" id="boundary" inkscape:connector-curvature="0" />
	<path style="fill:none;stroke:red;stroke-width:1px;stroke-linecap:butt;stroke-linejoin:miter;stroke-opacity:1" d="M 34.3055,424.236 44.4073,404.033 z" id="boundary" inkscape:connector-curvature="0" />
	<path style="fill:none;stroke:red;stroke-width:1px;stroke-linecap:butt;stroke-linejoin:miter;stroke-opacity:1" d="M 82.7943,456.562 92.8961,436.358 z" id="boundary" inkscape:connector-curvature="0" />
	<path style="fill:none;stroke:red;stroke-width:1px;stroke-linecap:butt;stroke-linejoin:miter;stroke-opacity:1" d="M 92.8961,436.358 113.1,426.257 z" id="boundary" inkscape:connector-curvature="0" />
	<path style="fill:none;stroke:red;stroke-width:1px;stroke-linecap:butt;stroke-linejoin:miter;stroke-opacity:1" d="M 113.1,426.257 127.242,410.094 z" id="boundary" inkscape:connector-curvature="0" />
	<path style="fill:none;stroke:red;stroke-width:1px;stroke-linecap:butt;stroke-linejoin:miter;stroke-opacity:1" d="M 94.9165,529.295 74.7128,529.295 z" id="boundary" inkscape:connector-curvature="0" />
	<path style="fill:none;stroke:red;stroke-width:1px;stroke-linecap:butt;stroke-linejoin:miter;stroke-opacity:1" d="M 94.9165,529.295 115.12,529.295 z" id="boundary" inkscape:connector-curvature="0" />
	<path style="fill:none;stroke:red;stroke-width:1px;stroke-linecap:butt;stroke-linejoin:miter;stroke-opacity:1" d="M 135.324,529.295 115.12,529.295 z" id="boundary" inkscape:connector-curvature="0" />
	<path style="fill:none;stroke:red;stroke-width:1px;stroke-linecap:butt;stroke-linejoin:miter;stroke-opacity:1" d="M 135.324,529.295 153.507,539.397 z" id="boundary" inkscape:connector-curvature="0" />
	<path style="fill:none;stroke:red;stroke-width:1px;stroke-linecap:butt;stroke-linejoin:miter;stroke-opacity:1" d="M 327.259,80.7739 327.259,100.978 z" id="boundary" inkscape:connector-curvature="0" />
	<path style="fill:none;stroke:red;stroke-width:1px;stroke-linecap:butt;stroke-linejoin:miter;stroke-opacity:1" d="M 337.36,139.365 327.259,121.181 z" id="boundary" inkscape:connector-curvature="0" />
	<path style="fill:none;stroke:red;stroke-width:1px;stroke-linecap:butt;stroke-linejoin:miter;stroke-opacity:1" d="M 327.259,121.181 327.259,100.978 z" id="boundary" inkscape:connector-curvature="0" />
	<path style="fill:none;stroke:red;stroke-width:1px;stroke-linecap:butt;stroke-linejoin:miter;stroke-opacity:1" d="M 337.36,139.365 329.279,169.67 z" id="boundary" inkscape:connector-curvature="0" />
	<path style="fill:none;stroke:red;stroke-width:1px;stroke-linecap:butt;stroke-linejoin:miter;stroke-opacity:1" d="M 327.259,80.7739 343.422,64.611 z" id="boundary" inkscape:connector-curvature="0" />
	<path style="fill:none;stroke:red;stroke-width:1px;stroke-linecap:butt;stroke-linejoin:miter;stroke-opacity:1" d="M 256.546,185.833 274.729,175.731 z" id="boundary" inkscape:connector-curvature="0" />
	<path style="fill:none;stroke:red;stroke-width:1px;stroke-linecap:butt;stroke-linejoin:miter;stroke-opacity:1" d="M 274.729,175.731 294.933,177.752 z" id="boundary" inkscape:connector-curvature="0" />
	<path style="fill:none;stroke:red;stroke-width:1px;stroke-linecap:butt;stroke-linejoin:miter;stroke-opacity:1" d="M 294.933,177.752 315.136,185.833 z" id="boundary" inkscape:connector-curvature="0" />
	<path style="fill:none;stroke:red;stroke-width:1px;stroke-linecap:butt;stroke-linejoin:miter;stroke-opacity:1" d="M 329.279,169.67 315.136,185.833 z" id="boundary" inkscape:connector-curvature="0" />
	<path style="fill:none;stroke:red;stroke-width:1px;stroke-linecap:butt;stroke-linejoin:miter;stroke-opacity:1" d="M 256.546,185.833 238.363,195.935 z" id="boundary" inkscape:connector-curvature="0" />
	<path style="fill:none;stroke:red;stroke-width:1px;stroke-linecap:butt;stroke-linejoin:miter;stroke-opacity:1" d="M 385.849,14.1018 404.033,4 z" id="boundary" inkscape:connector-curvature="0" />
	<path style="fill:none;stroke:red;stroke-width:1px;stroke-linecap:butt;stroke-linejoin:miter;stroke-opacity:1" d="M 404.033,4 424.236,4 z" id="boundary" inkscape:connector-curvature="0" />
	<path style="fill:none;stroke:red;stroke-width:1px;stroke-linecap:butt;stroke-linejoin:miter;stroke-opacity:1" d="M 369.686,28.2444 385.849,14.1018 z" id="boundary" inkscape:connector-curvature="0" />
	<path style="fill:none;stroke:red;stroke-width:1px;stroke-linecap:butt;stroke-linejoin:miter;stroke-opacity:1" d="M 353.523,44.4073 369.686,28.2444 z" id="boundary" inkscape:connector-curvature="0" />
	<path style="fill:none;stroke:red;stroke-width:1px;stroke-linecap:butt;stroke-linejoin:miter;stroke-opacity:1" d="M 343.422,64.611 353.523,44.4073 z" id="boundary" inkscape:connector-curvature="0" />
	<path style="fill:none;stroke:red;stroke-width:1px;stroke-linecap:butt;stroke-linejoin:miter;stroke-opacity:1" d="M 220.179,206.037 201.996,216.138 z" id="boundary" inkscape:connector-curvature="0" />
	<path style="fill:none;stroke:red;stroke-width:1px;stroke-linecap:butt;stroke-linejoin:miter;stroke-opacity:1" d="M 220.179,206.037 238.363,195.935 z" id="boundary" inkscape:connector-curvature="0" />
	<path style="fill:none;stroke:red;stroke-width:1px;stroke-linecap:butt;stroke-linejoin:miter;stroke-opacity:1" d="M 244.424,319.177 264.627,319.177 z" id="boundary" inkscape:connector-curvature="0" />
	<path style="fill:none;stroke:red;stroke-width:1px;stroke-linecap:butt;stroke-linejoin:miter;stroke-opacity:1" d="M 264.627,319.177 272.709,339.381 z" id="boundary" inkscape:connector-curvature="0" />
	<path style="fill:none;stroke:red;stroke-width:1px;stroke-linecap:butt;stroke-linejoin:miter;stroke-opacity:1" d="M 244.424,319.177 226.24,329.279 z" id="boundary" inkscape:connector-curvature="0" />
	<path style="fill:none;stroke:red;stroke-width:1px;stroke-linecap:butt;stroke-linejoin:miter;stroke-opacity:1" d="M 208.057,339.381 226.24,329.279 z" id="boundary" inkscape:connector-curvature="0" />
	<path style="fill:none;stroke:red;stroke-width:1px;stroke-linecap:butt;stroke-linejoin:miter;stroke-opacity:1" d="M 272.709,339.381 276.749,359.585 z" id="boundary" inkscape:connector-curvature="0" />
	<path style="fill:none;stroke:red;stroke-width:1px;stroke-linecap:butt;stroke-linejoin:miter;stroke-opacity:1" d="M 276.749,359.585 282.811,379.788 z" id="boundary" inkscape:connector-curvature="0" />
	<path style="fill:none;stroke:red;stroke-width:1px;stroke-linecap:butt;stroke-linejoin:miter;stroke-opacity:1" d="M 282.811,379.788 286.851,399.992 z" id="boundary" inkscape:connector-curvature="0" />
	<path style="fill:none;stroke:red;stroke-width:1px;stroke-linecap:butt;stroke-linejoin:miter;stroke-opacity:1" d="M 296.953,418.175 286.851,399.992 z" id="boundary" inkscape:connector-curvature="0" />
	<path style="fill:none;stroke:red;stroke-width:1px;stroke-linecap:butt;stroke-linejoin:miter;stroke-opacity:1" d="M 296.953,418.175 300.994,438.379 z" id="boundary" inkscape:connector-curvature="0" />
	<path style="fill:none;stroke:red;stroke-width:1px;stroke-linecap:butt;stroke-linejoin:miter;stroke-opacity:1" d="M 307.055,458.582 300.994,438.379 z" id="boundary" inkscape:connector-curvature="0" />
	<path style="fill:none;stroke:red;stroke-width:1px;stroke-linecap:butt;stroke-linejoin:miter;stroke-opacity:1" d="M 307.055,458.582 311.096,478.786 z" id="boundary" inkscape:connector-curvature="0" />
	<path style="fill:none;stroke:red;stroke-width:1px;stroke-linecap:butt;stroke-linejoin:miter;stroke-opacity:1" d="M 311.096,478.786 317.157,515.153 z" id="boundary" inkscape:connector-curvature="0" />
	<path style="fill:none;stroke:red;stroke-width:1px;stroke-linecap:butt;stroke-linejoin:miter;stroke-opacity:1" d="M 327.259,533.336 317.157,515.153 z" id="boundary" inkscape:connector-curvature="0" />
	<path style="fill:none;stroke:red;stroke-width:1px;stroke-linecap:butt;stroke-linejoin:miter;stroke-opacity:1" d="M 327.259,533.336 313.116,549.499 z" id="boundary" inkscape:connector-curvature="0" />
	<path style="fill:none;stroke:red;stroke-width:1px;stroke-linecap:butt;stroke-linejoin:miter;stroke-opacity:1" d="M 14.1018,555.56 14.1018,575.764 z" id="boundary" inkscape:connector-curvature="0" />
	<path style="fill:none;stroke:red;stroke-width:1px;stroke-linecap:butt;stroke-linejoin:miter;stroke-opacity:1" d="M 14.1018,595.967 14.1018,575.764 z" id="boundary" inkscape:connector-curvature="0" />
	<path style="fill:none;stroke:red;stroke-width:1px;stroke-linecap:butt;stroke-linejoin:miter;stroke-opacity:1" d="M 14.1018,616.171 14.1018,595.967 z" id="boundary" inkscape:connector-curvature="0" />
	<path style="fill:none;stroke:red;stroke-width:1px;stroke-linecap:butt;stroke-linejoin:miter;stroke-opacity:1" d="M 24.2037,652.538 4,646.477 z" id="boundary" inkscape:connector-curvature="0" />
	<path style="fill:none;stroke:red;stroke-width:1px;stroke-linecap:butt;stroke-linejoin:miter;stroke-opacity:1" d="M 24.2037,652.538 44.4073,652.538 z" id="boundary" inkscape:connector-curvature="0" />
	<path style="fill:none;stroke:red;stroke-width:1px;stroke-linecap:butt;stroke-linejoin:miter;stroke-opacity:1" d="M 64.611,652.538 44.4073,652.538 z" id="boundary" inkscape:connector-curvature="0" />
	<path style="fill:none;stroke:red;stroke-width:1px;stroke-linecap:butt;stroke-linejoin:miter;stroke-opacity:1" d="M 84.8147,652.538 64.611,652.538 z" id="boundary" inkscape:connector-curvature="0" />
	<path style="fill:none;stroke:red;stroke-width:1px;stroke-linecap:butt;stroke-linejoin:miter;stroke-opacity:1" d="M 193.914,539.397 173.711,539.397 z" id="boundary" inkscape:connector-curvature="0" />
	<path style="fill:none;stroke:red;stroke-width:1px;stroke-linecap:butt;stroke-linejoin:miter;stroke-opacity:1" d="M 173.711,539.397 153.507,539.397 z" id="boundary" inkscape:connector-curvature="0" />
	<path style="fill:none;stroke:red;stroke-width:1px;stroke-linecap:butt;stroke-linejoin:miter;stroke-opacity:1" d="M 84.8147,652.538 105.018,652.538 z" id="boundary" inkscape:connector-curvature="0" />
	<path style="fill:none;stroke:red;stroke-width:1px;stroke-linecap:butt;stroke-linejoin:miter;stroke-opacity:1" d="M 125.222,652.538 143.405,662.64 z" id="boundary" inkscape:connector-curvature="0" />
	<path style="fill:none;stroke:red;stroke-width:1px;stroke-linecap:butt;stroke-linejoin:miter;stroke-opacity:1" d="M 105.018,652.538 125.222,652.538 z" id="boundary" inkscape:connector-curvature="0" />
	<path style="fill:none;stroke:red;stroke-width:1px;stroke-linecap:butt;stroke-linejoin:miter;stroke-opacity:1" d="M 163.609,662.64 143.405,662.64 z" id="boundary" inkscape:connector-curvature="0" />
	<path style="fill:none;stroke:red;stroke-width:1px;stroke-linecap:butt;stroke-linejoin:miter;stroke-opacity:1" d="M 115.12,959.633 115.12,939.43 z" id="boundary" inkscape:connector-curvature="0" />
	<path style="fill:none;stroke:red;stroke-width:1px;stroke-linecap:butt;stroke-linejoin:miter;stroke-opacity:1" d="M 125.222,919.226 115.12,939.43 z" id="boundary" inkscape:connector-curvature="0" />
	<path style="fill:none;stroke:red;stroke-width:1px;stroke-linecap:butt;stroke-linejoin:miter;stroke-opacity:1" d="M 125.222,919.226 141.385,903.063 z" id="boundary" inkscape:connector-curvature="0" />
	<path style="fill:none;stroke:red;stroke-width:1px;stroke-linecap:butt;stroke-linejoin:miter;stroke-opacity:1" d="M 151.487,882.859 141.385,903.063 z" id="boundary" inkscape:connector-curvature="0" />
	<path style="fill:none;stroke:red;stroke-width:1px;stroke-linecap:butt;stroke-linejoin:miter;stroke-opacity:1" d="M 171.69,973.776 153.507,985.898 z" id="boundary" inkscape:connector-curvature="0" />
	<path style="fill:none;stroke:red;stroke-width:1px;stroke-linecap:butt;stroke-linejoin:miter;stroke-opacity:1" d="M 135.324,996 153.507,985.898 z" id="boundary" inkscape:connector-curvature="0" />
	<path style="fill:none;stroke:red;stroke-width:1px;stroke-linecap:butt;stroke-linejoin:miter;stroke-opacity:1" d="M 135.324,996 125.222,977.817 z" id="boundary" inkscape:connector-curvature="0" />
	<path style="fill:none;stroke:red;stroke-width:1px;stroke-linecap:butt;stroke-linejoin:miter;stroke-opacity:1" d="M 125.222,977.817 115.12,959.633 z" id="boundary" inkscape:connector-curvature="0" />
	<path style="fill:none;stroke:red;stroke-width:1px;stroke-linecap:butt;stroke-linejoin:miter;stroke-opacity:1" d="M 206.037,945.491 187.853,955.593 z" id="boundary" inkscape:connector-curvature="0" />
	<path style="fill:none;stroke:red;stroke-width:1px;stroke-linecap:butt;stroke-linejoin:miter;stroke-opacity:1" d="M 181.792,822.248 171.69,842.452 z" id="boundary" inkscape:connector-curvature="0" />
	<path style="fill:none;stroke:red;stroke-width:1px;stroke-linecap:butt;stroke-linejoin:miter;stroke-opacity:1" d="M 191.894,802.045 181.792,822.248 z" id="boundary" inkscape:connector-curvature="0" />
	<path style="fill:none;stroke:red;stroke-width:1px;stroke-linecap:butt;stroke-linejoin:miter;stroke-opacity:1" d="M 163.609,662.64 183.813,662.64 z" id="boundary" inkscape:connector-curvature="0" />
	<path style="fill:none;stroke:red;stroke-width:1px;stroke-linecap:butt;stroke-linejoin:miter;stroke-opacity:1" d="M 151.487,882.859 161.589,862.656 z" id="boundary" inkscape:connector-curvature="0" />
	<path style="fill:none;stroke:red;stroke-width:1px;stroke-linecap:butt;stroke-linejoin:miter;stroke-opacity:1" d="M 171.69,842.452 161.589,862.656 z" id="boundary" inkscape:connector-curvature="0" />
	<path style="fill:none;stroke:red;stroke-width:1px;stroke-linecap:butt;stroke-linejoin:miter;stroke-opacity:1" d="M 171.69,973.776 187.853,955.593 z" id="boundary" inkscape:connector-curvature="0" />
	<path style="fill:none;stroke:red;stroke-width:1px;stroke-linecap:butt;stroke-linejoin:miter;stroke-opacity:1" d="M 204.016,662.64 183.813,662.64 z" id="boundary" inkscape:connector-curvature="0" />
	<path style="fill:none;stroke:red;stroke-width:1px;stroke-linecap:butt;stroke-linejoin:miter;stroke-opacity:1" d="M 224.22,662.64 204.016,662.64 z" id="boundary" inkscape:connector-curvature="0" />
	<path style="fill:none;stroke:red;stroke-width:1px;stroke-linecap:butt;stroke-linejoin:miter;stroke-opacity:1" d="M 193.914,539.397 214.118,539.397 z" id="boundary" inkscape:connector-curvature="0" />
	<path style="fill:none;stroke:red;stroke-width:1px;stroke-linecap:butt;stroke-linejoin:miter;stroke-opacity:1" d="M 214.118,539.397 234.322,539.397 z" id="boundary" inkscape:connector-curvature="0" />
	<path style="fill:none;stroke:red;stroke-width:1px;stroke-linecap:butt;stroke-linejoin:miter;stroke-opacity:1" d="M 254.525,539.397 234.322,539.397 z" id="boundary" inkscape:connector-curvature="0" />
	<path style="fill:none;stroke:red;stroke-width:1px;stroke-linecap:butt;stroke-linejoin:miter;stroke-opacity:1" d="M 224.22,662.64 244.424,662.64 z" id="boundary" inkscape:connector-curvature="0" />
	<path style="fill:none;stroke:red;stroke-width:1px;stroke-linecap:butt;stroke-linejoin:miter;stroke-opacity:1" d="M 244.424,662.64 264.627,662.64 z" id="boundary" inkscape:connector-curvature="0" />
	<path style="fill:none;stroke:red;stroke-width:1px;stroke-linecap:butt;stroke-linejoin:miter;stroke-opacity:1" d="M 264.627,662.64 266.648,686.884 z" id="boundary" inkscape:connector-curvature="0" />
	<path style="fill:none;stroke:red;stroke-width:1px;stroke-linecap:butt;stroke-linejoin:miter;stroke-opacity:1" d="M 266.648,686.884 256.546,707.088 z" id="boundary" inkscape:connector-curvature="0" />
	<path style="fill:none;stroke:red;stroke-width:1px;stroke-linecap:butt;stroke-linejoin:miter;stroke-opacity:1" d="M 256.546,707.088 242.403,731.332 z" id="boundary" inkscape:connector-curvature="0" />
	<path style="fill:none;stroke:red;stroke-width:1px;stroke-linecap:butt;stroke-linejoin:miter;stroke-opacity:1" d="M 292.912,549.499 313.116,549.499 z" id="boundary" inkscape:connector-curvature="0" />
	<path style="fill:none;stroke:red;stroke-width:1px;stroke-linecap:butt;stroke-linejoin:miter;stroke-opacity:1" d="M 254.525,539.397 274.729,539.397 z" id="boundary" inkscape:connector-curvature="0" />
	<path style="fill:none;stroke:red;stroke-width:1px;stroke-linecap:butt;stroke-linejoin:miter;stroke-opacity:1" d="M 274.729,539.397 292.912,549.499 z" id="boundary" inkscape:connector-curvature="0" />
	<path style="fill:none;stroke:red;stroke-width:1px;stroke-linecap:butt;stroke-linejoin:miter;stroke-opacity:1" d="M 385.849,729.312 399.992,713.149 z" id="boundary" inkscape:connector-curvature="0" />
	<path style="fill:none;stroke:red;stroke-width:1px;stroke-linecap:butt;stroke-linejoin:miter;stroke-opacity:1" d="M 418.175,703.047 436.358,713.149 z" id="boundary" inkscape:connector-curvature="0" />
	<path style="fill:none;stroke:red;stroke-width:1px;stroke-linecap:butt;stroke-linejoin:miter;stroke-opacity:1" d="M 399.992,713.149 418.175,703.047 z" id="boundary" inkscape:connector-curvature="0" />
	<path style="fill:none;stroke:red;stroke-width:1px;stroke-linecap:butt;stroke-linejoin:miter;stroke-opacity:1" d="M 369.686,743.454 385.849,729.312 z" id="boundary" inkscape:connector-curvature="0" />
	<path style="fill:none;stroke:red;stroke-width:1px;stroke-linecap:butt;stroke-linejoin:miter;stroke-opacity:1" d="M 208.057,785.882 218.159,765.678 z" id="boundary" inkscape:connector-curvature="0" />
	<path style="fill:none;stroke:red;stroke-width:1px;stroke-linecap:butt;stroke-linejoin:miter;stroke-opacity:1" d="M 208.057,785.882 191.894,802.045 z" id="boundary" inkscape:connector-curvature="0" />
	<path style="fill:none;stroke:red;stroke-width:1px;stroke-linecap:butt;stroke-linejoin:miter;stroke-opacity:1" d="M 218.159,765.678 234.322,751.536 z" id="boundary" inkscape:connector-curvature="0" />
	<path style="fill:none;stroke:red;stroke-width:1px;stroke-linecap:butt;stroke-linejoin:miter;stroke-opacity:1" d="M 242.403,731.332 234.322,751.536 z" id="boundary" inkscape:connector-curvature="0" />
	<path style="fill:none;stroke:red;stroke-width:1px;stroke-linecap:butt;stroke-linejoin:miter;stroke-opacity:1" d="M 264.627,870.737 248.464,884.88 z" id="boundary" inkscape:connector-curvature="0" />
	<path style="fill:none;stroke:red;stroke-width:1px;stroke-linecap:butt;stroke-linejoin:miter;stroke-opacity:1" d="M 206.037,945.491 218.159,925.287 z" id="boundary" inkscape:connector-curvature="0" />
	<path style="fill:none;stroke:red;stroke-width:1px;stroke-linecap:butt;stroke-linejoin:miter;stroke-opacity:1" d="M 218.159,925.287 234.322,911.145 z" id="boundary" inkscape:connector-curvature="0" />
	<path style="fill:none;stroke:red;stroke-width:1px;stroke-linecap:butt;stroke-linejoin:miter;stroke-opacity:1" d="M 234.322,911.145 248.464,884.88 z" id="boundary" inkscape:connector-curvature="0" />
	<path style="fill:none;stroke:red;stroke-width:1px;stroke-linecap:butt;stroke-linejoin:miter;stroke-opacity:1" d="M 339.381,783.862 319.177,804.065 z" id="boundary" inkscape:connector-curvature="0" />
	<path style="fill:none;stroke:red;stroke-width:1px;stroke-linecap:butt;stroke-linejoin:miter;stroke-opacity:1" d="M 355.544,769.719 369.686,743.454 z" id="boundary" inkscape:connector-curvature="0" />
	<path style="fill:none;stroke:red;stroke-width:1px;stroke-linecap:butt;stroke-linejoin:miter;stroke-opacity:1" d="M 319.177,804.065 305.035,820.228 z" id="boundary" inkscape:connector-curvature="0" />
	<path style="fill:none;stroke:red;stroke-width:1px;stroke-linecap:butt;stroke-linejoin:miter;stroke-opacity:1" d="M 264.627,870.737 284.831,860.635 z" id="boundary" inkscape:connector-curvature="0" />
	<path style="fill:none;stroke:red;stroke-width:1px;stroke-linecap:butt;stroke-linejoin:miter;stroke-opacity:1" d="M 294.933,840.432 284.831,860.635 z" id="boundary" inkscape:connector-curvature="0" />
	<path style="fill:none;stroke:red;stroke-width:1px;stroke-linecap:butt;stroke-linejoin:miter;stroke-opacity:1" d="M 294.933,840.432 305.035,820.228 z" id="boundary" inkscape:connector-curvature="0" />
	<path style="fill:none;stroke:red;stroke-width:1px;stroke-linecap:butt;stroke-linejoin:miter;stroke-opacity:1" d="M 339.381,783.862 355.544,769.719 z" id="boundary" inkscape:connector-curvature="0" />
	<path style="fill:none;stroke:red;stroke-width:1px;stroke-linecap:butt;stroke-linejoin:miter;stroke-opacity:1" d="M 436.358,713.149 450.501,729.312 z" id="boundary" inkscape:connector-curvature="0" />
	<path style="fill:none;stroke:red;stroke-width:1px;stroke-linecap:butt;stroke-linejoin:miter;stroke-opacity:1" d="M 424.236,4 444.44,4 z" id="boundary" inkscape:connector-curvature="0" />
	<path style="fill:none;stroke:red;stroke-width:1px;stroke-linecap:butt;stroke-linejoin:miter;stroke-opacity:1" d="M 444.44,4 458.582,20.1629 z" id="boundary" inkscape:connector-curvature="0" />
	<path style="fill:none;stroke:red;stroke-width:1px;stroke-linecap:butt;stroke-linejoin:miter;stroke-opacity:1" d="M 458.582,20.1629 474.745,34.3055 z" id="boundary" inkscape:connector-curvature="0" />
	<path style="fill:none;stroke:red;stroke-width:1px;stroke-linecap:butt;stroke-linejoin:miter;stroke-opacity:1" d="M 474.745,34.3055 480.807,54.5092 z" id="boundary" inkscape:connector-curvature="0" />
	<path style="fill:none;stroke:red;stroke-width:1px;stroke-linecap:butt;stroke-linejoin:miter;stroke-opacity:1" d="M 501.01,60.5703 480.807,54.5092 z" id="boundary" inkscape:connector-curvature="0" />
	<path style="fill:none;stroke:red;stroke-width:1px;stroke-linecap:butt;stroke-linejoin:miter;stroke-opacity:1" d="M 501.01,60.5703 501.01,86.835 z" id="boundary" inkscape:connector-curvature="0" />
	<path style="fill:none;stroke:red;stroke-width:1px;stroke-linecap:butt;stroke-linejoin:miter;stroke-opacity:1" d="M 501.01,107.039 501.01,127.242 z" id="boundary" inkscape:connector-curvature="0" />
	<path style="fill:none;stroke:red;stroke-width:1px;stroke-linecap:butt;stroke-linejoin:miter;stroke-opacity:1" d="M 501.01,107.039 501.01,86.835 z" id="boundary" inkscape:connector-curvature="0" />
	<path style="fill:none;stroke:red;stroke-width:1px;stroke-linecap:butt;stroke-linejoin:miter;stroke-opacity:1" d="M 501.01,127.242 501.01,147.446 z" id="boundary" inkscape:connector-curvature="0" />
	<path style="fill:none;stroke:red;stroke-width:1px;stroke-linecap:butt;stroke-linejoin:miter;stroke-opacity:1" d="M 501.01,147.446 505.051,167.65 z" id="boundary" inkscape:connector-curvature="0" />
	<path style="fill:none;stroke:red;stroke-width:1px;stroke-linecap:butt;stroke-linejoin:miter;stroke-opacity:1" d="M 525.255,175.731 505.051,167.65 z" id="boundary" inkscape:connector-curvature="0" />
	<path style="fill:none;stroke:red;stroke-width:1px;stroke-linecap:butt;stroke-linejoin:miter;stroke-opacity:1" d="M 563.642,185.833 543.438,185.833 z" id="boundary" inkscape:connector-curvature="0" />
	<path style="fill:none;stroke:red;stroke-width:1px;stroke-linecap:butt;stroke-linejoin:miter;stroke-opacity:1" d="M 543.438,185.833 525.255,175.731 z" id="boundary" inkscape:connector-curvature="0" />
	<path style="fill:none;stroke:red;stroke-width:1px;stroke-linecap:butt;stroke-linejoin:miter;stroke-opacity:1" d="M 583.845,185.833 602.029,195.935 z" id="boundary" inkscape:connector-curvature="0" />
	<path style="fill:none;stroke:red;stroke-width:1px;stroke-linecap:butt;stroke-linejoin:miter;stroke-opacity:1" d="M 563.642,185.833 583.845,185.833 z" id="boundary" inkscape:connector-curvature="0" />
	<path style="fill:none;stroke:red;stroke-width:1px;stroke-linecap:butt;stroke-linejoin:miter;stroke-opacity:1" d="M 600.008,319.177 579.804,319.177 z" id="boundary" inkscape:connector-curvature="0" />
	<path style="fill:none;stroke:red;stroke-width:1px;stroke-linecap:butt;stroke-linejoin:miter;stroke-opacity:1" d="M 579.804,319.177 561.621,329.279 z" id="boundary" inkscape:connector-curvature="0" />
	<path style="fill:none;stroke:red;stroke-width:1px;stroke-linecap:butt;stroke-linejoin:miter;stroke-opacity:1" d="M 620.212,206.037 602.029,195.935 z" id="boundary" inkscape:connector-curvature="0" />
	<path style="fill:none;stroke:red;stroke-width:1px;stroke-linecap:butt;stroke-linejoin:miter;stroke-opacity:1" d="M 531.316,440.399 531.316,460.603 z" id="boundary" inkscape:connector-curvature="0" />
	<path style="fill:none;stroke:red;stroke-width:1px;stroke-linecap:butt;stroke-linejoin:miter;stroke-opacity:1" d="M 531.316,460.603 521.214,480.807 z" id="boundary" inkscape:connector-curvature="0" />
	<path style="fill:none;stroke:red;stroke-width:1px;stroke-linecap:butt;stroke-linejoin:miter;stroke-opacity:1" d="M 531.316,420.196 541.418,399.992 z" id="boundary" inkscape:connector-curvature="0" />
	<path style="fill:none;stroke:red;stroke-width:1px;stroke-linecap:butt;stroke-linejoin:miter;stroke-opacity:1" d="M 531.316,440.399 531.316,420.196 z" id="boundary" inkscape:connector-curvature="0" />
	<path style="fill:none;stroke:red;stroke-width:1px;stroke-linecap:butt;stroke-linejoin:miter;stroke-opacity:1" d="M 521.214,501.01 521.214,480.807 z" id="boundary" inkscape:connector-curvature="0" />
	<path style="fill:none;stroke:red;stroke-width:1px;stroke-linecap:butt;stroke-linejoin:miter;stroke-opacity:1" d="M 511.112,521.214 511.112,541.418 z" id="boundary" inkscape:connector-curvature="0" />
	<path style="fill:none;stroke:red;stroke-width:1px;stroke-linecap:butt;stroke-linejoin:miter;stroke-opacity:1" d="M 521.214,559.601 511.112,541.418 z" id="boundary" inkscape:connector-curvature="0" />
	<path style="fill:none;stroke:red;stroke-width:1px;stroke-linecap:butt;stroke-linejoin:miter;stroke-opacity:1" d="M 541.418,559.601 521.214,559.601 z" id="boundary" inkscape:connector-curvature="0" />
	<path style="fill:none;stroke:red;stroke-width:1px;stroke-linecap:butt;stroke-linejoin:miter;stroke-opacity:1" d="M 511.112,521.214 521.214,501.01 z" id="boundary" inkscape:connector-curvature="0" />
	<path style="fill:none;stroke:red;stroke-width:1px;stroke-linecap:butt;stroke-linejoin:miter;stroke-opacity:1" d="M 541.418,379.788 551.519,349.483 z" id="boundary" inkscape:connector-curvature="0" />
	<path style="fill:none;stroke:red;stroke-width:1px;stroke-linecap:butt;stroke-linejoin:miter;stroke-opacity:1" d="M 551.519,349.483 561.621,329.279 z" id="boundary" inkscape:connector-curvature="0" />
	<path style="fill:none;stroke:red;stroke-width:1px;stroke-linecap:butt;stroke-linejoin:miter;stroke-opacity:1" d="M 541.418,399.992 541.418,379.788 z" id="boundary" inkscape:connector-curvature="0" />
	<path style="fill:none;stroke:red;stroke-width:1px;stroke-linecap:butt;stroke-linejoin:miter;stroke-opacity:1" d="M 602.029,569.703 581.825,565.662 z" id="boundary" inkscape:connector-curvature="0" />
	<path style="fill:none;stroke:red;stroke-width:1px;stroke-linecap:butt;stroke-linejoin:miter;stroke-opacity:1" d="M 561.621,559.601 541.418,559.601 z" id="boundary" inkscape:connector-curvature="0" />
	<path style="fill:none;stroke:red;stroke-width:1px;stroke-linecap:butt;stroke-linejoin:miter;stroke-opacity:1" d="M 581.825,565.662 561.621,559.601 z" id="boundary" inkscape:connector-curvature="0" />
	<path style="fill:none;stroke:red;stroke-width:1px;stroke-linecap:butt;stroke-linejoin:miter;stroke-opacity:1" d="M 600.008,319.177 618.191,329.279 z" id="boundary" inkscape:connector-curvature="0" />
	<path style="fill:none;stroke:red;stroke-width:1px;stroke-linecap:butt;stroke-linejoin:miter;stroke-opacity:1" d="M 636.375,218.159 620.212,206.037 z" id="boundary" inkscape:connector-curvature="0" />
	<path style="fill:none;stroke:red;stroke-width:1px;stroke-linecap:butt;stroke-linejoin:miter;stroke-opacity:1" d="M 656.578,226.24 636.375,218.159 z" id="boundary" inkscape:connector-curvature="0" />
	<path style="fill:none;stroke:red;stroke-width:1px;stroke-linecap:butt;stroke-linejoin:miter;stroke-opacity:1" d="M 656.578,226.24 662.64,246.444 z" id="boundary" inkscape:connector-curvature="0" />
	<path style="fill:none;stroke:red;stroke-width:1px;stroke-linecap:butt;stroke-linejoin:miter;stroke-opacity:1" d="M 662.64,246.444 672.741,264.627 z" id="boundary" inkscape:connector-curvature="0" />
	<path style="fill:none;stroke:red;stroke-width:1px;stroke-linecap:butt;stroke-linejoin:miter;stroke-opacity:1" d="M 632.334,345.442 618.191,329.279 z" id="boundary" inkscape:connector-curvature="0" />
	<path style="fill:none;stroke:red;stroke-width:1px;stroke-linecap:butt;stroke-linejoin:miter;stroke-opacity:1" d="M 650.517,355.544 660.619,373.727 z" id="boundary" inkscape:connector-curvature="0" />
	<path style="fill:none;stroke:red;stroke-width:1px;stroke-linecap:butt;stroke-linejoin:miter;stroke-opacity:1" d="M 632.334,345.442 650.517,355.544 z" id="boundary" inkscape:connector-curvature="0" />
	<path style="fill:none;stroke:red;stroke-width:1px;stroke-linecap:butt;stroke-linejoin:miter;stroke-opacity:1" d="M 660.619,373.727 670.721,391.91 z" id="boundary" inkscape:connector-curvature="0" />
	<path style="fill:none;stroke:red;stroke-width:1px;stroke-linecap:butt;stroke-linejoin:miter;stroke-opacity:1" d="M 688.904,278.77 703.047,294.933 z" id="boundary" inkscape:connector-curvature="0" />
	<path style="fill:none;stroke:red;stroke-width:1px;stroke-linecap:butt;stroke-linejoin:miter;stroke-opacity:1" d="M 688.904,278.77 672.741,264.627 z" id="boundary" inkscape:connector-curvature="0" />
	<path style="fill:none;stroke:red;stroke-width:1px;stroke-linecap:butt;stroke-linejoin:miter;stroke-opacity:1" d="M 719.21,309.075 733.352,325.238 z" id="boundary" inkscape:connector-curvature="0" />
	<path style="fill:none;stroke:red;stroke-width:1px;stroke-linecap:butt;stroke-linejoin:miter;stroke-opacity:1" d="M 719.21,309.075 703.047,294.933 z" id="boundary" inkscape:connector-curvature="0" />
	<path style="fill:none;stroke:red;stroke-width:1px;stroke-linecap:butt;stroke-linejoin:miter;stroke-opacity:1" d="M 743.454,343.422 733.352,325.238 z" id="boundary" inkscape:connector-curvature="0" />
	<path style="fill:none;stroke:red;stroke-width:1px;stroke-linecap:butt;stroke-linejoin:miter;stroke-opacity:1" d="M 743.454,343.422 751.536,363.625 z" id="boundary" inkscape:connector-curvature="0" />
	<path style="fill:none;stroke:red;stroke-width:1px;stroke-linecap:butt;stroke-linejoin:miter;stroke-opacity:1" d="M 753.556,383.829 751.536,363.625 z" id="boundary" inkscape:connector-curvature="0" />
	<path style="fill:none;stroke:red;stroke-width:1px;stroke-linecap:butt;stroke-linejoin:miter;stroke-opacity:1" d="M 767.699,399.992 753.556,383.829 z" id="boundary" inkscape:connector-curvature="0" />
	<path style="fill:none;stroke:red;stroke-width:1px;stroke-linecap:butt;stroke-linejoin:miter;stroke-opacity:1" d="M 622.232,569.703 602.029,569.703 z" id="boundary" inkscape:connector-curvature="0" />
	<path style="fill:none;stroke:red;stroke-width:1px;stroke-linecap:butt;stroke-linejoin:miter;stroke-opacity:1" d="M 701.026,420.196 684.864,408.073 z" id="boundary" inkscape:connector-curvature="0" />
	<path style="fill:none;stroke:red;stroke-width:1px;stroke-linecap:butt;stroke-linejoin:miter;stroke-opacity:1" d="M 701.026,420.196 711.128,438.379 z" id="boundary" inkscape:connector-curvature="0" />
	<path style="fill:none;stroke:red;stroke-width:1px;stroke-linecap:butt;stroke-linejoin:miter;stroke-opacity:1" d="M 723.251,454.542 711.128,438.379 z" id="boundary" inkscape:connector-curvature="0" />
	<path style="fill:none;stroke:red;stroke-width:1px;stroke-linecap:butt;stroke-linejoin:miter;stroke-opacity:1" d="M 684.864,408.073 670.721,391.91 z" id="boundary" inkscape:connector-curvature="0" />
	<path style="fill:none;stroke:red;stroke-width:1px;stroke-linecap:butt;stroke-linejoin:miter;stroke-opacity:1" d="M 723.251,454.542 737.393,470.705 z" id="boundary" inkscape:connector-curvature="0" />
	<path style="fill:none;stroke:red;stroke-width:1px;stroke-linecap:butt;stroke-linejoin:miter;stroke-opacity:1" d="M 755.576,480.807 737.393,470.705 z" id="boundary" inkscape:connector-curvature="0" />
	<path style="fill:none;stroke:red;stroke-width:1px;stroke-linecap:butt;stroke-linejoin:miter;stroke-opacity:1" d="M 783.862,414.134 798.004,430.297 z" id="boundary" inkscape:connector-curvature="0" />
	<path style="fill:none;stroke:red;stroke-width:1px;stroke-linecap:butt;stroke-linejoin:miter;stroke-opacity:1" d="M 783.862,414.134 767.699,399.992 z" id="boundary" inkscape:connector-curvature="0" />
	<path style="fill:none;stroke:red;stroke-width:1px;stroke-linecap:butt;stroke-linejoin:miter;stroke-opacity:1" d="M 798.004,430.297 808.106,448.481 z" id="boundary" inkscape:connector-curvature="0" />
	<path style="fill:none;stroke:red;stroke-width:1px;stroke-linecap:butt;stroke-linejoin:miter;stroke-opacity:1" d="M 771.739,492.929 755.576,480.807 z" id="boundary" inkscape:connector-curvature="0" />
	<path style="fill:none;stroke:red;stroke-width:1px;stroke-linecap:butt;stroke-linejoin:miter;stroke-opacity:1" d="M 791.943,501.01 771.739,492.929 z" id="boundary" inkscape:connector-curvature="0" />
	<path style="fill:none;stroke:red;stroke-width:1px;stroke-linecap:butt;stroke-linejoin:miter;stroke-opacity:1" d="M 812.147,494.949 814.167,468.684 z" id="boundary" inkscape:connector-curvature="0" />
	<path style="fill:none;stroke:red;stroke-width:1px;stroke-linecap:butt;stroke-linejoin:miter;stroke-opacity:1" d="M 812.147,494.949 791.943,501.01 z" id="boundary" inkscape:connector-curvature="0" />
	<path style="fill:none;stroke:red;stroke-width:1px;stroke-linecap:butt;stroke-linejoin:miter;stroke-opacity:1" d="M 808.106,448.481 814.167,468.684 z" id="boundary" inkscape:connector-curvature="0" />
	<path style="fill:none;stroke:red;stroke-width:1px;stroke-linecap:butt;stroke-linejoin:miter;stroke-opacity:1" d="M 466.664,743.454 450.501,729.312 z" id="boundary" inkscape:connector-curvature="0" />
	<path style="fill:none;stroke:red;stroke-width:1px;stroke-linecap:butt;stroke-linejoin:miter;stroke-opacity:1" d="M 561.621,682.843 565.662,703.047 z" id="boundary" inkscape:connector-curvature="0" />
	<path style="fill:none;stroke:red;stroke-width:1px;stroke-linecap:butt;stroke-linejoin:miter;stroke-opacity:1" d="M 575.764,721.23 565.662,703.047 z" id="boundary" inkscape:connector-curvature="0" />
	<path style="fill:none;stroke:red;stroke-width:1px;stroke-linecap:butt;stroke-linejoin:miter;stroke-opacity:1" d="M 565.662,703.047 583.845,692.945 z" id="boundary" inkscape:connector-curvature="0" />
	<path style="fill:none;stroke:red;stroke-width:1px;stroke-linecap:butt;stroke-linejoin:miter;stroke-opacity:1" d="M 466.664,743.454 474.745,763.658 z" id="boundary" inkscape:connector-curvature="0" />
	<path style="fill:none;stroke:red;stroke-width:1px;stroke-linecap:butt;stroke-linejoin:miter;stroke-opacity:1" d="M 490.908,777.8 474.745,763.658 z" id="boundary" inkscape:connector-curvature="0" />
	<path style="fill:none;stroke:red;stroke-width:1px;stroke-linecap:butt;stroke-linejoin:miter;stroke-opacity:1" d="M 575.764,721.23 581.825,741.434 z" id="boundary" inkscape:connector-curvature="0" />
	<path style="fill:none;stroke:red;stroke-width:1px;stroke-linecap:butt;stroke-linejoin:miter;stroke-opacity:1" d="M 509.092,787.902 490.908,777.8 z" id="boundary" inkscape:connector-curvature="0" />
	<path style="fill:none;stroke:red;stroke-width:1px;stroke-linecap:butt;stroke-linejoin:miter;stroke-opacity:1" d="M 597.988,753.556 581.825,741.434 z" id="boundary" inkscape:connector-curvature="0" />
	<path style="fill:none;stroke:red;stroke-width:1px;stroke-linecap:butt;stroke-linejoin:miter;stroke-opacity:1" d="M 604.049,692.945 583.845,692.945 z" id="boundary" inkscape:connector-curvature="0" />
	<path style="fill:none;stroke:red;stroke-width:1px;stroke-linecap:butt;stroke-linejoin:miter;stroke-opacity:1" d="M 624.253,692.945 604.049,692.945 z" id="boundary" inkscape:connector-curvature="0" />
	<path style="fill:none;stroke:red;stroke-width:1px;stroke-linecap:butt;stroke-linejoin:miter;stroke-opacity:1" d="M 642.436,569.703 622.232,569.703 z" id="boundary" inkscape:connector-curvature="0" />
	<path style="fill:none;stroke:red;stroke-width:1px;stroke-linecap:butt;stroke-linejoin:miter;stroke-opacity:1" d="M 597.988,753.556 606.069,773.76 z" id="boundary" inkscape:connector-curvature="0" />
	<path style="fill:none;stroke:red;stroke-width:1px;stroke-linecap:butt;stroke-linejoin:miter;stroke-opacity:1" d="M 624.253,692.945 644.456,692.945 z" id="boundary" inkscape:connector-curvature="0" />
	<path style="fill:none;stroke:red;stroke-width:1px;stroke-linecap:butt;stroke-linejoin:miter;stroke-opacity:1" d="M 616.171,791.943 606.069,773.76 z" id="boundary" inkscape:connector-curvature="0" />
	<path style="fill:none;stroke:red;stroke-width:1px;stroke-linecap:butt;stroke-linejoin:miter;stroke-opacity:1" d="M 644.456,692.945 664.66,692.945 z" id="boundary" inkscape:connector-curvature="0" />
	<path style="fill:none;stroke:red;stroke-width:1px;stroke-linecap:butt;stroke-linejoin:miter;stroke-opacity:1" d="M 509.092,787.902 509.092,808.106 z" id="boundary" inkscape:connector-curvature="0" />
	<path style="fill:none;stroke:red;stroke-width:1px;stroke-linecap:butt;stroke-linejoin:miter;stroke-opacity:1" d="M 525.255,822.248 509.092,808.106 z" id="boundary" inkscape:connector-curvature="0" />
	<path style="fill:none;stroke:red;stroke-width:1px;stroke-linecap:butt;stroke-linejoin:miter;stroke-opacity:1" d="M 525.255,822.248 533.336,842.452 z" id="boundary" inkscape:connector-curvature="0" />
	<path style="fill:none;stroke:red;stroke-width:1px;stroke-linecap:butt;stroke-linejoin:miter;stroke-opacity:1" d="M 543.438,860.635 533.336,842.452 z" id="boundary" inkscape:connector-curvature="0" />
	<path style="fill:none;stroke:red;stroke-width:1px;stroke-linecap:butt;stroke-linejoin:miter;stroke-opacity:1" d="M 543.438,860.635 559.601,874.778 z" id="boundary" inkscape:connector-curvature="0" />
	<path style="fill:none;stroke:red;stroke-width:1px;stroke-linecap:butt;stroke-linejoin:miter;stroke-opacity:1" d="M 559.601,874.778 569.703,892.961 z" id="boundary" inkscape:connector-curvature="0" />
	<path style="fill:none;stroke:red;stroke-width:1px;stroke-linecap:butt;stroke-linejoin:miter;stroke-opacity:1" d="M 581.825,909.124 569.703,892.961 z" id="boundary" inkscape:connector-curvature="0" />
	<path style="fill:none;stroke:red;stroke-width:1px;stroke-linecap:butt;stroke-linejoin:miter;stroke-opacity:1" d="M 581.825,909.124 589.906,929.328 z" id="boundary" inkscape:connector-curvature="0" />
	<path style="fill:none;stroke:red;stroke-width:1px;stroke-linecap:butt;stroke-linejoin:miter;stroke-opacity:1" d="M 632.334,814.167 642.436,832.35 z" id="boundary" inkscape:connector-curvature="0" />
	<path style="fill:none;stroke:red;stroke-width:1px;stroke-linecap:butt;stroke-linejoin:miter;stroke-opacity:1" d="M 632.334,814.167 616.171,791.943 z" id="boundary" inkscape:connector-curvature="0" />
	<path style="fill:none;stroke:red;stroke-width:1px;stroke-linecap:butt;stroke-linejoin:miter;stroke-opacity:1" d="M 642.436,832.35 652.538,850.534 z" id="boundary" inkscape:connector-curvature="0" />
	<path style="fill:none;stroke:red;stroke-width:1px;stroke-linecap:butt;stroke-linejoin:miter;stroke-opacity:1" d="M 589.906,929.328 606.069,943.47 z" id="boundary" inkscape:connector-curvature="0" />
	<path style="fill:none;stroke:red;stroke-width:1px;stroke-linecap:butt;stroke-linejoin:miter;stroke-opacity:1" d="M 606.069,943.47 620.212,959.633 z" id="boundary" inkscape:connector-curvature="0" />
	<path style="fill:none;stroke:red;stroke-width:1px;stroke-linecap:butt;stroke-linejoin:miter;stroke-opacity:1" d="M 620.212,959.633 636.375,973.776 z" id="boundary" inkscape:connector-curvature="0" />
	<path style="fill:none;stroke:red;stroke-width:1px;stroke-linecap:butt;stroke-linejoin:miter;stroke-opacity:1" d="M 652.538,850.534 662.64,868.717 z" id="boundary" inkscape:connector-curvature="0" />
	<path style="fill:none;stroke:red;stroke-width:1px;stroke-linecap:butt;stroke-linejoin:miter;stroke-opacity:1" d="M 642.436,569.703 662.64,569.703 z" id="boundary" inkscape:connector-curvature="0" />
	<path style="fill:none;stroke:red;stroke-width:1px;stroke-linecap:butt;stroke-linejoin:miter;stroke-opacity:1" d="M 662.64,569.703 682.843,569.703 z" id="boundary" inkscape:connector-curvature="0" />
	<path style="fill:none;stroke:red;stroke-width:1px;stroke-linecap:butt;stroke-linejoin:miter;stroke-opacity:1" d="M 682.843,569.703 703.047,569.703 z" id="boundary" inkscape:connector-curvature="0" />
	<path style="fill:none;stroke:red;stroke-width:1px;stroke-linecap:butt;stroke-linejoin:miter;stroke-opacity:1" d="M 723.251,575.764 703.047,569.703 z" id="boundary" inkscape:connector-curvature="0" />
	<path style="fill:none;stroke:red;stroke-width:1px;stroke-linecap:butt;stroke-linejoin:miter;stroke-opacity:1" d="M 705.067,692.945 684.864,692.945 z" id="boundary" inkscape:connector-curvature="0" />
	<path style="fill:none;stroke:red;stroke-width:1px;stroke-linecap:butt;stroke-linejoin:miter;stroke-opacity:1" d="M 684.864,692.945 664.66,692.945 z" id="boundary" inkscape:connector-curvature="0" />
	<path style="fill:none;stroke:red;stroke-width:1px;stroke-linecap:butt;stroke-linejoin:miter;stroke-opacity:1" d="M 723.251,575.764 743.454,579.804 z" id="boundary" inkscape:connector-curvature="0" />
	<path style="fill:none;stroke:red;stroke-width:1px;stroke-linecap:butt;stroke-linejoin:miter;stroke-opacity:1" d="M 743.454,579.804 763.658,579.804 z" id="boundary" inkscape:connector-curvature="0" />
	<path style="fill:none;stroke:red;stroke-width:1px;stroke-linecap:butt;stroke-linejoin:miter;stroke-opacity:1" d="M 783.862,579.804 804.065,579.804 z" id="boundary" inkscape:connector-curvature="0" />
	<path style="fill:none;stroke:red;stroke-width:1px;stroke-linecap:butt;stroke-linejoin:miter;stroke-opacity:1" d="M 783.862,579.804 763.658,579.804 z" id="boundary" inkscape:connector-curvature="0" />
	<path style="fill:none;stroke:red;stroke-width:1px;stroke-linecap:butt;stroke-linejoin:miter;stroke-opacity:1" d="M 824.269,579.804 844.473,579.804 z" id="boundary" inkscape:connector-curvature="0" />
	<path style="fill:none;stroke:red;stroke-width:1px;stroke-linecap:butt;stroke-linejoin:miter;stroke-opacity:1" d="M 844.473,579.804 854.574,597.988 z" id="boundary" inkscape:connector-curvature="0" />
	<path style="fill:none;stroke:red;stroke-width:1px;stroke-linecap:butt;stroke-linejoin:miter;stroke-opacity:1" d="M 824.269,579.804 804.065,579.804 z" id="boundary" inkscape:connector-curvature="0" />
	<path style="fill:none;stroke:red;stroke-width:1px;stroke-linecap:butt;stroke-linejoin:miter;stroke-opacity:1" d="M 854.574,618.191 854.574,638.395 z" id="boundary" inkscape:connector-curvature="0" />
	<path style="fill:none;stroke:red;stroke-width:1px;stroke-linecap:butt;stroke-linejoin:miter;stroke-opacity:1" d="M 854.574,597.988 854.574,618.191 z" id="boundary" inkscape:connector-curvature="0" />
	<path style="fill:none;stroke:red;stroke-width:1px;stroke-linecap:butt;stroke-linejoin:miter;stroke-opacity:1" d="M 854.574,638.395 844.473,672.741 z" id="boundary" inkscape:connector-curvature="0" />
	<path style="fill:none;stroke:red;stroke-width:1px;stroke-linecap:butt;stroke-linejoin:miter;stroke-opacity:1" d="M 844.473,692.945 844.473,672.741 z" id="boundary" inkscape:connector-curvature="0" />
	<path style="fill:none;stroke:red;stroke-width:1px;stroke-linecap:butt;stroke-linejoin:miter;stroke-opacity:1" d="M 672.741,886.9 682.843,905.084 z" id="boundary" inkscape:connector-curvature="0" />
	<path style="fill:none;stroke:red;stroke-width:1px;stroke-linecap:butt;stroke-linejoin:miter;stroke-opacity:1" d="M 672.741,886.9 662.64,868.717 z" id="boundary" inkscape:connector-curvature="0" />
	<path style="fill:none;stroke:red;stroke-width:1px;stroke-linecap:butt;stroke-linejoin:miter;stroke-opacity:1" d="M 682.843,905.084 692.945,923.267 z" id="boundary" inkscape:connector-curvature="0" />
	<path style="fill:none;stroke:red;stroke-width:1px;stroke-linecap:butt;stroke-linejoin:miter;stroke-opacity:1" d="M 692.945,923.267 692.945,943.47 z" id="boundary" inkscape:connector-curvature="0" />
	<path style="fill:none;stroke:red;stroke-width:1px;stroke-linecap:butt;stroke-linejoin:miter;stroke-opacity:1" d="M 654.558,983.878 674.762,985.898 z" id="boundary" inkscape:connector-curvature="0" />
	<path style="fill:none;stroke:red;stroke-width:1px;stroke-linecap:butt;stroke-linejoin:miter;stroke-opacity:1" d="M 692.945,963.674 674.762,985.898 z" id="boundary" inkscape:connector-curvature="0" />
	<path style="fill:none;stroke:red;stroke-width:1px;stroke-linecap:butt;stroke-linejoin:miter;stroke-opacity:1" d="M 692.945,943.47 692.945,963.674 z" id="boundary" inkscape:connector-curvature="0" />
	<path style="fill:none;stroke:red;stroke-width:1px;stroke-linecap:butt;stroke-linejoin:miter;stroke-opacity:1" d="M 654.558,983.878 636.375,973.776 z" id="boundary" inkscape:connector-curvature="0" />
	<path style="fill:none;stroke:red;stroke-width:1px;stroke-linecap:butt;stroke-linejoin:miter;stroke-opacity:1" d="M 725.271,699.006 745.475,703.047 z" id="boundary" inkscape:connector-curvature="0" />
	<path style="fill:none;stroke:red;stroke-width:1px;stroke-linecap:butt;stroke-linejoin:miter;stroke-opacity:1" d="M 725.271,699.006 705.067,692.945 z" id="boundary" inkscape:connector-curvature="0" />
	<path style="fill:none;stroke:red;stroke-width:1px;stroke-linecap:butt;stroke-linejoin:miter;stroke-opacity:1" d="M 765.678,703.047 745.475,703.047 z" id="boundary" inkscape:connector-curvature="0" />
	<path style="fill:none;stroke:red;stroke-width:1px;stroke-linecap:butt;stroke-linejoin:miter;stroke-opacity:1" d="M 844.473,692.945 826.289,703.047 z" id="boundary" inkscape:connector-curvature="0" />
	<path style="fill:none;stroke:red;stroke-width:1px;stroke-linecap:butt;stroke-linejoin:miter;stroke-opacity:1" d="M 765.678,703.047 785.882,703.047 z" id="boundary" inkscape:connector-curvature="0" />
	<path style="fill:none;stroke:red;stroke-width:1px;stroke-linecap:butt;stroke-linejoin:miter;stroke-opacity:1" d="M 806.086,703.047 826.289,703.047 z" id="boundary" inkscape:connector-curvature="0" />
	<path style="fill:none;stroke:red;stroke-width:1px;stroke-linecap:butt;stroke-linejoin:miter;stroke-opacity:1" d="M 806.086,703.047 785.882,703.047 z" id="boundary" inkscape:connector-curvature="0" />
	<circle cx="4" cy="646.477" r="4" fill="#0" id="circle0"/>
	<circle cx="14.1018" cy="535.356" r="4" fill="#0" id="circle1"/>
	<circle cx="14.1018" cy="555.56" r="4" fill="#0" id="circle2"/>
	<circle cx="14.1018" cy="575.764" r="4" fill="#0" id="circle3"/>
	<circle cx="14.1018" cy="595.967" r="4" fill="#0" id="circle4"/>
	<circle cx="14.1018" cy="616.171" r="4" fill="#0" id="circle5"/>
	<circle cx="24.2037" cy="652.538" r="4" fill="#0" id="circle6"/>
	<circle cx="34.3055" cy="424.236" r="4" fill="#0" id="circle7"/>
	<circle cx="34.3055" cy="444.44" r="4" fill="#0" id="circle8"/>
	<circle cx="34.3055" cy="529.295" r="4" fill="#0" id="circle9"/>
	<circle cx="44.4073" cy="404.033" r="4" fill="#0" id="circle10"/>
	<circle cx="44.4073" cy="652.538" r="4" fill="#0" id="circle11"/>
	<circle cx="50.4684" cy="458.582" r="4" fill="#0" id="circle12"/>
	<circle cx="54.5092" cy="529.295" r="4" fill="#0" id="circle13"/>
	<circle cx="60.5703" cy="387.87" r="4" fill="#0" id="circle14"/>
	<circle cx="64.611" cy="652.538" r="4" fill="#0" id="circle15"/>
	<circle cx="66.6314" cy="470.705" r="4" fill="#0" id="circle16"/>
	<circle cx="70.6721" cy="367.666" r="4" fill="#0" id="circle17"/>
	<circle cx="74.7128" cy="529.295" r="4" fill="#0" id="circle18"/>
	<circle cx="82.7943" cy="456.562" r="4" fill="#0" id="circle19"/>
	<circle cx="84.8147" cy="652.538" r="4" fill="#0" id="circle20"/>
	<circle cx="88.8554" cy="357.564" r="4" fill="#0" id="circle21"/>
	<circle cx="92.8961" cy="436.358" r="4" fill="#0" id="circle22"/>
	<circle cx="94.9165" cy="529.295" r="4" fill="#0" id="circle23"/>
	<circle cx="105.018" cy="333.32" r="4" fill="#0" id="circle24"/>
	<circle cx="105.018" cy="652.538" r="4" fill="#0" id="circle25"/>
	<circle cx="113.1" cy="426.257" r="4" fill="#0" id="circle26"/>
	<circle cx="115.12" cy="313.116" r="4" fill="#0" id="circle27"/>
	<circle cx="115.12" cy="529.295" r="4" fill="#0" id="circle28"/>
	<circle cx="115.12" cy="939.43" r="4" fill="#0" id="circle29"/>
	<circle cx="115.12" cy="959.633" r="4" fill="#0" id="circle30"/>
	<circle cx="125.222" cy="652.538" r="4" fill="#0" id="circle31"/>
	<circle cx="125.222" cy="919.226" r="4" fill="#0" id="circle32"/>
	<circle cx="125.222" cy="977.817" r="4" fill="#0" id="circle33"/>
	<circle cx="127.242" cy="410.094" r="4" fill="#0" id="circle34"/>
	<circle cx="131.283" cy="296.953" r="4" fill="#0" id="circle35"/>
	<circle cx="135.324" cy="529.295" r="4" fill="#0" id="circle36"/>
	<circle cx="135.324" cy="996" r="4" fill="#0" id="circle37"/>
	<circle cx="141.385" cy="276.749" r="4" fill="#0" id="circle38"/>
	<circle cx="141.385" cy="903.063" r="4" fill="#0" id="circle39"/>
	<circle cx="143.405" cy="662.64" r="4" fill="#0" id="circle40"/>
	<circle cx="145.426" cy="399.992" r="4" fill="#0" id="circle41"/>
	<circle cx="151.487" cy="256.546" r="4" fill="#0" id="circle42"/>
	<circle cx="151.487" cy="882.859" r="4" fill="#0" id="circle43"/>
	<circle cx="153.507" cy="539.397" r="4" fill="#0" id="circle44"/>
	<circle cx="153.507" cy="985.898" r="4" fill="#0" id="circle45"/>
	<circle cx="161.589" cy="387.87" r="4" fill="#0" id="circle46"/>
	<circle cx="161.589" cy="862.656" r="4" fill="#0" id="circle47"/>
	<circle cx="163.609" cy="662.64" r="4" fill="#0" id="circle48"/>
	<circle cx="167.65" cy="240.383" r="4" fill="#0" id="circle49"/>
	<circle cx="171.69" cy="367.666" r="4" fill="#0" id="circle50"/>
	<circle cx="171.69" cy="842.452" r="4" fill="#0" id="circle51"/>
	<circle cx="171.69" cy="973.776" r="4" fill="#0" id="circle52"/>
	<circle cx="173.711" cy="539.397" r="4" fill="#0" id="circle53"/>
	<circle cx="181.792" cy="822.248" r="4" fill="#0" id="circle54"/>
	<circle cx="183.813" cy="226.24" r="4" fill="#0" id="circle55"/>
	<circle cx="183.813" cy="662.64" r="4" fill="#0" id="circle56"/>
	<circle cx="187.853" cy="955.593" r="4" fill="#0" id="circle57"/>
	<circle cx="191.894" cy="357.564" r="4" fill="#0" id="circle58"/>
	<circle cx="191.894" cy="802.045" r="4" fill="#0" id="circle59"/>
	<circle cx="193.914" cy="539.397" r="4" fill="#0" id="circle60"/>
	<circle cx="201.996" cy="216.138" r="4" fill="#0" id="circle61"/>
	<circle cx="204.016" cy="662.64" r="4" fill="#0" id="circle62"/>
	<circle cx="206.037" cy="945.491" r="4" fill="#0" id="circle63"/>
	<circle cx="208.057" cy="339.381" r="4" fill="#0" id="circle64"/>
	<circle cx="208.057" cy="785.882" r="4" fill="#0" id="circle65"/>
	<circle cx="214.118" cy="539.397" r="4" fill="#0" id="circle66"/>
	<circle cx="218.159" cy="765.678" r="4" fill="#0" id="circle67"/>
	<circle cx="218.159" cy="925.287" r="4" fill="#0" id="circle68"/>
	<circle cx="220.179" cy="206.037" r="4" fill="#0" id="circle69"/>
	<circle cx="224.22" cy="662.64" r="4" fill="#0" id="circle70"/>
	<circle cx="226.24" cy="329.279" r="4" fill="#0" id="circle71"/>
	<circle cx="234.322" cy="539.397" r="4" fill="#0" id="circle72"/>
	<circle cx="234.322" cy="751.536" r="4" fill="#0" id="circle73"/>
	<circle cx="234.322" cy="911.145" r="4" fill="#0" id="circle74"/>
	<circle cx="238.363" cy="195.935" r="4" fill="#0" id="circle75"/>
	<circle cx="242.403" cy="731.332" r="4" fill="#0" id="circle76"/>
	<circle cx="244.424" cy="319.177" r="4" fill="#0" id="circle77"/>
	<circle cx="244.424" cy="662.64" r="4" fill="#0" id="circle78"/>
	<circle cx="248.464" cy="884.88" r="4" fill="#0" id="circle79"/>
	<circle cx="254.525" cy="539.397" r="4" fill="#0" id="circle80"/>
	<circle cx="256.546" cy="185.833" r="4" fill="#0" id="circle81"/>
	<circle cx="256.546" cy="707.088" r="4" fill="#0" id="circle82"/>
	<circle cx="264.627" cy="319.177" r="4" fill="#0" id="circle83"/>
	<circle cx="264.627" cy="662.64" r="4" fill="#0" id="circle84"/>
	<circle cx="264.627" cy="870.737" r="4" fill="#0" id="circle85"/>
	<circle cx="266.648" cy="686.884" r="4" fill="#0" id="circle86"/>
	<circle cx="272.709" cy="339.381" r="4" fill="#0" id="circle87"/>
	<circle cx="274.729" cy="175.731" r="4" fill="#0" id="circle88"/>
	<circle cx="274.729" cy="539.397" r="4" fill="#0" id="circle89"/>
	<circle cx="276.749" cy="359.585" r="4" fill="#0" id="circle90"/>
	<circle cx="282.811" cy="379.788" r="4" fill="#0" id="circle91"/>
	<circle cx="284.831" cy="860.635" r="4" fill="#0" id="circle92"/>
	<circle cx="286.851" cy="399.992" r="4" fill="#0" id="circle93"/>
	<circle cx="292.912" cy="549.499" r="4" fill="#0" id="circle94"/>
	<circle cx="294.933" cy="177.752" r="4" fill="#0" id="circle95"/>
	<circle cx="294.933" cy="840.432" r="4" fill="#0" id="circle96"/>
	<circle cx="296.953" cy="418.175" r="4" fill="#0" id="circle97"/>
	<circle cx="300.994" cy="438.379" r="4" fill="#0" id="circle98"/>
	<circle cx="305.035" cy="820.228" r="4" fill="#0" id="circle99"/>
	<circle cx="307.055" cy="458.582" r="4" fill="#0" id="circle100"/>
	<circle cx="311.096" cy="478.786" r="4" fill="#0" id="circle101"/>
	<circle cx="313.116" cy="549.499" r="4" fill="#0" id="circle102"/>
	<circle cx="315.136" cy="185.833" r="4" fill="#0" id="circle103"/>
	<circle cx="317.157" cy="515.153" r="4" fill="#0" id="circle104"/>
	<circle cx="319.177" cy="804.065" r="4" fill="#0" id="circle105"/>
	<circle cx="327.259" cy="80.7739" r="4" fill="#0" id="circle106"/>
	<circle cx="327.259" cy="100.978" r="4" fill="#0" id="circle107"/>
	<circle cx="327.259" cy="121.181" r="4" fill="#0" id="circle108"/>
	<circle cx="327.259" cy="533.336" r="4" fill="#0" id="circle109"/>
	<circle cx="329.279" cy="169.67" r="4" fill="#0" id="circle110"/>
	<circle cx="337.36" cy="139.365" r="4" fill="#0" id="circle111"/>
	<circle cx="339.381" cy="783.862" r="4" fill="#0" id="circle112"/>
	<circle cx="343.422" cy="64.611" r="4" fill="#0" id="circle113"/>
	<circle cx="353.523" cy="44.4073" r="4" fill="#0" id="circle114"/>
	<circle cx="355.544" cy="769.719" r="4" fill="#0" id="circle115"/>
	<circle cx="369.686" cy="28.2444" r="4" fill="#0" id="circle116"/>
	<circle cx="369.686" cy="743.454" r="4" fill="#0" id="circle117"/>
	<circle cx="385.849" cy="14.1018" r="4" fill="#0" id="circle118"/>
	<circle cx="385.849" cy="729.312" r="4" fill="#0" id="circle119"/>
	<circle cx="399.992" cy="713.149" r="4" fill="#0" id="circle120"/>
	<circle cx="404.033" cy="4" r="4" fill="#0" id="circle121"/>
	<circle cx="418.175" cy="703.047" r="4" fill="#0" id="circle122"/>
	<circle cx="424.236" cy="4" r="4" fill="#0" id="circle123"/>
	<circle cx="436.358" cy="713.149" r="4" fill="#0" id="circle124"/>
	<circle cx="444.44" cy="4" r="4" fill="#0" id="circle125"/>
	<circle cx="450.501" cy="729.312" r="4" fill="#0" id="circle126"/>
	<circle cx="458.582" cy="20.1629" r="4" fill="#0" id="circle127"/>
	<circle cx="466.664" cy="743.454" r="4" fill="#0" id="circle128"/>
	<circle cx="474.745" cy="34.3055" r="4" fill="#0" id="circle129"/>
	<circle cx="474.745" cy="763.658" r="4" fill="#0" id="circle130"/>
	<circle cx="480.807" cy="54.5092" r="4" fill="#0" id="circle131"/>
	<circle cx="490.908" cy="777.8" r="4" fill="#0" id="circle132"/>
	<circle cx="501.01" cy="60.5703" r="4" fill="#0" id="circle133"/>
	<circle cx="501.01" cy="86.835" r="4" fill="#0" id="circle134"/>
	<circle cx="501.01" cy="107.039" r="4" fill="#0" id="circle135"/>
	<circle cx="501.01" cy="127.242" r="4" fill="#0" id="circle136"/>
	<circle cx="501.01" cy="147.446" r="4" fill="#0" id="circle137"/>
	<circle cx="505.051" cy="167.65" r="4" fill="#0" id="circle138"/>
	<circle cx="509.092" cy="787.902" r="4" fill="#0" id="circle139"/>
	<circle cx="509.092" cy="808.106" r="4" fill="#0" id="circle140"/>
	<circle cx="511.112" cy="521.214" r="4" fill="#0" id="circle141"/>
	<circle cx="511.112" cy="541.418" r="4" fill="#0" id="circle142"/>
	<circle cx="521.214" cy="480.807" r="4" fill="#0" id="circle143"/>
	<circle cx="521.214" cy="501.01" r="4" fill="#0" id="circle144"/>
	<circle cx="521.214" cy="559.601" r="4" fill="#0" id="circle145"/>
	<circle cx="525.255" cy="175.731" r="4" fill="#0" id="circle146"/>
	<circle cx="525.255" cy="822.248" r="4" fill="#0" id="circle147"/>
	<circle cx="531.316" cy="420.196" r="4" fill="#0" id="circle148"/>
	<circle cx="531.316" cy="440.399" r="4" fill="#0" id="circle149"/>
	<circle cx="531.316" cy="460.603" r="4" fill="#0" id="circle150"/>
	<circle cx="533.336" cy="842.452" r="4" fill="#0" id="circle151"/>
	<circle cx="541.418" cy="379.788" r="4" fill="#0" id="circle152"/>
	<circle cx="541.418" cy="399.992" r="4" fill="#0" id="circle153"/>
	<circle cx="541.418" cy="559.601" r="4" fill="#0" id="circle154"/>
	<circle cx="543.438" cy="185.833" r="4" fill="#0" id="circle155"/>
	<circle cx="543.438" cy="860.635" r="4" fill="#0" id="circle156"/>
	<circle cx="551.519" cy="349.483" r="4" fill="#0" id="circle157"/>
	<circle cx="559.601" cy="874.778" r="4" fill="#0" id="circle158"/>
	<circle cx="561.621" cy="329.279" r="4" fill="#0" id="circle159"/>
	<circle cx="561.621" cy="559.601" r="4" fill="#0" id="circle160"/>
	<circle cx="561.621" cy="682.843" r="4" fill="#0" id="circle161"/>
	<circle cx="563.642" cy="185.833" r="4" fill="#0" id="circle162"/>
	<circle cx="565.662" cy="703.047" r="4" fill="#0" id="circle163"/>
	<circle cx="569.703" cy="892.961" r="4" fill="#0" id="circle164"/>
	<circle cx="575.764" cy="721.23" r="4" fill="#0" id="circle165"/>
	<circle cx="579.804" cy="319.177" r="4" fill="#0" id="circle166"/>
	<circle cx="581.825" cy="565.662" r="4" fill="#0" id="circle167"/>
	<circle cx="581.825" cy="741.434" r="4" fill="#0" id="circle168"/>
	<circle cx="581.825" cy="909.124" r="4" fill="#0" id="circle169"/>
	<circle cx="583.845" cy="185.833" r="4" fill="#0" id="circle170"/>
	<circle cx="583.845" cy="692.945" r="4" fill="#0" id="circle171"/>
	<circle cx="589.906" cy="929.328" r="4" fill="#0" id="circle172"/>
	<circle cx="597.988" cy="753.556" r="4" fill="#0" id="circle173"/>
	<circle cx="600.008" cy="319.177" r="4" fill="#0" id="circle174"/>
	<circle cx="602.029" cy="195.935" r="4" fill="#0" id="circle175"/>
	<circle cx="602.029" cy="569.703" r="4" fill="#0" id="circle176"/>
	<circle cx="604.049" cy="692.945" r="4" fill="#0" id="circle177"/>
	<circle cx="606.069" cy="773.76" r="4" fill="#0" id="circle178"/>
	<circle cx="606.069" cy="943.47" r="4" fill="#0" id="circle179"/>
	<circle cx="616.171" cy="791.943" r="4" fill="#0" id="circle180"/>
	<circle cx="618.191" cy="329.279" r="4" fill="#0" id="circle181"/>
	<circle cx="620.212" cy="206.037" r="4" fill="#0" id="circle182"/>
	<circle cx="620.212" cy="959.633" r="4" fill="#0" id="circle183"/>
	<circle cx="622.232" cy="569.703" r="4" fill="#0" id="circle184"/>
	<circle cx="624.253" cy="692.945" r="4" fill="#0" id="circle185"/>
	<circle cx="632.334" cy="345.442" r="4" fill="#0" id="circle186"/>
	<circle cx="632.334" cy="814.167" r="4" fill="#0" id="circle187"/>
	<circle cx="636.375" cy="218.159" r="4" fill="#0" id="circle188"/>
	<circle cx="636.375" cy="973.776" r="4" fill="#0" id="circle189"/>
	<circle cx="642.436" cy="569.703" r="4" fill="#0" id="circle190"/>
	<circle cx="642.436" cy="832.35" r="4" fill="#0" id="circle191"/>
	<circle cx="644.456" cy="692.945" r="4" fill="#0" id="circle192"/>
	<circle cx="650.517" cy="355.544" r="4" fill="#0" id="circle193"/>
	<circle cx="652.538" cy="850.534" r="4" fill="#0" id="circle194"/>
	<circle cx="654.558" cy="983.878" r="4" fill="#0" id="circle195"/>
	<circle cx="656.578" cy="226.24" r="4" fill="#0" id="circle196"/>
	<circle cx="660.619" cy="373.727" r="4" fill="#0" id="circle197"/>
	<circle cx="662.64" cy="246.444" r="4" fill="#0" id="circle198"/>
	<circle cx="662.64" cy="569.703" r="4" fill="#0" id="circle199"/>
	<circle cx="662.64" cy="868.717" r="4" fill="#0" id="circle200"/>
	<circle cx="664.66" cy="692.945" r="4" fill="#0" id="circle201"/>
	<circle cx="670.721" cy="391.91" r="4" fill="#0" id="circle202"/>
	<circle cx="672.741" cy="264.627" r="4" fill="#0" id="circle203"/>
	<circle cx="672.741" cy="886.9" r="4" fill="#0" id="circle204"/>
	<circle cx="674.762" cy="985.898" r="4" fill="#0" id="circle205"/>
	<circle cx="682.843" cy="569.703" r="4" fill="#0" id="circle206"/>
	<circle cx="682.843" cy="905.084" r="4" fill="#0" id="circle207"/>
	<circle cx="684.864" cy="408.073" r="4" fill="#0" id="circle208"/>
	<circle cx="684.864" cy="692.945" r="4" fill="#0" id="circle209"/>
	<circle cx="688.904" cy="278.77" r="4" fill="#0" id="circle210"/>
	<circle cx="692.945" cy="923.267" r="4" fill="#0" id="circle211"/>
	<circle cx="692.945" cy="943.47" r="4" fill="#0" id="circle212"/>
	<circle cx="692.945" cy="963.674" r="4" fill="#0" id="circle213"/>
	<circle cx="701.026" cy="420.196" r="4" fill="#0" id="circle214"/>
	<circle cx="703.047" cy="294.933" r="4" fill="#0" id="circle215"/>
	<circle cx="703.047" cy="569.703" r="4" fill="#0" id="circle216"/>
	<circle cx="705.067" cy="692.945" r="4" fill="#0" id="circle217"/>
	<circle cx="711.128" cy="438.379" r="4" fill="#0" id="circle218"/>
	<circle cx="719.21" cy="309.075" r="4" fill="#0" id="circle219"/>
	<circle cx="723.251" cy="454.542" r="4" fill="#0" id="circle220"/>
	<circle cx="723.251" cy="575.764" r="4" fill="#0" id="circle221"/>
	<circle cx="725.271" cy="699.006" r="4" fill="#0" id="circle222"/>
	<circle cx="733.352" cy="325.238" r="4" fill="#0" id="circle223"/>
	<circle cx="737.393" cy="470.705" r="4" fill="#0" id="circle224"/>
	<circle cx="743.454" cy="343.422" r="4" fill="#0" id="circle225"/>
	<circle cx="743.454" cy="579.804" r="4" fill="#0" id="circle226"/>
	<circle cx="745.475" cy="703.047" r="4" fill="#0" id="circle227"/>
	<circle cx="751.536" cy="363.625" r="4" fill="#0" id="circle228"/>
	<circle cx="753.556" cy="383.829" r="4" fill="#0" id="circle229"/>
	<circle cx="755.576" cy="480.807" r="4" fill="#0" id="circle230"/>
	<circle cx="763.658" cy="579.804" r="4" fill="#0" id="circle231"/>
	<circle cx="765.678" cy="703.047" r="4" fill="#0" id="circle232"/>
	<circle cx="767.699" cy="399.992" r="4" fill="#0" id="circle233"/>
	<circle cx="771.739" cy="492.929" r="4" fill="#0" id="circle234"/>
	<circle cx="783.862" cy="414.134" r="4" fill="#0" id="circle235"/>
	<circle cx="783.862" cy="579.804" r="4" fill="#0" id="circle236"/>
	<circle cx="785.882" cy="703.047" r="4" fill="#0" id="circle237"/>
	<circle cx="791.943" cy="501.01" r="4" fill="#0" id="circle238"/>
	<circle cx="798.004" cy="430.297" r="4" fill="#0" id="circle239"/>
	<circle cx="804.065" cy="579.804" r="4" fill="#0" id="circle240"/>
	<circle cx="806.086" cy="703.047" r="4" fill="#0" id="circle241"/>
	<circle cx="808.106" cy="448.481" r="4" fill="#0" id="circle242"/>
	<circle cx="812.147" cy="494.949" r="4" fill="#0" id="circle243"/>
	<circle cx="814.167" cy="468.684" r="4" fill="#0" id="circle244"/>
	<circle cx="824.269" cy="579.804" r="4" fill="#0" id="circle245"/>
	<circle cx="826.289" cy="703.047" r="4" fill="#0" id="circle246"/>
	<circle cx="844.473" cy="579.804" r="4" fill="#0" id="circle247"/>
	<circle cx="844.473" cy="672.741" r="4" fill="#0" id="circle248"/>
	<circle cx="844.473" cy="692.945" r="4" fill="#0" id="circle249"/>
	<circle cx="854.574" cy="597.988" r="4" fill="#0" id="circle250"/>
	<circle cx="854.574" cy="618.191" r="4" fill="#0" id="circle251"/>
	<circle cx="854.574" cy="638.395" r="4" fill="#0" id="circle252"/>
	</g>
</svg>