<?xml version="1.0" encoding="UTF-8" standalone="no"?>
<!-- Created with CurveBenchmark -->
<svg
	xmlns:dc="http://purl.org/dc/elements/1.1/"
	xmlns:cc="http://creativecommons.org/ns#"
	xmlns:rdf="http://www.w3.org/1999/02/22-rdf-syntax-ns#"
	xmlns:svg="http://www.w3.org/2000/svg"
	xmlns="http://www.w3.org/2000/svg"
	xmlns:sodipodi="http://sodipodi.sourceforge.net/DTD/sodipodi-0.dtd"
	xmlns:inkscape="http://www.inkscape.org/namespaces/inkscape"
	width="1000"
	height="1000"
	id="svg2"
	version="1.1"
	sodipodi:docname="manifold/ccrust-sink185.png.txt">
<defs
	id="defs4" />
<metadata
	id="metadata7">
	<rdf:RDF>
		<cc:Work
			rdf:about="">
			<dc:format>image/svg+xml</dc:format>
			<dc:type
				rdf:resource="http://purl.org/dc/dcmitype/StillImage" />
			<dc:title></dc:title>
		</cc:Work>
	</rdf:RDF>
</metadata>
<g
	inkscape:label="Layer 1"
	inkscape:groupmode="layer"
	id="layer1">
	<path style="fill:none;stroke:red;stroke-width:1px;stroke-linecap:butt;stroke-linejoin:miter;stroke-opacity:1" d="M 4,294.341 42.7122,265.307 z" id="boundary" inkscape:connector-curvature="0" />
	<path style="fill:none;stroke:red;stroke-width:1px;stroke-linecap:butt;stroke-linejoin:miter;stroke-opacity:1" d="M 42.7122,265.307 91.1024,265.307 z" id="boundary" inkscape:connector-curvature="0" />
	<path style="fill:none;stroke:red;stroke-width:1px;stroke-linecap:butt;stroke-linejoin:miter;stroke-opacity:1" d="M 139.493,265.307 91.1024,265.307 z" id="boundary" inkscape:connector-curvature="0" />
	<path style="fill:none;stroke:red;stroke-width:1px;stroke-linecap:butt;stroke-linejoin:miter;stroke-opacity:1" d="M 95.9415,318.537 91.1024,265.307 z" id="boundary" inkscape:connector-curvature="0" />
	<path style="fill:none;stroke:red;stroke-width:1px;stroke-linecap:butt;stroke-linejoin:miter;stroke-opacity:1" d="M 47.5512,318.537 95.9415,318.537 z" id="boundary" inkscape:connector-curvature="0" />
	<path style="fill:none;stroke:red;stroke-width:1px;stroke-linecap:butt;stroke-linejoin:miter;stroke-opacity:1" d="M 144.332,318.537 168.527,362.088 z" id="boundary" inkscape:connector-curvature="0" />
	<path style="fill:none;stroke:red;stroke-width:1px;stroke-linecap:butt;stroke-linejoin:miter;stroke-opacity:1" d="M 95.9415,318.537 144.332,318.537 z" id="boundary" inkscape:connector-curvature="0" />
	<path style="fill:none;stroke:red;stroke-width:1px;stroke-linecap:butt;stroke-linejoin:miter;stroke-opacity:1" d="M 139.493,265.307 144.332,318.537 z" id="boundary" inkscape:connector-curvature="0" />
	<path style="fill:none;stroke:red;stroke-width:1px;stroke-linecap:butt;stroke-linejoin:miter;stroke-opacity:1" d="M 139.493,265.307 187.883,265.307 z" id="boundary" inkscape:connector-curvature="0" />
	<path style="fill:none;stroke:red;stroke-width:1px;stroke-linecap:butt;stroke-linejoin:miter;stroke-opacity:1" d="M 265.307,168.527 313.698,168.527 z" id="boundary" inkscape:connector-curvature="0" />
	<path style="fill:none;stroke:red;stroke-width:1px;stroke-linecap:butt;stroke-linejoin:miter;stroke-opacity:1" d="M 236.273,236.273 265.307,168.527 z" id="boundary" inkscape:connector-curvature="0" />
	<path style="fill:none;stroke:red;stroke-width:1px;stroke-linecap:butt;stroke-linejoin:miter;stroke-opacity:1" d="M 362.088,168.527 313.698,168.527 z" id="boundary" inkscape:connector-curvature="0" />
	<path style="fill:none;stroke:red;stroke-width:1px;stroke-linecap:butt;stroke-linejoin:miter;stroke-opacity:1" d="M 187.883,265.307 236.273,236.273 z" id="boundary" inkscape:connector-curvature="0" />
	<path style="fill:none;stroke:red;stroke-width:1px;stroke-linecap:butt;stroke-linejoin:miter;stroke-opacity:1" d="M 192.722,405.639 168.527,362.088 z" id="boundary" inkscape:connector-curvature="0" />
	<path style="fill:none;stroke:red;stroke-width:1px;stroke-linecap:butt;stroke-linejoin:miter;stroke-opacity:1" d="M 197.561,454.029 192.722,405.639 z" id="boundary" inkscape:connector-curvature="0" />
	<path style="fill:none;stroke:red;stroke-width:1px;stroke-linecap:butt;stroke-linejoin:miter;stroke-opacity:1" d="M 415.317,454.029 366.927,468.546 z" id="boundary" inkscape:connector-curvature="0" />
	<path style="fill:none;stroke:red;stroke-width:1px;stroke-linecap:butt;stroke-linejoin:miter;stroke-opacity:1" d="M 391.122,23.3561 362.088,62.0683 z" id="boundary" inkscape:connector-curvature="0" />
	<path style="fill:none;stroke:red;stroke-width:1px;stroke-linecap:butt;stroke-linejoin:miter;stroke-opacity:1" d="M 197.561,454.029 197.561,502.42 z" id="boundary" inkscape:connector-curvature="0" />
	<path style="fill:none;stroke:red;stroke-width:1px;stroke-linecap:butt;stroke-linejoin:miter;stroke-opacity:1" d="M 197.561,550.81 197.561,599.2 z" id="boundary" inkscape:connector-curvature="0" />
	<path style="fill:none;stroke:red;stroke-width:1px;stroke-linecap:butt;stroke-linejoin:miter;stroke-opacity:1" d="M 197.561,550.81 197.561,502.42 z" id="boundary" inkscape:connector-curvature="0" />
	<path style="fill:none;stroke:red;stroke-width:1px;stroke-linecap:butt;stroke-linejoin:miter;stroke-opacity:1" d="M 197.561,647.59 197.561,695.98 z" id="boundary" inkscape:connector-curvature="0" />
	<path style="fill:none;stroke:red;stroke-width:1px;stroke-linecap:butt;stroke-linejoin:miter;stroke-opacity:1" d="M 197.561,647.59 197.561,599.2 z" id="boundary" inkscape:connector-curvature="0" />
	<path style="fill:none;stroke:red;stroke-width:1px;stroke-linecap:butt;stroke-linejoin:miter;stroke-opacity:1" d="M 221.756,996 173.366,996 z" id="boundary" inkscape:connector-curvature="0" />
	<path style="fill:none;stroke:red;stroke-width:1px;stroke-linecap:butt;stroke-linejoin:miter;stroke-opacity:1" d="M 173.366,996 149.171,952.449 z" id="boundary" inkscape:connector-curvature="0" />
	<path style="fill:none;stroke:red;stroke-width:1px;stroke-linecap:butt;stroke-linejoin:miter;stroke-opacity:1" d="M 149.171,952.449 178.205,904.059 z" id="boundary" inkscape:connector-curvature="0" />
	<path style="fill:none;stroke:red;stroke-width:1px;stroke-linecap:butt;stroke-linejoin:miter;stroke-opacity:1" d="M 197.561,695.98 197.561,744.371 z" id="boundary" inkscape:connector-curvature="0" />
	<path style="fill:none;stroke:red;stroke-width:1px;stroke-linecap:butt;stroke-linejoin:miter;stroke-opacity:1" d="M 197.561,744.371 197.561,792.761 z" id="boundary" inkscape:connector-curvature="0" />
	<path style="fill:none;stroke:red;stroke-width:1px;stroke-linecap:butt;stroke-linejoin:miter;stroke-opacity:1" d="M 366.927,516.937 366.927,468.546 z" id="boundary" inkscape:connector-curvature="0" />
	<path style="fill:none;stroke:red;stroke-width:1px;stroke-linecap:butt;stroke-linejoin:miter;stroke-opacity:1" d="M 197.561,841.151 197.561,792.761 z" id="boundary" inkscape:connector-curvature="0" />
	<path style="fill:none;stroke:red;stroke-width:1px;stroke-linecap:butt;stroke-linejoin:miter;stroke-opacity:1" d="M 178.205,904.059 197.561,841.151 z" id="boundary" inkscape:connector-curvature="0" />
	<path style="fill:none;stroke:red;stroke-width:1px;stroke-linecap:butt;stroke-linejoin:miter;stroke-opacity:1" d="M 270.146,996 221.756,996 z" id="boundary" inkscape:connector-curvature="0" />
	<path style="fill:none;stroke:red;stroke-width:1px;stroke-linecap:butt;stroke-linejoin:miter;stroke-opacity:1" d="M 318.537,996 270.146,996 z" id="boundary" inkscape:connector-curvature="0" />
	<path style="fill:none;stroke:red;stroke-width:1px;stroke-linecap:butt;stroke-linejoin:miter;stroke-opacity:1" d="M 366.927,516.937 366.927,565.327 z" id="boundary" inkscape:connector-curvature="0" />
	<path style="fill:none;stroke:red;stroke-width:1px;stroke-linecap:butt;stroke-linejoin:miter;stroke-opacity:1" d="M 410.478,168.527 362.088,168.527 z" id="boundary" inkscape:connector-curvature="0" />
	<path style="fill:none;stroke:red;stroke-width:1px;stroke-linecap:butt;stroke-linejoin:miter;stroke-opacity:1" d="M 391.122,23.3561 439.512,4 z" id="boundary" inkscape:connector-curvature="0" />
	<path style="fill:none;stroke:red;stroke-width:1px;stroke-linecap:butt;stroke-linejoin:miter;stroke-opacity:1" d="M 439.512,4 473.385,42.7122 z" id="boundary" inkscape:connector-curvature="0" />
	<path style="fill:none;stroke:red;stroke-width:1px;stroke-linecap:butt;stroke-linejoin:miter;stroke-opacity:1" d="M 507.259,81.4244 473.385,42.7122 z" id="boundary" inkscape:connector-curvature="0" />
	<path style="fill:none;stroke:red;stroke-width:1px;stroke-linecap:butt;stroke-linejoin:miter;stroke-opacity:1" d="M 410.478,168.527 458.868,168.527 z" id="boundary" inkscape:connector-curvature="0" />
	<path style="fill:none;stroke:red;stroke-width:1px;stroke-linecap:butt;stroke-linejoin:miter;stroke-opacity:1" d="M 507.259,129.815 545.971,163.688 z" id="boundary" inkscape:connector-curvature="0" />
	<path style="fill:none;stroke:red;stroke-width:1px;stroke-linecap:butt;stroke-linejoin:miter;stroke-opacity:1" d="M 458.868,168.527 507.259,129.815 z" id="boundary" inkscape:connector-curvature="0" />
	<path style="fill:none;stroke:red;stroke-width:1px;stroke-linecap:butt;stroke-linejoin:miter;stroke-opacity:1" d="M 507.259,129.815 507.259,81.4244 z" id="boundary" inkscape:connector-curvature="0" />
	<path style="fill:none;stroke:red;stroke-width:1px;stroke-linecap:butt;stroke-linejoin:miter;stroke-opacity:1" d="M 594.361,168.527 545.971,163.688 z" id="boundary" inkscape:connector-curvature="0" />
	<path style="fill:none;stroke:red;stroke-width:1px;stroke-linecap:butt;stroke-linejoin:miter;stroke-opacity:1" d="M 594.361,168.527 642.751,168.527 z" id="boundary" inkscape:connector-curvature="0" />
	<path style="fill:none;stroke:red;stroke-width:1px;stroke-linecap:butt;stroke-linejoin:miter;stroke-opacity:1" d="M 691.141,168.527 725.015,207.239 z" id="boundary" inkscape:connector-curvature="0" />
	<path style="fill:none;stroke:red;stroke-width:1px;stroke-linecap:butt;stroke-linejoin:miter;stroke-opacity:1" d="M 642.751,168.527 691.141,168.527 z" id="boundary" inkscape:connector-curvature="0" />
	<path style="fill:none;stroke:red;stroke-width:1px;stroke-linecap:butt;stroke-linejoin:miter;stroke-opacity:1" d="M 725.015,207.239 725.015,255.629 z" id="boundary" inkscape:connector-curvature="0" />
	<path style="fill:none;stroke:red;stroke-width:1px;stroke-linecap:butt;stroke-linejoin:miter;stroke-opacity:1" d="M 545.971,318.537 594.361,318.537 z" id="boundary" inkscape:connector-curvature="0" />
	<path style="fill:none;stroke:red;stroke-width:1px;stroke-linecap:butt;stroke-linejoin:miter;stroke-opacity:1" d="M 526.615,366.927 545.971,318.537 z" id="boundary" inkscape:connector-curvature="0" />
	<path style="fill:none;stroke:red;stroke-width:1px;stroke-linecap:butt;stroke-linejoin:miter;stroke-opacity:1" d="M 725.015,255.629 691.141,318.537 z" id="boundary" inkscape:connector-curvature="0" />
	<path style="fill:none;stroke:red;stroke-width:1px;stroke-linecap:butt;stroke-linejoin:miter;stroke-opacity:1" d="M 691.141,318.537 642.751,318.537 z" id="boundary" inkscape:connector-curvature="0" />
	<path style="fill:none;stroke:red;stroke-width:1px;stroke-linecap:butt;stroke-linejoin:miter;stroke-opacity:1" d="M 642.751,318.537 594.361,318.537 z" id="boundary" inkscape:connector-curvature="0" />
	<path style="fill:none;stroke:red;stroke-width:1px;stroke-linecap:butt;stroke-linejoin:miter;stroke-opacity:1" d="M 366.927,565.327 366.927,613.717 z" id="boundary" inkscape:connector-curvature="0" />
	<path style="fill:none;stroke:red;stroke-width:1px;stroke-linecap:butt;stroke-linejoin:miter;stroke-opacity:1" d="M 366.927,662.107 366.927,710.498 z" id="boundary" inkscape:connector-curvature="0" />
	<path style="fill:none;stroke:red;stroke-width:1px;stroke-linecap:butt;stroke-linejoin:miter;stroke-opacity:1" d="M 366.927,662.107 366.927,613.717 z" id="boundary" inkscape:connector-curvature="0" />
	<path style="fill:none;stroke:red;stroke-width:1px;stroke-linecap:butt;stroke-linejoin:miter;stroke-opacity:1" d="M 366.927,758.888 366.927,807.278 z" id="boundary" inkscape:connector-curvature="0" />
	<path style="fill:none;stroke:red;stroke-width:1px;stroke-linecap:butt;stroke-linejoin:miter;stroke-opacity:1" d="M 366.927,855.668 381.444,904.059 z" id="boundary" inkscape:connector-curvature="0" />
	<path style="fill:none;stroke:red;stroke-width:1px;stroke-linecap:butt;stroke-linejoin:miter;stroke-opacity:1" d="M 366.927,996 318.537,996 z" id="boundary" inkscape:connector-curvature="0" />
	<path style="fill:none;stroke:red;stroke-width:1px;stroke-linecap:butt;stroke-linejoin:miter;stroke-opacity:1" d="M 366.927,855.668 366.927,807.278 z" id="boundary" inkscape:connector-curvature="0" />
	<path style="fill:none;stroke:red;stroke-width:1px;stroke-linecap:butt;stroke-linejoin:miter;stroke-opacity:1" d="M 366.927,758.888 366.927,710.498 z" id="boundary" inkscape:connector-curvature="0" />
	<path style="fill:none;stroke:red;stroke-width:1px;stroke-linecap:butt;stroke-linejoin:miter;stroke-opacity:1" d="M 526.615,366.927 502.42,410.478 z" id="boundary" inkscape:connector-curvature="0" />
	<path style="fill:none;stroke:red;stroke-width:1px;stroke-linecap:butt;stroke-linejoin:miter;stroke-opacity:1" d="M 502.42,410.478 463.707,444.351 z" id="boundary" inkscape:connector-curvature="0" />
	<path style="fill:none;stroke:red;stroke-width:1px;stroke-linecap:butt;stroke-linejoin:miter;stroke-opacity:1" d="M 463.707,444.351 415.317,454.029 z" id="boundary" inkscape:connector-curvature="0" />
	<path style="fill:none;stroke:red;stroke-width:1px;stroke-linecap:butt;stroke-linejoin:miter;stroke-opacity:1" d="M 405.639,947.61 415.317,996 z" id="boundary" inkscape:connector-curvature="0" />
	<path style="fill:none;stroke:red;stroke-width:1px;stroke-linecap:butt;stroke-linejoin:miter;stroke-opacity:1" d="M 415.317,996 366.927,996 z" id="boundary" inkscape:connector-curvature="0" />
	<path style="fill:none;stroke:red;stroke-width:1px;stroke-linecap:butt;stroke-linejoin:miter;stroke-opacity:1" d="M 405.639,947.61 381.444,904.059 z" id="boundary" inkscape:connector-curvature="0" />
	<circle cx="4" cy="294.341" r="4" fill="#0" id="circle0"/>
	<circle cx="42.7122" cy="265.307" r="4" fill="#0" id="circle1"/>
	<circle cx="47.5512" cy="318.537" r="4" fill="#0" id="circle2"/>
	<circle cx="91.1024" cy="265.307" r="4" fill="#0" id="circle3"/>
	<circle cx="95.9415" cy="318.537" r="4" fill="#0" id="circle4"/>
	<circle cx="139.493" cy="265.307" r="4" fill="#0" id="circle5"/>
	<circle cx="144.332" cy="318.537" r="4" fill="#0" id="circle6"/>
	<circle cx="149.171" cy="952.449" r="4" fill="#0" id="circle7"/>
	<circle cx="168.527" cy="362.088" r="4" fill="#0" id="circle8"/>
	<circle cx="173.366" cy="996" r="4" fill="#0" id="circle9"/>
	<circle cx="178.205" cy="904.059" r="4" fill="#0" id="circle10"/>
	<circle cx="187.883" cy="265.307" r="4" fill="#0" id="circle11"/>
	<circle cx="192.722" cy="405.639" r="4" fill="#0" id="circle12"/>
	<circle cx="197.561" cy="454.029" r="4" fill="#0" id="circle13"/>
	<circle cx="197.561" cy="502.42" r="4" fill="#0" id="circle14"/>
	<circle cx="197.561" cy="550.81" r="4" fill="#0" id="circle15"/>
	<circle cx="197.561" cy="599.2" r="4" fill="#0" id="circle16"/>
	<circle cx="197.561" cy="647.59" r="4" fill="#0" id="circle17"/>
	<circle cx="197.561" cy="695.98" r="4" fill="#0" id="circle18"/>
	<circle cx="197.561" cy="744.371" r="4" fill="#0" id="circle19"/>
	<circle cx="197.561" cy="792.761" r="4" fill="#0" id="circle20"/>
	<circle cx="197.561" cy="841.151" r="4" fill="#0" id="circle21"/>
	<circle cx="221.756" cy="996" r="4" fill="#0" id="circle22"/>
	<circle cx="236.273" cy="236.273" r="4" fill="#0" id="circle23"/>
	<circle cx="265.307" cy="168.527" r="4" fill="#0" id="circle24"/>
	<circle cx="270.146" cy="996" r="4" fill="#0" id="circle25"/>
	<circle cx="313.698" cy="168.527" r="4" fill="#0" id="circle26"/>
	<circle cx="318.537" cy="996" r="4" fill="#0" id="circle27"/>
	<circle cx="362.088" cy="62.0683" r="4" fill="#0" id="circle28"/>
	<circle cx="362.088" cy="168.527" r="4" fill="#0" id="circle29"/>
	<circle cx="366.927" cy="468.546" r="4" fill="#0" id="circle30"/>
	<circle cx="366.927" cy="516.937" r="4" fill="#0" id="circle31"/>
	<circle cx="366.927" cy="565.327" r="4" fill="#0" id="circle32"/>
	<circle cx="366.927" cy="613.717" r="4" fill="#0" id="circle33"/>
	<circle cx="366.927" cy="662.107" r="4" fill="#0" id="circle34"/>
	<circle cx="366.927" cy="710.498" r="4" fill="#0" id="circle35"/>
	<circle cx="366.927" cy="758.888" r="4" fill="#0" id="circle36"/>
	<circle cx="366.927" cy="807.278" r="4" fill="#0" id="circle37"/>
	<circle cx="366.927" cy="855.668" r="4" fill="#0" id="circle38"/>
	<circle cx="366.927" cy="996" r="4" fill="#0" id="circle39"/>
	<circle cx="381.444" cy="904.059" r="4" fill="#0" id="circle40"/>
	<circle cx="391.122" cy="23.3561" r="4" fill="#0" id="circle41"/>
	<circle cx="405.639" cy="947.61" r="4" fill="#0" id="circle42"/>
	<circle cx="410.478" cy="168.527" r="4" fill="#0" id="circle43"/>
	<circle cx="415.317" cy="454.029" r="4" fill="#0" id="circle44"/>
	<circle cx="415.317" cy="996" r="4" fill="#0" id="circle45"/>
	<circle cx="439.512" cy="4" r="4" fill="#0" id="circle46"/>
	<circle cx="458.868" cy="168.527" r="4" fill="#0" id="circle47"/>
	<circle cx="463.707" cy="444.351" r="4" fill="#0" id="circle48"/>
	<circle cx="473.385" cy="42.7122" r="4" fill="#0" id="circle49"/>
	<circle cx="502.42" cy="410.478" r="4" fill="#0" id="circle50"/>
	<circle cx="507.259" cy="81.4244" r="4" fill="#0" id="circle51"/>
	<circle cx="507.259" cy="129.815" r="4" fill="#0" id="circle52"/>
	<circle cx="526.615" cy="366.927" r="4" fill="#0" id="circle53"/>
	<circle cx="545.971" cy="163.688" r="4" fill="#0" id="circle54"/>
	<circle cx="545.971" cy="318.537" r="4" fill="#0" id="circle55"/>
	<circle cx="594.361" cy="168.527" r="4" fill="#0" id="circle56"/>
	<circle cx="594.361" cy="318.537" r="4" fill="#0" id="circle57"/>
	<circle cx="642.751" cy="168.527" r="4" fill="#0" id="circle58"/>
	<circle cx="642.751" cy="318.537" r="4" fill="#0" id="circle59"/>
	<circle cx="691.141" cy="168.527" r="4" fill="#0" id="circle60"/>
	<circle cx="691.141" cy="318.537" r="4" fill="#0" id="circle61"/>
	<circle cx="725.015" cy="207.239" r="4" fill="#0" id="circle62"/>
	<circle cx="725.015" cy="255.629" r="4" fill="#0" id="circle63"/>
	</g>
</svg>