<?xml version="1.0" encoding="UTF-8" standalone="no"?>
<!-- Created with CurveBenchmark -->
<svg
	xmlns:dc="http://purl.org/dc/elements/1.1/"
	xmlns:cc="http://creativecommons.org/ns#"
	xmlns:rdf="http://www.w3.org/1999/02/22-rdf-syntax-ns#"
	xmlns:svg="http://www.w3.org/2000/svg"
	xmlns="http://www.w3.org/2000/svg"
	xmlns:sodipodi="http://sodipodi.sourceforge.net/DTD/sodipodi-0.dtd"
	xmlns:inkscape="http://www.inkscape.org/namespaces/inkscape"
	width="1000"
	height="1000"
	id="svg2"
	version="1.1"
	sodipodi:docname="manifold/ccrust-rat01.png.txt">
<defs
	id="defs4" />
<metadata
	id="metadata7">
	<rdf:RDF>
		<cc:Work
			rdf:about="">
			<dc:format>image/svg+xml</dc:format>
			<dc:type
				rdf:resource="http://purl.org/dc/dcmitype/StillImage" />
			<dc:title></dc:title>
		</cc:Work>
	</rdf:RDF>
</metadata>
<g
	inkscape:label="Layer 1"
	inkscape:groupmode="layer"
	id="layer1">
	<path style="fill:none;stroke:red;stroke-width:1px;stroke-linecap:butt;stroke-linejoin:miter;stroke-opacity:1" d="M 110.053,70.8947 110.053,87.2105 z" id="boundary" inkscape:connector-curvature="0" />
	<path style="fill:none;stroke:red;stroke-width:1px;stroke-linecap:butt;stroke-linejoin:miter;stroke-opacity:1" d="M 110.053,70.8947 118.211,54.5789 z" id="boundary" inkscape:connector-curvature="0" />
	<path style="fill:none;stroke:red;stroke-width:1px;stroke-linecap:butt;stroke-linejoin:miter;stroke-opacity:1" d="M 110.053,119.842 110.053,103.526 z" id="boundary" inkscape:connector-curvature="0" />
	<path style="fill:none;stroke:red;stroke-width:1px;stroke-linecap:butt;stroke-linejoin:miter;stroke-opacity:1" d="M 110.053,103.526 110.053,87.2105 z" id="boundary" inkscape:connector-curvature="0" />
	<path style="fill:none;stroke:red;stroke-width:1px;stroke-linecap:butt;stroke-linejoin:miter;stroke-opacity:1" d="M 110.053,136.158 110.053,152.474 z" id="boundary" inkscape:connector-curvature="0" />
	<path style="fill:none;stroke:red;stroke-width:1px;stroke-linecap:butt;stroke-linejoin:miter;stroke-opacity:1" d="M 110.053,119.842 110.053,136.158 z" id="boundary" inkscape:connector-curvature="0" />
	<path style="fill:none;stroke:red;stroke-width:1px;stroke-linecap:butt;stroke-linejoin:miter;stroke-opacity:1" d="M 128,206.316 114.947,196.526 z" id="boundary" inkscape:connector-curvature="0" />
	<path style="fill:none;stroke:red;stroke-width:1px;stroke-linecap:butt;stroke-linejoin:miter;stroke-opacity:1" d="M 110.053,168.789 110.053,152.474 z" id="boundary" inkscape:connector-curvature="0" />
	<path style="fill:none;stroke:red;stroke-width:1px;stroke-linecap:butt;stroke-linejoin:miter;stroke-opacity:1" d="M 114.947,196.526 101.895,185.105 z" id="boundary" inkscape:connector-curvature="0" />
	<path style="fill:none;stroke:red;stroke-width:1px;stroke-linecap:butt;stroke-linejoin:miter;stroke-opacity:1" d="M 101.895,185.105 110.053,168.789 z" id="boundary" inkscape:connector-curvature="0" />
	<path style="fill:none;stroke:red;stroke-width:1px;stroke-linecap:butt;stroke-linejoin:miter;stroke-opacity:1" d="M 118.211,54.5789 131.263,41.5263 z" id="boundary" inkscape:connector-curvature="0" />
	<path style="fill:none;stroke:red;stroke-width:1px;stroke-linecap:butt;stroke-linejoin:miter;stroke-opacity:1" d="M 137.789,219.368 128,206.316 z" id="boundary" inkscape:connector-curvature="0" />
	<path style="fill:none;stroke:red;stroke-width:1px;stroke-linecap:butt;stroke-linejoin:miter;stroke-opacity:1" d="M 131.263,41.5263 142.684,13.7895 z" id="boundary" inkscape:connector-curvature="0" />
	<path style="fill:none;stroke:red;stroke-width:1px;stroke-linecap:butt;stroke-linejoin:miter;stroke-opacity:1" d="M 142.684,13.7895 159,8.89474 z" id="boundary" inkscape:connector-curvature="0" />
	<path style="fill:none;stroke:red;stroke-width:1px;stroke-linecap:butt;stroke-linejoin:miter;stroke-opacity:1" d="M 167.158,291.158 159,315.632 z" id="boundary" inkscape:connector-curvature="0" />
	<path style="fill:none;stroke:red;stroke-width:1px;stroke-linecap:butt;stroke-linejoin:miter;stroke-opacity:1" d="M 150.842,364.579 150.842,348.263 z" id="boundary" inkscape:connector-curvature="0" />
	<path style="fill:none;stroke:red;stroke-width:1px;stroke-linecap:butt;stroke-linejoin:miter;stroke-opacity:1" d="M 150.842,348.263 159,331.947 z" id="boundary" inkscape:connector-curvature="0" />
	<path style="fill:none;stroke:red;stroke-width:1px;stroke-linecap:butt;stroke-linejoin:miter;stroke-opacity:1" d="M 159,331.947 159,315.632 z" id="boundary" inkscape:connector-curvature="0" />
	<path style="fill:none;stroke:red;stroke-width:1px;stroke-linecap:butt;stroke-linejoin:miter;stroke-opacity:1" d="M 137.789,219.368 150.842,230.789 z" id="boundary" inkscape:connector-curvature="0" />
	<path style="fill:none;stroke:red;stroke-width:1px;stroke-linecap:butt;stroke-linejoin:miter;stroke-opacity:1" d="M 165.526,238.947 150.842,230.789 z" id="boundary" inkscape:connector-curvature="0" />
	<path style="fill:none;stroke:red;stroke-width:1px;stroke-linecap:butt;stroke-linejoin:miter;stroke-opacity:1" d="M 150.842,364.579 142.684,380.895 z" id="boundary" inkscape:connector-curvature="0" />
	<path style="fill:none;stroke:red;stroke-width:1px;stroke-linecap:butt;stroke-linejoin:miter;stroke-opacity:1" d="M 93.7368,552.211 93.7368,568.526 z" id="boundary" inkscape:connector-curvature="0" />
	<path style="fill:none;stroke:red;stroke-width:1px;stroke-linecap:butt;stroke-linejoin:miter;stroke-opacity:1" d="M 93.7368,568.526 77.4211,576.684 z" id="boundary" inkscape:connector-curvature="0" />
	<path style="fill:none;stroke:red;stroke-width:1px;stroke-linecap:butt;stroke-linejoin:miter;stroke-opacity:1" d="M 93.7368,552.211 106.789,539.158 z" id="boundary" inkscape:connector-curvature="0" />
	<path style="fill:none;stroke:red;stroke-width:1px;stroke-linecap:butt;stroke-linejoin:miter;stroke-opacity:1" d="M 110.053,519.579 106.789,539.158 z" id="boundary" inkscape:connector-curvature="0" />
	<path style="fill:none;stroke:red;stroke-width:1px;stroke-linecap:butt;stroke-linejoin:miter;stroke-opacity:1" d="M 110.053,503.263 110.053,519.579 z" id="boundary" inkscape:connector-curvature="0" />
	<path style="fill:none;stroke:red;stroke-width:1px;stroke-linecap:butt;stroke-linejoin:miter;stroke-opacity:1" d="M 176.947,622.368 165.526,635.421 z" id="boundary" inkscape:connector-curvature="0" />
	<path style="fill:none;stroke:red;stroke-width:1px;stroke-linecap:butt;stroke-linejoin:miter;stroke-opacity:1" d="M 52.9474,633.789 52.9474,650.105 z" id="boundary" inkscape:connector-curvature="0" />
	<path style="fill:none;stroke:red;stroke-width:1px;stroke-linecap:butt;stroke-linejoin:miter;stroke-opacity:1" d="M 52.9474,633.789 66,620.737 z" id="boundary" inkscape:connector-curvature="0" />
	<path style="fill:none;stroke:red;stroke-width:1px;stroke-linecap:butt;stroke-linejoin:miter;stroke-opacity:1" d="M 69.2632,601.158 77.4211,576.684 z" id="boundary" inkscape:connector-curvature="0" />
	<path style="fill:none;stroke:red;stroke-width:1px;stroke-linecap:butt;stroke-linejoin:miter;stroke-opacity:1" d="M 69.2632,601.158 66,620.737 z" id="boundary" inkscape:connector-curvature="0" />
	<path style="fill:none;stroke:red;stroke-width:1px;stroke-linecap:butt;stroke-linejoin:miter;stroke-opacity:1" d="M 134.526,413.526 134.526,429.842 z" id="boundary" inkscape:connector-curvature="0" />
	<path style="fill:none;stroke:red;stroke-width:1px;stroke-linecap:butt;stroke-linejoin:miter;stroke-opacity:1" d="M 134.526,429.842 126.368,446.158 z" id="boundary" inkscape:connector-curvature="0" />
	<path style="fill:none;stroke:red;stroke-width:1px;stroke-linecap:butt;stroke-linejoin:miter;stroke-opacity:1" d="M 134.526,413.526 147.579,400.474 z" id="boundary" inkscape:connector-curvature="0" />
	<path style="fill:none;stroke:red;stroke-width:1px;stroke-linecap:butt;stroke-linejoin:miter;stroke-opacity:1" d="M 142.684,380.895 147.579,400.474 z" id="boundary" inkscape:connector-curvature="0" />
	<path style="fill:none;stroke:red;stroke-width:1px;stroke-linecap:butt;stroke-linejoin:miter;stroke-opacity:1" d="M 131.263,465.737 126.368,446.158 z" id="boundary" inkscape:connector-curvature="0" />
	<path style="fill:none;stroke:red;stroke-width:1px;stroke-linecap:butt;stroke-linejoin:miter;stroke-opacity:1" d="M 136.158,646.842 123.105,663.158 z" id="boundary" inkscape:connector-curvature="0" />
	<path style="fill:none;stroke:red;stroke-width:1px;stroke-linecap:butt;stroke-linejoin:miter;stroke-opacity:1" d="M 131.263,465.737 118.211,478.789 z" id="boundary" inkscape:connector-curvature="0" />
	<path style="fill:none;stroke:red;stroke-width:1px;stroke-linecap:butt;stroke-linejoin:miter;stroke-opacity:1" d="M 110.053,503.263 118.211,478.789 z" id="boundary" inkscape:connector-curvature="0" />
	<path style="fill:none;stroke:red;stroke-width:1px;stroke-linecap:butt;stroke-linejoin:miter;stroke-opacity:1" d="M 165.526,635.421 152.474,646.842 z" id="boundary" inkscape:connector-curvature="0" />
	<path style="fill:none;stroke:red;stroke-width:1px;stroke-linecap:butt;stroke-linejoin:miter;stroke-opacity:1" d="M 152.474,646.842 136.158,646.842 z" id="boundary" inkscape:connector-curvature="0" />
	<path style="fill:none;stroke:red;stroke-width:1px;stroke-linecap:butt;stroke-linejoin:miter;stroke-opacity:1" d="M 123.105,663.158 110.053,674.579 z" id="boundary" inkscape:connector-curvature="0" />
	<path style="fill:none;stroke:red;stroke-width:1px;stroke-linecap:butt;stroke-linejoin:miter;stroke-opacity:1" d="M 191.632,8.89474 207.947,8.89474 z" id="boundary" inkscape:connector-curvature="0" />
	<path style="fill:none;stroke:red;stroke-width:1px;stroke-linecap:butt;stroke-linejoin:miter;stroke-opacity:1" d="M 191.632,8.89474 175.316,4 z" id="boundary" inkscape:connector-curvature="0" />
	<path style="fill:none;stroke:red;stroke-width:1px;stroke-linecap:butt;stroke-linejoin:miter;stroke-opacity:1" d="M 224.263,8.89474 207.947,8.89474 z" id="boundary" inkscape:connector-curvature="0" />
	<path style="fill:none;stroke:red;stroke-width:1px;stroke-linecap:butt;stroke-linejoin:miter;stroke-opacity:1" d="M 256.895,4 240.579,8.89474 z" id="boundary" inkscape:connector-curvature="0" />
	<path style="fill:none;stroke:red;stroke-width:1px;stroke-linecap:butt;stroke-linejoin:miter;stroke-opacity:1" d="M 240.579,8.89474 224.263,8.89474 z" id="boundary" inkscape:connector-curvature="0" />
	<path style="fill:none;stroke:red;stroke-width:1px;stroke-linecap:butt;stroke-linejoin:miter;stroke-opacity:1" d="M 256.895,4 273.211,8.89474 z" id="boundary" inkscape:connector-curvature="0" />
	<path style="fill:none;stroke:red;stroke-width:1px;stroke-linecap:butt;stroke-linejoin:miter;stroke-opacity:1" d="M 320.526,26.8421 304.211,20.3158 z" id="boundary" inkscape:connector-curvature="0" />
	<path style="fill:none;stroke:red;stroke-width:1px;stroke-linecap:butt;stroke-linejoin:miter;stroke-opacity:1" d="M 304.211,20.3158 289.526,12.1579 z" id="boundary" inkscape:connector-curvature="0" />
	<path style="fill:none;stroke:red;stroke-width:1px;stroke-linecap:butt;stroke-linejoin:miter;stroke-opacity:1" d="M 273.211,8.89474 289.526,12.1579 z" id="boundary" inkscape:connector-curvature="0" />
	<path style="fill:none;stroke:red;stroke-width:1px;stroke-linecap:butt;stroke-linejoin:miter;stroke-opacity:1" d="M 343.368,49.6842 348.263,66 z" id="boundary" inkscape:connector-curvature="0" />
	<path style="fill:none;stroke:red;stroke-width:1px;stroke-linecap:butt;stroke-linejoin:miter;stroke-opacity:1" d="M 348.263,66 356.421,80.6842 z" id="boundary" inkscape:connector-curvature="0" />
	<path style="fill:none;stroke:red;stroke-width:1px;stroke-linecap:butt;stroke-linejoin:miter;stroke-opacity:1" d="M 364.579,95.3684 356.421,80.6842 z" id="boundary" inkscape:connector-curvature="0" />
	<path style="fill:none;stroke:red;stroke-width:1px;stroke-linecap:butt;stroke-linejoin:miter;stroke-opacity:1" d="M 411.895,87.2105 400.474,106.789 z" id="boundary" inkscape:connector-curvature="0" />
	<path style="fill:none;stroke:red;stroke-width:1px;stroke-linecap:butt;stroke-linejoin:miter;stroke-opacity:1" d="M 364.579,95.3684 364.579,111.684 z" id="boundary" inkscape:connector-curvature="0" />
	<path style="fill:none;stroke:red;stroke-width:1px;stroke-linecap:butt;stroke-linejoin:miter;stroke-opacity:1" d="M 359.684,157.368 356.421,141.053 z" id="boundary" inkscape:connector-curvature="0" />
	<path style="fill:none;stroke:red;stroke-width:1px;stroke-linecap:butt;stroke-linejoin:miter;stroke-opacity:1" d="M 379.263,144.316 387.421,119.842 z" id="boundary" inkscape:connector-curvature="0" />
	<path style="fill:none;stroke:red;stroke-width:1px;stroke-linecap:butt;stroke-linejoin:miter;stroke-opacity:1" d="M 387.421,119.842 400.474,106.789 z" id="boundary" inkscape:connector-curvature="0" />
	<path style="fill:none;stroke:red;stroke-width:1px;stroke-linecap:butt;stroke-linejoin:miter;stroke-opacity:1" d="M 364.579,111.684 387.421,119.842 z" id="boundary" inkscape:connector-curvature="0" />
	<path style="fill:none;stroke:red;stroke-width:1px;stroke-linecap:butt;stroke-linejoin:miter;stroke-opacity:1" d="M 376,163.895 379.263,144.316 z" id="boundary" inkscape:connector-curvature="0" />
	<path style="fill:none;stroke:red;stroke-width:1px;stroke-linecap:butt;stroke-linejoin:miter;stroke-opacity:1" d="M 376,163.895 359.684,157.368 z" id="boundary" inkscape:connector-curvature="0" />
	<path style="fill:none;stroke:red;stroke-width:1px;stroke-linecap:butt;stroke-linejoin:miter;stroke-opacity:1" d="M 343.368,49.6842 335.211,35 z" id="boundary" inkscape:connector-curvature="0" />
	<path style="fill:none;stroke:red;stroke-width:1px;stroke-linecap:butt;stroke-linejoin:miter;stroke-opacity:1" d="M 320.526,26.8421 335.211,35 z" id="boundary" inkscape:connector-curvature="0" />
	<path style="fill:none;stroke:red;stroke-width:1px;stroke-linecap:butt;stroke-linejoin:miter;stroke-opacity:1" d="M 175.316,252 165.526,238.947 z" id="boundary" inkscape:connector-curvature="0" />
	<path style="fill:none;stroke:red;stroke-width:1px;stroke-linecap:butt;stroke-linejoin:miter;stroke-opacity:1" d="M 175.316,268.316 167.158,291.158 z" id="boundary" inkscape:connector-curvature="0" />
	<path style="fill:none;stroke:red;stroke-width:1px;stroke-linecap:butt;stroke-linejoin:miter;stroke-opacity:1" d="M 175.316,252 175.316,268.316 z" id="boundary" inkscape:connector-curvature="0" />
	<path style="fill:none;stroke:red;stroke-width:1px;stroke-linecap:butt;stroke-linejoin:miter;stroke-opacity:1" d="M 397.211,434.737 380.895,442.895 z" id="boundary" inkscape:connector-curvature="0" />
	<path style="fill:none;stroke:red;stroke-width:1px;stroke-linecap:butt;stroke-linejoin:miter;stroke-opacity:1" d="M 380.895,442.895 372.737,459.211 z" id="boundary" inkscape:connector-curvature="0" />
	<path style="fill:none;stroke:red;stroke-width:1px;stroke-linecap:butt;stroke-linejoin:miter;stroke-opacity:1" d="M 191.632,630.526 196.526,646.842 z" id="boundary" inkscape:connector-curvature="0" />
	<path style="fill:none;stroke:red;stroke-width:1px;stroke-linecap:butt;stroke-linejoin:miter;stroke-opacity:1" d="M 191.632,630.526 176.947,622.368 z" id="boundary" inkscape:connector-curvature="0" />
	<path style="fill:none;stroke:red;stroke-width:1px;stroke-linecap:butt;stroke-linejoin:miter;stroke-opacity:1" d="M 207.947,659.895 196.526,646.842 z" id="boundary" inkscape:connector-curvature="0" />
	<path style="fill:none;stroke:red;stroke-width:1px;stroke-linecap:butt;stroke-linejoin:miter;stroke-opacity:1" d="M 380.895,473.895 372.737,459.211 z" id="boundary" inkscape:connector-curvature="0" />
	<path style="fill:none;stroke:red;stroke-width:1px;stroke-linecap:butt;stroke-linejoin:miter;stroke-opacity:1" d="M 397.211,478.789 380.895,473.895 z" id="boundary" inkscape:connector-curvature="0" />
	<path style="fill:none;stroke:red;stroke-width:1px;stroke-linecap:butt;stroke-linejoin:miter;stroke-opacity:1" d="M 380.895,532.632 380.895,548.947 z" id="boundary" inkscape:connector-curvature="0" />
	<path style="fill:none;stroke:red;stroke-width:1px;stroke-linecap:butt;stroke-linejoin:miter;stroke-opacity:1" d="M 380.895,532.632 395.579,524.474 z" id="boundary" inkscape:connector-curvature="0" />
	<path style="fill:none;stroke:red;stroke-width:1px;stroke-linecap:butt;stroke-linejoin:miter;stroke-opacity:1" d="M 411.895,486.947 397.211,478.789 z" id="boundary" inkscape:connector-curvature="0" />
	<path style="fill:none;stroke:red;stroke-width:1px;stroke-linecap:butt;stroke-linejoin:miter;stroke-opacity:1" d="M 395.579,524.474 410.263,532.632 z" id="boundary" inkscape:connector-curvature="0" />
	<path style="fill:none;stroke:red;stroke-width:1px;stroke-linecap:butt;stroke-linejoin:miter;stroke-opacity:1" d="M 380.895,565.263 380.895,548.947 z" id="boundary" inkscape:connector-curvature="0" />
	<path style="fill:none;stroke:red;stroke-width:1px;stroke-linecap:butt;stroke-linejoin:miter;stroke-opacity:1" d="M 380.895,565.263 380.895,581.579 z" id="boundary" inkscape:connector-curvature="0" />
	<path style="fill:none;stroke:red;stroke-width:1px;stroke-linecap:butt;stroke-linejoin:miter;stroke-opacity:1" d="M 380.895,597.895 380.895,581.579 z" id="boundary" inkscape:connector-curvature="0" />
	<path style="fill:none;stroke:red;stroke-width:1px;stroke-linecap:butt;stroke-linejoin:miter;stroke-opacity:1" d="M 389.053,653.368 380.895,638.684 z" id="boundary" inkscape:connector-curvature="0" />
	<path style="fill:none;stroke:red;stroke-width:1px;stroke-linecap:butt;stroke-linejoin:miter;stroke-opacity:1" d="M 380.895,638.684 380.895,614.211 z" id="boundary" inkscape:connector-curvature="0" />
	<path style="fill:none;stroke:red;stroke-width:1px;stroke-linecap:butt;stroke-linejoin:miter;stroke-opacity:1" d="M 397.211,668.053 389.053,653.368 z" id="boundary" inkscape:connector-curvature="0" />
	<path style="fill:none;stroke:red;stroke-width:1px;stroke-linecap:butt;stroke-linejoin:miter;stroke-opacity:1" d="M 207.947,676.211 207.947,659.895 z" id="boundary" inkscape:connector-curvature="0" />
	<path style="fill:none;stroke:red;stroke-width:1px;stroke-linecap:butt;stroke-linejoin:miter;stroke-opacity:1" d="M 380.895,597.895 380.895,614.211 z" id="boundary" inkscape:connector-curvature="0" />
	<path style="fill:none;stroke:red;stroke-width:1px;stroke-linecap:butt;stroke-linejoin:miter;stroke-opacity:1" d="M 159,8.89474 175.316,4 z" id="boundary" inkscape:connector-curvature="0" />
	<path style="fill:none;stroke:red;stroke-width:1px;stroke-linecap:butt;stroke-linejoin:miter;stroke-opacity:1" d="M 36.6316,674.579 46.4211,687.632 z" id="boundary" inkscape:connector-curvature="0" />
	<path style="fill:none;stroke:red;stroke-width:1px;stroke-linecap:butt;stroke-linejoin:miter;stroke-opacity:1" d="M 36.6316,674.579 52.9474,666.421 z" id="boundary" inkscape:connector-curvature="0" />
	<path style="fill:none;stroke:red;stroke-width:1px;stroke-linecap:butt;stroke-linejoin:miter;stroke-opacity:1" d="M 93.7368,682.737 77.4211,690.895 z" id="boundary" inkscape:connector-curvature="0" />
	<path style="fill:none;stroke:red;stroke-width:1px;stroke-linecap:butt;stroke-linejoin:miter;stroke-opacity:1" d="M 52.9474,666.421 52.9474,650.105 z" id="boundary" inkscape:connector-curvature="0" />
	<path style="fill:none;stroke:red;stroke-width:1px;stroke-linecap:butt;stroke-linejoin:miter;stroke-opacity:1" d="M 61.1053,695.789 77.4211,690.895 z" id="boundary" inkscape:connector-curvature="0" />
	<path style="fill:none;stroke:red;stroke-width:1px;stroke-linecap:butt;stroke-linejoin:miter;stroke-opacity:1" d="M 61.1053,695.789 46.4211,687.632 z" id="boundary" inkscape:connector-curvature="0" />
	<path style="fill:none;stroke:red;stroke-width:1px;stroke-linecap:butt;stroke-linejoin:miter;stroke-opacity:1" d="M 31.7368,930.737 48.0526,930.737 z" id="boundary" inkscape:connector-curvature="0" />
	<path style="fill:none;stroke:red;stroke-width:1px;stroke-linecap:butt;stroke-linejoin:miter;stroke-opacity:1" d="M 80.6842,930.737 64.3684,930.737 z" id="boundary" inkscape:connector-curvature="0" />
	<path style="fill:none;stroke:red;stroke-width:1px;stroke-linecap:butt;stroke-linejoin:miter;stroke-opacity:1" d="M 64.3684,930.737 48.0526,930.737 z" id="boundary" inkscape:connector-curvature="0" />
	<path style="fill:none;stroke:red;stroke-width:1px;stroke-linecap:butt;stroke-linejoin:miter;stroke-opacity:1" d="M 31.7368,930.737 17.0526,938.895 z" id="boundary" inkscape:connector-curvature="0" />
	<path style="fill:none;stroke:red;stroke-width:1px;stroke-linecap:butt;stroke-linejoin:miter;stroke-opacity:1" d="M 175.316,756.158 175.316,772.474 z" id="boundary" inkscape:connector-curvature="0" />
	<path style="fill:none;stroke:red;stroke-width:1px;stroke-linecap:butt;stroke-linejoin:miter;stroke-opacity:1" d="M 183.474,739.842 175.316,756.158 z" id="boundary" inkscape:connector-curvature="0" />
	<path style="fill:none;stroke:red;stroke-width:1px;stroke-linecap:butt;stroke-linejoin:miter;stroke-opacity:1" d="M 175.316,788.789 175.316,772.474 z" id="boundary" inkscape:connector-curvature="0" />
	<path style="fill:none;stroke:red;stroke-width:1px;stroke-linecap:butt;stroke-linejoin:miter;stroke-opacity:1" d="M 167.158,813.263 175.316,788.789 z" id="boundary" inkscape:connector-curvature="0" />
	<path style="fill:none;stroke:red;stroke-width:1px;stroke-linecap:butt;stroke-linejoin:miter;stroke-opacity:1" d="M 159,837.737 159,854.053 z" id="boundary" inkscape:connector-curvature="0" />
	<path style="fill:none;stroke:red;stroke-width:1px;stroke-linecap:butt;stroke-linejoin:miter;stroke-opacity:1" d="M 159,878.526 159,854.053 z" id="boundary" inkscape:connector-curvature="0" />
	<path style="fill:none;stroke:red;stroke-width:1px;stroke-linecap:butt;stroke-linejoin:miter;stroke-opacity:1" d="M 175.316,883.421 159,878.526 z" id="boundary" inkscape:connector-curvature="0" />
	<path style="fill:none;stroke:red;stroke-width:1px;stroke-linecap:butt;stroke-linejoin:miter;stroke-opacity:1" d="M 97,930.737 80.6842,930.737 z" id="boundary" inkscape:connector-curvature="0" />
	<path style="fill:none;stroke:red;stroke-width:1px;stroke-linecap:butt;stroke-linejoin:miter;stroke-opacity:1" d="M 185.105,896.474 175.316,883.421 z" id="boundary" inkscape:connector-curvature="0" />
	<path style="fill:none;stroke:red;stroke-width:1px;stroke-linecap:butt;stroke-linejoin:miter;stroke-opacity:1" d="M 159,837.737 167.158,813.263 z" id="boundary" inkscape:connector-curvature="0" />
	<path style="fill:none;stroke:red;stroke-width:1px;stroke-linecap:butt;stroke-linejoin:miter;stroke-opacity:1" d="M 93.7368,682.737 110.053,674.579 z" id="boundary" inkscape:connector-curvature="0" />
	<path style="fill:none;stroke:red;stroke-width:1px;stroke-linecap:butt;stroke-linejoin:miter;stroke-opacity:1" d="M 4,951.947 12.1579,966.632 z" id="boundary" inkscape:connector-curvature="0" />
	<path style="fill:none;stroke:red;stroke-width:1px;stroke-linecap:butt;stroke-linejoin:miter;stroke-opacity:1" d="M 12.1579,966.632 4,984.579 z" id="boundary" inkscape:connector-curvature="0" />
	<path style="fill:none;stroke:red;stroke-width:1px;stroke-linecap:butt;stroke-linejoin:miter;stroke-opacity:1" d="M 4,951.947 17.0526,938.895 z" id="boundary" inkscape:connector-curvature="0" />
	<path style="fill:none;stroke:red;stroke-width:1px;stroke-linecap:butt;stroke-linejoin:miter;stroke-opacity:1" d="M 20.3158,989.474 4,984.579 z" id="boundary" inkscape:connector-curvature="0" />
	<path style="fill:none;stroke:red;stroke-width:1px;stroke-linecap:butt;stroke-linejoin:miter;stroke-opacity:1" d="M 52.9474,989.474 36.6316,989.474 z" id="boundary" inkscape:connector-curvature="0" />
	<path style="fill:none;stroke:red;stroke-width:1px;stroke-linecap:butt;stroke-linejoin:miter;stroke-opacity:1" d="M 20.3158,989.474 36.6316,989.474 z" id="boundary" inkscape:connector-curvature="0" />
	<path style="fill:none;stroke:red;stroke-width:1px;stroke-linecap:butt;stroke-linejoin:miter;stroke-opacity:1" d="M 69.2632,989.474 85.5789,989.474 z" id="boundary" inkscape:connector-curvature="0" />
	<path style="fill:none;stroke:red;stroke-width:1px;stroke-linecap:butt;stroke-linejoin:miter;stroke-opacity:1" d="M 101.895,989.474 85.5789,989.474 z" id="boundary" inkscape:connector-curvature="0" />
	<path style="fill:none;stroke:red;stroke-width:1px;stroke-linecap:butt;stroke-linejoin:miter;stroke-opacity:1" d="M 69.2632,989.474 52.9474,989.474 z" id="boundary" inkscape:connector-curvature="0" />
	<path style="fill:none;stroke:red;stroke-width:1px;stroke-linecap:butt;stroke-linejoin:miter;stroke-opacity:1" d="M 97,930.737 113.316,930.737 z" id="boundary" inkscape:connector-curvature="0" />
	<path style="fill:none;stroke:red;stroke-width:1px;stroke-linecap:butt;stroke-linejoin:miter;stroke-opacity:1" d="M 128,938.895 136.158,953.579 z" id="boundary" inkscape:connector-curvature="0" />
	<path style="fill:none;stroke:red;stroke-width:1px;stroke-linecap:butt;stroke-linejoin:miter;stroke-opacity:1" d="M 128,938.895 113.316,930.737 z" id="boundary" inkscape:connector-curvature="0" />
	<path style="fill:none;stroke:red;stroke-width:1px;stroke-linecap:butt;stroke-linejoin:miter;stroke-opacity:1" d="M 163.895,955.211 149.211,963.368 z" id="boundary" inkscape:connector-curvature="0" />
	<path style="fill:none;stroke:red;stroke-width:1px;stroke-linecap:butt;stroke-linejoin:miter;stroke-opacity:1" d="M 149.211,963.368 136.158,953.579 z" id="boundary" inkscape:connector-curvature="0" />
	<path style="fill:none;stroke:red;stroke-width:1px;stroke-linecap:butt;stroke-linejoin:miter;stroke-opacity:1" d="M 118.211,989.474 101.895,989.474 z" id="boundary" inkscape:connector-curvature="0" />
	<path style="fill:none;stroke:red;stroke-width:1px;stroke-linecap:butt;stroke-linejoin:miter;stroke-opacity:1" d="M 118.211,989.474 134.526,989.474 z" id="boundary" inkscape:connector-curvature="0" />
	<path style="fill:none;stroke:red;stroke-width:1px;stroke-linecap:butt;stroke-linejoin:miter;stroke-opacity:1" d="M 150.842,989.474 134.526,989.474 z" id="boundary" inkscape:connector-curvature="0" />
	<path style="fill:none;stroke:red;stroke-width:1px;stroke-linecap:butt;stroke-linejoin:miter;stroke-opacity:1" d="M 183.474,989.474 167.158,989.474 z" id="boundary" inkscape:connector-curvature="0" />
	<path style="fill:none;stroke:red;stroke-width:1px;stroke-linecap:butt;stroke-linejoin:miter;stroke-opacity:1" d="M 167.158,989.474 150.842,989.474 z" id="boundary" inkscape:connector-curvature="0" />
	<path style="fill:none;stroke:red;stroke-width:1px;stroke-linecap:butt;stroke-linejoin:miter;stroke-opacity:1" d="M 199.789,989.474 183.474,989.474 z" id="boundary" inkscape:connector-curvature="0" />
	<path style="fill:none;stroke:red;stroke-width:1px;stroke-linecap:butt;stroke-linejoin:miter;stroke-opacity:1" d="M 163.895,955.211 178.579,963.368 z" id="boundary" inkscape:connector-curvature="0" />
	<path style="fill:none;stroke:red;stroke-width:1px;stroke-linecap:butt;stroke-linejoin:miter;stroke-opacity:1" d="M 194.895,956.842 178.579,963.368 z" id="boundary" inkscape:connector-curvature="0" />
	<path style="fill:none;stroke:red;stroke-width:1px;stroke-linecap:butt;stroke-linejoin:miter;stroke-opacity:1" d="M 185.105,896.474 198.158,907.895 z" id="boundary" inkscape:connector-curvature="0" />
	<path style="fill:none;stroke:red;stroke-width:1px;stroke-linecap:butt;stroke-linejoin:miter;stroke-opacity:1" d="M 191.632,707.211 191.632,723.526 z" id="boundary" inkscape:connector-curvature="0" />
	<path style="fill:none;stroke:red;stroke-width:1px;stroke-linecap:butt;stroke-linejoin:miter;stroke-opacity:1" d="M 191.632,723.526 183.474,739.842 z" id="boundary" inkscape:connector-curvature="0" />
	<path style="fill:none;stroke:red;stroke-width:1px;stroke-linecap:butt;stroke-linejoin:miter;stroke-opacity:1" d="M 191.632,707.211 207.947,692.526 z" id="boundary" inkscape:connector-curvature="0" />
	<path style="fill:none;stroke:red;stroke-width:1px;stroke-linecap:butt;stroke-linejoin:miter;stroke-opacity:1" d="M 279.737,863.842 263.421,867.105 z" id="boundary" inkscape:connector-curvature="0" />
	<path style="fill:none;stroke:red;stroke-width:1px;stroke-linecap:butt;stroke-linejoin:miter;stroke-opacity:1" d="M 263.421,867.105 247.105,863.842 z" id="boundary" inkscape:connector-curvature="0" />
	<path style="fill:none;stroke:red;stroke-width:1px;stroke-linecap:butt;stroke-linejoin:miter;stroke-opacity:1" d="M 207.947,676.211 207.947,692.526 z" id="boundary" inkscape:connector-curvature="0" />
	<path style="fill:none;stroke:red;stroke-width:1px;stroke-linecap:butt;stroke-linejoin:miter;stroke-opacity:1" d="M 247.105,863.842 234.053,875.263 z" id="boundary" inkscape:connector-curvature="0" />
	<path style="fill:none;stroke:red;stroke-width:1px;stroke-linecap:butt;stroke-linejoin:miter;stroke-opacity:1" d="M 207.947,920.947 198.158,907.895 z" id="boundary" inkscape:connector-curvature="0" />
	<path style="fill:none;stroke:red;stroke-width:1px;stroke-linecap:butt;stroke-linejoin:miter;stroke-opacity:1" d="M 225.895,916.053 225.895,899.737 z" id="boundary" inkscape:connector-curvature="0" />
	<path style="fill:none;stroke:red;stroke-width:1px;stroke-linecap:butt;stroke-linejoin:miter;stroke-opacity:1" d="M 225.895,899.737 234.053,875.263 z" id="boundary" inkscape:connector-curvature="0" />
	<path style="fill:none;stroke:red;stroke-width:1px;stroke-linecap:butt;stroke-linejoin:miter;stroke-opacity:1" d="M 279.737,863.842 296.053,863.842 z" id="boundary" inkscape:connector-curvature="0" />
	<path style="fill:none;stroke:red;stroke-width:1px;stroke-linecap:butt;stroke-linejoin:miter;stroke-opacity:1" d="M 397.211,684.368 397.211,703.947 z" id="boundary" inkscape:connector-curvature="0" />
	<path style="fill:none;stroke:red;stroke-width:1px;stroke-linecap:butt;stroke-linejoin:miter;stroke-opacity:1" d="M 405.368,718.632 397.211,703.947 z" id="boundary" inkscape:connector-curvature="0" />
	<path style="fill:none;stroke:red;stroke-width:1px;stroke-linecap:butt;stroke-linejoin:miter;stroke-opacity:1" d="M 312.368,867.105 328.684,863.842 z" id="boundary" inkscape:connector-curvature="0" />
	<path style="fill:none;stroke:red;stroke-width:1px;stroke-linecap:butt;stroke-linejoin:miter;stroke-opacity:1" d="M 312.368,867.105 296.053,863.842 z" id="boundary" inkscape:connector-curvature="0" />
	<path style="fill:none;stroke:red;stroke-width:1px;stroke-linecap:butt;stroke-linejoin:miter;stroke-opacity:1" d="M 345,867.105 328.684,863.842 z" id="boundary" inkscape:connector-curvature="0" />
	<path style="fill:none;stroke:red;stroke-width:1px;stroke-linecap:butt;stroke-linejoin:miter;stroke-opacity:1" d="M 345,867.105 346.632,883.421 z" id="boundary" inkscape:connector-curvature="0" />
	<path style="fill:none;stroke:red;stroke-width:1px;stroke-linecap:butt;stroke-linejoin:miter;stroke-opacity:1" d="M 346.632,899.737 346.632,883.421 z" id="boundary" inkscape:connector-curvature="0" />
	<path style="fill:none;stroke:red;stroke-width:1px;stroke-linecap:butt;stroke-linejoin:miter;stroke-opacity:1" d="M 402.105,904.632 389.053,916.053 z" id="boundary" inkscape:connector-curvature="0" />
	<path style="fill:none;stroke:red;stroke-width:1px;stroke-linecap:butt;stroke-linejoin:miter;stroke-opacity:1" d="M 346.632,899.737 338.474,927.474 z" id="boundary" inkscape:connector-curvature="0" />
	<path style="fill:none;stroke:red;stroke-width:1px;stroke-linecap:butt;stroke-linejoin:miter;stroke-opacity:1" d="M 405.368,947.053 389.053,947.053 z" id="boundary" inkscape:connector-curvature="0" />
	<path style="fill:none;stroke:red;stroke-width:1px;stroke-linecap:butt;stroke-linejoin:miter;stroke-opacity:1" d="M 389.053,916.053 372.737,932.368 z" id="boundary" inkscape:connector-curvature="0" />
	<path style="fill:none;stroke:red;stroke-width:1px;stroke-linecap:butt;stroke-linejoin:miter;stroke-opacity:1" d="M 207.947,937.263 194.895,956.842 z" id="boundary" inkscape:connector-curvature="0" />
	<path style="fill:none;stroke:red;stroke-width:1px;stroke-linecap:butt;stroke-linejoin:miter;stroke-opacity:1" d="M 207.947,920.947 207.947,937.263 z" id="boundary" inkscape:connector-curvature="0" />
	<path style="fill:none;stroke:red;stroke-width:1px;stroke-linecap:butt;stroke-linejoin:miter;stroke-opacity:1" d="M 225.895,932.368 225.895,948.684 z" id="boundary" inkscape:connector-curvature="0" />
	<path style="fill:none;stroke:red;stroke-width:1px;stroke-linecap:butt;stroke-linejoin:miter;stroke-opacity:1" d="M 330.316,943.789 322.158,960.105 z" id="boundary" inkscape:connector-curvature="0" />
	<path style="fill:none;stroke:red;stroke-width:1px;stroke-linecap:butt;stroke-linejoin:miter;stroke-opacity:1" d="M 225.895,948.684 229.158,965 z" id="boundary" inkscape:connector-curvature="0" />
	<path style="fill:none;stroke:red;stroke-width:1px;stroke-linecap:butt;stroke-linejoin:miter;stroke-opacity:1" d="M 216.105,989.474 199.789,989.474 z" id="boundary" inkscape:connector-curvature="0" />
	<path style="fill:none;stroke:red;stroke-width:1px;stroke-linecap:butt;stroke-linejoin:miter;stroke-opacity:1" d="M 232.421,989.474 216.105,989.474 z" id="boundary" inkscape:connector-curvature="0" />
	<path style="fill:none;stroke:red;stroke-width:1px;stroke-linecap:butt;stroke-linejoin:miter;stroke-opacity:1" d="M 232.421,989.474 242.211,976.421 z" id="boundary" inkscape:connector-curvature="0" />
	<path style="fill:none;stroke:red;stroke-width:1px;stroke-linecap:butt;stroke-linejoin:miter;stroke-opacity:1" d="M 229.158,965 242.211,976.421 z" id="boundary" inkscape:connector-curvature="0" />
	<path style="fill:none;stroke:red;stroke-width:1px;stroke-linecap:butt;stroke-linejoin:miter;stroke-opacity:1" d="M 322.158,960.105 322.158,976.421 z" id="boundary" inkscape:connector-curvature="0" />
	<path style="fill:none;stroke:red;stroke-width:1px;stroke-linecap:butt;stroke-linejoin:miter;stroke-opacity:1" d="M 225.895,916.053 225.895,932.368 z" id="boundary" inkscape:connector-curvature="0" />
	<path style="fill:none;stroke:red;stroke-width:1px;stroke-linecap:butt;stroke-linejoin:miter;stroke-opacity:1" d="M 330.316,943.789 338.474,927.474 z" id="boundary" inkscape:connector-curvature="0" />
	<path style="fill:none;stroke:red;stroke-width:1px;stroke-linecap:butt;stroke-linejoin:miter;stroke-opacity:1" d="M 389.053,947.053 372.737,948.684 z" id="boundary" inkscape:connector-curvature="0" />
	<path style="fill:none;stroke:red;stroke-width:1px;stroke-linecap:butt;stroke-linejoin:miter;stroke-opacity:1" d="M 372.737,948.684 372.737,932.368 z" id="boundary" inkscape:connector-curvature="0" />
	<path style="fill:none;stroke:red;stroke-width:1px;stroke-linecap:butt;stroke-linejoin:miter;stroke-opacity:1" d="M 335.211,987.842 322.158,976.421 z" id="boundary" inkscape:connector-curvature="0" />
	<path style="fill:none;stroke:red;stroke-width:1px;stroke-linecap:butt;stroke-linejoin:miter;stroke-opacity:1" d="M 351.526,989.474 335.211,987.842 z" id="boundary" inkscape:connector-curvature="0" />
	<path style="fill:none;stroke:red;stroke-width:1px;stroke-linecap:butt;stroke-linejoin:miter;stroke-opacity:1" d="M 367.842,989.474 384.158,989.474 z" id="boundary" inkscape:connector-curvature="0" />
	<path style="fill:none;stroke:red;stroke-width:1px;stroke-linecap:butt;stroke-linejoin:miter;stroke-opacity:1" d="M 367.842,989.474 351.526,989.474 z" id="boundary" inkscape:connector-curvature="0" />
	<path style="fill:none;stroke:red;stroke-width:1px;stroke-linecap:butt;stroke-linejoin:miter;stroke-opacity:1" d="M 384.158,989.474 400.474,989.474 z" id="boundary" inkscape:connector-curvature="0" />
	<path style="fill:none;stroke:red;stroke-width:1px;stroke-linecap:butt;stroke-linejoin:miter;stroke-opacity:1" d="M 397.211,684.368 397.211,668.053 z" id="boundary" inkscape:connector-curvature="0" />
	<path style="fill:none;stroke:red;stroke-width:1px;stroke-linecap:butt;stroke-linejoin:miter;stroke-opacity:1" d="M 428.211,79.0526 411.895,87.2105 z" id="boundary" inkscape:connector-curvature="0" />
	<path style="fill:none;stroke:red;stroke-width:1px;stroke-linecap:butt;stroke-linejoin:miter;stroke-opacity:1" d="M 470.632,52.9474 457.579,66 z" id="boundary" inkscape:connector-curvature="0" />
	<path style="fill:none;stroke:red;stroke-width:1px;stroke-linecap:butt;stroke-linejoin:miter;stroke-opacity:1" d="M 457.579,66 441.263,66 z" id="boundary" inkscape:connector-curvature="0" />
	<path style="fill:none;stroke:red;stroke-width:1px;stroke-linecap:butt;stroke-linejoin:miter;stroke-opacity:1" d="M 495.105,331.947 478.789,328.684 z" id="boundary" inkscape:connector-curvature="0" />
	<path style="fill:none;stroke:red;stroke-width:1px;stroke-linecap:butt;stroke-linejoin:miter;stroke-opacity:1" d="M 428.211,79.0526 441.263,66 z" id="boundary" inkscape:connector-curvature="0" />
	<path style="fill:none;stroke:red;stroke-width:1px;stroke-linecap:butt;stroke-linejoin:miter;stroke-opacity:1" d="M 429.842,385.789 442.895,374.368 z" id="boundary" inkscape:connector-curvature="0" />
	<path style="fill:none;stroke:red;stroke-width:1px;stroke-linecap:butt;stroke-linejoin:miter;stroke-opacity:1" d="M 442.895,374.368 459.211,366.211 z" id="boundary" inkscape:connector-curvature="0" />
	<path style="fill:none;stroke:red;stroke-width:1px;stroke-linecap:butt;stroke-linejoin:miter;stroke-opacity:1" d="M 462.474,345 459.211,366.211 z" id="boundary" inkscape:connector-curvature="0" />
	<path style="fill:none;stroke:red;stroke-width:1px;stroke-linecap:butt;stroke-linejoin:miter;stroke-opacity:1" d="M 462.474,328.684 478.789,328.684 z" id="boundary" inkscape:connector-curvature="0" />
	<path style="fill:none;stroke:red;stroke-width:1px;stroke-linecap:butt;stroke-linejoin:miter;stroke-opacity:1" d="M 462.474,345 462.474,328.684 z" id="boundary" inkscape:connector-curvature="0" />
	<path style="fill:none;stroke:red;stroke-width:1px;stroke-linecap:butt;stroke-linejoin:miter;stroke-opacity:1" d="M 500,49.6842 516.316,49.6842 z" id="boundary" inkscape:connector-curvature="0" />
	<path style="fill:none;stroke:red;stroke-width:1px;stroke-linecap:butt;stroke-linejoin:miter;stroke-opacity:1" d="M 500,49.6842 483.684,43.1579 z" id="boundary" inkscape:connector-curvature="0" />
	<path style="fill:none;stroke:red;stroke-width:1px;stroke-linecap:butt;stroke-linejoin:miter;stroke-opacity:1" d="M 532.632,49.6842 516.316,49.6842 z" id="boundary" inkscape:connector-curvature="0" />
	<path style="fill:none;stroke:red;stroke-width:1px;stroke-linecap:butt;stroke-linejoin:miter;stroke-opacity:1" d="M 548.947,49.6842 532.632,49.6842 z" id="boundary" inkscape:connector-curvature="0" />
	<path style="fill:none;stroke:red;stroke-width:1px;stroke-linecap:butt;stroke-linejoin:miter;stroke-opacity:1" d="M 565.263,49.6842 548.947,49.6842 z" id="boundary" inkscape:connector-curvature="0" />
	<path style="fill:none;stroke:red;stroke-width:1px;stroke-linecap:butt;stroke-linejoin:miter;stroke-opacity:1" d="M 522.842,345 506.526,345 z" id="boundary" inkscape:connector-curvature="0" />
	<path style="fill:none;stroke:red;stroke-width:1px;stroke-linecap:butt;stroke-linejoin:miter;stroke-opacity:1" d="M 506.526,345 495.105,331.947 z" id="boundary" inkscape:connector-curvature="0" />
	<path style="fill:none;stroke:red;stroke-width:1px;stroke-linecap:butt;stroke-linejoin:miter;stroke-opacity:1" d="M 539.158,345 522.842,345 z" id="boundary" inkscape:connector-curvature="0" />
	<path style="fill:none;stroke:red;stroke-width:1px;stroke-linecap:butt;stroke-linejoin:miter;stroke-opacity:1" d="M 555.474,345 539.158,345 z" id="boundary" inkscape:connector-curvature="0" />
	<path style="fill:none;stroke:red;stroke-width:1px;stroke-linecap:butt;stroke-linejoin:miter;stroke-opacity:1" d="M 470.632,52.9474 483.684,43.1579 z" id="boundary" inkscape:connector-curvature="0" />
	<path style="fill:none;stroke:red;stroke-width:1px;stroke-linecap:butt;stroke-linejoin:miter;stroke-opacity:1" d="M 411.895,486.947 424.947,498.368 z" id="boundary" inkscape:connector-curvature="0" />
	<path style="fill:none;stroke:red;stroke-width:1px;stroke-linecap:butt;stroke-linejoin:miter;stroke-opacity:1" d="M 438,508.158 424.947,498.368 z" id="boundary" inkscape:connector-curvature="0" />
	<path style="fill:none;stroke:red;stroke-width:1px;stroke-linecap:butt;stroke-linejoin:miter;stroke-opacity:1" d="M 429.842,385.789 413.526,402.105 z" id="boundary" inkscape:connector-curvature="0" />
	<path style="fill:none;stroke:red;stroke-width:1px;stroke-linecap:butt;stroke-linejoin:miter;stroke-opacity:1" d="M 410.263,423.316 413.526,402.105 z" id="boundary" inkscape:connector-curvature="0" />
	<path style="fill:none;stroke:red;stroke-width:1px;stroke-linecap:butt;stroke-linejoin:miter;stroke-opacity:1" d="M 410.263,423.316 397.211,434.737 z" id="boundary" inkscape:connector-curvature="0" />
	<path style="fill:none;stroke:red;stroke-width:1px;stroke-linecap:butt;stroke-linejoin:miter;stroke-opacity:1" d="M 434.737,557.105 421.684,545.684 z" id="boundary" inkscape:connector-curvature="0" />
	<path style="fill:none;stroke:red;stroke-width:1px;stroke-linecap:butt;stroke-linejoin:miter;stroke-opacity:1" d="M 421.684,545.684 410.263,532.632 z" id="boundary" inkscape:connector-curvature="0" />
	<path style="fill:none;stroke:red;stroke-width:1px;stroke-linecap:butt;stroke-linejoin:miter;stroke-opacity:1" d="M 434.737,557.105 446.158,570.158 z" id="boundary" inkscape:connector-curvature="0" />
	<path style="fill:none;stroke:red;stroke-width:1px;stroke-linecap:butt;stroke-linejoin:miter;stroke-opacity:1" d="M 451.053,517.947 462.474,531 z" id="boundary" inkscape:connector-curvature="0" />
	<path style="fill:none;stroke:red;stroke-width:1px;stroke-linecap:butt;stroke-linejoin:miter;stroke-opacity:1" d="M 438,508.158 451.053,517.947 z" id="boundary" inkscape:connector-curvature="0" />
	<path style="fill:none;stroke:red;stroke-width:1px;stroke-linecap:butt;stroke-linejoin:miter;stroke-opacity:1" d="M 462.474,547.316 477.158,555.474 z" id="boundary" inkscape:connector-curvature="0" />
	<path style="fill:none;stroke:red;stroke-width:1px;stroke-linecap:butt;stroke-linejoin:miter;stroke-opacity:1" d="M 462.474,547.316 462.474,531 z" id="boundary" inkscape:connector-curvature="0" />
	<path style="fill:none;stroke:red;stroke-width:1px;stroke-linecap:butt;stroke-linejoin:miter;stroke-opacity:1" d="M 516.316,579.947 500,579.947 z" id="boundary" inkscape:connector-curvature="0" />
	<path style="fill:none;stroke:red;stroke-width:1px;stroke-linecap:butt;stroke-linejoin:miter;stroke-opacity:1" d="M 500,579.947 486.947,568.526 z" id="boundary" inkscape:connector-curvature="0" />
	<path style="fill:none;stroke:red;stroke-width:1px;stroke-linecap:butt;stroke-linejoin:miter;stroke-opacity:1" d="M 486.947,568.526 477.158,555.474 z" id="boundary" inkscape:connector-curvature="0" />
	<path style="fill:none;stroke:red;stroke-width:1px;stroke-linecap:butt;stroke-linejoin:miter;stroke-opacity:1" d="M 459.211,581.579 446.158,570.158 z" id="boundary" inkscape:connector-curvature="0" />
	<path style="fill:none;stroke:red;stroke-width:1px;stroke-linecap:butt;stroke-linejoin:miter;stroke-opacity:1" d="M 475.526,606.053 460.842,597.895 z" id="boundary" inkscape:connector-curvature="0" />
	<path style="fill:none;stroke:red;stroke-width:1px;stroke-linecap:butt;stroke-linejoin:miter;stroke-opacity:1" d="M 460.842,597.895 459.211,581.579 z" id="boundary" inkscape:connector-curvature="0" />
	<path style="fill:none;stroke:red;stroke-width:1px;stroke-linecap:butt;stroke-linejoin:miter;stroke-opacity:1" d="M 475.526,606.053 482.053,622.368 z" id="boundary" inkscape:connector-curvature="0" />
	<path style="fill:none;stroke:red;stroke-width:1px;stroke-linecap:butt;stroke-linejoin:miter;stroke-opacity:1" d="M 532.632,581.579 516.316,579.947 z" id="boundary" inkscape:connector-curvature="0" />
	<path style="fill:none;stroke:red;stroke-width:1px;stroke-linecap:butt;stroke-linejoin:miter;stroke-opacity:1" d="M 548.947,579.947 532.632,581.579 z" id="boundary" inkscape:connector-curvature="0" />
	<path style="fill:none;stroke:red;stroke-width:1px;stroke-linecap:butt;stroke-linejoin:miter;stroke-opacity:1" d="M 565.263,579.947 548.947,579.947 z" id="boundary" inkscape:connector-curvature="0" />
	<path style="fill:none;stroke:red;stroke-width:1px;stroke-linecap:butt;stroke-linejoin:miter;stroke-opacity:1" d="M 565.263,49.6842 579.947,57.8421 z" id="boundary" inkscape:connector-curvature="0" />
	<path style="fill:none;stroke:red;stroke-width:1px;stroke-linecap:butt;stroke-linejoin:miter;stroke-opacity:1" d="M 579.947,57.8421 594.632,66 z" id="boundary" inkscape:connector-curvature="0" />
	<path style="fill:none;stroke:red;stroke-width:1px;stroke-linecap:butt;stroke-linejoin:miter;stroke-opacity:1" d="M 610.947,66 594.632,66 z" id="boundary" inkscape:connector-curvature="0" />
	<path style="fill:none;stroke:red;stroke-width:1px;stroke-linecap:butt;stroke-linejoin:miter;stroke-opacity:1" d="M 617.474,82.3158 617.474,98.6316 z" id="boundary" inkscape:connector-curvature="0" />
	<path style="fill:none;stroke:red;stroke-width:1px;stroke-linecap:butt;stroke-linejoin:miter;stroke-opacity:1" d="M 617.474,82.3158 610.947,66 z" id="boundary" inkscape:connector-curvature="0" />
	<path style="fill:none;stroke:red;stroke-width:1px;stroke-linecap:butt;stroke-linejoin:miter;stroke-opacity:1" d="M 588.105,343.368 601.158,328.684 z" id="boundary" inkscape:connector-curvature="0" />
	<path style="fill:none;stroke:red;stroke-width:1px;stroke-linecap:butt;stroke-linejoin:miter;stroke-opacity:1" d="M 609.316,312.368 601.158,328.684 z" id="boundary" inkscape:connector-curvature="0" />
	<path style="fill:none;stroke:red;stroke-width:1px;stroke-linecap:butt;stroke-linejoin:miter;stroke-opacity:1" d="M 609.316,312.368 617.474,296.053 z" id="boundary" inkscape:connector-curvature="0" />
	<path style="fill:none;stroke:red;stroke-width:1px;stroke-linecap:butt;stroke-linejoin:miter;stroke-opacity:1" d="M 571.789,345 555.474,345 z" id="boundary" inkscape:connector-curvature="0" />
	<path style="fill:none;stroke:red;stroke-width:1px;stroke-linecap:butt;stroke-linejoin:miter;stroke-opacity:1" d="M 617.474,296.053 625.632,279.737 z" id="boundary" inkscape:connector-curvature="0" />
	<path style="fill:none;stroke:red;stroke-width:1px;stroke-linecap:butt;stroke-linejoin:miter;stroke-opacity:1" d="M 625.632,279.737 641.947,271.579 z" id="boundary" inkscape:connector-curvature="0" />
	<path style="fill:none;stroke:red;stroke-width:1px;stroke-linecap:butt;stroke-linejoin:miter;stroke-opacity:1" d="M 633.789,103.526 617.474,98.6316 z" id="boundary" inkscape:connector-curvature="0" />
	<path style="fill:none;stroke:red;stroke-width:1px;stroke-linecap:butt;stroke-linejoin:miter;stroke-opacity:1" d="M 588.105,343.368 571.789,345 z" id="boundary" inkscape:connector-curvature="0" />
	<path style="fill:none;stroke:red;stroke-width:1px;stroke-linecap:butt;stroke-linejoin:miter;stroke-opacity:1" d="M 640.316,119.842 633.789,103.526 z" id="boundary" inkscape:connector-curvature="0" />
	<path style="fill:none;stroke:red;stroke-width:1px;stroke-linecap:butt;stroke-linejoin:miter;stroke-opacity:1" d="M 650.105,132.895 640.316,119.842 z" id="boundary" inkscape:connector-curvature="0" />
	<path style="fill:none;stroke:red;stroke-width:1px;stroke-linecap:butt;stroke-linejoin:miter;stroke-opacity:1" d="M 650.105,132.895 658.263,147.579 z" id="boundary" inkscape:connector-curvature="0" />
	<path style="fill:none;stroke:red;stroke-width:1px;stroke-linecap:butt;stroke-linejoin:miter;stroke-opacity:1" d="M 658.263,147.579 666.421,162.263 z" id="boundary" inkscape:connector-curvature="0" />
	<path style="fill:none;stroke:red;stroke-width:1px;stroke-linecap:butt;stroke-linejoin:miter;stroke-opacity:1" d="M 650.105,255.263 641.947,271.579 z" id="boundary" inkscape:connector-curvature="0" />
	<path style="fill:none;stroke:red;stroke-width:1px;stroke-linecap:butt;stroke-linejoin:miter;stroke-opacity:1" d="M 658.263,222.632 658.263,238.947 z" id="boundary" inkscape:connector-curvature="0" />
	<path style="fill:none;stroke:red;stroke-width:1px;stroke-linecap:butt;stroke-linejoin:miter;stroke-opacity:1" d="M 658.263,238.947 650.105,255.263 z" id="boundary" inkscape:connector-curvature="0" />
	<path style="fill:none;stroke:red;stroke-width:1px;stroke-linecap:butt;stroke-linejoin:miter;stroke-opacity:1" d="M 658.263,222.632 666.421,206.316 z" id="boundary" inkscape:connector-curvature="0" />
	<path style="fill:none;stroke:red;stroke-width:1px;stroke-linecap:butt;stroke-linejoin:miter;stroke-opacity:1" d="M 666.421,206.316 674.579,176.947 z" id="boundary" inkscape:connector-curvature="0" />
	<path style="fill:none;stroke:red;stroke-width:1px;stroke-linecap:butt;stroke-linejoin:miter;stroke-opacity:1" d="M 666.421,162.263 674.579,176.947 z" id="boundary" inkscape:connector-curvature="0" />
	<path style="fill:none;stroke:red;stroke-width:1px;stroke-linecap:butt;stroke-linejoin:miter;stroke-opacity:1" d="M 656.632,560.368 648.474,576.684 z" id="boundary" inkscape:connector-curvature="0" />
	<path style="fill:none;stroke:red;stroke-width:1px;stroke-linecap:butt;stroke-linejoin:miter;stroke-opacity:1" d="M 664.789,544.053 656.632,560.368 z" id="boundary" inkscape:connector-curvature="0" />
	<path style="fill:none;stroke:red;stroke-width:1px;stroke-linecap:butt;stroke-linejoin:miter;stroke-opacity:1" d="M 674.579,565.263 656.632,560.368 z" id="boundary" inkscape:connector-curvature="0" />
	<path style="fill:none;stroke:red;stroke-width:1px;stroke-linecap:butt;stroke-linejoin:miter;stroke-opacity:1" d="M 687.632,553.842 674.579,565.263 z" id="boundary" inkscape:connector-curvature="0" />
	<path style="fill:none;stroke:red;stroke-width:1px;stroke-linecap:butt;stroke-linejoin:miter;stroke-opacity:1" d="M 677.842,531 664.789,544.053 z" id="boundary" inkscape:connector-curvature="0" />
	<path style="fill:none;stroke:red;stroke-width:1px;stroke-linecap:butt;stroke-linejoin:miter;stroke-opacity:1" d="M 674.579,565.263 674.579,581.579 z" id="boundary" inkscape:connector-curvature="0" />
	<path style="fill:none;stroke:red;stroke-width:1px;stroke-linecap:butt;stroke-linejoin:miter;stroke-opacity:1" d="M 576.684,593 565.263,579.947 z" id="boundary" inkscape:connector-curvature="0" />
	<path style="fill:none;stroke:red;stroke-width:1px;stroke-linecap:butt;stroke-linejoin:miter;stroke-opacity:1" d="M 591.368,601.158 576.684,593 z" id="boundary" inkscape:connector-curvature="0" />
	<path style="fill:none;stroke:red;stroke-width:1px;stroke-linecap:butt;stroke-linejoin:miter;stroke-opacity:1" d="M 674.579,581.579 674.579,597.895 z" id="boundary" inkscape:connector-curvature="0" />
	<path style="fill:none;stroke:red;stroke-width:1px;stroke-linecap:butt;stroke-linejoin:miter;stroke-opacity:1" d="M 604.421,612.579 591.368,601.158 z" id="boundary" inkscape:connector-curvature="0" />
	<path style="fill:none;stroke:red;stroke-width:1px;stroke-linecap:butt;stroke-linejoin:miter;stroke-opacity:1" d="M 648.474,576.684 648.474,593 z" id="boundary" inkscape:connector-curvature="0" />
	<path style="fill:none;stroke:red;stroke-width:1px;stroke-linecap:butt;stroke-linejoin:miter;stroke-opacity:1" d="M 715.368,532.632 707.211,514.684 z" id="boundary" inkscape:connector-curvature="0" />
	<path style="fill:none;stroke:red;stroke-width:1px;stroke-linecap:butt;stroke-linejoin:miter;stroke-opacity:1" d="M 707.211,514.684 721.895,506.526 z" id="boundary" inkscape:connector-curvature="0" />
	<path style="fill:none;stroke:red;stroke-width:1px;stroke-linecap:butt;stroke-linejoin:miter;stroke-opacity:1" d="M 707.211,514.684 692.526,522.842 z" id="boundary" inkscape:connector-curvature="0" />
	<path style="fill:none;stroke:red;stroke-width:1px;stroke-linecap:butt;stroke-linejoin:miter;stroke-opacity:1" d="M 736.579,498.368 752.895,506.526 z" id="boundary" inkscape:connector-curvature="0" />
	<path style="fill:none;stroke:red;stroke-width:1px;stroke-linecap:butt;stroke-linejoin:miter;stroke-opacity:1" d="M 752.895,506.526 744.737,521.211 z" id="boundary" inkscape:connector-curvature="0" />
	<path style="fill:none;stroke:red;stroke-width:1px;stroke-linecap:butt;stroke-linejoin:miter;stroke-opacity:1" d="M 736.579,498.368 721.895,506.526 z" id="boundary" inkscape:connector-curvature="0" />
	<path style="fill:none;stroke:red;stroke-width:1px;stroke-linecap:butt;stroke-linejoin:miter;stroke-opacity:1" d="M 744.737,521.211 731.684,532.632 z" id="boundary" inkscape:connector-curvature="0" />
	<path style="fill:none;stroke:red;stroke-width:1px;stroke-linecap:butt;stroke-linejoin:miter;stroke-opacity:1" d="M 703.947,545.684 687.632,553.842 z" id="boundary" inkscape:connector-curvature="0" />
	<path style="fill:none;stroke:red;stroke-width:1px;stroke-linecap:butt;stroke-linejoin:miter;stroke-opacity:1" d="M 677.842,531 692.526,522.842 z" id="boundary" inkscape:connector-curvature="0" />
	<path style="fill:none;stroke:red;stroke-width:1px;stroke-linecap:butt;stroke-linejoin:miter;stroke-opacity:1" d="M 703.947,545.684 715.368,532.632 z" id="boundary" inkscape:connector-curvature="0" />
	<path style="fill:none;stroke:red;stroke-width:1px;stroke-linecap:butt;stroke-linejoin:miter;stroke-opacity:1" d="M 715.368,532.632 731.684,532.632 z" id="boundary" inkscape:connector-curvature="0" />
	<path style="fill:none;stroke:red;stroke-width:1px;stroke-linecap:butt;stroke-linejoin:miter;stroke-opacity:1" d="M 674.579,614.211 674.579,597.895 z" id="boundary" inkscape:connector-curvature="0" />
	<path style="fill:none;stroke:red;stroke-width:1px;stroke-linecap:butt;stroke-linejoin:miter;stroke-opacity:1" d="M 405.368,736.579 413.526,751.263 z" id="boundary" inkscape:connector-curvature="0" />
	<path style="fill:none;stroke:red;stroke-width:1px;stroke-linecap:butt;stroke-linejoin:miter;stroke-opacity:1" d="M 405.368,736.579 405.368,718.632 z" id="boundary" inkscape:connector-curvature="0" />
	<path style="fill:none;stroke:red;stroke-width:1px;stroke-linecap:butt;stroke-linejoin:miter;stroke-opacity:1" d="M 451.053,775.737 434.737,775.737 z" id="boundary" inkscape:connector-curvature="0" />
	<path style="fill:none;stroke:red;stroke-width:1px;stroke-linecap:butt;stroke-linejoin:miter;stroke-opacity:1" d="M 434.737,775.737 421.684,765.947 z" id="boundary" inkscape:connector-curvature="0" />
	<path style="fill:none;stroke:red;stroke-width:1px;stroke-linecap:butt;stroke-linejoin:miter;stroke-opacity:1" d="M 421.684,765.947 413.526,751.263 z" id="boundary" inkscape:connector-curvature="0" />
	<path style="fill:none;stroke:red;stroke-width:1px;stroke-linecap:butt;stroke-linejoin:miter;stroke-opacity:1" d="M 421.684,834.474 438,834.474 z" id="boundary" inkscape:connector-curvature="0" />
	<path style="fill:none;stroke:red;stroke-width:1px;stroke-linecap:butt;stroke-linejoin:miter;stroke-opacity:1" d="M 421.684,850.789 421.684,834.474 z" id="boundary" inkscape:connector-curvature="0" />
	<path style="fill:none;stroke:red;stroke-width:1px;stroke-linecap:butt;stroke-linejoin:miter;stroke-opacity:1" d="M 470.632,826.316 454.316,834.474 z" id="boundary" inkscape:connector-curvature="0" />
	<path style="fill:none;stroke:red;stroke-width:1px;stroke-linecap:butt;stroke-linejoin:miter;stroke-opacity:1" d="M 467.368,777.368 451.053,775.737 z" id="boundary" inkscape:connector-curvature="0" />
	<path style="fill:none;stroke:red;stroke-width:1px;stroke-linecap:butt;stroke-linejoin:miter;stroke-opacity:1" d="M 467.368,777.368 478.789,790.421 z" id="boundary" inkscape:connector-curvature="0" />
	<path style="fill:none;stroke:red;stroke-width:1px;stroke-linecap:butt;stroke-linejoin:miter;stroke-opacity:1" d="M 454.316,834.474 438,834.474 z" id="boundary" inkscape:connector-curvature="0" />
	<path style="fill:none;stroke:red;stroke-width:1px;stroke-linecap:butt;stroke-linejoin:miter;stroke-opacity:1" d="M 522.842,630.526 506.526,637.053 z" id="boundary" inkscape:connector-curvature="0" />
	<path style="fill:none;stroke:red;stroke-width:1px;stroke-linecap:butt;stroke-linejoin:miter;stroke-opacity:1" d="M 506.526,637.053 498.368,622.368 z" id="boundary" inkscape:connector-curvature="0" />
	<path style="fill:none;stroke:red;stroke-width:1px;stroke-linecap:butt;stroke-linejoin:miter;stroke-opacity:1" d="M 495.105,796.947 478.789,790.421 z" id="boundary" inkscape:connector-curvature="0" />
	<path style="fill:none;stroke:red;stroke-width:1px;stroke-linecap:butt;stroke-linejoin:miter;stroke-opacity:1" d="M 482.053,622.368 498.368,622.368 z" id="boundary" inkscape:connector-curvature="0" />
	<path style="fill:none;stroke:red;stroke-width:1px;stroke-linecap:butt;stroke-linejoin:miter;stroke-opacity:1" d="M 485.316,834.474 470.632,826.316 z" id="boundary" inkscape:connector-curvature="0" />
	<path style="fill:none;stroke:red;stroke-width:1px;stroke-linecap:butt;stroke-linejoin:miter;stroke-opacity:1" d="M 501.632,837.737 485.316,834.474 z" id="boundary" inkscape:connector-curvature="0" />
	<path style="fill:none;stroke:red;stroke-width:1px;stroke-linecap:butt;stroke-linejoin:miter;stroke-opacity:1" d="M 511.421,800.211 527.737,800.211 z" id="boundary" inkscape:connector-curvature="0" />
	<path style="fill:none;stroke:red;stroke-width:1px;stroke-linecap:butt;stroke-linejoin:miter;stroke-opacity:1" d="M 511.421,800.211 495.105,796.947 z" id="boundary" inkscape:connector-curvature="0" />
	<path style="fill:none;stroke:red;stroke-width:1px;stroke-linecap:butt;stroke-linejoin:miter;stroke-opacity:1" d="M 534.263,834.474 517.947,834.474 z" id="boundary" inkscape:connector-curvature="0" />
	<path style="fill:none;stroke:red;stroke-width:1px;stroke-linecap:butt;stroke-linejoin:miter;stroke-opacity:1" d="M 517.947,834.474 501.632,837.737 z" id="boundary" inkscape:connector-curvature="0" />
	<path style="fill:none;stroke:red;stroke-width:1px;stroke-linecap:butt;stroke-linejoin:miter;stroke-opacity:1" d="M 527.737,800.211 544.053,800.211 z" id="boundary" inkscape:connector-curvature="0" />
	<path style="fill:none;stroke:red;stroke-width:1px;stroke-linecap:butt;stroke-linejoin:miter;stroke-opacity:1" d="M 421.684,951.947 405.368,947.053 z" id="boundary" inkscape:connector-curvature="0" />
	<path style="fill:none;stroke:red;stroke-width:1px;stroke-linecap:butt;stroke-linejoin:miter;stroke-opacity:1" d="M 413.526,867.105 421.684,850.789 z" id="boundary" inkscape:connector-curvature="0" />
	<path style="fill:none;stroke:red;stroke-width:1px;stroke-linecap:butt;stroke-linejoin:miter;stroke-opacity:1" d="M 413.526,883.421 413.526,867.105 z" id="boundary" inkscape:connector-curvature="0" />
	<path style="fill:none;stroke:red;stroke-width:1px;stroke-linecap:butt;stroke-linejoin:miter;stroke-opacity:1" d="M 402.105,904.632 413.526,883.421 z" id="boundary" inkscape:connector-curvature="0" />
	<path style="fill:none;stroke:red;stroke-width:1px;stroke-linecap:butt;stroke-linejoin:miter;stroke-opacity:1" d="M 470.632,947.053 454.316,947.053 z" id="boundary" inkscape:connector-curvature="0" />
	<path style="fill:none;stroke:red;stroke-width:1px;stroke-linecap:butt;stroke-linejoin:miter;stroke-opacity:1" d="M 433.105,989.474 416.789,989.474 z" id="boundary" inkscape:connector-curvature="0" />
	<path style="fill:none;stroke:red;stroke-width:1px;stroke-linecap:butt;stroke-linejoin:miter;stroke-opacity:1" d="M 416.789,989.474 400.474,989.474 z" id="boundary" inkscape:connector-curvature="0" />
	<path style="fill:none;stroke:red;stroke-width:1px;stroke-linecap:butt;stroke-linejoin:miter;stroke-opacity:1" d="M 421.684,951.947 438,947.053 z" id="boundary" inkscape:connector-curvature="0" />
	<path style="fill:none;stroke:red;stroke-width:1px;stroke-linecap:butt;stroke-linejoin:miter;stroke-opacity:1" d="M 438,947.053 454.316,947.053 z" id="boundary" inkscape:connector-curvature="0" />
	<path style="fill:none;stroke:red;stroke-width:1px;stroke-linecap:butt;stroke-linejoin:miter;stroke-opacity:1" d="M 465.737,989.474 449.421,989.474 z" id="boundary" inkscape:connector-curvature="0" />
	<path style="fill:none;stroke:red;stroke-width:1px;stroke-linecap:butt;stroke-linejoin:miter;stroke-opacity:1" d="M 449.421,989.474 433.105,989.474 z" id="boundary" inkscape:connector-curvature="0" />
	<path style="fill:none;stroke:red;stroke-width:1px;stroke-linecap:butt;stroke-linejoin:miter;stroke-opacity:1" d="M 486.947,947.053 470.632,947.053 z" id="boundary" inkscape:connector-curvature="0" />
	<path style="fill:none;stroke:red;stroke-width:1px;stroke-linecap:butt;stroke-linejoin:miter;stroke-opacity:1" d="M 534.263,930.737 517.947,935.632 z" id="boundary" inkscape:connector-curvature="0" />
	<path style="fill:none;stroke:red;stroke-width:1px;stroke-linecap:butt;stroke-linejoin:miter;stroke-opacity:1" d="M 503.263,943.789 517.947,935.632 z" id="boundary" inkscape:connector-curvature="0" />
	<path style="fill:none;stroke:red;stroke-width:1px;stroke-linecap:butt;stroke-linejoin:miter;stroke-opacity:1" d="M 503.263,943.789 486.947,947.053 z" id="boundary" inkscape:connector-curvature="0" />
	<path style="fill:none;stroke:red;stroke-width:1px;stroke-linecap:butt;stroke-linejoin:miter;stroke-opacity:1" d="M 482.053,989.474 465.737,989.474 z" id="boundary" inkscape:connector-curvature="0" />
	<path style="fill:none;stroke:red;stroke-width:1px;stroke-linecap:butt;stroke-linejoin:miter;stroke-opacity:1" d="M 498.368,989.474 482.053,989.474 z" id="boundary" inkscape:connector-curvature="0" />
	<path style="fill:none;stroke:red;stroke-width:1px;stroke-linecap:butt;stroke-linejoin:miter;stroke-opacity:1" d="M 531,989.474 514.684,996 z" id="boundary" inkscape:connector-curvature="0" />
	<path style="fill:none;stroke:red;stroke-width:1px;stroke-linecap:butt;stroke-linejoin:miter;stroke-opacity:1" d="M 514.684,996 498.368,989.474 z" id="boundary" inkscape:connector-curvature="0" />
	<path style="fill:none;stroke:red;stroke-width:1px;stroke-linecap:butt;stroke-linejoin:miter;stroke-opacity:1" d="M 531,989.474 547.316,989.474 z" id="boundary" inkscape:connector-curvature="0" />
	<path style="fill:none;stroke:red;stroke-width:1px;stroke-linecap:butt;stroke-linejoin:miter;stroke-opacity:1" d="M 534.263,834.474 548.947,842.632 z" id="boundary" inkscape:connector-curvature="0" />
	<path style="fill:none;stroke:red;stroke-width:1px;stroke-linecap:butt;stroke-linejoin:miter;stroke-opacity:1" d="M 537.526,622.368 553.842,622.368 z" id="boundary" inkscape:connector-curvature="0" />
	<path style="fill:none;stroke:red;stroke-width:1px;stroke-linecap:butt;stroke-linejoin:miter;stroke-opacity:1" d="M 553.842,622.368 568.526,630.526 z" id="boundary" inkscape:connector-curvature="0" />
	<path style="fill:none;stroke:red;stroke-width:1px;stroke-linecap:butt;stroke-linejoin:miter;stroke-opacity:1" d="M 612.579,628.895 604.421,612.579 z" id="boundary" inkscape:connector-curvature="0" />
	<path style="fill:none;stroke:red;stroke-width:1px;stroke-linecap:butt;stroke-linejoin:miter;stroke-opacity:1" d="M 640.316,625.632 640.316,609.316 z" id="boundary" inkscape:connector-curvature="0" />
	<path style="fill:none;stroke:red;stroke-width:1px;stroke-linecap:butt;stroke-linejoin:miter;stroke-opacity:1" d="M 537.526,622.368 522.842,630.526 z" id="boundary" inkscape:connector-curvature="0" />
	<path style="fill:none;stroke:red;stroke-width:1px;stroke-linecap:butt;stroke-linejoin:miter;stroke-opacity:1" d="M 640.316,625.632 612.579,628.895 z" id="boundary" inkscape:connector-curvature="0" />
	<path style="fill:none;stroke:red;stroke-width:1px;stroke-linecap:butt;stroke-linejoin:miter;stroke-opacity:1" d="M 583.211,638.684 568.526,630.526 z" id="boundary" inkscape:connector-curvature="0" />
	<path style="fill:none;stroke:red;stroke-width:1px;stroke-linecap:butt;stroke-linejoin:miter;stroke-opacity:1" d="M 640.316,682.737 632.158,699.053 z" id="boundary" inkscape:connector-curvature="0" />
	<path style="fill:none;stroke:red;stroke-width:1px;stroke-linecap:butt;stroke-linejoin:miter;stroke-opacity:1" d="M 599.526,638.684 583.211,638.684 z" id="boundary" inkscape:connector-curvature="0" />
	<path style="fill:none;stroke:red;stroke-width:1px;stroke-linecap:butt;stroke-linejoin:miter;stroke-opacity:1" d="M 599.526,638.684 612.579,628.895 z" id="boundary" inkscape:connector-curvature="0" />
	<path style="fill:none;stroke:red;stroke-width:1px;stroke-linecap:butt;stroke-linejoin:miter;stroke-opacity:1" d="M 640.316,625.632 640.316,650.105 z" id="boundary" inkscape:connector-curvature="0" />
	<path style="fill:none;stroke:red;stroke-width:1px;stroke-linecap:butt;stroke-linejoin:miter;stroke-opacity:1" d="M 674.579,614.211 674.579,630.526 z" id="boundary" inkscape:connector-curvature="0" />
	<path style="fill:none;stroke:red;stroke-width:1px;stroke-linecap:butt;stroke-linejoin:miter;stroke-opacity:1" d="M 674.579,630.526 674.579,646.842 z" id="boundary" inkscape:connector-curvature="0" />
	<path style="fill:none;stroke:red;stroke-width:1px;stroke-linecap:butt;stroke-linejoin:miter;stroke-opacity:1" d="M 674.579,663.158 674.579,646.842 z" id="boundary" inkscape:connector-curvature="0" />
	<path style="fill:none;stroke:red;stroke-width:1px;stroke-linecap:butt;stroke-linejoin:miter;stroke-opacity:1" d="M 640.316,666.421 640.316,650.105 z" id="boundary" inkscape:connector-curvature="0" />
	<path style="fill:none;stroke:red;stroke-width:1px;stroke-linecap:butt;stroke-linejoin:miter;stroke-opacity:1" d="M 640.316,666.421 640.316,682.737 z" id="boundary" inkscape:connector-curvature="0" />
	<path style="fill:none;stroke:red;stroke-width:1px;stroke-linecap:butt;stroke-linejoin:miter;stroke-opacity:1" d="M 640.316,713.737 632.158,699.053 z" id="boundary" inkscape:connector-curvature="0" />
	<path style="fill:none;stroke:red;stroke-width:1px;stroke-linecap:butt;stroke-linejoin:miter;stroke-opacity:1" d="M 671.316,708.842 658.263,720.263 z" id="boundary" inkscape:connector-curvature="0" />
	<path style="fill:none;stroke:red;stroke-width:1px;stroke-linecap:butt;stroke-linejoin:miter;stroke-opacity:1" d="M 658.263,720.263 640.316,713.737 z" id="boundary" inkscape:connector-curvature="0" />
	<path style="fill:none;stroke:red;stroke-width:1px;stroke-linecap:butt;stroke-linejoin:miter;stroke-opacity:1" d="M 674.579,679.474 671.316,708.842 z" id="boundary" inkscape:connector-curvature="0" />
	<path style="fill:none;stroke:red;stroke-width:1px;stroke-linecap:butt;stroke-linejoin:miter;stroke-opacity:1" d="M 658.263,736.579 658.263,720.263 z" id="boundary" inkscape:connector-curvature="0" />
	<path style="fill:none;stroke:red;stroke-width:1px;stroke-linecap:butt;stroke-linejoin:miter;stroke-opacity:1" d="M 674.579,663.158 674.579,679.474 z" id="boundary" inkscape:connector-curvature="0" />
	<path style="fill:none;stroke:red;stroke-width:1px;stroke-linecap:butt;stroke-linejoin:miter;stroke-opacity:1" d="M 640.316,609.316 648.474,593 z" id="boundary" inkscape:connector-curvature="0" />
	<path style="fill:none;stroke:red;stroke-width:1px;stroke-linecap:butt;stroke-linejoin:miter;stroke-opacity:1" d="M 640.316,713.737 625.632,721.895 z" id="boundary" inkscape:connector-curvature="0" />
	<path style="fill:none;stroke:red;stroke-width:1px;stroke-linecap:butt;stroke-linejoin:miter;stroke-opacity:1" d="M 544.053,800.211 560.368,800.211 z" id="boundary" inkscape:connector-curvature="0" />
	<path style="fill:none;stroke:red;stroke-width:1px;stroke-linecap:butt;stroke-linejoin:miter;stroke-opacity:1" d="M 575.053,780.632 560.368,800.211 z" id="boundary" inkscape:connector-curvature="0" />
	<path style="fill:none;stroke:red;stroke-width:1px;stroke-linecap:butt;stroke-linejoin:miter;stroke-opacity:1" d="M 560.368,800.211 576.684,818.158 z" id="boundary" inkscape:connector-curvature="0" />
	<path style="fill:none;stroke:red;stroke-width:1px;stroke-linecap:butt;stroke-linejoin:miter;stroke-opacity:1" d="M 576.684,818.158 563.632,832.842 z" id="boundary" inkscape:connector-curvature="0" />
	<path style="fill:none;stroke:red;stroke-width:1px;stroke-linecap:butt;stroke-linejoin:miter;stroke-opacity:1" d="M 591.368,810 576.684,818.158 z" id="boundary" inkscape:connector-curvature="0" />
	<path style="fill:none;stroke:red;stroke-width:1px;stroke-linecap:butt;stroke-linejoin:miter;stroke-opacity:1" d="M 563.632,832.842 548.947,842.632 z" id="boundary" inkscape:connector-curvature="0" />
	<path style="fill:none;stroke:red;stroke-width:1px;stroke-linecap:butt;stroke-linejoin:miter;stroke-opacity:1" d="M 548.947,938.895 534.263,930.737 z" id="boundary" inkscape:connector-curvature="0" />
	<path style="fill:none;stroke:red;stroke-width:1px;stroke-linecap:butt;stroke-linejoin:miter;stroke-opacity:1" d="M 548.947,938.895 560.368,951.947 z" id="boundary" inkscape:connector-curvature="0" />
	<path style="fill:none;stroke:red;stroke-width:1px;stroke-linecap:butt;stroke-linejoin:miter;stroke-opacity:1" d="M 560.368,951.947 560.368,968.263 z" id="boundary" inkscape:connector-curvature="0" />
	<path style="fill:none;stroke:red;stroke-width:1px;stroke-linecap:butt;stroke-linejoin:miter;stroke-opacity:1" d="M 560.368,968.263 547.316,989.474 z" id="boundary" inkscape:connector-curvature="0" />
	<path style="fill:none;stroke:red;stroke-width:1px;stroke-linecap:butt;stroke-linejoin:miter;stroke-opacity:1" d="M 599.526,748 612.579,734.947 z" id="boundary" inkscape:connector-curvature="0" />
	<path style="fill:none;stroke:red;stroke-width:1px;stroke-linecap:butt;stroke-linejoin:miter;stroke-opacity:1" d="M 658.263,736.579 650.105,752.895 z" id="boundary" inkscape:connector-curvature="0" />
	<path style="fill:none;stroke:red;stroke-width:1px;stroke-linecap:butt;stroke-linejoin:miter;stroke-opacity:1" d="M 612.579,734.947 625.632,721.895 z" id="boundary" inkscape:connector-curvature="0" />
	<path style="fill:none;stroke:red;stroke-width:1px;stroke-linecap:butt;stroke-linejoin:miter;stroke-opacity:1" d="M 650.105,752.895 641.947,769.211 z" id="boundary" inkscape:connector-curvature="0" />
	<path style="fill:none;stroke:red;stroke-width:1px;stroke-linecap:butt;stroke-linejoin:miter;stroke-opacity:1" d="M 601.158,793.684 591.368,810 z" id="boundary" inkscape:connector-curvature="0" />
	<path style="fill:none;stroke:red;stroke-width:1px;stroke-linecap:butt;stroke-linejoin:miter;stroke-opacity:1" d="M 617.474,785.526 601.158,793.684 z" id="boundary" inkscape:connector-curvature="0" />
	<path style="fill:none;stroke:red;stroke-width:1px;stroke-linecap:butt;stroke-linejoin:miter;stroke-opacity:1" d="M 575.053,780.632 591.368,764.316 z" id="boundary" inkscape:connector-curvature="0" />
	<path style="fill:none;stroke:red;stroke-width:1px;stroke-linecap:butt;stroke-linejoin:miter;stroke-opacity:1" d="M 641.947,769.211 633.789,785.526 z" id="boundary" inkscape:connector-curvature="0" />
	<path style="fill:none;stroke:red;stroke-width:1px;stroke-linecap:butt;stroke-linejoin:miter;stroke-opacity:1" d="M 633.789,785.526 617.474,785.526 z" id="boundary" inkscape:connector-curvature="0" />
	<path style="fill:none;stroke:red;stroke-width:1px;stroke-linecap:butt;stroke-linejoin:miter;stroke-opacity:1" d="M 591.368,764.316 599.526,748 z" id="boundary" inkscape:connector-curvature="0" />
	<circle cx="4" cy="951.947" r="4" fill="#0" id="circle0"/>
	<circle cx="4" cy="984.579" r="4" fill="#0" id="circle1"/>
	<circle cx="12.1579" cy="966.632" r="4" fill="#0" id="circle2"/>
	<circle cx="17.0526" cy="938.895" r="4" fill="#0" id="circle3"/>
	<circle cx="20.3158" cy="989.474" r="4" fill="#0" id="circle4"/>
	<circle cx="31.7368" cy="930.737" r="4" fill="#0" id="circle5"/>
	<circle cx="36.6316" cy="674.579" r="4" fill="#0" id="circle6"/>
	<circle cx="36.6316" cy="989.474" r="4" fill="#0" id="circle7"/>
	<circle cx="46.4211" cy="687.632" r="4" fill="#0" id="circle8"/>
	<circle cx="48.0526" cy="930.737" r="4" fill="#0" id="circle9"/>
	<circle cx="52.9474" cy="633.789" r="4" fill="#0" id="circle10"/>
	<circle cx="52.9474" cy="650.105" r="4" fill="#0" id="circle11"/>
	<circle cx="52.9474" cy="666.421" r="4" fill="#0" id="circle12"/>
	<circle cx="52.9474" cy="989.474" r="4" fill="#0" id="circle13"/>
	<circle cx="61.1053" cy="695.789" r="4" fill="#0" id="circle14"/>
	<circle cx="64.3684" cy="930.737" r="4" fill="#0" id="circle15"/>
	<circle cx="66" cy="620.737" r="4" fill="#0" id="circle16"/>
	<circle cx="69.2632" cy="601.158" r="4" fill="#0" id="circle17"/>
	<circle cx="69.2632" cy="989.474" r="4" fill="#0" id="circle18"/>
	<circle cx="77.4211" cy="576.684" r="4" fill="#0" id="circle19"/>
	<circle cx="77.4211" cy="690.895" r="4" fill="#0" id="circle20"/>
	<circle cx="80.6842" cy="930.737" r="4" fill="#0" id="circle21"/>
	<circle cx="85.5789" cy="989.474" r="4" fill="#0" id="circle22"/>
	<circle cx="93.7368" cy="552.211" r="4" fill="#0" id="circle23"/>
	<circle cx="93.7368" cy="568.526" r="4" fill="#0" id="circle24"/>
	<circle cx="93.7368" cy="682.737" r="4" fill="#0" id="circle25"/>
	<circle cx="97" cy="930.737" r="4" fill="#0" id="circle26"/>
	<circle cx="101.895" cy="185.105" r="4" fill="#0" id="circle27"/>
	<circle cx="101.895" cy="989.474" r="4" fill="#0" id="circle28"/>
	<circle cx="106.789" cy="539.158" r="4" fill="#0" id="circle29"/>
	<circle cx="110.053" cy="70.8947" r="4" fill="#0" id="circle30"/>
	<circle cx="110.053" cy="87.2105" r="4" fill="#0" id="circle31"/>
	<circle cx="110.053" cy="103.526" r="4" fill="#0" id="circle32"/>
	<circle cx="110.053" cy="119.842" r="4" fill="#0" id="circle33"/>
	<circle cx="110.053" cy="136.158" r="4" fill="#0" id="circle34"/>
	<circle cx="110.053" cy="152.474" r="4" fill="#0" id="circle35"/>
	<circle cx="110.053" cy="168.789" r="4" fill="#0" id="circle36"/>
	<circle cx="110.053" cy="503.263" r="4" fill="#0" id="circle37"/>
	<circle cx="110.053" cy="519.579" r="4" fill="#0" id="circle38"/>
	<circle cx="110.053" cy="674.579" r="4" fill="#0" id="circle39"/>
	<circle cx="113.316" cy="930.737" r="4" fill="#0" id="circle40"/>
	<circle cx="114.947" cy="196.526" r="4" fill="#0" id="circle41"/>
	<circle cx="118.211" cy="54.5789" r="4" fill="#0" id="circle42"/>
	<circle cx="118.211" cy="478.789" r="4" fill="#0" id="circle43"/>
	<circle cx="118.211" cy="989.474" r="4" fill="#0" id="circle44"/>
	<circle cx="123.105" cy="663.158" r="4" fill="#0" id="circle45"/>
	<circle cx="126.368" cy="446.158" r="4" fill="#0" id="circle46"/>
	<circle cx="128" cy="206.316" r="4" fill="#0" id="circle47"/>
	<circle cx="128" cy="938.895" r="4" fill="#0" id="circle48"/>
	<circle cx="131.263" cy="41.5263" r="4" fill="#0" id="circle49"/>
	<circle cx="131.263" cy="465.737" r="4" fill="#0" id="circle50"/>
	<circle cx="134.526" cy="413.526" r="4" fill="#0" id="circle51"/>
	<circle cx="134.526" cy="429.842" r="4" fill="#0" id="circle52"/>
	<circle cx="134.526" cy="989.474" r="4" fill="#0" id="circle53"/>
	<circle cx="136.158" cy="646.842" r="4" fill="#0" id="circle54"/>
	<circle cx="136.158" cy="953.579" r="4" fill="#0" id="circle55"/>
	<circle cx="137.789" cy="219.368" r="4" fill="#0" id="circle56"/>
	<circle cx="142.684" cy="13.7895" r="4" fill="#0" id="circle57"/>
	<circle cx="142.684" cy="380.895" r="4" fill="#0" id="circle58"/>
	<circle cx="147.579" cy="400.474" r="4" fill="#0" id="circle59"/>
	<circle cx="149.211" cy="963.368" r="4" fill="#0" id="circle60"/>
	<circle cx="150.842" cy="230.789" r="4" fill="#0" id="circle61"/>
	<circle cx="150.842" cy="348.263" r="4" fill="#0" id="circle62"/>
	<circle cx="150.842" cy="364.579" r="4" fill="#0" id="circle63"/>
	<circle cx="150.842" cy="989.474" r="4" fill="#0" id="circle64"/>
	<circle cx="152.474" cy="646.842" r="4" fill="#0" id="circle65"/>
	<circle cx="159" cy="8.89474" r="4" fill="#0" id="circle66"/>
	<circle cx="159" cy="315.632" r="4" fill="#0" id="circle67"/>
	<circle cx="159" cy="331.947" r="4" fill="#0" id="circle68"/>
	<circle cx="159" cy="837.737" r="4" fill="#0" id="circle69"/>
	<circle cx="159" cy="854.053" r="4" fill="#0" id="circle70"/>
	<circle cx="159" cy="878.526" r="4" fill="#0" id="circle71"/>
	<circle cx="163.895" cy="955.211" r="4" fill="#0" id="circle72"/>
	<circle cx="165.526" cy="238.947" r="4" fill="#0" id="circle73"/>
	<circle cx="165.526" cy="635.421" r="4" fill="#0" id="circle74"/>
	<circle cx="167.158" cy="291.158" r="4" fill="#0" id="circle75"/>
	<circle cx="167.158" cy="813.263" r="4" fill="#0" id="circle76"/>
	<circle cx="167.158" cy="989.474" r="4" fill="#0" id="circle77"/>
	<circle cx="175.316" cy="4" r="4" fill="#0" id="circle78"/>
	<circle cx="175.316" cy="252" r="4" fill="#0" id="circle79"/>
	<circle cx="175.316" cy="268.316" r="4" fill="#0" id="circle80"/>
	<circle cx="175.316" cy="756.158" r="4" fill="#0" id="circle81"/>
	<circle cx="175.316" cy="772.474" r="4" fill="#0" id="circle82"/>
	<circle cx="175.316" cy="788.789" r="4" fill="#0" id="circle83"/>
	<circle cx="175.316" cy="883.421" r="4" fill="#0" id="circle84"/>
	<circle cx="176.947" cy="622.368" r="4" fill="#0" id="circle85"/>
	<circle cx="178.579" cy="963.368" r="4" fill="#0" id="circle86"/>
	<circle cx="183.474" cy="739.842" r="4" fill="#0" id="circle87"/>
	<circle cx="183.474" cy="989.474" r="4" fill="#0" id="circle88"/>
	<circle cx="185.105" cy="896.474" r="4" fill="#0" id="circle89"/>
	<circle cx="191.632" cy="8.89474" r="4" fill="#0" id="circle90"/>
	<circle cx="191.632" cy="630.526" r="4" fill="#0" id="circle91"/>
	<circle cx="191.632" cy="707.211" r="4" fill="#0" id="circle92"/>
	<circle cx="191.632" cy="723.526" r="4" fill="#0" id="circle93"/>
	<circle cx="194.895" cy="956.842" r="4" fill="#0" id="circle94"/>
	<circle cx="196.526" cy="646.842" r="4" fill="#0" id="circle95"/>
	<circle cx="198.158" cy="907.895" r="4" fill="#0" id="circle96"/>
	<circle cx="199.789" cy="989.474" r="4" fill="#0" id="circle97"/>
	<circle cx="207.947" cy="8.89474" r="4" fill="#0" id="circle98"/>
	<circle cx="207.947" cy="659.895" r="4" fill="#0" id="circle99"/>
	<circle cx="207.947" cy="676.211" r="4" fill="#0" id="circle100"/>
	<circle cx="207.947" cy="692.526" r="4" fill="#0" id="circle101"/>
	<circle cx="207.947" cy="920.947" r="4" fill="#0" id="circle102"/>
	<circle cx="207.947" cy="937.263" r="4" fill="#0" id="circle103"/>
	<circle cx="216.105" cy="989.474" r="4" fill="#0" id="circle104"/>
	<circle cx="224.263" cy="8.89474" r="4" fill="#0" id="circle105"/>
	<circle cx="225.895" cy="899.737" r="4" fill="#0" id="circle106"/>
	<circle cx="225.895" cy="916.053" r="4" fill="#0" id="circle107"/>
	<circle cx="225.895" cy="932.368" r="4" fill="#0" id="circle108"/>
	<circle cx="225.895" cy="948.684" r="4" fill="#0" id="circle109"/>
	<circle cx="229.158" cy="965" r="4" fill="#0" id="circle110"/>
	<circle cx="232.421" cy="989.474" r="4" fill="#0" id="circle111"/>
	<circle cx="234.053" cy="875.263" r="4" fill="#0" id="circle112"/>
	<circle cx="240.579" cy="8.89474" r="4" fill="#0" id="circle113"/>
	<circle cx="242.211" cy="976.421" r="4" fill="#0" id="circle114"/>
	<circle cx="247.105" cy="863.842" r="4" fill="#0" id="circle115"/>
	<circle cx="256.895" cy="4" r="4" fill="#0" id="circle116"/>
	<circle cx="263.421" cy="867.105" r="4" fill="#0" id="circle117"/>
	<circle cx="273.211" cy="8.89474" r="4" fill="#0" id="circle118"/>
	<circle cx="279.737" cy="863.842" r="4" fill="#0" id="circle119"/>
	<circle cx="289.526" cy="12.1579" r="4" fill="#0" id="circle120"/>
	<circle cx="296.053" cy="863.842" r="4" fill="#0" id="circle121"/>
	<circle cx="304.211" cy="20.3158" r="4" fill="#0" id="circle122"/>
	<circle cx="312.368" cy="867.105" r="4" fill="#0" id="circle123"/>
	<circle cx="320.526" cy="26.8421" r="4" fill="#0" id="circle124"/>
	<circle cx="322.158" cy="960.105" r="4" fill="#0" id="circle125"/>
	<circle cx="322.158" cy="976.421" r="4" fill="#0" id="circle126"/>
	<circle cx="328.684" cy="863.842" r="4" fill="#0" id="circle127"/>
	<circle cx="330.316" cy="943.789" r="4" fill="#0" id="circle128"/>
	<circle cx="335.211" cy="35" r="4" fill="#0" id="circle129"/>
	<circle cx="335.211" cy="987.842" r="4" fill="#0" id="circle130"/>
	<circle cx="338.474" cy="927.474" r="4" fill="#0" id="circle131"/>
	<circle cx="343.368" cy="49.6842" r="4" fill="#0" id="circle132"/>
	<circle cx="345" cy="867.105" r="4" fill="#0" id="circle133"/>
	<circle cx="346.632" cy="883.421" r="4" fill="#0" id="circle134"/>
	<circle cx="346.632" cy="899.737" r="4" fill="#0" id="circle135"/>
	<circle cx="348.263" cy="66" r="4" fill="#0" id="circle136"/>
	<circle cx="351.526" cy="989.474" r="4" fill="#0" id="circle137"/>
	<circle cx="356.421" cy="80.6842" r="4" fill="#0" id="circle138"/>
	<circle cx="356.421" cy="141.053" r="4" fill="#0" id="circle139"/>
	<circle cx="359.684" cy="157.368" r="4" fill="#0" id="circle140"/>
	<circle cx="364.579" cy="95.3684" r="4" fill="#0" id="circle141"/>
	<circle cx="364.579" cy="111.684" r="4" fill="#0" id="circle142"/>
	<circle cx="367.842" cy="989.474" r="4" fill="#0" id="circle143"/>
	<circle cx="372.737" cy="459.211" r="4" fill="#0" id="circle144"/>
	<circle cx="372.737" cy="932.368" r="4" fill="#0" id="circle145"/>
	<circle cx="372.737" cy="948.684" r="4" fill="#0" id="circle146"/>
	<circle cx="376" cy="163.895" r="4" fill="#0" id="circle147"/>
	<circle cx="379.263" cy="144.316" r="4" fill="#0" id="circle148"/>
	<circle cx="380.895" cy="442.895" r="4" fill="#0" id="circle149"/>
	<circle cx="380.895" cy="473.895" r="4" fill="#0" id="circle150"/>
	<circle cx="380.895" cy="532.632" r="4" fill="#0" id="circle151"/>
	<circle cx="380.895" cy="548.947" r="4" fill="#0" id="circle152"/>
	<circle cx="380.895" cy="565.263" r="4" fill="#0" id="circle153"/>
	<circle cx="380.895" cy="581.579" r="4" fill="#0" id="circle154"/>
	<circle cx="380.895" cy="597.895" r="4" fill="#0" id="circle155"/>
	<circle cx="380.895" cy="614.211" r="4" fill="#0" id="circle156"/>
	<circle cx="380.895" cy="638.684" r="4" fill="#0" id="circle157"/>
	<circle cx="384.158" cy="989.474" r="4" fill="#0" id="circle158"/>
	<circle cx="387.421" cy="119.842" r="4" fill="#0" id="circle159"/>
	<circle cx="389.053" cy="653.368" r="4" fill="#0" id="circle160"/>
	<circle cx="389.053" cy="916.053" r="4" fill="#0" id="circle161"/>
	<circle cx="389.053" cy="947.053" r="4" fill="#0" id="circle162"/>
	<circle cx="395.579" cy="524.474" r="4" fill="#0" id="circle163"/>
	<circle cx="397.211" cy="434.737" r="4" fill="#0" id="circle164"/>
	<circle cx="397.211" cy="478.789" r="4" fill="#0" id="circle165"/>
	<circle cx="397.211" cy="668.053" r="4" fill="#0" id="circle166"/>
	<circle cx="397.211" cy="684.368" r="4" fill="#0" id="circle167"/>
	<circle cx="397.211" cy="703.947" r="4" fill="#0" id="circle168"/>
	<circle cx="400.474" cy="106.789" r="4" fill="#0" id="circle169"/>
	<circle cx="400.474" cy="989.474" r="4" fill="#0" id="circle170"/>
	<circle cx="402.105" cy="904.632" r="4" fill="#0" id="circle171"/>
	<circle cx="405.368" cy="718.632" r="4" fill="#0" id="circle172"/>
	<circle cx="405.368" cy="736.579" r="4" fill="#0" id="circle173"/>
	<circle cx="405.368" cy="947.053" r="4" fill="#0" id="circle174"/>
	<circle cx="410.263" cy="423.316" r="4" fill="#0" id="circle175"/>
	<circle cx="410.263" cy="532.632" r="4" fill="#0" id="circle176"/>
	<circle cx="411.895" cy="87.2105" r="4" fill="#0" id="circle177"/>
	<circle cx="411.895" cy="486.947" r="4" fill="#0" id="circle178"/>
	<circle cx="413.526" cy="402.105" r="4" fill="#0" id="circle179"/>
	<circle cx="413.526" cy="751.263" r="4" fill="#0" id="circle180"/>
	<circle cx="413.526" cy="867.105" r="4" fill="#0" id="circle181"/>
	<circle cx="413.526" cy="883.421" r="4" fill="#0" id="circle182"/>
	<circle cx="416.789" cy="989.474" r="4" fill="#0" id="circle183"/>
	<circle cx="421.684" cy="545.684" r="4" fill="#0" id="circle184"/>
	<circle cx="421.684" cy="765.947" r="4" fill="#0" id="circle185"/>
	<circle cx="421.684" cy="834.474" r="4" fill="#0" id="circle186"/>
	<circle cx="421.684" cy="850.789" r="4" fill="#0" id="circle187"/>
	<circle cx="421.684" cy="951.947" r="4" fill="#0" id="circle188"/>
	<circle cx="424.947" cy="498.368" r="4" fill="#0" id="circle189"/>
	<circle cx="428.211" cy="79.0526" r="4" fill="#0" id="circle190"/>
	<circle cx="429.842" cy="385.789" r="4" fill="#0" id="circle191"/>
	<circle cx="433.105" cy="989.474" r="4" fill="#0" id="circle192"/>
	<circle cx="434.737" cy="557.105" r="4" fill="#0" id="circle193"/>
	<circle cx="434.737" cy="775.737" r="4" fill="#0" id="circle194"/>
	<circle cx="438" cy="508.158" r="4" fill="#0" id="circle195"/>
	<circle cx="438" cy="834.474" r="4" fill="#0" id="circle196"/>
	<circle cx="438" cy="947.053" r="4" fill="#0" id="circle197"/>
	<circle cx="441.263" cy="66" r="4" fill="#0" id="circle198"/>
	<circle cx="442.895" cy="374.368" r="4" fill="#0" id="circle199"/>
	<circle cx="446.158" cy="570.158" r="4" fill="#0" id="circle200"/>
	<circle cx="449.421" cy="989.474" r="4" fill="#0" id="circle201"/>
	<circle cx="451.053" cy="517.947" r="4" fill="#0" id="circle202"/>
	<circle cx="451.053" cy="775.737" r="4" fill="#0" id="circle203"/>
	<circle cx="454.316" cy="834.474" r="4" fill="#0" id="circle204"/>
	<circle cx="454.316" cy="947.053" r="4" fill="#0" id="circle205"/>
	<circle cx="457.579" cy="66" r="4" fill="#0" id="circle206"/>
	<circle cx="459.211" cy="366.211" r="4" fill="#0" id="circle207"/>
	<circle cx="459.211" cy="581.579" r="4" fill="#0" id="circle208"/>
	<circle cx="460.842" cy="597.895" r="4" fill="#0" id="circle209"/>
	<circle cx="462.474" cy="328.684" r="4" fill="#0" id="circle210"/>
	<circle cx="462.474" cy="345" r="4" fill="#0" id="circle211"/>
	<circle cx="462.474" cy="531" r="4" fill="#0" id="circle212"/>
	<circle cx="462.474" cy="547.316" r="4" fill="#0" id="circle213"/>
	<circle cx="465.737" cy="989.474" r="4" fill="#0" id="circle214"/>
	<circle cx="467.368" cy="777.368" r="4" fill="#0" id="circle215"/>
	<circle cx="470.632" cy="52.9474" r="4" fill="#0" id="circle216"/>
	<circle cx="470.632" cy="826.316" r="4" fill="#0" id="circle217"/>
	<circle cx="470.632" cy="947.053" r="4" fill="#0" id="circle218"/>
	<circle cx="475.526" cy="606.053" r="4" fill="#0" id="circle219"/>
	<circle cx="477.158" cy="555.474" r="4" fill="#0" id="circle220"/>
	<circle cx="478.789" cy="328.684" r="4" fill="#0" id="circle221"/>
	<circle cx="478.789" cy="790.421" r="4" fill="#0" id="circle222"/>
	<circle cx="482.053" cy="622.368" r="4" fill="#0" id="circle223"/>
	<circle cx="482.053" cy="989.474" r="4" fill="#0" id="circle224"/>
	<circle cx="483.684" cy="43.1579" r="4" fill="#0" id="circle225"/>
	<circle cx="485.316" cy="834.474" r="4" fill="#0" id="circle226"/>
	<circle cx="486.947" cy="568.526" r="4" fill="#0" id="circle227"/>
	<circle cx="486.947" cy="947.053" r="4" fill="#0" id="circle228"/>
	<circle cx="495.105" cy="331.947" r="4" fill="#0" id="circle229"/>
	<circle cx="495.105" cy="796.947" r="4" fill="#0" id="circle230"/>
	<circle cx="498.368" cy="622.368" r="4" fill="#0" id="circle231"/>
	<circle cx="498.368" cy="989.474" r="4" fill="#0" id="circle232"/>
	<circle cx="500" cy="49.6842" r="4" fill="#0" id="circle233"/>
	<circle cx="500" cy="579.947" r="4" fill="#0" id="circle234"/>
	<circle cx="501.632" cy="837.737" r="4" fill="#0" id="circle235"/>
	<circle cx="503.263" cy="943.789" r="4" fill="#0" id="circle236"/>
	<circle cx="506.526" cy="345" r="4" fill="#0" id="circle237"/>
	<circle cx="506.526" cy="637.053" r="4" fill="#0" id="circle238"/>
	<circle cx="511.421" cy="800.211" r="4" fill="#0" id="circle239"/>
	<circle cx="514.684" cy="996" r="4" fill="#0" id="circle240"/>
	<circle cx="516.316" cy="49.6842" r="4" fill="#0" id="circle241"/>
	<circle cx="516.316" cy="579.947" r="4" fill="#0" id="circle242"/>
	<circle cx="517.947" cy="834.474" r="4" fill="#0" id="circle243"/>
	<circle cx="517.947" cy="935.632" r="4" fill="#0" id="circle244"/>
	<circle cx="522.842" cy="345" r="4" fill="#0" id="circle245"/>
	<circle cx="522.842" cy="630.526" r="4" fill="#0" id="circle246"/>
	<circle cx="527.737" cy="800.211" r="4" fill="#0" id="circle247"/>
	<circle cx="531" cy="989.474" r="4" fill="#0" id="circle248"/>
	<circle cx="532.632" cy="49.6842" r="4" fill="#0" id="circle249"/>
	<circle cx="532.632" cy="581.579" r="4" fill="#0" id="circle250"/>
	<circle cx="534.263" cy="834.474" r="4" fill="#0" id="circle251"/>
	<circle cx="534.263" cy="930.737" r="4" fill="#0" id="circle252"/>
	<circle cx="537.526" cy="622.368" r="4" fill="#0" id="circle253"/>
	<circle cx="539.158" cy="345" r="4" fill="#0" id="circle254"/>
	<circle cx="544.053" cy="800.211" r="4" fill="#0" id="circle255"/>
	<circle cx="547.316" cy="989.474" r="4" fill="#0" id="circle256"/>
	<circle cx="548.947" cy="49.6842" r="4" fill="#0" id="circle257"/>
	<circle cx="548.947" cy="579.947" r="4" fill="#0" id="circle258"/>
	<circle cx="548.947" cy="842.632" r="4" fill="#0" id="circle259"/>
	<circle cx="548.947" cy="938.895" r="4" fill="#0" id="circle260"/>
	<circle cx="553.842" cy="622.368" r="4" fill="#0" id="circle261"/>
	<circle cx="555.474" cy="345" r="4" fill="#0" id="circle262"/>
	<circle cx="560.368" cy="800.211" r="4" fill="#0" id="circle263"/>
	<circle cx="560.368" cy="951.947" r="4" fill="#0" id="circle264"/>
	<circle cx="560.368" cy="968.263" r="4" fill="#0" id="circle265"/>
	<circle cx="563.632" cy="832.842" r="4" fill="#0" id="circle266"/>
	<circle cx="565.263" cy="49.6842" r="4" fill="#0" id="circle267"/>
	<circle cx="565.263" cy="579.947" r="4" fill="#0" id="circle268"/>
	<circle cx="568.526" cy="630.526" r="4" fill="#0" id="circle269"/>
	<circle cx="571.789" cy="345" r="4" fill="#0" id="circle270"/>
	<circle cx="575.053" cy="780.632" r="4" fill="#0" id="circle271"/>
	<circle cx="576.684" cy="593" r="4" fill="#0" id="circle272"/>
	<circle cx="576.684" cy="818.158" r="4" fill="#0" id="circle273"/>
	<circle cx="579.947" cy="57.8421" r="4" fill="#0" id="circle274"/>
	<circle cx="583.211" cy="638.684" r="4" fill="#0" id="circle275"/>
	<circle cx="588.105" cy="343.368" r="4" fill="#0" id="circle276"/>
	<circle cx="591.368" cy="601.158" r="4" fill="#0" id="circle277"/>
	<circle cx="591.368" cy="764.316" r="4" fill="#0" id="circle278"/>
	<circle cx="591.368" cy="810" r="4" fill="#0" id="circle279"/>
	<circle cx="594.632" cy="66" r="4" fill="#0" id="circle280"/>
	<circle cx="599.526" cy="638.684" r="4" fill="#0" id="circle281"/>
	<circle cx="599.526" cy="748" r="4" fill="#0" id="circle282"/>
	<circle cx="601.158" cy="328.684" r="4" fill="#0" id="circle283"/>
	<circle cx="601.158" cy="793.684" r="4" fill="#0" id="circle284"/>
	<circle cx="604.421" cy="612.579" r="4" fill="#0" id="circle285"/>
	<circle cx="609.316" cy="312.368" r="4" fill="#0" id="circle286"/>
	<circle cx="610.947" cy="66" r="4" fill="#0" id="circle287"/>
	<circle cx="612.579" cy="628.895" r="4" fill="#0" id="circle288"/>
	<circle cx="612.579" cy="734.947" r="4" fill="#0" id="circle289"/>
	<circle cx="617.474" cy="82.3158" r="4" fill="#0" id="circle290"/>
	<circle cx="617.474" cy="98.6316" r="4" fill="#0" id="circle291"/>
	<circle cx="617.474" cy="296.053" r="4" fill="#0" id="circle292"/>
	<circle cx="617.474" cy="785.526" r="4" fill="#0" id="circle293"/>
	<circle cx="625.632" cy="279.737" r="4" fill="#0" id="circle294"/>
	<circle cx="625.632" cy="721.895" r="4" fill="#0" id="circle295"/>
	<circle cx="632.158" cy="699.053" r="4" fill="#0" id="circle296"/>
	<circle cx="633.789" cy="103.526" r="4" fill="#0" id="circle297"/>
	<circle cx="633.789" cy="785.526" r="4" fill="#0" id="circle298"/>
	<circle cx="640.316" cy="119.842" r="4" fill="#0" id="circle299"/>
	<circle cx="640.316" cy="609.316" r="4" fill="#0" id="circle300"/>
	<circle cx="640.316" cy="625.632" r="4" fill="#0" id="circle301"/>
	<circle cx="640.316" cy="650.105" r="4" fill="#0" id="circle302"/>
	<circle cx="640.316" cy="666.421" r="4" fill="#0" id="circle303"/>
	<circle cx="640.316" cy="682.737" r="4" fill="#0" id="circle304"/>
	<circle cx="640.316" cy="713.737" r="4" fill="#0" id="circle305"/>
	<circle cx="641.947" cy="271.579" r="4" fill="#0" id="circle306"/>
	<circle cx="641.947" cy="769.211" r="4" fill="#0" id="circle307"/>
	<circle cx="648.474" cy="576.684" r="4" fill="#0" id="circle308"/>
	<circle cx="648.474" cy="593" r="4" fill="#0" id="circle309"/>
	<circle cx="650.105" cy="132.895" r="4" fill="#0" id="circle310"/>
	<circle cx="650.105" cy="255.263" r="4" fill="#0" id="circle311"/>
	<circle cx="650.105" cy="752.895" r="4" fill="#0" id="circle312"/>
	<circle cx="656.632" cy="560.368" r="4" fill="#0" id="circle313"/>
	<circle cx="658.263" cy="147.579" r="4" fill="#0" id="circle314"/>
	<circle cx="658.263" cy="222.632" r="4" fill="#0" id="circle315"/>
	<circle cx="658.263" cy="238.947" r="4" fill="#0" id="circle316"/>
	<circle cx="658.263" cy="720.263" r="4" fill="#0" id="circle317"/>
	<circle cx="658.263" cy="736.579" r="4" fill="#0" id="circle318"/>
	<circle cx="664.789" cy="544.053" r="4" fill="#0" id="circle319"/>
	<circle cx="666.421" cy="162.263" r="4" fill="#0" id="circle320"/>
	<circle cx="666.421" cy="206.316" r="4" fill="#0" id="circle321"/>
	<circle cx="671.316" cy="708.842" r="4" fill="#0" id="circle322"/>
	<circle cx="674.579" cy="176.947" r="4" fill="#0" id="circle323"/>
	<circle cx="674.579" cy="565.263" r="4" fill="#0" id="circle324"/>
	<circle cx="674.579" cy="581.579" r="4" fill="#0" id="circle325"/>
	<circle cx="674.579" cy="597.895" r="4" fill="#0" id="circle326"/>
	<circle cx="674.579" cy="614.211" r="4" fill="#0" id="circle327"/>
	<circle cx="674.579" cy="630.526" r="4" fill="#0" id="circle328"/>
	<circle cx="674.579" cy="646.842" r="4" fill="#0" id="circle329"/>
	<circle cx="674.579" cy="663.158" r="4" fill="#0" id="circle330"/>
	<circle cx="674.579" cy="679.474" r="4" fill="#0" id="circle331"/>
	<circle cx="677.842" cy="531" r="4" fill="#0" id="circle332"/>
	<circle cx="687.632" cy="553.842" r="4" fill="#0" id="circle333"/>
	<circle cx="692.526" cy="522.842" r="4" fill="#0" id="circle334"/>
	<circle cx="703.947" cy="545.684" r="4" fill="#0" id="circle335"/>
	<circle cx="707.211" cy="514.684" r="4" fill="#0" id="circle336"/>
	<circle cx="715.368" cy="532.632" r="4" fill="#0" id="circle337"/>
	<circle cx="721.895" cy="506.526" r="4" fill="#0" id="circle338"/>
	<circle cx="731.684" cy="532.632" r="4" fill="#0" id="circle339"/>
	<circle cx="736.579" cy="498.368" r="4" fill="#0" id="circle340"/>
	<circle cx="744.737" cy="521.211" r="4" fill="#0" id="circle341"/>
	<circle cx="752.895" cy="506.526" r="4" fill="#0" id="circle342"/>
	</g>
</svg>