<?xml version="1.0" encoding="UTF-8" standalone="no"?>
<!-- Created with CurveBenchmark -->
<svg
	xmlns:dc="http://purl.org/dc/elements/1.1/"
	xmlns:cc="http://creativecommons.org/ns#"
	xmlns:rdf="http://www.w3.org/1999/02/22-rdf-syntax-ns#"
	xmlns:svg="http://www.w3.org/2000/svg"
	xmlns="http://www.w3.org/2000/svg"
	xmlns:sodipodi="http://sodipodi.sourceforge.net/DTD/sodipodi-0.dtd"
	xmlns:inkscape="http://www.inkscape.org/namespaces/inkscape"
	width="1000"
	height="1000"
	id="svg2"
	version="1.1"
	sodipodi:docname="manifold/connect2d-hammer180.png.txt">
<defs
	id="defs4" />
<metadata
	id="metadata7">
	<rdf:RDF>
		<cc:Work
			rdf:about="">
			<dc:format>image/svg+xml</dc:format>
			<dc:type
				rdf:resource="http://purl.org/dc/dcmitype/StillImage" />
			<dc:title></dc:title>
		</cc:Work>
	</rdf:RDF>
</metadata>
<g
	inkscape:label="Layer 1"
	inkscape:groupmode="layer"
	id="layer1">
	<path style="fill:none;stroke:red;stroke-width:1px;stroke-linecap:butt;stroke-linejoin:miter;stroke-opacity:1" d="M 389.299,179.397 374.922,153.519 z" id="boundary" inkscape:connector-curvature="0" />
	<path style="fill:none;stroke:red;stroke-width:1px;stroke-linecap:butt;stroke-linejoin:miter;stroke-opacity:1" d="M 374.922,153.519 357.67,130.516 z" id="boundary" inkscape:connector-curvature="0" />
	<path style="fill:none;stroke:red;stroke-width:1px;stroke-linecap:butt;stroke-linejoin:miter;stroke-opacity:1" d="M 357.67,130.516 337.542,107.513 z" id="boundary" inkscape:connector-curvature="0" />
	<path style="fill:none;stroke:red;stroke-width:1px;stroke-linecap:butt;stroke-linejoin:miter;stroke-opacity:1" d="M 337.542,107.513 311.664,93.1362 z" id="boundary" inkscape:connector-curvature="0" />
	<path style="fill:none;stroke:red;stroke-width:1px;stroke-linecap:butt;stroke-linejoin:miter;stroke-opacity:1" d="M 311.664,93.1362 282.91,81.6348 z" id="boundary" inkscape:connector-curvature="0" />
	<path style="fill:none;stroke:red;stroke-width:1px;stroke-linecap:butt;stroke-linejoin:miter;stroke-opacity:1" d="M 282.91,81.6348 254.157,90.2609 z" id="boundary" inkscape:connector-curvature="0" />
	<path style="fill:none;stroke:red;stroke-width:1px;stroke-linecap:butt;stroke-linejoin:miter;stroke-opacity:1" d="M 254.157,90.2609 248.406,136.267 z" id="boundary" inkscape:connector-curvature="0" />
	<path style="fill:none;stroke:red;stroke-width:1px;stroke-linecap:butt;stroke-linejoin:miter;stroke-opacity:1" d="M 248.406,136.267 236.904,182.272 z" id="boundary" inkscape:connector-curvature="0" />
	<path style="fill:none;stroke:red;stroke-width:1px;stroke-linecap:butt;stroke-linejoin:miter;stroke-opacity:1" d="M 236.904,182.272 231.154,211.026 z" id="boundary" inkscape:connector-curvature="0" />
	<path style="fill:none;stroke:red;stroke-width:1px;stroke-linecap:butt;stroke-linejoin:miter;stroke-opacity:1" d="M 231.154,211.026 231.154,239.78 z" id="boundary" inkscape:connector-curvature="0" />
	<path style="fill:none;stroke:red;stroke-width:1px;stroke-linecap:butt;stroke-linejoin:miter;stroke-opacity:1" d="M 231.154,239.78 231.154,268.533 z" id="boundary" inkscape:connector-curvature="0" />
	<path style="fill:none;stroke:red;stroke-width:1px;stroke-linecap:butt;stroke-linejoin:miter;stroke-opacity:1" d="M 231.154,268.533 231.154,297.287 z" id="boundary" inkscape:connector-curvature="0" />
	<path style="fill:none;stroke:red;stroke-width:1px;stroke-linecap:butt;stroke-linejoin:miter;stroke-opacity:1" d="M 231.154,297.287 225.403,331.791 z" id="boundary" inkscape:connector-curvature="0" />
	<path style="fill:none;stroke:red;stroke-width:1px;stroke-linecap:butt;stroke-linejoin:miter;stroke-opacity:1" d="M 225.403,331.791 225.403,360.545 z" id="boundary" inkscape:connector-curvature="0" />
	<path style="fill:none;stroke:red;stroke-width:1px;stroke-linecap:butt;stroke-linejoin:miter;stroke-opacity:1" d="M 225.403,360.545 231.154,389.299 z" id="boundary" inkscape:connector-curvature="0" />
	<path style="fill:none;stroke:red;stroke-width:1px;stroke-linecap:butt;stroke-linejoin:miter;stroke-opacity:1" d="M 231.154,389.299 231.154,418.052 z" id="boundary" inkscape:connector-curvature="0" />
	<path style="fill:none;stroke:red;stroke-width:1px;stroke-linecap:butt;stroke-linejoin:miter;stroke-opacity:1" d="M 231.154,418.052 236.904,446.806 z" id="boundary" inkscape:connector-curvature="0" />
	<path style="fill:none;stroke:red;stroke-width:1px;stroke-linecap:butt;stroke-linejoin:miter;stroke-opacity:1" d="M 236.904,446.806 254.157,469.809 z" id="boundary" inkscape:connector-curvature="0" />
	<path style="fill:none;stroke:red;stroke-width:1px;stroke-linecap:butt;stroke-linejoin:miter;stroke-opacity:1" d="M 254.157,469.809 259.907,498.562 z" id="boundary" inkscape:connector-curvature="0" />
	<path style="fill:none;stroke:red;stroke-width:1px;stroke-linecap:butt;stroke-linejoin:miter;stroke-opacity:1" d="M 259.907,498.562 265.658,527.316 z" id="boundary" inkscape:connector-curvature="0" />
	<path style="fill:none;stroke:red;stroke-width:1px;stroke-linecap:butt;stroke-linejoin:miter;stroke-opacity:1" d="M 265.658,527.316 265.658,556.07 z" id="boundary" inkscape:connector-curvature="0" />
	<path style="fill:none;stroke:red;stroke-width:1px;stroke-linecap:butt;stroke-linejoin:miter;stroke-opacity:1" d="M 265.658,556.07 265.658,584.823 z" id="boundary" inkscape:connector-curvature="0" />
	<path style="fill:none;stroke:red;stroke-width:1px;stroke-linecap:butt;stroke-linejoin:miter;stroke-opacity:1" d="M 265.658,584.823 265.658,613.577 z" id="boundary" inkscape:connector-curvature="0" />
	<path style="fill:none;stroke:red;stroke-width:1px;stroke-linecap:butt;stroke-linejoin:miter;stroke-opacity:1" d="M 265.658,613.577 265.658,642.33 z" id="boundary" inkscape:connector-curvature="0" />
	<path style="fill:none;stroke:red;stroke-width:1px;stroke-linecap:butt;stroke-linejoin:miter;stroke-opacity:1" d="M 265.658,642.33 265.658,671.084 z" id="boundary" inkscape:connector-curvature="0" />
	<path style="fill:none;stroke:red;stroke-width:1px;stroke-linecap:butt;stroke-linejoin:miter;stroke-opacity:1" d="M 265.658,671.084 265.658,699.838 z" id="boundary" inkscape:connector-curvature="0" />
	<path style="fill:none;stroke:red;stroke-width:1px;stroke-linecap:butt;stroke-linejoin:miter;stroke-opacity:1" d="M 265.658,699.838 265.658,728.591 z" id="boundary" inkscape:connector-curvature="0" />
	<path style="fill:none;stroke:red;stroke-width:1px;stroke-linecap:butt;stroke-linejoin:miter;stroke-opacity:1" d="M 265.658,728.591 265.658,757.345 z" id="boundary" inkscape:connector-curvature="0" />
	<path style="fill:none;stroke:red;stroke-width:1px;stroke-linecap:butt;stroke-linejoin:miter;stroke-opacity:1" d="M 265.658,757.345 265.658,786.099 z" id="boundary" inkscape:connector-curvature="0" />
	<path style="fill:none;stroke:red;stroke-width:1px;stroke-linecap:butt;stroke-linejoin:miter;stroke-opacity:1" d="M 265.658,786.099 265.658,814.852 z" id="boundary" inkscape:connector-curvature="0" />
	<path style="fill:none;stroke:red;stroke-width:1px;stroke-linecap:butt;stroke-linejoin:miter;stroke-opacity:1" d="M 265.658,814.852 265.658,843.606 z" id="boundary" inkscape:connector-curvature="0" />
	<path style="fill:none;stroke:red;stroke-width:1px;stroke-linecap:butt;stroke-linejoin:miter;stroke-opacity:1" d="M 265.658,843.606 265.658,872.359 z" id="boundary" inkscape:connector-curvature="0" />
	<path style="fill:none;stroke:red;stroke-width:1px;stroke-linecap:butt;stroke-linejoin:miter;stroke-opacity:1" d="M 265.658,872.359 268.533,901.113 z" id="boundary" inkscape:connector-curvature="0" />
	<path style="fill:none;stroke:red;stroke-width:1px;stroke-linecap:butt;stroke-linejoin:miter;stroke-opacity:1" d="M 268.533,901.113 271.409,929.867 z" id="boundary" inkscape:connector-curvature="0" />
	<path style="fill:none;stroke:red;stroke-width:1px;stroke-linecap:butt;stroke-linejoin:miter;stroke-opacity:1" d="M 271.409,929.867 271.409,958.62 z" id="boundary" inkscape:connector-curvature="0" />
	<path style="fill:none;stroke:red;stroke-width:1px;stroke-linecap:butt;stroke-linejoin:miter;stroke-opacity:1" d="M 271.409,958.62 251.281,996 z" id="boundary" inkscape:connector-curvature="0" />
	<path style="fill:none;stroke:red;stroke-width:1px;stroke-linecap:butt;stroke-linejoin:miter;stroke-opacity:1" d="M 251.281,996 222.528,996 z" id="boundary" inkscape:connector-curvature="0" />
	<path style="fill:none;stroke:red;stroke-width:1px;stroke-linecap:butt;stroke-linejoin:miter;stroke-opacity:1" d="M 222.528,996 193.774,996 z" id="boundary" inkscape:connector-curvature="0" />
	<path style="fill:none;stroke:red;stroke-width:1px;stroke-linecap:butt;stroke-linejoin:miter;stroke-opacity:1" d="M 193.774,996 165.02,996 z" id="boundary" inkscape:connector-curvature="0" />
	<path style="fill:none;stroke:red;stroke-width:1px;stroke-linecap:butt;stroke-linejoin:miter;stroke-opacity:1" d="M 165.02,996 136.267,996 z" id="boundary" inkscape:connector-curvature="0" />
	<path style="fill:none;stroke:red;stroke-width:1px;stroke-linecap:butt;stroke-linejoin:miter;stroke-opacity:1" d="M 136.267,996 113.264,975.872 z" id="boundary" inkscape:connector-curvature="0" />
	<path style="fill:none;stroke:red;stroke-width:1px;stroke-linecap:butt;stroke-linejoin:miter;stroke-opacity:1" d="M 113.264,975.872 119.014,935.617 z" id="boundary" inkscape:connector-curvature="0" />
	<path style="fill:none;stroke:red;stroke-width:1px;stroke-linecap:butt;stroke-linejoin:miter;stroke-opacity:1" d="M 119.014,935.617 119.014,906.864 z" id="boundary" inkscape:connector-curvature="0" />
	<path style="fill:none;stroke:red;stroke-width:1px;stroke-linecap:butt;stroke-linejoin:miter;stroke-opacity:1" d="M 119.014,906.864 124.765,855.107 z" id="boundary" inkscape:connector-curvature="0" />
	<path style="fill:none;stroke:red;stroke-width:1px;stroke-linecap:butt;stroke-linejoin:miter;stroke-opacity:1" d="M 124.765,855.107 124.765,826.354 z" id="boundary" inkscape:connector-curvature="0" />
	<path style="fill:none;stroke:red;stroke-width:1px;stroke-linecap:butt;stroke-linejoin:miter;stroke-opacity:1" d="M 124.765,826.354 124.765,797.6 z" id="boundary" inkscape:connector-curvature="0" />
	<path style="fill:none;stroke:red;stroke-width:1px;stroke-linecap:butt;stroke-linejoin:miter;stroke-opacity:1" d="M 124.765,797.6 124.765,768.846 z" id="boundary" inkscape:connector-curvature="0" />
	<path style="fill:none;stroke:red;stroke-width:1px;stroke-linecap:butt;stroke-linejoin:miter;stroke-opacity:1" d="M 124.765,768.846 124.765,740.093 z" id="boundary" inkscape:connector-curvature="0" />
	<path style="fill:none;stroke:red;stroke-width:1px;stroke-linecap:butt;stroke-linejoin:miter;stroke-opacity:1" d="M 124.765,740.093 124.765,711.339 z" id="boundary" inkscape:connector-curvature="0" />
	<path style="fill:none;stroke:red;stroke-width:1px;stroke-linecap:butt;stroke-linejoin:miter;stroke-opacity:1" d="M 124.765,711.339 124.765,682.586 z" id="boundary" inkscape:connector-curvature="0" />
	<path style="fill:none;stroke:red;stroke-width:1px;stroke-linecap:butt;stroke-linejoin:miter;stroke-opacity:1" d="M 124.765,682.586 124.765,653.832 z" id="boundary" inkscape:connector-curvature="0" />
	<path style="fill:none;stroke:red;stroke-width:1px;stroke-linecap:butt;stroke-linejoin:miter;stroke-opacity:1" d="M 124.765,653.832 124.765,625.078 z" id="boundary" inkscape:connector-curvature="0" />
	<path style="fill:none;stroke:red;stroke-width:1px;stroke-linecap:butt;stroke-linejoin:miter;stroke-opacity:1" d="M 124.765,625.078 124.765,596.325 z" id="boundary" inkscape:connector-curvature="0" />
	<path style="fill:none;stroke:red;stroke-width:1px;stroke-linecap:butt;stroke-linejoin:miter;stroke-opacity:1" d="M 124.765,596.325 124.765,567.571 z" id="boundary" inkscape:connector-curvature="0" />
	<path style="fill:none;stroke:red;stroke-width:1px;stroke-linecap:butt;stroke-linejoin:miter;stroke-opacity:1" d="M 124.765,567.571 124.765,538.817 z" id="boundary" inkscape:connector-curvature="0" />
	<path style="fill:none;stroke:red;stroke-width:1px;stroke-linecap:butt;stroke-linejoin:miter;stroke-opacity:1" d="M 124.765,538.817 124.765,510.064 z" id="boundary" inkscape:connector-curvature="0" />
	<path style="fill:none;stroke:red;stroke-width:1px;stroke-linecap:butt;stroke-linejoin:miter;stroke-opacity:1" d="M 124.765,510.064 130.516,469.809 z" id="boundary" inkscape:connector-curvature="0" />
	<path style="fill:none;stroke:red;stroke-width:1px;stroke-linecap:butt;stroke-linejoin:miter;stroke-opacity:1" d="M 130.516,469.809 153.519,435.304 z" id="boundary" inkscape:connector-curvature="0" />
	<path style="fill:none;stroke:red;stroke-width:1px;stroke-linecap:butt;stroke-linejoin:miter;stroke-opacity:1" d="M 153.519,435.304 159.27,406.551 z" id="boundary" inkscape:connector-curvature="0" />
	<path style="fill:none;stroke:red;stroke-width:1px;stroke-linecap:butt;stroke-linejoin:miter;stroke-opacity:1" d="M 159.27,406.551 159.27,377.797 z" id="boundary" inkscape:connector-curvature="0" />
	<path style="fill:none;stroke:red;stroke-width:1px;stroke-linecap:butt;stroke-linejoin:miter;stroke-opacity:1" d="M 159.27,377.797 165.02,331.791 z" id="boundary" inkscape:connector-curvature="0" />
	<path style="fill:none;stroke:red;stroke-width:1px;stroke-linecap:butt;stroke-linejoin:miter;stroke-opacity:1" d="M 165.02,331.791 162.145,303.038 z" id="boundary" inkscape:connector-curvature="0" />
	<path style="fill:none;stroke:red;stroke-width:1px;stroke-linecap:butt;stroke-linejoin:miter;stroke-opacity:1" d="M 162.145,303.038 159.27,274.284 z" id="boundary" inkscape:connector-curvature="0" />
	<path style="fill:none;stroke:red;stroke-width:1px;stroke-linecap:butt;stroke-linejoin:miter;stroke-opacity:1" d="M 159.27,274.284 159.27,245.53 z" id="boundary" inkscape:connector-curvature="0" />
	<path style="fill:none;stroke:red;stroke-width:1px;stroke-linecap:butt;stroke-linejoin:miter;stroke-opacity:1" d="M 159.27,245.53 159.27,216.777 z" id="boundary" inkscape:connector-curvature="0" />
	<path style="fill:none;stroke:red;stroke-width:1px;stroke-linecap:butt;stroke-linejoin:miter;stroke-opacity:1" d="M 159.27,216.777 153.519,188.023 z" id="boundary" inkscape:connector-curvature="0" />
	<path style="fill:none;stroke:red;stroke-width:1px;stroke-linecap:butt;stroke-linejoin:miter;stroke-opacity:1" d="M 153.519,188.023 144.893,159.27 z" id="boundary" inkscape:connector-curvature="0" />
	<path style="fill:none;stroke:red;stroke-width:1px;stroke-linecap:butt;stroke-linejoin:miter;stroke-opacity:1" d="M 144.893,159.27 136.267,130.516 z" id="boundary" inkscape:connector-curvature="0" />
	<path style="fill:none;stroke:red;stroke-width:1px;stroke-linecap:butt;stroke-linejoin:miter;stroke-opacity:1" d="M 136.267,130.516 130.516,101.762 z" id="boundary" inkscape:connector-curvature="0" />
	<path style="fill:none;stroke:red;stroke-width:1px;stroke-linecap:butt;stroke-linejoin:miter;stroke-opacity:1" d="M 130.516,101.762 113.264,78.7594 z" id="boundary" inkscape:connector-curvature="0" />
	<path style="fill:none;stroke:red;stroke-width:1px;stroke-linecap:butt;stroke-linejoin:miter;stroke-opacity:1" d="M 113.264,78.7594 84.5101,75.8841 z" id="boundary" inkscape:connector-curvature="0" />
	<path style="fill:none;stroke:red;stroke-width:1px;stroke-linecap:butt;stroke-linejoin:miter;stroke-opacity:1" d="M 84.5101,75.8841 55.7565,81.6348 z" id="boundary" inkscape:connector-curvature="0" />
	<path style="fill:none;stroke:red;stroke-width:1px;stroke-linecap:butt;stroke-linejoin:miter;stroke-opacity:1" d="M 55.7565,81.6348 27.0029,93.1362 z" id="boundary" inkscape:connector-curvature="0" />
	<path style="fill:none;stroke:red;stroke-width:1px;stroke-linecap:butt;stroke-linejoin:miter;stroke-opacity:1" d="M 27.0029,93.1362 4,73.0087 z" id="boundary" inkscape:connector-curvature="0" />
	<path style="fill:none;stroke:red;stroke-width:1px;stroke-linecap:butt;stroke-linejoin:miter;stroke-opacity:1" d="M 4,73.0087 4,44.2551 z" id="boundary" inkscape:connector-curvature="0" />
	<path style="fill:none;stroke:red;stroke-width:1px;stroke-linecap:butt;stroke-linejoin:miter;stroke-opacity:1" d="M 4,44.2551 4,15.5014 z" id="boundary" inkscape:connector-curvature="0" />
	<path style="fill:none;stroke:red;stroke-width:1px;stroke-linecap:butt;stroke-linejoin:miter;stroke-opacity:1" d="M 4,15.5014 32.7536,4 z" id="boundary" inkscape:connector-curvature="0" />
	<path style="fill:none;stroke:red;stroke-width:1px;stroke-linecap:butt;stroke-linejoin:miter;stroke-opacity:1" d="M 32.7536,4 61.5072,15.5014 z" id="boundary" inkscape:connector-curvature="0" />
	<path style="fill:none;stroke:red;stroke-width:1px;stroke-linecap:butt;stroke-linejoin:miter;stroke-opacity:1" d="M 61.5072,15.5014 90.2609,15.5014 z" id="boundary" inkscape:connector-curvature="0" />
	<path style="fill:none;stroke:red;stroke-width:1px;stroke-linecap:butt;stroke-linejoin:miter;stroke-opacity:1" d="M 90.2609,15.5014 119.014,15.5014 z" id="boundary" inkscape:connector-curvature="0" />
	<path style="fill:none;stroke:red;stroke-width:1px;stroke-linecap:butt;stroke-linejoin:miter;stroke-opacity:1" d="M 119.014,15.5014 147.768,4 z" id="boundary" inkscape:connector-curvature="0" />
	<path style="fill:none;stroke:red;stroke-width:1px;stroke-linecap:butt;stroke-linejoin:miter;stroke-opacity:1" d="M 147.768,4 176.522,4 z" id="boundary" inkscape:connector-curvature="0" />
	<path style="fill:none;stroke:red;stroke-width:1px;stroke-linecap:butt;stroke-linejoin:miter;stroke-opacity:1" d="M 176.522,4 205.275,4 z" id="boundary" inkscape:connector-curvature="0" />
	<path style="fill:none;stroke:red;stroke-width:1px;stroke-linecap:butt;stroke-linejoin:miter;stroke-opacity:1" d="M 205.275,4 234.029,4 z" id="boundary" inkscape:connector-curvature="0" />
	<path style="fill:none;stroke:red;stroke-width:1px;stroke-linecap:butt;stroke-linejoin:miter;stroke-opacity:1" d="M 234.029,4 262.783,4 z" id="boundary" inkscape:connector-curvature="0" />
	<path style="fill:none;stroke:red;stroke-width:1px;stroke-linecap:butt;stroke-linejoin:miter;stroke-opacity:1" d="M 262.783,4 285.786,21.2522 z" id="boundary" inkscape:connector-curvature="0" />
	<path style="fill:none;stroke:red;stroke-width:1px;stroke-linecap:butt;stroke-linejoin:miter;stroke-opacity:1" d="M 285.786,21.2522 308.788,38.5043 z" id="boundary" inkscape:connector-curvature="0" />
	<path style="fill:none;stroke:red;stroke-width:1px;stroke-linecap:butt;stroke-linejoin:miter;stroke-opacity:1" d="M 308.788,38.5043 331.791,58.6319 z" id="boundary" inkscape:connector-curvature="0" />
	<path style="fill:none;stroke:red;stroke-width:1px;stroke-linecap:butt;stroke-linejoin:miter;stroke-opacity:1" d="M 331.791,58.6319 389.299,179.397 z" id="boundary" inkscape:connector-curvature="0" />
	<circle cx="4" cy="15.5014" r="4" fill="#0" id="circle0"/>
	<circle cx="4" cy="44.2551" r="4" fill="#0" id="circle1"/>
	<circle cx="4" cy="73.0087" r="4" fill="#0" id="circle2"/>
	<circle cx="27.0029" cy="93.1362" r="4" fill="#0" id="circle3"/>
	<circle cx="32.7536" cy="4" r="4" fill="#0" id="circle4"/>
	<circle cx="55.7565" cy="81.6348" r="4" fill="#0" id="circle5"/>
	<circle cx="61.5072" cy="15.5014" r="4" fill="#0" id="circle6"/>
	<circle cx="84.5101" cy="75.8841" r="4" fill="#0" id="circle7"/>
	<circle cx="90.2609" cy="15.5014" r="4" fill="#0" id="circle8"/>
	<circle cx="113.264" cy="78.7594" r="4" fill="#0" id="circle9"/>
	<circle cx="113.264" cy="975.872" r="4" fill="#0" id="circle10"/>
	<circle cx="119.014" cy="15.5014" r="4" fill="#0" id="circle11"/>
	<circle cx="119.014" cy="906.864" r="4" fill="#0" id="circle12"/>
	<circle cx="119.014" cy="935.617" r="4" fill="#0" id="circle13"/>
	<circle cx="124.765" cy="510.064" r="4" fill="#0" id="circle14"/>
	<circle cx="124.765" cy="538.817" r="4" fill="#0" id="circle15"/>
	<circle cx="124.765" cy="567.571" r="4" fill="#0" id="circle16"/>
	<circle cx="124.765" cy="596.325" r="4" fill="#0" id="circle17"/>
	<circle cx="124.765" cy="625.078" r="4" fill="#0" id="circle18"/>
	<circle cx="124.765" cy="653.832" r="4" fill="#0" id="circle19"/>
	<circle cx="124.765" cy="682.586" r="4" fill="#0" id="circle20"/>
	<circle cx="124.765" cy="711.339" r="4" fill="#0" id="circle21"/>
	<circle cx="124.765" cy="740.093" r="4" fill="#0" id="circle22"/>
	<circle cx="124.765" cy="768.846" r="4" fill="#0" id="circle23"/>
	<circle cx="124.765" cy="797.6" r="4" fill="#0" id="circle24"/>
	<circle cx="124.765" cy="826.354" r="4" fill="#0" id="circle25"/>
	<circle cx="124.765" cy="855.107" r="4" fill="#0" id="circle26"/>
	<circle cx="130.516" cy="101.762" r="4" fill="#0" id="circle27"/>
	<circle cx="130.516" cy="469.809" r="4" fill="#0" id="circle28"/>
	<circle cx="136.267" cy="130.516" r="4" fill="#0" id="circle29"/>
	<circle cx="136.267" cy="996" r="4" fill="#0" id="circle30"/>
	<circle cx="144.893" cy="159.27" r="4" fill="#0" id="circle31"/>
	<circle cx="147.768" cy="4" r="4" fill="#0" id="circle32"/>
	<circle cx="153.519" cy="188.023" r="4" fill="#0" id="circle33"/>
	<circle cx="153.519" cy="435.304" r="4" fill="#0" id="circle34"/>
	<circle cx="159.27" cy="216.777" r="4" fill="#0" id="circle35"/>
	<circle cx="159.27" cy="245.53" r="4" fill="#0" id="circle36"/>
	<circle cx="159.27" cy="274.284" r="4" fill="#0" id="circle37"/>
	<circle cx="159.27" cy="377.797" r="4" fill="#0" id="circle38"/>
	<circle cx="159.27" cy="406.551" r="4" fill="#0" id="circle39"/>
	<circle cx="162.145" cy="303.038" r="4" fill="#0" id="circle40"/>
	<circle cx="165.02" cy="331.791" r="4" fill="#0" id="circle41"/>
	<circle cx="165.02" cy="996" r="4" fill="#0" id="circle42"/>
	<circle cx="176.522" cy="4" r="4" fill="#0" id="circle43"/>
	<circle cx="193.774" cy="996" r="4" fill="#0" id="circle44"/>
	<circle cx="205.275" cy="4" r="4" fill="#0" id="circle45"/>
	<circle cx="222.528" cy="996" r="4" fill="#0" id="circle46"/>
	<circle cx="225.403" cy="331.791" r="4" fill="#0" id="circle47"/>
	<circle cx="225.403" cy="360.545" r="4" fill="#0" id="circle48"/>
	<circle cx="231.154" cy="211.026" r="4" fill="#0" id="circle49"/>
	<circle cx="231.154" cy="239.78" r="4" fill="#0" id="circle50"/>
	<circle cx="231.154" cy="268.533" r="4" fill="#0" id="circle51"/>
	<circle cx="231.154" cy="297.287" r="4" fill="#0" id="circle52"/>
	<circle cx="231.154" cy="389.299" r="4" fill="#0" id="circle53"/>
	<circle cx="231.154" cy="418.052" r="4" fill="#0" id="circle54"/>
	<circle cx="234.029" cy="4" r="4" fill="#0" id="circle55"/>
	<circle cx="236.904" cy="182.272" r="4" fill="#0" id="circle56"/>
	<circle cx="236.904" cy="446.806" r="4" fill="#0" id="circle57"/>
	<circle cx="248.406" cy="136.267" r="4" fill="#0" id="circle58"/>
	<circle cx="251.281" cy="996" r="4" fill="#0" id="circle59"/>
	<circle cx="254.157" cy="90.2609" r="4" fill="#0" id="circle60"/>
	<circle cx="254.157" cy="469.809" r="4" fill="#0" id="circle61"/>
	<circle cx="259.907" cy="498.562" r="4" fill="#0" id="circle62"/>
	<circle cx="262.783" cy="4" r="4" fill="#0" id="circle63"/>
	<circle cx="265.658" cy="527.316" r="4" fill="#0" id="circle64"/>
	<circle cx="265.658" cy="556.07" r="4" fill="#0" id="circle65"/>
	<circle cx="265.658" cy="584.823" r="4" fill="#0" id="circle66"/>
	<circle cx="265.658" cy="613.577" r="4" fill="#0" id="circle67"/>
	<circle cx="265.658" cy="642.33" r="4" fill="#0" id="circle68"/>
	<circle cx="265.658" cy="671.084" r="4" fill="#0" id="circle69"/>
	<circle cx="265.658" cy="699.838" r="4" fill="#0" id="circle70"/>
	<circle cx="265.658" cy="728.591" r="4" fill="#0" id="circle71"/>
	<circle cx="265.658" cy="757.345" r="4" fill="#0" id="circle72"/>
	<circle cx="265.658" cy="786.099" r="4" fill="#0" id="circle73"/>
	<circle cx="265.658" cy="814.852" r="4" fill="#0" id="circle74"/>
	<circle cx="265.658" cy="843.606" r="4" fill="#0" id="circle75"/>
	<circle cx="265.658" cy="872.359" r="4" fill="#0" id="circle76"/>
	<circle cx="268.533" cy="901.113" r="4" fill="#0" id="circle77"/>
	<circle cx="271.409" cy="929.867" r="4" fill="#0" id="circle78"/>
	<circle cx="271.409" cy="958.62" r="4" fill="#0" id="circle79"/>
	<circle cx="282.91" cy="81.6348" r="4" fill="#0" id="circle80"/>
	<circle cx="285.786" cy="21.2522" r="4" fill="#0" id="circle81"/>
	<circle cx="308.788" cy="38.5043" r="4" fill="#0" id="circle82"/>
	<circle cx="311.664" cy="93.1362" r="4" fill="#0" id="circle83"/>
	<circle cx="331.791" cy="58.6319" r="4" fill="#0" id="circle84"/>
	<circle cx="337.542" cy="107.513" r="4" fill="#0" id="circle85"/>
	<circle cx="357.67" cy="130.516" r="4" fill="#0" id="circle86"/>
	<circle cx="374.922" cy="153.519" r="4" fill="#0" id="circle87"/>
	<circle cx="389.299" cy="179.397" r="4" fill="#0" id="circle88"/>
	</g>
</svg>