<?xml version="1.0" encoding="UTF-8" standalone="no"?>
<!-- Created with CurveBenchmark -->
<svg
	xmlns:dc="http://purl.org/dc/elements/1.1/"
	xmlns:cc="http://creativecommons.org/ns#"
	xmlns:rdf="http://www.w3.org/1999/02/22-rdf-syntax-ns#"
	xmlns:svg="http://www.w3.org/2000/svg"
	xmlns="http://www.w3.org/2000/svg"
	xmlns:sodipodi="http://sodipodi.sourceforge.net/DTD/sodipodi-0.dtd"
	xmlns:inkscape="http://www.inkscape.org/namespaces/inkscape"
	width="1000"
	height="1000"
	id="svg2"
	version="1.1"
	sodipodi:docname="manifold/connect2d-Misk05.png.txt">
<defs
	id="defs4" />
<metadata
	id="metadata7">
	<rdf:RDF>
		<cc:Work
			rdf:about="">
			<dc:format>image/svg+xml</dc:format>
			<dc:type
				rdf:resource="http://purl.org/dc/dcmitype/StillImage" />
			<dc:title></dc:title>
		</cc:Work>
	</rdf:RDF>
</metadata>
<g
	inkscape:label="Layer 1"
	inkscape:groupmode="layer"
	id="layer1">
	<path style="fill:none;stroke:red;stroke-width:1px;stroke-linecap:butt;stroke-linejoin:miter;stroke-opacity:1" d="M 776.647,151.327 775.01,177.518 z" id="boundary" inkscape:connector-curvature="0" />
	<path style="fill:none;stroke:red;stroke-width:1px;stroke-linecap:butt;stroke-linejoin:miter;stroke-opacity:1" d="M 775.01,177.518 766.825,202.073 z" id="boundary" inkscape:connector-curvature="0" />
	<path style="fill:none;stroke:red;stroke-width:1px;stroke-linecap:butt;stroke-linejoin:miter;stroke-opacity:1" d="M 766.825,202.073 763.551,223.353 z" id="boundary" inkscape:connector-curvature="0" />
	<path style="fill:none;stroke:red;stroke-width:1px;stroke-linecap:butt;stroke-linejoin:miter;stroke-opacity:1" d="M 763.551,223.353 750.455,234.812 z" id="boundary" inkscape:connector-curvature="0" />
	<path style="fill:none;stroke:red;stroke-width:1px;stroke-linecap:butt;stroke-linejoin:miter;stroke-opacity:1" d="M 750.455,234.812 742.271,251.182 z" id="boundary" inkscape:connector-curvature="0" />
	<path style="fill:none;stroke:red;stroke-width:1px;stroke-linecap:butt;stroke-linejoin:miter;stroke-opacity:1" d="M 742.271,251.182 742.271,267.551 z" id="boundary" inkscape:connector-curvature="0" />
	<path style="fill:none;stroke:red;stroke-width:1px;stroke-linecap:butt;stroke-linejoin:miter;stroke-opacity:1" d="M 742.271,267.551 755.366,277.373 z" id="boundary" inkscape:connector-curvature="0" />
	<path style="fill:none;stroke:red;stroke-width:1px;stroke-linecap:butt;stroke-linejoin:miter;stroke-opacity:1" d="M 755.366,277.373 766.825,290.469 z" id="boundary" inkscape:connector-curvature="0" />
	<path style="fill:none;stroke:red;stroke-width:1px;stroke-linecap:butt;stroke-linejoin:miter;stroke-opacity:1" d="M 766.825,290.469 783.195,295.38 z" id="boundary" inkscape:connector-curvature="0" />
	<path style="fill:none;stroke:red;stroke-width:1px;stroke-linecap:butt;stroke-linejoin:miter;stroke-opacity:1" d="M 783.195,295.38 789.743,311.749 z" id="boundary" inkscape:connector-curvature="0" />
	<path style="fill:none;stroke:red;stroke-width:1px;stroke-linecap:butt;stroke-linejoin:miter;stroke-opacity:1" d="M 789.743,311.749 797.927,326.482 z" id="boundary" inkscape:connector-curvature="0" />
	<path style="fill:none;stroke:red;stroke-width:1px;stroke-linecap:butt;stroke-linejoin:miter;stroke-opacity:1" d="M 797.927,326.482 791.38,349.399 z" id="boundary" inkscape:connector-curvature="0" />
	<path style="fill:none;stroke:red;stroke-width:1px;stroke-linecap:butt;stroke-linejoin:miter;stroke-opacity:1" d="M 791.38,349.399 788.106,370.68 z" id="boundary" inkscape:connector-curvature="0" />
	<path style="fill:none;stroke:red;stroke-width:1px;stroke-linecap:butt;stroke-linejoin:miter;stroke-opacity:1" d="M 788.106,370.68 775.01,382.139 z" id="boundary" inkscape:connector-curvature="0" />
	<path style="fill:none;stroke:red;stroke-width:1px;stroke-linecap:butt;stroke-linejoin:miter;stroke-opacity:1" d="M 775.01,382.139 758.64,398.508 z" id="boundary" inkscape:connector-curvature="0" />
	<path style="fill:none;stroke:red;stroke-width:1px;stroke-linecap:butt;stroke-linejoin:miter;stroke-opacity:1" d="M 758.64,398.508 745.545,413.241 z" id="boundary" inkscape:connector-curvature="0" />
	<path style="fill:none;stroke:red;stroke-width:1px;stroke-linecap:butt;stroke-linejoin:miter;stroke-opacity:1" d="M 745.545,413.241 729.175,421.426 z" id="boundary" inkscape:connector-curvature="0" />
	<path style="fill:none;stroke:red;stroke-width:1px;stroke-linecap:butt;stroke-linejoin:miter;stroke-opacity:1" d="M 729.175,421.426 714.442,431.248 z" id="boundary" inkscape:connector-curvature="0" />
	<path style="fill:none;stroke:red;stroke-width:1px;stroke-linecap:butt;stroke-linejoin:miter;stroke-opacity:1" d="M 714.442,431.248 699.71,439.432 z" id="boundary" inkscape:connector-curvature="0" />
	<path style="fill:none;stroke:red;stroke-width:1px;stroke-linecap:butt;stroke-linejoin:miter;stroke-opacity:1" d="M 699.71,439.432 684.977,447.617 z" id="boundary" inkscape:connector-curvature="0" />
	<path style="fill:none;stroke:red;stroke-width:1px;stroke-linecap:butt;stroke-linejoin:miter;stroke-opacity:1" d="M 684.977,447.617 688.251,463.987 z" id="boundary" inkscape:connector-curvature="0" />
	<path style="fill:none;stroke:red;stroke-width:1px;stroke-linecap:butt;stroke-linejoin:miter;stroke-opacity:1" d="M 688.251,463.987 693.162,480.356 z" id="boundary" inkscape:connector-curvature="0" />
	<path style="fill:none;stroke:red;stroke-width:1px;stroke-linecap:butt;stroke-linejoin:miter;stroke-opacity:1" d="M 693.162,480.356 701.347,495.089 z" id="boundary" inkscape:connector-curvature="0" />
	<path style="fill:none;stroke:red;stroke-width:1px;stroke-linecap:butt;stroke-linejoin:miter;stroke-opacity:1" d="M 701.347,495.089 709.531,509.822 z" id="boundary" inkscape:connector-curvature="0" />
	<path style="fill:none;stroke:red;stroke-width:1px;stroke-linecap:butt;stroke-linejoin:miter;stroke-opacity:1" d="M 709.531,509.822 717.716,524.554 z" id="boundary" inkscape:connector-curvature="0" />
	<path style="fill:none;stroke:red;stroke-width:1px;stroke-linecap:butt;stroke-linejoin:miter;stroke-opacity:1" d="M 717.716,524.554 730.812,536.013 z" id="boundary" inkscape:connector-curvature="0" />
	<path style="fill:none;stroke:red;stroke-width:1px;stroke-linecap:butt;stroke-linejoin:miter;stroke-opacity:1" d="M 730.812,536.013 745.545,544.198 z" id="boundary" inkscape:connector-curvature="0" />
	<path style="fill:none;stroke:red;stroke-width:1px;stroke-linecap:butt;stroke-linejoin:miter;stroke-opacity:1" d="M 745.545,544.198 750.455,560.568 z" id="boundary" inkscape:connector-curvature="0" />
	<path style="fill:none;stroke:red;stroke-width:1px;stroke-linecap:butt;stroke-linejoin:miter;stroke-opacity:1" d="M 750.455,560.568 763.551,570.389 z" id="boundary" inkscape:connector-curvature="0" />
	<path style="fill:none;stroke:red;stroke-width:1px;stroke-linecap:butt;stroke-linejoin:miter;stroke-opacity:1" d="M 763.551,570.389 775.01,583.485 z" id="boundary" inkscape:connector-curvature="0" />
	<path style="fill:none;stroke:red;stroke-width:1px;stroke-linecap:butt;stroke-linejoin:miter;stroke-opacity:1" d="M 775.01,583.485 783.195,598.218 z" id="boundary" inkscape:connector-curvature="0" />
	<path style="fill:none;stroke:red;stroke-width:1px;stroke-linecap:butt;stroke-linejoin:miter;stroke-opacity:1" d="M 783.195,598.218 791.38,612.95 z" id="boundary" inkscape:connector-curvature="0" />
	<path style="fill:none;stroke:red;stroke-width:1px;stroke-linecap:butt;stroke-linejoin:miter;stroke-opacity:1" d="M 791.38,612.95 791.38,635.868 z" id="boundary" inkscape:connector-curvature="0" />
	<path style="fill:none;stroke:red;stroke-width:1px;stroke-linecap:butt;stroke-linejoin:miter;stroke-opacity:1" d="M 791.38,635.868 791.38,660.422 z" id="boundary" inkscape:connector-curvature="0" />
	<path style="fill:none;stroke:red;stroke-width:1px;stroke-linecap:butt;stroke-linejoin:miter;stroke-opacity:1" d="M 791.38,660.422 791.38,676.792 z" id="boundary" inkscape:connector-curvature="0" />
	<path style="fill:none;stroke:red;stroke-width:1px;stroke-linecap:butt;stroke-linejoin:miter;stroke-opacity:1" d="M 791.38,676.792 788.106,706.257 z" id="boundary" inkscape:connector-curvature="0" />
	<path style="fill:none;stroke:red;stroke-width:1px;stroke-linecap:butt;stroke-linejoin:miter;stroke-opacity:1" d="M 788.106,706.257 775.01,717.716 z" id="boundary" inkscape:connector-curvature="0" />
	<path style="fill:none;stroke:red;stroke-width:1px;stroke-linecap:butt;stroke-linejoin:miter;stroke-opacity:1" d="M 775.01,717.716 758.64,725.901 z" id="boundary" inkscape:connector-curvature="0" />
	<path style="fill:none;stroke:red;stroke-width:1px;stroke-linecap:butt;stroke-linejoin:miter;stroke-opacity:1" d="M 758.64,725.901 742.271,725.901 z" id="boundary" inkscape:connector-curvature="0" />
	<path style="fill:none;stroke:red;stroke-width:1px;stroke-linecap:butt;stroke-linejoin:miter;stroke-opacity:1" d="M 742.271,725.901 725.901,729.175 z" id="boundary" inkscape:connector-curvature="0" />
	<path style="fill:none;stroke:red;stroke-width:1px;stroke-linecap:butt;stroke-linejoin:miter;stroke-opacity:1" d="M 725.901,729.175 709.531,725.901 z" id="boundary" inkscape:connector-curvature="0" />
	<path style="fill:none;stroke:red;stroke-width:1px;stroke-linecap:butt;stroke-linejoin:miter;stroke-opacity:1" d="M 709.531,725.901 694.799,717.716 z" id="boundary" inkscape:connector-curvature="0" />
	<path style="fill:none;stroke:red;stroke-width:1px;stroke-linecap:butt;stroke-linejoin:miter;stroke-opacity:1" d="M 694.799,717.716 678.429,716.079 z" id="boundary" inkscape:connector-curvature="0" />
	<path style="fill:none;stroke:red;stroke-width:1px;stroke-linecap:butt;stroke-linejoin:miter;stroke-opacity:1" d="M 678.429,716.079 663.696,707.894 z" id="boundary" inkscape:connector-curvature="0" />
	<path style="fill:none;stroke:red;stroke-width:1px;stroke-linecap:butt;stroke-linejoin:miter;stroke-opacity:1" d="M 663.696,707.894 647.327,701.347 z" id="boundary" inkscape:connector-curvature="0" />
	<path style="fill:none;stroke:red;stroke-width:1px;stroke-linecap:butt;stroke-linejoin:miter;stroke-opacity:1" d="M 647.327,701.347 632.594,693.162 z" id="boundary" inkscape:connector-curvature="0" />
	<path style="fill:none;stroke:red;stroke-width:1px;stroke-linecap:butt;stroke-linejoin:miter;stroke-opacity:1" d="M 632.594,693.162 616.224,693.162 z" id="boundary" inkscape:connector-curvature="0" />
	<path style="fill:none;stroke:red;stroke-width:1px;stroke-linecap:butt;stroke-linejoin:miter;stroke-opacity:1" d="M 616.224,693.162 601.492,684.977 z" id="boundary" inkscape:connector-curvature="0" />
	<path style="fill:none;stroke:red;stroke-width:1px;stroke-linecap:butt;stroke-linejoin:miter;stroke-opacity:1" d="M 601.492,684.977 585.122,684.977 z" id="boundary" inkscape:connector-curvature="0" />
	<path style="fill:none;stroke:red;stroke-width:1px;stroke-linecap:butt;stroke-linejoin:miter;stroke-opacity:1" d="M 585.122,684.977 568.752,684.977 z" id="boundary" inkscape:connector-curvature="0" />
	<path style="fill:none;stroke:red;stroke-width:1px;stroke-linecap:butt;stroke-linejoin:miter;stroke-opacity:1" d="M 568.752,684.977 554.02,693.162 z" id="boundary" inkscape:connector-curvature="0" />
	<path style="fill:none;stroke:red;stroke-width:1px;stroke-linecap:butt;stroke-linejoin:miter;stroke-opacity:1" d="M 554.02,693.162 537.65,693.162 z" id="boundary" inkscape:connector-curvature="0" />
	<path style="fill:none;stroke:red;stroke-width:1px;stroke-linecap:butt;stroke-linejoin:miter;stroke-opacity:1" d="M 537.65,693.162 521.281,701.347 z" id="boundary" inkscape:connector-curvature="0" />
	<path style="fill:none;stroke:red;stroke-width:1px;stroke-linecap:butt;stroke-linejoin:miter;stroke-opacity:1" d="M 521.281,701.347 509.822,714.442 z" id="boundary" inkscape:connector-curvature="0" />
	<path style="fill:none;stroke:red;stroke-width:1px;stroke-linecap:butt;stroke-linejoin:miter;stroke-opacity:1" d="M 509.822,714.442 501.637,730.812 z" id="boundary" inkscape:connector-curvature="0" />
	<path style="fill:none;stroke:red;stroke-width:1px;stroke-linecap:butt;stroke-linejoin:miter;stroke-opacity:1" d="M 501.637,730.812 488.541,742.271 z" id="boundary" inkscape:connector-curvature="0" />
	<path style="fill:none;stroke:red;stroke-width:1px;stroke-linecap:butt;stroke-linejoin:miter;stroke-opacity:1" d="M 488.541,742.271 480.356,766.825 z" id="boundary" inkscape:connector-curvature="0" />
	<path style="fill:none;stroke:red;stroke-width:1px;stroke-linecap:butt;stroke-linejoin:miter;stroke-opacity:1" d="M 480.356,766.825 483.63,783.195 z" id="boundary" inkscape:connector-curvature="0" />
	<path style="fill:none;stroke:red;stroke-width:1px;stroke-linecap:butt;stroke-linejoin:miter;stroke-opacity:1" d="M 483.63,783.195 500,781.558 z" id="boundary" inkscape:connector-curvature="0" />
	<path style="fill:none;stroke:red;stroke-width:1px;stroke-linecap:butt;stroke-linejoin:miter;stroke-opacity:1" d="M 500,781.558 514.733,789.743 z" id="boundary" inkscape:connector-curvature="0" />
	<path style="fill:none;stroke:red;stroke-width:1px;stroke-linecap:butt;stroke-linejoin:miter;stroke-opacity:1" d="M 514.733,789.743 531.102,789.743 z" id="boundary" inkscape:connector-curvature="0" />
	<path style="fill:none;stroke:red;stroke-width:1px;stroke-linecap:butt;stroke-linejoin:miter;stroke-opacity:1" d="M 531.102,789.743 545.835,797.927 z" id="boundary" inkscape:connector-curvature="0" />
	<path style="fill:none;stroke:red;stroke-width:1px;stroke-linecap:butt;stroke-linejoin:miter;stroke-opacity:1" d="M 545.835,797.927 562.205,802.838 z" id="boundary" inkscape:connector-curvature="0" />
	<path style="fill:none;stroke:red;stroke-width:1px;stroke-linecap:butt;stroke-linejoin:miter;stroke-opacity:1" d="M 562.205,802.838 578.574,806.112 z" id="boundary" inkscape:connector-curvature="0" />
	<path style="fill:none;stroke:red;stroke-width:1px;stroke-linecap:butt;stroke-linejoin:miter;stroke-opacity:1" d="M 578.574,806.112 594.944,811.023 z" id="boundary" inkscape:connector-curvature="0" />
	<path style="fill:none;stroke:red;stroke-width:1px;stroke-linecap:butt;stroke-linejoin:miter;stroke-opacity:1" d="M 594.944,811.023 611.314,814.297 z" id="boundary" inkscape:connector-curvature="0" />
	<path style="fill:none;stroke:red;stroke-width:1px;stroke-linecap:butt;stroke-linejoin:miter;stroke-opacity:1" d="M 611.314,814.297 627.683,819.208 z" id="boundary" inkscape:connector-curvature="0" />
	<path style="fill:none;stroke:red;stroke-width:1px;stroke-linecap:butt;stroke-linejoin:miter;stroke-opacity:1" d="M 627.683,819.208 640.779,830.667 z" id="boundary" inkscape:connector-curvature="0" />
	<path style="fill:none;stroke:red;stroke-width:1px;stroke-linecap:butt;stroke-linejoin:miter;stroke-opacity:1" d="M 640.779,830.667 657.149,830.667 z" id="boundary" inkscape:connector-curvature="0" />
	<path style="fill:none;stroke:red;stroke-width:1px;stroke-linecap:butt;stroke-linejoin:miter;stroke-opacity:1" d="M 657.149,830.667 671.881,838.851 z" id="boundary" inkscape:connector-curvature="0" />
	<path style="fill:none;stroke:red;stroke-width:1px;stroke-linecap:butt;stroke-linejoin:miter;stroke-opacity:1" d="M 671.881,838.851 686.614,847.036 z" id="boundary" inkscape:connector-curvature="0" />
	<path style="fill:none;stroke:red;stroke-width:1px;stroke-linecap:butt;stroke-linejoin:miter;stroke-opacity:1" d="M 686.614,847.036 702.983,847.036 z" id="boundary" inkscape:connector-curvature="0" />
	<path style="fill:none;stroke:red;stroke-width:1px;stroke-linecap:butt;stroke-linejoin:miter;stroke-opacity:1" d="M 702.983,847.036 716.079,858.495 z" id="boundary" inkscape:connector-curvature="0" />
	<path style="fill:none;stroke:red;stroke-width:1px;stroke-linecap:butt;stroke-linejoin:miter;stroke-opacity:1" d="M 716.079,858.495 730.812,866.68 z" id="boundary" inkscape:connector-curvature="0" />
	<path style="fill:none;stroke:red;stroke-width:1px;stroke-linecap:butt;stroke-linejoin:miter;stroke-opacity:1" d="M 730.812,866.68 742.271,879.776 z" id="boundary" inkscape:connector-curvature="0" />
	<path style="fill:none;stroke:red;stroke-width:1px;stroke-linecap:butt;stroke-linejoin:miter;stroke-opacity:1" d="M 742.271,879.776 734.086,897.782 z" id="boundary" inkscape:connector-curvature="0" />
	<path style="fill:none;stroke:red;stroke-width:1px;stroke-linecap:butt;stroke-linejoin:miter;stroke-opacity:1" d="M 734.086,897.782 722.627,910.878 z" id="boundary" inkscape:connector-curvature="0" />
	<path style="fill:none;stroke:red;stroke-width:1px;stroke-linecap:butt;stroke-linejoin:miter;stroke-opacity:1" d="M 722.627,910.878 706.257,919.063 z" id="boundary" inkscape:connector-curvature="0" />
	<path style="fill:none;stroke:red;stroke-width:1px;stroke-linecap:butt;stroke-linejoin:miter;stroke-opacity:1" d="M 706.257,919.063 689.888,927.248 z" id="boundary" inkscape:connector-curvature="0" />
	<path style="fill:none;stroke:red;stroke-width:1px;stroke-linecap:butt;stroke-linejoin:miter;stroke-opacity:1" d="M 689.888,927.248 676.792,938.706 z" id="boundary" inkscape:connector-curvature="0" />
	<path style="fill:none;stroke:red;stroke-width:1px;stroke-linecap:butt;stroke-linejoin:miter;stroke-opacity:1" d="M 676.792,938.706 660.422,938.706 z" id="boundary" inkscape:connector-curvature="0" />
	<path style="fill:none;stroke:red;stroke-width:1px;stroke-linecap:butt;stroke-linejoin:miter;stroke-opacity:1" d="M 660.422,938.706 644.053,946.891 z" id="boundary" inkscape:connector-curvature="0" />
	<path style="fill:none;stroke:red;stroke-width:1px;stroke-linecap:butt;stroke-linejoin:miter;stroke-opacity:1" d="M 644.053,946.891 627.683,955.076 z" id="boundary" inkscape:connector-curvature="0" />
	<path style="fill:none;stroke:red;stroke-width:1px;stroke-linecap:butt;stroke-linejoin:miter;stroke-opacity:1" d="M 627.683,955.076 611.314,963.261 z" id="boundary" inkscape:connector-curvature="0" />
	<path style="fill:none;stroke:red;stroke-width:1px;stroke-linecap:butt;stroke-linejoin:miter;stroke-opacity:1" d="M 611.314,963.261 596.581,971.446 z" id="boundary" inkscape:connector-curvature="0" />
	<path style="fill:none;stroke:red;stroke-width:1px;stroke-linecap:butt;stroke-linejoin:miter;stroke-opacity:1" d="M 596.581,971.446 581.848,979.63 z" id="boundary" inkscape:connector-curvature="0" />
	<path style="fill:none;stroke:red;stroke-width:1px;stroke-linecap:butt;stroke-linejoin:miter;stroke-opacity:1" d="M 581.848,979.63 565.479,986.178 z" id="boundary" inkscape:connector-curvature="0" />
	<path style="fill:none;stroke:red;stroke-width:1px;stroke-linecap:butt;stroke-linejoin:miter;stroke-opacity:1" d="M 565.479,986.178 549.109,987.815 z" id="boundary" inkscape:connector-curvature="0" />
	<path style="fill:none;stroke:red;stroke-width:1px;stroke-linecap:butt;stroke-linejoin:miter;stroke-opacity:1" d="M 549.109,987.815 532.739,987.815 z" id="boundary" inkscape:connector-curvature="0" />
	<path style="fill:none;stroke:red;stroke-width:1px;stroke-linecap:butt;stroke-linejoin:miter;stroke-opacity:1" d="M 532.739,987.815 518.007,996 z" id="boundary" inkscape:connector-curvature="0" />
	<path style="fill:none;stroke:red;stroke-width:1px;stroke-linecap:butt;stroke-linejoin:miter;stroke-opacity:1" d="M 518.007,996 501.637,996 z" id="boundary" inkscape:connector-curvature="0" />
	<path style="fill:none;stroke:red;stroke-width:1px;stroke-linecap:butt;stroke-linejoin:miter;stroke-opacity:1" d="M 501.637,996 485.267,996 z" id="boundary" inkscape:connector-curvature="0" />
	<path style="fill:none;stroke:red;stroke-width:1px;stroke-linecap:butt;stroke-linejoin:miter;stroke-opacity:1" d="M 485.267,996 468.898,996 z" id="boundary" inkscape:connector-curvature="0" />
	<path style="fill:none;stroke:red;stroke-width:1px;stroke-linecap:butt;stroke-linejoin:miter;stroke-opacity:1" d="M 468.898,996 452.528,996 z" id="boundary" inkscape:connector-curvature="0" />
	<path style="fill:none;stroke:red;stroke-width:1px;stroke-linecap:butt;stroke-linejoin:miter;stroke-opacity:1" d="M 452.528,996 436.158,996 z" id="boundary" inkscape:connector-curvature="0" />
	<path style="fill:none;stroke:red;stroke-width:1px;stroke-linecap:butt;stroke-linejoin:miter;stroke-opacity:1" d="M 436.158,996 421.426,987.815 z" id="boundary" inkscape:connector-curvature="0" />
	<path style="fill:none;stroke:red;stroke-width:1px;stroke-linecap:butt;stroke-linejoin:miter;stroke-opacity:1" d="M 421.426,987.815 405.056,987.815 z" id="boundary" inkscape:connector-curvature="0" />
	<path style="fill:none;stroke:red;stroke-width:1px;stroke-linecap:butt;stroke-linejoin:miter;stroke-opacity:1" d="M 405.056,987.815 390.323,979.63 z" id="boundary" inkscape:connector-curvature="0" />
	<path style="fill:none;stroke:red;stroke-width:1px;stroke-linecap:butt;stroke-linejoin:miter;stroke-opacity:1" d="M 390.323,979.63 375.591,971.446 z" id="boundary" inkscape:connector-curvature="0" />
	<path style="fill:none;stroke:red;stroke-width:1px;stroke-linecap:butt;stroke-linejoin:miter;stroke-opacity:1" d="M 375.591,971.446 360.858,963.261 z" id="boundary" inkscape:connector-curvature="0" />
	<path style="fill:none;stroke:red;stroke-width:1px;stroke-linecap:butt;stroke-linejoin:miter;stroke-opacity:1" d="M 360.858,963.261 346.125,955.076 z" id="boundary" inkscape:connector-curvature="0" />
	<path style="fill:none;stroke:red;stroke-width:1px;stroke-linecap:butt;stroke-linejoin:miter;stroke-opacity:1" d="M 346.125,955.076 329.756,955.076 z" id="boundary" inkscape:connector-curvature="0" />
	<path style="fill:none;stroke:red;stroke-width:1px;stroke-linecap:butt;stroke-linejoin:miter;stroke-opacity:1" d="M 329.756,955.076 315.023,946.891 z" id="boundary" inkscape:connector-curvature="0" />
	<path style="fill:none;stroke:red;stroke-width:1px;stroke-linecap:butt;stroke-linejoin:miter;stroke-opacity:1" d="M 315.023,946.891 298.653,941.98 z" id="boundary" inkscape:connector-curvature="0" />
	<path style="fill:none;stroke:red;stroke-width:1px;stroke-linecap:butt;stroke-linejoin:miter;stroke-opacity:1" d="M 298.653,941.98 283.921,933.795 z" id="boundary" inkscape:connector-curvature="0" />
	<path style="fill:none;stroke:red;stroke-width:1px;stroke-linecap:butt;stroke-linejoin:miter;stroke-opacity:1" d="M 283.921,933.795 267.551,930.521 z" id="boundary" inkscape:connector-curvature="0" />
	<path style="fill:none;stroke:red;stroke-width:1px;stroke-linecap:butt;stroke-linejoin:miter;stroke-opacity:1" d="M 267.551,930.521 252.818,922.337 z" id="boundary" inkscape:connector-curvature="0" />
	<path style="fill:none;stroke:red;stroke-width:1px;stroke-linecap:butt;stroke-linejoin:miter;stroke-opacity:1" d="M 252.818,922.337 236.449,922.337 z" id="boundary" inkscape:connector-curvature="0" />
	<path style="fill:none;stroke:red;stroke-width:1px;stroke-linecap:butt;stroke-linejoin:miter;stroke-opacity:1" d="M 236.449,922.337 220.079,920.7 z" id="boundary" inkscape:connector-curvature="0" />
	<path style="fill:none;stroke:red;stroke-width:1px;stroke-linecap:butt;stroke-linejoin:miter;stroke-opacity:1" d="M 220.079,920.7 205.347,912.515 z" id="boundary" inkscape:connector-curvature="0" />
	<path style="fill:none;stroke:red;stroke-width:1px;stroke-linecap:butt;stroke-linejoin:miter;stroke-opacity:1" d="M 205.347,912.515 192.251,901.056 z" id="boundary" inkscape:connector-curvature="0" />
	<path style="fill:none;stroke:red;stroke-width:1px;stroke-linecap:butt;stroke-linejoin:miter;stroke-opacity:1" d="M 192.251,901.056 177.518,892.871 z" id="boundary" inkscape:connector-curvature="0" />
	<path style="fill:none;stroke:red;stroke-width:1px;stroke-linecap:butt;stroke-linejoin:miter;stroke-opacity:1" d="M 177.518,892.871 169.333,878.139 z" id="boundary" inkscape:connector-curvature="0" />
	<path style="fill:none;stroke:red;stroke-width:1px;stroke-linecap:butt;stroke-linejoin:miter;stroke-opacity:1" d="M 169.333,878.139 159.512,865.043 z" id="boundary" inkscape:connector-curvature="0" />
	<path style="fill:none;stroke:red;stroke-width:1px;stroke-linecap:butt;stroke-linejoin:miter;stroke-opacity:1" d="M 159.512,865.043 151.327,850.31 z" id="boundary" inkscape:connector-curvature="0" />
	<path style="fill:none;stroke:red;stroke-width:1px;stroke-linecap:butt;stroke-linejoin:miter;stroke-opacity:1" d="M 151.327,850.31 143.142,835.578 z" id="boundary" inkscape:connector-curvature="0" />
	<path style="fill:none;stroke:red;stroke-width:1px;stroke-linecap:butt;stroke-linejoin:miter;stroke-opacity:1" d="M 143.142,835.578 136.594,819.208 z" id="boundary" inkscape:connector-curvature="0" />
	<path style="fill:none;stroke:red;stroke-width:1px;stroke-linecap:butt;stroke-linejoin:miter;stroke-opacity:1" d="M 136.594,819.208 123.498,807.749 z" id="boundary" inkscape:connector-curvature="0" />
	<path style="fill:none;stroke:red;stroke-width:1px;stroke-linecap:butt;stroke-linejoin:miter;stroke-opacity:1" d="M 123.498,807.749 116.95,791.38 z" id="boundary" inkscape:connector-curvature="0" />
	<path style="fill:none;stroke:red;stroke-width:1px;stroke-linecap:butt;stroke-linejoin:miter;stroke-opacity:1" d="M 116.95,791.38 102.218,783.195 z" id="boundary" inkscape:connector-curvature="0" />
	<path style="fill:none;stroke:red;stroke-width:1px;stroke-linecap:butt;stroke-linejoin:miter;stroke-opacity:1" d="M 102.218,783.195 85.8482,783.195 z" id="boundary" inkscape:connector-curvature="0" />
	<path style="fill:none;stroke:red;stroke-width:1px;stroke-linecap:butt;stroke-linejoin:miter;stroke-opacity:1" d="M 85.8482,783.195 69.4785,786.469 z" id="boundary" inkscape:connector-curvature="0" />
	<path style="fill:none;stroke:red;stroke-width:1px;stroke-linecap:butt;stroke-linejoin:miter;stroke-opacity:1" d="M 69.4785,786.469 53.1089,783.195 z" id="boundary" inkscape:connector-curvature="0" />
	<path style="fill:none;stroke:red;stroke-width:1px;stroke-linecap:butt;stroke-linejoin:miter;stroke-opacity:1" d="M 53.1089,783.195 44.9241,768.462 z" id="boundary" inkscape:connector-curvature="0" />
	<path style="fill:none;stroke:red;stroke-width:1px;stroke-linecap:butt;stroke-linejoin:miter;stroke-opacity:1" d="M 44.9241,768.462 36.7393,753.729 z" id="boundary" inkscape:connector-curvature="0" />
	<path style="fill:none;stroke:red;stroke-width:1px;stroke-linecap:butt;stroke-linejoin:miter;stroke-opacity:1" d="M 36.7393,753.729 36.7393,737.36 z" id="boundary" inkscape:connector-curvature="0" />
	<path style="fill:none;stroke:red;stroke-width:1px;stroke-linecap:butt;stroke-linejoin:miter;stroke-opacity:1" d="M 36.7393,737.36 36.7393,720.99 z" id="boundary" inkscape:connector-curvature="0" />
	<path style="fill:none;stroke:red;stroke-width:1px;stroke-linecap:butt;stroke-linejoin:miter;stroke-opacity:1" d="M 36.7393,720.99 49.835,707.894 z" id="boundary" inkscape:connector-curvature="0" />
	<path style="fill:none;stroke:red;stroke-width:1px;stroke-linecap:butt;stroke-linejoin:miter;stroke-opacity:1" d="M 49.835,707.894 62.9307,694.799 z" id="boundary" inkscape:connector-curvature="0" />
	<path style="fill:none;stroke:red;stroke-width:1px;stroke-linecap:butt;stroke-linejoin:miter;stroke-opacity:1" d="M 62.9307,694.799 76.0264,683.34 z" id="boundary" inkscape:connector-curvature="0" />
	<path style="fill:none;stroke:red;stroke-width:1px;stroke-linecap:butt;stroke-linejoin:miter;stroke-opacity:1" d="M 76.0264,683.34 87.4851,670.244 z" id="boundary" inkscape:connector-curvature="0" />
	<path style="fill:none;stroke:red;stroke-width:1px;stroke-linecap:butt;stroke-linejoin:miter;stroke-opacity:1" d="M 87.4851,670.244 103.855,662.059 z" id="boundary" inkscape:connector-curvature="0" />
	<path style="fill:none;stroke:red;stroke-width:1px;stroke-linecap:butt;stroke-linejoin:miter;stroke-opacity:1" d="M 103.855,662.059 120.224,653.875 z" id="boundary" inkscape:connector-curvature="0" />
	<path style="fill:none;stroke:red;stroke-width:1px;stroke-linecap:butt;stroke-linejoin:miter;stroke-opacity:1" d="M 120.224,653.875 133.32,642.416 z" id="boundary" inkscape:connector-curvature="0" />
	<path style="fill:none;stroke:red;stroke-width:1px;stroke-linecap:butt;stroke-linejoin:miter;stroke-opacity:1" d="M 133.32,642.416 148.053,634.231 z" id="boundary" inkscape:connector-curvature="0" />
	<path style="fill:none;stroke:red;stroke-width:1px;stroke-linecap:butt;stroke-linejoin:miter;stroke-opacity:1" d="M 148.053,634.231 164.422,626.046 z" id="boundary" inkscape:connector-curvature="0" />
	<path style="fill:none;stroke:red;stroke-width:1px;stroke-linecap:butt;stroke-linejoin:miter;stroke-opacity:1" d="M 164.422,626.046 180.792,617.861 z" id="boundary" inkscape:connector-curvature="0" />
	<path style="fill:none;stroke:red;stroke-width:1px;stroke-linecap:butt;stroke-linejoin:miter;stroke-opacity:1" d="M 180.792,617.861 195.525,609.677 z" id="boundary" inkscape:connector-curvature="0" />
	<path style="fill:none;stroke:red;stroke-width:1px;stroke-linecap:butt;stroke-linejoin:miter;stroke-opacity:1" d="M 195.525,609.677 208.62,598.218 z" id="boundary" inkscape:connector-curvature="0" />
	<path style="fill:none;stroke:red;stroke-width:1px;stroke-linecap:butt;stroke-linejoin:miter;stroke-opacity:1" d="M 208.62,598.218 221.716,585.122 z" id="boundary" inkscape:connector-curvature="0" />
	<path style="fill:none;stroke:red;stroke-width:1px;stroke-linecap:butt;stroke-linejoin:miter;stroke-opacity:1" d="M 221.716,585.122 238.086,576.937 z" id="boundary" inkscape:connector-curvature="0" />
	<path style="fill:none;stroke:red;stroke-width:1px;stroke-linecap:butt;stroke-linejoin:miter;stroke-opacity:1" d="M 238.086,576.937 251.182,563.842 z" id="boundary" inkscape:connector-curvature="0" />
	<path style="fill:none;stroke:red;stroke-width:1px;stroke-linecap:butt;stroke-linejoin:miter;stroke-opacity:1" d="M 251.182,563.842 264.277,552.383 z" id="boundary" inkscape:connector-curvature="0" />
	<path style="fill:none;stroke:red;stroke-width:1px;stroke-linecap:butt;stroke-linejoin:miter;stroke-opacity:1" d="M 264.277,552.383 274.099,532.739 z" id="boundary" inkscape:connector-curvature="0" />
	<path style="fill:none;stroke:red;stroke-width:1px;stroke-linecap:butt;stroke-linejoin:miter;stroke-opacity:1" d="M 274.099,532.739 287.195,519.644 z" id="boundary" inkscape:connector-curvature="0" />
	<path style="fill:none;stroke:red;stroke-width:1px;stroke-linecap:butt;stroke-linejoin:miter;stroke-opacity:1" d="M 287.195,519.644 290.469,500 z" id="boundary" inkscape:connector-curvature="0" />
	<path style="fill:none;stroke:red;stroke-width:1px;stroke-linecap:butt;stroke-linejoin:miter;stroke-opacity:1" d="M 290.469,500 298.653,485.267 z" id="boundary" inkscape:connector-curvature="0" />
	<path style="fill:none;stroke:red;stroke-width:1px;stroke-linecap:butt;stroke-linejoin:miter;stroke-opacity:1" d="M 298.653,485.267 298.653,468.898 z" id="boundary" inkscape:connector-curvature="0" />
	<path style="fill:none;stroke:red;stroke-width:1px;stroke-linecap:butt;stroke-linejoin:miter;stroke-opacity:1" d="M 298.653,468.898 298.653,452.528 z" id="boundary" inkscape:connector-curvature="0" />
	<path style="fill:none;stroke:red;stroke-width:1px;stroke-linecap:butt;stroke-linejoin:miter;stroke-opacity:1" d="M 298.653,452.528 298.653,436.158 z" id="boundary" inkscape:connector-curvature="0" />
	<path style="fill:none;stroke:red;stroke-width:1px;stroke-linecap:butt;stroke-linejoin:miter;stroke-opacity:1" d="M 298.653,436.158 292.106,419.789 z" id="boundary" inkscape:connector-curvature="0" />
	<path style="fill:none;stroke:red;stroke-width:1px;stroke-linecap:butt;stroke-linejoin:miter;stroke-opacity:1" d="M 292.106,419.789 285.558,403.419 z" id="boundary" inkscape:connector-curvature="0" />
	<path style="fill:none;stroke:red;stroke-width:1px;stroke-linecap:butt;stroke-linejoin:miter;stroke-opacity:1" d="M 285.558,403.419 277.373,388.686 z" id="boundary" inkscape:connector-curvature="0" />
	<path style="fill:none;stroke:red;stroke-width:1px;stroke-linecap:butt;stroke-linejoin:miter;stroke-opacity:1" d="M 277.373,388.686 270.825,372.317 z" id="boundary" inkscape:connector-curvature="0" />
	<path style="fill:none;stroke:red;stroke-width:1px;stroke-linecap:butt;stroke-linejoin:miter;stroke-opacity:1" d="M 270.825,372.317 257.729,360.858 z" id="boundary" inkscape:connector-curvature="0" />
	<path style="fill:none;stroke:red;stroke-width:1px;stroke-linecap:butt;stroke-linejoin:miter;stroke-opacity:1" d="M 257.729,360.858 246.271,347.762 z" id="boundary" inkscape:connector-curvature="0" />
	<path style="fill:none;stroke:red;stroke-width:1px;stroke-linecap:butt;stroke-linejoin:miter;stroke-opacity:1" d="M 246.271,347.762 233.175,336.304 z" id="boundary" inkscape:connector-curvature="0" />
	<path style="fill:none;stroke:red;stroke-width:1px;stroke-linecap:butt;stroke-linejoin:miter;stroke-opacity:1" d="M 233.175,336.304 218.442,328.119 z" id="boundary" inkscape:connector-curvature="0" />
	<path style="fill:none;stroke:red;stroke-width:1px;stroke-linecap:butt;stroke-linejoin:miter;stroke-opacity:1" d="M 218.442,328.119 205.347,316.66 z" id="boundary" inkscape:connector-curvature="0" />
	<path style="fill:none;stroke:red;stroke-width:1px;stroke-linecap:butt;stroke-linejoin:miter;stroke-opacity:1" d="M 205.347,316.66 190.614,308.475 z" id="boundary" inkscape:connector-curvature="0" />
	<path style="fill:none;stroke:red;stroke-width:1px;stroke-linecap:butt;stroke-linejoin:miter;stroke-opacity:1" d="M 190.614,308.475 177.518,297.017 z" id="boundary" inkscape:connector-curvature="0" />
	<path style="fill:none;stroke:red;stroke-width:1px;stroke-linecap:butt;stroke-linejoin:miter;stroke-opacity:1" d="M 177.518,297.017 162.785,288.832 z" id="boundary" inkscape:connector-curvature="0" />
	<path style="fill:none;stroke:red;stroke-width:1px;stroke-linecap:butt;stroke-linejoin:miter;stroke-opacity:1" d="M 162.785,288.832 146.416,282.284 z" id="boundary" inkscape:connector-curvature="0" />
	<path style="fill:none;stroke:red;stroke-width:1px;stroke-linecap:butt;stroke-linejoin:miter;stroke-opacity:1" d="M 146.416,282.284 131.683,274.099 z" id="boundary" inkscape:connector-curvature="0" />
	<path style="fill:none;stroke:red;stroke-width:1px;stroke-linecap:butt;stroke-linejoin:miter;stroke-opacity:1" d="M 131.683,274.099 115.314,267.551 z" id="boundary" inkscape:connector-curvature="0" />
	<path style="fill:none;stroke:red;stroke-width:1px;stroke-linecap:butt;stroke-linejoin:miter;stroke-opacity:1" d="M 115.314,267.551 100.581,259.366 z" id="boundary" inkscape:connector-curvature="0" />
	<path style="fill:none;stroke:red;stroke-width:1px;stroke-linecap:butt;stroke-linejoin:miter;stroke-opacity:1" d="M 100.581,259.366 85.8482,251.182 z" id="boundary" inkscape:connector-curvature="0" />
	<path style="fill:none;stroke:red;stroke-width:1px;stroke-linecap:butt;stroke-linejoin:miter;stroke-opacity:1" d="M 85.8482,251.182 71.1155,242.997 z" id="boundary" inkscape:connector-curvature="0" />
	<path style="fill:none;stroke:red;stroke-width:1px;stroke-linecap:butt;stroke-linejoin:miter;stroke-opacity:1" d="M 71.1155,242.997 54.7459,239.723 z" id="boundary" inkscape:connector-curvature="0" />
	<path style="fill:none;stroke:red;stroke-width:1px;stroke-linecap:butt;stroke-linejoin:miter;stroke-opacity:1" d="M 54.7459,239.723 44.9241,226.627 z" id="boundary" inkscape:connector-curvature="0" />
	<path style="fill:none;stroke:red;stroke-width:1px;stroke-linecap:butt;stroke-linejoin:miter;stroke-opacity:1" d="M 44.9241,226.627 28.5545,221.716 z" id="boundary" inkscape:connector-curvature="0" />
	<path style="fill:none;stroke:red;stroke-width:1px;stroke-linecap:butt;stroke-linejoin:miter;stroke-opacity:1" d="M 28.5545,221.716 17.0957,208.62 z" id="boundary" inkscape:connector-curvature="0" />
	<path style="fill:none;stroke:red;stroke-width:1px;stroke-linecap:butt;stroke-linejoin:miter;stroke-opacity:1" d="M 17.0957,208.62 4,197.162 z" id="boundary" inkscape:connector-curvature="0" />
	<path style="fill:none;stroke:red;stroke-width:1px;stroke-linecap:butt;stroke-linejoin:miter;stroke-opacity:1" d="M 4,197.162 4,180.792 z" id="boundary" inkscape:connector-curvature="0" />
	<path style="fill:none;stroke:red;stroke-width:1px;stroke-linecap:butt;stroke-linejoin:miter;stroke-opacity:1" d="M 4,180.792 17.0957,167.696 z" id="boundary" inkscape:connector-curvature="0" />
	<path style="fill:none;stroke:red;stroke-width:1px;stroke-linecap:butt;stroke-linejoin:miter;stroke-opacity:1" d="M 17.0957,167.696 31.8284,159.512 z" id="boundary" inkscape:connector-curvature="0" />
	<path style="fill:none;stroke:red;stroke-width:1px;stroke-linecap:butt;stroke-linejoin:miter;stroke-opacity:1" d="M 31.8284,159.512 46.5611,151.327 z" id="boundary" inkscape:connector-curvature="0" />
	<path style="fill:none;stroke:red;stroke-width:1px;stroke-linecap:butt;stroke-linejoin:miter;stroke-opacity:1" d="M 46.5611,151.327 56.3828,136.594 z" id="boundary" inkscape:connector-curvature="0" />
	<path style="fill:none;stroke:red;stroke-width:1px;stroke-linecap:butt;stroke-linejoin:miter;stroke-opacity:1" d="M 56.3828,136.594 69.4785,123.498 z" id="boundary" inkscape:connector-curvature="0" />
	<path style="fill:none;stroke:red;stroke-width:1px;stroke-linecap:butt;stroke-linejoin:miter;stroke-opacity:1" d="M 69.4785,123.498 82.5743,110.403 z" id="boundary" inkscape:connector-curvature="0" />
	<path style="fill:none;stroke:red;stroke-width:1px;stroke-linecap:butt;stroke-linejoin:miter;stroke-opacity:1" d="M 82.5743,110.403 98.9439,102.218 z" id="boundary" inkscape:connector-curvature="0" />
	<path style="fill:none;stroke:red;stroke-width:1px;stroke-linecap:butt;stroke-linejoin:miter;stroke-opacity:1" d="M 98.9439,102.218 112.04,89.1221 z" id="boundary" inkscape:connector-curvature="0" />
	<path style="fill:none;stroke:red;stroke-width:1px;stroke-linecap:butt;stroke-linejoin:miter;stroke-opacity:1" d="M 112.04,89.1221 128.409,80.9373 z" id="boundary" inkscape:connector-curvature="0" />
	<path style="fill:none;stroke:red;stroke-width:1px;stroke-linecap:butt;stroke-linejoin:miter;stroke-opacity:1" d="M 128.409,80.9373 141.505,69.4785 z" id="boundary" inkscape:connector-curvature="0" />
	<path style="fill:none;stroke:red;stroke-width:1px;stroke-linecap:butt;stroke-linejoin:miter;stroke-opacity:1" d="M 141.505,69.4785 156.238,61.2937 z" id="boundary" inkscape:connector-curvature="0" />
	<path style="fill:none;stroke:red;stroke-width:1px;stroke-linecap:butt;stroke-linejoin:miter;stroke-opacity:1" d="M 156.238,61.2937 170.97,53.1089 z" id="boundary" inkscape:connector-curvature="0" />
	<path style="fill:none;stroke:red;stroke-width:1px;stroke-linecap:butt;stroke-linejoin:miter;stroke-opacity:1" d="M 170.97,53.1089 185.703,44.9241 z" id="boundary" inkscape:connector-curvature="0" />
	<path style="fill:none;stroke:red;stroke-width:1px;stroke-linecap:butt;stroke-linejoin:miter;stroke-opacity:1" d="M 185.703,44.9241 200.436,33.4653 z" id="boundary" inkscape:connector-curvature="0" />
	<path style="fill:none;stroke:red;stroke-width:1px;stroke-linecap:butt;stroke-linejoin:miter;stroke-opacity:1" d="M 200.436,33.4653 216.805,25.2805 z" id="boundary" inkscape:connector-curvature="0" />
	<path style="fill:none;stroke:red;stroke-width:1px;stroke-linecap:butt;stroke-linejoin:miter;stroke-opacity:1" d="M 216.805,25.2805 233.175,17.0957 z" id="boundary" inkscape:connector-curvature="0" />
	<path style="fill:none;stroke:red;stroke-width:1px;stroke-linecap:butt;stroke-linejoin:miter;stroke-opacity:1" d="M 233.175,17.0957 249.545,12.1848 z" id="boundary" inkscape:connector-curvature="0" />
	<path style="fill:none;stroke:red;stroke-width:1px;stroke-linecap:butt;stroke-linejoin:miter;stroke-opacity:1" d="M 249.545,12.1848 264.277,4 z" id="boundary" inkscape:connector-curvature="0" />
	<path style="fill:none;stroke:red;stroke-width:1px;stroke-linecap:butt;stroke-linejoin:miter;stroke-opacity:1" d="M 264.277,4 280.647,4 z" id="boundary" inkscape:connector-curvature="0" />
	<path style="fill:none;stroke:red;stroke-width:1px;stroke-linecap:butt;stroke-linejoin:miter;stroke-opacity:1" d="M 280.647,4 297.017,4 z" id="boundary" inkscape:connector-curvature="0" />
	<path style="fill:none;stroke:red;stroke-width:1px;stroke-linecap:butt;stroke-linejoin:miter;stroke-opacity:1" d="M 297.017,4 313.386,4 z" id="boundary" inkscape:connector-curvature="0" />
	<path style="fill:none;stroke:red;stroke-width:1px;stroke-linecap:butt;stroke-linejoin:miter;stroke-opacity:1" d="M 313.386,4 329.756,4 z" id="boundary" inkscape:connector-curvature="0" />
	<path style="fill:none;stroke:red;stroke-width:1px;stroke-linecap:butt;stroke-linejoin:miter;stroke-opacity:1" d="M 329.756,4 346.125,4 z" id="boundary" inkscape:connector-curvature="0" />
	<path style="fill:none;stroke:red;stroke-width:1px;stroke-linecap:butt;stroke-linejoin:miter;stroke-opacity:1" d="M 346.125,4 362.495,4 z" id="boundary" inkscape:connector-curvature="0" />
	<path style="fill:none;stroke:red;stroke-width:1px;stroke-linecap:butt;stroke-linejoin:miter;stroke-opacity:1" d="M 362.495,4 378.865,4 z" id="boundary" inkscape:connector-curvature="0" />
	<path style="fill:none;stroke:red;stroke-width:1px;stroke-linecap:butt;stroke-linejoin:miter;stroke-opacity:1" d="M 378.865,4 393.597,12.1848 z" id="boundary" inkscape:connector-curvature="0" />
	<path style="fill:none;stroke:red;stroke-width:1px;stroke-linecap:butt;stroke-linejoin:miter;stroke-opacity:1" d="M 393.597,12.1848 409.967,12.1848 z" id="boundary" inkscape:connector-curvature="0" />
	<path style="fill:none;stroke:red;stroke-width:1px;stroke-linecap:butt;stroke-linejoin:miter;stroke-opacity:1" d="M 409.967,12.1848 426.337,12.1848 z" id="boundary" inkscape:connector-curvature="0" />
	<path style="fill:none;stroke:red;stroke-width:1px;stroke-linecap:butt;stroke-linejoin:miter;stroke-opacity:1" d="M 426.337,12.1848 441.069,20.3696 z" id="boundary" inkscape:connector-curvature="0" />
	<path style="fill:none;stroke:red;stroke-width:1px;stroke-linecap:butt;stroke-linejoin:miter;stroke-opacity:1" d="M 441.069,20.3696 455.802,28.5545 z" id="boundary" inkscape:connector-curvature="0" />
	<path style="fill:none;stroke:red;stroke-width:1px;stroke-linecap:butt;stroke-linejoin:miter;stroke-opacity:1" d="M 455.802,28.5545 472.172,33.4653 z" id="boundary" inkscape:connector-curvature="0" />
	<path style="fill:none;stroke:red;stroke-width:1px;stroke-linecap:butt;stroke-linejoin:miter;stroke-opacity:1" d="M 472.172,33.4653 486.904,41.6502 z" id="boundary" inkscape:connector-curvature="0" />
	<path style="fill:none;stroke:red;stroke-width:1px;stroke-linecap:butt;stroke-linejoin:miter;stroke-opacity:1" d="M 486.904,41.6502 500,53.1089 z" id="boundary" inkscape:connector-curvature="0" />
	<path style="fill:none;stroke:red;stroke-width:1px;stroke-linecap:butt;stroke-linejoin:miter;stroke-opacity:1" d="M 500,53.1089 514.733,61.2937 z" id="boundary" inkscape:connector-curvature="0" />
	<path style="fill:none;stroke:red;stroke-width:1px;stroke-linecap:butt;stroke-linejoin:miter;stroke-opacity:1" d="M 514.733,61.2937 529.465,69.4785 z" id="boundary" inkscape:connector-curvature="0" />
	<path style="fill:none;stroke:red;stroke-width:1px;stroke-linecap:butt;stroke-linejoin:miter;stroke-opacity:1" d="M 529.465,69.4785 537.65,84.2112 z" id="boundary" inkscape:connector-curvature="0" />
	<path style="fill:none;stroke:red;stroke-width:1px;stroke-linecap:butt;stroke-linejoin:miter;stroke-opacity:1" d="M 537.65,84.2112 554.02,90.7591 z" id="boundary" inkscape:connector-curvature="0" />
	<path style="fill:none;stroke:red;stroke-width:1px;stroke-linecap:butt;stroke-linejoin:miter;stroke-opacity:1" d="M 554.02,90.7591 565.479,103.855 z" id="boundary" inkscape:connector-curvature="0" />
	<path style="fill:none;stroke:red;stroke-width:1px;stroke-linecap:butt;stroke-linejoin:miter;stroke-opacity:1" d="M 565.479,103.855 578.574,115.314 z" id="boundary" inkscape:connector-curvature="0" />
	<path style="fill:none;stroke:red;stroke-width:1px;stroke-linecap:butt;stroke-linejoin:miter;stroke-opacity:1" d="M 578.574,115.314 591.67,126.772 z" id="boundary" inkscape:connector-curvature="0" />
	<path style="fill:none;stroke:red;stroke-width:1px;stroke-linecap:butt;stroke-linejoin:miter;stroke-opacity:1" d="M 591.67,126.772 606.403,134.957 z" id="boundary" inkscape:connector-curvature="0" />
	<path style="fill:none;stroke:red;stroke-width:1px;stroke-linecap:butt;stroke-linejoin:miter;stroke-opacity:1" d="M 606.403,134.957 621.135,143.142 z" id="boundary" inkscape:connector-curvature="0" />
	<path style="fill:none;stroke:red;stroke-width:1px;stroke-linecap:butt;stroke-linejoin:miter;stroke-opacity:1" d="M 621.135,143.142 635.868,151.327 z" id="boundary" inkscape:connector-curvature="0" />
	<path style="fill:none;stroke:red;stroke-width:1px;stroke-linecap:butt;stroke-linejoin:miter;stroke-opacity:1" d="M 635.868,151.327 650.601,159.512 z" id="boundary" inkscape:connector-curvature="0" />
	<path style="fill:none;stroke:red;stroke-width:1px;stroke-linecap:butt;stroke-linejoin:miter;stroke-opacity:1" d="M 650.601,159.512 665.333,151.327 z" id="boundary" inkscape:connector-curvature="0" />
	<path style="fill:none;stroke:red;stroke-width:1px;stroke-linecap:butt;stroke-linejoin:miter;stroke-opacity:1" d="M 665.333,151.327 681.703,151.327 z" id="boundary" inkscape:connector-curvature="0" />
	<path style="fill:none;stroke:red;stroke-width:1px;stroke-linecap:butt;stroke-linejoin:miter;stroke-opacity:1" d="M 681.703,151.327 696.436,143.142 z" id="boundary" inkscape:connector-curvature="0" />
	<path style="fill:none;stroke:red;stroke-width:1px;stroke-linecap:butt;stroke-linejoin:miter;stroke-opacity:1" d="M 696.436,143.142 712.805,143.142 z" id="boundary" inkscape:connector-curvature="0" />
	<path style="fill:none;stroke:red;stroke-width:1px;stroke-linecap:butt;stroke-linejoin:miter;stroke-opacity:1" d="M 712.805,143.142 729.175,143.142 z" id="boundary" inkscape:connector-curvature="0" />
	<path style="fill:none;stroke:red;stroke-width:1px;stroke-linecap:butt;stroke-linejoin:miter;stroke-opacity:1" d="M 729.175,143.142 745.545,143.142 z" id="boundary" inkscape:connector-curvature="0" />
	<path style="fill:none;stroke:red;stroke-width:1px;stroke-linecap:butt;stroke-linejoin:miter;stroke-opacity:1" d="M 745.545,143.142 761.914,143.142 z" id="boundary" inkscape:connector-curvature="0" />
	<path style="fill:none;stroke:red;stroke-width:1px;stroke-linecap:butt;stroke-linejoin:miter;stroke-opacity:1" d="M 761.914,143.142 776.647,151.327 z" id="boundary" inkscape:connector-curvature="0" />
	<circle cx="4" cy="180.792" r="4" fill="#0" id="circle0"/>
	<circle cx="4" cy="197.162" r="4" fill="#0" id="circle1"/>
	<circle cx="17.0957" cy="167.696" r="4" fill="#0" id="circle2"/>
	<circle cx="17.0957" cy="208.62" r="4" fill="#0" id="circle3"/>
	<circle cx="28.5545" cy="221.716" r="4" fill="#0" id="circle4"/>
	<circle cx="31.8284" cy="159.512" r="4" fill="#0" id="circle5"/>
	<circle cx="36.7393" cy="720.99" r="4" fill="#0" id="circle6"/>
	<circle cx="36.7393" cy="737.36" r="4" fill="#0" id="circle7"/>
	<circle cx="36.7393" cy="753.729" r="4" fill="#0" id="circle8"/>
	<circle cx="44.9241" cy="226.627" r="4" fill="#0" id="circle9"/>
	<circle cx="44.9241" cy="768.462" r="4" fill="#0" id="circle10"/>
	<circle cx="46.5611" cy="151.327" r="4" fill="#0" id="circle11"/>
	<circle cx="49.835" cy="707.894" r="4" fill="#0" id="circle12"/>
	<circle cx="53.1089" cy="783.195" r="4" fill="#0" id="circle13"/>
	<circle cx="54.7459" cy="239.723" r="4" fill="#0" id="circle14"/>
	<circle cx="56.3828" cy="136.594" r="4" fill="#0" id="circle15"/>
	<circle cx="62.9307" cy="694.799" r="4" fill="#0" id="circle16"/>
	<circle cx="69.4785" cy="123.498" r="4" fill="#0" id="circle17"/>
	<circle cx="69.4785" cy="786.469" r="4" fill="#0" id="circle18"/>
	<circle cx="71.1155" cy="242.997" r="4" fill="#0" id="circle19"/>
	<circle cx="76.0264" cy="683.34" r="4" fill="#0" id="circle20"/>
	<circle cx="82.5743" cy="110.403" r="4" fill="#0" id="circle21"/>
	<circle cx="85.8482" cy="251.182" r="4" fill="#0" id="circle22"/>
	<circle cx="85.8482" cy="783.195" r="4" fill="#0" id="circle23"/>
	<circle cx="87.4851" cy="670.244" r="4" fill="#0" id="circle24"/>
	<circle cx="98.9439" cy="102.218" r="4" fill="#0" id="circle25"/>
	<circle cx="100.581" cy="259.366" r="4" fill="#0" id="circle26"/>
	<circle cx="102.218" cy="783.195" r="4" fill="#0" id="circle27"/>
	<circle cx="103.855" cy="662.059" r="4" fill="#0" id="circle28"/>
	<circle cx="112.04" cy="89.1221" r="4" fill="#0" id="circle29"/>
	<circle cx="115.314" cy="267.551" r="4" fill="#0" id="circle30"/>
	<circle cx="116.95" cy="791.38" r="4" fill="#0" id="circle31"/>
	<circle cx="120.224" cy="653.875" r="4" fill="#0" id="circle32"/>
	<circle cx="123.498" cy="807.749" r="4" fill="#0" id="circle33"/>
	<circle cx="128.409" cy="80.9373" r="4" fill="#0" id="circle34"/>
	<circle cx="131.683" cy="274.099" r="4" fill="#0" id="circle35"/>
	<circle cx="133.32" cy="642.416" r="4" fill="#0" id="circle36"/>
	<circle cx="136.594" cy="819.208" r="4" fill="#0" id="circle37"/>
	<circle cx="141.505" cy="69.4785" r="4" fill="#0" id="circle38"/>
	<circle cx="143.142" cy="835.578" r="4" fill="#0" id="circle39"/>
	<circle cx="146.416" cy="282.284" r="4" fill="#0" id="circle40"/>
	<circle cx="148.053" cy="634.231" r="4" fill="#0" id="circle41"/>
	<circle cx="151.327" cy="850.31" r="4" fill="#0" id="circle42"/>
	<circle cx="156.238" cy="61.2937" r="4" fill="#0" id="circle43"/>
	<circle cx="159.512" cy="865.043" r="4" fill="#0" id="circle44"/>
	<circle cx="162.785" cy="288.832" r="4" fill="#0" id="circle45"/>
	<circle cx="164.422" cy="626.046" r="4" fill="#0" id="circle46"/>
	<circle cx="169.333" cy="878.139" r="4" fill="#0" id="circle47"/>
	<circle cx="170.97" cy="53.1089" r="4" fill="#0" id="circle48"/>
	<circle cx="177.518" cy="297.017" r="4" fill="#0" id="circle49"/>
	<circle cx="177.518" cy="892.871" r="4" fill="#0" id="circle50"/>
	<circle cx="180.792" cy="617.861" r="4" fill="#0" id="circle51"/>
	<circle cx="185.703" cy="44.9241" r="4" fill="#0" id="circle52"/>
	<circle cx="190.614" cy="308.475" r="4" fill="#0" id="circle53"/>
	<circle cx="192.251" cy="901.056" r="4" fill="#0" id="circle54"/>
	<circle cx="195.525" cy="609.677" r="4" fill="#0" id="circle55"/>
	<circle cx="200.436" cy="33.4653" r="4" fill="#0" id="circle56"/>
	<circle cx="205.347" cy="316.66" r="4" fill="#0" id="circle57"/>
	<circle cx="205.347" cy="912.515" r="4" fill="#0" id="circle58"/>
	<circle cx="208.62" cy="598.218" r="4" fill="#0" id="circle59"/>
	<circle cx="216.805" cy="25.2805" r="4" fill="#0" id="circle60"/>
	<circle cx="218.442" cy="328.119" r="4" fill="#0" id="circle61"/>
	<circle cx="220.079" cy="920.7" r="4" fill="#0" id="circle62"/>
	<circle cx="221.716" cy="585.122" r="4" fill="#0" id="circle63"/>
	<circle cx="233.175" cy="17.0957" r="4" fill="#0" id="circle64"/>
	<circle cx="233.175" cy="336.304" r="4" fill="#0" id="circle65"/>
	<circle cx="236.449" cy="922.337" r="4" fill="#0" id="circle66"/>
	<circle cx="238.086" cy="576.937" r="4" fill="#0" id="circle67"/>
	<circle cx="246.271" cy="347.762" r="4" fill="#0" id="circle68"/>
	<circle cx="249.545" cy="12.1848" r="4" fill="#0" id="circle69"/>
	<circle cx="251.182" cy="563.842" r="4" fill="#0" id="circle70"/>
	<circle cx="252.818" cy="922.337" r="4" fill="#0" id="circle71"/>
	<circle cx="257.729" cy="360.858" r="4" fill="#0" id="circle72"/>
	<circle cx="264.277" cy="4" r="4" fill="#0" id="circle73"/>
	<circle cx="264.277" cy="552.383" r="4" fill="#0" id="circle74"/>
	<circle cx="267.551" cy="930.521" r="4" fill="#0" id="circle75"/>
	<circle cx="270.825" cy="372.317" r="4" fill="#0" id="circle76"/>
	<circle cx="274.099" cy="532.739" r="4" fill="#0" id="circle77"/>
	<circle cx="277.373" cy="388.686" r="4" fill="#0" id="circle78"/>
	<circle cx="280.647" cy="4" r="4" fill="#0" id="circle79"/>
	<circle cx="283.921" cy="933.795" r="4" fill="#0" id="circle80"/>
	<circle cx="285.558" cy="403.419" r="4" fill="#0" id="circle81"/>
	<circle cx="287.195" cy="519.644" r="4" fill="#0" id="circle82"/>
	<circle cx="290.469" cy="500" r="4" fill="#0" id="circle83"/>
	<circle cx="292.106" cy="419.789" r="4" fill="#0" id="circle84"/>
	<circle cx="297.017" cy="4" r="4" fill="#0" id="circle85"/>
	<circle cx="298.653" cy="436.158" r="4" fill="#0" id="circle86"/>
	<circle cx="298.653" cy="452.528" r="4" fill="#0" id="circle87"/>
	<circle cx="298.653" cy="468.898" r="4" fill="#0" id="circle88"/>
	<circle cx="298.653" cy="485.267" r="4" fill="#0" id="circle89"/>
	<circle cx="298.653" cy="941.98" r="4" fill="#0" id="circle90"/>
	<circle cx="313.386" cy="4" r="4" fill="#0" id="circle91"/>
	<circle cx="315.023" cy="946.891" r="4" fill="#0" id="circle92"/>
	<circle cx="329.756" cy="4" r="4" fill="#0" id="circle93"/>
	<circle cx="329.756" cy="955.076" r="4" fill="#0" id="circle94"/>
	<circle cx="346.125" cy="4" r="4" fill="#0" id="circle95"/>
	<circle cx="346.125" cy="955.076" r="4" fill="#0" id="circle96"/>
	<circle cx="360.858" cy="963.261" r="4" fill="#0" id="circle97"/>
	<circle cx="362.495" cy="4" r="4" fill="#0" id="circle98"/>
	<circle cx="375.591" cy="971.446" r="4" fill="#0" id="circle99"/>
	<circle cx="378.865" cy="4" r="4" fill="#0" id="circle100"/>
	<circle cx="390.323" cy="979.63" r="4" fill="#0" id="circle101"/>
	<circle cx="393.597" cy="12.1848" r="4" fill="#0" id="circle102"/>
	<circle cx="405.056" cy="987.815" r="4" fill="#0" id="circle103"/>
	<circle cx="409.967" cy="12.1848" r="4" fill="#0" id="circle104"/>
	<circle cx="421.426" cy="987.815" r="4" fill="#0" id="circle105"/>
	<circle cx="426.337" cy="12.1848" r="4" fill="#0" id="circle106"/>
	<circle cx="436.158" cy="996" r="4" fill="#0" id="circle107"/>
	<circle cx="441.069" cy="20.3696" r="4" fill="#0" id="circle108"/>
	<circle cx="452.528" cy="996" r="4" fill="#0" id="circle109"/>
	<circle cx="455.802" cy="28.5545" r="4" fill="#0" id="circle110"/>
	<circle cx="468.898" cy="996" r="4" fill="#0" id="circle111"/>
	<circle cx="472.172" cy="33.4653" r="4" fill="#0" id="circle112"/>
	<circle cx="480.356" cy="766.825" r="4" fill="#0" id="circle113"/>
	<circle cx="483.63" cy="783.195" r="4" fill="#0" id="circle114"/>
	<circle cx="485.267" cy="996" r="4" fill="#0" id="circle115"/>
	<circle cx="486.904" cy="41.6502" r="4" fill="#0" id="circle116"/>
	<circle cx="488.541" cy="742.271" r="4" fill="#0" id="circle117"/>
	<circle cx="500" cy="53.1089" r="4" fill="#0" id="circle118"/>
	<circle cx="500" cy="781.558" r="4" fill="#0" id="circle119"/>
	<circle cx="501.637" cy="730.812" r="4" fill="#0" id="circle120"/>
	<circle cx="501.637" cy="996" r="4" fill="#0" id="circle121"/>
	<circle cx="509.822" cy="714.442" r="4" fill="#0" id="circle122"/>
	<circle cx="514.733" cy="61.2937" r="4" fill="#0" id="circle123"/>
	<circle cx="514.733" cy="789.743" r="4" fill="#0" id="circle124"/>
	<circle cx="518.007" cy="996" r="4" fill="#0" id="circle125"/>
	<circle cx="521.281" cy="701.347" r="4" fill="#0" id="circle126"/>
	<circle cx="529.465" cy="69.4785" r="4" fill="#0" id="circle127"/>
	<circle cx="531.102" cy="789.743" r="4" fill="#0" id="circle128"/>
	<circle cx="532.739" cy="987.815" r="4" fill="#0" id="circle129"/>
	<circle cx="537.65" cy="84.2112" r="4" fill="#0" id="circle130"/>
	<circle cx="537.65" cy="693.162" r="4" fill="#0" id="circle131"/>
	<circle cx="545.835" cy="797.927" r="4" fill="#0" id="circle132"/>
	<circle cx="549.109" cy="987.815" r="4" fill="#0" id="circle133"/>
	<circle cx="554.02" cy="90.7591" r="4" fill="#0" id="circle134"/>
	<circle cx="554.02" cy="693.162" r="4" fill="#0" id="circle135"/>
	<circle cx="562.205" cy="802.838" r="4" fill="#0" id="circle136"/>
	<circle cx="565.479" cy="103.855" r="4" fill="#0" id="circle137"/>
	<circle cx="565.479" cy="986.178" r="4" fill="#0" id="circle138"/>
	<circle cx="568.752" cy="684.977" r="4" fill="#0" id="circle139"/>
	<circle cx="578.574" cy="115.314" r="4" fill="#0" id="circle140"/>
	<circle cx="578.574" cy="806.112" r="4" fill="#0" id="circle141"/>
	<circle cx="581.848" cy="979.63" r="4" fill="#0" id="circle142"/>
	<circle cx="585.122" cy="684.977" r="4" fill="#0" id="circle143"/>
	<circle cx="591.67" cy="126.772" r="4" fill="#0" id="circle144"/>
	<circle cx="594.944" cy="811.023" r="4" fill="#0" id="circle145"/>
	<circle cx="596.581" cy="971.446" r="4" fill="#0" id="circle146"/>
	<circle cx="601.492" cy="684.977" r="4" fill="#0" id="circle147"/>
	<circle cx="606.403" cy="134.957" r="4" fill="#0" id="circle148"/>
	<circle cx="611.314" cy="814.297" r="4" fill="#0" id="circle149"/>
	<circle cx="611.314" cy="963.261" r="4" fill="#0" id="circle150"/>
	<circle cx="616.224" cy="693.162" r="4" fill="#0" id="circle151"/>
	<circle cx="621.135" cy="143.142" r="4" fill="#0" id="circle152"/>
	<circle cx="627.683" cy="819.208" r="4" fill="#0" id="circle153"/>
	<circle cx="627.683" cy="955.076" r="4" fill="#0" id="circle154"/>
	<circle cx="632.594" cy="693.162" r="4" fill="#0" id="circle155"/>
	<circle cx="635.868" cy="151.327" r="4" fill="#0" id="circle156"/>
	<circle cx="640.779" cy="830.667" r="4" fill="#0" id="circle157"/>
	<circle cx="644.053" cy="946.891" r="4" fill="#0" id="circle158"/>
	<circle cx="647.327" cy="701.347" r="4" fill="#0" id="circle159"/>
	<circle cx="650.601" cy="159.512" r="4" fill="#0" id="circle160"/>
	<circle cx="657.149" cy="830.667" r="4" fill="#0" id="circle161"/>
	<circle cx="660.422" cy="938.706" r="4" fill="#0" id="circle162"/>
	<circle cx="663.696" cy="707.894" r="4" fill="#0" id="circle163"/>
	<circle cx="665.333" cy="151.327" r="4" fill="#0" id="circle164"/>
	<circle cx="671.881" cy="838.851" r="4" fill="#0" id="circle165"/>
	<circle cx="676.792" cy="938.706" r="4" fill="#0" id="circle166"/>
	<circle cx="678.429" cy="716.079" r="4" fill="#0" id="circle167"/>
	<circle cx="681.703" cy="151.327" r="4" fill="#0" id="circle168"/>
	<circle cx="684.977" cy="447.617" r="4" fill="#0" id="circle169"/>
	<circle cx="686.614" cy="847.036" r="4" fill="#0" id="circle170"/>
	<circle cx="688.251" cy="463.987" r="4" fill="#0" id="circle171"/>
	<circle cx="689.888" cy="927.248" r="4" fill="#0" id="circle172"/>
	<circle cx="693.162" cy="480.356" r="4" fill="#0" id="circle173"/>
	<circle cx="694.799" cy="717.716" r="4" fill="#0" id="circle174"/>
	<circle cx="696.436" cy="143.142" r="4" fill="#0" id="circle175"/>
	<circle cx="699.71" cy="439.432" r="4" fill="#0" id="circle176"/>
	<circle cx="701.347" cy="495.089" r="4" fill="#0" id="circle177"/>
	<circle cx="702.983" cy="847.036" r="4" fill="#0" id="circle178"/>
	<circle cx="706.257" cy="919.063" r="4" fill="#0" id="circle179"/>
	<circle cx="709.531" cy="509.822" r="4" fill="#0" id="circle180"/>
	<circle cx="709.531" cy="725.901" r="4" fill="#0" id="circle181"/>
	<circle cx="712.805" cy="143.142" r="4" fill="#0" id="circle182"/>
	<circle cx="714.442" cy="431.248" r="4" fill="#0" id="circle183"/>
	<circle cx="716.079" cy="858.495" r="4" fill="#0" id="circle184"/>
	<circle cx="717.716" cy="524.554" r="4" fill="#0" id="circle185"/>
	<circle cx="722.627" cy="910.878" r="4" fill="#0" id="circle186"/>
	<circle cx="725.901" cy="729.175" r="4" fill="#0" id="circle187"/>
	<circle cx="729.175" cy="143.142" r="4" fill="#0" id="circle188"/>
	<circle cx="729.175" cy="421.426" r="4" fill="#0" id="circle189"/>
	<circle cx="730.812" cy="536.013" r="4" fill="#0" id="circle190"/>
	<circle cx="730.812" cy="866.68" r="4" fill="#0" id="circle191"/>
	<circle cx="734.086" cy="897.782" r="4" fill="#0" id="circle192"/>
	<circle cx="742.271" cy="251.182" r="4" fill="#0" id="circle193"/>
	<circle cx="742.271" cy="267.551" r="4" fill="#0" id="circle194"/>
	<circle cx="742.271" cy="725.901" r="4" fill="#0" id="circle195"/>
	<circle cx="742.271" cy="879.776" r="4" fill="#0" id="circle196"/>
	<circle cx="745.545" cy="143.142" r="4" fill="#0" id="circle197"/>
	<circle cx="745.545" cy="413.241" r="4" fill="#0" id="circle198"/>
	<circle cx="745.545" cy="544.198" r="4" fill="#0" id="circle199"/>
	<circle cx="750.455" cy="234.812" r="4" fill="#0" id="circle200"/>
	<circle cx="750.455" cy="560.568" r="4" fill="#0" id="circle201"/>
	<circle cx="755.366" cy="277.373" r="4" fill="#0" id="circle202"/>
	<circle cx="758.64" cy="398.508" r="4" fill="#0" id="circle203"/>
	<circle cx="758.64" cy="725.901" r="4" fill="#0" id="circle204"/>
	<circle cx="761.914" cy="143.142" r="4" fill="#0" id="circle205"/>
	<circle cx="763.551" cy="223.353" r="4" fill="#0" id="circle206"/>
	<circle cx="763.551" cy="570.389" r="4" fill="#0" id="circle207"/>
	<circle cx="766.825" cy="202.073" r="4" fill="#0" id="circle208"/>
	<circle cx="766.825" cy="290.469" r="4" fill="#0" id="circle209"/>
	<circle cx="775.01" cy="177.518" r="4" fill="#0" id="circle210"/>
	<circle cx="775.01" cy="382.139" r="4" fill="#0" id="circle211"/>
	<circle cx="775.01" cy="583.485" r="4" fill="#0" id="circle212"/>
	<circle cx="775.01" cy="717.716" r="4" fill="#0" id="circle213"/>
	<circle cx="776.647" cy="151.327" r="4" fill="#0" id="circle214"/>
	<circle cx="783.195" cy="295.38" r="4" fill="#0" id="circle215"/>
	<circle cx="783.195" cy="598.218" r="4" fill="#0" id="circle216"/>
	<circle cx="788.106" cy="370.68" r="4" fill="#0" id="circle217"/>
	<circle cx="788.106" cy="706.257" r="4" fill="#0" id="circle218"/>
	<circle cx="789.743" cy="311.749" r="4" fill="#0" id="circle219"/>
	<circle cx="791.38" cy="349.399" r="4" fill="#0" id="circle220"/>
	<circle cx="791.38" cy="612.95" r="4" fill="#0" id="circle221"/>
	<circle cx="791.38" cy="635.868" r="4" fill="#0" id="circle222"/>
	<circle cx="791.38" cy="660.422" r="4" fill="#0" id="circle223"/>
	<circle cx="791.38" cy="676.792" r="4" fill="#0" id="circle224"/>
	<circle cx="797.927" cy="326.482" r="4" fill="#0" id="circle225"/>
	</g>
</svg>