<?xml version="1.0" encoding="UTF-8" standalone="no"?>
<!-- Created with CurveBenchmark -->
<svg
	xmlns:dc="http://purl.org/dc/elements/1.1/"
	xmlns:cc="http://creativecommons.org/ns#"
	xmlns:rdf="http://www.w3.org/1999/02/22-rdf-syntax-ns#"
	xmlns:svg="http://www.w3.org/2000/svg"
	xmlns="http://www.w3.org/2000/svg"
	xmlns:sodipodi="http://sodipodi.sourceforge.net/DTD/sodipodi-0.dtd"
	xmlns:inkscape="http://www.inkscape.org/namespaces/inkscape"
	width="1000"
	height="1000"
	id="svg2"
	version="1.1"
	sodipodi:docname="manifold/connect2d-chopper09.png.txt">
<defs
	id="defs4" />
<metadata
	id="metadata7">
	<rdf:RDF>
		<cc:Work
			rdf:about="">
			<dc:format>image/svg+xml</dc:format>
			<dc:type
				rdf:resource="http://purl.org/dc/dcmitype/StillImage" />
			<dc:title></dc:title>
		</cc:Work>
	</rdf:RDF>
</metadata>
<g
	inkscape:label="Layer 1"
	inkscape:groupmode="layer"
	id="layer1">
	<path style="fill:none;stroke:red;stroke-width:1px;stroke-linecap:butt;stroke-linejoin:miter;stroke-opacity:1" d="M 983.282,249.275 996,263.81 z" id="boundary" inkscape:connector-curvature="0" />
	<path style="fill:none;stroke:red;stroke-width:1px;stroke-linecap:butt;stroke-linejoin:miter;stroke-opacity:1" d="M 996,263.81 985.099,278.344 z" id="boundary" inkscape:connector-curvature="0" />
	<path style="fill:none;stroke:red;stroke-width:1px;stroke-linecap:butt;stroke-linejoin:miter;stroke-opacity:1" d="M 985.099,278.344 968.747,287.429 z" id="boundary" inkscape:connector-curvature="0" />
	<path style="fill:none;stroke:red;stroke-width:1px;stroke-linecap:butt;stroke-linejoin:miter;stroke-opacity:1" d="M 968.747,287.429 959.663,305.597 z" id="boundary" inkscape:connector-curvature="0" />
	<path style="fill:none;stroke:red;stroke-width:1px;stroke-linecap:butt;stroke-linejoin:miter;stroke-opacity:1" d="M 959.663,305.597 941.495,305.597 z" id="boundary" inkscape:connector-curvature="0" />
	<path style="fill:none;stroke:red;stroke-width:1px;stroke-linecap:butt;stroke-linejoin:miter;stroke-opacity:1" d="M 941.495,305.597 923.326,314.681 z" id="boundary" inkscape:connector-curvature="0" />
	<path style="fill:none;stroke:red;stroke-width:1px;stroke-linecap:butt;stroke-linejoin:miter;stroke-opacity:1" d="M 923.326,314.681 905.158,314.681 z" id="boundary" inkscape:connector-curvature="0" />
	<path style="fill:none;stroke:red;stroke-width:1px;stroke-linecap:butt;stroke-linejoin:miter;stroke-opacity:1" d="M 905.158,314.681 886.989,314.681 z" id="boundary" inkscape:connector-curvature="0" />
	<path style="fill:none;stroke:red;stroke-width:1px;stroke-linecap:butt;stroke-linejoin:miter;stroke-opacity:1" d="M 886.989,314.681 872.454,331.033 z" id="boundary" inkscape:connector-curvature="0" />
	<path style="fill:none;stroke:red;stroke-width:1px;stroke-linecap:butt;stroke-linejoin:miter;stroke-opacity:1" d="M 872.454,331.033 857.919,341.934 z" id="boundary" inkscape:connector-curvature="0" />
	<path style="fill:none;stroke:red;stroke-width:1px;stroke-linecap:butt;stroke-linejoin:miter;stroke-opacity:1" d="M 857.919,341.934 841.568,351.018 z" id="boundary" inkscape:connector-curvature="0" />
	<path style="fill:none;stroke:red;stroke-width:1px;stroke-linecap:butt;stroke-linejoin:miter;stroke-opacity:1" d="M 841.568,351.018 823.399,351.018 z" id="boundary" inkscape:connector-curvature="0" />
	<path style="fill:none;stroke:red;stroke-width:1px;stroke-linecap:butt;stroke-linejoin:miter;stroke-opacity:1" d="M 823.399,351.018 808.864,367.37 z" id="boundary" inkscape:connector-curvature="0" />
	<path style="fill:none;stroke:red;stroke-width:1px;stroke-linecap:butt;stroke-linejoin:miter;stroke-opacity:1" d="M 808.864,367.37 794.33,378.271 z" id="boundary" inkscape:connector-curvature="0" />
	<path style="fill:none;stroke:red;stroke-width:1px;stroke-linecap:butt;stroke-linejoin:miter;stroke-opacity:1" d="M 794.33,378.271 777.978,387.355 z" id="boundary" inkscape:connector-curvature="0" />
	<path style="fill:none;stroke:red;stroke-width:1px;stroke-linecap:butt;stroke-linejoin:miter;stroke-opacity:1" d="M 777.978,387.355 759.81,396.44 z" id="boundary" inkscape:connector-curvature="0" />
	<path style="fill:none;stroke:red;stroke-width:1px;stroke-linecap:butt;stroke-linejoin:miter;stroke-opacity:1" d="M 759.81,396.44 741.641,396.44 z" id="boundary" inkscape:connector-curvature="0" />
	<path style="fill:none;stroke:red;stroke-width:1px;stroke-linecap:butt;stroke-linejoin:miter;stroke-opacity:1" d="M 741.641,396.44 723.473,405.524 z" id="boundary" inkscape:connector-curvature="0" />
	<path style="fill:none;stroke:red;stroke-width:1px;stroke-linecap:butt;stroke-linejoin:miter;stroke-opacity:1" d="M 723.473,405.524 705.304,414.608 z" id="boundary" inkscape:connector-curvature="0" />
	<path style="fill:none;stroke:red;stroke-width:1px;stroke-linecap:butt;stroke-linejoin:miter;stroke-opacity:1" d="M 705.304,414.608 687.136,414.608 z" id="boundary" inkscape:connector-curvature="0" />
	<path style="fill:none;stroke:red;stroke-width:1px;stroke-linecap:butt;stroke-linejoin:miter;stroke-opacity:1" d="M 687.136,414.608 687.136,432.777 z" id="boundary" inkscape:connector-curvature="0" />
	<path style="fill:none;stroke:red;stroke-width:1px;stroke-linecap:butt;stroke-linejoin:miter;stroke-opacity:1" d="M 687.136,432.777 696.22,449.128 z" id="boundary" inkscape:connector-curvature="0" />
	<path style="fill:none;stroke:red;stroke-width:1px;stroke-linecap:butt;stroke-linejoin:miter;stroke-opacity:1" d="M 696.22,449.128 714.388,449.128 z" id="boundary" inkscape:connector-curvature="0" />
	<path style="fill:none;stroke:red;stroke-width:1px;stroke-linecap:butt;stroke-linejoin:miter;stroke-opacity:1" d="M 714.388,449.128 732.557,454.579 z" id="boundary" inkscape:connector-curvature="0" />
	<path style="fill:none;stroke:red;stroke-width:1px;stroke-linecap:butt;stroke-linejoin:miter;stroke-opacity:1" d="M 732.557,454.579 741.641,470.93 z" id="boundary" inkscape:connector-curvature="0" />
	<path style="fill:none;stroke:red;stroke-width:1px;stroke-linecap:butt;stroke-linejoin:miter;stroke-opacity:1" d="M 741.641,470.93 747.092,489.099 z" id="boundary" inkscape:connector-curvature="0" />
	<path style="fill:none;stroke:red;stroke-width:1px;stroke-linecap:butt;stroke-linejoin:miter;stroke-opacity:1" d="M 747.092,489.099 750.725,507.267 z" id="boundary" inkscape:connector-curvature="0" />
	<path style="fill:none;stroke:red;stroke-width:1px;stroke-linecap:butt;stroke-linejoin:miter;stroke-opacity:1" d="M 750.725,507.267 739.824,523.619 z" id="boundary" inkscape:connector-curvature="0" />
	<path style="fill:none;stroke:red;stroke-width:1px;stroke-linecap:butt;stroke-linejoin:miter;stroke-opacity:1" d="M 739.824,523.619 721.656,527.253 z" id="boundary" inkscape:connector-curvature="0" />
	<path style="fill:none;stroke:red;stroke-width:1px;stroke-linecap:butt;stroke-linejoin:miter;stroke-opacity:1" d="M 721.656,527.253 703.487,523.619 z" id="boundary" inkscape:connector-curvature="0" />
	<path style="fill:none;stroke:red;stroke-width:1px;stroke-linecap:butt;stroke-linejoin:miter;stroke-opacity:1" d="M 703.487,523.619 687.136,532.703 z" id="boundary" inkscape:connector-curvature="0" />
	<path style="fill:none;stroke:red;stroke-width:1px;stroke-linecap:butt;stroke-linejoin:miter;stroke-opacity:1" d="M 687.136,532.703 670.784,541.788 z" id="boundary" inkscape:connector-curvature="0" />
	<path style="fill:none;stroke:red;stroke-width:1px;stroke-linecap:butt;stroke-linejoin:miter;stroke-opacity:1" d="M 670.784,541.788 654.432,550.872 z" id="boundary" inkscape:connector-curvature="0" />
	<path style="fill:none;stroke:red;stroke-width:1px;stroke-linecap:butt;stroke-linejoin:miter;stroke-opacity:1" d="M 654.432,550.872 638.081,541.788 z" id="boundary" inkscape:connector-curvature="0" />
	<path style="fill:none;stroke:red;stroke-width:1px;stroke-linecap:butt;stroke-linejoin:miter;stroke-opacity:1" d="M 638.081,541.788 621.729,550.872 z" id="boundary" inkscape:connector-curvature="0" />
	<path style="fill:none;stroke:red;stroke-width:1px;stroke-linecap:butt;stroke-linejoin:miter;stroke-opacity:1" d="M 621.729,550.872 603.56,550.872 z" id="boundary" inkscape:connector-curvature="0" />
	<path style="fill:none;stroke:red;stroke-width:1px;stroke-linecap:butt;stroke-linejoin:miter;stroke-opacity:1" d="M 603.56,550.872 585.392,550.872 z" id="boundary" inkscape:connector-curvature="0" />
	<path style="fill:none;stroke:red;stroke-width:1px;stroke-linecap:butt;stroke-linejoin:miter;stroke-opacity:1" d="M 585.392,550.872 567.223,550.872 z" id="boundary" inkscape:connector-curvature="0" />
	<path style="fill:none;stroke:red;stroke-width:1px;stroke-linecap:butt;stroke-linejoin:miter;stroke-opacity:1" d="M 567.223,550.872 549.055,550.872 z" id="boundary" inkscape:connector-curvature="0" />
	<path style="fill:none;stroke:red;stroke-width:1px;stroke-linecap:butt;stroke-linejoin:miter;stroke-opacity:1" d="M 549.055,550.872 530.886,550.872 z" id="boundary" inkscape:connector-curvature="0" />
	<path style="fill:none;stroke:red;stroke-width:1px;stroke-linecap:butt;stroke-linejoin:miter;stroke-opacity:1" d="M 530.886,550.872 512.718,550.872 z" id="boundary" inkscape:connector-curvature="0" />
	<path style="fill:none;stroke:red;stroke-width:1px;stroke-linecap:butt;stroke-linejoin:miter;stroke-opacity:1" d="M 512.718,550.872 494.549,550.872 z" id="boundary" inkscape:connector-curvature="0" />
	<path style="fill:none;stroke:red;stroke-width:1px;stroke-linecap:butt;stroke-linejoin:miter;stroke-opacity:1" d="M 494.549,550.872 476.381,550.872 z" id="boundary" inkscape:connector-curvature="0" />
	<path style="fill:none;stroke:red;stroke-width:1px;stroke-linecap:butt;stroke-linejoin:miter;stroke-opacity:1" d="M 476.381,550.872 458.212,550.872 z" id="boundary" inkscape:connector-curvature="0" />
	<path style="fill:none;stroke:red;stroke-width:1px;stroke-linecap:butt;stroke-linejoin:miter;stroke-opacity:1" d="M 458.212,550.872 441.861,559.956 z" id="boundary" inkscape:connector-curvature="0" />
	<path style="fill:none;stroke:red;stroke-width:1px;stroke-linecap:butt;stroke-linejoin:miter;stroke-opacity:1" d="M 441.861,559.956 441.861,578.125 z" id="boundary" inkscape:connector-curvature="0" />
	<path style="fill:none;stroke:red;stroke-width:1px;stroke-linecap:butt;stroke-linejoin:miter;stroke-opacity:1" d="M 441.861,578.125 441.861,596.293 z" id="boundary" inkscape:connector-curvature="0" />
	<path style="fill:none;stroke:red;stroke-width:1px;stroke-linecap:butt;stroke-linejoin:miter;stroke-opacity:1" d="M 441.861,596.293 434.593,623.546 z" id="boundary" inkscape:connector-curvature="0" />
	<path style="fill:none;stroke:red;stroke-width:1px;stroke-linecap:butt;stroke-linejoin:miter;stroke-opacity:1" d="M 434.593,623.546 416.425,623.546 z" id="boundary" inkscape:connector-curvature="0" />
	<path style="fill:none;stroke:red;stroke-width:1px;stroke-linecap:butt;stroke-linejoin:miter;stroke-opacity:1" d="M 416.425,623.546 400.073,632.63 z" id="boundary" inkscape:connector-curvature="0" />
	<path style="fill:none;stroke:red;stroke-width:1px;stroke-linecap:butt;stroke-linejoin:miter;stroke-opacity:1" d="M 400.073,632.63 385.538,645.348 z" id="boundary" inkscape:connector-curvature="0" />
	<path style="fill:none;stroke:red;stroke-width:1px;stroke-linecap:butt;stroke-linejoin:miter;stroke-opacity:1" d="M 385.538,645.348 367.37,641.714 z" id="boundary" inkscape:connector-curvature="0" />
	<path style="fill:none;stroke:red;stroke-width:1px;stroke-linecap:butt;stroke-linejoin:miter;stroke-opacity:1" d="M 367.37,641.714 351.018,650.799 z" id="boundary" inkscape:connector-curvature="0" />
	<path style="fill:none;stroke:red;stroke-width:1px;stroke-linecap:butt;stroke-linejoin:miter;stroke-opacity:1" d="M 351.018,650.799 332.85,650.799 z" id="boundary" inkscape:connector-curvature="0" />
	<path style="fill:none;stroke:red;stroke-width:1px;stroke-linecap:butt;stroke-linejoin:miter;stroke-opacity:1" d="M 332.85,650.799 314.681,650.799 z" id="boundary" inkscape:connector-curvature="0" />
	<path style="fill:none;stroke:red;stroke-width:1px;stroke-linecap:butt;stroke-linejoin:miter;stroke-opacity:1" d="M 314.681,650.799 300.147,667.15 z" id="boundary" inkscape:connector-curvature="0" />
	<path style="fill:none;stroke:red;stroke-width:1px;stroke-linecap:butt;stroke-linejoin:miter;stroke-opacity:1" d="M 300.147,667.15 281.978,659.883 z" id="boundary" inkscape:connector-curvature="0" />
	<path style="fill:none;stroke:red;stroke-width:1px;stroke-linecap:butt;stroke-linejoin:miter;stroke-opacity:1" d="M 281.978,659.883 265.626,668.967 z" id="boundary" inkscape:connector-curvature="0" />
	<path style="fill:none;stroke:red;stroke-width:1px;stroke-linecap:butt;stroke-linejoin:miter;stroke-opacity:1" d="M 265.626,668.967 249.275,678.051 z" id="boundary" inkscape:connector-curvature="0" />
	<path style="fill:none;stroke:red;stroke-width:1px;stroke-linecap:butt;stroke-linejoin:miter;stroke-opacity:1" d="M 249.275,678.051 232.923,668.967 z" id="boundary" inkscape:connector-curvature="0" />
	<path style="fill:none;stroke:red;stroke-width:1px;stroke-linecap:butt;stroke-linejoin:miter;stroke-opacity:1" d="M 232.923,668.967 216.571,678.051 z" id="boundary" inkscape:connector-curvature="0" />
	<path style="fill:none;stroke:red;stroke-width:1px;stroke-linecap:butt;stroke-linejoin:miter;stroke-opacity:1" d="M 216.571,678.051 198.403,678.051 z" id="boundary" inkscape:connector-curvature="0" />
	<path style="fill:none;stroke:red;stroke-width:1px;stroke-linecap:butt;stroke-linejoin:miter;stroke-opacity:1" d="M 198.403,678.051 180.234,678.051 z" id="boundary" inkscape:connector-curvature="0" />
	<path style="fill:none;stroke:red;stroke-width:1px;stroke-linecap:butt;stroke-linejoin:miter;stroke-opacity:1" d="M 180.234,678.051 162.066,678.051 z" id="boundary" inkscape:connector-curvature="0" />
	<path style="fill:none;stroke:red;stroke-width:1px;stroke-linecap:butt;stroke-linejoin:miter;stroke-opacity:1" d="M 162.066,678.051 143.897,678.051 z" id="boundary" inkscape:connector-curvature="0" />
	<path style="fill:none;stroke:red;stroke-width:1px;stroke-linecap:butt;stroke-linejoin:miter;stroke-opacity:1" d="M 143.897,678.051 125.729,678.051 z" id="boundary" inkscape:connector-curvature="0" />
	<path style="fill:none;stroke:red;stroke-width:1px;stroke-linecap:butt;stroke-linejoin:miter;stroke-opacity:1" d="M 125.729,678.051 107.56,678.051 z" id="boundary" inkscape:connector-curvature="0" />
	<path style="fill:none;stroke:red;stroke-width:1px;stroke-linecap:butt;stroke-linejoin:miter;stroke-opacity:1" d="M 107.56,678.051 89.3919,678.051 z" id="boundary" inkscape:connector-curvature="0" />
	<path style="fill:none;stroke:red;stroke-width:1px;stroke-linecap:butt;stroke-linejoin:miter;stroke-opacity:1" d="M 89.3919,678.051 71.2234,678.051 z" id="boundary" inkscape:connector-curvature="0" />
	<path style="fill:none;stroke:red;stroke-width:1px;stroke-linecap:butt;stroke-linejoin:miter;stroke-opacity:1" d="M 71.2234,678.051 53.0549,678.051 z" id="boundary" inkscape:connector-curvature="0" />
	<path style="fill:none;stroke:red;stroke-width:1px;stroke-linecap:butt;stroke-linejoin:miter;stroke-opacity:1" d="M 53.0549,678.051 36.7033,668.967 z" id="boundary" inkscape:connector-curvature="0" />
	<path style="fill:none;stroke:red;stroke-width:1px;stroke-linecap:butt;stroke-linejoin:miter;stroke-opacity:1" d="M 36.7033,668.967 18.5348,667.15 z" id="boundary" inkscape:connector-curvature="0" />
	<path style="fill:none;stroke:red;stroke-width:1px;stroke-linecap:butt;stroke-linejoin:miter;stroke-opacity:1" d="M 18.5348,667.15 4,654.432 z" id="boundary" inkscape:connector-curvature="0" />
	<path style="fill:none;stroke:red;stroke-width:1px;stroke-linecap:butt;stroke-linejoin:miter;stroke-opacity:1" d="M 4,654.432 4,636.264 z" id="boundary" inkscape:connector-curvature="0" />
	<path style="fill:none;stroke:red;stroke-width:1px;stroke-linecap:butt;stroke-linejoin:miter;stroke-opacity:1" d="M 4,636.264 18.5348,621.729 z" id="boundary" inkscape:connector-curvature="0" />
	<path style="fill:none;stroke:red;stroke-width:1px;stroke-linecap:butt;stroke-linejoin:miter;stroke-opacity:1" d="M 18.5348,621.729 36.7033,621.729 z" id="boundary" inkscape:connector-curvature="0" />
	<path style="fill:none;stroke:red;stroke-width:1px;stroke-linecap:butt;stroke-linejoin:miter;stroke-opacity:1" d="M 36.7033,621.729 53.0549,630.813 z" id="boundary" inkscape:connector-curvature="0" />
	<path style="fill:none;stroke:red;stroke-width:1px;stroke-linecap:butt;stroke-linejoin:miter;stroke-opacity:1" d="M 53.0549,630.813 69.4066,639.897 z" id="boundary" inkscape:connector-curvature="0" />
	<path style="fill:none;stroke:red;stroke-width:1px;stroke-linecap:butt;stroke-linejoin:miter;stroke-opacity:1" d="M 69.4066,639.897 87.5751,639.897 z" id="boundary" inkscape:connector-curvature="0" />
	<path style="fill:none;stroke:red;stroke-width:1px;stroke-linecap:butt;stroke-linejoin:miter;stroke-opacity:1" d="M 87.5751,639.897 105.744,636.264 z" id="boundary" inkscape:connector-curvature="0" />
	<path style="fill:none;stroke:red;stroke-width:1px;stroke-linecap:butt;stroke-linejoin:miter;stroke-opacity:1" d="M 105.744,636.264 123.912,639.897 z" id="boundary" inkscape:connector-curvature="0" />
	<path style="fill:none;stroke:red;stroke-width:1px;stroke-linecap:butt;stroke-linejoin:miter;stroke-opacity:1" d="M 123.912,639.897 142.081,634.447 z" id="boundary" inkscape:connector-curvature="0" />
	<path style="fill:none;stroke:red;stroke-width:1px;stroke-linecap:butt;stroke-linejoin:miter;stroke-opacity:1" d="M 142.081,634.447 160.249,625.363 z" id="boundary" inkscape:connector-curvature="0" />
	<path style="fill:none;stroke:red;stroke-width:1px;stroke-linecap:butt;stroke-linejoin:miter;stroke-opacity:1" d="M 160.249,625.363 178.418,630.813 z" id="boundary" inkscape:connector-curvature="0" />
	<path style="fill:none;stroke:red;stroke-width:1px;stroke-linecap:butt;stroke-linejoin:miter;stroke-opacity:1" d="M 178.418,630.813 194.769,621.729 z" id="boundary" inkscape:connector-curvature="0" />
	<path style="fill:none;stroke:red;stroke-width:1px;stroke-linecap:butt;stroke-linejoin:miter;stroke-opacity:1" d="M 194.769,621.729 211.121,612.645 z" id="boundary" inkscape:connector-curvature="0" />
	<path style="fill:none;stroke:red;stroke-width:1px;stroke-linecap:butt;stroke-linejoin:miter;stroke-opacity:1" d="M 211.121,612.645 212.938,578.125 z" id="boundary" inkscape:connector-curvature="0" />
	<path style="fill:none;stroke:red;stroke-width:1px;stroke-linecap:butt;stroke-linejoin:miter;stroke-opacity:1" d="M 212.938,578.125 194.769,572.674 z" id="boundary" inkscape:connector-curvature="0" />
	<path style="fill:none;stroke:red;stroke-width:1px;stroke-linecap:butt;stroke-linejoin:miter;stroke-opacity:1" d="M 194.769,572.674 176.601,569.04 z" id="boundary" inkscape:connector-curvature="0" />
	<path style="fill:none;stroke:red;stroke-width:1px;stroke-linecap:butt;stroke-linejoin:miter;stroke-opacity:1" d="M 176.601,569.04 160.249,559.956 z" id="boundary" inkscape:connector-curvature="0" />
	<path style="fill:none;stroke:red;stroke-width:1px;stroke-linecap:butt;stroke-linejoin:miter;stroke-opacity:1" d="M 160.249,559.956 143.897,550.872 z" id="boundary" inkscape:connector-curvature="0" />
	<path style="fill:none;stroke:red;stroke-width:1px;stroke-linecap:butt;stroke-linejoin:miter;stroke-opacity:1" d="M 143.897,550.872 127.546,559.956 z" id="boundary" inkscape:connector-curvature="0" />
	<path style="fill:none;stroke:red;stroke-width:1px;stroke-linecap:butt;stroke-linejoin:miter;stroke-opacity:1" d="M 127.546,559.956 111.194,550.872 z" id="boundary" inkscape:connector-curvature="0" />
	<path style="fill:none;stroke:red;stroke-width:1px;stroke-linecap:butt;stroke-linejoin:miter;stroke-opacity:1" d="M 111.194,550.872 93.0256,550.872 z" id="boundary" inkscape:connector-curvature="0" />
	<path style="fill:none;stroke:red;stroke-width:1px;stroke-linecap:butt;stroke-linejoin:miter;stroke-opacity:1" d="M 93.0256,550.872 76.674,541.788 z" id="boundary" inkscape:connector-curvature="0" />
	<path style="fill:none;stroke:red;stroke-width:1px;stroke-linecap:butt;stroke-linejoin:miter;stroke-opacity:1" d="M 76.674,541.788 58.5055,541.788 z" id="boundary" inkscape:connector-curvature="0" />
	<path style="fill:none;stroke:red;stroke-width:1px;stroke-linecap:butt;stroke-linejoin:miter;stroke-opacity:1" d="M 58.5055,541.788 40.337,541.788 z" id="boundary" inkscape:connector-curvature="0" />
	<path style="fill:none;stroke:red;stroke-width:1px;stroke-linecap:butt;stroke-linejoin:miter;stroke-opacity:1" d="M 40.337,541.788 22.1685,541.788 z" id="boundary" inkscape:connector-curvature="0" />
	<path style="fill:none;stroke:red;stroke-width:1px;stroke-linecap:butt;stroke-linejoin:miter;stroke-opacity:1" d="M 22.1685,541.788 13.0842,525.436 z" id="boundary" inkscape:connector-curvature="0" />
	<path style="fill:none;stroke:red;stroke-width:1px;stroke-linecap:butt;stroke-linejoin:miter;stroke-opacity:1" d="M 13.0842,525.436 4,509.084 z" id="boundary" inkscape:connector-curvature="0" />
	<path style="fill:none;stroke:red;stroke-width:1px;stroke-linecap:butt;stroke-linejoin:miter;stroke-opacity:1" d="M 4,509.084 4,490.916 z" id="boundary" inkscape:connector-curvature="0" />
	<path style="fill:none;stroke:red;stroke-width:1px;stroke-linecap:butt;stroke-linejoin:miter;stroke-opacity:1" d="M 4,490.916 4,472.747 z" id="boundary" inkscape:connector-curvature="0" />
	<path style="fill:none;stroke:red;stroke-width:1px;stroke-linecap:butt;stroke-linejoin:miter;stroke-opacity:1" d="M 4,472.747 13.0842,454.579 z" id="boundary" inkscape:connector-curvature="0" />
	<path style="fill:none;stroke:red;stroke-width:1px;stroke-linecap:butt;stroke-linejoin:miter;stroke-opacity:1" d="M 13.0842,454.579 13.0842,436.41 z" id="boundary" inkscape:connector-curvature="0" />
	<path style="fill:none;stroke:red;stroke-width:1px;stroke-linecap:butt;stroke-linejoin:miter;stroke-opacity:1" d="M 13.0842,436.41 13.0842,418.242 z" id="boundary" inkscape:connector-curvature="0" />
	<path style="fill:none;stroke:red;stroke-width:1px;stroke-linecap:butt;stroke-linejoin:miter;stroke-opacity:1" d="M 13.0842,418.242 22.1685,400.073 z" id="boundary" inkscape:connector-curvature="0" />
	<path style="fill:none;stroke:red;stroke-width:1px;stroke-linecap:butt;stroke-linejoin:miter;stroke-opacity:1" d="M 22.1685,400.073 31.2527,380.088 z" id="boundary" inkscape:connector-curvature="0" />
	<path style="fill:none;stroke:red;stroke-width:1px;stroke-linecap:butt;stroke-linejoin:miter;stroke-opacity:1" d="M 31.2527,380.088 22.1685,363.736 z" id="boundary" inkscape:connector-curvature="0" />
	<path style="fill:none;stroke:red;stroke-width:1px;stroke-linecap:butt;stroke-linejoin:miter;stroke-opacity:1" d="M 22.1685,363.736 36.7033,349.201 z" id="boundary" inkscape:connector-curvature="0" />
	<path style="fill:none;stroke:red;stroke-width:1px;stroke-linecap:butt;stroke-linejoin:miter;stroke-opacity:1" d="M 36.7033,349.201 40.337,327.399 z" id="boundary" inkscape:connector-curvature="0" />
	<path style="fill:none;stroke:red;stroke-width:1px;stroke-linecap:butt;stroke-linejoin:miter;stroke-opacity:1" d="M 40.337,327.399 40.337,309.231 z" id="boundary" inkscape:connector-curvature="0" />
	<path style="fill:none;stroke:red;stroke-width:1px;stroke-linecap:butt;stroke-linejoin:miter;stroke-opacity:1" d="M 40.337,309.231 49.4212,291.062 z" id="boundary" inkscape:connector-curvature="0" />
	<path style="fill:none;stroke:red;stroke-width:1px;stroke-linecap:butt;stroke-linejoin:miter;stroke-opacity:1" d="M 49.4212,291.062 63.956,276.527 z" id="boundary" inkscape:connector-curvature="0" />
	<path style="fill:none;stroke:red;stroke-width:1px;stroke-linecap:butt;stroke-linejoin:miter;stroke-opacity:1" d="M 63.956,276.527 78.4908,261.993 z" id="boundary" inkscape:connector-curvature="0" />
	<path style="fill:none;stroke:red;stroke-width:1px;stroke-linecap:butt;stroke-linejoin:miter;stroke-opacity:1" d="M 78.4908,261.993 93.0256,249.275 z" id="boundary" inkscape:connector-curvature="0" />
	<path style="fill:none;stroke:red;stroke-width:1px;stroke-linecap:butt;stroke-linejoin:miter;stroke-opacity:1" d="M 93.0256,249.275 105.744,234.74 z" id="boundary" inkscape:connector-curvature="0" />
	<path style="fill:none;stroke:red;stroke-width:1px;stroke-linecap:butt;stroke-linejoin:miter;stroke-opacity:1" d="M 105.744,234.74 120.278,222.022 z" id="boundary" inkscape:connector-curvature="0" />
	<path style="fill:none;stroke:red;stroke-width:1px;stroke-linecap:butt;stroke-linejoin:miter;stroke-opacity:1" d="M 120.278,222.022 136.63,212.938 z" id="boundary" inkscape:connector-curvature="0" />
	<path style="fill:none;stroke:red;stroke-width:1px;stroke-linecap:butt;stroke-linejoin:miter;stroke-opacity:1" d="M 136.63,212.938 152.982,203.853 z" id="boundary" inkscape:connector-curvature="0" />
	<path style="fill:none;stroke:red;stroke-width:1px;stroke-linecap:butt;stroke-linejoin:miter;stroke-opacity:1" d="M 152.982,203.853 169.333,194.769 z" id="boundary" inkscape:connector-curvature="0" />
	<path style="fill:none;stroke:red;stroke-width:1px;stroke-linecap:butt;stroke-linejoin:miter;stroke-opacity:1" d="M 169.333,194.769 185.685,182.051 z" id="boundary" inkscape:connector-curvature="0" />
	<path style="fill:none;stroke:red;stroke-width:1px;stroke-linecap:butt;stroke-linejoin:miter;stroke-opacity:1" d="M 185.685,182.051 200.22,167.516 z" id="boundary" inkscape:connector-curvature="0" />
	<path style="fill:none;stroke:red;stroke-width:1px;stroke-linecap:butt;stroke-linejoin:miter;stroke-opacity:1" d="M 200.22,167.516 218.388,167.516 z" id="boundary" inkscape:connector-curvature="0" />
	<path style="fill:none;stroke:red;stroke-width:1px;stroke-linecap:butt;stroke-linejoin:miter;stroke-opacity:1" d="M 218.388,167.516 234.74,158.432 z" id="boundary" inkscape:connector-curvature="0" />
	<path style="fill:none;stroke:red;stroke-width:1px;stroke-linecap:butt;stroke-linejoin:miter;stroke-opacity:1" d="M 234.74,158.432 252.908,160.249 z" id="boundary" inkscape:connector-curvature="0" />
	<path style="fill:none;stroke:red;stroke-width:1px;stroke-linecap:butt;stroke-linejoin:miter;stroke-opacity:1" d="M 252.908,160.249 271.077,158.432 z" id="boundary" inkscape:connector-curvature="0" />
	<path style="fill:none;stroke:red;stroke-width:1px;stroke-linecap:butt;stroke-linejoin:miter;stroke-opacity:1" d="M 271.077,158.432 289.245,158.432 z" id="boundary" inkscape:connector-curvature="0" />
	<path style="fill:none;stroke:red;stroke-width:1px;stroke-linecap:butt;stroke-linejoin:miter;stroke-opacity:1" d="M 289.245,158.432 307.414,158.432 z" id="boundary" inkscape:connector-curvature="0" />
	<path style="fill:none;stroke:red;stroke-width:1px;stroke-linecap:butt;stroke-linejoin:miter;stroke-opacity:1" d="M 307.414,158.432 325.582,151.165 z" id="boundary" inkscape:connector-curvature="0" />
	<path style="fill:none;stroke:red;stroke-width:1px;stroke-linecap:butt;stroke-linejoin:miter;stroke-opacity:1" d="M 325.582,151.165 343.751,158.432 z" id="boundary" inkscape:connector-curvature="0" />
	<path style="fill:none;stroke:red;stroke-width:1px;stroke-linecap:butt;stroke-linejoin:miter;stroke-opacity:1" d="M 343.751,158.432 360.103,149.348 z" id="boundary" inkscape:connector-curvature="0" />
	<path style="fill:none;stroke:red;stroke-width:1px;stroke-linecap:butt;stroke-linejoin:miter;stroke-opacity:1" d="M 360.103,149.348 378.271,143.897 z" id="boundary" inkscape:connector-curvature="0" />
	<path style="fill:none;stroke:red;stroke-width:1px;stroke-linecap:butt;stroke-linejoin:miter;stroke-opacity:1" d="M 378.271,143.897 394.623,127.546 z" id="boundary" inkscape:connector-curvature="0" />
	<path style="fill:none;stroke:red;stroke-width:1px;stroke-linecap:butt;stroke-linejoin:miter;stroke-opacity:1" d="M 394.623,127.546 381.905,113.011 z" id="boundary" inkscape:connector-curvature="0" />
	<path style="fill:none;stroke:red;stroke-width:1px;stroke-linecap:butt;stroke-linejoin:miter;stroke-opacity:1" d="M 381.905,113.011 367.37,100.293 z" id="boundary" inkscape:connector-curvature="0" />
	<path style="fill:none;stroke:red;stroke-width:1px;stroke-linecap:butt;stroke-linejoin:miter;stroke-opacity:1" d="M 367.37,100.293 381.905,85.7582 z" id="boundary" inkscape:connector-curvature="0" />
	<path style="fill:none;stroke:red;stroke-width:1px;stroke-linecap:butt;stroke-linejoin:miter;stroke-opacity:1" d="M 381.905,85.7582 374.637,60.3223 z" id="boundary" inkscape:connector-curvature="0" />
	<path style="fill:none;stroke:red;stroke-width:1px;stroke-linecap:butt;stroke-linejoin:miter;stroke-opacity:1" d="M 374.637,60.3223 356.469,60.3223 z" id="boundary" inkscape:connector-curvature="0" />
	<path style="fill:none;stroke:red;stroke-width:1px;stroke-linecap:butt;stroke-linejoin:miter;stroke-opacity:1" d="M 356.469,60.3223 340.117,51.2381 z" id="boundary" inkscape:connector-curvature="0" />
	<path style="fill:none;stroke:red;stroke-width:1px;stroke-linecap:butt;stroke-linejoin:miter;stroke-opacity:1" d="M 340.117,51.2381 321.949,54.8718 z" id="boundary" inkscape:connector-curvature="0" />
	<path style="fill:none;stroke:red;stroke-width:1px;stroke-linecap:butt;stroke-linejoin:miter;stroke-opacity:1" d="M 321.949,54.8718 321.949,36.7033 z" id="boundary" inkscape:connector-curvature="0" />
	<path style="fill:none;stroke:red;stroke-width:1px;stroke-linecap:butt;stroke-linejoin:miter;stroke-opacity:1" d="M 321.949,36.7033 336.484,22.1685 z" id="boundary" inkscape:connector-curvature="0" />
	<path style="fill:none;stroke:red;stroke-width:1px;stroke-linecap:butt;stroke-linejoin:miter;stroke-opacity:1" d="M 336.484,22.1685 354.652,22.1685 z" id="boundary" inkscape:connector-curvature="0" />
	<path style="fill:none;stroke:red;stroke-width:1px;stroke-linecap:butt;stroke-linejoin:miter;stroke-opacity:1" d="M 354.652,22.1685 372.821,22.1685 z" id="boundary" inkscape:connector-curvature="0" />
	<path style="fill:none;stroke:red;stroke-width:1px;stroke-linecap:butt;stroke-linejoin:miter;stroke-opacity:1" d="M 372.821,22.1685 389.172,13.0842 z" id="boundary" inkscape:connector-curvature="0" />
	<path style="fill:none;stroke:red;stroke-width:1px;stroke-linecap:butt;stroke-linejoin:miter;stroke-opacity:1" d="M 389.172,13.0842 405.524,4 z" id="boundary" inkscape:connector-curvature="0" />
	<path style="fill:none;stroke:red;stroke-width:1px;stroke-linecap:butt;stroke-linejoin:miter;stroke-opacity:1" d="M 405.524,4 423.692,4 z" id="boundary" inkscape:connector-curvature="0" />
	<path style="fill:none;stroke:red;stroke-width:1px;stroke-linecap:butt;stroke-linejoin:miter;stroke-opacity:1" d="M 423.692,4 441.861,4 z" id="boundary" inkscape:connector-curvature="0" />
	<path style="fill:none;stroke:red;stroke-width:1px;stroke-linecap:butt;stroke-linejoin:miter;stroke-opacity:1" d="M 441.861,4 460.029,9.45055 z" id="boundary" inkscape:connector-curvature="0" />
	<path style="fill:none;stroke:red;stroke-width:1px;stroke-linecap:butt;stroke-linejoin:miter;stroke-opacity:1" d="M 460.029,9.45055 450.945,33.0696 z" id="boundary" inkscape:connector-curvature="0" />
	<path style="fill:none;stroke:red;stroke-width:1px;stroke-linecap:butt;stroke-linejoin:miter;stroke-opacity:1" d="M 450.945,33.0696 432.777,42.1538 z" id="boundary" inkscape:connector-curvature="0" />
	<path style="fill:none;stroke:red;stroke-width:1px;stroke-linecap:butt;stroke-linejoin:miter;stroke-opacity:1" d="M 432.777,42.1538 414.608,42.1538 z" id="boundary" inkscape:connector-curvature="0" />
	<path style="fill:none;stroke:red;stroke-width:1px;stroke-linecap:butt;stroke-linejoin:miter;stroke-opacity:1" d="M 414.608,42.1538 414.608,60.3223 z" id="boundary" inkscape:connector-curvature="0" />
	<path style="fill:none;stroke:red;stroke-width:1px;stroke-linecap:butt;stroke-linejoin:miter;stroke-opacity:1" d="M 414.608,60.3223 414.608,78.4908 z" id="boundary" inkscape:connector-curvature="0" />
	<path style="fill:none;stroke:red;stroke-width:1px;stroke-linecap:butt;stroke-linejoin:miter;stroke-opacity:1" d="M 414.608,78.4908 429.143,89.3919 z" id="boundary" inkscape:connector-curvature="0" />
	<path style="fill:none;stroke:red;stroke-width:1px;stroke-linecap:butt;stroke-linejoin:miter;stroke-opacity:1" d="M 429.143,89.3919 432.777,107.56 z" id="boundary" inkscape:connector-curvature="0" />
	<path style="fill:none;stroke:red;stroke-width:1px;stroke-linecap:butt;stroke-linejoin:miter;stroke-opacity:1" d="M 432.777,107.56 438.227,125.729 z" id="boundary" inkscape:connector-curvature="0" />
	<path style="fill:none;stroke:red;stroke-width:1px;stroke-linecap:butt;stroke-linejoin:miter;stroke-opacity:1" d="M 438.227,125.729 456.396,131.179 z" id="boundary" inkscape:connector-curvature="0" />
	<path style="fill:none;stroke:red;stroke-width:1px;stroke-linecap:butt;stroke-linejoin:miter;stroke-opacity:1" d="M 456.396,131.179 474.564,131.179 z" id="boundary" inkscape:connector-curvature="0" />
	<path style="fill:none;stroke:red;stroke-width:1px;stroke-linecap:butt;stroke-linejoin:miter;stroke-opacity:1" d="M 474.564,131.179 492.733,131.179 z" id="boundary" inkscape:connector-curvature="0" />
	<path style="fill:none;stroke:red;stroke-width:1px;stroke-linecap:butt;stroke-linejoin:miter;stroke-opacity:1" d="M 492.733,131.179 509.084,140.264 z" id="boundary" inkscape:connector-curvature="0" />
	<path style="fill:none;stroke:red;stroke-width:1px;stroke-linecap:butt;stroke-linejoin:miter;stroke-opacity:1" d="M 509.084,140.264 527.253,140.264 z" id="boundary" inkscape:connector-curvature="0" />
	<path style="fill:none;stroke:red;stroke-width:1px;stroke-linecap:butt;stroke-linejoin:miter;stroke-opacity:1" d="M 527.253,140.264 545.421,140.264 z" id="boundary" inkscape:connector-curvature="0" />
	<path style="fill:none;stroke:red;stroke-width:1px;stroke-linecap:butt;stroke-linejoin:miter;stroke-opacity:1" d="M 545.421,140.264 563.59,140.264 z" id="boundary" inkscape:connector-curvature="0" />
	<path style="fill:none;stroke:red;stroke-width:1px;stroke-linecap:butt;stroke-linejoin:miter;stroke-opacity:1" d="M 563.59,140.264 581.758,140.264 z" id="boundary" inkscape:connector-curvature="0" />
	<path style="fill:none;stroke:red;stroke-width:1px;stroke-linecap:butt;stroke-linejoin:miter;stroke-opacity:1" d="M 581.758,140.264 599.927,140.264 z" id="boundary" inkscape:connector-curvature="0" />
	<path style="fill:none;stroke:red;stroke-width:1px;stroke-linecap:butt;stroke-linejoin:miter;stroke-opacity:1" d="M 599.927,140.264 605.377,158.432 z" id="boundary" inkscape:connector-curvature="0" />
	<path style="fill:none;stroke:red;stroke-width:1px;stroke-linecap:butt;stroke-linejoin:miter;stroke-opacity:1" d="M 605.377,158.432 621.729,167.516 z" id="boundary" inkscape:connector-curvature="0" />
	<path style="fill:none;stroke:red;stroke-width:1px;stroke-linecap:butt;stroke-linejoin:miter;stroke-opacity:1" d="M 621.729,167.516 639.897,162.066 z" id="boundary" inkscape:connector-curvature="0" />
	<path style="fill:none;stroke:red;stroke-width:1px;stroke-linecap:butt;stroke-linejoin:miter;stroke-opacity:1" d="M 639.897,162.066 658.066,162.066 z" id="boundary" inkscape:connector-curvature="0" />
	<path style="fill:none;stroke:red;stroke-width:1px;stroke-linecap:butt;stroke-linejoin:miter;stroke-opacity:1" d="M 658.066,162.066 674.418,171.15 z" id="boundary" inkscape:connector-curvature="0" />
	<path style="fill:none;stroke:red;stroke-width:1px;stroke-linecap:butt;stroke-linejoin:miter;stroke-opacity:1" d="M 674.418,171.15 687.136,185.685 z" id="boundary" inkscape:connector-curvature="0" />
	<path style="fill:none;stroke:red;stroke-width:1px;stroke-linecap:butt;stroke-linejoin:miter;stroke-opacity:1" d="M 687.136,185.685 687.136,214.755 z" id="boundary" inkscape:connector-curvature="0" />
	<path style="fill:none;stroke:red;stroke-width:1px;stroke-linecap:butt;stroke-linejoin:miter;stroke-opacity:1" d="M 687.136,214.755 678.051,232.923 z" id="boundary" inkscape:connector-curvature="0" />
	<path style="fill:none;stroke:red;stroke-width:1px;stroke-linecap:butt;stroke-linejoin:miter;stroke-opacity:1" d="M 678.051,232.923 659.883,232.923 z" id="boundary" inkscape:connector-curvature="0" />
	<path style="fill:none;stroke:red;stroke-width:1px;stroke-linecap:butt;stroke-linejoin:miter;stroke-opacity:1" d="M 659.883,232.923 641.714,232.923 z" id="boundary" inkscape:connector-curvature="0" />
	<path style="fill:none;stroke:red;stroke-width:1px;stroke-linecap:butt;stroke-linejoin:miter;stroke-opacity:1" d="M 641.714,232.923 623.546,242.007 z" id="boundary" inkscape:connector-curvature="0" />
	<path style="fill:none;stroke:red;stroke-width:1px;stroke-linecap:butt;stroke-linejoin:miter;stroke-opacity:1" d="M 623.546,242.007 605.377,251.092 z" id="boundary" inkscape:connector-curvature="0" />
	<path style="fill:none;stroke:red;stroke-width:1px;stroke-linecap:butt;stroke-linejoin:miter;stroke-opacity:1" d="M 605.377,251.092 614.462,267.443 z" id="boundary" inkscape:connector-curvature="0" />
	<path style="fill:none;stroke:red;stroke-width:1px;stroke-linecap:butt;stroke-linejoin:miter;stroke-opacity:1" d="M 614.462,267.443 628.996,278.344 z" id="boundary" inkscape:connector-curvature="0" />
	<path style="fill:none;stroke:red;stroke-width:1px;stroke-linecap:butt;stroke-linejoin:miter;stroke-opacity:1" d="M 628.996,278.344 647.165,285.612 z" id="boundary" inkscape:connector-curvature="0" />
	<path style="fill:none;stroke:red;stroke-width:1px;stroke-linecap:butt;stroke-linejoin:miter;stroke-opacity:1" d="M 647.165,285.612 663.516,276.527 z" id="boundary" inkscape:connector-curvature="0" />
	<path style="fill:none;stroke:red;stroke-width:1px;stroke-linecap:butt;stroke-linejoin:miter;stroke-opacity:1" d="M 663.516,276.527 681.685,267.443 z" id="boundary" inkscape:connector-curvature="0" />
	<path style="fill:none;stroke:red;stroke-width:1px;stroke-linecap:butt;stroke-linejoin:miter;stroke-opacity:1" d="M 681.685,267.443 698.037,276.527 z" id="boundary" inkscape:connector-curvature="0" />
	<path style="fill:none;stroke:red;stroke-width:1px;stroke-linecap:butt;stroke-linejoin:miter;stroke-opacity:1" d="M 698.037,276.527 716.205,276.527 z" id="boundary" inkscape:connector-curvature="0" />
	<path style="fill:none;stroke:red;stroke-width:1px;stroke-linecap:butt;stroke-linejoin:miter;stroke-opacity:1" d="M 716.205,276.527 732.557,267.443 z" id="boundary" inkscape:connector-curvature="0" />
	<path style="fill:none;stroke:red;stroke-width:1px;stroke-linecap:butt;stroke-linejoin:miter;stroke-opacity:1" d="M 732.557,267.443 750.725,263.81 z" id="boundary" inkscape:connector-curvature="0" />
	<path style="fill:none;stroke:red;stroke-width:1px;stroke-linecap:butt;stroke-linejoin:miter;stroke-opacity:1" d="M 750.725,263.81 768.894,261.993 z" id="boundary" inkscape:connector-curvature="0" />
	<path style="fill:none;stroke:red;stroke-width:1px;stroke-linecap:butt;stroke-linejoin:miter;stroke-opacity:1" d="M 768.894,261.993 783.429,249.275 z" id="boundary" inkscape:connector-curvature="0" />
	<path style="fill:none;stroke:red;stroke-width:1px;stroke-linecap:butt;stroke-linejoin:miter;stroke-opacity:1" d="M 783.429,249.275 801.597,249.275 z" id="boundary" inkscape:connector-curvature="0" />
	<path style="fill:none;stroke:red;stroke-width:1px;stroke-linecap:butt;stroke-linejoin:miter;stroke-opacity:1" d="M 801.597,249.275 819.766,249.275 z" id="boundary" inkscape:connector-curvature="0" />
	<path style="fill:none;stroke:red;stroke-width:1px;stroke-linecap:butt;stroke-linejoin:miter;stroke-opacity:1" d="M 819.766,249.275 837.934,249.275 z" id="boundary" inkscape:connector-curvature="0" />
	<path style="fill:none;stroke:red;stroke-width:1px;stroke-linecap:butt;stroke-linejoin:miter;stroke-opacity:1" d="M 837.934,249.275 856.103,249.275 z" id="boundary" inkscape:connector-curvature="0" />
	<path style="fill:none;stroke:red;stroke-width:1px;stroke-linecap:butt;stroke-linejoin:miter;stroke-opacity:1" d="M 856.103,249.275 874.271,249.275 z" id="boundary" inkscape:connector-curvature="0" />
	<path style="fill:none;stroke:red;stroke-width:1px;stroke-linecap:butt;stroke-linejoin:miter;stroke-opacity:1" d="M 874.271,249.275 892.44,249.275 z" id="boundary" inkscape:connector-curvature="0" />
	<path style="fill:none;stroke:red;stroke-width:1px;stroke-linecap:butt;stroke-linejoin:miter;stroke-opacity:1" d="M 892.44,249.275 910.608,249.275 z" id="boundary" inkscape:connector-curvature="0" />
	<path style="fill:none;stroke:red;stroke-width:1px;stroke-linecap:butt;stroke-linejoin:miter;stroke-opacity:1" d="M 910.608,249.275 928.777,249.275 z" id="boundary" inkscape:connector-curvature="0" />
	<path style="fill:none;stroke:red;stroke-width:1px;stroke-linecap:butt;stroke-linejoin:miter;stroke-opacity:1" d="M 928.777,249.275 946.945,249.275 z" id="boundary" inkscape:connector-curvature="0" />
	<path style="fill:none;stroke:red;stroke-width:1px;stroke-linecap:butt;stroke-linejoin:miter;stroke-opacity:1" d="M 946.945,249.275 965.114,249.275 z" id="boundary" inkscape:connector-curvature="0" />
	<path style="fill:none;stroke:red;stroke-width:1px;stroke-linecap:butt;stroke-linejoin:miter;stroke-opacity:1" d="M 965.114,249.275 983.282,249.275 z" id="boundary" inkscape:connector-curvature="0" />
	<circle cx="4" cy="472.747" r="4" fill="#0" id="circle0"/>
	<circle cx="4" cy="490.916" r="4" fill="#0" id="circle1"/>
	<circle cx="4" cy="509.084" r="4" fill="#0" id="circle2"/>
	<circle cx="4" cy="636.264" r="4" fill="#0" id="circle3"/>
	<circle cx="4" cy="654.432" r="4" fill="#0" id="circle4"/>
	<circle cx="13.0842" cy="418.242" r="4" fill="#0" id="circle5"/>
	<circle cx="13.0842" cy="436.41" r="4" fill="#0" id="circle6"/>
	<circle cx="13.0842" cy="454.579" r="4" fill="#0" id="circle7"/>
	<circle cx="13.0842" cy="525.436" r="4" fill="#0" id="circle8"/>
	<circle cx="18.5348" cy="621.729" r="4" fill="#0" id="circle9"/>
	<circle cx="18.5348" cy="667.15" r="4" fill="#0" id="circle10"/>
	<circle cx="22.1685" cy="363.736" r="4" fill="#0" id="circle11"/>
	<circle cx="22.1685" cy="400.073" r="4" fill="#0" id="circle12"/>
	<circle cx="22.1685" cy="541.788" r="4" fill="#0" id="circle13"/>
	<circle cx="31.2527" cy="380.088" r="4" fill="#0" id="circle14"/>
	<circle cx="36.7033" cy="349.201" r="4" fill="#0" id="circle15"/>
	<circle cx="36.7033" cy="621.729" r="4" fill="#0" id="circle16"/>
	<circle cx="36.7033" cy="668.967" r="4" fill="#0" id="circle17"/>
	<circle cx="40.337" cy="309.231" r="4" fill="#0" id="circle18"/>
	<circle cx="40.337" cy="327.399" r="4" fill="#0" id="circle19"/>
	<circle cx="40.337" cy="541.788" r="4" fill="#0" id="circle20"/>
	<circle cx="49.4212" cy="291.062" r="4" fill="#0" id="circle21"/>
	<circle cx="53.0549" cy="630.813" r="4" fill="#0" id="circle22"/>
	<circle cx="53.0549" cy="678.051" r="4" fill="#0" id="circle23"/>
	<circle cx="58.5055" cy="541.788" r="4" fill="#0" id="circle24"/>
	<circle cx="63.956" cy="276.527" r="4" fill="#0" id="circle25"/>
	<circle cx="69.4066" cy="639.897" r="4" fill="#0" id="circle26"/>
	<circle cx="71.2234" cy="678.051" r="4" fill="#0" id="circle27"/>
	<circle cx="76.674" cy="541.788" r="4" fill="#0" id="circle28"/>
	<circle cx="78.4908" cy="261.993" r="4" fill="#0" id="circle29"/>
	<circle cx="87.5751" cy="639.897" r="4" fill="#0" id="circle30"/>
	<circle cx="89.3919" cy="678.051" r="4" fill="#0" id="circle31"/>
	<circle cx="93.0256" cy="249.275" r="4" fill="#0" id="circle32"/>
	<circle cx="93.0256" cy="550.872" r="4" fill="#0" id="circle33"/>
	<circle cx="105.744" cy="234.74" r="4" fill="#0" id="circle34"/>
	<circle cx="105.744" cy="636.264" r="4" fill="#0" id="circle35"/>
	<circle cx="107.56" cy="678.051" r="4" fill="#0" id="circle36"/>
	<circle cx="111.194" cy="550.872" r="4" fill="#0" id="circle37"/>
	<circle cx="120.278" cy="222.022" r="4" fill="#0" id="circle38"/>
	<circle cx="123.912" cy="639.897" r="4" fill="#0" id="circle39"/>
	<circle cx="125.729" cy="678.051" r="4" fill="#0" id="circle40"/>
	<circle cx="127.546" cy="559.956" r="4" fill="#0" id="circle41"/>
	<circle cx="136.63" cy="212.938" r="4" fill="#0" id="circle42"/>
	<circle cx="142.081" cy="634.447" r="4" fill="#0" id="circle43"/>
	<circle cx="143.897" cy="550.872" r="4" fill="#0" id="circle44"/>
	<circle cx="143.897" cy="678.051" r="4" fill="#0" id="circle45"/>
	<circle cx="152.982" cy="203.853" r="4" fill="#0" id="circle46"/>
	<circle cx="160.249" cy="559.956" r="4" fill="#0" id="circle47"/>
	<circle cx="160.249" cy="625.363" r="4" fill="#0" id="circle48"/>
	<circle cx="162.066" cy="678.051" r="4" fill="#0" id="circle49"/>
	<circle cx="169.333" cy="194.769" r="4" fill="#0" id="circle50"/>
	<circle cx="176.601" cy="569.04" r="4" fill="#0" id="circle51"/>
	<circle cx="178.418" cy="630.813" r="4" fill="#0" id="circle52"/>
	<circle cx="180.234" cy="678.051" r="4" fill="#0" id="circle53"/>
	<circle cx="185.685" cy="182.051" r="4" fill="#0" id="circle54"/>
	<circle cx="194.769" cy="572.674" r="4" fill="#0" id="circle55"/>
	<circle cx="194.769" cy="621.729" r="4" fill="#0" id="circle56"/>
	<circle cx="198.403" cy="678.051" r="4" fill="#0" id="circle57"/>
	<circle cx="200.22" cy="167.516" r="4" fill="#0" id="circle58"/>
	<circle cx="211.121" cy="612.645" r="4" fill="#0" id="circle59"/>
	<circle cx="212.938" cy="578.125" r="4" fill="#0" id="circle60"/>
	<circle cx="216.571" cy="678.051" r="4" fill="#0" id="circle61"/>
	<circle cx="218.388" cy="167.516" r="4" fill="#0" id="circle62"/>
	<circle cx="232.923" cy="668.967" r="4" fill="#0" id="circle63"/>
	<circle cx="234.74" cy="158.432" r="4" fill="#0" id="circle64"/>
	<circle cx="249.275" cy="678.051" r="4" fill="#0" id="circle65"/>
	<circle cx="252.908" cy="160.249" r="4" fill="#0" id="circle66"/>
	<circle cx="265.626" cy="668.967" r="4" fill="#0" id="circle67"/>
	<circle cx="271.077" cy="158.432" r="4" fill="#0" id="circle68"/>
	<circle cx="281.978" cy="659.883" r="4" fill="#0" id="circle69"/>
	<circle cx="289.245" cy="158.432" r="4" fill="#0" id="circle70"/>
	<circle cx="300.147" cy="667.15" r="4" fill="#0" id="circle71"/>
	<circle cx="307.414" cy="158.432" r="4" fill="#0" id="circle72"/>
	<circle cx="314.681" cy="650.799" r="4" fill="#0" id="circle73"/>
	<circle cx="321.949" cy="36.7033" r="4" fill="#0" id="circle74"/>
	<circle cx="321.949" cy="54.8718" r="4" fill="#0" id="circle75"/>
	<circle cx="325.582" cy="151.165" r="4" fill="#0" id="circle76"/>
	<circle cx="332.85" cy="650.799" r="4" fill="#0" id="circle77"/>
	<circle cx="336.484" cy="22.1685" r="4" fill="#0" id="circle78"/>
	<circle cx="340.117" cy="51.2381" r="4" fill="#0" id="circle79"/>
	<circle cx="343.751" cy="158.432" r="4" fill="#0" id="circle80"/>
	<circle cx="351.018" cy="650.799" r="4" fill="#0" id="circle81"/>
	<circle cx="354.652" cy="22.1685" r="4" fill="#0" id="circle82"/>
	<circle cx="356.469" cy="60.3223" r="4" fill="#0" id="circle83"/>
	<circle cx="360.103" cy="149.348" r="4" fill="#0" id="circle84"/>
	<circle cx="367.37" cy="100.293" r="4" fill="#0" id="circle85"/>
	<circle cx="367.37" cy="641.714" r="4" fill="#0" id="circle86"/>
	<circle cx="372.821" cy="22.1685" r="4" fill="#0" id="circle87"/>
	<circle cx="374.637" cy="60.3223" r="4" fill="#0" id="circle88"/>
	<circle cx="378.271" cy="143.897" r="4" fill="#0" id="circle89"/>
	<circle cx="381.905" cy="85.7582" r="4" fill="#0" id="circle90"/>
	<circle cx="381.905" cy="113.011" r="4" fill="#0" id="circle91"/>
	<circle cx="385.538" cy="645.348" r="4" fill="#0" id="circle92"/>
	<circle cx="389.172" cy="13.0842" r="4" fill="#0" id="circle93"/>
	<circle cx="394.623" cy="127.546" r="4" fill="#0" id="circle94"/>
	<circle cx="400.073" cy="632.63" r="4" fill="#0" id="circle95"/>
	<circle cx="405.524" cy="4" r="4" fill="#0" id="circle96"/>
	<circle cx="414.608" cy="42.1538" r="4" fill="#0" id="circle97"/>
	<circle cx="414.608" cy="60.3223" r="4" fill="#0" id="circle98"/>
	<circle cx="414.608" cy="78.4908" r="4" fill="#0" id="circle99"/>
	<circle cx="416.425" cy="623.546" r="4" fill="#0" id="circle100"/>
	<circle cx="423.692" cy="4" r="4" fill="#0" id="circle101"/>
	<circle cx="429.143" cy="89.3919" r="4" fill="#0" id="circle102"/>
	<circle cx="432.777" cy="42.1538" r="4" fill="#0" id="circle103"/>
	<circle cx="432.777" cy="107.56" r="4" fill="#0" id="circle104"/>
	<circle cx="434.593" cy="623.546" r="4" fill="#0" id="circle105"/>
	<circle cx="438.227" cy="125.729" r="4" fill="#0" id="circle106"/>
	<circle cx="441.861" cy="4" r="4" fill="#0" id="circle107"/>
	<circle cx="441.861" cy="559.956" r="4" fill="#0" id="circle108"/>
	<circle cx="441.861" cy="578.125" r="4" fill="#0" id="circle109"/>
	<circle cx="441.861" cy="596.293" r="4" fill="#0" id="circle110"/>
	<circle cx="450.945" cy="33.0696" r="4" fill="#0" id="circle111"/>
	<circle cx="456.396" cy="131.179" r="4" fill="#0" id="circle112"/>
	<circle cx="458.212" cy="550.872" r="4" fill="#0" id="circle113"/>
	<circle cx="460.029" cy="9.45055" r="4" fill="#0" id="circle114"/>
	<circle cx="474.564" cy="131.179" r="4" fill="#0" id="circle115"/>
	<circle cx="476.381" cy="550.872" r="4" fill="#0" id="circle116"/>
	<circle cx="492.733" cy="131.179" r="4" fill="#0" id="circle117"/>
	<circle cx="494.549" cy="550.872" r="4" fill="#0" id="circle118"/>
	<circle cx="509.084" cy="140.264" r="4" fill="#0" id="circle119"/>
	<circle cx="512.718" cy="550.872" r="4" fill="#0" id="circle120"/>
	<circle cx="527.253" cy="140.264" r="4" fill="#0" id="circle121"/>
	<circle cx="530.886" cy="550.872" r="4" fill="#0" id="circle122"/>
	<circle cx="545.421" cy="140.264" r="4" fill="#0" id="circle123"/>
	<circle cx="549.055" cy="550.872" r="4" fill="#0" id="circle124"/>
	<circle cx="563.59" cy="140.264" r="4" fill="#0" id="circle125"/>
	<circle cx="567.223" cy="550.872" r="4" fill="#0" id="circle126"/>
	<circle cx="581.758" cy="140.264" r="4" fill="#0" id="circle127"/>
	<circle cx="585.392" cy="550.872" r="4" fill="#0" id="circle128"/>
	<circle cx="599.927" cy="140.264" r="4" fill="#0" id="circle129"/>
	<circle cx="603.56" cy="550.872" r="4" fill="#0" id="circle130"/>
	<circle cx="605.377" cy="158.432" r="4" fill="#0" id="circle131"/>
	<circle cx="605.377" cy="251.092" r="4" fill="#0" id="circle132"/>
	<circle cx="614.462" cy="267.443" r="4" fill="#0" id="circle133"/>
	<circle cx="621.729" cy="167.516" r="4" fill="#0" id="circle134"/>
	<circle cx="621.729" cy="550.872" r="4" fill="#0" id="circle135"/>
	<circle cx="623.546" cy="242.007" r="4" fill="#0" id="circle136"/>
	<circle cx="628.996" cy="278.344" r="4" fill="#0" id="circle137"/>
	<circle cx="638.081" cy="541.788" r="4" fill="#0" id="circle138"/>
	<circle cx="639.897" cy="162.066" r="4" fill="#0" id="circle139"/>
	<circle cx="641.714" cy="232.923" r="4" fill="#0" id="circle140"/>
	<circle cx="647.165" cy="285.612" r="4" fill="#0" id="circle141"/>
	<circle cx="654.432" cy="550.872" r="4" fill="#0" id="circle142"/>
	<circle cx="658.066" cy="162.066" r="4" fill="#0" id="circle143"/>
	<circle cx="659.883" cy="232.923" r="4" fill="#0" id="circle144"/>
	<circle cx="663.516" cy="276.527" r="4" fill="#0" id="circle145"/>
	<circle cx="670.784" cy="541.788" r="4" fill="#0" id="circle146"/>
	<circle cx="674.418" cy="171.15" r="4" fill="#0" id="circle147"/>
	<circle cx="678.051" cy="232.923" r="4" fill="#0" id="circle148"/>
	<circle cx="681.685" cy="267.443" r="4" fill="#0" id="circle149"/>
	<circle cx="687.136" cy="185.685" r="4" fill="#0" id="circle150"/>
	<circle cx="687.136" cy="214.755" r="4" fill="#0" id="circle151"/>
	<circle cx="687.136" cy="414.608" r="4" fill="#0" id="circle152"/>
	<circle cx="687.136" cy="432.777" r="4" fill="#0" id="circle153"/>
	<circle cx="687.136" cy="532.703" r="4" fill="#0" id="circle154"/>
	<circle cx="696.22" cy="449.128" r="4" fill="#0" id="circle155"/>
	<circle cx="698.037" cy="276.527" r="4" fill="#0" id="circle156"/>
	<circle cx="703.487" cy="523.619" r="4" fill="#0" id="circle157"/>
	<circle cx="705.304" cy="414.608" r="4" fill="#0" id="circle158"/>
	<circle cx="714.388" cy="449.128" r="4" fill="#0" id="circle159"/>
	<circle cx="716.205" cy="276.527" r="4" fill="#0" id="circle160"/>
	<circle cx="721.656" cy="527.253" r="4" fill="#0" id="circle161"/>
	<circle cx="723.473" cy="405.524" r="4" fill="#0" id="circle162"/>
	<circle cx="732.557" cy="267.443" r="4" fill="#0" id="circle163"/>
	<circle cx="732.557" cy="454.579" r="4" fill="#0" id="circle164"/>
	<circle cx="739.824" cy="523.619" r="4" fill="#0" id="circle165"/>
	<circle cx="741.641" cy="396.44" r="4" fill="#0" id="circle166"/>
	<circle cx="741.641" cy="470.93" r="4" fill="#0" id="circle167"/>
	<circle cx="747.092" cy="489.099" r="4" fill="#0" id="circle168"/>
	<circle cx="750.725" cy="263.81" r="4" fill="#0" id="circle169"/>
	<circle cx="750.725" cy="507.267" r="4" fill="#0" id="circle170"/>
	<circle cx="759.81" cy="396.44" r="4" fill="#0" id="circle171"/>
	<circle cx="768.894" cy="261.993" r="4" fill="#0" id="circle172"/>
	<circle cx="777.978" cy="387.355" r="4" fill="#0" id="circle173"/>
	<circle cx="783.429" cy="249.275" r="4" fill="#0" id="circle174"/>
	<circle cx="794.33" cy="378.271" r="4" fill="#0" id="circle175"/>
	<circle cx="801.597" cy="249.275" r="4" fill="#0" id="circle176"/>
	<circle cx="808.864" cy="367.37" r="4" fill="#0" id="circle177"/>
	<circle cx="819.766" cy="249.275" r="4" fill="#0" id="circle178"/>
	<circle cx="823.399" cy="351.018" r="4" fill="#0" id="circle179"/>
	<circle cx="837.934" cy="249.275" r="4" fill="#0" id="circle180"/>
	<circle cx="841.568" cy="351.018" r="4" fill="#0" id="circle181"/>
	<circle cx="856.103" cy="249.275" r="4" fill="#0" id="circle182"/>
	<circle cx="857.919" cy="341.934" r="4" fill="#0" id="circle183"/>
	<circle cx="872.454" cy="331.033" r="4" fill="#0" id="circle184"/>
	<circle cx="874.271" cy="249.275" r="4" fill="#0" id="circle185"/>
	<circle cx="886.989" cy="314.681" r="4" fill="#0" id="circle186"/>
	<circle cx="892.44" cy="249.275" r="4" fill="#0" id="circle187"/>
	<circle cx="905.158" cy="314.681" r="4" fill="#0" id="circle188"/>
	<circle cx="910.608" cy="249.275" r="4" fill="#0" id="circle189"/>
	<circle cx="923.326" cy="314.681" r="4" fill="#0" id="circle190"/>
	<circle cx="928.777" cy="249.275" r="4" fill="#0" id="circle191"/>
	<circle cx="941.495" cy="305.597" r="4" fill="#0" id="circle192"/>
	<circle cx="946.945" cy="249.275" r="4" fill="#0" id="circle193"/>
	<circle cx="959.663" cy="305.597" r="4" fill="#0" id="circle194"/>
	<circle cx="965.114" cy="249.275" r="4" fill="#0" id="circle195"/>
	<circle cx="968.747" cy="287.429" r="4" fill="#0" id="circle196"/>
	<circle cx="983.282" cy="249.275" r="4" fill="#0" id="circle197"/>
	<circle cx="985.099" cy="278.344" r="4" fill="#0" id="circle198"/>
	<circle cx="996" cy="263.81" r="4" fill="#0" id="circle199"/>
	</g>
</svg>