<?xml version="1.0" encoding="UTF-8" standalone="no"?>
<!-- Created with CurveBenchmark -->
<svg
	xmlns:dc="http://purl.org/dc/elements/1.1/"
	xmlns:cc="http://creativecommons.org/ns#"
	xmlns:rdf="http://www.w3.org/1999/02/22-rdf-syntax-ns#"
	xmlns:svg="http://www.w3.org/2000/svg"
	xmlns="http://www.w3.org/2000/svg"
	xmlns:sodipodi="http://sodipodi.sourceforge.net/DTD/sodipodi-0.dtd"
	xmlns:inkscape="http://www.inkscape.org/namespaces/inkscape"
	width="1000"
	height="1000"
	id="svg2"
	version="1.1"
	sodipodi:docname="manifold/connect2d-hammer305.png.txt">
<defs
	id="defs4" />
<metadata
	id="metadata7">
	<rdf:RDF>
		<cc:Work
			rdf:about="">
			<dc:format>image/svg+xml</dc:format>
			<dc:type
				rdf:resource="http://purl.org/dc/dcmitype/StillImage" />
			<dc:title></dc:title>
		</cc:Work>
	</rdf:RDF>
</metadata>
<g
	inkscape:label="Layer 1"
	inkscape:groupmode="layer"
	id="layer1">
	<path style="fill:none;stroke:red;stroke-width:1px;stroke-linecap:butt;stroke-linejoin:miter;stroke-opacity:1" d="M 291.536,18.3768 297.287,58.6319 z" id="boundary" inkscape:connector-curvature="0" />
	<path style="fill:none;stroke:red;stroke-width:1px;stroke-linecap:butt;stroke-linejoin:miter;stroke-opacity:1" d="M 297.287,58.6319 282.91,84.5101 z" id="boundary" inkscape:connector-curvature="0" />
	<path style="fill:none;stroke:red;stroke-width:1px;stroke-linecap:butt;stroke-linejoin:miter;stroke-opacity:1" d="M 282.91,84.5101 254.157,93.1362 z" id="boundary" inkscape:connector-curvature="0" />
	<path style="fill:none;stroke:red;stroke-width:1px;stroke-linecap:butt;stroke-linejoin:miter;stroke-opacity:1" d="M 254.157,93.1362 225.403,101.762 z" id="boundary" inkscape:connector-curvature="0" />
	<path style="fill:none;stroke:red;stroke-width:1px;stroke-linecap:butt;stroke-linejoin:miter;stroke-opacity:1" d="M 225.403,101.762 225.403,130.516 z" id="boundary" inkscape:connector-curvature="0" />
	<path style="fill:none;stroke:red;stroke-width:1px;stroke-linecap:butt;stroke-linejoin:miter;stroke-opacity:1" d="M 225.403,130.516 213.901,159.27 z" id="boundary" inkscape:connector-curvature="0" />
	<path style="fill:none;stroke:red;stroke-width:1px;stroke-linecap:butt;stroke-linejoin:miter;stroke-opacity:1" d="M 213.901,159.27 202.4,199.525 z" id="boundary" inkscape:connector-curvature="0" />
	<path style="fill:none;stroke:red;stroke-width:1px;stroke-linecap:butt;stroke-linejoin:miter;stroke-opacity:1" d="M 202.4,199.525 196.649,251.281 z" id="boundary" inkscape:connector-curvature="0" />
	<path style="fill:none;stroke:red;stroke-width:1px;stroke-linecap:butt;stroke-linejoin:miter;stroke-opacity:1" d="M 196.649,251.281 196.649,280.035 z" id="boundary" inkscape:connector-curvature="0" />
	<path style="fill:none;stroke:red;stroke-width:1px;stroke-linecap:butt;stroke-linejoin:miter;stroke-opacity:1" d="M 196.649,280.035 196.649,308.788 z" id="boundary" inkscape:connector-curvature="0" />
	<path style="fill:none;stroke:red;stroke-width:1px;stroke-linecap:butt;stroke-linejoin:miter;stroke-opacity:1" d="M 196.649,308.788 196.649,337.542 z" id="boundary" inkscape:connector-curvature="0" />
	<path style="fill:none;stroke:red;stroke-width:1px;stroke-linecap:butt;stroke-linejoin:miter;stroke-opacity:1" d="M 196.649,337.542 196.649,366.296 z" id="boundary" inkscape:connector-curvature="0" />
	<path style="fill:none;stroke:red;stroke-width:1px;stroke-linecap:butt;stroke-linejoin:miter;stroke-opacity:1" d="M 196.649,366.296 196.649,395.049 z" id="boundary" inkscape:connector-curvature="0" />
	<path style="fill:none;stroke:red;stroke-width:1px;stroke-linecap:butt;stroke-linejoin:miter;stroke-opacity:1" d="M 196.649,395.049 199.525,423.803 z" id="boundary" inkscape:connector-curvature="0" />
	<path style="fill:none;stroke:red;stroke-width:1px;stroke-linecap:butt;stroke-linejoin:miter;stroke-opacity:1" d="M 199.525,423.803 208.151,452.557 z" id="boundary" inkscape:connector-curvature="0" />
	<path style="fill:none;stroke:red;stroke-width:1px;stroke-linecap:butt;stroke-linejoin:miter;stroke-opacity:1" d="M 208.151,452.557 219.652,481.31 z" id="boundary" inkscape:connector-curvature="0" />
	<path style="fill:none;stroke:red;stroke-width:1px;stroke-linecap:butt;stroke-linejoin:miter;stroke-opacity:1" d="M 219.652,481.31 219.652,510.064 z" id="boundary" inkscape:connector-curvature="0" />
	<path style="fill:none;stroke:red;stroke-width:1px;stroke-linecap:butt;stroke-linejoin:miter;stroke-opacity:1" d="M 219.652,510.064 225.403,538.817 z" id="boundary" inkscape:connector-curvature="0" />
	<path style="fill:none;stroke:red;stroke-width:1px;stroke-linecap:butt;stroke-linejoin:miter;stroke-opacity:1" d="M 225.403,538.817 225.403,567.571 z" id="boundary" inkscape:connector-curvature="0" />
	<path style="fill:none;stroke:red;stroke-width:1px;stroke-linecap:butt;stroke-linejoin:miter;stroke-opacity:1" d="M 225.403,567.571 225.403,596.325 z" id="boundary" inkscape:connector-curvature="0" />
	<path style="fill:none;stroke:red;stroke-width:1px;stroke-linecap:butt;stroke-linejoin:miter;stroke-opacity:1" d="M 225.403,596.325 225.403,625.078 z" id="boundary" inkscape:connector-curvature="0" />
	<path style="fill:none;stroke:red;stroke-width:1px;stroke-linecap:butt;stroke-linejoin:miter;stroke-opacity:1" d="M 225.403,625.078 225.403,653.832 z" id="boundary" inkscape:connector-curvature="0" />
	<path style="fill:none;stroke:red;stroke-width:1px;stroke-linecap:butt;stroke-linejoin:miter;stroke-opacity:1" d="M 225.403,653.832 225.403,682.586 z" id="boundary" inkscape:connector-curvature="0" />
	<path style="fill:none;stroke:red;stroke-width:1px;stroke-linecap:butt;stroke-linejoin:miter;stroke-opacity:1" d="M 225.403,682.586 225.403,711.339 z" id="boundary" inkscape:connector-curvature="0" />
	<path style="fill:none;stroke:red;stroke-width:1px;stroke-linecap:butt;stroke-linejoin:miter;stroke-opacity:1" d="M 225.403,711.339 225.403,740.093 z" id="boundary" inkscape:connector-curvature="0" />
	<path style="fill:none;stroke:red;stroke-width:1px;stroke-linecap:butt;stroke-linejoin:miter;stroke-opacity:1" d="M 225.403,740.093 225.403,768.846 z" id="boundary" inkscape:connector-curvature="0" />
	<path style="fill:none;stroke:red;stroke-width:1px;stroke-linecap:butt;stroke-linejoin:miter;stroke-opacity:1" d="M 225.403,768.846 225.403,797.6 z" id="boundary" inkscape:connector-curvature="0" />
	<path style="fill:none;stroke:red;stroke-width:1px;stroke-linecap:butt;stroke-linejoin:miter;stroke-opacity:1" d="M 225.403,797.6 225.403,826.354 z" id="boundary" inkscape:connector-curvature="0" />
	<path style="fill:none;stroke:red;stroke-width:1px;stroke-linecap:butt;stroke-linejoin:miter;stroke-opacity:1" d="M 225.403,826.354 225.403,855.107 z" id="boundary" inkscape:connector-curvature="0" />
	<path style="fill:none;stroke:red;stroke-width:1px;stroke-linecap:butt;stroke-linejoin:miter;stroke-opacity:1" d="M 225.403,855.107 225.403,883.861 z" id="boundary" inkscape:connector-curvature="0" />
	<path style="fill:none;stroke:red;stroke-width:1px;stroke-linecap:butt;stroke-linejoin:miter;stroke-opacity:1" d="M 225.403,883.861 225.403,912.614 z" id="boundary" inkscape:connector-curvature="0" />
	<path style="fill:none;stroke:red;stroke-width:1px;stroke-linecap:butt;stroke-linejoin:miter;stroke-opacity:1" d="M 225.403,912.614 225.403,941.368 z" id="boundary" inkscape:connector-curvature="0" />
	<path style="fill:none;stroke:red;stroke-width:1px;stroke-linecap:butt;stroke-linejoin:miter;stroke-opacity:1" d="M 225.403,941.368 225.403,970.122 z" id="boundary" inkscape:connector-curvature="0" />
	<path style="fill:none;stroke:red;stroke-width:1px;stroke-linecap:butt;stroke-linejoin:miter;stroke-opacity:1" d="M 225.403,970.122 205.275,996 z" id="boundary" inkscape:connector-curvature="0" />
	<path style="fill:none;stroke:red;stroke-width:1px;stroke-linecap:butt;stroke-linejoin:miter;stroke-opacity:1" d="M 205.275,996 176.522,996 z" id="boundary" inkscape:connector-curvature="0" />
	<path style="fill:none;stroke:red;stroke-width:1px;stroke-linecap:butt;stroke-linejoin:miter;stroke-opacity:1" d="M 176.522,996 147.768,996 z" id="boundary" inkscape:connector-curvature="0" />
	<path style="fill:none;stroke:red;stroke-width:1px;stroke-linecap:butt;stroke-linejoin:miter;stroke-opacity:1" d="M 147.768,996 119.014,996 z" id="boundary" inkscape:connector-curvature="0" />
	<path style="fill:none;stroke:red;stroke-width:1px;stroke-linecap:butt;stroke-linejoin:miter;stroke-opacity:1" d="M 119.014,996 90.2609,987.374 z" id="boundary" inkscape:connector-curvature="0" />
	<path style="fill:none;stroke:red;stroke-width:1px;stroke-linecap:butt;stroke-linejoin:miter;stroke-opacity:1" d="M 90.2609,987.374 90.2609,958.62 z" id="boundary" inkscape:connector-curvature="0" />
	<path style="fill:none;stroke:red;stroke-width:1px;stroke-linecap:butt;stroke-linejoin:miter;stroke-opacity:1" d="M 90.2609,958.62 96.0116,906.864 z" id="boundary" inkscape:connector-curvature="0" />
	<path style="fill:none;stroke:red;stroke-width:1px;stroke-linecap:butt;stroke-linejoin:miter;stroke-opacity:1" d="M 96.0116,906.864 96.0116,878.11 z" id="boundary" inkscape:connector-curvature="0" />
	<path style="fill:none;stroke:red;stroke-width:1px;stroke-linecap:butt;stroke-linejoin:miter;stroke-opacity:1" d="M 96.0116,878.11 96.0116,849.357 z" id="boundary" inkscape:connector-curvature="0" />
	<path style="fill:none;stroke:red;stroke-width:1px;stroke-linecap:butt;stroke-linejoin:miter;stroke-opacity:1" d="M 96.0116,849.357 96.0116,820.603 z" id="boundary" inkscape:connector-curvature="0" />
	<path style="fill:none;stroke:red;stroke-width:1px;stroke-linecap:butt;stroke-linejoin:miter;stroke-opacity:1" d="M 96.0116,820.603 96.0116,791.849 z" id="boundary" inkscape:connector-curvature="0" />
	<path style="fill:none;stroke:red;stroke-width:1px;stroke-linecap:butt;stroke-linejoin:miter;stroke-opacity:1" d="M 96.0116,791.849 96.0116,763.096 z" id="boundary" inkscape:connector-curvature="0" />
	<path style="fill:none;stroke:red;stroke-width:1px;stroke-linecap:butt;stroke-linejoin:miter;stroke-opacity:1" d="M 96.0116,763.096 96.0116,734.342 z" id="boundary" inkscape:connector-curvature="0" />
	<path style="fill:none;stroke:red;stroke-width:1px;stroke-linecap:butt;stroke-linejoin:miter;stroke-opacity:1" d="M 96.0116,734.342 96.0116,705.588 z" id="boundary" inkscape:connector-curvature="0" />
	<path style="fill:none;stroke:red;stroke-width:1px;stroke-linecap:butt;stroke-linejoin:miter;stroke-opacity:1" d="M 96.0116,705.588 96.0116,676.835 z" id="boundary" inkscape:connector-curvature="0" />
	<path style="fill:none;stroke:red;stroke-width:1px;stroke-linecap:butt;stroke-linejoin:miter;stroke-opacity:1" d="M 96.0116,676.835 96.0116,648.081 z" id="boundary" inkscape:connector-curvature="0" />
	<path style="fill:none;stroke:red;stroke-width:1px;stroke-linecap:butt;stroke-linejoin:miter;stroke-opacity:1" d="M 96.0116,648.081 96.0116,619.328 z" id="boundary" inkscape:connector-curvature="0" />
	<path style="fill:none;stroke:red;stroke-width:1px;stroke-linecap:butt;stroke-linejoin:miter;stroke-opacity:1" d="M 96.0116,619.328 96.0116,590.574 z" id="boundary" inkscape:connector-curvature="0" />
	<path style="fill:none;stroke:red;stroke-width:1px;stroke-linecap:butt;stroke-linejoin:miter;stroke-opacity:1" d="M 96.0116,590.574 96.0116,561.82 z" id="boundary" inkscape:connector-curvature="0" />
	<path style="fill:none;stroke:red;stroke-width:1px;stroke-linecap:butt;stroke-linejoin:miter;stroke-opacity:1" d="M 96.0116,561.82 96.0116,533.067 z" id="boundary" inkscape:connector-curvature="0" />
	<path style="fill:none;stroke:red;stroke-width:1px;stroke-linecap:butt;stroke-linejoin:miter;stroke-opacity:1" d="M 96.0116,533.067 96.0116,504.313 z" id="boundary" inkscape:connector-curvature="0" />
	<path style="fill:none;stroke:red;stroke-width:1px;stroke-linecap:butt;stroke-linejoin:miter;stroke-opacity:1" d="M 96.0116,504.313 101.762,469.809 z" id="boundary" inkscape:connector-curvature="0" />
	<path style="fill:none;stroke:red;stroke-width:1px;stroke-linecap:butt;stroke-linejoin:miter;stroke-opacity:1" d="M 101.762,469.809 113.264,441.055 z" id="boundary" inkscape:connector-curvature="0" />
	<path style="fill:none;stroke:red;stroke-width:1px;stroke-linecap:butt;stroke-linejoin:miter;stroke-opacity:1" d="M 113.264,441.055 119.014,406.551 z" id="boundary" inkscape:connector-curvature="0" />
	<path style="fill:none;stroke:red;stroke-width:1px;stroke-linecap:butt;stroke-linejoin:miter;stroke-opacity:1" d="M 119.014,406.551 124.765,360.545 z" id="boundary" inkscape:connector-curvature="0" />
	<path style="fill:none;stroke:red;stroke-width:1px;stroke-linecap:butt;stroke-linejoin:miter;stroke-opacity:1" d="M 124.765,360.545 124.765,331.791 z" id="boundary" inkscape:connector-curvature="0" />
	<path style="fill:none;stroke:red;stroke-width:1px;stroke-linecap:butt;stroke-linejoin:miter;stroke-opacity:1" d="M 124.765,331.791 124.765,303.038 z" id="boundary" inkscape:connector-curvature="0" />
	<path style="fill:none;stroke:red;stroke-width:1px;stroke-linecap:butt;stroke-linejoin:miter;stroke-opacity:1" d="M 124.765,303.038 124.765,274.284 z" id="boundary" inkscape:connector-curvature="0" />
	<path style="fill:none;stroke:red;stroke-width:1px;stroke-linecap:butt;stroke-linejoin:miter;stroke-opacity:1" d="M 124.765,274.284 119.014,245.53 z" id="boundary" inkscape:connector-curvature="0" />
	<path style="fill:none;stroke:red;stroke-width:1px;stroke-linecap:butt;stroke-linejoin:miter;stroke-opacity:1" d="M 119.014,245.53 119.014,216.777 z" id="boundary" inkscape:connector-curvature="0" />
	<path style="fill:none;stroke:red;stroke-width:1px;stroke-linecap:butt;stroke-linejoin:miter;stroke-opacity:1" d="M 119.014,216.777 113.264,188.023 z" id="boundary" inkscape:connector-curvature="0" />
	<path style="fill:none;stroke:red;stroke-width:1px;stroke-linecap:butt;stroke-linejoin:miter;stroke-opacity:1" d="M 113.264,188.023 107.513,159.27 z" id="boundary" inkscape:connector-curvature="0" />
	<path style="fill:none;stroke:red;stroke-width:1px;stroke-linecap:butt;stroke-linejoin:miter;stroke-opacity:1" d="M 107.513,159.27 84.5101,179.397 z" id="boundary" inkscape:connector-curvature="0" />
	<path style="fill:none;stroke:red;stroke-width:1px;stroke-linecap:butt;stroke-linejoin:miter;stroke-opacity:1" d="M 84.5101,179.397 55.7565,179.397 z" id="boundary" inkscape:connector-curvature="0" />
	<path style="fill:none;stroke:red;stroke-width:1px;stroke-linecap:butt;stroke-linejoin:miter;stroke-opacity:1" d="M 55.7565,179.397 27.0029,179.397 z" id="boundary" inkscape:connector-curvature="0" />
	<path style="fill:none;stroke:red;stroke-width:1px;stroke-linecap:butt;stroke-linejoin:miter;stroke-opacity:1" d="M 27.0029,179.397 4,159.27 z" id="boundary" inkscape:connector-curvature="0" />
	<path style="fill:none;stroke:red;stroke-width:1px;stroke-linecap:butt;stroke-linejoin:miter;stroke-opacity:1" d="M 4,159.27 9.75072,130.516 z" id="boundary" inkscape:connector-curvature="0" />
	<path style="fill:none;stroke:red;stroke-width:1px;stroke-linecap:butt;stroke-linejoin:miter;stroke-opacity:1" d="M 9.75072,130.516 21.2522,96.0116 z" id="boundary" inkscape:connector-curvature="0" />
	<path style="fill:none;stroke:red;stroke-width:1px;stroke-linecap:butt;stroke-linejoin:miter;stroke-opacity:1" d="M 21.2522,96.0116 35.629,70.1333 z" id="boundary" inkscape:connector-curvature="0" />
	<path style="fill:none;stroke:red;stroke-width:1px;stroke-linecap:butt;stroke-linejoin:miter;stroke-opacity:1" d="M 35.629,70.1333 52.8812,47.1304 z" id="boundary" inkscape:connector-curvature="0" />
	<path style="fill:none;stroke:red;stroke-width:1px;stroke-linecap:butt;stroke-linejoin:miter;stroke-opacity:1" d="M 52.8812,47.1304 70.1333,24.1275 z" id="boundary" inkscape:connector-curvature="0" />
	<path style="fill:none;stroke:red;stroke-width:1px;stroke-linecap:butt;stroke-linejoin:miter;stroke-opacity:1" d="M 70.1333,24.1275 93.1362,4 z" id="boundary" inkscape:connector-curvature="0" />
	<path style="fill:none;stroke:red;stroke-width:1px;stroke-linecap:butt;stroke-linejoin:miter;stroke-opacity:1" d="M 93.1362,4 121.89,4 z" id="boundary" inkscape:connector-curvature="0" />
	<path style="fill:none;stroke:red;stroke-width:1px;stroke-linecap:butt;stroke-linejoin:miter;stroke-opacity:1" d="M 121.89,4 150.643,4 z" id="boundary" inkscape:connector-curvature="0" />
	<path style="fill:none;stroke:red;stroke-width:1px;stroke-linecap:butt;stroke-linejoin:miter;stroke-opacity:1" d="M 150.643,4 179.397,4 z" id="boundary" inkscape:connector-curvature="0" />
	<path style="fill:none;stroke:red;stroke-width:1px;stroke-linecap:butt;stroke-linejoin:miter;stroke-opacity:1" d="M 179.397,4 208.151,4 z" id="boundary" inkscape:connector-curvature="0" />
	<path style="fill:none;stroke:red;stroke-width:1px;stroke-linecap:butt;stroke-linejoin:miter;stroke-opacity:1" d="M 208.151,4 236.904,4 z" id="boundary" inkscape:connector-curvature="0" />
	<path style="fill:none;stroke:red;stroke-width:1px;stroke-linecap:butt;stroke-linejoin:miter;stroke-opacity:1" d="M 236.904,4 265.658,4 z" id="boundary" inkscape:connector-curvature="0" />
	<path style="fill:none;stroke:red;stroke-width:1px;stroke-linecap:butt;stroke-linejoin:miter;stroke-opacity:1" d="M 265.658,4 291.536,18.3768 z" id="boundary" inkscape:connector-curvature="0" />
	<circle cx="4" cy="159.27" r="4" fill="#0" id="circle0"/>
	<circle cx="9.75072" cy="130.516" r="4" fill="#0" id="circle1"/>
	<circle cx="21.2522" cy="96.0116" r="4" fill="#0" id="circle2"/>
	<circle cx="27.0029" cy="179.397" r="4" fill="#0" id="circle3"/>
	<circle cx="35.629" cy="70.1333" r="4" fill="#0" id="circle4"/>
	<circle cx="52.8812" cy="47.1304" r="4" fill="#0" id="circle5"/>
	<circle cx="55.7565" cy="179.397" r="4" fill="#0" id="circle6"/>
	<circle cx="70.1333" cy="24.1275" r="4" fill="#0" id="circle7"/>
	<circle cx="84.5101" cy="179.397" r="4" fill="#0" id="circle8"/>
	<circle cx="90.2609" cy="958.62" r="4" fill="#0" id="circle9"/>
	<circle cx="90.2609" cy="987.374" r="4" fill="#0" id="circle10"/>
	<circle cx="93.1362" cy="4" r="4" fill="#0" id="circle11"/>
	<circle cx="96.0116" cy="504.313" r="4" fill="#0" id="circle12"/>
	<circle cx="96.0116" cy="533.067" r="4" fill="#0" id="circle13"/>
	<circle cx="96.0116" cy="561.82" r="4" fill="#0" id="circle14"/>
	<circle cx="96.0116" cy="590.574" r="4" fill="#0" id="circle15"/>
	<circle cx="96.0116" cy="619.328" r="4" fill="#0" id="circle16"/>
	<circle cx="96.0116" cy="648.081" r="4" fill="#0" id="circle17"/>
	<circle cx="96.0116" cy="676.835" r="4" fill="#0" id="circle18"/>
	<circle cx="96.0116" cy="705.588" r="4" fill="#0" id="circle19"/>
	<circle cx="96.0116" cy="734.342" r="4" fill="#0" id="circle20"/>
	<circle cx="96.0116" cy="763.096" r="4" fill="#0" id="circle21"/>
	<circle cx="96.0116" cy="791.849" r="4" fill="#0" id="circle22"/>
	<circle cx="96.0116" cy="820.603" r="4" fill="#0" id="circle23"/>
	<circle cx="96.0116" cy="849.357" r="4" fill="#0" id="circle24"/>
	<circle cx="96.0116" cy="878.11" r="4" fill="#0" id="circle25"/>
	<circle cx="96.0116" cy="906.864" r="4" fill="#0" id="circle26"/>
	<circle cx="101.762" cy="469.809" r="4" fill="#0" id="circle27"/>
	<circle cx="107.513" cy="159.27" r="4" fill="#0" id="circle28"/>
	<circle cx="113.264" cy="188.023" r="4" fill="#0" id="circle29"/>
	<circle cx="113.264" cy="441.055" r="4" fill="#0" id="circle30"/>
	<circle cx="119.014" cy="216.777" r="4" fill="#0" id="circle31"/>
	<circle cx="119.014" cy="245.53" r="4" fill="#0" id="circle32"/>
	<circle cx="119.014" cy="406.551" r="4" fill="#0" id="circle33"/>
	<circle cx="119.014" cy="996" r="4" fill="#0" id="circle34"/>
	<circle cx="121.89" cy="4" r="4" fill="#0" id="circle35"/>
	<circle cx="124.765" cy="274.284" r="4" fill="#0" id="circle36"/>
	<circle cx="124.765" cy="303.038" r="4" fill="#0" id="circle37"/>
	<circle cx="124.765" cy="331.791" r="4" fill="#0" id="circle38"/>
	<circle cx="124.765" cy="360.545" r="4" fill="#0" id="circle39"/>
	<circle cx="147.768" cy="996" r="4" fill="#0" id="circle40"/>
	<circle cx="150.643" cy="4" r="4" fill="#0" id="circle41"/>
	<circle cx="176.522" cy="996" r="4" fill="#0" id="circle42"/>
	<circle cx="179.397" cy="4" r="4" fill="#0" id="circle43"/>
	<circle cx="196.649" cy="251.281" r="4" fill="#0" id="circle44"/>
	<circle cx="196.649" cy="280.035" r="4" fill="#0" id="circle45"/>
	<circle cx="196.649" cy="308.788" r="4" fill="#0" id="circle46"/>
	<circle cx="196.649" cy="337.542" r="4" fill="#0" id="circle47"/>
	<circle cx="196.649" cy="366.296" r="4" fill="#0" id="circle48"/>
	<circle cx="196.649" cy="395.049" r="4" fill="#0" id="circle49"/>
	<circle cx="199.525" cy="423.803" r="4" fill="#0" id="circle50"/>
	<circle cx="202.4" cy="199.525" r="4" fill="#0" id="circle51"/>
	<circle cx="205.275" cy="996" r="4" fill="#0" id="circle52"/>
	<circle cx="208.151" cy="4" r="4" fill="#0" id="circle53"/>
	<circle cx="208.151" cy="452.557" r="4" fill="#0" id="circle54"/>
	<circle cx="213.901" cy="159.27" r="4" fill="#0" id="circle55"/>
	<circle cx="219.652" cy="481.31" r="4" fill="#0" id="circle56"/>
	<circle cx="219.652" cy="510.064" r="4" fill="#0" id="circle57"/>
	<circle cx="225.403" cy="101.762" r="4" fill="#0" id="circle58"/>
	<circle cx="225.403" cy="130.516" r="4" fill="#0" id="circle59"/>
	<circle cx="225.403" cy="538.817" r="4" fill="#0" id="circle60"/>
	<circle cx="225.403" cy="567.571" r="4" fill="#0" id="circle61"/>
	<circle cx="225.403" cy="596.325" r="4" fill="#0" id="circle62"/>
	<circle cx="225.403" cy="625.078" r="4" fill="#0" id="circle63"/>
	<circle cx="225.403" cy="653.832" r="4" fill="#0" id="circle64"/>
	<circle cx="225.403" cy="682.586" r="4" fill="#0" id="circle65"/>
	<circle cx="225.403" cy="711.339" r="4" fill="#0" id="circle66"/>
	<circle cx="225.403" cy="740.093" r="4" fill="#0" id="circle67"/>
	<circle cx="225.403" cy="768.846" r="4" fill="#0" id="circle68"/>
	<circle cx="225.403" cy="797.6" r="4" fill="#0" id="circle69"/>
	<circle cx="225.403" cy="826.354" r="4" fill="#0" id="circle70"/>
	<circle cx="225.403" cy="855.107" r="4" fill="#0" id="circle71"/>
	<circle cx="225.403" cy="883.861" r="4" fill="#0" id="circle72"/>
	<circle cx="225.403" cy="912.614" r="4" fill="#0" id="circle73"/>
	<circle cx="225.403" cy="941.368" r="4" fill="#0" id="circle74"/>
	<circle cx="225.403" cy="970.122" r="4" fill="#0" id="circle75"/>
	<circle cx="236.904" cy="4" r="4" fill="#0" id="circle76"/>
	<circle cx="254.157" cy="93.1362" r="4" fill="#0" id="circle77"/>
	<circle cx="265.658" cy="4" r="4" fill="#0" id="circle78"/>
	<circle cx="282.91" cy="84.5101" r="4" fill="#0" id="circle79"/>
	<circle cx="291.536" cy="18.3768" r="4" fill="#0" id="circle80"/>
	<circle cx="297.287" cy="58.6319" r="4" fill="#0" id="circle81"/>
	</g>
</svg>