<?xml version="1.0" encoding="UTF-8" standalone="no"?>
<!-- Created with CurveBenchmark -->
<svg
	xmlns:dc="http://purl.org/dc/elements/1.1/"
	xmlns:cc="http://creativecommons.org/ns#"
	xmlns:rdf="http://www.w3.org/1999/02/22-rdf-syntax-ns#"
	xmlns:svg="http://www.w3.org/2000/svg"
	xmlns="http://www.w3.org/2000/svg"
	xmlns:sodipodi="http://sodipodi.sourceforge.net/DTD/sodipodi-0.dtd"
	xmlns:inkscape="http://www.inkscape.org/namespaces/inkscape"
	width="1000"
	height="1000"
	id="svg2"
	version="1.1"
	sodipodi:docname="manifold/connect2d-hammer03.png.txt">
<defs
	id="defs4" />
<metadata
	id="metadata7">
	<rdf:RDF>
		<cc:Work
			rdf:about="">
			<dc:format>image/svg+xml</dc:format>
			<dc:type
				rdf:resource="http://purl.org/dc/dcmitype/StillImage" />
			<dc:title></dc:title>
		</cc:Work>
	</rdf:RDF>
</metadata>
<g
	inkscape:label="Layer 1"
	inkscape:groupmode="layer"
	id="layer1">
	<path style="fill:none;stroke:red;stroke-width:1px;stroke-linecap:butt;stroke-linejoin:miter;stroke-opacity:1" d="M 996,84.6802 996,103.017 z" id="boundary" inkscape:connector-curvature="0" />
	<path style="fill:none;stroke:red;stroke-width:1px;stroke-linecap:butt;stroke-linejoin:miter;stroke-opacity:1" d="M 996,103.017 977.664,112.185 z" id="boundary" inkscape:connector-curvature="0" />
	<path style="fill:none;stroke:red;stroke-width:1px;stroke-linecap:butt;stroke-linejoin:miter;stroke-opacity:1" d="M 977.664,112.185 977.664,139.689 z" id="boundary" inkscape:connector-curvature="0" />
	<path style="fill:none;stroke:red;stroke-width:1px;stroke-linecap:butt;stroke-linejoin:miter;stroke-opacity:1" d="M 977.664,139.689 977.664,158.026 z" id="boundary" inkscape:connector-curvature="0" />
	<path style="fill:none;stroke:red;stroke-width:1px;stroke-linecap:butt;stroke-linejoin:miter;stroke-opacity:1" d="M 977.664,158.026 977.664,176.362 z" id="boundary" inkscape:connector-curvature="0" />
	<path style="fill:none;stroke:red;stroke-width:1px;stroke-linecap:butt;stroke-linejoin:miter;stroke-opacity:1" d="M 977.664,176.362 977.664,194.699 z" id="boundary" inkscape:connector-curvature="0" />
	<path style="fill:none;stroke:red;stroke-width:1px;stroke-linecap:butt;stroke-linejoin:miter;stroke-opacity:1" d="M 977.664,194.699 968.495,222.203 z" id="boundary" inkscape:connector-curvature="0" />
	<path style="fill:none;stroke:red;stroke-width:1px;stroke-linecap:butt;stroke-linejoin:miter;stroke-opacity:1" d="M 968.495,222.203 964.828,246.041 z" id="boundary" inkscape:connector-curvature="0" />
	<path style="fill:none;stroke:red;stroke-width:1px;stroke-linecap:butt;stroke-linejoin:miter;stroke-opacity:1" d="M 964.828,246.041 950.159,258.876 z" id="boundary" inkscape:connector-curvature="0" />
	<path style="fill:none;stroke:red;stroke-width:1px;stroke-linecap:butt;stroke-linejoin:miter;stroke-opacity:1" d="M 950.159,258.876 937.323,273.545 z" id="boundary" inkscape:connector-curvature="0" />
	<path style="fill:none;stroke:red;stroke-width:1px;stroke-linecap:butt;stroke-linejoin:miter;stroke-opacity:1" d="M 937.323,273.545 922.654,286.381 z" id="boundary" inkscape:connector-curvature="0" />
	<path style="fill:none;stroke:red;stroke-width:1px;stroke-linecap:butt;stroke-linejoin:miter;stroke-opacity:1" d="M 922.654,286.381 907.985,302.884 z" id="boundary" inkscape:connector-curvature="0" />
	<path style="fill:none;stroke:red;stroke-width:1px;stroke-linecap:butt;stroke-linejoin:miter;stroke-opacity:1" d="M 907.985,302.884 893.316,317.553 z" id="boundary" inkscape:connector-curvature="0" />
	<path style="fill:none;stroke:red;stroke-width:1px;stroke-linecap:butt;stroke-linejoin:miter;stroke-opacity:1" d="M 893.316,317.553 874.98,326.721 z" id="boundary" inkscape:connector-curvature="0" />
	<path style="fill:none;stroke:red;stroke-width:1px;stroke-linecap:butt;stroke-linejoin:miter;stroke-opacity:1" d="M 874.98,326.721 856.643,332.222 z" id="boundary" inkscape:connector-curvature="0" />
	<path style="fill:none;stroke:red;stroke-width:1px;stroke-linecap:butt;stroke-linejoin:miter;stroke-opacity:1" d="M 856.643,332.222 838.307,332.222 z" id="boundary" inkscape:connector-curvature="0" />
	<path style="fill:none;stroke:red;stroke-width:1px;stroke-linecap:butt;stroke-linejoin:miter;stroke-opacity:1" d="M 838.307,332.222 819.97,334.055 z" id="boundary" inkscape:connector-curvature="0" />
	<path style="fill:none;stroke:red;stroke-width:1px;stroke-linecap:butt;stroke-linejoin:miter;stroke-opacity:1" d="M 819.97,334.055 810.802,317.553 z" id="boundary" inkscape:connector-curvature="0" />
	<path style="fill:none;stroke:red;stroke-width:1px;stroke-linecap:butt;stroke-linejoin:miter;stroke-opacity:1" d="M 810.802,317.553 825.471,302.884 z" id="boundary" inkscape:connector-curvature="0" />
	<path style="fill:none;stroke:red;stroke-width:1px;stroke-linecap:butt;stroke-linejoin:miter;stroke-opacity:1" d="M 825.471,302.884 834.64,284.547 z" id="boundary" inkscape:connector-curvature="0" />
	<path style="fill:none;stroke:red;stroke-width:1px;stroke-linecap:butt;stroke-linejoin:miter;stroke-opacity:1" d="M 834.64,284.547 847.475,253.375 z" id="boundary" inkscape:connector-curvature="0" />
	<path style="fill:none;stroke:red;stroke-width:1px;stroke-linecap:butt;stroke-linejoin:miter;stroke-opacity:1" d="M 847.475,253.375 856.643,225.871 z" id="boundary" inkscape:connector-curvature="0" />
	<path style="fill:none;stroke:red;stroke-width:1px;stroke-linecap:butt;stroke-linejoin:miter;stroke-opacity:1" d="M 856.643,225.871 852.976,203.867 z" id="boundary" inkscape:connector-curvature="0" />
	<path style="fill:none;stroke:red;stroke-width:1px;stroke-linecap:butt;stroke-linejoin:miter;stroke-opacity:1" d="M 852.976,203.867 834.64,203.867 z" id="boundary" inkscape:connector-curvature="0" />
	<path style="fill:none;stroke:red;stroke-width:1px;stroke-linecap:butt;stroke-linejoin:miter;stroke-opacity:1" d="M 834.64,203.867 816.303,211.201 z" id="boundary" inkscape:connector-curvature="0" />
	<path style="fill:none;stroke:red;stroke-width:1px;stroke-linecap:butt;stroke-linejoin:miter;stroke-opacity:1" d="M 816.303,211.201 797.967,213.035 z" id="boundary" inkscape:connector-curvature="0" />
	<path style="fill:none;stroke:red;stroke-width:1px;stroke-linecap:butt;stroke-linejoin:miter;stroke-opacity:1" d="M 797.967,213.035 781.464,203.867 z" id="boundary" inkscape:connector-curvature="0" />
	<path style="fill:none;stroke:red;stroke-width:1px;stroke-linecap:butt;stroke-linejoin:miter;stroke-opacity:1" d="M 781.464,203.867 764.961,213.035 z" id="boundary" inkscape:connector-curvature="0" />
	<path style="fill:none;stroke:red;stroke-width:1px;stroke-linecap:butt;stroke-linejoin:miter;stroke-opacity:1" d="M 764.961,213.035 748.458,203.867 z" id="boundary" inkscape:connector-curvature="0" />
	<path style="fill:none;stroke:red;stroke-width:1px;stroke-linecap:butt;stroke-linejoin:miter;stroke-opacity:1" d="M 748.458,203.867 731.956,213.035 z" id="boundary" inkscape:connector-curvature="0" />
	<path style="fill:none;stroke:red;stroke-width:1px;stroke-linecap:butt;stroke-linejoin:miter;stroke-opacity:1" d="M 731.956,213.035 715.453,203.867 z" id="boundary" inkscape:connector-curvature="0" />
	<path style="fill:none;stroke:red;stroke-width:1px;stroke-linecap:butt;stroke-linejoin:miter;stroke-opacity:1" d="M 715.453,203.867 697.116,211.201 z" id="boundary" inkscape:connector-curvature="0" />
	<path style="fill:none;stroke:red;stroke-width:1px;stroke-linecap:butt;stroke-linejoin:miter;stroke-opacity:1" d="M 697.116,211.201 678.78,213.035 z" id="boundary" inkscape:connector-curvature="0" />
	<path style="fill:none;stroke:red;stroke-width:1px;stroke-linecap:butt;stroke-linejoin:miter;stroke-opacity:1" d="M 678.78,213.035 662.277,203.867 z" id="boundary" inkscape:connector-curvature="0" />
	<path style="fill:none;stroke:red;stroke-width:1px;stroke-linecap:butt;stroke-linejoin:miter;stroke-opacity:1" d="M 662.277,203.867 643.941,203.867 z" id="boundary" inkscape:connector-curvature="0" />
	<path style="fill:none;stroke:red;stroke-width:1px;stroke-linecap:butt;stroke-linejoin:miter;stroke-opacity:1" d="M 643.941,203.867 627.438,213.035 z" id="boundary" inkscape:connector-curvature="0" />
	<path style="fill:none;stroke:red;stroke-width:1px;stroke-linecap:butt;stroke-linejoin:miter;stroke-opacity:1" d="M 627.438,213.035 610.935,203.867 z" id="boundary" inkscape:connector-curvature="0" />
	<path style="fill:none;stroke:red;stroke-width:1px;stroke-linecap:butt;stroke-linejoin:miter;stroke-opacity:1" d="M 610.935,203.867 594.433,213.035 z" id="boundary" inkscape:connector-curvature="0" />
	<path style="fill:none;stroke:red;stroke-width:1px;stroke-linecap:butt;stroke-linejoin:miter;stroke-opacity:1" d="M 594.433,213.035 576.096,209.368 z" id="boundary" inkscape:connector-curvature="0" />
	<path style="fill:none;stroke:red;stroke-width:1px;stroke-linecap:butt;stroke-linejoin:miter;stroke-opacity:1" d="M 576.096,209.368 557.76,209.368 z" id="boundary" inkscape:connector-curvature="0" />
	<path style="fill:none;stroke:red;stroke-width:1px;stroke-linecap:butt;stroke-linejoin:miter;stroke-opacity:1" d="M 557.76,209.368 539.423,213.035 z" id="boundary" inkscape:connector-curvature="0" />
	<path style="fill:none;stroke:red;stroke-width:1px;stroke-linecap:butt;stroke-linejoin:miter;stroke-opacity:1" d="M 539.423,213.035 522.921,203.867 z" id="boundary" inkscape:connector-curvature="0" />
	<path style="fill:none;stroke:red;stroke-width:1px;stroke-linecap:butt;stroke-linejoin:miter;stroke-opacity:1" d="M 522.921,203.867 504.584,203.867 z" id="boundary" inkscape:connector-curvature="0" />
	<path style="fill:none;stroke:red;stroke-width:1px;stroke-linecap:butt;stroke-linejoin:miter;stroke-opacity:1" d="M 504.584,203.867 486.248,211.201 z" id="boundary" inkscape:connector-curvature="0" />
	<path style="fill:none;stroke:red;stroke-width:1px;stroke-linecap:butt;stroke-linejoin:miter;stroke-opacity:1" d="M 486.248,211.201 467.911,213.035 z" id="boundary" inkscape:connector-curvature="0" />
	<path style="fill:none;stroke:red;stroke-width:1px;stroke-linecap:butt;stroke-linejoin:miter;stroke-opacity:1" d="M 467.911,213.035 451.409,203.867 z" id="boundary" inkscape:connector-curvature="0" />
	<path style="fill:none;stroke:red;stroke-width:1px;stroke-linecap:butt;stroke-linejoin:miter;stroke-opacity:1" d="M 451.409,203.867 434.906,213.035 z" id="boundary" inkscape:connector-curvature="0" />
	<path style="fill:none;stroke:red;stroke-width:1px;stroke-linecap:butt;stroke-linejoin:miter;stroke-opacity:1" d="M 434.906,213.035 418.403,203.867 z" id="boundary" inkscape:connector-curvature="0" />
	<path style="fill:none;stroke:red;stroke-width:1px;stroke-linecap:butt;stroke-linejoin:miter;stroke-opacity:1" d="M 418.403,203.867 401.9,213.035 z" id="boundary" inkscape:connector-curvature="0" />
	<path style="fill:none;stroke:red;stroke-width:1px;stroke-linecap:butt;stroke-linejoin:miter;stroke-opacity:1" d="M 401.9,213.035 385.397,203.867 z" id="boundary" inkscape:connector-curvature="0" />
	<path style="fill:none;stroke:red;stroke-width:1px;stroke-linecap:butt;stroke-linejoin:miter;stroke-opacity:1" d="M 385.397,203.867 367.061,211.201 z" id="boundary" inkscape:connector-curvature="0" />
	<path style="fill:none;stroke:red;stroke-width:1px;stroke-linecap:butt;stroke-linejoin:miter;stroke-opacity:1" d="M 367.061,211.201 348.725,213.035 z" id="boundary" inkscape:connector-curvature="0" />
	<path style="fill:none;stroke:red;stroke-width:1px;stroke-linecap:butt;stroke-linejoin:miter;stroke-opacity:1" d="M 348.725,213.035 332.222,203.867 z" id="boundary" inkscape:connector-curvature="0" />
	<path style="fill:none;stroke:red;stroke-width:1px;stroke-linecap:butt;stroke-linejoin:miter;stroke-opacity:1" d="M 332.222,203.867 313.885,203.867 z" id="boundary" inkscape:connector-curvature="0" />
	<path style="fill:none;stroke:red;stroke-width:1px;stroke-linecap:butt;stroke-linejoin:miter;stroke-opacity:1" d="M 313.885,203.867 297.383,213.035 z" id="boundary" inkscape:connector-curvature="0" />
	<path style="fill:none;stroke:red;stroke-width:1px;stroke-linecap:butt;stroke-linejoin:miter;stroke-opacity:1" d="M 297.383,213.035 280.88,203.867 z" id="boundary" inkscape:connector-curvature="0" />
	<path style="fill:none;stroke:red;stroke-width:1px;stroke-linecap:butt;stroke-linejoin:miter;stroke-opacity:1" d="M 280.88,203.867 264.377,213.035 z" id="boundary" inkscape:connector-curvature="0" />
	<path style="fill:none;stroke:red;stroke-width:1px;stroke-linecap:butt;stroke-linejoin:miter;stroke-opacity:1" d="M 264.377,213.035 246.041,209.368 z" id="boundary" inkscape:connector-curvature="0" />
	<path style="fill:none;stroke:red;stroke-width:1px;stroke-linecap:butt;stroke-linejoin:miter;stroke-opacity:1" d="M 246.041,209.368 227.704,209.368 z" id="boundary" inkscape:connector-curvature="0" />
	<path style="fill:none;stroke:red;stroke-width:1px;stroke-linecap:butt;stroke-linejoin:miter;stroke-opacity:1" d="M 227.704,209.368 209.368,213.035 z" id="boundary" inkscape:connector-curvature="0" />
	<path style="fill:none;stroke:red;stroke-width:1px;stroke-linecap:butt;stroke-linejoin:miter;stroke-opacity:1" d="M 209.368,213.035 192.865,203.867 z" id="boundary" inkscape:connector-curvature="0" />
	<path style="fill:none;stroke:red;stroke-width:1px;stroke-linecap:butt;stroke-linejoin:miter;stroke-opacity:1" d="M 192.865,203.867 174.529,203.867 z" id="boundary" inkscape:connector-curvature="0" />
	<path style="fill:none;stroke:red;stroke-width:1px;stroke-linecap:butt;stroke-linejoin:miter;stroke-opacity:1" d="M 174.529,203.867 156.192,211.201 z" id="boundary" inkscape:connector-curvature="0" />
	<path style="fill:none;stroke:red;stroke-width:1px;stroke-linecap:butt;stroke-linejoin:miter;stroke-opacity:1" d="M 156.192,211.201 137.856,213.035 z" id="boundary" inkscape:connector-curvature="0" />
	<path style="fill:none;stroke:red;stroke-width:1px;stroke-linecap:butt;stroke-linejoin:miter;stroke-opacity:1" d="M 137.856,213.035 121.353,203.867 z" id="boundary" inkscape:connector-curvature="0" />
	<path style="fill:none;stroke:red;stroke-width:1px;stroke-linecap:butt;stroke-linejoin:miter;stroke-opacity:1" d="M 121.353,203.867 104.85,213.035 z" id="boundary" inkscape:connector-curvature="0" />
	<path style="fill:none;stroke:red;stroke-width:1px;stroke-linecap:butt;stroke-linejoin:miter;stroke-opacity:1" d="M 104.85,213.035 86.5139,207.534 z" id="boundary" inkscape:connector-curvature="0" />
	<path style="fill:none;stroke:red;stroke-width:1px;stroke-linecap:butt;stroke-linejoin:miter;stroke-opacity:1" d="M 86.5139,207.534 68.1774,213.035 z" id="boundary" inkscape:connector-curvature="0" />
	<path style="fill:none;stroke:red;stroke-width:1px;stroke-linecap:butt;stroke-linejoin:miter;stroke-opacity:1" d="M 68.1774,213.035 49.841,207.534 z" id="boundary" inkscape:connector-curvature="0" />
	<path style="fill:none;stroke:red;stroke-width:1px;stroke-linecap:butt;stroke-linejoin:miter;stroke-opacity:1" d="M 49.841,207.534 31.5046,203.867 z" id="boundary" inkscape:connector-curvature="0" />
	<path style="fill:none;stroke:red;stroke-width:1px;stroke-linecap:butt;stroke-linejoin:miter;stroke-opacity:1" d="M 31.5046,203.867 13.1682,205.701 z" id="boundary" inkscape:connector-curvature="0" />
	<path style="fill:none;stroke:red;stroke-width:1px;stroke-linecap:butt;stroke-linejoin:miter;stroke-opacity:1" d="M 13.1682,205.701 4,189.198 z" id="boundary" inkscape:connector-curvature="0" />
	<path style="fill:none;stroke:red;stroke-width:1px;stroke-linecap:butt;stroke-linejoin:miter;stroke-opacity:1" d="M 4,189.198 4,161.693 z" id="boundary" inkscape:connector-curvature="0" />
	<path style="fill:none;stroke:red;stroke-width:1px;stroke-linecap:butt;stroke-linejoin:miter;stroke-opacity:1" d="M 4,161.693 13.1682,143.357 z" id="boundary" inkscape:connector-curvature="0" />
	<path style="fill:none;stroke:red;stroke-width:1px;stroke-linecap:butt;stroke-linejoin:miter;stroke-opacity:1" d="M 13.1682,143.357 31.5046,137.856 z" id="boundary" inkscape:connector-curvature="0" />
	<path style="fill:none;stroke:red;stroke-width:1px;stroke-linecap:butt;stroke-linejoin:miter;stroke-opacity:1" d="M 31.5046,137.856 49.841,137.856 z" id="boundary" inkscape:connector-curvature="0" />
	<path style="fill:none;stroke:red;stroke-width:1px;stroke-linecap:butt;stroke-linejoin:miter;stroke-opacity:1" d="M 49.841,137.856 68.1774,137.856 z" id="boundary" inkscape:connector-curvature="0" />
	<path style="fill:none;stroke:red;stroke-width:1px;stroke-linecap:butt;stroke-linejoin:miter;stroke-opacity:1" d="M 68.1774,137.856 86.5139,137.856 z" id="boundary" inkscape:connector-curvature="0" />
	<path style="fill:none;stroke:red;stroke-width:1px;stroke-linecap:butt;stroke-linejoin:miter;stroke-opacity:1" d="M 86.5139,137.856 104.85,137.856 z" id="boundary" inkscape:connector-curvature="0" />
	<path style="fill:none;stroke:red;stroke-width:1px;stroke-linecap:butt;stroke-linejoin:miter;stroke-opacity:1" d="M 104.85,137.856 123.187,137.856 z" id="boundary" inkscape:connector-curvature="0" />
	<path style="fill:none;stroke:red;stroke-width:1px;stroke-linecap:butt;stroke-linejoin:miter;stroke-opacity:1" d="M 123.187,137.856 141.523,137.856 z" id="boundary" inkscape:connector-curvature="0" />
	<path style="fill:none;stroke:red;stroke-width:1px;stroke-linecap:butt;stroke-linejoin:miter;stroke-opacity:1" d="M 141.523,137.856 159.86,137.856 z" id="boundary" inkscape:connector-curvature="0" />
	<path style="fill:none;stroke:red;stroke-width:1px;stroke-linecap:butt;stroke-linejoin:miter;stroke-opacity:1" d="M 159.86,137.856 178.196,137.856 z" id="boundary" inkscape:connector-curvature="0" />
	<path style="fill:none;stroke:red;stroke-width:1px;stroke-linecap:butt;stroke-linejoin:miter;stroke-opacity:1" d="M 178.196,137.856 196.532,137.856 z" id="boundary" inkscape:connector-curvature="0" />
	<path style="fill:none;stroke:red;stroke-width:1px;stroke-linecap:butt;stroke-linejoin:miter;stroke-opacity:1" d="M 196.532,137.856 214.869,137.856 z" id="boundary" inkscape:connector-curvature="0" />
	<path style="fill:none;stroke:red;stroke-width:1px;stroke-linecap:butt;stroke-linejoin:miter;stroke-opacity:1" d="M 214.869,137.856 233.205,137.856 z" id="boundary" inkscape:connector-curvature="0" />
	<path style="fill:none;stroke:red;stroke-width:1px;stroke-linecap:butt;stroke-linejoin:miter;stroke-opacity:1" d="M 233.205,137.856 251.542,137.856 z" id="boundary" inkscape:connector-curvature="0" />
	<path style="fill:none;stroke:red;stroke-width:1px;stroke-linecap:butt;stroke-linejoin:miter;stroke-opacity:1" d="M 251.542,137.856 269.878,137.856 z" id="boundary" inkscape:connector-curvature="0" />
	<path style="fill:none;stroke:red;stroke-width:1px;stroke-linecap:butt;stroke-linejoin:miter;stroke-opacity:1" d="M 269.878,137.856 288.214,137.856 z" id="boundary" inkscape:connector-curvature="0" />
	<path style="fill:none;stroke:red;stroke-width:1px;stroke-linecap:butt;stroke-linejoin:miter;stroke-opacity:1" d="M 288.214,137.856 306.551,137.856 z" id="boundary" inkscape:connector-curvature="0" />
	<path style="fill:none;stroke:red;stroke-width:1px;stroke-linecap:butt;stroke-linejoin:miter;stroke-opacity:1" d="M 306.551,137.856 324.887,137.856 z" id="boundary" inkscape:connector-curvature="0" />
	<path style="fill:none;stroke:red;stroke-width:1px;stroke-linecap:butt;stroke-linejoin:miter;stroke-opacity:1" d="M 324.887,137.856 343.224,137.856 z" id="boundary" inkscape:connector-curvature="0" />
	<path style="fill:none;stroke:red;stroke-width:1px;stroke-linecap:butt;stroke-linejoin:miter;stroke-opacity:1" d="M 343.224,137.856 361.56,137.856 z" id="boundary" inkscape:connector-curvature="0" />
	<path style="fill:none;stroke:red;stroke-width:1px;stroke-linecap:butt;stroke-linejoin:miter;stroke-opacity:1" d="M 361.56,137.856 379.896,137.856 z" id="boundary" inkscape:connector-curvature="0" />
	<path style="fill:none;stroke:red;stroke-width:1px;stroke-linecap:butt;stroke-linejoin:miter;stroke-opacity:1" d="M 379.896,137.856 398.233,137.856 z" id="boundary" inkscape:connector-curvature="0" />
	<path style="fill:none;stroke:red;stroke-width:1px;stroke-linecap:butt;stroke-linejoin:miter;stroke-opacity:1" d="M 398.233,137.856 416.569,137.856 z" id="boundary" inkscape:connector-curvature="0" />
	<path style="fill:none;stroke:red;stroke-width:1px;stroke-linecap:butt;stroke-linejoin:miter;stroke-opacity:1" d="M 416.569,137.856 434.906,137.856 z" id="boundary" inkscape:connector-curvature="0" />
	<path style="fill:none;stroke:red;stroke-width:1px;stroke-linecap:butt;stroke-linejoin:miter;stroke-opacity:1" d="M 434.906,137.856 453.242,137.856 z" id="boundary" inkscape:connector-curvature="0" />
	<path style="fill:none;stroke:red;stroke-width:1px;stroke-linecap:butt;stroke-linejoin:miter;stroke-opacity:1" d="M 453.242,137.856 471.579,137.856 z" id="boundary" inkscape:connector-curvature="0" />
	<path style="fill:none;stroke:red;stroke-width:1px;stroke-linecap:butt;stroke-linejoin:miter;stroke-opacity:1" d="M 471.579,137.856 489.915,137.856 z" id="boundary" inkscape:connector-curvature="0" />
	<path style="fill:none;stroke:red;stroke-width:1px;stroke-linecap:butt;stroke-linejoin:miter;stroke-opacity:1" d="M 489.915,137.856 508.251,137.856 z" id="boundary" inkscape:connector-curvature="0" />
	<path style="fill:none;stroke:red;stroke-width:1px;stroke-linecap:butt;stroke-linejoin:miter;stroke-opacity:1" d="M 508.251,137.856 526.588,137.856 z" id="boundary" inkscape:connector-curvature="0" />
	<path style="fill:none;stroke:red;stroke-width:1px;stroke-linecap:butt;stroke-linejoin:miter;stroke-opacity:1" d="M 526.588,137.856 544.924,137.856 z" id="boundary" inkscape:connector-curvature="0" />
	<path style="fill:none;stroke:red;stroke-width:1px;stroke-linecap:butt;stroke-linejoin:miter;stroke-opacity:1" d="M 544.924,137.856 563.261,137.856 z" id="boundary" inkscape:connector-curvature="0" />
	<path style="fill:none;stroke:red;stroke-width:1px;stroke-linecap:butt;stroke-linejoin:miter;stroke-opacity:1" d="M 563.261,137.856 581.597,137.856 z" id="boundary" inkscape:connector-curvature="0" />
	<path style="fill:none;stroke:red;stroke-width:1px;stroke-linecap:butt;stroke-linejoin:miter;stroke-opacity:1" d="M 581.597,137.856 599.933,137.856 z" id="boundary" inkscape:connector-curvature="0" />
	<path style="fill:none;stroke:red;stroke-width:1px;stroke-linecap:butt;stroke-linejoin:miter;stroke-opacity:1" d="M 599.933,137.856 618.27,137.856 z" id="boundary" inkscape:connector-curvature="0" />
	<path style="fill:none;stroke:red;stroke-width:1px;stroke-linecap:butt;stroke-linejoin:miter;stroke-opacity:1" d="M 618.27,137.856 636.606,137.856 z" id="boundary" inkscape:connector-curvature="0" />
	<path style="fill:none;stroke:red;stroke-width:1px;stroke-linecap:butt;stroke-linejoin:miter;stroke-opacity:1" d="M 636.606,137.856 654.943,137.856 z" id="boundary" inkscape:connector-curvature="0" />
	<path style="fill:none;stroke:red;stroke-width:1px;stroke-linecap:butt;stroke-linejoin:miter;stroke-opacity:1" d="M 654.943,137.856 673.279,137.856 z" id="boundary" inkscape:connector-curvature="0" />
	<path style="fill:none;stroke:red;stroke-width:1px;stroke-linecap:butt;stroke-linejoin:miter;stroke-opacity:1" d="M 673.279,137.856 691.616,137.856 z" id="boundary" inkscape:connector-curvature="0" />
	<path style="fill:none;stroke:red;stroke-width:1px;stroke-linecap:butt;stroke-linejoin:miter;stroke-opacity:1" d="M 691.616,137.856 709.952,137.856 z" id="boundary" inkscape:connector-curvature="0" />
	<path style="fill:none;stroke:red;stroke-width:1px;stroke-linecap:butt;stroke-linejoin:miter;stroke-opacity:1" d="M 709.952,137.856 728.288,137.856 z" id="boundary" inkscape:connector-curvature="0" />
	<path style="fill:none;stroke:red;stroke-width:1px;stroke-linecap:butt;stroke-linejoin:miter;stroke-opacity:1" d="M 728.288,137.856 746.625,137.856 z" id="boundary" inkscape:connector-curvature="0" />
	<path style="fill:none;stroke:red;stroke-width:1px;stroke-linecap:butt;stroke-linejoin:miter;stroke-opacity:1" d="M 746.625,137.856 764.961,137.856 z" id="boundary" inkscape:connector-curvature="0" />
	<path style="fill:none;stroke:red;stroke-width:1px;stroke-linecap:butt;stroke-linejoin:miter;stroke-opacity:1" d="M 764.961,137.856 783.298,137.856 z" id="boundary" inkscape:connector-curvature="0" />
	<path style="fill:none;stroke:red;stroke-width:1px;stroke-linecap:butt;stroke-linejoin:miter;stroke-opacity:1" d="M 783.298,137.856 801.634,137.856 z" id="boundary" inkscape:connector-curvature="0" />
	<path style="fill:none;stroke:red;stroke-width:1px;stroke-linecap:butt;stroke-linejoin:miter;stroke-opacity:1" d="M 801.634,137.856 819.97,137.856 z" id="boundary" inkscape:connector-curvature="0" />
	<path style="fill:none;stroke:red;stroke-width:1px;stroke-linecap:butt;stroke-linejoin:miter;stroke-opacity:1" d="M 819.97,137.856 838.307,137.856 z" id="boundary" inkscape:connector-curvature="0" />
	<path style="fill:none;stroke:red;stroke-width:1px;stroke-linecap:butt;stroke-linejoin:miter;stroke-opacity:1" d="M 838.307,137.856 856.643,137.856 z" id="boundary" inkscape:connector-curvature="0" />
	<path style="fill:none;stroke:red;stroke-width:1px;stroke-linecap:butt;stroke-linejoin:miter;stroke-opacity:1" d="M 856.643,137.856 856.643,119.519 z" id="boundary" inkscape:connector-curvature="0" />
	<path style="fill:none;stroke:red;stroke-width:1px;stroke-linecap:butt;stroke-linejoin:miter;stroke-opacity:1" d="M 856.643,119.519 847.475,103.017 z" id="boundary" inkscape:connector-curvature="0" />
	<path style="fill:none;stroke:red;stroke-width:1px;stroke-linecap:butt;stroke-linejoin:miter;stroke-opacity:1" d="M 847.475,103.017 838.307,86.5139 z" id="boundary" inkscape:connector-curvature="0" />
	<path style="fill:none;stroke:red;stroke-width:1px;stroke-linecap:butt;stroke-linejoin:miter;stroke-opacity:1" d="M 838.307,86.5139 829.139,70.0111 z" id="boundary" inkscape:connector-curvature="0" />
	<path style="fill:none;stroke:red;stroke-width:1px;stroke-linecap:butt;stroke-linejoin:miter;stroke-opacity:1" d="M 829.139,70.0111 829.139,51.6747 z" id="boundary" inkscape:connector-curvature="0" />
	<path style="fill:none;stroke:red;stroke-width:1px;stroke-linecap:butt;stroke-linejoin:miter;stroke-opacity:1" d="M 829.139,51.6747 838.307,33.3383 z" id="boundary" inkscape:connector-curvature="0" />
	<path style="fill:none;stroke:red;stroke-width:1px;stroke-linecap:butt;stroke-linejoin:miter;stroke-opacity:1" d="M 838.307,33.3383 852.976,18.6691 z" id="boundary" inkscape:connector-curvature="0" />
	<path style="fill:none;stroke:red;stroke-width:1px;stroke-linecap:butt;stroke-linejoin:miter;stroke-opacity:1" d="M 852.976,18.6691 867.645,4 z" id="boundary" inkscape:connector-curvature="0" />
	<path style="fill:none;stroke:red;stroke-width:1px;stroke-linecap:butt;stroke-linejoin:miter;stroke-opacity:1" d="M 867.645,4 885.982,4 z" id="boundary" inkscape:connector-curvature="0" />
	<path style="fill:none;stroke:red;stroke-width:1px;stroke-linecap:butt;stroke-linejoin:miter;stroke-opacity:1" d="M 885.982,4 904.318,4 z" id="boundary" inkscape:connector-curvature="0" />
	<path style="fill:none;stroke:red;stroke-width:1px;stroke-linecap:butt;stroke-linejoin:miter;stroke-opacity:1" d="M 904.318,4 922.654,4 z" id="boundary" inkscape:connector-curvature="0" />
	<path style="fill:none;stroke:red;stroke-width:1px;stroke-linecap:butt;stroke-linejoin:miter;stroke-opacity:1" d="M 922.654,4 940.991,4 z" id="boundary" inkscape:connector-curvature="0" />
	<path style="fill:none;stroke:red;stroke-width:1px;stroke-linecap:butt;stroke-linejoin:miter;stroke-opacity:1" d="M 940.991,4 959.327,4 z" id="boundary" inkscape:connector-curvature="0" />
	<path style="fill:none;stroke:red;stroke-width:1px;stroke-linecap:butt;stroke-linejoin:miter;stroke-opacity:1" d="M 959.327,4 975.83,13.1682 z" id="boundary" inkscape:connector-curvature="0" />
	<path style="fill:none;stroke:red;stroke-width:1px;stroke-linecap:butt;stroke-linejoin:miter;stroke-opacity:1" d="M 975.83,13.1682 986.832,27.8373 z" id="boundary" inkscape:connector-curvature="0" />
	<path style="fill:none;stroke:red;stroke-width:1px;stroke-linecap:butt;stroke-linejoin:miter;stroke-opacity:1" d="M 986.832,27.8373 996,48.0074 z" id="boundary" inkscape:connector-curvature="0" />
	<path style="fill:none;stroke:red;stroke-width:1px;stroke-linecap:butt;stroke-linejoin:miter;stroke-opacity:1" d="M 996,48.0074 996,66.3438 z" id="boundary" inkscape:connector-curvature="0" />
	<path style="fill:none;stroke:red;stroke-width:1px;stroke-linecap:butt;stroke-linejoin:miter;stroke-opacity:1" d="M 996,66.3438 996,84.6802 z" id="boundary" inkscape:connector-curvature="0" />
	<circle cx="4" cy="161.693" r="4" fill="#0" id="circle0"/>
	<circle cx="4" cy="189.198" r="4" fill="#0" id="circle1"/>
	<circle cx="13.1682" cy="143.357" r="4" fill="#0" id="circle2"/>
	<circle cx="13.1682" cy="205.701" r="4" fill="#0" id="circle3"/>
	<circle cx="31.5046" cy="137.856" r="4" fill="#0" id="circle4"/>
	<circle cx="31.5046" cy="203.867" r="4" fill="#0" id="circle5"/>
	<circle cx="49.841" cy="137.856" r="4" fill="#0" id="circle6"/>
	<circle cx="49.841" cy="207.534" r="4" fill="#0" id="circle7"/>
	<circle cx="68.1774" cy="137.856" r="4" fill="#0" id="circle8"/>
	<circle cx="68.1774" cy="213.035" r="4" fill="#0" id="circle9"/>
	<circle cx="86.5139" cy="137.856" r="4" fill="#0" id="circle10"/>
	<circle cx="86.5139" cy="207.534" r="4" fill="#0" id="circle11"/>
	<circle cx="104.85" cy="137.856" r="4" fill="#0" id="circle12"/>
	<circle cx="104.85" cy="213.035" r="4" fill="#0" id="circle13"/>
	<circle cx="121.353" cy="203.867" r="4" fill="#0" id="circle14"/>
	<circle cx="123.187" cy="137.856" r="4" fill="#0" id="circle15"/>
	<circle cx="137.856" cy="213.035" r="4" fill="#0" id="circle16"/>
	<circle cx="141.523" cy="137.856" r="4" fill="#0" id="circle17"/>
	<circle cx="156.192" cy="211.201" r="4" fill="#0" id="circle18"/>
	<circle cx="159.86" cy="137.856" r="4" fill="#0" id="circle19"/>
	<circle cx="174.529" cy="203.867" r="4" fill="#0" id="circle20"/>
	<circle cx="178.196" cy="137.856" r="4" fill="#0" id="circle21"/>
	<circle cx="192.865" cy="203.867" r="4" fill="#0" id="circle22"/>
	<circle cx="196.532" cy="137.856" r="4" fill="#0" id="circle23"/>
	<circle cx="209.368" cy="213.035" r="4" fill="#0" id="circle24"/>
	<circle cx="214.869" cy="137.856" r="4" fill="#0" id="circle25"/>
	<circle cx="227.704" cy="209.368" r="4" fill="#0" id="circle26"/>
	<circle cx="233.205" cy="137.856" r="4" fill="#0" id="circle27"/>
	<circle cx="246.041" cy="209.368" r="4" fill="#0" id="circle28"/>
	<circle cx="251.542" cy="137.856" r="4" fill="#0" id="circle29"/>
	<circle cx="264.377" cy="213.035" r="4" fill="#0" id="circle30"/>
	<circle cx="269.878" cy="137.856" r="4" fill="#0" id="circle31"/>
	<circle cx="280.88" cy="203.867" r="4" fill="#0" id="circle32"/>
	<circle cx="288.214" cy="137.856" r="4" fill="#0" id="circle33"/>
	<circle cx="297.383" cy="213.035" r="4" fill="#0" id="circle34"/>
	<circle cx="306.551" cy="137.856" r="4" fill="#0" id="circle35"/>
	<circle cx="313.885" cy="203.867" r="4" fill="#0" id="circle36"/>
	<circle cx="324.887" cy="137.856" r="4" fill="#0" id="circle37"/>
	<circle cx="332.222" cy="203.867" r="4" fill="#0" id="circle38"/>
	<circle cx="343.224" cy="137.856" r="4" fill="#0" id="circle39"/>
	<circle cx="348.725" cy="213.035" r="4" fill="#0" id="circle40"/>
	<circle cx="361.56" cy="137.856" r="4" fill="#0" id="circle41"/>
	<circle cx="367.061" cy="211.201" r="4" fill="#0" id="circle42"/>
	<circle cx="379.896" cy="137.856" r="4" fill="#0" id="circle43"/>
	<circle cx="385.397" cy="203.867" r="4" fill="#0" id="circle44"/>
	<circle cx="398.233" cy="137.856" r="4" fill="#0" id="circle45"/>
	<circle cx="401.9" cy="213.035" r="4" fill="#0" id="circle46"/>
	<circle cx="416.569" cy="137.856" r="4" fill="#0" id="circle47"/>
	<circle cx="418.403" cy="203.867" r="4" fill="#0" id="circle48"/>
	<circle cx="434.906" cy="137.856" r="4" fill="#0" id="circle49"/>
	<circle cx="434.906" cy="213.035" r="4" fill="#0" id="circle50"/>
	<circle cx="451.409" cy="203.867" r="4" fill="#0" id="circle51"/>
	<circle cx="453.242" cy="137.856" r="4" fill="#0" id="circle52"/>
	<circle cx="467.911" cy="213.035" r="4" fill="#0" id="circle53"/>
	<circle cx="471.579" cy="137.856" r="4" fill="#0" id="circle54"/>
	<circle cx="486.248" cy="211.201" r="4" fill="#0" id="circle55"/>
	<circle cx="489.915" cy="137.856" r="4" fill="#0" id="circle56"/>
	<circle cx="504.584" cy="203.867" r="4" fill="#0" id="circle57"/>
	<circle cx="508.251" cy="137.856" r="4" fill="#0" id="circle58"/>
	<circle cx="522.921" cy="203.867" r="4" fill="#0" id="circle59"/>
	<circle cx="526.588" cy="137.856" r="4" fill="#0" id="circle60"/>
	<circle cx="539.423" cy="213.035" r="4" fill="#0" id="circle61"/>
	<circle cx="544.924" cy="137.856" r="4" fill="#0" id="circle62"/>
	<circle cx="557.76" cy="209.368" r="4" fill="#0" id="circle63"/>
	<circle cx="563.261" cy="137.856" r="4" fill="#0" id="circle64"/>
	<circle cx="576.096" cy="209.368" r="4" fill="#0" id="circle65"/>
	<circle cx="581.597" cy="137.856" r="4" fill="#0" id="circle66"/>
	<circle cx="594.433" cy="213.035" r="4" fill="#0" id="circle67"/>
	<circle cx="599.933" cy="137.856" r="4" fill="#0" id="circle68"/>
	<circle cx="610.935" cy="203.867" r="4" fill="#0" id="circle69"/>
	<circle cx="618.27" cy="137.856" r="4" fill="#0" id="circle70"/>
	<circle cx="627.438" cy="213.035" r="4" fill="#0" id="circle71"/>
	<circle cx="636.606" cy="137.856" r="4" fill="#0" id="circle72"/>
	<circle cx="643.941" cy="203.867" r="4" fill="#0" id="circle73"/>
	<circle cx="654.943" cy="137.856" r="4" fill="#0" id="circle74"/>
	<circle cx="662.277" cy="203.867" r="4" fill="#0" id="circle75"/>
	<circle cx="673.279" cy="137.856" r="4" fill="#0" id="circle76"/>
	<circle cx="678.78" cy="213.035" r="4" fill="#0" id="circle77"/>
	<circle cx="691.616" cy="137.856" r="4" fill="#0" id="circle78"/>
	<circle cx="697.116" cy="211.201" r="4" fill="#0" id="circle79"/>
	<circle cx="709.952" cy="137.856" r="4" fill="#0" id="circle80"/>
	<circle cx="715.453" cy="203.867" r="4" fill="#0" id="circle81"/>
	<circle cx="728.288" cy="137.856" r="4" fill="#0" id="circle82"/>
	<circle cx="731.956" cy="213.035" r="4" fill="#0" id="circle83"/>
	<circle cx="746.625" cy="137.856" r="4" fill="#0" id="circle84"/>
	<circle cx="748.458" cy="203.867" r="4" fill="#0" id="circle85"/>
	<circle cx="764.961" cy="137.856" r="4" fill="#0" id="circle86"/>
	<circle cx="764.961" cy="213.035" r="4" fill="#0" id="circle87"/>
	<circle cx="781.464" cy="203.867" r="4" fill="#0" id="circle88"/>
	<circle cx="783.298" cy="137.856" r="4" fill="#0" id="circle89"/>
	<circle cx="797.967" cy="213.035" r="4" fill="#0" id="circle90"/>
	<circle cx="801.634" cy="137.856" r="4" fill="#0" id="circle91"/>
	<circle cx="810.802" cy="317.553" r="4" fill="#0" id="circle92"/>
	<circle cx="816.303" cy="211.201" r="4" fill="#0" id="circle93"/>
	<circle cx="819.97" cy="137.856" r="4" fill="#0" id="circle94"/>
	<circle cx="819.97" cy="334.055" r="4" fill="#0" id="circle95"/>
	<circle cx="825.471" cy="302.884" r="4" fill="#0" id="circle96"/>
	<circle cx="829.139" cy="51.6747" r="4" fill="#0" id="circle97"/>
	<circle cx="829.139" cy="70.0111" r="4" fill="#0" id="circle98"/>
	<circle cx="834.64" cy="203.867" r="4" fill="#0" id="circle99"/>
	<circle cx="834.64" cy="284.547" r="4" fill="#0" id="circle100"/>
	<circle cx="838.307" cy="33.3383" r="4" fill="#0" id="circle101"/>
	<circle cx="838.307" cy="86.5139" r="4" fill="#0" id="circle102"/>
	<circle cx="838.307" cy="137.856" r="4" fill="#0" id="circle103"/>
	<circle cx="838.307" cy="332.222" r="4" fill="#0" id="circle104"/>
	<circle cx="847.475" cy="103.017" r="4" fill="#0" id="circle105"/>
	<circle cx="847.475" cy="253.375" r="4" fill="#0" id="circle106"/>
	<circle cx="852.976" cy="18.6691" r="4" fill="#0" id="circle107"/>
	<circle cx="852.976" cy="203.867" r="4" fill="#0" id="circle108"/>
	<circle cx="856.643" cy="119.519" r="4" fill="#0" id="circle109"/>
	<circle cx="856.643" cy="137.856" r="4" fill="#0" id="circle110"/>
	<circle cx="856.643" cy="225.871" r="4" fill="#0" id="circle111"/>
	<circle cx="856.643" cy="332.222" r="4" fill="#0" id="circle112"/>
	<circle cx="867.645" cy="4" r="4" fill="#0" id="circle113"/>
	<circle cx="874.98" cy="326.721" r="4" fill="#0" id="circle114"/>
	<circle cx="885.982" cy="4" r="4" fill="#0" id="circle115"/>
	<circle cx="893.316" cy="317.553" r="4" fill="#0" id="circle116"/>
	<circle cx="904.318" cy="4" r="4" fill="#0" id="circle117"/>
	<circle cx="907.985" cy="302.884" r="4" fill="#0" id="circle118"/>
	<circle cx="922.654" cy="4" r="4" fill="#0" id="circle119"/>
	<circle cx="922.654" cy="286.381" r="4" fill="#0" id="circle120"/>
	<circle cx="937.323" cy="273.545" r="4" fill="#0" id="circle121"/>
	<circle cx="940.991" cy="4" r="4" fill="#0" id="circle122"/>
	<circle cx="950.159" cy="258.876" r="4" fill="#0" id="circle123"/>
	<circle cx="959.327" cy="4" r="4" fill="#0" id="circle124"/>
	<circle cx="964.828" cy="246.041" r="4" fill="#0" id="circle125"/>
	<circle cx="968.495" cy="222.203" r="4" fill="#0" id="circle126"/>
	<circle cx="975.83" cy="13.1682" r="4" fill="#0" id="circle127"/>
	<circle cx="977.664" cy="112.185" r="4" fill="#0" id="circle128"/>
	<circle cx="977.664" cy="139.689" r="4" fill="#0" id="circle129"/>
	<circle cx="977.664" cy="158.026" r="4" fill="#0" id="circle130"/>
	<circle cx="977.664" cy="176.362" r="4" fill="#0" id="circle131"/>
	<circle cx="977.664" cy="194.699" r="4" fill="#0" id="circle132"/>
	<circle cx="986.832" cy="27.8373" r="4" fill="#0" id="circle133"/>
	<circle cx="996" cy="48.0074" r="4" fill="#0" id="circle134"/>
	<circle cx="996" cy="66.3438" r="4" fill="#0" id="circle135"/>
	<circle cx="996" cy="84.6802" r="4" fill="#0" id="circle136"/>
	<circle cx="996" cy="103.017" r="4" fill="#0" id="circle137"/>
	</g>
</svg>