<?xml version="1.0" encoding="UTF-8" standalone="no"?>
<!-- Created with CurveBenchmark -->
<svg
	xmlns:dc="http://purl.org/dc/elements/1.1/"
	xmlns:cc="http://creativecommons.org/ns#"
	xmlns:rdf="http://www.w3.org/1999/02/22-rdf-syntax-ns#"
	xmlns:svg="http://www.w3.org/2000/svg"
	xmlns="http://www.w3.org/2000/svg"
	xmlns:sodipodi="http://sodipodi.sourceforge.net/DTD/sodipodi-0.dtd"
	xmlns:inkscape="http://www.inkscape.org/namespaces/inkscape"
	width="1000"
	height="1000"
	id="svg2"
	version="1.1"
	sodipodi:docname="manifold/connect2d-classic19.png.txt">
<defs
	id="defs4" />
<metadata
	id="metadata7">
	<rdf:RDF>
		<cc:Work
			rdf:about="">
			<dc:format>image/svg+xml</dc:format>
			<dc:type
				rdf:resource="http://purl.org/dc/dcmitype/StillImage" />
			<dc:title></dc:title>
		</cc:Work>
	</rdf:RDF>
</metadata>
<g
	inkscape:label="Layer 1"
	inkscape:groupmode="layer"
	id="layer1">
	<path style="fill:none;stroke:red;stroke-width:1px;stroke-linecap:butt;stroke-linejoin:miter;stroke-opacity:1" d="M 996,290.048 977.664,284.547 z" id="boundary" inkscape:connector-curvature="0" />
	<path style="fill:none;stroke:red;stroke-width:1px;stroke-linecap:butt;stroke-linejoin:miter;stroke-opacity:1" d="M 977.664,284.547 968.495,262.543 z" id="boundary" inkscape:connector-curvature="0" />
	<path style="fill:none;stroke:red;stroke-width:1px;stroke-linecap:butt;stroke-linejoin:miter;stroke-opacity:1" d="M 968.495,262.543 959.327,280.88 z" id="boundary" inkscape:connector-curvature="0" />
	<path style="fill:none;stroke:red;stroke-width:1px;stroke-linecap:butt;stroke-linejoin:miter;stroke-opacity:1" d="M 959.327,280.88 959.327,299.216 z" id="boundary" inkscape:connector-curvature="0" />
	<path style="fill:none;stroke:red;stroke-width:1px;stroke-linecap:butt;stroke-linejoin:miter;stroke-opacity:1" d="M 959.327,299.216 959.327,317.553 z" id="boundary" inkscape:connector-curvature="0" />
	<path style="fill:none;stroke:red;stroke-width:1px;stroke-linecap:butt;stroke-linejoin:miter;stroke-opacity:1" d="M 959.327,317.553 946.492,332.222 z" id="boundary" inkscape:connector-curvature="0" />
	<path style="fill:none;stroke:red;stroke-width:1px;stroke-linecap:butt;stroke-linejoin:miter;stroke-opacity:1" d="M 946.492,332.222 931.823,345.057 z" id="boundary" inkscape:connector-curvature="0" />
	<path style="fill:none;stroke:red;stroke-width:1px;stroke-linecap:butt;stroke-linejoin:miter;stroke-opacity:1" d="M 931.823,345.057 915.32,354.226 z" id="boundary" inkscape:connector-curvature="0" />
	<path style="fill:none;stroke:red;stroke-width:1px;stroke-linecap:butt;stroke-linejoin:miter;stroke-opacity:1" d="M 915.32,354.226 896.983,359.726 z" id="boundary" inkscape:connector-curvature="0" />
	<path style="fill:none;stroke:red;stroke-width:1px;stroke-linecap:butt;stroke-linejoin:miter;stroke-opacity:1" d="M 896.983,359.726 878.647,352.392 z" id="boundary" inkscape:connector-curvature="0" />
	<path style="fill:none;stroke:red;stroke-width:1px;stroke-linecap:butt;stroke-linejoin:miter;stroke-opacity:1" d="M 878.647,352.392 862.144,343.224 z" id="boundary" inkscape:connector-curvature="0" />
	<path style="fill:none;stroke:red;stroke-width:1px;stroke-linecap:butt;stroke-linejoin:miter;stroke-opacity:1" d="M 862.144,343.224 847.475,330.388 z" id="boundary" inkscape:connector-curvature="0" />
	<path style="fill:none;stroke:red;stroke-width:1px;stroke-linecap:butt;stroke-linejoin:miter;stroke-opacity:1" d="M 847.475,330.388 834.64,315.719 z" id="boundary" inkscape:connector-curvature="0" />
	<path style="fill:none;stroke:red;stroke-width:1px;stroke-linecap:butt;stroke-linejoin:miter;stroke-opacity:1" d="M 834.64,315.719 816.303,317.553 z" id="boundary" inkscape:connector-curvature="0" />
	<path style="fill:none;stroke:red;stroke-width:1px;stroke-linecap:butt;stroke-linejoin:miter;stroke-opacity:1" d="M 816.303,317.553 799.8,308.384 z" id="boundary" inkscape:connector-curvature="0" />
	<path style="fill:none;stroke:red;stroke-width:1px;stroke-linecap:butt;stroke-linejoin:miter;stroke-opacity:1" d="M 799.8,308.384 781.464,308.384 z" id="boundary" inkscape:connector-curvature="0" />
	<path style="fill:none;stroke:red;stroke-width:1px;stroke-linecap:butt;stroke-linejoin:miter;stroke-opacity:1" d="M 781.464,308.384 764.961,317.553 z" id="boundary" inkscape:connector-curvature="0" />
	<path style="fill:none;stroke:red;stroke-width:1px;stroke-linecap:butt;stroke-linejoin:miter;stroke-opacity:1" d="M 764.961,317.553 748.458,326.721 z" id="boundary" inkscape:connector-curvature="0" />
	<path style="fill:none;stroke:red;stroke-width:1px;stroke-linecap:butt;stroke-linejoin:miter;stroke-opacity:1" d="M 748.458,326.721 731.956,335.889 z" id="boundary" inkscape:connector-curvature="0" />
	<path style="fill:none;stroke:red;stroke-width:1px;stroke-linecap:butt;stroke-linejoin:miter;stroke-opacity:1" d="M 731.956,335.889 715.453,345.057 z" id="boundary" inkscape:connector-curvature="0" />
	<path style="fill:none;stroke:red;stroke-width:1px;stroke-linecap:butt;stroke-linejoin:miter;stroke-opacity:1" d="M 715.453,345.057 698.95,335.889 z" id="boundary" inkscape:connector-curvature="0" />
	<path style="fill:none;stroke:red;stroke-width:1px;stroke-linecap:butt;stroke-linejoin:miter;stroke-opacity:1" d="M 698.95,335.889 680.614,335.889 z" id="boundary" inkscape:connector-curvature="0" />
	<path style="fill:none;stroke:red;stroke-width:1px;stroke-linecap:butt;stroke-linejoin:miter;stroke-opacity:1" d="M 680.614,335.889 664.111,326.721 z" id="boundary" inkscape:connector-curvature="0" />
	<path style="fill:none;stroke:red;stroke-width:1px;stroke-linecap:butt;stroke-linejoin:miter;stroke-opacity:1" d="M 664.111,326.721 647.608,317.553 z" id="boundary" inkscape:connector-curvature="0" />
	<path style="fill:none;stroke:red;stroke-width:1px;stroke-linecap:butt;stroke-linejoin:miter;stroke-opacity:1" d="M 647.608,317.553 629.272,317.553 z" id="boundary" inkscape:connector-curvature="0" />
	<path style="fill:none;stroke:red;stroke-width:1px;stroke-linecap:butt;stroke-linejoin:miter;stroke-opacity:1" d="M 629.272,317.553 610.935,317.553 z" id="boundary" inkscape:connector-curvature="0" />
	<path style="fill:none;stroke:red;stroke-width:1px;stroke-linecap:butt;stroke-linejoin:miter;stroke-opacity:1" d="M 610.935,317.553 592.599,317.553 z" id="boundary" inkscape:connector-curvature="0" />
	<path style="fill:none;stroke:red;stroke-width:1px;stroke-linecap:butt;stroke-linejoin:miter;stroke-opacity:1" d="M 592.599,317.553 574.262,317.553 z" id="boundary" inkscape:connector-curvature="0" />
	<path style="fill:none;stroke:red;stroke-width:1px;stroke-linecap:butt;stroke-linejoin:miter;stroke-opacity:1" d="M 574.262,317.553 555.926,317.553 z" id="boundary" inkscape:connector-curvature="0" />
	<path style="fill:none;stroke:red;stroke-width:1px;stroke-linecap:butt;stroke-linejoin:miter;stroke-opacity:1" d="M 555.926,317.553 537.59,317.553 z" id="boundary" inkscape:connector-curvature="0" />
	<path style="fill:none;stroke:red;stroke-width:1px;stroke-linecap:butt;stroke-linejoin:miter;stroke-opacity:1" d="M 537.59,317.553 519.253,317.553 z" id="boundary" inkscape:connector-curvature="0" />
	<path style="fill:none;stroke:red;stroke-width:1px;stroke-linecap:butt;stroke-linejoin:miter;stroke-opacity:1" d="M 519.253,317.553 500.917,317.553 z" id="boundary" inkscape:connector-curvature="0" />
	<path style="fill:none;stroke:red;stroke-width:1px;stroke-linecap:butt;stroke-linejoin:miter;stroke-opacity:1" d="M 500.917,317.553 482.58,317.553 z" id="boundary" inkscape:connector-curvature="0" />
	<path style="fill:none;stroke:red;stroke-width:1px;stroke-linecap:butt;stroke-linejoin:miter;stroke-opacity:1" d="M 482.58,317.553 464.244,317.553 z" id="boundary" inkscape:connector-curvature="0" />
	<path style="fill:none;stroke:red;stroke-width:1px;stroke-linecap:butt;stroke-linejoin:miter;stroke-opacity:1" d="M 464.244,317.553 445.908,317.553 z" id="boundary" inkscape:connector-curvature="0" />
	<path style="fill:none;stroke:red;stroke-width:1px;stroke-linecap:butt;stroke-linejoin:miter;stroke-opacity:1" d="M 445.908,317.553 427.571,317.553 z" id="boundary" inkscape:connector-curvature="0" />
	<path style="fill:none;stroke:red;stroke-width:1px;stroke-linecap:butt;stroke-linejoin:miter;stroke-opacity:1" d="M 427.571,317.553 409.235,317.553 z" id="boundary" inkscape:connector-curvature="0" />
	<path style="fill:none;stroke:red;stroke-width:1px;stroke-linecap:butt;stroke-linejoin:miter;stroke-opacity:1" d="M 409.235,317.553 390.898,317.553 z" id="boundary" inkscape:connector-curvature="0" />
	<path style="fill:none;stroke:red;stroke-width:1px;stroke-linecap:butt;stroke-linejoin:miter;stroke-opacity:1" d="M 390.898,317.553 372.562,317.553 z" id="boundary" inkscape:connector-curvature="0" />
	<path style="fill:none;stroke:red;stroke-width:1px;stroke-linecap:butt;stroke-linejoin:miter;stroke-opacity:1" d="M 372.562,317.553 354.226,317.553 z" id="boundary" inkscape:connector-curvature="0" />
	<path style="fill:none;stroke:red;stroke-width:1px;stroke-linecap:butt;stroke-linejoin:miter;stroke-opacity:1" d="M 354.226,317.553 335.889,317.553 z" id="boundary" inkscape:connector-curvature="0" />
	<path style="fill:none;stroke:red;stroke-width:1px;stroke-linecap:butt;stroke-linejoin:miter;stroke-opacity:1" d="M 335.889,317.553 317.553,317.553 z" id="boundary" inkscape:connector-curvature="0" />
	<path style="fill:none;stroke:red;stroke-width:1px;stroke-linecap:butt;stroke-linejoin:miter;stroke-opacity:1" d="M 317.553,317.553 299.216,317.553 z" id="boundary" inkscape:connector-curvature="0" />
	<path style="fill:none;stroke:red;stroke-width:1px;stroke-linecap:butt;stroke-linejoin:miter;stroke-opacity:1" d="M 299.216,317.553 290.048,345.057 z" id="boundary" inkscape:connector-curvature="0" />
	<path style="fill:none;stroke:red;stroke-width:1px;stroke-linecap:butt;stroke-linejoin:miter;stroke-opacity:1" d="M 290.048,345.057 271.712,363.394 z" id="boundary" inkscape:connector-curvature="0" />
	<path style="fill:none;stroke:red;stroke-width:1px;stroke-linecap:butt;stroke-linejoin:miter;stroke-opacity:1" d="M 271.712,363.394 258.876,378.063 z" id="boundary" inkscape:connector-curvature="0" />
	<path style="fill:none;stroke:red;stroke-width:1px;stroke-linecap:butt;stroke-linejoin:miter;stroke-opacity:1" d="M 258.876,378.063 240.54,381.73 z" id="boundary" inkscape:connector-curvature="0" />
	<path style="fill:none;stroke:red;stroke-width:1px;stroke-linecap:butt;stroke-linejoin:miter;stroke-opacity:1" d="M 240.54,381.73 222.203,381.73 z" id="boundary" inkscape:connector-curvature="0" />
	<path style="fill:none;stroke:red;stroke-width:1px;stroke-linecap:butt;stroke-linejoin:miter;stroke-opacity:1" d="M 222.203,381.73 203.867,381.73 z" id="boundary" inkscape:connector-curvature="0" />
	<path style="fill:none;stroke:red;stroke-width:1px;stroke-linecap:butt;stroke-linejoin:miter;stroke-opacity:1" d="M 203.867,381.73 187.364,372.562 z" id="boundary" inkscape:connector-curvature="0" />
	<path style="fill:none;stroke:red;stroke-width:1px;stroke-linecap:butt;stroke-linejoin:miter;stroke-opacity:1" d="M 187.364,372.562 169.028,367.061 z" id="boundary" inkscape:connector-curvature="0" />
	<path style="fill:none;stroke:red;stroke-width:1px;stroke-linecap:butt;stroke-linejoin:miter;stroke-opacity:1" d="M 169.028,367.061 161.693,348.725 z" id="boundary" inkscape:connector-curvature="0" />
	<path style="fill:none;stroke:red;stroke-width:1px;stroke-linecap:butt;stroke-linejoin:miter;stroke-opacity:1" d="M 161.693,348.725 147.024,335.889 z" id="boundary" inkscape:connector-curvature="0" />
	<path style="fill:none;stroke:red;stroke-width:1px;stroke-linecap:butt;stroke-linejoin:miter;stroke-opacity:1" d="M 147.024,335.889 132.355,348.725 z" id="boundary" inkscape:connector-curvature="0" />
	<path style="fill:none;stroke:red;stroke-width:1px;stroke-linecap:butt;stroke-linejoin:miter;stroke-opacity:1" d="M 132.355,348.725 114.018,357.893 z" id="boundary" inkscape:connector-curvature="0" />
	<path style="fill:none;stroke:red;stroke-width:1px;stroke-linecap:butt;stroke-linejoin:miter;stroke-opacity:1" d="M 114.018,357.893 95.6821,363.394 z" id="boundary" inkscape:connector-curvature="0" />
	<path style="fill:none;stroke:red;stroke-width:1px;stroke-linecap:butt;stroke-linejoin:miter;stroke-opacity:1" d="M 95.6821,363.394 77.3457,363.394 z" id="boundary" inkscape:connector-curvature="0" />
	<path style="fill:none;stroke:red;stroke-width:1px;stroke-linecap:butt;stroke-linejoin:miter;stroke-opacity:1" d="M 77.3457,363.394 59.0092,357.893 z" id="boundary" inkscape:connector-curvature="0" />
	<path style="fill:none;stroke:red;stroke-width:1px;stroke-linecap:butt;stroke-linejoin:miter;stroke-opacity:1" d="M 59.0092,357.893 42.5065,348.725 z" id="boundary" inkscape:connector-curvature="0" />
	<path style="fill:none;stroke:red;stroke-width:1px;stroke-linecap:butt;stroke-linejoin:miter;stroke-opacity:1" d="M 42.5065,348.725 27.8373,335.889 z" id="boundary" inkscape:connector-curvature="0" />
	<path style="fill:none;stroke:red;stroke-width:1px;stroke-linecap:butt;stroke-linejoin:miter;stroke-opacity:1" d="M 27.8373,335.889 22.3364,317.553 z" id="boundary" inkscape:connector-curvature="0" />
	<path style="fill:none;stroke:red;stroke-width:1px;stroke-linecap:butt;stroke-linejoin:miter;stroke-opacity:1" d="M 22.3364,317.553 13.1682,301.05 z" id="boundary" inkscape:connector-curvature="0" />
	<path style="fill:none;stroke:red;stroke-width:1px;stroke-linecap:butt;stroke-linejoin:miter;stroke-opacity:1" d="M 13.1682,301.05 4,284.547 z" id="boundary" inkscape:connector-curvature="0" />
	<path style="fill:none;stroke:red;stroke-width:1px;stroke-linecap:butt;stroke-linejoin:miter;stroke-opacity:1" d="M 4,284.547 13.1682,266.211 z" id="boundary" inkscape:connector-curvature="0" />
	<path style="fill:none;stroke:red;stroke-width:1px;stroke-linecap:butt;stroke-linejoin:miter;stroke-opacity:1" d="M 13.1682,266.211 13.1682,247.874 z" id="boundary" inkscape:connector-curvature="0" />
	<path style="fill:none;stroke:red;stroke-width:1px;stroke-linecap:butt;stroke-linejoin:miter;stroke-opacity:1" d="M 13.1682,247.874 13.1682,220.37 z" id="boundary" inkscape:connector-curvature="0" />
	<path style="fill:none;stroke:red;stroke-width:1px;stroke-linecap:butt;stroke-linejoin:miter;stroke-opacity:1" d="M 13.1682,220.37 31.5046,214.869 z" id="boundary" inkscape:connector-curvature="0" />
	<path style="fill:none;stroke:red;stroke-width:1px;stroke-linecap:butt;stroke-linejoin:miter;stroke-opacity:1" d="M 31.5046,214.869 48.0074,205.701 z" id="boundary" inkscape:connector-curvature="0" />
	<path style="fill:none;stroke:red;stroke-width:1px;stroke-linecap:butt;stroke-linejoin:miter;stroke-opacity:1" d="M 48.0074,205.701 59.0092,174.529 z" id="boundary" inkscape:connector-curvature="0" />
	<path style="fill:none;stroke:red;stroke-width:1px;stroke-linecap:butt;stroke-linejoin:miter;stroke-opacity:1" d="M 59.0092,174.529 77.3457,165.36 z" id="boundary" inkscape:connector-curvature="0" />
	<path style="fill:none;stroke:red;stroke-width:1px;stroke-linecap:butt;stroke-linejoin:miter;stroke-opacity:1" d="M 77.3457,165.36 95.6821,165.36 z" id="boundary" inkscape:connector-curvature="0" />
	<path style="fill:none;stroke:red;stroke-width:1px;stroke-linecap:butt;stroke-linejoin:miter;stroke-opacity:1" d="M 95.6821,165.36 114.018,169.028 z" id="boundary" inkscape:connector-curvature="0" />
	<path style="fill:none;stroke:red;stroke-width:1px;stroke-linecap:butt;stroke-linejoin:miter;stroke-opacity:1" d="M 114.018,169.028 123.187,147.024 z" id="boundary" inkscape:connector-curvature="0" />
	<path style="fill:none;stroke:red;stroke-width:1px;stroke-linecap:butt;stroke-linejoin:miter;stroke-opacity:1" d="M 123.187,147.024 137.856,132.355 z" id="boundary" inkscape:connector-curvature="0" />
	<path style="fill:none;stroke:red;stroke-width:1px;stroke-linecap:butt;stroke-linejoin:miter;stroke-opacity:1" d="M 137.856,132.355 154.359,123.187 z" id="boundary" inkscape:connector-curvature="0" />
	<path style="fill:none;stroke:red;stroke-width:1px;stroke-linecap:butt;stroke-linejoin:miter;stroke-opacity:1" d="M 154.359,123.187 172.695,125.02 z" id="boundary" inkscape:connector-curvature="0" />
	<path style="fill:none;stroke:red;stroke-width:1px;stroke-linecap:butt;stroke-linejoin:miter;stroke-opacity:1" d="M 172.695,125.02 191.031,123.187 z" id="boundary" inkscape:connector-curvature="0" />
	<path style="fill:none;stroke:red;stroke-width:1px;stroke-linecap:butt;stroke-linejoin:miter;stroke-opacity:1" d="M 191.031,123.187 209.368,125.02 z" id="boundary" inkscape:connector-curvature="0" />
	<path style="fill:none;stroke:red;stroke-width:1px;stroke-linecap:butt;stroke-linejoin:miter;stroke-opacity:1" d="M 209.368,125.02 227.704,123.187 z" id="boundary" inkscape:connector-curvature="0" />
	<path style="fill:none;stroke:red;stroke-width:1px;stroke-linecap:butt;stroke-linejoin:miter;stroke-opacity:1" d="M 227.704,123.187 246.041,125.02 z" id="boundary" inkscape:connector-curvature="0" />
	<path style="fill:none;stroke:red;stroke-width:1px;stroke-linecap:butt;stroke-linejoin:miter;stroke-opacity:1" d="M 246.041,125.02 264.377,132.355 z" id="boundary" inkscape:connector-curvature="0" />
	<path style="fill:none;stroke:red;stroke-width:1px;stroke-linecap:butt;stroke-linejoin:miter;stroke-opacity:1" d="M 264.377,132.355 280.88,123.187 z" id="boundary" inkscape:connector-curvature="0" />
	<path style="fill:none;stroke:red;stroke-width:1px;stroke-linecap:butt;stroke-linejoin:miter;stroke-opacity:1" d="M 280.88,123.187 299.216,123.187 z" id="boundary" inkscape:connector-curvature="0" />
	<path style="fill:none;stroke:red;stroke-width:1px;stroke-linecap:butt;stroke-linejoin:miter;stroke-opacity:1" d="M 299.216,123.187 317.553,123.187 z" id="boundary" inkscape:connector-curvature="0" />
	<path style="fill:none;stroke:red;stroke-width:1px;stroke-linecap:butt;stroke-linejoin:miter;stroke-opacity:1" d="M 317.553,123.187 335.889,123.187 z" id="boundary" inkscape:connector-curvature="0" />
	<path style="fill:none;stroke:red;stroke-width:1px;stroke-linecap:butt;stroke-linejoin:miter;stroke-opacity:1" d="M 335.889,123.187 354.226,123.187 z" id="boundary" inkscape:connector-curvature="0" />
	<path style="fill:none;stroke:red;stroke-width:1px;stroke-linecap:butt;stroke-linejoin:miter;stroke-opacity:1" d="M 354.226,123.187 372.562,123.187 z" id="boundary" inkscape:connector-curvature="0" />
	<path style="fill:none;stroke:red;stroke-width:1px;stroke-linecap:butt;stroke-linejoin:miter;stroke-opacity:1" d="M 372.562,123.187 390.898,117.686 z" id="boundary" inkscape:connector-curvature="0" />
	<path style="fill:none;stroke:red;stroke-width:1px;stroke-linecap:butt;stroke-linejoin:miter;stroke-opacity:1" d="M 390.898,117.686 398.233,90.1811 z" id="boundary" inkscape:connector-curvature="0" />
	<path style="fill:none;stroke:red;stroke-width:1px;stroke-linecap:butt;stroke-linejoin:miter;stroke-opacity:1" d="M 398.233,90.1811 398.233,71.8447 z" id="boundary" inkscape:connector-curvature="0" />
	<path style="fill:none;stroke:red;stroke-width:1px;stroke-linecap:butt;stroke-linejoin:miter;stroke-opacity:1" d="M 398.233,71.8447 398.233,53.5083 z" id="boundary" inkscape:connector-curvature="0" />
	<path style="fill:none;stroke:red;stroke-width:1px;stroke-linecap:butt;stroke-linejoin:miter;stroke-opacity:1" d="M 398.233,53.5083 389.065,37.0055 z" id="boundary" inkscape:connector-curvature="0" />
	<path style="fill:none;stroke:red;stroke-width:1px;stroke-linecap:butt;stroke-linejoin:miter;stroke-opacity:1" d="M 389.065,37.0055 407.401,27.8373 z" id="boundary" inkscape:connector-curvature="0" />
	<path style="fill:none;stroke:red;stroke-width:1px;stroke-linecap:butt;stroke-linejoin:miter;stroke-opacity:1" d="M 407.401,27.8373 425.738,27.8373 z" id="boundary" inkscape:connector-curvature="0" />
	<path style="fill:none;stroke:red;stroke-width:1px;stroke-linecap:butt;stroke-linejoin:miter;stroke-opacity:1" d="M 425.738,27.8373 444.074,22.3364 z" id="boundary" inkscape:connector-curvature="0" />
	<path style="fill:none;stroke:red;stroke-width:1px;stroke-linecap:butt;stroke-linejoin:miter;stroke-opacity:1" d="M 444.074,22.3364 462.41,22.3364 z" id="boundary" inkscape:connector-curvature="0" />
	<path style="fill:none;stroke:red;stroke-width:1px;stroke-linecap:butt;stroke-linejoin:miter;stroke-opacity:1" d="M 462.41,22.3364 478.913,13.1682 z" id="boundary" inkscape:connector-curvature="0" />
	<path style="fill:none;stroke:red;stroke-width:1px;stroke-linecap:butt;stroke-linejoin:miter;stroke-opacity:1" d="M 478.913,13.1682 497.25,13.1682 z" id="boundary" inkscape:connector-curvature="0" />
	<path style="fill:none;stroke:red;stroke-width:1px;stroke-linecap:butt;stroke-linejoin:miter;stroke-opacity:1" d="M 497.25,13.1682 515.586,13.1682 z" id="boundary" inkscape:connector-curvature="0" />
	<path style="fill:none;stroke:red;stroke-width:1px;stroke-linecap:butt;stroke-linejoin:miter;stroke-opacity:1" d="M 515.586,13.1682 533.922,13.1682 z" id="boundary" inkscape:connector-curvature="0" />
	<path style="fill:none;stroke:red;stroke-width:1px;stroke-linecap:butt;stroke-linejoin:miter;stroke-opacity:1" d="M 533.922,13.1682 552.259,13.1682 z" id="boundary" inkscape:connector-curvature="0" />
	<path style="fill:none;stroke:red;stroke-width:1px;stroke-linecap:butt;stroke-linejoin:miter;stroke-opacity:1" d="M 552.259,13.1682 570.595,13.1682 z" id="boundary" inkscape:connector-curvature="0" />
	<path style="fill:none;stroke:red;stroke-width:1px;stroke-linecap:butt;stroke-linejoin:miter;stroke-opacity:1" d="M 570.595,13.1682 587.098,4 z" id="boundary" inkscape:connector-curvature="0" />
	<path style="fill:none;stroke:red;stroke-width:1px;stroke-linecap:butt;stroke-linejoin:miter;stroke-opacity:1" d="M 587.098,4 603.601,13.1682 z" id="boundary" inkscape:connector-curvature="0" />
	<path style="fill:none;stroke:red;stroke-width:1px;stroke-linecap:butt;stroke-linejoin:miter;stroke-opacity:1" d="M 603.601,13.1682 621.937,5.83364 z" id="boundary" inkscape:connector-curvature="0" />
	<path style="fill:none;stroke:red;stroke-width:1px;stroke-linecap:butt;stroke-linejoin:miter;stroke-opacity:1" d="M 621.937,5.83364 640.274,5.83364 z" id="boundary" inkscape:connector-curvature="0" />
	<path style="fill:none;stroke:red;stroke-width:1px;stroke-linecap:butt;stroke-linejoin:miter;stroke-opacity:1" d="M 640.274,5.83364 658.61,5.83364 z" id="boundary" inkscape:connector-curvature="0" />
	<path style="fill:none;stroke:red;stroke-width:1px;stroke-linecap:butt;stroke-linejoin:miter;stroke-opacity:1" d="M 658.61,5.83364 676.946,5.83364 z" id="boundary" inkscape:connector-curvature="0" />
	<path style="fill:none;stroke:red;stroke-width:1px;stroke-linecap:butt;stroke-linejoin:miter;stroke-opacity:1" d="M 676.946,5.83364 695.283,5.83364 z" id="boundary" inkscape:connector-curvature="0" />
	<path style="fill:none;stroke:red;stroke-width:1px;stroke-linecap:butt;stroke-linejoin:miter;stroke-opacity:1" d="M 695.283,5.83364 713.619,5.83364 z" id="boundary" inkscape:connector-curvature="0" />
	<path style="fill:none;stroke:red;stroke-width:1px;stroke-linecap:butt;stroke-linejoin:miter;stroke-opacity:1" d="M 713.619,5.83364 731.956,13.1682 z" id="boundary" inkscape:connector-curvature="0" />
	<path style="fill:none;stroke:red;stroke-width:1px;stroke-linecap:butt;stroke-linejoin:miter;stroke-opacity:1" d="M 731.956,13.1682 750.292,13.1682 z" id="boundary" inkscape:connector-curvature="0" />
	<path style="fill:none;stroke:red;stroke-width:1px;stroke-linecap:butt;stroke-linejoin:miter;stroke-opacity:1" d="M 750.292,13.1682 768.628,13.1682 z" id="boundary" inkscape:connector-curvature="0" />
	<path style="fill:none;stroke:red;stroke-width:1px;stroke-linecap:butt;stroke-linejoin:miter;stroke-opacity:1" d="M 768.628,13.1682 786.965,13.1682 z" id="boundary" inkscape:connector-curvature="0" />
	<path style="fill:none;stroke:red;stroke-width:1px;stroke-linecap:butt;stroke-linejoin:miter;stroke-opacity:1" d="M 786.965,13.1682 805.301,13.1682 z" id="boundary" inkscape:connector-curvature="0" />
	<path style="fill:none;stroke:red;stroke-width:1px;stroke-linecap:butt;stroke-linejoin:miter;stroke-opacity:1" d="M 805.301,13.1682 823.638,13.1682 z" id="boundary" inkscape:connector-curvature="0" />
	<path style="fill:none;stroke:red;stroke-width:1px;stroke-linecap:butt;stroke-linejoin:miter;stroke-opacity:1" d="M 823.638,13.1682 841.974,13.1682 z" id="boundary" inkscape:connector-curvature="0" />
	<path style="fill:none;stroke:red;stroke-width:1px;stroke-linecap:butt;stroke-linejoin:miter;stroke-opacity:1" d="M 841.974,13.1682 860.311,13.1682 z" id="boundary" inkscape:connector-curvature="0" />
	<path style="fill:none;stroke:red;stroke-width:1px;stroke-linecap:butt;stroke-linejoin:miter;stroke-opacity:1" d="M 860.311,13.1682 878.647,13.1682 z" id="boundary" inkscape:connector-curvature="0" />
	<path style="fill:none;stroke:red;stroke-width:1px;stroke-linecap:butt;stroke-linejoin:miter;stroke-opacity:1" d="M 878.647,13.1682 896.983,13.1682 z" id="boundary" inkscape:connector-curvature="0" />
	<path style="fill:none;stroke:red;stroke-width:1px;stroke-linecap:butt;stroke-linejoin:miter;stroke-opacity:1" d="M 896.983,13.1682 915.32,13.1682 z" id="boundary" inkscape:connector-curvature="0" />
	<path style="fill:none;stroke:red;stroke-width:1px;stroke-linecap:butt;stroke-linejoin:miter;stroke-opacity:1" d="M 915.32,13.1682 931.823,22.3364 z" id="boundary" inkscape:connector-curvature="0" />
	<path style="fill:none;stroke:red;stroke-width:1px;stroke-linecap:butt;stroke-linejoin:miter;stroke-opacity:1" d="M 931.823,22.3364 950.159,22.3364 z" id="boundary" inkscape:connector-curvature="0" />
	<path style="fill:none;stroke:red;stroke-width:1px;stroke-linecap:butt;stroke-linejoin:miter;stroke-opacity:1" d="M 950.159,22.3364 966.662,31.5046 z" id="boundary" inkscape:connector-curvature="0" />
	<path style="fill:none;stroke:red;stroke-width:1px;stroke-linecap:butt;stroke-linejoin:miter;stroke-opacity:1" d="M 966.662,31.5046 968.495,51.6747 z" id="boundary" inkscape:connector-curvature="0" />
	<path style="fill:none;stroke:red;stroke-width:1px;stroke-linecap:butt;stroke-linejoin:miter;stroke-opacity:1" d="M 968.495,51.6747 977.664,68.1774 z" id="boundary" inkscape:connector-curvature="0" />
	<path style="fill:none;stroke:red;stroke-width:1px;stroke-linecap:butt;stroke-linejoin:miter;stroke-opacity:1" d="M 977.664,68.1774 968.495,88.3475 z" id="boundary" inkscape:connector-curvature="0" />
	<path style="fill:none;stroke:red;stroke-width:1px;stroke-linecap:butt;stroke-linejoin:miter;stroke-opacity:1" d="M 968.495,88.3475 977.664,104.85 z" id="boundary" inkscape:connector-curvature="0" />
	<path style="fill:none;stroke:red;stroke-width:1px;stroke-linecap:butt;stroke-linejoin:miter;stroke-opacity:1" d="M 977.664,104.85 977.664,123.187 z" id="boundary" inkscape:connector-curvature="0" />
	<path style="fill:none;stroke:red;stroke-width:1px;stroke-linecap:butt;stroke-linejoin:miter;stroke-opacity:1" d="M 977.664,123.187 968.495,143.357 z" id="boundary" inkscape:connector-curvature="0" />
	<path style="fill:none;stroke:red;stroke-width:1px;stroke-linecap:butt;stroke-linejoin:miter;stroke-opacity:1" d="M 968.495,143.357 977.664,159.86 z" id="boundary" inkscape:connector-curvature="0" />
	<path style="fill:none;stroke:red;stroke-width:1px;stroke-linecap:butt;stroke-linejoin:miter;stroke-opacity:1" d="M 977.664,159.86 986.832,176.362 z" id="boundary" inkscape:connector-curvature="0" />
	<path style="fill:none;stroke:red;stroke-width:1px;stroke-linecap:butt;stroke-linejoin:miter;stroke-opacity:1" d="M 986.832,176.362 996,192.865 z" id="boundary" inkscape:connector-curvature="0" />
	<path style="fill:none;stroke:red;stroke-width:1px;stroke-linecap:butt;stroke-linejoin:miter;stroke-opacity:1" d="M 996,192.865 996,211.201 z" id="boundary" inkscape:connector-curvature="0" />
	<path style="fill:none;stroke:red;stroke-width:1px;stroke-linecap:butt;stroke-linejoin:miter;stroke-opacity:1" d="M 996,211.201 986.832,235.039 z" id="boundary" inkscape:connector-curvature="0" />
	<path style="fill:none;stroke:red;stroke-width:1px;stroke-linecap:butt;stroke-linejoin:miter;stroke-opacity:1" d="M 986.832,235.039 986.832,253.375 z" id="boundary" inkscape:connector-curvature="0" />
	<path style="fill:none;stroke:red;stroke-width:1px;stroke-linecap:butt;stroke-linejoin:miter;stroke-opacity:1" d="M 986.832,253.375 996,269.878 z" id="boundary" inkscape:connector-curvature="0" />
	<path style="fill:none;stroke:red;stroke-width:1px;stroke-linecap:butt;stroke-linejoin:miter;stroke-opacity:1" d="M 996,269.878 996,290.048 z" id="boundary" inkscape:connector-curvature="0" />
	<circle cx="4" cy="284.547" r="4" fill="#0" id="circle0"/>
	<circle cx="13.1682" cy="220.37" r="4" fill="#0" id="circle1"/>
	<circle cx="13.1682" cy="247.874" r="4" fill="#0" id="circle2"/>
	<circle cx="13.1682" cy="266.211" r="4" fill="#0" id="circle3"/>
	<circle cx="13.1682" cy="301.05" r="4" fill="#0" id="circle4"/>
	<circle cx="22.3364" cy="317.553" r="4" fill="#0" id="circle5"/>
	<circle cx="27.8373" cy="335.889" r="4" fill="#0" id="circle6"/>
	<circle cx="31.5046" cy="214.869" r="4" fill="#0" id="circle7"/>
	<circle cx="42.5065" cy="348.725" r="4" fill="#0" id="circle8"/>
	<circle cx="48.0074" cy="205.701" r="4" fill="#0" id="circle9"/>
	<circle cx="59.0092" cy="174.529" r="4" fill="#0" id="circle10"/>
	<circle cx="59.0092" cy="357.893" r="4" fill="#0" id="circle11"/>
	<circle cx="77.3457" cy="165.36" r="4" fill="#0" id="circle12"/>
	<circle cx="77.3457" cy="363.394" r="4" fill="#0" id="circle13"/>
	<circle cx="95.6821" cy="165.36" r="4" fill="#0" id="circle14"/>
	<circle cx="95.6821" cy="363.394" r="4" fill="#0" id="circle15"/>
	<circle cx="114.018" cy="169.028" r="4" fill="#0" id="circle16"/>
	<circle cx="114.018" cy="357.893" r="4" fill="#0" id="circle17"/>
	<circle cx="123.187" cy="147.024" r="4" fill="#0" id="circle18"/>
	<circle cx="132.355" cy="348.725" r="4" fill="#0" id="circle19"/>
	<circle cx="137.856" cy="132.355" r="4" fill="#0" id="circle20"/>
	<circle cx="147.024" cy="335.889" r="4" fill="#0" id="circle21"/>
	<circle cx="154.359" cy="123.187" r="4" fill="#0" id="circle22"/>
	<circle cx="161.693" cy="348.725" r="4" fill="#0" id="circle23"/>
	<circle cx="169.028" cy="367.061" r="4" fill="#0" id="circle24"/>
	<circle cx="172.695" cy="125.02" r="4" fill="#0" id="circle25"/>
	<circle cx="187.364" cy="372.562" r="4" fill="#0" id="circle26"/>
	<circle cx="191.031" cy="123.187" r="4" fill="#0" id="circle27"/>
	<circle cx="203.867" cy="381.73" r="4" fill="#0" id="circle28"/>
	<circle cx="209.368" cy="125.02" r="4" fill="#0" id="circle29"/>
	<circle cx="222.203" cy="381.73" r="4" fill="#0" id="circle30"/>
	<circle cx="227.704" cy="123.187" r="4" fill="#0" id="circle31"/>
	<circle cx="240.54" cy="381.73" r="4" fill="#0" id="circle32"/>
	<circle cx="246.041" cy="125.02" r="4" fill="#0" id="circle33"/>
	<circle cx="258.876" cy="378.063" r="4" fill="#0" id="circle34"/>
	<circle cx="264.377" cy="132.355" r="4" fill="#0" id="circle35"/>
	<circle cx="271.712" cy="363.394" r="4" fill="#0" id="circle36"/>
	<circle cx="280.88" cy="123.187" r="4" fill="#0" id="circle37"/>
	<circle cx="290.048" cy="345.057" r="4" fill="#0" id="circle38"/>
	<circle cx="299.216" cy="123.187" r="4" fill="#0" id="circle39"/>
	<circle cx="299.216" cy="317.553" r="4" fill="#0" id="circle40"/>
	<circle cx="317.553" cy="123.187" r="4" fill="#0" id="circle41"/>
	<circle cx="317.553" cy="317.553" r="4" fill="#0" id="circle42"/>
	<circle cx="335.889" cy="123.187" r="4" fill="#0" id="circle43"/>
	<circle cx="335.889" cy="317.553" r="4" fill="#0" id="circle44"/>
	<circle cx="354.226" cy="123.187" r="4" fill="#0" id="circle45"/>
	<circle cx="354.226" cy="317.553" r="4" fill="#0" id="circle46"/>
	<circle cx="372.562" cy="123.187" r="4" fill="#0" id="circle47"/>
	<circle cx="372.562" cy="317.553" r="4" fill="#0" id="circle48"/>
	<circle cx="389.065" cy="37.0055" r="4" fill="#0" id="circle49"/>
	<circle cx="390.898" cy="117.686" r="4" fill="#0" id="circle50"/>
	<circle cx="390.898" cy="317.553" r="4" fill="#0" id="circle51"/>
	<circle cx="398.233" cy="53.5083" r="4" fill="#0" id="circle52"/>
	<circle cx="398.233" cy="71.8447" r="4" fill="#0" id="circle53"/>
	<circle cx="398.233" cy="90.1811" r="4" fill="#0" id="circle54"/>
	<circle cx="407.401" cy="27.8373" r="4" fill="#0" id="circle55"/>
	<circle cx="409.235" cy="317.553" r="4" fill="#0" id="circle56"/>
	<circle cx="425.738" cy="27.8373" r="4" fill="#0" id="circle57"/>
	<circle cx="427.571" cy="317.553" r="4" fill="#0" id="circle58"/>
	<circle cx="444.074" cy="22.3364" r="4" fill="#0" id="circle59"/>
	<circle cx="445.908" cy="317.553" r="4" fill="#0" id="circle60"/>
	<circle cx="462.41" cy="22.3364" r="4" fill="#0" id="circle61"/>
	<circle cx="464.244" cy="317.553" r="4" fill="#0" id="circle62"/>
	<circle cx="478.913" cy="13.1682" r="4" fill="#0" id="circle63"/>
	<circle cx="482.58" cy="317.553" r="4" fill="#0" id="circle64"/>
	<circle cx="497.25" cy="13.1682" r="4" fill="#0" id="circle65"/>
	<circle cx="500.917" cy="317.553" r="4" fill="#0" id="circle66"/>
	<circle cx="515.586" cy="13.1682" r="4" fill="#0" id="circle67"/>
	<circle cx="519.253" cy="317.553" r="4" fill="#0" id="circle68"/>
	<circle cx="533.922" cy="13.1682" r="4" fill="#0" id="circle69"/>
	<circle cx="537.59" cy="317.553" r="4" fill="#0" id="circle70"/>
	<circle cx="552.259" cy="13.1682" r="4" fill="#0" id="circle71"/>
	<circle cx="555.926" cy="317.553" r="4" fill="#0" id="circle72"/>
	<circle cx="570.595" cy="13.1682" r="4" fill="#0" id="circle73"/>
	<circle cx="574.262" cy="317.553" r="4" fill="#0" id="circle74"/>
	<circle cx="587.098" cy="4" r="4" fill="#0" id="circle75"/>
	<circle cx="592.599" cy="317.553" r="4" fill="#0" id="circle76"/>
	<circle cx="603.601" cy="13.1682" r="4" fill="#0" id="circle77"/>
	<circle cx="610.935" cy="317.553" r="4" fill="#0" id="circle78"/>
	<circle cx="621.937" cy="5.83364" r="4" fill="#0" id="circle79"/>
	<circle cx="629.272" cy="317.553" r="4" fill="#0" id="circle80"/>
	<circle cx="640.274" cy="5.83364" r="4" fill="#0" id="circle81"/>
	<circle cx="647.608" cy="317.553" r="4" fill="#0" id="circle82"/>
	<circle cx="658.61" cy="5.83364" r="4" fill="#0" id="circle83"/>
	<circle cx="664.111" cy="326.721" r="4" fill="#0" id="circle84"/>
	<circle cx="676.946" cy="5.83364" r="4" fill="#0" id="circle85"/>
	<circle cx="680.614" cy="335.889" r="4" fill="#0" id="circle86"/>
	<circle cx="695.283" cy="5.83364" r="4" fill="#0" id="circle87"/>
	<circle cx="698.95" cy="335.889" r="4" fill="#0" id="circle88"/>
	<circle cx="713.619" cy="5.83364" r="4" fill="#0" id="circle89"/>
	<circle cx="715.453" cy="345.057" r="4" fill="#0" id="circle90"/>
	<circle cx="731.956" cy="13.1682" r="4" fill="#0" id="circle91"/>
	<circle cx="731.956" cy="335.889" r="4" fill="#0" id="circle92"/>
	<circle cx="748.458" cy="326.721" r="4" fill="#0" id="circle93"/>
	<circle cx="750.292" cy="13.1682" r="4" fill="#0" id="circle94"/>
	<circle cx="764.961" cy="317.553" r="4" fill="#0" id="circle95"/>
	<circle cx="768.628" cy="13.1682" r="4" fill="#0" id="circle96"/>
	<circle cx="781.464" cy="308.384" r="4" fill="#0" id="circle97"/>
	<circle cx="786.965" cy="13.1682" r="4" fill="#0" id="circle98"/>
	<circle cx="799.8" cy="308.384" r="4" fill="#0" id="circle99"/>
	<circle cx="805.301" cy="13.1682" r="4" fill="#0" id="circle100"/>
	<circle cx="816.303" cy="317.553" r="4" fill="#0" id="circle101"/>
	<circle cx="823.638" cy="13.1682" r="4" fill="#0" id="circle102"/>
	<circle cx="834.64" cy="315.719" r="4" fill="#0" id="circle103"/>
	<circle cx="841.974" cy="13.1682" r="4" fill="#0" id="circle104"/>
	<circle cx="847.475" cy="330.388" r="4" fill="#0" id="circle105"/>
	<circle cx="860.311" cy="13.1682" r="4" fill="#0" id="circle106"/>
	<circle cx="862.144" cy="343.224" r="4" fill="#0" id="circle107"/>
	<circle cx="878.647" cy="13.1682" r="4" fill="#0" id="circle108"/>
	<circle cx="878.647" cy="352.392" r="4" fill="#0" id="circle109"/>
	<circle cx="896.983" cy="13.1682" r="4" fill="#0" id="circle110"/>
	<circle cx="896.983" cy="359.726" r="4" fill="#0" id="circle111"/>
	<circle cx="915.32" cy="13.1682" r="4" fill="#0" id="circle112"/>
	<circle cx="915.32" cy="354.226" r="4" fill="#0" id="circle113"/>
	<circle cx="931.823" cy="22.3364" r="4" fill="#0" id="circle114"/>
	<circle cx="931.823" cy="345.057" r="4" fill="#0" id="circle115"/>
	<circle cx="946.492" cy="332.222" r="4" fill="#0" id="circle116"/>
	<circle cx="950.159" cy="22.3364" r="4" fill="#0" id="circle117"/>
	<circle cx="959.327" cy="280.88" r="4" fill="#0" id="circle118"/>
	<circle cx="959.327" cy="299.216" r="4" fill="#0" id="circle119"/>
	<circle cx="959.327" cy="317.553" r="4" fill="#0" id="circle120"/>
	<circle cx="966.662" cy="31.5046" r="4" fill="#0" id="circle121"/>
	<circle cx="968.495" cy="51.6747" r="4" fill="#0" id="circle122"/>
	<circle cx="968.495" cy="88.3475" r="4" fill="#0" id="circle123"/>
	<circle cx="968.495" cy="143.357" r="4" fill="#0" id="circle124"/>
	<circle cx="968.495" cy="262.543" r="4" fill="#0" id="circle125"/>
	<circle cx="977.664" cy="68.1774" r="4" fill="#0" id="circle126"/>
	<circle cx="977.664" cy="104.85" r="4" fill="#0" id="circle127"/>
	<circle cx="977.664" cy="123.187" r="4" fill="#0" id="circle128"/>
	<circle cx="977.664" cy="159.86" r="4" fill="#0" id="circle129"/>
	<circle cx="977.664" cy="284.547" r="4" fill="#0" id="circle130"/>
	<circle cx="986.832" cy="176.362" r="4" fill="#0" id="circle131"/>
	<circle cx="986.832" cy="235.039" r="4" fill="#0" id="circle132"/>
	<circle cx="986.832" cy="253.375" r="4" fill="#0" id="circle133"/>
	<circle cx="996" cy="192.865" r="4" fill="#0" id="circle134"/>
	<circle cx="996" cy="211.201" r="4" fill="#0" id="circle135"/>
	<circle cx="996" cy="269.878" r="4" fill="#0" id="circle136"/>
	<circle cx="996" cy="290.048" r="4" fill="#0" id="circle137"/>
	</g>
</svg>