<?xml version="1.0" encoding="UTF-8" standalone="no"?>
<!-- Created with CurveBenchmark -->
<svg
	xmlns:dc="http://purl.org/dc/elements/1.1/"
	xmlns:cc="http://creativecommons.org/ns#"
	xmlns:rdf="http://www.w3.org/1999/02/22-rdf-syntax-ns#"
	xmlns:svg="http://www.w3.org/2000/svg"
	xmlns="http://www.w3.org/2000/svg"
	xmlns:sodipodi="http://sodipodi.sourceforge.net/DTD/sodipodi-0.dtd"
	xmlns:inkscape="http://www.inkscape.org/namespaces/inkscape"
	width="1000"
	height="1000"
	id="svg2"
	version="1.1"
	sodipodi:docname="manifold/connect2d-hammer230.png.txt">
<defs
	id="defs4" />
<metadata
	id="metadata7">
	<rdf:RDF>
		<cc:Work
			rdf:about="">
			<dc:format>image/svg+xml</dc:format>
			<dc:type
				rdf:resource="http://purl.org/dc/dcmitype/StillImage" />
			<dc:title></dc:title>
		</cc:Work>
	</rdf:RDF>
</metadata>
<g
	inkscape:label="Layer 1"
	inkscape:groupmode="layer"
	id="layer1">
	<path style="fill:none;stroke:red;stroke-width:1px;stroke-linecap:butt;stroke-linejoin:miter;stroke-opacity:1" d="M 317.414,159.27 291.536,179.397 z" id="boundary" inkscape:connector-curvature="0" />
	<path style="fill:none;stroke:red;stroke-width:1px;stroke-linecap:butt;stroke-linejoin:miter;stroke-opacity:1" d="M 291.536,179.397 262.783,179.397 z" id="boundary" inkscape:connector-curvature="0" />
	<path style="fill:none;stroke:red;stroke-width:1px;stroke-linecap:butt;stroke-linejoin:miter;stroke-opacity:1" d="M 262.783,179.397 234.029,173.646 z" id="boundary" inkscape:connector-curvature="0" />
	<path style="fill:none;stroke:red;stroke-width:1px;stroke-linecap:butt;stroke-linejoin:miter;stroke-opacity:1" d="M 234.029,173.646 208.151,159.27 z" id="boundary" inkscape:connector-curvature="0" />
	<path style="fill:none;stroke:red;stroke-width:1px;stroke-linecap:butt;stroke-linejoin:miter;stroke-opacity:1" d="M 208.151,159.27 196.649,193.774 z" id="boundary" inkscape:connector-curvature="0" />
	<path style="fill:none;stroke:red;stroke-width:1px;stroke-linecap:butt;stroke-linejoin:miter;stroke-opacity:1" d="M 196.649,193.774 190.899,228.278 z" id="boundary" inkscape:connector-curvature="0" />
	<path style="fill:none;stroke:red;stroke-width:1px;stroke-linecap:butt;stroke-linejoin:miter;stroke-opacity:1" d="M 190.899,228.278 190.899,257.032 z" id="boundary" inkscape:connector-curvature="0" />
	<path style="fill:none;stroke:red;stroke-width:1px;stroke-linecap:butt;stroke-linejoin:miter;stroke-opacity:1" d="M 190.899,257.032 190.899,285.786 z" id="boundary" inkscape:connector-curvature="0" />
	<path style="fill:none;stroke:red;stroke-width:1px;stroke-linecap:butt;stroke-linejoin:miter;stroke-opacity:1" d="M 190.899,285.786 190.899,314.539 z" id="boundary" inkscape:connector-curvature="0" />
	<path style="fill:none;stroke:red;stroke-width:1px;stroke-linecap:butt;stroke-linejoin:miter;stroke-opacity:1" d="M 190.899,314.539 190.899,343.293 z" id="boundary" inkscape:connector-curvature="0" />
	<path style="fill:none;stroke:red;stroke-width:1px;stroke-linecap:butt;stroke-linejoin:miter;stroke-opacity:1" d="M 190.899,343.293 190.899,372.046 z" id="boundary" inkscape:connector-curvature="0" />
	<path style="fill:none;stroke:red;stroke-width:1px;stroke-linecap:butt;stroke-linejoin:miter;stroke-opacity:1" d="M 190.899,372.046 190.899,400.8 z" id="boundary" inkscape:connector-curvature="0" />
	<path style="fill:none;stroke:red;stroke-width:1px;stroke-linecap:butt;stroke-linejoin:miter;stroke-opacity:1" d="M 190.899,400.8 193.774,429.554 z" id="boundary" inkscape:connector-curvature="0" />
	<path style="fill:none;stroke:red;stroke-width:1px;stroke-linecap:butt;stroke-linejoin:miter;stroke-opacity:1" d="M 193.774,429.554 202.4,458.307 z" id="boundary" inkscape:connector-curvature="0" />
	<path style="fill:none;stroke:red;stroke-width:1px;stroke-linecap:butt;stroke-linejoin:miter;stroke-opacity:1" d="M 202.4,458.307 213.901,487.061 z" id="boundary" inkscape:connector-curvature="0" />
	<path style="fill:none;stroke:red;stroke-width:1px;stroke-linecap:butt;stroke-linejoin:miter;stroke-opacity:1" d="M 213.901,487.061 213.901,515.814 z" id="boundary" inkscape:connector-curvature="0" />
	<path style="fill:none;stroke:red;stroke-width:1px;stroke-linecap:butt;stroke-linejoin:miter;stroke-opacity:1" d="M 213.901,515.814 213.901,544.568 z" id="boundary" inkscape:connector-curvature="0" />
	<path style="fill:none;stroke:red;stroke-width:1px;stroke-linecap:butt;stroke-linejoin:miter;stroke-opacity:1" d="M 213.901,544.568 213.901,573.322 z" id="boundary" inkscape:connector-curvature="0" />
	<path style="fill:none;stroke:red;stroke-width:1px;stroke-linecap:butt;stroke-linejoin:miter;stroke-opacity:1" d="M 213.901,573.322 219.652,602.075 z" id="boundary" inkscape:connector-curvature="0" />
	<path style="fill:none;stroke:red;stroke-width:1px;stroke-linecap:butt;stroke-linejoin:miter;stroke-opacity:1" d="M 219.652,602.075 219.652,630.829 z" id="boundary" inkscape:connector-curvature="0" />
	<path style="fill:none;stroke:red;stroke-width:1px;stroke-linecap:butt;stroke-linejoin:miter;stroke-opacity:1" d="M 219.652,630.829 213.901,671.084 z" id="boundary" inkscape:connector-curvature="0" />
	<path style="fill:none;stroke:red;stroke-width:1px;stroke-linecap:butt;stroke-linejoin:miter;stroke-opacity:1" d="M 213.901,671.084 213.901,699.838 z" id="boundary" inkscape:connector-curvature="0" />
	<path style="fill:none;stroke:red;stroke-width:1px;stroke-linecap:butt;stroke-linejoin:miter;stroke-opacity:1" d="M 213.901,699.838 213.901,728.591 z" id="boundary" inkscape:connector-curvature="0" />
	<path style="fill:none;stroke:red;stroke-width:1px;stroke-linecap:butt;stroke-linejoin:miter;stroke-opacity:1" d="M 213.901,728.591 213.901,757.345 z" id="boundary" inkscape:connector-curvature="0" />
	<path style="fill:none;stroke:red;stroke-width:1px;stroke-linecap:butt;stroke-linejoin:miter;stroke-opacity:1" d="M 213.901,757.345 213.901,786.099 z" id="boundary" inkscape:connector-curvature="0" />
	<path style="fill:none;stroke:red;stroke-width:1px;stroke-linecap:butt;stroke-linejoin:miter;stroke-opacity:1" d="M 213.901,786.099 213.901,814.852 z" id="boundary" inkscape:connector-curvature="0" />
	<path style="fill:none;stroke:red;stroke-width:1px;stroke-linecap:butt;stroke-linejoin:miter;stroke-opacity:1" d="M 213.901,814.852 213.901,843.606 z" id="boundary" inkscape:connector-curvature="0" />
	<path style="fill:none;stroke:red;stroke-width:1px;stroke-linecap:butt;stroke-linejoin:miter;stroke-opacity:1" d="M 213.901,843.606 216.777,872.359 z" id="boundary" inkscape:connector-curvature="0" />
	<path style="fill:none;stroke:red;stroke-width:1px;stroke-linecap:butt;stroke-linejoin:miter;stroke-opacity:1" d="M 216.777,872.359 219.652,901.113 z" id="boundary" inkscape:connector-curvature="0" />
	<path style="fill:none;stroke:red;stroke-width:1px;stroke-linecap:butt;stroke-linejoin:miter;stroke-opacity:1" d="M 219.652,901.113 219.652,929.867 z" id="boundary" inkscape:connector-curvature="0" />
	<path style="fill:none;stroke:red;stroke-width:1px;stroke-linecap:butt;stroke-linejoin:miter;stroke-opacity:1" d="M 219.652,929.867 219.652,958.62 z" id="boundary" inkscape:connector-curvature="0" />
	<path style="fill:none;stroke:red;stroke-width:1px;stroke-linecap:butt;stroke-linejoin:miter;stroke-opacity:1" d="M 219.652,958.62 219.652,996 z" id="boundary" inkscape:connector-curvature="0" />
	<path style="fill:none;stroke:red;stroke-width:1px;stroke-linecap:butt;stroke-linejoin:miter;stroke-opacity:1" d="M 219.652,996 190.899,996 z" id="boundary" inkscape:connector-curvature="0" />
	<path style="fill:none;stroke:red;stroke-width:1px;stroke-linecap:butt;stroke-linejoin:miter;stroke-opacity:1" d="M 190.899,996 162.145,996 z" id="boundary" inkscape:connector-curvature="0" />
	<path style="fill:none;stroke:red;stroke-width:1px;stroke-linecap:butt;stroke-linejoin:miter;stroke-opacity:1" d="M 162.145,996 133.391,996 z" id="boundary" inkscape:connector-curvature="0" />
	<path style="fill:none;stroke:red;stroke-width:1px;stroke-linecap:butt;stroke-linejoin:miter;stroke-opacity:1" d="M 133.391,996 104.638,996 z" id="boundary" inkscape:connector-curvature="0" />
	<path style="fill:none;stroke:red;stroke-width:1px;stroke-linecap:butt;stroke-linejoin:miter;stroke-opacity:1" d="M 104.638,996 78.7594,981.623 z" id="boundary" inkscape:connector-curvature="0" />
	<path style="fill:none;stroke:red;stroke-width:1px;stroke-linecap:butt;stroke-linejoin:miter;stroke-opacity:1" d="M 78.7594,981.623 84.5101,952.87 z" id="boundary" inkscape:connector-curvature="0" />
	<path style="fill:none;stroke:red;stroke-width:1px;stroke-linecap:butt;stroke-linejoin:miter;stroke-opacity:1" d="M 84.5101,952.87 84.5101,924.116 z" id="boundary" inkscape:connector-curvature="0" />
	<path style="fill:none;stroke:red;stroke-width:1px;stroke-linecap:butt;stroke-linejoin:miter;stroke-opacity:1" d="M 84.5101,924.116 84.5101,895.362 z" id="boundary" inkscape:connector-curvature="0" />
	<path style="fill:none;stroke:red;stroke-width:1px;stroke-linecap:butt;stroke-linejoin:miter;stroke-opacity:1" d="M 84.5101,895.362 90.2609,849.357 z" id="boundary" inkscape:connector-curvature="0" />
	<path style="fill:none;stroke:red;stroke-width:1px;stroke-linecap:butt;stroke-linejoin:miter;stroke-opacity:1" d="M 90.2609,849.357 90.2609,820.603 z" id="boundary" inkscape:connector-curvature="0" />
	<path style="fill:none;stroke:red;stroke-width:1px;stroke-linecap:butt;stroke-linejoin:miter;stroke-opacity:1" d="M 90.2609,820.603 90.2609,791.849 z" id="boundary" inkscape:connector-curvature="0" />
	<path style="fill:none;stroke:red;stroke-width:1px;stroke-linecap:butt;stroke-linejoin:miter;stroke-opacity:1" d="M 90.2609,791.849 90.2609,763.096 z" id="boundary" inkscape:connector-curvature="0" />
	<path style="fill:none;stroke:red;stroke-width:1px;stroke-linecap:butt;stroke-linejoin:miter;stroke-opacity:1" d="M 90.2609,763.096 90.2609,734.342 z" id="boundary" inkscape:connector-curvature="0" />
	<path style="fill:none;stroke:red;stroke-width:1px;stroke-linecap:butt;stroke-linejoin:miter;stroke-opacity:1" d="M 90.2609,734.342 90.2609,705.588 z" id="boundary" inkscape:connector-curvature="0" />
	<path style="fill:none;stroke:red;stroke-width:1px;stroke-linecap:butt;stroke-linejoin:miter;stroke-opacity:1" d="M 90.2609,705.588 90.2609,676.835 z" id="boundary" inkscape:connector-curvature="0" />
	<path style="fill:none;stroke:red;stroke-width:1px;stroke-linecap:butt;stroke-linejoin:miter;stroke-opacity:1" d="M 90.2609,676.835 90.2609,648.081 z" id="boundary" inkscape:connector-curvature="0" />
	<path style="fill:none;stroke:red;stroke-width:1px;stroke-linecap:butt;stroke-linejoin:miter;stroke-opacity:1" d="M 90.2609,648.081 90.2609,619.328 z" id="boundary" inkscape:connector-curvature="0" />
	<path style="fill:none;stroke:red;stroke-width:1px;stroke-linecap:butt;stroke-linejoin:miter;stroke-opacity:1" d="M 90.2609,619.328 90.2609,590.574 z" id="boundary" inkscape:connector-curvature="0" />
	<path style="fill:none;stroke:red;stroke-width:1px;stroke-linecap:butt;stroke-linejoin:miter;stroke-opacity:1" d="M 90.2609,590.574 90.2609,561.82 z" id="boundary" inkscape:connector-curvature="0" />
	<path style="fill:none;stroke:red;stroke-width:1px;stroke-linecap:butt;stroke-linejoin:miter;stroke-opacity:1" d="M 90.2609,561.82 90.2609,533.067 z" id="boundary" inkscape:connector-curvature="0" />
	<path style="fill:none;stroke:red;stroke-width:1px;stroke-linecap:butt;stroke-linejoin:miter;stroke-opacity:1" d="M 90.2609,533.067 90.2609,504.313 z" id="boundary" inkscape:connector-curvature="0" />
	<path style="fill:none;stroke:red;stroke-width:1px;stroke-linecap:butt;stroke-linejoin:miter;stroke-opacity:1" d="M 90.2609,504.313 90.2609,475.559 z" id="boundary" inkscape:connector-curvature="0" />
	<path style="fill:none;stroke:red;stroke-width:1px;stroke-linecap:butt;stroke-linejoin:miter;stroke-opacity:1" d="M 90.2609,475.559 101.762,446.806 z" id="boundary" inkscape:connector-curvature="0" />
	<path style="fill:none;stroke:red;stroke-width:1px;stroke-linecap:butt;stroke-linejoin:miter;stroke-opacity:1" d="M 101.762,446.806 113.264,400.8 z" id="boundary" inkscape:connector-curvature="0" />
	<path style="fill:none;stroke:red;stroke-width:1px;stroke-linecap:butt;stroke-linejoin:miter;stroke-opacity:1" d="M 113.264,400.8 113.264,372.046 z" id="boundary" inkscape:connector-curvature="0" />
	<path style="fill:none;stroke:red;stroke-width:1px;stroke-linecap:butt;stroke-linejoin:miter;stroke-opacity:1" d="M 113.264,372.046 113.264,343.293 z" id="boundary" inkscape:connector-curvature="0" />
	<path style="fill:none;stroke:red;stroke-width:1px;stroke-linecap:butt;stroke-linejoin:miter;stroke-opacity:1" d="M 113.264,343.293 113.264,314.539 z" id="boundary" inkscape:connector-curvature="0" />
	<path style="fill:none;stroke:red;stroke-width:1px;stroke-linecap:butt;stroke-linejoin:miter;stroke-opacity:1" d="M 113.264,314.539 113.264,285.786 z" id="boundary" inkscape:connector-curvature="0" />
	<path style="fill:none;stroke:red;stroke-width:1px;stroke-linecap:butt;stroke-linejoin:miter;stroke-opacity:1" d="M 113.264,285.786 113.264,257.032 z" id="boundary" inkscape:connector-curvature="0" />
	<path style="fill:none;stroke:red;stroke-width:1px;stroke-linecap:butt;stroke-linejoin:miter;stroke-opacity:1" d="M 113.264,257.032 110.388,228.278 z" id="boundary" inkscape:connector-curvature="0" />
	<path style="fill:none;stroke:red;stroke-width:1px;stroke-linecap:butt;stroke-linejoin:miter;stroke-opacity:1" d="M 110.388,228.278 107.513,199.525 z" id="boundary" inkscape:connector-curvature="0" />
	<path style="fill:none;stroke:red;stroke-width:1px;stroke-linecap:butt;stroke-linejoin:miter;stroke-opacity:1" d="M 107.513,199.525 98.887,170.771 z" id="boundary" inkscape:connector-curvature="0" />
	<path style="fill:none;stroke:red;stroke-width:1px;stroke-linecap:butt;stroke-linejoin:miter;stroke-opacity:1" d="M 98.887,170.771 87.3855,142.017 z" id="boundary" inkscape:connector-curvature="0" />
	<path style="fill:none;stroke:red;stroke-width:1px;stroke-linecap:butt;stroke-linejoin:miter;stroke-opacity:1" d="M 87.3855,142.017 84.5101,113.264 z" id="boundary" inkscape:connector-curvature="0" />
	<path style="fill:none;stroke:red;stroke-width:1px;stroke-linecap:butt;stroke-linejoin:miter;stroke-opacity:1" d="M 84.5101,113.264 75.8841,84.5101 z" id="boundary" inkscape:connector-curvature="0" />
	<path style="fill:none;stroke:red;stroke-width:1px;stroke-linecap:butt;stroke-linejoin:miter;stroke-opacity:1" d="M 75.8841,84.5101 47.1304,93.1362 z" id="boundary" inkscape:connector-curvature="0" />
	<path style="fill:none;stroke:red;stroke-width:1px;stroke-linecap:butt;stroke-linejoin:miter;stroke-opacity:1" d="M 47.1304,93.1362 18.3768,81.6348 z" id="boundary" inkscape:connector-curvature="0" />
	<path style="fill:none;stroke:red;stroke-width:1px;stroke-linecap:butt;stroke-linejoin:miter;stroke-opacity:1" d="M 18.3768,81.6348 4,55.7565 z" id="boundary" inkscape:connector-curvature="0" />
	<path style="fill:none;stroke:red;stroke-width:1px;stroke-linecap:butt;stroke-linejoin:miter;stroke-opacity:1" d="M 4,55.7565 4,27.0029 z" id="boundary" inkscape:connector-curvature="0" />
	<path style="fill:none;stroke:red;stroke-width:1px;stroke-linecap:butt;stroke-linejoin:miter;stroke-opacity:1" d="M 4,27.0029 27.0029,4 z" id="boundary" inkscape:connector-curvature="0" />
	<path style="fill:none;stroke:red;stroke-width:1px;stroke-linecap:butt;stroke-linejoin:miter;stroke-opacity:1" d="M 27.0029,4 55.7565,4 z" id="boundary" inkscape:connector-curvature="0" />
	<path style="fill:none;stroke:red;stroke-width:1px;stroke-linecap:butt;stroke-linejoin:miter;stroke-opacity:1" d="M 55.7565,4 84.5101,9.75072 z" id="boundary" inkscape:connector-curvature="0" />
	<path style="fill:none;stroke:red;stroke-width:1px;stroke-linecap:butt;stroke-linejoin:miter;stroke-opacity:1" d="M 84.5101,9.75072 113.264,4 z" id="boundary" inkscape:connector-curvature="0" />
	<path style="fill:none;stroke:red;stroke-width:1px;stroke-linecap:butt;stroke-linejoin:miter;stroke-opacity:1" d="M 113.264,4 142.017,4 z" id="boundary" inkscape:connector-curvature="0" />
	<path style="fill:none;stroke:red;stroke-width:1px;stroke-linecap:butt;stroke-linejoin:miter;stroke-opacity:1" d="M 142.017,4 170.771,4 z" id="boundary" inkscape:connector-curvature="0" />
	<path style="fill:none;stroke:red;stroke-width:1px;stroke-linecap:butt;stroke-linejoin:miter;stroke-opacity:1" d="M 170.771,4 199.525,4 z" id="boundary" inkscape:connector-curvature="0" />
	<path style="fill:none;stroke:red;stroke-width:1px;stroke-linecap:butt;stroke-linejoin:miter;stroke-opacity:1" d="M 199.525,4 228.278,6.87536 z" id="boundary" inkscape:connector-curvature="0" />
	<path style="fill:none;stroke:red;stroke-width:1px;stroke-linecap:butt;stroke-linejoin:miter;stroke-opacity:1" d="M 228.278,6.87536 248.406,29.8783 z" id="boundary" inkscape:connector-curvature="0" />
	<path style="fill:none;stroke:red;stroke-width:1px;stroke-linecap:butt;stroke-linejoin:miter;stroke-opacity:1" d="M 248.406,29.8783 271.409,50.0058 z" id="boundary" inkscape:connector-curvature="0" />
	<path style="fill:none;stroke:red;stroke-width:1px;stroke-linecap:butt;stroke-linejoin:miter;stroke-opacity:1" d="M 271.409,50.0058 285.786,75.8841 z" id="boundary" inkscape:connector-curvature="0" />
	<path style="fill:none;stroke:red;stroke-width:1px;stroke-linecap:butt;stroke-linejoin:miter;stroke-opacity:1" d="M 285.786,75.8841 300.162,101.762 z" id="boundary" inkscape:connector-curvature="0" />
	<path style="fill:none;stroke:red;stroke-width:1px;stroke-linecap:butt;stroke-linejoin:miter;stroke-opacity:1" d="M 300.162,101.762 308.788,130.516 z" id="boundary" inkscape:connector-curvature="0" />
	<path style="fill:none;stroke:red;stroke-width:1px;stroke-linecap:butt;stroke-linejoin:miter;stroke-opacity:1" d="M 308.788,130.516 317.414,159.27 z" id="boundary" inkscape:connector-curvature="0" />
	<circle cx="4" cy="27.0029" r="4" fill="#0" id="circle0"/>
	<circle cx="4" cy="55.7565" r="4" fill="#0" id="circle1"/>
	<circle cx="18.3768" cy="81.6348" r="4" fill="#0" id="circle2"/>
	<circle cx="27.0029" cy="4" r="4" fill="#0" id="circle3"/>
	<circle cx="47.1304" cy="93.1362" r="4" fill="#0" id="circle4"/>
	<circle cx="55.7565" cy="4" r="4" fill="#0" id="circle5"/>
	<circle cx="75.8841" cy="84.5101" r="4" fill="#0" id="circle6"/>
	<circle cx="78.7594" cy="981.623" r="4" fill="#0" id="circle7"/>
	<circle cx="84.5101" cy="9.75072" r="4" fill="#0" id="circle8"/>
	<circle cx="84.5101" cy="113.264" r="4" fill="#0" id="circle9"/>
	<circle cx="84.5101" cy="895.362" r="4" fill="#0" id="circle10"/>
	<circle cx="84.5101" cy="924.116" r="4" fill="#0" id="circle11"/>
	<circle cx="84.5101" cy="952.87" r="4" fill="#0" id="circle12"/>
	<circle cx="87.3855" cy="142.017" r="4" fill="#0" id="circle13"/>
	<circle cx="90.2609" cy="475.559" r="4" fill="#0" id="circle14"/>
	<circle cx="90.2609" cy="504.313" r="4" fill="#0" id="circle15"/>
	<circle cx="90.2609" cy="533.067" r="4" fill="#0" id="circle16"/>
	<circle cx="90.2609" cy="561.82" r="4" fill="#0" id="circle17"/>
	<circle cx="90.2609" cy="590.574" r="4" fill="#0" id="circle18"/>
	<circle cx="90.2609" cy="619.328" r="4" fill="#0" id="circle19"/>
	<circle cx="90.2609" cy="648.081" r="4" fill="#0" id="circle20"/>
	<circle cx="90.2609" cy="676.835" r="4" fill="#0" id="circle21"/>
	<circle cx="90.2609" cy="705.588" r="4" fill="#0" id="circle22"/>
	<circle cx="90.2609" cy="734.342" r="4" fill="#0" id="circle23"/>
	<circle cx="90.2609" cy="763.096" r="4" fill="#0" id="circle24"/>
	<circle cx="90.2609" cy="791.849" r="4" fill="#0" id="circle25"/>
	<circle cx="90.2609" cy="820.603" r="4" fill="#0" id="circle26"/>
	<circle cx="90.2609" cy="849.357" r="4" fill="#0" id="circle27"/>
	<circle cx="98.887" cy="170.771" r="4" fill="#0" id="circle28"/>
	<circle cx="101.762" cy="446.806" r="4" fill="#0" id="circle29"/>
	<circle cx="104.638" cy="996" r="4" fill="#0" id="circle30"/>
	<circle cx="107.513" cy="199.525" r="4" fill="#0" id="circle31"/>
	<circle cx="110.388" cy="228.278" r="4" fill="#0" id="circle32"/>
	<circle cx="113.264" cy="4" r="4" fill="#0" id="circle33"/>
	<circle cx="113.264" cy="257.032" r="4" fill="#0" id="circle34"/>
	<circle cx="113.264" cy="285.786" r="4" fill="#0" id="circle35"/>
	<circle cx="113.264" cy="314.539" r="4" fill="#0" id="circle36"/>
	<circle cx="113.264" cy="343.293" r="4" fill="#0" id="circle37"/>
	<circle cx="113.264" cy="372.046" r="4" fill="#0" id="circle38"/>
	<circle cx="113.264" cy="400.8" r="4" fill="#0" id="circle39"/>
	<circle cx="133.391" cy="996" r="4" fill="#0" id="circle40"/>
	<circle cx="142.017" cy="4" r="4" fill="#0" id="circle41"/>
	<circle cx="162.145" cy="996" r="4" fill="#0" id="circle42"/>
	<circle cx="170.771" cy="4" r="4" fill="#0" id="circle43"/>
	<circle cx="190.899" cy="228.278" r="4" fill="#0" id="circle44"/>
	<circle cx="190.899" cy="257.032" r="4" fill="#0" id="circle45"/>
	<circle cx="190.899" cy="285.786" r="4" fill="#0" id="circle46"/>
	<circle cx="190.899" cy="314.539" r="4" fill="#0" id="circle47"/>
	<circle cx="190.899" cy="343.293" r="4" fill="#0" id="circle48"/>
	<circle cx="190.899" cy="372.046" r="4" fill="#0" id="circle49"/>
	<circle cx="190.899" cy="400.8" r="4" fill="#0" id="circle50"/>
	<circle cx="190.899" cy="996" r="4" fill="#0" id="circle51"/>
	<circle cx="193.774" cy="429.554" r="4" fill="#0" id="circle52"/>
	<circle cx="196.649" cy="193.774" r="4" fill="#0" id="circle53"/>
	<circle cx="199.525" cy="4" r="4" fill="#0" id="circle54"/>
	<circle cx="202.4" cy="458.307" r="4" fill="#0" id="circle55"/>
	<circle cx="208.151" cy="159.27" r="4" fill="#0" id="circle56"/>
	<circle cx="213.901" cy="487.061" r="4" fill="#0" id="circle57"/>
	<circle cx="213.901" cy="515.814" r="4" fill="#0" id="circle58"/>
	<circle cx="213.901" cy="544.568" r="4" fill="#0" id="circle59"/>
	<circle cx="213.901" cy="573.322" r="4" fill="#0" id="circle60"/>
	<circle cx="213.901" cy="671.084" r="4" fill="#0" id="circle61"/>
	<circle cx="213.901" cy="699.838" r="4" fill="#0" id="circle62"/>
	<circle cx="213.901" cy="728.591" r="4" fill="#0" id="circle63"/>
	<circle cx="213.901" cy="757.345" r="4" fill="#0" id="circle64"/>
	<circle cx="213.901" cy="786.099" r="4" fill="#0" id="circle65"/>
	<circle cx="213.901" cy="814.852" r="4" fill="#0" id="circle66"/>
	<circle cx="213.901" cy="843.606" r="4" fill="#0" id="circle67"/>
	<circle cx="216.777" cy="872.359" r="4" fill="#0" id="circle68"/>
	<circle cx="219.652" cy="602.075" r="4" fill="#0" id="circle69"/>
	<circle cx="219.652" cy="630.829" r="4" fill="#0" id="circle70"/>
	<circle cx="219.652" cy="901.113" r="4" fill="#0" id="circle71"/>
	<circle cx="219.652" cy="929.867" r="4" fill="#0" id="circle72"/>
	<circle cx="219.652" cy="958.62" r="4" fill="#0" id="circle73"/>
	<circle cx="219.652" cy="996" r="4" fill="#0" id="circle74"/>
	<circle cx="228.278" cy="6.87536" r="4" fill="#0" id="circle75"/>
	<circle cx="234.029" cy="173.646" r="4" fill="#0" id="circle76"/>
	<circle cx="248.406" cy="29.8783" r="4" fill="#0" id="circle77"/>
	<circle cx="262.783" cy="179.397" r="4" fill="#0" id="circle78"/>
	<circle cx="271.409" cy="50.0058" r="4" fill="#0" id="circle79"/>
	<circle cx="285.786" cy="75.8841" r="4" fill="#0" id="circle80"/>
	<circle cx="291.536" cy="179.397" r="4" fill="#0" id="circle81"/>
	<circle cx="300.162" cy="101.762" r="4" fill="#0" id="circle82"/>
	<circle cx="308.788" cy="130.516" r="4" fill="#0" id="circle83"/>
	<circle cx="317.414" cy="159.27" r="4" fill="#0" id="circle84"/>
	</g>
</svg>