<?xml version="1.0" encoding="UTF-8" standalone="no"?>
<!-- Created with CurveBenchmark -->
<svg
	xmlns:dc="http://purl.org/dc/elements/1.1/"
	xmlns:cc="http://creativecommons.org/ns#"
	xmlns:rdf="http://www.w3.org/1999/02/22-rdf-syntax-ns#"
	xmlns:svg="http://www.w3.org/2000/svg"
	xmlns="http://www.w3.org/2000/svg"
	xmlns:sodipodi="http://sodipodi.sourceforge.net/DTD/sodipodi-0.dtd"
	xmlns:inkscape="http://www.inkscape.org/namespaces/inkscape"
	width="1000"
	height="1000"
	id="svg2"
	version="1.1"
	sodipodi:docname="manifold/connect2d-handdeform2.png.txt">
<defs
	id="defs4" />
<metadata
	id="metadata7">
	<rdf:RDF>
		<cc:Work
			rdf:about="">
			<dc:format>image/svg+xml</dc:format>
			<dc:type
				rdf:resource="http://purl.org/dc/dcmitype/StillImage" />
			<dc:title></dc:title>
		</cc:Work>
	</rdf:RDF>
</metadata>
<g
	inkscape:label="Layer 1"
	inkscape:groupmode="layer"
	id="layer1">
	<path style="fill:none;stroke:red;stroke-width:1px;stroke-linecap:butt;stroke-linejoin:miter;stroke-opacity:1" d="M 996,566.31 994.232,598.139 z" id="boundary" inkscape:connector-curvature="0" />
	<path style="fill:none;stroke:red;stroke-width:1px;stroke-linecap:butt;stroke-linejoin:miter;stroke-opacity:1" d="M 994.232,598.139 976.549,606.98 z" id="boundary" inkscape:connector-curvature="0" />
	<path style="fill:none;stroke:red;stroke-width:1px;stroke-linecap:butt;stroke-linejoin:miter;stroke-opacity:1" d="M 976.549,606.98 958.866,612.285 z" id="boundary" inkscape:connector-curvature="0" />
	<path style="fill:none;stroke:red;stroke-width:1px;stroke-linecap:butt;stroke-linejoin:miter;stroke-opacity:1" d="M 958.866,612.285 942.952,621.127 z" id="boundary" inkscape:connector-curvature="0" />
	<path style="fill:none;stroke:red;stroke-width:1px;stroke-linecap:butt;stroke-linejoin:miter;stroke-opacity:1" d="M 942.952,621.127 925.269,629.968 z" id="boundary" inkscape:connector-curvature="0" />
	<path style="fill:none;stroke:red;stroke-width:1px;stroke-linecap:butt;stroke-linejoin:miter;stroke-opacity:1" d="M 925.269,629.968 912.891,644.114 z" id="boundary" inkscape:connector-curvature="0" />
	<path style="fill:none;stroke:red;stroke-width:1px;stroke-linecap:butt;stroke-linejoin:miter;stroke-opacity:1" d="M 912.891,644.114 898.745,656.492 z" id="boundary" inkscape:connector-curvature="0" />
	<path style="fill:none;stroke:red;stroke-width:1px;stroke-linecap:butt;stroke-linejoin:miter;stroke-opacity:1" d="M 898.745,656.492 881.062,665.333 z" id="boundary" inkscape:connector-curvature="0" />
	<path style="fill:none;stroke:red;stroke-width:1px;stroke-linecap:butt;stroke-linejoin:miter;stroke-opacity:1" d="M 881.062,665.333 863.38,674.175 z" id="boundary" inkscape:connector-curvature="0" />
	<path style="fill:none;stroke:red;stroke-width:1px;stroke-linecap:butt;stroke-linejoin:miter;stroke-opacity:1" d="M 863.38,674.175 847.465,683.016 z" id="boundary" inkscape:connector-curvature="0" />
	<path style="fill:none;stroke:red;stroke-width:1px;stroke-linecap:butt;stroke-linejoin:miter;stroke-opacity:1" d="M 847.465,683.016 831.551,691.857 z" id="boundary" inkscape:connector-curvature="0" />
	<path style="fill:none;stroke:red;stroke-width:1px;stroke-linecap:butt;stroke-linejoin:miter;stroke-opacity:1" d="M 831.551,691.857 815.636,700.699 z" id="boundary" inkscape:connector-curvature="0" />
	<path style="fill:none;stroke:red;stroke-width:1px;stroke-linecap:butt;stroke-linejoin:miter;stroke-opacity:1" d="M 815.636,700.699 797.954,706.004 z" id="boundary" inkscape:connector-curvature="0" />
	<path style="fill:none;stroke:red;stroke-width:1px;stroke-linecap:butt;stroke-linejoin:miter;stroke-opacity:1" d="M 797.954,706.004 780.271,714.845 z" id="boundary" inkscape:connector-curvature="0" />
	<path style="fill:none;stroke:red;stroke-width:1px;stroke-linecap:butt;stroke-linejoin:miter;stroke-opacity:1" d="M 780.271,714.845 762.588,718.381 z" id="boundary" inkscape:connector-curvature="0" />
	<path style="fill:none;stroke:red;stroke-width:1px;stroke-linecap:butt;stroke-linejoin:miter;stroke-opacity:1" d="M 762.588,718.381 746.674,727.223 z" id="boundary" inkscape:connector-curvature="0" />
	<path style="fill:none;stroke:red;stroke-width:1px;stroke-linecap:butt;stroke-linejoin:miter;stroke-opacity:1" d="M 746.674,727.223 728.991,727.223 z" id="boundary" inkscape:connector-curvature="0" />
	<path style="fill:none;stroke:red;stroke-width:1px;stroke-linecap:butt;stroke-linejoin:miter;stroke-opacity:1" d="M 728.991,727.223 713.077,736.064 z" id="boundary" inkscape:connector-curvature="0" />
	<path style="fill:none;stroke:red;stroke-width:1px;stroke-linecap:butt;stroke-linejoin:miter;stroke-opacity:1" d="M 713.077,736.064 695.394,736.064 z" id="boundary" inkscape:connector-curvature="0" />
	<path style="fill:none;stroke:red;stroke-width:1px;stroke-linecap:butt;stroke-linejoin:miter;stroke-opacity:1" d="M 695.394,736.064 677.711,744.906 z" id="boundary" inkscape:connector-curvature="0" />
	<path style="fill:none;stroke:red;stroke-width:1px;stroke-linecap:butt;stroke-linejoin:miter;stroke-opacity:1" d="M 677.711,744.906 661.797,753.747 z" id="boundary" inkscape:connector-curvature="0" />
	<path style="fill:none;stroke:red;stroke-width:1px;stroke-linecap:butt;stroke-linejoin:miter;stroke-opacity:1" d="M 661.797,753.747 644.114,753.747 z" id="boundary" inkscape:connector-curvature="0" />
	<path style="fill:none;stroke:red;stroke-width:1px;stroke-linecap:butt;stroke-linejoin:miter;stroke-opacity:1" d="M 644.114,753.747 628.2,762.588 z" id="boundary" inkscape:connector-curvature="0" />
	<path style="fill:none;stroke:red;stroke-width:1px;stroke-linecap:butt;stroke-linejoin:miter;stroke-opacity:1" d="M 628.2,762.588 610.517,769.661 z" id="boundary" inkscape:connector-curvature="0" />
	<path style="fill:none;stroke:red;stroke-width:1px;stroke-linecap:butt;stroke-linejoin:miter;stroke-opacity:1" d="M 610.517,769.661 592.834,771.43 z" id="boundary" inkscape:connector-curvature="0" />
	<path style="fill:none;stroke:red;stroke-width:1px;stroke-linecap:butt;stroke-linejoin:miter;stroke-opacity:1" d="M 592.834,771.43 576.92,780.271 z" id="boundary" inkscape:connector-curvature="0" />
	<path style="fill:none;stroke:red;stroke-width:1px;stroke-linecap:butt;stroke-linejoin:miter;stroke-opacity:1" d="M 576.92,780.271 559.237,780.271 z" id="boundary" inkscape:connector-curvature="0" />
	<path style="fill:none;stroke:red;stroke-width:1px;stroke-linecap:butt;stroke-linejoin:miter;stroke-opacity:1" d="M 559.237,780.271 543.323,789.112 z" id="boundary" inkscape:connector-curvature="0" />
	<path style="fill:none;stroke:red;stroke-width:1px;stroke-linecap:butt;stroke-linejoin:miter;stroke-opacity:1" d="M 543.323,789.112 527.408,797.954 z" id="boundary" inkscape:connector-curvature="0" />
	<path style="fill:none;stroke:red;stroke-width:1px;stroke-linecap:butt;stroke-linejoin:miter;stroke-opacity:1" d="M 527.408,797.954 509.725,797.954 z" id="boundary" inkscape:connector-curvature="0" />
	<path style="fill:none;stroke:red;stroke-width:1px;stroke-linecap:butt;stroke-linejoin:miter;stroke-opacity:1" d="M 509.725,797.954 492.043,806.795 z" id="boundary" inkscape:connector-curvature="0" />
	<path style="fill:none;stroke:red;stroke-width:1px;stroke-linecap:butt;stroke-linejoin:miter;stroke-opacity:1" d="M 492.043,806.795 474.36,815.636 z" id="boundary" inkscape:connector-curvature="0" />
	<path style="fill:none;stroke:red;stroke-width:1px;stroke-linecap:butt;stroke-linejoin:miter;stroke-opacity:1" d="M 474.36,815.636 458.446,824.478 z" id="boundary" inkscape:connector-curvature="0" />
	<path style="fill:none;stroke:red;stroke-width:1px;stroke-linecap:butt;stroke-linejoin:miter;stroke-opacity:1" d="M 458.446,824.478 440.763,824.478 z" id="boundary" inkscape:connector-curvature="0" />
	<path style="fill:none;stroke:red;stroke-width:1px;stroke-linecap:butt;stroke-linejoin:miter;stroke-opacity:1" d="M 440.763,824.478 424.848,833.319 z" id="boundary" inkscape:connector-curvature="0" />
	<path style="fill:none;stroke:red;stroke-width:1px;stroke-linecap:butt;stroke-linejoin:miter;stroke-opacity:1" d="M 424.848,833.319 408.934,842.16 z" id="boundary" inkscape:connector-curvature="0" />
	<path style="fill:none;stroke:red;stroke-width:1px;stroke-linecap:butt;stroke-linejoin:miter;stroke-opacity:1" d="M 408.934,842.16 393.02,851.002 z" id="boundary" inkscape:connector-curvature="0" />
	<path style="fill:none;stroke:red;stroke-width:1px;stroke-linecap:butt;stroke-linejoin:miter;stroke-opacity:1" d="M 393.02,851.002 377.105,859.843 z" id="boundary" inkscape:connector-curvature="0" />
	<path style="fill:none;stroke:red;stroke-width:1px;stroke-linecap:butt;stroke-linejoin:miter;stroke-opacity:1" d="M 377.105,859.843 359.422,859.843 z" id="boundary" inkscape:connector-curvature="0" />
	<path style="fill:none;stroke:red;stroke-width:1px;stroke-linecap:butt;stroke-linejoin:miter;stroke-opacity:1" d="M 359.422,859.843 341.74,868.684 z" id="boundary" inkscape:connector-curvature="0" />
	<path style="fill:none;stroke:red;stroke-width:1px;stroke-linecap:butt;stroke-linejoin:miter;stroke-opacity:1" d="M 341.74,868.684 325.825,877.526 z" id="boundary" inkscape:connector-curvature="0" />
	<path style="fill:none;stroke:red;stroke-width:1px;stroke-linecap:butt;stroke-linejoin:miter;stroke-opacity:1" d="M 325.825,877.526 308.143,875.758 z" id="boundary" inkscape:connector-curvature="0" />
	<path style="fill:none;stroke:red;stroke-width:1px;stroke-linecap:butt;stroke-linejoin:miter;stroke-opacity:1" d="M 308.143,875.758 292.228,866.916 z" id="boundary" inkscape:connector-curvature="0" />
	<path style="fill:none;stroke:red;stroke-width:1px;stroke-linecap:butt;stroke-linejoin:miter;stroke-opacity:1" d="M 292.228,866.916 278.082,854.538 z" id="boundary" inkscape:connector-curvature="0" />
	<path style="fill:none;stroke:red;stroke-width:1px;stroke-linecap:butt;stroke-linejoin:miter;stroke-opacity:1" d="M 278.082,854.538 278.082,836.856 z" id="boundary" inkscape:connector-curvature="0" />
	<path style="fill:none;stroke:red;stroke-width:1px;stroke-linecap:butt;stroke-linejoin:miter;stroke-opacity:1" d="M 278.082,836.856 278.082,819.173 z" id="boundary" inkscape:connector-curvature="0" />
	<path style="fill:none;stroke:red;stroke-width:1px;stroke-linecap:butt;stroke-linejoin:miter;stroke-opacity:1" d="M 278.082,819.173 292.228,805.027 z" id="boundary" inkscape:connector-curvature="0" />
	<path style="fill:none;stroke:red;stroke-width:1px;stroke-linecap:butt;stroke-linejoin:miter;stroke-opacity:1" d="M 292.228,805.027 306.374,790.881 z" id="boundary" inkscape:connector-curvature="0" />
	<path style="fill:none;stroke:red;stroke-width:1px;stroke-linecap:butt;stroke-linejoin:miter;stroke-opacity:1" d="M 306.374,790.881 320.52,778.503 z" id="boundary" inkscape:connector-curvature="0" />
	<path style="fill:none;stroke:red;stroke-width:1px;stroke-linecap:butt;stroke-linejoin:miter;stroke-opacity:1" d="M 320.52,778.503 336.435,769.661 z" id="boundary" inkscape:connector-curvature="0" />
	<path style="fill:none;stroke:red;stroke-width:1px;stroke-linecap:butt;stroke-linejoin:miter;stroke-opacity:1" d="M 336.435,769.661 354.118,760.82 z" id="boundary" inkscape:connector-curvature="0" />
	<path style="fill:none;stroke:red;stroke-width:1px;stroke-linecap:butt;stroke-linejoin:miter;stroke-opacity:1" d="M 354.118,760.82 371.8,760.82 z" id="boundary" inkscape:connector-curvature="0" />
	<path style="fill:none;stroke:red;stroke-width:1px;stroke-linecap:butt;stroke-linejoin:miter;stroke-opacity:1" d="M 371.8,760.82 387.715,751.979 z" id="boundary" inkscape:connector-curvature="0" />
	<path style="fill:none;stroke:red;stroke-width:1px;stroke-linecap:butt;stroke-linejoin:miter;stroke-opacity:1" d="M 387.715,751.979 403.629,743.137 z" id="boundary" inkscape:connector-curvature="0" />
	<path style="fill:none;stroke:red;stroke-width:1px;stroke-linecap:butt;stroke-linejoin:miter;stroke-opacity:1" d="M 403.629,743.137 421.312,737.832 z" id="boundary" inkscape:connector-curvature="0" />
	<path style="fill:none;stroke:red;stroke-width:1px;stroke-linecap:butt;stroke-linejoin:miter;stroke-opacity:1" d="M 421.312,737.832 438.995,728.991 z" id="boundary" inkscape:connector-curvature="0" />
	<path style="fill:none;stroke:red;stroke-width:1px;stroke-linecap:butt;stroke-linejoin:miter;stroke-opacity:1" d="M 438.995,728.991 456.677,720.15 z" id="boundary" inkscape:connector-curvature="0" />
	<path style="fill:none;stroke:red;stroke-width:1px;stroke-linecap:butt;stroke-linejoin:miter;stroke-opacity:1" d="M 456.677,720.15 474.36,711.308 z" id="boundary" inkscape:connector-curvature="0" />
	<path style="fill:none;stroke:red;stroke-width:1px;stroke-linecap:butt;stroke-linejoin:miter;stroke-opacity:1" d="M 474.36,711.308 488.506,700.699 z" id="boundary" inkscape:connector-curvature="0" />
	<path style="fill:none;stroke:red;stroke-width:1px;stroke-linecap:butt;stroke-linejoin:miter;stroke-opacity:1" d="M 488.506,700.699 461.982,691.857 z" id="boundary" inkscape:connector-curvature="0" />
	<path style="fill:none;stroke:red;stroke-width:1px;stroke-linecap:butt;stroke-linejoin:miter;stroke-opacity:1" d="M 461.982,691.857 447.836,679.48 z" id="boundary" inkscape:connector-curvature="0" />
	<path style="fill:none;stroke:red;stroke-width:1px;stroke-linecap:butt;stroke-linejoin:miter;stroke-opacity:1" d="M 447.836,679.48 437.226,665.333 z" id="boundary" inkscape:connector-curvature="0" />
	<path style="fill:none;stroke:red;stroke-width:1px;stroke-linecap:butt;stroke-linejoin:miter;stroke-opacity:1" d="M 437.226,665.333 428.385,649.419 z" id="boundary" inkscape:connector-curvature="0" />
	<path style="fill:none;stroke:red;stroke-width:1px;stroke-linecap:butt;stroke-linejoin:miter;stroke-opacity:1" d="M 428.385,649.419 419.544,633.504 z" id="boundary" inkscape:connector-curvature="0" />
	<path style="fill:none;stroke:red;stroke-width:1px;stroke-linecap:butt;stroke-linejoin:miter;stroke-opacity:1" d="M 419.544,633.504 428.385,606.98 z" id="boundary" inkscape:connector-curvature="0" />
	<path style="fill:none;stroke:red;stroke-width:1px;stroke-linecap:butt;stroke-linejoin:miter;stroke-opacity:1" d="M 428.385,606.98 433.69,576.92 z" id="boundary" inkscape:connector-curvature="0" />
	<path style="fill:none;stroke:red;stroke-width:1px;stroke-linecap:butt;stroke-linejoin:miter;stroke-opacity:1" d="M 433.69,576.92 416.007,576.92 z" id="boundary" inkscape:connector-curvature="0" />
	<path style="fill:none;stroke:red;stroke-width:1px;stroke-linecap:butt;stroke-linejoin:miter;stroke-opacity:1" d="M 416.007,576.92 398.324,583.993 z" id="boundary" inkscape:connector-curvature="0" />
	<path style="fill:none;stroke:red;stroke-width:1px;stroke-linecap:butt;stroke-linejoin:miter;stroke-opacity:1" d="M 398.324,583.993 380.642,585.761 z" id="boundary" inkscape:connector-curvature="0" />
	<path style="fill:none;stroke:red;stroke-width:1px;stroke-linecap:butt;stroke-linejoin:miter;stroke-opacity:1" d="M 380.642,585.761 362.959,592.834 z" id="boundary" inkscape:connector-curvature="0" />
	<path style="fill:none;stroke:red;stroke-width:1px;stroke-linecap:butt;stroke-linejoin:miter;stroke-opacity:1" d="M 362.959,592.834 345.276,594.602 z" id="boundary" inkscape:connector-curvature="0" />
	<path style="fill:none;stroke:red;stroke-width:1px;stroke-linecap:butt;stroke-linejoin:miter;stroke-opacity:1" d="M 345.276,594.602 329.362,603.444 z" id="boundary" inkscape:connector-curvature="0" />
	<path style="fill:none;stroke:red;stroke-width:1px;stroke-linecap:butt;stroke-linejoin:miter;stroke-opacity:1" d="M 329.362,603.444 311.679,603.444 z" id="boundary" inkscape:connector-curvature="0" />
	<path style="fill:none;stroke:red;stroke-width:1px;stroke-linecap:butt;stroke-linejoin:miter;stroke-opacity:1" d="M 311.679,603.444 293.996,608.749 z" id="boundary" inkscape:connector-curvature="0" />
	<path style="fill:none;stroke:red;stroke-width:1px;stroke-linecap:butt;stroke-linejoin:miter;stroke-opacity:1" d="M 293.996,608.749 276.314,612.285 z" id="boundary" inkscape:connector-curvature="0" />
	<path style="fill:none;stroke:red;stroke-width:1px;stroke-linecap:butt;stroke-linejoin:miter;stroke-opacity:1" d="M 276.314,612.285 258.631,612.285 z" id="boundary" inkscape:connector-curvature="0" />
	<path style="fill:none;stroke:red;stroke-width:1px;stroke-linecap:butt;stroke-linejoin:miter;stroke-opacity:1" d="M 258.631,612.285 240.948,612.285 z" id="boundary" inkscape:connector-curvature="0" />
	<path style="fill:none;stroke:red;stroke-width:1px;stroke-linecap:butt;stroke-linejoin:miter;stroke-opacity:1" d="M 240.948,612.285 223.266,612.285 z" id="boundary" inkscape:connector-curvature="0" />
	<path style="fill:none;stroke:red;stroke-width:1px;stroke-linecap:butt;stroke-linejoin:miter;stroke-opacity:1" d="M 223.266,612.285 207.351,621.127 z" id="boundary" inkscape:connector-curvature="0" />
	<path style="fill:none;stroke:red;stroke-width:1px;stroke-linecap:butt;stroke-linejoin:miter;stroke-opacity:1" d="M 207.351,621.127 189.668,621.127 z" id="boundary" inkscape:connector-curvature="0" />
	<path style="fill:none;stroke:red;stroke-width:1px;stroke-linecap:butt;stroke-linejoin:miter;stroke-opacity:1" d="M 189.668,621.127 171.986,624.663 z" id="boundary" inkscape:connector-curvature="0" />
	<path style="fill:none;stroke:red;stroke-width:1px;stroke-linecap:butt;stroke-linejoin:miter;stroke-opacity:1" d="M 171.986,624.663 154.303,629.968 z" id="boundary" inkscape:connector-curvature="0" />
	<path style="fill:none;stroke:red;stroke-width:1px;stroke-linecap:butt;stroke-linejoin:miter;stroke-opacity:1" d="M 154.303,629.968 138.389,638.809 z" id="boundary" inkscape:connector-curvature="0" />
	<path style="fill:none;stroke:red;stroke-width:1px;stroke-linecap:butt;stroke-linejoin:miter;stroke-opacity:1" d="M 138.389,638.809 120.706,638.809 z" id="boundary" inkscape:connector-curvature="0" />
	<path style="fill:none;stroke:red;stroke-width:1px;stroke-linecap:butt;stroke-linejoin:miter;stroke-opacity:1" d="M 120.706,638.809 104.791,647.651 z" id="boundary" inkscape:connector-curvature="0" />
	<path style="fill:none;stroke:red;stroke-width:1px;stroke-linecap:butt;stroke-linejoin:miter;stroke-opacity:1" d="M 104.791,647.651 87.1087,647.651 z" id="boundary" inkscape:connector-curvature="0" />
	<path style="fill:none;stroke:red;stroke-width:1px;stroke-linecap:butt;stroke-linejoin:miter;stroke-opacity:1" d="M 87.1087,647.651 69.426,647.651 z" id="boundary" inkscape:connector-curvature="0" />
	<path style="fill:none;stroke:red;stroke-width:1px;stroke-linecap:butt;stroke-linejoin:miter;stroke-opacity:1" d="M 69.426,647.651 51.7433,645.882 z" id="boundary" inkscape:connector-curvature="0" />
	<path style="fill:none;stroke:red;stroke-width:1px;stroke-linecap:butt;stroke-linejoin:miter;stroke-opacity:1" d="M 51.7433,645.882 39.3654,631.736 z" id="boundary" inkscape:connector-curvature="0" />
	<path style="fill:none;stroke:red;stroke-width:1px;stroke-linecap:butt;stroke-linejoin:miter;stroke-opacity:1" d="M 39.3654,631.736 30.5241,615.822 z" id="boundary" inkscape:connector-curvature="0" />
	<path style="fill:none;stroke:red;stroke-width:1px;stroke-linecap:butt;stroke-linejoin:miter;stroke-opacity:1" d="M 30.5241,615.822 30.5241,598.139 z" id="boundary" inkscape:connector-curvature="0" />
	<path style="fill:none;stroke:red;stroke-width:1px;stroke-linecap:butt;stroke-linejoin:miter;stroke-opacity:1" d="M 30.5241,598.139 30.5241,580.456 z" id="boundary" inkscape:connector-curvature="0" />
	<path style="fill:none;stroke:red;stroke-width:1px;stroke-linecap:butt;stroke-linejoin:miter;stroke-opacity:1" d="M 30.5241,580.456 44.6702,566.31 z" id="boundary" inkscape:connector-curvature="0" />
	<path style="fill:none;stroke:red;stroke-width:1px;stroke-linecap:butt;stroke-linejoin:miter;stroke-opacity:1" d="M 44.6702,566.31 60.5847,557.469 z" id="boundary" inkscape:connector-curvature="0" />
	<path style="fill:none;stroke:red;stroke-width:1px;stroke-linecap:butt;stroke-linejoin:miter;stroke-opacity:1" d="M 60.5847,557.469 78.2674,550.396 z" id="boundary" inkscape:connector-curvature="0" />
	<path style="fill:none;stroke:red;stroke-width:1px;stroke-linecap:butt;stroke-linejoin:miter;stroke-opacity:1" d="M 78.2674,550.396 95.9501,548.627 z" id="boundary" inkscape:connector-curvature="0" />
	<path style="fill:none;stroke:red;stroke-width:1px;stroke-linecap:butt;stroke-linejoin:miter;stroke-opacity:1" d="M 95.9501,548.627 111.865,539.786 z" id="boundary" inkscape:connector-curvature="0" />
	<path style="fill:none;stroke:red;stroke-width:1px;stroke-linecap:butt;stroke-linejoin:miter;stroke-opacity:1" d="M 111.865,539.786 129.547,534.481 z" id="boundary" inkscape:connector-curvature="0" />
	<path style="fill:none;stroke:red;stroke-width:1px;stroke-linecap:butt;stroke-linejoin:miter;stroke-opacity:1" d="M 129.547,534.481 147.23,530.945 z" id="boundary" inkscape:connector-curvature="0" />
	<path style="fill:none;stroke:red;stroke-width:1px;stroke-linecap:butt;stroke-linejoin:miter;stroke-opacity:1" d="M 147.23,530.945 164.913,525.64 z" id="boundary" inkscape:connector-curvature="0" />
	<path style="fill:none;stroke:red;stroke-width:1px;stroke-linecap:butt;stroke-linejoin:miter;stroke-opacity:1" d="M 164.913,525.64 182.595,522.103 z" id="boundary" inkscape:connector-curvature="0" />
	<path style="fill:none;stroke:red;stroke-width:1px;stroke-linecap:butt;stroke-linejoin:miter;stroke-opacity:1" d="M 182.595,522.103 198.51,513.262 z" id="boundary" inkscape:connector-curvature="0" />
	<path style="fill:none;stroke:red;stroke-width:1px;stroke-linecap:butt;stroke-linejoin:miter;stroke-opacity:1" d="M 198.51,513.262 214.424,504.421 z" id="boundary" inkscape:connector-curvature="0" />
	<path style="fill:none;stroke:red;stroke-width:1px;stroke-linecap:butt;stroke-linejoin:miter;stroke-opacity:1" d="M 214.424,504.421 232.107,504.421 z" id="boundary" inkscape:connector-curvature="0" />
	<path style="fill:none;stroke:red;stroke-width:1px;stroke-linecap:butt;stroke-linejoin:miter;stroke-opacity:1" d="M 232.107,504.421 248.021,495.579 z" id="boundary" inkscape:connector-curvature="0" />
	<path style="fill:none;stroke:red;stroke-width:1px;stroke-linecap:butt;stroke-linejoin:miter;stroke-opacity:1" d="M 248.021,495.579 265.704,486.738 z" id="boundary" inkscape:connector-curvature="0" />
	<path style="fill:none;stroke:red;stroke-width:1px;stroke-linecap:butt;stroke-linejoin:miter;stroke-opacity:1" d="M 265.704,486.738 283.387,486.738 z" id="boundary" inkscape:connector-curvature="0" />
	<path style="fill:none;stroke:red;stroke-width:1px;stroke-linecap:butt;stroke-linejoin:miter;stroke-opacity:1" d="M 283.387,486.738 299.301,477.897 z" id="boundary" inkscape:connector-curvature="0" />
	<path style="fill:none;stroke:red;stroke-width:1px;stroke-linecap:butt;stroke-linejoin:miter;stroke-opacity:1" d="M 299.301,477.897 316.984,470.824 z" id="boundary" inkscape:connector-curvature="0" />
	<path style="fill:none;stroke:red;stroke-width:1px;stroke-linecap:butt;stroke-linejoin:miter;stroke-opacity:1" d="M 316.984,470.824 334.667,469.055 z" id="boundary" inkscape:connector-curvature="0" />
	<path style="fill:none;stroke:red;stroke-width:1px;stroke-linecap:butt;stroke-linejoin:miter;stroke-opacity:1" d="M 334.667,469.055 352.349,461.982 z" id="boundary" inkscape:connector-curvature="0" />
	<path style="fill:none;stroke:red;stroke-width:1px;stroke-linecap:butt;stroke-linejoin:miter;stroke-opacity:1" d="M 352.349,461.982 370.032,460.214 z" id="boundary" inkscape:connector-curvature="0" />
	<path style="fill:none;stroke:red;stroke-width:1px;stroke-linecap:butt;stroke-linejoin:miter;stroke-opacity:1" d="M 370.032,460.214 387.715,460.214 z" id="boundary" inkscape:connector-curvature="0" />
	<path style="fill:none;stroke:red;stroke-width:1px;stroke-linecap:butt;stroke-linejoin:miter;stroke-opacity:1" d="M 387.715,460.214 401.861,447.836 z" id="boundary" inkscape:connector-curvature="0" />
	<path style="fill:none;stroke:red;stroke-width:1px;stroke-linecap:butt;stroke-linejoin:miter;stroke-opacity:1" d="M 401.861,447.836 389.483,433.69 z" id="boundary" inkscape:connector-curvature="0" />
	<path style="fill:none;stroke:red;stroke-width:1px;stroke-linecap:butt;stroke-linejoin:miter;stroke-opacity:1" d="M 389.483,433.69 371.8,426.617 z" id="boundary" inkscape:connector-curvature="0" />
	<path style="fill:none;stroke:red;stroke-width:1px;stroke-linecap:butt;stroke-linejoin:miter;stroke-opacity:1" d="M 371.8,426.617 354.118,426.617 z" id="boundary" inkscape:connector-curvature="0" />
	<path style="fill:none;stroke:red;stroke-width:1px;stroke-linecap:butt;stroke-linejoin:miter;stroke-opacity:1" d="M 354.118,426.617 336.435,426.617 z" id="boundary" inkscape:connector-curvature="0" />
	<path style="fill:none;stroke:red;stroke-width:1px;stroke-linecap:butt;stroke-linejoin:miter;stroke-opacity:1" d="M 336.435,426.617 318.752,426.617 z" id="boundary" inkscape:connector-curvature="0" />
	<path style="fill:none;stroke:red;stroke-width:1px;stroke-linecap:butt;stroke-linejoin:miter;stroke-opacity:1" d="M 318.752,426.617 301.07,426.617 z" id="boundary" inkscape:connector-curvature="0" />
	<path style="fill:none;stroke:red;stroke-width:1px;stroke-linecap:butt;stroke-linejoin:miter;stroke-opacity:1" d="M 301.07,426.617 283.387,424.848 z" id="boundary" inkscape:connector-curvature="0" />
	<path style="fill:none;stroke:red;stroke-width:1px;stroke-linecap:butt;stroke-linejoin:miter;stroke-opacity:1" d="M 283.387,424.848 265.704,417.775 z" id="boundary" inkscape:connector-curvature="0" />
	<path style="fill:none;stroke:red;stroke-width:1px;stroke-linecap:butt;stroke-linejoin:miter;stroke-opacity:1" d="M 265.704,417.775 248.021,417.775 z" id="boundary" inkscape:connector-curvature="0" />
	<path style="fill:none;stroke:red;stroke-width:1px;stroke-linecap:butt;stroke-linejoin:miter;stroke-opacity:1" d="M 248.021,417.775 230.339,417.775 z" id="boundary" inkscape:connector-curvature="0" />
	<path style="fill:none;stroke:red;stroke-width:1px;stroke-linecap:butt;stroke-linejoin:miter;stroke-opacity:1" d="M 230.339,417.775 212.656,417.775 z" id="boundary" inkscape:connector-curvature="0" />
	<path style="fill:none;stroke:red;stroke-width:1px;stroke-linecap:butt;stroke-linejoin:miter;stroke-opacity:1" d="M 212.656,417.775 194.973,417.775 z" id="boundary" inkscape:connector-curvature="0" />
	<path style="fill:none;stroke:red;stroke-width:1px;stroke-linecap:butt;stroke-linejoin:miter;stroke-opacity:1" d="M 194.973,417.775 177.291,417.775 z" id="boundary" inkscape:connector-curvature="0" />
	<path style="fill:none;stroke:red;stroke-width:1px;stroke-linecap:butt;stroke-linejoin:miter;stroke-opacity:1" d="M 177.291,417.775 159.608,417.775 z" id="boundary" inkscape:connector-curvature="0" />
	<path style="fill:none;stroke:red;stroke-width:1px;stroke-linecap:butt;stroke-linejoin:miter;stroke-opacity:1" d="M 159.608,417.775 141.925,417.775 z" id="boundary" inkscape:connector-curvature="0" />
	<path style="fill:none;stroke:red;stroke-width:1px;stroke-linecap:butt;stroke-linejoin:miter;stroke-opacity:1" d="M 141.925,417.775 124.242,417.775 z" id="boundary" inkscape:connector-curvature="0" />
	<path style="fill:none;stroke:red;stroke-width:1px;stroke-linecap:butt;stroke-linejoin:miter;stroke-opacity:1" d="M 124.242,417.775 106.56,417.775 z" id="boundary" inkscape:connector-curvature="0" />
	<path style="fill:none;stroke:red;stroke-width:1px;stroke-linecap:butt;stroke-linejoin:miter;stroke-opacity:1" d="M 106.56,417.775 88.877,417.775 z" id="boundary" inkscape:connector-curvature="0" />
	<path style="fill:none;stroke:red;stroke-width:1px;stroke-linecap:butt;stroke-linejoin:miter;stroke-opacity:1" d="M 88.877,417.775 71.1943,417.775 z" id="boundary" inkscape:connector-curvature="0" />
	<path style="fill:none;stroke:red;stroke-width:1px;stroke-linecap:butt;stroke-linejoin:miter;stroke-opacity:1" d="M 71.1943,417.775 53.5116,417.775 z" id="boundary" inkscape:connector-curvature="0" />
	<path style="fill:none;stroke:red;stroke-width:1px;stroke-linecap:butt;stroke-linejoin:miter;stroke-opacity:1" d="M 53.5116,417.775 37.5971,408.934 z" id="boundary" inkscape:connector-curvature="0" />
	<path style="fill:none;stroke:red;stroke-width:1px;stroke-linecap:butt;stroke-linejoin:miter;stroke-opacity:1" d="M 37.5971,408.934 21.6827,400.093 z" id="boundary" inkscape:connector-curvature="0" />
	<path style="fill:none;stroke:red;stroke-width:1px;stroke-linecap:butt;stroke-linejoin:miter;stroke-opacity:1" d="M 21.6827,400.093 12.8414,384.178 z" id="boundary" inkscape:connector-curvature="0" />
	<path style="fill:none;stroke:red;stroke-width:1px;stroke-linecap:butt;stroke-linejoin:miter;stroke-opacity:1" d="M 12.8414,384.178 4,368.264 z" id="boundary" inkscape:connector-curvature="0" />
	<path style="fill:none;stroke:red;stroke-width:1px;stroke-linecap:butt;stroke-linejoin:miter;stroke-opacity:1" d="M 4,368.264 12.8414,350.581 z" id="boundary" inkscape:connector-curvature="0" />
	<path style="fill:none;stroke:red;stroke-width:1px;stroke-linecap:butt;stroke-linejoin:miter;stroke-opacity:1" d="M 12.8414,350.581 26.9875,336.435 z" id="boundary" inkscape:connector-curvature="0" />
	<path style="fill:none;stroke:red;stroke-width:1px;stroke-linecap:butt;stroke-linejoin:miter;stroke-opacity:1" d="M 26.9875,336.435 42.902,327.594 z" id="boundary" inkscape:connector-curvature="0" />
	<path style="fill:none;stroke:red;stroke-width:1px;stroke-linecap:butt;stroke-linejoin:miter;stroke-opacity:1" d="M 42.902,327.594 58.8164,318.752 z" id="boundary" inkscape:connector-curvature="0" />
	<path style="fill:none;stroke:red;stroke-width:1px;stroke-linecap:butt;stroke-linejoin:miter;stroke-opacity:1" d="M 58.8164,318.752 76.4991,318.752 z" id="boundary" inkscape:connector-curvature="0" />
	<path style="fill:none;stroke:red;stroke-width:1px;stroke-linecap:butt;stroke-linejoin:miter;stroke-opacity:1" d="M 76.4991,318.752 94.1818,318.752 z" id="boundary" inkscape:connector-curvature="0" />
	<path style="fill:none;stroke:red;stroke-width:1px;stroke-linecap:butt;stroke-linejoin:miter;stroke-opacity:1" d="M 94.1818,318.752 111.865,318.752 z" id="boundary" inkscape:connector-curvature="0" />
	<path style="fill:none;stroke:red;stroke-width:1px;stroke-linecap:butt;stroke-linejoin:miter;stroke-opacity:1" d="M 111.865,318.752 129.547,313.447 z" id="boundary" inkscape:connector-curvature="0" />
	<path style="fill:none;stroke:red;stroke-width:1px;stroke-linecap:butt;stroke-linejoin:miter;stroke-opacity:1" d="M 129.547,313.447 147.23,309.911 z" id="boundary" inkscape:connector-curvature="0" />
	<path style="fill:none;stroke:red;stroke-width:1px;stroke-linecap:butt;stroke-linejoin:miter;stroke-opacity:1" d="M 147.23,309.911 164.913,309.911 z" id="boundary" inkscape:connector-curvature="0" />
	<path style="fill:none;stroke:red;stroke-width:1px;stroke-linecap:butt;stroke-linejoin:miter;stroke-opacity:1" d="M 164.913,309.911 182.595,309.911 z" id="boundary" inkscape:connector-curvature="0" />
	<path style="fill:none;stroke:red;stroke-width:1px;stroke-linecap:butt;stroke-linejoin:miter;stroke-opacity:1" d="M 182.595,309.911 200.278,309.911 z" id="boundary" inkscape:connector-curvature="0" />
	<path style="fill:none;stroke:red;stroke-width:1px;stroke-linecap:butt;stroke-linejoin:miter;stroke-opacity:1" d="M 200.278,309.911 216.193,301.07 z" id="boundary" inkscape:connector-curvature="0" />
	<path style="fill:none;stroke:red;stroke-width:1px;stroke-linecap:butt;stroke-linejoin:miter;stroke-opacity:1" d="M 216.193,301.07 233.875,301.07 z" id="boundary" inkscape:connector-curvature="0" />
	<path style="fill:none;stroke:red;stroke-width:1px;stroke-linecap:butt;stroke-linejoin:miter;stroke-opacity:1" d="M 233.875,301.07 251.558,301.07 z" id="boundary" inkscape:connector-curvature="0" />
	<path style="fill:none;stroke:red;stroke-width:1px;stroke-linecap:butt;stroke-linejoin:miter;stroke-opacity:1" d="M 251.558,301.07 269.241,301.07 z" id="boundary" inkscape:connector-curvature="0" />
	<path style="fill:none;stroke:red;stroke-width:1px;stroke-linecap:butt;stroke-linejoin:miter;stroke-opacity:1" d="M 269.241,301.07 286.923,301.07 z" id="boundary" inkscape:connector-curvature="0" />
	<path style="fill:none;stroke:red;stroke-width:1px;stroke-linecap:butt;stroke-linejoin:miter;stroke-opacity:1" d="M 286.923,301.07 304.606,301.07 z" id="boundary" inkscape:connector-curvature="0" />
	<path style="fill:none;stroke:red;stroke-width:1px;stroke-linecap:butt;stroke-linejoin:miter;stroke-opacity:1" d="M 304.606,301.07 322.289,301.07 z" id="boundary" inkscape:connector-curvature="0" />
	<path style="fill:none;stroke:red;stroke-width:1px;stroke-linecap:butt;stroke-linejoin:miter;stroke-opacity:1" d="M 322.289,301.07 339.971,301.07 z" id="boundary" inkscape:connector-curvature="0" />
	<path style="fill:none;stroke:red;stroke-width:1px;stroke-linecap:butt;stroke-linejoin:miter;stroke-opacity:1" d="M 339.971,301.07 357.654,295.765 z" id="boundary" inkscape:connector-curvature="0" />
	<path style="fill:none;stroke:red;stroke-width:1px;stroke-linecap:butt;stroke-linejoin:miter;stroke-opacity:1" d="M 357.654,295.765 375.337,292.228 z" id="boundary" inkscape:connector-curvature="0" />
	<path style="fill:none;stroke:red;stroke-width:1px;stroke-linecap:butt;stroke-linejoin:miter;stroke-opacity:1" d="M 375.337,292.228 393.02,292.228 z" id="boundary" inkscape:connector-curvature="0" />
	<path style="fill:none;stroke:red;stroke-width:1px;stroke-linecap:butt;stroke-linejoin:miter;stroke-opacity:1" d="M 393.02,292.228 410.702,292.228 z" id="boundary" inkscape:connector-curvature="0" />
	<path style="fill:none;stroke:red;stroke-width:1px;stroke-linecap:butt;stroke-linejoin:miter;stroke-opacity:1" d="M 410.702,292.228 428.385,292.228 z" id="boundary" inkscape:connector-curvature="0" />
	<path style="fill:none;stroke:red;stroke-width:1px;stroke-linecap:butt;stroke-linejoin:miter;stroke-opacity:1" d="M 428.385,292.228 446.068,292.228 z" id="boundary" inkscape:connector-curvature="0" />
	<path style="fill:none;stroke:red;stroke-width:1px;stroke-linecap:butt;stroke-linejoin:miter;stroke-opacity:1" d="M 446.068,292.228 463.75,288.692 z" id="boundary" inkscape:connector-curvature="0" />
	<path style="fill:none;stroke:red;stroke-width:1px;stroke-linecap:butt;stroke-linejoin:miter;stroke-opacity:1" d="M 463.75,288.692 481.433,283.387 z" id="boundary" inkscape:connector-curvature="0" />
	<path style="fill:none;stroke:red;stroke-width:1px;stroke-linecap:butt;stroke-linejoin:miter;stroke-opacity:1" d="M 481.433,283.387 499.116,283.387 z" id="boundary" inkscape:connector-curvature="0" />
	<path style="fill:none;stroke:red;stroke-width:1px;stroke-linecap:butt;stroke-linejoin:miter;stroke-opacity:1" d="M 499.116,283.387 515.03,274.545 z" id="boundary" inkscape:connector-curvature="0" />
	<path style="fill:none;stroke:red;stroke-width:1px;stroke-linecap:butt;stroke-linejoin:miter;stroke-opacity:1" d="M 515.03,274.545 532.713,274.545 z" id="boundary" inkscape:connector-curvature="0" />
	<path style="fill:none;stroke:red;stroke-width:1px;stroke-linecap:butt;stroke-linejoin:miter;stroke-opacity:1" d="M 532.713,274.545 545.091,260.399 z" id="boundary" inkscape:connector-curvature="0" />
	<path style="fill:none;stroke:red;stroke-width:1px;stroke-linecap:butt;stroke-linejoin:miter;stroke-opacity:1" d="M 545.091,260.399 559.237,248.021 z" id="boundary" inkscape:connector-curvature="0" />
	<path style="fill:none;stroke:red;stroke-width:1px;stroke-linecap:butt;stroke-linejoin:miter;stroke-opacity:1" d="M 559.237,248.021 561.005,223.266 z" id="boundary" inkscape:connector-curvature="0" />
	<path style="fill:none;stroke:red;stroke-width:1px;stroke-linecap:butt;stroke-linejoin:miter;stroke-opacity:1" d="M 561.005,223.266 545.091,214.424 z" id="boundary" inkscape:connector-curvature="0" />
	<path style="fill:none;stroke:red;stroke-width:1px;stroke-linecap:butt;stroke-linejoin:miter;stroke-opacity:1" d="M 545.091,214.424 529.176,205.583 z" id="boundary" inkscape:connector-curvature="0" />
	<path style="fill:none;stroke:red;stroke-width:1px;stroke-linecap:butt;stroke-linejoin:miter;stroke-opacity:1" d="M 529.176,205.583 513.262,196.742 z" id="boundary" inkscape:connector-curvature="0" />
	<path style="fill:none;stroke:red;stroke-width:1px;stroke-linecap:butt;stroke-linejoin:miter;stroke-opacity:1" d="M 513.262,196.742 495.579,194.973 z" id="boundary" inkscape:connector-curvature="0" />
	<path style="fill:none;stroke:red;stroke-width:1px;stroke-linecap:butt;stroke-linejoin:miter;stroke-opacity:1" d="M 495.579,194.973 477.897,187.9 z" id="boundary" inkscape:connector-curvature="0" />
	<path style="fill:none;stroke:red;stroke-width:1px;stroke-linecap:butt;stroke-linejoin:miter;stroke-opacity:1" d="M 477.897,187.9 465.519,173.754 z" id="boundary" inkscape:connector-curvature="0" />
	<path style="fill:none;stroke:red;stroke-width:1px;stroke-linecap:butt;stroke-linejoin:miter;stroke-opacity:1" d="M 465.519,173.754 447.836,170.217 z" id="boundary" inkscape:connector-curvature="0" />
	<path style="fill:none;stroke:red;stroke-width:1px;stroke-linecap:butt;stroke-linejoin:miter;stroke-opacity:1" d="M 447.836,170.217 430.153,164.913 z" id="boundary" inkscape:connector-curvature="0" />
	<path style="fill:none;stroke:red;stroke-width:1px;stroke-linecap:butt;stroke-linejoin:miter;stroke-opacity:1" d="M 430.153,164.913 412.471,161.376 z" id="boundary" inkscape:connector-curvature="0" />
	<path style="fill:none;stroke:red;stroke-width:1px;stroke-linecap:butt;stroke-linejoin:miter;stroke-opacity:1" d="M 412.471,161.376 398.324,150.766 z" id="boundary" inkscape:connector-curvature="0" />
	<path style="fill:none;stroke:red;stroke-width:1px;stroke-linecap:butt;stroke-linejoin:miter;stroke-opacity:1" d="M 398.324,150.766 380.642,143.693 z" id="boundary" inkscape:connector-curvature="0" />
	<path style="fill:none;stroke:red;stroke-width:1px;stroke-linecap:butt;stroke-linejoin:miter;stroke-opacity:1" d="M 380.642,143.693 373.569,126.011 z" id="boundary" inkscape:connector-curvature="0" />
	<path style="fill:none;stroke:red;stroke-width:1px;stroke-linecap:butt;stroke-linejoin:miter;stroke-opacity:1" d="M 373.569,126.011 359.422,113.633 z" id="boundary" inkscape:connector-curvature="0" />
	<path style="fill:none;stroke:red;stroke-width:1px;stroke-linecap:butt;stroke-linejoin:miter;stroke-opacity:1" d="M 359.422,113.633 348.813,99.4866 z" id="boundary" inkscape:connector-curvature="0" />
	<path style="fill:none;stroke:red;stroke-width:1px;stroke-linecap:butt;stroke-linejoin:miter;stroke-opacity:1" d="M 348.813,99.4866 339.971,83.5722 z" id="boundary" inkscape:connector-curvature="0" />
	<path style="fill:none;stroke:red;stroke-width:1px;stroke-linecap:butt;stroke-linejoin:miter;stroke-opacity:1" d="M 339.971,83.5722 331.13,67.6578 z" id="boundary" inkscape:connector-curvature="0" />
	<path style="fill:none;stroke:red;stroke-width:1px;stroke-linecap:butt;stroke-linejoin:miter;stroke-opacity:1" d="M 331.13,67.6578 331.13,49.975 z" id="boundary" inkscape:connector-curvature="0" />
	<path style="fill:none;stroke:red;stroke-width:1px;stroke-linecap:butt;stroke-linejoin:miter;stroke-opacity:1" d="M 331.13,49.975 331.13,32.2923 z" id="boundary" inkscape:connector-curvature="0" />
	<path style="fill:none;stroke:red;stroke-width:1px;stroke-linecap:butt;stroke-linejoin:miter;stroke-opacity:1" d="M 331.13,32.2923 345.276,18.1462 z" id="boundary" inkscape:connector-curvature="0" />
	<path style="fill:none;stroke:red;stroke-width:1px;stroke-linecap:butt;stroke-linejoin:miter;stroke-opacity:1" d="M 345.276,18.1462 359.422,4 z" id="boundary" inkscape:connector-curvature="0" />
	<path style="fill:none;stroke:red;stroke-width:1px;stroke-linecap:butt;stroke-linejoin:miter;stroke-opacity:1" d="M 359.422,4 377.105,9.30481 z" id="boundary" inkscape:connector-curvature="0" />
	<path style="fill:none;stroke:red;stroke-width:1px;stroke-linecap:butt;stroke-linejoin:miter;stroke-opacity:1" d="M 377.105,9.30481 391.251,19.9144 z" id="boundary" inkscape:connector-curvature="0" />
	<path style="fill:none;stroke:red;stroke-width:1px;stroke-linecap:butt;stroke-linejoin:miter;stroke-opacity:1" d="M 391.251,19.9144 403.629,34.0606 z" id="boundary" inkscape:connector-curvature="0" />
	<path style="fill:none;stroke:red;stroke-width:1px;stroke-linecap:butt;stroke-linejoin:miter;stroke-opacity:1" d="M 403.629,34.0606 417.775,46.4385 z" id="boundary" inkscape:connector-curvature="0" />
	<path style="fill:none;stroke:red;stroke-width:1px;stroke-linecap:butt;stroke-linejoin:miter;stroke-opacity:1" d="M 417.775,46.4385 435.458,53.5116 z" id="boundary" inkscape:connector-curvature="0" />
	<path style="fill:none;stroke:red;stroke-width:1px;stroke-linecap:butt;stroke-linejoin:miter;stroke-opacity:1" d="M 435.458,53.5116 451.373,62.3529 z" id="boundary" inkscape:connector-curvature="0" />
	<path style="fill:none;stroke:red;stroke-width:1px;stroke-linecap:butt;stroke-linejoin:miter;stroke-opacity:1" d="M 451.373,62.3529 469.055,62.3529 z" id="boundary" inkscape:connector-curvature="0" />
	<path style="fill:none;stroke:red;stroke-width:1px;stroke-linecap:butt;stroke-linejoin:miter;stroke-opacity:1" d="M 469.055,62.3529 486.738,62.3529 z" id="boundary" inkscape:connector-curvature="0" />
	<path style="fill:none;stroke:red;stroke-width:1px;stroke-linecap:butt;stroke-linejoin:miter;stroke-opacity:1" d="M 486.738,62.3529 502.652,71.1943 z" id="boundary" inkscape:connector-curvature="0" />
	<path style="fill:none;stroke:red;stroke-width:1px;stroke-linecap:butt;stroke-linejoin:miter;stroke-opacity:1" d="M 502.652,71.1943 518.567,80.0357 z" id="boundary" inkscape:connector-curvature="0" />
	<path style="fill:none;stroke:red;stroke-width:1px;stroke-linecap:butt;stroke-linejoin:miter;stroke-opacity:1" d="M 518.567,80.0357 534.481,88.877 z" id="boundary" inkscape:connector-curvature="0" />
	<path style="fill:none;stroke:red;stroke-width:1px;stroke-linecap:butt;stroke-linejoin:miter;stroke-opacity:1" d="M 534.481,88.877 550.396,97.7184 z" id="boundary" inkscape:connector-curvature="0" />
	<path style="fill:none;stroke:red;stroke-width:1px;stroke-linecap:butt;stroke-linejoin:miter;stroke-opacity:1" d="M 550.396,97.7184 568.078,99.4866 z" id="boundary" inkscape:connector-curvature="0" />
	<path style="fill:none;stroke:red;stroke-width:1px;stroke-linecap:butt;stroke-linejoin:miter;stroke-opacity:1" d="M 568.078,99.4866 585.761,106.56 z" id="boundary" inkscape:connector-curvature="0" />
	<path style="fill:none;stroke:red;stroke-width:1px;stroke-linecap:butt;stroke-linejoin:miter;stroke-opacity:1" d="M 585.761,106.56 603.444,108.328 z" id="boundary" inkscape:connector-curvature="0" />
	<path style="fill:none;stroke:red;stroke-width:1px;stroke-linecap:butt;stroke-linejoin:miter;stroke-opacity:1" d="M 603.444,108.328 621.127,115.401 z" id="boundary" inkscape:connector-curvature="0" />
	<path style="fill:none;stroke:red;stroke-width:1px;stroke-linecap:butt;stroke-linejoin:miter;stroke-opacity:1" d="M 621.127,115.401 638.809,117.169 z" id="boundary" inkscape:connector-curvature="0" />
	<path style="fill:none;stroke:red;stroke-width:1px;stroke-linecap:butt;stroke-linejoin:miter;stroke-opacity:1" d="M 638.809,117.169 654.724,126.011 z" id="boundary" inkscape:connector-curvature="0" />
	<path style="fill:none;stroke:red;stroke-width:1px;stroke-linecap:butt;stroke-linejoin:miter;stroke-opacity:1" d="M 654.724,126.011 672.406,133.084 z" id="boundary" inkscape:connector-curvature="0" />
	<path style="fill:none;stroke:red;stroke-width:1px;stroke-linecap:butt;stroke-linejoin:miter;stroke-opacity:1" d="M 672.406,133.084 688.321,141.925 z" id="boundary" inkscape:connector-curvature="0" />
	<path style="fill:none;stroke:red;stroke-width:1px;stroke-linecap:butt;stroke-linejoin:miter;stroke-opacity:1" d="M 688.321,141.925 704.235,150.766 z" id="boundary" inkscape:connector-curvature="0" />
	<path style="fill:none;stroke:red;stroke-width:1px;stroke-linecap:butt;stroke-linejoin:miter;stroke-opacity:1" d="M 704.235,150.766 718.381,161.376 z" id="boundary" inkscape:connector-curvature="0" />
	<path style="fill:none;stroke:red;stroke-width:1px;stroke-linecap:butt;stroke-linejoin:miter;stroke-opacity:1" d="M 718.381,161.376 734.296,170.217 z" id="boundary" inkscape:connector-curvature="0" />
	<path style="fill:none;stroke:red;stroke-width:1px;stroke-linecap:butt;stroke-linejoin:miter;stroke-opacity:1" d="M 734.296,170.217 748.442,182.595 z" id="boundary" inkscape:connector-curvature="0" />
	<path style="fill:none;stroke:red;stroke-width:1px;stroke-linecap:butt;stroke-linejoin:miter;stroke-opacity:1" d="M 748.442,182.595 766.125,186.132 z" id="boundary" inkscape:connector-curvature="0" />
	<path style="fill:none;stroke:red;stroke-width:1px;stroke-linecap:butt;stroke-linejoin:miter;stroke-opacity:1" d="M 766.125,186.132 780.271,196.742 z" id="boundary" inkscape:connector-curvature="0" />
	<path style="fill:none;stroke:red;stroke-width:1px;stroke-linecap:butt;stroke-linejoin:miter;stroke-opacity:1" d="M 780.271,196.742 796.185,205.583 z" id="boundary" inkscape:connector-curvature="0" />
	<path style="fill:none;stroke:red;stroke-width:1px;stroke-linecap:butt;stroke-linejoin:miter;stroke-opacity:1" d="M 796.185,205.583 810.332,217.961 z" id="boundary" inkscape:connector-curvature="0" />
	<path style="fill:none;stroke:red;stroke-width:1px;stroke-linecap:butt;stroke-linejoin:miter;stroke-opacity:1" d="M 810.332,217.961 826.246,226.802 z" id="boundary" inkscape:connector-curvature="0" />
	<path style="fill:none;stroke:red;stroke-width:1px;stroke-linecap:butt;stroke-linejoin:miter;stroke-opacity:1" d="M 826.246,226.802 840.392,239.18 z" id="boundary" inkscape:connector-curvature="0" />
	<path style="fill:none;stroke:red;stroke-width:1px;stroke-linecap:butt;stroke-linejoin:miter;stroke-opacity:1" d="M 840.392,239.18 856.307,248.021 z" id="boundary" inkscape:connector-curvature="0" />
	<path style="fill:none;stroke:red;stroke-width:1px;stroke-linecap:butt;stroke-linejoin:miter;stroke-opacity:1" d="M 856.307,248.021 873.989,248.021 z" id="boundary" inkscape:connector-curvature="0" />
	<path style="fill:none;stroke:red;stroke-width:1px;stroke-linecap:butt;stroke-linejoin:miter;stroke-opacity:1" d="M 873.989,248.021 889.904,256.863 z" id="boundary" inkscape:connector-curvature="0" />
	<path style="fill:none;stroke:red;stroke-width:1px;stroke-linecap:butt;stroke-linejoin:miter;stroke-opacity:1" d="M 889.904,256.863 905.818,265.704 z" id="boundary" inkscape:connector-curvature="0" />
	<path style="fill:none;stroke:red;stroke-width:1px;stroke-linecap:butt;stroke-linejoin:miter;stroke-opacity:1" d="M 905.818,265.704 923.501,265.704 z" id="boundary" inkscape:connector-curvature="0" />
	<path style="fill:none;stroke:red;stroke-width:1px;stroke-linecap:butt;stroke-linejoin:miter;stroke-opacity:1" d="M 923.501,265.704 941.184,265.704 z" id="boundary" inkscape:connector-curvature="0" />
	<path style="fill:none;stroke:red;stroke-width:1px;stroke-linecap:butt;stroke-linejoin:miter;stroke-opacity:1" d="M 941.184,265.704 958.866,265.704 z" id="boundary" inkscape:connector-curvature="0" />
	<path style="fill:none;stroke:red;stroke-width:1px;stroke-linecap:butt;stroke-linejoin:miter;stroke-opacity:1" d="M 958.866,265.704 974.781,256.863 z" id="boundary" inkscape:connector-curvature="0" />
	<path style="fill:none;stroke:red;stroke-width:1px;stroke-linecap:butt;stroke-linejoin:miter;stroke-opacity:1" d="M 974.781,256.863 990.695,265.704 z" id="boundary" inkscape:connector-curvature="0" />
	<path style="fill:none;stroke:red;stroke-width:1px;stroke-linecap:butt;stroke-linejoin:miter;stroke-opacity:1" d="M 990.695,265.704 996,283.387 z" id="boundary" inkscape:connector-curvature="0" />
	<path style="fill:none;stroke:red;stroke-width:1px;stroke-linecap:butt;stroke-linejoin:miter;stroke-opacity:1" d="M 996,283.387 996,301.07 z" id="boundary" inkscape:connector-curvature="0" />
	<path style="fill:none;stroke:red;stroke-width:1px;stroke-linecap:butt;stroke-linejoin:miter;stroke-opacity:1" d="M 996,301.07 996,318.752 z" id="boundary" inkscape:connector-curvature="0" />
	<path style="fill:none;stroke:red;stroke-width:1px;stroke-linecap:butt;stroke-linejoin:miter;stroke-opacity:1" d="M 996,318.752 996,336.435 z" id="boundary" inkscape:connector-curvature="0" />
	<path style="fill:none;stroke:red;stroke-width:1px;stroke-linecap:butt;stroke-linejoin:miter;stroke-opacity:1" d="M 996,336.435 996,354.118 z" id="boundary" inkscape:connector-curvature="0" />
	<path style="fill:none;stroke:red;stroke-width:1px;stroke-linecap:butt;stroke-linejoin:miter;stroke-opacity:1" d="M 996,354.118 996,371.8 z" id="boundary" inkscape:connector-curvature="0" />
	<path style="fill:none;stroke:red;stroke-width:1px;stroke-linecap:butt;stroke-linejoin:miter;stroke-opacity:1" d="M 996,371.8 996,389.483 z" id="boundary" inkscape:connector-curvature="0" />
	<path style="fill:none;stroke:red;stroke-width:1px;stroke-linecap:butt;stroke-linejoin:miter;stroke-opacity:1" d="M 996,389.483 996,407.166 z" id="boundary" inkscape:connector-curvature="0" />
	<path style="fill:none;stroke:red;stroke-width:1px;stroke-linecap:butt;stroke-linejoin:miter;stroke-opacity:1" d="M 996,407.166 996,424.848 z" id="boundary" inkscape:connector-curvature="0" />
	<path style="fill:none;stroke:red;stroke-width:1px;stroke-linecap:butt;stroke-linejoin:miter;stroke-opacity:1" d="M 996,424.848 996,442.531 z" id="boundary" inkscape:connector-curvature="0" />
	<path style="fill:none;stroke:red;stroke-width:1px;stroke-linecap:butt;stroke-linejoin:miter;stroke-opacity:1" d="M 996,442.531 996,460.214 z" id="boundary" inkscape:connector-curvature="0" />
	<path style="fill:none;stroke:red;stroke-width:1px;stroke-linecap:butt;stroke-linejoin:miter;stroke-opacity:1" d="M 996,460.214 996,477.897 z" id="boundary" inkscape:connector-curvature="0" />
	<path style="fill:none;stroke:red;stroke-width:1px;stroke-linecap:butt;stroke-linejoin:miter;stroke-opacity:1" d="M 996,477.897 996,495.579 z" id="boundary" inkscape:connector-curvature="0" />
	<path style="fill:none;stroke:red;stroke-width:1px;stroke-linecap:butt;stroke-linejoin:miter;stroke-opacity:1" d="M 996,495.579 996,513.262 z" id="boundary" inkscape:connector-curvature="0" />
	<path style="fill:none;stroke:red;stroke-width:1px;stroke-linecap:butt;stroke-linejoin:miter;stroke-opacity:1" d="M 996,513.262 996,530.945 z" id="boundary" inkscape:connector-curvature="0" />
	<path style="fill:none;stroke:red;stroke-width:1px;stroke-linecap:butt;stroke-linejoin:miter;stroke-opacity:1" d="M 996,530.945 996,548.627 z" id="boundary" inkscape:connector-curvature="0" />
	<path style="fill:none;stroke:red;stroke-width:1px;stroke-linecap:butt;stroke-linejoin:miter;stroke-opacity:1" d="M 996,548.627 996,566.31 z" id="boundary" inkscape:connector-curvature="0" />
	<circle cx="4" cy="368.264" r="4" fill="#0" id="circle0"/>
	<circle cx="12.8414" cy="350.581" r="4" fill="#0" id="circle1"/>
	<circle cx="12.8414" cy="384.178" r="4" fill="#0" id="circle2"/>
	<circle cx="21.6827" cy="400.093" r="4" fill="#0" id="circle3"/>
	<circle cx="26.9875" cy="336.435" r="4" fill="#0" id="circle4"/>
	<circle cx="30.5241" cy="580.456" r="4" fill="#0" id="circle5"/>
	<circle cx="30.5241" cy="598.139" r="4" fill="#0" id="circle6"/>
	<circle cx="30.5241" cy="615.822" r="4" fill="#0" id="circle7"/>
	<circle cx="37.5971" cy="408.934" r="4" fill="#0" id="circle8"/>
	<circle cx="39.3654" cy="631.736" r="4" fill="#0" id="circle9"/>
	<circle cx="42.902" cy="327.594" r="4" fill="#0" id="circle10"/>
	<circle cx="44.6702" cy="566.31" r="4" fill="#0" id="circle11"/>
	<circle cx="51.7433" cy="645.882" r="4" fill="#0" id="circle12"/>
	<circle cx="53.5116" cy="417.775" r="4" fill="#0" id="circle13"/>
	<circle cx="58.8164" cy="318.752" r="4" fill="#0" id="circle14"/>
	<circle cx="60.5847" cy="557.469" r="4" fill="#0" id="circle15"/>
	<circle cx="69.426" cy="647.651" r="4" fill="#0" id="circle16"/>
	<circle cx="71.1943" cy="417.775" r="4" fill="#0" id="circle17"/>
	<circle cx="76.4991" cy="318.752" r="4" fill="#0" id="circle18"/>
	<circle cx="78.2674" cy="550.396" r="4" fill="#0" id="circle19"/>
	<circle cx="87.1087" cy="647.651" r="4" fill="#0" id="circle20"/>
	<circle cx="88.877" cy="417.775" r="4" fill="#0" id="circle21"/>
	<circle cx="94.1818" cy="318.752" r="4" fill="#0" id="circle22"/>
	<circle cx="95.9501" cy="548.627" r="4" fill="#0" id="circle23"/>
	<circle cx="104.791" cy="647.651" r="4" fill="#0" id="circle24"/>
	<circle cx="106.56" cy="417.775" r="4" fill="#0" id="circle25"/>
	<circle cx="111.865" cy="318.752" r="4" fill="#0" id="circle26"/>
	<circle cx="111.865" cy="539.786" r="4" fill="#0" id="circle27"/>
	<circle cx="120.706" cy="638.809" r="4" fill="#0" id="circle28"/>
	<circle cx="124.242" cy="417.775" r="4" fill="#0" id="circle29"/>
	<circle cx="129.547" cy="313.447" r="4" fill="#0" id="circle30"/>
	<circle cx="129.547" cy="534.481" r="4" fill="#0" id="circle31"/>
	<circle cx="138.389" cy="638.809" r="4" fill="#0" id="circle32"/>
	<circle cx="141.925" cy="417.775" r="4" fill="#0" id="circle33"/>
	<circle cx="147.23" cy="309.911" r="4" fill="#0" id="circle34"/>
	<circle cx="147.23" cy="530.945" r="4" fill="#0" id="circle35"/>
	<circle cx="154.303" cy="629.968" r="4" fill="#0" id="circle36"/>
	<circle cx="159.608" cy="417.775" r="4" fill="#0" id="circle37"/>
	<circle cx="164.913" cy="309.911" r="4" fill="#0" id="circle38"/>
	<circle cx="164.913" cy="525.64" r="4" fill="#0" id="circle39"/>
	<circle cx="171.986" cy="624.663" r="4" fill="#0" id="circle40"/>
	<circle cx="177.291" cy="417.775" r="4" fill="#0" id="circle41"/>
	<circle cx="182.595" cy="309.911" r="4" fill="#0" id="circle42"/>
	<circle cx="182.595" cy="522.103" r="4" fill="#0" id="circle43"/>
	<circle cx="189.668" cy="621.127" r="4" fill="#0" id="circle44"/>
	<circle cx="194.973" cy="417.775" r="4" fill="#0" id="circle45"/>
	<circle cx="198.51" cy="513.262" r="4" fill="#0" id="circle46"/>
	<circle cx="200.278" cy="309.911" r="4" fill="#0" id="circle47"/>
	<circle cx="207.351" cy="621.127" r="4" fill="#0" id="circle48"/>
	<circle cx="212.656" cy="417.775" r="4" fill="#0" id="circle49"/>
	<circle cx="214.424" cy="504.421" r="4" fill="#0" id="circle50"/>
	<circle cx="216.193" cy="301.07" r="4" fill="#0" id="circle51"/>
	<circle cx="223.266" cy="612.285" r="4" fill="#0" id="circle52"/>
	<circle cx="230.339" cy="417.775" r="4" fill="#0" id="circle53"/>
	<circle cx="232.107" cy="504.421" r="4" fill="#0" id="circle54"/>
	<circle cx="233.875" cy="301.07" r="4" fill="#0" id="circle55"/>
	<circle cx="240.948" cy="612.285" r="4" fill="#0" id="circle56"/>
	<circle cx="248.021" cy="417.775" r="4" fill="#0" id="circle57"/>
	<circle cx="248.021" cy="495.579" r="4" fill="#0" id="circle58"/>
	<circle cx="251.558" cy="301.07" r="4" fill="#0" id="circle59"/>
	<circle cx="258.631" cy="612.285" r="4" fill="#0" id="circle60"/>
	<circle cx="265.704" cy="417.775" r="4" fill="#0" id="circle61"/>
	<circle cx="265.704" cy="486.738" r="4" fill="#0" id="circle62"/>
	<circle cx="269.241" cy="301.07" r="4" fill="#0" id="circle63"/>
	<circle cx="276.314" cy="612.285" r="4" fill="#0" id="circle64"/>
	<circle cx="278.082" cy="819.173" r="4" fill="#0" id="circle65"/>
	<circle cx="278.082" cy="836.856" r="4" fill="#0" id="circle66"/>
	<circle cx="278.082" cy="854.538" r="4" fill="#0" id="circle67"/>
	<circle cx="283.387" cy="424.848" r="4" fill="#0" id="circle68"/>
	<circle cx="283.387" cy="486.738" r="4" fill="#0" id="circle69"/>
	<circle cx="286.923" cy="301.07" r="4" fill="#0" id="circle70"/>
	<circle cx="292.228" cy="805.027" r="4" fill="#0" id="circle71"/>
	<circle cx="292.228" cy="866.916" r="4" fill="#0" id="circle72"/>
	<circle cx="293.996" cy="608.749" r="4" fill="#0" id="circle73"/>
	<circle cx="299.301" cy="477.897" r="4" fill="#0" id="circle74"/>
	<circle cx="301.07" cy="426.617" r="4" fill="#0" id="circle75"/>
	<circle cx="304.606" cy="301.07" r="4" fill="#0" id="circle76"/>
	<circle cx="306.374" cy="790.881" r="4" fill="#0" id="circle77"/>
	<circle cx="308.143" cy="875.758" r="4" fill="#0" id="circle78"/>
	<circle cx="311.679" cy="603.444" r="4" fill="#0" id="circle79"/>
	<circle cx="316.984" cy="470.824" r="4" fill="#0" id="circle80"/>
	<circle cx="318.752" cy="426.617" r="4" fill="#0" id="circle81"/>
	<circle cx="320.52" cy="778.503" r="4" fill="#0" id="circle82"/>
	<circle cx="322.289" cy="301.07" r="4" fill="#0" id="circle83"/>
	<circle cx="325.825" cy="877.526" r="4" fill="#0" id="circle84"/>
	<circle cx="329.362" cy="603.444" r="4" fill="#0" id="circle85"/>
	<circle cx="331.13" cy="32.2923" r="4" fill="#0" id="circle86"/>
	<circle cx="331.13" cy="49.975" r="4" fill="#0" id="circle87"/>
	<circle cx="331.13" cy="67.6578" r="4" fill="#0" id="circle88"/>
	<circle cx="334.667" cy="469.055" r="4" fill="#0" id="circle89"/>
	<circle cx="336.435" cy="426.617" r="4" fill="#0" id="circle90"/>
	<circle cx="336.435" cy="769.661" r="4" fill="#0" id="circle91"/>
	<circle cx="339.971" cy="83.5722" r="4" fill="#0" id="circle92"/>
	<circle cx="339.971" cy="301.07" r="4" fill="#0" id="circle93"/>
	<circle cx="341.74" cy="868.684" r="4" fill="#0" id="circle94"/>
	<circle cx="345.276" cy="18.1462" r="4" fill="#0" id="circle95"/>
	<circle cx="345.276" cy="594.602" r="4" fill="#0" id="circle96"/>
	<circle cx="348.813" cy="99.4866" r="4" fill="#0" id="circle97"/>
	<circle cx="352.349" cy="461.982" r="4" fill="#0" id="circle98"/>
	<circle cx="354.118" cy="426.617" r="4" fill="#0" id="circle99"/>
	<circle cx="354.118" cy="760.82" r="4" fill="#0" id="circle100"/>
	<circle cx="357.654" cy="295.765" r="4" fill="#0" id="circle101"/>
	<circle cx="359.422" cy="4" r="4" fill="#0" id="circle102"/>
	<circle cx="359.422" cy="113.633" r="4" fill="#0" id="circle103"/>
	<circle cx="359.422" cy="859.843" r="4" fill="#0" id="circle104"/>
	<circle cx="362.959" cy="592.834" r="4" fill="#0" id="circle105"/>
	<circle cx="370.032" cy="460.214" r="4" fill="#0" id="circle106"/>
	<circle cx="371.8" cy="426.617" r="4" fill="#0" id="circle107"/>
	<circle cx="371.8" cy="760.82" r="4" fill="#0" id="circle108"/>
	<circle cx="373.569" cy="126.011" r="4" fill="#0" id="circle109"/>
	<circle cx="375.337" cy="292.228" r="4" fill="#0" id="circle110"/>
	<circle cx="377.105" cy="9.30481" r="4" fill="#0" id="circle111"/>
	<circle cx="377.105" cy="859.843" r="4" fill="#0" id="circle112"/>
	<circle cx="380.642" cy="143.693" r="4" fill="#0" id="circle113"/>
	<circle cx="380.642" cy="585.761" r="4" fill="#0" id="circle114"/>
	<circle cx="387.715" cy="460.214" r="4" fill="#0" id="circle115"/>
	<circle cx="387.715" cy="751.979" r="4" fill="#0" id="circle116"/>
	<circle cx="389.483" cy="433.69" r="4" fill="#0" id="circle117"/>
	<circle cx="391.251" cy="19.9144" r="4" fill="#0" id="circle118"/>
	<circle cx="393.02" cy="292.228" r="4" fill="#0" id="circle119"/>
	<circle cx="393.02" cy="851.002" r="4" fill="#0" id="circle120"/>
	<circle cx="398.324" cy="150.766" r="4" fill="#0" id="circle121"/>
	<circle cx="398.324" cy="583.993" r="4" fill="#0" id="circle122"/>
	<circle cx="401.861" cy="447.836" r="4" fill="#0" id="circle123"/>
	<circle cx="403.629" cy="34.0606" r="4" fill="#0" id="circle124"/>
	<circle cx="403.629" cy="743.137" r="4" fill="#0" id="circle125"/>
	<circle cx="408.934" cy="842.16" r="4" fill="#0" id="circle126"/>
	<circle cx="410.702" cy="292.228" r="4" fill="#0" id="circle127"/>
	<circle cx="412.471" cy="161.376" r="4" fill="#0" id="circle128"/>
	<circle cx="416.007" cy="576.92" r="4" fill="#0" id="circle129"/>
	<circle cx="417.775" cy="46.4385" r="4" fill="#0" id="circle130"/>
	<circle cx="419.544" cy="633.504" r="4" fill="#0" id="circle131"/>
	<circle cx="421.312" cy="737.832" r="4" fill="#0" id="circle132"/>
	<circle cx="424.848" cy="833.319" r="4" fill="#0" id="circle133"/>
	<circle cx="428.385" cy="292.228" r="4" fill="#0" id="circle134"/>
	<circle cx="428.385" cy="606.98" r="4" fill="#0" id="circle135"/>
	<circle cx="428.385" cy="649.419" r="4" fill="#0" id="circle136"/>
	<circle cx="430.153" cy="164.913" r="4" fill="#0" id="circle137"/>
	<circle cx="433.69" cy="576.92" r="4" fill="#0" id="circle138"/>
	<circle cx="435.458" cy="53.5116" r="4" fill="#0" id="circle139"/>
	<circle cx="437.226" cy="665.333" r="4" fill="#0" id="circle140"/>
	<circle cx="438.995" cy="728.991" r="4" fill="#0" id="circle141"/>
	<circle cx="440.763" cy="824.478" r="4" fill="#0" id="circle142"/>
	<circle cx="446.068" cy="292.228" r="4" fill="#0" id="circle143"/>
	<circle cx="447.836" cy="170.217" r="4" fill="#0" id="circle144"/>
	<circle cx="447.836" cy="679.48" r="4" fill="#0" id="circle145"/>
	<circle cx="451.373" cy="62.3529" r="4" fill="#0" id="circle146"/>
	<circle cx="456.677" cy="720.15" r="4" fill="#0" id="circle147"/>
	<circle cx="458.446" cy="824.478" r="4" fill="#0" id="circle148"/>
	<circle cx="461.982" cy="691.857" r="4" fill="#0" id="circle149"/>
	<circle cx="463.75" cy="288.692" r="4" fill="#0" id="circle150"/>
	<circle cx="465.519" cy="173.754" r="4" fill="#0" id="circle151"/>
	<circle cx="469.055" cy="62.3529" r="4" fill="#0" id="circle152"/>
	<circle cx="474.36" cy="711.308" r="4" fill="#0" id="circle153"/>
	<circle cx="474.36" cy="815.636" r="4" fill="#0" id="circle154"/>
	<circle cx="477.897" cy="187.9" r="4" fill="#0" id="circle155"/>
	<circle cx="481.433" cy="283.387" r="4" fill="#0" id="circle156"/>
	<circle cx="486.738" cy="62.3529" r="4" fill="#0" id="circle157"/>
	<circle cx="488.506" cy="700.699" r="4" fill="#0" id="circle158"/>
	<circle cx="492.043" cy="806.795" r="4" fill="#0" id="circle159"/>
	<circle cx="495.579" cy="194.973" r="4" fill="#0" id="circle160"/>
	<circle cx="499.116" cy="283.387" r="4" fill="#0" id="circle161"/>
	<circle cx="502.652" cy="71.1943" r="4" fill="#0" id="circle162"/>
	<circle cx="509.725" cy="797.954" r="4" fill="#0" id="circle163"/>
	<circle cx="513.262" cy="196.742" r="4" fill="#0" id="circle164"/>
	<circle cx="515.03" cy="274.545" r="4" fill="#0" id="circle165"/>
	<circle cx="518.567" cy="80.0357" r="4" fill="#0" id="circle166"/>
	<circle cx="527.408" cy="797.954" r="4" fill="#0" id="circle167"/>
	<circle cx="529.176" cy="205.583" r="4" fill="#0" id="circle168"/>
	<circle cx="532.713" cy="274.545" r="4" fill="#0" id="circle169"/>
	<circle cx="534.481" cy="88.877" r="4" fill="#0" id="circle170"/>
	<circle cx="543.323" cy="789.112" r="4" fill="#0" id="circle171"/>
	<circle cx="545.091" cy="214.424" r="4" fill="#0" id="circle172"/>
	<circle cx="545.091" cy="260.399" r="4" fill="#0" id="circle173"/>
	<circle cx="550.396" cy="97.7184" r="4" fill="#0" id="circle174"/>
	<circle cx="559.237" cy="248.021" r="4" fill="#0" id="circle175"/>
	<circle cx="559.237" cy="780.271" r="4" fill="#0" id="circle176"/>
	<circle cx="561.005" cy="223.266" r="4" fill="#0" id="circle177"/>
	<circle cx="568.078" cy="99.4866" r="4" fill="#0" id="circle178"/>
	<circle cx="576.92" cy="780.271" r="4" fill="#0" id="circle179"/>
	<circle cx="585.761" cy="106.56" r="4" fill="#0" id="circle180"/>
	<circle cx="592.834" cy="771.43" r="4" fill="#0" id="circle181"/>
	<circle cx="603.444" cy="108.328" r="4" fill="#0" id="circle182"/>
	<circle cx="610.517" cy="769.661" r="4" fill="#0" id="circle183"/>
	<circle cx="621.127" cy="115.401" r="4" fill="#0" id="circle184"/>
	<circle cx="628.2" cy="762.588" r="4" fill="#0" id="circle185"/>
	<circle cx="638.809" cy="117.169" r="4" fill="#0" id="circle186"/>
	<circle cx="644.114" cy="753.747" r="4" fill="#0" id="circle187"/>
	<circle cx="654.724" cy="126.011" r="4" fill="#0" id="circle188"/>
	<circle cx="661.797" cy="753.747" r="4" fill="#0" id="circle189"/>
	<circle cx="672.406" cy="133.084" r="4" fill="#0" id="circle190"/>
	<circle cx="677.711" cy="744.906" r="4" fill="#0" id="circle191"/>
	<circle cx="688.321" cy="141.925" r="4" fill="#0" id="circle192"/>
	<circle cx="695.394" cy="736.064" r="4" fill="#0" id="circle193"/>
	<circle cx="704.235" cy="150.766" r="4" fill="#0" id="circle194"/>
	<circle cx="713.077" cy="736.064" r="4" fill="#0" id="circle195"/>
	<circle cx="718.381" cy="161.376" r="4" fill="#0" id="circle196"/>
	<circle cx="728.991" cy="727.223" r="4" fill="#0" id="circle197"/>
	<circle cx="734.296" cy="170.217" r="4" fill="#0" id="circle198"/>
	<circle cx="746.674" cy="727.223" r="4" fill="#0" id="circle199"/>
	<circle cx="748.442" cy="182.595" r="4" fill="#0" id="circle200"/>
	<circle cx="762.588" cy="718.381" r="4" fill="#0" id="circle201"/>
	<circle cx="766.125" cy="186.132" r="4" fill="#0" id="circle202"/>
	<circle cx="780.271" cy="196.742" r="4" fill="#0" id="circle203"/>
	<circle cx="780.271" cy="714.845" r="4" fill="#0" id="circle204"/>
	<circle cx="796.185" cy="205.583" r="4" fill="#0" id="circle205"/>
	<circle cx="797.954" cy="706.004" r="4" fill="#0" id="circle206"/>
	<circle cx="810.332" cy="217.961" r="4" fill="#0" id="circle207"/>
	<circle cx="815.636" cy="700.699" r="4" fill="#0" id="circle208"/>
	<circle cx="826.246" cy="226.802" r="4" fill="#0" id="circle209"/>
	<circle cx="831.551" cy="691.857" r="4" fill="#0" id="circle210"/>
	<circle cx="840.392" cy="239.18" r="4" fill="#0" id="circle211"/>
	<circle cx="847.465" cy="683.016" r="4" fill="#0" id="circle212"/>
	<circle cx="856.307" cy="248.021" r="4" fill="#0" id="circle213"/>
	<circle cx="863.38" cy="674.175" r="4" fill="#0" id="circle214"/>
	<circle cx="873.989" cy="248.021" r="4" fill="#0" id="circle215"/>
	<circle cx="881.062" cy="665.333" r="4" fill="#0" id="circle216"/>
	<circle cx="889.904" cy="256.863" r="4" fill="#0" id="circle217"/>
	<circle cx="898.745" cy="656.492" r="4" fill="#0" id="circle218"/>
	<circle cx="905.818" cy="265.704" r="4" fill="#0" id="circle219"/>
	<circle cx="912.891" cy="644.114" r="4" fill="#0" id="circle220"/>
	<circle cx="923.501" cy="265.704" r="4" fill="#0" id="circle221"/>
	<circle cx="925.269" cy="629.968" r="4" fill="#0" id="circle222"/>
	<circle cx="941.184" cy="265.704" r="4" fill="#0" id="circle223"/>
	<circle cx="942.952" cy="621.127" r="4" fill="#0" id="circle224"/>
	<circle cx="958.866" cy="265.704" r="4" fill="#0" id="circle225"/>
	<circle cx="958.866" cy="612.285" r="4" fill="#0" id="circle226"/>
	<circle cx="974.781" cy="256.863" r="4" fill="#0" id="circle227"/>
	<circle cx="976.549" cy="606.98" r="4" fill="#0" id="circle228"/>
	<circle cx="990.695" cy="265.704" r="4" fill="#0" id="circle229"/>
	<circle cx="994.232" cy="598.139" r="4" fill="#0" id="circle230"/>
	<circle cx="996" cy="283.387" r="4" fill="#0" id="circle231"/>
	<circle cx="996" cy="301.07" r="4" fill="#0" id="circle232"/>
	<circle cx="996" cy="318.752" r="4" fill="#0" id="circle233"/>
	<circle cx="996" cy="336.435" r="4" fill="#0" id="circle234"/>
	<circle cx="996" cy="354.118" r="4" fill="#0" id="circle235"/>
	<circle cx="996" cy="371.8" r="4" fill="#0" id="circle236"/>
	<circle cx="996" cy="389.483" r="4" fill="#0" id="circle237"/>
	<circle cx="996" cy="407.166" r="4" fill="#0" id="circle238"/>
	<circle cx="996" cy="424.848" r="4" fill="#0" id="circle239"/>
	<circle cx="996" cy="442.531" r="4" fill="#0" id="circle240"/>
	<circle cx="996" cy="460.214" r="4" fill="#0" id="circle241"/>
	<circle cx="996" cy="477.897" r="4" fill="#0" id="circle242"/>
	<circle cx="996" cy="495.579" r="4" fill="#0" id="circle243"/>
	<circle cx="996" cy="513.262" r="4" fill="#0" id="circle244"/>
	<circle cx="996" cy="530.945" r="4" fill="#0" id="circle245"/>
	<circle cx="996" cy="548.627" r="4" fill="#0" id="circle246"/>
	<circle cx="996" cy="566.31" r="4" fill="#0" id="circle247"/>
	</g>
</svg>