<?xml version="1.0" encoding="UTF-8" standalone="no"?>
<!-- Created with CurveBenchmark -->
<svg
	xmlns:dc="http://purl.org/dc/elements/1.1/"
	xmlns:cc="http://creativecommons.org/ns#"
	xmlns:rdf="http://www.w3.org/1999/02/22-rdf-syntax-ns#"
	xmlns:svg="http://www.w3.org/2000/svg"
	xmlns="http://www.w3.org/2000/svg"
	xmlns:sodipodi="http://sodipodi.sourceforge.net/DTD/sodipodi-0.dtd"
	xmlns:inkscape="http://www.inkscape.org/namespaces/inkscape"
	width="1000"
	height="1000"
	id="svg2"
	version="1.1"
	sodipodi:docname="manifold/connect2d-teddy320.png.txt">
<defs
	id="defs4" />
<metadata
	id="metadata7">
	<rdf:RDF>
		<cc:Work
			rdf:about="">
			<dc:format>image/svg+xml</dc:format>
			<dc:type
				rdf:resource="http://purl.org/dc/dcmitype/StillImage" />
			<dc:title></dc:title>
		</cc:Work>
	</rdf:RDF>
</metadata>
<g
	inkscape:label="Layer 1"
	inkscape:groupmode="layer"
	id="layer1">
	<path style="fill:none;stroke:red;stroke-width:1px;stroke-linecap:butt;stroke-linejoin:miter;stroke-opacity:1" d="M 589.026,187.704 589.026,215.966 z" id="boundary" inkscape:connector-curvature="0" />
	<path style="fill:none;stroke:red;stroke-width:1px;stroke-linecap:butt;stroke-linejoin:miter;stroke-opacity:1" d="M 589.026,215.966 594.678,244.228 z" id="boundary" inkscape:connector-curvature="0" />
	<path style="fill:none;stroke:red;stroke-width:1px;stroke-linecap:butt;stroke-linejoin:miter;stroke-opacity:1" d="M 594.678,244.228 591.852,295.1 z" id="boundary" inkscape:connector-curvature="0" />
	<path style="fill:none;stroke:red;stroke-width:1px;stroke-linecap:butt;stroke-linejoin:miter;stroke-opacity:1" d="M 591.852,295.1 577.721,320.536 z" id="boundary" inkscape:connector-curvature="0" />
	<path style="fill:none;stroke:red;stroke-width:1px;stroke-linecap:butt;stroke-linejoin:miter;stroke-opacity:1" d="M 577.721,320.536 560.764,348.798 z" id="boundary" inkscape:connector-curvature="0" />
	<path style="fill:none;stroke:red;stroke-width:1px;stroke-linecap:butt;stroke-linejoin:miter;stroke-opacity:1" d="M 560.764,348.798 543.806,371.407 z" id="boundary" inkscape:connector-curvature="0" />
	<path style="fill:none;stroke:red;stroke-width:1px;stroke-linecap:butt;stroke-linejoin:miter;stroke-opacity:1" d="M 543.806,371.407 529.675,402.496 z" id="boundary" inkscape:connector-curvature="0" />
	<path style="fill:none;stroke:red;stroke-width:1px;stroke-linecap:butt;stroke-linejoin:miter;stroke-opacity:1" d="M 529.675,402.496 532.501,444.889 z" id="boundary" inkscape:connector-curvature="0" />
	<path style="fill:none;stroke:red;stroke-width:1px;stroke-linecap:butt;stroke-linejoin:miter;stroke-opacity:1" d="M 532.501,444.889 532.501,473.151 z" id="boundary" inkscape:connector-curvature="0" />
	<path style="fill:none;stroke:red;stroke-width:1px;stroke-linecap:butt;stroke-linejoin:miter;stroke-opacity:1" d="M 532.501,473.151 532.501,501.413 z" id="boundary" inkscape:connector-curvature="0" />
	<path style="fill:none;stroke:red;stroke-width:1px;stroke-linecap:butt;stroke-linejoin:miter;stroke-opacity:1" d="M 532.501,501.413 532.501,529.675 z" id="boundary" inkscape:connector-curvature="0" />
	<path style="fill:none;stroke:red;stroke-width:1px;stroke-linecap:butt;stroke-linejoin:miter;stroke-opacity:1" d="M 532.501,529.675 538.154,557.937 z" id="boundary" inkscape:connector-curvature="0" />
	<path style="fill:none;stroke:red;stroke-width:1px;stroke-linecap:butt;stroke-linejoin:miter;stroke-opacity:1" d="M 538.154,557.937 538.154,586.199 z" id="boundary" inkscape:connector-curvature="0" />
	<path style="fill:none;stroke:red;stroke-width:1px;stroke-linecap:butt;stroke-linejoin:miter;stroke-opacity:1" d="M 538.154,586.199 538.154,614.462 z" id="boundary" inkscape:connector-curvature="0" />
	<path style="fill:none;stroke:red;stroke-width:1px;stroke-linecap:butt;stroke-linejoin:miter;stroke-opacity:1" d="M 538.154,614.462 543.806,642.724 z" id="boundary" inkscape:connector-curvature="0" />
	<path style="fill:none;stroke:red;stroke-width:1px;stroke-linecap:butt;stroke-linejoin:miter;stroke-opacity:1" d="M 543.806,642.724 543.806,670.986 z" id="boundary" inkscape:connector-curvature="0" />
	<path style="fill:none;stroke:red;stroke-width:1px;stroke-linecap:butt;stroke-linejoin:miter;stroke-opacity:1" d="M 543.806,670.986 543.806,699.248 z" id="boundary" inkscape:connector-curvature="0" />
	<path style="fill:none;stroke:red;stroke-width:1px;stroke-linecap:butt;stroke-linejoin:miter;stroke-opacity:1" d="M 543.806,699.248 543.806,727.51 z" id="boundary" inkscape:connector-curvature="0" />
	<path style="fill:none;stroke:red;stroke-width:1px;stroke-linecap:butt;stroke-linejoin:miter;stroke-opacity:1" d="M 543.806,727.51 543.806,755.772 z" id="boundary" inkscape:connector-curvature="0" />
	<path style="fill:none;stroke:red;stroke-width:1px;stroke-linecap:butt;stroke-linejoin:miter;stroke-opacity:1" d="M 543.806,755.772 526.849,795.339 z" id="boundary" inkscape:connector-curvature="0" />
	<path style="fill:none;stroke:red;stroke-width:1px;stroke-linecap:butt;stroke-linejoin:miter;stroke-opacity:1" d="M 526.849,795.339 526.849,823.601 z" id="boundary" inkscape:connector-curvature="0" />
	<path style="fill:none;stroke:red;stroke-width:1px;stroke-linecap:butt;stroke-linejoin:miter;stroke-opacity:1" d="M 526.849,823.601 526.849,851.863 z" id="boundary" inkscape:connector-curvature="0" />
	<path style="fill:none;stroke:red;stroke-width:1px;stroke-linecap:butt;stroke-linejoin:miter;stroke-opacity:1" d="M 526.849,851.863 529.675,882.952 z" id="boundary" inkscape:connector-curvature="0" />
	<path style="fill:none;stroke:red;stroke-width:1px;stroke-linecap:butt;stroke-linejoin:miter;stroke-opacity:1" d="M 529.675,882.952 524.023,911.214 z" id="boundary" inkscape:connector-curvature="0" />
	<path style="fill:none;stroke:red;stroke-width:1px;stroke-linecap:butt;stroke-linejoin:miter;stroke-opacity:1" d="M 524.023,911.214 518.37,939.476 z" id="boundary" inkscape:connector-curvature="0" />
	<path style="fill:none;stroke:red;stroke-width:1px;stroke-linecap:butt;stroke-linejoin:miter;stroke-opacity:1" d="M 518.37,939.476 512.718,967.738 z" id="boundary" inkscape:connector-curvature="0" />
	<path style="fill:none;stroke:red;stroke-width:1px;stroke-linecap:butt;stroke-linejoin:miter;stroke-opacity:1" d="M 512.718,967.738 484.456,979.043 z" id="boundary" inkscape:connector-curvature="0" />
	<path style="fill:none;stroke:red;stroke-width:1px;stroke-linecap:butt;stroke-linejoin:miter;stroke-opacity:1" d="M 484.456,979.043 456.194,990.348 z" id="boundary" inkscape:connector-curvature="0" />
	<path style="fill:none;stroke:red;stroke-width:1px;stroke-linecap:butt;stroke-linejoin:miter;stroke-opacity:1" d="M 456.194,990.348 427.932,996 z" id="boundary" inkscape:connector-curvature="0" />
	<path style="fill:none;stroke:red;stroke-width:1px;stroke-linecap:butt;stroke-linejoin:miter;stroke-opacity:1" d="M 427.932,996 399.67,990.348 z" id="boundary" inkscape:connector-curvature="0" />
	<path style="fill:none;stroke:red;stroke-width:1px;stroke-linecap:butt;stroke-linejoin:miter;stroke-opacity:1" d="M 399.67,990.348 371.407,990.348 z" id="boundary" inkscape:connector-curvature="0" />
	<path style="fill:none;stroke:red;stroke-width:1px;stroke-linecap:butt;stroke-linejoin:miter;stroke-opacity:1" d="M 371.407,990.348 343.145,984.695 z" id="boundary" inkscape:connector-curvature="0" />
	<path style="fill:none;stroke:red;stroke-width:1px;stroke-linecap:butt;stroke-linejoin:miter;stroke-opacity:1" d="M 343.145,984.695 314.883,984.695 z" id="boundary" inkscape:connector-curvature="0" />
	<path style="fill:none;stroke:red;stroke-width:1px;stroke-linecap:butt;stroke-linejoin:miter;stroke-opacity:1" d="M 314.883,984.695 286.621,979.043 z" id="boundary" inkscape:connector-curvature="0" />
	<path style="fill:none;stroke:red;stroke-width:1px;stroke-linecap:butt;stroke-linejoin:miter;stroke-opacity:1" d="M 286.621,979.043 258.359,976.217 z" id="boundary" inkscape:connector-curvature="0" />
	<path style="fill:none;stroke:red;stroke-width:1px;stroke-linecap:butt;stroke-linejoin:miter;stroke-opacity:1" d="M 258.359,976.217 230.097,979.043 z" id="boundary" inkscape:connector-curvature="0" />
	<path style="fill:none;stroke:red;stroke-width:1px;stroke-linecap:butt;stroke-linejoin:miter;stroke-opacity:1" d="M 230.097,979.043 201.835,990.348 z" id="boundary" inkscape:connector-curvature="0" />
	<path style="fill:none;stroke:red;stroke-width:1px;stroke-linecap:butt;stroke-linejoin:miter;stroke-opacity:1" d="M 201.835,990.348 173.573,996 z" id="boundary" inkscape:connector-curvature="0" />
	<path style="fill:none;stroke:red;stroke-width:1px;stroke-linecap:butt;stroke-linejoin:miter;stroke-opacity:1" d="M 173.573,996 145.311,996 z" id="boundary" inkscape:connector-curvature="0" />
	<path style="fill:none;stroke:red;stroke-width:1px;stroke-linecap:butt;stroke-linejoin:miter;stroke-opacity:1" d="M 145.311,996 117.048,996 z" id="boundary" inkscape:connector-curvature="0" />
	<path style="fill:none;stroke:red;stroke-width:1px;stroke-linecap:butt;stroke-linejoin:miter;stroke-opacity:1" d="M 117.048,996 88.7863,996 z" id="boundary" inkscape:connector-curvature="0" />
	<path style="fill:none;stroke:red;stroke-width:1px;stroke-linecap:butt;stroke-linejoin:miter;stroke-opacity:1" d="M 88.7863,996 60.5242,993.174 z" id="boundary" inkscape:connector-curvature="0" />
	<path style="fill:none;stroke:red;stroke-width:1px;stroke-linecap:butt;stroke-linejoin:miter;stroke-opacity:1" d="M 60.5242,993.174 35.0883,979.043 z" id="boundary" inkscape:connector-curvature="0" />
	<path style="fill:none;stroke:red;stroke-width:1px;stroke-linecap:butt;stroke-linejoin:miter;stroke-opacity:1" d="M 35.0883,979.043 20.9573,953.607 z" id="boundary" inkscape:connector-curvature="0" />
	<path style="fill:none;stroke:red;stroke-width:1px;stroke-linecap:butt;stroke-linejoin:miter;stroke-opacity:1" d="M 20.9573,953.607 15.3048,925.345 z" id="boundary" inkscape:connector-curvature="0" />
	<path style="fill:none;stroke:red;stroke-width:1px;stroke-linecap:butt;stroke-linejoin:miter;stroke-opacity:1" d="M 15.3048,925.345 9.65242,897.083 z" id="boundary" inkscape:connector-curvature="0" />
	<path style="fill:none;stroke:red;stroke-width:1px;stroke-linecap:butt;stroke-linejoin:miter;stroke-opacity:1" d="M 9.65242,897.083 9.65242,868.821 z" id="boundary" inkscape:connector-curvature="0" />
	<path style="fill:none;stroke:red;stroke-width:1px;stroke-linecap:butt;stroke-linejoin:miter;stroke-opacity:1" d="M 9.65242,868.821 4,840.558 z" id="boundary" inkscape:connector-curvature="0" />
	<path style="fill:none;stroke:red;stroke-width:1px;stroke-linecap:butt;stroke-linejoin:miter;stroke-opacity:1" d="M 4,840.558 4,812.296 z" id="boundary" inkscape:connector-curvature="0" />
	<path style="fill:none;stroke:red;stroke-width:1px;stroke-linecap:butt;stroke-linejoin:miter;stroke-opacity:1" d="M 4,812.296 9.65242,784.034 z" id="boundary" inkscape:connector-curvature="0" />
	<path style="fill:none;stroke:red;stroke-width:1px;stroke-linecap:butt;stroke-linejoin:miter;stroke-opacity:1" d="M 9.65242,784.034 9.65242,755.772 z" id="boundary" inkscape:connector-curvature="0" />
	<path style="fill:none;stroke:red;stroke-width:1px;stroke-linecap:butt;stroke-linejoin:miter;stroke-opacity:1" d="M 9.65242,755.772 26.6097,733.162 z" id="boundary" inkscape:connector-curvature="0" />
	<path style="fill:none;stroke:red;stroke-width:1px;stroke-linecap:butt;stroke-linejoin:miter;stroke-opacity:1" d="M 26.6097,733.162 54.8718,727.51 z" id="boundary" inkscape:connector-curvature="0" />
	<path style="fill:none;stroke:red;stroke-width:1px;stroke-linecap:butt;stroke-linejoin:miter;stroke-opacity:1" d="M 54.8718,727.51 83.1339,727.51 z" id="boundary" inkscape:connector-curvature="0" />
	<path style="fill:none;stroke:red;stroke-width:1px;stroke-linecap:butt;stroke-linejoin:miter;stroke-opacity:1" d="M 83.1339,727.51 111.396,704.9 z" id="boundary" inkscape:connector-curvature="0" />
	<path style="fill:none;stroke:red;stroke-width:1px;stroke-linecap:butt;stroke-linejoin:miter;stroke-opacity:1" d="M 111.396,704.9 105.744,676.638 z" id="boundary" inkscape:connector-curvature="0" />
	<path style="fill:none;stroke:red;stroke-width:1px;stroke-linecap:butt;stroke-linejoin:miter;stroke-opacity:1" d="M 105.744,676.638 105.744,648.376 z" id="boundary" inkscape:connector-curvature="0" />
	<path style="fill:none;stroke:red;stroke-width:1px;stroke-linecap:butt;stroke-linejoin:miter;stroke-opacity:1" d="M 105.744,648.376 111.396,614.462 z" id="boundary" inkscape:connector-curvature="0" />
	<path style="fill:none;stroke:red;stroke-width:1px;stroke-linecap:butt;stroke-linejoin:miter;stroke-opacity:1" d="M 111.396,614.462 108.57,586.199 z" id="boundary" inkscape:connector-curvature="0" />
	<path style="fill:none;stroke:red;stroke-width:1px;stroke-linecap:butt;stroke-linejoin:miter;stroke-opacity:1" d="M 108.57,586.199 100.091,557.937 z" id="boundary" inkscape:connector-curvature="0" />
	<path style="fill:none;stroke:red;stroke-width:1px;stroke-linecap:butt;stroke-linejoin:miter;stroke-opacity:1" d="M 100.091,557.937 88.7863,529.675 z" id="boundary" inkscape:connector-curvature="0" />
	<path style="fill:none;stroke:red;stroke-width:1px;stroke-linecap:butt;stroke-linejoin:miter;stroke-opacity:1" d="M 88.7863,529.675 88.7863,501.413 z" id="boundary" inkscape:connector-curvature="0" />
	<path style="fill:none;stroke:red;stroke-width:1px;stroke-linecap:butt;stroke-linejoin:miter;stroke-opacity:1" d="M 88.7863,501.413 102.917,475.977 z" id="boundary" inkscape:connector-curvature="0" />
	<path style="fill:none;stroke:red;stroke-width:1px;stroke-linecap:butt;stroke-linejoin:miter;stroke-opacity:1" d="M 102.917,475.977 125.527,456.194 z" id="boundary" inkscape:connector-curvature="0" />
	<path style="fill:none;stroke:red;stroke-width:1px;stroke-linecap:butt;stroke-linejoin:miter;stroke-opacity:1" d="M 125.527,456.194 153.789,444.889 z" id="boundary" inkscape:connector-curvature="0" />
	<path style="fill:none;stroke:red;stroke-width:1px;stroke-linecap:butt;stroke-linejoin:miter;stroke-opacity:1" d="M 153.789,444.889 182.051,430.758 z" id="boundary" inkscape:connector-curvature="0" />
	<path style="fill:none;stroke:red;stroke-width:1px;stroke-linecap:butt;stroke-linejoin:miter;stroke-opacity:1" d="M 182.051,430.758 199.009,408.148 z" id="boundary" inkscape:connector-curvature="0" />
	<path style="fill:none;stroke:red;stroke-width:1px;stroke-linecap:butt;stroke-linejoin:miter;stroke-opacity:1" d="M 199.009,408.148 182.051,374.234 z" id="boundary" inkscape:connector-curvature="0" />
	<path style="fill:none;stroke:red;stroke-width:1px;stroke-linecap:butt;stroke-linejoin:miter;stroke-opacity:1" d="M 182.051,374.234 153.789,362.929 z" id="boundary" inkscape:connector-curvature="0" />
	<path style="fill:none;stroke:red;stroke-width:1px;stroke-linecap:butt;stroke-linejoin:miter;stroke-opacity:1" d="M 153.789,362.929 125.527,354.45 z" id="boundary" inkscape:connector-curvature="0" />
	<path style="fill:none;stroke:red;stroke-width:1px;stroke-linecap:butt;stroke-linejoin:miter;stroke-opacity:1" d="M 125.527,354.45 108.57,331.84 z" id="boundary" inkscape:connector-curvature="0" />
	<path style="fill:none;stroke:red;stroke-width:1px;stroke-linecap:butt;stroke-linejoin:miter;stroke-opacity:1" d="M 108.57,331.84 105.744,303.578 z" id="boundary" inkscape:connector-curvature="0" />
	<path style="fill:none;stroke:red;stroke-width:1px;stroke-linecap:butt;stroke-linejoin:miter;stroke-opacity:1" d="M 105.744,303.578 97.265,275.316 z" id="boundary" inkscape:connector-curvature="0" />
	<path style="fill:none;stroke:red;stroke-width:1px;stroke-linecap:butt;stroke-linejoin:miter;stroke-opacity:1" d="M 97.265,275.316 88.7863,247.054 z" id="boundary" inkscape:connector-curvature="0" />
	<path style="fill:none;stroke:red;stroke-width:1px;stroke-linecap:butt;stroke-linejoin:miter;stroke-opacity:1" d="M 88.7863,247.054 102.917,221.618 z" id="boundary" inkscape:connector-curvature="0" />
	<path style="fill:none;stroke:red;stroke-width:1px;stroke-linecap:butt;stroke-linejoin:miter;stroke-opacity:1" d="M 102.917,221.618 128.353,207.487 z" id="boundary" inkscape:connector-curvature="0" />
	<path style="fill:none;stroke:red;stroke-width:1px;stroke-linecap:butt;stroke-linejoin:miter;stroke-opacity:1" d="M 128.353,207.487 153.789,193.356 z" id="boundary" inkscape:connector-curvature="0" />
	<path style="fill:none;stroke:red;stroke-width:1px;stroke-linecap:butt;stroke-linejoin:miter;stroke-opacity:1" d="M 153.789,193.356 182.051,190.53 z" id="boundary" inkscape:connector-curvature="0" />
	<path style="fill:none;stroke:red;stroke-width:1px;stroke-linecap:butt;stroke-linejoin:miter;stroke-opacity:1" d="M 182.051,190.53 210.313,179.225 z" id="boundary" inkscape:connector-curvature="0" />
	<path style="fill:none;stroke:red;stroke-width:1px;stroke-linecap:butt;stroke-linejoin:miter;stroke-opacity:1" d="M 210.313,179.225 232.923,159.442 z" id="boundary" inkscape:connector-curvature="0" />
	<path style="fill:none;stroke:red;stroke-width:1px;stroke-linecap:butt;stroke-linejoin:miter;stroke-opacity:1" d="M 232.923,159.442 247.054,134.006 z" id="boundary" inkscape:connector-curvature="0" />
	<path style="fill:none;stroke:red;stroke-width:1px;stroke-linecap:butt;stroke-linejoin:miter;stroke-opacity:1" d="M 247.054,134.006 261.185,108.57 z" id="boundary" inkscape:connector-curvature="0" />
	<path style="fill:none;stroke:red;stroke-width:1px;stroke-linecap:butt;stroke-linejoin:miter;stroke-opacity:1" d="M 261.185,108.57 283.795,85.9601 z" id="boundary" inkscape:connector-curvature="0" />
	<path style="fill:none;stroke:red;stroke-width:1px;stroke-linecap:butt;stroke-linejoin:miter;stroke-opacity:1" d="M 283.795,85.9601 306.405,63.3504 z" id="boundary" inkscape:connector-curvature="0" />
	<path style="fill:none;stroke:red;stroke-width:1px;stroke-linecap:butt;stroke-linejoin:miter;stroke-opacity:1" d="M 306.405,63.3504 331.84,49.2194 z" id="boundary" inkscape:connector-curvature="0" />
	<path style="fill:none;stroke:red;stroke-width:1px;stroke-linecap:butt;stroke-linejoin:miter;stroke-opacity:1" d="M 331.84,49.2194 348.798,26.6097 z" id="boundary" inkscape:connector-curvature="0" />
	<path style="fill:none;stroke:red;stroke-width:1px;stroke-linecap:butt;stroke-linejoin:miter;stroke-opacity:1" d="M 348.798,26.6097 371.407,9.65242 z" id="boundary" inkscape:connector-curvature="0" />
	<path style="fill:none;stroke:red;stroke-width:1px;stroke-linecap:butt;stroke-linejoin:miter;stroke-opacity:1" d="M 371.407,9.65242 399.67,6.82621 z" id="boundary" inkscape:connector-curvature="0" />
	<path style="fill:none;stroke:red;stroke-width:1px;stroke-linecap:butt;stroke-linejoin:miter;stroke-opacity:1" d="M 399.67,6.82621 427.932,4 z" id="boundary" inkscape:connector-curvature="0" />
	<path style="fill:none;stroke:red;stroke-width:1px;stroke-linecap:butt;stroke-linejoin:miter;stroke-opacity:1" d="M 427.932,4 456.194,9.65242 z" id="boundary" inkscape:connector-curvature="0" />
	<path style="fill:none;stroke:red;stroke-width:1px;stroke-linecap:butt;stroke-linejoin:miter;stroke-opacity:1" d="M 456.194,9.65242 475.977,32.2621 z" id="boundary" inkscape:connector-curvature="0" />
	<path style="fill:none;stroke:red;stroke-width:1px;stroke-linecap:butt;stroke-linejoin:miter;stroke-opacity:1" d="M 475.977,32.2621 475.977,60.5242 z" id="boundary" inkscape:connector-curvature="0" />
	<path style="fill:none;stroke:red;stroke-width:1px;stroke-linecap:butt;stroke-linejoin:miter;stroke-opacity:1" d="M 475.977,60.5242 504.239,71.8291 z" id="boundary" inkscape:connector-curvature="0" />
	<path style="fill:none;stroke:red;stroke-width:1px;stroke-linecap:butt;stroke-linejoin:miter;stroke-opacity:1" d="M 504.239,71.8291 529.675,85.9601 z" id="boundary" inkscape:connector-curvature="0" />
	<path style="fill:none;stroke:red;stroke-width:1px;stroke-linecap:butt;stroke-linejoin:miter;stroke-opacity:1" d="M 529.675,85.9601 549.459,108.57 z" id="boundary" inkscape:connector-curvature="0" />
	<path style="fill:none;stroke:red;stroke-width:1px;stroke-linecap:butt;stroke-linejoin:miter;stroke-opacity:1" d="M 549.459,108.57 566.416,131.179 z" id="boundary" inkscape:connector-curvature="0" />
	<path style="fill:none;stroke:red;stroke-width:1px;stroke-linecap:butt;stroke-linejoin:miter;stroke-opacity:1" d="M 566.416,131.179 577.721,159.442 z" id="boundary" inkscape:connector-curvature="0" />
	<path style="fill:none;stroke:red;stroke-width:1px;stroke-linecap:butt;stroke-linejoin:miter;stroke-opacity:1" d="M 577.721,159.442 589.026,187.704 z" id="boundary" inkscape:connector-curvature="0" />
	<circle cx="4" cy="812.296" r="4" fill="#0" id="circle0"/>
	<circle cx="4" cy="840.558" r="4" fill="#0" id="circle1"/>
	<circle cx="9.65242" cy="755.772" r="4" fill="#0" id="circle2"/>
	<circle cx="9.65242" cy="784.034" r="4" fill="#0" id="circle3"/>
	<circle cx="9.65242" cy="868.821" r="4" fill="#0" id="circle4"/>
	<circle cx="9.65242" cy="897.083" r="4" fill="#0" id="circle5"/>
	<circle cx="15.3048" cy="925.345" r="4" fill="#0" id="circle6"/>
	<circle cx="20.9573" cy="953.607" r="4" fill="#0" id="circle7"/>
	<circle cx="26.6097" cy="733.162" r="4" fill="#0" id="circle8"/>
	<circle cx="35.0883" cy="979.043" r="4" fill="#0" id="circle9"/>
	<circle cx="54.8718" cy="727.51" r="4" fill="#0" id="circle10"/>
	<circle cx="60.5242" cy="993.174" r="4" fill="#0" id="circle11"/>
	<circle cx="83.1339" cy="727.51" r="4" fill="#0" id="circle12"/>
	<circle cx="88.7863" cy="247.054" r="4" fill="#0" id="circle13"/>
	<circle cx="88.7863" cy="501.413" r="4" fill="#0" id="circle14"/>
	<circle cx="88.7863" cy="529.675" r="4" fill="#0" id="circle15"/>
	<circle cx="88.7863" cy="996" r="4" fill="#0" id="circle16"/>
	<circle cx="97.265" cy="275.316" r="4" fill="#0" id="circle17"/>
	<circle cx="100.091" cy="557.937" r="4" fill="#0" id="circle18"/>
	<circle cx="102.917" cy="221.618" r="4" fill="#0" id="circle19"/>
	<circle cx="102.917" cy="475.977" r="4" fill="#0" id="circle20"/>
	<circle cx="105.744" cy="303.578" r="4" fill="#0" id="circle21"/>
	<circle cx="105.744" cy="648.376" r="4" fill="#0" id="circle22"/>
	<circle cx="105.744" cy="676.638" r="4" fill="#0" id="circle23"/>
	<circle cx="108.57" cy="331.84" r="4" fill="#0" id="circle24"/>
	<circle cx="108.57" cy="586.199" r="4" fill="#0" id="circle25"/>
	<circle cx="111.396" cy="614.462" r="4" fill="#0" id="circle26"/>
	<circle cx="111.396" cy="704.9" r="4" fill="#0" id="circle27"/>
	<circle cx="117.048" cy="996" r="4" fill="#0" id="circle28"/>
	<circle cx="125.527" cy="354.45" r="4" fill="#0" id="circle29"/>
	<circle cx="125.527" cy="456.194" r="4" fill="#0" id="circle30"/>
	<circle cx="128.353" cy="207.487" r="4" fill="#0" id="circle31"/>
	<circle cx="145.311" cy="996" r="4" fill="#0" id="circle32"/>
	<circle cx="153.789" cy="193.356" r="4" fill="#0" id="circle33"/>
	<circle cx="153.789" cy="362.929" r="4" fill="#0" id="circle34"/>
	<circle cx="153.789" cy="444.889" r="4" fill="#0" id="circle35"/>
	<circle cx="173.573" cy="996" r="4" fill="#0" id="circle36"/>
	<circle cx="182.051" cy="190.53" r="4" fill="#0" id="circle37"/>
	<circle cx="182.051" cy="374.234" r="4" fill="#0" id="circle38"/>
	<circle cx="182.051" cy="430.758" r="4" fill="#0" id="circle39"/>
	<circle cx="199.009" cy="408.148" r="4" fill="#0" id="circle40"/>
	<circle cx="201.835" cy="990.348" r="4" fill="#0" id="circle41"/>
	<circle cx="210.313" cy="179.225" r="4" fill="#0" id="circle42"/>
	<circle cx="230.097" cy="979.043" r="4" fill="#0" id="circle43"/>
	<circle cx="232.923" cy="159.442" r="4" fill="#0" id="circle44"/>
	<circle cx="247.054" cy="134.006" r="4" fill="#0" id="circle45"/>
	<circle cx="258.359" cy="976.217" r="4" fill="#0" id="circle46"/>
	<circle cx="261.185" cy="108.57" r="4" fill="#0" id="circle47"/>
	<circle cx="283.795" cy="85.9601" r="4" fill="#0" id="circle48"/>
	<circle cx="286.621" cy="979.043" r="4" fill="#0" id="circle49"/>
	<circle cx="306.405" cy="63.3504" r="4" fill="#0" id="circle50"/>
	<circle cx="314.883" cy="984.695" r="4" fill="#0" id="circle51"/>
	<circle cx="331.84" cy="49.2194" r="4" fill="#0" id="circle52"/>
	<circle cx="343.145" cy="984.695" r="4" fill="#0" id="circle53"/>
	<circle cx="348.798" cy="26.6097" r="4" fill="#0" id="circle54"/>
	<circle cx="371.407" cy="9.65242" r="4" fill="#0" id="circle55"/>
	<circle cx="371.407" cy="990.348" r="4" fill="#0" id="circle56"/>
	<circle cx="399.67" cy="6.82621" r="4" fill="#0" id="circle57"/>
	<circle cx="399.67" cy="990.348" r="4" fill="#0" id="circle58"/>
	<circle cx="427.932" cy="4" r="4" fill="#0" id="circle59"/>
	<circle cx="427.932" cy="996" r="4" fill="#0" id="circle60"/>
	<circle cx="456.194" cy="9.65242" r="4" fill="#0" id="circle61"/>
	<circle cx="456.194" cy="990.348" r="4" fill="#0" id="circle62"/>
	<circle cx="475.977" cy="32.2621" r="4" fill="#0" id="circle63"/>
	<circle cx="475.977" cy="60.5242" r="4" fill="#0" id="circle64"/>
	<circle cx="484.456" cy="979.043" r="4" fill="#0" id="circle65"/>
	<circle cx="504.239" cy="71.8291" r="4" fill="#0" id="circle66"/>
	<circle cx="512.718" cy="967.738" r="4" fill="#0" id="circle67"/>
	<circle cx="518.37" cy="939.476" r="4" fill="#0" id="circle68"/>
	<circle cx="524.023" cy="911.214" r="4" fill="#0" id="circle69"/>
	<circle cx="526.849" cy="795.339" r="4" fill="#0" id="circle70"/>
	<circle cx="526.849" cy="823.601" r="4" fill="#0" id="circle71"/>
	<circle cx="526.849" cy="851.863" r="4" fill="#0" id="circle72"/>
	<circle cx="529.675" cy="85.9601" r="4" fill="#0" id="circle73"/>
	<circle cx="529.675" cy="402.496" r="4" fill="#0" id="circle74"/>
	<circle cx="529.675" cy="882.952" r="4" fill="#0" id="circle75"/>
	<circle cx="532.501" cy="444.889" r="4" fill="#0" id="circle76"/>
	<circle cx="532.501" cy="473.151" r="4" fill="#0" id="circle77"/>
	<circle cx="532.501" cy="501.413" r="4" fill="#0" id="circle78"/>
	<circle cx="532.501" cy="529.675" r="4" fill="#0" id="circle79"/>
	<circle cx="538.154" cy="557.937" r="4" fill="#0" id="circle80"/>
	<circle cx="538.154" cy="586.199" r="4" fill="#0" id="circle81"/>
	<circle cx="538.154" cy="614.462" r="4" fill="#0" id="circle82"/>
	<circle cx="543.806" cy="371.407" r="4" fill="#0" id="circle83"/>
	<circle cx="543.806" cy="642.724" r="4" fill="#0" id="circle84"/>
	<circle cx="543.806" cy="670.986" r="4" fill="#0" id="circle85"/>
	<circle cx="543.806" cy="699.248" r="4" fill="#0" id="circle86"/>
	<circle cx="543.806" cy="727.51" r="4" fill="#0" id="circle87"/>
	<circle cx="543.806" cy="755.772" r="4" fill="#0" id="circle88"/>
	<circle cx="549.459" cy="108.57" r="4" fill="#0" id="circle89"/>
	<circle cx="560.764" cy="348.798" r="4" fill="#0" id="circle90"/>
	<circle cx="566.416" cy="131.179" r="4" fill="#0" id="circle91"/>
	<circle cx="577.721" cy="159.442" r="4" fill="#0" id="circle92"/>
	<circle cx="577.721" cy="320.536" r="4" fill="#0" id="circle93"/>
	<circle cx="589.026" cy="187.704" r="4" fill="#0" id="circle94"/>
	<circle cx="589.026" cy="215.966" r="4" fill="#0" id="circle95"/>
	<circle cx="591.852" cy="295.1" r="4" fill="#0" id="circle96"/>
	<circle cx="594.678" cy="244.228" r="4" fill="#0" id="circle97"/>
	</g>
</svg>