<?xml version="1.0" encoding="UTF-8" standalone="no"?>
<!-- Created with CurveBenchmark -->
<svg
	xmlns:dc="http://purl.org/dc/elements/1.1/"
	xmlns:cc="http://creativecommons.org/ns#"
	xmlns:rdf="http://www.w3.org/1999/02/22-rdf-syntax-ns#"
	xmlns:svg="http://www.w3.org/2000/svg"
	xmlns="http://www.w3.org/2000/svg"
	xmlns:sodipodi="http://sodipodi.sourceforge.net/DTD/sodipodi-0.dtd"
	xmlns:inkscape="http://www.inkscape.org/namespaces/inkscape"
	width="1000"
	height="1000"
	id="svg2"
	version="1.1"
	sodipodi:docname="manifold/connect2d-flatfish16.png.txt">
<defs
	id="defs4" />
<metadata
	id="metadata7">
	<rdf:RDF>
		<cc:Work
			rdf:about="">
			<dc:format>image/svg+xml</dc:format>
			<dc:type
				rdf:resource="http://purl.org/dc/dcmitype/StillImage" />
			<dc:title></dc:title>
		</cc:Work>
	</rdf:RDF>
</metadata>
<g
	inkscape:label="Layer 1"
	inkscape:groupmode="layer"
	id="layer1">
	<path style="fill:none;stroke:red;stroke-width:1px;stroke-linecap:butt;stroke-linejoin:miter;stroke-opacity:1" d="M 996,197.094 993.052,219.204 z" id="boundary" inkscape:connector-curvature="0" />
	<path style="fill:none;stroke:red;stroke-width:1px;stroke-linecap:butt;stroke-linejoin:miter;stroke-opacity:1" d="M 993.052,219.204 982.734,238.366 z" id="boundary" inkscape:connector-curvature="0" />
	<path style="fill:none;stroke:red;stroke-width:1px;stroke-linecap:butt;stroke-linejoin:miter;stroke-opacity:1" d="M 982.734,238.366 967.994,245.736 z" id="boundary" inkscape:connector-curvature="0" />
	<path style="fill:none;stroke:red;stroke-width:1px;stroke-linecap:butt;stroke-linejoin:miter;stroke-opacity:1" d="M 967.994,245.736 956.202,256.053 z" id="boundary" inkscape:connector-curvature="0" />
	<path style="fill:none;stroke:red;stroke-width:1px;stroke-linecap:butt;stroke-linejoin:miter;stroke-opacity:1" d="M 956.202,256.053 941.462,263.423 z" id="boundary" inkscape:connector-curvature="0" />
	<path style="fill:none;stroke:red;stroke-width:1px;stroke-linecap:butt;stroke-linejoin:miter;stroke-opacity:1" d="M 941.462,263.423 929.67,276.689 z" id="boundary" inkscape:connector-curvature="0" />
	<path style="fill:none;stroke:red;stroke-width:1px;stroke-linecap:butt;stroke-linejoin:miter;stroke-opacity:1" d="M 929.67,276.689 914.93,278.163 z" id="boundary" inkscape:connector-curvature="0" />
	<path style="fill:none;stroke:red;stroke-width:1px;stroke-linecap:butt;stroke-linejoin:miter;stroke-opacity:1" d="M 914.93,278.163 901.664,285.533 z" id="boundary" inkscape:connector-curvature="0" />
	<path style="fill:none;stroke:red;stroke-width:1px;stroke-linecap:butt;stroke-linejoin:miter;stroke-opacity:1" d="M 901.664,285.533 888.398,292.903 z" id="boundary" inkscape:connector-curvature="0" />
	<path style="fill:none;stroke:red;stroke-width:1px;stroke-linecap:butt;stroke-linejoin:miter;stroke-opacity:1" d="M 888.398,292.903 875.132,300.273 z" id="boundary" inkscape:connector-curvature="0" />
	<path style="fill:none;stroke:red;stroke-width:1px;stroke-linecap:butt;stroke-linejoin:miter;stroke-opacity:1" d="M 875.132,300.273 864.814,312.065 z" id="boundary" inkscape:connector-curvature="0" />
	<path style="fill:none;stroke:red;stroke-width:1px;stroke-linecap:butt;stroke-linejoin:miter;stroke-opacity:1" d="M 864.814,312.065 853.022,322.383 z" id="boundary" inkscape:connector-curvature="0" />
	<path style="fill:none;stroke:red;stroke-width:1px;stroke-linecap:butt;stroke-linejoin:miter;stroke-opacity:1" d="M 853.022,322.383 841.23,343.019 z" id="boundary" inkscape:connector-curvature="0" />
	<path style="fill:none;stroke:red;stroke-width:1px;stroke-linecap:butt;stroke-linejoin:miter;stroke-opacity:1" d="M 841.23,343.019 826.49,344.493 z" id="boundary" inkscape:connector-curvature="0" />
	<path style="fill:none;stroke:red;stroke-width:1px;stroke-linecap:butt;stroke-linejoin:miter;stroke-opacity:1" d="M 826.49,344.493 813.224,337.123 z" id="boundary" inkscape:connector-curvature="0" />
	<path style="fill:none;stroke:red;stroke-width:1px;stroke-linecap:butt;stroke-linejoin:miter;stroke-opacity:1" d="M 813.224,337.123 799.958,344.493 z" id="boundary" inkscape:connector-curvature="0" />
	<path style="fill:none;stroke:red;stroke-width:1px;stroke-linecap:butt;stroke-linejoin:miter;stroke-opacity:1" d="M 799.958,344.493 786.692,351.863 z" id="boundary" inkscape:connector-curvature="0" />
	<path style="fill:none;stroke:red;stroke-width:1px;stroke-linecap:butt;stroke-linejoin:miter;stroke-opacity:1" d="M 786.692,351.863 783.744,378.395 z" id="boundary" inkscape:connector-curvature="0" />
	<path style="fill:none;stroke:red;stroke-width:1px;stroke-linecap:butt;stroke-linejoin:miter;stroke-opacity:1" d="M 783.744,378.395 771.952,388.713 z" id="boundary" inkscape:connector-curvature="0" />
	<path style="fill:none;stroke:red;stroke-width:1px;stroke-linecap:butt;stroke-linejoin:miter;stroke-opacity:1" d="M 771.952,388.713 761.634,400.505 z" id="boundary" inkscape:connector-curvature="0" />
	<path style="fill:none;stroke:red;stroke-width:1px;stroke-linecap:butt;stroke-linejoin:miter;stroke-opacity:1" d="M 761.634,400.505 746.895,407.875 z" id="boundary" inkscape:connector-curvature="0" />
	<path style="fill:none;stroke:red;stroke-width:1px;stroke-linecap:butt;stroke-linejoin:miter;stroke-opacity:1" d="M 746.895,407.875 732.155,415.245 z" id="boundary" inkscape:connector-curvature="0" />
	<path style="fill:none;stroke:red;stroke-width:1px;stroke-linecap:butt;stroke-linejoin:miter;stroke-opacity:1" d="M 732.155,415.245 717.415,418.193 z" id="boundary" inkscape:connector-curvature="0" />
	<path style="fill:none;stroke:red;stroke-width:1px;stroke-linecap:butt;stroke-linejoin:miter;stroke-opacity:1" d="M 717.415,418.193 704.149,425.563 z" id="boundary" inkscape:connector-curvature="0" />
	<path style="fill:none;stroke:red;stroke-width:1px;stroke-linecap:butt;stroke-linejoin:miter;stroke-opacity:1" d="M 704.149,425.563 690.883,432.933 z" id="boundary" inkscape:connector-curvature="0" />
	<path style="fill:none;stroke:red;stroke-width:1px;stroke-linecap:butt;stroke-linejoin:miter;stroke-opacity:1" d="M 690.883,432.933 676.143,432.933 z" id="boundary" inkscape:connector-curvature="0" />
	<path style="fill:none;stroke:red;stroke-width:1px;stroke-linecap:butt;stroke-linejoin:miter;stroke-opacity:1" d="M 676.143,432.933 661.403,432.933 z" id="boundary" inkscape:connector-curvature="0" />
	<path style="fill:none;stroke:red;stroke-width:1px;stroke-linecap:butt;stroke-linejoin:miter;stroke-opacity:1" d="M 661.403,432.933 646.663,432.933 z" id="boundary" inkscape:connector-curvature="0" />
	<path style="fill:none;stroke:red;stroke-width:1px;stroke-linecap:butt;stroke-linejoin:miter;stroke-opacity:1" d="M 646.663,432.933 631.923,432.933 z" id="boundary" inkscape:connector-curvature="0" />
	<path style="fill:none;stroke:red;stroke-width:1px;stroke-linecap:butt;stroke-linejoin:miter;stroke-opacity:1" d="M 631.923,432.933 617.183,432.933 z" id="boundary" inkscape:connector-curvature="0" />
	<path style="fill:none;stroke:red;stroke-width:1px;stroke-linecap:butt;stroke-linejoin:miter;stroke-opacity:1" d="M 617.183,432.933 602.443,432.933 z" id="boundary" inkscape:connector-curvature="0" />
	<path style="fill:none;stroke:red;stroke-width:1px;stroke-linecap:butt;stroke-linejoin:miter;stroke-opacity:1" d="M 602.443,432.933 587.703,432.933 z" id="boundary" inkscape:connector-curvature="0" />
	<path style="fill:none;stroke:red;stroke-width:1px;stroke-linecap:butt;stroke-linejoin:miter;stroke-opacity:1" d="M 587.703,432.933 572.963,432.933 z" id="boundary" inkscape:connector-curvature="0" />
	<path style="fill:none;stroke:red;stroke-width:1px;stroke-linecap:butt;stroke-linejoin:miter;stroke-opacity:1" d="M 572.963,432.933 558.223,432.933 z" id="boundary" inkscape:connector-curvature="0" />
	<path style="fill:none;stroke:red;stroke-width:1px;stroke-linecap:butt;stroke-linejoin:miter;stroke-opacity:1" d="M 558.223,432.933 543.483,432.933 z" id="boundary" inkscape:connector-curvature="0" />
	<path style="fill:none;stroke:red;stroke-width:1px;stroke-linecap:butt;stroke-linejoin:miter;stroke-opacity:1" d="M 543.483,432.933 528.743,429.985 z" id="boundary" inkscape:connector-curvature="0" />
	<path style="fill:none;stroke:red;stroke-width:1px;stroke-linecap:butt;stroke-linejoin:miter;stroke-opacity:1" d="M 528.743,429.985 519.899,418.193 z" id="boundary" inkscape:connector-curvature="0" />
	<path style="fill:none;stroke:red;stroke-width:1px;stroke-linecap:butt;stroke-linejoin:miter;stroke-opacity:1" d="M 519.899,418.193 505.159,413.771 z" id="boundary" inkscape:connector-curvature="0" />
	<path style="fill:none;stroke:red;stroke-width:1px;stroke-linecap:butt;stroke-linejoin:miter;stroke-opacity:1" d="M 505.159,413.771 494.841,401.979 z" id="boundary" inkscape:connector-curvature="0" />
	<path style="fill:none;stroke:red;stroke-width:1px;stroke-linecap:butt;stroke-linejoin:miter;stroke-opacity:1" d="M 494.841,401.979 480.101,396.083 z" id="boundary" inkscape:connector-curvature="0" />
	<path style="fill:none;stroke:red;stroke-width:1px;stroke-linecap:butt;stroke-linejoin:miter;stroke-opacity:1" d="M 480.101,396.083 466.835,388.713 z" id="boundary" inkscape:connector-curvature="0" />
	<path style="fill:none;stroke:red;stroke-width:1px;stroke-linecap:butt;stroke-linejoin:miter;stroke-opacity:1" d="M 466.835,388.713 455.043,378.395 z" id="boundary" inkscape:connector-curvature="0" />
	<path style="fill:none;stroke:red;stroke-width:1px;stroke-linecap:butt;stroke-linejoin:miter;stroke-opacity:1" d="M 455.043,378.395 441.777,371.025 z" id="boundary" inkscape:connector-curvature="0" />
	<path style="fill:none;stroke:red;stroke-width:1px;stroke-linecap:butt;stroke-linejoin:miter;stroke-opacity:1" d="M 441.777,371.025 427.037,366.603 z" id="boundary" inkscape:connector-curvature="0" />
	<path style="fill:none;stroke:red;stroke-width:1px;stroke-linecap:butt;stroke-linejoin:miter;stroke-opacity:1" d="M 427.037,366.603 412.297,366.603 z" id="boundary" inkscape:connector-curvature="0" />
	<path style="fill:none;stroke:red;stroke-width:1px;stroke-linecap:butt;stroke-linejoin:miter;stroke-opacity:1" d="M 412.297,366.603 399.031,359.233 z" id="boundary" inkscape:connector-curvature="0" />
	<path style="fill:none;stroke:red;stroke-width:1px;stroke-linecap:butt;stroke-linejoin:miter;stroke-opacity:1" d="M 399.031,359.233 384.291,359.233 z" id="boundary" inkscape:connector-curvature="0" />
	<path style="fill:none;stroke:red;stroke-width:1px;stroke-linecap:butt;stroke-linejoin:miter;stroke-opacity:1" d="M 384.291,359.233 371.025,351.863 z" id="boundary" inkscape:connector-curvature="0" />
	<path style="fill:none;stroke:red;stroke-width:1px;stroke-linecap:butt;stroke-linejoin:miter;stroke-opacity:1" d="M 371.025,351.863 357.759,344.493 z" id="boundary" inkscape:connector-curvature="0" />
	<path style="fill:none;stroke:red;stroke-width:1px;stroke-linecap:butt;stroke-linejoin:miter;stroke-opacity:1" d="M 357.759,344.493 344.493,337.123 z" id="boundary" inkscape:connector-curvature="0" />
	<path style="fill:none;stroke:red;stroke-width:1px;stroke-linecap:butt;stroke-linejoin:miter;stroke-opacity:1" d="M 344.493,337.123 332.701,328.279 z" id="boundary" inkscape:connector-curvature="0" />
	<path style="fill:none;stroke:red;stroke-width:1px;stroke-linecap:butt;stroke-linejoin:miter;stroke-opacity:1" d="M 332.701,328.279 320.909,317.961 z" id="boundary" inkscape:connector-curvature="0" />
	<path style="fill:none;stroke:red;stroke-width:1px;stroke-linecap:butt;stroke-linejoin:miter;stroke-opacity:1" d="M 320.909,317.961 313.539,304.695 z" id="boundary" inkscape:connector-curvature="0" />
	<path style="fill:none;stroke:red;stroke-width:1px;stroke-linecap:butt;stroke-linejoin:miter;stroke-opacity:1" d="M 313.539,304.695 303.221,292.903 z" id="boundary" inkscape:connector-curvature="0" />
	<path style="fill:none;stroke:red;stroke-width:1px;stroke-linecap:butt;stroke-linejoin:miter;stroke-opacity:1" d="M 303.221,292.903 292.903,281.111 z" id="boundary" inkscape:connector-curvature="0" />
	<path style="fill:none;stroke:red;stroke-width:1px;stroke-linecap:butt;stroke-linejoin:miter;stroke-opacity:1" d="M 292.903,281.111 281.111,270.793 z" id="boundary" inkscape:connector-curvature="0" />
	<path style="fill:none;stroke:red;stroke-width:1px;stroke-linecap:butt;stroke-linejoin:miter;stroke-opacity:1" d="M 281.111,270.793 267.845,263.423 z" id="boundary" inkscape:connector-curvature="0" />
	<path style="fill:none;stroke:red;stroke-width:1px;stroke-linecap:butt;stroke-linejoin:miter;stroke-opacity:1" d="M 267.845,263.423 254.579,256.053 z" id="boundary" inkscape:connector-curvature="0" />
	<path style="fill:none;stroke:red;stroke-width:1px;stroke-linecap:butt;stroke-linejoin:miter;stroke-opacity:1" d="M 254.579,256.053 241.314,263.423 z" id="boundary" inkscape:connector-curvature="0" />
	<path style="fill:none;stroke:red;stroke-width:1px;stroke-linecap:butt;stroke-linejoin:miter;stroke-opacity:1" d="M 241.314,263.423 226.574,263.423 z" id="boundary" inkscape:connector-curvature="0" />
	<path style="fill:none;stroke:red;stroke-width:1px;stroke-linecap:butt;stroke-linejoin:miter;stroke-opacity:1" d="M 226.574,263.423 211.834,270.793 z" id="boundary" inkscape:connector-curvature="0" />
	<path style="fill:none;stroke:red;stroke-width:1px;stroke-linecap:butt;stroke-linejoin:miter;stroke-opacity:1" d="M 211.834,270.793 197.094,278.163 z" id="boundary" inkscape:connector-curvature="0" />
	<path style="fill:none;stroke:red;stroke-width:1px;stroke-linecap:butt;stroke-linejoin:miter;stroke-opacity:1" d="M 197.094,278.163 182.354,278.163 z" id="boundary" inkscape:connector-curvature="0" />
	<path style="fill:none;stroke:red;stroke-width:1px;stroke-linecap:butt;stroke-linejoin:miter;stroke-opacity:1" d="M 182.354,278.163 167.614,278.163 z" id="boundary" inkscape:connector-curvature="0" />
	<path style="fill:none;stroke:red;stroke-width:1px;stroke-linecap:butt;stroke-linejoin:miter;stroke-opacity:1" d="M 167.614,278.163 152.874,285.533 z" id="boundary" inkscape:connector-curvature="0" />
	<path style="fill:none;stroke:red;stroke-width:1px;stroke-linecap:butt;stroke-linejoin:miter;stroke-opacity:1" d="M 152.874,285.533 138.134,285.533 z" id="boundary" inkscape:connector-curvature="0" />
	<path style="fill:none;stroke:red;stroke-width:1px;stroke-linecap:butt;stroke-linejoin:miter;stroke-opacity:1" d="M 138.134,285.533 123.394,285.533 z" id="boundary" inkscape:connector-curvature="0" />
	<path style="fill:none;stroke:red;stroke-width:1px;stroke-linecap:butt;stroke-linejoin:miter;stroke-opacity:1" d="M 123.394,285.533 110.128,292.903 z" id="boundary" inkscape:connector-curvature="0" />
	<path style="fill:none;stroke:red;stroke-width:1px;stroke-linecap:butt;stroke-linejoin:miter;stroke-opacity:1" d="M 110.128,292.903 96.8618,300.273 z" id="boundary" inkscape:connector-curvature="0" />
	<path style="fill:none;stroke:red;stroke-width:1px;stroke-linecap:butt;stroke-linejoin:miter;stroke-opacity:1" d="M 96.8618,300.273 82.1218,300.273 z" id="boundary" inkscape:connector-curvature="0" />
	<path style="fill:none;stroke:red;stroke-width:1px;stroke-linecap:butt;stroke-linejoin:miter;stroke-opacity:1" d="M 82.1218,300.273 67.3819,300.273 z" id="boundary" inkscape:connector-curvature="0" />
	<path style="fill:none;stroke:red;stroke-width:1px;stroke-linecap:butt;stroke-linejoin:miter;stroke-opacity:1" d="M 67.3819,300.273 52.6419,300.273 z" id="boundary" inkscape:connector-curvature="0" />
	<path style="fill:none;stroke:red;stroke-width:1px;stroke-linecap:butt;stroke-linejoin:miter;stroke-opacity:1" d="M 52.6419,300.273 39.3759,292.903 z" id="boundary" inkscape:connector-curvature="0" />
	<path style="fill:none;stroke:red;stroke-width:1px;stroke-linecap:butt;stroke-linejoin:miter;stroke-opacity:1" d="M 39.3759,292.903 27.584,282.585 z" id="boundary" inkscape:connector-curvature="0" />
	<path style="fill:none;stroke:red;stroke-width:1px;stroke-linecap:butt;stroke-linejoin:miter;stroke-opacity:1" d="M 27.584,282.585 18.74,270.793 z" id="boundary" inkscape:connector-curvature="0" />
	<path style="fill:none;stroke:red;stroke-width:1px;stroke-linecap:butt;stroke-linejoin:miter;stroke-opacity:1" d="M 18.74,270.793 11.37,257.527 z" id="boundary" inkscape:connector-curvature="0" />
	<path style="fill:none;stroke:red;stroke-width:1px;stroke-linecap:butt;stroke-linejoin:miter;stroke-opacity:1" d="M 11.37,257.527 4,244.262 z" id="boundary" inkscape:connector-curvature="0" />
	<path style="fill:none;stroke:red;stroke-width:1px;stroke-linecap:butt;stroke-linejoin:miter;stroke-opacity:1" d="M 4,244.262 4,229.522 z" id="boundary" inkscape:connector-curvature="0" />
	<path style="fill:none;stroke:red;stroke-width:1px;stroke-linecap:butt;stroke-linejoin:miter;stroke-opacity:1" d="M 4,229.522 4,214.782 z" id="boundary" inkscape:connector-curvature="0" />
	<path style="fill:none;stroke:red;stroke-width:1px;stroke-linecap:butt;stroke-linejoin:miter;stroke-opacity:1" d="M 4,214.782 4,200.042 z" id="boundary" inkscape:connector-curvature="0" />
	<path style="fill:none;stroke:red;stroke-width:1px;stroke-linecap:butt;stroke-linejoin:miter;stroke-opacity:1" d="M 4,200.042 15.792,188.25 z" id="boundary" inkscape:connector-curvature="0" />
	<path style="fill:none;stroke:red;stroke-width:1px;stroke-linecap:butt;stroke-linejoin:miter;stroke-opacity:1" d="M 15.792,188.25 27.584,176.458 z" id="boundary" inkscape:connector-curvature="0" />
	<path style="fill:none;stroke:red;stroke-width:1px;stroke-linecap:butt;stroke-linejoin:miter;stroke-opacity:1" d="M 27.584,176.458 39.3759,166.14 z" id="boundary" inkscape:connector-curvature="0" />
	<path style="fill:none;stroke:red;stroke-width:1px;stroke-linecap:butt;stroke-linejoin:miter;stroke-opacity:1" d="M 39.3759,166.14 52.6419,158.77 z" id="boundary" inkscape:connector-curvature="0" />
	<path style="fill:none;stroke:red;stroke-width:1px;stroke-linecap:butt;stroke-linejoin:miter;stroke-opacity:1" d="M 52.6419,158.77 67.3819,158.77 z" id="boundary" inkscape:connector-curvature="0" />
	<path style="fill:none;stroke:red;stroke-width:1px;stroke-linecap:butt;stroke-linejoin:miter;stroke-opacity:1" d="M 67.3819,158.77 80.6478,166.14 z" id="boundary" inkscape:connector-curvature="0" />
	<path style="fill:none;stroke:red;stroke-width:1px;stroke-linecap:butt;stroke-linejoin:miter;stroke-opacity:1" d="M 80.6478,166.14 95.3878,166.14 z" id="boundary" inkscape:connector-curvature="0" />
	<path style="fill:none;stroke:red;stroke-width:1px;stroke-linecap:butt;stroke-linejoin:miter;stroke-opacity:1" d="M 95.3878,166.14 108.654,173.51 z" id="boundary" inkscape:connector-curvature="0" />
	<path style="fill:none;stroke:red;stroke-width:1px;stroke-linecap:butt;stroke-linejoin:miter;stroke-opacity:1" d="M 108.654,173.51 123.394,173.51 z" id="boundary" inkscape:connector-curvature="0" />
	<path style="fill:none;stroke:red;stroke-width:1px;stroke-linecap:butt;stroke-linejoin:miter;stroke-opacity:1" d="M 123.394,173.51 138.134,173.51 z" id="boundary" inkscape:connector-curvature="0" />
	<path style="fill:none;stroke:red;stroke-width:1px;stroke-linecap:butt;stroke-linejoin:miter;stroke-opacity:1" d="M 138.134,173.51 152.874,173.51 z" id="boundary" inkscape:connector-curvature="0" />
	<path style="fill:none;stroke:red;stroke-width:1px;stroke-linecap:butt;stroke-linejoin:miter;stroke-opacity:1" d="M 152.874,173.51 167.614,173.51 z" id="boundary" inkscape:connector-curvature="0" />
	<path style="fill:none;stroke:red;stroke-width:1px;stroke-linecap:butt;stroke-linejoin:miter;stroke-opacity:1" d="M 167.614,173.51 180.88,180.88 z" id="boundary" inkscape:connector-curvature="0" />
	<path style="fill:none;stroke:red;stroke-width:1px;stroke-linecap:butt;stroke-linejoin:miter;stroke-opacity:1" d="M 180.88,180.88 195.62,183.828 z" id="boundary" inkscape:connector-curvature="0" />
	<path style="fill:none;stroke:red;stroke-width:1px;stroke-linecap:butt;stroke-linejoin:miter;stroke-opacity:1" d="M 195.62,183.828 210.36,188.25 z" id="boundary" inkscape:connector-curvature="0" />
	<path style="fill:none;stroke:red;stroke-width:1px;stroke-linecap:butt;stroke-linejoin:miter;stroke-opacity:1" d="M 210.36,188.25 225.1,188.25 z" id="boundary" inkscape:connector-curvature="0" />
	<path style="fill:none;stroke:red;stroke-width:1px;stroke-linecap:butt;stroke-linejoin:miter;stroke-opacity:1" d="M 225.1,188.25 239.84,188.25 z" id="boundary" inkscape:connector-curvature="0" />
	<path style="fill:none;stroke:red;stroke-width:1px;stroke-linecap:butt;stroke-linejoin:miter;stroke-opacity:1" d="M 239.84,188.25 254.579,188.25 z" id="boundary" inkscape:connector-curvature="0" />
	<path style="fill:none;stroke:red;stroke-width:1px;stroke-linecap:butt;stroke-linejoin:miter;stroke-opacity:1" d="M 254.579,188.25 269.319,188.25 z" id="boundary" inkscape:connector-curvature="0" />
	<path style="fill:none;stroke:red;stroke-width:1px;stroke-linecap:butt;stroke-linejoin:miter;stroke-opacity:1" d="M 269.319,188.25 282.585,180.88 z" id="boundary" inkscape:connector-curvature="0" />
	<path style="fill:none;stroke:red;stroke-width:1px;stroke-linecap:butt;stroke-linejoin:miter;stroke-opacity:1" d="M 282.585,180.88 295.851,173.51 z" id="boundary" inkscape:connector-curvature="0" />
	<path style="fill:none;stroke:red;stroke-width:1px;stroke-linecap:butt;stroke-linejoin:miter;stroke-opacity:1" d="M 295.851,173.51 307.643,161.718 z" id="boundary" inkscape:connector-curvature="0" />
	<path style="fill:none;stroke:red;stroke-width:1px;stroke-linecap:butt;stroke-linejoin:miter;stroke-opacity:1" d="M 307.643,161.718 319.435,151.4 z" id="boundary" inkscape:connector-curvature="0" />
	<path style="fill:none;stroke:red;stroke-width:1px;stroke-linecap:butt;stroke-linejoin:miter;stroke-opacity:1" d="M 319.435,151.4 329.753,139.608 z" id="boundary" inkscape:connector-curvature="0" />
	<path style="fill:none;stroke:red;stroke-width:1px;stroke-linecap:butt;stroke-linejoin:miter;stroke-opacity:1" d="M 329.753,139.608 335.649,118.972 z" id="boundary" inkscape:connector-curvature="0" />
	<path style="fill:none;stroke:red;stroke-width:1px;stroke-linecap:butt;stroke-linejoin:miter;stroke-opacity:1" d="M 335.649,118.972 335.649,104.232 z" id="boundary" inkscape:connector-curvature="0" />
	<path style="fill:none;stroke:red;stroke-width:1px;stroke-linecap:butt;stroke-linejoin:miter;stroke-opacity:1" d="M 335.649,104.232 347.441,92.4398 z" id="boundary" inkscape:connector-curvature="0" />
	<path style="fill:none;stroke:red;stroke-width:1px;stroke-linecap:butt;stroke-linejoin:miter;stroke-opacity:1" d="M 347.441,92.4398 359.233,80.6478 z" id="boundary" inkscape:connector-curvature="0" />
	<path style="fill:none;stroke:red;stroke-width:1px;stroke-linecap:butt;stroke-linejoin:miter;stroke-opacity:1" d="M 359.233,80.6478 373.973,73.2779 z" id="boundary" inkscape:connector-curvature="0" />
	<path style="fill:none;stroke:red;stroke-width:1px;stroke-linecap:butt;stroke-linejoin:miter;stroke-opacity:1" d="M 373.973,73.2779 385.765,62.9599 z" id="boundary" inkscape:connector-curvature="0" />
	<path style="fill:none;stroke:red;stroke-width:1px;stroke-linecap:butt;stroke-linejoin:miter;stroke-opacity:1" d="M 385.765,62.9599 399.031,55.5899 z" id="boundary" inkscape:connector-curvature="0" />
	<path style="fill:none;stroke:red;stroke-width:1px;stroke-linecap:butt;stroke-linejoin:miter;stroke-opacity:1" d="M 399.031,55.5899 410.823,43.7979 z" id="boundary" inkscape:connector-curvature="0" />
	<path style="fill:none;stroke:red;stroke-width:1px;stroke-linecap:butt;stroke-linejoin:miter;stroke-opacity:1" d="M 410.823,43.7979 425.563,36.4279 z" id="boundary" inkscape:connector-curvature="0" />
	<path style="fill:none;stroke:red;stroke-width:1px;stroke-linecap:butt;stroke-linejoin:miter;stroke-opacity:1" d="M 425.563,36.4279 440.303,29.0579 z" id="boundary" inkscape:connector-curvature="0" />
	<path style="fill:none;stroke:red;stroke-width:1px;stroke-linecap:butt;stroke-linejoin:miter;stroke-opacity:1" d="M 440.303,29.0579 455.043,21.688 z" id="boundary" inkscape:connector-curvature="0" />
	<path style="fill:none;stroke:red;stroke-width:1px;stroke-linecap:butt;stroke-linejoin:miter;stroke-opacity:1" d="M 455.043,21.688 469.783,14.318 z" id="boundary" inkscape:connector-curvature="0" />
	<path style="fill:none;stroke:red;stroke-width:1px;stroke-linecap:butt;stroke-linejoin:miter;stroke-opacity:1" d="M 469.783,14.318 481.575,4 z" id="boundary" inkscape:connector-curvature="0" />
	<path style="fill:none;stroke:red;stroke-width:1px;stroke-linecap:butt;stroke-linejoin:miter;stroke-opacity:1" d="M 481.575,4 496.315,4 z" id="boundary" inkscape:connector-curvature="0" />
	<path style="fill:none;stroke:red;stroke-width:1px;stroke-linecap:butt;stroke-linejoin:miter;stroke-opacity:1" d="M 496.315,4 511.055,4 z" id="boundary" inkscape:connector-curvature="0" />
	<path style="fill:none;stroke:red;stroke-width:1px;stroke-linecap:butt;stroke-linejoin:miter;stroke-opacity:1" d="M 511.055,4 525.795,4 z" id="boundary" inkscape:connector-curvature="0" />
	<path style="fill:none;stroke:red;stroke-width:1px;stroke-linecap:butt;stroke-linejoin:miter;stroke-opacity:1" d="M 525.795,4 540.535,4 z" id="boundary" inkscape:connector-curvature="0" />
	<path style="fill:none;stroke:red;stroke-width:1px;stroke-linecap:butt;stroke-linejoin:miter;stroke-opacity:1" d="M 540.535,4 555.275,4 z" id="boundary" inkscape:connector-curvature="0" />
	<path style="fill:none;stroke:red;stroke-width:1px;stroke-linecap:butt;stroke-linejoin:miter;stroke-opacity:1" d="M 555.275,4 570.015,4 z" id="boundary" inkscape:connector-curvature="0" />
	<path style="fill:none;stroke:red;stroke-width:1px;stroke-linecap:butt;stroke-linejoin:miter;stroke-opacity:1" d="M 570.015,4 584.755,4 z" id="boundary" inkscape:connector-curvature="0" />
	<path style="fill:none;stroke:red;stroke-width:1px;stroke-linecap:butt;stroke-linejoin:miter;stroke-opacity:1" d="M 584.755,4 599.495,4 z" id="boundary" inkscape:connector-curvature="0" />
	<path style="fill:none;stroke:red;stroke-width:1px;stroke-linecap:butt;stroke-linejoin:miter;stroke-opacity:1" d="M 599.495,4 614.235,4 z" id="boundary" inkscape:connector-curvature="0" />
	<path style="fill:none;stroke:red;stroke-width:1px;stroke-linecap:butt;stroke-linejoin:miter;stroke-opacity:1" d="M 614.235,4 627.501,11.37 z" id="boundary" inkscape:connector-curvature="0" />
	<path style="fill:none;stroke:red;stroke-width:1px;stroke-linecap:butt;stroke-linejoin:miter;stroke-opacity:1" d="M 627.501,11.37 642.241,11.37 z" id="boundary" inkscape:connector-curvature="0" />
	<path style="fill:none;stroke:red;stroke-width:1px;stroke-linecap:butt;stroke-linejoin:miter;stroke-opacity:1" d="M 642.241,11.37 656.981,11.37 z" id="boundary" inkscape:connector-curvature="0" />
	<path style="fill:none;stroke:red;stroke-width:1px;stroke-linecap:butt;stroke-linejoin:miter;stroke-opacity:1" d="M 656.981,11.37 671.721,11.37 z" id="boundary" inkscape:connector-curvature="0" />
	<path style="fill:none;stroke:red;stroke-width:1px;stroke-linecap:butt;stroke-linejoin:miter;stroke-opacity:1" d="M 671.721,11.37 686.461,11.37 z" id="boundary" inkscape:connector-curvature="0" />
	<path style="fill:none;stroke:red;stroke-width:1px;stroke-linecap:butt;stroke-linejoin:miter;stroke-opacity:1" d="M 686.461,11.37 701.201,11.37 z" id="boundary" inkscape:connector-curvature="0" />
	<path style="fill:none;stroke:red;stroke-width:1px;stroke-linecap:butt;stroke-linejoin:miter;stroke-opacity:1" d="M 701.201,11.37 715.941,11.37 z" id="boundary" inkscape:connector-curvature="0" />
	<path style="fill:none;stroke:red;stroke-width:1px;stroke-linecap:butt;stroke-linejoin:miter;stroke-opacity:1" d="M 715.941,11.37 730.681,11.37 z" id="boundary" inkscape:connector-curvature="0" />
	<path style="fill:none;stroke:red;stroke-width:1px;stroke-linecap:butt;stroke-linejoin:miter;stroke-opacity:1" d="M 730.681,11.37 745.421,11.37 z" id="boundary" inkscape:connector-curvature="0" />
	<path style="fill:none;stroke:red;stroke-width:1px;stroke-linecap:butt;stroke-linejoin:miter;stroke-opacity:1" d="M 745.421,11.37 758.686,18.74 z" id="boundary" inkscape:connector-curvature="0" />
	<path style="fill:none;stroke:red;stroke-width:1px;stroke-linecap:butt;stroke-linejoin:miter;stroke-opacity:1" d="M 758.686,18.74 771.952,26.11 z" id="boundary" inkscape:connector-curvature="0" />
	<path style="fill:none;stroke:red;stroke-width:1px;stroke-linecap:butt;stroke-linejoin:miter;stroke-opacity:1" d="M 771.952,26.11 786.692,26.11 z" id="boundary" inkscape:connector-curvature="0" />
	<path style="fill:none;stroke:red;stroke-width:1px;stroke-linecap:butt;stroke-linejoin:miter;stroke-opacity:1" d="M 786.692,26.11 799.958,33.4799 z" id="boundary" inkscape:connector-curvature="0" />
	<path style="fill:none;stroke:red;stroke-width:1px;stroke-linecap:butt;stroke-linejoin:miter;stroke-opacity:1" d="M 799.958,33.4799 814.698,36.4279 z" id="boundary" inkscape:connector-curvature="0" />
	<path style="fill:none;stroke:red;stroke-width:1px;stroke-linecap:butt;stroke-linejoin:miter;stroke-opacity:1" d="M 814.698,36.4279 827.964,43.7979 z" id="boundary" inkscape:connector-curvature="0" />
	<path style="fill:none;stroke:red;stroke-width:1px;stroke-linecap:butt;stroke-linejoin:miter;stroke-opacity:1" d="M 827.964,43.7979 838.282,55.5899 z" id="boundary" inkscape:connector-curvature="0" />
	<path style="fill:none;stroke:red;stroke-width:1px;stroke-linecap:butt;stroke-linejoin:miter;stroke-opacity:1" d="M 838.282,55.5899 853.022,60.0119 z" id="boundary" inkscape:connector-curvature="0" />
	<path style="fill:none;stroke:red;stroke-width:1px;stroke-linecap:butt;stroke-linejoin:miter;stroke-opacity:1" d="M 853.022,60.0119 866.288,67.3819 z" id="boundary" inkscape:connector-curvature="0" />
	<path style="fill:none;stroke:red;stroke-width:1px;stroke-linecap:butt;stroke-linejoin:miter;stroke-opacity:1" d="M 866.288,67.3819 878.08,77.6999 z" id="boundary" inkscape:connector-curvature="0" />
	<path style="fill:none;stroke:red;stroke-width:1px;stroke-linecap:butt;stroke-linejoin:miter;stroke-opacity:1" d="M 878.08,77.6999 888.398,89.4918 z" id="boundary" inkscape:connector-curvature="0" />
	<path style="fill:none;stroke:red;stroke-width:1px;stroke-linecap:butt;stroke-linejoin:miter;stroke-opacity:1" d="M 888.398,89.4918 900.19,99.8098 z" id="boundary" inkscape:connector-curvature="0" />
	<path style="fill:none;stroke:red;stroke-width:1px;stroke-linecap:butt;stroke-linejoin:miter;stroke-opacity:1" d="M 900.19,99.8098 910.508,111.602 z" id="boundary" inkscape:connector-curvature="0" />
	<path style="fill:none;stroke:red;stroke-width:1px;stroke-linecap:butt;stroke-linejoin:miter;stroke-opacity:1" d="M 910.508,111.602 917.878,124.868 z" id="boundary" inkscape:connector-curvature="0" />
	<path style="fill:none;stroke:red;stroke-width:1px;stroke-linecap:butt;stroke-linejoin:miter;stroke-opacity:1" d="M 917.878,124.868 926.722,136.66 z" id="boundary" inkscape:connector-curvature="0" />
	<path style="fill:none;stroke:red;stroke-width:1px;stroke-linecap:butt;stroke-linejoin:miter;stroke-opacity:1" d="M 926.722,136.66 938.514,145.504 z" id="boundary" inkscape:connector-curvature="0" />
	<path style="fill:none;stroke:red;stroke-width:1px;stroke-linecap:butt;stroke-linejoin:miter;stroke-opacity:1" d="M 938.514,145.504 951.78,152.874 z" id="boundary" inkscape:connector-curvature="0" />
	<path style="fill:none;stroke:red;stroke-width:1px;stroke-linecap:butt;stroke-linejoin:miter;stroke-opacity:1" d="M 951.78,152.874 963.572,163.192 z" id="boundary" inkscape:connector-curvature="0" />
	<path style="fill:none;stroke:red;stroke-width:1px;stroke-linecap:butt;stroke-linejoin:miter;stroke-opacity:1" d="M 963.572,163.192 975.364,173.51 z" id="boundary" inkscape:connector-curvature="0" />
	<path style="fill:none;stroke:red;stroke-width:1px;stroke-linecap:butt;stroke-linejoin:miter;stroke-opacity:1" d="M 975.364,173.51 985.682,185.302 z" id="boundary" inkscape:connector-curvature="0" />
	<path style="fill:none;stroke:red;stroke-width:1px;stroke-linecap:butt;stroke-linejoin:miter;stroke-opacity:1" d="M 985.682,185.302 996,197.094 z" id="boundary" inkscape:connector-curvature="0" />
	<circle cx="4" cy="200.042" r="4" fill="#0" id="circle0"/>
	<circle cx="4" cy="214.782" r="4" fill="#0" id="circle1"/>
	<circle cx="4" cy="229.522" r="4" fill="#0" id="circle2"/>
	<circle cx="4" cy="244.262" r="4" fill="#0" id="circle3"/>
	<circle cx="11.37" cy="257.527" r="4" fill="#0" id="circle4"/>
	<circle cx="15.792" cy="188.25" r="4" fill="#0" id="circle5"/>
	<circle cx="18.74" cy="270.793" r="4" fill="#0" id="circle6"/>
	<circle cx="27.584" cy="176.458" r="4" fill="#0" id="circle7"/>
	<circle cx="27.584" cy="282.585" r="4" fill="#0" id="circle8"/>
	<circle cx="39.3759" cy="166.14" r="4" fill="#0" id="circle9"/>
	<circle cx="39.3759" cy="292.903" r="4" fill="#0" id="circle10"/>
	<circle cx="52.6419" cy="158.77" r="4" fill="#0" id="circle11"/>
	<circle cx="52.6419" cy="300.273" r="4" fill="#0" id="circle12"/>
	<circle cx="67.3819" cy="158.77" r="4" fill="#0" id="circle13"/>
	<circle cx="67.3819" cy="300.273" r="4" fill="#0" id="circle14"/>
	<circle cx="80.6478" cy="166.14" r="4" fill="#0" id="circle15"/>
	<circle cx="82.1218" cy="300.273" r="4" fill="#0" id="circle16"/>
	<circle cx="95.3878" cy="166.14" r="4" fill="#0" id="circle17"/>
	<circle cx="96.8618" cy="300.273" r="4" fill="#0" id="circle18"/>
	<circle cx="108.654" cy="173.51" r="4" fill="#0" id="circle19"/>
	<circle cx="110.128" cy="292.903" r="4" fill="#0" id="circle20"/>
	<circle cx="123.394" cy="173.51" r="4" fill="#0" id="circle21"/>
	<circle cx="123.394" cy="285.533" r="4" fill="#0" id="circle22"/>
	<circle cx="138.134" cy="173.51" r="4" fill="#0" id="circle23"/>
	<circle cx="138.134" cy="285.533" r="4" fill="#0" id="circle24"/>
	<circle cx="152.874" cy="173.51" r="4" fill="#0" id="circle25"/>
	<circle cx="152.874" cy="285.533" r="4" fill="#0" id="circle26"/>
	<circle cx="167.614" cy="173.51" r="4" fill="#0" id="circle27"/>
	<circle cx="167.614" cy="278.163" r="4" fill="#0" id="circle28"/>
	<circle cx="180.88" cy="180.88" r="4" fill="#0" id="circle29"/>
	<circle cx="182.354" cy="278.163" r="4" fill="#0" id="circle30"/>
	<circle cx="195.62" cy="183.828" r="4" fill="#0" id="circle31"/>
	<circle cx="197.094" cy="278.163" r="4" fill="#0" id="circle32"/>
	<circle cx="210.36" cy="188.25" r="4" fill="#0" id="circle33"/>
	<circle cx="211.834" cy="270.793" r="4" fill="#0" id="circle34"/>
	<circle cx="225.1" cy="188.25" r="4" fill="#0" id="circle35"/>
	<circle cx="226.574" cy="263.423" r="4" fill="#0" id="circle36"/>
	<circle cx="239.84" cy="188.25" r="4" fill="#0" id="circle37"/>
	<circle cx="241.314" cy="263.423" r="4" fill="#0" id="circle38"/>
	<circle cx="254.579" cy="188.25" r="4" fill="#0" id="circle39"/>
	<circle cx="254.579" cy="256.053" r="4" fill="#0" id="circle40"/>
	<circle cx="267.845" cy="263.423" r="4" fill="#0" id="circle41"/>
	<circle cx="269.319" cy="188.25" r="4" fill="#0" id="circle42"/>
	<circle cx="281.111" cy="270.793" r="4" fill="#0" id="circle43"/>
	<circle cx="282.585" cy="180.88" r="4" fill="#0" id="circle44"/>
	<circle cx="292.903" cy="281.111" r="4" fill="#0" id="circle45"/>
	<circle cx="295.851" cy="173.51" r="4" fill="#0" id="circle46"/>
	<circle cx="303.221" cy="292.903" r="4" fill="#0" id="circle47"/>
	<circle cx="307.643" cy="161.718" r="4" fill="#0" id="circle48"/>
	<circle cx="313.539" cy="304.695" r="4" fill="#0" id="circle49"/>
	<circle cx="319.435" cy="151.4" r="4" fill="#0" id="circle50"/>
	<circle cx="320.909" cy="317.961" r="4" fill="#0" id="circle51"/>
	<circle cx="329.753" cy="139.608" r="4" fill="#0" id="circle52"/>
	<circle cx="332.701" cy="328.279" r="4" fill="#0" id="circle53"/>
	<circle cx="335.649" cy="104.232" r="4" fill="#0" id="circle54"/>
	<circle cx="335.649" cy="118.972" r="4" fill="#0" id="circle55"/>
	<circle cx="344.493" cy="337.123" r="4" fill="#0" id="circle56"/>
	<circle cx="347.441" cy="92.4398" r="4" fill="#0" id="circle57"/>
	<circle cx="357.759" cy="344.493" r="4" fill="#0" id="circle58"/>
	<circle cx="359.233" cy="80.6478" r="4" fill="#0" id="circle59"/>
	<circle cx="371.025" cy="351.863" r="4" fill="#0" id="circle60"/>
	<circle cx="373.973" cy="73.2779" r="4" fill="#0" id="circle61"/>
	<circle cx="384.291" cy="359.233" r="4" fill="#0" id="circle62"/>
	<circle cx="385.765" cy="62.9599" r="4" fill="#0" id="circle63"/>
	<circle cx="399.031" cy="55.5899" r="4" fill="#0" id="circle64"/>
	<circle cx="399.031" cy="359.233" r="4" fill="#0" id="circle65"/>
	<circle cx="410.823" cy="43.7979" r="4" fill="#0" id="circle66"/>
	<circle cx="412.297" cy="366.603" r="4" fill="#0" id="circle67"/>
	<circle cx="425.563" cy="36.4279" r="4" fill="#0" id="circle68"/>
	<circle cx="427.037" cy="366.603" r="4" fill="#0" id="circle69"/>
	<circle cx="440.303" cy="29.0579" r="4" fill="#0" id="circle70"/>
	<circle cx="441.777" cy="371.025" r="4" fill="#0" id="circle71"/>
	<circle cx="455.043" cy="21.688" r="4" fill="#0" id="circle72"/>
	<circle cx="455.043" cy="378.395" r="4" fill="#0" id="circle73"/>
	<circle cx="466.835" cy="388.713" r="4" fill="#0" id="circle74"/>
	<circle cx="469.783" cy="14.318" r="4" fill="#0" id="circle75"/>
	<circle cx="480.101" cy="396.083" r="4" fill="#0" id="circle76"/>
	<circle cx="481.575" cy="4" r="4" fill="#0" id="circle77"/>
	<circle cx="494.841" cy="401.979" r="4" fill="#0" id="circle78"/>
	<circle cx="496.315" cy="4" r="4" fill="#0" id="circle79"/>
	<circle cx="505.159" cy="413.771" r="4" fill="#0" id="circle80"/>
	<circle cx="511.055" cy="4" r="4" fill="#0" id="circle81"/>
	<circle cx="519.899" cy="418.193" r="4" fill="#0" id="circle82"/>
	<circle cx="525.795" cy="4" r="4" fill="#0" id="circle83"/>
	<circle cx="528.743" cy="429.985" r="4" fill="#0" id="circle84"/>
	<circle cx="540.535" cy="4" r="4" fill="#0" id="circle85"/>
	<circle cx="543.483" cy="432.933" r="4" fill="#0" id="circle86"/>
	<circle cx="555.275" cy="4" r="4" fill="#0" id="circle87"/>
	<circle cx="558.223" cy="432.933" r="4" fill="#0" id="circle88"/>
	<circle cx="570.015" cy="4" r="4" fill="#0" id="circle89"/>
	<circle cx="572.963" cy="432.933" r="4" fill="#0" id="circle90"/>
	<circle cx="584.755" cy="4" r="4" fill="#0" id="circle91"/>
	<circle cx="587.703" cy="432.933" r="4" fill="#0" id="circle92"/>
	<circle cx="599.495" cy="4" r="4" fill="#0" id="circle93"/>
	<circle cx="602.443" cy="432.933" r="4" fill="#0" id="circle94"/>
	<circle cx="614.235" cy="4" r="4" fill="#0" id="circle95"/>
	<circle cx="617.183" cy="432.933" r="4" fill="#0" id="circle96"/>
	<circle cx="627.501" cy="11.37" r="4" fill="#0" id="circle97"/>
	<circle cx="631.923" cy="432.933" r="4" fill="#0" id="circle98"/>
	<circle cx="642.241" cy="11.37" r="4" fill="#0" id="circle99"/>
	<circle cx="646.663" cy="432.933" r="4" fill="#0" id="circle100"/>
	<circle cx="656.981" cy="11.37" r="4" fill="#0" id="circle101"/>
	<circle cx="661.403" cy="432.933" r="4" fill="#0" id="circle102"/>
	<circle cx="671.721" cy="11.37" r="4" fill="#0" id="circle103"/>
	<circle cx="676.143" cy="432.933" r="4" fill="#0" id="circle104"/>
	<circle cx="686.461" cy="11.37" r="4" fill="#0" id="circle105"/>
	<circle cx="690.883" cy="432.933" r="4" fill="#0" id="circle106"/>
	<circle cx="701.201" cy="11.37" r="4" fill="#0" id="circle107"/>
	<circle cx="704.149" cy="425.563" r="4" fill="#0" id="circle108"/>
	<circle cx="715.941" cy="11.37" r="4" fill="#0" id="circle109"/>
	<circle cx="717.415" cy="418.193" r="4" fill="#0" id="circle110"/>
	<circle cx="730.681" cy="11.37" r="4" fill="#0" id="circle111"/>
	<circle cx="732.155" cy="415.245" r="4" fill="#0" id="circle112"/>
	<circle cx="745.421" cy="11.37" r="4" fill="#0" id="circle113"/>
	<circle cx="746.895" cy="407.875" r="4" fill="#0" id="circle114"/>
	<circle cx="758.686" cy="18.74" r="4" fill="#0" id="circle115"/>
	<circle cx="761.634" cy="400.505" r="4" fill="#0" id="circle116"/>
	<circle cx="771.952" cy="26.11" r="4" fill="#0" id="circle117"/>
	<circle cx="771.952" cy="388.713" r="4" fill="#0" id="circle118"/>
	<circle cx="783.744" cy="378.395" r="4" fill="#0" id="circle119"/>
	<circle cx="786.692" cy="26.11" r="4" fill="#0" id="circle120"/>
	<circle cx="786.692" cy="351.863" r="4" fill="#0" id="circle121"/>
	<circle cx="799.958" cy="33.4799" r="4" fill="#0" id="circle122"/>
	<circle cx="799.958" cy="344.493" r="4" fill="#0" id="circle123"/>
	<circle cx="813.224" cy="337.123" r="4" fill="#0" id="circle124"/>
	<circle cx="814.698" cy="36.4279" r="4" fill="#0" id="circle125"/>
	<circle cx="826.49" cy="344.493" r="4" fill="#0" id="circle126"/>
	<circle cx="827.964" cy="43.7979" r="4" fill="#0" id="circle127"/>
	<circle cx="838.282" cy="55.5899" r="4" fill="#0" id="circle128"/>
	<circle cx="841.23" cy="343.019" r="4" fill="#0" id="circle129"/>
	<circle cx="853.022" cy="60.0119" r="4" fill="#0" id="circle130"/>
	<circle cx="853.022" cy="322.383" r="4" fill="#0" id="circle131"/>
	<circle cx="864.814" cy="312.065" r="4" fill="#0" id="circle132"/>
	<circle cx="866.288" cy="67.3819" r="4" fill="#0" id="circle133"/>
	<circle cx="875.132" cy="300.273" r="4" fill="#0" id="circle134"/>
	<circle cx="878.08" cy="77.6999" r="4" fill="#0" id="circle135"/>
	<circle cx="888.398" cy="89.4918" r="4" fill="#0" id="circle136"/>
	<circle cx="888.398" cy="292.903" r="4" fill="#0" id="circle137"/>
	<circle cx="900.19" cy="99.8098" r="4" fill="#0" id="circle138"/>
	<circle cx="901.664" cy="285.533" r="4" fill="#0" id="circle139"/>
	<circle cx="910.508" cy="111.602" r="4" fill="#0" id="circle140"/>
	<circle cx="914.93" cy="278.163" r="4" fill="#0" id="circle141"/>
	<circle cx="917.878" cy="124.868" r="4" fill="#0" id="circle142"/>
	<circle cx="926.722" cy="136.66" r="4" fill="#0" id="circle143"/>
	<circle cx="929.67" cy="276.689" r="4" fill="#0" id="circle144"/>
	<circle cx="938.514" cy="145.504" r="4" fill="#0" id="circle145"/>
	<circle cx="941.462" cy="263.423" r="4" fill="#0" id="circle146"/>
	<circle cx="951.78" cy="152.874" r="4" fill="#0" id="circle147"/>
	<circle cx="956.202" cy="256.053" r="4" fill="#0" id="circle148"/>
	<circle cx="963.572" cy="163.192" r="4" fill="#0" id="circle149"/>
	<circle cx="967.994" cy="245.736" r="4" fill="#0" id="circle150"/>
	<circle cx="975.364" cy="173.51" r="4" fill="#0" id="circle151"/>
	<circle cx="982.734" cy="238.366" r="4" fill="#0" id="circle152"/>
	<circle cx="985.682" cy="185.302" r="4" fill="#0" id="circle153"/>
	<circle cx="993.052" cy="219.204" r="4" fill="#0" id="circle154"/>
	<circle cx="996" cy="197.094" r="4" fill="#0" id="circle155"/>
	</g>
</svg>