<?xml version="1.0" encoding="UTF-8" standalone="no"?>
<!-- Created with CurveBenchmark -->
<svg
	xmlns:dc="http://purl.org/dc/elements/1.1/"
	xmlns:cc="http://creativecommons.org/ns#"
	xmlns:rdf="http://www.w3.org/1999/02/22-rdf-syntax-ns#"
	xmlns:svg="http://www.w3.org/2000/svg"
	xmlns="http://www.w3.org/2000/svg"
	xmlns:sodipodi="http://sodipodi.sourceforge.net/DTD/sodipodi-0.dtd"
	xmlns:inkscape="http://www.inkscape.org/namespaces/inkscape"
	width="1000"
	height="1000"
	id="svg2"
	version="1.1"
	sodipodi:docname="manifold/connect2d-woodenspoonbinary27.png.txt">
<defs
	id="defs4" />
<metadata
	id="metadata7">
	<rdf:RDF>
		<cc:Work
			rdf:about="">
			<dc:format>image/svg+xml</dc:format>
			<dc:type
				rdf:resource="http://purl.org/dc/dcmitype/StillImage" />
			<dc:title></dc:title>
		</cc:Work>
	</rdf:RDF>
</metadata>
<g
	inkscape:label="Layer 1"
	inkscape:groupmode="layer"
	id="layer1">
	<path style="fill:none;stroke:red;stroke-width:1px;stroke-linecap:butt;stroke-linejoin:miter;stroke-opacity:1" d="M 996,93.2656 993.84,100.464 z" id="boundary" inkscape:connector-curvature="0" />
	<path style="fill:none;stroke:red;stroke-width:1px;stroke-linecap:butt;stroke-linejoin:miter;stroke-opacity:1" d="M 993.84,100.464 990.961,107.663 z" id="boundary" inkscape:connector-curvature="0" />
	<path style="fill:none;stroke:red;stroke-width:1px;stroke-linecap:butt;stroke-linejoin:miter;stroke-opacity:1" d="M 990.961,107.663 987.361,114.862 z" id="boundary" inkscape:connector-curvature="0" />
	<path style="fill:none;stroke:red;stroke-width:1px;stroke-linecap:butt;stroke-linejoin:miter;stroke-opacity:1" d="M 987.361,114.862 983.762,122.061 z" id="boundary" inkscape:connector-curvature="0" />
	<path style="fill:none;stroke:red;stroke-width:1px;stroke-linecap:butt;stroke-linejoin:miter;stroke-opacity:1" d="M 983.762,122.061 978.003,128.54 z" id="boundary" inkscape:connector-curvature="0" />
	<path style="fill:none;stroke:red;stroke-width:1px;stroke-linecap:butt;stroke-linejoin:miter;stroke-opacity:1" d="M 978.003,128.54 972.244,134.299 z" id="boundary" inkscape:connector-curvature="0" />
	<path style="fill:none;stroke:red;stroke-width:1px;stroke-linecap:butt;stroke-linejoin:miter;stroke-opacity:1" d="M 972.244,134.299 966.485,140.058 z" id="boundary" inkscape:connector-curvature="0" />
	<path style="fill:none;stroke:red;stroke-width:1px;stroke-linecap:butt;stroke-linejoin:miter;stroke-opacity:1" d="M 966.485,140.058 960.726,144.377 z" id="boundary" inkscape:connector-curvature="0" />
	<path style="fill:none;stroke:red;stroke-width:1px;stroke-linecap:butt;stroke-linejoin:miter;stroke-opacity:1" d="M 960.726,144.377 954.967,148.697 z" id="boundary" inkscape:connector-curvature="0" />
	<path style="fill:none;stroke:red;stroke-width:1px;stroke-linecap:butt;stroke-linejoin:miter;stroke-opacity:1" d="M 954.967,148.697 949.208,153.016 z" id="boundary" inkscape:connector-curvature="0" />
	<path style="fill:none;stroke:red;stroke-width:1px;stroke-linecap:butt;stroke-linejoin:miter;stroke-opacity:1" d="M 949.208,153.016 942.729,156.615 z" id="boundary" inkscape:connector-curvature="0" />
	<path style="fill:none;stroke:red;stroke-width:1px;stroke-linecap:butt;stroke-linejoin:miter;stroke-opacity:1" d="M 942.729,156.615 936.25,160.935 z" id="boundary" inkscape:connector-curvature="0" />
	<path style="fill:none;stroke:red;stroke-width:1px;stroke-linecap:butt;stroke-linejoin:miter;stroke-opacity:1" d="M 936.25,160.935 929.771,165.254 z" id="boundary" inkscape:connector-curvature="0" />
	<path style="fill:none;stroke:red;stroke-width:1px;stroke-linecap:butt;stroke-linejoin:miter;stroke-opacity:1" d="M 929.771,165.254 922.572,166.694 z" id="boundary" inkscape:connector-curvature="0" />
	<path style="fill:none;stroke:red;stroke-width:1px;stroke-linecap:butt;stroke-linejoin:miter;stroke-opacity:1" d="M 922.572,166.694 915.373,168.853 z" id="boundary" inkscape:connector-curvature="0" />
	<path style="fill:none;stroke:red;stroke-width:1px;stroke-linecap:butt;stroke-linejoin:miter;stroke-opacity:1" d="M 915.373,168.853 908.174,171.013 z" id="boundary" inkscape:connector-curvature="0" />
	<path style="fill:none;stroke:red;stroke-width:1px;stroke-linecap:butt;stroke-linejoin:miter;stroke-opacity:1" d="M 908.174,171.013 900.975,173.173 z" id="boundary" inkscape:connector-curvature="0" />
	<path style="fill:none;stroke:red;stroke-width:1px;stroke-linecap:butt;stroke-linejoin:miter;stroke-opacity:1" d="M 900.975,173.173 893.776,174.612 z" id="boundary" inkscape:connector-curvature="0" />
	<path style="fill:none;stroke:red;stroke-width:1px;stroke-linecap:butt;stroke-linejoin:miter;stroke-opacity:1" d="M 893.776,174.612 886.578,176.052 z" id="boundary" inkscape:connector-curvature="0" />
	<path style="fill:none;stroke:red;stroke-width:1px;stroke-linecap:butt;stroke-linejoin:miter;stroke-opacity:1" d="M 886.578,176.052 879.379,177.492 z" id="boundary" inkscape:connector-curvature="0" />
	<path style="fill:none;stroke:red;stroke-width:1px;stroke-linecap:butt;stroke-linejoin:miter;stroke-opacity:1" d="M 879.379,177.492 872.18,178.212 z" id="boundary" inkscape:connector-curvature="0" />
	<path style="fill:none;stroke:red;stroke-width:1px;stroke-linecap:butt;stroke-linejoin:miter;stroke-opacity:1" d="M 872.18,178.212 864.981,179.652 z" id="boundary" inkscape:connector-curvature="0" />
	<path style="fill:none;stroke:red;stroke-width:1px;stroke-linecap:butt;stroke-linejoin:miter;stroke-opacity:1" d="M 864.981,179.652 857.782,180.372 z" id="boundary" inkscape:connector-curvature="0" />
	<path style="fill:none;stroke:red;stroke-width:1px;stroke-linecap:butt;stroke-linejoin:miter;stroke-opacity:1" d="M 857.782,180.372 850.583,180.372 z" id="boundary" inkscape:connector-curvature="0" />
	<path style="fill:none;stroke:red;stroke-width:1px;stroke-linecap:butt;stroke-linejoin:miter;stroke-opacity:1" d="M 850.583,180.372 843.385,181.091 z" id="boundary" inkscape:connector-curvature="0" />
	<path style="fill:none;stroke:red;stroke-width:1px;stroke-linecap:butt;stroke-linejoin:miter;stroke-opacity:1" d="M 843.385,181.091 836.186,181.091 z" id="boundary" inkscape:connector-curvature="0" />
	<path style="fill:none;stroke:red;stroke-width:1px;stroke-linecap:butt;stroke-linejoin:miter;stroke-opacity:1" d="M 836.186,181.091 828.987,181.091 z" id="boundary" inkscape:connector-curvature="0" />
	<path style="fill:none;stroke:red;stroke-width:1px;stroke-linecap:butt;stroke-linejoin:miter;stroke-opacity:1" d="M 828.987,181.091 821.788,181.091 z" id="boundary" inkscape:connector-curvature="0" />
	<path style="fill:none;stroke:red;stroke-width:1px;stroke-linecap:butt;stroke-linejoin:miter;stroke-opacity:1" d="M 821.788,181.091 814.589,179.652 z" id="boundary" inkscape:connector-curvature="0" />
	<path style="fill:none;stroke:red;stroke-width:1px;stroke-linecap:butt;stroke-linejoin:miter;stroke-opacity:1" d="M 814.589,179.652 807.39,179.652 z" id="boundary" inkscape:connector-curvature="0" />
	<path style="fill:none;stroke:red;stroke-width:1px;stroke-linecap:butt;stroke-linejoin:miter;stroke-opacity:1" d="M 807.39,179.652 800.192,178.212 z" id="boundary" inkscape:connector-curvature="0" />
	<path style="fill:none;stroke:red;stroke-width:1px;stroke-linecap:butt;stroke-linejoin:miter;stroke-opacity:1" d="M 800.192,178.212 792.993,178.212 z" id="boundary" inkscape:connector-curvature="0" />
	<path style="fill:none;stroke:red;stroke-width:1px;stroke-linecap:butt;stroke-linejoin:miter;stroke-opacity:1" d="M 792.993,178.212 785.794,176.772 z" id="boundary" inkscape:connector-curvature="0" />
	<path style="fill:none;stroke:red;stroke-width:1px;stroke-linecap:butt;stroke-linejoin:miter;stroke-opacity:1" d="M 785.794,176.772 778.595,176.052 z" id="boundary" inkscape:connector-curvature="0" />
	<path style="fill:none;stroke:red;stroke-width:1px;stroke-linecap:butt;stroke-linejoin:miter;stroke-opacity:1" d="M 778.595,176.052 771.396,174.612 z" id="boundary" inkscape:connector-curvature="0" />
	<path style="fill:none;stroke:red;stroke-width:1px;stroke-linecap:butt;stroke-linejoin:miter;stroke-opacity:1" d="M 771.396,174.612 764.197,172.453 z" id="boundary" inkscape:connector-curvature="0" />
	<path style="fill:none;stroke:red;stroke-width:1px;stroke-linecap:butt;stroke-linejoin:miter;stroke-opacity:1" d="M 764.197,172.453 756.999,171.733 z" id="boundary" inkscape:connector-curvature="0" />
	<path style="fill:none;stroke:red;stroke-width:1px;stroke-linecap:butt;stroke-linejoin:miter;stroke-opacity:1" d="M 756.999,171.733 749.8,171.013 z" id="boundary" inkscape:connector-curvature="0" />
	<path style="fill:none;stroke:red;stroke-width:1px;stroke-linecap:butt;stroke-linejoin:miter;stroke-opacity:1" d="M 749.8,171.013 742.601,168.853 z" id="boundary" inkscape:connector-curvature="0" />
	<path style="fill:none;stroke:red;stroke-width:1px;stroke-linecap:butt;stroke-linejoin:miter;stroke-opacity:1" d="M 742.601,168.853 735.402,167.414 z" id="boundary" inkscape:connector-curvature="0" />
	<path style="fill:none;stroke:red;stroke-width:1px;stroke-linecap:butt;stroke-linejoin:miter;stroke-opacity:1" d="M 735.402,167.414 728.203,165.254 z" id="boundary" inkscape:connector-curvature="0" />
	<path style="fill:none;stroke:red;stroke-width:1px;stroke-linecap:butt;stroke-linejoin:miter;stroke-opacity:1" d="M 728.203,165.254 721.004,164.534 z" id="boundary" inkscape:connector-curvature="0" />
	<path style="fill:none;stroke:red;stroke-width:1px;stroke-linecap:butt;stroke-linejoin:miter;stroke-opacity:1" d="M 721.004,164.534 713.806,162.374 z" id="boundary" inkscape:connector-curvature="0" />
	<path style="fill:none;stroke:red;stroke-width:1px;stroke-linecap:butt;stroke-linejoin:miter;stroke-opacity:1" d="M 713.806,162.374 706.607,160.215 z" id="boundary" inkscape:connector-curvature="0" />
	<path style="fill:none;stroke:red;stroke-width:1px;stroke-linecap:butt;stroke-linejoin:miter;stroke-opacity:1" d="M 706.607,160.215 699.408,159.495 z" id="boundary" inkscape:connector-curvature="0" />
	<path style="fill:none;stroke:red;stroke-width:1px;stroke-linecap:butt;stroke-linejoin:miter;stroke-opacity:1" d="M 699.408,159.495 692.209,157.335 z" id="boundary" inkscape:connector-curvature="0" />
	<path style="fill:none;stroke:red;stroke-width:1px;stroke-linecap:butt;stroke-linejoin:miter;stroke-opacity:1" d="M 692.209,157.335 685.01,156.615 z" id="boundary" inkscape:connector-curvature="0" />
	<path style="fill:none;stroke:red;stroke-width:1px;stroke-linecap:butt;stroke-linejoin:miter;stroke-opacity:1" d="M 685.01,156.615 677.811,155.176 z" id="boundary" inkscape:connector-curvature="0" />
	<path style="fill:none;stroke:red;stroke-width:1px;stroke-linecap:butt;stroke-linejoin:miter;stroke-opacity:1" d="M 677.811,155.176 670.612,153.736 z" id="boundary" inkscape:connector-curvature="0" />
	<path style="fill:none;stroke:red;stroke-width:1px;stroke-linecap:butt;stroke-linejoin:miter;stroke-opacity:1" d="M 670.612,153.736 663.414,153.736 z" id="boundary" inkscape:connector-curvature="0" />
	<path style="fill:none;stroke:red;stroke-width:1px;stroke-linecap:butt;stroke-linejoin:miter;stroke-opacity:1" d="M 663.414,153.736 656.215,153.736 z" id="boundary" inkscape:connector-curvature="0" />
	<path style="fill:none;stroke:red;stroke-width:1px;stroke-linecap:butt;stroke-linejoin:miter;stroke-opacity:1" d="M 656.215,153.736 649.016,153.016 z" id="boundary" inkscape:connector-curvature="0" />
	<path style="fill:none;stroke:red;stroke-width:1px;stroke-linecap:butt;stroke-linejoin:miter;stroke-opacity:1" d="M 649.016,153.016 641.817,153.016 z" id="boundary" inkscape:connector-curvature="0" />
	<path style="fill:none;stroke:red;stroke-width:1px;stroke-linecap:butt;stroke-linejoin:miter;stroke-opacity:1" d="M 641.817,153.016 634.618,153.016 z" id="boundary" inkscape:connector-curvature="0" />
	<path style="fill:none;stroke:red;stroke-width:1px;stroke-linecap:butt;stroke-linejoin:miter;stroke-opacity:1" d="M 634.618,153.016 627.419,153.016 z" id="boundary" inkscape:connector-curvature="0" />
	<path style="fill:none;stroke:red;stroke-width:1px;stroke-linecap:butt;stroke-linejoin:miter;stroke-opacity:1" d="M 627.419,153.016 620.221,153.016 z" id="boundary" inkscape:connector-curvature="0" />
	<path style="fill:none;stroke:red;stroke-width:1px;stroke-linecap:butt;stroke-linejoin:miter;stroke-opacity:1" d="M 620.221,153.016 613.022,153.736 z" id="boundary" inkscape:connector-curvature="0" />
	<path style="fill:none;stroke:red;stroke-width:1px;stroke-linecap:butt;stroke-linejoin:miter;stroke-opacity:1" d="M 613.022,153.736 605.823,153.736 z" id="boundary" inkscape:connector-curvature="0" />
	<path style="fill:none;stroke:red;stroke-width:1px;stroke-linecap:butt;stroke-linejoin:miter;stroke-opacity:1" d="M 605.823,153.736 598.624,155.896 z" id="boundary" inkscape:connector-curvature="0" />
	<path style="fill:none;stroke:red;stroke-width:1px;stroke-linecap:butt;stroke-linejoin:miter;stroke-opacity:1" d="M 598.624,155.896 591.425,157.335 z" id="boundary" inkscape:connector-curvature="0" />
	<path style="fill:none;stroke:red;stroke-width:1px;stroke-linecap:butt;stroke-linejoin:miter;stroke-opacity:1" d="M 591.425,157.335 584.226,157.335 z" id="boundary" inkscape:connector-curvature="0" />
	<path style="fill:none;stroke:red;stroke-width:1px;stroke-linecap:butt;stroke-linejoin:miter;stroke-opacity:1" d="M 584.226,157.335 577.028,158.055 z" id="boundary" inkscape:connector-curvature="0" />
	<path style="fill:none;stroke:red;stroke-width:1px;stroke-linecap:butt;stroke-linejoin:miter;stroke-opacity:1" d="M 577.028,158.055 569.829,158.775 z" id="boundary" inkscape:connector-curvature="0" />
	<path style="fill:none;stroke:red;stroke-width:1px;stroke-linecap:butt;stroke-linejoin:miter;stroke-opacity:1" d="M 569.829,158.775 562.63,160.215 z" id="boundary" inkscape:connector-curvature="0" />
	<path style="fill:none;stroke:red;stroke-width:1px;stroke-linecap:butt;stroke-linejoin:miter;stroke-opacity:1" d="M 562.63,160.215 555.431,160.935 z" id="boundary" inkscape:connector-curvature="0" />
	<path style="fill:none;stroke:red;stroke-width:1px;stroke-linecap:butt;stroke-linejoin:miter;stroke-opacity:1" d="M 555.431,160.935 548.232,163.094 z" id="boundary" inkscape:connector-curvature="0" />
	<path style="fill:none;stroke:red;stroke-width:1px;stroke-linecap:butt;stroke-linejoin:miter;stroke-opacity:1" d="M 548.232,163.094 541.033,163.094 z" id="boundary" inkscape:connector-curvature="0" />
	<path style="fill:none;stroke:red;stroke-width:1px;stroke-linecap:butt;stroke-linejoin:miter;stroke-opacity:1" d="M 541.033,163.094 533.835,163.094 z" id="boundary" inkscape:connector-curvature="0" />
	<path style="fill:none;stroke:red;stroke-width:1px;stroke-linecap:butt;stroke-linejoin:miter;stroke-opacity:1" d="M 533.835,163.094 526.636,165.254 z" id="boundary" inkscape:connector-curvature="0" />
	<path style="fill:none;stroke:red;stroke-width:1px;stroke-linecap:butt;stroke-linejoin:miter;stroke-opacity:1" d="M 526.636,165.254 519.437,165.974 z" id="boundary" inkscape:connector-curvature="0" />
	<path style="fill:none;stroke:red;stroke-width:1px;stroke-linecap:butt;stroke-linejoin:miter;stroke-opacity:1" d="M 519.437,165.974 512.238,167.414 z" id="boundary" inkscape:connector-curvature="0" />
	<path style="fill:none;stroke:red;stroke-width:1px;stroke-linecap:butt;stroke-linejoin:miter;stroke-opacity:1" d="M 512.238,167.414 505.039,168.134 z" id="boundary" inkscape:connector-curvature="0" />
	<path style="fill:none;stroke:red;stroke-width:1px;stroke-linecap:butt;stroke-linejoin:miter;stroke-opacity:1" d="M 505.039,168.134 497.84,169.573 z" id="boundary" inkscape:connector-curvature="0" />
	<path style="fill:none;stroke:red;stroke-width:1px;stroke-linecap:butt;stroke-linejoin:miter;stroke-opacity:1" d="M 497.84,169.573 490.642,171.733 z" id="boundary" inkscape:connector-curvature="0" />
	<path style="fill:none;stroke:red;stroke-width:1px;stroke-linecap:butt;stroke-linejoin:miter;stroke-opacity:1" d="M 490.642,171.733 483.443,172.453 z" id="boundary" inkscape:connector-curvature="0" />
	<path style="fill:none;stroke:red;stroke-width:1px;stroke-linecap:butt;stroke-linejoin:miter;stroke-opacity:1" d="M 483.443,172.453 476.244,174.612 z" id="boundary" inkscape:connector-curvature="0" />
	<path style="fill:none;stroke:red;stroke-width:1px;stroke-linecap:butt;stroke-linejoin:miter;stroke-opacity:1" d="M 476.244,174.612 469.045,175.332 z" id="boundary" inkscape:connector-curvature="0" />
	<path style="fill:none;stroke:red;stroke-width:1px;stroke-linecap:butt;stroke-linejoin:miter;stroke-opacity:1" d="M 469.045,175.332 461.846,175.332 z" id="boundary" inkscape:connector-curvature="0" />
	<path style="fill:none;stroke:red;stroke-width:1px;stroke-linecap:butt;stroke-linejoin:miter;stroke-opacity:1" d="M 461.846,175.332 454.647,176.772 z" id="boundary" inkscape:connector-curvature="0" />
	<path style="fill:none;stroke:red;stroke-width:1px;stroke-linecap:butt;stroke-linejoin:miter;stroke-opacity:1" d="M 454.647,176.772 447.448,178.212 z" id="boundary" inkscape:connector-curvature="0" />
	<path style="fill:none;stroke:red;stroke-width:1px;stroke-linecap:butt;stroke-linejoin:miter;stroke-opacity:1" d="M 447.448,178.212 440.25,178.932 z" id="boundary" inkscape:connector-curvature="0" />
	<path style="fill:none;stroke:red;stroke-width:1px;stroke-linecap:butt;stroke-linejoin:miter;stroke-opacity:1" d="M 440.25,178.932 433.051,179.652 z" id="boundary" inkscape:connector-curvature="0" />
	<path style="fill:none;stroke:red;stroke-width:1px;stroke-linecap:butt;stroke-linejoin:miter;stroke-opacity:1" d="M 433.051,179.652 425.852,181.091 z" id="boundary" inkscape:connector-curvature="0" />
	<path style="fill:none;stroke:red;stroke-width:1px;stroke-linecap:butt;stroke-linejoin:miter;stroke-opacity:1" d="M 425.852,181.091 418.653,182.531 z" id="boundary" inkscape:connector-curvature="0" />
	<path style="fill:none;stroke:red;stroke-width:1px;stroke-linecap:butt;stroke-linejoin:miter;stroke-opacity:1" d="M 418.653,182.531 411.454,183.251 z" id="boundary" inkscape:connector-curvature="0" />
	<path style="fill:none;stroke:red;stroke-width:1px;stroke-linecap:butt;stroke-linejoin:miter;stroke-opacity:1" d="M 411.454,183.251 404.255,184.691 z" id="boundary" inkscape:connector-curvature="0" />
	<path style="fill:none;stroke:red;stroke-width:1px;stroke-linecap:butt;stroke-linejoin:miter;stroke-opacity:1" d="M 404.255,184.691 397.057,185.411 z" id="boundary" inkscape:connector-curvature="0" />
	<path style="fill:none;stroke:red;stroke-width:1px;stroke-linecap:butt;stroke-linejoin:miter;stroke-opacity:1" d="M 397.057,185.411 389.858,185.411 z" id="boundary" inkscape:connector-curvature="0" />
	<path style="fill:none;stroke:red;stroke-width:1px;stroke-linecap:butt;stroke-linejoin:miter;stroke-opacity:1" d="M 389.858,185.411 382.659,187.57 z" id="boundary" inkscape:connector-curvature="0" />
	<path style="fill:none;stroke:red;stroke-width:1px;stroke-linecap:butt;stroke-linejoin:miter;stroke-opacity:1" d="M 382.659,187.57 375.46,188.29 z" id="boundary" inkscape:connector-curvature="0" />
	<path style="fill:none;stroke:red;stroke-width:1px;stroke-linecap:butt;stroke-linejoin:miter;stroke-opacity:1" d="M 375.46,188.29 368.261,189.73 z" id="boundary" inkscape:connector-curvature="0" />
	<path style="fill:none;stroke:red;stroke-width:1px;stroke-linecap:butt;stroke-linejoin:miter;stroke-opacity:1" d="M 368.261,189.73 361.062,191.17 z" id="boundary" inkscape:connector-curvature="0" />
	<path style="fill:none;stroke:red;stroke-width:1px;stroke-linecap:butt;stroke-linejoin:miter;stroke-opacity:1" d="M 361.062,191.17 353.864,192.61 z" id="boundary" inkscape:connector-curvature="0" />
	<path style="fill:none;stroke:red;stroke-width:1px;stroke-linecap:butt;stroke-linejoin:miter;stroke-opacity:1" d="M 353.864,192.61 346.665,193.329 z" id="boundary" inkscape:connector-curvature="0" />
	<path style="fill:none;stroke:red;stroke-width:1px;stroke-linecap:butt;stroke-linejoin:miter;stroke-opacity:1" d="M 346.665,193.329 339.466,194.769 z" id="boundary" inkscape:connector-curvature="0" />
	<path style="fill:none;stroke:red;stroke-width:1px;stroke-linecap:butt;stroke-linejoin:miter;stroke-opacity:1" d="M 339.466,194.769 332.267,195.489 z" id="boundary" inkscape:connector-curvature="0" />
	<path style="fill:none;stroke:red;stroke-width:1px;stroke-linecap:butt;stroke-linejoin:miter;stroke-opacity:1" d="M 332.267,195.489 325.068,196.209 z" id="boundary" inkscape:connector-curvature="0" />
	<path style="fill:none;stroke:red;stroke-width:1px;stroke-linecap:butt;stroke-linejoin:miter;stroke-opacity:1" d="M 325.068,196.209 317.869,197.649 z" id="boundary" inkscape:connector-curvature="0" />
	<path style="fill:none;stroke:red;stroke-width:1px;stroke-linecap:butt;stroke-linejoin:miter;stroke-opacity:1" d="M 317.869,197.649 310.671,199.089 z" id="boundary" inkscape:connector-curvature="0" />
	<path style="fill:none;stroke:red;stroke-width:1px;stroke-linecap:butt;stroke-linejoin:miter;stroke-opacity:1" d="M 310.671,199.089 303.472,200.528 z" id="boundary" inkscape:connector-curvature="0" />
	<path style="fill:none;stroke:red;stroke-width:1px;stroke-linecap:butt;stroke-linejoin:miter;stroke-opacity:1" d="M 303.472,200.528 296.273,201.248 z" id="boundary" inkscape:connector-curvature="0" />
	<path style="fill:none;stroke:red;stroke-width:1px;stroke-linecap:butt;stroke-linejoin:miter;stroke-opacity:1" d="M 296.273,201.248 289.074,201.968 z" id="boundary" inkscape:connector-curvature="0" />
	<path style="fill:none;stroke:red;stroke-width:1px;stroke-linecap:butt;stroke-linejoin:miter;stroke-opacity:1" d="M 289.074,201.968 281.875,202.688 z" id="boundary" inkscape:connector-curvature="0" />
	<path style="fill:none;stroke:red;stroke-width:1px;stroke-linecap:butt;stroke-linejoin:miter;stroke-opacity:1" d="M 281.875,202.688 274.676,204.848 z" id="boundary" inkscape:connector-curvature="0" />
	<path style="fill:none;stroke:red;stroke-width:1px;stroke-linecap:butt;stroke-linejoin:miter;stroke-opacity:1" d="M 274.676,204.848 267.478,206.287 z" id="boundary" inkscape:connector-curvature="0" />
	<path style="fill:none;stroke:red;stroke-width:1px;stroke-linecap:butt;stroke-linejoin:miter;stroke-opacity:1" d="M 267.478,206.287 260.279,207.727 z" id="boundary" inkscape:connector-curvature="0" />
	<path style="fill:none;stroke:red;stroke-width:1px;stroke-linecap:butt;stroke-linejoin:miter;stroke-opacity:1" d="M 260.279,207.727 253.08,209.167 z" id="boundary" inkscape:connector-curvature="0" />
	<path style="fill:none;stroke:red;stroke-width:1px;stroke-linecap:butt;stroke-linejoin:miter;stroke-opacity:1" d="M 253.08,209.167 245.881,210.607 z" id="boundary" inkscape:connector-curvature="0" />
	<path style="fill:none;stroke:red;stroke-width:1px;stroke-linecap:butt;stroke-linejoin:miter;stroke-opacity:1" d="M 245.881,210.607 238.682,212.046 z" id="boundary" inkscape:connector-curvature="0" />
	<path style="fill:none;stroke:red;stroke-width:1px;stroke-linecap:butt;stroke-linejoin:miter;stroke-opacity:1" d="M 238.682,212.046 231.483,212.766 z" id="boundary" inkscape:connector-curvature="0" />
	<path style="fill:none;stroke:red;stroke-width:1px;stroke-linecap:butt;stroke-linejoin:miter;stroke-opacity:1" d="M 231.483,212.766 224.284,214.206 z" id="boundary" inkscape:connector-curvature="0" />
	<path style="fill:none;stroke:red;stroke-width:1px;stroke-linecap:butt;stroke-linejoin:miter;stroke-opacity:1" d="M 224.284,214.206 217.086,214.926 z" id="boundary" inkscape:connector-curvature="0" />
	<path style="fill:none;stroke:red;stroke-width:1px;stroke-linecap:butt;stroke-linejoin:miter;stroke-opacity:1" d="M 217.086,214.926 209.887,215.646 z" id="boundary" inkscape:connector-curvature="0" />
	<path style="fill:none;stroke:red;stroke-width:1px;stroke-linecap:butt;stroke-linejoin:miter;stroke-opacity:1" d="M 209.887,215.646 202.688,216.366 z" id="boundary" inkscape:connector-curvature="0" />
	<path style="fill:none;stroke:red;stroke-width:1px;stroke-linecap:butt;stroke-linejoin:miter;stroke-opacity:1" d="M 202.688,216.366 195.489,217.806 z" id="boundary" inkscape:connector-curvature="0" />
	<path style="fill:none;stroke:red;stroke-width:1px;stroke-linecap:butt;stroke-linejoin:miter;stroke-opacity:1" d="M 195.489,217.806 188.29,219.245 z" id="boundary" inkscape:connector-curvature="0" />
	<path style="fill:none;stroke:red;stroke-width:1px;stroke-linecap:butt;stroke-linejoin:miter;stroke-opacity:1" d="M 188.29,219.245 181.091,219.965 z" id="boundary" inkscape:connector-curvature="0" />
	<path style="fill:none;stroke:red;stroke-width:1px;stroke-linecap:butt;stroke-linejoin:miter;stroke-opacity:1" d="M 181.091,219.965 173.893,221.405 z" id="boundary" inkscape:connector-curvature="0" />
	<path style="fill:none;stroke:red;stroke-width:1px;stroke-linecap:butt;stroke-linejoin:miter;stroke-opacity:1" d="M 173.893,221.405 166.694,223.565 z" id="boundary" inkscape:connector-curvature="0" />
	<path style="fill:none;stroke:red;stroke-width:1px;stroke-linecap:butt;stroke-linejoin:miter;stroke-opacity:1" d="M 166.694,223.565 159.495,225.004 z" id="boundary" inkscape:connector-curvature="0" />
	<path style="fill:none;stroke:red;stroke-width:1px;stroke-linecap:butt;stroke-linejoin:miter;stroke-opacity:1" d="M 159.495,225.004 152.296,225.724 z" id="boundary" inkscape:connector-curvature="0" />
	<path style="fill:none;stroke:red;stroke-width:1px;stroke-linecap:butt;stroke-linejoin:miter;stroke-opacity:1" d="M 152.296,225.724 145.097,226.444 z" id="boundary" inkscape:connector-curvature="0" />
	<path style="fill:none;stroke:red;stroke-width:1px;stroke-linecap:butt;stroke-linejoin:miter;stroke-opacity:1" d="M 145.097,226.444 137.898,227.164 z" id="boundary" inkscape:connector-curvature="0" />
	<path style="fill:none;stroke:red;stroke-width:1px;stroke-linecap:butt;stroke-linejoin:miter;stroke-opacity:1" d="M 137.898,227.164 130.7,227.884 z" id="boundary" inkscape:connector-curvature="0" />
	<path style="fill:none;stroke:red;stroke-width:1px;stroke-linecap:butt;stroke-linejoin:miter;stroke-opacity:1" d="M 130.7,227.884 123.501,229.324 z" id="boundary" inkscape:connector-curvature="0" />
	<path style="fill:none;stroke:red;stroke-width:1px;stroke-linecap:butt;stroke-linejoin:miter;stroke-opacity:1" d="M 123.501,229.324 116.302,230.763 z" id="boundary" inkscape:connector-curvature="0" />
	<path style="fill:none;stroke:red;stroke-width:1px;stroke-linecap:butt;stroke-linejoin:miter;stroke-opacity:1" d="M 116.302,230.763 109.103,232.203 z" id="boundary" inkscape:connector-curvature="0" />
	<path style="fill:none;stroke:red;stroke-width:1px;stroke-linecap:butt;stroke-linejoin:miter;stroke-opacity:1" d="M 109.103,232.203 101.904,232.923 z" id="boundary" inkscape:connector-curvature="0" />
	<path style="fill:none;stroke:red;stroke-width:1px;stroke-linecap:butt;stroke-linejoin:miter;stroke-opacity:1" d="M 101.904,232.923 94.7054,233.643 z" id="boundary" inkscape:connector-curvature="0" />
	<path style="fill:none;stroke:red;stroke-width:1px;stroke-linecap:butt;stroke-linejoin:miter;stroke-opacity:1" d="M 94.7054,233.643 87.5065,235.083 z" id="boundary" inkscape:connector-curvature="0" />
	<path style="fill:none;stroke:red;stroke-width:1px;stroke-linecap:butt;stroke-linejoin:miter;stroke-opacity:1" d="M 87.5065,235.083 80.3077,235.803 z" id="boundary" inkscape:connector-curvature="0" />
	<path style="fill:none;stroke:red;stroke-width:1px;stroke-linecap:butt;stroke-linejoin:miter;stroke-opacity:1" d="M 80.3077,235.803 73.1089,237.962 z" id="boundary" inkscape:connector-curvature="0" />
	<path style="fill:none;stroke:red;stroke-width:1px;stroke-linecap:butt;stroke-linejoin:miter;stroke-opacity:1" d="M 73.1089,237.962 65.91,238.682 z" id="boundary" inkscape:connector-curvature="0" />
	<path style="fill:none;stroke:red;stroke-width:1px;stroke-linecap:butt;stroke-linejoin:miter;stroke-opacity:1" d="M 65.91,238.682 58.7112,239.402 z" id="boundary" inkscape:connector-curvature="0" />
	<path style="fill:none;stroke:red;stroke-width:1px;stroke-linecap:butt;stroke-linejoin:miter;stroke-opacity:1" d="M 58.7112,239.402 51.5123,240.122 z" id="boundary" inkscape:connector-curvature="0" />
	<path style="fill:none;stroke:red;stroke-width:1px;stroke-linecap:butt;stroke-linejoin:miter;stroke-opacity:1" d="M 51.5123,240.122 44.3135,240.842 z" id="boundary" inkscape:connector-curvature="0" />
	<path style="fill:none;stroke:red;stroke-width:1px;stroke-linecap:butt;stroke-linejoin:miter;stroke-opacity:1" d="M 44.3135,240.842 37.1147,242.282 z" id="boundary" inkscape:connector-curvature="0" />
	<path style="fill:none;stroke:red;stroke-width:1px;stroke-linecap:butt;stroke-linejoin:miter;stroke-opacity:1" d="M 37.1147,242.282 29.9158,243.001 z" id="boundary" inkscape:connector-curvature="0" />
	<path style="fill:none;stroke:red;stroke-width:1px;stroke-linecap:butt;stroke-linejoin:miter;stroke-opacity:1" d="M 29.9158,243.001 22.717,243.001 z" id="boundary" inkscape:connector-curvature="0" />
	<path style="fill:none;stroke:red;stroke-width:1px;stroke-linecap:butt;stroke-linejoin:miter;stroke-opacity:1" d="M 22.717,243.001 15.5181,242.282 z" id="boundary" inkscape:connector-curvature="0" />
	<path style="fill:none;stroke:red;stroke-width:1px;stroke-linecap:butt;stroke-linejoin:miter;stroke-opacity:1" d="M 15.5181,242.282 9.75907,237.962 z" id="boundary" inkscape:connector-curvature="0" />
	<path style="fill:none;stroke:red;stroke-width:1px;stroke-linecap:butt;stroke-linejoin:miter;stroke-opacity:1" d="M 9.75907,237.962 5.43977,232.203 z" id="boundary" inkscape:connector-curvature="0" />
	<path style="fill:none;stroke:red;stroke-width:1px;stroke-linecap:butt;stroke-linejoin:miter;stroke-opacity:1" d="M 5.43977,232.203 4,225.004 z" id="boundary" inkscape:connector-curvature="0" />
	<path style="fill:none;stroke:red;stroke-width:1px;stroke-linecap:butt;stroke-linejoin:miter;stroke-opacity:1" d="M 4,225.004 5.43977,214.926 z" id="boundary" inkscape:connector-curvature="0" />
	<path style="fill:none;stroke:red;stroke-width:1px;stroke-linecap:butt;stroke-linejoin:miter;stroke-opacity:1" d="M 5.43977,214.926 9.75907,208.447 z" id="boundary" inkscape:connector-curvature="0" />
	<path style="fill:none;stroke:red;stroke-width:1px;stroke-linecap:butt;stroke-linejoin:miter;stroke-opacity:1" d="M 9.75907,208.447 16.9579,205.567 z" id="boundary" inkscape:connector-curvature="0" />
	<path style="fill:none;stroke:red;stroke-width:1px;stroke-linecap:butt;stroke-linejoin:miter;stroke-opacity:1" d="M 16.9579,205.567 24.1567,204.128 z" id="boundary" inkscape:connector-curvature="0" />
	<path style="fill:none;stroke:red;stroke-width:1px;stroke-linecap:butt;stroke-linejoin:miter;stroke-opacity:1" d="M 24.1567,204.128 31.3556,201.968 z" id="boundary" inkscape:connector-curvature="0" />
	<path style="fill:none;stroke:red;stroke-width:1px;stroke-linecap:butt;stroke-linejoin:miter;stroke-opacity:1" d="M 31.3556,201.968 38.5544,200.528 z" id="boundary" inkscape:connector-curvature="0" />
	<path style="fill:none;stroke:red;stroke-width:1px;stroke-linecap:butt;stroke-linejoin:miter;stroke-opacity:1" d="M 38.5544,200.528 45.7533,199.808 z" id="boundary" inkscape:connector-curvature="0" />
	<path style="fill:none;stroke:red;stroke-width:1px;stroke-linecap:butt;stroke-linejoin:miter;stroke-opacity:1" d="M 45.7533,199.808 52.9521,198.369 z" id="boundary" inkscape:connector-curvature="0" />
	<path style="fill:none;stroke:red;stroke-width:1px;stroke-linecap:butt;stroke-linejoin:miter;stroke-opacity:1" d="M 52.9521,198.369 60.1509,196.929 z" id="boundary" inkscape:connector-curvature="0" />
	<path style="fill:none;stroke:red;stroke-width:1px;stroke-linecap:butt;stroke-linejoin:miter;stroke-opacity:1" d="M 60.1509,196.929 67.3498,196.209 z" id="boundary" inkscape:connector-curvature="0" />
	<path style="fill:none;stroke:red;stroke-width:1px;stroke-linecap:butt;stroke-linejoin:miter;stroke-opacity:1" d="M 67.3498,196.209 74.5486,195.489 z" id="boundary" inkscape:connector-curvature="0" />
	<path style="fill:none;stroke:red;stroke-width:1px;stroke-linecap:butt;stroke-linejoin:miter;stroke-opacity:1" d="M 74.5486,195.489 81.7475,194.049 z" id="boundary" inkscape:connector-curvature="0" />
	<path style="fill:none;stroke:red;stroke-width:1px;stroke-linecap:butt;stroke-linejoin:miter;stroke-opacity:1" d="M 81.7475,194.049 88.9463,193.329 z" id="boundary" inkscape:connector-curvature="0" />
	<path style="fill:none;stroke:red;stroke-width:1px;stroke-linecap:butt;stroke-linejoin:miter;stroke-opacity:1" d="M 88.9463,193.329 96.1451,191.89 z" id="boundary" inkscape:connector-curvature="0" />
	<path style="fill:none;stroke:red;stroke-width:1px;stroke-linecap:butt;stroke-linejoin:miter;stroke-opacity:1" d="M 96.1451,191.89 103.344,190.45 z" id="boundary" inkscape:connector-curvature="0" />
	<path style="fill:none;stroke:red;stroke-width:1px;stroke-linecap:butt;stroke-linejoin:miter;stroke-opacity:1" d="M 103.344,190.45 110.543,189.73 z" id="boundary" inkscape:connector-curvature="0" />
	<path style="fill:none;stroke:red;stroke-width:1px;stroke-linecap:butt;stroke-linejoin:miter;stroke-opacity:1" d="M 110.543,189.73 117.742,189.01 z" id="boundary" inkscape:connector-curvature="0" />
	<path style="fill:none;stroke:red;stroke-width:1px;stroke-linecap:butt;stroke-linejoin:miter;stroke-opacity:1" d="M 117.742,189.01 124.94,187.57 z" id="boundary" inkscape:connector-curvature="0" />
	<path style="fill:none;stroke:red;stroke-width:1px;stroke-linecap:butt;stroke-linejoin:miter;stroke-opacity:1" d="M 124.94,187.57 132.139,186.851 z" id="boundary" inkscape:connector-curvature="0" />
	<path style="fill:none;stroke:red;stroke-width:1px;stroke-linecap:butt;stroke-linejoin:miter;stroke-opacity:1" d="M 132.139,186.851 139.338,185.411 z" id="boundary" inkscape:connector-curvature="0" />
	<path style="fill:none;stroke:red;stroke-width:1px;stroke-linecap:butt;stroke-linejoin:miter;stroke-opacity:1" d="M 139.338,185.411 146.537,183.971 z" id="boundary" inkscape:connector-curvature="0" />
	<path style="fill:none;stroke:red;stroke-width:1px;stroke-linecap:butt;stroke-linejoin:miter;stroke-opacity:1" d="M 146.537,183.971 153.736,183.251 z" id="boundary" inkscape:connector-curvature="0" />
	<path style="fill:none;stroke:red;stroke-width:1px;stroke-linecap:butt;stroke-linejoin:miter;stroke-opacity:1" d="M 153.736,183.251 160.935,181.811 z" id="boundary" inkscape:connector-curvature="0" />
	<path style="fill:none;stroke:red;stroke-width:1px;stroke-linecap:butt;stroke-linejoin:miter;stroke-opacity:1" d="M 160.935,181.811 168.134,181.811 z" id="boundary" inkscape:connector-curvature="0" />
	<path style="fill:none;stroke:red;stroke-width:1px;stroke-linecap:butt;stroke-linejoin:miter;stroke-opacity:1" d="M 168.134,181.811 175.332,180.372 z" id="boundary" inkscape:connector-curvature="0" />
	<path style="fill:none;stroke:red;stroke-width:1px;stroke-linecap:butt;stroke-linejoin:miter;stroke-opacity:1" d="M 175.332,180.372 182.531,178.932 z" id="boundary" inkscape:connector-curvature="0" />
	<path style="fill:none;stroke:red;stroke-width:1px;stroke-linecap:butt;stroke-linejoin:miter;stroke-opacity:1" d="M 182.531,178.932 189.73,178.212 z" id="boundary" inkscape:connector-curvature="0" />
	<path style="fill:none;stroke:red;stroke-width:1px;stroke-linecap:butt;stroke-linejoin:miter;stroke-opacity:1" d="M 189.73,178.212 196.929,176.772 z" id="boundary" inkscape:connector-curvature="0" />
	<path style="fill:none;stroke:red;stroke-width:1px;stroke-linecap:butt;stroke-linejoin:miter;stroke-opacity:1" d="M 196.929,176.772 204.128,175.332 z" id="boundary" inkscape:connector-curvature="0" />
	<path style="fill:none;stroke:red;stroke-width:1px;stroke-linecap:butt;stroke-linejoin:miter;stroke-opacity:1" d="M 204.128,175.332 211.327,173.893 z" id="boundary" inkscape:connector-curvature="0" />
	<path style="fill:none;stroke:red;stroke-width:1px;stroke-linecap:butt;stroke-linejoin:miter;stroke-opacity:1" d="M 211.327,173.893 218.525,173.173 z" id="boundary" inkscape:connector-curvature="0" />
	<path style="fill:none;stroke:red;stroke-width:1px;stroke-linecap:butt;stroke-linejoin:miter;stroke-opacity:1" d="M 218.525,173.173 225.724,172.453 z" id="boundary" inkscape:connector-curvature="0" />
	<path style="fill:none;stroke:red;stroke-width:1px;stroke-linecap:butt;stroke-linejoin:miter;stroke-opacity:1" d="M 225.724,172.453 232.923,171.013 z" id="boundary" inkscape:connector-curvature="0" />
	<path style="fill:none;stroke:red;stroke-width:1px;stroke-linecap:butt;stroke-linejoin:miter;stroke-opacity:1" d="M 232.923,171.013 240.122,170.293 z" id="boundary" inkscape:connector-curvature="0" />
	<path style="fill:none;stroke:red;stroke-width:1px;stroke-linecap:butt;stroke-linejoin:miter;stroke-opacity:1" d="M 240.122,170.293 247.321,168.853 z" id="boundary" inkscape:connector-curvature="0" />
	<path style="fill:none;stroke:red;stroke-width:1px;stroke-linecap:butt;stroke-linejoin:miter;stroke-opacity:1" d="M 247.321,168.853 254.52,168.134 z" id="boundary" inkscape:connector-curvature="0" />
	<path style="fill:none;stroke:red;stroke-width:1px;stroke-linecap:butt;stroke-linejoin:miter;stroke-opacity:1" d="M 254.52,168.134 261.718,166.694 z" id="boundary" inkscape:connector-curvature="0" />
	<path style="fill:none;stroke:red;stroke-width:1px;stroke-linecap:butt;stroke-linejoin:miter;stroke-opacity:1" d="M 261.718,166.694 268.917,166.694 z" id="boundary" inkscape:connector-curvature="0" />
	<path style="fill:none;stroke:red;stroke-width:1px;stroke-linecap:butt;stroke-linejoin:miter;stroke-opacity:1" d="M 268.917,166.694 276.116,165.254 z" id="boundary" inkscape:connector-curvature="0" />
	<path style="fill:none;stroke:red;stroke-width:1px;stroke-linecap:butt;stroke-linejoin:miter;stroke-opacity:1" d="M 276.116,165.254 283.315,163.094 z" id="boundary" inkscape:connector-curvature="0" />
	<path style="fill:none;stroke:red;stroke-width:1px;stroke-linecap:butt;stroke-linejoin:miter;stroke-opacity:1" d="M 283.315,163.094 290.514,162.374 z" id="boundary" inkscape:connector-curvature="0" />
	<path style="fill:none;stroke:red;stroke-width:1px;stroke-linecap:butt;stroke-linejoin:miter;stroke-opacity:1" d="M 290.514,162.374 297.713,161.655 z" id="boundary" inkscape:connector-curvature="0" />
	<path style="fill:none;stroke:red;stroke-width:1px;stroke-linecap:butt;stroke-linejoin:miter;stroke-opacity:1" d="M 297.713,161.655 304.911,160.215 z" id="boundary" inkscape:connector-curvature="0" />
	<path style="fill:none;stroke:red;stroke-width:1px;stroke-linecap:butt;stroke-linejoin:miter;stroke-opacity:1" d="M 304.911,160.215 312.11,159.495 z" id="boundary" inkscape:connector-curvature="0" />
	<path style="fill:none;stroke:red;stroke-width:1px;stroke-linecap:butt;stroke-linejoin:miter;stroke-opacity:1" d="M 312.11,159.495 319.309,158.775 z" id="boundary" inkscape:connector-curvature="0" />
	<path style="fill:none;stroke:red;stroke-width:1px;stroke-linecap:butt;stroke-linejoin:miter;stroke-opacity:1" d="M 319.309,158.775 326.508,158.055 z" id="boundary" inkscape:connector-curvature="0" />
	<path style="fill:none;stroke:red;stroke-width:1px;stroke-linecap:butt;stroke-linejoin:miter;stroke-opacity:1" d="M 326.508,158.055 333.707,156.615 z" id="boundary" inkscape:connector-curvature="0" />
	<path style="fill:none;stroke:red;stroke-width:1px;stroke-linecap:butt;stroke-linejoin:miter;stroke-opacity:1" d="M 333.707,156.615 340.906,155.176 z" id="boundary" inkscape:connector-curvature="0" />
	<path style="fill:none;stroke:red;stroke-width:1px;stroke-linecap:butt;stroke-linejoin:miter;stroke-opacity:1" d="M 340.906,155.176 348.104,153.016 z" id="boundary" inkscape:connector-curvature="0" />
	<path style="fill:none;stroke:red;stroke-width:1px;stroke-linecap:butt;stroke-linejoin:miter;stroke-opacity:1" d="M 348.104,153.016 355.303,152.296 z" id="boundary" inkscape:connector-curvature="0" />
	<path style="fill:none;stroke:red;stroke-width:1px;stroke-linecap:butt;stroke-linejoin:miter;stroke-opacity:1" d="M 355.303,152.296 362.502,150.856 z" id="boundary" inkscape:connector-curvature="0" />
	<path style="fill:none;stroke:red;stroke-width:1px;stroke-linecap:butt;stroke-linejoin:miter;stroke-opacity:1" d="M 362.502,150.856 369.701,150.136 z" id="boundary" inkscape:connector-curvature="0" />
	<path style="fill:none;stroke:red;stroke-width:1px;stroke-linecap:butt;stroke-linejoin:miter;stroke-opacity:1" d="M 369.701,150.136 376.9,149.417 z" id="boundary" inkscape:connector-curvature="0" />
	<path style="fill:none;stroke:red;stroke-width:1px;stroke-linecap:butt;stroke-linejoin:miter;stroke-opacity:1" d="M 376.9,149.417 384.099,147.257 z" id="boundary" inkscape:connector-curvature="0" />
	<path style="fill:none;stroke:red;stroke-width:1px;stroke-linecap:butt;stroke-linejoin:miter;stroke-opacity:1" d="M 384.099,147.257 391.298,146.537 z" id="boundary" inkscape:connector-curvature="0" />
	<path style="fill:none;stroke:red;stroke-width:1px;stroke-linecap:butt;stroke-linejoin:miter;stroke-opacity:1" d="M 391.298,146.537 398.496,145.097 z" id="boundary" inkscape:connector-curvature="0" />
	<path style="fill:none;stroke:red;stroke-width:1px;stroke-linecap:butt;stroke-linejoin:miter;stroke-opacity:1" d="M 398.496,145.097 405.695,143.657 z" id="boundary" inkscape:connector-curvature="0" />
	<path style="fill:none;stroke:red;stroke-width:1px;stroke-linecap:butt;stroke-linejoin:miter;stroke-opacity:1" d="M 405.695,143.657 412.894,142.218 z" id="boundary" inkscape:connector-curvature="0" />
	<path style="fill:none;stroke:red;stroke-width:1px;stroke-linecap:butt;stroke-linejoin:miter;stroke-opacity:1" d="M 412.894,142.218 420.093,141.498 z" id="boundary" inkscape:connector-curvature="0" />
	<path style="fill:none;stroke:red;stroke-width:1px;stroke-linecap:butt;stroke-linejoin:miter;stroke-opacity:1" d="M 420.093,141.498 427.292,141.498 z" id="boundary" inkscape:connector-curvature="0" />
	<path style="fill:none;stroke:red;stroke-width:1px;stroke-linecap:butt;stroke-linejoin:miter;stroke-opacity:1" d="M 427.292,141.498 434.491,139.338 z" id="boundary" inkscape:connector-curvature="0" />
	<path style="fill:none;stroke:red;stroke-width:1px;stroke-linecap:butt;stroke-linejoin:miter;stroke-opacity:1" d="M 434.491,139.338 441.689,138.618 z" id="boundary" inkscape:connector-curvature="0" />
	<path style="fill:none;stroke:red;stroke-width:1px;stroke-linecap:butt;stroke-linejoin:miter;stroke-opacity:1" d="M 441.689,138.618 448.888,137.179 z" id="boundary" inkscape:connector-curvature="0" />
	<path style="fill:none;stroke:red;stroke-width:1px;stroke-linecap:butt;stroke-linejoin:miter;stroke-opacity:1" d="M 448.888,137.179 456.087,136.459 z" id="boundary" inkscape:connector-curvature="0" />
	<path style="fill:none;stroke:red;stroke-width:1px;stroke-linecap:butt;stroke-linejoin:miter;stroke-opacity:1" d="M 456.087,136.459 463.286,134.299 z" id="boundary" inkscape:connector-curvature="0" />
	<path style="fill:none;stroke:red;stroke-width:1px;stroke-linecap:butt;stroke-linejoin:miter;stroke-opacity:1" d="M 463.286,134.299 470.485,133.579 z" id="boundary" inkscape:connector-curvature="0" />
	<path style="fill:none;stroke:red;stroke-width:1px;stroke-linecap:butt;stroke-linejoin:miter;stroke-opacity:1" d="M 470.485,133.579 477.684,132.139 z" id="boundary" inkscape:connector-curvature="0" />
	<path style="fill:none;stroke:red;stroke-width:1px;stroke-linecap:butt;stroke-linejoin:miter;stroke-opacity:1" d="M 477.684,132.139 484.882,131.419 z" id="boundary" inkscape:connector-curvature="0" />
	<path style="fill:none;stroke:red;stroke-width:1px;stroke-linecap:butt;stroke-linejoin:miter;stroke-opacity:1" d="M 484.882,131.419 492.081,129.98 z" id="boundary" inkscape:connector-curvature="0" />
	<path style="fill:none;stroke:red;stroke-width:1px;stroke-linecap:butt;stroke-linejoin:miter;stroke-opacity:1" d="M 492.081,129.98 499.28,129.26 z" id="boundary" inkscape:connector-curvature="0" />
	<path style="fill:none;stroke:red;stroke-width:1px;stroke-linecap:butt;stroke-linejoin:miter;stroke-opacity:1" d="M 499.28,129.26 506.479,128.54 z" id="boundary" inkscape:connector-curvature="0" />
	<path style="fill:none;stroke:red;stroke-width:1px;stroke-linecap:butt;stroke-linejoin:miter;stroke-opacity:1" d="M 506.479,128.54 513.678,127.1 z" id="boundary" inkscape:connector-curvature="0" />
	<path style="fill:none;stroke:red;stroke-width:1px;stroke-linecap:butt;stroke-linejoin:miter;stroke-opacity:1" d="M 513.678,127.1 520.877,125.66 z" id="boundary" inkscape:connector-curvature="0" />
	<path style="fill:none;stroke:red;stroke-width:1px;stroke-linecap:butt;stroke-linejoin:miter;stroke-opacity:1" d="M 520.877,125.66 528.075,124.94 z" id="boundary" inkscape:connector-curvature="0" />
	<path style="fill:none;stroke:red;stroke-width:1px;stroke-linecap:butt;stroke-linejoin:miter;stroke-opacity:1" d="M 528.075,124.94 535.274,123.501 z" id="boundary" inkscape:connector-curvature="0" />
	<path style="fill:none;stroke:red;stroke-width:1px;stroke-linecap:butt;stroke-linejoin:miter;stroke-opacity:1" d="M 535.274,123.501 542.473,122.061 z" id="boundary" inkscape:connector-curvature="0" />
	<path style="fill:none;stroke:red;stroke-width:1px;stroke-linecap:butt;stroke-linejoin:miter;stroke-opacity:1" d="M 542.473,122.061 549.672,121.341 z" id="boundary" inkscape:connector-curvature="0" />
	<path style="fill:none;stroke:red;stroke-width:1px;stroke-linecap:butt;stroke-linejoin:miter;stroke-opacity:1" d="M 549.672,121.341 556.871,119.901 z" id="boundary" inkscape:connector-curvature="0" />
	<path style="fill:none;stroke:red;stroke-width:1px;stroke-linecap:butt;stroke-linejoin:miter;stroke-opacity:1" d="M 556.871,119.901 564.07,118.462 z" id="boundary" inkscape:connector-curvature="0" />
	<path style="fill:none;stroke:red;stroke-width:1px;stroke-linecap:butt;stroke-linejoin:miter;stroke-opacity:1" d="M 564.07,118.462 571.269,117.742 z" id="boundary" inkscape:connector-curvature="0" />
	<path style="fill:none;stroke:red;stroke-width:1px;stroke-linecap:butt;stroke-linejoin:miter;stroke-opacity:1" d="M 571.269,117.742 578.467,116.302 z" id="boundary" inkscape:connector-curvature="0" />
	<path style="fill:none;stroke:red;stroke-width:1px;stroke-linecap:butt;stroke-linejoin:miter;stroke-opacity:1" d="M 578.467,116.302 585.666,114.862 z" id="boundary" inkscape:connector-curvature="0" />
	<path style="fill:none;stroke:red;stroke-width:1px;stroke-linecap:butt;stroke-linejoin:miter;stroke-opacity:1" d="M 585.666,114.862 592.865,113.422 z" id="boundary" inkscape:connector-curvature="0" />
	<path style="fill:none;stroke:red;stroke-width:1px;stroke-linecap:butt;stroke-linejoin:miter;stroke-opacity:1" d="M 592.865,113.422 600.064,111.263 z" id="boundary" inkscape:connector-curvature="0" />
	<path style="fill:none;stroke:red;stroke-width:1px;stroke-linecap:butt;stroke-linejoin:miter;stroke-opacity:1" d="M 600.064,111.263 607.263,109.823 z" id="boundary" inkscape:connector-curvature="0" />
	<path style="fill:none;stroke:red;stroke-width:1px;stroke-linecap:butt;stroke-linejoin:miter;stroke-opacity:1" d="M 607.263,109.823 614.462,107.663 z" id="boundary" inkscape:connector-curvature="0" />
	<path style="fill:none;stroke:red;stroke-width:1px;stroke-linecap:butt;stroke-linejoin:miter;stroke-opacity:1" d="M 614.462,107.663 621.66,106.224 z" id="boundary" inkscape:connector-curvature="0" />
	<path style="fill:none;stroke:red;stroke-width:1px;stroke-linecap:butt;stroke-linejoin:miter;stroke-opacity:1" d="M 621.66,106.224 628.859,103.344 z" id="boundary" inkscape:connector-curvature="0" />
	<path style="fill:none;stroke:red;stroke-width:1px;stroke-linecap:butt;stroke-linejoin:miter;stroke-opacity:1" d="M 628.859,103.344 636.058,101.184 z" id="boundary" inkscape:connector-curvature="0" />
	<path style="fill:none;stroke:red;stroke-width:1px;stroke-linecap:butt;stroke-linejoin:miter;stroke-opacity:1" d="M 636.058,101.184 643.257,99.0247 z" id="boundary" inkscape:connector-curvature="0" />
	<path style="fill:none;stroke:red;stroke-width:1px;stroke-linecap:butt;stroke-linejoin:miter;stroke-opacity:1" d="M 643.257,99.0247 650.456,96.1451 z" id="boundary" inkscape:connector-curvature="0" />
	<path style="fill:none;stroke:red;stroke-width:1px;stroke-linecap:butt;stroke-linejoin:miter;stroke-opacity:1" d="M 650.456,96.1451 657.655,93.2656 z" id="boundary" inkscape:connector-curvature="0" />
	<path style="fill:none;stroke:red;stroke-width:1px;stroke-linecap:butt;stroke-linejoin:miter;stroke-opacity:1" d="M 657.655,93.2656 664.134,89.6662 z" id="boundary" inkscape:connector-curvature="0" />
	<path style="fill:none;stroke:red;stroke-width:1px;stroke-linecap:butt;stroke-linejoin:miter;stroke-opacity:1" d="M 664.134,89.6662 671.332,87.5065 z" id="boundary" inkscape:connector-curvature="0" />
	<path style="fill:none;stroke:red;stroke-width:1px;stroke-linecap:butt;stroke-linejoin:miter;stroke-opacity:1" d="M 671.332,87.5065 677.811,83.9071 z" id="boundary" inkscape:connector-curvature="0" />
	<path style="fill:none;stroke:red;stroke-width:1px;stroke-linecap:butt;stroke-linejoin:miter;stroke-opacity:1" d="M 677.811,83.9071 685.01,80.3077 z" id="boundary" inkscape:connector-curvature="0" />
	<path style="fill:none;stroke:red;stroke-width:1px;stroke-linecap:butt;stroke-linejoin:miter;stroke-opacity:1" d="M 685.01,80.3077 691.489,76.7083 z" id="boundary" inkscape:connector-curvature="0" />
	<path style="fill:none;stroke:red;stroke-width:1px;stroke-linecap:butt;stroke-linejoin:miter;stroke-opacity:1" d="M 691.489,76.7083 697.248,72.389 z" id="boundary" inkscape:connector-curvature="0" />
	<path style="fill:none;stroke:red;stroke-width:1px;stroke-linecap:butt;stroke-linejoin:miter;stroke-opacity:1" d="M 697.248,72.389 704.447,68.7896 z" id="boundary" inkscape:connector-curvature="0" />
	<path style="fill:none;stroke:red;stroke-width:1px;stroke-linecap:butt;stroke-linejoin:miter;stroke-opacity:1" d="M 704.447,68.7896 710.926,64.4702 z" id="boundary" inkscape:connector-curvature="0" />
	<path style="fill:none;stroke:red;stroke-width:1px;stroke-linecap:butt;stroke-linejoin:miter;stroke-opacity:1" d="M 710.926,64.4702 717.405,60.8708 z" id="boundary" inkscape:connector-curvature="0" />
	<path style="fill:none;stroke:red;stroke-width:1px;stroke-linecap:butt;stroke-linejoin:miter;stroke-opacity:1" d="M 717.405,60.8708 723.884,57.2714 z" id="boundary" inkscape:connector-curvature="0" />
	<path style="fill:none;stroke:red;stroke-width:1px;stroke-linecap:butt;stroke-linejoin:miter;stroke-opacity:1" d="M 723.884,57.2714 730.363,52.9521 z" id="boundary" inkscape:connector-curvature="0" />
	<path style="fill:none;stroke:red;stroke-width:1px;stroke-linecap:butt;stroke-linejoin:miter;stroke-opacity:1" d="M 730.363,52.9521 736.842,48.6328 z" id="boundary" inkscape:connector-curvature="0" />
	<path style="fill:none;stroke:red;stroke-width:1px;stroke-linecap:butt;stroke-linejoin:miter;stroke-opacity:1" d="M 736.842,48.6328 744.041,45.0334 z" id="boundary" inkscape:connector-curvature="0" />
	<path style="fill:none;stroke:red;stroke-width:1px;stroke-linecap:butt;stroke-linejoin:miter;stroke-opacity:1" d="M 744.041,45.0334 750.52,41.434 z" id="boundary" inkscape:connector-curvature="0" />
	<path style="fill:none;stroke:red;stroke-width:1px;stroke-linecap:butt;stroke-linejoin:miter;stroke-opacity:1" d="M 750.52,41.434 757.718,37.8345 z" id="boundary" inkscape:connector-curvature="0" />
	<path style="fill:none;stroke:red;stroke-width:1px;stroke-linecap:butt;stroke-linejoin:miter;stroke-opacity:1" d="M 757.718,37.8345 764.917,34.2351 z" id="boundary" inkscape:connector-curvature="0" />
	<path style="fill:none;stroke:red;stroke-width:1px;stroke-linecap:butt;stroke-linejoin:miter;stroke-opacity:1" d="M 764.917,34.2351 772.116,30.6357 z" id="boundary" inkscape:connector-curvature="0" />
	<path style="fill:none;stroke:red;stroke-width:1px;stroke-linecap:butt;stroke-linejoin:miter;stroke-opacity:1" d="M 772.116,30.6357 779.315,27.7562 z" id="boundary" inkscape:connector-curvature="0" />
	<path style="fill:none;stroke:red;stroke-width:1px;stroke-linecap:butt;stroke-linejoin:miter;stroke-opacity:1" d="M 779.315,27.7562 786.514,24.8766 z" id="boundary" inkscape:connector-curvature="0" />
	<path style="fill:none;stroke:red;stroke-width:1px;stroke-linecap:butt;stroke-linejoin:miter;stroke-opacity:1" d="M 786.514,24.8766 793.713,21.9971 z" id="boundary" inkscape:connector-curvature="0" />
	<path style="fill:none;stroke:red;stroke-width:1px;stroke-linecap:butt;stroke-linejoin:miter;stroke-opacity:1" d="M 793.713,21.9971 800.911,19.1176 z" id="boundary" inkscape:connector-curvature="0" />
	<path style="fill:none;stroke:red;stroke-width:1px;stroke-linecap:butt;stroke-linejoin:miter;stroke-opacity:1" d="M 800.911,19.1176 808.11,16.238 z" id="boundary" inkscape:connector-curvature="0" />
	<path style="fill:none;stroke:red;stroke-width:1px;stroke-linecap:butt;stroke-linejoin:miter;stroke-opacity:1" d="M 808.11,16.238 815.309,14.0784 z" id="boundary" inkscape:connector-curvature="0" />
	<path style="fill:none;stroke:red;stroke-width:1px;stroke-linecap:butt;stroke-linejoin:miter;stroke-opacity:1" d="M 815.309,14.0784 822.508,12.6386 z" id="boundary" inkscape:connector-curvature="0" />
	<path style="fill:none;stroke:red;stroke-width:1px;stroke-linecap:butt;stroke-linejoin:miter;stroke-opacity:1" d="M 822.508,12.6386 829.707,10.479 z" id="boundary" inkscape:connector-curvature="0" />
	<path style="fill:none;stroke:red;stroke-width:1px;stroke-linecap:butt;stroke-linejoin:miter;stroke-opacity:1" d="M 829.707,10.479 836.906,9.03919 z" id="boundary" inkscape:connector-curvature="0" />
	<path style="fill:none;stroke:red;stroke-width:1px;stroke-linecap:butt;stroke-linejoin:miter;stroke-opacity:1" d="M 836.906,9.03919 844.104,7.59942 z" id="boundary" inkscape:connector-curvature="0" />
	<path style="fill:none;stroke:red;stroke-width:1px;stroke-linecap:butt;stroke-linejoin:miter;stroke-opacity:1" d="M 844.104,7.59942 851.303,6.15965 z" id="boundary" inkscape:connector-curvature="0" />
	<path style="fill:none;stroke:red;stroke-width:1px;stroke-linecap:butt;stroke-linejoin:miter;stroke-opacity:1" d="M 851.303,6.15965 858.502,5.43977 z" id="boundary" inkscape:connector-curvature="0" />
	<path style="fill:none;stroke:red;stroke-width:1px;stroke-linecap:butt;stroke-linejoin:miter;stroke-opacity:1" d="M 858.502,5.43977 865.701,4.71988 z" id="boundary" inkscape:connector-curvature="0" />
	<path style="fill:none;stroke:red;stroke-width:1px;stroke-linecap:butt;stroke-linejoin:miter;stroke-opacity:1" d="M 865.701,4.71988 872.9,4 z" id="boundary" inkscape:connector-curvature="0" />
	<path style="fill:none;stroke:red;stroke-width:1px;stroke-linecap:butt;stroke-linejoin:miter;stroke-opacity:1" d="M 872.9,4 880.099,4 z" id="boundary" inkscape:connector-curvature="0" />
	<path style="fill:none;stroke:red;stroke-width:1px;stroke-linecap:butt;stroke-linejoin:miter;stroke-opacity:1" d="M 880.099,4 887.298,4.71988 z" id="boundary" inkscape:connector-curvature="0" />
	<path style="fill:none;stroke:red;stroke-width:1px;stroke-linecap:butt;stroke-linejoin:miter;stroke-opacity:1" d="M 887.298,4.71988 894.496,5.43977 z" id="boundary" inkscape:connector-curvature="0" />
	<path style="fill:none;stroke:red;stroke-width:1px;stroke-linecap:butt;stroke-linejoin:miter;stroke-opacity:1" d="M 894.496,5.43977 901.695,5.43977 z" id="boundary" inkscape:connector-curvature="0" />
	<path style="fill:none;stroke:red;stroke-width:1px;stroke-linecap:butt;stroke-linejoin:miter;stroke-opacity:1" d="M 901.695,5.43977 908.894,6.87954 z" id="boundary" inkscape:connector-curvature="0" />
	<path style="fill:none;stroke:red;stroke-width:1px;stroke-linecap:butt;stroke-linejoin:miter;stroke-opacity:1" d="M 908.894,6.87954 916.093,8.3193 z" id="boundary" inkscape:connector-curvature="0" />
	<path style="fill:none;stroke:red;stroke-width:1px;stroke-linecap:butt;stroke-linejoin:miter;stroke-opacity:1" d="M 916.093,8.3193 923.292,10.479 z" id="boundary" inkscape:connector-curvature="0" />
	<path style="fill:none;stroke:red;stroke-width:1px;stroke-linecap:butt;stroke-linejoin:miter;stroke-opacity:1" d="M 923.292,10.479 930.491,12.6386 z" id="boundary" inkscape:connector-curvature="0" />
	<path style="fill:none;stroke:red;stroke-width:1px;stroke-linecap:butt;stroke-linejoin:miter;stroke-opacity:1" d="M 930.491,12.6386 937.689,14.7983 z" id="boundary" inkscape:connector-curvature="0" />
	<path style="fill:none;stroke:red;stroke-width:1px;stroke-linecap:butt;stroke-linejoin:miter;stroke-opacity:1" d="M 937.689,14.7983 944.888,17.6778 z" id="boundary" inkscape:connector-curvature="0" />
	<path style="fill:none;stroke:red;stroke-width:1px;stroke-linecap:butt;stroke-linejoin:miter;stroke-opacity:1" d="M 944.888,17.6778 952.087,20.5573 z" id="boundary" inkscape:connector-curvature="0" />
	<path style="fill:none;stroke:red;stroke-width:1px;stroke-linecap:butt;stroke-linejoin:miter;stroke-opacity:1" d="M 952.087,20.5573 958.566,24.1567 z" id="boundary" inkscape:connector-curvature="0" />
	<path style="fill:none;stroke:red;stroke-width:1px;stroke-linecap:butt;stroke-linejoin:miter;stroke-opacity:1" d="M 958.566,24.1567 965.045,27.7562 z" id="boundary" inkscape:connector-curvature="0" />
	<path style="fill:none;stroke:red;stroke-width:1px;stroke-linecap:butt;stroke-linejoin:miter;stroke-opacity:1" d="M 965.045,27.7562 970.804,32.0755 z" id="boundary" inkscape:connector-curvature="0" />
	<path style="fill:none;stroke:red;stroke-width:1px;stroke-linecap:butt;stroke-linejoin:miter;stroke-opacity:1" d="M 970.804,32.0755 976.563,37.1147 z" id="boundary" inkscape:connector-curvature="0" />
	<path style="fill:none;stroke:red;stroke-width:1px;stroke-linecap:butt;stroke-linejoin:miter;stroke-opacity:1" d="M 976.563,37.1147 982.322,42.1538 z" id="boundary" inkscape:connector-curvature="0" />
	<path style="fill:none;stroke:red;stroke-width:1px;stroke-linecap:butt;stroke-linejoin:miter;stroke-opacity:1" d="M 982.322,42.1538 986.642,47.9129 z" id="boundary" inkscape:connector-curvature="0" />
	<path style="fill:none;stroke:red;stroke-width:1px;stroke-linecap:butt;stroke-linejoin:miter;stroke-opacity:1" d="M 986.642,47.9129 990.241,54.3919 z" id="boundary" inkscape:connector-curvature="0" />
	<path style="fill:none;stroke:red;stroke-width:1px;stroke-linecap:butt;stroke-linejoin:miter;stroke-opacity:1" d="M 990.241,54.3919 993.84,60.8708 z" id="boundary" inkscape:connector-curvature="0" />
	<path style="fill:none;stroke:red;stroke-width:1px;stroke-linecap:butt;stroke-linejoin:miter;stroke-opacity:1" d="M 993.84,60.8708 995.28,68.0697 z" id="boundary" inkscape:connector-curvature="0" />
	<path style="fill:none;stroke:red;stroke-width:1px;stroke-linecap:butt;stroke-linejoin:miter;stroke-opacity:1" d="M 995.28,68.0697 996,75.2685 z" id="boundary" inkscape:connector-curvature="0" />
	<path style="fill:none;stroke:red;stroke-width:1px;stroke-linecap:butt;stroke-linejoin:miter;stroke-opacity:1" d="M 996,75.2685 996,82.4673 z" id="boundary" inkscape:connector-curvature="0" />
	<path style="fill:none;stroke:red;stroke-width:1px;stroke-linecap:butt;stroke-linejoin:miter;stroke-opacity:1" d="M 996,82.4673 996,93.2656 z" id="boundary" inkscape:connector-curvature="0" />
	<circle cx="4" cy="225.004" r="4" fill="#0" id="circle0"/>
	<circle cx="5.43977" cy="214.926" r="4" fill="#0" id="circle1"/>
	<circle cx="5.43977" cy="232.203" r="4" fill="#0" id="circle2"/>
	<circle cx="9.75907" cy="208.447" r="4" fill="#0" id="circle3"/>
	<circle cx="9.75907" cy="237.962" r="4" fill="#0" id="circle4"/>
	<circle cx="15.5181" cy="242.282" r="4" fill="#0" id="circle5"/>
	<circle cx="16.9579" cy="205.567" r="4" fill="#0" id="circle6"/>
	<circle cx="22.717" cy="243.001" r="4" fill="#0" id="circle7"/>
	<circle cx="24.1567" cy="204.128" r="4" fill="#0" id="circle8"/>
	<circle cx="29.9158" cy="243.001" r="4" fill="#0" id="circle9"/>
	<circle cx="31.3556" cy="201.968" r="4" fill="#0" id="circle10"/>
	<circle cx="37.1147" cy="242.282" r="4" fill="#0" id="circle11"/>
	<circle cx="38.5544" cy="200.528" r="4" fill="#0" id="circle12"/>
	<circle cx="44.3135" cy="240.842" r="4" fill="#0" id="circle13"/>
	<circle cx="45.7533" cy="199.808" r="4" fill="#0" id="circle14"/>
	<circle cx="51.5123" cy="240.122" r="4" fill="#0" id="circle15"/>
	<circle cx="52.9521" cy="198.369" r="4" fill="#0" id="circle16"/>
	<circle cx="58.7112" cy="239.402" r="4" fill="#0" id="circle17"/>
	<circle cx="60.1509" cy="196.929" r="4" fill="#0" id="circle18"/>
	<circle cx="65.91" cy="238.682" r="4" fill="#0" id="circle19"/>
	<circle cx="67.3498" cy="196.209" r="4" fill="#0" id="circle20"/>
	<circle cx="73.1089" cy="237.962" r="4" fill="#0" id="circle21"/>
	<circle cx="74.5486" cy="195.489" r="4" fill="#0" id="circle22"/>
	<circle cx="80.3077" cy="235.803" r="4" fill="#0" id="circle23"/>
	<circle cx="81.7475" cy="194.049" r="4" fill="#0" id="circle24"/>
	<circle cx="87.5065" cy="235.083" r="4" fill="#0" id="circle25"/>
	<circle cx="88.9463" cy="193.329" r="4" fill="#0" id="circle26"/>
	<circle cx="94.7054" cy="233.643" r="4" fill="#0" id="circle27"/>
	<circle cx="96.1451" cy="191.89" r="4" fill="#0" id="circle28"/>
	<circle cx="101.904" cy="232.923" r="4" fill="#0" id="circle29"/>
	<circle cx="103.344" cy="190.45" r="4" fill="#0" id="circle30"/>
	<circle cx="109.103" cy="232.203" r="4" fill="#0" id="circle31"/>
	<circle cx="110.543" cy="189.73" r="4" fill="#0" id="circle32"/>
	<circle cx="116.302" cy="230.763" r="4" fill="#0" id="circle33"/>
	<circle cx="117.742" cy="189.01" r="4" fill="#0" id="circle34"/>
	<circle cx="123.501" cy="229.324" r="4" fill="#0" id="circle35"/>
	<circle cx="124.94" cy="187.57" r="4" fill="#0" id="circle36"/>
	<circle cx="130.7" cy="227.884" r="4" fill="#0" id="circle37"/>
	<circle cx="132.139" cy="186.851" r="4" fill="#0" id="circle38"/>
	<circle cx="137.898" cy="227.164" r="4" fill="#0" id="circle39"/>
	<circle cx="139.338" cy="185.411" r="4" fill="#0" id="circle40"/>
	<circle cx="145.097" cy="226.444" r="4" fill="#0" id="circle41"/>
	<circle cx="146.537" cy="183.971" r="4" fill="#0" id="circle42"/>
	<circle cx="152.296" cy="225.724" r="4" fill="#0" id="circle43"/>
	<circle cx="153.736" cy="183.251" r="4" fill="#0" id="circle44"/>
	<circle cx="159.495" cy="225.004" r="4" fill="#0" id="circle45"/>
	<circle cx="160.935" cy="181.811" r="4" fill="#0" id="circle46"/>
	<circle cx="166.694" cy="223.565" r="4" fill="#0" id="circle47"/>
	<circle cx="168.134" cy="181.811" r="4" fill="#0" id="circle48"/>
	<circle cx="173.893" cy="221.405" r="4" fill="#0" id="circle49"/>
	<circle cx="175.332" cy="180.372" r="4" fill="#0" id="circle50"/>
	<circle cx="181.091" cy="219.965" r="4" fill="#0" id="circle51"/>
	<circle cx="182.531" cy="178.932" r="4" fill="#0" id="circle52"/>
	<circle cx="188.29" cy="219.245" r="4" fill="#0" id="circle53"/>
	<circle cx="189.73" cy="178.212" r="4" fill="#0" id="circle54"/>
	<circle cx="195.489" cy="217.806" r="4" fill="#0" id="circle55"/>
	<circle cx="196.929" cy="176.772" r="4" fill="#0" id="circle56"/>
	<circle cx="202.688" cy="216.366" r="4" fill="#0" id="circle57"/>
	<circle cx="204.128" cy="175.332" r="4" fill="#0" id="circle58"/>
	<circle cx="209.887" cy="215.646" r="4" fill="#0" id="circle59"/>
	<circle cx="211.327" cy="173.893" r="4" fill="#0" id="circle60"/>
	<circle cx="217.086" cy="214.926" r="4" fill="#0" id="circle61"/>
	<circle cx="218.525" cy="173.173" r="4" fill="#0" id="circle62"/>
	<circle cx="224.284" cy="214.206" r="4" fill="#0" id="circle63"/>
	<circle cx="225.724" cy="172.453" r="4" fill="#0" id="circle64"/>
	<circle cx="231.483" cy="212.766" r="4" fill="#0" id="circle65"/>
	<circle cx="232.923" cy="171.013" r="4" fill="#0" id="circle66"/>
	<circle cx="238.682" cy="212.046" r="4" fill="#0" id="circle67"/>
	<circle cx="240.122" cy="170.293" r="4" fill="#0" id="circle68"/>
	<circle cx="245.881" cy="210.607" r="4" fill="#0" id="circle69"/>
	<circle cx="247.321" cy="168.853" r="4" fill="#0" id="circle70"/>
	<circle cx="253.08" cy="209.167" r="4" fill="#0" id="circle71"/>
	<circle cx="254.52" cy="168.134" r="4" fill="#0" id="circle72"/>
	<circle cx="260.279" cy="207.727" r="4" fill="#0" id="circle73"/>
	<circle cx="261.718" cy="166.694" r="4" fill="#0" id="circle74"/>
	<circle cx="267.478" cy="206.287" r="4" fill="#0" id="circle75"/>
	<circle cx="268.917" cy="166.694" r="4" fill="#0" id="circle76"/>
	<circle cx="274.676" cy="204.848" r="4" fill="#0" id="circle77"/>
	<circle cx="276.116" cy="165.254" r="4" fill="#0" id="circle78"/>
	<circle cx="281.875" cy="202.688" r="4" fill="#0" id="circle79"/>
	<circle cx="283.315" cy="163.094" r="4" fill="#0" id="circle80"/>
	<circle cx="289.074" cy="201.968" r="4" fill="#0" id="circle81"/>
	<circle cx="290.514" cy="162.374" r="4" fill="#0" id="circle82"/>
	<circle cx="296.273" cy="201.248" r="4" fill="#0" id="circle83"/>
	<circle cx="297.713" cy="161.655" r="4" fill="#0" id="circle84"/>
	<circle cx="303.472" cy="200.528" r="4" fill="#0" id="circle85"/>
	<circle cx="304.911" cy="160.215" r="4" fill="#0" id="circle86"/>
	<circle cx="310.671" cy="199.089" r="4" fill="#0" id="circle87"/>
	<circle cx="312.11" cy="159.495" r="4" fill="#0" id="circle88"/>
	<circle cx="317.869" cy="197.649" r="4" fill="#0" id="circle89"/>
	<circle cx="319.309" cy="158.775" r="4" fill="#0" id="circle90"/>
	<circle cx="325.068" cy="196.209" r="4" fill="#0" id="circle91"/>
	<circle cx="326.508" cy="158.055" r="4" fill="#0" id="circle92"/>
	<circle cx="332.267" cy="195.489" r="4" fill="#0" id="circle93"/>
	<circle cx="333.707" cy="156.615" r="4" fill="#0" id="circle94"/>
	<circle cx="339.466" cy="194.769" r="4" fill="#0" id="circle95"/>
	<circle cx="340.906" cy="155.176" r="4" fill="#0" id="circle96"/>
	<circle cx="346.665" cy="193.329" r="4" fill="#0" id="circle97"/>
	<circle cx="348.104" cy="153.016" r="4" fill="#0" id="circle98"/>
	<circle cx="353.864" cy="192.61" r="4" fill="#0" id="circle99"/>
	<circle cx="355.303" cy="152.296" r="4" fill="#0" id="circle100"/>
	<circle cx="361.062" cy="191.17" r="4" fill="#0" id="circle101"/>
	<circle cx="362.502" cy="150.856" r="4" fill="#0" id="circle102"/>
	<circle cx="368.261" cy="189.73" r="4" fill="#0" id="circle103"/>
	<circle cx="369.701" cy="150.136" r="4" fill="#0" id="circle104"/>
	<circle cx="375.46" cy="188.29" r="4" fill="#0" id="circle105"/>
	<circle cx="376.9" cy="149.417" r="4" fill="#0" id="circle106"/>
	<circle cx="382.659" cy="187.57" r="4" fill="#0" id="circle107"/>
	<circle cx="384.099" cy="147.257" r="4" fill="#0" id="circle108"/>
	<circle cx="389.858" cy="185.411" r="4" fill="#0" id="circle109"/>
	<circle cx="391.298" cy="146.537" r="4" fill="#0" id="circle110"/>
	<circle cx="397.057" cy="185.411" r="4" fill="#0" id="circle111"/>
	<circle cx="398.496" cy="145.097" r="4" fill="#0" id="circle112"/>
	<circle cx="404.255" cy="184.691" r="4" fill="#0" id="circle113"/>
	<circle cx="405.695" cy="143.657" r="4" fill="#0" id="circle114"/>
	<circle cx="411.454" cy="183.251" r="4" fill="#0" id="circle115"/>
	<circle cx="412.894" cy="142.218" r="4" fill="#0" id="circle116"/>
	<circle cx="418.653" cy="182.531" r="4" fill="#0" id="circle117"/>
	<circle cx="420.093" cy="141.498" r="4" fill="#0" id="circle118"/>
	<circle cx="425.852" cy="181.091" r="4" fill="#0" id="circle119"/>
	<circle cx="427.292" cy="141.498" r="4" fill="#0" id="circle120"/>
	<circle cx="433.051" cy="179.652" r="4" fill="#0" id="circle121"/>
	<circle cx="434.491" cy="139.338" r="4" fill="#0" id="circle122"/>
	<circle cx="440.25" cy="178.932" r="4" fill="#0" id="circle123"/>
	<circle cx="441.689" cy="138.618" r="4" fill="#0" id="circle124"/>
	<circle cx="447.448" cy="178.212" r="4" fill="#0" id="circle125"/>
	<circle cx="448.888" cy="137.179" r="4" fill="#0" id="circle126"/>
	<circle cx="454.647" cy="176.772" r="4" fill="#0" id="circle127"/>
	<circle cx="456.087" cy="136.459" r="4" fill="#0" id="circle128"/>
	<circle cx="461.846" cy="175.332" r="4" fill="#0" id="circle129"/>
	<circle cx="463.286" cy="134.299" r="4" fill="#0" id="circle130"/>
	<circle cx="469.045" cy="175.332" r="4" fill="#0" id="circle131"/>
	<circle cx="470.485" cy="133.579" r="4" fill="#0" id="circle132"/>
	<circle cx="476.244" cy="174.612" r="4" fill="#0" id="circle133"/>
	<circle cx="477.684" cy="132.139" r="4" fill="#0" id="circle134"/>
	<circle cx="483.443" cy="172.453" r="4" fill="#0" id="circle135"/>
	<circle cx="484.882" cy="131.419" r="4" fill="#0" id="circle136"/>
	<circle cx="490.642" cy="171.733" r="4" fill="#0" id="circle137"/>
	<circle cx="492.081" cy="129.98" r="4" fill="#0" id="circle138"/>
	<circle cx="497.84" cy="169.573" r="4" fill="#0" id="circle139"/>
	<circle cx="499.28" cy="129.26" r="4" fill="#0" id="circle140"/>
	<circle cx="505.039" cy="168.134" r="4" fill="#0" id="circle141"/>
	<circle cx="506.479" cy="128.54" r="4" fill="#0" id="circle142"/>
	<circle cx="512.238" cy="167.414" r="4" fill="#0" id="circle143"/>
	<circle cx="513.678" cy="127.1" r="4" fill="#0" id="circle144"/>
	<circle cx="519.437" cy="165.974" r="4" fill="#0" id="circle145"/>
	<circle cx="520.877" cy="125.66" r="4" fill="#0" id="circle146"/>
	<circle cx="526.636" cy="165.254" r="4" fill="#0" id="circle147"/>
	<circle cx="528.075" cy="124.94" r="4" fill="#0" id="circle148"/>
	<circle cx="533.835" cy="163.094" r="4" fill="#0" id="circle149"/>
	<circle cx="535.274" cy="123.501" r="4" fill="#0" id="circle150"/>
	<circle cx="541.033" cy="163.094" r="4" fill="#0" id="circle151"/>
	<circle cx="542.473" cy="122.061" r="4" fill="#0" id="circle152"/>
	<circle cx="548.232" cy="163.094" r="4" fill="#0" id="circle153"/>
	<circle cx="549.672" cy="121.341" r="4" fill="#0" id="circle154"/>
	<circle cx="555.431" cy="160.935" r="4" fill="#0" id="circle155"/>
	<circle cx="556.871" cy="119.901" r="4" fill="#0" id="circle156"/>
	<circle cx="562.63" cy="160.215" r="4" fill="#0" id="circle157"/>
	<circle cx="564.07" cy="118.462" r="4" fill="#0" id="circle158"/>
	<circle cx="569.829" cy="158.775" r="4" fill="#0" id="circle159"/>
	<circle cx="571.269" cy="117.742" r="4" fill="#0" id="circle160"/>
	<circle cx="577.028" cy="158.055" r="4" fill="#0" id="circle161"/>
	<circle cx="578.467" cy="116.302" r="4" fill="#0" id="circle162"/>
	<circle cx="584.226" cy="157.335" r="4" fill="#0" id="circle163"/>
	<circle cx="585.666" cy="114.862" r="4" fill="#0" id="circle164"/>
	<circle cx="591.425" cy="157.335" r="4" fill="#0" id="circle165"/>
	<circle cx="592.865" cy="113.422" r="4" fill="#0" id="circle166"/>
	<circle cx="598.624" cy="155.896" r="4" fill="#0" id="circle167"/>
	<circle cx="600.064" cy="111.263" r="4" fill="#0" id="circle168"/>
	<circle cx="605.823" cy="153.736" r="4" fill="#0" id="circle169"/>
	<circle cx="607.263" cy="109.823" r="4" fill="#0" id="circle170"/>
	<circle cx="613.022" cy="153.736" r="4" fill="#0" id="circle171"/>
	<circle cx="614.462" cy="107.663" r="4" fill="#0" id="circle172"/>
	<circle cx="620.221" cy="153.016" r="4" fill="#0" id="circle173"/>
	<circle cx="621.66" cy="106.224" r="4" fill="#0" id="circle174"/>
	<circle cx="627.419" cy="153.016" r="4" fill="#0" id="circle175"/>
	<circle cx="628.859" cy="103.344" r="4" fill="#0" id="circle176"/>
	<circle cx="634.618" cy="153.016" r="4" fill="#0" id="circle177"/>
	<circle cx="636.058" cy="101.184" r="4" fill="#0" id="circle178"/>
	<circle cx="641.817" cy="153.016" r="4" fill="#0" id="circle179"/>
	<circle cx="643.257" cy="99.0247" r="4" fill="#0" id="circle180"/>
	<circle cx="649.016" cy="153.016" r="4" fill="#0" id="circle181"/>
	<circle cx="650.456" cy="96.1451" r="4" fill="#0" id="circle182"/>
	<circle cx="656.215" cy="153.736" r="4" fill="#0" id="circle183"/>
	<circle cx="657.655" cy="93.2656" r="4" fill="#0" id="circle184"/>
	<circle cx="663.414" cy="153.736" r="4" fill="#0" id="circle185"/>
	<circle cx="664.134" cy="89.6662" r="4" fill="#0" id="circle186"/>
	<circle cx="670.612" cy="153.736" r="4" fill="#0" id="circle187"/>
	<circle cx="671.332" cy="87.5065" r="4" fill="#0" id="circle188"/>
	<circle cx="677.811" cy="83.9071" r="4" fill="#0" id="circle189"/>
	<circle cx="677.811" cy="155.176" r="4" fill="#0" id="circle190"/>
	<circle cx="685.01" cy="80.3077" r="4" fill="#0" id="circle191"/>
	<circle cx="685.01" cy="156.615" r="4" fill="#0" id="circle192"/>
	<circle cx="691.489" cy="76.7083" r="4" fill="#0" id="circle193"/>
	<circle cx="692.209" cy="157.335" r="4" fill="#0" id="circle194"/>
	<circle cx="697.248" cy="72.389" r="4" fill="#0" id="circle195"/>
	<circle cx="699.408" cy="159.495" r="4" fill="#0" id="circle196"/>
	<circle cx="704.447" cy="68.7896" r="4" fill="#0" id="circle197"/>
	<circle cx="706.607" cy="160.215" r="4" fill="#0" id="circle198"/>
	<circle cx="710.926" cy="64.4702" r="4" fill="#0" id="circle199"/>
	<circle cx="713.806" cy="162.374" r="4" fill="#0" id="circle200"/>
	<circle cx="717.405" cy="60.8708" r="4" fill="#0" id="circle201"/>
	<circle cx="721.004" cy="164.534" r="4" fill="#0" id="circle202"/>
	<circle cx="723.884" cy="57.2714" r="4" fill="#0" id="circle203"/>
	<circle cx="728.203" cy="165.254" r="4" fill="#0" id="circle204"/>
	<circle cx="730.363" cy="52.9521" r="4" fill="#0" id="circle205"/>
	<circle cx="735.402" cy="167.414" r="4" fill="#0" id="circle206"/>
	<circle cx="736.842" cy="48.6328" r="4" fill="#0" id="circle207"/>
	<circle cx="742.601" cy="168.853" r="4" fill="#0" id="circle208"/>
	<circle cx="744.041" cy="45.0334" r="4" fill="#0" id="circle209"/>
	<circle cx="749.8" cy="171.013" r="4" fill="#0" id="circle210"/>
	<circle cx="750.52" cy="41.434" r="4" fill="#0" id="circle211"/>
	<circle cx="756.999" cy="171.733" r="4" fill="#0" id="circle212"/>
	<circle cx="757.718" cy="37.8345" r="4" fill="#0" id="circle213"/>
	<circle cx="764.197" cy="172.453" r="4" fill="#0" id="circle214"/>
	<circle cx="764.917" cy="34.2351" r="4" fill="#0" id="circle215"/>
	<circle cx="771.396" cy="174.612" r="4" fill="#0" id="circle216"/>
	<circle cx="772.116" cy="30.6357" r="4" fill="#0" id="circle217"/>
	<circle cx="778.595" cy="176.052" r="4" fill="#0" id="circle218"/>
	<circle cx="779.315" cy="27.7562" r="4" fill="#0" id="circle219"/>
	<circle cx="785.794" cy="176.772" r="4" fill="#0" id="circle220"/>
	<circle cx="786.514" cy="24.8766" r="4" fill="#0" id="circle221"/>
	<circle cx="792.993" cy="178.212" r="4" fill="#0" id="circle222"/>
	<circle cx="793.713" cy="21.9971" r="4" fill="#0" id="circle223"/>
	<circle cx="800.192" cy="178.212" r="4" fill="#0" id="circle224"/>
	<circle cx="800.911" cy="19.1176" r="4" fill="#0" id="circle225"/>
	<circle cx="807.39" cy="179.652" r="4" fill="#0" id="circle226"/>
	<circle cx="808.11" cy="16.238" r="4" fill="#0" id="circle227"/>
	<circle cx="814.589" cy="179.652" r="4" fill="#0" id="circle228"/>
	<circle cx="815.309" cy="14.0784" r="4" fill="#0" id="circle229"/>
	<circle cx="821.788" cy="181.091" r="4" fill="#0" id="circle230"/>
	<circle cx="822.508" cy="12.6386" r="4" fill="#0" id="circle231"/>
	<circle cx="828.987" cy="181.091" r="4" fill="#0" id="circle232"/>
	<circle cx="829.707" cy="10.479" r="4" fill="#0" id="circle233"/>
	<circle cx="836.186" cy="181.091" r="4" fill="#0" id="circle234"/>
	<circle cx="836.906" cy="9.03919" r="4" fill="#0" id="circle235"/>
	<circle cx="843.385" cy="181.091" r="4" fill="#0" id="circle236"/>
	<circle cx="844.104" cy="7.59942" r="4" fill="#0" id="circle237"/>
	<circle cx="850.583" cy="180.372" r="4" fill="#0" id="circle238"/>
	<circle cx="851.303" cy="6.15965" r="4" fill="#0" id="circle239"/>
	<circle cx="857.782" cy="180.372" r="4" fill="#0" id="circle240"/>
	<circle cx="858.502" cy="5.43977" r="4" fill="#0" id="circle241"/>
	<circle cx="864.981" cy="179.652" r="4" fill="#0" id="circle242"/>
	<circle cx="865.701" cy="4.71988" r="4" fill="#0" id="circle243"/>
	<circle cx="872.18" cy="178.212" r="4" fill="#0" id="circle244"/>
	<circle cx="872.9" cy="4" r="4" fill="#0" id="circle245"/>
	<circle cx="879.379" cy="177.492" r="4" fill="#0" id="circle246"/>
	<circle cx="880.099" cy="4" r="4" fill="#0" id="circle247"/>
	<circle cx="886.578" cy="176.052" r="4" fill="#0" id="circle248"/>
	<circle cx="887.298" cy="4.71988" r="4" fill="#0" id="circle249"/>
	<circle cx="893.776" cy="174.612" r="4" fill="#0" id="circle250"/>
	<circle cx="894.496" cy="5.43977" r="4" fill="#0" id="circle251"/>
	<circle cx="900.975" cy="173.173" r="4" fill="#0" id="circle252"/>
	<circle cx="901.695" cy="5.43977" r="4" fill="#0" id="circle253"/>
	<circle cx="908.174" cy="171.013" r="4" fill="#0" id="circle254"/>
	<circle cx="908.894" cy="6.87954" r="4" fill="#0" id="circle255"/>
	<circle cx="915.373" cy="168.853" r="4" fill="#0" id="circle256"/>
	<circle cx="916.093" cy="8.3193" r="4" fill="#0" id="circle257"/>
	<circle cx="922.572" cy="166.694" r="4" fill="#0" id="circle258"/>
	<circle cx="923.292" cy="10.479" r="4" fill="#0" id="circle259"/>
	<circle cx="929.771" cy="165.254" r="4" fill="#0" id="circle260"/>
	<circle cx="930.491" cy="12.6386" r="4" fill="#0" id="circle261"/>
	<circle cx="936.25" cy="160.935" r="4" fill="#0" id="circle262"/>
	<circle cx="937.689" cy="14.7983" r="4" fill="#0" id="circle263"/>
	<circle cx="942.729" cy="156.615" r="4" fill="#0" id="circle264"/>
	<circle cx="944.888" cy="17.6778" r="4" fill="#0" id="circle265"/>
	<circle cx="949.208" cy="153.016" r="4" fill="#0" id="circle266"/>
	<circle cx="952.087" cy="20.5573" r="4" fill="#0" id="circle267"/>
	<circle cx="954.967" cy="148.697" r="4" fill="#0" id="circle268"/>
	<circle cx="958.566" cy="24.1567" r="4" fill="#0" id="circle269"/>
	<circle cx="960.726" cy="144.377" r="4" fill="#0" id="circle270"/>
	<circle cx="965.045" cy="27.7562" r="4" fill="#0" id="circle271"/>
	<circle cx="966.485" cy="140.058" r="4" fill="#0" id="circle272"/>
	<circle cx="970.804" cy="32.0755" r="4" fill="#0" id="circle273"/>
	<circle cx="972.244" cy="134.299" r="4" fill="#0" id="circle274"/>
	<circle cx="976.563" cy="37.1147" r="4" fill="#0" id="circle275"/>
	<circle cx="978.003" cy="128.54" r="4" fill="#0" id="circle276"/>
	<circle cx="982.322" cy="42.1538" r="4" fill="#0" id="circle277"/>
	<circle cx="983.762" cy="122.061" r="4" fill="#0" id="circle278"/>
	<circle cx="986.642" cy="47.9129" r="4" fill="#0" id="circle279"/>
	<circle cx="987.361" cy="114.862" r="4" fill="#0" id="circle280"/>
	<circle cx="990.241" cy="54.3919" r="4" fill="#0" id="circle281"/>
	<circle cx="990.961" cy="107.663" r="4" fill="#0" id="circle282"/>
	<circle cx="993.84" cy="60.8708" r="4" fill="#0" id="circle283"/>
	<circle cx="993.84" cy="100.464" r="4" fill="#0" id="circle284"/>
	<circle cx="995.28" cy="68.0697" r="4" fill="#0" id="circle285"/>
	<circle cx="996" cy="75.2685" r="4" fill="#0" id="circle286"/>
	<circle cx="996" cy="82.4673" r="4" fill="#0" id="circle287"/>
	<circle cx="996" cy="93.2656" r="4" fill="#0" id="circle288"/>
	</g>
</svg>