<?xml version="1.0" encoding="UTF-8" standalone="no"?>
<!-- Created with CurveBenchmark -->
<svg
	xmlns:dc="http://purl.org/dc/elements/1.1/"
	xmlns:cc="http://creativecommons.org/ns#"
	xmlns:rdf="http://www.w3.org/1999/02/22-rdf-syntax-ns#"
	xmlns:svg="http://www.w3.org/2000/svg"
	xmlns="http://www.w3.org/2000/svg"
	xmlns:sodipodi="http://sodipodi.sourceforge.net/DTD/sodipodi-0.dtd"
	xmlns:inkscape="http://www.inkscape.org/namespaces/inkscape"
	width="1000"
	height="1000"
	id="svg2"
	version="1.1"
	sodipodi:docname="manifold/connect2d-woodenspoonbinary11.png.txt">
<defs
	id="defs4" />
<metadata
	id="metadata7">
	<rdf:RDF>
		<cc:Work
			rdf:about="">
			<dc:format>image/svg+xml</dc:format>
			<dc:type
				rdf:resource="http://purl.org/dc/dcmitype/StillImage" />
			<dc:title></dc:title>
		</cc:Work>
	</rdf:RDF>
</metadata>
<g
	inkscape:label="Layer 1"
	inkscape:groupmode="layer"
	id="layer1">
	<path style="fill:none;stroke:red;stroke-width:1px;stroke-linecap:butt;stroke-linejoin:miter;stroke-opacity:1" d="M 996,94.0454 994.499,106.802 z" id="boundary" inkscape:connector-curvature="0" />
	<path style="fill:none;stroke:red;stroke-width:1px;stroke-linecap:butt;stroke-linejoin:miter;stroke-opacity:1" d="M 994.499,106.802 992.998,115.056 z" id="boundary" inkscape:connector-curvature="0" />
	<path style="fill:none;stroke:red;stroke-width:1px;stroke-linecap:butt;stroke-linejoin:miter;stroke-opacity:1" d="M 992.998,115.056 990.747,124.061 z" id="boundary" inkscape:connector-curvature="0" />
	<path style="fill:none;stroke:red;stroke-width:1px;stroke-linecap:butt;stroke-linejoin:miter;stroke-opacity:1" d="M 990.747,124.061 987.746,133.065 z" id="boundary" inkscape:connector-curvature="0" />
	<path style="fill:none;stroke:red;stroke-width:1px;stroke-linecap:butt;stroke-linejoin:miter;stroke-opacity:1" d="M 987.746,133.065 983.994,142.07 z" id="boundary" inkscape:connector-curvature="0" />
	<path style="fill:none;stroke:red;stroke-width:1px;stroke-linecap:butt;stroke-linejoin:miter;stroke-opacity:1" d="M 983.994,142.07 980.242,149.573 z" id="boundary" inkscape:connector-curvature="0" />
	<path style="fill:none;stroke:red;stroke-width:1px;stroke-linecap:butt;stroke-linejoin:miter;stroke-opacity:1" d="M 980.242,149.573 975.74,157.077 z" id="boundary" inkscape:connector-curvature="0" />
	<path style="fill:none;stroke:red;stroke-width:1px;stroke-linecap:butt;stroke-linejoin:miter;stroke-opacity:1" d="M 975.74,157.077 971.238,164.581 z" id="boundary" inkscape:connector-curvature="0" />
	<path style="fill:none;stroke:red;stroke-width:1px;stroke-linecap:butt;stroke-linejoin:miter;stroke-opacity:1" d="M 971.238,164.581 968.236,172.085 z" id="boundary" inkscape:connector-curvature="0" />
	<path style="fill:none;stroke:red;stroke-width:1px;stroke-linecap:butt;stroke-linejoin:miter;stroke-opacity:1" d="M 968.236,172.085 965.985,181.84 z" id="boundary" inkscape:connector-curvature="0" />
	<path style="fill:none;stroke:red;stroke-width:1px;stroke-linecap:butt;stroke-linejoin:miter;stroke-opacity:1" d="M 965.985,181.84 963.734,190.094 z" id="boundary" inkscape:connector-curvature="0" />
	<path style="fill:none;stroke:red;stroke-width:1px;stroke-linecap:butt;stroke-linejoin:miter;stroke-opacity:1" d="M 963.734,190.094 961.483,197.598 z" id="boundary" inkscape:connector-curvature="0" />
	<path style="fill:none;stroke:red;stroke-width:1px;stroke-linecap:butt;stroke-linejoin:miter;stroke-opacity:1" d="M 961.483,197.598 957.731,205.101 z" id="boundary" inkscape:connector-curvature="0" />
	<path style="fill:none;stroke:red;stroke-width:1px;stroke-linecap:butt;stroke-linejoin:miter;stroke-opacity:1" d="M 957.731,205.101 953.979,214.106 z" id="boundary" inkscape:connector-curvature="0" />
	<path style="fill:none;stroke:red;stroke-width:1px;stroke-linecap:butt;stroke-linejoin:miter;stroke-opacity:1" d="M 953.979,214.106 948.726,220.859 z" id="boundary" inkscape:connector-curvature="0" />
	<path style="fill:none;stroke:red;stroke-width:1px;stroke-linecap:butt;stroke-linejoin:miter;stroke-opacity:1" d="M 948.726,220.859 943.474,226.862 z" id="boundary" inkscape:connector-curvature="0" />
	<path style="fill:none;stroke:red;stroke-width:1px;stroke-linecap:butt;stroke-linejoin:miter;stroke-opacity:1" d="M 943.474,226.862 937.47,232.865 z" id="boundary" inkscape:connector-curvature="0" />
	<path style="fill:none;stroke:red;stroke-width:1px;stroke-linecap:butt;stroke-linejoin:miter;stroke-opacity:1" d="M 937.47,232.865 931.467,238.118 z" id="boundary" inkscape:connector-curvature="0" />
	<path style="fill:none;stroke:red;stroke-width:1px;stroke-linecap:butt;stroke-linejoin:miter;stroke-opacity:1" d="M 931.467,238.118 926.215,244.871 z" id="boundary" inkscape:connector-curvature="0" />
	<path style="fill:none;stroke:red;stroke-width:1px;stroke-linecap:butt;stroke-linejoin:miter;stroke-opacity:1" d="M 926.215,244.871 920.212,249.374 z" id="boundary" inkscape:connector-curvature="0" />
	<path style="fill:none;stroke:red;stroke-width:1px;stroke-linecap:butt;stroke-linejoin:miter;stroke-opacity:1" d="M 920.212,249.374 914.209,253.876 z" id="boundary" inkscape:connector-curvature="0" />
	<path style="fill:none;stroke:red;stroke-width:1px;stroke-linecap:butt;stroke-linejoin:miter;stroke-opacity:1" d="M 914.209,253.876 907.455,257.628 z" id="boundary" inkscape:connector-curvature="0" />
	<path style="fill:none;stroke:red;stroke-width:1px;stroke-linecap:butt;stroke-linejoin:miter;stroke-opacity:1" d="M 907.455,257.628 899.952,261.38 z" id="boundary" inkscape:connector-curvature="0" />
	<path style="fill:none;stroke:red;stroke-width:1px;stroke-linecap:butt;stroke-linejoin:miter;stroke-opacity:1" d="M 899.952,261.38 893.198,265.132 z" id="boundary" inkscape:connector-curvature="0" />
	<path style="fill:none;stroke:red;stroke-width:1px;stroke-linecap:butt;stroke-linejoin:miter;stroke-opacity:1" d="M 893.198,265.132 885.694,268.133 z" id="boundary" inkscape:connector-curvature="0" />
	<path style="fill:none;stroke:red;stroke-width:1px;stroke-linecap:butt;stroke-linejoin:miter;stroke-opacity:1" d="M 885.694,268.133 878.191,271.135 z" id="boundary" inkscape:connector-curvature="0" />
	<path style="fill:none;stroke:red;stroke-width:1px;stroke-linecap:butt;stroke-linejoin:miter;stroke-opacity:1" d="M 878.191,271.135 870.687,272.635 z" id="boundary" inkscape:connector-curvature="0" />
	<path style="fill:none;stroke:red;stroke-width:1px;stroke-linecap:butt;stroke-linejoin:miter;stroke-opacity:1" d="M 870.687,272.635 863.183,275.637 z" id="boundary" inkscape:connector-curvature="0" />
	<path style="fill:none;stroke:red;stroke-width:1px;stroke-linecap:butt;stroke-linejoin:miter;stroke-opacity:1" d="M 863.183,275.637 855.679,277.138 z" id="boundary" inkscape:connector-curvature="0" />
	<path style="fill:none;stroke:red;stroke-width:1px;stroke-linecap:butt;stroke-linejoin:miter;stroke-opacity:1" d="M 855.679,277.138 848.175,277.888 z" id="boundary" inkscape:connector-curvature="0" />
	<path style="fill:none;stroke:red;stroke-width:1px;stroke-linecap:butt;stroke-linejoin:miter;stroke-opacity:1" d="M 848.175,277.888 840.672,280.139 z" id="boundary" inkscape:connector-curvature="0" />
	<path style="fill:none;stroke:red;stroke-width:1px;stroke-linecap:butt;stroke-linejoin:miter;stroke-opacity:1" d="M 840.672,280.139 833.168,281.64 z" id="boundary" inkscape:connector-curvature="0" />
	<path style="fill:none;stroke:red;stroke-width:1px;stroke-linecap:butt;stroke-linejoin:miter;stroke-opacity:1" d="M 833.168,281.64 825.664,282.39 z" id="boundary" inkscape:connector-curvature="0" />
	<path style="fill:none;stroke:red;stroke-width:1px;stroke-linecap:butt;stroke-linejoin:miter;stroke-opacity:1" d="M 825.664,282.39 818.16,283.891 z" id="boundary" inkscape:connector-curvature="0" />
	<path style="fill:none;stroke:red;stroke-width:1px;stroke-linecap:butt;stroke-linejoin:miter;stroke-opacity:1" d="M 818.16,283.891 810.657,283.141 z" id="boundary" inkscape:connector-curvature="0" />
	<path style="fill:none;stroke:red;stroke-width:1px;stroke-linecap:butt;stroke-linejoin:miter;stroke-opacity:1" d="M 810.657,283.141 803.153,284.641 z" id="boundary" inkscape:connector-curvature="0" />
	<path style="fill:none;stroke:red;stroke-width:1px;stroke-linecap:butt;stroke-linejoin:miter;stroke-opacity:1" d="M 803.153,284.641 795.649,285.392 z" id="boundary" inkscape:connector-curvature="0" />
	<path style="fill:none;stroke:red;stroke-width:1px;stroke-linecap:butt;stroke-linejoin:miter;stroke-opacity:1" d="M 795.649,285.392 788.145,284.641 z" id="boundary" inkscape:connector-curvature="0" />
	<path style="fill:none;stroke:red;stroke-width:1px;stroke-linecap:butt;stroke-linejoin:miter;stroke-opacity:1" d="M 788.145,284.641 780.641,285.392 z" id="boundary" inkscape:connector-curvature="0" />
	<path style="fill:none;stroke:red;stroke-width:1px;stroke-linecap:butt;stroke-linejoin:miter;stroke-opacity:1" d="M 780.641,285.392 773.138,285.392 z" id="boundary" inkscape:connector-curvature="0" />
	<path style="fill:none;stroke:red;stroke-width:1px;stroke-linecap:butt;stroke-linejoin:miter;stroke-opacity:1" d="M 773.138,285.392 765.634,285.392 z" id="boundary" inkscape:connector-curvature="0" />
	<path style="fill:none;stroke:red;stroke-width:1px;stroke-linecap:butt;stroke-linejoin:miter;stroke-opacity:1" d="M 765.634,285.392 758.13,285.392 z" id="boundary" inkscape:connector-curvature="0" />
	<path style="fill:none;stroke:red;stroke-width:1px;stroke-linecap:butt;stroke-linejoin:miter;stroke-opacity:1" d="M 758.13,285.392 750.626,286.142 z" id="boundary" inkscape:connector-curvature="0" />
	<path style="fill:none;stroke:red;stroke-width:1px;stroke-linecap:butt;stroke-linejoin:miter;stroke-opacity:1" d="M 750.626,286.142 743.123,286.142 z" id="boundary" inkscape:connector-curvature="0" />
	<path style="fill:none;stroke:red;stroke-width:1px;stroke-linecap:butt;stroke-linejoin:miter;stroke-opacity:1" d="M 743.123,286.142 735.619,286.142 z" id="boundary" inkscape:connector-curvature="0" />
	<path style="fill:none;stroke:red;stroke-width:1px;stroke-linecap:butt;stroke-linejoin:miter;stroke-opacity:1" d="M 735.619,286.142 728.115,286.893 z" id="boundary" inkscape:connector-curvature="0" />
	<path style="fill:none;stroke:red;stroke-width:1px;stroke-linecap:butt;stroke-linejoin:miter;stroke-opacity:1" d="M 728.115,286.893 720.611,286.142 z" id="boundary" inkscape:connector-curvature="0" />
	<path style="fill:none;stroke:red;stroke-width:1px;stroke-linecap:butt;stroke-linejoin:miter;stroke-opacity:1" d="M 720.611,286.142 713.107,287.643 z" id="boundary" inkscape:connector-curvature="0" />
	<path style="fill:none;stroke:red;stroke-width:1px;stroke-linecap:butt;stroke-linejoin:miter;stroke-opacity:1" d="M 713.107,287.643 705.604,287.643 z" id="boundary" inkscape:connector-curvature="0" />
	<path style="fill:none;stroke:red;stroke-width:1px;stroke-linecap:butt;stroke-linejoin:miter;stroke-opacity:1" d="M 705.604,287.643 699.601,292.896 z" id="boundary" inkscape:connector-curvature="0" />
	<path style="fill:none;stroke:red;stroke-width:1px;stroke-linecap:butt;stroke-linejoin:miter;stroke-opacity:1" d="M 699.601,292.896 692.097,294.396 z" id="boundary" inkscape:connector-curvature="0" />
	<path style="fill:none;stroke:red;stroke-width:1px;stroke-linecap:butt;stroke-linejoin:miter;stroke-opacity:1" d="M 692.097,294.396 684.593,297.398 z" id="boundary" inkscape:connector-curvature="0" />
	<path style="fill:none;stroke:red;stroke-width:1px;stroke-linecap:butt;stroke-linejoin:miter;stroke-opacity:1" d="M 684.593,297.398 678.59,302.651 z" id="boundary" inkscape:connector-curvature="0" />
	<path style="fill:none;stroke:red;stroke-width:1px;stroke-linecap:butt;stroke-linejoin:miter;stroke-opacity:1" d="M 678.59,302.651 671.837,306.402 z" id="boundary" inkscape:connector-curvature="0" />
	<path style="fill:none;stroke:red;stroke-width:1px;stroke-linecap:butt;stroke-linejoin:miter;stroke-opacity:1" d="M 671.837,306.402 665.083,310.154 z" id="boundary" inkscape:connector-curvature="0" />
	<path style="fill:none;stroke:red;stroke-width:1px;stroke-linecap:butt;stroke-linejoin:miter;stroke-opacity:1" d="M 665.083,310.154 657.579,313.906 z" id="boundary" inkscape:connector-curvature="0" />
	<path style="fill:none;stroke:red;stroke-width:1px;stroke-linecap:butt;stroke-linejoin:miter;stroke-opacity:1" d="M 657.579,313.906 651.576,319.159 z" id="boundary" inkscape:connector-curvature="0" />
	<path style="fill:none;stroke:red;stroke-width:1px;stroke-linecap:butt;stroke-linejoin:miter;stroke-opacity:1" d="M 651.576,319.159 644.073,322.911 z" id="boundary" inkscape:connector-curvature="0" />
	<path style="fill:none;stroke:red;stroke-width:1px;stroke-linecap:butt;stroke-linejoin:miter;stroke-opacity:1" d="M 644.073,322.911 636.569,324.411 z" id="boundary" inkscape:connector-curvature="0" />
	<path style="fill:none;stroke:red;stroke-width:1px;stroke-linecap:butt;stroke-linejoin:miter;stroke-opacity:1" d="M 636.569,324.411 630.566,329.664 z" id="boundary" inkscape:connector-curvature="0" />
	<path style="fill:none;stroke:red;stroke-width:1px;stroke-linecap:butt;stroke-linejoin:miter;stroke-opacity:1" d="M 630.566,329.664 624.563,334.166 z" id="boundary" inkscape:connector-curvature="0" />
	<path style="fill:none;stroke:red;stroke-width:1px;stroke-linecap:butt;stroke-linejoin:miter;stroke-opacity:1" d="M 624.563,334.166 617.809,337.918 z" id="boundary" inkscape:connector-curvature="0" />
	<path style="fill:none;stroke:red;stroke-width:1px;stroke-linecap:butt;stroke-linejoin:miter;stroke-opacity:1" d="M 617.809,337.918 611.806,342.421 z" id="boundary" inkscape:connector-curvature="0" />
	<path style="fill:none;stroke:red;stroke-width:1px;stroke-linecap:butt;stroke-linejoin:miter;stroke-opacity:1" d="M 611.806,342.421 605.803,346.923 z" id="boundary" inkscape:connector-curvature="0" />
	<path style="fill:none;stroke:red;stroke-width:1px;stroke-linecap:butt;stroke-linejoin:miter;stroke-opacity:1" d="M 605.803,346.923 598.3,350.675 z" id="boundary" inkscape:connector-curvature="0" />
	<path style="fill:none;stroke:red;stroke-width:1px;stroke-linecap:butt;stroke-linejoin:miter;stroke-opacity:1" d="M 598.3,350.675 592.297,355.177 z" id="boundary" inkscape:connector-curvature="0" />
	<path style="fill:none;stroke:red;stroke-width:1px;stroke-linecap:butt;stroke-linejoin:miter;stroke-opacity:1" d="M 592.297,355.177 585.543,359.679 z" id="boundary" inkscape:connector-curvature="0" />
	<path style="fill:none;stroke:red;stroke-width:1px;stroke-linecap:butt;stroke-linejoin:miter;stroke-opacity:1" d="M 585.543,359.679 578.79,363.431 z" id="boundary" inkscape:connector-curvature="0" />
	<path style="fill:none;stroke:red;stroke-width:1px;stroke-linecap:butt;stroke-linejoin:miter;stroke-opacity:1" d="M 578.79,363.431 572.787,367.933 z" id="boundary" inkscape:connector-curvature="0" />
	<path style="fill:none;stroke:red;stroke-width:1px;stroke-linecap:butt;stroke-linejoin:miter;stroke-opacity:1" d="M 572.787,367.933 566.033,371.685 z" id="boundary" inkscape:connector-curvature="0" />
	<path style="fill:none;stroke:red;stroke-width:1px;stroke-linecap:butt;stroke-linejoin:miter;stroke-opacity:1" d="M 566.033,371.685 560.03,376.188 z" id="boundary" inkscape:connector-curvature="0" />
	<path style="fill:none;stroke:red;stroke-width:1px;stroke-linecap:butt;stroke-linejoin:miter;stroke-opacity:1" d="M 560.03,376.188 553.277,380.69 z" id="boundary" inkscape:connector-curvature="0" />
	<path style="fill:none;stroke:red;stroke-width:1px;stroke-linecap:butt;stroke-linejoin:miter;stroke-opacity:1" d="M 553.277,380.69 547.274,385.192 z" id="boundary" inkscape:connector-curvature="0" />
	<path style="fill:none;stroke:red;stroke-width:1px;stroke-linecap:butt;stroke-linejoin:miter;stroke-opacity:1" d="M 547.274,385.192 540.52,388.944 z" id="boundary" inkscape:connector-curvature="0" />
	<path style="fill:none;stroke:red;stroke-width:1px;stroke-linecap:butt;stroke-linejoin:miter;stroke-opacity:1" d="M 540.52,388.944 534.517,393.446 z" id="boundary" inkscape:connector-curvature="0" />
	<path style="fill:none;stroke:red;stroke-width:1px;stroke-linecap:butt;stroke-linejoin:miter;stroke-opacity:1" d="M 534.517,393.446 528.514,397.949 z" id="boundary" inkscape:connector-curvature="0" />
	<path style="fill:none;stroke:red;stroke-width:1px;stroke-linecap:butt;stroke-linejoin:miter;stroke-opacity:1" d="M 528.514,397.949 522.511,402.451 z" id="boundary" inkscape:connector-curvature="0" />
	<path style="fill:none;stroke:red;stroke-width:1px;stroke-linecap:butt;stroke-linejoin:miter;stroke-opacity:1" d="M 522.511,402.451 515.758,406.203 z" id="boundary" inkscape:connector-curvature="0" />
	<path style="fill:none;stroke:red;stroke-width:1px;stroke-linecap:butt;stroke-linejoin:miter;stroke-opacity:1" d="M 515.758,406.203 509.755,410.705 z" id="boundary" inkscape:connector-curvature="0" />
	<path style="fill:none;stroke:red;stroke-width:1px;stroke-linecap:butt;stroke-linejoin:miter;stroke-opacity:1" d="M 509.755,410.705 503.752,415.207 z" id="boundary" inkscape:connector-curvature="0" />
	<path style="fill:none;stroke:red;stroke-width:1px;stroke-linecap:butt;stroke-linejoin:miter;stroke-opacity:1" d="M 503.752,415.207 496.998,418.959 z" id="boundary" inkscape:connector-curvature="0" />
	<path style="fill:none;stroke:red;stroke-width:1px;stroke-linecap:butt;stroke-linejoin:miter;stroke-opacity:1" d="M 496.998,418.959 490.995,423.461 z" id="boundary" inkscape:connector-curvature="0" />
	<path style="fill:none;stroke:red;stroke-width:1px;stroke-linecap:butt;stroke-linejoin:miter;stroke-opacity:1" d="M 490.995,423.461 484.992,427.964 z" id="boundary" inkscape:connector-curvature="0" />
	<path style="fill:none;stroke:red;stroke-width:1px;stroke-linecap:butt;stroke-linejoin:miter;stroke-opacity:1" d="M 484.992,427.964 478.239,432.466 z" id="boundary" inkscape:connector-curvature="0" />
	<path style="fill:none;stroke:red;stroke-width:1px;stroke-linecap:butt;stroke-linejoin:miter;stroke-opacity:1" d="M 478.239,432.466 471.486,436.218 z" id="boundary" inkscape:connector-curvature="0" />
	<path style="fill:none;stroke:red;stroke-width:1px;stroke-linecap:butt;stroke-linejoin:miter;stroke-opacity:1" d="M 471.486,436.218 464.732,439.97 z" id="boundary" inkscape:connector-curvature="0" />
	<path style="fill:none;stroke:red;stroke-width:1px;stroke-linecap:butt;stroke-linejoin:miter;stroke-opacity:1" d="M 464.732,439.97 458.729,445.222 z" id="boundary" inkscape:connector-curvature="0" />
	<path style="fill:none;stroke:red;stroke-width:1px;stroke-linecap:butt;stroke-linejoin:miter;stroke-opacity:1" d="M 458.729,445.222 451.976,449.725 z" id="boundary" inkscape:connector-curvature="0" />
	<path style="fill:none;stroke:red;stroke-width:1px;stroke-linecap:butt;stroke-linejoin:miter;stroke-opacity:1" d="M 451.976,449.725 445.973,454.977 z" id="boundary" inkscape:connector-curvature="0" />
	<path style="fill:none;stroke:red;stroke-width:1px;stroke-linecap:butt;stroke-linejoin:miter;stroke-opacity:1" d="M 445.973,454.977 438.469,458.729 z" id="boundary" inkscape:connector-curvature="0" />
	<path style="fill:none;stroke:red;stroke-width:1px;stroke-linecap:butt;stroke-linejoin:miter;stroke-opacity:1" d="M 438.469,458.729 432.466,463.231 z" id="boundary" inkscape:connector-curvature="0" />
	<path style="fill:none;stroke:red;stroke-width:1px;stroke-linecap:butt;stroke-linejoin:miter;stroke-opacity:1" d="M 432.466,463.231 426.463,467.734 z" id="boundary" inkscape:connector-curvature="0" />
	<path style="fill:none;stroke:red;stroke-width:1px;stroke-linecap:butt;stroke-linejoin:miter;stroke-opacity:1" d="M 426.463,467.734 419.71,471.486 z" id="boundary" inkscape:connector-curvature="0" />
	<path style="fill:none;stroke:red;stroke-width:1px;stroke-linecap:butt;stroke-linejoin:miter;stroke-opacity:1" d="M 419.71,471.486 413.707,475.988 z" id="boundary" inkscape:connector-curvature="0" />
	<path style="fill:none;stroke:red;stroke-width:1px;stroke-linecap:butt;stroke-linejoin:miter;stroke-opacity:1" d="M 413.707,475.988 407.703,480.49 z" id="boundary" inkscape:connector-curvature="0" />
	<path style="fill:none;stroke:red;stroke-width:1px;stroke-linecap:butt;stroke-linejoin:miter;stroke-opacity:1" d="M 407.703,480.49 401.7,484.992 z" id="boundary" inkscape:connector-curvature="0" />
	<path style="fill:none;stroke:red;stroke-width:1px;stroke-linecap:butt;stroke-linejoin:miter;stroke-opacity:1" d="M 401.7,484.992 394.947,488.744 z" id="boundary" inkscape:connector-curvature="0" />
	<path style="fill:none;stroke:red;stroke-width:1px;stroke-linecap:butt;stroke-linejoin:miter;stroke-opacity:1" d="M 394.947,488.744 388.944,493.997 z" id="boundary" inkscape:connector-curvature="0" />
	<path style="fill:none;stroke:red;stroke-width:1px;stroke-linecap:butt;stroke-linejoin:miter;stroke-opacity:1" d="M 388.944,493.997 381.44,497.749 z" id="boundary" inkscape:connector-curvature="0" />
	<path style="fill:none;stroke:red;stroke-width:1px;stroke-linecap:butt;stroke-linejoin:miter;stroke-opacity:1" d="M 381.44,497.749 375.437,502.251 z" id="boundary" inkscape:connector-curvature="0" />
	<path style="fill:none;stroke:red;stroke-width:1px;stroke-linecap:butt;stroke-linejoin:miter;stroke-opacity:1" d="M 375.437,502.251 369.434,506.753 z" id="boundary" inkscape:connector-curvature="0" />
	<path style="fill:none;stroke:red;stroke-width:1px;stroke-linecap:butt;stroke-linejoin:miter;stroke-opacity:1" d="M 369.434,506.753 363.431,512.006 z" id="boundary" inkscape:connector-curvature="0" />
	<path style="fill:none;stroke:red;stroke-width:1px;stroke-linecap:butt;stroke-linejoin:miter;stroke-opacity:1" d="M 363.431,512.006 357.428,516.508 z" id="boundary" inkscape:connector-curvature="0" />
	<path style="fill:none;stroke:red;stroke-width:1px;stroke-linecap:butt;stroke-linejoin:miter;stroke-opacity:1" d="M 357.428,516.508 349.924,520.26 z" id="boundary" inkscape:connector-curvature="0" />
	<path style="fill:none;stroke:red;stroke-width:1px;stroke-linecap:butt;stroke-linejoin:miter;stroke-opacity:1" d="M 349.924,520.26 343.921,524.762 z" id="boundary" inkscape:connector-curvature="0" />
	<path style="fill:none;stroke:red;stroke-width:1px;stroke-linecap:butt;stroke-linejoin:miter;stroke-opacity:1" d="M 343.921,524.762 337.918,529.265 z" id="boundary" inkscape:connector-curvature="0" />
	<path style="fill:none;stroke:red;stroke-width:1px;stroke-linecap:butt;stroke-linejoin:miter;stroke-opacity:1" d="M 337.918,529.265 331.915,533.767 z" id="boundary" inkscape:connector-curvature="0" />
	<path style="fill:none;stroke:red;stroke-width:1px;stroke-linecap:butt;stroke-linejoin:miter;stroke-opacity:1" d="M 331.915,533.767 325.162,537.519 z" id="boundary" inkscape:connector-curvature="0" />
	<path style="fill:none;stroke:red;stroke-width:1px;stroke-linecap:butt;stroke-linejoin:miter;stroke-opacity:1" d="M 325.162,537.519 318.408,542.021 z" id="boundary" inkscape:connector-curvature="0" />
	<path style="fill:none;stroke:red;stroke-width:1px;stroke-linecap:butt;stroke-linejoin:miter;stroke-opacity:1" d="M 318.408,542.021 312.405,546.523 z" id="boundary" inkscape:connector-curvature="0" />
	<path style="fill:none;stroke:red;stroke-width:1px;stroke-linecap:butt;stroke-linejoin:miter;stroke-opacity:1" d="M 312.405,546.523 306.402,551.026 z" id="boundary" inkscape:connector-curvature="0" />
	<path style="fill:none;stroke:red;stroke-width:1px;stroke-linecap:butt;stroke-linejoin:miter;stroke-opacity:1" d="M 306.402,551.026 299.649,555.528 z" id="boundary" inkscape:connector-curvature="0" />
	<path style="fill:none;stroke:red;stroke-width:1px;stroke-linecap:butt;stroke-linejoin:miter;stroke-opacity:1" d="M 299.649,555.528 292.896,560.03 z" id="boundary" inkscape:connector-curvature="0" />
	<path style="fill:none;stroke:red;stroke-width:1px;stroke-linecap:butt;stroke-linejoin:miter;stroke-opacity:1" d="M 292.896,560.03 286.142,563.782 z" id="boundary" inkscape:connector-curvature="0" />
	<path style="fill:none;stroke:red;stroke-width:1px;stroke-linecap:butt;stroke-linejoin:miter;stroke-opacity:1" d="M 286.142,563.782 280.139,568.284 z" id="boundary" inkscape:connector-curvature="0" />
	<path style="fill:none;stroke:red;stroke-width:1px;stroke-linecap:butt;stroke-linejoin:miter;stroke-opacity:1" d="M 280.139,568.284 273.386,572.787 z" id="boundary" inkscape:connector-curvature="0" />
	<path style="fill:none;stroke:red;stroke-width:1px;stroke-linecap:butt;stroke-linejoin:miter;stroke-opacity:1" d="M 273.386,572.787 267.383,577.289 z" id="boundary" inkscape:connector-curvature="0" />
	<path style="fill:none;stroke:red;stroke-width:1px;stroke-linecap:butt;stroke-linejoin:miter;stroke-opacity:1" d="M 267.383,577.289 260.629,581.791 z" id="boundary" inkscape:connector-curvature="0" />
	<path style="fill:none;stroke:red;stroke-width:1px;stroke-linecap:butt;stroke-linejoin:miter;stroke-opacity:1" d="M 260.629,581.791 253.876,586.293 z" id="boundary" inkscape:connector-curvature="0" />
	<path style="fill:none;stroke:red;stroke-width:1px;stroke-linecap:butt;stroke-linejoin:miter;stroke-opacity:1" d="M 253.876,586.293 247.873,590.796 z" id="boundary" inkscape:connector-curvature="0" />
	<path style="fill:none;stroke:red;stroke-width:1px;stroke-linecap:butt;stroke-linejoin:miter;stroke-opacity:1" d="M 247.873,590.796 241.87,595.298 z" id="boundary" inkscape:connector-curvature="0" />
	<path style="fill:none;stroke:red;stroke-width:1px;stroke-linecap:butt;stroke-linejoin:miter;stroke-opacity:1" d="M 241.87,595.298 235.116,599.05 z" id="boundary" inkscape:connector-curvature="0" />
	<path style="fill:none;stroke:red;stroke-width:1px;stroke-linecap:butt;stroke-linejoin:miter;stroke-opacity:1" d="M 235.116,599.05 228.363,604.303 z" id="boundary" inkscape:connector-curvature="0" />
	<path style="fill:none;stroke:red;stroke-width:1px;stroke-linecap:butt;stroke-linejoin:miter;stroke-opacity:1" d="M 228.363,604.303 222.36,608.805 z" id="boundary" inkscape:connector-curvature="0" />
	<path style="fill:none;stroke:red;stroke-width:1px;stroke-linecap:butt;stroke-linejoin:miter;stroke-opacity:1" d="M 222.36,608.805 215.607,612.557 z" id="boundary" inkscape:connector-curvature="0" />
	<path style="fill:none;stroke:red;stroke-width:1px;stroke-linecap:butt;stroke-linejoin:miter;stroke-opacity:1" d="M 215.607,612.557 208.853,616.309 z" id="boundary" inkscape:connector-curvature="0" />
	<path style="fill:none;stroke:red;stroke-width:1px;stroke-linecap:butt;stroke-linejoin:miter;stroke-opacity:1" d="M 208.853,616.309 202.85,621.561 z" id="boundary" inkscape:connector-curvature="0" />
	<path style="fill:none;stroke:red;stroke-width:1px;stroke-linecap:butt;stroke-linejoin:miter;stroke-opacity:1" d="M 202.85,621.561 196.097,625.313 z" id="boundary" inkscape:connector-curvature="0" />
	<path style="fill:none;stroke:red;stroke-width:1px;stroke-linecap:butt;stroke-linejoin:miter;stroke-opacity:1" d="M 196.097,625.313 189.343,629.815 z" id="boundary" inkscape:connector-curvature="0" />
	<path style="fill:none;stroke:red;stroke-width:1px;stroke-linecap:butt;stroke-linejoin:miter;stroke-opacity:1" d="M 189.343,629.815 183.34,635.068 z" id="boundary" inkscape:connector-curvature="0" />
	<path style="fill:none;stroke:red;stroke-width:1px;stroke-linecap:butt;stroke-linejoin:miter;stroke-opacity:1" d="M 183.34,635.068 176.587,638.82 z" id="boundary" inkscape:connector-curvature="0" />
	<path style="fill:none;stroke:red;stroke-width:1px;stroke-linecap:butt;stroke-linejoin:miter;stroke-opacity:1" d="M 176.587,638.82 170.584,643.322 z" id="boundary" inkscape:connector-curvature="0" />
	<path style="fill:none;stroke:red;stroke-width:1px;stroke-linecap:butt;stroke-linejoin:miter;stroke-opacity:1" d="M 170.584,643.322 164.581,647.825 z" id="boundary" inkscape:connector-curvature="0" />
	<path style="fill:none;stroke:red;stroke-width:1px;stroke-linecap:butt;stroke-linejoin:miter;stroke-opacity:1" d="M 164.581,647.825 157.077,651.576 z" id="boundary" inkscape:connector-curvature="0" />
	<path style="fill:none;stroke:red;stroke-width:1px;stroke-linecap:butt;stroke-linejoin:miter;stroke-opacity:1" d="M 157.077,651.576 150.324,656.829 z" id="boundary" inkscape:connector-curvature="0" />
	<path style="fill:none;stroke:red;stroke-width:1px;stroke-linecap:butt;stroke-linejoin:miter;stroke-opacity:1" d="M 150.324,656.829 144.321,661.331 z" id="boundary" inkscape:connector-curvature="0" />
	<path style="fill:none;stroke:red;stroke-width:1px;stroke-linecap:butt;stroke-linejoin:miter;stroke-opacity:1" d="M 144.321,661.331 137.567,665.083 z" id="boundary" inkscape:connector-curvature="0" />
	<path style="fill:none;stroke:red;stroke-width:1px;stroke-linecap:butt;stroke-linejoin:miter;stroke-opacity:1" d="M 137.567,665.083 131.564,669.585 z" id="boundary" inkscape:connector-curvature="0" />
	<path style="fill:none;stroke:red;stroke-width:1px;stroke-linecap:butt;stroke-linejoin:miter;stroke-opacity:1" d="M 131.564,669.585 124.811,673.337 z" id="boundary" inkscape:connector-curvature="0" />
	<path style="fill:none;stroke:red;stroke-width:1px;stroke-linecap:butt;stroke-linejoin:miter;stroke-opacity:1" d="M 124.811,673.337 118.808,678.59 z" id="boundary" inkscape:connector-curvature="0" />
	<path style="fill:none;stroke:red;stroke-width:1px;stroke-linecap:butt;stroke-linejoin:miter;stroke-opacity:1" d="M 118.808,678.59 112.054,682.342 z" id="boundary" inkscape:connector-curvature="0" />
	<path style="fill:none;stroke:red;stroke-width:1px;stroke-linecap:butt;stroke-linejoin:miter;stroke-opacity:1" d="M 112.054,682.342 106.051,687.595 z" id="boundary" inkscape:connector-curvature="0" />
	<path style="fill:none;stroke:red;stroke-width:1px;stroke-linecap:butt;stroke-linejoin:miter;stroke-opacity:1" d="M 106.051,687.595 99.298,691.346 z" id="boundary" inkscape:connector-curvature="0" />
	<path style="fill:none;stroke:red;stroke-width:1px;stroke-linecap:butt;stroke-linejoin:miter;stroke-opacity:1" d="M 99.298,691.346 93.295,695.849 z" id="boundary" inkscape:connector-curvature="0" />
	<path style="fill:none;stroke:red;stroke-width:1px;stroke-linecap:butt;stroke-linejoin:miter;stroke-opacity:1" d="M 93.295,695.849 86.5416,699.601 z" id="boundary" inkscape:connector-curvature="0" />
	<path style="fill:none;stroke:red;stroke-width:1px;stroke-linecap:butt;stroke-linejoin:miter;stroke-opacity:1" d="M 86.5416,699.601 80.5386,704.853 z" id="boundary" inkscape:connector-curvature="0" />
	<path style="fill:none;stroke:red;stroke-width:1px;stroke-linecap:butt;stroke-linejoin:miter;stroke-opacity:1" d="M 80.5386,704.853 73.7852,708.605 z" id="boundary" inkscape:connector-curvature="0" />
	<path style="fill:none;stroke:red;stroke-width:1px;stroke-linecap:butt;stroke-linejoin:miter;stroke-opacity:1" d="M 73.7852,708.605 66.2814,711.607 z" id="boundary" inkscape:connector-curvature="0" />
	<path style="fill:none;stroke:red;stroke-width:1px;stroke-linecap:butt;stroke-linejoin:miter;stroke-opacity:1" d="M 66.2814,711.607 60.2784,716.109 z" id="boundary" inkscape:connector-curvature="0" />
	<path style="fill:none;stroke:red;stroke-width:1px;stroke-linecap:butt;stroke-linejoin:miter;stroke-opacity:1" d="M 60.2784,716.109 52.7746,719.11 z" id="boundary" inkscape:connector-curvature="0" />
	<path style="fill:none;stroke:red;stroke-width:1px;stroke-linecap:butt;stroke-linejoin:miter;stroke-opacity:1" d="M 52.7746,719.11 46.0212,723.613 z" id="boundary" inkscape:connector-curvature="0" />
	<path style="fill:none;stroke:red;stroke-width:1px;stroke-linecap:butt;stroke-linejoin:miter;stroke-opacity:1" d="M 46.0212,723.613 39.2678,727.365 z" id="boundary" inkscape:connector-curvature="0" />
	<path style="fill:none;stroke:red;stroke-width:1px;stroke-linecap:butt;stroke-linejoin:miter;stroke-opacity:1" d="M 39.2678,727.365 32.5144,731.116 z" id="boundary" inkscape:connector-curvature="0" />
	<path style="fill:none;stroke:red;stroke-width:1px;stroke-linecap:butt;stroke-linejoin:miter;stroke-opacity:1" d="M 32.5144,731.116 26.5113,735.619 z" id="boundary" inkscape:connector-curvature="0" />
	<path style="fill:none;stroke:red;stroke-width:1px;stroke-linecap:butt;stroke-linejoin:miter;stroke-opacity:1" d="M 26.5113,735.619 19.0076,734.118 z" id="boundary" inkscape:connector-curvature="0" />
	<path style="fill:none;stroke:red;stroke-width:1px;stroke-linecap:butt;stroke-linejoin:miter;stroke-opacity:1" d="M 19.0076,734.118 17.5068,726.614 z" id="boundary" inkscape:connector-curvature="0" />
	<path style="fill:none;stroke:red;stroke-width:1px;stroke-linecap:butt;stroke-linejoin:miter;stroke-opacity:1" d="M 17.5068,726.614 17.5068,719.11 z" id="boundary" inkscape:connector-curvature="0" />
	<path style="fill:none;stroke:red;stroke-width:1px;stroke-linecap:butt;stroke-linejoin:miter;stroke-opacity:1" d="M 17.5068,719.11 16.7564,711.607 z" id="boundary" inkscape:connector-curvature="0" />
	<path style="fill:none;stroke:red;stroke-width:1px;stroke-linecap:butt;stroke-linejoin:miter;stroke-opacity:1" d="M 16.7564,711.607 16.7564,704.103 z" id="boundary" inkscape:connector-curvature="0" />
	<path style="fill:none;stroke:red;stroke-width:1px;stroke-linecap:butt;stroke-linejoin:miter;stroke-opacity:1" d="M 16.7564,704.103 14.5053,696.599 z" id="boundary" inkscape:connector-curvature="0" />
	<path style="fill:none;stroke:red;stroke-width:1px;stroke-linecap:butt;stroke-linejoin:miter;stroke-opacity:1" d="M 14.5053,696.599 7.00151,695.098 z" id="boundary" inkscape:connector-curvature="0" />
	<path style="fill:none;stroke:red;stroke-width:1px;stroke-linecap:butt;stroke-linejoin:miter;stroke-opacity:1" d="M 7.00151,695.098 4,687.595 z" id="boundary" inkscape:connector-curvature="0" />
	<path style="fill:none;stroke:red;stroke-width:1px;stroke-linecap:butt;stroke-linejoin:miter;stroke-opacity:1" d="M 4,687.595 5.50076,680.091 z" id="boundary" inkscape:connector-curvature="0" />
	<path style="fill:none;stroke:red;stroke-width:1px;stroke-linecap:butt;stroke-linejoin:miter;stroke-opacity:1" d="M 5.50076,680.091 10.7534,674.088 z" id="boundary" inkscape:connector-curvature="0" />
	<path style="fill:none;stroke:red;stroke-width:1px;stroke-linecap:butt;stroke-linejoin:miter;stroke-opacity:1" d="M 10.7534,674.088 18.2572,671.837 z" id="boundary" inkscape:connector-curvature="0" />
	<path style="fill:none;stroke:red;stroke-width:1px;stroke-linecap:butt;stroke-linejoin:miter;stroke-opacity:1" d="M 18.2572,671.837 24.2602,667.334 z" id="boundary" inkscape:connector-curvature="0" />
	<path style="fill:none;stroke:red;stroke-width:1px;stroke-linecap:butt;stroke-linejoin:miter;stroke-opacity:1" d="M 24.2602,667.334 31.0136,662.832 z" id="boundary" inkscape:connector-curvature="0" />
	<path style="fill:none;stroke:red;stroke-width:1px;stroke-linecap:butt;stroke-linejoin:miter;stroke-opacity:1" d="M 31.0136,662.832 37.767,659.08 z" id="boundary" inkscape:connector-curvature="0" />
	<path style="fill:none;stroke:red;stroke-width:1px;stroke-linecap:butt;stroke-linejoin:miter;stroke-opacity:1" d="M 37.767,659.08 43.77,654.578 z" id="boundary" inkscape:connector-curvature="0" />
	<path style="fill:none;stroke:red;stroke-width:1px;stroke-linecap:butt;stroke-linejoin:miter;stroke-opacity:1" d="M 43.77,654.578 49.7731,650.076 z" id="boundary" inkscape:connector-curvature="0" />
	<path style="fill:none;stroke:red;stroke-width:1px;stroke-linecap:butt;stroke-linejoin:miter;stroke-opacity:1" d="M 49.7731,650.076 56.5265,646.324 z" id="boundary" inkscape:connector-curvature="0" />
	<path style="fill:none;stroke:red;stroke-width:1px;stroke-linecap:butt;stroke-linejoin:miter;stroke-opacity:1" d="M 56.5265,646.324 62.5295,641.821 z" id="boundary" inkscape:connector-curvature="0" />
	<path style="fill:none;stroke:red;stroke-width:1px;stroke-linecap:butt;stroke-linejoin:miter;stroke-opacity:1" d="M 62.5295,641.821 69.2829,638.07 z" id="boundary" inkscape:connector-curvature="0" />
	<path style="fill:none;stroke:red;stroke-width:1px;stroke-linecap:butt;stroke-linejoin:miter;stroke-opacity:1" d="M 69.2829,638.07 76.0363,633.567 z" id="boundary" inkscape:connector-curvature="0" />
	<path style="fill:none;stroke:red;stroke-width:1px;stroke-linecap:butt;stroke-linejoin:miter;stroke-opacity:1" d="M 76.0363,633.567 82.7897,629.065 z" id="boundary" inkscape:connector-curvature="0" />
	<path style="fill:none;stroke:red;stroke-width:1px;stroke-linecap:butt;stroke-linejoin:miter;stroke-opacity:1" d="M 82.7897,629.065 89.5431,624.563 z" id="boundary" inkscape:connector-curvature="0" />
	<path style="fill:none;stroke:red;stroke-width:1px;stroke-linecap:butt;stroke-linejoin:miter;stroke-opacity:1" d="M 89.5431,624.563 96.2965,620.061 z" id="boundary" inkscape:connector-curvature="0" />
	<path style="fill:none;stroke:red;stroke-width:1px;stroke-linecap:butt;stroke-linejoin:miter;stroke-opacity:1" d="M 96.2965,620.061 102.3,614.808 z" id="boundary" inkscape:connector-curvature="0" />
	<path style="fill:none;stroke:red;stroke-width:1px;stroke-linecap:butt;stroke-linejoin:miter;stroke-opacity:1" d="M 102.3,614.808 109.053,610.306 z" id="boundary" inkscape:connector-curvature="0" />
	<path style="fill:none;stroke:red;stroke-width:1px;stroke-linecap:butt;stroke-linejoin:miter;stroke-opacity:1" d="M 109.053,610.306 115.806,606.554 z" id="boundary" inkscape:connector-curvature="0" />
	<path style="fill:none;stroke:red;stroke-width:1px;stroke-linecap:butt;stroke-linejoin:miter;stroke-opacity:1" d="M 115.806,606.554 122.56,602.802 z" id="boundary" inkscape:connector-curvature="0" />
	<path style="fill:none;stroke:red;stroke-width:1px;stroke-linecap:butt;stroke-linejoin:miter;stroke-opacity:1" d="M 122.56,602.802 128.563,596.799 z" id="boundary" inkscape:connector-curvature="0" />
	<path style="fill:none;stroke:red;stroke-width:1px;stroke-linecap:butt;stroke-linejoin:miter;stroke-opacity:1" d="M 128.563,596.799 136.067,593.047 z" id="boundary" inkscape:connector-curvature="0" />
	<path style="fill:none;stroke:red;stroke-width:1px;stroke-linecap:butt;stroke-linejoin:miter;stroke-opacity:1" d="M 136.067,593.047 142.82,588.545 z" id="boundary" inkscape:connector-curvature="0" />
	<path style="fill:none;stroke:red;stroke-width:1px;stroke-linecap:butt;stroke-linejoin:miter;stroke-opacity:1" d="M 142.82,588.545 148.823,584.042 z" id="boundary" inkscape:connector-curvature="0" />
	<path style="fill:none;stroke:red;stroke-width:1px;stroke-linecap:butt;stroke-linejoin:miter;stroke-opacity:1" d="M 148.823,584.042 154.826,579.54 z" id="boundary" inkscape:connector-curvature="0" />
	<path style="fill:none;stroke:red;stroke-width:1px;stroke-linecap:butt;stroke-linejoin:miter;stroke-opacity:1" d="M 154.826,579.54 161.579,575.788 z" id="boundary" inkscape:connector-curvature="0" />
	<path style="fill:none;stroke:red;stroke-width:1px;stroke-linecap:butt;stroke-linejoin:miter;stroke-opacity:1" d="M 161.579,575.788 168.333,571.286 z" id="boundary" inkscape:connector-curvature="0" />
	<path style="fill:none;stroke:red;stroke-width:1px;stroke-linecap:butt;stroke-linejoin:miter;stroke-opacity:1" d="M 168.333,571.286 174.336,566.784 z" id="boundary" inkscape:connector-curvature="0" />
	<path style="fill:none;stroke:red;stroke-width:1px;stroke-linecap:butt;stroke-linejoin:miter;stroke-opacity:1" d="M 174.336,566.784 181.089,562.281 z" id="boundary" inkscape:connector-curvature="0" />
	<path style="fill:none;stroke:red;stroke-width:1px;stroke-linecap:butt;stroke-linejoin:miter;stroke-opacity:1" d="M 181.089,562.281 188.593,559.28 z" id="boundary" inkscape:connector-curvature="0" />
	<path style="fill:none;stroke:red;stroke-width:1px;stroke-linecap:butt;stroke-linejoin:miter;stroke-opacity:1" d="M 188.593,559.28 194.596,553.277 z" id="boundary" inkscape:connector-curvature="0" />
	<path style="fill:none;stroke:red;stroke-width:1px;stroke-linecap:butt;stroke-linejoin:miter;stroke-opacity:1" d="M 194.596,553.277 200.599,548.775 z" id="boundary" inkscape:connector-curvature="0" />
	<path style="fill:none;stroke:red;stroke-width:1px;stroke-linecap:butt;stroke-linejoin:miter;stroke-opacity:1" d="M 200.599,548.775 208.103,546.523 z" id="boundary" inkscape:connector-curvature="0" />
	<path style="fill:none;stroke:red;stroke-width:1px;stroke-linecap:butt;stroke-linejoin:miter;stroke-opacity:1" d="M 208.103,546.523 212.605,540.52 z" id="boundary" inkscape:connector-curvature="0" />
	<path style="fill:none;stroke:red;stroke-width:1px;stroke-linecap:butt;stroke-linejoin:miter;stroke-opacity:1" d="M 212.605,540.52 218.608,536.018 z" id="boundary" inkscape:connector-curvature="0" />
	<path style="fill:none;stroke:red;stroke-width:1px;stroke-linecap:butt;stroke-linejoin:miter;stroke-opacity:1" d="M 218.608,536.018 225.362,531.516 z" id="boundary" inkscape:connector-curvature="0" />
	<path style="fill:none;stroke:red;stroke-width:1px;stroke-linecap:butt;stroke-linejoin:miter;stroke-opacity:1" d="M 225.362,531.516 232.115,527.764 z" id="boundary" inkscape:connector-curvature="0" />
	<path style="fill:none;stroke:red;stroke-width:1px;stroke-linecap:butt;stroke-linejoin:miter;stroke-opacity:1" d="M 232.115,527.764 238.118,522.511 z" id="boundary" inkscape:connector-curvature="0" />
	<path style="fill:none;stroke:red;stroke-width:1px;stroke-linecap:butt;stroke-linejoin:miter;stroke-opacity:1" d="M 238.118,522.511 245.622,521.011 z" id="boundary" inkscape:connector-curvature="0" />
	<path style="fill:none;stroke:red;stroke-width:1px;stroke-linecap:butt;stroke-linejoin:miter;stroke-opacity:1" d="M 245.622,521.011 251.625,516.508 z" id="boundary" inkscape:connector-curvature="0" />
	<path style="fill:none;stroke:red;stroke-width:1px;stroke-linecap:butt;stroke-linejoin:miter;stroke-opacity:1" d="M 251.625,516.508 258.378,512.006 z" id="boundary" inkscape:connector-curvature="0" />
	<path style="fill:none;stroke:red;stroke-width:1px;stroke-linecap:butt;stroke-linejoin:miter;stroke-opacity:1" d="M 258.378,512.006 265.882,508.254 z" id="boundary" inkscape:connector-curvature="0" />
	<path style="fill:none;stroke:red;stroke-width:1px;stroke-linecap:butt;stroke-linejoin:miter;stroke-opacity:1" d="M 265.882,508.254 270.384,502.251 z" id="boundary" inkscape:connector-curvature="0" />
	<path style="fill:none;stroke:red;stroke-width:1px;stroke-linecap:butt;stroke-linejoin:miter;stroke-opacity:1" d="M 270.384,502.251 277.888,501.501 z" id="boundary" inkscape:connector-curvature="0" />
	<path style="fill:none;stroke:red;stroke-width:1px;stroke-linecap:butt;stroke-linejoin:miter;stroke-opacity:1" d="M 277.888,501.501 283.891,496.248 z" id="boundary" inkscape:connector-curvature="0" />
	<path style="fill:none;stroke:red;stroke-width:1px;stroke-linecap:butt;stroke-linejoin:miter;stroke-opacity:1" d="M 283.891,496.248 290.644,491.746 z" id="boundary" inkscape:connector-curvature="0" />
	<path style="fill:none;stroke:red;stroke-width:1px;stroke-linecap:butt;stroke-linejoin:miter;stroke-opacity:1" d="M 290.644,491.746 296.648,486.493 z" id="boundary" inkscape:connector-curvature="0" />
	<path style="fill:none;stroke:red;stroke-width:1px;stroke-linecap:butt;stroke-linejoin:miter;stroke-opacity:1" d="M 296.648,486.493 304.151,486.493 z" id="boundary" inkscape:connector-curvature="0" />
	<path style="fill:none;stroke:red;stroke-width:1px;stroke-linecap:butt;stroke-linejoin:miter;stroke-opacity:1" d="M 304.151,486.493 310.905,482.741 z" id="boundary" inkscape:connector-curvature="0" />
	<path style="fill:none;stroke:red;stroke-width:1px;stroke-linecap:butt;stroke-linejoin:miter;stroke-opacity:1" d="M 310.905,482.741 317.658,477.489 z" id="boundary" inkscape:connector-curvature="0" />
	<path style="fill:none;stroke:red;stroke-width:1px;stroke-linecap:butt;stroke-linejoin:miter;stroke-opacity:1" d="M 317.658,477.489 325.162,473.737 z" id="boundary" inkscape:connector-curvature="0" />
	<path style="fill:none;stroke:red;stroke-width:1px;stroke-linecap:butt;stroke-linejoin:miter;stroke-opacity:1" d="M 325.162,473.737 331.165,469.234 z" id="boundary" inkscape:connector-curvature="0" />
	<path style="fill:none;stroke:red;stroke-width:1px;stroke-linecap:butt;stroke-linejoin:miter;stroke-opacity:1" d="M 331.165,469.234 337.918,463.982 z" id="boundary" inkscape:connector-curvature="0" />
	<path style="fill:none;stroke:red;stroke-width:1px;stroke-linecap:butt;stroke-linejoin:miter;stroke-opacity:1" d="M 337.918,463.982 343.921,457.979 z" id="boundary" inkscape:connector-curvature="0" />
	<path style="fill:none;stroke:red;stroke-width:1px;stroke-linecap:butt;stroke-linejoin:miter;stroke-opacity:1" d="M 343.921,457.979 349.924,450.475 z" id="boundary" inkscape:connector-curvature="0" />
	<path style="fill:none;stroke:red;stroke-width:1px;stroke-linecap:butt;stroke-linejoin:miter;stroke-opacity:1" d="M 349.924,450.475 354.427,444.472 z" id="boundary" inkscape:connector-curvature="0" />
	<path style="fill:none;stroke:red;stroke-width:1px;stroke-linecap:butt;stroke-linejoin:miter;stroke-opacity:1" d="M 354.427,444.472 361.93,440.72 z" id="boundary" inkscape:connector-curvature="0" />
	<path style="fill:none;stroke:red;stroke-width:1px;stroke-linecap:butt;stroke-linejoin:miter;stroke-opacity:1" d="M 361.93,440.72 369.434,439.97 z" id="boundary" inkscape:connector-curvature="0" />
	<path style="fill:none;stroke:red;stroke-width:1px;stroke-linecap:butt;stroke-linejoin:miter;stroke-opacity:1" d="M 369.434,439.97 376.938,436.968 z" id="boundary" inkscape:connector-curvature="0" />
	<path style="fill:none;stroke:red;stroke-width:1px;stroke-linecap:butt;stroke-linejoin:miter;stroke-opacity:1" d="M 376.938,436.968 382.191,430.965 z" id="boundary" inkscape:connector-curvature="0" />
	<path style="fill:none;stroke:red;stroke-width:1px;stroke-linecap:butt;stroke-linejoin:miter;stroke-opacity:1" d="M 382.191,430.965 388.194,425.713 z" id="boundary" inkscape:connector-curvature="0" />
	<path style="fill:none;stroke:red;stroke-width:1px;stroke-linecap:butt;stroke-linejoin:miter;stroke-opacity:1" d="M 388.194,425.713 394.197,420.46 z" id="boundary" inkscape:connector-curvature="0" />
	<path style="fill:none;stroke:red;stroke-width:1px;stroke-linecap:butt;stroke-linejoin:miter;stroke-opacity:1" d="M 394.197,420.46 401.7,416.708 z" id="boundary" inkscape:connector-curvature="0" />
	<path style="fill:none;stroke:red;stroke-width:1px;stroke-linecap:butt;stroke-linejoin:miter;stroke-opacity:1" d="M 401.7,416.708 408.454,412.956 z" id="boundary" inkscape:connector-curvature="0" />
	<path style="fill:none;stroke:red;stroke-width:1px;stroke-linecap:butt;stroke-linejoin:miter;stroke-opacity:1" d="M 408.454,412.956 413.707,406.953 z" id="boundary" inkscape:connector-curvature="0" />
	<path style="fill:none;stroke:red;stroke-width:1px;stroke-linecap:butt;stroke-linejoin:miter;stroke-opacity:1" d="M 413.707,406.953 420.46,402.451 z" id="boundary" inkscape:connector-curvature="0" />
	<path style="fill:none;stroke:red;stroke-width:1px;stroke-linecap:butt;stroke-linejoin:miter;stroke-opacity:1" d="M 420.46,402.451 427.964,402.451 z" id="boundary" inkscape:connector-curvature="0" />
	<path style="fill:none;stroke:red;stroke-width:1px;stroke-linecap:butt;stroke-linejoin:miter;stroke-opacity:1" d="M 427.964,402.451 435.467,398.699 z" id="boundary" inkscape:connector-curvature="0" />
	<path style="fill:none;stroke:red;stroke-width:1px;stroke-linecap:butt;stroke-linejoin:miter;stroke-opacity:1" d="M 435.467,398.699 442.221,394.947 z" id="boundary" inkscape:connector-curvature="0" />
	<path style="fill:none;stroke:red;stroke-width:1px;stroke-linecap:butt;stroke-linejoin:miter;stroke-opacity:1" d="M 442.221,394.947 448.224,389.694 z" id="boundary" inkscape:connector-curvature="0" />
	<path style="fill:none;stroke:red;stroke-width:1px;stroke-linecap:butt;stroke-linejoin:miter;stroke-opacity:1" d="M 448.224,389.694 455.728,386.693 z" id="boundary" inkscape:connector-curvature="0" />
	<path style="fill:none;stroke:red;stroke-width:1px;stroke-linecap:butt;stroke-linejoin:miter;stroke-opacity:1" d="M 455.728,386.693 462.481,382.941 z" id="boundary" inkscape:connector-curvature="0" />
	<path style="fill:none;stroke:red;stroke-width:1px;stroke-linecap:butt;stroke-linejoin:miter;stroke-opacity:1" d="M 462.481,382.941 468.484,376.938 z" id="boundary" inkscape:connector-curvature="0" />
	<path style="fill:none;stroke:red;stroke-width:1px;stroke-linecap:butt;stroke-linejoin:miter;stroke-opacity:1" d="M 468.484,376.938 474.487,371.685 z" id="boundary" inkscape:connector-curvature="0" />
	<path style="fill:none;stroke:red;stroke-width:1px;stroke-linecap:butt;stroke-linejoin:miter;stroke-opacity:1" d="M 474.487,371.685 480.49,367.183 z" id="boundary" inkscape:connector-curvature="0" />
	<path style="fill:none;stroke:red;stroke-width:1px;stroke-linecap:butt;stroke-linejoin:miter;stroke-opacity:1" d="M 480.49,367.183 487.994,363.431 z" id="boundary" inkscape:connector-curvature="0" />
	<path style="fill:none;stroke:red;stroke-width:1px;stroke-linecap:butt;stroke-linejoin:miter;stroke-opacity:1" d="M 487.994,363.431 493.997,358.929 z" id="boundary" inkscape:connector-curvature="0" />
	<path style="fill:none;stroke:red;stroke-width:1px;stroke-linecap:butt;stroke-linejoin:miter;stroke-opacity:1" d="M 493.997,358.929 500,354.427 z" id="boundary" inkscape:connector-curvature="0" />
	<path style="fill:none;stroke:red;stroke-width:1px;stroke-linecap:butt;stroke-linejoin:miter;stroke-opacity:1" d="M 500,354.427 506.753,350.675 z" id="boundary" inkscape:connector-curvature="0" />
	<path style="fill:none;stroke:red;stroke-width:1px;stroke-linecap:butt;stroke-linejoin:miter;stroke-opacity:1" d="M 506.753,350.675 513.507,346.172 z" id="boundary" inkscape:connector-curvature="0" />
	<path style="fill:none;stroke:red;stroke-width:1px;stroke-linecap:butt;stroke-linejoin:miter;stroke-opacity:1" d="M 513.507,346.172 520.26,341.67 z" id="boundary" inkscape:connector-curvature="0" />
	<path style="fill:none;stroke:red;stroke-width:1px;stroke-linecap:butt;stroke-linejoin:miter;stroke-opacity:1" d="M 520.26,341.67 526.263,335.667 z" id="boundary" inkscape:connector-curvature="0" />
	<path style="fill:none;stroke:red;stroke-width:1px;stroke-linecap:butt;stroke-linejoin:miter;stroke-opacity:1" d="M 526.263,335.667 533.017,331.915 z" id="boundary" inkscape:connector-curvature="0" />
	<path style="fill:none;stroke:red;stroke-width:1px;stroke-linecap:butt;stroke-linejoin:miter;stroke-opacity:1" d="M 533.017,331.915 539.77,326.663 z" id="boundary" inkscape:connector-curvature="0" />
	<path style="fill:none;stroke:red;stroke-width:1px;stroke-linecap:butt;stroke-linejoin:miter;stroke-opacity:1" d="M 539.77,326.663 545.773,322.16 z" id="boundary" inkscape:connector-curvature="0" />
	<path style="fill:none;stroke:red;stroke-width:1px;stroke-linecap:butt;stroke-linejoin:miter;stroke-opacity:1" d="M 545.773,322.16 552.526,318.408 z" id="boundary" inkscape:connector-curvature="0" />
	<path style="fill:none;stroke:red;stroke-width:1px;stroke-linecap:butt;stroke-linejoin:miter;stroke-opacity:1" d="M 552.526,318.408 558.53,313.156 z" id="boundary" inkscape:connector-curvature="0" />
	<path style="fill:none;stroke:red;stroke-width:1px;stroke-linecap:butt;stroke-linejoin:miter;stroke-opacity:1" d="M 558.53,313.156 565.283,309.404 z" id="boundary" inkscape:connector-curvature="0" />
	<path style="fill:none;stroke:red;stroke-width:1px;stroke-linecap:butt;stroke-linejoin:miter;stroke-opacity:1" d="M 565.283,309.404 572.787,306.402 z" id="boundary" inkscape:connector-curvature="0" />
	<path style="fill:none;stroke:red;stroke-width:1px;stroke-linecap:butt;stroke-linejoin:miter;stroke-opacity:1" d="M 572.787,306.402 577.289,299.649 z" id="boundary" inkscape:connector-curvature="0" />
	<path style="fill:none;stroke:red;stroke-width:1px;stroke-linecap:butt;stroke-linejoin:miter;stroke-opacity:1" d="M 577.289,299.649 584.793,298.148 z" id="boundary" inkscape:connector-curvature="0" />
	<path style="fill:none;stroke:red;stroke-width:1px;stroke-linecap:butt;stroke-linejoin:miter;stroke-opacity:1" d="M 584.793,298.148 589.295,291.395 z" id="boundary" inkscape:connector-curvature="0" />
	<path style="fill:none;stroke:red;stroke-width:1px;stroke-linecap:butt;stroke-linejoin:miter;stroke-opacity:1" d="M 589.295,291.395 596.048,287.643 z" id="boundary" inkscape:connector-curvature="0" />
	<path style="fill:none;stroke:red;stroke-width:1px;stroke-linecap:butt;stroke-linejoin:miter;stroke-opacity:1" d="M 596.048,287.643 603.552,284.641 z" id="boundary" inkscape:connector-curvature="0" />
	<path style="fill:none;stroke:red;stroke-width:1px;stroke-linecap:butt;stroke-linejoin:miter;stroke-opacity:1" d="M 603.552,284.641 610.306,276.387 z" id="boundary" inkscape:connector-curvature="0" />
	<path style="fill:none;stroke:red;stroke-width:1px;stroke-linecap:butt;stroke-linejoin:miter;stroke-opacity:1" d="M 610.306,276.387 616.309,271.885 z" id="boundary" inkscape:connector-curvature="0" />
	<path style="fill:none;stroke:red;stroke-width:1px;stroke-linecap:butt;stroke-linejoin:miter;stroke-opacity:1" d="M 616.309,271.885 623.812,270.384 z" id="boundary" inkscape:connector-curvature="0" />
	<path style="fill:none;stroke:red;stroke-width:1px;stroke-linecap:butt;stroke-linejoin:miter;stroke-opacity:1" d="M 623.812,270.384 629.065,263.631 z" id="boundary" inkscape:connector-curvature="0" />
	<path style="fill:none;stroke:red;stroke-width:1px;stroke-linecap:butt;stroke-linejoin:miter;stroke-opacity:1" d="M 629.065,263.631 635.068,259.129 z" id="boundary" inkscape:connector-curvature="0" />
	<path style="fill:none;stroke:red;stroke-width:1px;stroke-linecap:butt;stroke-linejoin:miter;stroke-opacity:1" d="M 635.068,259.129 642.572,259.129 z" id="boundary" inkscape:connector-curvature="0" />
	<path style="fill:none;stroke:red;stroke-width:1px;stroke-linecap:butt;stroke-linejoin:miter;stroke-opacity:1" d="M 642.572,259.129 648.575,253.876 z" id="boundary" inkscape:connector-curvature="0" />
	<path style="fill:none;stroke:red;stroke-width:1px;stroke-linecap:butt;stroke-linejoin:miter;stroke-opacity:1" d="M 648.575,253.876 653.828,243.371 z" id="boundary" inkscape:connector-curvature="0" />
	<path style="fill:none;stroke:red;stroke-width:1px;stroke-linecap:butt;stroke-linejoin:miter;stroke-opacity:1" d="M 653.828,243.371 661.331,241.87 z" id="boundary" inkscape:connector-curvature="0" />
	<path style="fill:none;stroke:red;stroke-width:1px;stroke-linecap:butt;stroke-linejoin:miter;stroke-opacity:1" d="M 661.331,241.87 668.085,238.118 z" id="boundary" inkscape:connector-curvature="0" />
	<path style="fill:none;stroke:red;stroke-width:1px;stroke-linecap:butt;stroke-linejoin:miter;stroke-opacity:1" d="M 668.085,238.118 675.589,234.366 z" id="boundary" inkscape:connector-curvature="0" />
	<path style="fill:none;stroke:red;stroke-width:1px;stroke-linecap:butt;stroke-linejoin:miter;stroke-opacity:1" d="M 675.589,234.366 679.34,225.362 z" id="boundary" inkscape:connector-curvature="0" />
	<path style="fill:none;stroke:red;stroke-width:1px;stroke-linecap:butt;stroke-linejoin:miter;stroke-opacity:1" d="M 679.34,225.362 685.343,220.109 z" id="boundary" inkscape:connector-curvature="0" />
	<path style="fill:none;stroke:red;stroke-width:1px;stroke-linecap:butt;stroke-linejoin:miter;stroke-opacity:1" d="M 685.343,220.109 687.595,211.855 z" id="boundary" inkscape:connector-curvature="0" />
	<path style="fill:none;stroke:red;stroke-width:1px;stroke-linecap:butt;stroke-linejoin:miter;stroke-opacity:1" d="M 687.595,211.855 690.596,203.601 z" id="boundary" inkscape:connector-curvature="0" />
	<path style="fill:none;stroke:red;stroke-width:1px;stroke-linecap:butt;stroke-linejoin:miter;stroke-opacity:1" d="M 690.596,203.601 695.098,195.346 z" id="boundary" inkscape:connector-curvature="0" />
	<path style="fill:none;stroke:red;stroke-width:1px;stroke-linecap:butt;stroke-linejoin:miter;stroke-opacity:1" d="M 695.098,195.346 697.349,187.843 z" id="boundary" inkscape:connector-curvature="0" />
	<path style="fill:none;stroke:red;stroke-width:1px;stroke-linecap:butt;stroke-linejoin:miter;stroke-opacity:1" d="M 697.349,187.843 701.101,180.339 z" id="boundary" inkscape:connector-curvature="0" />
	<path style="fill:none;stroke:red;stroke-width:1px;stroke-linecap:butt;stroke-linejoin:miter;stroke-opacity:1" d="M 701.101,180.339 704.853,172.835 z" id="boundary" inkscape:connector-curvature="0" />
	<path style="fill:none;stroke:red;stroke-width:1px;stroke-linecap:butt;stroke-linejoin:miter;stroke-opacity:1" d="M 704.853,172.835 707.855,164.581 z" id="boundary" inkscape:connector-curvature="0" />
	<path style="fill:none;stroke:red;stroke-width:1px;stroke-linecap:butt;stroke-linejoin:miter;stroke-opacity:1" d="M 707.855,164.581 711.607,157.077 z" id="boundary" inkscape:connector-curvature="0" />
	<path style="fill:none;stroke:red;stroke-width:1px;stroke-linecap:butt;stroke-linejoin:miter;stroke-opacity:1" d="M 711.607,157.077 716.859,151.074 z" id="boundary" inkscape:connector-curvature="0" />
	<path style="fill:none;stroke:red;stroke-width:1px;stroke-linecap:butt;stroke-linejoin:miter;stroke-opacity:1" d="M 716.859,151.074 720.611,142.07 z" id="boundary" inkscape:connector-curvature="0" />
	<path style="fill:none;stroke:red;stroke-width:1px;stroke-linecap:butt;stroke-linejoin:miter;stroke-opacity:1" d="M 720.611,142.07 723.613,134.566 z" id="boundary" inkscape:connector-curvature="0" />
	<path style="fill:none;stroke:red;stroke-width:1px;stroke-linecap:butt;stroke-linejoin:miter;stroke-opacity:1" d="M 723.613,134.566 728.115,127.062 z" id="boundary" inkscape:connector-curvature="0" />
	<path style="fill:none;stroke:red;stroke-width:1px;stroke-linecap:butt;stroke-linejoin:miter;stroke-opacity:1" d="M 728.115,127.062 731.867,119.558 z" id="boundary" inkscape:connector-curvature="0" />
	<path style="fill:none;stroke:red;stroke-width:1px;stroke-linecap:butt;stroke-linejoin:miter;stroke-opacity:1" d="M 731.867,119.558 736.369,111.304 z" id="boundary" inkscape:connector-curvature="0" />
	<path style="fill:none;stroke:red;stroke-width:1px;stroke-linecap:butt;stroke-linejoin:miter;stroke-opacity:1" d="M 736.369,111.304 740.871,104.551 z" id="boundary" inkscape:connector-curvature="0" />
	<path style="fill:none;stroke:red;stroke-width:1px;stroke-linecap:butt;stroke-linejoin:miter;stroke-opacity:1" d="M 740.871,104.551 745.374,97.7973 z" id="boundary" inkscape:connector-curvature="0" />
	<path style="fill:none;stroke:red;stroke-width:1px;stroke-linecap:butt;stroke-linejoin:miter;stroke-opacity:1" d="M 745.374,97.7973 749.876,91.0439 z" id="boundary" inkscape:connector-curvature="0" />
	<path style="fill:none;stroke:red;stroke-width:1px;stroke-linecap:butt;stroke-linejoin:miter;stroke-opacity:1" d="M 749.876,91.0439 754.378,85.0408 z" id="boundary" inkscape:connector-curvature="0" />
	<path style="fill:none;stroke:red;stroke-width:1px;stroke-linecap:butt;stroke-linejoin:miter;stroke-opacity:1" d="M 754.378,85.0408 758.88,79.0378 z" id="boundary" inkscape:connector-curvature="0" />
	<path style="fill:none;stroke:red;stroke-width:1px;stroke-linecap:butt;stroke-linejoin:miter;stroke-opacity:1" d="M 758.88,79.0378 764.133,73.0348 z" id="boundary" inkscape:connector-curvature="0" />
	<path style="fill:none;stroke:red;stroke-width:1px;stroke-linecap:butt;stroke-linejoin:miter;stroke-opacity:1" d="M 764.133,73.0348 769.386,67.0318 z" id="boundary" inkscape:connector-curvature="0" />
	<path style="fill:none;stroke:red;stroke-width:1px;stroke-linecap:butt;stroke-linejoin:miter;stroke-opacity:1" d="M 769.386,67.0318 775.389,61.7791 z" id="boundary" inkscape:connector-curvature="0" />
	<path style="fill:none;stroke:red;stroke-width:1px;stroke-linecap:butt;stroke-linejoin:miter;stroke-opacity:1" d="M 775.389,61.7791 779.891,55.7761 z" id="boundary" inkscape:connector-curvature="0" />
	<path style="fill:none;stroke:red;stroke-width:1px;stroke-linecap:butt;stroke-linejoin:miter;stroke-opacity:1" d="M 779.891,55.7761 785.894,51.2738 z" id="boundary" inkscape:connector-curvature="0" />
	<path style="fill:none;stroke:red;stroke-width:1px;stroke-linecap:butt;stroke-linejoin:miter;stroke-opacity:1" d="M 785.894,51.2738 791.897,46.0212 z" id="boundary" inkscape:connector-curvature="0" />
	<path style="fill:none;stroke:red;stroke-width:1px;stroke-linecap:butt;stroke-linejoin:miter;stroke-opacity:1" d="M 791.897,46.0212 798.651,42.2693 z" id="boundary" inkscape:connector-curvature="0" />
	<path style="fill:none;stroke:red;stroke-width:1px;stroke-linecap:butt;stroke-linejoin:miter;stroke-opacity:1" d="M 798.651,42.2693 805.404,37.767 z" id="boundary" inkscape:connector-curvature="0" />
	<path style="fill:none;stroke:red;stroke-width:1px;stroke-linecap:butt;stroke-linejoin:miter;stroke-opacity:1" d="M 805.404,37.767 811.407,33.2648 z" id="boundary" inkscape:connector-curvature="0" />
	<path style="fill:none;stroke:red;stroke-width:1px;stroke-linecap:butt;stroke-linejoin:miter;stroke-opacity:1" d="M 811.407,33.2648 817.41,28.7625 z" id="boundary" inkscape:connector-curvature="0" />
	<path style="fill:none;stroke:red;stroke-width:1px;stroke-linecap:butt;stroke-linejoin:miter;stroke-opacity:1" d="M 817.41,28.7625 823.413,24.2602 z" id="boundary" inkscape:connector-curvature="0" />
	<path style="fill:none;stroke:red;stroke-width:1px;stroke-linecap:butt;stroke-linejoin:miter;stroke-opacity:1" d="M 823.413,24.2602 830.917,20.5083 z" id="boundary" inkscape:connector-curvature="0" />
	<path style="fill:none;stroke:red;stroke-width:1px;stroke-linecap:butt;stroke-linejoin:miter;stroke-opacity:1" d="M 830.917,20.5083 838.421,16.7564 z" id="boundary" inkscape:connector-curvature="0" />
	<path style="fill:none;stroke:red;stroke-width:1px;stroke-linecap:butt;stroke-linejoin:miter;stroke-opacity:1" d="M 838.421,16.7564 845.924,13.7549 z" id="boundary" inkscape:connector-curvature="0" />
	<path style="fill:none;stroke:red;stroke-width:1px;stroke-linecap:butt;stroke-linejoin:miter;stroke-opacity:1" d="M 845.924,13.7549 853.428,11.5038 z" id="boundary" inkscape:connector-curvature="0" />
	<path style="fill:none;stroke:red;stroke-width:1px;stroke-linecap:butt;stroke-linejoin:miter;stroke-opacity:1" d="M 853.428,11.5038 860.932,9.25265 z" id="boundary" inkscape:connector-curvature="0" />
	<path style="fill:none;stroke:red;stroke-width:1px;stroke-linecap:butt;stroke-linejoin:miter;stroke-opacity:1" d="M 860.932,9.25265 868.436,7.00151 z" id="boundary" inkscape:connector-curvature="0" />
	<path style="fill:none;stroke:red;stroke-width:1px;stroke-linecap:butt;stroke-linejoin:miter;stroke-opacity:1" d="M 868.436,7.00151 875.939,6.25113 z" id="boundary" inkscape:connector-curvature="0" />
	<path style="fill:none;stroke:red;stroke-width:1px;stroke-linecap:butt;stroke-linejoin:miter;stroke-opacity:1" d="M 875.939,6.25113 883.443,4.75038 z" id="boundary" inkscape:connector-curvature="0" />
	<path style="fill:none;stroke:red;stroke-width:1px;stroke-linecap:butt;stroke-linejoin:miter;stroke-opacity:1" d="M 883.443,4.75038 890.947,4 z" id="boundary" inkscape:connector-curvature="0" />
	<path style="fill:none;stroke:red;stroke-width:1px;stroke-linecap:butt;stroke-linejoin:miter;stroke-opacity:1" d="M 890.947,4 898.451,4 z" id="boundary" inkscape:connector-curvature="0" />
	<path style="fill:none;stroke:red;stroke-width:1px;stroke-linecap:butt;stroke-linejoin:miter;stroke-opacity:1" d="M 898.451,4 905.955,4.75038 z" id="boundary" inkscape:connector-curvature="0" />
	<path style="fill:none;stroke:red;stroke-width:1px;stroke-linecap:butt;stroke-linejoin:miter;stroke-opacity:1" d="M 905.955,4.75038 913.458,4.75038 z" id="boundary" inkscape:connector-curvature="0" />
	<path style="fill:none;stroke:red;stroke-width:1px;stroke-linecap:butt;stroke-linejoin:miter;stroke-opacity:1" d="M 913.458,4.75038 920.962,6.25113 z" id="boundary" inkscape:connector-curvature="0" />
	<path style="fill:none;stroke:red;stroke-width:1px;stroke-linecap:butt;stroke-linejoin:miter;stroke-opacity:1" d="M 920.962,6.25113 928.466,8.50227 z" id="boundary" inkscape:connector-curvature="0" />
	<path style="fill:none;stroke:red;stroke-width:1px;stroke-linecap:butt;stroke-linejoin:miter;stroke-opacity:1" d="M 928.466,8.50227 935.97,11.5038 z" id="boundary" inkscape:connector-curvature="0" />
	<path style="fill:none;stroke:red;stroke-width:1px;stroke-linecap:butt;stroke-linejoin:miter;stroke-opacity:1" d="M 935.97,11.5038 943.474,14.5053 z" id="boundary" inkscape:connector-curvature="0" />
	<path style="fill:none;stroke:red;stroke-width:1px;stroke-linecap:butt;stroke-linejoin:miter;stroke-opacity:1" d="M 943.474,14.5053 950.227,18.2572 z" id="boundary" inkscape:connector-curvature="0" />
	<path style="fill:none;stroke:red;stroke-width:1px;stroke-linecap:butt;stroke-linejoin:miter;stroke-opacity:1" d="M 950.227,18.2572 956.23,22.7595 z" id="boundary" inkscape:connector-curvature="0" />
	<path style="fill:none;stroke:red;stroke-width:1px;stroke-linecap:butt;stroke-linejoin:miter;stroke-opacity:1" d="M 956.23,22.7595 962.233,27.2617 z" id="boundary" inkscape:connector-curvature="0" />
	<path style="fill:none;stroke:red;stroke-width:1px;stroke-linecap:butt;stroke-linejoin:miter;stroke-opacity:1" d="M 962.233,27.2617 968.236,32.5144 z" id="boundary" inkscape:connector-curvature="0" />
	<path style="fill:none;stroke:red;stroke-width:1px;stroke-linecap:butt;stroke-linejoin:miter;stroke-opacity:1" d="M 968.236,32.5144 973.489,38.5174 z" id="boundary" inkscape:connector-curvature="0" />
	<path style="fill:none;stroke:red;stroke-width:1px;stroke-linecap:butt;stroke-linejoin:miter;stroke-opacity:1" d="M 973.489,38.5174 978.741,44.5204 z" id="boundary" inkscape:connector-curvature="0" />
	<path style="fill:none;stroke:red;stroke-width:1px;stroke-linecap:butt;stroke-linejoin:miter;stroke-opacity:1" d="M 978.741,44.5204 983.244,50.5234 z" id="boundary" inkscape:connector-curvature="0" />
	<path style="fill:none;stroke:red;stroke-width:1px;stroke-linecap:butt;stroke-linejoin:miter;stroke-opacity:1" d="M 983.244,50.5234 986.995,57.2769 z" id="boundary" inkscape:connector-curvature="0" />
	<path style="fill:none;stroke:red;stroke-width:1px;stroke-linecap:butt;stroke-linejoin:miter;stroke-opacity:1" d="M 986.995,57.2769 990.747,64.0303 z" id="boundary" inkscape:connector-curvature="0" />
	<path style="fill:none;stroke:red;stroke-width:1px;stroke-linecap:butt;stroke-linejoin:miter;stroke-opacity:1" d="M 990.747,64.0303 993.749,71.534 z" id="boundary" inkscape:connector-curvature="0" />
	<path style="fill:none;stroke:red;stroke-width:1px;stroke-linecap:butt;stroke-linejoin:miter;stroke-opacity:1" d="M 993.749,71.534 995.25,79.0378 z" id="boundary" inkscape:connector-curvature="0" />
	<path style="fill:none;stroke:red;stroke-width:1px;stroke-linecap:butt;stroke-linejoin:miter;stroke-opacity:1" d="M 995.25,79.0378 995.25,86.5416 z" id="boundary" inkscape:connector-curvature="0" />
	<path style="fill:none;stroke:red;stroke-width:1px;stroke-linecap:butt;stroke-linejoin:miter;stroke-opacity:1" d="M 995.25,86.5416 996,94.0454 z" id="boundary" inkscape:connector-curvature="0" />
	<circle cx="4" cy="687.595" r="4" fill="#0" id="circle0"/>
	<circle cx="5.50076" cy="680.091" r="4" fill="#0" id="circle1"/>
	<circle cx="7.00151" cy="695.098" r="4" fill="#0" id="circle2"/>
	<circle cx="10.7534" cy="674.088" r="4" fill="#0" id="circle3"/>
	<circle cx="14.5053" cy="696.599" r="4" fill="#0" id="circle4"/>
	<circle cx="16.7564" cy="704.103" r="4" fill="#0" id="circle5"/>
	<circle cx="16.7564" cy="711.607" r="4" fill="#0" id="circle6"/>
	<circle cx="17.5068" cy="719.11" r="4" fill="#0" id="circle7"/>
	<circle cx="17.5068" cy="726.614" r="4" fill="#0" id="circle8"/>
	<circle cx="18.2572" cy="671.837" r="4" fill="#0" id="circle9"/>
	<circle cx="19.0076" cy="734.118" r="4" fill="#0" id="circle10"/>
	<circle cx="24.2602" cy="667.334" r="4" fill="#0" id="circle11"/>
	<circle cx="26.5113" cy="735.619" r="4" fill="#0" id="circle12"/>
	<circle cx="31.0136" cy="662.832" r="4" fill="#0" id="circle13"/>
	<circle cx="32.5144" cy="731.116" r="4" fill="#0" id="circle14"/>
	<circle cx="37.767" cy="659.08" r="4" fill="#0" id="circle15"/>
	<circle cx="39.2678" cy="727.365" r="4" fill="#0" id="circle16"/>
	<circle cx="43.77" cy="654.578" r="4" fill="#0" id="circle17"/>
	<circle cx="46.0212" cy="723.613" r="4" fill="#0" id="circle18"/>
	<circle cx="49.7731" cy="650.076" r="4" fill="#0" id="circle19"/>
	<circle cx="52.7746" cy="719.11" r="4" fill="#0" id="circle20"/>
	<circle cx="56.5265" cy="646.324" r="4" fill="#0" id="circle21"/>
	<circle cx="60.2784" cy="716.109" r="4" fill="#0" id="circle22"/>
	<circle cx="62.5295" cy="641.821" r="4" fill="#0" id="circle23"/>
	<circle cx="66.2814" cy="711.607" r="4" fill="#0" id="circle24"/>
	<circle cx="69.2829" cy="638.07" r="4" fill="#0" id="circle25"/>
	<circle cx="73.7852" cy="708.605" r="4" fill="#0" id="circle26"/>
	<circle cx="76.0363" cy="633.567" r="4" fill="#0" id="circle27"/>
	<circle cx="80.5386" cy="704.853" r="4" fill="#0" id="circle28"/>
	<circle cx="82.7897" cy="629.065" r="4" fill="#0" id="circle29"/>
	<circle cx="86.5416" cy="699.601" r="4" fill="#0" id="circle30"/>
	<circle cx="89.5431" cy="624.563" r="4" fill="#0" id="circle31"/>
	<circle cx="93.295" cy="695.849" r="4" fill="#0" id="circle32"/>
	<circle cx="96.2965" cy="620.061" r="4" fill="#0" id="circle33"/>
	<circle cx="99.298" cy="691.346" r="4" fill="#0" id="circle34"/>
	<circle cx="102.3" cy="614.808" r="4" fill="#0" id="circle35"/>
	<circle cx="106.051" cy="687.595" r="4" fill="#0" id="circle36"/>
	<circle cx="109.053" cy="610.306" r="4" fill="#0" id="circle37"/>
	<circle cx="112.054" cy="682.342" r="4" fill="#0" id="circle38"/>
	<circle cx="115.806" cy="606.554" r="4" fill="#0" id="circle39"/>
	<circle cx="118.808" cy="678.59" r="4" fill="#0" id="circle40"/>
	<circle cx="122.56" cy="602.802" r="4" fill="#0" id="circle41"/>
	<circle cx="124.811" cy="673.337" r="4" fill="#0" id="circle42"/>
	<circle cx="128.563" cy="596.799" r="4" fill="#0" id="circle43"/>
	<circle cx="131.564" cy="669.585" r="4" fill="#0" id="circle44"/>
	<circle cx="136.067" cy="593.047" r="4" fill="#0" id="circle45"/>
	<circle cx="137.567" cy="665.083" r="4" fill="#0" id="circle46"/>
	<circle cx="142.82" cy="588.545" r="4" fill="#0" id="circle47"/>
	<circle cx="144.321" cy="661.331" r="4" fill="#0" id="circle48"/>
	<circle cx="148.823" cy="584.042" r="4" fill="#0" id="circle49"/>
	<circle cx="150.324" cy="656.829" r="4" fill="#0" id="circle50"/>
	<circle cx="154.826" cy="579.54" r="4" fill="#0" id="circle51"/>
	<circle cx="157.077" cy="651.576" r="4" fill="#0" id="circle52"/>
	<circle cx="161.579" cy="575.788" r="4" fill="#0" id="circle53"/>
	<circle cx="164.581" cy="647.825" r="4" fill="#0" id="circle54"/>
	<circle cx="168.333" cy="571.286" r="4" fill="#0" id="circle55"/>
	<circle cx="170.584" cy="643.322" r="4" fill="#0" id="circle56"/>
	<circle cx="174.336" cy="566.784" r="4" fill="#0" id="circle57"/>
	<circle cx="176.587" cy="638.82" r="4" fill="#0" id="circle58"/>
	<circle cx="181.089" cy="562.281" r="4" fill="#0" id="circle59"/>
	<circle cx="183.34" cy="635.068" r="4" fill="#0" id="circle60"/>
	<circle cx="188.593" cy="559.28" r="4" fill="#0" id="circle61"/>
	<circle cx="189.343" cy="629.815" r="4" fill="#0" id="circle62"/>
	<circle cx="194.596" cy="553.277" r="4" fill="#0" id="circle63"/>
	<circle cx="196.097" cy="625.313" r="4" fill="#0" id="circle64"/>
	<circle cx="200.599" cy="548.775" r="4" fill="#0" id="circle65"/>
	<circle cx="202.85" cy="621.561" r="4" fill="#0" id="circle66"/>
	<circle cx="208.103" cy="546.523" r="4" fill="#0" id="circle67"/>
	<circle cx="208.853" cy="616.309" r="4" fill="#0" id="circle68"/>
	<circle cx="212.605" cy="540.52" r="4" fill="#0" id="circle69"/>
	<circle cx="215.607" cy="612.557" r="4" fill="#0" id="circle70"/>
	<circle cx="218.608" cy="536.018" r="4" fill="#0" id="circle71"/>
	<circle cx="222.36" cy="608.805" r="4" fill="#0" id="circle72"/>
	<circle cx="225.362" cy="531.516" r="4" fill="#0" id="circle73"/>
	<circle cx="228.363" cy="604.303" r="4" fill="#0" id="circle74"/>
	<circle cx="232.115" cy="527.764" r="4" fill="#0" id="circle75"/>
	<circle cx="235.116" cy="599.05" r="4" fill="#0" id="circle76"/>
	<circle cx="238.118" cy="522.511" r="4" fill="#0" id="circle77"/>
	<circle cx="241.87" cy="595.298" r="4" fill="#0" id="circle78"/>
	<circle cx="245.622" cy="521.011" r="4" fill="#0" id="circle79"/>
	<circle cx="247.873" cy="590.796" r="4" fill="#0" id="circle80"/>
	<circle cx="251.625" cy="516.508" r="4" fill="#0" id="circle81"/>
	<circle cx="253.876" cy="586.293" r="4" fill="#0" id="circle82"/>
	<circle cx="258.378" cy="512.006" r="4" fill="#0" id="circle83"/>
	<circle cx="260.629" cy="581.791" r="4" fill="#0" id="circle84"/>
	<circle cx="265.882" cy="508.254" r="4" fill="#0" id="circle85"/>
	<circle cx="267.383" cy="577.289" r="4" fill="#0" id="circle86"/>
	<circle cx="270.384" cy="502.251" r="4" fill="#0" id="circle87"/>
	<circle cx="273.386" cy="572.787" r="4" fill="#0" id="circle88"/>
	<circle cx="277.888" cy="501.501" r="4" fill="#0" id="circle89"/>
	<circle cx="280.139" cy="568.284" r="4" fill="#0" id="circle90"/>
	<circle cx="283.891" cy="496.248" r="4" fill="#0" id="circle91"/>
	<circle cx="286.142" cy="563.782" r="4" fill="#0" id="circle92"/>
	<circle cx="290.644" cy="491.746" r="4" fill="#0" id="circle93"/>
	<circle cx="292.896" cy="560.03" r="4" fill="#0" id="circle94"/>
	<circle cx="296.648" cy="486.493" r="4" fill="#0" id="circle95"/>
	<circle cx="299.649" cy="555.528" r="4" fill="#0" id="circle96"/>
	<circle cx="304.151" cy="486.493" r="4" fill="#0" id="circle97"/>
	<circle cx="306.402" cy="551.026" r="4" fill="#0" id="circle98"/>
	<circle cx="310.905" cy="482.741" r="4" fill="#0" id="circle99"/>
	<circle cx="312.405" cy="546.523" r="4" fill="#0" id="circle100"/>
	<circle cx="317.658" cy="477.489" r="4" fill="#0" id="circle101"/>
	<circle cx="318.408" cy="542.021" r="4" fill="#0" id="circle102"/>
	<circle cx="325.162" cy="473.737" r="4" fill="#0" id="circle103"/>
	<circle cx="325.162" cy="537.519" r="4" fill="#0" id="circle104"/>
	<circle cx="331.165" cy="469.234" r="4" fill="#0" id="circle105"/>
	<circle cx="331.915" cy="533.767" r="4" fill="#0" id="circle106"/>
	<circle cx="337.918" cy="463.982" r="4" fill="#0" id="circle107"/>
	<circle cx="337.918" cy="529.265" r="4" fill="#0" id="circle108"/>
	<circle cx="343.921" cy="457.979" r="4" fill="#0" id="circle109"/>
	<circle cx="343.921" cy="524.762" r="4" fill="#0" id="circle110"/>
	<circle cx="349.924" cy="450.475" r="4" fill="#0" id="circle111"/>
	<circle cx="349.924" cy="520.26" r="4" fill="#0" id="circle112"/>
	<circle cx="354.427" cy="444.472" r="4" fill="#0" id="circle113"/>
	<circle cx="357.428" cy="516.508" r="4" fill="#0" id="circle114"/>
	<circle cx="361.93" cy="440.72" r="4" fill="#0" id="circle115"/>
	<circle cx="363.431" cy="512.006" r="4" fill="#0" id="circle116"/>
	<circle cx="369.434" cy="439.97" r="4" fill="#0" id="circle117"/>
	<circle cx="369.434" cy="506.753" r="4" fill="#0" id="circle118"/>
	<circle cx="375.437" cy="502.251" r="4" fill="#0" id="circle119"/>
	<circle cx="376.938" cy="436.968" r="4" fill="#0" id="circle120"/>
	<circle cx="381.44" cy="497.749" r="4" fill="#0" id="circle121"/>
	<circle cx="382.191" cy="430.965" r="4" fill="#0" id="circle122"/>
	<circle cx="388.194" cy="425.713" r="4" fill="#0" id="circle123"/>
	<circle cx="388.944" cy="493.997" r="4" fill="#0" id="circle124"/>
	<circle cx="394.197" cy="420.46" r="4" fill="#0" id="circle125"/>
	<circle cx="394.947" cy="488.744" r="4" fill="#0" id="circle126"/>
	<circle cx="401.7" cy="416.708" r="4" fill="#0" id="circle127"/>
	<circle cx="401.7" cy="484.992" r="4" fill="#0" id="circle128"/>
	<circle cx="407.703" cy="480.49" r="4" fill="#0" id="circle129"/>
	<circle cx="408.454" cy="412.956" r="4" fill="#0" id="circle130"/>
	<circle cx="413.707" cy="406.953" r="4" fill="#0" id="circle131"/>
	<circle cx="413.707" cy="475.988" r="4" fill="#0" id="circle132"/>
	<circle cx="419.71" cy="471.486" r="4" fill="#0" id="circle133"/>
	<circle cx="420.46" cy="402.451" r="4" fill="#0" id="circle134"/>
	<circle cx="426.463" cy="467.734" r="4" fill="#0" id="circle135"/>
	<circle cx="427.964" cy="402.451" r="4" fill="#0" id="circle136"/>
	<circle cx="432.466" cy="463.231" r="4" fill="#0" id="circle137"/>
	<circle cx="435.467" cy="398.699" r="4" fill="#0" id="circle138"/>
	<circle cx="438.469" cy="458.729" r="4" fill="#0" id="circle139"/>
	<circle cx="442.221" cy="394.947" r="4" fill="#0" id="circle140"/>
	<circle cx="445.973" cy="454.977" r="4" fill="#0" id="circle141"/>
	<circle cx="448.224" cy="389.694" r="4" fill="#0" id="circle142"/>
	<circle cx="451.976" cy="449.725" r="4" fill="#0" id="circle143"/>
	<circle cx="455.728" cy="386.693" r="4" fill="#0" id="circle144"/>
	<circle cx="458.729" cy="445.222" r="4" fill="#0" id="circle145"/>
	<circle cx="462.481" cy="382.941" r="4" fill="#0" id="circle146"/>
	<circle cx="464.732" cy="439.97" r="4" fill="#0" id="circle147"/>
	<circle cx="468.484" cy="376.938" r="4" fill="#0" id="circle148"/>
	<circle cx="471.486" cy="436.218" r="4" fill="#0" id="circle149"/>
	<circle cx="474.487" cy="371.685" r="4" fill="#0" id="circle150"/>
	<circle cx="478.239" cy="432.466" r="4" fill="#0" id="circle151"/>
	<circle cx="480.49" cy="367.183" r="4" fill="#0" id="circle152"/>
	<circle cx="484.992" cy="427.964" r="4" fill="#0" id="circle153"/>
	<circle cx="487.994" cy="363.431" r="4" fill="#0" id="circle154"/>
	<circle cx="490.995" cy="423.461" r="4" fill="#0" id="circle155"/>
	<circle cx="493.997" cy="358.929" r="4" fill="#0" id="circle156"/>
	<circle cx="496.998" cy="418.959" r="4" fill="#0" id="circle157"/>
	<circle cx="500" cy="354.427" r="4" fill="#0" id="circle158"/>
	<circle cx="503.752" cy="415.207" r="4" fill="#0" id="circle159"/>
	<circle cx="506.753" cy="350.675" r="4" fill="#0" id="circle160"/>
	<circle cx="509.755" cy="410.705" r="4" fill="#0" id="circle161"/>
	<circle cx="513.507" cy="346.172" r="4" fill="#0" id="circle162"/>
	<circle cx="515.758" cy="406.203" r="4" fill="#0" id="circle163"/>
	<circle cx="520.26" cy="341.67" r="4" fill="#0" id="circle164"/>
	<circle cx="522.511" cy="402.451" r="4" fill="#0" id="circle165"/>
	<circle cx="526.263" cy="335.667" r="4" fill="#0" id="circle166"/>
	<circle cx="528.514" cy="397.949" r="4" fill="#0" id="circle167"/>
	<circle cx="533.017" cy="331.915" r="4" fill="#0" id="circle168"/>
	<circle cx="534.517" cy="393.446" r="4" fill="#0" id="circle169"/>
	<circle cx="539.77" cy="326.663" r="4" fill="#0" id="circle170"/>
	<circle cx="540.52" cy="388.944" r="4" fill="#0" id="circle171"/>
	<circle cx="545.773" cy="322.16" r="4" fill="#0" id="circle172"/>
	<circle cx="547.274" cy="385.192" r="4" fill="#0" id="circle173"/>
	<circle cx="552.526" cy="318.408" r="4" fill="#0" id="circle174"/>
	<circle cx="553.277" cy="380.69" r="4" fill="#0" id="circle175"/>
	<circle cx="558.53" cy="313.156" r="4" fill="#0" id="circle176"/>
	<circle cx="560.03" cy="376.188" r="4" fill="#0" id="circle177"/>
	<circle cx="565.283" cy="309.404" r="4" fill="#0" id="circle178"/>
	<circle cx="566.033" cy="371.685" r="4" fill="#0" id="circle179"/>
	<circle cx="572.787" cy="306.402" r="4" fill="#0" id="circle180"/>
	<circle cx="572.787" cy="367.933" r="4" fill="#0" id="circle181"/>
	<circle cx="577.289" cy="299.649" r="4" fill="#0" id="circle182"/>
	<circle cx="578.79" cy="363.431" r="4" fill="#0" id="circle183"/>
	<circle cx="584.793" cy="298.148" r="4" fill="#0" id="circle184"/>
	<circle cx="585.543" cy="359.679" r="4" fill="#0" id="circle185"/>
	<circle cx="589.295" cy="291.395" r="4" fill="#0" id="circle186"/>
	<circle cx="592.297" cy="355.177" r="4" fill="#0" id="circle187"/>
	<circle cx="596.048" cy="287.643" r="4" fill="#0" id="circle188"/>
	<circle cx="598.3" cy="350.675" r="4" fill="#0" id="circle189"/>
	<circle cx="603.552" cy="284.641" r="4" fill="#0" id="circle190"/>
	<circle cx="605.803" cy="346.923" r="4" fill="#0" id="circle191"/>
	<circle cx="610.306" cy="276.387" r="4" fill="#0" id="circle192"/>
	<circle cx="611.806" cy="342.421" r="4" fill="#0" id="circle193"/>
	<circle cx="616.309" cy="271.885" r="4" fill="#0" id="circle194"/>
	<circle cx="617.809" cy="337.918" r="4" fill="#0" id="circle195"/>
	<circle cx="623.812" cy="270.384" r="4" fill="#0" id="circle196"/>
	<circle cx="624.563" cy="334.166" r="4" fill="#0" id="circle197"/>
	<circle cx="629.065" cy="263.631" r="4" fill="#0" id="circle198"/>
	<circle cx="630.566" cy="329.664" r="4" fill="#0" id="circle199"/>
	<circle cx="635.068" cy="259.129" r="4" fill="#0" id="circle200"/>
	<circle cx="636.569" cy="324.411" r="4" fill="#0" id="circle201"/>
	<circle cx="642.572" cy="259.129" r="4" fill="#0" id="circle202"/>
	<circle cx="644.073" cy="322.911" r="4" fill="#0" id="circle203"/>
	<circle cx="648.575" cy="253.876" r="4" fill="#0" id="circle204"/>
	<circle cx="651.576" cy="319.159" r="4" fill="#0" id="circle205"/>
	<circle cx="653.828" cy="243.371" r="4" fill="#0" id="circle206"/>
	<circle cx="657.579" cy="313.906" r="4" fill="#0" id="circle207"/>
	<circle cx="661.331" cy="241.87" r="4" fill="#0" id="circle208"/>
	<circle cx="665.083" cy="310.154" r="4" fill="#0" id="circle209"/>
	<circle cx="668.085" cy="238.118" r="4" fill="#0" id="circle210"/>
	<circle cx="671.837" cy="306.402" r="4" fill="#0" id="circle211"/>
	<circle cx="675.589" cy="234.366" r="4" fill="#0" id="circle212"/>
	<circle cx="678.59" cy="302.651" r="4" fill="#0" id="circle213"/>
	<circle cx="679.34" cy="225.362" r="4" fill="#0" id="circle214"/>
	<circle cx="684.593" cy="297.398" r="4" fill="#0" id="circle215"/>
	<circle cx="685.343" cy="220.109" r="4" fill="#0" id="circle216"/>
	<circle cx="687.595" cy="211.855" r="4" fill="#0" id="circle217"/>
	<circle cx="690.596" cy="203.601" r="4" fill="#0" id="circle218"/>
	<circle cx="692.097" cy="294.396" r="4" fill="#0" id="circle219"/>
	<circle cx="695.098" cy="195.346" r="4" fill="#0" id="circle220"/>
	<circle cx="697.349" cy="187.843" r="4" fill="#0" id="circle221"/>
	<circle cx="699.601" cy="292.896" r="4" fill="#0" id="circle222"/>
	<circle cx="701.101" cy="180.339" r="4" fill="#0" id="circle223"/>
	<circle cx="704.853" cy="172.835" r="4" fill="#0" id="circle224"/>
	<circle cx="705.604" cy="287.643" r="4" fill="#0" id="circle225"/>
	<circle cx="707.855" cy="164.581" r="4" fill="#0" id="circle226"/>
	<circle cx="711.607" cy="157.077" r="4" fill="#0" id="circle227"/>
	<circle cx="713.107" cy="287.643" r="4" fill="#0" id="circle228"/>
	<circle cx="716.859" cy="151.074" r="4" fill="#0" id="circle229"/>
	<circle cx="720.611" cy="142.07" r="4" fill="#0" id="circle230"/>
	<circle cx="720.611" cy="286.142" r="4" fill="#0" id="circle231"/>
	<circle cx="723.613" cy="134.566" r="4" fill="#0" id="circle232"/>
	<circle cx="728.115" cy="127.062" r="4" fill="#0" id="circle233"/>
	<circle cx="728.115" cy="286.893" r="4" fill="#0" id="circle234"/>
	<circle cx="731.867" cy="119.558" r="4" fill="#0" id="circle235"/>
	<circle cx="735.619" cy="286.142" r="4" fill="#0" id="circle236"/>
	<circle cx="736.369" cy="111.304" r="4" fill="#0" id="circle237"/>
	<circle cx="740.871" cy="104.551" r="4" fill="#0" id="circle238"/>
	<circle cx="743.123" cy="286.142" r="4" fill="#0" id="circle239"/>
	<circle cx="745.374" cy="97.7973" r="4" fill="#0" id="circle240"/>
	<circle cx="749.876" cy="91.0439" r="4" fill="#0" id="circle241"/>
	<circle cx="750.626" cy="286.142" r="4" fill="#0" id="circle242"/>
	<circle cx="754.378" cy="85.0408" r="4" fill="#0" id="circle243"/>
	<circle cx="758.13" cy="285.392" r="4" fill="#0" id="circle244"/>
	<circle cx="758.88" cy="79.0378" r="4" fill="#0" id="circle245"/>
	<circle cx="764.133" cy="73.0348" r="4" fill="#0" id="circle246"/>
	<circle cx="765.634" cy="285.392" r="4" fill="#0" id="circle247"/>
	<circle cx="769.386" cy="67.0318" r="4" fill="#0" id="circle248"/>
	<circle cx="773.138" cy="285.392" r="4" fill="#0" id="circle249"/>
	<circle cx="775.389" cy="61.7791" r="4" fill="#0" id="circle250"/>
	<circle cx="779.891" cy="55.7761" r="4" fill="#0" id="circle251"/>
	<circle cx="780.641" cy="285.392" r="4" fill="#0" id="circle252"/>
	<circle cx="785.894" cy="51.2738" r="4" fill="#0" id="circle253"/>
	<circle cx="788.145" cy="284.641" r="4" fill="#0" id="circle254"/>
	<circle cx="791.897" cy="46.0212" r="4" fill="#0" id="circle255"/>
	<circle cx="795.649" cy="285.392" r="4" fill="#0" id="circle256"/>
	<circle cx="798.651" cy="42.2693" r="4" fill="#0" id="circle257"/>
	<circle cx="803.153" cy="284.641" r="4" fill="#0" id="circle258"/>
	<circle cx="805.404" cy="37.767" r="4" fill="#0" id="circle259"/>
	<circle cx="810.657" cy="283.141" r="4" fill="#0" id="circle260"/>
	<circle cx="811.407" cy="33.2648" r="4" fill="#0" id="circle261"/>
	<circle cx="817.41" cy="28.7625" r="4" fill="#0" id="circle262"/>
	<circle cx="818.16" cy="283.891" r="4" fill="#0" id="circle263"/>
	<circle cx="823.413" cy="24.2602" r="4" fill="#0" id="circle264"/>
	<circle cx="825.664" cy="282.39" r="4" fill="#0" id="circle265"/>
	<circle cx="830.917" cy="20.5083" r="4" fill="#0" id="circle266"/>
	<circle cx="833.168" cy="281.64" r="4" fill="#0" id="circle267"/>
	<circle cx="838.421" cy="16.7564" r="4" fill="#0" id="circle268"/>
	<circle cx="840.672" cy="280.139" r="4" fill="#0" id="circle269"/>
	<circle cx="845.924" cy="13.7549" r="4" fill="#0" id="circle270"/>
	<circle cx="848.175" cy="277.888" r="4" fill="#0" id="circle271"/>
	<circle cx="853.428" cy="11.5038" r="4" fill="#0" id="circle272"/>
	<circle cx="855.679" cy="277.138" r="4" fill="#0" id="circle273"/>
	<circle cx="860.932" cy="9.25265" r="4" fill="#0" id="circle274"/>
	<circle cx="863.183" cy="275.637" r="4" fill="#0" id="circle275"/>
	<circle cx="868.436" cy="7.00151" r="4" fill="#0" id="circle276"/>
	<circle cx="870.687" cy="272.635" r="4" fill="#0" id="circle277"/>
	<circle cx="875.939" cy="6.25113" r="4" fill="#0" id="circle278"/>
	<circle cx="878.191" cy="271.135" r="4" fill="#0" id="circle279"/>
	<circle cx="883.443" cy="4.75038" r="4" fill="#0" id="circle280"/>
	<circle cx="885.694" cy="268.133" r="4" fill="#0" id="circle281"/>
	<circle cx="890.947" cy="4" r="4" fill="#0" id="circle282"/>
	<circle cx="893.198" cy="265.132" r="4" fill="#0" id="circle283"/>
	<circle cx="898.451" cy="4" r="4" fill="#0" id="circle284"/>
	<circle cx="899.952" cy="261.38" r="4" fill="#0" id="circle285"/>
	<circle cx="905.955" cy="4.75038" r="4" fill="#0" id="circle286"/>
	<circle cx="907.455" cy="257.628" r="4" fill="#0" id="circle287"/>
	<circle cx="913.458" cy="4.75038" r="4" fill="#0" id="circle288"/>
	<circle cx="914.209" cy="253.876" r="4" fill="#0" id="circle289"/>
	<circle cx="920.212" cy="249.374" r="4" fill="#0" id="circle290"/>
	<circle cx="920.962" cy="6.25113" r="4" fill="#0" id="circle291"/>
	<circle cx="926.215" cy="244.871" r="4" fill="#0" id="circle292"/>
	<circle cx="928.466" cy="8.50227" r="4" fill="#0" id="circle293"/>
	<circle cx="931.467" cy="238.118" r="4" fill="#0" id="circle294"/>
	<circle cx="935.97" cy="11.5038" r="4" fill="#0" id="circle295"/>
	<circle cx="937.47" cy="232.865" r="4" fill="#0" id="circle296"/>
	<circle cx="943.474" cy="14.5053" r="4" fill="#0" id="circle297"/>
	<circle cx="943.474" cy="226.862" r="4" fill="#0" id="circle298"/>
	<circle cx="948.726" cy="220.859" r="4" fill="#0" id="circle299"/>
	<circle cx="950.227" cy="18.2572" r="4" fill="#0" id="circle300"/>
	<circle cx="953.979" cy="214.106" r="4" fill="#0" id="circle301"/>
	<circle cx="956.23" cy="22.7595" r="4" fill="#0" id="circle302"/>
	<circle cx="957.731" cy="205.101" r="4" fill="#0" id="circle303"/>
	<circle cx="961.483" cy="197.598" r="4" fill="#0" id="circle304"/>
	<circle cx="962.233" cy="27.2617" r="4" fill="#0" id="circle305"/>
	<circle cx="963.734" cy="190.094" r="4" fill="#0" id="circle306"/>
	<circle cx="965.985" cy="181.84" r="4" fill="#0" id="circle307"/>
	<circle cx="968.236" cy="32.5144" r="4" fill="#0" id="circle308"/>
	<circle cx="968.236" cy="172.085" r="4" fill="#0" id="circle309"/>
	<circle cx="971.238" cy="164.581" r="4" fill="#0" id="circle310"/>
	<circle cx="973.489" cy="38.5174" r="4" fill="#0" id="circle311"/>
	<circle cx="975.74" cy="157.077" r="4" fill="#0" id="circle312"/>
	<circle cx="978.741" cy="44.5204" r="4" fill="#0" id="circle313"/>
	<circle cx="980.242" cy="149.573" r="4" fill="#0" id="circle314"/>
	<circle cx="983.244" cy="50.5234" r="4" fill="#0" id="circle315"/>
	<circle cx="983.994" cy="142.07" r="4" fill="#0" id="circle316"/>
	<circle cx="986.995" cy="57.2769" r="4" fill="#0" id="circle317"/>
	<circle cx="987.746" cy="133.065" r="4" fill="#0" id="circle318"/>
	<circle cx="990.747" cy="64.0303" r="4" fill="#0" id="circle319"/>
	<circle cx="990.747" cy="124.061" r="4" fill="#0" id="circle320"/>
	<circle cx="992.998" cy="115.056" r="4" fill="#0" id="circle321"/>
	<circle cx="993.749" cy="71.534" r="4" fill="#0" id="circle322"/>
	<circle cx="994.499" cy="106.802" r="4" fill="#0" id="circle323"/>
	<circle cx="995.25" cy="79.0378" r="4" fill="#0" id="circle324"/>
	<circle cx="995.25" cy="86.5416" r="4" fill="#0" id="circle325"/>
	<circle cx="996" cy="94.0454" r="4" fill="#0" id="circle326"/>
	</g>
</svg>