<?xml version="1.0" encoding="UTF-8" standalone="no"?>
<!-- Created with CurveBenchmark -->
<svg
	xmlns:dc="http://purl.org/dc/elements/1.1/"
	xmlns:cc="http://creativecommons.org/ns#"
	xmlns:rdf="http://www.w3.org/1999/02/22-rdf-syntax-ns#"
	xmlns:svg="http://www.w3.org/2000/svg"
	xmlns="http://www.w3.org/2000/svg"
	xmlns:sodipodi="http://sodipodi.sourceforge.net/DTD/sodipodi-0.dtd"
	xmlns:inkscape="http://www.inkscape.org/namespaces/inkscape"
	width="1000"
	height="1000"
	id="svg2"
	version="1.1"
	sodipodi:docname="manifold/connect2d-fish23aff1.png.txt">
<defs
	id="defs4" />
<metadata
	id="metadata7">
	<rdf:RDF>
		<cc:Work
			rdf:about="">
			<dc:format>image/svg+xml</dc:format>
			<dc:type
				rdf:resource="http://purl.org/dc/dcmitype/StillImage" />
			<dc:title></dc:title>
		</cc:Work>
	</rdf:RDF>
</metadata>
<g
	inkscape:label="Layer 1"
	inkscape:groupmode="layer"
	id="layer1">
	<path style="fill:none;stroke:red;stroke-width:1px;stroke-linecap:butt;stroke-linejoin:miter;stroke-opacity:1" d="M 940.052,922.837 922.837,948.659 z" id="boundary" inkscape:connector-curvature="0" />
	<path style="fill:none;stroke:red;stroke-width:1px;stroke-linecap:butt;stroke-linejoin:miter;stroke-opacity:1" d="M 922.837,948.659 901.319,942.204 z" id="boundary" inkscape:connector-curvature="0" />
	<path style="fill:none;stroke:red;stroke-width:1px;stroke-linecap:butt;stroke-linejoin:miter;stroke-opacity:1" d="M 901.319,942.204 881.952,931.445 z" id="boundary" inkscape:connector-curvature="0" />
	<path style="fill:none;stroke:red;stroke-width:1px;stroke-linecap:butt;stroke-linejoin:miter;stroke-opacity:1" d="M 881.952,931.445 862.586,920.685 z" id="boundary" inkscape:connector-curvature="0" />
	<path style="fill:none;stroke:red;stroke-width:1px;stroke-linecap:butt;stroke-linejoin:miter;stroke-opacity:1" d="M 862.586,920.685 843.219,909.926 z" id="boundary" inkscape:connector-curvature="0" />
	<path style="fill:none;stroke:red;stroke-width:1px;stroke-linecap:butt;stroke-linejoin:miter;stroke-opacity:1" d="M 843.219,909.926 823.852,920.685 z" id="boundary" inkscape:connector-curvature="0" />
	<path style="fill:none;stroke:red;stroke-width:1px;stroke-linecap:butt;stroke-linejoin:miter;stroke-opacity:1" d="M 823.852,920.685 834.612,940.052 z" id="boundary" inkscape:connector-curvature="0" />
	<path style="fill:none;stroke:red;stroke-width:1px;stroke-linecap:butt;stroke-linejoin:miter;stroke-opacity:1" d="M 834.612,940.052 834.612,961.57 z" id="boundary" inkscape:connector-curvature="0" />
	<path style="fill:none;stroke:red;stroke-width:1px;stroke-linecap:butt;stroke-linejoin:miter;stroke-opacity:1" d="M 834.612,961.57 821.701,996 z" id="boundary" inkscape:connector-curvature="0" />
	<path style="fill:none;stroke:red;stroke-width:1px;stroke-linecap:butt;stroke-linejoin:miter;stroke-opacity:1" d="M 821.701,996 800.182,987.393 z" id="boundary" inkscape:connector-curvature="0" />
	<path style="fill:none;stroke:red;stroke-width:1px;stroke-linecap:butt;stroke-linejoin:miter;stroke-opacity:1" d="M 800.182,987.393 789.423,968.026 z" id="boundary" inkscape:connector-curvature="0" />
	<path style="fill:none;stroke:red;stroke-width:1px;stroke-linecap:butt;stroke-linejoin:miter;stroke-opacity:1" d="M 789.423,968.026 774.36,950.811 z" id="boundary" inkscape:connector-curvature="0" />
	<path style="fill:none;stroke:red;stroke-width:1px;stroke-linecap:butt;stroke-linejoin:miter;stroke-opacity:1" d="M 774.36,950.811 763.601,931.445 z" id="boundary" inkscape:connector-curvature="0" />
	<path style="fill:none;stroke:red;stroke-width:1px;stroke-linecap:butt;stroke-linejoin:miter;stroke-opacity:1" d="M 763.601,931.445 757.145,909.926 z" id="boundary" inkscape:connector-curvature="0" />
	<path style="fill:none;stroke:red;stroke-width:1px;stroke-linecap:butt;stroke-linejoin:miter;stroke-opacity:1" d="M 757.145,909.926 739.931,894.863 z" id="boundary" inkscape:connector-curvature="0" />
	<path style="fill:none;stroke:red;stroke-width:1px;stroke-linecap:butt;stroke-linejoin:miter;stroke-opacity:1" d="M 739.931,894.863 729.171,875.497 z" id="boundary" inkscape:connector-curvature="0" />
	<path style="fill:none;stroke:red;stroke-width:1px;stroke-linecap:butt;stroke-linejoin:miter;stroke-opacity:1" d="M 729.171,875.497 720.564,853.978 z" id="boundary" inkscape:connector-curvature="0" />
	<path style="fill:none;stroke:red;stroke-width:1px;stroke-linecap:butt;stroke-linejoin:miter;stroke-opacity:1" d="M 720.564,853.978 703.349,838.915 z" id="boundary" inkscape:connector-curvature="0" />
	<path style="fill:none;stroke:red;stroke-width:1px;stroke-linecap:butt;stroke-linejoin:miter;stroke-opacity:1" d="M 703.349,838.915 692.59,819.549 z" id="boundary" inkscape:connector-curvature="0" />
	<path style="fill:none;stroke:red;stroke-width:1px;stroke-linecap:butt;stroke-linejoin:miter;stroke-opacity:1" d="M 692.59,819.549 677.527,802.334 z" id="boundary" inkscape:connector-curvature="0" />
	<path style="fill:none;stroke:red;stroke-width:1px;stroke-linecap:butt;stroke-linejoin:miter;stroke-opacity:1" d="M 677.527,802.334 662.464,785.119 z" id="boundary" inkscape:connector-curvature="0" />
	<path style="fill:none;stroke:red;stroke-width:1px;stroke-linecap:butt;stroke-linejoin:miter;stroke-opacity:1" d="M 662.464,785.119 645.249,770.056 z" id="boundary" inkscape:connector-curvature="0" />
	<path style="fill:none;stroke:red;stroke-width:1px;stroke-linecap:butt;stroke-linejoin:miter;stroke-opacity:1" d="M 645.249,770.056 623.731,770.056 z" id="boundary" inkscape:connector-curvature="0" />
	<path style="fill:none;stroke:red;stroke-width:1px;stroke-linecap:butt;stroke-linejoin:miter;stroke-opacity:1" d="M 623.731,770.056 604.364,759.297 z" id="boundary" inkscape:connector-curvature="0" />
	<path style="fill:none;stroke:red;stroke-width:1px;stroke-linecap:butt;stroke-linejoin:miter;stroke-opacity:1" d="M 604.364,759.297 584.998,748.538 z" id="boundary" inkscape:connector-curvature="0" />
	<path style="fill:none;stroke:red;stroke-width:1px;stroke-linecap:butt;stroke-linejoin:miter;stroke-opacity:1" d="M 584.998,748.538 563.479,742.082 z" id="boundary" inkscape:connector-curvature="0" />
	<path style="fill:none;stroke:red;stroke-width:1px;stroke-linecap:butt;stroke-linejoin:miter;stroke-opacity:1" d="M 563.479,742.082 544.113,731.323 z" id="boundary" inkscape:connector-curvature="0" />
	<path style="fill:none;stroke:red;stroke-width:1px;stroke-linecap:butt;stroke-linejoin:miter;stroke-opacity:1" d="M 544.113,731.323 526.898,716.26 z" id="boundary" inkscape:connector-curvature="0" />
	<path style="fill:none;stroke:red;stroke-width:1px;stroke-linecap:butt;stroke-linejoin:miter;stroke-opacity:1" d="M 526.898,716.26 520.443,694.742 z" id="boundary" inkscape:connector-curvature="0" />
	<path style="fill:none;stroke:red;stroke-width:1px;stroke-linecap:butt;stroke-linejoin:miter;stroke-opacity:1" d="M 520.443,694.742 509.683,675.375 z" id="boundary" inkscape:connector-curvature="0" />
	<path style="fill:none;stroke:red;stroke-width:1px;stroke-linecap:butt;stroke-linejoin:miter;stroke-opacity:1" d="M 509.683,675.375 498.924,656.009 z" id="boundary" inkscape:connector-curvature="0" />
	<path style="fill:none;stroke:red;stroke-width:1px;stroke-linecap:butt;stroke-linejoin:miter;stroke-opacity:1" d="M 498.924,656.009 483.861,638.794 z" id="boundary" inkscape:connector-curvature="0" />
	<path style="fill:none;stroke:red;stroke-width:1px;stroke-linecap:butt;stroke-linejoin:miter;stroke-opacity:1" d="M 483.861,638.794 473.102,619.427 z" id="boundary" inkscape:connector-curvature="0" />
	<path style="fill:none;stroke:red;stroke-width:1px;stroke-linecap:butt;stroke-linejoin:miter;stroke-opacity:1" d="M 473.102,619.427 453.735,608.668 z" id="boundary" inkscape:connector-curvature="0" />
	<path style="fill:none;stroke:red;stroke-width:1px;stroke-linecap:butt;stroke-linejoin:miter;stroke-opacity:1" d="M 453.735,608.668 436.521,593.605 z" id="boundary" inkscape:connector-curvature="0" />
	<path style="fill:none;stroke:red;stroke-width:1px;stroke-linecap:butt;stroke-linejoin:miter;stroke-opacity:1" d="M 436.521,593.605 423.61,576.39 z" id="boundary" inkscape:connector-curvature="0" />
	<path style="fill:none;stroke:red;stroke-width:1px;stroke-linecap:butt;stroke-linejoin:miter;stroke-opacity:1" d="M 423.61,576.39 406.395,563.479 z" id="boundary" inkscape:connector-curvature="0" />
	<path style="fill:none;stroke:red;stroke-width:1px;stroke-linecap:butt;stroke-linejoin:miter;stroke-opacity:1" d="M 406.395,563.479 387.028,552.72 z" id="boundary" inkscape:connector-curvature="0" />
	<path style="fill:none;stroke:red;stroke-width:1px;stroke-linecap:butt;stroke-linejoin:miter;stroke-opacity:1" d="M 387.028,552.72 376.269,533.354 z" id="boundary" inkscape:connector-curvature="0" />
	<path style="fill:none;stroke:red;stroke-width:1px;stroke-linecap:butt;stroke-linejoin:miter;stroke-opacity:1" d="M 376.269,533.354 356.902,522.594 z" id="boundary" inkscape:connector-curvature="0" />
	<path style="fill:none;stroke:red;stroke-width:1px;stroke-linecap:butt;stroke-linejoin:miter;stroke-opacity:1" d="M 356.902,522.594 337.536,511.835 z" id="boundary" inkscape:connector-curvature="0" />
	<path style="fill:none;stroke:red;stroke-width:1px;stroke-linecap:butt;stroke-linejoin:miter;stroke-opacity:1" d="M 337.536,511.835 316.017,511.835 z" id="boundary" inkscape:connector-curvature="0" />
	<path style="fill:none;stroke:red;stroke-width:1px;stroke-linecap:butt;stroke-linejoin:miter;stroke-opacity:1" d="M 316.017,511.835 294.499,511.835 z" id="boundary" inkscape:connector-curvature="0" />
	<path style="fill:none;stroke:red;stroke-width:1px;stroke-linecap:butt;stroke-linejoin:miter;stroke-opacity:1" d="M 294.499,511.835 277.284,496.772 z" id="boundary" inkscape:connector-curvature="0" />
	<path style="fill:none;stroke:red;stroke-width:1px;stroke-linecap:butt;stroke-linejoin:miter;stroke-opacity:1" d="M 277.284,496.772 266.525,477.406 z" id="boundary" inkscape:connector-curvature="0" />
	<path style="fill:none;stroke:red;stroke-width:1px;stroke-linecap:butt;stroke-linejoin:miter;stroke-opacity:1" d="M 266.525,477.406 251.462,460.191 z" id="boundary" inkscape:connector-curvature="0" />
	<path style="fill:none;stroke:red;stroke-width:1px;stroke-linecap:butt;stroke-linejoin:miter;stroke-opacity:1" d="M 251.462,460.191 240.703,440.824 z" id="boundary" inkscape:connector-curvature="0" />
	<path style="fill:none;stroke:red;stroke-width:1px;stroke-linecap:butt;stroke-linejoin:miter;stroke-opacity:1" d="M 240.703,440.824 240.703,419.306 z" id="boundary" inkscape:connector-curvature="0" />
	<path style="fill:none;stroke:red;stroke-width:1px;stroke-linecap:butt;stroke-linejoin:miter;stroke-opacity:1" d="M 240.703,419.306 225.64,402.091 z" id="boundary" inkscape:connector-curvature="0" />
	<path style="fill:none;stroke:red;stroke-width:1px;stroke-linecap:butt;stroke-linejoin:miter;stroke-opacity:1" d="M 225.64,402.091 208.425,387.028 z" id="boundary" inkscape:connector-curvature="0" />
	<path style="fill:none;stroke:red;stroke-width:1px;stroke-linecap:butt;stroke-linejoin:miter;stroke-opacity:1" d="M 208.425,387.028 199.818,365.51 z" id="boundary" inkscape:connector-curvature="0" />
	<path style="fill:none;stroke:red;stroke-width:1px;stroke-linecap:butt;stroke-linejoin:miter;stroke-opacity:1" d="M 199.818,365.51 182.603,350.447 z" id="boundary" inkscape:connector-curvature="0" />
	<path style="fill:none;stroke:red;stroke-width:1px;stroke-linecap:butt;stroke-linejoin:miter;stroke-opacity:1" d="M 182.603,350.447 173.996,328.928 z" id="boundary" inkscape:connector-curvature="0" />
	<path style="fill:none;stroke:red;stroke-width:1px;stroke-linecap:butt;stroke-linejoin:miter;stroke-opacity:1" d="M 173.996,328.928 156.781,313.866 z" id="boundary" inkscape:connector-curvature="0" />
	<path style="fill:none;stroke:red;stroke-width:1px;stroke-linecap:butt;stroke-linejoin:miter;stroke-opacity:1" d="M 156.781,313.866 143.87,296.651 z" id="boundary" inkscape:connector-curvature="0" />
	<path style="fill:none;stroke:red;stroke-width:1px;stroke-linecap:butt;stroke-linejoin:miter;stroke-opacity:1" d="M 143.87,296.651 126.655,281.588 z" id="boundary" inkscape:connector-curvature="0" />
	<path style="fill:none;stroke:red;stroke-width:1px;stroke-linecap:butt;stroke-linejoin:miter;stroke-opacity:1" d="M 126.655,281.588 115.896,262.221 z" id="boundary" inkscape:connector-curvature="0" />
	<path style="fill:none;stroke:red;stroke-width:1px;stroke-linecap:butt;stroke-linejoin:miter;stroke-opacity:1" d="M 115.896,262.221 100.833,245.007 z" id="boundary" inkscape:connector-curvature="0" />
	<path style="fill:none;stroke:red;stroke-width:1px;stroke-linecap:butt;stroke-linejoin:miter;stroke-opacity:1" d="M 100.833,245.007 90.0738,225.64 z" id="boundary" inkscape:connector-curvature="0" />
	<path style="fill:none;stroke:red;stroke-width:1px;stroke-linecap:butt;stroke-linejoin:miter;stroke-opacity:1" d="M 90.0738,225.64 79.3145,206.273 z" id="boundary" inkscape:connector-curvature="0" />
	<path style="fill:none;stroke:red;stroke-width:1px;stroke-linecap:butt;stroke-linejoin:miter;stroke-opacity:1" d="M 79.3145,206.273 66.4035,189.059 z" id="boundary" inkscape:connector-curvature="0" />
	<path style="fill:none;stroke:red;stroke-width:1px;stroke-linecap:butt;stroke-linejoin:miter;stroke-opacity:1" d="M 66.4035,189.059 49.1887,173.996 z" id="boundary" inkscape:connector-curvature="0" />
	<path style="fill:none;stroke:red;stroke-width:1px;stroke-linecap:butt;stroke-linejoin:miter;stroke-opacity:1" d="M 49.1887,173.996 47.0369,152.477 z" id="boundary" inkscape:connector-curvature="0" />
	<path style="fill:none;stroke:red;stroke-width:1px;stroke-linecap:butt;stroke-linejoin:miter;stroke-opacity:1" d="M 47.0369,152.477 36.2777,133.111 z" id="boundary" inkscape:connector-curvature="0" />
	<path style="fill:none;stroke:red;stroke-width:1px;stroke-linecap:butt;stroke-linejoin:miter;stroke-opacity:1" d="M 36.2777,133.111 25.5184,113.744 z" id="boundary" inkscape:connector-curvature="0" />
	<path style="fill:none;stroke:red;stroke-width:1px;stroke-linecap:butt;stroke-linejoin:miter;stroke-opacity:1" d="M 25.5184,113.744 14.7592,94.3774 z" id="boundary" inkscape:connector-curvature="0" />
	<path style="fill:none;stroke:red;stroke-width:1px;stroke-linecap:butt;stroke-linejoin:miter;stroke-opacity:1" d="M 14.7592,94.3774 4,75.0108 z" id="boundary" inkscape:connector-curvature="0" />
	<path style="fill:none;stroke:red;stroke-width:1px;stroke-linecap:butt;stroke-linejoin:miter;stroke-opacity:1" d="M 4,75.0108 4,53.4924 z" id="boundary" inkscape:connector-curvature="0" />
	<path style="fill:none;stroke:red;stroke-width:1px;stroke-linecap:butt;stroke-linejoin:miter;stroke-opacity:1" d="M 4,53.4924 4,31.974 z" id="boundary" inkscape:connector-curvature="0" />
	<path style="fill:none;stroke:red;stroke-width:1px;stroke-linecap:butt;stroke-linejoin:miter;stroke-opacity:1" d="M 4,31.974 4,10.4555 z" id="boundary" inkscape:connector-curvature="0" />
	<path style="fill:none;stroke:red;stroke-width:1px;stroke-linecap:butt;stroke-linejoin:miter;stroke-opacity:1" d="M 4,10.4555 25.5184,4 z" id="boundary" inkscape:connector-curvature="0" />
	<path style="fill:none;stroke:red;stroke-width:1px;stroke-linecap:butt;stroke-linejoin:miter;stroke-opacity:1" d="M 25.5184,4 44.885,14.7592 z" id="boundary" inkscape:connector-curvature="0" />
	<path style="fill:none;stroke:red;stroke-width:1px;stroke-linecap:butt;stroke-linejoin:miter;stroke-opacity:1" d="M 44.885,14.7592 66.4035,16.9111 z" id="boundary" inkscape:connector-curvature="0" />
	<path style="fill:none;stroke:red;stroke-width:1px;stroke-linecap:butt;stroke-linejoin:miter;stroke-opacity:1" d="M 66.4035,16.9111 81.4664,34.1258 z" id="boundary" inkscape:connector-curvature="0" />
	<path style="fill:none;stroke:red;stroke-width:1px;stroke-linecap:butt;stroke-linejoin:miter;stroke-opacity:1" d="M 81.4664,34.1258 102.985,42.7332 z" id="boundary" inkscape:connector-curvature="0" />
	<path style="fill:none;stroke:red;stroke-width:1px;stroke-linecap:butt;stroke-linejoin:miter;stroke-opacity:1" d="M 102.985,42.7332 120.2,57.7961 z" id="boundary" inkscape:connector-curvature="0" />
	<path style="fill:none;stroke:red;stroke-width:1px;stroke-linecap:butt;stroke-linejoin:miter;stroke-opacity:1" d="M 120.2,57.7961 139.566,68.5553 z" id="boundary" inkscape:connector-curvature="0" />
	<path style="fill:none;stroke:red;stroke-width:1px;stroke-linecap:butt;stroke-linejoin:miter;stroke-opacity:1" d="M 139.566,68.5553 154.629,85.7701 z" id="boundary" inkscape:connector-curvature="0" />
	<path style="fill:none;stroke:red;stroke-width:1px;stroke-linecap:butt;stroke-linejoin:miter;stroke-opacity:1" d="M 154.629,85.7701 171.844,100.833 z" id="boundary" inkscape:connector-curvature="0" />
	<path style="fill:none;stroke:red;stroke-width:1px;stroke-linecap:butt;stroke-linejoin:miter;stroke-opacity:1" d="M 171.844,100.833 191.21,111.592 z" id="boundary" inkscape:connector-curvature="0" />
	<path style="fill:none;stroke:red;stroke-width:1px;stroke-linecap:butt;stroke-linejoin:miter;stroke-opacity:1" d="M 191.21,111.592 208.425,126.655 z" id="boundary" inkscape:connector-curvature="0" />
	<path style="fill:none;stroke:red;stroke-width:1px;stroke-linecap:butt;stroke-linejoin:miter;stroke-opacity:1" d="M 208.425,126.655 221.336,143.87 z" id="boundary" inkscape:connector-curvature="0" />
	<path style="fill:none;stroke:red;stroke-width:1px;stroke-linecap:butt;stroke-linejoin:miter;stroke-opacity:1" d="M 221.336,143.87 238.551,156.781 z" id="boundary" inkscape:connector-curvature="0" />
	<path style="fill:none;stroke:red;stroke-width:1px;stroke-linecap:butt;stroke-linejoin:miter;stroke-opacity:1" d="M 238.551,156.781 253.614,173.996 z" id="boundary" inkscape:connector-curvature="0" />
	<path style="fill:none;stroke:red;stroke-width:1px;stroke-linecap:butt;stroke-linejoin:miter;stroke-opacity:1" d="M 253.614,173.996 275.132,182.603 z" id="boundary" inkscape:connector-curvature="0" />
	<path style="fill:none;stroke:red;stroke-width:1px;stroke-linecap:butt;stroke-linejoin:miter;stroke-opacity:1" d="M 275.132,182.603 290.195,199.818 z" id="boundary" inkscape:connector-curvature="0" />
	<path style="fill:none;stroke:red;stroke-width:1px;stroke-linecap:butt;stroke-linejoin:miter;stroke-opacity:1" d="M 290.195,199.818 307.41,214.881 z" id="boundary" inkscape:connector-curvature="0" />
	<path style="fill:none;stroke:red;stroke-width:1px;stroke-linecap:butt;stroke-linejoin:miter;stroke-opacity:1" d="M 307.41,214.881 316.017,236.399 z" id="boundary" inkscape:connector-curvature="0" />
	<path style="fill:none;stroke:red;stroke-width:1px;stroke-linecap:butt;stroke-linejoin:miter;stroke-opacity:1" d="M 316.017,236.399 333.232,251.462 z" id="boundary" inkscape:connector-curvature="0" />
	<path style="fill:none;stroke:red;stroke-width:1px;stroke-linecap:butt;stroke-linejoin:miter;stroke-opacity:1" d="M 333.232,251.462 348.295,268.677 z" id="boundary" inkscape:connector-curvature="0" />
	<path style="fill:none;stroke:red;stroke-width:1px;stroke-linecap:butt;stroke-linejoin:miter;stroke-opacity:1" d="M 348.295,268.677 365.51,283.74 z" id="boundary" inkscape:connector-curvature="0" />
	<path style="fill:none;stroke:red;stroke-width:1px;stroke-linecap:butt;stroke-linejoin:miter;stroke-opacity:1" d="M 365.51,283.74 380.573,300.954 z" id="boundary" inkscape:connector-curvature="0" />
	<path style="fill:none;stroke:red;stroke-width:1px;stroke-linecap:butt;stroke-linejoin:miter;stroke-opacity:1" d="M 380.573,300.954 397.787,316.017 z" id="boundary" inkscape:connector-curvature="0" />
	<path style="fill:none;stroke:red;stroke-width:1px;stroke-linecap:butt;stroke-linejoin:miter;stroke-opacity:1" d="M 397.787,316.017 412.85,333.232 z" id="boundary" inkscape:connector-curvature="0" />
	<path style="fill:none;stroke:red;stroke-width:1px;stroke-linecap:butt;stroke-linejoin:miter;stroke-opacity:1" d="M 412.85,333.232 430.065,348.295 z" id="boundary" inkscape:connector-curvature="0" />
	<path style="fill:none;stroke:red;stroke-width:1px;stroke-linecap:butt;stroke-linejoin:miter;stroke-opacity:1" d="M 430.065,348.295 445.128,365.51 z" id="boundary" inkscape:connector-curvature="0" />
	<path style="fill:none;stroke:red;stroke-width:1px;stroke-linecap:butt;stroke-linejoin:miter;stroke-opacity:1" d="M 445.128,365.51 455.887,384.876 z" id="boundary" inkscape:connector-curvature="0" />
	<path style="fill:none;stroke:red;stroke-width:1px;stroke-linecap:butt;stroke-linejoin:miter;stroke-opacity:1" d="M 455.887,384.876 475.254,395.636 z" id="boundary" inkscape:connector-curvature="0" />
	<path style="fill:none;stroke:red;stroke-width:1px;stroke-linecap:butt;stroke-linejoin:miter;stroke-opacity:1" d="M 475.254,395.636 490.317,412.85 z" id="boundary" inkscape:connector-curvature="0" />
	<path style="fill:none;stroke:red;stroke-width:1px;stroke-linecap:butt;stroke-linejoin:miter;stroke-opacity:1" d="M 490.317,412.85 511.835,419.306 z" id="boundary" inkscape:connector-curvature="0" />
	<path style="fill:none;stroke:red;stroke-width:1px;stroke-linecap:butt;stroke-linejoin:miter;stroke-opacity:1" d="M 511.835,419.306 533.354,423.61 z" id="boundary" inkscape:connector-curvature="0" />
	<path style="fill:none;stroke:red;stroke-width:1px;stroke-linecap:butt;stroke-linejoin:miter;stroke-opacity:1" d="M 533.354,423.61 552.72,434.369 z" id="boundary" inkscape:connector-curvature="0" />
	<path style="fill:none;stroke:red;stroke-width:1px;stroke-linecap:butt;stroke-linejoin:miter;stroke-opacity:1" d="M 552.72,434.369 569.935,447.28 z" id="boundary" inkscape:connector-curvature="0" />
	<path style="fill:none;stroke:red;stroke-width:1px;stroke-linecap:butt;stroke-linejoin:miter;stroke-opacity:1" d="M 569.935,447.28 587.15,462.343 z" id="boundary" inkscape:connector-curvature="0" />
	<path style="fill:none;stroke:red;stroke-width:1px;stroke-linecap:butt;stroke-linejoin:miter;stroke-opacity:1" d="M 587.15,462.343 602.213,479.557 z" id="boundary" inkscape:connector-curvature="0" />
	<path style="fill:none;stroke:red;stroke-width:1px;stroke-linecap:butt;stroke-linejoin:miter;stroke-opacity:1" d="M 602.213,479.557 619.427,494.62 z" id="boundary" inkscape:connector-curvature="0" />
	<path style="fill:none;stroke:red;stroke-width:1px;stroke-linecap:butt;stroke-linejoin:miter;stroke-opacity:1" d="M 619.427,494.62 619.427,516.139 z" id="boundary" inkscape:connector-curvature="0" />
	<path style="fill:none;stroke:red;stroke-width:1px;stroke-linecap:butt;stroke-linejoin:miter;stroke-opacity:1" d="M 619.427,516.139 630.187,535.505 z" id="boundary" inkscape:connector-curvature="0" />
	<path style="fill:none;stroke:red;stroke-width:1px;stroke-linecap:butt;stroke-linejoin:miter;stroke-opacity:1" d="M 630.187,535.505 636.642,557.024 z" id="boundary" inkscape:connector-curvature="0" />
	<path style="fill:none;stroke:red;stroke-width:1px;stroke-linecap:butt;stroke-linejoin:miter;stroke-opacity:1" d="M 636.642,557.024 640.946,578.542 z" id="boundary" inkscape:connector-curvature="0" />
	<path style="fill:none;stroke:red;stroke-width:1px;stroke-linecap:butt;stroke-linejoin:miter;stroke-opacity:1" d="M 640.946,578.542 619.427,597.909 z" id="boundary" inkscape:connector-curvature="0" />
	<path style="fill:none;stroke:red;stroke-width:1px;stroke-linecap:butt;stroke-linejoin:miter;stroke-opacity:1" d="M 619.427,597.909 623.731,619.427 z" id="boundary" inkscape:connector-curvature="0" />
	<path style="fill:none;stroke:red;stroke-width:1px;stroke-linecap:butt;stroke-linejoin:miter;stroke-opacity:1" d="M 623.731,619.427 634.49,638.794 z" id="boundary" inkscape:connector-curvature="0" />
	<path style="fill:none;stroke:red;stroke-width:1px;stroke-linecap:butt;stroke-linejoin:miter;stroke-opacity:1" d="M 634.49,638.794 649.553,656.009 z" id="boundary" inkscape:connector-curvature="0" />
	<path style="fill:none;stroke:red;stroke-width:1px;stroke-linecap:butt;stroke-linejoin:miter;stroke-opacity:1" d="M 649.553,656.009 660.312,675.375 z" id="boundary" inkscape:connector-curvature="0" />
	<path style="fill:none;stroke:red;stroke-width:1px;stroke-linecap:butt;stroke-linejoin:miter;stroke-opacity:1" d="M 660.312,675.375 673.223,692.59 z" id="boundary" inkscape:connector-curvature="0" />
	<path style="fill:none;stroke:red;stroke-width:1px;stroke-linecap:butt;stroke-linejoin:miter;stroke-opacity:1" d="M 673.223,692.59 683.983,711.957 z" id="boundary" inkscape:connector-curvature="0" />
	<path style="fill:none;stroke:red;stroke-width:1px;stroke-linecap:butt;stroke-linejoin:miter;stroke-opacity:1" d="M 683.983,711.957 701.197,727.02 z" id="boundary" inkscape:connector-curvature="0" />
	<path style="fill:none;stroke:red;stroke-width:1px;stroke-linecap:butt;stroke-linejoin:miter;stroke-opacity:1" d="M 701.197,727.02 709.805,748.538 z" id="boundary" inkscape:connector-curvature="0" />
	<path style="fill:none;stroke:red;stroke-width:1px;stroke-linecap:butt;stroke-linejoin:miter;stroke-opacity:1" d="M 709.805,748.538 727.02,763.601 z" id="boundary" inkscape:connector-curvature="0" />
	<path style="fill:none;stroke:red;stroke-width:1px;stroke-linecap:butt;stroke-linejoin:miter;stroke-opacity:1" d="M 727.02,763.601 742.082,780.816 z" id="boundary" inkscape:connector-curvature="0" />
	<path style="fill:none;stroke:red;stroke-width:1px;stroke-linecap:butt;stroke-linejoin:miter;stroke-opacity:1" d="M 742.082,780.816 759.297,795.879 z" id="boundary" inkscape:connector-curvature="0" />
	<path style="fill:none;stroke:red;stroke-width:1px;stroke-linecap:butt;stroke-linejoin:miter;stroke-opacity:1" d="M 759.297,795.879 774.36,813.093 z" id="boundary" inkscape:connector-curvature="0" />
	<path style="fill:none;stroke:red;stroke-width:1px;stroke-linecap:butt;stroke-linejoin:miter;stroke-opacity:1" d="M 774.36,813.093 795.879,821.701 z" id="boundary" inkscape:connector-curvature="0" />
	<path style="fill:none;stroke:red;stroke-width:1px;stroke-linecap:butt;stroke-linejoin:miter;stroke-opacity:1" d="M 795.879,821.701 810.941,838.915 z" id="boundary" inkscape:connector-curvature="0" />
	<path style="fill:none;stroke:red;stroke-width:1px;stroke-linecap:butt;stroke-linejoin:miter;stroke-opacity:1" d="M 810.941,838.915 832.46,847.523 z" id="boundary" inkscape:connector-curvature="0" />
	<path style="fill:none;stroke:red;stroke-width:1px;stroke-linecap:butt;stroke-linejoin:miter;stroke-opacity:1" d="M 832.46,847.523 845.371,864.738 z" id="boundary" inkscape:connector-curvature="0" />
	<path style="fill:none;stroke:red;stroke-width:1px;stroke-linecap:butt;stroke-linejoin:miter;stroke-opacity:1" d="M 845.371,864.738 866.889,871.193 z" id="boundary" inkscape:connector-curvature="0" />
	<path style="fill:none;stroke:red;stroke-width:1px;stroke-linecap:butt;stroke-linejoin:miter;stroke-opacity:1" d="M 866.889,871.193 884.104,886.256 z" id="boundary" inkscape:connector-curvature="0" />
	<path style="fill:none;stroke:red;stroke-width:1px;stroke-linecap:butt;stroke-linejoin:miter;stroke-opacity:1" d="M 884.104,886.256 903.471,897.015 z" id="boundary" inkscape:connector-curvature="0" />
	<path style="fill:none;stroke:red;stroke-width:1px;stroke-linecap:butt;stroke-linejoin:miter;stroke-opacity:1" d="M 903.471,897.015 922.837,907.774 z" id="boundary" inkscape:connector-curvature="0" />
	<path style="fill:none;stroke:red;stroke-width:1px;stroke-linecap:butt;stroke-linejoin:miter;stroke-opacity:1" d="M 922.837,907.774 940.052,922.837 z" id="boundary" inkscape:connector-curvature="0" />
	<circle cx="4" cy="10.4555" r="4" fill="#0" id="circle0"/>
	<circle cx="4" cy="31.974" r="4" fill="#0" id="circle1"/>
	<circle cx="4" cy="53.4924" r="4" fill="#0" id="circle2"/>
	<circle cx="4" cy="75.0108" r="4" fill="#0" id="circle3"/>
	<circle cx="14.7592" cy="94.3774" r="4" fill="#0" id="circle4"/>
	<circle cx="25.5184" cy="4" r="4" fill="#0" id="circle5"/>
	<circle cx="25.5184" cy="113.744" r="4" fill="#0" id="circle6"/>
	<circle cx="36.2777" cy="133.111" r="4" fill="#0" id="circle7"/>
	<circle cx="44.885" cy="14.7592" r="4" fill="#0" id="circle8"/>
	<circle cx="47.0369" cy="152.477" r="4" fill="#0" id="circle9"/>
	<circle cx="49.1887" cy="173.996" r="4" fill="#0" id="circle10"/>
	<circle cx="66.4035" cy="16.9111" r="4" fill="#0" id="circle11"/>
	<circle cx="66.4035" cy="189.059" r="4" fill="#0" id="circle12"/>
	<circle cx="79.3145" cy="206.273" r="4" fill="#0" id="circle13"/>
	<circle cx="81.4664" cy="34.1258" r="4" fill="#0" id="circle14"/>
	<circle cx="90.0738" cy="225.64" r="4" fill="#0" id="circle15"/>
	<circle cx="100.833" cy="245.007" r="4" fill="#0" id="circle16"/>
	<circle cx="102.985" cy="42.7332" r="4" fill="#0" id="circle17"/>
	<circle cx="115.896" cy="262.221" r="4" fill="#0" id="circle18"/>
	<circle cx="120.2" cy="57.7961" r="4" fill="#0" id="circle19"/>
	<circle cx="126.655" cy="281.588" r="4" fill="#0" id="circle20"/>
	<circle cx="139.566" cy="68.5553" r="4" fill="#0" id="circle21"/>
	<circle cx="143.87" cy="296.651" r="4" fill="#0" id="circle22"/>
	<circle cx="154.629" cy="85.7701" r="4" fill="#0" id="circle23"/>
	<circle cx="156.781" cy="313.866" r="4" fill="#0" id="circle24"/>
	<circle cx="171.844" cy="100.833" r="4" fill="#0" id="circle25"/>
	<circle cx="173.996" cy="328.928" r="4" fill="#0" id="circle26"/>
	<circle cx="182.603" cy="350.447" r="4" fill="#0" id="circle27"/>
	<circle cx="191.21" cy="111.592" r="4" fill="#0" id="circle28"/>
	<circle cx="199.818" cy="365.51" r="4" fill="#0" id="circle29"/>
	<circle cx="208.425" cy="126.655" r="4" fill="#0" id="circle30"/>
	<circle cx="208.425" cy="387.028" r="4" fill="#0" id="circle31"/>
	<circle cx="221.336" cy="143.87" r="4" fill="#0" id="circle32"/>
	<circle cx="225.64" cy="402.091" r="4" fill="#0" id="circle33"/>
	<circle cx="238.551" cy="156.781" r="4" fill="#0" id="circle34"/>
	<circle cx="240.703" cy="419.306" r="4" fill="#0" id="circle35"/>
	<circle cx="240.703" cy="440.824" r="4" fill="#0" id="circle36"/>
	<circle cx="251.462" cy="460.191" r="4" fill="#0" id="circle37"/>
	<circle cx="253.614" cy="173.996" r="4" fill="#0" id="circle38"/>
	<circle cx="266.525" cy="477.406" r="4" fill="#0" id="circle39"/>
	<circle cx="275.132" cy="182.603" r="4" fill="#0" id="circle40"/>
	<circle cx="277.284" cy="496.772" r="4" fill="#0" id="circle41"/>
	<circle cx="290.195" cy="199.818" r="4" fill="#0" id="circle42"/>
	<circle cx="294.499" cy="511.835" r="4" fill="#0" id="circle43"/>
	<circle cx="307.41" cy="214.881" r="4" fill="#0" id="circle44"/>
	<circle cx="316.017" cy="236.399" r="4" fill="#0" id="circle45"/>
	<circle cx="316.017" cy="511.835" r="4" fill="#0" id="circle46"/>
	<circle cx="333.232" cy="251.462" r="4" fill="#0" id="circle47"/>
	<circle cx="337.536" cy="511.835" r="4" fill="#0" id="circle48"/>
	<circle cx="348.295" cy="268.677" r="4" fill="#0" id="circle49"/>
	<circle cx="356.902" cy="522.594" r="4" fill="#0" id="circle50"/>
	<circle cx="365.51" cy="283.74" r="4" fill="#0" id="circle51"/>
	<circle cx="376.269" cy="533.354" r="4" fill="#0" id="circle52"/>
	<circle cx="380.573" cy="300.954" r="4" fill="#0" id="circle53"/>
	<circle cx="387.028" cy="552.72" r="4" fill="#0" id="circle54"/>
	<circle cx="397.787" cy="316.017" r="4" fill="#0" id="circle55"/>
	<circle cx="406.395" cy="563.479" r="4" fill="#0" id="circle56"/>
	<circle cx="412.85" cy="333.232" r="4" fill="#0" id="circle57"/>
	<circle cx="423.61" cy="576.39" r="4" fill="#0" id="circle58"/>
	<circle cx="430.065" cy="348.295" r="4" fill="#0" id="circle59"/>
	<circle cx="436.521" cy="593.605" r="4" fill="#0" id="circle60"/>
	<circle cx="445.128" cy="365.51" r="4" fill="#0" id="circle61"/>
	<circle cx="453.735" cy="608.668" r="4" fill="#0" id="circle62"/>
	<circle cx="455.887" cy="384.876" r="4" fill="#0" id="circle63"/>
	<circle cx="473.102" cy="619.427" r="4" fill="#0" id="circle64"/>
	<circle cx="475.254" cy="395.636" r="4" fill="#0" id="circle65"/>
	<circle cx="483.861" cy="638.794" r="4" fill="#0" id="circle66"/>
	<circle cx="490.317" cy="412.85" r="4" fill="#0" id="circle67"/>
	<circle cx="498.924" cy="656.009" r="4" fill="#0" id="circle68"/>
	<circle cx="509.683" cy="675.375" r="4" fill="#0" id="circle69"/>
	<circle cx="511.835" cy="419.306" r="4" fill="#0" id="circle70"/>
	<circle cx="520.443" cy="694.742" r="4" fill="#0" id="circle71"/>
	<circle cx="526.898" cy="716.26" r="4" fill="#0" id="circle72"/>
	<circle cx="533.354" cy="423.61" r="4" fill="#0" id="circle73"/>
	<circle cx="544.113" cy="731.323" r="4" fill="#0" id="circle74"/>
	<circle cx="552.72" cy="434.369" r="4" fill="#0" id="circle75"/>
	<circle cx="563.479" cy="742.082" r="4" fill="#0" id="circle76"/>
	<circle cx="569.935" cy="447.28" r="4" fill="#0" id="circle77"/>
	<circle cx="584.998" cy="748.538" r="4" fill="#0" id="circle78"/>
	<circle cx="587.15" cy="462.343" r="4" fill="#0" id="circle79"/>
	<circle cx="602.213" cy="479.557" r="4" fill="#0" id="circle80"/>
	<circle cx="604.364" cy="759.297" r="4" fill="#0" id="circle81"/>
	<circle cx="619.427" cy="494.62" r="4" fill="#0" id="circle82"/>
	<circle cx="619.427" cy="516.139" r="4" fill="#0" id="circle83"/>
	<circle cx="619.427" cy="597.909" r="4" fill="#0" id="circle84"/>
	<circle cx="623.731" cy="619.427" r="4" fill="#0" id="circle85"/>
	<circle cx="623.731" cy="770.056" r="4" fill="#0" id="circle86"/>
	<circle cx="630.187" cy="535.505" r="4" fill="#0" id="circle87"/>
	<circle cx="634.49" cy="638.794" r="4" fill="#0" id="circle88"/>
	<circle cx="636.642" cy="557.024" r="4" fill="#0" id="circle89"/>
	<circle cx="640.946" cy="578.542" r="4" fill="#0" id="circle90"/>
	<circle cx="645.249" cy="770.056" r="4" fill="#0" id="circle91"/>
	<circle cx="649.553" cy="656.009" r="4" fill="#0" id="circle92"/>
	<circle cx="660.312" cy="675.375" r="4" fill="#0" id="circle93"/>
	<circle cx="662.464" cy="785.119" r="4" fill="#0" id="circle94"/>
	<circle cx="673.223" cy="692.59" r="4" fill="#0" id="circle95"/>
	<circle cx="677.527" cy="802.334" r="4" fill="#0" id="circle96"/>
	<circle cx="683.983" cy="711.957" r="4" fill="#0" id="circle97"/>
	<circle cx="692.59" cy="819.549" r="4" fill="#0" id="circle98"/>
	<circle cx="701.197" cy="727.02" r="4" fill="#0" id="circle99"/>
	<circle cx="703.349" cy="838.915" r="4" fill="#0" id="circle100"/>
	<circle cx="709.805" cy="748.538" r="4" fill="#0" id="circle101"/>
	<circle cx="720.564" cy="853.978" r="4" fill="#0" id="circle102"/>
	<circle cx="727.02" cy="763.601" r="4" fill="#0" id="circle103"/>
	<circle cx="729.171" cy="875.497" r="4" fill="#0" id="circle104"/>
	<circle cx="739.931" cy="894.863" r="4" fill="#0" id="circle105"/>
	<circle cx="742.082" cy="780.816" r="4" fill="#0" id="circle106"/>
	<circle cx="757.145" cy="909.926" r="4" fill="#0" id="circle107"/>
	<circle cx="759.297" cy="795.879" r="4" fill="#0" id="circle108"/>
	<circle cx="763.601" cy="931.445" r="4" fill="#0" id="circle109"/>
	<circle cx="774.36" cy="813.093" r="4" fill="#0" id="circle110"/>
	<circle cx="774.36" cy="950.811" r="4" fill="#0" id="circle111"/>
	<circle cx="789.423" cy="968.026" r="4" fill="#0" id="circle112"/>
	<circle cx="795.879" cy="821.701" r="4" fill="#0" id="circle113"/>
	<circle cx="800.182" cy="987.393" r="4" fill="#0" id="circle114"/>
	<circle cx="810.941" cy="838.915" r="4" fill="#0" id="circle115"/>
	<circle cx="821.701" cy="996" r="4" fill="#0" id="circle116"/>
	<circle cx="823.852" cy="920.685" r="4" fill="#0" id="circle117"/>
	<circle cx="832.46" cy="847.523" r="4" fill="#0" id="circle118"/>
	<circle cx="834.612" cy="940.052" r="4" fill="#0" id="circle119"/>
	<circle cx="834.612" cy="961.57" r="4" fill="#0" id="circle120"/>
	<circle cx="843.219" cy="909.926" r="4" fill="#0" id="circle121"/>
	<circle cx="845.371" cy="864.738" r="4" fill="#0" id="circle122"/>
	<circle cx="862.586" cy="920.685" r="4" fill="#0" id="circle123"/>
	<circle cx="866.889" cy="871.193" r="4" fill="#0" id="circle124"/>
	<circle cx="881.952" cy="931.445" r="4" fill="#0" id="circle125"/>
	<circle cx="884.104" cy="886.256" r="4" fill="#0" id="circle126"/>
	<circle cx="901.319" cy="942.204" r="4" fill="#0" id="circle127"/>
	<circle cx="903.471" cy="897.015" r="4" fill="#0" id="circle128"/>
	<circle cx="922.837" cy="907.774" r="4" fill="#0" id="circle129"/>
	<circle cx="922.837" cy="948.659" r="4" fill="#0" id="circle130"/>
	<circle cx="940.052" cy="922.837" r="4" fill="#0" id="circle131"/>
	</g>
</svg>