<?xml version="1.0" encoding="UTF-8" standalone="no"?>
<!-- Created with CurveBenchmark -->
<svg
	xmlns:dc="http://purl.org/dc/elements/1.1/"
	xmlns:cc="http://creativecommons.org/ns#"
	xmlns:rdf="http://www.w3.org/1999/02/22-rdf-syntax-ns#"
	xmlns:svg="http://www.w3.org/2000/svg"
	xmlns="http://www.w3.org/2000/svg"
	xmlns:sodipodi="http://sodipodi.sourceforge.net/DTD/sodipodi-0.dtd"
	xmlns:inkscape="http://www.inkscape.org/namespaces/inkscape"
	width="1000"
	height="1000"
	id="svg2"
	version="1.1"
	sodipodi:docname="manifold/connect2d-brick-16.png.txt">
<defs
	id="defs4" />
<metadata
	id="metadata7">
	<rdf:RDF>
		<cc:Work
			rdf:about="">
			<dc:format>image/svg+xml</dc:format>
			<dc:type
				rdf:resource="http://purl.org/dc/dcmitype/StillImage" />
			<dc:title></dc:title>
		</cc:Work>
	</rdf:RDF>
</metadata>
<g
	inkscape:label="Layer 1"
	inkscape:groupmode="layer"
	id="layer1">
	<path style="fill:none;stroke:red;stroke-width:1px;stroke-linecap:butt;stroke-linejoin:miter;stroke-opacity:1" d="M 996,159.031 996,168.843 z" id="boundary" inkscape:connector-curvature="0" />
	<path style="fill:none;stroke:red;stroke-width:1px;stroke-linecap:butt;stroke-linejoin:miter;stroke-opacity:1" d="M 996,168.843 994.038,184.542 z" id="boundary" inkscape:connector-curvature="0" />
	<path style="fill:none;stroke:red;stroke-width:1px;stroke-linecap:butt;stroke-linejoin:miter;stroke-opacity:1" d="M 994.038,184.542 989.132,194.354 z" id="boundary" inkscape:connector-curvature="0" />
	<path style="fill:none;stroke:red;stroke-width:1px;stroke-linecap:butt;stroke-linejoin:miter;stroke-opacity:1" d="M 989.132,194.354 984.226,204.166 z" id="boundary" inkscape:connector-curvature="0" />
	<path style="fill:none;stroke:red;stroke-width:1px;stroke-linecap:butt;stroke-linejoin:miter;stroke-opacity:1" d="M 984.226,204.166 979.319,213.978 z" id="boundary" inkscape:connector-curvature="0" />
	<path style="fill:none;stroke:red;stroke-width:1px;stroke-linecap:butt;stroke-linejoin:miter;stroke-opacity:1" d="M 979.319,213.978 971.47,220.847 z" id="boundary" inkscape:connector-curvature="0" />
	<path style="fill:none;stroke:red;stroke-width:1px;stroke-linecap:butt;stroke-linejoin:miter;stroke-opacity:1" d="M 971.47,220.847 966.564,230.659 z" id="boundary" inkscape:connector-curvature="0" />
	<path style="fill:none;stroke:red;stroke-width:1px;stroke-linecap:butt;stroke-linejoin:miter;stroke-opacity:1" d="M 966.564,230.659 959.695,238.508 z" id="boundary" inkscape:connector-curvature="0" />
	<path style="fill:none;stroke:red;stroke-width:1px;stroke-linecap:butt;stroke-linejoin:miter;stroke-opacity:1" d="M 959.695,238.508 949.883,243.414 z" id="boundary" inkscape:connector-curvature="0" />
	<path style="fill:none;stroke:red;stroke-width:1px;stroke-linecap:butt;stroke-linejoin:miter;stroke-opacity:1" d="M 949.883,243.414 942.034,250.283 z" id="boundary" inkscape:connector-curvature="0" />
	<path style="fill:none;stroke:red;stroke-width:1px;stroke-linecap:butt;stroke-linejoin:miter;stroke-opacity:1" d="M 942.034,250.283 935.165,258.133 z" id="boundary" inkscape:connector-curvature="0" />
	<path style="fill:none;stroke:red;stroke-width:1px;stroke-linecap:butt;stroke-linejoin:miter;stroke-opacity:1" d="M 935.165,258.133 930.259,267.945 z" id="boundary" inkscape:connector-curvature="0" />
	<path style="fill:none;stroke:red;stroke-width:1px;stroke-linecap:butt;stroke-linejoin:miter;stroke-opacity:1" d="M 930.259,267.945 925.353,277.757 z" id="boundary" inkscape:connector-curvature="0" />
	<path style="fill:none;stroke:red;stroke-width:1px;stroke-linecap:butt;stroke-linejoin:miter;stroke-opacity:1" d="M 925.353,277.757 917.503,284.625 z" id="boundary" inkscape:connector-curvature="0" />
	<path style="fill:none;stroke:red;stroke-width:1px;stroke-linecap:butt;stroke-linejoin:miter;stroke-opacity:1" d="M 917.503,284.625 917.503,294.437 z" id="boundary" inkscape:connector-curvature="0" />
	<path style="fill:none;stroke:red;stroke-width:1px;stroke-linecap:butt;stroke-linejoin:miter;stroke-opacity:1" d="M 917.503,294.437 917.503,304.249 z" id="boundary" inkscape:connector-curvature="0" />
	<path style="fill:none;stroke:red;stroke-width:1px;stroke-linecap:butt;stroke-linejoin:miter;stroke-opacity:1" d="M 917.503,304.249 917.503,314.061 z" id="boundary" inkscape:connector-curvature="0" />
	<path style="fill:none;stroke:red;stroke-width:1px;stroke-linecap:butt;stroke-linejoin:miter;stroke-opacity:1" d="M 917.503,314.061 922.409,322.892 z" id="boundary" inkscape:connector-curvature="0" />
	<path style="fill:none;stroke:red;stroke-width:1px;stroke-linecap:butt;stroke-linejoin:miter;stroke-opacity:1" d="M 922.409,322.892 927.316,331.723 z" id="boundary" inkscape:connector-curvature="0" />
	<path style="fill:none;stroke:red;stroke-width:1px;stroke-linecap:butt;stroke-linejoin:miter;stroke-opacity:1" d="M 927.316,331.723 932.222,340.554 z" id="boundary" inkscape:connector-curvature="0" />
	<path style="fill:none;stroke:red;stroke-width:1px;stroke-linecap:butt;stroke-linejoin:miter;stroke-opacity:1" d="M 932.222,340.554 937.128,349.385 z" id="boundary" inkscape:connector-curvature="0" />
	<path style="fill:none;stroke:red;stroke-width:1px;stroke-linecap:butt;stroke-linejoin:miter;stroke-opacity:1" d="M 937.128,349.385 943.015,357.234 z" id="boundary" inkscape:connector-curvature="0" />
	<path style="fill:none;stroke:red;stroke-width:1px;stroke-linecap:butt;stroke-linejoin:miter;stroke-opacity:1" d="M 943.015,357.234 946.94,367.046 z" id="boundary" inkscape:connector-curvature="0" />
	<path style="fill:none;stroke:red;stroke-width:1px;stroke-linecap:butt;stroke-linejoin:miter;stroke-opacity:1" d="M 946.94,367.046 951.846,375.877 z" id="boundary" inkscape:connector-curvature="0" />
	<path style="fill:none;stroke:red;stroke-width:1px;stroke-linecap:butt;stroke-linejoin:miter;stroke-opacity:1" d="M 951.846,375.877 953.808,391.577 z" id="boundary" inkscape:connector-curvature="0" />
	<path style="fill:none;stroke:red;stroke-width:1px;stroke-linecap:butt;stroke-linejoin:miter;stroke-opacity:1" d="M 953.808,391.577 945.958,397.464 z" id="boundary" inkscape:connector-curvature="0" />
	<path style="fill:none;stroke:red;stroke-width:1px;stroke-linecap:butt;stroke-linejoin:miter;stroke-opacity:1" d="M 945.958,397.464 937.128,402.37 z" id="boundary" inkscape:connector-curvature="0" />
	<path style="fill:none;stroke:red;stroke-width:1px;stroke-linecap:butt;stroke-linejoin:miter;stroke-opacity:1" d="M 937.128,402.37 927.316,402.37 z" id="boundary" inkscape:connector-curvature="0" />
	<path style="fill:none;stroke:red;stroke-width:1px;stroke-linecap:butt;stroke-linejoin:miter;stroke-opacity:1" d="M 927.316,402.37 917.503,402.37 z" id="boundary" inkscape:connector-curvature="0" />
	<path style="fill:none;stroke:red;stroke-width:1px;stroke-linecap:butt;stroke-linejoin:miter;stroke-opacity:1" d="M 917.503,402.37 907.691,402.37 z" id="boundary" inkscape:connector-curvature="0" />
	<path style="fill:none;stroke:red;stroke-width:1px;stroke-linecap:butt;stroke-linejoin:miter;stroke-opacity:1" d="M 907.691,402.37 897.879,402.37 z" id="boundary" inkscape:connector-curvature="0" />
	<path style="fill:none;stroke:red;stroke-width:1px;stroke-linecap:butt;stroke-linejoin:miter;stroke-opacity:1" d="M 897.879,402.37 888.067,402.37 z" id="boundary" inkscape:connector-curvature="0" />
	<path style="fill:none;stroke:red;stroke-width:1px;stroke-linecap:butt;stroke-linejoin:miter;stroke-opacity:1" d="M 888.067,402.37 878.255,402.37 z" id="boundary" inkscape:connector-curvature="0" />
	<path style="fill:none;stroke:red;stroke-width:1px;stroke-linecap:butt;stroke-linejoin:miter;stroke-opacity:1" d="M 878.255,402.37 868.443,402.37 z" id="boundary" inkscape:connector-curvature="0" />
	<path style="fill:none;stroke:red;stroke-width:1px;stroke-linecap:butt;stroke-linejoin:miter;stroke-opacity:1" d="M 868.443,402.37 858.631,402.37 z" id="boundary" inkscape:connector-curvature="0" />
	<path style="fill:none;stroke:red;stroke-width:1px;stroke-linecap:butt;stroke-linejoin:miter;stroke-opacity:1" d="M 858.631,402.37 848.819,402.37 z" id="boundary" inkscape:connector-curvature="0" />
	<path style="fill:none;stroke:red;stroke-width:1px;stroke-linecap:butt;stroke-linejoin:miter;stroke-opacity:1" d="M 848.819,402.37 839.007,402.37 z" id="boundary" inkscape:connector-curvature="0" />
	<path style="fill:none;stroke:red;stroke-width:1px;stroke-linecap:butt;stroke-linejoin:miter;stroke-opacity:1" d="M 839.007,402.37 830.176,397.464 z" id="boundary" inkscape:connector-curvature="0" />
	<path style="fill:none;stroke:red;stroke-width:1px;stroke-linecap:butt;stroke-linejoin:miter;stroke-opacity:1" d="M 830.176,397.464 820.364,397.464 z" id="boundary" inkscape:connector-curvature="0" />
	<path style="fill:none;stroke:red;stroke-width:1px;stroke-linecap:butt;stroke-linejoin:miter;stroke-opacity:1" d="M 820.364,397.464 810.552,397.464 z" id="boundary" inkscape:connector-curvature="0" />
	<path style="fill:none;stroke:red;stroke-width:1px;stroke-linecap:butt;stroke-linejoin:miter;stroke-opacity:1" d="M 810.552,397.464 800.74,397.464 z" id="boundary" inkscape:connector-curvature="0" />
	<path style="fill:none;stroke:red;stroke-width:1px;stroke-linecap:butt;stroke-linejoin:miter;stroke-opacity:1" d="M 800.74,397.464 790.928,397.464 z" id="boundary" inkscape:connector-curvature="0" />
	<path style="fill:none;stroke:red;stroke-width:1px;stroke-linecap:butt;stroke-linejoin:miter;stroke-opacity:1" d="M 790.928,397.464 782.097,392.558 z" id="boundary" inkscape:connector-curvature="0" />
	<path style="fill:none;stroke:red;stroke-width:1px;stroke-linecap:butt;stroke-linejoin:miter;stroke-opacity:1" d="M 782.097,392.558 772.285,391.577 z" id="boundary" inkscape:connector-curvature="0" />
	<path style="fill:none;stroke:red;stroke-width:1px;stroke-linecap:butt;stroke-linejoin:miter;stroke-opacity:1" d="M 772.285,391.577 762.473,387.652 z" id="boundary" inkscape:connector-curvature="0" />
	<path style="fill:none;stroke:red;stroke-width:1px;stroke-linecap:butt;stroke-linejoin:miter;stroke-opacity:1" d="M 762.473,387.652 753.642,382.746 z" id="boundary" inkscape:connector-curvature="0" />
	<path style="fill:none;stroke:red;stroke-width:1px;stroke-linecap:butt;stroke-linejoin:miter;stroke-opacity:1" d="M 753.642,382.746 744.811,377.84 z" id="boundary" inkscape:connector-curvature="0" />
	<path style="fill:none;stroke:red;stroke-width:1px;stroke-linecap:butt;stroke-linejoin:miter;stroke-opacity:1" d="M 744.811,377.84 734.999,373.915 z" id="boundary" inkscape:connector-curvature="0" />
	<path style="fill:none;stroke:red;stroke-width:1px;stroke-linecap:butt;stroke-linejoin:miter;stroke-opacity:1" d="M 734.999,373.915 727.149,368.028 z" id="boundary" inkscape:connector-curvature="0" />
	<path style="fill:none;stroke:red;stroke-width:1px;stroke-linecap:butt;stroke-linejoin:miter;stroke-opacity:1" d="M 727.149,368.028 718.318,363.122 z" id="boundary" inkscape:connector-curvature="0" />
	<path style="fill:none;stroke:red;stroke-width:1px;stroke-linecap:butt;stroke-linejoin:miter;stroke-opacity:1" d="M 718.318,363.122 709.488,358.216 z" id="boundary" inkscape:connector-curvature="0" />
	<path style="fill:none;stroke:red;stroke-width:1px;stroke-linecap:butt;stroke-linejoin:miter;stroke-opacity:1" d="M 709.488,358.216 701.638,351.347 z" id="boundary" inkscape:connector-curvature="0" />
	<path style="fill:none;stroke:red;stroke-width:1px;stroke-linecap:butt;stroke-linejoin:miter;stroke-opacity:1" d="M 701.638,351.347 695.751,343.498 z" id="boundary" inkscape:connector-curvature="0" />
	<path style="fill:none;stroke:red;stroke-width:1px;stroke-linecap:butt;stroke-linejoin:miter;stroke-opacity:1" d="M 695.751,343.498 686.92,338.591 z" id="boundary" inkscape:connector-curvature="0" />
	<path style="fill:none;stroke:red;stroke-width:1px;stroke-linecap:butt;stroke-linejoin:miter;stroke-opacity:1" d="M 686.92,338.591 678.089,333.685 z" id="boundary" inkscape:connector-curvature="0" />
	<path style="fill:none;stroke:red;stroke-width:1px;stroke-linecap:butt;stroke-linejoin:miter;stroke-opacity:1" d="M 678.089,333.685 668.277,333.685 z" id="boundary" inkscape:connector-curvature="0" />
	<path style="fill:none;stroke:red;stroke-width:1px;stroke-linecap:butt;stroke-linejoin:miter;stroke-opacity:1" d="M 668.277,333.685 659.446,328.779 z" id="boundary" inkscape:connector-curvature="0" />
	<path style="fill:none;stroke:red;stroke-width:1px;stroke-linecap:butt;stroke-linejoin:miter;stroke-opacity:1" d="M 659.446,328.779 649.634,328.779 z" id="boundary" inkscape:connector-curvature="0" />
	<path style="fill:none;stroke:red;stroke-width:1px;stroke-linecap:butt;stroke-linejoin:miter;stroke-opacity:1" d="M 649.634,328.779 639.822,328.779 z" id="boundary" inkscape:connector-curvature="0" />
	<path style="fill:none;stroke:red;stroke-width:1px;stroke-linecap:butt;stroke-linejoin:miter;stroke-opacity:1" d="M 639.822,328.779 630.01,328.779 z" id="boundary" inkscape:connector-curvature="0" />
	<path style="fill:none;stroke:red;stroke-width:1px;stroke-linecap:butt;stroke-linejoin:miter;stroke-opacity:1" d="M 630.01,328.779 620.198,328.779 z" id="boundary" inkscape:connector-curvature="0" />
	<path style="fill:none;stroke:red;stroke-width:1px;stroke-linecap:butt;stroke-linejoin:miter;stroke-opacity:1" d="M 620.198,328.779 610.386,328.779 z" id="boundary" inkscape:connector-curvature="0" />
	<path style="fill:none;stroke:red;stroke-width:1px;stroke-linecap:butt;stroke-linejoin:miter;stroke-opacity:1" d="M 610.386,328.779 601.555,333.685 z" id="boundary" inkscape:connector-curvature="0" />
	<path style="fill:none;stroke:red;stroke-width:1px;stroke-linecap:butt;stroke-linejoin:miter;stroke-opacity:1" d="M 601.555,333.685 591.743,333.685 z" id="boundary" inkscape:connector-curvature="0" />
	<path style="fill:none;stroke:red;stroke-width:1px;stroke-linecap:butt;stroke-linejoin:miter;stroke-opacity:1" d="M 591.743,333.685 581.931,333.685 z" id="boundary" inkscape:connector-curvature="0" />
	<path style="fill:none;stroke:red;stroke-width:1px;stroke-linecap:butt;stroke-linejoin:miter;stroke-opacity:1" d="M 581.931,333.685 572.119,336.629 z" id="boundary" inkscape:connector-curvature="0" />
	<path style="fill:none;stroke:red;stroke-width:1px;stroke-linecap:butt;stroke-linejoin:miter;stroke-opacity:1" d="M 572.119,336.629 562.307,338.591 z" id="boundary" inkscape:connector-curvature="0" />
	<path style="fill:none;stroke:red;stroke-width:1px;stroke-linecap:butt;stroke-linejoin:miter;stroke-opacity:1" d="M 562.307,338.591 552.495,341.535 z" id="boundary" inkscape:connector-curvature="0" />
	<path style="fill:none;stroke:red;stroke-width:1px;stroke-linecap:butt;stroke-linejoin:miter;stroke-opacity:1" d="M 552.495,341.535 542.682,343.498 z" id="boundary" inkscape:connector-curvature="0" />
	<path style="fill:none;stroke:red;stroke-width:1px;stroke-linecap:butt;stroke-linejoin:miter;stroke-opacity:1" d="M 542.682,343.498 532.87,346.441 z" id="boundary" inkscape:connector-curvature="0" />
	<path style="fill:none;stroke:red;stroke-width:1px;stroke-linecap:butt;stroke-linejoin:miter;stroke-opacity:1" d="M 532.87,346.441 523.058,348.404 z" id="boundary" inkscape:connector-curvature="0" />
	<path style="fill:none;stroke:red;stroke-width:1px;stroke-linecap:butt;stroke-linejoin:miter;stroke-opacity:1" d="M 523.058,348.404 514.227,353.31 z" id="boundary" inkscape:connector-curvature="0" />
	<path style="fill:none;stroke:red;stroke-width:1px;stroke-linecap:butt;stroke-linejoin:miter;stroke-opacity:1" d="M 514.227,353.31 504.415,353.31 z" id="boundary" inkscape:connector-curvature="0" />
	<path style="fill:none;stroke:red;stroke-width:1px;stroke-linecap:butt;stroke-linejoin:miter;stroke-opacity:1" d="M 504.415,353.31 494.603,355.272 z" id="boundary" inkscape:connector-curvature="0" />
	<path style="fill:none;stroke:red;stroke-width:1px;stroke-linecap:butt;stroke-linejoin:miter;stroke-opacity:1" d="M 494.603,355.272 484.791,358.216 z" id="boundary" inkscape:connector-curvature="0" />
	<path style="fill:none;stroke:red;stroke-width:1px;stroke-linecap:butt;stroke-linejoin:miter;stroke-opacity:1" d="M 484.791,358.216 474.979,358.216 z" id="boundary" inkscape:connector-curvature="0" />
	<path style="fill:none;stroke:red;stroke-width:1px;stroke-linecap:butt;stroke-linejoin:miter;stroke-opacity:1" d="M 474.979,358.216 466.148,363.122 z" id="boundary" inkscape:connector-curvature="0" />
	<path style="fill:none;stroke:red;stroke-width:1px;stroke-linecap:butt;stroke-linejoin:miter;stroke-opacity:1" d="M 466.148,363.122 456.336,363.122 z" id="boundary" inkscape:connector-curvature="0" />
	<path style="fill:none;stroke:red;stroke-width:1px;stroke-linecap:butt;stroke-linejoin:miter;stroke-opacity:1" d="M 456.336,363.122 446.524,363.122 z" id="boundary" inkscape:connector-curvature="0" />
	<path style="fill:none;stroke:red;stroke-width:1px;stroke-linecap:butt;stroke-linejoin:miter;stroke-opacity:1" d="M 446.524,363.122 436.712,363.122 z" id="boundary" inkscape:connector-curvature="0" />
	<path style="fill:none;stroke:red;stroke-width:1px;stroke-linecap:butt;stroke-linejoin:miter;stroke-opacity:1" d="M 436.712,363.122 426.9,363.122 z" id="boundary" inkscape:connector-curvature="0" />
	<path style="fill:none;stroke:red;stroke-width:1px;stroke-linecap:butt;stroke-linejoin:miter;stroke-opacity:1" d="M 426.9,363.122 417.088,363.122 z" id="boundary" inkscape:connector-curvature="0" />
	<path style="fill:none;stroke:red;stroke-width:1px;stroke-linecap:butt;stroke-linejoin:miter;stroke-opacity:1" d="M 417.088,363.122 407.276,363.122 z" id="boundary" inkscape:connector-curvature="0" />
	<path style="fill:none;stroke:red;stroke-width:1px;stroke-linecap:butt;stroke-linejoin:miter;stroke-opacity:1" d="M 407.276,363.122 397.464,363.122 z" id="boundary" inkscape:connector-curvature="0" />
	<path style="fill:none;stroke:red;stroke-width:1px;stroke-linecap:butt;stroke-linejoin:miter;stroke-opacity:1" d="M 397.464,363.122 387.652,363.122 z" id="boundary" inkscape:connector-curvature="0" />
	<path style="fill:none;stroke:red;stroke-width:1px;stroke-linecap:butt;stroke-linejoin:miter;stroke-opacity:1" d="M 387.652,363.122 377.84,363.122 z" id="boundary" inkscape:connector-curvature="0" />
	<path style="fill:none;stroke:red;stroke-width:1px;stroke-linecap:butt;stroke-linejoin:miter;stroke-opacity:1" d="M 377.84,363.122 368.028,363.122 z" id="boundary" inkscape:connector-curvature="0" />
	<path style="fill:none;stroke:red;stroke-width:1px;stroke-linecap:butt;stroke-linejoin:miter;stroke-opacity:1" d="M 368.028,363.122 358.216,363.122 z" id="boundary" inkscape:connector-curvature="0" />
	<path style="fill:none;stroke:red;stroke-width:1px;stroke-linecap:butt;stroke-linejoin:miter;stroke-opacity:1" d="M 358.216,363.122 348.404,363.122 z" id="boundary" inkscape:connector-curvature="0" />
	<path style="fill:none;stroke:red;stroke-width:1px;stroke-linecap:butt;stroke-linejoin:miter;stroke-opacity:1" d="M 348.404,363.122 338.591,363.122 z" id="boundary" inkscape:connector-curvature="0" />
	<path style="fill:none;stroke:red;stroke-width:1px;stroke-linecap:butt;stroke-linejoin:miter;stroke-opacity:1" d="M 338.591,363.122 328.779,360.178 z" id="boundary" inkscape:connector-curvature="0" />
	<path style="fill:none;stroke:red;stroke-width:1px;stroke-linecap:butt;stroke-linejoin:miter;stroke-opacity:1" d="M 328.779,360.178 318.967,358.216 z" id="boundary" inkscape:connector-curvature="0" />
	<path style="fill:none;stroke:red;stroke-width:1px;stroke-linecap:butt;stroke-linejoin:miter;stroke-opacity:1" d="M 318.967,358.216 309.155,358.216 z" id="boundary" inkscape:connector-curvature="0" />
	<path style="fill:none;stroke:red;stroke-width:1px;stroke-linecap:butt;stroke-linejoin:miter;stroke-opacity:1" d="M 309.155,358.216 300.324,353.31 z" id="boundary" inkscape:connector-curvature="0" />
	<path style="fill:none;stroke:red;stroke-width:1px;stroke-linecap:butt;stroke-linejoin:miter;stroke-opacity:1" d="M 300.324,353.31 290.512,353.31 z" id="boundary" inkscape:connector-curvature="0" />
	<path style="fill:none;stroke:red;stroke-width:1px;stroke-linecap:butt;stroke-linejoin:miter;stroke-opacity:1" d="M 290.512,353.31 280.7,353.31 z" id="boundary" inkscape:connector-curvature="0" />
	<path style="fill:none;stroke:red;stroke-width:1px;stroke-linecap:butt;stroke-linejoin:miter;stroke-opacity:1" d="M 280.7,353.31 271.869,348.404 z" id="boundary" inkscape:connector-curvature="0" />
	<path style="fill:none;stroke:red;stroke-width:1px;stroke-linecap:butt;stroke-linejoin:miter;stroke-opacity:1" d="M 271.869,348.404 262.057,348.404 z" id="boundary" inkscape:connector-curvature="0" />
	<path style="fill:none;stroke:red;stroke-width:1px;stroke-linecap:butt;stroke-linejoin:miter;stroke-opacity:1" d="M 262.057,348.404 252.245,348.404 z" id="boundary" inkscape:connector-curvature="0" />
	<path style="fill:none;stroke:red;stroke-width:1px;stroke-linecap:butt;stroke-linejoin:miter;stroke-opacity:1" d="M 252.245,348.404 243.414,343.498 z" id="boundary" inkscape:connector-curvature="0" />
	<path style="fill:none;stroke:red;stroke-width:1px;stroke-linecap:butt;stroke-linejoin:miter;stroke-opacity:1" d="M 243.414,343.498 234.584,338.591 z" id="boundary" inkscape:connector-curvature="0" />
	<path style="fill:none;stroke:red;stroke-width:1px;stroke-linecap:butt;stroke-linejoin:miter;stroke-opacity:1" d="M 234.584,338.591 224.772,335.648 z" id="boundary" inkscape:connector-curvature="0" />
	<path style="fill:none;stroke:red;stroke-width:1px;stroke-linecap:butt;stroke-linejoin:miter;stroke-opacity:1" d="M 224.772,335.648 215.941,330.742 z" id="boundary" inkscape:connector-curvature="0" />
	<path style="fill:none;stroke:red;stroke-width:1px;stroke-linecap:butt;stroke-linejoin:miter;stroke-opacity:1" d="M 215.941,330.742 208.091,323.873 z" id="boundary" inkscape:connector-curvature="0" />
	<path style="fill:none;stroke:red;stroke-width:1px;stroke-linecap:butt;stroke-linejoin:miter;stroke-opacity:1" d="M 208.091,323.873 201.223,316.024 z" id="boundary" inkscape:connector-curvature="0" />
	<path style="fill:none;stroke:red;stroke-width:1px;stroke-linecap:butt;stroke-linejoin:miter;stroke-opacity:1" d="M 201.223,316.024 191.41,312.099 z" id="boundary" inkscape:connector-curvature="0" />
	<path style="fill:none;stroke:red;stroke-width:1px;stroke-linecap:butt;stroke-linejoin:miter;stroke-opacity:1" d="M 191.41,312.099 185.523,304.249 z" id="boundary" inkscape:connector-curvature="0" />
	<path style="fill:none;stroke:red;stroke-width:1px;stroke-linecap:butt;stroke-linejoin:miter;stroke-opacity:1" d="M 185.523,304.249 176.692,299.343 z" id="boundary" inkscape:connector-curvature="0" />
	<path style="fill:none;stroke:red;stroke-width:1px;stroke-linecap:butt;stroke-linejoin:miter;stroke-opacity:1" d="M 176.692,299.343 166.88,299.343 z" id="boundary" inkscape:connector-curvature="0" />
	<path style="fill:none;stroke:red;stroke-width:1px;stroke-linecap:butt;stroke-linejoin:miter;stroke-opacity:1" d="M 166.88,299.343 157.068,299.343 z" id="boundary" inkscape:connector-curvature="0" />
	<path style="fill:none;stroke:red;stroke-width:1px;stroke-linecap:butt;stroke-linejoin:miter;stroke-opacity:1" d="M 157.068,299.343 147.256,304.249 z" id="boundary" inkscape:connector-curvature="0" />
	<path style="fill:none;stroke:red;stroke-width:1px;stroke-linecap:butt;stroke-linejoin:miter;stroke-opacity:1" d="M 147.256,304.249 137.444,304.249 z" id="boundary" inkscape:connector-curvature="0" />
	<path style="fill:none;stroke:red;stroke-width:1px;stroke-linecap:butt;stroke-linejoin:miter;stroke-opacity:1" d="M 137.444,304.249 127.632,309.155 z" id="boundary" inkscape:connector-curvature="0" />
	<path style="fill:none;stroke:red;stroke-width:1px;stroke-linecap:butt;stroke-linejoin:miter;stroke-opacity:1" d="M 127.632,309.155 117.82,309.155 z" id="boundary" inkscape:connector-curvature="0" />
	<path style="fill:none;stroke:red;stroke-width:1px;stroke-linecap:butt;stroke-linejoin:miter;stroke-opacity:1" d="M 117.82,309.155 108.008,314.061 z" id="boundary" inkscape:connector-curvature="0" />
	<path style="fill:none;stroke:red;stroke-width:1px;stroke-linecap:butt;stroke-linejoin:miter;stroke-opacity:1" d="M 108.008,314.061 98.1958,314.061 z" id="boundary" inkscape:connector-curvature="0" />
	<path style="fill:none;stroke:red;stroke-width:1px;stroke-linecap:butt;stroke-linejoin:miter;stroke-opacity:1" d="M 98.1958,314.061 88.3838,318.967 z" id="boundary" inkscape:connector-curvature="0" />
	<path style="fill:none;stroke:red;stroke-width:1px;stroke-linecap:butt;stroke-linejoin:miter;stroke-opacity:1" d="M 88.3838,318.967 78.5717,318.967 z" id="boundary" inkscape:connector-curvature="0" />
	<path style="fill:none;stroke:red;stroke-width:1px;stroke-linecap:butt;stroke-linejoin:miter;stroke-opacity:1" d="M 78.5717,318.967 68.7596,318.967 z" id="boundary" inkscape:connector-curvature="0" />
	<path style="fill:none;stroke:red;stroke-width:1px;stroke-linecap:butt;stroke-linejoin:miter;stroke-opacity:1" d="M 68.7596,318.967 58.9476,318.967 z" id="boundary" inkscape:connector-curvature="0" />
	<path style="fill:none;stroke:red;stroke-width:1px;stroke-linecap:butt;stroke-linejoin:miter;stroke-opacity:1" d="M 58.9476,318.967 49.1355,323.873 z" id="boundary" inkscape:connector-curvature="0" />
	<path style="fill:none;stroke:red;stroke-width:1px;stroke-linecap:butt;stroke-linejoin:miter;stroke-opacity:1" d="M 49.1355,323.873 39.3234,323.873 z" id="boundary" inkscape:connector-curvature="0" />
	<path style="fill:none;stroke:red;stroke-width:1px;stroke-linecap:butt;stroke-linejoin:miter;stroke-opacity:1" d="M 39.3234,323.873 29.5114,323.873 z" id="boundary" inkscape:connector-curvature="0" />
	<path style="fill:none;stroke:red;stroke-width:1px;stroke-linecap:butt;stroke-linejoin:miter;stroke-opacity:1" d="M 29.5114,323.873 19.6993,323.873 z" id="boundary" inkscape:connector-curvature="0" />
	<path style="fill:none;stroke:red;stroke-width:1px;stroke-linecap:butt;stroke-linejoin:miter;stroke-opacity:1" d="M 19.6993,323.873 11.8497,317.986 z" id="boundary" inkscape:connector-curvature="0" />
	<path style="fill:none;stroke:red;stroke-width:1px;stroke-linecap:butt;stroke-linejoin:miter;stroke-opacity:1" d="M 11.8497,317.986 4,311.118 z" id="boundary" inkscape:connector-curvature="0" />
	<path style="fill:none;stroke:red;stroke-width:1px;stroke-linecap:butt;stroke-linejoin:miter;stroke-opacity:1" d="M 4,311.118 4,301.306 z" id="boundary" inkscape:connector-curvature="0" />
	<path style="fill:none;stroke:red;stroke-width:1px;stroke-linecap:butt;stroke-linejoin:miter;stroke-opacity:1" d="M 4,301.306 4,291.494 z" id="boundary" inkscape:connector-curvature="0" />
	<path style="fill:none;stroke:red;stroke-width:1px;stroke-linecap:butt;stroke-linejoin:miter;stroke-opacity:1" d="M 4,291.494 4,281.682 z" id="boundary" inkscape:connector-curvature="0" />
	<path style="fill:none;stroke:red;stroke-width:1px;stroke-linecap:butt;stroke-linejoin:miter;stroke-opacity:1" d="M 4,281.682 4,271.869 z" id="boundary" inkscape:connector-curvature="0" />
	<path style="fill:none;stroke:red;stroke-width:1px;stroke-linecap:butt;stroke-linejoin:miter;stroke-opacity:1" d="M 4,271.869 4,262.057 z" id="boundary" inkscape:connector-curvature="0" />
	<path style="fill:none;stroke:red;stroke-width:1px;stroke-linecap:butt;stroke-linejoin:miter;stroke-opacity:1" d="M 4,262.057 4,252.245 z" id="boundary" inkscape:connector-curvature="0" />
	<path style="fill:none;stroke:red;stroke-width:1px;stroke-linecap:butt;stroke-linejoin:miter;stroke-opacity:1" d="M 4,252.245 4,242.433 z" id="boundary" inkscape:connector-curvature="0" />
	<path style="fill:none;stroke:red;stroke-width:1px;stroke-linecap:butt;stroke-linejoin:miter;stroke-opacity:1" d="M 4,242.433 4,232.621 z" id="boundary" inkscape:connector-curvature="0" />
	<path style="fill:none;stroke:red;stroke-width:1px;stroke-linecap:butt;stroke-linejoin:miter;stroke-opacity:1" d="M 4,232.621 8.90603,222.809 z" id="boundary" inkscape:connector-curvature="0" />
	<path style="fill:none;stroke:red;stroke-width:1px;stroke-linecap:butt;stroke-linejoin:miter;stroke-opacity:1" d="M 8.90603,222.809 16.7557,214.959 z" id="boundary" inkscape:connector-curvature="0" />
	<path style="fill:none;stroke:red;stroke-width:1px;stroke-linecap:butt;stroke-linejoin:miter;stroke-opacity:1" d="M 16.7557,214.959 24.6053,207.11 z" id="boundary" inkscape:connector-curvature="0" />
	<path style="fill:none;stroke:red;stroke-width:1px;stroke-linecap:butt;stroke-linejoin:miter;stroke-opacity:1" d="M 24.6053,207.11 29.5114,197.298 z" id="boundary" inkscape:connector-curvature="0" />
	<path style="fill:none;stroke:red;stroke-width:1px;stroke-linecap:butt;stroke-linejoin:miter;stroke-opacity:1" d="M 29.5114,197.298 37.361,190.429 z" id="boundary" inkscape:connector-curvature="0" />
	<path style="fill:none;stroke:red;stroke-width:1px;stroke-linecap:butt;stroke-linejoin:miter;stroke-opacity:1" d="M 37.361,190.429 44.2295,182.58 z" id="boundary" inkscape:connector-curvature="0" />
	<path style="fill:none;stroke:red;stroke-width:1px;stroke-linecap:butt;stroke-linejoin:miter;stroke-opacity:1" d="M 44.2295,182.58 52.0791,175.711 z" id="boundary" inkscape:connector-curvature="0" />
	<path style="fill:none;stroke:red;stroke-width:1px;stroke-linecap:butt;stroke-linejoin:miter;stroke-opacity:1" d="M 52.0791,175.711 60.91,170.805 z" id="boundary" inkscape:connector-curvature="0" />
	<path style="fill:none;stroke:red;stroke-width:1px;stroke-linecap:butt;stroke-linejoin:miter;stroke-opacity:1" d="M 60.91,170.805 65.816,160.993 z" id="boundary" inkscape:connector-curvature="0" />
	<path style="fill:none;stroke:red;stroke-width:1px;stroke-linecap:butt;stroke-linejoin:miter;stroke-opacity:1" d="M 65.816,160.993 75.6281,156.087 z" id="boundary" inkscape:connector-curvature="0" />
	<path style="fill:none;stroke:red;stroke-width:1px;stroke-linecap:butt;stroke-linejoin:miter;stroke-opacity:1" d="M 75.6281,156.087 83.4777,148.237 z" id="boundary" inkscape:connector-curvature="0" />
	<path style="fill:none;stroke:red;stroke-width:1px;stroke-linecap:butt;stroke-linejoin:miter;stroke-opacity:1" d="M 83.4777,148.237 91.3274,141.369 z" id="boundary" inkscape:connector-curvature="0" />
	<path style="fill:none;stroke:red;stroke-width:1px;stroke-linecap:butt;stroke-linejoin:miter;stroke-opacity:1" d="M 91.3274,141.369 97.2146,131.557 z" id="boundary" inkscape:connector-curvature="0" />
	<path style="fill:none;stroke:red;stroke-width:1px;stroke-linecap:butt;stroke-linejoin:miter;stroke-opacity:1" d="M 97.2146,131.557 97.2146,121.745 z" id="boundary" inkscape:connector-curvature="0" />
	<path style="fill:none;stroke:red;stroke-width:1px;stroke-linecap:butt;stroke-linejoin:miter;stroke-opacity:1" d="M 97.2146,121.745 97.2146,111.933 z" id="boundary" inkscape:connector-curvature="0" />
	<path style="fill:none;stroke:red;stroke-width:1px;stroke-linecap:butt;stroke-linejoin:miter;stroke-opacity:1" d="M 97.2146,111.933 97.2146,102.121 z" id="boundary" inkscape:connector-curvature="0" />
	<path style="fill:none;stroke:red;stroke-width:1px;stroke-linecap:butt;stroke-linejoin:miter;stroke-opacity:1" d="M 97.2146,102.121 92.3086,93.2898 z" id="boundary" inkscape:connector-curvature="0" />
	<path style="fill:none;stroke:red;stroke-width:1px;stroke-linecap:butt;stroke-linejoin:miter;stroke-opacity:1" d="M 92.3086,93.2898 92.3086,83.4777 z" id="boundary" inkscape:connector-curvature="0" />
	<path style="fill:none;stroke:red;stroke-width:1px;stroke-linecap:butt;stroke-linejoin:miter;stroke-opacity:1" d="M 92.3086,83.4777 87.4026,74.6469 z" id="boundary" inkscape:connector-curvature="0" />
	<path style="fill:none;stroke:red;stroke-width:1px;stroke-linecap:butt;stroke-linejoin:miter;stroke-opacity:1" d="M 87.4026,74.6469 87.4026,64.8348 z" id="boundary" inkscape:connector-curvature="0" />
	<path style="fill:none;stroke:red;stroke-width:1px;stroke-linecap:butt;stroke-linejoin:miter;stroke-opacity:1" d="M 87.4026,64.8348 87.4026,55.0227 z" id="boundary" inkscape:connector-curvature="0" />
	<path style="fill:none;stroke:red;stroke-width:1px;stroke-linecap:butt;stroke-linejoin:miter;stroke-opacity:1" d="M 87.4026,55.0227 82.4965,46.1919 z" id="boundary" inkscape:connector-curvature="0" />
	<path style="fill:none;stroke:red;stroke-width:1px;stroke-linecap:butt;stroke-linejoin:miter;stroke-opacity:1" d="M 82.4965,46.1919 90.3462,38.3422 z" id="boundary" inkscape:connector-curvature="0" />
	<path style="fill:none;stroke:red;stroke-width:1px;stroke-linecap:butt;stroke-linejoin:miter;stroke-opacity:1" d="M 90.3462,38.3422 99.1771,33.4362 z" id="boundary" inkscape:connector-curvature="0" />
	<path style="fill:none;stroke:red;stroke-width:1px;stroke-linecap:butt;stroke-linejoin:miter;stroke-opacity:1" d="M 99.1771,33.4362 108.989,29.5114 z" id="boundary" inkscape:connector-curvature="0" />
	<path style="fill:none;stroke:red;stroke-width:1px;stroke-linecap:butt;stroke-linejoin:miter;stroke-opacity:1" d="M 108.989,29.5114 118.801,28.5302 z" id="boundary" inkscape:connector-curvature="0" />
	<path style="fill:none;stroke:red;stroke-width:1px;stroke-linecap:butt;stroke-linejoin:miter;stroke-opacity:1" d="M 118.801,28.5302 128.613,24.6053 z" id="boundary" inkscape:connector-curvature="0" />
	<path style="fill:none;stroke:red;stroke-width:1px;stroke-linecap:butt;stroke-linejoin:miter;stroke-opacity:1" d="M 128.613,24.6053 138.425,23.6241 z" id="boundary" inkscape:connector-curvature="0" />
	<path style="fill:none;stroke:red;stroke-width:1px;stroke-linecap:butt;stroke-linejoin:miter;stroke-opacity:1" d="M 138.425,23.6241 148.237,23.6241 z" id="boundary" inkscape:connector-curvature="0" />
	<path style="fill:none;stroke:red;stroke-width:1px;stroke-linecap:butt;stroke-linejoin:miter;stroke-opacity:1" d="M 148.237,23.6241 157.068,18.7181 z" id="boundary" inkscape:connector-curvature="0" />
	<path style="fill:none;stroke:red;stroke-width:1px;stroke-linecap:butt;stroke-linejoin:miter;stroke-opacity:1" d="M 157.068,18.7181 166.88,18.7181 z" id="boundary" inkscape:connector-curvature="0" />
	<path style="fill:none;stroke:red;stroke-width:1px;stroke-linecap:butt;stroke-linejoin:miter;stroke-opacity:1" d="M 166.88,18.7181 175.711,13.8121 z" id="boundary" inkscape:connector-curvature="0" />
	<path style="fill:none;stroke:red;stroke-width:1px;stroke-linecap:butt;stroke-linejoin:miter;stroke-opacity:1" d="M 175.711,13.8121 185.523,13.8121 z" id="boundary" inkscape:connector-curvature="0" />
	<path style="fill:none;stroke:red;stroke-width:1px;stroke-linecap:butt;stroke-linejoin:miter;stroke-opacity:1" d="M 185.523,13.8121 195.335,11.8497 z" id="boundary" inkscape:connector-curvature="0" />
	<path style="fill:none;stroke:red;stroke-width:1px;stroke-linecap:butt;stroke-linejoin:miter;stroke-opacity:1" d="M 195.335,11.8497 205.147,8.90603 z" id="boundary" inkscape:connector-curvature="0" />
	<path style="fill:none;stroke:red;stroke-width:1px;stroke-linecap:butt;stroke-linejoin:miter;stroke-opacity:1" d="M 205.147,8.90603 214.959,6.94362 z" id="boundary" inkscape:connector-curvature="0" />
	<path style="fill:none;stroke:red;stroke-width:1px;stroke-linecap:butt;stroke-linejoin:miter;stroke-opacity:1" d="M 214.959,6.94362 224.772,4 z" id="boundary" inkscape:connector-curvature="0" />
	<path style="fill:none;stroke:red;stroke-width:1px;stroke-linecap:butt;stroke-linejoin:miter;stroke-opacity:1" d="M 224.772,4 234.584,4 z" id="boundary" inkscape:connector-curvature="0" />
	<path style="fill:none;stroke:red;stroke-width:1px;stroke-linecap:butt;stroke-linejoin:miter;stroke-opacity:1" d="M 234.584,4 244.396,5.96241 z" id="boundary" inkscape:connector-curvature="0" />
	<path style="fill:none;stroke:red;stroke-width:1px;stroke-linecap:butt;stroke-linejoin:miter;stroke-opacity:1" d="M 244.396,5.96241 253.227,10.8684 z" id="boundary" inkscape:connector-curvature="0" />
	<path style="fill:none;stroke:red;stroke-width:1px;stroke-linecap:butt;stroke-linejoin:miter;stroke-opacity:1" d="M 253.227,10.8684 260.095,18.7181 z" id="boundary" inkscape:connector-curvature="0" />
	<path style="fill:none;stroke:red;stroke-width:1px;stroke-linecap:butt;stroke-linejoin:miter;stroke-opacity:1" d="M 260.095,18.7181 269.907,21.6617 z" id="boundary" inkscape:connector-curvature="0" />
	<path style="fill:none;stroke:red;stroke-width:1px;stroke-linecap:butt;stroke-linejoin:miter;stroke-opacity:1" d="M 269.907,21.6617 276.775,29.5114 z" id="boundary" inkscape:connector-curvature="0" />
	<path style="fill:none;stroke:red;stroke-width:1px;stroke-linecap:butt;stroke-linejoin:miter;stroke-opacity:1" d="M 276.775,29.5114 286.588,33.4362 z" id="boundary" inkscape:connector-curvature="0" />
	<path style="fill:none;stroke:red;stroke-width:1px;stroke-linecap:butt;stroke-linejoin:miter;stroke-opacity:1" d="M 286.588,33.4362 293.456,41.2859 z" id="boundary" inkscape:connector-curvature="0" />
	<path style="fill:none;stroke:red;stroke-width:1px;stroke-linecap:butt;stroke-linejoin:miter;stroke-opacity:1" d="M 293.456,41.2859 301.306,48.1543 z" id="boundary" inkscape:connector-curvature="0" />
	<path style="fill:none;stroke:red;stroke-width:1px;stroke-linecap:butt;stroke-linejoin:miter;stroke-opacity:1" d="M 301.306,48.1543 308.174,56.004 z" id="boundary" inkscape:connector-curvature="0" />
	<path style="fill:none;stroke:red;stroke-width:1px;stroke-linecap:butt;stroke-linejoin:miter;stroke-opacity:1" d="M 308.174,56.004 313.08,64.8348 z" id="boundary" inkscape:connector-curvature="0" />
	<path style="fill:none;stroke:red;stroke-width:1px;stroke-linecap:butt;stroke-linejoin:miter;stroke-opacity:1" d="M 313.08,64.8348 318.967,72.6845 z" id="boundary" inkscape:connector-curvature="0" />
	<path style="fill:none;stroke:red;stroke-width:1px;stroke-linecap:butt;stroke-linejoin:miter;stroke-opacity:1" d="M 318.967,72.6845 327.798,77.5905 z" id="boundary" inkscape:connector-curvature="0" />
	<path style="fill:none;stroke:red;stroke-width:1px;stroke-linecap:butt;stroke-linejoin:miter;stroke-opacity:1" d="M 327.798,77.5905 336.629,82.4965 z" id="boundary" inkscape:connector-curvature="0" />
	<path style="fill:none;stroke:red;stroke-width:1px;stroke-linecap:butt;stroke-linejoin:miter;stroke-opacity:1" d="M 336.629,82.4965 345.46,87.4026 z" id="boundary" inkscape:connector-curvature="0" />
	<path style="fill:none;stroke:red;stroke-width:1px;stroke-linecap:butt;stroke-linejoin:miter;stroke-opacity:1" d="M 345.46,87.4026 355.272,87.4026 z" id="boundary" inkscape:connector-curvature="0" />
	<path style="fill:none;stroke:red;stroke-width:1px;stroke-linecap:butt;stroke-linejoin:miter;stroke-opacity:1" d="M 355.272,87.4026 365.084,87.4026 z" id="boundary" inkscape:connector-curvature="0" />
	<path style="fill:none;stroke:red;stroke-width:1px;stroke-linecap:butt;stroke-linejoin:miter;stroke-opacity:1" d="M 365.084,87.4026 374.896,87.4026 z" id="boundary" inkscape:connector-curvature="0" />
	<path style="fill:none;stroke:red;stroke-width:1px;stroke-linecap:butt;stroke-linejoin:miter;stroke-opacity:1" d="M 374.896,87.4026 384.708,87.4026 z" id="boundary" inkscape:connector-curvature="0" />
	<path style="fill:none;stroke:red;stroke-width:1px;stroke-linecap:butt;stroke-linejoin:miter;stroke-opacity:1" d="M 384.708,87.4026 394.52,87.4026 z" id="boundary" inkscape:connector-curvature="0" />
	<path style="fill:none;stroke:red;stroke-width:1px;stroke-linecap:butt;stroke-linejoin:miter;stroke-opacity:1" d="M 394.52,87.4026 404.332,87.4026 z" id="boundary" inkscape:connector-curvature="0" />
	<path style="fill:none;stroke:red;stroke-width:1px;stroke-linecap:butt;stroke-linejoin:miter;stroke-opacity:1" d="M 404.332,87.4026 414.144,87.4026 z" id="boundary" inkscape:connector-curvature="0" />
	<path style="fill:none;stroke:red;stroke-width:1px;stroke-linecap:butt;stroke-linejoin:miter;stroke-opacity:1" d="M 414.144,87.4026 423.956,87.4026 z" id="boundary" inkscape:connector-curvature="0" />
	<path style="fill:none;stroke:red;stroke-width:1px;stroke-linecap:butt;stroke-linejoin:miter;stroke-opacity:1" d="M 423.956,87.4026 433.769,87.4026 z" id="boundary" inkscape:connector-curvature="0" />
	<path style="fill:none;stroke:red;stroke-width:1px;stroke-linecap:butt;stroke-linejoin:miter;stroke-opacity:1" d="M 433.769,87.4026 443.581,87.4026 z" id="boundary" inkscape:connector-curvature="0" />
	<path style="fill:none;stroke:red;stroke-width:1px;stroke-linecap:butt;stroke-linejoin:miter;stroke-opacity:1" d="M 443.581,87.4026 452.411,82.4965 z" id="boundary" inkscape:connector-curvature="0" />
	<path style="fill:none;stroke:red;stroke-width:1px;stroke-linecap:butt;stroke-linejoin:miter;stroke-opacity:1" d="M 452.411,82.4965 462.224,82.4965 z" id="boundary" inkscape:connector-curvature="0" />
	<path style="fill:none;stroke:red;stroke-width:1px;stroke-linecap:butt;stroke-linejoin:miter;stroke-opacity:1" d="M 462.224,82.4965 472.036,82.4965 z" id="boundary" inkscape:connector-curvature="0" />
	<path style="fill:none;stroke:red;stroke-width:1px;stroke-linecap:butt;stroke-linejoin:miter;stroke-opacity:1" d="M 472.036,82.4965 481.848,78.5717 z" id="boundary" inkscape:connector-curvature="0" />
	<path style="fill:none;stroke:red;stroke-width:1px;stroke-linecap:butt;stroke-linejoin:miter;stroke-opacity:1" d="M 481.848,78.5717 491.66,77.5905 z" id="boundary" inkscape:connector-curvature="0" />
	<path style="fill:none;stroke:red;stroke-width:1px;stroke-linecap:butt;stroke-linejoin:miter;stroke-opacity:1" d="M 491.66,77.5905 501.472,77.5905 z" id="boundary" inkscape:connector-curvature="0" />
	<path style="fill:none;stroke:red;stroke-width:1px;stroke-linecap:butt;stroke-linejoin:miter;stroke-opacity:1" d="M 501.472,77.5905 510.303,72.6845 z" id="boundary" inkscape:connector-curvature="0" />
	<path style="fill:none;stroke:red;stroke-width:1px;stroke-linecap:butt;stroke-linejoin:miter;stroke-opacity:1" d="M 510.303,72.6845 520.115,72.6845 z" id="boundary" inkscape:connector-curvature="0" />
	<path style="fill:none;stroke:red;stroke-width:1px;stroke-linecap:butt;stroke-linejoin:miter;stroke-opacity:1" d="M 520.115,72.6845 528.946,67.7784 z" id="boundary" inkscape:connector-curvature="0" />
	<path style="fill:none;stroke:red;stroke-width:1px;stroke-linecap:butt;stroke-linejoin:miter;stroke-opacity:1" d="M 528.946,67.7784 538.758,67.7784 z" id="boundary" inkscape:connector-curvature="0" />
	<path style="fill:none;stroke:red;stroke-width:1px;stroke-linecap:butt;stroke-linejoin:miter;stroke-opacity:1" d="M 538.758,67.7784 547.589,62.8724 z" id="boundary" inkscape:connector-curvature="0" />
	<path style="fill:none;stroke:red;stroke-width:1px;stroke-linecap:butt;stroke-linejoin:miter;stroke-opacity:1" d="M 547.589,62.8724 557.401,62.8724 z" id="boundary" inkscape:connector-curvature="0" />
	<path style="fill:none;stroke:red;stroke-width:1px;stroke-linecap:butt;stroke-linejoin:miter;stroke-opacity:1" d="M 557.401,62.8724 566.231,57.9664 z" id="boundary" inkscape:connector-curvature="0" />
	<path style="fill:none;stroke:red;stroke-width:1px;stroke-linecap:butt;stroke-linejoin:miter;stroke-opacity:1" d="M 566.231,57.9664 576.044,57.9664 z" id="boundary" inkscape:connector-curvature="0" />
	<path style="fill:none;stroke:red;stroke-width:1px;stroke-linecap:butt;stroke-linejoin:miter;stroke-opacity:1" d="M 576.044,57.9664 584.874,53.0603 z" id="boundary" inkscape:connector-curvature="0" />
	<path style="fill:none;stroke:red;stroke-width:1px;stroke-linecap:butt;stroke-linejoin:miter;stroke-opacity:1" d="M 584.874,53.0603 594.686,53.0603 z" id="boundary" inkscape:connector-curvature="0" />
	<path style="fill:none;stroke:red;stroke-width:1px;stroke-linecap:butt;stroke-linejoin:miter;stroke-opacity:1" d="M 594.686,53.0603 604.499,53.0603 z" id="boundary" inkscape:connector-curvature="0" />
	<path style="fill:none;stroke:red;stroke-width:1px;stroke-linecap:butt;stroke-linejoin:miter;stroke-opacity:1" d="M 604.499,53.0603 614.311,49.1355 z" id="boundary" inkscape:connector-curvature="0" />
	<path style="fill:none;stroke:red;stroke-width:1px;stroke-linecap:butt;stroke-linejoin:miter;stroke-opacity:1" d="M 614.311,49.1355 624.123,48.1543 z" id="boundary" inkscape:connector-curvature="0" />
	<path style="fill:none;stroke:red;stroke-width:1px;stroke-linecap:butt;stroke-linejoin:miter;stroke-opacity:1" d="M 624.123,48.1543 633.935,48.1543 z" id="boundary" inkscape:connector-curvature="0" />
	<path style="fill:none;stroke:red;stroke-width:1px;stroke-linecap:butt;stroke-linejoin:miter;stroke-opacity:1" d="M 633.935,48.1543 643.747,48.1543 z" id="boundary" inkscape:connector-curvature="0" />
	<path style="fill:none;stroke:red;stroke-width:1px;stroke-linecap:butt;stroke-linejoin:miter;stroke-opacity:1" d="M 643.747,48.1543 653.559,48.1543 z" id="boundary" inkscape:connector-curvature="0" />
	<path style="fill:none;stroke:red;stroke-width:1px;stroke-linecap:butt;stroke-linejoin:miter;stroke-opacity:1" d="M 653.559,48.1543 663.371,48.1543 z" id="boundary" inkscape:connector-curvature="0" />
	<path style="fill:none;stroke:red;stroke-width:1px;stroke-linecap:butt;stroke-linejoin:miter;stroke-opacity:1" d="M 663.371,48.1543 673.183,48.1543 z" id="boundary" inkscape:connector-curvature="0" />
	<path style="fill:none;stroke:red;stroke-width:1px;stroke-linecap:butt;stroke-linejoin:miter;stroke-opacity:1" d="M 673.183,48.1543 682.995,48.1543 z" id="boundary" inkscape:connector-curvature="0" />
	<path style="fill:none;stroke:red;stroke-width:1px;stroke-linecap:butt;stroke-linejoin:miter;stroke-opacity:1" d="M 682.995,48.1543 691.826,53.0603 z" id="boundary" inkscape:connector-curvature="0" />
	<path style="fill:none;stroke:red;stroke-width:1px;stroke-linecap:butt;stroke-linejoin:miter;stroke-opacity:1" d="M 691.826,53.0603 701.638,56.004 z" id="boundary" inkscape:connector-curvature="0" />
	<path style="fill:none;stroke:red;stroke-width:1px;stroke-linecap:butt;stroke-linejoin:miter;stroke-opacity:1" d="M 701.638,56.004 710.469,60.91 z" id="boundary" inkscape:connector-curvature="0" />
	<path style="fill:none;stroke:red;stroke-width:1px;stroke-linecap:butt;stroke-linejoin:miter;stroke-opacity:1" d="M 710.469,60.91 720.281,64.8348 z" id="boundary" inkscape:connector-curvature="0" />
	<path style="fill:none;stroke:red;stroke-width:1px;stroke-linecap:butt;stroke-linejoin:miter;stroke-opacity:1" d="M 720.281,64.8348 729.112,69.7409 z" id="boundary" inkscape:connector-curvature="0" />
	<path style="fill:none;stroke:red;stroke-width:1px;stroke-linecap:butt;stroke-linejoin:miter;stroke-opacity:1" d="M 729.112,69.7409 735.98,77.5905 z" id="boundary" inkscape:connector-curvature="0" />
	<path style="fill:none;stroke:red;stroke-width:1px;stroke-linecap:butt;stroke-linejoin:miter;stroke-opacity:1" d="M 735.98,77.5905 745.792,77.5905 z" id="boundary" inkscape:connector-curvature="0" />
	<path style="fill:none;stroke:red;stroke-width:1px;stroke-linecap:butt;stroke-linejoin:miter;stroke-opacity:1" d="M 745.792,77.5905 754.623,82.4965 z" id="boundary" inkscape:connector-curvature="0" />
	<path style="fill:none;stroke:red;stroke-width:1px;stroke-linecap:butt;stroke-linejoin:miter;stroke-opacity:1" d="M 754.623,82.4965 763.454,87.4026 z" id="boundary" inkscape:connector-curvature="0" />
	<path style="fill:none;stroke:red;stroke-width:1px;stroke-linecap:butt;stroke-linejoin:miter;stroke-opacity:1" d="M 763.454,87.4026 772.285,92.3086 z" id="boundary" inkscape:connector-curvature="0" />
	<path style="fill:none;stroke:red;stroke-width:1px;stroke-linecap:butt;stroke-linejoin:miter;stroke-opacity:1" d="M 772.285,92.3086 781.116,97.2146 z" id="boundary" inkscape:connector-curvature="0" />
	<path style="fill:none;stroke:red;stroke-width:1px;stroke-linecap:butt;stroke-linejoin:miter;stroke-opacity:1" d="M 781.116,97.2146 788.965,104.083 z" id="boundary" inkscape:connector-curvature="0" />
	<path style="fill:none;stroke:red;stroke-width:1px;stroke-linecap:butt;stroke-linejoin:miter;stroke-opacity:1" d="M 788.965,104.083 794.853,111.933 z" id="boundary" inkscape:connector-curvature="0" />
	<path style="fill:none;stroke:red;stroke-width:1px;stroke-linecap:butt;stroke-linejoin:miter;stroke-opacity:1" d="M 794.853,111.933 804.665,111.933 z" id="boundary" inkscape:connector-curvature="0" />
	<path style="fill:none;stroke:red;stroke-width:1px;stroke-linecap:butt;stroke-linejoin:miter;stroke-opacity:1" d="M 804.665,111.933 814.477,111.933 z" id="boundary" inkscape:connector-curvature="0" />
	<path style="fill:none;stroke:red;stroke-width:1px;stroke-linecap:butt;stroke-linejoin:miter;stroke-opacity:1" d="M 814.477,111.933 824.289,111.933 z" id="boundary" inkscape:connector-curvature="0" />
	<path style="fill:none;stroke:red;stroke-width:1px;stroke-linecap:butt;stroke-linejoin:miter;stroke-opacity:1" d="M 824.289,111.933 834.101,111.933 z" id="boundary" inkscape:connector-curvature="0" />
	<path style="fill:none;stroke:red;stroke-width:1px;stroke-linecap:butt;stroke-linejoin:miter;stroke-opacity:1" d="M 834.101,111.933 843.913,111.933 z" id="boundary" inkscape:connector-curvature="0" />
	<path style="fill:none;stroke:red;stroke-width:1px;stroke-linecap:butt;stroke-linejoin:miter;stroke-opacity:1" d="M 843.913,111.933 853.725,108.989 z" id="boundary" inkscape:connector-curvature="0" />
	<path style="fill:none;stroke:red;stroke-width:1px;stroke-linecap:butt;stroke-linejoin:miter;stroke-opacity:1" d="M 853.725,108.989 863.537,104.083 z" id="boundary" inkscape:connector-curvature="0" />
	<path style="fill:none;stroke:red;stroke-width:1px;stroke-linecap:butt;stroke-linejoin:miter;stroke-opacity:1" d="M 863.537,104.083 873.349,102.121 z" id="boundary" inkscape:connector-curvature="0" />
	<path style="fill:none;stroke:red;stroke-width:1px;stroke-linecap:butt;stroke-linejoin:miter;stroke-opacity:1" d="M 873.349,102.121 883.161,99.1771 z" id="boundary" inkscape:connector-curvature="0" />
	<path style="fill:none;stroke:red;stroke-width:1px;stroke-linecap:butt;stroke-linejoin:miter;stroke-opacity:1" d="M 883.161,99.1771 892.973,97.2146 z" id="boundary" inkscape:connector-curvature="0" />
	<path style="fill:none;stroke:red;stroke-width:1px;stroke-linecap:butt;stroke-linejoin:miter;stroke-opacity:1" d="M 892.973,97.2146 902.785,97.2146 z" id="boundary" inkscape:connector-curvature="0" />
	<path style="fill:none;stroke:red;stroke-width:1px;stroke-linecap:butt;stroke-linejoin:miter;stroke-opacity:1" d="M 902.785,97.2146 912.597,97.2146 z" id="boundary" inkscape:connector-curvature="0" />
	<path style="fill:none;stroke:red;stroke-width:1px;stroke-linecap:butt;stroke-linejoin:miter;stroke-opacity:1" d="M 912.597,97.2146 921.428,102.121 z" id="boundary" inkscape:connector-curvature="0" />
	<path style="fill:none;stroke:red;stroke-width:1px;stroke-linecap:butt;stroke-linejoin:miter;stroke-opacity:1" d="M 921.428,102.121 931.24,102.121 z" id="boundary" inkscape:connector-curvature="0" />
	<path style="fill:none;stroke:red;stroke-width:1px;stroke-linecap:butt;stroke-linejoin:miter;stroke-opacity:1" d="M 931.24,102.121 941.052,104.083 z" id="boundary" inkscape:connector-curvature="0" />
	<path style="fill:none;stroke:red;stroke-width:1px;stroke-linecap:butt;stroke-linejoin:miter;stroke-opacity:1" d="M 941.052,104.083 950.864,107.027 z" id="boundary" inkscape:connector-curvature="0" />
	<path style="fill:none;stroke:red;stroke-width:1px;stroke-linecap:butt;stroke-linejoin:miter;stroke-opacity:1" d="M 950.864,107.027 959.695,111.933 z" id="boundary" inkscape:connector-curvature="0" />
	<path style="fill:none;stroke:red;stroke-width:1px;stroke-linecap:butt;stroke-linejoin:miter;stroke-opacity:1" d="M 959.695,111.933 968.526,116.839 z" id="boundary" inkscape:connector-curvature="0" />
	<path style="fill:none;stroke:red;stroke-width:1px;stroke-linecap:butt;stroke-linejoin:miter;stroke-opacity:1" d="M 968.526,116.839 975.395,124.688 z" id="boundary" inkscape:connector-curvature="0" />
	<path style="fill:none;stroke:red;stroke-width:1px;stroke-linecap:butt;stroke-linejoin:miter;stroke-opacity:1" d="M 975.395,124.688 980.301,133.519 z" id="boundary" inkscape:connector-curvature="0" />
	<path style="fill:none;stroke:red;stroke-width:1px;stroke-linecap:butt;stroke-linejoin:miter;stroke-opacity:1" d="M 980.301,133.519 986.188,141.369 z" id="boundary" inkscape:connector-curvature="0" />
	<path style="fill:none;stroke:red;stroke-width:1px;stroke-linecap:butt;stroke-linejoin:miter;stroke-opacity:1" d="M 986.188,141.369 991.094,150.2 z" id="boundary" inkscape:connector-curvature="0" />
	<path style="fill:none;stroke:red;stroke-width:1px;stroke-linecap:butt;stroke-linejoin:miter;stroke-opacity:1" d="M 991.094,150.2 996,159.031 z" id="boundary" inkscape:connector-curvature="0" />
	<circle cx="4" cy="232.621" r="4" fill="#0" id="circle0"/>
	<circle cx="4" cy="242.433" r="4" fill="#0" id="circle1"/>
	<circle cx="4" cy="252.245" r="4" fill="#0" id="circle2"/>
	<circle cx="4" cy="262.057" r="4" fill="#0" id="circle3"/>
	<circle cx="4" cy="271.869" r="4" fill="#0" id="circle4"/>
	<circle cx="4" cy="281.682" r="4" fill="#0" id="circle5"/>
	<circle cx="4" cy="291.494" r="4" fill="#0" id="circle6"/>
	<circle cx="4" cy="301.306" r="4" fill="#0" id="circle7"/>
	<circle cx="4" cy="311.118" r="4" fill="#0" id="circle8"/>
	<circle cx="8.90603" cy="222.809" r="4" fill="#0" id="circle9"/>
	<circle cx="11.8497" cy="317.986" r="4" fill="#0" id="circle10"/>
	<circle cx="16.7557" cy="214.959" r="4" fill="#0" id="circle11"/>
	<circle cx="19.6993" cy="323.873" r="4" fill="#0" id="circle12"/>
	<circle cx="24.6053" cy="207.11" r="4" fill="#0" id="circle13"/>
	<circle cx="29.5114" cy="197.298" r="4" fill="#0" id="circle14"/>
	<circle cx="29.5114" cy="323.873" r="4" fill="#0" id="circle15"/>
	<circle cx="37.361" cy="190.429" r="4" fill="#0" id="circle16"/>
	<circle cx="39.3234" cy="323.873" r="4" fill="#0" id="circle17"/>
	<circle cx="44.2295" cy="182.58" r="4" fill="#0" id="circle18"/>
	<circle cx="49.1355" cy="323.873" r="4" fill="#0" id="circle19"/>
	<circle cx="52.0791" cy="175.711" r="4" fill="#0" id="circle20"/>
	<circle cx="58.9476" cy="318.967" r="4" fill="#0" id="circle21"/>
	<circle cx="60.91" cy="170.805" r="4" fill="#0" id="circle22"/>
	<circle cx="65.816" cy="160.993" r="4" fill="#0" id="circle23"/>
	<circle cx="68.7596" cy="318.967" r="4" fill="#0" id="circle24"/>
	<circle cx="75.6281" cy="156.087" r="4" fill="#0" id="circle25"/>
	<circle cx="78.5717" cy="318.967" r="4" fill="#0" id="circle26"/>
	<circle cx="82.4965" cy="46.1919" r="4" fill="#0" id="circle27"/>
	<circle cx="83.4777" cy="148.237" r="4" fill="#0" id="circle28"/>
	<circle cx="87.4026" cy="55.0227" r="4" fill="#0" id="circle29"/>
	<circle cx="87.4026" cy="64.8348" r="4" fill="#0" id="circle30"/>
	<circle cx="87.4026" cy="74.6469" r="4" fill="#0" id="circle31"/>
	<circle cx="88.3838" cy="318.967" r="4" fill="#0" id="circle32"/>
	<circle cx="90.3462" cy="38.3422" r="4" fill="#0" id="circle33"/>
	<circle cx="91.3274" cy="141.369" r="4" fill="#0" id="circle34"/>
	<circle cx="92.3086" cy="83.4777" r="4" fill="#0" id="circle35"/>
	<circle cx="92.3086" cy="93.2898" r="4" fill="#0" id="circle36"/>
	<circle cx="97.2146" cy="102.121" r="4" fill="#0" id="circle37"/>
	<circle cx="97.2146" cy="111.933" r="4" fill="#0" id="circle38"/>
	<circle cx="97.2146" cy="121.745" r="4" fill="#0" id="circle39"/>
	<circle cx="97.2146" cy="131.557" r="4" fill="#0" id="circle40"/>
	<circle cx="98.1958" cy="314.061" r="4" fill="#0" id="circle41"/>
	<circle cx="99.1771" cy="33.4362" r="4" fill="#0" id="circle42"/>
	<circle cx="108.008" cy="314.061" r="4" fill="#0" id="circle43"/>
	<circle cx="108.989" cy="29.5114" r="4" fill="#0" id="circle44"/>
	<circle cx="117.82" cy="309.155" r="4" fill="#0" id="circle45"/>
	<circle cx="118.801" cy="28.5302" r="4" fill="#0" id="circle46"/>
	<circle cx="127.632" cy="309.155" r="4" fill="#0" id="circle47"/>
	<circle cx="128.613" cy="24.6053" r="4" fill="#0" id="circle48"/>
	<circle cx="137.444" cy="304.249" r="4" fill="#0" id="circle49"/>
	<circle cx="138.425" cy="23.6241" r="4" fill="#0" id="circle50"/>
	<circle cx="147.256" cy="304.249" r="4" fill="#0" id="circle51"/>
	<circle cx="148.237" cy="23.6241" r="4" fill="#0" id="circle52"/>
	<circle cx="157.068" cy="18.7181" r="4" fill="#0" id="circle53"/>
	<circle cx="157.068" cy="299.343" r="4" fill="#0" id="circle54"/>
	<circle cx="166.88" cy="18.7181" r="4" fill="#0" id="circle55"/>
	<circle cx="166.88" cy="299.343" r="4" fill="#0" id="circle56"/>
	<circle cx="175.711" cy="13.8121" r="4" fill="#0" id="circle57"/>
	<circle cx="176.692" cy="299.343" r="4" fill="#0" id="circle58"/>
	<circle cx="185.523" cy="13.8121" r="4" fill="#0" id="circle59"/>
	<circle cx="185.523" cy="304.249" r="4" fill="#0" id="circle60"/>
	<circle cx="191.41" cy="312.099" r="4" fill="#0" id="circle61"/>
	<circle cx="195.335" cy="11.8497" r="4" fill="#0" id="circle62"/>
	<circle cx="201.223" cy="316.024" r="4" fill="#0" id="circle63"/>
	<circle cx="205.147" cy="8.90603" r="4" fill="#0" id="circle64"/>
	<circle cx="208.091" cy="323.873" r="4" fill="#0" id="circle65"/>
	<circle cx="214.959" cy="6.94362" r="4" fill="#0" id="circle66"/>
	<circle cx="215.941" cy="330.742" r="4" fill="#0" id="circle67"/>
	<circle cx="224.772" cy="4" r="4" fill="#0" id="circle68"/>
	<circle cx="224.772" cy="335.648" r="4" fill="#0" id="circle69"/>
	<circle cx="234.584" cy="4" r="4" fill="#0" id="circle70"/>
	<circle cx="234.584" cy="338.591" r="4" fill="#0" id="circle71"/>
	<circle cx="243.414" cy="343.498" r="4" fill="#0" id="circle72"/>
	<circle cx="244.396" cy="5.96241" r="4" fill="#0" id="circle73"/>
	<circle cx="252.245" cy="348.404" r="4" fill="#0" id="circle74"/>
	<circle cx="253.227" cy="10.8684" r="4" fill="#0" id="circle75"/>
	<circle cx="260.095" cy="18.7181" r="4" fill="#0" id="circle76"/>
	<circle cx="262.057" cy="348.404" r="4" fill="#0" id="circle77"/>
	<circle cx="269.907" cy="21.6617" r="4" fill="#0" id="circle78"/>
	<circle cx="271.869" cy="348.404" r="4" fill="#0" id="circle79"/>
	<circle cx="276.775" cy="29.5114" r="4" fill="#0" id="circle80"/>
	<circle cx="280.7" cy="353.31" r="4" fill="#0" id="circle81"/>
	<circle cx="286.588" cy="33.4362" r="4" fill="#0" id="circle82"/>
	<circle cx="290.512" cy="353.31" r="4" fill="#0" id="circle83"/>
	<circle cx="293.456" cy="41.2859" r="4" fill="#0" id="circle84"/>
	<circle cx="300.324" cy="353.31" r="4" fill="#0" id="circle85"/>
	<circle cx="301.306" cy="48.1543" r="4" fill="#0" id="circle86"/>
	<circle cx="308.174" cy="56.004" r="4" fill="#0" id="circle87"/>
	<circle cx="309.155" cy="358.216" r="4" fill="#0" id="circle88"/>
	<circle cx="313.08" cy="64.8348" r="4" fill="#0" id="circle89"/>
	<circle cx="318.967" cy="72.6845" r="4" fill="#0" id="circle90"/>
	<circle cx="318.967" cy="358.216" r="4" fill="#0" id="circle91"/>
	<circle cx="327.798" cy="77.5905" r="4" fill="#0" id="circle92"/>
	<circle cx="328.779" cy="360.178" r="4" fill="#0" id="circle93"/>
	<circle cx="336.629" cy="82.4965" r="4" fill="#0" id="circle94"/>
	<circle cx="338.591" cy="363.122" r="4" fill="#0" id="circle95"/>
	<circle cx="345.46" cy="87.4026" r="4" fill="#0" id="circle96"/>
	<circle cx="348.404" cy="363.122" r="4" fill="#0" id="circle97"/>
	<circle cx="355.272" cy="87.4026" r="4" fill="#0" id="circle98"/>
	<circle cx="358.216" cy="363.122" r="4" fill="#0" id="circle99"/>
	<circle cx="365.084" cy="87.4026" r="4" fill="#0" id="circle100"/>
	<circle cx="368.028" cy="363.122" r="4" fill="#0" id="circle101"/>
	<circle cx="374.896" cy="87.4026" r="4" fill="#0" id="circle102"/>
	<circle cx="377.84" cy="363.122" r="4" fill="#0" id="circle103"/>
	<circle cx="384.708" cy="87.4026" r="4" fill="#0" id="circle104"/>
	<circle cx="387.652" cy="363.122" r="4" fill="#0" id="circle105"/>
	<circle cx="394.52" cy="87.4026" r="4" fill="#0" id="circle106"/>
	<circle cx="397.464" cy="363.122" r="4" fill="#0" id="circle107"/>
	<circle cx="404.332" cy="87.4026" r="4" fill="#0" id="circle108"/>
	<circle cx="407.276" cy="363.122" r="4" fill="#0" id="circle109"/>
	<circle cx="414.144" cy="87.4026" r="4" fill="#0" id="circle110"/>
	<circle cx="417.088" cy="363.122" r="4" fill="#0" id="circle111"/>
	<circle cx="423.956" cy="87.4026" r="4" fill="#0" id="circle112"/>
	<circle cx="426.9" cy="363.122" r="4" fill="#0" id="circle113"/>
	<circle cx="433.769" cy="87.4026" r="4" fill="#0" id="circle114"/>
	<circle cx="436.712" cy="363.122" r="4" fill="#0" id="circle115"/>
	<circle cx="443.581" cy="87.4026" r="4" fill="#0" id="circle116"/>
	<circle cx="446.524" cy="363.122" r="4" fill="#0" id="circle117"/>
	<circle cx="452.411" cy="82.4965" r="4" fill="#0" id="circle118"/>
	<circle cx="456.336" cy="363.122" r="4" fill="#0" id="circle119"/>
	<circle cx="462.224" cy="82.4965" r="4" fill="#0" id="circle120"/>
	<circle cx="466.148" cy="363.122" r="4" fill="#0" id="circle121"/>
	<circle cx="472.036" cy="82.4965" r="4" fill="#0" id="circle122"/>
	<circle cx="474.979" cy="358.216" r="4" fill="#0" id="circle123"/>
	<circle cx="481.848" cy="78.5717" r="4" fill="#0" id="circle124"/>
	<circle cx="484.791" cy="358.216" r="4" fill="#0" id="circle125"/>
	<circle cx="491.66" cy="77.5905" r="4" fill="#0" id="circle126"/>
	<circle cx="494.603" cy="355.272" r="4" fill="#0" id="circle127"/>
	<circle cx="501.472" cy="77.5905" r="4" fill="#0" id="circle128"/>
	<circle cx="504.415" cy="353.31" r="4" fill="#0" id="circle129"/>
	<circle cx="510.303" cy="72.6845" r="4" fill="#0" id="circle130"/>
	<circle cx="514.227" cy="353.31" r="4" fill="#0" id="circle131"/>
	<circle cx="520.115" cy="72.6845" r="4" fill="#0" id="circle132"/>
	<circle cx="523.058" cy="348.404" r="4" fill="#0" id="circle133"/>
	<circle cx="528.946" cy="67.7784" r="4" fill="#0" id="circle134"/>
	<circle cx="532.87" cy="346.441" r="4" fill="#0" id="circle135"/>
	<circle cx="538.758" cy="67.7784" r="4" fill="#0" id="circle136"/>
	<circle cx="542.682" cy="343.498" r="4" fill="#0" id="circle137"/>
	<circle cx="547.589" cy="62.8724" r="4" fill="#0" id="circle138"/>
	<circle cx="552.495" cy="341.535" r="4" fill="#0" id="circle139"/>
	<circle cx="557.401" cy="62.8724" r="4" fill="#0" id="circle140"/>
	<circle cx="562.307" cy="338.591" r="4" fill="#0" id="circle141"/>
	<circle cx="566.231" cy="57.9664" r="4" fill="#0" id="circle142"/>
	<circle cx="572.119" cy="336.629" r="4" fill="#0" id="circle143"/>
	<circle cx="576.044" cy="57.9664" r="4" fill="#0" id="circle144"/>
	<circle cx="581.931" cy="333.685" r="4" fill="#0" id="circle145"/>
	<circle cx="584.874" cy="53.0603" r="4" fill="#0" id="circle146"/>
	<circle cx="591.743" cy="333.685" r="4" fill="#0" id="circle147"/>
	<circle cx="594.686" cy="53.0603" r="4" fill="#0" id="circle148"/>
	<circle cx="601.555" cy="333.685" r="4" fill="#0" id="circle149"/>
	<circle cx="604.499" cy="53.0603" r="4" fill="#0" id="circle150"/>
	<circle cx="610.386" cy="328.779" r="4" fill="#0" id="circle151"/>
	<circle cx="614.311" cy="49.1355" r="4" fill="#0" id="circle152"/>
	<circle cx="620.198" cy="328.779" r="4" fill="#0" id="circle153"/>
	<circle cx="624.123" cy="48.1543" r="4" fill="#0" id="circle154"/>
	<circle cx="630.01" cy="328.779" r="4" fill="#0" id="circle155"/>
	<circle cx="633.935" cy="48.1543" r="4" fill="#0" id="circle156"/>
	<circle cx="639.822" cy="328.779" r="4" fill="#0" id="circle157"/>
	<circle cx="643.747" cy="48.1543" r="4" fill="#0" id="circle158"/>
	<circle cx="649.634" cy="328.779" r="4" fill="#0" id="circle159"/>
	<circle cx="653.559" cy="48.1543" r="4" fill="#0" id="circle160"/>
	<circle cx="659.446" cy="328.779" r="4" fill="#0" id="circle161"/>
	<circle cx="663.371" cy="48.1543" r="4" fill="#0" id="circle162"/>
	<circle cx="668.277" cy="333.685" r="4" fill="#0" id="circle163"/>
	<circle cx="673.183" cy="48.1543" r="4" fill="#0" id="circle164"/>
	<circle cx="678.089" cy="333.685" r="4" fill="#0" id="circle165"/>
	<circle cx="682.995" cy="48.1543" r="4" fill="#0" id="circle166"/>
	<circle cx="686.92" cy="338.591" r="4" fill="#0" id="circle167"/>
	<circle cx="691.826" cy="53.0603" r="4" fill="#0" id="circle168"/>
	<circle cx="695.751" cy="343.498" r="4" fill="#0" id="circle169"/>
	<circle cx="701.638" cy="56.004" r="4" fill="#0" id="circle170"/>
	<circle cx="701.638" cy="351.347" r="4" fill="#0" id="circle171"/>
	<circle cx="709.488" cy="358.216" r="4" fill="#0" id="circle172"/>
	<circle cx="710.469" cy="60.91" r="4" fill="#0" id="circle173"/>
	<circle cx="718.318" cy="363.122" r="4" fill="#0" id="circle174"/>
	<circle cx="720.281" cy="64.8348" r="4" fill="#0" id="circle175"/>
	<circle cx="727.149" cy="368.028" r="4" fill="#0" id="circle176"/>
	<circle cx="729.112" cy="69.7409" r="4" fill="#0" id="circle177"/>
	<circle cx="734.999" cy="373.915" r="4" fill="#0" id="circle178"/>
	<circle cx="735.98" cy="77.5905" r="4" fill="#0" id="circle179"/>
	<circle cx="744.811" cy="377.84" r="4" fill="#0" id="circle180"/>
	<circle cx="745.792" cy="77.5905" r="4" fill="#0" id="circle181"/>
	<circle cx="753.642" cy="382.746" r="4" fill="#0" id="circle182"/>
	<circle cx="754.623" cy="82.4965" r="4" fill="#0" id="circle183"/>
	<circle cx="762.473" cy="387.652" r="4" fill="#0" id="circle184"/>
	<circle cx="763.454" cy="87.4026" r="4" fill="#0" id="circle185"/>
	<circle cx="772.285" cy="92.3086" r="4" fill="#0" id="circle186"/>
	<circle cx="772.285" cy="391.577" r="4" fill="#0" id="circle187"/>
	<circle cx="781.116" cy="97.2146" r="4" fill="#0" id="circle188"/>
	<circle cx="782.097" cy="392.558" r="4" fill="#0" id="circle189"/>
	<circle cx="788.965" cy="104.083" r="4" fill="#0" id="circle190"/>
	<circle cx="790.928" cy="397.464" r="4" fill="#0" id="circle191"/>
	<circle cx="794.853" cy="111.933" r="4" fill="#0" id="circle192"/>
	<circle cx="800.74" cy="397.464" r="4" fill="#0" id="circle193"/>
	<circle cx="804.665" cy="111.933" r="4" fill="#0" id="circle194"/>
	<circle cx="810.552" cy="397.464" r="4" fill="#0" id="circle195"/>
	<circle cx="814.477" cy="111.933" r="4" fill="#0" id="circle196"/>
	<circle cx="820.364" cy="397.464" r="4" fill="#0" id="circle197"/>
	<circle cx="824.289" cy="111.933" r="4" fill="#0" id="circle198"/>
	<circle cx="830.176" cy="397.464" r="4" fill="#0" id="circle199"/>
	<circle cx="834.101" cy="111.933" r="4" fill="#0" id="circle200"/>
	<circle cx="839.007" cy="402.37" r="4" fill="#0" id="circle201"/>
	<circle cx="843.913" cy="111.933" r="4" fill="#0" id="circle202"/>
	<circle cx="848.819" cy="402.37" r="4" fill="#0" id="circle203"/>
	<circle cx="853.725" cy="108.989" r="4" fill="#0" id="circle204"/>
	<circle cx="858.631" cy="402.37" r="4" fill="#0" id="circle205"/>
	<circle cx="863.537" cy="104.083" r="4" fill="#0" id="circle206"/>
	<circle cx="868.443" cy="402.37" r="4" fill="#0" id="circle207"/>
	<circle cx="873.349" cy="102.121" r="4" fill="#0" id="circle208"/>
	<circle cx="878.255" cy="402.37" r="4" fill="#0" id="circle209"/>
	<circle cx="883.161" cy="99.1771" r="4" fill="#0" id="circle210"/>
	<circle cx="888.067" cy="402.37" r="4" fill="#0" id="circle211"/>
	<circle cx="892.973" cy="97.2146" r="4" fill="#0" id="circle212"/>
	<circle cx="897.879" cy="402.37" r="4" fill="#0" id="circle213"/>
	<circle cx="902.785" cy="97.2146" r="4" fill="#0" id="circle214"/>
	<circle cx="907.691" cy="402.37" r="4" fill="#0" id="circle215"/>
	<circle cx="912.597" cy="97.2146" r="4" fill="#0" id="circle216"/>
	<circle cx="917.503" cy="284.625" r="4" fill="#0" id="circle217"/>
	<circle cx="917.503" cy="294.437" r="4" fill="#0" id="circle218"/>
	<circle cx="917.503" cy="304.249" r="4" fill="#0" id="circle219"/>
	<circle cx="917.503" cy="314.061" r="4" fill="#0" id="circle220"/>
	<circle cx="917.503" cy="402.37" r="4" fill="#0" id="circle221"/>
	<circle cx="921.428" cy="102.121" r="4" fill="#0" id="circle222"/>
	<circle cx="922.409" cy="322.892" r="4" fill="#0" id="circle223"/>
	<circle cx="925.353" cy="277.757" r="4" fill="#0" id="circle224"/>
	<circle cx="927.316" cy="331.723" r="4" fill="#0" id="circle225"/>
	<circle cx="927.316" cy="402.37" r="4" fill="#0" id="circle226"/>
	<circle cx="930.259" cy="267.945" r="4" fill="#0" id="circle227"/>
	<circle cx="931.24" cy="102.121" r="4" fill="#0" id="circle228"/>
	<circle cx="932.222" cy="340.554" r="4" fill="#0" id="circle229"/>
	<circle cx="935.165" cy="258.133" r="4" fill="#0" id="circle230"/>
	<circle cx="937.128" cy="349.385" r="4" fill="#0" id="circle231"/>
	<circle cx="937.128" cy="402.37" r="4" fill="#0" id="circle232"/>
	<circle cx="941.052" cy="104.083" r="4" fill="#0" id="circle233"/>
	<circle cx="942.034" cy="250.283" r="4" fill="#0" id="circle234"/>
	<circle cx="943.015" cy="357.234" r="4" fill="#0" id="circle235"/>
	<circle cx="945.958" cy="397.464" r="4" fill="#0" id="circle236"/>
	<circle cx="946.94" cy="367.046" r="4" fill="#0" id="circle237"/>
	<circle cx="949.883" cy="243.414" r="4" fill="#0" id="circle238"/>
	<circle cx="950.864" cy="107.027" r="4" fill="#0" id="circle239"/>
	<circle cx="951.846" cy="375.877" r="4" fill="#0" id="circle240"/>
	<circle cx="953.808" cy="391.577" r="4" fill="#0" id="circle241"/>
	<circle cx="959.695" cy="111.933" r="4" fill="#0" id="circle242"/>
	<circle cx="959.695" cy="238.508" r="4" fill="#0" id="circle243"/>
	<circle cx="966.564" cy="230.659" r="4" fill="#0" id="circle244"/>
	<circle cx="968.526" cy="116.839" r="4" fill="#0" id="circle245"/>
	<circle cx="971.47" cy="220.847" r="4" fill="#0" id="circle246"/>
	<circle cx="975.395" cy="124.688" r="4" fill="#0" id="circle247"/>
	<circle cx="979.319" cy="213.978" r="4" fill="#0" id="circle248"/>
	<circle cx="980.301" cy="133.519" r="4" fill="#0" id="circle249"/>
	<circle cx="984.226" cy="204.166" r="4" fill="#0" id="circle250"/>
	<circle cx="986.188" cy="141.369" r="4" fill="#0" id="circle251"/>
	<circle cx="989.132" cy="194.354" r="4" fill="#0" id="circle252"/>
	<circle cx="991.094" cy="150.2" r="4" fill="#0" id="circle253"/>
	<circle cx="994.038" cy="184.542" r="4" fill="#0" id="circle254"/>
	<circle cx="996" cy="159.031" r="4" fill="#0" id="circle255"/>
	<circle cx="996" cy="168.843" r="4" fill="#0" id="circle256"/>
	</g>
</svg>