<?xml version="1.0" encoding="UTF-8" standalone="no"?>
<!-- Created with CurveBenchmark -->
<svg
	xmlns:dc="http://purl.org/dc/elements/1.1/"
	xmlns:cc="http://creativecommons.org/ns#"
	xmlns:rdf="http://www.w3.org/1999/02/22-rdf-syntax-ns#"
	xmlns:svg="http://www.w3.org/2000/svg"
	xmlns="http://www.w3.org/2000/svg"
	xmlns:sodipodi="http://sodipodi.sourceforge.net/DTD/sodipodi-0.dtd"
	xmlns:inkscape="http://www.inkscape.org/namespaces/inkscape"
	width="1000"
	height="1000"
	id="svg2"
	version="1.1"
	sodipodi:docname="manifold/connect2d-fountain-16.png.txt">
<defs
	id="defs4" />
<metadata
	id="metadata7">
	<rdf:RDF>
		<cc:Work
			rdf:about="">
			<dc:format>image/svg+xml</dc:format>
			<dc:type
				rdf:resource="http://purl.org/dc/dcmitype/StillImage" />
			<dc:title></dc:title>
		</cc:Work>
	</rdf:RDF>
</metadata>
<g
	inkscape:label="Layer 1"
	inkscape:groupmode="layer"
	id="layer1">
	<path style="fill:none;stroke:red;stroke-width:1px;stroke-linecap:butt;stroke-linejoin:miter;stroke-opacity:1" d="M 996,527.69 996,537.406 z" id="boundary" inkscape:connector-curvature="0" />
	<path style="fill:none;stroke:red;stroke-width:1px;stroke-linecap:butt;stroke-linejoin:miter;stroke-opacity:1" d="M 996,537.406 991.142,549.066 z" id="boundary" inkscape:connector-curvature="0" />
	<path style="fill:none;stroke:red;stroke-width:1px;stroke-linecap:butt;stroke-linejoin:miter;stroke-opacity:1" d="M 991.142,549.066 991.142,558.782 z" id="boundary" inkscape:connector-curvature="0" />
	<path style="fill:none;stroke:red;stroke-width:1px;stroke-linecap:butt;stroke-linejoin:miter;stroke-opacity:1" d="M 991.142,558.782 986.284,568.498 z" id="boundary" inkscape:connector-curvature="0" />
	<path style="fill:none;stroke:red;stroke-width:1px;stroke-linecap:butt;stroke-linejoin:miter;stroke-opacity:1" d="M 986.284,568.498 981.426,583.071 z" id="boundary" inkscape:connector-curvature="0" />
	<path style="fill:none;stroke:red;stroke-width:1px;stroke-linecap:butt;stroke-linejoin:miter;stroke-opacity:1" d="M 981.426,583.071 976.568,597.645 z" id="boundary" inkscape:connector-curvature="0" />
	<path style="fill:none;stroke:red;stroke-width:1px;stroke-linecap:butt;stroke-linejoin:miter;stroke-opacity:1" d="M 976.568,597.645 971.71,607.361 z" id="boundary" inkscape:connector-curvature="0" />
	<path style="fill:none;stroke:red;stroke-width:1px;stroke-linecap:butt;stroke-linejoin:miter;stroke-opacity:1" d="M 971.71,607.361 966.852,617.077 z" id="boundary" inkscape:connector-curvature="0" />
	<path style="fill:none;stroke:red;stroke-width:1px;stroke-linecap:butt;stroke-linejoin:miter;stroke-opacity:1" d="M 966.852,617.077 961.994,626.793 z" id="boundary" inkscape:connector-curvature="0" />
	<path style="fill:none;stroke:red;stroke-width:1px;stroke-linecap:butt;stroke-linejoin:miter;stroke-opacity:1" d="M 961.994,626.793 957.136,636.509 z" id="boundary" inkscape:connector-curvature="0" />
	<path style="fill:none;stroke:red;stroke-width:1px;stroke-linecap:butt;stroke-linejoin:miter;stroke-opacity:1" d="M 957.136,636.509 950.335,649.14 z" id="boundary" inkscape:connector-curvature="0" />
	<path style="fill:none;stroke:red;stroke-width:1px;stroke-linecap:butt;stroke-linejoin:miter;stroke-opacity:1" d="M 950.335,649.14 942.562,655.941 z" id="boundary" inkscape:connector-curvature="0" />
	<path style="fill:none;stroke:red;stroke-width:1px;stroke-linecap:butt;stroke-linejoin:miter;stroke-opacity:1" d="M 942.562,655.941 934.789,664.686 z" id="boundary" inkscape:connector-curvature="0" />
	<path style="fill:none;stroke:red;stroke-width:1px;stroke-linecap:butt;stroke-linejoin:miter;stroke-opacity:1" d="M 934.789,664.686 929.931,674.402 z" id="boundary" inkscape:connector-curvature="0" />
	<path style="fill:none;stroke:red;stroke-width:1px;stroke-linecap:butt;stroke-linejoin:miter;stroke-opacity:1" d="M 929.931,674.402 922.159,680.231 z" id="boundary" inkscape:connector-curvature="0" />
	<path style="fill:none;stroke:red;stroke-width:1px;stroke-linecap:butt;stroke-linejoin:miter;stroke-opacity:1" d="M 922.159,680.231 913.414,685.089 z" id="boundary" inkscape:connector-curvature="0" />
	<path style="fill:none;stroke:red;stroke-width:1px;stroke-linecap:butt;stroke-linejoin:miter;stroke-opacity:1" d="M 913.414,685.089 905.642,693.833 z" id="boundary" inkscape:connector-curvature="0" />
	<path style="fill:none;stroke:red;stroke-width:1px;stroke-linecap:butt;stroke-linejoin:miter;stroke-opacity:1" d="M 905.642,693.833 895.926,698.691 z" id="boundary" inkscape:connector-curvature="0" />
	<path style="fill:none;stroke:red;stroke-width:1px;stroke-linecap:butt;stroke-linejoin:miter;stroke-opacity:1" d="M 895.926,698.691 886.21,699.663 z" id="boundary" inkscape:connector-curvature="0" />
	<path style="fill:none;stroke:red;stroke-width:1px;stroke-linecap:butt;stroke-linejoin:miter;stroke-opacity:1" d="M 886.21,699.663 878.437,706.464 z" id="boundary" inkscape:connector-curvature="0" />
	<path style="fill:none;stroke:red;stroke-width:1px;stroke-linecap:butt;stroke-linejoin:miter;stroke-opacity:1" d="M 878.437,706.464 868.721,711.322 z" id="boundary" inkscape:connector-curvature="0" />
	<path style="fill:none;stroke:red;stroke-width:1px;stroke-linecap:butt;stroke-linejoin:miter;stroke-opacity:1" d="M 868.721,711.322 859.005,714.237 z" id="boundary" inkscape:connector-curvature="0" />
	<path style="fill:none;stroke:red;stroke-width:1px;stroke-linecap:butt;stroke-linejoin:miter;stroke-opacity:1" d="M 859.005,714.237 850.261,719.095 z" id="boundary" inkscape:connector-curvature="0" />
	<path style="fill:none;stroke:red;stroke-width:1px;stroke-linecap:butt;stroke-linejoin:miter;stroke-opacity:1" d="M 850.261,719.095 840.545,719.095 z" id="boundary" inkscape:connector-curvature="0" />
	<path style="fill:none;stroke:red;stroke-width:1px;stroke-linecap:butt;stroke-linejoin:miter;stroke-opacity:1" d="M 840.545,719.095 830.829,719.095 z" id="boundary" inkscape:connector-curvature="0" />
	<path style="fill:none;stroke:red;stroke-width:1px;stroke-linecap:butt;stroke-linejoin:miter;stroke-opacity:1" d="M 830.829,719.095 821.113,723.953 z" id="boundary" inkscape:connector-curvature="0" />
	<path style="fill:none;stroke:red;stroke-width:1px;stroke-linecap:butt;stroke-linejoin:miter;stroke-opacity:1" d="M 821.113,723.953 811.397,723.953 z" id="boundary" inkscape:connector-curvature="0" />
	<path style="fill:none;stroke:red;stroke-width:1px;stroke-linecap:butt;stroke-linejoin:miter;stroke-opacity:1" d="M 811.397,723.953 801.681,728.811 z" id="boundary" inkscape:connector-curvature="0" />
	<path style="fill:none;stroke:red;stroke-width:1px;stroke-linecap:butt;stroke-linejoin:miter;stroke-opacity:1" d="M 801.681,728.811 791.965,728.811 z" id="boundary" inkscape:connector-curvature="0" />
	<path style="fill:none;stroke:red;stroke-width:1px;stroke-linecap:butt;stroke-linejoin:miter;stroke-opacity:1" d="M 791.965,728.811 782.249,733.669 z" id="boundary" inkscape:connector-curvature="0" />
	<path style="fill:none;stroke:red;stroke-width:1px;stroke-linecap:butt;stroke-linejoin:miter;stroke-opacity:1" d="M 782.249,733.669 772.533,733.669 z" id="boundary" inkscape:connector-curvature="0" />
	<path style="fill:none;stroke:red;stroke-width:1px;stroke-linecap:butt;stroke-linejoin:miter;stroke-opacity:1" d="M 772.533,733.669 762.817,738.527 z" id="boundary" inkscape:connector-curvature="0" />
	<path style="fill:none;stroke:red;stroke-width:1px;stroke-linecap:butt;stroke-linejoin:miter;stroke-opacity:1" d="M 762.817,738.527 753.101,743.385 z" id="boundary" inkscape:connector-curvature="0" />
	<path style="fill:none;stroke:red;stroke-width:1px;stroke-linecap:butt;stroke-linejoin:miter;stroke-opacity:1" d="M 753.101,743.385 744.357,748.243 z" id="boundary" inkscape:connector-curvature="0" />
	<path style="fill:none;stroke:red;stroke-width:1px;stroke-linecap:butt;stroke-linejoin:miter;stroke-opacity:1" d="M 744.357,748.243 734.641,748.243 z" id="boundary" inkscape:connector-curvature="0" />
	<path style="fill:none;stroke:red;stroke-width:1px;stroke-linecap:butt;stroke-linejoin:miter;stroke-opacity:1" d="M 734.641,748.243 725.896,753.101 z" id="boundary" inkscape:connector-curvature="0" />
	<path style="fill:none;stroke:red;stroke-width:1px;stroke-linecap:butt;stroke-linejoin:miter;stroke-opacity:1" d="M 725.896,753.101 716.18,753.101 z" id="boundary" inkscape:connector-curvature="0" />
	<path style="fill:none;stroke:red;stroke-width:1px;stroke-linecap:butt;stroke-linejoin:miter;stroke-opacity:1" d="M 716.18,753.101 707.436,757.959 z" id="boundary" inkscape:connector-curvature="0" />
	<path style="fill:none;stroke:red;stroke-width:1px;stroke-linecap:butt;stroke-linejoin:miter;stroke-opacity:1" d="M 707.436,757.959 698.691,762.817 z" id="boundary" inkscape:connector-curvature="0" />
	<path style="fill:none;stroke:red;stroke-width:1px;stroke-linecap:butt;stroke-linejoin:miter;stroke-opacity:1" d="M 698.691,762.817 688.976,762.817 z" id="boundary" inkscape:connector-curvature="0" />
	<path style="fill:none;stroke:red;stroke-width:1px;stroke-linecap:butt;stroke-linejoin:miter;stroke-opacity:1" d="M 688.976,762.817 679.26,762.817 z" id="boundary" inkscape:connector-curvature="0" />
	<path style="fill:none;stroke:red;stroke-width:1px;stroke-linecap:butt;stroke-linejoin:miter;stroke-opacity:1" d="M 679.26,762.817 670.515,767.675 z" id="boundary" inkscape:connector-curvature="0" />
	<path style="fill:none;stroke:red;stroke-width:1px;stroke-linecap:butt;stroke-linejoin:miter;stroke-opacity:1" d="M 670.515,767.675 660.799,767.675 z" id="boundary" inkscape:connector-curvature="0" />
	<path style="fill:none;stroke:red;stroke-width:1px;stroke-linecap:butt;stroke-linejoin:miter;stroke-opacity:1" d="M 660.799,767.675 651.083,767.675 z" id="boundary" inkscape:connector-curvature="0" />
	<path style="fill:none;stroke:red;stroke-width:1px;stroke-linecap:butt;stroke-linejoin:miter;stroke-opacity:1" d="M 651.083,767.675 641.367,767.675 z" id="boundary" inkscape:connector-curvature="0" />
	<path style="fill:none;stroke:red;stroke-width:1px;stroke-linecap:butt;stroke-linejoin:miter;stroke-opacity:1" d="M 641.367,767.675 631.651,767.675 z" id="boundary" inkscape:connector-curvature="0" />
	<path style="fill:none;stroke:red;stroke-width:1px;stroke-linecap:butt;stroke-linejoin:miter;stroke-opacity:1" d="M 631.651,767.675 621.935,767.675 z" id="boundary" inkscape:connector-curvature="0" />
	<path style="fill:none;stroke:red;stroke-width:1px;stroke-linecap:butt;stroke-linejoin:miter;stroke-opacity:1" d="M 621.935,767.675 612.219,767.675 z" id="boundary" inkscape:connector-curvature="0" />
	<path style="fill:none;stroke:red;stroke-width:1px;stroke-linecap:butt;stroke-linejoin:miter;stroke-opacity:1" d="M 612.219,767.675 602.503,767.675 z" id="boundary" inkscape:connector-curvature="0" />
	<path style="fill:none;stroke:red;stroke-width:1px;stroke-linecap:butt;stroke-linejoin:miter;stroke-opacity:1" d="M 602.503,767.675 592.787,767.675 z" id="boundary" inkscape:connector-curvature="0" />
	<path style="fill:none;stroke:red;stroke-width:1px;stroke-linecap:butt;stroke-linejoin:miter;stroke-opacity:1" d="M 592.787,767.675 583.071,767.675 z" id="boundary" inkscape:connector-curvature="0" />
	<path style="fill:none;stroke:red;stroke-width:1px;stroke-linecap:butt;stroke-linejoin:miter;stroke-opacity:1" d="M 583.071,767.675 573.356,767.675 z" id="boundary" inkscape:connector-curvature="0" />
	<path style="fill:none;stroke:red;stroke-width:1px;stroke-linecap:butt;stroke-linejoin:miter;stroke-opacity:1" d="M 573.356,767.675 563.64,767.675 z" id="boundary" inkscape:connector-curvature="0" />
	<path style="fill:none;stroke:red;stroke-width:1px;stroke-linecap:butt;stroke-linejoin:miter;stroke-opacity:1" d="M 563.64,767.675 553.924,767.675 z" id="boundary" inkscape:connector-curvature="0" />
	<path style="fill:none;stroke:red;stroke-width:1px;stroke-linecap:butt;stroke-linejoin:miter;stroke-opacity:1" d="M 553.924,767.675 544.208,767.675 z" id="boundary" inkscape:connector-curvature="0" />
	<path style="fill:none;stroke:red;stroke-width:1px;stroke-linecap:butt;stroke-linejoin:miter;stroke-opacity:1" d="M 544.208,767.675 534.492,767.675 z" id="boundary" inkscape:connector-curvature="0" />
	<path style="fill:none;stroke:red;stroke-width:1px;stroke-linecap:butt;stroke-linejoin:miter;stroke-opacity:1" d="M 534.492,767.675 524.776,767.675 z" id="boundary" inkscape:connector-curvature="0" />
	<path style="fill:none;stroke:red;stroke-width:1px;stroke-linecap:butt;stroke-linejoin:miter;stroke-opacity:1" d="M 524.776,767.675 515.06,767.675 z" id="boundary" inkscape:connector-curvature="0" />
	<path style="fill:none;stroke:red;stroke-width:1px;stroke-linecap:butt;stroke-linejoin:miter;stroke-opacity:1" d="M 515.06,767.675 505.344,767.675 z" id="boundary" inkscape:connector-curvature="0" />
	<path style="fill:none;stroke:red;stroke-width:1px;stroke-linecap:butt;stroke-linejoin:miter;stroke-opacity:1" d="M 505.344,767.675 495.628,767.675 z" id="boundary" inkscape:connector-curvature="0" />
	<path style="fill:none;stroke:red;stroke-width:1px;stroke-linecap:butt;stroke-linejoin:miter;stroke-opacity:1" d="M 495.628,767.675 485.912,767.675 z" id="boundary" inkscape:connector-curvature="0" />
	<path style="fill:none;stroke:red;stroke-width:1px;stroke-linecap:butt;stroke-linejoin:miter;stroke-opacity:1" d="M 485.912,767.675 476.196,767.675 z" id="boundary" inkscape:connector-curvature="0" />
	<path style="fill:none;stroke:red;stroke-width:1px;stroke-linecap:butt;stroke-linejoin:miter;stroke-opacity:1" d="M 476.196,767.675 466.48,767.675 z" id="boundary" inkscape:connector-curvature="0" />
	<path style="fill:none;stroke:red;stroke-width:1px;stroke-linecap:butt;stroke-linejoin:miter;stroke-opacity:1" d="M 466.48,767.675 456.764,764.76 z" id="boundary" inkscape:connector-curvature="0" />
	<path style="fill:none;stroke:red;stroke-width:1px;stroke-linecap:butt;stroke-linejoin:miter;stroke-opacity:1" d="M 456.764,764.76 447.048,762.817 z" id="boundary" inkscape:connector-curvature="0" />
	<path style="fill:none;stroke:red;stroke-width:1px;stroke-linecap:butt;stroke-linejoin:miter;stroke-opacity:1" d="M 447.048,762.817 437.332,762.817 z" id="boundary" inkscape:connector-curvature="0" />
	<path style="fill:none;stroke:red;stroke-width:1px;stroke-linecap:butt;stroke-linejoin:miter;stroke-opacity:1" d="M 437.332,762.817 427.616,762.817 z" id="boundary" inkscape:connector-curvature="0" />
	<path style="fill:none;stroke:red;stroke-width:1px;stroke-linecap:butt;stroke-linejoin:miter;stroke-opacity:1" d="M 427.616,762.817 418.872,757.959 z" id="boundary" inkscape:connector-curvature="0" />
	<path style="fill:none;stroke:red;stroke-width:1px;stroke-linecap:butt;stroke-linejoin:miter;stroke-opacity:1" d="M 418.872,757.959 409.156,757.959 z" id="boundary" inkscape:connector-curvature="0" />
	<path style="fill:none;stroke:red;stroke-width:1px;stroke-linecap:butt;stroke-linejoin:miter;stroke-opacity:1" d="M 409.156,757.959 399.44,756.016 z" id="boundary" inkscape:connector-curvature="0" />
	<path style="fill:none;stroke:red;stroke-width:1px;stroke-linecap:butt;stroke-linejoin:miter;stroke-opacity:1" d="M 399.44,756.016 389.724,753.101 z" id="boundary" inkscape:connector-curvature="0" />
	<path style="fill:none;stroke:red;stroke-width:1px;stroke-linecap:butt;stroke-linejoin:miter;stroke-opacity:1" d="M 389.724,753.101 380.008,753.101 z" id="boundary" inkscape:connector-curvature="0" />
	<path style="fill:none;stroke:red;stroke-width:1px;stroke-linecap:butt;stroke-linejoin:miter;stroke-opacity:1" d="M 380.008,753.101 370.292,753.101 z" id="boundary" inkscape:connector-curvature="0" />
	<path style="fill:none;stroke:red;stroke-width:1px;stroke-linecap:butt;stroke-linejoin:miter;stroke-opacity:1" d="M 370.292,753.101 360.576,753.101 z" id="boundary" inkscape:connector-curvature="0" />
	<path style="fill:none;stroke:red;stroke-width:1px;stroke-linecap:butt;stroke-linejoin:miter;stroke-opacity:1" d="M 360.576,753.101 350.86,753.101 z" id="boundary" inkscape:connector-curvature="0" />
	<path style="fill:none;stroke:red;stroke-width:1px;stroke-linecap:butt;stroke-linejoin:miter;stroke-opacity:1" d="M 350.86,753.101 341.144,753.101 z" id="boundary" inkscape:connector-curvature="0" />
	<path style="fill:none;stroke:red;stroke-width:1px;stroke-linecap:butt;stroke-linejoin:miter;stroke-opacity:1" d="M 341.144,753.101 331.428,753.101 z" id="boundary" inkscape:connector-curvature="0" />
	<path style="fill:none;stroke:red;stroke-width:1px;stroke-linecap:butt;stroke-linejoin:miter;stroke-opacity:1" d="M 331.428,753.101 321.712,753.101 z" id="boundary" inkscape:connector-curvature="0" />
	<path style="fill:none;stroke:red;stroke-width:1px;stroke-linecap:butt;stroke-linejoin:miter;stroke-opacity:1" d="M 321.712,753.101 311.996,753.101 z" id="boundary" inkscape:connector-curvature="0" />
	<path style="fill:none;stroke:red;stroke-width:1px;stroke-linecap:butt;stroke-linejoin:miter;stroke-opacity:1" d="M 311.996,753.101 302.28,753.101 z" id="boundary" inkscape:connector-curvature="0" />
	<path style="fill:none;stroke:red;stroke-width:1px;stroke-linecap:butt;stroke-linejoin:miter;stroke-opacity:1" d="M 302.28,753.101 292.564,753.101 z" id="boundary" inkscape:connector-curvature="0" />
	<path style="fill:none;stroke:red;stroke-width:1px;stroke-linecap:butt;stroke-linejoin:miter;stroke-opacity:1" d="M 292.564,753.101 283.82,748.243 z" id="boundary" inkscape:connector-curvature="0" />
	<path style="fill:none;stroke:red;stroke-width:1px;stroke-linecap:butt;stroke-linejoin:miter;stroke-opacity:1" d="M 283.82,748.243 274.104,747.271 z" id="boundary" inkscape:connector-curvature="0" />
	<path style="fill:none;stroke:red;stroke-width:1px;stroke-linecap:butt;stroke-linejoin:miter;stroke-opacity:1" d="M 274.104,747.271 264.388,743.385 z" id="boundary" inkscape:connector-curvature="0" />
	<path style="fill:none;stroke:red;stroke-width:1px;stroke-linecap:butt;stroke-linejoin:miter;stroke-opacity:1" d="M 264.388,743.385 254.672,743.385 z" id="boundary" inkscape:connector-curvature="0" />
	<path style="fill:none;stroke:red;stroke-width:1px;stroke-linecap:butt;stroke-linejoin:miter;stroke-opacity:1" d="M 254.672,743.385 245.928,738.527 z" id="boundary" inkscape:connector-curvature="0" />
	<path style="fill:none;stroke:red;stroke-width:1px;stroke-linecap:butt;stroke-linejoin:miter;stroke-opacity:1" d="M 245.928,738.527 237.183,733.669 z" id="boundary" inkscape:connector-curvature="0" />
	<path style="fill:none;stroke:red;stroke-width:1px;stroke-linecap:butt;stroke-linejoin:miter;stroke-opacity:1" d="M 237.183,733.669 227.467,730.754 z" id="boundary" inkscape:connector-curvature="0" />
	<path style="fill:none;stroke:red;stroke-width:1px;stroke-linecap:butt;stroke-linejoin:miter;stroke-opacity:1" d="M 227.467,730.754 218.723,725.896 z" id="boundary" inkscape:connector-curvature="0" />
	<path style="fill:none;stroke:red;stroke-width:1px;stroke-linecap:butt;stroke-linejoin:miter;stroke-opacity:1" d="M 218.723,725.896 209.007,723.953 z" id="boundary" inkscape:connector-curvature="0" />
	<path style="fill:none;stroke:red;stroke-width:1px;stroke-linecap:butt;stroke-linejoin:miter;stroke-opacity:1" d="M 209.007,723.953 199.291,721.038 z" id="boundary" inkscape:connector-curvature="0" />
	<path style="fill:none;stroke:red;stroke-width:1px;stroke-linecap:butt;stroke-linejoin:miter;stroke-opacity:1" d="M 199.291,721.038 189.575,719.095 z" id="boundary" inkscape:connector-curvature="0" />
	<path style="fill:none;stroke:red;stroke-width:1px;stroke-linecap:butt;stroke-linejoin:miter;stroke-opacity:1" d="M 189.575,719.095 180.831,714.237 z" id="boundary" inkscape:connector-curvature="0" />
	<path style="fill:none;stroke:red;stroke-width:1px;stroke-linecap:butt;stroke-linejoin:miter;stroke-opacity:1" d="M 180.831,714.237 172.086,709.379 z" id="boundary" inkscape:connector-curvature="0" />
	<path style="fill:none;stroke:red;stroke-width:1px;stroke-linecap:butt;stroke-linejoin:miter;stroke-opacity:1" d="M 172.086,709.379 162.37,709.379 z" id="boundary" inkscape:connector-curvature="0" />
	<path style="fill:none;stroke:red;stroke-width:1px;stroke-linecap:butt;stroke-linejoin:miter;stroke-opacity:1" d="M 162.37,709.379 153.626,704.521 z" id="boundary" inkscape:connector-curvature="0" />
	<path style="fill:none;stroke:red;stroke-width:1px;stroke-linecap:butt;stroke-linejoin:miter;stroke-opacity:1" d="M 153.626,704.521 144.881,699.663 z" id="boundary" inkscape:connector-curvature="0" />
	<path style="fill:none;stroke:red;stroke-width:1px;stroke-linecap:butt;stroke-linejoin:miter;stroke-opacity:1" d="M 144.881,699.663 135.166,699.663 z" id="boundary" inkscape:connector-curvature="0" />
	<path style="fill:none;stroke:red;stroke-width:1px;stroke-linecap:butt;stroke-linejoin:miter;stroke-opacity:1" d="M 135.166,699.663 125.45,699.663 z" id="boundary" inkscape:connector-curvature="0" />
	<path style="fill:none;stroke:red;stroke-width:1px;stroke-linecap:butt;stroke-linejoin:miter;stroke-opacity:1" d="M 125.45,699.663 116.705,694.805 z" id="boundary" inkscape:connector-curvature="0" />
	<path style="fill:none;stroke:red;stroke-width:1px;stroke-linecap:butt;stroke-linejoin:miter;stroke-opacity:1" d="M 116.705,694.805 106.989,691.89 z" id="boundary" inkscape:connector-curvature="0" />
	<path style="fill:none;stroke:red;stroke-width:1px;stroke-linecap:butt;stroke-linejoin:miter;stroke-opacity:1" d="M 106.989,691.89 97.2733,689.947 z" id="boundary" inkscape:connector-curvature="0" />
	<path style="fill:none;stroke:red;stroke-width:1px;stroke-linecap:butt;stroke-linejoin:miter;stroke-opacity:1" d="M 97.2733,689.947 87.5573,689.947 z" id="boundary" inkscape:connector-curvature="0" />
	<path style="fill:none;stroke:red;stroke-width:1px;stroke-linecap:butt;stroke-linejoin:miter;stroke-opacity:1" d="M 87.5573,689.947 78.8129,685.089 z" id="boundary" inkscape:connector-curvature="0" />
	<path style="fill:none;stroke:red;stroke-width:1px;stroke-linecap:butt;stroke-linejoin:miter;stroke-opacity:1" d="M 78.8129,685.089 70.0686,680.231 z" id="boundary" inkscape:connector-curvature="0" />
	<path style="fill:none;stroke:red;stroke-width:1px;stroke-linecap:butt;stroke-linejoin:miter;stroke-opacity:1" d="M 70.0686,680.231 61.3242,675.373 z" id="boundary" inkscape:connector-curvature="0" />
	<path style="fill:none;stroke:red;stroke-width:1px;stroke-linecap:butt;stroke-linejoin:miter;stroke-opacity:1" d="M 61.3242,675.373 52.5798,670.515 z" id="boundary" inkscape:connector-curvature="0" />
	<path style="fill:none;stroke:red;stroke-width:1px;stroke-linecap:butt;stroke-linejoin:miter;stroke-opacity:1" d="M 52.5798,670.515 43.8355,665.657 z" id="boundary" inkscape:connector-curvature="0" />
	<path style="fill:none;stroke:red;stroke-width:1px;stroke-linecap:butt;stroke-linejoin:miter;stroke-opacity:1" d="M 43.8355,665.657 35.0911,660.799 z" id="boundary" inkscape:connector-curvature="0" />
	<path style="fill:none;stroke:red;stroke-width:1px;stroke-linecap:butt;stroke-linejoin:miter;stroke-opacity:1" d="M 35.0911,660.799 26.3467,655.941 z" id="boundary" inkscape:connector-curvature="0" />
	<path style="fill:none;stroke:red;stroke-width:1px;stroke-linecap:butt;stroke-linejoin:miter;stroke-opacity:1" d="M 26.3467,655.941 18.5739,650.112 z" id="boundary" inkscape:connector-curvature="0" />
	<path style="fill:none;stroke:red;stroke-width:1px;stroke-linecap:butt;stroke-linejoin:miter;stroke-opacity:1" d="M 18.5739,650.112 13.716,641.367 z" id="boundary" inkscape:connector-curvature="0" />
	<path style="fill:none;stroke:red;stroke-width:1px;stroke-linecap:butt;stroke-linejoin:miter;stroke-opacity:1" d="M 13.716,641.367 8.85798,632.623 z" id="boundary" inkscape:connector-curvature="0" />
	<path style="fill:none;stroke:red;stroke-width:1px;stroke-linecap:butt;stroke-linejoin:miter;stroke-opacity:1" d="M 8.85798,632.623 4,623.879 z" id="boundary" inkscape:connector-curvature="0" />
	<path style="fill:none;stroke:red;stroke-width:1px;stroke-linecap:butt;stroke-linejoin:miter;stroke-opacity:1" d="M 4,623.879 4,614.163 z" id="boundary" inkscape:connector-curvature="0" />
	<path style="fill:none;stroke:red;stroke-width:1px;stroke-linecap:butt;stroke-linejoin:miter;stroke-opacity:1" d="M 4,614.163 4,604.447 z" id="boundary" inkscape:connector-curvature="0" />
	<path style="fill:none;stroke:red;stroke-width:1px;stroke-linecap:butt;stroke-linejoin:miter;stroke-opacity:1" d="M 4,604.447 4,594.731 z" id="boundary" inkscape:connector-curvature="0" />
	<path style="fill:none;stroke:red;stroke-width:1px;stroke-linecap:butt;stroke-linejoin:miter;stroke-opacity:1" d="M 4,594.731 4,585.015 z" id="boundary" inkscape:connector-curvature="0" />
	<path style="fill:none;stroke:red;stroke-width:1px;stroke-linecap:butt;stroke-linejoin:miter;stroke-opacity:1" d="M 4,585.015 4,575.299 z" id="boundary" inkscape:connector-curvature="0" />
	<path style="fill:none;stroke:red;stroke-width:1px;stroke-linecap:butt;stroke-linejoin:miter;stroke-opacity:1" d="M 4,575.299 4,565.583 z" id="boundary" inkscape:connector-curvature="0" />
	<path style="fill:none;stroke:red;stroke-width:1px;stroke-linecap:butt;stroke-linejoin:miter;stroke-opacity:1" d="M 4,565.583 4,555.867 z" id="boundary" inkscape:connector-curvature="0" />
	<path style="fill:none;stroke:red;stroke-width:1px;stroke-linecap:butt;stroke-linejoin:miter;stroke-opacity:1" d="M 4,555.867 8.85798,546.151 z" id="boundary" inkscape:connector-curvature="0" />
	<path style="fill:none;stroke:red;stroke-width:1px;stroke-linecap:butt;stroke-linejoin:miter;stroke-opacity:1" d="M 8.85798,546.151 16.6308,538.378 z" id="boundary" inkscape:connector-curvature="0" />
	<path style="fill:none;stroke:red;stroke-width:1px;stroke-linecap:butt;stroke-linejoin:miter;stroke-opacity:1" d="M 16.6308,538.378 21.4887,528.662 z" id="boundary" inkscape:connector-curvature="0" />
	<path style="fill:none;stroke:red;stroke-width:1px;stroke-linecap:butt;stroke-linejoin:miter;stroke-opacity:1" d="M 21.4887,528.662 29.2615,520.889 z" id="boundary" inkscape:connector-curvature="0" />
	<path style="fill:none;stroke:red;stroke-width:1px;stroke-linecap:butt;stroke-linejoin:miter;stroke-opacity:1" d="M 29.2615,520.889 37.0343,514.088 z" id="boundary" inkscape:connector-curvature="0" />
	<path style="fill:none;stroke:red;stroke-width:1px;stroke-linecap:butt;stroke-linejoin:miter;stroke-opacity:1" d="M 37.0343,514.088 43.8355,506.315 z" id="boundary" inkscape:connector-curvature="0" />
	<path style="fill:none;stroke:red;stroke-width:1px;stroke-linecap:butt;stroke-linejoin:miter;stroke-opacity:1" d="M 43.8355,506.315 51.6082,499.514 z" id="boundary" inkscape:connector-curvature="0" />
	<path style="fill:none;stroke:red;stroke-width:1px;stroke-linecap:butt;stroke-linejoin:miter;stroke-opacity:1" d="M 51.6082,499.514 58.4094,491.741 z" id="boundary" inkscape:connector-curvature="0" />
	<path style="fill:none;stroke:red;stroke-width:1px;stroke-linecap:butt;stroke-linejoin:miter;stroke-opacity:1" d="M 58.4094,491.741 66.1822,484.94 z" id="boundary" inkscape:connector-curvature="0" />
	<path style="fill:none;stroke:red;stroke-width:1px;stroke-linecap:butt;stroke-linejoin:miter;stroke-opacity:1" d="M 66.1822,484.94 72.9833,477.167 z" id="boundary" inkscape:connector-curvature="0" />
	<path style="fill:none;stroke:red;stroke-width:1px;stroke-linecap:butt;stroke-linejoin:miter;stroke-opacity:1" d="M 72.9833,477.167 80.7561,470.366 z" id="boundary" inkscape:connector-curvature="0" />
	<path style="fill:none;stroke:red;stroke-width:1px;stroke-linecap:butt;stroke-linejoin:miter;stroke-opacity:1" d="M 80.7561,470.366 89.5005,465.508 z" id="boundary" inkscape:connector-curvature="0" />
	<path style="fill:none;stroke:red;stroke-width:1px;stroke-linecap:butt;stroke-linejoin:miter;stroke-opacity:1" d="M 89.5005,465.508 98.2449,460.65 z" id="boundary" inkscape:connector-curvature="0" />
	<path style="fill:none;stroke:red;stroke-width:1px;stroke-linecap:butt;stroke-linejoin:miter;stroke-opacity:1" d="M 98.2449,460.65 106.989,455.792 z" id="boundary" inkscape:connector-curvature="0" />
	<path style="fill:none;stroke:red;stroke-width:1px;stroke-linecap:butt;stroke-linejoin:miter;stroke-opacity:1" d="M 106.989,455.792 115.734,450.934 z" id="boundary" inkscape:connector-curvature="0" />
	<path style="fill:none;stroke:red;stroke-width:1px;stroke-linecap:butt;stroke-linejoin:miter;stroke-opacity:1" d="M 115.734,450.934 124.478,446.076 z" id="boundary" inkscape:connector-curvature="0" />
	<path style="fill:none;stroke:red;stroke-width:1px;stroke-linecap:butt;stroke-linejoin:miter;stroke-opacity:1" d="M 124.478,446.076 133.222,441.218 z" id="boundary" inkscape:connector-curvature="0" />
	<path style="fill:none;stroke:red;stroke-width:1px;stroke-linecap:butt;stroke-linejoin:miter;stroke-opacity:1" d="M 133.222,441.218 142.938,441.218 z" id="boundary" inkscape:connector-curvature="0" />
	<path style="fill:none;stroke:red;stroke-width:1px;stroke-linecap:butt;stroke-linejoin:miter;stroke-opacity:1" d="M 142.938,441.218 151.683,436.36 z" id="boundary" inkscape:connector-curvature="0" />
	<path style="fill:none;stroke:red;stroke-width:1px;stroke-linecap:butt;stroke-linejoin:miter;stroke-opacity:1" d="M 151.683,436.36 161.399,432.474 z" id="boundary" inkscape:connector-curvature="0" />
	<path style="fill:none;stroke:red;stroke-width:1px;stroke-linecap:butt;stroke-linejoin:miter;stroke-opacity:1" d="M 161.399,432.474 171.115,427.616 z" id="boundary" inkscape:connector-curvature="0" />
	<path style="fill:none;stroke:red;stroke-width:1px;stroke-linecap:butt;stroke-linejoin:miter;stroke-opacity:1" d="M 171.115,427.616 178.887,414.985 z" id="boundary" inkscape:connector-curvature="0" />
	<path style="fill:none;stroke:red;stroke-width:1px;stroke-linecap:butt;stroke-linejoin:miter;stroke-opacity:1" d="M 178.887,414.985 183.745,405.269 z" id="boundary" inkscape:connector-curvature="0" />
	<path style="fill:none;stroke:red;stroke-width:1px;stroke-linecap:butt;stroke-linejoin:miter;stroke-opacity:1" d="M 183.745,405.269 191.518,397.497 z" id="boundary" inkscape:connector-curvature="0" />
	<path style="fill:none;stroke:red;stroke-width:1px;stroke-linecap:butt;stroke-linejoin:miter;stroke-opacity:1" d="M 191.518,397.497 196.376,387.781 z" id="boundary" inkscape:connector-curvature="0" />
	<path style="fill:none;stroke:red;stroke-width:1px;stroke-linecap:butt;stroke-linejoin:miter;stroke-opacity:1" d="M 196.376,387.781 201.234,378.065 z" id="boundary" inkscape:connector-curvature="0" />
	<path style="fill:none;stroke:red;stroke-width:1px;stroke-linecap:butt;stroke-linejoin:miter;stroke-opacity:1" d="M 201.234,378.065 209.007,370.292 z" id="boundary" inkscape:connector-curvature="0" />
	<path style="fill:none;stroke:red;stroke-width:1px;stroke-linecap:butt;stroke-linejoin:miter;stroke-opacity:1" d="M 209.007,370.292 218.723,365.434 z" id="boundary" inkscape:connector-curvature="0" />
	<path style="fill:none;stroke:red;stroke-width:1px;stroke-linecap:butt;stroke-linejoin:miter;stroke-opacity:1" d="M 218.723,365.434 226.496,358.633 z" id="boundary" inkscape:connector-curvature="0" />
	<path style="fill:none;stroke:red;stroke-width:1px;stroke-linecap:butt;stroke-linejoin:miter;stroke-opacity:1" d="M 226.496,358.633 235.24,353.775 z" id="boundary" inkscape:connector-curvature="0" />
	<path style="fill:none;stroke:red;stroke-width:1px;stroke-linecap:butt;stroke-linejoin:miter;stroke-opacity:1" d="M 235.24,353.775 244.956,348.917 z" id="boundary" inkscape:connector-curvature="0" />
	<path style="fill:none;stroke:red;stroke-width:1px;stroke-linecap:butt;stroke-linejoin:miter;stroke-opacity:1" d="M 244.956,348.917 254.672,348.917 z" id="boundary" inkscape:connector-curvature="0" />
	<path style="fill:none;stroke:red;stroke-width:1px;stroke-linecap:butt;stroke-linejoin:miter;stroke-opacity:1" d="M 254.672,348.917 263.416,344.059 z" id="boundary" inkscape:connector-curvature="0" />
	<path style="fill:none;stroke:red;stroke-width:1px;stroke-linecap:butt;stroke-linejoin:miter;stroke-opacity:1" d="M 263.416,344.059 273.132,344.059 z" id="boundary" inkscape:connector-curvature="0" />
	<path style="fill:none;stroke:red;stroke-width:1px;stroke-linecap:butt;stroke-linejoin:miter;stroke-opacity:1" d="M 273.132,344.059 282.848,344.059 z" id="boundary" inkscape:connector-curvature="0" />
	<path style="fill:none;stroke:red;stroke-width:1px;stroke-linecap:butt;stroke-linejoin:miter;stroke-opacity:1" d="M 282.848,344.059 292.564,344.059 z" id="boundary" inkscape:connector-curvature="0" />
	<path style="fill:none;stroke:red;stroke-width:1px;stroke-linecap:butt;stroke-linejoin:miter;stroke-opacity:1" d="M 292.564,344.059 302.28,344.059 z" id="boundary" inkscape:connector-curvature="0" />
	<path style="fill:none;stroke:red;stroke-width:1px;stroke-linecap:butt;stroke-linejoin:miter;stroke-opacity:1" d="M 302.28,344.059 311.996,344.059 z" id="boundary" inkscape:connector-curvature="0" />
	<path style="fill:none;stroke:red;stroke-width:1px;stroke-linecap:butt;stroke-linejoin:miter;stroke-opacity:1" d="M 311.996,344.059 321.712,344.059 z" id="boundary" inkscape:connector-curvature="0" />
	<path style="fill:none;stroke:red;stroke-width:1px;stroke-linecap:butt;stroke-linejoin:miter;stroke-opacity:1" d="M 321.712,344.059 331.428,344.059 z" id="boundary" inkscape:connector-curvature="0" />
	<path style="fill:none;stroke:red;stroke-width:1px;stroke-linecap:butt;stroke-linejoin:miter;stroke-opacity:1" d="M 331.428,344.059 341.144,344.059 z" id="boundary" inkscape:connector-curvature="0" />
	<path style="fill:none;stroke:red;stroke-width:1px;stroke-linecap:butt;stroke-linejoin:miter;stroke-opacity:1" d="M 341.144,344.059 350.86,344.059 z" id="boundary" inkscape:connector-curvature="0" />
	<path style="fill:none;stroke:red;stroke-width:1px;stroke-linecap:butt;stroke-linejoin:miter;stroke-opacity:1" d="M 350.86,344.059 360.576,344.059 z" id="boundary" inkscape:connector-curvature="0" />
	<path style="fill:none;stroke:red;stroke-width:1px;stroke-linecap:butt;stroke-linejoin:miter;stroke-opacity:1" d="M 360.576,344.059 370.292,344.059 z" id="boundary" inkscape:connector-curvature="0" />
	<path style="fill:none;stroke:red;stroke-width:1px;stroke-linecap:butt;stroke-linejoin:miter;stroke-opacity:1" d="M 370.292,344.059 380.008,344.059 z" id="boundary" inkscape:connector-curvature="0" />
	<path style="fill:none;stroke:red;stroke-width:1px;stroke-linecap:butt;stroke-linejoin:miter;stroke-opacity:1" d="M 380.008,344.059 389.724,344.059 z" id="boundary" inkscape:connector-curvature="0" />
	<path style="fill:none;stroke:red;stroke-width:1px;stroke-linecap:butt;stroke-linejoin:miter;stroke-opacity:1" d="M 389.724,344.059 399.44,344.059 z" id="boundary" inkscape:connector-curvature="0" />
	<path style="fill:none;stroke:red;stroke-width:1px;stroke-linecap:butt;stroke-linejoin:miter;stroke-opacity:1" d="M 399.44,344.059 409.156,344.059 z" id="boundary" inkscape:connector-curvature="0" />
	<path style="fill:none;stroke:red;stroke-width:1px;stroke-linecap:butt;stroke-linejoin:miter;stroke-opacity:1" d="M 409.156,344.059 418.872,344.059 z" id="boundary" inkscape:connector-curvature="0" />
	<path style="fill:none;stroke:red;stroke-width:1px;stroke-linecap:butt;stroke-linejoin:miter;stroke-opacity:1" d="M 418.872,344.059 426.644,337.258 z" id="boundary" inkscape:connector-curvature="0" />
	<path style="fill:none;stroke:red;stroke-width:1px;stroke-linecap:butt;stroke-linejoin:miter;stroke-opacity:1" d="M 426.644,337.258 431.502,327.542 z" id="boundary" inkscape:connector-curvature="0" />
	<path style="fill:none;stroke:red;stroke-width:1px;stroke-linecap:butt;stroke-linejoin:miter;stroke-opacity:1" d="M 431.502,327.542 436.36,317.826 z" id="boundary" inkscape:connector-curvature="0" />
	<path style="fill:none;stroke:red;stroke-width:1px;stroke-linecap:butt;stroke-linejoin:miter;stroke-opacity:1" d="M 436.36,317.826 441.218,303.252 z" id="boundary" inkscape:connector-curvature="0" />
	<path style="fill:none;stroke:red;stroke-width:1px;stroke-linecap:butt;stroke-linejoin:miter;stroke-opacity:1" d="M 441.218,303.252 446.076,293.536 z" id="boundary" inkscape:connector-curvature="0" />
	<path style="fill:none;stroke:red;stroke-width:1px;stroke-linecap:butt;stroke-linejoin:miter;stroke-opacity:1" d="M 446.076,293.536 446.076,283.82 z" id="boundary" inkscape:connector-curvature="0" />
	<path style="fill:none;stroke:red;stroke-width:1px;stroke-linecap:butt;stroke-linejoin:miter;stroke-opacity:1" d="M 446.076,283.82 450.934,272.161 z" id="boundary" inkscape:connector-curvature="0" />
	<path style="fill:none;stroke:red;stroke-width:1px;stroke-linecap:butt;stroke-linejoin:miter;stroke-opacity:1" d="M 450.934,272.161 450.934,262.445 z" id="boundary" inkscape:connector-curvature="0" />
	<path style="fill:none;stroke:red;stroke-width:1px;stroke-linecap:butt;stroke-linejoin:miter;stroke-opacity:1" d="M 450.934,262.445 450.934,252.729 z" id="boundary" inkscape:connector-curvature="0" />
	<path style="fill:none;stroke:red;stroke-width:1px;stroke-linecap:butt;stroke-linejoin:miter;stroke-opacity:1" d="M 450.934,252.729 450.934,243.013 z" id="boundary" inkscape:connector-curvature="0" />
	<path style="fill:none;stroke:red;stroke-width:1px;stroke-linecap:butt;stroke-linejoin:miter;stroke-opacity:1" d="M 450.934,243.013 450.934,233.297 z" id="boundary" inkscape:connector-curvature="0" />
	<path style="fill:none;stroke:red;stroke-width:1px;stroke-linecap:butt;stroke-linejoin:miter;stroke-opacity:1" d="M 450.934,233.297 450.934,223.581 z" id="boundary" inkscape:connector-curvature="0" />
	<path style="fill:none;stroke:red;stroke-width:1px;stroke-linecap:butt;stroke-linejoin:miter;stroke-opacity:1" d="M 450.934,223.581 450.934,213.865 z" id="boundary" inkscape:connector-curvature="0" />
	<path style="fill:none;stroke:red;stroke-width:1px;stroke-linecap:butt;stroke-linejoin:miter;stroke-opacity:1" d="M 450.934,213.865 450.934,204.149 z" id="boundary" inkscape:connector-curvature="0" />
	<path style="fill:none;stroke:red;stroke-width:1px;stroke-linecap:butt;stroke-linejoin:miter;stroke-opacity:1" d="M 450.934,204.149 449.963,194.433 z" id="boundary" inkscape:connector-curvature="0" />
	<path style="fill:none;stroke:red;stroke-width:1px;stroke-linecap:butt;stroke-linejoin:miter;stroke-opacity:1" d="M 449.963,194.433 440.247,194.433 z" id="boundary" inkscape:connector-curvature="0" />
	<path style="fill:none;stroke:red;stroke-width:1px;stroke-linecap:butt;stroke-linejoin:miter;stroke-opacity:1" d="M 440.247,194.433 430.531,194.433 z" id="boundary" inkscape:connector-curvature="0" />
	<path style="fill:none;stroke:red;stroke-width:1px;stroke-linecap:butt;stroke-linejoin:miter;stroke-opacity:1" d="M 430.531,194.433 421.786,189.575 z" id="boundary" inkscape:connector-curvature="0" />
	<path style="fill:none;stroke:red;stroke-width:1px;stroke-linecap:butt;stroke-linejoin:miter;stroke-opacity:1" d="M 421.786,189.575 412.071,189.575 z" id="boundary" inkscape:connector-curvature="0" />
	<path style="fill:none;stroke:red;stroke-width:1px;stroke-linecap:butt;stroke-linejoin:miter;stroke-opacity:1" d="M 412.071,189.575 403.326,184.717 z" id="boundary" inkscape:connector-curvature="0" />
	<path style="fill:none;stroke:red;stroke-width:1px;stroke-linecap:butt;stroke-linejoin:miter;stroke-opacity:1" d="M 403.326,184.717 393.61,181.802 z" id="boundary" inkscape:connector-curvature="0" />
	<path style="fill:none;stroke:red;stroke-width:1px;stroke-linecap:butt;stroke-linejoin:miter;stroke-opacity:1" d="M 393.61,181.802 383.894,179.859 z" id="boundary" inkscape:connector-curvature="0" />
	<path style="fill:none;stroke:red;stroke-width:1px;stroke-linecap:butt;stroke-linejoin:miter;stroke-opacity:1" d="M 383.894,179.859 374.178,179.859 z" id="boundary" inkscape:connector-curvature="0" />
	<path style="fill:none;stroke:red;stroke-width:1px;stroke-linecap:butt;stroke-linejoin:miter;stroke-opacity:1" d="M 374.178,179.859 365.434,175.001 z" id="boundary" inkscape:connector-curvature="0" />
	<path style="fill:none;stroke:red;stroke-width:1px;stroke-linecap:butt;stroke-linejoin:miter;stroke-opacity:1" d="M 365.434,175.001 355.718,173.058 z" id="boundary" inkscape:connector-curvature="0" />
	<path style="fill:none;stroke:red;stroke-width:1px;stroke-linecap:butt;stroke-linejoin:miter;stroke-opacity:1" d="M 355.718,173.058 346.002,169.171 z" id="boundary" inkscape:connector-curvature="0" />
	<path style="fill:none;stroke:red;stroke-width:1px;stroke-linecap:butt;stroke-linejoin:miter;stroke-opacity:1" d="M 346.002,169.171 339.201,161.399 z" id="boundary" inkscape:connector-curvature="0" />
	<path style="fill:none;stroke:red;stroke-width:1px;stroke-linecap:butt;stroke-linejoin:miter;stroke-opacity:1" d="M 339.201,161.399 334.343,152.654 z" id="boundary" inkscape:connector-curvature="0" />
	<path style="fill:none;stroke:red;stroke-width:1px;stroke-linecap:butt;stroke-linejoin:miter;stroke-opacity:1" d="M 334.343,152.654 339.201,142.938 z" id="boundary" inkscape:connector-curvature="0" />
	<path style="fill:none;stroke:red;stroke-width:1px;stroke-linecap:butt;stroke-linejoin:miter;stroke-opacity:1" d="M 339.201,142.938 344.059,133.222 z" id="boundary" inkscape:connector-curvature="0" />
	<path style="fill:none;stroke:red;stroke-width:1px;stroke-linecap:butt;stroke-linejoin:miter;stroke-opacity:1" d="M 344.059,133.222 351.832,125.45 z" id="boundary" inkscape:connector-curvature="0" />
	<path style="fill:none;stroke:red;stroke-width:1px;stroke-linecap:butt;stroke-linejoin:miter;stroke-opacity:1" d="M 351.832,125.45 361.548,120.592 z" id="boundary" inkscape:connector-curvature="0" />
	<path style="fill:none;stroke:red;stroke-width:1px;stroke-linecap:butt;stroke-linejoin:miter;stroke-opacity:1" d="M 361.548,120.592 371.263,115.734 z" id="boundary" inkscape:connector-curvature="0" />
	<path style="fill:none;stroke:red;stroke-width:1px;stroke-linecap:butt;stroke-linejoin:miter;stroke-opacity:1" d="M 371.263,115.734 380.979,115.734 z" id="boundary" inkscape:connector-curvature="0" />
	<path style="fill:none;stroke:red;stroke-width:1px;stroke-linecap:butt;stroke-linejoin:miter;stroke-opacity:1" d="M 380.979,115.734 390.695,115.734 z" id="boundary" inkscape:connector-curvature="0" />
	<path style="fill:none;stroke:red;stroke-width:1px;stroke-linecap:butt;stroke-linejoin:miter;stroke-opacity:1" d="M 390.695,115.734 400.411,115.734 z" id="boundary" inkscape:connector-curvature="0" />
	<path style="fill:none;stroke:red;stroke-width:1px;stroke-linecap:butt;stroke-linejoin:miter;stroke-opacity:1" d="M 400.411,115.734 410.127,115.734 z" id="boundary" inkscape:connector-curvature="0" />
	<path style="fill:none;stroke:red;stroke-width:1px;stroke-linecap:butt;stroke-linejoin:miter;stroke-opacity:1" d="M 410.127,115.734 419.843,115.734 z" id="boundary" inkscape:connector-curvature="0" />
	<path style="fill:none;stroke:red;stroke-width:1px;stroke-linecap:butt;stroke-linejoin:miter;stroke-opacity:1" d="M 419.843,115.734 429.559,115.734 z" id="boundary" inkscape:connector-curvature="0" />
	<path style="fill:none;stroke:red;stroke-width:1px;stroke-linecap:butt;stroke-linejoin:miter;stroke-opacity:1" d="M 429.559,115.734 439.275,115.734 z" id="boundary" inkscape:connector-curvature="0" />
	<path style="fill:none;stroke:red;stroke-width:1px;stroke-linecap:butt;stroke-linejoin:miter;stroke-opacity:1" d="M 439.275,115.734 448.991,115.734 z" id="boundary" inkscape:connector-curvature="0" />
	<path style="fill:none;stroke:red;stroke-width:1px;stroke-linecap:butt;stroke-linejoin:miter;stroke-opacity:1" d="M 448.991,115.734 458.707,110.876 z" id="boundary" inkscape:connector-curvature="0" />
	<path style="fill:none;stroke:red;stroke-width:1px;stroke-linecap:butt;stroke-linejoin:miter;stroke-opacity:1" d="M 458.707,110.876 468.423,106.018 z" id="boundary" inkscape:connector-curvature="0" />
	<path style="fill:none;stroke:red;stroke-width:1px;stroke-linecap:butt;stroke-linejoin:miter;stroke-opacity:1" d="M 468.423,106.018 470.366,94.3585 z" id="boundary" inkscape:connector-curvature="0" />
	<path style="fill:none;stroke:red;stroke-width:1px;stroke-linecap:butt;stroke-linejoin:miter;stroke-opacity:1" d="M 470.366,94.3585 470.366,84.6425 z" id="boundary" inkscape:connector-curvature="0" />
	<path style="fill:none;stroke:red;stroke-width:1px;stroke-linecap:butt;stroke-linejoin:miter;stroke-opacity:1" d="M 470.366,84.6425 470.366,74.9265 z" id="boundary" inkscape:connector-curvature="0" />
	<path style="fill:none;stroke:red;stroke-width:1px;stroke-linecap:butt;stroke-linejoin:miter;stroke-opacity:1" d="M 470.366,74.9265 470.366,65.2106 z" id="boundary" inkscape:connector-curvature="0" />
	<path style="fill:none;stroke:red;stroke-width:1px;stroke-linecap:butt;stroke-linejoin:miter;stroke-opacity:1" d="M 470.366,65.2106 470.366,55.4946 z" id="boundary" inkscape:connector-curvature="0" />
	<path style="fill:none;stroke:red;stroke-width:1px;stroke-linecap:butt;stroke-linejoin:miter;stroke-opacity:1" d="M 470.366,55.4946 470.366,45.7786 z" id="boundary" inkscape:connector-curvature="0" />
	<path style="fill:none;stroke:red;stroke-width:1px;stroke-linecap:butt;stroke-linejoin:miter;stroke-opacity:1" d="M 470.366,45.7786 470.366,36.0627 z" id="boundary" inkscape:connector-curvature="0" />
	<path style="fill:none;stroke:red;stroke-width:1px;stroke-linecap:butt;stroke-linejoin:miter;stroke-opacity:1" d="M 470.366,36.0627 470.366,26.3467 z" id="boundary" inkscape:connector-curvature="0" />
	<path style="fill:none;stroke:red;stroke-width:1px;stroke-linecap:butt;stroke-linejoin:miter;stroke-opacity:1" d="M 470.366,26.3467 470.366,16.6308 z" id="boundary" inkscape:connector-curvature="0" />
	<path style="fill:none;stroke:red;stroke-width:1px;stroke-linecap:butt;stroke-linejoin:miter;stroke-opacity:1" d="M 470.366,16.6308 478.139,8.85798 z" id="boundary" inkscape:connector-curvature="0" />
	<path style="fill:none;stroke:red;stroke-width:1px;stroke-linecap:butt;stroke-linejoin:miter;stroke-opacity:1" d="M 478.139,8.85798 486.883,4 z" id="boundary" inkscape:connector-curvature="0" />
	<path style="fill:none;stroke:red;stroke-width:1px;stroke-linecap:butt;stroke-linejoin:miter;stroke-opacity:1" d="M 486.883,4 496.599,4 z" id="boundary" inkscape:connector-curvature="0" />
	<path style="fill:none;stroke:red;stroke-width:1px;stroke-linecap:butt;stroke-linejoin:miter;stroke-opacity:1" d="M 496.599,4 505.344,8.85798 z" id="boundary" inkscape:connector-curvature="0" />
	<path style="fill:none;stroke:red;stroke-width:1px;stroke-linecap:butt;stroke-linejoin:miter;stroke-opacity:1" d="M 505.344,8.85798 510.202,17.6024 z" id="boundary" inkscape:connector-curvature="0" />
	<path style="fill:none;stroke:red;stroke-width:1px;stroke-linecap:butt;stroke-linejoin:miter;stroke-opacity:1" d="M 510.202,17.6024 510.202,27.3183 z" id="boundary" inkscape:connector-curvature="0" />
	<path style="fill:none;stroke:red;stroke-width:1px;stroke-linecap:butt;stroke-linejoin:miter;stroke-opacity:1" d="M 510.202,27.3183 510.202,37.0343 z" id="boundary" inkscape:connector-curvature="0" />
	<path style="fill:none;stroke:red;stroke-width:1px;stroke-linecap:butt;stroke-linejoin:miter;stroke-opacity:1" d="M 510.202,37.0343 510.202,46.7502 z" id="boundary" inkscape:connector-curvature="0" />
	<path style="fill:none;stroke:red;stroke-width:1px;stroke-linecap:butt;stroke-linejoin:miter;stroke-opacity:1" d="M 510.202,46.7502 510.202,56.4662 z" id="boundary" inkscape:connector-curvature="0" />
	<path style="fill:none;stroke:red;stroke-width:1px;stroke-linecap:butt;stroke-linejoin:miter;stroke-opacity:1" d="M 510.202,56.4662 510.202,66.1822 z" id="boundary" inkscape:connector-curvature="0" />
	<path style="fill:none;stroke:red;stroke-width:1px;stroke-linecap:butt;stroke-linejoin:miter;stroke-opacity:1" d="M 510.202,66.1822 510.202,75.8981 z" id="boundary" inkscape:connector-curvature="0" />
	<path style="fill:none;stroke:red;stroke-width:1px;stroke-linecap:butt;stroke-linejoin:miter;stroke-opacity:1" d="M 510.202,75.8981 515.06,84.6425 z" id="boundary" inkscape:connector-curvature="0" />
	<path style="fill:none;stroke:red;stroke-width:1px;stroke-linecap:butt;stroke-linejoin:miter;stroke-opacity:1" d="M 515.06,84.6425 515.06,94.3585 z" id="boundary" inkscape:connector-curvature="0" />
	<path style="fill:none;stroke:red;stroke-width:1px;stroke-linecap:butt;stroke-linejoin:miter;stroke-opacity:1" d="M 515.06,94.3585 519.918,103.103 z" id="boundary" inkscape:connector-curvature="0" />
	<path style="fill:none;stroke:red;stroke-width:1px;stroke-linecap:butt;stroke-linejoin:miter;stroke-opacity:1" d="M 519.918,103.103 519.918,112.819 z" id="boundary" inkscape:connector-curvature="0" />
	<path style="fill:none;stroke:red;stroke-width:1px;stroke-linecap:butt;stroke-linejoin:miter;stroke-opacity:1" d="M 519.918,112.819 525.747,120.592 z" id="boundary" inkscape:connector-curvature="0" />
	<path style="fill:none;stroke:red;stroke-width:1px;stroke-linecap:butt;stroke-linejoin:miter;stroke-opacity:1" d="M 525.747,120.592 534.492,125.45 z" id="boundary" inkscape:connector-curvature="0" />
	<path style="fill:none;stroke:red;stroke-width:1px;stroke-linecap:butt;stroke-linejoin:miter;stroke-opacity:1" d="M 534.492,125.45 544.208,125.45 z" id="boundary" inkscape:connector-curvature="0" />
	<path style="fill:none;stroke:red;stroke-width:1px;stroke-linecap:butt;stroke-linejoin:miter;stroke-opacity:1" d="M 544.208,125.45 553.924,125.45 z" id="boundary" inkscape:connector-curvature="0" />
	<path style="fill:none;stroke:red;stroke-width:1px;stroke-linecap:butt;stroke-linejoin:miter;stroke-opacity:1" d="M 553.924,125.45 563.64,122.535 z" id="boundary" inkscape:connector-curvature="0" />
	<path style="fill:none;stroke:red;stroke-width:1px;stroke-linecap:butt;stroke-linejoin:miter;stroke-opacity:1" d="M 563.64,122.535 573.356,120.592 z" id="boundary" inkscape:connector-curvature="0" />
	<path style="fill:none;stroke:red;stroke-width:1px;stroke-linecap:butt;stroke-linejoin:miter;stroke-opacity:1" d="M 573.356,120.592 583.071,120.592 z" id="boundary" inkscape:connector-curvature="0" />
	<path style="fill:none;stroke:red;stroke-width:1px;stroke-linecap:butt;stroke-linejoin:miter;stroke-opacity:1" d="M 583.071,120.592 592.787,120.592 z" id="boundary" inkscape:connector-curvature="0" />
	<path style="fill:none;stroke:red;stroke-width:1px;stroke-linecap:butt;stroke-linejoin:miter;stroke-opacity:1" d="M 592.787,120.592 601.532,115.734 z" id="boundary" inkscape:connector-curvature="0" />
	<path style="fill:none;stroke:red;stroke-width:1px;stroke-linecap:butt;stroke-linejoin:miter;stroke-opacity:1" d="M 601.532,115.734 611.248,115.734 z" id="boundary" inkscape:connector-curvature="0" />
	<path style="fill:none;stroke:red;stroke-width:1px;stroke-linecap:butt;stroke-linejoin:miter;stroke-opacity:1" d="M 611.248,115.734 620.964,115.734 z" id="boundary" inkscape:connector-curvature="0" />
	<path style="fill:none;stroke:red;stroke-width:1px;stroke-linecap:butt;stroke-linejoin:miter;stroke-opacity:1" d="M 620.964,115.734 630.68,115.734 z" id="boundary" inkscape:connector-curvature="0" />
	<path style="fill:none;stroke:red;stroke-width:1px;stroke-linecap:butt;stroke-linejoin:miter;stroke-opacity:1" d="M 630.68,115.734 638.452,121.563 z" id="boundary" inkscape:connector-curvature="0" />
	<path style="fill:none;stroke:red;stroke-width:1px;stroke-linecap:butt;stroke-linejoin:miter;stroke-opacity:1" d="M 638.452,121.563 646.225,128.364 z" id="boundary" inkscape:connector-curvature="0" />
	<path style="fill:none;stroke:red;stroke-width:1px;stroke-linecap:butt;stroke-linejoin:miter;stroke-opacity:1" d="M 646.225,128.364 644.282,139.052 z" id="boundary" inkscape:connector-curvature="0" />
	<path style="fill:none;stroke:red;stroke-width:1px;stroke-linecap:butt;stroke-linejoin:miter;stroke-opacity:1" d="M 644.282,139.052 639.424,148.768 z" id="boundary" inkscape:connector-curvature="0" />
	<path style="fill:none;stroke:red;stroke-width:1px;stroke-linecap:butt;stroke-linejoin:miter;stroke-opacity:1" d="M 639.424,148.768 634.566,158.484 z" id="boundary" inkscape:connector-curvature="0" />
	<path style="fill:none;stroke:red;stroke-width:1px;stroke-linecap:butt;stroke-linejoin:miter;stroke-opacity:1" d="M 634.566,158.484 626.793,165.285 z" id="boundary" inkscape:connector-curvature="0" />
	<path style="fill:none;stroke:red;stroke-width:1px;stroke-linecap:butt;stroke-linejoin:miter;stroke-opacity:1" d="M 626.793,165.285 618.049,170.143 z" id="boundary" inkscape:connector-curvature="0" />
	<path style="fill:none;stroke:red;stroke-width:1px;stroke-linecap:butt;stroke-linejoin:miter;stroke-opacity:1" d="M 618.049,170.143 609.305,175.001 z" id="boundary" inkscape:connector-curvature="0" />
	<path style="fill:none;stroke:red;stroke-width:1px;stroke-linecap:butt;stroke-linejoin:miter;stroke-opacity:1" d="M 609.305,175.001 600.56,179.859 z" id="boundary" inkscape:connector-curvature="0" />
	<path style="fill:none;stroke:red;stroke-width:1px;stroke-linecap:butt;stroke-linejoin:miter;stroke-opacity:1" d="M 600.56,179.859 591.816,184.717 z" id="boundary" inkscape:connector-curvature="0" />
	<path style="fill:none;stroke:red;stroke-width:1px;stroke-linecap:butt;stroke-linejoin:miter;stroke-opacity:1" d="M 591.816,184.717 582.1,186.66 z" id="boundary" inkscape:connector-curvature="0" />
	<path style="fill:none;stroke:red;stroke-width:1px;stroke-linecap:butt;stroke-linejoin:miter;stroke-opacity:1" d="M 582.1,186.66 572.384,189.575 z" id="boundary" inkscape:connector-curvature="0" />
	<path style="fill:none;stroke:red;stroke-width:1px;stroke-linecap:butt;stroke-linejoin:miter;stroke-opacity:1" d="M 572.384,189.575 562.668,189.575 z" id="boundary" inkscape:connector-curvature="0" />
	<path style="fill:none;stroke:red;stroke-width:1px;stroke-linecap:butt;stroke-linejoin:miter;stroke-opacity:1" d="M 562.668,189.575 553.924,194.433 z" id="boundary" inkscape:connector-curvature="0" />
	<path style="fill:none;stroke:red;stroke-width:1px;stroke-linecap:butt;stroke-linejoin:miter;stroke-opacity:1" d="M 553.924,194.433 544.208,194.433 z" id="boundary" inkscape:connector-curvature="0" />
	<path style="fill:none;stroke:red;stroke-width:1px;stroke-linecap:butt;stroke-linejoin:miter;stroke-opacity:1" d="M 544.208,194.433 534.492,199.291 z" id="boundary" inkscape:connector-curvature="0" />
	<path style="fill:none;stroke:red;stroke-width:1px;stroke-linecap:butt;stroke-linejoin:miter;stroke-opacity:1" d="M 534.492,199.291 529.634,209.007 z" id="boundary" inkscape:connector-curvature="0" />
	<path style="fill:none;stroke:red;stroke-width:1px;stroke-linecap:butt;stroke-linejoin:miter;stroke-opacity:1" d="M 529.634,209.007 529.634,218.723 z" id="boundary" inkscape:connector-curvature="0" />
	<path style="fill:none;stroke:red;stroke-width:1px;stroke-linecap:butt;stroke-linejoin:miter;stroke-opacity:1" d="M 529.634,218.723 529.634,228.439 z" id="boundary" inkscape:connector-curvature="0" />
	<path style="fill:none;stroke:red;stroke-width:1px;stroke-linecap:butt;stroke-linejoin:miter;stroke-opacity:1" d="M 529.634,228.439 529.634,238.155 z" id="boundary" inkscape:connector-curvature="0" />
	<path style="fill:none;stroke:red;stroke-width:1px;stroke-linecap:butt;stroke-linejoin:miter;stroke-opacity:1" d="M 529.634,238.155 529.634,247.871 z" id="boundary" inkscape:connector-curvature="0" />
	<path style="fill:none;stroke:red;stroke-width:1px;stroke-linecap:butt;stroke-linejoin:miter;stroke-opacity:1" d="M 529.634,247.871 529.634,257.587 z" id="boundary" inkscape:connector-curvature="0" />
	<path style="fill:none;stroke:red;stroke-width:1px;stroke-linecap:butt;stroke-linejoin:miter;stroke-opacity:1" d="M 529.634,257.587 529.634,267.303 z" id="boundary" inkscape:connector-curvature="0" />
	<path style="fill:none;stroke:red;stroke-width:1px;stroke-linecap:butt;stroke-linejoin:miter;stroke-opacity:1" d="M 529.634,267.303 529.634,277.019 z" id="boundary" inkscape:connector-curvature="0" />
	<path style="fill:none;stroke:red;stroke-width:1px;stroke-linecap:butt;stroke-linejoin:miter;stroke-opacity:1" d="M 529.634,277.019 529.634,286.735 z" id="boundary" inkscape:connector-curvature="0" />
	<path style="fill:none;stroke:red;stroke-width:1px;stroke-linecap:butt;stroke-linejoin:miter;stroke-opacity:1" d="M 529.634,286.735 529.634,296.451 z" id="boundary" inkscape:connector-curvature="0" />
	<path style="fill:none;stroke:red;stroke-width:1px;stroke-linecap:butt;stroke-linejoin:miter;stroke-opacity:1" d="M 529.634,296.451 529.634,306.167 z" id="boundary" inkscape:connector-curvature="0" />
	<path style="fill:none;stroke:red;stroke-width:1px;stroke-linecap:butt;stroke-linejoin:miter;stroke-opacity:1" d="M 529.634,306.167 529.634,315.882 z" id="boundary" inkscape:connector-curvature="0" />
	<path style="fill:none;stroke:red;stroke-width:1px;stroke-linecap:butt;stroke-linejoin:miter;stroke-opacity:1" d="M 529.634,315.882 529.634,325.598 z" id="boundary" inkscape:connector-curvature="0" />
	<path style="fill:none;stroke:red;stroke-width:1px;stroke-linecap:butt;stroke-linejoin:miter;stroke-opacity:1" d="M 529.634,325.598 529.634,335.314 z" id="boundary" inkscape:connector-curvature="0" />
	<path style="fill:none;stroke:red;stroke-width:1px;stroke-linecap:butt;stroke-linejoin:miter;stroke-opacity:1" d="M 529.634,335.314 539.35,339.201 z" id="boundary" inkscape:connector-curvature="0" />
	<path style="fill:none;stroke:red;stroke-width:1px;stroke-linecap:butt;stroke-linejoin:miter;stroke-opacity:1" d="M 539.35,339.201 549.066,339.201 z" id="boundary" inkscape:connector-curvature="0" />
	<path style="fill:none;stroke:red;stroke-width:1px;stroke-linecap:butt;stroke-linejoin:miter;stroke-opacity:1" d="M 549.066,339.201 558.782,339.201 z" id="boundary" inkscape:connector-curvature="0" />
	<path style="fill:none;stroke:red;stroke-width:1px;stroke-linecap:butt;stroke-linejoin:miter;stroke-opacity:1" d="M 558.782,339.201 568.498,339.201 z" id="boundary" inkscape:connector-curvature="0" />
	<path style="fill:none;stroke:red;stroke-width:1px;stroke-linecap:butt;stroke-linejoin:miter;stroke-opacity:1" d="M 568.498,339.201 578.214,339.201 z" id="boundary" inkscape:connector-curvature="0" />
	<path style="fill:none;stroke:red;stroke-width:1px;stroke-linecap:butt;stroke-linejoin:miter;stroke-opacity:1" d="M 578.214,339.201 587.929,339.201 z" id="boundary" inkscape:connector-curvature="0" />
	<path style="fill:none;stroke:red;stroke-width:1px;stroke-linecap:butt;stroke-linejoin:miter;stroke-opacity:1" d="M 587.929,339.201 597.645,339.201 z" id="boundary" inkscape:connector-curvature="0" />
	<path style="fill:none;stroke:red;stroke-width:1px;stroke-linecap:butt;stroke-linejoin:miter;stroke-opacity:1" d="M 597.645,339.201 607.361,339.201 z" id="boundary" inkscape:connector-curvature="0" />
	<path style="fill:none;stroke:red;stroke-width:1px;stroke-linecap:butt;stroke-linejoin:miter;stroke-opacity:1" d="M 607.361,339.201 617.077,339.201 z" id="boundary" inkscape:connector-curvature="0" />
	<path style="fill:none;stroke:red;stroke-width:1px;stroke-linecap:butt;stroke-linejoin:miter;stroke-opacity:1" d="M 617.077,339.201 626.793,339.201 z" id="boundary" inkscape:connector-curvature="0" />
	<path style="fill:none;stroke:red;stroke-width:1px;stroke-linecap:butt;stroke-linejoin:miter;stroke-opacity:1" d="M 626.793,339.201 636.509,339.201 z" id="boundary" inkscape:connector-curvature="0" />
	<path style="fill:none;stroke:red;stroke-width:1px;stroke-linecap:butt;stroke-linejoin:miter;stroke-opacity:1" d="M 636.509,339.201 646.225,339.201 z" id="boundary" inkscape:connector-curvature="0" />
	<path style="fill:none;stroke:red;stroke-width:1px;stroke-linecap:butt;stroke-linejoin:miter;stroke-opacity:1" d="M 646.225,339.201 655.941,339.201 z" id="boundary" inkscape:connector-curvature="0" />
	<path style="fill:none;stroke:red;stroke-width:1px;stroke-linecap:butt;stroke-linejoin:miter;stroke-opacity:1" d="M 655.941,339.201 665.657,339.201 z" id="boundary" inkscape:connector-curvature="0" />
	<path style="fill:none;stroke:red;stroke-width:1px;stroke-linecap:butt;stroke-linejoin:miter;stroke-opacity:1" d="M 665.657,339.201 675.373,339.201 z" id="boundary" inkscape:connector-curvature="0" />
	<path style="fill:none;stroke:red;stroke-width:1px;stroke-linecap:butt;stroke-linejoin:miter;stroke-opacity:1" d="M 675.373,339.201 685.089,339.201 z" id="boundary" inkscape:connector-curvature="0" />
	<path style="fill:none;stroke:red;stroke-width:1px;stroke-linecap:butt;stroke-linejoin:miter;stroke-opacity:1" d="M 685.089,339.201 694.805,339.201 z" id="boundary" inkscape:connector-curvature="0" />
	<path style="fill:none;stroke:red;stroke-width:1px;stroke-linecap:butt;stroke-linejoin:miter;stroke-opacity:1" d="M 694.805,339.201 704.521,339.201 z" id="boundary" inkscape:connector-curvature="0" />
	<path style="fill:none;stroke:red;stroke-width:1px;stroke-linecap:butt;stroke-linejoin:miter;stroke-opacity:1" d="M 704.521,339.201 714.237,339.201 z" id="boundary" inkscape:connector-curvature="0" />
	<path style="fill:none;stroke:red;stroke-width:1px;stroke-linecap:butt;stroke-linejoin:miter;stroke-opacity:1" d="M 714.237,339.201 723.953,339.201 z" id="boundary" inkscape:connector-curvature="0" />
	<path style="fill:none;stroke:red;stroke-width:1px;stroke-linecap:butt;stroke-linejoin:miter;stroke-opacity:1" d="M 723.953,339.201 733.669,339.201 z" id="boundary" inkscape:connector-curvature="0" />
	<path style="fill:none;stroke:red;stroke-width:1px;stroke-linecap:butt;stroke-linejoin:miter;stroke-opacity:1" d="M 733.669,339.201 743.385,339.201 z" id="boundary" inkscape:connector-curvature="0" />
	<path style="fill:none;stroke:red;stroke-width:1px;stroke-linecap:butt;stroke-linejoin:miter;stroke-opacity:1" d="M 743.385,339.201 753.101,339.201 z" id="boundary" inkscape:connector-curvature="0" />
	<path style="fill:none;stroke:red;stroke-width:1px;stroke-linecap:butt;stroke-linejoin:miter;stroke-opacity:1" d="M 753.101,339.201 760.874,345.03 z" id="boundary" inkscape:connector-curvature="0" />
	<path style="fill:none;stroke:red;stroke-width:1px;stroke-linecap:butt;stroke-linejoin:miter;stroke-opacity:1" d="M 760.874,345.03 767.675,352.803 z" id="boundary" inkscape:connector-curvature="0" />
	<path style="fill:none;stroke:red;stroke-width:1px;stroke-linecap:butt;stroke-linejoin:miter;stroke-opacity:1" d="M 767.675,352.803 767.675,362.519 z" id="boundary" inkscape:connector-curvature="0" />
	<path style="fill:none;stroke:red;stroke-width:1px;stroke-linecap:butt;stroke-linejoin:miter;stroke-opacity:1" d="M 767.675,362.519 767.675,372.235 z" id="boundary" inkscape:connector-curvature="0" />
	<path style="fill:none;stroke:red;stroke-width:1px;stroke-linecap:butt;stroke-linejoin:miter;stroke-opacity:1" d="M 767.675,372.235 767.675,381.951 z" id="boundary" inkscape:connector-curvature="0" />
	<path style="fill:none;stroke:red;stroke-width:1px;stroke-linecap:butt;stroke-linejoin:miter;stroke-opacity:1" d="M 767.675,381.951 767.675,391.667 z" id="boundary" inkscape:connector-curvature="0" />
	<path style="fill:none;stroke:red;stroke-width:1px;stroke-linecap:butt;stroke-linejoin:miter;stroke-opacity:1" d="M 767.675,391.667 767.675,401.383 z" id="boundary" inkscape:connector-curvature="0" />
	<path style="fill:none;stroke:red;stroke-width:1px;stroke-linecap:butt;stroke-linejoin:miter;stroke-opacity:1" d="M 767.675,401.383 767.675,411.099 z" id="boundary" inkscape:connector-curvature="0" />
	<path style="fill:none;stroke:red;stroke-width:1px;stroke-linecap:butt;stroke-linejoin:miter;stroke-opacity:1" d="M 767.675,411.099 767.675,420.815 z" id="boundary" inkscape:connector-curvature="0" />
	<path style="fill:none;stroke:red;stroke-width:1px;stroke-linecap:butt;stroke-linejoin:miter;stroke-opacity:1" d="M 767.675,420.815 767.675,430.531 z" id="boundary" inkscape:connector-curvature="0" />
	<path style="fill:none;stroke:red;stroke-width:1px;stroke-linecap:butt;stroke-linejoin:miter;stroke-opacity:1" d="M 767.675,430.531 772.533,439.275 z" id="boundary" inkscape:connector-curvature="0" />
	<path style="fill:none;stroke:red;stroke-width:1px;stroke-linecap:butt;stroke-linejoin:miter;stroke-opacity:1" d="M 772.533,439.275 780.306,446.076 z" id="boundary" inkscape:connector-curvature="0" />
	<path style="fill:none;stroke:red;stroke-width:1px;stroke-linecap:butt;stroke-linejoin:miter;stroke-opacity:1" d="M 780.306,446.076 789.05,450.934 z" id="boundary" inkscape:connector-curvature="0" />
	<path style="fill:none;stroke:red;stroke-width:1px;stroke-linecap:butt;stroke-linejoin:miter;stroke-opacity:1" d="M 789.05,450.934 798.766,450.934 z" id="boundary" inkscape:connector-curvature="0" />
	<path style="fill:none;stroke:red;stroke-width:1px;stroke-linecap:butt;stroke-linejoin:miter;stroke-opacity:1" d="M 798.766,450.934 807.51,455.792 z" id="boundary" inkscape:connector-curvature="0" />
	<path style="fill:none;stroke:red;stroke-width:1px;stroke-linecap:butt;stroke-linejoin:miter;stroke-opacity:1" d="M 807.51,455.792 816.255,460.65 z" id="boundary" inkscape:connector-curvature="0" />
	<path style="fill:none;stroke:red;stroke-width:1px;stroke-linecap:butt;stroke-linejoin:miter;stroke-opacity:1" d="M 816.255,460.65 825.971,463.565 z" id="boundary" inkscape:connector-curvature="0" />
	<path style="fill:none;stroke:red;stroke-width:1px;stroke-linecap:butt;stroke-linejoin:miter;stroke-opacity:1" d="M 825.971,463.565 835.687,465.508 z" id="boundary" inkscape:connector-curvature="0" />
	<path style="fill:none;stroke:red;stroke-width:1px;stroke-linecap:butt;stroke-linejoin:miter;stroke-opacity:1" d="M 835.687,465.508 844.431,470.366 z" id="boundary" inkscape:connector-curvature="0" />
	<path style="fill:none;stroke:red;stroke-width:1px;stroke-linecap:butt;stroke-linejoin:miter;stroke-opacity:1" d="M 844.431,470.366 853.175,475.224 z" id="boundary" inkscape:connector-curvature="0" />
	<path style="fill:none;stroke:red;stroke-width:1px;stroke-linecap:butt;stroke-linejoin:miter;stroke-opacity:1" d="M 853.175,475.224 861.92,480.082 z" id="boundary" inkscape:connector-curvature="0" />
	<path style="fill:none;stroke:red;stroke-width:1px;stroke-linecap:butt;stroke-linejoin:miter;stroke-opacity:1" d="M 861.92,480.082 871.636,480.082 z" id="boundary" inkscape:connector-curvature="0" />
	<path style="fill:none;stroke:red;stroke-width:1px;stroke-linecap:butt;stroke-linejoin:miter;stroke-opacity:1" d="M 871.636,480.082 880.38,484.94 z" id="boundary" inkscape:connector-curvature="0" />
	<path style="fill:none;stroke:red;stroke-width:1px;stroke-linecap:butt;stroke-linejoin:miter;stroke-opacity:1" d="M 880.38,484.94 890.096,484.94 z" id="boundary" inkscape:connector-curvature="0" />
	<path style="fill:none;stroke:red;stroke-width:1px;stroke-linecap:butt;stroke-linejoin:miter;stroke-opacity:1" d="M 890.096,484.94 898.84,489.798 z" id="boundary" inkscape:connector-curvature="0" />
	<path style="fill:none;stroke:red;stroke-width:1px;stroke-linecap:butt;stroke-linejoin:miter;stroke-opacity:1" d="M 898.84,489.798 907.585,494.656 z" id="boundary" inkscape:connector-curvature="0" />
	<path style="fill:none;stroke:red;stroke-width:1px;stroke-linecap:butt;stroke-linejoin:miter;stroke-opacity:1" d="M 907.585,494.656 917.301,494.656 z" id="boundary" inkscape:connector-curvature="0" />
	<path style="fill:none;stroke:red;stroke-width:1px;stroke-linecap:butt;stroke-linejoin:miter;stroke-opacity:1" d="M 917.301,494.656 926.045,499.514 z" id="boundary" inkscape:connector-curvature="0" />
	<path style="fill:none;stroke:red;stroke-width:1px;stroke-linecap:butt;stroke-linejoin:miter;stroke-opacity:1" d="M 926.045,499.514 934.789,504.372 z" id="boundary" inkscape:connector-curvature="0" />
	<path style="fill:none;stroke:red;stroke-width:1px;stroke-linecap:butt;stroke-linejoin:miter;stroke-opacity:1" d="M 934.789,504.372 944.505,504.372 z" id="boundary" inkscape:connector-curvature="0" />
	<path style="fill:none;stroke:red;stroke-width:1px;stroke-linecap:butt;stroke-linejoin:miter;stroke-opacity:1" d="M 944.505,504.372 953.25,509.23 z" id="boundary" inkscape:connector-curvature="0" />
	<path style="fill:none;stroke:red;stroke-width:1px;stroke-linecap:butt;stroke-linejoin:miter;stroke-opacity:1" d="M 953.25,509.23 961.994,514.088 z" id="boundary" inkscape:connector-curvature="0" />
	<path style="fill:none;stroke:red;stroke-width:1px;stroke-linecap:butt;stroke-linejoin:miter;stroke-opacity:1" d="M 961.994,514.088 971.71,514.088 z" id="boundary" inkscape:connector-curvature="0" />
	<path style="fill:none;stroke:red;stroke-width:1px;stroke-linecap:butt;stroke-linejoin:miter;stroke-opacity:1" d="M 971.71,514.088 981.426,514.088 z" id="boundary" inkscape:connector-curvature="0" />
	<path style="fill:none;stroke:red;stroke-width:1px;stroke-linecap:butt;stroke-linejoin:miter;stroke-opacity:1" d="M 981.426,514.088 989.199,519.918 z" id="boundary" inkscape:connector-curvature="0" />
	<path style="fill:none;stroke:red;stroke-width:1px;stroke-linecap:butt;stroke-linejoin:miter;stroke-opacity:1" d="M 989.199,519.918 996,527.69 z" id="boundary" inkscape:connector-curvature="0" />
	<circle cx="4" cy="555.867" r="4" fill="#0" id="circle0"/>
	<circle cx="4" cy="565.583" r="4" fill="#0" id="circle1"/>
	<circle cx="4" cy="575.299" r="4" fill="#0" id="circle2"/>
	<circle cx="4" cy="585.015" r="4" fill="#0" id="circle3"/>
	<circle cx="4" cy="594.731" r="4" fill="#0" id="circle4"/>
	<circle cx="4" cy="604.447" r="4" fill="#0" id="circle5"/>
	<circle cx="4" cy="614.163" r="4" fill="#0" id="circle6"/>
	<circle cx="4" cy="623.879" r="4" fill="#0" id="circle7"/>
	<circle cx="8.85798" cy="546.151" r="4" fill="#0" id="circle8"/>
	<circle cx="8.85798" cy="632.623" r="4" fill="#0" id="circle9"/>
	<circle cx="13.716" cy="641.367" r="4" fill="#0" id="circle10"/>
	<circle cx="16.6308" cy="538.378" r="4" fill="#0" id="circle11"/>
	<circle cx="18.5739" cy="650.112" r="4" fill="#0" id="circle12"/>
	<circle cx="21.4887" cy="528.662" r="4" fill="#0" id="circle13"/>
	<circle cx="26.3467" cy="655.941" r="4" fill="#0" id="circle14"/>
	<circle cx="29.2615" cy="520.889" r="4" fill="#0" id="circle15"/>
	<circle cx="35.0911" cy="660.799" r="4" fill="#0" id="circle16"/>
	<circle cx="37.0343" cy="514.088" r="4" fill="#0" id="circle17"/>
	<circle cx="43.8355" cy="506.315" r="4" fill="#0" id="circle18"/>
	<circle cx="43.8355" cy="665.657" r="4" fill="#0" id="circle19"/>
	<circle cx="51.6082" cy="499.514" r="4" fill="#0" id="circle20"/>
	<circle cx="52.5798" cy="670.515" r="4" fill="#0" id="circle21"/>
	<circle cx="58.4094" cy="491.741" r="4" fill="#0" id="circle22"/>
	<circle cx="61.3242" cy="675.373" r="4" fill="#0" id="circle23"/>
	<circle cx="66.1822" cy="484.94" r="4" fill="#0" id="circle24"/>
	<circle cx="70.0686" cy="680.231" r="4" fill="#0" id="circle25"/>
	<circle cx="72.9833" cy="477.167" r="4" fill="#0" id="circle26"/>
	<circle cx="78.8129" cy="685.089" r="4" fill="#0" id="circle27"/>
	<circle cx="80.7561" cy="470.366" r="4" fill="#0" id="circle28"/>
	<circle cx="87.5573" cy="689.947" r="4" fill="#0" id="circle29"/>
	<circle cx="89.5005" cy="465.508" r="4" fill="#0" id="circle30"/>
	<circle cx="97.2733" cy="689.947" r="4" fill="#0" id="circle31"/>
	<circle cx="98.2449" cy="460.65" r="4" fill="#0" id="circle32"/>
	<circle cx="106.989" cy="455.792" r="4" fill="#0" id="circle33"/>
	<circle cx="106.989" cy="691.89" r="4" fill="#0" id="circle34"/>
	<circle cx="115.734" cy="450.934" r="4" fill="#0" id="circle35"/>
	<circle cx="116.705" cy="694.805" r="4" fill="#0" id="circle36"/>
	<circle cx="124.478" cy="446.076" r="4" fill="#0" id="circle37"/>
	<circle cx="125.45" cy="699.663" r="4" fill="#0" id="circle38"/>
	<circle cx="133.222" cy="441.218" r="4" fill="#0" id="circle39"/>
	<circle cx="135.166" cy="699.663" r="4" fill="#0" id="circle40"/>
	<circle cx="142.938" cy="441.218" r="4" fill="#0" id="circle41"/>
	<circle cx="144.881" cy="699.663" r="4" fill="#0" id="circle42"/>
	<circle cx="151.683" cy="436.36" r="4" fill="#0" id="circle43"/>
	<circle cx="153.626" cy="704.521" r="4" fill="#0" id="circle44"/>
	<circle cx="161.399" cy="432.474" r="4" fill="#0" id="circle45"/>
	<circle cx="162.37" cy="709.379" r="4" fill="#0" id="circle46"/>
	<circle cx="171.115" cy="427.616" r="4" fill="#0" id="circle47"/>
	<circle cx="172.086" cy="709.379" r="4" fill="#0" id="circle48"/>
	<circle cx="178.887" cy="414.985" r="4" fill="#0" id="circle49"/>
	<circle cx="180.831" cy="714.237" r="4" fill="#0" id="circle50"/>
	<circle cx="183.745" cy="405.269" r="4" fill="#0" id="circle51"/>
	<circle cx="189.575" cy="719.095" r="4" fill="#0" id="circle52"/>
	<circle cx="191.518" cy="397.497" r="4" fill="#0" id="circle53"/>
	<circle cx="196.376" cy="387.781" r="4" fill="#0" id="circle54"/>
	<circle cx="199.291" cy="721.038" r="4" fill="#0" id="circle55"/>
	<circle cx="201.234" cy="378.065" r="4" fill="#0" id="circle56"/>
	<circle cx="209.007" cy="370.292" r="4" fill="#0" id="circle57"/>
	<circle cx="209.007" cy="723.953" r="4" fill="#0" id="circle58"/>
	<circle cx="218.723" cy="365.434" r="4" fill="#0" id="circle59"/>
	<circle cx="218.723" cy="725.896" r="4" fill="#0" id="circle60"/>
	<circle cx="226.496" cy="358.633" r="4" fill="#0" id="circle61"/>
	<circle cx="227.467" cy="730.754" r="4" fill="#0" id="circle62"/>
	<circle cx="235.24" cy="353.775" r="4" fill="#0" id="circle63"/>
	<circle cx="237.183" cy="733.669" r="4" fill="#0" id="circle64"/>
	<circle cx="244.956" cy="348.917" r="4" fill="#0" id="circle65"/>
	<circle cx="245.928" cy="738.527" r="4" fill="#0" id="circle66"/>
	<circle cx="254.672" cy="348.917" r="4" fill="#0" id="circle67"/>
	<circle cx="254.672" cy="743.385" r="4" fill="#0" id="circle68"/>
	<circle cx="263.416" cy="344.059" r="4" fill="#0" id="circle69"/>
	<circle cx="264.388" cy="743.385" r="4" fill="#0" id="circle70"/>
	<circle cx="273.132" cy="344.059" r="4" fill="#0" id="circle71"/>
	<circle cx="274.104" cy="747.271" r="4" fill="#0" id="circle72"/>
	<circle cx="282.848" cy="344.059" r="4" fill="#0" id="circle73"/>
	<circle cx="283.82" cy="748.243" r="4" fill="#0" id="circle74"/>
	<circle cx="292.564" cy="344.059" r="4" fill="#0" id="circle75"/>
	<circle cx="292.564" cy="753.101" r="4" fill="#0" id="circle76"/>
	<circle cx="302.28" cy="344.059" r="4" fill="#0" id="circle77"/>
	<circle cx="302.28" cy="753.101" r="4" fill="#0" id="circle78"/>
	<circle cx="311.996" cy="344.059" r="4" fill="#0" id="circle79"/>
	<circle cx="311.996" cy="753.101" r="4" fill="#0" id="circle80"/>
	<circle cx="321.712" cy="344.059" r="4" fill="#0" id="circle81"/>
	<circle cx="321.712" cy="753.101" r="4" fill="#0" id="circle82"/>
	<circle cx="331.428" cy="344.059" r="4" fill="#0" id="circle83"/>
	<circle cx="331.428" cy="753.101" r="4" fill="#0" id="circle84"/>
	<circle cx="334.343" cy="152.654" r="4" fill="#0" id="circle85"/>
	<circle cx="339.201" cy="142.938" r="4" fill="#0" id="circle86"/>
	<circle cx="339.201" cy="161.399" r="4" fill="#0" id="circle87"/>
	<circle cx="341.144" cy="344.059" r="4" fill="#0" id="circle88"/>
	<circle cx="341.144" cy="753.101" r="4" fill="#0" id="circle89"/>
	<circle cx="344.059" cy="133.222" r="4" fill="#0" id="circle90"/>
	<circle cx="346.002" cy="169.171" r="4" fill="#0" id="circle91"/>
	<circle cx="350.86" cy="344.059" r="4" fill="#0" id="circle92"/>
	<circle cx="350.86" cy="753.101" r="4" fill="#0" id="circle93"/>
	<circle cx="351.832" cy="125.45" r="4" fill="#0" id="circle94"/>
	<circle cx="355.718" cy="173.058" r="4" fill="#0" id="circle95"/>
	<circle cx="360.576" cy="344.059" r="4" fill="#0" id="circle96"/>
	<circle cx="360.576" cy="753.101" r="4" fill="#0" id="circle97"/>
	<circle cx="361.548" cy="120.592" r="4" fill="#0" id="circle98"/>
	<circle cx="365.434" cy="175.001" r="4" fill="#0" id="circle99"/>
	<circle cx="370.292" cy="344.059" r="4" fill="#0" id="circle100"/>
	<circle cx="370.292" cy="753.101" r="4" fill="#0" id="circle101"/>
	<circle cx="371.263" cy="115.734" r="4" fill="#0" id="circle102"/>
	<circle cx="374.178" cy="179.859" r="4" fill="#0" id="circle103"/>
	<circle cx="380.008" cy="344.059" r="4" fill="#0" id="circle104"/>
	<circle cx="380.008" cy="753.101" r="4" fill="#0" id="circle105"/>
	<circle cx="380.979" cy="115.734" r="4" fill="#0" id="circle106"/>
	<circle cx="383.894" cy="179.859" r="4" fill="#0" id="circle107"/>
	<circle cx="389.724" cy="344.059" r="4" fill="#0" id="circle108"/>
	<circle cx="389.724" cy="753.101" r="4" fill="#0" id="circle109"/>
	<circle cx="390.695" cy="115.734" r="4" fill="#0" id="circle110"/>
	<circle cx="393.61" cy="181.802" r="4" fill="#0" id="circle111"/>
	<circle cx="399.44" cy="344.059" r="4" fill="#0" id="circle112"/>
	<circle cx="399.44" cy="756.016" r="4" fill="#0" id="circle113"/>
	<circle cx="400.411" cy="115.734" r="4" fill="#0" id="circle114"/>
	<circle cx="403.326" cy="184.717" r="4" fill="#0" id="circle115"/>
	<circle cx="409.156" cy="344.059" r="4" fill="#0" id="circle116"/>
	<circle cx="409.156" cy="757.959" r="4" fill="#0" id="circle117"/>
	<circle cx="410.127" cy="115.734" r="4" fill="#0" id="circle118"/>
	<circle cx="412.071" cy="189.575" r="4" fill="#0" id="circle119"/>
	<circle cx="418.872" cy="344.059" r="4" fill="#0" id="circle120"/>
	<circle cx="418.872" cy="757.959" r="4" fill="#0" id="circle121"/>
	<circle cx="419.843" cy="115.734" r="4" fill="#0" id="circle122"/>
	<circle cx="421.786" cy="189.575" r="4" fill="#0" id="circle123"/>
	<circle cx="426.644" cy="337.258" r="4" fill="#0" id="circle124"/>
	<circle cx="427.616" cy="762.817" r="4" fill="#0" id="circle125"/>
	<circle cx="429.559" cy="115.734" r="4" fill="#0" id="circle126"/>
	<circle cx="430.531" cy="194.433" r="4" fill="#0" id="circle127"/>
	<circle cx="431.502" cy="327.542" r="4" fill="#0" id="circle128"/>
	<circle cx="436.36" cy="317.826" r="4" fill="#0" id="circle129"/>
	<circle cx="437.332" cy="762.817" r="4" fill="#0" id="circle130"/>
	<circle cx="439.275" cy="115.734" r="4" fill="#0" id="circle131"/>
	<circle cx="440.247" cy="194.433" r="4" fill="#0" id="circle132"/>
	<circle cx="441.218" cy="303.252" r="4" fill="#0" id="circle133"/>
	<circle cx="446.076" cy="283.82" r="4" fill="#0" id="circle134"/>
	<circle cx="446.076" cy="293.536" r="4" fill="#0" id="circle135"/>
	<circle cx="447.048" cy="762.817" r="4" fill="#0" id="circle136"/>
	<circle cx="448.991" cy="115.734" r="4" fill="#0" id="circle137"/>
	<circle cx="449.963" cy="194.433" r="4" fill="#0" id="circle138"/>
	<circle cx="450.934" cy="204.149" r="4" fill="#0" id="circle139"/>
	<circle cx="450.934" cy="213.865" r="4" fill="#0" id="circle140"/>
	<circle cx="450.934" cy="223.581" r="4" fill="#0" id="circle141"/>
	<circle cx="450.934" cy="233.297" r="4" fill="#0" id="circle142"/>
	<circle cx="450.934" cy="243.013" r="4" fill="#0" id="circle143"/>
	<circle cx="450.934" cy="252.729" r="4" fill="#0" id="circle144"/>
	<circle cx="450.934" cy="262.445" r="4" fill="#0" id="circle145"/>
	<circle cx="450.934" cy="272.161" r="4" fill="#0" id="circle146"/>
	<circle cx="456.764" cy="764.76" r="4" fill="#0" id="circle147"/>
	<circle cx="458.707" cy="110.876" r="4" fill="#0" id="circle148"/>
	<circle cx="466.48" cy="767.675" r="4" fill="#0" id="circle149"/>
	<circle cx="468.423" cy="106.018" r="4" fill="#0" id="circle150"/>
	<circle cx="470.366" cy="16.6308" r="4" fill="#0" id="circle151"/>
	<circle cx="470.366" cy="26.3467" r="4" fill="#0" id="circle152"/>
	<circle cx="470.366" cy="36.0627" r="4" fill="#0" id="circle153"/>
	<circle cx="470.366" cy="45.7786" r="4" fill="#0" id="circle154"/>
	<circle cx="470.366" cy="55.4946" r="4" fill="#0" id="circle155"/>
	<circle cx="470.366" cy="65.2106" r="4" fill="#0" id="circle156"/>
	<circle cx="470.366" cy="74.9265" r="4" fill="#0" id="circle157"/>
	<circle cx="470.366" cy="84.6425" r="4" fill="#0" id="circle158"/>
	<circle cx="470.366" cy="94.3585" r="4" fill="#0" id="circle159"/>
	<circle cx="476.196" cy="767.675" r="4" fill="#0" id="circle160"/>
	<circle cx="478.139" cy="8.85798" r="4" fill="#0" id="circle161"/>
	<circle cx="485.912" cy="767.675" r="4" fill="#0" id="circle162"/>
	<circle cx="486.883" cy="4" r="4" fill="#0" id="circle163"/>
	<circle cx="495.628" cy="767.675" r="4" fill="#0" id="circle164"/>
	<circle cx="496.599" cy="4" r="4" fill="#0" id="circle165"/>
	<circle cx="505.344" cy="8.85798" r="4" fill="#0" id="circle166"/>
	<circle cx="505.344" cy="767.675" r="4" fill="#0" id="circle167"/>
	<circle cx="510.202" cy="17.6024" r="4" fill="#0" id="circle168"/>
	<circle cx="510.202" cy="27.3183" r="4" fill="#0" id="circle169"/>
	<circle cx="510.202" cy="37.0343" r="4" fill="#0" id="circle170"/>
	<circle cx="510.202" cy="46.7502" r="4" fill="#0" id="circle171"/>
	<circle cx="510.202" cy="56.4662" r="4" fill="#0" id="circle172"/>
	<circle cx="510.202" cy="66.1822" r="4" fill="#0" id="circle173"/>
	<circle cx="510.202" cy="75.8981" r="4" fill="#0" id="circle174"/>
	<circle cx="515.06" cy="84.6425" r="4" fill="#0" id="circle175"/>
	<circle cx="515.06" cy="94.3585" r="4" fill="#0" id="circle176"/>
	<circle cx="515.06" cy="767.675" r="4" fill="#0" id="circle177"/>
	<circle cx="519.918" cy="103.103" r="4" fill="#0" id="circle178"/>
	<circle cx="519.918" cy="112.819" r="4" fill="#0" id="circle179"/>
	<circle cx="524.776" cy="767.675" r="4" fill="#0" id="circle180"/>
	<circle cx="525.747" cy="120.592" r="4" fill="#0" id="circle181"/>
	<circle cx="529.634" cy="209.007" r="4" fill="#0" id="circle182"/>
	<circle cx="529.634" cy="218.723" r="4" fill="#0" id="circle183"/>
	<circle cx="529.634" cy="228.439" r="4" fill="#0" id="circle184"/>
	<circle cx="529.634" cy="238.155" r="4" fill="#0" id="circle185"/>
	<circle cx="529.634" cy="247.871" r="4" fill="#0" id="circle186"/>
	<circle cx="529.634" cy="257.587" r="4" fill="#0" id="circle187"/>
	<circle cx="529.634" cy="267.303" r="4" fill="#0" id="circle188"/>
	<circle cx="529.634" cy="277.019" r="4" fill="#0" id="circle189"/>
	<circle cx="529.634" cy="286.735" r="4" fill="#0" id="circle190"/>
	<circle cx="529.634" cy="296.451" r="4" fill="#0" id="circle191"/>
	<circle cx="529.634" cy="306.167" r="4" fill="#0" id="circle192"/>
	<circle cx="529.634" cy="315.882" r="4" fill="#0" id="circle193"/>
	<circle cx="529.634" cy="325.598" r="4" fill="#0" id="circle194"/>
	<circle cx="529.634" cy="335.314" r="4" fill="#0" id="circle195"/>
	<circle cx="534.492" cy="125.45" r="4" fill="#0" id="circle196"/>
	<circle cx="534.492" cy="199.291" r="4" fill="#0" id="circle197"/>
	<circle cx="534.492" cy="767.675" r="4" fill="#0" id="circle198"/>
	<circle cx="539.35" cy="339.201" r="4" fill="#0" id="circle199"/>
	<circle cx="544.208" cy="125.45" r="4" fill="#0" id="circle200"/>
	<circle cx="544.208" cy="194.433" r="4" fill="#0" id="circle201"/>
	<circle cx="544.208" cy="767.675" r="4" fill="#0" id="circle202"/>
	<circle cx="549.066" cy="339.201" r="4" fill="#0" id="circle203"/>
	<circle cx="553.924" cy="125.45" r="4" fill="#0" id="circle204"/>
	<circle cx="553.924" cy="194.433" r="4" fill="#0" id="circle205"/>
	<circle cx="553.924" cy="767.675" r="4" fill="#0" id="circle206"/>
	<circle cx="558.782" cy="339.201" r="4" fill="#0" id="circle207"/>
	<circle cx="562.668" cy="189.575" r="4" fill="#0" id="circle208"/>
	<circle cx="563.64" cy="122.535" r="4" fill="#0" id="circle209"/>
	<circle cx="563.64" cy="767.675" r="4" fill="#0" id="circle210"/>
	<circle cx="568.498" cy="339.201" r="4" fill="#0" id="circle211"/>
	<circle cx="572.384" cy="189.575" r="4" fill="#0" id="circle212"/>
	<circle cx="573.356" cy="120.592" r="4" fill="#0" id="circle213"/>
	<circle cx="573.356" cy="767.675" r="4" fill="#0" id="circle214"/>
	<circle cx="578.214" cy="339.201" r="4" fill="#0" id="circle215"/>
	<circle cx="582.1" cy="186.66" r="4" fill="#0" id="circle216"/>
	<circle cx="583.071" cy="120.592" r="4" fill="#0" id="circle217"/>
	<circle cx="583.071" cy="767.675" r="4" fill="#0" id="circle218"/>
	<circle cx="587.929" cy="339.201" r="4" fill="#0" id="circle219"/>
	<circle cx="591.816" cy="184.717" r="4" fill="#0" id="circle220"/>
	<circle cx="592.787" cy="120.592" r="4" fill="#0" id="circle221"/>
	<circle cx="592.787" cy="767.675" r="4" fill="#0" id="circle222"/>
	<circle cx="597.645" cy="339.201" r="4" fill="#0" id="circle223"/>
	<circle cx="600.56" cy="179.859" r="4" fill="#0" id="circle224"/>
	<circle cx="601.532" cy="115.734" r="4" fill="#0" id="circle225"/>
	<circle cx="602.503" cy="767.675" r="4" fill="#0" id="circle226"/>
	<circle cx="607.361" cy="339.201" r="4" fill="#0" id="circle227"/>
	<circle cx="609.305" cy="175.001" r="4" fill="#0" id="circle228"/>
	<circle cx="611.248" cy="115.734" r="4" fill="#0" id="circle229"/>
	<circle cx="612.219" cy="767.675" r="4" fill="#0" id="circle230"/>
	<circle cx="617.077" cy="339.201" r="4" fill="#0" id="circle231"/>
	<circle cx="618.049" cy="170.143" r="4" fill="#0" id="circle232"/>
	<circle cx="620.964" cy="115.734" r="4" fill="#0" id="circle233"/>
	<circle cx="621.935" cy="767.675" r="4" fill="#0" id="circle234"/>
	<circle cx="626.793" cy="165.285" r="4" fill="#0" id="circle235"/>
	<circle cx="626.793" cy="339.201" r="4" fill="#0" id="circle236"/>
	<circle cx="630.68" cy="115.734" r="4" fill="#0" id="circle237"/>
	<circle cx="631.651" cy="767.675" r="4" fill="#0" id="circle238"/>
	<circle cx="634.566" cy="158.484" r="4" fill="#0" id="circle239"/>
	<circle cx="636.509" cy="339.201" r="4" fill="#0" id="circle240"/>
	<circle cx="638.452" cy="121.563" r="4" fill="#0" id="circle241"/>
	<circle cx="639.424" cy="148.768" r="4" fill="#0" id="circle242"/>
	<circle cx="641.367" cy="767.675" r="4" fill="#0" id="circle243"/>
	<circle cx="644.282" cy="139.052" r="4" fill="#0" id="circle244"/>
	<circle cx="646.225" cy="128.364" r="4" fill="#0" id="circle245"/>
	<circle cx="646.225" cy="339.201" r="4" fill="#0" id="circle246"/>
	<circle cx="651.083" cy="767.675" r="4" fill="#0" id="circle247"/>
	<circle cx="655.941" cy="339.201" r="4" fill="#0" id="circle248"/>
	<circle cx="660.799" cy="767.675" r="4" fill="#0" id="circle249"/>
	<circle cx="665.657" cy="339.201" r="4" fill="#0" id="circle250"/>
	<circle cx="670.515" cy="767.675" r="4" fill="#0" id="circle251"/>
	<circle cx="675.373" cy="339.201" r="4" fill="#0" id="circle252"/>
	<circle cx="679.26" cy="762.817" r="4" fill="#0" id="circle253"/>
	<circle cx="685.089" cy="339.201" r="4" fill="#0" id="circle254"/>
	<circle cx="688.976" cy="762.817" r="4" fill="#0" id="circle255"/>
	<circle cx="694.805" cy="339.201" r="4" fill="#0" id="circle256"/>
	<circle cx="698.691" cy="762.817" r="4" fill="#0" id="circle257"/>
	<circle cx="704.521" cy="339.201" r="4" fill="#0" id="circle258"/>
	<circle cx="707.436" cy="757.959" r="4" fill="#0" id="circle259"/>
	<circle cx="714.237" cy="339.201" r="4" fill="#0" id="circle260"/>
	<circle cx="716.18" cy="753.101" r="4" fill="#0" id="circle261"/>
	<circle cx="723.953" cy="339.201" r="4" fill="#0" id="circle262"/>
	<circle cx="725.896" cy="753.101" r="4" fill="#0" id="circle263"/>
	<circle cx="733.669" cy="339.201" r="4" fill="#0" id="circle264"/>
	<circle cx="734.641" cy="748.243" r="4" fill="#0" id="circle265"/>
	<circle cx="743.385" cy="339.201" r="4" fill="#0" id="circle266"/>
	<circle cx="744.357" cy="748.243" r="4" fill="#0" id="circle267"/>
	<circle cx="753.101" cy="339.201" r="4" fill="#0" id="circle268"/>
	<circle cx="753.101" cy="743.385" r="4" fill="#0" id="circle269"/>
	<circle cx="760.874" cy="345.03" r="4" fill="#0" id="circle270"/>
	<circle cx="762.817" cy="738.527" r="4" fill="#0" id="circle271"/>
	<circle cx="767.675" cy="352.803" r="4" fill="#0" id="circle272"/>
	<circle cx="767.675" cy="362.519" r="4" fill="#0" id="circle273"/>
	<circle cx="767.675" cy="372.235" r="4" fill="#0" id="circle274"/>
	<circle cx="767.675" cy="381.951" r="4" fill="#0" id="circle275"/>
	<circle cx="767.675" cy="391.667" r="4" fill="#0" id="circle276"/>
	<circle cx="767.675" cy="401.383" r="4" fill="#0" id="circle277"/>
	<circle cx="767.675" cy="411.099" r="4" fill="#0" id="circle278"/>
	<circle cx="767.675" cy="420.815" r="4" fill="#0" id="circle279"/>
	<circle cx="767.675" cy="430.531" r="4" fill="#0" id="circle280"/>
	<circle cx="772.533" cy="439.275" r="4" fill="#0" id="circle281"/>
	<circle cx="772.533" cy="733.669" r="4" fill="#0" id="circle282"/>
	<circle cx="780.306" cy="446.076" r="4" fill="#0" id="circle283"/>
	<circle cx="782.249" cy="733.669" r="4" fill="#0" id="circle284"/>
	<circle cx="789.05" cy="450.934" r="4" fill="#0" id="circle285"/>
	<circle cx="791.965" cy="728.811" r="4" fill="#0" id="circle286"/>
	<circle cx="798.766" cy="450.934" r="4" fill="#0" id="circle287"/>
	<circle cx="801.681" cy="728.811" r="4" fill="#0" id="circle288"/>
	<circle cx="807.51" cy="455.792" r="4" fill="#0" id="circle289"/>
	<circle cx="811.397" cy="723.953" r="4" fill="#0" id="circle290"/>
	<circle cx="816.255" cy="460.65" r="4" fill="#0" id="circle291"/>
	<circle cx="821.113" cy="723.953" r="4" fill="#0" id="circle292"/>
	<circle cx="825.971" cy="463.565" r="4" fill="#0" id="circle293"/>
	<circle cx="830.829" cy="719.095" r="4" fill="#0" id="circle294"/>
	<circle cx="835.687" cy="465.508" r="4" fill="#0" id="circle295"/>
	<circle cx="840.545" cy="719.095" r="4" fill="#0" id="circle296"/>
	<circle cx="844.431" cy="470.366" r="4" fill="#0" id="circle297"/>
	<circle cx="850.261" cy="719.095" r="4" fill="#0" id="circle298"/>
	<circle cx="853.175" cy="475.224" r="4" fill="#0" id="circle299"/>
	<circle cx="859.005" cy="714.237" r="4" fill="#0" id="circle300"/>
	<circle cx="861.92" cy="480.082" r="4" fill="#0" id="circle301"/>
	<circle cx="868.721" cy="711.322" r="4" fill="#0" id="circle302"/>
	<circle cx="871.636" cy="480.082" r="4" fill="#0" id="circle303"/>
	<circle cx="878.437" cy="706.464" r="4" fill="#0" id="circle304"/>
	<circle cx="880.38" cy="484.94" r="4" fill="#0" id="circle305"/>
	<circle cx="886.21" cy="699.663" r="4" fill="#0" id="circle306"/>
	<circle cx="890.096" cy="484.94" r="4" fill="#0" id="circle307"/>
	<circle cx="895.926" cy="698.691" r="4" fill="#0" id="circle308"/>
	<circle cx="898.84" cy="489.798" r="4" fill="#0" id="circle309"/>
	<circle cx="905.642" cy="693.833" r="4" fill="#0" id="circle310"/>
	<circle cx="907.585" cy="494.656" r="4" fill="#0" id="circle311"/>
	<circle cx="913.414" cy="685.089" r="4" fill="#0" id="circle312"/>
	<circle cx="917.301" cy="494.656" r="4" fill="#0" id="circle313"/>
	<circle cx="922.159" cy="680.231" r="4" fill="#0" id="circle314"/>
	<circle cx="926.045" cy="499.514" r="4" fill="#0" id="circle315"/>
	<circle cx="929.931" cy="674.402" r="4" fill="#0" id="circle316"/>
	<circle cx="934.789" cy="504.372" r="4" fill="#0" id="circle317"/>
	<circle cx="934.789" cy="664.686" r="4" fill="#0" id="circle318"/>
	<circle cx="942.562" cy="655.941" r="4" fill="#0" id="circle319"/>
	<circle cx="944.505" cy="504.372" r="4" fill="#0" id="circle320"/>
	<circle cx="950.335" cy="649.14" r="4" fill="#0" id="circle321"/>
	<circle cx="953.25" cy="509.23" r="4" fill="#0" id="circle322"/>
	<circle cx="957.136" cy="636.509" r="4" fill="#0" id="circle323"/>
	<circle cx="961.994" cy="514.088" r="4" fill="#0" id="circle324"/>
	<circle cx="961.994" cy="626.793" r="4" fill="#0" id="circle325"/>
	<circle cx="966.852" cy="617.077" r="4" fill="#0" id="circle326"/>
	<circle cx="971.71" cy="514.088" r="4" fill="#0" id="circle327"/>
	<circle cx="971.71" cy="607.361" r="4" fill="#0" id="circle328"/>
	<circle cx="976.568" cy="597.645" r="4" fill="#0" id="circle329"/>
	<circle cx="981.426" cy="514.088" r="4" fill="#0" id="circle330"/>
	<circle cx="981.426" cy="583.071" r="4" fill="#0" id="circle331"/>
	<circle cx="986.284" cy="568.498" r="4" fill="#0" id="circle332"/>
	<circle cx="989.199" cy="519.918" r="4" fill="#0" id="circle333"/>
	<circle cx="991.142" cy="549.066" r="4" fill="#0" id="circle334"/>
	<circle cx="991.142" cy="558.782" r="4" fill="#0" id="circle335"/>
	<circle cx="996" cy="527.69" r="4" fill="#0" id="circle336"/>
	<circle cx="996" cy="537.406" r="4" fill="#0" id="circle337"/>
	</g>
</svg>