<?xml version="1.0" encoding="UTF-8" standalone="no"?>
<!-- Created with CurveBenchmark -->
<svg
	xmlns:dc="http://purl.org/dc/elements/1.1/"
	xmlns:cc="http://creativecommons.org/ns#"
	xmlns:rdf="http://www.w3.org/1999/02/22-rdf-syntax-ns#"
	xmlns:svg="http://www.w3.org/2000/svg"
	xmlns="http://www.w3.org/2000/svg"
	xmlns:sodipodi="http://sodipodi.sourceforge.net/DTD/sodipodi-0.dtd"
	xmlns:inkscape="http://www.inkscape.org/namespaces/inkscape"
	width="1000"
	height="1000"
	id="svg2"
	version="1.1"
	sodipodi:docname="manifold/connect2d-fish-11.png.txt">
<defs
	id="defs4" />
<metadata
	id="metadata7">
	<rdf:RDF>
		<cc:Work
			rdf:about="">
			<dc:format>image/svg+xml</dc:format>
			<dc:type
				rdf:resource="http://purl.org/dc/dcmitype/StillImage" />
			<dc:title></dc:title>
		</cc:Work>
	</rdf:RDF>
</metadata>
<g
	inkscape:label="Layer 1"
	inkscape:groupmode="layer"
	id="layer1">
	<path style="fill:none;stroke:red;stroke-width:1px;stroke-linecap:butt;stroke-linejoin:miter;stroke-opacity:1" d="M 996,173.837 990.21,183.486 z" id="boundary" inkscape:connector-curvature="0" />
	<path style="fill:none;stroke:red;stroke-width:1px;stroke-linecap:butt;stroke-linejoin:miter;stroke-opacity:1" d="M 990.21,183.486 981.525,178.661 z" id="boundary" inkscape:connector-curvature="0" />
	<path style="fill:none;stroke:red;stroke-width:1px;stroke-linecap:butt;stroke-linejoin:miter;stroke-opacity:1" d="M 981.525,178.661 971.875,178.661 z" id="boundary" inkscape:connector-curvature="0" />
	<path style="fill:none;stroke:red;stroke-width:1px;stroke-linecap:butt;stroke-linejoin:miter;stroke-opacity:1" d="M 971.875,178.661 963.191,173.837 z" id="boundary" inkscape:connector-curvature="0" />
	<path style="fill:none;stroke:red;stroke-width:1px;stroke-linecap:butt;stroke-linejoin:miter;stroke-opacity:1" d="M 963.191,173.837 953.541,173.837 z" id="boundary" inkscape:connector-curvature="0" />
	<path style="fill:none;stroke:red;stroke-width:1px;stroke-linecap:butt;stroke-linejoin:miter;stroke-opacity:1" d="M 953.541,173.837 943.891,176.732 z" id="boundary" inkscape:connector-curvature="0" />
	<path style="fill:none;stroke:red;stroke-width:1px;stroke-linecap:butt;stroke-linejoin:miter;stroke-opacity:1" d="M 943.891,176.732 934.241,181.556 z" id="boundary" inkscape:connector-curvature="0" />
	<path style="fill:none;stroke:red;stroke-width:1px;stroke-linecap:butt;stroke-linejoin:miter;stroke-opacity:1" d="M 934.241,181.556 924.591,183.486 z" id="boundary" inkscape:connector-curvature="0" />
	<path style="fill:none;stroke:red;stroke-width:1px;stroke-linecap:butt;stroke-linejoin:miter;stroke-opacity:1" d="M 924.591,183.486 914.942,186.381 z" id="boundary" inkscape:connector-curvature="0" />
	<path style="fill:none;stroke:red;stroke-width:1px;stroke-linecap:butt;stroke-linejoin:miter;stroke-opacity:1" d="M 914.942,186.381 905.292,191.206 z" id="boundary" inkscape:connector-curvature="0" />
	<path style="fill:none;stroke:red;stroke-width:1px;stroke-linecap:butt;stroke-linejoin:miter;stroke-opacity:1" d="M 905.292,191.206 895.642,196.031 z" id="boundary" inkscape:connector-curvature="0" />
	<path style="fill:none;stroke:red;stroke-width:1px;stroke-linecap:butt;stroke-linejoin:miter;stroke-opacity:1" d="M 895.642,196.031 885.992,197.961 z" id="boundary" inkscape:connector-curvature="0" />
	<path style="fill:none;stroke:red;stroke-width:1px;stroke-linecap:butt;stroke-linejoin:miter;stroke-opacity:1" d="M 885.992,197.961 876.342,200.856 z" id="boundary" inkscape:connector-curvature="0" />
	<path style="fill:none;stroke:red;stroke-width:1px;stroke-linecap:butt;stroke-linejoin:miter;stroke-opacity:1" d="M 876.342,200.856 866.693,202.786 z" id="boundary" inkscape:connector-curvature="0" />
	<path style="fill:none;stroke:red;stroke-width:1px;stroke-linecap:butt;stroke-linejoin:miter;stroke-opacity:1" d="M 866.693,202.786 857.043,202.786 z" id="boundary" inkscape:connector-curvature="0" />
	<path style="fill:none;stroke:red;stroke-width:1px;stroke-linecap:butt;stroke-linejoin:miter;stroke-opacity:1" d="M 857.043,202.786 848.358,207.611 z" id="boundary" inkscape:connector-curvature="0" />
	<path style="fill:none;stroke:red;stroke-width:1px;stroke-linecap:butt;stroke-linejoin:miter;stroke-opacity:1" d="M 848.358,207.611 838.708,207.611 z" id="boundary" inkscape:connector-curvature="0" />
	<path style="fill:none;stroke:red;stroke-width:1px;stroke-linecap:butt;stroke-linejoin:miter;stroke-opacity:1" d="M 838.708,207.611 829.058,209.541 z" id="boundary" inkscape:connector-curvature="0" />
	<path style="fill:none;stroke:red;stroke-width:1px;stroke-linecap:butt;stroke-linejoin:miter;stroke-opacity:1" d="M 829.058,209.541 819.409,212.436 z" id="boundary" inkscape:connector-curvature="0" />
	<path style="fill:none;stroke:red;stroke-width:1px;stroke-linecap:butt;stroke-linejoin:miter;stroke-opacity:1" d="M 819.409,212.436 810.724,217.261 z" id="boundary" inkscape:connector-curvature="0" />
	<path style="fill:none;stroke:red;stroke-width:1px;stroke-linecap:butt;stroke-linejoin:miter;stroke-opacity:1" d="M 810.724,217.261 805.899,226.911 z" id="boundary" inkscape:connector-curvature="0" />
	<path style="fill:none;stroke:red;stroke-width:1px;stroke-linecap:butt;stroke-linejoin:miter;stroke-opacity:1" d="M 805.899,226.911 801.074,236.56 z" id="boundary" inkscape:connector-curvature="0" />
	<path style="fill:none;stroke:red;stroke-width:1px;stroke-linecap:butt;stroke-linejoin:miter;stroke-opacity:1" d="M 801.074,236.56 794.319,244.28 z" id="boundary" inkscape:connector-curvature="0" />
	<path style="fill:none;stroke:red;stroke-width:1px;stroke-linecap:butt;stroke-linejoin:miter;stroke-opacity:1" d="M 794.319,244.28 789.494,253.93 z" id="boundary" inkscape:connector-curvature="0" />
	<path style="fill:none;stroke:red;stroke-width:1px;stroke-linecap:butt;stroke-linejoin:miter;stroke-opacity:1" d="M 789.494,253.93 779.844,255.86 z" id="boundary" inkscape:connector-curvature="0" />
	<path style="fill:none;stroke:red;stroke-width:1px;stroke-linecap:butt;stroke-linejoin:miter;stroke-opacity:1" d="M 779.844,255.86 771.16,260.685 z" id="boundary" inkscape:connector-curvature="0" />
	<path style="fill:none;stroke:red;stroke-width:1px;stroke-linecap:butt;stroke-linejoin:miter;stroke-opacity:1" d="M 771.16,260.685 761.51,261.65 z" id="boundary" inkscape:connector-curvature="0" />
	<path style="fill:none;stroke:red;stroke-width:1px;stroke-linecap:butt;stroke-linejoin:miter;stroke-opacity:1" d="M 761.51,261.65 754.755,269.37 z" id="boundary" inkscape:connector-curvature="0" />
	<path style="fill:none;stroke:red;stroke-width:1px;stroke-linecap:butt;stroke-linejoin:miter;stroke-opacity:1" d="M 754.755,269.37 747.035,277.089 z" id="boundary" inkscape:connector-curvature="0" />
	<path style="fill:none;stroke:red;stroke-width:1px;stroke-linecap:butt;stroke-linejoin:miter;stroke-opacity:1" d="M 747.035,277.089 737.385,281.914 z" id="boundary" inkscape:connector-curvature="0" />
	<path style="fill:none;stroke:red;stroke-width:1px;stroke-linecap:butt;stroke-linejoin:miter;stroke-opacity:1" d="M 737.385,281.914 737.385,272.265 z" id="boundary" inkscape:connector-curvature="0" />
	<path style="fill:none;stroke:red;stroke-width:1px;stroke-linecap:butt;stroke-linejoin:miter;stroke-opacity:1" d="M 737.385,272.265 745.105,264.545 z" id="boundary" inkscape:connector-curvature="0" />
	<path style="fill:none;stroke:red;stroke-width:1px;stroke-linecap:butt;stroke-linejoin:miter;stroke-opacity:1" d="M 745.105,264.545 752.825,256.825 z" id="boundary" inkscape:connector-curvature="0" />
	<path style="fill:none;stroke:red;stroke-width:1px;stroke-linecap:butt;stroke-linejoin:miter;stroke-opacity:1" d="M 752.825,256.825 762.475,252 z" id="boundary" inkscape:connector-curvature="0" />
	<path style="fill:none;stroke:red;stroke-width:1px;stroke-linecap:butt;stroke-linejoin:miter;stroke-opacity:1" d="M 762.475,252 766.335,242.35 z" id="boundary" inkscape:connector-curvature="0" />
	<path style="fill:none;stroke:red;stroke-width:1px;stroke-linecap:butt;stroke-linejoin:miter;stroke-opacity:1" d="M 766.335,242.35 766.335,232.7 z" id="boundary" inkscape:connector-curvature="0" />
	<path style="fill:none;stroke:red;stroke-width:1px;stroke-linecap:butt;stroke-linejoin:miter;stroke-opacity:1" d="M 766.335,232.7 761.51,224.016 z" id="boundary" inkscape:connector-curvature="0" />
	<path style="fill:none;stroke:red;stroke-width:1px;stroke-linecap:butt;stroke-linejoin:miter;stroke-opacity:1" d="M 761.51,224.016 753.79,217.261 z" id="boundary" inkscape:connector-curvature="0" />
	<path style="fill:none;stroke:red;stroke-width:1px;stroke-linecap:butt;stroke-linejoin:miter;stroke-opacity:1" d="M 753.79,217.261 744.14,217.261 z" id="boundary" inkscape:connector-curvature="0" />
	<path style="fill:none;stroke:red;stroke-width:1px;stroke-linecap:butt;stroke-linejoin:miter;stroke-opacity:1" d="M 744.14,217.261 734.49,217.261 z" id="boundary" inkscape:connector-curvature="0" />
	<path style="fill:none;stroke:red;stroke-width:1px;stroke-linecap:butt;stroke-linejoin:miter;stroke-opacity:1" d="M 734.49,217.261 724.84,217.261 z" id="boundary" inkscape:connector-curvature="0" />
	<path style="fill:none;stroke:red;stroke-width:1px;stroke-linecap:butt;stroke-linejoin:miter;stroke-opacity:1" d="M 724.84,217.261 715.191,217.261 z" id="boundary" inkscape:connector-curvature="0" />
	<path style="fill:none;stroke:red;stroke-width:1px;stroke-linecap:butt;stroke-linejoin:miter;stroke-opacity:1" d="M 715.191,217.261 706.506,222.086 z" id="boundary" inkscape:connector-curvature="0" />
	<path style="fill:none;stroke:red;stroke-width:1px;stroke-linecap:butt;stroke-linejoin:miter;stroke-opacity:1" d="M 706.506,222.086 697.821,217.261 z" id="boundary" inkscape:connector-curvature="0" />
	<path style="fill:none;stroke:red;stroke-width:1px;stroke-linecap:butt;stroke-linejoin:miter;stroke-opacity:1" d="M 697.821,217.261 689.136,222.086 z" id="boundary" inkscape:connector-curvature="0" />
	<path style="fill:none;stroke:red;stroke-width:1px;stroke-linecap:butt;stroke-linejoin:miter;stroke-opacity:1" d="M 689.136,222.086 680.451,217.261 z" id="boundary" inkscape:connector-curvature="0" />
	<path style="fill:none;stroke:red;stroke-width:1px;stroke-linecap:butt;stroke-linejoin:miter;stroke-opacity:1" d="M 680.451,217.261 670.802,222.086 z" id="boundary" inkscape:connector-curvature="0" />
	<path style="fill:none;stroke:red;stroke-width:1px;stroke-linecap:butt;stroke-linejoin:miter;stroke-opacity:1" d="M 670.802,222.086 661.152,222.086 z" id="boundary" inkscape:connector-curvature="0" />
	<path style="fill:none;stroke:red;stroke-width:1px;stroke-linecap:butt;stroke-linejoin:miter;stroke-opacity:1" d="M 661.152,222.086 651.502,222.086 z" id="boundary" inkscape:connector-curvature="0" />
	<path style="fill:none;stroke:red;stroke-width:1px;stroke-linecap:butt;stroke-linejoin:miter;stroke-opacity:1" d="M 651.502,222.086 641.852,222.086 z" id="boundary" inkscape:connector-curvature="0" />
	<path style="fill:none;stroke:red;stroke-width:1px;stroke-linecap:butt;stroke-linejoin:miter;stroke-opacity:1" d="M 641.852,222.086 632.202,219.191 z" id="boundary" inkscape:connector-curvature="0" />
	<path style="fill:none;stroke:red;stroke-width:1px;stroke-linecap:butt;stroke-linejoin:miter;stroke-opacity:1" d="M 632.202,219.191 622.553,217.261 z" id="boundary" inkscape:connector-curvature="0" />
	<path style="fill:none;stroke:red;stroke-width:1px;stroke-linecap:butt;stroke-linejoin:miter;stroke-opacity:1" d="M 622.553,217.261 612.903,217.261 z" id="boundary" inkscape:connector-curvature="0" />
	<path style="fill:none;stroke:red;stroke-width:1px;stroke-linecap:butt;stroke-linejoin:miter;stroke-opacity:1" d="M 612.903,217.261 603.253,217.261 z" id="boundary" inkscape:connector-curvature="0" />
	<path style="fill:none;stroke:red;stroke-width:1px;stroke-linecap:butt;stroke-linejoin:miter;stroke-opacity:1" d="M 603.253,217.261 593.603,217.261 z" id="boundary" inkscape:connector-curvature="0" />
	<path style="fill:none;stroke:red;stroke-width:1px;stroke-linecap:butt;stroke-linejoin:miter;stroke-opacity:1" d="M 593.603,217.261 583.953,217.261 z" id="boundary" inkscape:connector-curvature="0" />
	<path style="fill:none;stroke:red;stroke-width:1px;stroke-linecap:butt;stroke-linejoin:miter;stroke-opacity:1" d="M 583.953,217.261 577.198,224.981 z" id="boundary" inkscape:connector-curvature="0" />
	<path style="fill:none;stroke:red;stroke-width:1px;stroke-linecap:butt;stroke-linejoin:miter;stroke-opacity:1" d="M 577.198,224.981 569.479,231.735 z" id="boundary" inkscape:connector-curvature="0" />
	<path style="fill:none;stroke:red;stroke-width:1px;stroke-linecap:butt;stroke-linejoin:miter;stroke-opacity:1" d="M 569.479,231.735 561.759,240.42 z" id="boundary" inkscape:connector-curvature="0" />
	<path style="fill:none;stroke:red;stroke-width:1px;stroke-linecap:butt;stroke-linejoin:miter;stroke-opacity:1" d="M 561.759,240.42 552.109,245.245 z" id="boundary" inkscape:connector-curvature="0" />
	<path style="fill:none;stroke:red;stroke-width:1px;stroke-linecap:butt;stroke-linejoin:miter;stroke-opacity:1" d="M 552.109,245.245 542.459,246.21 z" id="boundary" inkscape:connector-curvature="0" />
	<path style="fill:none;stroke:red;stroke-width:1px;stroke-linecap:butt;stroke-linejoin:miter;stroke-opacity:1" d="M 542.459,246.21 532.809,246.21 z" id="boundary" inkscape:connector-curvature="0" />
	<path style="fill:none;stroke:red;stroke-width:1px;stroke-linecap:butt;stroke-linejoin:miter;stroke-opacity:1" d="M 532.809,246.21 523.16,246.21 z" id="boundary" inkscape:connector-curvature="0" />
	<path style="fill:none;stroke:red;stroke-width:1px;stroke-linecap:butt;stroke-linejoin:miter;stroke-opacity:1" d="M 523.16,246.21 514.475,241.385 z" id="boundary" inkscape:connector-curvature="0" />
	<path style="fill:none;stroke:red;stroke-width:1px;stroke-linecap:butt;stroke-linejoin:miter;stroke-opacity:1" d="M 514.475,241.385 504.825,241.385 z" id="boundary" inkscape:connector-curvature="0" />
	<path style="fill:none;stroke:red;stroke-width:1px;stroke-linecap:butt;stroke-linejoin:miter;stroke-opacity:1" d="M 504.825,241.385 495.175,241.385 z" id="boundary" inkscape:connector-curvature="0" />
	<path style="fill:none;stroke:red;stroke-width:1px;stroke-linecap:butt;stroke-linejoin:miter;stroke-opacity:1" d="M 495.175,241.385 485.525,241.385 z" id="boundary" inkscape:connector-curvature="0" />
	<path style="fill:none;stroke:red;stroke-width:1px;stroke-linecap:butt;stroke-linejoin:miter;stroke-opacity:1" d="M 485.525,241.385 475.875,241.385 z" id="boundary" inkscape:connector-curvature="0" />
	<path style="fill:none;stroke:red;stroke-width:1px;stroke-linecap:butt;stroke-linejoin:miter;stroke-opacity:1" d="M 475.875,241.385 466.226,241.385 z" id="boundary" inkscape:connector-curvature="0" />
	<path style="fill:none;stroke:red;stroke-width:1px;stroke-linecap:butt;stroke-linejoin:miter;stroke-opacity:1" d="M 466.226,241.385 456.576,241.385 z" id="boundary" inkscape:connector-curvature="0" />
	<path style="fill:none;stroke:red;stroke-width:1px;stroke-linecap:butt;stroke-linejoin:miter;stroke-opacity:1" d="M 456.576,241.385 446.926,241.385 z" id="boundary" inkscape:connector-curvature="0" />
	<path style="fill:none;stroke:red;stroke-width:1px;stroke-linecap:butt;stroke-linejoin:miter;stroke-opacity:1" d="M 446.926,241.385 438.241,236.56 z" id="boundary" inkscape:connector-curvature="0" />
	<path style="fill:none;stroke:red;stroke-width:1px;stroke-linecap:butt;stroke-linejoin:miter;stroke-opacity:1" d="M 438.241,236.56 428.591,236.56 z" id="boundary" inkscape:connector-curvature="0" />
	<path style="fill:none;stroke:red;stroke-width:1px;stroke-linecap:butt;stroke-linejoin:miter;stroke-opacity:1" d="M 428.591,236.56 418.942,236.56 z" id="boundary" inkscape:connector-curvature="0" />
	<path style="fill:none;stroke:red;stroke-width:1px;stroke-linecap:butt;stroke-linejoin:miter;stroke-opacity:1" d="M 418.942,236.56 409.292,236.56 z" id="boundary" inkscape:connector-curvature="0" />
	<path style="fill:none;stroke:red;stroke-width:1px;stroke-linecap:butt;stroke-linejoin:miter;stroke-opacity:1" d="M 409.292,236.56 399.642,236.56 z" id="boundary" inkscape:connector-curvature="0" />
	<path style="fill:none;stroke:red;stroke-width:1px;stroke-linecap:butt;stroke-linejoin:miter;stroke-opacity:1" d="M 399.642,236.56 389.992,236.56 z" id="boundary" inkscape:connector-curvature="0" />
	<path style="fill:none;stroke:red;stroke-width:1px;stroke-linecap:butt;stroke-linejoin:miter;stroke-opacity:1" d="M 389.992,236.56 381.307,231.735 z" id="boundary" inkscape:connector-curvature="0" />
	<path style="fill:none;stroke:red;stroke-width:1px;stroke-linecap:butt;stroke-linejoin:miter;stroke-opacity:1" d="M 381.307,231.735 371.658,231.735 z" id="boundary" inkscape:connector-curvature="0" />
	<path style="fill:none;stroke:red;stroke-width:1px;stroke-linecap:butt;stroke-linejoin:miter;stroke-opacity:1" d="M 371.658,231.735 362.008,231.735 z" id="boundary" inkscape:connector-curvature="0" />
	<path style="fill:none;stroke:red;stroke-width:1px;stroke-linecap:butt;stroke-linejoin:miter;stroke-opacity:1" d="M 362.008,231.735 352.358,231.735 z" id="boundary" inkscape:connector-curvature="0" />
	<path style="fill:none;stroke:red;stroke-width:1px;stroke-linecap:butt;stroke-linejoin:miter;stroke-opacity:1" d="M 352.358,231.735 342.708,231.735 z" id="boundary" inkscape:connector-curvature="0" />
	<path style="fill:none;stroke:red;stroke-width:1px;stroke-linecap:butt;stroke-linejoin:miter;stroke-opacity:1" d="M 342.708,231.735 334.023,226.911 z" id="boundary" inkscape:connector-curvature="0" />
	<path style="fill:none;stroke:red;stroke-width:1px;stroke-linecap:butt;stroke-linejoin:miter;stroke-opacity:1" d="M 334.023,226.911 324.374,226.911 z" id="boundary" inkscape:connector-curvature="0" />
	<path style="fill:none;stroke:red;stroke-width:1px;stroke-linecap:butt;stroke-linejoin:miter;stroke-opacity:1" d="M 324.374,226.911 314.724,226.911 z" id="boundary" inkscape:connector-curvature="0" />
	<path style="fill:none;stroke:red;stroke-width:1px;stroke-linecap:butt;stroke-linejoin:miter;stroke-opacity:1" d="M 314.724,226.911 305.074,226.911 z" id="boundary" inkscape:connector-curvature="0" />
	<path style="fill:none;stroke:red;stroke-width:1px;stroke-linecap:butt;stroke-linejoin:miter;stroke-opacity:1" d="M 305.074,226.911 295.424,224.981 z" id="boundary" inkscape:connector-curvature="0" />
	<path style="fill:none;stroke:red;stroke-width:1px;stroke-linecap:butt;stroke-linejoin:miter;stroke-opacity:1" d="M 295.424,224.981 285.774,222.086 z" id="boundary" inkscape:connector-curvature="0" />
	<path style="fill:none;stroke:red;stroke-width:1px;stroke-linecap:butt;stroke-linejoin:miter;stroke-opacity:1" d="M 285.774,222.086 276.125,222.086 z" id="boundary" inkscape:connector-curvature="0" />
	<path style="fill:none;stroke:red;stroke-width:1px;stroke-linecap:butt;stroke-linejoin:miter;stroke-opacity:1" d="M 276.125,222.086 266.475,222.086 z" id="boundary" inkscape:connector-curvature="0" />
	<path style="fill:none;stroke:red;stroke-width:1px;stroke-linecap:butt;stroke-linejoin:miter;stroke-opacity:1" d="M 266.475,222.086 256.825,222.086 z" id="boundary" inkscape:connector-curvature="0" />
	<path style="fill:none;stroke:red;stroke-width:1px;stroke-linecap:butt;stroke-linejoin:miter;stroke-opacity:1" d="M 256.825,222.086 247.175,220.156 z" id="boundary" inkscape:connector-curvature="0" />
	<path style="fill:none;stroke:red;stroke-width:1px;stroke-linecap:butt;stroke-linejoin:miter;stroke-opacity:1" d="M 247.175,220.156 237.525,217.261 z" id="boundary" inkscape:connector-curvature="0" />
	<path style="fill:none;stroke:red;stroke-width:1px;stroke-linecap:butt;stroke-linejoin:miter;stroke-opacity:1" d="M 237.525,217.261 227.875,217.261 z" id="boundary" inkscape:connector-curvature="0" />
	<path style="fill:none;stroke:red;stroke-width:1px;stroke-linecap:butt;stroke-linejoin:miter;stroke-opacity:1" d="M 227.875,217.261 218.226,217.261 z" id="boundary" inkscape:connector-curvature="0" />
	<path style="fill:none;stroke:red;stroke-width:1px;stroke-linecap:butt;stroke-linejoin:miter;stroke-opacity:1" d="M 218.226,217.261 209.541,212.436 z" id="boundary" inkscape:connector-curvature="0" />
	<path style="fill:none;stroke:red;stroke-width:1px;stroke-linecap:butt;stroke-linejoin:miter;stroke-opacity:1" d="M 209.541,212.436 199.891,212.436 z" id="boundary" inkscape:connector-curvature="0" />
	<path style="fill:none;stroke:red;stroke-width:1px;stroke-linecap:butt;stroke-linejoin:miter;stroke-opacity:1" d="M 199.891,212.436 191.206,207.611 z" id="boundary" inkscape:connector-curvature="0" />
	<path style="fill:none;stroke:red;stroke-width:1px;stroke-linecap:butt;stroke-linejoin:miter;stroke-opacity:1" d="M 191.206,207.611 182.521,202.786 z" id="boundary" inkscape:connector-curvature="0" />
	<path style="fill:none;stroke:red;stroke-width:1px;stroke-linecap:butt;stroke-linejoin:miter;stroke-opacity:1" d="M 182.521,202.786 172.872,198.926 z" id="boundary" inkscape:connector-curvature="0" />
	<path style="fill:none;stroke:red;stroke-width:1px;stroke-linecap:butt;stroke-linejoin:miter;stroke-opacity:1" d="M 172.872,198.926 168.047,190.241 z" id="boundary" inkscape:connector-curvature="0" />
	<path style="fill:none;stroke:red;stroke-width:1px;stroke-linecap:butt;stroke-linejoin:miter;stroke-opacity:1" d="M 168.047,190.241 164.187,180.591 z" id="boundary" inkscape:connector-curvature="0" />
	<path style="fill:none;stroke:red;stroke-width:1px;stroke-linecap:butt;stroke-linejoin:miter;stroke-opacity:1" d="M 164.187,180.591 156.467,173.837 z" id="boundary" inkscape:connector-curvature="0" />
	<path style="fill:none;stroke:red;stroke-width:1px;stroke-linecap:butt;stroke-linejoin:miter;stroke-opacity:1" d="M 156.467,173.837 146.817,177.696 z" id="boundary" inkscape:connector-curvature="0" />
	<path style="fill:none;stroke:red;stroke-width:1px;stroke-linecap:butt;stroke-linejoin:miter;stroke-opacity:1" d="M 146.817,177.696 137.167,178.661 z" id="boundary" inkscape:connector-curvature="0" />
	<path style="fill:none;stroke:red;stroke-width:1px;stroke-linecap:butt;stroke-linejoin:miter;stroke-opacity:1" d="M 137.167,178.661 128.482,183.486 z" id="boundary" inkscape:connector-curvature="0" />
	<path style="fill:none;stroke:red;stroke-width:1px;stroke-linecap:butt;stroke-linejoin:miter;stroke-opacity:1" d="M 128.482,183.486 118.833,186.381 z" id="boundary" inkscape:connector-curvature="0" />
	<path style="fill:none;stroke:red;stroke-width:1px;stroke-linecap:butt;stroke-linejoin:miter;stroke-opacity:1" d="M 118.833,186.381 109.183,191.206 z" id="boundary" inkscape:connector-curvature="0" />
	<path style="fill:none;stroke:red;stroke-width:1px;stroke-linecap:butt;stroke-linejoin:miter;stroke-opacity:1" d="M 109.183,191.206 99.5331,196.031 z" id="boundary" inkscape:connector-curvature="0" />
	<path style="fill:none;stroke:red;stroke-width:1px;stroke-linecap:butt;stroke-linejoin:miter;stroke-opacity:1" d="M 99.5331,196.031 89.8833,197.961 z" id="boundary" inkscape:connector-curvature="0" />
	<path style="fill:none;stroke:red;stroke-width:1px;stroke-linecap:butt;stroke-linejoin:miter;stroke-opacity:1" d="M 89.8833,197.961 80.2335,200.856 z" id="boundary" inkscape:connector-curvature="0" />
	<path style="fill:none;stroke:red;stroke-width:1px;stroke-linecap:butt;stroke-linejoin:miter;stroke-opacity:1" d="M 80.2335,200.856 70.5837,202.786 z" id="boundary" inkscape:connector-curvature="0" />
	<path style="fill:none;stroke:red;stroke-width:1px;stroke-linecap:butt;stroke-linejoin:miter;stroke-opacity:1" d="M 70.5837,202.786 61.8988,207.611 z" id="boundary" inkscape:connector-curvature="0" />
	<path style="fill:none;stroke:red;stroke-width:1px;stroke-linecap:butt;stroke-linejoin:miter;stroke-opacity:1" d="M 61.8988,207.611 52.249,209.541 z" id="boundary" inkscape:connector-curvature="0" />
	<path style="fill:none;stroke:red;stroke-width:1px;stroke-linecap:butt;stroke-linejoin:miter;stroke-opacity:1" d="M 52.249,209.541 42.5992,212.436 z" id="boundary" inkscape:connector-curvature="0" />
	<path style="fill:none;stroke:red;stroke-width:1px;stroke-linecap:butt;stroke-linejoin:miter;stroke-opacity:1" d="M 42.5992,212.436 33.9144,207.611 z" id="boundary" inkscape:connector-curvature="0" />
	<path style="fill:none;stroke:red;stroke-width:1px;stroke-linecap:butt;stroke-linejoin:miter;stroke-opacity:1" d="M 33.9144,207.611 25.2296,202.786 z" id="boundary" inkscape:connector-curvature="0" />
	<path style="fill:none;stroke:red;stroke-width:1px;stroke-linecap:butt;stroke-linejoin:miter;stroke-opacity:1" d="M 25.2296,202.786 16.5447,197.961 z" id="boundary" inkscape:connector-curvature="0" />
	<path style="fill:none;stroke:red;stroke-width:1px;stroke-linecap:butt;stroke-linejoin:miter;stroke-opacity:1" d="M 16.5447,197.961 13.6498,188.311 z" id="boundary" inkscape:connector-curvature="0" />
	<path style="fill:none;stroke:red;stroke-width:1px;stroke-linecap:butt;stroke-linejoin:miter;stroke-opacity:1" d="M 13.6498,188.311 8.8249,179.626 z" id="boundary" inkscape:connector-curvature="0" />
	<path style="fill:none;stroke:red;stroke-width:1px;stroke-linecap:butt;stroke-linejoin:miter;stroke-opacity:1" d="M 8.8249,179.626 4,170.942 z" id="boundary" inkscape:connector-curvature="0" />
	<path style="fill:none;stroke:red;stroke-width:1px;stroke-linecap:butt;stroke-linejoin:miter;stroke-opacity:1" d="M 4,170.942 4,161.292 z" id="boundary" inkscape:connector-curvature="0" />
	<path style="fill:none;stroke:red;stroke-width:1px;stroke-linecap:butt;stroke-linejoin:miter;stroke-opacity:1" d="M 4,161.292 4,151.642 z" id="boundary" inkscape:connector-curvature="0" />
	<path style="fill:none;stroke:red;stroke-width:1px;stroke-linecap:butt;stroke-linejoin:miter;stroke-opacity:1" d="M 4,151.642 4,141.992 z" id="boundary" inkscape:connector-curvature="0" />
	<path style="fill:none;stroke:red;stroke-width:1px;stroke-linecap:butt;stroke-linejoin:miter;stroke-opacity:1" d="M 4,141.992 4,132.342 z" id="boundary" inkscape:connector-curvature="0" />
	<path style="fill:none;stroke:red;stroke-width:1px;stroke-linecap:butt;stroke-linejoin:miter;stroke-opacity:1" d="M 4,132.342 4,122.693 z" id="boundary" inkscape:connector-curvature="0" />
	<path style="fill:none;stroke:red;stroke-width:1px;stroke-linecap:butt;stroke-linejoin:miter;stroke-opacity:1" d="M 4,122.693 11.7198,114.973 z" id="boundary" inkscape:connector-curvature="0" />
	<path style="fill:none;stroke:red;stroke-width:1px;stroke-linecap:butt;stroke-linejoin:miter;stroke-opacity:1" d="M 11.7198,114.973 13.6498,103.393 z" id="boundary" inkscape:connector-curvature="0" />
	<path style="fill:none;stroke:red;stroke-width:1px;stroke-linecap:butt;stroke-linejoin:miter;stroke-opacity:1" d="M 13.6498,103.393 18.4747,93.7432 z" id="boundary" inkscape:connector-curvature="0" />
	<path style="fill:none;stroke:red;stroke-width:1px;stroke-linecap:butt;stroke-linejoin:miter;stroke-opacity:1" d="M 18.4747,93.7432 28.1245,88.9183 z" id="boundary" inkscape:connector-curvature="0" />
	<path style="fill:none;stroke:red;stroke-width:1px;stroke-linecap:butt;stroke-linejoin:miter;stroke-opacity:1" d="M 28.1245,88.9183 35.8444,81.1984 z" id="boundary" inkscape:connector-curvature="0" />
	<path style="fill:none;stroke:red;stroke-width:1px;stroke-linecap:butt;stroke-linejoin:miter;stroke-opacity:1" d="M 35.8444,81.1984 45.4942,81.1984 z" id="boundary" inkscape:connector-curvature="0" />
	<path style="fill:none;stroke:red;stroke-width:1px;stroke-linecap:butt;stroke-linejoin:miter;stroke-opacity:1" d="M 45.4942,81.1984 55.144,81.1984 z" id="boundary" inkscape:connector-curvature="0" />
	<path style="fill:none;stroke:red;stroke-width:1px;stroke-linecap:butt;stroke-linejoin:miter;stroke-opacity:1" d="M 55.144,81.1984 63.8288,86.0233 z" id="boundary" inkscape:connector-curvature="0" />
	<path style="fill:none;stroke:red;stroke-width:1px;stroke-linecap:butt;stroke-linejoin:miter;stroke-opacity:1" d="M 63.8288,86.0233 73.4786,86.0233 z" id="boundary" inkscape:connector-curvature="0" />
	<path style="fill:none;stroke:red;stroke-width:1px;stroke-linecap:butt;stroke-linejoin:miter;stroke-opacity:1" d="M 73.4786,86.0233 82.1634,90.8482 z" id="boundary" inkscape:connector-curvature="0" />
	<path style="fill:none;stroke:red;stroke-width:1px;stroke-linecap:butt;stroke-linejoin:miter;stroke-opacity:1" d="M 82.1634,90.8482 91.8132,90.8482 z" id="boundary" inkscape:connector-curvature="0" />
	<path style="fill:none;stroke:red;stroke-width:1px;stroke-linecap:butt;stroke-linejoin:miter;stroke-opacity:1" d="M 91.8132,90.8482 101.463,90.8482 z" id="boundary" inkscape:connector-curvature="0" />
	<path style="fill:none;stroke:red;stroke-width:1px;stroke-linecap:butt;stroke-linejoin:miter;stroke-opacity:1" d="M 101.463,90.8482 110.148,95.6732 z" id="boundary" inkscape:connector-curvature="0" />
	<path style="fill:none;stroke:red;stroke-width:1px;stroke-linecap:butt;stroke-linejoin:miter;stroke-opacity:1" d="M 110.148,95.6732 119.798,97.6031 z" id="boundary" inkscape:connector-curvature="0" />
	<path style="fill:none;stroke:red;stroke-width:1px;stroke-linecap:butt;stroke-linejoin:miter;stroke-opacity:1" d="M 119.798,97.6031 128.482,102.428 z" id="boundary" inkscape:connector-curvature="0" />
	<path style="fill:none;stroke:red;stroke-width:1px;stroke-linecap:butt;stroke-linejoin:miter;stroke-opacity:1" d="M 128.482,102.428 138.132,106.288 z" id="boundary" inkscape:connector-curvature="0" />
	<path style="fill:none;stroke:red;stroke-width:1px;stroke-linecap:butt;stroke-linejoin:miter;stroke-opacity:1" d="M 138.132,106.288 147.782,110.148 z" id="boundary" inkscape:connector-curvature="0" />
	<path style="fill:none;stroke:red;stroke-width:1px;stroke-linecap:butt;stroke-linejoin:miter;stroke-opacity:1" d="M 147.782,110.148 157.432,110.148 z" id="boundary" inkscape:connector-curvature="0" />
	<path style="fill:none;stroke:red;stroke-width:1px;stroke-linecap:butt;stroke-linejoin:miter;stroke-opacity:1" d="M 157.432,110.148 163.222,93.7432 z" id="boundary" inkscape:connector-curvature="0" />
	<path style="fill:none;stroke:red;stroke-width:1px;stroke-linecap:butt;stroke-linejoin:miter;stroke-opacity:1" d="M 163.222,93.7432 170.942,86.0233 z" id="boundary" inkscape:connector-curvature="0" />
	<path style="fill:none;stroke:red;stroke-width:1px;stroke-linecap:butt;stroke-linejoin:miter;stroke-opacity:1" d="M 170.942,86.0233 178.661,78.3035 z" id="boundary" inkscape:connector-curvature="0" />
	<path style="fill:none;stroke:red;stroke-width:1px;stroke-linecap:butt;stroke-linejoin:miter;stroke-opacity:1" d="M 178.661,78.3035 188.311,73.4786 z" id="boundary" inkscape:connector-curvature="0" />
	<path style="fill:none;stroke:red;stroke-width:1px;stroke-linecap:butt;stroke-linejoin:miter;stroke-opacity:1" d="M 188.311,73.4786 197.961,68.6537 z" id="boundary" inkscape:connector-curvature="0" />
	<path style="fill:none;stroke:red;stroke-width:1px;stroke-linecap:butt;stroke-linejoin:miter;stroke-opacity:1" d="M 197.961,68.6537 207.611,63.8288 z" id="boundary" inkscape:connector-curvature="0" />
	<path style="fill:none;stroke:red;stroke-width:1px;stroke-linecap:butt;stroke-linejoin:miter;stroke-opacity:1" d="M 207.611,63.8288 215.331,57.0739 z" id="boundary" inkscape:connector-curvature="0" />
	<path style="fill:none;stroke:red;stroke-width:1px;stroke-linecap:butt;stroke-linejoin:miter;stroke-opacity:1" d="M 215.331,57.0739 224.016,52.249 z" id="boundary" inkscape:connector-curvature="0" />
	<path style="fill:none;stroke:red;stroke-width:1px;stroke-linecap:butt;stroke-linejoin:miter;stroke-opacity:1" d="M 224.016,52.249 233.665,52.249 z" id="boundary" inkscape:connector-curvature="0" />
	<path style="fill:none;stroke:red;stroke-width:1px;stroke-linecap:butt;stroke-linejoin:miter;stroke-opacity:1" d="M 233.665,52.249 242.35,47.4241 z" id="boundary" inkscape:connector-curvature="0" />
	<path style="fill:none;stroke:red;stroke-width:1px;stroke-linecap:butt;stroke-linejoin:miter;stroke-opacity:1" d="M 242.35,47.4241 252,43.5642 z" id="boundary" inkscape:connector-curvature="0" />
	<path style="fill:none;stroke:red;stroke-width:1px;stroke-linecap:butt;stroke-linejoin:miter;stroke-opacity:1" d="M 252,43.5642 261.65,42.5992 z" id="boundary" inkscape:connector-curvature="0" />
	<path style="fill:none;stroke:red;stroke-width:1px;stroke-linecap:butt;stroke-linejoin:miter;stroke-opacity:1" d="M 261.65,42.5992 271.3,42.5992 z" id="boundary" inkscape:connector-curvature="0" />
	<path style="fill:none;stroke:red;stroke-width:1px;stroke-linecap:butt;stroke-linejoin:miter;stroke-opacity:1" d="M 271.3,42.5992 279.984,37.7743 z" id="boundary" inkscape:connector-curvature="0" />
	<path style="fill:none;stroke:red;stroke-width:1px;stroke-linecap:butt;stroke-linejoin:miter;stroke-opacity:1" d="M 279.984,37.7743 289.634,37.7743 z" id="boundary" inkscape:connector-curvature="0" />
	<path style="fill:none;stroke:red;stroke-width:1px;stroke-linecap:butt;stroke-linejoin:miter;stroke-opacity:1" d="M 289.634,37.7743 298.319,32.9494 z" id="boundary" inkscape:connector-curvature="0" />
	<path style="fill:none;stroke:red;stroke-width:1px;stroke-linecap:butt;stroke-linejoin:miter;stroke-opacity:1" d="M 298.319,32.9494 307.969,32.9494 z" id="boundary" inkscape:connector-curvature="0" />
	<path style="fill:none;stroke:red;stroke-width:1px;stroke-linecap:butt;stroke-linejoin:miter;stroke-opacity:1" d="M 307.969,32.9494 317.619,31.0195 z" id="boundary" inkscape:connector-curvature="0" />
	<path style="fill:none;stroke:red;stroke-width:1px;stroke-linecap:butt;stroke-linejoin:miter;stroke-opacity:1" d="M 317.619,31.0195 327.268,28.1245 z" id="boundary" inkscape:connector-curvature="0" />
	<path style="fill:none;stroke:red;stroke-width:1px;stroke-linecap:butt;stroke-linejoin:miter;stroke-opacity:1" d="M 327.268,28.1245 336.918,28.1245 z" id="boundary" inkscape:connector-curvature="0" />
	<path style="fill:none;stroke:red;stroke-width:1px;stroke-linecap:butt;stroke-linejoin:miter;stroke-opacity:1" d="M 336.918,28.1245 345.603,23.2996 z" id="boundary" inkscape:connector-curvature="0" />
	<path style="fill:none;stroke:red;stroke-width:1px;stroke-linecap:butt;stroke-linejoin:miter;stroke-opacity:1" d="M 345.603,23.2996 355.253,23.2996 z" id="boundary" inkscape:connector-curvature="0" />
	<path style="fill:none;stroke:red;stroke-width:1px;stroke-linecap:butt;stroke-linejoin:miter;stroke-opacity:1" d="M 355.253,23.2996 364.903,23.2996 z" id="boundary" inkscape:connector-curvature="0" />
	<path style="fill:none;stroke:red;stroke-width:1px;stroke-linecap:butt;stroke-linejoin:miter;stroke-opacity:1" d="M 364.903,23.2996 374.553,23.2996 z" id="boundary" inkscape:connector-curvature="0" />
	<path style="fill:none;stroke:red;stroke-width:1px;stroke-linecap:butt;stroke-linejoin:miter;stroke-opacity:1" d="M 374.553,23.2996 383.237,18.4747 z" id="boundary" inkscape:connector-curvature="0" />
	<path style="fill:none;stroke:red;stroke-width:1px;stroke-linecap:butt;stroke-linejoin:miter;stroke-opacity:1" d="M 383.237,18.4747 392.887,18.4747 z" id="boundary" inkscape:connector-curvature="0" />
	<path style="fill:none;stroke:red;stroke-width:1px;stroke-linecap:butt;stroke-linejoin:miter;stroke-opacity:1" d="M 392.887,18.4747 402.537,13.6498 z" id="boundary" inkscape:connector-curvature="0" />
	<path style="fill:none;stroke:red;stroke-width:1px;stroke-linecap:butt;stroke-linejoin:miter;stroke-opacity:1" d="M 402.537,13.6498 412.187,13.6498 z" id="boundary" inkscape:connector-curvature="0" />
	<path style="fill:none;stroke:red;stroke-width:1px;stroke-linecap:butt;stroke-linejoin:miter;stroke-opacity:1" d="M 412.187,13.6498 421.837,13.6498 z" id="boundary" inkscape:connector-curvature="0" />
	<path style="fill:none;stroke:red;stroke-width:1px;stroke-linecap:butt;stroke-linejoin:miter;stroke-opacity:1" d="M 421.837,13.6498 430.521,8.8249 z" id="boundary" inkscape:connector-curvature="0" />
	<path style="fill:none;stroke:red;stroke-width:1px;stroke-linecap:butt;stroke-linejoin:miter;stroke-opacity:1" d="M 430.521,8.8249 440.171,8.8249 z" id="boundary" inkscape:connector-curvature="0" />
	<path style="fill:none;stroke:red;stroke-width:1px;stroke-linecap:butt;stroke-linejoin:miter;stroke-opacity:1" d="M 440.171,8.8249 449.821,8.8249 z" id="boundary" inkscape:connector-curvature="0" />
	<path style="fill:none;stroke:red;stroke-width:1px;stroke-linecap:butt;stroke-linejoin:miter;stroke-opacity:1" d="M 449.821,8.8249 459.471,8.8249 z" id="boundary" inkscape:connector-curvature="0" />
	<path style="fill:none;stroke:red;stroke-width:1px;stroke-linecap:butt;stroke-linejoin:miter;stroke-opacity:1" d="M 459.471,8.8249 469.121,8.8249 z" id="boundary" inkscape:connector-curvature="0" />
	<path style="fill:none;stroke:red;stroke-width:1px;stroke-linecap:butt;stroke-linejoin:miter;stroke-opacity:1" d="M 469.121,8.8249 478.77,8.8249 z" id="boundary" inkscape:connector-curvature="0" />
	<path style="fill:none;stroke:red;stroke-width:1px;stroke-linecap:butt;stroke-linejoin:miter;stroke-opacity:1" d="M 478.77,8.8249 488.42,8.8249 z" id="boundary" inkscape:connector-curvature="0" />
	<path style="fill:none;stroke:red;stroke-width:1px;stroke-linecap:butt;stroke-linejoin:miter;stroke-opacity:1" d="M 488.42,8.8249 497.105,4 z" id="boundary" inkscape:connector-curvature="0" />
	<path style="fill:none;stroke:red;stroke-width:1px;stroke-linecap:butt;stroke-linejoin:miter;stroke-opacity:1" d="M 497.105,4 506.755,4 z" id="boundary" inkscape:connector-curvature="0" />
	<path style="fill:none;stroke:red;stroke-width:1px;stroke-linecap:butt;stroke-linejoin:miter;stroke-opacity:1" d="M 506.755,4 516.405,4 z" id="boundary" inkscape:connector-curvature="0" />
	<path style="fill:none;stroke:red;stroke-width:1px;stroke-linecap:butt;stroke-linejoin:miter;stroke-opacity:1" d="M 516.405,4 526.054,4 z" id="boundary" inkscape:connector-curvature="0" />
	<path style="fill:none;stroke:red;stroke-width:1px;stroke-linecap:butt;stroke-linejoin:miter;stroke-opacity:1" d="M 526.054,4 535.704,4 z" id="boundary" inkscape:connector-curvature="0" />
	<path style="fill:none;stroke:red;stroke-width:1px;stroke-linecap:butt;stroke-linejoin:miter;stroke-opacity:1" d="M 535.704,4 545.354,4 z" id="boundary" inkscape:connector-curvature="0" />
	<path style="fill:none;stroke:red;stroke-width:1px;stroke-linecap:butt;stroke-linejoin:miter;stroke-opacity:1" d="M 545.354,4 555.004,4 z" id="boundary" inkscape:connector-curvature="0" />
	<path style="fill:none;stroke:red;stroke-width:1px;stroke-linecap:butt;stroke-linejoin:miter;stroke-opacity:1" d="M 555.004,4 564.654,6.89494 z" id="boundary" inkscape:connector-curvature="0" />
	<path style="fill:none;stroke:red;stroke-width:1px;stroke-linecap:butt;stroke-linejoin:miter;stroke-opacity:1" d="M 564.654,6.89494 574.304,8.8249 z" id="boundary" inkscape:connector-curvature="0" />
	<path style="fill:none;stroke:red;stroke-width:1px;stroke-linecap:butt;stroke-linejoin:miter;stroke-opacity:1" d="M 574.304,8.8249 583.953,8.8249 z" id="boundary" inkscape:connector-curvature="0" />
	<path style="fill:none;stroke:red;stroke-width:1px;stroke-linecap:butt;stroke-linejoin:miter;stroke-opacity:1" d="M 583.953,8.8249 593.603,8.8249 z" id="boundary" inkscape:connector-curvature="0" />
	<path style="fill:none;stroke:red;stroke-width:1px;stroke-linecap:butt;stroke-linejoin:miter;stroke-opacity:1" d="M 593.603,8.8249 603.253,8.8249 z" id="boundary" inkscape:connector-curvature="0" />
	<path style="fill:none;stroke:red;stroke-width:1px;stroke-linecap:butt;stroke-linejoin:miter;stroke-opacity:1" d="M 603.253,8.8249 611.938,13.6498 z" id="boundary" inkscape:connector-curvature="0" />
	<path style="fill:none;stroke:red;stroke-width:1px;stroke-linecap:butt;stroke-linejoin:miter;stroke-opacity:1" d="M 611.938,13.6498 621.588,13.6498 z" id="boundary" inkscape:connector-curvature="0" />
	<path style="fill:none;stroke:red;stroke-width:1px;stroke-linecap:butt;stroke-linejoin:miter;stroke-opacity:1" d="M 621.588,13.6498 629.307,19.4397 z" id="boundary" inkscape:connector-curvature="0" />
	<path style="fill:none;stroke:red;stroke-width:1px;stroke-linecap:butt;stroke-linejoin:miter;stroke-opacity:1" d="M 629.307,19.4397 638.957,23.2996 z" id="boundary" inkscape:connector-curvature="0" />
	<path style="fill:none;stroke:red;stroke-width:1px;stroke-linecap:butt;stroke-linejoin:miter;stroke-opacity:1" d="M 638.957,23.2996 647.642,28.1245 z" id="boundary" inkscape:connector-curvature="0" />
	<path style="fill:none;stroke:red;stroke-width:1px;stroke-linecap:butt;stroke-linejoin:miter;stroke-opacity:1" d="M 647.642,28.1245 651.502,37.7743 z" id="boundary" inkscape:connector-curvature="0" />
	<path style="fill:none;stroke:red;stroke-width:1px;stroke-linecap:butt;stroke-linejoin:miter;stroke-opacity:1" d="M 651.502,37.7743 656.327,46.4591 z" id="boundary" inkscape:connector-curvature="0" />
	<path style="fill:none;stroke:red;stroke-width:1px;stroke-linecap:butt;stroke-linejoin:miter;stroke-opacity:1" d="M 656.327,46.4591 665.977,47.4241 z" id="boundary" inkscape:connector-curvature="0" />
	<path style="fill:none;stroke:red;stroke-width:1px;stroke-linecap:butt;stroke-linejoin:miter;stroke-opacity:1" d="M 665.977,47.4241 675.626,47.4241 z" id="boundary" inkscape:connector-curvature="0" />
	<path style="fill:none;stroke:red;stroke-width:1px;stroke-linecap:butt;stroke-linejoin:miter;stroke-opacity:1" d="M 675.626,47.4241 685.276,47.4241 z" id="boundary" inkscape:connector-curvature="0" />
	<path style="fill:none;stroke:red;stroke-width:1px;stroke-linecap:butt;stroke-linejoin:miter;stroke-opacity:1" d="M 685.276,47.4241 694.926,47.4241 z" id="boundary" inkscape:connector-curvature="0" />
	<path style="fill:none;stroke:red;stroke-width:1px;stroke-linecap:butt;stroke-linejoin:miter;stroke-opacity:1" d="M 694.926,47.4241 704.576,47.4241 z" id="boundary" inkscape:connector-curvature="0" />
	<path style="fill:none;stroke:red;stroke-width:1px;stroke-linecap:butt;stroke-linejoin:miter;stroke-opacity:1" d="M 704.576,47.4241 714.226,47.4241 z" id="boundary" inkscape:connector-curvature="0" />
	<path style="fill:none;stroke:red;stroke-width:1px;stroke-linecap:butt;stroke-linejoin:miter;stroke-opacity:1" d="M 714.226,47.4241 723.875,47.4241 z" id="boundary" inkscape:connector-curvature="0" />
	<path style="fill:none;stroke:red;stroke-width:1px;stroke-linecap:butt;stroke-linejoin:miter;stroke-opacity:1" d="M 723.875,47.4241 733.525,47.4241 z" id="boundary" inkscape:connector-curvature="0" />
	<path style="fill:none;stroke:red;stroke-width:1px;stroke-linecap:butt;stroke-linejoin:miter;stroke-opacity:1" d="M 733.525,47.4241 742.21,52.249 z" id="boundary" inkscape:connector-curvature="0" />
	<path style="fill:none;stroke:red;stroke-width:1px;stroke-linecap:butt;stroke-linejoin:miter;stroke-opacity:1" d="M 742.21,52.249 751.86,52.249 z" id="boundary" inkscape:connector-curvature="0" />
	<path style="fill:none;stroke:red;stroke-width:1px;stroke-linecap:butt;stroke-linejoin:miter;stroke-opacity:1" d="M 751.86,52.249 761.51,52.249 z" id="boundary" inkscape:connector-curvature="0" />
	<path style="fill:none;stroke:red;stroke-width:1px;stroke-linecap:butt;stroke-linejoin:miter;stroke-opacity:1" d="M 761.51,52.249 771.16,52.249 z" id="boundary" inkscape:connector-curvature="0" />
	<path style="fill:none;stroke:red;stroke-width:1px;stroke-linecap:butt;stroke-linejoin:miter;stroke-opacity:1" d="M 771.16,52.249 780.809,52.249 z" id="boundary" inkscape:connector-curvature="0" />
	<path style="fill:none;stroke:red;stroke-width:1px;stroke-linecap:butt;stroke-linejoin:miter;stroke-opacity:1" d="M 780.809,52.249 789.494,57.0739 z" id="boundary" inkscape:connector-curvature="0" />
	<path style="fill:none;stroke:red;stroke-width:1px;stroke-linecap:butt;stroke-linejoin:miter;stroke-opacity:1" d="M 789.494,57.0739 799.144,58.0389 z" id="boundary" inkscape:connector-curvature="0" />
	<path style="fill:none;stroke:red;stroke-width:1px;stroke-linecap:butt;stroke-linejoin:miter;stroke-opacity:1" d="M 799.144,58.0389 808.794,61.8988 z" id="boundary" inkscape:connector-curvature="0" />
	<path style="fill:none;stroke:red;stroke-width:1px;stroke-linecap:butt;stroke-linejoin:miter;stroke-opacity:1" d="M 808.794,61.8988 814.584,54.179 z" id="boundary" inkscape:connector-curvature="0" />
	<path style="fill:none;stroke:red;stroke-width:1px;stroke-linecap:butt;stroke-linejoin:miter;stroke-opacity:1" d="M 814.584,54.179 814.584,44.5292 z" id="boundary" inkscape:connector-curvature="0" />
	<path style="fill:none;stroke:red;stroke-width:1px;stroke-linecap:butt;stroke-linejoin:miter;stroke-opacity:1" d="M 814.584,44.5292 809.759,35.8444 z" id="boundary" inkscape:connector-curvature="0" />
	<path style="fill:none;stroke:red;stroke-width:1px;stroke-linecap:butt;stroke-linejoin:miter;stroke-opacity:1" d="M 809.759,35.8444 809.759,26.1946 z" id="boundary" inkscape:connector-curvature="0" />
	<path style="fill:none;stroke:red;stroke-width:1px;stroke-linecap:butt;stroke-linejoin:miter;stroke-opacity:1" d="M 809.759,26.1946 819.409,30.0545 z" id="boundary" inkscape:connector-curvature="0" />
	<path style="fill:none;stroke:red;stroke-width:1px;stroke-linecap:butt;stroke-linejoin:miter;stroke-opacity:1" d="M 819.409,30.0545 825.198,37.7743 z" id="boundary" inkscape:connector-curvature="0" />
	<path style="fill:none;stroke:red;stroke-width:1px;stroke-linecap:butt;stroke-linejoin:miter;stroke-opacity:1" d="M 825.198,37.7743 825.198,47.4241 z" id="boundary" inkscape:connector-curvature="0" />
	<path style="fill:none;stroke:red;stroke-width:1px;stroke-linecap:butt;stroke-linejoin:miter;stroke-opacity:1" d="M 825.198,47.4241 830.023,56.1089 z" id="boundary" inkscape:connector-curvature="0" />
	<path style="fill:none;stroke:red;stroke-width:1px;stroke-linecap:butt;stroke-linejoin:miter;stroke-opacity:1" d="M 830.023,56.1089 830.023,65.7588 z" id="boundary" inkscape:connector-curvature="0" />
	<path style="fill:none;stroke:red;stroke-width:1px;stroke-linecap:butt;stroke-linejoin:miter;stroke-opacity:1" d="M 830.023,65.7588 839.673,66.7237 z" id="boundary" inkscape:connector-curvature="0" />
	<path style="fill:none;stroke:red;stroke-width:1px;stroke-linecap:butt;stroke-linejoin:miter;stroke-opacity:1" d="M 839.673,66.7237 848.358,71.5486 z" id="boundary" inkscape:connector-curvature="0" />
	<path style="fill:none;stroke:red;stroke-width:1px;stroke-linecap:butt;stroke-linejoin:miter;stroke-opacity:1" d="M 848.358,71.5486 858.008,71.5486 z" id="boundary" inkscape:connector-curvature="0" />
	<path style="fill:none;stroke:red;stroke-width:1px;stroke-linecap:butt;stroke-linejoin:miter;stroke-opacity:1" d="M 858.008,71.5486 867.658,73.4786 z" id="boundary" inkscape:connector-curvature="0" />
	<path style="fill:none;stroke:red;stroke-width:1px;stroke-linecap:butt;stroke-linejoin:miter;stroke-opacity:1" d="M 867.658,73.4786 877.307,71.5486 z" id="boundary" inkscape:connector-curvature="0" />
	<path style="fill:none;stroke:red;stroke-width:1px;stroke-linecap:butt;stroke-linejoin:miter;stroke-opacity:1" d="M 877.307,71.5486 885.992,76.3735 z" id="boundary" inkscape:connector-curvature="0" />
	<path style="fill:none;stroke:red;stroke-width:1px;stroke-linecap:butt;stroke-linejoin:miter;stroke-opacity:1" d="M 885.992,76.3735 894.677,81.1984 z" id="boundary" inkscape:connector-curvature="0" />
	<path style="fill:none;stroke:red;stroke-width:1px;stroke-linecap:butt;stroke-linejoin:miter;stroke-opacity:1" d="M 894.677,81.1984 904.327,81.1984 z" id="boundary" inkscape:connector-curvature="0" />
	<path style="fill:none;stroke:red;stroke-width:1px;stroke-linecap:butt;stroke-linejoin:miter;stroke-opacity:1" d="M 904.327,81.1984 913.977,81.1984 z" id="boundary" inkscape:connector-curvature="0" />
	<path style="fill:none;stroke:red;stroke-width:1px;stroke-linecap:butt;stroke-linejoin:miter;stroke-opacity:1" d="M 913.977,81.1984 922.661,86.0233 z" id="boundary" inkscape:connector-curvature="0" />
	<path style="fill:none;stroke:red;stroke-width:1px;stroke-linecap:butt;stroke-linejoin:miter;stroke-opacity:1" d="M 922.661,86.0233 932.311,86.0233 z" id="boundary" inkscape:connector-curvature="0" />
	<path style="fill:none;stroke:red;stroke-width:1px;stroke-linecap:butt;stroke-linejoin:miter;stroke-opacity:1" d="M 932.311,86.0233 940.996,90.8482 z" id="boundary" inkscape:connector-curvature="0" />
	<path style="fill:none;stroke:red;stroke-width:1px;stroke-linecap:butt;stroke-linejoin:miter;stroke-opacity:1" d="M 940.996,90.8482 950.646,90.8482 z" id="boundary" inkscape:connector-curvature="0" />
	<path style="fill:none;stroke:red;stroke-width:1px;stroke-linecap:butt;stroke-linejoin:miter;stroke-opacity:1" d="M 950.646,90.8482 960.296,87.9533 z" id="boundary" inkscape:connector-curvature="0" />
	<path style="fill:none;stroke:red;stroke-width:1px;stroke-linecap:butt;stroke-linejoin:miter;stroke-opacity:1" d="M 960.296,87.9533 968.016,81.1984 z" id="boundary" inkscape:connector-curvature="0" />
	<path style="fill:none;stroke:red;stroke-width:1px;stroke-linecap:butt;stroke-linejoin:miter;stroke-opacity:1" d="M 968.016,81.1984 974.77,88.9183 z" id="boundary" inkscape:connector-curvature="0" />
	<path style="fill:none;stroke:red;stroke-width:1px;stroke-linecap:butt;stroke-linejoin:miter;stroke-opacity:1" d="M 974.77,88.9183 984.42,86.0233 z" id="boundary" inkscape:connector-curvature="0" />
	<path style="fill:none;stroke:red;stroke-width:1px;stroke-linecap:butt;stroke-linejoin:miter;stroke-opacity:1" d="M 984.42,86.0233 989.245,96.6381 z" id="boundary" inkscape:connector-curvature="0" />
	<path style="fill:none;stroke:red;stroke-width:1px;stroke-linecap:butt;stroke-linejoin:miter;stroke-opacity:1" d="M 989.245,96.6381 982.49,104.358 z" id="boundary" inkscape:connector-curvature="0" />
	<path style="fill:none;stroke:red;stroke-width:1px;stroke-linecap:butt;stroke-linejoin:miter;stroke-opacity:1" d="M 982.49,104.358 974.77,111.113 z" id="boundary" inkscape:connector-curvature="0" />
	<path style="fill:none;stroke:red;stroke-width:1px;stroke-linecap:butt;stroke-linejoin:miter;stroke-opacity:1" d="M 974.77,111.113 979.595,119.798 z" id="boundary" inkscape:connector-curvature="0" />
	<path style="fill:none;stroke:red;stroke-width:1px;stroke-linecap:butt;stroke-linejoin:miter;stroke-opacity:1" d="M 979.595,119.798 979.595,129.447 z" id="boundary" inkscape:connector-curvature="0" />
	<path style="fill:none;stroke:red;stroke-width:1px;stroke-linecap:butt;stroke-linejoin:miter;stroke-opacity:1" d="M 979.595,129.447 979.595,139.097 z" id="boundary" inkscape:connector-curvature="0" />
	<path style="fill:none;stroke:red;stroke-width:1px;stroke-linecap:butt;stroke-linejoin:miter;stroke-opacity:1" d="M 979.595,139.097 974.77,154.537 z" id="boundary" inkscape:connector-curvature="0" />
	<path style="fill:none;stroke:red;stroke-width:1px;stroke-linecap:butt;stroke-linejoin:miter;stroke-opacity:1" d="M 974.77,154.537 979.595,163.222 z" id="boundary" inkscape:connector-curvature="0" />
	<path style="fill:none;stroke:red;stroke-width:1px;stroke-linecap:butt;stroke-linejoin:miter;stroke-opacity:1" d="M 979.595,163.222 988.28,168.047 z" id="boundary" inkscape:connector-curvature="0" />
	<path style="fill:none;stroke:red;stroke-width:1px;stroke-linecap:butt;stroke-linejoin:miter;stroke-opacity:1" d="M 988.28,168.047 996,173.837 z" id="boundary" inkscape:connector-curvature="0" />
	<circle cx="4" cy="122.693" r="4" fill="#0" id="circle0"/>
	<circle cx="4" cy="132.342" r="4" fill="#0" id="circle1"/>
	<circle cx="4" cy="141.992" r="4" fill="#0" id="circle2"/>
	<circle cx="4" cy="151.642" r="4" fill="#0" id="circle3"/>
	<circle cx="4" cy="161.292" r="4" fill="#0" id="circle4"/>
	<circle cx="4" cy="170.942" r="4" fill="#0" id="circle5"/>
	<circle cx="8.8249" cy="179.626" r="4" fill="#0" id="circle6"/>
	<circle cx="11.7198" cy="114.973" r="4" fill="#0" id="circle7"/>
	<circle cx="13.6498" cy="103.393" r="4" fill="#0" id="circle8"/>
	<circle cx="13.6498" cy="188.311" r="4" fill="#0" id="circle9"/>
	<circle cx="16.5447" cy="197.961" r="4" fill="#0" id="circle10"/>
	<circle cx="18.4747" cy="93.7432" r="4" fill="#0" id="circle11"/>
	<circle cx="25.2296" cy="202.786" r="4" fill="#0" id="circle12"/>
	<circle cx="28.1245" cy="88.9183" r="4" fill="#0" id="circle13"/>
	<circle cx="33.9144" cy="207.611" r="4" fill="#0" id="circle14"/>
	<circle cx="35.8444" cy="81.1984" r="4" fill="#0" id="circle15"/>
	<circle cx="42.5992" cy="212.436" r="4" fill="#0" id="circle16"/>
	<circle cx="45.4942" cy="81.1984" r="4" fill="#0" id="circle17"/>
	<circle cx="52.249" cy="209.541" r="4" fill="#0" id="circle18"/>
	<circle cx="55.144" cy="81.1984" r="4" fill="#0" id="circle19"/>
	<circle cx="61.8988" cy="207.611" r="4" fill="#0" id="circle20"/>
	<circle cx="63.8288" cy="86.0233" r="4" fill="#0" id="circle21"/>
	<circle cx="70.5837" cy="202.786" r="4" fill="#0" id="circle22"/>
	<circle cx="73.4786" cy="86.0233" r="4" fill="#0" id="circle23"/>
	<circle cx="80.2335" cy="200.856" r="4" fill="#0" id="circle24"/>
	<circle cx="82.1634" cy="90.8482" r="4" fill="#0" id="circle25"/>
	<circle cx="89.8833" cy="197.961" r="4" fill="#0" id="circle26"/>
	<circle cx="91.8132" cy="90.8482" r="4" fill="#0" id="circle27"/>
	<circle cx="99.5331" cy="196.031" r="4" fill="#0" id="circle28"/>
	<circle cx="101.463" cy="90.8482" r="4" fill="#0" id="circle29"/>
	<circle cx="109.183" cy="191.206" r="4" fill="#0" id="circle30"/>
	<circle cx="110.148" cy="95.6732" r="4" fill="#0" id="circle31"/>
	<circle cx="118.833" cy="186.381" r="4" fill="#0" id="circle32"/>
	<circle cx="119.798" cy="97.6031" r="4" fill="#0" id="circle33"/>
	<circle cx="128.482" cy="102.428" r="4" fill="#0" id="circle34"/>
	<circle cx="128.482" cy="183.486" r="4" fill="#0" id="circle35"/>
	<circle cx="137.167" cy="178.661" r="4" fill="#0" id="circle36"/>
	<circle cx="138.132" cy="106.288" r="4" fill="#0" id="circle37"/>
	<circle cx="146.817" cy="177.696" r="4" fill="#0" id="circle38"/>
	<circle cx="147.782" cy="110.148" r="4" fill="#0" id="circle39"/>
	<circle cx="156.467" cy="173.837" r="4" fill="#0" id="circle40"/>
	<circle cx="157.432" cy="110.148" r="4" fill="#0" id="circle41"/>
	<circle cx="163.222" cy="93.7432" r="4" fill="#0" id="circle42"/>
	<circle cx="164.187" cy="180.591" r="4" fill="#0" id="circle43"/>
	<circle cx="168.047" cy="190.241" r="4" fill="#0" id="circle44"/>
	<circle cx="170.942" cy="86.0233" r="4" fill="#0" id="circle45"/>
	<circle cx="172.872" cy="198.926" r="4" fill="#0" id="circle46"/>
	<circle cx="178.661" cy="78.3035" r="4" fill="#0" id="circle47"/>
	<circle cx="182.521" cy="202.786" r="4" fill="#0" id="circle48"/>
	<circle cx="188.311" cy="73.4786" r="4" fill="#0" id="circle49"/>
	<circle cx="191.206" cy="207.611" r="4" fill="#0" id="circle50"/>
	<circle cx="197.961" cy="68.6537" r="4" fill="#0" id="circle51"/>
	<circle cx="199.891" cy="212.436" r="4" fill="#0" id="circle52"/>
	<circle cx="207.611" cy="63.8288" r="4" fill="#0" id="circle53"/>
	<circle cx="209.541" cy="212.436" r="4" fill="#0" id="circle54"/>
	<circle cx="215.331" cy="57.0739" r="4" fill="#0" id="circle55"/>
	<circle cx="218.226" cy="217.261" r="4" fill="#0" id="circle56"/>
	<circle cx="224.016" cy="52.249" r="4" fill="#0" id="circle57"/>
	<circle cx="227.875" cy="217.261" r="4" fill="#0" id="circle58"/>
	<circle cx="233.665" cy="52.249" r="4" fill="#0" id="circle59"/>
	<circle cx="237.525" cy="217.261" r="4" fill="#0" id="circle60"/>
	<circle cx="242.35" cy="47.4241" r="4" fill="#0" id="circle61"/>
	<circle cx="247.175" cy="220.156" r="4" fill="#0" id="circle62"/>
	<circle cx="252" cy="43.5642" r="4" fill="#0" id="circle63"/>
	<circle cx="256.825" cy="222.086" r="4" fill="#0" id="circle64"/>
	<circle cx="261.65" cy="42.5992" r="4" fill="#0" id="circle65"/>
	<circle cx="266.475" cy="222.086" r="4" fill="#0" id="circle66"/>
	<circle cx="271.3" cy="42.5992" r="4" fill="#0" id="circle67"/>
	<circle cx="276.125" cy="222.086" r="4" fill="#0" id="circle68"/>
	<circle cx="279.984" cy="37.7743" r="4" fill="#0" id="circle69"/>
	<circle cx="285.774" cy="222.086" r="4" fill="#0" id="circle70"/>
	<circle cx="289.634" cy="37.7743" r="4" fill="#0" id="circle71"/>
	<circle cx="295.424" cy="224.981" r="4" fill="#0" id="circle72"/>
	<circle cx="298.319" cy="32.9494" r="4" fill="#0" id="circle73"/>
	<circle cx="305.074" cy="226.911" r="4" fill="#0" id="circle74"/>
	<circle cx="307.969" cy="32.9494" r="4" fill="#0" id="circle75"/>
	<circle cx="314.724" cy="226.911" r="4" fill="#0" id="circle76"/>
	<circle cx="317.619" cy="31.0195" r="4" fill="#0" id="circle77"/>
	<circle cx="324.374" cy="226.911" r="4" fill="#0" id="circle78"/>
	<circle cx="327.268" cy="28.1245" r="4" fill="#0" id="circle79"/>
	<circle cx="334.023" cy="226.911" r="4" fill="#0" id="circle80"/>
	<circle cx="336.918" cy="28.1245" r="4" fill="#0" id="circle81"/>
	<circle cx="342.708" cy="231.735" r="4" fill="#0" id="circle82"/>
	<circle cx="345.603" cy="23.2996" r="4" fill="#0" id="circle83"/>
	<circle cx="352.358" cy="231.735" r="4" fill="#0" id="circle84"/>
	<circle cx="355.253" cy="23.2996" r="4" fill="#0" id="circle85"/>
	<circle cx="362.008" cy="231.735" r="4" fill="#0" id="circle86"/>
	<circle cx="364.903" cy="23.2996" r="4" fill="#0" id="circle87"/>
	<circle cx="371.658" cy="231.735" r="4" fill="#0" id="circle88"/>
	<circle cx="374.553" cy="23.2996" r="4" fill="#0" id="circle89"/>
	<circle cx="381.307" cy="231.735" r="4" fill="#0" id="circle90"/>
	<circle cx="383.237" cy="18.4747" r="4" fill="#0" id="circle91"/>
	<circle cx="389.992" cy="236.56" r="4" fill="#0" id="circle92"/>
	<circle cx="392.887" cy="18.4747" r="4" fill="#0" id="circle93"/>
	<circle cx="399.642" cy="236.56" r="4" fill="#0" id="circle94"/>
	<circle cx="402.537" cy="13.6498" r="4" fill="#0" id="circle95"/>
	<circle cx="409.292" cy="236.56" r="4" fill="#0" id="circle96"/>
	<circle cx="412.187" cy="13.6498" r="4" fill="#0" id="circle97"/>
	<circle cx="418.942" cy="236.56" r="4" fill="#0" id="circle98"/>
	<circle cx="421.837" cy="13.6498" r="4" fill="#0" id="circle99"/>
	<circle cx="428.591" cy="236.56" r="4" fill="#0" id="circle100"/>
	<circle cx="430.521" cy="8.8249" r="4" fill="#0" id="circle101"/>
	<circle cx="438.241" cy="236.56" r="4" fill="#0" id="circle102"/>
	<circle cx="440.171" cy="8.8249" r="4" fill="#0" id="circle103"/>
	<circle cx="446.926" cy="241.385" r="4" fill="#0" id="circle104"/>
	<circle cx="449.821" cy="8.8249" r="4" fill="#0" id="circle105"/>
	<circle cx="456.576" cy="241.385" r="4" fill="#0" id="circle106"/>
	<circle cx="459.471" cy="8.8249" r="4" fill="#0" id="circle107"/>
	<circle cx="466.226" cy="241.385" r="4" fill="#0" id="circle108"/>
	<circle cx="469.121" cy="8.8249" r="4" fill="#0" id="circle109"/>
	<circle cx="475.875" cy="241.385" r="4" fill="#0" id="circle110"/>
	<circle cx="478.77" cy="8.8249" r="4" fill="#0" id="circle111"/>
	<circle cx="485.525" cy="241.385" r="4" fill="#0" id="circle112"/>
	<circle cx="488.42" cy="8.8249" r="4" fill="#0" id="circle113"/>
	<circle cx="495.175" cy="241.385" r="4" fill="#0" id="circle114"/>
	<circle cx="497.105" cy="4" r="4" fill="#0" id="circle115"/>
	<circle cx="504.825" cy="241.385" r="4" fill="#0" id="circle116"/>
	<circle cx="506.755" cy="4" r="4" fill="#0" id="circle117"/>
	<circle cx="514.475" cy="241.385" r="4" fill="#0" id="circle118"/>
	<circle cx="516.405" cy="4" r="4" fill="#0" id="circle119"/>
	<circle cx="523.16" cy="246.21" r="4" fill="#0" id="circle120"/>
	<circle cx="526.054" cy="4" r="4" fill="#0" id="circle121"/>
	<circle cx="532.809" cy="246.21" r="4" fill="#0" id="circle122"/>
	<circle cx="535.704" cy="4" r="4" fill="#0" id="circle123"/>
	<circle cx="542.459" cy="246.21" r="4" fill="#0" id="circle124"/>
	<circle cx="545.354" cy="4" r="4" fill="#0" id="circle125"/>
	<circle cx="552.109" cy="245.245" r="4" fill="#0" id="circle126"/>
	<circle cx="555.004" cy="4" r="4" fill="#0" id="circle127"/>
	<circle cx="561.759" cy="240.42" r="4" fill="#0" id="circle128"/>
	<circle cx="564.654" cy="6.89494" r="4" fill="#0" id="circle129"/>
	<circle cx="569.479" cy="231.735" r="4" fill="#0" id="circle130"/>
	<circle cx="574.304" cy="8.8249" r="4" fill="#0" id="circle131"/>
	<circle cx="577.198" cy="224.981" r="4" fill="#0" id="circle132"/>
	<circle cx="583.953" cy="8.8249" r="4" fill="#0" id="circle133"/>
	<circle cx="583.953" cy="217.261" r="4" fill="#0" id="circle134"/>
	<circle cx="593.603" cy="8.8249" r="4" fill="#0" id="circle135"/>
	<circle cx="593.603" cy="217.261" r="4" fill="#0" id="circle136"/>
	<circle cx="603.253" cy="8.8249" r="4" fill="#0" id="circle137"/>
	<circle cx="603.253" cy="217.261" r="4" fill="#0" id="circle138"/>
	<circle cx="611.938" cy="13.6498" r="4" fill="#0" id="circle139"/>
	<circle cx="612.903" cy="217.261" r="4" fill="#0" id="circle140"/>
	<circle cx="621.588" cy="13.6498" r="4" fill="#0" id="circle141"/>
	<circle cx="622.553" cy="217.261" r="4" fill="#0" id="circle142"/>
	<circle cx="629.307" cy="19.4397" r="4" fill="#0" id="circle143"/>
	<circle cx="632.202" cy="219.191" r="4" fill="#0" id="circle144"/>
	<circle cx="638.957" cy="23.2996" r="4" fill="#0" id="circle145"/>
	<circle cx="641.852" cy="222.086" r="4" fill="#0" id="circle146"/>
	<circle cx="647.642" cy="28.1245" r="4" fill="#0" id="circle147"/>
	<circle cx="651.502" cy="37.7743" r="4" fill="#0" id="circle148"/>
	<circle cx="651.502" cy="222.086" r="4" fill="#0" id="circle149"/>
	<circle cx="656.327" cy="46.4591" r="4" fill="#0" id="circle150"/>
	<circle cx="661.152" cy="222.086" r="4" fill="#0" id="circle151"/>
	<circle cx="665.977" cy="47.4241" r="4" fill="#0" id="circle152"/>
	<circle cx="670.802" cy="222.086" r="4" fill="#0" id="circle153"/>
	<circle cx="675.626" cy="47.4241" r="4" fill="#0" id="circle154"/>
	<circle cx="680.451" cy="217.261" r="4" fill="#0" id="circle155"/>
	<circle cx="685.276" cy="47.4241" r="4" fill="#0" id="circle156"/>
	<circle cx="689.136" cy="222.086" r="4" fill="#0" id="circle157"/>
	<circle cx="694.926" cy="47.4241" r="4" fill="#0" id="circle158"/>
	<circle cx="697.821" cy="217.261" r="4" fill="#0" id="circle159"/>
	<circle cx="704.576" cy="47.4241" r="4" fill="#0" id="circle160"/>
	<circle cx="706.506" cy="222.086" r="4" fill="#0" id="circle161"/>
	<circle cx="714.226" cy="47.4241" r="4" fill="#0" id="circle162"/>
	<circle cx="715.191" cy="217.261" r="4" fill="#0" id="circle163"/>
	<circle cx="723.875" cy="47.4241" r="4" fill="#0" id="circle164"/>
	<circle cx="724.84" cy="217.261" r="4" fill="#0" id="circle165"/>
	<circle cx="733.525" cy="47.4241" r="4" fill="#0" id="circle166"/>
	<circle cx="734.49" cy="217.261" r="4" fill="#0" id="circle167"/>
	<circle cx="737.385" cy="272.265" r="4" fill="#0" id="circle168"/>
	<circle cx="737.385" cy="281.914" r="4" fill="#0" id="circle169"/>
	<circle cx="742.21" cy="52.249" r="4" fill="#0" id="circle170"/>
	<circle cx="744.14" cy="217.261" r="4" fill="#0" id="circle171"/>
	<circle cx="745.105" cy="264.545" r="4" fill="#0" id="circle172"/>
	<circle cx="747.035" cy="277.089" r="4" fill="#0" id="circle173"/>
	<circle cx="751.86" cy="52.249" r="4" fill="#0" id="circle174"/>
	<circle cx="752.825" cy="256.825" r="4" fill="#0" id="circle175"/>
	<circle cx="753.79" cy="217.261" r="4" fill="#0" id="circle176"/>
	<circle cx="754.755" cy="269.37" r="4" fill="#0" id="circle177"/>
	<circle cx="761.51" cy="52.249" r="4" fill="#0" id="circle178"/>
	<circle cx="761.51" cy="224.016" r="4" fill="#0" id="circle179"/>
	<circle cx="761.51" cy="261.65" r="4" fill="#0" id="circle180"/>
	<circle cx="762.475" cy="252" r="4" fill="#0" id="circle181"/>
	<circle cx="766.335" cy="232.7" r="4" fill="#0" id="circle182"/>
	<circle cx="766.335" cy="242.35" r="4" fill="#0" id="circle183"/>
	<circle cx="771.16" cy="52.249" r="4" fill="#0" id="circle184"/>
	<circle cx="771.16" cy="260.685" r="4" fill="#0" id="circle185"/>
	<circle cx="779.844" cy="255.86" r="4" fill="#0" id="circle186"/>
	<circle cx="780.809" cy="52.249" r="4" fill="#0" id="circle187"/>
	<circle cx="789.494" cy="57.0739" r="4" fill="#0" id="circle188"/>
	<circle cx="789.494" cy="253.93" r="4" fill="#0" id="circle189"/>
	<circle cx="794.319" cy="244.28" r="4" fill="#0" id="circle190"/>
	<circle cx="799.144" cy="58.0389" r="4" fill="#0" id="circle191"/>
	<circle cx="801.074" cy="236.56" r="4" fill="#0" id="circle192"/>
	<circle cx="805.899" cy="226.911" r="4" fill="#0" id="circle193"/>
	<circle cx="808.794" cy="61.8988" r="4" fill="#0" id="circle194"/>
	<circle cx="809.759" cy="26.1946" r="4" fill="#0" id="circle195"/>
	<circle cx="809.759" cy="35.8444" r="4" fill="#0" id="circle196"/>
	<circle cx="810.724" cy="217.261" r="4" fill="#0" id="circle197"/>
	<circle cx="814.584" cy="44.5292" r="4" fill="#0" id="circle198"/>
	<circle cx="814.584" cy="54.179" r="4" fill="#0" id="circle199"/>
	<circle cx="819.409" cy="30.0545" r="4" fill="#0" id="circle200"/>
	<circle cx="819.409" cy="212.436" r="4" fill="#0" id="circle201"/>
	<circle cx="825.198" cy="37.7743" r="4" fill="#0" id="circle202"/>
	<circle cx="825.198" cy="47.4241" r="4" fill="#0" id="circle203"/>
	<circle cx="829.058" cy="209.541" r="4" fill="#0" id="circle204"/>
	<circle cx="830.023" cy="56.1089" r="4" fill="#0" id="circle205"/>
	<circle cx="830.023" cy="65.7588" r="4" fill="#0" id="circle206"/>
	<circle cx="838.708" cy="207.611" r="4" fill="#0" id="circle207"/>
	<circle cx="839.673" cy="66.7237" r="4" fill="#0" id="circle208"/>
	<circle cx="848.358" cy="71.5486" r="4" fill="#0" id="circle209"/>
	<circle cx="848.358" cy="207.611" r="4" fill="#0" id="circle210"/>
	<circle cx="857.043" cy="202.786" r="4" fill="#0" id="circle211"/>
	<circle cx="858.008" cy="71.5486" r="4" fill="#0" id="circle212"/>
	<circle cx="866.693" cy="202.786" r="4" fill="#0" id="circle213"/>
	<circle cx="867.658" cy="73.4786" r="4" fill="#0" id="circle214"/>
	<circle cx="876.342" cy="200.856" r="4" fill="#0" id="circle215"/>
	<circle cx="877.307" cy="71.5486" r="4" fill="#0" id="circle216"/>
	<circle cx="885.992" cy="76.3735" r="4" fill="#0" id="circle217"/>
	<circle cx="885.992" cy="197.961" r="4" fill="#0" id="circle218"/>
	<circle cx="894.677" cy="81.1984" r="4" fill="#0" id="circle219"/>
	<circle cx="895.642" cy="196.031" r="4" fill="#0" id="circle220"/>
	<circle cx="904.327" cy="81.1984" r="4" fill="#0" id="circle221"/>
	<circle cx="905.292" cy="191.206" r="4" fill="#0" id="circle222"/>
	<circle cx="913.977" cy="81.1984" r="4" fill="#0" id="circle223"/>
	<circle cx="914.942" cy="186.381" r="4" fill="#0" id="circle224"/>
	<circle cx="922.661" cy="86.0233" r="4" fill="#0" id="circle225"/>
	<circle cx="924.591" cy="183.486" r="4" fill="#0" id="circle226"/>
	<circle cx="932.311" cy="86.0233" r="4" fill="#0" id="circle227"/>
	<circle cx="934.241" cy="181.556" r="4" fill="#0" id="circle228"/>
	<circle cx="940.996" cy="90.8482" r="4" fill="#0" id="circle229"/>
	<circle cx="943.891" cy="176.732" r="4" fill="#0" id="circle230"/>
	<circle cx="950.646" cy="90.8482" r="4" fill="#0" id="circle231"/>
	<circle cx="953.541" cy="173.837" r="4" fill="#0" id="circle232"/>
	<circle cx="960.296" cy="87.9533" r="4" fill="#0" id="circle233"/>
	<circle cx="963.191" cy="173.837" r="4" fill="#0" id="circle234"/>
	<circle cx="968.016" cy="81.1984" r="4" fill="#0" id="circle235"/>
	<circle cx="971.875" cy="178.661" r="4" fill="#0" id="circle236"/>
	<circle cx="974.77" cy="88.9183" r="4" fill="#0" id="circle237"/>
	<circle cx="974.77" cy="111.113" r="4" fill="#0" id="circle238"/>
	<circle cx="974.77" cy="154.537" r="4" fill="#0" id="circle239"/>
	<circle cx="979.595" cy="119.798" r="4" fill="#0" id="circle240"/>
	<circle cx="979.595" cy="129.447" r="4" fill="#0" id="circle241"/>
	<circle cx="979.595" cy="139.097" r="4" fill="#0" id="circle242"/>
	<circle cx="979.595" cy="163.222" r="4" fill="#0" id="circle243"/>
	<circle cx="981.525" cy="178.661" r="4" fill="#0" id="circle244"/>
	<circle cx="982.49" cy="104.358" r="4" fill="#0" id="circle245"/>
	<circle cx="984.42" cy="86.0233" r="4" fill="#0" id="circle246"/>
	<circle cx="988.28" cy="168.047" r="4" fill="#0" id="circle247"/>
	<circle cx="989.245" cy="96.6381" r="4" fill="#0" id="circle248"/>
	<circle cx="990.21" cy="183.486" r="4" fill="#0" id="circle249"/>
	<circle cx="996" cy="173.837" r="4" fill="#0" id="circle250"/>
	</g>
</svg>