<?xml version="1.0" encoding="UTF-8" standalone="no"?>
<!-- Created with CurveBenchmark -->
<svg
	xmlns:dc="http://purl.org/dc/elements/1.1/"
	xmlns:cc="http://creativecommons.org/ns#"
	xmlns:rdf="http://www.w3.org/1999/02/22-rdf-syntax-ns#"
	xmlns:svg="http://www.w3.org/2000/svg"
	xmlns="http://www.w3.org/2000/svg"
	xmlns:sodipodi="http://sodipodi.sourceforge.net/DTD/sodipodi-0.dtd"
	xmlns:inkscape="http://www.inkscape.org/namespaces/inkscape"
	width="1000"
	height="1000"
	id="svg2"
	version="1.1"
	sodipodi:docname="manifold/connect2d-bonefishesocc2.png.txt">
<defs
	id="defs4" />
<metadata
	id="metadata7">
	<rdf:RDF>
		<cc:Work
			rdf:about="">
			<dc:format>image/svg+xml</dc:format>
			<dc:type
				rdf:resource="http://purl.org/dc/dcmitype/StillImage" />
			<dc:title></dc:title>
		</cc:Work>
	</rdf:RDF>
</metadata>
<g
	inkscape:label="Layer 1"
	inkscape:groupmode="layer"
	id="layer1">
	<path style="fill:none;stroke:red;stroke-width:1px;stroke-linecap:butt;stroke-linejoin:miter;stroke-opacity:1" d="M 996,596.319 977.996,608.922 z" id="boundary" inkscape:connector-curvature="0" />
	<path style="fill:none;stroke:red;stroke-width:1px;stroke-linecap:butt;stroke-linejoin:miter;stroke-opacity:1" d="M 977.996,608.922 959.993,608.922 z" id="boundary" inkscape:connector-curvature="0" />
	<path style="fill:none;stroke:red;stroke-width:1px;stroke-linecap:butt;stroke-linejoin:miter;stroke-opacity:1" d="M 959.993,608.922 941.989,608.922 z" id="boundary" inkscape:connector-curvature="0" />
	<path style="fill:none;stroke:red;stroke-width:1px;stroke-linecap:butt;stroke-linejoin:miter;stroke-opacity:1" d="M 941.989,608.922 923.985,608.922 z" id="boundary" inkscape:connector-curvature="0" />
	<path style="fill:none;stroke:red;stroke-width:1px;stroke-linecap:butt;stroke-linejoin:miter;stroke-opacity:1" d="M 923.985,608.922 905.982,608.922 z" id="boundary" inkscape:connector-curvature="0" />
	<path style="fill:none;stroke:red;stroke-width:1px;stroke-linecap:butt;stroke-linejoin:miter;stroke-opacity:1" d="M 905.982,608.922 887.978,608.922 z" id="boundary" inkscape:connector-curvature="0" />
	<path style="fill:none;stroke:red;stroke-width:1px;stroke-linecap:butt;stroke-linejoin:miter;stroke-opacity:1" d="M 887.978,608.922 869.975,608.922 z" id="boundary" inkscape:connector-curvature="0" />
	<path style="fill:none;stroke:red;stroke-width:1px;stroke-linecap:butt;stroke-linejoin:miter;stroke-opacity:1" d="M 869.975,608.922 851.971,608.922 z" id="boundary" inkscape:connector-curvature="0" />
	<path style="fill:none;stroke:red;stroke-width:1px;stroke-linecap:butt;stroke-linejoin:miter;stroke-opacity:1" d="M 851.971,608.922 833.967,608.922 z" id="boundary" inkscape:connector-curvature="0" />
	<path style="fill:none;stroke:red;stroke-width:1px;stroke-linecap:butt;stroke-linejoin:miter;stroke-opacity:1" d="M 833.967,608.922 815.964,608.922 z" id="boundary" inkscape:connector-curvature="0" />
	<path style="fill:none;stroke:red;stroke-width:1px;stroke-linecap:butt;stroke-linejoin:miter;stroke-opacity:1" d="M 815.964,608.922 797.96,608.922 z" id="boundary" inkscape:connector-curvature="0" />
	<path style="fill:none;stroke:red;stroke-width:1px;stroke-linecap:butt;stroke-linejoin:miter;stroke-opacity:1" d="M 797.96,608.922 779.956,608.922 z" id="boundary" inkscape:connector-curvature="0" />
	<path style="fill:none;stroke:red;stroke-width:1px;stroke-linecap:butt;stroke-linejoin:miter;stroke-opacity:1" d="M 779.956,608.922 779.956,626.926 z" id="boundary" inkscape:connector-curvature="0" />
	<path style="fill:none;stroke:red;stroke-width:1px;stroke-linecap:butt;stroke-linejoin:miter;stroke-opacity:1" d="M 779.956,626.926 779.956,644.929 z" id="boundary" inkscape:connector-curvature="0" />
	<path style="fill:none;stroke:red;stroke-width:1px;stroke-linecap:butt;stroke-linejoin:miter;stroke-opacity:1" d="M 779.956,644.929 779.956,662.933 z" id="boundary" inkscape:connector-curvature="0" />
	<path style="fill:none;stroke:red;stroke-width:1px;stroke-linecap:butt;stroke-linejoin:miter;stroke-opacity:1" d="M 779.956,662.933 770.955,680.936 z" id="boundary" inkscape:connector-curvature="0" />
	<path style="fill:none;stroke:red;stroke-width:1px;stroke-linecap:butt;stroke-linejoin:miter;stroke-opacity:1" d="M 770.955,680.936 770.955,698.94 z" id="boundary" inkscape:connector-curvature="0" />
	<path style="fill:none;stroke:red;stroke-width:1px;stroke-linecap:butt;stroke-linejoin:miter;stroke-opacity:1" d="M 770.955,698.94 769.154,720.544 z" id="boundary" inkscape:connector-curvature="0" />
	<path style="fill:none;stroke:red;stroke-width:1px;stroke-linecap:butt;stroke-linejoin:miter;stroke-opacity:1" d="M 769.154,720.544 760.152,738.548 z" id="boundary" inkscape:connector-curvature="0" />
	<path style="fill:none;stroke:red;stroke-width:1px;stroke-linecap:butt;stroke-linejoin:miter;stroke-opacity:1" d="M 760.152,738.548 743.949,747.55 z" id="boundary" inkscape:connector-curvature="0" />
	<path style="fill:none;stroke:red;stroke-width:1px;stroke-linecap:butt;stroke-linejoin:miter;stroke-opacity:1" d="M 743.949,747.55 729.546,734.947 z" id="boundary" inkscape:connector-curvature="0" />
	<path style="fill:none;stroke:red;stroke-width:1px;stroke-linecap:butt;stroke-linejoin:miter;stroke-opacity:1" d="M 729.546,734.947 724.145,716.944 z" id="boundary" inkscape:connector-curvature="0" />
	<path style="fill:none;stroke:red;stroke-width:1px;stroke-linecap:butt;stroke-linejoin:miter;stroke-opacity:1" d="M 724.145,716.944 720.544,698.94 z" id="boundary" inkscape:connector-curvature="0" />
	<path style="fill:none;stroke:red;stroke-width:1px;stroke-linecap:butt;stroke-linejoin:miter;stroke-opacity:1" d="M 720.544,698.94 715.143,680.936 z" id="boundary" inkscape:connector-curvature="0" />
	<path style="fill:none;stroke:red;stroke-width:1px;stroke-linecap:butt;stroke-linejoin:miter;stroke-opacity:1" d="M 715.143,680.936 711.543,662.933 z" id="boundary" inkscape:connector-curvature="0" />
	<path style="fill:none;stroke:red;stroke-width:1px;stroke-linecap:butt;stroke-linejoin:miter;stroke-opacity:1" d="M 711.543,662.933 706.142,644.929 z" id="boundary" inkscape:connector-curvature="0" />
	<path style="fill:none;stroke:red;stroke-width:1px;stroke-linecap:butt;stroke-linejoin:miter;stroke-opacity:1" d="M 706.142,644.929 706.142,626.926 z" id="boundary" inkscape:connector-curvature="0" />
	<path style="fill:none;stroke:red;stroke-width:1px;stroke-linecap:butt;stroke-linejoin:miter;stroke-opacity:1" d="M 706.142,626.926 697.14,610.722 z" id="boundary" inkscape:connector-curvature="0" />
	<path style="fill:none;stroke:red;stroke-width:1px;stroke-linecap:butt;stroke-linejoin:miter;stroke-opacity:1" d="M 697.14,610.722 697.14,592.719 z" id="boundary" inkscape:connector-curvature="0" />
	<path style="fill:none;stroke:red;stroke-width:1px;stroke-linecap:butt;stroke-linejoin:miter;stroke-opacity:1" d="M 697.14,592.719 688.138,576.515 z" id="boundary" inkscape:connector-curvature="0" />
	<path style="fill:none;stroke:red;stroke-width:1px;stroke-linecap:butt;stroke-linejoin:miter;stroke-opacity:1" d="M 688.138,576.515 680.936,558.512 z" id="boundary" inkscape:connector-curvature="0" />
	<path style="fill:none;stroke:red;stroke-width:1px;stroke-linecap:butt;stroke-linejoin:miter;stroke-opacity:1" d="M 680.936,558.512 666.534,545.909 z" id="boundary" inkscape:connector-curvature="0" />
	<path style="fill:none;stroke:red;stroke-width:1px;stroke-linecap:butt;stroke-linejoin:miter;stroke-opacity:1" d="M 666.534,545.909 648.53,553.111 z" id="boundary" inkscape:connector-curvature="0" />
	<path style="fill:none;stroke:red;stroke-width:1px;stroke-linecap:butt;stroke-linejoin:miter;stroke-opacity:1" d="M 648.53,553.111 634.127,567.514 z" id="boundary" inkscape:connector-curvature="0" />
	<path style="fill:none;stroke:red;stroke-width:1px;stroke-linecap:butt;stroke-linejoin:miter;stroke-opacity:1" d="M 634.127,567.514 619.724,581.917 z" id="boundary" inkscape:connector-curvature="0" />
	<path style="fill:none;stroke:red;stroke-width:1px;stroke-linecap:butt;stroke-linejoin:miter;stroke-opacity:1" d="M 619.724,581.917 603.521,590.918 z" id="boundary" inkscape:connector-curvature="0" />
	<path style="fill:none;stroke:red;stroke-width:1px;stroke-linecap:butt;stroke-linejoin:miter;stroke-opacity:1" d="M 603.521,590.918 589.118,580.116 z" id="boundary" inkscape:connector-curvature="0" />
	<path style="fill:none;stroke:red;stroke-width:1px;stroke-linecap:butt;stroke-linejoin:miter;stroke-opacity:1" d="M 589.118,580.116 580.116,563.913 z" id="boundary" inkscape:connector-curvature="0" />
	<path style="fill:none;stroke:red;stroke-width:1px;stroke-linecap:butt;stroke-linejoin:miter;stroke-opacity:1" d="M 580.116,563.913 580.116,545.909 z" id="boundary" inkscape:connector-curvature="0" />
	<path style="fill:none;stroke:red;stroke-width:1px;stroke-linecap:butt;stroke-linejoin:miter;stroke-opacity:1" d="M 580.116,545.909 580.116,527.906 z" id="boundary" inkscape:connector-curvature="0" />
	<path style="fill:none;stroke:red;stroke-width:1px;stroke-linecap:butt;stroke-linejoin:miter;stroke-opacity:1" d="M 580.116,527.906 576.515,509.902 z" id="boundary" inkscape:connector-curvature="0" />
	<path style="fill:none;stroke:red;stroke-width:1px;stroke-linecap:butt;stroke-linejoin:miter;stroke-opacity:1" d="M 576.515,509.902 560.312,500.9 z" id="boundary" inkscape:connector-curvature="0" />
	<path style="fill:none;stroke:red;stroke-width:1px;stroke-linecap:butt;stroke-linejoin:miter;stroke-opacity:1" d="M 560.312,500.9 544.109,491.898 z" id="boundary" inkscape:connector-curvature="0" />
	<path style="fill:none;stroke:red;stroke-width:1px;stroke-linecap:butt;stroke-linejoin:miter;stroke-opacity:1" d="M 544.109,491.898 527.906,482.897 z" id="boundary" inkscape:connector-curvature="0" />
	<path style="fill:none;stroke:red;stroke-width:1px;stroke-linecap:butt;stroke-linejoin:miter;stroke-opacity:1" d="M 527.906,482.897 511.702,473.895 z" id="boundary" inkscape:connector-curvature="0" />
	<path style="fill:none;stroke:red;stroke-width:1px;stroke-linecap:butt;stroke-linejoin:miter;stroke-opacity:1" d="M 511.702,473.895 495.499,464.893 z" id="boundary" inkscape:connector-curvature="0" />
	<path style="fill:none;stroke:red;stroke-width:1px;stroke-linecap:butt;stroke-linejoin:miter;stroke-opacity:1" d="M 495.499,464.893 479.296,455.891 z" id="boundary" inkscape:connector-curvature="0" />
	<path style="fill:none;stroke:red;stroke-width:1px;stroke-linecap:butt;stroke-linejoin:miter;stroke-opacity:1" d="M 479.296,455.891 463.093,446.889 z" id="boundary" inkscape:connector-curvature="0" />
	<path style="fill:none;stroke:red;stroke-width:1px;stroke-linecap:butt;stroke-linejoin:miter;stroke-opacity:1" d="M 463.093,446.889 452.29,461.292 z" id="boundary" inkscape:connector-curvature="0" />
	<path style="fill:none;stroke:red;stroke-width:1px;stroke-linecap:butt;stroke-linejoin:miter;stroke-opacity:1" d="M 452.29,461.292 443.289,479.296 z" id="boundary" inkscape:connector-curvature="0" />
	<path style="fill:none;stroke:red;stroke-width:1px;stroke-linecap:butt;stroke-linejoin:miter;stroke-opacity:1" d="M 443.289,479.296 428.886,491.898 z" id="boundary" inkscape:connector-curvature="0" />
	<path style="fill:none;stroke:red;stroke-width:1px;stroke-linecap:butt;stroke-linejoin:miter;stroke-opacity:1" d="M 428.886,491.898 410.882,500.9 z" id="boundary" inkscape:connector-curvature="0" />
	<path style="fill:none;stroke:red;stroke-width:1px;stroke-linecap:butt;stroke-linejoin:miter;stroke-opacity:1" d="M 410.882,500.9 392.878,500.9 z" id="boundary" inkscape:connector-curvature="0" />
	<path style="fill:none;stroke:red;stroke-width:1px;stroke-linecap:butt;stroke-linejoin:miter;stroke-opacity:1" d="M 392.878,500.9 382.076,486.497 z" id="boundary" inkscape:connector-curvature="0" />
	<path style="fill:none;stroke:red;stroke-width:1px;stroke-linecap:butt;stroke-linejoin:miter;stroke-opacity:1" d="M 382.076,486.497 382.076,468.494 z" id="boundary" inkscape:connector-curvature="0" />
	<path style="fill:none;stroke:red;stroke-width:1px;stroke-linecap:butt;stroke-linejoin:miter;stroke-opacity:1" d="M 382.076,468.494 382.076,450.49 z" id="boundary" inkscape:connector-curvature="0" />
	<path style="fill:none;stroke:red;stroke-width:1px;stroke-linecap:butt;stroke-linejoin:miter;stroke-opacity:1" d="M 382.076,450.49 382.076,432.486 z" id="boundary" inkscape:connector-curvature="0" />
	<path style="fill:none;stroke:red;stroke-width:1px;stroke-linecap:butt;stroke-linejoin:miter;stroke-opacity:1" d="M 382.076,432.486 382.076,414.483 z" id="boundary" inkscape:connector-curvature="0" />
	<path style="fill:none;stroke:red;stroke-width:1px;stroke-linecap:butt;stroke-linejoin:miter;stroke-opacity:1" d="M 382.076,414.483 374.875,387.477 z" id="boundary" inkscape:connector-curvature="0" />
	<path style="fill:none;stroke:red;stroke-width:1px;stroke-linecap:butt;stroke-linejoin:miter;stroke-opacity:1" d="M 374.875,387.477 360.472,374.875 z" id="boundary" inkscape:connector-curvature="0" />
	<path style="fill:none;stroke:red;stroke-width:1px;stroke-linecap:butt;stroke-linejoin:miter;stroke-opacity:1" d="M 360.472,374.875 344.269,365.873 z" id="boundary" inkscape:connector-curvature="0" />
	<path style="fill:none;stroke:red;stroke-width:1px;stroke-linecap:butt;stroke-linejoin:miter;stroke-opacity:1" d="M 344.269,365.873 328.065,356.871 z" id="boundary" inkscape:connector-curvature="0" />
	<path style="fill:none;stroke:red;stroke-width:1px;stroke-linecap:butt;stroke-linejoin:miter;stroke-opacity:1" d="M 328.065,356.871 313.662,344.269 z" id="boundary" inkscape:connector-curvature="0" />
	<path style="fill:none;stroke:red;stroke-width:1px;stroke-linecap:butt;stroke-linejoin:miter;stroke-opacity:1" d="M 313.662,344.269 295.659,337.067 z" id="boundary" inkscape:connector-curvature="0" />
	<path style="fill:none;stroke:red;stroke-width:1px;stroke-linecap:butt;stroke-linejoin:miter;stroke-opacity:1" d="M 295.659,337.067 283.056,322.664 z" id="boundary" inkscape:connector-curvature="0" />
	<path style="fill:none;stroke:red;stroke-width:1px;stroke-linecap:butt;stroke-linejoin:miter;stroke-opacity:1" d="M 283.056,322.664 268.653,311.862 z" id="boundary" inkscape:connector-curvature="0" />
	<path style="fill:none;stroke:red;stroke-width:1px;stroke-linecap:butt;stroke-linejoin:miter;stroke-opacity:1" d="M 268.653,311.862 252.45,302.86 z" id="boundary" inkscape:connector-curvature="0" />
	<path style="fill:none;stroke:red;stroke-width:1px;stroke-linecap:butt;stroke-linejoin:miter;stroke-opacity:1" d="M 252.45,302.86 239.848,288.457 z" id="boundary" inkscape:connector-curvature="0" />
	<path style="fill:none;stroke:red;stroke-width:1px;stroke-linecap:butt;stroke-linejoin:miter;stroke-opacity:1" d="M 239.848,288.457 221.844,281.256 z" id="boundary" inkscape:connector-curvature="0" />
	<path style="fill:none;stroke:red;stroke-width:1px;stroke-linecap:butt;stroke-linejoin:miter;stroke-opacity:1" d="M 221.844,281.256 211.042,266.853 z" id="boundary" inkscape:connector-curvature="0" />
	<path style="fill:none;stroke:red;stroke-width:1px;stroke-linecap:butt;stroke-linejoin:miter;stroke-opacity:1" d="M 211.042,266.853 196.639,256.051 z" id="boundary" inkscape:connector-curvature="0" />
	<path style="fill:none;stroke:red;stroke-width:1px;stroke-linecap:butt;stroke-linejoin:miter;stroke-opacity:1" d="M 196.639,256.051 180.436,247.049 z" id="boundary" inkscape:connector-curvature="0" />
	<path style="fill:none;stroke:red;stroke-width:1px;stroke-linecap:butt;stroke-linejoin:miter;stroke-opacity:1" d="M 180.436,247.049 166.033,234.446 z" id="boundary" inkscape:connector-curvature="0" />
	<path style="fill:none;stroke:red;stroke-width:1px;stroke-linecap:butt;stroke-linejoin:miter;stroke-opacity:1" d="M 166.033,234.446 153.43,220.044 z" id="boundary" inkscape:connector-curvature="0" />
	<path style="fill:none;stroke:red;stroke-width:1px;stroke-linecap:butt;stroke-linejoin:miter;stroke-opacity:1" d="M 153.43,220.044 144.428,203.84 z" id="boundary" inkscape:connector-curvature="0" />
	<path style="fill:none;stroke:red;stroke-width:1px;stroke-linecap:butt;stroke-linejoin:miter;stroke-opacity:1" d="M 144.428,203.84 131.826,189.437 z" id="boundary" inkscape:connector-curvature="0" />
	<path style="fill:none;stroke:red;stroke-width:1px;stroke-linecap:butt;stroke-linejoin:miter;stroke-opacity:1" d="M 131.826,189.437 117.423,176.835 z" id="boundary" inkscape:connector-curvature="0" />
	<path style="fill:none;stroke:red;stroke-width:1px;stroke-linecap:butt;stroke-linejoin:miter;stroke-opacity:1" d="M 117.423,176.835 104.82,162.432 z" id="boundary" inkscape:connector-curvature="0" />
	<path style="fill:none;stroke:red;stroke-width:1px;stroke-linecap:butt;stroke-linejoin:miter;stroke-opacity:1" d="M 104.82,162.432 90.4174,149.829 z" id="boundary" inkscape:connector-curvature="0" />
	<path style="fill:none;stroke:red;stroke-width:1px;stroke-linecap:butt;stroke-linejoin:miter;stroke-opacity:1" d="M 90.4174,149.829 77.8149,135.426 z" id="boundary" inkscape:connector-curvature="0" />
	<path style="fill:none;stroke:red;stroke-width:1px;stroke-linecap:butt;stroke-linejoin:miter;stroke-opacity:1" d="M 77.8149,135.426 63.412,122.824 z" id="boundary" inkscape:connector-curvature="0" />
	<path style="fill:none;stroke:red;stroke-width:1px;stroke-linecap:butt;stroke-linejoin:miter;stroke-opacity:1" d="M 63.412,122.824 50.8094,108.421 z" id="boundary" inkscape:connector-curvature="0" />
	<path style="fill:none;stroke:red;stroke-width:1px;stroke-linecap:butt;stroke-linejoin:miter;stroke-opacity:1" d="M 50.8094,108.421 32.8058,101.22 z" id="boundary" inkscape:connector-curvature="0" />
	<path style="fill:none;stroke:red;stroke-width:1px;stroke-linecap:butt;stroke-linejoin:miter;stroke-opacity:1" d="M 32.8058,101.22 22.0036,86.8167 z" id="boundary" inkscape:connector-curvature="0" />
	<path style="fill:none;stroke:red;stroke-width:1px;stroke-linecap:butt;stroke-linejoin:miter;stroke-opacity:1" d="M 22.0036,86.8167 13.0018,70.6134 z" id="boundary" inkscape:connector-curvature="0" />
	<path style="fill:none;stroke:red;stroke-width:1px;stroke-linecap:butt;stroke-linejoin:miter;stroke-opacity:1" d="M 13.0018,70.6134 4,54.4102 z" id="boundary" inkscape:connector-curvature="0" />
	<path style="fill:none;stroke:red;stroke-width:1px;stroke-linecap:butt;stroke-linejoin:miter;stroke-opacity:1" d="M 4,54.4102 4,36.4065 z" id="boundary" inkscape:connector-curvature="0" />
	<path style="fill:none;stroke:red;stroke-width:1px;stroke-linecap:butt;stroke-linejoin:miter;stroke-opacity:1" d="M 4,36.4065 4,18.4029 z" id="boundary" inkscape:connector-curvature="0" />
	<path style="fill:none;stroke:red;stroke-width:1px;stroke-linecap:butt;stroke-linejoin:miter;stroke-opacity:1" d="M 4,18.4029 22.0036,9.40109 z" id="boundary" inkscape:connector-curvature="0" />
	<path style="fill:none;stroke:red;stroke-width:1px;stroke-linecap:butt;stroke-linejoin:miter;stroke-opacity:1" d="M 22.0036,9.40109 40.0073,4 z" id="boundary" inkscape:connector-curvature="0" />
	<path style="fill:none;stroke:red;stroke-width:1px;stroke-linecap:butt;stroke-linejoin:miter;stroke-opacity:1" d="M 40.0073,4 56.2105,13.0018 z" id="boundary" inkscape:connector-curvature="0" />
	<path style="fill:none;stroke:red;stroke-width:1px;stroke-linecap:butt;stroke-linejoin:miter;stroke-opacity:1" d="M 56.2105,13.0018 74.2142,13.0018 z" id="boundary" inkscape:connector-curvature="0" />
	<path style="fill:none;stroke:red;stroke-width:1px;stroke-linecap:butt;stroke-linejoin:miter;stroke-opacity:1" d="M 74.2142,13.0018 92.2178,13.0018 z" id="boundary" inkscape:connector-curvature="0" />
	<path style="fill:none;stroke:red;stroke-width:1px;stroke-linecap:butt;stroke-linejoin:miter;stroke-opacity:1" d="M 92.2178,13.0018 108.421,22.0036 z" id="boundary" inkscape:connector-curvature="0" />
	<path style="fill:none;stroke:red;stroke-width:1px;stroke-linecap:butt;stroke-linejoin:miter;stroke-opacity:1" d="M 108.421,22.0036 126.425,22.0036 z" id="boundary" inkscape:connector-curvature="0" />
	<path style="fill:none;stroke:red;stroke-width:1px;stroke-linecap:butt;stroke-linejoin:miter;stroke-opacity:1" d="M 126.425,22.0036 144.428,22.0036 z" id="boundary" inkscape:connector-curvature="0" />
	<path style="fill:none;stroke:red;stroke-width:1px;stroke-linecap:butt;stroke-linejoin:miter;stroke-opacity:1" d="M 144.428,22.0036 162.432,22.0036 z" id="boundary" inkscape:connector-curvature="0" />
	<path style="fill:none;stroke:red;stroke-width:1px;stroke-linecap:butt;stroke-linejoin:miter;stroke-opacity:1" d="M 162.432,22.0036 178.635,31.0054 z" id="boundary" inkscape:connector-curvature="0" />
	<path style="fill:none;stroke:red;stroke-width:1px;stroke-linecap:butt;stroke-linejoin:miter;stroke-opacity:1" d="M 178.635,31.0054 194.838,40.0073 z" id="boundary" inkscape:connector-curvature="0" />
	<path style="fill:none;stroke:red;stroke-width:1px;stroke-linecap:butt;stroke-linejoin:miter;stroke-opacity:1" d="M 194.838,40.0073 212.842,40.0073 z" id="boundary" inkscape:connector-curvature="0" />
	<path style="fill:none;stroke:red;stroke-width:1px;stroke-linecap:butt;stroke-linejoin:miter;stroke-opacity:1" d="M 212.842,40.0073 229.045,49.0091 z" id="boundary" inkscape:connector-curvature="0" />
	<path style="fill:none;stroke:red;stroke-width:1px;stroke-linecap:butt;stroke-linejoin:miter;stroke-opacity:1" d="M 229.045,49.0091 247.049,52.6098 z" id="boundary" inkscape:connector-curvature="0" />
	<path style="fill:none;stroke:red;stroke-width:1px;stroke-linecap:butt;stroke-linejoin:miter;stroke-opacity:1" d="M 247.049,52.6098 263.252,61.6116 z" id="boundary" inkscape:connector-curvature="0" />
	<path style="fill:none;stroke:red;stroke-width:1px;stroke-linecap:butt;stroke-linejoin:miter;stroke-opacity:1" d="M 263.252,61.6116 281.256,68.8131 z" id="boundary" inkscape:connector-curvature="0" />
	<path style="fill:none;stroke:red;stroke-width:1px;stroke-linecap:butt;stroke-linejoin:miter;stroke-opacity:1" d="M 281.256,68.8131 297.459,77.8149 z" id="boundary" inkscape:connector-curvature="0" />
	<path style="fill:none;stroke:red;stroke-width:1px;stroke-linecap:butt;stroke-linejoin:miter;stroke-opacity:1" d="M 297.459,77.8149 315.463,85.0163 z" id="boundary" inkscape:connector-curvature="0" />
	<path style="fill:none;stroke:red;stroke-width:1px;stroke-linecap:butt;stroke-linejoin:miter;stroke-opacity:1" d="M 315.463,85.0163 331.666,94.0181 z" id="boundary" inkscape:connector-curvature="0" />
	<path style="fill:none;stroke:red;stroke-width:1px;stroke-linecap:butt;stroke-linejoin:miter;stroke-opacity:1" d="M 331.666,94.0181 346.069,106.621 z" id="boundary" inkscape:connector-curvature="0" />
	<path style="fill:none;stroke:red;stroke-width:1px;stroke-linecap:butt;stroke-linejoin:miter;stroke-opacity:1" d="M 346.069,106.621 362.272,115.623 z" id="boundary" inkscape:connector-curvature="0" />
	<path style="fill:none;stroke:red;stroke-width:1px;stroke-linecap:butt;stroke-linejoin:miter;stroke-opacity:1" d="M 362.272,115.623 374.875,130.025 z" id="boundary" inkscape:connector-curvature="0" />
	<path style="fill:none;stroke:red;stroke-width:1px;stroke-linecap:butt;stroke-linejoin:miter;stroke-opacity:1" d="M 374.875,130.025 392.878,135.426 z" id="boundary" inkscape:connector-curvature="0" />
	<path style="fill:none;stroke:red;stroke-width:1px;stroke-linecap:butt;stroke-linejoin:miter;stroke-opacity:1" d="M 392.878,135.426 405.481,149.829 z" id="boundary" inkscape:connector-curvature="0" />
	<path style="fill:none;stroke:red;stroke-width:1px;stroke-linecap:butt;stroke-linejoin:miter;stroke-opacity:1" d="M 405.481,149.829 423.485,157.031 z" id="boundary" inkscape:connector-curvature="0" />
	<path style="fill:none;stroke:red;stroke-width:1px;stroke-linecap:butt;stroke-linejoin:miter;stroke-opacity:1" d="M 423.485,157.031 441.488,157.031 z" id="boundary" inkscape:connector-curvature="0" />
	<path style="fill:none;stroke:red;stroke-width:1px;stroke-linecap:butt;stroke-linejoin:miter;stroke-opacity:1" d="M 441.488,157.031 457.691,148.029 z" id="boundary" inkscape:connector-curvature="0" />
	<path style="fill:none;stroke:red;stroke-width:1px;stroke-linecap:butt;stroke-linejoin:miter;stroke-opacity:1" d="M 457.691,148.029 475.695,148.029 z" id="boundary" inkscape:connector-curvature="0" />
	<path style="fill:none;stroke:red;stroke-width:1px;stroke-linecap:butt;stroke-linejoin:miter;stroke-opacity:1" d="M 475.695,148.029 491.898,139.027 z" id="boundary" inkscape:connector-curvature="0" />
	<path style="fill:none;stroke:red;stroke-width:1px;stroke-linecap:butt;stroke-linejoin:miter;stroke-opacity:1" d="M 491.898,139.027 509.902,139.027 z" id="boundary" inkscape:connector-curvature="0" />
	<path style="fill:none;stroke:red;stroke-width:1px;stroke-linecap:butt;stroke-linejoin:miter;stroke-opacity:1" d="M 509.902,139.027 527.906,139.027 z" id="boundary" inkscape:connector-curvature="0" />
	<path style="fill:none;stroke:red;stroke-width:1px;stroke-linecap:butt;stroke-linejoin:miter;stroke-opacity:1" d="M 527.906,139.027 545.909,133.626 z" id="boundary" inkscape:connector-curvature="0" />
	<path style="fill:none;stroke:red;stroke-width:1px;stroke-linecap:butt;stroke-linejoin:miter;stroke-opacity:1" d="M 545.909,133.626 563.913,130.025 z" id="boundary" inkscape:connector-curvature="0" />
	<path style="fill:none;stroke:red;stroke-width:1px;stroke-linecap:butt;stroke-linejoin:miter;stroke-opacity:1" d="M 563.913,130.025 580.116,139.027 z" id="boundary" inkscape:connector-curvature="0" />
	<path style="fill:none;stroke:red;stroke-width:1px;stroke-linecap:butt;stroke-linejoin:miter;stroke-opacity:1" d="M 580.116,139.027 598.12,139.027 z" id="boundary" inkscape:connector-curvature="0" />
	<path style="fill:none;stroke:red;stroke-width:1px;stroke-linecap:butt;stroke-linejoin:miter;stroke-opacity:1" d="M 598.12,139.027 599.92,167.833 z" id="boundary" inkscape:connector-curvature="0" />
	<path style="fill:none;stroke:red;stroke-width:1px;stroke-linecap:butt;stroke-linejoin:miter;stroke-opacity:1" d="M 599.92,167.833 590.918,194.838 z" id="boundary" inkscape:connector-curvature="0" />
	<path style="fill:none;stroke:red;stroke-width:1px;stroke-linecap:butt;stroke-linejoin:miter;stroke-opacity:1" d="M 590.918,194.838 590.918,212.842 z" id="boundary" inkscape:connector-curvature="0" />
	<path style="fill:none;stroke:red;stroke-width:1px;stroke-linecap:butt;stroke-linejoin:miter;stroke-opacity:1" d="M 590.918,212.842 581.917,230.846 z" id="boundary" inkscape:connector-curvature="0" />
	<path style="fill:none;stroke:red;stroke-width:1px;stroke-linecap:butt;stroke-linejoin:miter;stroke-opacity:1" d="M 581.917,230.846 581.917,248.849 z" id="boundary" inkscape:connector-curvature="0" />
	<path style="fill:none;stroke:red;stroke-width:1px;stroke-linecap:butt;stroke-linejoin:miter;stroke-opacity:1" d="M 581.917,248.849 581.917,266.853 z" id="boundary" inkscape:connector-curvature="0" />
	<path style="fill:none;stroke:red;stroke-width:1px;stroke-linecap:butt;stroke-linejoin:miter;stroke-opacity:1" d="M 581.917,266.853 581.917,284.857 z" id="boundary" inkscape:connector-curvature="0" />
	<path style="fill:none;stroke:red;stroke-width:1px;stroke-linecap:butt;stroke-linejoin:miter;stroke-opacity:1" d="M 581.917,284.857 572.915,302.86 z" id="boundary" inkscape:connector-curvature="0" />
	<path style="fill:none;stroke:red;stroke-width:1px;stroke-linecap:butt;stroke-linejoin:miter;stroke-opacity:1" d="M 572.915,302.86 581.917,319.064 z" id="boundary" inkscape:connector-curvature="0" />
	<path style="fill:none;stroke:red;stroke-width:1px;stroke-linecap:butt;stroke-linejoin:miter;stroke-opacity:1" d="M 581.917,319.064 596.319,329.866 z" id="boundary" inkscape:connector-curvature="0" />
	<path style="fill:none;stroke:red;stroke-width:1px;stroke-linecap:butt;stroke-linejoin:miter;stroke-opacity:1" d="M 596.319,329.866 603.521,347.869 z" id="boundary" inkscape:connector-curvature="0" />
	<path style="fill:none;stroke:red;stroke-width:1px;stroke-linecap:butt;stroke-linejoin:miter;stroke-opacity:1" d="M 603.521,347.869 617.924,360.472 z" id="boundary" inkscape:connector-curvature="0" />
	<path style="fill:none;stroke:red;stroke-width:1px;stroke-linecap:butt;stroke-linejoin:miter;stroke-opacity:1" d="M 617.924,360.472 630.526,374.875 z" id="boundary" inkscape:connector-curvature="0" />
	<path style="fill:none;stroke:red;stroke-width:1px;stroke-linecap:butt;stroke-linejoin:miter;stroke-opacity:1" d="M 630.526,374.875 648.53,382.076 z" id="boundary" inkscape:connector-curvature="0" />
	<path style="fill:none;stroke:red;stroke-width:1px;stroke-linecap:butt;stroke-linejoin:miter;stroke-opacity:1" d="M 648.53,382.076 666.534,382.076 z" id="boundary" inkscape:connector-curvature="0" />
	<path style="fill:none;stroke:red;stroke-width:1px;stroke-linecap:butt;stroke-linejoin:miter;stroke-opacity:1" d="M 666.534,382.076 684.537,382.076 z" id="boundary" inkscape:connector-curvature="0" />
	<path style="fill:none;stroke:red;stroke-width:1px;stroke-linecap:butt;stroke-linejoin:miter;stroke-opacity:1" d="M 684.537,382.076 700.74,391.078 z" id="boundary" inkscape:connector-curvature="0" />
	<path style="fill:none;stroke:red;stroke-width:1px;stroke-linecap:butt;stroke-linejoin:miter;stroke-opacity:1" d="M 700.74,391.078 718.744,391.078 z" id="boundary" inkscape:connector-curvature="0" />
	<path style="fill:none;stroke:red;stroke-width:1px;stroke-linecap:butt;stroke-linejoin:miter;stroke-opacity:1" d="M 718.744,391.078 736.748,391.078 z" id="boundary" inkscape:connector-curvature="0" />
	<path style="fill:none;stroke:red;stroke-width:1px;stroke-linecap:butt;stroke-linejoin:miter;stroke-opacity:1" d="M 736.748,391.078 754.751,391.078 z" id="boundary" inkscape:connector-curvature="0" />
	<path style="fill:none;stroke:red;stroke-width:1px;stroke-linecap:butt;stroke-linejoin:miter;stroke-opacity:1" d="M 754.751,391.078 772.755,391.078 z" id="boundary" inkscape:connector-curvature="0" />
	<path style="fill:none;stroke:red;stroke-width:1px;stroke-linecap:butt;stroke-linejoin:miter;stroke-opacity:1" d="M 772.755,391.078 790.759,391.078 z" id="boundary" inkscape:connector-curvature="0" />
	<path style="fill:none;stroke:red;stroke-width:1px;stroke-linecap:butt;stroke-linejoin:miter;stroke-opacity:1" d="M 790.759,391.078 808.762,391.078 z" id="boundary" inkscape:connector-curvature="0" />
	<path style="fill:none;stroke:red;stroke-width:1px;stroke-linecap:butt;stroke-linejoin:miter;stroke-opacity:1" d="M 808.762,391.078 826.766,391.078 z" id="boundary" inkscape:connector-curvature="0" />
	<path style="fill:none;stroke:red;stroke-width:1px;stroke-linecap:butt;stroke-linejoin:miter;stroke-opacity:1" d="M 826.766,391.078 842.969,400.08 z" id="boundary" inkscape:connector-curvature="0" />
	<path style="fill:none;stroke:red;stroke-width:1px;stroke-linecap:butt;stroke-linejoin:miter;stroke-opacity:1" d="M 842.969,400.08 860.973,400.08 z" id="boundary" inkscape:connector-curvature="0" />
	<path style="fill:none;stroke:red;stroke-width:1px;stroke-linecap:butt;stroke-linejoin:miter;stroke-opacity:1" d="M 860.973,400.08 878.976,400.08 z" id="boundary" inkscape:connector-curvature="0" />
	<path style="fill:none;stroke:red;stroke-width:1px;stroke-linecap:butt;stroke-linejoin:miter;stroke-opacity:1" d="M 878.976,400.08 896.98,400.08 z" id="boundary" inkscape:connector-curvature="0" />
	<path style="fill:none;stroke:red;stroke-width:1px;stroke-linecap:butt;stroke-linejoin:miter;stroke-opacity:1" d="M 896.98,400.08 914.984,400.08 z" id="boundary" inkscape:connector-curvature="0" />
	<path style="fill:none;stroke:red;stroke-width:1px;stroke-linecap:butt;stroke-linejoin:miter;stroke-opacity:1" d="M 914.984,400.08 932.987,400.08 z" id="boundary" inkscape:connector-curvature="0" />
	<path style="fill:none;stroke:red;stroke-width:1px;stroke-linecap:butt;stroke-linejoin:miter;stroke-opacity:1" d="M 932.987,400.08 950.991,400.08 z" id="boundary" inkscape:connector-curvature="0" />
	<path style="fill:none;stroke:red;stroke-width:1px;stroke-linecap:butt;stroke-linejoin:miter;stroke-opacity:1" d="M 950.991,400.08 968.995,400.08 z" id="boundary" inkscape:connector-curvature="0" />
	<path style="fill:none;stroke:red;stroke-width:1px;stroke-linecap:butt;stroke-linejoin:miter;stroke-opacity:1" d="M 968.995,400.08 986.998,400.08 z" id="boundary" inkscape:connector-curvature="0" />
	<path style="fill:none;stroke:red;stroke-width:1px;stroke-linecap:butt;stroke-linejoin:miter;stroke-opacity:1" d="M 986.998,400.08 996,416.283 z" id="boundary" inkscape:connector-curvature="0" />
	<path style="fill:none;stroke:red;stroke-width:1px;stroke-linecap:butt;stroke-linejoin:miter;stroke-opacity:1" d="M 996,416.283 996,434.287 z" id="boundary" inkscape:connector-curvature="0" />
	<path style="fill:none;stroke:red;stroke-width:1px;stroke-linecap:butt;stroke-linejoin:miter;stroke-opacity:1" d="M 996,434.287 996,452.29 z" id="boundary" inkscape:connector-curvature="0" />
	<path style="fill:none;stroke:red;stroke-width:1px;stroke-linecap:butt;stroke-linejoin:miter;stroke-opacity:1" d="M 996,452.29 996,470.294 z" id="boundary" inkscape:connector-curvature="0" />
	<path style="fill:none;stroke:red;stroke-width:1px;stroke-linecap:butt;stroke-linejoin:miter;stroke-opacity:1" d="M 996,470.294 996,488.298 z" id="boundary" inkscape:connector-curvature="0" />
	<path style="fill:none;stroke:red;stroke-width:1px;stroke-linecap:butt;stroke-linejoin:miter;stroke-opacity:1" d="M 996,488.298 996,506.301 z" id="boundary" inkscape:connector-curvature="0" />
	<path style="fill:none;stroke:red;stroke-width:1px;stroke-linecap:butt;stroke-linejoin:miter;stroke-opacity:1" d="M 996,506.301 996,524.305 z" id="boundary" inkscape:connector-curvature="0" />
	<path style="fill:none;stroke:red;stroke-width:1px;stroke-linecap:butt;stroke-linejoin:miter;stroke-opacity:1" d="M 996,524.305 996,542.309 z" id="boundary" inkscape:connector-curvature="0" />
	<path style="fill:none;stroke:red;stroke-width:1px;stroke-linecap:butt;stroke-linejoin:miter;stroke-opacity:1" d="M 996,542.309 996,560.312 z" id="boundary" inkscape:connector-curvature="0" />
	<path style="fill:none;stroke:red;stroke-width:1px;stroke-linecap:butt;stroke-linejoin:miter;stroke-opacity:1" d="M 996,560.312 996,578.316 z" id="boundary" inkscape:connector-curvature="0" />
	<path style="fill:none;stroke:red;stroke-width:1px;stroke-linecap:butt;stroke-linejoin:miter;stroke-opacity:1" d="M 996,578.316 996,596.319 z" id="boundary" inkscape:connector-curvature="0" />
	<circle cx="4" cy="18.4029" r="4" fill="#0" id="circle0"/>
	<circle cx="4" cy="36.4065" r="4" fill="#0" id="circle1"/>
	<circle cx="4" cy="54.4102" r="4" fill="#0" id="circle2"/>
	<circle cx="13.0018" cy="70.6134" r="4" fill="#0" id="circle3"/>
	<circle cx="22.0036" cy="9.40109" r="4" fill="#0" id="circle4"/>
	<circle cx="22.0036" cy="86.8167" r="4" fill="#0" id="circle5"/>
	<circle cx="32.8058" cy="101.22" r="4" fill="#0" id="circle6"/>
	<circle cx="40.0073" cy="4" r="4" fill="#0" id="circle7"/>
	<circle cx="50.8094" cy="108.421" r="4" fill="#0" id="circle8"/>
	<circle cx="56.2105" cy="13.0018" r="4" fill="#0" id="circle9"/>
	<circle cx="63.412" cy="122.824" r="4" fill="#0" id="circle10"/>
	<circle cx="74.2142" cy="13.0018" r="4" fill="#0" id="circle11"/>
	<circle cx="77.8149" cy="135.426" r="4" fill="#0" id="circle12"/>
	<circle cx="90.4174" cy="149.829" r="4" fill="#0" id="circle13"/>
	<circle cx="92.2178" cy="13.0018" r="4" fill="#0" id="circle14"/>
	<circle cx="104.82" cy="162.432" r="4" fill="#0" id="circle15"/>
	<circle cx="108.421" cy="22.0036" r="4" fill="#0" id="circle16"/>
	<circle cx="117.423" cy="176.835" r="4" fill="#0" id="circle17"/>
	<circle cx="126.425" cy="22.0036" r="4" fill="#0" id="circle18"/>
	<circle cx="131.826" cy="189.437" r="4" fill="#0" id="circle19"/>
	<circle cx="144.428" cy="22.0036" r="4" fill="#0" id="circle20"/>
	<circle cx="144.428" cy="203.84" r="4" fill="#0" id="circle21"/>
	<circle cx="153.43" cy="220.044" r="4" fill="#0" id="circle22"/>
	<circle cx="162.432" cy="22.0036" r="4" fill="#0" id="circle23"/>
	<circle cx="166.033" cy="234.446" r="4" fill="#0" id="circle24"/>
	<circle cx="178.635" cy="31.0054" r="4" fill="#0" id="circle25"/>
	<circle cx="180.436" cy="247.049" r="4" fill="#0" id="circle26"/>
	<circle cx="194.838" cy="40.0073" r="4" fill="#0" id="circle27"/>
	<circle cx="196.639" cy="256.051" r="4" fill="#0" id="circle28"/>
	<circle cx="211.042" cy="266.853" r="4" fill="#0" id="circle29"/>
	<circle cx="212.842" cy="40.0073" r="4" fill="#0" id="circle30"/>
	<circle cx="221.844" cy="281.256" r="4" fill="#0" id="circle31"/>
	<circle cx="229.045" cy="49.0091" r="4" fill="#0" id="circle32"/>
	<circle cx="239.848" cy="288.457" r="4" fill="#0" id="circle33"/>
	<circle cx="247.049" cy="52.6098" r="4" fill="#0" id="circle34"/>
	<circle cx="252.45" cy="302.86" r="4" fill="#0" id="circle35"/>
	<circle cx="263.252" cy="61.6116" r="4" fill="#0" id="circle36"/>
	<circle cx="268.653" cy="311.862" r="4" fill="#0" id="circle37"/>
	<circle cx="281.256" cy="68.8131" r="4" fill="#0" id="circle38"/>
	<circle cx="283.056" cy="322.664" r="4" fill="#0" id="circle39"/>
	<circle cx="295.659" cy="337.067" r="4" fill="#0" id="circle40"/>
	<circle cx="297.459" cy="77.8149" r="4" fill="#0" id="circle41"/>
	<circle cx="313.662" cy="344.269" r="4" fill="#0" id="circle42"/>
	<circle cx="315.463" cy="85.0163" r="4" fill="#0" id="circle43"/>
	<circle cx="328.065" cy="356.871" r="4" fill="#0" id="circle44"/>
	<circle cx="331.666" cy="94.0181" r="4" fill="#0" id="circle45"/>
	<circle cx="344.269" cy="365.873" r="4" fill="#0" id="circle46"/>
	<circle cx="346.069" cy="106.621" r="4" fill="#0" id="circle47"/>
	<circle cx="360.472" cy="374.875" r="4" fill="#0" id="circle48"/>
	<circle cx="362.272" cy="115.623" r="4" fill="#0" id="circle49"/>
	<circle cx="374.875" cy="130.025" r="4" fill="#0" id="circle50"/>
	<circle cx="374.875" cy="387.477" r="4" fill="#0" id="circle51"/>
	<circle cx="382.076" cy="414.483" r="4" fill="#0" id="circle52"/>
	<circle cx="382.076" cy="432.486" r="4" fill="#0" id="circle53"/>
	<circle cx="382.076" cy="450.49" r="4" fill="#0" id="circle54"/>
	<circle cx="382.076" cy="468.494" r="4" fill="#0" id="circle55"/>
	<circle cx="382.076" cy="486.497" r="4" fill="#0" id="circle56"/>
	<circle cx="392.878" cy="135.426" r="4" fill="#0" id="circle57"/>
	<circle cx="392.878" cy="500.9" r="4" fill="#0" id="circle58"/>
	<circle cx="405.481" cy="149.829" r="4" fill="#0" id="circle59"/>
	<circle cx="410.882" cy="500.9" r="4" fill="#0" id="circle60"/>
	<circle cx="423.485" cy="157.031" r="4" fill="#0" id="circle61"/>
	<circle cx="428.886" cy="491.898" r="4" fill="#0" id="circle62"/>
	<circle cx="441.488" cy="157.031" r="4" fill="#0" id="circle63"/>
	<circle cx="443.289" cy="479.296" r="4" fill="#0" id="circle64"/>
	<circle cx="452.29" cy="461.292" r="4" fill="#0" id="circle65"/>
	<circle cx="457.691" cy="148.029" r="4" fill="#0" id="circle66"/>
	<circle cx="463.093" cy="446.889" r="4" fill="#0" id="circle67"/>
	<circle cx="475.695" cy="148.029" r="4" fill="#0" id="circle68"/>
	<circle cx="479.296" cy="455.891" r="4" fill="#0" id="circle69"/>
	<circle cx="491.898" cy="139.027" r="4" fill="#0" id="circle70"/>
	<circle cx="495.499" cy="464.893" r="4" fill="#0" id="circle71"/>
	<circle cx="509.902" cy="139.027" r="4" fill="#0" id="circle72"/>
	<circle cx="511.702" cy="473.895" r="4" fill="#0" id="circle73"/>
	<circle cx="527.906" cy="139.027" r="4" fill="#0" id="circle74"/>
	<circle cx="527.906" cy="482.897" r="4" fill="#0" id="circle75"/>
	<circle cx="544.109" cy="491.898" r="4" fill="#0" id="circle76"/>
	<circle cx="545.909" cy="133.626" r="4" fill="#0" id="circle77"/>
	<circle cx="560.312" cy="500.9" r="4" fill="#0" id="circle78"/>
	<circle cx="563.913" cy="130.025" r="4" fill="#0" id="circle79"/>
	<circle cx="572.915" cy="302.86" r="4" fill="#0" id="circle80"/>
	<circle cx="576.515" cy="509.902" r="4" fill="#0" id="circle81"/>
	<circle cx="580.116" cy="139.027" r="4" fill="#0" id="circle82"/>
	<circle cx="580.116" cy="527.906" r="4" fill="#0" id="circle83"/>
	<circle cx="580.116" cy="545.909" r="4" fill="#0" id="circle84"/>
	<circle cx="580.116" cy="563.913" r="4" fill="#0" id="circle85"/>
	<circle cx="581.917" cy="230.846" r="4" fill="#0" id="circle86"/>
	<circle cx="581.917" cy="248.849" r="4" fill="#0" id="circle87"/>
	<circle cx="581.917" cy="266.853" r="4" fill="#0" id="circle88"/>
	<circle cx="581.917" cy="284.857" r="4" fill="#0" id="circle89"/>
	<circle cx="581.917" cy="319.064" r="4" fill="#0" id="circle90"/>
	<circle cx="589.118" cy="580.116" r="4" fill="#0" id="circle91"/>
	<circle cx="590.918" cy="194.838" r="4" fill="#0" id="circle92"/>
	<circle cx="590.918" cy="212.842" r="4" fill="#0" id="circle93"/>
	<circle cx="596.319" cy="329.866" r="4" fill="#0" id="circle94"/>
	<circle cx="598.12" cy="139.027" r="4" fill="#0" id="circle95"/>
	<circle cx="599.92" cy="167.833" r="4" fill="#0" id="circle96"/>
	<circle cx="603.521" cy="347.869" r="4" fill="#0" id="circle97"/>
	<circle cx="603.521" cy="590.918" r="4" fill="#0" id="circle98"/>
	<circle cx="617.924" cy="360.472" r="4" fill="#0" id="circle99"/>
	<circle cx="619.724" cy="581.917" r="4" fill="#0" id="circle100"/>
	<circle cx="630.526" cy="374.875" r="4" fill="#0" id="circle101"/>
	<circle cx="634.127" cy="567.514" r="4" fill="#0" id="circle102"/>
	<circle cx="648.53" cy="382.076" r="4" fill="#0" id="circle103"/>
	<circle cx="648.53" cy="553.111" r="4" fill="#0" id="circle104"/>
	<circle cx="666.534" cy="382.076" r="4" fill="#0" id="circle105"/>
	<circle cx="666.534" cy="545.909" r="4" fill="#0" id="circle106"/>
	<circle cx="680.936" cy="558.512" r="4" fill="#0" id="circle107"/>
	<circle cx="684.537" cy="382.076" r="4" fill="#0" id="circle108"/>
	<circle cx="688.138" cy="576.515" r="4" fill="#0" id="circle109"/>
	<circle cx="697.14" cy="592.719" r="4" fill="#0" id="circle110"/>
	<circle cx="697.14" cy="610.722" r="4" fill="#0" id="circle111"/>
	<circle cx="700.74" cy="391.078" r="4" fill="#0" id="circle112"/>
	<circle cx="706.142" cy="626.926" r="4" fill="#0" id="circle113"/>
	<circle cx="706.142" cy="644.929" r="4" fill="#0" id="circle114"/>
	<circle cx="711.543" cy="662.933" r="4" fill="#0" id="circle115"/>
	<circle cx="715.143" cy="680.936" r="4" fill="#0" id="circle116"/>
	<circle cx="718.744" cy="391.078" r="4" fill="#0" id="circle117"/>
	<circle cx="720.544" cy="698.94" r="4" fill="#0" id="circle118"/>
	<circle cx="724.145" cy="716.944" r="4" fill="#0" id="circle119"/>
	<circle cx="729.546" cy="734.947" r="4" fill="#0" id="circle120"/>
	<circle cx="736.748" cy="391.078" r="4" fill="#0" id="circle121"/>
	<circle cx="743.949" cy="747.55" r="4" fill="#0" id="circle122"/>
	<circle cx="754.751" cy="391.078" r="4" fill="#0" id="circle123"/>
	<circle cx="760.152" cy="738.548" r="4" fill="#0" id="circle124"/>
	<circle cx="769.154" cy="720.544" r="4" fill="#0" id="circle125"/>
	<circle cx="770.955" cy="680.936" r="4" fill="#0" id="circle126"/>
	<circle cx="770.955" cy="698.94" r="4" fill="#0" id="circle127"/>
	<circle cx="772.755" cy="391.078" r="4" fill="#0" id="circle128"/>
	<circle cx="779.956" cy="608.922" r="4" fill="#0" id="circle129"/>
	<circle cx="779.956" cy="626.926" r="4" fill="#0" id="circle130"/>
	<circle cx="779.956" cy="644.929" r="4" fill="#0" id="circle131"/>
	<circle cx="779.956" cy="662.933" r="4" fill="#0" id="circle132"/>
	<circle cx="790.759" cy="391.078" r="4" fill="#0" id="circle133"/>
	<circle cx="797.96" cy="608.922" r="4" fill="#0" id="circle134"/>
	<circle cx="808.762" cy="391.078" r="4" fill="#0" id="circle135"/>
	<circle cx="815.964" cy="608.922" r="4" fill="#0" id="circle136"/>
	<circle cx="826.766" cy="391.078" r="4" fill="#0" id="circle137"/>
	<circle cx="833.967" cy="608.922" r="4" fill="#0" id="circle138"/>
	<circle cx="842.969" cy="400.08" r="4" fill="#0" id="circle139"/>
	<circle cx="851.971" cy="608.922" r="4" fill="#0" id="circle140"/>
	<circle cx="860.973" cy="400.08" r="4" fill="#0" id="circle141"/>
	<circle cx="869.975" cy="608.922" r="4" fill="#0" id="circle142"/>
	<circle cx="878.976" cy="400.08" r="4" fill="#0" id="circle143"/>
	<circle cx="887.978" cy="608.922" r="4" fill="#0" id="circle144"/>
	<circle cx="896.98" cy="400.08" r="4" fill="#0" id="circle145"/>
	<circle cx="905.982" cy="608.922" r="4" fill="#0" id="circle146"/>
	<circle cx="914.984" cy="400.08" r="4" fill="#0" id="circle147"/>
	<circle cx="923.985" cy="608.922" r="4" fill="#0" id="circle148"/>
	<circle cx="932.987" cy="400.08" r="4" fill="#0" id="circle149"/>
	<circle cx="941.989" cy="608.922" r="4" fill="#0" id="circle150"/>
	<circle cx="950.991" cy="400.08" r="4" fill="#0" id="circle151"/>
	<circle cx="959.993" cy="608.922" r="4" fill="#0" id="circle152"/>
	<circle cx="968.995" cy="400.08" r="4" fill="#0" id="circle153"/>
	<circle cx="977.996" cy="608.922" r="4" fill="#0" id="circle154"/>
	<circle cx="986.998" cy="400.08" r="4" fill="#0" id="circle155"/>
	<circle cx="996" cy="416.283" r="4" fill="#0" id="circle156"/>
	<circle cx="996" cy="434.287" r="4" fill="#0" id="circle157"/>
	<circle cx="996" cy="452.29" r="4" fill="#0" id="circle158"/>
	<circle cx="996" cy="470.294" r="4" fill="#0" id="circle159"/>
	<circle cx="996" cy="488.298" r="4" fill="#0" id="circle160"/>
	<circle cx="996" cy="506.301" r="4" fill="#0" id="circle161"/>
	<circle cx="996" cy="524.305" r="4" fill="#0" id="circle162"/>
	<circle cx="996" cy="542.309" r="4" fill="#0" id="circle163"/>
	<circle cx="996" cy="560.312" r="4" fill="#0" id="circle164"/>
	<circle cx="996" cy="578.316" r="4" fill="#0" id="circle165"/>
	<circle cx="996" cy="596.319" r="4" fill="#0" id="circle166"/>
	</g>
</svg>