<?xml version="1.0" encoding="UTF-8" standalone="no"?>
<!-- Created with CurveBenchmark -->
<svg
	xmlns:dc="http://purl.org/dc/elements/1.1/"
	xmlns:cc="http://creativecommons.org/ns#"
	xmlns:rdf="http://www.w3.org/1999/02/22-rdf-syntax-ns#"
	xmlns:svg="http://www.w3.org/2000/svg"
	xmlns="http://www.w3.org/2000/svg"
	xmlns:sodipodi="http://sodipodi.sourceforge.net/DTD/sodipodi-0.dtd"
	xmlns:inkscape="http://www.inkscape.org/namespaces/inkscape"
	width="1000"
	height="1000"
	id="svg2"
	version="1.1"
	sodipodi:docname="manifold/connect2d-kitchenknifebinary8.png.txt">
<defs
	id="defs4" />
<metadata
	id="metadata7">
	<rdf:RDF>
		<cc:Work
			rdf:about="">
			<dc:format>image/svg+xml</dc:format>
			<dc:type
				rdf:resource="http://purl.org/dc/dcmitype/StillImage" />
			<dc:title></dc:title>
		</cc:Work>
	</rdf:RDF>
</metadata>
<g
	inkscape:label="Layer 1"
	inkscape:groupmode="layer"
	id="layer1">
	<path style="fill:none;stroke:red;stroke-width:1px;stroke-linecap:butt;stroke-linejoin:miter;stroke-opacity:1" d="M 996,581.473 996,590.426 z" id="boundary" inkscape:connector-curvature="0" />
	<path style="fill:none;stroke:red;stroke-width:1px;stroke-linecap:butt;stroke-linejoin:miter;stroke-opacity:1" d="M 996,590.426 994.209,601.17 z" id="boundary" inkscape:connector-curvature="0" />
	<path style="fill:none;stroke:red;stroke-width:1px;stroke-linecap:butt;stroke-linejoin:miter;stroke-opacity:1" d="M 994.209,601.17 993.314,613.704 z" id="boundary" inkscape:connector-curvature="0" />
	<path style="fill:none;stroke:red;stroke-width:1px;stroke-linecap:butt;stroke-linejoin:miter;stroke-opacity:1" d="M 993.314,613.704 992.419,626.238 z" id="boundary" inkscape:connector-curvature="0" />
	<path style="fill:none;stroke:red;stroke-width:1px;stroke-linecap:butt;stroke-linejoin:miter;stroke-opacity:1" d="M 992.419,626.238 989.733,639.668 z" id="boundary" inkscape:connector-curvature="0" />
	<path style="fill:none;stroke:red;stroke-width:1px;stroke-linecap:butt;stroke-linejoin:miter;stroke-opacity:1" d="M 989.733,639.668 987.047,652.202 z" id="boundary" inkscape:connector-curvature="0" />
	<path style="fill:none;stroke:red;stroke-width:1px;stroke-linecap:butt;stroke-linejoin:miter;stroke-opacity:1" d="M 987.047,652.202 983.466,661.155 z" id="boundary" inkscape:connector-curvature="0" />
	<path style="fill:none;stroke:red;stroke-width:1px;stroke-linecap:butt;stroke-linejoin:miter;stroke-opacity:1" d="M 983.466,661.155 979.884,670.108 z" id="boundary" inkscape:connector-curvature="0" />
	<path style="fill:none;stroke:red;stroke-width:1px;stroke-linecap:butt;stroke-linejoin:miter;stroke-opacity:1" d="M 979.884,670.108 974.513,677.271 z" id="boundary" inkscape:connector-curvature="0" />
	<path style="fill:none;stroke:red;stroke-width:1px;stroke-linecap:butt;stroke-linejoin:miter;stroke-opacity:1" d="M 974.513,677.271 965.56,675.48 z" id="boundary" inkscape:connector-curvature="0" />
	<path style="fill:none;stroke:red;stroke-width:1px;stroke-linecap:butt;stroke-linejoin:miter;stroke-opacity:1" d="M 965.56,675.48 956.606,677.271 z" id="boundary" inkscape:connector-curvature="0" />
	<path style="fill:none;stroke:red;stroke-width:1px;stroke-linecap:butt;stroke-linejoin:miter;stroke-opacity:1" d="M 956.606,677.271 953.025,690.7 z" id="boundary" inkscape:connector-curvature="0" />
	<path style="fill:none;stroke:red;stroke-width:1px;stroke-linecap:butt;stroke-linejoin:miter;stroke-opacity:1" d="M 953.025,690.7 945.863,685.329 z" id="boundary" inkscape:connector-curvature="0" />
	<path style="fill:none;stroke:red;stroke-width:1px;stroke-linecap:butt;stroke-linejoin:miter;stroke-opacity:1" d="M 945.863,685.329 937.805,689.805 z" id="boundary" inkscape:connector-curvature="0" />
	<path style="fill:none;stroke:red;stroke-width:1px;stroke-linecap:butt;stroke-linejoin:miter;stroke-opacity:1" d="M 937.805,689.805 935.119,698.758 z" id="boundary" inkscape:connector-curvature="0" />
	<path style="fill:none;stroke:red;stroke-width:1px;stroke-linecap:butt;stroke-linejoin:miter;stroke-opacity:1" d="M 935.119,698.758 926.166,703.235 z" id="boundary" inkscape:connector-curvature="0" />
	<path style="fill:none;stroke:red;stroke-width:1px;stroke-linecap:butt;stroke-linejoin:miter;stroke-opacity:1" d="M 926.166,703.235 918.108,698.758 z" id="boundary" inkscape:connector-curvature="0" />
	<path style="fill:none;stroke:red;stroke-width:1px;stroke-linecap:butt;stroke-linejoin:miter;stroke-opacity:1" d="M 918.108,698.758 909.155,698.758 z" id="boundary" inkscape:connector-curvature="0" />
	<path style="fill:none;stroke:red;stroke-width:1px;stroke-linecap:butt;stroke-linejoin:miter;stroke-opacity:1" d="M 909.155,698.758 900.202,695.177 z" id="boundary" inkscape:connector-curvature="0" />
	<path style="fill:none;stroke:red;stroke-width:1px;stroke-linecap:butt;stroke-linejoin:miter;stroke-opacity:1" d="M 900.202,695.177 891.249,693.386 z" id="boundary" inkscape:connector-curvature="0" />
	<path style="fill:none;stroke:red;stroke-width:1px;stroke-linecap:butt;stroke-linejoin:miter;stroke-opacity:1" d="M 891.249,693.386 882.296,689.805 z" id="boundary" inkscape:connector-curvature="0" />
	<path style="fill:none;stroke:red;stroke-width:1px;stroke-linecap:butt;stroke-linejoin:miter;stroke-opacity:1" d="M 882.296,689.805 873.343,686.224 z" id="boundary" inkscape:connector-curvature="0" />
	<path style="fill:none;stroke:red;stroke-width:1px;stroke-linecap:butt;stroke-linejoin:miter;stroke-opacity:1" d="M 873.343,686.224 866.181,680.852 z" id="boundary" inkscape:connector-curvature="0" />
	<path style="fill:none;stroke:red;stroke-width:1px;stroke-linecap:butt;stroke-linejoin:miter;stroke-opacity:1" d="M 866.181,680.852 857.227,679.061 z" id="boundary" inkscape:connector-curvature="0" />
	<path style="fill:none;stroke:red;stroke-width:1px;stroke-linecap:butt;stroke-linejoin:miter;stroke-opacity:1" d="M 857.227,679.061 861.704,671.004 z" id="boundary" inkscape:connector-curvature="0" />
	<path style="fill:none;stroke:red;stroke-width:1px;stroke-linecap:butt;stroke-linejoin:miter;stroke-opacity:1" d="M 861.704,671.004 851.856,671.899 z" id="boundary" inkscape:connector-curvature="0" />
	<path style="fill:none;stroke:red;stroke-width:1px;stroke-linecap:butt;stroke-linejoin:miter;stroke-opacity:1" d="M 851.856,671.899 842.903,669.213 z" id="boundary" inkscape:connector-curvature="0" />
	<path style="fill:none;stroke:red;stroke-width:1px;stroke-linecap:butt;stroke-linejoin:miter;stroke-opacity:1" d="M 842.903,669.213 833.949,670.108 z" id="boundary" inkscape:connector-curvature="0" />
	<path style="fill:none;stroke:red;stroke-width:1px;stroke-linecap:butt;stroke-linejoin:miter;stroke-opacity:1" d="M 833.949,670.108 825.892,665.632 z" id="boundary" inkscape:connector-curvature="0" />
	<path style="fill:none;stroke:red;stroke-width:1px;stroke-linecap:butt;stroke-linejoin:miter;stroke-opacity:1" d="M 825.892,665.632 818.729,660.26 z" id="boundary" inkscape:connector-curvature="0" />
	<path style="fill:none;stroke:red;stroke-width:1px;stroke-linecap:butt;stroke-linejoin:miter;stroke-opacity:1" d="M 818.729,660.26 809.776,659.365 z" id="boundary" inkscape:connector-curvature="0" />
	<path style="fill:none;stroke:red;stroke-width:1px;stroke-linecap:butt;stroke-linejoin:miter;stroke-opacity:1" d="M 809.776,659.365 801.718,654.888 z" id="boundary" inkscape:connector-curvature="0" />
	<path style="fill:none;stroke:red;stroke-width:1px;stroke-linecap:butt;stroke-linejoin:miter;stroke-opacity:1" d="M 801.718,654.888 793.661,650.412 z" id="boundary" inkscape:connector-curvature="0" />
	<path style="fill:none;stroke:red;stroke-width:1px;stroke-linecap:butt;stroke-linejoin:miter;stroke-opacity:1" d="M 793.661,650.412 785.603,645.935 z" id="boundary" inkscape:connector-curvature="0" />
	<path style="fill:none;stroke:red;stroke-width:1px;stroke-linecap:butt;stroke-linejoin:miter;stroke-opacity:1" d="M 785.603,645.935 777.545,641.458 z" id="boundary" inkscape:connector-curvature="0" />
	<path style="fill:none;stroke:red;stroke-width:1px;stroke-linecap:butt;stroke-linejoin:miter;stroke-opacity:1" d="M 777.545,641.458 768.592,637.877 z" id="boundary" inkscape:connector-curvature="0" />
	<path style="fill:none;stroke:red;stroke-width:1px;stroke-linecap:butt;stroke-linejoin:miter;stroke-opacity:1" d="M 768.592,637.877 762.325,630.715 z" id="boundary" inkscape:connector-curvature="0" />
	<path style="fill:none;stroke:red;stroke-width:1px;stroke-linecap:butt;stroke-linejoin:miter;stroke-opacity:1" d="M 762.325,630.715 753.372,629.819 z" id="boundary" inkscape:connector-curvature="0" />
	<path style="fill:none;stroke:red;stroke-width:1px;stroke-linecap:butt;stroke-linejoin:miter;stroke-opacity:1" d="M 753.372,629.819 746.209,624.448 z" id="boundary" inkscape:connector-curvature="0" />
	<path style="fill:none;stroke:red;stroke-width:1px;stroke-linecap:butt;stroke-linejoin:miter;stroke-opacity:1" d="M 746.209,624.448 739.047,619.076 z" id="boundary" inkscape:connector-curvature="0" />
	<path style="fill:none;stroke:red;stroke-width:1px;stroke-linecap:butt;stroke-linejoin:miter;stroke-opacity:1" d="M 739.047,619.076 730.094,616.39 z" id="boundary" inkscape:connector-curvature="0" />
	<path style="fill:none;stroke:red;stroke-width:1px;stroke-linecap:butt;stroke-linejoin:miter;stroke-opacity:1" d="M 730.094,616.39 722.036,611.913 z" id="boundary" inkscape:connector-curvature="0" />
	<path style="fill:none;stroke:red;stroke-width:1px;stroke-linecap:butt;stroke-linejoin:miter;stroke-opacity:1" d="M 722.036,611.913 715.769,604.751 z" id="boundary" inkscape:connector-curvature="0" />
	<path style="fill:none;stroke:red;stroke-width:1px;stroke-linecap:butt;stroke-linejoin:miter;stroke-opacity:1" d="M 715.769,604.751 706.816,602.96 z" id="boundary" inkscape:connector-curvature="0" />
	<path style="fill:none;stroke:red;stroke-width:1px;stroke-linecap:butt;stroke-linejoin:miter;stroke-opacity:1" d="M 706.816,602.96 698.758,598.484 z" id="boundary" inkscape:connector-curvature="0" />
	<path style="fill:none;stroke:red;stroke-width:1px;stroke-linecap:butt;stroke-linejoin:miter;stroke-opacity:1" d="M 698.758,598.484 690.7,594.007 z" id="boundary" inkscape:connector-curvature="0" />
	<path style="fill:none;stroke:red;stroke-width:1px;stroke-linecap:butt;stroke-linejoin:miter;stroke-opacity:1" d="M 690.7,594.007 685.329,586.845 z" id="boundary" inkscape:connector-curvature="0" />
	<path style="fill:none;stroke:red;stroke-width:1px;stroke-linecap:butt;stroke-linejoin:miter;stroke-opacity:1" d="M 685.329,586.845 676.375,583.264 z" id="boundary" inkscape:connector-curvature="0" />
	<path style="fill:none;stroke:red;stroke-width:1px;stroke-linecap:butt;stroke-linejoin:miter;stroke-opacity:1" d="M 676.375,583.264 669.213,577.892 z" id="boundary" inkscape:connector-curvature="0" />
	<path style="fill:none;stroke:red;stroke-width:1px;stroke-linecap:butt;stroke-linejoin:miter;stroke-opacity:1" d="M 669.213,577.892 662.051,572.52 z" id="boundary" inkscape:connector-curvature="0" />
	<path style="fill:none;stroke:red;stroke-width:1px;stroke-linecap:butt;stroke-linejoin:miter;stroke-opacity:1" d="M 662.051,572.52 653.993,568.043 z" id="boundary" inkscape:connector-curvature="0" />
	<path style="fill:none;stroke:red;stroke-width:1px;stroke-linecap:butt;stroke-linejoin:miter;stroke-opacity:1" d="M 653.993,568.043 646.83,562.671 z" id="boundary" inkscape:connector-curvature="0" />
	<path style="fill:none;stroke:red;stroke-width:1px;stroke-linecap:butt;stroke-linejoin:miter;stroke-opacity:1" d="M 646.83,562.671 638.773,558.195 z" id="boundary" inkscape:connector-curvature="0" />
	<path style="fill:none;stroke:red;stroke-width:1px;stroke-linecap:butt;stroke-linejoin:miter;stroke-opacity:1" d="M 638.773,558.195 634.296,550.137 z" id="boundary" inkscape:connector-curvature="0" />
	<path style="fill:none;stroke:red;stroke-width:1px;stroke-linecap:butt;stroke-linejoin:miter;stroke-opacity:1" d="M 634.296,550.137 626.238,545.661 z" id="boundary" inkscape:connector-curvature="0" />
	<path style="fill:none;stroke:red;stroke-width:1px;stroke-linecap:butt;stroke-linejoin:miter;stroke-opacity:1" d="M 626.238,545.661 619.076,540.289 z" id="boundary" inkscape:connector-curvature="0" />
	<path style="fill:none;stroke:red;stroke-width:1px;stroke-linecap:butt;stroke-linejoin:miter;stroke-opacity:1" d="M 619.076,540.289 611.913,534.022 z" id="boundary" inkscape:connector-curvature="0" />
	<path style="fill:none;stroke:red;stroke-width:1px;stroke-linecap:butt;stroke-linejoin:miter;stroke-opacity:1" d="M 611.913,534.022 603.856,529.545 z" id="boundary" inkscape:connector-curvature="0" />
	<path style="fill:none;stroke:red;stroke-width:1px;stroke-linecap:butt;stroke-linejoin:miter;stroke-opacity:1" d="M 603.856,529.545 595.798,525.069 z" id="boundary" inkscape:connector-curvature="0" />
	<path style="fill:none;stroke:red;stroke-width:1px;stroke-linecap:butt;stroke-linejoin:miter;stroke-opacity:1" d="M 595.798,525.069 588.635,519.697 z" id="boundary" inkscape:connector-curvature="0" />
	<path style="fill:none;stroke:red;stroke-width:1px;stroke-linecap:butt;stroke-linejoin:miter;stroke-opacity:1" d="M 588.635,519.697 583.264,512.534 z" id="boundary" inkscape:connector-curvature="0" />
	<path style="fill:none;stroke:red;stroke-width:1px;stroke-linecap:butt;stroke-linejoin:miter;stroke-opacity:1" d="M 583.264,512.534 576.101,507.162 z" id="boundary" inkscape:connector-curvature="0" />
	<path style="fill:none;stroke:red;stroke-width:1px;stroke-linecap:butt;stroke-linejoin:miter;stroke-opacity:1" d="M 576.101,507.162 568.043,502.686 z" id="boundary" inkscape:connector-curvature="0" />
	<path style="fill:none;stroke:red;stroke-width:1px;stroke-linecap:butt;stroke-linejoin:miter;stroke-opacity:1" d="M 568.043,502.686 560.881,496.419 z" id="boundary" inkscape:connector-curvature="0" />
	<path style="fill:none;stroke:red;stroke-width:1px;stroke-linecap:butt;stroke-linejoin:miter;stroke-opacity:1" d="M 560.881,496.419 554.614,489.256 z" id="boundary" inkscape:connector-curvature="0" />
	<path style="fill:none;stroke:red;stroke-width:1px;stroke-linecap:butt;stroke-linejoin:miter;stroke-opacity:1" d="M 554.614,489.256 546.556,484.78 z" id="boundary" inkscape:connector-curvature="0" />
	<path style="fill:none;stroke:red;stroke-width:1px;stroke-linecap:butt;stroke-linejoin:miter;stroke-opacity:1" d="M 546.556,484.78 539.394,479.408 z" id="boundary" inkscape:connector-curvature="0" />
	<path style="fill:none;stroke:red;stroke-width:1px;stroke-linecap:butt;stroke-linejoin:miter;stroke-opacity:1" d="M 539.394,479.408 534.022,472.245 z" id="boundary" inkscape:connector-curvature="0" />
	<path style="fill:none;stroke:red;stroke-width:1px;stroke-linecap:butt;stroke-linejoin:miter;stroke-opacity:1" d="M 534.022,472.245 525.069,468.664 z" id="boundary" inkscape:connector-curvature="0" />
	<path style="fill:none;stroke:red;stroke-width:1px;stroke-linecap:butt;stroke-linejoin:miter;stroke-opacity:1" d="M 525.069,468.664 518.801,461.502 z" id="boundary" inkscape:connector-curvature="0" />
	<path style="fill:none;stroke:red;stroke-width:1px;stroke-linecap:butt;stroke-linejoin:miter;stroke-opacity:1" d="M 518.801,461.502 511.639,456.13 z" id="boundary" inkscape:connector-curvature="0" />
	<path style="fill:none;stroke:red;stroke-width:1px;stroke-linecap:butt;stroke-linejoin:miter;stroke-opacity:1" d="M 511.639,456.13 504.477,449.863 z" id="boundary" inkscape:connector-curvature="0" />
	<path style="fill:none;stroke:red;stroke-width:1px;stroke-linecap:butt;stroke-linejoin:miter;stroke-opacity:1" d="M 504.477,449.863 497.314,443.596 z" id="boundary" inkscape:connector-curvature="0" />
	<path style="fill:none;stroke:red;stroke-width:1px;stroke-linecap:butt;stroke-linejoin:miter;stroke-opacity:1" d="M 497.314,443.596 490.152,437.329 z" id="boundary" inkscape:connector-curvature="0" />
	<path style="fill:none;stroke:red;stroke-width:1px;stroke-linecap:butt;stroke-linejoin:miter;stroke-opacity:1" d="M 490.152,437.329 482.094,432.852 z" id="boundary" inkscape:connector-curvature="0" />
	<path style="fill:none;stroke:red;stroke-width:1px;stroke-linecap:butt;stroke-linejoin:miter;stroke-opacity:1" d="M 482.094,432.852 474.931,427.48 z" id="boundary" inkscape:connector-curvature="0" />
	<path style="fill:none;stroke:red;stroke-width:1px;stroke-linecap:butt;stroke-linejoin:miter;stroke-opacity:1" d="M 474.931,427.48 467.769,422.108 z" id="boundary" inkscape:connector-curvature="0" />
	<path style="fill:none;stroke:red;stroke-width:1px;stroke-linecap:butt;stroke-linejoin:miter;stroke-opacity:1" d="M 467.769,422.108 460.606,416.736 z" id="boundary" inkscape:connector-curvature="0" />
	<path style="fill:none;stroke:red;stroke-width:1px;stroke-linecap:butt;stroke-linejoin:miter;stroke-opacity:1" d="M 460.606,416.736 453.444,411.365 z" id="boundary" inkscape:connector-curvature="0" />
	<path style="fill:none;stroke:red;stroke-width:1px;stroke-linecap:butt;stroke-linejoin:miter;stroke-opacity:1" d="M 453.444,411.365 446.282,405.993 z" id="boundary" inkscape:connector-curvature="0" />
	<path style="fill:none;stroke:red;stroke-width:1px;stroke-linecap:butt;stroke-linejoin:miter;stroke-opacity:1" d="M 446.282,405.993 439.119,400.621 z" id="boundary" inkscape:connector-curvature="0" />
	<path style="fill:none;stroke:red;stroke-width:1px;stroke-linecap:butt;stroke-linejoin:miter;stroke-opacity:1" d="M 439.119,400.621 431.957,394.354 z" id="boundary" inkscape:connector-curvature="0" />
	<path style="fill:none;stroke:red;stroke-width:1px;stroke-linecap:butt;stroke-linejoin:miter;stroke-opacity:1" d="M 431.957,394.354 424.794,388.982 z" id="boundary" inkscape:connector-curvature="0" />
	<path style="fill:none;stroke:red;stroke-width:1px;stroke-linecap:butt;stroke-linejoin:miter;stroke-opacity:1" d="M 424.794,388.982 416.736,384.505 z" id="boundary" inkscape:connector-curvature="0" />
	<path style="fill:none;stroke:red;stroke-width:1px;stroke-linecap:butt;stroke-linejoin:miter;stroke-opacity:1" d="M 416.736,384.505 408.679,380.029 z" id="boundary" inkscape:connector-curvature="0" />
	<path style="fill:none;stroke:red;stroke-width:1px;stroke-linecap:butt;stroke-linejoin:miter;stroke-opacity:1" d="M 408.679,380.029 401.516,373.762 z" id="boundary" inkscape:connector-curvature="0" />
	<path style="fill:none;stroke:red;stroke-width:1px;stroke-linecap:butt;stroke-linejoin:miter;stroke-opacity:1" d="M 401.516,373.762 394.354,368.39 z" id="boundary" inkscape:connector-curvature="0" />
	<path style="fill:none;stroke:red;stroke-width:1px;stroke-linecap:butt;stroke-linejoin:miter;stroke-opacity:1" d="M 394.354,368.39 387.191,363.018 z" id="boundary" inkscape:connector-curvature="0" />
	<path style="fill:none;stroke:red;stroke-width:1px;stroke-linecap:butt;stroke-linejoin:miter;stroke-opacity:1" d="M 387.191,363.018 379.134,358.542 z" id="boundary" inkscape:connector-curvature="0" />
	<path style="fill:none;stroke:red;stroke-width:1px;stroke-linecap:butt;stroke-linejoin:miter;stroke-opacity:1" d="M 379.134,358.542 371.971,353.17 z" id="boundary" inkscape:connector-curvature="0" />
	<path style="fill:none;stroke:red;stroke-width:1px;stroke-linecap:butt;stroke-linejoin:miter;stroke-opacity:1" d="M 371.971,353.17 363.913,348.693 z" id="boundary" inkscape:connector-curvature="0" />
	<path style="fill:none;stroke:red;stroke-width:1px;stroke-linecap:butt;stroke-linejoin:miter;stroke-opacity:1" d="M 363.913,348.693 356.751,343.321 z" id="boundary" inkscape:connector-curvature="0" />
	<path style="fill:none;stroke:red;stroke-width:1px;stroke-linecap:butt;stroke-linejoin:miter;stroke-opacity:1" d="M 356.751,343.321 352.274,335.264 z" id="boundary" inkscape:connector-curvature="0" />
	<path style="fill:none;stroke:red;stroke-width:1px;stroke-linecap:butt;stroke-linejoin:miter;stroke-opacity:1" d="M 352.274,335.264 346.903,321.834 z" id="boundary" inkscape:connector-curvature="0" />
	<path style="fill:none;stroke:red;stroke-width:1px;stroke-linecap:butt;stroke-linejoin:miter;stroke-opacity:1" d="M 346.903,321.834 341.531,314.671 z" id="boundary" inkscape:connector-curvature="0" />
	<path style="fill:none;stroke:red;stroke-width:1px;stroke-linecap:butt;stroke-linejoin:miter;stroke-opacity:1" d="M 341.531,314.671 333.473,310.195 z" id="boundary" inkscape:connector-curvature="0" />
	<path style="fill:none;stroke:red;stroke-width:1px;stroke-linecap:butt;stroke-linejoin:miter;stroke-opacity:1" d="M 333.473,310.195 325.415,305.718 z" id="boundary" inkscape:connector-curvature="0" />
	<path style="fill:none;stroke:red;stroke-width:1px;stroke-linecap:butt;stroke-linejoin:miter;stroke-opacity:1" d="M 325.415,305.718 318.253,300.347 z" id="boundary" inkscape:connector-curvature="0" />
	<path style="fill:none;stroke:red;stroke-width:1px;stroke-linecap:butt;stroke-linejoin:miter;stroke-opacity:1" d="M 318.253,300.347 312.881,293.184 z" id="boundary" inkscape:connector-curvature="0" />
	<path style="fill:none;stroke:red;stroke-width:1px;stroke-linecap:butt;stroke-linejoin:miter;stroke-opacity:1" d="M 312.881,293.184 304.823,288.708 z" id="boundary" inkscape:connector-curvature="0" />
	<path style="fill:none;stroke:red;stroke-width:1px;stroke-linecap:butt;stroke-linejoin:miter;stroke-opacity:1" d="M 304.823,288.708 298.556,281.545 z" id="boundary" inkscape:connector-curvature="0" />
	<path style="fill:none;stroke:red;stroke-width:1px;stroke-linecap:butt;stroke-linejoin:miter;stroke-opacity:1" d="M 298.556,281.545 291.394,276.173 z" id="boundary" inkscape:connector-curvature="0" />
	<path style="fill:none;stroke:red;stroke-width:1px;stroke-linecap:butt;stroke-linejoin:miter;stroke-opacity:1" d="M 291.394,276.173 282.44,274.383 z" id="boundary" inkscape:connector-curvature="0" />
	<path style="fill:none;stroke:red;stroke-width:1px;stroke-linecap:butt;stroke-linejoin:miter;stroke-opacity:1" d="M 282.44,274.383 276.173,267.22 z" id="boundary" inkscape:connector-curvature="0" />
	<path style="fill:none;stroke:red;stroke-width:1px;stroke-linecap:butt;stroke-linejoin:miter;stroke-opacity:1" d="M 276.173,267.22 268.116,262.744 z" id="boundary" inkscape:connector-curvature="0" />
	<path style="fill:none;stroke:red;stroke-width:1px;stroke-linecap:butt;stroke-linejoin:miter;stroke-opacity:1" d="M 268.116,262.744 262.744,255.581 z" id="boundary" inkscape:connector-curvature="0" />
	<path style="fill:none;stroke:red;stroke-width:1px;stroke-linecap:butt;stroke-linejoin:miter;stroke-opacity:1" d="M 262.744,255.581 253.791,253.791 z" id="boundary" inkscape:connector-curvature="0" />
	<path style="fill:none;stroke:red;stroke-width:1px;stroke-linecap:butt;stroke-linejoin:miter;stroke-opacity:1" d="M 253.791,253.791 249.314,245.733 z" id="boundary" inkscape:connector-curvature="0" />
	<path style="fill:none;stroke:red;stroke-width:1px;stroke-linecap:butt;stroke-linejoin:miter;stroke-opacity:1" d="M 249.314,245.733 240.361,242.152 z" id="boundary" inkscape:connector-curvature="0" />
	<path style="fill:none;stroke:red;stroke-width:1px;stroke-linecap:butt;stroke-linejoin:miter;stroke-opacity:1" d="M 240.361,242.152 233.199,236.78 z" id="boundary" inkscape:connector-curvature="0" />
	<path style="fill:none;stroke:red;stroke-width:1px;stroke-linecap:butt;stroke-linejoin:miter;stroke-opacity:1" d="M 233.199,236.78 227.827,229.617 z" id="boundary" inkscape:connector-curvature="0" />
	<path style="fill:none;stroke:red;stroke-width:1px;stroke-linecap:butt;stroke-linejoin:miter;stroke-opacity:1" d="M 227.827,229.617 219.769,225.141 z" id="boundary" inkscape:connector-curvature="0" />
	<path style="fill:none;stroke:red;stroke-width:1px;stroke-linecap:butt;stroke-linejoin:miter;stroke-opacity:1" d="M 219.769,225.141 214.397,217.978 z" id="boundary" inkscape:connector-curvature="0" />
	<path style="fill:none;stroke:red;stroke-width:1px;stroke-linecap:butt;stroke-linejoin:miter;stroke-opacity:1" d="M 214.397,217.978 206.339,213.502 z" id="boundary" inkscape:connector-curvature="0" />
	<path style="fill:none;stroke:red;stroke-width:1px;stroke-linecap:butt;stroke-linejoin:miter;stroke-opacity:1" d="M 206.339,213.502 200.072,206.339 z" id="boundary" inkscape:connector-curvature="0" />
	<path style="fill:none;stroke:red;stroke-width:1px;stroke-linecap:butt;stroke-linejoin:miter;stroke-opacity:1" d="M 200.072,206.339 192.91,200.072 z" id="boundary" inkscape:connector-curvature="0" />
	<path style="fill:none;stroke:red;stroke-width:1px;stroke-linecap:butt;stroke-linejoin:miter;stroke-opacity:1" d="M 192.91,200.072 183.957,197.386 z" id="boundary" inkscape:connector-curvature="0" />
	<path style="fill:none;stroke:red;stroke-width:1px;stroke-linecap:butt;stroke-linejoin:miter;stroke-opacity:1" d="M 183.957,197.386 176.794,191.119 z" id="boundary" inkscape:connector-curvature="0" />
	<path style="fill:none;stroke:red;stroke-width:1px;stroke-linecap:butt;stroke-linejoin:miter;stroke-opacity:1" d="M 176.794,191.119 171.422,183.957 z" id="boundary" inkscape:connector-curvature="0" />
	<path style="fill:none;stroke:red;stroke-width:1px;stroke-linecap:butt;stroke-linejoin:miter;stroke-opacity:1" d="M 171.422,183.957 164.26,178.585 z" id="boundary" inkscape:connector-curvature="0" />
	<path style="fill:none;stroke:red;stroke-width:1px;stroke-linecap:butt;stroke-linejoin:miter;stroke-opacity:1" d="M 164.26,178.585 157.097,172.318 z" id="boundary" inkscape:connector-curvature="0" />
	<path style="fill:none;stroke:red;stroke-width:1px;stroke-linecap:butt;stroke-linejoin:miter;stroke-opacity:1" d="M 157.097,172.318 151.726,165.155 z" id="boundary" inkscape:connector-curvature="0" />
	<path style="fill:none;stroke:red;stroke-width:1px;stroke-linecap:butt;stroke-linejoin:miter;stroke-opacity:1" d="M 151.726,165.155 142.773,163.365 z" id="boundary" inkscape:connector-curvature="0" />
	<path style="fill:none;stroke:red;stroke-width:1px;stroke-linecap:butt;stroke-linejoin:miter;stroke-opacity:1" d="M 142.773,163.365 137.401,156.202 z" id="boundary" inkscape:connector-curvature="0" />
	<path style="fill:none;stroke:red;stroke-width:1px;stroke-linecap:butt;stroke-linejoin:miter;stroke-opacity:1" d="M 137.401,156.202 131.134,149.04 z" id="boundary" inkscape:connector-curvature="0" />
	<path style="fill:none;stroke:red;stroke-width:1px;stroke-linecap:butt;stroke-linejoin:miter;stroke-opacity:1" d="M 131.134,149.04 123.971,143.668 z" id="boundary" inkscape:connector-curvature="0" />
	<path style="fill:none;stroke:red;stroke-width:1px;stroke-linecap:butt;stroke-linejoin:miter;stroke-opacity:1" d="M 123.971,143.668 116.809,138.296 z" id="boundary" inkscape:connector-curvature="0" />
	<path style="fill:none;stroke:red;stroke-width:1px;stroke-linecap:butt;stroke-linejoin:miter;stroke-opacity:1" d="M 116.809,138.296 113.227,129.343 z" id="boundary" inkscape:connector-curvature="0" />
	<path style="fill:none;stroke:red;stroke-width:1px;stroke-linecap:butt;stroke-linejoin:miter;stroke-opacity:1" d="M 113.227,129.343 105.17,124.866 z" id="boundary" inkscape:connector-curvature="0" />
	<path style="fill:none;stroke:red;stroke-width:1px;stroke-linecap:butt;stroke-linejoin:miter;stroke-opacity:1" d="M 105.17,124.866 98.0072,118.599 z" id="boundary" inkscape:connector-curvature="0" />
	<path style="fill:none;stroke:red;stroke-width:1px;stroke-linecap:butt;stroke-linejoin:miter;stroke-opacity:1" d="M 98.0072,118.599 91.7401,111.437 z" id="boundary" inkscape:connector-curvature="0" />
	<path style="fill:none;stroke:red;stroke-width:1px;stroke-linecap:butt;stroke-linejoin:miter;stroke-opacity:1" d="M 91.7401,111.437 84.5776,106.065 z" id="boundary" inkscape:connector-curvature="0" />
	<path style="fill:none;stroke:red;stroke-width:1px;stroke-linecap:butt;stroke-linejoin:miter;stroke-opacity:1" d="M 84.5776,106.065 78.3105,98.9025 z" id="boundary" inkscape:connector-curvature="0" />
	<path style="fill:none;stroke:red;stroke-width:1px;stroke-linecap:butt;stroke-linejoin:miter;stroke-opacity:1" d="M 78.3105,98.9025 72.9386,91.7401 z" id="boundary" inkscape:connector-curvature="0" />
	<path style="fill:none;stroke:red;stroke-width:1px;stroke-linecap:butt;stroke-linejoin:miter;stroke-opacity:1" d="M 72.9386,91.7401 65.7762,85.4729 z" id="boundary" inkscape:connector-curvature="0" />
	<path style="fill:none;stroke:red;stroke-width:1px;stroke-linecap:butt;stroke-linejoin:miter;stroke-opacity:1" d="M 65.7762,85.4729 61.2996,77.4152 z" id="boundary" inkscape:connector-curvature="0" />
	<path style="fill:none;stroke:red;stroke-width:1px;stroke-linecap:butt;stroke-linejoin:miter;stroke-opacity:1" d="M 61.2996,77.4152 53.2419,72.9386 z" id="boundary" inkscape:connector-curvature="0" />
	<path style="fill:none;stroke:red;stroke-width:1px;stroke-linecap:butt;stroke-linejoin:miter;stroke-opacity:1" d="M 53.2419,72.9386 47.87,65.7762 z" id="boundary" inkscape:connector-curvature="0" />
	<path style="fill:none;stroke:red;stroke-width:1px;stroke-linecap:butt;stroke-linejoin:miter;stroke-opacity:1" d="M 47.87,65.7762 41.6029,58.6137 z" id="boundary" inkscape:connector-curvature="0" />
	<path style="fill:none;stroke:red;stroke-width:1px;stroke-linecap:butt;stroke-linejoin:miter;stroke-opacity:1" d="M 41.6029,58.6137 35.3357,51.4513 z" id="boundary" inkscape:connector-curvature="0" />
	<path style="fill:none;stroke:red;stroke-width:1px;stroke-linecap:butt;stroke-linejoin:miter;stroke-opacity:1" d="M 35.3357,51.4513 29.9639,44.2888 z" id="boundary" inkscape:connector-curvature="0" />
	<path style="fill:none;stroke:red;stroke-width:1px;stroke-linecap:butt;stroke-linejoin:miter;stroke-opacity:1" d="M 29.9639,44.2888 23.6968,37.1264 z" id="boundary" inkscape:connector-curvature="0" />
	<path style="fill:none;stroke:red;stroke-width:1px;stroke-linecap:butt;stroke-linejoin:miter;stroke-opacity:1" d="M 23.6968,37.1264 17.4296,29.9639 z" id="boundary" inkscape:connector-curvature="0" />
	<path style="fill:none;stroke:red;stroke-width:1px;stroke-linecap:butt;stroke-linejoin:miter;stroke-opacity:1" d="M 17.4296,29.9639 12.9531,21.9061 z" id="boundary" inkscape:connector-curvature="0" />
	<path style="fill:none;stroke:red;stroke-width:1px;stroke-linecap:butt;stroke-linejoin:miter;stroke-opacity:1" d="M 12.9531,21.9061 7.58123,14.7437 z" id="boundary" inkscape:connector-curvature="0" />
	<path style="fill:none;stroke:red;stroke-width:1px;stroke-linecap:butt;stroke-linejoin:miter;stroke-opacity:1" d="M 7.58123,14.7437 4,5.79061 z" id="boundary" inkscape:connector-curvature="0" />
	<path style="fill:none;stroke:red;stroke-width:1px;stroke-linecap:butt;stroke-linejoin:miter;stroke-opacity:1" d="M 4,5.79061 12.9531,4 z" id="boundary" inkscape:connector-curvature="0" />
	<path style="fill:none;stroke:red;stroke-width:1px;stroke-linecap:butt;stroke-linejoin:miter;stroke-opacity:1" d="M 12.9531,4 21.9061,4.89531 z" id="boundary" inkscape:connector-curvature="0" />
	<path style="fill:none;stroke:red;stroke-width:1px;stroke-linecap:butt;stroke-linejoin:miter;stroke-opacity:1" d="M 21.9061,4.89531 30.8592,4.89531 z" id="boundary" inkscape:connector-curvature="0" />
	<path style="fill:none;stroke:red;stroke-width:1px;stroke-linecap:butt;stroke-linejoin:miter;stroke-opacity:1" d="M 30.8592,4.89531 39.8123,5.79061 z" id="boundary" inkscape:connector-curvature="0" />
	<path style="fill:none;stroke:red;stroke-width:1px;stroke-linecap:butt;stroke-linejoin:miter;stroke-opacity:1" d="M 39.8123,5.79061 48.7653,7.58123 z" id="boundary" inkscape:connector-curvature="0" />
	<path style="fill:none;stroke:red;stroke-width:1px;stroke-linecap:butt;stroke-linejoin:miter;stroke-opacity:1" d="M 48.7653,7.58123 57.7184,9.37184 z" id="boundary" inkscape:connector-curvature="0" />
	<path style="fill:none;stroke:red;stroke-width:1px;stroke-linecap:butt;stroke-linejoin:miter;stroke-opacity:1" d="M 57.7184,9.37184 66.6715,10.2671 z" id="boundary" inkscape:connector-curvature="0" />
	<path style="fill:none;stroke:red;stroke-width:1px;stroke-linecap:butt;stroke-linejoin:miter;stroke-opacity:1" d="M 66.6715,10.2671 75.6245,12.0578 z" id="boundary" inkscape:connector-curvature="0" />
	<path style="fill:none;stroke:red;stroke-width:1px;stroke-linecap:butt;stroke-linejoin:miter;stroke-opacity:1" d="M 75.6245,12.0578 84.5776,13.8484 z" id="boundary" inkscape:connector-curvature="0" />
	<path style="fill:none;stroke:red;stroke-width:1px;stroke-linecap:butt;stroke-linejoin:miter;stroke-opacity:1" d="M 84.5776,13.8484 93.5307,15.639 z" id="boundary" inkscape:connector-curvature="0" />
	<path style="fill:none;stroke:red;stroke-width:1px;stroke-linecap:butt;stroke-linejoin:miter;stroke-opacity:1" d="M 93.5307,15.639 102.484,17.4296 z" id="boundary" inkscape:connector-curvature="0" />
	<path style="fill:none;stroke:red;stroke-width:1px;stroke-linecap:butt;stroke-linejoin:miter;stroke-opacity:1" d="M 102.484,17.4296 111.437,19.2202 z" id="boundary" inkscape:connector-curvature="0" />
	<path style="fill:none;stroke:red;stroke-width:1px;stroke-linecap:butt;stroke-linejoin:miter;stroke-opacity:1" d="M 111.437,19.2202 120.39,21.9061 z" id="boundary" inkscape:connector-curvature="0" />
	<path style="fill:none;stroke:red;stroke-width:1px;stroke-linecap:butt;stroke-linejoin:miter;stroke-opacity:1" d="M 120.39,21.9061 129.343,24.5921 z" id="boundary" inkscape:connector-curvature="0" />
	<path style="fill:none;stroke:red;stroke-width:1px;stroke-linecap:butt;stroke-linejoin:miter;stroke-opacity:1" d="M 129.343,24.5921 138.296,27.278 z" id="boundary" inkscape:connector-curvature="0" />
	<path style="fill:none;stroke:red;stroke-width:1px;stroke-linecap:butt;stroke-linejoin:miter;stroke-opacity:1" d="M 138.296,27.278 147.249,29.0686 z" id="boundary" inkscape:connector-curvature="0" />
	<path style="fill:none;stroke:red;stroke-width:1px;stroke-linecap:butt;stroke-linejoin:miter;stroke-opacity:1" d="M 147.249,29.0686 156.202,31.7545 z" id="boundary" inkscape:connector-curvature="0" />
	<path style="fill:none;stroke:red;stroke-width:1px;stroke-linecap:butt;stroke-linejoin:miter;stroke-opacity:1" d="M 156.202,31.7545 165.155,35.3357 z" id="boundary" inkscape:connector-curvature="0" />
	<path style="fill:none;stroke:red;stroke-width:1px;stroke-linecap:butt;stroke-linejoin:miter;stroke-opacity:1" d="M 165.155,35.3357 174.108,38.0217 z" id="boundary" inkscape:connector-curvature="0" />
	<path style="fill:none;stroke:red;stroke-width:1px;stroke-linecap:butt;stroke-linejoin:miter;stroke-opacity:1" d="M 174.108,38.0217 183.061,41.6029 z" id="boundary" inkscape:connector-curvature="0" />
	<path style="fill:none;stroke:red;stroke-width:1px;stroke-linecap:butt;stroke-linejoin:miter;stroke-opacity:1" d="M 183.061,41.6029 192.014,45.1841 z" id="boundary" inkscape:connector-curvature="0" />
	<path style="fill:none;stroke:red;stroke-width:1px;stroke-linecap:butt;stroke-linejoin:miter;stroke-opacity:1" d="M 192.014,45.1841 200.968,47.87 z" id="boundary" inkscape:connector-curvature="0" />
	<path style="fill:none;stroke:red;stroke-width:1px;stroke-linecap:butt;stroke-linejoin:miter;stroke-opacity:1" d="M 200.968,47.87 209.921,51.4513 z" id="boundary" inkscape:connector-curvature="0" />
	<path style="fill:none;stroke:red;stroke-width:1px;stroke-linecap:butt;stroke-linejoin:miter;stroke-opacity:1" d="M 209.921,51.4513 217.978,55.9278 z" id="boundary" inkscape:connector-curvature="0" />
	<path style="fill:none;stroke:red;stroke-width:1px;stroke-linecap:butt;stroke-linejoin:miter;stroke-opacity:1" d="M 217.978,55.9278 226.931,59.509 z" id="boundary" inkscape:connector-curvature="0" />
	<path style="fill:none;stroke:red;stroke-width:1px;stroke-linecap:butt;stroke-linejoin:miter;stroke-opacity:1" d="M 226.931,59.509 235.884,61.2996 z" id="boundary" inkscape:connector-curvature="0" />
	<path style="fill:none;stroke:red;stroke-width:1px;stroke-linecap:butt;stroke-linejoin:miter;stroke-opacity:1" d="M 235.884,61.2996 243.942,65.7762 z" id="boundary" inkscape:connector-curvature="0" />
	<path style="fill:none;stroke:red;stroke-width:1px;stroke-linecap:butt;stroke-linejoin:miter;stroke-opacity:1" d="M 243.942,65.7762 252.895,69.3574 z" id="boundary" inkscape:connector-curvature="0" />
	<path style="fill:none;stroke:red;stroke-width:1px;stroke-linecap:butt;stroke-linejoin:miter;stroke-opacity:1" d="M 252.895,69.3574 261.848,72.9386 z" id="boundary" inkscape:connector-curvature="0" />
	<path style="fill:none;stroke:red;stroke-width:1px;stroke-linecap:butt;stroke-linejoin:miter;stroke-opacity:1" d="M 261.848,72.9386 269.906,77.4152 z" id="boundary" inkscape:connector-curvature="0" />
	<path style="fill:none;stroke:red;stroke-width:1px;stroke-linecap:butt;stroke-linejoin:miter;stroke-opacity:1" d="M 269.906,77.4152 278.859,80.9964 z" id="boundary" inkscape:connector-curvature="0" />
	<path style="fill:none;stroke:red;stroke-width:1px;stroke-linecap:butt;stroke-linejoin:miter;stroke-opacity:1" d="M 278.859,80.9964 286.917,85.4729 z" id="boundary" inkscape:connector-curvature="0" />
	<path style="fill:none;stroke:red;stroke-width:1px;stroke-linecap:butt;stroke-linejoin:miter;stroke-opacity:1" d="M 286.917,85.4729 295.87,89.0542 z" id="boundary" inkscape:connector-curvature="0" />
	<path style="fill:none;stroke:red;stroke-width:1px;stroke-linecap:butt;stroke-linejoin:miter;stroke-opacity:1" d="M 295.87,89.0542 303.928,93.5307 z" id="boundary" inkscape:connector-curvature="0" />
	<path style="fill:none;stroke:red;stroke-width:1px;stroke-linecap:butt;stroke-linejoin:miter;stroke-opacity:1" d="M 303.928,93.5307 312.881,97.1119 z" id="boundary" inkscape:connector-curvature="0" />
	<path style="fill:none;stroke:red;stroke-width:1px;stroke-linecap:butt;stroke-linejoin:miter;stroke-opacity:1" d="M 312.881,97.1119 320.939,101.588 z" id="boundary" inkscape:connector-curvature="0" />
	<path style="fill:none;stroke:red;stroke-width:1px;stroke-linecap:butt;stroke-linejoin:miter;stroke-opacity:1" d="M 320.939,101.588 329.892,104.274 z" id="boundary" inkscape:connector-curvature="0" />
	<path style="fill:none;stroke:red;stroke-width:1px;stroke-linecap:butt;stroke-linejoin:miter;stroke-opacity:1" d="M 329.892,104.274 337.949,108.751 z" id="boundary" inkscape:connector-curvature="0" />
	<path style="fill:none;stroke:red;stroke-width:1px;stroke-linecap:butt;stroke-linejoin:miter;stroke-opacity:1" d="M 337.949,108.751 346.903,111.437 z" id="boundary" inkscape:connector-curvature="0" />
	<path style="fill:none;stroke:red;stroke-width:1px;stroke-linecap:butt;stroke-linejoin:miter;stroke-opacity:1" d="M 346.903,111.437 354.065,116.809 z" id="boundary" inkscape:connector-curvature="0" />
	<path style="fill:none;stroke:red;stroke-width:1px;stroke-linecap:butt;stroke-linejoin:miter;stroke-opacity:1" d="M 354.065,116.809 362.123,121.285 z" id="boundary" inkscape:connector-curvature="0" />
	<path style="fill:none;stroke:red;stroke-width:1px;stroke-linecap:butt;stroke-linejoin:miter;stroke-opacity:1" d="M 362.123,121.285 371.076,123.971 z" id="boundary" inkscape:connector-curvature="0" />
	<path style="fill:none;stroke:red;stroke-width:1px;stroke-linecap:butt;stroke-linejoin:miter;stroke-opacity:1" d="M 371.076,123.971 378.238,129.343 z" id="boundary" inkscape:connector-curvature="0" />
	<path style="fill:none;stroke:red;stroke-width:1px;stroke-linecap:butt;stroke-linejoin:miter;stroke-opacity:1" d="M 378.238,129.343 386.296,133.819 z" id="boundary" inkscape:connector-curvature="0" />
	<path style="fill:none;stroke:red;stroke-width:1px;stroke-linecap:butt;stroke-linejoin:miter;stroke-opacity:1" d="M 386.296,133.819 395.249,136.505 z" id="boundary" inkscape:connector-curvature="0" />
	<path style="fill:none;stroke:red;stroke-width:1px;stroke-linecap:butt;stroke-linejoin:miter;stroke-opacity:1" d="M 395.249,136.505 403.307,140.982 z" id="boundary" inkscape:connector-curvature="0" />
	<path style="fill:none;stroke:red;stroke-width:1px;stroke-linecap:butt;stroke-linejoin:miter;stroke-opacity:1" d="M 403.307,140.982 412.26,144.563 z" id="boundary" inkscape:connector-curvature="0" />
	<path style="fill:none;stroke:red;stroke-width:1px;stroke-linecap:butt;stroke-linejoin:miter;stroke-opacity:1" d="M 412.26,144.563 421.213,148.144 z" id="boundary" inkscape:connector-curvature="0" />
	<path style="fill:none;stroke:red;stroke-width:1px;stroke-linecap:butt;stroke-linejoin:miter;stroke-opacity:1" d="M 421.213,148.144 429.271,152.621 z" id="boundary" inkscape:connector-curvature="0" />
	<path style="fill:none;stroke:red;stroke-width:1px;stroke-linecap:butt;stroke-linejoin:miter;stroke-opacity:1" d="M 429.271,152.621 438.224,155.307 z" id="boundary" inkscape:connector-curvature="0" />
	<path style="fill:none;stroke:red;stroke-width:1px;stroke-linecap:butt;stroke-linejoin:miter;stroke-opacity:1" d="M 438.224,155.307 447.177,157.993 z" id="boundary" inkscape:connector-curvature="0" />
	<path style="fill:none;stroke:red;stroke-width:1px;stroke-linecap:butt;stroke-linejoin:miter;stroke-opacity:1" d="M 447.177,157.993 454.339,163.365 z" id="boundary" inkscape:connector-curvature="0" />
	<path style="fill:none;stroke:red;stroke-width:1px;stroke-linecap:butt;stroke-linejoin:miter;stroke-opacity:1" d="M 454.339,163.365 462.397,167.841 z" id="boundary" inkscape:connector-curvature="0" />
	<path style="fill:none;stroke:red;stroke-width:1px;stroke-linecap:butt;stroke-linejoin:miter;stroke-opacity:1" d="M 462.397,167.841 471.35,167.841 z" id="boundary" inkscape:connector-curvature="0" />
	<path style="fill:none;stroke:red;stroke-width:1px;stroke-linecap:butt;stroke-linejoin:miter;stroke-opacity:1" d="M 471.35,167.841 480.303,170.527 z" id="boundary" inkscape:connector-curvature="0" />
	<path style="fill:none;stroke:red;stroke-width:1px;stroke-linecap:butt;stroke-linejoin:miter;stroke-opacity:1" d="M 480.303,170.527 488.361,175.004 z" id="boundary" inkscape:connector-curvature="0" />
	<path style="fill:none;stroke:red;stroke-width:1px;stroke-linecap:butt;stroke-linejoin:miter;stroke-opacity:1" d="M 488.361,175.004 496.419,179.48 z" id="boundary" inkscape:connector-curvature="0" />
	<path style="fill:none;stroke:red;stroke-width:1px;stroke-linecap:butt;stroke-linejoin:miter;stroke-opacity:1" d="M 496.419,179.48 503.581,185.747 z" id="boundary" inkscape:connector-curvature="0" />
	<path style="fill:none;stroke:red;stroke-width:1px;stroke-linecap:butt;stroke-linejoin:miter;stroke-opacity:1" d="M 503.581,185.747 506.267,194.7 z" id="boundary" inkscape:connector-curvature="0" />
	<path style="fill:none;stroke:red;stroke-width:1px;stroke-linecap:butt;stroke-linejoin:miter;stroke-opacity:1" d="M 506.267,194.7 506.267,203.653 z" id="boundary" inkscape:connector-curvature="0" />
	<path style="fill:none;stroke:red;stroke-width:1px;stroke-linecap:butt;stroke-linejoin:miter;stroke-opacity:1" d="M 506.267,203.653 506.267,212.606 z" id="boundary" inkscape:connector-curvature="0" />
	<path style="fill:none;stroke:red;stroke-width:1px;stroke-linecap:butt;stroke-linejoin:miter;stroke-opacity:1" d="M 506.267,212.606 508.058,221.56 z" id="boundary" inkscape:connector-curvature="0" />
	<path style="fill:none;stroke:red;stroke-width:1px;stroke-linecap:butt;stroke-linejoin:miter;stroke-opacity:1" d="M 508.058,221.56 508.058,230.513 z" id="boundary" inkscape:connector-curvature="0" />
	<path style="fill:none;stroke:red;stroke-width:1px;stroke-linecap:butt;stroke-linejoin:miter;stroke-opacity:1" d="M 508.058,230.513 511.639,239.466 z" id="boundary" inkscape:connector-curvature="0" />
	<path style="fill:none;stroke:red;stroke-width:1px;stroke-linecap:butt;stroke-linejoin:miter;stroke-opacity:1" d="M 511.639,239.466 515.22,248.419 z" id="boundary" inkscape:connector-curvature="0" />
	<path style="fill:none;stroke:red;stroke-width:1px;stroke-linecap:butt;stroke-linejoin:miter;stroke-opacity:1" d="M 515.22,248.419 519.697,256.477 z" id="boundary" inkscape:connector-curvature="0" />
	<path style="fill:none;stroke:red;stroke-width:1px;stroke-linecap:butt;stroke-linejoin:miter;stroke-opacity:1" d="M 519.697,256.477 525.964,263.639 z" id="boundary" inkscape:connector-curvature="0" />
	<path style="fill:none;stroke:red;stroke-width:1px;stroke-linecap:butt;stroke-linejoin:miter;stroke-opacity:1" d="M 525.964,263.639 533.126,269.906 z" id="boundary" inkscape:connector-curvature="0" />
	<path style="fill:none;stroke:red;stroke-width:1px;stroke-linecap:butt;stroke-linejoin:miter;stroke-opacity:1" d="M 533.126,269.906 540.289,276.173 z" id="boundary" inkscape:connector-curvature="0" />
	<path style="fill:none;stroke:red;stroke-width:1px;stroke-linecap:butt;stroke-linejoin:miter;stroke-opacity:1" d="M 540.289,276.173 547.451,281.545 z" id="boundary" inkscape:connector-curvature="0" />
	<path style="fill:none;stroke:red;stroke-width:1px;stroke-linecap:butt;stroke-linejoin:miter;stroke-opacity:1" d="M 547.451,281.545 555.509,286.022 z" id="boundary" inkscape:connector-curvature="0" />
	<path style="fill:none;stroke:red;stroke-width:1px;stroke-linecap:butt;stroke-linejoin:miter;stroke-opacity:1" d="M 555.509,286.022 562.671,291.394 z" id="boundary" inkscape:connector-curvature="0" />
	<path style="fill:none;stroke:red;stroke-width:1px;stroke-linecap:butt;stroke-linejoin:miter;stroke-opacity:1" d="M 562.671,291.394 570.729,295.87 z" id="boundary" inkscape:connector-curvature="0" />
	<path style="fill:none;stroke:red;stroke-width:1px;stroke-linecap:butt;stroke-linejoin:miter;stroke-opacity:1" d="M 570.729,295.87 578.787,300.347 z" id="boundary" inkscape:connector-curvature="0" />
	<path style="fill:none;stroke:red;stroke-width:1px;stroke-linecap:butt;stroke-linejoin:miter;stroke-opacity:1" d="M 578.787,300.347 586.845,304.823 z" id="boundary" inkscape:connector-curvature="0" />
	<path style="fill:none;stroke:red;stroke-width:1px;stroke-linecap:butt;stroke-linejoin:miter;stroke-opacity:1" d="M 586.845,304.823 595.798,307.509 z" id="boundary" inkscape:connector-curvature="0" />
	<path style="fill:none;stroke:red;stroke-width:1px;stroke-linecap:butt;stroke-linejoin:miter;stroke-opacity:1" d="M 595.798,307.509 602.96,312.881 z" id="boundary" inkscape:connector-curvature="0" />
	<path style="fill:none;stroke:red;stroke-width:1px;stroke-linecap:butt;stroke-linejoin:miter;stroke-opacity:1" d="M 602.96,312.881 611.913,316.462 z" id="boundary" inkscape:connector-curvature="0" />
	<path style="fill:none;stroke:red;stroke-width:1px;stroke-linecap:butt;stroke-linejoin:miter;stroke-opacity:1" d="M 611.913,316.462 619.971,320.939 z" id="boundary" inkscape:connector-curvature="0" />
	<path style="fill:none;stroke:red;stroke-width:1px;stroke-linecap:butt;stroke-linejoin:miter;stroke-opacity:1" d="M 619.971,320.939 628.924,324.52 z" id="boundary" inkscape:connector-curvature="0" />
	<path style="fill:none;stroke:red;stroke-width:1px;stroke-linecap:butt;stroke-linejoin:miter;stroke-opacity:1" d="M 628.924,324.52 636.982,328.996 z" id="boundary" inkscape:connector-curvature="0" />
	<path style="fill:none;stroke:red;stroke-width:1px;stroke-linecap:butt;stroke-linejoin:miter;stroke-opacity:1" d="M 636.982,328.996 644.144,334.368 z" id="boundary" inkscape:connector-curvature="0" />
	<path style="fill:none;stroke:red;stroke-width:1px;stroke-linecap:butt;stroke-linejoin:miter;stroke-opacity:1" d="M 644.144,334.368 653.097,337.949 z" id="boundary" inkscape:connector-curvature="0" />
	<path style="fill:none;stroke:red;stroke-width:1px;stroke-linecap:butt;stroke-linejoin:miter;stroke-opacity:1" d="M 653.097,337.949 661.155,342.426 z" id="boundary" inkscape:connector-curvature="0" />
	<path style="fill:none;stroke:red;stroke-width:1px;stroke-linecap:butt;stroke-linejoin:miter;stroke-opacity:1" d="M 661.155,342.426 669.213,346.903 z" id="boundary" inkscape:connector-curvature="0" />
	<path style="fill:none;stroke:red;stroke-width:1px;stroke-linecap:butt;stroke-linejoin:miter;stroke-opacity:1" d="M 669.213,346.903 677.271,351.379 z" id="boundary" inkscape:connector-curvature="0" />
	<path style="fill:none;stroke:red;stroke-width:1px;stroke-linecap:butt;stroke-linejoin:miter;stroke-opacity:1" d="M 677.271,351.379 685.329,355.856 z" id="boundary" inkscape:connector-curvature="0" />
	<path style="fill:none;stroke:red;stroke-width:1px;stroke-linecap:butt;stroke-linejoin:miter;stroke-opacity:1" d="M 685.329,355.856 693.386,360.332 z" id="boundary" inkscape:connector-curvature="0" />
	<path style="fill:none;stroke:red;stroke-width:1px;stroke-linecap:butt;stroke-linejoin:miter;stroke-opacity:1" d="M 693.386,360.332 701.444,364.809 z" id="boundary" inkscape:connector-curvature="0" />
	<path style="fill:none;stroke:red;stroke-width:1px;stroke-linecap:butt;stroke-linejoin:miter;stroke-opacity:1" d="M 701.444,364.809 709.502,369.285 z" id="boundary" inkscape:connector-curvature="0" />
	<path style="fill:none;stroke:red;stroke-width:1px;stroke-linecap:butt;stroke-linejoin:miter;stroke-opacity:1" d="M 709.502,369.285 717.56,373.762 z" id="boundary" inkscape:connector-curvature="0" />
	<path style="fill:none;stroke:red;stroke-width:1px;stroke-linecap:butt;stroke-linejoin:miter;stroke-opacity:1" d="M 717.56,373.762 725.617,378.238 z" id="boundary" inkscape:connector-curvature="0" />
	<path style="fill:none;stroke:red;stroke-width:1px;stroke-linecap:butt;stroke-linejoin:miter;stroke-opacity:1" d="M 725.617,378.238 733.675,382.715 z" id="boundary" inkscape:connector-curvature="0" />
	<path style="fill:none;stroke:red;stroke-width:1px;stroke-linecap:butt;stroke-linejoin:miter;stroke-opacity:1" d="M 733.675,382.715 740.838,388.087 z" id="boundary" inkscape:connector-curvature="0" />
	<path style="fill:none;stroke:red;stroke-width:1px;stroke-linecap:butt;stroke-linejoin:miter;stroke-opacity:1" d="M 740.838,388.087 748.895,392.563 z" id="boundary" inkscape:connector-curvature="0" />
	<path style="fill:none;stroke:red;stroke-width:1px;stroke-linecap:butt;stroke-linejoin:miter;stroke-opacity:1" d="M 748.895,392.563 756.058,397.935 z" id="boundary" inkscape:connector-curvature="0" />
	<path style="fill:none;stroke:red;stroke-width:1px;stroke-linecap:butt;stroke-linejoin:miter;stroke-opacity:1" d="M 756.058,397.935 764.116,402.412 z" id="boundary" inkscape:connector-curvature="0" />
	<path style="fill:none;stroke:red;stroke-width:1px;stroke-linecap:butt;stroke-linejoin:miter;stroke-opacity:1" d="M 764.116,402.412 772.173,406.888 z" id="boundary" inkscape:connector-curvature="0" />
	<path style="fill:none;stroke:red;stroke-width:1px;stroke-linecap:butt;stroke-linejoin:miter;stroke-opacity:1" d="M 772.173,406.888 779.336,412.26 z" id="boundary" inkscape:connector-curvature="0" />
	<path style="fill:none;stroke:red;stroke-width:1px;stroke-linecap:butt;stroke-linejoin:miter;stroke-opacity:1" d="M 779.336,412.26 787.394,416.736 z" id="boundary" inkscape:connector-curvature="0" />
	<path style="fill:none;stroke:red;stroke-width:1px;stroke-linecap:butt;stroke-linejoin:miter;stroke-opacity:1" d="M 787.394,416.736 794.556,422.108 z" id="boundary" inkscape:connector-curvature="0" />
	<path style="fill:none;stroke:red;stroke-width:1px;stroke-linecap:butt;stroke-linejoin:miter;stroke-opacity:1" d="M 794.556,422.108 802.614,426.585 z" id="boundary" inkscape:connector-curvature="0" />
	<path style="fill:none;stroke:red;stroke-width:1px;stroke-linecap:butt;stroke-linejoin:miter;stroke-opacity:1" d="M 802.614,426.585 811.567,430.166 z" id="boundary" inkscape:connector-curvature="0" />
	<path style="fill:none;stroke:red;stroke-width:1px;stroke-linecap:butt;stroke-linejoin:miter;stroke-opacity:1" d="M 811.567,430.166 818.729,435.538 z" id="boundary" inkscape:connector-curvature="0" />
	<path style="fill:none;stroke:red;stroke-width:1px;stroke-linecap:butt;stroke-linejoin:miter;stroke-opacity:1" d="M 818.729,435.538 826.787,440.014 z" id="boundary" inkscape:connector-curvature="0" />
	<path style="fill:none;stroke:red;stroke-width:1px;stroke-linecap:butt;stroke-linejoin:miter;stroke-opacity:1" d="M 826.787,440.014 835.74,442.7 z" id="boundary" inkscape:connector-curvature="0" />
	<path style="fill:none;stroke:red;stroke-width:1px;stroke-linecap:butt;stroke-linejoin:miter;stroke-opacity:1" d="M 835.74,442.7 844.693,446.282 z" id="boundary" inkscape:connector-curvature="0" />
	<path style="fill:none;stroke:red;stroke-width:1px;stroke-linecap:butt;stroke-linejoin:miter;stroke-opacity:1" d="M 844.693,446.282 853.646,449.863 z" id="boundary" inkscape:connector-curvature="0" />
	<path style="fill:none;stroke:red;stroke-width:1px;stroke-linecap:butt;stroke-linejoin:miter;stroke-opacity:1" d="M 853.646,449.863 862.599,453.444 z" id="boundary" inkscape:connector-curvature="0" />
	<path style="fill:none;stroke:red;stroke-width:1px;stroke-linecap:butt;stroke-linejoin:miter;stroke-opacity:1" d="M 862.599,453.444 871.552,455.235 z" id="boundary" inkscape:connector-curvature="0" />
	<path style="fill:none;stroke:red;stroke-width:1px;stroke-linecap:butt;stroke-linejoin:miter;stroke-opacity:1" d="M 871.552,455.235 880.505,457.921 z" id="boundary" inkscape:connector-curvature="0" />
	<path style="fill:none;stroke:red;stroke-width:1px;stroke-linecap:butt;stroke-linejoin:miter;stroke-opacity:1" d="M 880.505,457.921 889.458,460.606 z" id="boundary" inkscape:connector-curvature="0" />
	<path style="fill:none;stroke:red;stroke-width:1px;stroke-linecap:butt;stroke-linejoin:miter;stroke-opacity:1" d="M 889.458,460.606 898.412,463.292 z" id="boundary" inkscape:connector-curvature="0" />
	<path style="fill:none;stroke:red;stroke-width:1px;stroke-linecap:butt;stroke-linejoin:miter;stroke-opacity:1" d="M 898.412,463.292 907.365,464.188 z" id="boundary" inkscape:connector-curvature="0" />
	<path style="fill:none;stroke:red;stroke-width:1px;stroke-linecap:butt;stroke-linejoin:miter;stroke-opacity:1" d="M 907.365,464.188 916.318,466.874 z" id="boundary" inkscape:connector-curvature="0" />
	<path style="fill:none;stroke:red;stroke-width:1px;stroke-linecap:butt;stroke-linejoin:miter;stroke-opacity:1" d="M 916.318,466.874 925.271,468.664 z" id="boundary" inkscape:connector-curvature="0" />
	<path style="fill:none;stroke:red;stroke-width:1px;stroke-linecap:butt;stroke-linejoin:miter;stroke-opacity:1" d="M 925.271,468.664 934.224,469.56 z" id="boundary" inkscape:connector-curvature="0" />
	<path style="fill:none;stroke:red;stroke-width:1px;stroke-linecap:butt;stroke-linejoin:miter;stroke-opacity:1" d="M 934.224,469.56 943.177,470.455 z" id="boundary" inkscape:connector-curvature="0" />
	<path style="fill:none;stroke:red;stroke-width:1px;stroke-linecap:butt;stroke-linejoin:miter;stroke-opacity:1" d="M 943.177,470.455 952.13,470.455 z" id="boundary" inkscape:connector-curvature="0" />
	<path style="fill:none;stroke:red;stroke-width:1px;stroke-linecap:butt;stroke-linejoin:miter;stroke-opacity:1" d="M 952.13,470.455 961.083,471.35 z" id="boundary" inkscape:connector-curvature="0" />
	<path style="fill:none;stroke:red;stroke-width:1px;stroke-linecap:butt;stroke-linejoin:miter;stroke-opacity:1" d="M 961.083,471.35 970.036,472.245 z" id="boundary" inkscape:connector-curvature="0" />
	<path style="fill:none;stroke:red;stroke-width:1px;stroke-linecap:butt;stroke-linejoin:miter;stroke-opacity:1" d="M 970.036,472.245 978.989,475.827 z" id="boundary" inkscape:connector-curvature="0" />
	<path style="fill:none;stroke:red;stroke-width:1px;stroke-linecap:butt;stroke-linejoin:miter;stroke-opacity:1" d="M 978.989,475.827 983.466,483.884 z" id="boundary" inkscape:connector-curvature="0" />
	<path style="fill:none;stroke:red;stroke-width:1px;stroke-linecap:butt;stroke-linejoin:miter;stroke-opacity:1" d="M 983.466,483.884 987.942,491.942 z" id="boundary" inkscape:connector-curvature="0" />
	<path style="fill:none;stroke:red;stroke-width:1px;stroke-linecap:butt;stroke-linejoin:miter;stroke-opacity:1" d="M 987.942,491.942 987.942,500.895 z" id="boundary" inkscape:connector-curvature="0" />
	<path style="fill:none;stroke:red;stroke-width:1px;stroke-linecap:butt;stroke-linejoin:miter;stroke-opacity:1" d="M 987.942,500.895 990.628,509.848 z" id="boundary" inkscape:connector-curvature="0" />
	<path style="fill:none;stroke:red;stroke-width:1px;stroke-linecap:butt;stroke-linejoin:miter;stroke-opacity:1" d="M 990.628,509.848 991.523,518.801 z" id="boundary" inkscape:connector-curvature="0" />
	<path style="fill:none;stroke:red;stroke-width:1px;stroke-linecap:butt;stroke-linejoin:miter;stroke-opacity:1" d="M 991.523,518.801 993.314,527.755 z" id="boundary" inkscape:connector-curvature="0" />
	<path style="fill:none;stroke:red;stroke-width:1px;stroke-linecap:butt;stroke-linejoin:miter;stroke-opacity:1" d="M 993.314,527.755 994.209,536.708 z" id="boundary" inkscape:connector-curvature="0" />
	<path style="fill:none;stroke:red;stroke-width:1px;stroke-linecap:butt;stroke-linejoin:miter;stroke-opacity:1" d="M 994.209,536.708 995.105,545.661 z" id="boundary" inkscape:connector-curvature="0" />
	<path style="fill:none;stroke:red;stroke-width:1px;stroke-linecap:butt;stroke-linejoin:miter;stroke-opacity:1" d="M 995.105,545.661 995.105,554.614 z" id="boundary" inkscape:connector-curvature="0" />
	<path style="fill:none;stroke:red;stroke-width:1px;stroke-linecap:butt;stroke-linejoin:miter;stroke-opacity:1" d="M 995.105,554.614 996,563.567 z" id="boundary" inkscape:connector-curvature="0" />
	<path style="fill:none;stroke:red;stroke-width:1px;stroke-linecap:butt;stroke-linejoin:miter;stroke-opacity:1" d="M 996,563.567 996,572.52 z" id="boundary" inkscape:connector-curvature="0" />
	<path style="fill:none;stroke:red;stroke-width:1px;stroke-linecap:butt;stroke-linejoin:miter;stroke-opacity:1" d="M 996,572.52 996,581.473 z" id="boundary" inkscape:connector-curvature="0" />
	<circle cx="4" cy="5.79061" r="4" fill="#0" id="circle0"/>
	<circle cx="7.58123" cy="14.7437" r="4" fill="#0" id="circle1"/>
	<circle cx="12.9531" cy="4" r="4" fill="#0" id="circle2"/>
	<circle cx="12.9531" cy="21.9061" r="4" fill="#0" id="circle3"/>
	<circle cx="17.4296" cy="29.9639" r="4" fill="#0" id="circle4"/>
	<circle cx="21.9061" cy="4.89531" r="4" fill="#0" id="circle5"/>
	<circle cx="23.6968" cy="37.1264" r="4" fill="#0" id="circle6"/>
	<circle cx="29.9639" cy="44.2888" r="4" fill="#0" id="circle7"/>
	<circle cx="30.8592" cy="4.89531" r="4" fill="#0" id="circle8"/>
	<circle cx="35.3357" cy="51.4513" r="4" fill="#0" id="circle9"/>
	<circle cx="39.8123" cy="5.79061" r="4" fill="#0" id="circle10"/>
	<circle cx="41.6029" cy="58.6137" r="4" fill="#0" id="circle11"/>
	<circle cx="47.87" cy="65.7762" r="4" fill="#0" id="circle12"/>
	<circle cx="48.7653" cy="7.58123" r="4" fill="#0" id="circle13"/>
	<circle cx="53.2419" cy="72.9386" r="4" fill="#0" id="circle14"/>
	<circle cx="57.7184" cy="9.37184" r="4" fill="#0" id="circle15"/>
	<circle cx="61.2996" cy="77.4152" r="4" fill="#0" id="circle16"/>
	<circle cx="65.7762" cy="85.4729" r="4" fill="#0" id="circle17"/>
	<circle cx="66.6715" cy="10.2671" r="4" fill="#0" id="circle18"/>
	<circle cx="72.9386" cy="91.7401" r="4" fill="#0" id="circle19"/>
	<circle cx="75.6245" cy="12.0578" r="4" fill="#0" id="circle20"/>
	<circle cx="78.3105" cy="98.9025" r="4" fill="#0" id="circle21"/>
	<circle cx="84.5776" cy="13.8484" r="4" fill="#0" id="circle22"/>
	<circle cx="84.5776" cy="106.065" r="4" fill="#0" id="circle23"/>
	<circle cx="91.7401" cy="111.437" r="4" fill="#0" id="circle24"/>
	<circle cx="93.5307" cy="15.639" r="4" fill="#0" id="circle25"/>
	<circle cx="98.0072" cy="118.599" r="4" fill="#0" id="circle26"/>
	<circle cx="102.484" cy="17.4296" r="4" fill="#0" id="circle27"/>
	<circle cx="105.17" cy="124.866" r="4" fill="#0" id="circle28"/>
	<circle cx="111.437" cy="19.2202" r="4" fill="#0" id="circle29"/>
	<circle cx="113.227" cy="129.343" r="4" fill="#0" id="circle30"/>
	<circle cx="116.809" cy="138.296" r="4" fill="#0" id="circle31"/>
	<circle cx="120.39" cy="21.9061" r="4" fill="#0" id="circle32"/>
	<circle cx="123.971" cy="143.668" r="4" fill="#0" id="circle33"/>
	<circle cx="129.343" cy="24.5921" r="4" fill="#0" id="circle34"/>
	<circle cx="131.134" cy="149.04" r="4" fill="#0" id="circle35"/>
	<circle cx="137.401" cy="156.202" r="4" fill="#0" id="circle36"/>
	<circle cx="138.296" cy="27.278" r="4" fill="#0" id="circle37"/>
	<circle cx="142.773" cy="163.365" r="4" fill="#0" id="circle38"/>
	<circle cx="147.249" cy="29.0686" r="4" fill="#0" id="circle39"/>
	<circle cx="151.726" cy="165.155" r="4" fill="#0" id="circle40"/>
	<circle cx="156.202" cy="31.7545" r="4" fill="#0" id="circle41"/>
	<circle cx="157.097" cy="172.318" r="4" fill="#0" id="circle42"/>
	<circle cx="164.26" cy="178.585" r="4" fill="#0" id="circle43"/>
	<circle cx="165.155" cy="35.3357" r="4" fill="#0" id="circle44"/>
	<circle cx="171.422" cy="183.957" r="4" fill="#0" id="circle45"/>
	<circle cx="174.108" cy="38.0217" r="4" fill="#0" id="circle46"/>
	<circle cx="176.794" cy="191.119" r="4" fill="#0" id="circle47"/>
	<circle cx="183.061" cy="41.6029" r="4" fill="#0" id="circle48"/>
	<circle cx="183.957" cy="197.386" r="4" fill="#0" id="circle49"/>
	<circle cx="192.014" cy="45.1841" r="4" fill="#0" id="circle50"/>
	<circle cx="192.91" cy="200.072" r="4" fill="#0" id="circle51"/>
	<circle cx="200.072" cy="206.339" r="4" fill="#0" id="circle52"/>
	<circle cx="200.968" cy="47.87" r="4" fill="#0" id="circle53"/>
	<circle cx="206.339" cy="213.502" r="4" fill="#0" id="circle54"/>
	<circle cx="209.921" cy="51.4513" r="4" fill="#0" id="circle55"/>
	<circle cx="214.397" cy="217.978" r="4" fill="#0" id="circle56"/>
	<circle cx="217.978" cy="55.9278" r="4" fill="#0" id="circle57"/>
	<circle cx="219.769" cy="225.141" r="4" fill="#0" id="circle58"/>
	<circle cx="226.931" cy="59.509" r="4" fill="#0" id="circle59"/>
	<circle cx="227.827" cy="229.617" r="4" fill="#0" id="circle60"/>
	<circle cx="233.199" cy="236.78" r="4" fill="#0" id="circle61"/>
	<circle cx="235.884" cy="61.2996" r="4" fill="#0" id="circle62"/>
	<circle cx="240.361" cy="242.152" r="4" fill="#0" id="circle63"/>
	<circle cx="243.942" cy="65.7762" r="4" fill="#0" id="circle64"/>
	<circle cx="249.314" cy="245.733" r="4" fill="#0" id="circle65"/>
	<circle cx="252.895" cy="69.3574" r="4" fill="#0" id="circle66"/>
	<circle cx="253.791" cy="253.791" r="4" fill="#0" id="circle67"/>
	<circle cx="261.848" cy="72.9386" r="4" fill="#0" id="circle68"/>
	<circle cx="262.744" cy="255.581" r="4" fill="#0" id="circle69"/>
	<circle cx="268.116" cy="262.744" r="4" fill="#0" id="circle70"/>
	<circle cx="269.906" cy="77.4152" r="4" fill="#0" id="circle71"/>
	<circle cx="276.173" cy="267.22" r="4" fill="#0" id="circle72"/>
	<circle cx="278.859" cy="80.9964" r="4" fill="#0" id="circle73"/>
	<circle cx="282.44" cy="274.383" r="4" fill="#0" id="circle74"/>
	<circle cx="286.917" cy="85.4729" r="4" fill="#0" id="circle75"/>
	<circle cx="291.394" cy="276.173" r="4" fill="#0" id="circle76"/>
	<circle cx="295.87" cy="89.0542" r="4" fill="#0" id="circle77"/>
	<circle cx="298.556" cy="281.545" r="4" fill="#0" id="circle78"/>
	<circle cx="303.928" cy="93.5307" r="4" fill="#0" id="circle79"/>
	<circle cx="304.823" cy="288.708" r="4" fill="#0" id="circle80"/>
	<circle cx="312.881" cy="97.1119" r="4" fill="#0" id="circle81"/>
	<circle cx="312.881" cy="293.184" r="4" fill="#0" id="circle82"/>
	<circle cx="318.253" cy="300.347" r="4" fill="#0" id="circle83"/>
	<circle cx="320.939" cy="101.588" r="4" fill="#0" id="circle84"/>
	<circle cx="325.415" cy="305.718" r="4" fill="#0" id="circle85"/>
	<circle cx="329.892" cy="104.274" r="4" fill="#0" id="circle86"/>
	<circle cx="333.473" cy="310.195" r="4" fill="#0" id="circle87"/>
	<circle cx="337.949" cy="108.751" r="4" fill="#0" id="circle88"/>
	<circle cx="341.531" cy="314.671" r="4" fill="#0" id="circle89"/>
	<circle cx="346.903" cy="111.437" r="4" fill="#0" id="circle90"/>
	<circle cx="346.903" cy="321.834" r="4" fill="#0" id="circle91"/>
	<circle cx="352.274" cy="335.264" r="4" fill="#0" id="circle92"/>
	<circle cx="354.065" cy="116.809" r="4" fill="#0" id="circle93"/>
	<circle cx="356.751" cy="343.321" r="4" fill="#0" id="circle94"/>
	<circle cx="362.123" cy="121.285" r="4" fill="#0" id="circle95"/>
	<circle cx="363.913" cy="348.693" r="4" fill="#0" id="circle96"/>
	<circle cx="371.076" cy="123.971" r="4" fill="#0" id="circle97"/>
	<circle cx="371.971" cy="353.17" r="4" fill="#0" id="circle98"/>
	<circle cx="378.238" cy="129.343" r="4" fill="#0" id="circle99"/>
	<circle cx="379.134" cy="358.542" r="4" fill="#0" id="circle100"/>
	<circle cx="386.296" cy="133.819" r="4" fill="#0" id="circle101"/>
	<circle cx="387.191" cy="363.018" r="4" fill="#0" id="circle102"/>
	<circle cx="394.354" cy="368.39" r="4" fill="#0" id="circle103"/>
	<circle cx="395.249" cy="136.505" r="4" fill="#0" id="circle104"/>
	<circle cx="401.516" cy="373.762" r="4" fill="#0" id="circle105"/>
	<circle cx="403.307" cy="140.982" r="4" fill="#0" id="circle106"/>
	<circle cx="408.679" cy="380.029" r="4" fill="#0" id="circle107"/>
	<circle cx="412.26" cy="144.563" r="4" fill="#0" id="circle108"/>
	<circle cx="416.736" cy="384.505" r="4" fill="#0" id="circle109"/>
	<circle cx="421.213" cy="148.144" r="4" fill="#0" id="circle110"/>
	<circle cx="424.794" cy="388.982" r="4" fill="#0" id="circle111"/>
	<circle cx="429.271" cy="152.621" r="4" fill="#0" id="circle112"/>
	<circle cx="431.957" cy="394.354" r="4" fill="#0" id="circle113"/>
	<circle cx="438.224" cy="155.307" r="4" fill="#0" id="circle114"/>
	<circle cx="439.119" cy="400.621" r="4" fill="#0" id="circle115"/>
	<circle cx="446.282" cy="405.993" r="4" fill="#0" id="circle116"/>
	<circle cx="447.177" cy="157.993" r="4" fill="#0" id="circle117"/>
	<circle cx="453.444" cy="411.365" r="4" fill="#0" id="circle118"/>
	<circle cx="454.339" cy="163.365" r="4" fill="#0" id="circle119"/>
	<circle cx="460.606" cy="416.736" r="4" fill="#0" id="circle120"/>
	<circle cx="462.397" cy="167.841" r="4" fill="#0" id="circle121"/>
	<circle cx="467.769" cy="422.108" r="4" fill="#0" id="circle122"/>
	<circle cx="471.35" cy="167.841" r="4" fill="#0" id="circle123"/>
	<circle cx="474.931" cy="427.48" r="4" fill="#0" id="circle124"/>
	<circle cx="480.303" cy="170.527" r="4" fill="#0" id="circle125"/>
	<circle cx="482.094" cy="432.852" r="4" fill="#0" id="circle126"/>
	<circle cx="488.361" cy="175.004" r="4" fill="#0" id="circle127"/>
	<circle cx="490.152" cy="437.329" r="4" fill="#0" id="circle128"/>
	<circle cx="496.419" cy="179.48" r="4" fill="#0" id="circle129"/>
	<circle cx="497.314" cy="443.596" r="4" fill="#0" id="circle130"/>
	<circle cx="503.581" cy="185.747" r="4" fill="#0" id="circle131"/>
	<circle cx="504.477" cy="449.863" r="4" fill="#0" id="circle132"/>
	<circle cx="506.267" cy="194.7" r="4" fill="#0" id="circle133"/>
	<circle cx="506.267" cy="203.653" r="4" fill="#0" id="circle134"/>
	<circle cx="506.267" cy="212.606" r="4" fill="#0" id="circle135"/>
	<circle cx="508.058" cy="221.56" r="4" fill="#0" id="circle136"/>
	<circle cx="508.058" cy="230.513" r="4" fill="#0" id="circle137"/>
	<circle cx="511.639" cy="239.466" r="4" fill="#0" id="circle138"/>
	<circle cx="511.639" cy="456.13" r="4" fill="#0" id="circle139"/>
	<circle cx="515.22" cy="248.419" r="4" fill="#0" id="circle140"/>
	<circle cx="518.801" cy="461.502" r="4" fill="#0" id="circle141"/>
	<circle cx="519.697" cy="256.477" r="4" fill="#0" id="circle142"/>
	<circle cx="525.069" cy="468.664" r="4" fill="#0" id="circle143"/>
	<circle cx="525.964" cy="263.639" r="4" fill="#0" id="circle144"/>
	<circle cx="533.126" cy="269.906" r="4" fill="#0" id="circle145"/>
	<circle cx="534.022" cy="472.245" r="4" fill="#0" id="circle146"/>
	<circle cx="539.394" cy="479.408" r="4" fill="#0" id="circle147"/>
	<circle cx="540.289" cy="276.173" r="4" fill="#0" id="circle148"/>
	<circle cx="546.556" cy="484.78" r="4" fill="#0" id="circle149"/>
	<circle cx="547.451" cy="281.545" r="4" fill="#0" id="circle150"/>
	<circle cx="554.614" cy="489.256" r="4" fill="#0" id="circle151"/>
	<circle cx="555.509" cy="286.022" r="4" fill="#0" id="circle152"/>
	<circle cx="560.881" cy="496.419" r="4" fill="#0" id="circle153"/>
	<circle cx="562.671" cy="291.394" r="4" fill="#0" id="circle154"/>
	<circle cx="568.043" cy="502.686" r="4" fill="#0" id="circle155"/>
	<circle cx="570.729" cy="295.87" r="4" fill="#0" id="circle156"/>
	<circle cx="576.101" cy="507.162" r="4" fill="#0" id="circle157"/>
	<circle cx="578.787" cy="300.347" r="4" fill="#0" id="circle158"/>
	<circle cx="583.264" cy="512.534" r="4" fill="#0" id="circle159"/>
	<circle cx="586.845" cy="304.823" r="4" fill="#0" id="circle160"/>
	<circle cx="588.635" cy="519.697" r="4" fill="#0" id="circle161"/>
	<circle cx="595.798" cy="307.509" r="4" fill="#0" id="circle162"/>
	<circle cx="595.798" cy="525.069" r="4" fill="#0" id="circle163"/>
	<circle cx="602.96" cy="312.881" r="4" fill="#0" id="circle164"/>
	<circle cx="603.856" cy="529.545" r="4" fill="#0" id="circle165"/>
	<circle cx="611.913" cy="316.462" r="4" fill="#0" id="circle166"/>
	<circle cx="611.913" cy="534.022" r="4" fill="#0" id="circle167"/>
	<circle cx="619.076" cy="540.289" r="4" fill="#0" id="circle168"/>
	<circle cx="619.971" cy="320.939" r="4" fill="#0" id="circle169"/>
	<circle cx="626.238" cy="545.661" r="4" fill="#0" id="circle170"/>
	<circle cx="628.924" cy="324.52" r="4" fill="#0" id="circle171"/>
	<circle cx="634.296" cy="550.137" r="4" fill="#0" id="circle172"/>
	<circle cx="636.982" cy="328.996" r="4" fill="#0" id="circle173"/>
	<circle cx="638.773" cy="558.195" r="4" fill="#0" id="circle174"/>
	<circle cx="644.144" cy="334.368" r="4" fill="#0" id="circle175"/>
	<circle cx="646.83" cy="562.671" r="4" fill="#0" id="circle176"/>
	<circle cx="653.097" cy="337.949" r="4" fill="#0" id="circle177"/>
	<circle cx="653.993" cy="568.043" r="4" fill="#0" id="circle178"/>
	<circle cx="661.155" cy="342.426" r="4" fill="#0" id="circle179"/>
	<circle cx="662.051" cy="572.52" r="4" fill="#0" id="circle180"/>
	<circle cx="669.213" cy="346.903" r="4" fill="#0" id="circle181"/>
	<circle cx="669.213" cy="577.892" r="4" fill="#0" id="circle182"/>
	<circle cx="676.375" cy="583.264" r="4" fill="#0" id="circle183"/>
	<circle cx="677.271" cy="351.379" r="4" fill="#0" id="circle184"/>
	<circle cx="685.329" cy="355.856" r="4" fill="#0" id="circle185"/>
	<circle cx="685.329" cy="586.845" r="4" fill="#0" id="circle186"/>
	<circle cx="690.7" cy="594.007" r="4" fill="#0" id="circle187"/>
	<circle cx="693.386" cy="360.332" r="4" fill="#0" id="circle188"/>
	<circle cx="698.758" cy="598.484" r="4" fill="#0" id="circle189"/>
	<circle cx="701.444" cy="364.809" r="4" fill="#0" id="circle190"/>
	<circle cx="706.816" cy="602.96" r="4" fill="#0" id="circle191"/>
	<circle cx="709.502" cy="369.285" r="4" fill="#0" id="circle192"/>
	<circle cx="715.769" cy="604.751" r="4" fill="#0" id="circle193"/>
	<circle cx="717.56" cy="373.762" r="4" fill="#0" id="circle194"/>
	<circle cx="722.036" cy="611.913" r="4" fill="#0" id="circle195"/>
	<circle cx="725.617" cy="378.238" r="4" fill="#0" id="circle196"/>
	<circle cx="730.094" cy="616.39" r="4" fill="#0" id="circle197"/>
	<circle cx="733.675" cy="382.715" r="4" fill="#0" id="circle198"/>
	<circle cx="739.047" cy="619.076" r="4" fill="#0" id="circle199"/>
	<circle cx="740.838" cy="388.087" r="4" fill="#0" id="circle200"/>
	<circle cx="746.209" cy="624.448" r="4" fill="#0" id="circle201"/>
	<circle cx="748.895" cy="392.563" r="4" fill="#0" id="circle202"/>
	<circle cx="753.372" cy="629.819" r="4" fill="#0" id="circle203"/>
	<circle cx="756.058" cy="397.935" r="4" fill="#0" id="circle204"/>
	<circle cx="762.325" cy="630.715" r="4" fill="#0" id="circle205"/>
	<circle cx="764.116" cy="402.412" r="4" fill="#0" id="circle206"/>
	<circle cx="768.592" cy="637.877" r="4" fill="#0" id="circle207"/>
	<circle cx="772.173" cy="406.888" r="4" fill="#0" id="circle208"/>
	<circle cx="777.545" cy="641.458" r="4" fill="#0" id="circle209"/>
	<circle cx="779.336" cy="412.26" r="4" fill="#0" id="circle210"/>
	<circle cx="785.603" cy="645.935" r="4" fill="#0" id="circle211"/>
	<circle cx="787.394" cy="416.736" r="4" fill="#0" id="circle212"/>
	<circle cx="793.661" cy="650.412" r="4" fill="#0" id="circle213"/>
	<circle cx="794.556" cy="422.108" r="4" fill="#0" id="circle214"/>
	<circle cx="801.718" cy="654.888" r="4" fill="#0" id="circle215"/>
	<circle cx="802.614" cy="426.585" r="4" fill="#0" id="circle216"/>
	<circle cx="809.776" cy="659.365" r="4" fill="#0" id="circle217"/>
	<circle cx="811.567" cy="430.166" r="4" fill="#0" id="circle218"/>
	<circle cx="818.729" cy="435.538" r="4" fill="#0" id="circle219"/>
	<circle cx="818.729" cy="660.26" r="4" fill="#0" id="circle220"/>
	<circle cx="825.892" cy="665.632" r="4" fill="#0" id="circle221"/>
	<circle cx="826.787" cy="440.014" r="4" fill="#0" id="circle222"/>
	<circle cx="833.949" cy="670.108" r="4" fill="#0" id="circle223"/>
	<circle cx="835.74" cy="442.7" r="4" fill="#0" id="circle224"/>
	<circle cx="842.903" cy="669.213" r="4" fill="#0" id="circle225"/>
	<circle cx="844.693" cy="446.282" r="4" fill="#0" id="circle226"/>
	<circle cx="851.856" cy="671.899" r="4" fill="#0" id="circle227"/>
	<circle cx="853.646" cy="449.863" r="4" fill="#0" id="circle228"/>
	<circle cx="857.227" cy="679.061" r="4" fill="#0" id="circle229"/>
	<circle cx="861.704" cy="671.004" r="4" fill="#0" id="circle230"/>
	<circle cx="862.599" cy="453.444" r="4" fill="#0" id="circle231"/>
	<circle cx="866.181" cy="680.852" r="4" fill="#0" id="circle232"/>
	<circle cx="871.552" cy="455.235" r="4" fill="#0" id="circle233"/>
	<circle cx="873.343" cy="686.224" r="4" fill="#0" id="circle234"/>
	<circle cx="880.505" cy="457.921" r="4" fill="#0" id="circle235"/>
	<circle cx="882.296" cy="689.805" r="4" fill="#0" id="circle236"/>
	<circle cx="889.458" cy="460.606" r="4" fill="#0" id="circle237"/>
	<circle cx="891.249" cy="693.386" r="4" fill="#0" id="circle238"/>
	<circle cx="898.412" cy="463.292" r="4" fill="#0" id="circle239"/>
	<circle cx="900.202" cy="695.177" r="4" fill="#0" id="circle240"/>
	<circle cx="907.365" cy="464.188" r="4" fill="#0" id="circle241"/>
	<circle cx="909.155" cy="698.758" r="4" fill="#0" id="circle242"/>
	<circle cx="916.318" cy="466.874" r="4" fill="#0" id="circle243"/>
	<circle cx="918.108" cy="698.758" r="4" fill="#0" id="circle244"/>
	<circle cx="925.271" cy="468.664" r="4" fill="#0" id="circle245"/>
	<circle cx="926.166" cy="703.235" r="4" fill="#0" id="circle246"/>
	<circle cx="934.224" cy="469.56" r="4" fill="#0" id="circle247"/>
	<circle cx="935.119" cy="698.758" r="4" fill="#0" id="circle248"/>
	<circle cx="937.805" cy="689.805" r="4" fill="#0" id="circle249"/>
	<circle cx="943.177" cy="470.455" r="4" fill="#0" id="circle250"/>
	<circle cx="945.863" cy="685.329" r="4" fill="#0" id="circle251"/>
	<circle cx="952.13" cy="470.455" r="4" fill="#0" id="circle252"/>
	<circle cx="953.025" cy="690.7" r="4" fill="#0" id="circle253"/>
	<circle cx="956.606" cy="677.271" r="4" fill="#0" id="circle254"/>
	<circle cx="961.083" cy="471.35" r="4" fill="#0" id="circle255"/>
	<circle cx="965.56" cy="675.48" r="4" fill="#0" id="circle256"/>
	<circle cx="970.036" cy="472.245" r="4" fill="#0" id="circle257"/>
	<circle cx="974.513" cy="677.271" r="4" fill="#0" id="circle258"/>
	<circle cx="978.989" cy="475.827" r="4" fill="#0" id="circle259"/>
	<circle cx="979.884" cy="670.108" r="4" fill="#0" id="circle260"/>
	<circle cx="983.466" cy="483.884" r="4" fill="#0" id="circle261"/>
	<circle cx="983.466" cy="661.155" r="4" fill="#0" id="circle262"/>
	<circle cx="987.047" cy="652.202" r="4" fill="#0" id="circle263"/>
	<circle cx="987.942" cy="491.942" r="4" fill="#0" id="circle264"/>
	<circle cx="987.942" cy="500.895" r="4" fill="#0" id="circle265"/>
	<circle cx="989.733" cy="639.668" r="4" fill="#0" id="circle266"/>
	<circle cx="990.628" cy="509.848" r="4" fill="#0" id="circle267"/>
	<circle cx="991.523" cy="518.801" r="4" fill="#0" id="circle268"/>
	<circle cx="992.419" cy="626.238" r="4" fill="#0" id="circle269"/>
	<circle cx="993.314" cy="527.755" r="4" fill="#0" id="circle270"/>
	<circle cx="993.314" cy="613.704" r="4" fill="#0" id="circle271"/>
	<circle cx="994.209" cy="536.708" r="4" fill="#0" id="circle272"/>
	<circle cx="994.209" cy="601.17" r="4" fill="#0" id="circle273"/>
	<circle cx="995.105" cy="545.661" r="4" fill="#0" id="circle274"/>
	<circle cx="995.105" cy="554.614" r="4" fill="#0" id="circle275"/>
	<circle cx="996" cy="563.567" r="4" fill="#0" id="circle276"/>
	<circle cx="996" cy="572.52" r="4" fill="#0" id="circle277"/>
	<circle cx="996" cy="581.473" r="4" fill="#0" id="circle278"/>
	<circle cx="996" cy="590.426" r="4" fill="#0" id="circle279"/>
	</g>
</svg>