<?xml version="1.0" encoding="UTF-8" standalone="no"?>
<!-- Created with CurveBenchmark -->
<svg
	xmlns:dc="http://purl.org/dc/elements/1.1/"
	xmlns:cc="http://creativecommons.org/ns#"
	xmlns:rdf="http://www.w3.org/1999/02/22-rdf-syntax-ns#"
	xmlns:svg="http://www.w3.org/2000/svg"
	xmlns="http://www.w3.org/2000/svg"
	xmlns:sodipodi="http://sodipodi.sourceforge.net/DTD/sodipodi-0.dtd"
	xmlns:inkscape="http://www.inkscape.org/namespaces/inkscape"
	width="1000"
	height="1000"
	id="svg2"
	version="1.1"
	sodipodi:docname="manifold/connect2d-television285.png.txt">
<defs
	id="defs4" />
<metadata
	id="metadata7">
	<rdf:RDF>
		<cc:Work
			rdf:about="">
			<dc:format>image/svg+xml</dc:format>
			<dc:type
				rdf:resource="http://purl.org/dc/dcmitype/StillImage" />
			<dc:title></dc:title>
		</cc:Work>
	</rdf:RDF>
</metadata>
<g
	inkscape:label="Layer 1"
	inkscape:groupmode="layer"
	id="layer1">
	<path style="fill:none;stroke:red;stroke-width:1px;stroke-linecap:butt;stroke-linejoin:miter;stroke-opacity:1" d="M 666.64,929.344 654.877,980.316 z" id="boundary" inkscape:connector-curvature="0" />
	<path style="fill:none;stroke:red;stroke-width:1px;stroke-linecap:butt;stroke-linejoin:miter;stroke-opacity:1" d="M 654.877,980.316 615.668,996 z" id="boundary" inkscape:connector-curvature="0" />
	<path style="fill:none;stroke:red;stroke-width:1px;stroke-linecap:butt;stroke-linejoin:miter;stroke-opacity:1" d="M 615.668,996 576.458,980.316 z" id="boundary" inkscape:connector-curvature="0" />
	<path style="fill:none;stroke:red;stroke-width:1px;stroke-linecap:butt;stroke-linejoin:miter;stroke-opacity:1" d="M 576.458,980.316 537.249,980.316 z" id="boundary" inkscape:connector-curvature="0" />
	<path style="fill:none;stroke:red;stroke-width:1px;stroke-linecap:butt;stroke-linejoin:miter;stroke-opacity:1" d="M 537.249,980.316 498.04,980.316 z" id="boundary" inkscape:connector-curvature="0" />
	<path style="fill:none;stroke:red;stroke-width:1px;stroke-linecap:butt;stroke-linejoin:miter;stroke-opacity:1" d="M 498.04,980.316 458.83,980.316 z" id="boundary" inkscape:connector-curvature="0" />
	<path style="fill:none;stroke:red;stroke-width:1px;stroke-linecap:butt;stroke-linejoin:miter;stroke-opacity:1" d="M 458.83,980.316 419.621,980.316 z" id="boundary" inkscape:connector-curvature="0" />
	<path style="fill:none;stroke:red;stroke-width:1px;stroke-linecap:butt;stroke-linejoin:miter;stroke-opacity:1" d="M 419.621,980.316 380.411,980.316 z" id="boundary" inkscape:connector-curvature="0" />
	<path style="fill:none;stroke:red;stroke-width:1px;stroke-linecap:butt;stroke-linejoin:miter;stroke-opacity:1" d="M 380.411,980.316 341.202,996 z" id="boundary" inkscape:connector-curvature="0" />
	<path style="fill:none;stroke:red;stroke-width:1px;stroke-linecap:butt;stroke-linejoin:miter;stroke-opacity:1" d="M 341.202,996 301.992,980.316 z" id="boundary" inkscape:connector-curvature="0" />
	<path style="fill:none;stroke:red;stroke-width:1px;stroke-linecap:butt;stroke-linejoin:miter;stroke-opacity:1" d="M 301.992,980.316 262.783,980.316 z" id="boundary" inkscape:connector-curvature="0" />
	<path style="fill:none;stroke:red;stroke-width:1px;stroke-linecap:butt;stroke-linejoin:miter;stroke-opacity:1" d="M 262.783,980.316 223.573,980.316 z" id="boundary" inkscape:connector-curvature="0" />
	<path style="fill:none;stroke:red;stroke-width:1px;stroke-linecap:butt;stroke-linejoin:miter;stroke-opacity:1" d="M 223.573,980.316 184.364,980.316 z" id="boundary" inkscape:connector-curvature="0" />
	<path style="fill:none;stroke:red;stroke-width:1px;stroke-linecap:butt;stroke-linejoin:miter;stroke-opacity:1" d="M 184.364,980.316 145.154,980.316 z" id="boundary" inkscape:connector-curvature="0" />
	<path style="fill:none;stroke:red;stroke-width:1px;stroke-linecap:butt;stroke-linejoin:miter;stroke-opacity:1" d="M 145.154,980.316 105.945,980.316 z" id="boundary" inkscape:connector-curvature="0" />
	<path style="fill:none;stroke:red;stroke-width:1px;stroke-linecap:butt;stroke-linejoin:miter;stroke-opacity:1" d="M 105.945,980.316 66.7352,988.158 z" id="boundary" inkscape:connector-curvature="0" />
	<path style="fill:none;stroke:red;stroke-width:1px;stroke-linecap:butt;stroke-linejoin:miter;stroke-opacity:1" d="M 66.7352,988.158 27.5257,984.237 z" id="boundary" inkscape:connector-curvature="0" />
	<path style="fill:none;stroke:red;stroke-width:1px;stroke-linecap:butt;stroke-linejoin:miter;stroke-opacity:1" d="M 27.5257,984.237 4,952.87 z" id="boundary" inkscape:connector-curvature="0" />
	<path style="fill:none;stroke:red;stroke-width:1px;stroke-linecap:butt;stroke-linejoin:miter;stroke-opacity:1" d="M 4,952.87 4,913.66 z" id="boundary" inkscape:connector-curvature="0" />
	<path style="fill:none;stroke:red;stroke-width:1px;stroke-linecap:butt;stroke-linejoin:miter;stroke-opacity:1" d="M 4,913.66 43.2095,897.976 z" id="boundary" inkscape:connector-curvature="0" />
	<path style="fill:none;stroke:red;stroke-width:1px;stroke-linecap:butt;stroke-linejoin:miter;stroke-opacity:1" d="M 43.2095,897.976 82.419,897.976 z" id="boundary" inkscape:connector-curvature="0" />
	<path style="fill:none;stroke:red;stroke-width:1px;stroke-linecap:butt;stroke-linejoin:miter;stroke-opacity:1" d="M 82.419,897.976 121.628,897.976 z" id="boundary" inkscape:connector-curvature="0" />
	<path style="fill:none;stroke:red;stroke-width:1px;stroke-linecap:butt;stroke-linejoin:miter;stroke-opacity:1" d="M 121.628,897.976 160.838,897.976 z" id="boundary" inkscape:connector-curvature="0" />
	<path style="fill:none;stroke:red;stroke-width:1px;stroke-linecap:butt;stroke-linejoin:miter;stroke-opacity:1" d="M 160.838,897.976 184.364,847.004 z" id="boundary" inkscape:connector-curvature="0" />
	<path style="fill:none;stroke:red;stroke-width:1px;stroke-linecap:butt;stroke-linejoin:miter;stroke-opacity:1" d="M 184.364,847.004 156.917,815.636 z" id="boundary" inkscape:connector-curvature="0" />
	<path style="fill:none;stroke:red;stroke-width:1px;stroke-linecap:butt;stroke-linejoin:miter;stroke-opacity:1" d="M 156.917,815.636 137.312,780.348 z" id="boundary" inkscape:connector-curvature="0" />
	<path style="fill:none;stroke:red;stroke-width:1px;stroke-linecap:butt;stroke-linejoin:miter;stroke-opacity:1" d="M 137.312,780.348 176.522,780.348 z" id="boundary" inkscape:connector-curvature="0" />
	<path style="fill:none;stroke:red;stroke-width:1px;stroke-linecap:butt;stroke-linejoin:miter;stroke-opacity:1" d="M 176.522,780.348 184.364,729.375 z" id="boundary" inkscape:connector-curvature="0" />
	<path style="fill:none;stroke:red;stroke-width:1px;stroke-linecap:butt;stroke-linejoin:miter;stroke-opacity:1" d="M 184.364,729.375 168.68,690.166 z" id="boundary" inkscape:connector-curvature="0" />
	<path style="fill:none;stroke:red;stroke-width:1px;stroke-linecap:butt;stroke-linejoin:miter;stroke-opacity:1" d="M 168.68,690.166 137.312,662.719 z" id="boundary" inkscape:connector-curvature="0" />
	<path style="fill:none;stroke:red;stroke-width:1px;stroke-linecap:butt;stroke-linejoin:miter;stroke-opacity:1" d="M 137.312,662.719 180.443,650.957 z" id="boundary" inkscape:connector-curvature="0" />
	<path style="fill:none;stroke:red;stroke-width:1px;stroke-linecap:butt;stroke-linejoin:miter;stroke-opacity:1" d="M 180.443,650.957 184.364,592.142 z" id="boundary" inkscape:connector-curvature="0" />
	<path style="fill:none;stroke:red;stroke-width:1px;stroke-linecap:butt;stroke-linejoin:miter;stroke-opacity:1" d="M 184.364,592.142 184.364,552.933 z" id="boundary" inkscape:connector-curvature="0" />
	<path style="fill:none;stroke:red;stroke-width:1px;stroke-linecap:butt;stroke-linejoin:miter;stroke-opacity:1" d="M 184.364,552.933 184.364,513.723 z" id="boundary" inkscape:connector-curvature="0" />
	<path style="fill:none;stroke:red;stroke-width:1px;stroke-linecap:butt;stroke-linejoin:miter;stroke-opacity:1" d="M 184.364,513.723 184.364,474.514 z" id="boundary" inkscape:connector-curvature="0" />
	<path style="fill:none;stroke:red;stroke-width:1px;stroke-linecap:butt;stroke-linejoin:miter;stroke-opacity:1" d="M 184.364,474.514 184.364,435.304 z" id="boundary" inkscape:connector-curvature="0" />
	<path style="fill:none;stroke:red;stroke-width:1px;stroke-linecap:butt;stroke-linejoin:miter;stroke-opacity:1" d="M 184.364,435.304 184.364,396.095 z" id="boundary" inkscape:connector-curvature="0" />
	<path style="fill:none;stroke:red;stroke-width:1px;stroke-linecap:butt;stroke-linejoin:miter;stroke-opacity:1" d="M 184.364,396.095 184.364,356.885 z" id="boundary" inkscape:connector-curvature="0" />
	<path style="fill:none;stroke:red;stroke-width:1px;stroke-linecap:butt;stroke-linejoin:miter;stroke-opacity:1" d="M 184.364,356.885 184.364,317.676 z" id="boundary" inkscape:connector-curvature="0" />
	<path style="fill:none;stroke:red;stroke-width:1px;stroke-linecap:butt;stroke-linejoin:miter;stroke-opacity:1" d="M 184.364,317.676 184.364,278.466 z" id="boundary" inkscape:connector-curvature="0" />
	<path style="fill:none;stroke:red;stroke-width:1px;stroke-linecap:butt;stroke-linejoin:miter;stroke-opacity:1" d="M 184.364,278.466 184.364,239.257 z" id="boundary" inkscape:connector-curvature="0" />
	<path style="fill:none;stroke:red;stroke-width:1px;stroke-linecap:butt;stroke-linejoin:miter;stroke-opacity:1" d="M 184.364,239.257 160.838,207.889 z" id="boundary" inkscape:connector-curvature="0" />
	<path style="fill:none;stroke:red;stroke-width:1px;stroke-linecap:butt;stroke-linejoin:miter;stroke-opacity:1" d="M 160.838,207.889 160.838,168.68 z" id="boundary" inkscape:connector-curvature="0" />
	<path style="fill:none;stroke:red;stroke-width:1px;stroke-linecap:butt;stroke-linejoin:miter;stroke-opacity:1" d="M 160.838,168.68 160.838,129.47 z" id="boundary" inkscape:connector-curvature="0" />
	<path style="fill:none;stroke:red;stroke-width:1px;stroke-linecap:butt;stroke-linejoin:miter;stroke-opacity:1" d="M 160.838,129.47 160.838,90.2609 z" id="boundary" inkscape:connector-curvature="0" />
	<path style="fill:none;stroke:red;stroke-width:1px;stroke-linecap:butt;stroke-linejoin:miter;stroke-opacity:1" d="M 160.838,90.2609 184.364,51.0514 z" id="boundary" inkscape:connector-curvature="0" />
	<path style="fill:none;stroke:red;stroke-width:1px;stroke-linecap:butt;stroke-linejoin:miter;stroke-opacity:1" d="M 184.364,51.0514 184.364,11.8419 z" id="boundary" inkscape:connector-curvature="0" />
	<path style="fill:none;stroke:red;stroke-width:1px;stroke-linecap:butt;stroke-linejoin:miter;stroke-opacity:1" d="M 184.364,11.8419 223.573,4 z" id="boundary" inkscape:connector-curvature="0" />
	<path style="fill:none;stroke:red;stroke-width:1px;stroke-linecap:butt;stroke-linejoin:miter;stroke-opacity:1" d="M 223.573,4 262.783,4 z" id="boundary" inkscape:connector-curvature="0" />
	<path style="fill:none;stroke:red;stroke-width:1px;stroke-linecap:butt;stroke-linejoin:miter;stroke-opacity:1" d="M 262.783,4 301.992,4 z" id="boundary" inkscape:connector-curvature="0" />
	<path style="fill:none;stroke:red;stroke-width:1px;stroke-linecap:butt;stroke-linejoin:miter;stroke-opacity:1" d="M 301.992,4 341.202,4 z" id="boundary" inkscape:connector-curvature="0" />
	<path style="fill:none;stroke:red;stroke-width:1px;stroke-linecap:butt;stroke-linejoin:miter;stroke-opacity:1" d="M 341.202,4 380.411,4 z" id="boundary" inkscape:connector-curvature="0" />
	<path style="fill:none;stroke:red;stroke-width:1px;stroke-linecap:butt;stroke-linejoin:miter;stroke-opacity:1" d="M 380.411,4 419.621,4 z" id="boundary" inkscape:connector-curvature="0" />
	<path style="fill:none;stroke:red;stroke-width:1px;stroke-linecap:butt;stroke-linejoin:miter;stroke-opacity:1" d="M 419.621,4 458.83,15.7628 z" id="boundary" inkscape:connector-curvature="0" />
	<path style="fill:none;stroke:red;stroke-width:1px;stroke-linecap:butt;stroke-linejoin:miter;stroke-opacity:1" d="M 458.83,15.7628 462.751,54.9723 z" id="boundary" inkscape:connector-curvature="0" />
	<path style="fill:none;stroke:red;stroke-width:1px;stroke-linecap:butt;stroke-linejoin:miter;stroke-opacity:1" d="M 462.751,54.9723 462.751,94.1818 z" id="boundary" inkscape:connector-curvature="0" />
	<path style="fill:none;stroke:red;stroke-width:1px;stroke-linecap:butt;stroke-linejoin:miter;stroke-opacity:1" d="M 462.751,94.1818 462.751,133.391 z" id="boundary" inkscape:connector-curvature="0" />
	<path style="fill:none;stroke:red;stroke-width:1px;stroke-linecap:butt;stroke-linejoin:miter;stroke-opacity:1" d="M 462.751,133.391 462.751,172.601 z" id="boundary" inkscape:connector-curvature="0" />
	<path style="fill:none;stroke:red;stroke-width:1px;stroke-linecap:butt;stroke-linejoin:miter;stroke-opacity:1" d="M 462.751,172.601 462.751,211.81 z" id="boundary" inkscape:connector-curvature="0" />
	<path style="fill:none;stroke:red;stroke-width:1px;stroke-linecap:butt;stroke-linejoin:miter;stroke-opacity:1" d="M 462.751,211.81 462.751,251.02 z" id="boundary" inkscape:connector-curvature="0" />
	<path style="fill:none;stroke:red;stroke-width:1px;stroke-linecap:butt;stroke-linejoin:miter;stroke-opacity:1" d="M 462.751,251.02 462.751,290.229 z" id="boundary" inkscape:connector-curvature="0" />
	<path style="fill:none;stroke:red;stroke-width:1px;stroke-linecap:butt;stroke-linejoin:miter;stroke-opacity:1" d="M 462.751,290.229 462.751,329.439 z" id="boundary" inkscape:connector-curvature="0" />
	<path style="fill:none;stroke:red;stroke-width:1px;stroke-linecap:butt;stroke-linejoin:miter;stroke-opacity:1" d="M 462.751,329.439 462.751,368.648 z" id="boundary" inkscape:connector-curvature="0" />
	<path style="fill:none;stroke:red;stroke-width:1px;stroke-linecap:butt;stroke-linejoin:miter;stroke-opacity:1" d="M 462.751,368.648 462.751,407.858 z" id="boundary" inkscape:connector-curvature="0" />
	<path style="fill:none;stroke:red;stroke-width:1px;stroke-linecap:butt;stroke-linejoin:miter;stroke-opacity:1" d="M 462.751,407.858 462.751,447.067 z" id="boundary" inkscape:connector-curvature="0" />
	<path style="fill:none;stroke:red;stroke-width:1px;stroke-linecap:butt;stroke-linejoin:miter;stroke-opacity:1" d="M 462.751,447.067 462.751,486.277 z" id="boundary" inkscape:connector-curvature="0" />
	<path style="fill:none;stroke:red;stroke-width:1px;stroke-linecap:butt;stroke-linejoin:miter;stroke-opacity:1" d="M 462.751,486.277 439.225,525.486 z" id="boundary" inkscape:connector-curvature="0" />
	<path style="fill:none;stroke:red;stroke-width:1px;stroke-linecap:butt;stroke-linejoin:miter;stroke-opacity:1" d="M 439.225,525.486 400.016,525.486 z" id="boundary" inkscape:connector-curvature="0" />
	<path style="fill:none;stroke:red;stroke-width:1px;stroke-linecap:butt;stroke-linejoin:miter;stroke-opacity:1" d="M 400.016,525.486 360.806,525.486 z" id="boundary" inkscape:connector-curvature="0" />
	<path style="fill:none;stroke:red;stroke-width:1px;stroke-linecap:butt;stroke-linejoin:miter;stroke-opacity:1" d="M 360.806,525.486 321.597,529.407 z" id="boundary" inkscape:connector-curvature="0" />
	<path style="fill:none;stroke:red;stroke-width:1px;stroke-linecap:butt;stroke-linejoin:miter;stroke-opacity:1" d="M 321.597,529.407 321.597,568.617 z" id="boundary" inkscape:connector-curvature="0" />
	<path style="fill:none;stroke:red;stroke-width:1px;stroke-linecap:butt;stroke-linejoin:miter;stroke-opacity:1" d="M 321.597,568.617 321.597,607.826 z" id="boundary" inkscape:connector-curvature="0" />
	<path style="fill:none;stroke:red;stroke-width:1px;stroke-linecap:butt;stroke-linejoin:miter;stroke-opacity:1" d="M 321.597,607.826 321.597,647.036 z" id="boundary" inkscape:connector-curvature="0" />
	<path style="fill:none;stroke:red;stroke-width:1px;stroke-linecap:butt;stroke-linejoin:miter;stroke-opacity:1" d="M 321.597,647.036 360.806,654.877 z" id="boundary" inkscape:connector-curvature="0" />
	<path style="fill:none;stroke:red;stroke-width:1px;stroke-linecap:butt;stroke-linejoin:miter;stroke-opacity:1" d="M 360.806,654.877 400.016,654.877 z" id="boundary" inkscape:connector-curvature="0" />
	<path style="fill:none;stroke:red;stroke-width:1px;stroke-linecap:butt;stroke-linejoin:miter;stroke-opacity:1" d="M 400.016,654.877 439.225,654.877 z" id="boundary" inkscape:connector-curvature="0" />
	<path style="fill:none;stroke:red;stroke-width:1px;stroke-linecap:butt;stroke-linejoin:miter;stroke-opacity:1" d="M 439.225,654.877 478.435,654.877 z" id="boundary" inkscape:connector-curvature="0" />
	<path style="fill:none;stroke:red;stroke-width:1px;stroke-linecap:butt;stroke-linejoin:miter;stroke-opacity:1" d="M 478.435,654.877 517.644,654.877 z" id="boundary" inkscape:connector-curvature="0" />
	<path style="fill:none;stroke:red;stroke-width:1px;stroke-linecap:butt;stroke-linejoin:miter;stroke-opacity:1" d="M 517.644,654.877 556.854,654.877 z" id="boundary" inkscape:connector-curvature="0" />
	<path style="fill:none;stroke:red;stroke-width:1px;stroke-linecap:butt;stroke-linejoin:miter;stroke-opacity:1" d="M 556.854,654.877 596.063,654.877 z" id="boundary" inkscape:connector-curvature="0" />
	<path style="fill:none;stroke:red;stroke-width:1px;stroke-linecap:butt;stroke-linejoin:miter;stroke-opacity:1" d="M 596.063,654.877 635.273,654.877 z" id="boundary" inkscape:connector-curvature="0" />
	<path style="fill:none;stroke:red;stroke-width:1px;stroke-linecap:butt;stroke-linejoin:miter;stroke-opacity:1" d="M 635.273,654.877 615.668,690.166 z" id="boundary" inkscape:connector-curvature="0" />
	<path style="fill:none;stroke:red;stroke-width:1px;stroke-linecap:butt;stroke-linejoin:miter;stroke-opacity:1" d="M 615.668,690.166 576.458,690.166 z" id="boundary" inkscape:connector-curvature="0" />
	<path style="fill:none;stroke:red;stroke-width:1px;stroke-linecap:butt;stroke-linejoin:miter;stroke-opacity:1" d="M 576.458,690.166 537.249,690.166 z" id="boundary" inkscape:connector-curvature="0" />
	<path style="fill:none;stroke:red;stroke-width:1px;stroke-linecap:butt;stroke-linejoin:miter;stroke-opacity:1" d="M 537.249,690.166 498.04,690.166 z" id="boundary" inkscape:connector-curvature="0" />
	<path style="fill:none;stroke:red;stroke-width:1px;stroke-linecap:butt;stroke-linejoin:miter;stroke-opacity:1" d="M 498.04,690.166 458.83,690.166 z" id="boundary" inkscape:connector-curvature="0" />
	<path style="fill:none;stroke:red;stroke-width:1px;stroke-linecap:butt;stroke-linejoin:miter;stroke-opacity:1" d="M 458.83,690.166 419.621,690.166 z" id="boundary" inkscape:connector-curvature="0" />
	<path style="fill:none;stroke:red;stroke-width:1px;stroke-linecap:butt;stroke-linejoin:miter;stroke-opacity:1" d="M 419.621,690.166 380.411,690.166 z" id="boundary" inkscape:connector-curvature="0" />
	<path style="fill:none;stroke:red;stroke-width:1px;stroke-linecap:butt;stroke-linejoin:miter;stroke-opacity:1" d="M 380.411,690.166 321.597,701.929 z" id="boundary" inkscape:connector-curvature="0" />
	<path style="fill:none;stroke:red;stroke-width:1px;stroke-linecap:butt;stroke-linejoin:miter;stroke-opacity:1" d="M 321.597,701.929 321.597,741.138 z" id="boundary" inkscape:connector-curvature="0" />
	<path style="fill:none;stroke:red;stroke-width:1px;stroke-linecap:butt;stroke-linejoin:miter;stroke-opacity:1" d="M 321.597,741.138 325.518,780.348 z" id="boundary" inkscape:connector-curvature="0" />
	<path style="fill:none;stroke:red;stroke-width:1px;stroke-linecap:butt;stroke-linejoin:miter;stroke-opacity:1" d="M 325.518,780.348 380.411,780.348 z" id="boundary" inkscape:connector-curvature="0" />
	<path style="fill:none;stroke:red;stroke-width:1px;stroke-linecap:butt;stroke-linejoin:miter;stroke-opacity:1" d="M 380.411,780.348 419.621,780.348 z" id="boundary" inkscape:connector-curvature="0" />
	<path style="fill:none;stroke:red;stroke-width:1px;stroke-linecap:butt;stroke-linejoin:miter;stroke-opacity:1" d="M 419.621,780.348 458.83,780.348 z" id="boundary" inkscape:connector-curvature="0" />
	<path style="fill:none;stroke:red;stroke-width:1px;stroke-linecap:butt;stroke-linejoin:miter;stroke-opacity:1" d="M 458.83,780.348 498.04,780.348 z" id="boundary" inkscape:connector-curvature="0" />
	<path style="fill:none;stroke:red;stroke-width:1px;stroke-linecap:butt;stroke-linejoin:miter;stroke-opacity:1" d="M 498.04,780.348 537.249,780.348 z" id="boundary" inkscape:connector-curvature="0" />
	<path style="fill:none;stroke:red;stroke-width:1px;stroke-linecap:butt;stroke-linejoin:miter;stroke-opacity:1" d="M 537.249,780.348 576.458,780.348 z" id="boundary" inkscape:connector-curvature="0" />
	<path style="fill:none;stroke:red;stroke-width:1px;stroke-linecap:butt;stroke-linejoin:miter;stroke-opacity:1" d="M 576.458,780.348 615.668,780.348 z" id="boundary" inkscape:connector-curvature="0" />
	<path style="fill:none;stroke:red;stroke-width:1px;stroke-linecap:butt;stroke-linejoin:miter;stroke-opacity:1" d="M 615.668,780.348 635.273,815.636 z" id="boundary" inkscape:connector-curvature="0" />
	<path style="fill:none;stroke:red;stroke-width:1px;stroke-linecap:butt;stroke-linejoin:miter;stroke-opacity:1" d="M 635.273,815.636 596.063,815.636 z" id="boundary" inkscape:connector-curvature="0" />
	<path style="fill:none;stroke:red;stroke-width:1px;stroke-linecap:butt;stroke-linejoin:miter;stroke-opacity:1" d="M 596.063,815.636 556.854,815.636 z" id="boundary" inkscape:connector-curvature="0" />
	<path style="fill:none;stroke:red;stroke-width:1px;stroke-linecap:butt;stroke-linejoin:miter;stroke-opacity:1" d="M 556.854,815.636 517.644,815.636 z" id="boundary" inkscape:connector-curvature="0" />
	<path style="fill:none;stroke:red;stroke-width:1px;stroke-linecap:butt;stroke-linejoin:miter;stroke-opacity:1" d="M 517.644,815.636 478.435,815.636 z" id="boundary" inkscape:connector-curvature="0" />
	<path style="fill:none;stroke:red;stroke-width:1px;stroke-linecap:butt;stroke-linejoin:miter;stroke-opacity:1" d="M 478.435,815.636 439.225,815.636 z" id="boundary" inkscape:connector-curvature="0" />
	<path style="fill:none;stroke:red;stroke-width:1px;stroke-linecap:butt;stroke-linejoin:miter;stroke-opacity:1" d="M 439.225,815.636 400.016,815.636 z" id="boundary" inkscape:connector-curvature="0" />
	<path style="fill:none;stroke:red;stroke-width:1px;stroke-linecap:butt;stroke-linejoin:miter;stroke-opacity:1" d="M 400.016,815.636 360.806,815.636 z" id="boundary" inkscape:connector-curvature="0" />
	<path style="fill:none;stroke:red;stroke-width:1px;stroke-linecap:butt;stroke-linejoin:miter;stroke-opacity:1" d="M 360.806,815.636 321.597,819.557 z" id="boundary" inkscape:connector-curvature="0" />
	<path style="fill:none;stroke:red;stroke-width:1px;stroke-linecap:butt;stroke-linejoin:miter;stroke-opacity:1" d="M 321.597,819.557 321.597,858.767 z" id="boundary" inkscape:connector-curvature="0" />
	<path style="fill:none;stroke:red;stroke-width:1px;stroke-linecap:butt;stroke-linejoin:miter;stroke-opacity:1" d="M 321.597,858.767 325.518,897.976 z" id="boundary" inkscape:connector-curvature="0" />
	<path style="fill:none;stroke:red;stroke-width:1px;stroke-linecap:butt;stroke-linejoin:miter;stroke-opacity:1" d="M 325.518,897.976 364.727,897.976 z" id="boundary" inkscape:connector-curvature="0" />
	<path style="fill:none;stroke:red;stroke-width:1px;stroke-linecap:butt;stroke-linejoin:miter;stroke-opacity:1" d="M 364.727,897.976 403.937,897.976 z" id="boundary" inkscape:connector-curvature="0" />
	<path style="fill:none;stroke:red;stroke-width:1px;stroke-linecap:butt;stroke-linejoin:miter;stroke-opacity:1" d="M 403.937,897.976 443.146,897.976 z" id="boundary" inkscape:connector-curvature="0" />
	<path style="fill:none;stroke:red;stroke-width:1px;stroke-linecap:butt;stroke-linejoin:miter;stroke-opacity:1" d="M 443.146,897.976 482.356,897.976 z" id="boundary" inkscape:connector-curvature="0" />
	<path style="fill:none;stroke:red;stroke-width:1px;stroke-linecap:butt;stroke-linejoin:miter;stroke-opacity:1" d="M 482.356,897.976 521.565,897.976 z" id="boundary" inkscape:connector-curvature="0" />
	<path style="fill:none;stroke:red;stroke-width:1px;stroke-linecap:butt;stroke-linejoin:miter;stroke-opacity:1" d="M 521.565,897.976 560.775,897.976 z" id="boundary" inkscape:connector-curvature="0" />
	<path style="fill:none;stroke:red;stroke-width:1px;stroke-linecap:butt;stroke-linejoin:miter;stroke-opacity:1" d="M 560.775,897.976 599.984,897.976 z" id="boundary" inkscape:connector-curvature="0" />
	<path style="fill:none;stroke:red;stroke-width:1px;stroke-linecap:butt;stroke-linejoin:miter;stroke-opacity:1" d="M 599.984,897.976 639.194,897.976 z" id="boundary" inkscape:connector-curvature="0" />
	<path style="fill:none;stroke:red;stroke-width:1px;stroke-linecap:butt;stroke-linejoin:miter;stroke-opacity:1" d="M 639.194,897.976 666.64,929.344 z" id="boundary" inkscape:connector-curvature="0" />
	<circle cx="4" cy="913.66" r="4" fill="#0" id="circle0"/>
	<circle cx="4" cy="952.87" r="4" fill="#0" id="circle1"/>
	<circle cx="27.5257" cy="984.237" r="4" fill="#0" id="circle2"/>
	<circle cx="43.2095" cy="897.976" r="4" fill="#0" id="circle3"/>
	<circle cx="66.7352" cy="988.158" r="4" fill="#0" id="circle4"/>
	<circle cx="82.419" cy="897.976" r="4" fill="#0" id="circle5"/>
	<circle cx="105.945" cy="980.316" r="4" fill="#0" id="circle6"/>
	<circle cx="121.628" cy="897.976" r="4" fill="#0" id="circle7"/>
	<circle cx="137.312" cy="662.719" r="4" fill="#0" id="circle8"/>
	<circle cx="137.312" cy="780.348" r="4" fill="#0" id="circle9"/>
	<circle cx="145.154" cy="980.316" r="4" fill="#0" id="circle10"/>
	<circle cx="156.917" cy="815.636" r="4" fill="#0" id="circle11"/>
	<circle cx="160.838" cy="90.2609" r="4" fill="#0" id="circle12"/>
	<circle cx="160.838" cy="129.47" r="4" fill="#0" id="circle13"/>
	<circle cx="160.838" cy="168.68" r="4" fill="#0" id="circle14"/>
	<circle cx="160.838" cy="207.889" r="4" fill="#0" id="circle15"/>
	<circle cx="160.838" cy="897.976" r="4" fill="#0" id="circle16"/>
	<circle cx="168.68" cy="690.166" r="4" fill="#0" id="circle17"/>
	<circle cx="176.522" cy="780.348" r="4" fill="#0" id="circle18"/>
	<circle cx="180.443" cy="650.957" r="4" fill="#0" id="circle19"/>
	<circle cx="184.364" cy="11.8419" r="4" fill="#0" id="circle20"/>
	<circle cx="184.364" cy="51.0514" r="4" fill="#0" id="circle21"/>
	<circle cx="184.364" cy="239.257" r="4" fill="#0" id="circle22"/>
	<circle cx="184.364" cy="278.466" r="4" fill="#0" id="circle23"/>
	<circle cx="184.364" cy="317.676" r="4" fill="#0" id="circle24"/>
	<circle cx="184.364" cy="356.885" r="4" fill="#0" id="circle25"/>
	<circle cx="184.364" cy="396.095" r="4" fill="#0" id="circle26"/>
	<circle cx="184.364" cy="435.304" r="4" fill="#0" id="circle27"/>
	<circle cx="184.364" cy="474.514" r="4" fill="#0" id="circle28"/>
	<circle cx="184.364" cy="513.723" r="4" fill="#0" id="circle29"/>
	<circle cx="184.364" cy="552.933" r="4" fill="#0" id="circle30"/>
	<circle cx="184.364" cy="592.142" r="4" fill="#0" id="circle31"/>
	<circle cx="184.364" cy="729.375" r="4" fill="#0" id="circle32"/>
	<circle cx="184.364" cy="847.004" r="4" fill="#0" id="circle33"/>
	<circle cx="184.364" cy="980.316" r="4" fill="#0" id="circle34"/>
	<circle cx="223.573" cy="4" r="4" fill="#0" id="circle35"/>
	<circle cx="223.573" cy="980.316" r="4" fill="#0" id="circle36"/>
	<circle cx="262.783" cy="4" r="4" fill="#0" id="circle37"/>
	<circle cx="262.783" cy="980.316" r="4" fill="#0" id="circle38"/>
	<circle cx="301.992" cy="4" r="4" fill="#0" id="circle39"/>
	<circle cx="301.992" cy="980.316" r="4" fill="#0" id="circle40"/>
	<circle cx="321.597" cy="529.407" r="4" fill="#0" id="circle41"/>
	<circle cx="321.597" cy="568.617" r="4" fill="#0" id="circle42"/>
	<circle cx="321.597" cy="607.826" r="4" fill="#0" id="circle43"/>
	<circle cx="321.597" cy="647.036" r="4" fill="#0" id="circle44"/>
	<circle cx="321.597" cy="701.929" r="4" fill="#0" id="circle45"/>
	<circle cx="321.597" cy="741.138" r="4" fill="#0" id="circle46"/>
	<circle cx="321.597" cy="819.557" r="4" fill="#0" id="circle47"/>
	<circle cx="321.597" cy="858.767" r="4" fill="#0" id="circle48"/>
	<circle cx="325.518" cy="780.348" r="4" fill="#0" id="circle49"/>
	<circle cx="325.518" cy="897.976" r="4" fill="#0" id="circle50"/>
	<circle cx="341.202" cy="4" r="4" fill="#0" id="circle51"/>
	<circle cx="341.202" cy="996" r="4" fill="#0" id="circle52"/>
	<circle cx="360.806" cy="525.486" r="4" fill="#0" id="circle53"/>
	<circle cx="360.806" cy="654.877" r="4" fill="#0" id="circle54"/>
	<circle cx="360.806" cy="815.636" r="4" fill="#0" id="circle55"/>
	<circle cx="364.727" cy="897.976" r="4" fill="#0" id="circle56"/>
	<circle cx="380.411" cy="4" r="4" fill="#0" id="circle57"/>
	<circle cx="380.411" cy="690.166" r="4" fill="#0" id="circle58"/>
	<circle cx="380.411" cy="780.348" r="4" fill="#0" id="circle59"/>
	<circle cx="380.411" cy="980.316" r="4" fill="#0" id="circle60"/>
	<circle cx="400.016" cy="525.486" r="4" fill="#0" id="circle61"/>
	<circle cx="400.016" cy="654.877" r="4" fill="#0" id="circle62"/>
	<circle cx="400.016" cy="815.636" r="4" fill="#0" id="circle63"/>
	<circle cx="403.937" cy="897.976" r="4" fill="#0" id="circle64"/>
	<circle cx="419.621" cy="4" r="4" fill="#0" id="circle65"/>
	<circle cx="419.621" cy="690.166" r="4" fill="#0" id="circle66"/>
	<circle cx="419.621" cy="780.348" r="4" fill="#0" id="circle67"/>
	<circle cx="419.621" cy="980.316" r="4" fill="#0" id="circle68"/>
	<circle cx="439.225" cy="525.486" r="4" fill="#0" id="circle69"/>
	<circle cx="439.225" cy="654.877" r="4" fill="#0" id="circle70"/>
	<circle cx="439.225" cy="815.636" r="4" fill="#0" id="circle71"/>
	<circle cx="443.146" cy="897.976" r="4" fill="#0" id="circle72"/>
	<circle cx="458.83" cy="15.7628" r="4" fill="#0" id="circle73"/>
	<circle cx="458.83" cy="690.166" r="4" fill="#0" id="circle74"/>
	<circle cx="458.83" cy="780.348" r="4" fill="#0" id="circle75"/>
	<circle cx="458.83" cy="980.316" r="4" fill="#0" id="circle76"/>
	<circle cx="462.751" cy="54.9723" r="4" fill="#0" id="circle77"/>
	<circle cx="462.751" cy="94.1818" r="4" fill="#0" id="circle78"/>
	<circle cx="462.751" cy="133.391" r="4" fill="#0" id="circle79"/>
	<circle cx="462.751" cy="172.601" r="4" fill="#0" id="circle80"/>
	<circle cx="462.751" cy="211.81" r="4" fill="#0" id="circle81"/>
	<circle cx="462.751" cy="251.02" r="4" fill="#0" id="circle82"/>
	<circle cx="462.751" cy="290.229" r="4" fill="#0" id="circle83"/>
	<circle cx="462.751" cy="329.439" r="4" fill="#0" id="circle84"/>
	<circle cx="462.751" cy="368.648" r="4" fill="#0" id="circle85"/>
	<circle cx="462.751" cy="407.858" r="4" fill="#0" id="circle86"/>
	<circle cx="462.751" cy="447.067" r="4" fill="#0" id="circle87"/>
	<circle cx="462.751" cy="486.277" r="4" fill="#0" id="circle88"/>
	<circle cx="478.435" cy="654.877" r="4" fill="#0" id="circle89"/>
	<circle cx="478.435" cy="815.636" r="4" fill="#0" id="circle90"/>
	<circle cx="482.356" cy="897.976" r="4" fill="#0" id="circle91"/>
	<circle cx="498.04" cy="690.166" r="4" fill="#0" id="circle92"/>
	<circle cx="498.04" cy="780.348" r="4" fill="#0" id="circle93"/>
	<circle cx="498.04" cy="980.316" r="4" fill="#0" id="circle94"/>
	<circle cx="517.644" cy="654.877" r="4" fill="#0" id="circle95"/>
	<circle cx="517.644" cy="815.636" r="4" fill="#0" id="circle96"/>
	<circle cx="521.565" cy="897.976" r="4" fill="#0" id="circle97"/>
	<circle cx="537.249" cy="690.166" r="4" fill="#0" id="circle98"/>
	<circle cx="537.249" cy="780.348" r="4" fill="#0" id="circle99"/>
	<circle cx="537.249" cy="980.316" r="4" fill="#0" id="circle100"/>
	<circle cx="556.854" cy="654.877" r="4" fill="#0" id="circle101"/>
	<circle cx="556.854" cy="815.636" r="4" fill="#0" id="circle102"/>
	<circle cx="560.775" cy="897.976" r="4" fill="#0" id="circle103"/>
	<circle cx="576.458" cy="690.166" r="4" fill="#0" id="circle104"/>
	<circle cx="576.458" cy="780.348" r="4" fill="#0" id="circle105"/>
	<circle cx="576.458" cy="980.316" r="4" fill="#0" id="circle106"/>
	<circle cx="596.063" cy="654.877" r="4" fill="#0" id="circle107"/>
	<circle cx="596.063" cy="815.636" r="4" fill="#0" id="circle108"/>
	<circle cx="599.984" cy="897.976" r="4" fill="#0" id="circle109"/>
	<circle cx="615.668" cy="690.166" r="4" fill="#0" id="circle110"/>
	<circle cx="615.668" cy="780.348" r="4" fill="#0" id="circle111"/>
	<circle cx="615.668" cy="996" r="4" fill="#0" id="circle112"/>
	<circle cx="635.273" cy="654.877" r="4" fill="#0" id="circle113"/>
	<circle cx="635.273" cy="815.636" r="4" fill="#0" id="circle114"/>
	<circle cx="639.194" cy="897.976" r="4" fill="#0" id="circle115"/>
	<circle cx="654.877" cy="980.316" r="4" fill="#0" id="circle116"/>
	<circle cx="666.64" cy="929.344" r="4" fill="#0" id="circle117"/>
	</g>
</svg>