<?xml version="1.0" encoding="UTF-8" standalone="no"?>
<!-- Created with CurveBenchmark -->
<svg
	xmlns:dc="http://purl.org/dc/elements/1.1/"
	xmlns:cc="http://creativecommons.org/ns#"
	xmlns:rdf="http://www.w3.org/1999/02/22-rdf-syntax-ns#"
	xmlns:svg="http://www.w3.org/2000/svg"
	xmlns="http://www.w3.org/2000/svg"
	xmlns:sodipodi="http://sodipodi.sourceforge.net/DTD/sodipodi-0.dtd"
	xmlns:inkscape="http://www.inkscape.org/namespaces/inkscape"
	width="1000"
	height="1000"
	id="svg2"
	version="1.1"
	sodipodi:docname="manifold/connect2d-face02.png.txt">
<defs
	id="defs4" />
<metadata
	id="metadata7">
	<rdf:RDF>
		<cc:Work
			rdf:about="">
			<dc:format>image/svg+xml</dc:format>
			<dc:type
				rdf:resource="http://purl.org/dc/dcmitype/StillImage" />
			<dc:title></dc:title>
		</cc:Work>
	</rdf:RDF>
</metadata>
<g
	inkscape:label="Layer 1"
	inkscape:groupmode="layer"
	id="layer1">
	<path style="fill:none;stroke:red;stroke-width:1px;stroke-linecap:butt;stroke-linejoin:miter;stroke-opacity:1" d="M 594.944,439.432 586.759,455.802 z" id="boundary" inkscape:connector-curvature="0" />
	<path style="fill:none;stroke:red;stroke-width:1px;stroke-linecap:butt;stroke-linejoin:miter;stroke-opacity:1" d="M 586.759,455.802 586.759,472.172 z" id="boundary" inkscape:connector-curvature="0" />
	<path style="fill:none;stroke:red;stroke-width:1px;stroke-linecap:butt;stroke-linejoin:miter;stroke-opacity:1" d="M 586.759,472.172 586.759,488.541 z" id="boundary" inkscape:connector-curvature="0" />
	<path style="fill:none;stroke:red;stroke-width:1px;stroke-linecap:butt;stroke-linejoin:miter;stroke-opacity:1" d="M 586.759,488.541 586.759,504.911 z" id="boundary" inkscape:connector-curvature="0" />
	<path style="fill:none;stroke:red;stroke-width:1px;stroke-linecap:butt;stroke-linejoin:miter;stroke-opacity:1" d="M 586.759,504.911 586.759,521.281 z" id="boundary" inkscape:connector-curvature="0" />
	<path style="fill:none;stroke:red;stroke-width:1px;stroke-linecap:butt;stroke-linejoin:miter;stroke-opacity:1" d="M 586.759,521.281 586.759,537.65 z" id="boundary" inkscape:connector-curvature="0" />
	<path style="fill:none;stroke:red;stroke-width:1px;stroke-linecap:butt;stroke-linejoin:miter;stroke-opacity:1" d="M 586.759,537.65 578.574,562.205 z" id="boundary" inkscape:connector-curvature="0" />
	<path style="fill:none;stroke:red;stroke-width:1px;stroke-linecap:butt;stroke-linejoin:miter;stroke-opacity:1" d="M 578.574,562.205 570.389,586.759 z" id="boundary" inkscape:connector-curvature="0" />
	<path style="fill:none;stroke:red;stroke-width:1px;stroke-linecap:butt;stroke-linejoin:miter;stroke-opacity:1" d="M 570.389,586.759 554.02,603.129 z" id="boundary" inkscape:connector-curvature="0" />
	<path style="fill:none;stroke:red;stroke-width:1px;stroke-linecap:butt;stroke-linejoin:miter;stroke-opacity:1" d="M 554.02,603.129 537.65,611.314 z" id="boundary" inkscape:connector-curvature="0" />
	<path style="fill:none;stroke:red;stroke-width:1px;stroke-linecap:butt;stroke-linejoin:miter;stroke-opacity:1" d="M 537.65,611.314 537.65,627.683 z" id="boundary" inkscape:connector-curvature="0" />
	<path style="fill:none;stroke:red;stroke-width:1px;stroke-linecap:butt;stroke-linejoin:miter;stroke-opacity:1" d="M 537.65,627.683 537.65,644.053 z" id="boundary" inkscape:connector-curvature="0" />
	<path style="fill:none;stroke:red;stroke-width:1px;stroke-linecap:butt;stroke-linejoin:miter;stroke-opacity:1" d="M 537.65,644.053 529.465,668.607 z" id="boundary" inkscape:connector-curvature="0" />
	<path style="fill:none;stroke:red;stroke-width:1px;stroke-linecap:butt;stroke-linejoin:miter;stroke-opacity:1" d="M 529.465,668.607 521.281,684.977 z" id="boundary" inkscape:connector-curvature="0" />
	<path style="fill:none;stroke:red;stroke-width:1px;stroke-linecap:butt;stroke-linejoin:miter;stroke-opacity:1" d="M 521.281,684.977 513.096,709.531 z" id="boundary" inkscape:connector-curvature="0" />
	<path style="fill:none;stroke:red;stroke-width:1px;stroke-linecap:butt;stroke-linejoin:miter;stroke-opacity:1" d="M 513.096,709.531 504.911,725.901 z" id="boundary" inkscape:connector-curvature="0" />
	<path style="fill:none;stroke:red;stroke-width:1px;stroke-linecap:butt;stroke-linejoin:miter;stroke-opacity:1" d="M 504.911,725.901 496.726,750.455 z" id="boundary" inkscape:connector-curvature="0" />
	<path style="fill:none;stroke:red;stroke-width:1px;stroke-linecap:butt;stroke-linejoin:miter;stroke-opacity:1" d="M 496.726,750.455 496.726,766.825 z" id="boundary" inkscape:connector-curvature="0" />
	<path style="fill:none;stroke:red;stroke-width:1px;stroke-linecap:butt;stroke-linejoin:miter;stroke-opacity:1" d="M 496.726,766.825 496.726,783.195 z" id="boundary" inkscape:connector-curvature="0" />
	<path style="fill:none;stroke:red;stroke-width:1px;stroke-linecap:butt;stroke-linejoin:miter;stroke-opacity:1" d="M 496.726,783.195 496.726,799.564 z" id="boundary" inkscape:connector-curvature="0" />
	<path style="fill:none;stroke:red;stroke-width:1px;stroke-linecap:butt;stroke-linejoin:miter;stroke-opacity:1" d="M 496.726,799.564 496.726,815.934 z" id="boundary" inkscape:connector-curvature="0" />
	<path style="fill:none;stroke:red;stroke-width:1px;stroke-linecap:butt;stroke-linejoin:miter;stroke-opacity:1" d="M 496.726,815.934 488.541,832.304 z" id="boundary" inkscape:connector-curvature="0" />
	<path style="fill:none;stroke:red;stroke-width:1px;stroke-linecap:butt;stroke-linejoin:miter;stroke-opacity:1" d="M 488.541,832.304 480.356,856.858 z" id="boundary" inkscape:connector-curvature="0" />
	<path style="fill:none;stroke:red;stroke-width:1px;stroke-linecap:butt;stroke-linejoin:miter;stroke-opacity:1" d="M 480.356,856.858 472.172,873.228 z" id="boundary" inkscape:connector-curvature="0" />
	<path style="fill:none;stroke:red;stroke-width:1px;stroke-linecap:butt;stroke-linejoin:miter;stroke-opacity:1" d="M 472.172,873.228 460.713,886.323 z" id="boundary" inkscape:connector-curvature="0" />
	<path style="fill:none;stroke:red;stroke-width:1px;stroke-linecap:butt;stroke-linejoin:miter;stroke-opacity:1" d="M 460.713,886.323 452.528,902.693 z" id="boundary" inkscape:connector-curvature="0" />
	<path style="fill:none;stroke:red;stroke-width:1px;stroke-linecap:butt;stroke-linejoin:miter;stroke-opacity:1" d="M 452.528,902.693 439.432,914.152 z" id="boundary" inkscape:connector-curvature="0" />
	<path style="fill:none;stroke:red;stroke-width:1px;stroke-linecap:butt;stroke-linejoin:miter;stroke-opacity:1" d="M 439.432,914.152 427.974,927.248 z" id="boundary" inkscape:connector-curvature="0" />
	<path style="fill:none;stroke:red;stroke-width:1px;stroke-linecap:butt;stroke-linejoin:miter;stroke-opacity:1" d="M 427.974,927.248 414.878,938.706 z" id="boundary" inkscape:connector-curvature="0" />
	<path style="fill:none;stroke:red;stroke-width:1px;stroke-linecap:butt;stroke-linejoin:miter;stroke-opacity:1" d="M 414.878,938.706 401.782,953.439 z" id="boundary" inkscape:connector-curvature="0" />
	<path style="fill:none;stroke:red;stroke-width:1px;stroke-linecap:butt;stroke-linejoin:miter;stroke-opacity:1" d="M 401.782,953.439 388.686,963.261 z" id="boundary" inkscape:connector-curvature="0" />
	<path style="fill:none;stroke:red;stroke-width:1px;stroke-linecap:butt;stroke-linejoin:miter;stroke-opacity:1" d="M 388.686,963.261 373.954,971.446 z" id="boundary" inkscape:connector-curvature="0" />
	<path style="fill:none;stroke:red;stroke-width:1px;stroke-linecap:butt;stroke-linejoin:miter;stroke-opacity:1" d="M 373.954,971.446 357.584,979.63 z" id="boundary" inkscape:connector-curvature="0" />
	<path style="fill:none;stroke:red;stroke-width:1px;stroke-linecap:butt;stroke-linejoin:miter;stroke-opacity:1" d="M 357.584,979.63 342.851,987.815 z" id="boundary" inkscape:connector-curvature="0" />
	<path style="fill:none;stroke:red;stroke-width:1px;stroke-linecap:butt;stroke-linejoin:miter;stroke-opacity:1" d="M 342.851,987.815 328.119,996 z" id="boundary" inkscape:connector-curvature="0" />
	<path style="fill:none;stroke:red;stroke-width:1px;stroke-linecap:butt;stroke-linejoin:miter;stroke-opacity:1" d="M 328.119,996 311.749,996 z" id="boundary" inkscape:connector-curvature="0" />
	<path style="fill:none;stroke:red;stroke-width:1px;stroke-linecap:butt;stroke-linejoin:miter;stroke-opacity:1" d="M 311.749,996 295.38,996 z" id="boundary" inkscape:connector-curvature="0" />
	<path style="fill:none;stroke:red;stroke-width:1px;stroke-linecap:butt;stroke-linejoin:miter;stroke-opacity:1" d="M 295.38,996 280.647,987.815 z" id="boundary" inkscape:connector-curvature="0" />
	<path style="fill:none;stroke:red;stroke-width:1px;stroke-linecap:butt;stroke-linejoin:miter;stroke-opacity:1" d="M 280.647,987.815 267.551,976.356 z" id="boundary" inkscape:connector-curvature="0" />
	<path style="fill:none;stroke:red;stroke-width:1px;stroke-linecap:butt;stroke-linejoin:miter;stroke-opacity:1" d="M 267.551,976.356 256.092,963.261 z" id="boundary" inkscape:connector-curvature="0" />
	<path style="fill:none;stroke:red;stroke-width:1px;stroke-linecap:butt;stroke-linejoin:miter;stroke-opacity:1" d="M 256.092,963.261 241.36,955.076 z" id="boundary" inkscape:connector-curvature="0" />
	<path style="fill:none;stroke:red;stroke-width:1px;stroke-linecap:butt;stroke-linejoin:miter;stroke-opacity:1" d="M 241.36,955.076 228.264,945.254 z" id="boundary" inkscape:connector-curvature="0" />
	<path style="fill:none;stroke:red;stroke-width:1px;stroke-linecap:butt;stroke-linejoin:miter;stroke-opacity:1" d="M 228.264,945.254 213.531,937.069 z" id="boundary" inkscape:connector-curvature="0" />
	<path style="fill:none;stroke:red;stroke-width:1px;stroke-linecap:butt;stroke-linejoin:miter;stroke-opacity:1" d="M 213.531,937.069 197.162,930.521 z" id="boundary" inkscape:connector-curvature="0" />
	<path style="fill:none;stroke:red;stroke-width:1px;stroke-linecap:butt;stroke-linejoin:miter;stroke-opacity:1" d="M 197.162,930.521 190.614,914.152 z" id="boundary" inkscape:connector-curvature="0" />
	<path style="fill:none;stroke:red;stroke-width:1px;stroke-linecap:butt;stroke-linejoin:miter;stroke-opacity:1" d="M 190.614,914.152 177.518,902.693 z" id="boundary" inkscape:connector-curvature="0" />
	<path style="fill:none;stroke:red;stroke-width:1px;stroke-linecap:butt;stroke-linejoin:miter;stroke-opacity:1" d="M 177.518,902.693 167.696,889.597 z" id="boundary" inkscape:connector-curvature="0" />
	<path style="fill:none;stroke:red;stroke-width:1px;stroke-linecap:butt;stroke-linejoin:miter;stroke-opacity:1" d="M 167.696,889.597 154.601,879.776 z" id="boundary" inkscape:connector-curvature="0" />
	<path style="fill:none;stroke:red;stroke-width:1px;stroke-linecap:butt;stroke-linejoin:miter;stroke-opacity:1" d="M 154.601,879.776 148.053,863.406 z" id="boundary" inkscape:connector-curvature="0" />
	<path style="fill:none;stroke:red;stroke-width:1px;stroke-linecap:butt;stroke-linejoin:miter;stroke-opacity:1" d="M 148.053,863.406 139.868,848.673 z" id="boundary" inkscape:connector-curvature="0" />
	<path style="fill:none;stroke:red;stroke-width:1px;stroke-linecap:butt;stroke-linejoin:miter;stroke-opacity:1" d="M 139.868,848.673 134.957,832.304 z" id="boundary" inkscape:connector-curvature="0" />
	<path style="fill:none;stroke:red;stroke-width:1px;stroke-linecap:butt;stroke-linejoin:miter;stroke-opacity:1" d="M 134.957,832.304 134.957,815.934 z" id="boundary" inkscape:connector-curvature="0" />
	<path style="fill:none;stroke:red;stroke-width:1px;stroke-linecap:butt;stroke-linejoin:miter;stroke-opacity:1" d="M 134.957,815.934 134.957,799.564 z" id="boundary" inkscape:connector-curvature="0" />
	<path style="fill:none;stroke:red;stroke-width:1px;stroke-linecap:butt;stroke-linejoin:miter;stroke-opacity:1" d="M 134.957,799.564 134.957,783.195 z" id="boundary" inkscape:connector-curvature="0" />
	<path style="fill:none;stroke:red;stroke-width:1px;stroke-linecap:butt;stroke-linejoin:miter;stroke-opacity:1" d="M 134.957,783.195 131.683,766.825 z" id="boundary" inkscape:connector-curvature="0" />
	<path style="fill:none;stroke:red;stroke-width:1px;stroke-linecap:butt;stroke-linejoin:miter;stroke-opacity:1" d="M 131.683,766.825 120.224,753.729 z" id="boundary" inkscape:connector-curvature="0" />
	<path style="fill:none;stroke:red;stroke-width:1px;stroke-linecap:butt;stroke-linejoin:miter;stroke-opacity:1" d="M 120.224,753.729 107.129,742.271 z" id="boundary" inkscape:connector-curvature="0" />
	<path style="fill:none;stroke:red;stroke-width:1px;stroke-linecap:butt;stroke-linejoin:miter;stroke-opacity:1" d="M 107.129,742.271 102.218,725.901 z" id="boundary" inkscape:connector-curvature="0" />
	<path style="fill:none;stroke:red;stroke-width:1px;stroke-linecap:butt;stroke-linejoin:miter;stroke-opacity:1" d="M 102.218,725.901 94.033,711.168 z" id="boundary" inkscape:connector-curvature="0" />
	<path style="fill:none;stroke:red;stroke-width:1px;stroke-linecap:butt;stroke-linejoin:miter;stroke-opacity:1" d="M 94.033,711.168 85.8482,696.436 z" id="boundary" inkscape:connector-curvature="0" />
	<path style="fill:none;stroke:red;stroke-width:1px;stroke-linecap:butt;stroke-linejoin:miter;stroke-opacity:1" d="M 85.8482,696.436 85.8482,680.066 z" id="boundary" inkscape:connector-curvature="0" />
	<path style="fill:none;stroke:red;stroke-width:1px;stroke-linecap:butt;stroke-linejoin:miter;stroke-opacity:1" d="M 85.8482,680.066 85.8482,663.696 z" id="boundary" inkscape:connector-curvature="0" />
	<path style="fill:none;stroke:red;stroke-width:1px;stroke-linecap:butt;stroke-linejoin:miter;stroke-opacity:1" d="M 85.8482,663.696 79.3003,647.327 z" id="boundary" inkscape:connector-curvature="0" />
	<path style="fill:none;stroke:red;stroke-width:1px;stroke-linecap:butt;stroke-linejoin:miter;stroke-opacity:1" d="M 79.3003,647.327 66.2046,635.868 z" id="boundary" inkscape:connector-curvature="0" />
	<path style="fill:none;stroke:red;stroke-width:1px;stroke-linecap:butt;stroke-linejoin:miter;stroke-opacity:1" d="M 66.2046,635.868 61.2937,619.498 z" id="boundary" inkscape:connector-curvature="0" />
	<path style="fill:none;stroke:red;stroke-width:1px;stroke-linecap:butt;stroke-linejoin:miter;stroke-opacity:1" d="M 61.2937,619.498 48.198,609.677 z" id="boundary" inkscape:connector-curvature="0" />
	<path style="fill:none;stroke:red;stroke-width:1px;stroke-linecap:butt;stroke-linejoin:miter;stroke-opacity:1" d="M 48.198,609.677 41.6502,593.307 z" id="boundary" inkscape:connector-curvature="0" />
	<path style="fill:none;stroke:red;stroke-width:1px;stroke-linecap:butt;stroke-linejoin:miter;stroke-opacity:1" d="M 41.6502,593.307 33.4653,578.574 z" id="boundary" inkscape:connector-curvature="0" />
	<path style="fill:none;stroke:red;stroke-width:1px;stroke-linecap:butt;stroke-linejoin:miter;stroke-opacity:1" d="M 33.4653,578.574 28.5545,562.205 z" id="boundary" inkscape:connector-curvature="0" />
	<path style="fill:none;stroke:red;stroke-width:1px;stroke-linecap:butt;stroke-linejoin:miter;stroke-opacity:1" d="M 28.5545,562.205 25.2805,545.835 z" id="boundary" inkscape:connector-curvature="0" />
	<path style="fill:none;stroke:red;stroke-width:1px;stroke-linecap:butt;stroke-linejoin:miter;stroke-opacity:1" d="M 25.2805,545.835 20.3696,529.465 z" id="boundary" inkscape:connector-curvature="0" />
	<path style="fill:none;stroke:red;stroke-width:1px;stroke-linecap:butt;stroke-linejoin:miter;stroke-opacity:1" d="M 20.3696,529.465 12.1848,514.733 z" id="boundary" inkscape:connector-curvature="0" />
	<path style="fill:none;stroke:red;stroke-width:1px;stroke-linecap:butt;stroke-linejoin:miter;stroke-opacity:1" d="M 12.1848,514.733 4,500 z" id="boundary" inkscape:connector-curvature="0" />
	<path style="fill:none;stroke:red;stroke-width:1px;stroke-linecap:butt;stroke-linejoin:miter;stroke-opacity:1" d="M 4,500 4,483.63 z" id="boundary" inkscape:connector-curvature="0" />
	<path style="fill:none;stroke:red;stroke-width:1px;stroke-linecap:butt;stroke-linejoin:miter;stroke-opacity:1" d="M 4,483.63 4,467.261 z" id="boundary" inkscape:connector-curvature="0" />
	<path style="fill:none;stroke:red;stroke-width:1px;stroke-linecap:butt;stroke-linejoin:miter;stroke-opacity:1" d="M 4,467.261 20.3696,459.076 z" id="boundary" inkscape:connector-curvature="0" />
	<path style="fill:none;stroke:red;stroke-width:1px;stroke-linecap:butt;stroke-linejoin:miter;stroke-opacity:1" d="M 20.3696,459.076 33.4653,445.98 z" id="boundary" inkscape:connector-curvature="0" />
	<path style="fill:none;stroke:red;stroke-width:1px;stroke-linecap:butt;stroke-linejoin:miter;stroke-opacity:1" d="M 33.4653,445.98 36.7393,424.7 z" id="boundary" inkscape:connector-curvature="0" />
	<path style="fill:none;stroke:red;stroke-width:1px;stroke-linecap:butt;stroke-linejoin:miter;stroke-opacity:1" d="M 36.7393,424.7 28.5545,409.967 z" id="boundary" inkscape:connector-curvature="0" />
	<path style="fill:none;stroke:red;stroke-width:1px;stroke-linecap:butt;stroke-linejoin:miter;stroke-opacity:1" d="M 28.5545,409.967 28.5545,393.597 z" id="boundary" inkscape:connector-curvature="0" />
	<path style="fill:none;stroke:red;stroke-width:1px;stroke-linecap:butt;stroke-linejoin:miter;stroke-opacity:1" d="M 28.5545,393.597 28.5545,377.228 z" id="boundary" inkscape:connector-curvature="0" />
	<path style="fill:none;stroke:red;stroke-width:1px;stroke-linecap:butt;stroke-linejoin:miter;stroke-opacity:1" d="M 28.5545,377.228 28.5545,360.858 z" id="boundary" inkscape:connector-curvature="0" />
	<path style="fill:none;stroke:red;stroke-width:1px;stroke-linecap:butt;stroke-linejoin:miter;stroke-opacity:1" d="M 28.5545,360.858 28.5545,344.488 z" id="boundary" inkscape:connector-curvature="0" />
	<path style="fill:none;stroke:red;stroke-width:1px;stroke-linecap:butt;stroke-linejoin:miter;stroke-opacity:1" d="M 28.5545,344.488 28.5545,328.119 z" id="boundary" inkscape:connector-curvature="0" />
	<path style="fill:none;stroke:red;stroke-width:1px;stroke-linecap:butt;stroke-linejoin:miter;stroke-opacity:1" d="M 28.5545,328.119 28.5545,311.749 z" id="boundary" inkscape:connector-curvature="0" />
	<path style="fill:none;stroke:red;stroke-width:1px;stroke-linecap:butt;stroke-linejoin:miter;stroke-opacity:1" d="M 28.5545,311.749 28.5545,295.38 z" id="boundary" inkscape:connector-curvature="0" />
	<path style="fill:none;stroke:red;stroke-width:1px;stroke-linecap:butt;stroke-linejoin:miter;stroke-opacity:1" d="M 28.5545,295.38 28.5545,279.01 z" id="boundary" inkscape:connector-curvature="0" />
	<path style="fill:none;stroke:red;stroke-width:1px;stroke-linecap:butt;stroke-linejoin:miter;stroke-opacity:1" d="M 28.5545,279.01 36.7393,254.455 z" id="boundary" inkscape:connector-curvature="0" />
	<path style="fill:none;stroke:red;stroke-width:1px;stroke-linecap:butt;stroke-linejoin:miter;stroke-opacity:1" d="M 36.7393,254.455 36.7393,238.086 z" id="boundary" inkscape:connector-curvature="0" />
	<path style="fill:none;stroke:red;stroke-width:1px;stroke-linecap:butt;stroke-linejoin:miter;stroke-opacity:1" d="M 36.7393,238.086 44.9241,221.716 z" id="boundary" inkscape:connector-curvature="0" />
	<path style="fill:none;stroke:red;stroke-width:1px;stroke-linecap:butt;stroke-linejoin:miter;stroke-opacity:1" d="M 44.9241,221.716 44.9241,205.347 z" id="boundary" inkscape:connector-curvature="0" />
	<path style="fill:none;stroke:red;stroke-width:1px;stroke-linecap:butt;stroke-linejoin:miter;stroke-opacity:1" d="M 44.9241,205.347 53.1089,180.792 z" id="boundary" inkscape:connector-curvature="0" />
	<path style="fill:none;stroke:red;stroke-width:1px;stroke-linecap:butt;stroke-linejoin:miter;stroke-opacity:1" d="M 53.1089,180.792 61.2937,164.422 z" id="boundary" inkscape:connector-curvature="0" />
	<path style="fill:none;stroke:red;stroke-width:1px;stroke-linecap:butt;stroke-linejoin:miter;stroke-opacity:1" d="M 61.2937,164.422 69.4785,148.053 z" id="boundary" inkscape:connector-curvature="0" />
	<path style="fill:none;stroke:red;stroke-width:1px;stroke-linecap:butt;stroke-linejoin:miter;stroke-opacity:1" d="M 69.4785,148.053 77.6634,131.683 z" id="boundary" inkscape:connector-curvature="0" />
	<path style="fill:none;stroke:red;stroke-width:1px;stroke-linecap:butt;stroke-linejoin:miter;stroke-opacity:1" d="M 77.6634,131.683 90.7591,118.587 z" id="boundary" inkscape:connector-curvature="0" />
	<path style="fill:none;stroke:red;stroke-width:1px;stroke-linecap:butt;stroke-linejoin:miter;stroke-opacity:1" d="M 90.7591,118.587 102.218,98.9439 z" id="boundary" inkscape:connector-curvature="0" />
	<path style="fill:none;stroke:red;stroke-width:1px;stroke-linecap:butt;stroke-linejoin:miter;stroke-opacity:1" d="M 102.218,98.9439 115.314,85.8482 z" id="boundary" inkscape:connector-curvature="0" />
	<path style="fill:none;stroke:red;stroke-width:1px;stroke-linecap:butt;stroke-linejoin:miter;stroke-opacity:1" d="M 115.314,85.8482 128.409,72.7525 z" id="boundary" inkscape:connector-curvature="0" />
	<path style="fill:none;stroke:red;stroke-width:1px;stroke-linecap:butt;stroke-linejoin:miter;stroke-opacity:1" d="M 128.409,72.7525 141.505,61.2937 z" id="boundary" inkscape:connector-curvature="0" />
	<path style="fill:none;stroke:red;stroke-width:1px;stroke-linecap:butt;stroke-linejoin:miter;stroke-opacity:1" d="M 141.505,61.2937 152.964,48.198 z" id="boundary" inkscape:connector-curvature="0" />
	<path style="fill:none;stroke:red;stroke-width:1px;stroke-linecap:butt;stroke-linejoin:miter;stroke-opacity:1" d="M 152.964,48.198 166.059,36.7393 z" id="boundary" inkscape:connector-curvature="0" />
	<path style="fill:none;stroke:red;stroke-width:1px;stroke-linecap:butt;stroke-linejoin:miter;stroke-opacity:1" d="M 166.059,36.7393 180.792,28.5545 z" id="boundary" inkscape:connector-curvature="0" />
	<path style="fill:none;stroke:red;stroke-width:1px;stroke-linecap:butt;stroke-linejoin:miter;stroke-opacity:1" d="M 180.792,28.5545 195.525,20.3696 z" id="boundary" inkscape:connector-curvature="0" />
	<path style="fill:none;stroke:red;stroke-width:1px;stroke-linecap:butt;stroke-linejoin:miter;stroke-opacity:1" d="M 195.525,20.3696 210.257,12.1848 z" id="boundary" inkscape:connector-curvature="0" />
	<path style="fill:none;stroke:red;stroke-width:1px;stroke-linecap:butt;stroke-linejoin:miter;stroke-opacity:1" d="M 210.257,12.1848 224.99,4 z" id="boundary" inkscape:connector-curvature="0" />
	<path style="fill:none;stroke:red;stroke-width:1px;stroke-linecap:butt;stroke-linejoin:miter;stroke-opacity:1" d="M 224.99,4 241.36,4 z" id="boundary" inkscape:connector-curvature="0" />
	<path style="fill:none;stroke:red;stroke-width:1px;stroke-linecap:butt;stroke-linejoin:miter;stroke-opacity:1" d="M 241.36,4 257.729,4 z" id="boundary" inkscape:connector-curvature="0" />
	<path style="fill:none;stroke:red;stroke-width:1px;stroke-linecap:butt;stroke-linejoin:miter;stroke-opacity:1" d="M 257.729,4 274.099,4 z" id="boundary" inkscape:connector-curvature="0" />
	<path style="fill:none;stroke:red;stroke-width:1px;stroke-linecap:butt;stroke-linejoin:miter;stroke-opacity:1" d="M 274.099,4 290.469,4 z" id="boundary" inkscape:connector-curvature="0" />
	<path style="fill:none;stroke:red;stroke-width:1px;stroke-linecap:butt;stroke-linejoin:miter;stroke-opacity:1" d="M 290.469,4 306.838,7.27393 z" id="boundary" inkscape:connector-curvature="0" />
	<path style="fill:none;stroke:red;stroke-width:1px;stroke-linecap:butt;stroke-linejoin:miter;stroke-opacity:1" d="M 306.838,7.27393 323.208,12.1848 z" id="boundary" inkscape:connector-curvature="0" />
	<path style="fill:none;stroke:red;stroke-width:1px;stroke-linecap:butt;stroke-linejoin:miter;stroke-opacity:1" d="M 323.208,12.1848 337.941,20.3696 z" id="boundary" inkscape:connector-curvature="0" />
	<path style="fill:none;stroke:red;stroke-width:1px;stroke-linecap:butt;stroke-linejoin:miter;stroke-opacity:1" d="M 337.941,20.3696 352.673,28.5545 z" id="boundary" inkscape:connector-curvature="0" />
	<path style="fill:none;stroke:red;stroke-width:1px;stroke-linecap:butt;stroke-linejoin:miter;stroke-opacity:1" d="M 352.673,28.5545 367.406,36.7393 z" id="boundary" inkscape:connector-curvature="0" />
	<path style="fill:none;stroke:red;stroke-width:1px;stroke-linecap:butt;stroke-linejoin:miter;stroke-opacity:1" d="M 367.406,36.7393 382.139,44.9241 z" id="boundary" inkscape:connector-curvature="0" />
	<path style="fill:none;stroke:red;stroke-width:1px;stroke-linecap:butt;stroke-linejoin:miter;stroke-opacity:1" d="M 382.139,44.9241 396.871,53.1089 z" id="boundary" inkscape:connector-curvature="0" />
	<path style="fill:none;stroke:red;stroke-width:1px;stroke-linecap:butt;stroke-linejoin:miter;stroke-opacity:1" d="M 396.871,53.1089 411.604,44.9241 z" id="boundary" inkscape:connector-curvature="0" />
	<path style="fill:none;stroke:red;stroke-width:1px;stroke-linecap:butt;stroke-linejoin:miter;stroke-opacity:1" d="M 411.604,44.9241 426.337,36.7393 z" id="boundary" inkscape:connector-curvature="0" />
	<path style="fill:none;stroke:red;stroke-width:1px;stroke-linecap:butt;stroke-linejoin:miter;stroke-opacity:1" d="M 426.337,36.7393 442.706,36.7393 z" id="boundary" inkscape:connector-curvature="0" />
	<path style="fill:none;stroke:red;stroke-width:1px;stroke-linecap:butt;stroke-linejoin:miter;stroke-opacity:1" d="M 442.706,36.7393 459.076,36.7393 z" id="boundary" inkscape:connector-curvature="0" />
	<path style="fill:none;stroke:red;stroke-width:1px;stroke-linecap:butt;stroke-linejoin:miter;stroke-opacity:1" d="M 459.076,36.7393 475.446,36.7393 z" id="boundary" inkscape:connector-curvature="0" />
	<path style="fill:none;stroke:red;stroke-width:1px;stroke-linecap:butt;stroke-linejoin:miter;stroke-opacity:1" d="M 475.446,36.7393 490.178,44.9241 z" id="boundary" inkscape:connector-curvature="0" />
	<path style="fill:none;stroke:red;stroke-width:1px;stroke-linecap:butt;stroke-linejoin:miter;stroke-opacity:1" d="M 490.178,44.9241 504.911,53.1089 z" id="boundary" inkscape:connector-curvature="0" />
	<path style="fill:none;stroke:red;stroke-width:1px;stroke-linecap:butt;stroke-linejoin:miter;stroke-opacity:1" d="M 504.911,53.1089 518.007,62.9307 z" id="boundary" inkscape:connector-curvature="0" />
	<path style="fill:none;stroke:red;stroke-width:1px;stroke-linecap:butt;stroke-linejoin:miter;stroke-opacity:1" d="M 518.007,62.9307 529.465,76.0264 z" id="boundary" inkscape:connector-curvature="0" />
	<path style="fill:none;stroke:red;stroke-width:1px;stroke-linecap:butt;stroke-linejoin:miter;stroke-opacity:1" d="M 529.465,76.0264 537.65,90.7591 z" id="boundary" inkscape:connector-curvature="0" />
	<path style="fill:none;stroke:red;stroke-width:1px;stroke-linecap:butt;stroke-linejoin:miter;stroke-opacity:1" d="M 537.65,90.7591 545.835,105.492 z" id="boundary" inkscape:connector-curvature="0" />
	<path style="fill:none;stroke:red;stroke-width:1px;stroke-linecap:butt;stroke-linejoin:miter;stroke-opacity:1" d="M 545.835,105.492 554.02,120.224 z" id="boundary" inkscape:connector-curvature="0" />
	<path style="fill:none;stroke:red;stroke-width:1px;stroke-linecap:butt;stroke-linejoin:miter;stroke-opacity:1" d="M 554.02,120.224 562.205,134.957 z" id="boundary" inkscape:connector-curvature="0" />
	<path style="fill:none;stroke:red;stroke-width:1px;stroke-linecap:butt;stroke-linejoin:miter;stroke-opacity:1" d="M 562.205,134.957 562.205,151.327 z" id="boundary" inkscape:connector-curvature="0" />
	<path style="fill:none;stroke:red;stroke-width:1px;stroke-linecap:butt;stroke-linejoin:miter;stroke-opacity:1" d="M 562.205,151.327 562.205,167.696 z" id="boundary" inkscape:connector-curvature="0" />
	<path style="fill:none;stroke:red;stroke-width:1px;stroke-linecap:butt;stroke-linejoin:miter;stroke-opacity:1" d="M 562.205,167.696 562.205,184.066 z" id="boundary" inkscape:connector-curvature="0" />
	<path style="fill:none;stroke:red;stroke-width:1px;stroke-linecap:butt;stroke-linejoin:miter;stroke-opacity:1" d="M 562.205,184.066 562.205,200.436 z" id="boundary" inkscape:connector-curvature="0" />
	<path style="fill:none;stroke:red;stroke-width:1px;stroke-linecap:butt;stroke-linejoin:miter;stroke-opacity:1" d="M 562.205,200.436 562.205,216.805 z" id="boundary" inkscape:connector-curvature="0" />
	<path style="fill:none;stroke:red;stroke-width:1px;stroke-linecap:butt;stroke-linejoin:miter;stroke-opacity:1" d="M 562.205,216.805 562.205,233.175 z" id="boundary" inkscape:connector-curvature="0" />
	<path style="fill:none;stroke:red;stroke-width:1px;stroke-linecap:butt;stroke-linejoin:miter;stroke-opacity:1" d="M 562.205,233.175 562.205,249.545 z" id="boundary" inkscape:connector-curvature="0" />
	<path style="fill:none;stroke:red;stroke-width:1px;stroke-linecap:butt;stroke-linejoin:miter;stroke-opacity:1" d="M 562.205,249.545 562.205,265.914 z" id="boundary" inkscape:connector-curvature="0" />
	<path style="fill:none;stroke:red;stroke-width:1px;stroke-linecap:butt;stroke-linejoin:miter;stroke-opacity:1" d="M 562.205,265.914 562.205,282.284 z" id="boundary" inkscape:connector-curvature="0" />
	<path style="fill:none;stroke:red;stroke-width:1px;stroke-linecap:butt;stroke-linejoin:miter;stroke-opacity:1" d="M 562.205,282.284 562.205,298.653 z" id="boundary" inkscape:connector-curvature="0" />
	<path style="fill:none;stroke:red;stroke-width:1px;stroke-linecap:butt;stroke-linejoin:miter;stroke-opacity:1" d="M 562.205,298.653 562.205,315.023 z" id="boundary" inkscape:connector-curvature="0" />
	<path style="fill:none;stroke:red;stroke-width:1px;stroke-linecap:butt;stroke-linejoin:miter;stroke-opacity:1" d="M 562.205,315.023 562.205,331.393 z" id="boundary" inkscape:connector-curvature="0" />
	<path style="fill:none;stroke:red;stroke-width:1px;stroke-linecap:butt;stroke-linejoin:miter;stroke-opacity:1" d="M 562.205,331.393 562.205,347.762 z" id="boundary" inkscape:connector-curvature="0" />
	<path style="fill:none;stroke:red;stroke-width:1px;stroke-linecap:butt;stroke-linejoin:miter;stroke-opacity:1" d="M 562.205,347.762 562.205,364.132 z" id="boundary" inkscape:connector-curvature="0" />
	<path style="fill:none;stroke:red;stroke-width:1px;stroke-linecap:butt;stroke-linejoin:miter;stroke-opacity:1" d="M 562.205,364.132 570.389,378.865 z" id="boundary" inkscape:connector-curvature="0" />
	<path style="fill:none;stroke:red;stroke-width:1px;stroke-linecap:butt;stroke-linejoin:miter;stroke-opacity:1" d="M 570.389,378.865 578.574,393.597 z" id="boundary" inkscape:connector-curvature="0" />
	<path style="fill:none;stroke:red;stroke-width:1px;stroke-linecap:butt;stroke-linejoin:miter;stroke-opacity:1" d="M 578.574,393.597 590.033,406.693 z" id="boundary" inkscape:connector-curvature="0" />
	<path style="fill:none;stroke:red;stroke-width:1px;stroke-linecap:butt;stroke-linejoin:miter;stroke-opacity:1" d="M 590.033,406.693 594.944,423.063 z" id="boundary" inkscape:connector-curvature="0" />
	<path style="fill:none;stroke:red;stroke-width:1px;stroke-linecap:butt;stroke-linejoin:miter;stroke-opacity:1" d="M 594.944,423.063 594.944,439.432 z" id="boundary" inkscape:connector-curvature="0" />
	<circle cx="4" cy="467.261" r="4" fill="#0" id="circle0"/>
	<circle cx="4" cy="483.63" r="4" fill="#0" id="circle1"/>
	<circle cx="4" cy="500" r="4" fill="#0" id="circle2"/>
	<circle cx="12.1848" cy="514.733" r="4" fill="#0" id="circle3"/>
	<circle cx="20.3696" cy="459.076" r="4" fill="#0" id="circle4"/>
	<circle cx="20.3696" cy="529.465" r="4" fill="#0" id="circle5"/>
	<circle cx="25.2805" cy="545.835" r="4" fill="#0" id="circle6"/>
	<circle cx="28.5545" cy="279.01" r="4" fill="#0" id="circle7"/>
	<circle cx="28.5545" cy="295.38" r="4" fill="#0" id="circle8"/>
	<circle cx="28.5545" cy="311.749" r="4" fill="#0" id="circle9"/>
	<circle cx="28.5545" cy="328.119" r="4" fill="#0" id="circle10"/>
	<circle cx="28.5545" cy="344.488" r="4" fill="#0" id="circle11"/>
	<circle cx="28.5545" cy="360.858" r="4" fill="#0" id="circle12"/>
	<circle cx="28.5545" cy="377.228" r="4" fill="#0" id="circle13"/>
	<circle cx="28.5545" cy="393.597" r="4" fill="#0" id="circle14"/>
	<circle cx="28.5545" cy="409.967" r="4" fill="#0" id="circle15"/>
	<circle cx="28.5545" cy="562.205" r="4" fill="#0" id="circle16"/>
	<circle cx="33.4653" cy="445.98" r="4" fill="#0" id="circle17"/>
	<circle cx="33.4653" cy="578.574" r="4" fill="#0" id="circle18"/>
	<circle cx="36.7393" cy="238.086" r="4" fill="#0" id="circle19"/>
	<circle cx="36.7393" cy="254.455" r="4" fill="#0" id="circle20"/>
	<circle cx="36.7393" cy="424.7" r="4" fill="#0" id="circle21"/>
	<circle cx="41.6502" cy="593.307" r="4" fill="#0" id="circle22"/>
	<circle cx="44.9241" cy="205.347" r="4" fill="#0" id="circle23"/>
	<circle cx="44.9241" cy="221.716" r="4" fill="#0" id="circle24"/>
	<circle cx="48.198" cy="609.677" r="4" fill="#0" id="circle25"/>
	<circle cx="53.1089" cy="180.792" r="4" fill="#0" id="circle26"/>
	<circle cx="61.2937" cy="164.422" r="4" fill="#0" id="circle27"/>
	<circle cx="61.2937" cy="619.498" r="4" fill="#0" id="circle28"/>
	<circle cx="66.2046" cy="635.868" r="4" fill="#0" id="circle29"/>
	<circle cx="69.4785" cy="148.053" r="4" fill="#0" id="circle30"/>
	<circle cx="77.6634" cy="131.683" r="4" fill="#0" id="circle31"/>
	<circle cx="79.3003" cy="647.327" r="4" fill="#0" id="circle32"/>
	<circle cx="85.8482" cy="663.696" r="4" fill="#0" id="circle33"/>
	<circle cx="85.8482" cy="680.066" r="4" fill="#0" id="circle34"/>
	<circle cx="85.8482" cy="696.436" r="4" fill="#0" id="circle35"/>
	<circle cx="90.7591" cy="118.587" r="4" fill="#0" id="circle36"/>
	<circle cx="94.033" cy="711.168" r="4" fill="#0" id="circle37"/>
	<circle cx="102.218" cy="98.9439" r="4" fill="#0" id="circle38"/>
	<circle cx="102.218" cy="725.901" r="4" fill="#0" id="circle39"/>
	<circle cx="107.129" cy="742.271" r="4" fill="#0" id="circle40"/>
	<circle cx="115.314" cy="85.8482" r="4" fill="#0" id="circle41"/>
	<circle cx="120.224" cy="753.729" r="4" fill="#0" id="circle42"/>
	<circle cx="128.409" cy="72.7525" r="4" fill="#0" id="circle43"/>
	<circle cx="131.683" cy="766.825" r="4" fill="#0" id="circle44"/>
	<circle cx="134.957" cy="783.195" r="4" fill="#0" id="circle45"/>
	<circle cx="134.957" cy="799.564" r="4" fill="#0" id="circle46"/>
	<circle cx="134.957" cy="815.934" r="4" fill="#0" id="circle47"/>
	<circle cx="134.957" cy="832.304" r="4" fill="#0" id="circle48"/>
	<circle cx="139.868" cy="848.673" r="4" fill="#0" id="circle49"/>
	<circle cx="141.505" cy="61.2937" r="4" fill="#0" id="circle50"/>
	<circle cx="148.053" cy="863.406" r="4" fill="#0" id="circle51"/>
	<circle cx="152.964" cy="48.198" r="4" fill="#0" id="circle52"/>
	<circle cx="154.601" cy="879.776" r="4" fill="#0" id="circle53"/>
	<circle cx="166.059" cy="36.7393" r="4" fill="#0" id="circle54"/>
	<circle cx="167.696" cy="889.597" r="4" fill="#0" id="circle55"/>
	<circle cx="177.518" cy="902.693" r="4" fill="#0" id="circle56"/>
	<circle cx="180.792" cy="28.5545" r="4" fill="#0" id="circle57"/>
	<circle cx="190.614" cy="914.152" r="4" fill="#0" id="circle58"/>
	<circle cx="195.525" cy="20.3696" r="4" fill="#0" id="circle59"/>
	<circle cx="197.162" cy="930.521" r="4" fill="#0" id="circle60"/>
	<circle cx="210.257" cy="12.1848" r="4" fill="#0" id="circle61"/>
	<circle cx="213.531" cy="937.069" r="4" fill="#0" id="circle62"/>
	<circle cx="224.99" cy="4" r="4" fill="#0" id="circle63"/>
	<circle cx="228.264" cy="945.254" r="4" fill="#0" id="circle64"/>
	<circle cx="241.36" cy="4" r="4" fill="#0" id="circle65"/>
	<circle cx="241.36" cy="955.076" r="4" fill="#0" id="circle66"/>
	<circle cx="256.092" cy="963.261" r="4" fill="#0" id="circle67"/>
	<circle cx="257.729" cy="4" r="4" fill="#0" id="circle68"/>
	<circle cx="267.551" cy="976.356" r="4" fill="#0" id="circle69"/>
	<circle cx="274.099" cy="4" r="4" fill="#0" id="circle70"/>
	<circle cx="280.647" cy="987.815" r="4" fill="#0" id="circle71"/>
	<circle cx="290.469" cy="4" r="4" fill="#0" id="circle72"/>
	<circle cx="295.38" cy="996" r="4" fill="#0" id="circle73"/>
	<circle cx="306.838" cy="7.27393" r="4" fill="#0" id="circle74"/>
	<circle cx="311.749" cy="996" r="4" fill="#0" id="circle75"/>
	<circle cx="323.208" cy="12.1848" r="4" fill="#0" id="circle76"/>
	<circle cx="328.119" cy="996" r="4" fill="#0" id="circle77"/>
	<circle cx="337.941" cy="20.3696" r="4" fill="#0" id="circle78"/>
	<circle cx="342.851" cy="987.815" r="4" fill="#0" id="circle79"/>
	<circle cx="352.673" cy="28.5545" r="4" fill="#0" id="circle80"/>
	<circle cx="357.584" cy="979.63" r="4" fill="#0" id="circle81"/>
	<circle cx="367.406" cy="36.7393" r="4" fill="#0" id="circle82"/>
	<circle cx="373.954" cy="971.446" r="4" fill="#0" id="circle83"/>
	<circle cx="382.139" cy="44.9241" r="4" fill="#0" id="circle84"/>
	<circle cx="388.686" cy="963.261" r="4" fill="#0" id="circle85"/>
	<circle cx="396.871" cy="53.1089" r="4" fill="#0" id="circle86"/>
	<circle cx="401.782" cy="953.439" r="4" fill="#0" id="circle87"/>
	<circle cx="411.604" cy="44.9241" r="4" fill="#0" id="circle88"/>
	<circle cx="414.878" cy="938.706" r="4" fill="#0" id="circle89"/>
	<circle cx="426.337" cy="36.7393" r="4" fill="#0" id="circle90"/>
	<circle cx="427.974" cy="927.248" r="4" fill="#0" id="circle91"/>
	<circle cx="439.432" cy="914.152" r="4" fill="#0" id="circle92"/>
	<circle cx="442.706" cy="36.7393" r="4" fill="#0" id="circle93"/>
	<circle cx="452.528" cy="902.693" r="4" fill="#0" id="circle94"/>
	<circle cx="459.076" cy="36.7393" r="4" fill="#0" id="circle95"/>
	<circle cx="460.713" cy="886.323" r="4" fill="#0" id="circle96"/>
	<circle cx="472.172" cy="873.228" r="4" fill="#0" id="circle97"/>
	<circle cx="475.446" cy="36.7393" r="4" fill="#0" id="circle98"/>
	<circle cx="480.356" cy="856.858" r="4" fill="#0" id="circle99"/>
	<circle cx="488.541" cy="832.304" r="4" fill="#0" id="circle100"/>
	<circle cx="490.178" cy="44.9241" r="4" fill="#0" id="circle101"/>
	<circle cx="496.726" cy="750.455" r="4" fill="#0" id="circle102"/>
	<circle cx="496.726" cy="766.825" r="4" fill="#0" id="circle103"/>
	<circle cx="496.726" cy="783.195" r="4" fill="#0" id="circle104"/>
	<circle cx="496.726" cy="799.564" r="4" fill="#0" id="circle105"/>
	<circle cx="496.726" cy="815.934" r="4" fill="#0" id="circle106"/>
	<circle cx="504.911" cy="53.1089" r="4" fill="#0" id="circle107"/>
	<circle cx="504.911" cy="725.901" r="4" fill="#0" id="circle108"/>
	<circle cx="513.096" cy="709.531" r="4" fill="#0" id="circle109"/>
	<circle cx="518.007" cy="62.9307" r="4" fill="#0" id="circle110"/>
	<circle cx="521.281" cy="684.977" r="4" fill="#0" id="circle111"/>
	<circle cx="529.465" cy="76.0264" r="4" fill="#0" id="circle112"/>
	<circle cx="529.465" cy="668.607" r="4" fill="#0" id="circle113"/>
	<circle cx="537.65" cy="90.7591" r="4" fill="#0" id="circle114"/>
	<circle cx="537.65" cy="611.314" r="4" fill="#0" id="circle115"/>
	<circle cx="537.65" cy="627.683" r="4" fill="#0" id="circle116"/>
	<circle cx="537.65" cy="644.053" r="4" fill="#0" id="circle117"/>
	<circle cx="545.835" cy="105.492" r="4" fill="#0" id="circle118"/>
	<circle cx="554.02" cy="120.224" r="4" fill="#0" id="circle119"/>
	<circle cx="554.02" cy="603.129" r="4" fill="#0" id="circle120"/>
	<circle cx="562.205" cy="134.957" r="4" fill="#0" id="circle121"/>
	<circle cx="562.205" cy="151.327" r="4" fill="#0" id="circle122"/>
	<circle cx="562.205" cy="167.696" r="4" fill="#0" id="circle123"/>
	<circle cx="562.205" cy="184.066" r="4" fill="#0" id="circle124"/>
	<circle cx="562.205" cy="200.436" r="4" fill="#0" id="circle125"/>
	<circle cx="562.205" cy="216.805" r="4" fill="#0" id="circle126"/>
	<circle cx="562.205" cy="233.175" r="4" fill="#0" id="circle127"/>
	<circle cx="562.205" cy="249.545" r="4" fill="#0" id="circle128"/>
	<circle cx="562.205" cy="265.914" r="4" fill="#0" id="circle129"/>
	<circle cx="562.205" cy="282.284" r="4" fill="#0" id="circle130"/>
	<circle cx="562.205" cy="298.653" r="4" fill="#0" id="circle131"/>
	<circle cx="562.205" cy="315.023" r="4" fill="#0" id="circle132"/>
	<circle cx="562.205" cy="331.393" r="4" fill="#0" id="circle133"/>
	<circle cx="562.205" cy="347.762" r="4" fill="#0" id="circle134"/>
	<circle cx="562.205" cy="364.132" r="4" fill="#0" id="circle135"/>
	<circle cx="570.389" cy="378.865" r="4" fill="#0" id="circle136"/>
	<circle cx="570.389" cy="586.759" r="4" fill="#0" id="circle137"/>
	<circle cx="578.574" cy="393.597" r="4" fill="#0" id="circle138"/>
	<circle cx="578.574" cy="562.205" r="4" fill="#0" id="circle139"/>
	<circle cx="586.759" cy="455.802" r="4" fill="#0" id="circle140"/>
	<circle cx="586.759" cy="472.172" r="4" fill="#0" id="circle141"/>
	<circle cx="586.759" cy="488.541" r="4" fill="#0" id="circle142"/>
	<circle cx="586.759" cy="504.911" r="4" fill="#0" id="circle143"/>
	<circle cx="586.759" cy="521.281" r="4" fill="#0" id="circle144"/>
	<circle cx="586.759" cy="537.65" r="4" fill="#0" id="circle145"/>
	<circle cx="590.033" cy="406.693" r="4" fill="#0" id="circle146"/>
	<circle cx="594.944" cy="423.063" r="4" fill="#0" id="circle147"/>
	<circle cx="594.944" cy="439.432" r="4" fill="#0" id="circle148"/>
	</g>
</svg>