<?xml version="1.0" encoding="UTF-8" standalone="no"?>
<!-- Created with CurveBenchmark -->
<svg
	xmlns:dc="http://purl.org/dc/elements/1.1/"
	xmlns:cc="http://creativecommons.org/ns#"
	xmlns:rdf="http://www.w3.org/1999/02/22-rdf-syntax-ns#"
	xmlns:svg="http://www.w3.org/2000/svg"
	xmlns="http://www.w3.org/2000/svg"
	xmlns:sodipodi="http://sodipodi.sourceforge.net/DTD/sodipodi-0.dtd"
	xmlns:inkscape="http://www.inkscape.org/namespaces/inkscape"
	width="1000"
	height="1000"
	id="svg2"
	version="1.1"
	sodipodi:docname="manifold/connect2d-bird43.png.txt">
<defs
	id="defs4" />
<metadata
	id="metadata7">
	<rdf:RDF>
		<cc:Work
			rdf:about="">
			<dc:format>image/svg+xml</dc:format>
			<dc:type
				rdf:resource="http://purl.org/dc/dcmitype/StillImage" />
			<dc:title></dc:title>
		</cc:Work>
	</rdf:RDF>
</metadata>
<g
	inkscape:label="Layer 1"
	inkscape:groupmode="layer"
	id="layer1">
	<path style="fill:none;stroke:red;stroke-width:1px;stroke-linecap:butt;stroke-linejoin:miter;stroke-opacity:1" d="M 992.063,602.349 996,615.471 z" id="boundary" inkscape:connector-curvature="0" />
	<path style="fill:none;stroke:red;stroke-width:1px;stroke-linecap:butt;stroke-linejoin:miter;stroke-opacity:1" d="M 996,615.471 986.815,635.153 z" id="boundary" inkscape:connector-curvature="0" />
	<path style="fill:none;stroke:red;stroke-width:1px;stroke-linecap:butt;stroke-linejoin:miter;stroke-opacity:1" d="M 986.815,635.153 975.005,641.714 z" id="boundary" inkscape:connector-curvature="0" />
	<path style="fill:none;stroke:red;stroke-width:1px;stroke-linecap:butt;stroke-linejoin:miter;stroke-opacity:1" d="M 975.005,641.714 963.196,635.153 z" id="boundary" inkscape:connector-curvature="0" />
	<path style="fill:none;stroke:red;stroke-width:1px;stroke-linecap:butt;stroke-linejoin:miter;stroke-opacity:1" d="M 963.196,635.153 954.011,645.651 z" id="boundary" inkscape:connector-curvature="0" />
	<path style="fill:none;stroke:red;stroke-width:1px;stroke-linecap:butt;stroke-linejoin:miter;stroke-opacity:1" d="M 954.011,645.651 943.513,654.836 z" id="boundary" inkscape:connector-curvature="0" />
	<path style="fill:none;stroke:red;stroke-width:1px;stroke-linecap:butt;stroke-linejoin:miter;stroke-opacity:1" d="M 943.513,654.836 930.392,654.836 z" id="boundary" inkscape:connector-curvature="0" />
	<path style="fill:none;stroke:red;stroke-width:1px;stroke-linecap:butt;stroke-linejoin:miter;stroke-opacity:1" d="M 930.392,654.836 917.27,654.836 z" id="boundary" inkscape:connector-curvature="0" />
	<path style="fill:none;stroke:red;stroke-width:1px;stroke-linecap:butt;stroke-linejoin:miter;stroke-opacity:1" d="M 917.27,654.836 908.085,667.958 z" id="boundary" inkscape:connector-curvature="0" />
	<path style="fill:none;stroke:red;stroke-width:1px;stroke-linecap:butt;stroke-linejoin:miter;stroke-opacity:1" d="M 908.085,667.958 894.963,667.958 z" id="boundary" inkscape:connector-curvature="0" />
	<path style="fill:none;stroke:red;stroke-width:1px;stroke-linecap:butt;stroke-linejoin:miter;stroke-opacity:1" d="M 894.963,667.958 883.153,661.397 z" id="boundary" inkscape:connector-curvature="0" />
	<path style="fill:none;stroke:red;stroke-width:1px;stroke-linecap:butt;stroke-linejoin:miter;stroke-opacity:1" d="M 883.153,661.397 870.032,661.397 z" id="boundary" inkscape:connector-curvature="0" />
	<path style="fill:none;stroke:red;stroke-width:1px;stroke-linecap:butt;stroke-linejoin:miter;stroke-opacity:1" d="M 870.032,661.397 856.91,657.46 z" id="boundary" inkscape:connector-curvature="0" />
	<path style="fill:none;stroke:red;stroke-width:1px;stroke-linecap:butt;stroke-linejoin:miter;stroke-opacity:1" d="M 856.91,657.46 845.101,650.899 z" id="boundary" inkscape:connector-curvature="0" />
	<path style="fill:none;stroke:red;stroke-width:1px;stroke-linecap:butt;stroke-linejoin:miter;stroke-opacity:1" d="M 845.101,650.899 831.979,645.651 z" id="boundary" inkscape:connector-curvature="0" />
	<path style="fill:none;stroke:red;stroke-width:1px;stroke-linecap:butt;stroke-linejoin:miter;stroke-opacity:1" d="M 831.979,645.651 820.169,639.09 z" id="boundary" inkscape:connector-curvature="0" />
	<path style="fill:none;stroke:red;stroke-width:1px;stroke-linecap:butt;stroke-linejoin:miter;stroke-opacity:1" d="M 820.169,639.09 807.048,633.841 z" id="boundary" inkscape:connector-curvature="0" />
	<path style="fill:none;stroke:red;stroke-width:1px;stroke-linecap:butt;stroke-linejoin:miter;stroke-opacity:1" d="M 807.048,633.841 795.238,627.28 z" id="boundary" inkscape:connector-curvature="0" />
	<path style="fill:none;stroke:red;stroke-width:1px;stroke-linecap:butt;stroke-linejoin:miter;stroke-opacity:1" d="M 795.238,627.28 782.116,622.032 z" id="boundary" inkscape:connector-curvature="0" />
	<path style="fill:none;stroke:red;stroke-width:1px;stroke-linecap:butt;stroke-linejoin:miter;stroke-opacity:1" d="M 782.116,622.032 770.307,615.471 z" id="boundary" inkscape:connector-curvature="0" />
	<path style="fill:none;stroke:red;stroke-width:1px;stroke-linecap:butt;stroke-linejoin:miter;stroke-opacity:1" d="M 770.307,615.471 758.497,608.91 z" id="boundary" inkscape:connector-curvature="0" />
	<path style="fill:none;stroke:red;stroke-width:1px;stroke-linecap:butt;stroke-linejoin:miter;stroke-opacity:1" d="M 758.497,608.91 746.688,602.349 z" id="boundary" inkscape:connector-curvature="0" />
	<path style="fill:none;stroke:red;stroke-width:1px;stroke-linecap:butt;stroke-linejoin:miter;stroke-opacity:1" d="M 746.688,602.349 734.878,595.788 z" id="boundary" inkscape:connector-curvature="0" />
	<path style="fill:none;stroke:red;stroke-width:1px;stroke-linecap:butt;stroke-linejoin:miter;stroke-opacity:1" d="M 734.878,595.788 723.069,589.228 z" id="boundary" inkscape:connector-curvature="0" />
	<path style="fill:none;stroke:red;stroke-width:1px;stroke-linecap:butt;stroke-linejoin:miter;stroke-opacity:1" d="M 723.069,589.228 711.259,582.667 z" id="boundary" inkscape:connector-curvature="0" />
	<path style="fill:none;stroke:red;stroke-width:1px;stroke-linecap:butt;stroke-linejoin:miter;stroke-opacity:1" d="M 711.259,582.667 699.45,576.106 z" id="boundary" inkscape:connector-curvature="0" />
	<path style="fill:none;stroke:red;stroke-width:1px;stroke-linecap:butt;stroke-linejoin:miter;stroke-opacity:1" d="M 699.45,576.106 687.64,569.545 z" id="boundary" inkscape:connector-curvature="0" />
	<path style="fill:none;stroke:red;stroke-width:1px;stroke-linecap:butt;stroke-linejoin:miter;stroke-opacity:1" d="M 687.64,569.545 675.831,562.984 z" id="boundary" inkscape:connector-curvature="0" />
	<path style="fill:none;stroke:red;stroke-width:1px;stroke-linecap:butt;stroke-linejoin:miter;stroke-opacity:1" d="M 675.831,562.984 664.021,556.423 z" id="boundary" inkscape:connector-curvature="0" />
	<path style="fill:none;stroke:red;stroke-width:1px;stroke-linecap:butt;stroke-linejoin:miter;stroke-opacity:1" d="M 664.021,556.423 652.212,549.862 z" id="boundary" inkscape:connector-curvature="0" />
	<path style="fill:none;stroke:red;stroke-width:1px;stroke-linecap:butt;stroke-linejoin:miter;stroke-opacity:1" d="M 652.212,549.862 640.402,543.302 z" id="boundary" inkscape:connector-curvature="0" />
	<path style="fill:none;stroke:red;stroke-width:1px;stroke-linecap:butt;stroke-linejoin:miter;stroke-opacity:1" d="M 640.402,543.302 629.905,534.116 z" id="boundary" inkscape:connector-curvature="0" />
	<path style="fill:none;stroke:red;stroke-width:1px;stroke-linecap:butt;stroke-linejoin:miter;stroke-opacity:1" d="M 629.905,534.116 616.783,528.868 z" id="boundary" inkscape:connector-curvature="0" />
	<path style="fill:none;stroke:red;stroke-width:1px;stroke-linecap:butt;stroke-linejoin:miter;stroke-opacity:1" d="M 616.783,528.868 607.598,518.37 z" id="boundary" inkscape:connector-curvature="0" />
	<path style="fill:none;stroke:red;stroke-width:1px;stroke-linecap:butt;stroke-linejoin:miter;stroke-opacity:1" d="M 607.598,518.37 597.101,510.497 z" id="boundary" inkscape:connector-curvature="0" />
	<path style="fill:none;stroke:red;stroke-width:1px;stroke-linecap:butt;stroke-linejoin:miter;stroke-opacity:1" d="M 597.101,510.497 585.291,503.937 z" id="boundary" inkscape:connector-curvature="0" />
	<path style="fill:none;stroke:red;stroke-width:1px;stroke-linecap:butt;stroke-linejoin:miter;stroke-opacity:1" d="M 585.291,503.937 576.106,493.439 z" id="boundary" inkscape:connector-curvature="0" />
	<path style="fill:none;stroke:red;stroke-width:1px;stroke-linecap:butt;stroke-linejoin:miter;stroke-opacity:1" d="M 576.106,493.439 562.984,488.19 z" id="boundary" inkscape:connector-curvature="0" />
	<path style="fill:none;stroke:red;stroke-width:1px;stroke-linecap:butt;stroke-linejoin:miter;stroke-opacity:1" d="M 562.984,488.19 553.799,477.693 z" id="boundary" inkscape:connector-curvature="0" />
	<path style="fill:none;stroke:red;stroke-width:1px;stroke-linecap:butt;stroke-linejoin:miter;stroke-opacity:1" d="M 553.799,477.693 541.989,471.132 z" id="boundary" inkscape:connector-curvature="0" />
	<path style="fill:none;stroke:red;stroke-width:1px;stroke-linecap:butt;stroke-linejoin:miter;stroke-opacity:1" d="M 541.989,471.132 531.492,463.259 z" id="boundary" inkscape:connector-curvature="0" />
	<path style="fill:none;stroke:red;stroke-width:1px;stroke-linecap:butt;stroke-linejoin:miter;stroke-opacity:1" d="M 531.492,463.259 522.307,452.762 z" id="boundary" inkscape:connector-curvature="0" />
	<path style="fill:none;stroke:red;stroke-width:1px;stroke-linecap:butt;stroke-linejoin:miter;stroke-opacity:1" d="M 522.307,452.762 511.81,444.889 z" id="boundary" inkscape:connector-curvature="0" />
	<path style="fill:none;stroke:red;stroke-width:1px;stroke-linecap:butt;stroke-linejoin:miter;stroke-opacity:1" d="M 511.81,444.889 500,438.328 z" id="boundary" inkscape:connector-curvature="0" />
	<path style="fill:none;stroke:red;stroke-width:1px;stroke-linecap:butt;stroke-linejoin:miter;stroke-opacity:1" d="M 500,438.328 488.19,431.767 z" id="boundary" inkscape:connector-curvature="0" />
	<path style="fill:none;stroke:red;stroke-width:1px;stroke-linecap:butt;stroke-linejoin:miter;stroke-opacity:1" d="M 488.19,431.767 475.069,431.767 z" id="boundary" inkscape:connector-curvature="0" />
	<path style="fill:none;stroke:red;stroke-width:1px;stroke-linecap:butt;stroke-linejoin:miter;stroke-opacity:1" d="M 475.069,431.767 463.259,438.328 z" id="boundary" inkscape:connector-curvature="0" />
	<path style="fill:none;stroke:red;stroke-width:1px;stroke-linecap:butt;stroke-linejoin:miter;stroke-opacity:1" d="M 463.259,438.328 450.138,438.328 z" id="boundary" inkscape:connector-curvature="0" />
	<path style="fill:none;stroke:red;stroke-width:1px;stroke-linecap:butt;stroke-linejoin:miter;stroke-opacity:1" d="M 450.138,438.328 437.016,438.328 z" id="boundary" inkscape:connector-curvature="0" />
	<path style="fill:none;stroke:red;stroke-width:1px;stroke-linecap:butt;stroke-linejoin:miter;stroke-opacity:1" d="M 437.016,438.328 423.894,438.328 z" id="boundary" inkscape:connector-curvature="0" />
	<path style="fill:none;stroke:red;stroke-width:1px;stroke-linecap:butt;stroke-linejoin:miter;stroke-opacity:1" d="M 423.894,438.328 410.772,438.328 z" id="boundary" inkscape:connector-curvature="0" />
	<path style="fill:none;stroke:red;stroke-width:1px;stroke-linecap:butt;stroke-linejoin:miter;stroke-opacity:1" d="M 410.772,438.328 397.651,438.328 z" id="boundary" inkscape:connector-curvature="0" />
	<path style="fill:none;stroke:red;stroke-width:1px;stroke-linecap:butt;stroke-linejoin:miter;stroke-opacity:1" d="M 397.651,438.328 384.529,438.328 z" id="boundary" inkscape:connector-curvature="0" />
	<path style="fill:none;stroke:red;stroke-width:1px;stroke-linecap:butt;stroke-linejoin:miter;stroke-opacity:1" d="M 384.529,438.328 372.72,431.767 z" id="boundary" inkscape:connector-curvature="0" />
	<path style="fill:none;stroke:red;stroke-width:1px;stroke-linecap:butt;stroke-linejoin:miter;stroke-opacity:1" d="M 372.72,431.767 359.598,438.328 z" id="boundary" inkscape:connector-curvature="0" />
	<path style="fill:none;stroke:red;stroke-width:1px;stroke-linecap:butt;stroke-linejoin:miter;stroke-opacity:1" d="M 359.598,438.328 359.598,451.45 z" id="boundary" inkscape:connector-curvature="0" />
	<path style="fill:none;stroke:red;stroke-width:1px;stroke-linecap:butt;stroke-linejoin:miter;stroke-opacity:1" d="M 359.598,451.45 356.974,468.508 z" id="boundary" inkscape:connector-curvature="0" />
	<path style="fill:none;stroke:red;stroke-width:1px;stroke-linecap:butt;stroke-linejoin:miter;stroke-opacity:1" d="M 356.974,468.508 346.476,477.693 z" id="boundary" inkscape:connector-curvature="0" />
	<path style="fill:none;stroke:red;stroke-width:1px;stroke-linecap:butt;stroke-linejoin:miter;stroke-opacity:1" d="M 346.476,477.693 337.291,494.751 z" id="boundary" inkscape:connector-curvature="0" />
	<path style="fill:none;stroke:red;stroke-width:1px;stroke-linecap:butt;stroke-linejoin:miter;stroke-opacity:1" d="M 337.291,494.751 330.73,507.873 z" id="boundary" inkscape:connector-curvature="0" />
	<path style="fill:none;stroke:red;stroke-width:1px;stroke-linecap:butt;stroke-linejoin:miter;stroke-opacity:1" d="M 330.73,507.873 320.233,517.058 z" id="boundary" inkscape:connector-curvature="0" />
	<path style="fill:none;stroke:red;stroke-width:1px;stroke-linecap:butt;stroke-linejoin:miter;stroke-opacity:1" d="M 320.233,517.058 317.608,534.116 z" id="boundary" inkscape:connector-curvature="0" />
	<path style="fill:none;stroke:red;stroke-width:1px;stroke-linecap:butt;stroke-linejoin:miter;stroke-opacity:1" d="M 317.608,534.116 307.111,543.302 z" id="boundary" inkscape:connector-curvature="0" />
	<path style="fill:none;stroke:red;stroke-width:1px;stroke-linecap:butt;stroke-linejoin:miter;stroke-opacity:1" d="M 307.111,543.302 303.175,568.233 z" id="boundary" inkscape:connector-curvature="0" />
	<path style="fill:none;stroke:red;stroke-width:1px;stroke-linecap:butt;stroke-linejoin:miter;stroke-opacity:1" d="M 303.175,568.233 292.677,576.106 z" id="boundary" inkscape:connector-curvature="0" />
	<path style="fill:none;stroke:red;stroke-width:1px;stroke-linecap:butt;stroke-linejoin:miter;stroke-opacity:1" d="M 292.677,576.106 279.556,576.106 z" id="boundary" inkscape:connector-curvature="0" />
	<path style="fill:none;stroke:red;stroke-width:1px;stroke-linecap:butt;stroke-linejoin:miter;stroke-opacity:1" d="M 279.556,576.106 266.434,570.857 z" id="boundary" inkscape:connector-curvature="0" />
	<path style="fill:none;stroke:red;stroke-width:1px;stroke-linecap:butt;stroke-linejoin:miter;stroke-opacity:1" d="M 266.434,570.857 259.873,559.048 z" id="boundary" inkscape:connector-curvature="0" />
	<path style="fill:none;stroke:red;stroke-width:1px;stroke-linecap:butt;stroke-linejoin:miter;stroke-opacity:1" d="M 259.873,559.048 270.37,548.55 z" id="boundary" inkscape:connector-curvature="0" />
	<path style="fill:none;stroke:red;stroke-width:1px;stroke-linecap:butt;stroke-linejoin:miter;stroke-opacity:1" d="M 270.37,548.55 283.492,541.989 z" id="boundary" inkscape:connector-curvature="0" />
	<path style="fill:none;stroke:red;stroke-width:1px;stroke-linecap:butt;stroke-linejoin:miter;stroke-opacity:1" d="M 283.492,541.989 293.989,531.492 z" id="boundary" inkscape:connector-curvature="0" />
	<path style="fill:none;stroke:red;stroke-width:1px;stroke-linecap:butt;stroke-linejoin:miter;stroke-opacity:1" d="M 293.989,531.492 304.487,522.307 z" id="boundary" inkscape:connector-curvature="0" />
	<path style="fill:none;stroke:red;stroke-width:1px;stroke-linecap:butt;stroke-linejoin:miter;stroke-opacity:1" d="M 304.487,522.307 309.735,509.185 z" id="boundary" inkscape:connector-curvature="0" />
	<path style="fill:none;stroke:red;stroke-width:1px;stroke-linecap:butt;stroke-linejoin:miter;stroke-opacity:1" d="M 309.735,509.185 318.921,493.439 z" id="boundary" inkscape:connector-curvature="0" />
	<path style="fill:none;stroke:red;stroke-width:1px;stroke-linecap:butt;stroke-linejoin:miter;stroke-opacity:1" d="M 318.921,493.439 329.418,482.942 z" id="boundary" inkscape:connector-curvature="0" />
	<path style="fill:none;stroke:red;stroke-width:1px;stroke-linecap:butt;stroke-linejoin:miter;stroke-opacity:1" d="M 329.418,482.942 335.979,469.82 z" id="boundary" inkscape:connector-curvature="0" />
	<path style="fill:none;stroke:red;stroke-width:1px;stroke-linecap:butt;stroke-linejoin:miter;stroke-opacity:1" d="M 335.979,469.82 338.603,451.45 z" id="boundary" inkscape:connector-curvature="0" />
	<path style="fill:none;stroke:red;stroke-width:1px;stroke-linecap:butt;stroke-linejoin:miter;stroke-opacity:1" d="M 338.603,451.45 337.291,438.328 z" id="boundary" inkscape:connector-curvature="0" />
	<path style="fill:none;stroke:red;stroke-width:1px;stroke-linecap:butt;stroke-linejoin:miter;stroke-opacity:1" d="M 337.291,438.328 325.481,431.767 z" id="boundary" inkscape:connector-curvature="0" />
	<path style="fill:none;stroke:red;stroke-width:1px;stroke-linecap:butt;stroke-linejoin:miter;stroke-opacity:1" d="M 325.481,431.767 313.672,425.206 z" id="boundary" inkscape:connector-curvature="0" />
	<path style="fill:none;stroke:red;stroke-width:1px;stroke-linecap:butt;stroke-linejoin:miter;stroke-opacity:1" d="M 313.672,425.206 300.55,425.206 z" id="boundary" inkscape:connector-curvature="0" />
	<path style="fill:none;stroke:red;stroke-width:1px;stroke-linecap:butt;stroke-linejoin:miter;stroke-opacity:1" d="M 300.55,425.206 287.429,425.206 z" id="boundary" inkscape:connector-curvature="0" />
	<path style="fill:none;stroke:red;stroke-width:1px;stroke-linecap:butt;stroke-linejoin:miter;stroke-opacity:1" d="M 287.429,425.206 287.429,438.328 z" id="boundary" inkscape:connector-curvature="0" />
	<path style="fill:none;stroke:red;stroke-width:1px;stroke-linecap:butt;stroke-linejoin:miter;stroke-opacity:1" d="M 287.429,438.328 276.931,456.698 z" id="boundary" inkscape:connector-curvature="0" />
	<path style="fill:none;stroke:red;stroke-width:1px;stroke-linecap:butt;stroke-linejoin:miter;stroke-opacity:1" d="M 276.931,456.698 263.81,463.259 z" id="boundary" inkscape:connector-curvature="0" />
	<path style="fill:none;stroke:red;stroke-width:1px;stroke-linecap:butt;stroke-linejoin:miter;stroke-opacity:1" d="M 263.81,463.259 253.312,471.132 z" id="boundary" inkscape:connector-curvature="0" />
	<path style="fill:none;stroke:red;stroke-width:1px;stroke-linecap:butt;stroke-linejoin:miter;stroke-opacity:1" d="M 253.312,471.132 241.503,477.693 z" id="boundary" inkscape:connector-curvature="0" />
	<path style="fill:none;stroke:red;stroke-width:1px;stroke-linecap:butt;stroke-linejoin:miter;stroke-opacity:1" d="M 241.503,477.693 228.381,477.693 z" id="boundary" inkscape:connector-curvature="0" />
	<path style="fill:none;stroke:red;stroke-width:1px;stroke-linecap:butt;stroke-linejoin:miter;stroke-opacity:1" d="M 228.381,477.693 215.259,477.693 z" id="boundary" inkscape:connector-curvature="0" />
	<path style="fill:none;stroke:red;stroke-width:1px;stroke-linecap:butt;stroke-linejoin:miter;stroke-opacity:1" d="M 215.259,477.693 204.762,489.503 z" id="boundary" inkscape:connector-curvature="0" />
	<path style="fill:none;stroke:red;stroke-width:1px;stroke-linecap:butt;stroke-linejoin:miter;stroke-opacity:1" d="M 204.762,489.503 198.201,502.624 z" id="boundary" inkscape:connector-curvature="0" />
	<path style="fill:none;stroke:red;stroke-width:1px;stroke-linecap:butt;stroke-linejoin:miter;stroke-opacity:1" d="M 198.201,502.624 186.392,510.497 z" id="boundary" inkscape:connector-curvature="0" />
	<path style="fill:none;stroke:red;stroke-width:1px;stroke-linecap:butt;stroke-linejoin:miter;stroke-opacity:1" d="M 186.392,510.497 174.582,503.937 z" id="boundary" inkscape:connector-curvature="0" />
	<path style="fill:none;stroke:red;stroke-width:1px;stroke-linecap:butt;stroke-linejoin:miter;stroke-opacity:1" d="M 174.582,503.937 161.46,500 z" id="boundary" inkscape:connector-curvature="0" />
	<path style="fill:none;stroke:red;stroke-width:1px;stroke-linecap:butt;stroke-linejoin:miter;stroke-opacity:1" d="M 161.46,500 161.46,486.878 z" id="boundary" inkscape:connector-curvature="0" />
	<path style="fill:none;stroke:red;stroke-width:1px;stroke-linecap:butt;stroke-linejoin:miter;stroke-opacity:1" d="M 161.46,486.878 174.582,480.317 z" id="boundary" inkscape:connector-curvature="0" />
	<path style="fill:none;stroke:red;stroke-width:1px;stroke-linecap:butt;stroke-linejoin:miter;stroke-opacity:1" d="M 174.582,480.317 185.079,469.82 z" id="boundary" inkscape:connector-curvature="0" />
	<path style="fill:none;stroke:red;stroke-width:1px;stroke-linecap:butt;stroke-linejoin:miter;stroke-opacity:1" d="M 185.079,469.82 198.201,463.259 z" id="boundary" inkscape:connector-curvature="0" />
	<path style="fill:none;stroke:red;stroke-width:1px;stroke-linecap:butt;stroke-linejoin:miter;stroke-opacity:1" d="M 198.201,463.259 211.323,463.259 z" id="boundary" inkscape:connector-curvature="0" />
	<path style="fill:none;stroke:red;stroke-width:1px;stroke-linecap:butt;stroke-linejoin:miter;stroke-opacity:1" d="M 211.323,463.259 224.444,463.259 z" id="boundary" inkscape:connector-curvature="0" />
	<path style="fill:none;stroke:red;stroke-width:1px;stroke-linecap:butt;stroke-linejoin:miter;stroke-opacity:1" d="M 224.444,463.259 236.254,456.698 z" id="boundary" inkscape:connector-curvature="0" />
	<path style="fill:none;stroke:red;stroke-width:1px;stroke-linecap:butt;stroke-linejoin:miter;stroke-opacity:1" d="M 236.254,456.698 249.376,451.45 z" id="boundary" inkscape:connector-curvature="0" />
	<path style="fill:none;stroke:red;stroke-width:1px;stroke-linecap:butt;stroke-linejoin:miter;stroke-opacity:1" d="M 249.376,451.45 252,431.767 z" id="boundary" inkscape:connector-curvature="0" />
	<path style="fill:none;stroke:red;stroke-width:1px;stroke-linecap:butt;stroke-linejoin:miter;stroke-opacity:1" d="M 252,431.767 241.503,422.582 z" id="boundary" inkscape:connector-curvature="0" />
	<path style="fill:none;stroke:red;stroke-width:1px;stroke-linecap:butt;stroke-linejoin:miter;stroke-opacity:1" d="M 241.503,422.582 232.317,412.085 z" id="boundary" inkscape:connector-curvature="0" />
	<path style="fill:none;stroke:red;stroke-width:1px;stroke-linecap:butt;stroke-linejoin:miter;stroke-opacity:1" d="M 232.317,412.085 221.82,402.899 z" id="boundary" inkscape:connector-curvature="0" />
	<path style="fill:none;stroke:red;stroke-width:1px;stroke-linecap:butt;stroke-linejoin:miter;stroke-opacity:1" d="M 221.82,402.899 213.947,392.402 z" id="boundary" inkscape:connector-curvature="0" />
	<path style="fill:none;stroke:red;stroke-width:1px;stroke-linecap:butt;stroke-linejoin:miter;stroke-opacity:1" d="M 213.947,392.402 200.825,388.466 z" id="boundary" inkscape:connector-curvature="0" />
	<path style="fill:none;stroke:red;stroke-width:1px;stroke-linecap:butt;stroke-linejoin:miter;stroke-opacity:1" d="M 200.825,388.466 191.64,377.968 z" id="boundary" inkscape:connector-curvature="0" />
	<path style="fill:none;stroke:red;stroke-width:1px;stroke-linecap:butt;stroke-linejoin:miter;stroke-opacity:1" d="M 191.64,377.968 181.143,368.783 z" id="boundary" inkscape:connector-curvature="0" />
	<path style="fill:none;stroke:red;stroke-width:1px;stroke-linecap:butt;stroke-linejoin:miter;stroke-opacity:1" d="M 181.143,368.783 169.333,362.222 z" id="boundary" inkscape:connector-curvature="0" />
	<path style="fill:none;stroke:red;stroke-width:1px;stroke-linecap:butt;stroke-linejoin:miter;stroke-opacity:1" d="M 169.333,362.222 156.212,356.974 z" id="boundary" inkscape:connector-curvature="0" />
	<path style="fill:none;stroke:red;stroke-width:1px;stroke-linecap:butt;stroke-linejoin:miter;stroke-opacity:1" d="M 156.212,356.974 148.339,346.476 z" id="boundary" inkscape:connector-curvature="0" />
	<path style="fill:none;stroke:red;stroke-width:1px;stroke-linecap:butt;stroke-linejoin:miter;stroke-opacity:1" d="M 148.339,346.476 137.841,337.291 z" id="boundary" inkscape:connector-curvature="0" />
	<path style="fill:none;stroke:red;stroke-width:1px;stroke-linecap:butt;stroke-linejoin:miter;stroke-opacity:1" d="M 137.841,337.291 131.28,325.481 z" id="boundary" inkscape:connector-curvature="0" />
	<path style="fill:none;stroke:red;stroke-width:1px;stroke-linecap:butt;stroke-linejoin:miter;stroke-opacity:1" d="M 131.28,325.481 122.095,314.984 z" id="boundary" inkscape:connector-curvature="0" />
	<path style="fill:none;stroke:red;stroke-width:1px;stroke-linecap:butt;stroke-linejoin:miter;stroke-opacity:1" d="M 122.095,314.984 115.534,303.175 z" id="boundary" inkscape:connector-curvature="0" />
	<path style="fill:none;stroke:red;stroke-width:1px;stroke-linecap:butt;stroke-linejoin:miter;stroke-opacity:1" d="M 115.534,303.175 108.974,291.365 z" id="boundary" inkscape:connector-curvature="0" />
	<path style="fill:none;stroke:red;stroke-width:1px;stroke-linecap:butt;stroke-linejoin:miter;stroke-opacity:1" d="M 108.974,291.365 102.413,279.556 z" id="boundary" inkscape:connector-curvature="0" />
	<path style="fill:none;stroke:red;stroke-width:1px;stroke-linecap:butt;stroke-linejoin:miter;stroke-opacity:1" d="M 102.413,279.556 99.7884,266.434 z" id="boundary" inkscape:connector-curvature="0" />
	<path style="fill:none;stroke:red;stroke-width:1px;stroke-linecap:butt;stroke-linejoin:miter;stroke-opacity:1" d="M 99.7884,266.434 93.2275,254.624 z" id="boundary" inkscape:connector-curvature="0" />
	<path style="fill:none;stroke:red;stroke-width:1px;stroke-linecap:butt;stroke-linejoin:miter;stroke-opacity:1" d="M 93.2275,254.624 89.291,241.503 z" id="boundary" inkscape:connector-curvature="0" />
	<path style="fill:none;stroke:red;stroke-width:1px;stroke-linecap:butt;stroke-linejoin:miter;stroke-opacity:1" d="M 89.291,241.503 86.6667,228.381 z" id="boundary" inkscape:connector-curvature="0" />
	<path style="fill:none;stroke:red;stroke-width:1px;stroke-linecap:butt;stroke-linejoin:miter;stroke-opacity:1" d="M 86.6667,228.381 82.7302,215.259 z" id="boundary" inkscape:connector-curvature="0" />
	<path style="fill:none;stroke:red;stroke-width:1px;stroke-linecap:butt;stroke-linejoin:miter;stroke-opacity:1" d="M 82.7302,215.259 82.7302,202.138 z" id="boundary" inkscape:connector-curvature="0" />
	<path style="fill:none;stroke:red;stroke-width:1px;stroke-linecap:butt;stroke-linejoin:miter;stroke-opacity:1" d="M 82.7302,202.138 82.7302,189.016 z" id="boundary" inkscape:connector-curvature="0" />
	<path style="fill:none;stroke:red;stroke-width:1px;stroke-linecap:butt;stroke-linejoin:miter;stroke-opacity:1" d="M 82.7302,189.016 82.7302,175.894 z" id="boundary" inkscape:connector-curvature="0" />
	<path style="fill:none;stroke:red;stroke-width:1px;stroke-linecap:butt;stroke-linejoin:miter;stroke-opacity:1" d="M 82.7302,175.894 82.7302,162.772 z" id="boundary" inkscape:connector-curvature="0" />
	<path style="fill:none;stroke:red;stroke-width:1px;stroke-linecap:butt;stroke-linejoin:miter;stroke-opacity:1" d="M 82.7302,162.772 82.7302,149.651 z" id="boundary" inkscape:connector-curvature="0" />
	<path style="fill:none;stroke:red;stroke-width:1px;stroke-linecap:butt;stroke-linejoin:miter;stroke-opacity:1" d="M 82.7302,149.651 82.7302,136.529 z" id="boundary" inkscape:connector-curvature="0" />
	<path style="fill:none;stroke:red;stroke-width:1px;stroke-linecap:butt;stroke-linejoin:miter;stroke-opacity:1" d="M 82.7302,136.529 76.1693,124.72 z" id="boundary" inkscape:connector-curvature="0" />
	<path style="fill:none;stroke:red;stroke-width:1px;stroke-linecap:butt;stroke-linejoin:miter;stroke-opacity:1" d="M 76.1693,124.72 69.6085,112.91 z" id="boundary" inkscape:connector-curvature="0" />
	<path style="fill:none;stroke:red;stroke-width:1px;stroke-linecap:butt;stroke-linejoin:miter;stroke-opacity:1" d="M 69.6085,112.91 63.0476,101.101 z" id="boundary" inkscape:connector-curvature="0" />
	<path style="fill:none;stroke:red;stroke-width:1px;stroke-linecap:butt;stroke-linejoin:miter;stroke-opacity:1" d="M 63.0476,101.101 53.8624,90.6032 z" id="boundary" inkscape:connector-curvature="0" />
	<path style="fill:none;stroke:red;stroke-width:1px;stroke-linecap:butt;stroke-linejoin:miter;stroke-opacity:1" d="M 53.8624,90.6032 44.6772,80.1058 z" id="boundary" inkscape:connector-curvature="0" />
	<path style="fill:none;stroke:red;stroke-width:1px;stroke-linecap:butt;stroke-linejoin:miter;stroke-opacity:1" d="M 44.6772,80.1058 34.1799,70.9206 z" id="boundary" inkscape:connector-curvature="0" />
	<path style="fill:none;stroke:red;stroke-width:1px;stroke-linecap:butt;stroke-linejoin:miter;stroke-opacity:1" d="M 34.1799,70.9206 24.9947,60.4233 z" id="boundary" inkscape:connector-curvature="0" />
	<path style="fill:none;stroke:red;stroke-width:1px;stroke-linecap:butt;stroke-linejoin:miter;stroke-opacity:1" d="M 24.9947,60.4233 11.873,57.7989 z" id="boundary" inkscape:connector-curvature="0" />
	<path style="fill:none;stroke:red;stroke-width:1px;stroke-linecap:butt;stroke-linejoin:miter;stroke-opacity:1" d="M 11.873,57.7989 4,47.3016 z" id="boundary" inkscape:connector-curvature="0" />
	<path style="fill:none;stroke:red;stroke-width:1px;stroke-linecap:butt;stroke-linejoin:miter;stroke-opacity:1" d="M 4,47.3016 14.4974,36.8042 z" id="boundary" inkscape:connector-curvature="0" />
	<path style="fill:none;stroke:red;stroke-width:1px;stroke-linecap:butt;stroke-linejoin:miter;stroke-opacity:1" d="M 14.4974,36.8042 26.3069,30.2434 z" id="boundary" inkscape:connector-curvature="0" />
	<path style="fill:none;stroke:red;stroke-width:1px;stroke-linecap:butt;stroke-linejoin:miter;stroke-opacity:1" d="M 26.3069,30.2434 36.8042,21.0582 z" id="boundary" inkscape:connector-curvature="0" />
	<path style="fill:none;stroke:red;stroke-width:1px;stroke-linecap:butt;stroke-linejoin:miter;stroke-opacity:1" d="M 36.8042,21.0582 49.9259,14.4974 z" id="boundary" inkscape:connector-curvature="0" />
	<path style="fill:none;stroke:red;stroke-width:1px;stroke-linecap:butt;stroke-linejoin:miter;stroke-opacity:1" d="M 49.9259,14.4974 60.4233,4 z" id="boundary" inkscape:connector-curvature="0" />
	<path style="fill:none;stroke:red;stroke-width:1px;stroke-linecap:butt;stroke-linejoin:miter;stroke-opacity:1" d="M 60.4233,4 73.545,4 z" id="boundary" inkscape:connector-curvature="0" />
	<path style="fill:none;stroke:red;stroke-width:1px;stroke-linecap:butt;stroke-linejoin:miter;stroke-opacity:1" d="M 73.545,4 86.6667,4 z" id="boundary" inkscape:connector-curvature="0" />
	<path style="fill:none;stroke:red;stroke-width:1px;stroke-linecap:butt;stroke-linejoin:miter;stroke-opacity:1" d="M 86.6667,4 99.7884,4 z" id="boundary" inkscape:connector-curvature="0" />
	<path style="fill:none;stroke:red;stroke-width:1px;stroke-linecap:butt;stroke-linejoin:miter;stroke-opacity:1" d="M 99.7884,4 112.91,4 z" id="boundary" inkscape:connector-curvature="0" />
	<path style="fill:none;stroke:red;stroke-width:1px;stroke-linecap:butt;stroke-linejoin:miter;stroke-opacity:1" d="M 112.91,4 124.72,10.5608 z" id="boundary" inkscape:connector-curvature="0" />
	<path style="fill:none;stroke:red;stroke-width:1px;stroke-linecap:butt;stroke-linejoin:miter;stroke-opacity:1" d="M 124.72,10.5608 137.841,10.5608 z" id="boundary" inkscape:connector-curvature="0" />
	<path style="fill:none;stroke:red;stroke-width:1px;stroke-linecap:butt;stroke-linejoin:miter;stroke-opacity:1" d="M 137.841,10.5608 149.651,17.1217 z" id="boundary" inkscape:connector-curvature="0" />
	<path style="fill:none;stroke:red;stroke-width:1px;stroke-linecap:butt;stroke-linejoin:miter;stroke-opacity:1" d="M 149.651,17.1217 160.148,24.9947 z" id="boundary" inkscape:connector-curvature="0" />
	<path style="fill:none;stroke:red;stroke-width:1px;stroke-linecap:butt;stroke-linejoin:miter;stroke-opacity:1" d="M 160.148,24.9947 165.397,38.1164 z" id="boundary" inkscape:connector-curvature="0" />
	<path style="fill:none;stroke:red;stroke-width:1px;stroke-linecap:butt;stroke-linejoin:miter;stroke-opacity:1" d="M 165.397,38.1164 169.333,51.2381 z" id="boundary" inkscape:connector-curvature="0" />
	<path style="fill:none;stroke:red;stroke-width:1px;stroke-linecap:butt;stroke-linejoin:miter;stroke-opacity:1" d="M 169.333,51.2381 169.333,64.3598 z" id="boundary" inkscape:connector-curvature="0" />
	<path style="fill:none;stroke:red;stroke-width:1px;stroke-linecap:butt;stroke-linejoin:miter;stroke-opacity:1" d="M 169.333,64.3598 169.333,77.4815 z" id="boundary" inkscape:connector-curvature="0" />
	<path style="fill:none;stroke:red;stroke-width:1px;stroke-linecap:butt;stroke-linejoin:miter;stroke-opacity:1" d="M 169.333,77.4815 162.772,90.6032 z" id="boundary" inkscape:connector-curvature="0" />
	<path style="fill:none;stroke:red;stroke-width:1px;stroke-linecap:butt;stroke-linejoin:miter;stroke-opacity:1" d="M 162.772,90.6032 162.772,103.725 z" id="boundary" inkscape:connector-curvature="0" />
	<path style="fill:none;stroke:red;stroke-width:1px;stroke-linecap:butt;stroke-linejoin:miter;stroke-opacity:1" d="M 162.772,103.725 162.772,116.847 z" id="boundary" inkscape:connector-curvature="0" />
	<path style="fill:none;stroke:red;stroke-width:1px;stroke-linecap:butt;stroke-linejoin:miter;stroke-opacity:1" d="M 162.772,116.847 162.772,129.968 z" id="boundary" inkscape:connector-curvature="0" />
	<path style="fill:none;stroke:red;stroke-width:1px;stroke-linecap:butt;stroke-linejoin:miter;stroke-opacity:1" d="M 162.772,129.968 165.397,143.09 z" id="boundary" inkscape:connector-curvature="0" />
	<path style="fill:none;stroke:red;stroke-width:1px;stroke-linecap:butt;stroke-linejoin:miter;stroke-opacity:1" d="M 165.397,143.09 175.894,152.275 z" id="boundary" inkscape:connector-curvature="0" />
	<path style="fill:none;stroke:red;stroke-width:1px;stroke-linecap:butt;stroke-linejoin:miter;stroke-opacity:1" d="M 175.894,152.275 187.704,158.836 z" id="boundary" inkscape:connector-curvature="0" />
	<path style="fill:none;stroke:red;stroke-width:1px;stroke-linecap:butt;stroke-linejoin:miter;stroke-opacity:1" d="M 187.704,158.836 200.825,164.085 z" id="boundary" inkscape:connector-curvature="0" />
	<path style="fill:none;stroke:red;stroke-width:1px;stroke-linecap:butt;stroke-linejoin:miter;stroke-opacity:1" d="M 200.825,164.085 212.635,170.646 z" id="boundary" inkscape:connector-curvature="0" />
	<path style="fill:none;stroke:red;stroke-width:1px;stroke-linecap:butt;stroke-linejoin:miter;stroke-opacity:1" d="M 212.635,170.646 225.757,174.582 z" id="boundary" inkscape:connector-curvature="0" />
	<path style="fill:none;stroke:red;stroke-width:1px;stroke-linecap:butt;stroke-linejoin:miter;stroke-opacity:1" d="M 225.757,174.582 237.566,181.143 z" id="boundary" inkscape:connector-curvature="0" />
	<path style="fill:none;stroke:red;stroke-width:1px;stroke-linecap:butt;stroke-linejoin:miter;stroke-opacity:1" d="M 237.566,181.143 250.688,181.143 z" id="boundary" inkscape:connector-curvature="0" />
	<path style="fill:none;stroke:red;stroke-width:1px;stroke-linecap:butt;stroke-linejoin:miter;stroke-opacity:1" d="M 250.688,181.143 262.497,187.704 z" id="boundary" inkscape:connector-curvature="0" />
	<path style="fill:none;stroke:red;stroke-width:1px;stroke-linecap:butt;stroke-linejoin:miter;stroke-opacity:1" d="M 262.497,187.704 274.307,194.265 z" id="boundary" inkscape:connector-curvature="0" />
	<path style="fill:none;stroke:red;stroke-width:1px;stroke-linecap:butt;stroke-linejoin:miter;stroke-opacity:1" d="M 274.307,194.265 287.429,194.265 z" id="boundary" inkscape:connector-curvature="0" />
	<path style="fill:none;stroke:red;stroke-width:1px;stroke-linecap:butt;stroke-linejoin:miter;stroke-opacity:1" d="M 287.429,194.265 299.238,200.825 z" id="boundary" inkscape:connector-curvature="0" />
	<path style="fill:none;stroke:red;stroke-width:1px;stroke-linecap:butt;stroke-linejoin:miter;stroke-opacity:1" d="M 299.238,200.825 312.36,203.45 z" id="boundary" inkscape:connector-curvature="0" />
	<path style="fill:none;stroke:red;stroke-width:1px;stroke-linecap:butt;stroke-linejoin:miter;stroke-opacity:1" d="M 312.36,203.45 325.481,207.386 z" id="boundary" inkscape:connector-curvature="0" />
	<path style="fill:none;stroke:red;stroke-width:1px;stroke-linecap:butt;stroke-linejoin:miter;stroke-opacity:1" d="M 325.481,207.386 337.291,213.947 z" id="boundary" inkscape:connector-curvature="0" />
	<path style="fill:none;stroke:red;stroke-width:1px;stroke-linecap:butt;stroke-linejoin:miter;stroke-opacity:1" d="M 337.291,213.947 350.413,215.259 z" id="boundary" inkscape:connector-curvature="0" />
	<path style="fill:none;stroke:red;stroke-width:1px;stroke-linecap:butt;stroke-linejoin:miter;stroke-opacity:1" d="M 350.413,215.259 362.222,221.82 z" id="boundary" inkscape:connector-curvature="0" />
	<path style="fill:none;stroke:red;stroke-width:1px;stroke-linecap:butt;stroke-linejoin:miter;stroke-opacity:1" d="M 362.222,221.82 375.344,227.069 z" id="boundary" inkscape:connector-curvature="0" />
	<path style="fill:none;stroke:red;stroke-width:1px;stroke-linecap:butt;stroke-linejoin:miter;stroke-opacity:1" d="M 375.344,227.069 387.153,233.63 z" id="boundary" inkscape:connector-curvature="0" />
	<path style="fill:none;stroke:red;stroke-width:1px;stroke-linecap:butt;stroke-linejoin:miter;stroke-opacity:1" d="M 387.153,233.63 398.963,240.19 z" id="boundary" inkscape:connector-curvature="0" />
	<path style="fill:none;stroke:red;stroke-width:1px;stroke-linecap:butt;stroke-linejoin:miter;stroke-opacity:1" d="M 398.963,240.19 410.772,246.751 z" id="boundary" inkscape:connector-curvature="0" />
	<path style="fill:none;stroke:red;stroke-width:1px;stroke-linecap:butt;stroke-linejoin:miter;stroke-opacity:1" d="M 410.772,246.751 421.27,254.624 z" id="boundary" inkscape:connector-curvature="0" />
	<path style="fill:none;stroke:red;stroke-width:1px;stroke-linecap:butt;stroke-linejoin:miter;stroke-opacity:1" d="M 421.27,254.624 434.392,259.873 z" id="boundary" inkscape:connector-curvature="0" />
	<path style="fill:none;stroke:red;stroke-width:1px;stroke-linecap:butt;stroke-linejoin:miter;stroke-opacity:1" d="M 434.392,259.873 446.201,266.434 z" id="boundary" inkscape:connector-curvature="0" />
	<path style="fill:none;stroke:red;stroke-width:1px;stroke-linecap:butt;stroke-linejoin:miter;stroke-opacity:1" d="M 446.201,266.434 458.011,272.995 z" id="boundary" inkscape:connector-curvature="0" />
	<path style="fill:none;stroke:red;stroke-width:1px;stroke-linecap:butt;stroke-linejoin:miter;stroke-opacity:1" d="M 458.011,272.995 469.82,279.556 z" id="boundary" inkscape:connector-curvature="0" />
	<path style="fill:none;stroke:red;stroke-width:1px;stroke-linecap:butt;stroke-linejoin:miter;stroke-opacity:1" d="M 469.82,279.556 480.317,287.429 z" id="boundary" inkscape:connector-curvature="0" />
	<path style="fill:none;stroke:red;stroke-width:1px;stroke-linecap:butt;stroke-linejoin:miter;stroke-opacity:1" d="M 480.317,287.429 493.439,292.677 z" id="boundary" inkscape:connector-curvature="0" />
	<path style="fill:none;stroke:red;stroke-width:1px;stroke-linecap:butt;stroke-linejoin:miter;stroke-opacity:1" d="M 493.439,292.677 502.624,303.175 z" id="boundary" inkscape:connector-curvature="0" />
	<path style="fill:none;stroke:red;stroke-width:1px;stroke-linecap:butt;stroke-linejoin:miter;stroke-opacity:1" d="M 502.624,303.175 513.122,312.36 z" id="boundary" inkscape:connector-curvature="0" />
	<path style="fill:none;stroke:red;stroke-width:1px;stroke-linecap:butt;stroke-linejoin:miter;stroke-opacity:1" d="M 513.122,312.36 522.307,322.857 z" id="boundary" inkscape:connector-curvature="0" />
	<path style="fill:none;stroke:red;stroke-width:1px;stroke-linecap:butt;stroke-linejoin:miter;stroke-opacity:1" d="M 522.307,322.857 528.868,334.667 z" id="boundary" inkscape:connector-curvature="0" />
	<path style="fill:none;stroke:red;stroke-width:1px;stroke-linecap:butt;stroke-linejoin:miter;stroke-opacity:1" d="M 528.868,334.667 536.741,345.164 z" id="boundary" inkscape:connector-curvature="0" />
	<path style="fill:none;stroke:red;stroke-width:1px;stroke-linecap:butt;stroke-linejoin:miter;stroke-opacity:1" d="M 536.741,345.164 547.238,353.037 z" id="boundary" inkscape:connector-curvature="0" />
	<path style="fill:none;stroke:red;stroke-width:1px;stroke-linecap:butt;stroke-linejoin:miter;stroke-opacity:1" d="M 547.238,353.037 552.487,366.159 z" id="boundary" inkscape:connector-curvature="0" />
	<path style="fill:none;stroke:red;stroke-width:1px;stroke-linecap:butt;stroke-linejoin:miter;stroke-opacity:1" d="M 552.487,366.159 562.984,375.344 z" id="boundary" inkscape:connector-curvature="0" />
	<path style="fill:none;stroke:red;stroke-width:1px;stroke-linecap:butt;stroke-linejoin:miter;stroke-opacity:1" d="M 562.984,375.344 569.545,387.153 z" id="boundary" inkscape:connector-curvature="0" />
	<path style="fill:none;stroke:red;stroke-width:1px;stroke-linecap:butt;stroke-linejoin:miter;stroke-opacity:1" d="M 569.545,387.153 576.106,398.963 z" id="boundary" inkscape:connector-curvature="0" />
	<path style="fill:none;stroke:red;stroke-width:1px;stroke-linecap:butt;stroke-linejoin:miter;stroke-opacity:1" d="M 576.106,398.963 582.667,410.772 z" id="boundary" inkscape:connector-curvature="0" />
	<path style="fill:none;stroke:red;stroke-width:1px;stroke-linecap:butt;stroke-linejoin:miter;stroke-opacity:1" d="M 582.667,410.772 595.788,414.709 z" id="boundary" inkscape:connector-curvature="0" />
	<path style="fill:none;stroke:red;stroke-width:1px;stroke-linecap:butt;stroke-linejoin:miter;stroke-opacity:1" d="M 595.788,414.709 608.91,417.333 z" id="boundary" inkscape:connector-curvature="0" />
	<path style="fill:none;stroke:red;stroke-width:1px;stroke-linecap:butt;stroke-linejoin:miter;stroke-opacity:1" d="M 608.91,417.333 620.72,423.894 z" id="boundary" inkscape:connector-curvature="0" />
	<path style="fill:none;stroke:red;stroke-width:1px;stroke-linecap:butt;stroke-linejoin:miter;stroke-opacity:1" d="M 620.72,423.894 632.529,430.455 z" id="boundary" inkscape:connector-curvature="0" />
	<path style="fill:none;stroke:red;stroke-width:1px;stroke-linecap:butt;stroke-linejoin:miter;stroke-opacity:1" d="M 632.529,430.455 644.339,437.016 z" id="boundary" inkscape:connector-curvature="0" />
	<path style="fill:none;stroke:red;stroke-width:1px;stroke-linecap:butt;stroke-linejoin:miter;stroke-opacity:1" d="M 644.339,437.016 656.148,443.577 z" id="boundary" inkscape:connector-curvature="0" />
	<path style="fill:none;stroke:red;stroke-width:1px;stroke-linecap:butt;stroke-linejoin:miter;stroke-opacity:1" d="M 656.148,443.577 667.958,450.138 z" id="boundary" inkscape:connector-curvature="0" />
	<path style="fill:none;stroke:red;stroke-width:1px;stroke-linecap:butt;stroke-linejoin:miter;stroke-opacity:1" d="M 667.958,450.138 679.767,456.698 z" id="boundary" inkscape:connector-curvature="0" />
	<path style="fill:none;stroke:red;stroke-width:1px;stroke-linecap:butt;stroke-linejoin:miter;stroke-opacity:1" d="M 679.767,456.698 691.577,463.259 z" id="boundary" inkscape:connector-curvature="0" />
	<path style="fill:none;stroke:red;stroke-width:1px;stroke-linecap:butt;stroke-linejoin:miter;stroke-opacity:1" d="M 691.577,463.259 703.386,469.82 z" id="boundary" inkscape:connector-curvature="0" />
	<path style="fill:none;stroke:red;stroke-width:1px;stroke-linecap:butt;stroke-linejoin:miter;stroke-opacity:1" d="M 703.386,469.82 716.508,469.82 z" id="boundary" inkscape:connector-curvature="0" />
	<path style="fill:none;stroke:red;stroke-width:1px;stroke-linecap:butt;stroke-linejoin:miter;stroke-opacity:1" d="M 716.508,469.82 728.317,476.381 z" id="boundary" inkscape:connector-curvature="0" />
	<path style="fill:none;stroke:red;stroke-width:1px;stroke-linecap:butt;stroke-linejoin:miter;stroke-opacity:1" d="M 728.317,476.381 740.127,482.942 z" id="boundary" inkscape:connector-curvature="0" />
	<path style="fill:none;stroke:red;stroke-width:1px;stroke-linecap:butt;stroke-linejoin:miter;stroke-opacity:1" d="M 740.127,482.942 753.249,486.878 z" id="boundary" inkscape:connector-curvature="0" />
	<path style="fill:none;stroke:red;stroke-width:1px;stroke-linecap:butt;stroke-linejoin:miter;stroke-opacity:1" d="M 753.249,486.878 766.37,489.503 z" id="boundary" inkscape:connector-curvature="0" />
	<path style="fill:none;stroke:red;stroke-width:1px;stroke-linecap:butt;stroke-linejoin:miter;stroke-opacity:1" d="M 766.37,489.503 778.18,496.063 z" id="boundary" inkscape:connector-curvature="0" />
	<path style="fill:none;stroke:red;stroke-width:1px;stroke-linecap:butt;stroke-linejoin:miter;stroke-opacity:1" d="M 778.18,496.063 789.989,502.624 z" id="boundary" inkscape:connector-curvature="0" />
	<path style="fill:none;stroke:red;stroke-width:1px;stroke-linecap:butt;stroke-linejoin:miter;stroke-opacity:1" d="M 789.989,502.624 803.111,503.937 z" id="boundary" inkscape:connector-curvature="0" />
	<path style="fill:none;stroke:red;stroke-width:1px;stroke-linecap:butt;stroke-linejoin:miter;stroke-opacity:1" d="M 803.111,503.937 814.921,510.497 z" id="boundary" inkscape:connector-curvature="0" />
	<path style="fill:none;stroke:red;stroke-width:1px;stroke-linecap:butt;stroke-linejoin:miter;stroke-opacity:1" d="M 814.921,510.497 828.042,515.746 z" id="boundary" inkscape:connector-curvature="0" />
	<path style="fill:none;stroke:red;stroke-width:1px;stroke-linecap:butt;stroke-linejoin:miter;stroke-opacity:1" d="M 828.042,515.746 839.852,522.307 z" id="boundary" inkscape:connector-curvature="0" />
	<path style="fill:none;stroke:red;stroke-width:1px;stroke-linecap:butt;stroke-linejoin:miter;stroke-opacity:1" d="M 839.852,522.307 851.661,528.868 z" id="boundary" inkscape:connector-curvature="0" />
	<path style="fill:none;stroke:red;stroke-width:1px;stroke-linecap:butt;stroke-linejoin:miter;stroke-opacity:1" d="M 851.661,528.868 864.783,528.868 z" id="boundary" inkscape:connector-curvature="0" />
	<path style="fill:none;stroke:red;stroke-width:1px;stroke-linecap:butt;stroke-linejoin:miter;stroke-opacity:1" d="M 864.783,528.868 876.593,535.429 z" id="boundary" inkscape:connector-curvature="0" />
	<path style="fill:none;stroke:red;stroke-width:1px;stroke-linecap:butt;stroke-linejoin:miter;stroke-opacity:1" d="M 876.593,535.429 888.402,541.989 z" id="boundary" inkscape:connector-curvature="0" />
	<path style="fill:none;stroke:red;stroke-width:1px;stroke-linecap:butt;stroke-linejoin:miter;stroke-opacity:1" d="M 888.402,541.989 901.524,543.302 z" id="boundary" inkscape:connector-curvature="0" />
	<path style="fill:none;stroke:red;stroke-width:1px;stroke-linecap:butt;stroke-linejoin:miter;stroke-opacity:1" d="M 901.524,543.302 913.333,549.862 z" id="boundary" inkscape:connector-curvature="0" />
	<path style="fill:none;stroke:red;stroke-width:1px;stroke-linecap:butt;stroke-linejoin:miter;stroke-opacity:1" d="M 913.333,549.862 926.455,555.111 z" id="boundary" inkscape:connector-curvature="0" />
	<path style="fill:none;stroke:red;stroke-width:1px;stroke-linecap:butt;stroke-linejoin:miter;stroke-opacity:1" d="M 926.455,555.111 938.265,561.672 z" id="boundary" inkscape:connector-curvature="0" />
	<path style="fill:none;stroke:red;stroke-width:1px;stroke-linecap:butt;stroke-linejoin:miter;stroke-opacity:1" d="M 938.265,561.672 950.074,568.233 z" id="boundary" inkscape:connector-curvature="0" />
	<path style="fill:none;stroke:red;stroke-width:1px;stroke-linecap:butt;stroke-linejoin:miter;stroke-opacity:1" d="M 950.074,568.233 961.884,574.794 z" id="boundary" inkscape:connector-curvature="0" />
	<path style="fill:none;stroke:red;stroke-width:1px;stroke-linecap:butt;stroke-linejoin:miter;stroke-opacity:1" d="M 961.884,574.794 972.381,582.667 z" id="boundary" inkscape:connector-curvature="0" />
	<path style="fill:none;stroke:red;stroke-width:1px;stroke-linecap:butt;stroke-linejoin:miter;stroke-opacity:1" d="M 972.381,582.667 982.878,591.852 z" id="boundary" inkscape:connector-curvature="0" />
	<path style="fill:none;stroke:red;stroke-width:1px;stroke-linecap:butt;stroke-linejoin:miter;stroke-opacity:1" d="M 982.878,591.852 992.063,602.349 z" id="boundary" inkscape:connector-curvature="0" />
	<circle cx="4" cy="47.3016" r="4" fill="#0" id="circle0"/>
	<circle cx="11.873" cy="57.7989" r="4" fill="#0" id="circle1"/>
	<circle cx="14.4974" cy="36.8042" r="4" fill="#0" id="circle2"/>
	<circle cx="24.9947" cy="60.4233" r="4" fill="#0" id="circle3"/>
	<circle cx="26.3069" cy="30.2434" r="4" fill="#0" id="circle4"/>
	<circle cx="34.1799" cy="70.9206" r="4" fill="#0" id="circle5"/>
	<circle cx="36.8042" cy="21.0582" r="4" fill="#0" id="circle6"/>
	<circle cx="44.6772" cy="80.1058" r="4" fill="#0" id="circle7"/>
	<circle cx="49.9259" cy="14.4974" r="4" fill="#0" id="circle8"/>
	<circle cx="53.8624" cy="90.6032" r="4" fill="#0" id="circle9"/>
	<circle cx="60.4233" cy="4" r="4" fill="#0" id="circle10"/>
	<circle cx="63.0476" cy="101.101" r="4" fill="#0" id="circle11"/>
	<circle cx="69.6085" cy="112.91" r="4" fill="#0" id="circle12"/>
	<circle cx="73.545" cy="4" r="4" fill="#0" id="circle13"/>
	<circle cx="76.1693" cy="124.72" r="4" fill="#0" id="circle14"/>
	<circle cx="82.7302" cy="136.529" r="4" fill="#0" id="circle15"/>
	<circle cx="82.7302" cy="149.651" r="4" fill="#0" id="circle16"/>
	<circle cx="82.7302" cy="162.772" r="4" fill="#0" id="circle17"/>
	<circle cx="82.7302" cy="175.894" r="4" fill="#0" id="circle18"/>
	<circle cx="82.7302" cy="189.016" r="4" fill="#0" id="circle19"/>
	<circle cx="82.7302" cy="202.138" r="4" fill="#0" id="circle20"/>
	<circle cx="82.7302" cy="215.259" r="4" fill="#0" id="circle21"/>
	<circle cx="86.6667" cy="4" r="4" fill="#0" id="circle22"/>
	<circle cx="86.6667" cy="228.381" r="4" fill="#0" id="circle23"/>
	<circle cx="89.291" cy="241.503" r="4" fill="#0" id="circle24"/>
	<circle cx="93.2275" cy="254.624" r="4" fill="#0" id="circle25"/>
	<circle cx="99.7884" cy="4" r="4" fill="#0" id="circle26"/>
	<circle cx="99.7884" cy="266.434" r="4" fill="#0" id="circle27"/>
	<circle cx="102.413" cy="279.556" r="4" fill="#0" id="circle28"/>
	<circle cx="108.974" cy="291.365" r="4" fill="#0" id="circle29"/>
	<circle cx="112.91" cy="4" r="4" fill="#0" id="circle30"/>
	<circle cx="115.534" cy="303.175" r="4" fill="#0" id="circle31"/>
	<circle cx="122.095" cy="314.984" r="4" fill="#0" id="circle32"/>
	<circle cx="124.72" cy="10.5608" r="4" fill="#0" id="circle33"/>
	<circle cx="131.28" cy="325.481" r="4" fill="#0" id="circle34"/>
	<circle cx="137.841" cy="10.5608" r="4" fill="#0" id="circle35"/>
	<circle cx="137.841" cy="337.291" r="4" fill="#0" id="circle36"/>
	<circle cx="148.339" cy="346.476" r="4" fill="#0" id="circle37"/>
	<circle cx="149.651" cy="17.1217" r="4" fill="#0" id="circle38"/>
	<circle cx="156.212" cy="356.974" r="4" fill="#0" id="circle39"/>
	<circle cx="160.148" cy="24.9947" r="4" fill="#0" id="circle40"/>
	<circle cx="161.46" cy="486.878" r="4" fill="#0" id="circle41"/>
	<circle cx="161.46" cy="500" r="4" fill="#0" id="circle42"/>
	<circle cx="162.772" cy="90.6032" r="4" fill="#0" id="circle43"/>
	<circle cx="162.772" cy="103.725" r="4" fill="#0" id="circle44"/>
	<circle cx="162.772" cy="116.847" r="4" fill="#0" id="circle45"/>
	<circle cx="162.772" cy="129.968" r="4" fill="#0" id="circle46"/>
	<circle cx="165.397" cy="38.1164" r="4" fill="#0" id="circle47"/>
	<circle cx="165.397" cy="143.09" r="4" fill="#0" id="circle48"/>
	<circle cx="169.333" cy="51.2381" r="4" fill="#0" id="circle49"/>
	<circle cx="169.333" cy="64.3598" r="4" fill="#0" id="circle50"/>
	<circle cx="169.333" cy="77.4815" r="4" fill="#0" id="circle51"/>
	<circle cx="169.333" cy="362.222" r="4" fill="#0" id="circle52"/>
	<circle cx="174.582" cy="480.317" r="4" fill="#0" id="circle53"/>
	<circle cx="174.582" cy="503.937" r="4" fill="#0" id="circle54"/>
	<circle cx="175.894" cy="152.275" r="4" fill="#0" id="circle55"/>
	<circle cx="181.143" cy="368.783" r="4" fill="#0" id="circle56"/>
	<circle cx="185.079" cy="469.82" r="4" fill="#0" id="circle57"/>
	<circle cx="186.392" cy="510.497" r="4" fill="#0" id="circle58"/>
	<circle cx="187.704" cy="158.836" r="4" fill="#0" id="circle59"/>
	<circle cx="191.64" cy="377.968" r="4" fill="#0" id="circle60"/>
	<circle cx="198.201" cy="463.259" r="4" fill="#0" id="circle61"/>
	<circle cx="198.201" cy="502.624" r="4" fill="#0" id="circle62"/>
	<circle cx="200.825" cy="164.085" r="4" fill="#0" id="circle63"/>
	<circle cx="200.825" cy="388.466" r="4" fill="#0" id="circle64"/>
	<circle cx="204.762" cy="489.503" r="4" fill="#0" id="circle65"/>
	<circle cx="211.323" cy="463.259" r="4" fill="#0" id="circle66"/>
	<circle cx="212.635" cy="170.646" r="4" fill="#0" id="circle67"/>
	<circle cx="213.947" cy="392.402" r="4" fill="#0" id="circle68"/>
	<circle cx="215.259" cy="477.693" r="4" fill="#0" id="circle69"/>
	<circle cx="221.82" cy="402.899" r="4" fill="#0" id="circle70"/>
	<circle cx="224.444" cy="463.259" r="4" fill="#0" id="circle71"/>
	<circle cx="225.757" cy="174.582" r="4" fill="#0" id="circle72"/>
	<circle cx="228.381" cy="477.693" r="4" fill="#0" id="circle73"/>
	<circle cx="232.317" cy="412.085" r="4" fill="#0" id="circle74"/>
	<circle cx="236.254" cy="456.698" r="4" fill="#0" id="circle75"/>
	<circle cx="237.566" cy="181.143" r="4" fill="#0" id="circle76"/>
	<circle cx="241.503" cy="422.582" r="4" fill="#0" id="circle77"/>
	<circle cx="241.503" cy="477.693" r="4" fill="#0" id="circle78"/>
	<circle cx="249.376" cy="451.45" r="4" fill="#0" id="circle79"/>
	<circle cx="250.688" cy="181.143" r="4" fill="#0" id="circle80"/>
	<circle cx="252" cy="431.767" r="4" fill="#0" id="circle81"/>
	<circle cx="253.312" cy="471.132" r="4" fill="#0" id="circle82"/>
	<circle cx="259.873" cy="559.048" r="4" fill="#0" id="circle83"/>
	<circle cx="262.497" cy="187.704" r="4" fill="#0" id="circle84"/>
	<circle cx="263.81" cy="463.259" r="4" fill="#0" id="circle85"/>
	<circle cx="266.434" cy="570.857" r="4" fill="#0" id="circle86"/>
	<circle cx="270.37" cy="548.55" r="4" fill="#0" id="circle87"/>
	<circle cx="274.307" cy="194.265" r="4" fill="#0" id="circle88"/>
	<circle cx="276.931" cy="456.698" r="4" fill="#0" id="circle89"/>
	<circle cx="279.556" cy="576.106" r="4" fill="#0" id="circle90"/>
	<circle cx="283.492" cy="541.989" r="4" fill="#0" id="circle91"/>
	<circle cx="287.429" cy="194.265" r="4" fill="#0" id="circle92"/>
	<circle cx="287.429" cy="425.206" r="4" fill="#0" id="circle93"/>
	<circle cx="287.429" cy="438.328" r="4" fill="#0" id="circle94"/>
	<circle cx="292.677" cy="576.106" r="4" fill="#0" id="circle95"/>
	<circle cx="293.989" cy="531.492" r="4" fill="#0" id="circle96"/>
	<circle cx="299.238" cy="200.825" r="4" fill="#0" id="circle97"/>
	<circle cx="300.55" cy="425.206" r="4" fill="#0" id="circle98"/>
	<circle cx="303.175" cy="568.233" r="4" fill="#0" id="circle99"/>
	<circle cx="304.487" cy="522.307" r="4" fill="#0" id="circle100"/>
	<circle cx="307.111" cy="543.302" r="4" fill="#0" id="circle101"/>
	<circle cx="309.735" cy="509.185" r="4" fill="#0" id="circle102"/>
	<circle cx="312.36" cy="203.45" r="4" fill="#0" id="circle103"/>
	<circle cx="313.672" cy="425.206" r="4" fill="#0" id="circle104"/>
	<circle cx="317.608" cy="534.116" r="4" fill="#0" id="circle105"/>
	<circle cx="318.921" cy="493.439" r="4" fill="#0" id="circle106"/>
	<circle cx="320.233" cy="517.058" r="4" fill="#0" id="circle107"/>
	<circle cx="325.481" cy="207.386" r="4" fill="#0" id="circle108"/>
	<circle cx="325.481" cy="431.767" r="4" fill="#0" id="circle109"/>
	<circle cx="329.418" cy="482.942" r="4" fill="#0" id="circle110"/>
	<circle cx="330.73" cy="507.873" r="4" fill="#0" id="circle111"/>
	<circle cx="335.979" cy="469.82" r="4" fill="#0" id="circle112"/>
	<circle cx="337.291" cy="213.947" r="4" fill="#0" id="circle113"/>
	<circle cx="337.291" cy="438.328" r="4" fill="#0" id="circle114"/>
	<circle cx="337.291" cy="494.751" r="4" fill="#0" id="circle115"/>
	<circle cx="338.603" cy="451.45" r="4" fill="#0" id="circle116"/>
	<circle cx="346.476" cy="477.693" r="4" fill="#0" id="circle117"/>
	<circle cx="350.413" cy="215.259" r="4" fill="#0" id="circle118"/>
	<circle cx="356.974" cy="468.508" r="4" fill="#0" id="circle119"/>
	<circle cx="359.598" cy="438.328" r="4" fill="#0" id="circle120"/>
	<circle cx="359.598" cy="451.45" r="4" fill="#0" id="circle121"/>
	<circle cx="362.222" cy="221.82" r="4" fill="#0" id="circle122"/>
	<circle cx="372.72" cy="431.767" r="4" fill="#0" id="circle123"/>
	<circle cx="375.344" cy="227.069" r="4" fill="#0" id="circle124"/>
	<circle cx="384.529" cy="438.328" r="4" fill="#0" id="circle125"/>
	<circle cx="387.153" cy="233.63" r="4" fill="#0" id="circle126"/>
	<circle cx="397.651" cy="438.328" r="4" fill="#0" id="circle127"/>
	<circle cx="398.963" cy="240.19" r="4" fill="#0" id="circle128"/>
	<circle cx="410.772" cy="246.751" r="4" fill="#0" id="circle129"/>
	<circle cx="410.772" cy="438.328" r="4" fill="#0" id="circle130"/>
	<circle cx="421.27" cy="254.624" r="4" fill="#0" id="circle131"/>
	<circle cx="423.894" cy="438.328" r="4" fill="#0" id="circle132"/>
	<circle cx="434.392" cy="259.873" r="4" fill="#0" id="circle133"/>
	<circle cx="437.016" cy="438.328" r="4" fill="#0" id="circle134"/>
	<circle cx="446.201" cy="266.434" r="4" fill="#0" id="circle135"/>
	<circle cx="450.138" cy="438.328" r="4" fill="#0" id="circle136"/>
	<circle cx="458.011" cy="272.995" r="4" fill="#0" id="circle137"/>
	<circle cx="463.259" cy="438.328" r="4" fill="#0" id="circle138"/>
	<circle cx="469.82" cy="279.556" r="4" fill="#0" id="circle139"/>
	<circle cx="475.069" cy="431.767" r="4" fill="#0" id="circle140"/>
	<circle cx="480.317" cy="287.429" r="4" fill="#0" id="circle141"/>
	<circle cx="488.19" cy="431.767" r="4" fill="#0" id="circle142"/>
	<circle cx="493.439" cy="292.677" r="4" fill="#0" id="circle143"/>
	<circle cx="500" cy="438.328" r="4" fill="#0" id="circle144"/>
	<circle cx="502.624" cy="303.175" r="4" fill="#0" id="circle145"/>
	<circle cx="511.81" cy="444.889" r="4" fill="#0" id="circle146"/>
	<circle cx="513.122" cy="312.36" r="4" fill="#0" id="circle147"/>
	<circle cx="522.307" cy="322.857" r="4" fill="#0" id="circle148"/>
	<circle cx="522.307" cy="452.762" r="4" fill="#0" id="circle149"/>
	<circle cx="528.868" cy="334.667" r="4" fill="#0" id="circle150"/>
	<circle cx="531.492" cy="463.259" r="4" fill="#0" id="circle151"/>
	<circle cx="536.741" cy="345.164" r="4" fill="#0" id="circle152"/>
	<circle cx="541.989" cy="471.132" r="4" fill="#0" id="circle153"/>
	<circle cx="547.238" cy="353.037" r="4" fill="#0" id="circle154"/>
	<circle cx="552.487" cy="366.159" r="4" fill="#0" id="circle155"/>
	<circle cx="553.799" cy="477.693" r="4" fill="#0" id="circle156"/>
	<circle cx="562.984" cy="375.344" r="4" fill="#0" id="circle157"/>
	<circle cx="562.984" cy="488.19" r="4" fill="#0" id="circle158"/>
	<circle cx="569.545" cy="387.153" r="4" fill="#0" id="circle159"/>
	<circle cx="576.106" cy="398.963" r="4" fill="#0" id="circle160"/>
	<circle cx="576.106" cy="493.439" r="4" fill="#0" id="circle161"/>
	<circle cx="582.667" cy="410.772" r="4" fill="#0" id="circle162"/>
	<circle cx="585.291" cy="503.937" r="4" fill="#0" id="circle163"/>
	<circle cx="595.788" cy="414.709" r="4" fill="#0" id="circle164"/>
	<circle cx="597.101" cy="510.497" r="4" fill="#0" id="circle165"/>
	<circle cx="607.598" cy="518.37" r="4" fill="#0" id="circle166"/>
	<circle cx="608.91" cy="417.333" r="4" fill="#0" id="circle167"/>
	<circle cx="616.783" cy="528.868" r="4" fill="#0" id="circle168"/>
	<circle cx="620.72" cy="423.894" r="4" fill="#0" id="circle169"/>
	<circle cx="629.905" cy="534.116" r="4" fill="#0" id="circle170"/>
	<circle cx="632.529" cy="430.455" r="4" fill="#0" id="circle171"/>
	<circle cx="640.402" cy="543.302" r="4" fill="#0" id="circle172"/>
	<circle cx="644.339" cy="437.016" r="4" fill="#0" id="circle173"/>
	<circle cx="652.212" cy="549.862" r="4" fill="#0" id="circle174"/>
	<circle cx="656.148" cy="443.577" r="4" fill="#0" id="circle175"/>
	<circle cx="664.021" cy="556.423" r="4" fill="#0" id="circle176"/>
	<circle cx="667.958" cy="450.138" r="4" fill="#0" id="circle177"/>
	<circle cx="675.831" cy="562.984" r="4" fill="#0" id="circle178"/>
	<circle cx="679.767" cy="456.698" r="4" fill="#0" id="circle179"/>
	<circle cx="687.64" cy="569.545" r="4" fill="#0" id="circle180"/>
	<circle cx="691.577" cy="463.259" r="4" fill="#0" id="circle181"/>
	<circle cx="699.45" cy="576.106" r="4" fill="#0" id="circle182"/>
	<circle cx="703.386" cy="469.82" r="4" fill="#0" id="circle183"/>
	<circle cx="711.259" cy="582.667" r="4" fill="#0" id="circle184"/>
	<circle cx="716.508" cy="469.82" r="4" fill="#0" id="circle185"/>
	<circle cx="723.069" cy="589.228" r="4" fill="#0" id="circle186"/>
	<circle cx="728.317" cy="476.381" r="4" fill="#0" id="circle187"/>
	<circle cx="734.878" cy="595.788" r="4" fill="#0" id="circle188"/>
	<circle cx="740.127" cy="482.942" r="4" fill="#0" id="circle189"/>
	<circle cx="746.688" cy="602.349" r="4" fill="#0" id="circle190"/>
	<circle cx="753.249" cy="486.878" r="4" fill="#0" id="circle191"/>
	<circle cx="758.497" cy="608.91" r="4" fill="#0" id="circle192"/>
	<circle cx="766.37" cy="489.503" r="4" fill="#0" id="circle193"/>
	<circle cx="770.307" cy="615.471" r="4" fill="#0" id="circle194"/>
	<circle cx="778.18" cy="496.063" r="4" fill="#0" id="circle195"/>
	<circle cx="782.116" cy="622.032" r="4" fill="#0" id="circle196"/>
	<circle cx="789.989" cy="502.624" r="4" fill="#0" id="circle197"/>
	<circle cx="795.238" cy="627.28" r="4" fill="#0" id="circle198"/>
	<circle cx="803.111" cy="503.937" r="4" fill="#0" id="circle199"/>
	<circle cx="807.048" cy="633.841" r="4" fill="#0" id="circle200"/>
	<circle cx="814.921" cy="510.497" r="4" fill="#0" id="circle201"/>
	<circle cx="820.169" cy="639.09" r="4" fill="#0" id="circle202"/>
	<circle cx="828.042" cy="515.746" r="4" fill="#0" id="circle203"/>
	<circle cx="831.979" cy="645.651" r="4" fill="#0" id="circle204"/>
	<circle cx="839.852" cy="522.307" r="4" fill="#0" id="circle205"/>
	<circle cx="845.101" cy="650.899" r="4" fill="#0" id="circle206"/>
	<circle cx="851.661" cy="528.868" r="4" fill="#0" id="circle207"/>
	<circle cx="856.91" cy="657.46" r="4" fill="#0" id="circle208"/>
	<circle cx="864.783" cy="528.868" r="4" fill="#0" id="circle209"/>
	<circle cx="870.032" cy="661.397" r="4" fill="#0" id="circle210"/>
	<circle cx="876.593" cy="535.429" r="4" fill="#0" id="circle211"/>
	<circle cx="883.153" cy="661.397" r="4" fill="#0" id="circle212"/>
	<circle cx="888.402" cy="541.989" r="4" fill="#0" id="circle213"/>
	<circle cx="894.963" cy="667.958" r="4" fill="#0" id="circle214"/>
	<circle cx="901.524" cy="543.302" r="4" fill="#0" id="circle215"/>
	<circle cx="908.085" cy="667.958" r="4" fill="#0" id="circle216"/>
	<circle cx="913.333" cy="549.862" r="4" fill="#0" id="circle217"/>
	<circle cx="917.27" cy="654.836" r="4" fill="#0" id="circle218"/>
	<circle cx="926.455" cy="555.111" r="4" fill="#0" id="circle219"/>
	<circle cx="930.392" cy="654.836" r="4" fill="#0" id="circle220"/>
	<circle cx="938.265" cy="561.672" r="4" fill="#0" id="circle221"/>
	<circle cx="943.513" cy="654.836" r="4" fill="#0" id="circle222"/>
	<circle cx="950.074" cy="568.233" r="4" fill="#0" id="circle223"/>
	<circle cx="954.011" cy="645.651" r="4" fill="#0" id="circle224"/>
	<circle cx="961.884" cy="574.794" r="4" fill="#0" id="circle225"/>
	<circle cx="963.196" cy="635.153" r="4" fill="#0" id="circle226"/>
	<circle cx="972.381" cy="582.667" r="4" fill="#0" id="circle227"/>
	<circle cx="975.005" cy="641.714" r="4" fill="#0" id="circle228"/>
	<circle cx="982.878" cy="591.852" r="4" fill="#0" id="circle229"/>
	<circle cx="986.815" cy="635.153" r="4" fill="#0" id="circle230"/>
	<circle cx="992.063" cy="602.349" r="4" fill="#0" id="circle231"/>
	<circle cx="996" cy="615.471" r="4" fill="#0" id="circle232"/>
	</g>
</svg>