<?xml version="1.0" encoding="UTF-8" standalone="no"?>
<!-- Created with CurveBenchmark -->
<svg
	xmlns:dc="http://purl.org/dc/elements/1.1/"
	xmlns:cc="http://creativecommons.org/ns#"
	xmlns:rdf="http://www.w3.org/1999/02/22-rdf-syntax-ns#"
	xmlns:svg="http://www.w3.org/2000/svg"
	xmlns="http://www.w3.org/2000/svg"
	xmlns:sodipodi="http://sodipodi.sourceforge.net/DTD/sodipodi-0.dtd"
	xmlns:inkscape="http://www.inkscape.org/namespaces/inkscape"
	width="1000"
	height="1000"
	id="svg2"
	version="1.1"
	sodipodi:docname="manifold/connect2d-brick15.png.txt">
<defs
	id="defs4" />
<metadata
	id="metadata7">
	<rdf:RDF>
		<cc:Work
			rdf:about="">
			<dc:format>image/svg+xml</dc:format>
			<dc:type
				rdf:resource="http://purl.org/dc/dcmitype/StillImage" />
			<dc:title></dc:title>
		</cc:Work>
	</rdf:RDF>
</metadata>
<g
	inkscape:label="Layer 1"
	inkscape:groupmode="layer"
	id="layer1">
	<path style="fill:none;stroke:red;stroke-width:1px;stroke-linecap:butt;stroke-linejoin:miter;stroke-opacity:1" d="M 996,186.935 996,205.795 z" id="boundary" inkscape:connector-curvature="0" />
	<path style="fill:none;stroke:red;stroke-width:1px;stroke-linecap:butt;stroke-linejoin:miter;stroke-opacity:1" d="M 996,205.795 986.57,222.768 z" id="boundary" inkscape:connector-curvature="0" />
	<path style="fill:none;stroke:red;stroke-width:1px;stroke-linecap:butt;stroke-linejoin:miter;stroke-opacity:1" d="M 986.57,222.768 977.141,241.627 z" id="boundary" inkscape:connector-curvature="0" />
	<path style="fill:none;stroke:red;stroke-width:1px;stroke-linecap:butt;stroke-linejoin:miter;stroke-opacity:1" d="M 977.141,241.627 958.281,260.487 z" id="boundary" inkscape:connector-curvature="0" />
	<path style="fill:none;stroke:red;stroke-width:1px;stroke-linecap:butt;stroke-linejoin:miter;stroke-opacity:1" d="M 958.281,260.487 945.08,285.004 z" id="boundary" inkscape:connector-curvature="0" />
	<path style="fill:none;stroke:red;stroke-width:1px;stroke-linecap:butt;stroke-linejoin:miter;stroke-opacity:1" d="M 945.08,285.004 929.992,298.205 z" id="boundary" inkscape:connector-curvature="0" />
	<path style="fill:none;stroke:red;stroke-width:1px;stroke-linecap:butt;stroke-linejoin:miter;stroke-opacity:1" d="M 929.992,298.205 929.992,317.065 z" id="boundary" inkscape:connector-curvature="0" />
	<path style="fill:none;stroke:red;stroke-width:1px;stroke-linecap:butt;stroke-linejoin:miter;stroke-opacity:1" d="M 929.992,317.065 929.992,335.924 z" id="boundary" inkscape:connector-curvature="0" />
	<path style="fill:none;stroke:red;stroke-width:1px;stroke-linecap:butt;stroke-linejoin:miter;stroke-opacity:1" d="M 929.992,335.924 939.422,352.897 z" id="boundary" inkscape:connector-curvature="0" />
	<path style="fill:none;stroke:red;stroke-width:1px;stroke-linecap:butt;stroke-linejoin:miter;stroke-opacity:1" d="M 939.422,352.897 948.852,369.871 z" id="boundary" inkscape:connector-curvature="0" />
	<path style="fill:none;stroke:red;stroke-width:1px;stroke-linecap:butt;stroke-linejoin:miter;stroke-opacity:1" d="M 948.852,369.871 948.852,388.73 z" id="boundary" inkscape:connector-curvature="0" />
	<path style="fill:none;stroke:red;stroke-width:1px;stroke-linecap:butt;stroke-linejoin:miter;stroke-opacity:1" d="M 948.852,388.73 958.281,405.703 z" id="boundary" inkscape:connector-curvature="0" />
	<path style="fill:none;stroke:red;stroke-width:1px;stroke-linecap:butt;stroke-linejoin:miter;stroke-opacity:1" d="M 958.281,405.703 954.51,435.878 z" id="boundary" inkscape:connector-curvature="0" />
	<path style="fill:none;stroke:red;stroke-width:1px;stroke-linecap:butt;stroke-linejoin:miter;stroke-opacity:1" d="M 954.51,435.878 939.422,449.08 z" id="boundary" inkscape:connector-curvature="0" />
	<path style="fill:none;stroke:red;stroke-width:1px;stroke-linecap:butt;stroke-linejoin:miter;stroke-opacity:1" d="M 939.422,449.08 920.563,458.51 z" id="boundary" inkscape:connector-curvature="0" />
	<path style="fill:none;stroke:red;stroke-width:1px;stroke-linecap:butt;stroke-linejoin:miter;stroke-opacity:1" d="M 920.563,458.51 901.703,458.51 z" id="boundary" inkscape:connector-curvature="0" />
	<path style="fill:none;stroke:red;stroke-width:1px;stroke-linecap:butt;stroke-linejoin:miter;stroke-opacity:1" d="M 901.703,458.51 882.844,458.51 z" id="boundary" inkscape:connector-curvature="0" />
	<path style="fill:none;stroke:red;stroke-width:1px;stroke-linecap:butt;stroke-linejoin:miter;stroke-opacity:1" d="M 882.844,458.51 863.985,458.51 z" id="boundary" inkscape:connector-curvature="0" />
	<path style="fill:none;stroke:red;stroke-width:1px;stroke-linecap:butt;stroke-linejoin:miter;stroke-opacity:1" d="M 863.985,458.51 845.125,458.51 z" id="boundary" inkscape:connector-curvature="0" />
	<path style="fill:none;stroke:red;stroke-width:1px;stroke-linecap:butt;stroke-linejoin:miter;stroke-opacity:1" d="M 845.125,458.51 826.266,458.51 z" id="boundary" inkscape:connector-curvature="0" />
	<path style="fill:none;stroke:red;stroke-width:1px;stroke-linecap:butt;stroke-linejoin:miter;stroke-opacity:1" d="M 826.266,458.51 809.293,449.08 z" id="boundary" inkscape:connector-curvature="0" />
	<path style="fill:none;stroke:red;stroke-width:1px;stroke-linecap:butt;stroke-linejoin:miter;stroke-opacity:1" d="M 809.293,449.08 790.433,449.08 z" id="boundary" inkscape:connector-curvature="0" />
	<path style="fill:none;stroke:red;stroke-width:1px;stroke-linecap:butt;stroke-linejoin:miter;stroke-opacity:1" d="M 790.433,449.08 773.46,439.65 z" id="boundary" inkscape:connector-curvature="0" />
	<path style="fill:none;stroke:red;stroke-width:1px;stroke-linecap:butt;stroke-linejoin:miter;stroke-opacity:1" d="M 773.46,439.65 754.601,437.764 z" id="boundary" inkscape:connector-curvature="0" />
	<path style="fill:none;stroke:red;stroke-width:1px;stroke-linecap:butt;stroke-linejoin:miter;stroke-opacity:1" d="M 754.601,437.764 735.741,430.221 z" id="boundary" inkscape:connector-curvature="0" />
	<path style="fill:none;stroke:red;stroke-width:1px;stroke-linecap:butt;stroke-linejoin:miter;stroke-opacity:1" d="M 735.741,430.221 722.54,415.133 z" id="boundary" inkscape:connector-curvature="0" />
	<path style="fill:none;stroke:red;stroke-width:1px;stroke-linecap:butt;stroke-linejoin:miter;stroke-opacity:1" d="M 722.54,415.133 707.452,401.932 z" id="boundary" inkscape:connector-curvature="0" />
	<path style="fill:none;stroke:red;stroke-width:1px;stroke-linecap:butt;stroke-linejoin:miter;stroke-opacity:1" d="M 707.452,401.932 690.479,392.502 z" id="boundary" inkscape:connector-curvature="0" />
	<path style="fill:none;stroke:red;stroke-width:1px;stroke-linecap:butt;stroke-linejoin:miter;stroke-opacity:1" d="M 690.479,392.502 673.506,383.072 z" id="boundary" inkscape:connector-curvature="0" />
	<path style="fill:none;stroke:red;stroke-width:1px;stroke-linecap:butt;stroke-linejoin:miter;stroke-opacity:1" d="M 673.506,383.072 654.646,383.072 z" id="boundary" inkscape:connector-curvature="0" />
	<path style="fill:none;stroke:red;stroke-width:1px;stroke-linecap:butt;stroke-linejoin:miter;stroke-opacity:1" d="M 654.646,383.072 635.787,383.072 z" id="boundary" inkscape:connector-curvature="0" />
	<path style="fill:none;stroke:red;stroke-width:1px;stroke-linecap:butt;stroke-linejoin:miter;stroke-opacity:1" d="M 635.787,383.072 616.928,386.844 z" id="boundary" inkscape:connector-curvature="0" />
	<path style="fill:none;stroke:red;stroke-width:1px;stroke-linecap:butt;stroke-linejoin:miter;stroke-opacity:1" d="M 616.928,386.844 598.068,392.502 z" id="boundary" inkscape:connector-curvature="0" />
	<path style="fill:none;stroke:red;stroke-width:1px;stroke-linecap:butt;stroke-linejoin:miter;stroke-opacity:1" d="M 598.068,392.502 579.209,396.274 z" id="boundary" inkscape:connector-curvature="0" />
	<path style="fill:none;stroke:red;stroke-width:1px;stroke-linecap:butt;stroke-linejoin:miter;stroke-opacity:1" d="M 579.209,396.274 560.35,401.932 z" id="boundary" inkscape:connector-curvature="0" />
	<path style="fill:none;stroke:red;stroke-width:1px;stroke-linecap:butt;stroke-linejoin:miter;stroke-opacity:1" d="M 560.35,401.932 541.49,401.932 z" id="boundary" inkscape:connector-curvature="0" />
	<path style="fill:none;stroke:red;stroke-width:1px;stroke-linecap:butt;stroke-linejoin:miter;stroke-opacity:1" d="M 541.49,401.932 524.517,411.361 z" id="boundary" inkscape:connector-curvature="0" />
	<path style="fill:none;stroke:red;stroke-width:1px;stroke-linecap:butt;stroke-linejoin:miter;stroke-opacity:1" d="M 524.517,411.361 505.658,411.361 z" id="boundary" inkscape:connector-curvature="0" />
	<path style="fill:none;stroke:red;stroke-width:1px;stroke-linecap:butt;stroke-linejoin:miter;stroke-opacity:1" d="M 505.658,411.361 486.798,411.361 z" id="boundary" inkscape:connector-curvature="0" />
	<path style="fill:none;stroke:red;stroke-width:1px;stroke-linecap:butt;stroke-linejoin:miter;stroke-opacity:1" d="M 486.798,411.361 467.939,420.791 z" id="boundary" inkscape:connector-curvature="0" />
	<path style="fill:none;stroke:red;stroke-width:1px;stroke-linecap:butt;stroke-linejoin:miter;stroke-opacity:1" d="M 467.939,420.791 449.08,430.221 z" id="boundary" inkscape:connector-curvature="0" />
	<path style="fill:none;stroke:red;stroke-width:1px;stroke-linecap:butt;stroke-linejoin:miter;stroke-opacity:1" d="M 449.08,430.221 430.221,430.221 z" id="boundary" inkscape:connector-curvature="0" />
	<path style="fill:none;stroke:red;stroke-width:1px;stroke-linecap:butt;stroke-linejoin:miter;stroke-opacity:1" d="M 430.221,430.221 411.361,430.221 z" id="boundary" inkscape:connector-curvature="0" />
	<path style="fill:none;stroke:red;stroke-width:1px;stroke-linecap:butt;stroke-linejoin:miter;stroke-opacity:1" d="M 411.361,430.221 392.502,430.221 z" id="boundary" inkscape:connector-curvature="0" />
	<path style="fill:none;stroke:red;stroke-width:1px;stroke-linecap:butt;stroke-linejoin:miter;stroke-opacity:1" d="M 392.502,430.221 373.643,430.221 z" id="boundary" inkscape:connector-curvature="0" />
	<path style="fill:none;stroke:red;stroke-width:1px;stroke-linecap:butt;stroke-linejoin:miter;stroke-opacity:1" d="M 373.643,430.221 354.783,430.221 z" id="boundary" inkscape:connector-curvature="0" />
	<path style="fill:none;stroke:red;stroke-width:1px;stroke-linecap:butt;stroke-linejoin:miter;stroke-opacity:1" d="M 354.783,430.221 335.924,424.563 z" id="boundary" inkscape:connector-curvature="0" />
	<path style="fill:none;stroke:red;stroke-width:1px;stroke-linecap:butt;stroke-linejoin:miter;stroke-opacity:1" d="M 335.924,424.563 317.065,417.019 z" id="boundary" inkscape:connector-curvature="0" />
	<path style="fill:none;stroke:red;stroke-width:1px;stroke-linecap:butt;stroke-linejoin:miter;stroke-opacity:1" d="M 317.065,417.019 300.091,407.589 z" id="boundary" inkscape:connector-curvature="0" />
	<path style="fill:none;stroke:red;stroke-width:1px;stroke-linecap:butt;stroke-linejoin:miter;stroke-opacity:1" d="M 300.091,407.589 281.232,401.932 z" id="boundary" inkscape:connector-curvature="0" />
	<path style="fill:none;stroke:red;stroke-width:1px;stroke-linecap:butt;stroke-linejoin:miter;stroke-opacity:1" d="M 281.232,401.932 264.259,392.502 z" id="boundary" inkscape:connector-curvature="0" />
	<path style="fill:none;stroke:red;stroke-width:1px;stroke-linecap:butt;stroke-linejoin:miter;stroke-opacity:1" d="M 264.259,392.502 256.715,373.643 z" id="boundary" inkscape:connector-curvature="0" />
	<path style="fill:none;stroke:red;stroke-width:1px;stroke-linecap:butt;stroke-linejoin:miter;stroke-opacity:1" d="M 256.715,373.643 239.741,364.213 z" id="boundary" inkscape:connector-curvature="0" />
	<path style="fill:none;stroke:red;stroke-width:1px;stroke-linecap:butt;stroke-linejoin:miter;stroke-opacity:1" d="M 239.741,364.213 220.882,358.555 z" id="boundary" inkscape:connector-curvature="0" />
	<path style="fill:none;stroke:red;stroke-width:1px;stroke-linecap:butt;stroke-linejoin:miter;stroke-opacity:1" d="M 220.882,358.555 203.909,349.125 z" id="boundary" inkscape:connector-curvature="0" />
	<path style="fill:none;stroke:red;stroke-width:1px;stroke-linecap:butt;stroke-linejoin:miter;stroke-opacity:1" d="M 203.909,349.125 188.821,335.924 z" id="boundary" inkscape:connector-curvature="0" />
	<path style="fill:none;stroke:red;stroke-width:1px;stroke-linecap:butt;stroke-linejoin:miter;stroke-opacity:1" d="M 188.821,335.924 171.848,345.354 z" id="boundary" inkscape:connector-curvature="0" />
	<path style="fill:none;stroke:red;stroke-width:1px;stroke-linecap:butt;stroke-linejoin:miter;stroke-opacity:1" d="M 171.848,345.354 152.989,345.354 z" id="boundary" inkscape:connector-curvature="0" />
	<path style="fill:none;stroke:red;stroke-width:1px;stroke-linecap:butt;stroke-linejoin:miter;stroke-opacity:1" d="M 152.989,345.354 134.129,345.354 z" id="boundary" inkscape:connector-curvature="0" />
	<path style="fill:none;stroke:red;stroke-width:1px;stroke-linecap:butt;stroke-linejoin:miter;stroke-opacity:1" d="M 134.129,345.354 117.156,354.783 z" id="boundary" inkscape:connector-curvature="0" />
	<path style="fill:none;stroke:red;stroke-width:1px;stroke-linecap:butt;stroke-linejoin:miter;stroke-opacity:1" d="M 117.156,354.783 98.2966,354.783 z" id="boundary" inkscape:connector-curvature="0" />
	<path style="fill:none;stroke:red;stroke-width:1px;stroke-linecap:butt;stroke-linejoin:miter;stroke-opacity:1" d="M 98.2966,354.783 79.4373,358.555 z" id="boundary" inkscape:connector-curvature="0" />
	<path style="fill:none;stroke:red;stroke-width:1px;stroke-linecap:butt;stroke-linejoin:miter;stroke-opacity:1" d="M 79.4373,358.555 60.5779,364.213 z" id="boundary" inkscape:connector-curvature="0" />
	<path style="fill:none;stroke:red;stroke-width:1px;stroke-linecap:butt;stroke-linejoin:miter;stroke-opacity:1" d="M 60.5779,364.213 41.7186,364.213 z" id="boundary" inkscape:connector-curvature="0" />
	<path style="fill:none;stroke:red;stroke-width:1px;stroke-linecap:butt;stroke-linejoin:miter;stroke-opacity:1" d="M 41.7186,364.213 22.8593,364.213 z" id="boundary" inkscape:connector-curvature="0" />
	<path style="fill:none;stroke:red;stroke-width:1px;stroke-linecap:butt;stroke-linejoin:miter;stroke-opacity:1" d="M 22.8593,364.213 13.4297,347.24 z" id="boundary" inkscape:connector-curvature="0" />
	<path style="fill:none;stroke:red;stroke-width:1px;stroke-linecap:butt;stroke-linejoin:miter;stroke-opacity:1" d="M 13.4297,347.24 4,330.266 z" id="boundary" inkscape:connector-curvature="0" />
	<path style="fill:none;stroke:red;stroke-width:1px;stroke-linecap:butt;stroke-linejoin:miter;stroke-opacity:1" d="M 4,330.266 4,311.407 z" id="boundary" inkscape:connector-curvature="0" />
	<path style="fill:none;stroke:red;stroke-width:1px;stroke-linecap:butt;stroke-linejoin:miter;stroke-opacity:1" d="M 4,311.407 4,292.548 z" id="boundary" inkscape:connector-curvature="0" />
	<path style="fill:none;stroke:red;stroke-width:1px;stroke-linecap:butt;stroke-linejoin:miter;stroke-opacity:1" d="M 4,292.548 4,273.688 z" id="boundary" inkscape:connector-curvature="0" />
	<path style="fill:none;stroke:red;stroke-width:1px;stroke-linecap:butt;stroke-linejoin:miter;stroke-opacity:1" d="M 4,273.688 4,254.829 z" id="boundary" inkscape:connector-curvature="0" />
	<path style="fill:none;stroke:red;stroke-width:1px;stroke-linecap:butt;stroke-linejoin:miter;stroke-opacity:1" d="M 4,254.829 13.4297,235.97 z" id="boundary" inkscape:connector-curvature="0" />
	<path style="fill:none;stroke:red;stroke-width:1px;stroke-linecap:butt;stroke-linejoin:miter;stroke-opacity:1" d="M 13.4297,235.97 32.289,226.54 z" id="boundary" inkscape:connector-curvature="0" />
	<path style="fill:none;stroke:red;stroke-width:1px;stroke-linecap:butt;stroke-linejoin:miter;stroke-opacity:1" d="M 32.289,226.54 41.7186,207.681 z" id="boundary" inkscape:connector-curvature="0" />
	<path style="fill:none;stroke:red;stroke-width:1px;stroke-linecap:butt;stroke-linejoin:miter;stroke-opacity:1" d="M 41.7186,207.681 60.5779,198.251 z" id="boundary" inkscape:connector-curvature="0" />
	<path style="fill:none;stroke:red;stroke-width:1px;stroke-linecap:butt;stroke-linejoin:miter;stroke-opacity:1" d="M 60.5779,198.251 75.6654,183.163 z" id="boundary" inkscape:connector-curvature="0" />
	<path style="fill:none;stroke:red;stroke-width:1px;stroke-linecap:butt;stroke-linejoin:miter;stroke-opacity:1" d="M 75.6654,183.163 88.8669,160.532 z" id="boundary" inkscape:connector-curvature="0" />
	<path style="fill:none;stroke:red;stroke-width:1px;stroke-linecap:butt;stroke-linejoin:miter;stroke-opacity:1" d="M 88.8669,160.532 98.2966,132.243 z" id="boundary" inkscape:connector-curvature="0" />
	<path style="fill:none;stroke:red;stroke-width:1px;stroke-linecap:butt;stroke-linejoin:miter;stroke-opacity:1" d="M 98.2966,132.243 98.2966,113.384 z" id="boundary" inkscape:connector-curvature="0" />
	<path style="fill:none;stroke:red;stroke-width:1px;stroke-linecap:butt;stroke-linejoin:miter;stroke-opacity:1" d="M 98.2966,113.384 98.2966,94.5247 z" id="boundary" inkscape:connector-curvature="0" />
	<path style="fill:none;stroke:red;stroke-width:1px;stroke-linecap:butt;stroke-linejoin:miter;stroke-opacity:1" d="M 98.2966,94.5247 98.2966,75.6654 z" id="boundary" inkscape:connector-curvature="0" />
	<path style="fill:none;stroke:red;stroke-width:1px;stroke-linecap:butt;stroke-linejoin:miter;stroke-opacity:1" d="M 98.2966,75.6654 98.2966,56.8061 z" id="boundary" inkscape:connector-curvature="0" />
	<path style="fill:none;stroke:red;stroke-width:1px;stroke-linecap:butt;stroke-linejoin:miter;stroke-opacity:1" d="M 98.2966,56.8061 107.726,37.9468 z" id="boundary" inkscape:connector-curvature="0" />
	<path style="fill:none;stroke:red;stroke-width:1px;stroke-linecap:butt;stroke-linejoin:miter;stroke-opacity:1" d="M 107.726,37.9468 117.156,19.0875 z" id="boundary" inkscape:connector-curvature="0" />
	<path style="fill:none;stroke:red;stroke-width:1px;stroke-linecap:butt;stroke-linejoin:miter;stroke-opacity:1" d="M 117.156,19.0875 132.243,4 z" id="boundary" inkscape:connector-curvature="0" />
	<path style="fill:none;stroke:red;stroke-width:1px;stroke-linecap:butt;stroke-linejoin:miter;stroke-opacity:1" d="M 132.243,4 151.103,4 z" id="boundary" inkscape:connector-curvature="0" />
	<path style="fill:none;stroke:red;stroke-width:1px;stroke-linecap:butt;stroke-linejoin:miter;stroke-opacity:1" d="M 151.103,4 169.962,4 z" id="boundary" inkscape:connector-curvature="0" />
	<path style="fill:none;stroke:red;stroke-width:1px;stroke-linecap:butt;stroke-linejoin:miter;stroke-opacity:1" d="M 169.962,4 188.821,4 z" id="boundary" inkscape:connector-curvature="0" />
	<path style="fill:none;stroke:red;stroke-width:1px;stroke-linecap:butt;stroke-linejoin:miter;stroke-opacity:1" d="M 188.821,4 207.681,4 z" id="boundary" inkscape:connector-curvature="0" />
	<path style="fill:none;stroke:red;stroke-width:1px;stroke-linecap:butt;stroke-linejoin:miter;stroke-opacity:1" d="M 207.681,4 226.54,4 z" id="boundary" inkscape:connector-curvature="0" />
	<path style="fill:none;stroke:red;stroke-width:1px;stroke-linecap:butt;stroke-linejoin:miter;stroke-opacity:1" d="M 226.54,4 245.399,4 z" id="boundary" inkscape:connector-curvature="0" />
	<path style="fill:none;stroke:red;stroke-width:1px;stroke-linecap:butt;stroke-linejoin:miter;stroke-opacity:1" d="M 245.399,4 264.259,4 z" id="boundary" inkscape:connector-curvature="0" />
	<path style="fill:none;stroke:red;stroke-width:1px;stroke-linecap:butt;stroke-linejoin:miter;stroke-opacity:1" d="M 264.259,4 281.232,13.4297 z" id="boundary" inkscape:connector-curvature="0" />
	<path style="fill:none;stroke:red;stroke-width:1px;stroke-linecap:butt;stroke-linejoin:miter;stroke-opacity:1" d="M 281.232,13.4297 298.205,22.8593 z" id="boundary" inkscape:connector-curvature="0" />
	<path style="fill:none;stroke:red;stroke-width:1px;stroke-linecap:butt;stroke-linejoin:miter;stroke-opacity:1" d="M 298.205,22.8593 307.635,39.8327 z" id="boundary" inkscape:connector-curvature="0" />
	<path style="fill:none;stroke:red;stroke-width:1px;stroke-linecap:butt;stroke-linejoin:miter;stroke-opacity:1" d="M 307.635,39.8327 322.722,53.0342 z" id="boundary" inkscape:connector-curvature="0" />
	<path style="fill:none;stroke:red;stroke-width:1px;stroke-linecap:butt;stroke-linejoin:miter;stroke-opacity:1" d="M 322.722,53.0342 335.924,68.1217 z" id="boundary" inkscape:connector-curvature="0" />
	<path style="fill:none;stroke:red;stroke-width:1px;stroke-linecap:butt;stroke-linejoin:miter;stroke-opacity:1" d="M 335.924,68.1217 354.783,70.0076 z" id="boundary" inkscape:connector-curvature="0" />
	<path style="fill:none;stroke:red;stroke-width:1px;stroke-linecap:butt;stroke-linejoin:miter;stroke-opacity:1" d="M 354.783,70.0076 373.643,70.0076 z" id="boundary" inkscape:connector-curvature="0" />
	<path style="fill:none;stroke:red;stroke-width:1px;stroke-linecap:butt;stroke-linejoin:miter;stroke-opacity:1" d="M 373.643,70.0076 392.502,70.0076 z" id="boundary" inkscape:connector-curvature="0" />
	<path style="fill:none;stroke:red;stroke-width:1px;stroke-linecap:butt;stroke-linejoin:miter;stroke-opacity:1" d="M 392.502,70.0076 411.361,70.0076 z" id="boundary" inkscape:connector-curvature="0" />
	<path style="fill:none;stroke:red;stroke-width:1px;stroke-linecap:butt;stroke-linejoin:miter;stroke-opacity:1" d="M 411.361,70.0076 430.221,64.3498 z" id="boundary" inkscape:connector-curvature="0" />
	<path style="fill:none;stroke:red;stroke-width:1px;stroke-linecap:butt;stroke-linejoin:miter;stroke-opacity:1" d="M 430.221,64.3498 449.08,60.5779 z" id="boundary" inkscape:connector-curvature="0" />
	<path style="fill:none;stroke:red;stroke-width:1px;stroke-linecap:butt;stroke-linejoin:miter;stroke-opacity:1" d="M 449.08,60.5779 466.053,51.1483 z" id="boundary" inkscape:connector-curvature="0" />
	<path style="fill:none;stroke:red;stroke-width:1px;stroke-linecap:butt;stroke-linejoin:miter;stroke-opacity:1" d="M 466.053,51.1483 484.913,51.1483 z" id="boundary" inkscape:connector-curvature="0" />
	<path style="fill:none;stroke:red;stroke-width:1px;stroke-linecap:butt;stroke-linejoin:miter;stroke-opacity:1" d="M 484.913,51.1483 501.886,41.7186 z" id="boundary" inkscape:connector-curvature="0" />
	<path style="fill:none;stroke:red;stroke-width:1px;stroke-linecap:butt;stroke-linejoin:miter;stroke-opacity:1" d="M 501.886,41.7186 518.859,51.1483 z" id="boundary" inkscape:connector-curvature="0" />
	<path style="fill:none;stroke:red;stroke-width:1px;stroke-linecap:butt;stroke-linejoin:miter;stroke-opacity:1" d="M 518.859,51.1483 537.719,51.1483 z" id="boundary" inkscape:connector-curvature="0" />
	<path style="fill:none;stroke:red;stroke-width:1px;stroke-linecap:butt;stroke-linejoin:miter;stroke-opacity:1" d="M 537.719,51.1483 554.692,41.7186 z" id="boundary" inkscape:connector-curvature="0" />
	<path style="fill:none;stroke:red;stroke-width:1px;stroke-linecap:butt;stroke-linejoin:miter;stroke-opacity:1" d="M 554.692,41.7186 573.551,41.7186 z" id="boundary" inkscape:connector-curvature="0" />
	<path style="fill:none;stroke:red;stroke-width:1px;stroke-linecap:butt;stroke-linejoin:miter;stroke-opacity:1" d="M 573.551,41.7186 592.411,41.7186 z" id="boundary" inkscape:connector-curvature="0" />
	<path style="fill:none;stroke:red;stroke-width:1px;stroke-linecap:butt;stroke-linejoin:miter;stroke-opacity:1" d="M 592.411,41.7186 611.27,41.7186 z" id="boundary" inkscape:connector-curvature="0" />
	<path style="fill:none;stroke:red;stroke-width:1px;stroke-linecap:butt;stroke-linejoin:miter;stroke-opacity:1" d="M 611.27,41.7186 630.129,41.7186 z" id="boundary" inkscape:connector-curvature="0" />
	<path style="fill:none;stroke:red;stroke-width:1px;stroke-linecap:butt;stroke-linejoin:miter;stroke-opacity:1" d="M 630.129,41.7186 648.989,41.7186 z" id="boundary" inkscape:connector-curvature="0" />
	<path style="fill:none;stroke:red;stroke-width:1px;stroke-linecap:butt;stroke-linejoin:miter;stroke-opacity:1" d="M 648.989,41.7186 667.848,41.7186 z" id="boundary" inkscape:connector-curvature="0" />
	<path style="fill:none;stroke:red;stroke-width:1px;stroke-linecap:butt;stroke-linejoin:miter;stroke-opacity:1" d="M 667.848,41.7186 686.707,41.7186 z" id="boundary" inkscape:connector-curvature="0" />
	<path style="fill:none;stroke:red;stroke-width:1px;stroke-linecap:butt;stroke-linejoin:miter;stroke-opacity:1" d="M 686.707,41.7186 705.567,41.7186 z" id="boundary" inkscape:connector-curvature="0" />
	<path style="fill:none;stroke:red;stroke-width:1px;stroke-linecap:butt;stroke-linejoin:miter;stroke-opacity:1" d="M 705.567,41.7186 722.54,51.1483 z" id="boundary" inkscape:connector-curvature="0" />
	<path style="fill:none;stroke:red;stroke-width:1px;stroke-linecap:butt;stroke-linejoin:miter;stroke-opacity:1" d="M 722.54,51.1483 739.513,60.5779 z" id="boundary" inkscape:connector-curvature="0" />
	<path style="fill:none;stroke:red;stroke-width:1px;stroke-linecap:butt;stroke-linejoin:miter;stroke-opacity:1" d="M 739.513,60.5779 756.487,70.0076 z" id="boundary" inkscape:connector-curvature="0" />
	<path style="fill:none;stroke:red;stroke-width:1px;stroke-linecap:butt;stroke-linejoin:miter;stroke-opacity:1" d="M 756.487,70.0076 773.46,79.4373 z" id="boundary" inkscape:connector-curvature="0" />
	<path style="fill:none;stroke:red;stroke-width:1px;stroke-linecap:butt;stroke-linejoin:miter;stroke-opacity:1" d="M 773.46,79.4373 786.662,94.5247 z" id="boundary" inkscape:connector-curvature="0" />
	<path style="fill:none;stroke:red;stroke-width:1px;stroke-linecap:butt;stroke-linejoin:miter;stroke-opacity:1" d="M 786.662,94.5247 805.521,102.068 z" id="boundary" inkscape:connector-curvature="0" />
	<path style="fill:none;stroke:red;stroke-width:1px;stroke-linecap:butt;stroke-linejoin:miter;stroke-opacity:1" d="M 805.521,102.068 824.38,107.726 z" id="boundary" inkscape:connector-curvature="0" />
	<path style="fill:none;stroke:red;stroke-width:1px;stroke-linecap:butt;stroke-linejoin:miter;stroke-opacity:1" d="M 824.38,107.726 843.24,107.726 z" id="boundary" inkscape:connector-curvature="0" />
	<path style="fill:none;stroke:red;stroke-width:1px;stroke-linecap:butt;stroke-linejoin:miter;stroke-opacity:1" d="M 843.24,107.726 862.099,107.726 z" id="boundary" inkscape:connector-curvature="0" />
	<path style="fill:none;stroke:red;stroke-width:1px;stroke-linecap:butt;stroke-linejoin:miter;stroke-opacity:1" d="M 862.099,107.726 880.958,107.726 z" id="boundary" inkscape:connector-curvature="0" />
	<path style="fill:none;stroke:red;stroke-width:1px;stroke-linecap:butt;stroke-linejoin:miter;stroke-opacity:1" d="M 880.958,107.726 899.817,107.726 z" id="boundary" inkscape:connector-curvature="0" />
	<path style="fill:none;stroke:red;stroke-width:1px;stroke-linecap:butt;stroke-linejoin:miter;stroke-opacity:1" d="M 899.817,107.726 918.677,107.726 z" id="boundary" inkscape:connector-curvature="0" />
	<path style="fill:none;stroke:red;stroke-width:1px;stroke-linecap:butt;stroke-linejoin:miter;stroke-opacity:1" d="M 918.677,107.726 937.536,107.726 z" id="boundary" inkscape:connector-curvature="0" />
	<path style="fill:none;stroke:red;stroke-width:1px;stroke-linecap:butt;stroke-linejoin:miter;stroke-opacity:1" d="M 937.536,107.726 956.395,107.726 z" id="boundary" inkscape:connector-curvature="0" />
	<path style="fill:none;stroke:red;stroke-width:1px;stroke-linecap:butt;stroke-linejoin:miter;stroke-opacity:1" d="M 956.395,107.726 973.369,117.156 z" id="boundary" inkscape:connector-curvature="0" />
	<path style="fill:none;stroke:red;stroke-width:1px;stroke-linecap:butt;stroke-linejoin:miter;stroke-opacity:1" d="M 973.369,117.156 986.57,132.243 z" id="boundary" inkscape:connector-curvature="0" />
	<path style="fill:none;stroke:red;stroke-width:1px;stroke-linecap:butt;stroke-linejoin:miter;stroke-opacity:1" d="M 986.57,132.243 996,149.217 z" id="boundary" inkscape:connector-curvature="0" />
	<path style="fill:none;stroke:red;stroke-width:1px;stroke-linecap:butt;stroke-linejoin:miter;stroke-opacity:1" d="M 996,149.217 996,168.076 z" id="boundary" inkscape:connector-curvature="0" />
	<path style="fill:none;stroke:red;stroke-width:1px;stroke-linecap:butt;stroke-linejoin:miter;stroke-opacity:1" d="M 996,168.076 996,186.935 z" id="boundary" inkscape:connector-curvature="0" />
	<circle cx="4" cy="254.829" r="4" fill="#0" id="circle0"/>
	<circle cx="4" cy="273.688" r="4" fill="#0" id="circle1"/>
	<circle cx="4" cy="292.548" r="4" fill="#0" id="circle2"/>
	<circle cx="4" cy="311.407" r="4" fill="#0" id="circle3"/>
	<circle cx="4" cy="330.266" r="4" fill="#0" id="circle4"/>
	<circle cx="13.4297" cy="235.97" r="4" fill="#0" id="circle5"/>
	<circle cx="13.4297" cy="347.24" r="4" fill="#0" id="circle6"/>
	<circle cx="22.8593" cy="364.213" r="4" fill="#0" id="circle7"/>
	<circle cx="32.289" cy="226.54" r="4" fill="#0" id="circle8"/>
	<circle cx="41.7186" cy="207.681" r="4" fill="#0" id="circle9"/>
	<circle cx="41.7186" cy="364.213" r="4" fill="#0" id="circle10"/>
	<circle cx="60.5779" cy="198.251" r="4" fill="#0" id="circle11"/>
	<circle cx="60.5779" cy="364.213" r="4" fill="#0" id="circle12"/>
	<circle cx="75.6654" cy="183.163" r="4" fill="#0" id="circle13"/>
	<circle cx="79.4373" cy="358.555" r="4" fill="#0" id="circle14"/>
	<circle cx="88.8669" cy="160.532" r="4" fill="#0" id="circle15"/>
	<circle cx="98.2966" cy="56.8061" r="4" fill="#0" id="circle16"/>
	<circle cx="98.2966" cy="75.6654" r="4" fill="#0" id="circle17"/>
	<circle cx="98.2966" cy="94.5247" r="4" fill="#0" id="circle18"/>
	<circle cx="98.2966" cy="113.384" r="4" fill="#0" id="circle19"/>
	<circle cx="98.2966" cy="132.243" r="4" fill="#0" id="circle20"/>
	<circle cx="98.2966" cy="354.783" r="4" fill="#0" id="circle21"/>
	<circle cx="107.726" cy="37.9468" r="4" fill="#0" id="circle22"/>
	<circle cx="117.156" cy="19.0875" r="4" fill="#0" id="circle23"/>
	<circle cx="117.156" cy="354.783" r="4" fill="#0" id="circle24"/>
	<circle cx="132.243" cy="4" r="4" fill="#0" id="circle25"/>
	<circle cx="134.129" cy="345.354" r="4" fill="#0" id="circle26"/>
	<circle cx="151.103" cy="4" r="4" fill="#0" id="circle27"/>
	<circle cx="152.989" cy="345.354" r="4" fill="#0" id="circle28"/>
	<circle cx="169.962" cy="4" r="4" fill="#0" id="circle29"/>
	<circle cx="171.848" cy="345.354" r="4" fill="#0" id="circle30"/>
	<circle cx="188.821" cy="4" r="4" fill="#0" id="circle31"/>
	<circle cx="188.821" cy="335.924" r="4" fill="#0" id="circle32"/>
	<circle cx="203.909" cy="349.125" r="4" fill="#0" id="circle33"/>
	<circle cx="207.681" cy="4" r="4" fill="#0" id="circle34"/>
	<circle cx="220.882" cy="358.555" r="4" fill="#0" id="circle35"/>
	<circle cx="226.54" cy="4" r="4" fill="#0" id="circle36"/>
	<circle cx="239.741" cy="364.213" r="4" fill="#0" id="circle37"/>
	<circle cx="245.399" cy="4" r="4" fill="#0" id="circle38"/>
	<circle cx="256.715" cy="373.643" r="4" fill="#0" id="circle39"/>
	<circle cx="264.259" cy="4" r="4" fill="#0" id="circle40"/>
	<circle cx="264.259" cy="392.502" r="4" fill="#0" id="circle41"/>
	<circle cx="281.232" cy="13.4297" r="4" fill="#0" id="circle42"/>
	<circle cx="281.232" cy="401.932" r="4" fill="#0" id="circle43"/>
	<circle cx="298.205" cy="22.8593" r="4" fill="#0" id="circle44"/>
	<circle cx="300.091" cy="407.589" r="4" fill="#0" id="circle45"/>
	<circle cx="307.635" cy="39.8327" r="4" fill="#0" id="circle46"/>
	<circle cx="317.065" cy="417.019" r="4" fill="#0" id="circle47"/>
	<circle cx="322.722" cy="53.0342" r="4" fill="#0" id="circle48"/>
	<circle cx="335.924" cy="68.1217" r="4" fill="#0" id="circle49"/>
	<circle cx="335.924" cy="424.563" r="4" fill="#0" id="circle50"/>
	<circle cx="354.783" cy="70.0076" r="4" fill="#0" id="circle51"/>
	<circle cx="354.783" cy="430.221" r="4" fill="#0" id="circle52"/>
	<circle cx="373.643" cy="70.0076" r="4" fill="#0" id="circle53"/>
	<circle cx="373.643" cy="430.221" r="4" fill="#0" id="circle54"/>
	<circle cx="392.502" cy="70.0076" r="4" fill="#0" id="circle55"/>
	<circle cx="392.502" cy="430.221" r="4" fill="#0" id="circle56"/>
	<circle cx="411.361" cy="70.0076" r="4" fill="#0" id="circle57"/>
	<circle cx="411.361" cy="430.221" r="4" fill="#0" id="circle58"/>
	<circle cx="430.221" cy="64.3498" r="4" fill="#0" id="circle59"/>
	<circle cx="430.221" cy="430.221" r="4" fill="#0" id="circle60"/>
	<circle cx="449.08" cy="60.5779" r="4" fill="#0" id="circle61"/>
	<circle cx="449.08" cy="430.221" r="4" fill="#0" id="circle62"/>
	<circle cx="466.053" cy="51.1483" r="4" fill="#0" id="circle63"/>
	<circle cx="467.939" cy="420.791" r="4" fill="#0" id="circle64"/>
	<circle cx="484.913" cy="51.1483" r="4" fill="#0" id="circle65"/>
	<circle cx="486.798" cy="411.361" r="4" fill="#0" id="circle66"/>
	<circle cx="501.886" cy="41.7186" r="4" fill="#0" id="circle67"/>
	<circle cx="505.658" cy="411.361" r="4" fill="#0" id="circle68"/>
	<circle cx="518.859" cy="51.1483" r="4" fill="#0" id="circle69"/>
	<circle cx="524.517" cy="411.361" r="4" fill="#0" id="circle70"/>
	<circle cx="537.719" cy="51.1483" r="4" fill="#0" id="circle71"/>
	<circle cx="541.49" cy="401.932" r="4" fill="#0" id="circle72"/>
	<circle cx="554.692" cy="41.7186" r="4" fill="#0" id="circle73"/>
	<circle cx="560.35" cy="401.932" r="4" fill="#0" id="circle74"/>
	<circle cx="573.551" cy="41.7186" r="4" fill="#0" id="circle75"/>
	<circle cx="579.209" cy="396.274" r="4" fill="#0" id="circle76"/>
	<circle cx="592.411" cy="41.7186" r="4" fill="#0" id="circle77"/>
	<circle cx="598.068" cy="392.502" r="4" fill="#0" id="circle78"/>
	<circle cx="611.27" cy="41.7186" r="4" fill="#0" id="circle79"/>
	<circle cx="616.928" cy="386.844" r="4" fill="#0" id="circle80"/>
	<circle cx="630.129" cy="41.7186" r="4" fill="#0" id="circle81"/>
	<circle cx="635.787" cy="383.072" r="4" fill="#0" id="circle82"/>
	<circle cx="648.989" cy="41.7186" r="4" fill="#0" id="circle83"/>
	<circle cx="654.646" cy="383.072" r="4" fill="#0" id="circle84"/>
	<circle cx="667.848" cy="41.7186" r="4" fill="#0" id="circle85"/>
	<circle cx="673.506" cy="383.072" r="4" fill="#0" id="circle86"/>
	<circle cx="686.707" cy="41.7186" r="4" fill="#0" id="circle87"/>
	<circle cx="690.479" cy="392.502" r="4" fill="#0" id="circle88"/>
	<circle cx="705.567" cy="41.7186" r="4" fill="#0" id="circle89"/>
	<circle cx="707.452" cy="401.932" r="4" fill="#0" id="circle90"/>
	<circle cx="722.54" cy="51.1483" r="4" fill="#0" id="circle91"/>
	<circle cx="722.54" cy="415.133" r="4" fill="#0" id="circle92"/>
	<circle cx="735.741" cy="430.221" r="4" fill="#0" id="circle93"/>
	<circle cx="739.513" cy="60.5779" r="4" fill="#0" id="circle94"/>
	<circle cx="754.601" cy="437.764" r="4" fill="#0" id="circle95"/>
	<circle cx="756.487" cy="70.0076" r="4" fill="#0" id="circle96"/>
	<circle cx="773.46" cy="79.4373" r="4" fill="#0" id="circle97"/>
	<circle cx="773.46" cy="439.65" r="4" fill="#0" id="circle98"/>
	<circle cx="786.662" cy="94.5247" r="4" fill="#0" id="circle99"/>
	<circle cx="790.433" cy="449.08" r="4" fill="#0" id="circle100"/>
	<circle cx="805.521" cy="102.068" r="4" fill="#0" id="circle101"/>
	<circle cx="809.293" cy="449.08" r="4" fill="#0" id="circle102"/>
	<circle cx="824.38" cy="107.726" r="4" fill="#0" id="circle103"/>
	<circle cx="826.266" cy="458.51" r="4" fill="#0" id="circle104"/>
	<circle cx="843.24" cy="107.726" r="4" fill="#0" id="circle105"/>
	<circle cx="845.125" cy="458.51" r="4" fill="#0" id="circle106"/>
	<circle cx="862.099" cy="107.726" r="4" fill="#0" id="circle107"/>
	<circle cx="863.985" cy="458.51" r="4" fill="#0" id="circle108"/>
	<circle cx="880.958" cy="107.726" r="4" fill="#0" id="circle109"/>
	<circle cx="882.844" cy="458.51" r="4" fill="#0" id="circle110"/>
	<circle cx="899.817" cy="107.726" r="4" fill="#0" id="circle111"/>
	<circle cx="901.703" cy="458.51" r="4" fill="#0" id="circle112"/>
	<circle cx="918.677" cy="107.726" r="4" fill="#0" id="circle113"/>
	<circle cx="920.563" cy="458.51" r="4" fill="#0" id="circle114"/>
	<circle cx="929.992" cy="298.205" r="4" fill="#0" id="circle115"/>
	<circle cx="929.992" cy="317.065" r="4" fill="#0" id="circle116"/>
	<circle cx="929.992" cy="335.924" r="4" fill="#0" id="circle117"/>
	<circle cx="937.536" cy="107.726" r="4" fill="#0" id="circle118"/>
	<circle cx="939.422" cy="352.897" r="4" fill="#0" id="circle119"/>
	<circle cx="939.422" cy="449.08" r="4" fill="#0" id="circle120"/>
	<circle cx="945.08" cy="285.004" r="4" fill="#0" id="circle121"/>
	<circle cx="948.852" cy="369.871" r="4" fill="#0" id="circle122"/>
	<circle cx="948.852" cy="388.73" r="4" fill="#0" id="circle123"/>
	<circle cx="954.51" cy="435.878" r="4" fill="#0" id="circle124"/>
	<circle cx="956.395" cy="107.726" r="4" fill="#0" id="circle125"/>
	<circle cx="958.281" cy="260.487" r="4" fill="#0" id="circle126"/>
	<circle cx="958.281" cy="405.703" r="4" fill="#0" id="circle127"/>
	<circle cx="973.369" cy="117.156" r="4" fill="#0" id="circle128"/>
	<circle cx="977.141" cy="241.627" r="4" fill="#0" id="circle129"/>
	<circle cx="986.57" cy="132.243" r="4" fill="#0" id="circle130"/>
	<circle cx="986.57" cy="222.768" r="4" fill="#0" id="circle131"/>
	<circle cx="996" cy="149.217" r="4" fill="#0" id="circle132"/>
	<circle cx="996" cy="168.076" r="4" fill="#0" id="circle133"/>
	<circle cx="996" cy="186.935" r="4" fill="#0" id="circle134"/>
	<circle cx="996" cy="205.795" r="4" fill="#0" id="circle135"/>
	</g>
</svg>