<?xml version="1.0" encoding="UTF-8" standalone="no"?>
<!-- Created with CurveBenchmark -->
<svg
	xmlns:dc="http://purl.org/dc/elements/1.1/"
	xmlns:cc="http://creativecommons.org/ns#"
	xmlns:rdf="http://www.w3.org/1999/02/22-rdf-syntax-ns#"
	xmlns:svg="http://www.w3.org/2000/svg"
	xmlns="http://www.w3.org/2000/svg"
	xmlns:sodipodi="http://sodipodi.sourceforge.net/DTD/sodipodi-0.dtd"
	xmlns:inkscape="http://www.inkscape.org/namespaces/inkscape"
	width="1000"
	height="1000"
	id="svg2"
	version="1.1"
	sodipodi:docname="manifold/connect2d-fa18bocc1.png.txt">
<defs
	id="defs4" />
<metadata
	id="metadata7">
	<rdf:RDF>
		<cc:Work
			rdf:about="">
			<dc:format>image/svg+xml</dc:format>
			<dc:type
				rdf:resource="http://purl.org/dc/dcmitype/StillImage" />
			<dc:title></dc:title>
		</cc:Work>
	</rdf:RDF>
</metadata>
<g
	inkscape:label="Layer 1"
	inkscape:groupmode="layer"
	id="layer1">
	<path style="fill:none;stroke:red;stroke-width:1px;stroke-linecap:butt;stroke-linejoin:miter;stroke-opacity:1" d="M 993.248,390.619 996,404.377 z" id="boundary" inkscape:connector-curvature="0" />
	<path style="fill:none;stroke:red;stroke-width:1px;stroke-linecap:butt;stroke-linejoin:miter;stroke-opacity:1" d="M 996,404.377 982.241,411.257 z" id="boundary" inkscape:connector-curvature="0" />
	<path style="fill:none;stroke:red;stroke-width:1px;stroke-linecap:butt;stroke-linejoin:miter;stroke-opacity:1" d="M 982.241,411.257 969.859,418.136 z" id="boundary" inkscape:connector-curvature="0" />
	<path style="fill:none;stroke:red;stroke-width:1px;stroke-linecap:butt;stroke-linejoin:miter;stroke-opacity:1" d="M 969.859,418.136 956.1,418.136 z" id="boundary" inkscape:connector-curvature="0" />
	<path style="fill:none;stroke:red;stroke-width:1px;stroke-linecap:butt;stroke-linejoin:miter;stroke-opacity:1" d="M 956.1,418.136 942.341,418.136 z" id="boundary" inkscape:connector-curvature="0" />
	<path style="fill:none;stroke:red;stroke-width:1px;stroke-linecap:butt;stroke-linejoin:miter;stroke-opacity:1" d="M 942.341,418.136 929.958,425.015 z" id="boundary" inkscape:connector-curvature="0" />
	<path style="fill:none;stroke:red;stroke-width:1px;stroke-linecap:butt;stroke-linejoin:miter;stroke-opacity:1" d="M 929.958,425.015 916.2,425.015 z" id="boundary" inkscape:connector-curvature="0" />
	<path style="fill:none;stroke:red;stroke-width:1px;stroke-linecap:butt;stroke-linejoin:miter;stroke-opacity:1" d="M 916.2,425.015 902.441,425.015 z" id="boundary" inkscape:connector-curvature="0" />
	<path style="fill:none;stroke:red;stroke-width:1px;stroke-linecap:butt;stroke-linejoin:miter;stroke-opacity:1" d="M 902.441,425.015 888.682,425.015 z" id="boundary" inkscape:connector-curvature="0" />
	<path style="fill:none;stroke:red;stroke-width:1px;stroke-linecap:butt;stroke-linejoin:miter;stroke-opacity:1" d="M 888.682,425.015 874.924,425.015 z" id="boundary" inkscape:connector-curvature="0" />
	<path style="fill:none;stroke:red;stroke-width:1px;stroke-linecap:butt;stroke-linejoin:miter;stroke-opacity:1" d="M 874.924,425.015 861.165,425.015 z" id="boundary" inkscape:connector-curvature="0" />
	<path style="fill:none;stroke:red;stroke-width:1px;stroke-linecap:butt;stroke-linejoin:miter;stroke-opacity:1" d="M 861.165,425.015 847.406,425.015 z" id="boundary" inkscape:connector-curvature="0" />
	<path style="fill:none;stroke:red;stroke-width:1px;stroke-linecap:butt;stroke-linejoin:miter;stroke-opacity:1" d="M 847.406,425.015 833.648,425.015 z" id="boundary" inkscape:connector-curvature="0" />
	<path style="fill:none;stroke:red;stroke-width:1px;stroke-linecap:butt;stroke-linejoin:miter;stroke-opacity:1" d="M 833.648,425.015 819.889,425.015 z" id="boundary" inkscape:connector-curvature="0" />
	<path style="fill:none;stroke:red;stroke-width:1px;stroke-linecap:butt;stroke-linejoin:miter;stroke-opacity:1" d="M 819.889,425.015 806.13,425.015 z" id="boundary" inkscape:connector-curvature="0" />
	<path style="fill:none;stroke:red;stroke-width:1px;stroke-linecap:butt;stroke-linejoin:miter;stroke-opacity:1" d="M 806.13,425.015 792.372,430.519 z" id="boundary" inkscape:connector-curvature="0" />
	<path style="fill:none;stroke:red;stroke-width:1px;stroke-linecap:butt;stroke-linejoin:miter;stroke-opacity:1" d="M 792.372,430.519 779.989,438.774 z" id="boundary" inkscape:connector-curvature="0" />
	<path style="fill:none;stroke:red;stroke-width:1px;stroke-linecap:butt;stroke-linejoin:miter;stroke-opacity:1" d="M 779.989,438.774 766.23,442.902 z" id="boundary" inkscape:connector-curvature="0" />
	<path style="fill:none;stroke:red;stroke-width:1px;stroke-linecap:butt;stroke-linejoin:miter;stroke-opacity:1" d="M 766.23,442.902 752.472,445.653 z" id="boundary" inkscape:connector-curvature="0" />
	<path style="fill:none;stroke:red;stroke-width:1px;stroke-linecap:butt;stroke-linejoin:miter;stroke-opacity:1" d="M 752.472,445.653 738.713,449.781 z" id="boundary" inkscape:connector-curvature="0" />
	<path style="fill:none;stroke:red;stroke-width:1px;stroke-linecap:butt;stroke-linejoin:miter;stroke-opacity:1" d="M 738.713,449.781 724.954,452.533 z" id="boundary" inkscape:connector-curvature="0" />
	<path style="fill:none;stroke:red;stroke-width:1px;stroke-linecap:butt;stroke-linejoin:miter;stroke-opacity:1" d="M 724.954,452.533 711.196,452.533 z" id="boundary" inkscape:connector-curvature="0" />
	<path style="fill:none;stroke:red;stroke-width:1px;stroke-linecap:butt;stroke-linejoin:miter;stroke-opacity:1" d="M 711.196,452.533 697.437,452.533 z" id="boundary" inkscape:connector-curvature="0" />
	<path style="fill:none;stroke:red;stroke-width:1px;stroke-linecap:butt;stroke-linejoin:miter;stroke-opacity:1" d="M 697.437,452.533 683.678,452.533 z" id="boundary" inkscape:connector-curvature="0" />
	<path style="fill:none;stroke:red;stroke-width:1px;stroke-linecap:butt;stroke-linejoin:miter;stroke-opacity:1" d="M 683.678,452.533 671.295,459.412 z" id="boundary" inkscape:connector-curvature="0" />
	<path style="fill:none;stroke:red;stroke-width:1px;stroke-linecap:butt;stroke-linejoin:miter;stroke-opacity:1" d="M 671.295,459.412 657.537,459.412 z" id="boundary" inkscape:connector-curvature="0" />
	<path style="fill:none;stroke:red;stroke-width:1px;stroke-linecap:butt;stroke-linejoin:miter;stroke-opacity:1" d="M 657.537,459.412 643.778,462.164 z" id="boundary" inkscape:connector-curvature="0" />
	<path style="fill:none;stroke:red;stroke-width:1px;stroke-linecap:butt;stroke-linejoin:miter;stroke-opacity:1" d="M 643.778,462.164 630.019,466.291 z" id="boundary" inkscape:connector-curvature="0" />
	<path style="fill:none;stroke:red;stroke-width:1px;stroke-linecap:butt;stroke-linejoin:miter;stroke-opacity:1" d="M 630.019,466.291 616.261,466.291 z" id="boundary" inkscape:connector-curvature="0" />
	<path style="fill:none;stroke:red;stroke-width:1px;stroke-linecap:butt;stroke-linejoin:miter;stroke-opacity:1" d="M 616.261,466.291 603.878,473.171 z" id="boundary" inkscape:connector-curvature="0" />
	<path style="fill:none;stroke:red;stroke-width:1px;stroke-linecap:butt;stroke-linejoin:miter;stroke-opacity:1" d="M 603.878,473.171 590.119,473.171 z" id="boundary" inkscape:connector-curvature="0" />
	<path style="fill:none;stroke:red;stroke-width:1px;stroke-linecap:butt;stroke-linejoin:miter;stroke-opacity:1" d="M 590.119,473.171 576.361,473.171 z" id="boundary" inkscape:connector-curvature="0" />
	<path style="fill:none;stroke:red;stroke-width:1px;stroke-linecap:butt;stroke-linejoin:miter;stroke-opacity:1" d="M 576.361,473.171 562.602,473.171 z" id="boundary" inkscape:connector-curvature="0" />
	<path style="fill:none;stroke:red;stroke-width:1px;stroke-linecap:butt;stroke-linejoin:miter;stroke-opacity:1" d="M 562.602,473.171 548.843,480.05 z" id="boundary" inkscape:connector-curvature="0" />
	<path style="fill:none;stroke:red;stroke-width:1px;stroke-linecap:butt;stroke-linejoin:miter;stroke-opacity:1" d="M 548.843,480.05 535.085,480.05 z" id="boundary" inkscape:connector-curvature="0" />
	<path style="fill:none;stroke:red;stroke-width:1px;stroke-linecap:butt;stroke-linejoin:miter;stroke-opacity:1" d="M 535.085,480.05 521.326,480.05 z" id="boundary" inkscape:connector-curvature="0" />
	<path style="fill:none;stroke:red;stroke-width:1px;stroke-linecap:butt;stroke-linejoin:miter;stroke-opacity:1" d="M 521.326,480.05 507.567,480.05 z" id="boundary" inkscape:connector-curvature="0" />
	<path style="fill:none;stroke:red;stroke-width:1px;stroke-linecap:butt;stroke-linejoin:miter;stroke-opacity:1" d="M 507.567,480.05 493.809,480.05 z" id="boundary" inkscape:connector-curvature="0" />
	<path style="fill:none;stroke:red;stroke-width:1px;stroke-linecap:butt;stroke-linejoin:miter;stroke-opacity:1" d="M 493.809,480.05 486.929,493.809 z" id="boundary" inkscape:connector-curvature="0" />
	<path style="fill:none;stroke:red;stroke-width:1px;stroke-linecap:butt;stroke-linejoin:miter;stroke-opacity:1" d="M 486.929,493.809 480.05,507.567 z" id="boundary" inkscape:connector-curvature="0" />
	<path style="fill:none;stroke:red;stroke-width:1px;stroke-linecap:butt;stroke-linejoin:miter;stroke-opacity:1" d="M 480.05,507.567 473.171,521.326 z" id="boundary" inkscape:connector-curvature="0" />
	<path style="fill:none;stroke:red;stroke-width:1px;stroke-linecap:butt;stroke-linejoin:miter;stroke-opacity:1" d="M 473.171,521.326 466.291,541.964 z" id="boundary" inkscape:connector-curvature="0" />
	<path style="fill:none;stroke:red;stroke-width:1px;stroke-linecap:butt;stroke-linejoin:miter;stroke-opacity:1" d="M 466.291,541.964 459.412,555.723 z" id="boundary" inkscape:connector-curvature="0" />
	<path style="fill:none;stroke:red;stroke-width:1px;stroke-linecap:butt;stroke-linejoin:miter;stroke-opacity:1" d="M 459.412,555.723 452.533,569.481 z" id="boundary" inkscape:connector-curvature="0" />
	<path style="fill:none;stroke:red;stroke-width:1px;stroke-linecap:butt;stroke-linejoin:miter;stroke-opacity:1" d="M 452.533,569.481 447.029,583.24 z" id="boundary" inkscape:connector-curvature="0" />
	<path style="fill:none;stroke:red;stroke-width:1px;stroke-linecap:butt;stroke-linejoin:miter;stroke-opacity:1" d="M 447.029,583.24 434.646,590.119 z" id="boundary" inkscape:connector-curvature="0" />
	<path style="fill:none;stroke:red;stroke-width:1px;stroke-linecap:butt;stroke-linejoin:miter;stroke-opacity:1" d="M 434.646,590.119 420.888,590.119 z" id="boundary" inkscape:connector-curvature="0" />
	<path style="fill:none;stroke:red;stroke-width:1px;stroke-linecap:butt;stroke-linejoin:miter;stroke-opacity:1" d="M 420.888,590.119 407.129,590.119 z" id="boundary" inkscape:connector-curvature="0" />
	<path style="fill:none;stroke:red;stroke-width:1px;stroke-linecap:butt;stroke-linejoin:miter;stroke-opacity:1" d="M 407.129,590.119 393.37,590.119 z" id="boundary" inkscape:connector-curvature="0" />
	<path style="fill:none;stroke:red;stroke-width:1px;stroke-linecap:butt;stroke-linejoin:miter;stroke-opacity:1" d="M 393.37,590.119 379.612,590.119 z" id="boundary" inkscape:connector-curvature="0" />
	<path style="fill:none;stroke:red;stroke-width:1px;stroke-linecap:butt;stroke-linejoin:miter;stroke-opacity:1" d="M 379.612,590.119 365.853,590.119 z" id="boundary" inkscape:connector-curvature="0" />
	<path style="fill:none;stroke:red;stroke-width:1px;stroke-linecap:butt;stroke-linejoin:miter;stroke-opacity:1" d="M 365.853,590.119 352.094,590.119 z" id="boundary" inkscape:connector-curvature="0" />
	<path style="fill:none;stroke:red;stroke-width:1px;stroke-linecap:butt;stroke-linejoin:miter;stroke-opacity:1" d="M 352.094,590.119 338.336,590.119 z" id="boundary" inkscape:connector-curvature="0" />
	<path style="fill:none;stroke:red;stroke-width:1px;stroke-linecap:butt;stroke-linejoin:miter;stroke-opacity:1" d="M 338.336,590.119 324.577,590.119 z" id="boundary" inkscape:connector-curvature="0" />
	<path style="fill:none;stroke:red;stroke-width:1px;stroke-linecap:butt;stroke-linejoin:miter;stroke-opacity:1" d="M 324.577,590.119 310.818,590.119 z" id="boundary" inkscape:connector-curvature="0" />
	<path style="fill:none;stroke:red;stroke-width:1px;stroke-linecap:butt;stroke-linejoin:miter;stroke-opacity:1" d="M 310.818,590.119 297.06,590.119 z" id="boundary" inkscape:connector-curvature="0" />
	<path style="fill:none;stroke:red;stroke-width:1px;stroke-linecap:butt;stroke-linejoin:miter;stroke-opacity:1" d="M 297.06,590.119 283.301,590.119 z" id="boundary" inkscape:connector-curvature="0" />
	<path style="fill:none;stroke:red;stroke-width:1px;stroke-linecap:butt;stroke-linejoin:miter;stroke-opacity:1" d="M 283.301,590.119 269.542,588.743 z" id="boundary" inkscape:connector-curvature="0" />
	<path style="fill:none;stroke:red;stroke-width:1px;stroke-linecap:butt;stroke-linejoin:miter;stroke-opacity:1" d="M 269.542,588.743 262.663,576.361 z" id="boundary" inkscape:connector-curvature="0" />
	<path style="fill:none;stroke:red;stroke-width:1px;stroke-linecap:butt;stroke-linejoin:miter;stroke-opacity:1" d="M 262.663,576.361 258.535,562.602 z" id="boundary" inkscape:connector-curvature="0" />
	<path style="fill:none;stroke:red;stroke-width:1px;stroke-linecap:butt;stroke-linejoin:miter;stroke-opacity:1" d="M 258.535,562.602 258.535,548.843 z" id="boundary" inkscape:connector-curvature="0" />
	<path style="fill:none;stroke:red;stroke-width:1px;stroke-linecap:butt;stroke-linejoin:miter;stroke-opacity:1" d="M 258.535,548.843 258.535,535.085 z" id="boundary" inkscape:connector-curvature="0" />
	<path style="fill:none;stroke:red;stroke-width:1px;stroke-linecap:butt;stroke-linejoin:miter;stroke-opacity:1" d="M 258.535,535.085 258.535,521.326 z" id="boundary" inkscape:connector-curvature="0" />
	<path style="fill:none;stroke:red;stroke-width:1px;stroke-linecap:butt;stroke-linejoin:miter;stroke-opacity:1" d="M 258.535,521.326 258.535,507.567 z" id="boundary" inkscape:connector-curvature="0" />
	<path style="fill:none;stroke:red;stroke-width:1px;stroke-linecap:butt;stroke-linejoin:miter;stroke-opacity:1" d="M 258.535,507.567 258.535,493.809 z" id="boundary" inkscape:connector-curvature="0" />
	<path style="fill:none;stroke:red;stroke-width:1px;stroke-linecap:butt;stroke-linejoin:miter;stroke-opacity:1" d="M 258.535,493.809 257.16,480.05 z" id="boundary" inkscape:connector-curvature="0" />
	<path style="fill:none;stroke:red;stroke-width:1px;stroke-linecap:butt;stroke-linejoin:miter;stroke-opacity:1" d="M 257.16,480.05 243.401,480.05 z" id="boundary" inkscape:connector-curvature="0" />
	<path style="fill:none;stroke:red;stroke-width:1px;stroke-linecap:butt;stroke-linejoin:miter;stroke-opacity:1" d="M 243.401,480.05 231.018,486.929 z" id="boundary" inkscape:connector-curvature="0" />
	<path style="fill:none;stroke:red;stroke-width:1px;stroke-linecap:butt;stroke-linejoin:miter;stroke-opacity:1" d="M 231.018,486.929 217.259,489.681 z" id="boundary" inkscape:connector-curvature="0" />
	<path style="fill:none;stroke:red;stroke-width:1px;stroke-linecap:butt;stroke-linejoin:miter;stroke-opacity:1" d="M 217.259,489.681 203.501,493.809 z" id="boundary" inkscape:connector-curvature="0" />
	<path style="fill:none;stroke:red;stroke-width:1px;stroke-linecap:butt;stroke-linejoin:miter;stroke-opacity:1" d="M 203.501,493.809 191.118,500.688 z" id="boundary" inkscape:connector-curvature="0" />
	<path style="fill:none;stroke:red;stroke-width:1px;stroke-linecap:butt;stroke-linejoin:miter;stroke-opacity:1" d="M 191.118,500.688 177.359,500.688 z" id="boundary" inkscape:connector-curvature="0" />
	<path style="fill:none;stroke:red;stroke-width:1px;stroke-linecap:butt;stroke-linejoin:miter;stroke-opacity:1" d="M 177.359,500.688 163.601,500.688 z" id="boundary" inkscape:connector-curvature="0" />
	<path style="fill:none;stroke:red;stroke-width:1px;stroke-linecap:butt;stroke-linejoin:miter;stroke-opacity:1" d="M 163.601,500.688 153.969,511.695 z" id="boundary" inkscape:connector-curvature="0" />
	<path style="fill:none;stroke:red;stroke-width:1px;stroke-linecap:butt;stroke-linejoin:miter;stroke-opacity:1" d="M 153.969,511.695 142.963,521.326 z" id="boundary" inkscape:connector-curvature="0" />
	<path style="fill:none;stroke:red;stroke-width:1px;stroke-linecap:butt;stroke-linejoin:miter;stroke-opacity:1" d="M 142.963,521.326 133.331,532.333 z" id="boundary" inkscape:connector-curvature="0" />
	<path style="fill:none;stroke:red;stroke-width:1px;stroke-linecap:butt;stroke-linejoin:miter;stroke-opacity:1" d="M 133.331,532.333 122.325,541.964 z" id="boundary" inkscape:connector-curvature="0" />
	<path style="fill:none;stroke:red;stroke-width:1px;stroke-linecap:butt;stroke-linejoin:miter;stroke-opacity:1" d="M 122.325,541.964 108.566,548.843 z" id="boundary" inkscape:connector-curvature="0" />
	<path style="fill:none;stroke:red;stroke-width:1px;stroke-linecap:butt;stroke-linejoin:miter;stroke-opacity:1" d="M 108.566,548.843 98.9348,559.85 z" id="boundary" inkscape:connector-curvature="0" />
	<path style="fill:none;stroke:red;stroke-width:1px;stroke-linecap:butt;stroke-linejoin:miter;stroke-opacity:1" d="M 98.9348,559.85 87.9279,569.481 z" id="boundary" inkscape:connector-curvature="0" />
	<path style="fill:none;stroke:red;stroke-width:1px;stroke-linecap:butt;stroke-linejoin:miter;stroke-opacity:1" d="M 87.9279,569.481 76.9209,581.864 z" id="boundary" inkscape:connector-curvature="0" />
	<path style="fill:none;stroke:red;stroke-width:1px;stroke-linecap:butt;stroke-linejoin:miter;stroke-opacity:1" d="M 76.9209,581.864 65.914,592.871 z" id="boundary" inkscape:connector-curvature="0" />
	<path style="fill:none;stroke:red;stroke-width:1px;stroke-linecap:butt;stroke-linejoin:miter;stroke-opacity:1" d="M 65.914,592.871 52.1553,596.999 z" id="boundary" inkscape:connector-curvature="0" />
	<path style="fill:none;stroke:red;stroke-width:1px;stroke-linecap:butt;stroke-linejoin:miter;stroke-opacity:1" d="M 52.1553,596.999 38.3967,596.999 z" id="boundary" inkscape:connector-curvature="0" />
	<path style="fill:none;stroke:red;stroke-width:1px;stroke-linecap:butt;stroke-linejoin:miter;stroke-opacity:1" d="M 38.3967,596.999 24.638,596.999 z" id="boundary" inkscape:connector-curvature="0" />
	<path style="fill:none;stroke:red;stroke-width:1px;stroke-linecap:butt;stroke-linejoin:miter;stroke-opacity:1" d="M 24.638,596.999 10.8793,591.495 z" id="boundary" inkscape:connector-curvature="0" />
	<path style="fill:none;stroke:red;stroke-width:1px;stroke-linecap:butt;stroke-linejoin:miter;stroke-opacity:1" d="M 10.8793,591.495 4,579.112 z" id="boundary" inkscape:connector-curvature="0" />
	<path style="fill:none;stroke:red;stroke-width:1px;stroke-linecap:butt;stroke-linejoin:miter;stroke-opacity:1" d="M 4,579.112 4,565.354 z" id="boundary" inkscape:connector-curvature="0" />
	<path style="fill:none;stroke:red;stroke-width:1px;stroke-linecap:butt;stroke-linejoin:miter;stroke-opacity:1" d="M 4,565.354 15.0069,554.347 z" id="boundary" inkscape:connector-curvature="0" />
	<path style="fill:none;stroke:red;stroke-width:1px;stroke-linecap:butt;stroke-linejoin:miter;stroke-opacity:1" d="M 15.0069,554.347 17.7587,537.836 z" id="boundary" inkscape:connector-curvature="0" />
	<path style="fill:none;stroke:red;stroke-width:1px;stroke-linecap:butt;stroke-linejoin:miter;stroke-opacity:1" d="M 17.7587,537.836 24.638,524.078 z" id="boundary" inkscape:connector-curvature="0" />
	<path style="fill:none;stroke:red;stroke-width:1px;stroke-linecap:butt;stroke-linejoin:miter;stroke-opacity:1" d="M 24.638,524.078 31.5173,510.319 z" id="boundary" inkscape:connector-curvature="0" />
	<path style="fill:none;stroke:red;stroke-width:1px;stroke-linecap:butt;stroke-linejoin:miter;stroke-opacity:1" d="M 31.5173,510.319 38.3967,496.56 z" id="boundary" inkscape:connector-curvature="0" />
	<path style="fill:none;stroke:red;stroke-width:1px;stroke-linecap:butt;stroke-linejoin:miter;stroke-opacity:1" d="M 38.3967,496.56 45.276,482.802 z" id="boundary" inkscape:connector-curvature="0" />
	<path style="fill:none;stroke:red;stroke-width:1px;stroke-linecap:butt;stroke-linejoin:miter;stroke-opacity:1" d="M 45.276,482.802 52.1553,469.043 z" id="boundary" inkscape:connector-curvature="0" />
	<path style="fill:none;stroke:red;stroke-width:1px;stroke-linecap:butt;stroke-linejoin:miter;stroke-opacity:1" d="M 52.1553,469.043 59.0347,455.284 z" id="boundary" inkscape:connector-curvature="0" />
	<path style="fill:none;stroke:red;stroke-width:1px;stroke-linecap:butt;stroke-linejoin:miter;stroke-opacity:1" d="M 59.0347,455.284 49.4036,444.277 z" id="boundary" inkscape:connector-curvature="0" />
	<path style="fill:none;stroke:red;stroke-width:1px;stroke-linecap:butt;stroke-linejoin:miter;stroke-opacity:1" d="M 49.4036,444.277 38.3967,434.646 z" id="boundary" inkscape:connector-curvature="0" />
	<path style="fill:none;stroke:red;stroke-width:1px;stroke-linecap:butt;stroke-linejoin:miter;stroke-opacity:1" d="M 38.3967,434.646 38.3967,420.888 z" id="boundary" inkscape:connector-curvature="0" />
	<path style="fill:none;stroke:red;stroke-width:1px;stroke-linecap:butt;stroke-linejoin:miter;stroke-opacity:1" d="M 38.3967,420.888 38.3967,407.129 z" id="boundary" inkscape:connector-curvature="0" />
	<path style="fill:none;stroke:red;stroke-width:1px;stroke-linecap:butt;stroke-linejoin:miter;stroke-opacity:1" d="M 38.3967,407.129 52.1553,400.25 z" id="boundary" inkscape:connector-curvature="0" />
	<path style="fill:none;stroke:red;stroke-width:1px;stroke-linecap:butt;stroke-linejoin:miter;stroke-opacity:1" d="M 52.1553,400.25 52.1553,383.739 z" id="boundary" inkscape:connector-curvature="0" />
	<path style="fill:none;stroke:red;stroke-width:1px;stroke-linecap:butt;stroke-linejoin:miter;stroke-opacity:1" d="M 52.1553,383.739 38.3967,378.236 z" id="boundary" inkscape:connector-curvature="0" />
	<path style="fill:none;stroke:red;stroke-width:1px;stroke-linecap:butt;stroke-linejoin:miter;stroke-opacity:1" d="M 38.3967,378.236 31.5173,365.853 z" id="boundary" inkscape:connector-curvature="0" />
	<path style="fill:none;stroke:red;stroke-width:1px;stroke-linecap:butt;stroke-linejoin:miter;stroke-opacity:1" d="M 31.5173,365.853 31.5173,352.094 z" id="boundary" inkscape:connector-curvature="0" />
	<path style="fill:none;stroke:red;stroke-width:1px;stroke-linecap:butt;stroke-linejoin:miter;stroke-opacity:1" d="M 31.5173,352.094 42.5243,341.087 z" id="boundary" inkscape:connector-curvature="0" />
	<path style="fill:none;stroke:red;stroke-width:1px;stroke-linecap:butt;stroke-linejoin:miter;stroke-opacity:1" d="M 42.5243,341.087 56.2829,341.087 z" id="boundary" inkscape:connector-curvature="0" />
	<path style="fill:none;stroke:red;stroke-width:1px;stroke-linecap:butt;stroke-linejoin:miter;stroke-opacity:1" d="M 56.2829,341.087 52.1553,317.698 z" id="boundary" inkscape:connector-curvature="0" />
	<path style="fill:none;stroke:red;stroke-width:1px;stroke-linecap:butt;stroke-linejoin:miter;stroke-opacity:1" d="M 52.1553,317.698 46.6519,303.939 z" id="boundary" inkscape:connector-curvature="0" />
	<path style="fill:none;stroke:red;stroke-width:1px;stroke-linecap:butt;stroke-linejoin:miter;stroke-opacity:1" d="M 46.6519,303.939 39.7725,291.556 z" id="boundary" inkscape:connector-curvature="0" />
	<path style="fill:none;stroke:red;stroke-width:1px;stroke-linecap:butt;stroke-linejoin:miter;stroke-opacity:1" d="M 39.7725,291.556 34.2691,277.798 z" id="boundary" inkscape:connector-curvature="0" />
	<path style="fill:none;stroke:red;stroke-width:1px;stroke-linecap:butt;stroke-linejoin:miter;stroke-opacity:1" d="M 34.2691,277.798 27.3897,265.415 z" id="boundary" inkscape:connector-curvature="0" />
	<path style="fill:none;stroke:red;stroke-width:1px;stroke-linecap:butt;stroke-linejoin:miter;stroke-opacity:1" d="M 27.3897,265.415 24.638,251.656 z" id="boundary" inkscape:connector-curvature="0" />
	<path style="fill:none;stroke:red;stroke-width:1px;stroke-linecap:butt;stroke-linejoin:miter;stroke-opacity:1" d="M 24.638,251.656 17.7587,239.273 z" id="boundary" inkscape:connector-curvature="0" />
	<path style="fill:none;stroke:red;stroke-width:1px;stroke-linecap:butt;stroke-linejoin:miter;stroke-opacity:1" d="M 17.7587,239.273 10.8793,226.89 z" id="boundary" inkscape:connector-curvature="0" />
	<path style="fill:none;stroke:red;stroke-width:1px;stroke-linecap:butt;stroke-linejoin:miter;stroke-opacity:1" d="M 10.8793,226.89 4,214.508 z" id="boundary" inkscape:connector-curvature="0" />
	<path style="fill:none;stroke:red;stroke-width:1px;stroke-linecap:butt;stroke-linejoin:miter;stroke-opacity:1" d="M 4,214.508 4,200.749 z" id="boundary" inkscape:connector-curvature="0" />
	<path style="fill:none;stroke:red;stroke-width:1px;stroke-linecap:butt;stroke-linejoin:miter;stroke-opacity:1" d="M 4,200.749 15.0069,189.742 z" id="boundary" inkscape:connector-curvature="0" />
	<path style="fill:none;stroke:red;stroke-width:1px;stroke-linecap:butt;stroke-linejoin:miter;stroke-opacity:1" d="M 15.0069,189.742 28.7656,189.742 z" id="boundary" inkscape:connector-curvature="0" />
	<path style="fill:none;stroke:red;stroke-width:1px;stroke-linecap:butt;stroke-linejoin:miter;stroke-opacity:1" d="M 28.7656,189.742 42.5243,189.742 z" id="boundary" inkscape:connector-curvature="0" />
	<path style="fill:none;stroke:red;stroke-width:1px;stroke-linecap:butt;stroke-linejoin:miter;stroke-opacity:1" d="M 42.5243,189.742 56.2829,189.742 z" id="boundary" inkscape:connector-curvature="0" />
	<path style="fill:none;stroke:red;stroke-width:1px;stroke-linecap:butt;stroke-linejoin:miter;stroke-opacity:1" d="M 56.2829,189.742 70.0416,189.742 z" id="boundary" inkscape:connector-curvature="0" />
	<path style="fill:none;stroke:red;stroke-width:1px;stroke-linecap:butt;stroke-linejoin:miter;stroke-opacity:1" d="M 70.0416,189.742 79.6727,200.749 z" id="boundary" inkscape:connector-curvature="0" />
	<path style="fill:none;stroke:red;stroke-width:1px;stroke-linecap:butt;stroke-linejoin:miter;stroke-opacity:1" d="M 79.6727,200.749 90.6796,210.38 z" id="boundary" inkscape:connector-curvature="0" />
	<path style="fill:none;stroke:red;stroke-width:1px;stroke-linecap:butt;stroke-linejoin:miter;stroke-opacity:1" d="M 90.6796,210.38 100.311,221.387 z" id="boundary" inkscape:connector-curvature="0" />
	<path style="fill:none;stroke:red;stroke-width:1px;stroke-linecap:butt;stroke-linejoin:miter;stroke-opacity:1" d="M 100.311,221.387 111.318,231.018 z" id="boundary" inkscape:connector-curvature="0" />
	<path style="fill:none;stroke:red;stroke-width:1px;stroke-linecap:butt;stroke-linejoin:miter;stroke-opacity:1" d="M 111.318,231.018 120.949,242.025 z" id="boundary" inkscape:connector-curvature="0" />
	<path style="fill:none;stroke:red;stroke-width:1px;stroke-linecap:butt;stroke-linejoin:miter;stroke-opacity:1" d="M 120.949,242.025 131.956,251.656 z" id="boundary" inkscape:connector-curvature="0" />
	<path style="fill:none;stroke:red;stroke-width:1px;stroke-linecap:butt;stroke-linejoin:miter;stroke-opacity:1" d="M 131.956,251.656 141.587,262.663 z" id="boundary" inkscape:connector-curvature="0" />
	<path style="fill:none;stroke:red;stroke-width:1px;stroke-linecap:butt;stroke-linejoin:miter;stroke-opacity:1" d="M 141.587,262.663 152.594,272.294 z" id="boundary" inkscape:connector-curvature="0" />
	<path style="fill:none;stroke:red;stroke-width:1px;stroke-linecap:butt;stroke-linejoin:miter;stroke-opacity:1" d="M 152.594,272.294 162.225,283.301 z" id="boundary" inkscape:connector-curvature="0" />
	<path style="fill:none;stroke:red;stroke-width:1px;stroke-linecap:butt;stroke-linejoin:miter;stroke-opacity:1" d="M 162.225,283.301 175.983,288.804 z" id="boundary" inkscape:connector-curvature="0" />
	<path style="fill:none;stroke:red;stroke-width:1px;stroke-linecap:butt;stroke-linejoin:miter;stroke-opacity:1" d="M 175.983,288.804 189.742,292.932 z" id="boundary" inkscape:connector-curvature="0" />
	<path style="fill:none;stroke:red;stroke-width:1px;stroke-linecap:butt;stroke-linejoin:miter;stroke-opacity:1" d="M 189.742,292.932 203.501,295.684 z" id="boundary" inkscape:connector-curvature="0" />
	<path style="fill:none;stroke:red;stroke-width:1px;stroke-linecap:butt;stroke-linejoin:miter;stroke-opacity:1" d="M 203.501,295.684 217.259,299.811 z" id="boundary" inkscape:connector-curvature="0" />
	<path style="fill:none;stroke:red;stroke-width:1px;stroke-linecap:butt;stroke-linejoin:miter;stroke-opacity:1" d="M 217.259,299.811 231.018,302.563 z" id="boundary" inkscape:connector-curvature="0" />
	<path style="fill:none;stroke:red;stroke-width:1px;stroke-linecap:butt;stroke-linejoin:miter;stroke-opacity:1" d="M 231.018,302.563 244.777,306.691 z" id="boundary" inkscape:connector-curvature="0" />
	<path style="fill:none;stroke:red;stroke-width:1px;stroke-linecap:butt;stroke-linejoin:miter;stroke-opacity:1" d="M 244.777,306.691 257.16,313.57 z" id="boundary" inkscape:connector-curvature="0" />
	<path style="fill:none;stroke:red;stroke-width:1px;stroke-linecap:butt;stroke-linejoin:miter;stroke-opacity:1" d="M 257.16,313.57 258.535,297.06 z" id="boundary" inkscape:connector-curvature="0" />
	<path style="fill:none;stroke:red;stroke-width:1px;stroke-linecap:butt;stroke-linejoin:miter;stroke-opacity:1" d="M 258.535,297.06 258.535,283.301 z" id="boundary" inkscape:connector-curvature="0" />
	<path style="fill:none;stroke:red;stroke-width:1px;stroke-linecap:butt;stroke-linejoin:miter;stroke-opacity:1" d="M 258.535,283.301 258.535,269.542 z" id="boundary" inkscape:connector-curvature="0" />
	<path style="fill:none;stroke:red;stroke-width:1px;stroke-linecap:butt;stroke-linejoin:miter;stroke-opacity:1" d="M 258.535,269.542 258.535,255.784 z" id="boundary" inkscape:connector-curvature="0" />
	<path style="fill:none;stroke:red;stroke-width:1px;stroke-linecap:butt;stroke-linejoin:miter;stroke-opacity:1" d="M 258.535,255.784 258.535,242.025 z" id="boundary" inkscape:connector-curvature="0" />
	<path style="fill:none;stroke:red;stroke-width:1px;stroke-linecap:butt;stroke-linejoin:miter;stroke-opacity:1" d="M 258.535,242.025 258.535,228.266 z" id="boundary" inkscape:connector-curvature="0" />
	<path style="fill:none;stroke:red;stroke-width:1px;stroke-linecap:butt;stroke-linejoin:miter;stroke-opacity:1" d="M 258.535,228.266 258.535,214.508 z" id="boundary" inkscape:connector-curvature="0" />
	<path style="fill:none;stroke:red;stroke-width:1px;stroke-linecap:butt;stroke-linejoin:miter;stroke-opacity:1" d="M 258.535,214.508 258.535,193.87 z" id="boundary" inkscape:connector-curvature="0" />
	<path style="fill:none;stroke:red;stroke-width:1px;stroke-linecap:butt;stroke-linejoin:miter;stroke-opacity:1" d="M 258.535,193.87 265.415,173.232 z" id="boundary" inkscape:connector-curvature="0" />
	<path style="fill:none;stroke:red;stroke-width:1px;stroke-linecap:butt;stroke-linejoin:miter;stroke-opacity:1" d="M 265.415,173.232 265.415,159.473 z" id="boundary" inkscape:connector-curvature="0" />
	<path style="fill:none;stroke:red;stroke-width:1px;stroke-linecap:butt;stroke-linejoin:miter;stroke-opacity:1" d="M 265.415,159.473 265.415,145.714 z" id="boundary" inkscape:connector-curvature="0" />
	<path style="fill:none;stroke:red;stroke-width:1px;stroke-linecap:butt;stroke-linejoin:miter;stroke-opacity:1" d="M 265.415,145.714 265.415,131.956 z" id="boundary" inkscape:connector-curvature="0" />
	<path style="fill:none;stroke:red;stroke-width:1px;stroke-linecap:butt;stroke-linejoin:miter;stroke-opacity:1" d="M 265.415,131.956 272.294,118.197 z" id="boundary" inkscape:connector-curvature="0" />
	<path style="fill:none;stroke:red;stroke-width:1px;stroke-linecap:butt;stroke-linejoin:miter;stroke-opacity:1" d="M 272.294,118.197 272.294,104.438 z" id="boundary" inkscape:connector-curvature="0" />
	<path style="fill:none;stroke:red;stroke-width:1px;stroke-linecap:butt;stroke-linejoin:miter;stroke-opacity:1" d="M 272.294,104.438 272.294,90.6796 z" id="boundary" inkscape:connector-curvature="0" />
	<path style="fill:none;stroke:red;stroke-width:1px;stroke-linecap:butt;stroke-linejoin:miter;stroke-opacity:1" d="M 272.294,90.6796 272.294,76.9209 z" id="boundary" inkscape:connector-curvature="0" />
	<path style="fill:none;stroke:red;stroke-width:1px;stroke-linecap:butt;stroke-linejoin:miter;stroke-opacity:1" d="M 272.294,76.9209 272.294,63.1623 z" id="boundary" inkscape:connector-curvature="0" />
	<path style="fill:none;stroke:red;stroke-width:1px;stroke-linecap:butt;stroke-linejoin:miter;stroke-opacity:1" d="M 272.294,63.1623 272.294,49.4036 z" id="boundary" inkscape:connector-curvature="0" />
	<path style="fill:none;stroke:red;stroke-width:1px;stroke-linecap:butt;stroke-linejoin:miter;stroke-opacity:1" d="M 272.294,49.4036 272.294,35.6449 z" id="boundary" inkscape:connector-curvature="0" />
	<path style="fill:none;stroke:red;stroke-width:1px;stroke-linecap:butt;stroke-linejoin:miter;stroke-opacity:1" d="M 272.294,35.6449 286.053,28.7656 z" id="boundary" inkscape:connector-curvature="0" />
	<path style="fill:none;stroke:red;stroke-width:1px;stroke-linecap:butt;stroke-linejoin:miter;stroke-opacity:1" d="M 286.053,28.7656 286.053,15.0069 z" id="boundary" inkscape:connector-curvature="0" />
	<path style="fill:none;stroke:red;stroke-width:1px;stroke-linecap:butt;stroke-linejoin:miter;stroke-opacity:1" d="M 286.053,15.0069 297.06,4 z" id="boundary" inkscape:connector-curvature="0" />
	<path style="fill:none;stroke:red;stroke-width:1px;stroke-linecap:butt;stroke-linejoin:miter;stroke-opacity:1" d="M 297.06,4 309.442,10.8793 z" id="boundary" inkscape:connector-curvature="0" />
	<path style="fill:none;stroke:red;stroke-width:1px;stroke-linecap:butt;stroke-linejoin:miter;stroke-opacity:1" d="M 309.442,10.8793 320.449,20.5104 z" id="boundary" inkscape:connector-curvature="0" />
	<path style="fill:none;stroke:red;stroke-width:1px;stroke-linecap:butt;stroke-linejoin:miter;stroke-opacity:1" d="M 320.449,20.5104 334.208,24.638 z" id="boundary" inkscape:connector-curvature="0" />
	<path style="fill:none;stroke:red;stroke-width:1px;stroke-linecap:butt;stroke-linejoin:miter;stroke-opacity:1" d="M 334.208,24.638 347.967,24.638 z" id="boundary" inkscape:connector-curvature="0" />
	<path style="fill:none;stroke:red;stroke-width:1px;stroke-linecap:butt;stroke-linejoin:miter;stroke-opacity:1" d="M 347.967,24.638 361.725,24.638 z" id="boundary" inkscape:connector-curvature="0" />
	<path style="fill:none;stroke:red;stroke-width:1px;stroke-linecap:butt;stroke-linejoin:miter;stroke-opacity:1" d="M 361.725,24.638 375.484,24.638 z" id="boundary" inkscape:connector-curvature="0" />
	<path style="fill:none;stroke:red;stroke-width:1px;stroke-linecap:butt;stroke-linejoin:miter;stroke-opacity:1" d="M 375.484,24.638 389.243,24.638 z" id="boundary" inkscape:connector-curvature="0" />
	<path style="fill:none;stroke:red;stroke-width:1px;stroke-linecap:butt;stroke-linejoin:miter;stroke-opacity:1" d="M 389.243,24.638 403.001,24.638 z" id="boundary" inkscape:connector-curvature="0" />
	<path style="fill:none;stroke:red;stroke-width:1px;stroke-linecap:butt;stroke-linejoin:miter;stroke-opacity:1" d="M 403.001,24.638 416.76,24.638 z" id="boundary" inkscape:connector-curvature="0" />
	<path style="fill:none;stroke:red;stroke-width:1px;stroke-linecap:butt;stroke-linejoin:miter;stroke-opacity:1" d="M 416.76,24.638 430.519,20.5104 z" id="boundary" inkscape:connector-curvature="0" />
	<path style="fill:none;stroke:red;stroke-width:1px;stroke-linecap:butt;stroke-linejoin:miter;stroke-opacity:1" d="M 430.519,20.5104 444.277,24.638 z" id="boundary" inkscape:connector-curvature="0" />
	<path style="fill:none;stroke:red;stroke-width:1px;stroke-linecap:butt;stroke-linejoin:miter;stroke-opacity:1" d="M 444.277,24.638 455.284,32.8932 z" id="boundary" inkscape:connector-curvature="0" />
	<path style="fill:none;stroke:red;stroke-width:1px;stroke-linecap:butt;stroke-linejoin:miter;stroke-opacity:1" d="M 455.284,32.8932 444.277,46.6519 z" id="boundary" inkscape:connector-curvature="0" />
	<path style="fill:none;stroke:red;stroke-width:1px;stroke-linecap:butt;stroke-linejoin:miter;stroke-opacity:1" d="M 444.277,46.6519 430.519,46.6519 z" id="boundary" inkscape:connector-curvature="0" />
	<path style="fill:none;stroke:red;stroke-width:1px;stroke-linecap:butt;stroke-linejoin:miter;stroke-opacity:1" d="M 430.519,46.6519 416.76,49.4036 z" id="boundary" inkscape:connector-curvature="0" />
	<path style="fill:none;stroke:red;stroke-width:1px;stroke-linecap:butt;stroke-linejoin:miter;stroke-opacity:1" d="M 416.76,49.4036 403.001,46.6519 z" id="boundary" inkscape:connector-curvature="0" />
	<path style="fill:none;stroke:red;stroke-width:1px;stroke-linecap:butt;stroke-linejoin:miter;stroke-opacity:1" d="M 403.001,46.6519 390.619,53.5312 z" id="boundary" inkscape:connector-curvature="0" />
	<path style="fill:none;stroke:red;stroke-width:1px;stroke-linecap:butt;stroke-linejoin:miter;stroke-opacity:1" d="M 390.619,53.5312 376.86,53.5312 z" id="boundary" inkscape:connector-curvature="0" />
	<path style="fill:none;stroke:red;stroke-width:1px;stroke-linecap:butt;stroke-linejoin:miter;stroke-opacity:1" d="M 376.86,53.5312 383.739,65.914 z" id="boundary" inkscape:connector-curvature="0" />
	<path style="fill:none;stroke:red;stroke-width:1px;stroke-linecap:butt;stroke-linejoin:miter;stroke-opacity:1" d="M 383.739,65.914 383.739,79.6727 z" id="boundary" inkscape:connector-curvature="0" />
	<path style="fill:none;stroke:red;stroke-width:1px;stroke-linecap:butt;stroke-linejoin:miter;stroke-opacity:1" d="M 383.739,79.6727 394.746,87.9279 z" id="boundary" inkscape:connector-curvature="0" />
	<path style="fill:none;stroke:red;stroke-width:1px;stroke-linecap:butt;stroke-linejoin:miter;stroke-opacity:1" d="M 394.746,87.9279 397.498,101.687 z" id="boundary" inkscape:connector-curvature="0" />
	<path style="fill:none;stroke:red;stroke-width:1px;stroke-linecap:butt;stroke-linejoin:miter;stroke-opacity:1" d="M 397.498,101.687 404.377,114.069 z" id="boundary" inkscape:connector-curvature="0" />
	<path style="fill:none;stroke:red;stroke-width:1px;stroke-linecap:butt;stroke-linejoin:miter;stroke-opacity:1" d="M 404.377,114.069 411.257,126.452 z" id="boundary" inkscape:connector-curvature="0" />
	<path style="fill:none;stroke:red;stroke-width:1px;stroke-linecap:butt;stroke-linejoin:miter;stroke-opacity:1" d="M 411.257,126.452 418.136,138.835 z" id="boundary" inkscape:connector-curvature="0" />
	<path style="fill:none;stroke:red;stroke-width:1px;stroke-linecap:butt;stroke-linejoin:miter;stroke-opacity:1" d="M 418.136,138.835 423.639,152.594 z" id="boundary" inkscape:connector-curvature="0" />
	<path style="fill:none;stroke:red;stroke-width:1px;stroke-linecap:butt;stroke-linejoin:miter;stroke-opacity:1" d="M 423.639,152.594 430.519,164.976 z" id="boundary" inkscape:connector-curvature="0" />
	<path style="fill:none;stroke:red;stroke-width:1px;stroke-linecap:butt;stroke-linejoin:miter;stroke-opacity:1" d="M 430.519,164.976 436.022,178.735 z" id="boundary" inkscape:connector-curvature="0" />
	<path style="fill:none;stroke:red;stroke-width:1px;stroke-linecap:butt;stroke-linejoin:miter;stroke-opacity:1" d="M 436.022,178.735 442.902,191.118 z" id="boundary" inkscape:connector-curvature="0" />
	<path style="fill:none;stroke:red;stroke-width:1px;stroke-linecap:butt;stroke-linejoin:miter;stroke-opacity:1" d="M 442.902,191.118 448.405,204.877 z" id="boundary" inkscape:connector-curvature="0" />
	<path style="fill:none;stroke:red;stroke-width:1px;stroke-linecap:butt;stroke-linejoin:miter;stroke-opacity:1" d="M 448.405,204.877 452.533,218.635 z" id="boundary" inkscape:connector-curvature="0" />
	<path style="fill:none;stroke:red;stroke-width:1px;stroke-linecap:butt;stroke-linejoin:miter;stroke-opacity:1" d="M 452.533,218.635 459.412,231.018 z" id="boundary" inkscape:connector-curvature="0" />
	<path style="fill:none;stroke:red;stroke-width:1px;stroke-linecap:butt;stroke-linejoin:miter;stroke-opacity:1" d="M 459.412,231.018 466.291,243.401 z" id="boundary" inkscape:connector-curvature="0" />
	<path style="fill:none;stroke:red;stroke-width:1px;stroke-linecap:butt;stroke-linejoin:miter;stroke-opacity:1" d="M 466.291,243.401 473.171,255.784 z" id="boundary" inkscape:connector-curvature="0" />
	<path style="fill:none;stroke:red;stroke-width:1px;stroke-linecap:butt;stroke-linejoin:miter;stroke-opacity:1" d="M 473.171,255.784 478.674,269.542 z" id="boundary" inkscape:connector-curvature="0" />
	<path style="fill:none;stroke:red;stroke-width:1px;stroke-linecap:butt;stroke-linejoin:miter;stroke-opacity:1" d="M 478.674,269.542 485.553,281.925 z" id="boundary" inkscape:connector-curvature="0" />
	<path style="fill:none;stroke:red;stroke-width:1px;stroke-linecap:butt;stroke-linejoin:miter;stroke-opacity:1" d="M 485.553,281.925 491.057,295.684 z" id="boundary" inkscape:connector-curvature="0" />
	<path style="fill:none;stroke:red;stroke-width:1px;stroke-linecap:butt;stroke-linejoin:miter;stroke-opacity:1" d="M 491.057,295.684 497.936,308.067 z" id="boundary" inkscape:connector-curvature="0" />
	<path style="fill:none;stroke:red;stroke-width:1px;stroke-linecap:butt;stroke-linejoin:miter;stroke-opacity:1" d="M 497.936,308.067 511.695,313.57 z" id="boundary" inkscape:connector-curvature="0" />
	<path style="fill:none;stroke:red;stroke-width:1px;stroke-linecap:butt;stroke-linejoin:miter;stroke-opacity:1" d="M 511.695,313.57 525.454,313.57 z" id="boundary" inkscape:connector-curvature="0" />
	<path style="fill:none;stroke:red;stroke-width:1px;stroke-linecap:butt;stroke-linejoin:miter;stroke-opacity:1" d="M 525.454,313.57 539.212,313.57 z" id="boundary" inkscape:connector-curvature="0" />
	<path style="fill:none;stroke:red;stroke-width:1px;stroke-linecap:butt;stroke-linejoin:miter;stroke-opacity:1" d="M 539.212,313.57 552.971,313.57 z" id="boundary" inkscape:connector-curvature="0" />
	<path style="fill:none;stroke:red;stroke-width:1px;stroke-linecap:butt;stroke-linejoin:miter;stroke-opacity:1" d="M 552.971,313.57 566.73,313.57 z" id="boundary" inkscape:connector-curvature="0" />
	<path style="fill:none;stroke:red;stroke-width:1px;stroke-linecap:butt;stroke-linejoin:miter;stroke-opacity:1" d="M 566.73,313.57 579.112,320.449 z" id="boundary" inkscape:connector-curvature="0" />
	<path style="fill:none;stroke:red;stroke-width:1px;stroke-linecap:butt;stroke-linejoin:miter;stroke-opacity:1" d="M 579.112,320.449 592.871,320.449 z" id="boundary" inkscape:connector-curvature="0" />
	<path style="fill:none;stroke:red;stroke-width:1px;stroke-linecap:butt;stroke-linejoin:miter;stroke-opacity:1" d="M 592.871,320.449 606.63,320.449 z" id="boundary" inkscape:connector-curvature="0" />
	<path style="fill:none;stroke:red;stroke-width:1px;stroke-linecap:butt;stroke-linejoin:miter;stroke-opacity:1" d="M 606.63,320.449 619.012,327.329 z" id="boundary" inkscape:connector-curvature="0" />
	<path style="fill:none;stroke:red;stroke-width:1px;stroke-linecap:butt;stroke-linejoin:miter;stroke-opacity:1" d="M 619.012,327.329 632.771,327.329 z" id="boundary" inkscape:connector-curvature="0" />
	<path style="fill:none;stroke:red;stroke-width:1px;stroke-linecap:butt;stroke-linejoin:miter;stroke-opacity:1" d="M 632.771,327.329 645.154,334.208 z" id="boundary" inkscape:connector-curvature="0" />
	<path style="fill:none;stroke:red;stroke-width:1px;stroke-linecap:butt;stroke-linejoin:miter;stroke-opacity:1" d="M 645.154,334.208 658.913,334.208 z" id="boundary" inkscape:connector-curvature="0" />
	<path style="fill:none;stroke:red;stroke-width:1px;stroke-linecap:butt;stroke-linejoin:miter;stroke-opacity:1" d="M 658.913,334.208 671.295,341.087 z" id="boundary" inkscape:connector-curvature="0" />
	<path style="fill:none;stroke:red;stroke-width:1px;stroke-linecap:butt;stroke-linejoin:miter;stroke-opacity:1" d="M 671.295,341.087 685.054,341.087 z" id="boundary" inkscape:connector-curvature="0" />
	<path style="fill:none;stroke:red;stroke-width:1px;stroke-linecap:butt;stroke-linejoin:miter;stroke-opacity:1" d="M 685.054,341.087 698.813,341.087 z" id="boundary" inkscape:connector-curvature="0" />
	<path style="fill:none;stroke:red;stroke-width:1px;stroke-linecap:butt;stroke-linejoin:miter;stroke-opacity:1" d="M 698.813,341.087 711.196,347.967 z" id="boundary" inkscape:connector-curvature="0" />
	<path style="fill:none;stroke:red;stroke-width:1px;stroke-linecap:butt;stroke-linejoin:miter;stroke-opacity:1" d="M 711.196,347.967 724.954,347.967 z" id="boundary" inkscape:connector-curvature="0" />
	<path style="fill:none;stroke:red;stroke-width:1px;stroke-linecap:butt;stroke-linejoin:miter;stroke-opacity:1" d="M 724.954,347.967 738.713,347.967 z" id="boundary" inkscape:connector-curvature="0" />
	<path style="fill:none;stroke:red;stroke-width:1px;stroke-linecap:butt;stroke-linejoin:miter;stroke-opacity:1" d="M 738.713,347.967 752.472,349.343 z" id="boundary" inkscape:connector-curvature="0" />
	<path style="fill:none;stroke:red;stroke-width:1px;stroke-linecap:butt;stroke-linejoin:miter;stroke-opacity:1" d="M 752.472,349.343 766.23,354.846 z" id="boundary" inkscape:connector-curvature="0" />
	<path style="fill:none;stroke:red;stroke-width:1px;stroke-linecap:butt;stroke-linejoin:miter;stroke-opacity:1" d="M 766.23,354.846 778.613,361.725 z" id="boundary" inkscape:connector-curvature="0" />
	<path style="fill:none;stroke:red;stroke-width:1px;stroke-linecap:butt;stroke-linejoin:miter;stroke-opacity:1" d="M 778.613,361.725 790.996,368.605 z" id="boundary" inkscape:connector-curvature="0" />
	<path style="fill:none;stroke:red;stroke-width:1px;stroke-linecap:butt;stroke-linejoin:miter;stroke-opacity:1" d="M 790.996,368.605 804.755,368.605 z" id="boundary" inkscape:connector-curvature="0" />
	<path style="fill:none;stroke:red;stroke-width:1px;stroke-linecap:butt;stroke-linejoin:miter;stroke-opacity:1" d="M 804.755,368.605 817.137,375.484 z" id="boundary" inkscape:connector-curvature="0" />
	<path style="fill:none;stroke:red;stroke-width:1px;stroke-linecap:butt;stroke-linejoin:miter;stroke-opacity:1" d="M 817.137,375.484 830.896,375.484 z" id="boundary" inkscape:connector-curvature="0" />
	<path style="fill:none;stroke:red;stroke-width:1px;stroke-linecap:butt;stroke-linejoin:miter;stroke-opacity:1" d="M 830.896,375.484 844.655,375.484 z" id="boundary" inkscape:connector-curvature="0" />
	<path style="fill:none;stroke:red;stroke-width:1px;stroke-linecap:butt;stroke-linejoin:miter;stroke-opacity:1" d="M 844.655,375.484 858.413,375.484 z" id="boundary" inkscape:connector-curvature="0" />
	<path style="fill:none;stroke:red;stroke-width:1px;stroke-linecap:butt;stroke-linejoin:miter;stroke-opacity:1" d="M 858.413,375.484 872.172,375.484 z" id="boundary" inkscape:connector-curvature="0" />
	<path style="fill:none;stroke:red;stroke-width:1px;stroke-linecap:butt;stroke-linejoin:miter;stroke-opacity:1" d="M 872.172,375.484 885.931,375.484 z" id="boundary" inkscape:connector-curvature="0" />
	<path style="fill:none;stroke:red;stroke-width:1px;stroke-linecap:butt;stroke-linejoin:miter;stroke-opacity:1" d="M 885.931,375.484 899.689,375.484 z" id="boundary" inkscape:connector-curvature="0" />
	<path style="fill:none;stroke:red;stroke-width:1px;stroke-linecap:butt;stroke-linejoin:miter;stroke-opacity:1" d="M 899.689,375.484 913.448,375.484 z" id="boundary" inkscape:connector-curvature="0" />
	<path style="fill:none;stroke:red;stroke-width:1px;stroke-linecap:butt;stroke-linejoin:miter;stroke-opacity:1" d="M 913.448,375.484 927.207,375.484 z" id="boundary" inkscape:connector-curvature="0" />
	<path style="fill:none;stroke:red;stroke-width:1px;stroke-linecap:butt;stroke-linejoin:miter;stroke-opacity:1" d="M 927.207,375.484 940.965,375.484 z" id="boundary" inkscape:connector-curvature="0" />
	<path style="fill:none;stroke:red;stroke-width:1px;stroke-linecap:butt;stroke-linejoin:miter;stroke-opacity:1" d="M 940.965,375.484 954.724,379.612 z" id="boundary" inkscape:connector-curvature="0" />
	<path style="fill:none;stroke:red;stroke-width:1px;stroke-linecap:butt;stroke-linejoin:miter;stroke-opacity:1" d="M 954.724,379.612 965.731,389.243 z" id="boundary" inkscape:connector-curvature="0" />
	<path style="fill:none;stroke:red;stroke-width:1px;stroke-linecap:butt;stroke-linejoin:miter;stroke-opacity:1" d="M 965.731,389.243 979.49,389.243 z" id="boundary" inkscape:connector-curvature="0" />
	<path style="fill:none;stroke:red;stroke-width:1px;stroke-linecap:butt;stroke-linejoin:miter;stroke-opacity:1" d="M 979.49,389.243 993.248,390.619 z" id="boundary" inkscape:connector-curvature="0" />
	<circle cx="4" cy="200.749" r="4" fill="#0" id="circle0"/>
	<circle cx="4" cy="214.508" r="4" fill="#0" id="circle1"/>
	<circle cx="4" cy="565.354" r="4" fill="#0" id="circle2"/>
	<circle cx="4" cy="579.112" r="4" fill="#0" id="circle3"/>
	<circle cx="10.8793" cy="226.89" r="4" fill="#0" id="circle4"/>
	<circle cx="10.8793" cy="591.495" r="4" fill="#0" id="circle5"/>
	<circle cx="15.0069" cy="189.742" r="4" fill="#0" id="circle6"/>
	<circle cx="15.0069" cy="554.347" r="4" fill="#0" id="circle7"/>
	<circle cx="17.7587" cy="239.273" r="4" fill="#0" id="circle8"/>
	<circle cx="17.7587" cy="537.836" r="4" fill="#0" id="circle9"/>
	<circle cx="24.638" cy="251.656" r="4" fill="#0" id="circle10"/>
	<circle cx="24.638" cy="524.078" r="4" fill="#0" id="circle11"/>
	<circle cx="24.638" cy="596.999" r="4" fill="#0" id="circle12"/>
	<circle cx="27.3897" cy="265.415" r="4" fill="#0" id="circle13"/>
	<circle cx="28.7656" cy="189.742" r="4" fill="#0" id="circle14"/>
	<circle cx="31.5173" cy="352.094" r="4" fill="#0" id="circle15"/>
	<circle cx="31.5173" cy="365.853" r="4" fill="#0" id="circle16"/>
	<circle cx="31.5173" cy="510.319" r="4" fill="#0" id="circle17"/>
	<circle cx="34.2691" cy="277.798" r="4" fill="#0" id="circle18"/>
	<circle cx="38.3967" cy="378.236" r="4" fill="#0" id="circle19"/>
	<circle cx="38.3967" cy="407.129" r="4" fill="#0" id="circle20"/>
	<circle cx="38.3967" cy="420.888" r="4" fill="#0" id="circle21"/>
	<circle cx="38.3967" cy="434.646" r="4" fill="#0" id="circle22"/>
	<circle cx="38.3967" cy="496.56" r="4" fill="#0" id="circle23"/>
	<circle cx="38.3967" cy="596.999" r="4" fill="#0" id="circle24"/>
	<circle cx="39.7725" cy="291.556" r="4" fill="#0" id="circle25"/>
	<circle cx="42.5243" cy="189.742" r="4" fill="#0" id="circle26"/>
	<circle cx="42.5243" cy="341.087" r="4" fill="#0" id="circle27"/>
	<circle cx="45.276" cy="482.802" r="4" fill="#0" id="circle28"/>
	<circle cx="46.6519" cy="303.939" r="4" fill="#0" id="circle29"/>
	<circle cx="49.4036" cy="444.277" r="4" fill="#0" id="circle30"/>
	<circle cx="52.1553" cy="317.698" r="4" fill="#0" id="circle31"/>
	<circle cx="52.1553" cy="383.739" r="4" fill="#0" id="circle32"/>
	<circle cx="52.1553" cy="400.25" r="4" fill="#0" id="circle33"/>
	<circle cx="52.1553" cy="469.043" r="4" fill="#0" id="circle34"/>
	<circle cx="52.1553" cy="596.999" r="4" fill="#0" id="circle35"/>
	<circle cx="56.2829" cy="189.742" r="4" fill="#0" id="circle36"/>
	<circle cx="56.2829" cy="341.087" r="4" fill="#0" id="circle37"/>
	<circle cx="59.0347" cy="455.284" r="4" fill="#0" id="circle38"/>
	<circle cx="65.914" cy="592.871" r="4" fill="#0" id="circle39"/>
	<circle cx="70.0416" cy="189.742" r="4" fill="#0" id="circle40"/>
	<circle cx="76.9209" cy="581.864" r="4" fill="#0" id="circle41"/>
	<circle cx="79.6727" cy="200.749" r="4" fill="#0" id="circle42"/>
	<circle cx="87.9279" cy="569.481" r="4" fill="#0" id="circle43"/>
	<circle cx="90.6796" cy="210.38" r="4" fill="#0" id="circle44"/>
	<circle cx="98.9348" cy="559.85" r="4" fill="#0" id="circle45"/>
	<circle cx="100.311" cy="221.387" r="4" fill="#0" id="circle46"/>
	<circle cx="108.566" cy="548.843" r="4" fill="#0" id="circle47"/>
	<circle cx="111.318" cy="231.018" r="4" fill="#0" id="circle48"/>
	<circle cx="120.949" cy="242.025" r="4" fill="#0" id="circle49"/>
	<circle cx="122.325" cy="541.964" r="4" fill="#0" id="circle50"/>
	<circle cx="131.956" cy="251.656" r="4" fill="#0" id="circle51"/>
	<circle cx="133.331" cy="532.333" r="4" fill="#0" id="circle52"/>
	<circle cx="141.587" cy="262.663" r="4" fill="#0" id="circle53"/>
	<circle cx="142.963" cy="521.326" r="4" fill="#0" id="circle54"/>
	<circle cx="152.594" cy="272.294" r="4" fill="#0" id="circle55"/>
	<circle cx="153.969" cy="511.695" r="4" fill="#0" id="circle56"/>
	<circle cx="162.225" cy="283.301" r="4" fill="#0" id="circle57"/>
	<circle cx="163.601" cy="500.688" r="4" fill="#0" id="circle58"/>
	<circle cx="175.983" cy="288.804" r="4" fill="#0" id="circle59"/>
	<circle cx="177.359" cy="500.688" r="4" fill="#0" id="circle60"/>
	<circle cx="189.742" cy="292.932" r="4" fill="#0" id="circle61"/>
	<circle cx="191.118" cy="500.688" r="4" fill="#0" id="circle62"/>
	<circle cx="203.501" cy="295.684" r="4" fill="#0" id="circle63"/>
	<circle cx="203.501" cy="493.809" r="4" fill="#0" id="circle64"/>
	<circle cx="217.259" cy="299.811" r="4" fill="#0" id="circle65"/>
	<circle cx="217.259" cy="489.681" r="4" fill="#0" id="circle66"/>
	<circle cx="231.018" cy="302.563" r="4" fill="#0" id="circle67"/>
	<circle cx="231.018" cy="486.929" r="4" fill="#0" id="circle68"/>
	<circle cx="243.401" cy="480.05" r="4" fill="#0" id="circle69"/>
	<circle cx="244.777" cy="306.691" r="4" fill="#0" id="circle70"/>
	<circle cx="257.16" cy="313.57" r="4" fill="#0" id="circle71"/>
	<circle cx="257.16" cy="480.05" r="4" fill="#0" id="circle72"/>
	<circle cx="258.535" cy="193.87" r="4" fill="#0" id="circle73"/>
	<circle cx="258.535" cy="214.508" r="4" fill="#0" id="circle74"/>
	<circle cx="258.535" cy="228.266" r="4" fill="#0" id="circle75"/>
	<circle cx="258.535" cy="242.025" r="4" fill="#0" id="circle76"/>
	<circle cx="258.535" cy="255.784" r="4" fill="#0" id="circle77"/>
	<circle cx="258.535" cy="269.542" r="4" fill="#0" id="circle78"/>
	<circle cx="258.535" cy="283.301" r="4" fill="#0" id="circle79"/>
	<circle cx="258.535" cy="297.06" r="4" fill="#0" id="circle80"/>
	<circle cx="258.535" cy="493.809" r="4" fill="#0" id="circle81"/>
	<circle cx="258.535" cy="507.567" r="4" fill="#0" id="circle82"/>
	<circle cx="258.535" cy="521.326" r="4" fill="#0" id="circle83"/>
	<circle cx="258.535" cy="535.085" r="4" fill="#0" id="circle84"/>
	<circle cx="258.535" cy="548.843" r="4" fill="#0" id="circle85"/>
	<circle cx="258.535" cy="562.602" r="4" fill="#0" id="circle86"/>
	<circle cx="262.663" cy="576.361" r="4" fill="#0" id="circle87"/>
	<circle cx="265.415" cy="131.956" r="4" fill="#0" id="circle88"/>
	<circle cx="265.415" cy="145.714" r="4" fill="#0" id="circle89"/>
	<circle cx="265.415" cy="159.473" r="4" fill="#0" id="circle90"/>
	<circle cx="265.415" cy="173.232" r="4" fill="#0" id="circle91"/>
	<circle cx="269.542" cy="588.743" r="4" fill="#0" id="circle92"/>
	<circle cx="272.294" cy="35.6449" r="4" fill="#0" id="circle93"/>
	<circle cx="272.294" cy="49.4036" r="4" fill="#0" id="circle94"/>
	<circle cx="272.294" cy="63.1623" r="4" fill="#0" id="circle95"/>
	<circle cx="272.294" cy="76.9209" r="4" fill="#0" id="circle96"/>
	<circle cx="272.294" cy="90.6796" r="4" fill="#0" id="circle97"/>
	<circle cx="272.294" cy="104.438" r="4" fill="#0" id="circle98"/>
	<circle cx="272.294" cy="118.197" r="4" fill="#0" id="circle99"/>
	<circle cx="283.301" cy="590.119" r="4" fill="#0" id="circle100"/>
	<circle cx="286.053" cy="15.0069" r="4" fill="#0" id="circle101"/>
	<circle cx="286.053" cy="28.7656" r="4" fill="#0" id="circle102"/>
	<circle cx="297.06" cy="4" r="4" fill="#0" id="circle103"/>
	<circle cx="297.06" cy="590.119" r="4" fill="#0" id="circle104"/>
	<circle cx="309.442" cy="10.8793" r="4" fill="#0" id="circle105"/>
	<circle cx="310.818" cy="590.119" r="4" fill="#0" id="circle106"/>
	<circle cx="320.449" cy="20.5104" r="4" fill="#0" id="circle107"/>
	<circle cx="324.577" cy="590.119" r="4" fill="#0" id="circle108"/>
	<circle cx="334.208" cy="24.638" r="4" fill="#0" id="circle109"/>
	<circle cx="338.336" cy="590.119" r="4" fill="#0" id="circle110"/>
	<circle cx="347.967" cy="24.638" r="4" fill="#0" id="circle111"/>
	<circle cx="352.094" cy="590.119" r="4" fill="#0" id="circle112"/>
	<circle cx="361.725" cy="24.638" r="4" fill="#0" id="circle113"/>
	<circle cx="365.853" cy="590.119" r="4" fill="#0" id="circle114"/>
	<circle cx="375.484" cy="24.638" r="4" fill="#0" id="circle115"/>
	<circle cx="376.86" cy="53.5312" r="4" fill="#0" id="circle116"/>
	<circle cx="379.612" cy="590.119" r="4" fill="#0" id="circle117"/>
	<circle cx="383.739" cy="65.914" r="4" fill="#0" id="circle118"/>
	<circle cx="383.739" cy="79.6727" r="4" fill="#0" id="circle119"/>
	<circle cx="389.243" cy="24.638" r="4" fill="#0" id="circle120"/>
	<circle cx="390.619" cy="53.5312" r="4" fill="#0" id="circle121"/>
	<circle cx="393.37" cy="590.119" r="4" fill="#0" id="circle122"/>
	<circle cx="394.746" cy="87.9279" r="4" fill="#0" id="circle123"/>
	<circle cx="397.498" cy="101.687" r="4" fill="#0" id="circle124"/>
	<circle cx="403.001" cy="24.638" r="4" fill="#0" id="circle125"/>
	<circle cx="403.001" cy="46.6519" r="4" fill="#0" id="circle126"/>
	<circle cx="404.377" cy="114.069" r="4" fill="#0" id="circle127"/>
	<circle cx="407.129" cy="590.119" r="4" fill="#0" id="circle128"/>
	<circle cx="411.257" cy="126.452" r="4" fill="#0" id="circle129"/>
	<circle cx="416.76" cy="24.638" r="4" fill="#0" id="circle130"/>
	<circle cx="416.76" cy="49.4036" r="4" fill="#0" id="circle131"/>
	<circle cx="418.136" cy="138.835" r="4" fill="#0" id="circle132"/>
	<circle cx="420.888" cy="590.119" r="4" fill="#0" id="circle133"/>
	<circle cx="423.639" cy="152.594" r="4" fill="#0" id="circle134"/>
	<circle cx="430.519" cy="20.5104" r="4" fill="#0" id="circle135"/>
	<circle cx="430.519" cy="46.6519" r="4" fill="#0" id="circle136"/>
	<circle cx="430.519" cy="164.976" r="4" fill="#0" id="circle137"/>
	<circle cx="434.646" cy="590.119" r="4" fill="#0" id="circle138"/>
	<circle cx="436.022" cy="178.735" r="4" fill="#0" id="circle139"/>
	<circle cx="442.902" cy="191.118" r="4" fill="#0" id="circle140"/>
	<circle cx="444.277" cy="24.638" r="4" fill="#0" id="circle141"/>
	<circle cx="444.277" cy="46.6519" r="4" fill="#0" id="circle142"/>
	<circle cx="447.029" cy="583.24" r="4" fill="#0" id="circle143"/>
	<circle cx="448.405" cy="204.877" r="4" fill="#0" id="circle144"/>
	<circle cx="452.533" cy="218.635" r="4" fill="#0" id="circle145"/>
	<circle cx="452.533" cy="569.481" r="4" fill="#0" id="circle146"/>
	<circle cx="455.284" cy="32.8932" r="4" fill="#0" id="circle147"/>
	<circle cx="459.412" cy="231.018" r="4" fill="#0" id="circle148"/>
	<circle cx="459.412" cy="555.723" r="4" fill="#0" id="circle149"/>
	<circle cx="466.291" cy="243.401" r="4" fill="#0" id="circle150"/>
	<circle cx="466.291" cy="541.964" r="4" fill="#0" id="circle151"/>
	<circle cx="473.171" cy="255.784" r="4" fill="#0" id="circle152"/>
	<circle cx="473.171" cy="521.326" r="4" fill="#0" id="circle153"/>
	<circle cx="478.674" cy="269.542" r="4" fill="#0" id="circle154"/>
	<circle cx="480.05" cy="507.567" r="4" fill="#0" id="circle155"/>
	<circle cx="485.553" cy="281.925" r="4" fill="#0" id="circle156"/>
	<circle cx="486.929" cy="493.809" r="4" fill="#0" id="circle157"/>
	<circle cx="491.057" cy="295.684" r="4" fill="#0" id="circle158"/>
	<circle cx="493.809" cy="480.05" r="4" fill="#0" id="circle159"/>
	<circle cx="497.936" cy="308.067" r="4" fill="#0" id="circle160"/>
	<circle cx="507.567" cy="480.05" r="4" fill="#0" id="circle161"/>
	<circle cx="511.695" cy="313.57" r="4" fill="#0" id="circle162"/>
	<circle cx="521.326" cy="480.05" r="4" fill="#0" id="circle163"/>
	<circle cx="525.454" cy="313.57" r="4" fill="#0" id="circle164"/>
	<circle cx="535.085" cy="480.05" r="4" fill="#0" id="circle165"/>
	<circle cx="539.212" cy="313.57" r="4" fill="#0" id="circle166"/>
	<circle cx="548.843" cy="480.05" r="4" fill="#0" id="circle167"/>
	<circle cx="552.971" cy="313.57" r="4" fill="#0" id="circle168"/>
	<circle cx="562.602" cy="473.171" r="4" fill="#0" id="circle169"/>
	<circle cx="566.73" cy="313.57" r="4" fill="#0" id="circle170"/>
	<circle cx="576.361" cy="473.171" r="4" fill="#0" id="circle171"/>
	<circle cx="579.112" cy="320.449" r="4" fill="#0" id="circle172"/>
	<circle cx="590.119" cy="473.171" r="4" fill="#0" id="circle173"/>
	<circle cx="592.871" cy="320.449" r="4" fill="#0" id="circle174"/>
	<circle cx="603.878" cy="473.171" r="4" fill="#0" id="circle175"/>
	<circle cx="606.63" cy="320.449" r="4" fill="#0" id="circle176"/>
	<circle cx="616.261" cy="466.291" r="4" fill="#0" id="circle177"/>
	<circle cx="619.012" cy="327.329" r="4" fill="#0" id="circle178"/>
	<circle cx="630.019" cy="466.291" r="4" fill="#0" id="circle179"/>
	<circle cx="632.771" cy="327.329" r="4" fill="#0" id="circle180"/>
	<circle cx="643.778" cy="462.164" r="4" fill="#0" id="circle181"/>
	<circle cx="645.154" cy="334.208" r="4" fill="#0" id="circle182"/>
	<circle cx="657.537" cy="459.412" r="4" fill="#0" id="circle183"/>
	<circle cx="658.913" cy="334.208" r="4" fill="#0" id="circle184"/>
	<circle cx="671.295" cy="341.087" r="4" fill="#0" id="circle185"/>
	<circle cx="671.295" cy="459.412" r="4" fill="#0" id="circle186"/>
	<circle cx="683.678" cy="452.533" r="4" fill="#0" id="circle187"/>
	<circle cx="685.054" cy="341.087" r="4" fill="#0" id="circle188"/>
	<circle cx="697.437" cy="452.533" r="4" fill="#0" id="circle189"/>
	<circle cx="698.813" cy="341.087" r="4" fill="#0" id="circle190"/>
	<circle cx="711.196" cy="347.967" r="4" fill="#0" id="circle191"/>
	<circle cx="711.196" cy="452.533" r="4" fill="#0" id="circle192"/>
	<circle cx="724.954" cy="347.967" r="4" fill="#0" id="circle193"/>
	<circle cx="724.954" cy="452.533" r="4" fill="#0" id="circle194"/>
	<circle cx="738.713" cy="347.967" r="4" fill="#0" id="circle195"/>
	<circle cx="738.713" cy="449.781" r="4" fill="#0" id="circle196"/>
	<circle cx="752.472" cy="349.343" r="4" fill="#0" id="circle197"/>
	<circle cx="752.472" cy="445.653" r="4" fill="#0" id="circle198"/>
	<circle cx="766.23" cy="354.846" r="4" fill="#0" id="circle199"/>
	<circle cx="766.23" cy="442.902" r="4" fill="#0" id="circle200"/>
	<circle cx="778.613" cy="361.725" r="4" fill="#0" id="circle201"/>
	<circle cx="779.989" cy="438.774" r="4" fill="#0" id="circle202"/>
	<circle cx="790.996" cy="368.605" r="4" fill="#0" id="circle203"/>
	<circle cx="792.372" cy="430.519" r="4" fill="#0" id="circle204"/>
	<circle cx="804.755" cy="368.605" r="4" fill="#0" id="circle205"/>
	<circle cx="806.13" cy="425.015" r="4" fill="#0" id="circle206"/>
	<circle cx="817.137" cy="375.484" r="4" fill="#0" id="circle207"/>
	<circle cx="819.889" cy="425.015" r="4" fill="#0" id="circle208"/>
	<circle cx="830.896" cy="375.484" r="4" fill="#0" id="circle209"/>
	<circle cx="833.648" cy="425.015" r="4" fill="#0" id="circle210"/>
	<circle cx="844.655" cy="375.484" r="4" fill="#0" id="circle211"/>
	<circle cx="847.406" cy="425.015" r="4" fill="#0" id="circle212"/>
	<circle cx="858.413" cy="375.484" r="4" fill="#0" id="circle213"/>
	<circle cx="861.165" cy="425.015" r="4" fill="#0" id="circle214"/>
	<circle cx="872.172" cy="375.484" r="4" fill="#0" id="circle215"/>
	<circle cx="874.924" cy="425.015" r="4" fill="#0" id="circle216"/>
	<circle cx="885.931" cy="375.484" r="4" fill="#0" id="circle217"/>
	<circle cx="888.682" cy="425.015" r="4" fill="#0" id="circle218"/>
	<circle cx="899.689" cy="375.484" r="4" fill="#0" id="circle219"/>
	<circle cx="902.441" cy="425.015" r="4" fill="#0" id="circle220"/>
	<circle cx="913.448" cy="375.484" r="4" fill="#0" id="circle221"/>
	<circle cx="916.2" cy="425.015" r="4" fill="#0" id="circle222"/>
	<circle cx="927.207" cy="375.484" r="4" fill="#0" id="circle223"/>
	<circle cx="929.958" cy="425.015" r="4" fill="#0" id="circle224"/>
	<circle cx="940.965" cy="375.484" r="4" fill="#0" id="circle225"/>
	<circle cx="942.341" cy="418.136" r="4" fill="#0" id="circle226"/>
	<circle cx="954.724" cy="379.612" r="4" fill="#0" id="circle227"/>
	<circle cx="956.1" cy="418.136" r="4" fill="#0" id="circle228"/>
	<circle cx="965.731" cy="389.243" r="4" fill="#0" id="circle229"/>
	<circle cx="969.859" cy="418.136" r="4" fill="#0" id="circle230"/>
	<circle cx="979.49" cy="389.243" r="4" fill="#0" id="circle231"/>
	<circle cx="982.241" cy="411.257" r="4" fill="#0" id="circle232"/>
	<circle cx="993.248" cy="390.619" r="4" fill="#0" id="circle233"/>
	<circle cx="996" cy="404.377" r="4" fill="#0" id="circle234"/>
	</g>
</svg>