<?xml version="1.0" encoding="UTF-8" standalone="no"?>
<!-- Created with CurveBenchmark -->
<svg
	xmlns:dc="http://purl.org/dc/elements/1.1/"
	xmlns:cc="http://creativecommons.org/ns#"
	xmlns:rdf="http://www.w3.org/1999/02/22-rdf-syntax-ns#"
	xmlns:svg="http://www.w3.org/2000/svg"
	xmlns="http://www.w3.org/2000/svg"
	xmlns:sodipodi="http://sodipodi.sourceforge.net/DTD/sodipodi-0.dtd"
	xmlns:inkscape="http://www.inkscape.org/namespaces/inkscape"
	width="1000"
	height="1000"
	id="svg2"
	version="1.1"
	sodipodi:docname="manifold/connect2d-mountaincottontailrot.png.txt">
<defs
	id="defs4" />
<metadata
	id="metadata7">
	<rdf:RDF>
		<cc:Work
			rdf:about="">
			<dc:format>image/svg+xml</dc:format>
			<dc:type
				rdf:resource="http://purl.org/dc/dcmitype/StillImage" />
			<dc:title></dc:title>
		</cc:Work>
	</rdf:RDF>
</metadata>
<g
	inkscape:label="Layer 1"
	inkscape:groupmode="layer"
	id="layer1">
	<path style="fill:none;stroke:red;stroke-width:1px;stroke-linecap:butt;stroke-linejoin:miter;stroke-opacity:1" d="M 734.947,637.053 734.947,658.807 z" id="boundary" inkscape:connector-curvature="0" />
	<path style="fill:none;stroke:red;stroke-width:1px;stroke-linecap:butt;stroke-linejoin:miter;stroke-opacity:1" d="M 734.947,658.807 724.07,691.439 z" id="boundary" inkscape:connector-curvature="0" />
	<path style="fill:none;stroke:red;stroke-width:1px;stroke-linecap:butt;stroke-linejoin:miter;stroke-opacity:1" d="M 724.07,691.439 724.07,713.193 z" id="boundary" inkscape:connector-curvature="0" />
	<path style="fill:none;stroke:red;stroke-width:1px;stroke-linecap:butt;stroke-linejoin:miter;stroke-opacity:1" d="M 724.07,713.193 713.193,734.947 z" id="boundary" inkscape:connector-curvature="0" />
	<path style="fill:none;stroke:red;stroke-width:1px;stroke-linecap:butt;stroke-linejoin:miter;stroke-opacity:1" d="M 713.193,734.947 708.842,774.105 z" id="boundary" inkscape:connector-curvature="0" />
	<path style="fill:none;stroke:red;stroke-width:1px;stroke-linecap:butt;stroke-linejoin:miter;stroke-opacity:1" d="M 708.842,774.105 697.965,795.86 z" id="boundary" inkscape:connector-curvature="0" />
	<path style="fill:none;stroke:red;stroke-width:1px;stroke-linecap:butt;stroke-linejoin:miter;stroke-opacity:1" d="M 697.965,795.86 680.561,811.088 z" id="boundary" inkscape:connector-curvature="0" />
	<path style="fill:none;stroke:red;stroke-width:1px;stroke-linecap:butt;stroke-linejoin:miter;stroke-opacity:1" d="M 680.561,811.088 669.684,843.719 z" id="boundary" inkscape:connector-curvature="0" />
	<path style="fill:none;stroke:red;stroke-width:1px;stroke-linecap:butt;stroke-linejoin:miter;stroke-opacity:1" d="M 669.684,843.719 654.456,861.123 z" id="boundary" inkscape:connector-curvature="0" />
	<path style="fill:none;stroke:red;stroke-width:1px;stroke-linecap:butt;stroke-linejoin:miter;stroke-opacity:1" d="M 654.456,861.123 637.053,876.351 z" id="boundary" inkscape:connector-curvature="0" />
	<path style="fill:none;stroke:red;stroke-width:1px;stroke-linecap:butt;stroke-linejoin:miter;stroke-opacity:1" d="M 637.053,876.351 621.825,893.754 z" id="boundary" inkscape:connector-curvature="0" />
	<path style="fill:none;stroke:red;stroke-width:1px;stroke-linecap:butt;stroke-linejoin:miter;stroke-opacity:1" d="M 621.825,893.754 604.421,908.982 z" id="boundary" inkscape:connector-curvature="0" />
	<path style="fill:none;stroke:red;stroke-width:1px;stroke-linecap:butt;stroke-linejoin:miter;stroke-opacity:1" d="M 604.421,908.982 593.544,930.737 z" id="boundary" inkscape:connector-curvature="0" />
	<path style="fill:none;stroke:red;stroke-width:1px;stroke-linecap:butt;stroke-linejoin:miter;stroke-opacity:1" d="M 593.544,930.737 593.544,952.491 z" id="boundary" inkscape:connector-curvature="0" />
	<path style="fill:none;stroke:red;stroke-width:1px;stroke-linecap:butt;stroke-linejoin:miter;stroke-opacity:1" d="M 593.544,952.491 576.14,982.947 z" id="boundary" inkscape:connector-curvature="0" />
	<path style="fill:none;stroke:red;stroke-width:1px;stroke-linecap:butt;stroke-linejoin:miter;stroke-opacity:1" d="M 576.14,982.947 558.737,996 z" id="boundary" inkscape:connector-curvature="0" />
	<path style="fill:none;stroke:red;stroke-width:1px;stroke-linecap:butt;stroke-linejoin:miter;stroke-opacity:1" d="M 558.737,996 539.158,985.123 z" id="boundary" inkscape:connector-curvature="0" />
	<path style="fill:none;stroke:red;stroke-width:1px;stroke-linecap:butt;stroke-linejoin:miter;stroke-opacity:1" d="M 539.158,985.123 517.404,996 z" id="boundary" inkscape:connector-curvature="0" />
	<path style="fill:none;stroke:red;stroke-width:1px;stroke-linecap:butt;stroke-linejoin:miter;stroke-opacity:1" d="M 517.404,996 495.649,996 z" id="boundary" inkscape:connector-curvature="0" />
	<path style="fill:none;stroke:red;stroke-width:1px;stroke-linecap:butt;stroke-linejoin:miter;stroke-opacity:1" d="M 495.649,996 473.895,989.474 z" id="boundary" inkscape:connector-curvature="0" />
	<path style="fill:none;stroke:red;stroke-width:1px;stroke-linecap:butt;stroke-linejoin:miter;stroke-opacity:1" d="M 473.895,989.474 456.491,974.246 z" id="boundary" inkscape:connector-curvature="0" />
	<path style="fill:none;stroke:red;stroke-width:1px;stroke-linecap:butt;stroke-linejoin:miter;stroke-opacity:1" d="M 456.491,974.246 434.737,974.246 z" id="boundary" inkscape:connector-curvature="0" />
	<path style="fill:none;stroke:red;stroke-width:1px;stroke-linecap:butt;stroke-linejoin:miter;stroke-opacity:1" d="M 434.737,974.246 419.509,956.842 z" id="boundary" inkscape:connector-curvature="0" />
	<path style="fill:none;stroke:red;stroke-width:1px;stroke-linecap:butt;stroke-linejoin:miter;stroke-opacity:1" d="M 419.509,956.842 402.105,941.614 z" id="boundary" inkscape:connector-curvature="0" />
	<path style="fill:none;stroke:red;stroke-width:1px;stroke-linecap:butt;stroke-linejoin:miter;stroke-opacity:1" d="M 402.105,941.614 386.877,924.211 z" id="boundary" inkscape:connector-curvature="0" />
	<path style="fill:none;stroke:red;stroke-width:1px;stroke-linecap:butt;stroke-linejoin:miter;stroke-opacity:1" d="M 386.877,924.211 369.474,908.982 z" id="boundary" inkscape:connector-curvature="0" />
	<path style="fill:none;stroke:red;stroke-width:1px;stroke-linecap:butt;stroke-linejoin:miter;stroke-opacity:1" d="M 369.474,908.982 354.246,891.579 z" id="boundary" inkscape:connector-curvature="0" />
	<path style="fill:none;stroke:red;stroke-width:1px;stroke-linecap:butt;stroke-linejoin:miter;stroke-opacity:1" d="M 354.246,891.579 336.842,876.351 z" id="boundary" inkscape:connector-curvature="0" />
	<path style="fill:none;stroke:red;stroke-width:1px;stroke-linecap:butt;stroke-linejoin:miter;stroke-opacity:1" d="M 336.842,876.351 317.263,865.474 z" id="boundary" inkscape:connector-curvature="0" />
	<path style="fill:none;stroke:red;stroke-width:1px;stroke-linecap:butt;stroke-linejoin:miter;stroke-opacity:1" d="M 317.263,865.474 299.86,850.246 z" id="boundary" inkscape:connector-curvature="0" />
	<path style="fill:none;stroke:red;stroke-width:1px;stroke-linecap:butt;stroke-linejoin:miter;stroke-opacity:1" d="M 299.86,850.246 284.632,832.842 z" id="boundary" inkscape:connector-curvature="0" />
	<path style="fill:none;stroke:red;stroke-width:1px;stroke-linecap:butt;stroke-linejoin:miter;stroke-opacity:1" d="M 284.632,832.842 267.228,817.614 z" id="boundary" inkscape:connector-curvature="0" />
	<path style="fill:none;stroke:red;stroke-width:1px;stroke-linecap:butt;stroke-linejoin:miter;stroke-opacity:1" d="M 267.228,817.614 252,800.211 z" id="boundary" inkscape:connector-curvature="0" />
	<path style="fill:none;stroke:red;stroke-width:1px;stroke-linecap:butt;stroke-linejoin:miter;stroke-opacity:1" d="M 252,800.211 234.596,784.982 z" id="boundary" inkscape:connector-curvature="0" />
	<path style="fill:none;stroke:red;stroke-width:1px;stroke-linecap:butt;stroke-linejoin:miter;stroke-opacity:1" d="M 234.596,784.982 221.544,767.579 z" id="boundary" inkscape:connector-curvature="0" />
	<path style="fill:none;stroke:red;stroke-width:1px;stroke-linecap:butt;stroke-linejoin:miter;stroke-opacity:1" d="M 221.544,767.579 204.14,754.526 z" id="boundary" inkscape:connector-curvature="0" />
	<path style="fill:none;stroke:red;stroke-width:1px;stroke-linecap:butt;stroke-linejoin:miter;stroke-opacity:1" d="M 204.14,754.526 188.912,737.123 z" id="boundary" inkscape:connector-curvature="0" />
	<path style="fill:none;stroke:red;stroke-width:1px;stroke-linecap:butt;stroke-linejoin:miter;stroke-opacity:1" d="M 188.912,737.123 178.035,717.544 z" id="boundary" inkscape:connector-curvature="0" />
	<path style="fill:none;stroke:red;stroke-width:1px;stroke-linecap:butt;stroke-linejoin:miter;stroke-opacity:1" d="M 178.035,717.544 178.035,695.789 z" id="boundary" inkscape:connector-curvature="0" />
	<path style="fill:none;stroke:red;stroke-width:1px;stroke-linecap:butt;stroke-linejoin:miter;stroke-opacity:1" d="M 178.035,695.789 199.789,695.789 z" id="boundary" inkscape:connector-curvature="0" />
	<path style="fill:none;stroke:red;stroke-width:1px;stroke-linecap:butt;stroke-linejoin:miter;stroke-opacity:1" d="M 199.789,695.789 188.912,663.158 z" id="boundary" inkscape:connector-curvature="0" />
	<path style="fill:none;stroke:red;stroke-width:1px;stroke-linecap:butt;stroke-linejoin:miter;stroke-opacity:1" d="M 188.912,663.158 180.211,641.404 z" id="boundary" inkscape:connector-curvature="0" />
	<path style="fill:none;stroke:red;stroke-width:1px;stroke-linecap:butt;stroke-linejoin:miter;stroke-opacity:1" d="M 180.211,641.404 162.807,626.175 z" id="boundary" inkscape:connector-curvature="0" />
	<path style="fill:none;stroke:red;stroke-width:1px;stroke-linecap:butt;stroke-linejoin:miter;stroke-opacity:1" d="M 162.807,626.175 143.228,615.298 z" id="boundary" inkscape:connector-curvature="0" />
	<path style="fill:none;stroke:red;stroke-width:1px;stroke-linecap:butt;stroke-linejoin:miter;stroke-opacity:1" d="M 143.228,615.298 121.474,615.298 z" id="boundary" inkscape:connector-curvature="0" />
	<path style="fill:none;stroke:red;stroke-width:1px;stroke-linecap:butt;stroke-linejoin:miter;stroke-opacity:1" d="M 121.474,615.298 104.07,600.07 z" id="boundary" inkscape:connector-curvature="0" />
	<path style="fill:none;stroke:red;stroke-width:1px;stroke-linecap:butt;stroke-linejoin:miter;stroke-opacity:1" d="M 104.07,600.07 88.8421,582.667 z" id="boundary" inkscape:connector-curvature="0" />
	<path style="fill:none;stroke:red;stroke-width:1px;stroke-linecap:butt;stroke-linejoin:miter;stroke-opacity:1" d="M 88.8421,582.667 67.0877,582.667 z" id="boundary" inkscape:connector-curvature="0" />
	<path style="fill:none;stroke:red;stroke-width:1px;stroke-linecap:butt;stroke-linejoin:miter;stroke-opacity:1" d="M 67.0877,582.667 49.6842,567.439 z" id="boundary" inkscape:connector-curvature="0" />
	<path style="fill:none;stroke:red;stroke-width:1px;stroke-linecap:butt;stroke-linejoin:miter;stroke-opacity:1" d="M 49.6842,567.439 36.6316,550.035 z" id="boundary" inkscape:connector-curvature="0" />
	<path style="fill:none;stroke:red;stroke-width:1px;stroke-linecap:butt;stroke-linejoin:miter;stroke-opacity:1" d="M 36.6316,550.035 14.8772,552.211 z" id="boundary" inkscape:connector-curvature="0" />
	<path style="fill:none;stroke:red;stroke-width:1px;stroke-linecap:butt;stroke-linejoin:miter;stroke-opacity:1" d="M 14.8772,552.211 14.8772,530.456 z" id="boundary" inkscape:connector-curvature="0" />
	<path style="fill:none;stroke:red;stroke-width:1px;stroke-linecap:butt;stroke-linejoin:miter;stroke-opacity:1" d="M 14.8772,530.456 4,510.877 z" id="boundary" inkscape:connector-curvature="0" />
	<path style="fill:none;stroke:red;stroke-width:1px;stroke-linecap:butt;stroke-linejoin:miter;stroke-opacity:1" d="M 4,510.877 21.4035,493.474 z" id="boundary" inkscape:connector-curvature="0" />
	<path style="fill:none;stroke:red;stroke-width:1px;stroke-linecap:butt;stroke-linejoin:miter;stroke-opacity:1" d="M 21.4035,493.474 40.9825,504.351 z" id="boundary" inkscape:connector-curvature="0" />
	<path style="fill:none;stroke:red;stroke-width:1px;stroke-linecap:butt;stroke-linejoin:miter;stroke-opacity:1" d="M 40.9825,504.351 58.386,519.579 z" id="boundary" inkscape:connector-curvature="0" />
	<path style="fill:none;stroke:red;stroke-width:1px;stroke-linecap:butt;stroke-linejoin:miter;stroke-opacity:1" d="M 58.386,519.579 71.4386,536.982 z" id="boundary" inkscape:connector-curvature="0" />
	<path style="fill:none;stroke:red;stroke-width:1px;stroke-linecap:butt;stroke-linejoin:miter;stroke-opacity:1" d="M 71.4386,536.982 93.193,532.632 z" id="boundary" inkscape:connector-curvature="0" />
	<path style="fill:none;stroke:red;stroke-width:1px;stroke-linecap:butt;stroke-linejoin:miter;stroke-opacity:1" d="M 93.193,532.632 91.0175,510.877 z" id="boundary" inkscape:connector-curvature="0" />
	<path style="fill:none;stroke:red;stroke-width:1px;stroke-linecap:butt;stroke-linejoin:miter;stroke-opacity:1" d="M 91.0175,510.877 101.895,489.123 z" id="boundary" inkscape:connector-curvature="0" />
	<path style="fill:none;stroke:red;stroke-width:1px;stroke-linecap:butt;stroke-linejoin:miter;stroke-opacity:1" d="M 101.895,489.123 101.895,456.491 z" id="boundary" inkscape:connector-curvature="0" />
	<path style="fill:none;stroke:red;stroke-width:1px;stroke-linecap:butt;stroke-linejoin:miter;stroke-opacity:1" d="M 101.895,456.491 112.772,432.561 z" id="boundary" inkscape:connector-curvature="0" />
	<path style="fill:none;stroke:red;stroke-width:1px;stroke-linecap:butt;stroke-linejoin:miter;stroke-opacity:1" d="M 112.772,432.561 101.895,412.982 z" id="boundary" inkscape:connector-curvature="0" />
	<path style="fill:none;stroke:red;stroke-width:1px;stroke-linecap:butt;stroke-linejoin:miter;stroke-opacity:1" d="M 101.895,412.982 101.895,380.351 z" id="boundary" inkscape:connector-curvature="0" />
	<path style="fill:none;stroke:red;stroke-width:1px;stroke-linecap:butt;stroke-linejoin:miter;stroke-opacity:1" d="M 101.895,380.351 101.895,358.596 z" id="boundary" inkscape:connector-curvature="0" />
	<path style="fill:none;stroke:red;stroke-width:1px;stroke-linecap:butt;stroke-linejoin:miter;stroke-opacity:1" d="M 101.895,358.596 93.193,336.842 z" id="boundary" inkscape:connector-curvature="0" />
	<path style="fill:none;stroke:red;stroke-width:1px;stroke-linecap:butt;stroke-linejoin:miter;stroke-opacity:1" d="M 93.193,336.842 80.1404,319.439 z" id="boundary" inkscape:connector-curvature="0" />
	<path style="fill:none;stroke:red;stroke-width:1px;stroke-linecap:butt;stroke-linejoin:miter;stroke-opacity:1" d="M 80.1404,319.439 69.2632,299.86 z" id="boundary" inkscape:connector-curvature="0" />
	<path style="fill:none;stroke:red;stroke-width:1px;stroke-linecap:butt;stroke-linejoin:miter;stroke-opacity:1" d="M 69.2632,299.86 51.8596,286.807 z" id="boundary" inkscape:connector-curvature="0" />
	<path style="fill:none;stroke:red;stroke-width:1px;stroke-linecap:butt;stroke-linejoin:miter;stroke-opacity:1" d="M 51.8596,286.807 36.6316,269.404 z" id="boundary" inkscape:connector-curvature="0" />
	<path style="fill:none;stroke:red;stroke-width:1px;stroke-linecap:butt;stroke-linejoin:miter;stroke-opacity:1" d="M 36.6316,269.404 36.6316,247.649 z" id="boundary" inkscape:connector-curvature="0" />
	<path style="fill:none;stroke:red;stroke-width:1px;stroke-linecap:butt;stroke-linejoin:miter;stroke-opacity:1" d="M 36.6316,247.649 25.7544,228.07 z" id="boundary" inkscape:connector-curvature="0" />
	<path style="fill:none;stroke:red;stroke-width:1px;stroke-linecap:butt;stroke-linejoin:miter;stroke-opacity:1" d="M 25.7544,228.07 25.7544,195.439 z" id="boundary" inkscape:connector-curvature="0" />
	<path style="fill:none;stroke:red;stroke-width:1px;stroke-linecap:butt;stroke-linejoin:miter;stroke-opacity:1" d="M 25.7544,195.439 43.1579,178.035 z" id="boundary" inkscape:connector-curvature="0" />
	<path style="fill:none;stroke:red;stroke-width:1px;stroke-linecap:butt;stroke-linejoin:miter;stroke-opacity:1" d="M 43.1579,178.035 60.5614,160.632 z" id="boundary" inkscape:connector-curvature="0" />
	<path style="fill:none;stroke:red;stroke-width:1px;stroke-linecap:butt;stroke-linejoin:miter;stroke-opacity:1" d="M 60.5614,160.632 77.9649,147.579 z" id="boundary" inkscape:connector-curvature="0" />
	<path style="fill:none;stroke:red;stroke-width:1px;stroke-linecap:butt;stroke-linejoin:miter;stroke-opacity:1" d="M 77.9649,147.579 99.7193,145.404 z" id="boundary" inkscape:connector-curvature="0" />
	<path style="fill:none;stroke:red;stroke-width:1px;stroke-linecap:butt;stroke-linejoin:miter;stroke-opacity:1" d="M 99.7193,145.404 119.298,134.526 z" id="boundary" inkscape:connector-curvature="0" />
	<path style="fill:none;stroke:red;stroke-width:1px;stroke-linecap:butt;stroke-linejoin:miter;stroke-opacity:1" d="M 119.298,134.526 138.877,123.649 z" id="boundary" inkscape:connector-curvature="0" />
	<path style="fill:none;stroke:red;stroke-width:1px;stroke-linecap:butt;stroke-linejoin:miter;stroke-opacity:1" d="M 138.877,123.649 160.632,123.649 z" id="boundary" inkscape:connector-curvature="0" />
	<path style="fill:none;stroke:red;stroke-width:1px;stroke-linecap:butt;stroke-linejoin:miter;stroke-opacity:1" d="M 160.632,123.649 178.035,108.421 z" id="boundary" inkscape:connector-curvature="0" />
	<path style="fill:none;stroke:red;stroke-width:1px;stroke-linecap:butt;stroke-linejoin:miter;stroke-opacity:1" d="M 178.035,108.421 199.789,112.772 z" id="boundary" inkscape:connector-curvature="0" />
	<path style="fill:none;stroke:red;stroke-width:1px;stroke-linecap:butt;stroke-linejoin:miter;stroke-opacity:1" d="M 199.789,112.772 221.544,112.772 z" id="boundary" inkscape:connector-curvature="0" />
	<path style="fill:none;stroke:red;stroke-width:1px;stroke-linecap:butt;stroke-linejoin:miter;stroke-opacity:1" d="M 221.544,112.772 241.123,123.649 z" id="boundary" inkscape:connector-curvature="0" />
	<path style="fill:none;stroke:red;stroke-width:1px;stroke-linecap:butt;stroke-linejoin:miter;stroke-opacity:1" d="M 241.123,123.649 262.877,123.649 z" id="boundary" inkscape:connector-curvature="0" />
	<path style="fill:none;stroke:red;stroke-width:1px;stroke-linecap:butt;stroke-linejoin:miter;stroke-opacity:1" d="M 262.877,123.649 284.632,123.649 z" id="boundary" inkscape:connector-curvature="0" />
	<path style="fill:none;stroke:red;stroke-width:1px;stroke-linecap:butt;stroke-linejoin:miter;stroke-opacity:1" d="M 284.632,123.649 304.211,112.772 z" id="boundary" inkscape:connector-curvature="0" />
	<path style="fill:none;stroke:red;stroke-width:1px;stroke-linecap:butt;stroke-linejoin:miter;stroke-opacity:1" d="M 304.211,112.772 321.614,95.3684 z" id="boundary" inkscape:connector-curvature="0" />
	<path style="fill:none;stroke:red;stroke-width:1px;stroke-linecap:butt;stroke-linejoin:miter;stroke-opacity:1" d="M 321.614,95.3684 332.491,73.614 z" id="boundary" inkscape:connector-curvature="0" />
	<path style="fill:none;stroke:red;stroke-width:1px;stroke-linecap:butt;stroke-linejoin:miter;stroke-opacity:1" d="M 332.491,73.614 349.895,58.386 z" id="boundary" inkscape:connector-curvature="0" />
	<path style="fill:none;stroke:red;stroke-width:1px;stroke-linecap:butt;stroke-linejoin:miter;stroke-opacity:1" d="M 349.895,58.386 365.123,40.9825 z" id="boundary" inkscape:connector-curvature="0" />
	<path style="fill:none;stroke:red;stroke-width:1px;stroke-linecap:butt;stroke-linejoin:miter;stroke-opacity:1" d="M 365.123,40.9825 382.526,25.7544 z" id="boundary" inkscape:connector-curvature="0" />
	<path style="fill:none;stroke:red;stroke-width:1px;stroke-linecap:butt;stroke-linejoin:miter;stroke-opacity:1" d="M 382.526,25.7544 402.105,14.8772 z" id="boundary" inkscape:connector-curvature="0" />
	<path style="fill:none;stroke:red;stroke-width:1px;stroke-linecap:butt;stroke-linejoin:miter;stroke-opacity:1" d="M 402.105,14.8772 421.684,4 z" id="boundary" inkscape:connector-curvature="0" />
	<path style="fill:none;stroke:red;stroke-width:1px;stroke-linecap:butt;stroke-linejoin:miter;stroke-opacity:1" d="M 421.684,4 441.263,14.8772 z" id="boundary" inkscape:connector-curvature="0" />
	<path style="fill:none;stroke:red;stroke-width:1px;stroke-linecap:butt;stroke-linejoin:miter;stroke-opacity:1" d="M 441.263,14.8772 458.667,27.9298 z" id="boundary" inkscape:connector-curvature="0" />
	<path style="fill:none;stroke:red;stroke-width:1px;stroke-linecap:butt;stroke-linejoin:miter;stroke-opacity:1" d="M 458.667,27.9298 473.895,45.3333 z" id="boundary" inkscape:connector-curvature="0" />
	<path style="fill:none;stroke:red;stroke-width:1px;stroke-linecap:butt;stroke-linejoin:miter;stroke-opacity:1" d="M 473.895,45.3333 491.298,60.5614 z" id="boundary" inkscape:connector-curvature="0" />
	<path style="fill:none;stroke:red;stroke-width:1px;stroke-linecap:butt;stroke-linejoin:miter;stroke-opacity:1" d="M 491.298,60.5614 495.649,82.3158 z" id="boundary" inkscape:connector-curvature="0" />
	<path style="fill:none;stroke:red;stroke-width:1px;stroke-linecap:butt;stroke-linejoin:miter;stroke-opacity:1" d="M 495.649,82.3158 480.421,110.596 z" id="boundary" inkscape:connector-curvature="0" />
	<path style="fill:none;stroke:red;stroke-width:1px;stroke-linecap:butt;stroke-linejoin:miter;stroke-opacity:1" d="M 480.421,110.596 469.544,132.351 z" id="boundary" inkscape:connector-curvature="0" />
	<path style="fill:none;stroke:red;stroke-width:1px;stroke-linecap:butt;stroke-linejoin:miter;stroke-opacity:1" d="M 469.544,132.351 452.14,147.579 z" id="boundary" inkscape:connector-curvature="0" />
	<path style="fill:none;stroke:red;stroke-width:1px;stroke-linecap:butt;stroke-linejoin:miter;stroke-opacity:1" d="M 452.14,147.579 434.737,167.158 z" id="boundary" inkscape:connector-curvature="0" />
	<path style="fill:none;stroke:red;stroke-width:1px;stroke-linecap:butt;stroke-linejoin:miter;stroke-opacity:1" d="M 434.737,167.158 417.333,180.211 z" id="boundary" inkscape:connector-curvature="0" />
	<path style="fill:none;stroke:red;stroke-width:1px;stroke-linecap:butt;stroke-linejoin:miter;stroke-opacity:1" d="M 417.333,180.211 397.754,191.088 z" id="boundary" inkscape:connector-curvature="0" />
	<path style="fill:none;stroke:red;stroke-width:1px;stroke-linecap:butt;stroke-linejoin:miter;stroke-opacity:1" d="M 397.754,191.088 408.632,210.667 z" id="boundary" inkscape:connector-curvature="0" />
	<path style="fill:none;stroke:red;stroke-width:1px;stroke-linecap:butt;stroke-linejoin:miter;stroke-opacity:1" d="M 408.632,210.667 419.509,230.246 z" id="boundary" inkscape:connector-curvature="0" />
	<path style="fill:none;stroke:red;stroke-width:1px;stroke-linecap:butt;stroke-linejoin:miter;stroke-opacity:1" d="M 419.509,230.246 436.912,245.474 z" id="boundary" inkscape:connector-curvature="0" />
	<path style="fill:none;stroke:red;stroke-width:1px;stroke-linecap:butt;stroke-linejoin:miter;stroke-opacity:1" d="M 436.912,245.474 456.491,256.351 z" id="boundary" inkscape:connector-curvature="0" />
	<path style="fill:none;stroke:red;stroke-width:1px;stroke-linecap:butt;stroke-linejoin:miter;stroke-opacity:1" d="M 456.491,256.351 478.246,265.053 z" id="boundary" inkscape:connector-curvature="0" />
	<path style="fill:none;stroke:red;stroke-width:1px;stroke-linecap:butt;stroke-linejoin:miter;stroke-opacity:1" d="M 478.246,265.053 497.825,275.93 z" id="boundary" inkscape:connector-curvature="0" />
	<path style="fill:none;stroke:red;stroke-width:1px;stroke-linecap:butt;stroke-linejoin:miter;stroke-opacity:1" d="M 497.825,275.93 517.404,286.807 z" id="boundary" inkscape:connector-curvature="0" />
	<path style="fill:none;stroke:red;stroke-width:1px;stroke-linecap:butt;stroke-linejoin:miter;stroke-opacity:1" d="M 517.404,286.807 536.982,297.684 z" id="boundary" inkscape:connector-curvature="0" />
	<path style="fill:none;stroke:red;stroke-width:1px;stroke-linecap:butt;stroke-linejoin:miter;stroke-opacity:1" d="M 536.982,297.684 554.386,310.737 z" id="boundary" inkscape:connector-curvature="0" />
	<path style="fill:none;stroke:red;stroke-width:1px;stroke-linecap:butt;stroke-linejoin:miter;stroke-opacity:1" d="M 554.386,310.737 571.789,325.965 z" id="boundary" inkscape:connector-curvature="0" />
	<path style="fill:none;stroke:red;stroke-width:1px;stroke-linecap:butt;stroke-linejoin:miter;stroke-opacity:1" d="M 571.789,325.965 587.018,343.368 z" id="boundary" inkscape:connector-curvature="0" />
	<path style="fill:none;stroke:red;stroke-width:1px;stroke-linecap:butt;stroke-linejoin:miter;stroke-opacity:1" d="M 587.018,343.368 608.772,352.07 z" id="boundary" inkscape:connector-curvature="0" />
	<path style="fill:none;stroke:red;stroke-width:1px;stroke-linecap:butt;stroke-linejoin:miter;stroke-opacity:1" d="M 608.772,352.07 626.175,376 z" id="boundary" inkscape:connector-curvature="0" />
	<path style="fill:none;stroke:red;stroke-width:1px;stroke-linecap:butt;stroke-linejoin:miter;stroke-opacity:1" d="M 626.175,376 637.053,395.579 z" id="boundary" inkscape:connector-curvature="0" />
	<path style="fill:none;stroke:red;stroke-width:1px;stroke-linecap:butt;stroke-linejoin:miter;stroke-opacity:1" d="M 637.053,395.579 654.456,408.632 z" id="boundary" inkscape:connector-curvature="0" />
	<path style="fill:none;stroke:red;stroke-width:1px;stroke-linecap:butt;stroke-linejoin:miter;stroke-opacity:1" d="M 654.456,408.632 663.158,430.386 z" id="boundary" inkscape:connector-curvature="0" />
	<path style="fill:none;stroke:red;stroke-width:1px;stroke-linecap:butt;stroke-linejoin:miter;stroke-opacity:1" d="M 663.158,430.386 680.561,445.614 z" id="boundary" inkscape:connector-curvature="0" />
	<path style="fill:none;stroke:red;stroke-width:1px;stroke-linecap:butt;stroke-linejoin:miter;stroke-opacity:1" d="M 680.561,445.614 691.439,465.193 z" id="boundary" inkscape:connector-curvature="0" />
	<path style="fill:none;stroke:red;stroke-width:1px;stroke-linecap:butt;stroke-linejoin:miter;stroke-opacity:1" d="M 691.439,465.193 697.965,486.947 z" id="boundary" inkscape:connector-curvature="0" />
	<path style="fill:none;stroke:red;stroke-width:1px;stroke-linecap:butt;stroke-linejoin:miter;stroke-opacity:1" d="M 697.965,486.947 708.842,506.526 z" id="boundary" inkscape:connector-curvature="0" />
	<path style="fill:none;stroke:red;stroke-width:1px;stroke-linecap:butt;stroke-linejoin:miter;stroke-opacity:1" d="M 708.842,506.526 724.07,523.93 z" id="boundary" inkscape:connector-curvature="0" />
	<path style="fill:none;stroke:red;stroke-width:1px;stroke-linecap:butt;stroke-linejoin:miter;stroke-opacity:1" d="M 724.07,523.93 734.947,543.509 z" id="boundary" inkscape:connector-curvature="0" />
	<path style="fill:none;stroke:red;stroke-width:1px;stroke-linecap:butt;stroke-linejoin:miter;stroke-opacity:1" d="M 734.947,543.509 734.947,565.263 z" id="boundary" inkscape:connector-curvature="0" />
	<path style="fill:none;stroke:red;stroke-width:1px;stroke-linecap:butt;stroke-linejoin:miter;stroke-opacity:1" d="M 734.947,565.263 734.947,593.544 z" id="boundary" inkscape:connector-curvature="0" />
	<path style="fill:none;stroke:red;stroke-width:1px;stroke-linecap:butt;stroke-linejoin:miter;stroke-opacity:1" d="M 734.947,593.544 734.947,615.298 z" id="boundary" inkscape:connector-curvature="0" />
	<path style="fill:none;stroke:red;stroke-width:1px;stroke-linecap:butt;stroke-linejoin:miter;stroke-opacity:1" d="M 734.947,615.298 734.947,637.053 z" id="boundary" inkscape:connector-curvature="0" />
	<circle cx="4" cy="510.877" r="4" fill="#0" id="circle0"/>
	<circle cx="14.8772" cy="530.456" r="4" fill="#0" id="circle1"/>
	<circle cx="14.8772" cy="552.211" r="4" fill="#0" id="circle2"/>
	<circle cx="21.4035" cy="493.474" r="4" fill="#0" id="circle3"/>
	<circle cx="25.7544" cy="195.439" r="4" fill="#0" id="circle4"/>
	<circle cx="25.7544" cy="228.07" r="4" fill="#0" id="circle5"/>
	<circle cx="36.6316" cy="247.649" r="4" fill="#0" id="circle6"/>
	<circle cx="36.6316" cy="269.404" r="4" fill="#0" id="circle7"/>
	<circle cx="36.6316" cy="550.035" r="4" fill="#0" id="circle8"/>
	<circle cx="40.9825" cy="504.351" r="4" fill="#0" id="circle9"/>
	<circle cx="43.1579" cy="178.035" r="4" fill="#0" id="circle10"/>
	<circle cx="49.6842" cy="567.439" r="4" fill="#0" id="circle11"/>
	<circle cx="51.8596" cy="286.807" r="4" fill="#0" id="circle12"/>
	<circle cx="58.386" cy="519.579" r="4" fill="#0" id="circle13"/>
	<circle cx="60.5614" cy="160.632" r="4" fill="#0" id="circle14"/>
	<circle cx="67.0877" cy="582.667" r="4" fill="#0" id="circle15"/>
	<circle cx="69.2632" cy="299.86" r="4" fill="#0" id="circle16"/>
	<circle cx="71.4386" cy="536.982" r="4" fill="#0" id="circle17"/>
	<circle cx="77.9649" cy="147.579" r="4" fill="#0" id="circle18"/>
	<circle cx="80.1404" cy="319.439" r="4" fill="#0" id="circle19"/>
	<circle cx="88.8421" cy="582.667" r="4" fill="#0" id="circle20"/>
	<circle cx="91.0175" cy="510.877" r="4" fill="#0" id="circle21"/>
	<circle cx="93.193" cy="336.842" r="4" fill="#0" id="circle22"/>
	<circle cx="93.193" cy="532.632" r="4" fill="#0" id="circle23"/>
	<circle cx="99.7193" cy="145.404" r="4" fill="#0" id="circle24"/>
	<circle cx="101.895" cy="358.596" r="4" fill="#0" id="circle25"/>
	<circle cx="101.895" cy="380.351" r="4" fill="#0" id="circle26"/>
	<circle cx="101.895" cy="412.982" r="4" fill="#0" id="circle27"/>
	<circle cx="101.895" cy="456.491" r="4" fill="#0" id="circle28"/>
	<circle cx="101.895" cy="489.123" r="4" fill="#0" id="circle29"/>
	<circle cx="104.07" cy="600.07" r="4" fill="#0" id="circle30"/>
	<circle cx="112.772" cy="432.561" r="4" fill="#0" id="circle31"/>
	<circle cx="119.298" cy="134.526" r="4" fill="#0" id="circle32"/>
	<circle cx="121.474" cy="615.298" r="4" fill="#0" id="circle33"/>
	<circle cx="138.877" cy="123.649" r="4" fill="#0" id="circle34"/>
	<circle cx="143.228" cy="615.298" r="4" fill="#0" id="circle35"/>
	<circle cx="160.632" cy="123.649" r="4" fill="#0" id="circle36"/>
	<circle cx="162.807" cy="626.175" r="4" fill="#0" id="circle37"/>
	<circle cx="178.035" cy="108.421" r="4" fill="#0" id="circle38"/>
	<circle cx="178.035" cy="695.789" r="4" fill="#0" id="circle39"/>
	<circle cx="178.035" cy="717.544" r="4" fill="#0" id="circle40"/>
	<circle cx="180.211" cy="641.404" r="4" fill="#0" id="circle41"/>
	<circle cx="188.912" cy="663.158" r="4" fill="#0" id="circle42"/>
	<circle cx="188.912" cy="737.123" r="4" fill="#0" id="circle43"/>
	<circle cx="199.789" cy="112.772" r="4" fill="#0" id="circle44"/>
	<circle cx="199.789" cy="695.789" r="4" fill="#0" id="circle45"/>
	<circle cx="204.14" cy="754.526" r="4" fill="#0" id="circle46"/>
	<circle cx="221.544" cy="112.772" r="4" fill="#0" id="circle47"/>
	<circle cx="221.544" cy="767.579" r="4" fill="#0" id="circle48"/>
	<circle cx="234.596" cy="784.982" r="4" fill="#0" id="circle49"/>
	<circle cx="241.123" cy="123.649" r="4" fill="#0" id="circle50"/>
	<circle cx="252" cy="800.211" r="4" fill="#0" id="circle51"/>
	<circle cx="262.877" cy="123.649" r="4" fill="#0" id="circle52"/>
	<circle cx="267.228" cy="817.614" r="4" fill="#0" id="circle53"/>
	<circle cx="284.632" cy="123.649" r="4" fill="#0" id="circle54"/>
	<circle cx="284.632" cy="832.842" r="4" fill="#0" id="circle55"/>
	<circle cx="299.86" cy="850.246" r="4" fill="#0" id="circle56"/>
	<circle cx="304.211" cy="112.772" r="4" fill="#0" id="circle57"/>
	<circle cx="317.263" cy="865.474" r="4" fill="#0" id="circle58"/>
	<circle cx="321.614" cy="95.3684" r="4" fill="#0" id="circle59"/>
	<circle cx="332.491" cy="73.614" r="4" fill="#0" id="circle60"/>
	<circle cx="336.842" cy="876.351" r="4" fill="#0" id="circle61"/>
	<circle cx="349.895" cy="58.386" r="4" fill="#0" id="circle62"/>
	<circle cx="354.246" cy="891.579" r="4" fill="#0" id="circle63"/>
	<circle cx="365.123" cy="40.9825" r="4" fill="#0" id="circle64"/>
	<circle cx="369.474" cy="908.982" r="4" fill="#0" id="circle65"/>
	<circle cx="382.526" cy="25.7544" r="4" fill="#0" id="circle66"/>
	<circle cx="386.877" cy="924.211" r="4" fill="#0" id="circle67"/>
	<circle cx="397.754" cy="191.088" r="4" fill="#0" id="circle68"/>
	<circle cx="402.105" cy="14.8772" r="4" fill="#0" id="circle69"/>
	<circle cx="402.105" cy="941.614" r="4" fill="#0" id="circle70"/>
	<circle cx="408.632" cy="210.667" r="4" fill="#0" id="circle71"/>
	<circle cx="417.333" cy="180.211" r="4" fill="#0" id="circle72"/>
	<circle cx="419.509" cy="230.246" r="4" fill="#0" id="circle73"/>
	<circle cx="419.509" cy="956.842" r="4" fill="#0" id="circle74"/>
	<circle cx="421.684" cy="4" r="4" fill="#0" id="circle75"/>
	<circle cx="434.737" cy="167.158" r="4" fill="#0" id="circle76"/>
	<circle cx="434.737" cy="974.246" r="4" fill="#0" id="circle77"/>
	<circle cx="436.912" cy="245.474" r="4" fill="#0" id="circle78"/>
	<circle cx="441.263" cy="14.8772" r="4" fill="#0" id="circle79"/>
	<circle cx="452.14" cy="147.579" r="4" fill="#0" id="circle80"/>
	<circle cx="456.491" cy="256.351" r="4" fill="#0" id="circle81"/>
	<circle cx="456.491" cy="974.246" r="4" fill="#0" id="circle82"/>
	<circle cx="458.667" cy="27.9298" r="4" fill="#0" id="circle83"/>
	<circle cx="469.544" cy="132.351" r="4" fill="#0" id="circle84"/>
	<circle cx="473.895" cy="45.3333" r="4" fill="#0" id="circle85"/>
	<circle cx="473.895" cy="989.474" r="4" fill="#0" id="circle86"/>
	<circle cx="478.246" cy="265.053" r="4" fill="#0" id="circle87"/>
	<circle cx="480.421" cy="110.596" r="4" fill="#0" id="circle88"/>
	<circle cx="491.298" cy="60.5614" r="4" fill="#0" id="circle89"/>
	<circle cx="495.649" cy="82.3158" r="4" fill="#0" id="circle90"/>
	<circle cx="495.649" cy="996" r="4" fill="#0" id="circle91"/>
	<circle cx="497.825" cy="275.93" r="4" fill="#0" id="circle92"/>
	<circle cx="517.404" cy="286.807" r="4" fill="#0" id="circle93"/>
	<circle cx="517.404" cy="996" r="4" fill="#0" id="circle94"/>
	<circle cx="536.982" cy="297.684" r="4" fill="#0" id="circle95"/>
	<circle cx="539.158" cy="985.123" r="4" fill="#0" id="circle96"/>
	<circle cx="554.386" cy="310.737" r="4" fill="#0" id="circle97"/>
	<circle cx="558.737" cy="996" r="4" fill="#0" id="circle98"/>
	<circle cx="571.789" cy="325.965" r="4" fill="#0" id="circle99"/>
	<circle cx="576.14" cy="982.947" r="4" fill="#0" id="circle100"/>
	<circle cx="587.018" cy="343.368" r="4" fill="#0" id="circle101"/>
	<circle cx="593.544" cy="930.737" r="4" fill="#0" id="circle102"/>
	<circle cx="593.544" cy="952.491" r="4" fill="#0" id="circle103"/>
	<circle cx="604.421" cy="908.982" r="4" fill="#0" id="circle104"/>
	<circle cx="608.772" cy="352.07" r="4" fill="#0" id="circle105"/>
	<circle cx="621.825" cy="893.754" r="4" fill="#0" id="circle106"/>
	<circle cx="626.175" cy="376" r="4" fill="#0" id="circle107"/>
	<circle cx="637.053" cy="395.579" r="4" fill="#0" id="circle108"/>
	<circle cx="637.053" cy="876.351" r="4" fill="#0" id="circle109"/>
	<circle cx="654.456" cy="408.632" r="4" fill="#0" id="circle110"/>
	<circle cx="654.456" cy="861.123" r="4" fill="#0" id="circle111"/>
	<circle cx="663.158" cy="430.386" r="4" fill="#0" id="circle112"/>
	<circle cx="669.684" cy="843.719" r="4" fill="#0" id="circle113"/>
	<circle cx="680.561" cy="445.614" r="4" fill="#0" id="circle114"/>
	<circle cx="680.561" cy="811.088" r="4" fill="#0" id="circle115"/>
	<circle cx="691.439" cy="465.193" r="4" fill="#0" id="circle116"/>
	<circle cx="697.965" cy="486.947" r="4" fill="#0" id="circle117"/>
	<circle cx="697.965" cy="795.86" r="4" fill="#0" id="circle118"/>
	<circle cx="708.842" cy="506.526" r="4" fill="#0" id="circle119"/>
	<circle cx="708.842" cy="774.105" r="4" fill="#0" id="circle120"/>
	<circle cx="713.193" cy="734.947" r="4" fill="#0" id="circle121"/>
	<circle cx="724.07" cy="523.93" r="4" fill="#0" id="circle122"/>
	<circle cx="724.07" cy="691.439" r="4" fill="#0" id="circle123"/>
	<circle cx="724.07" cy="713.193" r="4" fill="#0" id="circle124"/>
	<circle cx="734.947" cy="543.509" r="4" fill="#0" id="circle125"/>
	<circle cx="734.947" cy="565.263" r="4" fill="#0" id="circle126"/>
	<circle cx="734.947" cy="593.544" r="4" fill="#0" id="circle127"/>
	<circle cx="734.947" cy="615.298" r="4" fill="#0" id="circle128"/>
	<circle cx="734.947" cy="637.053" r="4" fill="#0" id="circle129"/>
	<circle cx="734.947" cy="658.807" r="4" fill="#0" id="circle130"/>
	</g>
</svg>