<?xml version="1.0" encoding="UTF-8" standalone="no"?>
<!-- Created with CurveBenchmark -->
<svg
	xmlns:dc="http://purl.org/dc/elements/1.1/"
	xmlns:cc="http://creativecommons.org/ns#"
	xmlns:rdf="http://www.w3.org/1999/02/22-rdf-syntax-ns#"
	xmlns:svg="http://www.w3.org/2000/svg"
	xmlns="http://www.w3.org/2000/svg"
	xmlns:sodipodi="http://sodipodi.sourceforge.net/DTD/sodipodi-0.dtd"
	xmlns:inkscape="http://www.inkscape.org/namespaces/inkscape"
	width="1000"
	height="1000"
	id="svg2"
	version="1.1"
	sodipodi:docname="manifold/connect2d-breadknifebinary16.png.txt">
<defs
	id="defs4" />
<metadata
	id="metadata7">
	<rdf:RDF>
		<cc:Work
			rdf:about="">
			<dc:format>image/svg+xml</dc:format>
			<dc:type
				rdf:resource="http://purl.org/dc/dcmitype/StillImage" />
			<dc:title></dc:title>
		</cc:Work>
	</rdf:RDF>
</metadata>
<g
	inkscape:label="Layer 1"
	inkscape:groupmode="layer"
	id="layer1">
	<path style="fill:none;stroke:red;stroke-width:1px;stroke-linecap:butt;stroke-linejoin:miter;stroke-opacity:1" d="M 115.42,841.449 115.42,877.391 z" id="boundary" inkscape:connector-curvature="0" />
	<path style="fill:none;stroke:red;stroke-width:1px;stroke-linecap:butt;stroke-linejoin:miter;stroke-opacity:1" d="M 115.42,877.391 111.826,927.71 z" id="boundary" inkscape:connector-curvature="0" />
	<path style="fill:none;stroke:red;stroke-width:1px;stroke-linecap:butt;stroke-linejoin:miter;stroke-opacity:1" d="M 111.826,927.71 104.638,996 z" id="boundary" inkscape:connector-curvature="0" />
	<path style="fill:none;stroke:red;stroke-width:1px;stroke-linecap:butt;stroke-linejoin:miter;stroke-opacity:1" d="M 104.638,996 68.6957,988.812 z" id="boundary" inkscape:connector-curvature="0" />
	<path style="fill:none;stroke:red;stroke-width:1px;stroke-linecap:butt;stroke-linejoin:miter;stroke-opacity:1" d="M 68.6957,988.812 39.942,967.246 z" id="boundary" inkscape:connector-curvature="0" />
	<path style="fill:none;stroke:red;stroke-width:1px;stroke-linecap:butt;stroke-linejoin:miter;stroke-opacity:1" d="M 39.942,967.246 39.942,898.957 z" id="boundary" inkscape:connector-curvature="0" />
	<path style="fill:none;stroke:red;stroke-width:1px;stroke-linecap:butt;stroke-linejoin:miter;stroke-opacity:1" d="M 39.942,898.957 29.1594,863.014 z" id="boundary" inkscape:connector-curvature="0" />
	<path style="fill:none;stroke:red;stroke-width:1px;stroke-linecap:butt;stroke-linejoin:miter;stroke-opacity:1" d="M 29.1594,863.014 65.1014,845.043 z" id="boundary" inkscape:connector-curvature="0" />
	<path style="fill:none;stroke:red;stroke-width:1px;stroke-linecap:butt;stroke-linejoin:miter;stroke-opacity:1" d="M 65.1014,845.043 25.5652,827.072 z" id="boundary" inkscape:connector-curvature="0" />
	<path style="fill:none;stroke:red;stroke-width:1px;stroke-linecap:butt;stroke-linejoin:miter;stroke-opacity:1" d="M 25.5652,827.072 21.971,791.13 z" id="boundary" inkscape:connector-curvature="0" />
	<path style="fill:none;stroke:red;stroke-width:1px;stroke-linecap:butt;stroke-linejoin:miter;stroke-opacity:1" d="M 21.971,791.13 65.1014,809.101 z" id="boundary" inkscape:connector-curvature="0" />
	<path style="fill:none;stroke:red;stroke-width:1px;stroke-linecap:butt;stroke-linejoin:miter;stroke-opacity:1" d="M 65.1014,809.101 57.913,773.159 z" id="boundary" inkscape:connector-curvature="0" />
	<path style="fill:none;stroke:red;stroke-width:1px;stroke-linecap:butt;stroke-linejoin:miter;stroke-opacity:1" d="M 57.913,773.159 29.1594,748 z" id="boundary" inkscape:connector-curvature="0" />
	<path style="fill:none;stroke:red;stroke-width:1px;stroke-linecap:butt;stroke-linejoin:miter;stroke-opacity:1" d="M 29.1594,748 61.5072,730.029 z" id="boundary" inkscape:connector-curvature="0" />
	<path style="fill:none;stroke:red;stroke-width:1px;stroke-linecap:butt;stroke-linejoin:miter;stroke-opacity:1" d="M 61.5072,730.029 39.942,701.275 z" id="boundary" inkscape:connector-curvature="0" />
	<path style="fill:none;stroke:red;stroke-width:1px;stroke-linecap:butt;stroke-linejoin:miter;stroke-opacity:1" d="M 39.942,701.275 47.1304,661.739 z" id="boundary" inkscape:connector-curvature="0" />
	<path style="fill:none;stroke:red;stroke-width:1px;stroke-linecap:butt;stroke-linejoin:miter;stroke-opacity:1" d="M 47.1304,661.739 25.5652,632.986 z" id="boundary" inkscape:connector-curvature="0" />
	<path style="fill:none;stroke:red;stroke-width:1px;stroke-linecap:butt;stroke-linejoin:miter;stroke-opacity:1" d="M 25.5652,632.986 18.3768,597.043 z" id="boundary" inkscape:connector-curvature="0" />
	<path style="fill:none;stroke:red;stroke-width:1px;stroke-linecap:butt;stroke-linejoin:miter;stroke-opacity:1" d="M 18.3768,597.043 18.3768,561.101 z" id="boundary" inkscape:connector-curvature="0" />
	<path style="fill:none;stroke:red;stroke-width:1px;stroke-linecap:butt;stroke-linejoin:miter;stroke-opacity:1" d="M 18.3768,561.101 14.7826,525.159 z" id="boundary" inkscape:connector-curvature="0" />
	<path style="fill:none;stroke:red;stroke-width:1px;stroke-linecap:butt;stroke-linejoin:miter;stroke-opacity:1" d="M 14.7826,525.159 14.7826,478.435 z" id="boundary" inkscape:connector-curvature="0" />
	<path style="fill:none;stroke:red;stroke-width:1px;stroke-linecap:butt;stroke-linejoin:miter;stroke-opacity:1" d="M 14.7826,478.435 11.1884,442.493 z" id="boundary" inkscape:connector-curvature="0" />
	<path style="fill:none;stroke:red;stroke-width:1px;stroke-linecap:butt;stroke-linejoin:miter;stroke-opacity:1" d="M 11.1884,442.493 11.1884,395.768 z" id="boundary" inkscape:connector-curvature="0" />
	<path style="fill:none;stroke:red;stroke-width:1px;stroke-linecap:butt;stroke-linejoin:miter;stroke-opacity:1" d="M 11.1884,395.768 7.5942,359.826 z" id="boundary" inkscape:connector-curvature="0" />
	<path style="fill:none;stroke:red;stroke-width:1px;stroke-linecap:butt;stroke-linejoin:miter;stroke-opacity:1" d="M 7.5942,359.826 7.5942,313.101 z" id="boundary" inkscape:connector-curvature="0" />
	<path style="fill:none;stroke:red;stroke-width:1px;stroke-linecap:butt;stroke-linejoin:miter;stroke-opacity:1" d="M 7.5942,313.101 4,277.159 z" id="boundary" inkscape:connector-curvature="0" />
	<path style="fill:none;stroke:red;stroke-width:1px;stroke-linecap:butt;stroke-linejoin:miter;stroke-opacity:1" d="M 4,277.159 4,234.029 z" id="boundary" inkscape:connector-curvature="0" />
	<path style="fill:none;stroke:red;stroke-width:1px;stroke-linecap:butt;stroke-linejoin:miter;stroke-opacity:1" d="M 4,234.029 4,194.493 z" id="boundary" inkscape:connector-curvature="0" />
	<path style="fill:none;stroke:red;stroke-width:1px;stroke-linecap:butt;stroke-linejoin:miter;stroke-opacity:1" d="M 4,194.493 4,158.551 z" id="boundary" inkscape:connector-curvature="0" />
	<path style="fill:none;stroke:red;stroke-width:1px;stroke-linecap:butt;stroke-linejoin:miter;stroke-opacity:1" d="M 4,158.551 4,122.609 z" id="boundary" inkscape:connector-curvature="0" />
	<path style="fill:none;stroke:red;stroke-width:1px;stroke-linecap:butt;stroke-linejoin:miter;stroke-opacity:1" d="M 4,122.609 4,86.6667 z" id="boundary" inkscape:connector-curvature="0" />
	<path style="fill:none;stroke:red;stroke-width:1px;stroke-linecap:butt;stroke-linejoin:miter;stroke-opacity:1" d="M 4,86.6667 4,50.7246 z" id="boundary" inkscape:connector-curvature="0" />
	<path style="fill:none;stroke:red;stroke-width:1px;stroke-linecap:butt;stroke-linejoin:miter;stroke-opacity:1" d="M 4,50.7246 4,4 z" id="boundary" inkscape:connector-curvature="0" />
	<path style="fill:none;stroke:red;stroke-width:1px;stroke-linecap:butt;stroke-linejoin:miter;stroke-opacity:1" d="M 4,4 39.942,7.5942 z" id="boundary" inkscape:connector-curvature="0" />
	<path style="fill:none;stroke:red;stroke-width:1px;stroke-linecap:butt;stroke-linejoin:miter;stroke-opacity:1" d="M 39.942,7.5942 65.1014,36.3478 z" id="boundary" inkscape:connector-curvature="0" />
	<path style="fill:none;stroke:red;stroke-width:1px;stroke-linecap:butt;stroke-linejoin:miter;stroke-opacity:1" d="M 65.1014,36.3478 72.2899,72.2899 z" id="boundary" inkscape:connector-curvature="0" />
	<path style="fill:none;stroke:red;stroke-width:1px;stroke-linecap:butt;stroke-linejoin:miter;stroke-opacity:1" d="M 72.2899,72.2899 72.2899,122.609 z" id="boundary" inkscape:connector-curvature="0" />
	<path style="fill:none;stroke:red;stroke-width:1px;stroke-linecap:butt;stroke-linejoin:miter;stroke-opacity:1" d="M 72.2899,122.609 75.8841,158.551 z" id="boundary" inkscape:connector-curvature="0" />
	<path style="fill:none;stroke:red;stroke-width:1px;stroke-linecap:butt;stroke-linejoin:miter;stroke-opacity:1" d="M 75.8841,158.551 75.8841,194.493 z" id="boundary" inkscape:connector-curvature="0" />
	<path style="fill:none;stroke:red;stroke-width:1px;stroke-linecap:butt;stroke-linejoin:miter;stroke-opacity:1" d="M 75.8841,194.493 75.8841,230.435 z" id="boundary" inkscape:connector-curvature="0" />
	<path style="fill:none;stroke:red;stroke-width:1px;stroke-linecap:butt;stroke-linejoin:miter;stroke-opacity:1" d="M 75.8841,230.435 79.4783,266.377 z" id="boundary" inkscape:connector-curvature="0" />
	<path style="fill:none;stroke:red;stroke-width:1px;stroke-linecap:butt;stroke-linejoin:miter;stroke-opacity:1" d="M 79.4783,266.377 79.4783,302.319 z" id="boundary" inkscape:connector-curvature="0" />
	<path style="fill:none;stroke:red;stroke-width:1px;stroke-linecap:butt;stroke-linejoin:miter;stroke-opacity:1" d="M 79.4783,302.319 83.0725,338.261 z" id="boundary" inkscape:connector-curvature="0" />
	<path style="fill:none;stroke:red;stroke-width:1px;stroke-linecap:butt;stroke-linejoin:miter;stroke-opacity:1" d="M 83.0725,338.261 83.0725,374.203 z" id="boundary" inkscape:connector-curvature="0" />
	<path style="fill:none;stroke:red;stroke-width:1px;stroke-linecap:butt;stroke-linejoin:miter;stroke-opacity:1" d="M 83.0725,374.203 86.6667,410.145 z" id="boundary" inkscape:connector-curvature="0" />
	<path style="fill:none;stroke:red;stroke-width:1px;stroke-linecap:butt;stroke-linejoin:miter;stroke-opacity:1" d="M 86.6667,410.145 86.6667,446.087 z" id="boundary" inkscape:connector-curvature="0" />
	<path style="fill:none;stroke:red;stroke-width:1px;stroke-linecap:butt;stroke-linejoin:miter;stroke-opacity:1" d="M 86.6667,446.087 90.2609,482.029 z" id="boundary" inkscape:connector-curvature="0" />
	<path style="fill:none;stroke:red;stroke-width:1px;stroke-linecap:butt;stroke-linejoin:miter;stroke-opacity:1" d="M 90.2609,482.029 90.2609,517.971 z" id="boundary" inkscape:connector-curvature="0" />
	<path style="fill:none;stroke:red;stroke-width:1px;stroke-linecap:butt;stroke-linejoin:miter;stroke-opacity:1" d="M 90.2609,517.971 93.8551,553.913 z" id="boundary" inkscape:connector-curvature="0" />
	<path style="fill:none;stroke:red;stroke-width:1px;stroke-linecap:butt;stroke-linejoin:miter;stroke-opacity:1" d="M 93.8551,553.913 93.8551,589.855 z" id="boundary" inkscape:connector-curvature="0" />
	<path style="fill:none;stroke:red;stroke-width:1px;stroke-linecap:butt;stroke-linejoin:miter;stroke-opacity:1" d="M 93.8551,589.855 93.8551,625.797 z" id="boundary" inkscape:connector-curvature="0" />
	<path style="fill:none;stroke:red;stroke-width:1px;stroke-linecap:butt;stroke-linejoin:miter;stroke-opacity:1" d="M 93.8551,625.797 97.4493,661.739 z" id="boundary" inkscape:connector-curvature="0" />
	<path style="fill:none;stroke:red;stroke-width:1px;stroke-linecap:butt;stroke-linejoin:miter;stroke-opacity:1" d="M 97.4493,661.739 101.043,697.681 z" id="boundary" inkscape:connector-curvature="0" />
	<path style="fill:none;stroke:red;stroke-width:1px;stroke-linecap:butt;stroke-linejoin:miter;stroke-opacity:1" d="M 101.043,697.681 108.232,733.623 z" id="boundary" inkscape:connector-curvature="0" />
	<path style="fill:none;stroke:red;stroke-width:1px;stroke-linecap:butt;stroke-linejoin:miter;stroke-opacity:1" d="M 108.232,733.623 111.826,769.565 z" id="boundary" inkscape:connector-curvature="0" />
	<path style="fill:none;stroke:red;stroke-width:1px;stroke-linecap:butt;stroke-linejoin:miter;stroke-opacity:1" d="M 111.826,769.565 111.826,805.507 z" id="boundary" inkscape:connector-curvature="0" />
	<path style="fill:none;stroke:red;stroke-width:1px;stroke-linecap:butt;stroke-linejoin:miter;stroke-opacity:1" d="M 111.826,805.507 115.42,841.449 z" id="boundary" inkscape:connector-curvature="0" />
	<circle cx="4" cy="4" r="4" fill="#0" id="circle0"/>
	<circle cx="4" cy="50.7246" r="4" fill="#0" id="circle1"/>
	<circle cx="4" cy="86.6667" r="4" fill="#0" id="circle2"/>
	<circle cx="4" cy="122.609" r="4" fill="#0" id="circle3"/>
	<circle cx="4" cy="158.551" r="4" fill="#0" id="circle4"/>
	<circle cx="4" cy="194.493" r="4" fill="#0" id="circle5"/>
	<circle cx="4" cy="234.029" r="4" fill="#0" id="circle6"/>
	<circle cx="4" cy="277.159" r="4" fill="#0" id="circle7"/>
	<circle cx="7.5942" cy="313.101" r="4" fill="#0" id="circle8"/>
	<circle cx="7.5942" cy="359.826" r="4" fill="#0" id="circle9"/>
	<circle cx="11.1884" cy="395.768" r="4" fill="#0" id="circle10"/>
	<circle cx="11.1884" cy="442.493" r="4" fill="#0" id="circle11"/>
	<circle cx="14.7826" cy="478.435" r="4" fill="#0" id="circle12"/>
	<circle cx="14.7826" cy="525.159" r="4" fill="#0" id="circle13"/>
	<circle cx="18.3768" cy="561.101" r="4" fill="#0" id="circle14"/>
	<circle cx="18.3768" cy="597.043" r="4" fill="#0" id="circle15"/>
	<circle cx="21.971" cy="791.13" r="4" fill="#0" id="circle16"/>
	<circle cx="25.5652" cy="632.986" r="4" fill="#0" id="circle17"/>
	<circle cx="25.5652" cy="827.072" r="4" fill="#0" id="circle18"/>
	<circle cx="29.1594" cy="748" r="4" fill="#0" id="circle19"/>
	<circle cx="29.1594" cy="863.014" r="4" fill="#0" id="circle20"/>
	<circle cx="39.942" cy="7.5942" r="4" fill="#0" id="circle21"/>
	<circle cx="39.942" cy="701.275" r="4" fill="#0" id="circle22"/>
	<circle cx="39.942" cy="898.957" r="4" fill="#0" id="circle23"/>
	<circle cx="39.942" cy="967.246" r="4" fill="#0" id="circle24"/>
	<circle cx="47.1304" cy="661.739" r="4" fill="#0" id="circle25"/>
	<circle cx="57.913" cy="773.159" r="4" fill="#0" id="circle26"/>
	<circle cx="61.5072" cy="730.029" r="4" fill="#0" id="circle27"/>
	<circle cx="65.1014" cy="36.3478" r="4" fill="#0" id="circle28"/>
	<circle cx="65.1014" cy="809.101" r="4" fill="#0" id="circle29"/>
	<circle cx="65.1014" cy="845.043" r="4" fill="#0" id="circle30"/>
	<circle cx="68.6957" cy="988.812" r="4" fill="#0" id="circle31"/>
	<circle cx="72.2899" cy="72.2899" r="4" fill="#0" id="circle32"/>
	<circle cx="72.2899" cy="122.609" r="4" fill="#0" id="circle33"/>
	<circle cx="75.8841" cy="158.551" r="4" fill="#0" id="circle34"/>
	<circle cx="75.8841" cy="194.493" r="4" fill="#0" id="circle35"/>
	<circle cx="75.8841" cy="230.435" r="4" fill="#0" id="circle36"/>
	<circle cx="79.4783" cy="266.377" r="4" fill="#0" id="circle37"/>
	<circle cx="79.4783" cy="302.319" r="4" fill="#0" id="circle38"/>
	<circle cx="83.0725" cy="338.261" r="4" fill="#0" id="circle39"/>
	<circle cx="83.0725" cy="374.203" r="4" fill="#0" id="circle40"/>
	<circle cx="86.6667" cy="410.145" r="4" fill="#0" id="circle41"/>
	<circle cx="86.6667" cy="446.087" r="4" fill="#0" id="circle42"/>
	<circle cx="90.2609" cy="482.029" r="4" fill="#0" id="circle43"/>
	<circle cx="90.2609" cy="517.971" r="4" fill="#0" id="circle44"/>
	<circle cx="93.8551" cy="553.913" r="4" fill="#0" id="circle45"/>
	<circle cx="93.8551" cy="589.855" r="4" fill="#0" id="circle46"/>
	<circle cx="93.8551" cy="625.797" r="4" fill="#0" id="circle47"/>
	<circle cx="97.4493" cy="661.739" r="4" fill="#0" id="circle48"/>
	<circle cx="101.043" cy="697.681" r="4" fill="#0" id="circle49"/>
	<circle cx="104.638" cy="996" r="4" fill="#0" id="circle50"/>
	<circle cx="108.232" cy="733.623" r="4" fill="#0" id="circle51"/>
	<circle cx="111.826" cy="769.565" r="4" fill="#0" id="circle52"/>
	<circle cx="111.826" cy="805.507" r="4" fill="#0" id="circle53"/>
	<circle cx="111.826" cy="927.71" r="4" fill="#0" id="circle54"/>
	<circle cx="115.42" cy="841.449" r="4" fill="#0" id="circle55"/>
	<circle cx="115.42" cy="877.391" r="4" fill="#0" id="circle56"/>
	</g>
</svg>