<?xml version="1.0" encoding="UTF-8" standalone="no"?>
<!-- Created with CurveBenchmark -->
<svg
	xmlns:dc="http://purl.org/dc/elements/1.1/"
	xmlns:cc="http://creativecommons.org/ns#"
	xmlns:rdf="http://www.w3.org/1999/02/22-rdf-syntax-ns#"
	xmlns:svg="http://www.w3.org/2000/svg"
	xmlns="http://www.w3.org/2000/svg"
	xmlns:sodipodi="http://sodipodi.sourceforge.net/DTD/sodipodi-0.dtd"
	xmlns:inkscape="http://www.inkscape.org/namespaces/inkscape"
	width="1000"
	height="1000"
	id="svg2"
	version="1.1"
	sodipodi:docname="manifold/connect2d-textbox42.png.txt">
<defs
	id="defs4" />
<metadata
	id="metadata7">
	<rdf:RDF>
		<cc:Work
			rdf:about="">
			<dc:format>image/svg+xml</dc:format>
			<dc:type
				rdf:resource="http://purl.org/dc/dcmitype/StillImage" />
			<dc:title></dc:title>
		</cc:Work>
	</rdf:RDF>
</metadata>
<g
	inkscape:label="Layer 1"
	inkscape:groupmode="layer"
	id="layer1">
	<path style="fill:none;stroke:red;stroke-width:1px;stroke-linecap:butt;stroke-linejoin:miter;stroke-opacity:1" d="M 996,442.081 996,463.142 z" id="boundary" inkscape:connector-curvature="0" />
	<path style="fill:none;stroke:red;stroke-width:1px;stroke-linecap:butt;stroke-linejoin:miter;stroke-opacity:1" d="M 996,463.142 991.788,496.841 z" id="boundary" inkscape:connector-curvature="0" />
	<path style="fill:none;stroke:red;stroke-width:1px;stroke-linecap:butt;stroke-linejoin:miter;stroke-opacity:1" d="M 991.788,496.841 981.257,517.902 z" id="boundary" inkscape:connector-curvature="0" />
	<path style="fill:none;stroke:red;stroke-width:1px;stroke-linecap:butt;stroke-linejoin:miter;stroke-opacity:1" d="M 981.257,517.902 960.195,528.433 z" id="boundary" inkscape:connector-curvature="0" />
	<path style="fill:none;stroke:red;stroke-width:1px;stroke-linecap:butt;stroke-linejoin:miter;stroke-opacity:1" d="M 960.195,528.433 943.346,543.176 z" id="boundary" inkscape:connector-curvature="0" />
	<path style="fill:none;stroke:red;stroke-width:1px;stroke-linecap:butt;stroke-linejoin:miter;stroke-opacity:1" d="M 943.346,543.176 932.815,574.769 z" id="boundary" inkscape:connector-curvature="0" />
	<path style="fill:none;stroke:red;stroke-width:1px;stroke-linecap:butt;stroke-linejoin:miter;stroke-opacity:1" d="M 932.815,574.769 911.754,574.769 z" id="boundary" inkscape:connector-curvature="0" />
	<path style="fill:none;stroke:red;stroke-width:1px;stroke-linecap:butt;stroke-linejoin:miter;stroke-opacity:1" d="M 911.754,574.769 890.692,585.299 z" id="boundary" inkscape:connector-curvature="0" />
	<path style="fill:none;stroke:red;stroke-width:1px;stroke-linecap:butt;stroke-linejoin:miter;stroke-opacity:1" d="M 890.692,585.299 869.631,585.299 z" id="boundary" inkscape:connector-curvature="0" />
	<path style="fill:none;stroke:red;stroke-width:1px;stroke-linecap:butt;stroke-linejoin:miter;stroke-opacity:1" d="M 869.631,585.299 848.569,595.83 z" id="boundary" inkscape:connector-curvature="0" />
	<path style="fill:none;stroke:red;stroke-width:1px;stroke-linecap:butt;stroke-linejoin:miter;stroke-opacity:1" d="M 848.569,595.83 838.038,616.892 z" id="boundary" inkscape:connector-curvature="0" />
	<path style="fill:none;stroke:red;stroke-width:1px;stroke-linecap:butt;stroke-linejoin:miter;stroke-opacity:1" d="M 838.038,616.892 825.401,637.953 z" id="boundary" inkscape:connector-curvature="0" />
	<path style="fill:none;stroke:red;stroke-width:1px;stroke-linecap:butt;stroke-linejoin:miter;stroke-opacity:1" d="M 825.401,637.953 806.446,648.484 z" id="boundary" inkscape:connector-curvature="0" />
	<path style="fill:none;stroke:red;stroke-width:1px;stroke-linecap:butt;stroke-linejoin:miter;stroke-opacity:1" d="M 806.446,648.484 806.446,669.546 z" id="boundary" inkscape:connector-curvature="0" />
	<path style="fill:none;stroke:red;stroke-width:1px;stroke-linecap:butt;stroke-linejoin:miter;stroke-opacity:1" d="M 806.446,669.546 785.384,690.607 z" id="boundary" inkscape:connector-curvature="0" />
	<path style="fill:none;stroke:red;stroke-width:1px;stroke-linecap:butt;stroke-linejoin:miter;stroke-opacity:1" d="M 785.384,690.607 764.323,701.138 z" id="boundary" inkscape:connector-curvature="0" />
	<path style="fill:none;stroke:red;stroke-width:1px;stroke-linecap:butt;stroke-linejoin:miter;stroke-opacity:1" d="M 764.323,701.138 764.323,722.2 z" id="boundary" inkscape:connector-curvature="0" />
	<path style="fill:none;stroke:red;stroke-width:1px;stroke-linecap:butt;stroke-linejoin:miter;stroke-opacity:1" d="M 764.323,722.2 753.792,743.261 z" id="boundary" inkscape:connector-curvature="0" />
	<path style="fill:none;stroke:red;stroke-width:1px;stroke-linecap:butt;stroke-linejoin:miter;stroke-opacity:1" d="M 753.792,743.261 743.261,774.854 z" id="boundary" inkscape:connector-curvature="0" />
	<path style="fill:none;stroke:red;stroke-width:1px;stroke-linecap:butt;stroke-linejoin:miter;stroke-opacity:1" d="M 743.261,774.854 722.2,785.384 z" id="boundary" inkscape:connector-curvature="0" />
	<path style="fill:none;stroke:red;stroke-width:1px;stroke-linecap:butt;stroke-linejoin:miter;stroke-opacity:1" d="M 722.2,785.384 722.2,806.446 z" id="boundary" inkscape:connector-curvature="0" />
	<path style="fill:none;stroke:red;stroke-width:1px;stroke-linecap:butt;stroke-linejoin:miter;stroke-opacity:1" d="M 722.2,806.446 711.669,827.507 z" id="boundary" inkscape:connector-curvature="0" />
	<path style="fill:none;stroke:red;stroke-width:1px;stroke-linecap:butt;stroke-linejoin:miter;stroke-opacity:1" d="M 711.669,827.507 690.607,827.507 z" id="boundary" inkscape:connector-curvature="0" />
	<path style="fill:none;stroke:red;stroke-width:1px;stroke-linecap:butt;stroke-linejoin:miter;stroke-opacity:1" d="M 690.607,827.507 669.546,823.295 z" id="boundary" inkscape:connector-curvature="0" />
	<path style="fill:none;stroke:red;stroke-width:1px;stroke-linecap:butt;stroke-linejoin:miter;stroke-opacity:1" d="M 669.546,823.295 667.439,802.234 z" id="boundary" inkscape:connector-curvature="0" />
	<path style="fill:none;stroke:red;stroke-width:1px;stroke-linecap:butt;stroke-linejoin:miter;stroke-opacity:1" d="M 667.439,802.234 659.015,781.172 z" id="boundary" inkscape:connector-curvature="0" />
	<path style="fill:none;stroke:red;stroke-width:1px;stroke-linecap:butt;stroke-linejoin:miter;stroke-opacity:1" d="M 659.015,781.172 646.378,764.323 z" id="boundary" inkscape:connector-curvature="0" />
	<path style="fill:none;stroke:red;stroke-width:1px;stroke-linecap:butt;stroke-linejoin:miter;stroke-opacity:1" d="M 646.378,764.323 646.378,743.261 z" id="boundary" inkscape:connector-curvature="0" />
	<path style="fill:none;stroke:red;stroke-width:1px;stroke-linecap:butt;stroke-linejoin:miter;stroke-opacity:1" d="M 646.378,743.261 629.529,730.624 z" id="boundary" inkscape:connector-curvature="0" />
	<path style="fill:none;stroke:red;stroke-width:1px;stroke-linecap:butt;stroke-linejoin:miter;stroke-opacity:1" d="M 629.529,730.624 625.316,709.563 z" id="boundary" inkscape:connector-curvature="0" />
	<path style="fill:none;stroke:red;stroke-width:1px;stroke-linecap:butt;stroke-linejoin:miter;stroke-opacity:1" d="M 625.316,709.563 618.998,688.501 z" id="boundary" inkscape:connector-curvature="0" />
	<path style="fill:none;stroke:red;stroke-width:1px;stroke-linecap:butt;stroke-linejoin:miter;stroke-opacity:1" d="M 618.998,688.501 614.786,667.439 z" id="boundary" inkscape:connector-curvature="0" />
	<path style="fill:none;stroke:red;stroke-width:1px;stroke-linecap:butt;stroke-linejoin:miter;stroke-opacity:1" d="M 614.786,667.439 608.467,646.378 z" id="boundary" inkscape:connector-curvature="0" />
	<path style="fill:none;stroke:red;stroke-width:1px;stroke-linecap:butt;stroke-linejoin:miter;stroke-opacity:1" d="M 608.467,646.378 604.255,625.316 z" id="boundary" inkscape:connector-curvature="0" />
	<path style="fill:none;stroke:red;stroke-width:1px;stroke-linecap:butt;stroke-linejoin:miter;stroke-opacity:1" d="M 604.255,625.316 587.406,612.679 z" id="boundary" inkscape:connector-curvature="0" />
	<path style="fill:none;stroke:red;stroke-width:1px;stroke-linecap:butt;stroke-linejoin:miter;stroke-opacity:1" d="M 587.406,612.679 574.769,595.83 z" id="boundary" inkscape:connector-curvature="0" />
	<path style="fill:none;stroke:red;stroke-width:1px;stroke-linecap:butt;stroke-linejoin:miter;stroke-opacity:1" d="M 574.769,595.83 553.707,595.83 z" id="boundary" inkscape:connector-curvature="0" />
	<path style="fill:none;stroke:red;stroke-width:1px;stroke-linecap:butt;stroke-linejoin:miter;stroke-opacity:1" d="M 553.707,595.83 532.645,595.83 z" id="boundary" inkscape:connector-curvature="0" />
	<path style="fill:none;stroke:red;stroke-width:1px;stroke-linecap:butt;stroke-linejoin:miter;stroke-opacity:1" d="M 532.645,595.83 511.584,595.83 z" id="boundary" inkscape:connector-curvature="0" />
	<path style="fill:none;stroke:red;stroke-width:1px;stroke-linecap:butt;stroke-linejoin:miter;stroke-opacity:1" d="M 511.584,595.83 490.522,595.83 z" id="boundary" inkscape:connector-curvature="0" />
	<path style="fill:none;stroke:red;stroke-width:1px;stroke-linecap:butt;stroke-linejoin:miter;stroke-opacity:1" d="M 490.522,595.83 469.461,595.83 z" id="boundary" inkscape:connector-curvature="0" />
	<path style="fill:none;stroke:red;stroke-width:1px;stroke-linecap:butt;stroke-linejoin:miter;stroke-opacity:1" d="M 469.461,595.83 448.399,595.83 z" id="boundary" inkscape:connector-curvature="0" />
	<path style="fill:none;stroke:red;stroke-width:1px;stroke-linecap:butt;stroke-linejoin:miter;stroke-opacity:1" d="M 448.399,595.83 427.338,595.83 z" id="boundary" inkscape:connector-curvature="0" />
	<path style="fill:none;stroke:red;stroke-width:1px;stroke-linecap:butt;stroke-linejoin:miter;stroke-opacity:1" d="M 427.338,595.83 410.488,616.892 z" id="boundary" inkscape:connector-curvature="0" />
	<path style="fill:none;stroke:red;stroke-width:1px;stroke-linecap:butt;stroke-linejoin:miter;stroke-opacity:1" d="M 410.488,616.892 389.427,616.892 z" id="boundary" inkscape:connector-curvature="0" />
	<path style="fill:none;stroke:red;stroke-width:1px;stroke-linecap:butt;stroke-linejoin:miter;stroke-opacity:1" d="M 389.427,616.892 368.365,616.892 z" id="boundary" inkscape:connector-curvature="0" />
	<path style="fill:none;stroke:red;stroke-width:1px;stroke-linecap:butt;stroke-linejoin:miter;stroke-opacity:1" d="M 368.365,616.892 347.304,616.892 z" id="boundary" inkscape:connector-curvature="0" />
	<path style="fill:none;stroke:red;stroke-width:1px;stroke-linecap:butt;stroke-linejoin:miter;stroke-opacity:1" d="M 347.304,616.892 326.242,616.892 z" id="boundary" inkscape:connector-curvature="0" />
	<path style="fill:none;stroke:red;stroke-width:1px;stroke-linecap:butt;stroke-linejoin:miter;stroke-opacity:1" d="M 326.242,616.892 305.18,616.892 z" id="boundary" inkscape:connector-curvature="0" />
	<path style="fill:none;stroke:red;stroke-width:1px;stroke-linecap:butt;stroke-linejoin:miter;stroke-opacity:1" d="M 305.18,616.892 284.119,616.892 z" id="boundary" inkscape:connector-curvature="0" />
	<path style="fill:none;stroke:red;stroke-width:1px;stroke-linecap:butt;stroke-linejoin:miter;stroke-opacity:1" d="M 284.119,616.892 263.057,616.892 z" id="boundary" inkscape:connector-curvature="0" />
	<path style="fill:none;stroke:red;stroke-width:1px;stroke-linecap:butt;stroke-linejoin:miter;stroke-opacity:1" d="M 263.057,616.892 241.996,616.892 z" id="boundary" inkscape:connector-curvature="0" />
	<path style="fill:none;stroke:red;stroke-width:1px;stroke-linecap:butt;stroke-linejoin:miter;stroke-opacity:1" d="M 241.996,616.892 220.934,616.892 z" id="boundary" inkscape:connector-curvature="0" />
	<path style="fill:none;stroke:red;stroke-width:1px;stroke-linecap:butt;stroke-linejoin:miter;stroke-opacity:1" d="M 220.934,616.892 199.873,616.892 z" id="boundary" inkscape:connector-curvature="0" />
	<path style="fill:none;stroke:red;stroke-width:1px;stroke-linecap:butt;stroke-linejoin:miter;stroke-opacity:1" d="M 199.873,616.892 178.811,616.892 z" id="boundary" inkscape:connector-curvature="0" />
	<path style="fill:none;stroke:red;stroke-width:1px;stroke-linecap:butt;stroke-linejoin:miter;stroke-opacity:1" d="M 178.811,616.892 157.749,616.892 z" id="boundary" inkscape:connector-curvature="0" />
	<path style="fill:none;stroke:red;stroke-width:1px;stroke-linecap:butt;stroke-linejoin:miter;stroke-opacity:1" d="M 157.749,616.892 136.688,616.892 z" id="boundary" inkscape:connector-curvature="0" />
	<path style="fill:none;stroke:red;stroke-width:1px;stroke-linecap:butt;stroke-linejoin:miter;stroke-opacity:1" d="M 136.688,616.892 128.263,595.83 z" id="boundary" inkscape:connector-curvature="0" />
	<path style="fill:none;stroke:red;stroke-width:1px;stroke-linecap:butt;stroke-linejoin:miter;stroke-opacity:1" d="M 128.263,595.83 107.202,595.83 z" id="boundary" inkscape:connector-curvature="0" />
	<path style="fill:none;stroke:red;stroke-width:1px;stroke-linecap:butt;stroke-linejoin:miter;stroke-opacity:1" d="M 107.202,595.83 88.2463,585.299 z" id="boundary" inkscape:connector-curvature="0" />
	<path style="fill:none;stroke:red;stroke-width:1px;stroke-linecap:butt;stroke-linejoin:miter;stroke-opacity:1" d="M 88.2463,585.299 67.1847,585.299 z" id="boundary" inkscape:connector-curvature="0" />
	<path style="fill:none;stroke:red;stroke-width:1px;stroke-linecap:butt;stroke-linejoin:miter;stroke-opacity:1" d="M 67.1847,585.299 50.3355,572.662 z" id="boundary" inkscape:connector-curvature="0" />
	<path style="fill:none;stroke:red;stroke-width:1px;stroke-linecap:butt;stroke-linejoin:miter;stroke-opacity:1" d="M 50.3355,572.662 46.1231,551.601 z" id="boundary" inkscape:connector-curvature="0" />
	<path style="fill:none;stroke:red;stroke-width:1px;stroke-linecap:butt;stroke-linejoin:miter;stroke-opacity:1" d="M 46.1231,551.601 35.5924,532.645 z" id="boundary" inkscape:connector-curvature="0" />
	<path style="fill:none;stroke:red;stroke-width:1px;stroke-linecap:butt;stroke-linejoin:miter;stroke-opacity:1" d="M 35.5924,532.645 14.5308,524.221 z" id="boundary" inkscape:connector-curvature="0" />
	<path style="fill:none;stroke:red;stroke-width:1px;stroke-linecap:butt;stroke-linejoin:miter;stroke-opacity:1" d="M 14.5308,524.221 14.5308,503.159 z" id="boundary" inkscape:connector-curvature="0" />
	<path style="fill:none;stroke:red;stroke-width:1px;stroke-linecap:butt;stroke-linejoin:miter;stroke-opacity:1" d="M 14.5308,503.159 14.5308,482.098 z" id="boundary" inkscape:connector-curvature="0" />
	<path style="fill:none;stroke:red;stroke-width:1px;stroke-linecap:butt;stroke-linejoin:miter;stroke-opacity:1" d="M 14.5308,482.098 14.5308,461.036 z" id="boundary" inkscape:connector-curvature="0" />
	<path style="fill:none;stroke:red;stroke-width:1px;stroke-linecap:butt;stroke-linejoin:miter;stroke-opacity:1" d="M 14.5308,461.036 14.5308,439.975 z" id="boundary" inkscape:connector-curvature="0" />
	<path style="fill:none;stroke:red;stroke-width:1px;stroke-linecap:butt;stroke-linejoin:miter;stroke-opacity:1" d="M 14.5308,439.975 14.5308,418.913 z" id="boundary" inkscape:connector-curvature="0" />
	<path style="fill:none;stroke:red;stroke-width:1px;stroke-linecap:butt;stroke-linejoin:miter;stroke-opacity:1" d="M 14.5308,418.913 14.5308,397.851 z" id="boundary" inkscape:connector-curvature="0" />
	<path style="fill:none;stroke:red;stroke-width:1px;stroke-linecap:butt;stroke-linejoin:miter;stroke-opacity:1" d="M 14.5308,397.851 4,378.896 z" id="boundary" inkscape:connector-curvature="0" />
	<path style="fill:none;stroke:red;stroke-width:1px;stroke-linecap:butt;stroke-linejoin:miter;stroke-opacity:1" d="M 4,378.896 4,357.834 z" id="boundary" inkscape:connector-curvature="0" />
	<path style="fill:none;stroke:red;stroke-width:1px;stroke-linecap:butt;stroke-linejoin:miter;stroke-opacity:1" d="M 4,357.834 4,336.773 z" id="boundary" inkscape:connector-curvature="0" />
	<path style="fill:none;stroke:red;stroke-width:1px;stroke-linecap:butt;stroke-linejoin:miter;stroke-opacity:1" d="M 4,336.773 4,315.711 z" id="boundary" inkscape:connector-curvature="0" />
	<path style="fill:none;stroke:red;stroke-width:1px;stroke-linecap:butt;stroke-linejoin:miter;stroke-opacity:1" d="M 4,315.711 4,294.65 z" id="boundary" inkscape:connector-curvature="0" />
	<path style="fill:none;stroke:red;stroke-width:1px;stroke-linecap:butt;stroke-linejoin:miter;stroke-opacity:1" d="M 4,294.65 4,273.588 z" id="boundary" inkscape:connector-curvature="0" />
	<path style="fill:none;stroke:red;stroke-width:1px;stroke-linecap:butt;stroke-linejoin:miter;stroke-opacity:1" d="M 4,273.588 4,252.527 z" id="boundary" inkscape:connector-curvature="0" />
	<path style="fill:none;stroke:red;stroke-width:1px;stroke-linecap:butt;stroke-linejoin:miter;stroke-opacity:1" d="M 4,252.527 4,231.465 z" id="boundary" inkscape:connector-curvature="0" />
	<path style="fill:none;stroke:red;stroke-width:1px;stroke-linecap:butt;stroke-linejoin:miter;stroke-opacity:1" d="M 4,231.465 4,210.403 z" id="boundary" inkscape:connector-curvature="0" />
	<path style="fill:none;stroke:red;stroke-width:1px;stroke-linecap:butt;stroke-linejoin:miter;stroke-opacity:1" d="M 4,210.403 4,189.342 z" id="boundary" inkscape:connector-curvature="0" />
	<path style="fill:none;stroke:red;stroke-width:1px;stroke-linecap:butt;stroke-linejoin:miter;stroke-opacity:1" d="M 4,189.342 4,168.28 z" id="boundary" inkscape:connector-curvature="0" />
	<path style="fill:none;stroke:red;stroke-width:1px;stroke-linecap:butt;stroke-linejoin:miter;stroke-opacity:1" d="M 4,168.28 4,147.219 z" id="boundary" inkscape:connector-curvature="0" />
	<path style="fill:none;stroke:red;stroke-width:1px;stroke-linecap:butt;stroke-linejoin:miter;stroke-opacity:1" d="M 4,147.219 4,126.157 z" id="boundary" inkscape:connector-curvature="0" />
	<path style="fill:none;stroke:red;stroke-width:1px;stroke-linecap:butt;stroke-linejoin:miter;stroke-opacity:1" d="M 4,126.157 14.5308,94.5648 z" id="boundary" inkscape:connector-curvature="0" />
	<path style="fill:none;stroke:red;stroke-width:1px;stroke-linecap:butt;stroke-linejoin:miter;stroke-opacity:1" d="M 14.5308,94.5648 35.5924,73.5032 z" id="boundary" inkscape:connector-curvature="0" />
	<path style="fill:none;stroke:red;stroke-width:1px;stroke-linecap:butt;stroke-linejoin:miter;stroke-opacity:1" d="M 35.5924,73.5032 52.4416,56.6539 z" id="boundary" inkscape:connector-curvature="0" />
	<path style="fill:none;stroke:red;stroke-width:1px;stroke-linecap:butt;stroke-linejoin:miter;stroke-opacity:1" d="M 52.4416,56.6539 73.5032,56.6539 z" id="boundary" inkscape:connector-curvature="0" />
	<path style="fill:none;stroke:red;stroke-width:1px;stroke-linecap:butt;stroke-linejoin:miter;stroke-opacity:1" d="M 73.5032,56.6539 92.4586,46.1231 z" id="boundary" inkscape:connector-curvature="0" />
	<path style="fill:none;stroke:red;stroke-width:1px;stroke-linecap:butt;stroke-linejoin:miter;stroke-opacity:1" d="M 92.4586,46.1231 113.52,46.1231 z" id="boundary" inkscape:connector-curvature="0" />
	<path style="fill:none;stroke:red;stroke-width:1px;stroke-linecap:butt;stroke-linejoin:miter;stroke-opacity:1" d="M 113.52,46.1231 134.582,46.1231 z" id="boundary" inkscape:connector-curvature="0" />
	<path style="fill:none;stroke:red;stroke-width:1px;stroke-linecap:butt;stroke-linejoin:miter;stroke-opacity:1" d="M 134.582,46.1231 145.113,27.1677 z" id="boundary" inkscape:connector-curvature="0" />
	<path style="fill:none;stroke:red;stroke-width:1px;stroke-linecap:butt;stroke-linejoin:miter;stroke-opacity:1" d="M 145.113,27.1677 166.174,25.0616 z" id="boundary" inkscape:connector-curvature="0" />
	<path style="fill:none;stroke:red;stroke-width:1px;stroke-linecap:butt;stroke-linejoin:miter;stroke-opacity:1" d="M 166.174,25.0616 187.236,25.0616 z" id="boundary" inkscape:connector-curvature="0" />
	<path style="fill:none;stroke:red;stroke-width:1px;stroke-linecap:butt;stroke-linejoin:miter;stroke-opacity:1" d="M 187.236,25.0616 206.191,14.5308 z" id="boundary" inkscape:connector-curvature="0" />
	<path style="fill:none;stroke:red;stroke-width:1px;stroke-linecap:butt;stroke-linejoin:miter;stroke-opacity:1" d="M 206.191,14.5308 227.253,14.5308 z" id="boundary" inkscape:connector-curvature="0" />
	<path style="fill:none;stroke:red;stroke-width:1px;stroke-linecap:butt;stroke-linejoin:miter;stroke-opacity:1" d="M 227.253,14.5308 248.314,14.5308 z" id="boundary" inkscape:connector-curvature="0" />
	<path style="fill:none;stroke:red;stroke-width:1px;stroke-linecap:butt;stroke-linejoin:miter;stroke-opacity:1" d="M 248.314,14.5308 269.376,14.5308 z" id="boundary" inkscape:connector-curvature="0" />
	<path style="fill:none;stroke:red;stroke-width:1px;stroke-linecap:butt;stroke-linejoin:miter;stroke-opacity:1" d="M 269.376,14.5308 290.437,14.5308 z" id="boundary" inkscape:connector-curvature="0" />
	<path style="fill:none;stroke:red;stroke-width:1px;stroke-linecap:butt;stroke-linejoin:miter;stroke-opacity:1" d="M 290.437,14.5308 311.499,14.5308 z" id="boundary" inkscape:connector-curvature="0" />
	<path style="fill:none;stroke:red;stroke-width:1px;stroke-linecap:butt;stroke-linejoin:miter;stroke-opacity:1" d="M 311.499,14.5308 332.561,14.5308 z" id="boundary" inkscape:connector-curvature="0" />
	<path style="fill:none;stroke:red;stroke-width:1px;stroke-linecap:butt;stroke-linejoin:miter;stroke-opacity:1" d="M 332.561,14.5308 353.622,14.5308 z" id="boundary" inkscape:connector-curvature="0" />
	<path style="fill:none;stroke:red;stroke-width:1px;stroke-linecap:butt;stroke-linejoin:miter;stroke-opacity:1" d="M 353.622,14.5308 374.684,14.5308 z" id="boundary" inkscape:connector-curvature="0" />
	<path style="fill:none;stroke:red;stroke-width:1px;stroke-linecap:butt;stroke-linejoin:miter;stroke-opacity:1" d="M 374.684,14.5308 395.745,14.5308 z" id="boundary" inkscape:connector-curvature="0" />
	<path style="fill:none;stroke:red;stroke-width:1px;stroke-linecap:butt;stroke-linejoin:miter;stroke-opacity:1" d="M 395.745,14.5308 416.807,14.5308 z" id="boundary" inkscape:connector-curvature="0" />
	<path style="fill:none;stroke:red;stroke-width:1px;stroke-linecap:butt;stroke-linejoin:miter;stroke-opacity:1" d="M 416.807,14.5308 437.868,14.5308 z" id="boundary" inkscape:connector-curvature="0" />
	<path style="fill:none;stroke:red;stroke-width:1px;stroke-linecap:butt;stroke-linejoin:miter;stroke-opacity:1" d="M 437.868,14.5308 458.93,14.5308 z" id="boundary" inkscape:connector-curvature="0" />
	<path style="fill:none;stroke:red;stroke-width:1px;stroke-linecap:butt;stroke-linejoin:miter;stroke-opacity:1" d="M 458.93,14.5308 479.992,14.5308 z" id="boundary" inkscape:connector-curvature="0" />
	<path style="fill:none;stroke:red;stroke-width:1px;stroke-linecap:butt;stroke-linejoin:miter;stroke-opacity:1" d="M 479.992,14.5308 501.053,14.5308 z" id="boundary" inkscape:connector-curvature="0" />
	<path style="fill:none;stroke:red;stroke-width:1px;stroke-linecap:butt;stroke-linejoin:miter;stroke-opacity:1" d="M 501.053,14.5308 522.115,14.5308 z" id="boundary" inkscape:connector-curvature="0" />
	<path style="fill:none;stroke:red;stroke-width:1px;stroke-linecap:butt;stroke-linejoin:miter;stroke-opacity:1" d="M 522.115,14.5308 543.176,14.5308 z" id="boundary" inkscape:connector-curvature="0" />
	<path style="fill:none;stroke:red;stroke-width:1px;stroke-linecap:butt;stroke-linejoin:miter;stroke-opacity:1" d="M 543.176,14.5308 564.238,14.5308 z" id="boundary" inkscape:connector-curvature="0" />
	<path style="fill:none;stroke:red;stroke-width:1px;stroke-linecap:butt;stroke-linejoin:miter;stroke-opacity:1" d="M 564.238,14.5308 585.299,14.5308 z" id="boundary" inkscape:connector-curvature="0" />
	<path style="fill:none;stroke:red;stroke-width:1px;stroke-linecap:butt;stroke-linejoin:miter;stroke-opacity:1" d="M 585.299,14.5308 606.361,14.5308 z" id="boundary" inkscape:connector-curvature="0" />
	<path style="fill:none;stroke:red;stroke-width:1px;stroke-linecap:butt;stroke-linejoin:miter;stroke-opacity:1" d="M 606.361,14.5308 627.423,14.5308 z" id="boundary" inkscape:connector-curvature="0" />
	<path style="fill:none;stroke:red;stroke-width:1px;stroke-linecap:butt;stroke-linejoin:miter;stroke-opacity:1" d="M 627.423,14.5308 648.484,8.21231 z" id="boundary" inkscape:connector-curvature="0" />
	<path style="fill:none;stroke:red;stroke-width:1px;stroke-linecap:butt;stroke-linejoin:miter;stroke-opacity:1" d="M 648.484,8.21231 669.546,4 z" id="boundary" inkscape:connector-curvature="0" />
	<path style="fill:none;stroke:red;stroke-width:1px;stroke-linecap:butt;stroke-linejoin:miter;stroke-opacity:1" d="M 669.546,4 690.607,4 z" id="boundary" inkscape:connector-curvature="0" />
	<path style="fill:none;stroke:red;stroke-width:1px;stroke-linecap:butt;stroke-linejoin:miter;stroke-opacity:1" d="M 690.607,4 711.669,4 z" id="boundary" inkscape:connector-curvature="0" />
	<path style="fill:none;stroke:red;stroke-width:1px;stroke-linecap:butt;stroke-linejoin:miter;stroke-opacity:1" d="M 711.669,4 732.73,4 z" id="boundary" inkscape:connector-curvature="0" />
	<path style="fill:none;stroke:red;stroke-width:1px;stroke-linecap:butt;stroke-linejoin:miter;stroke-opacity:1" d="M 732.73,4 753.792,4 z" id="boundary" inkscape:connector-curvature="0" />
	<path style="fill:none;stroke:red;stroke-width:1px;stroke-linecap:butt;stroke-linejoin:miter;stroke-opacity:1" d="M 753.792,4 774.854,4 z" id="boundary" inkscape:connector-curvature="0" />
	<path style="fill:none;stroke:red;stroke-width:1px;stroke-linecap:butt;stroke-linejoin:miter;stroke-opacity:1" d="M 774.854,4 795.915,4 z" id="boundary" inkscape:connector-curvature="0" />
	<path style="fill:none;stroke:red;stroke-width:1px;stroke-linecap:butt;stroke-linejoin:miter;stroke-opacity:1" d="M 795.915,4 816.977,4 z" id="boundary" inkscape:connector-curvature="0" />
	<path style="fill:none;stroke:red;stroke-width:1px;stroke-linecap:butt;stroke-linejoin:miter;stroke-opacity:1" d="M 816.977,4 838.038,4 z" id="boundary" inkscape:connector-curvature="0" />
	<path style="fill:none;stroke:red;stroke-width:1px;stroke-linecap:butt;stroke-linejoin:miter;stroke-opacity:1" d="M 838.038,4 859.1,10.3185 z" id="boundary" inkscape:connector-curvature="0" />
	<path style="fill:none;stroke:red;stroke-width:1px;stroke-linecap:butt;stroke-linejoin:miter;stroke-opacity:1" d="M 859.1,10.3185 880.161,14.5308 z" id="boundary" inkscape:connector-curvature="0" />
	<path style="fill:none;stroke:red;stroke-width:1px;stroke-linecap:butt;stroke-linejoin:miter;stroke-opacity:1" d="M 880.161,14.5308 901.223,20.8493 z" id="boundary" inkscape:connector-curvature="0" />
	<path style="fill:none;stroke:red;stroke-width:1px;stroke-linecap:butt;stroke-linejoin:miter;stroke-opacity:1" d="M 901.223,20.8493 922.285,25.0616 z" id="boundary" inkscape:connector-curvature="0" />
	<path style="fill:none;stroke:red;stroke-width:1px;stroke-linecap:butt;stroke-linejoin:miter;stroke-opacity:1" d="M 922.285,25.0616 943.346,31.38 z" id="boundary" inkscape:connector-curvature="0" />
	<path style="fill:none;stroke:red;stroke-width:1px;stroke-linecap:butt;stroke-linejoin:miter;stroke-opacity:1" d="M 943.346,31.38 951.771,52.4416 z" id="boundary" inkscape:connector-curvature="0" />
	<path style="fill:none;stroke:red;stroke-width:1px;stroke-linecap:butt;stroke-linejoin:miter;stroke-opacity:1" d="M 951.771,52.4416 964.408,69.2909 z" id="boundary" inkscape:connector-curvature="0" />
	<path style="fill:none;stroke:red;stroke-width:1px;stroke-linecap:butt;stroke-linejoin:miter;stroke-opacity:1" d="M 964.408,69.2909 974.938,88.2463 z" id="boundary" inkscape:connector-curvature="0" />
	<path style="fill:none;stroke:red;stroke-width:1px;stroke-linecap:butt;stroke-linejoin:miter;stroke-opacity:1" d="M 974.938,88.2463 985.469,107.202 z" id="boundary" inkscape:connector-curvature="0" />
	<path style="fill:none;stroke:red;stroke-width:1px;stroke-linecap:butt;stroke-linejoin:miter;stroke-opacity:1" d="M 985.469,107.202 985.469,128.263 z" id="boundary" inkscape:connector-curvature="0" />
	<path style="fill:none;stroke:red;stroke-width:1px;stroke-linecap:butt;stroke-linejoin:miter;stroke-opacity:1" d="M 985.469,128.263 985.469,149.325 z" id="boundary" inkscape:connector-curvature="0" />
	<path style="fill:none;stroke:red;stroke-width:1px;stroke-linecap:butt;stroke-linejoin:miter;stroke-opacity:1" d="M 985.469,149.325 996,168.28 z" id="boundary" inkscape:connector-curvature="0" />
	<path style="fill:none;stroke:red;stroke-width:1px;stroke-linecap:butt;stroke-linejoin:miter;stroke-opacity:1" d="M 996,168.28 996,189.342 z" id="boundary" inkscape:connector-curvature="0" />
	<path style="fill:none;stroke:red;stroke-width:1px;stroke-linecap:butt;stroke-linejoin:miter;stroke-opacity:1" d="M 996,189.342 996,210.403 z" id="boundary" inkscape:connector-curvature="0" />
	<path style="fill:none;stroke:red;stroke-width:1px;stroke-linecap:butt;stroke-linejoin:miter;stroke-opacity:1" d="M 996,210.403 996,231.465 z" id="boundary" inkscape:connector-curvature="0" />
	<path style="fill:none;stroke:red;stroke-width:1px;stroke-linecap:butt;stroke-linejoin:miter;stroke-opacity:1" d="M 996,231.465 996,252.527 z" id="boundary" inkscape:connector-curvature="0" />
	<path style="fill:none;stroke:red;stroke-width:1px;stroke-linecap:butt;stroke-linejoin:miter;stroke-opacity:1" d="M 996,252.527 996,273.588 z" id="boundary" inkscape:connector-curvature="0" />
	<path style="fill:none;stroke:red;stroke-width:1px;stroke-linecap:butt;stroke-linejoin:miter;stroke-opacity:1" d="M 996,273.588 996,294.65 z" id="boundary" inkscape:connector-curvature="0" />
	<path style="fill:none;stroke:red;stroke-width:1px;stroke-linecap:butt;stroke-linejoin:miter;stroke-opacity:1" d="M 996,294.65 996,315.711 z" id="boundary" inkscape:connector-curvature="0" />
	<path style="fill:none;stroke:red;stroke-width:1px;stroke-linecap:butt;stroke-linejoin:miter;stroke-opacity:1" d="M 996,315.711 996,336.773 z" id="boundary" inkscape:connector-curvature="0" />
	<path style="fill:none;stroke:red;stroke-width:1px;stroke-linecap:butt;stroke-linejoin:miter;stroke-opacity:1" d="M 996,336.773 996,357.834 z" id="boundary" inkscape:connector-curvature="0" />
	<path style="fill:none;stroke:red;stroke-width:1px;stroke-linecap:butt;stroke-linejoin:miter;stroke-opacity:1" d="M 996,357.834 996,378.896 z" id="boundary" inkscape:connector-curvature="0" />
	<path style="fill:none;stroke:red;stroke-width:1px;stroke-linecap:butt;stroke-linejoin:miter;stroke-opacity:1" d="M 996,378.896 996,399.958 z" id="boundary" inkscape:connector-curvature="0" />
	<path style="fill:none;stroke:red;stroke-width:1px;stroke-linecap:butt;stroke-linejoin:miter;stroke-opacity:1" d="M 996,399.958 996,421.019 z" id="boundary" inkscape:connector-curvature="0" />
	<path style="fill:none;stroke:red;stroke-width:1px;stroke-linecap:butt;stroke-linejoin:miter;stroke-opacity:1" d="M 996,421.019 996,442.081 z" id="boundary" inkscape:connector-curvature="0" />
	<circle cx="4" cy="126.157" r="4" fill="#0" id="circle0"/>
	<circle cx="4" cy="147.219" r="4" fill="#0" id="circle1"/>
	<circle cx="4" cy="168.28" r="4" fill="#0" id="circle2"/>
	<circle cx="4" cy="189.342" r="4" fill="#0" id="circle3"/>
	<circle cx="4" cy="210.403" r="4" fill="#0" id="circle4"/>
	<circle cx="4" cy="231.465" r="4" fill="#0" id="circle5"/>
	<circle cx="4" cy="252.527" r="4" fill="#0" id="circle6"/>
	<circle cx="4" cy="273.588" r="4" fill="#0" id="circle7"/>
	<circle cx="4" cy="294.65" r="4" fill="#0" id="circle8"/>
	<circle cx="4" cy="315.711" r="4" fill="#0" id="circle9"/>
	<circle cx="4" cy="336.773" r="4" fill="#0" id="circle10"/>
	<circle cx="4" cy="357.834" r="4" fill="#0" id="circle11"/>
	<circle cx="4" cy="378.896" r="4" fill="#0" id="circle12"/>
	<circle cx="14.5308" cy="94.5648" r="4" fill="#0" id="circle13"/>
	<circle cx="14.5308" cy="397.851" r="4" fill="#0" id="circle14"/>
	<circle cx="14.5308" cy="418.913" r="4" fill="#0" id="circle15"/>
	<circle cx="14.5308" cy="439.975" r="4" fill="#0" id="circle16"/>
	<circle cx="14.5308" cy="461.036" r="4" fill="#0" id="circle17"/>
	<circle cx="14.5308" cy="482.098" r="4" fill="#0" id="circle18"/>
	<circle cx="14.5308" cy="503.159" r="4" fill="#0" id="circle19"/>
	<circle cx="14.5308" cy="524.221" r="4" fill="#0" id="circle20"/>
	<circle cx="35.5924" cy="73.5032" r="4" fill="#0" id="circle21"/>
	<circle cx="35.5924" cy="532.645" r="4" fill="#0" id="circle22"/>
	<circle cx="46.1231" cy="551.601" r="4" fill="#0" id="circle23"/>
	<circle cx="50.3355" cy="572.662" r="4" fill="#0" id="circle24"/>
	<circle cx="52.4416" cy="56.6539" r="4" fill="#0" id="circle25"/>
	<circle cx="67.1847" cy="585.299" r="4" fill="#0" id="circle26"/>
	<circle cx="73.5032" cy="56.6539" r="4" fill="#0" id="circle27"/>
	<circle cx="88.2463" cy="585.299" r="4" fill="#0" id="circle28"/>
	<circle cx="92.4586" cy="46.1231" r="4" fill="#0" id="circle29"/>
	<circle cx="107.202" cy="595.83" r="4" fill="#0" id="circle30"/>
	<circle cx="113.52" cy="46.1231" r="4" fill="#0" id="circle31"/>
	<circle cx="128.263" cy="595.83" r="4" fill="#0" id="circle32"/>
	<circle cx="134.582" cy="46.1231" r="4" fill="#0" id="circle33"/>
	<circle cx="136.688" cy="616.892" r="4" fill="#0" id="circle34"/>
	<circle cx="145.113" cy="27.1677" r="4" fill="#0" id="circle35"/>
	<circle cx="157.749" cy="616.892" r="4" fill="#0" id="circle36"/>
	<circle cx="166.174" cy="25.0616" r="4" fill="#0" id="circle37"/>
	<circle cx="178.811" cy="616.892" r="4" fill="#0" id="circle38"/>
	<circle cx="187.236" cy="25.0616" r="4" fill="#0" id="circle39"/>
	<circle cx="199.873" cy="616.892" r="4" fill="#0" id="circle40"/>
	<circle cx="206.191" cy="14.5308" r="4" fill="#0" id="circle41"/>
	<circle cx="220.934" cy="616.892" r="4" fill="#0" id="circle42"/>
	<circle cx="227.253" cy="14.5308" r="4" fill="#0" id="circle43"/>
	<circle cx="241.996" cy="616.892" r="4" fill="#0" id="circle44"/>
	<circle cx="248.314" cy="14.5308" r="4" fill="#0" id="circle45"/>
	<circle cx="263.057" cy="616.892" r="4" fill="#0" id="circle46"/>
	<circle cx="269.376" cy="14.5308" r="4" fill="#0" id="circle47"/>
	<circle cx="284.119" cy="616.892" r="4" fill="#0" id="circle48"/>
	<circle cx="290.437" cy="14.5308" r="4" fill="#0" id="circle49"/>
	<circle cx="305.18" cy="616.892" r="4" fill="#0" id="circle50"/>
	<circle cx="311.499" cy="14.5308" r="4" fill="#0" id="circle51"/>
	<circle cx="326.242" cy="616.892" r="4" fill="#0" id="circle52"/>
	<circle cx="332.561" cy="14.5308" r="4" fill="#0" id="circle53"/>
	<circle cx="347.304" cy="616.892" r="4" fill="#0" id="circle54"/>
	<circle cx="353.622" cy="14.5308" r="4" fill="#0" id="circle55"/>
	<circle cx="368.365" cy="616.892" r="4" fill="#0" id="circle56"/>
	<circle cx="374.684" cy="14.5308" r="4" fill="#0" id="circle57"/>
	<circle cx="389.427" cy="616.892" r="4" fill="#0" id="circle58"/>
	<circle cx="395.745" cy="14.5308" r="4" fill="#0" id="circle59"/>
	<circle cx="410.488" cy="616.892" r="4" fill="#0" id="circle60"/>
	<circle cx="416.807" cy="14.5308" r="4" fill="#0" id="circle61"/>
	<circle cx="427.338" cy="595.83" r="4" fill="#0" id="circle62"/>
	<circle cx="437.868" cy="14.5308" r="4" fill="#0" id="circle63"/>
	<circle cx="448.399" cy="595.83" r="4" fill="#0" id="circle64"/>
	<circle cx="458.93" cy="14.5308" r="4" fill="#0" id="circle65"/>
	<circle cx="469.461" cy="595.83" r="4" fill="#0" id="circle66"/>
	<circle cx="479.992" cy="14.5308" r="4" fill="#0" id="circle67"/>
	<circle cx="490.522" cy="595.83" r="4" fill="#0" id="circle68"/>
	<circle cx="501.053" cy="14.5308" r="4" fill="#0" id="circle69"/>
	<circle cx="511.584" cy="595.83" r="4" fill="#0" id="circle70"/>
	<circle cx="522.115" cy="14.5308" r="4" fill="#0" id="circle71"/>
	<circle cx="532.645" cy="595.83" r="4" fill="#0" id="circle72"/>
	<circle cx="543.176" cy="14.5308" r="4" fill="#0" id="circle73"/>
	<circle cx="553.707" cy="595.83" r="4" fill="#0" id="circle74"/>
	<circle cx="564.238" cy="14.5308" r="4" fill="#0" id="circle75"/>
	<circle cx="574.769" cy="595.83" r="4" fill="#0" id="circle76"/>
	<circle cx="585.299" cy="14.5308" r="4" fill="#0" id="circle77"/>
	<circle cx="587.406" cy="612.679" r="4" fill="#0" id="circle78"/>
	<circle cx="604.255" cy="625.316" r="4" fill="#0" id="circle79"/>
	<circle cx="606.361" cy="14.5308" r="4" fill="#0" id="circle80"/>
	<circle cx="608.467" cy="646.378" r="4" fill="#0" id="circle81"/>
	<circle cx="614.786" cy="667.439" r="4" fill="#0" id="circle82"/>
	<circle cx="618.998" cy="688.501" r="4" fill="#0" id="circle83"/>
	<circle cx="625.316" cy="709.563" r="4" fill="#0" id="circle84"/>
	<circle cx="627.423" cy="14.5308" r="4" fill="#0" id="circle85"/>
	<circle cx="629.529" cy="730.624" r="4" fill="#0" id="circle86"/>
	<circle cx="646.378" cy="743.261" r="4" fill="#0" id="circle87"/>
	<circle cx="646.378" cy="764.323" r="4" fill="#0" id="circle88"/>
	<circle cx="648.484" cy="8.21231" r="4" fill="#0" id="circle89"/>
	<circle cx="659.015" cy="781.172" r="4" fill="#0" id="circle90"/>
	<circle cx="667.439" cy="802.234" r="4" fill="#0" id="circle91"/>
	<circle cx="669.546" cy="4" r="4" fill="#0" id="circle92"/>
	<circle cx="669.546" cy="823.295" r="4" fill="#0" id="circle93"/>
	<circle cx="690.607" cy="4" r="4" fill="#0" id="circle94"/>
	<circle cx="690.607" cy="827.507" r="4" fill="#0" id="circle95"/>
	<circle cx="711.669" cy="4" r="4" fill="#0" id="circle96"/>
	<circle cx="711.669" cy="827.507" r="4" fill="#0" id="circle97"/>
	<circle cx="722.2" cy="785.384" r="4" fill="#0" id="circle98"/>
	<circle cx="722.2" cy="806.446" r="4" fill="#0" id="circle99"/>
	<circle cx="732.73" cy="4" r="4" fill="#0" id="circle100"/>
	<circle cx="743.261" cy="774.854" r="4" fill="#0" id="circle101"/>
	<circle cx="753.792" cy="4" r="4" fill="#0" id="circle102"/>
	<circle cx="753.792" cy="743.261" r="4" fill="#0" id="circle103"/>
	<circle cx="764.323" cy="701.138" r="4" fill="#0" id="circle104"/>
	<circle cx="764.323" cy="722.2" r="4" fill="#0" id="circle105"/>
	<circle cx="774.854" cy="4" r="4" fill="#0" id="circle106"/>
	<circle cx="785.384" cy="690.607" r="4" fill="#0" id="circle107"/>
	<circle cx="795.915" cy="4" r="4" fill="#0" id="circle108"/>
	<circle cx="806.446" cy="648.484" r="4" fill="#0" id="circle109"/>
	<circle cx="806.446" cy="669.546" r="4" fill="#0" id="circle110"/>
	<circle cx="816.977" cy="4" r="4" fill="#0" id="circle111"/>
	<circle cx="825.401" cy="637.953" r="4" fill="#0" id="circle112"/>
	<circle cx="838.038" cy="4" r="4" fill="#0" id="circle113"/>
	<circle cx="838.038" cy="616.892" r="4" fill="#0" id="circle114"/>
	<circle cx="848.569" cy="595.83" r="4" fill="#0" id="circle115"/>
	<circle cx="859.1" cy="10.3185" r="4" fill="#0" id="circle116"/>
	<circle cx="869.631" cy="585.299" r="4" fill="#0" id="circle117"/>
	<circle cx="880.161" cy="14.5308" r="4" fill="#0" id="circle118"/>
	<circle cx="890.692" cy="585.299" r="4" fill="#0" id="circle119"/>
	<circle cx="901.223" cy="20.8493" r="4" fill="#0" id="circle120"/>
	<circle cx="911.754" cy="574.769" r="4" fill="#0" id="circle121"/>
	<circle cx="922.285" cy="25.0616" r="4" fill="#0" id="circle122"/>
	<circle cx="932.815" cy="574.769" r="4" fill="#0" id="circle123"/>
	<circle cx="943.346" cy="31.38" r="4" fill="#0" id="circle124"/>
	<circle cx="943.346" cy="543.176" r="4" fill="#0" id="circle125"/>
	<circle cx="951.771" cy="52.4416" r="4" fill="#0" id="circle126"/>
	<circle cx="960.195" cy="528.433" r="4" fill="#0" id="circle127"/>
	<circle cx="964.408" cy="69.2909" r="4" fill="#0" id="circle128"/>
	<circle cx="974.938" cy="88.2463" r="4" fill="#0" id="circle129"/>
	<circle cx="981.257" cy="517.902" r="4" fill="#0" id="circle130"/>
	<circle cx="985.469" cy="107.202" r="4" fill="#0" id="circle131"/>
	<circle cx="985.469" cy="128.263" r="4" fill="#0" id="circle132"/>
	<circle cx="985.469" cy="149.325" r="4" fill="#0" id="circle133"/>
	<circle cx="991.788" cy="496.841" r="4" fill="#0" id="circle134"/>
	<circle cx="996" cy="168.28" r="4" fill="#0" id="circle135"/>
	<circle cx="996" cy="189.342" r="4" fill="#0" id="circle136"/>
	<circle cx="996" cy="210.403" r="4" fill="#0" id="circle137"/>
	<circle cx="996" cy="231.465" r="4" fill="#0" id="circle138"/>
	<circle cx="996" cy="252.527" r="4" fill="#0" id="circle139"/>
	<circle cx="996" cy="273.588" r="4" fill="#0" id="circle140"/>
	<circle cx="996" cy="294.65" r="4" fill="#0" id="circle141"/>
	<circle cx="996" cy="315.711" r="4" fill="#0" id="circle142"/>
	<circle cx="996" cy="336.773" r="4" fill="#0" id="circle143"/>
	<circle cx="996" cy="357.834" r="4" fill="#0" id="circle144"/>
	<circle cx="996" cy="378.896" r="4" fill="#0" id="circle145"/>
	<circle cx="996" cy="399.958" r="4" fill="#0" id="circle146"/>
	<circle cx="996" cy="421.019" r="4" fill="#0" id="circle147"/>
	<circle cx="996" cy="442.081" r="4" fill="#0" id="circle148"/>
	<circle cx="996" cy="463.142" r="4" fill="#0" id="circle149"/>
	</g>
</svg>