<?xml version="1.0" encoding="UTF-8" standalone="no"?>
<!-- Created with CurveBenchmark -->
<svg
	xmlns:dc="http://purl.org/dc/elements/1.1/"
	xmlns:cc="http://creativecommons.org/ns#"
	xmlns:rdf="http://www.w3.org/1999/02/22-rdf-syntax-ns#"
	xmlns:svg="http://www.w3.org/2000/svg"
	xmlns="http://www.w3.org/2000/svg"
	xmlns:sodipodi="http://sodipodi.sourceforge.net/DTD/sodipodi-0.dtd"
	xmlns:inkscape="http://www.inkscape.org/namespaces/inkscape"
	width="1000"
	height="1000"
	id="svg2"
	version="1.1"
	sodipodi:docname="manifold/connect2d-hammer12.png.txt">
<defs
	id="defs4" />
<metadata
	id="metadata7">
	<rdf:RDF>
		<cc:Work
			rdf:about="">
			<dc:format>image/svg+xml</dc:format>
			<dc:type
				rdf:resource="http://purl.org/dc/dcmitype/StillImage" />
			<dc:title></dc:title>
		</cc:Work>
	</rdf:RDF>
</metadata>
<g
	inkscape:label="Layer 1"
	inkscape:groupmode="layer"
	id="layer1">
	<path style="fill:none;stroke:red;stroke-width:1px;stroke-linecap:butt;stroke-linejoin:miter;stroke-opacity:1" d="M 996,389.348 982.072,404.824 z" id="boundary" inkscape:connector-curvature="0" />
	<path style="fill:none;stroke:red;stroke-width:1px;stroke-linecap:butt;stroke-linejoin:miter;stroke-opacity:1" d="M 982.072,404.824 966.596,404.824 z" id="boundary" inkscape:connector-curvature="0" />
	<path style="fill:none;stroke:red;stroke-width:1px;stroke-linecap:butt;stroke-linejoin:miter;stroke-opacity:1" d="M 966.596,404.824 951.12,404.824 z" id="boundary" inkscape:connector-curvature="0" />
	<path style="fill:none;stroke:red;stroke-width:1px;stroke-linecap:butt;stroke-linejoin:miter;stroke-opacity:1" d="M 951.12,404.824 935.644,404.824 z" id="boundary" inkscape:connector-curvature="0" />
	<path style="fill:none;stroke:red;stroke-width:1px;stroke-linecap:butt;stroke-linejoin:miter;stroke-opacity:1" d="M 935.644,404.824 921.716,397.086 z" id="boundary" inkscape:connector-curvature="0" />
	<path style="fill:none;stroke:red;stroke-width:1px;stroke-linecap:butt;stroke-linejoin:miter;stroke-opacity:1" d="M 921.716,397.086 907.788,404.824 z" id="boundary" inkscape:connector-curvature="0" />
	<path style="fill:none;stroke:red;stroke-width:1px;stroke-linecap:butt;stroke-linejoin:miter;stroke-opacity:1" d="M 907.788,404.824 892.312,404.824 z" id="boundary" inkscape:connector-curvature="0" />
	<path style="fill:none;stroke:red;stroke-width:1px;stroke-linecap:butt;stroke-linejoin:miter;stroke-opacity:1" d="M 892.312,404.824 876.836,404.824 z" id="boundary" inkscape:connector-curvature="0" />
	<path style="fill:none;stroke:red;stroke-width:1px;stroke-linecap:butt;stroke-linejoin:miter;stroke-opacity:1" d="M 876.836,404.824 861.36,404.824 z" id="boundary" inkscape:connector-curvature="0" />
	<path style="fill:none;stroke:red;stroke-width:1px;stroke-linecap:butt;stroke-linejoin:miter;stroke-opacity:1" d="M 861.36,404.824 845.885,404.824 z" id="boundary" inkscape:connector-curvature="0" />
	<path style="fill:none;stroke:red;stroke-width:1px;stroke-linecap:butt;stroke-linejoin:miter;stroke-opacity:1" d="M 845.885,404.824 830.409,404.824 z" id="boundary" inkscape:connector-curvature="0" />
	<path style="fill:none;stroke:red;stroke-width:1px;stroke-linecap:butt;stroke-linejoin:miter;stroke-opacity:1" d="M 830.409,404.824 816.48,397.086 z" id="boundary" inkscape:connector-curvature="0" />
	<path style="fill:none;stroke:red;stroke-width:1px;stroke-linecap:butt;stroke-linejoin:miter;stroke-opacity:1" d="M 816.48,397.086 802.552,404.824 z" id="boundary" inkscape:connector-curvature="0" />
	<path style="fill:none;stroke:red;stroke-width:1px;stroke-linecap:butt;stroke-linejoin:miter;stroke-opacity:1" d="M 802.552,404.824 787.076,404.824 z" id="boundary" inkscape:connector-curvature="0" />
	<path style="fill:none;stroke:red;stroke-width:1px;stroke-linecap:butt;stroke-linejoin:miter;stroke-opacity:1" d="M 787.076,404.824 773.148,397.086 z" id="boundary" inkscape:connector-curvature="0" />
	<path style="fill:none;stroke:red;stroke-width:1px;stroke-linecap:butt;stroke-linejoin:miter;stroke-opacity:1" d="M 773.148,397.086 759.22,404.824 z" id="boundary" inkscape:connector-curvature="0" />
	<path style="fill:none;stroke:red;stroke-width:1px;stroke-linecap:butt;stroke-linejoin:miter;stroke-opacity:1" d="M 759.22,404.824 743.744,404.824 z" id="boundary" inkscape:connector-curvature="0" />
	<path style="fill:none;stroke:red;stroke-width:1px;stroke-linecap:butt;stroke-linejoin:miter;stroke-opacity:1" d="M 743.744,404.824 728.268,404.824 z" id="boundary" inkscape:connector-curvature="0" />
	<path style="fill:none;stroke:red;stroke-width:1px;stroke-linecap:butt;stroke-linejoin:miter;stroke-opacity:1" d="M 728.268,404.824 712.793,404.824 z" id="boundary" inkscape:connector-curvature="0" />
	<path style="fill:none;stroke:red;stroke-width:1px;stroke-linecap:butt;stroke-linejoin:miter;stroke-opacity:1" d="M 712.793,404.824 697.317,404.824 z" id="boundary" inkscape:connector-curvature="0" />
	<path style="fill:none;stroke:red;stroke-width:1px;stroke-linecap:butt;stroke-linejoin:miter;stroke-opacity:1" d="M 697.317,404.824 681.841,404.824 z" id="boundary" inkscape:connector-curvature="0" />
	<path style="fill:none;stroke:red;stroke-width:1px;stroke-linecap:butt;stroke-linejoin:miter;stroke-opacity:1" d="M 681.841,404.824 666.365,403.276 z" id="boundary" inkscape:connector-curvature="0" />
	<path style="fill:none;stroke:red;stroke-width:1px;stroke-linecap:butt;stroke-linejoin:miter;stroke-opacity:1" d="M 666.365,403.276 650.889,403.276 z" id="boundary" inkscape:connector-curvature="0" />
	<path style="fill:none;stroke:red;stroke-width:1px;stroke-linecap:butt;stroke-linejoin:miter;stroke-opacity:1" d="M 650.889,403.276 635.413,403.276 z" id="boundary" inkscape:connector-curvature="0" />
	<path style="fill:none;stroke:red;stroke-width:1px;stroke-linecap:butt;stroke-linejoin:miter;stroke-opacity:1" d="M 635.413,403.276 619.938,403.276 z" id="boundary" inkscape:connector-curvature="0" />
	<path style="fill:none;stroke:red;stroke-width:1px;stroke-linecap:butt;stroke-linejoin:miter;stroke-opacity:1" d="M 619.938,403.276 604.462,404.824 z" id="boundary" inkscape:connector-curvature="0" />
	<path style="fill:none;stroke:red;stroke-width:1px;stroke-linecap:butt;stroke-linejoin:miter;stroke-opacity:1" d="M 604.462,404.824 588.986,404.824 z" id="boundary" inkscape:connector-curvature="0" />
	<path style="fill:none;stroke:red;stroke-width:1px;stroke-linecap:butt;stroke-linejoin:miter;stroke-opacity:1" d="M 588.986,404.824 573.51,404.824 z" id="boundary" inkscape:connector-curvature="0" />
	<path style="fill:none;stroke:red;stroke-width:1px;stroke-linecap:butt;stroke-linejoin:miter;stroke-opacity:1" d="M 573.51,404.824 559.582,397.086 z" id="boundary" inkscape:connector-curvature="0" />
	<path style="fill:none;stroke:red;stroke-width:1px;stroke-linecap:butt;stroke-linejoin:miter;stroke-opacity:1" d="M 559.582,397.086 545.654,404.824 z" id="boundary" inkscape:connector-curvature="0" />
	<path style="fill:none;stroke:red;stroke-width:1px;stroke-linecap:butt;stroke-linejoin:miter;stroke-opacity:1" d="M 545.654,404.824 530.178,404.824 z" id="boundary" inkscape:connector-curvature="0" />
	<path style="fill:none;stroke:red;stroke-width:1px;stroke-linecap:butt;stroke-linejoin:miter;stroke-opacity:1" d="M 530.178,404.824 514.702,404.824 z" id="boundary" inkscape:connector-curvature="0" />
	<path style="fill:none;stroke:red;stroke-width:1px;stroke-linecap:butt;stroke-linejoin:miter;stroke-opacity:1" d="M 514.702,404.824 499.226,404.824 z" id="boundary" inkscape:connector-curvature="0" />
	<path style="fill:none;stroke:red;stroke-width:1px;stroke-linecap:butt;stroke-linejoin:miter;stroke-opacity:1" d="M 499.226,404.824 483.75,404.824 z" id="boundary" inkscape:connector-curvature="0" />
	<path style="fill:none;stroke:red;stroke-width:1px;stroke-linecap:butt;stroke-linejoin:miter;stroke-opacity:1" d="M 483.75,404.824 468.275,404.824 z" id="boundary" inkscape:connector-curvature="0" />
	<path style="fill:none;stroke:red;stroke-width:1px;stroke-linecap:butt;stroke-linejoin:miter;stroke-opacity:1" d="M 468.275,404.824 452.799,404.824 z" id="boundary" inkscape:connector-curvature="0" />
	<path style="fill:none;stroke:red;stroke-width:1px;stroke-linecap:butt;stroke-linejoin:miter;stroke-opacity:1" d="M 452.799,404.824 438.871,397.086 z" id="boundary" inkscape:connector-curvature="0" />
	<path style="fill:none;stroke:red;stroke-width:1px;stroke-linecap:butt;stroke-linejoin:miter;stroke-opacity:1" d="M 438.871,397.086 424.942,404.824 z" id="boundary" inkscape:connector-curvature="0" />
	<path style="fill:none;stroke:red;stroke-width:1px;stroke-linecap:butt;stroke-linejoin:miter;stroke-opacity:1" d="M 424.942,404.824 411.014,397.086 z" id="boundary" inkscape:connector-curvature="0" />
	<path style="fill:none;stroke:red;stroke-width:1px;stroke-linecap:butt;stroke-linejoin:miter;stroke-opacity:1" d="M 411.014,397.086 397.086,404.824 z" id="boundary" inkscape:connector-curvature="0" />
	<path style="fill:none;stroke:red;stroke-width:1px;stroke-linecap:butt;stroke-linejoin:miter;stroke-opacity:1" d="M 397.086,404.824 381.61,404.824 z" id="boundary" inkscape:connector-curvature="0" />
	<path style="fill:none;stroke:red;stroke-width:1px;stroke-linecap:butt;stroke-linejoin:miter;stroke-opacity:1" d="M 381.61,404.824 366.134,404.824 z" id="boundary" inkscape:connector-curvature="0" />
	<path style="fill:none;stroke:red;stroke-width:1px;stroke-linecap:butt;stroke-linejoin:miter;stroke-opacity:1" d="M 366.134,404.824 352.206,397.086 z" id="boundary" inkscape:connector-curvature="0" />
	<path style="fill:none;stroke:red;stroke-width:1px;stroke-linecap:butt;stroke-linejoin:miter;stroke-opacity:1" d="M 352.206,397.086 338.278,404.824 z" id="boundary" inkscape:connector-curvature="0" />
	<path style="fill:none;stroke:red;stroke-width:1px;stroke-linecap:butt;stroke-linejoin:miter;stroke-opacity:1" d="M 338.278,404.824 322.802,404.824 z" id="boundary" inkscape:connector-curvature="0" />
	<path style="fill:none;stroke:red;stroke-width:1px;stroke-linecap:butt;stroke-linejoin:miter;stroke-opacity:1" d="M 322.802,404.824 307.326,404.824 z" id="boundary" inkscape:connector-curvature="0" />
	<path style="fill:none;stroke:red;stroke-width:1px;stroke-linecap:butt;stroke-linejoin:miter;stroke-opacity:1" d="M 307.326,404.824 291.85,404.824 z" id="boundary" inkscape:connector-curvature="0" />
	<path style="fill:none;stroke:red;stroke-width:1px;stroke-linecap:butt;stroke-linejoin:miter;stroke-opacity:1" d="M 291.85,404.824 276.374,404.824 z" id="boundary" inkscape:connector-curvature="0" />
	<path style="fill:none;stroke:red;stroke-width:1px;stroke-linecap:butt;stroke-linejoin:miter;stroke-opacity:1" d="M 276.374,404.824 260.899,404.824 z" id="boundary" inkscape:connector-curvature="0" />
	<path style="fill:none;stroke:red;stroke-width:1px;stroke-linecap:butt;stroke-linejoin:miter;stroke-opacity:1" d="M 260.899,404.824 260.899,420.3 z" id="boundary" inkscape:connector-curvature="0" />
	<path style="fill:none;stroke:red;stroke-width:1px;stroke-linecap:butt;stroke-linejoin:miter;stroke-opacity:1" d="M 260.899,420.3 276.374,426.49 z" id="boundary" inkscape:connector-curvature="0" />
	<path style="fill:none;stroke:red;stroke-width:1px;stroke-linecap:butt;stroke-linejoin:miter;stroke-opacity:1" d="M 276.374,426.49 284.112,440.418 z" id="boundary" inkscape:connector-curvature="0" />
	<path style="fill:none;stroke:red;stroke-width:1px;stroke-linecap:butt;stroke-linejoin:miter;stroke-opacity:1" d="M 284.112,440.418 284.112,455.894 z" id="boundary" inkscape:connector-curvature="0" />
	<path style="fill:none;stroke:red;stroke-width:1px;stroke-linecap:butt;stroke-linejoin:miter;stroke-opacity:1" d="M 284.112,455.894 284.112,471.37 z" id="boundary" inkscape:connector-curvature="0" />
	<path style="fill:none;stroke:red;stroke-width:1px;stroke-linecap:butt;stroke-linejoin:miter;stroke-opacity:1" d="M 284.112,471.37 284.112,486.846 z" id="boundary" inkscape:connector-curvature="0" />
	<path style="fill:none;stroke:red;stroke-width:1px;stroke-linecap:butt;stroke-linejoin:miter;stroke-opacity:1" d="M 284.112,486.846 284.112,502.321 z" id="boundary" inkscape:connector-curvature="0" />
	<path style="fill:none;stroke:red;stroke-width:1px;stroke-linecap:butt;stroke-linejoin:miter;stroke-opacity:1" d="M 284.112,502.321 284.112,517.797 z" id="boundary" inkscape:connector-curvature="0" />
	<path style="fill:none;stroke:red;stroke-width:1px;stroke-linecap:butt;stroke-linejoin:miter;stroke-opacity:1" d="M 284.112,517.797 284.112,533.273 z" id="boundary" inkscape:connector-curvature="0" />
	<path style="fill:none;stroke:red;stroke-width:1px;stroke-linecap:butt;stroke-linejoin:miter;stroke-opacity:1" d="M 284.112,533.273 284.112,548.749 z" id="boundary" inkscape:connector-curvature="0" />
	<path style="fill:none;stroke:red;stroke-width:1px;stroke-linecap:butt;stroke-linejoin:miter;stroke-opacity:1" d="M 284.112,548.749 279.47,573.51 z" id="boundary" inkscape:connector-curvature="0" />
	<path style="fill:none;stroke:red;stroke-width:1px;stroke-linecap:butt;stroke-linejoin:miter;stroke-opacity:1" d="M 279.47,573.51 263.994,575.058 z" id="boundary" inkscape:connector-curvature="0" />
	<path style="fill:none;stroke:red;stroke-width:1px;stroke-linecap:butt;stroke-linejoin:miter;stroke-opacity:1" d="M 263.994,575.058 248.518,575.058 z" id="boundary" inkscape:connector-curvature="0" />
	<path style="fill:none;stroke:red;stroke-width:1px;stroke-linecap:butt;stroke-linejoin:miter;stroke-opacity:1" d="M 248.518,575.058 233.042,575.058 z" id="boundary" inkscape:connector-curvature="0" />
	<path style="fill:none;stroke:red;stroke-width:1px;stroke-linecap:butt;stroke-linejoin:miter;stroke-opacity:1" d="M 233.042,575.058 217.566,575.058 z" id="boundary" inkscape:connector-curvature="0" />
	<path style="fill:none;stroke:red;stroke-width:1px;stroke-linecap:butt;stroke-linejoin:miter;stroke-opacity:1" d="M 217.566,575.058 202.09,575.058 z" id="boundary" inkscape:connector-curvature="0" />
	<path style="fill:none;stroke:red;stroke-width:1px;stroke-linecap:butt;stroke-linejoin:miter;stroke-opacity:1" d="M 202.09,575.058 186.615,575.058 z" id="boundary" inkscape:connector-curvature="0" />
	<path style="fill:none;stroke:red;stroke-width:1px;stroke-linecap:butt;stroke-linejoin:miter;stroke-opacity:1" d="M 186.615,575.058 171.139,575.058 z" id="boundary" inkscape:connector-curvature="0" />
	<path style="fill:none;stroke:red;stroke-width:1px;stroke-linecap:butt;stroke-linejoin:miter;stroke-opacity:1" d="M 171.139,575.058 155.663,575.058 z" id="boundary" inkscape:connector-curvature="0" />
	<path style="fill:none;stroke:red;stroke-width:1px;stroke-linecap:butt;stroke-linejoin:miter;stroke-opacity:1" d="M 155.663,575.058 140.187,575.058 z" id="boundary" inkscape:connector-curvature="0" />
	<path style="fill:none;stroke:red;stroke-width:1px;stroke-linecap:butt;stroke-linejoin:miter;stroke-opacity:1" d="M 140.187,575.058 124.711,575.058 z" id="boundary" inkscape:connector-curvature="0" />
	<path style="fill:none;stroke:red;stroke-width:1px;stroke-linecap:butt;stroke-linejoin:miter;stroke-opacity:1" d="M 124.711,575.058 109.236,575.058 z" id="boundary" inkscape:connector-curvature="0" />
	<path style="fill:none;stroke:red;stroke-width:1px;stroke-linecap:butt;stroke-linejoin:miter;stroke-opacity:1" d="M 109.236,575.058 93.7598,575.058 z" id="boundary" inkscape:connector-curvature="0" />
	<path style="fill:none;stroke:red;stroke-width:1px;stroke-linecap:butt;stroke-linejoin:miter;stroke-opacity:1" d="M 93.7598,575.058 78.2839,575.058 z" id="boundary" inkscape:connector-curvature="0" />
	<path style="fill:none;stroke:red;stroke-width:1px;stroke-linecap:butt;stroke-linejoin:miter;stroke-opacity:1" d="M 78.2839,575.058 62.8081,575.058 z" id="boundary" inkscape:connector-curvature="0" />
	<path style="fill:none;stroke:red;stroke-width:1px;stroke-linecap:butt;stroke-linejoin:miter;stroke-opacity:1" d="M 62.8081,575.058 47.3323,575.058 z" id="boundary" inkscape:connector-curvature="0" />
	<path style="fill:none;stroke:red;stroke-width:1px;stroke-linecap:butt;stroke-linejoin:miter;stroke-opacity:1" d="M 47.3323,575.058 31.8565,575.058 z" id="boundary" inkscape:connector-curvature="0" />
	<path style="fill:none;stroke:red;stroke-width:1px;stroke-linecap:butt;stroke-linejoin:miter;stroke-opacity:1" d="M 31.8565,575.058 16.3807,573.51 z" id="boundary" inkscape:connector-curvature="0" />
	<path style="fill:none;stroke:red;stroke-width:1px;stroke-linecap:butt;stroke-linejoin:miter;stroke-opacity:1" d="M 16.3807,573.51 4,562.677 z" id="boundary" inkscape:connector-curvature="0" />
	<path style="fill:none;stroke:red;stroke-width:1px;stroke-linecap:butt;stroke-linejoin:miter;stroke-opacity:1" d="M 4,562.677 4,539.463 z" id="boundary" inkscape:connector-curvature="0" />
	<path style="fill:none;stroke:red;stroke-width:1px;stroke-linecap:butt;stroke-linejoin:miter;stroke-opacity:1" d="M 4,539.463 4,523.988 z" id="boundary" inkscape:connector-curvature="0" />
	<path style="fill:none;stroke:red;stroke-width:1px;stroke-linecap:butt;stroke-linejoin:miter;stroke-opacity:1" d="M 4,523.988 4,500.774 z" id="boundary" inkscape:connector-curvature="0" />
	<path style="fill:none;stroke:red;stroke-width:1px;stroke-linecap:butt;stroke-linejoin:miter;stroke-opacity:1" d="M 4,500.774 4,477.56 z" id="boundary" inkscape:connector-curvature="0" />
	<path style="fill:none;stroke:red;stroke-width:1px;stroke-linecap:butt;stroke-linejoin:miter;stroke-opacity:1" d="M 4,477.56 4,462.084 z" id="boundary" inkscape:connector-curvature="0" />
	<path style="fill:none;stroke:red;stroke-width:1px;stroke-linecap:butt;stroke-linejoin:miter;stroke-opacity:1" d="M 4,462.084 4,438.871 z" id="boundary" inkscape:connector-curvature="0" />
	<path style="fill:none;stroke:red;stroke-width:1px;stroke-linecap:butt;stroke-linejoin:miter;stroke-opacity:1" d="M 4,438.871 16.3807,426.49 z" id="boundary" inkscape:connector-curvature="0" />
	<path style="fill:none;stroke:red;stroke-width:1px;stroke-linecap:butt;stroke-linejoin:miter;stroke-opacity:1" d="M 16.3807,426.49 28.7613,415.657 z" id="boundary" inkscape:connector-curvature="0" />
	<path style="fill:none;stroke:red;stroke-width:1px;stroke-linecap:butt;stroke-linejoin:miter;stroke-opacity:1" d="M 28.7613,415.657 27.2137,400.181 z" id="boundary" inkscape:connector-curvature="0" />
	<path style="fill:none;stroke:red;stroke-width:1px;stroke-linecap:butt;stroke-linejoin:miter;stroke-opacity:1" d="M 27.2137,400.181 27.2137,384.705 z" id="boundary" inkscape:connector-curvature="0" />
	<path style="fill:none;stroke:red;stroke-width:1px;stroke-linecap:butt;stroke-linejoin:miter;stroke-opacity:1" d="M 27.2137,384.705 27.2137,369.229 z" id="boundary" inkscape:connector-curvature="0" />
	<path style="fill:none;stroke:red;stroke-width:1px;stroke-linecap:butt;stroke-linejoin:miter;stroke-opacity:1" d="M 27.2137,369.229 27.2137,353.754 z" id="boundary" inkscape:connector-curvature="0" />
	<path style="fill:none;stroke:red;stroke-width:1px;stroke-linecap:butt;stroke-linejoin:miter;stroke-opacity:1" d="M 27.2137,353.754 27.2137,338.278 z" id="boundary" inkscape:connector-curvature="0" />
	<path style="fill:none;stroke:red;stroke-width:1px;stroke-linecap:butt;stroke-linejoin:miter;stroke-opacity:1" d="M 27.2137,338.278 27.2137,322.802 z" id="boundary" inkscape:connector-curvature="0" />
	<path style="fill:none;stroke:red;stroke-width:1px;stroke-linecap:butt;stroke-linejoin:miter;stroke-opacity:1" d="M 27.2137,322.802 27.2137,307.326 z" id="boundary" inkscape:connector-curvature="0" />
	<path style="fill:none;stroke:red;stroke-width:1px;stroke-linecap:butt;stroke-linejoin:miter;stroke-opacity:1" d="M 27.2137,307.326 27.2137,284.112 z" id="boundary" inkscape:connector-curvature="0" />
	<path style="fill:none;stroke:red;stroke-width:1px;stroke-linecap:butt;stroke-linejoin:miter;stroke-opacity:1" d="M 27.2137,284.112 34.9516,260.899 z" id="boundary" inkscape:connector-curvature="0" />
	<path style="fill:none;stroke:red;stroke-width:1px;stroke-linecap:butt;stroke-linejoin:miter;stroke-opacity:1" d="M 34.9516,260.899 34.9516,245.423 z" id="boundary" inkscape:connector-curvature="0" />
	<path style="fill:none;stroke:red;stroke-width:1px;stroke-linecap:butt;stroke-linejoin:miter;stroke-opacity:1" d="M 34.9516,245.423 42.6895,229.947 z" id="boundary" inkscape:connector-curvature="0" />
	<path style="fill:none;stroke:red;stroke-width:1px;stroke-linecap:butt;stroke-linejoin:miter;stroke-opacity:1" d="M 42.6895,229.947 50.4275,206.733 z" id="boundary" inkscape:connector-curvature="0" />
	<path style="fill:none;stroke:red;stroke-width:1px;stroke-linecap:butt;stroke-linejoin:miter;stroke-opacity:1" d="M 50.4275,206.733 62.8081,194.353 z" id="boundary" inkscape:connector-curvature="0" />
	<path style="fill:none;stroke:red;stroke-width:1px;stroke-linecap:butt;stroke-linejoin:miter;stroke-opacity:1" d="M 62.8081,194.353 70.546,178.877 z" id="boundary" inkscape:connector-curvature="0" />
	<path style="fill:none;stroke:red;stroke-width:1px;stroke-linecap:butt;stroke-linejoin:miter;stroke-opacity:1" d="M 70.546,178.877 81.3791,160.306 z" id="boundary" inkscape:connector-curvature="0" />
	<path style="fill:none;stroke:red;stroke-width:1px;stroke-linecap:butt;stroke-linejoin:miter;stroke-opacity:1" d="M 81.3791,160.306 93.7598,147.925 z" id="boundary" inkscape:connector-curvature="0" />
	<path style="fill:none;stroke:red;stroke-width:1px;stroke-linecap:butt;stroke-linejoin:miter;stroke-opacity:1" d="M 93.7598,147.925 101.498,132.449 z" id="boundary" inkscape:connector-curvature="0" />
	<path style="fill:none;stroke:red;stroke-width:1px;stroke-linecap:butt;stroke-linejoin:miter;stroke-opacity:1" d="M 101.498,132.449 109.236,116.973 z" id="boundary" inkscape:connector-curvature="0" />
	<path style="fill:none;stroke:red;stroke-width:1px;stroke-linecap:butt;stroke-linejoin:miter;stroke-opacity:1" d="M 109.236,116.973 116.973,101.498 z" id="boundary" inkscape:connector-curvature="0" />
	<path style="fill:none;stroke:red;stroke-width:1px;stroke-linecap:butt;stroke-linejoin:miter;stroke-opacity:1" d="M 116.973,101.498 129.354,89.117 z" id="boundary" inkscape:connector-curvature="0" />
	<path style="fill:none;stroke:red;stroke-width:1px;stroke-linecap:butt;stroke-linejoin:miter;stroke-opacity:1" d="M 129.354,89.117 143.282,75.1888 z" id="boundary" inkscape:connector-curvature="0" />
	<path style="fill:none;stroke:red;stroke-width:1px;stroke-linecap:butt;stroke-linejoin:miter;stroke-opacity:1" d="M 143.282,75.1888 158.758,67.4509 z" id="boundary" inkscape:connector-curvature="0" />
	<path style="fill:none;stroke:red;stroke-width:1px;stroke-linecap:butt;stroke-linejoin:miter;stroke-opacity:1" d="M 158.758,67.4509 171.139,55.0702 z" id="boundary" inkscape:connector-curvature="0" />
	<path style="fill:none;stroke:red;stroke-width:1px;stroke-linecap:butt;stroke-linejoin:miter;stroke-opacity:1" d="M 171.139,55.0702 186.615,47.3323 z" id="boundary" inkscape:connector-curvature="0" />
	<path style="fill:none;stroke:red;stroke-width:1px;stroke-linecap:butt;stroke-linejoin:miter;stroke-opacity:1" d="M 186.615,47.3323 202.09,39.5944 z" id="boundary" inkscape:connector-curvature="0" />
	<path style="fill:none;stroke:red;stroke-width:1px;stroke-linecap:butt;stroke-linejoin:miter;stroke-opacity:1" d="M 202.09,39.5944 217.566,31.8565 z" id="boundary" inkscape:connector-curvature="0" />
	<path style="fill:none;stroke:red;stroke-width:1px;stroke-linecap:butt;stroke-linejoin:miter;stroke-opacity:1" d="M 217.566,31.8565 231.495,24.1186 z" id="boundary" inkscape:connector-curvature="0" />
	<path style="fill:none;stroke:red;stroke-width:1px;stroke-linecap:butt;stroke-linejoin:miter;stroke-opacity:1" d="M 231.495,24.1186 246.97,17.9282 z" id="boundary" inkscape:connector-curvature="0" />
	<path style="fill:none;stroke:red;stroke-width:1px;stroke-linecap:butt;stroke-linejoin:miter;stroke-opacity:1" d="M 246.97,17.9282 262.446,16.3807 z" id="boundary" inkscape:connector-curvature="0" />
	<path style="fill:none;stroke:red;stroke-width:1px;stroke-linecap:butt;stroke-linejoin:miter;stroke-opacity:1" d="M 262.446,16.3807 276.374,8.64275 z" id="boundary" inkscape:connector-curvature="0" />
	<path style="fill:none;stroke:red;stroke-width:1px;stroke-linecap:butt;stroke-linejoin:miter;stroke-opacity:1" d="M 276.374,8.64275 291.85,4 z" id="boundary" inkscape:connector-curvature="0" />
	<path style="fill:none;stroke:red;stroke-width:1px;stroke-linecap:butt;stroke-linejoin:miter;stroke-opacity:1" d="M 291.85,4 299.588,17.9282 z" id="boundary" inkscape:connector-curvature="0" />
	<path style="fill:none;stroke:red;stroke-width:1px;stroke-linecap:butt;stroke-linejoin:miter;stroke-opacity:1" d="M 299.588,17.9282 284.112,33.4041 z" id="boundary" inkscape:connector-curvature="0" />
	<path style="fill:none;stroke:red;stroke-width:1px;stroke-linecap:butt;stroke-linejoin:miter;stroke-opacity:1" d="M 284.112,33.4041 284.112,56.6178 z" id="boundary" inkscape:connector-curvature="0" />
	<path style="fill:none;stroke:red;stroke-width:1px;stroke-linecap:butt;stroke-linejoin:miter;stroke-opacity:1" d="M 284.112,56.6178 276.374,79.8315 z" id="boundary" inkscape:connector-curvature="0" />
	<path style="fill:none;stroke:red;stroke-width:1px;stroke-linecap:butt;stroke-linejoin:miter;stroke-opacity:1" d="M 276.374,79.8315 276.374,103.045 z" id="boundary" inkscape:connector-curvature="0" />
	<path style="fill:none;stroke:red;stroke-width:1px;stroke-linecap:butt;stroke-linejoin:miter;stroke-opacity:1" d="M 276.374,103.045 268.637,118.521 z" id="boundary" inkscape:connector-curvature="0" />
	<path style="fill:none;stroke:red;stroke-width:1px;stroke-linecap:butt;stroke-linejoin:miter;stroke-opacity:1" d="M 268.637,118.521 268.637,133.997 z" id="boundary" inkscape:connector-curvature="0" />
	<path style="fill:none;stroke:red;stroke-width:1px;stroke-linecap:butt;stroke-linejoin:miter;stroke-opacity:1" d="M 268.637,133.997 268.637,149.473 z" id="boundary" inkscape:connector-curvature="0" />
	<path style="fill:none;stroke:red;stroke-width:1px;stroke-linecap:butt;stroke-linejoin:miter;stroke-opacity:1" d="M 268.637,149.473 260.899,164.949 z" id="boundary" inkscape:connector-curvature="0" />
	<path style="fill:none;stroke:red;stroke-width:1px;stroke-linecap:butt;stroke-linejoin:miter;stroke-opacity:1" d="M 260.899,164.949 260.899,180.424 z" id="boundary" inkscape:connector-curvature="0" />
	<path style="fill:none;stroke:red;stroke-width:1px;stroke-linecap:butt;stroke-linejoin:miter;stroke-opacity:1" d="M 260.899,180.424 260.899,195.9 z" id="boundary" inkscape:connector-curvature="0" />
	<path style="fill:none;stroke:red;stroke-width:1px;stroke-linecap:butt;stroke-linejoin:miter;stroke-opacity:1" d="M 260.899,195.9 253.161,211.376 z" id="boundary" inkscape:connector-curvature="0" />
	<path style="fill:none;stroke:red;stroke-width:1px;stroke-linecap:butt;stroke-linejoin:miter;stroke-opacity:1" d="M 253.161,211.376 253.161,226.852 z" id="boundary" inkscape:connector-curvature="0" />
	<path style="fill:none;stroke:red;stroke-width:1px;stroke-linecap:butt;stroke-linejoin:miter;stroke-opacity:1" d="M 253.161,226.852 253.161,242.328 z" id="boundary" inkscape:connector-curvature="0" />
	<path style="fill:none;stroke:red;stroke-width:1px;stroke-linecap:butt;stroke-linejoin:miter;stroke-opacity:1" d="M 253.161,242.328 253.161,257.803 z" id="boundary" inkscape:connector-curvature="0" />
	<path style="fill:none;stroke:red;stroke-width:1px;stroke-linecap:butt;stroke-linejoin:miter;stroke-opacity:1" d="M 253.161,257.803 268.637,263.994 z" id="boundary" inkscape:connector-curvature="0" />
	<path style="fill:none;stroke:red;stroke-width:1px;stroke-linecap:butt;stroke-linejoin:miter;stroke-opacity:1" d="M 268.637,263.994 284.112,263.994 z" id="boundary" inkscape:connector-curvature="0" />
	<path style="fill:none;stroke:red;stroke-width:1px;stroke-linecap:butt;stroke-linejoin:miter;stroke-opacity:1" d="M 284.112,263.994 299.588,263.994 z" id="boundary" inkscape:connector-curvature="0" />
	<path style="fill:none;stroke:red;stroke-width:1px;stroke-linecap:butt;stroke-linejoin:miter;stroke-opacity:1" d="M 299.588,263.994 313.516,271.732 z" id="boundary" inkscape:connector-curvature="0" />
	<path style="fill:none;stroke:red;stroke-width:1px;stroke-linecap:butt;stroke-linejoin:miter;stroke-opacity:1" d="M 313.516,271.732 327.445,263.994 z" id="boundary" inkscape:connector-curvature="0" />
	<path style="fill:none;stroke:red;stroke-width:1px;stroke-linecap:butt;stroke-linejoin:miter;stroke-opacity:1" d="M 327.445,263.994 342.92,263.994 z" id="boundary" inkscape:connector-curvature="0" />
	<path style="fill:none;stroke:red;stroke-width:1px;stroke-linecap:butt;stroke-linejoin:miter;stroke-opacity:1" d="M 342.92,263.994 358.396,263.994 z" id="boundary" inkscape:connector-curvature="0" />
	<path style="fill:none;stroke:red;stroke-width:1px;stroke-linecap:butt;stroke-linejoin:miter;stroke-opacity:1" d="M 358.396,263.994 373.872,265.541 z" id="boundary" inkscape:connector-curvature="0" />
	<path style="fill:none;stroke:red;stroke-width:1px;stroke-linecap:butt;stroke-linejoin:miter;stroke-opacity:1" d="M 373.872,265.541 389.348,263.994 z" id="boundary" inkscape:connector-curvature="0" />
	<path style="fill:none;stroke:red;stroke-width:1px;stroke-linecap:butt;stroke-linejoin:miter;stroke-opacity:1" d="M 389.348,263.994 404.824,265.541 z" id="boundary" inkscape:connector-curvature="0" />
	<path style="fill:none;stroke:red;stroke-width:1px;stroke-linecap:butt;stroke-linejoin:miter;stroke-opacity:1" d="M 404.824,265.541 420.3,263.994 z" id="boundary" inkscape:connector-curvature="0" />
	<path style="fill:none;stroke:red;stroke-width:1px;stroke-linecap:butt;stroke-linejoin:miter;stroke-opacity:1" d="M 420.3,263.994 435.775,263.994 z" id="boundary" inkscape:connector-curvature="0" />
	<path style="fill:none;stroke:red;stroke-width:1px;stroke-linecap:butt;stroke-linejoin:miter;stroke-opacity:1" d="M 435.775,263.994 451.251,263.994 z" id="boundary" inkscape:connector-curvature="0" />
	<path style="fill:none;stroke:red;stroke-width:1px;stroke-linecap:butt;stroke-linejoin:miter;stroke-opacity:1" d="M 451.251,263.994 466.727,263.994 z" id="boundary" inkscape:connector-curvature="0" />
	<path style="fill:none;stroke:red;stroke-width:1px;stroke-linecap:butt;stroke-linejoin:miter;stroke-opacity:1" d="M 466.727,263.994 480.655,271.732 z" id="boundary" inkscape:connector-curvature="0" />
	<path style="fill:none;stroke:red;stroke-width:1px;stroke-linecap:butt;stroke-linejoin:miter;stroke-opacity:1" d="M 480.655,271.732 494.583,263.994 z" id="boundary" inkscape:connector-curvature="0" />
	<path style="fill:none;stroke:red;stroke-width:1px;stroke-linecap:butt;stroke-linejoin:miter;stroke-opacity:1" d="M 494.583,263.994 510.059,263.994 z" id="boundary" inkscape:connector-curvature="0" />
	<path style="fill:none;stroke:red;stroke-width:1px;stroke-linecap:butt;stroke-linejoin:miter;stroke-opacity:1" d="M 510.059,263.994 523.988,271.732 z" id="boundary" inkscape:connector-curvature="0" />
	<path style="fill:none;stroke:red;stroke-width:1px;stroke-linecap:butt;stroke-linejoin:miter;stroke-opacity:1" d="M 523.988,271.732 537.916,263.994 z" id="boundary" inkscape:connector-curvature="0" />
	<path style="fill:none;stroke:red;stroke-width:1px;stroke-linecap:butt;stroke-linejoin:miter;stroke-opacity:1" d="M 537.916,263.994 553.392,263.994 z" id="boundary" inkscape:connector-curvature="0" />
	<path style="fill:none;stroke:red;stroke-width:1px;stroke-linecap:butt;stroke-linejoin:miter;stroke-opacity:1" d="M 553.392,263.994 568.867,263.994 z" id="boundary" inkscape:connector-curvature="0" />
	<path style="fill:none;stroke:red;stroke-width:1px;stroke-linecap:butt;stroke-linejoin:miter;stroke-opacity:1" d="M 568.867,263.994 584.343,263.994 z" id="boundary" inkscape:connector-curvature="0" />
	<path style="fill:none;stroke:red;stroke-width:1px;stroke-linecap:butt;stroke-linejoin:miter;stroke-opacity:1" d="M 584.343,263.994 598.271,271.732 z" id="boundary" inkscape:connector-curvature="0" />
	<path style="fill:none;stroke:red;stroke-width:1px;stroke-linecap:butt;stroke-linejoin:miter;stroke-opacity:1" d="M 598.271,271.732 612.2,263.994 z" id="boundary" inkscape:connector-curvature="0" />
	<path style="fill:none;stroke:red;stroke-width:1px;stroke-linecap:butt;stroke-linejoin:miter;stroke-opacity:1" d="M 612.2,263.994 627.676,263.994 z" id="boundary" inkscape:connector-curvature="0" />
	<path style="fill:none;stroke:red;stroke-width:1px;stroke-linecap:butt;stroke-linejoin:miter;stroke-opacity:1" d="M 627.676,263.994 643.151,263.994 z" id="boundary" inkscape:connector-curvature="0" />
	<path style="fill:none;stroke:red;stroke-width:1px;stroke-linecap:butt;stroke-linejoin:miter;stroke-opacity:1" d="M 643.151,263.994 658.627,263.994 z" id="boundary" inkscape:connector-curvature="0" />
	<path style="fill:none;stroke:red;stroke-width:1px;stroke-linecap:butt;stroke-linejoin:miter;stroke-opacity:1" d="M 658.627,263.994 674.103,263.994 z" id="boundary" inkscape:connector-curvature="0" />
	<path style="fill:none;stroke:red;stroke-width:1px;stroke-linecap:butt;stroke-linejoin:miter;stroke-opacity:1" d="M 674.103,263.994 689.579,263.994 z" id="boundary" inkscape:connector-curvature="0" />
	<path style="fill:none;stroke:red;stroke-width:1px;stroke-linecap:butt;stroke-linejoin:miter;stroke-opacity:1" d="M 689.579,263.994 705.055,263.994 z" id="boundary" inkscape:connector-curvature="0" />
	<path style="fill:none;stroke:red;stroke-width:1px;stroke-linecap:butt;stroke-linejoin:miter;stroke-opacity:1" d="M 705.055,263.994 720.53,263.994 z" id="boundary" inkscape:connector-curvature="0" />
	<path style="fill:none;stroke:red;stroke-width:1px;stroke-linecap:butt;stroke-linejoin:miter;stroke-opacity:1" d="M 720.53,263.994 736.006,263.994 z" id="boundary" inkscape:connector-curvature="0" />
	<path style="fill:none;stroke:red;stroke-width:1px;stroke-linecap:butt;stroke-linejoin:miter;stroke-opacity:1" d="M 736.006,263.994 751.482,263.994 z" id="boundary" inkscape:connector-curvature="0" />
	<path style="fill:none;stroke:red;stroke-width:1px;stroke-linecap:butt;stroke-linejoin:miter;stroke-opacity:1" d="M 751.482,263.994 766.958,263.994 z" id="boundary" inkscape:connector-curvature="0" />
	<path style="fill:none;stroke:red;stroke-width:1px;stroke-linecap:butt;stroke-linejoin:miter;stroke-opacity:1" d="M 766.958,263.994 782.434,263.994 z" id="boundary" inkscape:connector-curvature="0" />
	<path style="fill:none;stroke:red;stroke-width:1px;stroke-linecap:butt;stroke-linejoin:miter;stroke-opacity:1" d="M 782.434,263.994 797.91,263.994 z" id="boundary" inkscape:connector-curvature="0" />
	<path style="fill:none;stroke:red;stroke-width:1px;stroke-linecap:butt;stroke-linejoin:miter;stroke-opacity:1" d="M 797.91,263.994 813.385,263.994 z" id="boundary" inkscape:connector-curvature="0" />
	<path style="fill:none;stroke:red;stroke-width:1px;stroke-linecap:butt;stroke-linejoin:miter;stroke-opacity:1" d="M 813.385,263.994 827.314,271.732 z" id="boundary" inkscape:connector-curvature="0" />
	<path style="fill:none;stroke:red;stroke-width:1px;stroke-linecap:butt;stroke-linejoin:miter;stroke-opacity:1" d="M 827.314,271.732 841.242,263.994 z" id="boundary" inkscape:connector-curvature="0" />
	<path style="fill:none;stroke:red;stroke-width:1px;stroke-linecap:butt;stroke-linejoin:miter;stroke-opacity:1" d="M 841.242,263.994 856.718,263.994 z" id="boundary" inkscape:connector-curvature="0" />
	<path style="fill:none;stroke:red;stroke-width:1px;stroke-linecap:butt;stroke-linejoin:miter;stroke-opacity:1" d="M 856.718,263.994 872.193,268.637 z" id="boundary" inkscape:connector-curvature="0" />
	<path style="fill:none;stroke:red;stroke-width:1px;stroke-linecap:butt;stroke-linejoin:miter;stroke-opacity:1" d="M 872.193,268.637 887.669,263.994 z" id="boundary" inkscape:connector-curvature="0" />
	<path style="fill:none;stroke:red;stroke-width:1px;stroke-linecap:butt;stroke-linejoin:miter;stroke-opacity:1" d="M 887.669,263.994 903.145,263.994 z" id="boundary" inkscape:connector-curvature="0" />
	<path style="fill:none;stroke:red;stroke-width:1px;stroke-linecap:butt;stroke-linejoin:miter;stroke-opacity:1" d="M 903.145,263.994 918.621,263.994 z" id="boundary" inkscape:connector-curvature="0" />
	<path style="fill:none;stroke:red;stroke-width:1px;stroke-linecap:butt;stroke-linejoin:miter;stroke-opacity:1" d="M 918.621,263.994 932.549,271.732 z" id="boundary" inkscape:connector-curvature="0" />
	<path style="fill:none;stroke:red;stroke-width:1px;stroke-linecap:butt;stroke-linejoin:miter;stroke-opacity:1" d="M 932.549,271.732 946.477,263.994 z" id="boundary" inkscape:connector-curvature="0" />
	<path style="fill:none;stroke:red;stroke-width:1px;stroke-linecap:butt;stroke-linejoin:miter;stroke-opacity:1" d="M 946.477,263.994 961.953,263.994 z" id="boundary" inkscape:connector-curvature="0" />
	<path style="fill:none;stroke:red;stroke-width:1px;stroke-linecap:butt;stroke-linejoin:miter;stroke-opacity:1" d="M 961.953,263.994 977.429,263.994 z" id="boundary" inkscape:connector-curvature="0" />
	<path style="fill:none;stroke:red;stroke-width:1px;stroke-linecap:butt;stroke-linejoin:miter;stroke-opacity:1" d="M 977.429,263.994 992.905,265.541 z" id="boundary" inkscape:connector-curvature="0" />
	<path style="fill:none;stroke:red;stroke-width:1px;stroke-linecap:butt;stroke-linejoin:miter;stroke-opacity:1" d="M 992.905,265.541 996,281.017 z" id="boundary" inkscape:connector-curvature="0" />
	<path style="fill:none;stroke:red;stroke-width:1px;stroke-linecap:butt;stroke-linejoin:miter;stroke-opacity:1" d="M 996,281.017 996,296.493 z" id="boundary" inkscape:connector-curvature="0" />
	<path style="fill:none;stroke:red;stroke-width:1px;stroke-linecap:butt;stroke-linejoin:miter;stroke-opacity:1" d="M 996,296.493 996,311.969 z" id="boundary" inkscape:connector-curvature="0" />
	<path style="fill:none;stroke:red;stroke-width:1px;stroke-linecap:butt;stroke-linejoin:miter;stroke-opacity:1" d="M 996,311.969 996,327.445 z" id="boundary" inkscape:connector-curvature="0" />
	<path style="fill:none;stroke:red;stroke-width:1px;stroke-linecap:butt;stroke-linejoin:miter;stroke-opacity:1" d="M 996,327.445 996,342.92 z" id="boundary" inkscape:connector-curvature="0" />
	<path style="fill:none;stroke:red;stroke-width:1px;stroke-linecap:butt;stroke-linejoin:miter;stroke-opacity:1" d="M 996,342.92 996,358.396 z" id="boundary" inkscape:connector-curvature="0" />
	<path style="fill:none;stroke:red;stroke-width:1px;stroke-linecap:butt;stroke-linejoin:miter;stroke-opacity:1" d="M 996,358.396 996,373.872 z" id="boundary" inkscape:connector-curvature="0" />
	<path style="fill:none;stroke:red;stroke-width:1px;stroke-linecap:butt;stroke-linejoin:miter;stroke-opacity:1" d="M 996,373.872 996,389.348 z" id="boundary" inkscape:connector-curvature="0" />
	<circle cx="4" cy="438.871" r="4" fill="#0" id="circle0"/>
	<circle cx="4" cy="462.084" r="4" fill="#0" id="circle1"/>
	<circle cx="4" cy="477.56" r="4" fill="#0" id="circle2"/>
	<circle cx="4" cy="500.774" r="4" fill="#0" id="circle3"/>
	<circle cx="4" cy="523.988" r="4" fill="#0" id="circle4"/>
	<circle cx="4" cy="539.463" r="4" fill="#0" id="circle5"/>
	<circle cx="4" cy="562.677" r="4" fill="#0" id="circle6"/>
	<circle cx="16.3807" cy="426.49" r="4" fill="#0" id="circle7"/>
	<circle cx="16.3807" cy="573.51" r="4" fill="#0" id="circle8"/>
	<circle cx="27.2137" cy="284.112" r="4" fill="#0" id="circle9"/>
	<circle cx="27.2137" cy="307.326" r="4" fill="#0" id="circle10"/>
	<circle cx="27.2137" cy="322.802" r="4" fill="#0" id="circle11"/>
	<circle cx="27.2137" cy="338.278" r="4" fill="#0" id="circle12"/>
	<circle cx="27.2137" cy="353.754" r="4" fill="#0" id="circle13"/>
	<circle cx="27.2137" cy="369.229" r="4" fill="#0" id="circle14"/>
	<circle cx="27.2137" cy="384.705" r="4" fill="#0" id="circle15"/>
	<circle cx="27.2137" cy="400.181" r="4" fill="#0" id="circle16"/>
	<circle cx="28.7613" cy="415.657" r="4" fill="#0" id="circle17"/>
	<circle cx="31.8565" cy="575.058" r="4" fill="#0" id="circle18"/>
	<circle cx="34.9516" cy="245.423" r="4" fill="#0" id="circle19"/>
	<circle cx="34.9516" cy="260.899" r="4" fill="#0" id="circle20"/>
	<circle cx="42.6895" cy="229.947" r="4" fill="#0" id="circle21"/>
	<circle cx="47.3323" cy="575.058" r="4" fill="#0" id="circle22"/>
	<circle cx="50.4275" cy="206.733" r="4" fill="#0" id="circle23"/>
	<circle cx="62.8081" cy="194.353" r="4" fill="#0" id="circle24"/>
	<circle cx="62.8081" cy="575.058" r="4" fill="#0" id="circle25"/>
	<circle cx="70.546" cy="178.877" r="4" fill="#0" id="circle26"/>
	<circle cx="78.2839" cy="575.058" r="4" fill="#0" id="circle27"/>
	<circle cx="81.3791" cy="160.306" r="4" fill="#0" id="circle28"/>
	<circle cx="93.7598" cy="147.925" r="4" fill="#0" id="circle29"/>
	<circle cx="93.7598" cy="575.058" r="4" fill="#0" id="circle30"/>
	<circle cx="101.498" cy="132.449" r="4" fill="#0" id="circle31"/>
	<circle cx="109.236" cy="116.973" r="4" fill="#0" id="circle32"/>
	<circle cx="109.236" cy="575.058" r="4" fill="#0" id="circle33"/>
	<circle cx="116.973" cy="101.498" r="4" fill="#0" id="circle34"/>
	<circle cx="124.711" cy="575.058" r="4" fill="#0" id="circle35"/>
	<circle cx="129.354" cy="89.117" r="4" fill="#0" id="circle36"/>
	<circle cx="140.187" cy="575.058" r="4" fill="#0" id="circle37"/>
	<circle cx="143.282" cy="75.1888" r="4" fill="#0" id="circle38"/>
	<circle cx="155.663" cy="575.058" r="4" fill="#0" id="circle39"/>
	<circle cx="158.758" cy="67.4509" r="4" fill="#0" id="circle40"/>
	<circle cx="171.139" cy="55.0702" r="4" fill="#0" id="circle41"/>
	<circle cx="171.139" cy="575.058" r="4" fill="#0" id="circle42"/>
	<circle cx="186.615" cy="47.3323" r="4" fill="#0" id="circle43"/>
	<circle cx="186.615" cy="575.058" r="4" fill="#0" id="circle44"/>
	<circle cx="202.09" cy="39.5944" r="4" fill="#0" id="circle45"/>
	<circle cx="202.09" cy="575.058" r="4" fill="#0" id="circle46"/>
	<circle cx="217.566" cy="31.8565" r="4" fill="#0" id="circle47"/>
	<circle cx="217.566" cy="575.058" r="4" fill="#0" id="circle48"/>
	<circle cx="231.495" cy="24.1186" r="4" fill="#0" id="circle49"/>
	<circle cx="233.042" cy="575.058" r="4" fill="#0" id="circle50"/>
	<circle cx="246.97" cy="17.9282" r="4" fill="#0" id="circle51"/>
	<circle cx="248.518" cy="575.058" r="4" fill="#0" id="circle52"/>
	<circle cx="253.161" cy="211.376" r="4" fill="#0" id="circle53"/>
	<circle cx="253.161" cy="226.852" r="4" fill="#0" id="circle54"/>
	<circle cx="253.161" cy="242.328" r="4" fill="#0" id="circle55"/>
	<circle cx="253.161" cy="257.803" r="4" fill="#0" id="circle56"/>
	<circle cx="260.899" cy="164.949" r="4" fill="#0" id="circle57"/>
	<circle cx="260.899" cy="180.424" r="4" fill="#0" id="circle58"/>
	<circle cx="260.899" cy="195.9" r="4" fill="#0" id="circle59"/>
	<circle cx="260.899" cy="404.824" r="4" fill="#0" id="circle60"/>
	<circle cx="260.899" cy="420.3" r="4" fill="#0" id="circle61"/>
	<circle cx="262.446" cy="16.3807" r="4" fill="#0" id="circle62"/>
	<circle cx="263.994" cy="575.058" r="4" fill="#0" id="circle63"/>
	<circle cx="268.637" cy="118.521" r="4" fill="#0" id="circle64"/>
	<circle cx="268.637" cy="133.997" r="4" fill="#0" id="circle65"/>
	<circle cx="268.637" cy="149.473" r="4" fill="#0" id="circle66"/>
	<circle cx="268.637" cy="263.994" r="4" fill="#0" id="circle67"/>
	<circle cx="276.374" cy="8.64275" r="4" fill="#0" id="circle68"/>
	<circle cx="276.374" cy="79.8315" r="4" fill="#0" id="circle69"/>
	<circle cx="276.374" cy="103.045" r="4" fill="#0" id="circle70"/>
	<circle cx="276.374" cy="404.824" r="4" fill="#0" id="circle71"/>
	<circle cx="276.374" cy="426.49" r="4" fill="#0" id="circle72"/>
	<circle cx="279.47" cy="573.51" r="4" fill="#0" id="circle73"/>
	<circle cx="284.112" cy="33.4041" r="4" fill="#0" id="circle74"/>
	<circle cx="284.112" cy="56.6178" r="4" fill="#0" id="circle75"/>
	<circle cx="284.112" cy="263.994" r="4" fill="#0" id="circle76"/>
	<circle cx="284.112" cy="440.418" r="4" fill="#0" id="circle77"/>
	<circle cx="284.112" cy="455.894" r="4" fill="#0" id="circle78"/>
	<circle cx="284.112" cy="471.37" r="4" fill="#0" id="circle79"/>
	<circle cx="284.112" cy="486.846" r="4" fill="#0" id="circle80"/>
	<circle cx="284.112" cy="502.321" r="4" fill="#0" id="circle81"/>
	<circle cx="284.112" cy="517.797" r="4" fill="#0" id="circle82"/>
	<circle cx="284.112" cy="533.273" r="4" fill="#0" id="circle83"/>
	<circle cx="284.112" cy="548.749" r="4" fill="#0" id="circle84"/>
	<circle cx="291.85" cy="4" r="4" fill="#0" id="circle85"/>
	<circle cx="291.85" cy="404.824" r="4" fill="#0" id="circle86"/>
	<circle cx="299.588" cy="17.9282" r="4" fill="#0" id="circle87"/>
	<circle cx="299.588" cy="263.994" r="4" fill="#0" id="circle88"/>
	<circle cx="307.326" cy="404.824" r="4" fill="#0" id="circle89"/>
	<circle cx="313.516" cy="271.732" r="4" fill="#0" id="circle90"/>
	<circle cx="322.802" cy="404.824" r="4" fill="#0" id="circle91"/>
	<circle cx="327.445" cy="263.994" r="4" fill="#0" id="circle92"/>
	<circle cx="338.278" cy="404.824" r="4" fill="#0" id="circle93"/>
	<circle cx="342.92" cy="263.994" r="4" fill="#0" id="circle94"/>
	<circle cx="352.206" cy="397.086" r="4" fill="#0" id="circle95"/>
	<circle cx="358.396" cy="263.994" r="4" fill="#0" id="circle96"/>
	<circle cx="366.134" cy="404.824" r="4" fill="#0" id="circle97"/>
	<circle cx="373.872" cy="265.541" r="4" fill="#0" id="circle98"/>
	<circle cx="381.61" cy="404.824" r="4" fill="#0" id="circle99"/>
	<circle cx="389.348" cy="263.994" r="4" fill="#0" id="circle100"/>
	<circle cx="397.086" cy="404.824" r="4" fill="#0" id="circle101"/>
	<circle cx="404.824" cy="265.541" r="4" fill="#0" id="circle102"/>
	<circle cx="411.014" cy="397.086" r="4" fill="#0" id="circle103"/>
	<circle cx="420.3" cy="263.994" r="4" fill="#0" id="circle104"/>
	<circle cx="424.942" cy="404.824" r="4" fill="#0" id="circle105"/>
	<circle cx="435.775" cy="263.994" r="4" fill="#0" id="circle106"/>
	<circle cx="438.871" cy="397.086" r="4" fill="#0" id="circle107"/>
	<circle cx="451.251" cy="263.994" r="4" fill="#0" id="circle108"/>
	<circle cx="452.799" cy="404.824" r="4" fill="#0" id="circle109"/>
	<circle cx="466.727" cy="263.994" r="4" fill="#0" id="circle110"/>
	<circle cx="468.275" cy="404.824" r="4" fill="#0" id="circle111"/>
	<circle cx="480.655" cy="271.732" r="4" fill="#0" id="circle112"/>
	<circle cx="483.75" cy="404.824" r="4" fill="#0" id="circle113"/>
	<circle cx="494.583" cy="263.994" r="4" fill="#0" id="circle114"/>
	<circle cx="499.226" cy="404.824" r="4" fill="#0" id="circle115"/>
	<circle cx="510.059" cy="263.994" r="4" fill="#0" id="circle116"/>
	<circle cx="514.702" cy="404.824" r="4" fill="#0" id="circle117"/>
	<circle cx="523.988" cy="271.732" r="4" fill="#0" id="circle118"/>
	<circle cx="530.178" cy="404.824" r="4" fill="#0" id="circle119"/>
	<circle cx="537.916" cy="263.994" r="4" fill="#0" id="circle120"/>
	<circle cx="545.654" cy="404.824" r="4" fill="#0" id="circle121"/>
	<circle cx="553.392" cy="263.994" r="4" fill="#0" id="circle122"/>
	<circle cx="559.582" cy="397.086" r="4" fill="#0" id="circle123"/>
	<circle cx="568.867" cy="263.994" r="4" fill="#0" id="circle124"/>
	<circle cx="573.51" cy="404.824" r="4" fill="#0" id="circle125"/>
	<circle cx="584.343" cy="263.994" r="4" fill="#0" id="circle126"/>
	<circle cx="588.986" cy="404.824" r="4" fill="#0" id="circle127"/>
	<circle cx="598.271" cy="271.732" r="4" fill="#0" id="circle128"/>
	<circle cx="604.462" cy="404.824" r="4" fill="#0" id="circle129"/>
	<circle cx="612.2" cy="263.994" r="4" fill="#0" id="circle130"/>
	<circle cx="619.938" cy="403.276" r="4" fill="#0" id="circle131"/>
	<circle cx="627.676" cy="263.994" r="4" fill="#0" id="circle132"/>
	<circle cx="635.413" cy="403.276" r="4" fill="#0" id="circle133"/>
	<circle cx="643.151" cy="263.994" r="4" fill="#0" id="circle134"/>
	<circle cx="650.889" cy="403.276" r="4" fill="#0" id="circle135"/>
	<circle cx="658.627" cy="263.994" r="4" fill="#0" id="circle136"/>
	<circle cx="666.365" cy="403.276" r="4" fill="#0" id="circle137"/>
	<circle cx="674.103" cy="263.994" r="4" fill="#0" id="circle138"/>
	<circle cx="681.841" cy="404.824" r="4" fill="#0" id="circle139"/>
	<circle cx="689.579" cy="263.994" r="4" fill="#0" id="circle140"/>
	<circle cx="697.317" cy="404.824" r="4" fill="#0" id="circle141"/>
	<circle cx="705.055" cy="263.994" r="4" fill="#0" id="circle142"/>
	<circle cx="712.793" cy="404.824" r="4" fill="#0" id="circle143"/>
	<circle cx="720.53" cy="263.994" r="4" fill="#0" id="circle144"/>
	<circle cx="728.268" cy="404.824" r="4" fill="#0" id="circle145"/>
	<circle cx="736.006" cy="263.994" r="4" fill="#0" id="circle146"/>
	<circle cx="743.744" cy="404.824" r="4" fill="#0" id="circle147"/>
	<circle cx="751.482" cy="263.994" r="4" fill="#0" id="circle148"/>
	<circle cx="759.22" cy="404.824" r="4" fill="#0" id="circle149"/>
	<circle cx="766.958" cy="263.994" r="4" fill="#0" id="circle150"/>
	<circle cx="773.148" cy="397.086" r="4" fill="#0" id="circle151"/>
	<circle cx="782.434" cy="263.994" r="4" fill="#0" id="circle152"/>
	<circle cx="787.076" cy="404.824" r="4" fill="#0" id="circle153"/>
	<circle cx="797.91" cy="263.994" r="4" fill="#0" id="circle154"/>
	<circle cx="802.552" cy="404.824" r="4" fill="#0" id="circle155"/>
	<circle cx="813.385" cy="263.994" r="4" fill="#0" id="circle156"/>
	<circle cx="816.48" cy="397.086" r="4" fill="#0" id="circle157"/>
	<circle cx="827.314" cy="271.732" r="4" fill="#0" id="circle158"/>
	<circle cx="830.409" cy="404.824" r="4" fill="#0" id="circle159"/>
	<circle cx="841.242" cy="263.994" r="4" fill="#0" id="circle160"/>
	<circle cx="845.885" cy="404.824" r="4" fill="#0" id="circle161"/>
	<circle cx="856.718" cy="263.994" r="4" fill="#0" id="circle162"/>
	<circle cx="861.36" cy="404.824" r="4" fill="#0" id="circle163"/>
	<circle cx="872.193" cy="268.637" r="4" fill="#0" id="circle164"/>
	<circle cx="876.836" cy="404.824" r="4" fill="#0" id="circle165"/>
	<circle cx="887.669" cy="263.994" r="4" fill="#0" id="circle166"/>
	<circle cx="892.312" cy="404.824" r="4" fill="#0" id="circle167"/>
	<circle cx="903.145" cy="263.994" r="4" fill="#0" id="circle168"/>
	<circle cx="907.788" cy="404.824" r="4" fill="#0" id="circle169"/>
	<circle cx="918.621" cy="263.994" r="4" fill="#0" id="circle170"/>
	<circle cx="921.716" cy="397.086" r="4" fill="#0" id="circle171"/>
	<circle cx="932.549" cy="271.732" r="4" fill="#0" id="circle172"/>
	<circle cx="935.644" cy="404.824" r="4" fill="#0" id="circle173"/>
	<circle cx="946.477" cy="263.994" r="4" fill="#0" id="circle174"/>
	<circle cx="951.12" cy="404.824" r="4" fill="#0" id="circle175"/>
	<circle cx="961.953" cy="263.994" r="4" fill="#0" id="circle176"/>
	<circle cx="966.596" cy="404.824" r="4" fill="#0" id="circle177"/>
	<circle cx="977.429" cy="263.994" r="4" fill="#0" id="circle178"/>
	<circle cx="982.072" cy="404.824" r="4" fill="#0" id="circle179"/>
	<circle cx="992.905" cy="265.541" r="4" fill="#0" id="circle180"/>
	<circle cx="996" cy="281.017" r="4" fill="#0" id="circle181"/>
	<circle cx="996" cy="296.493" r="4" fill="#0" id="circle182"/>
	<circle cx="996" cy="311.969" r="4" fill="#0" id="circle183"/>
	<circle cx="996" cy="327.445" r="4" fill="#0" id="circle184"/>
	<circle cx="996" cy="342.92" r="4" fill="#0" id="circle185"/>
	<circle cx="996" cy="358.396" r="4" fill="#0" id="circle186"/>
	<circle cx="996" cy="373.872" r="4" fill="#0" id="circle187"/>
	<circle cx="996" cy="389.348" r="4" fill="#0" id="circle188"/>
	</g>
</svg>