<?xml version="1.0" encoding="UTF-8" standalone="no"?>
<!-- Created with CurveBenchmark -->
<svg
	xmlns:dc="http://purl.org/dc/elements/1.1/"
	xmlns:cc="http://creativecommons.org/ns#"
	xmlns:rdf="http://www.w3.org/1999/02/22-rdf-syntax-ns#"
	xmlns:svg="http://www.w3.org/2000/svg"
	xmlns="http://www.w3.org/2000/svg"
	xmlns:sodipodi="http://sodipodi.sourceforge.net/DTD/sodipodi-0.dtd"
	xmlns:inkscape="http://www.inkscape.org/namespaces/inkscape"
	width="1000"
	height="1000"
	id="svg2"
	version="1.1"
	sodipodi:docname="manifold/connect2d-pencil-16.png.txt">
<defs
	id="defs4" />
<metadata
	id="metadata7">
	<rdf:RDF>
		<cc:Work
			rdf:about="">
			<dc:format>image/svg+xml</dc:format>
			<dc:type
				rdf:resource="http://purl.org/dc/dcmitype/StillImage" />
			<dc:title></dc:title>
		</cc:Work>
	</rdf:RDF>
</metadata>
<g
	inkscape:label="Layer 1"
	inkscape:groupmode="layer"
	id="layer1">
	<path style="fill:none;stroke:red;stroke-width:1px;stroke-linecap:butt;stroke-linejoin:miter;stroke-opacity:1" d="M 465.045,919.012 465.045,927.861 z" id="boundary" inkscape:connector-curvature="0" />
	<path style="fill:none;stroke:red;stroke-width:1px;stroke-linecap:butt;stroke-linejoin:miter;stroke-opacity:1" d="M 465.045,927.861 460.621,942.905 z" id="boundary" inkscape:connector-curvature="0" />
	<path style="fill:none;stroke:red;stroke-width:1px;stroke-linecap:butt;stroke-linejoin:miter;stroke-opacity:1" d="M 460.621,942.905 458.851,954.409 z" id="boundary" inkscape:connector-curvature="0" />
	<path style="fill:none;stroke:red;stroke-width:1px;stroke-linecap:butt;stroke-linejoin:miter;stroke-opacity:1" d="M 458.851,954.409 451.772,960.603 z" id="boundary" inkscape:connector-curvature="0" />
	<path style="fill:none;stroke:red;stroke-width:1px;stroke-linecap:butt;stroke-linejoin:miter;stroke-opacity:1" d="M 451.772,960.603 447.347,969.452 z" id="boundary" inkscape:connector-curvature="0" />
	<path style="fill:none;stroke:red;stroke-width:1px;stroke-linecap:butt;stroke-linejoin:miter;stroke-opacity:1" d="M 447.347,969.452 441.153,976.532 z" id="boundary" inkscape:connector-curvature="0" />
	<path style="fill:none;stroke:red;stroke-width:1px;stroke-linecap:butt;stroke-linejoin:miter;stroke-opacity:1" d="M 441.153,976.532 434.073,982.726 z" id="boundary" inkscape:connector-curvature="0" />
	<path style="fill:none;stroke:red;stroke-width:1px;stroke-linecap:butt;stroke-linejoin:miter;stroke-opacity:1" d="M 434.073,982.726 426.109,987.151 z" id="boundary" inkscape:connector-curvature="0" />
	<path style="fill:none;stroke:red;stroke-width:1px;stroke-linecap:butt;stroke-linejoin:miter;stroke-opacity:1" d="M 426.109,987.151 418.145,991.575 z" id="boundary" inkscape:connector-curvature="0" />
	<path style="fill:none;stroke:red;stroke-width:1px;stroke-linecap:butt;stroke-linejoin:miter;stroke-opacity:1" d="M 418.145,991.575 409.295,995.115 z" id="boundary" inkscape:connector-curvature="0" />
	<path style="fill:none;stroke:red;stroke-width:1px;stroke-linecap:butt;stroke-linejoin:miter;stroke-opacity:1" d="M 409.295,995.115 400.446,996 z" id="boundary" inkscape:connector-curvature="0" />
	<path style="fill:none;stroke:red;stroke-width:1px;stroke-linecap:butt;stroke-linejoin:miter;stroke-opacity:1" d="M 400.446,996 391.597,996 z" id="boundary" inkscape:connector-curvature="0" />
	<path style="fill:none;stroke:red;stroke-width:1px;stroke-linecap:butt;stroke-linejoin:miter;stroke-opacity:1" d="M 391.597,996 382.748,996 z" id="boundary" inkscape:connector-curvature="0" />
	<path style="fill:none;stroke:red;stroke-width:1px;stroke-linecap:butt;stroke-linejoin:miter;stroke-opacity:1" d="M 382.748,996 373.898,996 z" id="boundary" inkscape:connector-curvature="0" />
	<path style="fill:none;stroke:red;stroke-width:1px;stroke-linecap:butt;stroke-linejoin:miter;stroke-opacity:1" d="M 373.898,996 365.049,996 z" id="boundary" inkscape:connector-curvature="0" />
	<path style="fill:none;stroke:red;stroke-width:1px;stroke-linecap:butt;stroke-linejoin:miter;stroke-opacity:1" d="M 365.049,996 357.085,991.575 z" id="boundary" inkscape:connector-curvature="0" />
	<path style="fill:none;stroke:red;stroke-width:1px;stroke-linecap:butt;stroke-linejoin:miter;stroke-opacity:1" d="M 357.085,991.575 349.12,987.151 z" id="boundary" inkscape:connector-curvature="0" />
	<path style="fill:none;stroke:red;stroke-width:1px;stroke-linecap:butt;stroke-linejoin:miter;stroke-opacity:1" d="M 349.12,987.151 341.156,982.726 z" id="boundary" inkscape:connector-curvature="0" />
	<path style="fill:none;stroke:red;stroke-width:1px;stroke-linecap:butt;stroke-linejoin:miter;stroke-opacity:1" d="M 341.156,982.726 334.077,977.417 z" id="boundary" inkscape:connector-curvature="0" />
	<path style="fill:none;stroke:red;stroke-width:1px;stroke-linecap:butt;stroke-linejoin:miter;stroke-opacity:1" d="M 334.077,977.417 326.997,971.222 z" id="boundary" inkscape:connector-curvature="0" />
	<path style="fill:none;stroke:red;stroke-width:1px;stroke-linecap:butt;stroke-linejoin:miter;stroke-opacity:1" d="M 326.997,971.222 320.803,964.143 z" id="boundary" inkscape:connector-curvature="0" />
	<path style="fill:none;stroke:red;stroke-width:1px;stroke-linecap:butt;stroke-linejoin:miter;stroke-opacity:1" d="M 320.803,964.143 313.723,957.948 z" id="boundary" inkscape:connector-curvature="0" />
	<path style="fill:none;stroke:red;stroke-width:1px;stroke-linecap:butt;stroke-linejoin:miter;stroke-opacity:1" d="M 313.723,957.948 310.184,949.099 z" id="boundary" inkscape:connector-curvature="0" />
	<path style="fill:none;stroke:red;stroke-width:1px;stroke-linecap:butt;stroke-linejoin:miter;stroke-opacity:1" d="M 310.184,949.099 305.759,941.135 z" id="boundary" inkscape:connector-curvature="0" />
	<path style="fill:none;stroke:red;stroke-width:1px;stroke-linecap:butt;stroke-linejoin:miter;stroke-opacity:1" d="M 305.759,941.135 304.874,932.285 z" id="boundary" inkscape:connector-curvature="0" />
	<path style="fill:none;stroke:red;stroke-width:1px;stroke-linecap:butt;stroke-linejoin:miter;stroke-opacity:1" d="M 304.874,932.285 300.45,924.321 z" id="boundary" inkscape:connector-curvature="0" />
	<path style="fill:none;stroke:red;stroke-width:1px;stroke-linecap:butt;stroke-linejoin:miter;stroke-opacity:1" d="M 300.45,924.321 296.025,916.357 z" id="boundary" inkscape:connector-curvature="0" />
	<path style="fill:none;stroke:red;stroke-width:1px;stroke-linecap:butt;stroke-linejoin:miter;stroke-opacity:1" d="M 296.025,916.357 296.025,907.508 z" id="boundary" inkscape:connector-curvature="0" />
	<path style="fill:none;stroke:red;stroke-width:1px;stroke-linecap:butt;stroke-linejoin:miter;stroke-opacity:1" d="M 296.025,907.508 291.6,899.543 z" id="boundary" inkscape:connector-curvature="0" />
	<path style="fill:none;stroke:red;stroke-width:1px;stroke-linecap:butt;stroke-linejoin:miter;stroke-opacity:1" d="M 291.6,899.543 287.176,891.579 z" id="boundary" inkscape:connector-curvature="0" />
	<path style="fill:none;stroke:red;stroke-width:1px;stroke-linecap:butt;stroke-linejoin:miter;stroke-opacity:1" d="M 287.176,891.579 283.636,882.73 z" id="boundary" inkscape:connector-curvature="0" />
	<path style="fill:none;stroke:red;stroke-width:1px;stroke-linecap:butt;stroke-linejoin:miter;stroke-opacity:1" d="M 283.636,882.73 279.211,874.765 z" id="boundary" inkscape:connector-curvature="0" />
	<path style="fill:none;stroke:red;stroke-width:1px;stroke-linecap:butt;stroke-linejoin:miter;stroke-opacity:1" d="M 279.211,874.765 278.326,865.916 z" id="boundary" inkscape:connector-curvature="0" />
	<path style="fill:none;stroke:red;stroke-width:1px;stroke-linecap:butt;stroke-linejoin:miter;stroke-opacity:1" d="M 278.326,865.916 273.902,857.952 z" id="boundary" inkscape:connector-curvature="0" />
	<path style="fill:none;stroke:red;stroke-width:1px;stroke-linecap:butt;stroke-linejoin:miter;stroke-opacity:1" d="M 273.902,857.952 269.477,849.988 z" id="boundary" inkscape:connector-curvature="0" />
	<path style="fill:none;stroke:red;stroke-width:1px;stroke-linecap:butt;stroke-linejoin:miter;stroke-opacity:1" d="M 269.477,849.988 265.053,842.023 z" id="boundary" inkscape:connector-curvature="0" />
	<path style="fill:none;stroke:red;stroke-width:1px;stroke-linecap:butt;stroke-linejoin:miter;stroke-opacity:1" d="M 265.053,842.023 265.053,833.174 z" id="boundary" inkscape:connector-curvature="0" />
	<path style="fill:none;stroke:red;stroke-width:1px;stroke-linecap:butt;stroke-linejoin:miter;stroke-opacity:1" d="M 265.053,833.174 260.628,825.21 z" id="boundary" inkscape:connector-curvature="0" />
	<path style="fill:none;stroke:red;stroke-width:1px;stroke-linecap:butt;stroke-linejoin:miter;stroke-opacity:1" d="M 260.628,825.21 256.203,817.245 z" id="boundary" inkscape:connector-curvature="0" />
	<path style="fill:none;stroke:red;stroke-width:1px;stroke-linecap:butt;stroke-linejoin:miter;stroke-opacity:1" d="M 256.203,817.245 251.779,809.281 z" id="boundary" inkscape:connector-curvature="0" />
	<path style="fill:none;stroke:red;stroke-width:1px;stroke-linecap:butt;stroke-linejoin:miter;stroke-opacity:1" d="M 251.779,809.281 250.009,800.432 z" id="boundary" inkscape:connector-curvature="0" />
	<path style="fill:none;stroke:red;stroke-width:1px;stroke-linecap:butt;stroke-linejoin:miter;stroke-opacity:1" d="M 250.009,800.432 245.584,792.467 z" id="boundary" inkscape:connector-curvature="0" />
	<path style="fill:none;stroke:red;stroke-width:1px;stroke-linecap:butt;stroke-linejoin:miter;stroke-opacity:1" d="M 245.584,792.467 242.93,783.618 z" id="boundary" inkscape:connector-curvature="0" />
	<path style="fill:none;stroke:red;stroke-width:1px;stroke-linecap:butt;stroke-linejoin:miter;stroke-opacity:1" d="M 242.93,783.618 238.505,775.654 z" id="boundary" inkscape:connector-curvature="0" />
	<path style="fill:none;stroke:red;stroke-width:1px;stroke-linecap:butt;stroke-linejoin:miter;stroke-opacity:1" d="M 238.505,775.654 238.505,766.805 z" id="boundary" inkscape:connector-curvature="0" />
	<path style="fill:none;stroke:red;stroke-width:1px;stroke-linecap:butt;stroke-linejoin:miter;stroke-opacity:1" d="M 238.505,766.805 234.08,758.84 z" id="boundary" inkscape:connector-curvature="0" />
	<path style="fill:none;stroke:red;stroke-width:1px;stroke-linecap:butt;stroke-linejoin:miter;stroke-opacity:1" d="M 234.08,758.84 229.656,750.876 z" id="boundary" inkscape:connector-curvature="0" />
	<path style="fill:none;stroke:red;stroke-width:1px;stroke-linecap:butt;stroke-linejoin:miter;stroke-opacity:1" d="M 229.656,750.876 226.116,742.027 z" id="boundary" inkscape:connector-curvature="0" />
	<path style="fill:none;stroke:red;stroke-width:1px;stroke-linecap:butt;stroke-linejoin:miter;stroke-opacity:1" d="M 226.116,742.027 222.576,733.178 z" id="boundary" inkscape:connector-curvature="0" />
	<path style="fill:none;stroke:red;stroke-width:1px;stroke-linecap:butt;stroke-linejoin:miter;stroke-opacity:1" d="M 222.576,733.178 218.152,725.213 z" id="boundary" inkscape:connector-curvature="0" />
	<path style="fill:none;stroke:red;stroke-width:1px;stroke-linecap:butt;stroke-linejoin:miter;stroke-opacity:1" d="M 218.152,725.213 214.612,716.364 z" id="boundary" inkscape:connector-curvature="0" />
	<path style="fill:none;stroke:red;stroke-width:1px;stroke-linecap:butt;stroke-linejoin:miter;stroke-opacity:1" d="M 214.612,716.364 210.187,708.4 z" id="boundary" inkscape:connector-curvature="0" />
	<path style="fill:none;stroke:red;stroke-width:1px;stroke-linecap:butt;stroke-linejoin:miter;stroke-opacity:1" d="M 210.187,708.4 207.533,699.55 z" id="boundary" inkscape:connector-curvature="0" />
	<path style="fill:none;stroke:red;stroke-width:1px;stroke-linecap:butt;stroke-linejoin:miter;stroke-opacity:1" d="M 207.533,699.55 203.108,691.586 z" id="boundary" inkscape:connector-curvature="0" />
	<path style="fill:none;stroke:red;stroke-width:1px;stroke-linecap:butt;stroke-linejoin:miter;stroke-opacity:1" d="M 203.108,691.586 198.683,683.622 z" id="boundary" inkscape:connector-curvature="0" />
	<path style="fill:none;stroke:red;stroke-width:1px;stroke-linecap:butt;stroke-linejoin:miter;stroke-opacity:1" d="M 198.683,683.622 198.683,674.773 z" id="boundary" inkscape:connector-curvature="0" />
	<path style="fill:none;stroke:red;stroke-width:1px;stroke-linecap:butt;stroke-linejoin:miter;stroke-opacity:1" d="M 198.683,674.773 194.259,666.808 z" id="boundary" inkscape:connector-curvature="0" />
	<path style="fill:none;stroke:red;stroke-width:1px;stroke-linecap:butt;stroke-linejoin:miter;stroke-opacity:1" d="M 194.259,666.808 189.834,658.844 z" id="boundary" inkscape:connector-curvature="0" />
	<path style="fill:none;stroke:red;stroke-width:1px;stroke-linecap:butt;stroke-linejoin:miter;stroke-opacity:1" d="M 189.834,658.844 188.064,649.995 z" id="boundary" inkscape:connector-curvature="0" />
	<path style="fill:none;stroke:red;stroke-width:1px;stroke-linecap:butt;stroke-linejoin:miter;stroke-opacity:1" d="M 188.064,649.995 183.64,642.03 z" id="boundary" inkscape:connector-curvature="0" />
	<path style="fill:none;stroke:red;stroke-width:1px;stroke-linecap:butt;stroke-linejoin:miter;stroke-opacity:1" d="M 183.64,642.03 180.985,633.181 z" id="boundary" inkscape:connector-curvature="0" />
	<path style="fill:none;stroke:red;stroke-width:1px;stroke-linecap:butt;stroke-linejoin:miter;stroke-opacity:1" d="M 180.985,633.181 176.56,625.217 z" id="boundary" inkscape:connector-curvature="0" />
	<path style="fill:none;stroke:red;stroke-width:1px;stroke-linecap:butt;stroke-linejoin:miter;stroke-opacity:1" d="M 176.56,625.217 176.56,616.368 z" id="boundary" inkscape:connector-curvature="0" />
	<path style="fill:none;stroke:red;stroke-width:1px;stroke-linecap:butt;stroke-linejoin:miter;stroke-opacity:1" d="M 176.56,616.368 172.136,608.403 z" id="boundary" inkscape:connector-curvature="0" />
	<path style="fill:none;stroke:red;stroke-width:1px;stroke-linecap:butt;stroke-linejoin:miter;stroke-opacity:1" d="M 172.136,608.403 167.711,600.439 z" id="boundary" inkscape:connector-curvature="0" />
	<path style="fill:none;stroke:red;stroke-width:1px;stroke-linecap:butt;stroke-linejoin:miter;stroke-opacity:1" d="M 167.711,600.439 163.286,592.475 z" id="boundary" inkscape:connector-curvature="0" />
	<path style="fill:none;stroke:red;stroke-width:1px;stroke-linecap:butt;stroke-linejoin:miter;stroke-opacity:1" d="M 163.286,592.475 158.862,584.51 z" id="boundary" inkscape:connector-curvature="0" />
	<path style="fill:none;stroke:red;stroke-width:1px;stroke-linecap:butt;stroke-linejoin:miter;stroke-opacity:1" d="M 158.862,584.51 157.092,575.661 z" id="boundary" inkscape:connector-curvature="0" />
	<path style="fill:none;stroke:red;stroke-width:1px;stroke-linecap:butt;stroke-linejoin:miter;stroke-opacity:1" d="M 157.092,575.661 154.437,566.812 z" id="boundary" inkscape:connector-curvature="0" />
	<path style="fill:none;stroke:red;stroke-width:1px;stroke-linecap:butt;stroke-linejoin:miter;stroke-opacity:1" d="M 154.437,566.812 150.012,558.847 z" id="boundary" inkscape:connector-curvature="0" />
	<path style="fill:none;stroke:red;stroke-width:1px;stroke-linecap:butt;stroke-linejoin:miter;stroke-opacity:1" d="M 150.012,558.847 145.588,550.883 z" id="boundary" inkscape:connector-curvature="0" />
	<path style="fill:none;stroke:red;stroke-width:1px;stroke-linecap:butt;stroke-linejoin:miter;stroke-opacity:1" d="M 145.588,550.883 145.588,542.034 z" id="boundary" inkscape:connector-curvature="0" />
	<path style="fill:none;stroke:red;stroke-width:1px;stroke-linecap:butt;stroke-linejoin:miter;stroke-opacity:1" d="M 145.588,542.034 141.163,534.07 z" id="boundary" inkscape:connector-curvature="0" />
	<path style="fill:none;stroke:red;stroke-width:1px;stroke-linecap:butt;stroke-linejoin:miter;stroke-opacity:1" d="M 141.163,534.07 136.739,526.105 z" id="boundary" inkscape:connector-curvature="0" />
	<path style="fill:none;stroke:red;stroke-width:1px;stroke-linecap:butt;stroke-linejoin:miter;stroke-opacity:1" d="M 136.739,526.105 132.314,518.141 z" id="boundary" inkscape:connector-curvature="0" />
	<path style="fill:none;stroke:red;stroke-width:1px;stroke-linecap:butt;stroke-linejoin:miter;stroke-opacity:1" d="M 132.314,518.141 132.314,509.292 z" id="boundary" inkscape:connector-curvature="0" />
	<path style="fill:none;stroke:red;stroke-width:1px;stroke-linecap:butt;stroke-linejoin:miter;stroke-opacity:1" d="M 132.314,509.292 127.889,501.327 z" id="boundary" inkscape:connector-curvature="0" />
	<path style="fill:none;stroke:red;stroke-width:1px;stroke-linecap:butt;stroke-linejoin:miter;stroke-opacity:1" d="M 127.889,501.327 123.465,493.363 z" id="boundary" inkscape:connector-curvature="0" />
	<path style="fill:none;stroke:red;stroke-width:1px;stroke-linecap:butt;stroke-linejoin:miter;stroke-opacity:1" d="M 123.465,493.363 119.04,485.399 z" id="boundary" inkscape:connector-curvature="0" />
	<path style="fill:none;stroke:red;stroke-width:1px;stroke-linecap:butt;stroke-linejoin:miter;stroke-opacity:1" d="M 119.04,485.399 115.5,476.55 z" id="boundary" inkscape:connector-curvature="0" />
	<path style="fill:none;stroke:red;stroke-width:1px;stroke-linecap:butt;stroke-linejoin:miter;stroke-opacity:1" d="M 115.5,476.55 111.961,467.7 z" id="boundary" inkscape:connector-curvature="0" />
	<path style="fill:none;stroke:red;stroke-width:1px;stroke-linecap:butt;stroke-linejoin:miter;stroke-opacity:1" d="M 111.961,467.7 107.536,459.736 z" id="boundary" inkscape:connector-curvature="0" />
	<path style="fill:none;stroke:red;stroke-width:1px;stroke-linecap:butt;stroke-linejoin:miter;stroke-opacity:1" d="M 107.536,459.736 105.766,450.887 z" id="boundary" inkscape:connector-curvature="0" />
	<path style="fill:none;stroke:red;stroke-width:1px;stroke-linecap:butt;stroke-linejoin:miter;stroke-opacity:1" d="M 105.766,450.887 103.996,442.037 z" id="boundary" inkscape:connector-curvature="0" />
	<path style="fill:none;stroke:red;stroke-width:1px;stroke-linecap:butt;stroke-linejoin:miter;stroke-opacity:1" d="M 103.996,442.037 99.5718,434.073 z" id="boundary" inkscape:connector-curvature="0" />
	<path style="fill:none;stroke:red;stroke-width:1px;stroke-linecap:butt;stroke-linejoin:miter;stroke-opacity:1" d="M 99.5718,434.073 96.917,425.224 z" id="boundary" inkscape:connector-curvature="0" />
	<path style="fill:none;stroke:red;stroke-width:1px;stroke-linecap:butt;stroke-linejoin:miter;stroke-opacity:1" d="M 96.917,425.224 92.4924,417.26 z" id="boundary" inkscape:connector-curvature="0" />
	<path style="fill:none;stroke:red;stroke-width:1px;stroke-linecap:butt;stroke-linejoin:miter;stroke-opacity:1" d="M 92.4924,417.26 88.0678,409.295 z" id="boundary" inkscape:connector-curvature="0" />
	<path style="fill:none;stroke:red;stroke-width:1px;stroke-linecap:butt;stroke-linejoin:miter;stroke-opacity:1" d="M 88.0678,409.295 88.0678,400.446 z" id="boundary" inkscape:connector-curvature="0" />
	<path style="fill:none;stroke:red;stroke-width:1px;stroke-linecap:butt;stroke-linejoin:miter;stroke-opacity:1" d="M 88.0678,400.446 83.6432,392.482 z" id="boundary" inkscape:connector-curvature="0" />
	<path style="fill:none;stroke:red;stroke-width:1px;stroke-linecap:butt;stroke-linejoin:miter;stroke-opacity:1" d="M 83.6432,392.482 79.2186,384.517 z" id="boundary" inkscape:connector-curvature="0" />
	<path style="fill:none;stroke:red;stroke-width:1px;stroke-linecap:butt;stroke-linejoin:miter;stroke-opacity:1" d="M 79.2186,384.517 74.7939,376.553 z" id="boundary" inkscape:connector-curvature="0" />
	<path style="fill:none;stroke:red;stroke-width:1px;stroke-linecap:butt;stroke-linejoin:miter;stroke-opacity:1" d="M 74.7939,376.553 74.7939,367.704 z" id="boundary" inkscape:connector-curvature="0" />
	<path style="fill:none;stroke:red;stroke-width:1px;stroke-linecap:butt;stroke-linejoin:miter;stroke-opacity:1" d="M 74.7939,367.704 70.3693,359.74 z" id="boundary" inkscape:connector-curvature="0" />
	<path style="fill:none;stroke:red;stroke-width:1px;stroke-linecap:butt;stroke-linejoin:miter;stroke-opacity:1" d="M 70.3693,359.74 65.9447,351.775 z" id="boundary" inkscape:connector-curvature="0" />
	<path style="fill:none;stroke:red;stroke-width:1px;stroke-linecap:butt;stroke-linejoin:miter;stroke-opacity:1" d="M 65.9447,351.775 65.9447,342.926 z" id="boundary" inkscape:connector-curvature="0" />
	<path style="fill:none;stroke:red;stroke-width:1px;stroke-linecap:butt;stroke-linejoin:miter;stroke-opacity:1" d="M 65.9447,342.926 61.5201,334.962 z" id="boundary" inkscape:connector-curvature="0" />
	<path style="fill:none;stroke:red;stroke-width:1px;stroke-linecap:butt;stroke-linejoin:miter;stroke-opacity:1" d="M 61.5201,334.962 57.0955,326.997 z" id="boundary" inkscape:connector-curvature="0" />
	<path style="fill:none;stroke:red;stroke-width:1px;stroke-linecap:butt;stroke-linejoin:miter;stroke-opacity:1" d="M 57.0955,326.997 55.3256,318.148 z" id="boundary" inkscape:connector-curvature="0" />
	<path style="fill:none;stroke:red;stroke-width:1px;stroke-linecap:butt;stroke-linejoin:miter;stroke-opacity:1" d="M 55.3256,318.148 50.901,310.184 z" id="boundary" inkscape:connector-curvature="0" />
	<path style="fill:none;stroke:red;stroke-width:1px;stroke-linecap:butt;stroke-linejoin:miter;stroke-opacity:1" d="M 50.901,310.184 48.2462,301.335 z" id="boundary" inkscape:connector-curvature="0" />
	<path style="fill:none;stroke:red;stroke-width:1px;stroke-linecap:butt;stroke-linejoin:miter;stroke-opacity:1" d="M 48.2462,301.335 43.8216,293.37 z" id="boundary" inkscape:connector-curvature="0" />
	<path style="fill:none;stroke:red;stroke-width:1px;stroke-linecap:butt;stroke-linejoin:miter;stroke-opacity:1" d="M 43.8216,293.37 39.397,285.406 z" id="boundary" inkscape:connector-curvature="0" />
	<path style="fill:none;stroke:red;stroke-width:1px;stroke-linecap:butt;stroke-linejoin:miter;stroke-opacity:1" d="M 39.397,285.406 35.8573,276.557 z" id="boundary" inkscape:connector-curvature="0" />
	<path style="fill:none;stroke:red;stroke-width:1px;stroke-linecap:butt;stroke-linejoin:miter;stroke-opacity:1" d="M 35.8573,276.557 31.4326,268.592 z" id="boundary" inkscape:connector-curvature="0" />
	<path style="fill:none;stroke:red;stroke-width:1px;stroke-linecap:butt;stroke-linejoin:miter;stroke-opacity:1" d="M 31.4326,268.592 30.5477,259.743 z" id="boundary" inkscape:connector-curvature="0" />
	<path style="fill:none;stroke:red;stroke-width:1px;stroke-linecap:butt;stroke-linejoin:miter;stroke-opacity:1" d="M 30.5477,259.743 26.1231,251.779 z" id="boundary" inkscape:connector-curvature="0" />
	<path style="fill:none;stroke:red;stroke-width:1px;stroke-linecap:butt;stroke-linejoin:miter;stroke-opacity:1" d="M 26.1231,251.779 21.6985,243.814 z" id="boundary" inkscape:connector-curvature="0" />
	<path style="fill:none;stroke:red;stroke-width:1px;stroke-linecap:butt;stroke-linejoin:miter;stroke-opacity:1" d="M 21.6985,243.814 19.9286,234.965 z" id="boundary" inkscape:connector-curvature="0" />
	<path style="fill:none;stroke:red;stroke-width:1px;stroke-linecap:butt;stroke-linejoin:miter;stroke-opacity:1" d="M 19.9286,234.965 17.2739,226.116 z" id="boundary" inkscape:connector-curvature="0" />
	<path style="fill:none;stroke:red;stroke-width:1px;stroke-linecap:butt;stroke-linejoin:miter;stroke-opacity:1" d="M 17.2739,226.116 15.504,217.267 z" id="boundary" inkscape:connector-curvature="0" />
	<path style="fill:none;stroke:red;stroke-width:1px;stroke-linecap:butt;stroke-linejoin:miter;stroke-opacity:1" d="M 15.504,217.267 12.8492,208.417 z" id="boundary" inkscape:connector-curvature="0" />
	<path style="fill:none;stroke:red;stroke-width:1px;stroke-linecap:butt;stroke-linejoin:miter;stroke-opacity:1" d="M 12.8492,208.417 12.8492,199.568 z" id="boundary" inkscape:connector-curvature="0" />
	<path style="fill:none;stroke:red;stroke-width:1px;stroke-linecap:butt;stroke-linejoin:miter;stroke-opacity:1" d="M 12.8492,199.568 8.42462,191.604 z" id="boundary" inkscape:connector-curvature="0" />
	<path style="fill:none;stroke:red;stroke-width:1px;stroke-linecap:butt;stroke-linejoin:miter;stroke-opacity:1" d="M 8.42462,191.604 8.42462,182.755 z" id="boundary" inkscape:connector-curvature="0" />
	<path style="fill:none;stroke:red;stroke-width:1px;stroke-linecap:butt;stroke-linejoin:miter;stroke-opacity:1" d="M 8.42462,182.755 8.42462,173.905 z" id="boundary" inkscape:connector-curvature="0" />
	<path style="fill:none;stroke:red;stroke-width:1px;stroke-linecap:butt;stroke-linejoin:miter;stroke-opacity:1" d="M 8.42462,173.905 8.42462,165.056 z" id="boundary" inkscape:connector-curvature="0" />
	<path style="fill:none;stroke:red;stroke-width:1px;stroke-linecap:butt;stroke-linejoin:miter;stroke-opacity:1" d="M 8.42462,165.056 8.42462,156.207 z" id="boundary" inkscape:connector-curvature="0" />
	<path style="fill:none;stroke:red;stroke-width:1px;stroke-linecap:butt;stroke-linejoin:miter;stroke-opacity:1" d="M 8.42462,156.207 8.42462,147.358 z" id="boundary" inkscape:connector-curvature="0" />
	<path style="fill:none;stroke:red;stroke-width:1px;stroke-linecap:butt;stroke-linejoin:miter;stroke-opacity:1" d="M 8.42462,147.358 8.42462,138.508 z" id="boundary" inkscape:connector-curvature="0" />
	<path style="fill:none;stroke:red;stroke-width:1px;stroke-linecap:butt;stroke-linejoin:miter;stroke-opacity:1" d="M 8.42462,138.508 4,130.544 z" id="boundary" inkscape:connector-curvature="0" />
	<path style="fill:none;stroke:red;stroke-width:1px;stroke-linecap:butt;stroke-linejoin:miter;stroke-opacity:1" d="M 4,130.544 4,121.695 z" id="boundary" inkscape:connector-curvature="0" />
	<path style="fill:none;stroke:red;stroke-width:1px;stroke-linecap:butt;stroke-linejoin:miter;stroke-opacity:1" d="M 4,121.695 4,112.846 z" id="boundary" inkscape:connector-curvature="0" />
	<path style="fill:none;stroke:red;stroke-width:1px;stroke-linecap:butt;stroke-linejoin:miter;stroke-opacity:1" d="M 4,112.846 4,103.996 z" id="boundary" inkscape:connector-curvature="0" />
	<path style="fill:none;stroke:red;stroke-width:1px;stroke-linecap:butt;stroke-linejoin:miter;stroke-opacity:1" d="M 4,103.996 4,95.1472 z" id="boundary" inkscape:connector-curvature="0" />
	<path style="fill:none;stroke:red;stroke-width:1px;stroke-linecap:butt;stroke-linejoin:miter;stroke-opacity:1" d="M 4,95.1472 4,86.2979 z" id="boundary" inkscape:connector-curvature="0" />
	<path style="fill:none;stroke:red;stroke-width:1px;stroke-linecap:butt;stroke-linejoin:miter;stroke-opacity:1" d="M 4,86.2979 4,77.4487 z" id="boundary" inkscape:connector-curvature="0" />
	<path style="fill:none;stroke:red;stroke-width:1px;stroke-linecap:butt;stroke-linejoin:miter;stroke-opacity:1" d="M 4,77.4487 4,68.5995 z" id="boundary" inkscape:connector-curvature="0" />
	<path style="fill:none;stroke:red;stroke-width:1px;stroke-linecap:butt;stroke-linejoin:miter;stroke-opacity:1" d="M 4,68.5995 4,59.7502 z" id="boundary" inkscape:connector-curvature="0" />
	<path style="fill:none;stroke:red;stroke-width:1px;stroke-linecap:butt;stroke-linejoin:miter;stroke-opacity:1" d="M 4,59.7502 4,50.901 z" id="boundary" inkscape:connector-curvature="0" />
	<path style="fill:none;stroke:red;stroke-width:1px;stroke-linecap:butt;stroke-linejoin:miter;stroke-opacity:1" d="M 4,50.901 4,42.0517 z" id="boundary" inkscape:connector-curvature="0" />
	<path style="fill:none;stroke:red;stroke-width:1px;stroke-linecap:butt;stroke-linejoin:miter;stroke-opacity:1" d="M 4,42.0517 4,33.2025 z" id="boundary" inkscape:connector-curvature="0" />
	<path style="fill:none;stroke:red;stroke-width:1px;stroke-linecap:butt;stroke-linejoin:miter;stroke-opacity:1" d="M 4,33.2025 4,24.3533 z" id="boundary" inkscape:connector-curvature="0" />
	<path style="fill:none;stroke:red;stroke-width:1px;stroke-linecap:butt;stroke-linejoin:miter;stroke-opacity:1" d="M 4,24.3533 4,15.504 z" id="boundary" inkscape:connector-curvature="0" />
	<path style="fill:none;stroke:red;stroke-width:1px;stroke-linecap:butt;stroke-linejoin:miter;stroke-opacity:1" d="M 4,15.504 4,6.65477 z" id="boundary" inkscape:connector-curvature="0" />
	<path style="fill:none;stroke:red;stroke-width:1px;stroke-linecap:butt;stroke-linejoin:miter;stroke-opacity:1" d="M 4,6.65477 12.8492,4 z" id="boundary" inkscape:connector-curvature="0" />
	<path style="fill:none;stroke:red;stroke-width:1px;stroke-linecap:butt;stroke-linejoin:miter;stroke-opacity:1" d="M 12.8492,4 21.6985,4 z" id="boundary" inkscape:connector-curvature="0" />
	<path style="fill:none;stroke:red;stroke-width:1px;stroke-linecap:butt;stroke-linejoin:miter;stroke-opacity:1" d="M 21.6985,4 28.7779,9.30955 z" id="boundary" inkscape:connector-curvature="0" />
	<path style="fill:none;stroke:red;stroke-width:1px;stroke-linecap:butt;stroke-linejoin:miter;stroke-opacity:1" d="M 28.7779,9.30955 35.8573,15.504 z" id="boundary" inkscape:connector-curvature="0" />
	<path style="fill:none;stroke:red;stroke-width:1px;stroke-linecap:butt;stroke-linejoin:miter;stroke-opacity:1" d="M 35.8573,15.504 42.0517,22.5834 z" id="boundary" inkscape:connector-curvature="0" />
	<path style="fill:none;stroke:red;stroke-width:1px;stroke-linecap:butt;stroke-linejoin:miter;stroke-opacity:1" d="M 42.0517,22.5834 49.1311,28.7779 z" id="boundary" inkscape:connector-curvature="0" />
	<path style="fill:none;stroke:red;stroke-width:1px;stroke-linecap:butt;stroke-linejoin:miter;stroke-opacity:1" d="M 49.1311,28.7779 55.3256,35.8573 z" id="boundary" inkscape:connector-curvature="0" />
	<path style="fill:none;stroke:red;stroke-width:1px;stroke-linecap:butt;stroke-linejoin:miter;stroke-opacity:1" d="M 55.3256,35.8573 62.405,42.0517 z" id="boundary" inkscape:connector-curvature="0" />
	<path style="fill:none;stroke:red;stroke-width:1px;stroke-linecap:butt;stroke-linejoin:miter;stroke-opacity:1" d="M 62.405,42.0517 66.8296,50.0161 z" id="boundary" inkscape:connector-curvature="0" />
	<path style="fill:none;stroke:red;stroke-width:1px;stroke-linecap:butt;stroke-linejoin:miter;stroke-opacity:1" d="M 66.8296,50.0161 72.1392,57.0955 z" id="boundary" inkscape:connector-curvature="0" />
	<path style="fill:none;stroke:red;stroke-width:1px;stroke-linecap:butt;stroke-linejoin:miter;stroke-opacity:1" d="M 72.1392,57.0955 79.2186,63.2899 z" id="boundary" inkscape:connector-curvature="0" />
	<path style="fill:none;stroke:red;stroke-width:1px;stroke-linecap:butt;stroke-linejoin:miter;stroke-opacity:1" d="M 79.2186,63.2899 84.5281,70.3693 z" id="boundary" inkscape:connector-curvature="0" />
	<path style="fill:none;stroke:red;stroke-width:1px;stroke-linecap:butt;stroke-linejoin:miter;stroke-opacity:1" d="M 84.5281,70.3693 91.6075,75.6789 z" id="boundary" inkscape:connector-curvature="0" />
	<path style="fill:none;stroke:red;stroke-width:1px;stroke-linecap:butt;stroke-linejoin:miter;stroke-opacity:1" d="M 91.6075,75.6789 97.802,82.7583 z" id="boundary" inkscape:connector-curvature="0" />
	<path style="fill:none;stroke:red;stroke-width:1px;stroke-linecap:butt;stroke-linejoin:miter;stroke-opacity:1" d="M 97.802,82.7583 104.881,88.9527 z" id="boundary" inkscape:connector-curvature="0" />
	<path style="fill:none;stroke:red;stroke-width:1px;stroke-linecap:butt;stroke-linejoin:miter;stroke-opacity:1" d="M 104.881,88.9527 111.076,96.0321 z" id="boundary" inkscape:connector-curvature="0" />
	<path style="fill:none;stroke:red;stroke-width:1px;stroke-linecap:butt;stroke-linejoin:miter;stroke-opacity:1" d="M 111.076,96.0321 118.155,102.227 z" id="boundary" inkscape:connector-curvature="0" />
	<path style="fill:none;stroke:red;stroke-width:1px;stroke-linecap:butt;stroke-linejoin:miter;stroke-opacity:1" d="M 118.155,102.227 124.35,109.306 z" id="boundary" inkscape:connector-curvature="0" />
	<path style="fill:none;stroke:red;stroke-width:1px;stroke-linecap:butt;stroke-linejoin:miter;stroke-opacity:1" d="M 124.35,109.306 131.429,115.5 z" id="boundary" inkscape:connector-curvature="0" />
	<path style="fill:none;stroke:red;stroke-width:1px;stroke-linecap:butt;stroke-linejoin:miter;stroke-opacity:1" d="M 131.429,115.5 134.969,124.35 z" id="boundary" inkscape:connector-curvature="0" />
	<path style="fill:none;stroke:red;stroke-width:1px;stroke-linecap:butt;stroke-linejoin:miter;stroke-opacity:1" d="M 134.969,124.35 142.048,130.544 z" id="boundary" inkscape:connector-curvature="0" />
	<path style="fill:none;stroke:red;stroke-width:1px;stroke-linecap:butt;stroke-linejoin:miter;stroke-opacity:1" d="M 142.048,130.544 146.473,138.508 z" id="boundary" inkscape:connector-curvature="0" />
	<path style="fill:none;stroke:red;stroke-width:1px;stroke-linecap:butt;stroke-linejoin:miter;stroke-opacity:1" d="M 146.473,138.508 150.897,146.473 z" id="boundary" inkscape:connector-curvature="0" />
	<path style="fill:none;stroke:red;stroke-width:1px;stroke-linecap:butt;stroke-linejoin:miter;stroke-opacity:1" d="M 150.897,146.473 152.667,155.322 z" id="boundary" inkscape:connector-curvature="0" />
	<path style="fill:none;stroke:red;stroke-width:1px;stroke-linecap:butt;stroke-linejoin:miter;stroke-opacity:1" d="M 152.667,155.322 157.092,163.286 z" id="boundary" inkscape:connector-curvature="0" />
	<path style="fill:none;stroke:red;stroke-width:1px;stroke-linecap:butt;stroke-linejoin:miter;stroke-opacity:1" d="M 157.092,163.286 159.747,172.136 z" id="boundary" inkscape:connector-curvature="0" />
	<path style="fill:none;stroke:red;stroke-width:1px;stroke-linecap:butt;stroke-linejoin:miter;stroke-opacity:1" d="M 159.747,172.136 164.171,180.1 z" id="boundary" inkscape:connector-curvature="0" />
	<path style="fill:none;stroke:red;stroke-width:1px;stroke-linecap:butt;stroke-linejoin:miter;stroke-opacity:1" d="M 164.171,180.1 164.171,188.949 z" id="boundary" inkscape:connector-curvature="0" />
	<path style="fill:none;stroke:red;stroke-width:1px;stroke-linecap:butt;stroke-linejoin:miter;stroke-opacity:1" d="M 164.171,188.949 168.596,196.913 z" id="boundary" inkscape:connector-curvature="0" />
	<path style="fill:none;stroke:red;stroke-width:1px;stroke-linecap:butt;stroke-linejoin:miter;stroke-opacity:1" d="M 168.596,196.913 173.021,204.878 z" id="boundary" inkscape:connector-curvature="0" />
	<path style="fill:none;stroke:red;stroke-width:1px;stroke-linecap:butt;stroke-linejoin:miter;stroke-opacity:1" d="M 173.021,204.878 177.445,212.842 z" id="boundary" inkscape:connector-curvature="0" />
	<path style="fill:none;stroke:red;stroke-width:1px;stroke-linecap:butt;stroke-linejoin:miter;stroke-opacity:1" d="M 177.445,212.842 179.215,221.691 z" id="boundary" inkscape:connector-curvature="0" />
	<path style="fill:none;stroke:red;stroke-width:1px;stroke-linecap:butt;stroke-linejoin:miter;stroke-opacity:1" d="M 179.215,221.691 183.64,229.656 z" id="boundary" inkscape:connector-curvature="0" />
	<path style="fill:none;stroke:red;stroke-width:1px;stroke-linecap:butt;stroke-linejoin:miter;stroke-opacity:1" d="M 183.64,229.656 186.294,238.505 z" id="boundary" inkscape:connector-curvature="0" />
	<path style="fill:none;stroke:red;stroke-width:1px;stroke-linecap:butt;stroke-linejoin:miter;stroke-opacity:1" d="M 186.294,238.505 190.719,246.469 z" id="boundary" inkscape:connector-curvature="0" />
	<path style="fill:none;stroke:red;stroke-width:1px;stroke-linecap:butt;stroke-linejoin:miter;stroke-opacity:1" d="M 190.719,246.469 195.144,254.434 z" id="boundary" inkscape:connector-curvature="0" />
	<path style="fill:none;stroke:red;stroke-width:1px;stroke-linecap:butt;stroke-linejoin:miter;stroke-opacity:1" d="M 195.144,254.434 198.683,263.283 z" id="boundary" inkscape:connector-curvature="0" />
	<path style="fill:none;stroke:red;stroke-width:1px;stroke-linecap:butt;stroke-linejoin:miter;stroke-opacity:1" d="M 198.683,263.283 199.568,272.132 z" id="boundary" inkscape:connector-curvature="0" />
	<path style="fill:none;stroke:red;stroke-width:1px;stroke-linecap:butt;stroke-linejoin:miter;stroke-opacity:1" d="M 199.568,272.132 203.993,280.096 z" id="boundary" inkscape:connector-curvature="0" />
	<path style="fill:none;stroke:red;stroke-width:1px;stroke-linecap:butt;stroke-linejoin:miter;stroke-opacity:1" d="M 203.993,280.096 208.417,288.061 z" id="boundary" inkscape:connector-curvature="0" />
	<path style="fill:none;stroke:red;stroke-width:1px;stroke-linecap:butt;stroke-linejoin:miter;stroke-opacity:1" d="M 208.417,288.061 210.187,296.91 z" id="boundary" inkscape:connector-curvature="0" />
	<path style="fill:none;stroke:red;stroke-width:1px;stroke-linecap:butt;stroke-linejoin:miter;stroke-opacity:1" d="M 210.187,296.91 214.612,304.874 z" id="boundary" inkscape:connector-curvature="0" />
	<path style="fill:none;stroke:red;stroke-width:1px;stroke-linecap:butt;stroke-linejoin:miter;stroke-opacity:1" d="M 214.612,304.874 217.267,313.723 z" id="boundary" inkscape:connector-curvature="0" />
	<path style="fill:none;stroke:red;stroke-width:1px;stroke-linecap:butt;stroke-linejoin:miter;stroke-opacity:1" d="M 217.267,313.723 221.691,321.688 z" id="boundary" inkscape:connector-curvature="0" />
	<path style="fill:none;stroke:red;stroke-width:1px;stroke-linecap:butt;stroke-linejoin:miter;stroke-opacity:1" d="M 221.691,321.688 226.116,329.652 z" id="boundary" inkscape:connector-curvature="0" />
	<path style="fill:none;stroke:red;stroke-width:1px;stroke-linecap:butt;stroke-linejoin:miter;stroke-opacity:1" d="M 226.116,329.652 229.656,338.501 z" id="boundary" inkscape:connector-curvature="0" />
	<path style="fill:none;stroke:red;stroke-width:1px;stroke-linecap:butt;stroke-linejoin:miter;stroke-opacity:1" d="M 229.656,338.501 234.08,346.466 z" id="boundary" inkscape:connector-curvature="0" />
	<path style="fill:none;stroke:red;stroke-width:1px;stroke-linecap:butt;stroke-linejoin:miter;stroke-opacity:1" d="M 234.08,346.466 237.62,355.315 z" id="boundary" inkscape:connector-curvature="0" />
	<path style="fill:none;stroke:red;stroke-width:1px;stroke-linecap:butt;stroke-linejoin:miter;stroke-opacity:1" d="M 237.62,355.315 239.39,364.164 z" id="boundary" inkscape:connector-curvature="0" />
	<path style="fill:none;stroke:red;stroke-width:1px;stroke-linecap:butt;stroke-linejoin:miter;stroke-opacity:1" d="M 239.39,364.164 244.699,371.244 z" id="boundary" inkscape:connector-curvature="0" />
	<path style="fill:none;stroke:red;stroke-width:1px;stroke-linecap:butt;stroke-linejoin:miter;stroke-opacity:1" d="M 244.699,371.244 248.239,380.093 z" id="boundary" inkscape:connector-curvature="0" />
	<path style="fill:none;stroke:red;stroke-width:1px;stroke-linecap:butt;stroke-linejoin:miter;stroke-opacity:1" d="M 248.239,380.093 252.664,388.057 z" id="boundary" inkscape:connector-curvature="0" />
	<path style="fill:none;stroke:red;stroke-width:1px;stroke-linecap:butt;stroke-linejoin:miter;stroke-opacity:1" d="M 252.664,388.057 252.664,396.906 z" id="boundary" inkscape:connector-curvature="0" />
	<path style="fill:none;stroke:red;stroke-width:1px;stroke-linecap:butt;stroke-linejoin:miter;stroke-opacity:1" d="M 252.664,396.906 257.088,404.871 z" id="boundary" inkscape:connector-curvature="0" />
	<path style="fill:none;stroke:red;stroke-width:1px;stroke-linecap:butt;stroke-linejoin:miter;stroke-opacity:1" d="M 257.088,404.871 261.513,412.835 z" id="boundary" inkscape:connector-curvature="0" />
	<path style="fill:none;stroke:red;stroke-width:1px;stroke-linecap:butt;stroke-linejoin:miter;stroke-opacity:1" d="M 261.513,412.835 264.168,421.684 z" id="boundary" inkscape:connector-curvature="0" />
	<path style="fill:none;stroke:red;stroke-width:1px;stroke-linecap:butt;stroke-linejoin:miter;stroke-opacity:1" d="M 264.168,421.684 268.592,429.649 z" id="boundary" inkscape:connector-curvature="0" />
	<path style="fill:none;stroke:red;stroke-width:1px;stroke-linecap:butt;stroke-linejoin:miter;stroke-opacity:1" d="M 268.592,429.649 270.362,438.498 z" id="boundary" inkscape:connector-curvature="0" />
	<path style="fill:none;stroke:red;stroke-width:1px;stroke-linecap:butt;stroke-linejoin:miter;stroke-opacity:1" d="M 270.362,438.498 274.787,446.462 z" id="boundary" inkscape:connector-curvature="0" />
	<path style="fill:none;stroke:red;stroke-width:1px;stroke-linecap:butt;stroke-linejoin:miter;stroke-opacity:1" d="M 274.787,446.462 279.211,454.426 z" id="boundary" inkscape:connector-curvature="0" />
	<path style="fill:none;stroke:red;stroke-width:1px;stroke-linecap:butt;stroke-linejoin:miter;stroke-opacity:1" d="M 279.211,454.426 283.636,462.391 z" id="boundary" inkscape:connector-curvature="0" />
	<path style="fill:none;stroke:red;stroke-width:1px;stroke-linecap:butt;stroke-linejoin:miter;stroke-opacity:1" d="M 283.636,462.391 283.636,471.24 z" id="boundary" inkscape:connector-curvature="0" />
	<path style="fill:none;stroke:red;stroke-width:1px;stroke-linecap:butt;stroke-linejoin:miter;stroke-opacity:1" d="M 283.636,471.24 288.061,479.204 z" id="boundary" inkscape:connector-curvature="0" />
	<path style="fill:none;stroke:red;stroke-width:1px;stroke-linecap:butt;stroke-linejoin:miter;stroke-opacity:1" d="M 288.061,479.204 292.485,487.169 z" id="boundary" inkscape:connector-curvature="0" />
	<path style="fill:none;stroke:red;stroke-width:1px;stroke-linecap:butt;stroke-linejoin:miter;stroke-opacity:1" d="M 292.485,487.169 296.91,495.133 z" id="boundary" inkscape:connector-curvature="0" />
	<path style="fill:none;stroke:red;stroke-width:1px;stroke-linecap:butt;stroke-linejoin:miter;stroke-opacity:1" d="M 296.91,495.133 296.91,503.982 z" id="boundary" inkscape:connector-curvature="0" />
	<path style="fill:none;stroke:red;stroke-width:1px;stroke-linecap:butt;stroke-linejoin:miter;stroke-opacity:1" d="M 296.91,503.982 301.335,511.946 z" id="boundary" inkscape:connector-curvature="0" />
	<path style="fill:none;stroke:red;stroke-width:1px;stroke-linecap:butt;stroke-linejoin:miter;stroke-opacity:1" d="M 301.335,511.946 305.759,519.911 z" id="boundary" inkscape:connector-curvature="0" />
	<path style="fill:none;stroke:red;stroke-width:1px;stroke-linecap:butt;stroke-linejoin:miter;stroke-opacity:1" d="M 305.759,519.911 310.184,527.875 z" id="boundary" inkscape:connector-curvature="0" />
	<path style="fill:none;stroke:red;stroke-width:1px;stroke-linecap:butt;stroke-linejoin:miter;stroke-opacity:1" d="M 310.184,527.875 314.608,535.839 z" id="boundary" inkscape:connector-curvature="0" />
	<path style="fill:none;stroke:red;stroke-width:1px;stroke-linecap:butt;stroke-linejoin:miter;stroke-opacity:1" d="M 314.608,535.839 316.378,544.689 z" id="boundary" inkscape:connector-curvature="0" />
	<path style="fill:none;stroke:red;stroke-width:1px;stroke-linecap:butt;stroke-linejoin:miter;stroke-opacity:1" d="M 316.378,544.689 320.803,552.653 z" id="boundary" inkscape:connector-curvature="0" />
	<path style="fill:none;stroke:red;stroke-width:1px;stroke-linecap:butt;stroke-linejoin:miter;stroke-opacity:1" d="M 320.803,552.653 323.458,561.502 z" id="boundary" inkscape:connector-curvature="0" />
	<path style="fill:none;stroke:red;stroke-width:1px;stroke-linecap:butt;stroke-linejoin:miter;stroke-opacity:1" d="M 323.458,561.502 327.882,569.467 z" id="boundary" inkscape:connector-curvature="0" />
	<path style="fill:none;stroke:red;stroke-width:1px;stroke-linecap:butt;stroke-linejoin:miter;stroke-opacity:1" d="M 327.882,569.467 332.307,577.431 z" id="boundary" inkscape:connector-curvature="0" />
	<path style="fill:none;stroke:red;stroke-width:1px;stroke-linecap:butt;stroke-linejoin:miter;stroke-opacity:1" d="M 332.307,577.431 335.847,586.28 z" id="boundary" inkscape:connector-curvature="0" />
	<path style="fill:none;stroke:red;stroke-width:1px;stroke-linecap:butt;stroke-linejoin:miter;stroke-opacity:1" d="M 335.847,586.28 340.271,594.244 z" id="boundary" inkscape:connector-curvature="0" />
	<path style="fill:none;stroke:red;stroke-width:1px;stroke-linecap:butt;stroke-linejoin:miter;stroke-opacity:1" d="M 340.271,594.244 341.156,603.094 z" id="boundary" inkscape:connector-curvature="0" />
	<path style="fill:none;stroke:red;stroke-width:1px;stroke-linecap:butt;stroke-linejoin:miter;stroke-opacity:1" d="M 341.156,603.094 345.581,611.058 z" id="boundary" inkscape:connector-curvature="0" />
	<path style="fill:none;stroke:red;stroke-width:1px;stroke-linecap:butt;stroke-linejoin:miter;stroke-opacity:1" d="M 345.581,611.058 347.351,619.907 z" id="boundary" inkscape:connector-curvature="0" />
	<path style="fill:none;stroke:red;stroke-width:1px;stroke-linecap:butt;stroke-linejoin:miter;stroke-opacity:1" d="M 347.351,619.907 351.775,627.872 z" id="boundary" inkscape:connector-curvature="0" />
	<path style="fill:none;stroke:red;stroke-width:1px;stroke-linecap:butt;stroke-linejoin:miter;stroke-opacity:1" d="M 351.775,627.872 354.43,636.721 z" id="boundary" inkscape:connector-curvature="0" />
	<path style="fill:none;stroke:red;stroke-width:1px;stroke-linecap:butt;stroke-linejoin:miter;stroke-opacity:1" d="M 354.43,636.721 358.855,644.685 z" id="boundary" inkscape:connector-curvature="0" />
	<path style="fill:none;stroke:red;stroke-width:1px;stroke-linecap:butt;stroke-linejoin:miter;stroke-opacity:1" d="M 358.855,644.685 363.279,652.649 z" id="boundary" inkscape:connector-curvature="0" />
	<path style="fill:none;stroke:red;stroke-width:1px;stroke-linecap:butt;stroke-linejoin:miter;stroke-opacity:1" d="M 363.279,652.649 367.704,660.614 z" id="boundary" inkscape:connector-curvature="0" />
	<path style="fill:none;stroke:red;stroke-width:1px;stroke-linecap:butt;stroke-linejoin:miter;stroke-opacity:1" d="M 367.704,660.614 370.359,669.463 z" id="boundary" inkscape:connector-curvature="0" />
	<path style="fill:none;stroke:red;stroke-width:1px;stroke-linecap:butt;stroke-linejoin:miter;stroke-opacity:1" d="M 370.359,669.463 374.783,677.427 z" id="boundary" inkscape:connector-curvature="0" />
	<path style="fill:none;stroke:red;stroke-width:1px;stroke-linecap:butt;stroke-linejoin:miter;stroke-opacity:1" d="M 374.783,677.427 376.553,686.277 z" id="boundary" inkscape:connector-curvature="0" />
	<path style="fill:none;stroke:red;stroke-width:1px;stroke-linecap:butt;stroke-linejoin:miter;stroke-opacity:1" d="M 376.553,686.277 380.978,694.241 z" id="boundary" inkscape:connector-curvature="0" />
	<path style="fill:none;stroke:red;stroke-width:1px;stroke-linecap:butt;stroke-linejoin:miter;stroke-opacity:1" d="M 380.978,694.241 385.402,702.205 z" id="boundary" inkscape:connector-curvature="0" />
	<path style="fill:none;stroke:red;stroke-width:1px;stroke-linecap:butt;stroke-linejoin:miter;stroke-opacity:1" d="M 385.402,702.205 389.827,710.169 z" id="boundary" inkscape:connector-curvature="0" />
	<path style="fill:none;stroke:red;stroke-width:1px;stroke-linecap:butt;stroke-linejoin:miter;stroke-opacity:1" d="M 389.827,710.169 389.827,719.019 z" id="boundary" inkscape:connector-curvature="0" />
	<path style="fill:none;stroke:red;stroke-width:1px;stroke-linecap:butt;stroke-linejoin:miter;stroke-opacity:1" d="M 389.827,719.019 394.252,726.983 z" id="boundary" inkscape:connector-curvature="0" />
	<path style="fill:none;stroke:red;stroke-width:1px;stroke-linecap:butt;stroke-linejoin:miter;stroke-opacity:1" d="M 394.252,726.983 398.676,734.947 z" id="boundary" inkscape:connector-curvature="0" />
	<path style="fill:none;stroke:red;stroke-width:1px;stroke-linecap:butt;stroke-linejoin:miter;stroke-opacity:1" d="M 398.676,734.947 403.101,742.912 z" id="boundary" inkscape:connector-curvature="0" />
	<path style="fill:none;stroke:red;stroke-width:1px;stroke-linecap:butt;stroke-linejoin:miter;stroke-opacity:1" d="M 403.101,742.912 407.525,750.876 z" id="boundary" inkscape:connector-curvature="0" />
	<path style="fill:none;stroke:red;stroke-width:1px;stroke-linecap:butt;stroke-linejoin:miter;stroke-opacity:1" d="M 407.525,750.876 411.95,758.84 z" id="boundary" inkscape:connector-curvature="0" />
	<path style="fill:none;stroke:red;stroke-width:1px;stroke-linecap:butt;stroke-linejoin:miter;stroke-opacity:1" d="M 411.95,758.84 411.95,767.69 z" id="boundary" inkscape:connector-curvature="0" />
	<path style="fill:none;stroke:red;stroke-width:1px;stroke-linecap:butt;stroke-linejoin:miter;stroke-opacity:1" d="M 411.95,767.69 416.375,775.654 z" id="boundary" inkscape:connector-curvature="0" />
	<path style="fill:none;stroke:red;stroke-width:1px;stroke-linecap:butt;stroke-linejoin:miter;stroke-opacity:1" d="M 416.375,775.654 420.799,783.618 z" id="boundary" inkscape:connector-curvature="0" />
	<path style="fill:none;stroke:red;stroke-width:1px;stroke-linecap:butt;stroke-linejoin:miter;stroke-opacity:1" d="M 420.799,783.618 422.569,792.467 z" id="boundary" inkscape:connector-curvature="0" />
	<path style="fill:none;stroke:red;stroke-width:1px;stroke-linecap:butt;stroke-linejoin:miter;stroke-opacity:1" d="M 422.569,792.467 426.994,800.432 z" id="boundary" inkscape:connector-curvature="0" />
	<path style="fill:none;stroke:red;stroke-width:1px;stroke-linecap:butt;stroke-linejoin:miter;stroke-opacity:1" d="M 426.994,800.432 429.649,809.281 z" id="boundary" inkscape:connector-curvature="0" />
	<path style="fill:none;stroke:red;stroke-width:1px;stroke-linecap:butt;stroke-linejoin:miter;stroke-opacity:1" d="M 429.649,809.281 434.073,817.245 z" id="boundary" inkscape:connector-curvature="0" />
	<path style="fill:none;stroke:red;stroke-width:1px;stroke-linecap:butt;stroke-linejoin:miter;stroke-opacity:1" d="M 434.073,817.245 438.498,825.21 z" id="boundary" inkscape:connector-curvature="0" />
	<path style="fill:none;stroke:red;stroke-width:1px;stroke-linecap:butt;stroke-linejoin:miter;stroke-opacity:1" d="M 438.498,825.21 442.037,834.059 z" id="boundary" inkscape:connector-curvature="0" />
	<path style="fill:none;stroke:red;stroke-width:1px;stroke-linecap:butt;stroke-linejoin:miter;stroke-opacity:1" d="M 442.037,834.059 442.922,842.908 z" id="boundary" inkscape:connector-curvature="0" />
	<path style="fill:none;stroke:red;stroke-width:1px;stroke-linecap:butt;stroke-linejoin:miter;stroke-opacity:1" d="M 442.922,842.908 447.347,850.872 z" id="boundary" inkscape:connector-curvature="0" />
	<path style="fill:none;stroke:red;stroke-width:1px;stroke-linecap:butt;stroke-linejoin:miter;stroke-opacity:1" d="M 447.347,850.872 451.772,858.837 z" id="boundary" inkscape:connector-curvature="0" />
	<path style="fill:none;stroke:red;stroke-width:1px;stroke-linecap:butt;stroke-linejoin:miter;stroke-opacity:1" d="M 451.772,858.837 453.541,867.686 z" id="boundary" inkscape:connector-curvature="0" />
	<path style="fill:none;stroke:red;stroke-width:1px;stroke-linecap:butt;stroke-linejoin:miter;stroke-opacity:1" d="M 453.541,867.686 457.966,875.65 z" id="boundary" inkscape:connector-curvature="0" />
	<path style="fill:none;stroke:red;stroke-width:1px;stroke-linecap:butt;stroke-linejoin:miter;stroke-opacity:1" d="M 457.966,875.65 460.621,884.5 z" id="boundary" inkscape:connector-curvature="0" />
	<path style="fill:none;stroke:red;stroke-width:1px;stroke-linecap:butt;stroke-linejoin:miter;stroke-opacity:1" d="M 460.621,884.5 465.045,892.464 z" id="boundary" inkscape:connector-curvature="0" />
	<path style="fill:none;stroke:red;stroke-width:1px;stroke-linecap:butt;stroke-linejoin:miter;stroke-opacity:1" d="M 465.045,892.464 465.045,901.313 z" id="boundary" inkscape:connector-curvature="0" />
	<path style="fill:none;stroke:red;stroke-width:1px;stroke-linecap:butt;stroke-linejoin:miter;stroke-opacity:1" d="M 465.045,901.313 465.045,910.162 z" id="boundary" inkscape:connector-curvature="0" />
	<path style="fill:none;stroke:red;stroke-width:1px;stroke-linecap:butt;stroke-linejoin:miter;stroke-opacity:1" d="M 465.045,910.162 465.045,919.012 z" id="boundary" inkscape:connector-curvature="0" />
	<circle cx="4" cy="6.65477" r="4" fill="#0" id="circle0"/>
	<circle cx="4" cy="15.504" r="4" fill="#0" id="circle1"/>
	<circle cx="4" cy="24.3533" r="4" fill="#0" id="circle2"/>
	<circle cx="4" cy="33.2025" r="4" fill="#0" id="circle3"/>
	<circle cx="4" cy="42.0517" r="4" fill="#0" id="circle4"/>
	<circle cx="4" cy="50.901" r="4" fill="#0" id="circle5"/>
	<circle cx="4" cy="59.7502" r="4" fill="#0" id="circle6"/>
	<circle cx="4" cy="68.5995" r="4" fill="#0" id="circle7"/>
	<circle cx="4" cy="77.4487" r="4" fill="#0" id="circle8"/>
	<circle cx="4" cy="86.2979" r="4" fill="#0" id="circle9"/>
	<circle cx="4" cy="95.1472" r="4" fill="#0" id="circle10"/>
	<circle cx="4" cy="103.996" r="4" fill="#0" id="circle11"/>
	<circle cx="4" cy="112.846" r="4" fill="#0" id="circle12"/>
	<circle cx="4" cy="121.695" r="4" fill="#0" id="circle13"/>
	<circle cx="4" cy="130.544" r="4" fill="#0" id="circle14"/>
	<circle cx="8.42462" cy="138.508" r="4" fill="#0" id="circle15"/>
	<circle cx="8.42462" cy="147.358" r="4" fill="#0" id="circle16"/>
	<circle cx="8.42462" cy="156.207" r="4" fill="#0" id="circle17"/>
	<circle cx="8.42462" cy="165.056" r="4" fill="#0" id="circle18"/>
	<circle cx="8.42462" cy="173.905" r="4" fill="#0" id="circle19"/>
	<circle cx="8.42462" cy="182.755" r="4" fill="#0" id="circle20"/>
	<circle cx="8.42462" cy="191.604" r="4" fill="#0" id="circle21"/>
	<circle cx="12.8492" cy="4" r="4" fill="#0" id="circle22"/>
	<circle cx="12.8492" cy="199.568" r="4" fill="#0" id="circle23"/>
	<circle cx="12.8492" cy="208.417" r="4" fill="#0" id="circle24"/>
	<circle cx="15.504" cy="217.267" r="4" fill="#0" id="circle25"/>
	<circle cx="17.2739" cy="226.116" r="4" fill="#0" id="circle26"/>
	<circle cx="19.9286" cy="234.965" r="4" fill="#0" id="circle27"/>
	<circle cx="21.6985" cy="4" r="4" fill="#0" id="circle28"/>
	<circle cx="21.6985" cy="243.814" r="4" fill="#0" id="circle29"/>
	<circle cx="26.1231" cy="251.779" r="4" fill="#0" id="circle30"/>
	<circle cx="28.7779" cy="9.30955" r="4" fill="#0" id="circle31"/>
	<circle cx="30.5477" cy="259.743" r="4" fill="#0" id="circle32"/>
	<circle cx="31.4326" cy="268.592" r="4" fill="#0" id="circle33"/>
	<circle cx="35.8573" cy="15.504" r="4" fill="#0" id="circle34"/>
	<circle cx="35.8573" cy="276.557" r="4" fill="#0" id="circle35"/>
	<circle cx="39.397" cy="285.406" r="4" fill="#0" id="circle36"/>
	<circle cx="42.0517" cy="22.5834" r="4" fill="#0" id="circle37"/>
	<circle cx="43.8216" cy="293.37" r="4" fill="#0" id="circle38"/>
	<circle cx="48.2462" cy="301.335" r="4" fill="#0" id="circle39"/>
	<circle cx="49.1311" cy="28.7779" r="4" fill="#0" id="circle40"/>
	<circle cx="50.901" cy="310.184" r="4" fill="#0" id="circle41"/>
	<circle cx="55.3256" cy="35.8573" r="4" fill="#0" id="circle42"/>
	<circle cx="55.3256" cy="318.148" r="4" fill="#0" id="circle43"/>
	<circle cx="57.0955" cy="326.997" r="4" fill="#0" id="circle44"/>
	<circle cx="61.5201" cy="334.962" r="4" fill="#0" id="circle45"/>
	<circle cx="62.405" cy="42.0517" r="4" fill="#0" id="circle46"/>
	<circle cx="65.9447" cy="342.926" r="4" fill="#0" id="circle47"/>
	<circle cx="65.9447" cy="351.775" r="4" fill="#0" id="circle48"/>
	<circle cx="66.8296" cy="50.0161" r="4" fill="#0" id="circle49"/>
	<circle cx="70.3693" cy="359.74" r="4" fill="#0" id="circle50"/>
	<circle cx="72.1392" cy="57.0955" r="4" fill="#0" id="circle51"/>
	<circle cx="74.7939" cy="367.704" r="4" fill="#0" id="circle52"/>
	<circle cx="74.7939" cy="376.553" r="4" fill="#0" id="circle53"/>
	<circle cx="79.2186" cy="63.2899" r="4" fill="#0" id="circle54"/>
	<circle cx="79.2186" cy="384.517" r="4" fill="#0" id="circle55"/>
	<circle cx="83.6432" cy="392.482" r="4" fill="#0" id="circle56"/>
	<circle cx="84.5281" cy="70.3693" r="4" fill="#0" id="circle57"/>
	<circle cx="88.0678" cy="400.446" r="4" fill="#0" id="circle58"/>
	<circle cx="88.0678" cy="409.295" r="4" fill="#0" id="circle59"/>
	<circle cx="91.6075" cy="75.6789" r="4" fill="#0" id="circle60"/>
	<circle cx="92.4924" cy="417.26" r="4" fill="#0" id="circle61"/>
	<circle cx="96.917" cy="425.224" r="4" fill="#0" id="circle62"/>
	<circle cx="97.802" cy="82.7583" r="4" fill="#0" id="circle63"/>
	<circle cx="99.5718" cy="434.073" r="4" fill="#0" id="circle64"/>
	<circle cx="103.996" cy="442.037" r="4" fill="#0" id="circle65"/>
	<circle cx="104.881" cy="88.9527" r="4" fill="#0" id="circle66"/>
	<circle cx="105.766" cy="450.887" r="4" fill="#0" id="circle67"/>
	<circle cx="107.536" cy="459.736" r="4" fill="#0" id="circle68"/>
	<circle cx="111.076" cy="96.0321" r="4" fill="#0" id="circle69"/>
	<circle cx="111.961" cy="467.7" r="4" fill="#0" id="circle70"/>
	<circle cx="115.5" cy="476.55" r="4" fill="#0" id="circle71"/>
	<circle cx="118.155" cy="102.227" r="4" fill="#0" id="circle72"/>
	<circle cx="119.04" cy="485.399" r="4" fill="#0" id="circle73"/>
	<circle cx="123.465" cy="493.363" r="4" fill="#0" id="circle74"/>
	<circle cx="124.35" cy="109.306" r="4" fill="#0" id="circle75"/>
	<circle cx="127.889" cy="501.327" r="4" fill="#0" id="circle76"/>
	<circle cx="131.429" cy="115.5" r="4" fill="#0" id="circle77"/>
	<circle cx="132.314" cy="509.292" r="4" fill="#0" id="circle78"/>
	<circle cx="132.314" cy="518.141" r="4" fill="#0" id="circle79"/>
	<circle cx="134.969" cy="124.35" r="4" fill="#0" id="circle80"/>
	<circle cx="136.739" cy="526.105" r="4" fill="#0" id="circle81"/>
	<circle cx="141.163" cy="534.07" r="4" fill="#0" id="circle82"/>
	<circle cx="142.048" cy="130.544" r="4" fill="#0" id="circle83"/>
	<circle cx="145.588" cy="542.034" r="4" fill="#0" id="circle84"/>
	<circle cx="145.588" cy="550.883" r="4" fill="#0" id="circle85"/>
	<circle cx="146.473" cy="138.508" r="4" fill="#0" id="circle86"/>
	<circle cx="150.012" cy="558.847" r="4" fill="#0" id="circle87"/>
	<circle cx="150.897" cy="146.473" r="4" fill="#0" id="circle88"/>
	<circle cx="152.667" cy="155.322" r="4" fill="#0" id="circle89"/>
	<circle cx="154.437" cy="566.812" r="4" fill="#0" id="circle90"/>
	<circle cx="157.092" cy="163.286" r="4" fill="#0" id="circle91"/>
	<circle cx="157.092" cy="575.661" r="4" fill="#0" id="circle92"/>
	<circle cx="158.862" cy="584.51" r="4" fill="#0" id="circle93"/>
	<circle cx="159.747" cy="172.136" r="4" fill="#0" id="circle94"/>
	<circle cx="163.286" cy="592.475" r="4" fill="#0" id="circle95"/>
	<circle cx="164.171" cy="180.1" r="4" fill="#0" id="circle96"/>
	<circle cx="164.171" cy="188.949" r="4" fill="#0" id="circle97"/>
	<circle cx="167.711" cy="600.439" r="4" fill="#0" id="circle98"/>
	<circle cx="168.596" cy="196.913" r="4" fill="#0" id="circle99"/>
	<circle cx="172.136" cy="608.403" r="4" fill="#0" id="circle100"/>
	<circle cx="173.021" cy="204.878" r="4" fill="#0" id="circle101"/>
	<circle cx="176.56" cy="616.368" r="4" fill="#0" id="circle102"/>
	<circle cx="176.56" cy="625.217" r="4" fill="#0" id="circle103"/>
	<circle cx="177.445" cy="212.842" r="4" fill="#0" id="circle104"/>
	<circle cx="179.215" cy="221.691" r="4" fill="#0" id="circle105"/>
	<circle cx="180.985" cy="633.181" r="4" fill="#0" id="circle106"/>
	<circle cx="183.64" cy="229.656" r="4" fill="#0" id="circle107"/>
	<circle cx="183.64" cy="642.03" r="4" fill="#0" id="circle108"/>
	<circle cx="186.294" cy="238.505" r="4" fill="#0" id="circle109"/>
	<circle cx="188.064" cy="649.995" r="4" fill="#0" id="circle110"/>
	<circle cx="189.834" cy="658.844" r="4" fill="#0" id="circle111"/>
	<circle cx="190.719" cy="246.469" r="4" fill="#0" id="circle112"/>
	<circle cx="194.259" cy="666.808" r="4" fill="#0" id="circle113"/>
	<circle cx="195.144" cy="254.434" r="4" fill="#0" id="circle114"/>
	<circle cx="198.683" cy="263.283" r="4" fill="#0" id="circle115"/>
	<circle cx="198.683" cy="674.773" r="4" fill="#0" id="circle116"/>
	<circle cx="198.683" cy="683.622" r="4" fill="#0" id="circle117"/>
	<circle cx="199.568" cy="272.132" r="4" fill="#0" id="circle118"/>
	<circle cx="203.108" cy="691.586" r="4" fill="#0" id="circle119"/>
	<circle cx="203.993" cy="280.096" r="4" fill="#0" id="circle120"/>
	<circle cx="207.533" cy="699.55" r="4" fill="#0" id="circle121"/>
	<circle cx="208.417" cy="288.061" r="4" fill="#0" id="circle122"/>
	<circle cx="210.187" cy="296.91" r="4" fill="#0" id="circle123"/>
	<circle cx="210.187" cy="708.4" r="4" fill="#0" id="circle124"/>
	<circle cx="214.612" cy="304.874" r="4" fill="#0" id="circle125"/>
	<circle cx="214.612" cy="716.364" r="4" fill="#0" id="circle126"/>
	<circle cx="217.267" cy="313.723" r="4" fill="#0" id="circle127"/>
	<circle cx="218.152" cy="725.213" r="4" fill="#0" id="circle128"/>
	<circle cx="221.691" cy="321.688" r="4" fill="#0" id="circle129"/>
	<circle cx="222.576" cy="733.178" r="4" fill="#0" id="circle130"/>
	<circle cx="226.116" cy="329.652" r="4" fill="#0" id="circle131"/>
	<circle cx="226.116" cy="742.027" r="4" fill="#0" id="circle132"/>
	<circle cx="229.656" cy="338.501" r="4" fill="#0" id="circle133"/>
	<circle cx="229.656" cy="750.876" r="4" fill="#0" id="circle134"/>
	<circle cx="234.08" cy="346.466" r="4" fill="#0" id="circle135"/>
	<circle cx="234.08" cy="758.84" r="4" fill="#0" id="circle136"/>
	<circle cx="237.62" cy="355.315" r="4" fill="#0" id="circle137"/>
	<circle cx="238.505" cy="766.805" r="4" fill="#0" id="circle138"/>
	<circle cx="238.505" cy="775.654" r="4" fill="#0" id="circle139"/>
	<circle cx="239.39" cy="364.164" r="4" fill="#0" id="circle140"/>
	<circle cx="242.93" cy="783.618" r="4" fill="#0" id="circle141"/>
	<circle cx="244.699" cy="371.244" r="4" fill="#0" id="circle142"/>
	<circle cx="245.584" cy="792.467" r="4" fill="#0" id="circle143"/>
	<circle cx="248.239" cy="380.093" r="4" fill="#0" id="circle144"/>
	<circle cx="250.009" cy="800.432" r="4" fill="#0" id="circle145"/>
	<circle cx="251.779" cy="809.281" r="4" fill="#0" id="circle146"/>
	<circle cx="252.664" cy="388.057" r="4" fill="#0" id="circle147"/>
	<circle cx="252.664" cy="396.906" r="4" fill="#0" id="circle148"/>
	<circle cx="256.203" cy="817.245" r="4" fill="#0" id="circle149"/>
	<circle cx="257.088" cy="404.871" r="4" fill="#0" id="circle150"/>
	<circle cx="260.628" cy="825.21" r="4" fill="#0" id="circle151"/>
	<circle cx="261.513" cy="412.835" r="4" fill="#0" id="circle152"/>
	<circle cx="264.168" cy="421.684" r="4" fill="#0" id="circle153"/>
	<circle cx="265.053" cy="833.174" r="4" fill="#0" id="circle154"/>
	<circle cx="265.053" cy="842.023" r="4" fill="#0" id="circle155"/>
	<circle cx="268.592" cy="429.649" r="4" fill="#0" id="circle156"/>
	<circle cx="269.477" cy="849.988" r="4" fill="#0" id="circle157"/>
	<circle cx="270.362" cy="438.498" r="4" fill="#0" id="circle158"/>
	<circle cx="273.902" cy="857.952" r="4" fill="#0" id="circle159"/>
	<circle cx="274.787" cy="446.462" r="4" fill="#0" id="circle160"/>
	<circle cx="278.326" cy="865.916" r="4" fill="#0" id="circle161"/>
	<circle cx="279.211" cy="454.426" r="4" fill="#0" id="circle162"/>
	<circle cx="279.211" cy="874.765" r="4" fill="#0" id="circle163"/>
	<circle cx="283.636" cy="462.391" r="4" fill="#0" id="circle164"/>
	<circle cx="283.636" cy="471.24" r="4" fill="#0" id="circle165"/>
	<circle cx="283.636" cy="882.73" r="4" fill="#0" id="circle166"/>
	<circle cx="287.176" cy="891.579" r="4" fill="#0" id="circle167"/>
	<circle cx="288.061" cy="479.204" r="4" fill="#0" id="circle168"/>
	<circle cx="291.6" cy="899.543" r="4" fill="#0" id="circle169"/>
	<circle cx="292.485" cy="487.169" r="4" fill="#0" id="circle170"/>
	<circle cx="296.025" cy="907.508" r="4" fill="#0" id="circle171"/>
	<circle cx="296.025" cy="916.357" r="4" fill="#0" id="circle172"/>
	<circle cx="296.91" cy="495.133" r="4" fill="#0" id="circle173"/>
	<circle cx="296.91" cy="503.982" r="4" fill="#0" id="circle174"/>
	<circle cx="300.45" cy="924.321" r="4" fill="#0" id="circle175"/>
	<circle cx="301.335" cy="511.946" r="4" fill="#0" id="circle176"/>
	<circle cx="304.874" cy="932.285" r="4" fill="#0" id="circle177"/>
	<circle cx="305.759" cy="519.911" r="4" fill="#0" id="circle178"/>
	<circle cx="305.759" cy="941.135" r="4" fill="#0" id="circle179"/>
	<circle cx="310.184" cy="527.875" r="4" fill="#0" id="circle180"/>
	<circle cx="310.184" cy="949.099" r="4" fill="#0" id="circle181"/>
	<circle cx="313.723" cy="957.948" r="4" fill="#0" id="circle182"/>
	<circle cx="314.608" cy="535.839" r="4" fill="#0" id="circle183"/>
	<circle cx="316.378" cy="544.689" r="4" fill="#0" id="circle184"/>
	<circle cx="320.803" cy="552.653" r="4" fill="#0" id="circle185"/>
	<circle cx="320.803" cy="964.143" r="4" fill="#0" id="circle186"/>
	<circle cx="323.458" cy="561.502" r="4" fill="#0" id="circle187"/>
	<circle cx="326.997" cy="971.222" r="4" fill="#0" id="circle188"/>
	<circle cx="327.882" cy="569.467" r="4" fill="#0" id="circle189"/>
	<circle cx="332.307" cy="577.431" r="4" fill="#0" id="circle190"/>
	<circle cx="334.077" cy="977.417" r="4" fill="#0" id="circle191"/>
	<circle cx="335.847" cy="586.28" r="4" fill="#0" id="circle192"/>
	<circle cx="340.271" cy="594.244" r="4" fill="#0" id="circle193"/>
	<circle cx="341.156" cy="603.094" r="4" fill="#0" id="circle194"/>
	<circle cx="341.156" cy="982.726" r="4" fill="#0" id="circle195"/>
	<circle cx="345.581" cy="611.058" r="4" fill="#0" id="circle196"/>
	<circle cx="347.351" cy="619.907" r="4" fill="#0" id="circle197"/>
	<circle cx="349.12" cy="987.151" r="4" fill="#0" id="circle198"/>
	<circle cx="351.775" cy="627.872" r="4" fill="#0" id="circle199"/>
	<circle cx="354.43" cy="636.721" r="4" fill="#0" id="circle200"/>
	<circle cx="357.085" cy="991.575" r="4" fill="#0" id="circle201"/>
	<circle cx="358.855" cy="644.685" r="4" fill="#0" id="circle202"/>
	<circle cx="363.279" cy="652.649" r="4" fill="#0" id="circle203"/>
	<circle cx="365.049" cy="996" r="4" fill="#0" id="circle204"/>
	<circle cx="367.704" cy="660.614" r="4" fill="#0" id="circle205"/>
	<circle cx="370.359" cy="669.463" r="4" fill="#0" id="circle206"/>
	<circle cx="373.898" cy="996" r="4" fill="#0" id="circle207"/>
	<circle cx="374.783" cy="677.427" r="4" fill="#0" id="circle208"/>
	<circle cx="376.553" cy="686.277" r="4" fill="#0" id="circle209"/>
	<circle cx="380.978" cy="694.241" r="4" fill="#0" id="circle210"/>
	<circle cx="382.748" cy="996" r="4" fill="#0" id="circle211"/>
	<circle cx="385.402" cy="702.205" r="4" fill="#0" id="circle212"/>
	<circle cx="389.827" cy="710.169" r="4" fill="#0" id="circle213"/>
	<circle cx="389.827" cy="719.019" r="4" fill="#0" id="circle214"/>
	<circle cx="391.597" cy="996" r="4" fill="#0" id="circle215"/>
	<circle cx="394.252" cy="726.983" r="4" fill="#0" id="circle216"/>
	<circle cx="398.676" cy="734.947" r="4" fill="#0" id="circle217"/>
	<circle cx="400.446" cy="996" r="4" fill="#0" id="circle218"/>
	<circle cx="403.101" cy="742.912" r="4" fill="#0" id="circle219"/>
	<circle cx="407.525" cy="750.876" r="4" fill="#0" id="circle220"/>
	<circle cx="409.295" cy="995.115" r="4" fill="#0" id="circle221"/>
	<circle cx="411.95" cy="758.84" r="4" fill="#0" id="circle222"/>
	<circle cx="411.95" cy="767.69" r="4" fill="#0" id="circle223"/>
	<circle cx="416.375" cy="775.654" r="4" fill="#0" id="circle224"/>
	<circle cx="418.145" cy="991.575" r="4" fill="#0" id="circle225"/>
	<circle cx="420.799" cy="783.618" r="4" fill="#0" id="circle226"/>
	<circle cx="422.569" cy="792.467" r="4" fill="#0" id="circle227"/>
	<circle cx="426.109" cy="987.151" r="4" fill="#0" id="circle228"/>
	<circle cx="426.994" cy="800.432" r="4" fill="#0" id="circle229"/>
	<circle cx="429.649" cy="809.281" r="4" fill="#0" id="circle230"/>
	<circle cx="434.073" cy="817.245" r="4" fill="#0" id="circle231"/>
	<circle cx="434.073" cy="982.726" r="4" fill="#0" id="circle232"/>
	<circle cx="438.498" cy="825.21" r="4" fill="#0" id="circle233"/>
	<circle cx="441.153" cy="976.532" r="4" fill="#0" id="circle234"/>
	<circle cx="442.037" cy="834.059" r="4" fill="#0" id="circle235"/>
	<circle cx="442.922" cy="842.908" r="4" fill="#0" id="circle236"/>
	<circle cx="447.347" cy="850.872" r="4" fill="#0" id="circle237"/>
	<circle cx="447.347" cy="969.452" r="4" fill="#0" id="circle238"/>
	<circle cx="451.772" cy="858.837" r="4" fill="#0" id="circle239"/>
	<circle cx="451.772" cy="960.603" r="4" fill="#0" id="circle240"/>
	<circle cx="453.541" cy="867.686" r="4" fill="#0" id="circle241"/>
	<circle cx="457.966" cy="875.65" r="4" fill="#0" id="circle242"/>
	<circle cx="458.851" cy="954.409" r="4" fill="#0" id="circle243"/>
	<circle cx="460.621" cy="884.5" r="4" fill="#0" id="circle244"/>
	<circle cx="460.621" cy="942.905" r="4" fill="#0" id="circle245"/>
	<circle cx="465.045" cy="892.464" r="4" fill="#0" id="circle246"/>
	<circle cx="465.045" cy="901.313" r="4" fill="#0" id="circle247"/>
	<circle cx="465.045" cy="910.162" r="4" fill="#0" id="circle248"/>
	<circle cx="465.045" cy="919.012" r="4" fill="#0" id="circle249"/>
	<circle cx="465.045" cy="927.861" r="4" fill="#0" id="circle250"/>
	</g>
</svg>