<?xml version="1.0" encoding="UTF-8" standalone="no"?>
<!-- Created with CurveBenchmark -->
<svg
	xmlns:dc="http://purl.org/dc/elements/1.1/"
	xmlns:cc="http://creativecommons.org/ns#"
	xmlns:rdf="http://www.w3.org/1999/02/22-rdf-syntax-ns#"
	xmlns:svg="http://www.w3.org/2000/svg"
	xmlns="http://www.w3.org/2000/svg"
	xmlns:sodipodi="http://sodipodi.sourceforge.net/DTD/sodipodi-0.dtd"
	xmlns:inkscape="http://www.inkscape.org/namespaces/inkscape"
	width="1000"
	height="1000"
	id="svg2"
	version="1.1"
	sodipodi:docname="manifold/connect2d-kk0731.png.txt">
<defs
	id="defs4" />
<metadata
	id="metadata7">
	<rdf:RDF>
		<cc:Work
			rdf:about="">
			<dc:format>image/svg+xml</dc:format>
			<dc:type
				rdf:resource="http://purl.org/dc/dcmitype/StillImage" />
			<dc:title></dc:title>
		</cc:Work>
	</rdf:RDF>
</metadata>
<g
	inkscape:label="Layer 1"
	inkscape:groupmode="layer"
	id="layer1">
	<path style="fill:none;stroke:red;stroke-width:1px;stroke-linecap:butt;stroke-linejoin:miter;stroke-opacity:1" d="M 996,336.288 987.895,354.118 z" id="boundary" inkscape:connector-curvature="0" />
	<path style="fill:none;stroke:red;stroke-width:1px;stroke-linecap:butt;stroke-linejoin:miter;stroke-opacity:1" d="M 987.895,354.118 971.686,354.118 z" id="boundary" inkscape:connector-curvature="0" />
	<path style="fill:none;stroke:red;stroke-width:1px;stroke-linecap:butt;stroke-linejoin:miter;stroke-opacity:1" d="M 971.686,354.118 957.098,362.222 z" id="boundary" inkscape:connector-curvature="0" />
	<path style="fill:none;stroke:red;stroke-width:1px;stroke-linecap:butt;stroke-linejoin:miter;stroke-opacity:1" d="M 957.098,362.222 940.889,362.222 z" id="boundary" inkscape:connector-curvature="0" />
	<path style="fill:none;stroke:red;stroke-width:1px;stroke-linecap:butt;stroke-linejoin:miter;stroke-opacity:1" d="M 940.889,362.222 924.68,362.222 z" id="boundary" inkscape:connector-curvature="0" />
	<path style="fill:none;stroke:red;stroke-width:1px;stroke-linecap:butt;stroke-linejoin:miter;stroke-opacity:1" d="M 924.68,362.222 908.471,362.222 z" id="boundary" inkscape:connector-curvature="0" />
	<path style="fill:none;stroke:red;stroke-width:1px;stroke-linecap:butt;stroke-linejoin:miter;stroke-opacity:1" d="M 908.471,362.222 892.261,362.222 z" id="boundary" inkscape:connector-curvature="0" />
	<path style="fill:none;stroke:red;stroke-width:1px;stroke-linecap:butt;stroke-linejoin:miter;stroke-opacity:1" d="M 892.261,362.222 876.052,368.706 z" id="boundary" inkscape:connector-curvature="0" />
	<path style="fill:none;stroke:red;stroke-width:1px;stroke-linecap:butt;stroke-linejoin:miter;stroke-opacity:1" d="M 876.052,368.706 859.843,370.327 z" id="boundary" inkscape:connector-curvature="0" />
	<path style="fill:none;stroke:red;stroke-width:1px;stroke-linecap:butt;stroke-linejoin:miter;stroke-opacity:1" d="M 859.843,370.327 843.634,370.327 z" id="boundary" inkscape:connector-curvature="0" />
	<path style="fill:none;stroke:red;stroke-width:1px;stroke-linecap:butt;stroke-linejoin:miter;stroke-opacity:1" d="M 843.634,370.327 827.425,370.327 z" id="boundary" inkscape:connector-curvature="0" />
	<path style="fill:none;stroke:red;stroke-width:1px;stroke-linecap:butt;stroke-linejoin:miter;stroke-opacity:1" d="M 827.425,370.327 811.216,370.327 z" id="boundary" inkscape:connector-curvature="0" />
	<path style="fill:none;stroke:red;stroke-width:1px;stroke-linecap:butt;stroke-linejoin:miter;stroke-opacity:1" d="M 811.216,370.327 795.007,370.327 z" id="boundary" inkscape:connector-curvature="0" />
	<path style="fill:none;stroke:red;stroke-width:1px;stroke-linecap:butt;stroke-linejoin:miter;stroke-opacity:1" d="M 795.007,370.327 780.418,378.431 z" id="boundary" inkscape:connector-curvature="0" />
	<path style="fill:none;stroke:red;stroke-width:1px;stroke-linecap:butt;stroke-linejoin:miter;stroke-opacity:1" d="M 780.418,378.431 764.209,378.431 z" id="boundary" inkscape:connector-curvature="0" />
	<path style="fill:none;stroke:red;stroke-width:1px;stroke-linecap:butt;stroke-linejoin:miter;stroke-opacity:1" d="M 764.209,378.431 749.621,370.327 z" id="boundary" inkscape:connector-curvature="0" />
	<path style="fill:none;stroke:red;stroke-width:1px;stroke-linecap:butt;stroke-linejoin:miter;stroke-opacity:1" d="M 749.621,370.327 733.412,370.327 z" id="boundary" inkscape:connector-curvature="0" />
	<path style="fill:none;stroke:red;stroke-width:1px;stroke-linecap:butt;stroke-linejoin:miter;stroke-opacity:1" d="M 733.412,370.327 718.824,378.431 z" id="boundary" inkscape:connector-curvature="0" />
	<path style="fill:none;stroke:red;stroke-width:1px;stroke-linecap:butt;stroke-linejoin:miter;stroke-opacity:1" d="M 718.824,378.431 702.614,378.431 z" id="boundary" inkscape:connector-curvature="0" />
	<path style="fill:none;stroke:red;stroke-width:1px;stroke-linecap:butt;stroke-linejoin:miter;stroke-opacity:1" d="M 702.614,378.431 686.405,378.431 z" id="boundary" inkscape:connector-curvature="0" />
	<path style="fill:none;stroke:red;stroke-width:1px;stroke-linecap:butt;stroke-linejoin:miter;stroke-opacity:1" d="M 686.405,378.431 670.196,378.431 z" id="boundary" inkscape:connector-curvature="0" />
	<path style="fill:none;stroke:red;stroke-width:1px;stroke-linecap:butt;stroke-linejoin:miter;stroke-opacity:1" d="M 670.196,378.431 653.987,378.431 z" id="boundary" inkscape:connector-curvature="0" />
	<path style="fill:none;stroke:red;stroke-width:1px;stroke-linecap:butt;stroke-linejoin:miter;stroke-opacity:1" d="M 653.987,378.431 657.229,394.641 z" id="boundary" inkscape:connector-curvature="0" />
	<path style="fill:none;stroke:red;stroke-width:1px;stroke-linecap:butt;stroke-linejoin:miter;stroke-opacity:1" d="M 657.229,394.641 665.333,409.229 z" id="boundary" inkscape:connector-curvature="0" />
	<path style="fill:none;stroke:red;stroke-width:1px;stroke-linecap:butt;stroke-linejoin:miter;stroke-opacity:1" d="M 665.333,409.229 657.229,425.438 z" id="boundary" inkscape:connector-curvature="0" />
	<path style="fill:none;stroke:red;stroke-width:1px;stroke-linecap:butt;stroke-linejoin:miter;stroke-opacity:1" d="M 657.229,425.438 644.261,435.163 z" id="boundary" inkscape:connector-curvature="0" />
	<path style="fill:none;stroke:red;stroke-width:1px;stroke-linecap:butt;stroke-linejoin:miter;stroke-opacity:1" d="M 644.261,435.163 629.673,443.268 z" id="boundary" inkscape:connector-curvature="0" />
	<path style="fill:none;stroke:red;stroke-width:1px;stroke-linecap:butt;stroke-linejoin:miter;stroke-opacity:1" d="M 629.673,443.268 613.464,451.373 z" id="boundary" inkscape:connector-curvature="0" />
	<path style="fill:none;stroke:red;stroke-width:1px;stroke-linecap:butt;stroke-linejoin:miter;stroke-opacity:1" d="M 613.464,451.373 597.255,451.373 z" id="boundary" inkscape:connector-curvature="0" />
	<path style="fill:none;stroke:red;stroke-width:1px;stroke-linecap:butt;stroke-linejoin:miter;stroke-opacity:1" d="M 597.255,451.373 581.046,459.477 z" id="boundary" inkscape:connector-curvature="0" />
	<path style="fill:none;stroke:red;stroke-width:1px;stroke-linecap:butt;stroke-linejoin:miter;stroke-opacity:1" d="M 581.046,459.477 564.837,467.582 z" id="boundary" inkscape:connector-curvature="0" />
	<path style="fill:none;stroke:red;stroke-width:1px;stroke-linecap:butt;stroke-linejoin:miter;stroke-opacity:1" d="M 564.837,467.582 551.869,482.17 z" id="boundary" inkscape:connector-curvature="0" />
	<path style="fill:none;stroke:red;stroke-width:1px;stroke-linecap:butt;stroke-linejoin:miter;stroke-opacity:1" d="M 551.869,482.17 543.765,498.379 z" id="boundary" inkscape:connector-curvature="0" />
	<path style="fill:none;stroke:red;stroke-width:1px;stroke-linecap:butt;stroke-linejoin:miter;stroke-opacity:1" d="M 543.765,498.379 535.66,514.588 z" id="boundary" inkscape:connector-curvature="0" />
	<path style="fill:none;stroke:red;stroke-width:1px;stroke-linecap:butt;stroke-linejoin:miter;stroke-opacity:1" d="M 535.66,514.588 522.693,524.314 z" id="boundary" inkscape:connector-curvature="0" />
	<path style="fill:none;stroke:red;stroke-width:1px;stroke-linecap:butt;stroke-linejoin:miter;stroke-opacity:1" d="M 522.693,524.314 508.105,532.418 z" id="boundary" inkscape:connector-curvature="0" />
	<path style="fill:none;stroke:red;stroke-width:1px;stroke-linecap:butt;stroke-linejoin:miter;stroke-opacity:1" d="M 508.105,532.418 496.758,545.386 z" id="boundary" inkscape:connector-curvature="0" />
	<path style="fill:none;stroke:red;stroke-width:1px;stroke-linecap:butt;stroke-linejoin:miter;stroke-opacity:1" d="M 496.758,545.386 483.791,556.732 z" id="boundary" inkscape:connector-curvature="0" />
	<path style="fill:none;stroke:red;stroke-width:1px;stroke-linecap:butt;stroke-linejoin:miter;stroke-opacity:1" d="M 483.791,556.732 472.444,569.699 z" id="boundary" inkscape:connector-curvature="0" />
	<path style="fill:none;stroke:red;stroke-width:1px;stroke-linecap:butt;stroke-linejoin:miter;stroke-opacity:1" d="M 472.444,569.699 459.477,581.046 z" id="boundary" inkscape:connector-curvature="0" />
	<path style="fill:none;stroke:red;stroke-width:1px;stroke-linecap:butt;stroke-linejoin:miter;stroke-opacity:1" d="M 459.477,581.046 448.131,602.118 z" id="boundary" inkscape:connector-curvature="0" />
	<path style="fill:none;stroke:red;stroke-width:1px;stroke-linecap:butt;stroke-linejoin:miter;stroke-opacity:1" d="M 448.131,602.118 435.163,613.464 z" id="boundary" inkscape:connector-curvature="0" />
	<path style="fill:none;stroke:red;stroke-width:1px;stroke-linecap:butt;stroke-linejoin:miter;stroke-opacity:1" d="M 435.163,613.464 422.196,628.052 z" id="boundary" inkscape:connector-curvature="0" />
	<path style="fill:none;stroke:red;stroke-width:1px;stroke-linecap:butt;stroke-linejoin:miter;stroke-opacity:1" d="M 422.196,628.052 405.987,636.157 z" id="boundary" inkscape:connector-curvature="0" />
	<path style="fill:none;stroke:red;stroke-width:1px;stroke-linecap:butt;stroke-linejoin:miter;stroke-opacity:1" d="M 405.987,636.157 393.02,645.882 z" id="boundary" inkscape:connector-curvature="0" />
	<path style="fill:none;stroke:red;stroke-width:1px;stroke-linecap:butt;stroke-linejoin:miter;stroke-opacity:1" d="M 393.02,645.882 378.431,653.987 z" id="boundary" inkscape:connector-curvature="0" />
	<path style="fill:none;stroke:red;stroke-width:1px;stroke-linecap:butt;stroke-linejoin:miter;stroke-opacity:1" d="M 378.431,653.987 363.843,662.092 z" id="boundary" inkscape:connector-curvature="0" />
	<path style="fill:none;stroke:red;stroke-width:1px;stroke-linecap:butt;stroke-linejoin:miter;stroke-opacity:1" d="M 363.843,662.092 347.634,662.092 z" id="boundary" inkscape:connector-curvature="0" />
	<path style="fill:none;stroke:red;stroke-width:1px;stroke-linecap:butt;stroke-linejoin:miter;stroke-opacity:1" d="M 347.634,662.092 333.046,670.196 z" id="boundary" inkscape:connector-curvature="0" />
	<path style="fill:none;stroke:red;stroke-width:1px;stroke-linecap:butt;stroke-linejoin:miter;stroke-opacity:1" d="M 333.046,670.196 316.837,670.196 z" id="boundary" inkscape:connector-curvature="0" />
	<path style="fill:none;stroke:red;stroke-width:1px;stroke-linecap:butt;stroke-linejoin:miter;stroke-opacity:1" d="M 316.837,670.196 300.627,670.196 z" id="boundary" inkscape:connector-curvature="0" />
	<path style="fill:none;stroke:red;stroke-width:1px;stroke-linecap:butt;stroke-linejoin:miter;stroke-opacity:1" d="M 300.627,670.196 286.039,662.092 z" id="boundary" inkscape:connector-curvature="0" />
	<path style="fill:none;stroke:red;stroke-width:1px;stroke-linecap:butt;stroke-linejoin:miter;stroke-opacity:1" d="M 286.039,662.092 273.072,650.745 z" id="boundary" inkscape:connector-curvature="0" />
	<path style="fill:none;stroke:red;stroke-width:1px;stroke-linecap:butt;stroke-linejoin:miter;stroke-opacity:1" d="M 273.072,650.745 261.725,637.778 z" id="boundary" inkscape:connector-curvature="0" />
	<path style="fill:none;stroke:red;stroke-width:1px;stroke-linecap:butt;stroke-linejoin:miter;stroke-opacity:1" d="M 261.725,637.778 247.137,629.673 z" id="boundary" inkscape:connector-curvature="0" />
	<path style="fill:none;stroke:red;stroke-width:1px;stroke-linecap:butt;stroke-linejoin:miter;stroke-opacity:1" d="M 247.137,629.673 234.17,619.948 z" id="boundary" inkscape:connector-curvature="0" />
	<path style="fill:none;stroke:red;stroke-width:1px;stroke-linecap:butt;stroke-linejoin:miter;stroke-opacity:1" d="M 234.17,619.948 227.686,603.739 z" id="boundary" inkscape:connector-curvature="0" />
	<path style="fill:none;stroke:red;stroke-width:1px;stroke-linecap:butt;stroke-linejoin:miter;stroke-opacity:1" d="M 227.686,603.739 214.719,592.392 z" id="boundary" inkscape:connector-curvature="0" />
	<path style="fill:none;stroke:red;stroke-width:1px;stroke-linecap:butt;stroke-linejoin:miter;stroke-opacity:1" d="M 214.719,592.392 203.373,579.425 z" id="boundary" inkscape:connector-curvature="0" />
	<path style="fill:none;stroke:red;stroke-width:1px;stroke-linecap:butt;stroke-linejoin:miter;stroke-opacity:1" d="M 203.373,579.425 190.405,568.078 z" id="boundary" inkscape:connector-curvature="0" />
	<path style="fill:none;stroke:red;stroke-width:1px;stroke-linecap:butt;stroke-linejoin:miter;stroke-opacity:1" d="M 190.405,568.078 179.059,555.111 z" id="boundary" inkscape:connector-curvature="0" />
	<path style="fill:none;stroke:red;stroke-width:1px;stroke-linecap:butt;stroke-linejoin:miter;stroke-opacity:1" d="M 179.059,555.111 166.092,543.765 z" id="boundary" inkscape:connector-curvature="0" />
	<path style="fill:none;stroke:red;stroke-width:1px;stroke-linecap:butt;stroke-linejoin:miter;stroke-opacity:1" d="M 166.092,543.765 154.745,530.797 z" id="boundary" inkscape:connector-curvature="0" />
	<path style="fill:none;stroke:red;stroke-width:1px;stroke-linecap:butt;stroke-linejoin:miter;stroke-opacity:1" d="M 154.745,530.797 141.778,519.451 z" id="boundary" inkscape:connector-curvature="0" />
	<path style="fill:none;stroke:red;stroke-width:1px;stroke-linecap:butt;stroke-linejoin:miter;stroke-opacity:1" d="M 141.778,519.451 130.431,506.484 z" id="boundary" inkscape:connector-curvature="0" />
	<path style="fill:none;stroke:red;stroke-width:1px;stroke-linecap:butt;stroke-linejoin:miter;stroke-opacity:1" d="M 130.431,506.484 117.464,495.137 z" id="boundary" inkscape:connector-curvature="0" />
	<path style="fill:none;stroke:red;stroke-width:1px;stroke-linecap:butt;stroke-linejoin:miter;stroke-opacity:1" d="M 117.464,495.137 102.876,487.033 z" id="boundary" inkscape:connector-curvature="0" />
	<path style="fill:none;stroke:red;stroke-width:1px;stroke-linecap:butt;stroke-linejoin:miter;stroke-opacity:1" d="M 102.876,487.033 89.9085,475.686 z" id="boundary" inkscape:connector-curvature="0" />
	<path style="fill:none;stroke:red;stroke-width:1px;stroke-linecap:butt;stroke-linejoin:miter;stroke-opacity:1" d="M 89.9085,475.686 78.5621,462.719 z" id="boundary" inkscape:connector-curvature="0" />
	<path style="fill:none;stroke:red;stroke-width:1px;stroke-linecap:butt;stroke-linejoin:miter;stroke-opacity:1" d="M 78.5621,462.719 68.8366,449.752 z" id="boundary" inkscape:connector-curvature="0" />
	<path style="fill:none;stroke:red;stroke-width:1px;stroke-linecap:butt;stroke-linejoin:miter;stroke-opacity:1" d="M 68.8366,449.752 60.732,435.163 z" id="boundary" inkscape:connector-curvature="0" />
	<path style="fill:none;stroke:red;stroke-width:1px;stroke-linecap:butt;stroke-linejoin:miter;stroke-opacity:1" d="M 60.732,435.163 52.6275,420.575 z" id="boundary" inkscape:connector-curvature="0" />
	<path style="fill:none;stroke:red;stroke-width:1px;stroke-linecap:butt;stroke-linejoin:miter;stroke-opacity:1" d="M 52.6275,420.575 44.5229,405.987 z" id="boundary" inkscape:connector-curvature="0" />
	<path style="fill:none;stroke:red;stroke-width:1px;stroke-linecap:butt;stroke-linejoin:miter;stroke-opacity:1" d="M 44.5229,405.987 36.4183,391.399 z" id="boundary" inkscape:connector-curvature="0" />
	<path style="fill:none;stroke:red;stroke-width:1px;stroke-linecap:butt;stroke-linejoin:miter;stroke-opacity:1" d="M 36.4183,391.399 28.3137,376.81 z" id="boundary" inkscape:connector-curvature="0" />
	<path style="fill:none;stroke:red;stroke-width:1px;stroke-linecap:butt;stroke-linejoin:miter;stroke-opacity:1" d="M 28.3137,376.81 20.2092,362.222 z" id="boundary" inkscape:connector-curvature="0" />
	<path style="fill:none;stroke:red;stroke-width:1px;stroke-linecap:butt;stroke-linejoin:miter;stroke-opacity:1" d="M 20.2092,362.222 12.1046,347.634 z" id="boundary" inkscape:connector-curvature="0" />
	<path style="fill:none;stroke:red;stroke-width:1px;stroke-linecap:butt;stroke-linejoin:miter;stroke-opacity:1" d="M 12.1046,347.634 4,333.046 z" id="boundary" inkscape:connector-curvature="0" />
	<path style="fill:none;stroke:red;stroke-width:1px;stroke-linecap:butt;stroke-linejoin:miter;stroke-opacity:1" d="M 4,333.046 12.1046,308.732 z" id="boundary" inkscape:connector-curvature="0" />
	<path style="fill:none;stroke:red;stroke-width:1px;stroke-linecap:butt;stroke-linejoin:miter;stroke-opacity:1" d="M 12.1046,308.732 25.0719,295.765 z" id="boundary" inkscape:connector-curvature="0" />
	<path style="fill:none;stroke:red;stroke-width:1px;stroke-linecap:butt;stroke-linejoin:miter;stroke-opacity:1" d="M 25.0719,295.765 33.1765,279.556 z" id="boundary" inkscape:connector-curvature="0" />
	<path style="fill:none;stroke:red;stroke-width:1px;stroke-linecap:butt;stroke-linejoin:miter;stroke-opacity:1" d="M 33.1765,279.556 41.281,263.346 z" id="boundary" inkscape:connector-curvature="0" />
	<path style="fill:none;stroke:red;stroke-width:1px;stroke-linecap:butt;stroke-linejoin:miter;stroke-opacity:1" d="M 41.281,263.346 49.3856,247.137 z" id="boundary" inkscape:connector-curvature="0" />
	<path style="fill:none;stroke:red;stroke-width:1px;stroke-linecap:butt;stroke-linejoin:miter;stroke-opacity:1" d="M 49.3856,247.137 57.4902,230.928 z" id="boundary" inkscape:connector-curvature="0" />
	<path style="fill:none;stroke:red;stroke-width:1px;stroke-linecap:butt;stroke-linejoin:miter;stroke-opacity:1" d="M 57.4902,230.928 65.5948,214.719 z" id="boundary" inkscape:connector-curvature="0" />
	<path style="fill:none;stroke:red;stroke-width:1px;stroke-linecap:butt;stroke-linejoin:miter;stroke-opacity:1" d="M 65.5948,214.719 78.5621,201.752 z" id="boundary" inkscape:connector-curvature="0" />
	<path style="fill:none;stroke:red;stroke-width:1px;stroke-linecap:butt;stroke-linejoin:miter;stroke-opacity:1" d="M 78.5621,201.752 94.7712,193.647 z" id="boundary" inkscape:connector-curvature="0" />
	<path style="fill:none;stroke:red;stroke-width:1px;stroke-linecap:butt;stroke-linejoin:miter;stroke-opacity:1" d="M 94.7712,193.647 107.739,182.301 z" id="boundary" inkscape:connector-curvature="0" />
	<path style="fill:none;stroke:red;stroke-width:1px;stroke-linecap:butt;stroke-linejoin:miter;stroke-opacity:1" d="M 107.739,182.301 122.327,174.196 z" id="boundary" inkscape:connector-curvature="0" />
	<path style="fill:none;stroke:red;stroke-width:1px;stroke-linecap:butt;stroke-linejoin:miter;stroke-opacity:1" d="M 122.327,174.196 135.294,161.229 z" id="boundary" inkscape:connector-curvature="0" />
	<path style="fill:none;stroke:red;stroke-width:1px;stroke-linecap:butt;stroke-linejoin:miter;stroke-opacity:1" d="M 135.294,161.229 151.503,153.124 z" id="boundary" inkscape:connector-curvature="0" />
	<path style="fill:none;stroke:red;stroke-width:1px;stroke-linecap:butt;stroke-linejoin:miter;stroke-opacity:1" d="M 151.503,153.124 164.471,141.778 z" id="boundary" inkscape:connector-curvature="0" />
	<path style="fill:none;stroke:red;stroke-width:1px;stroke-linecap:butt;stroke-linejoin:miter;stroke-opacity:1" d="M 164.471,141.778 179.059,133.673 z" id="boundary" inkscape:connector-curvature="0" />
	<path style="fill:none;stroke:red;stroke-width:1px;stroke-linecap:butt;stroke-linejoin:miter;stroke-opacity:1" d="M 179.059,133.673 192.026,120.706 z" id="boundary" inkscape:connector-curvature="0" />
	<path style="fill:none;stroke:red;stroke-width:1px;stroke-linecap:butt;stroke-linejoin:miter;stroke-opacity:1" d="M 192.026,120.706 208.235,112.601 z" id="boundary" inkscape:connector-curvature="0" />
	<path style="fill:none;stroke:red;stroke-width:1px;stroke-linecap:butt;stroke-linejoin:miter;stroke-opacity:1" d="M 208.235,112.601 221.203,101.255 z" id="boundary" inkscape:connector-curvature="0" />
	<path style="fill:none;stroke:red;stroke-width:1px;stroke-linecap:butt;stroke-linejoin:miter;stroke-opacity:1" d="M 221.203,101.255 232.549,88.2876 z" id="boundary" inkscape:connector-curvature="0" />
	<path style="fill:none;stroke:red;stroke-width:1px;stroke-linecap:butt;stroke-linejoin:miter;stroke-opacity:1" d="M 232.549,88.2876 245.516,76.9412 z" id="boundary" inkscape:connector-curvature="0" />
	<path style="fill:none;stroke:red;stroke-width:1px;stroke-linecap:butt;stroke-linejoin:miter;stroke-opacity:1" d="M 245.516,76.9412 256.863,63.9739 z" id="boundary" inkscape:connector-curvature="0" />
	<path style="fill:none;stroke:red;stroke-width:1px;stroke-linecap:butt;stroke-linejoin:miter;stroke-opacity:1" d="M 256.863,63.9739 269.83,52.6275 z" id="boundary" inkscape:connector-curvature="0" />
	<path style="fill:none;stroke:red;stroke-width:1px;stroke-linecap:butt;stroke-linejoin:miter;stroke-opacity:1" d="M 269.83,52.6275 281.176,39.6601 z" id="boundary" inkscape:connector-curvature="0" />
	<path style="fill:none;stroke:red;stroke-width:1px;stroke-linecap:butt;stroke-linejoin:miter;stroke-opacity:1" d="M 281.176,39.6601 294.144,28.3137 z" id="boundary" inkscape:connector-curvature="0" />
	<path style="fill:none;stroke:red;stroke-width:1px;stroke-linecap:butt;stroke-linejoin:miter;stroke-opacity:1" d="M 294.144,28.3137 305.49,15.3464 z" id="boundary" inkscape:connector-curvature="0" />
	<path style="fill:none;stroke:red;stroke-width:1px;stroke-linecap:butt;stroke-linejoin:miter;stroke-opacity:1" d="M 305.49,15.3464 321.699,12.1046 z" id="boundary" inkscape:connector-curvature="0" />
	<path style="fill:none;stroke:red;stroke-width:1px;stroke-linecap:butt;stroke-linejoin:miter;stroke-opacity:1" d="M 321.699,12.1046 336.288,4 z" id="boundary" inkscape:connector-curvature="0" />
	<path style="fill:none;stroke:red;stroke-width:1px;stroke-linecap:butt;stroke-linejoin:miter;stroke-opacity:1" d="M 336.288,4 352.497,4 z" id="boundary" inkscape:connector-curvature="0" />
	<path style="fill:none;stroke:red;stroke-width:1px;stroke-linecap:butt;stroke-linejoin:miter;stroke-opacity:1" d="M 352.497,4 367.085,12.1046 z" id="boundary" inkscape:connector-curvature="0" />
	<path style="fill:none;stroke:red;stroke-width:1px;stroke-linecap:butt;stroke-linejoin:miter;stroke-opacity:1" d="M 367.085,12.1046 381.673,20.2092 z" id="boundary" inkscape:connector-curvature="0" />
	<path style="fill:none;stroke:red;stroke-width:1px;stroke-linecap:butt;stroke-linejoin:miter;stroke-opacity:1" d="M 381.673,20.2092 396.261,28.3137 z" id="boundary" inkscape:connector-curvature="0" />
	<path style="fill:none;stroke:red;stroke-width:1px;stroke-linecap:butt;stroke-linejoin:miter;stroke-opacity:1" d="M 396.261,28.3137 410.85,36.4183 z" id="boundary" inkscape:connector-curvature="0" />
	<path style="fill:none;stroke:red;stroke-width:1px;stroke-linecap:butt;stroke-linejoin:miter;stroke-opacity:1" d="M 410.85,36.4183 423.817,46.1438 z" id="boundary" inkscape:connector-curvature="0" />
	<path style="fill:none;stroke:red;stroke-width:1px;stroke-linecap:butt;stroke-linejoin:miter;stroke-opacity:1" d="M 423.817,46.1438 435.163,59.1111 z" id="boundary" inkscape:connector-curvature="0" />
	<path style="fill:none;stroke:red;stroke-width:1px;stroke-linecap:butt;stroke-linejoin:miter;stroke-opacity:1" d="M 435.163,59.1111 448.131,70.4575 z" id="boundary" inkscape:connector-curvature="0" />
	<path style="fill:none;stroke:red;stroke-width:1px;stroke-linecap:butt;stroke-linejoin:miter;stroke-opacity:1" d="M 448.131,70.4575 459.477,83.4248 z" id="boundary" inkscape:connector-curvature="0" />
	<path style="fill:none;stroke:red;stroke-width:1px;stroke-linecap:butt;stroke-linejoin:miter;stroke-opacity:1" d="M 459.477,83.4248 472.444,94.7712 z" id="boundary" inkscape:connector-curvature="0" />
	<path style="fill:none;stroke:red;stroke-width:1px;stroke-linecap:butt;stroke-linejoin:miter;stroke-opacity:1" d="M 472.444,94.7712 483.791,107.739 z" id="boundary" inkscape:connector-curvature="0" />
	<path style="fill:none;stroke:red;stroke-width:1px;stroke-linecap:butt;stroke-linejoin:miter;stroke-opacity:1" d="M 483.791,107.739 496.758,119.085 z" id="boundary" inkscape:connector-curvature="0" />
	<path style="fill:none;stroke:red;stroke-width:1px;stroke-linecap:butt;stroke-linejoin:miter;stroke-opacity:1" d="M 496.758,119.085 503.242,135.294 z" id="boundary" inkscape:connector-curvature="0" />
	<path style="fill:none;stroke:red;stroke-width:1px;stroke-linecap:butt;stroke-linejoin:miter;stroke-opacity:1" d="M 503.242,135.294 516.209,146.641 z" id="boundary" inkscape:connector-curvature="0" />
	<path style="fill:none;stroke:red;stroke-width:1px;stroke-linecap:butt;stroke-linejoin:miter;stroke-opacity:1" d="M 516.209,146.641 516.209,162.85 z" id="boundary" inkscape:connector-curvature="0" />
	<path style="fill:none;stroke:red;stroke-width:1px;stroke-linecap:butt;stroke-linejoin:miter;stroke-opacity:1" d="M 516.209,162.85 527.556,175.817 z" id="boundary" inkscape:connector-curvature="0" />
	<path style="fill:none;stroke:red;stroke-width:1px;stroke-linecap:butt;stroke-linejoin:miter;stroke-opacity:1" d="M 527.556,175.817 540.523,187.163 z" id="boundary" inkscape:connector-curvature="0" />
	<path style="fill:none;stroke:red;stroke-width:1px;stroke-linecap:butt;stroke-linejoin:miter;stroke-opacity:1" d="M 540.523,187.163 551.869,200.131 z" id="boundary" inkscape:connector-curvature="0" />
	<path style="fill:none;stroke:red;stroke-width:1px;stroke-linecap:butt;stroke-linejoin:miter;stroke-opacity:1" d="M 551.869,200.131 556.732,216.34 z" id="boundary" inkscape:connector-curvature="0" />
	<path style="fill:none;stroke:red;stroke-width:1px;stroke-linecap:butt;stroke-linejoin:miter;stroke-opacity:1" d="M 556.732,216.34 564.837,230.928 z" id="boundary" inkscape:connector-curvature="0" />
	<path style="fill:none;stroke:red;stroke-width:1px;stroke-linecap:butt;stroke-linejoin:miter;stroke-opacity:1" d="M 564.837,230.928 577.804,240.654 z" id="boundary" inkscape:connector-curvature="0" />
	<path style="fill:none;stroke:red;stroke-width:1px;stroke-linecap:butt;stroke-linejoin:miter;stroke-opacity:1" d="M 577.804,240.654 592.392,248.758 z" id="boundary" inkscape:connector-curvature="0" />
	<path style="fill:none;stroke:red;stroke-width:1px;stroke-linecap:butt;stroke-linejoin:miter;stroke-opacity:1" d="M 592.392,248.758 608.601,255.242 z" id="boundary" inkscape:connector-curvature="0" />
	<path style="fill:none;stroke:red;stroke-width:1px;stroke-linecap:butt;stroke-linejoin:miter;stroke-opacity:1" d="M 608.601,255.242 623.19,263.346 z" id="boundary" inkscape:connector-curvature="0" />
	<path style="fill:none;stroke:red;stroke-width:1px;stroke-linecap:butt;stroke-linejoin:miter;stroke-opacity:1" d="M 623.19,263.346 637.778,271.451 z" id="boundary" inkscape:connector-curvature="0" />
	<path style="fill:none;stroke:red;stroke-width:1px;stroke-linecap:butt;stroke-linejoin:miter;stroke-opacity:1" d="M 637.778,271.451 645.882,286.039 z" id="boundary" inkscape:connector-curvature="0" />
	<path style="fill:none;stroke:red;stroke-width:1px;stroke-linecap:butt;stroke-linejoin:miter;stroke-opacity:1" d="M 645.882,286.039 645.882,302.248 z" id="boundary" inkscape:connector-curvature="0" />
	<path style="fill:none;stroke:red;stroke-width:1px;stroke-linecap:butt;stroke-linejoin:miter;stroke-opacity:1" d="M 645.882,302.248 662.092,303.869 z" id="boundary" inkscape:connector-curvature="0" />
	<path style="fill:none;stroke:red;stroke-width:1px;stroke-linecap:butt;stroke-linejoin:miter;stroke-opacity:1" d="M 662.092,303.869 678.301,303.869 z" id="boundary" inkscape:connector-curvature="0" />
	<path style="fill:none;stroke:red;stroke-width:1px;stroke-linecap:butt;stroke-linejoin:miter;stroke-opacity:1" d="M 678.301,303.869 694.51,303.869 z" id="boundary" inkscape:connector-curvature="0" />
	<path style="fill:none;stroke:red;stroke-width:1px;stroke-linecap:butt;stroke-linejoin:miter;stroke-opacity:1" d="M 694.51,303.869 709.098,311.974 z" id="boundary" inkscape:connector-curvature="0" />
	<path style="fill:none;stroke:red;stroke-width:1px;stroke-linecap:butt;stroke-linejoin:miter;stroke-opacity:1" d="M 709.098,311.974 725.307,311.974 z" id="boundary" inkscape:connector-curvature="0" />
	<path style="fill:none;stroke:red;stroke-width:1px;stroke-linecap:butt;stroke-linejoin:miter;stroke-opacity:1" d="M 725.307,311.974 741.516,311.974 z" id="boundary" inkscape:connector-curvature="0" />
	<path style="fill:none;stroke:red;stroke-width:1px;stroke-linecap:butt;stroke-linejoin:miter;stroke-opacity:1" d="M 741.516,311.974 757.725,311.974 z" id="boundary" inkscape:connector-curvature="0" />
	<path style="fill:none;stroke:red;stroke-width:1px;stroke-linecap:butt;stroke-linejoin:miter;stroke-opacity:1" d="M 757.725,311.974 772.314,320.078 z" id="boundary" inkscape:connector-curvature="0" />
	<path style="fill:none;stroke:red;stroke-width:1px;stroke-linecap:butt;stroke-linejoin:miter;stroke-opacity:1" d="M 772.314,320.078 788.523,320.078 z" id="boundary" inkscape:connector-curvature="0" />
	<path style="fill:none;stroke:red;stroke-width:1px;stroke-linecap:butt;stroke-linejoin:miter;stroke-opacity:1" d="M 788.523,320.078 804.732,320.078 z" id="boundary" inkscape:connector-curvature="0" />
	<path style="fill:none;stroke:red;stroke-width:1px;stroke-linecap:butt;stroke-linejoin:miter;stroke-opacity:1" d="M 804.732,320.078 820.941,320.078 z" id="boundary" inkscape:connector-curvature="0" />
	<path style="fill:none;stroke:red;stroke-width:1px;stroke-linecap:butt;stroke-linejoin:miter;stroke-opacity:1" d="M 820.941,320.078 837.15,320.078 z" id="boundary" inkscape:connector-curvature="0" />
	<path style="fill:none;stroke:red;stroke-width:1px;stroke-linecap:butt;stroke-linejoin:miter;stroke-opacity:1" d="M 837.15,320.078 853.359,320.078 z" id="boundary" inkscape:connector-curvature="0" />
	<path style="fill:none;stroke:red;stroke-width:1px;stroke-linecap:butt;stroke-linejoin:miter;stroke-opacity:1" d="M 853.359,320.078 869.569,320.078 z" id="boundary" inkscape:connector-curvature="0" />
	<path style="fill:none;stroke:red;stroke-width:1px;stroke-linecap:butt;stroke-linejoin:miter;stroke-opacity:1" d="M 869.569,320.078 885.778,320.078 z" id="boundary" inkscape:connector-curvature="0" />
	<path style="fill:none;stroke:red;stroke-width:1px;stroke-linecap:butt;stroke-linejoin:miter;stroke-opacity:1" d="M 885.778,320.078 901.987,320.078 z" id="boundary" inkscape:connector-curvature="0" />
	<path style="fill:none;stroke:red;stroke-width:1px;stroke-linecap:butt;stroke-linejoin:miter;stroke-opacity:1" d="M 901.987,320.078 918.196,320.078 z" id="boundary" inkscape:connector-curvature="0" />
	<path style="fill:none;stroke:red;stroke-width:1px;stroke-linecap:butt;stroke-linejoin:miter;stroke-opacity:1" d="M 918.196,320.078 934.405,320.078 z" id="boundary" inkscape:connector-curvature="0" />
	<path style="fill:none;stroke:red;stroke-width:1px;stroke-linecap:butt;stroke-linejoin:miter;stroke-opacity:1" d="M 934.405,320.078 950.614,320.078 z" id="boundary" inkscape:connector-curvature="0" />
	<path style="fill:none;stroke:red;stroke-width:1px;stroke-linecap:butt;stroke-linejoin:miter;stroke-opacity:1" d="M 950.614,320.078 966.824,320.078 z" id="boundary" inkscape:connector-curvature="0" />
	<path style="fill:none;stroke:red;stroke-width:1px;stroke-linecap:butt;stroke-linejoin:miter;stroke-opacity:1" d="M 966.824,320.078 981.412,328.183 z" id="boundary" inkscape:connector-curvature="0" />
	<path style="fill:none;stroke:red;stroke-width:1px;stroke-linecap:butt;stroke-linejoin:miter;stroke-opacity:1" d="M 981.412,328.183 996,336.288 z" id="boundary" inkscape:connector-curvature="0" />
	<circle cx="4" cy="333.046" r="4" fill="#0" id="circle0"/>
	<circle cx="12.1046" cy="308.732" r="4" fill="#0" id="circle1"/>
	<circle cx="12.1046" cy="347.634" r="4" fill="#0" id="circle2"/>
	<circle cx="20.2092" cy="362.222" r="4" fill="#0" id="circle3"/>
	<circle cx="25.0719" cy="295.765" r="4" fill="#0" id="circle4"/>
	<circle cx="28.3137" cy="376.81" r="4" fill="#0" id="circle5"/>
	<circle cx="33.1765" cy="279.556" r="4" fill="#0" id="circle6"/>
	<circle cx="36.4183" cy="391.399" r="4" fill="#0" id="circle7"/>
	<circle cx="41.281" cy="263.346" r="4" fill="#0" id="circle8"/>
	<circle cx="44.5229" cy="405.987" r="4" fill="#0" id="circle9"/>
	<circle cx="49.3856" cy="247.137" r="4" fill="#0" id="circle10"/>
	<circle cx="52.6275" cy="420.575" r="4" fill="#0" id="circle11"/>
	<circle cx="57.4902" cy="230.928" r="4" fill="#0" id="circle12"/>
	<circle cx="60.732" cy="435.163" r="4" fill="#0" id="circle13"/>
	<circle cx="65.5948" cy="214.719" r="4" fill="#0" id="circle14"/>
	<circle cx="68.8366" cy="449.752" r="4" fill="#0" id="circle15"/>
	<circle cx="78.5621" cy="201.752" r="4" fill="#0" id="circle16"/>
	<circle cx="78.5621" cy="462.719" r="4" fill="#0" id="circle17"/>
	<circle cx="89.9085" cy="475.686" r="4" fill="#0" id="circle18"/>
	<circle cx="94.7712" cy="193.647" r="4" fill="#0" id="circle19"/>
	<circle cx="102.876" cy="487.033" r="4" fill="#0" id="circle20"/>
	<circle cx="107.739" cy="182.301" r="4" fill="#0" id="circle21"/>
	<circle cx="117.464" cy="495.137" r="4" fill="#0" id="circle22"/>
	<circle cx="122.327" cy="174.196" r="4" fill="#0" id="circle23"/>
	<circle cx="130.431" cy="506.484" r="4" fill="#0" id="circle24"/>
	<circle cx="135.294" cy="161.229" r="4" fill="#0" id="circle25"/>
	<circle cx="141.778" cy="519.451" r="4" fill="#0" id="circle26"/>
	<circle cx="151.503" cy="153.124" r="4" fill="#0" id="circle27"/>
	<circle cx="154.745" cy="530.797" r="4" fill="#0" id="circle28"/>
	<circle cx="164.471" cy="141.778" r="4" fill="#0" id="circle29"/>
	<circle cx="166.092" cy="543.765" r="4" fill="#0" id="circle30"/>
	<circle cx="179.059" cy="133.673" r="4" fill="#0" id="circle31"/>
	<circle cx="179.059" cy="555.111" r="4" fill="#0" id="circle32"/>
	<circle cx="190.405" cy="568.078" r="4" fill="#0" id="circle33"/>
	<circle cx="192.026" cy="120.706" r="4" fill="#0" id="circle34"/>
	<circle cx="203.373" cy="579.425" r="4" fill="#0" id="circle35"/>
	<circle cx="208.235" cy="112.601" r="4" fill="#0" id="circle36"/>
	<circle cx="214.719" cy="592.392" r="4" fill="#0" id="circle37"/>
	<circle cx="221.203" cy="101.255" r="4" fill="#0" id="circle38"/>
	<circle cx="227.686" cy="603.739" r="4" fill="#0" id="circle39"/>
	<circle cx="232.549" cy="88.2876" r="4" fill="#0" id="circle40"/>
	<circle cx="234.17" cy="619.948" r="4" fill="#0" id="circle41"/>
	<circle cx="245.516" cy="76.9412" r="4" fill="#0" id="circle42"/>
	<circle cx="247.137" cy="629.673" r="4" fill="#0" id="circle43"/>
	<circle cx="256.863" cy="63.9739" r="4" fill="#0" id="circle44"/>
	<circle cx="261.725" cy="637.778" r="4" fill="#0" id="circle45"/>
	<circle cx="269.83" cy="52.6275" r="4" fill="#0" id="circle46"/>
	<circle cx="273.072" cy="650.745" r="4" fill="#0" id="circle47"/>
	<circle cx="281.176" cy="39.6601" r="4" fill="#0" id="circle48"/>
	<circle cx="286.039" cy="662.092" r="4" fill="#0" id="circle49"/>
	<circle cx="294.144" cy="28.3137" r="4" fill="#0" id="circle50"/>
	<circle cx="300.627" cy="670.196" r="4" fill="#0" id="circle51"/>
	<circle cx="305.49" cy="15.3464" r="4" fill="#0" id="circle52"/>
	<circle cx="316.837" cy="670.196" r="4" fill="#0" id="circle53"/>
	<circle cx="321.699" cy="12.1046" r="4" fill="#0" id="circle54"/>
	<circle cx="333.046" cy="670.196" r="4" fill="#0" id="circle55"/>
	<circle cx="336.288" cy="4" r="4" fill="#0" id="circle56"/>
	<circle cx="347.634" cy="662.092" r="4" fill="#0" id="circle57"/>
	<circle cx="352.497" cy="4" r="4" fill="#0" id="circle58"/>
	<circle cx="363.843" cy="662.092" r="4" fill="#0" id="circle59"/>
	<circle cx="367.085" cy="12.1046" r="4" fill="#0" id="circle60"/>
	<circle cx="378.431" cy="653.987" r="4" fill="#0" id="circle61"/>
	<circle cx="381.673" cy="20.2092" r="4" fill="#0" id="circle62"/>
	<circle cx="393.02" cy="645.882" r="4" fill="#0" id="circle63"/>
	<circle cx="396.261" cy="28.3137" r="4" fill="#0" id="circle64"/>
	<circle cx="405.987" cy="636.157" r="4" fill="#0" id="circle65"/>
	<circle cx="410.85" cy="36.4183" r="4" fill="#0" id="circle66"/>
	<circle cx="422.196" cy="628.052" r="4" fill="#0" id="circle67"/>
	<circle cx="423.817" cy="46.1438" r="4" fill="#0" id="circle68"/>
	<circle cx="435.163" cy="59.1111" r="4" fill="#0" id="circle69"/>
	<circle cx="435.163" cy="613.464" r="4" fill="#0" id="circle70"/>
	<circle cx="448.131" cy="70.4575" r="4" fill="#0" id="circle71"/>
	<circle cx="448.131" cy="602.118" r="4" fill="#0" id="circle72"/>
	<circle cx="459.477" cy="83.4248" r="4" fill="#0" id="circle73"/>
	<circle cx="459.477" cy="581.046" r="4" fill="#0" id="circle74"/>
	<circle cx="472.444" cy="94.7712" r="4" fill="#0" id="circle75"/>
	<circle cx="472.444" cy="569.699" r="4" fill="#0" id="circle76"/>
	<circle cx="483.791" cy="107.739" r="4" fill="#0" id="circle77"/>
	<circle cx="483.791" cy="556.732" r="4" fill="#0" id="circle78"/>
	<circle cx="496.758" cy="119.085" r="4" fill="#0" id="circle79"/>
	<circle cx="496.758" cy="545.386" r="4" fill="#0" id="circle80"/>
	<circle cx="503.242" cy="135.294" r="4" fill="#0" id="circle81"/>
	<circle cx="508.105" cy="532.418" r="4" fill="#0" id="circle82"/>
	<circle cx="516.209" cy="146.641" r="4" fill="#0" id="circle83"/>
	<circle cx="516.209" cy="162.85" r="4" fill="#0" id="circle84"/>
	<circle cx="522.693" cy="524.314" r="4" fill="#0" id="circle85"/>
	<circle cx="527.556" cy="175.817" r="4" fill="#0" id="circle86"/>
	<circle cx="535.66" cy="514.588" r="4" fill="#0" id="circle87"/>
	<circle cx="540.523" cy="187.163" r="4" fill="#0" id="circle88"/>
	<circle cx="543.765" cy="498.379" r="4" fill="#0" id="circle89"/>
	<circle cx="551.869" cy="200.131" r="4" fill="#0" id="circle90"/>
	<circle cx="551.869" cy="482.17" r="4" fill="#0" id="circle91"/>
	<circle cx="556.732" cy="216.34" r="4" fill="#0" id="circle92"/>
	<circle cx="564.837" cy="230.928" r="4" fill="#0" id="circle93"/>
	<circle cx="564.837" cy="467.582" r="4" fill="#0" id="circle94"/>
	<circle cx="577.804" cy="240.654" r="4" fill="#0" id="circle95"/>
	<circle cx="581.046" cy="459.477" r="4" fill="#0" id="circle96"/>
	<circle cx="592.392" cy="248.758" r="4" fill="#0" id="circle97"/>
	<circle cx="597.255" cy="451.373" r="4" fill="#0" id="circle98"/>
	<circle cx="608.601" cy="255.242" r="4" fill="#0" id="circle99"/>
	<circle cx="613.464" cy="451.373" r="4" fill="#0" id="circle100"/>
	<circle cx="623.19" cy="263.346" r="4" fill="#0" id="circle101"/>
	<circle cx="629.673" cy="443.268" r="4" fill="#0" id="circle102"/>
	<circle cx="637.778" cy="271.451" r="4" fill="#0" id="circle103"/>
	<circle cx="644.261" cy="435.163" r="4" fill="#0" id="circle104"/>
	<circle cx="645.882" cy="286.039" r="4" fill="#0" id="circle105"/>
	<circle cx="645.882" cy="302.248" r="4" fill="#0" id="circle106"/>
	<circle cx="653.987" cy="378.431" r="4" fill="#0" id="circle107"/>
	<circle cx="657.229" cy="394.641" r="4" fill="#0" id="circle108"/>
	<circle cx="657.229" cy="425.438" r="4" fill="#0" id="circle109"/>
	<circle cx="662.092" cy="303.869" r="4" fill="#0" id="circle110"/>
	<circle cx="665.333" cy="409.229" r="4" fill="#0" id="circle111"/>
	<circle cx="670.196" cy="378.431" r="4" fill="#0" id="circle112"/>
	<circle cx="678.301" cy="303.869" r="4" fill="#0" id="circle113"/>
	<circle cx="686.405" cy="378.431" r="4" fill="#0" id="circle114"/>
	<circle cx="694.51" cy="303.869" r="4" fill="#0" id="circle115"/>
	<circle cx="702.614" cy="378.431" r="4" fill="#0" id="circle116"/>
	<circle cx="709.098" cy="311.974" r="4" fill="#0" id="circle117"/>
	<circle cx="718.824" cy="378.431" r="4" fill="#0" id="circle118"/>
	<circle cx="725.307" cy="311.974" r="4" fill="#0" id="circle119"/>
	<circle cx="733.412" cy="370.327" r="4" fill="#0" id="circle120"/>
	<circle cx="741.516" cy="311.974" r="4" fill="#0" id="circle121"/>
	<circle cx="749.621" cy="370.327" r="4" fill="#0" id="circle122"/>
	<circle cx="757.725" cy="311.974" r="4" fill="#0" id="circle123"/>
	<circle cx="764.209" cy="378.431" r="4" fill="#0" id="circle124"/>
	<circle cx="772.314" cy="320.078" r="4" fill="#0" id="circle125"/>
	<circle cx="780.418" cy="378.431" r="4" fill="#0" id="circle126"/>
	<circle cx="788.523" cy="320.078" r="4" fill="#0" id="circle127"/>
	<circle cx="795.007" cy="370.327" r="4" fill="#0" id="circle128"/>
	<circle cx="804.732" cy="320.078" r="4" fill="#0" id="circle129"/>
	<circle cx="811.216" cy="370.327" r="4" fill="#0" id="circle130"/>
	<circle cx="820.941" cy="320.078" r="4" fill="#0" id="circle131"/>
	<circle cx="827.425" cy="370.327" r="4" fill="#0" id="circle132"/>
	<circle cx="837.15" cy="320.078" r="4" fill="#0" id="circle133"/>
	<circle cx="843.634" cy="370.327" r="4" fill="#0" id="circle134"/>
	<circle cx="853.359" cy="320.078" r="4" fill="#0" id="circle135"/>
	<circle cx="859.843" cy="370.327" r="4" fill="#0" id="circle136"/>
	<circle cx="869.569" cy="320.078" r="4" fill="#0" id="circle137"/>
	<circle cx="876.052" cy="368.706" r="4" fill="#0" id="circle138"/>
	<circle cx="885.778" cy="320.078" r="4" fill="#0" id="circle139"/>
	<circle cx="892.261" cy="362.222" r="4" fill="#0" id="circle140"/>
	<circle cx="901.987" cy="320.078" r="4" fill="#0" id="circle141"/>
	<circle cx="908.471" cy="362.222" r="4" fill="#0" id="circle142"/>
	<circle cx="918.196" cy="320.078" r="4" fill="#0" id="circle143"/>
	<circle cx="924.68" cy="362.222" r="4" fill="#0" id="circle144"/>
	<circle cx="934.405" cy="320.078" r="4" fill="#0" id="circle145"/>
	<circle cx="940.889" cy="362.222" r="4" fill="#0" id="circle146"/>
	<circle cx="950.614" cy="320.078" r="4" fill="#0" id="circle147"/>
	<circle cx="957.098" cy="362.222" r="4" fill="#0" id="circle148"/>
	<circle cx="966.824" cy="320.078" r="4" fill="#0" id="circle149"/>
	<circle cx="971.686" cy="354.118" r="4" fill="#0" id="circle150"/>
	<circle cx="981.412" cy="328.183" r="4" fill="#0" id="circle151"/>
	<circle cx="987.895" cy="354.118" r="4" fill="#0" id="circle152"/>
	<circle cx="996" cy="336.288" r="4" fill="#0" id="circle153"/>
	</g>
</svg>