<?xml version="1.0" encoding="UTF-8" standalone="no"?>
<!-- Created with CurveBenchmark -->
<svg
	xmlns:dc="http://purl.org/dc/elements/1.1/"
	xmlns:cc="http://creativecommons.org/ns#"
	xmlns:rdf="http://www.w3.org/1999/02/22-rdf-syntax-ns#"
	xmlns:svg="http://www.w3.org/2000/svg"
	xmlns="http://www.w3.org/2000/svg"
	xmlns:sodipodi="http://sodipodi.sourceforge.net/DTD/sodipodi-0.dtd"
	xmlns:inkscape="http://www.inkscape.org/namespaces/inkscape"
	width="1000"
	height="1000"
	id="svg2"
	version="1.1"
	sodipodi:docname="manifold/connect2d-chopper15.png.txt">
<defs
	id="defs4" />
<metadata
	id="metadata7">
	<rdf:RDF>
		<cc:Work
			rdf:about="">
			<dc:format>image/svg+xml</dc:format>
			<dc:type
				rdf:resource="http://purl.org/dc/dcmitype/StillImage" />
			<dc:title></dc:title>
		</cc:Work>
	</rdf:RDF>
</metadata>
<g
	inkscape:label="Layer 1"
	inkscape:groupmode="layer"
	id="layer1">
	<path style="fill:none;stroke:red;stroke-width:1px;stroke-linecap:butt;stroke-linejoin:miter;stroke-opacity:1" d="M 979.826,205.275 996,214.261 z" id="boundary" inkscape:connector-curvature="0" />
	<path style="fill:none;stroke:red;stroke-width:1px;stroke-linecap:butt;stroke-linejoin:miter;stroke-opacity:1" d="M 996,214.261 983.42,234.029 z" id="boundary" inkscape:connector-curvature="0" />
	<path style="fill:none;stroke:red;stroke-width:1px;stroke-linecap:butt;stroke-linejoin:miter;stroke-opacity:1" d="M 983.42,234.029 967.246,243.014 z" id="boundary" inkscape:connector-curvature="0" />
	<path style="fill:none;stroke:red;stroke-width:1px;stroke-linecap:butt;stroke-linejoin:miter;stroke-opacity:1" d="M 967.246,243.014 949.275,243.014 z" id="boundary" inkscape:connector-curvature="0" />
	<path style="fill:none;stroke:red;stroke-width:1px;stroke-linecap:butt;stroke-linejoin:miter;stroke-opacity:1" d="M 949.275,243.014 931.304,243.014 z" id="boundary" inkscape:connector-curvature="0" />
	<path style="fill:none;stroke:red;stroke-width:1px;stroke-linecap:butt;stroke-linejoin:miter;stroke-opacity:1" d="M 931.304,243.014 916.928,259.188 z" id="boundary" inkscape:connector-curvature="0" />
	<path style="fill:none;stroke:red;stroke-width:1px;stroke-linecap:butt;stroke-linejoin:miter;stroke-opacity:1" d="M 916.928,259.188 898.957,259.188 z" id="boundary" inkscape:connector-curvature="0" />
	<path style="fill:none;stroke:red;stroke-width:1px;stroke-linecap:butt;stroke-linejoin:miter;stroke-opacity:1" d="M 898.957,259.188 880.986,260.986 z" id="boundary" inkscape:connector-curvature="0" />
	<path style="fill:none;stroke:red;stroke-width:1px;stroke-linecap:butt;stroke-linejoin:miter;stroke-opacity:1" d="M 880.986,260.986 864.812,269.971 z" id="boundary" inkscape:connector-curvature="0" />
	<path style="fill:none;stroke:red;stroke-width:1px;stroke-linecap:butt;stroke-linejoin:miter;stroke-opacity:1" d="M 864.812,269.971 846.841,275.362 z" id="boundary" inkscape:connector-curvature="0" />
	<path style="fill:none;stroke:red;stroke-width:1px;stroke-linecap:butt;stroke-linejoin:miter;stroke-opacity:1" d="M 846.841,275.362 828.87,284.348 z" id="boundary" inkscape:connector-curvature="0" />
	<path style="fill:none;stroke:red;stroke-width:1px;stroke-linecap:butt;stroke-linejoin:miter;stroke-opacity:1" d="M 828.87,284.348 810.899,293.333 z" id="boundary" inkscape:connector-curvature="0" />
	<path style="fill:none;stroke:red;stroke-width:1px;stroke-linecap:butt;stroke-linejoin:miter;stroke-opacity:1" d="M 810.899,293.333 792.928,302.319 z" id="boundary" inkscape:connector-curvature="0" />
	<path style="fill:none;stroke:red;stroke-width:1px;stroke-linecap:butt;stroke-linejoin:miter;stroke-opacity:1" d="M 792.928,302.319 778.551,314.899 z" id="boundary" inkscape:connector-curvature="0" />
	<path style="fill:none;stroke:red;stroke-width:1px;stroke-linecap:butt;stroke-linejoin:miter;stroke-opacity:1" d="M 778.551,314.899 760.58,314.899 z" id="boundary" inkscape:connector-curvature="0" />
	<path style="fill:none;stroke:red;stroke-width:1px;stroke-linecap:butt;stroke-linejoin:miter;stroke-opacity:1" d="M 760.58,314.899 742.609,323.884 z" id="boundary" inkscape:connector-curvature="0" />
	<path style="fill:none;stroke:red;stroke-width:1px;stroke-linecap:butt;stroke-linejoin:miter;stroke-opacity:1" d="M 742.609,323.884 726.435,332.87 z" id="boundary" inkscape:connector-curvature="0" />
	<path style="fill:none;stroke:red;stroke-width:1px;stroke-linecap:butt;stroke-linejoin:miter;stroke-opacity:1" d="M 726.435,332.87 710.261,341.855 z" id="boundary" inkscape:connector-curvature="0" />
	<path style="fill:none;stroke:red;stroke-width:1px;stroke-linecap:butt;stroke-linejoin:miter;stroke-opacity:1" d="M 710.261,341.855 694.087,350.841 z" id="boundary" inkscape:connector-curvature="0" />
	<path style="fill:none;stroke:red;stroke-width:1px;stroke-linecap:butt;stroke-linejoin:miter;stroke-opacity:1" d="M 694.087,350.841 676.116,356.232 z" id="boundary" inkscape:connector-curvature="0" />
	<path style="fill:none;stroke:red;stroke-width:1px;stroke-linecap:butt;stroke-linejoin:miter;stroke-opacity:1" d="M 676.116,356.232 658.145,359.826 z" id="boundary" inkscape:connector-curvature="0" />
	<path style="fill:none;stroke:red;stroke-width:1px;stroke-linecap:butt;stroke-linejoin:miter;stroke-opacity:1" d="M 658.145,359.826 641.971,368.812 z" id="boundary" inkscape:connector-curvature="0" />
	<path style="fill:none;stroke:red;stroke-width:1px;stroke-linecap:butt;stroke-linejoin:miter;stroke-opacity:1" d="M 641.971,368.812 625.797,377.797 z" id="boundary" inkscape:connector-curvature="0" />
	<path style="fill:none;stroke:red;stroke-width:1px;stroke-linecap:butt;stroke-linejoin:miter;stroke-opacity:1" d="M 625.797,377.797 625.797,395.768 z" id="boundary" inkscape:connector-curvature="0" />
	<path style="fill:none;stroke:red;stroke-width:1px;stroke-linecap:butt;stroke-linejoin:miter;stroke-opacity:1" d="M 625.797,395.768 643.768,402.957 z" id="boundary" inkscape:connector-curvature="0" />
	<path style="fill:none;stroke:red;stroke-width:1px;stroke-linecap:butt;stroke-linejoin:miter;stroke-opacity:1" d="M 643.768,402.957 661.739,402.957 z" id="boundary" inkscape:connector-curvature="0" />
	<path style="fill:none;stroke:red;stroke-width:1px;stroke-linecap:butt;stroke-linejoin:miter;stroke-opacity:1" d="M 661.739,402.957 679.71,408.348 z" id="boundary" inkscape:connector-curvature="0" />
	<path style="fill:none;stroke:red;stroke-width:1px;stroke-linecap:butt;stroke-linejoin:miter;stroke-opacity:1" d="M 679.71,408.348 688.696,424.522 z" id="boundary" inkscape:connector-curvature="0" />
	<path style="fill:none;stroke:red;stroke-width:1px;stroke-linecap:butt;stroke-linejoin:miter;stroke-opacity:1" d="M 688.696,424.522 688.696,449.681 z" id="boundary" inkscape:connector-curvature="0" />
	<path style="fill:none;stroke:red;stroke-width:1px;stroke-linecap:butt;stroke-linejoin:miter;stroke-opacity:1" d="M 688.696,449.681 672.522,458.667 z" id="boundary" inkscape:connector-curvature="0" />
	<path style="fill:none;stroke:red;stroke-width:1px;stroke-linecap:butt;stroke-linejoin:miter;stroke-opacity:1" d="M 672.522,458.667 656.348,467.652 z" id="boundary" inkscape:connector-curvature="0" />
	<path style="fill:none;stroke:red;stroke-width:1px;stroke-linecap:butt;stroke-linejoin:miter;stroke-opacity:1" d="M 656.348,467.652 640.174,476.638 z" id="boundary" inkscape:connector-curvature="0" />
	<path style="fill:none;stroke:red;stroke-width:1px;stroke-linecap:butt;stroke-linejoin:miter;stroke-opacity:1" d="M 640.174,476.638 622.203,476.638 z" id="boundary" inkscape:connector-curvature="0" />
	<path style="fill:none;stroke:red;stroke-width:1px;stroke-linecap:butt;stroke-linejoin:miter;stroke-opacity:1" d="M 622.203,476.638 604.232,476.638 z" id="boundary" inkscape:connector-curvature="0" />
	<path style="fill:none;stroke:red;stroke-width:1px;stroke-linecap:butt;stroke-linejoin:miter;stroke-opacity:1" d="M 604.232,476.638 586.261,476.638 z" id="boundary" inkscape:connector-curvature="0" />
	<path style="fill:none;stroke:red;stroke-width:1px;stroke-linecap:butt;stroke-linejoin:miter;stroke-opacity:1" d="M 586.261,476.638 568.29,476.638 z" id="boundary" inkscape:connector-curvature="0" />
	<path style="fill:none;stroke:red;stroke-width:1px;stroke-linecap:butt;stroke-linejoin:miter;stroke-opacity:1" d="M 568.29,476.638 550.319,476.638 z" id="boundary" inkscape:connector-curvature="0" />
	<path style="fill:none;stroke:red;stroke-width:1px;stroke-linecap:butt;stroke-linejoin:miter;stroke-opacity:1" d="M 550.319,476.638 532.348,476.638 z" id="boundary" inkscape:connector-curvature="0" />
	<path style="fill:none;stroke:red;stroke-width:1px;stroke-linecap:butt;stroke-linejoin:miter;stroke-opacity:1" d="M 532.348,476.638 514.377,476.638 z" id="boundary" inkscape:connector-curvature="0" />
	<path style="fill:none;stroke:red;stroke-width:1px;stroke-linecap:butt;stroke-linejoin:miter;stroke-opacity:1" d="M 514.377,476.638 496.406,476.638 z" id="boundary" inkscape:connector-curvature="0" />
	<path style="fill:none;stroke:red;stroke-width:1px;stroke-linecap:butt;stroke-linejoin:miter;stroke-opacity:1" d="M 496.406,476.638 480.232,485.623 z" id="boundary" inkscape:connector-curvature="0" />
	<path style="fill:none;stroke:red;stroke-width:1px;stroke-linecap:butt;stroke-linejoin:miter;stroke-opacity:1" d="M 480.232,485.623 464.058,494.609 z" id="boundary" inkscape:connector-curvature="0" />
	<path style="fill:none;stroke:red;stroke-width:1px;stroke-linecap:butt;stroke-linejoin:miter;stroke-opacity:1" d="M 464.058,494.609 464.058,512.58 z" id="boundary" inkscape:connector-curvature="0" />
	<path style="fill:none;stroke:red;stroke-width:1px;stroke-linecap:butt;stroke-linejoin:miter;stroke-opacity:1" d="M 464.058,512.58 467.652,530.551 z" id="boundary" inkscape:connector-curvature="0" />
	<path style="fill:none;stroke:red;stroke-width:1px;stroke-linecap:butt;stroke-linejoin:miter;stroke-opacity:1" d="M 467.652,530.551 449.681,546.725 z" id="boundary" inkscape:connector-curvature="0" />
	<path style="fill:none;stroke:red;stroke-width:1px;stroke-linecap:butt;stroke-linejoin:miter;stroke-opacity:1" d="M 449.681,546.725 431.71,548.522 z" id="boundary" inkscape:connector-curvature="0" />
	<path style="fill:none;stroke:red;stroke-width:1px;stroke-linecap:butt;stroke-linejoin:miter;stroke-opacity:1" d="M 431.71,548.522 413.739,548.522 z" id="boundary" inkscape:connector-curvature="0" />
	<path style="fill:none;stroke:red;stroke-width:1px;stroke-linecap:butt;stroke-linejoin:miter;stroke-opacity:1" d="M 413.739,548.522 395.768,548.522 z" id="boundary" inkscape:connector-curvature="0" />
	<path style="fill:none;stroke:red;stroke-width:1px;stroke-linecap:butt;stroke-linejoin:miter;stroke-opacity:1" d="M 395.768,548.522 377.797,548.522 z" id="boundary" inkscape:connector-curvature="0" />
	<path style="fill:none;stroke:red;stroke-width:1px;stroke-linecap:butt;stroke-linejoin:miter;stroke-opacity:1" d="M 377.797,548.522 359.826,555.71 z" id="boundary" inkscape:connector-curvature="0" />
	<path style="fill:none;stroke:red;stroke-width:1px;stroke-linecap:butt;stroke-linejoin:miter;stroke-opacity:1" d="M 359.826,555.71 341.855,557.507 z" id="boundary" inkscape:connector-curvature="0" />
	<path style="fill:none;stroke:red;stroke-width:1px;stroke-linecap:butt;stroke-linejoin:miter;stroke-opacity:1" d="M 341.855,557.507 323.884,557.507 z" id="boundary" inkscape:connector-curvature="0" />
	<path style="fill:none;stroke:red;stroke-width:1px;stroke-linecap:butt;stroke-linejoin:miter;stroke-opacity:1" d="M 323.884,557.507 305.913,564.696 z" id="boundary" inkscape:connector-curvature="0" />
	<path style="fill:none;stroke:red;stroke-width:1px;stroke-linecap:butt;stroke-linejoin:miter;stroke-opacity:1" d="M 305.913,564.696 287.942,564.696 z" id="boundary" inkscape:connector-curvature="0" />
	<path style="fill:none;stroke:red;stroke-width:1px;stroke-linecap:butt;stroke-linejoin:miter;stroke-opacity:1" d="M 287.942,564.696 269.971,566.493 z" id="boundary" inkscape:connector-curvature="0" />
	<path style="fill:none;stroke:red;stroke-width:1px;stroke-linecap:butt;stroke-linejoin:miter;stroke-opacity:1" d="M 269.971,566.493 252,566.493 z" id="boundary" inkscape:connector-curvature="0" />
	<path style="fill:none;stroke:red;stroke-width:1px;stroke-linecap:butt;stroke-linejoin:miter;stroke-opacity:1" d="M 252,566.493 234.029,573.681 z" id="boundary" inkscape:connector-curvature="0" />
	<path style="fill:none;stroke:red;stroke-width:1px;stroke-linecap:butt;stroke-linejoin:miter;stroke-opacity:1" d="M 234.029,573.681 216.058,573.681 z" id="boundary" inkscape:connector-curvature="0" />
	<path style="fill:none;stroke:red;stroke-width:1px;stroke-linecap:butt;stroke-linejoin:miter;stroke-opacity:1" d="M 216.058,573.681 198.087,582.667 z" id="boundary" inkscape:connector-curvature="0" />
	<path style="fill:none;stroke:red;stroke-width:1px;stroke-linecap:butt;stroke-linejoin:miter;stroke-opacity:1" d="M 198.087,582.667 180.116,584.464 z" id="boundary" inkscape:connector-curvature="0" />
	<path style="fill:none;stroke:red;stroke-width:1px;stroke-linecap:butt;stroke-linejoin:miter;stroke-opacity:1" d="M 180.116,584.464 162.145,584.464 z" id="boundary" inkscape:connector-curvature="0" />
	<path style="fill:none;stroke:red;stroke-width:1px;stroke-linecap:butt;stroke-linejoin:miter;stroke-opacity:1" d="M 162.145,584.464 144.174,591.652 z" id="boundary" inkscape:connector-curvature="0" />
	<path style="fill:none;stroke:red;stroke-width:1px;stroke-linecap:butt;stroke-linejoin:miter;stroke-opacity:1" d="M 144.174,591.652 126.203,584.464 z" id="boundary" inkscape:connector-curvature="0" />
	<path style="fill:none;stroke:red;stroke-width:1px;stroke-linecap:butt;stroke-linejoin:miter;stroke-opacity:1" d="M 126.203,584.464 108.232,584.464 z" id="boundary" inkscape:connector-curvature="0" />
	<path style="fill:none;stroke:red;stroke-width:1px;stroke-linecap:butt;stroke-linejoin:miter;stroke-opacity:1" d="M 108.232,584.464 90.2609,591.652 z" id="boundary" inkscape:connector-curvature="0" />
	<path style="fill:none;stroke:red;stroke-width:1px;stroke-linecap:butt;stroke-linejoin:miter;stroke-opacity:1" d="M 90.2609,591.652 72.2899,584.464 z" id="boundary" inkscape:connector-curvature="0" />
	<path style="fill:none;stroke:red;stroke-width:1px;stroke-linecap:butt;stroke-linejoin:miter;stroke-opacity:1" d="M 72.2899,584.464 54.3188,582.667 z" id="boundary" inkscape:connector-curvature="0" />
	<path style="fill:none;stroke:red;stroke-width:1px;stroke-linecap:butt;stroke-linejoin:miter;stroke-opacity:1" d="M 54.3188,582.667 39.942,570.087 z" id="boundary" inkscape:connector-curvature="0" />
	<path style="fill:none;stroke:red;stroke-width:1px;stroke-linecap:butt;stroke-linejoin:miter;stroke-opacity:1" d="M 39.942,570.087 39.942,552.116 z" id="boundary" inkscape:connector-curvature="0" />
	<path style="fill:none;stroke:red;stroke-width:1px;stroke-linecap:butt;stroke-linejoin:miter;stroke-opacity:1" d="M 39.942,552.116 54.3188,537.739 z" id="boundary" inkscape:connector-curvature="0" />
	<path style="fill:none;stroke:red;stroke-width:1px;stroke-linecap:butt;stroke-linejoin:miter;stroke-opacity:1" d="M 54.3188,537.739 72.2899,537.739 z" id="boundary" inkscape:connector-curvature="0" />
	<path style="fill:none;stroke:red;stroke-width:1px;stroke-linecap:butt;stroke-linejoin:miter;stroke-opacity:1" d="M 72.2899,537.739 84.8696,552.116 z" id="boundary" inkscape:connector-curvature="0" />
	<path style="fill:none;stroke:red;stroke-width:1px;stroke-linecap:butt;stroke-linejoin:miter;stroke-opacity:1" d="M 84.8696,552.116 99.2464,564.696 z" id="boundary" inkscape:connector-curvature="0" />
	<path style="fill:none;stroke:red;stroke-width:1px;stroke-linecap:butt;stroke-linejoin:miter;stroke-opacity:1" d="M 99.2464,564.696 117.217,555.71 z" id="boundary" inkscape:connector-curvature="0" />
	<path style="fill:none;stroke:red;stroke-width:1px;stroke-linecap:butt;stroke-linejoin:miter;stroke-opacity:1" d="M 117.217,555.71 133.391,564.696 z" id="boundary" inkscape:connector-curvature="0" />
	<path style="fill:none;stroke:red;stroke-width:1px;stroke-linecap:butt;stroke-linejoin:miter;stroke-opacity:1" d="M 133.391,564.696 151.362,564.696 z" id="boundary" inkscape:connector-curvature="0" />
	<path style="fill:none;stroke:red;stroke-width:1px;stroke-linecap:butt;stroke-linejoin:miter;stroke-opacity:1" d="M 151.362,564.696 169.333,564.696 z" id="boundary" inkscape:connector-curvature="0" />
	<path style="fill:none;stroke:red;stroke-width:1px;stroke-linecap:butt;stroke-linejoin:miter;stroke-opacity:1" d="M 169.333,564.696 187.304,557.507 z" id="boundary" inkscape:connector-curvature="0" />
	<path style="fill:none;stroke:red;stroke-width:1px;stroke-linecap:butt;stroke-linejoin:miter;stroke-opacity:1" d="M 187.304,557.507 201.681,546.725 z" id="boundary" inkscape:connector-curvature="0" />
	<path style="fill:none;stroke:red;stroke-width:1px;stroke-linecap:butt;stroke-linejoin:miter;stroke-opacity:1" d="M 201.681,546.725 212.464,532.348 z" id="boundary" inkscape:connector-curvature="0" />
	<path style="fill:none;stroke:red;stroke-width:1px;stroke-linecap:butt;stroke-linejoin:miter;stroke-opacity:1" d="M 212.464,532.348 226.841,519.768 z" id="boundary" inkscape:connector-curvature="0" />
	<path style="fill:none;stroke:red;stroke-width:1px;stroke-linecap:butt;stroke-linejoin:miter;stroke-opacity:1" d="M 226.841,519.768 216.058,494.609 z" id="boundary" inkscape:connector-curvature="0" />
	<path style="fill:none;stroke:red;stroke-width:1px;stroke-linecap:butt;stroke-linejoin:miter;stroke-opacity:1" d="M 216.058,494.609 198.087,494.609 z" id="boundary" inkscape:connector-curvature="0" />
	<path style="fill:none;stroke:red;stroke-width:1px;stroke-linecap:butt;stroke-linejoin:miter;stroke-opacity:1" d="M 198.087,494.609 180.116,494.609 z" id="boundary" inkscape:connector-curvature="0" />
	<path style="fill:none;stroke:red;stroke-width:1px;stroke-linecap:butt;stroke-linejoin:miter;stroke-opacity:1" d="M 180.116,494.609 162.145,494.609 z" id="boundary" inkscape:connector-curvature="0" />
	<path style="fill:none;stroke:red;stroke-width:1px;stroke-linecap:butt;stroke-linejoin:miter;stroke-opacity:1" d="M 162.145,494.609 144.174,494.609 z" id="boundary" inkscape:connector-curvature="0" />
	<path style="fill:none;stroke:red;stroke-width:1px;stroke-linecap:butt;stroke-linejoin:miter;stroke-opacity:1" d="M 144.174,494.609 126.203,494.609 z" id="boundary" inkscape:connector-curvature="0" />
	<path style="fill:none;stroke:red;stroke-width:1px;stroke-linecap:butt;stroke-linejoin:miter;stroke-opacity:1" d="M 126.203,494.609 108.232,494.609 z" id="boundary" inkscape:connector-curvature="0" />
	<path style="fill:none;stroke:red;stroke-width:1px;stroke-linecap:butt;stroke-linejoin:miter;stroke-opacity:1" d="M 108.232,494.609 90.2609,494.609 z" id="boundary" inkscape:connector-curvature="0" />
	<path style="fill:none;stroke:red;stroke-width:1px;stroke-linecap:butt;stroke-linejoin:miter;stroke-opacity:1" d="M 90.2609,494.609 72.2899,494.609 z" id="boundary" inkscape:connector-curvature="0" />
	<path style="fill:none;stroke:red;stroke-width:1px;stroke-linecap:butt;stroke-linejoin:miter;stroke-opacity:1" d="M 72.2899,494.609 56.1159,485.623 z" id="boundary" inkscape:connector-curvature="0" />
	<path style="fill:none;stroke:red;stroke-width:1px;stroke-linecap:butt;stroke-linejoin:miter;stroke-opacity:1" d="M 56.1159,485.623 38.1449,485.623 z" id="boundary" inkscape:connector-curvature="0" />
	<path style="fill:none;stroke:red;stroke-width:1px;stroke-linecap:butt;stroke-linejoin:miter;stroke-opacity:1" d="M 38.1449,485.623 21.971,476.638 z" id="boundary" inkscape:connector-curvature="0" />
	<path style="fill:none;stroke:red;stroke-width:1px;stroke-linecap:butt;stroke-linejoin:miter;stroke-opacity:1" d="M 21.971,476.638 12.9855,460.464 z" id="boundary" inkscape:connector-curvature="0" />
	<path style="fill:none;stroke:red;stroke-width:1px;stroke-linecap:butt;stroke-linejoin:miter;stroke-opacity:1" d="M 12.9855,460.464 4,444.29 z" id="boundary" inkscape:connector-curvature="0" />
	<path style="fill:none;stroke:red;stroke-width:1px;stroke-linecap:butt;stroke-linejoin:miter;stroke-opacity:1" d="M 4,444.29 12.9855,415.536 z" id="boundary" inkscape:connector-curvature="0" />
	<path style="fill:none;stroke:red;stroke-width:1px;stroke-linecap:butt;stroke-linejoin:miter;stroke-opacity:1" d="M 12.9855,415.536 12.9855,397.565 z" id="boundary" inkscape:connector-curvature="0" />
	<path style="fill:none;stroke:red;stroke-width:1px;stroke-linecap:butt;stroke-linejoin:miter;stroke-opacity:1" d="M 12.9855,397.565 12.9855,379.594 z" id="boundary" inkscape:connector-curvature="0" />
	<path style="fill:none;stroke:red;stroke-width:1px;stroke-linecap:butt;stroke-linejoin:miter;stroke-opacity:1" d="M 12.9855,379.594 4,363.42 z" id="boundary" inkscape:connector-curvature="0" />
	<path style="fill:none;stroke:red;stroke-width:1px;stroke-linecap:butt;stroke-linejoin:miter;stroke-opacity:1" d="M 4,363.42 12.9855,345.449 z" id="boundary" inkscape:connector-curvature="0" />
	<path style="fill:none;stroke:red;stroke-width:1px;stroke-linecap:butt;stroke-linejoin:miter;stroke-opacity:1" d="M 12.9855,345.449 12.9855,327.478 z" id="boundary" inkscape:connector-curvature="0" />
	<path style="fill:none;stroke:red;stroke-width:1px;stroke-linecap:butt;stroke-linejoin:miter;stroke-opacity:1" d="M 12.9855,327.478 27.3623,313.101 z" id="boundary" inkscape:connector-curvature="0" />
	<path style="fill:none;stroke:red;stroke-width:1px;stroke-linecap:butt;stroke-linejoin:miter;stroke-opacity:1" d="M 27.3623,313.101 36.3478,295.13 z" id="boundary" inkscape:connector-curvature="0" />
	<path style="fill:none;stroke:red;stroke-width:1px;stroke-linecap:butt;stroke-linejoin:miter;stroke-opacity:1" d="M 36.3478,295.13 45.3333,277.159 z" id="boundary" inkscape:connector-curvature="0" />
	<path style="fill:none;stroke:red;stroke-width:1px;stroke-linecap:butt;stroke-linejoin:miter;stroke-opacity:1" d="M 45.3333,277.159 48.9275,255.594 z" id="boundary" inkscape:connector-curvature="0" />
	<path style="fill:none;stroke:red;stroke-width:1px;stroke-linecap:butt;stroke-linejoin:miter;stroke-opacity:1" d="M 48.9275,255.594 66.8986,246.609 z" id="boundary" inkscape:connector-curvature="0" />
	<path style="fill:none;stroke:red;stroke-width:1px;stroke-linecap:butt;stroke-linejoin:miter;stroke-opacity:1" d="M 66.8986,246.609 81.2754,232.232 z" id="boundary" inkscape:connector-curvature="0" />
	<path style="fill:none;stroke:red;stroke-width:1px;stroke-linecap:butt;stroke-linejoin:miter;stroke-opacity:1" d="M 81.2754,232.232 93.8551,210.667 z" id="boundary" inkscape:connector-curvature="0" />
	<path style="fill:none;stroke:red;stroke-width:1px;stroke-linecap:butt;stroke-linejoin:miter;stroke-opacity:1" d="M 93.8551,210.667 108.232,196.29 z" id="boundary" inkscape:connector-curvature="0" />
	<path style="fill:none;stroke:red;stroke-width:1px;stroke-linecap:butt;stroke-linejoin:miter;stroke-opacity:1" d="M 108.232,196.29 124.406,187.304 z" id="boundary" inkscape:connector-curvature="0" />
	<path style="fill:none;stroke:red;stroke-width:1px;stroke-linecap:butt;stroke-linejoin:miter;stroke-opacity:1" d="M 124.406,187.304 140.58,178.319 z" id="boundary" inkscape:connector-curvature="0" />
	<path style="fill:none;stroke:red;stroke-width:1px;stroke-linecap:butt;stroke-linejoin:miter;stroke-opacity:1" d="M 140.58,178.319 156.754,169.333 z" id="boundary" inkscape:connector-curvature="0" />
	<path style="fill:none;stroke:red;stroke-width:1px;stroke-linecap:butt;stroke-linejoin:miter;stroke-opacity:1" d="M 156.754,169.333 174.725,165.739 z" id="boundary" inkscape:connector-curvature="0" />
	<path style="fill:none;stroke:red;stroke-width:1px;stroke-linecap:butt;stroke-linejoin:miter;stroke-opacity:1" d="M 174.725,165.739 192.696,160.348 z" id="boundary" inkscape:connector-curvature="0" />
	<path style="fill:none;stroke:red;stroke-width:1px;stroke-linecap:butt;stroke-linejoin:miter;stroke-opacity:1" d="M 192.696,160.348 210.667,154.957 z" id="boundary" inkscape:connector-curvature="0" />
	<path style="fill:none;stroke:red;stroke-width:1px;stroke-linecap:butt;stroke-linejoin:miter;stroke-opacity:1" d="M 210.667,154.957 228.638,160.348 z" id="boundary" inkscape:connector-curvature="0" />
	<path style="fill:none;stroke:red;stroke-width:1px;stroke-linecap:butt;stroke-linejoin:miter;stroke-opacity:1" d="M 228.638,160.348 246.609,160.348 z" id="boundary" inkscape:connector-curvature="0" />
	<path style="fill:none;stroke:red;stroke-width:1px;stroke-linecap:butt;stroke-linejoin:miter;stroke-opacity:1" d="M 246.609,160.348 264.58,160.348 z" id="boundary" inkscape:connector-curvature="0" />
	<path style="fill:none;stroke:red;stroke-width:1px;stroke-linecap:butt;stroke-linejoin:miter;stroke-opacity:1" d="M 264.58,160.348 282.551,160.348 z" id="boundary" inkscape:connector-curvature="0" />
	<path style="fill:none;stroke:red;stroke-width:1px;stroke-linecap:butt;stroke-linejoin:miter;stroke-opacity:1" d="M 282.551,160.348 300.522,160.348 z" id="boundary" inkscape:connector-curvature="0" />
	<path style="fill:none;stroke:red;stroke-width:1px;stroke-linecap:butt;stroke-linejoin:miter;stroke-opacity:1" d="M 300.522,160.348 318.493,160.348 z" id="boundary" inkscape:connector-curvature="0" />
	<path style="fill:none;stroke:red;stroke-width:1px;stroke-linecap:butt;stroke-linejoin:miter;stroke-opacity:1" d="M 318.493,160.348 336.464,160.348 z" id="boundary" inkscape:connector-curvature="0" />
	<path style="fill:none;stroke:red;stroke-width:1px;stroke-linecap:butt;stroke-linejoin:miter;stroke-opacity:1" d="M 336.464,160.348 354.435,160.348 z" id="boundary" inkscape:connector-curvature="0" />
	<path style="fill:none;stroke:red;stroke-width:1px;stroke-linecap:butt;stroke-linejoin:miter;stroke-opacity:1" d="M 354.435,160.348 372.406,160.348 z" id="boundary" inkscape:connector-curvature="0" />
	<path style="fill:none;stroke:red;stroke-width:1px;stroke-linecap:butt;stroke-linejoin:miter;stroke-opacity:1" d="M 372.406,160.348 388.58,151.362 z" id="boundary" inkscape:connector-curvature="0" />
	<path style="fill:none;stroke:red;stroke-width:1px;stroke-linecap:butt;stroke-linejoin:miter;stroke-opacity:1" d="M 388.58,151.362 399.362,122.609 z" id="boundary" inkscape:connector-curvature="0" />
	<path style="fill:none;stroke:red;stroke-width:1px;stroke-linecap:butt;stroke-linejoin:miter;stroke-opacity:1" d="M 399.362,122.609 393.971,104.638 z" id="boundary" inkscape:connector-curvature="0" />
	<path style="fill:none;stroke:red;stroke-width:1px;stroke-linecap:butt;stroke-linejoin:miter;stroke-opacity:1" d="M 393.971,104.638 376,97.4493 z" id="boundary" inkscape:connector-curvature="0" />
	<path style="fill:none;stroke:red;stroke-width:1px;stroke-linecap:butt;stroke-linejoin:miter;stroke-opacity:1" d="M 376,97.4493 372.406,79.4783 z" id="boundary" inkscape:connector-curvature="0" />
	<path style="fill:none;stroke:red;stroke-width:1px;stroke-linecap:butt;stroke-linejoin:miter;stroke-opacity:1" d="M 372.406,79.4783 372.406,61.5072 z" id="boundary" inkscape:connector-curvature="0" />
	<path style="fill:none;stroke:red;stroke-width:1px;stroke-linecap:butt;stroke-linejoin:miter;stroke-opacity:1" d="M 372.406,61.5072 363.42,45.3333 z" id="boundary" inkscape:connector-curvature="0" />
	<path style="fill:none;stroke:red;stroke-width:1px;stroke-linecap:butt;stroke-linejoin:miter;stroke-opacity:1" d="M 363.42,45.3333 345.449,45.3333 z" id="boundary" inkscape:connector-curvature="0" />
	<path style="fill:none;stroke:red;stroke-width:1px;stroke-linecap:butt;stroke-linejoin:miter;stroke-opacity:1" d="M 345.449,45.3333 327.478,39.942 z" id="boundary" inkscape:connector-curvature="0" />
	<path style="fill:none;stroke:red;stroke-width:1px;stroke-linecap:butt;stroke-linejoin:miter;stroke-opacity:1" d="M 327.478,39.942 327.478,21.971 z" id="boundary" inkscape:connector-curvature="0" />
	<path style="fill:none;stroke:red;stroke-width:1px;stroke-linecap:butt;stroke-linejoin:miter;stroke-opacity:1" d="M 327.478,21.971 345.449,12.9855 z" id="boundary" inkscape:connector-curvature="0" />
	<path style="fill:none;stroke:red;stroke-width:1px;stroke-linecap:butt;stroke-linejoin:miter;stroke-opacity:1" d="M 345.449,12.9855 363.42,4 z" id="boundary" inkscape:connector-curvature="0" />
	<path style="fill:none;stroke:red;stroke-width:1px;stroke-linecap:butt;stroke-linejoin:miter;stroke-opacity:1" d="M 363.42,4 381.391,7.5942 z" id="boundary" inkscape:connector-curvature="0" />
	<path style="fill:none;stroke:red;stroke-width:1px;stroke-linecap:butt;stroke-linejoin:miter;stroke-opacity:1" d="M 381.391,7.5942 399.362,7.5942 z" id="boundary" inkscape:connector-curvature="0" />
	<path style="fill:none;stroke:red;stroke-width:1px;stroke-linecap:butt;stroke-linejoin:miter;stroke-opacity:1" d="M 399.362,7.5942 417.333,7.5942 z" id="boundary" inkscape:connector-curvature="0" />
	<path style="fill:none;stroke:red;stroke-width:1px;stroke-linecap:butt;stroke-linejoin:miter;stroke-opacity:1" d="M 417.333,7.5942 435.304,7.5942 z" id="boundary" inkscape:connector-curvature="0" />
	<path style="fill:none;stroke:red;stroke-width:1px;stroke-linecap:butt;stroke-linejoin:miter;stroke-opacity:1" d="M 435.304,7.5942 446.087,27.3623 z" id="boundary" inkscape:connector-curvature="0" />
	<path style="fill:none;stroke:red;stroke-width:1px;stroke-linecap:butt;stroke-linejoin:miter;stroke-opacity:1" d="M 446.087,27.3623 428.116,36.3478 z" id="boundary" inkscape:connector-curvature="0" />
	<path style="fill:none;stroke:red;stroke-width:1px;stroke-linecap:butt;stroke-linejoin:miter;stroke-opacity:1" d="M 428.116,36.3478 428.116,54.3188 z" id="boundary" inkscape:connector-curvature="0" />
	<path style="fill:none;stroke:red;stroke-width:1px;stroke-linecap:butt;stroke-linejoin:miter;stroke-opacity:1" d="M 428.116,54.3188 419.13,81.2754 z" id="boundary" inkscape:connector-curvature="0" />
	<path style="fill:none;stroke:red;stroke-width:1px;stroke-linecap:butt;stroke-linejoin:miter;stroke-opacity:1" d="M 419.13,81.2754 422.725,99.2464 z" id="boundary" inkscape:connector-curvature="0" />
	<path style="fill:none;stroke:red;stroke-width:1px;stroke-linecap:butt;stroke-linejoin:miter;stroke-opacity:1" d="M 422.725,99.2464 428.116,117.217 z" id="boundary" inkscape:connector-curvature="0" />
	<path style="fill:none;stroke:red;stroke-width:1px;stroke-linecap:butt;stroke-linejoin:miter;stroke-opacity:1" d="M 428.116,117.217 428.116,135.188 z" id="boundary" inkscape:connector-curvature="0" />
	<path style="fill:none;stroke:red;stroke-width:1px;stroke-linecap:butt;stroke-linejoin:miter;stroke-opacity:1" d="M 428.116,135.188 437.101,151.362 z" id="boundary" inkscape:connector-curvature="0" />
	<path style="fill:none;stroke:red;stroke-width:1px;stroke-linecap:butt;stroke-linejoin:miter;stroke-opacity:1" d="M 437.101,151.362 455.072,145.971 z" id="boundary" inkscape:connector-curvature="0" />
	<path style="fill:none;stroke:red;stroke-width:1px;stroke-linecap:butt;stroke-linejoin:miter;stroke-opacity:1" d="M 455.072,145.971 473.043,136.986 z" id="boundary" inkscape:connector-curvature="0" />
	<path style="fill:none;stroke:red;stroke-width:1px;stroke-linecap:butt;stroke-linejoin:miter;stroke-opacity:1" d="M 473.043,136.986 487.42,124.406 z" id="boundary" inkscape:connector-curvature="0" />
	<path style="fill:none;stroke:red;stroke-width:1px;stroke-linecap:butt;stroke-linejoin:miter;stroke-opacity:1" d="M 487.42,124.406 505.391,124.406 z" id="boundary" inkscape:connector-curvature="0" />
	<path style="fill:none;stroke:red;stroke-width:1px;stroke-linecap:butt;stroke-linejoin:miter;stroke-opacity:1" d="M 505.391,124.406 523.362,124.406 z" id="boundary" inkscape:connector-curvature="0" />
	<path style="fill:none;stroke:red;stroke-width:1px;stroke-linecap:butt;stroke-linejoin:miter;stroke-opacity:1" d="M 523.362,124.406 541.333,124.406 z" id="boundary" inkscape:connector-curvature="0" />
	<path style="fill:none;stroke:red;stroke-width:1px;stroke-linecap:butt;stroke-linejoin:miter;stroke-opacity:1" d="M 541.333,124.406 559.304,124.406 z" id="boundary" inkscape:connector-curvature="0" />
	<path style="fill:none;stroke:red;stroke-width:1px;stroke-linecap:butt;stroke-linejoin:miter;stroke-opacity:1" d="M 559.304,124.406 575.478,133.391 z" id="boundary" inkscape:connector-curvature="0" />
	<path style="fill:none;stroke:red;stroke-width:1px;stroke-linecap:butt;stroke-linejoin:miter;stroke-opacity:1" d="M 575.478,133.391 591.652,142.377 z" id="boundary" inkscape:connector-curvature="0" />
	<path style="fill:none;stroke:red;stroke-width:1px;stroke-linecap:butt;stroke-linejoin:miter;stroke-opacity:1" d="M 591.652,142.377 607.826,151.362 z" id="boundary" inkscape:connector-curvature="0" />
	<path style="fill:none;stroke:red;stroke-width:1px;stroke-linecap:butt;stroke-linejoin:miter;stroke-opacity:1" d="M 607.826,151.362 625.797,151.362 z" id="boundary" inkscape:connector-curvature="0" />
	<path style="fill:none;stroke:red;stroke-width:1px;stroke-linecap:butt;stroke-linejoin:miter;stroke-opacity:1" d="M 625.797,151.362 643.768,151.362 z" id="boundary" inkscape:connector-curvature="0" />
	<path style="fill:none;stroke:red;stroke-width:1px;stroke-linecap:butt;stroke-linejoin:miter;stroke-opacity:1" d="M 643.768,151.362 661.739,151.362 z" id="boundary" inkscape:connector-curvature="0" />
	<path style="fill:none;stroke:red;stroke-width:1px;stroke-linecap:butt;stroke-linejoin:miter;stroke-opacity:1" d="M 661.739,151.362 679.71,156.754 z" id="boundary" inkscape:connector-curvature="0" />
	<path style="fill:none;stroke:red;stroke-width:1px;stroke-linecap:butt;stroke-linejoin:miter;stroke-opacity:1" d="M 679.71,156.754 688.696,172.928 z" id="boundary" inkscape:connector-curvature="0" />
	<path style="fill:none;stroke:red;stroke-width:1px;stroke-linecap:butt;stroke-linejoin:miter;stroke-opacity:1" d="M 688.696,172.928 679.71,198.087 z" id="boundary" inkscape:connector-curvature="0" />
	<path style="fill:none;stroke:red;stroke-width:1px;stroke-linecap:butt;stroke-linejoin:miter;stroke-opacity:1" d="M 679.71,198.087 661.739,198.087 z" id="boundary" inkscape:connector-curvature="0" />
	<path style="fill:none;stroke:red;stroke-width:1px;stroke-linecap:butt;stroke-linejoin:miter;stroke-opacity:1" d="M 661.739,198.087 643.768,207.072 z" id="boundary" inkscape:connector-curvature="0" />
	<path style="fill:none;stroke:red;stroke-width:1px;stroke-linecap:butt;stroke-linejoin:miter;stroke-opacity:1" d="M 643.768,207.072 625.797,207.072 z" id="boundary" inkscape:connector-curvature="0" />
	<path style="fill:none;stroke:red;stroke-width:1px;stroke-linecap:butt;stroke-linejoin:miter;stroke-opacity:1" d="M 625.797,207.072 625.797,225.043 z" id="boundary" inkscape:connector-curvature="0" />
	<path style="fill:none;stroke:red;stroke-width:1px;stroke-linecap:butt;stroke-linejoin:miter;stroke-opacity:1" d="M 625.797,225.043 643.768,232.232 z" id="boundary" inkscape:connector-curvature="0" />
	<path style="fill:none;stroke:red;stroke-width:1px;stroke-linecap:butt;stroke-linejoin:miter;stroke-opacity:1" d="M 643.768,232.232 661.739,232.232 z" id="boundary" inkscape:connector-curvature="0" />
	<path style="fill:none;stroke:red;stroke-width:1px;stroke-linecap:butt;stroke-linejoin:miter;stroke-opacity:1" d="M 661.739,232.232 679.71,232.232 z" id="boundary" inkscape:connector-curvature="0" />
	<path style="fill:none;stroke:red;stroke-width:1px;stroke-linecap:butt;stroke-linejoin:miter;stroke-opacity:1" d="M 679.71,232.232 697.681,232.232 z" id="boundary" inkscape:connector-curvature="0" />
	<path style="fill:none;stroke:red;stroke-width:1px;stroke-linecap:butt;stroke-linejoin:miter;stroke-opacity:1" d="M 697.681,232.232 715.652,232.232 z" id="boundary" inkscape:connector-curvature="0" />
	<path style="fill:none;stroke:red;stroke-width:1px;stroke-linecap:butt;stroke-linejoin:miter;stroke-opacity:1" d="M 715.652,232.232 733.623,232.232 z" id="boundary" inkscape:connector-curvature="0" />
	<path style="fill:none;stroke:red;stroke-width:1px;stroke-linecap:butt;stroke-linejoin:miter;stroke-opacity:1" d="M 733.623,232.232 751.594,232.232 z" id="boundary" inkscape:connector-curvature="0" />
	<path style="fill:none;stroke:red;stroke-width:1px;stroke-linecap:butt;stroke-linejoin:miter;stroke-opacity:1" d="M 751.594,232.232 767.768,223.246 z" id="boundary" inkscape:connector-curvature="0" />
	<path style="fill:none;stroke:red;stroke-width:1px;stroke-linecap:butt;stroke-linejoin:miter;stroke-opacity:1" d="M 767.768,223.246 785.739,223.246 z" id="boundary" inkscape:connector-curvature="0" />
	<path style="fill:none;stroke:red;stroke-width:1px;stroke-linecap:butt;stroke-linejoin:miter;stroke-opacity:1" d="M 785.739,223.246 803.71,223.246 z" id="boundary" inkscape:connector-curvature="0" />
	<path style="fill:none;stroke:red;stroke-width:1px;stroke-linecap:butt;stroke-linejoin:miter;stroke-opacity:1" d="M 803.71,223.246 821.681,223.246 z" id="boundary" inkscape:connector-curvature="0" />
	<path style="fill:none;stroke:red;stroke-width:1px;stroke-linecap:butt;stroke-linejoin:miter;stroke-opacity:1" d="M 821.681,223.246 839.652,223.246 z" id="boundary" inkscape:connector-curvature="0" />
	<path style="fill:none;stroke:red;stroke-width:1px;stroke-linecap:butt;stroke-linejoin:miter;stroke-opacity:1" d="M 839.652,223.246 857.623,219.652 z" id="boundary" inkscape:connector-curvature="0" />
	<path style="fill:none;stroke:red;stroke-width:1px;stroke-linecap:butt;stroke-linejoin:miter;stroke-opacity:1" d="M 857.623,219.652 875.594,223.246 z" id="boundary" inkscape:connector-curvature="0" />
	<path style="fill:none;stroke:red;stroke-width:1px;stroke-linecap:butt;stroke-linejoin:miter;stroke-opacity:1" d="M 875.594,223.246 891.768,214.261 z" id="boundary" inkscape:connector-curvature="0" />
	<path style="fill:none;stroke:red;stroke-width:1px;stroke-linecap:butt;stroke-linejoin:miter;stroke-opacity:1" d="M 891.768,214.261 909.739,214.261 z" id="boundary" inkscape:connector-curvature="0" />
	<path style="fill:none;stroke:red;stroke-width:1px;stroke-linecap:butt;stroke-linejoin:miter;stroke-opacity:1" d="M 909.739,214.261 927.71,214.261 z" id="boundary" inkscape:connector-curvature="0" />
	<path style="fill:none;stroke:red;stroke-width:1px;stroke-linecap:butt;stroke-linejoin:miter;stroke-opacity:1" d="M 927.71,214.261 943.884,205.275 z" id="boundary" inkscape:connector-curvature="0" />
	<path style="fill:none;stroke:red;stroke-width:1px;stroke-linecap:butt;stroke-linejoin:miter;stroke-opacity:1" d="M 943.884,205.275 961.855,205.275 z" id="boundary" inkscape:connector-curvature="0" />
	<path style="fill:none;stroke:red;stroke-width:1px;stroke-linecap:butt;stroke-linejoin:miter;stroke-opacity:1" d="M 961.855,205.275 979.826,205.275 z" id="boundary" inkscape:connector-curvature="0" />
	<circle cx="4" cy="363.42" r="4" fill="#0" id="circle0"/>
	<circle cx="4" cy="444.29" r="4" fill="#0" id="circle1"/>
	<circle cx="12.9855" cy="327.478" r="4" fill="#0" id="circle2"/>
	<circle cx="12.9855" cy="345.449" r="4" fill="#0" id="circle3"/>
	<circle cx="12.9855" cy="379.594" r="4" fill="#0" id="circle4"/>
	<circle cx="12.9855" cy="397.565" r="4" fill="#0" id="circle5"/>
	<circle cx="12.9855" cy="415.536" r="4" fill="#0" id="circle6"/>
	<circle cx="12.9855" cy="460.464" r="4" fill="#0" id="circle7"/>
	<circle cx="21.971" cy="476.638" r="4" fill="#0" id="circle8"/>
	<circle cx="27.3623" cy="313.101" r="4" fill="#0" id="circle9"/>
	<circle cx="36.3478" cy="295.13" r="4" fill="#0" id="circle10"/>
	<circle cx="38.1449" cy="485.623" r="4" fill="#0" id="circle11"/>
	<circle cx="39.942" cy="552.116" r="4" fill="#0" id="circle12"/>
	<circle cx="39.942" cy="570.087" r="4" fill="#0" id="circle13"/>
	<circle cx="45.3333" cy="277.159" r="4" fill="#0" id="circle14"/>
	<circle cx="48.9275" cy="255.594" r="4" fill="#0" id="circle15"/>
	<circle cx="54.3188" cy="537.739" r="4" fill="#0" id="circle16"/>
	<circle cx="54.3188" cy="582.667" r="4" fill="#0" id="circle17"/>
	<circle cx="56.1159" cy="485.623" r="4" fill="#0" id="circle18"/>
	<circle cx="66.8986" cy="246.609" r="4" fill="#0" id="circle19"/>
	<circle cx="72.2899" cy="494.609" r="4" fill="#0" id="circle20"/>
	<circle cx="72.2899" cy="537.739" r="4" fill="#0" id="circle21"/>
	<circle cx="72.2899" cy="584.464" r="4" fill="#0" id="circle22"/>
	<circle cx="81.2754" cy="232.232" r="4" fill="#0" id="circle23"/>
	<circle cx="84.8696" cy="552.116" r="4" fill="#0" id="circle24"/>
	<circle cx="90.2609" cy="494.609" r="4" fill="#0" id="circle25"/>
	<circle cx="90.2609" cy="591.652" r="4" fill="#0" id="circle26"/>
	<circle cx="93.8551" cy="210.667" r="4" fill="#0" id="circle27"/>
	<circle cx="99.2464" cy="564.696" r="4" fill="#0" id="circle28"/>
	<circle cx="108.232" cy="196.29" r="4" fill="#0" id="circle29"/>
	<circle cx="108.232" cy="494.609" r="4" fill="#0" id="circle30"/>
	<circle cx="108.232" cy="584.464" r="4" fill="#0" id="circle31"/>
	<circle cx="117.217" cy="555.71" r="4" fill="#0" id="circle32"/>
	<circle cx="124.406" cy="187.304" r="4" fill="#0" id="circle33"/>
	<circle cx="126.203" cy="494.609" r="4" fill="#0" id="circle34"/>
	<circle cx="126.203" cy="584.464" r="4" fill="#0" id="circle35"/>
	<circle cx="133.391" cy="564.696" r="4" fill="#0" id="circle36"/>
	<circle cx="140.58" cy="178.319" r="4" fill="#0" id="circle37"/>
	<circle cx="144.174" cy="494.609" r="4" fill="#0" id="circle38"/>
	<circle cx="144.174" cy="591.652" r="4" fill="#0" id="circle39"/>
	<circle cx="151.362" cy="564.696" r="4" fill="#0" id="circle40"/>
	<circle cx="156.754" cy="169.333" r="4" fill="#0" id="circle41"/>
	<circle cx="162.145" cy="494.609" r="4" fill="#0" id="circle42"/>
	<circle cx="162.145" cy="584.464" r="4" fill="#0" id="circle43"/>
	<circle cx="169.333" cy="564.696" r="4" fill="#0" id="circle44"/>
	<circle cx="174.725" cy="165.739" r="4" fill="#0" id="circle45"/>
	<circle cx="180.116" cy="494.609" r="4" fill="#0" id="circle46"/>
	<circle cx="180.116" cy="584.464" r="4" fill="#0" id="circle47"/>
	<circle cx="187.304" cy="557.507" r="4" fill="#0" id="circle48"/>
	<circle cx="192.696" cy="160.348" r="4" fill="#0" id="circle49"/>
	<circle cx="198.087" cy="494.609" r="4" fill="#0" id="circle50"/>
	<circle cx="198.087" cy="582.667" r="4" fill="#0" id="circle51"/>
	<circle cx="201.681" cy="546.725" r="4" fill="#0" id="circle52"/>
	<circle cx="210.667" cy="154.957" r="4" fill="#0" id="circle53"/>
	<circle cx="212.464" cy="532.348" r="4" fill="#0" id="circle54"/>
	<circle cx="216.058" cy="494.609" r="4" fill="#0" id="circle55"/>
	<circle cx="216.058" cy="573.681" r="4" fill="#0" id="circle56"/>
	<circle cx="226.841" cy="519.768" r="4" fill="#0" id="circle57"/>
	<circle cx="228.638" cy="160.348" r="4" fill="#0" id="circle58"/>
	<circle cx="234.029" cy="573.681" r="4" fill="#0" id="circle59"/>
	<circle cx="246.609" cy="160.348" r="4" fill="#0" id="circle60"/>
	<circle cx="252" cy="566.493" r="4" fill="#0" id="circle61"/>
	<circle cx="264.58" cy="160.348" r="4" fill="#0" id="circle62"/>
	<circle cx="269.971" cy="566.493" r="4" fill="#0" id="circle63"/>
	<circle cx="282.551" cy="160.348" r="4" fill="#0" id="circle64"/>
	<circle cx="287.942" cy="564.696" r="4" fill="#0" id="circle65"/>
	<circle cx="300.522" cy="160.348" r="4" fill="#0" id="circle66"/>
	<circle cx="305.913" cy="564.696" r="4" fill="#0" id="circle67"/>
	<circle cx="318.493" cy="160.348" r="4" fill="#0" id="circle68"/>
	<circle cx="323.884" cy="557.507" r="4" fill="#0" id="circle69"/>
	<circle cx="327.478" cy="21.971" r="4" fill="#0" id="circle70"/>
	<circle cx="327.478" cy="39.942" r="4" fill="#0" id="circle71"/>
	<circle cx="336.464" cy="160.348" r="4" fill="#0" id="circle72"/>
	<circle cx="341.855" cy="557.507" r="4" fill="#0" id="circle73"/>
	<circle cx="345.449" cy="12.9855" r="4" fill="#0" id="circle74"/>
	<circle cx="345.449" cy="45.3333" r="4" fill="#0" id="circle75"/>
	<circle cx="354.435" cy="160.348" r="4" fill="#0" id="circle76"/>
	<circle cx="359.826" cy="555.71" r="4" fill="#0" id="circle77"/>
	<circle cx="363.42" cy="4" r="4" fill="#0" id="circle78"/>
	<circle cx="363.42" cy="45.3333" r="4" fill="#0" id="circle79"/>
	<circle cx="372.406" cy="61.5072" r="4" fill="#0" id="circle80"/>
	<circle cx="372.406" cy="79.4783" r="4" fill="#0" id="circle81"/>
	<circle cx="372.406" cy="160.348" r="4" fill="#0" id="circle82"/>
	<circle cx="376" cy="97.4493" r="4" fill="#0" id="circle83"/>
	<circle cx="377.797" cy="548.522" r="4" fill="#0" id="circle84"/>
	<circle cx="381.391" cy="7.5942" r="4" fill="#0" id="circle85"/>
	<circle cx="388.58" cy="151.362" r="4" fill="#0" id="circle86"/>
	<circle cx="393.971" cy="104.638" r="4" fill="#0" id="circle87"/>
	<circle cx="395.768" cy="548.522" r="4" fill="#0" id="circle88"/>
	<circle cx="399.362" cy="7.5942" r="4" fill="#0" id="circle89"/>
	<circle cx="399.362" cy="122.609" r="4" fill="#0" id="circle90"/>
	<circle cx="413.739" cy="548.522" r="4" fill="#0" id="circle91"/>
	<circle cx="417.333" cy="7.5942" r="4" fill="#0" id="circle92"/>
	<circle cx="419.13" cy="81.2754" r="4" fill="#0" id="circle93"/>
	<circle cx="422.725" cy="99.2464" r="4" fill="#0" id="circle94"/>
	<circle cx="428.116" cy="36.3478" r="4" fill="#0" id="circle95"/>
	<circle cx="428.116" cy="54.3188" r="4" fill="#0" id="circle96"/>
	<circle cx="428.116" cy="117.217" r="4" fill="#0" id="circle97"/>
	<circle cx="428.116" cy="135.188" r="4" fill="#0" id="circle98"/>
	<circle cx="431.71" cy="548.522" r="4" fill="#0" id="circle99"/>
	<circle cx="435.304" cy="7.5942" r="4" fill="#0" id="circle100"/>
	<circle cx="437.101" cy="151.362" r="4" fill="#0" id="circle101"/>
	<circle cx="446.087" cy="27.3623" r="4" fill="#0" id="circle102"/>
	<circle cx="449.681" cy="546.725" r="4" fill="#0" id="circle103"/>
	<circle cx="455.072" cy="145.971" r="4" fill="#0" id="circle104"/>
	<circle cx="464.058" cy="494.609" r="4" fill="#0" id="circle105"/>
	<circle cx="464.058" cy="512.58" r="4" fill="#0" id="circle106"/>
	<circle cx="467.652" cy="530.551" r="4" fill="#0" id="circle107"/>
	<circle cx="473.043" cy="136.986" r="4" fill="#0" id="circle108"/>
	<circle cx="480.232" cy="485.623" r="4" fill="#0" id="circle109"/>
	<circle cx="487.42" cy="124.406" r="4" fill="#0" id="circle110"/>
	<circle cx="496.406" cy="476.638" r="4" fill="#0" id="circle111"/>
	<circle cx="505.391" cy="124.406" r="4" fill="#0" id="circle112"/>
	<circle cx="514.377" cy="476.638" r="4" fill="#0" id="circle113"/>
	<circle cx="523.362" cy="124.406" r="4" fill="#0" id="circle114"/>
	<circle cx="532.348" cy="476.638" r="4" fill="#0" id="circle115"/>
	<circle cx="541.333" cy="124.406" r="4" fill="#0" id="circle116"/>
	<circle cx="550.319" cy="476.638" r="4" fill="#0" id="circle117"/>
	<circle cx="559.304" cy="124.406" r="4" fill="#0" id="circle118"/>
	<circle cx="568.29" cy="476.638" r="4" fill="#0" id="circle119"/>
	<circle cx="575.478" cy="133.391" r="4" fill="#0" id="circle120"/>
	<circle cx="586.261" cy="476.638" r="4" fill="#0" id="circle121"/>
	<circle cx="591.652" cy="142.377" r="4" fill="#0" id="circle122"/>
	<circle cx="604.232" cy="476.638" r="4" fill="#0" id="circle123"/>
	<circle cx="607.826" cy="151.362" r="4" fill="#0" id="circle124"/>
	<circle cx="622.203" cy="476.638" r="4" fill="#0" id="circle125"/>
	<circle cx="625.797" cy="151.362" r="4" fill="#0" id="circle126"/>
	<circle cx="625.797" cy="207.072" r="4" fill="#0" id="circle127"/>
	<circle cx="625.797" cy="225.043" r="4" fill="#0" id="circle128"/>
	<circle cx="625.797" cy="377.797" r="4" fill="#0" id="circle129"/>
	<circle cx="625.797" cy="395.768" r="4" fill="#0" id="circle130"/>
	<circle cx="640.174" cy="476.638" r="4" fill="#0" id="circle131"/>
	<circle cx="641.971" cy="368.812" r="4" fill="#0" id="circle132"/>
	<circle cx="643.768" cy="151.362" r="4" fill="#0" id="circle133"/>
	<circle cx="643.768" cy="207.072" r="4" fill="#0" id="circle134"/>
	<circle cx="643.768" cy="232.232" r="4" fill="#0" id="circle135"/>
	<circle cx="643.768" cy="402.957" r="4" fill="#0" id="circle136"/>
	<circle cx="656.348" cy="467.652" r="4" fill="#0" id="circle137"/>
	<circle cx="658.145" cy="359.826" r="4" fill="#0" id="circle138"/>
	<circle cx="661.739" cy="151.362" r="4" fill="#0" id="circle139"/>
	<circle cx="661.739" cy="198.087" r="4" fill="#0" id="circle140"/>
	<circle cx="661.739" cy="232.232" r="4" fill="#0" id="circle141"/>
	<circle cx="661.739" cy="402.957" r="4" fill="#0" id="circle142"/>
	<circle cx="672.522" cy="458.667" r="4" fill="#0" id="circle143"/>
	<circle cx="676.116" cy="356.232" r="4" fill="#0" id="circle144"/>
	<circle cx="679.71" cy="156.754" r="4" fill="#0" id="circle145"/>
	<circle cx="679.71" cy="198.087" r="4" fill="#0" id="circle146"/>
	<circle cx="679.71" cy="232.232" r="4" fill="#0" id="circle147"/>
	<circle cx="679.71" cy="408.348" r="4" fill="#0" id="circle148"/>
	<circle cx="688.696" cy="172.928" r="4" fill="#0" id="circle149"/>
	<circle cx="688.696" cy="424.522" r="4" fill="#0" id="circle150"/>
	<circle cx="688.696" cy="449.681" r="4" fill="#0" id="circle151"/>
	<circle cx="694.087" cy="350.841" r="4" fill="#0" id="circle152"/>
	<circle cx="697.681" cy="232.232" r="4" fill="#0" id="circle153"/>
	<circle cx="710.261" cy="341.855" r="4" fill="#0" id="circle154"/>
	<circle cx="715.652" cy="232.232" r="4" fill="#0" id="circle155"/>
	<circle cx="726.435" cy="332.87" r="4" fill="#0" id="circle156"/>
	<circle cx="733.623" cy="232.232" r="4" fill="#0" id="circle157"/>
	<circle cx="742.609" cy="323.884" r="4" fill="#0" id="circle158"/>
	<circle cx="751.594" cy="232.232" r="4" fill="#0" id="circle159"/>
	<circle cx="760.58" cy="314.899" r="4" fill="#0" id="circle160"/>
	<circle cx="767.768" cy="223.246" r="4" fill="#0" id="circle161"/>
	<circle cx="778.551" cy="314.899" r="4" fill="#0" id="circle162"/>
	<circle cx="785.739" cy="223.246" r="4" fill="#0" id="circle163"/>
	<circle cx="792.928" cy="302.319" r="4" fill="#0" id="circle164"/>
	<circle cx="803.71" cy="223.246" r="4" fill="#0" id="circle165"/>
	<circle cx="810.899" cy="293.333" r="4" fill="#0" id="circle166"/>
	<circle cx="821.681" cy="223.246" r="4" fill="#0" id="circle167"/>
	<circle cx="828.87" cy="284.348" r="4" fill="#0" id="circle168"/>
	<circle cx="839.652" cy="223.246" r="4" fill="#0" id="circle169"/>
	<circle cx="846.841" cy="275.362" r="4" fill="#0" id="circle170"/>
	<circle cx="857.623" cy="219.652" r="4" fill="#0" id="circle171"/>
	<circle cx="864.812" cy="269.971" r="4" fill="#0" id="circle172"/>
	<circle cx="875.594" cy="223.246" r="4" fill="#0" id="circle173"/>
	<circle cx="880.986" cy="260.986" r="4" fill="#0" id="circle174"/>
	<circle cx="891.768" cy="214.261" r="4" fill="#0" id="circle175"/>
	<circle cx="898.957" cy="259.188" r="4" fill="#0" id="circle176"/>
	<circle cx="909.739" cy="214.261" r="4" fill="#0" id="circle177"/>
	<circle cx="916.928" cy="259.188" r="4" fill="#0" id="circle178"/>
	<circle cx="927.71" cy="214.261" r="4" fill="#0" id="circle179"/>
	<circle cx="931.304" cy="243.014" r="4" fill="#0" id="circle180"/>
	<circle cx="943.884" cy="205.275" r="4" fill="#0" id="circle181"/>
	<circle cx="949.275" cy="243.014" r="4" fill="#0" id="circle182"/>
	<circle cx="961.855" cy="205.275" r="4" fill="#0" id="circle183"/>
	<circle cx="967.246" cy="243.014" r="4" fill="#0" id="circle184"/>
	<circle cx="979.826" cy="205.275" r="4" fill="#0" id="circle185"/>
	<circle cx="983.42" cy="234.029" r="4" fill="#0" id="circle186"/>
	<circle cx="996" cy="214.261" r="4" fill="#0" id="circle187"/>
	</g>
</svg>