<?xml version="1.0" encoding="UTF-8" standalone="no"?>
<!-- Created with CurveBenchmark -->
<svg
	xmlns:dc="http://purl.org/dc/elements/1.1/"
	xmlns:cc="http://creativecommons.org/ns#"
	xmlns:rdf="http://www.w3.org/1999/02/22-rdf-syntax-ns#"
	xmlns:svg="http://www.w3.org/2000/svg"
	xmlns="http://www.w3.org/2000/svg"
	xmlns:sodipodi="http://sodipodi.sourceforge.net/DTD/sodipodi-0.dtd"
	xmlns:inkscape="http://www.inkscape.org/namespaces/inkscape"
	width="1000"
	height="1000"
	id="svg2"
	version="1.1"
	sodipodi:docname="manifold/connect2d-fish180.png.txt">
<defs
	id="defs4" />
<metadata
	id="metadata7">
	<rdf:RDF>
		<cc:Work
			rdf:about="">
			<dc:format>image/svg+xml</dc:format>
			<dc:type
				rdf:resource="http://purl.org/dc/dcmitype/StillImage" />
			<dc:title></dc:title>
		</cc:Work>
	</rdf:RDF>
</metadata>
<g
	inkscape:label="Layer 1"
	inkscape:groupmode="layer"
	id="layer1">
	<path style="fill:none;stroke:red;stroke-width:1px;stroke-linecap:butt;stroke-linejoin:miter;stroke-opacity:1" d="M 996,219.166 973.645,241.521 z" id="boundary" inkscape:connector-curvature="0" />
	<path style="fill:none;stroke:red;stroke-width:1px;stroke-linecap:butt;stroke-linejoin:miter;stroke-opacity:1" d="M 973.645,241.521 951.29,263.876 z" id="boundary" inkscape:connector-curvature="0" />
	<path style="fill:none;stroke:red;stroke-width:1px;stroke-linecap:butt;stroke-linejoin:miter;stroke-opacity:1" d="M 951.29,263.876 928.935,286.231 z" id="boundary" inkscape:connector-curvature="0" />
	<path style="fill:none;stroke:red;stroke-width:1px;stroke-linecap:butt;stroke-linejoin:miter;stroke-opacity:1" d="M 928.935,286.231 906.58,302.997 z" id="boundary" inkscape:connector-curvature="0" />
	<path style="fill:none;stroke:red;stroke-width:1px;stroke-linecap:butt;stroke-linejoin:miter;stroke-opacity:1" d="M 906.58,302.997 878.637,314.175 z" id="boundary" inkscape:connector-curvature="0" />
	<path style="fill:none;stroke:red;stroke-width:1px;stroke-linecap:butt;stroke-linejoin:miter;stroke-opacity:1" d="M 878.637,314.175 850.693,322.558 z" id="boundary" inkscape:connector-curvature="0" />
	<path style="fill:none;stroke:red;stroke-width:1px;stroke-linecap:butt;stroke-linejoin:miter;stroke-opacity:1" d="M 850.693,322.558 822.749,333.735 z" id="boundary" inkscape:connector-curvature="0" />
	<path style="fill:none;stroke:red;stroke-width:1px;stroke-linecap:butt;stroke-linejoin:miter;stroke-opacity:1" d="M 822.749,333.735 794.806,344.913 z" id="boundary" inkscape:connector-curvature="0" />
	<path style="fill:none;stroke:red;stroke-width:1px;stroke-linecap:butt;stroke-linejoin:miter;stroke-opacity:1" d="M 794.806,344.913 766.862,356.09 z" id="boundary" inkscape:connector-curvature="0" />
	<path style="fill:none;stroke:red;stroke-width:1px;stroke-linecap:butt;stroke-linejoin:miter;stroke-opacity:1" d="M 766.862,356.09 738.918,356.09 z" id="boundary" inkscape:connector-curvature="0" />
	<path style="fill:none;stroke:red;stroke-width:1px;stroke-linecap:butt;stroke-linejoin:miter;stroke-opacity:1" d="M 738.918,356.09 710.975,358.885 z" id="boundary" inkscape:connector-curvature="0" />
	<path style="fill:none;stroke:red;stroke-width:1px;stroke-linecap:butt;stroke-linejoin:miter;stroke-opacity:1" d="M 710.975,358.885 697.003,384.034 z" id="boundary" inkscape:connector-curvature="0" />
	<path style="fill:none;stroke:red;stroke-width:1px;stroke-linecap:butt;stroke-linejoin:miter;stroke-opacity:1" d="M 697.003,384.034 680.237,406.389 z" id="boundary" inkscape:connector-curvature="0" />
	<path style="fill:none;stroke:red;stroke-width:1px;stroke-linecap:butt;stroke-linejoin:miter;stroke-opacity:1" d="M 680.237,406.389 657.882,428.744 z" id="boundary" inkscape:connector-curvature="0" />
	<path style="fill:none;stroke:red;stroke-width:1px;stroke-linecap:butt;stroke-linejoin:miter;stroke-opacity:1" d="M 657.882,428.744 635.527,445.51 z" id="boundary" inkscape:connector-curvature="0" />
	<path style="fill:none;stroke:red;stroke-width:1px;stroke-linecap:butt;stroke-linejoin:miter;stroke-opacity:1" d="M 635.527,445.51 607.583,453.893 z" id="boundary" inkscape:connector-curvature="0" />
	<path style="fill:none;stroke:red;stroke-width:1px;stroke-linecap:butt;stroke-linejoin:miter;stroke-opacity:1" d="M 607.583,453.893 582.434,439.921 z" id="boundary" inkscape:connector-curvature="0" />
	<path style="fill:none;stroke:red;stroke-width:1px;stroke-linecap:butt;stroke-linejoin:miter;stroke-opacity:1" d="M 582.434,439.921 568.462,414.772 z" id="boundary" inkscape:connector-curvature="0" />
	<path style="fill:none;stroke:red;stroke-width:1px;stroke-linecap:butt;stroke-linejoin:miter;stroke-opacity:1" d="M 568.462,414.772 562.873,386.828 z" id="boundary" inkscape:connector-curvature="0" />
	<path style="fill:none;stroke:red;stroke-width:1px;stroke-linecap:butt;stroke-linejoin:miter;stroke-opacity:1" d="M 562.873,386.828 554.49,350.501 z" id="boundary" inkscape:connector-curvature="0" />
	<path style="fill:none;stroke:red;stroke-width:1px;stroke-linecap:butt;stroke-linejoin:miter;stroke-opacity:1" d="M 554.49,350.501 526.546,350.501 z" id="boundary" inkscape:connector-curvature="0" />
	<path style="fill:none;stroke:red;stroke-width:1px;stroke-linecap:butt;stroke-linejoin:miter;stroke-opacity:1" d="M 526.546,350.501 498.603,350.501 z" id="boundary" inkscape:connector-curvature="0" />
	<path style="fill:none;stroke:red;stroke-width:1px;stroke-linecap:butt;stroke-linejoin:miter;stroke-opacity:1" d="M 498.603,350.501 470.659,344.913 z" id="boundary" inkscape:connector-curvature="0" />
	<path style="fill:none;stroke:red;stroke-width:1px;stroke-linecap:butt;stroke-linejoin:miter;stroke-opacity:1" d="M 470.659,344.913 442.715,344.913 z" id="boundary" inkscape:connector-curvature="0" />
	<path style="fill:none;stroke:red;stroke-width:1px;stroke-linecap:butt;stroke-linejoin:miter;stroke-opacity:1" d="M 442.715,344.913 414.772,344.913 z" id="boundary" inkscape:connector-curvature="0" />
	<path style="fill:none;stroke:red;stroke-width:1px;stroke-linecap:butt;stroke-linejoin:miter;stroke-opacity:1" d="M 414.772,344.913 386.828,339.324 z" id="boundary" inkscape:connector-curvature="0" />
	<path style="fill:none;stroke:red;stroke-width:1px;stroke-linecap:butt;stroke-linejoin:miter;stroke-opacity:1" d="M 386.828,339.324 358.885,347.707 z" id="boundary" inkscape:connector-curvature="0" />
	<path style="fill:none;stroke:red;stroke-width:1px;stroke-linecap:butt;stroke-linejoin:miter;stroke-opacity:1" d="M 358.885,347.707 330.941,356.09 z" id="boundary" inkscape:connector-curvature="0" />
	<path style="fill:none;stroke:red;stroke-width:1px;stroke-linecap:butt;stroke-linejoin:miter;stroke-opacity:1" d="M 330.941,356.09 302.997,361.679 z" id="boundary" inkscape:connector-curvature="0" />
	<path style="fill:none;stroke:red;stroke-width:1px;stroke-linecap:butt;stroke-linejoin:miter;stroke-opacity:1" d="M 302.997,361.679 275.054,361.679 z" id="boundary" inkscape:connector-curvature="0" />
	<path style="fill:none;stroke:red;stroke-width:1px;stroke-linecap:butt;stroke-linejoin:miter;stroke-opacity:1" d="M 275.054,361.679 247.11,353.296 z" id="boundary" inkscape:connector-curvature="0" />
	<path style="fill:none;stroke:red;stroke-width:1px;stroke-linecap:butt;stroke-linejoin:miter;stroke-opacity:1" d="M 247.11,353.296 233.138,328.146 z" id="boundary" inkscape:connector-curvature="0" />
	<path style="fill:none;stroke:red;stroke-width:1px;stroke-linecap:butt;stroke-linejoin:miter;stroke-opacity:1" d="M 233.138,328.146 221.961,300.203 z" id="boundary" inkscape:connector-curvature="0" />
	<path style="fill:none;stroke:red;stroke-width:1px;stroke-linecap:butt;stroke-linejoin:miter;stroke-opacity:1" d="M 221.961,300.203 216.372,272.259 z" id="boundary" inkscape:connector-curvature="0" />
	<path style="fill:none;stroke:red;stroke-width:1px;stroke-linecap:butt;stroke-linejoin:miter;stroke-opacity:1" d="M 216.372,272.259 188.428,272.259 z" id="boundary" inkscape:connector-curvature="0" />
	<path style="fill:none;stroke:red;stroke-width:1px;stroke-linecap:butt;stroke-linejoin:miter;stroke-opacity:1" d="M 188.428,272.259 160.485,283.437 z" id="boundary" inkscape:connector-curvature="0" />
	<path style="fill:none;stroke:red;stroke-width:1px;stroke-linecap:butt;stroke-linejoin:miter;stroke-opacity:1" d="M 160.485,283.437 138.13,300.203 z" id="boundary" inkscape:connector-curvature="0" />
	<path style="fill:none;stroke:red;stroke-width:1px;stroke-linecap:butt;stroke-linejoin:miter;stroke-opacity:1" d="M 138.13,300.203 110.186,311.38 z" id="boundary" inkscape:connector-curvature="0" />
	<path style="fill:none;stroke:red;stroke-width:1px;stroke-linecap:butt;stroke-linejoin:miter;stroke-opacity:1" d="M 110.186,311.38 82.2423,322.558 z" id="boundary" inkscape:connector-curvature="0" />
	<path style="fill:none;stroke:red;stroke-width:1px;stroke-linecap:butt;stroke-linejoin:miter;stroke-opacity:1" d="M 82.2423,322.558 54.2986,333.735 z" id="boundary" inkscape:connector-curvature="0" />
	<path style="fill:none;stroke:red;stroke-width:1px;stroke-linecap:butt;stroke-linejoin:miter;stroke-opacity:1" d="M 54.2986,333.735 26.3549,333.735 z" id="boundary" inkscape:connector-curvature="0" />
	<path style="fill:none;stroke:red;stroke-width:1px;stroke-linecap:butt;stroke-linejoin:miter;stroke-opacity:1" d="M 26.3549,333.735 4,314.175 z" id="boundary" inkscape:connector-curvature="0" />
	<path style="fill:none;stroke:red;stroke-width:1px;stroke-linecap:butt;stroke-linejoin:miter;stroke-opacity:1" d="M 4,314.175 15.1775,280.642 z" id="boundary" inkscape:connector-curvature="0" />
	<path style="fill:none;stroke:red;stroke-width:1px;stroke-linecap:butt;stroke-linejoin:miter;stroke-opacity:1" d="M 15.1775,280.642 26.3549,235.932 z" id="boundary" inkscape:connector-curvature="0" />
	<path style="fill:none;stroke:red;stroke-width:1px;stroke-linecap:butt;stroke-linejoin:miter;stroke-opacity:1" d="M 26.3549,235.932 23.5606,207.989 z" id="boundary" inkscape:connector-curvature="0" />
	<path style="fill:none;stroke:red;stroke-width:1px;stroke-linecap:butt;stroke-linejoin:miter;stroke-opacity:1" d="M 23.5606,207.989 15.1775,180.045 z" id="boundary" inkscape:connector-curvature="0" />
	<path style="fill:none;stroke:red;stroke-width:1px;stroke-linecap:butt;stroke-linejoin:miter;stroke-opacity:1" d="M 15.1775,180.045 9.58873,152.101 z" id="boundary" inkscape:connector-curvature="0" />
	<path style="fill:none;stroke:red;stroke-width:1px;stroke-linecap:butt;stroke-linejoin:miter;stroke-opacity:1" d="M 9.58873,152.101 4,124.158 z" id="boundary" inkscape:connector-curvature="0" />
	<path style="fill:none;stroke:red;stroke-width:1px;stroke-linecap:butt;stroke-linejoin:miter;stroke-opacity:1" d="M 4,124.158 31.9437,118.569 z" id="boundary" inkscape:connector-curvature="0" />
	<path style="fill:none;stroke:red;stroke-width:1px;stroke-linecap:butt;stroke-linejoin:miter;stroke-opacity:1" d="M 31.9437,118.569 59.8873,124.158 z" id="boundary" inkscape:connector-curvature="0" />
	<path style="fill:none;stroke:red;stroke-width:1px;stroke-linecap:butt;stroke-linejoin:miter;stroke-opacity:1" d="M 59.8873,124.158 87.831,135.335 z" id="boundary" inkscape:connector-curvature="0" />
	<path style="fill:none;stroke:red;stroke-width:1px;stroke-linecap:butt;stroke-linejoin:miter;stroke-opacity:1" d="M 87.831,135.335 115.775,146.513 z" id="boundary" inkscape:connector-curvature="0" />
	<path style="fill:none;stroke:red;stroke-width:1px;stroke-linecap:butt;stroke-linejoin:miter;stroke-opacity:1" d="M 115.775,146.513 143.718,157.69 z" id="boundary" inkscape:connector-curvature="0" />
	<path style="fill:none;stroke:red;stroke-width:1px;stroke-linecap:butt;stroke-linejoin:miter;stroke-opacity:1" d="M 143.718,157.69 168.868,171.662 z" id="boundary" inkscape:connector-curvature="0" />
	<path style="fill:none;stroke:red;stroke-width:1px;stroke-linecap:butt;stroke-linejoin:miter;stroke-opacity:1" d="M 168.868,171.662 196.811,180.045 z" id="boundary" inkscape:connector-curvature="0" />
	<path style="fill:none;stroke:red;stroke-width:1px;stroke-linecap:butt;stroke-linejoin:miter;stroke-opacity:1" d="M 196.811,180.045 221.961,157.69 z" id="boundary" inkscape:connector-curvature="0" />
	<path style="fill:none;stroke:red;stroke-width:1px;stroke-linecap:butt;stroke-linejoin:miter;stroke-opacity:1" d="M 221.961,157.69 244.315,135.335 z" id="boundary" inkscape:connector-curvature="0" />
	<path style="fill:none;stroke:red;stroke-width:1px;stroke-linecap:butt;stroke-linejoin:miter;stroke-opacity:1" d="M 244.315,135.335 266.67,112.98 z" id="boundary" inkscape:connector-curvature="0" />
	<path style="fill:none;stroke:red;stroke-width:1px;stroke-linecap:butt;stroke-linejoin:miter;stroke-opacity:1" d="M 266.67,112.98 289.025,96.2141 z" id="boundary" inkscape:connector-curvature="0" />
	<path style="fill:none;stroke:red;stroke-width:1px;stroke-linecap:butt;stroke-linejoin:miter;stroke-opacity:1" d="M 289.025,96.2141 311.38,79.4479 z" id="boundary" inkscape:connector-curvature="0" />
	<path style="fill:none;stroke:red;stroke-width:1px;stroke-linecap:butt;stroke-linejoin:miter;stroke-opacity:1" d="M 311.38,79.4479 339.324,73.8592 z" id="boundary" inkscape:connector-curvature="0" />
	<path style="fill:none;stroke:red;stroke-width:1px;stroke-linecap:butt;stroke-linejoin:miter;stroke-opacity:1" d="M 339.324,73.8592 367.268,82.2423 z" id="boundary" inkscape:connector-curvature="0" />
	<path style="fill:none;stroke:red;stroke-width:1px;stroke-linecap:butt;stroke-linejoin:miter;stroke-opacity:1" d="M 367.268,82.2423 395.211,90.6254 z" id="boundary" inkscape:connector-curvature="0" />
	<path style="fill:none;stroke:red;stroke-width:1px;stroke-linecap:butt;stroke-linejoin:miter;stroke-opacity:1" d="M 395.211,90.6254 423.155,101.803 z" id="boundary" inkscape:connector-curvature="0" />
	<path style="fill:none;stroke:red;stroke-width:1px;stroke-linecap:butt;stroke-linejoin:miter;stroke-opacity:1" d="M 423.155,101.803 445.51,79.4479 z" id="boundary" inkscape:connector-curvature="0" />
	<path style="fill:none;stroke:red;stroke-width:1px;stroke-linecap:butt;stroke-linejoin:miter;stroke-opacity:1" d="M 445.51,79.4479 470.659,65.4761 z" id="boundary" inkscape:connector-curvature="0" />
	<path style="fill:none;stroke:red;stroke-width:1px;stroke-linecap:butt;stroke-linejoin:miter;stroke-opacity:1" d="M 470.659,65.4761 495.808,51.5042 z" id="boundary" inkscape:connector-curvature="0" />
	<path style="fill:none;stroke:red;stroke-width:1px;stroke-linecap:butt;stroke-linejoin:miter;stroke-opacity:1" d="M 495.808,51.5042 523.752,40.3268 z" id="boundary" inkscape:connector-curvature="0" />
	<path style="fill:none;stroke:red;stroke-width:1px;stroke-linecap:butt;stroke-linejoin:miter;stroke-opacity:1" d="M 523.752,40.3268 551.696,23.5606 z" id="boundary" inkscape:connector-curvature="0" />
	<path style="fill:none;stroke:red;stroke-width:1px;stroke-linecap:butt;stroke-linejoin:miter;stroke-opacity:1" d="M 551.696,23.5606 579.639,17.9718 z" id="boundary" inkscape:connector-curvature="0" />
	<path style="fill:none;stroke:red;stroke-width:1px;stroke-linecap:butt;stroke-linejoin:miter;stroke-opacity:1" d="M 579.639,17.9718 607.583,12.3831 z" id="boundary" inkscape:connector-curvature="0" />
	<path style="fill:none;stroke:red;stroke-width:1px;stroke-linecap:butt;stroke-linejoin:miter;stroke-opacity:1" d="M 607.583,12.3831 635.527,20.7662 z" id="boundary" inkscape:connector-curvature="0" />
	<path style="fill:none;stroke:red;stroke-width:1px;stroke-linecap:butt;stroke-linejoin:miter;stroke-opacity:1" d="M 635.527,20.7662 657.882,4 z" id="boundary" inkscape:connector-curvature="0" />
	<path style="fill:none;stroke:red;stroke-width:1px;stroke-linecap:butt;stroke-linejoin:miter;stroke-opacity:1" d="M 657.882,4 671.854,29.1493 z" id="boundary" inkscape:connector-curvature="0" />
	<path style="fill:none;stroke:red;stroke-width:1px;stroke-linecap:butt;stroke-linejoin:miter;stroke-opacity:1" d="M 671.854,29.1493 688.62,51.5042 z" id="boundary" inkscape:connector-curvature="0" />
	<path style="fill:none;stroke:red;stroke-width:1px;stroke-linecap:butt;stroke-linejoin:miter;stroke-opacity:1" d="M 688.62,51.5042 705.386,73.8592 z" id="boundary" inkscape:connector-curvature="0" />
	<path style="fill:none;stroke:red;stroke-width:1px;stroke-linecap:butt;stroke-linejoin:miter;stroke-opacity:1" d="M 705.386,73.8592 722.152,96.2141 z" id="boundary" inkscape:connector-curvature="0" />
	<path style="fill:none;stroke:red;stroke-width:1px;stroke-linecap:butt;stroke-linejoin:miter;stroke-opacity:1" d="M 722.152,96.2141 750.096,101.803 z" id="boundary" inkscape:connector-curvature="0" />
	<path style="fill:none;stroke:red;stroke-width:1px;stroke-linecap:butt;stroke-linejoin:miter;stroke-opacity:1" d="M 750.096,101.803 778.039,107.392 z" id="boundary" inkscape:connector-curvature="0" />
	<path style="fill:none;stroke:red;stroke-width:1px;stroke-linecap:butt;stroke-linejoin:miter;stroke-opacity:1" d="M 778.039,107.392 805.983,118.569 z" id="boundary" inkscape:connector-curvature="0" />
	<path style="fill:none;stroke:red;stroke-width:1px;stroke-linecap:butt;stroke-linejoin:miter;stroke-opacity:1" d="M 805.983,118.569 833.927,129.746 z" id="boundary" inkscape:connector-curvature="0" />
	<path style="fill:none;stroke:red;stroke-width:1px;stroke-linecap:butt;stroke-linejoin:miter;stroke-opacity:1" d="M 833.927,129.746 861.87,140.924 z" id="boundary" inkscape:connector-curvature="0" />
	<path style="fill:none;stroke:red;stroke-width:1px;stroke-linecap:butt;stroke-linejoin:miter;stroke-opacity:1" d="M 861.87,140.924 889.814,152.101 z" id="boundary" inkscape:connector-curvature="0" />
	<path style="fill:none;stroke:red;stroke-width:1px;stroke-linecap:butt;stroke-linejoin:miter;stroke-opacity:1" d="M 889.814,152.101 917.758,163.279 z" id="boundary" inkscape:connector-curvature="0" />
	<path style="fill:none;stroke:red;stroke-width:1px;stroke-linecap:butt;stroke-linejoin:miter;stroke-opacity:1" d="M 917.758,163.279 945.701,174.456 z" id="boundary" inkscape:connector-curvature="0" />
	<path style="fill:none;stroke:red;stroke-width:1px;stroke-linecap:butt;stroke-linejoin:miter;stroke-opacity:1" d="M 945.701,174.456 970.851,188.428 z" id="boundary" inkscape:connector-curvature="0" />
	<path style="fill:none;stroke:red;stroke-width:1px;stroke-linecap:butt;stroke-linejoin:miter;stroke-opacity:1" d="M 970.851,188.428 996,219.166 z" id="boundary" inkscape:connector-curvature="0" />
	<circle cx="4" cy="124.158" r="4" fill="#0" id="circle0"/>
	<circle cx="4" cy="314.175" r="4" fill="#0" id="circle1"/>
	<circle cx="9.58873" cy="152.101" r="4" fill="#0" id="circle2"/>
	<circle cx="15.1775" cy="180.045" r="4" fill="#0" id="circle3"/>
	<circle cx="15.1775" cy="280.642" r="4" fill="#0" id="circle4"/>
	<circle cx="23.5606" cy="207.989" r="4" fill="#0" id="circle5"/>
	<circle cx="26.3549" cy="235.932" r="4" fill="#0" id="circle6"/>
	<circle cx="26.3549" cy="333.735" r="4" fill="#0" id="circle7"/>
	<circle cx="31.9437" cy="118.569" r="4" fill="#0" id="circle8"/>
	<circle cx="54.2986" cy="333.735" r="4" fill="#0" id="circle9"/>
	<circle cx="59.8873" cy="124.158" r="4" fill="#0" id="circle10"/>
	<circle cx="82.2423" cy="322.558" r="4" fill="#0" id="circle11"/>
	<circle cx="87.831" cy="135.335" r="4" fill="#0" id="circle12"/>
	<circle cx="110.186" cy="311.38" r="4" fill="#0" id="circle13"/>
	<circle cx="115.775" cy="146.513" r="4" fill="#0" id="circle14"/>
	<circle cx="138.13" cy="300.203" r="4" fill="#0" id="circle15"/>
	<circle cx="143.718" cy="157.69" r="4" fill="#0" id="circle16"/>
	<circle cx="160.485" cy="283.437" r="4" fill="#0" id="circle17"/>
	<circle cx="168.868" cy="171.662" r="4" fill="#0" id="circle18"/>
	<circle cx="188.428" cy="272.259" r="4" fill="#0" id="circle19"/>
	<circle cx="196.811" cy="180.045" r="4" fill="#0" id="circle20"/>
	<circle cx="216.372" cy="272.259" r="4" fill="#0" id="circle21"/>
	<circle cx="221.961" cy="157.69" r="4" fill="#0" id="circle22"/>
	<circle cx="221.961" cy="300.203" r="4" fill="#0" id="circle23"/>
	<circle cx="233.138" cy="328.146" r="4" fill="#0" id="circle24"/>
	<circle cx="244.315" cy="135.335" r="4" fill="#0" id="circle25"/>
	<circle cx="247.11" cy="353.296" r="4" fill="#0" id="circle26"/>
	<circle cx="266.67" cy="112.98" r="4" fill="#0" id="circle27"/>
	<circle cx="275.054" cy="361.679" r="4" fill="#0" id="circle28"/>
	<circle cx="289.025" cy="96.2141" r="4" fill="#0" id="circle29"/>
	<circle cx="302.997" cy="361.679" r="4" fill="#0" id="circle30"/>
	<circle cx="311.38" cy="79.4479" r="4" fill="#0" id="circle31"/>
	<circle cx="330.941" cy="356.09" r="4" fill="#0" id="circle32"/>
	<circle cx="339.324" cy="73.8592" r="4" fill="#0" id="circle33"/>
	<circle cx="358.885" cy="347.707" r="4" fill="#0" id="circle34"/>
	<circle cx="367.268" cy="82.2423" r="4" fill="#0" id="circle35"/>
	<circle cx="386.828" cy="339.324" r="4" fill="#0" id="circle36"/>
	<circle cx="395.211" cy="90.6254" r="4" fill="#0" id="circle37"/>
	<circle cx="414.772" cy="344.913" r="4" fill="#0" id="circle38"/>
	<circle cx="423.155" cy="101.803" r="4" fill="#0" id="circle39"/>
	<circle cx="442.715" cy="344.913" r="4" fill="#0" id="circle40"/>
	<circle cx="445.51" cy="79.4479" r="4" fill="#0" id="circle41"/>
	<circle cx="470.659" cy="65.4761" r="4" fill="#0" id="circle42"/>
	<circle cx="470.659" cy="344.913" r="4" fill="#0" id="circle43"/>
	<circle cx="495.808" cy="51.5042" r="4" fill="#0" id="circle44"/>
	<circle cx="498.603" cy="350.501" r="4" fill="#0" id="circle45"/>
	<circle cx="523.752" cy="40.3268" r="4" fill="#0" id="circle46"/>
	<circle cx="526.546" cy="350.501" r="4" fill="#0" id="circle47"/>
	<circle cx="551.696" cy="23.5606" r="4" fill="#0" id="circle48"/>
	<circle cx="554.49" cy="350.501" r="4" fill="#0" id="circle49"/>
	<circle cx="562.873" cy="386.828" r="4" fill="#0" id="circle50"/>
	<circle cx="568.462" cy="414.772" r="4" fill="#0" id="circle51"/>
	<circle cx="579.639" cy="17.9718" r="4" fill="#0" id="circle52"/>
	<circle cx="582.434" cy="439.921" r="4" fill="#0" id="circle53"/>
	<circle cx="607.583" cy="12.3831" r="4" fill="#0" id="circle54"/>
	<circle cx="607.583" cy="453.893" r="4" fill="#0" id="circle55"/>
	<circle cx="635.527" cy="20.7662" r="4" fill="#0" id="circle56"/>
	<circle cx="635.527" cy="445.51" r="4" fill="#0" id="circle57"/>
	<circle cx="657.882" cy="4" r="4" fill="#0" id="circle58"/>
	<circle cx="657.882" cy="428.744" r="4" fill="#0" id="circle59"/>
	<circle cx="671.854" cy="29.1493" r="4" fill="#0" id="circle60"/>
	<circle cx="680.237" cy="406.389" r="4" fill="#0" id="circle61"/>
	<circle cx="688.62" cy="51.5042" r="4" fill="#0" id="circle62"/>
	<circle cx="697.003" cy="384.034" r="4" fill="#0" id="circle63"/>
	<circle cx="705.386" cy="73.8592" r="4" fill="#0" id="circle64"/>
	<circle cx="710.975" cy="358.885" r="4" fill="#0" id="circle65"/>
	<circle cx="722.152" cy="96.2141" r="4" fill="#0" id="circle66"/>
	<circle cx="738.918" cy="356.09" r="4" fill="#0" id="circle67"/>
	<circle cx="750.096" cy="101.803" r="4" fill="#0" id="circle68"/>
	<circle cx="766.862" cy="356.09" r="4" fill="#0" id="circle69"/>
	<circle cx="778.039" cy="107.392" r="4" fill="#0" id="circle70"/>
	<circle cx="794.806" cy="344.913" r="4" fill="#0" id="circle71"/>
	<circle cx="805.983" cy="118.569" r="4" fill="#0" id="circle72"/>
	<circle cx="822.749" cy="333.735" r="4" fill="#0" id="circle73"/>
	<circle cx="833.927" cy="129.746" r="4" fill="#0" id="circle74"/>
	<circle cx="850.693" cy="322.558" r="4" fill="#0" id="circle75"/>
	<circle cx="861.87" cy="140.924" r="4" fill="#0" id="circle76"/>
	<circle cx="878.637" cy="314.175" r="4" fill="#0" id="circle77"/>
	<circle cx="889.814" cy="152.101" r="4" fill="#0" id="circle78"/>
	<circle cx="906.58" cy="302.997" r="4" fill="#0" id="circle79"/>
	<circle cx="917.758" cy="163.279" r="4" fill="#0" id="circle80"/>
	<circle cx="928.935" cy="286.231" r="4" fill="#0" id="circle81"/>
	<circle cx="945.701" cy="174.456" r="4" fill="#0" id="circle82"/>
	<circle cx="951.29" cy="263.876" r="4" fill="#0" id="circle83"/>
	<circle cx="970.851" cy="188.428" r="4" fill="#0" id="circle84"/>
	<circle cx="973.645" cy="241.521" r="4" fill="#0" id="circle85"/>
	<circle cx="996" cy="219.166" r="4" fill="#0" id="circle86"/>
	</g>
</svg>