<?xml version="1.0" encoding="UTF-8" standalone="no"?>
<!-- Created with CurveBenchmark -->
<svg
	xmlns:dc="http://purl.org/dc/elements/1.1/"
	xmlns:cc="http://creativecommons.org/ns#"
	xmlns:rdf="http://www.w3.org/1999/02/22-rdf-syntax-ns#"
	xmlns:svg="http://www.w3.org/2000/svg"
	xmlns="http://www.w3.org/2000/svg"
	xmlns:sodipodi="http://sodipodi.sourceforge.net/DTD/sodipodi-0.dtd"
	xmlns:inkscape="http://www.inkscape.org/namespaces/inkscape"
	width="1000"
	height="1000"
	id="svg2"
	version="1.1"
	sodipodi:docname="manifold/connect2d-car-02.png.txt">
<defs
	id="defs4" />
<metadata
	id="metadata7">
	<rdf:RDF>
		<cc:Work
			rdf:about="">
			<dc:format>image/svg+xml</dc:format>
			<dc:type
				rdf:resource="http://purl.org/dc/dcmitype/StillImage" />
			<dc:title></dc:title>
		</cc:Work>
	</rdf:RDF>
</metadata>
<g
	inkscape:label="Layer 1"
	inkscape:groupmode="layer"
	id="layer1">
	<path style="fill:none;stroke:red;stroke-width:1px;stroke-linecap:butt;stroke-linejoin:miter;stroke-opacity:1" d="M 996,234.392 996,246.33 z" id="boundary" inkscape:connector-curvature="0" />
	<path style="fill:none;stroke:red;stroke-width:1px;stroke-linecap:butt;stroke-linejoin:miter;stroke-opacity:1" d="M 996,246.33 990.031,267.817 z" id="boundary" inkscape:connector-curvature="0" />
	<path style="fill:none;stroke:red;stroke-width:1px;stroke-linecap:butt;stroke-linejoin:miter;stroke-opacity:1" d="M 990.031,267.817 984.063,279.755 z" id="boundary" inkscape:connector-curvature="0" />
	<path style="fill:none;stroke:red;stroke-width:1px;stroke-linecap:butt;stroke-linejoin:miter;stroke-opacity:1" d="M 984.063,279.755 975.706,295.273 z" id="boundary" inkscape:connector-curvature="0" />
	<path style="fill:none;stroke:red;stroke-width:1px;stroke-linecap:butt;stroke-linejoin:miter;stroke-opacity:1" d="M 975.706,295.273 969.738,307.211 z" id="boundary" inkscape:connector-curvature="0" />
	<path style="fill:none;stroke:red;stroke-width:1px;stroke-linecap:butt;stroke-linejoin:miter;stroke-opacity:1" d="M 969.738,307.211 960.188,315.567 z" id="boundary" inkscape:connector-curvature="0" />
	<path style="fill:none;stroke:red;stroke-width:1px;stroke-linecap:butt;stroke-linejoin:miter;stroke-opacity:1" d="M 960.188,315.567 953.025,327.504 z" id="boundary" inkscape:connector-curvature="0" />
	<path style="fill:none;stroke:red;stroke-width:1px;stroke-linecap:butt;stroke-linejoin:miter;stroke-opacity:1" d="M 953.025,327.504 942.282,333.473 z" id="boundary" inkscape:connector-curvature="0" />
	<path style="fill:none;stroke:red;stroke-width:1px;stroke-linecap:butt;stroke-linejoin:miter;stroke-opacity:1" d="M 942.282,333.473 930.344,333.473 z" id="boundary" inkscape:connector-curvature="0" />
	<path style="fill:none;stroke:red;stroke-width:1px;stroke-linecap:butt;stroke-linejoin:miter;stroke-opacity:1" d="M 930.344,333.473 918.407,339.442 z" id="boundary" inkscape:connector-curvature="0" />
	<path style="fill:none;stroke:red;stroke-width:1px;stroke-linecap:butt;stroke-linejoin:miter;stroke-opacity:1" d="M 918.407,339.442 912.438,351.379 z" id="boundary" inkscape:connector-curvature="0" />
	<path style="fill:none;stroke:red;stroke-width:1px;stroke-linecap:butt;stroke-linejoin:miter;stroke-opacity:1" d="M 912.438,351.379 912.438,363.316 z" id="boundary" inkscape:connector-curvature="0" />
	<path style="fill:none;stroke:red;stroke-width:1px;stroke-linecap:butt;stroke-linejoin:miter;stroke-opacity:1" d="M 912.438,363.316 912.438,375.254 z" id="boundary" inkscape:connector-curvature="0" />
	<path style="fill:none;stroke:red;stroke-width:1px;stroke-linecap:butt;stroke-linejoin:miter;stroke-opacity:1" d="M 912.438,375.254 906.469,387.191 z" id="boundary" inkscape:connector-curvature="0" />
	<path style="fill:none;stroke:red;stroke-width:1px;stroke-linecap:butt;stroke-linejoin:miter;stroke-opacity:1" d="M 906.469,387.191 896.919,403.904 z" id="boundary" inkscape:connector-curvature="0" />
	<path style="fill:none;stroke:red;stroke-width:1px;stroke-linecap:butt;stroke-linejoin:miter;stroke-opacity:1" d="M 896.919,403.904 884.982,409.872 z" id="boundary" inkscape:connector-curvature="0" />
	<path style="fill:none;stroke:red;stroke-width:1px;stroke-linecap:butt;stroke-linejoin:miter;stroke-opacity:1" d="M 884.982,409.872 873.045,415.841 z" id="boundary" inkscape:connector-curvature="0" />
	<path style="fill:none;stroke:red;stroke-width:1px;stroke-linecap:butt;stroke-linejoin:miter;stroke-opacity:1" d="M 873.045,415.841 861.107,417.035 z" id="boundary" inkscape:connector-curvature="0" />
	<path style="fill:none;stroke:red;stroke-width:1px;stroke-linecap:butt;stroke-linejoin:miter;stroke-opacity:1" d="M 861.107,417.035 849.17,417.035 z" id="boundary" inkscape:connector-curvature="0" />
	<path style="fill:none;stroke:red;stroke-width:1px;stroke-linecap:butt;stroke-linejoin:miter;stroke-opacity:1" d="M 849.17,417.035 837.232,417.035 z" id="boundary" inkscape:connector-curvature="0" />
	<path style="fill:none;stroke:red;stroke-width:1px;stroke-linecap:butt;stroke-linejoin:miter;stroke-opacity:1" d="M 837.232,417.035 825.295,417.035 z" id="boundary" inkscape:connector-curvature="0" />
	<path style="fill:none;stroke:red;stroke-width:1px;stroke-linecap:butt;stroke-linejoin:miter;stroke-opacity:1" d="M 825.295,417.035 813.357,417.035 z" id="boundary" inkscape:connector-curvature="0" />
	<path style="fill:none;stroke:red;stroke-width:1px;stroke-linecap:butt;stroke-linejoin:miter;stroke-opacity:1" d="M 813.357,417.035 802.614,411.066 z" id="boundary" inkscape:connector-curvature="0" />
	<path style="fill:none;stroke:red;stroke-width:1px;stroke-linecap:butt;stroke-linejoin:miter;stroke-opacity:1" d="M 802.614,411.066 793.064,402.71 z" id="boundary" inkscape:connector-curvature="0" />
	<path style="fill:none;stroke:red;stroke-width:1px;stroke-linecap:butt;stroke-linejoin:miter;stroke-opacity:1" d="M 793.064,402.71 791.87,390.773 z" id="boundary" inkscape:connector-curvature="0" />
	<path style="fill:none;stroke:red;stroke-width:1px;stroke-linecap:butt;stroke-linejoin:miter;stroke-opacity:1" d="M 791.87,390.773 784.708,381.223 z" id="boundary" inkscape:connector-curvature="0" />
	<path style="fill:none;stroke:red;stroke-width:1px;stroke-linecap:butt;stroke-linejoin:miter;stroke-opacity:1" d="M 784.708,381.223 773.964,375.254 z" id="boundary" inkscape:connector-curvature="0" />
	<path style="fill:none;stroke:red;stroke-width:1px;stroke-linecap:butt;stroke-linejoin:miter;stroke-opacity:1" d="M 773.964,375.254 762.026,375.254 z" id="boundary" inkscape:connector-curvature="0" />
	<path style="fill:none;stroke:red;stroke-width:1px;stroke-linecap:butt;stroke-linejoin:miter;stroke-opacity:1" d="M 762.026,375.254 750.089,375.254 z" id="boundary" inkscape:connector-curvature="0" />
	<path style="fill:none;stroke:red;stroke-width:1px;stroke-linecap:butt;stroke-linejoin:miter;stroke-opacity:1" d="M 750.089,375.254 738.152,375.254 z" id="boundary" inkscape:connector-curvature="0" />
	<path style="fill:none;stroke:red;stroke-width:1px;stroke-linecap:butt;stroke-linejoin:miter;stroke-opacity:1" d="M 738.152,375.254 726.214,375.254 z" id="boundary" inkscape:connector-curvature="0" />
	<path style="fill:none;stroke:red;stroke-width:1px;stroke-linecap:butt;stroke-linejoin:miter;stroke-opacity:1" d="M 726.214,375.254 714.277,375.254 z" id="boundary" inkscape:connector-curvature="0" />
	<path style="fill:none;stroke:red;stroke-width:1px;stroke-linecap:butt;stroke-linejoin:miter;stroke-opacity:1" d="M 714.277,375.254 702.339,375.254 z" id="boundary" inkscape:connector-curvature="0" />
	<path style="fill:none;stroke:red;stroke-width:1px;stroke-linecap:butt;stroke-linejoin:miter;stroke-opacity:1" d="M 702.339,375.254 690.402,375.254 z" id="boundary" inkscape:connector-curvature="0" />
	<path style="fill:none;stroke:red;stroke-width:1px;stroke-linecap:butt;stroke-linejoin:miter;stroke-opacity:1" d="M 690.402,375.254 678.465,375.254 z" id="boundary" inkscape:connector-curvature="0" />
	<path style="fill:none;stroke:red;stroke-width:1px;stroke-linecap:butt;stroke-linejoin:miter;stroke-opacity:1" d="M 678.465,375.254 666.527,375.254 z" id="boundary" inkscape:connector-curvature="0" />
	<path style="fill:none;stroke:red;stroke-width:1px;stroke-linecap:butt;stroke-linejoin:miter;stroke-opacity:1" d="M 666.527,375.254 654.59,375.254 z" id="boundary" inkscape:connector-curvature="0" />
	<path style="fill:none;stroke:red;stroke-width:1px;stroke-linecap:butt;stroke-linejoin:miter;stroke-opacity:1" d="M 654.59,375.254 642.652,375.254 z" id="boundary" inkscape:connector-curvature="0" />
	<path style="fill:none;stroke:red;stroke-width:1px;stroke-linecap:butt;stroke-linejoin:miter;stroke-opacity:1" d="M 642.652,375.254 630.715,375.254 z" id="boundary" inkscape:connector-curvature="0" />
	<path style="fill:none;stroke:red;stroke-width:1px;stroke-linecap:butt;stroke-linejoin:miter;stroke-opacity:1" d="M 630.715,375.254 618.777,375.254 z" id="boundary" inkscape:connector-curvature="0" />
	<path style="fill:none;stroke:red;stroke-width:1px;stroke-linecap:butt;stroke-linejoin:miter;stroke-opacity:1" d="M 618.777,375.254 606.84,375.254 z" id="boundary" inkscape:connector-curvature="0" />
	<path style="fill:none;stroke:red;stroke-width:1px;stroke-linecap:butt;stroke-linejoin:miter;stroke-opacity:1" d="M 606.84,375.254 594.903,375.254 z" id="boundary" inkscape:connector-curvature="0" />
	<path style="fill:none;stroke:red;stroke-width:1px;stroke-linecap:butt;stroke-linejoin:miter;stroke-opacity:1" d="M 594.903,375.254 582.965,375.254 z" id="boundary" inkscape:connector-curvature="0" />
	<path style="fill:none;stroke:red;stroke-width:1px;stroke-linecap:butt;stroke-linejoin:miter;stroke-opacity:1" d="M 582.965,375.254 571.028,375.254 z" id="boundary" inkscape:connector-curvature="0" />
	<path style="fill:none;stroke:red;stroke-width:1px;stroke-linecap:butt;stroke-linejoin:miter;stroke-opacity:1" d="M 571.028,375.254 560.284,381.223 z" id="boundary" inkscape:connector-curvature="0" />
	<path style="fill:none;stroke:red;stroke-width:1px;stroke-linecap:butt;stroke-linejoin:miter;stroke-opacity:1" d="M 560.284,381.223 548.347,387.191 z" id="boundary" inkscape:connector-curvature="0" />
	<path style="fill:none;stroke:red;stroke-width:1px;stroke-linecap:butt;stroke-linejoin:miter;stroke-opacity:1" d="M 548.347,387.191 539.99,396.741 z" id="boundary" inkscape:connector-curvature="0" />
	<path style="fill:none;stroke:red;stroke-width:1px;stroke-linecap:butt;stroke-linejoin:miter;stroke-opacity:1" d="M 539.99,396.741 530.44,405.097 z" id="boundary" inkscape:connector-curvature="0" />
	<path style="fill:none;stroke:red;stroke-width:1px;stroke-linecap:butt;stroke-linejoin:miter;stroke-opacity:1" d="M 530.44,405.097 520.89,421.81 z" id="boundary" inkscape:connector-curvature="0" />
	<path style="fill:none;stroke:red;stroke-width:1px;stroke-linecap:butt;stroke-linejoin:miter;stroke-opacity:1" d="M 520.89,421.81 514.922,433.747 z" id="boundary" inkscape:connector-curvature="0" />
	<path style="fill:none;stroke:red;stroke-width:1px;stroke-linecap:butt;stroke-linejoin:miter;stroke-opacity:1" d="M 514.922,433.747 504.178,440.91 z" id="boundary" inkscape:connector-curvature="0" />
	<path style="fill:none;stroke:red;stroke-width:1px;stroke-linecap:butt;stroke-linejoin:miter;stroke-opacity:1" d="M 504.178,440.91 493.434,446.878 z" id="boundary" inkscape:connector-curvature="0" />
	<path style="fill:none;stroke:red;stroke-width:1px;stroke-linecap:butt;stroke-linejoin:miter;stroke-opacity:1" d="M 493.434,446.878 482.691,452.847 z" id="boundary" inkscape:connector-curvature="0" />
	<path style="fill:none;stroke:red;stroke-width:1px;stroke-linecap:butt;stroke-linejoin:miter;stroke-opacity:1" d="M 482.691,452.847 470.753,452.847 z" id="boundary" inkscape:connector-curvature="0" />
	<path style="fill:none;stroke:red;stroke-width:1px;stroke-linecap:butt;stroke-linejoin:miter;stroke-opacity:1" d="M 470.753,452.847 458.816,449.266 z" id="boundary" inkscape:connector-curvature="0" />
	<path style="fill:none;stroke:red;stroke-width:1px;stroke-linecap:butt;stroke-linejoin:miter;stroke-opacity:1" d="M 458.816,449.266 446.878,446.878 z" id="boundary" inkscape:connector-curvature="0" />
	<path style="fill:none;stroke:red;stroke-width:1px;stroke-linecap:butt;stroke-linejoin:miter;stroke-opacity:1" d="M 446.878,446.878 436.135,440.91 z" id="boundary" inkscape:connector-curvature="0" />
	<path style="fill:none;stroke:red;stroke-width:1px;stroke-linecap:butt;stroke-linejoin:miter;stroke-opacity:1" d="M 436.135,440.91 425.391,434.941 z" id="boundary" inkscape:connector-curvature="0" />
	<path style="fill:none;stroke:red;stroke-width:1px;stroke-linecap:butt;stroke-linejoin:miter;stroke-opacity:1" d="M 425.391,434.941 415.841,427.779 z" id="boundary" inkscape:connector-curvature="0" />
	<path style="fill:none;stroke:red;stroke-width:1px;stroke-linecap:butt;stroke-linejoin:miter;stroke-opacity:1" d="M 415.841,427.779 409.872,417.035 z" id="boundary" inkscape:connector-curvature="0" />
	<path style="fill:none;stroke:red;stroke-width:1px;stroke-linecap:butt;stroke-linejoin:miter;stroke-opacity:1" d="M 409.872,417.035 409.872,405.097 z" id="boundary" inkscape:connector-curvature="0" />
	<path style="fill:none;stroke:red;stroke-width:1px;stroke-linecap:butt;stroke-linejoin:miter;stroke-opacity:1" d="M 409.872,405.097 407.485,393.16 z" id="boundary" inkscape:connector-curvature="0" />
	<path style="fill:none;stroke:red;stroke-width:1px;stroke-linecap:butt;stroke-linejoin:miter;stroke-opacity:1" d="M 407.485,393.16 395.548,393.16 z" id="boundary" inkscape:connector-curvature="0" />
	<path style="fill:none;stroke:red;stroke-width:1px;stroke-linecap:butt;stroke-linejoin:miter;stroke-opacity:1" d="M 395.548,393.16 383.61,393.16 z" id="boundary" inkscape:connector-curvature="0" />
	<path style="fill:none;stroke:red;stroke-width:1px;stroke-linecap:butt;stroke-linejoin:miter;stroke-opacity:1" d="M 383.61,393.16 372.866,387.191 z" id="boundary" inkscape:connector-curvature="0" />
	<path style="fill:none;stroke:red;stroke-width:1px;stroke-linecap:butt;stroke-linejoin:miter;stroke-opacity:1" d="M 372.866,387.191 360.929,387.191 z" id="boundary" inkscape:connector-curvature="0" />
	<path style="fill:none;stroke:red;stroke-width:1px;stroke-linecap:butt;stroke-linejoin:miter;stroke-opacity:1" d="M 360.929,387.191 348.992,387.191 z" id="boundary" inkscape:connector-curvature="0" />
	<path style="fill:none;stroke:red;stroke-width:1px;stroke-linecap:butt;stroke-linejoin:miter;stroke-opacity:1" d="M 348.992,387.191 337.054,387.191 z" id="boundary" inkscape:connector-curvature="0" />
	<path style="fill:none;stroke:red;stroke-width:1px;stroke-linecap:butt;stroke-linejoin:miter;stroke-opacity:1" d="M 337.054,387.191 325.117,387.191 z" id="boundary" inkscape:connector-curvature="0" />
	<path style="fill:none;stroke:red;stroke-width:1px;stroke-linecap:butt;stroke-linejoin:miter;stroke-opacity:1" d="M 325.117,387.191 313.179,387.191 z" id="boundary" inkscape:connector-curvature="0" />
	<path style="fill:none;stroke:red;stroke-width:1px;stroke-linecap:butt;stroke-linejoin:miter;stroke-opacity:1" d="M 313.179,387.191 301.242,387.191 z" id="boundary" inkscape:connector-curvature="0" />
	<path style="fill:none;stroke:red;stroke-width:1px;stroke-linecap:butt;stroke-linejoin:miter;stroke-opacity:1" d="M 301.242,387.191 289.304,387.191 z" id="boundary" inkscape:connector-curvature="0" />
	<path style="fill:none;stroke:red;stroke-width:1px;stroke-linecap:butt;stroke-linejoin:miter;stroke-opacity:1" d="M 289.304,387.191 277.367,387.191 z" id="boundary" inkscape:connector-curvature="0" />
	<path style="fill:none;stroke:red;stroke-width:1px;stroke-linecap:butt;stroke-linejoin:miter;stroke-opacity:1" d="M 277.367,387.191 265.43,387.191 z" id="boundary" inkscape:connector-curvature="0" />
	<path style="fill:none;stroke:red;stroke-width:1px;stroke-linecap:butt;stroke-linejoin:miter;stroke-opacity:1" d="M 265.43,387.191 253.492,387.191 z" id="boundary" inkscape:connector-curvature="0" />
	<path style="fill:none;stroke:red;stroke-width:1px;stroke-linecap:butt;stroke-linejoin:miter;stroke-opacity:1" d="M 253.492,387.191 241.555,387.191 z" id="boundary" inkscape:connector-curvature="0" />
	<path style="fill:none;stroke:red;stroke-width:1px;stroke-linecap:butt;stroke-linejoin:miter;stroke-opacity:1" d="M 241.555,387.191 229.617,387.191 z" id="boundary" inkscape:connector-curvature="0" />
	<path style="fill:none;stroke:red;stroke-width:1px;stroke-linecap:butt;stroke-linejoin:miter;stroke-opacity:1" d="M 229.617,387.191 217.68,387.191 z" id="boundary" inkscape:connector-curvature="0" />
	<path style="fill:none;stroke:red;stroke-width:1px;stroke-linecap:butt;stroke-linejoin:miter;stroke-opacity:1" d="M 217.68,387.191 205.742,387.191 z" id="boundary" inkscape:connector-curvature="0" />
	<path style="fill:none;stroke:red;stroke-width:1px;stroke-linecap:butt;stroke-linejoin:miter;stroke-opacity:1" d="M 205.742,387.191 193.805,387.191 z" id="boundary" inkscape:connector-curvature="0" />
	<path style="fill:none;stroke:red;stroke-width:1px;stroke-linecap:butt;stroke-linejoin:miter;stroke-opacity:1" d="M 193.805,387.191 181.868,387.191 z" id="boundary" inkscape:connector-curvature="0" />
	<path style="fill:none;stroke:red;stroke-width:1px;stroke-linecap:butt;stroke-linejoin:miter;stroke-opacity:1" d="M 181.868,387.191 169.93,387.191 z" id="boundary" inkscape:connector-curvature="0" />
	<path style="fill:none;stroke:red;stroke-width:1px;stroke-linecap:butt;stroke-linejoin:miter;stroke-opacity:1" d="M 169.93,387.191 157.993,387.191 z" id="boundary" inkscape:connector-curvature="0" />
	<path style="fill:none;stroke:red;stroke-width:1px;stroke-linecap:butt;stroke-linejoin:miter;stroke-opacity:1" d="M 157.993,387.191 146.055,387.191 z" id="boundary" inkscape:connector-curvature="0" />
	<path style="fill:none;stroke:red;stroke-width:1px;stroke-linecap:butt;stroke-linejoin:miter;stroke-opacity:1" d="M 146.055,387.191 134.118,387.191 z" id="boundary" inkscape:connector-curvature="0" />
	<path style="fill:none;stroke:red;stroke-width:1px;stroke-linecap:butt;stroke-linejoin:miter;stroke-opacity:1" d="M 134.118,387.191 122.181,387.191 z" id="boundary" inkscape:connector-curvature="0" />
	<path style="fill:none;stroke:red;stroke-width:1px;stroke-linecap:butt;stroke-linejoin:miter;stroke-opacity:1" d="M 122.181,387.191 110.243,387.191 z" id="boundary" inkscape:connector-curvature="0" />
	<path style="fill:none;stroke:red;stroke-width:1px;stroke-linecap:butt;stroke-linejoin:miter;stroke-opacity:1" d="M 110.243,387.191 98.3057,387.191 z" id="boundary" inkscape:connector-curvature="0" />
	<path style="fill:none;stroke:red;stroke-width:1px;stroke-linecap:butt;stroke-linejoin:miter;stroke-opacity:1" d="M 98.3057,387.191 87.562,393.16 z" id="boundary" inkscape:connector-curvature="0" />
	<path style="fill:none;stroke:red;stroke-width:1px;stroke-linecap:butt;stroke-linejoin:miter;stroke-opacity:1" d="M 87.562,393.16 75.6245,395.548 z" id="boundary" inkscape:connector-curvature="0" />
	<path style="fill:none;stroke:red;stroke-width:1px;stroke-linecap:butt;stroke-linejoin:miter;stroke-opacity:1" d="M 75.6245,395.548 63.6871,399.129 z" id="boundary" inkscape:connector-curvature="0" />
	<path style="fill:none;stroke:red;stroke-width:1px;stroke-linecap:butt;stroke-linejoin:miter;stroke-opacity:1" d="M 63.6871,399.129 51.7497,395.548 z" id="boundary" inkscape:connector-curvature="0" />
	<path style="fill:none;stroke:red;stroke-width:1px;stroke-linecap:butt;stroke-linejoin:miter;stroke-opacity:1" d="M 51.7497,395.548 43.3935,385.998 z" id="boundary" inkscape:connector-curvature="0" />
	<path style="fill:none;stroke:red;stroke-width:1px;stroke-linecap:butt;stroke-linejoin:miter;stroke-opacity:1" d="M 43.3935,385.998 37.4248,375.254 z" id="boundary" inkscape:connector-curvature="0" />
	<path style="fill:none;stroke:red;stroke-width:1px;stroke-linecap:butt;stroke-linejoin:miter;stroke-opacity:1" d="M 37.4248,375.254 33.8436,363.316 z" id="boundary" inkscape:connector-curvature="0" />
	<path style="fill:none;stroke:red;stroke-width:1px;stroke-linecap:butt;stroke-linejoin:miter;stroke-opacity:1" d="M 33.8436,363.316 33.8436,351.379 z" id="boundary" inkscape:connector-curvature="0" />
	<path style="fill:none;stroke:red;stroke-width:1px;stroke-linecap:butt;stroke-linejoin:miter;stroke-opacity:1" d="M 33.8436,351.379 33.8436,339.442 z" id="boundary" inkscape:connector-curvature="0" />
	<path style="fill:none;stroke:red;stroke-width:1px;stroke-linecap:butt;stroke-linejoin:miter;stroke-opacity:1" d="M 33.8436,339.442 33.8436,327.504 z" id="boundary" inkscape:connector-curvature="0" />
	<path style="fill:none;stroke:red;stroke-width:1px;stroke-linecap:butt;stroke-linejoin:miter;stroke-opacity:1" d="M 33.8436,327.504 33.8436,315.567 z" id="boundary" inkscape:connector-curvature="0" />
	<path style="fill:none;stroke:red;stroke-width:1px;stroke-linecap:butt;stroke-linejoin:miter;stroke-opacity:1" d="M 33.8436,315.567 33.8436,303.629 z" id="boundary" inkscape:connector-curvature="0" />
	<path style="fill:none;stroke:red;stroke-width:1px;stroke-linecap:butt;stroke-linejoin:miter;stroke-opacity:1" d="M 33.8436,303.629 24.2936,295.273 z" id="boundary" inkscape:connector-curvature="0" />
	<path style="fill:none;stroke:red;stroke-width:1px;stroke-linecap:butt;stroke-linejoin:miter;stroke-opacity:1" d="M 24.2936,295.273 18.3249,284.529 z" id="boundary" inkscape:connector-curvature="0" />
	<path style="fill:none;stroke:red;stroke-width:1px;stroke-linecap:butt;stroke-linejoin:miter;stroke-opacity:1" d="M 18.3249,284.529 9.96871,274.98 z" id="boundary" inkscape:connector-curvature="0" />
	<path style="fill:none;stroke:red;stroke-width:1px;stroke-linecap:butt;stroke-linejoin:miter;stroke-opacity:1" d="M 9.96871,274.98 4,264.236 z" id="boundary" inkscape:connector-curvature="0" />
	<path style="fill:none;stroke:red;stroke-width:1px;stroke-linecap:butt;stroke-linejoin:miter;stroke-opacity:1" d="M 4,264.236 4,252.298 z" id="boundary" inkscape:connector-curvature="0" />
	<path style="fill:none;stroke:red;stroke-width:1px;stroke-linecap:butt;stroke-linejoin:miter;stroke-opacity:1" d="M 4,252.298 4,240.361 z" id="boundary" inkscape:connector-curvature="0" />
	<path style="fill:none;stroke:red;stroke-width:1px;stroke-linecap:butt;stroke-linejoin:miter;stroke-opacity:1" d="M 4,240.361 4,228.424 z" id="boundary" inkscape:connector-curvature="0" />
	<path style="fill:none;stroke:red;stroke-width:1px;stroke-linecap:butt;stroke-linejoin:miter;stroke-opacity:1" d="M 4,228.424 4,216.486 z" id="boundary" inkscape:connector-curvature="0" />
	<path style="fill:none;stroke:red;stroke-width:1px;stroke-linecap:butt;stroke-linejoin:miter;stroke-opacity:1" d="M 4,216.486 9.96871,204.549 z" id="boundary" inkscape:connector-curvature="0" />
	<path style="fill:none;stroke:red;stroke-width:1px;stroke-linecap:butt;stroke-linejoin:miter;stroke-opacity:1" d="M 9.96871,204.549 21.9061,198.58 z" id="boundary" inkscape:connector-curvature="0" />
	<path style="fill:none;stroke:red;stroke-width:1px;stroke-linecap:butt;stroke-linejoin:miter;stroke-opacity:1" d="M 21.9061,198.58 31.4561,189.03 z" id="boundary" inkscape:connector-curvature="0" />
	<path style="fill:none;stroke:red;stroke-width:1px;stroke-linecap:butt;stroke-linejoin:miter;stroke-opacity:1" d="M 31.4561,189.03 43.3935,183.061 z" id="boundary" inkscape:connector-curvature="0" />
	<path style="fill:none;stroke:red;stroke-width:1px;stroke-linecap:butt;stroke-linejoin:miter;stroke-opacity:1" d="M 43.3935,183.061 55.3309,183.061 z" id="boundary" inkscape:connector-curvature="0" />
	<path style="fill:none;stroke:red;stroke-width:1px;stroke-linecap:butt;stroke-linejoin:miter;stroke-opacity:1" d="M 55.3309,183.061 67.2684,177.093 z" id="boundary" inkscape:connector-curvature="0" />
	<path style="fill:none;stroke:red;stroke-width:1px;stroke-linecap:butt;stroke-linejoin:miter;stroke-opacity:1" d="M 67.2684,177.093 79.2058,177.093 z" id="boundary" inkscape:connector-curvature="0" />
	<path style="fill:none;stroke:red;stroke-width:1px;stroke-linecap:butt;stroke-linejoin:miter;stroke-opacity:1" d="M 79.2058,177.093 81.5933,162.768 z" id="boundary" inkscape:connector-curvature="0" />
	<path style="fill:none;stroke:red;stroke-width:1px;stroke-linecap:butt;stroke-linejoin:miter;stroke-opacity:1" d="M 81.5933,162.768 93.5307,156.799 z" id="boundary" inkscape:connector-curvature="0" />
	<path style="fill:none;stroke:red;stroke-width:1px;stroke-linecap:butt;stroke-linejoin:miter;stroke-opacity:1" d="M 93.5307,156.799 105.468,153.218 z" id="boundary" inkscape:connector-curvature="0" />
	<path style="fill:none;stroke:red;stroke-width:1px;stroke-linecap:butt;stroke-linejoin:miter;stroke-opacity:1" d="M 105.468,153.218 117.406,153.218 z" id="boundary" inkscape:connector-curvature="0" />
	<path style="fill:none;stroke:red;stroke-width:1px;stroke-linecap:butt;stroke-linejoin:miter;stroke-opacity:1" d="M 117.406,153.218 129.343,153.218 z" id="boundary" inkscape:connector-curvature="0" />
	<path style="fill:none;stroke:red;stroke-width:1px;stroke-linecap:butt;stroke-linejoin:miter;stroke-opacity:1" d="M 129.343,153.218 141.28,153.218 z" id="boundary" inkscape:connector-curvature="0" />
	<path style="fill:none;stroke:red;stroke-width:1px;stroke-linecap:butt;stroke-linejoin:miter;stroke-opacity:1" d="M 141.28,153.218 153.218,153.218 z" id="boundary" inkscape:connector-curvature="0" />
	<path style="fill:none;stroke:red;stroke-width:1px;stroke-linecap:butt;stroke-linejoin:miter;stroke-opacity:1" d="M 153.218,153.218 165.155,153.218 z" id="boundary" inkscape:connector-curvature="0" />
	<path style="fill:none;stroke:red;stroke-width:1px;stroke-linecap:butt;stroke-linejoin:miter;stroke-opacity:1" d="M 165.155,153.218 177.093,153.218 z" id="boundary" inkscape:connector-curvature="0" />
	<path style="fill:none;stroke:red;stroke-width:1px;stroke-linecap:butt;stroke-linejoin:miter;stroke-opacity:1" d="M 177.093,153.218 189.03,153.218 z" id="boundary" inkscape:connector-curvature="0" />
	<path style="fill:none;stroke:red;stroke-width:1px;stroke-linecap:butt;stroke-linejoin:miter;stroke-opacity:1" d="M 189.03,153.218 200.968,153.218 z" id="boundary" inkscape:connector-curvature="0" />
	<path style="fill:none;stroke:red;stroke-width:1px;stroke-linecap:butt;stroke-linejoin:miter;stroke-opacity:1" d="M 200.968,153.218 212.905,153.218 z" id="boundary" inkscape:connector-curvature="0" />
	<path style="fill:none;stroke:red;stroke-width:1px;stroke-linecap:butt;stroke-linejoin:miter;stroke-opacity:1" d="M 212.905,153.218 224.842,153.218 z" id="boundary" inkscape:connector-curvature="0" />
	<path style="fill:none;stroke:red;stroke-width:1px;stroke-linecap:butt;stroke-linejoin:miter;stroke-opacity:1" d="M 224.842,153.218 236.78,150.83 z" id="boundary" inkscape:connector-curvature="0" />
	<path style="fill:none;stroke:red;stroke-width:1px;stroke-linecap:butt;stroke-linejoin:miter;stroke-opacity:1" d="M 236.78,150.83 248.717,147.249 z" id="boundary" inkscape:connector-curvature="0" />
	<path style="fill:none;stroke:red;stroke-width:1px;stroke-linecap:butt;stroke-linejoin:miter;stroke-opacity:1" d="M 248.717,147.249 260.655,147.249 z" id="boundary" inkscape:connector-curvature="0" />
	<path style="fill:none;stroke:red;stroke-width:1px;stroke-linecap:butt;stroke-linejoin:miter;stroke-opacity:1" d="M 260.655,147.249 272.592,147.249 z" id="boundary" inkscape:connector-curvature="0" />
	<path style="fill:none;stroke:red;stroke-width:1px;stroke-linecap:butt;stroke-linejoin:miter;stroke-opacity:1" d="M 272.592,147.249 284.529,147.249 z" id="boundary" inkscape:connector-curvature="0" />
	<path style="fill:none;stroke:red;stroke-width:1px;stroke-linecap:butt;stroke-linejoin:miter;stroke-opacity:1" d="M 284.529,147.249 295.273,141.28 z" id="boundary" inkscape:connector-curvature="0" />
	<path style="fill:none;stroke:red;stroke-width:1px;stroke-linecap:butt;stroke-linejoin:miter;stroke-opacity:1" d="M 295.273,141.28 303.629,131.73 z" id="boundary" inkscape:connector-curvature="0" />
	<path style="fill:none;stroke:red;stroke-width:1px;stroke-linecap:butt;stroke-linejoin:miter;stroke-opacity:1" d="M 303.629,131.73 313.179,123.374 z" id="boundary" inkscape:connector-curvature="0" />
	<path style="fill:none;stroke:red;stroke-width:1px;stroke-linecap:butt;stroke-linejoin:miter;stroke-opacity:1" d="M 313.179,123.374 323.923,117.406 z" id="boundary" inkscape:connector-curvature="0" />
	<path style="fill:none;stroke:red;stroke-width:1px;stroke-linecap:butt;stroke-linejoin:miter;stroke-opacity:1" d="M 323.923,117.406 335.86,111.437 z" id="boundary" inkscape:connector-curvature="0" />
	<path style="fill:none;stroke:red;stroke-width:1px;stroke-linecap:butt;stroke-linejoin:miter;stroke-opacity:1" d="M 335.86,111.437 347.798,105.468 z" id="boundary" inkscape:connector-curvature="0" />
	<path style="fill:none;stroke:red;stroke-width:1px;stroke-linecap:butt;stroke-linejoin:miter;stroke-opacity:1" d="M 347.798,105.468 359.735,99.4994 z" id="boundary" inkscape:connector-curvature="0" />
	<path style="fill:none;stroke:red;stroke-width:1px;stroke-linecap:butt;stroke-linejoin:miter;stroke-opacity:1" d="M 359.735,99.4994 371.673,99.4994 z" id="boundary" inkscape:connector-curvature="0" />
	<path style="fill:none;stroke:red;stroke-width:1px;stroke-linecap:butt;stroke-linejoin:miter;stroke-opacity:1" d="M 371.673,99.4994 382.416,93.5307 z" id="boundary" inkscape:connector-curvature="0" />
	<path style="fill:none;stroke:red;stroke-width:1px;stroke-linecap:butt;stroke-linejoin:miter;stroke-opacity:1" d="M 382.416,93.5307 394.354,93.5307 z" id="boundary" inkscape:connector-curvature="0" />
	<path style="fill:none;stroke:red;stroke-width:1px;stroke-linecap:butt;stroke-linejoin:miter;stroke-opacity:1" d="M 394.354,93.5307 405.097,99.4994 z" id="boundary" inkscape:connector-curvature="0" />
	<path style="fill:none;stroke:red;stroke-width:1px;stroke-linecap:butt;stroke-linejoin:miter;stroke-opacity:1" d="M 405.097,99.4994 417.035,103.081 z" id="boundary" inkscape:connector-curvature="0" />
	<path style="fill:none;stroke:red;stroke-width:1px;stroke-linecap:butt;stroke-linejoin:miter;stroke-opacity:1" d="M 417.035,103.081 428.972,105.468 z" id="boundary" inkscape:connector-curvature="0" />
	<path style="fill:none;stroke:red;stroke-width:1px;stroke-linecap:butt;stroke-linejoin:miter;stroke-opacity:1" d="M 428.972,105.468 440.91,105.468 z" id="boundary" inkscape:connector-curvature="0" />
	<path style="fill:none;stroke:red;stroke-width:1px;stroke-linecap:butt;stroke-linejoin:miter;stroke-opacity:1" d="M 440.91,105.468 451.653,97.1119 z" id="boundary" inkscape:connector-curvature="0" />
	<path style="fill:none;stroke:red;stroke-width:1px;stroke-linecap:butt;stroke-linejoin:miter;stroke-opacity:1" d="M 451.653,97.1119 451.653,85.1745 z" id="boundary" inkscape:connector-curvature="0" />
	<path style="fill:none;stroke:red;stroke-width:1px;stroke-linecap:butt;stroke-linejoin:miter;stroke-opacity:1" d="M 451.653,85.1745 457.622,73.2371 z" id="boundary" inkscape:connector-curvature="0" />
	<path style="fill:none;stroke:red;stroke-width:1px;stroke-linecap:butt;stroke-linejoin:miter;stroke-opacity:1" d="M 457.622,73.2371 463.591,61.2996 z" id="boundary" inkscape:connector-curvature="0" />
	<path style="fill:none;stroke:red;stroke-width:1px;stroke-linecap:butt;stroke-linejoin:miter;stroke-opacity:1" d="M 463.591,61.2996 473.141,51.7497 z" id="boundary" inkscape:connector-curvature="0" />
	<path style="fill:none;stroke:red;stroke-width:1px;stroke-linecap:butt;stroke-linejoin:miter;stroke-opacity:1" d="M 473.141,51.7497 479.11,39.8123 z" id="boundary" inkscape:connector-curvature="0" />
	<path style="fill:none;stroke:red;stroke-width:1px;stroke-linecap:butt;stroke-linejoin:miter;stroke-opacity:1" d="M 479.11,39.8123 488.659,30.2623 z" id="boundary" inkscape:connector-curvature="0" />
	<path style="fill:none;stroke:red;stroke-width:1px;stroke-linecap:butt;stroke-linejoin:miter;stroke-opacity:1" d="M 488.659,30.2623 498.209,21.9061 z" id="boundary" inkscape:connector-curvature="0" />
	<path style="fill:none;stroke:red;stroke-width:1px;stroke-linecap:butt;stroke-linejoin:miter;stroke-opacity:1" d="M 498.209,21.9061 508.953,15.9374 z" id="boundary" inkscape:connector-curvature="0" />
	<path style="fill:none;stroke:red;stroke-width:1px;stroke-linecap:butt;stroke-linejoin:miter;stroke-opacity:1" d="M 508.953,15.9374 519.697,9.96871 z" id="boundary" inkscape:connector-curvature="0" />
	<path style="fill:none;stroke:red;stroke-width:1px;stroke-linecap:butt;stroke-linejoin:miter;stroke-opacity:1" d="M 519.697,9.96871 531.634,9.96871 z" id="boundary" inkscape:connector-curvature="0" />
	<path style="fill:none;stroke:red;stroke-width:1px;stroke-linecap:butt;stroke-linejoin:miter;stroke-opacity:1" d="M 531.634,9.96871 543.572,9.96871 z" id="boundary" inkscape:connector-curvature="0" />
	<path style="fill:none;stroke:red;stroke-width:1px;stroke-linecap:butt;stroke-linejoin:miter;stroke-opacity:1" d="M 543.572,9.96871 555.509,9.96871 z" id="boundary" inkscape:connector-curvature="0" />
	<path style="fill:none;stroke:red;stroke-width:1px;stroke-linecap:butt;stroke-linejoin:miter;stroke-opacity:1" d="M 555.509,9.96871 567.446,5.19374 z" id="boundary" inkscape:connector-curvature="0" />
	<path style="fill:none;stroke:red;stroke-width:1px;stroke-linecap:butt;stroke-linejoin:miter;stroke-opacity:1" d="M 567.446,5.19374 579.384,4 z" id="boundary" inkscape:connector-curvature="0" />
	<path style="fill:none;stroke:red;stroke-width:1px;stroke-linecap:butt;stroke-linejoin:miter;stroke-opacity:1" d="M 579.384,4 591.321,4 z" id="boundary" inkscape:connector-curvature="0" />
	<path style="fill:none;stroke:red;stroke-width:1px;stroke-linecap:butt;stroke-linejoin:miter;stroke-opacity:1" d="M 591.321,4 603.259,4 z" id="boundary" inkscape:connector-curvature="0" />
	<path style="fill:none;stroke:red;stroke-width:1px;stroke-linecap:butt;stroke-linejoin:miter;stroke-opacity:1" d="M 603.259,4 615.196,4 z" id="boundary" inkscape:connector-curvature="0" />
	<path style="fill:none;stroke:red;stroke-width:1px;stroke-linecap:butt;stroke-linejoin:miter;stroke-opacity:1" d="M 615.196,4 627.134,4 z" id="boundary" inkscape:connector-curvature="0" />
	<path style="fill:none;stroke:red;stroke-width:1px;stroke-linecap:butt;stroke-linejoin:miter;stroke-opacity:1" d="M 627.134,4 639.071,4 z" id="boundary" inkscape:connector-curvature="0" />
	<path style="fill:none;stroke:red;stroke-width:1px;stroke-linecap:butt;stroke-linejoin:miter;stroke-opacity:1" d="M 639.071,4 651.008,4 z" id="boundary" inkscape:connector-curvature="0" />
	<path style="fill:none;stroke:red;stroke-width:1px;stroke-linecap:butt;stroke-linejoin:miter;stroke-opacity:1" d="M 651.008,4 662.946,4 z" id="boundary" inkscape:connector-curvature="0" />
	<path style="fill:none;stroke:red;stroke-width:1px;stroke-linecap:butt;stroke-linejoin:miter;stroke-opacity:1" d="M 662.946,4 674.883,4 z" id="boundary" inkscape:connector-curvature="0" />
	<path style="fill:none;stroke:red;stroke-width:1px;stroke-linecap:butt;stroke-linejoin:miter;stroke-opacity:1" d="M 674.883,4 686.821,4 z" id="boundary" inkscape:connector-curvature="0" />
	<path style="fill:none;stroke:red;stroke-width:1px;stroke-linecap:butt;stroke-linejoin:miter;stroke-opacity:1" d="M 686.821,4 698.758,4 z" id="boundary" inkscape:connector-curvature="0" />
	<path style="fill:none;stroke:red;stroke-width:1px;stroke-linecap:butt;stroke-linejoin:miter;stroke-opacity:1" d="M 698.758,4 710.696,4 z" id="boundary" inkscape:connector-curvature="0" />
	<path style="fill:none;stroke:red;stroke-width:1px;stroke-linecap:butt;stroke-linejoin:miter;stroke-opacity:1" d="M 710.696,4 722.633,4 z" id="boundary" inkscape:connector-curvature="0" />
	<path style="fill:none;stroke:red;stroke-width:1px;stroke-linecap:butt;stroke-linejoin:miter;stroke-opacity:1" d="M 722.633,4 734.57,4 z" id="boundary" inkscape:connector-curvature="0" />
	<path style="fill:none;stroke:red;stroke-width:1px;stroke-linecap:butt;stroke-linejoin:miter;stroke-opacity:1" d="M 734.57,4 745.314,9.96871 z" id="boundary" inkscape:connector-curvature="0" />
	<path style="fill:none;stroke:red;stroke-width:1px;stroke-linecap:butt;stroke-linejoin:miter;stroke-opacity:1" d="M 745.314,9.96871 754.864,17.1312 z" id="boundary" inkscape:connector-curvature="0" />
	<path style="fill:none;stroke:red;stroke-width:1px;stroke-linecap:butt;stroke-linejoin:miter;stroke-opacity:1" d="M 754.864,17.1312 763.22,26.6811 z" id="boundary" inkscape:connector-curvature="0" />
	<path style="fill:none;stroke:red;stroke-width:1px;stroke-linecap:butt;stroke-linejoin:miter;stroke-opacity:1" d="M 763.22,26.6811 769.189,37.4248 z" id="boundary" inkscape:connector-curvature="0" />
	<path style="fill:none;stroke:red;stroke-width:1px;stroke-linecap:butt;stroke-linejoin:miter;stroke-opacity:1" d="M 769.189,37.4248 773.964,49.3622 z" id="boundary" inkscape:connector-curvature="0" />
	<path style="fill:none;stroke:red;stroke-width:1px;stroke-linecap:butt;stroke-linejoin:miter;stroke-opacity:1" d="M 773.964,49.3622 779.933,60.1059 z" id="boundary" inkscape:connector-curvature="0" />
	<path style="fill:none;stroke:red;stroke-width:1px;stroke-linecap:butt;stroke-linejoin:miter;stroke-opacity:1" d="M 779.933,60.1059 781.126,72.0433 z" id="boundary" inkscape:connector-curvature="0" />
	<path style="fill:none;stroke:red;stroke-width:1px;stroke-linecap:butt;stroke-linejoin:miter;stroke-opacity:1" d="M 781.126,72.0433 781.126,83.9807 z" id="boundary" inkscape:connector-curvature="0" />
	<path style="fill:none;stroke:red;stroke-width:1px;stroke-linecap:butt;stroke-linejoin:miter;stroke-opacity:1" d="M 781.126,83.9807 781.126,95.9182 z" id="boundary" inkscape:connector-curvature="0" />
	<path style="fill:none;stroke:red;stroke-width:1px;stroke-linecap:butt;stroke-linejoin:miter;stroke-opacity:1" d="M 781.126,95.9182 787.095,106.662 z" id="boundary" inkscape:connector-curvature="0" />
	<path style="fill:none;stroke:red;stroke-width:1px;stroke-linecap:butt;stroke-linejoin:miter;stroke-opacity:1" d="M 787.095,106.662 793.064,117.406 z" id="boundary" inkscape:connector-curvature="0" />
	<path style="fill:none;stroke:red;stroke-width:1px;stroke-linecap:butt;stroke-linejoin:miter;stroke-opacity:1" d="M 793.064,117.406 802.614,124.568 z" id="boundary" inkscape:connector-curvature="0" />
	<path style="fill:none;stroke:red;stroke-width:1px;stroke-linecap:butt;stroke-linejoin:miter;stroke-opacity:1" d="M 802.614,124.568 814.551,129.343 z" id="boundary" inkscape:connector-curvature="0" />
	<path style="fill:none;stroke:red;stroke-width:1px;stroke-linecap:butt;stroke-linejoin:miter;stroke-opacity:1" d="M 814.551,129.343 825.295,135.312 z" id="boundary" inkscape:connector-curvature="0" />
	<path style="fill:none;stroke:red;stroke-width:1px;stroke-linecap:butt;stroke-linejoin:miter;stroke-opacity:1" d="M 825.295,135.312 837.232,135.312 z" id="boundary" inkscape:connector-curvature="0" />
	<path style="fill:none;stroke:red;stroke-width:1px;stroke-linecap:butt;stroke-linejoin:miter;stroke-opacity:1" d="M 837.232,135.312 849.17,135.312 z" id="boundary" inkscape:connector-curvature="0" />
	<path style="fill:none;stroke:red;stroke-width:1px;stroke-linecap:butt;stroke-linejoin:miter;stroke-opacity:1" d="M 849.17,135.312 861.107,135.312 z" id="boundary" inkscape:connector-curvature="0" />
	<path style="fill:none;stroke:red;stroke-width:1px;stroke-linecap:butt;stroke-linejoin:miter;stroke-opacity:1" d="M 861.107,135.312 873.045,135.312 z" id="boundary" inkscape:connector-curvature="0" />
	<path style="fill:none;stroke:red;stroke-width:1px;stroke-linecap:butt;stroke-linejoin:miter;stroke-opacity:1" d="M 873.045,135.312 883.788,141.28 z" id="boundary" inkscape:connector-curvature="0" />
	<path style="fill:none;stroke:red;stroke-width:1px;stroke-linecap:butt;stroke-linejoin:miter;stroke-opacity:1" d="M 883.788,141.28 895.726,141.28 z" id="boundary" inkscape:connector-curvature="0" />
	<path style="fill:none;stroke:red;stroke-width:1px;stroke-linecap:butt;stroke-linejoin:miter;stroke-opacity:1" d="M 895.726,141.28 906.469,147.249 z" id="boundary" inkscape:connector-curvature="0" />
	<path style="fill:none;stroke:red;stroke-width:1px;stroke-linecap:butt;stroke-linejoin:miter;stroke-opacity:1" d="M 906.469,147.249 918.407,147.249 z" id="boundary" inkscape:connector-curvature="0" />
	<path style="fill:none;stroke:red;stroke-width:1px;stroke-linecap:butt;stroke-linejoin:miter;stroke-opacity:1" d="M 918.407,147.249 929.15,153.218 z" id="boundary" inkscape:connector-curvature="0" />
	<path style="fill:none;stroke:red;stroke-width:1px;stroke-linecap:butt;stroke-linejoin:miter;stroke-opacity:1" d="M 929.15,153.218 941.088,153.218 z" id="boundary" inkscape:connector-curvature="0" />
	<path style="fill:none;stroke:red;stroke-width:1px;stroke-linecap:butt;stroke-linejoin:miter;stroke-opacity:1" d="M 941.088,153.218 953.025,155.605 z" id="boundary" inkscape:connector-curvature="0" />
	<path style="fill:none;stroke:red;stroke-width:1px;stroke-linecap:butt;stroke-linejoin:miter;stroke-opacity:1" d="M 953.025,155.605 964.963,159.187 z" id="boundary" inkscape:connector-curvature="0" />
	<path style="fill:none;stroke:red;stroke-width:1px;stroke-linecap:butt;stroke-linejoin:miter;stroke-opacity:1" d="M 964.963,159.187 976.9,159.187 z" id="boundary" inkscape:connector-curvature="0" />
	<path style="fill:none;stroke:red;stroke-width:1px;stroke-linecap:butt;stroke-linejoin:miter;stroke-opacity:1" d="M 976.9,159.187 986.45,166.349 z" id="boundary" inkscape:connector-curvature="0" />
	<path style="fill:none;stroke:red;stroke-width:1px;stroke-linecap:butt;stroke-linejoin:miter;stroke-opacity:1" d="M 986.45,166.349 996,174.705 z" id="boundary" inkscape:connector-curvature="0" />
	<path style="fill:none;stroke:red;stroke-width:1px;stroke-linecap:butt;stroke-linejoin:miter;stroke-opacity:1" d="M 996,174.705 996,186.643 z" id="boundary" inkscape:connector-curvature="0" />
	<path style="fill:none;stroke:red;stroke-width:1px;stroke-linecap:butt;stroke-linejoin:miter;stroke-opacity:1" d="M 996,186.643 996,198.58 z" id="boundary" inkscape:connector-curvature="0" />
	<path style="fill:none;stroke:red;stroke-width:1px;stroke-linecap:butt;stroke-linejoin:miter;stroke-opacity:1" d="M 996,198.58 996,210.517 z" id="boundary" inkscape:connector-curvature="0" />
	<path style="fill:none;stroke:red;stroke-width:1px;stroke-linecap:butt;stroke-linejoin:miter;stroke-opacity:1" d="M 996,210.517 996,222.455 z" id="boundary" inkscape:connector-curvature="0" />
	<path style="fill:none;stroke:red;stroke-width:1px;stroke-linecap:butt;stroke-linejoin:miter;stroke-opacity:1" d="M 996,222.455 996,234.392 z" id="boundary" inkscape:connector-curvature="0" />
	<circle cx="4" cy="216.486" r="4" fill="#0" id="circle0"/>
	<circle cx="4" cy="228.424" r="4" fill="#0" id="circle1"/>
	<circle cx="4" cy="240.361" r="4" fill="#0" id="circle2"/>
	<circle cx="4" cy="252.298" r="4" fill="#0" id="circle3"/>
	<circle cx="4" cy="264.236" r="4" fill="#0" id="circle4"/>
	<circle cx="9.96871" cy="204.549" r="4" fill="#0" id="circle5"/>
	<circle cx="9.96871" cy="274.98" r="4" fill="#0" id="circle6"/>
	<circle cx="18.3249" cy="284.529" r="4" fill="#0" id="circle7"/>
	<circle cx="21.9061" cy="198.58" r="4" fill="#0" id="circle8"/>
	<circle cx="24.2936" cy="295.273" r="4" fill="#0" id="circle9"/>
	<circle cx="31.4561" cy="189.03" r="4" fill="#0" id="circle10"/>
	<circle cx="33.8436" cy="303.629" r="4" fill="#0" id="circle11"/>
	<circle cx="33.8436" cy="315.567" r="4" fill="#0" id="circle12"/>
	<circle cx="33.8436" cy="327.504" r="4" fill="#0" id="circle13"/>
	<circle cx="33.8436" cy="339.442" r="4" fill="#0" id="circle14"/>
	<circle cx="33.8436" cy="351.379" r="4" fill="#0" id="circle15"/>
	<circle cx="33.8436" cy="363.316" r="4" fill="#0" id="circle16"/>
	<circle cx="37.4248" cy="375.254" r="4" fill="#0" id="circle17"/>
	<circle cx="43.3935" cy="183.061" r="4" fill="#0" id="circle18"/>
	<circle cx="43.3935" cy="385.998" r="4" fill="#0" id="circle19"/>
	<circle cx="51.7497" cy="395.548" r="4" fill="#0" id="circle20"/>
	<circle cx="55.3309" cy="183.061" r="4" fill="#0" id="circle21"/>
	<circle cx="63.6871" cy="399.129" r="4" fill="#0" id="circle22"/>
	<circle cx="67.2684" cy="177.093" r="4" fill="#0" id="circle23"/>
	<circle cx="75.6245" cy="395.548" r="4" fill="#0" id="circle24"/>
	<circle cx="79.2058" cy="177.093" r="4" fill="#0" id="circle25"/>
	<circle cx="81.5933" cy="162.768" r="4" fill="#0" id="circle26"/>
	<circle cx="87.562" cy="393.16" r="4" fill="#0" id="circle27"/>
	<circle cx="93.5307" cy="156.799" r="4" fill="#0" id="circle28"/>
	<circle cx="98.3057" cy="387.191" r="4" fill="#0" id="circle29"/>
	<circle cx="105.468" cy="153.218" r="4" fill="#0" id="circle30"/>
	<circle cx="110.243" cy="387.191" r="4" fill="#0" id="circle31"/>
	<circle cx="117.406" cy="153.218" r="4" fill="#0" id="circle32"/>
	<circle cx="122.181" cy="387.191" r="4" fill="#0" id="circle33"/>
	<circle cx="129.343" cy="153.218" r="4" fill="#0" id="circle34"/>
	<circle cx="134.118" cy="387.191" r="4" fill="#0" id="circle35"/>
	<circle cx="141.28" cy="153.218" r="4" fill="#0" id="circle36"/>
	<circle cx="146.055" cy="387.191" r="4" fill="#0" id="circle37"/>
	<circle cx="153.218" cy="153.218" r="4" fill="#0" id="circle38"/>
	<circle cx="157.993" cy="387.191" r="4" fill="#0" id="circle39"/>
	<circle cx="165.155" cy="153.218" r="4" fill="#0" id="circle40"/>
	<circle cx="169.93" cy="387.191" r="4" fill="#0" id="circle41"/>
	<circle cx="177.093" cy="153.218" r="4" fill="#0" id="circle42"/>
	<circle cx="181.868" cy="387.191" r="4" fill="#0" id="circle43"/>
	<circle cx="189.03" cy="153.218" r="4" fill="#0" id="circle44"/>
	<circle cx="193.805" cy="387.191" r="4" fill="#0" id="circle45"/>
	<circle cx="200.968" cy="153.218" r="4" fill="#0" id="circle46"/>
	<circle cx="205.742" cy="387.191" r="4" fill="#0" id="circle47"/>
	<circle cx="212.905" cy="153.218" r="4" fill="#0" id="circle48"/>
	<circle cx="217.68" cy="387.191" r="4" fill="#0" id="circle49"/>
	<circle cx="224.842" cy="153.218" r="4" fill="#0" id="circle50"/>
	<circle cx="229.617" cy="387.191" r="4" fill="#0" id="circle51"/>
	<circle cx="236.78" cy="150.83" r="4" fill="#0" id="circle52"/>
	<circle cx="241.555" cy="387.191" r="4" fill="#0" id="circle53"/>
	<circle cx="248.717" cy="147.249" r="4" fill="#0" id="circle54"/>
	<circle cx="253.492" cy="387.191" r="4" fill="#0" id="circle55"/>
	<circle cx="260.655" cy="147.249" r="4" fill="#0" id="circle56"/>
	<circle cx="265.43" cy="387.191" r="4" fill="#0" id="circle57"/>
	<circle cx="272.592" cy="147.249" r="4" fill="#0" id="circle58"/>
	<circle cx="277.367" cy="387.191" r="4" fill="#0" id="circle59"/>
	<circle cx="284.529" cy="147.249" r="4" fill="#0" id="circle60"/>
	<circle cx="289.304" cy="387.191" r="4" fill="#0" id="circle61"/>
	<circle cx="295.273" cy="141.28" r="4" fill="#0" id="circle62"/>
	<circle cx="301.242" cy="387.191" r="4" fill="#0" id="circle63"/>
	<circle cx="303.629" cy="131.73" r="4" fill="#0" id="circle64"/>
	<circle cx="313.179" cy="123.374" r="4" fill="#0" id="circle65"/>
	<circle cx="313.179" cy="387.191" r="4" fill="#0" id="circle66"/>
	<circle cx="323.923" cy="117.406" r="4" fill="#0" id="circle67"/>
	<circle cx="325.117" cy="387.191" r="4" fill="#0" id="circle68"/>
	<circle cx="335.86" cy="111.437" r="4" fill="#0" id="circle69"/>
	<circle cx="337.054" cy="387.191" r="4" fill="#0" id="circle70"/>
	<circle cx="347.798" cy="105.468" r="4" fill="#0" id="circle71"/>
	<circle cx="348.992" cy="387.191" r="4" fill="#0" id="circle72"/>
	<circle cx="359.735" cy="99.4994" r="4" fill="#0" id="circle73"/>
	<circle cx="360.929" cy="387.191" r="4" fill="#0" id="circle74"/>
	<circle cx="371.673" cy="99.4994" r="4" fill="#0" id="circle75"/>
	<circle cx="372.866" cy="387.191" r="4" fill="#0" id="circle76"/>
	<circle cx="382.416" cy="93.5307" r="4" fill="#0" id="circle77"/>
	<circle cx="383.61" cy="393.16" r="4" fill="#0" id="circle78"/>
	<circle cx="394.354" cy="93.5307" r="4" fill="#0" id="circle79"/>
	<circle cx="395.548" cy="393.16" r="4" fill="#0" id="circle80"/>
	<circle cx="405.097" cy="99.4994" r="4" fill="#0" id="circle81"/>
	<circle cx="407.485" cy="393.16" r="4" fill="#0" id="circle82"/>
	<circle cx="409.872" cy="405.097" r="4" fill="#0" id="circle83"/>
	<circle cx="409.872" cy="417.035" r="4" fill="#0" id="circle84"/>
	<circle cx="415.841" cy="427.779" r="4" fill="#0" id="circle85"/>
	<circle cx="417.035" cy="103.081" r="4" fill="#0" id="circle86"/>
	<circle cx="425.391" cy="434.941" r="4" fill="#0" id="circle87"/>
	<circle cx="428.972" cy="105.468" r="4" fill="#0" id="circle88"/>
	<circle cx="436.135" cy="440.91" r="4" fill="#0" id="circle89"/>
	<circle cx="440.91" cy="105.468" r="4" fill="#0" id="circle90"/>
	<circle cx="446.878" cy="446.878" r="4" fill="#0" id="circle91"/>
	<circle cx="451.653" cy="85.1745" r="4" fill="#0" id="circle92"/>
	<circle cx="451.653" cy="97.1119" r="4" fill="#0" id="circle93"/>
	<circle cx="457.622" cy="73.2371" r="4" fill="#0" id="circle94"/>
	<circle cx="458.816" cy="449.266" r="4" fill="#0" id="circle95"/>
	<circle cx="463.591" cy="61.2996" r="4" fill="#0" id="circle96"/>
	<circle cx="470.753" cy="452.847" r="4" fill="#0" id="circle97"/>
	<circle cx="473.141" cy="51.7497" r="4" fill="#0" id="circle98"/>
	<circle cx="479.11" cy="39.8123" r="4" fill="#0" id="circle99"/>
	<circle cx="482.691" cy="452.847" r="4" fill="#0" id="circle100"/>
	<circle cx="488.659" cy="30.2623" r="4" fill="#0" id="circle101"/>
	<circle cx="493.434" cy="446.878" r="4" fill="#0" id="circle102"/>
	<circle cx="498.209" cy="21.9061" r="4" fill="#0" id="circle103"/>
	<circle cx="504.178" cy="440.91" r="4" fill="#0" id="circle104"/>
	<circle cx="508.953" cy="15.9374" r="4" fill="#0" id="circle105"/>
	<circle cx="514.922" cy="433.747" r="4" fill="#0" id="circle106"/>
	<circle cx="519.697" cy="9.96871" r="4" fill="#0" id="circle107"/>
	<circle cx="520.89" cy="421.81" r="4" fill="#0" id="circle108"/>
	<circle cx="530.44" cy="405.097" r="4" fill="#0" id="circle109"/>
	<circle cx="531.634" cy="9.96871" r="4" fill="#0" id="circle110"/>
	<circle cx="539.99" cy="396.741" r="4" fill="#0" id="circle111"/>
	<circle cx="543.572" cy="9.96871" r="4" fill="#0" id="circle112"/>
	<circle cx="548.347" cy="387.191" r="4" fill="#0" id="circle113"/>
	<circle cx="555.509" cy="9.96871" r="4" fill="#0" id="circle114"/>
	<circle cx="560.284" cy="381.223" r="4" fill="#0" id="circle115"/>
	<circle cx="567.446" cy="5.19374" r="4" fill="#0" id="circle116"/>
	<circle cx="571.028" cy="375.254" r="4" fill="#0" id="circle117"/>
	<circle cx="579.384" cy="4" r="4" fill="#0" id="circle118"/>
	<circle cx="582.965" cy="375.254" r="4" fill="#0" id="circle119"/>
	<circle cx="591.321" cy="4" r="4" fill="#0" id="circle120"/>
	<circle cx="594.903" cy="375.254" r="4" fill="#0" id="circle121"/>
	<circle cx="603.259" cy="4" r="4" fill="#0" id="circle122"/>
	<circle cx="606.84" cy="375.254" r="4" fill="#0" id="circle123"/>
	<circle cx="615.196" cy="4" r="4" fill="#0" id="circle124"/>
	<circle cx="618.777" cy="375.254" r="4" fill="#0" id="circle125"/>
	<circle cx="627.134" cy="4" r="4" fill="#0" id="circle126"/>
	<circle cx="630.715" cy="375.254" r="4" fill="#0" id="circle127"/>
	<circle cx="639.071" cy="4" r="4" fill="#0" id="circle128"/>
	<circle cx="642.652" cy="375.254" r="4" fill="#0" id="circle129"/>
	<circle cx="651.008" cy="4" r="4" fill="#0" id="circle130"/>
	<circle cx="654.59" cy="375.254" r="4" fill="#0" id="circle131"/>
	<circle cx="662.946" cy="4" r="4" fill="#0" id="circle132"/>
	<circle cx="666.527" cy="375.254" r="4" fill="#0" id="circle133"/>
	<circle cx="674.883" cy="4" r="4" fill="#0" id="circle134"/>
	<circle cx="678.465" cy="375.254" r="4" fill="#0" id="circle135"/>
	<circle cx="686.821" cy="4" r="4" fill="#0" id="circle136"/>
	<circle cx="690.402" cy="375.254" r="4" fill="#0" id="circle137"/>
	<circle cx="698.758" cy="4" r="4" fill="#0" id="circle138"/>
	<circle cx="702.339" cy="375.254" r="4" fill="#0" id="circle139"/>
	<circle cx="710.696" cy="4" r="4" fill="#0" id="circle140"/>
	<circle cx="714.277" cy="375.254" r="4" fill="#0" id="circle141"/>
	<circle cx="722.633" cy="4" r="4" fill="#0" id="circle142"/>
	<circle cx="726.214" cy="375.254" r="4" fill="#0" id="circle143"/>
	<circle cx="734.57" cy="4" r="4" fill="#0" id="circle144"/>
	<circle cx="738.152" cy="375.254" r="4" fill="#0" id="circle145"/>
	<circle cx="745.314" cy="9.96871" r="4" fill="#0" id="circle146"/>
	<circle cx="750.089" cy="375.254" r="4" fill="#0" id="circle147"/>
	<circle cx="754.864" cy="17.1312" r="4" fill="#0" id="circle148"/>
	<circle cx="762.026" cy="375.254" r="4" fill="#0" id="circle149"/>
	<circle cx="763.22" cy="26.6811" r="4" fill="#0" id="circle150"/>
	<circle cx="769.189" cy="37.4248" r="4" fill="#0" id="circle151"/>
	<circle cx="773.964" cy="49.3622" r="4" fill="#0" id="circle152"/>
	<circle cx="773.964" cy="375.254" r="4" fill="#0" id="circle153"/>
	<circle cx="779.933" cy="60.1059" r="4" fill="#0" id="circle154"/>
	<circle cx="781.126" cy="72.0433" r="4" fill="#0" id="circle155"/>
	<circle cx="781.126" cy="83.9807" r="4" fill="#0" id="circle156"/>
	<circle cx="781.126" cy="95.9182" r="4" fill="#0" id="circle157"/>
	<circle cx="784.708" cy="381.223" r="4" fill="#0" id="circle158"/>
	<circle cx="787.095" cy="106.662" r="4" fill="#0" id="circle159"/>
	<circle cx="791.87" cy="390.773" r="4" fill="#0" id="circle160"/>
	<circle cx="793.064" cy="117.406" r="4" fill="#0" id="circle161"/>
	<circle cx="793.064" cy="402.71" r="4" fill="#0" id="circle162"/>
	<circle cx="802.614" cy="124.568" r="4" fill="#0" id="circle163"/>
	<circle cx="802.614" cy="411.066" r="4" fill="#0" id="circle164"/>
	<circle cx="813.357" cy="417.035" r="4" fill="#0" id="circle165"/>
	<circle cx="814.551" cy="129.343" r="4" fill="#0" id="circle166"/>
	<circle cx="825.295" cy="135.312" r="4" fill="#0" id="circle167"/>
	<circle cx="825.295" cy="417.035" r="4" fill="#0" id="circle168"/>
	<circle cx="837.232" cy="135.312" r="4" fill="#0" id="circle169"/>
	<circle cx="837.232" cy="417.035" r="4" fill="#0" id="circle170"/>
	<circle cx="849.17" cy="135.312" r="4" fill="#0" id="circle171"/>
	<circle cx="849.17" cy="417.035" r="4" fill="#0" id="circle172"/>
	<circle cx="861.107" cy="135.312" r="4" fill="#0" id="circle173"/>
	<circle cx="861.107" cy="417.035" r="4" fill="#0" id="circle174"/>
	<circle cx="873.045" cy="135.312" r="4" fill="#0" id="circle175"/>
	<circle cx="873.045" cy="415.841" r="4" fill="#0" id="circle176"/>
	<circle cx="883.788" cy="141.28" r="4" fill="#0" id="circle177"/>
	<circle cx="884.982" cy="409.872" r="4" fill="#0" id="circle178"/>
	<circle cx="895.726" cy="141.28" r="4" fill="#0" id="circle179"/>
	<circle cx="896.919" cy="403.904" r="4" fill="#0" id="circle180"/>
	<circle cx="906.469" cy="147.249" r="4" fill="#0" id="circle181"/>
	<circle cx="906.469" cy="387.191" r="4" fill="#0" id="circle182"/>
	<circle cx="912.438" cy="351.379" r="4" fill="#0" id="circle183"/>
	<circle cx="912.438" cy="363.316" r="4" fill="#0" id="circle184"/>
	<circle cx="912.438" cy="375.254" r="4" fill="#0" id="circle185"/>
	<circle cx="918.407" cy="147.249" r="4" fill="#0" id="circle186"/>
	<circle cx="918.407" cy="339.442" r="4" fill="#0" id="circle187"/>
	<circle cx="929.15" cy="153.218" r="4" fill="#0" id="circle188"/>
	<circle cx="930.344" cy="333.473" r="4" fill="#0" id="circle189"/>
	<circle cx="941.088" cy="153.218" r="4" fill="#0" id="circle190"/>
	<circle cx="942.282" cy="333.473" r="4" fill="#0" id="circle191"/>
	<circle cx="953.025" cy="155.605" r="4" fill="#0" id="circle192"/>
	<circle cx="953.025" cy="327.504" r="4" fill="#0" id="circle193"/>
	<circle cx="960.188" cy="315.567" r="4" fill="#0" id="circle194"/>
	<circle cx="964.963" cy="159.187" r="4" fill="#0" id="circle195"/>
	<circle cx="969.738" cy="307.211" r="4" fill="#0" id="circle196"/>
	<circle cx="975.706" cy="295.273" r="4" fill="#0" id="circle197"/>
	<circle cx="976.9" cy="159.187" r="4" fill="#0" id="circle198"/>
	<circle cx="984.063" cy="279.755" r="4" fill="#0" id="circle199"/>
	<circle cx="986.45" cy="166.349" r="4" fill="#0" id="circle200"/>
	<circle cx="990.031" cy="267.817" r="4" fill="#0" id="circle201"/>
	<circle cx="996" cy="174.705" r="4" fill="#0" id="circle202"/>
	<circle cx="996" cy="186.643" r="4" fill="#0" id="circle203"/>
	<circle cx="996" cy="198.58" r="4" fill="#0" id="circle204"/>
	<circle cx="996" cy="210.517" r="4" fill="#0" id="circle205"/>
	<circle cx="996" cy="222.455" r="4" fill="#0" id="circle206"/>
	<circle cx="996" cy="234.392" r="4" fill="#0" id="circle207"/>
	<circle cx="996" cy="246.33" r="4" fill="#0" id="circle208"/>
	</g>
</svg>