<?xml version="1.0" encoding="UTF-8" standalone="no"?>
<!-- Created with CurveBenchmark -->
<svg
	xmlns:dc="http://purl.org/dc/elements/1.1/"
	xmlns:cc="http://creativecommons.org/ns#"
	xmlns:rdf="http://www.w3.org/1999/02/22-rdf-syntax-ns#"
	xmlns:svg="http://www.w3.org/2000/svg"
	xmlns="http://www.w3.org/2000/svg"
	xmlns:sodipodi="http://sodipodi.sourceforge.net/DTD/sodipodi-0.dtd"
	xmlns:inkscape="http://www.inkscape.org/namespaces/inkscape"
	width="1000"
	height="1000"
	id="svg2"
	version="1.1"
	sodipodi:docname="manifold/connect2d-fgen5bp.png.txt">
<defs
	id="defs4" />
<metadata
	id="metadata7">
	<rdf:RDF>
		<cc:Work
			rdf:about="">
			<dc:format>image/svg+xml</dc:format>
			<dc:type
				rdf:resource="http://purl.org/dc/dcmitype/StillImage" />
			<dc:title></dc:title>
		</cc:Work>
	</rdf:RDF>
</metadata>
<g
	inkscape:label="Layer 1"
	inkscape:groupmode="layer"
	id="layer1">
	<path style="fill:none;stroke:red;stroke-width:1px;stroke-linecap:butt;stroke-linejoin:miter;stroke-opacity:1" d="M 914.818,326.747 887.098,322.786 z" id="boundary" inkscape:connector-curvature="0" />
	<path style="fill:none;stroke:red;stroke-width:1px;stroke-linecap:butt;stroke-linejoin:miter;stroke-opacity:1" d="M 887.098,322.786 869.277,312.886 z" id="boundary" inkscape:connector-curvature="0" />
	<path style="fill:none;stroke:red;stroke-width:1px;stroke-linecap:butt;stroke-linejoin:miter;stroke-opacity:1" d="M 869.277,312.886 849.477,312.886 z" id="boundary" inkscape:connector-curvature="0" />
	<path style="fill:none;stroke:red;stroke-width:1px;stroke-linecap:butt;stroke-linejoin:miter;stroke-opacity:1" d="M 849.477,312.886 831.657,302.986 z" id="boundary" inkscape:connector-curvature="0" />
	<path style="fill:none;stroke:red;stroke-width:1px;stroke-linecap:butt;stroke-linejoin:miter;stroke-opacity:1" d="M 831.657,302.986 811.856,302.986 z" id="boundary" inkscape:connector-curvature="0" />
	<path style="fill:none;stroke:red;stroke-width:1px;stroke-linecap:butt;stroke-linejoin:miter;stroke-opacity:1" d="M 811.856,302.986 794.036,293.086 z" id="boundary" inkscape:connector-curvature="0" />
	<path style="fill:none;stroke:red;stroke-width:1px;stroke-linecap:butt;stroke-linejoin:miter;stroke-opacity:1" d="M 794.036,293.086 774.236,293.086 z" id="boundary" inkscape:connector-curvature="0" />
	<path style="fill:none;stroke:red;stroke-width:1px;stroke-linecap:butt;stroke-linejoin:miter;stroke-opacity:1" d="M 774.236,293.086 756.415,283.186 z" id="boundary" inkscape:connector-curvature="0" />
	<path style="fill:none;stroke:red;stroke-width:1px;stroke-linecap:butt;stroke-linejoin:miter;stroke-opacity:1" d="M 756.415,283.186 736.615,287.146 z" id="boundary" inkscape:connector-curvature="0" />
	<path style="fill:none;stroke:red;stroke-width:1px;stroke-linecap:butt;stroke-linejoin:miter;stroke-opacity:1" d="M 736.615,287.146 718.794,277.246 z" id="boundary" inkscape:connector-curvature="0" />
	<path style="fill:none;stroke:red;stroke-width:1px;stroke-linecap:butt;stroke-linejoin:miter;stroke-opacity:1" d="M 718.794,277.246 698.994,277.246 z" id="boundary" inkscape:connector-curvature="0" />
	<path style="fill:none;stroke:red;stroke-width:1px;stroke-linecap:butt;stroke-linejoin:miter;stroke-opacity:1" d="M 698.994,277.246 679.194,277.246 z" id="boundary" inkscape:connector-curvature="0" />
	<path style="fill:none;stroke:red;stroke-width:1px;stroke-linecap:butt;stroke-linejoin:miter;stroke-opacity:1" d="M 679.194,277.246 659.393,273.285 z" id="boundary" inkscape:connector-curvature="0" />
	<path style="fill:none;stroke:red;stroke-width:1px;stroke-linecap:butt;stroke-linejoin:miter;stroke-opacity:1" d="M 659.393,273.285 639.593,273.285 z" id="boundary" inkscape:connector-curvature="0" />
	<path style="fill:none;stroke:red;stroke-width:1px;stroke-linecap:butt;stroke-linejoin:miter;stroke-opacity:1" d="M 639.593,273.285 625.733,293.086 z" id="boundary" inkscape:connector-curvature="0" />
	<path style="fill:none;stroke:red;stroke-width:1px;stroke-linecap:butt;stroke-linejoin:miter;stroke-opacity:1" d="M 625.733,293.086 607.912,302.986 z" id="boundary" inkscape:connector-curvature="0" />
	<path style="fill:none;stroke:red;stroke-width:1px;stroke-linecap:butt;stroke-linejoin:miter;stroke-opacity:1" d="M 607.912,302.986 590.092,312.886 z" id="boundary" inkscape:connector-curvature="0" />
	<path style="fill:none;stroke:red;stroke-width:1px;stroke-linecap:butt;stroke-linejoin:miter;stroke-opacity:1" d="M 590.092,312.886 594.052,332.687 z" id="boundary" inkscape:connector-curvature="0" />
	<path style="fill:none;stroke:red;stroke-width:1px;stroke-linecap:butt;stroke-linejoin:miter;stroke-opacity:1" d="M 594.052,332.687 609.892,346.547 z" id="boundary" inkscape:connector-curvature="0" />
	<path style="fill:none;stroke:red;stroke-width:1px;stroke-linecap:butt;stroke-linejoin:miter;stroke-opacity:1" d="M 609.892,346.547 617.812,366.347 z" id="boundary" inkscape:connector-curvature="0" />
	<path style="fill:none;stroke:red;stroke-width:1px;stroke-linecap:butt;stroke-linejoin:miter;stroke-opacity:1" d="M 617.812,366.347 629.693,382.188 z" id="boundary" inkscape:connector-curvature="0" />
	<path style="fill:none;stroke:red;stroke-width:1px;stroke-linecap:butt;stroke-linejoin:miter;stroke-opacity:1" d="M 629.693,382.188 633.653,401.988 z" id="boundary" inkscape:connector-curvature="0" />
	<path style="fill:none;stroke:red;stroke-width:1px;stroke-linecap:butt;stroke-linejoin:miter;stroke-opacity:1" d="M 633.653,401.988 639.593,421.788 z" id="boundary" inkscape:connector-curvature="0" />
	<path style="fill:none;stroke:red;stroke-width:1px;stroke-linecap:butt;stroke-linejoin:miter;stroke-opacity:1" d="M 639.593,421.788 643.553,441.589 z" id="boundary" inkscape:connector-curvature="0" />
	<path style="fill:none;stroke:red;stroke-width:1px;stroke-linecap:butt;stroke-linejoin:miter;stroke-opacity:1" d="M 643.553,441.589 649.493,461.389 z" id="boundary" inkscape:connector-curvature="0" />
	<path style="fill:none;stroke:red;stroke-width:1px;stroke-linecap:butt;stroke-linejoin:miter;stroke-opacity:1" d="M 649.493,461.389 649.493,481.19 z" id="boundary" inkscape:connector-curvature="0" />
	<path style="fill:none;stroke:red;stroke-width:1px;stroke-linecap:butt;stroke-linejoin:miter;stroke-opacity:1" d="M 649.493,481.19 649.493,500.99 z" id="boundary" inkscape:connector-curvature="0" />
	<path style="fill:none;stroke:red;stroke-width:1px;stroke-linecap:butt;stroke-linejoin:miter;stroke-opacity:1" d="M 649.493,500.99 649.493,520.79 z" id="boundary" inkscape:connector-curvature="0" />
	<path style="fill:none;stroke:red;stroke-width:1px;stroke-linecap:butt;stroke-linejoin:miter;stroke-opacity:1" d="M 649.493,520.79 639.593,550.491 z" id="boundary" inkscape:connector-curvature="0" />
	<path style="fill:none;stroke:red;stroke-width:1px;stroke-linecap:butt;stroke-linejoin:miter;stroke-opacity:1" d="M 639.593,550.491 639.593,570.291 z" id="boundary" inkscape:connector-curvature="0" />
	<path style="fill:none;stroke:red;stroke-width:1px;stroke-linecap:butt;stroke-linejoin:miter;stroke-opacity:1" d="M 639.593,570.291 629.693,599.992 z" id="boundary" inkscape:connector-curvature="0" />
	<path style="fill:none;stroke:red;stroke-width:1px;stroke-linecap:butt;stroke-linejoin:miter;stroke-opacity:1" d="M 629.693,599.992 619.792,629.693 z" id="boundary" inkscape:connector-curvature="0" />
	<path style="fill:none;stroke:red;stroke-width:1px;stroke-linecap:butt;stroke-linejoin:miter;stroke-opacity:1" d="M 619.792,629.693 609.892,649.493 z" id="boundary" inkscape:connector-curvature="0" />
	<path style="fill:none;stroke:red;stroke-width:1px;stroke-linecap:butt;stroke-linejoin:miter;stroke-opacity:1" d="M 609.892,649.493 599.992,669.293 z" id="boundary" inkscape:connector-curvature="0" />
	<path style="fill:none;stroke:red;stroke-width:1px;stroke-linecap:butt;stroke-linejoin:miter;stroke-opacity:1" d="M 599.992,669.293 599.992,689.094 z" id="boundary" inkscape:connector-curvature="0" />
	<path style="fill:none;stroke:red;stroke-width:1px;stroke-linecap:butt;stroke-linejoin:miter;stroke-opacity:1" d="M 599.992,689.094 590.092,718.794 z" id="boundary" inkscape:connector-curvature="0" />
	<path style="fill:none;stroke:red;stroke-width:1px;stroke-linecap:butt;stroke-linejoin:miter;stroke-opacity:1" d="M 590.092,718.794 590.092,738.595 z" id="boundary" inkscape:connector-curvature="0" />
	<path style="fill:none;stroke:red;stroke-width:1px;stroke-linecap:butt;stroke-linejoin:miter;stroke-opacity:1" d="M 590.092,738.595 590.092,758.395 z" id="boundary" inkscape:connector-curvature="0" />
	<path style="fill:none;stroke:red;stroke-width:1px;stroke-linecap:butt;stroke-linejoin:miter;stroke-opacity:1" d="M 590.092,758.395 580.192,788.096 z" id="boundary" inkscape:connector-curvature="0" />
	<path style="fill:none;stroke:red;stroke-width:1px;stroke-linecap:butt;stroke-linejoin:miter;stroke-opacity:1" d="M 580.192,788.096 580.192,807.896 z" id="boundary" inkscape:connector-curvature="0" />
	<path style="fill:none;stroke:red;stroke-width:1px;stroke-linecap:butt;stroke-linejoin:miter;stroke-opacity:1" d="M 580.192,807.896 580.192,827.697 z" id="boundary" inkscape:connector-curvature="0" />
	<path style="fill:none;stroke:red;stroke-width:1px;stroke-linecap:butt;stroke-linejoin:miter;stroke-opacity:1" d="M 580.192,827.697 570.291,857.397 z" id="boundary" inkscape:connector-curvature="0" />
	<path style="fill:none;stroke:red;stroke-width:1px;stroke-linecap:butt;stroke-linejoin:miter;stroke-opacity:1" d="M 570.291,857.397 570.291,877.198 z" id="boundary" inkscape:connector-curvature="0" />
	<path style="fill:none;stroke:red;stroke-width:1px;stroke-linecap:butt;stroke-linejoin:miter;stroke-opacity:1" d="M 570.291,877.198 560.391,896.998 z" id="boundary" inkscape:connector-curvature="0" />
	<path style="fill:none;stroke:red;stroke-width:1px;stroke-linecap:butt;stroke-linejoin:miter;stroke-opacity:1" d="M 560.391,896.998 550.491,926.699 z" id="boundary" inkscape:connector-curvature="0" />
	<path style="fill:none;stroke:red;stroke-width:1px;stroke-linecap:butt;stroke-linejoin:miter;stroke-opacity:1" d="M 550.491,926.699 538.611,946.499 z" id="boundary" inkscape:connector-curvature="0" />
	<path style="fill:none;stroke:red;stroke-width:1px;stroke-linecap:butt;stroke-linejoin:miter;stroke-opacity:1" d="M 538.611,946.499 520.79,956.399 z" id="boundary" inkscape:connector-curvature="0" />
	<path style="fill:none;stroke:red;stroke-width:1px;stroke-linecap:butt;stroke-linejoin:miter;stroke-opacity:1" d="M 520.79,956.399 502.97,966.299 z" id="boundary" inkscape:connector-curvature="0" />
	<path style="fill:none;stroke:red;stroke-width:1px;stroke-linecap:butt;stroke-linejoin:miter;stroke-opacity:1" d="M 502.97,966.299 485.15,976.2 z" id="boundary" inkscape:connector-curvature="0" />
	<path style="fill:none;stroke:red;stroke-width:1px;stroke-linecap:butt;stroke-linejoin:miter;stroke-opacity:1" d="M 485.15,976.2 467.329,986.1 z" id="boundary" inkscape:connector-curvature="0" />
	<path style="fill:none;stroke:red;stroke-width:1px;stroke-linecap:butt;stroke-linejoin:miter;stroke-opacity:1" d="M 467.329,986.1 447.529,992.04 z" id="boundary" inkscape:connector-curvature="0" />
	<path style="fill:none;stroke:red;stroke-width:1px;stroke-linecap:butt;stroke-linejoin:miter;stroke-opacity:1" d="M 447.529,992.04 427.729,992.04 z" id="boundary" inkscape:connector-curvature="0" />
	<path style="fill:none;stroke:red;stroke-width:1px;stroke-linecap:butt;stroke-linejoin:miter;stroke-opacity:1" d="M 427.729,992.04 407.928,996 z" id="boundary" inkscape:connector-curvature="0" />
	<path style="fill:none;stroke:red;stroke-width:1px;stroke-linecap:butt;stroke-linejoin:miter;stroke-opacity:1" d="M 407.928,996 390.108,986.1 z" id="boundary" inkscape:connector-curvature="0" />
	<path style="fill:none;stroke:red;stroke-width:1px;stroke-linecap:butt;stroke-linejoin:miter;stroke-opacity:1" d="M 390.108,986.1 370.307,986.1 z" id="boundary" inkscape:connector-curvature="0" />
	<path style="fill:none;stroke:red;stroke-width:1px;stroke-linecap:butt;stroke-linejoin:miter;stroke-opacity:1" d="M 370.307,986.1 350.507,986.1 z" id="boundary" inkscape:connector-curvature="0" />
	<path style="fill:none;stroke:red;stroke-width:1px;stroke-linecap:butt;stroke-linejoin:miter;stroke-opacity:1" d="M 350.507,986.1 332.687,976.2 z" id="boundary" inkscape:connector-curvature="0" />
	<path style="fill:none;stroke:red;stroke-width:1px;stroke-linecap:butt;stroke-linejoin:miter;stroke-opacity:1" d="M 332.687,976.2 314.866,966.299 z" id="boundary" inkscape:connector-curvature="0" />
	<path style="fill:none;stroke:red;stroke-width:1px;stroke-linecap:butt;stroke-linejoin:miter;stroke-opacity:1" d="M 314.866,966.299 297.046,956.399 z" id="boundary" inkscape:connector-curvature="0" />
	<path style="fill:none;stroke:red;stroke-width:1px;stroke-linecap:butt;stroke-linejoin:miter;stroke-opacity:1" d="M 297.046,956.399 283.186,940.559 z" id="boundary" inkscape:connector-curvature="0" />
	<path style="fill:none;stroke:red;stroke-width:1px;stroke-linecap:butt;stroke-linejoin:miter;stroke-opacity:1" d="M 283.186,940.559 267.345,926.699 z" id="boundary" inkscape:connector-curvature="0" />
	<path style="fill:none;stroke:red;stroke-width:1px;stroke-linecap:butt;stroke-linejoin:miter;stroke-opacity:1" d="M 267.345,926.699 261.405,906.898 z" id="boundary" inkscape:connector-curvature="0" />
	<path style="fill:none;stroke:red;stroke-width:1px;stroke-linecap:butt;stroke-linejoin:miter;stroke-opacity:1" d="M 261.405,906.898 251.505,889.078 z" id="boundary" inkscape:connector-curvature="0" />
	<path style="fill:none;stroke:red;stroke-width:1px;stroke-linecap:butt;stroke-linejoin:miter;stroke-opacity:1" d="M 251.505,889.078 241.605,871.257 z" id="boundary" inkscape:connector-curvature="0" />
	<path style="fill:none;stroke:red;stroke-width:1px;stroke-linecap:butt;stroke-linejoin:miter;stroke-opacity:1" d="M 241.605,871.257 241.605,839.577 z" id="boundary" inkscape:connector-curvature="0" />
	<path style="fill:none;stroke:red;stroke-width:1px;stroke-linecap:butt;stroke-linejoin:miter;stroke-opacity:1" d="M 241.605,839.577 231.705,821.756 z" id="boundary" inkscape:connector-curvature="0" />
	<path style="fill:none;stroke:red;stroke-width:1px;stroke-linecap:butt;stroke-linejoin:miter;stroke-opacity:1" d="M 231.705,821.756 231.705,799.976 z" id="boundary" inkscape:connector-curvature="0" />
	<path style="fill:none;stroke:red;stroke-width:1px;stroke-linecap:butt;stroke-linejoin:miter;stroke-opacity:1" d="M 231.705,799.976 231.705,780.176 z" id="boundary" inkscape:connector-curvature="0" />
	<path style="fill:none;stroke:red;stroke-width:1px;stroke-linecap:butt;stroke-linejoin:miter;stroke-opacity:1" d="M 231.705,780.176 231.705,760.375 z" id="boundary" inkscape:connector-curvature="0" />
	<path style="fill:none;stroke:red;stroke-width:1px;stroke-linecap:butt;stroke-linejoin:miter;stroke-opacity:1" d="M 231.705,760.375 221.804,742.555 z" id="boundary" inkscape:connector-curvature="0" />
	<path style="fill:none;stroke:red;stroke-width:1px;stroke-linecap:butt;stroke-linejoin:miter;stroke-opacity:1" d="M 221.804,742.555 221.804,718.794 z" id="boundary" inkscape:connector-curvature="0" />
	<path style="fill:none;stroke:red;stroke-width:1px;stroke-linecap:butt;stroke-linejoin:miter;stroke-opacity:1" d="M 221.804,718.794 213.884,698.994 z" id="boundary" inkscape:connector-curvature="0" />
	<path style="fill:none;stroke:red;stroke-width:1px;stroke-linecap:butt;stroke-linejoin:miter;stroke-opacity:1" d="M 213.884,698.994 202.004,718.794 z" id="boundary" inkscape:connector-curvature="0" />
	<path style="fill:none;stroke:red;stroke-width:1px;stroke-linecap:butt;stroke-linejoin:miter;stroke-opacity:1" d="M 202.004,718.794 184.184,728.695 z" id="boundary" inkscape:connector-curvature="0" />
	<path style="fill:none;stroke:red;stroke-width:1px;stroke-linecap:butt;stroke-linejoin:miter;stroke-opacity:1" d="M 184.184,728.695 170.323,744.535 z" id="boundary" inkscape:connector-curvature="0" />
	<path style="fill:none;stroke:red;stroke-width:1px;stroke-linecap:butt;stroke-linejoin:miter;stroke-opacity:1" d="M 170.323,744.535 154.483,758.395 z" id="boundary" inkscape:connector-curvature="0" />
	<path style="fill:none;stroke:red;stroke-width:1px;stroke-linecap:butt;stroke-linejoin:miter;stroke-opacity:1" d="M 154.483,758.395 144.583,778.196 z" id="boundary" inkscape:connector-curvature="0" />
	<path style="fill:none;stroke:red;stroke-width:1px;stroke-linecap:butt;stroke-linejoin:miter;stroke-opacity:1" d="M 144.583,778.196 130.723,794.036 z" id="boundary" inkscape:connector-curvature="0" />
	<path style="fill:none;stroke:red;stroke-width:1px;stroke-linecap:butt;stroke-linejoin:miter;stroke-opacity:1" d="M 130.723,794.036 110.922,797.996 z" id="boundary" inkscape:connector-curvature="0" />
	<path style="fill:none;stroke:red;stroke-width:1px;stroke-linecap:butt;stroke-linejoin:miter;stroke-opacity:1" d="M 110.922,797.996 93.1018,788.096 z" id="boundary" inkscape:connector-curvature="0" />
	<path style="fill:none;stroke:red;stroke-width:1px;stroke-linecap:butt;stroke-linejoin:miter;stroke-opacity:1" d="M 93.1018,788.096 73.3014,782.156 z" id="boundary" inkscape:connector-curvature="0" />
	<path style="fill:none;stroke:red;stroke-width:1px;stroke-linecap:butt;stroke-linejoin:miter;stroke-opacity:1" d="M 73.3014,782.156 73.3014,762.355 z" id="boundary" inkscape:connector-curvature="0" />
	<path style="fill:none;stroke:red;stroke-width:1px;stroke-linecap:butt;stroke-linejoin:miter;stroke-opacity:1" d="M 73.3014,762.355 73.3014,742.555 z" id="boundary" inkscape:connector-curvature="0" />
	<path style="fill:none;stroke:red;stroke-width:1px;stroke-linecap:butt;stroke-linejoin:miter;stroke-opacity:1" d="M 73.3014,742.555 83.2016,722.754 z" id="boundary" inkscape:connector-curvature="0" />
	<path style="fill:none;stroke:red;stroke-width:1px;stroke-linecap:butt;stroke-linejoin:miter;stroke-opacity:1" d="M 83.2016,722.754 93.1018,702.954 z" id="boundary" inkscape:connector-curvature="0" />
	<path style="fill:none;stroke:red;stroke-width:1px;stroke-linecap:butt;stroke-linejoin:miter;stroke-opacity:1" d="M 93.1018,702.954 103.002,683.154 z" id="boundary" inkscape:connector-curvature="0" />
	<path style="fill:none;stroke:red;stroke-width:1px;stroke-linecap:butt;stroke-linejoin:miter;stroke-opacity:1" d="M 103.002,683.154 118.842,667.313 z" id="boundary" inkscape:connector-curvature="0" />
	<path style="fill:none;stroke:red;stroke-width:1px;stroke-linecap:butt;stroke-linejoin:miter;stroke-opacity:1" d="M 118.842,667.313 128.743,647.513 z" id="boundary" inkscape:connector-curvature="0" />
	<path style="fill:none;stroke:red;stroke-width:1px;stroke-linecap:butt;stroke-linejoin:miter;stroke-opacity:1" d="M 128.743,647.513 138.643,627.713 z" id="boundary" inkscape:connector-curvature="0" />
	<path style="fill:none;stroke:red;stroke-width:1px;stroke-linecap:butt;stroke-linejoin:miter;stroke-opacity:1" d="M 138.643,627.713 142.603,603.952 z" id="boundary" inkscape:connector-curvature="0" />
	<path style="fill:none;stroke:red;stroke-width:1px;stroke-linecap:butt;stroke-linejoin:miter;stroke-opacity:1" d="M 142.603,603.952 158.443,588.112 z" id="boundary" inkscape:connector-curvature="0" />
	<path style="fill:none;stroke:red;stroke-width:1px;stroke-linecap:butt;stroke-linejoin:miter;stroke-opacity:1" d="M 158.443,588.112 162.403,564.351 z" id="boundary" inkscape:connector-curvature="0" />
	<path style="fill:none;stroke:red;stroke-width:1px;stroke-linecap:butt;stroke-linejoin:miter;stroke-opacity:1" d="M 162.403,564.351 172.303,534.651 z" id="boundary" inkscape:connector-curvature="0" />
	<path style="fill:none;stroke:red;stroke-width:1px;stroke-linecap:butt;stroke-linejoin:miter;stroke-opacity:1" d="M 172.303,534.651 172.303,514.85 z" id="boundary" inkscape:connector-curvature="0" />
	<path style="fill:none;stroke:red;stroke-width:1px;stroke-linecap:butt;stroke-linejoin:miter;stroke-opacity:1" d="M 172.303,514.85 172.303,495.05 z" id="boundary" inkscape:connector-curvature="0" />
	<path style="fill:none;stroke:red;stroke-width:1px;stroke-linecap:butt;stroke-linejoin:miter;stroke-opacity:1" d="M 172.303,495.05 172.303,475.25 z" id="boundary" inkscape:connector-curvature="0" />
	<path style="fill:none;stroke:red;stroke-width:1px;stroke-linecap:butt;stroke-linejoin:miter;stroke-opacity:1" d="M 172.303,475.25 172.303,455.449 z" id="boundary" inkscape:connector-curvature="0" />
	<path style="fill:none;stroke:red;stroke-width:1px;stroke-linecap:butt;stroke-linejoin:miter;stroke-opacity:1" d="M 172.303,455.449 172.303,435.649 z" id="boundary" inkscape:connector-curvature="0" />
	<path style="fill:none;stroke:red;stroke-width:1px;stroke-linecap:butt;stroke-linejoin:miter;stroke-opacity:1" d="M 172.303,435.649 182.204,415.848 z" id="boundary" inkscape:connector-curvature="0" />
	<path style="fill:none;stroke:red;stroke-width:1px;stroke-linecap:butt;stroke-linejoin:miter;stroke-opacity:1" d="M 182.204,415.848 192.104,396.048 z" id="boundary" inkscape:connector-curvature="0" />
	<path style="fill:none;stroke:red;stroke-width:1px;stroke-linecap:butt;stroke-linejoin:miter;stroke-opacity:1" d="M 192.104,396.048 202.004,372.287 z" id="boundary" inkscape:connector-curvature="0" />
	<path style="fill:none;stroke:red;stroke-width:1px;stroke-linecap:butt;stroke-linejoin:miter;stroke-opacity:1" d="M 202.004,372.287 194.084,352.487 z" id="boundary" inkscape:connector-curvature="0" />
	<path style="fill:none;stroke:red;stroke-width:1px;stroke-linecap:butt;stroke-linejoin:miter;stroke-opacity:1" d="M 194.084,352.487 178.244,380.208 z" id="boundary" inkscape:connector-curvature="0" />
	<path style="fill:none;stroke:red;stroke-width:1px;stroke-linecap:butt;stroke-linejoin:miter;stroke-opacity:1" d="M 178.244,380.208 158.443,390.108 z" id="boundary" inkscape:connector-curvature="0" />
	<path style="fill:none;stroke:red;stroke-width:1px;stroke-linecap:butt;stroke-linejoin:miter;stroke-opacity:1" d="M 158.443,390.108 142.603,405.948 z" id="boundary" inkscape:connector-curvature="0" />
	<path style="fill:none;stroke:red;stroke-width:1px;stroke-linecap:butt;stroke-linejoin:miter;stroke-opacity:1" d="M 142.603,405.948 122.802,411.888 z" id="boundary" inkscape:connector-curvature="0" />
	<path style="fill:none;stroke:red;stroke-width:1px;stroke-linecap:butt;stroke-linejoin:miter;stroke-opacity:1" d="M 122.802,411.888 103.002,403.968 z" id="boundary" inkscape:connector-curvature="0" />
	<path style="fill:none;stroke:red;stroke-width:1px;stroke-linecap:butt;stroke-linejoin:miter;stroke-opacity:1" d="M 103.002,403.968 93.1018,386.148 z" id="boundary" inkscape:connector-curvature="0" />
	<path style="fill:none;stroke:red;stroke-width:1px;stroke-linecap:butt;stroke-linejoin:miter;stroke-opacity:1" d="M 93.1018,386.148 93.1018,356.447 z" id="boundary" inkscape:connector-curvature="0" />
	<path style="fill:none;stroke:red;stroke-width:1px;stroke-linecap:butt;stroke-linejoin:miter;stroke-opacity:1" d="M 93.1018,356.447 103.002,336.647 z" id="boundary" inkscape:connector-curvature="0" />
	<path style="fill:none;stroke:red;stroke-width:1px;stroke-linecap:butt;stroke-linejoin:miter;stroke-opacity:1" d="M 103.002,336.647 112.902,306.946 z" id="boundary" inkscape:connector-curvature="0" />
	<path style="fill:none;stroke:red;stroke-width:1px;stroke-linecap:butt;stroke-linejoin:miter;stroke-opacity:1" d="M 112.902,306.946 122.802,287.146 z" id="boundary" inkscape:connector-curvature="0" />
	<path style="fill:none;stroke:red;stroke-width:1px;stroke-linecap:butt;stroke-linejoin:miter;stroke-opacity:1" d="M 122.802,287.146 132.703,267.345 z" id="boundary" inkscape:connector-curvature="0" />
	<path style="fill:none;stroke:red;stroke-width:1px;stroke-linecap:butt;stroke-linejoin:miter;stroke-opacity:1" d="M 132.703,267.345 132.703,247.545 z" id="boundary" inkscape:connector-curvature="0" />
	<path style="fill:none;stroke:red;stroke-width:1px;stroke-linecap:butt;stroke-linejoin:miter;stroke-opacity:1" d="M 132.703,247.545 142.603,219.824 z" id="boundary" inkscape:connector-curvature="0" />
	<path style="fill:none;stroke:red;stroke-width:1px;stroke-linecap:butt;stroke-linejoin:miter;stroke-opacity:1" d="M 142.603,219.824 132.703,202.004 z" id="boundary" inkscape:connector-curvature="0" />
	<path style="fill:none;stroke:red;stroke-width:1px;stroke-linecap:butt;stroke-linejoin:miter;stroke-opacity:1" d="M 132.703,202.004 122.802,184.184 z" id="boundary" inkscape:connector-curvature="0" />
	<path style="fill:none;stroke:red;stroke-width:1px;stroke-linecap:butt;stroke-linejoin:miter;stroke-opacity:1" d="M 122.802,184.184 122.802,164.383 z" id="boundary" inkscape:connector-curvature="0" />
	<path style="fill:none;stroke:red;stroke-width:1px;stroke-linecap:butt;stroke-linejoin:miter;stroke-opacity:1" d="M 122.802,164.383 103.002,164.383 z" id="boundary" inkscape:connector-curvature="0" />
	<path style="fill:none;stroke:red;stroke-width:1px;stroke-linecap:butt;stroke-linejoin:miter;stroke-opacity:1" d="M 103.002,164.383 83.2016,158.443 z" id="boundary" inkscape:connector-curvature="0" />
	<path style="fill:none;stroke:red;stroke-width:1px;stroke-linecap:butt;stroke-linejoin:miter;stroke-opacity:1" d="M 83.2016,158.443 63.4012,158.443 z" id="boundary" inkscape:connector-curvature="0" />
	<path style="fill:none;stroke:red;stroke-width:1px;stroke-linecap:butt;stroke-linejoin:miter;stroke-opacity:1" d="M 63.4012,158.443 43.6008,154.483 z" id="boundary" inkscape:connector-curvature="0" />
	<path style="fill:none;stroke:red;stroke-width:1px;stroke-linecap:butt;stroke-linejoin:miter;stroke-opacity:1" d="M 43.6008,154.483 23.8004,154.483 z" id="boundary" inkscape:connector-curvature="0" />
	<path style="fill:none;stroke:red;stroke-width:1px;stroke-linecap:butt;stroke-linejoin:miter;stroke-opacity:1" d="M 23.8004,154.483 4,148.543 z" id="boundary" inkscape:connector-curvature="0" />
	<path style="fill:none;stroke:red;stroke-width:1px;stroke-linecap:butt;stroke-linejoin:miter;stroke-opacity:1" d="M 4,148.543 19.8403,132.703 z" id="boundary" inkscape:connector-curvature="0" />
	<path style="fill:none;stroke:red;stroke-width:1px;stroke-linecap:butt;stroke-linejoin:miter;stroke-opacity:1" d="M 19.8403,132.703 39.6407,122.802 z" id="boundary" inkscape:connector-curvature="0" />
	<path style="fill:none;stroke:red;stroke-width:1px;stroke-linecap:butt;stroke-linejoin:miter;stroke-opacity:1" d="M 39.6407,122.802 59.4411,112.902 z" id="boundary" inkscape:connector-curvature="0" />
	<path style="fill:none;stroke:red;stroke-width:1px;stroke-linecap:butt;stroke-linejoin:miter;stroke-opacity:1" d="M 59.4411,112.902 79.2415,103.002 z" id="boundary" inkscape:connector-curvature="0" />
	<path style="fill:none;stroke:red;stroke-width:1px;stroke-linecap:butt;stroke-linejoin:miter;stroke-opacity:1" d="M 79.2415,103.002 99.0419,93.1018 z" id="boundary" inkscape:connector-curvature="0" />
	<path style="fill:none;stroke:red;stroke-width:1px;stroke-linecap:butt;stroke-linejoin:miter;stroke-opacity:1" d="M 99.0419,93.1018 118.842,83.2016 z" id="boundary" inkscape:connector-curvature="0" />
	<path style="fill:none;stroke:red;stroke-width:1px;stroke-linecap:butt;stroke-linejoin:miter;stroke-opacity:1" d="M 118.842,83.2016 138.643,83.2016 z" id="boundary" inkscape:connector-curvature="0" />
	<path style="fill:none;stroke:red;stroke-width:1px;stroke-linecap:butt;stroke-linejoin:miter;stroke-opacity:1" d="M 138.643,83.2016 156.463,73.3014 z" id="boundary" inkscape:connector-curvature="0" />
	<path style="fill:none;stroke:red;stroke-width:1px;stroke-linecap:butt;stroke-linejoin:miter;stroke-opacity:1" d="M 156.463,73.3014 174.283,63.4012 z" id="boundary" inkscape:connector-curvature="0" />
	<path style="fill:none;stroke:red;stroke-width:1px;stroke-linecap:butt;stroke-linejoin:miter;stroke-opacity:1" d="M 174.283,63.4012 194.084,57.4611 z" id="boundary" inkscape:connector-curvature="0" />
	<path style="fill:none;stroke:red;stroke-width:1px;stroke-linecap:butt;stroke-linejoin:miter;stroke-opacity:1" d="M 194.084,57.4611 213.884,47.5609 z" id="boundary" inkscape:connector-curvature="0" />
	<path style="fill:none;stroke:red;stroke-width:1px;stroke-linecap:butt;stroke-linejoin:miter;stroke-opacity:1" d="M 213.884,47.5609 233.685,37.6607 z" id="boundary" inkscape:connector-curvature="0" />
	<path style="fill:none;stroke:red;stroke-width:1px;stroke-linecap:butt;stroke-linejoin:miter;stroke-opacity:1" d="M 233.685,37.6607 253.485,33.7006 z" id="boundary" inkscape:connector-curvature="0" />
	<path style="fill:none;stroke:red;stroke-width:1px;stroke-linecap:butt;stroke-linejoin:miter;stroke-opacity:1" d="M 253.485,33.7006 271.305,23.8004 z" id="boundary" inkscape:connector-curvature="0" />
	<path style="fill:none;stroke:red;stroke-width:1px;stroke-linecap:butt;stroke-linejoin:miter;stroke-opacity:1" d="M 271.305,23.8004 291.106,19.8403 z" id="boundary" inkscape:connector-curvature="0" />
	<path style="fill:none;stroke:red;stroke-width:1px;stroke-linecap:butt;stroke-linejoin:miter;stroke-opacity:1" d="M 291.106,19.8403 310.906,13.9002 z" id="boundary" inkscape:connector-curvature="0" />
	<path style="fill:none;stroke:red;stroke-width:1px;stroke-linecap:butt;stroke-linejoin:miter;stroke-opacity:1" d="M 310.906,13.9002 330.707,13.9002 z" id="boundary" inkscape:connector-curvature="0" />
	<path style="fill:none;stroke:red;stroke-width:1px;stroke-linecap:butt;stroke-linejoin:miter;stroke-opacity:1" d="M 330.707,13.9002 348.527,4 z" id="boundary" inkscape:connector-curvature="0" />
	<path style="fill:none;stroke:red;stroke-width:1px;stroke-linecap:butt;stroke-linejoin:miter;stroke-opacity:1" d="M 348.527,4 368.327,4 z" id="boundary" inkscape:connector-curvature="0" />
	<path style="fill:none;stroke:red;stroke-width:1px;stroke-linecap:butt;stroke-linejoin:miter;stroke-opacity:1" d="M 368.327,4 388.128,4 z" id="boundary" inkscape:connector-curvature="0" />
	<path style="fill:none;stroke:red;stroke-width:1px;stroke-linecap:butt;stroke-linejoin:miter;stroke-opacity:1" d="M 388.128,4 407.928,4 z" id="boundary" inkscape:connector-curvature="0" />
	<path style="fill:none;stroke:red;stroke-width:1px;stroke-linecap:butt;stroke-linejoin:miter;stroke-opacity:1" d="M 407.928,4 427.729,4 z" id="boundary" inkscape:connector-curvature="0" />
	<path style="fill:none;stroke:red;stroke-width:1px;stroke-linecap:butt;stroke-linejoin:miter;stroke-opacity:1" d="M 427.729,4 447.529,4 z" id="boundary" inkscape:connector-curvature="0" />
	<path style="fill:none;stroke:red;stroke-width:1px;stroke-linecap:butt;stroke-linejoin:miter;stroke-opacity:1" d="M 447.529,4 467.329,4 z" id="boundary" inkscape:connector-curvature="0" />
	<path style="fill:none;stroke:red;stroke-width:1px;stroke-linecap:butt;stroke-linejoin:miter;stroke-opacity:1" d="M 467.329,4 487.13,5.98004 z" id="boundary" inkscape:connector-curvature="0" />
	<path style="fill:none;stroke:red;stroke-width:1px;stroke-linecap:butt;stroke-linejoin:miter;stroke-opacity:1" d="M 487.13,5.98004 506.93,13.9002 z" id="boundary" inkscape:connector-curvature="0" />
	<path style="fill:none;stroke:red;stroke-width:1px;stroke-linecap:butt;stroke-linejoin:miter;stroke-opacity:1" d="M 506.93,13.9002 526.731,15.8802 z" id="boundary" inkscape:connector-curvature="0" />
	<path style="fill:none;stroke:red;stroke-width:1px;stroke-linecap:butt;stroke-linejoin:miter;stroke-opacity:1" d="M 526.731,15.8802 546.531,23.8004 z" id="boundary" inkscape:connector-curvature="0" />
	<path style="fill:none;stroke:red;stroke-width:1px;stroke-linecap:butt;stroke-linejoin:miter;stroke-opacity:1" d="M 546.531,23.8004 564.351,33.7006 z" id="boundary" inkscape:connector-curvature="0" />
	<path style="fill:none;stroke:red;stroke-width:1px;stroke-linecap:butt;stroke-linejoin:miter;stroke-opacity:1" d="M 564.351,33.7006 584.152,33.7006 z" id="boundary" inkscape:connector-curvature="0" />
	<path style="fill:none;stroke:red;stroke-width:1px;stroke-linecap:butt;stroke-linejoin:miter;stroke-opacity:1" d="M 584.152,33.7006 601.972,43.6008 z" id="boundary" inkscape:connector-curvature="0" />
	<path style="fill:none;stroke:red;stroke-width:1px;stroke-linecap:butt;stroke-linejoin:miter;stroke-opacity:1" d="M 601.972,43.6008 619.792,53.501 z" id="boundary" inkscape:connector-curvature="0" />
	<path style="fill:none;stroke:red;stroke-width:1px;stroke-linecap:butt;stroke-linejoin:miter;stroke-opacity:1" d="M 619.792,53.501 639.593,59.4411 z" id="boundary" inkscape:connector-curvature="0" />
	<path style="fill:none;stroke:red;stroke-width:1px;stroke-linecap:butt;stroke-linejoin:miter;stroke-opacity:1" d="M 639.593,59.4411 653.453,75.2814 z" id="boundary" inkscape:connector-curvature="0" />
	<path style="fill:none;stroke:red;stroke-width:1px;stroke-linecap:butt;stroke-linejoin:miter;stroke-opacity:1" d="M 653.453,75.2814 669.293,89.1417 z" id="boundary" inkscape:connector-curvature="0" />
	<path style="fill:none;stroke:red;stroke-width:1px;stroke-linecap:butt;stroke-linejoin:miter;stroke-opacity:1" d="M 669.293,89.1417 683.154,104.982 z" id="boundary" inkscape:connector-curvature="0" />
	<path style="fill:none;stroke:red;stroke-width:1px;stroke-linecap:butt;stroke-linejoin:miter;stroke-opacity:1" d="M 683.154,104.982 693.054,122.802 z" id="boundary" inkscape:connector-curvature="0" />
	<path style="fill:none;stroke:red;stroke-width:1px;stroke-linecap:butt;stroke-linejoin:miter;stroke-opacity:1" d="M 693.054,122.802 698.994,142.603 z" id="boundary" inkscape:connector-curvature="0" />
	<path style="fill:none;stroke:red;stroke-width:1px;stroke-linecap:butt;stroke-linejoin:miter;stroke-opacity:1" d="M 698.994,142.603 714.834,154.483 z" id="boundary" inkscape:connector-curvature="0" />
	<path style="fill:none;stroke:red;stroke-width:1px;stroke-linecap:butt;stroke-linejoin:miter;stroke-opacity:1" d="M 714.834,154.483 728.695,170.323 z" id="boundary" inkscape:connector-curvature="0" />
	<path style="fill:none;stroke:red;stroke-width:1px;stroke-linecap:butt;stroke-linejoin:miter;stroke-opacity:1" d="M 728.695,170.323 744.535,184.184 z" id="boundary" inkscape:connector-curvature="0" />
	<path style="fill:none;stroke:red;stroke-width:1px;stroke-linecap:butt;stroke-linejoin:miter;stroke-opacity:1" d="M 744.535,184.184 762.355,194.084 z" id="boundary" inkscape:connector-curvature="0" />
	<path style="fill:none;stroke:red;stroke-width:1px;stroke-linecap:butt;stroke-linejoin:miter;stroke-opacity:1" d="M 762.355,194.084 778.196,207.944 z" id="boundary" inkscape:connector-curvature="0" />
	<path style="fill:none;stroke:red;stroke-width:1px;stroke-linecap:butt;stroke-linejoin:miter;stroke-opacity:1" d="M 778.196,207.944 794.036,221.804 z" id="boundary" inkscape:connector-curvature="0" />
	<path style="fill:none;stroke:red;stroke-width:1px;stroke-linecap:butt;stroke-linejoin:miter;stroke-opacity:1" d="M 794.036,221.804 811.856,231.705 z" id="boundary" inkscape:connector-curvature="0" />
	<path style="fill:none;stroke:red;stroke-width:1px;stroke-linecap:butt;stroke-linejoin:miter;stroke-opacity:1" d="M 811.856,231.705 825.717,247.545 z" id="boundary" inkscape:connector-curvature="0" />
	<path style="fill:none;stroke:red;stroke-width:1px;stroke-linecap:butt;stroke-linejoin:miter;stroke-opacity:1" d="M 825.717,247.545 841.557,261.405 z" id="boundary" inkscape:connector-curvature="0" />
	<path style="fill:none;stroke:red;stroke-width:1px;stroke-linecap:butt;stroke-linejoin:miter;stroke-opacity:1" d="M 841.557,261.405 859.377,271.305 z" id="boundary" inkscape:connector-curvature="0" />
	<path style="fill:none;stroke:red;stroke-width:1px;stroke-linecap:butt;stroke-linejoin:miter;stroke-opacity:1" d="M 859.377,271.305 875.218,285.166 z" id="boundary" inkscape:connector-curvature="0" />
	<path style="fill:none;stroke:red;stroke-width:1px;stroke-linecap:butt;stroke-linejoin:miter;stroke-opacity:1" d="M 875.218,285.166 887.098,301.006 z" id="boundary" inkscape:connector-curvature="0" />
	<path style="fill:none;stroke:red;stroke-width:1px;stroke-linecap:butt;stroke-linejoin:miter;stroke-opacity:1" d="M 887.098,301.006 906.898,306.946 z" id="boundary" inkscape:connector-curvature="0" />
	<path style="fill:none;stroke:red;stroke-width:1px;stroke-linecap:butt;stroke-linejoin:miter;stroke-opacity:1" d="M 906.898,306.946 914.818,326.747 z" id="boundary" inkscape:connector-curvature="0" />
	<circle cx="4" cy="148.543" r="4" fill="#0" id="circle0"/>
	<circle cx="19.8403" cy="132.703" r="4" fill="#0" id="circle1"/>
	<circle cx="23.8004" cy="154.483" r="4" fill="#0" id="circle2"/>
	<circle cx="39.6407" cy="122.802" r="4" fill="#0" id="circle3"/>
	<circle cx="43.6008" cy="154.483" r="4" fill="#0" id="circle4"/>
	<circle cx="59.4411" cy="112.902" r="4" fill="#0" id="circle5"/>
	<circle cx="63.4012" cy="158.443" r="4" fill="#0" id="circle6"/>
	<circle cx="73.3014" cy="742.555" r="4" fill="#0" id="circle7"/>
	<circle cx="73.3014" cy="762.355" r="4" fill="#0" id="circle8"/>
	<circle cx="73.3014" cy="782.156" r="4" fill="#0" id="circle9"/>
	<circle cx="79.2415" cy="103.002" r="4" fill="#0" id="circle10"/>
	<circle cx="83.2016" cy="158.443" r="4" fill="#0" id="circle11"/>
	<circle cx="83.2016" cy="722.754" r="4" fill="#0" id="circle12"/>
	<circle cx="93.1018" cy="356.447" r="4" fill="#0" id="circle13"/>
	<circle cx="93.1018" cy="386.148" r="4" fill="#0" id="circle14"/>
	<circle cx="93.1018" cy="702.954" r="4" fill="#0" id="circle15"/>
	<circle cx="93.1018" cy="788.096" r="4" fill="#0" id="circle16"/>
	<circle cx="99.0419" cy="93.1018" r="4" fill="#0" id="circle17"/>
	<circle cx="103.002" cy="164.383" r="4" fill="#0" id="circle18"/>
	<circle cx="103.002" cy="336.647" r="4" fill="#0" id="circle19"/>
	<circle cx="103.002" cy="403.968" r="4" fill="#0" id="circle20"/>
	<circle cx="103.002" cy="683.154" r="4" fill="#0" id="circle21"/>
	<circle cx="110.922" cy="797.996" r="4" fill="#0" id="circle22"/>
	<circle cx="112.902" cy="306.946" r="4" fill="#0" id="circle23"/>
	<circle cx="118.842" cy="83.2016" r="4" fill="#0" id="circle24"/>
	<circle cx="118.842" cy="667.313" r="4" fill="#0" id="circle25"/>
	<circle cx="122.802" cy="164.383" r="4" fill="#0" id="circle26"/>
	<circle cx="122.802" cy="184.184" r="4" fill="#0" id="circle27"/>
	<circle cx="122.802" cy="287.146" r="4" fill="#0" id="circle28"/>
	<circle cx="122.802" cy="411.888" r="4" fill="#0" id="circle29"/>
	<circle cx="128.743" cy="647.513" r="4" fill="#0" id="circle30"/>
	<circle cx="130.723" cy="794.036" r="4" fill="#0" id="circle31"/>
	<circle cx="132.703" cy="202.004" r="4" fill="#0" id="circle32"/>
	<circle cx="132.703" cy="247.545" r="4" fill="#0" id="circle33"/>
	<circle cx="132.703" cy="267.345" r="4" fill="#0" id="circle34"/>
	<circle cx="138.643" cy="83.2016" r="4" fill="#0" id="circle35"/>
	<circle cx="138.643" cy="627.713" r="4" fill="#0" id="circle36"/>
	<circle cx="142.603" cy="219.824" r="4" fill="#0" id="circle37"/>
	<circle cx="142.603" cy="405.948" r="4" fill="#0" id="circle38"/>
	<circle cx="142.603" cy="603.952" r="4" fill="#0" id="circle39"/>
	<circle cx="144.583" cy="778.196" r="4" fill="#0" id="circle40"/>
	<circle cx="154.483" cy="758.395" r="4" fill="#0" id="circle41"/>
	<circle cx="156.463" cy="73.3014" r="4" fill="#0" id="circle42"/>
	<circle cx="158.443" cy="390.108" r="4" fill="#0" id="circle43"/>
	<circle cx="158.443" cy="588.112" r="4" fill="#0" id="circle44"/>
	<circle cx="162.403" cy="564.351" r="4" fill="#0" id="circle45"/>
	<circle cx="170.323" cy="744.535" r="4" fill="#0" id="circle46"/>
	<circle cx="172.303" cy="435.649" r="4" fill="#0" id="circle47"/>
	<circle cx="172.303" cy="455.449" r="4" fill="#0" id="circle48"/>
	<circle cx="172.303" cy="475.25" r="4" fill="#0" id="circle49"/>
	<circle cx="172.303" cy="495.05" r="4" fill="#0" id="circle50"/>
	<circle cx="172.303" cy="514.85" r="4" fill="#0" id="circle51"/>
	<circle cx="172.303" cy="534.651" r="4" fill="#0" id="circle52"/>
	<circle cx="174.283" cy="63.4012" r="4" fill="#0" id="circle53"/>
	<circle cx="178.244" cy="380.208" r="4" fill="#0" id="circle54"/>
	<circle cx="182.204" cy="415.848" r="4" fill="#0" id="circle55"/>
	<circle cx="184.184" cy="728.695" r="4" fill="#0" id="circle56"/>
	<circle cx="192.104" cy="396.048" r="4" fill="#0" id="circle57"/>
	<circle cx="194.084" cy="57.4611" r="4" fill="#0" id="circle58"/>
	<circle cx="194.084" cy="352.487" r="4" fill="#0" id="circle59"/>
	<circle cx="202.004" cy="372.287" r="4" fill="#0" id="circle60"/>
	<circle cx="202.004" cy="718.794" r="4" fill="#0" id="circle61"/>
	<circle cx="213.884" cy="47.5609" r="4" fill="#0" id="circle62"/>
	<circle cx="213.884" cy="698.994" r="4" fill="#0" id="circle63"/>
	<circle cx="221.804" cy="718.794" r="4" fill="#0" id="circle64"/>
	<circle cx="221.804" cy="742.555" r="4" fill="#0" id="circle65"/>
	<circle cx="231.705" cy="760.375" r="4" fill="#0" id="circle66"/>
	<circle cx="231.705" cy="780.176" r="4" fill="#0" id="circle67"/>
	<circle cx="231.705" cy="799.976" r="4" fill="#0" id="circle68"/>
	<circle cx="231.705" cy="821.756" r="4" fill="#0" id="circle69"/>
	<circle cx="233.685" cy="37.6607" r="4" fill="#0" id="circle70"/>
	<circle cx="241.605" cy="839.577" r="4" fill="#0" id="circle71"/>
	<circle cx="241.605" cy="871.257" r="4" fill="#0" id="circle72"/>
	<circle cx="251.505" cy="889.078" r="4" fill="#0" id="circle73"/>
	<circle cx="253.485" cy="33.7006" r="4" fill="#0" id="circle74"/>
	<circle cx="261.405" cy="906.898" r="4" fill="#0" id="circle75"/>
	<circle cx="267.345" cy="926.699" r="4" fill="#0" id="circle76"/>
	<circle cx="271.305" cy="23.8004" r="4" fill="#0" id="circle77"/>
	<circle cx="283.186" cy="940.559" r="4" fill="#0" id="circle78"/>
	<circle cx="291.106" cy="19.8403" r="4" fill="#0" id="circle79"/>
	<circle cx="297.046" cy="956.399" r="4" fill="#0" id="circle80"/>
	<circle cx="310.906" cy="13.9002" r="4" fill="#0" id="circle81"/>
	<circle cx="314.866" cy="966.299" r="4" fill="#0" id="circle82"/>
	<circle cx="330.707" cy="13.9002" r="4" fill="#0" id="circle83"/>
	<circle cx="332.687" cy="976.2" r="4" fill="#0" id="circle84"/>
	<circle cx="348.527" cy="4" r="4" fill="#0" id="circle85"/>
	<circle cx="350.507" cy="986.1" r="4" fill="#0" id="circle86"/>
	<circle cx="368.327" cy="4" r="4" fill="#0" id="circle87"/>
	<circle cx="370.307" cy="986.1" r="4" fill="#0" id="circle88"/>
	<circle cx="388.128" cy="4" r="4" fill="#0" id="circle89"/>
	<circle cx="390.108" cy="986.1" r="4" fill="#0" id="circle90"/>
	<circle cx="407.928" cy="4" r="4" fill="#0" id="circle91"/>
	<circle cx="407.928" cy="996" r="4" fill="#0" id="circle92"/>
	<circle cx="427.729" cy="4" r="4" fill="#0" id="circle93"/>
	<circle cx="427.729" cy="992.04" r="4" fill="#0" id="circle94"/>
	<circle cx="447.529" cy="4" r="4" fill="#0" id="circle95"/>
	<circle cx="447.529" cy="992.04" r="4" fill="#0" id="circle96"/>
	<circle cx="467.329" cy="4" r="4" fill="#0" id="circle97"/>
	<circle cx="467.329" cy="986.1" r="4" fill="#0" id="circle98"/>
	<circle cx="485.15" cy="976.2" r="4" fill="#0" id="circle99"/>
	<circle cx="487.13" cy="5.98004" r="4" fill="#0" id="circle100"/>
	<circle cx="502.97" cy="966.299" r="4" fill="#0" id="circle101"/>
	<circle cx="506.93" cy="13.9002" r="4" fill="#0" id="circle102"/>
	<circle cx="520.79" cy="956.399" r="4" fill="#0" id="circle103"/>
	<circle cx="526.731" cy="15.8802" r="4" fill="#0" id="circle104"/>
	<circle cx="538.611" cy="946.499" r="4" fill="#0" id="circle105"/>
	<circle cx="546.531" cy="23.8004" r="4" fill="#0" id="circle106"/>
	<circle cx="550.491" cy="926.699" r="4" fill="#0" id="circle107"/>
	<circle cx="560.391" cy="896.998" r="4" fill="#0" id="circle108"/>
	<circle cx="564.351" cy="33.7006" r="4" fill="#0" id="circle109"/>
	<circle cx="570.291" cy="857.397" r="4" fill="#0" id="circle110"/>
	<circle cx="570.291" cy="877.198" r="4" fill="#0" id="circle111"/>
	<circle cx="580.192" cy="788.096" r="4" fill="#0" id="circle112"/>
	<circle cx="580.192" cy="807.896" r="4" fill="#0" id="circle113"/>
	<circle cx="580.192" cy="827.697" r="4" fill="#0" id="circle114"/>
	<circle cx="584.152" cy="33.7006" r="4" fill="#0" id="circle115"/>
	<circle cx="590.092" cy="312.886" r="4" fill="#0" id="circle116"/>
	<circle cx="590.092" cy="718.794" r="4" fill="#0" id="circle117"/>
	<circle cx="590.092" cy="738.595" r="4" fill="#0" id="circle118"/>
	<circle cx="590.092" cy="758.395" r="4" fill="#0" id="circle119"/>
	<circle cx="594.052" cy="332.687" r="4" fill="#0" id="circle120"/>
	<circle cx="599.992" cy="669.293" r="4" fill="#0" id="circle121"/>
	<circle cx="599.992" cy="689.094" r="4" fill="#0" id="circle122"/>
	<circle cx="601.972" cy="43.6008" r="4" fill="#0" id="circle123"/>
	<circle cx="607.912" cy="302.986" r="4" fill="#0" id="circle124"/>
	<circle cx="609.892" cy="346.547" r="4" fill="#0" id="circle125"/>
	<circle cx="609.892" cy="649.493" r="4" fill="#0" id="circle126"/>
	<circle cx="617.812" cy="366.347" r="4" fill="#0" id="circle127"/>
	<circle cx="619.792" cy="53.501" r="4" fill="#0" id="circle128"/>
	<circle cx="619.792" cy="629.693" r="4" fill="#0" id="circle129"/>
	<circle cx="625.733" cy="293.086" r="4" fill="#0" id="circle130"/>
	<circle cx="629.693" cy="382.188" r="4" fill="#0" id="circle131"/>
	<circle cx="629.693" cy="599.992" r="4" fill="#0" id="circle132"/>
	<circle cx="633.653" cy="401.988" r="4" fill="#0" id="circle133"/>
	<circle cx="639.593" cy="59.4411" r="4" fill="#0" id="circle134"/>
	<circle cx="639.593" cy="273.285" r="4" fill="#0" id="circle135"/>
	<circle cx="639.593" cy="421.788" r="4" fill="#0" id="circle136"/>
	<circle cx="639.593" cy="550.491" r="4" fill="#0" id="circle137"/>
	<circle cx="639.593" cy="570.291" r="4" fill="#0" id="circle138"/>
	<circle cx="643.553" cy="441.589" r="4" fill="#0" id="circle139"/>
	<circle cx="649.493" cy="461.389" r="4" fill="#0" id="circle140"/>
	<circle cx="649.493" cy="481.19" r="4" fill="#0" id="circle141"/>
	<circle cx="649.493" cy="500.99" r="4" fill="#0" id="circle142"/>
	<circle cx="649.493" cy="520.79" r="4" fill="#0" id="circle143"/>
	<circle cx="653.453" cy="75.2814" r="4" fill="#0" id="circle144"/>
	<circle cx="659.393" cy="273.285" r="4" fill="#0" id="circle145"/>
	<circle cx="669.293" cy="89.1417" r="4" fill="#0" id="circle146"/>
	<circle cx="679.194" cy="277.246" r="4" fill="#0" id="circle147"/>
	<circle cx="683.154" cy="104.982" r="4" fill="#0" id="circle148"/>
	<circle cx="693.054" cy="122.802" r="4" fill="#0" id="circle149"/>
	<circle cx="698.994" cy="142.603" r="4" fill="#0" id="circle150"/>
	<circle cx="698.994" cy="277.246" r="4" fill="#0" id="circle151"/>
	<circle cx="714.834" cy="154.483" r="4" fill="#0" id="circle152"/>
	<circle cx="718.794" cy="277.246" r="4" fill="#0" id="circle153"/>
	<circle cx="728.695" cy="170.323" r="4" fill="#0" id="circle154"/>
	<circle cx="736.615" cy="287.146" r="4" fill="#0" id="circle155"/>
	<circle cx="744.535" cy="184.184" r="4" fill="#0" id="circle156"/>
	<circle cx="756.415" cy="283.186" r="4" fill="#0" id="circle157"/>
	<circle cx="762.355" cy="194.084" r="4" fill="#0" id="circle158"/>
	<circle cx="774.236" cy="293.086" r="4" fill="#0" id="circle159"/>
	<circle cx="778.196" cy="207.944" r="4" fill="#0" id="circle160"/>
	<circle cx="794.036" cy="221.804" r="4" fill="#0" id="circle161"/>
	<circle cx="794.036" cy="293.086" r="4" fill="#0" id="circle162"/>
	<circle cx="811.856" cy="231.705" r="4" fill="#0" id="circle163"/>
	<circle cx="811.856" cy="302.986" r="4" fill="#0" id="circle164"/>
	<circle cx="825.717" cy="247.545" r="4" fill="#0" id="circle165"/>
	<circle cx="831.657" cy="302.986" r="4" fill="#0" id="circle166"/>
	<circle cx="841.557" cy="261.405" r="4" fill="#0" id="circle167"/>
	<circle cx="849.477" cy="312.886" r="4" fill="#0" id="circle168"/>
	<circle cx="859.377" cy="271.305" r="4" fill="#0" id="circle169"/>
	<circle cx="869.277" cy="312.886" r="4" fill="#0" id="circle170"/>
	<circle cx="875.218" cy="285.166" r="4" fill="#0" id="circle171"/>
	<circle cx="887.098" cy="301.006" r="4" fill="#0" id="circle172"/>
	<circle cx="887.098" cy="322.786" r="4" fill="#0" id="circle173"/>
	<circle cx="906.898" cy="306.946" r="4" fill="#0" id="circle174"/>
	<circle cx="914.818" cy="326.747" r="4" fill="#0" id="circle175"/>
	</g>
</svg>