<?xml version="1.0" encoding="UTF-8" standalone="no"?>
<!-- Created with CurveBenchmark -->
<svg
	xmlns:dc="http://purl.org/dc/elements/1.1/"
	xmlns:cc="http://creativecommons.org/ns#"
	xmlns:rdf="http://www.w3.org/1999/02/22-rdf-syntax-ns#"
	xmlns:svg="http://www.w3.org/2000/svg"
	xmlns="http://www.w3.org/2000/svg"
	xmlns:sodipodi="http://sodipodi.sourceforge.net/DTD/sodipodi-0.dtd"
	xmlns:inkscape="http://www.inkscape.org/namespaces/inkscape"
	width="1000"
	height="1000"
	id="svg2"
	version="1.1"
	sodipodi:docname="manifold/connect2d-textbox46.png.txt">
<defs
	id="defs4" />
<metadata
	id="metadata7">
	<rdf:RDF>
		<cc:Work
			rdf:about="">
			<dc:format>image/svg+xml</dc:format>
			<dc:type
				rdf:resource="http://purl.org/dc/dcmitype/StillImage" />
			<dc:title></dc:title>
		</cc:Work>
	</rdf:RDF>
</metadata>
<g
	inkscape:label="Layer 1"
	inkscape:groupmode="layer"
	id="layer1">
	<path style="fill:none;stroke:red;stroke-width:1px;stroke-linecap:butt;stroke-linejoin:miter;stroke-opacity:1" d="M 979.603,442.612 969.355,477.455 z" id="boundary" inkscape:connector-curvature="0" />
	<path style="fill:none;stroke:red;stroke-width:1px;stroke-linecap:butt;stroke-linejoin:miter;stroke-opacity:1" d="M 969.355,477.455 969.355,497.95 z" id="boundary" inkscape:connector-curvature="0" />
	<path style="fill:none;stroke:red;stroke-width:1px;stroke-linecap:butt;stroke-linejoin:miter;stroke-opacity:1" d="M 969.355,497.95 957.058,518.446 z" id="boundary" inkscape:connector-curvature="0" />
	<path style="fill:none;stroke:red;stroke-width:1px;stroke-linecap:butt;stroke-linejoin:miter;stroke-opacity:1" d="M 957.058,518.446 938.612,528.694 z" id="boundary" inkscape:connector-curvature="0" />
	<path style="fill:none;stroke:red;stroke-width:1px;stroke-linecap:butt;stroke-linejoin:miter;stroke-opacity:1" d="M 938.612,528.694 918.116,538.942 z" id="boundary" inkscape:connector-curvature="0" />
	<path style="fill:none;stroke:red;stroke-width:1px;stroke-linecap:butt;stroke-linejoin:miter;stroke-opacity:1" d="M 918.116,538.942 897.62,538.942 z" id="boundary" inkscape:connector-curvature="0" />
	<path style="fill:none;stroke:red;stroke-width:1px;stroke-linecap:butt;stroke-linejoin:miter;stroke-opacity:1" d="M 897.62,538.942 877.124,549.19 z" id="boundary" inkscape:connector-curvature="0" />
	<path style="fill:none;stroke:red;stroke-width:1px;stroke-linecap:butt;stroke-linejoin:miter;stroke-opacity:1" d="M 877.124,549.19 864.826,569.686 z" id="boundary" inkscape:connector-curvature="0" />
	<path style="fill:none;stroke:red;stroke-width:1px;stroke-linecap:butt;stroke-linejoin:miter;stroke-opacity:1" d="M 864.826,569.686 846.38,579.934 z" id="boundary" inkscape:connector-curvature="0" />
	<path style="fill:none;stroke:red;stroke-width:1px;stroke-linecap:butt;stroke-linejoin:miter;stroke-opacity:1" d="M 846.38,579.934 825.884,579.934 z" id="boundary" inkscape:connector-curvature="0" />
	<path style="fill:none;stroke:red;stroke-width:1px;stroke-linecap:butt;stroke-linejoin:miter;stroke-opacity:1" d="M 825.884,579.934 825.884,600.43 z" id="boundary" inkscape:connector-curvature="0" />
	<path style="fill:none;stroke:red;stroke-width:1px;stroke-linecap:butt;stroke-linejoin:miter;stroke-opacity:1" d="M 825.884,600.43 825.884,620.926 z" id="boundary" inkscape:connector-curvature="0" />
	<path style="fill:none;stroke:red;stroke-width:1px;stroke-linecap:butt;stroke-linejoin:miter;stroke-opacity:1" d="M 825.884,620.926 825.884,641.421 z" id="boundary" inkscape:connector-curvature="0" />
	<path style="fill:none;stroke:red;stroke-width:1px;stroke-linecap:butt;stroke-linejoin:miter;stroke-opacity:1" d="M 825.884,641.421 825.884,661.917 z" id="boundary" inkscape:connector-curvature="0" />
	<path style="fill:none;stroke:red;stroke-width:1px;stroke-linecap:butt;stroke-linejoin:miter;stroke-opacity:1" d="M 825.884,661.917 825.884,682.413 z" id="boundary" inkscape:connector-curvature="0" />
	<path style="fill:none;stroke:red;stroke-width:1px;stroke-linecap:butt;stroke-linejoin:miter;stroke-opacity:1" d="M 825.884,682.413 825.884,702.909 z" id="boundary" inkscape:connector-curvature="0" />
	<path style="fill:none;stroke:red;stroke-width:1px;stroke-linecap:butt;stroke-linejoin:miter;stroke-opacity:1" d="M 825.884,702.909 825.884,723.405 z" id="boundary" inkscape:connector-curvature="0" />
	<path style="fill:none;stroke:red;stroke-width:1px;stroke-linecap:butt;stroke-linejoin:miter;stroke-opacity:1" d="M 825.884,723.405 825.884,743.901 z" id="boundary" inkscape:connector-curvature="0" />
	<path style="fill:none;stroke:red;stroke-width:1px;stroke-linecap:butt;stroke-linejoin:miter;stroke-opacity:1" d="M 825.884,743.901 829.983,764.397 z" id="boundary" inkscape:connector-curvature="0" />
	<path style="fill:none;stroke:red;stroke-width:1px;stroke-linecap:butt;stroke-linejoin:miter;stroke-opacity:1" d="M 829.983,764.397 836.132,784.893 z" id="boundary" inkscape:connector-curvature="0" />
	<path style="fill:none;stroke:red;stroke-width:1px;stroke-linecap:butt;stroke-linejoin:miter;stroke-opacity:1" d="M 836.132,784.893 846.38,803.339 z" id="boundary" inkscape:connector-curvature="0" />
	<path style="fill:none;stroke:red;stroke-width:1px;stroke-linecap:butt;stroke-linejoin:miter;stroke-opacity:1" d="M 846.38,803.339 846.38,823.835 z" id="boundary" inkscape:connector-curvature="0" />
	<path style="fill:none;stroke:red;stroke-width:1px;stroke-linecap:butt;stroke-linejoin:miter;stroke-opacity:1" d="M 846.38,823.835 846.38,844.331 z" id="boundary" inkscape:connector-curvature="0" />
	<path style="fill:none;stroke:red;stroke-width:1px;stroke-linecap:butt;stroke-linejoin:miter;stroke-opacity:1" d="M 846.38,844.331 846.38,864.826 z" id="boundary" inkscape:connector-curvature="0" />
	<path style="fill:none;stroke:red;stroke-width:1px;stroke-linecap:butt;stroke-linejoin:miter;stroke-opacity:1" d="M 846.38,864.826 846.38,885.322 z" id="boundary" inkscape:connector-curvature="0" />
	<path style="fill:none;stroke:red;stroke-width:1px;stroke-linecap:butt;stroke-linejoin:miter;stroke-opacity:1" d="M 846.38,885.322 846.38,905.818 z" id="boundary" inkscape:connector-curvature="0" />
	<path style="fill:none;stroke:red;stroke-width:1px;stroke-linecap:butt;stroke-linejoin:miter;stroke-opacity:1" d="M 846.38,905.818 846.38,926.314 z" id="boundary" inkscape:connector-curvature="0" />
	<path style="fill:none;stroke:red;stroke-width:1px;stroke-linecap:butt;stroke-linejoin:miter;stroke-opacity:1" d="M 846.38,926.314 846.38,946.81 z" id="boundary" inkscape:connector-curvature="0" />
	<path style="fill:none;stroke:red;stroke-width:1px;stroke-linecap:butt;stroke-linejoin:miter;stroke-opacity:1" d="M 846.38,946.81 846.38,967.306 z" id="boundary" inkscape:connector-curvature="0" />
	<path style="fill:none;stroke:red;stroke-width:1px;stroke-linecap:butt;stroke-linejoin:miter;stroke-opacity:1" d="M 846.38,967.306 836.132,996 z" id="boundary" inkscape:connector-curvature="0" />
	<path style="fill:none;stroke:red;stroke-width:1px;stroke-linecap:butt;stroke-linejoin:miter;stroke-opacity:1" d="M 836.132,996 823.835,979.603 z" id="boundary" inkscape:connector-curvature="0" />
	<path style="fill:none;stroke:red;stroke-width:1px;stroke-linecap:butt;stroke-linejoin:miter;stroke-opacity:1" d="M 823.835,979.603 803.339,971.405 z" id="boundary" inkscape:connector-curvature="0" />
	<path style="fill:none;stroke:red;stroke-width:1px;stroke-linecap:butt;stroke-linejoin:miter;stroke-opacity:1" d="M 803.339,971.405 803.339,950.909 z" id="boundary" inkscape:connector-curvature="0" />
	<path style="fill:none;stroke:red;stroke-width:1px;stroke-linecap:butt;stroke-linejoin:miter;stroke-opacity:1" d="M 803.339,950.909 793.091,932.463 z" id="boundary" inkscape:connector-curvature="0" />
	<path style="fill:none;stroke:red;stroke-width:1px;stroke-linecap:butt;stroke-linejoin:miter;stroke-opacity:1" d="M 793.091,932.463 793.091,911.967 z" id="boundary" inkscape:connector-curvature="0" />
	<path style="fill:none;stroke:red;stroke-width:1px;stroke-linecap:butt;stroke-linejoin:miter;stroke-opacity:1" d="M 793.091,911.967 774.645,901.719 z" id="boundary" inkscape:connector-curvature="0" />
	<path style="fill:none;stroke:red;stroke-width:1px;stroke-linecap:butt;stroke-linejoin:miter;stroke-opacity:1" d="M 774.645,901.719 754.149,893.521 z" id="boundary" inkscape:connector-curvature="0" />
	<path style="fill:none;stroke:red;stroke-width:1px;stroke-linecap:butt;stroke-linejoin:miter;stroke-opacity:1" d="M 754.149,893.521 741.851,877.124 z" id="boundary" inkscape:connector-curvature="0" />
	<path style="fill:none;stroke:red;stroke-width:1px;stroke-linecap:butt;stroke-linejoin:miter;stroke-opacity:1" d="M 741.851,877.124 737.752,856.628 z" id="boundary" inkscape:connector-curvature="0" />
	<path style="fill:none;stroke:red;stroke-width:1px;stroke-linecap:butt;stroke-linejoin:miter;stroke-opacity:1" d="M 737.752,856.628 731.603,836.132 z" id="boundary" inkscape:connector-curvature="0" />
	<path style="fill:none;stroke:red;stroke-width:1px;stroke-linecap:butt;stroke-linejoin:miter;stroke-opacity:1" d="M 731.603,836.132 731.603,815.636 z" id="boundary" inkscape:connector-curvature="0" />
	<path style="fill:none;stroke:red;stroke-width:1px;stroke-linecap:butt;stroke-linejoin:miter;stroke-opacity:1" d="M 731.603,815.636 711.107,809.488 z" id="boundary" inkscape:connector-curvature="0" />
	<path style="fill:none;stroke:red;stroke-width:1px;stroke-linecap:butt;stroke-linejoin:miter;stroke-opacity:1" d="M 711.107,809.488 702.909,788.992 z" id="boundary" inkscape:connector-curvature="0" />
	<path style="fill:none;stroke:red;stroke-width:1px;stroke-linecap:butt;stroke-linejoin:miter;stroke-opacity:1" d="M 702.909,788.992 692.661,770.545 z" id="boundary" inkscape:connector-curvature="0" />
	<path style="fill:none;stroke:red;stroke-width:1px;stroke-linecap:butt;stroke-linejoin:miter;stroke-opacity:1" d="M 692.661,770.545 680.364,754.149 z" id="boundary" inkscape:connector-curvature="0" />
	<path style="fill:none;stroke:red;stroke-width:1px;stroke-linecap:butt;stroke-linejoin:miter;stroke-opacity:1" d="M 680.364,754.149 659.868,748 z" id="boundary" inkscape:connector-curvature="0" />
	<path style="fill:none;stroke:red;stroke-width:1px;stroke-linecap:butt;stroke-linejoin:miter;stroke-opacity:1" d="M 659.868,748 659.868,727.504 z" id="boundary" inkscape:connector-curvature="0" />
	<path style="fill:none;stroke:red;stroke-width:1px;stroke-linecap:butt;stroke-linejoin:miter;stroke-opacity:1" d="M 659.868,727.504 649.62,709.058 z" id="boundary" inkscape:connector-curvature="0" />
	<path style="fill:none;stroke:red;stroke-width:1px;stroke-linecap:butt;stroke-linejoin:miter;stroke-opacity:1" d="M 649.62,709.058 649.62,688.562 z" id="boundary" inkscape:connector-curvature="0" />
	<path style="fill:none;stroke:red;stroke-width:1px;stroke-linecap:butt;stroke-linejoin:miter;stroke-opacity:1" d="M 649.62,688.562 635.273,672.165 z" id="boundary" inkscape:connector-curvature="0" />
	<path style="fill:none;stroke:red;stroke-width:1px;stroke-linecap:butt;stroke-linejoin:miter;stroke-opacity:1" d="M 635.273,672.165 618.876,659.868 z" id="boundary" inkscape:connector-curvature="0" />
	<path style="fill:none;stroke:red;stroke-width:1px;stroke-linecap:butt;stroke-linejoin:miter;stroke-opacity:1" d="M 618.876,659.868 614.777,639.372 z" id="boundary" inkscape:connector-curvature="0" />
	<path style="fill:none;stroke:red;stroke-width:1px;stroke-linecap:butt;stroke-linejoin:miter;stroke-opacity:1" d="M 614.777,639.372 604.529,620.926 z" id="boundary" inkscape:connector-curvature="0" />
	<path style="fill:none;stroke:red;stroke-width:1px;stroke-linecap:butt;stroke-linejoin:miter;stroke-opacity:1" d="M 604.529,620.926 598.38,600.43 z" id="boundary" inkscape:connector-curvature="0" />
	<path style="fill:none;stroke:red;stroke-width:1px;stroke-linecap:butt;stroke-linejoin:miter;stroke-opacity:1" d="M 598.38,600.43 594.281,579.934 z" id="boundary" inkscape:connector-curvature="0" />
	<path style="fill:none;stroke:red;stroke-width:1px;stroke-linecap:butt;stroke-linejoin:miter;stroke-opacity:1" d="M 594.281,579.934 573.785,579.934 z" id="boundary" inkscape:connector-curvature="0" />
	<path style="fill:none;stroke:red;stroke-width:1px;stroke-linecap:butt;stroke-linejoin:miter;stroke-opacity:1" d="M 573.785,579.934 553.289,579.934 z" id="boundary" inkscape:connector-curvature="0" />
	<path style="fill:none;stroke:red;stroke-width:1px;stroke-linecap:butt;stroke-linejoin:miter;stroke-opacity:1" d="M 553.289,579.934 532.793,579.934 z" id="boundary" inkscape:connector-curvature="0" />
	<path style="fill:none;stroke:red;stroke-width:1px;stroke-linecap:butt;stroke-linejoin:miter;stroke-opacity:1" d="M 532.793,579.934 512.298,579.934 z" id="boundary" inkscape:connector-curvature="0" />
	<path style="fill:none;stroke:red;stroke-width:1px;stroke-linecap:butt;stroke-linejoin:miter;stroke-opacity:1" d="M 512.298,579.934 491.802,579.934 z" id="boundary" inkscape:connector-curvature="0" />
	<path style="fill:none;stroke:red;stroke-width:1px;stroke-linecap:butt;stroke-linejoin:miter;stroke-opacity:1" d="M 491.802,579.934 471.306,579.934 z" id="boundary" inkscape:connector-curvature="0" />
	<path style="fill:none;stroke:red;stroke-width:1px;stroke-linecap:butt;stroke-linejoin:miter;stroke-opacity:1" d="M 471.306,579.934 452.86,590.182 z" id="boundary" inkscape:connector-curvature="0" />
	<path style="fill:none;stroke:red;stroke-width:1px;stroke-linecap:butt;stroke-linejoin:miter;stroke-opacity:1" d="M 452.86,590.182 432.364,590.182 z" id="boundary" inkscape:connector-curvature="0" />
	<path style="fill:none;stroke:red;stroke-width:1px;stroke-linecap:butt;stroke-linejoin:miter;stroke-opacity:1" d="M 432.364,590.182 411.868,590.182 z" id="boundary" inkscape:connector-curvature="0" />
	<path style="fill:none;stroke:red;stroke-width:1px;stroke-linecap:butt;stroke-linejoin:miter;stroke-opacity:1" d="M 411.868,590.182 391.372,590.182 z" id="boundary" inkscape:connector-curvature="0" />
	<path style="fill:none;stroke:red;stroke-width:1px;stroke-linecap:butt;stroke-linejoin:miter;stroke-opacity:1" d="M 391.372,590.182 370.876,590.182 z" id="boundary" inkscape:connector-curvature="0" />
	<path style="fill:none;stroke:red;stroke-width:1px;stroke-linecap:butt;stroke-linejoin:miter;stroke-opacity:1" d="M 370.876,590.182 350.38,590.182 z" id="boundary" inkscape:connector-curvature="0" />
	<path style="fill:none;stroke:red;stroke-width:1px;stroke-linecap:butt;stroke-linejoin:miter;stroke-opacity:1" d="M 350.38,590.182 329.884,590.182 z" id="boundary" inkscape:connector-curvature="0" />
	<path style="fill:none;stroke:red;stroke-width:1px;stroke-linecap:butt;stroke-linejoin:miter;stroke-opacity:1" d="M 329.884,590.182 309.388,590.182 z" id="boundary" inkscape:connector-curvature="0" />
	<path style="fill:none;stroke:red;stroke-width:1px;stroke-linecap:butt;stroke-linejoin:miter;stroke-opacity:1" d="M 309.388,590.182 288.893,590.182 z" id="boundary" inkscape:connector-curvature="0" />
	<path style="fill:none;stroke:red;stroke-width:1px;stroke-linecap:butt;stroke-linejoin:miter;stroke-opacity:1" d="M 288.893,590.182 268.397,590.182 z" id="boundary" inkscape:connector-curvature="0" />
	<path style="fill:none;stroke:red;stroke-width:1px;stroke-linecap:butt;stroke-linejoin:miter;stroke-opacity:1" d="M 268.397,590.182 247.901,590.182 z" id="boundary" inkscape:connector-curvature="0" />
	<path style="fill:none;stroke:red;stroke-width:1px;stroke-linecap:butt;stroke-linejoin:miter;stroke-opacity:1" d="M 247.901,590.182 227.405,590.182 z" id="boundary" inkscape:connector-curvature="0" />
	<path style="fill:none;stroke:red;stroke-width:1px;stroke-linecap:butt;stroke-linejoin:miter;stroke-opacity:1" d="M 227.405,590.182 206.909,590.182 z" id="boundary" inkscape:connector-curvature="0" />
	<path style="fill:none;stroke:red;stroke-width:1px;stroke-linecap:butt;stroke-linejoin:miter;stroke-opacity:1" d="M 206.909,590.182 186.413,590.182 z" id="boundary" inkscape:connector-curvature="0" />
	<path style="fill:none;stroke:red;stroke-width:1px;stroke-linecap:butt;stroke-linejoin:miter;stroke-opacity:1" d="M 186.413,590.182 165.917,590.182 z" id="boundary" inkscape:connector-curvature="0" />
	<path style="fill:none;stroke:red;stroke-width:1px;stroke-linecap:butt;stroke-linejoin:miter;stroke-opacity:1" d="M 165.917,590.182 145.421,590.182 z" id="boundary" inkscape:connector-curvature="0" />
	<path style="fill:none;stroke:red;stroke-width:1px;stroke-linecap:butt;stroke-linejoin:miter;stroke-opacity:1" d="M 145.421,590.182 124.926,590.182 z" id="boundary" inkscape:connector-curvature="0" />
	<path style="fill:none;stroke:red;stroke-width:1px;stroke-linecap:butt;stroke-linejoin:miter;stroke-opacity:1" d="M 124.926,590.182 106.479,579.934 z" id="boundary" inkscape:connector-curvature="0" />
	<path style="fill:none;stroke:red;stroke-width:1px;stroke-linecap:butt;stroke-linejoin:miter;stroke-opacity:1" d="M 106.479,579.934 85.9835,579.934 z" id="boundary" inkscape:connector-curvature="0" />
	<path style="fill:none;stroke:red;stroke-width:1px;stroke-linecap:butt;stroke-linejoin:miter;stroke-opacity:1" d="M 85.9835,579.934 65.4876,573.785 z" id="boundary" inkscape:connector-curvature="0" />
	<path style="fill:none;stroke:red;stroke-width:1px;stroke-linecap:butt;stroke-linejoin:miter;stroke-opacity:1" d="M 65.4876,573.785 55.2397,555.339 z" id="boundary" inkscape:connector-curvature="0" />
	<path style="fill:none;stroke:red;stroke-width:1px;stroke-linecap:butt;stroke-linejoin:miter;stroke-opacity:1" d="M 55.2397,555.339 42.9421,538.942 z" id="boundary" inkscape:connector-curvature="0" />
	<path style="fill:none;stroke:red;stroke-width:1px;stroke-linecap:butt;stroke-linejoin:miter;stroke-opacity:1" d="M 42.9421,538.942 24.4959,528.694 z" id="boundary" inkscape:connector-curvature="0" />
	<path style="fill:none;stroke:red;stroke-width:1px;stroke-linecap:butt;stroke-linejoin:miter;stroke-opacity:1" d="M 24.4959,528.694 14.2479,510.248 z" id="boundary" inkscape:connector-curvature="0" />
	<path style="fill:none;stroke:red;stroke-width:1px;stroke-linecap:butt;stroke-linejoin:miter;stroke-opacity:1" d="M 14.2479,510.248 14.2479,489.752 z" id="boundary" inkscape:connector-curvature="0" />
	<path style="fill:none;stroke:red;stroke-width:1px;stroke-linecap:butt;stroke-linejoin:miter;stroke-opacity:1" d="M 14.2479,489.752 14.2479,469.256 z" id="boundary" inkscape:connector-curvature="0" />
	<path style="fill:none;stroke:red;stroke-width:1px;stroke-linecap:butt;stroke-linejoin:miter;stroke-opacity:1" d="M 14.2479,469.256 14.2479,448.76 z" id="boundary" inkscape:connector-curvature="0" />
	<path style="fill:none;stroke:red;stroke-width:1px;stroke-linecap:butt;stroke-linejoin:miter;stroke-opacity:1" d="M 14.2479,448.76 14.2479,428.264 z" id="boundary" inkscape:connector-curvature="0" />
	<path style="fill:none;stroke:red;stroke-width:1px;stroke-linecap:butt;stroke-linejoin:miter;stroke-opacity:1" d="M 14.2479,428.264 14.2479,407.769 z" id="boundary" inkscape:connector-curvature="0" />
	<path style="fill:none;stroke:red;stroke-width:1px;stroke-linecap:butt;stroke-linejoin:miter;stroke-opacity:1" d="M 14.2479,407.769 14.2479,387.273 z" id="boundary" inkscape:connector-curvature="0" />
	<path style="fill:none;stroke:red;stroke-width:1px;stroke-linecap:butt;stroke-linejoin:miter;stroke-opacity:1" d="M 14.2479,387.273 14.2479,366.777 z" id="boundary" inkscape:connector-curvature="0" />
	<path style="fill:none;stroke:red;stroke-width:1px;stroke-linecap:butt;stroke-linejoin:miter;stroke-opacity:1" d="M 14.2479,366.777 14.2479,346.281 z" id="boundary" inkscape:connector-curvature="0" />
	<path style="fill:none;stroke:red;stroke-width:1px;stroke-linecap:butt;stroke-linejoin:miter;stroke-opacity:1" d="M 14.2479,346.281 14.2479,325.785 z" id="boundary" inkscape:connector-curvature="0" />
	<path style="fill:none;stroke:red;stroke-width:1px;stroke-linecap:butt;stroke-linejoin:miter;stroke-opacity:1" d="M 14.2479,325.785 14.2479,305.289 z" id="boundary" inkscape:connector-curvature="0" />
	<path style="fill:none;stroke:red;stroke-width:1px;stroke-linecap:butt;stroke-linejoin:miter;stroke-opacity:1" d="M 14.2479,305.289 14.2479,284.793 z" id="boundary" inkscape:connector-curvature="0" />
	<path style="fill:none;stroke:red;stroke-width:1px;stroke-linecap:butt;stroke-linejoin:miter;stroke-opacity:1" d="M 14.2479,284.793 14.2479,264.298 z" id="boundary" inkscape:connector-curvature="0" />
	<path style="fill:none;stroke:red;stroke-width:1px;stroke-linecap:butt;stroke-linejoin:miter;stroke-opacity:1" d="M 14.2479,264.298 14.2479,243.802 z" id="boundary" inkscape:connector-curvature="0" />
	<path style="fill:none;stroke:red;stroke-width:1px;stroke-linecap:butt;stroke-linejoin:miter;stroke-opacity:1" d="M 14.2479,243.802 14.2479,223.306 z" id="boundary" inkscape:connector-curvature="0" />
	<path style="fill:none;stroke:red;stroke-width:1px;stroke-linecap:butt;stroke-linejoin:miter;stroke-opacity:1" d="M 14.2479,223.306 14.2479,202.81 z" id="boundary" inkscape:connector-curvature="0" />
	<path style="fill:none;stroke:red;stroke-width:1px;stroke-linecap:butt;stroke-linejoin:miter;stroke-opacity:1" d="M 14.2479,202.81 14.2479,182.314 z" id="boundary" inkscape:connector-curvature="0" />
	<path style="fill:none;stroke:red;stroke-width:1px;stroke-linecap:butt;stroke-linejoin:miter;stroke-opacity:1" d="M 14.2479,182.314 14.2479,161.818 z" id="boundary" inkscape:connector-curvature="0" />
	<path style="fill:none;stroke:red;stroke-width:1px;stroke-linecap:butt;stroke-linejoin:miter;stroke-opacity:1" d="M 14.2479,161.818 14.2479,141.322 z" id="boundary" inkscape:connector-curvature="0" />
	<path style="fill:none;stroke:red;stroke-width:1px;stroke-linecap:butt;stroke-linejoin:miter;stroke-opacity:1" d="M 14.2479,141.322 4,122.876 z" id="boundary" inkscape:connector-curvature="0" />
	<path style="fill:none;stroke:red;stroke-width:1px;stroke-linecap:butt;stroke-linejoin:miter;stroke-opacity:1" d="M 4,122.876 14.2479,102.38 z" id="boundary" inkscape:connector-curvature="0" />
	<path style="fill:none;stroke:red;stroke-width:1px;stroke-linecap:butt;stroke-linejoin:miter;stroke-opacity:1" d="M 14.2479,102.38 14.2479,81.8843 z" id="boundary" inkscape:connector-curvature="0" />
	<path style="fill:none;stroke:red;stroke-width:1px;stroke-linecap:butt;stroke-linejoin:miter;stroke-opacity:1" d="M 14.2479,81.8843 30.6446,65.4876 z" id="boundary" inkscape:connector-curvature="0" />
	<path style="fill:none;stroke:red;stroke-width:1px;stroke-linecap:butt;stroke-linejoin:miter;stroke-opacity:1" d="M 30.6446,65.4876 51.1405,65.4876 z" id="boundary" inkscape:connector-curvature="0" />
	<path style="fill:none;stroke:red;stroke-width:1px;stroke-linecap:butt;stroke-linejoin:miter;stroke-opacity:1" d="M 51.1405,65.4876 67.5372,49.0909 z" id="boundary" inkscape:connector-curvature="0" />
	<path style="fill:none;stroke:red;stroke-width:1px;stroke-linecap:butt;stroke-linejoin:miter;stroke-opacity:1" d="M 67.5372,49.0909 88.0331,44.9917 z" id="boundary" inkscape:connector-curvature="0" />
	<path style="fill:none;stroke:red;stroke-width:1px;stroke-linecap:butt;stroke-linejoin:miter;stroke-opacity:1" d="M 88.0331,44.9917 108.529,44.9917 z" id="boundary" inkscape:connector-curvature="0" />
	<path style="fill:none;stroke:red;stroke-width:1px;stroke-linecap:butt;stroke-linejoin:miter;stroke-opacity:1" d="M 108.529,44.9917 129.025,44.9917 z" id="boundary" inkscape:connector-curvature="0" />
	<path style="fill:none;stroke:red;stroke-width:1px;stroke-linecap:butt;stroke-linejoin:miter;stroke-opacity:1" d="M 129.025,44.9917 147.471,34.7438 z" id="boundary" inkscape:connector-curvature="0" />
	<path style="fill:none;stroke:red;stroke-width:1px;stroke-linecap:butt;stroke-linejoin:miter;stroke-opacity:1" d="M 147.471,34.7438 167.967,34.7438 z" id="boundary" inkscape:connector-curvature="0" />
	<path style="fill:none;stroke:red;stroke-width:1px;stroke-linecap:butt;stroke-linejoin:miter;stroke-opacity:1" d="M 167.967,34.7438 188.463,34.7438 z" id="boundary" inkscape:connector-curvature="0" />
	<path style="fill:none;stroke:red;stroke-width:1px;stroke-linecap:butt;stroke-linejoin:miter;stroke-opacity:1" d="M 188.463,34.7438 208.959,20.3967 z" id="boundary" inkscape:connector-curvature="0" />
	<path style="fill:none;stroke:red;stroke-width:1px;stroke-linecap:butt;stroke-linejoin:miter;stroke-opacity:1" d="M 208.959,20.3967 229.455,14.2479 z" id="boundary" inkscape:connector-curvature="0" />
	<path style="fill:none;stroke:red;stroke-width:1px;stroke-linecap:butt;stroke-linejoin:miter;stroke-opacity:1" d="M 229.455,14.2479 249.95,14.2479 z" id="boundary" inkscape:connector-curvature="0" />
	<path style="fill:none;stroke:red;stroke-width:1px;stroke-linecap:butt;stroke-linejoin:miter;stroke-opacity:1" d="M 249.95,14.2479 270.446,14.2479 z" id="boundary" inkscape:connector-curvature="0" />
	<path style="fill:none;stroke:red;stroke-width:1px;stroke-linecap:butt;stroke-linejoin:miter;stroke-opacity:1" d="M 270.446,14.2479 290.942,14.2479 z" id="boundary" inkscape:connector-curvature="0" />
	<path style="fill:none;stroke:red;stroke-width:1px;stroke-linecap:butt;stroke-linejoin:miter;stroke-opacity:1" d="M 290.942,14.2479 311.438,14.2479 z" id="boundary" inkscape:connector-curvature="0" />
	<path style="fill:none;stroke:red;stroke-width:1px;stroke-linecap:butt;stroke-linejoin:miter;stroke-opacity:1" d="M 311.438,14.2479 331.934,14.2479 z" id="boundary" inkscape:connector-curvature="0" />
	<path style="fill:none;stroke:red;stroke-width:1px;stroke-linecap:butt;stroke-linejoin:miter;stroke-opacity:1" d="M 331.934,14.2479 352.43,14.2479 z" id="boundary" inkscape:connector-curvature="0" />
	<path style="fill:none;stroke:red;stroke-width:1px;stroke-linecap:butt;stroke-linejoin:miter;stroke-opacity:1" d="M 352.43,14.2479 372.926,14.2479 z" id="boundary" inkscape:connector-curvature="0" />
	<path style="fill:none;stroke:red;stroke-width:1px;stroke-linecap:butt;stroke-linejoin:miter;stroke-opacity:1" d="M 372.926,14.2479 393.421,14.2479 z" id="boundary" inkscape:connector-curvature="0" />
	<path style="fill:none;stroke:red;stroke-width:1px;stroke-linecap:butt;stroke-linejoin:miter;stroke-opacity:1" d="M 393.421,14.2479 413.917,14.2479 z" id="boundary" inkscape:connector-curvature="0" />
	<path style="fill:none;stroke:red;stroke-width:1px;stroke-linecap:butt;stroke-linejoin:miter;stroke-opacity:1" d="M 413.917,14.2479 434.413,14.2479 z" id="boundary" inkscape:connector-curvature="0" />
	<path style="fill:none;stroke:red;stroke-width:1px;stroke-linecap:butt;stroke-linejoin:miter;stroke-opacity:1" d="M 434.413,14.2479 454.909,14.2479 z" id="boundary" inkscape:connector-curvature="0" />
	<path style="fill:none;stroke:red;stroke-width:1px;stroke-linecap:butt;stroke-linejoin:miter;stroke-opacity:1" d="M 454.909,14.2479 475.405,14.2479 z" id="boundary" inkscape:connector-curvature="0" />
	<path style="fill:none;stroke:red;stroke-width:1px;stroke-linecap:butt;stroke-linejoin:miter;stroke-opacity:1" d="M 475.405,14.2479 495.901,14.2479 z" id="boundary" inkscape:connector-curvature="0" />
	<path style="fill:none;stroke:red;stroke-width:1px;stroke-linecap:butt;stroke-linejoin:miter;stroke-opacity:1" d="M 495.901,14.2479 516.397,14.2479 z" id="boundary" inkscape:connector-curvature="0" />
	<path style="fill:none;stroke:red;stroke-width:1px;stroke-linecap:butt;stroke-linejoin:miter;stroke-opacity:1" d="M 516.397,14.2479 536.893,14.2479 z" id="boundary" inkscape:connector-curvature="0" />
	<path style="fill:none;stroke:red;stroke-width:1px;stroke-linecap:butt;stroke-linejoin:miter;stroke-opacity:1" d="M 536.893,14.2479 557.388,14.2479 z" id="boundary" inkscape:connector-curvature="0" />
	<path style="fill:none;stroke:red;stroke-width:1px;stroke-linecap:butt;stroke-linejoin:miter;stroke-opacity:1" d="M 557.388,14.2479 577.884,14.2479 z" id="boundary" inkscape:connector-curvature="0" />
	<path style="fill:none;stroke:red;stroke-width:1px;stroke-linecap:butt;stroke-linejoin:miter;stroke-opacity:1" d="M 577.884,14.2479 598.38,14.2479 z" id="boundary" inkscape:connector-curvature="0" />
	<path style="fill:none;stroke:red;stroke-width:1px;stroke-linecap:butt;stroke-linejoin:miter;stroke-opacity:1" d="M 598.38,14.2479 618.876,14.2479 z" id="boundary" inkscape:connector-curvature="0" />
	<path style="fill:none;stroke:red;stroke-width:1px;stroke-linecap:butt;stroke-linejoin:miter;stroke-opacity:1" d="M 618.876,14.2479 639.372,14.2479 z" id="boundary" inkscape:connector-curvature="0" />
	<path style="fill:none;stroke:red;stroke-width:1px;stroke-linecap:butt;stroke-linejoin:miter;stroke-opacity:1" d="M 639.372,14.2479 657.818,4 z" id="boundary" inkscape:connector-curvature="0" />
	<path style="fill:none;stroke:red;stroke-width:1px;stroke-linecap:butt;stroke-linejoin:miter;stroke-opacity:1" d="M 657.818,4 678.314,4 z" id="boundary" inkscape:connector-curvature="0" />
	<path style="fill:none;stroke:red;stroke-width:1px;stroke-linecap:butt;stroke-linejoin:miter;stroke-opacity:1" d="M 678.314,4 698.81,4 z" id="boundary" inkscape:connector-curvature="0" />
	<path style="fill:none;stroke:red;stroke-width:1px;stroke-linecap:butt;stroke-linejoin:miter;stroke-opacity:1" d="M 698.81,4 719.306,4 z" id="boundary" inkscape:connector-curvature="0" />
	<path style="fill:none;stroke:red;stroke-width:1px;stroke-linecap:butt;stroke-linejoin:miter;stroke-opacity:1" d="M 719.306,4 739.802,4 z" id="boundary" inkscape:connector-curvature="0" />
	<path style="fill:none;stroke:red;stroke-width:1px;stroke-linecap:butt;stroke-linejoin:miter;stroke-opacity:1" d="M 739.802,4 760.298,4 z" id="boundary" inkscape:connector-curvature="0" />
	<path style="fill:none;stroke:red;stroke-width:1px;stroke-linecap:butt;stroke-linejoin:miter;stroke-opacity:1" d="M 760.298,4 780.793,4 z" id="boundary" inkscape:connector-curvature="0" />
	<path style="fill:none;stroke:red;stroke-width:1px;stroke-linecap:butt;stroke-linejoin:miter;stroke-opacity:1" d="M 780.793,4 801.289,4 z" id="boundary" inkscape:connector-curvature="0" />
	<path style="fill:none;stroke:red;stroke-width:1px;stroke-linecap:butt;stroke-linejoin:miter;stroke-opacity:1" d="M 801.289,4 821.785,4 z" id="boundary" inkscape:connector-curvature="0" />
	<path style="fill:none;stroke:red;stroke-width:1px;stroke-linecap:butt;stroke-linejoin:miter;stroke-opacity:1" d="M 821.785,4 842.281,4 z" id="boundary" inkscape:connector-curvature="0" />
	<path style="fill:none;stroke:red;stroke-width:1px;stroke-linecap:butt;stroke-linejoin:miter;stroke-opacity:1" d="M 842.281,4 862.777,4 z" id="boundary" inkscape:connector-curvature="0" />
	<path style="fill:none;stroke:red;stroke-width:1px;stroke-linecap:butt;stroke-linejoin:miter;stroke-opacity:1" d="M 862.777,4 881.223,14.2479 z" id="boundary" inkscape:connector-curvature="0" />
	<path style="fill:none;stroke:red;stroke-width:1px;stroke-linecap:butt;stroke-linejoin:miter;stroke-opacity:1" d="M 881.223,14.2479 897.62,26.5455 z" id="boundary" inkscape:connector-curvature="0" />
	<path style="fill:none;stroke:red;stroke-width:1px;stroke-linecap:butt;stroke-linejoin:miter;stroke-opacity:1" d="M 897.62,26.5455 918.116,34.7438 z" id="boundary" inkscape:connector-curvature="0" />
	<path style="fill:none;stroke:red;stroke-width:1px;stroke-linecap:butt;stroke-linejoin:miter;stroke-opacity:1" d="M 918.116,34.7438 938.612,40.8926 z" id="boundary" inkscape:connector-curvature="0" />
	<path style="fill:none;stroke:red;stroke-width:1px;stroke-linecap:butt;stroke-linejoin:miter;stroke-opacity:1" d="M 938.612,40.8926 948.86,59.3388 z" id="boundary" inkscape:connector-curvature="0" />
	<path style="fill:none;stroke:red;stroke-width:1px;stroke-linecap:butt;stroke-linejoin:miter;stroke-opacity:1" d="M 948.86,59.3388 961.157,75.7355 z" id="boundary" inkscape:connector-curvature="0" />
	<path style="fill:none;stroke:red;stroke-width:1px;stroke-linecap:butt;stroke-linejoin:miter;stroke-opacity:1" d="M 961.157,75.7355 969.355,96.2314 z" id="boundary" inkscape:connector-curvature="0" />
	<path style="fill:none;stroke:red;stroke-width:1px;stroke-linecap:butt;stroke-linejoin:miter;stroke-opacity:1" d="M 969.355,96.2314 969.355,116.727 z" id="boundary" inkscape:connector-curvature="0" />
	<path style="fill:none;stroke:red;stroke-width:1px;stroke-linecap:butt;stroke-linejoin:miter;stroke-opacity:1" d="M 969.355,116.727 969.355,137.223 z" id="boundary" inkscape:connector-curvature="0" />
	<path style="fill:none;stroke:red;stroke-width:1px;stroke-linecap:butt;stroke-linejoin:miter;stroke-opacity:1" d="M 969.355,137.223 969.355,157.719 z" id="boundary" inkscape:connector-curvature="0" />
	<path style="fill:none;stroke:red;stroke-width:1px;stroke-linecap:butt;stroke-linejoin:miter;stroke-opacity:1" d="M 969.355,157.719 969.355,178.215 z" id="boundary" inkscape:connector-curvature="0" />
	<path style="fill:none;stroke:red;stroke-width:1px;stroke-linecap:butt;stroke-linejoin:miter;stroke-opacity:1" d="M 969.355,178.215 969.355,198.711 z" id="boundary" inkscape:connector-curvature="0" />
	<path style="fill:none;stroke:red;stroke-width:1px;stroke-linecap:butt;stroke-linejoin:miter;stroke-opacity:1" d="M 969.355,198.711 969.355,219.207 z" id="boundary" inkscape:connector-curvature="0" />
	<path style="fill:none;stroke:red;stroke-width:1px;stroke-linecap:butt;stroke-linejoin:miter;stroke-opacity:1" d="M 969.355,219.207 969.355,239.702 z" id="boundary" inkscape:connector-curvature="0" />
	<path style="fill:none;stroke:red;stroke-width:1px;stroke-linecap:butt;stroke-linejoin:miter;stroke-opacity:1" d="M 969.355,239.702 969.355,260.198 z" id="boundary" inkscape:connector-curvature="0" />
	<path style="fill:none;stroke:red;stroke-width:1px;stroke-linecap:butt;stroke-linejoin:miter;stroke-opacity:1" d="M 969.355,260.198 969.355,280.694 z" id="boundary" inkscape:connector-curvature="0" />
	<path style="fill:none;stroke:red;stroke-width:1px;stroke-linecap:butt;stroke-linejoin:miter;stroke-opacity:1" d="M 969.355,280.694 969.355,301.19 z" id="boundary" inkscape:connector-curvature="0" />
	<path style="fill:none;stroke:red;stroke-width:1px;stroke-linecap:butt;stroke-linejoin:miter;stroke-opacity:1" d="M 969.355,301.19 969.355,321.686 z" id="boundary" inkscape:connector-curvature="0" />
	<path style="fill:none;stroke:red;stroke-width:1px;stroke-linecap:butt;stroke-linejoin:miter;stroke-opacity:1" d="M 969.355,321.686 979.603,340.132 z" id="boundary" inkscape:connector-curvature="0" />
	<path style="fill:none;stroke:red;stroke-width:1px;stroke-linecap:butt;stroke-linejoin:miter;stroke-opacity:1" d="M 979.603,340.132 979.603,360.628 z" id="boundary" inkscape:connector-curvature="0" />
	<path style="fill:none;stroke:red;stroke-width:1px;stroke-linecap:butt;stroke-linejoin:miter;stroke-opacity:1" d="M 979.603,360.628 979.603,381.124 z" id="boundary" inkscape:connector-curvature="0" />
	<path style="fill:none;stroke:red;stroke-width:1px;stroke-linecap:butt;stroke-linejoin:miter;stroke-opacity:1" d="M 979.603,381.124 979.603,401.62 z" id="boundary" inkscape:connector-curvature="0" />
	<path style="fill:none;stroke:red;stroke-width:1px;stroke-linecap:butt;stroke-linejoin:miter;stroke-opacity:1" d="M 979.603,401.62 979.603,422.116 z" id="boundary" inkscape:connector-curvature="0" />
	<path style="fill:none;stroke:red;stroke-width:1px;stroke-linecap:butt;stroke-linejoin:miter;stroke-opacity:1" d="M 979.603,422.116 979.603,442.612 z" id="boundary" inkscape:connector-curvature="0" />
	<circle cx="4" cy="122.876" r="4" fill="#0" id="circle0"/>
	<circle cx="14.2479" cy="81.8843" r="4" fill="#0" id="circle1"/>
	<circle cx="14.2479" cy="102.38" r="4" fill="#0" id="circle2"/>
	<circle cx="14.2479" cy="141.322" r="4" fill="#0" id="circle3"/>
	<circle cx="14.2479" cy="161.818" r="4" fill="#0" id="circle4"/>
	<circle cx="14.2479" cy="182.314" r="4" fill="#0" id="circle5"/>
	<circle cx="14.2479" cy="202.81" r="4" fill="#0" id="circle6"/>
	<circle cx="14.2479" cy="223.306" r="4" fill="#0" id="circle7"/>
	<circle cx="14.2479" cy="243.802" r="4" fill="#0" id="circle8"/>
	<circle cx="14.2479" cy="264.298" r="4" fill="#0" id="circle9"/>
	<circle cx="14.2479" cy="284.793" r="4" fill="#0" id="circle10"/>
	<circle cx="14.2479" cy="305.289" r="4" fill="#0" id="circle11"/>
	<circle cx="14.2479" cy="325.785" r="4" fill="#0" id="circle12"/>
	<circle cx="14.2479" cy="346.281" r="4" fill="#0" id="circle13"/>
	<circle cx="14.2479" cy="366.777" r="4" fill="#0" id="circle14"/>
	<circle cx="14.2479" cy="387.273" r="4" fill="#0" id="circle15"/>
	<circle cx="14.2479" cy="407.769" r="4" fill="#0" id="circle16"/>
	<circle cx="14.2479" cy="428.264" r="4" fill="#0" id="circle17"/>
	<circle cx="14.2479" cy="448.76" r="4" fill="#0" id="circle18"/>
	<circle cx="14.2479" cy="469.256" r="4" fill="#0" id="circle19"/>
	<circle cx="14.2479" cy="489.752" r="4" fill="#0" id="circle20"/>
	<circle cx="14.2479" cy="510.248" r="4" fill="#0" id="circle21"/>
	<circle cx="24.4959" cy="528.694" r="4" fill="#0" id="circle22"/>
	<circle cx="30.6446" cy="65.4876" r="4" fill="#0" id="circle23"/>
	<circle cx="42.9421" cy="538.942" r="4" fill="#0" id="circle24"/>
	<circle cx="51.1405" cy="65.4876" r="4" fill="#0" id="circle25"/>
	<circle cx="55.2397" cy="555.339" r="4" fill="#0" id="circle26"/>
	<circle cx="65.4876" cy="573.785" r="4" fill="#0" id="circle27"/>
	<circle cx="67.5372" cy="49.0909" r="4" fill="#0" id="circle28"/>
	<circle cx="85.9835" cy="579.934" r="4" fill="#0" id="circle29"/>
	<circle cx="88.0331" cy="44.9917" r="4" fill="#0" id="circle30"/>
	<circle cx="106.479" cy="579.934" r="4" fill="#0" id="circle31"/>
	<circle cx="108.529" cy="44.9917" r="4" fill="#0" id="circle32"/>
	<circle cx="124.926" cy="590.182" r="4" fill="#0" id="circle33"/>
	<circle cx="129.025" cy="44.9917" r="4" fill="#0" id="circle34"/>
	<circle cx="145.421" cy="590.182" r="4" fill="#0" id="circle35"/>
	<circle cx="147.471" cy="34.7438" r="4" fill="#0" id="circle36"/>
	<circle cx="165.917" cy="590.182" r="4" fill="#0" id="circle37"/>
	<circle cx="167.967" cy="34.7438" r="4" fill="#0" id="circle38"/>
	<circle cx="186.413" cy="590.182" r="4" fill="#0" id="circle39"/>
	<circle cx="188.463" cy="34.7438" r="4" fill="#0" id="circle40"/>
	<circle cx="206.909" cy="590.182" r="4" fill="#0" id="circle41"/>
	<circle cx="208.959" cy="20.3967" r="4" fill="#0" id="circle42"/>
	<circle cx="227.405" cy="590.182" r="4" fill="#0" id="circle43"/>
	<circle cx="229.455" cy="14.2479" r="4" fill="#0" id="circle44"/>
	<circle cx="247.901" cy="590.182" r="4" fill="#0" id="circle45"/>
	<circle cx="249.95" cy="14.2479" r="4" fill="#0" id="circle46"/>
	<circle cx="268.397" cy="590.182" r="4" fill="#0" id="circle47"/>
	<circle cx="270.446" cy="14.2479" r="4" fill="#0" id="circle48"/>
	<circle cx="288.893" cy="590.182" r="4" fill="#0" id="circle49"/>
	<circle cx="290.942" cy="14.2479" r="4" fill="#0" id="circle50"/>
	<circle cx="309.388" cy="590.182" r="4" fill="#0" id="circle51"/>
	<circle cx="311.438" cy="14.2479" r="4" fill="#0" id="circle52"/>
	<circle cx="329.884" cy="590.182" r="4" fill="#0" id="circle53"/>
	<circle cx="331.934" cy="14.2479" r="4" fill="#0" id="circle54"/>
	<circle cx="350.38" cy="590.182" r="4" fill="#0" id="circle55"/>
	<circle cx="352.43" cy="14.2479" r="4" fill="#0" id="circle56"/>
	<circle cx="370.876" cy="590.182" r="4" fill="#0" id="circle57"/>
	<circle cx="372.926" cy="14.2479" r="4" fill="#0" id="circle58"/>
	<circle cx="391.372" cy="590.182" r="4" fill="#0" id="circle59"/>
	<circle cx="393.421" cy="14.2479" r="4" fill="#0" id="circle60"/>
	<circle cx="411.868" cy="590.182" r="4" fill="#0" id="circle61"/>
	<circle cx="413.917" cy="14.2479" r="4" fill="#0" id="circle62"/>
	<circle cx="432.364" cy="590.182" r="4" fill="#0" id="circle63"/>
	<circle cx="434.413" cy="14.2479" r="4" fill="#0" id="circle64"/>
	<circle cx="452.86" cy="590.182" r="4" fill="#0" id="circle65"/>
	<circle cx="454.909" cy="14.2479" r="4" fill="#0" id="circle66"/>
	<circle cx="471.306" cy="579.934" r="4" fill="#0" id="circle67"/>
	<circle cx="475.405" cy="14.2479" r="4" fill="#0" id="circle68"/>
	<circle cx="491.802" cy="579.934" r="4" fill="#0" id="circle69"/>
	<circle cx="495.901" cy="14.2479" r="4" fill="#0" id="circle70"/>
	<circle cx="512.298" cy="579.934" r="4" fill="#0" id="circle71"/>
	<circle cx="516.397" cy="14.2479" r="4" fill="#0" id="circle72"/>
	<circle cx="532.793" cy="579.934" r="4" fill="#0" id="circle73"/>
	<circle cx="536.893" cy="14.2479" r="4" fill="#0" id="circle74"/>
	<circle cx="553.289" cy="579.934" r="4" fill="#0" id="circle75"/>
	<circle cx="557.388" cy="14.2479" r="4" fill="#0" id="circle76"/>
	<circle cx="573.785" cy="579.934" r="4" fill="#0" id="circle77"/>
	<circle cx="577.884" cy="14.2479" r="4" fill="#0" id="circle78"/>
	<circle cx="594.281" cy="579.934" r="4" fill="#0" id="circle79"/>
	<circle cx="598.38" cy="14.2479" r="4" fill="#0" id="circle80"/>
	<circle cx="598.38" cy="600.43" r="4" fill="#0" id="circle81"/>
	<circle cx="604.529" cy="620.926" r="4" fill="#0" id="circle82"/>
	<circle cx="614.777" cy="639.372" r="4" fill="#0" id="circle83"/>
	<circle cx="618.876" cy="14.2479" r="4" fill="#0" id="circle84"/>
	<circle cx="618.876" cy="659.868" r="4" fill="#0" id="circle85"/>
	<circle cx="635.273" cy="672.165" r="4" fill="#0" id="circle86"/>
	<circle cx="639.372" cy="14.2479" r="4" fill="#0" id="circle87"/>
	<circle cx="649.62" cy="688.562" r="4" fill="#0" id="circle88"/>
	<circle cx="649.62" cy="709.058" r="4" fill="#0" id="circle89"/>
	<circle cx="657.818" cy="4" r="4" fill="#0" id="circle90"/>
	<circle cx="659.868" cy="727.504" r="4" fill="#0" id="circle91"/>
	<circle cx="659.868" cy="748" r="4" fill="#0" id="circle92"/>
	<circle cx="678.314" cy="4" r="4" fill="#0" id="circle93"/>
	<circle cx="680.364" cy="754.149" r="4" fill="#0" id="circle94"/>
	<circle cx="692.661" cy="770.545" r="4" fill="#0" id="circle95"/>
	<circle cx="698.81" cy="4" r="4" fill="#0" id="circle96"/>
	<circle cx="702.909" cy="788.992" r="4" fill="#0" id="circle97"/>
	<circle cx="711.107" cy="809.488" r="4" fill="#0" id="circle98"/>
	<circle cx="719.306" cy="4" r="4" fill="#0" id="circle99"/>
	<circle cx="731.603" cy="815.636" r="4" fill="#0" id="circle100"/>
	<circle cx="731.603" cy="836.132" r="4" fill="#0" id="circle101"/>
	<circle cx="737.752" cy="856.628" r="4" fill="#0" id="circle102"/>
	<circle cx="739.802" cy="4" r="4" fill="#0" id="circle103"/>
	<circle cx="741.851" cy="877.124" r="4" fill="#0" id="circle104"/>
	<circle cx="754.149" cy="893.521" r="4" fill="#0" id="circle105"/>
	<circle cx="760.298" cy="4" r="4" fill="#0" id="circle106"/>
	<circle cx="774.645" cy="901.719" r="4" fill="#0" id="circle107"/>
	<circle cx="780.793" cy="4" r="4" fill="#0" id="circle108"/>
	<circle cx="793.091" cy="911.967" r="4" fill="#0" id="circle109"/>
	<circle cx="793.091" cy="932.463" r="4" fill="#0" id="circle110"/>
	<circle cx="801.289" cy="4" r="4" fill="#0" id="circle111"/>
	<circle cx="803.339" cy="950.909" r="4" fill="#0" id="circle112"/>
	<circle cx="803.339" cy="971.405" r="4" fill="#0" id="circle113"/>
	<circle cx="821.785" cy="4" r="4" fill="#0" id="circle114"/>
	<circle cx="823.835" cy="979.603" r="4" fill="#0" id="circle115"/>
	<circle cx="825.884" cy="579.934" r="4" fill="#0" id="circle116"/>
	<circle cx="825.884" cy="600.43" r="4" fill="#0" id="circle117"/>
	<circle cx="825.884" cy="620.926" r="4" fill="#0" id="circle118"/>
	<circle cx="825.884" cy="641.421" r="4" fill="#0" id="circle119"/>
	<circle cx="825.884" cy="661.917" r="4" fill="#0" id="circle120"/>
	<circle cx="825.884" cy="682.413" r="4" fill="#0" id="circle121"/>
	<circle cx="825.884" cy="702.909" r="4" fill="#0" id="circle122"/>
	<circle cx="825.884" cy="723.405" r="4" fill="#0" id="circle123"/>
	<circle cx="825.884" cy="743.901" r="4" fill="#0" id="circle124"/>
	<circle cx="829.983" cy="764.397" r="4" fill="#0" id="circle125"/>
	<circle cx="836.132" cy="784.893" r="4" fill="#0" id="circle126"/>
	<circle cx="836.132" cy="996" r="4" fill="#0" id="circle127"/>
	<circle cx="842.281" cy="4" r="4" fill="#0" id="circle128"/>
	<circle cx="846.38" cy="579.934" r="4" fill="#0" id="circle129"/>
	<circle cx="846.38" cy="803.339" r="4" fill="#0" id="circle130"/>
	<circle cx="846.38" cy="823.835" r="4" fill="#0" id="circle131"/>
	<circle cx="846.38" cy="844.331" r="4" fill="#0" id="circle132"/>
	<circle cx="846.38" cy="864.826" r="4" fill="#0" id="circle133"/>
	<circle cx="846.38" cy="885.322" r="4" fill="#0" id="circle134"/>
	<circle cx="846.38" cy="905.818" r="4" fill="#0" id="circle135"/>
	<circle cx="846.38" cy="926.314" r="4" fill="#0" id="circle136"/>
	<circle cx="846.38" cy="946.81" r="4" fill="#0" id="circle137"/>
	<circle cx="846.38" cy="967.306" r="4" fill="#0" id="circle138"/>
	<circle cx="862.777" cy="4" r="4" fill="#0" id="circle139"/>
	<circle cx="864.826" cy="569.686" r="4" fill="#0" id="circle140"/>
	<circle cx="877.124" cy="549.19" r="4" fill="#0" id="circle141"/>
	<circle cx="881.223" cy="14.2479" r="4" fill="#0" id="circle142"/>
	<circle cx="897.62" cy="26.5455" r="4" fill="#0" id="circle143"/>
	<circle cx="897.62" cy="538.942" r="4" fill="#0" id="circle144"/>
	<circle cx="918.116" cy="34.7438" r="4" fill="#0" id="circle145"/>
	<circle cx="918.116" cy="538.942" r="4" fill="#0" id="circle146"/>
	<circle cx="938.612" cy="40.8926" r="4" fill="#0" id="circle147"/>
	<circle cx="938.612" cy="528.694" r="4" fill="#0" id="circle148"/>
	<circle cx="948.86" cy="59.3388" r="4" fill="#0" id="circle149"/>
	<circle cx="957.058" cy="518.446" r="4" fill="#0" id="circle150"/>
	<circle cx="961.157" cy="75.7355" r="4" fill="#0" id="circle151"/>
	<circle cx="969.355" cy="96.2314" r="4" fill="#0" id="circle152"/>
	<circle cx="969.355" cy="116.727" r="4" fill="#0" id="circle153"/>
	<circle cx="969.355" cy="137.223" r="4" fill="#0" id="circle154"/>
	<circle cx="969.355" cy="157.719" r="4" fill="#0" id="circle155"/>
	<circle cx="969.355" cy="178.215" r="4" fill="#0" id="circle156"/>
	<circle cx="969.355" cy="198.711" r="4" fill="#0" id="circle157"/>
	<circle cx="969.355" cy="219.207" r="4" fill="#0" id="circle158"/>
	<circle cx="969.355" cy="239.702" r="4" fill="#0" id="circle159"/>
	<circle cx="969.355" cy="260.198" r="4" fill="#0" id="circle160"/>
	<circle cx="969.355" cy="280.694" r="4" fill="#0" id="circle161"/>
	<circle cx="969.355" cy="301.19" r="4" fill="#0" id="circle162"/>
	<circle cx="969.355" cy="321.686" r="4" fill="#0" id="circle163"/>
	<circle cx="969.355" cy="477.455" r="4" fill="#0" id="circle164"/>
	<circle cx="969.355" cy="497.95" r="4" fill="#0" id="circle165"/>
	<circle cx="979.603" cy="340.132" r="4" fill="#0" id="circle166"/>
	<circle cx="979.603" cy="360.628" r="4" fill="#0" id="circle167"/>
	<circle cx="979.603" cy="381.124" r="4" fill="#0" id="circle168"/>
	<circle cx="979.603" cy="401.62" r="4" fill="#0" id="circle169"/>
	<circle cx="979.603" cy="422.116" r="4" fill="#0" id="circle170"/>
	<circle cx="979.603" cy="442.612" r="4" fill="#0" id="circle171"/>
	</g>
</svg>