<?xml version="1.0" encoding="UTF-8" standalone="no"?>
<!-- Created with CurveBenchmark -->
<svg
	xmlns:dc="http://purl.org/dc/elements/1.1/"
	xmlns:cc="http://creativecommons.org/ns#"
	xmlns:rdf="http://www.w3.org/1999/02/22-rdf-syntax-ns#"
	xmlns:svg="http://www.w3.org/2000/svg"
	xmlns="http://www.w3.org/2000/svg"
	xmlns:sodipodi="http://sodipodi.sourceforge.net/DTD/sodipodi-0.dtd"
	xmlns:inkscape="http://www.inkscape.org/namespaces/inkscape"
	width="1000"
	height="1000"
	id="svg2"
	version="1.1"
	sodipodi:docname="manifold/connect2d-kk0737.png.txt">
<defs
	id="defs4" />
<metadata
	id="metadata7">
	<rdf:RDF>
		<cc:Work
			rdf:about="">
			<dc:format>image/svg+xml</dc:format>
			<dc:type
				rdf:resource="http://purl.org/dc/dcmitype/StillImage" />
			<dc:title></dc:title>
		</cc:Work>
	</rdf:RDF>
</metadata>
<g
	inkscape:label="Layer 1"
	inkscape:groupmode="layer"
	id="layer1">
	<path style="fill:none;stroke:red;stroke-width:1px;stroke-linecap:butt;stroke-linejoin:miter;stroke-opacity:1" d="M 981.506,253.61 996,261.662 z" id="boundary" inkscape:connector-curvature="0" />
	<path style="fill:none;stroke:red;stroke-width:1px;stroke-linecap:butt;stroke-linejoin:miter;stroke-opacity:1" d="M 996,261.662 984.727,276.156 z" id="boundary" inkscape:connector-curvature="0" />
	<path style="fill:none;stroke:red;stroke-width:1px;stroke-linecap:butt;stroke-linejoin:miter;stroke-opacity:1" d="M 984.727,276.156 968.623,279.377 z" id="boundary" inkscape:connector-curvature="0" />
	<path style="fill:none;stroke:red;stroke-width:1px;stroke-linecap:butt;stroke-linejoin:miter;stroke-opacity:1" d="M 968.623,279.377 952.519,279.377 z" id="boundary" inkscape:connector-curvature="0" />
	<path style="fill:none;stroke:red;stroke-width:1px;stroke-linecap:butt;stroke-linejoin:miter;stroke-opacity:1" d="M 952.519,279.377 936.416,279.377 z" id="boundary" inkscape:connector-curvature="0" />
	<path style="fill:none;stroke:red;stroke-width:1px;stroke-linecap:butt;stroke-linejoin:miter;stroke-opacity:1" d="M 936.416,279.377 920.312,279.377 z" id="boundary" inkscape:connector-curvature="0" />
	<path style="fill:none;stroke:red;stroke-width:1px;stroke-linecap:butt;stroke-linejoin:miter;stroke-opacity:1" d="M 920.312,279.377 904.208,279.377 z" id="boundary" inkscape:connector-curvature="0" />
	<path style="fill:none;stroke:red;stroke-width:1px;stroke-linecap:butt;stroke-linejoin:miter;stroke-opacity:1" d="M 904.208,279.377 888.104,279.377 z" id="boundary" inkscape:connector-curvature="0" />
	<path style="fill:none;stroke:red;stroke-width:1px;stroke-linecap:butt;stroke-linejoin:miter;stroke-opacity:1" d="M 888.104,279.377 873.61,287.429 z" id="boundary" inkscape:connector-curvature="0" />
	<path style="fill:none;stroke:red;stroke-width:1px;stroke-linecap:butt;stroke-linejoin:miter;stroke-opacity:1" d="M 873.61,287.429 857.506,287.429 z" id="boundary" inkscape:connector-curvature="0" />
	<path style="fill:none;stroke:red;stroke-width:1px;stroke-linecap:butt;stroke-linejoin:miter;stroke-opacity:1" d="M 857.506,287.429 841.403,287.429 z" id="boundary" inkscape:connector-curvature="0" />
	<path style="fill:none;stroke:red;stroke-width:1px;stroke-linecap:butt;stroke-linejoin:miter;stroke-opacity:1" d="M 841.403,287.429 826.909,295.481 z" id="boundary" inkscape:connector-curvature="0" />
	<path style="fill:none;stroke:red;stroke-width:1px;stroke-linecap:butt;stroke-linejoin:miter;stroke-opacity:1" d="M 826.909,295.481 810.805,295.481 z" id="boundary" inkscape:connector-curvature="0" />
	<path style="fill:none;stroke:red;stroke-width:1px;stroke-linecap:butt;stroke-linejoin:miter;stroke-opacity:1" d="M 810.805,295.481 794.701,295.481 z" id="boundary" inkscape:connector-curvature="0" />
	<path style="fill:none;stroke:red;stroke-width:1px;stroke-linecap:butt;stroke-linejoin:miter;stroke-opacity:1" d="M 794.701,295.481 778.597,295.481 z" id="boundary" inkscape:connector-curvature="0" />
	<path style="fill:none;stroke:red;stroke-width:1px;stroke-linecap:butt;stroke-linejoin:miter;stroke-opacity:1" d="M 778.597,295.481 762.494,295.481 z" id="boundary" inkscape:connector-curvature="0" />
	<path style="fill:none;stroke:red;stroke-width:1px;stroke-linecap:butt;stroke-linejoin:miter;stroke-opacity:1" d="M 762.494,295.481 746.39,295.481 z" id="boundary" inkscape:connector-curvature="0" />
	<path style="fill:none;stroke:red;stroke-width:1px;stroke-linecap:butt;stroke-linejoin:miter;stroke-opacity:1" d="M 746.39,295.481 731.896,303.532 z" id="boundary" inkscape:connector-curvature="0" />
	<path style="fill:none;stroke:red;stroke-width:1px;stroke-linecap:butt;stroke-linejoin:miter;stroke-opacity:1" d="M 731.896,303.532 715.792,303.532 z" id="boundary" inkscape:connector-curvature="0" />
	<path style="fill:none;stroke:red;stroke-width:1px;stroke-linecap:butt;stroke-linejoin:miter;stroke-opacity:1" d="M 715.792,303.532 699.688,303.532 z" id="boundary" inkscape:connector-curvature="0" />
	<path style="fill:none;stroke:red;stroke-width:1px;stroke-linecap:butt;stroke-linejoin:miter;stroke-opacity:1" d="M 699.688,303.532 683.584,303.532 z" id="boundary" inkscape:connector-curvature="0" />
	<path style="fill:none;stroke:red;stroke-width:1px;stroke-linecap:butt;stroke-linejoin:miter;stroke-opacity:1" d="M 683.584,303.532 669.091,311.584 z" id="boundary" inkscape:connector-curvature="0" />
	<path style="fill:none;stroke:red;stroke-width:1px;stroke-linecap:butt;stroke-linejoin:miter;stroke-opacity:1" d="M 669.091,311.584 652.987,311.584 z" id="boundary" inkscape:connector-curvature="0" />
	<path style="fill:none;stroke:red;stroke-width:1px;stroke-linecap:butt;stroke-linejoin:miter;stroke-opacity:1" d="M 652.987,311.584 636.883,311.584 z" id="boundary" inkscape:connector-curvature="0" />
	<path style="fill:none;stroke:red;stroke-width:1px;stroke-linecap:butt;stroke-linejoin:miter;stroke-opacity:1" d="M 636.883,311.584 622.39,319.636 z" id="boundary" inkscape:connector-curvature="0" />
	<path style="fill:none;stroke:red;stroke-width:1px;stroke-linecap:butt;stroke-linejoin:miter;stroke-opacity:1" d="M 622.39,319.636 606.286,324.468 z" id="boundary" inkscape:connector-curvature="0" />
	<path style="fill:none;stroke:red;stroke-width:1px;stroke-linecap:butt;stroke-linejoin:miter;stroke-opacity:1" d="M 606.286,324.468 593.403,335.74 z" id="boundary" inkscape:connector-curvature="0" />
	<path style="fill:none;stroke:red;stroke-width:1px;stroke-linecap:butt;stroke-linejoin:miter;stroke-opacity:1" d="M 593.403,335.74 593.403,351.844 z" id="boundary" inkscape:connector-curvature="0" />
	<path style="fill:none;stroke:red;stroke-width:1px;stroke-linecap:butt;stroke-linejoin:miter;stroke-opacity:1" d="M 593.403,351.844 593.403,367.948 z" id="boundary" inkscape:connector-curvature="0" />
	<path style="fill:none;stroke:red;stroke-width:1px;stroke-linecap:butt;stroke-linejoin:miter;stroke-opacity:1" d="M 593.403,367.948 582.13,380.831 z" id="boundary" inkscape:connector-curvature="0" />
	<path style="fill:none;stroke:red;stroke-width:1px;stroke-linecap:butt;stroke-linejoin:miter;stroke-opacity:1" d="M 582.13,380.831 566.026,388.883 z" id="boundary" inkscape:connector-curvature="0" />
	<path style="fill:none;stroke:red;stroke-width:1px;stroke-linecap:butt;stroke-linejoin:miter;stroke-opacity:1" d="M 566.026,388.883 549.922,392.104 z" id="boundary" inkscape:connector-curvature="0" />
	<path style="fill:none;stroke:red;stroke-width:1px;stroke-linecap:butt;stroke-linejoin:miter;stroke-opacity:1" d="M 549.922,392.104 535.429,400.156 z" id="boundary" inkscape:connector-curvature="0" />
	<path style="fill:none;stroke:red;stroke-width:1px;stroke-linecap:butt;stroke-linejoin:miter;stroke-opacity:1" d="M 535.429,400.156 519.325,400.156 z" id="boundary" inkscape:connector-curvature="0" />
	<path style="fill:none;stroke:red;stroke-width:1px;stroke-linecap:butt;stroke-linejoin:miter;stroke-opacity:1" d="M 519.325,400.156 503.221,400.156 z" id="boundary" inkscape:connector-curvature="0" />
	<path style="fill:none;stroke:red;stroke-width:1px;stroke-linecap:butt;stroke-linejoin:miter;stroke-opacity:1" d="M 503.221,400.156 493.558,413.039 z" id="boundary" inkscape:connector-curvature="0" />
	<path style="fill:none;stroke:red;stroke-width:1px;stroke-linecap:butt;stroke-linejoin:miter;stroke-opacity:1" d="M 493.558,413.039 480.675,424.312 z" id="boundary" inkscape:connector-curvature="0" />
	<path style="fill:none;stroke:red;stroke-width:1px;stroke-linecap:butt;stroke-linejoin:miter;stroke-opacity:1" d="M 480.675,424.312 480.675,440.416 z" id="boundary" inkscape:connector-curvature="0" />
	<path style="fill:none;stroke:red;stroke-width:1px;stroke-linecap:butt;stroke-linejoin:miter;stroke-opacity:1" d="M 480.675,440.416 472.623,456.519 z" id="boundary" inkscape:connector-curvature="0" />
	<path style="fill:none;stroke:red;stroke-width:1px;stroke-linecap:butt;stroke-linejoin:miter;stroke-opacity:1" d="M 472.623,456.519 464.571,472.623 z" id="boundary" inkscape:connector-curvature="0" />
	<path style="fill:none;stroke:red;stroke-width:1px;stroke-linecap:butt;stroke-linejoin:miter;stroke-opacity:1" d="M 464.571,472.623 456.519,488.727 z" id="boundary" inkscape:connector-curvature="0" />
	<path style="fill:none;stroke:red;stroke-width:1px;stroke-linecap:butt;stroke-linejoin:miter;stroke-opacity:1" d="M 456.519,488.727 445.247,501.61 z" id="boundary" inkscape:connector-curvature="0" />
	<path style="fill:none;stroke:red;stroke-width:1px;stroke-linecap:butt;stroke-linejoin:miter;stroke-opacity:1" d="M 445.247,501.61 432.364,512.883 z" id="boundary" inkscape:connector-curvature="0" />
	<path style="fill:none;stroke:red;stroke-width:1px;stroke-linecap:butt;stroke-linejoin:miter;stroke-opacity:1" d="M 432.364,512.883 417.87,520.935 z" id="boundary" inkscape:connector-curvature="0" />
	<path style="fill:none;stroke:red;stroke-width:1px;stroke-linecap:butt;stroke-linejoin:miter;stroke-opacity:1" d="M 417.87,520.935 403.377,528.987 z" id="boundary" inkscape:connector-curvature="0" />
	<path style="fill:none;stroke:red;stroke-width:1px;stroke-linecap:butt;stroke-linejoin:miter;stroke-opacity:1" d="M 403.377,528.987 390.494,540.26 z" id="boundary" inkscape:connector-curvature="0" />
	<path style="fill:none;stroke:red;stroke-width:1px;stroke-linecap:butt;stroke-linejoin:miter;stroke-opacity:1" d="M 390.494,540.26 374.39,545.091 z" id="boundary" inkscape:connector-curvature="0" />
	<path style="fill:none;stroke:red;stroke-width:1px;stroke-linecap:butt;stroke-linejoin:miter;stroke-opacity:1" d="M 374.39,545.091 359.896,553.143 z" id="boundary" inkscape:connector-curvature="0" />
	<path style="fill:none;stroke:red;stroke-width:1px;stroke-linecap:butt;stroke-linejoin:miter;stroke-opacity:1" d="M 359.896,553.143 343.792,561.195 z" id="boundary" inkscape:connector-curvature="0" />
	<path style="fill:none;stroke:red;stroke-width:1px;stroke-linecap:butt;stroke-linejoin:miter;stroke-opacity:1" d="M 343.792,561.195 327.688,561.195 z" id="boundary" inkscape:connector-curvature="0" />
	<path style="fill:none;stroke:red;stroke-width:1px;stroke-linecap:butt;stroke-linejoin:miter;stroke-opacity:1" d="M 327.688,561.195 313.195,569.247 z" id="boundary" inkscape:connector-curvature="0" />
	<path style="fill:none;stroke:red;stroke-width:1px;stroke-linecap:butt;stroke-linejoin:miter;stroke-opacity:1" d="M 313.195,569.247 297.091,569.247 z" id="boundary" inkscape:connector-curvature="0" />
	<path style="fill:none;stroke:red;stroke-width:1px;stroke-linecap:butt;stroke-linejoin:miter;stroke-opacity:1" d="M 297.091,569.247 280.987,569.247 z" id="boundary" inkscape:connector-curvature="0" />
	<path style="fill:none;stroke:red;stroke-width:1px;stroke-linecap:butt;stroke-linejoin:miter;stroke-opacity:1" d="M 280.987,569.247 264.883,569.247 z" id="boundary" inkscape:connector-curvature="0" />
	<path style="fill:none;stroke:red;stroke-width:1px;stroke-linecap:butt;stroke-linejoin:miter;stroke-opacity:1" d="M 264.883,569.247 250.39,561.195 z" id="boundary" inkscape:connector-curvature="0" />
	<path style="fill:none;stroke:red;stroke-width:1px;stroke-linecap:butt;stroke-linejoin:miter;stroke-opacity:1" d="M 250.39,561.195 234.286,561.195 z" id="boundary" inkscape:connector-curvature="0" />
	<path style="fill:none;stroke:red;stroke-width:1px;stroke-linecap:butt;stroke-linejoin:miter;stroke-opacity:1" d="M 234.286,561.195 223.013,548.312 z" id="boundary" inkscape:connector-curvature="0" />
	<path style="fill:none;stroke:red;stroke-width:1px;stroke-linecap:butt;stroke-linejoin:miter;stroke-opacity:1" d="M 223.013,548.312 210.13,537.039 z" id="boundary" inkscape:connector-curvature="0" />
	<path style="fill:none;stroke:red;stroke-width:1px;stroke-linecap:butt;stroke-linejoin:miter;stroke-opacity:1" d="M 210.13,537.039 198.857,524.156 z" id="boundary" inkscape:connector-curvature="0" />
	<path style="fill:none;stroke:red;stroke-width:1px;stroke-linecap:butt;stroke-linejoin:miter;stroke-opacity:1" d="M 198.857,524.156 185.974,512.883 z" id="boundary" inkscape:connector-curvature="0" />
	<path style="fill:none;stroke:red;stroke-width:1px;stroke-linecap:butt;stroke-linejoin:miter;stroke-opacity:1" d="M 185.974,512.883 181.143,496.779 z" id="boundary" inkscape:connector-curvature="0" />
	<path style="fill:none;stroke:red;stroke-width:1px;stroke-linecap:butt;stroke-linejoin:miter;stroke-opacity:1" d="M 181.143,496.779 168.26,485.506 z" id="boundary" inkscape:connector-curvature="0" />
	<path style="fill:none;stroke:red;stroke-width:1px;stroke-linecap:butt;stroke-linejoin:miter;stroke-opacity:1" d="M 168.26,485.506 158.597,472.623 z" id="boundary" inkscape:connector-curvature="0" />
	<path style="fill:none;stroke:red;stroke-width:1px;stroke-linecap:butt;stroke-linejoin:miter;stroke-opacity:1" d="M 158.597,472.623 148.935,459.74 z" id="boundary" inkscape:connector-curvature="0" />
	<path style="fill:none;stroke:red;stroke-width:1px;stroke-linecap:butt;stroke-linejoin:miter;stroke-opacity:1" d="M 148.935,459.74 137.662,446.857 z" id="boundary" inkscape:connector-curvature="0" />
	<path style="fill:none;stroke:red;stroke-width:1px;stroke-linecap:butt;stroke-linejoin:miter;stroke-opacity:1" d="M 137.662,446.857 124.779,435.584 z" id="boundary" inkscape:connector-curvature="0" />
	<path style="fill:none;stroke:red;stroke-width:1px;stroke-linecap:butt;stroke-linejoin:miter;stroke-opacity:1" d="M 124.779,435.584 113.506,422.701 z" id="boundary" inkscape:connector-curvature="0" />
	<path style="fill:none;stroke:red;stroke-width:1px;stroke-linecap:butt;stroke-linejoin:miter;stroke-opacity:1" d="M 113.506,422.701 97.4026,416.26 z" id="boundary" inkscape:connector-curvature="0" />
	<path style="fill:none;stroke:red;stroke-width:1px;stroke-linecap:butt;stroke-linejoin:miter;stroke-opacity:1" d="M 97.4026,416.26 90.961,400.156 z" id="boundary" inkscape:connector-curvature="0" />
	<path style="fill:none;stroke:red;stroke-width:1px;stroke-linecap:butt;stroke-linejoin:miter;stroke-opacity:1" d="M 90.961,400.156 76.4675,392.104 z" id="boundary" inkscape:connector-curvature="0" />
	<path style="fill:none;stroke:red;stroke-width:1px;stroke-linecap:butt;stroke-linejoin:miter;stroke-opacity:1" d="M 76.4675,392.104 63.5844,382.442 z" id="boundary" inkscape:connector-curvature="0" />
	<path style="fill:none;stroke:red;stroke-width:1px;stroke-linecap:butt;stroke-linejoin:miter;stroke-opacity:1" d="M 63.5844,382.442 52.3117,369.558 z" id="boundary" inkscape:connector-curvature="0" />
	<path style="fill:none;stroke:red;stroke-width:1px;stroke-linecap:butt;stroke-linejoin:miter;stroke-opacity:1" d="M 52.3117,369.558 44.2597,355.065 z" id="boundary" inkscape:connector-curvature="0" />
	<path style="fill:none;stroke:red;stroke-width:1px;stroke-linecap:butt;stroke-linejoin:miter;stroke-opacity:1" d="M 44.2597,355.065 32.987,342.182 z" id="boundary" inkscape:connector-curvature="0" />
	<path style="fill:none;stroke:red;stroke-width:1px;stroke-linecap:butt;stroke-linejoin:miter;stroke-opacity:1" d="M 32.987,342.182 24.9351,327.688 z" id="boundary" inkscape:connector-curvature="0" />
	<path style="fill:none;stroke:red;stroke-width:1px;stroke-linecap:butt;stroke-linejoin:miter;stroke-opacity:1" d="M 24.9351,327.688 20.1039,311.584 z" id="boundary" inkscape:connector-curvature="0" />
	<path style="fill:none;stroke:red;stroke-width:1px;stroke-linecap:butt;stroke-linejoin:miter;stroke-opacity:1" d="M 20.1039,311.584 12.0519,297.091 z" id="boundary" inkscape:connector-curvature="0" />
	<path style="fill:none;stroke:red;stroke-width:1px;stroke-linecap:butt;stroke-linejoin:miter;stroke-opacity:1" d="M 12.0519,297.091 4,282.597 z" id="boundary" inkscape:connector-curvature="0" />
	<path style="fill:none;stroke:red;stroke-width:1px;stroke-linecap:butt;stroke-linejoin:miter;stroke-opacity:1" d="M 4,282.597 4,266.494 z" id="boundary" inkscape:connector-curvature="0" />
	<path style="fill:none;stroke:red;stroke-width:1px;stroke-linecap:butt;stroke-linejoin:miter;stroke-opacity:1" d="M 4,266.494 12.0519,250.39 z" id="boundary" inkscape:connector-curvature="0" />
	<path style="fill:none;stroke:red;stroke-width:1px;stroke-linecap:butt;stroke-linejoin:miter;stroke-opacity:1" d="M 12.0519,250.39 20.1039,234.286 z" id="boundary" inkscape:connector-curvature="0" />
	<path style="fill:none;stroke:red;stroke-width:1px;stroke-linecap:butt;stroke-linejoin:miter;stroke-opacity:1" d="M 20.1039,234.286 32.987,221.403 z" id="boundary" inkscape:connector-curvature="0" />
	<path style="fill:none;stroke:red;stroke-width:1px;stroke-linecap:butt;stroke-linejoin:miter;stroke-opacity:1" d="M 32.987,221.403 41.039,205.299 z" id="boundary" inkscape:connector-curvature="0" />
	<path style="fill:none;stroke:red;stroke-width:1px;stroke-linecap:butt;stroke-linejoin:miter;stroke-opacity:1" d="M 41.039,205.299 53.9221,192.416 z" id="boundary" inkscape:connector-curvature="0" />
	<path style="fill:none;stroke:red;stroke-width:1px;stroke-linecap:butt;stroke-linejoin:miter;stroke-opacity:1" d="M 53.9221,192.416 66.8052,181.143 z" id="boundary" inkscape:connector-curvature="0" />
	<path style="fill:none;stroke:red;stroke-width:1px;stroke-linecap:butt;stroke-linejoin:miter;stroke-opacity:1" d="M 66.8052,181.143 73.2468,165.039 z" id="boundary" inkscape:connector-curvature="0" />
	<path style="fill:none;stroke:red;stroke-width:1px;stroke-linecap:butt;stroke-linejoin:miter;stroke-opacity:1" d="M 73.2468,165.039 89.3506,156.987 z" id="boundary" inkscape:connector-curvature="0" />
	<path style="fill:none;stroke:red;stroke-width:1px;stroke-linecap:butt;stroke-linejoin:miter;stroke-opacity:1" d="M 89.3506,156.987 103.844,148.935 z" id="boundary" inkscape:connector-curvature="0" />
	<path style="fill:none;stroke:red;stroke-width:1px;stroke-linecap:butt;stroke-linejoin:miter;stroke-opacity:1" d="M 103.844,148.935 116.727,137.662 z" id="boundary" inkscape:connector-curvature="0" />
	<path style="fill:none;stroke:red;stroke-width:1px;stroke-linecap:butt;stroke-linejoin:miter;stroke-opacity:1" d="M 116.727,137.662 129.61,124.779 z" id="boundary" inkscape:connector-curvature="0" />
	<path style="fill:none;stroke:red;stroke-width:1px;stroke-linecap:butt;stroke-linejoin:miter;stroke-opacity:1" d="M 129.61,124.779 142.494,111.896 z" id="boundary" inkscape:connector-curvature="0" />
	<path style="fill:none;stroke:red;stroke-width:1px;stroke-linecap:butt;stroke-linejoin:miter;stroke-opacity:1" d="M 142.494,111.896 155.377,100.623 z" id="boundary" inkscape:connector-curvature="0" />
	<path style="fill:none;stroke:red;stroke-width:1px;stroke-linecap:butt;stroke-linejoin:miter;stroke-opacity:1" d="M 155.377,100.623 165.039,81.2987 z" id="boundary" inkscape:connector-curvature="0" />
	<path style="fill:none;stroke:red;stroke-width:1px;stroke-linecap:butt;stroke-linejoin:miter;stroke-opacity:1" d="M 165.039,81.2987 181.143,73.2468 z" id="boundary" inkscape:connector-curvature="0" />
	<path style="fill:none;stroke:red;stroke-width:1px;stroke-linecap:butt;stroke-linejoin:miter;stroke-opacity:1" d="M 181.143,73.2468 189.195,57.1429 z" id="boundary" inkscape:connector-curvature="0" />
	<path style="fill:none;stroke:red;stroke-width:1px;stroke-linecap:butt;stroke-linejoin:miter;stroke-opacity:1" d="M 189.195,57.1429 205.299,49.0909 z" id="boundary" inkscape:connector-curvature="0" />
	<path style="fill:none;stroke:red;stroke-width:1px;stroke-linecap:butt;stroke-linejoin:miter;stroke-opacity:1" d="M 205.299,49.0909 218.182,36.2078 z" id="boundary" inkscape:connector-curvature="0" />
	<path style="fill:none;stroke:red;stroke-width:1px;stroke-linecap:butt;stroke-linejoin:miter;stroke-opacity:1" d="M 218.182,36.2078 234.286,28.1558 z" id="boundary" inkscape:connector-curvature="0" />
	<path style="fill:none;stroke:red;stroke-width:1px;stroke-linecap:butt;stroke-linejoin:miter;stroke-opacity:1" d="M 234.286,28.1558 248.779,20.1039 z" id="boundary" inkscape:connector-curvature="0" />
	<path style="fill:none;stroke:red;stroke-width:1px;stroke-linecap:butt;stroke-linejoin:miter;stroke-opacity:1" d="M 248.779,20.1039 264.883,13.6623 z" id="boundary" inkscape:connector-curvature="0" />
	<path style="fill:none;stroke:red;stroke-width:1px;stroke-linecap:butt;stroke-linejoin:miter;stroke-opacity:1" d="M 264.883,13.6623 277.766,4 z" id="boundary" inkscape:connector-curvature="0" />
	<path style="fill:none;stroke:red;stroke-width:1px;stroke-linecap:butt;stroke-linejoin:miter;stroke-opacity:1" d="M 277.766,4 293.87,4 z" id="boundary" inkscape:connector-curvature="0" />
	<path style="fill:none;stroke:red;stroke-width:1px;stroke-linecap:butt;stroke-linejoin:miter;stroke-opacity:1" d="M 293.87,4 309.974,4 z" id="boundary" inkscape:connector-curvature="0" />
	<path style="fill:none;stroke:red;stroke-width:1px;stroke-linecap:butt;stroke-linejoin:miter;stroke-opacity:1" d="M 309.974,4 326.078,4 z" id="boundary" inkscape:connector-curvature="0" />
	<path style="fill:none;stroke:red;stroke-width:1px;stroke-linecap:butt;stroke-linejoin:miter;stroke-opacity:1" d="M 326.078,4 342.182,7.22078 z" id="boundary" inkscape:connector-curvature="0" />
	<path style="fill:none;stroke:red;stroke-width:1px;stroke-linecap:butt;stroke-linejoin:miter;stroke-opacity:1" d="M 342.182,7.22078 351.844,20.1039 z" id="boundary" inkscape:connector-curvature="0" />
	<path style="fill:none;stroke:red;stroke-width:1px;stroke-linecap:butt;stroke-linejoin:miter;stroke-opacity:1" d="M 351.844,20.1039 367.948,20.1039 z" id="boundary" inkscape:connector-curvature="0" />
	<path style="fill:none;stroke:red;stroke-width:1px;stroke-linecap:butt;stroke-linejoin:miter;stroke-opacity:1" d="M 367.948,20.1039 380.831,29.7662 z" id="boundary" inkscape:connector-curvature="0" />
	<path style="fill:none;stroke:red;stroke-width:1px;stroke-linecap:butt;stroke-linejoin:miter;stroke-opacity:1" d="M 380.831,29.7662 392.104,42.6494 z" id="boundary" inkscape:connector-curvature="0" />
	<path style="fill:none;stroke:red;stroke-width:1px;stroke-linecap:butt;stroke-linejoin:miter;stroke-opacity:1" d="M 392.104,42.6494 404.987,52.3117 z" id="boundary" inkscape:connector-curvature="0" />
	<path style="fill:none;stroke:red;stroke-width:1px;stroke-linecap:butt;stroke-linejoin:miter;stroke-opacity:1" d="M 404.987,52.3117 419.481,60.3636 z" id="boundary" inkscape:connector-curvature="0" />
	<path style="fill:none;stroke:red;stroke-width:1px;stroke-linecap:butt;stroke-linejoin:miter;stroke-opacity:1" d="M 419.481,60.3636 432.364,70.026 z" id="boundary" inkscape:connector-curvature="0" />
	<path style="fill:none;stroke:red;stroke-width:1px;stroke-linecap:butt;stroke-linejoin:miter;stroke-opacity:1" d="M 432.364,70.026 445.247,79.6883 z" id="boundary" inkscape:connector-curvature="0" />
	<path style="fill:none;stroke:red;stroke-width:1px;stroke-linecap:butt;stroke-linejoin:miter;stroke-opacity:1" d="M 445.247,79.6883 453.299,94.1818 z" id="boundary" inkscape:connector-curvature="0" />
	<path style="fill:none;stroke:red;stroke-width:1px;stroke-linecap:butt;stroke-linejoin:miter;stroke-opacity:1" d="M 453.299,94.1818 461.351,108.675 z" id="boundary" inkscape:connector-curvature="0" />
	<path style="fill:none;stroke:red;stroke-width:1px;stroke-linecap:butt;stroke-linejoin:miter;stroke-opacity:1" d="M 461.351,108.675 472.623,121.558 z" id="boundary" inkscape:connector-curvature="0" />
	<path style="fill:none;stroke:red;stroke-width:1px;stroke-linecap:butt;stroke-linejoin:miter;stroke-opacity:1" d="M 472.623,121.558 480.675,136.052 z" id="boundary" inkscape:connector-curvature="0" />
	<path style="fill:none;stroke:red;stroke-width:1px;stroke-linecap:butt;stroke-linejoin:miter;stroke-opacity:1" d="M 480.675,136.052 480.675,152.156 z" id="boundary" inkscape:connector-curvature="0" />
	<path style="fill:none;stroke:red;stroke-width:1px;stroke-linecap:butt;stroke-linejoin:miter;stroke-opacity:1" d="M 480.675,152.156 485.506,168.26 z" id="boundary" inkscape:connector-curvature="0" />
	<path style="fill:none;stroke:red;stroke-width:1px;stroke-linecap:butt;stroke-linejoin:miter;stroke-opacity:1" d="M 485.506,168.26 496.779,181.143 z" id="boundary" inkscape:connector-curvature="0" />
	<path style="fill:none;stroke:red;stroke-width:1px;stroke-linecap:butt;stroke-linejoin:miter;stroke-opacity:1" d="M 496.779,181.143 511.273,189.195 z" id="boundary" inkscape:connector-curvature="0" />
	<path style="fill:none;stroke:red;stroke-width:1px;stroke-linecap:butt;stroke-linejoin:miter;stroke-opacity:1" d="M 511.273,189.195 527.377,189.195 z" id="boundary" inkscape:connector-curvature="0" />
	<path style="fill:none;stroke:red;stroke-width:1px;stroke-linecap:butt;stroke-linejoin:miter;stroke-opacity:1" d="M 527.377,189.195 543.481,189.195 z" id="boundary" inkscape:connector-curvature="0" />
	<path style="fill:none;stroke:red;stroke-width:1px;stroke-linecap:butt;stroke-linejoin:miter;stroke-opacity:1" d="M 543.481,189.195 557.974,197.247 z" id="boundary" inkscape:connector-curvature="0" />
	<path style="fill:none;stroke:red;stroke-width:1px;stroke-linecap:butt;stroke-linejoin:miter;stroke-opacity:1" d="M 557.974,197.247 574.078,197.247 z" id="boundary" inkscape:connector-curvature="0" />
	<path style="fill:none;stroke:red;stroke-width:1px;stroke-linecap:butt;stroke-linejoin:miter;stroke-opacity:1" d="M 574.078,197.247 588.571,205.299 z" id="boundary" inkscape:connector-curvature="0" />
	<path style="fill:none;stroke:red;stroke-width:1px;stroke-linecap:butt;stroke-linejoin:miter;stroke-opacity:1" d="M 588.571,205.299 593.403,221.403 z" id="boundary" inkscape:connector-curvature="0" />
	<path style="fill:none;stroke:red;stroke-width:1px;stroke-linecap:butt;stroke-linejoin:miter;stroke-opacity:1" d="M 593.403,221.403 601.455,235.896 z" id="boundary" inkscape:connector-curvature="0" />
	<path style="fill:none;stroke:red;stroke-width:1px;stroke-linecap:butt;stroke-linejoin:miter;stroke-opacity:1" d="M 601.455,235.896 614.338,247.169 z" id="boundary" inkscape:connector-curvature="0" />
	<path style="fill:none;stroke:red;stroke-width:1px;stroke-linecap:butt;stroke-linejoin:miter;stroke-opacity:1" d="M 614.338,247.169 630.442,253.61 z" id="boundary" inkscape:connector-curvature="0" />
	<path style="fill:none;stroke:red;stroke-width:1px;stroke-linecap:butt;stroke-linejoin:miter;stroke-opacity:1" d="M 630.442,253.61 646.545,253.61 z" id="boundary" inkscape:connector-curvature="0" />
	<path style="fill:none;stroke:red;stroke-width:1px;stroke-linecap:butt;stroke-linejoin:miter;stroke-opacity:1" d="M 646.545,253.61 662.649,253.61 z" id="boundary" inkscape:connector-curvature="0" />
	<path style="fill:none;stroke:red;stroke-width:1px;stroke-linecap:butt;stroke-linejoin:miter;stroke-opacity:1" d="M 662.649,253.61 678.753,253.61 z" id="boundary" inkscape:connector-curvature="0" />
	<path style="fill:none;stroke:red;stroke-width:1px;stroke-linecap:butt;stroke-linejoin:miter;stroke-opacity:1" d="M 678.753,253.61 694.857,253.61 z" id="boundary" inkscape:connector-curvature="0" />
	<path style="fill:none;stroke:red;stroke-width:1px;stroke-linecap:butt;stroke-linejoin:miter;stroke-opacity:1" d="M 694.857,253.61 710.961,253.61 z" id="boundary" inkscape:connector-curvature="0" />
	<path style="fill:none;stroke:red;stroke-width:1px;stroke-linecap:butt;stroke-linejoin:miter;stroke-opacity:1" d="M 710.961,253.61 727.065,253.61 z" id="boundary" inkscape:connector-curvature="0" />
	<path style="fill:none;stroke:red;stroke-width:1px;stroke-linecap:butt;stroke-linejoin:miter;stroke-opacity:1" d="M 727.065,253.61 743.169,253.61 z" id="boundary" inkscape:connector-curvature="0" />
	<path style="fill:none;stroke:red;stroke-width:1px;stroke-linecap:butt;stroke-linejoin:miter;stroke-opacity:1" d="M 743.169,253.61 759.273,253.61 z" id="boundary" inkscape:connector-curvature="0" />
	<path style="fill:none;stroke:red;stroke-width:1px;stroke-linecap:butt;stroke-linejoin:miter;stroke-opacity:1" d="M 759.273,253.61 775.377,253.61 z" id="boundary" inkscape:connector-curvature="0" />
	<path style="fill:none;stroke:red;stroke-width:1px;stroke-linecap:butt;stroke-linejoin:miter;stroke-opacity:1" d="M 775.377,253.61 791.481,255.221 z" id="boundary" inkscape:connector-curvature="0" />
	<path style="fill:none;stroke:red;stroke-width:1px;stroke-linecap:butt;stroke-linejoin:miter;stroke-opacity:1" d="M 791.481,255.221 807.584,261.662 z" id="boundary" inkscape:connector-curvature="0" />
	<path style="fill:none;stroke:red;stroke-width:1px;stroke-linecap:butt;stroke-linejoin:miter;stroke-opacity:1" d="M 807.584,261.662 823.688,261.662 z" id="boundary" inkscape:connector-curvature="0" />
	<path style="fill:none;stroke:red;stroke-width:1px;stroke-linecap:butt;stroke-linejoin:miter;stroke-opacity:1" d="M 823.688,261.662 839.792,261.662 z" id="boundary" inkscape:connector-curvature="0" />
	<path style="fill:none;stroke:red;stroke-width:1px;stroke-linecap:butt;stroke-linejoin:miter;stroke-opacity:1" d="M 839.792,261.662 855.896,261.662 z" id="boundary" inkscape:connector-curvature="0" />
	<path style="fill:none;stroke:red;stroke-width:1px;stroke-linecap:butt;stroke-linejoin:miter;stroke-opacity:1" d="M 855.896,261.662 872,261.662 z" id="boundary" inkscape:connector-curvature="0" />
	<path style="fill:none;stroke:red;stroke-width:1px;stroke-linecap:butt;stroke-linejoin:miter;stroke-opacity:1" d="M 872,261.662 886.494,253.61 z" id="boundary" inkscape:connector-curvature="0" />
	<path style="fill:none;stroke:red;stroke-width:1px;stroke-linecap:butt;stroke-linejoin:miter;stroke-opacity:1" d="M 886.494,253.61 902.597,253.61 z" id="boundary" inkscape:connector-curvature="0" />
	<path style="fill:none;stroke:red;stroke-width:1px;stroke-linecap:butt;stroke-linejoin:miter;stroke-opacity:1" d="M 902.597,253.61 918.701,253.61 z" id="boundary" inkscape:connector-curvature="0" />
	<path style="fill:none;stroke:red;stroke-width:1px;stroke-linecap:butt;stroke-linejoin:miter;stroke-opacity:1" d="M 918.701,253.61 934.805,245.558 z" id="boundary" inkscape:connector-curvature="0" />
	<path style="fill:none;stroke:red;stroke-width:1px;stroke-linecap:butt;stroke-linejoin:miter;stroke-opacity:1" d="M 934.805,245.558 949.299,253.61 z" id="boundary" inkscape:connector-curvature="0" />
	<path style="fill:none;stroke:red;stroke-width:1px;stroke-linecap:butt;stroke-linejoin:miter;stroke-opacity:1" d="M 949.299,253.61 965.403,253.61 z" id="boundary" inkscape:connector-curvature="0" />
	<path style="fill:none;stroke:red;stroke-width:1px;stroke-linecap:butt;stroke-linejoin:miter;stroke-opacity:1" d="M 965.403,253.61 981.506,253.61 z" id="boundary" inkscape:connector-curvature="0" />
	<circle cx="4" cy="266.494" r="4" fill="#0" id="circle0"/>
	<circle cx="4" cy="282.597" r="4" fill="#0" id="circle1"/>
	<circle cx="12.0519" cy="250.39" r="4" fill="#0" id="circle2"/>
	<circle cx="12.0519" cy="297.091" r="4" fill="#0" id="circle3"/>
	<circle cx="20.1039" cy="234.286" r="4" fill="#0" id="circle4"/>
	<circle cx="20.1039" cy="311.584" r="4" fill="#0" id="circle5"/>
	<circle cx="24.9351" cy="327.688" r="4" fill="#0" id="circle6"/>
	<circle cx="32.987" cy="221.403" r="4" fill="#0" id="circle7"/>
	<circle cx="32.987" cy="342.182" r="4" fill="#0" id="circle8"/>
	<circle cx="41.039" cy="205.299" r="4" fill="#0" id="circle9"/>
	<circle cx="44.2597" cy="355.065" r="4" fill="#0" id="circle10"/>
	<circle cx="52.3117" cy="369.558" r="4" fill="#0" id="circle11"/>
	<circle cx="53.9221" cy="192.416" r="4" fill="#0" id="circle12"/>
	<circle cx="63.5844" cy="382.442" r="4" fill="#0" id="circle13"/>
	<circle cx="66.8052" cy="181.143" r="4" fill="#0" id="circle14"/>
	<circle cx="73.2468" cy="165.039" r="4" fill="#0" id="circle15"/>
	<circle cx="76.4675" cy="392.104" r="4" fill="#0" id="circle16"/>
	<circle cx="89.3506" cy="156.987" r="4" fill="#0" id="circle17"/>
	<circle cx="90.961" cy="400.156" r="4" fill="#0" id="circle18"/>
	<circle cx="97.4026" cy="416.26" r="4" fill="#0" id="circle19"/>
	<circle cx="103.844" cy="148.935" r="4" fill="#0" id="circle20"/>
	<circle cx="113.506" cy="422.701" r="4" fill="#0" id="circle21"/>
	<circle cx="116.727" cy="137.662" r="4" fill="#0" id="circle22"/>
	<circle cx="124.779" cy="435.584" r="4" fill="#0" id="circle23"/>
	<circle cx="129.61" cy="124.779" r="4" fill="#0" id="circle24"/>
	<circle cx="137.662" cy="446.857" r="4" fill="#0" id="circle25"/>
	<circle cx="142.494" cy="111.896" r="4" fill="#0" id="circle26"/>
	<circle cx="148.935" cy="459.74" r="4" fill="#0" id="circle27"/>
	<circle cx="155.377" cy="100.623" r="4" fill="#0" id="circle28"/>
	<circle cx="158.597" cy="472.623" r="4" fill="#0" id="circle29"/>
	<circle cx="165.039" cy="81.2987" r="4" fill="#0" id="circle30"/>
	<circle cx="168.26" cy="485.506" r="4" fill="#0" id="circle31"/>
	<circle cx="181.143" cy="73.2468" r="4" fill="#0" id="circle32"/>
	<circle cx="181.143" cy="496.779" r="4" fill="#0" id="circle33"/>
	<circle cx="185.974" cy="512.883" r="4" fill="#0" id="circle34"/>
	<circle cx="189.195" cy="57.1429" r="4" fill="#0" id="circle35"/>
	<circle cx="198.857" cy="524.156" r="4" fill="#0" id="circle36"/>
	<circle cx="205.299" cy="49.0909" r="4" fill="#0" id="circle37"/>
	<circle cx="210.13" cy="537.039" r="4" fill="#0" id="circle38"/>
	<circle cx="218.182" cy="36.2078" r="4" fill="#0" id="circle39"/>
	<circle cx="223.013" cy="548.312" r="4" fill="#0" id="circle40"/>
	<circle cx="234.286" cy="28.1558" r="4" fill="#0" id="circle41"/>
	<circle cx="234.286" cy="561.195" r="4" fill="#0" id="circle42"/>
	<circle cx="248.779" cy="20.1039" r="4" fill="#0" id="circle43"/>
	<circle cx="250.39" cy="561.195" r="4" fill="#0" id="circle44"/>
	<circle cx="264.883" cy="13.6623" r="4" fill="#0" id="circle45"/>
	<circle cx="264.883" cy="569.247" r="4" fill="#0" id="circle46"/>
	<circle cx="277.766" cy="4" r="4" fill="#0" id="circle47"/>
	<circle cx="280.987" cy="569.247" r="4" fill="#0" id="circle48"/>
	<circle cx="293.87" cy="4" r="4" fill="#0" id="circle49"/>
	<circle cx="297.091" cy="569.247" r="4" fill="#0" id="circle50"/>
	<circle cx="309.974" cy="4" r="4" fill="#0" id="circle51"/>
	<circle cx="313.195" cy="569.247" r="4" fill="#0" id="circle52"/>
	<circle cx="326.078" cy="4" r="4" fill="#0" id="circle53"/>
	<circle cx="327.688" cy="561.195" r="4" fill="#0" id="circle54"/>
	<circle cx="342.182" cy="7.22078" r="4" fill="#0" id="circle55"/>
	<circle cx="343.792" cy="561.195" r="4" fill="#0" id="circle56"/>
	<circle cx="351.844" cy="20.1039" r="4" fill="#0" id="circle57"/>
	<circle cx="359.896" cy="553.143" r="4" fill="#0" id="circle58"/>
	<circle cx="367.948" cy="20.1039" r="4" fill="#0" id="circle59"/>
	<circle cx="374.39" cy="545.091" r="4" fill="#0" id="circle60"/>
	<circle cx="380.831" cy="29.7662" r="4" fill="#0" id="circle61"/>
	<circle cx="390.494" cy="540.26" r="4" fill="#0" id="circle62"/>
	<circle cx="392.104" cy="42.6494" r="4" fill="#0" id="circle63"/>
	<circle cx="403.377" cy="528.987" r="4" fill="#0" id="circle64"/>
	<circle cx="404.987" cy="52.3117" r="4" fill="#0" id="circle65"/>
	<circle cx="417.87" cy="520.935" r="4" fill="#0" id="circle66"/>
	<circle cx="419.481" cy="60.3636" r="4" fill="#0" id="circle67"/>
	<circle cx="432.364" cy="70.026" r="4" fill="#0" id="circle68"/>
	<circle cx="432.364" cy="512.883" r="4" fill="#0" id="circle69"/>
	<circle cx="445.247" cy="79.6883" r="4" fill="#0" id="circle70"/>
	<circle cx="445.247" cy="501.61" r="4" fill="#0" id="circle71"/>
	<circle cx="453.299" cy="94.1818" r="4" fill="#0" id="circle72"/>
	<circle cx="456.519" cy="488.727" r="4" fill="#0" id="circle73"/>
	<circle cx="461.351" cy="108.675" r="4" fill="#0" id="circle74"/>
	<circle cx="464.571" cy="472.623" r="4" fill="#0" id="circle75"/>
	<circle cx="472.623" cy="121.558" r="4" fill="#0" id="circle76"/>
	<circle cx="472.623" cy="456.519" r="4" fill="#0" id="circle77"/>
	<circle cx="480.675" cy="136.052" r="4" fill="#0" id="circle78"/>
	<circle cx="480.675" cy="152.156" r="4" fill="#0" id="circle79"/>
	<circle cx="480.675" cy="424.312" r="4" fill="#0" id="circle80"/>
	<circle cx="480.675" cy="440.416" r="4" fill="#0" id="circle81"/>
	<circle cx="485.506" cy="168.26" r="4" fill="#0" id="circle82"/>
	<circle cx="493.558" cy="413.039" r="4" fill="#0" id="circle83"/>
	<circle cx="496.779" cy="181.143" r="4" fill="#0" id="circle84"/>
	<circle cx="503.221" cy="400.156" r="4" fill="#0" id="circle85"/>
	<circle cx="511.273" cy="189.195" r="4" fill="#0" id="circle86"/>
	<circle cx="519.325" cy="400.156" r="4" fill="#0" id="circle87"/>
	<circle cx="527.377" cy="189.195" r="4" fill="#0" id="circle88"/>
	<circle cx="535.429" cy="400.156" r="4" fill="#0" id="circle89"/>
	<circle cx="543.481" cy="189.195" r="4" fill="#0" id="circle90"/>
	<circle cx="549.922" cy="392.104" r="4" fill="#0" id="circle91"/>
	<circle cx="557.974" cy="197.247" r="4" fill="#0" id="circle92"/>
	<circle cx="566.026" cy="388.883" r="4" fill="#0" id="circle93"/>
	<circle cx="574.078" cy="197.247" r="4" fill="#0" id="circle94"/>
	<circle cx="582.13" cy="380.831" r="4" fill="#0" id="circle95"/>
	<circle cx="588.571" cy="205.299" r="4" fill="#0" id="circle96"/>
	<circle cx="593.403" cy="221.403" r="4" fill="#0" id="circle97"/>
	<circle cx="593.403" cy="335.74" r="4" fill="#0" id="circle98"/>
	<circle cx="593.403" cy="351.844" r="4" fill="#0" id="circle99"/>
	<circle cx="593.403" cy="367.948" r="4" fill="#0" id="circle100"/>
	<circle cx="601.455" cy="235.896" r="4" fill="#0" id="circle101"/>
	<circle cx="606.286" cy="324.468" r="4" fill="#0" id="circle102"/>
	<circle cx="614.338" cy="247.169" r="4" fill="#0" id="circle103"/>
	<circle cx="622.39" cy="319.636" r="4" fill="#0" id="circle104"/>
	<circle cx="630.442" cy="253.61" r="4" fill="#0" id="circle105"/>
	<circle cx="636.883" cy="311.584" r="4" fill="#0" id="circle106"/>
	<circle cx="646.545" cy="253.61" r="4" fill="#0" id="circle107"/>
	<circle cx="652.987" cy="311.584" r="4" fill="#0" id="circle108"/>
	<circle cx="662.649" cy="253.61" r="4" fill="#0" id="circle109"/>
	<circle cx="669.091" cy="311.584" r="4" fill="#0" id="circle110"/>
	<circle cx="678.753" cy="253.61" r="4" fill="#0" id="circle111"/>
	<circle cx="683.584" cy="303.532" r="4" fill="#0" id="circle112"/>
	<circle cx="694.857" cy="253.61" r="4" fill="#0" id="circle113"/>
	<circle cx="699.688" cy="303.532" r="4" fill="#0" id="circle114"/>
	<circle cx="710.961" cy="253.61" r="4" fill="#0" id="circle115"/>
	<circle cx="715.792" cy="303.532" r="4" fill="#0" id="circle116"/>
	<circle cx="727.065" cy="253.61" r="4" fill="#0" id="circle117"/>
	<circle cx="731.896" cy="303.532" r="4" fill="#0" id="circle118"/>
	<circle cx="743.169" cy="253.61" r="4" fill="#0" id="circle119"/>
	<circle cx="746.39" cy="295.481" r="4" fill="#0" id="circle120"/>
	<circle cx="759.273" cy="253.61" r="4" fill="#0" id="circle121"/>
	<circle cx="762.494" cy="295.481" r="4" fill="#0" id="circle122"/>
	<circle cx="775.377" cy="253.61" r="4" fill="#0" id="circle123"/>
	<circle cx="778.597" cy="295.481" r="4" fill="#0" id="circle124"/>
	<circle cx="791.481" cy="255.221" r="4" fill="#0" id="circle125"/>
	<circle cx="794.701" cy="295.481" r="4" fill="#0" id="circle126"/>
	<circle cx="807.584" cy="261.662" r="4" fill="#0" id="circle127"/>
	<circle cx="810.805" cy="295.481" r="4" fill="#0" id="circle128"/>
	<circle cx="823.688" cy="261.662" r="4" fill="#0" id="circle129"/>
	<circle cx="826.909" cy="295.481" r="4" fill="#0" id="circle130"/>
	<circle cx="839.792" cy="261.662" r="4" fill="#0" id="circle131"/>
	<circle cx="841.403" cy="287.429" r="4" fill="#0" id="circle132"/>
	<circle cx="855.896" cy="261.662" r="4" fill="#0" id="circle133"/>
	<circle cx="857.506" cy="287.429" r="4" fill="#0" id="circle134"/>
	<circle cx="872" cy="261.662" r="4" fill="#0" id="circle135"/>
	<circle cx="873.61" cy="287.429" r="4" fill="#0" id="circle136"/>
	<circle cx="886.494" cy="253.61" r="4" fill="#0" id="circle137"/>
	<circle cx="888.104" cy="279.377" r="4" fill="#0" id="circle138"/>
	<circle cx="902.597" cy="253.61" r="4" fill="#0" id="circle139"/>
	<circle cx="904.208" cy="279.377" r="4" fill="#0" id="circle140"/>
	<circle cx="918.701" cy="253.61" r="4" fill="#0" id="circle141"/>
	<circle cx="920.312" cy="279.377" r="4" fill="#0" id="circle142"/>
	<circle cx="934.805" cy="245.558" r="4" fill="#0" id="circle143"/>
	<circle cx="936.416" cy="279.377" r="4" fill="#0" id="circle144"/>
	<circle cx="949.299" cy="253.61" r="4" fill="#0" id="circle145"/>
	<circle cx="952.519" cy="279.377" r="4" fill="#0" id="circle146"/>
	<circle cx="965.403" cy="253.61" r="4" fill="#0" id="circle147"/>
	<circle cx="968.623" cy="279.377" r="4" fill="#0" id="circle148"/>
	<circle cx="981.506" cy="253.61" r="4" fill="#0" id="circle149"/>
	<circle cx="984.727" cy="276.156" r="4" fill="#0" id="circle150"/>
	<circle cx="996" cy="261.662" r="4" fill="#0" id="circle151"/>
	</g>
</svg>