<?xml version="1.0" encoding="UTF-8" standalone="no"?>
<!-- Created with CurveBenchmark -->
<svg
	xmlns:dc="http://purl.org/dc/elements/1.1/"
	xmlns:cc="http://creativecommons.org/ns#"
	xmlns:rdf="http://www.w3.org/1999/02/22-rdf-syntax-ns#"
	xmlns:svg="http://www.w3.org/2000/svg"
	xmlns="http://www.w3.org/2000/svg"
	xmlns:sodipodi="http://sodipodi.sourceforge.net/DTD/sodipodi-0.dtd"
	xmlns:inkscape="http://www.inkscape.org/namespaces/inkscape"
	width="1000"
	height="1000"
	id="svg2"
	version="1.1"
	sodipodi:docname="manifold/connect2d-key20.png.txt">
<defs
	id="defs4" />
<metadata
	id="metadata7">
	<rdf:RDF>
		<cc:Work
			rdf:about="">
			<dc:format>image/svg+xml</dc:format>
			<dc:type
				rdf:resource="http://purl.org/dc/dcmitype/StillImage" />
			<dc:title></dc:title>
		</cc:Work>
	</rdf:RDF>
</metadata>
<g
	inkscape:label="Layer 1"
	inkscape:groupmode="layer"
	id="layer1">
	<path style="fill:none;stroke:red;stroke-width:1px;stroke-linecap:butt;stroke-linejoin:miter;stroke-opacity:1" d="M 996,239.741 996,258.601 z" id="boundary" inkscape:connector-curvature="0" />
	<path style="fill:none;stroke:red;stroke-width:1px;stroke-linecap:butt;stroke-linejoin:miter;stroke-opacity:1" d="M 996,258.601 982.798,275.574 z" id="boundary" inkscape:connector-curvature="0" />
	<path style="fill:none;stroke:red;stroke-width:1px;stroke-linecap:butt;stroke-linejoin:miter;stroke-opacity:1" d="M 982.798,275.574 963.939,285.004 z" id="boundary" inkscape:connector-curvature="0" />
	<path style="fill:none;stroke:red;stroke-width:1px;stroke-linecap:butt;stroke-linejoin:miter;stroke-opacity:1" d="M 963.939,285.004 948.852,298.205 z" id="boundary" inkscape:connector-curvature="0" />
	<path style="fill:none;stroke:red;stroke-width:1px;stroke-linecap:butt;stroke-linejoin:miter;stroke-opacity:1" d="M 948.852,298.205 929.992,307.635 z" id="boundary" inkscape:connector-curvature="0" />
	<path style="fill:none;stroke:red;stroke-width:1px;stroke-linecap:butt;stroke-linejoin:miter;stroke-opacity:1" d="M 929.992,307.635 911.133,317.065 z" id="boundary" inkscape:connector-curvature="0" />
	<path style="fill:none;stroke:red;stroke-width:1px;stroke-linecap:butt;stroke-linejoin:miter;stroke-opacity:1" d="M 911.133,317.065 892.274,311.407 z" id="boundary" inkscape:connector-curvature="0" />
	<path style="fill:none;stroke:red;stroke-width:1px;stroke-linecap:butt;stroke-linejoin:miter;stroke-opacity:1" d="M 892.274,311.407 873.414,307.635 z" id="boundary" inkscape:connector-curvature="0" />
	<path style="fill:none;stroke:red;stroke-width:1px;stroke-linecap:butt;stroke-linejoin:miter;stroke-opacity:1" d="M 873.414,307.635 854.555,301.977 z" id="boundary" inkscape:connector-curvature="0" />
	<path style="fill:none;stroke:red;stroke-width:1px;stroke-linecap:butt;stroke-linejoin:miter;stroke-opacity:1" d="M 854.555,301.977 835.696,298.205 z" id="boundary" inkscape:connector-curvature="0" />
	<path style="fill:none;stroke:red;stroke-width:1px;stroke-linecap:butt;stroke-linejoin:miter;stroke-opacity:1" d="M 835.696,298.205 816.837,298.205 z" id="boundary" inkscape:connector-curvature="0" />
	<path style="fill:none;stroke:red;stroke-width:1px;stroke-linecap:butt;stroke-linejoin:miter;stroke-opacity:1" d="M 816.837,298.205 797.977,298.205 z" id="boundary" inkscape:connector-curvature="0" />
	<path style="fill:none;stroke:red;stroke-width:1px;stroke-linecap:butt;stroke-linejoin:miter;stroke-opacity:1" d="M 797.977,298.205 781.004,307.635 z" id="boundary" inkscape:connector-curvature="0" />
	<path style="fill:none;stroke:red;stroke-width:1px;stroke-linecap:butt;stroke-linejoin:miter;stroke-opacity:1" d="M 781.004,307.635 764.03,317.065 z" id="boundary" inkscape:connector-curvature="0" />
	<path style="fill:none;stroke:red;stroke-width:1px;stroke-linecap:butt;stroke-linejoin:miter;stroke-opacity:1" d="M 764.03,317.065 748.943,330.266 z" id="boundary" inkscape:connector-curvature="0" />
	<path style="fill:none;stroke:red;stroke-width:1px;stroke-linecap:butt;stroke-linejoin:miter;stroke-opacity:1" d="M 748.943,330.266 730.084,335.924 z" id="boundary" inkscape:connector-curvature="0" />
	<path style="fill:none;stroke:red;stroke-width:1px;stroke-linecap:butt;stroke-linejoin:miter;stroke-opacity:1" d="M 730.084,335.924 711.224,330.266 z" id="boundary" inkscape:connector-curvature="0" />
	<path style="fill:none;stroke:red;stroke-width:1px;stroke-linecap:butt;stroke-linejoin:miter;stroke-opacity:1" d="M 711.224,330.266 698.023,315.179 z" id="boundary" inkscape:connector-curvature="0" />
	<path style="fill:none;stroke:red;stroke-width:1px;stroke-linecap:butt;stroke-linejoin:miter;stroke-opacity:1" d="M 698.023,315.179 679.163,307.635 z" id="boundary" inkscape:connector-curvature="0" />
	<path style="fill:none;stroke:red;stroke-width:1px;stroke-linecap:butt;stroke-linejoin:miter;stroke-opacity:1" d="M 679.163,307.635 662.19,298.205 z" id="boundary" inkscape:connector-curvature="0" />
	<path style="fill:none;stroke:red;stroke-width:1px;stroke-linecap:butt;stroke-linejoin:miter;stroke-opacity:1" d="M 662.19,298.205 643.331,298.205 z" id="boundary" inkscape:connector-curvature="0" />
	<path style="fill:none;stroke:red;stroke-width:1px;stroke-linecap:butt;stroke-linejoin:miter;stroke-opacity:1" d="M 643.331,298.205 624.471,303.863 z" id="boundary" inkscape:connector-curvature="0" />
	<path style="fill:none;stroke:red;stroke-width:1px;stroke-linecap:butt;stroke-linejoin:miter;stroke-opacity:1" d="M 624.471,303.863 605.612,313.293 z" id="boundary" inkscape:connector-curvature="0" />
	<path style="fill:none;stroke:red;stroke-width:1px;stroke-linecap:butt;stroke-linejoin:miter;stroke-opacity:1" d="M 605.612,313.293 590.525,326.494 z" id="boundary" inkscape:connector-curvature="0" />
	<path style="fill:none;stroke:red;stroke-width:1px;stroke-linecap:butt;stroke-linejoin:miter;stroke-opacity:1" d="M 590.525,326.494 579.209,345.354 z" id="boundary" inkscape:connector-curvature="0" />
	<path style="fill:none;stroke:red;stroke-width:1px;stroke-linecap:butt;stroke-linejoin:miter;stroke-opacity:1" d="M 579.209,345.354 560.35,345.354 z" id="boundary" inkscape:connector-curvature="0" />
	<path style="fill:none;stroke:red;stroke-width:1px;stroke-linecap:butt;stroke-linejoin:miter;stroke-opacity:1" d="M 560.35,345.354 541.49,345.354 z" id="boundary" inkscape:connector-curvature="0" />
	<path style="fill:none;stroke:red;stroke-width:1px;stroke-linecap:butt;stroke-linejoin:miter;stroke-opacity:1" d="M 541.49,345.354 522.631,345.354 z" id="boundary" inkscape:connector-curvature="0" />
	<path style="fill:none;stroke:red;stroke-width:1px;stroke-linecap:butt;stroke-linejoin:miter;stroke-opacity:1" d="M 522.631,345.354 503.772,349.125 z" id="boundary" inkscape:connector-curvature="0" />
	<path style="fill:none;stroke:red;stroke-width:1px;stroke-linecap:butt;stroke-linejoin:miter;stroke-opacity:1" d="M 503.772,349.125 484.913,354.783 z" id="boundary" inkscape:connector-curvature="0" />
	<path style="fill:none;stroke:red;stroke-width:1px;stroke-linecap:butt;stroke-linejoin:miter;stroke-opacity:1" d="M 484.913,354.783 467.939,364.213 z" id="boundary" inkscape:connector-curvature="0" />
	<path style="fill:none;stroke:red;stroke-width:1px;stroke-linecap:butt;stroke-linejoin:miter;stroke-opacity:1" d="M 467.939,364.213 454.738,379.3 z" id="boundary" inkscape:connector-curvature="0" />
	<path style="fill:none;stroke:red;stroke-width:1px;stroke-linecap:butt;stroke-linejoin:miter;stroke-opacity:1" d="M 454.738,379.3 445.308,398.16 z" id="boundary" inkscape:connector-curvature="0" />
	<path style="fill:none;stroke:red;stroke-width:1px;stroke-linecap:butt;stroke-linejoin:miter;stroke-opacity:1" d="M 445.308,398.16 435.878,417.019 z" id="boundary" inkscape:connector-curvature="0" />
	<path style="fill:none;stroke:red;stroke-width:1px;stroke-linecap:butt;stroke-linejoin:miter;stroke-opacity:1" d="M 435.878,417.019 426.449,435.878 z" id="boundary" inkscape:connector-curvature="0" />
	<path style="fill:none;stroke:red;stroke-width:1px;stroke-linecap:butt;stroke-linejoin:miter;stroke-opacity:1" d="M 426.449,435.878 411.361,449.08 z" id="boundary" inkscape:connector-curvature="0" />
	<path style="fill:none;stroke:red;stroke-width:1px;stroke-linecap:butt;stroke-linejoin:miter;stroke-opacity:1" d="M 411.361,449.08 398.16,467.939 z" id="boundary" inkscape:connector-curvature="0" />
	<path style="fill:none;stroke:red;stroke-width:1px;stroke-linecap:butt;stroke-linejoin:miter;stroke-opacity:1" d="M 398.16,467.939 379.3,473.597 z" id="boundary" inkscape:connector-curvature="0" />
	<path style="fill:none;stroke:red;stroke-width:1px;stroke-linecap:butt;stroke-linejoin:miter;stroke-opacity:1" d="M 379.3,473.597 360.441,477.369 z" id="boundary" inkscape:connector-curvature="0" />
	<path style="fill:none;stroke:red;stroke-width:1px;stroke-linecap:butt;stroke-linejoin:miter;stroke-opacity:1" d="M 360.441,477.369 341.582,477.369 z" id="boundary" inkscape:connector-curvature="0" />
	<path style="fill:none;stroke:red;stroke-width:1px;stroke-linecap:butt;stroke-linejoin:miter;stroke-opacity:1" d="M 341.582,477.369 322.722,477.369 z" id="boundary" inkscape:connector-curvature="0" />
	<path style="fill:none;stroke:red;stroke-width:1px;stroke-linecap:butt;stroke-linejoin:miter;stroke-opacity:1" d="M 322.722,477.369 303.863,477.369 z" id="boundary" inkscape:connector-curvature="0" />
	<path style="fill:none;stroke:red;stroke-width:1px;stroke-linecap:butt;stroke-linejoin:miter;stroke-opacity:1" d="M 303.863,477.369 285.004,477.369 z" id="boundary" inkscape:connector-curvature="0" />
	<path style="fill:none;stroke:red;stroke-width:1px;stroke-linecap:butt;stroke-linejoin:miter;stroke-opacity:1" d="M 285.004,477.369 266.144,477.369 z" id="boundary" inkscape:connector-curvature="0" />
	<path style="fill:none;stroke:red;stroke-width:1px;stroke-linecap:butt;stroke-linejoin:miter;stroke-opacity:1" d="M 266.144,477.369 247.285,477.369 z" id="boundary" inkscape:connector-curvature="0" />
	<path style="fill:none;stroke:red;stroke-width:1px;stroke-linecap:butt;stroke-linejoin:miter;stroke-opacity:1" d="M 247.285,477.369 228.426,477.369 z" id="boundary" inkscape:connector-curvature="0" />
	<path style="fill:none;stroke:red;stroke-width:1px;stroke-linecap:butt;stroke-linejoin:miter;stroke-opacity:1" d="M 228.426,477.369 209.567,477.369 z" id="boundary" inkscape:connector-curvature="0" />
	<path style="fill:none;stroke:red;stroke-width:1px;stroke-linecap:butt;stroke-linejoin:miter;stroke-opacity:1" d="M 209.567,477.369 190.707,477.369 z" id="boundary" inkscape:connector-curvature="0" />
	<path style="fill:none;stroke:red;stroke-width:1px;stroke-linecap:butt;stroke-linejoin:miter;stroke-opacity:1" d="M 190.707,477.369 171.848,477.369 z" id="boundary" inkscape:connector-curvature="0" />
	<path style="fill:none;stroke:red;stroke-width:1px;stroke-linecap:butt;stroke-linejoin:miter;stroke-opacity:1" d="M 171.848,477.369 154.875,467.939 z" id="boundary" inkscape:connector-curvature="0" />
	<path style="fill:none;stroke:red;stroke-width:1px;stroke-linecap:butt;stroke-linejoin:miter;stroke-opacity:1" d="M 154.875,467.939 136.015,467.939 z" id="boundary" inkscape:connector-curvature="0" />
	<path style="fill:none;stroke:red;stroke-width:1px;stroke-linecap:butt;stroke-linejoin:miter;stroke-opacity:1" d="M 136.015,467.939 120.928,456.624 z" id="boundary" inkscape:connector-curvature="0" />
	<path style="fill:none;stroke:red;stroke-width:1px;stroke-linecap:butt;stroke-linejoin:miter;stroke-opacity:1" d="M 120.928,456.624 103.954,447.194 z" id="boundary" inkscape:connector-curvature="0" />
	<path style="fill:none;stroke:red;stroke-width:1px;stroke-linecap:butt;stroke-linejoin:miter;stroke-opacity:1" d="M 103.954,447.194 88.8669,433.992 z" id="boundary" inkscape:connector-curvature="0" />
	<path style="fill:none;stroke:red;stroke-width:1px;stroke-linecap:butt;stroke-linejoin:miter;stroke-opacity:1" d="M 88.8669,433.992 71.8935,424.563 z" id="boundary" inkscape:connector-curvature="0" />
	<path style="fill:none;stroke:red;stroke-width:1px;stroke-linecap:butt;stroke-linejoin:miter;stroke-opacity:1" d="M 71.8935,424.563 56.8061,411.361 z" id="boundary" inkscape:connector-curvature="0" />
	<path style="fill:none;stroke:red;stroke-width:1px;stroke-linecap:butt;stroke-linejoin:miter;stroke-opacity:1" d="M 56.8061,411.361 43.6046,396.274 z" id="boundary" inkscape:connector-curvature="0" />
	<path style="fill:none;stroke:red;stroke-width:1px;stroke-linecap:butt;stroke-linejoin:miter;stroke-opacity:1" d="M 43.6046,396.274 32.289,381.186 z" id="boundary" inkscape:connector-curvature="0" />
	<path style="fill:none;stroke:red;stroke-width:1px;stroke-linecap:butt;stroke-linejoin:miter;stroke-opacity:1" d="M 32.289,381.186 22.8593,364.213 z" id="boundary" inkscape:connector-curvature="0" />
	<path style="fill:none;stroke:red;stroke-width:1px;stroke-linecap:butt;stroke-linejoin:miter;stroke-opacity:1" d="M 22.8593,364.213 22.8593,345.354 z" id="boundary" inkscape:connector-curvature="0" />
	<path style="fill:none;stroke:red;stroke-width:1px;stroke-linecap:butt;stroke-linejoin:miter;stroke-opacity:1" d="M 22.8593,345.354 13.4297,328.38 z" id="boundary" inkscape:connector-curvature="0" />
	<path style="fill:none;stroke:red;stroke-width:1px;stroke-linecap:butt;stroke-linejoin:miter;stroke-opacity:1" d="M 13.4297,328.38 4,311.407 z" id="boundary" inkscape:connector-curvature="0" />
	<path style="fill:none;stroke:red;stroke-width:1px;stroke-linecap:butt;stroke-linejoin:miter;stroke-opacity:1" d="M 4,311.407 4,292.548 z" id="boundary" inkscape:connector-curvature="0" />
	<path style="fill:none;stroke:red;stroke-width:1px;stroke-linecap:butt;stroke-linejoin:miter;stroke-opacity:1" d="M 4,292.548 4,273.688 z" id="boundary" inkscape:connector-curvature="0" />
	<path style="fill:none;stroke:red;stroke-width:1px;stroke-linecap:butt;stroke-linejoin:miter;stroke-opacity:1" d="M 4,273.688 4,254.829 z" id="boundary" inkscape:connector-curvature="0" />
	<path style="fill:none;stroke:red;stroke-width:1px;stroke-linecap:butt;stroke-linejoin:miter;stroke-opacity:1" d="M 4,254.829 4,235.97 z" id="boundary" inkscape:connector-curvature="0" />
	<path style="fill:none;stroke:red;stroke-width:1px;stroke-linecap:butt;stroke-linejoin:miter;stroke-opacity:1" d="M 4,235.97 4,217.11 z" id="boundary" inkscape:connector-curvature="0" />
	<path style="fill:none;stroke:red;stroke-width:1px;stroke-linecap:butt;stroke-linejoin:miter;stroke-opacity:1" d="M 4,217.11 4,198.251 z" id="boundary" inkscape:connector-curvature="0" />
	<path style="fill:none;stroke:red;stroke-width:1px;stroke-linecap:butt;stroke-linejoin:miter;stroke-opacity:1" d="M 4,198.251 13.4297,169.962 z" id="boundary" inkscape:connector-curvature="0" />
	<path style="fill:none;stroke:red;stroke-width:1px;stroke-linecap:butt;stroke-linejoin:miter;stroke-opacity:1" d="M 13.4297,169.962 22.8593,151.103 z" id="boundary" inkscape:connector-curvature="0" />
	<path style="fill:none;stroke:red;stroke-width:1px;stroke-linecap:butt;stroke-linejoin:miter;stroke-opacity:1" d="M 22.8593,151.103 37.9468,136.015 z" id="boundary" inkscape:connector-curvature="0" />
	<path style="fill:none;stroke:red;stroke-width:1px;stroke-linecap:butt;stroke-linejoin:miter;stroke-opacity:1" d="M 37.9468,136.015 53.0342,120.928 z" id="boundary" inkscape:connector-curvature="0" />
	<path style="fill:none;stroke:red;stroke-width:1px;stroke-linecap:butt;stroke-linejoin:miter;stroke-opacity:1" d="M 53.0342,120.928 68.1217,107.726 z" id="boundary" inkscape:connector-curvature="0" />
	<path style="fill:none;stroke:red;stroke-width:1px;stroke-linecap:butt;stroke-linejoin:miter;stroke-opacity:1" d="M 68.1217,107.726 81.3232,92.6388 z" id="boundary" inkscape:connector-curvature="0" />
	<path style="fill:none;stroke:red;stroke-width:1px;stroke-linecap:butt;stroke-linejoin:miter;stroke-opacity:1" d="M 81.3232,92.6388 96.4106,79.4373 z" id="boundary" inkscape:connector-curvature="0" />
	<path style="fill:none;stroke:red;stroke-width:1px;stroke-linecap:butt;stroke-linejoin:miter;stroke-opacity:1" d="M 96.4106,79.4373 113.384,70.0076 z" id="boundary" inkscape:connector-curvature="0" />
	<path style="fill:none;stroke:red;stroke-width:1px;stroke-linecap:butt;stroke-linejoin:miter;stroke-opacity:1" d="M 113.384,70.0076 128.471,54.9202 z" id="boundary" inkscape:connector-curvature="0" />
	<path style="fill:none;stroke:red;stroke-width:1px;stroke-linecap:butt;stroke-linejoin:miter;stroke-opacity:1" d="M 128.471,54.9202 147.331,45.4905 z" id="boundary" inkscape:connector-curvature="0" />
	<path style="fill:none;stroke:red;stroke-width:1px;stroke-linecap:butt;stroke-linejoin:miter;stroke-opacity:1" d="M 147.331,45.4905 162.418,32.289 z" id="boundary" inkscape:connector-curvature="0" />
	<path style="fill:none;stroke:red;stroke-width:1px;stroke-linecap:butt;stroke-linejoin:miter;stroke-opacity:1" d="M 162.418,32.289 179.392,22.8593 z" id="boundary" inkscape:connector-curvature="0" />
	<path style="fill:none;stroke:red;stroke-width:1px;stroke-linecap:butt;stroke-linejoin:miter;stroke-opacity:1" d="M 179.392,22.8593 198.251,13.4297 z" id="boundary" inkscape:connector-curvature="0" />
	<path style="fill:none;stroke:red;stroke-width:1px;stroke-linecap:butt;stroke-linejoin:miter;stroke-opacity:1" d="M 198.251,13.4297 217.11,4 z" id="boundary" inkscape:connector-curvature="0" />
	<path style="fill:none;stroke:red;stroke-width:1px;stroke-linecap:butt;stroke-linejoin:miter;stroke-opacity:1" d="M 217.11,4 235.97,4 z" id="boundary" inkscape:connector-curvature="0" />
	<path style="fill:none;stroke:red;stroke-width:1px;stroke-linecap:butt;stroke-linejoin:miter;stroke-opacity:1" d="M 235.97,4 254.829,4 z" id="boundary" inkscape:connector-curvature="0" />
	<path style="fill:none;stroke:red;stroke-width:1px;stroke-linecap:butt;stroke-linejoin:miter;stroke-opacity:1" d="M 254.829,4 273.688,4 z" id="boundary" inkscape:connector-curvature="0" />
	<path style="fill:none;stroke:red;stroke-width:1px;stroke-linecap:butt;stroke-linejoin:miter;stroke-opacity:1" d="M 273.688,4 292.548,4 z" id="boundary" inkscape:connector-curvature="0" />
	<path style="fill:none;stroke:red;stroke-width:1px;stroke-linecap:butt;stroke-linejoin:miter;stroke-opacity:1" d="M 292.548,4 311.407,4 z" id="boundary" inkscape:connector-curvature="0" />
	<path style="fill:none;stroke:red;stroke-width:1px;stroke-linecap:butt;stroke-linejoin:miter;stroke-opacity:1" d="M 311.407,4 330.266,4 z" id="boundary" inkscape:connector-curvature="0" />
	<path style="fill:none;stroke:red;stroke-width:1px;stroke-linecap:butt;stroke-linejoin:miter;stroke-opacity:1" d="M 330.266,4 347.24,13.4297 z" id="boundary" inkscape:connector-curvature="0" />
	<path style="fill:none;stroke:red;stroke-width:1px;stroke-linecap:butt;stroke-linejoin:miter;stroke-opacity:1" d="M 347.24,13.4297 366.099,13.4297 z" id="boundary" inkscape:connector-curvature="0" />
	<path style="fill:none;stroke:red;stroke-width:1px;stroke-linecap:butt;stroke-linejoin:miter;stroke-opacity:1" d="M 366.099,13.4297 383.072,22.8593 z" id="boundary" inkscape:connector-curvature="0" />
	<path style="fill:none;stroke:red;stroke-width:1px;stroke-linecap:butt;stroke-linejoin:miter;stroke-opacity:1" d="M 383.072,22.8593 401.932,28.5171 z" id="boundary" inkscape:connector-curvature="0" />
	<path style="fill:none;stroke:red;stroke-width:1px;stroke-linecap:butt;stroke-linejoin:miter;stroke-opacity:1" d="M 401.932,28.5171 418.905,37.9468 z" id="boundary" inkscape:connector-curvature="0" />
	<path style="fill:none;stroke:red;stroke-width:1px;stroke-linecap:butt;stroke-linejoin:miter;stroke-opacity:1" d="M 418.905,37.9468 430.221,53.0342 z" id="boundary" inkscape:connector-curvature="0" />
	<path style="fill:none;stroke:red;stroke-width:1px;stroke-linecap:butt;stroke-linejoin:miter;stroke-opacity:1" d="M 430.221,53.0342 439.65,70.0076 z" id="boundary" inkscape:connector-curvature="0" />
	<path style="fill:none;stroke:red;stroke-width:1px;stroke-linecap:butt;stroke-linejoin:miter;stroke-opacity:1" d="M 439.65,70.0076 449.08,86.981 z" id="boundary" inkscape:connector-curvature="0" />
	<path style="fill:none;stroke:red;stroke-width:1px;stroke-linecap:butt;stroke-linejoin:miter;stroke-opacity:1" d="M 449.08,86.981 458.51,103.954 z" id="boundary" inkscape:connector-curvature="0" />
	<path style="fill:none;stroke:red;stroke-width:1px;stroke-linecap:butt;stroke-linejoin:miter;stroke-opacity:1" d="M 458.51,103.954 466.053,122.814 z" id="boundary" inkscape:connector-curvature="0" />
	<path style="fill:none;stroke:red;stroke-width:1px;stroke-linecap:butt;stroke-linejoin:miter;stroke-opacity:1" d="M 466.053,122.814 481.141,136.015 z" id="boundary" inkscape:connector-curvature="0" />
	<path style="fill:none;stroke:red;stroke-width:1px;stroke-linecap:butt;stroke-linejoin:miter;stroke-opacity:1" d="M 481.141,136.015 500,136.015 z" id="boundary" inkscape:connector-curvature="0" />
	<path style="fill:none;stroke:red;stroke-width:1px;stroke-linecap:butt;stroke-linejoin:miter;stroke-opacity:1" d="M 500,136.015 518.859,136.015 z" id="boundary" inkscape:connector-curvature="0" />
	<path style="fill:none;stroke:red;stroke-width:1px;stroke-linecap:butt;stroke-linejoin:miter;stroke-opacity:1" d="M 518.859,136.015 537.719,136.015 z" id="boundary" inkscape:connector-curvature="0" />
	<path style="fill:none;stroke:red;stroke-width:1px;stroke-linecap:butt;stroke-linejoin:miter;stroke-opacity:1" d="M 537.719,136.015 556.578,136.015 z" id="boundary" inkscape:connector-curvature="0" />
	<path style="fill:none;stroke:red;stroke-width:1px;stroke-linecap:butt;stroke-linejoin:miter;stroke-opacity:1" d="M 556.578,136.015 573.551,145.445 z" id="boundary" inkscape:connector-curvature="0" />
	<path style="fill:none;stroke:red;stroke-width:1px;stroke-linecap:butt;stroke-linejoin:miter;stroke-opacity:1" d="M 573.551,145.445 590.525,154.875 z" id="boundary" inkscape:connector-curvature="0" />
	<path style="fill:none;stroke:red;stroke-width:1px;stroke-linecap:butt;stroke-linejoin:miter;stroke-opacity:1" d="M 590.525,154.875 609.384,154.875 z" id="boundary" inkscape:connector-curvature="0" />
	<path style="fill:none;stroke:red;stroke-width:1px;stroke-linecap:butt;stroke-linejoin:miter;stroke-opacity:1" d="M 609.384,154.875 624.471,166.19 z" id="boundary" inkscape:connector-curvature="0" />
	<path style="fill:none;stroke:red;stroke-width:1px;stroke-linecap:butt;stroke-linejoin:miter;stroke-opacity:1" d="M 624.471,166.19 641.445,175.62 z" id="boundary" inkscape:connector-curvature="0" />
	<path style="fill:none;stroke:red;stroke-width:1px;stroke-linecap:butt;stroke-linejoin:miter;stroke-opacity:1" d="M 641.445,175.62 660.304,183.163 z" id="boundary" inkscape:connector-curvature="0" />
	<path style="fill:none;stroke:red;stroke-width:1px;stroke-linecap:butt;stroke-linejoin:miter;stroke-opacity:1" d="M 660.304,183.163 679.163,183.163 z" id="boundary" inkscape:connector-curvature="0" />
	<path style="fill:none;stroke:red;stroke-width:1px;stroke-linecap:butt;stroke-linejoin:miter;stroke-opacity:1" d="M 679.163,183.163 696.137,173.734 z" id="boundary" inkscape:connector-curvature="0" />
	<path style="fill:none;stroke:red;stroke-width:1px;stroke-linecap:butt;stroke-linejoin:miter;stroke-opacity:1" d="M 696.137,173.734 713.11,164.304 z" id="boundary" inkscape:connector-curvature="0" />
	<path style="fill:none;stroke:red;stroke-width:1px;stroke-linecap:butt;stroke-linejoin:miter;stroke-opacity:1" d="M 713.11,164.304 731.97,164.304 z" id="boundary" inkscape:connector-curvature="0" />
	<path style="fill:none;stroke:red;stroke-width:1px;stroke-linecap:butt;stroke-linejoin:miter;stroke-opacity:1" d="M 731.97,164.304 750.829,164.304 z" id="boundary" inkscape:connector-curvature="0" />
	<path style="fill:none;stroke:red;stroke-width:1px;stroke-linecap:butt;stroke-linejoin:miter;stroke-opacity:1" d="M 750.829,164.304 769.688,164.304 z" id="boundary" inkscape:connector-curvature="0" />
	<path style="fill:none;stroke:red;stroke-width:1px;stroke-linecap:butt;stroke-linejoin:miter;stroke-opacity:1" d="M 769.688,164.304 788.548,169.962 z" id="boundary" inkscape:connector-curvature="0" />
	<path style="fill:none;stroke:red;stroke-width:1px;stroke-linecap:butt;stroke-linejoin:miter;stroke-opacity:1" d="M 788.548,169.962 796.091,188.821 z" id="boundary" inkscape:connector-curvature="0" />
	<path style="fill:none;stroke:red;stroke-width:1px;stroke-linecap:butt;stroke-linejoin:miter;stroke-opacity:1" d="M 796.091,188.821 814.951,196.365 z" id="boundary" inkscape:connector-curvature="0" />
	<path style="fill:none;stroke:red;stroke-width:1px;stroke-linecap:butt;stroke-linejoin:miter;stroke-opacity:1" d="M 814.951,196.365 831.924,205.795 z" id="boundary" inkscape:connector-curvature="0" />
	<path style="fill:none;stroke:red;stroke-width:1px;stroke-linecap:butt;stroke-linejoin:miter;stroke-opacity:1" d="M 831.924,205.795 850.783,211.452 z" id="boundary" inkscape:connector-curvature="0" />
	<path style="fill:none;stroke:red;stroke-width:1px;stroke-linecap:butt;stroke-linejoin:miter;stroke-opacity:1" d="M 850.783,211.452 867.757,202.023 z" id="boundary" inkscape:connector-curvature="0" />
	<path style="fill:none;stroke:red;stroke-width:1px;stroke-linecap:butt;stroke-linejoin:miter;stroke-opacity:1" d="M 867.757,202.023 884.73,192.593 z" id="boundary" inkscape:connector-curvature="0" />
	<path style="fill:none;stroke:red;stroke-width:1px;stroke-linecap:butt;stroke-linejoin:miter;stroke-opacity:1" d="M 884.73,192.593 903.589,185.049 z" id="boundary" inkscape:connector-curvature="0" />
	<path style="fill:none;stroke:red;stroke-width:1px;stroke-linecap:butt;stroke-linejoin:miter;stroke-opacity:1" d="M 903.589,185.049 922.449,183.163 z" id="boundary" inkscape:connector-curvature="0" />
	<path style="fill:none;stroke:red;stroke-width:1px;stroke-linecap:butt;stroke-linejoin:miter;stroke-opacity:1" d="M 922.449,183.163 939.422,192.593 z" id="boundary" inkscape:connector-curvature="0" />
	<path style="fill:none;stroke:red;stroke-width:1px;stroke-linecap:butt;stroke-linejoin:miter;stroke-opacity:1" d="M 939.422,192.593 958.281,198.251 z" id="boundary" inkscape:connector-curvature="0" />
	<path style="fill:none;stroke:red;stroke-width:1px;stroke-linecap:butt;stroke-linejoin:miter;stroke-opacity:1" d="M 958.281,198.251 971.483,213.338 z" id="boundary" inkscape:connector-curvature="0" />
	<path style="fill:none;stroke:red;stroke-width:1px;stroke-linecap:butt;stroke-linejoin:miter;stroke-opacity:1" d="M 971.483,213.338 990.342,220.882 z" id="boundary" inkscape:connector-curvature="0" />
	<path style="fill:none;stroke:red;stroke-width:1px;stroke-linecap:butt;stroke-linejoin:miter;stroke-opacity:1" d="M 990.342,220.882 996,239.741 z" id="boundary" inkscape:connector-curvature="0" />
	<circle cx="4" cy="198.251" r="4" fill="#0" id="circle0"/>
	<circle cx="4" cy="217.11" r="4" fill="#0" id="circle1"/>
	<circle cx="4" cy="235.97" r="4" fill="#0" id="circle2"/>
	<circle cx="4" cy="254.829" r="4" fill="#0" id="circle3"/>
	<circle cx="4" cy="273.688" r="4" fill="#0" id="circle4"/>
	<circle cx="4" cy="292.548" r="4" fill="#0" id="circle5"/>
	<circle cx="4" cy="311.407" r="4" fill="#0" id="circle6"/>
	<circle cx="13.4297" cy="169.962" r="4" fill="#0" id="circle7"/>
	<circle cx="13.4297" cy="328.38" r="4" fill="#0" id="circle8"/>
	<circle cx="22.8593" cy="151.103" r="4" fill="#0" id="circle9"/>
	<circle cx="22.8593" cy="345.354" r="4" fill="#0" id="circle10"/>
	<circle cx="22.8593" cy="364.213" r="4" fill="#0" id="circle11"/>
	<circle cx="32.289" cy="381.186" r="4" fill="#0" id="circle12"/>
	<circle cx="37.9468" cy="136.015" r="4" fill="#0" id="circle13"/>
	<circle cx="43.6046" cy="396.274" r="4" fill="#0" id="circle14"/>
	<circle cx="53.0342" cy="120.928" r="4" fill="#0" id="circle15"/>
	<circle cx="56.8061" cy="411.361" r="4" fill="#0" id="circle16"/>
	<circle cx="68.1217" cy="107.726" r="4" fill="#0" id="circle17"/>
	<circle cx="71.8935" cy="424.563" r="4" fill="#0" id="circle18"/>
	<circle cx="81.3232" cy="92.6388" r="4" fill="#0" id="circle19"/>
	<circle cx="88.8669" cy="433.992" r="4" fill="#0" id="circle20"/>
	<circle cx="96.4106" cy="79.4373" r="4" fill="#0" id="circle21"/>
	<circle cx="103.954" cy="447.194" r="4" fill="#0" id="circle22"/>
	<circle cx="113.384" cy="70.0076" r="4" fill="#0" id="circle23"/>
	<circle cx="120.928" cy="456.624" r="4" fill="#0" id="circle24"/>
	<circle cx="128.471" cy="54.9202" r="4" fill="#0" id="circle25"/>
	<circle cx="136.015" cy="467.939" r="4" fill="#0" id="circle26"/>
	<circle cx="147.331" cy="45.4905" r="4" fill="#0" id="circle27"/>
	<circle cx="154.875" cy="467.939" r="4" fill="#0" id="circle28"/>
	<circle cx="162.418" cy="32.289" r="4" fill="#0" id="circle29"/>
	<circle cx="171.848" cy="477.369" r="4" fill="#0" id="circle30"/>
	<circle cx="179.392" cy="22.8593" r="4" fill="#0" id="circle31"/>
	<circle cx="190.707" cy="477.369" r="4" fill="#0" id="circle32"/>
	<circle cx="198.251" cy="13.4297" r="4" fill="#0" id="circle33"/>
	<circle cx="209.567" cy="477.369" r="4" fill="#0" id="circle34"/>
	<circle cx="217.11" cy="4" r="4" fill="#0" id="circle35"/>
	<circle cx="228.426" cy="477.369" r="4" fill="#0" id="circle36"/>
	<circle cx="235.97" cy="4" r="4" fill="#0" id="circle37"/>
	<circle cx="247.285" cy="477.369" r="4" fill="#0" id="circle38"/>
	<circle cx="254.829" cy="4" r="4" fill="#0" id="circle39"/>
	<circle cx="266.144" cy="477.369" r="4" fill="#0" id="circle40"/>
	<circle cx="273.688" cy="4" r="4" fill="#0" id="circle41"/>
	<circle cx="285.004" cy="477.369" r="4" fill="#0" id="circle42"/>
	<circle cx="292.548" cy="4" r="4" fill="#0" id="circle43"/>
	<circle cx="303.863" cy="477.369" r="4" fill="#0" id="circle44"/>
	<circle cx="311.407" cy="4" r="4" fill="#0" id="circle45"/>
	<circle cx="322.722" cy="477.369" r="4" fill="#0" id="circle46"/>
	<circle cx="330.266" cy="4" r="4" fill="#0" id="circle47"/>
	<circle cx="341.582" cy="477.369" r="4" fill="#0" id="circle48"/>
	<circle cx="347.24" cy="13.4297" r="4" fill="#0" id="circle49"/>
	<circle cx="360.441" cy="477.369" r="4" fill="#0" id="circle50"/>
	<circle cx="366.099" cy="13.4297" r="4" fill="#0" id="circle51"/>
	<circle cx="379.3" cy="473.597" r="4" fill="#0" id="circle52"/>
	<circle cx="383.072" cy="22.8593" r="4" fill="#0" id="circle53"/>
	<circle cx="398.16" cy="467.939" r="4" fill="#0" id="circle54"/>
	<circle cx="401.932" cy="28.5171" r="4" fill="#0" id="circle55"/>
	<circle cx="411.361" cy="449.08" r="4" fill="#0" id="circle56"/>
	<circle cx="418.905" cy="37.9468" r="4" fill="#0" id="circle57"/>
	<circle cx="426.449" cy="435.878" r="4" fill="#0" id="circle58"/>
	<circle cx="430.221" cy="53.0342" r="4" fill="#0" id="circle59"/>
	<circle cx="435.878" cy="417.019" r="4" fill="#0" id="circle60"/>
	<circle cx="439.65" cy="70.0076" r="4" fill="#0" id="circle61"/>
	<circle cx="445.308" cy="398.16" r="4" fill="#0" id="circle62"/>
	<circle cx="449.08" cy="86.981" r="4" fill="#0" id="circle63"/>
	<circle cx="454.738" cy="379.3" r="4" fill="#0" id="circle64"/>
	<circle cx="458.51" cy="103.954" r="4" fill="#0" id="circle65"/>
	<circle cx="466.053" cy="122.814" r="4" fill="#0" id="circle66"/>
	<circle cx="467.939" cy="364.213" r="4" fill="#0" id="circle67"/>
	<circle cx="481.141" cy="136.015" r="4" fill="#0" id="circle68"/>
	<circle cx="484.913" cy="354.783" r="4" fill="#0" id="circle69"/>
	<circle cx="500" cy="136.015" r="4" fill="#0" id="circle70"/>
	<circle cx="503.772" cy="349.125" r="4" fill="#0" id="circle71"/>
	<circle cx="518.859" cy="136.015" r="4" fill="#0" id="circle72"/>
	<circle cx="522.631" cy="345.354" r="4" fill="#0" id="circle73"/>
	<circle cx="537.719" cy="136.015" r="4" fill="#0" id="circle74"/>
	<circle cx="541.49" cy="345.354" r="4" fill="#0" id="circle75"/>
	<circle cx="556.578" cy="136.015" r="4" fill="#0" id="circle76"/>
	<circle cx="560.35" cy="345.354" r="4" fill="#0" id="circle77"/>
	<circle cx="573.551" cy="145.445" r="4" fill="#0" id="circle78"/>
	<circle cx="579.209" cy="345.354" r="4" fill="#0" id="circle79"/>
	<circle cx="590.525" cy="154.875" r="4" fill="#0" id="circle80"/>
	<circle cx="590.525" cy="326.494" r="4" fill="#0" id="circle81"/>
	<circle cx="605.612" cy="313.293" r="4" fill="#0" id="circle82"/>
	<circle cx="609.384" cy="154.875" r="4" fill="#0" id="circle83"/>
	<circle cx="624.471" cy="166.19" r="4" fill="#0" id="circle84"/>
	<circle cx="624.471" cy="303.863" r="4" fill="#0" id="circle85"/>
	<circle cx="641.445" cy="175.62" r="4" fill="#0" id="circle86"/>
	<circle cx="643.331" cy="298.205" r="4" fill="#0" id="circle87"/>
	<circle cx="660.304" cy="183.163" r="4" fill="#0" id="circle88"/>
	<circle cx="662.19" cy="298.205" r="4" fill="#0" id="circle89"/>
	<circle cx="679.163" cy="183.163" r="4" fill="#0" id="circle90"/>
	<circle cx="679.163" cy="307.635" r="4" fill="#0" id="circle91"/>
	<circle cx="696.137" cy="173.734" r="4" fill="#0" id="circle92"/>
	<circle cx="698.023" cy="315.179" r="4" fill="#0" id="circle93"/>
	<circle cx="711.224" cy="330.266" r="4" fill="#0" id="circle94"/>
	<circle cx="713.11" cy="164.304" r="4" fill="#0" id="circle95"/>
	<circle cx="730.084" cy="335.924" r="4" fill="#0" id="circle96"/>
	<circle cx="731.97" cy="164.304" r="4" fill="#0" id="circle97"/>
	<circle cx="748.943" cy="330.266" r="4" fill="#0" id="circle98"/>
	<circle cx="750.829" cy="164.304" r="4" fill="#0" id="circle99"/>
	<circle cx="764.03" cy="317.065" r="4" fill="#0" id="circle100"/>
	<circle cx="769.688" cy="164.304" r="4" fill="#0" id="circle101"/>
	<circle cx="781.004" cy="307.635" r="4" fill="#0" id="circle102"/>
	<circle cx="788.548" cy="169.962" r="4" fill="#0" id="circle103"/>
	<circle cx="796.091" cy="188.821" r="4" fill="#0" id="circle104"/>
	<circle cx="797.977" cy="298.205" r="4" fill="#0" id="circle105"/>
	<circle cx="814.951" cy="196.365" r="4" fill="#0" id="circle106"/>
	<circle cx="816.837" cy="298.205" r="4" fill="#0" id="circle107"/>
	<circle cx="831.924" cy="205.795" r="4" fill="#0" id="circle108"/>
	<circle cx="835.696" cy="298.205" r="4" fill="#0" id="circle109"/>
	<circle cx="850.783" cy="211.452" r="4" fill="#0" id="circle110"/>
	<circle cx="854.555" cy="301.977" r="4" fill="#0" id="circle111"/>
	<circle cx="867.757" cy="202.023" r="4" fill="#0" id="circle112"/>
	<circle cx="873.414" cy="307.635" r="4" fill="#0" id="circle113"/>
	<circle cx="884.73" cy="192.593" r="4" fill="#0" id="circle114"/>
	<circle cx="892.274" cy="311.407" r="4" fill="#0" id="circle115"/>
	<circle cx="903.589" cy="185.049" r="4" fill="#0" id="circle116"/>
	<circle cx="911.133" cy="317.065" r="4" fill="#0" id="circle117"/>
	<circle cx="922.449" cy="183.163" r="4" fill="#0" id="circle118"/>
	<circle cx="929.992" cy="307.635" r="4" fill="#0" id="circle119"/>
	<circle cx="939.422" cy="192.593" r="4" fill="#0" id="circle120"/>
	<circle cx="948.852" cy="298.205" r="4" fill="#0" id="circle121"/>
	<circle cx="958.281" cy="198.251" r="4" fill="#0" id="circle122"/>
	<circle cx="963.939" cy="285.004" r="4" fill="#0" id="circle123"/>
	<circle cx="971.483" cy="213.338" r="4" fill="#0" id="circle124"/>
	<circle cx="982.798" cy="275.574" r="4" fill="#0" id="circle125"/>
	<circle cx="990.342" cy="220.882" r="4" fill="#0" id="circle126"/>
	<circle cx="996" cy="239.741" r="4" fill="#0" id="circle127"/>
	<circle cx="996" cy="258.601" r="4" fill="#0" id="circle128"/>
	</g>
</svg>