<?xml version="1.0" encoding="UTF-8" standalone="no"?>
<!-- Created with CurveBenchmark -->
<svg
	xmlns:dc="http://purl.org/dc/elements/1.1/"
	xmlns:cc="http://creativecommons.org/ns#"
	xmlns:rdf="http://www.w3.org/1999/02/22-rdf-syntax-ns#"
	xmlns:svg="http://www.w3.org/2000/svg"
	xmlns="http://www.w3.org/2000/svg"
	xmlns:sodipodi="http://sodipodi.sourceforge.net/DTD/sodipodi-0.dtd"
	xmlns:inkscape="http://www.inkscape.org/namespaces/inkscape"
	width="1000"
	height="1000"
	id="svg2"
	version="1.1"
	sodipodi:docname="manifold/connect2d-guitar280.png.txt">
<defs
	id="defs4" />
<metadata
	id="metadata7">
	<rdf:RDF>
		<cc:Work
			rdf:about="">
			<dc:format>image/svg+xml</dc:format>
			<dc:type
				rdf:resource="http://purl.org/dc/dcmitype/StillImage" />
			<dc:title></dc:title>
		</cc:Work>
	</rdf:RDF>
</metadata>
<g
	inkscape:label="Layer 1"
	inkscape:groupmode="layer"
	id="layer1">
	<path style="fill:none;stroke:red;stroke-width:1px;stroke-linecap:butt;stroke-linejoin:miter;stroke-opacity:1" d="M 168.749,831.251 168.749,866.304 z" id="boundary" inkscape:connector-curvature="0" />
	<path style="fill:none;stroke:red;stroke-width:1px;stroke-linecap:butt;stroke-linejoin:miter;stroke-opacity:1" d="M 168.749,866.304 161.739,922.389 z" id="boundary" inkscape:connector-curvature="0" />
	<path style="fill:none;stroke:red;stroke-width:1px;stroke-linecap:butt;stroke-linejoin:miter;stroke-opacity:1" d="M 161.739,922.389 154.728,957.442 z" id="boundary" inkscape:connector-curvature="0" />
	<path style="fill:none;stroke:red;stroke-width:1px;stroke-linecap:butt;stroke-linejoin:miter;stroke-opacity:1" d="M 154.728,957.442 119.675,988.989 z" id="boundary" inkscape:connector-curvature="0" />
	<path style="fill:none;stroke:red;stroke-width:1px;stroke-linecap:butt;stroke-linejoin:miter;stroke-opacity:1" d="M 119.675,988.989 84.6219,996 z" id="boundary" inkscape:connector-curvature="0" />
	<path style="fill:none;stroke:red;stroke-width:1px;stroke-linecap:butt;stroke-linejoin:miter;stroke-opacity:1" d="M 84.6219,996 49.5689,988.989 z" id="boundary" inkscape:connector-curvature="0" />
	<path style="fill:none;stroke:red;stroke-width:1px;stroke-linecap:butt;stroke-linejoin:miter;stroke-opacity:1" d="M 49.5689,988.989 18.0212,971.463 z" id="boundary" inkscape:connector-curvature="0" />
	<path style="fill:none;stroke:red;stroke-width:1px;stroke-linecap:butt;stroke-linejoin:miter;stroke-opacity:1" d="M 18.0212,971.463 11.0106,936.41 z" id="boundary" inkscape:connector-curvature="0" />
	<path style="fill:none;stroke:red;stroke-width:1px;stroke-linecap:butt;stroke-linejoin:miter;stroke-opacity:1" d="M 11.0106,936.41 4,901.357 z" id="boundary" inkscape:connector-curvature="0" />
	<path style="fill:none;stroke:red;stroke-width:1px;stroke-linecap:butt;stroke-linejoin:miter;stroke-opacity:1" d="M 4,901.357 4,866.304 z" id="boundary" inkscape:connector-curvature="0" />
	<path style="fill:none;stroke:red;stroke-width:1px;stroke-linecap:butt;stroke-linejoin:miter;stroke-opacity:1" d="M 4,866.304 4,831.251 z" id="boundary" inkscape:connector-curvature="0" />
	<path style="fill:none;stroke:red;stroke-width:1px;stroke-linecap:butt;stroke-linejoin:miter;stroke-opacity:1" d="M 4,831.251 4,796.198 z" id="boundary" inkscape:connector-curvature="0" />
	<path style="fill:none;stroke:red;stroke-width:1px;stroke-linecap:butt;stroke-linejoin:miter;stroke-opacity:1" d="M 4,796.198 4,761.145 z" id="boundary" inkscape:connector-curvature="0" />
	<path style="fill:none;stroke:red;stroke-width:1px;stroke-linecap:butt;stroke-linejoin:miter;stroke-opacity:1" d="M 4,761.145 11.0106,712.071 z" id="boundary" inkscape:connector-curvature="0" />
	<path style="fill:none;stroke:red;stroke-width:1px;stroke-linecap:butt;stroke-linejoin:miter;stroke-opacity:1" d="M 11.0106,712.071 18.0212,655.986 z" id="boundary" inkscape:connector-curvature="0" />
	<path style="fill:none;stroke:red;stroke-width:1px;stroke-linecap:butt;stroke-linejoin:miter;stroke-opacity:1" d="M 18.0212,655.986 11.0106,620.933 z" id="boundary" inkscape:connector-curvature="0" />
	<path style="fill:none;stroke:red;stroke-width:1px;stroke-linecap:butt;stroke-linejoin:miter;stroke-opacity:1" d="M 11.0106,620.933 11.0106,585.88 z" id="boundary" inkscape:connector-curvature="0" />
	<path style="fill:none;stroke:red;stroke-width:1px;stroke-linecap:butt;stroke-linejoin:miter;stroke-opacity:1" d="M 11.0106,585.88 11.0106,550.827 z" id="boundary" inkscape:connector-curvature="0" />
	<path style="fill:none;stroke:red;stroke-width:1px;stroke-linecap:butt;stroke-linejoin:miter;stroke-opacity:1" d="M 11.0106,550.827 18.0212,508.763 z" id="boundary" inkscape:connector-curvature="0" />
	<path style="fill:none;stroke:red;stroke-width:1px;stroke-linecap:butt;stroke-linejoin:miter;stroke-opacity:1" d="M 18.0212,508.763 25.0318,452.678 z" id="boundary" inkscape:connector-curvature="0" />
	<path style="fill:none;stroke:red;stroke-width:1px;stroke-linecap:butt;stroke-linejoin:miter;stroke-opacity:1" d="M 25.0318,452.678 25.0318,417.625 z" id="boundary" inkscape:connector-curvature="0" />
	<path style="fill:none;stroke:red;stroke-width:1px;stroke-linecap:butt;stroke-linejoin:miter;stroke-opacity:1" d="M 25.0318,417.625 25.0318,382.572 z" id="boundary" inkscape:connector-curvature="0" />
	<path style="fill:none;stroke:red;stroke-width:1px;stroke-linecap:butt;stroke-linejoin:miter;stroke-opacity:1" d="M 25.0318,382.572 25.0318,333.498 z" id="boundary" inkscape:connector-curvature="0" />
	<path style="fill:none;stroke:red;stroke-width:1px;stroke-linecap:butt;stroke-linejoin:miter;stroke-opacity:1" d="M 25.0318,333.498 32.0424,277.413 z" id="boundary" inkscape:connector-curvature="0" />
	<path style="fill:none;stroke:red;stroke-width:1px;stroke-linecap:butt;stroke-linejoin:miter;stroke-opacity:1" d="M 32.0424,277.413 32.0424,242.36 z" id="boundary" inkscape:connector-curvature="0" />
	<path style="fill:none;stroke:red;stroke-width:1px;stroke-linecap:butt;stroke-linejoin:miter;stroke-opacity:1" d="M 32.0424,242.36 32.0424,207.307 z" id="boundary" inkscape:connector-curvature="0" />
	<path style="fill:none;stroke:red;stroke-width:1px;stroke-linecap:butt;stroke-linejoin:miter;stroke-opacity:1" d="M 32.0424,207.307 32.0424,172.254 z" id="boundary" inkscape:connector-curvature="0" />
	<path style="fill:none;stroke:red;stroke-width:1px;stroke-linecap:butt;stroke-linejoin:miter;stroke-opacity:1" d="M 32.0424,172.254 32.0424,137.201 z" id="boundary" inkscape:connector-curvature="0" />
	<path style="fill:none;stroke:red;stroke-width:1px;stroke-linecap:butt;stroke-linejoin:miter;stroke-opacity:1" d="M 32.0424,137.201 32.0424,102.148 z" id="boundary" inkscape:connector-curvature="0" />
	<path style="fill:none;stroke:red;stroke-width:1px;stroke-linecap:butt;stroke-linejoin:miter;stroke-opacity:1" d="M 32.0424,102.148 46.0636,67.0954 z" id="boundary" inkscape:connector-curvature="0" />
	<path style="fill:none;stroke:red;stroke-width:1px;stroke-linecap:butt;stroke-linejoin:miter;stroke-opacity:1" d="M 46.0636,67.0954 53.0742,32.0424 z" id="boundary" inkscape:connector-curvature="0" />
	<path style="fill:none;stroke:red;stroke-width:1px;stroke-linecap:butt;stroke-linejoin:miter;stroke-opacity:1" d="M 53.0742,32.0424 74.106,4 z" id="boundary" inkscape:connector-curvature="0" />
	<path style="fill:none;stroke:red;stroke-width:1px;stroke-linecap:butt;stroke-linejoin:miter;stroke-opacity:1" d="M 74.106,4 84.6219,49.5689 z" id="boundary" inkscape:connector-curvature="0" />
	<path style="fill:none;stroke:red;stroke-width:1px;stroke-linecap:butt;stroke-linejoin:miter;stroke-opacity:1" d="M 84.6219,49.5689 77.6113,84.6219 z" id="boundary" inkscape:connector-curvature="0" />
	<path style="fill:none;stroke:red;stroke-width:1px;stroke-linecap:butt;stroke-linejoin:miter;stroke-opacity:1" d="M 77.6113,84.6219 63.5901,119.675 z" id="boundary" inkscape:connector-curvature="0" />
	<path style="fill:none;stroke:red;stroke-width:1px;stroke-linecap:butt;stroke-linejoin:miter;stroke-opacity:1" d="M 63.5901,119.675 56.5795,305.456 z" id="boundary" inkscape:connector-curvature="0" />
	<path style="fill:none;stroke:red;stroke-width:1px;stroke-linecap:butt;stroke-linejoin:miter;stroke-opacity:1" d="M 56.5795,305.456 56.5795,351.025 z" id="boundary" inkscape:connector-curvature="0" />
	<path style="fill:none;stroke:red;stroke-width:1px;stroke-linecap:butt;stroke-linejoin:miter;stroke-opacity:1" d="M 56.5795,351.025 56.5795,400.099 z" id="boundary" inkscape:connector-curvature="0" />
	<path style="fill:none;stroke:red;stroke-width:1px;stroke-linecap:butt;stroke-linejoin:miter;stroke-opacity:1" d="M 56.5795,400.099 63.5901,435.152 z" id="boundary" inkscape:connector-curvature="0" />
	<path style="fill:none;stroke:red;stroke-width:1px;stroke-linecap:butt;stroke-linejoin:miter;stroke-opacity:1" d="M 63.5901,435.152 70.6007,470.205 z" id="boundary" inkscape:connector-curvature="0" />
	<path style="fill:none;stroke:red;stroke-width:1px;stroke-linecap:butt;stroke-linejoin:miter;stroke-opacity:1" d="M 70.6007,470.205 105.654,480.721 z" id="boundary" inkscape:connector-curvature="0" />
	<path style="fill:none;stroke:red;stroke-width:1px;stroke-linecap:butt;stroke-linejoin:miter;stroke-opacity:1" d="M 105.654,480.721 140.707,487.731 z" id="boundary" inkscape:connector-curvature="0" />
	<path style="fill:none;stroke:red;stroke-width:1px;stroke-linecap:butt;stroke-linejoin:miter;stroke-opacity:1" d="M 140.707,487.731 140.707,522.784 z" id="boundary" inkscape:connector-curvature="0" />
	<path style="fill:none;stroke:red;stroke-width:1px;stroke-linecap:butt;stroke-linejoin:miter;stroke-opacity:1" d="M 140.707,522.784 161.739,550.827 z" id="boundary" inkscape:connector-curvature="0" />
	<path style="fill:none;stroke:red;stroke-width:1px;stroke-linecap:butt;stroke-linejoin:miter;stroke-opacity:1" d="M 161.739,550.827 161.739,585.88 z" id="boundary" inkscape:connector-curvature="0" />
	<path style="fill:none;stroke:red;stroke-width:1px;stroke-linecap:butt;stroke-linejoin:miter;stroke-opacity:1" d="M 161.739,585.88 161.739,620.933 z" id="boundary" inkscape:connector-curvature="0" />
	<path style="fill:none;stroke:red;stroke-width:1px;stroke-linecap:butt;stroke-linejoin:miter;stroke-opacity:1" d="M 161.739,620.933 154.728,655.986 z" id="boundary" inkscape:connector-curvature="0" />
	<path style="fill:none;stroke:red;stroke-width:1px;stroke-linecap:butt;stroke-linejoin:miter;stroke-opacity:1" d="M 154.728,655.986 161.739,691.039 z" id="boundary" inkscape:connector-curvature="0" />
	<path style="fill:none;stroke:red;stroke-width:1px;stroke-linecap:butt;stroke-linejoin:miter;stroke-opacity:1" d="M 161.739,691.039 161.739,726.092 z" id="boundary" inkscape:connector-curvature="0" />
	<path style="fill:none;stroke:red;stroke-width:1px;stroke-linecap:butt;stroke-linejoin:miter;stroke-opacity:1" d="M 161.739,726.092 168.749,761.145 z" id="boundary" inkscape:connector-curvature="0" />
	<path style="fill:none;stroke:red;stroke-width:1px;stroke-linecap:butt;stroke-linejoin:miter;stroke-opacity:1" d="M 168.749,761.145 168.749,796.198 z" id="boundary" inkscape:connector-curvature="0" />
	<path style="fill:none;stroke:red;stroke-width:1px;stroke-linecap:butt;stroke-linejoin:miter;stroke-opacity:1" d="M 168.749,796.198 168.749,831.251 z" id="boundary" inkscape:connector-curvature="0" />
	<circle cx="4" cy="761.145" r="4" fill="#0" id="circle0"/>
	<circle cx="4" cy="796.198" r="4" fill="#0" id="circle1"/>
	<circle cx="4" cy="831.251" r="4" fill="#0" id="circle2"/>
	<circle cx="4" cy="866.304" r="4" fill="#0" id="circle3"/>
	<circle cx="4" cy="901.357" r="4" fill="#0" id="circle4"/>
	<circle cx="11.0106" cy="550.827" r="4" fill="#0" id="circle5"/>
	<circle cx="11.0106" cy="585.88" r="4" fill="#0" id="circle6"/>
	<circle cx="11.0106" cy="620.933" r="4" fill="#0" id="circle7"/>
	<circle cx="11.0106" cy="712.071" r="4" fill="#0" id="circle8"/>
	<circle cx="11.0106" cy="936.41" r="4" fill="#0" id="circle9"/>
	<circle cx="18.0212" cy="508.763" r="4" fill="#0" id="circle10"/>
	<circle cx="18.0212" cy="655.986" r="4" fill="#0" id="circle11"/>
	<circle cx="18.0212" cy="971.463" r="4" fill="#0" id="circle12"/>
	<circle cx="25.0318" cy="333.498" r="4" fill="#0" id="circle13"/>
	<circle cx="25.0318" cy="382.572" r="4" fill="#0" id="circle14"/>
	<circle cx="25.0318" cy="417.625" r="4" fill="#0" id="circle15"/>
	<circle cx="25.0318" cy="452.678" r="4" fill="#0" id="circle16"/>
	<circle cx="32.0424" cy="102.148" r="4" fill="#0" id="circle17"/>
	<circle cx="32.0424" cy="137.201" r="4" fill="#0" id="circle18"/>
	<circle cx="32.0424" cy="172.254" r="4" fill="#0" id="circle19"/>
	<circle cx="32.0424" cy="207.307" r="4" fill="#0" id="circle20"/>
	<circle cx="32.0424" cy="242.36" r="4" fill="#0" id="circle21"/>
	<circle cx="32.0424" cy="277.413" r="4" fill="#0" id="circle22"/>
	<circle cx="46.0636" cy="67.0954" r="4" fill="#0" id="circle23"/>
	<circle cx="49.5689" cy="988.989" r="4" fill="#0" id="circle24"/>
	<circle cx="53.0742" cy="32.0424" r="4" fill="#0" id="circle25"/>
	<circle cx="56.5795" cy="305.456" r="4" fill="#0" id="circle26"/>
	<circle cx="56.5795" cy="351.025" r="4" fill="#0" id="circle27"/>
	<circle cx="56.5795" cy="400.099" r="4" fill="#0" id="circle28"/>
	<circle cx="63.5901" cy="119.675" r="4" fill="#0" id="circle29"/>
	<circle cx="63.5901" cy="435.152" r="4" fill="#0" id="circle30"/>
	<circle cx="70.6007" cy="470.205" r="4" fill="#0" id="circle31"/>
	<circle cx="74.106" cy="4" r="4" fill="#0" id="circle32"/>
	<circle cx="77.6113" cy="84.6219" r="4" fill="#0" id="circle33"/>
	<circle cx="84.6219" cy="49.5689" r="4" fill="#0" id="circle34"/>
	<circle cx="84.6219" cy="996" r="4" fill="#0" id="circle35"/>
	<circle cx="105.654" cy="480.721" r="4" fill="#0" id="circle36"/>
	<circle cx="119.675" cy="988.989" r="4" fill="#0" id="circle37"/>
	<circle cx="140.707" cy="487.731" r="4" fill="#0" id="circle38"/>
	<circle cx="140.707" cy="522.784" r="4" fill="#0" id="circle39"/>
	<circle cx="154.728" cy="655.986" r="4" fill="#0" id="circle40"/>
	<circle cx="154.728" cy="957.442" r="4" fill="#0" id="circle41"/>
	<circle cx="161.739" cy="550.827" r="4" fill="#0" id="circle42"/>
	<circle cx="161.739" cy="585.88" r="4" fill="#0" id="circle43"/>
	<circle cx="161.739" cy="620.933" r="4" fill="#0" id="circle44"/>
	<circle cx="161.739" cy="691.039" r="4" fill="#0" id="circle45"/>
	<circle cx="161.739" cy="726.092" r="4" fill="#0" id="circle46"/>
	<circle cx="161.739" cy="922.389" r="4" fill="#0" id="circle47"/>
	<circle cx="168.749" cy="761.145" r="4" fill="#0" id="circle48"/>
	<circle cx="168.749" cy="796.198" r="4" fill="#0" id="circle49"/>
	<circle cx="168.749" cy="831.251" r="4" fill="#0" id="circle50"/>
	<circle cx="168.749" cy="866.304" r="4" fill="#0" id="circle51"/>
	</g>
</svg>