<?xml version="1.0" encoding="UTF-8" standalone="no"?>
<!-- Created with CurveBenchmark -->
<svg
	xmlns:dc="http://purl.org/dc/elements/1.1/"
	xmlns:cc="http://creativecommons.org/ns#"
	xmlns:rdf="http://www.w3.org/1999/02/22-rdf-syntax-ns#"
	xmlns:svg="http://www.w3.org/2000/svg"
	xmlns="http://www.w3.org/2000/svg"
	xmlns:sodipodi="http://sodipodi.sourceforge.net/DTD/sodipodi-0.dtd"
	xmlns:inkscape="http://www.inkscape.org/namespaces/inkscape"
	width="1000"
	height="1000"
	id="svg2"
	version="1.1"
	sodipodi:docname="manifold/connect2d-fgen1bp.png.txt">
<defs
	id="defs4" />
<metadata
	id="metadata7">
	<rdf:RDF>
		<cc:Work
			rdf:about="">
			<dc:format>image/svg+xml</dc:format>
			<dc:type
				rdf:resource="http://purl.org/dc/dcmitype/StillImage" />
			<dc:title></dc:title>
		</cc:Work>
	</rdf:RDF>
</metadata>
<g
	inkscape:label="Layer 1"
	inkscape:groupmode="layer"
	id="layer1">
	<path style="fill:none;stroke:red;stroke-width:1px;stroke-linecap:butt;stroke-linejoin:miter;stroke-opacity:1" d="M 961.395,359.659 967.163,378.884 z" id="boundary" inkscape:connector-curvature="0" />
	<path style="fill:none;stroke:red;stroke-width:1px;stroke-linecap:butt;stroke-linejoin:miter;stroke-opacity:1" d="M 967.163,378.884 976.775,396.186 z" id="boundary" inkscape:connector-curvature="0" />
	<path style="fill:none;stroke:red;stroke-width:1px;stroke-linecap:butt;stroke-linejoin:miter;stroke-opacity:1" d="M 976.775,396.186 986.388,413.488 z" id="boundary" inkscape:connector-curvature="0" />
	<path style="fill:none;stroke:red;stroke-width:1px;stroke-linecap:butt;stroke-linejoin:miter;stroke-opacity:1" d="M 986.388,413.488 984.465,432.713 z" id="boundary" inkscape:connector-curvature="0" />
	<path style="fill:none;stroke:red;stroke-width:1px;stroke-linecap:butt;stroke-linejoin:miter;stroke-opacity:1" d="M 984.465,432.713 967.163,442.326 z" id="boundary" inkscape:connector-curvature="0" />
	<path style="fill:none;stroke:red;stroke-width:1px;stroke-linecap:butt;stroke-linejoin:miter;stroke-opacity:1" d="M 967.163,442.326 947.938,434.636 z" id="boundary" inkscape:connector-curvature="0" />
	<path style="fill:none;stroke:red;stroke-width:1px;stroke-linecap:butt;stroke-linejoin:miter;stroke-opacity:1" d="M 947.938,434.636 934.481,419.256 z" id="boundary" inkscape:connector-curvature="0" />
	<path style="fill:none;stroke:red;stroke-width:1px;stroke-linecap:butt;stroke-linejoin:miter;stroke-opacity:1" d="M 934.481,419.256 919.101,405.798 z" id="boundary" inkscape:connector-curvature="0" />
	<path style="fill:none;stroke:red;stroke-width:1px;stroke-linecap:butt;stroke-linejoin:miter;stroke-opacity:1" d="M 919.101,405.798 907.566,390.419 z" id="boundary" inkscape:connector-curvature="0" />
	<path style="fill:none;stroke:red;stroke-width:1px;stroke-linecap:butt;stroke-linejoin:miter;stroke-opacity:1" d="M 907.566,390.419 888.341,384.651 z" id="boundary" inkscape:connector-curvature="0" />
	<path style="fill:none;stroke:red;stroke-width:1px;stroke-linecap:butt;stroke-linejoin:miter;stroke-opacity:1" d="M 888.341,384.651 871.039,375.039 z" id="boundary" inkscape:connector-curvature="0" />
	<path style="fill:none;stroke:red;stroke-width:1px;stroke-linecap:butt;stroke-linejoin:miter;stroke-opacity:1" d="M 871.039,375.039 851.814,371.194 z" id="boundary" inkscape:connector-curvature="0" />
	<path style="fill:none;stroke:red;stroke-width:1px;stroke-linecap:butt;stroke-linejoin:miter;stroke-opacity:1" d="M 851.814,371.194 834.512,361.581 z" id="boundary" inkscape:connector-curvature="0" />
	<path style="fill:none;stroke:red;stroke-width:1px;stroke-linecap:butt;stroke-linejoin:miter;stroke-opacity:1" d="M 834.512,361.581 817.209,351.969 z" id="boundary" inkscape:connector-curvature="0" />
	<path style="fill:none;stroke:red;stroke-width:1px;stroke-linecap:butt;stroke-linejoin:miter;stroke-opacity:1" d="M 817.209,351.969 797.984,351.969 z" id="boundary" inkscape:connector-curvature="0" />
	<path style="fill:none;stroke:red;stroke-width:1px;stroke-linecap:butt;stroke-linejoin:miter;stroke-opacity:1" d="M 797.984,351.969 780.682,342.357 z" id="boundary" inkscape:connector-curvature="0" />
	<path style="fill:none;stroke:red;stroke-width:1px;stroke-linecap:butt;stroke-linejoin:miter;stroke-opacity:1" d="M 780.682,342.357 761.457,342.357 z" id="boundary" inkscape:connector-curvature="0" />
	<path style="fill:none;stroke:red;stroke-width:1px;stroke-linecap:butt;stroke-linejoin:miter;stroke-opacity:1" d="M 761.457,342.357 744.155,332.744 z" id="boundary" inkscape:connector-curvature="0" />
	<path style="fill:none;stroke:red;stroke-width:1px;stroke-linecap:butt;stroke-linejoin:miter;stroke-opacity:1" d="M 744.155,332.744 724.93,332.744 z" id="boundary" inkscape:connector-curvature="0" />
	<path style="fill:none;stroke:red;stroke-width:1px;stroke-linecap:butt;stroke-linejoin:miter;stroke-opacity:1" d="M 724.93,332.744 705.705,332.744 z" id="boundary" inkscape:connector-curvature="0" />
	<path style="fill:none;stroke:red;stroke-width:1px;stroke-linecap:butt;stroke-linejoin:miter;stroke-opacity:1" d="M 705.705,332.744 686.481,332.744 z" id="boundary" inkscape:connector-curvature="0" />
	<path style="fill:none;stroke:red;stroke-width:1px;stroke-linecap:butt;stroke-linejoin:miter;stroke-opacity:1" d="M 686.481,332.744 667.256,332.744 z" id="boundary" inkscape:connector-curvature="0" />
	<path style="fill:none;stroke:red;stroke-width:1px;stroke-linecap:butt;stroke-linejoin:miter;stroke-opacity:1" d="M 667.256,332.744 648.031,332.744 z" id="boundary" inkscape:connector-curvature="0" />
	<path style="fill:none;stroke:red;stroke-width:1px;stroke-linecap:butt;stroke-linejoin:miter;stroke-opacity:1" d="M 648.031,332.744 630.729,342.357 z" id="boundary" inkscape:connector-curvature="0" />
	<path style="fill:none;stroke:red;stroke-width:1px;stroke-linecap:butt;stroke-linejoin:miter;stroke-opacity:1" d="M 630.729,342.357 640.341,359.659 z" id="boundary" inkscape:connector-curvature="0" />
	<path style="fill:none;stroke:red;stroke-width:1px;stroke-linecap:butt;stroke-linejoin:miter;stroke-opacity:1" d="M 640.341,359.659 649.953,376.961 z" id="boundary" inkscape:connector-curvature="0" />
	<path style="fill:none;stroke:red;stroke-width:1px;stroke-linecap:butt;stroke-linejoin:miter;stroke-opacity:1" d="M 649.953,376.961 659.566,394.264 z" id="boundary" inkscape:connector-curvature="0" />
	<path style="fill:none;stroke:red;stroke-width:1px;stroke-linecap:butt;stroke-linejoin:miter;stroke-opacity:1" d="M 659.566,394.264 667.256,413.488 z" id="boundary" inkscape:connector-curvature="0" />
	<path style="fill:none;stroke:red;stroke-width:1px;stroke-linecap:butt;stroke-linejoin:miter;stroke-opacity:1" d="M 667.256,413.488 676.868,430.791 z" id="boundary" inkscape:connector-curvature="0" />
	<path style="fill:none;stroke:red;stroke-width:1px;stroke-linecap:butt;stroke-linejoin:miter;stroke-opacity:1" d="M 676.868,430.791 684.558,450.016 z" id="boundary" inkscape:connector-curvature="0" />
	<path style="fill:none;stroke:red;stroke-width:1px;stroke-linecap:butt;stroke-linejoin:miter;stroke-opacity:1" d="M 684.558,450.016 694.171,467.318 z" id="boundary" inkscape:connector-curvature="0" />
	<path style="fill:none;stroke:red;stroke-width:1px;stroke-linecap:butt;stroke-linejoin:miter;stroke-opacity:1" d="M 694.171,467.318 701.86,486.543 z" id="boundary" inkscape:connector-curvature="0" />
	<path style="fill:none;stroke:red;stroke-width:1px;stroke-linecap:butt;stroke-linejoin:miter;stroke-opacity:1" d="M 701.86,486.543 717.24,500 z" id="boundary" inkscape:connector-curvature="0" />
	<path style="fill:none;stroke:red;stroke-width:1px;stroke-linecap:butt;stroke-linejoin:miter;stroke-opacity:1" d="M 717.24,500 717.24,519.225 z" id="boundary" inkscape:connector-curvature="0" />
	<path style="fill:none;stroke:red;stroke-width:1px;stroke-linecap:butt;stroke-linejoin:miter;stroke-opacity:1" d="M 717.24,519.225 726.853,536.527 z" id="boundary" inkscape:connector-curvature="0" />
	<path style="fill:none;stroke:red;stroke-width:1px;stroke-linecap:butt;stroke-linejoin:miter;stroke-opacity:1" d="M 726.853,536.527 726.853,555.752 z" id="boundary" inkscape:connector-curvature="0" />
	<path style="fill:none;stroke:red;stroke-width:1px;stroke-linecap:butt;stroke-linejoin:miter;stroke-opacity:1" d="M 726.853,555.752 726.853,574.977 z" id="boundary" inkscape:connector-curvature="0" />
	<path style="fill:none;stroke:red;stroke-width:1px;stroke-linecap:butt;stroke-linejoin:miter;stroke-opacity:1" d="M 726.853,574.977 717.24,601.891 z" id="boundary" inkscape:connector-curvature="0" />
	<path style="fill:none;stroke:red;stroke-width:1px;stroke-linecap:butt;stroke-linejoin:miter;stroke-opacity:1" d="M 717.24,601.891 717.24,621.116 z" id="boundary" inkscape:connector-curvature="0" />
	<path style="fill:none;stroke:red;stroke-width:1px;stroke-linecap:butt;stroke-linejoin:miter;stroke-opacity:1" d="M 717.24,621.116 707.628,649.953 z" id="boundary" inkscape:connector-curvature="0" />
	<path style="fill:none;stroke:red;stroke-width:1px;stroke-linecap:butt;stroke-linejoin:miter;stroke-opacity:1" d="M 707.628,649.953 707.628,669.178 z" id="boundary" inkscape:connector-curvature="0" />
	<path style="fill:none;stroke:red;stroke-width:1px;stroke-linecap:butt;stroke-linejoin:miter;stroke-opacity:1" d="M 707.628,669.178 698.016,688.403 z" id="boundary" inkscape:connector-curvature="0" />
	<path style="fill:none;stroke:red;stroke-width:1px;stroke-linecap:butt;stroke-linejoin:miter;stroke-opacity:1" d="M 698.016,688.403 688.403,717.24 z" id="boundary" inkscape:connector-curvature="0" />
	<path style="fill:none;stroke:red;stroke-width:1px;stroke-linecap:butt;stroke-linejoin:miter;stroke-opacity:1" d="M 688.403,717.24 678.791,746.078 z" id="boundary" inkscape:connector-curvature="0" />
	<path style="fill:none;stroke:red;stroke-width:1px;stroke-linecap:butt;stroke-linejoin:miter;stroke-opacity:1" d="M 678.791,746.078 669.178,765.302 z" id="boundary" inkscape:connector-curvature="0" />
	<path style="fill:none;stroke:red;stroke-width:1px;stroke-linecap:butt;stroke-linejoin:miter;stroke-opacity:1" d="M 669.178,765.302 659.566,794.14 z" id="boundary" inkscape:connector-curvature="0" />
	<path style="fill:none;stroke:red;stroke-width:1px;stroke-linecap:butt;stroke-linejoin:miter;stroke-opacity:1" d="M 659.566,794.14 649.953,813.364 z" id="boundary" inkscape:connector-curvature="0" />
	<path style="fill:none;stroke:red;stroke-width:1px;stroke-linecap:butt;stroke-linejoin:miter;stroke-opacity:1" d="M 649.953,813.364 640.341,832.589 z" id="boundary" inkscape:connector-curvature="0" />
	<path style="fill:none;stroke:red;stroke-width:1px;stroke-linecap:butt;stroke-linejoin:miter;stroke-opacity:1" d="M 640.341,832.589 636.496,857.581 z" id="boundary" inkscape:connector-curvature="0" />
	<path style="fill:none;stroke:red;stroke-width:1px;stroke-linecap:butt;stroke-linejoin:miter;stroke-opacity:1" d="M 636.496,857.581 626.884,876.806 z" id="boundary" inkscape:connector-curvature="0" />
	<path style="fill:none;stroke:red;stroke-width:1px;stroke-linecap:butt;stroke-linejoin:miter;stroke-opacity:1" d="M 626.884,876.806 617.271,896.031 z" id="boundary" inkscape:connector-curvature="0" />
	<path style="fill:none;stroke:red;stroke-width:1px;stroke-linecap:butt;stroke-linejoin:miter;stroke-opacity:1" d="M 617.271,896.031 607.659,915.256 z" id="boundary" inkscape:connector-curvature="0" />
	<path style="fill:none;stroke:red;stroke-width:1px;stroke-linecap:butt;stroke-linejoin:miter;stroke-opacity:1" d="M 607.659,915.256 598.047,934.481 z" id="boundary" inkscape:connector-curvature="0" />
	<path style="fill:none;stroke:red;stroke-width:1px;stroke-linecap:butt;stroke-linejoin:miter;stroke-opacity:1" d="M 598.047,934.481 582.667,947.938 z" id="boundary" inkscape:connector-curvature="0" />
	<path style="fill:none;stroke:red;stroke-width:1px;stroke-linecap:butt;stroke-linejoin:miter;stroke-opacity:1" d="M 582.667,947.938 567.287,965.24 z" id="boundary" inkscape:connector-curvature="0" />
	<path style="fill:none;stroke:red;stroke-width:1px;stroke-linecap:butt;stroke-linejoin:miter;stroke-opacity:1" d="M 567.287,965.24 548.062,974.853 z" id="boundary" inkscape:connector-curvature="0" />
	<path style="fill:none;stroke:red;stroke-width:1px;stroke-linecap:butt;stroke-linejoin:miter;stroke-opacity:1" d="M 548.062,974.853 528.837,984.465 z" id="boundary" inkscape:connector-curvature="0" />
	<path style="fill:none;stroke:red;stroke-width:1px;stroke-linecap:butt;stroke-linejoin:miter;stroke-opacity:1" d="M 528.837,984.465 509.612,986.388 z" id="boundary" inkscape:connector-curvature="0" />
	<path style="fill:none;stroke:red;stroke-width:1px;stroke-linecap:butt;stroke-linejoin:miter;stroke-opacity:1" d="M 509.612,986.388 492.31,996 z" id="boundary" inkscape:connector-curvature="0" />
	<path style="fill:none;stroke:red;stroke-width:1px;stroke-linecap:butt;stroke-linejoin:miter;stroke-opacity:1" d="M 492.31,996 473.085,996 z" id="boundary" inkscape:connector-curvature="0" />
	<path style="fill:none;stroke:red;stroke-width:1px;stroke-linecap:butt;stroke-linejoin:miter;stroke-opacity:1" d="M 473.085,996 453.86,996 z" id="boundary" inkscape:connector-curvature="0" />
	<path style="fill:none;stroke:red;stroke-width:1px;stroke-linecap:butt;stroke-linejoin:miter;stroke-opacity:1" d="M 453.86,996 434.636,996 z" id="boundary" inkscape:connector-curvature="0" />
	<path style="fill:none;stroke:red;stroke-width:1px;stroke-linecap:butt;stroke-linejoin:miter;stroke-opacity:1" d="M 434.636,996 415.411,996 z" id="boundary" inkscape:connector-curvature="0" />
	<path style="fill:none;stroke:red;stroke-width:1px;stroke-linecap:butt;stroke-linejoin:miter;stroke-opacity:1" d="M 415.411,996 398.109,986.388 z" id="boundary" inkscape:connector-curvature="0" />
	<path style="fill:none;stroke:red;stroke-width:1px;stroke-linecap:butt;stroke-linejoin:miter;stroke-opacity:1" d="M 398.109,986.388 378.884,986.388 z" id="boundary" inkscape:connector-curvature="0" />
	<path style="fill:none;stroke:red;stroke-width:1px;stroke-linecap:butt;stroke-linejoin:miter;stroke-opacity:1" d="M 378.884,986.388 361.581,976.775 z" id="boundary" inkscape:connector-curvature="0" />
	<path style="fill:none;stroke:red;stroke-width:1px;stroke-linecap:butt;stroke-linejoin:miter;stroke-opacity:1" d="M 361.581,976.775 344.279,967.163 z" id="boundary" inkscape:connector-curvature="0" />
	<path style="fill:none;stroke:red;stroke-width:1px;stroke-linecap:butt;stroke-linejoin:miter;stroke-opacity:1" d="M 344.279,967.163 326.977,957.55 z" id="boundary" inkscape:connector-curvature="0" />
	<path style="fill:none;stroke:red;stroke-width:1px;stroke-linecap:butt;stroke-linejoin:miter;stroke-opacity:1" d="M 326.977,957.55 313.519,942.171 z" id="boundary" inkscape:connector-curvature="0" />
	<path style="fill:none;stroke:red;stroke-width:1px;stroke-linecap:butt;stroke-linejoin:miter;stroke-opacity:1" d="M 313.519,942.171 301.984,926.791 z" id="boundary" inkscape:connector-curvature="0" />
	<path style="fill:none;stroke:red;stroke-width:1px;stroke-linecap:butt;stroke-linejoin:miter;stroke-opacity:1" d="M 301.984,926.791 292.372,909.488 z" id="boundary" inkscape:connector-curvature="0" />
	<path style="fill:none;stroke:red;stroke-width:1px;stroke-linecap:butt;stroke-linejoin:miter;stroke-opacity:1" d="M 292.372,909.488 282.76,892.186 z" id="boundary" inkscape:connector-curvature="0" />
	<path style="fill:none;stroke:red;stroke-width:1px;stroke-linecap:butt;stroke-linejoin:miter;stroke-opacity:1" d="M 282.76,892.186 282.76,872.961 z" id="boundary" inkscape:connector-curvature="0" />
	<path style="fill:none;stroke:red;stroke-width:1px;stroke-linecap:butt;stroke-linejoin:miter;stroke-opacity:1" d="M 282.76,872.961 273.147,855.659 z" id="boundary" inkscape:connector-curvature="0" />
	<path style="fill:none;stroke:red;stroke-width:1px;stroke-linecap:butt;stroke-linejoin:miter;stroke-opacity:1" d="M 273.147,855.659 263.535,838.357 z" id="boundary" inkscape:connector-curvature="0" />
	<path style="fill:none;stroke:red;stroke-width:1px;stroke-linecap:butt;stroke-linejoin:miter;stroke-opacity:1" d="M 263.535,838.357 253.922,821.054 z" id="boundary" inkscape:connector-curvature="0" />
	<path style="fill:none;stroke:red;stroke-width:1px;stroke-linecap:butt;stroke-linejoin:miter;stroke-opacity:1" d="M 253.922,821.054 250.078,801.829 z" id="boundary" inkscape:connector-curvature="0" />
	<path style="fill:none;stroke:red;stroke-width:1px;stroke-linecap:butt;stroke-linejoin:miter;stroke-opacity:1" d="M 250.078,801.829 240.465,784.527 z" id="boundary" inkscape:connector-curvature="0" />
	<path style="fill:none;stroke:red;stroke-width:1px;stroke-linecap:butt;stroke-linejoin:miter;stroke-opacity:1" d="M 240.465,784.527 234.698,765.302 z" id="boundary" inkscape:connector-curvature="0" />
	<path style="fill:none;stroke:red;stroke-width:1px;stroke-linecap:butt;stroke-linejoin:miter;stroke-opacity:1" d="M 234.698,765.302 217.395,774.915 z" id="boundary" inkscape:connector-curvature="0" />
	<path style="fill:none;stroke:red;stroke-width:1px;stroke-linecap:butt;stroke-linejoin:miter;stroke-opacity:1" d="M 217.395,774.915 211.628,801.829 z" id="boundary" inkscape:connector-curvature="0" />
	<path style="fill:none;stroke:red;stroke-width:1px;stroke-linecap:butt;stroke-linejoin:miter;stroke-opacity:1" d="M 211.628,801.829 202.016,821.054 z" id="boundary" inkscape:connector-curvature="0" />
	<path style="fill:none;stroke:red;stroke-width:1px;stroke-linecap:butt;stroke-linejoin:miter;stroke-opacity:1" d="M 202.016,821.054 186.636,832.589 z" id="boundary" inkscape:connector-curvature="0" />
	<path style="fill:none;stroke:red;stroke-width:1px;stroke-linecap:butt;stroke-linejoin:miter;stroke-opacity:1" d="M 186.636,832.589 167.411,836.434 z" id="boundary" inkscape:connector-curvature="0" />
	<path style="fill:none;stroke:red;stroke-width:1px;stroke-linecap:butt;stroke-linejoin:miter;stroke-opacity:1" d="M 167.411,836.434 148.186,832.589 z" id="boundary" inkscape:connector-curvature="0" />
	<path style="fill:none;stroke:red;stroke-width:1px;stroke-linecap:butt;stroke-linejoin:miter;stroke-opacity:1" d="M 148.186,832.589 128.961,832.589 z" id="boundary" inkscape:connector-curvature="0" />
	<path style="fill:none;stroke:red;stroke-width:1px;stroke-linecap:butt;stroke-linejoin:miter;stroke-opacity:1" d="M 128.961,832.589 109.736,826.822 z" id="boundary" inkscape:connector-curvature="0" />
	<path style="fill:none;stroke:red;stroke-width:1px;stroke-linecap:butt;stroke-linejoin:miter;stroke-opacity:1" d="M 109.736,826.822 119.349,807.597 z" id="boundary" inkscape:connector-curvature="0" />
	<path style="fill:none;stroke:red;stroke-width:1px;stroke-linecap:butt;stroke-linejoin:miter;stroke-opacity:1" d="M 119.349,807.597 134.729,792.217 z" id="boundary" inkscape:connector-curvature="0" />
	<path style="fill:none;stroke:red;stroke-width:1px;stroke-linecap:butt;stroke-linejoin:miter;stroke-opacity:1" d="M 134.729,792.217 144.341,772.992 z" id="boundary" inkscape:connector-curvature="0" />
	<path style="fill:none;stroke:red;stroke-width:1px;stroke-linecap:butt;stroke-linejoin:miter;stroke-opacity:1" d="M 144.341,772.992 159.721,757.612 z" id="boundary" inkscape:connector-curvature="0" />
	<path style="fill:none;stroke:red;stroke-width:1px;stroke-linecap:butt;stroke-linejoin:miter;stroke-opacity:1" d="M 159.721,757.612 175.101,744.155 z" id="boundary" inkscape:connector-curvature="0" />
	<path style="fill:none;stroke:red;stroke-width:1px;stroke-linecap:butt;stroke-linejoin:miter;stroke-opacity:1" d="M 175.101,744.155 182.791,724.93 z" id="boundary" inkscape:connector-curvature="0" />
	<path style="fill:none;stroke:red;stroke-width:1px;stroke-linecap:butt;stroke-linejoin:miter;stroke-opacity:1" d="M 182.791,724.93 198.171,709.55 z" id="boundary" inkscape:connector-curvature="0" />
	<path style="fill:none;stroke:red;stroke-width:1px;stroke-linecap:butt;stroke-linejoin:miter;stroke-opacity:1" d="M 198.171,709.55 205.86,676.868 z" id="boundary" inkscape:connector-curvature="0" />
	<path style="fill:none;stroke:red;stroke-width:1px;stroke-linecap:butt;stroke-linejoin:miter;stroke-opacity:1" d="M 205.86,676.868 196.248,659.566 z" id="boundary" inkscape:connector-curvature="0" />
	<path style="fill:none;stroke:red;stroke-width:1px;stroke-linecap:butt;stroke-linejoin:miter;stroke-opacity:1" d="M 196.248,659.566 196.248,640.341 z" id="boundary" inkscape:connector-curvature="0" />
	<path style="fill:none;stroke:red;stroke-width:1px;stroke-linecap:butt;stroke-linejoin:miter;stroke-opacity:1" d="M 196.248,640.341 186.636,623.039 z" id="boundary" inkscape:connector-curvature="0" />
	<path style="fill:none;stroke:red;stroke-width:1px;stroke-linecap:butt;stroke-linejoin:miter;stroke-opacity:1" d="M 186.636,623.039 186.636,603.814 z" id="boundary" inkscape:connector-curvature="0" />
	<path style="fill:none;stroke:red;stroke-width:1px;stroke-linecap:butt;stroke-linejoin:miter;stroke-opacity:1" d="M 186.636,603.814 186.636,584.589 z" id="boundary" inkscape:connector-curvature="0" />
	<path style="fill:none;stroke:red;stroke-width:1px;stroke-linecap:butt;stroke-linejoin:miter;stroke-opacity:1" d="M 186.636,584.589 177.023,567.287 z" id="boundary" inkscape:connector-curvature="0" />
	<path style="fill:none;stroke:red;stroke-width:1px;stroke-linecap:butt;stroke-linejoin:miter;stroke-opacity:1" d="M 177.023,567.287 177.023,548.062 z" id="boundary" inkscape:connector-curvature="0" />
	<path style="fill:none;stroke:red;stroke-width:1px;stroke-linecap:butt;stroke-linejoin:miter;stroke-opacity:1" d="M 177.023,548.062 177.023,528.837 z" id="boundary" inkscape:connector-curvature="0" />
	<path style="fill:none;stroke:red;stroke-width:1px;stroke-linecap:butt;stroke-linejoin:miter;stroke-opacity:1" d="M 177.023,528.837 186.636,509.612 z" id="boundary" inkscape:connector-curvature="0" />
	<path style="fill:none;stroke:red;stroke-width:1px;stroke-linecap:butt;stroke-linejoin:miter;stroke-opacity:1" d="M 186.636,509.612 196.248,490.388 z" id="boundary" inkscape:connector-curvature="0" />
	<path style="fill:none;stroke:red;stroke-width:1px;stroke-linecap:butt;stroke-linejoin:miter;stroke-opacity:1" d="M 196.248,490.388 205.86,471.163 z" id="boundary" inkscape:connector-curvature="0" />
	<path style="fill:none;stroke:red;stroke-width:1px;stroke-linecap:butt;stroke-linejoin:miter;stroke-opacity:1" d="M 205.86,471.163 215.473,451.938 z" id="boundary" inkscape:connector-curvature="0" />
	<path style="fill:none;stroke:red;stroke-width:1px;stroke-linecap:butt;stroke-linejoin:miter;stroke-opacity:1" d="M 215.473,451.938 230.853,436.558 z" id="boundary" inkscape:connector-curvature="0" />
	<path style="fill:none;stroke:red;stroke-width:1px;stroke-linecap:butt;stroke-linejoin:miter;stroke-opacity:1" d="M 230.853,436.558 240.465,417.333 z" id="boundary" inkscape:connector-curvature="0" />
	<path style="fill:none;stroke:red;stroke-width:1px;stroke-linecap:butt;stroke-linejoin:miter;stroke-opacity:1" d="M 240.465,417.333 250.078,398.109 z" id="boundary" inkscape:connector-curvature="0" />
	<path style="fill:none;stroke:red;stroke-width:1px;stroke-linecap:butt;stroke-linejoin:miter;stroke-opacity:1" d="M 250.078,398.109 259.69,378.884 z" id="boundary" inkscape:connector-curvature="0" />
	<path style="fill:none;stroke:red;stroke-width:1px;stroke-linecap:butt;stroke-linejoin:miter;stroke-opacity:1" d="M 259.69,378.884 269.302,361.581 z" id="boundary" inkscape:connector-curvature="0" />
	<path style="fill:none;stroke:red;stroke-width:1px;stroke-linecap:butt;stroke-linejoin:miter;stroke-opacity:1" d="M 269.302,361.581 263.535,342.357 z" id="boundary" inkscape:connector-curvature="0" />
	<path style="fill:none;stroke:red;stroke-width:1px;stroke-linecap:butt;stroke-linejoin:miter;stroke-opacity:1" d="M 263.535,342.357 246.233,351.969 z" id="boundary" inkscape:connector-curvature="0" />
	<path style="fill:none;stroke:red;stroke-width:1px;stroke-linecap:butt;stroke-linejoin:miter;stroke-opacity:1" d="M 246.233,351.969 232.775,367.349 z" id="boundary" inkscape:connector-curvature="0" />
	<path style="fill:none;stroke:red;stroke-width:1px;stroke-linecap:butt;stroke-linejoin:miter;stroke-opacity:1" d="M 232.775,367.349 217.395,380.806 z" id="boundary" inkscape:connector-curvature="0" />
	<path style="fill:none;stroke:red;stroke-width:1px;stroke-linecap:butt;stroke-linejoin:miter;stroke-opacity:1" d="M 217.395,380.806 203.938,396.186 z" id="boundary" inkscape:connector-curvature="0" />
	<path style="fill:none;stroke:red;stroke-width:1px;stroke-linecap:butt;stroke-linejoin:miter;stroke-opacity:1" d="M 203.938,396.186 194.326,415.411 z" id="boundary" inkscape:connector-curvature="0" />
	<path style="fill:none;stroke:red;stroke-width:1px;stroke-linecap:butt;stroke-linejoin:miter;stroke-opacity:1" d="M 194.326,415.411 178.946,428.868 z" id="boundary" inkscape:connector-curvature="0" />
	<path style="fill:none;stroke:red;stroke-width:1px;stroke-linecap:butt;stroke-linejoin:miter;stroke-opacity:1" d="M 178.946,428.868 169.333,448.093 z" id="boundary" inkscape:connector-curvature="0" />
	<path style="fill:none;stroke:red;stroke-width:1px;stroke-linecap:butt;stroke-linejoin:miter;stroke-opacity:1" d="M 169.333,448.093 150.109,448.093 z" id="boundary" inkscape:connector-curvature="0" />
	<path style="fill:none;stroke:red;stroke-width:1px;stroke-linecap:butt;stroke-linejoin:miter;stroke-opacity:1" d="M 150.109,448.093 138.574,432.713 z" id="boundary" inkscape:connector-curvature="0" />
	<path style="fill:none;stroke:red;stroke-width:1px;stroke-linecap:butt;stroke-linejoin:miter;stroke-opacity:1" d="M 138.574,432.713 138.574,413.488 z" id="boundary" inkscape:connector-curvature="0" />
	<path style="fill:none;stroke:red;stroke-width:1px;stroke-linecap:butt;stroke-linejoin:miter;stroke-opacity:1" d="M 138.574,413.488 138.574,394.264 z" id="boundary" inkscape:connector-curvature="0" />
	<path style="fill:none;stroke:red;stroke-width:1px;stroke-linecap:butt;stroke-linejoin:miter;stroke-opacity:1" d="M 138.574,394.264 138.574,375.039 z" id="boundary" inkscape:connector-curvature="0" />
	<path style="fill:none;stroke:red;stroke-width:1px;stroke-linecap:butt;stroke-linejoin:miter;stroke-opacity:1" d="M 138.574,375.039 138.574,355.814 z" id="boundary" inkscape:connector-curvature="0" />
	<path style="fill:none;stroke:red;stroke-width:1px;stroke-linecap:butt;stroke-linejoin:miter;stroke-opacity:1" d="M 138.574,355.814 148.186,326.977 z" id="boundary" inkscape:connector-curvature="0" />
	<path style="fill:none;stroke:red;stroke-width:1px;stroke-linecap:butt;stroke-linejoin:miter;stroke-opacity:1" d="M 148.186,326.977 163.566,311.597 z" id="boundary" inkscape:connector-curvature="0" />
	<path style="fill:none;stroke:red;stroke-width:1px;stroke-linecap:butt;stroke-linejoin:miter;stroke-opacity:1" d="M 163.566,311.597 178.946,296.217 z" id="boundary" inkscape:connector-curvature="0" />
	<path style="fill:none;stroke:red;stroke-width:1px;stroke-linecap:butt;stroke-linejoin:miter;stroke-opacity:1" d="M 178.946,296.217 188.558,276.992 z" id="boundary" inkscape:connector-curvature="0" />
	<path style="fill:none;stroke:red;stroke-width:1px;stroke-linecap:butt;stroke-linejoin:miter;stroke-opacity:1" d="M 188.558,276.992 186.636,246.233 z" id="boundary" inkscape:connector-curvature="0" />
	<path style="fill:none;stroke:red;stroke-width:1px;stroke-linecap:butt;stroke-linejoin:miter;stroke-opacity:1" d="M 186.636,246.233 182.791,227.008 z" id="boundary" inkscape:connector-curvature="0" />
	<path style="fill:none;stroke:red;stroke-width:1px;stroke-linecap:butt;stroke-linejoin:miter;stroke-opacity:1" d="M 182.791,227.008 175.101,207.783 z" id="boundary" inkscape:connector-curvature="0" />
	<path style="fill:none;stroke:red;stroke-width:1px;stroke-linecap:butt;stroke-linejoin:miter;stroke-opacity:1" d="M 175.101,207.783 155.876,207.783 z" id="boundary" inkscape:connector-curvature="0" />
	<path style="fill:none;stroke:red;stroke-width:1px;stroke-linecap:butt;stroke-linejoin:miter;stroke-opacity:1" d="M 155.876,207.783 138.574,198.171 z" id="boundary" inkscape:connector-curvature="0" />
	<path style="fill:none;stroke:red;stroke-width:1px;stroke-linecap:butt;stroke-linejoin:miter;stroke-opacity:1" d="M 138.574,198.171 119.349,198.171 z" id="boundary" inkscape:connector-curvature="0" />
	<path style="fill:none;stroke:red;stroke-width:1px;stroke-linecap:butt;stroke-linejoin:miter;stroke-opacity:1" d="M 119.349,198.171 100.124,198.171 z" id="boundary" inkscape:connector-curvature="0" />
	<path style="fill:none;stroke:red;stroke-width:1px;stroke-linecap:butt;stroke-linejoin:miter;stroke-opacity:1" d="M 100.124,198.171 80.8992,198.171 z" id="boundary" inkscape:connector-curvature="0" />
	<path style="fill:none;stroke:red;stroke-width:1px;stroke-linecap:butt;stroke-linejoin:miter;stroke-opacity:1" d="M 80.8992,198.171 61.6744,202.016 z" id="boundary" inkscape:connector-curvature="0" />
	<path style="fill:none;stroke:red;stroke-width:1px;stroke-linecap:butt;stroke-linejoin:miter;stroke-opacity:1" d="M 61.6744,202.016 42.4496,211.628 z" id="boundary" inkscape:connector-curvature="0" />
	<path style="fill:none;stroke:red;stroke-width:1px;stroke-linecap:butt;stroke-linejoin:miter;stroke-opacity:1" d="M 42.4496,211.628 23.2248,221.24 z" id="boundary" inkscape:connector-curvature="0" />
	<path style="fill:none;stroke:red;stroke-width:1px;stroke-linecap:butt;stroke-linejoin:miter;stroke-opacity:1" d="M 23.2248,221.24 4,221.24 z" id="boundary" inkscape:connector-curvature="0" />
	<path style="fill:none;stroke:red;stroke-width:1px;stroke-linecap:butt;stroke-linejoin:miter;stroke-opacity:1" d="M 4,221.24 4,202.016 z" id="boundary" inkscape:connector-curvature="0" />
	<path style="fill:none;stroke:red;stroke-width:1px;stroke-linecap:butt;stroke-linejoin:miter;stroke-opacity:1" d="M 4,202.016 13.6124,182.791 z" id="boundary" inkscape:connector-curvature="0" />
	<path style="fill:none;stroke:red;stroke-width:1px;stroke-linecap:butt;stroke-linejoin:miter;stroke-opacity:1" d="M 13.6124,182.791 23.2248,163.566 z" id="boundary" inkscape:connector-curvature="0" />
	<path style="fill:none;stroke:red;stroke-width:1px;stroke-linecap:butt;stroke-linejoin:miter;stroke-opacity:1" d="M 23.2248,163.566 32.8372,144.341 z" id="boundary" inkscape:connector-curvature="0" />
	<path style="fill:none;stroke:red;stroke-width:1px;stroke-linecap:butt;stroke-linejoin:miter;stroke-opacity:1" d="M 32.8372,144.341 52.062,134.729 z" id="boundary" inkscape:connector-curvature="0" />
	<path style="fill:none;stroke:red;stroke-width:1px;stroke-linecap:butt;stroke-linejoin:miter;stroke-opacity:1" d="M 52.062,134.729 71.2868,125.116 z" id="boundary" inkscape:connector-curvature="0" />
	<path style="fill:none;stroke:red;stroke-width:1px;stroke-linecap:butt;stroke-linejoin:miter;stroke-opacity:1" d="M 71.2868,125.116 90.5116,115.504 z" id="boundary" inkscape:connector-curvature="0" />
	<path style="fill:none;stroke:red;stroke-width:1px;stroke-linecap:butt;stroke-linejoin:miter;stroke-opacity:1" d="M 90.5116,115.504 109.736,109.736 z" id="boundary" inkscape:connector-curvature="0" />
	<path style="fill:none;stroke:red;stroke-width:1px;stroke-linecap:butt;stroke-linejoin:miter;stroke-opacity:1" d="M 109.736,109.736 127.039,100.124 z" id="boundary" inkscape:connector-curvature="0" />
	<path style="fill:none;stroke:red;stroke-width:1px;stroke-linecap:butt;stroke-linejoin:miter;stroke-opacity:1" d="M 127.039,100.124 146.264,100.124 z" id="boundary" inkscape:connector-curvature="0" />
	<path style="fill:none;stroke:red;stroke-width:1px;stroke-linecap:butt;stroke-linejoin:miter;stroke-opacity:1" d="M 146.264,100.124 163.566,90.5116 z" id="boundary" inkscape:connector-curvature="0" />
	<path style="fill:none;stroke:red;stroke-width:1px;stroke-linecap:butt;stroke-linejoin:miter;stroke-opacity:1" d="M 163.566,90.5116 182.791,90.5116 z" id="boundary" inkscape:connector-curvature="0" />
	<path style="fill:none;stroke:red;stroke-width:1px;stroke-linecap:butt;stroke-linejoin:miter;stroke-opacity:1" d="M 182.791,90.5116 202.016,90.5116 z" id="boundary" inkscape:connector-curvature="0" />
	<path style="fill:none;stroke:red;stroke-width:1px;stroke-linecap:butt;stroke-linejoin:miter;stroke-opacity:1" d="M 202.016,90.5116 219.318,80.8992 z" id="boundary" inkscape:connector-curvature="0" />
	<path style="fill:none;stroke:red;stroke-width:1px;stroke-linecap:butt;stroke-linejoin:miter;stroke-opacity:1" d="M 219.318,80.8992 238.543,80.8992 z" id="boundary" inkscape:connector-curvature="0" />
	<path style="fill:none;stroke:red;stroke-width:1px;stroke-linecap:butt;stroke-linejoin:miter;stroke-opacity:1" d="M 238.543,80.8992 257.767,73.2093 z" id="boundary" inkscape:connector-curvature="0" />
	<path style="fill:none;stroke:red;stroke-width:1px;stroke-linecap:butt;stroke-linejoin:miter;stroke-opacity:1" d="M 257.767,73.2093 276.992,63.5969 z" id="boundary" inkscape:connector-curvature="0" />
	<path style="fill:none;stroke:red;stroke-width:1px;stroke-linecap:butt;stroke-linejoin:miter;stroke-opacity:1" d="M 276.992,63.5969 296.217,53.9845 z" id="boundary" inkscape:connector-curvature="0" />
	<path style="fill:none;stroke:red;stroke-width:1px;stroke-linecap:butt;stroke-linejoin:miter;stroke-opacity:1" d="M 296.217,53.9845 315.442,44.3721 z" id="boundary" inkscape:connector-curvature="0" />
	<path style="fill:none;stroke:red;stroke-width:1px;stroke-linecap:butt;stroke-linejoin:miter;stroke-opacity:1" d="M 315.442,44.3721 334.667,34.7597 z" id="boundary" inkscape:connector-curvature="0" />
	<path style="fill:none;stroke:red;stroke-width:1px;stroke-linecap:butt;stroke-linejoin:miter;stroke-opacity:1" d="M 334.667,34.7597 353.891,25.1473 z" id="boundary" inkscape:connector-curvature="0" />
	<path style="fill:none;stroke:red;stroke-width:1px;stroke-linecap:butt;stroke-linejoin:miter;stroke-opacity:1" d="M 353.891,25.1473 373.116,23.2248 z" id="boundary" inkscape:connector-curvature="0" />
	<path style="fill:none;stroke:red;stroke-width:1px;stroke-linecap:butt;stroke-linejoin:miter;stroke-opacity:1" d="M 373.116,23.2248 392.341,15.5349 z" id="boundary" inkscape:connector-curvature="0" />
	<path style="fill:none;stroke:red;stroke-width:1px;stroke-linecap:butt;stroke-linejoin:miter;stroke-opacity:1" d="M 392.341,15.5349 411.566,13.6124 z" id="boundary" inkscape:connector-curvature="0" />
	<path style="fill:none;stroke:red;stroke-width:1px;stroke-linecap:butt;stroke-linejoin:miter;stroke-opacity:1" d="M 411.566,13.6124 430.791,5.92248 z" id="boundary" inkscape:connector-curvature="0" />
	<path style="fill:none;stroke:red;stroke-width:1px;stroke-linecap:butt;stroke-linejoin:miter;stroke-opacity:1" d="M 430.791,5.92248 450.016,4 z" id="boundary" inkscape:connector-curvature="0" />
	<path style="fill:none;stroke:red;stroke-width:1px;stroke-linecap:butt;stroke-linejoin:miter;stroke-opacity:1" d="M 450.016,4 469.24,4 z" id="boundary" inkscape:connector-curvature="0" />
	<path style="fill:none;stroke:red;stroke-width:1px;stroke-linecap:butt;stroke-linejoin:miter;stroke-opacity:1" d="M 469.24,4 486.543,13.6124 z" id="boundary" inkscape:connector-curvature="0" />
	<path style="fill:none;stroke:red;stroke-width:1px;stroke-linecap:butt;stroke-linejoin:miter;stroke-opacity:1" d="M 486.543,13.6124 505.767,13.6124 z" id="boundary" inkscape:connector-curvature="0" />
	<path style="fill:none;stroke:red;stroke-width:1px;stroke-linecap:butt;stroke-linejoin:miter;stroke-opacity:1" d="M 505.767,13.6124 523.07,23.2248 z" id="boundary" inkscape:connector-curvature="0" />
	<path style="fill:none;stroke:red;stroke-width:1px;stroke-linecap:butt;stroke-linejoin:miter;stroke-opacity:1" d="M 523.07,23.2248 542.295,23.2248 z" id="boundary" inkscape:connector-curvature="0" />
	<path style="fill:none;stroke:red;stroke-width:1px;stroke-linecap:butt;stroke-linejoin:miter;stroke-opacity:1" d="M 542.295,23.2248 559.597,32.8372 z" id="boundary" inkscape:connector-curvature="0" />
	<path style="fill:none;stroke:red;stroke-width:1px;stroke-linecap:butt;stroke-linejoin:miter;stroke-opacity:1" d="M 559.597,32.8372 578.822,34.7597 z" id="boundary" inkscape:connector-curvature="0" />
	<path style="fill:none;stroke:red;stroke-width:1px;stroke-linecap:butt;stroke-linejoin:miter;stroke-opacity:1" d="M 578.822,34.7597 596.124,44.3721 z" id="boundary" inkscape:connector-curvature="0" />
	<path style="fill:none;stroke:red;stroke-width:1px;stroke-linecap:butt;stroke-linejoin:miter;stroke-opacity:1" d="M 596.124,44.3721 611.504,57.8295 z" id="boundary" inkscape:connector-curvature="0" />
	<path style="fill:none;stroke:red;stroke-width:1px;stroke-linecap:butt;stroke-linejoin:miter;stroke-opacity:1" d="M 611.504,57.8295 628.806,67.4419 z" id="boundary" inkscape:connector-curvature="0" />
	<path style="fill:none;stroke:red;stroke-width:1px;stroke-linecap:butt;stroke-linejoin:miter;stroke-opacity:1" d="M 628.806,67.4419 648.031,75.1318 z" id="boundary" inkscape:connector-curvature="0" />
	<path style="fill:none;stroke:red;stroke-width:1px;stroke-linecap:butt;stroke-linejoin:miter;stroke-opacity:1" d="M 648.031,75.1318 659.566,90.5116 z" id="boundary" inkscape:connector-curvature="0" />
	<path style="fill:none;stroke:red;stroke-width:1px;stroke-linecap:butt;stroke-linejoin:miter;stroke-opacity:1" d="M 659.566,90.5116 678.791,96.2791 z" id="boundary" inkscape:connector-curvature="0" />
	<path style="fill:none;stroke:red;stroke-width:1px;stroke-linecap:butt;stroke-linejoin:miter;stroke-opacity:1" d="M 678.791,96.2791 686.481,115.504 z" id="boundary" inkscape:connector-curvature="0" />
	<path style="fill:none;stroke:red;stroke-width:1px;stroke-linecap:butt;stroke-linejoin:miter;stroke-opacity:1" d="M 686.481,115.504 701.86,128.961 z" id="boundary" inkscape:connector-curvature="0" />
	<path style="fill:none;stroke:red;stroke-width:1px;stroke-linecap:butt;stroke-linejoin:miter;stroke-opacity:1" d="M 701.86,128.961 715.318,144.341 z" id="boundary" inkscape:connector-curvature="0" />
	<path style="fill:none;stroke:red;stroke-width:1px;stroke-linecap:butt;stroke-linejoin:miter;stroke-opacity:1" d="M 715.318,144.341 724.93,161.643 z" id="boundary" inkscape:connector-curvature="0" />
	<path style="fill:none;stroke:red;stroke-width:1px;stroke-linecap:butt;stroke-linejoin:miter;stroke-opacity:1" d="M 724.93,161.643 726.853,180.868 z" id="boundary" inkscape:connector-curvature="0" />
	<path style="fill:none;stroke:red;stroke-width:1px;stroke-linecap:butt;stroke-linejoin:miter;stroke-opacity:1" d="M 726.853,180.868 744.155,190.481 z" id="boundary" inkscape:connector-curvature="0" />
	<path style="fill:none;stroke:red;stroke-width:1px;stroke-linecap:butt;stroke-linejoin:miter;stroke-opacity:1" d="M 744.155,190.481 761.457,200.093 z" id="boundary" inkscape:connector-curvature="0" />
	<path style="fill:none;stroke:red;stroke-width:1px;stroke-linecap:butt;stroke-linejoin:miter;stroke-opacity:1" d="M 761.457,200.093 774.915,215.473 z" id="boundary" inkscape:connector-curvature="0" />
	<path style="fill:none;stroke:red;stroke-width:1px;stroke-linecap:butt;stroke-linejoin:miter;stroke-opacity:1" d="M 774.915,215.473 794.14,221.24 z" id="boundary" inkscape:connector-curvature="0" />
	<path style="fill:none;stroke:red;stroke-width:1px;stroke-linecap:butt;stroke-linejoin:miter;stroke-opacity:1" d="M 794.14,221.24 811.442,230.853 z" id="boundary" inkscape:connector-curvature="0" />
	<path style="fill:none;stroke:red;stroke-width:1px;stroke-linecap:butt;stroke-linejoin:miter;stroke-opacity:1" d="M 811.442,230.853 826.822,244.31 z" id="boundary" inkscape:connector-curvature="0" />
	<path style="fill:none;stroke:red;stroke-width:1px;stroke-linecap:butt;stroke-linejoin:miter;stroke-opacity:1" d="M 826.822,244.31 844.124,253.922 z" id="boundary" inkscape:connector-curvature="0" />
	<path style="fill:none;stroke:red;stroke-width:1px;stroke-linecap:butt;stroke-linejoin:miter;stroke-opacity:1" d="M 844.124,253.922 861.426,263.535 z" id="boundary" inkscape:connector-curvature="0" />
	<path style="fill:none;stroke:red;stroke-width:1px;stroke-linecap:butt;stroke-linejoin:miter;stroke-opacity:1" d="M 861.426,263.535 876.806,275.07 z" id="boundary" inkscape:connector-curvature="0" />
	<path style="fill:none;stroke:red;stroke-width:1px;stroke-linecap:butt;stroke-linejoin:miter;stroke-opacity:1" d="M 876.806,275.07 894.109,284.682 z" id="boundary" inkscape:connector-curvature="0" />
	<path style="fill:none;stroke:red;stroke-width:1px;stroke-linecap:butt;stroke-linejoin:miter;stroke-opacity:1" d="M 894.109,284.682 909.488,298.14 z" id="boundary" inkscape:connector-curvature="0" />
	<path style="fill:none;stroke:red;stroke-width:1px;stroke-linecap:butt;stroke-linejoin:miter;stroke-opacity:1" d="M 909.488,298.14 922.946,313.519 z" id="boundary" inkscape:connector-curvature="0" />
	<path style="fill:none;stroke:red;stroke-width:1px;stroke-linecap:butt;stroke-linejoin:miter;stroke-opacity:1" d="M 922.946,313.519 938.326,326.977 z" id="boundary" inkscape:connector-curvature="0" />
	<path style="fill:none;stroke:red;stroke-width:1px;stroke-linecap:butt;stroke-linejoin:miter;stroke-opacity:1" d="M 938.326,326.977 951.783,342.357 z" id="boundary" inkscape:connector-curvature="0" />
	<path style="fill:none;stroke:red;stroke-width:1px;stroke-linecap:butt;stroke-linejoin:miter;stroke-opacity:1" d="M 951.783,342.357 961.395,359.659 z" id="boundary" inkscape:connector-curvature="0" />
	<circle cx="4" cy="202.016" r="4" fill="#0" id="circle0"/>
	<circle cx="4" cy="221.24" r="4" fill="#0" id="circle1"/>
	<circle cx="13.6124" cy="182.791" r="4" fill="#0" id="circle2"/>
	<circle cx="23.2248" cy="163.566" r="4" fill="#0" id="circle3"/>
	<circle cx="23.2248" cy="221.24" r="4" fill="#0" id="circle4"/>
	<circle cx="32.8372" cy="144.341" r="4" fill="#0" id="circle5"/>
	<circle cx="42.4496" cy="211.628" r="4" fill="#0" id="circle6"/>
	<circle cx="52.062" cy="134.729" r="4" fill="#0" id="circle7"/>
	<circle cx="61.6744" cy="202.016" r="4" fill="#0" id="circle8"/>
	<circle cx="71.2868" cy="125.116" r="4" fill="#0" id="circle9"/>
	<circle cx="80.8992" cy="198.171" r="4" fill="#0" id="circle10"/>
	<circle cx="90.5116" cy="115.504" r="4" fill="#0" id="circle11"/>
	<circle cx="100.124" cy="198.171" r="4" fill="#0" id="circle12"/>
	<circle cx="109.736" cy="109.736" r="4" fill="#0" id="circle13"/>
	<circle cx="109.736" cy="826.822" r="4" fill="#0" id="circle14"/>
	<circle cx="119.349" cy="198.171" r="4" fill="#0" id="circle15"/>
	<circle cx="119.349" cy="807.597" r="4" fill="#0" id="circle16"/>
	<circle cx="127.039" cy="100.124" r="4" fill="#0" id="circle17"/>
	<circle cx="128.961" cy="832.589" r="4" fill="#0" id="circle18"/>
	<circle cx="134.729" cy="792.217" r="4" fill="#0" id="circle19"/>
	<circle cx="138.574" cy="198.171" r="4" fill="#0" id="circle20"/>
	<circle cx="138.574" cy="355.814" r="4" fill="#0" id="circle21"/>
	<circle cx="138.574" cy="375.039" r="4" fill="#0" id="circle22"/>
	<circle cx="138.574" cy="394.264" r="4" fill="#0" id="circle23"/>
	<circle cx="138.574" cy="413.488" r="4" fill="#0" id="circle24"/>
	<circle cx="138.574" cy="432.713" r="4" fill="#0" id="circle25"/>
	<circle cx="144.341" cy="772.992" r="4" fill="#0" id="circle26"/>
	<circle cx="146.264" cy="100.124" r="4" fill="#0" id="circle27"/>
	<circle cx="148.186" cy="326.977" r="4" fill="#0" id="circle28"/>
	<circle cx="148.186" cy="832.589" r="4" fill="#0" id="circle29"/>
	<circle cx="150.109" cy="448.093" r="4" fill="#0" id="circle30"/>
	<circle cx="155.876" cy="207.783" r="4" fill="#0" id="circle31"/>
	<circle cx="159.721" cy="757.612" r="4" fill="#0" id="circle32"/>
	<circle cx="163.566" cy="90.5116" r="4" fill="#0" id="circle33"/>
	<circle cx="163.566" cy="311.597" r="4" fill="#0" id="circle34"/>
	<circle cx="167.411" cy="836.434" r="4" fill="#0" id="circle35"/>
	<circle cx="169.333" cy="448.093" r="4" fill="#0" id="circle36"/>
	<circle cx="175.101" cy="207.783" r="4" fill="#0" id="circle37"/>
	<circle cx="175.101" cy="744.155" r="4" fill="#0" id="circle38"/>
	<circle cx="177.023" cy="528.837" r="4" fill="#0" id="circle39"/>
	<circle cx="177.023" cy="548.062" r="4" fill="#0" id="circle40"/>
	<circle cx="177.023" cy="567.287" r="4" fill="#0" id="circle41"/>
	<circle cx="178.946" cy="296.217" r="4" fill="#0" id="circle42"/>
	<circle cx="178.946" cy="428.868" r="4" fill="#0" id="circle43"/>
	<circle cx="182.791" cy="90.5116" r="4" fill="#0" id="circle44"/>
	<circle cx="182.791" cy="227.008" r="4" fill="#0" id="circle45"/>
	<circle cx="182.791" cy="724.93" r="4" fill="#0" id="circle46"/>
	<circle cx="186.636" cy="246.233" r="4" fill="#0" id="circle47"/>
	<circle cx="186.636" cy="509.612" r="4" fill="#0" id="circle48"/>
	<circle cx="186.636" cy="584.589" r="4" fill="#0" id="circle49"/>
	<circle cx="186.636" cy="603.814" r="4" fill="#0" id="circle50"/>
	<circle cx="186.636" cy="623.039" r="4" fill="#0" id="circle51"/>
	<circle cx="186.636" cy="832.589" r="4" fill="#0" id="circle52"/>
	<circle cx="188.558" cy="276.992" r="4" fill="#0" id="circle53"/>
	<circle cx="194.326" cy="415.411" r="4" fill="#0" id="circle54"/>
	<circle cx="196.248" cy="490.388" r="4" fill="#0" id="circle55"/>
	<circle cx="196.248" cy="640.341" r="4" fill="#0" id="circle56"/>
	<circle cx="196.248" cy="659.566" r="4" fill="#0" id="circle57"/>
	<circle cx="198.171" cy="709.55" r="4" fill="#0" id="circle58"/>
	<circle cx="202.016" cy="90.5116" r="4" fill="#0" id="circle59"/>
	<circle cx="202.016" cy="821.054" r="4" fill="#0" id="circle60"/>
	<circle cx="203.938" cy="396.186" r="4" fill="#0" id="circle61"/>
	<circle cx="205.86" cy="471.163" r="4" fill="#0" id="circle62"/>
	<circle cx="205.86" cy="676.868" r="4" fill="#0" id="circle63"/>
	<circle cx="211.628" cy="801.829" r="4" fill="#0" id="circle64"/>
	<circle cx="215.473" cy="451.938" r="4" fill="#0" id="circle65"/>
	<circle cx="217.395" cy="380.806" r="4" fill="#0" id="circle66"/>
	<circle cx="217.395" cy="774.915" r="4" fill="#0" id="circle67"/>
	<circle cx="219.318" cy="80.8992" r="4" fill="#0" id="circle68"/>
	<circle cx="230.853" cy="436.558" r="4" fill="#0" id="circle69"/>
	<circle cx="232.775" cy="367.349" r="4" fill="#0" id="circle70"/>
	<circle cx="234.698" cy="765.302" r="4" fill="#0" id="circle71"/>
	<circle cx="238.543" cy="80.8992" r="4" fill="#0" id="circle72"/>
	<circle cx="240.465" cy="417.333" r="4" fill="#0" id="circle73"/>
	<circle cx="240.465" cy="784.527" r="4" fill="#0" id="circle74"/>
	<circle cx="246.233" cy="351.969" r="4" fill="#0" id="circle75"/>
	<circle cx="250.078" cy="398.109" r="4" fill="#0" id="circle76"/>
	<circle cx="250.078" cy="801.829" r="4" fill="#0" id="circle77"/>
	<circle cx="253.922" cy="821.054" r="4" fill="#0" id="circle78"/>
	<circle cx="257.767" cy="73.2093" r="4" fill="#0" id="circle79"/>
	<circle cx="259.69" cy="378.884" r="4" fill="#0" id="circle80"/>
	<circle cx="263.535" cy="342.357" r="4" fill="#0" id="circle81"/>
	<circle cx="263.535" cy="838.357" r="4" fill="#0" id="circle82"/>
	<circle cx="269.302" cy="361.581" r="4" fill="#0" id="circle83"/>
	<circle cx="273.147" cy="855.659" r="4" fill="#0" id="circle84"/>
	<circle cx="276.992" cy="63.5969" r="4" fill="#0" id="circle85"/>
	<circle cx="282.76" cy="872.961" r="4" fill="#0" id="circle86"/>
	<circle cx="282.76" cy="892.186" r="4" fill="#0" id="circle87"/>
	<circle cx="292.372" cy="909.488" r="4" fill="#0" id="circle88"/>
	<circle cx="296.217" cy="53.9845" r="4" fill="#0" id="circle89"/>
	<circle cx="301.984" cy="926.791" r="4" fill="#0" id="circle90"/>
	<circle cx="313.519" cy="942.171" r="4" fill="#0" id="circle91"/>
	<circle cx="315.442" cy="44.3721" r="4" fill="#0" id="circle92"/>
	<circle cx="326.977" cy="957.55" r="4" fill="#0" id="circle93"/>
	<circle cx="334.667" cy="34.7597" r="4" fill="#0" id="circle94"/>
	<circle cx="344.279" cy="967.163" r="4" fill="#0" id="circle95"/>
	<circle cx="353.891" cy="25.1473" r="4" fill="#0" id="circle96"/>
	<circle cx="361.581" cy="976.775" r="4" fill="#0" id="circle97"/>
	<circle cx="373.116" cy="23.2248" r="4" fill="#0" id="circle98"/>
	<circle cx="378.884" cy="986.388" r="4" fill="#0" id="circle99"/>
	<circle cx="392.341" cy="15.5349" r="4" fill="#0" id="circle100"/>
	<circle cx="398.109" cy="986.388" r="4" fill="#0" id="circle101"/>
	<circle cx="411.566" cy="13.6124" r="4" fill="#0" id="circle102"/>
	<circle cx="415.411" cy="996" r="4" fill="#0" id="circle103"/>
	<circle cx="430.791" cy="5.92248" r="4" fill="#0" id="circle104"/>
	<circle cx="434.636" cy="996" r="4" fill="#0" id="circle105"/>
	<circle cx="450.016" cy="4" r="4" fill="#0" id="circle106"/>
	<circle cx="453.86" cy="996" r="4" fill="#0" id="circle107"/>
	<circle cx="469.24" cy="4" r="4" fill="#0" id="circle108"/>
	<circle cx="473.085" cy="996" r="4" fill="#0" id="circle109"/>
	<circle cx="486.543" cy="13.6124" r="4" fill="#0" id="circle110"/>
	<circle cx="492.31" cy="996" r="4" fill="#0" id="circle111"/>
	<circle cx="505.767" cy="13.6124" r="4" fill="#0" id="circle112"/>
	<circle cx="509.612" cy="986.388" r="4" fill="#0" id="circle113"/>
	<circle cx="523.07" cy="23.2248" r="4" fill="#0" id="circle114"/>
	<circle cx="528.837" cy="984.465" r="4" fill="#0" id="circle115"/>
	<circle cx="542.295" cy="23.2248" r="4" fill="#0" id="circle116"/>
	<circle cx="548.062" cy="974.853" r="4" fill="#0" id="circle117"/>
	<circle cx="559.597" cy="32.8372" r="4" fill="#0" id="circle118"/>
	<circle cx="567.287" cy="965.24" r="4" fill="#0" id="circle119"/>
	<circle cx="578.822" cy="34.7597" r="4" fill="#0" id="circle120"/>
	<circle cx="582.667" cy="947.938" r="4" fill="#0" id="circle121"/>
	<circle cx="596.124" cy="44.3721" r="4" fill="#0" id="circle122"/>
	<circle cx="598.047" cy="934.481" r="4" fill="#0" id="circle123"/>
	<circle cx="607.659" cy="915.256" r="4" fill="#0" id="circle124"/>
	<circle cx="611.504" cy="57.8295" r="4" fill="#0" id="circle125"/>
	<circle cx="617.271" cy="896.031" r="4" fill="#0" id="circle126"/>
	<circle cx="626.884" cy="876.806" r="4" fill="#0" id="circle127"/>
	<circle cx="628.806" cy="67.4419" r="4" fill="#0" id="circle128"/>
	<circle cx="630.729" cy="342.357" r="4" fill="#0" id="circle129"/>
	<circle cx="636.496" cy="857.581" r="4" fill="#0" id="circle130"/>
	<circle cx="640.341" cy="359.659" r="4" fill="#0" id="circle131"/>
	<circle cx="640.341" cy="832.589" r="4" fill="#0" id="circle132"/>
	<circle cx="648.031" cy="75.1318" r="4" fill="#0" id="circle133"/>
	<circle cx="648.031" cy="332.744" r="4" fill="#0" id="circle134"/>
	<circle cx="649.953" cy="376.961" r="4" fill="#0" id="circle135"/>
	<circle cx="649.953" cy="813.364" r="4" fill="#0" id="circle136"/>
	<circle cx="659.566" cy="90.5116" r="4" fill="#0" id="circle137"/>
	<circle cx="659.566" cy="394.264" r="4" fill="#0" id="circle138"/>
	<circle cx="659.566" cy="794.14" r="4" fill="#0" id="circle139"/>
	<circle cx="667.256" cy="332.744" r="4" fill="#0" id="circle140"/>
	<circle cx="667.256" cy="413.488" r="4" fill="#0" id="circle141"/>
	<circle cx="669.178" cy="765.302" r="4" fill="#0" id="circle142"/>
	<circle cx="676.868" cy="430.791" r="4" fill="#0" id="circle143"/>
	<circle cx="678.791" cy="96.2791" r="4" fill="#0" id="circle144"/>
	<circle cx="678.791" cy="746.078" r="4" fill="#0" id="circle145"/>
	<circle cx="684.558" cy="450.016" r="4" fill="#0" id="circle146"/>
	<circle cx="686.481" cy="115.504" r="4" fill="#0" id="circle147"/>
	<circle cx="686.481" cy="332.744" r="4" fill="#0" id="circle148"/>
	<circle cx="688.403" cy="717.24" r="4" fill="#0" id="circle149"/>
	<circle cx="694.171" cy="467.318" r="4" fill="#0" id="circle150"/>
	<circle cx="698.016" cy="688.403" r="4" fill="#0" id="circle151"/>
	<circle cx="701.86" cy="128.961" r="4" fill="#0" id="circle152"/>
	<circle cx="701.86" cy="486.543" r="4" fill="#0" id="circle153"/>
	<circle cx="705.705" cy="332.744" r="4" fill="#0" id="circle154"/>
	<circle cx="707.628" cy="649.953" r="4" fill="#0" id="circle155"/>
	<circle cx="707.628" cy="669.178" r="4" fill="#0" id="circle156"/>
	<circle cx="715.318" cy="144.341" r="4" fill="#0" id="circle157"/>
	<circle cx="717.24" cy="500" r="4" fill="#0" id="circle158"/>
	<circle cx="717.24" cy="519.225" r="4" fill="#0" id="circle159"/>
	<circle cx="717.24" cy="601.891" r="4" fill="#0" id="circle160"/>
	<circle cx="717.24" cy="621.116" r="4" fill="#0" id="circle161"/>
	<circle cx="724.93" cy="161.643" r="4" fill="#0" id="circle162"/>
	<circle cx="724.93" cy="332.744" r="4" fill="#0" id="circle163"/>
	<circle cx="726.853" cy="180.868" r="4" fill="#0" id="circle164"/>
	<circle cx="726.853" cy="536.527" r="4" fill="#0" id="circle165"/>
	<circle cx="726.853" cy="555.752" r="4" fill="#0" id="circle166"/>
	<circle cx="726.853" cy="574.977" r="4" fill="#0" id="circle167"/>
	<circle cx="744.155" cy="190.481" r="4" fill="#0" id="circle168"/>
	<circle cx="744.155" cy="332.744" r="4" fill="#0" id="circle169"/>
	<circle cx="761.457" cy="200.093" r="4" fill="#0" id="circle170"/>
	<circle cx="761.457" cy="342.357" r="4" fill="#0" id="circle171"/>
	<circle cx="774.915" cy="215.473" r="4" fill="#0" id="circle172"/>
	<circle cx="780.682" cy="342.357" r="4" fill="#0" id="circle173"/>
	<circle cx="794.14" cy="221.24" r="4" fill="#0" id="circle174"/>
	<circle cx="797.984" cy="351.969" r="4" fill="#0" id="circle175"/>
	<circle cx="811.442" cy="230.853" r="4" fill="#0" id="circle176"/>
	<circle cx="817.209" cy="351.969" r="4" fill="#0" id="circle177"/>
	<circle cx="826.822" cy="244.31" r="4" fill="#0" id="circle178"/>
	<circle cx="834.512" cy="361.581" r="4" fill="#0" id="circle179"/>
	<circle cx="844.124" cy="253.922" r="4" fill="#0" id="circle180"/>
	<circle cx="851.814" cy="371.194" r="4" fill="#0" id="circle181"/>
	<circle cx="861.426" cy="263.535" r="4" fill="#0" id="circle182"/>
	<circle cx="871.039" cy="375.039" r="4" fill="#0" id="circle183"/>
	<circle cx="876.806" cy="275.07" r="4" fill="#0" id="circle184"/>
	<circle cx="888.341" cy="384.651" r="4" fill="#0" id="circle185"/>
	<circle cx="894.109" cy="284.682" r="4" fill="#0" id="circle186"/>
	<circle cx="907.566" cy="390.419" r="4" fill="#0" id="circle187"/>
	<circle cx="909.488" cy="298.14" r="4" fill="#0" id="circle188"/>
	<circle cx="919.101" cy="405.798" r="4" fill="#0" id="circle189"/>
	<circle cx="922.946" cy="313.519" r="4" fill="#0" id="circle190"/>
	<circle cx="934.481" cy="419.256" r="4" fill="#0" id="circle191"/>
	<circle cx="938.326" cy="326.977" r="4" fill="#0" id="circle192"/>
	<circle cx="947.938" cy="434.636" r="4" fill="#0" id="circle193"/>
	<circle cx="951.783" cy="342.357" r="4" fill="#0" id="circle194"/>
	<circle cx="961.395" cy="359.659" r="4" fill="#0" id="circle195"/>
	<circle cx="967.163" cy="378.884" r="4" fill="#0" id="circle196"/>
	<circle cx="967.163" cy="442.326" r="4" fill="#0" id="circle197"/>
	<circle cx="976.775" cy="396.186" r="4" fill="#0" id="circle198"/>
	<circle cx="984.465" cy="432.713" r="4" fill="#0" id="circle199"/>
	<circle cx="986.388" cy="413.488" r="4" fill="#0" id="circle200"/>
	</g>
</svg>