<?xml version="1.0" encoding="UTF-8" standalone="no"?>
<!-- Created with CurveBenchmark -->
<svg
	xmlns:dc="http://purl.org/dc/elements/1.1/"
	xmlns:cc="http://creativecommons.org/ns#"
	xmlns:rdf="http://www.w3.org/1999/02/22-rdf-syntax-ns#"
	xmlns:svg="http://www.w3.org/2000/svg"
	xmlns="http://www.w3.org/2000/svg"
	xmlns:sodipodi="http://sodipodi.sourceforge.net/DTD/sodipodi-0.dtd"
	xmlns:inkscape="http://www.inkscape.org/namespaces/inkscape"
	width="1000"
	height="1000"
	id="svg2"
	version="1.1"
	sodipodi:docname="manifold/connect2d-brick-12.png.txt">
<defs
	id="defs4" />
<metadata
	id="metadata7">
	<rdf:RDF>
		<cc:Work
			rdf:about="">
			<dc:format>image/svg+xml</dc:format>
			<dc:type
				rdf:resource="http://purl.org/dc/dcmitype/StillImage" />
			<dc:title></dc:title>
		</cc:Work>
	</rdf:RDF>
</metadata>
<g
	inkscape:label="Layer 1"
	inkscape:groupmode="layer"
	id="layer1">
	<path style="fill:none;stroke:red;stroke-width:1px;stroke-linecap:butt;stroke-linejoin:miter;stroke-opacity:1" d="M 996,156.964 989.664,166.015 z" id="boundary" inkscape:connector-curvature="0" />
	<path style="fill:none;stroke:red;stroke-width:1px;stroke-linecap:butt;stroke-linejoin:miter;stroke-opacity:1" d="M 989.664,166.015 980.613,168.73 z" id="boundary" inkscape:connector-curvature="0" />
	<path style="fill:none;stroke:red;stroke-width:1px;stroke-linecap:butt;stroke-linejoin:miter;stroke-opacity:1" d="M 980.613,168.73 971.562,173.255 z" id="boundary" inkscape:connector-curvature="0" />
	<path style="fill:none;stroke:red;stroke-width:1px;stroke-linecap:butt;stroke-linejoin:miter;stroke-opacity:1" d="M 971.562,173.255 964.321,179.591 z" id="boundary" inkscape:connector-curvature="0" />
	<path style="fill:none;stroke:red;stroke-width:1px;stroke-linecap:butt;stroke-linejoin:miter;stroke-opacity:1" d="M 964.321,179.591 957.985,186.832 z" id="boundary" inkscape:connector-curvature="0" />
	<path style="fill:none;stroke:red;stroke-width:1px;stroke-linecap:butt;stroke-linejoin:miter;stroke-opacity:1" d="M 957.985,186.832 948.934,191.358 z" id="boundary" inkscape:connector-curvature="0" />
	<path style="fill:none;stroke:red;stroke-width:1px;stroke-linecap:butt;stroke-linejoin:miter;stroke-opacity:1" d="M 948.934,191.358 939.883,195.883 z" id="boundary" inkscape:connector-curvature="0" />
	<path style="fill:none;stroke:red;stroke-width:1px;stroke-linecap:butt;stroke-linejoin:miter;stroke-opacity:1" d="M 939.883,195.883 932.642,202.219 z" id="boundary" inkscape:connector-curvature="0" />
	<path style="fill:none;stroke:red;stroke-width:1px;stroke-linecap:butt;stroke-linejoin:miter;stroke-opacity:1" d="M 932.642,202.219 925.401,210.365 z" id="boundary" inkscape:connector-curvature="0" />
	<path style="fill:none;stroke:red;stroke-width:1px;stroke-linecap:butt;stroke-linejoin:miter;stroke-opacity:1" d="M 925.401,210.365 917.255,215.796 z" id="boundary" inkscape:connector-curvature="0" />
	<path style="fill:none;stroke:red;stroke-width:1px;stroke-linecap:butt;stroke-linejoin:miter;stroke-opacity:1" d="M 917.255,215.796 909.109,220.321 z" id="boundary" inkscape:connector-curvature="0" />
	<path style="fill:none;stroke:red;stroke-width:1px;stroke-linecap:butt;stroke-linejoin:miter;stroke-opacity:1" d="M 909.109,220.321 900.964,224.847 z" id="boundary" inkscape:connector-curvature="0" />
	<path style="fill:none;stroke:red;stroke-width:1px;stroke-linecap:butt;stroke-linejoin:miter;stroke-opacity:1" d="M 900.964,224.847 891.912,229.372 z" id="boundary" inkscape:connector-curvature="0" />
	<path style="fill:none;stroke:red;stroke-width:1px;stroke-linecap:butt;stroke-linejoin:miter;stroke-opacity:1" d="M 891.912,229.372 885.577,236.613 z" id="boundary" inkscape:connector-curvature="0" />
	<path style="fill:none;stroke:red;stroke-width:1px;stroke-linecap:butt;stroke-linejoin:miter;stroke-opacity:1" d="M 885.577,236.613 878.336,242.949 z" id="boundary" inkscape:connector-curvature="0" />
	<path style="fill:none;stroke:red;stroke-width:1px;stroke-linecap:butt;stroke-linejoin:miter;stroke-opacity:1" d="M 878.336,242.949 878.336,252 z" id="boundary" inkscape:connector-curvature="0" />
	<path style="fill:none;stroke:red;stroke-width:1px;stroke-linecap:butt;stroke-linejoin:miter;stroke-opacity:1" d="M 878.336,252 878.336,261.051 z" id="boundary" inkscape:connector-curvature="0" />
	<path style="fill:none;stroke:red;stroke-width:1px;stroke-linecap:butt;stroke-linejoin:miter;stroke-opacity:1" d="M 878.336,261.051 880.146,270.102 z" id="boundary" inkscape:connector-curvature="0" />
	<path style="fill:none;stroke:red;stroke-width:1px;stroke-linecap:butt;stroke-linejoin:miter;stroke-opacity:1" d="M 880.146,270.102 884.672,278.248 z" id="boundary" inkscape:connector-curvature="0" />
	<path style="fill:none;stroke:red;stroke-width:1px;stroke-linecap:butt;stroke-linejoin:miter;stroke-opacity:1" d="M 884.672,278.248 891.007,285.489 z" id="boundary" inkscape:connector-curvature="0" />
	<path style="fill:none;stroke:red;stroke-width:1px;stroke-linecap:butt;stroke-linejoin:miter;stroke-opacity:1" d="M 891.007,285.489 896.438,292.73 z" id="boundary" inkscape:connector-curvature="0" />
	<path style="fill:none;stroke:red;stroke-width:1px;stroke-linecap:butt;stroke-linejoin:miter;stroke-opacity:1" d="M 896.438,292.73 900.964,300.876 z" id="boundary" inkscape:connector-curvature="0" />
	<path style="fill:none;stroke:red;stroke-width:1px;stroke-linecap:butt;stroke-linejoin:miter;stroke-opacity:1" d="M 900.964,300.876 900.964,309.927 z" id="boundary" inkscape:connector-curvature="0" />
	<path style="fill:none;stroke:red;stroke-width:1px;stroke-linecap:butt;stroke-linejoin:miter;stroke-opacity:1" d="M 900.964,309.927 905.489,318.073 z" id="boundary" inkscape:connector-curvature="0" />
	<path style="fill:none;stroke:red;stroke-width:1px;stroke-linecap:butt;stroke-linejoin:miter;stroke-opacity:1" d="M 905.489,318.073 905.489,327.124 z" id="boundary" inkscape:connector-curvature="0" />
	<path style="fill:none;stroke:red;stroke-width:1px;stroke-linecap:butt;stroke-linejoin:miter;stroke-opacity:1" d="M 905.489,327.124 910.015,335.27 z" id="boundary" inkscape:connector-curvature="0" />
	<path style="fill:none;stroke:red;stroke-width:1px;stroke-linecap:butt;stroke-linejoin:miter;stroke-opacity:1" d="M 910.015,335.27 905.489,351.562 z" id="boundary" inkscape:connector-curvature="0" />
	<path style="fill:none;stroke:red;stroke-width:1px;stroke-linecap:butt;stroke-linejoin:miter;stroke-opacity:1" d="M 905.489,351.562 896.438,356.088 z" id="boundary" inkscape:connector-curvature="0" />
	<path style="fill:none;stroke:red;stroke-width:1px;stroke-linecap:butt;stroke-linejoin:miter;stroke-opacity:1" d="M 896.438,356.088 887.387,356.088 z" id="boundary" inkscape:connector-curvature="0" />
	<path style="fill:none;stroke:red;stroke-width:1px;stroke-linecap:butt;stroke-linejoin:miter;stroke-opacity:1" d="M 887.387,356.088 878.336,356.088 z" id="boundary" inkscape:connector-curvature="0" />
	<path style="fill:none;stroke:red;stroke-width:1px;stroke-linecap:butt;stroke-linejoin:miter;stroke-opacity:1" d="M 878.336,356.088 869.285,356.088 z" id="boundary" inkscape:connector-curvature="0" />
	<path style="fill:none;stroke:red;stroke-width:1px;stroke-linecap:butt;stroke-linejoin:miter;stroke-opacity:1" d="M 869.285,356.088 860.234,360.613 z" id="boundary" inkscape:connector-curvature="0" />
	<path style="fill:none;stroke:red;stroke-width:1px;stroke-linecap:butt;stroke-linejoin:miter;stroke-opacity:1" d="M 860.234,360.613 851.182,360.613 z" id="boundary" inkscape:connector-curvature="0" />
	<path style="fill:none;stroke:red;stroke-width:1px;stroke-linecap:butt;stroke-linejoin:miter;stroke-opacity:1" d="M 851.182,360.613 842.131,360.613 z" id="boundary" inkscape:connector-curvature="0" />
	<path style="fill:none;stroke:red;stroke-width:1px;stroke-linecap:butt;stroke-linejoin:miter;stroke-opacity:1" d="M 842.131,360.613 833.08,360.613 z" id="boundary" inkscape:connector-curvature="0" />
	<path style="fill:none;stroke:red;stroke-width:1px;stroke-linecap:butt;stroke-linejoin:miter;stroke-opacity:1" d="M 833.08,360.613 824.029,360.613 z" id="boundary" inkscape:connector-curvature="0" />
	<path style="fill:none;stroke:red;stroke-width:1px;stroke-linecap:butt;stroke-linejoin:miter;stroke-opacity:1" d="M 824.029,360.613 814.978,360.613 z" id="boundary" inkscape:connector-curvature="0" />
	<path style="fill:none;stroke:red;stroke-width:1px;stroke-linecap:butt;stroke-linejoin:miter;stroke-opacity:1" d="M 814.978,360.613 805.927,360.613 z" id="boundary" inkscape:connector-curvature="0" />
	<path style="fill:none;stroke:red;stroke-width:1px;stroke-linecap:butt;stroke-linejoin:miter;stroke-opacity:1" d="M 805.927,360.613 796.876,360.613 z" id="boundary" inkscape:connector-curvature="0" />
	<path style="fill:none;stroke:red;stroke-width:1px;stroke-linecap:butt;stroke-linejoin:miter;stroke-opacity:1" d="M 796.876,360.613 788.73,365.139 z" id="boundary" inkscape:connector-curvature="0" />
	<path style="fill:none;stroke:red;stroke-width:1px;stroke-linecap:butt;stroke-linejoin:miter;stroke-opacity:1" d="M 788.73,365.139 780.584,369.664 z" id="boundary" inkscape:connector-curvature="0" />
	<path style="fill:none;stroke:red;stroke-width:1px;stroke-linecap:butt;stroke-linejoin:miter;stroke-opacity:1" d="M 780.584,369.664 771.533,369.664 z" id="boundary" inkscape:connector-curvature="0" />
	<path style="fill:none;stroke:red;stroke-width:1px;stroke-linecap:butt;stroke-linejoin:miter;stroke-opacity:1" d="M 771.533,369.664 762.482,369.664 z" id="boundary" inkscape:connector-curvature="0" />
	<path style="fill:none;stroke:red;stroke-width:1px;stroke-linecap:butt;stroke-linejoin:miter;stroke-opacity:1" d="M 762.482,369.664 753.431,369.664 z" id="boundary" inkscape:connector-curvature="0" />
	<path style="fill:none;stroke:red;stroke-width:1px;stroke-linecap:butt;stroke-linejoin:miter;stroke-opacity:1" d="M 753.431,369.664 744.38,373.285 z" id="boundary" inkscape:connector-curvature="0" />
	<path style="fill:none;stroke:red;stroke-width:1px;stroke-linecap:butt;stroke-linejoin:miter;stroke-opacity:1" d="M 744.38,373.285 735.328,374.19 z" id="boundary" inkscape:connector-curvature="0" />
	<path style="fill:none;stroke:red;stroke-width:1px;stroke-linecap:butt;stroke-linejoin:miter;stroke-opacity:1" d="M 735.328,374.19 727.182,369.664 z" id="boundary" inkscape:connector-curvature="0" />
	<path style="fill:none;stroke:red;stroke-width:1px;stroke-linecap:butt;stroke-linejoin:miter;stroke-opacity:1" d="M 727.182,369.664 719.036,365.139 z" id="boundary" inkscape:connector-curvature="0" />
	<path style="fill:none;stroke:red;stroke-width:1px;stroke-linecap:butt;stroke-linejoin:miter;stroke-opacity:1" d="M 719.036,365.139 714.511,356.993 z" id="boundary" inkscape:connector-curvature="0" />
	<path style="fill:none;stroke:red;stroke-width:1px;stroke-linecap:butt;stroke-linejoin:miter;stroke-opacity:1" d="M 714.511,356.993 707.27,351.562 z" id="boundary" inkscape:connector-curvature="0" />
	<path style="fill:none;stroke:red;stroke-width:1px;stroke-linecap:butt;stroke-linejoin:miter;stroke-opacity:1" d="M 707.27,351.562 699.124,347.036 z" id="boundary" inkscape:connector-curvature="0" />
	<path style="fill:none;stroke:red;stroke-width:1px;stroke-linecap:butt;stroke-linejoin:miter;stroke-opacity:1" d="M 699.124,347.036 692.788,339.796 z" id="boundary" inkscape:connector-curvature="0" />
	<path style="fill:none;stroke:red;stroke-width:1px;stroke-linecap:butt;stroke-linejoin:miter;stroke-opacity:1" d="M 692.788,339.796 685.547,333.46 z" id="boundary" inkscape:connector-curvature="0" />
	<path style="fill:none;stroke:red;stroke-width:1px;stroke-linecap:butt;stroke-linejoin:miter;stroke-opacity:1" d="M 685.547,333.46 677.401,328.934 z" id="boundary" inkscape:connector-curvature="0" />
	<path style="fill:none;stroke:red;stroke-width:1px;stroke-linecap:butt;stroke-linejoin:miter;stroke-opacity:1" d="M 677.401,328.934 669.255,324.409 z" id="boundary" inkscape:connector-curvature="0" />
	<path style="fill:none;stroke:red;stroke-width:1px;stroke-linecap:butt;stroke-linejoin:miter;stroke-opacity:1" d="M 669.255,324.409 661.109,319.883 z" id="boundary" inkscape:connector-curvature="0" />
	<path style="fill:none;stroke:red;stroke-width:1px;stroke-linecap:butt;stroke-linejoin:miter;stroke-opacity:1" d="M 661.109,319.883 652.964,315.358 z" id="boundary" inkscape:connector-curvature="0" />
	<path style="fill:none;stroke:red;stroke-width:1px;stroke-linecap:butt;stroke-linejoin:miter;stroke-opacity:1" d="M 652.964,315.358 644.818,310.832 z" id="boundary" inkscape:connector-curvature="0" />
	<path style="fill:none;stroke:red;stroke-width:1px;stroke-linecap:butt;stroke-linejoin:miter;stroke-opacity:1" d="M 644.818,310.832 636.672,306.307 z" id="boundary" inkscape:connector-curvature="0" />
	<path style="fill:none;stroke:red;stroke-width:1px;stroke-linecap:butt;stroke-linejoin:miter;stroke-opacity:1" d="M 636.672,306.307 627.62,306.307 z" id="boundary" inkscape:connector-curvature="0" />
	<path style="fill:none;stroke:red;stroke-width:1px;stroke-linecap:butt;stroke-linejoin:miter;stroke-opacity:1" d="M 627.62,306.307 618.569,306.307 z" id="boundary" inkscape:connector-curvature="0" />
	<path style="fill:none;stroke:red;stroke-width:1px;stroke-linecap:butt;stroke-linejoin:miter;stroke-opacity:1" d="M 618.569,306.307 609.518,306.307 z" id="boundary" inkscape:connector-curvature="0" />
	<path style="fill:none;stroke:red;stroke-width:1px;stroke-linecap:butt;stroke-linejoin:miter;stroke-opacity:1" d="M 609.518,306.307 600.467,306.307 z" id="boundary" inkscape:connector-curvature="0" />
	<path style="fill:none;stroke:red;stroke-width:1px;stroke-linecap:butt;stroke-linejoin:miter;stroke-opacity:1" d="M 600.467,306.307 591.416,306.307 z" id="boundary" inkscape:connector-curvature="0" />
	<path style="fill:none;stroke:red;stroke-width:1px;stroke-linecap:butt;stroke-linejoin:miter;stroke-opacity:1" d="M 591.416,306.307 582.365,306.307 z" id="boundary" inkscape:connector-curvature="0" />
	<path style="fill:none;stroke:red;stroke-width:1px;stroke-linecap:butt;stroke-linejoin:miter;stroke-opacity:1" d="M 582.365,306.307 573.314,306.307 z" id="boundary" inkscape:connector-curvature="0" />
	<path style="fill:none;stroke:red;stroke-width:1px;stroke-linecap:butt;stroke-linejoin:miter;stroke-opacity:1" d="M 573.314,306.307 564.263,306.307 z" id="boundary" inkscape:connector-curvature="0" />
	<path style="fill:none;stroke:red;stroke-width:1px;stroke-linecap:butt;stroke-linejoin:miter;stroke-opacity:1" d="M 564.263,306.307 556.117,310.832 z" id="boundary" inkscape:connector-curvature="0" />
	<path style="fill:none;stroke:red;stroke-width:1px;stroke-linecap:butt;stroke-linejoin:miter;stroke-opacity:1" d="M 556.117,310.832 547.066,310.832 z" id="boundary" inkscape:connector-curvature="0" />
	<path style="fill:none;stroke:red;stroke-width:1px;stroke-linecap:butt;stroke-linejoin:miter;stroke-opacity:1" d="M 547.066,310.832 538.015,310.832 z" id="boundary" inkscape:connector-curvature="0" />
	<path style="fill:none;stroke:red;stroke-width:1px;stroke-linecap:butt;stroke-linejoin:miter;stroke-opacity:1" d="M 538.015,310.832 528.964,310.832 z" id="boundary" inkscape:connector-curvature="0" />
	<path style="fill:none;stroke:red;stroke-width:1px;stroke-linecap:butt;stroke-linejoin:miter;stroke-opacity:1" d="M 528.964,310.832 519.912,310.832 z" id="boundary" inkscape:connector-curvature="0" />
	<path style="fill:none;stroke:red;stroke-width:1px;stroke-linecap:butt;stroke-linejoin:miter;stroke-opacity:1" d="M 519.912,310.832 510.861,310.832 z" id="boundary" inkscape:connector-curvature="0" />
	<path style="fill:none;stroke:red;stroke-width:1px;stroke-linecap:butt;stroke-linejoin:miter;stroke-opacity:1" d="M 510.861,310.832 502.715,315.358 z" id="boundary" inkscape:connector-curvature="0" />
	<path style="fill:none;stroke:red;stroke-width:1px;stroke-linecap:butt;stroke-linejoin:miter;stroke-opacity:1" d="M 502.715,315.358 493.664,315.358 z" id="boundary" inkscape:connector-curvature="0" />
	<path style="fill:none;stroke:red;stroke-width:1px;stroke-linecap:butt;stroke-linejoin:miter;stroke-opacity:1" d="M 493.664,315.358 484.613,315.358 z" id="boundary" inkscape:connector-curvature="0" />
	<path style="fill:none;stroke:red;stroke-width:1px;stroke-linecap:butt;stroke-linejoin:miter;stroke-opacity:1" d="M 484.613,315.358 475.562,315.358 z" id="boundary" inkscape:connector-curvature="0" />
	<path style="fill:none;stroke:red;stroke-width:1px;stroke-linecap:butt;stroke-linejoin:miter;stroke-opacity:1" d="M 475.562,315.358 466.511,315.358 z" id="boundary" inkscape:connector-curvature="0" />
	<path style="fill:none;stroke:red;stroke-width:1px;stroke-linecap:butt;stroke-linejoin:miter;stroke-opacity:1" d="M 466.511,315.358 458.365,319.883 z" id="boundary" inkscape:connector-curvature="0" />
	<path style="fill:none;stroke:red;stroke-width:1px;stroke-linecap:butt;stroke-linejoin:miter;stroke-opacity:1" d="M 458.365,319.883 450.219,324.409 z" id="boundary" inkscape:connector-curvature="0" />
	<path style="fill:none;stroke:red;stroke-width:1px;stroke-linecap:butt;stroke-linejoin:miter;stroke-opacity:1" d="M 450.219,324.409 441.168,324.409 z" id="boundary" inkscape:connector-curvature="0" />
	<path style="fill:none;stroke:red;stroke-width:1px;stroke-linecap:butt;stroke-linejoin:miter;stroke-opacity:1" d="M 441.168,324.409 432.117,324.409 z" id="boundary" inkscape:connector-curvature="0" />
	<path style="fill:none;stroke:red;stroke-width:1px;stroke-linecap:butt;stroke-linejoin:miter;stroke-opacity:1" d="M 432.117,324.409 423.066,324.409 z" id="boundary" inkscape:connector-curvature="0" />
	<path style="fill:none;stroke:red;stroke-width:1px;stroke-linecap:butt;stroke-linejoin:miter;stroke-opacity:1" d="M 423.066,324.409 414.015,324.409 z" id="boundary" inkscape:connector-curvature="0" />
	<path style="fill:none;stroke:red;stroke-width:1px;stroke-linecap:butt;stroke-linejoin:miter;stroke-opacity:1" d="M 414.015,324.409 404.964,324.409 z" id="boundary" inkscape:connector-curvature="0" />
	<path style="fill:none;stroke:red;stroke-width:1px;stroke-linecap:butt;stroke-linejoin:miter;stroke-opacity:1" d="M 404.964,324.409 395.912,324.409 z" id="boundary" inkscape:connector-curvature="0" />
	<path style="fill:none;stroke:red;stroke-width:1px;stroke-linecap:butt;stroke-linejoin:miter;stroke-opacity:1" d="M 395.912,324.409 386.861,324.409 z" id="boundary" inkscape:connector-curvature="0" />
	<path style="fill:none;stroke:red;stroke-width:1px;stroke-linecap:butt;stroke-linejoin:miter;stroke-opacity:1" d="M 386.861,324.409 377.81,324.409 z" id="boundary" inkscape:connector-curvature="0" />
	<path style="fill:none;stroke:red;stroke-width:1px;stroke-linecap:butt;stroke-linejoin:miter;stroke-opacity:1" d="M 377.81,324.409 368.759,324.409 z" id="boundary" inkscape:connector-curvature="0" />
	<path style="fill:none;stroke:red;stroke-width:1px;stroke-linecap:butt;stroke-linejoin:miter;stroke-opacity:1" d="M 368.759,324.409 359.708,324.409 z" id="boundary" inkscape:connector-curvature="0" />
	<path style="fill:none;stroke:red;stroke-width:1px;stroke-linecap:butt;stroke-linejoin:miter;stroke-opacity:1" d="M 359.708,324.409 350.657,324.409 z" id="boundary" inkscape:connector-curvature="0" />
	<path style="fill:none;stroke:red;stroke-width:1px;stroke-linecap:butt;stroke-linejoin:miter;stroke-opacity:1" d="M 350.657,324.409 341.606,324.409 z" id="boundary" inkscape:connector-curvature="0" />
	<path style="fill:none;stroke:red;stroke-width:1px;stroke-linecap:butt;stroke-linejoin:miter;stroke-opacity:1" d="M 341.606,324.409 332.555,324.409 z" id="boundary" inkscape:connector-curvature="0" />
	<path style="fill:none;stroke:red;stroke-width:1px;stroke-linecap:butt;stroke-linejoin:miter;stroke-opacity:1" d="M 332.555,324.409 323.504,324.409 z" id="boundary" inkscape:connector-curvature="0" />
	<path style="fill:none;stroke:red;stroke-width:1px;stroke-linecap:butt;stroke-linejoin:miter;stroke-opacity:1" d="M 323.504,324.409 314.453,324.409 z" id="boundary" inkscape:connector-curvature="0" />
	<path style="fill:none;stroke:red;stroke-width:1px;stroke-linecap:butt;stroke-linejoin:miter;stroke-opacity:1" d="M 314.453,324.409 305.401,324.409 z" id="boundary" inkscape:connector-curvature="0" />
	<path style="fill:none;stroke:red;stroke-width:1px;stroke-linecap:butt;stroke-linejoin:miter;stroke-opacity:1" d="M 305.401,324.409 296.35,324.409 z" id="boundary" inkscape:connector-curvature="0" />
	<path style="fill:none;stroke:red;stroke-width:1px;stroke-linecap:butt;stroke-linejoin:miter;stroke-opacity:1" d="M 296.35,324.409 287.299,324.409 z" id="boundary" inkscape:connector-curvature="0" />
	<path style="fill:none;stroke:red;stroke-width:1px;stroke-linecap:butt;stroke-linejoin:miter;stroke-opacity:1" d="M 287.299,324.409 278.248,324.409 z" id="boundary" inkscape:connector-curvature="0" />
	<path style="fill:none;stroke:red;stroke-width:1px;stroke-linecap:butt;stroke-linejoin:miter;stroke-opacity:1" d="M 278.248,324.409 269.197,324.409 z" id="boundary" inkscape:connector-curvature="0" />
	<path style="fill:none;stroke:red;stroke-width:1px;stroke-linecap:butt;stroke-linejoin:miter;stroke-opacity:1" d="M 269.197,324.409 262.861,317.168 z" id="boundary" inkscape:connector-curvature="0" />
	<path style="fill:none;stroke:red;stroke-width:1px;stroke-linecap:butt;stroke-linejoin:miter;stroke-opacity:1" d="M 262.861,317.168 255.62,310.832 z" id="boundary" inkscape:connector-curvature="0" />
	<path style="fill:none;stroke:red;stroke-width:1px;stroke-linecap:butt;stroke-linejoin:miter;stroke-opacity:1" d="M 255.62,310.832 247.474,306.307 z" id="boundary" inkscape:connector-curvature="0" />
	<path style="fill:none;stroke:red;stroke-width:1px;stroke-linecap:butt;stroke-linejoin:miter;stroke-opacity:1" d="M 247.474,306.307 239.328,301.781 z" id="boundary" inkscape:connector-curvature="0" />
	<path style="fill:none;stroke:red;stroke-width:1px;stroke-linecap:butt;stroke-linejoin:miter;stroke-opacity:1" d="M 239.328,301.781 232.088,296.35 z" id="boundary" inkscape:connector-curvature="0" />
	<path style="fill:none;stroke:red;stroke-width:1px;stroke-linecap:butt;stroke-linejoin:miter;stroke-opacity:1" d="M 232.088,296.35 223.942,291.825 z" id="boundary" inkscape:connector-curvature="0" />
	<path style="fill:none;stroke:red;stroke-width:1px;stroke-linecap:butt;stroke-linejoin:miter;stroke-opacity:1" d="M 223.942,291.825 214.891,288.204 z" id="boundary" inkscape:connector-curvature="0" />
	<path style="fill:none;stroke:red;stroke-width:1px;stroke-linecap:butt;stroke-linejoin:miter;stroke-opacity:1" d="M 214.891,288.204 206.745,283.679 z" id="boundary" inkscape:connector-curvature="0" />
	<path style="fill:none;stroke:red;stroke-width:1px;stroke-linecap:butt;stroke-linejoin:miter;stroke-opacity:1" d="M 206.745,283.679 198.599,279.153 z" id="boundary" inkscape:connector-curvature="0" />
	<path style="fill:none;stroke:red;stroke-width:1px;stroke-linecap:butt;stroke-linejoin:miter;stroke-opacity:1" d="M 198.599,279.153 190.453,274.628 z" id="boundary" inkscape:connector-curvature="0" />
	<path style="fill:none;stroke:red;stroke-width:1px;stroke-linecap:butt;stroke-linejoin:miter;stroke-opacity:1" d="M 190.453,274.628 183.212,269.197 z" id="boundary" inkscape:connector-curvature="0" />
	<path style="fill:none;stroke:red;stroke-width:1px;stroke-linecap:butt;stroke-linejoin:miter;stroke-opacity:1" d="M 183.212,269.197 174.161,265.577 z" id="boundary" inkscape:connector-curvature="0" />
	<path style="fill:none;stroke:red;stroke-width:1px;stroke-linecap:butt;stroke-linejoin:miter;stroke-opacity:1" d="M 174.161,265.577 165.109,265.577 z" id="boundary" inkscape:connector-curvature="0" />
	<path style="fill:none;stroke:red;stroke-width:1px;stroke-linecap:butt;stroke-linejoin:miter;stroke-opacity:1" d="M 165.109,265.577 156.058,265.577 z" id="boundary" inkscape:connector-curvature="0" />
	<path style="fill:none;stroke:red;stroke-width:1px;stroke-linecap:butt;stroke-linejoin:miter;stroke-opacity:1" d="M 156.058,265.577 147.007,265.577 z" id="boundary" inkscape:connector-curvature="0" />
	<path style="fill:none;stroke:red;stroke-width:1px;stroke-linecap:butt;stroke-linejoin:miter;stroke-opacity:1" d="M 147.007,265.577 137.956,265.577 z" id="boundary" inkscape:connector-curvature="0" />
	<path style="fill:none;stroke:red;stroke-width:1px;stroke-linecap:butt;stroke-linejoin:miter;stroke-opacity:1" d="M 137.956,265.577 129.81,270.102 z" id="boundary" inkscape:connector-curvature="0" />
	<path style="fill:none;stroke:red;stroke-width:1px;stroke-linecap:butt;stroke-linejoin:miter;stroke-opacity:1" d="M 129.81,270.102 121.664,274.628 z" id="boundary" inkscape:connector-curvature="0" />
	<path style="fill:none;stroke:red;stroke-width:1px;stroke-linecap:butt;stroke-linejoin:miter;stroke-opacity:1" d="M 121.664,274.628 112.613,276.438 z" id="boundary" inkscape:connector-curvature="0" />
	<path style="fill:none;stroke:red;stroke-width:1px;stroke-linecap:butt;stroke-linejoin:miter;stroke-opacity:1" d="M 112.613,276.438 103.562,279.153 z" id="boundary" inkscape:connector-curvature="0" />
	<path style="fill:none;stroke:red;stroke-width:1px;stroke-linecap:butt;stroke-linejoin:miter;stroke-opacity:1" d="M 103.562,279.153 94.5109,279.153 z" id="boundary" inkscape:connector-curvature="0" />
	<path style="fill:none;stroke:red;stroke-width:1px;stroke-linecap:butt;stroke-linejoin:miter;stroke-opacity:1" d="M 94.5109,279.153 86.365,283.679 z" id="boundary" inkscape:connector-curvature="0" />
	<path style="fill:none;stroke:red;stroke-width:1px;stroke-linecap:butt;stroke-linejoin:miter;stroke-opacity:1" d="M 86.365,283.679 77.3139,283.679 z" id="boundary" inkscape:connector-curvature="0" />
	<path style="fill:none;stroke:red;stroke-width:1px;stroke-linecap:butt;stroke-linejoin:miter;stroke-opacity:1" d="M 77.3139,283.679 69.1679,288.204 z" id="boundary" inkscape:connector-curvature="0" />
	<path style="fill:none;stroke:red;stroke-width:1px;stroke-linecap:butt;stroke-linejoin:miter;stroke-opacity:1" d="M 69.1679,288.204 60.1168,288.204 z" id="boundary" inkscape:connector-curvature="0" />
	<path style="fill:none;stroke:red;stroke-width:1px;stroke-linecap:butt;stroke-linejoin:miter;stroke-opacity:1" d="M 60.1168,288.204 51.0657,288.204 z" id="boundary" inkscape:connector-curvature="0" />
	<path style="fill:none;stroke:red;stroke-width:1px;stroke-linecap:butt;stroke-linejoin:miter;stroke-opacity:1" d="M 51.0657,288.204 42.0146,288.204 z" id="boundary" inkscape:connector-curvature="0" />
	<path style="fill:none;stroke:red;stroke-width:1px;stroke-linecap:butt;stroke-linejoin:miter;stroke-opacity:1" d="M 42.0146,288.204 32.9635,291.825 z" id="boundary" inkscape:connector-curvature="0" />
	<path style="fill:none;stroke:red;stroke-width:1px;stroke-linecap:butt;stroke-linejoin:miter;stroke-opacity:1" d="M 32.9635,291.825 24.8175,287.299 z" id="boundary" inkscape:connector-curvature="0" />
	<path style="fill:none;stroke:red;stroke-width:1px;stroke-linecap:butt;stroke-linejoin:miter;stroke-opacity:1" d="M 24.8175,287.299 20.292,279.153 z" id="boundary" inkscape:connector-curvature="0" />
	<path style="fill:none;stroke:red;stroke-width:1px;stroke-linecap:butt;stroke-linejoin:miter;stroke-opacity:1" d="M 20.292,279.153 17.5766,270.102 z" id="boundary" inkscape:connector-curvature="0" />
	<path style="fill:none;stroke:red;stroke-width:1px;stroke-linecap:butt;stroke-linejoin:miter;stroke-opacity:1" d="M 17.5766,270.102 15.7664,261.051 z" id="boundary" inkscape:connector-curvature="0" />
	<path style="fill:none;stroke:red;stroke-width:1px;stroke-linecap:butt;stroke-linejoin:miter;stroke-opacity:1" d="M 15.7664,261.051 13.0511,252 z" id="boundary" inkscape:connector-curvature="0" />
	<path style="fill:none;stroke:red;stroke-width:1px;stroke-linecap:butt;stroke-linejoin:miter;stroke-opacity:1" d="M 13.0511,252 8.52555,243.854 z" id="boundary" inkscape:connector-curvature="0" />
	<path style="fill:none;stroke:red;stroke-width:1px;stroke-linecap:butt;stroke-linejoin:miter;stroke-opacity:1" d="M 8.52555,243.854 4,235.708 z" id="boundary" inkscape:connector-curvature="0" />
	<path style="fill:none;stroke:red;stroke-width:1px;stroke-linecap:butt;stroke-linejoin:miter;stroke-opacity:1" d="M 4,235.708 4,226.657 z" id="boundary" inkscape:connector-curvature="0" />
	<path style="fill:none;stroke:red;stroke-width:1px;stroke-linecap:butt;stroke-linejoin:miter;stroke-opacity:1" d="M 4,226.657 11.2409,219.416 z" id="boundary" inkscape:connector-curvature="0" />
	<path style="fill:none;stroke:red;stroke-width:1px;stroke-linecap:butt;stroke-linejoin:miter;stroke-opacity:1" d="M 11.2409,219.416 18.4818,212.175 z" id="boundary" inkscape:connector-curvature="0" />
	<path style="fill:none;stroke:red;stroke-width:1px;stroke-linecap:butt;stroke-linejoin:miter;stroke-opacity:1" d="M 18.4818,212.175 27.5328,207.65 z" id="boundary" inkscape:connector-curvature="0" />
	<path style="fill:none;stroke:red;stroke-width:1px;stroke-linecap:butt;stroke-linejoin:miter;stroke-opacity:1" d="M 27.5328,207.65 34.7737,201.314 z" id="boundary" inkscape:connector-curvature="0" />
	<path style="fill:none;stroke:red;stroke-width:1px;stroke-linecap:butt;stroke-linejoin:miter;stroke-opacity:1" d="M 34.7737,201.314 38.3942,192.263 z" id="boundary" inkscape:connector-curvature="0" />
	<path style="fill:none;stroke:red;stroke-width:1px;stroke-linecap:butt;stroke-linejoin:miter;stroke-opacity:1" d="M 38.3942,192.263 45.635,185.022 z" id="boundary" inkscape:connector-curvature="0" />
	<path style="fill:none;stroke:red;stroke-width:1px;stroke-linecap:butt;stroke-linejoin:miter;stroke-opacity:1" d="M 45.635,185.022 54.6861,180.496 z" id="boundary" inkscape:connector-curvature="0" />
	<path style="fill:none;stroke:red;stroke-width:1px;stroke-linecap:butt;stroke-linejoin:miter;stroke-opacity:1" d="M 54.6861,180.496 61.927,174.161 z" id="boundary" inkscape:connector-curvature="0" />
	<path style="fill:none;stroke:red;stroke-width:1px;stroke-linecap:butt;stroke-linejoin:miter;stroke-opacity:1" d="M 61.927,174.161 70.073,169.635 z" id="boundary" inkscape:connector-curvature="0" />
	<path style="fill:none;stroke:red;stroke-width:1px;stroke-linecap:butt;stroke-linejoin:miter;stroke-opacity:1" d="M 70.073,169.635 78.219,165.109 z" id="boundary" inkscape:connector-curvature="0" />
	<path style="fill:none;stroke:red;stroke-width:1px;stroke-linecap:butt;stroke-linejoin:miter;stroke-opacity:1" d="M 78.219,165.109 85.4599,154.248 z" id="boundary" inkscape:connector-curvature="0" />
	<path style="fill:none;stroke:red;stroke-width:1px;stroke-linecap:butt;stroke-linejoin:miter;stroke-opacity:1" d="M 85.4599,154.248 92.7007,147.007 z" id="boundary" inkscape:connector-curvature="0" />
	<path style="fill:none;stroke:red;stroke-width:1px;stroke-linecap:butt;stroke-linejoin:miter;stroke-opacity:1" d="M 92.7007,147.007 99.0365,136.146 z" id="boundary" inkscape:connector-curvature="0" />
	<path style="fill:none;stroke:red;stroke-width:1px;stroke-linecap:butt;stroke-linejoin:miter;stroke-opacity:1" d="M 99.0365,136.146 99.0365,127.095 z" id="boundary" inkscape:connector-curvature="0" />
	<path style="fill:none;stroke:red;stroke-width:1px;stroke-linecap:butt;stroke-linejoin:miter;stroke-opacity:1" d="M 99.0365,127.095 103.562,113.518 z" id="boundary" inkscape:connector-curvature="0" />
	<path style="fill:none;stroke:red;stroke-width:1px;stroke-linecap:butt;stroke-linejoin:miter;stroke-opacity:1" d="M 103.562,113.518 108.088,99.0365 z" id="boundary" inkscape:connector-curvature="0" />
	<path style="fill:none;stroke:red;stroke-width:1px;stroke-linecap:butt;stroke-linejoin:miter;stroke-opacity:1" d="M 108.088,99.0365 108.088,89.9854 z" id="boundary" inkscape:connector-curvature="0" />
	<path style="fill:none;stroke:red;stroke-width:1px;stroke-linecap:butt;stroke-linejoin:miter;stroke-opacity:1" d="M 108.088,89.9854 108.088,80.9343 z" id="boundary" inkscape:connector-curvature="0" />
	<path style="fill:none;stroke:red;stroke-width:1px;stroke-linecap:butt;stroke-linejoin:miter;stroke-opacity:1" d="M 108.088,80.9343 108.088,71.8832 z" id="boundary" inkscape:connector-curvature="0" />
	<path style="fill:none;stroke:red;stroke-width:1px;stroke-linecap:butt;stroke-linejoin:miter;stroke-opacity:1" d="M 108.088,71.8832 108.088,62.8321 z" id="boundary" inkscape:connector-curvature="0" />
	<path style="fill:none;stroke:red;stroke-width:1px;stroke-linecap:butt;stroke-linejoin:miter;stroke-opacity:1" d="M 108.088,62.8321 108.088,53.781 z" id="boundary" inkscape:connector-curvature="0" />
	<path style="fill:none;stroke:red;stroke-width:1px;stroke-linecap:butt;stroke-linejoin:miter;stroke-opacity:1" d="M 108.088,53.781 103.562,45.635 z" id="boundary" inkscape:connector-curvature="0" />
	<path style="fill:none;stroke:red;stroke-width:1px;stroke-linecap:butt;stroke-linejoin:miter;stroke-opacity:1" d="M 103.562,45.635 103.562,36.5839 z" id="boundary" inkscape:connector-curvature="0" />
	<path style="fill:none;stroke:red;stroke-width:1px;stroke-linecap:butt;stroke-linejoin:miter;stroke-opacity:1" d="M 103.562,36.5839 103.562,27.5328 z" id="boundary" inkscape:connector-curvature="0" />
	<path style="fill:none;stroke:red;stroke-width:1px;stroke-linecap:butt;stroke-linejoin:miter;stroke-opacity:1" d="M 103.562,27.5328 110.803,20.292 z" id="boundary" inkscape:connector-curvature="0" />
	<path style="fill:none;stroke:red;stroke-width:1px;stroke-linecap:butt;stroke-linejoin:miter;stroke-opacity:1" d="M 110.803,20.292 118.949,15.7664 z" id="boundary" inkscape:connector-curvature="0" />
	<path style="fill:none;stroke:red;stroke-width:1px;stroke-linecap:butt;stroke-linejoin:miter;stroke-opacity:1" d="M 118.949,15.7664 128,15.7664 z" id="boundary" inkscape:connector-curvature="0" />
	<path style="fill:none;stroke:red;stroke-width:1px;stroke-linecap:butt;stroke-linejoin:miter;stroke-opacity:1" d="M 128,15.7664 137.051,15.7664 z" id="boundary" inkscape:connector-curvature="0" />
	<path style="fill:none;stroke:red;stroke-width:1px;stroke-linecap:butt;stroke-linejoin:miter;stroke-opacity:1" d="M 137.051,15.7664 146.102,15.7664 z" id="boundary" inkscape:connector-curvature="0" />
	<path style="fill:none;stroke:red;stroke-width:1px;stroke-linecap:butt;stroke-linejoin:miter;stroke-opacity:1" d="M 146.102,15.7664 155.153,15.7664 z" id="boundary" inkscape:connector-curvature="0" />
	<path style="fill:none;stroke:red;stroke-width:1px;stroke-linecap:butt;stroke-linejoin:miter;stroke-opacity:1" d="M 155.153,15.7664 164.204,15.7664 z" id="boundary" inkscape:connector-curvature="0" />
	<path style="fill:none;stroke:red;stroke-width:1px;stroke-linecap:butt;stroke-linejoin:miter;stroke-opacity:1" d="M 164.204,15.7664 173.255,15.7664 z" id="boundary" inkscape:connector-curvature="0" />
	<path style="fill:none;stroke:red;stroke-width:1px;stroke-linecap:butt;stroke-linejoin:miter;stroke-opacity:1" d="M 173.255,15.7664 181.401,11.2409 z" id="boundary" inkscape:connector-curvature="0" />
	<path style="fill:none;stroke:red;stroke-width:1px;stroke-linecap:butt;stroke-linejoin:miter;stroke-opacity:1" d="M 181.401,11.2409 190.453,11.2409 z" id="boundary" inkscape:connector-curvature="0" />
	<path style="fill:none;stroke:red;stroke-width:1px;stroke-linecap:butt;stroke-linejoin:miter;stroke-opacity:1" d="M 190.453,11.2409 199.504,11.2409 z" id="boundary" inkscape:connector-curvature="0" />
	<path style="fill:none;stroke:red;stroke-width:1px;stroke-linecap:butt;stroke-linejoin:miter;stroke-opacity:1" d="M 199.504,11.2409 208.555,11.2409 z" id="boundary" inkscape:connector-curvature="0" />
	<path style="fill:none;stroke:red;stroke-width:1px;stroke-linecap:butt;stroke-linejoin:miter;stroke-opacity:1" d="M 208.555,11.2409 217.606,8.52555 z" id="boundary" inkscape:connector-curvature="0" />
	<path style="fill:none;stroke:red;stroke-width:1px;stroke-linecap:butt;stroke-linejoin:miter;stroke-opacity:1" d="M 217.606,8.52555 226.657,6.71533 z" id="boundary" inkscape:connector-curvature="0" />
	<path style="fill:none;stroke:red;stroke-width:1px;stroke-linecap:butt;stroke-linejoin:miter;stroke-opacity:1" d="M 226.657,6.71533 235.708,6.71533 z" id="boundary" inkscape:connector-curvature="0" />
	<path style="fill:none;stroke:red;stroke-width:1px;stroke-linecap:butt;stroke-linejoin:miter;stroke-opacity:1" d="M 235.708,6.71533 244.759,6.71533 z" id="boundary" inkscape:connector-curvature="0" />
	<path style="fill:none;stroke:red;stroke-width:1px;stroke-linecap:butt;stroke-linejoin:miter;stroke-opacity:1" d="M 244.759,6.71533 253.81,4 z" id="boundary" inkscape:connector-curvature="0" />
	<path style="fill:none;stroke:red;stroke-width:1px;stroke-linecap:butt;stroke-linejoin:miter;stroke-opacity:1" d="M 253.81,4 262.861,4.90511 z" id="boundary" inkscape:connector-curvature="0" />
	<path style="fill:none;stroke:red;stroke-width:1px;stroke-linecap:butt;stroke-linejoin:miter;stroke-opacity:1" d="M 262.861,4.90511 271.007,9.43066 z" id="boundary" inkscape:connector-curvature="0" />
	<path style="fill:none;stroke:red;stroke-width:1px;stroke-linecap:butt;stroke-linejoin:miter;stroke-opacity:1" d="M 271.007,9.43066 278.248,15.7664 z" id="boundary" inkscape:connector-curvature="0" />
	<path style="fill:none;stroke:red;stroke-width:1px;stroke-linecap:butt;stroke-linejoin:miter;stroke-opacity:1" d="M 278.248,15.7664 284.584,23.0073 z" id="boundary" inkscape:connector-curvature="0" />
	<path style="fill:none;stroke:red;stroke-width:1px;stroke-linecap:butt;stroke-linejoin:miter;stroke-opacity:1" d="M 284.584,23.0073 291.825,29.3431 z" id="boundary" inkscape:connector-curvature="0" />
	<path style="fill:none;stroke:red;stroke-width:1px;stroke-linecap:butt;stroke-linejoin:miter;stroke-opacity:1" d="M 291.825,29.3431 298.161,36.5839 z" id="boundary" inkscape:connector-curvature="0" />
	<path style="fill:none;stroke:red;stroke-width:1px;stroke-linecap:butt;stroke-linejoin:miter;stroke-opacity:1" d="M 298.161,36.5839 307.212,40.2044 z" id="boundary" inkscape:connector-curvature="0" />
	<path style="fill:none;stroke:red;stroke-width:1px;stroke-linecap:butt;stroke-linejoin:miter;stroke-opacity:1" d="M 307.212,40.2044 315.358,44.7299 z" id="boundary" inkscape:connector-curvature="0" />
	<path style="fill:none;stroke:red;stroke-width:1px;stroke-linecap:butt;stroke-linejoin:miter;stroke-opacity:1" d="M 315.358,44.7299 324.409,48.3504 z" id="boundary" inkscape:connector-curvature="0" />
	<path style="fill:none;stroke:red;stroke-width:1px;stroke-linecap:butt;stroke-linejoin:miter;stroke-opacity:1" d="M 324.409,48.3504 332.555,52.8759 z" id="boundary" inkscape:connector-curvature="0" />
	<path style="fill:none;stroke:red;stroke-width:1px;stroke-linecap:butt;stroke-linejoin:miter;stroke-opacity:1" d="M 332.555,52.8759 341.606,56.4964 z" id="boundary" inkscape:connector-curvature="0" />
	<path style="fill:none;stroke:red;stroke-width:1px;stroke-linecap:butt;stroke-linejoin:miter;stroke-opacity:1" d="M 341.606,56.4964 349.752,61.0219 z" id="boundary" inkscape:connector-curvature="0" />
	<path style="fill:none;stroke:red;stroke-width:1px;stroke-linecap:butt;stroke-linejoin:miter;stroke-opacity:1" d="M 349.752,61.0219 357.898,65.5474 z" id="boundary" inkscape:connector-curvature="0" />
	<path style="fill:none;stroke:red;stroke-width:1px;stroke-linecap:butt;stroke-linejoin:miter;stroke-opacity:1" d="M 357.898,65.5474 366.949,65.5474 z" id="boundary" inkscape:connector-curvature="0" />
	<path style="fill:none;stroke:red;stroke-width:1px;stroke-linecap:butt;stroke-linejoin:miter;stroke-opacity:1" d="M 366.949,65.5474 376,65.5474 z" id="boundary" inkscape:connector-curvature="0" />
	<path style="fill:none;stroke:red;stroke-width:1px;stroke-linecap:butt;stroke-linejoin:miter;stroke-opacity:1" d="M 376,65.5474 385.051,65.5474 z" id="boundary" inkscape:connector-curvature="0" />
	<path style="fill:none;stroke:red;stroke-width:1px;stroke-linecap:butt;stroke-linejoin:miter;stroke-opacity:1" d="M 385.051,65.5474 394.102,65.5474 z" id="boundary" inkscape:connector-curvature="0" />
	<path style="fill:none;stroke:red;stroke-width:1px;stroke-linecap:butt;stroke-linejoin:miter;stroke-opacity:1" d="M 394.102,65.5474 403.153,65.5474 z" id="boundary" inkscape:connector-curvature="0" />
	<path style="fill:none;stroke:red;stroke-width:1px;stroke-linecap:butt;stroke-linejoin:miter;stroke-opacity:1" d="M 403.153,65.5474 412.204,62.8321 z" id="boundary" inkscape:connector-curvature="0" />
	<path style="fill:none;stroke:red;stroke-width:1px;stroke-linecap:butt;stroke-linejoin:miter;stroke-opacity:1" d="M 412.204,62.8321 421.255,61.0219 z" id="boundary" inkscape:connector-curvature="0" />
	<path style="fill:none;stroke:red;stroke-width:1px;stroke-linecap:butt;stroke-linejoin:miter;stroke-opacity:1" d="M 421.255,61.0219 429.401,56.4964 z" id="boundary" inkscape:connector-curvature="0" />
	<path style="fill:none;stroke:red;stroke-width:1px;stroke-linecap:butt;stroke-linejoin:miter;stroke-opacity:1" d="M 429.401,56.4964 438.453,56.4964 z" id="boundary" inkscape:connector-curvature="0" />
	<path style="fill:none;stroke:red;stroke-width:1px;stroke-linecap:butt;stroke-linejoin:miter;stroke-opacity:1" d="M 438.453,56.4964 447.504,56.4964 z" id="boundary" inkscape:connector-curvature="0" />
	<path style="fill:none;stroke:red;stroke-width:1px;stroke-linecap:butt;stroke-linejoin:miter;stroke-opacity:1" d="M 447.504,56.4964 456.555,56.4964 z" id="boundary" inkscape:connector-curvature="0" />
	<path style="fill:none;stroke:red;stroke-width:1px;stroke-linecap:butt;stroke-linejoin:miter;stroke-opacity:1" d="M 456.555,56.4964 464.701,51.9708 z" id="boundary" inkscape:connector-curvature="0" />
	<path style="fill:none;stroke:red;stroke-width:1px;stroke-linecap:butt;stroke-linejoin:miter;stroke-opacity:1" d="M 464.701,51.9708 473.752,51.9708 z" id="boundary" inkscape:connector-curvature="0" />
	<path style="fill:none;stroke:red;stroke-width:1px;stroke-linecap:butt;stroke-linejoin:miter;stroke-opacity:1" d="M 473.752,51.9708 482.803,51.9708 z" id="boundary" inkscape:connector-curvature="0" />
	<path style="fill:none;stroke:red;stroke-width:1px;stroke-linecap:butt;stroke-linejoin:miter;stroke-opacity:1" d="M 482.803,51.9708 490.949,47.4453 z" id="boundary" inkscape:connector-curvature="0" />
	<path style="fill:none;stroke:red;stroke-width:1px;stroke-linecap:butt;stroke-linejoin:miter;stroke-opacity:1" d="M 490.949,47.4453 500,47.4453 z" id="boundary" inkscape:connector-curvature="0" />
	<path style="fill:none;stroke:red;stroke-width:1px;stroke-linecap:butt;stroke-linejoin:miter;stroke-opacity:1" d="M 500,47.4453 508.146,42.9197 z" id="boundary" inkscape:connector-curvature="0" />
	<path style="fill:none;stroke:red;stroke-width:1px;stroke-linecap:butt;stroke-linejoin:miter;stroke-opacity:1" d="M 508.146,42.9197 517.197,42.9197 z" id="boundary" inkscape:connector-curvature="0" />
	<path style="fill:none;stroke:red;stroke-width:1px;stroke-linecap:butt;stroke-linejoin:miter;stroke-opacity:1" d="M 517.197,42.9197 525.343,38.3942 z" id="boundary" inkscape:connector-curvature="0" />
	<path style="fill:none;stroke:red;stroke-width:1px;stroke-linecap:butt;stroke-linejoin:miter;stroke-opacity:1" d="M 525.343,38.3942 534.394,38.3942 z" id="boundary" inkscape:connector-curvature="0" />
	<path style="fill:none;stroke:red;stroke-width:1px;stroke-linecap:butt;stroke-linejoin:miter;stroke-opacity:1" d="M 534.394,38.3942 542.54,33.8686 z" id="boundary" inkscape:connector-curvature="0" />
	<path style="fill:none;stroke:red;stroke-width:1px;stroke-linecap:butt;stroke-linejoin:miter;stroke-opacity:1" d="M 542.54,33.8686 551.591,33.8686 z" id="boundary" inkscape:connector-curvature="0" />
	<path style="fill:none;stroke:red;stroke-width:1px;stroke-linecap:butt;stroke-linejoin:miter;stroke-opacity:1" d="M 551.591,33.8686 559.737,29.3431 z" id="boundary" inkscape:connector-curvature="0" />
	<path style="fill:none;stroke:red;stroke-width:1px;stroke-linecap:butt;stroke-linejoin:miter;stroke-opacity:1" d="M 559.737,29.3431 568.788,29.3431 z" id="boundary" inkscape:connector-curvature="0" />
	<path style="fill:none;stroke:red;stroke-width:1px;stroke-linecap:butt;stroke-linejoin:miter;stroke-opacity:1" d="M 568.788,29.3431 577.839,29.3431 z" id="boundary" inkscape:connector-curvature="0" />
	<path style="fill:none;stroke:red;stroke-width:1px;stroke-linecap:butt;stroke-linejoin:miter;stroke-opacity:1" d="M 577.839,29.3431 586.891,29.3431 z" id="boundary" inkscape:connector-curvature="0" />
	<path style="fill:none;stroke:red;stroke-width:1px;stroke-linecap:butt;stroke-linejoin:miter;stroke-opacity:1" d="M 586.891,29.3431 595.036,24.8175 z" id="boundary" inkscape:connector-curvature="0" />
	<path style="fill:none;stroke:red;stroke-width:1px;stroke-linecap:butt;stroke-linejoin:miter;stroke-opacity:1" d="M 595.036,24.8175 604.088,20.292 z" id="boundary" inkscape:connector-curvature="0" />
	<path style="fill:none;stroke:red;stroke-width:1px;stroke-linecap:butt;stroke-linejoin:miter;stroke-opacity:1" d="M 604.088,20.292 613.139,20.292 z" id="boundary" inkscape:connector-curvature="0" />
	<path style="fill:none;stroke:red;stroke-width:1px;stroke-linecap:butt;stroke-linejoin:miter;stroke-opacity:1" d="M 613.139,20.292 622.19,20.292 z" id="boundary" inkscape:connector-curvature="0" />
	<path style="fill:none;stroke:red;stroke-width:1px;stroke-linecap:butt;stroke-linejoin:miter;stroke-opacity:1" d="M 622.19,20.292 630.336,15.7664 z" id="boundary" inkscape:connector-curvature="0" />
	<path style="fill:none;stroke:red;stroke-width:1px;stroke-linecap:butt;stroke-linejoin:miter;stroke-opacity:1" d="M 630.336,15.7664 639.387,15.7664 z" id="boundary" inkscape:connector-curvature="0" />
	<path style="fill:none;stroke:red;stroke-width:1px;stroke-linecap:butt;stroke-linejoin:miter;stroke-opacity:1" d="M 639.387,15.7664 647.533,20.292 z" id="boundary" inkscape:connector-curvature="0" />
	<path style="fill:none;stroke:red;stroke-width:1px;stroke-linecap:butt;stroke-linejoin:miter;stroke-opacity:1" d="M 647.533,20.292 655.679,24.8175 z" id="boundary" inkscape:connector-curvature="0" />
	<path style="fill:none;stroke:red;stroke-width:1px;stroke-linecap:butt;stroke-linejoin:miter;stroke-opacity:1" d="M 655.679,24.8175 662.92,30.2482 z" id="boundary" inkscape:connector-curvature="0" />
	<path style="fill:none;stroke:red;stroke-width:1px;stroke-linecap:butt;stroke-linejoin:miter;stroke-opacity:1" d="M 662.92,30.2482 670.161,36.5839 z" id="boundary" inkscape:connector-curvature="0" />
	<path style="fill:none;stroke:red;stroke-width:1px;stroke-linecap:butt;stroke-linejoin:miter;stroke-opacity:1" d="M 670.161,36.5839 676.496,43.8248 z" id="boundary" inkscape:connector-curvature="0" />
	<path style="fill:none;stroke:red;stroke-width:1px;stroke-linecap:butt;stroke-linejoin:miter;stroke-opacity:1" d="M 676.496,43.8248 685.547,47.4453 z" id="boundary" inkscape:connector-curvature="0" />
	<path style="fill:none;stroke:red;stroke-width:1px;stroke-linecap:butt;stroke-linejoin:miter;stroke-opacity:1" d="M 685.547,47.4453 691.883,54.6861 z" id="boundary" inkscape:connector-curvature="0" />
	<path style="fill:none;stroke:red;stroke-width:1px;stroke-linecap:butt;stroke-linejoin:miter;stroke-opacity:1" d="M 691.883,54.6861 700.934,58.3066 z" id="boundary" inkscape:connector-curvature="0" />
	<path style="fill:none;stroke:red;stroke-width:1px;stroke-linecap:butt;stroke-linejoin:miter;stroke-opacity:1" d="M 700.934,58.3066 706.365,65.5474 z" id="boundary" inkscape:connector-curvature="0" />
	<path style="fill:none;stroke:red;stroke-width:1px;stroke-linecap:butt;stroke-linejoin:miter;stroke-opacity:1" d="M 706.365,65.5474 715.416,68.2628 z" id="boundary" inkscape:connector-curvature="0" />
	<path style="fill:none;stroke:red;stroke-width:1px;stroke-linecap:butt;stroke-linejoin:miter;stroke-opacity:1" d="M 715.416,68.2628 719.942,76.4088 z" id="boundary" inkscape:connector-curvature="0" />
	<path style="fill:none;stroke:red;stroke-width:1px;stroke-linecap:butt;stroke-linejoin:miter;stroke-opacity:1" d="M 719.942,76.4088 725.372,83.6496 z" id="boundary" inkscape:connector-curvature="0" />
	<path style="fill:none;stroke:red;stroke-width:1px;stroke-linecap:butt;stroke-linejoin:miter;stroke-opacity:1" d="M 725.372,83.6496 733.518,88.1752 z" id="boundary" inkscape:connector-curvature="0" />
	<path style="fill:none;stroke:red;stroke-width:1px;stroke-linecap:butt;stroke-linejoin:miter;stroke-opacity:1" d="M 733.518,88.1752 740.759,93.6058 z" id="boundary" inkscape:connector-curvature="0" />
	<path style="fill:none;stroke:red;stroke-width:1px;stroke-linecap:butt;stroke-linejoin:miter;stroke-opacity:1" d="M 740.759,93.6058 747.095,100.847 z" id="boundary" inkscape:connector-curvature="0" />
	<path style="fill:none;stroke:red;stroke-width:1px;stroke-linecap:butt;stroke-linejoin:miter;stroke-opacity:1" d="M 747.095,100.847 756.146,101.752 z" id="boundary" inkscape:connector-curvature="0" />
	<path style="fill:none;stroke:red;stroke-width:1px;stroke-linecap:butt;stroke-linejoin:miter;stroke-opacity:1" d="M 756.146,101.752 765.197,101.752 z" id="boundary" inkscape:connector-curvature="0" />
	<path style="fill:none;stroke:red;stroke-width:1px;stroke-linecap:butt;stroke-linejoin:miter;stroke-opacity:1" d="M 765.197,101.752 774.248,99.0365 z" id="boundary" inkscape:connector-curvature="0" />
	<path style="fill:none;stroke:red;stroke-width:1px;stroke-linecap:butt;stroke-linejoin:miter;stroke-opacity:1" d="M 774.248,99.0365 783.299,97.2263 z" id="boundary" inkscape:connector-curvature="0" />
	<path style="fill:none;stroke:red;stroke-width:1px;stroke-linecap:butt;stroke-linejoin:miter;stroke-opacity:1" d="M 783.299,97.2263 792.35,94.5109 z" id="boundary" inkscape:connector-curvature="0" />
	<path style="fill:none;stroke:red;stroke-width:1px;stroke-linecap:butt;stroke-linejoin:miter;stroke-opacity:1" d="M 792.35,94.5109 801.401,92.7007 z" id="boundary" inkscape:connector-curvature="0" />
	<path style="fill:none;stroke:red;stroke-width:1px;stroke-linecap:butt;stroke-linejoin:miter;stroke-opacity:1" d="M 801.401,92.7007 810.453,89.9854 z" id="boundary" inkscape:connector-curvature="0" />
	<path style="fill:none;stroke:red;stroke-width:1px;stroke-linecap:butt;stroke-linejoin:miter;stroke-opacity:1" d="M 810.453,89.9854 819.504,88.1752 z" id="boundary" inkscape:connector-curvature="0" />
	<path style="fill:none;stroke:red;stroke-width:1px;stroke-linecap:butt;stroke-linejoin:miter;stroke-opacity:1" d="M 819.504,88.1752 827.65,83.6496 z" id="boundary" inkscape:connector-curvature="0" />
	<path style="fill:none;stroke:red;stroke-width:1px;stroke-linecap:butt;stroke-linejoin:miter;stroke-opacity:1" d="M 827.65,83.6496 836.701,81.8394 z" id="boundary" inkscape:connector-curvature="0" />
	<path style="fill:none;stroke:red;stroke-width:1px;stroke-linecap:butt;stroke-linejoin:miter;stroke-opacity:1" d="M 836.701,81.8394 845.752,77.3139 z" id="boundary" inkscape:connector-curvature="0" />
	<path style="fill:none;stroke:red;stroke-width:1px;stroke-linecap:butt;stroke-linejoin:miter;stroke-opacity:1" d="M 845.752,77.3139 854.803,72.7883 z" id="boundary" inkscape:connector-curvature="0" />
	<path style="fill:none;stroke:red;stroke-width:1px;stroke-linecap:butt;stroke-linejoin:miter;stroke-opacity:1" d="M 854.803,72.7883 863.854,68.2628 z" id="boundary" inkscape:connector-curvature="0" />
	<path style="fill:none;stroke:red;stroke-width:1px;stroke-linecap:butt;stroke-linejoin:miter;stroke-opacity:1" d="M 863.854,68.2628 872.905,65.5474 z" id="boundary" inkscape:connector-curvature="0" />
	<path style="fill:none;stroke:red;stroke-width:1px;stroke-linecap:butt;stroke-linejoin:miter;stroke-opacity:1" d="M 872.905,65.5474 881.051,61.0219 z" id="boundary" inkscape:connector-curvature="0" />
	<path style="fill:none;stroke:red;stroke-width:1px;stroke-linecap:butt;stroke-linejoin:miter;stroke-opacity:1" d="M 881.051,61.0219 890.102,61.0219 z" id="boundary" inkscape:connector-curvature="0" />
	<path style="fill:none;stroke:red;stroke-width:1px;stroke-linecap:butt;stroke-linejoin:miter;stroke-opacity:1" d="M 890.102,61.0219 898.248,56.4964 z" id="boundary" inkscape:connector-curvature="0" />
	<path style="fill:none;stroke:red;stroke-width:1px;stroke-linecap:butt;stroke-linejoin:miter;stroke-opacity:1" d="M 898.248,56.4964 907.299,56.4964 z" id="boundary" inkscape:connector-curvature="0" />
	<path style="fill:none;stroke:red;stroke-width:1px;stroke-linecap:butt;stroke-linejoin:miter;stroke-opacity:1" d="M 907.299,56.4964 916.35,56.4964 z" id="boundary" inkscape:connector-curvature="0" />
	<path style="fill:none;stroke:red;stroke-width:1px;stroke-linecap:butt;stroke-linejoin:miter;stroke-opacity:1" d="M 916.35,56.4964 925.401,56.4964 z" id="boundary" inkscape:connector-curvature="0" />
	<path style="fill:none;stroke:red;stroke-width:1px;stroke-linecap:butt;stroke-linejoin:miter;stroke-opacity:1" d="M 925.401,56.4964 932.642,61.927 z" id="boundary" inkscape:connector-curvature="0" />
	<path style="fill:none;stroke:red;stroke-width:1px;stroke-linecap:butt;stroke-linejoin:miter;stroke-opacity:1" d="M 932.642,61.927 937.168,70.073 z" id="boundary" inkscape:connector-curvature="0" />
	<path style="fill:none;stroke:red;stroke-width:1px;stroke-linecap:butt;stroke-linejoin:miter;stroke-opacity:1" d="M 937.168,70.073 944.409,75.5036 z" id="boundary" inkscape:connector-curvature="0" />
	<path style="fill:none;stroke:red;stroke-width:1px;stroke-linecap:butt;stroke-linejoin:miter;stroke-opacity:1" d="M 944.409,75.5036 948.029,84.5547 z" id="boundary" inkscape:connector-curvature="0" />
	<path style="fill:none;stroke:red;stroke-width:1px;stroke-linecap:butt;stroke-linejoin:miter;stroke-opacity:1" d="M 948.029,84.5547 955.27,90.8905 z" id="boundary" inkscape:connector-curvature="0" />
	<path style="fill:none;stroke:red;stroke-width:1px;stroke-linecap:butt;stroke-linejoin:miter;stroke-opacity:1" d="M 955.27,90.8905 958.891,99.9416 z" id="boundary" inkscape:connector-curvature="0" />
	<path style="fill:none;stroke:red;stroke-width:1px;stroke-linecap:butt;stroke-linejoin:miter;stroke-opacity:1" d="M 958.891,99.9416 966.131,106.277 z" id="boundary" inkscape:connector-curvature="0" />
	<path style="fill:none;stroke:red;stroke-width:1px;stroke-linecap:butt;stroke-linejoin:miter;stroke-opacity:1" d="M 966.131,106.277 972.467,113.518 z" id="boundary" inkscape:connector-curvature="0" />
	<path style="fill:none;stroke:red;stroke-width:1px;stroke-linecap:butt;stroke-linejoin:miter;stroke-opacity:1" d="M 972.467,113.518 977.898,120.759 z" id="boundary" inkscape:connector-curvature="0" />
	<path style="fill:none;stroke:red;stroke-width:1px;stroke-linecap:butt;stroke-linejoin:miter;stroke-opacity:1" d="M 977.898,120.759 982.423,128.905 z" id="boundary" inkscape:connector-curvature="0" />
	<path style="fill:none;stroke:red;stroke-width:1px;stroke-linecap:butt;stroke-linejoin:miter;stroke-opacity:1" d="M 982.423,128.905 986.949,137.051 z" id="boundary" inkscape:connector-curvature="0" />
	<path style="fill:none;stroke:red;stroke-width:1px;stroke-linecap:butt;stroke-linejoin:miter;stroke-opacity:1" d="M 986.949,137.051 994.19,143.387 z" id="boundary" inkscape:connector-curvature="0" />
	<path style="fill:none;stroke:red;stroke-width:1px;stroke-linecap:butt;stroke-linejoin:miter;stroke-opacity:1" d="M 994.19,143.387 996,156.964 z" id="boundary" inkscape:connector-curvature="0" />
	<circle cx="4" cy="226.657" r="4" fill="#0" id="circle0"/>
	<circle cx="4" cy="235.708" r="4" fill="#0" id="circle1"/>
	<circle cx="8.52555" cy="243.854" r="4" fill="#0" id="circle2"/>
	<circle cx="11.2409" cy="219.416" r="4" fill="#0" id="circle3"/>
	<circle cx="13.0511" cy="252" r="4" fill="#0" id="circle4"/>
	<circle cx="15.7664" cy="261.051" r="4" fill="#0" id="circle5"/>
	<circle cx="17.5766" cy="270.102" r="4" fill="#0" id="circle6"/>
	<circle cx="18.4818" cy="212.175" r="4" fill="#0" id="circle7"/>
	<circle cx="20.292" cy="279.153" r="4" fill="#0" id="circle8"/>
	<circle cx="24.8175" cy="287.299" r="4" fill="#0" id="circle9"/>
	<circle cx="27.5328" cy="207.65" r="4" fill="#0" id="circle10"/>
	<circle cx="32.9635" cy="291.825" r="4" fill="#0" id="circle11"/>
	<circle cx="34.7737" cy="201.314" r="4" fill="#0" id="circle12"/>
	<circle cx="38.3942" cy="192.263" r="4" fill="#0" id="circle13"/>
	<circle cx="42.0146" cy="288.204" r="4" fill="#0" id="circle14"/>
	<circle cx="45.635" cy="185.022" r="4" fill="#0" id="circle15"/>
	<circle cx="51.0657" cy="288.204" r="4" fill="#0" id="circle16"/>
	<circle cx="54.6861" cy="180.496" r="4" fill="#0" id="circle17"/>
	<circle cx="60.1168" cy="288.204" r="4" fill="#0" id="circle18"/>
	<circle cx="61.927" cy="174.161" r="4" fill="#0" id="circle19"/>
	<circle cx="69.1679" cy="288.204" r="4" fill="#0" id="circle20"/>
	<circle cx="70.073" cy="169.635" r="4" fill="#0" id="circle21"/>
	<circle cx="77.3139" cy="283.679" r="4" fill="#0" id="circle22"/>
	<circle cx="78.219" cy="165.109" r="4" fill="#0" id="circle23"/>
	<circle cx="85.4599" cy="154.248" r="4" fill="#0" id="circle24"/>
	<circle cx="86.365" cy="283.679" r="4" fill="#0" id="circle25"/>
	<circle cx="92.7007" cy="147.007" r="4" fill="#0" id="circle26"/>
	<circle cx="94.5109" cy="279.153" r="4" fill="#0" id="circle27"/>
	<circle cx="99.0365" cy="127.095" r="4" fill="#0" id="circle28"/>
	<circle cx="99.0365" cy="136.146" r="4" fill="#0" id="circle29"/>
	<circle cx="103.562" cy="27.5328" r="4" fill="#0" id="circle30"/>
	<circle cx="103.562" cy="36.5839" r="4" fill="#0" id="circle31"/>
	<circle cx="103.562" cy="45.635" r="4" fill="#0" id="circle32"/>
	<circle cx="103.562" cy="113.518" r="4" fill="#0" id="circle33"/>
	<circle cx="103.562" cy="279.153" r="4" fill="#0" id="circle34"/>
	<circle cx="108.088" cy="53.781" r="4" fill="#0" id="circle35"/>
	<circle cx="108.088" cy="62.8321" r="4" fill="#0" id="circle36"/>
	<circle cx="108.088" cy="71.8832" r="4" fill="#0" id="circle37"/>
	<circle cx="108.088" cy="80.9343" r="4" fill="#0" id="circle38"/>
	<circle cx="108.088" cy="89.9854" r="4" fill="#0" id="circle39"/>
	<circle cx="108.088" cy="99.0365" r="4" fill="#0" id="circle40"/>
	<circle cx="110.803" cy="20.292" r="4" fill="#0" id="circle41"/>
	<circle cx="112.613" cy="276.438" r="4" fill="#0" id="circle42"/>
	<circle cx="118.949" cy="15.7664" r="4" fill="#0" id="circle43"/>
	<circle cx="121.664" cy="274.628" r="4" fill="#0" id="circle44"/>
	<circle cx="128" cy="15.7664" r="4" fill="#0" id="circle45"/>
	<circle cx="129.81" cy="270.102" r="4" fill="#0" id="circle46"/>
	<circle cx="137.051" cy="15.7664" r="4" fill="#0" id="circle47"/>
	<circle cx="137.956" cy="265.577" r="4" fill="#0" id="circle48"/>
	<circle cx="146.102" cy="15.7664" r="4" fill="#0" id="circle49"/>
	<circle cx="147.007" cy="265.577" r="4" fill="#0" id="circle50"/>
	<circle cx="155.153" cy="15.7664" r="4" fill="#0" id="circle51"/>
	<circle cx="156.058" cy="265.577" r="4" fill="#0" id="circle52"/>
	<circle cx="164.204" cy="15.7664" r="4" fill="#0" id="circle53"/>
	<circle cx="165.109" cy="265.577" r="4" fill="#0" id="circle54"/>
	<circle cx="173.255" cy="15.7664" r="4" fill="#0" id="circle55"/>
	<circle cx="174.161" cy="265.577" r="4" fill="#0" id="circle56"/>
	<circle cx="181.401" cy="11.2409" r="4" fill="#0" id="circle57"/>
	<circle cx="183.212" cy="269.197" r="4" fill="#0" id="circle58"/>
	<circle cx="190.453" cy="11.2409" r="4" fill="#0" id="circle59"/>
	<circle cx="190.453" cy="274.628" r="4" fill="#0" id="circle60"/>
	<circle cx="198.599" cy="279.153" r="4" fill="#0" id="circle61"/>
	<circle cx="199.504" cy="11.2409" r="4" fill="#0" id="circle62"/>
	<circle cx="206.745" cy="283.679" r="4" fill="#0" id="circle63"/>
	<circle cx="208.555" cy="11.2409" r="4" fill="#0" id="circle64"/>
	<circle cx="214.891" cy="288.204" r="4" fill="#0" id="circle65"/>
	<circle cx="217.606" cy="8.52555" r="4" fill="#0" id="circle66"/>
	<circle cx="223.942" cy="291.825" r="4" fill="#0" id="circle67"/>
	<circle cx="226.657" cy="6.71533" r="4" fill="#0" id="circle68"/>
	<circle cx="232.088" cy="296.35" r="4" fill="#0" id="circle69"/>
	<circle cx="235.708" cy="6.71533" r="4" fill="#0" id="circle70"/>
	<circle cx="239.328" cy="301.781" r="4" fill="#0" id="circle71"/>
	<circle cx="244.759" cy="6.71533" r="4" fill="#0" id="circle72"/>
	<circle cx="247.474" cy="306.307" r="4" fill="#0" id="circle73"/>
	<circle cx="253.81" cy="4" r="4" fill="#0" id="circle74"/>
	<circle cx="255.62" cy="310.832" r="4" fill="#0" id="circle75"/>
	<circle cx="262.861" cy="4.90511" r="4" fill="#0" id="circle76"/>
	<circle cx="262.861" cy="317.168" r="4" fill="#0" id="circle77"/>
	<circle cx="269.197" cy="324.409" r="4" fill="#0" id="circle78"/>
	<circle cx="271.007" cy="9.43066" r="4" fill="#0" id="circle79"/>
	<circle cx="278.248" cy="15.7664" r="4" fill="#0" id="circle80"/>
	<circle cx="278.248" cy="324.409" r="4" fill="#0" id="circle81"/>
	<circle cx="284.584" cy="23.0073" r="4" fill="#0" id="circle82"/>
	<circle cx="287.299" cy="324.409" r="4" fill="#0" id="circle83"/>
	<circle cx="291.825" cy="29.3431" r="4" fill="#0" id="circle84"/>
	<circle cx="296.35" cy="324.409" r="4" fill="#0" id="circle85"/>
	<circle cx="298.161" cy="36.5839" r="4" fill="#0" id="circle86"/>
	<circle cx="305.401" cy="324.409" r="4" fill="#0" id="circle87"/>
	<circle cx="307.212" cy="40.2044" r="4" fill="#0" id="circle88"/>
	<circle cx="314.453" cy="324.409" r="4" fill="#0" id="circle89"/>
	<circle cx="315.358" cy="44.7299" r="4" fill="#0" id="circle90"/>
	<circle cx="323.504" cy="324.409" r="4" fill="#0" id="circle91"/>
	<circle cx="324.409" cy="48.3504" r="4" fill="#0" id="circle92"/>
	<circle cx="332.555" cy="52.8759" r="4" fill="#0" id="circle93"/>
	<circle cx="332.555" cy="324.409" r="4" fill="#0" id="circle94"/>
	<circle cx="341.606" cy="56.4964" r="4" fill="#0" id="circle95"/>
	<circle cx="341.606" cy="324.409" r="4" fill="#0" id="circle96"/>
	<circle cx="349.752" cy="61.0219" r="4" fill="#0" id="circle97"/>
	<circle cx="350.657" cy="324.409" r="4" fill="#0" id="circle98"/>
	<circle cx="357.898" cy="65.5474" r="4" fill="#0" id="circle99"/>
	<circle cx="359.708" cy="324.409" r="4" fill="#0" id="circle100"/>
	<circle cx="366.949" cy="65.5474" r="4" fill="#0" id="circle101"/>
	<circle cx="368.759" cy="324.409" r="4" fill="#0" id="circle102"/>
	<circle cx="376" cy="65.5474" r="4" fill="#0" id="circle103"/>
	<circle cx="377.81" cy="324.409" r="4" fill="#0" id="circle104"/>
	<circle cx="385.051" cy="65.5474" r="4" fill="#0" id="circle105"/>
	<circle cx="386.861" cy="324.409" r="4" fill="#0" id="circle106"/>
	<circle cx="394.102" cy="65.5474" r="4" fill="#0" id="circle107"/>
	<circle cx="395.912" cy="324.409" r="4" fill="#0" id="circle108"/>
	<circle cx="403.153" cy="65.5474" r="4" fill="#0" id="circle109"/>
	<circle cx="404.964" cy="324.409" r="4" fill="#0" id="circle110"/>
	<circle cx="412.204" cy="62.8321" r="4" fill="#0" id="circle111"/>
	<circle cx="414.015" cy="324.409" r="4" fill="#0" id="circle112"/>
	<circle cx="421.255" cy="61.0219" r="4" fill="#0" id="circle113"/>
	<circle cx="423.066" cy="324.409" r="4" fill="#0" id="circle114"/>
	<circle cx="429.401" cy="56.4964" r="4" fill="#0" id="circle115"/>
	<circle cx="432.117" cy="324.409" r="4" fill="#0" id="circle116"/>
	<circle cx="438.453" cy="56.4964" r="4" fill="#0" id="circle117"/>
	<circle cx="441.168" cy="324.409" r="4" fill="#0" id="circle118"/>
	<circle cx="447.504" cy="56.4964" r="4" fill="#0" id="circle119"/>
	<circle cx="450.219" cy="324.409" r="4" fill="#0" id="circle120"/>
	<circle cx="456.555" cy="56.4964" r="4" fill="#0" id="circle121"/>
	<circle cx="458.365" cy="319.883" r="4" fill="#0" id="circle122"/>
	<circle cx="464.701" cy="51.9708" r="4" fill="#0" id="circle123"/>
	<circle cx="466.511" cy="315.358" r="4" fill="#0" id="circle124"/>
	<circle cx="473.752" cy="51.9708" r="4" fill="#0" id="circle125"/>
	<circle cx="475.562" cy="315.358" r="4" fill="#0" id="circle126"/>
	<circle cx="482.803" cy="51.9708" r="4" fill="#0" id="circle127"/>
	<circle cx="484.613" cy="315.358" r="4" fill="#0" id="circle128"/>
	<circle cx="490.949" cy="47.4453" r="4" fill="#0" id="circle129"/>
	<circle cx="493.664" cy="315.358" r="4" fill="#0" id="circle130"/>
	<circle cx="500" cy="47.4453" r="4" fill="#0" id="circle131"/>
	<circle cx="502.715" cy="315.358" r="4" fill="#0" id="circle132"/>
	<circle cx="508.146" cy="42.9197" r="4" fill="#0" id="circle133"/>
	<circle cx="510.861" cy="310.832" r="4" fill="#0" id="circle134"/>
	<circle cx="517.197" cy="42.9197" r="4" fill="#0" id="circle135"/>
	<circle cx="519.912" cy="310.832" r="4" fill="#0" id="circle136"/>
	<circle cx="525.343" cy="38.3942" r="4" fill="#0" id="circle137"/>
	<circle cx="528.964" cy="310.832" r="4" fill="#0" id="circle138"/>
	<circle cx="534.394" cy="38.3942" r="4" fill="#0" id="circle139"/>
	<circle cx="538.015" cy="310.832" r="4" fill="#0" id="circle140"/>
	<circle cx="542.54" cy="33.8686" r="4" fill="#0" id="circle141"/>
	<circle cx="547.066" cy="310.832" r="4" fill="#0" id="circle142"/>
	<circle cx="551.591" cy="33.8686" r="4" fill="#0" id="circle143"/>
	<circle cx="556.117" cy="310.832" r="4" fill="#0" id="circle144"/>
	<circle cx="559.737" cy="29.3431" r="4" fill="#0" id="circle145"/>
	<circle cx="564.263" cy="306.307" r="4" fill="#0" id="circle146"/>
	<circle cx="568.788" cy="29.3431" r="4" fill="#0" id="circle147"/>
	<circle cx="573.314" cy="306.307" r="4" fill="#0" id="circle148"/>
	<circle cx="577.839" cy="29.3431" r="4" fill="#0" id="circle149"/>
	<circle cx="582.365" cy="306.307" r="4" fill="#0" id="circle150"/>
	<circle cx="586.891" cy="29.3431" r="4" fill="#0" id="circle151"/>
	<circle cx="591.416" cy="306.307" r="4" fill="#0" id="circle152"/>
	<circle cx="595.036" cy="24.8175" r="4" fill="#0" id="circle153"/>
	<circle cx="600.467" cy="306.307" r="4" fill="#0" id="circle154"/>
	<circle cx="604.088" cy="20.292" r="4" fill="#0" id="circle155"/>
	<circle cx="609.518" cy="306.307" r="4" fill="#0" id="circle156"/>
	<circle cx="613.139" cy="20.292" r="4" fill="#0" id="circle157"/>
	<circle cx="618.569" cy="306.307" r="4" fill="#0" id="circle158"/>
	<circle cx="622.19" cy="20.292" r="4" fill="#0" id="circle159"/>
	<circle cx="627.62" cy="306.307" r="4" fill="#0" id="circle160"/>
	<circle cx="630.336" cy="15.7664" r="4" fill="#0" id="circle161"/>
	<circle cx="636.672" cy="306.307" r="4" fill="#0" id="circle162"/>
	<circle cx="639.387" cy="15.7664" r="4" fill="#0" id="circle163"/>
	<circle cx="644.818" cy="310.832" r="4" fill="#0" id="circle164"/>
	<circle cx="647.533" cy="20.292" r="4" fill="#0" id="circle165"/>
	<circle cx="652.964" cy="315.358" r="4" fill="#0" id="circle166"/>
	<circle cx="655.679" cy="24.8175" r="4" fill="#0" id="circle167"/>
	<circle cx="661.109" cy="319.883" r="4" fill="#0" id="circle168"/>
	<circle cx="662.92" cy="30.2482" r="4" fill="#0" id="circle169"/>
	<circle cx="669.255" cy="324.409" r="4" fill="#0" id="circle170"/>
	<circle cx="670.161" cy="36.5839" r="4" fill="#0" id="circle171"/>
	<circle cx="676.496" cy="43.8248" r="4" fill="#0" id="circle172"/>
	<circle cx="677.401" cy="328.934" r="4" fill="#0" id="circle173"/>
	<circle cx="685.547" cy="47.4453" r="4" fill="#0" id="circle174"/>
	<circle cx="685.547" cy="333.46" r="4" fill="#0" id="circle175"/>
	<circle cx="691.883" cy="54.6861" r="4" fill="#0" id="circle176"/>
	<circle cx="692.788" cy="339.796" r="4" fill="#0" id="circle177"/>
	<circle cx="699.124" cy="347.036" r="4" fill="#0" id="circle178"/>
	<circle cx="700.934" cy="58.3066" r="4" fill="#0" id="circle179"/>
	<circle cx="706.365" cy="65.5474" r="4" fill="#0" id="circle180"/>
	<circle cx="707.27" cy="351.562" r="4" fill="#0" id="circle181"/>
	<circle cx="714.511" cy="356.993" r="4" fill="#0" id="circle182"/>
	<circle cx="715.416" cy="68.2628" r="4" fill="#0" id="circle183"/>
	<circle cx="719.036" cy="365.139" r="4" fill="#0" id="circle184"/>
	<circle cx="719.942" cy="76.4088" r="4" fill="#0" id="circle185"/>
	<circle cx="725.372" cy="83.6496" r="4" fill="#0" id="circle186"/>
	<circle cx="727.182" cy="369.664" r="4" fill="#0" id="circle187"/>
	<circle cx="733.518" cy="88.1752" r="4" fill="#0" id="circle188"/>
	<circle cx="735.328" cy="374.19" r="4" fill="#0" id="circle189"/>
	<circle cx="740.759" cy="93.6058" r="4" fill="#0" id="circle190"/>
	<circle cx="744.38" cy="373.285" r="4" fill="#0" id="circle191"/>
	<circle cx="747.095" cy="100.847" r="4" fill="#0" id="circle192"/>
	<circle cx="753.431" cy="369.664" r="4" fill="#0" id="circle193"/>
	<circle cx="756.146" cy="101.752" r="4" fill="#0" id="circle194"/>
	<circle cx="762.482" cy="369.664" r="4" fill="#0" id="circle195"/>
	<circle cx="765.197" cy="101.752" r="4" fill="#0" id="circle196"/>
	<circle cx="771.533" cy="369.664" r="4" fill="#0" id="circle197"/>
	<circle cx="774.248" cy="99.0365" r="4" fill="#0" id="circle198"/>
	<circle cx="780.584" cy="369.664" r="4" fill="#0" id="circle199"/>
	<circle cx="783.299" cy="97.2263" r="4" fill="#0" id="circle200"/>
	<circle cx="788.73" cy="365.139" r="4" fill="#0" id="circle201"/>
	<circle cx="792.35" cy="94.5109" r="4" fill="#0" id="circle202"/>
	<circle cx="796.876" cy="360.613" r="4" fill="#0" id="circle203"/>
	<circle cx="801.401" cy="92.7007" r="4" fill="#0" id="circle204"/>
	<circle cx="805.927" cy="360.613" r="4" fill="#0" id="circle205"/>
	<circle cx="810.453" cy="89.9854" r="4" fill="#0" id="circle206"/>
	<circle cx="814.978" cy="360.613" r="4" fill="#0" id="circle207"/>
	<circle cx="819.504" cy="88.1752" r="4" fill="#0" id="circle208"/>
	<circle cx="824.029" cy="360.613" r="4" fill="#0" id="circle209"/>
	<circle cx="827.65" cy="83.6496" r="4" fill="#0" id="circle210"/>
	<circle cx="833.08" cy="360.613" r="4" fill="#0" id="circle211"/>
	<circle cx="836.701" cy="81.8394" r="4" fill="#0" id="circle212"/>
	<circle cx="842.131" cy="360.613" r="4" fill="#0" id="circle213"/>
	<circle cx="845.752" cy="77.3139" r="4" fill="#0" id="circle214"/>
	<circle cx="851.182" cy="360.613" r="4" fill="#0" id="circle215"/>
	<circle cx="854.803" cy="72.7883" r="4" fill="#0" id="circle216"/>
	<circle cx="860.234" cy="360.613" r="4" fill="#0" id="circle217"/>
	<circle cx="863.854" cy="68.2628" r="4" fill="#0" id="circle218"/>
	<circle cx="869.285" cy="356.088" r="4" fill="#0" id="circle219"/>
	<circle cx="872.905" cy="65.5474" r="4" fill="#0" id="circle220"/>
	<circle cx="878.336" cy="242.949" r="4" fill="#0" id="circle221"/>
	<circle cx="878.336" cy="252" r="4" fill="#0" id="circle222"/>
	<circle cx="878.336" cy="261.051" r="4" fill="#0" id="circle223"/>
	<circle cx="878.336" cy="356.088" r="4" fill="#0" id="circle224"/>
	<circle cx="880.146" cy="270.102" r="4" fill="#0" id="circle225"/>
	<circle cx="881.051" cy="61.0219" r="4" fill="#0" id="circle226"/>
	<circle cx="884.672" cy="278.248" r="4" fill="#0" id="circle227"/>
	<circle cx="885.577" cy="236.613" r="4" fill="#0" id="circle228"/>
	<circle cx="887.387" cy="356.088" r="4" fill="#0" id="circle229"/>
	<circle cx="890.102" cy="61.0219" r="4" fill="#0" id="circle230"/>
	<circle cx="891.007" cy="285.489" r="4" fill="#0" id="circle231"/>
	<circle cx="891.912" cy="229.372" r="4" fill="#0" id="circle232"/>
	<circle cx="896.438" cy="292.73" r="4" fill="#0" id="circle233"/>
	<circle cx="896.438" cy="356.088" r="4" fill="#0" id="circle234"/>
	<circle cx="898.248" cy="56.4964" r="4" fill="#0" id="circle235"/>
	<circle cx="900.964" cy="224.847" r="4" fill="#0" id="circle236"/>
	<circle cx="900.964" cy="300.876" r="4" fill="#0" id="circle237"/>
	<circle cx="900.964" cy="309.927" r="4" fill="#0" id="circle238"/>
	<circle cx="905.489" cy="318.073" r="4" fill="#0" id="circle239"/>
	<circle cx="905.489" cy="327.124" r="4" fill="#0" id="circle240"/>
	<circle cx="905.489" cy="351.562" r="4" fill="#0" id="circle241"/>
	<circle cx="907.299" cy="56.4964" r="4" fill="#0" id="circle242"/>
	<circle cx="909.109" cy="220.321" r="4" fill="#0" id="circle243"/>
	<circle cx="910.015" cy="335.27" r="4" fill="#0" id="circle244"/>
	<circle cx="916.35" cy="56.4964" r="4" fill="#0" id="circle245"/>
	<circle cx="917.255" cy="215.796" r="4" fill="#0" id="circle246"/>
	<circle cx="925.401" cy="56.4964" r="4" fill="#0" id="circle247"/>
	<circle cx="925.401" cy="210.365" r="4" fill="#0" id="circle248"/>
	<circle cx="932.642" cy="61.927" r="4" fill="#0" id="circle249"/>
	<circle cx="932.642" cy="202.219" r="4" fill="#0" id="circle250"/>
	<circle cx="937.168" cy="70.073" r="4" fill="#0" id="circle251"/>
	<circle cx="939.883" cy="195.883" r="4" fill="#0" id="circle252"/>
	<circle cx="944.409" cy="75.5036" r="4" fill="#0" id="circle253"/>
	<circle cx="948.029" cy="84.5547" r="4" fill="#0" id="circle254"/>
	<circle cx="948.934" cy="191.358" r="4" fill="#0" id="circle255"/>
	<circle cx="955.27" cy="90.8905" r="4" fill="#0" id="circle256"/>
	<circle cx="957.985" cy="186.832" r="4" fill="#0" id="circle257"/>
	<circle cx="958.891" cy="99.9416" r="4" fill="#0" id="circle258"/>
	<circle cx="964.321" cy="179.591" r="4" fill="#0" id="circle259"/>
	<circle cx="966.131" cy="106.277" r="4" fill="#0" id="circle260"/>
	<circle cx="971.562" cy="173.255" r="4" fill="#0" id="circle261"/>
	<circle cx="972.467" cy="113.518" r="4" fill="#0" id="circle262"/>
	<circle cx="977.898" cy="120.759" r="4" fill="#0" id="circle263"/>
	<circle cx="980.613" cy="168.73" r="4" fill="#0" id="circle264"/>
	<circle cx="982.423" cy="128.905" r="4" fill="#0" id="circle265"/>
	<circle cx="986.949" cy="137.051" r="4" fill="#0" id="circle266"/>
	<circle cx="989.664" cy="166.015" r="4" fill="#0" id="circle267"/>
	<circle cx="994.19" cy="143.387" r="4" fill="#0" id="circle268"/>
	<circle cx="996" cy="156.964" r="4" fill="#0" id="circle269"/>
	</g>
</svg>