<?xml version="1.0" encoding="UTF-8" standalone="no"?>
<!-- Created with CurveBenchmark -->
<svg
	xmlns:dc="http://purl.org/dc/elements/1.1/"
	xmlns:cc="http://creativecommons.org/ns#"
	xmlns:rdf="http://www.w3.org/1999/02/22-rdf-syntax-ns#"
	xmlns:svg="http://www.w3.org/2000/svg"
	xmlns="http://www.w3.org/2000/svg"
	xmlns:sodipodi="http://sodipodi.sourceforge.net/DTD/sodipodi-0.dtd"
	xmlns:inkscape="http://www.inkscape.org/namespaces/inkscape"
	width="1000"
	height="1000"
	id="svg2"
	version="1.1"
	sodipodi:docname="manifold/connect2d-Misk21.png.txt">
<defs
	id="defs4" />
<metadata
	id="metadata7">
	<rdf:RDF>
		<cc:Work
			rdf:about="">
			<dc:format>image/svg+xml</dc:format>
			<dc:type
				rdf:resource="http://purl.org/dc/dcmitype/StillImage" />
			<dc:title></dc:title>
		</cc:Work>
	</rdf:RDF>
</metadata>
<g
	inkscape:label="Layer 1"
	inkscape:groupmode="layer"
	id="layer1">
	<path style="fill:none;stroke:red;stroke-width:1px;stroke-linecap:butt;stroke-linejoin:miter;stroke-opacity:1" d="M 648.275,742.751 641.714,766.37 z" id="boundary" inkscape:connector-curvature="0" />
	<path style="fill:none;stroke:red;stroke-width:1px;stroke-linecap:butt;stroke-linejoin:miter;stroke-opacity:1" d="M 641.714,766.37 631.217,778.18 z" id="boundary" inkscape:connector-curvature="0" />
	<path style="fill:none;stroke:red;stroke-width:1px;stroke-linecap:butt;stroke-linejoin:miter;stroke-opacity:1" d="M 631.217,778.18 619.407,786.053 z" id="boundary" inkscape:connector-curvature="0" />
	<path style="fill:none;stroke:red;stroke-width:1px;stroke-linecap:butt;stroke-linejoin:miter;stroke-opacity:1" d="M 619.407,786.053 606.286,786.053 z" id="boundary" inkscape:connector-curvature="0" />
	<path style="fill:none;stroke:red;stroke-width:1px;stroke-linecap:butt;stroke-linejoin:miter;stroke-opacity:1" d="M 606.286,786.053 593.164,786.053 z" id="boundary" inkscape:connector-curvature="0" />
	<path style="fill:none;stroke:red;stroke-width:1px;stroke-linecap:butt;stroke-linejoin:miter;stroke-opacity:1" d="M 593.164,786.053 581.354,779.492 z" id="boundary" inkscape:connector-curvature="0" />
	<path style="fill:none;stroke:red;stroke-width:1px;stroke-linecap:butt;stroke-linejoin:miter;stroke-opacity:1" d="M 581.354,779.492 569.545,772.931 z" id="boundary" inkscape:connector-curvature="0" />
	<path style="fill:none;stroke:red;stroke-width:1px;stroke-linecap:butt;stroke-linejoin:miter;stroke-opacity:1" d="M 569.545,772.931 556.423,770.307 z" id="boundary" inkscape:connector-curvature="0" />
	<path style="fill:none;stroke:red;stroke-width:1px;stroke-linecap:butt;stroke-linejoin:miter;stroke-opacity:1" d="M 556.423,770.307 544.614,763.746 z" id="boundary" inkscape:connector-curvature="0" />
	<path style="fill:none;stroke:red;stroke-width:1px;stroke-linecap:butt;stroke-linejoin:miter;stroke-opacity:1" d="M 544.614,763.746 531.492,759.81 z" id="boundary" inkscape:connector-curvature="0" />
	<path style="fill:none;stroke:red;stroke-width:1px;stroke-linecap:butt;stroke-linejoin:miter;stroke-opacity:1" d="M 531.492,759.81 518.37,759.81 z" id="boundary" inkscape:connector-curvature="0" />
	<path style="fill:none;stroke:red;stroke-width:1px;stroke-linecap:butt;stroke-linejoin:miter;stroke-opacity:1" d="M 518.37,759.81 506.561,753.249 z" id="boundary" inkscape:connector-curvature="0" />
	<path style="fill:none;stroke:red;stroke-width:1px;stroke-linecap:butt;stroke-linejoin:miter;stroke-opacity:1" d="M 506.561,753.249 493.439,751.937 z" id="boundary" inkscape:connector-curvature="0" />
	<path style="fill:none;stroke:red;stroke-width:1px;stroke-linecap:butt;stroke-linejoin:miter;stroke-opacity:1" d="M 493.439,751.937 480.317,746.688 z" id="boundary" inkscape:connector-curvature="0" />
	<path style="fill:none;stroke:red;stroke-width:1px;stroke-linecap:butt;stroke-linejoin:miter;stroke-opacity:1" d="M 480.317,746.688 468.508,753.249 z" id="boundary" inkscape:connector-curvature="0" />
	<path style="fill:none;stroke:red;stroke-width:1px;stroke-linecap:butt;stroke-linejoin:miter;stroke-opacity:1" d="M 468.508,753.249 455.386,753.249 z" id="boundary" inkscape:connector-curvature="0" />
	<path style="fill:none;stroke:red;stroke-width:1px;stroke-linecap:butt;stroke-linejoin:miter;stroke-opacity:1" d="M 455.386,753.249 442.265,757.185 z" id="boundary" inkscape:connector-curvature="0" />
	<path style="fill:none;stroke:red;stroke-width:1px;stroke-linecap:butt;stroke-linejoin:miter;stroke-opacity:1" d="M 442.265,757.185 431.767,766.37 z" id="boundary" inkscape:connector-curvature="0" />
	<path style="fill:none;stroke:red;stroke-width:1px;stroke-linecap:butt;stroke-linejoin:miter;stroke-opacity:1" d="M 431.767,766.37 418.646,772.931 z" id="boundary" inkscape:connector-curvature="0" />
	<path style="fill:none;stroke:red;stroke-width:1px;stroke-linecap:butt;stroke-linejoin:miter;stroke-opacity:1" d="M 418.646,772.931 412.085,786.053 z" id="boundary" inkscape:connector-curvature="0" />
	<path style="fill:none;stroke:red;stroke-width:1px;stroke-linecap:butt;stroke-linejoin:miter;stroke-opacity:1" d="M 412.085,786.053 405.524,805.735 z" id="boundary" inkscape:connector-curvature="0" />
	<path style="fill:none;stroke:red;stroke-width:1px;stroke-linecap:butt;stroke-linejoin:miter;stroke-opacity:1" d="M 405.524,805.735 405.524,818.857 z" id="boundary" inkscape:connector-curvature="0" />
	<path style="fill:none;stroke:red;stroke-width:1px;stroke-linecap:butt;stroke-linejoin:miter;stroke-opacity:1" d="M 405.524,818.857 412.085,830.667 z" id="boundary" inkscape:connector-curvature="0" />
	<path style="fill:none;stroke:red;stroke-width:1px;stroke-linecap:butt;stroke-linejoin:miter;stroke-opacity:1" d="M 412.085,830.667 425.206,830.667 z" id="boundary" inkscape:connector-curvature="0" />
	<path style="fill:none;stroke:red;stroke-width:1px;stroke-linecap:butt;stroke-linejoin:miter;stroke-opacity:1" d="M 425.206,830.667 438.328,834.603 z" id="boundary" inkscape:connector-curvature="0" />
	<path style="fill:none;stroke:red;stroke-width:1px;stroke-linecap:butt;stroke-linejoin:miter;stroke-opacity:1" d="M 438.328,834.603 451.45,837.228 z" id="boundary" inkscape:connector-curvature="0" />
	<path style="fill:none;stroke:red;stroke-width:1px;stroke-linecap:butt;stroke-linejoin:miter;stroke-opacity:1" d="M 451.45,837.228 463.259,843.788 z" id="boundary" inkscape:connector-curvature="0" />
	<path style="fill:none;stroke:red;stroke-width:1px;stroke-linecap:butt;stroke-linejoin:miter;stroke-opacity:1" d="M 463.259,843.788 476.381,843.788 z" id="boundary" inkscape:connector-curvature="0" />
	<path style="fill:none;stroke:red;stroke-width:1px;stroke-linecap:butt;stroke-linejoin:miter;stroke-opacity:1" d="M 476.381,843.788 489.503,846.413 z" id="boundary" inkscape:connector-curvature="0" />
	<path style="fill:none;stroke:red;stroke-width:1px;stroke-linecap:butt;stroke-linejoin:miter;stroke-opacity:1" d="M 489.503,846.413 502.624,850.349 z" id="boundary" inkscape:connector-curvature="0" />
	<path style="fill:none;stroke:red;stroke-width:1px;stroke-linecap:butt;stroke-linejoin:miter;stroke-opacity:1" d="M 502.624,850.349 514.434,856.91 z" id="boundary" inkscape:connector-curvature="0" />
	<path style="fill:none;stroke:red;stroke-width:1px;stroke-linecap:butt;stroke-linejoin:miter;stroke-opacity:1" d="M 514.434,856.91 526.243,863.471 z" id="boundary" inkscape:connector-curvature="0" />
	<path style="fill:none;stroke:red;stroke-width:1px;stroke-linecap:butt;stroke-linejoin:miter;stroke-opacity:1" d="M 526.243,863.471 538.053,870.032 z" id="boundary" inkscape:connector-curvature="0" />
	<path style="fill:none;stroke:red;stroke-width:1px;stroke-linecap:butt;stroke-linejoin:miter;stroke-opacity:1" d="M 538.053,870.032 551.175,870.032 z" id="boundary" inkscape:connector-curvature="0" />
	<path style="fill:none;stroke:red;stroke-width:1px;stroke-linecap:butt;stroke-linejoin:miter;stroke-opacity:1" d="M 551.175,870.032 562.984,876.593 z" id="boundary" inkscape:connector-curvature="0" />
	<path style="fill:none;stroke:red;stroke-width:1px;stroke-linecap:butt;stroke-linejoin:miter;stroke-opacity:1" d="M 562.984,876.593 574.794,883.153 z" id="boundary" inkscape:connector-curvature="0" />
	<path style="fill:none;stroke:red;stroke-width:1px;stroke-linecap:butt;stroke-linejoin:miter;stroke-opacity:1" d="M 574.794,883.153 586.603,889.714 z" id="boundary" inkscape:connector-curvature="0" />
	<path style="fill:none;stroke:red;stroke-width:1px;stroke-linecap:butt;stroke-linejoin:miter;stroke-opacity:1" d="M 586.603,889.714 598.413,896.275 z" id="boundary" inkscape:connector-curvature="0" />
	<path style="fill:none;stroke:red;stroke-width:1px;stroke-linecap:butt;stroke-linejoin:miter;stroke-opacity:1" d="M 598.413,896.275 602.349,909.397 z" id="boundary" inkscape:connector-curvature="0" />
	<path style="fill:none;stroke:red;stroke-width:1px;stroke-linecap:butt;stroke-linejoin:miter;stroke-opacity:1" d="M 602.349,909.397 591.852,929.079 z" id="boundary" inkscape:connector-curvature="0" />
	<path style="fill:none;stroke:red;stroke-width:1px;stroke-linecap:butt;stroke-linejoin:miter;stroke-opacity:1" d="M 591.852,929.079 581.354,936.952 z" id="boundary" inkscape:connector-curvature="0" />
	<path style="fill:none;stroke:red;stroke-width:1px;stroke-linecap:butt;stroke-linejoin:miter;stroke-opacity:1" d="M 581.354,936.952 569.545,943.513 z" id="boundary" inkscape:connector-curvature="0" />
	<path style="fill:none;stroke:red;stroke-width:1px;stroke-linecap:butt;stroke-linejoin:miter;stroke-opacity:1" d="M 569.545,943.513 557.735,950.074 z" id="boundary" inkscape:connector-curvature="0" />
	<path style="fill:none;stroke:red;stroke-width:1px;stroke-linecap:butt;stroke-linejoin:miter;stroke-opacity:1" d="M 557.735,950.074 545.926,956.635 z" id="boundary" inkscape:connector-curvature="0" />
	<path style="fill:none;stroke:red;stroke-width:1px;stroke-linecap:butt;stroke-linejoin:miter;stroke-opacity:1" d="M 545.926,956.635 534.116,963.196 z" id="boundary" inkscape:connector-curvature="0" />
	<path style="fill:none;stroke:red;stroke-width:1px;stroke-linecap:butt;stroke-linejoin:miter;stroke-opacity:1" d="M 534.116,963.196 520.995,967.132 z" id="boundary" inkscape:connector-curvature="0" />
	<path style="fill:none;stroke:red;stroke-width:1px;stroke-linecap:butt;stroke-linejoin:miter;stroke-opacity:1" d="M 520.995,967.132 507.873,973.693 z" id="boundary" inkscape:connector-curvature="0" />
	<path style="fill:none;stroke:red;stroke-width:1px;stroke-linecap:butt;stroke-linejoin:miter;stroke-opacity:1" d="M 507.873,973.693 494.751,976.317 z" id="boundary" inkscape:connector-curvature="0" />
	<path style="fill:none;stroke:red;stroke-width:1px;stroke-linecap:butt;stroke-linejoin:miter;stroke-opacity:1" d="M 494.751,976.317 482.942,982.878 z" id="boundary" inkscape:connector-curvature="0" />
	<path style="fill:none;stroke:red;stroke-width:1px;stroke-linecap:butt;stroke-linejoin:miter;stroke-opacity:1" d="M 482.942,982.878 471.132,989.439 z" id="boundary" inkscape:connector-curvature="0" />
	<path style="fill:none;stroke:red;stroke-width:1px;stroke-linecap:butt;stroke-linejoin:miter;stroke-opacity:1" d="M 471.132,989.439 458.011,989.439 z" id="boundary" inkscape:connector-curvature="0" />
	<path style="fill:none;stroke:red;stroke-width:1px;stroke-linecap:butt;stroke-linejoin:miter;stroke-opacity:1" d="M 458.011,989.439 444.889,989.439 z" id="boundary" inkscape:connector-curvature="0" />
	<path style="fill:none;stroke:red;stroke-width:1px;stroke-linecap:butt;stroke-linejoin:miter;stroke-opacity:1" d="M 444.889,989.439 433.079,996 z" id="boundary" inkscape:connector-curvature="0" />
	<path style="fill:none;stroke:red;stroke-width:1px;stroke-linecap:butt;stroke-linejoin:miter;stroke-opacity:1" d="M 433.079,996 419.958,996 z" id="boundary" inkscape:connector-curvature="0" />
	<path style="fill:none;stroke:red;stroke-width:1px;stroke-linecap:butt;stroke-linejoin:miter;stroke-opacity:1" d="M 419.958,996 406.836,996 z" id="boundary" inkscape:connector-curvature="0" />
	<path style="fill:none;stroke:red;stroke-width:1px;stroke-linecap:butt;stroke-linejoin:miter;stroke-opacity:1" d="M 406.836,996 393.714,996 z" id="boundary" inkscape:connector-curvature="0" />
	<path style="fill:none;stroke:red;stroke-width:1px;stroke-linecap:butt;stroke-linejoin:miter;stroke-opacity:1" d="M 393.714,996 380.593,996 z" id="boundary" inkscape:connector-curvature="0" />
	<path style="fill:none;stroke:red;stroke-width:1px;stroke-linecap:butt;stroke-linejoin:miter;stroke-opacity:1" d="M 380.593,996 367.471,993.376 z" id="boundary" inkscape:connector-curvature="0" />
	<path style="fill:none;stroke:red;stroke-width:1px;stroke-linecap:butt;stroke-linejoin:miter;stroke-opacity:1" d="M 367.471,993.376 354.349,989.439 z" id="boundary" inkscape:connector-curvature="0" />
	<path style="fill:none;stroke:red;stroke-width:1px;stroke-linecap:butt;stroke-linejoin:miter;stroke-opacity:1" d="M 354.349,989.439 341.228,989.439 z" id="boundary" inkscape:connector-curvature="0" />
	<path style="fill:none;stroke:red;stroke-width:1px;stroke-linecap:butt;stroke-linejoin:miter;stroke-opacity:1" d="M 341.228,989.439 329.418,982.878 z" id="boundary" inkscape:connector-curvature="0" />
	<path style="fill:none;stroke:red;stroke-width:1px;stroke-linecap:butt;stroke-linejoin:miter;stroke-opacity:1" d="M 329.418,982.878 317.608,976.317 z" id="boundary" inkscape:connector-curvature="0" />
	<path style="fill:none;stroke:red;stroke-width:1px;stroke-linecap:butt;stroke-linejoin:miter;stroke-opacity:1" d="M 317.608,976.317 304.487,976.317 z" id="boundary" inkscape:connector-curvature="0" />
	<path style="fill:none;stroke:red;stroke-width:1px;stroke-linecap:butt;stroke-linejoin:miter;stroke-opacity:1" d="M 304.487,976.317 292.677,969.757 z" id="boundary" inkscape:connector-curvature="0" />
	<path style="fill:none;stroke:red;stroke-width:1px;stroke-linecap:butt;stroke-linejoin:miter;stroke-opacity:1" d="M 292.677,969.757 280.868,963.196 z" id="boundary" inkscape:connector-curvature="0" />
	<path style="fill:none;stroke:red;stroke-width:1px;stroke-linecap:butt;stroke-linejoin:miter;stroke-opacity:1" d="M 280.868,963.196 267.746,959.259 z" id="boundary" inkscape:connector-curvature="0" />
	<path style="fill:none;stroke:red;stroke-width:1px;stroke-linecap:butt;stroke-linejoin:miter;stroke-opacity:1" d="M 267.746,959.259 254.624,954.011 z" id="boundary" inkscape:connector-curvature="0" />
	<path style="fill:none;stroke:red;stroke-width:1px;stroke-linecap:butt;stroke-linejoin:miter;stroke-opacity:1" d="M 254.624,954.011 242.815,947.45 z" id="boundary" inkscape:connector-curvature="0" />
	<path style="fill:none;stroke:red;stroke-width:1px;stroke-linecap:butt;stroke-linejoin:miter;stroke-opacity:1" d="M 242.815,947.45 229.693,943.513 z" id="boundary" inkscape:connector-curvature="0" />
	<path style="fill:none;stroke:red;stroke-width:1px;stroke-linecap:butt;stroke-linejoin:miter;stroke-opacity:1" d="M 229.693,943.513 217.884,936.952 z" id="boundary" inkscape:connector-curvature="0" />
	<path style="fill:none;stroke:red;stroke-width:1px;stroke-linecap:butt;stroke-linejoin:miter;stroke-opacity:1" d="M 217.884,936.952 204.762,936.952 z" id="boundary" inkscape:connector-curvature="0" />
	<path style="fill:none;stroke:red;stroke-width:1px;stroke-linecap:butt;stroke-linejoin:miter;stroke-opacity:1" d="M 204.762,936.952 191.64,936.952 z" id="boundary" inkscape:connector-curvature="0" />
	<path style="fill:none;stroke:red;stroke-width:1px;stroke-linecap:butt;stroke-linejoin:miter;stroke-opacity:1" d="M 191.64,936.952 179.831,930.392 z" id="boundary" inkscape:connector-curvature="0" />
	<path style="fill:none;stroke:red;stroke-width:1px;stroke-linecap:butt;stroke-linejoin:miter;stroke-opacity:1" d="M 179.831,930.392 169.333,921.206 z" id="boundary" inkscape:connector-curvature="0" />
	<path style="fill:none;stroke:red;stroke-width:1px;stroke-linecap:butt;stroke-linejoin:miter;stroke-opacity:1" d="M 169.333,921.206 161.46,910.709 z" id="boundary" inkscape:connector-curvature="0" />
	<path style="fill:none;stroke:red;stroke-width:1px;stroke-linecap:butt;stroke-linejoin:miter;stroke-opacity:1" d="M 161.46,910.709 150.963,902.836 z" id="boundary" inkscape:connector-curvature="0" />
	<path style="fill:none;stroke:red;stroke-width:1px;stroke-linecap:butt;stroke-linejoin:miter;stroke-opacity:1" d="M 150.963,902.836 141.778,892.339 z" id="boundary" inkscape:connector-curvature="0" />
	<path style="fill:none;stroke:red;stroke-width:1px;stroke-linecap:butt;stroke-linejoin:miter;stroke-opacity:1" d="M 141.778,892.339 135.217,880.529 z" id="boundary" inkscape:connector-curvature="0" />
	<path style="fill:none;stroke:red;stroke-width:1px;stroke-linecap:butt;stroke-linejoin:miter;stroke-opacity:1" d="M 135.217,880.529 135.217,867.407 z" id="boundary" inkscape:connector-curvature="0" />
	<path style="fill:none;stroke:red;stroke-width:1px;stroke-linecap:butt;stroke-linejoin:miter;stroke-opacity:1" d="M 135.217,867.407 126.032,856.91 z" id="boundary" inkscape:connector-curvature="0" />
	<path style="fill:none;stroke:red;stroke-width:1px;stroke-linecap:butt;stroke-linejoin:miter;stroke-opacity:1" d="M 126.032,856.91 115.534,847.725 z" id="boundary" inkscape:connector-curvature="0" />
	<path style="fill:none;stroke:red;stroke-width:1px;stroke-linecap:butt;stroke-linejoin:miter;stroke-opacity:1" d="M 115.534,847.725 110.286,834.603 z" id="boundary" inkscape:connector-curvature="0" />
	<path style="fill:none;stroke:red;stroke-width:1px;stroke-linecap:butt;stroke-linejoin:miter;stroke-opacity:1" d="M 110.286,834.603 99.7884,825.418 z" id="boundary" inkscape:connector-curvature="0" />
	<path style="fill:none;stroke:red;stroke-width:1px;stroke-linecap:butt;stroke-linejoin:miter;stroke-opacity:1" d="M 99.7884,825.418 86.6667,825.418 z" id="boundary" inkscape:connector-curvature="0" />
	<path style="fill:none;stroke:red;stroke-width:1px;stroke-linecap:butt;stroke-linejoin:miter;stroke-opacity:1" d="M 86.6667,825.418 73.545,825.418 z" id="boundary" inkscape:connector-curvature="0" />
	<path style="fill:none;stroke:red;stroke-width:1px;stroke-linecap:butt;stroke-linejoin:miter;stroke-opacity:1" d="M 73.545,825.418 61.7354,831.979 z" id="boundary" inkscape:connector-curvature="0" />
	<path style="fill:none;stroke:red;stroke-width:1px;stroke-linecap:butt;stroke-linejoin:miter;stroke-opacity:1" d="M 61.7354,831.979 51.2381,822.794 z" id="boundary" inkscape:connector-curvature="0" />
	<path style="fill:none;stroke:red;stroke-width:1px;stroke-linecap:butt;stroke-linejoin:miter;stroke-opacity:1" d="M 51.2381,822.794 43.3651,812.296 z" id="boundary" inkscape:connector-curvature="0" />
	<path style="fill:none;stroke:red;stroke-width:1px;stroke-linecap:butt;stroke-linejoin:miter;stroke-opacity:1" d="M 43.3651,812.296 36.8042,800.487 z" id="boundary" inkscape:connector-curvature="0" />
	<path style="fill:none;stroke:red;stroke-width:1px;stroke-linecap:butt;stroke-linejoin:miter;stroke-opacity:1" d="M 36.8042,800.487 36.8042,787.365 z" id="boundary" inkscape:connector-curvature="0" />
	<path style="fill:none;stroke:red;stroke-width:1px;stroke-linecap:butt;stroke-linejoin:miter;stroke-opacity:1" d="M 36.8042,787.365 30.2434,775.556 z" id="boundary" inkscape:connector-curvature="0" />
	<path style="fill:none;stroke:red;stroke-width:1px;stroke-linecap:butt;stroke-linejoin:miter;stroke-opacity:1" d="M 30.2434,775.556 30.2434,762.434 z" id="boundary" inkscape:connector-curvature="0" />
	<path style="fill:none;stroke:red;stroke-width:1px;stroke-linecap:butt;stroke-linejoin:miter;stroke-opacity:1" d="M 30.2434,762.434 30.2434,749.312 z" id="boundary" inkscape:connector-curvature="0" />
	<path style="fill:none;stroke:red;stroke-width:1px;stroke-linecap:butt;stroke-linejoin:miter;stroke-opacity:1" d="M 30.2434,749.312 30.2434,736.19 z" id="boundary" inkscape:connector-curvature="0" />
	<path style="fill:none;stroke:red;stroke-width:1px;stroke-linecap:butt;stroke-linejoin:miter;stroke-opacity:1" d="M 30.2434,736.19 36.8042,716.508 z" id="boundary" inkscape:connector-curvature="0" />
	<path style="fill:none;stroke:red;stroke-width:1px;stroke-linecap:butt;stroke-linejoin:miter;stroke-opacity:1" d="M 36.8042,716.508 43.3651,703.386 z" id="boundary" inkscape:connector-curvature="0" />
	<path style="fill:none;stroke:red;stroke-width:1px;stroke-linecap:butt;stroke-linejoin:miter;stroke-opacity:1" d="M 43.3651,703.386 53.8624,692.889 z" id="boundary" inkscape:connector-curvature="0" />
	<path style="fill:none;stroke:red;stroke-width:1px;stroke-linecap:butt;stroke-linejoin:miter;stroke-opacity:1" d="M 53.8624,692.889 63.0476,677.143 z" id="boundary" inkscape:connector-curvature="0" />
	<path style="fill:none;stroke:red;stroke-width:1px;stroke-linecap:butt;stroke-linejoin:miter;stroke-opacity:1" d="M 63.0476,677.143 69.6085,657.46 z" id="boundary" inkscape:connector-curvature="0" />
	<path style="fill:none;stroke:red;stroke-width:1px;stroke-linecap:butt;stroke-linejoin:miter;stroke-opacity:1" d="M 69.6085,657.46 76.1693,644.339 z" id="boundary" inkscape:connector-curvature="0" />
	<path style="fill:none;stroke:red;stroke-width:1px;stroke-linecap:butt;stroke-linejoin:miter;stroke-opacity:1" d="M 76.1693,644.339 82.7302,624.656 z" id="boundary" inkscape:connector-curvature="0" />
	<path style="fill:none;stroke:red;stroke-width:1px;stroke-linecap:butt;stroke-linejoin:miter;stroke-opacity:1" d="M 82.7302,624.656 89.291,611.534 z" id="boundary" inkscape:connector-curvature="0" />
	<path style="fill:none;stroke:red;stroke-width:1px;stroke-linecap:butt;stroke-linejoin:miter;stroke-opacity:1" d="M 89.291,611.534 95.8519,591.852 z" id="boundary" inkscape:connector-curvature="0" />
	<path style="fill:none;stroke:red;stroke-width:1px;stroke-linecap:butt;stroke-linejoin:miter;stroke-opacity:1" d="M 95.8519,591.852 102.413,572.169 z" id="boundary" inkscape:connector-curvature="0" />
	<path style="fill:none;stroke:red;stroke-width:1px;stroke-linecap:butt;stroke-linejoin:miter;stroke-opacity:1" d="M 102.413,572.169 102.413,559.048 z" id="boundary" inkscape:connector-curvature="0" />
	<path style="fill:none;stroke:red;stroke-width:1px;stroke-linecap:butt;stroke-linejoin:miter;stroke-opacity:1" d="M 102.413,559.048 102.413,545.926 z" id="boundary" inkscape:connector-curvature="0" />
	<path style="fill:none;stroke:red;stroke-width:1px;stroke-linecap:butt;stroke-linejoin:miter;stroke-opacity:1" d="M 102.413,545.926 102.413,532.804 z" id="boundary" inkscape:connector-curvature="0" />
	<path style="fill:none;stroke:red;stroke-width:1px;stroke-linecap:butt;stroke-linejoin:miter;stroke-opacity:1" d="M 102.413,532.804 102.413,519.683 z" id="boundary" inkscape:connector-curvature="0" />
	<path style="fill:none;stroke:red;stroke-width:1px;stroke-linecap:butt;stroke-linejoin:miter;stroke-opacity:1" d="M 102.413,519.683 102.413,506.561 z" id="boundary" inkscape:connector-curvature="0" />
	<path style="fill:none;stroke:red;stroke-width:1px;stroke-linecap:butt;stroke-linejoin:miter;stroke-opacity:1" d="M 102.413,506.561 102.413,493.439 z" id="boundary" inkscape:connector-curvature="0" />
	<path style="fill:none;stroke:red;stroke-width:1px;stroke-linecap:butt;stroke-linejoin:miter;stroke-opacity:1" d="M 102.413,493.439 95.8519,481.63 z" id="boundary" inkscape:connector-curvature="0" />
	<path style="fill:none;stroke:red;stroke-width:1px;stroke-linecap:butt;stroke-linejoin:miter;stroke-opacity:1" d="M 95.8519,481.63 89.291,469.82 z" id="boundary" inkscape:connector-curvature="0" />
	<path style="fill:none;stroke:red;stroke-width:1px;stroke-linecap:butt;stroke-linejoin:miter;stroke-opacity:1" d="M 89.291,469.82 86.6667,456.698 z" id="boundary" inkscape:connector-curvature="0" />
	<path style="fill:none;stroke:red;stroke-width:1px;stroke-linecap:butt;stroke-linejoin:miter;stroke-opacity:1" d="M 86.6667,456.698 76.1693,447.513 z" id="boundary" inkscape:connector-curvature="0" />
	<path style="fill:none;stroke:red;stroke-width:1px;stroke-linecap:butt;stroke-linejoin:miter;stroke-opacity:1" d="M 76.1693,447.513 69.6085,435.704 z" id="boundary" inkscape:connector-curvature="0" />
	<path style="fill:none;stroke:red;stroke-width:1px;stroke-linecap:butt;stroke-linejoin:miter;stroke-opacity:1" d="M 69.6085,435.704 61.7354,425.206 z" id="boundary" inkscape:connector-curvature="0" />
	<path style="fill:none;stroke:red;stroke-width:1px;stroke-linecap:butt;stroke-linejoin:miter;stroke-opacity:1" d="M 61.7354,425.206 51.2381,416.021 z" id="boundary" inkscape:connector-curvature="0" />
	<path style="fill:none;stroke:red;stroke-width:1px;stroke-linecap:butt;stroke-linejoin:miter;stroke-opacity:1" d="M 51.2381,416.021 43.3651,405.524 z" id="boundary" inkscape:connector-curvature="0" />
	<path style="fill:none;stroke:red;stroke-width:1px;stroke-linecap:butt;stroke-linejoin:miter;stroke-opacity:1" d="M 43.3651,405.524 32.8677,396.339 z" id="boundary" inkscape:connector-curvature="0" />
	<path style="fill:none;stroke:red;stroke-width:1px;stroke-linecap:butt;stroke-linejoin:miter;stroke-opacity:1" d="M 32.8677,396.339 19.746,391.09 z" id="boundary" inkscape:connector-curvature="0" />
	<path style="fill:none;stroke:red;stroke-width:1px;stroke-linecap:butt;stroke-linejoin:miter;stroke-opacity:1" d="M 19.746,391.09 10.5608,380.593 z" id="boundary" inkscape:connector-curvature="0" />
	<path style="fill:none;stroke:red;stroke-width:1px;stroke-linecap:butt;stroke-linejoin:miter;stroke-opacity:1" d="M 10.5608,380.593 4,368.783 z" id="boundary" inkscape:connector-curvature="0" />
	<path style="fill:none;stroke:red;stroke-width:1px;stroke-linecap:butt;stroke-linejoin:miter;stroke-opacity:1" d="M 4,368.783 4,355.661 z" id="boundary" inkscape:connector-curvature="0" />
	<path style="fill:none;stroke:red;stroke-width:1px;stroke-linecap:butt;stroke-linejoin:miter;stroke-opacity:1" d="M 4,355.661 14.4974,345.164 z" id="boundary" inkscape:connector-curvature="0" />
	<path style="fill:none;stroke:red;stroke-width:1px;stroke-linecap:butt;stroke-linejoin:miter;stroke-opacity:1" d="M 14.4974,345.164 26.3069,338.603 z" id="boundary" inkscape:connector-curvature="0" />
	<path style="fill:none;stroke:red;stroke-width:1px;stroke-linecap:butt;stroke-linejoin:miter;stroke-opacity:1" d="M 26.3069,338.603 38.1164,332.042 z" id="boundary" inkscape:connector-curvature="0" />
	<path style="fill:none;stroke:red;stroke-width:1px;stroke-linecap:butt;stroke-linejoin:miter;stroke-opacity:1" d="M 38.1164,332.042 49.9259,325.481 z" id="boundary" inkscape:connector-curvature="0" />
	<path style="fill:none;stroke:red;stroke-width:1px;stroke-linecap:butt;stroke-linejoin:miter;stroke-opacity:1" d="M 49.9259,325.481 61.7354,318.921 z" id="boundary" inkscape:connector-curvature="0" />
	<path style="fill:none;stroke:red;stroke-width:1px;stroke-linecap:butt;stroke-linejoin:miter;stroke-opacity:1" d="M 61.7354,318.921 70.9206,308.423 z" id="boundary" inkscape:connector-curvature="0" />
	<path style="fill:none;stroke:red;stroke-width:1px;stroke-linecap:butt;stroke-linejoin:miter;stroke-opacity:1" d="M 70.9206,308.423 81.418,299.238 z" id="boundary" inkscape:connector-curvature="0" />
	<path style="fill:none;stroke:red;stroke-width:1px;stroke-linecap:butt;stroke-linejoin:miter;stroke-opacity:1" d="M 81.418,299.238 90.6032,288.741 z" id="boundary" inkscape:connector-curvature="0" />
	<path style="fill:none;stroke:red;stroke-width:1px;stroke-linecap:butt;stroke-linejoin:miter;stroke-opacity:1" d="M 90.6032,288.741 101.101,279.556 z" id="boundary" inkscape:connector-curvature="0" />
	<path style="fill:none;stroke:red;stroke-width:1px;stroke-linecap:butt;stroke-linejoin:miter;stroke-opacity:1" d="M 101.101,279.556 112.91,272.995 z" id="boundary" inkscape:connector-curvature="0" />
	<path style="fill:none;stroke:red;stroke-width:1px;stroke-linecap:butt;stroke-linejoin:miter;stroke-opacity:1" d="M 112.91,272.995 123.407,262.497 z" id="boundary" inkscape:connector-curvature="0" />
	<path style="fill:none;stroke:red;stroke-width:1px;stroke-linecap:butt;stroke-linejoin:miter;stroke-opacity:1" d="M 123.407,262.497 133.905,253.312 z" id="boundary" inkscape:connector-curvature="0" />
	<path style="fill:none;stroke:red;stroke-width:1px;stroke-linecap:butt;stroke-linejoin:miter;stroke-opacity:1" d="M 133.905,253.312 145.714,246.751 z" id="boundary" inkscape:connector-curvature="0" />
	<path style="fill:none;stroke:red;stroke-width:1px;stroke-linecap:butt;stroke-linejoin:miter;stroke-opacity:1" d="M 145.714,246.751 158.836,240.19 z" id="boundary" inkscape:connector-curvature="0" />
	<path style="fill:none;stroke:red;stroke-width:1px;stroke-linecap:butt;stroke-linejoin:miter;stroke-opacity:1" d="M 158.836,240.19 170.646,233.63 z" id="boundary" inkscape:connector-curvature="0" />
	<path style="fill:none;stroke:red;stroke-width:1px;stroke-linecap:butt;stroke-linejoin:miter;stroke-opacity:1" d="M 170.646,233.63 182.455,227.069 z" id="boundary" inkscape:connector-curvature="0" />
	<path style="fill:none;stroke:red;stroke-width:1px;stroke-linecap:butt;stroke-linejoin:miter;stroke-opacity:1" d="M 182.455,227.069 194.265,211.323 z" id="boundary" inkscape:connector-curvature="0" />
	<path style="fill:none;stroke:red;stroke-width:1px;stroke-linecap:butt;stroke-linejoin:miter;stroke-opacity:1" d="M 194.265,211.323 200.825,198.201 z" id="boundary" inkscape:connector-curvature="0" />
	<path style="fill:none;stroke:red;stroke-width:1px;stroke-linecap:butt;stroke-linejoin:miter;stroke-opacity:1" d="M 200.825,198.201 207.386,185.079 z" id="boundary" inkscape:connector-curvature="0" />
	<path style="fill:none;stroke:red;stroke-width:1px;stroke-linecap:butt;stroke-linejoin:miter;stroke-opacity:1" d="M 207.386,185.079 213.947,171.958 z" id="boundary" inkscape:connector-curvature="0" />
	<path style="fill:none;stroke:red;stroke-width:1px;stroke-linecap:butt;stroke-linejoin:miter;stroke-opacity:1" d="M 213.947,171.958 220.508,158.836 z" id="boundary" inkscape:connector-curvature="0" />
	<path style="fill:none;stroke:red;stroke-width:1px;stroke-linecap:butt;stroke-linejoin:miter;stroke-opacity:1" d="M 220.508,158.836 227.069,145.714 z" id="boundary" inkscape:connector-curvature="0" />
	<path style="fill:none;stroke:red;stroke-width:1px;stroke-linecap:butt;stroke-linejoin:miter;stroke-opacity:1" d="M 227.069,145.714 233.63,132.593 z" id="boundary" inkscape:connector-curvature="0" />
	<path style="fill:none;stroke:red;stroke-width:1px;stroke-linecap:butt;stroke-linejoin:miter;stroke-opacity:1" d="M 233.63,132.593 240.19,119.471 z" id="boundary" inkscape:connector-curvature="0" />
	<path style="fill:none;stroke:red;stroke-width:1px;stroke-linecap:butt;stroke-linejoin:miter;stroke-opacity:1" d="M 240.19,119.471 246.751,106.349 z" id="boundary" inkscape:connector-curvature="0" />
	<path style="fill:none;stroke:red;stroke-width:1px;stroke-linecap:butt;stroke-linejoin:miter;stroke-opacity:1" d="M 246.751,106.349 253.312,93.2275 z" id="boundary" inkscape:connector-curvature="0" />
	<path style="fill:none;stroke:red;stroke-width:1px;stroke-linecap:butt;stroke-linejoin:miter;stroke-opacity:1" d="M 253.312,93.2275 259.873,80.1058 z" id="boundary" inkscape:connector-curvature="0" />
	<path style="fill:none;stroke:red;stroke-width:1px;stroke-linecap:butt;stroke-linejoin:miter;stroke-opacity:1" d="M 259.873,80.1058 266.434,66.9841 z" id="boundary" inkscape:connector-curvature="0" />
	<path style="fill:none;stroke:red;stroke-width:1px;stroke-linecap:butt;stroke-linejoin:miter;stroke-opacity:1" d="M 266.434,66.9841 272.995,53.8624 z" id="boundary" inkscape:connector-curvature="0" />
	<path style="fill:none;stroke:red;stroke-width:1px;stroke-linecap:butt;stroke-linejoin:miter;stroke-opacity:1" d="M 272.995,53.8624 279.556,40.7407 z" id="boundary" inkscape:connector-curvature="0" />
	<path style="fill:none;stroke:red;stroke-width:1px;stroke-linecap:butt;stroke-linejoin:miter;stroke-opacity:1" d="M 279.556,40.7407 286.116,27.619 z" id="boundary" inkscape:connector-curvature="0" />
	<path style="fill:none;stroke:red;stroke-width:1px;stroke-linecap:butt;stroke-linejoin:miter;stroke-opacity:1" d="M 286.116,27.619 292.677,14.4974 z" id="boundary" inkscape:connector-curvature="0" />
	<path style="fill:none;stroke:red;stroke-width:1px;stroke-linecap:butt;stroke-linejoin:miter;stroke-opacity:1" d="M 292.677,14.4974 303.175,4 z" id="boundary" inkscape:connector-curvature="0" />
	<path style="fill:none;stroke:red;stroke-width:1px;stroke-linecap:butt;stroke-linejoin:miter;stroke-opacity:1" d="M 303.175,4 307.111,17.1217 z" id="boundary" inkscape:connector-curvature="0" />
	<path style="fill:none;stroke:red;stroke-width:1px;stroke-linecap:butt;stroke-linejoin:miter;stroke-opacity:1" d="M 307.111,17.1217 313.672,28.9312 z" id="boundary" inkscape:connector-curvature="0" />
	<path style="fill:none;stroke:red;stroke-width:1px;stroke-linecap:butt;stroke-linejoin:miter;stroke-opacity:1" d="M 313.672,28.9312 320.233,40.7407 z" id="boundary" inkscape:connector-curvature="0" />
	<path style="fill:none;stroke:red;stroke-width:1px;stroke-linecap:butt;stroke-linejoin:miter;stroke-opacity:1" d="M 320.233,40.7407 325.481,53.8624 z" id="boundary" inkscape:connector-curvature="0" />
	<path style="fill:none;stroke:red;stroke-width:1px;stroke-linecap:butt;stroke-linejoin:miter;stroke-opacity:1" d="M 325.481,53.8624 326.794,66.9841 z" id="boundary" inkscape:connector-curvature="0" />
	<path style="fill:none;stroke:red;stroke-width:1px;stroke-linecap:butt;stroke-linejoin:miter;stroke-opacity:1" d="M 326.794,66.9841 333.354,78.7937 z" id="boundary" inkscape:connector-curvature="0" />
	<path style="fill:none;stroke:red;stroke-width:1px;stroke-linecap:butt;stroke-linejoin:miter;stroke-opacity:1" d="M 333.354,78.7937 337.291,91.9153 z" id="boundary" inkscape:connector-curvature="0" />
	<path style="fill:none;stroke:red;stroke-width:1px;stroke-linecap:butt;stroke-linejoin:miter;stroke-opacity:1" d="M 337.291,91.9153 343.852,103.725 z" id="boundary" inkscape:connector-curvature="0" />
	<path style="fill:none;stroke:red;stroke-width:1px;stroke-linecap:butt;stroke-linejoin:miter;stroke-opacity:1" d="M 343.852,103.725 346.476,116.847 z" id="boundary" inkscape:connector-curvature="0" />
	<path style="fill:none;stroke:red;stroke-width:1px;stroke-linecap:butt;stroke-linejoin:miter;stroke-opacity:1" d="M 346.476,116.847 353.037,128.656 z" id="boundary" inkscape:connector-curvature="0" />
	<path style="fill:none;stroke:red;stroke-width:1px;stroke-linecap:butt;stroke-linejoin:miter;stroke-opacity:1" d="M 353.037,128.656 359.598,140.466 z" id="boundary" inkscape:connector-curvature="0" />
	<path style="fill:none;stroke:red;stroke-width:1px;stroke-linecap:butt;stroke-linejoin:miter;stroke-opacity:1" d="M 359.598,140.466 359.598,153.587 z" id="boundary" inkscape:connector-curvature="0" />
	<path style="fill:none;stroke:red;stroke-width:1px;stroke-linecap:butt;stroke-linejoin:miter;stroke-opacity:1" d="M 359.598,153.587 366.159,165.397 z" id="boundary" inkscape:connector-curvature="0" />
	<path style="fill:none;stroke:red;stroke-width:1px;stroke-linecap:butt;stroke-linejoin:miter;stroke-opacity:1" d="M 366.159,165.397 372.72,177.206 z" id="boundary" inkscape:connector-curvature="0" />
	<path style="fill:none;stroke:red;stroke-width:1px;stroke-linecap:butt;stroke-linejoin:miter;stroke-opacity:1" d="M 372.72,177.206 376.656,190.328 z" id="boundary" inkscape:connector-curvature="0" />
	<path style="fill:none;stroke:red;stroke-width:1px;stroke-linecap:butt;stroke-linejoin:miter;stroke-opacity:1" d="M 376.656,190.328 379.28,203.45 z" id="boundary" inkscape:connector-curvature="0" />
	<path style="fill:none;stroke:red;stroke-width:1px;stroke-linecap:butt;stroke-linejoin:miter;stroke-opacity:1" d="M 379.28,203.45 385.841,215.259 z" id="boundary" inkscape:connector-curvature="0" />
	<path style="fill:none;stroke:red;stroke-width:1px;stroke-linecap:butt;stroke-linejoin:miter;stroke-opacity:1" d="M 385.841,215.259 392.402,227.069 z" id="boundary" inkscape:connector-curvature="0" />
	<path style="fill:none;stroke:red;stroke-width:1px;stroke-linecap:butt;stroke-linejoin:miter;stroke-opacity:1" d="M 392.402,227.069 405.524,231.005 z" id="boundary" inkscape:connector-curvature="0" />
	<path style="fill:none;stroke:red;stroke-width:1px;stroke-linecap:butt;stroke-linejoin:miter;stroke-opacity:1" d="M 405.524,231.005 414.709,241.503 z" id="boundary" inkscape:connector-curvature="0" />
	<path style="fill:none;stroke:red;stroke-width:1px;stroke-linecap:butt;stroke-linejoin:miter;stroke-opacity:1" d="M 414.709,241.503 427.831,246.751 z" id="boundary" inkscape:connector-curvature="0" />
	<path style="fill:none;stroke:red;stroke-width:1px;stroke-linecap:butt;stroke-linejoin:miter;stroke-opacity:1" d="M 427.831,246.751 437.016,257.249 z" id="boundary" inkscape:connector-curvature="0" />
	<path style="fill:none;stroke:red;stroke-width:1px;stroke-linecap:butt;stroke-linejoin:miter;stroke-opacity:1" d="M 437.016,257.249 447.513,266.434 z" id="boundary" inkscape:connector-curvature="0" />
	<path style="fill:none;stroke:red;stroke-width:1px;stroke-linecap:butt;stroke-linejoin:miter;stroke-opacity:1" d="M 447.513,266.434 456.698,276.931 z" id="boundary" inkscape:connector-curvature="0" />
	<path style="fill:none;stroke:red;stroke-width:1px;stroke-linecap:butt;stroke-linejoin:miter;stroke-opacity:1" d="M 456.698,276.931 467.196,286.116 z" id="boundary" inkscape:connector-curvature="0" />
	<path style="fill:none;stroke:red;stroke-width:1px;stroke-linecap:butt;stroke-linejoin:miter;stroke-opacity:1" d="M 467.196,286.116 479.005,292.677 z" id="boundary" inkscape:connector-curvature="0" />
	<path style="fill:none;stroke:red;stroke-width:1px;stroke-linecap:butt;stroke-linejoin:miter;stroke-opacity:1" d="M 479.005,292.677 489.503,301.862 z" id="boundary" inkscape:connector-curvature="0" />
	<path style="fill:none;stroke:red;stroke-width:1px;stroke-linecap:butt;stroke-linejoin:miter;stroke-opacity:1" d="M 489.503,301.862 497.376,312.36 z" id="boundary" inkscape:connector-curvature="0" />
	<path style="fill:none;stroke:red;stroke-width:1px;stroke-linecap:butt;stroke-linejoin:miter;stroke-opacity:1" d="M 497.376,312.36 510.497,316.296 z" id="boundary" inkscape:connector-curvature="0" />
	<path style="fill:none;stroke:red;stroke-width:1px;stroke-linecap:butt;stroke-linejoin:miter;stroke-opacity:1" d="M 510.497,316.296 522.307,322.857 z" id="boundary" inkscape:connector-curvature="0" />
	<path style="fill:none;stroke:red;stroke-width:1px;stroke-linecap:butt;stroke-linejoin:miter;stroke-opacity:1" d="M 522.307,322.857 535.429,325.481 z" id="boundary" inkscape:connector-curvature="0" />
	<path style="fill:none;stroke:red;stroke-width:1px;stroke-linecap:butt;stroke-linejoin:miter;stroke-opacity:1" d="M 535.429,325.481 548.55,325.481 z" id="boundary" inkscape:connector-curvature="0" />
	<path style="fill:none;stroke:red;stroke-width:1px;stroke-linecap:butt;stroke-linejoin:miter;stroke-opacity:1" d="M 548.55,325.481 561.672,325.481 z" id="boundary" inkscape:connector-curvature="0" />
	<path style="fill:none;stroke:red;stroke-width:1px;stroke-linecap:butt;stroke-linejoin:miter;stroke-opacity:1" d="M 561.672,325.481 573.481,318.921 z" id="boundary" inkscape:connector-curvature="0" />
	<path style="fill:none;stroke:red;stroke-width:1px;stroke-linecap:butt;stroke-linejoin:miter;stroke-opacity:1" d="M 573.481,318.921 585.291,312.36 z" id="boundary" inkscape:connector-curvature="0" />
	<path style="fill:none;stroke:red;stroke-width:1px;stroke-linecap:butt;stroke-linejoin:miter;stroke-opacity:1" d="M 585.291,312.36 598.413,312.36 z" id="boundary" inkscape:connector-curvature="0" />
	<path style="fill:none;stroke:red;stroke-width:1px;stroke-linecap:butt;stroke-linejoin:miter;stroke-opacity:1" d="M 598.413,312.36 611.534,312.36 z" id="boundary" inkscape:connector-curvature="0" />
	<path style="fill:none;stroke:red;stroke-width:1px;stroke-linecap:butt;stroke-linejoin:miter;stroke-opacity:1" d="M 611.534,312.36 624.656,312.36 z" id="boundary" inkscape:connector-curvature="0" />
	<path style="fill:none;stroke:red;stroke-width:1px;stroke-linecap:butt;stroke-linejoin:miter;stroke-opacity:1" d="M 624.656,312.36 633.841,322.857 z" id="boundary" inkscape:connector-curvature="0" />
	<path style="fill:none;stroke:red;stroke-width:1px;stroke-linecap:butt;stroke-linejoin:miter;stroke-opacity:1" d="M 633.841,322.857 635.153,335.979 z" id="boundary" inkscape:connector-curvature="0" />
	<path style="fill:none;stroke:red;stroke-width:1px;stroke-linecap:butt;stroke-linejoin:miter;stroke-opacity:1" d="M 635.153,335.979 628.593,353.037 z" id="boundary" inkscape:connector-curvature="0" />
	<path style="fill:none;stroke:red;stroke-width:1px;stroke-linecap:butt;stroke-linejoin:miter;stroke-opacity:1" d="M 628.593,353.037 622.032,372.72 z" id="boundary" inkscape:connector-curvature="0" />
	<path style="fill:none;stroke:red;stroke-width:1px;stroke-linecap:butt;stroke-linejoin:miter;stroke-opacity:1" d="M 622.032,372.72 615.471,385.841 z" id="boundary" inkscape:connector-curvature="0" />
	<path style="fill:none;stroke:red;stroke-width:1px;stroke-linecap:butt;stroke-linejoin:miter;stroke-opacity:1" d="M 615.471,385.841 615.471,398.963 z" id="boundary" inkscape:connector-curvature="0" />
	<path style="fill:none;stroke:red;stroke-width:1px;stroke-linecap:butt;stroke-linejoin:miter;stroke-opacity:1" d="M 615.471,398.963 615.471,412.085 z" id="boundary" inkscape:connector-curvature="0" />
	<path style="fill:none;stroke:red;stroke-width:1px;stroke-linecap:butt;stroke-linejoin:miter;stroke-opacity:1" d="M 615.471,412.085 622.032,423.894 z" id="boundary" inkscape:connector-curvature="0" />
	<path style="fill:none;stroke:red;stroke-width:1px;stroke-linecap:butt;stroke-linejoin:miter;stroke-opacity:1" d="M 622.032,423.894 632.529,431.767 z" id="boundary" inkscape:connector-curvature="0" />
	<path style="fill:none;stroke:red;stroke-width:1px;stroke-linecap:butt;stroke-linejoin:miter;stroke-opacity:1" d="M 632.529,431.767 641.714,442.265 z" id="boundary" inkscape:connector-curvature="0" />
	<path style="fill:none;stroke:red;stroke-width:1px;stroke-linecap:butt;stroke-linejoin:miter;stroke-opacity:1" d="M 641.714,442.265 648.275,454.074 z" id="boundary" inkscape:connector-curvature="0" />
	<path style="fill:none;stroke:red;stroke-width:1px;stroke-linecap:butt;stroke-linejoin:miter;stroke-opacity:1" d="M 648.275,454.074 648.275,467.196 z" id="boundary" inkscape:connector-curvature="0" />
	<path style="fill:none;stroke:red;stroke-width:1px;stroke-linecap:butt;stroke-linejoin:miter;stroke-opacity:1" d="M 648.275,467.196 648.275,480.317 z" id="boundary" inkscape:connector-curvature="0" />
	<path style="fill:none;stroke:red;stroke-width:1px;stroke-linecap:butt;stroke-linejoin:miter;stroke-opacity:1" d="M 648.275,480.317 641.714,497.376 z" id="boundary" inkscape:connector-curvature="0" />
	<path style="fill:none;stroke:red;stroke-width:1px;stroke-linecap:butt;stroke-linejoin:miter;stroke-opacity:1" d="M 641.714,497.376 631.217,509.185 z" id="boundary" inkscape:connector-curvature="0" />
	<path style="fill:none;stroke:red;stroke-width:1px;stroke-linecap:butt;stroke-linejoin:miter;stroke-opacity:1" d="M 631.217,509.185 624.656,522.307 z" id="boundary" inkscape:connector-curvature="0" />
	<path style="fill:none;stroke:red;stroke-width:1px;stroke-linecap:butt;stroke-linejoin:miter;stroke-opacity:1" d="M 624.656,522.307 612.847,530.18 z" id="boundary" inkscape:connector-curvature="0" />
	<path style="fill:none;stroke:red;stroke-width:1px;stroke-linecap:butt;stroke-linejoin:miter;stroke-opacity:1" d="M 612.847,530.18 601.037,536.741 z" id="boundary" inkscape:connector-curvature="0" />
	<path style="fill:none;stroke:red;stroke-width:1px;stroke-linecap:butt;stroke-linejoin:miter;stroke-opacity:1" d="M 601.037,536.741 589.228,543.302 z" id="boundary" inkscape:connector-curvature="0" />
	<path style="fill:none;stroke:red;stroke-width:1px;stroke-linecap:butt;stroke-linejoin:miter;stroke-opacity:1" d="M 589.228,543.302 576.106,549.862 z" id="boundary" inkscape:connector-curvature="0" />
	<path style="fill:none;stroke:red;stroke-width:1px;stroke-linecap:butt;stroke-linejoin:miter;stroke-opacity:1" d="M 576.106,549.862 562.984,556.423 z" id="boundary" inkscape:connector-curvature="0" />
	<path style="fill:none;stroke:red;stroke-width:1px;stroke-linecap:butt;stroke-linejoin:miter;stroke-opacity:1" d="M 562.984,556.423 562.984,569.545 z" id="boundary" inkscape:connector-curvature="0" />
	<path style="fill:none;stroke:red;stroke-width:1px;stroke-linecap:butt;stroke-linejoin:miter;stroke-opacity:1" d="M 562.984,569.545 569.545,581.354 z" id="boundary" inkscape:connector-curvature="0" />
	<path style="fill:none;stroke:red;stroke-width:1px;stroke-linecap:butt;stroke-linejoin:miter;stroke-opacity:1" d="M 569.545,581.354 576.106,593.164 z" id="boundary" inkscape:connector-curvature="0" />
	<path style="fill:none;stroke:red;stroke-width:1px;stroke-linecap:butt;stroke-linejoin:miter;stroke-opacity:1" d="M 576.106,593.164 582.667,604.974 z" id="boundary" inkscape:connector-curvature="0" />
	<path style="fill:none;stroke:red;stroke-width:1px;stroke-linecap:butt;stroke-linejoin:miter;stroke-opacity:1" d="M 582.667,604.974 589.228,616.783 z" id="boundary" inkscape:connector-curvature="0" />
	<path style="fill:none;stroke:red;stroke-width:1px;stroke-linecap:butt;stroke-linejoin:miter;stroke-opacity:1" d="M 589.228,616.783 597.101,627.28 z" id="boundary" inkscape:connector-curvature="0" />
	<path style="fill:none;stroke:red;stroke-width:1px;stroke-linecap:butt;stroke-linejoin:miter;stroke-opacity:1" d="M 597.101,627.28 607.598,636.466 z" id="boundary" inkscape:connector-curvature="0" />
	<path style="fill:none;stroke:red;stroke-width:1px;stroke-linecap:butt;stroke-linejoin:miter;stroke-opacity:1" d="M 607.598,636.466 619.407,643.026 z" id="boundary" inkscape:connector-curvature="0" />
	<path style="fill:none;stroke:red;stroke-width:1px;stroke-linecap:butt;stroke-linejoin:miter;stroke-opacity:1" d="M 619.407,643.026 625.968,654.836 z" id="boundary" inkscape:connector-curvature="0" />
	<path style="fill:none;stroke:red;stroke-width:1px;stroke-linecap:butt;stroke-linejoin:miter;stroke-opacity:1" d="M 625.968,654.836 635.153,665.333 z" id="boundary" inkscape:connector-curvature="0" />
	<path style="fill:none;stroke:red;stroke-width:1px;stroke-linecap:butt;stroke-linejoin:miter;stroke-opacity:1" d="M 635.153,665.333 641.714,677.143 z" id="boundary" inkscape:connector-curvature="0" />
	<path style="fill:none;stroke:red;stroke-width:1px;stroke-linecap:butt;stroke-linejoin:miter;stroke-opacity:1" d="M 641.714,677.143 646.963,690.265 z" id="boundary" inkscape:connector-curvature="0" />
	<path style="fill:none;stroke:red;stroke-width:1px;stroke-linecap:butt;stroke-linejoin:miter;stroke-opacity:1" d="M 646.963,690.265 648.275,703.386 z" id="boundary" inkscape:connector-curvature="0" />
	<path style="fill:none;stroke:red;stroke-width:1px;stroke-linecap:butt;stroke-linejoin:miter;stroke-opacity:1" d="M 648.275,703.386 648.275,716.508 z" id="boundary" inkscape:connector-curvature="0" />
	<path style="fill:none;stroke:red;stroke-width:1px;stroke-linecap:butt;stroke-linejoin:miter;stroke-opacity:1" d="M 648.275,716.508 648.275,729.63 z" id="boundary" inkscape:connector-curvature="0" />
	<path style="fill:none;stroke:red;stroke-width:1px;stroke-linecap:butt;stroke-linejoin:miter;stroke-opacity:1" d="M 648.275,729.63 648.275,742.751 z" id="boundary" inkscape:connector-curvature="0" />
	<circle cx="4" cy="355.661" r="4" fill="#0" id="circle0"/>
	<circle cx="4" cy="368.783" r="4" fill="#0" id="circle1"/>
	<circle cx="10.5608" cy="380.593" r="4" fill="#0" id="circle2"/>
	<circle cx="14.4974" cy="345.164" r="4" fill="#0" id="circle3"/>
	<circle cx="19.746" cy="391.09" r="4" fill="#0" id="circle4"/>
	<circle cx="26.3069" cy="338.603" r="4" fill="#0" id="circle5"/>
	<circle cx="30.2434" cy="736.19" r="4" fill="#0" id="circle6"/>
	<circle cx="30.2434" cy="749.312" r="4" fill="#0" id="circle7"/>
	<circle cx="30.2434" cy="762.434" r="4" fill="#0" id="circle8"/>
	<circle cx="30.2434" cy="775.556" r="4" fill="#0" id="circle9"/>
	<circle cx="32.8677" cy="396.339" r="4" fill="#0" id="circle10"/>
	<circle cx="36.8042" cy="716.508" r="4" fill="#0" id="circle11"/>
	<circle cx="36.8042" cy="787.365" r="4" fill="#0" id="circle12"/>
	<circle cx="36.8042" cy="800.487" r="4" fill="#0" id="circle13"/>
	<circle cx="38.1164" cy="332.042" r="4" fill="#0" id="circle14"/>
	<circle cx="43.3651" cy="405.524" r="4" fill="#0" id="circle15"/>
	<circle cx="43.3651" cy="703.386" r="4" fill="#0" id="circle16"/>
	<circle cx="43.3651" cy="812.296" r="4" fill="#0" id="circle17"/>
	<circle cx="49.9259" cy="325.481" r="4" fill="#0" id="circle18"/>
	<circle cx="51.2381" cy="416.021" r="4" fill="#0" id="circle19"/>
	<circle cx="51.2381" cy="822.794" r="4" fill="#0" id="circle20"/>
	<circle cx="53.8624" cy="692.889" r="4" fill="#0" id="circle21"/>
	<circle cx="61.7354" cy="318.921" r="4" fill="#0" id="circle22"/>
	<circle cx="61.7354" cy="425.206" r="4" fill="#0" id="circle23"/>
	<circle cx="61.7354" cy="831.979" r="4" fill="#0" id="circle24"/>
	<circle cx="63.0476" cy="677.143" r="4" fill="#0" id="circle25"/>
	<circle cx="69.6085" cy="435.704" r="4" fill="#0" id="circle26"/>
	<circle cx="69.6085" cy="657.46" r="4" fill="#0" id="circle27"/>
	<circle cx="70.9206" cy="308.423" r="4" fill="#0" id="circle28"/>
	<circle cx="73.545" cy="825.418" r="4" fill="#0" id="circle29"/>
	<circle cx="76.1693" cy="447.513" r="4" fill="#0" id="circle30"/>
	<circle cx="76.1693" cy="644.339" r="4" fill="#0" id="circle31"/>
	<circle cx="81.418" cy="299.238" r="4" fill="#0" id="circle32"/>
	<circle cx="82.7302" cy="624.656" r="4" fill="#0" id="circle33"/>
	<circle cx="86.6667" cy="456.698" r="4" fill="#0" id="circle34"/>
	<circle cx="86.6667" cy="825.418" r="4" fill="#0" id="circle35"/>
	<circle cx="89.291" cy="469.82" r="4" fill="#0" id="circle36"/>
	<circle cx="89.291" cy="611.534" r="4" fill="#0" id="circle37"/>
	<circle cx="90.6032" cy="288.741" r="4" fill="#0" id="circle38"/>
	<circle cx="95.8519" cy="481.63" r="4" fill="#0" id="circle39"/>
	<circle cx="95.8519" cy="591.852" r="4" fill="#0" id="circle40"/>
	<circle cx="99.7884" cy="825.418" r="4" fill="#0" id="circle41"/>
	<circle cx="101.101" cy="279.556" r="4" fill="#0" id="circle42"/>
	<circle cx="102.413" cy="493.439" r="4" fill="#0" id="circle43"/>
	<circle cx="102.413" cy="506.561" r="4" fill="#0" id="circle44"/>
	<circle cx="102.413" cy="519.683" r="4" fill="#0" id="circle45"/>
	<circle cx="102.413" cy="532.804" r="4" fill="#0" id="circle46"/>
	<circle cx="102.413" cy="545.926" r="4" fill="#0" id="circle47"/>
	<circle cx="102.413" cy="559.048" r="4" fill="#0" id="circle48"/>
	<circle cx="102.413" cy="572.169" r="4" fill="#0" id="circle49"/>
	<circle cx="110.286" cy="834.603" r="4" fill="#0" id="circle50"/>
	<circle cx="112.91" cy="272.995" r="4" fill="#0" id="circle51"/>
	<circle cx="115.534" cy="847.725" r="4" fill="#0" id="circle52"/>
	<circle cx="123.407" cy="262.497" r="4" fill="#0" id="circle53"/>
	<circle cx="126.032" cy="856.91" r="4" fill="#0" id="circle54"/>
	<circle cx="133.905" cy="253.312" r="4" fill="#0" id="circle55"/>
	<circle cx="135.217" cy="867.407" r="4" fill="#0" id="circle56"/>
	<circle cx="135.217" cy="880.529" r="4" fill="#0" id="circle57"/>
	<circle cx="141.778" cy="892.339" r="4" fill="#0" id="circle58"/>
	<circle cx="145.714" cy="246.751" r="4" fill="#0" id="circle59"/>
	<circle cx="150.963" cy="902.836" r="4" fill="#0" id="circle60"/>
	<circle cx="158.836" cy="240.19" r="4" fill="#0" id="circle61"/>
	<circle cx="161.46" cy="910.709" r="4" fill="#0" id="circle62"/>
	<circle cx="169.333" cy="921.206" r="4" fill="#0" id="circle63"/>
	<circle cx="170.646" cy="233.63" r="4" fill="#0" id="circle64"/>
	<circle cx="179.831" cy="930.392" r="4" fill="#0" id="circle65"/>
	<circle cx="182.455" cy="227.069" r="4" fill="#0" id="circle66"/>
	<circle cx="191.64" cy="936.952" r="4" fill="#0" id="circle67"/>
	<circle cx="194.265" cy="211.323" r="4" fill="#0" id="circle68"/>
	<circle cx="200.825" cy="198.201" r="4" fill="#0" id="circle69"/>
	<circle cx="204.762" cy="936.952" r="4" fill="#0" id="circle70"/>
	<circle cx="207.386" cy="185.079" r="4" fill="#0" id="circle71"/>
	<circle cx="213.947" cy="171.958" r="4" fill="#0" id="circle72"/>
	<circle cx="217.884" cy="936.952" r="4" fill="#0" id="circle73"/>
	<circle cx="220.508" cy="158.836" r="4" fill="#0" id="circle74"/>
	<circle cx="227.069" cy="145.714" r="4" fill="#0" id="circle75"/>
	<circle cx="229.693" cy="943.513" r="4" fill="#0" id="circle76"/>
	<circle cx="233.63" cy="132.593" r="4" fill="#0" id="circle77"/>
	<circle cx="240.19" cy="119.471" r="4" fill="#0" id="circle78"/>
	<circle cx="242.815" cy="947.45" r="4" fill="#0" id="circle79"/>
	<circle cx="246.751" cy="106.349" r="4" fill="#0" id="circle80"/>
	<circle cx="253.312" cy="93.2275" r="4" fill="#0" id="circle81"/>
	<circle cx="254.624" cy="954.011" r="4" fill="#0" id="circle82"/>
	<circle cx="259.873" cy="80.1058" r="4" fill="#0" id="circle83"/>
	<circle cx="266.434" cy="66.9841" r="4" fill="#0" id="circle84"/>
	<circle cx="267.746" cy="959.259" r="4" fill="#0" id="circle85"/>
	<circle cx="272.995" cy="53.8624" r="4" fill="#0" id="circle86"/>
	<circle cx="279.556" cy="40.7407" r="4" fill="#0" id="circle87"/>
	<circle cx="280.868" cy="963.196" r="4" fill="#0" id="circle88"/>
	<circle cx="286.116" cy="27.619" r="4" fill="#0" id="circle89"/>
	<circle cx="292.677" cy="14.4974" r="4" fill="#0" id="circle90"/>
	<circle cx="292.677" cy="969.757" r="4" fill="#0" id="circle91"/>
	<circle cx="303.175" cy="4" r="4" fill="#0" id="circle92"/>
	<circle cx="304.487" cy="976.317" r="4" fill="#0" id="circle93"/>
	<circle cx="307.111" cy="17.1217" r="4" fill="#0" id="circle94"/>
	<circle cx="313.672" cy="28.9312" r="4" fill="#0" id="circle95"/>
	<circle cx="317.608" cy="976.317" r="4" fill="#0" id="circle96"/>
	<circle cx="320.233" cy="40.7407" r="4" fill="#0" id="circle97"/>
	<circle cx="325.481" cy="53.8624" r="4" fill="#0" id="circle98"/>
	<circle cx="326.794" cy="66.9841" r="4" fill="#0" id="circle99"/>
	<circle cx="329.418" cy="982.878" r="4" fill="#0" id="circle100"/>
	<circle cx="333.354" cy="78.7937" r="4" fill="#0" id="circle101"/>
	<circle cx="337.291" cy="91.9153" r="4" fill="#0" id="circle102"/>
	<circle cx="341.228" cy="989.439" r="4" fill="#0" id="circle103"/>
	<circle cx="343.852" cy="103.725" r="4" fill="#0" id="circle104"/>
	<circle cx="346.476" cy="116.847" r="4" fill="#0" id="circle105"/>
	<circle cx="353.037" cy="128.656" r="4" fill="#0" id="circle106"/>
	<circle cx="354.349" cy="989.439" r="4" fill="#0" id="circle107"/>
	<circle cx="359.598" cy="140.466" r="4" fill="#0" id="circle108"/>
	<circle cx="359.598" cy="153.587" r="4" fill="#0" id="circle109"/>
	<circle cx="366.159" cy="165.397" r="4" fill="#0" id="circle110"/>
	<circle cx="367.471" cy="993.376" r="4" fill="#0" id="circle111"/>
	<circle cx="372.72" cy="177.206" r="4" fill="#0" id="circle112"/>
	<circle cx="376.656" cy="190.328" r="4" fill="#0" id="circle113"/>
	<circle cx="379.28" cy="203.45" r="4" fill="#0" id="circle114"/>
	<circle cx="380.593" cy="996" r="4" fill="#0" id="circle115"/>
	<circle cx="385.841" cy="215.259" r="4" fill="#0" id="circle116"/>
	<circle cx="392.402" cy="227.069" r="4" fill="#0" id="circle117"/>
	<circle cx="393.714" cy="996" r="4" fill="#0" id="circle118"/>
	<circle cx="405.524" cy="231.005" r="4" fill="#0" id="circle119"/>
	<circle cx="405.524" cy="805.735" r="4" fill="#0" id="circle120"/>
	<circle cx="405.524" cy="818.857" r="4" fill="#0" id="circle121"/>
	<circle cx="406.836" cy="996" r="4" fill="#0" id="circle122"/>
	<circle cx="412.085" cy="786.053" r="4" fill="#0" id="circle123"/>
	<circle cx="412.085" cy="830.667" r="4" fill="#0" id="circle124"/>
	<circle cx="414.709" cy="241.503" r="4" fill="#0" id="circle125"/>
	<circle cx="418.646" cy="772.931" r="4" fill="#0" id="circle126"/>
	<circle cx="419.958" cy="996" r="4" fill="#0" id="circle127"/>
	<circle cx="425.206" cy="830.667" r="4" fill="#0" id="circle128"/>
	<circle cx="427.831" cy="246.751" r="4" fill="#0" id="circle129"/>
	<circle cx="431.767" cy="766.37" r="4" fill="#0" id="circle130"/>
	<circle cx="433.079" cy="996" r="4" fill="#0" id="circle131"/>
	<circle cx="437.016" cy="257.249" r="4" fill="#0" id="circle132"/>
	<circle cx="438.328" cy="834.603" r="4" fill="#0" id="circle133"/>
	<circle cx="442.265" cy="757.185" r="4" fill="#0" id="circle134"/>
	<circle cx="444.889" cy="989.439" r="4" fill="#0" id="circle135"/>
	<circle cx="447.513" cy="266.434" r="4" fill="#0" id="circle136"/>
	<circle cx="451.45" cy="837.228" r="4" fill="#0" id="circle137"/>
	<circle cx="455.386" cy="753.249" r="4" fill="#0" id="circle138"/>
	<circle cx="456.698" cy="276.931" r="4" fill="#0" id="circle139"/>
	<circle cx="458.011" cy="989.439" r="4" fill="#0" id="circle140"/>
	<circle cx="463.259" cy="843.788" r="4" fill="#0" id="circle141"/>
	<circle cx="467.196" cy="286.116" r="4" fill="#0" id="circle142"/>
	<circle cx="468.508" cy="753.249" r="4" fill="#0" id="circle143"/>
	<circle cx="471.132" cy="989.439" r="4" fill="#0" id="circle144"/>
	<circle cx="476.381" cy="843.788" r="4" fill="#0" id="circle145"/>
	<circle cx="479.005" cy="292.677" r="4" fill="#0" id="circle146"/>
	<circle cx="480.317" cy="746.688" r="4" fill="#0" id="circle147"/>
	<circle cx="482.942" cy="982.878" r="4" fill="#0" id="circle148"/>
	<circle cx="489.503" cy="301.862" r="4" fill="#0" id="circle149"/>
	<circle cx="489.503" cy="846.413" r="4" fill="#0" id="circle150"/>
	<circle cx="493.439" cy="751.937" r="4" fill="#0" id="circle151"/>
	<circle cx="494.751" cy="976.317" r="4" fill="#0" id="circle152"/>
	<circle cx="497.376" cy="312.36" r="4" fill="#0" id="circle153"/>
	<circle cx="502.624" cy="850.349" r="4" fill="#0" id="circle154"/>
	<circle cx="506.561" cy="753.249" r="4" fill="#0" id="circle155"/>
	<circle cx="507.873" cy="973.693" r="4" fill="#0" id="circle156"/>
	<circle cx="510.497" cy="316.296" r="4" fill="#0" id="circle157"/>
	<circle cx="514.434" cy="856.91" r="4" fill="#0" id="circle158"/>
	<circle cx="518.37" cy="759.81" r="4" fill="#0" id="circle159"/>
	<circle cx="520.995" cy="967.132" r="4" fill="#0" id="circle160"/>
	<circle cx="522.307" cy="322.857" r="4" fill="#0" id="circle161"/>
	<circle cx="526.243" cy="863.471" r="4" fill="#0" id="circle162"/>
	<circle cx="531.492" cy="759.81" r="4" fill="#0" id="circle163"/>
	<circle cx="534.116" cy="963.196" r="4" fill="#0" id="circle164"/>
	<circle cx="535.429" cy="325.481" r="4" fill="#0" id="circle165"/>
	<circle cx="538.053" cy="870.032" r="4" fill="#0" id="circle166"/>
	<circle cx="544.614" cy="763.746" r="4" fill="#0" id="circle167"/>
	<circle cx="545.926" cy="956.635" r="4" fill="#0" id="circle168"/>
	<circle cx="548.55" cy="325.481" r="4" fill="#0" id="circle169"/>
	<circle cx="551.175" cy="870.032" r="4" fill="#0" id="circle170"/>
	<circle cx="556.423" cy="770.307" r="4" fill="#0" id="circle171"/>
	<circle cx="557.735" cy="950.074" r="4" fill="#0" id="circle172"/>
	<circle cx="561.672" cy="325.481" r="4" fill="#0" id="circle173"/>
	<circle cx="562.984" cy="556.423" r="4" fill="#0" id="circle174"/>
	<circle cx="562.984" cy="569.545" r="4" fill="#0" id="circle175"/>
	<circle cx="562.984" cy="876.593" r="4" fill="#0" id="circle176"/>
	<circle cx="569.545" cy="581.354" r="4" fill="#0" id="circle177"/>
	<circle cx="569.545" cy="772.931" r="4" fill="#0" id="circle178"/>
	<circle cx="569.545" cy="943.513" r="4" fill="#0" id="circle179"/>
	<circle cx="573.481" cy="318.921" r="4" fill="#0" id="circle180"/>
	<circle cx="574.794" cy="883.153" r="4" fill="#0" id="circle181"/>
	<circle cx="576.106" cy="549.862" r="4" fill="#0" id="circle182"/>
	<circle cx="576.106" cy="593.164" r="4" fill="#0" id="circle183"/>
	<circle cx="581.354" cy="779.492" r="4" fill="#0" id="circle184"/>
	<circle cx="581.354" cy="936.952" r="4" fill="#0" id="circle185"/>
	<circle cx="582.667" cy="604.974" r="4" fill="#0" id="circle186"/>
	<circle cx="585.291" cy="312.36" r="4" fill="#0" id="circle187"/>
	<circle cx="586.603" cy="889.714" r="4" fill="#0" id="circle188"/>
	<circle cx="589.228" cy="543.302" r="4" fill="#0" id="circle189"/>
	<circle cx="589.228" cy="616.783" r="4" fill="#0" id="circle190"/>
	<circle cx="591.852" cy="929.079" r="4" fill="#0" id="circle191"/>
	<circle cx="593.164" cy="786.053" r="4" fill="#0" id="circle192"/>
	<circle cx="597.101" cy="627.28" r="4" fill="#0" id="circle193"/>
	<circle cx="598.413" cy="312.36" r="4" fill="#0" id="circle194"/>
	<circle cx="598.413" cy="896.275" r="4" fill="#0" id="circle195"/>
	<circle cx="601.037" cy="536.741" r="4" fill="#0" id="circle196"/>
	<circle cx="602.349" cy="909.397" r="4" fill="#0" id="circle197"/>
	<circle cx="606.286" cy="786.053" r="4" fill="#0" id="circle198"/>
	<circle cx="607.598" cy="636.466" r="4" fill="#0" id="circle199"/>
	<circle cx="611.534" cy="312.36" r="4" fill="#0" id="circle200"/>
	<circle cx="612.847" cy="530.18" r="4" fill="#0" id="circle201"/>
	<circle cx="615.471" cy="385.841" r="4" fill="#0" id="circle202"/>
	<circle cx="615.471" cy="398.963" r="4" fill="#0" id="circle203"/>
	<circle cx="615.471" cy="412.085" r="4" fill="#0" id="circle204"/>
	<circle cx="619.407" cy="643.026" r="4" fill="#0" id="circle205"/>
	<circle cx="619.407" cy="786.053" r="4" fill="#0" id="circle206"/>
	<circle cx="622.032" cy="372.72" r="4" fill="#0" id="circle207"/>
	<circle cx="622.032" cy="423.894" r="4" fill="#0" id="circle208"/>
	<circle cx="624.656" cy="312.36" r="4" fill="#0" id="circle209"/>
	<circle cx="624.656" cy="522.307" r="4" fill="#0" id="circle210"/>
	<circle cx="625.968" cy="654.836" r="4" fill="#0" id="circle211"/>
	<circle cx="628.593" cy="353.037" r="4" fill="#0" id="circle212"/>
	<circle cx="631.217" cy="509.185" r="4" fill="#0" id="circle213"/>
	<circle cx="631.217" cy="778.18" r="4" fill="#0" id="circle214"/>
	<circle cx="632.529" cy="431.767" r="4" fill="#0" id="circle215"/>
	<circle cx="633.841" cy="322.857" r="4" fill="#0" id="circle216"/>
	<circle cx="635.153" cy="335.979" r="4" fill="#0" id="circle217"/>
	<circle cx="635.153" cy="665.333" r="4" fill="#0" id="circle218"/>
	<circle cx="641.714" cy="442.265" r="4" fill="#0" id="circle219"/>
	<circle cx="641.714" cy="497.376" r="4" fill="#0" id="circle220"/>
	<circle cx="641.714" cy="677.143" r="4" fill="#0" id="circle221"/>
	<circle cx="641.714" cy="766.37" r="4" fill="#0" id="circle222"/>
	<circle cx="646.963" cy="690.265" r="4" fill="#0" id="circle223"/>
	<circle cx="648.275" cy="454.074" r="4" fill="#0" id="circle224"/>
	<circle cx="648.275" cy="467.196" r="4" fill="#0" id="circle225"/>
	<circle cx="648.275" cy="480.317" r="4" fill="#0" id="circle226"/>
	<circle cx="648.275" cy="703.386" r="4" fill="#0" id="circle227"/>
	<circle cx="648.275" cy="716.508" r="4" fill="#0" id="circle228"/>
	<circle cx="648.275" cy="729.63" r="4" fill="#0" id="circle229"/>
	<circle cx="648.275" cy="742.751" r="4" fill="#0" id="circle230"/>
	</g>
</svg>