<?xml version="1.0" encoding="UTF-8" standalone="no"?>
<!-- Created with CurveBenchmark -->
<svg
	xmlns:dc="http://purl.org/dc/elements/1.1/"
	xmlns:cc="http://creativecommons.org/ns#"
	xmlns:rdf="http://www.w3.org/1999/02/22-rdf-syntax-ns#"
	xmlns:svg="http://www.w3.org/2000/svg"
	xmlns="http://www.w3.org/2000/svg"
	xmlns:sodipodi="http://sodipodi.sourceforge.net/DTD/sodipodi-0.dtd"
	xmlns:inkscape="http://www.inkscape.org/namespaces/inkscape"
	width="1000"
	height="1000"
	id="svg2"
	version="1.1"
	sodipodi:docname="manifold/connect2d-bed120.png.txt">
<defs
	id="defs4" />
<metadata
	id="metadata7">
	<rdf:RDF>
		<cc:Work
			rdf:about="">
			<dc:format>image/svg+xml</dc:format>
			<dc:type
				rdf:resource="http://purl.org/dc/dcmitype/StillImage" />
			<dc:title></dc:title>
		</cc:Work>
	</rdf:RDF>
</metadata>
<g
	inkscape:label="Layer 1"
	inkscape:groupmode="layer"
	id="layer1">
	<path style="fill:none;stroke:red;stroke-width:1px;stroke-linecap:butt;stroke-linejoin:miter;stroke-opacity:1" d="M 996,334.116 986.097,350.622 z" id="boundary" inkscape:connector-curvature="0" />
	<path style="fill:none;stroke:red;stroke-width:1px;stroke-linecap:butt;stroke-linejoin:miter;stroke-opacity:1" d="M 986.097,350.622 986.097,367.128 z" id="boundary" inkscape:connector-curvature="0" />
	<path style="fill:none;stroke:red;stroke-width:1px;stroke-linecap:butt;stroke-linejoin:miter;stroke-opacity:1" d="M 986.097,367.128 982.795,393.537 z" id="boundary" inkscape:connector-curvature="0" />
	<path style="fill:none;stroke:red;stroke-width:1px;stroke-linecap:butt;stroke-linejoin:miter;stroke-opacity:1" d="M 982.795,393.537 982.795,410.043 z" id="boundary" inkscape:connector-curvature="0" />
	<path style="fill:none;stroke:red;stroke-width:1px;stroke-linecap:butt;stroke-linejoin:miter;stroke-opacity:1" d="M 982.795,410.043 982.795,426.549 z" id="boundary" inkscape:connector-curvature="0" />
	<path style="fill:none;stroke:red;stroke-width:1px;stroke-linecap:butt;stroke-linejoin:miter;stroke-opacity:1" d="M 982.795,426.549 984.446,443.055 z" id="boundary" inkscape:connector-curvature="0" />
	<path style="fill:none;stroke:red;stroke-width:1px;stroke-linecap:butt;stroke-linejoin:miter;stroke-opacity:1" d="M 984.446,443.055 989.398,459.561 z" id="boundary" inkscape:connector-curvature="0" />
	<path style="fill:none;stroke:red;stroke-width:1px;stroke-linecap:butt;stroke-linejoin:miter;stroke-opacity:1" d="M 989.398,459.561 987.747,490.922 z" id="boundary" inkscape:connector-curvature="0" />
	<path style="fill:none;stroke:red;stroke-width:1px;stroke-linecap:butt;stroke-linejoin:miter;stroke-opacity:1" d="M 987.747,490.922 987.747,510.729 z" id="boundary" inkscape:connector-curvature="0" />
	<path style="fill:none;stroke:red;stroke-width:1px;stroke-linecap:butt;stroke-linejoin:miter;stroke-opacity:1" d="M 987.747,510.729 971.241,509.078 z" id="boundary" inkscape:connector-curvature="0" />
	<path style="fill:none;stroke:red;stroke-width:1px;stroke-linecap:butt;stroke-linejoin:miter;stroke-opacity:1" d="M 971.241,509.078 967.94,492.572 z" id="boundary" inkscape:connector-curvature="0" />
	<path style="fill:none;stroke:red;stroke-width:1px;stroke-linecap:butt;stroke-linejoin:miter;stroke-opacity:1" d="M 967.94,492.572 967.94,462.862 z" id="boundary" inkscape:connector-curvature="0" />
	<path style="fill:none;stroke:red;stroke-width:1px;stroke-linecap:butt;stroke-linejoin:miter;stroke-opacity:1" d="M 967.94,462.862 953.085,454.609 z" id="boundary" inkscape:connector-curvature="0" />
	<path style="fill:none;stroke:red;stroke-width:1px;stroke-linecap:butt;stroke-linejoin:miter;stroke-opacity:1" d="M 953.085,454.609 936.579,459.561 z" id="boundary" inkscape:connector-curvature="0" />
	<path style="fill:none;stroke:red;stroke-width:1px;stroke-linecap:butt;stroke-linejoin:miter;stroke-opacity:1" d="M 936.579,459.561 920.073,467.814 z" id="boundary" inkscape:connector-curvature="0" />
	<path style="fill:none;stroke:red;stroke-width:1px;stroke-linecap:butt;stroke-linejoin:miter;stroke-opacity:1" d="M 920.073,467.814 911.82,452.958 z" id="boundary" inkscape:connector-curvature="0" />
	<path style="fill:none;stroke:red;stroke-width:1px;stroke-linecap:butt;stroke-linejoin:miter;stroke-opacity:1" d="M 911.82,452.958 895.314,451.308 z" id="boundary" inkscape:connector-curvature="0" />
	<path style="fill:none;stroke:red;stroke-width:1px;stroke-linecap:butt;stroke-linejoin:miter;stroke-opacity:1" d="M 895.314,451.308 880.459,459.561 z" id="boundary" inkscape:connector-curvature="0" />
	<path style="fill:none;stroke:red;stroke-width:1px;stroke-linecap:butt;stroke-linejoin:miter;stroke-opacity:1" d="M 880.459,459.561 867.255,469.464 z" id="boundary" inkscape:connector-curvature="0" />
	<path style="fill:none;stroke:red;stroke-width:1px;stroke-linecap:butt;stroke-linejoin:miter;stroke-opacity:1" d="M 867.255,469.464 852.399,477.717 z" id="boundary" inkscape:connector-curvature="0" />
	<path style="fill:none;stroke:red;stroke-width:1px;stroke-linecap:butt;stroke-linejoin:miter;stroke-opacity:1" d="M 852.399,477.717 835.894,484.319 z" id="boundary" inkscape:connector-curvature="0" />
	<path style="fill:none;stroke:red;stroke-width:1px;stroke-linecap:butt;stroke-linejoin:miter;stroke-opacity:1" d="M 835.894,484.319 819.388,484.319 z" id="boundary" inkscape:connector-curvature="0" />
	<path style="fill:none;stroke:red;stroke-width:1px;stroke-linecap:butt;stroke-linejoin:miter;stroke-opacity:1" d="M 819.388,484.319 802.882,477.717 z" id="boundary" inkscape:connector-curvature="0" />
	<path style="fill:none;stroke:red;stroke-width:1px;stroke-linecap:butt;stroke-linejoin:miter;stroke-opacity:1" d="M 802.882,477.717 789.677,467.814 z" id="boundary" inkscape:connector-curvature="0" />
	<path style="fill:none;stroke:red;stroke-width:1px;stroke-linecap:butt;stroke-linejoin:miter;stroke-opacity:1" d="M 789.677,467.814 774.822,459.561 z" id="boundary" inkscape:connector-curvature="0" />
	<path style="fill:none;stroke:red;stroke-width:1px;stroke-linecap:butt;stroke-linejoin:miter;stroke-opacity:1" d="M 774.822,459.561 759.967,451.308 z" id="boundary" inkscape:connector-curvature="0" />
	<path style="fill:none;stroke:red;stroke-width:1px;stroke-linecap:butt;stroke-linejoin:miter;stroke-opacity:1" d="M 759.967,451.308 743.461,457.91 z" id="boundary" inkscape:connector-curvature="0" />
	<path style="fill:none;stroke:red;stroke-width:1px;stroke-linecap:butt;stroke-linejoin:miter;stroke-opacity:1" d="M 743.461,457.91 726.955,462.862 z" id="boundary" inkscape:connector-curvature="0" />
	<path style="fill:none;stroke:red;stroke-width:1px;stroke-linecap:butt;stroke-linejoin:miter;stroke-opacity:1" d="M 726.955,462.862 712.1,454.609 z" id="boundary" inkscape:connector-curvature="0" />
	<path style="fill:none;stroke:red;stroke-width:1px;stroke-linecap:butt;stroke-linejoin:miter;stroke-opacity:1" d="M 712.1,454.609 695.594,456.26 z" id="boundary" inkscape:connector-curvature="0" />
	<path style="fill:none;stroke:red;stroke-width:1px;stroke-linecap:butt;stroke-linejoin:miter;stroke-opacity:1" d="M 695.594,456.26 695.594,472.765 z" id="boundary" inkscape:connector-curvature="0" />
	<path style="fill:none;stroke:red;stroke-width:1px;stroke-linecap:butt;stroke-linejoin:miter;stroke-opacity:1" d="M 695.594,472.765 688.992,492.572 z" id="boundary" inkscape:connector-curvature="0" />
	<path style="fill:none;stroke:red;stroke-width:1px;stroke-linecap:butt;stroke-linejoin:miter;stroke-opacity:1" d="M 688.992,492.572 684.04,512.379 z" id="boundary" inkscape:connector-curvature="0" />
	<path style="fill:none;stroke:red;stroke-width:1px;stroke-linecap:butt;stroke-linejoin:miter;stroke-opacity:1" d="M 684.04,512.379 670.835,502.476 z" id="boundary" inkscape:connector-curvature="0" />
	<path style="fill:none;stroke:red;stroke-width:1px;stroke-linecap:butt;stroke-linejoin:miter;stroke-opacity:1" d="M 670.835,502.476 667.534,485.97 z" id="boundary" inkscape:connector-curvature="0" />
	<path style="fill:none;stroke:red;stroke-width:1px;stroke-linecap:butt;stroke-linejoin:miter;stroke-opacity:1" d="M 667.534,485.97 667.534,469.464 z" id="boundary" inkscape:connector-curvature="0" />
	<path style="fill:none;stroke:red;stroke-width:1px;stroke-linecap:butt;stroke-linejoin:miter;stroke-opacity:1" d="M 667.534,469.464 664.233,452.958 z" id="boundary" inkscape:connector-curvature="0" />
	<path style="fill:none;stroke:red;stroke-width:1px;stroke-linecap:butt;stroke-linejoin:miter;stroke-opacity:1" d="M 664.233,452.958 649.378,444.705 z" id="boundary" inkscape:connector-curvature="0" />
	<path style="fill:none;stroke:red;stroke-width:1px;stroke-linecap:butt;stroke-linejoin:miter;stroke-opacity:1" d="M 649.378,444.705 632.872,444.705 z" id="boundary" inkscape:connector-curvature="0" />
	<path style="fill:none;stroke:red;stroke-width:1px;stroke-linecap:butt;stroke-linejoin:miter;stroke-opacity:1" d="M 632.872,444.705 616.366,444.705 z" id="boundary" inkscape:connector-curvature="0" />
	<path style="fill:none;stroke:red;stroke-width:1px;stroke-linecap:butt;stroke-linejoin:miter;stroke-opacity:1" d="M 616.366,444.705 599.86,444.705 z" id="boundary" inkscape:connector-curvature="0" />
	<path style="fill:none;stroke:red;stroke-width:1px;stroke-linecap:butt;stroke-linejoin:miter;stroke-opacity:1" d="M 599.86,444.705 583.354,444.705 z" id="boundary" inkscape:connector-curvature="0" />
	<path style="fill:none;stroke:red;stroke-width:1px;stroke-linecap:butt;stroke-linejoin:miter;stroke-opacity:1" d="M 583.354,444.705 566.849,444.705 z" id="boundary" inkscape:connector-curvature="0" />
	<path style="fill:none;stroke:red;stroke-width:1px;stroke-linecap:butt;stroke-linejoin:miter;stroke-opacity:1" d="M 566.849,444.705 550.343,444.705 z" id="boundary" inkscape:connector-curvature="0" />
	<path style="fill:none;stroke:red;stroke-width:1px;stroke-linecap:butt;stroke-linejoin:miter;stroke-opacity:1" d="M 550.343,444.705 533.837,444.705 z" id="boundary" inkscape:connector-curvature="0" />
	<path style="fill:none;stroke:red;stroke-width:1px;stroke-linecap:butt;stroke-linejoin:miter;stroke-opacity:1" d="M 533.837,444.705 517.331,444.705 z" id="boundary" inkscape:connector-curvature="0" />
	<path style="fill:none;stroke:red;stroke-width:1px;stroke-linecap:butt;stroke-linejoin:miter;stroke-opacity:1" d="M 517.331,444.705 500.825,444.705 z" id="boundary" inkscape:connector-curvature="0" />
	<path style="fill:none;stroke:red;stroke-width:1px;stroke-linecap:butt;stroke-linejoin:miter;stroke-opacity:1" d="M 500.825,444.705 484.319,444.705 z" id="boundary" inkscape:connector-curvature="0" />
	<path style="fill:none;stroke:red;stroke-width:1px;stroke-linecap:butt;stroke-linejoin:miter;stroke-opacity:1" d="M 484.319,444.705 467.814,444.705 z" id="boundary" inkscape:connector-curvature="0" />
	<path style="fill:none;stroke:red;stroke-width:1px;stroke-linecap:butt;stroke-linejoin:miter;stroke-opacity:1" d="M 467.814,444.705 451.308,444.705 z" id="boundary" inkscape:connector-curvature="0" />
	<path style="fill:none;stroke:red;stroke-width:1px;stroke-linecap:butt;stroke-linejoin:miter;stroke-opacity:1" d="M 451.308,444.705 434.802,444.705 z" id="boundary" inkscape:connector-curvature="0" />
	<path style="fill:none;stroke:red;stroke-width:1px;stroke-linecap:butt;stroke-linejoin:miter;stroke-opacity:1" d="M 434.802,444.705 418.296,444.705 z" id="boundary" inkscape:connector-curvature="0" />
	<path style="fill:none;stroke:red;stroke-width:1px;stroke-linecap:butt;stroke-linejoin:miter;stroke-opacity:1" d="M 418.296,444.705 401.79,444.705 z" id="boundary" inkscape:connector-curvature="0" />
	<path style="fill:none;stroke:red;stroke-width:1px;stroke-linecap:butt;stroke-linejoin:miter;stroke-opacity:1" d="M 401.79,444.705 385.285,444.705 z" id="boundary" inkscape:connector-curvature="0" />
	<path style="fill:none;stroke:red;stroke-width:1px;stroke-linecap:butt;stroke-linejoin:miter;stroke-opacity:1" d="M 385.285,444.705 368.779,444.705 z" id="boundary" inkscape:connector-curvature="0" />
	<path style="fill:none;stroke:red;stroke-width:1px;stroke-linecap:butt;stroke-linejoin:miter;stroke-opacity:1" d="M 368.779,444.705 352.273,444.705 z" id="boundary" inkscape:connector-curvature="0" />
	<path style="fill:none;stroke:red;stroke-width:1px;stroke-linecap:butt;stroke-linejoin:miter;stroke-opacity:1" d="M 352.273,444.705 335.767,444.705 z" id="boundary" inkscape:connector-curvature="0" />
	<path style="fill:none;stroke:red;stroke-width:1px;stroke-linecap:butt;stroke-linejoin:miter;stroke-opacity:1" d="M 335.767,444.705 319.261,444.705 z" id="boundary" inkscape:connector-curvature="0" />
	<path style="fill:none;stroke:red;stroke-width:1px;stroke-linecap:butt;stroke-linejoin:miter;stroke-opacity:1" d="M 319.261,444.705 302.755,446.356 z" id="boundary" inkscape:connector-curvature="0" />
	<path style="fill:none;stroke:red;stroke-width:1px;stroke-linecap:butt;stroke-linejoin:miter;stroke-opacity:1" d="M 302.755,446.356 306.057,462.862 z" id="boundary" inkscape:connector-curvature="0" />
	<path style="fill:none;stroke:red;stroke-width:1px;stroke-linecap:butt;stroke-linejoin:miter;stroke-opacity:1" d="M 306.057,462.862 299.454,489.271 z" id="boundary" inkscape:connector-curvature="0" />
	<path style="fill:none;stroke:red;stroke-width:1px;stroke-linecap:butt;stroke-linejoin:miter;stroke-opacity:1" d="M 299.454,489.271 299.454,510.729 z" id="boundary" inkscape:connector-curvature="0" />
	<path style="fill:none;stroke:red;stroke-width:1px;stroke-linecap:butt;stroke-linejoin:miter;stroke-opacity:1" d="M 299.454,510.729 282.948,505.777 z" id="boundary" inkscape:connector-curvature="0" />
	<path style="fill:none;stroke:red;stroke-width:1px;stroke-linecap:butt;stroke-linejoin:miter;stroke-opacity:1" d="M 282.948,505.777 281.298,489.271 z" id="boundary" inkscape:connector-curvature="0" />
	<path style="fill:none;stroke:red;stroke-width:1px;stroke-linecap:butt;stroke-linejoin:miter;stroke-opacity:1" d="M 281.298,489.271 277.997,457.91 z" id="boundary" inkscape:connector-curvature="0" />
	<path style="fill:none;stroke:red;stroke-width:1px;stroke-linecap:butt;stroke-linejoin:miter;stroke-opacity:1" d="M 277.997,457.91 266.443,444.705 z" id="boundary" inkscape:connector-curvature="0" />
	<path style="fill:none;stroke:red;stroke-width:1px;stroke-linecap:butt;stroke-linejoin:miter;stroke-opacity:1" d="M 266.443,444.705 249.937,444.705 z" id="boundary" inkscape:connector-curvature="0" />
	<path style="fill:none;stroke:red;stroke-width:1px;stroke-linecap:butt;stroke-linejoin:miter;stroke-opacity:1" d="M 249.937,444.705 233.431,444.705 z" id="boundary" inkscape:connector-curvature="0" />
	<path style="fill:none;stroke:red;stroke-width:1px;stroke-linecap:butt;stroke-linejoin:miter;stroke-opacity:1" d="M 233.431,444.705 216.925,444.705 z" id="boundary" inkscape:connector-curvature="0" />
	<path style="fill:none;stroke:red;stroke-width:1px;stroke-linecap:butt;stroke-linejoin:miter;stroke-opacity:1" d="M 216.925,444.705 200.419,444.705 z" id="boundary" inkscape:connector-curvature="0" />
	<path style="fill:none;stroke:red;stroke-width:1px;stroke-linecap:butt;stroke-linejoin:miter;stroke-opacity:1" d="M 200.419,444.705 183.913,444.705 z" id="boundary" inkscape:connector-curvature="0" />
	<path style="fill:none;stroke:red;stroke-width:1px;stroke-linecap:butt;stroke-linejoin:miter;stroke-opacity:1" d="M 183.913,444.705 167.408,444.705 z" id="boundary" inkscape:connector-curvature="0" />
	<path style="fill:none;stroke:red;stroke-width:1px;stroke-linecap:butt;stroke-linejoin:miter;stroke-opacity:1" d="M 167.408,444.705 150.902,444.705 z" id="boundary" inkscape:connector-curvature="0" />
	<path style="fill:none;stroke:red;stroke-width:1px;stroke-linecap:butt;stroke-linejoin:miter;stroke-opacity:1" d="M 150.902,444.705 134.396,444.705 z" id="boundary" inkscape:connector-curvature="0" />
	<path style="fill:none;stroke:red;stroke-width:1px;stroke-linecap:butt;stroke-linejoin:miter;stroke-opacity:1" d="M 134.396,444.705 117.89,444.705 z" id="boundary" inkscape:connector-curvature="0" />
	<path style="fill:none;stroke:red;stroke-width:1px;stroke-linecap:butt;stroke-linejoin:miter;stroke-opacity:1" d="M 117.89,444.705 101.384,444.705 z" id="boundary" inkscape:connector-curvature="0" />
	<path style="fill:none;stroke:red;stroke-width:1px;stroke-linecap:butt;stroke-linejoin:miter;stroke-opacity:1" d="M 101.384,444.705 84.8785,444.705 z" id="boundary" inkscape:connector-curvature="0" />
	<path style="fill:none;stroke:red;stroke-width:1px;stroke-linecap:butt;stroke-linejoin:miter;stroke-opacity:1" d="M 84.8785,444.705 68.3727,444.705 z" id="boundary" inkscape:connector-curvature="0" />
	<path style="fill:none;stroke:red;stroke-width:1px;stroke-linecap:butt;stroke-linejoin:miter;stroke-opacity:1" d="M 68.3727,444.705 51.8669,444.705 z" id="boundary" inkscape:connector-curvature="0" />
	<path style="fill:none;stroke:red;stroke-width:1px;stroke-linecap:butt;stroke-linejoin:miter;stroke-opacity:1" d="M 51.8669,444.705 35.3611,446.356 z" id="boundary" inkscape:connector-curvature="0" />
	<path style="fill:none;stroke:red;stroke-width:1px;stroke-linecap:butt;stroke-linejoin:miter;stroke-opacity:1" d="M 35.3611,446.356 35.3611,462.862 z" id="boundary" inkscape:connector-curvature="0" />
	<path style="fill:none;stroke:red;stroke-width:1px;stroke-linecap:butt;stroke-linejoin:miter;stroke-opacity:1" d="M 35.3611,462.862 32.0599,485.97 z" id="boundary" inkscape:connector-curvature="0" />
	<path style="fill:none;stroke:red;stroke-width:1px;stroke-linecap:butt;stroke-linejoin:miter;stroke-opacity:1" d="M 32.0599,485.97 22.1564,510.729 z" id="boundary" inkscape:connector-curvature="0" />
	<path style="fill:none;stroke:red;stroke-width:1px;stroke-linecap:butt;stroke-linejoin:miter;stroke-opacity:1" d="M 22.1564,510.729 13.9035,495.874 z" id="boundary" inkscape:connector-curvature="0" />
	<path style="fill:none;stroke:red;stroke-width:1px;stroke-linecap:butt;stroke-linejoin:miter;stroke-opacity:1" d="M 13.9035,495.874 13.9035,479.368 z" id="boundary" inkscape:connector-curvature="0" />
	<path style="fill:none;stroke:red;stroke-width:1px;stroke-linecap:butt;stroke-linejoin:miter;stroke-opacity:1" d="M 13.9035,479.368 10.6023,462.862 z" id="boundary" inkscape:connector-curvature="0" />
	<path style="fill:none;stroke:red;stroke-width:1px;stroke-linecap:butt;stroke-linejoin:miter;stroke-opacity:1" d="M 10.6023,462.862 7.30116,446.356 z" id="boundary" inkscape:connector-curvature="0" />
	<path style="fill:none;stroke:red;stroke-width:1px;stroke-linecap:butt;stroke-linejoin:miter;stroke-opacity:1" d="M 7.30116,446.356 5.65058,429.85 z" id="boundary" inkscape:connector-curvature="0" />
	<path style="fill:none;stroke:red;stroke-width:1px;stroke-linecap:butt;stroke-linejoin:miter;stroke-opacity:1" d="M 5.65058,429.85 4,413.344 z" id="boundary" inkscape:connector-curvature="0" />
	<path style="fill:none;stroke:red;stroke-width:1px;stroke-linecap:butt;stroke-linejoin:miter;stroke-opacity:1" d="M 4,413.344 4,396.839 z" id="boundary" inkscape:connector-curvature="0" />
	<path style="fill:none;stroke:red;stroke-width:1px;stroke-linecap:butt;stroke-linejoin:miter;stroke-opacity:1" d="M 4,396.839 4,380.333 z" id="boundary" inkscape:connector-curvature="0" />
	<path style="fill:none;stroke:red;stroke-width:1px;stroke-linecap:butt;stroke-linejoin:miter;stroke-opacity:1" d="M 4,380.333 4,363.827 z" id="boundary" inkscape:connector-curvature="0" />
	<path style="fill:none;stroke:red;stroke-width:1px;stroke-linecap:butt;stroke-linejoin:miter;stroke-opacity:1" d="M 4,363.827 4,347.321 z" id="boundary" inkscape:connector-curvature="0" />
	<path style="fill:none;stroke:red;stroke-width:1px;stroke-linecap:butt;stroke-linejoin:miter;stroke-opacity:1" d="M 4,347.321 7.30116,320.912 z" id="boundary" inkscape:connector-curvature="0" />
	<path style="fill:none;stroke:red;stroke-width:1px;stroke-linecap:butt;stroke-linejoin:miter;stroke-opacity:1" d="M 7.30116,320.912 7.30116,304.406 z" id="boundary" inkscape:connector-curvature="0" />
	<path style="fill:none;stroke:red;stroke-width:1px;stroke-linecap:butt;stroke-linejoin:miter;stroke-opacity:1" d="M 7.30116,304.406 10.6023,281.298 z" id="boundary" inkscape:connector-curvature="0" />
	<path style="fill:none;stroke:red;stroke-width:1px;stroke-linecap:butt;stroke-linejoin:miter;stroke-opacity:1" d="M 10.6023,281.298 10.6023,264.792 z" id="boundary" inkscape:connector-curvature="0" />
	<path style="fill:none;stroke:red;stroke-width:1px;stroke-linecap:butt;stroke-linejoin:miter;stroke-opacity:1" d="M 10.6023,264.792 13.9035,238.383 z" id="boundary" inkscape:connector-curvature="0" />
	<path style="fill:none;stroke:red;stroke-width:1px;stroke-linecap:butt;stroke-linejoin:miter;stroke-opacity:1" d="M 13.9035,238.383 13.9035,221.877 z" id="boundary" inkscape:connector-curvature="0" />
	<path style="fill:none;stroke:red;stroke-width:1px;stroke-linecap:butt;stroke-linejoin:miter;stroke-opacity:1" d="M 13.9035,221.877 13.9035,205.371 z" id="boundary" inkscape:connector-curvature="0" />
	<path style="fill:none;stroke:red;stroke-width:1px;stroke-linecap:butt;stroke-linejoin:miter;stroke-opacity:1" d="M 13.9035,205.371 10.6023,188.865 z" id="boundary" inkscape:connector-curvature="0" />
	<path style="fill:none;stroke:red;stroke-width:1px;stroke-linecap:butt;stroke-linejoin:miter;stroke-opacity:1" d="M 10.6023,188.865 10.6023,172.359 z" id="boundary" inkscape:connector-curvature="0" />
	<path style="fill:none;stroke:red;stroke-width:1px;stroke-linecap:butt;stroke-linejoin:miter;stroke-opacity:1" d="M 10.6023,172.359 10.6023,155.854 z" id="boundary" inkscape:connector-curvature="0" />
	<path style="fill:none;stroke:red;stroke-width:1px;stroke-linecap:butt;stroke-linejoin:miter;stroke-opacity:1" d="M 10.6023,155.854 7.30116,139.348 z" id="boundary" inkscape:connector-curvature="0" />
	<path style="fill:none;stroke:red;stroke-width:1px;stroke-linecap:butt;stroke-linejoin:miter;stroke-opacity:1" d="M 7.30116,139.348 7.30116,122.842 z" id="boundary" inkscape:connector-curvature="0" />
	<path style="fill:none;stroke:red;stroke-width:1px;stroke-linecap:butt;stroke-linejoin:miter;stroke-opacity:1" d="M 7.30116,122.842 17.2047,109.637 z" id="boundary" inkscape:connector-curvature="0" />
	<path style="fill:none;stroke:red;stroke-width:1px;stroke-linecap:butt;stroke-linejoin:miter;stroke-opacity:1" d="M 17.2047,109.637 30.4093,99.7338 z" id="boundary" inkscape:connector-curvature="0" />
	<path style="fill:none;stroke:red;stroke-width:1px;stroke-linecap:butt;stroke-linejoin:miter;stroke-opacity:1" d="M 30.4093,99.7338 43.614,89.8303 z" id="boundary" inkscape:connector-curvature="0" />
	<path style="fill:none;stroke:red;stroke-width:1px;stroke-linecap:butt;stroke-linejoin:miter;stroke-opacity:1" d="M 43.614,89.8303 60.1198,83.228 z" id="boundary" inkscape:connector-curvature="0" />
	<path style="fill:none;stroke:red;stroke-width:1px;stroke-linecap:butt;stroke-linejoin:miter;stroke-opacity:1" d="M 60.1198,83.228 74.975,74.975 z" id="boundary" inkscape:connector-curvature="0" />
	<path style="fill:none;stroke:red;stroke-width:1px;stroke-linecap:butt;stroke-linejoin:miter;stroke-opacity:1" d="M 74.975,74.975 91.4809,68.3727 z" id="boundary" inkscape:connector-curvature="0" />
	<path style="fill:none;stroke:red;stroke-width:1px;stroke-linecap:butt;stroke-linejoin:miter;stroke-opacity:1" d="M 91.4809,68.3727 107.987,63.421 z" id="boundary" inkscape:connector-curvature="0" />
	<path style="fill:none;stroke:red;stroke-width:1px;stroke-linecap:butt;stroke-linejoin:miter;stroke-opacity:1" d="M 107.987,63.421 117.89,48.5657 z" id="boundary" inkscape:connector-curvature="0" />
	<path style="fill:none;stroke:red;stroke-width:1px;stroke-linecap:butt;stroke-linejoin:miter;stroke-opacity:1" d="M 117.89,48.5657 131.095,38.6622 z" id="boundary" inkscape:connector-curvature="0" />
	<path style="fill:none;stroke:red;stroke-width:1px;stroke-linecap:butt;stroke-linejoin:miter;stroke-opacity:1" d="M 131.095,38.6622 142.649,20.5058 z" id="boundary" inkscape:connector-curvature="0" />
	<path style="fill:none;stroke:red;stroke-width:1px;stroke-linecap:butt;stroke-linejoin:miter;stroke-opacity:1" d="M 142.649,20.5058 152.552,7.30116 z" id="boundary" inkscape:connector-curvature="0" />
	<path style="fill:none;stroke:red;stroke-width:1px;stroke-linecap:butt;stroke-linejoin:miter;stroke-opacity:1" d="M 152.552,7.30116 169.058,4 z" id="boundary" inkscape:connector-curvature="0" />
	<path style="fill:none;stroke:red;stroke-width:1px;stroke-linecap:butt;stroke-linejoin:miter;stroke-opacity:1" d="M 169.058,4 177.311,18.8552 z" id="boundary" inkscape:connector-curvature="0" />
	<path style="fill:none;stroke:red;stroke-width:1px;stroke-linecap:butt;stroke-linejoin:miter;stroke-opacity:1" d="M 177.311,18.8552 187.215,32.0599 z" id="boundary" inkscape:connector-curvature="0" />
	<path style="fill:none;stroke:red;stroke-width:1px;stroke-linecap:butt;stroke-linejoin:miter;stroke-opacity:1" d="M 187.215,32.0599 200.419,43.614 z" id="boundary" inkscape:connector-curvature="0" />
	<path style="fill:none;stroke:red;stroke-width:1px;stroke-linecap:butt;stroke-linejoin:miter;stroke-opacity:1" d="M 200.419,43.614 210.323,56.8186 z" id="boundary" inkscape:connector-curvature="0" />
	<path style="fill:none;stroke:red;stroke-width:1px;stroke-linecap:butt;stroke-linejoin:miter;stroke-opacity:1" d="M 210.323,56.8186 221.877,70.0233 z" id="boundary" inkscape:connector-curvature="0" />
	<path style="fill:none;stroke:red;stroke-width:1px;stroke-linecap:butt;stroke-linejoin:miter;stroke-opacity:1" d="M 221.877,70.0233 238.383,73.3245 z" id="boundary" inkscape:connector-curvature="0" />
	<path style="fill:none;stroke:red;stroke-width:1px;stroke-linecap:butt;stroke-linejoin:miter;stroke-opacity:1" d="M 238.383,73.3245 253.238,81.5774 z" id="boundary" inkscape:connector-curvature="0" />
	<path style="fill:none;stroke:red;stroke-width:1px;stroke-linecap:butt;stroke-linejoin:miter;stroke-opacity:1" d="M 253.238,81.5774 268.093,89.8303 z" id="boundary" inkscape:connector-curvature="0" />
	<path style="fill:none;stroke:red;stroke-width:1px;stroke-linecap:butt;stroke-linejoin:miter;stroke-opacity:1" d="M 268.093,89.8303 282.948,98.0832 z" id="boundary" inkscape:connector-curvature="0" />
	<path style="fill:none;stroke:red;stroke-width:1px;stroke-linecap:butt;stroke-linejoin:miter;stroke-opacity:1" d="M 282.948,98.0832 296.153,107.987 z" id="boundary" inkscape:connector-curvature="0" />
	<path style="fill:none;stroke:red;stroke-width:1px;stroke-linecap:butt;stroke-linejoin:miter;stroke-opacity:1" d="M 296.153,107.987 306.057,121.191 z" id="boundary" inkscape:connector-curvature="0" />
	<path style="fill:none;stroke:red;stroke-width:1px;stroke-linecap:butt;stroke-linejoin:miter;stroke-opacity:1" d="M 306.057,121.191 309.358,137.697 z" id="boundary" inkscape:connector-curvature="0" />
	<path style="fill:none;stroke:red;stroke-width:1px;stroke-linecap:butt;stroke-linejoin:miter;stroke-opacity:1" d="M 309.358,137.697 304.406,154.203 z" id="boundary" inkscape:connector-curvature="0" />
	<path style="fill:none;stroke:red;stroke-width:1px;stroke-linecap:butt;stroke-linejoin:miter;stroke-opacity:1" d="M 304.406,154.203 296.153,169.058 z" id="boundary" inkscape:connector-curvature="0" />
	<path style="fill:none;stroke:red;stroke-width:1px;stroke-linecap:butt;stroke-linejoin:miter;stroke-opacity:1" d="M 296.153,169.058 292.852,185.564 z" id="boundary" inkscape:connector-curvature="0" />
	<path style="fill:none;stroke:red;stroke-width:1px;stroke-linecap:butt;stroke-linejoin:miter;stroke-opacity:1" d="M 292.852,185.564 302.755,198.769 z" id="boundary" inkscape:connector-curvature="0" />
	<path style="fill:none;stroke:red;stroke-width:1px;stroke-linecap:butt;stroke-linejoin:miter;stroke-opacity:1" d="M 302.755,198.769 319.261,205.371 z" id="boundary" inkscape:connector-curvature="0" />
	<path style="fill:none;stroke:red;stroke-width:1px;stroke-linecap:butt;stroke-linejoin:miter;stroke-opacity:1" d="M 319.261,205.371 335.767,205.371 z" id="boundary" inkscape:connector-curvature="0" />
	<path style="fill:none;stroke:red;stroke-width:1px;stroke-linecap:butt;stroke-linejoin:miter;stroke-opacity:1" d="M 335.767,205.371 352.273,205.371 z" id="boundary" inkscape:connector-curvature="0" />
	<path style="fill:none;stroke:red;stroke-width:1px;stroke-linecap:butt;stroke-linejoin:miter;stroke-opacity:1" d="M 352.273,205.371 368.779,208.672 z" id="boundary" inkscape:connector-curvature="0" />
	<path style="fill:none;stroke:red;stroke-width:1px;stroke-linecap:butt;stroke-linejoin:miter;stroke-opacity:1" d="M 368.779,208.672 385.285,211.973 z" id="boundary" inkscape:connector-curvature="0" />
	<path style="fill:none;stroke:red;stroke-width:1px;stroke-linecap:butt;stroke-linejoin:miter;stroke-opacity:1" d="M 385.285,211.973 401.79,218.576 z" id="boundary" inkscape:connector-curvature="0" />
	<path style="fill:none;stroke:red;stroke-width:1px;stroke-linecap:butt;stroke-linejoin:miter;stroke-opacity:1" d="M 401.79,218.576 418.296,225.178 z" id="boundary" inkscape:connector-curvature="0" />
	<path style="fill:none;stroke:red;stroke-width:1px;stroke-linecap:butt;stroke-linejoin:miter;stroke-opacity:1" d="M 418.296,225.178 431.501,235.082 z" id="boundary" inkscape:connector-curvature="0" />
	<path style="fill:none;stroke:red;stroke-width:1px;stroke-linecap:butt;stroke-linejoin:miter;stroke-opacity:1" d="M 431.501,235.082 444.705,244.985 z" id="boundary" inkscape:connector-curvature="0" />
	<path style="fill:none;stroke:red;stroke-width:1px;stroke-linecap:butt;stroke-linejoin:miter;stroke-opacity:1" d="M 444.705,244.985 456.26,258.19 z" id="boundary" inkscape:connector-curvature="0" />
	<path style="fill:none;stroke:red;stroke-width:1px;stroke-linecap:butt;stroke-linejoin:miter;stroke-opacity:1" d="M 456.26,258.19 469.464,269.744 z" id="boundary" inkscape:connector-curvature="0" />
	<path style="fill:none;stroke:red;stroke-width:1px;stroke-linecap:butt;stroke-linejoin:miter;stroke-opacity:1" d="M 469.464,269.744 481.018,282.948 z" id="boundary" inkscape:connector-curvature="0" />
	<path style="fill:none;stroke:red;stroke-width:1px;stroke-linecap:butt;stroke-linejoin:miter;stroke-opacity:1" d="M 481.018,282.948 494.223,294.502 z" id="boundary" inkscape:connector-curvature="0" />
	<path style="fill:none;stroke:red;stroke-width:1px;stroke-linecap:butt;stroke-linejoin:miter;stroke-opacity:1" d="M 494.223,294.502 510.729,294.502 z" id="boundary" inkscape:connector-curvature="0" />
	<path style="fill:none;stroke:red;stroke-width:1px;stroke-linecap:butt;stroke-linejoin:miter;stroke-opacity:1" d="M 510.729,294.502 527.235,294.502 z" id="boundary" inkscape:connector-curvature="0" />
	<path style="fill:none;stroke:red;stroke-width:1px;stroke-linecap:butt;stroke-linejoin:miter;stroke-opacity:1" d="M 527.235,294.502 543.74,294.502 z" id="boundary" inkscape:connector-curvature="0" />
	<path style="fill:none;stroke:red;stroke-width:1px;stroke-linecap:butt;stroke-linejoin:miter;stroke-opacity:1" d="M 543.74,294.502 560.246,294.502 z" id="boundary" inkscape:connector-curvature="0" />
	<path style="fill:none;stroke:red;stroke-width:1px;stroke-linecap:butt;stroke-linejoin:miter;stroke-opacity:1" d="M 560.246,294.502 576.752,294.502 z" id="boundary" inkscape:connector-curvature="0" />
	<path style="fill:none;stroke:red;stroke-width:1px;stroke-linecap:butt;stroke-linejoin:miter;stroke-opacity:1" d="M 576.752,294.502 593.258,294.502 z" id="boundary" inkscape:connector-curvature="0" />
	<path style="fill:none;stroke:red;stroke-width:1px;stroke-linecap:butt;stroke-linejoin:miter;stroke-opacity:1" d="M 593.258,294.502 609.764,294.502 z" id="boundary" inkscape:connector-curvature="0" />
	<path style="fill:none;stroke:red;stroke-width:1px;stroke-linecap:butt;stroke-linejoin:miter;stroke-opacity:1" d="M 609.764,294.502 626.27,297.804 z" id="boundary" inkscape:connector-curvature="0" />
	<path style="fill:none;stroke:red;stroke-width:1px;stroke-linecap:butt;stroke-linejoin:miter;stroke-opacity:1" d="M 626.27,297.804 642.775,297.804 z" id="boundary" inkscape:connector-curvature="0" />
	<path style="fill:none;stroke:red;stroke-width:1px;stroke-linecap:butt;stroke-linejoin:miter;stroke-opacity:1" d="M 642.775,297.804 659.281,297.804 z" id="boundary" inkscape:connector-curvature="0" />
	<path style="fill:none;stroke:red;stroke-width:1px;stroke-linecap:butt;stroke-linejoin:miter;stroke-opacity:1" d="M 659.281,297.804 675.787,292.852 z" id="boundary" inkscape:connector-curvature="0" />
	<path style="fill:none;stroke:red;stroke-width:1px;stroke-linecap:butt;stroke-linejoin:miter;stroke-opacity:1" d="M 675.787,292.852 690.642,284.599 z" id="boundary" inkscape:connector-curvature="0" />
	<path style="fill:none;stroke:red;stroke-width:1px;stroke-linecap:butt;stroke-linejoin:miter;stroke-opacity:1" d="M 690.642,284.599 707.148,277.997 z" id="boundary" inkscape:connector-curvature="0" />
	<path style="fill:none;stroke:red;stroke-width:1px;stroke-linecap:butt;stroke-linejoin:miter;stroke-opacity:1" d="M 707.148,277.997 723.654,271.394 z" id="boundary" inkscape:connector-curvature="0" />
	<path style="fill:none;stroke:red;stroke-width:1px;stroke-linecap:butt;stroke-linejoin:miter;stroke-opacity:1" d="M 723.654,271.394 740.16,268.093 z" id="boundary" inkscape:connector-curvature="0" />
	<path style="fill:none;stroke:red;stroke-width:1px;stroke-linecap:butt;stroke-linejoin:miter;stroke-opacity:1" d="M 740.16,268.093 756.666,264.792 z" id="boundary" inkscape:connector-curvature="0" />
	<path style="fill:none;stroke:red;stroke-width:1px;stroke-linecap:butt;stroke-linejoin:miter;stroke-opacity:1" d="M 756.666,264.792 773.171,261.491 z" id="boundary" inkscape:connector-curvature="0" />
	<path style="fill:none;stroke:red;stroke-width:1px;stroke-linecap:butt;stroke-linejoin:miter;stroke-opacity:1" d="M 773.171,261.491 783.075,248.286 z" id="boundary" inkscape:connector-curvature="0" />
	<path style="fill:none;stroke:red;stroke-width:1px;stroke-linecap:butt;stroke-linejoin:miter;stroke-opacity:1" d="M 783.075,248.286 797.93,240.033 z" id="boundary" inkscape:connector-curvature="0" />
	<path style="fill:none;stroke:red;stroke-width:1px;stroke-linecap:butt;stroke-linejoin:miter;stroke-opacity:1" d="M 797.93,240.033 811.135,230.13 z" id="boundary" inkscape:connector-curvature="0" />
	<path style="fill:none;stroke:red;stroke-width:1px;stroke-linecap:butt;stroke-linejoin:miter;stroke-opacity:1" d="M 811.135,230.13 825.99,221.877 z" id="boundary" inkscape:connector-curvature="0" />
	<path style="fill:none;stroke:red;stroke-width:1px;stroke-linecap:butt;stroke-linejoin:miter;stroke-opacity:1" d="M 825.99,221.877 842.496,226.829 z" id="boundary" inkscape:connector-curvature="0" />
	<path style="fill:none;stroke:red;stroke-width:1px;stroke-linecap:butt;stroke-linejoin:miter;stroke-opacity:1" d="M 842.496,226.829 854.05,240.033 z" id="boundary" inkscape:connector-curvature="0" />
	<path style="fill:none;stroke:red;stroke-width:1px;stroke-linecap:butt;stroke-linejoin:miter;stroke-opacity:1" d="M 854.05,240.033 867.255,249.937 z" id="boundary" inkscape:connector-curvature="0" />
	<path style="fill:none;stroke:red;stroke-width:1px;stroke-linecap:butt;stroke-linejoin:miter;stroke-opacity:1" d="M 867.255,249.937 880.459,261.491 z" id="boundary" inkscape:connector-curvature="0" />
	<path style="fill:none;stroke:red;stroke-width:1px;stroke-linecap:butt;stroke-linejoin:miter;stroke-opacity:1" d="M 880.459,261.491 896.965,264.792 z" id="boundary" inkscape:connector-curvature="0" />
	<path style="fill:none;stroke:red;stroke-width:1px;stroke-linecap:butt;stroke-linejoin:miter;stroke-opacity:1" d="M 896.965,264.792 913.471,268.093 z" id="boundary" inkscape:connector-curvature="0" />
	<path style="fill:none;stroke:red;stroke-width:1px;stroke-linecap:butt;stroke-linejoin:miter;stroke-opacity:1" d="M 913.471,268.093 929.977,271.394 z" id="boundary" inkscape:connector-curvature="0" />
	<path style="fill:none;stroke:red;stroke-width:1px;stroke-linecap:butt;stroke-linejoin:miter;stroke-opacity:1" d="M 929.977,271.394 946.483,277.997 z" id="boundary" inkscape:connector-curvature="0" />
	<path style="fill:none;stroke:red;stroke-width:1px;stroke-linecap:butt;stroke-linejoin:miter;stroke-opacity:1" d="M 946.483,277.997 962.988,284.599 z" id="boundary" inkscape:connector-curvature="0" />
	<path style="fill:none;stroke:red;stroke-width:1px;stroke-linecap:butt;stroke-linejoin:miter;stroke-opacity:1" d="M 962.988,284.599 976.193,294.502 z" id="boundary" inkscape:connector-curvature="0" />
	<path style="fill:none;stroke:red;stroke-width:1px;stroke-linecap:butt;stroke-linejoin:miter;stroke-opacity:1" d="M 976.193,294.502 989.398,304.406 z" id="boundary" inkscape:connector-curvature="0" />
	<path style="fill:none;stroke:red;stroke-width:1px;stroke-linecap:butt;stroke-linejoin:miter;stroke-opacity:1" d="M 989.398,304.406 996,334.116 z" id="boundary" inkscape:connector-curvature="0" />
	<circle cx="4" cy="347.321" r="4" fill="#0" id="circle0"/>
	<circle cx="4" cy="363.827" r="4" fill="#0" id="circle1"/>
	<circle cx="4" cy="380.333" r="4" fill="#0" id="circle2"/>
	<circle cx="4" cy="396.839" r="4" fill="#0" id="circle3"/>
	<circle cx="4" cy="413.344" r="4" fill="#0" id="circle4"/>
	<circle cx="5.65058" cy="429.85" r="4" fill="#0" id="circle5"/>
	<circle cx="7.30116" cy="122.842" r="4" fill="#0" id="circle6"/>
	<circle cx="7.30116" cy="139.348" r="4" fill="#0" id="circle7"/>
	<circle cx="7.30116" cy="304.406" r="4" fill="#0" id="circle8"/>
	<circle cx="7.30116" cy="320.912" r="4" fill="#0" id="circle9"/>
	<circle cx="7.30116" cy="446.356" r="4" fill="#0" id="circle10"/>
	<circle cx="10.6023" cy="155.854" r="4" fill="#0" id="circle11"/>
	<circle cx="10.6023" cy="172.359" r="4" fill="#0" id="circle12"/>
	<circle cx="10.6023" cy="188.865" r="4" fill="#0" id="circle13"/>
	<circle cx="10.6023" cy="264.792" r="4" fill="#0" id="circle14"/>
	<circle cx="10.6023" cy="281.298" r="4" fill="#0" id="circle15"/>
	<circle cx="10.6023" cy="462.862" r="4" fill="#0" id="circle16"/>
	<circle cx="13.9035" cy="205.371" r="4" fill="#0" id="circle17"/>
	<circle cx="13.9035" cy="221.877" r="4" fill="#0" id="circle18"/>
	<circle cx="13.9035" cy="238.383" r="4" fill="#0" id="circle19"/>
	<circle cx="13.9035" cy="479.368" r="4" fill="#0" id="circle20"/>
	<circle cx="13.9035" cy="495.874" r="4" fill="#0" id="circle21"/>
	<circle cx="17.2047" cy="109.637" r="4" fill="#0" id="circle22"/>
	<circle cx="22.1564" cy="510.729" r="4" fill="#0" id="circle23"/>
	<circle cx="30.4093" cy="99.7338" r="4" fill="#0" id="circle24"/>
	<circle cx="32.0599" cy="485.97" r="4" fill="#0" id="circle25"/>
	<circle cx="35.3611" cy="446.356" r="4" fill="#0" id="circle26"/>
	<circle cx="35.3611" cy="462.862" r="4" fill="#0" id="circle27"/>
	<circle cx="43.614" cy="89.8303" r="4" fill="#0" id="circle28"/>
	<circle cx="51.8669" cy="444.705" r="4" fill="#0" id="circle29"/>
	<circle cx="60.1198" cy="83.228" r="4" fill="#0" id="circle30"/>
	<circle cx="68.3727" cy="444.705" r="4" fill="#0" id="circle31"/>
	<circle cx="74.975" cy="74.975" r="4" fill="#0" id="circle32"/>
	<circle cx="84.8785" cy="444.705" r="4" fill="#0" id="circle33"/>
	<circle cx="91.4809" cy="68.3727" r="4" fill="#0" id="circle34"/>
	<circle cx="101.384" cy="444.705" r="4" fill="#0" id="circle35"/>
	<circle cx="107.987" cy="63.421" r="4" fill="#0" id="circle36"/>
	<circle cx="117.89" cy="48.5657" r="4" fill="#0" id="circle37"/>
	<circle cx="117.89" cy="444.705" r="4" fill="#0" id="circle38"/>
	<circle cx="131.095" cy="38.6622" r="4" fill="#0" id="circle39"/>
	<circle cx="134.396" cy="444.705" r="4" fill="#0" id="circle40"/>
	<circle cx="142.649" cy="20.5058" r="4" fill="#0" id="circle41"/>
	<circle cx="150.902" cy="444.705" r="4" fill="#0" id="circle42"/>
	<circle cx="152.552" cy="7.30116" r="4" fill="#0" id="circle43"/>
	<circle cx="167.408" cy="444.705" r="4" fill="#0" id="circle44"/>
	<circle cx="169.058" cy="4" r="4" fill="#0" id="circle45"/>
	<circle cx="177.311" cy="18.8552" r="4" fill="#0" id="circle46"/>
	<circle cx="183.913" cy="444.705" r="4" fill="#0" id="circle47"/>
	<circle cx="187.215" cy="32.0599" r="4" fill="#0" id="circle48"/>
	<circle cx="200.419" cy="43.614" r="4" fill="#0" id="circle49"/>
	<circle cx="200.419" cy="444.705" r="4" fill="#0" id="circle50"/>
	<circle cx="210.323" cy="56.8186" r="4" fill="#0" id="circle51"/>
	<circle cx="216.925" cy="444.705" r="4" fill="#0" id="circle52"/>
	<circle cx="221.877" cy="70.0233" r="4" fill="#0" id="circle53"/>
	<circle cx="233.431" cy="444.705" r="4" fill="#0" id="circle54"/>
	<circle cx="238.383" cy="73.3245" r="4" fill="#0" id="circle55"/>
	<circle cx="249.937" cy="444.705" r="4" fill="#0" id="circle56"/>
	<circle cx="253.238" cy="81.5774" r="4" fill="#0" id="circle57"/>
	<circle cx="266.443" cy="444.705" r="4" fill="#0" id="circle58"/>
	<circle cx="268.093" cy="89.8303" r="4" fill="#0" id="circle59"/>
	<circle cx="277.997" cy="457.91" r="4" fill="#0" id="circle60"/>
	<circle cx="281.298" cy="489.271" r="4" fill="#0" id="circle61"/>
	<circle cx="282.948" cy="98.0832" r="4" fill="#0" id="circle62"/>
	<circle cx="282.948" cy="505.777" r="4" fill="#0" id="circle63"/>
	<circle cx="292.852" cy="185.564" r="4" fill="#0" id="circle64"/>
	<circle cx="296.153" cy="107.987" r="4" fill="#0" id="circle65"/>
	<circle cx="296.153" cy="169.058" r="4" fill="#0" id="circle66"/>
	<circle cx="299.454" cy="489.271" r="4" fill="#0" id="circle67"/>
	<circle cx="299.454" cy="510.729" r="4" fill="#0" id="circle68"/>
	<circle cx="302.755" cy="198.769" r="4" fill="#0" id="circle69"/>
	<circle cx="302.755" cy="446.356" r="4" fill="#0" id="circle70"/>
	<circle cx="304.406" cy="154.203" r="4" fill="#0" id="circle71"/>
	<circle cx="306.057" cy="121.191" r="4" fill="#0" id="circle72"/>
	<circle cx="306.057" cy="462.862" r="4" fill="#0" id="circle73"/>
	<circle cx="309.358" cy="137.697" r="4" fill="#0" id="circle74"/>
	<circle cx="319.261" cy="205.371" r="4" fill="#0" id="circle75"/>
	<circle cx="319.261" cy="444.705" r="4" fill="#0" id="circle76"/>
	<circle cx="335.767" cy="205.371" r="4" fill="#0" id="circle77"/>
	<circle cx="335.767" cy="444.705" r="4" fill="#0" id="circle78"/>
	<circle cx="352.273" cy="205.371" r="4" fill="#0" id="circle79"/>
	<circle cx="352.273" cy="444.705" r="4" fill="#0" id="circle80"/>
	<circle cx="368.779" cy="208.672" r="4" fill="#0" id="circle81"/>
	<circle cx="368.779" cy="444.705" r="4" fill="#0" id="circle82"/>
	<circle cx="385.285" cy="211.973" r="4" fill="#0" id="circle83"/>
	<circle cx="385.285" cy="444.705" r="4" fill="#0" id="circle84"/>
	<circle cx="401.79" cy="218.576" r="4" fill="#0" id="circle85"/>
	<circle cx="401.79" cy="444.705" r="4" fill="#0" id="circle86"/>
	<circle cx="418.296" cy="225.178" r="4" fill="#0" id="circle87"/>
	<circle cx="418.296" cy="444.705" r="4" fill="#0" id="circle88"/>
	<circle cx="431.501" cy="235.082" r="4" fill="#0" id="circle89"/>
	<circle cx="434.802" cy="444.705" r="4" fill="#0" id="circle90"/>
	<circle cx="444.705" cy="244.985" r="4" fill="#0" id="circle91"/>
	<circle cx="451.308" cy="444.705" r="4" fill="#0" id="circle92"/>
	<circle cx="456.26" cy="258.19" r="4" fill="#0" id="circle93"/>
	<circle cx="467.814" cy="444.705" r="4" fill="#0" id="circle94"/>
	<circle cx="469.464" cy="269.744" r="4" fill="#0" id="circle95"/>
	<circle cx="481.018" cy="282.948" r="4" fill="#0" id="circle96"/>
	<circle cx="484.319" cy="444.705" r="4" fill="#0" id="circle97"/>
	<circle cx="494.223" cy="294.502" r="4" fill="#0" id="circle98"/>
	<circle cx="500.825" cy="444.705" r="4" fill="#0" id="circle99"/>
	<circle cx="510.729" cy="294.502" r="4" fill="#0" id="circle100"/>
	<circle cx="517.331" cy="444.705" r="4" fill="#0" id="circle101"/>
	<circle cx="527.235" cy="294.502" r="4" fill="#0" id="circle102"/>
	<circle cx="533.837" cy="444.705" r="4" fill="#0" id="circle103"/>
	<circle cx="543.74" cy="294.502" r="4" fill="#0" id="circle104"/>
	<circle cx="550.343" cy="444.705" r="4" fill="#0" id="circle105"/>
	<circle cx="560.246" cy="294.502" r="4" fill="#0" id="circle106"/>
	<circle cx="566.849" cy="444.705" r="4" fill="#0" id="circle107"/>
	<circle cx="576.752" cy="294.502" r="4" fill="#0" id="circle108"/>
	<circle cx="583.354" cy="444.705" r="4" fill="#0" id="circle109"/>
	<circle cx="593.258" cy="294.502" r="4" fill="#0" id="circle110"/>
	<circle cx="599.86" cy="444.705" r="4" fill="#0" id="circle111"/>
	<circle cx="609.764" cy="294.502" r="4" fill="#0" id="circle112"/>
	<circle cx="616.366" cy="444.705" r="4" fill="#0" id="circle113"/>
	<circle cx="626.27" cy="297.804" r="4" fill="#0" id="circle114"/>
	<circle cx="632.872" cy="444.705" r="4" fill="#0" id="circle115"/>
	<circle cx="642.775" cy="297.804" r="4" fill="#0" id="circle116"/>
	<circle cx="649.378" cy="444.705" r="4" fill="#0" id="circle117"/>
	<circle cx="659.281" cy="297.804" r="4" fill="#0" id="circle118"/>
	<circle cx="664.233" cy="452.958" r="4" fill="#0" id="circle119"/>
	<circle cx="667.534" cy="469.464" r="4" fill="#0" id="circle120"/>
	<circle cx="667.534" cy="485.97" r="4" fill="#0" id="circle121"/>
	<circle cx="670.835" cy="502.476" r="4" fill="#0" id="circle122"/>
	<circle cx="675.787" cy="292.852" r="4" fill="#0" id="circle123"/>
	<circle cx="684.04" cy="512.379" r="4" fill="#0" id="circle124"/>
	<circle cx="688.992" cy="492.572" r="4" fill="#0" id="circle125"/>
	<circle cx="690.642" cy="284.599" r="4" fill="#0" id="circle126"/>
	<circle cx="695.594" cy="456.26" r="4" fill="#0" id="circle127"/>
	<circle cx="695.594" cy="472.765" r="4" fill="#0" id="circle128"/>
	<circle cx="707.148" cy="277.997" r="4" fill="#0" id="circle129"/>
	<circle cx="712.1" cy="454.609" r="4" fill="#0" id="circle130"/>
	<circle cx="723.654" cy="271.394" r="4" fill="#0" id="circle131"/>
	<circle cx="726.955" cy="462.862" r="4" fill="#0" id="circle132"/>
	<circle cx="740.16" cy="268.093" r="4" fill="#0" id="circle133"/>
	<circle cx="743.461" cy="457.91" r="4" fill="#0" id="circle134"/>
	<circle cx="756.666" cy="264.792" r="4" fill="#0" id="circle135"/>
	<circle cx="759.967" cy="451.308" r="4" fill="#0" id="circle136"/>
	<circle cx="773.171" cy="261.491" r="4" fill="#0" id="circle137"/>
	<circle cx="774.822" cy="459.561" r="4" fill="#0" id="circle138"/>
	<circle cx="783.075" cy="248.286" r="4" fill="#0" id="circle139"/>
	<circle cx="789.677" cy="467.814" r="4" fill="#0" id="circle140"/>
	<circle cx="797.93" cy="240.033" r="4" fill="#0" id="circle141"/>
	<circle cx="802.882" cy="477.717" r="4" fill="#0" id="circle142"/>
	<circle cx="811.135" cy="230.13" r="4" fill="#0" id="circle143"/>
	<circle cx="819.388" cy="484.319" r="4" fill="#0" id="circle144"/>
	<circle cx="825.99" cy="221.877" r="4" fill="#0" id="circle145"/>
	<circle cx="835.894" cy="484.319" r="4" fill="#0" id="circle146"/>
	<circle cx="842.496" cy="226.829" r="4" fill="#0" id="circle147"/>
	<circle cx="852.399" cy="477.717" r="4" fill="#0" id="circle148"/>
	<circle cx="854.05" cy="240.033" r="4" fill="#0" id="circle149"/>
	<circle cx="867.255" cy="249.937" r="4" fill="#0" id="circle150"/>
	<circle cx="867.255" cy="469.464" r="4" fill="#0" id="circle151"/>
	<circle cx="880.459" cy="261.491" r="4" fill="#0" id="circle152"/>
	<circle cx="880.459" cy="459.561" r="4" fill="#0" id="circle153"/>
	<circle cx="895.314" cy="451.308" r="4" fill="#0" id="circle154"/>
	<circle cx="896.965" cy="264.792" r="4" fill="#0" id="circle155"/>
	<circle cx="911.82" cy="452.958" r="4" fill="#0" id="circle156"/>
	<circle cx="913.471" cy="268.093" r="4" fill="#0" id="circle157"/>
	<circle cx="920.073" cy="467.814" r="4" fill="#0" id="circle158"/>
	<circle cx="929.977" cy="271.394" r="4" fill="#0" id="circle159"/>
	<circle cx="936.579" cy="459.561" r="4" fill="#0" id="circle160"/>
	<circle cx="946.483" cy="277.997" r="4" fill="#0" id="circle161"/>
	<circle cx="953.085" cy="454.609" r="4" fill="#0" id="circle162"/>
	<circle cx="962.988" cy="284.599" r="4" fill="#0" id="circle163"/>
	<circle cx="967.94" cy="462.862" r="4" fill="#0" id="circle164"/>
	<circle cx="967.94" cy="492.572" r="4" fill="#0" id="circle165"/>
	<circle cx="971.241" cy="509.078" r="4" fill="#0" id="circle166"/>
	<circle cx="976.193" cy="294.502" r="4" fill="#0" id="circle167"/>
	<circle cx="982.795" cy="393.537" r="4" fill="#0" id="circle168"/>
	<circle cx="982.795" cy="410.043" r="4" fill="#0" id="circle169"/>
	<circle cx="982.795" cy="426.549" r="4" fill="#0" id="circle170"/>
	<circle cx="984.446" cy="443.055" r="4" fill="#0" id="circle171"/>
	<circle cx="986.097" cy="350.622" r="4" fill="#0" id="circle172"/>
	<circle cx="986.097" cy="367.128" r="4" fill="#0" id="circle173"/>
	<circle cx="987.747" cy="490.922" r="4" fill="#0" id="circle174"/>
	<circle cx="987.747" cy="510.729" r="4" fill="#0" id="circle175"/>
	<circle cx="989.398" cy="304.406" r="4" fill="#0" id="circle176"/>
	<circle cx="989.398" cy="459.561" r="4" fill="#0" id="circle177"/>
	<circle cx="996" cy="334.116" r="4" fill="#0" id="circle178"/>
	</g>
</svg>