<?xml version="1.0" encoding="UTF-8" standalone="no"?>
<!-- Created with CurveBenchmark -->
<svg
	xmlns:dc="http://purl.org/dc/elements/1.1/"
	xmlns:cc="http://creativecommons.org/ns#"
	xmlns:rdf="http://www.w3.org/1999/02/22-rdf-syntax-ns#"
	xmlns:svg="http://www.w3.org/2000/svg"
	xmlns="http://www.w3.org/2000/svg"
	xmlns:sodipodi="http://sodipodi.sourceforge.net/DTD/sodipodi-0.dtd"
	xmlns:inkscape="http://www.inkscape.org/namespaces/inkscape"
	width="1000"
	height="1000"
	id="svg2"
	version="1.1"
	sodipodi:docname="manifold/connect2d-television180.png.txt">
<defs
	id="defs4" />
<metadata
	id="metadata7">
	<rdf:RDF>
		<cc:Work
			rdf:about="">
			<dc:format>image/svg+xml</dc:format>
			<dc:type
				rdf:resource="http://purl.org/dc/dcmitype/StillImage" />
			<dc:title></dc:title>
		</cc:Work>
	</rdf:RDF>
</metadata>
<g
	inkscape:label="Layer 1"
	inkscape:groupmode="layer"
	id="layer1">
	<path style="fill:none;stroke:red;stroke-width:1px;stroke-linecap:butt;stroke-linejoin:miter;stroke-opacity:1" d="M 996,825.553 968.729,859.643 z" id="boundary" inkscape:connector-curvature="0" />
	<path style="fill:none;stroke:red;stroke-width:1px;stroke-linecap:butt;stroke-linejoin:miter;stroke-opacity:1" d="M 968.729,859.643 934.639,852.825 z" id="boundary" inkscape:connector-curvature="0" />
	<path style="fill:none;stroke:red;stroke-width:1px;stroke-linecap:butt;stroke-linejoin:miter;stroke-opacity:1" d="M 934.639,852.825 900.55,852.825 z" id="boundary" inkscape:connector-curvature="0" />
	<path style="fill:none;stroke:red;stroke-width:1px;stroke-linecap:butt;stroke-linejoin:miter;stroke-opacity:1" d="M 900.55,852.825 866.46,852.825 z" id="boundary" inkscape:connector-curvature="0" />
	<path style="fill:none;stroke:red;stroke-width:1px;stroke-linecap:butt;stroke-linejoin:miter;stroke-opacity:1" d="M 866.46,852.825 832.371,852.825 z" id="boundary" inkscape:connector-curvature="0" />
	<path style="fill:none;stroke:red;stroke-width:1px;stroke-linecap:butt;stroke-linejoin:miter;stroke-opacity:1" d="M 832.371,852.825 798.282,852.825 z" id="boundary" inkscape:connector-curvature="0" />
	<path style="fill:none;stroke:red;stroke-width:1px;stroke-linecap:butt;stroke-linejoin:miter;stroke-opacity:1" d="M 798.282,852.825 764.192,852.825 z" id="boundary" inkscape:connector-curvature="0" />
	<path style="fill:none;stroke:red;stroke-width:1px;stroke-linecap:butt;stroke-linejoin:miter;stroke-opacity:1" d="M 764.192,852.825 730.103,852.825 z" id="boundary" inkscape:connector-curvature="0" />
	<path style="fill:none;stroke:red;stroke-width:1px;stroke-linecap:butt;stroke-linejoin:miter;stroke-opacity:1" d="M 730.103,852.825 696.014,852.825 z" id="boundary" inkscape:connector-curvature="0" />
	<path style="fill:none;stroke:red;stroke-width:1px;stroke-linecap:butt;stroke-linejoin:miter;stroke-opacity:1" d="M 696.014,852.825 661.924,852.825 z" id="boundary" inkscape:connector-curvature="0" />
	<path style="fill:none;stroke:red;stroke-width:1px;stroke-linecap:butt;stroke-linejoin:miter;stroke-opacity:1" d="M 661.924,852.825 627.835,852.825 z" id="boundary" inkscape:connector-curvature="0" />
	<path style="fill:none;stroke:red;stroke-width:1px;stroke-linecap:butt;stroke-linejoin:miter;stroke-opacity:1" d="M 627.835,852.825 593.746,852.825 z" id="boundary" inkscape:connector-curvature="0" />
	<path style="fill:none;stroke:red;stroke-width:1px;stroke-linecap:butt;stroke-linejoin:miter;stroke-opacity:1" d="M 593.746,852.825 559.656,852.825 z" id="boundary" inkscape:connector-curvature="0" />
	<path style="fill:none;stroke:red;stroke-width:1px;stroke-linecap:butt;stroke-linejoin:miter;stroke-opacity:1" d="M 559.656,852.825 525.567,852.825 z" id="boundary" inkscape:connector-curvature="0" />
	<path style="fill:none;stroke:red;stroke-width:1px;stroke-linecap:butt;stroke-linejoin:miter;stroke-opacity:1" d="M 525.567,852.825 491.478,852.825 z" id="boundary" inkscape:connector-curvature="0" />
	<path style="fill:none;stroke:red;stroke-width:1px;stroke-linecap:butt;stroke-linejoin:miter;stroke-opacity:1" d="M 491.478,852.825 457.388,852.825 z" id="boundary" inkscape:connector-curvature="0" />
	<path style="fill:none;stroke:red;stroke-width:1px;stroke-linecap:butt;stroke-linejoin:miter;stroke-opacity:1" d="M 457.388,852.825 423.299,852.825 z" id="boundary" inkscape:connector-curvature="0" />
	<path style="fill:none;stroke:red;stroke-width:1px;stroke-linecap:butt;stroke-linejoin:miter;stroke-opacity:1" d="M 423.299,852.825 389.21,852.825 z" id="boundary" inkscape:connector-curvature="0" />
	<path style="fill:none;stroke:red;stroke-width:1px;stroke-linecap:butt;stroke-linejoin:miter;stroke-opacity:1" d="M 389.21,852.825 355.12,852.825 z" id="boundary" inkscape:connector-curvature="0" />
	<path style="fill:none;stroke:red;stroke-width:1px;stroke-linecap:butt;stroke-linejoin:miter;stroke-opacity:1" d="M 355.12,852.825 321.031,852.825 z" id="boundary" inkscape:connector-curvature="0" />
	<path style="fill:none;stroke:red;stroke-width:1px;stroke-linecap:butt;stroke-linejoin:miter;stroke-opacity:1" d="M 321.031,852.825 286.942,852.825 z" id="boundary" inkscape:connector-curvature="0" />
	<path style="fill:none;stroke:red;stroke-width:1px;stroke-linecap:butt;stroke-linejoin:miter;stroke-opacity:1" d="M 286.942,852.825 252.852,852.825 z" id="boundary" inkscape:connector-curvature="0" />
	<path style="fill:none;stroke:red;stroke-width:1px;stroke-linecap:butt;stroke-linejoin:miter;stroke-opacity:1" d="M 252.852,852.825 218.763,852.825 z" id="boundary" inkscape:connector-curvature="0" />
	<path style="fill:none;stroke:red;stroke-width:1px;stroke-linecap:butt;stroke-linejoin:miter;stroke-opacity:1" d="M 218.763,852.825 184.674,852.825 z" id="boundary" inkscape:connector-curvature="0" />
	<path style="fill:none;stroke:red;stroke-width:1px;stroke-linecap:butt;stroke-linejoin:miter;stroke-opacity:1" d="M 184.674,852.825 150.584,852.825 z" id="boundary" inkscape:connector-curvature="0" />
	<path style="fill:none;stroke:red;stroke-width:1px;stroke-linecap:butt;stroke-linejoin:miter;stroke-opacity:1" d="M 150.584,852.825 116.495,852.825 z" id="boundary" inkscape:connector-curvature="0" />
	<path style="fill:none;stroke:red;stroke-width:1px;stroke-linecap:butt;stroke-linejoin:miter;stroke-opacity:1" d="M 116.495,852.825 82.4055,852.825 z" id="boundary" inkscape:connector-curvature="0" />
	<path style="fill:none;stroke:red;stroke-width:1px;stroke-linecap:butt;stroke-linejoin:miter;stroke-opacity:1" d="M 82.4055,852.825 48.3162,859.643 z" id="boundary" inkscape:connector-curvature="0" />
	<path style="fill:none;stroke:red;stroke-width:1px;stroke-linecap:butt;stroke-linejoin:miter;stroke-opacity:1" d="M 48.3162,859.643 14.2268,856.234 z" id="boundary" inkscape:connector-curvature="0" />
	<path style="fill:none;stroke:red;stroke-width:1px;stroke-linecap:butt;stroke-linejoin:miter;stroke-opacity:1" d="M 14.2268,856.234 4,822.144 z" id="boundary" inkscape:connector-curvature="0" />
	<path style="fill:none;stroke:red;stroke-width:1px;stroke-linecap:butt;stroke-linejoin:miter;stroke-opacity:1" d="M 4,822.144 4,788.055 z" id="boundary" inkscape:connector-curvature="0" />
	<path style="fill:none;stroke:red;stroke-width:1px;stroke-linecap:butt;stroke-linejoin:miter;stroke-opacity:1" d="M 4,788.055 38.0893,781.237 z" id="boundary" inkscape:connector-curvature="0" />
	<path style="fill:none;stroke:red;stroke-width:1px;stroke-linecap:butt;stroke-linejoin:miter;stroke-opacity:1" d="M 38.0893,781.237 72.1787,781.237 z" id="boundary" inkscape:connector-curvature="0" />
	<path style="fill:none;stroke:red;stroke-width:1px;stroke-linecap:butt;stroke-linejoin:miter;stroke-opacity:1" d="M 72.1787,781.237 106.268,781.237 z" id="boundary" inkscape:connector-curvature="0" />
	<path style="fill:none;stroke:red;stroke-width:1px;stroke-linecap:butt;stroke-linejoin:miter;stroke-opacity:1" d="M 106.268,781.237 140.357,781.237 z" id="boundary" inkscape:connector-curvature="0" />
	<path style="fill:none;stroke:red;stroke-width:1px;stroke-linecap:butt;stroke-linejoin:miter;stroke-opacity:1" d="M 140.357,781.237 174.447,781.237 z" id="boundary" inkscape:connector-curvature="0" />
	<path style="fill:none;stroke:red;stroke-width:1px;stroke-linecap:butt;stroke-linejoin:miter;stroke-opacity:1" d="M 174.447,781.237 208.536,781.237 z" id="boundary" inkscape:connector-curvature="0" />
	<path style="fill:none;stroke:red;stroke-width:1px;stroke-linecap:butt;stroke-linejoin:miter;stroke-opacity:1" d="M 208.536,781.237 242.625,781.237 z" id="boundary" inkscape:connector-curvature="0" />
	<path style="fill:none;stroke:red;stroke-width:1px;stroke-linecap:butt;stroke-linejoin:miter;stroke-opacity:1" d="M 242.625,781.237 276.715,781.237 z" id="boundary" inkscape:connector-curvature="0" />
	<path style="fill:none;stroke:red;stroke-width:1px;stroke-linecap:butt;stroke-linejoin:miter;stroke-opacity:1" d="M 276.715,781.237 310.804,781.237 z" id="boundary" inkscape:connector-curvature="0" />
	<path style="fill:none;stroke:red;stroke-width:1px;stroke-linecap:butt;stroke-linejoin:miter;stroke-opacity:1" d="M 310.804,781.237 338.076,801.691 z" id="boundary" inkscape:connector-curvature="0" />
	<path style="fill:none;stroke:red;stroke-width:1px;stroke-linecap:butt;stroke-linejoin:miter;stroke-opacity:1" d="M 338.076,801.691 365.347,781.237 z" id="boundary" inkscape:connector-curvature="0" />
	<path style="fill:none;stroke:red;stroke-width:1px;stroke-linecap:butt;stroke-linejoin:miter;stroke-opacity:1" d="M 365.347,781.237 392.619,801.691 z" id="boundary" inkscape:connector-curvature="0" />
	<path style="fill:none;stroke:red;stroke-width:1px;stroke-linecap:butt;stroke-linejoin:miter;stroke-opacity:1" d="M 392.619,801.691 399.436,743.739 z" id="boundary" inkscape:connector-curvature="0" />
	<path style="fill:none;stroke:red;stroke-width:1px;stroke-linecap:butt;stroke-linejoin:miter;stroke-opacity:1" d="M 399.436,743.739 385.801,709.649 z" id="boundary" inkscape:connector-curvature="0" />
	<path style="fill:none;stroke:red;stroke-width:1px;stroke-linecap:butt;stroke-linejoin:miter;stroke-opacity:1" d="M 385.801,709.649 351.711,709.649 z" id="boundary" inkscape:connector-curvature="0" />
	<path style="fill:none;stroke:red;stroke-width:1px;stroke-linecap:butt;stroke-linejoin:miter;stroke-opacity:1" d="M 351.711,709.649 317.622,709.649 z" id="boundary" inkscape:connector-curvature="0" />
	<path style="fill:none;stroke:red;stroke-width:1px;stroke-linecap:butt;stroke-linejoin:miter;stroke-opacity:1" d="M 317.622,709.649 283.533,709.649 z" id="boundary" inkscape:connector-curvature="0" />
	<path style="fill:none;stroke:red;stroke-width:1px;stroke-linecap:butt;stroke-linejoin:miter;stroke-opacity:1" d="M 283.533,709.649 249.443,709.649 z" id="boundary" inkscape:connector-curvature="0" />
	<path style="fill:none;stroke:red;stroke-width:1px;stroke-linecap:butt;stroke-linejoin:miter;stroke-opacity:1" d="M 249.443,709.649 215.354,709.649 z" id="boundary" inkscape:connector-curvature="0" />
	<path style="fill:none;stroke:red;stroke-width:1px;stroke-linecap:butt;stroke-linejoin:miter;stroke-opacity:1" d="M 215.354,709.649 181.265,709.649 z" id="boundary" inkscape:connector-curvature="0" />
	<path style="fill:none;stroke:red;stroke-width:1px;stroke-linecap:butt;stroke-linejoin:miter;stroke-opacity:1" d="M 181.265,709.649 147.175,709.649 z" id="boundary" inkscape:connector-curvature="0" />
	<path style="fill:none;stroke:red;stroke-width:1px;stroke-linecap:butt;stroke-linejoin:miter;stroke-opacity:1" d="M 147.175,709.649 113.086,709.649 z" id="boundary" inkscape:connector-curvature="0" />
	<path style="fill:none;stroke:red;stroke-width:1px;stroke-linecap:butt;stroke-linejoin:miter;stroke-opacity:1" d="M 113.086,709.649 78.9966,709.649 z" id="boundary" inkscape:connector-curvature="0" />
	<path style="fill:none;stroke:red;stroke-width:1px;stroke-linecap:butt;stroke-linejoin:miter;stroke-opacity:1" d="M 78.9966,709.649 51.7251,685.787 z" id="boundary" inkscape:connector-curvature="0" />
	<path style="fill:none;stroke:red;stroke-width:1px;stroke-linecap:butt;stroke-linejoin:miter;stroke-opacity:1" d="M 51.7251,685.787 96.0412,678.969 z" id="boundary" inkscape:connector-curvature="0" />
	<path style="fill:none;stroke:red;stroke-width:1px;stroke-linecap:butt;stroke-linejoin:miter;stroke-opacity:1" d="M 96.0412,678.969 130.131,678.969 z" id="boundary" inkscape:connector-curvature="0" />
	<path style="fill:none;stroke:red;stroke-width:1px;stroke-linecap:butt;stroke-linejoin:miter;stroke-opacity:1" d="M 130.131,678.969 164.22,678.969 z" id="boundary" inkscape:connector-curvature="0" />
	<path style="fill:none;stroke:red;stroke-width:1px;stroke-linecap:butt;stroke-linejoin:miter;stroke-opacity:1" d="M 164.22,678.969 198.309,678.969 z" id="boundary" inkscape:connector-curvature="0" />
	<path style="fill:none;stroke:red;stroke-width:1px;stroke-linecap:butt;stroke-linejoin:miter;stroke-opacity:1" d="M 198.309,678.969 232.399,678.969 z" id="boundary" inkscape:connector-curvature="0" />
	<path style="fill:none;stroke:red;stroke-width:1px;stroke-linecap:butt;stroke-linejoin:miter;stroke-opacity:1" d="M 232.399,678.969 266.488,678.969 z" id="boundary" inkscape:connector-curvature="0" />
	<path style="fill:none;stroke:red;stroke-width:1px;stroke-linecap:butt;stroke-linejoin:miter;stroke-opacity:1" d="M 266.488,678.969 300.577,678.969 z" id="boundary" inkscape:connector-curvature="0" />
	<path style="fill:none;stroke:red;stroke-width:1px;stroke-linecap:butt;stroke-linejoin:miter;stroke-opacity:1" d="M 300.577,678.969 334.667,678.969 z" id="boundary" inkscape:connector-curvature="0" />
	<path style="fill:none;stroke:red;stroke-width:1px;stroke-linecap:butt;stroke-linejoin:miter;stroke-opacity:1" d="M 334.667,678.969 368.756,678.969 z" id="boundary" inkscape:connector-curvature="0" />
	<path style="fill:none;stroke:red;stroke-width:1px;stroke-linecap:butt;stroke-linejoin:miter;stroke-opacity:1" d="M 368.756,678.969 399.436,634.653 z" id="boundary" inkscape:connector-curvature="0" />
	<path style="fill:none;stroke:red;stroke-width:1px;stroke-linecap:butt;stroke-linejoin:miter;stroke-opacity:1" d="M 399.436,634.653 385.801,600.564 z" id="boundary" inkscape:connector-curvature="0" />
	<path style="fill:none;stroke:red;stroke-width:1px;stroke-linecap:butt;stroke-linejoin:miter;stroke-opacity:1" d="M 385.801,600.564 351.711,600.564 z" id="boundary" inkscape:connector-curvature="0" />
	<path style="fill:none;stroke:red;stroke-width:1px;stroke-linecap:butt;stroke-linejoin:miter;stroke-opacity:1" d="M 351.711,600.564 317.622,600.564 z" id="boundary" inkscape:connector-curvature="0" />
	<path style="fill:none;stroke:red;stroke-width:1px;stroke-linecap:butt;stroke-linejoin:miter;stroke-opacity:1" d="M 317.622,600.564 283.533,600.564 z" id="boundary" inkscape:connector-curvature="0" />
	<path style="fill:none;stroke:red;stroke-width:1px;stroke-linecap:butt;stroke-linejoin:miter;stroke-opacity:1" d="M 283.533,600.564 249.443,600.564 z" id="boundary" inkscape:connector-curvature="0" />
	<path style="fill:none;stroke:red;stroke-width:1px;stroke-linecap:butt;stroke-linejoin:miter;stroke-opacity:1" d="M 249.443,600.564 215.354,600.564 z" id="boundary" inkscape:connector-curvature="0" />
	<path style="fill:none;stroke:red;stroke-width:1px;stroke-linecap:butt;stroke-linejoin:miter;stroke-opacity:1" d="M 215.354,600.564 181.265,600.564 z" id="boundary" inkscape:connector-curvature="0" />
	<path style="fill:none;stroke:red;stroke-width:1px;stroke-linecap:butt;stroke-linejoin:miter;stroke-opacity:1" d="M 181.265,600.564 147.175,600.564 z" id="boundary" inkscape:connector-curvature="0" />
	<path style="fill:none;stroke:red;stroke-width:1px;stroke-linecap:butt;stroke-linejoin:miter;stroke-opacity:1" d="M 147.175,600.564 113.086,600.564 z" id="boundary" inkscape:connector-curvature="0" />
	<path style="fill:none;stroke:red;stroke-width:1px;stroke-linecap:butt;stroke-linejoin:miter;stroke-opacity:1" d="M 113.086,600.564 78.9966,600.564 z" id="boundary" inkscape:connector-curvature="0" />
	<path style="fill:none;stroke:red;stroke-width:1px;stroke-linecap:butt;stroke-linejoin:miter;stroke-opacity:1" d="M 78.9966,600.564 51.7251,576.701 z" id="boundary" inkscape:connector-curvature="0" />
	<path style="fill:none;stroke:red;stroke-width:1px;stroke-linecap:butt;stroke-linejoin:miter;stroke-opacity:1" d="M 51.7251,576.701 96.0412,569.883 z" id="boundary" inkscape:connector-curvature="0" />
	<path style="fill:none;stroke:red;stroke-width:1px;stroke-linecap:butt;stroke-linejoin:miter;stroke-opacity:1" d="M 96.0412,569.883 130.131,569.883 z" id="boundary" inkscape:connector-curvature="0" />
	<path style="fill:none;stroke:red;stroke-width:1px;stroke-linecap:butt;stroke-linejoin:miter;stroke-opacity:1" d="M 130.131,569.883 164.22,569.883 z" id="boundary" inkscape:connector-curvature="0" />
	<path style="fill:none;stroke:red;stroke-width:1px;stroke-linecap:butt;stroke-linejoin:miter;stroke-opacity:1" d="M 164.22,569.883 198.309,569.883 z" id="boundary" inkscape:connector-curvature="0" />
	<path style="fill:none;stroke:red;stroke-width:1px;stroke-linecap:butt;stroke-linejoin:miter;stroke-opacity:1" d="M 198.309,569.883 232.399,569.883 z" id="boundary" inkscape:connector-curvature="0" />
	<path style="fill:none;stroke:red;stroke-width:1px;stroke-linecap:butt;stroke-linejoin:miter;stroke-opacity:1" d="M 232.399,569.883 266.488,569.883 z" id="boundary" inkscape:connector-curvature="0" />
	<path style="fill:none;stroke:red;stroke-width:1px;stroke-linecap:butt;stroke-linejoin:miter;stroke-opacity:1" d="M 266.488,569.883 300.577,569.883 z" id="boundary" inkscape:connector-curvature="0" />
	<path style="fill:none;stroke:red;stroke-width:1px;stroke-linecap:butt;stroke-linejoin:miter;stroke-opacity:1" d="M 300.577,569.883 334.667,569.883 z" id="boundary" inkscape:connector-curvature="0" />
	<path style="fill:none;stroke:red;stroke-width:1px;stroke-linecap:butt;stroke-linejoin:miter;stroke-opacity:1" d="M 334.667,569.883 368.756,569.883 z" id="boundary" inkscape:connector-curvature="0" />
	<path style="fill:none;stroke:red;stroke-width:1px;stroke-linecap:butt;stroke-linejoin:miter;stroke-opacity:1" d="M 368.756,569.883 399.436,542.612 z" id="boundary" inkscape:connector-curvature="0" />
	<path style="fill:none;stroke:red;stroke-width:1px;stroke-linecap:butt;stroke-linejoin:miter;stroke-opacity:1" d="M 399.436,542.612 399.436,508.522 z" id="boundary" inkscape:connector-curvature="0" />
	<path style="fill:none;stroke:red;stroke-width:1px;stroke-linecap:butt;stroke-linejoin:miter;stroke-opacity:1" d="M 399.436,508.522 399.436,474.433 z" id="boundary" inkscape:connector-curvature="0" />
	<path style="fill:none;stroke:red;stroke-width:1px;stroke-linecap:butt;stroke-linejoin:miter;stroke-opacity:1" d="M 399.436,474.433 368.756,457.388 z" id="boundary" inkscape:connector-curvature="0" />
	<path style="fill:none;stroke:red;stroke-width:1px;stroke-linecap:butt;stroke-linejoin:miter;stroke-opacity:1" d="M 368.756,457.388 334.667,457.388 z" id="boundary" inkscape:connector-curvature="0" />
	<path style="fill:none;stroke:red;stroke-width:1px;stroke-linecap:butt;stroke-linejoin:miter;stroke-opacity:1" d="M 334.667,457.388 300.577,457.388 z" id="boundary" inkscape:connector-curvature="0" />
	<path style="fill:none;stroke:red;stroke-width:1px;stroke-linecap:butt;stroke-linejoin:miter;stroke-opacity:1" d="M 300.577,457.388 266.488,457.388 z" id="boundary" inkscape:connector-curvature="0" />
	<path style="fill:none;stroke:red;stroke-width:1px;stroke-linecap:butt;stroke-linejoin:miter;stroke-opacity:1" d="M 266.488,457.388 232.399,457.388 z" id="boundary" inkscape:connector-curvature="0" />
	<path style="fill:none;stroke:red;stroke-width:1px;stroke-linecap:butt;stroke-linejoin:miter;stroke-opacity:1" d="M 232.399,457.388 198.309,457.388 z" id="boundary" inkscape:connector-curvature="0" />
	<path style="fill:none;stroke:red;stroke-width:1px;stroke-linecap:butt;stroke-linejoin:miter;stroke-opacity:1" d="M 198.309,457.388 164.22,457.388 z" id="boundary" inkscape:connector-curvature="0" />
	<path style="fill:none;stroke:red;stroke-width:1px;stroke-linecap:butt;stroke-linejoin:miter;stroke-opacity:1" d="M 164.22,457.388 130.131,457.388 z" id="boundary" inkscape:connector-curvature="0" />
	<path style="fill:none;stroke:red;stroke-width:1px;stroke-linecap:butt;stroke-linejoin:miter;stroke-opacity:1" d="M 130.131,457.388 96.0412,453.979 z" id="boundary" inkscape:connector-curvature="0" />
	<path style="fill:none;stroke:red;stroke-width:1px;stroke-linecap:butt;stroke-linejoin:miter;stroke-opacity:1" d="M 96.0412,453.979 92.6323,419.89 z" id="boundary" inkscape:connector-curvature="0" />
	<path style="fill:none;stroke:red;stroke-width:1px;stroke-linecap:butt;stroke-linejoin:miter;stroke-opacity:1" d="M 92.6323,419.89 92.6323,385.801 z" id="boundary" inkscape:connector-curvature="0" />
	<path style="fill:none;stroke:red;stroke-width:1px;stroke-linecap:butt;stroke-linejoin:miter;stroke-opacity:1" d="M 92.6323,385.801 92.6323,351.711 z" id="boundary" inkscape:connector-curvature="0" />
	<path style="fill:none;stroke:red;stroke-width:1px;stroke-linecap:butt;stroke-linejoin:miter;stroke-opacity:1" d="M 92.6323,351.711 92.6323,317.622 z" id="boundary" inkscape:connector-curvature="0" />
	<path style="fill:none;stroke:red;stroke-width:1px;stroke-linecap:butt;stroke-linejoin:miter;stroke-opacity:1" d="M 92.6323,317.622 92.6323,283.533 z" id="boundary" inkscape:connector-curvature="0" />
	<path style="fill:none;stroke:red;stroke-width:1px;stroke-linecap:butt;stroke-linejoin:miter;stroke-opacity:1" d="M 92.6323,283.533 92.6323,249.443 z" id="boundary" inkscape:connector-curvature="0" />
	<path style="fill:none;stroke:red;stroke-width:1px;stroke-linecap:butt;stroke-linejoin:miter;stroke-opacity:1" d="M 92.6323,249.443 92.6323,215.354 z" id="boundary" inkscape:connector-curvature="0" />
	<path style="fill:none;stroke:red;stroke-width:1px;stroke-linecap:butt;stroke-linejoin:miter;stroke-opacity:1" d="M 92.6323,215.354 92.6323,181.265 z" id="boundary" inkscape:connector-curvature="0" />
	<path style="fill:none;stroke:red;stroke-width:1px;stroke-linecap:butt;stroke-linejoin:miter;stroke-opacity:1" d="M 92.6323,181.265 92.6323,147.175 z" id="boundary" inkscape:connector-curvature="0" />
	<path style="fill:none;stroke:red;stroke-width:1px;stroke-linecap:butt;stroke-linejoin:miter;stroke-opacity:1" d="M 92.6323,147.175 92.6323,113.086 z" id="boundary" inkscape:connector-curvature="0" />
	<path style="fill:none;stroke:red;stroke-width:1px;stroke-linecap:butt;stroke-linejoin:miter;stroke-opacity:1" d="M 92.6323,113.086 92.6323,78.9966 z" id="boundary" inkscape:connector-curvature="0" />
	<path style="fill:none;stroke:red;stroke-width:1px;stroke-linecap:butt;stroke-linejoin:miter;stroke-opacity:1" d="M 92.6323,78.9966 92.6323,44.9072 z" id="boundary" inkscape:connector-curvature="0" />
	<path style="fill:none;stroke:red;stroke-width:1px;stroke-linecap:butt;stroke-linejoin:miter;stroke-opacity:1" d="M 92.6323,44.9072 92.6323,10.8179 z" id="boundary" inkscape:connector-curvature="0" />
	<path style="fill:none;stroke:red;stroke-width:1px;stroke-linecap:butt;stroke-linejoin:miter;stroke-opacity:1" d="M 92.6323,10.8179 126.722,4 z" id="boundary" inkscape:connector-curvature="0" />
	<path style="fill:none;stroke:red;stroke-width:1px;stroke-linecap:butt;stroke-linejoin:miter;stroke-opacity:1" d="M 126.722,4 160.811,4 z" id="boundary" inkscape:connector-curvature="0" />
	<path style="fill:none;stroke:red;stroke-width:1px;stroke-linecap:butt;stroke-linejoin:miter;stroke-opacity:1" d="M 160.811,4 194.9,4 z" id="boundary" inkscape:connector-curvature="0" />
	<path style="fill:none;stroke:red;stroke-width:1px;stroke-linecap:butt;stroke-linejoin:miter;stroke-opacity:1" d="M 194.9,4 228.99,4 z" id="boundary" inkscape:connector-curvature="0" />
	<path style="fill:none;stroke:red;stroke-width:1px;stroke-linecap:butt;stroke-linejoin:miter;stroke-opacity:1" d="M 228.99,4 263.079,4 z" id="boundary" inkscape:connector-curvature="0" />
	<path style="fill:none;stroke:red;stroke-width:1px;stroke-linecap:butt;stroke-linejoin:miter;stroke-opacity:1" d="M 263.079,4 297.168,4 z" id="boundary" inkscape:connector-curvature="0" />
	<path style="fill:none;stroke:red;stroke-width:1px;stroke-linecap:butt;stroke-linejoin:miter;stroke-opacity:1" d="M 297.168,4 331.258,4 z" id="boundary" inkscape:connector-curvature="0" />
	<path style="fill:none;stroke:red;stroke-width:1px;stroke-linecap:butt;stroke-linejoin:miter;stroke-opacity:1" d="M 331.258,4 365.347,4 z" id="boundary" inkscape:connector-curvature="0" />
	<path style="fill:none;stroke:red;stroke-width:1px;stroke-linecap:butt;stroke-linejoin:miter;stroke-opacity:1" d="M 365.347,4 399.436,4 z" id="boundary" inkscape:connector-curvature="0" />
	<path style="fill:none;stroke:red;stroke-width:1px;stroke-linecap:butt;stroke-linejoin:miter;stroke-opacity:1" d="M 399.436,4 433.526,4 z" id="boundary" inkscape:connector-curvature="0" />
	<path style="fill:none;stroke:red;stroke-width:1px;stroke-linecap:butt;stroke-linejoin:miter;stroke-opacity:1" d="M 433.526,4 467.615,4 z" id="boundary" inkscape:connector-curvature="0" />
	<path style="fill:none;stroke:red;stroke-width:1px;stroke-linecap:butt;stroke-linejoin:miter;stroke-opacity:1" d="M 467.615,4 501.704,4 z" id="boundary" inkscape:connector-curvature="0" />
	<path style="fill:none;stroke:red;stroke-width:1px;stroke-linecap:butt;stroke-linejoin:miter;stroke-opacity:1" d="M 501.704,4 535.794,4 z" id="boundary" inkscape:connector-curvature="0" />
	<path style="fill:none;stroke:red;stroke-width:1px;stroke-linecap:butt;stroke-linejoin:miter;stroke-opacity:1" d="M 535.794,4 569.883,4 z" id="boundary" inkscape:connector-curvature="0" />
	<path style="fill:none;stroke:red;stroke-width:1px;stroke-linecap:butt;stroke-linejoin:miter;stroke-opacity:1" d="M 569.883,4 603.973,4 z" id="boundary" inkscape:connector-curvature="0" />
	<path style="fill:none;stroke:red;stroke-width:1px;stroke-linecap:butt;stroke-linejoin:miter;stroke-opacity:1" d="M 603.973,4 638.062,4 z" id="boundary" inkscape:connector-curvature="0" />
	<path style="fill:none;stroke:red;stroke-width:1px;stroke-linecap:butt;stroke-linejoin:miter;stroke-opacity:1" d="M 638.062,4 672.151,4 z" id="boundary" inkscape:connector-curvature="0" />
	<path style="fill:none;stroke:red;stroke-width:1px;stroke-linecap:butt;stroke-linejoin:miter;stroke-opacity:1" d="M 672.151,4 706.241,4 z" id="boundary" inkscape:connector-curvature="0" />
	<path style="fill:none;stroke:red;stroke-width:1px;stroke-linecap:butt;stroke-linejoin:miter;stroke-opacity:1" d="M 706.241,4 740.33,4 z" id="boundary" inkscape:connector-curvature="0" />
	<path style="fill:none;stroke:red;stroke-width:1px;stroke-linecap:butt;stroke-linejoin:miter;stroke-opacity:1" d="M 740.33,4 774.419,4 z" id="boundary" inkscape:connector-curvature="0" />
	<path style="fill:none;stroke:red;stroke-width:1px;stroke-linecap:butt;stroke-linejoin:miter;stroke-opacity:1" d="M 774.419,4 808.509,4 z" id="boundary" inkscape:connector-curvature="0" />
	<path style="fill:none;stroke:red;stroke-width:1px;stroke-linecap:butt;stroke-linejoin:miter;stroke-opacity:1" d="M 808.509,4 842.598,4 z" id="boundary" inkscape:connector-curvature="0" />
	<path style="fill:none;stroke:red;stroke-width:1px;stroke-linecap:butt;stroke-linejoin:miter;stroke-opacity:1" d="M 842.598,4 876.687,4 z" id="boundary" inkscape:connector-curvature="0" />
	<path style="fill:none;stroke:red;stroke-width:1px;stroke-linecap:butt;stroke-linejoin:miter;stroke-opacity:1" d="M 876.687,4 910.777,14.2268 z" id="boundary" inkscape:connector-curvature="0" />
	<path style="fill:none;stroke:red;stroke-width:1px;stroke-linecap:butt;stroke-linejoin:miter;stroke-opacity:1" d="M 910.777,14.2268 914.186,48.3162 z" id="boundary" inkscape:connector-curvature="0" />
	<path style="fill:none;stroke:red;stroke-width:1px;stroke-linecap:butt;stroke-linejoin:miter;stroke-opacity:1" d="M 914.186,48.3162 914.186,82.4055 z" id="boundary" inkscape:connector-curvature="0" />
	<path style="fill:none;stroke:red;stroke-width:1px;stroke-linecap:butt;stroke-linejoin:miter;stroke-opacity:1" d="M 914.186,82.4055 914.186,116.495 z" id="boundary" inkscape:connector-curvature="0" />
	<path style="fill:none;stroke:red;stroke-width:1px;stroke-linecap:butt;stroke-linejoin:miter;stroke-opacity:1" d="M 914.186,116.495 914.186,150.584 z" id="boundary" inkscape:connector-curvature="0" />
	<path style="fill:none;stroke:red;stroke-width:1px;stroke-linecap:butt;stroke-linejoin:miter;stroke-opacity:1" d="M 914.186,150.584 914.186,184.674 z" id="boundary" inkscape:connector-curvature="0" />
	<path style="fill:none;stroke:red;stroke-width:1px;stroke-linecap:butt;stroke-linejoin:miter;stroke-opacity:1" d="M 914.186,184.674 914.186,218.763 z" id="boundary" inkscape:connector-curvature="0" />
	<path style="fill:none;stroke:red;stroke-width:1px;stroke-linecap:butt;stroke-linejoin:miter;stroke-opacity:1" d="M 914.186,218.763 914.186,252.852 z" id="boundary" inkscape:connector-curvature="0" />
	<path style="fill:none;stroke:red;stroke-width:1px;stroke-linecap:butt;stroke-linejoin:miter;stroke-opacity:1" d="M 914.186,252.852 914.186,286.942 z" id="boundary" inkscape:connector-curvature="0" />
	<path style="fill:none;stroke:red;stroke-width:1px;stroke-linecap:butt;stroke-linejoin:miter;stroke-opacity:1" d="M 914.186,286.942 914.186,321.031 z" id="boundary" inkscape:connector-curvature="0" />
	<path style="fill:none;stroke:red;stroke-width:1px;stroke-linecap:butt;stroke-linejoin:miter;stroke-opacity:1" d="M 914.186,321.031 914.186,355.12 z" id="boundary" inkscape:connector-curvature="0" />
	<path style="fill:none;stroke:red;stroke-width:1px;stroke-linecap:butt;stroke-linejoin:miter;stroke-opacity:1" d="M 914.186,355.12 914.186,389.21 z" id="boundary" inkscape:connector-curvature="0" />
	<path style="fill:none;stroke:red;stroke-width:1px;stroke-linecap:butt;stroke-linejoin:miter;stroke-opacity:1" d="M 914.186,389.21 910.777,423.299 z" id="boundary" inkscape:connector-curvature="0" />
	<path style="fill:none;stroke:red;stroke-width:1px;stroke-linecap:butt;stroke-linejoin:miter;stroke-opacity:1" d="M 910.777,423.299 900.55,457.388 z" id="boundary" inkscape:connector-curvature="0" />
	<path style="fill:none;stroke:red;stroke-width:1px;stroke-linecap:butt;stroke-linejoin:miter;stroke-opacity:1" d="M 900.55,457.388 866.46,457.388 z" id="boundary" inkscape:connector-curvature="0" />
	<path style="fill:none;stroke:red;stroke-width:1px;stroke-linecap:butt;stroke-linejoin:miter;stroke-opacity:1" d="M 866.46,457.388 832.371,457.388 z" id="boundary" inkscape:connector-curvature="0" />
	<path style="fill:none;stroke:red;stroke-width:1px;stroke-linecap:butt;stroke-linejoin:miter;stroke-opacity:1" d="M 832.371,457.388 798.282,457.388 z" id="boundary" inkscape:connector-curvature="0" />
	<path style="fill:none;stroke:red;stroke-width:1px;stroke-linecap:butt;stroke-linejoin:miter;stroke-opacity:1" d="M 798.282,457.388 764.192,457.388 z" id="boundary" inkscape:connector-curvature="0" />
	<path style="fill:none;stroke:red;stroke-width:1px;stroke-linecap:butt;stroke-linejoin:miter;stroke-opacity:1" d="M 764.192,457.388 730.103,457.388 z" id="boundary" inkscape:connector-curvature="0" />
	<path style="fill:none;stroke:red;stroke-width:1px;stroke-linecap:butt;stroke-linejoin:miter;stroke-opacity:1" d="M 730.103,457.388 696.014,457.388 z" id="boundary" inkscape:connector-curvature="0" />
	<path style="fill:none;stroke:red;stroke-width:1px;stroke-linecap:butt;stroke-linejoin:miter;stroke-opacity:1" d="M 696.014,457.388 661.924,457.388 z" id="boundary" inkscape:connector-curvature="0" />
	<path style="fill:none;stroke:red;stroke-width:1px;stroke-linecap:butt;stroke-linejoin:miter;stroke-opacity:1" d="M 661.924,457.388 627.835,457.388 z" id="boundary" inkscape:connector-curvature="0" />
	<path style="fill:none;stroke:red;stroke-width:1px;stroke-linecap:butt;stroke-linejoin:miter;stroke-opacity:1" d="M 627.835,457.388 593.746,460.797 z" id="boundary" inkscape:connector-curvature="0" />
	<path style="fill:none;stroke:red;stroke-width:1px;stroke-linecap:butt;stroke-linejoin:miter;stroke-opacity:1" d="M 593.746,460.797 593.746,494.887 z" id="boundary" inkscape:connector-curvature="0" />
	<path style="fill:none;stroke:red;stroke-width:1px;stroke-linecap:butt;stroke-linejoin:miter;stroke-opacity:1" d="M 593.746,494.887 593.746,528.976 z" id="boundary" inkscape:connector-curvature="0" />
	<path style="fill:none;stroke:red;stroke-width:1px;stroke-linecap:butt;stroke-linejoin:miter;stroke-opacity:1" d="M 593.746,528.976 593.746,563.065 z" id="boundary" inkscape:connector-curvature="0" />
	<path style="fill:none;stroke:red;stroke-width:1px;stroke-linecap:butt;stroke-linejoin:miter;stroke-opacity:1" d="M 593.746,563.065 627.835,569.883 z" id="boundary" inkscape:connector-curvature="0" />
	<path style="fill:none;stroke:red;stroke-width:1px;stroke-linecap:butt;stroke-linejoin:miter;stroke-opacity:1" d="M 627.835,569.883 661.924,569.883 z" id="boundary" inkscape:connector-curvature="0" />
	<path style="fill:none;stroke:red;stroke-width:1px;stroke-linecap:butt;stroke-linejoin:miter;stroke-opacity:1" d="M 661.924,569.883 696.014,569.883 z" id="boundary" inkscape:connector-curvature="0" />
	<path style="fill:none;stroke:red;stroke-width:1px;stroke-linecap:butt;stroke-linejoin:miter;stroke-opacity:1" d="M 696.014,569.883 730.103,569.883 z" id="boundary" inkscape:connector-curvature="0" />
	<path style="fill:none;stroke:red;stroke-width:1px;stroke-linecap:butt;stroke-linejoin:miter;stroke-opacity:1" d="M 730.103,569.883 764.192,569.883 z" id="boundary" inkscape:connector-curvature="0" />
	<path style="fill:none;stroke:red;stroke-width:1px;stroke-linecap:butt;stroke-linejoin:miter;stroke-opacity:1" d="M 764.192,569.883 798.282,569.883 z" id="boundary" inkscape:connector-curvature="0" />
	<path style="fill:none;stroke:red;stroke-width:1px;stroke-linecap:butt;stroke-linejoin:miter;stroke-opacity:1" d="M 798.282,569.883 832.371,569.883 z" id="boundary" inkscape:connector-curvature="0" />
	<path style="fill:none;stroke:red;stroke-width:1px;stroke-linecap:butt;stroke-linejoin:miter;stroke-opacity:1" d="M 832.371,569.883 866.46,569.883 z" id="boundary" inkscape:connector-curvature="0" />
	<path style="fill:none;stroke:red;stroke-width:1px;stroke-linecap:butt;stroke-linejoin:miter;stroke-opacity:1" d="M 866.46,569.883 900.55,569.883 z" id="boundary" inkscape:connector-curvature="0" />
	<path style="fill:none;stroke:red;stroke-width:1px;stroke-linecap:butt;stroke-linejoin:miter;stroke-opacity:1" d="M 900.55,569.883 934.639,569.883 z" id="boundary" inkscape:connector-curvature="0" />
	<path style="fill:none;stroke:red;stroke-width:1px;stroke-linecap:butt;stroke-linejoin:miter;stroke-opacity:1" d="M 934.639,569.883 917.595,600.564 z" id="boundary" inkscape:connector-curvature="0" />
	<path style="fill:none;stroke:red;stroke-width:1px;stroke-linecap:butt;stroke-linejoin:miter;stroke-opacity:1" d="M 917.595,600.564 883.505,600.564 z" id="boundary" inkscape:connector-curvature="0" />
	<path style="fill:none;stroke:red;stroke-width:1px;stroke-linecap:butt;stroke-linejoin:miter;stroke-opacity:1" d="M 883.505,600.564 849.416,600.564 z" id="boundary" inkscape:connector-curvature="0" />
	<path style="fill:none;stroke:red;stroke-width:1px;stroke-linecap:butt;stroke-linejoin:miter;stroke-opacity:1" d="M 849.416,600.564 815.326,600.564 z" id="boundary" inkscape:connector-curvature="0" />
	<path style="fill:none;stroke:red;stroke-width:1px;stroke-linecap:butt;stroke-linejoin:miter;stroke-opacity:1" d="M 815.326,600.564 781.237,600.564 z" id="boundary" inkscape:connector-curvature="0" />
	<path style="fill:none;stroke:red;stroke-width:1px;stroke-linecap:butt;stroke-linejoin:miter;stroke-opacity:1" d="M 781.237,600.564 747.148,600.564 z" id="boundary" inkscape:connector-curvature="0" />
	<path style="fill:none;stroke:red;stroke-width:1px;stroke-linecap:butt;stroke-linejoin:miter;stroke-opacity:1" d="M 747.148,600.564 713.058,600.564 z" id="boundary" inkscape:connector-curvature="0" />
	<path style="fill:none;stroke:red;stroke-width:1px;stroke-linecap:butt;stroke-linejoin:miter;stroke-opacity:1" d="M 713.058,600.564 678.969,600.564 z" id="boundary" inkscape:connector-curvature="0" />
	<path style="fill:none;stroke:red;stroke-width:1px;stroke-linecap:butt;stroke-linejoin:miter;stroke-opacity:1" d="M 678.969,600.564 644.88,600.564 z" id="boundary" inkscape:connector-curvature="0" />
	<path style="fill:none;stroke:red;stroke-width:1px;stroke-linecap:butt;stroke-linejoin:miter;stroke-opacity:1" d="M 644.88,600.564 593.746,603.973 z" id="boundary" inkscape:connector-curvature="0" />
	<path style="fill:none;stroke:red;stroke-width:1px;stroke-linecap:butt;stroke-linejoin:miter;stroke-opacity:1" d="M 593.746,603.973 593.746,638.062 z" id="boundary" inkscape:connector-curvature="0" />
	<path style="fill:none;stroke:red;stroke-width:1px;stroke-linecap:butt;stroke-linejoin:miter;stroke-opacity:1" d="M 593.746,638.062 593.746,672.151 z" id="boundary" inkscape:connector-curvature="0" />
	<path style="fill:none;stroke:red;stroke-width:1px;stroke-linecap:butt;stroke-linejoin:miter;stroke-opacity:1" d="M 593.746,672.151 627.835,678.969 z" id="boundary" inkscape:connector-curvature="0" />
	<path style="fill:none;stroke:red;stroke-width:1px;stroke-linecap:butt;stroke-linejoin:miter;stroke-opacity:1" d="M 627.835,678.969 661.924,678.969 z" id="boundary" inkscape:connector-curvature="0" />
	<path style="fill:none;stroke:red;stroke-width:1px;stroke-linecap:butt;stroke-linejoin:miter;stroke-opacity:1" d="M 661.924,678.969 696.014,678.969 z" id="boundary" inkscape:connector-curvature="0" />
	<path style="fill:none;stroke:red;stroke-width:1px;stroke-linecap:butt;stroke-linejoin:miter;stroke-opacity:1" d="M 696.014,678.969 730.103,678.969 z" id="boundary" inkscape:connector-curvature="0" />
	<path style="fill:none;stroke:red;stroke-width:1px;stroke-linecap:butt;stroke-linejoin:miter;stroke-opacity:1" d="M 730.103,678.969 764.192,678.969 z" id="boundary" inkscape:connector-curvature="0" />
	<path style="fill:none;stroke:red;stroke-width:1px;stroke-linecap:butt;stroke-linejoin:miter;stroke-opacity:1" d="M 764.192,678.969 798.282,678.969 z" id="boundary" inkscape:connector-curvature="0" />
	<path style="fill:none;stroke:red;stroke-width:1px;stroke-linecap:butt;stroke-linejoin:miter;stroke-opacity:1" d="M 798.282,678.969 832.371,678.969 z" id="boundary" inkscape:connector-curvature="0" />
	<path style="fill:none;stroke:red;stroke-width:1px;stroke-linecap:butt;stroke-linejoin:miter;stroke-opacity:1" d="M 832.371,678.969 866.46,678.969 z" id="boundary" inkscape:connector-curvature="0" />
	<path style="fill:none;stroke:red;stroke-width:1px;stroke-linecap:butt;stroke-linejoin:miter;stroke-opacity:1" d="M 866.46,678.969 900.55,678.969 z" id="boundary" inkscape:connector-curvature="0" />
	<path style="fill:none;stroke:red;stroke-width:1px;stroke-linecap:butt;stroke-linejoin:miter;stroke-opacity:1" d="M 900.55,678.969 934.639,678.969 z" id="boundary" inkscape:connector-curvature="0" />
	<path style="fill:none;stroke:red;stroke-width:1px;stroke-linecap:butt;stroke-linejoin:miter;stroke-opacity:1" d="M 934.639,678.969 917.595,709.649 z" id="boundary" inkscape:connector-curvature="0" />
	<path style="fill:none;stroke:red;stroke-width:1px;stroke-linecap:butt;stroke-linejoin:miter;stroke-opacity:1" d="M 917.595,709.649 883.505,709.649 z" id="boundary" inkscape:connector-curvature="0" />
	<path style="fill:none;stroke:red;stroke-width:1px;stroke-linecap:butt;stroke-linejoin:miter;stroke-opacity:1" d="M 883.505,709.649 849.416,709.649 z" id="boundary" inkscape:connector-curvature="0" />
	<path style="fill:none;stroke:red;stroke-width:1px;stroke-linecap:butt;stroke-linejoin:miter;stroke-opacity:1" d="M 849.416,709.649 815.326,709.649 z" id="boundary" inkscape:connector-curvature="0" />
	<path style="fill:none;stroke:red;stroke-width:1px;stroke-linecap:butt;stroke-linejoin:miter;stroke-opacity:1" d="M 815.326,709.649 781.237,709.649 z" id="boundary" inkscape:connector-curvature="0" />
	<path style="fill:none;stroke:red;stroke-width:1px;stroke-linecap:butt;stroke-linejoin:miter;stroke-opacity:1" d="M 781.237,709.649 747.148,709.649 z" id="boundary" inkscape:connector-curvature="0" />
	<path style="fill:none;stroke:red;stroke-width:1px;stroke-linecap:butt;stroke-linejoin:miter;stroke-opacity:1" d="M 747.148,709.649 713.058,709.649 z" id="boundary" inkscape:connector-curvature="0" />
	<path style="fill:none;stroke:red;stroke-width:1px;stroke-linecap:butt;stroke-linejoin:miter;stroke-opacity:1" d="M 713.058,709.649 678.969,709.649 z" id="boundary" inkscape:connector-curvature="0" />
	<path style="fill:none;stroke:red;stroke-width:1px;stroke-linecap:butt;stroke-linejoin:miter;stroke-opacity:1" d="M 678.969,709.649 644.88,709.649 z" id="boundary" inkscape:connector-curvature="0" />
	<path style="fill:none;stroke:red;stroke-width:1px;stroke-linecap:butt;stroke-linejoin:miter;stroke-opacity:1" d="M 644.88,709.649 593.746,713.058 z" id="boundary" inkscape:connector-curvature="0" />
	<path style="fill:none;stroke:red;stroke-width:1px;stroke-linecap:butt;stroke-linejoin:miter;stroke-opacity:1" d="M 593.746,713.058 593.746,747.148 z" id="boundary" inkscape:connector-curvature="0" />
	<path style="fill:none;stroke:red;stroke-width:1px;stroke-linecap:butt;stroke-linejoin:miter;stroke-opacity:1" d="M 593.746,747.148 597.155,781.237 z" id="boundary" inkscape:connector-curvature="0" />
	<path style="fill:none;stroke:red;stroke-width:1px;stroke-linecap:butt;stroke-linejoin:miter;stroke-opacity:1" d="M 597.155,781.237 624.426,801.691 z" id="boundary" inkscape:connector-curvature="0" />
	<path style="fill:none;stroke:red;stroke-width:1px;stroke-linecap:butt;stroke-linejoin:miter;stroke-opacity:1" d="M 624.426,801.691 651.698,781.237 z" id="boundary" inkscape:connector-curvature="0" />
	<path style="fill:none;stroke:red;stroke-width:1px;stroke-linecap:butt;stroke-linejoin:miter;stroke-opacity:1" d="M 651.698,781.237 685.787,781.237 z" id="boundary" inkscape:connector-curvature="0" />
	<path style="fill:none;stroke:red;stroke-width:1px;stroke-linecap:butt;stroke-linejoin:miter;stroke-opacity:1" d="M 685.787,781.237 719.876,781.237 z" id="boundary" inkscape:connector-curvature="0" />
	<path style="fill:none;stroke:red;stroke-width:1px;stroke-linecap:butt;stroke-linejoin:miter;stroke-opacity:1" d="M 719.876,781.237 753.966,781.237 z" id="boundary" inkscape:connector-curvature="0" />
	<path style="fill:none;stroke:red;stroke-width:1px;stroke-linecap:butt;stroke-linejoin:miter;stroke-opacity:1" d="M 753.966,781.237 788.055,781.237 z" id="boundary" inkscape:connector-curvature="0" />
	<path style="fill:none;stroke:red;stroke-width:1px;stroke-linecap:butt;stroke-linejoin:miter;stroke-opacity:1" d="M 788.055,781.237 822.144,781.237 z" id="boundary" inkscape:connector-curvature="0" />
	<path style="fill:none;stroke:red;stroke-width:1px;stroke-linecap:butt;stroke-linejoin:miter;stroke-opacity:1" d="M 822.144,781.237 856.234,781.237 z" id="boundary" inkscape:connector-curvature="0" />
	<path style="fill:none;stroke:red;stroke-width:1px;stroke-linecap:butt;stroke-linejoin:miter;stroke-opacity:1" d="M 856.234,781.237 890.323,781.237 z" id="boundary" inkscape:connector-curvature="0" />
	<path style="fill:none;stroke:red;stroke-width:1px;stroke-linecap:butt;stroke-linejoin:miter;stroke-opacity:1" d="M 890.323,781.237 924.412,781.237 z" id="boundary" inkscape:connector-curvature="0" />
	<path style="fill:none;stroke:red;stroke-width:1px;stroke-linecap:butt;stroke-linejoin:miter;stroke-opacity:1" d="M 924.412,781.237 958.502,781.237 z" id="boundary" inkscape:connector-curvature="0" />
	<path style="fill:none;stroke:red;stroke-width:1px;stroke-linecap:butt;stroke-linejoin:miter;stroke-opacity:1" d="M 958.502,781.237 992.591,791.464 z" id="boundary" inkscape:connector-curvature="0" />
	<path style="fill:none;stroke:red;stroke-width:1px;stroke-linecap:butt;stroke-linejoin:miter;stroke-opacity:1" d="M 992.591,791.464 996,825.553 z" id="boundary" inkscape:connector-curvature="0" />
	<circle cx="4" cy="788.055" r="4" fill="#0" id="circle0"/>
	<circle cx="4" cy="822.144" r="4" fill="#0" id="circle1"/>
	<circle cx="14.2268" cy="856.234" r="4" fill="#0" id="circle2"/>
	<circle cx="38.0893" cy="781.237" r="4" fill="#0" id="circle3"/>
	<circle cx="48.3162" cy="859.643" r="4" fill="#0" id="circle4"/>
	<circle cx="51.7251" cy="576.701" r="4" fill="#0" id="circle5"/>
	<circle cx="51.7251" cy="685.787" r="4" fill="#0" id="circle6"/>
	<circle cx="72.1787" cy="781.237" r="4" fill="#0" id="circle7"/>
	<circle cx="78.9966" cy="600.564" r="4" fill="#0" id="circle8"/>
	<circle cx="78.9966" cy="709.649" r="4" fill="#0" id="circle9"/>
	<circle cx="82.4055" cy="852.825" r="4" fill="#0" id="circle10"/>
	<circle cx="92.6323" cy="10.8179" r="4" fill="#0" id="circle11"/>
	<circle cx="92.6323" cy="44.9072" r="4" fill="#0" id="circle12"/>
	<circle cx="92.6323" cy="78.9966" r="4" fill="#0" id="circle13"/>
	<circle cx="92.6323" cy="113.086" r="4" fill="#0" id="circle14"/>
	<circle cx="92.6323" cy="147.175" r="4" fill="#0" id="circle15"/>
	<circle cx="92.6323" cy="181.265" r="4" fill="#0" id="circle16"/>
	<circle cx="92.6323" cy="215.354" r="4" fill="#0" id="circle17"/>
	<circle cx="92.6323" cy="249.443" r="4" fill="#0" id="circle18"/>
	<circle cx="92.6323" cy="283.533" r="4" fill="#0" id="circle19"/>
	<circle cx="92.6323" cy="317.622" r="4" fill="#0" id="circle20"/>
	<circle cx="92.6323" cy="351.711" r="4" fill="#0" id="circle21"/>
	<circle cx="92.6323" cy="385.801" r="4" fill="#0" id="circle22"/>
	<circle cx="92.6323" cy="419.89" r="4" fill="#0" id="circle23"/>
	<circle cx="96.0412" cy="453.979" r="4" fill="#0" id="circle24"/>
	<circle cx="96.0412" cy="569.883" r="4" fill="#0" id="circle25"/>
	<circle cx="96.0412" cy="678.969" r="4" fill="#0" id="circle26"/>
	<circle cx="106.268" cy="781.237" r="4" fill="#0" id="circle27"/>
	<circle cx="113.086" cy="600.564" r="4" fill="#0" id="circle28"/>
	<circle cx="113.086" cy="709.649" r="4" fill="#0" id="circle29"/>
	<circle cx="116.495" cy="852.825" r="4" fill="#0" id="circle30"/>
	<circle cx="126.722" cy="4" r="4" fill="#0" id="circle31"/>
	<circle cx="130.131" cy="457.388" r="4" fill="#0" id="circle32"/>
	<circle cx="130.131" cy="569.883" r="4" fill="#0" id="circle33"/>
	<circle cx="130.131" cy="678.969" r="4" fill="#0" id="circle34"/>
	<circle cx="140.357" cy="781.237" r="4" fill="#0" id="circle35"/>
	<circle cx="147.175" cy="600.564" r="4" fill="#0" id="circle36"/>
	<circle cx="147.175" cy="709.649" r="4" fill="#0" id="circle37"/>
	<circle cx="150.584" cy="852.825" r="4" fill="#0" id="circle38"/>
	<circle cx="160.811" cy="4" r="4" fill="#0" id="circle39"/>
	<circle cx="164.22" cy="457.388" r="4" fill="#0" id="circle40"/>
	<circle cx="164.22" cy="569.883" r="4" fill="#0" id="circle41"/>
	<circle cx="164.22" cy="678.969" r="4" fill="#0" id="circle42"/>
	<circle cx="174.447" cy="781.237" r="4" fill="#0" id="circle43"/>
	<circle cx="181.265" cy="600.564" r="4" fill="#0" id="circle44"/>
	<circle cx="181.265" cy="709.649" r="4" fill="#0" id="circle45"/>
	<circle cx="184.674" cy="852.825" r="4" fill="#0" id="circle46"/>
	<circle cx="194.9" cy="4" r="4" fill="#0" id="circle47"/>
	<circle cx="198.309" cy="457.388" r="4" fill="#0" id="circle48"/>
	<circle cx="198.309" cy="569.883" r="4" fill="#0" id="circle49"/>
	<circle cx="198.309" cy="678.969" r="4" fill="#0" id="circle50"/>
	<circle cx="208.536" cy="781.237" r="4" fill="#0" id="circle51"/>
	<circle cx="215.354" cy="600.564" r="4" fill="#0" id="circle52"/>
	<circle cx="215.354" cy="709.649" r="4" fill="#0" id="circle53"/>
	<circle cx="218.763" cy="852.825" r="4" fill="#0" id="circle54"/>
	<circle cx="228.99" cy="4" r="4" fill="#0" id="circle55"/>
	<circle cx="232.399" cy="457.388" r="4" fill="#0" id="circle56"/>
	<circle cx="232.399" cy="569.883" r="4" fill="#0" id="circle57"/>
	<circle cx="232.399" cy="678.969" r="4" fill="#0" id="circle58"/>
	<circle cx="242.625" cy="781.237" r="4" fill="#0" id="circle59"/>
	<circle cx="249.443" cy="600.564" r="4" fill="#0" id="circle60"/>
	<circle cx="249.443" cy="709.649" r="4" fill="#0" id="circle61"/>
	<circle cx="252.852" cy="852.825" r="4" fill="#0" id="circle62"/>
	<circle cx="263.079" cy="4" r="4" fill="#0" id="circle63"/>
	<circle cx="266.488" cy="457.388" r="4" fill="#0" id="circle64"/>
	<circle cx="266.488" cy="569.883" r="4" fill="#0" id="circle65"/>
	<circle cx="266.488" cy="678.969" r="4" fill="#0" id="circle66"/>
	<circle cx="276.715" cy="781.237" r="4" fill="#0" id="circle67"/>
	<circle cx="283.533" cy="600.564" r="4" fill="#0" id="circle68"/>
	<circle cx="283.533" cy="709.649" r="4" fill="#0" id="circle69"/>
	<circle cx="286.942" cy="852.825" r="4" fill="#0" id="circle70"/>
	<circle cx="297.168" cy="4" r="4" fill="#0" id="circle71"/>
	<circle cx="300.577" cy="457.388" r="4" fill="#0" id="circle72"/>
	<circle cx="300.577" cy="569.883" r="4" fill="#0" id="circle73"/>
	<circle cx="300.577" cy="678.969" r="4" fill="#0" id="circle74"/>
	<circle cx="310.804" cy="781.237" r="4" fill="#0" id="circle75"/>
	<circle cx="317.622" cy="600.564" r="4" fill="#0" id="circle76"/>
	<circle cx="317.622" cy="709.649" r="4" fill="#0" id="circle77"/>
	<circle cx="321.031" cy="852.825" r="4" fill="#0" id="circle78"/>
	<circle cx="331.258" cy="4" r="4" fill="#0" id="circle79"/>
	<circle cx="334.667" cy="457.388" r="4" fill="#0" id="circle80"/>
	<circle cx="334.667" cy="569.883" r="4" fill="#0" id="circle81"/>
	<circle cx="334.667" cy="678.969" r="4" fill="#0" id="circle82"/>
	<circle cx="338.076" cy="801.691" r="4" fill="#0" id="circle83"/>
	<circle cx="351.711" cy="600.564" r="4" fill="#0" id="circle84"/>
	<circle cx="351.711" cy="709.649" r="4" fill="#0" id="circle85"/>
	<circle cx="355.12" cy="852.825" r="4" fill="#0" id="circle86"/>
	<circle cx="365.347" cy="4" r="4" fill="#0" id="circle87"/>
	<circle cx="365.347" cy="781.237" r="4" fill="#0" id="circle88"/>
	<circle cx="368.756" cy="457.388" r="4" fill="#0" id="circle89"/>
	<circle cx="368.756" cy="569.883" r="4" fill="#0" id="circle90"/>
	<circle cx="368.756" cy="678.969" r="4" fill="#0" id="circle91"/>
	<circle cx="385.801" cy="600.564" r="4" fill="#0" id="circle92"/>
	<circle cx="385.801" cy="709.649" r="4" fill="#0" id="circle93"/>
	<circle cx="389.21" cy="852.825" r="4" fill="#0" id="circle94"/>
	<circle cx="392.619" cy="801.691" r="4" fill="#0" id="circle95"/>
	<circle cx="399.436" cy="4" r="4" fill="#0" id="circle96"/>
	<circle cx="399.436" cy="474.433" r="4" fill="#0" id="circle97"/>
	<circle cx="399.436" cy="508.522" r="4" fill="#0" id="circle98"/>
	<circle cx="399.436" cy="542.612" r="4" fill="#0" id="circle99"/>
	<circle cx="399.436" cy="634.653" r="4" fill="#0" id="circle100"/>
	<circle cx="399.436" cy="743.739" r="4" fill="#0" id="circle101"/>
	<circle cx="423.299" cy="852.825" r="4" fill="#0" id="circle102"/>
	<circle cx="433.526" cy="4" r="4" fill="#0" id="circle103"/>
	<circle cx="457.388" cy="852.825" r="4" fill="#0" id="circle104"/>
	<circle cx="467.615" cy="4" r="4" fill="#0" id="circle105"/>
	<circle cx="491.478" cy="852.825" r="4" fill="#0" id="circle106"/>
	<circle cx="501.704" cy="4" r="4" fill="#0" id="circle107"/>
	<circle cx="525.567" cy="852.825" r="4" fill="#0" id="circle108"/>
	<circle cx="535.794" cy="4" r="4" fill="#0" id="circle109"/>
	<circle cx="559.656" cy="852.825" r="4" fill="#0" id="circle110"/>
	<circle cx="569.883" cy="4" r="4" fill="#0" id="circle111"/>
	<circle cx="593.746" cy="460.797" r="4" fill="#0" id="circle112"/>
	<circle cx="593.746" cy="494.887" r="4" fill="#0" id="circle113"/>
	<circle cx="593.746" cy="528.976" r="4" fill="#0" id="circle114"/>
	<circle cx="593.746" cy="563.065" r="4" fill="#0" id="circle115"/>
	<circle cx="593.746" cy="603.973" r="4" fill="#0" id="circle116"/>
	<circle cx="593.746" cy="638.062" r="4" fill="#0" id="circle117"/>
	<circle cx="593.746" cy="672.151" r="4" fill="#0" id="circle118"/>
	<circle cx="593.746" cy="713.058" r="4" fill="#0" id="circle119"/>
	<circle cx="593.746" cy="747.148" r="4" fill="#0" id="circle120"/>
	<circle cx="593.746" cy="852.825" r="4" fill="#0" id="circle121"/>
	<circle cx="597.155" cy="781.237" r="4" fill="#0" id="circle122"/>
	<circle cx="603.973" cy="4" r="4" fill="#0" id="circle123"/>
	<circle cx="624.426" cy="801.691" r="4" fill="#0" id="circle124"/>
	<circle cx="627.835" cy="457.388" r="4" fill="#0" id="circle125"/>
	<circle cx="627.835" cy="569.883" r="4" fill="#0" id="circle126"/>
	<circle cx="627.835" cy="678.969" r="4" fill="#0" id="circle127"/>
	<circle cx="627.835" cy="852.825" r="4" fill="#0" id="circle128"/>
	<circle cx="638.062" cy="4" r="4" fill="#0" id="circle129"/>
	<circle cx="644.88" cy="600.564" r="4" fill="#0" id="circle130"/>
	<circle cx="644.88" cy="709.649" r="4" fill="#0" id="circle131"/>
	<circle cx="651.698" cy="781.237" r="4" fill="#0" id="circle132"/>
	<circle cx="661.924" cy="457.388" r="4" fill="#0" id="circle133"/>
	<circle cx="661.924" cy="569.883" r="4" fill="#0" id="circle134"/>
	<circle cx="661.924" cy="678.969" r="4" fill="#0" id="circle135"/>
	<circle cx="661.924" cy="852.825" r="4" fill="#0" id="circle136"/>
	<circle cx="672.151" cy="4" r="4" fill="#0" id="circle137"/>
	<circle cx="678.969" cy="600.564" r="4" fill="#0" id="circle138"/>
	<circle cx="678.969" cy="709.649" r="4" fill="#0" id="circle139"/>
	<circle cx="685.787" cy="781.237" r="4" fill="#0" id="circle140"/>
	<circle cx="696.014" cy="457.388" r="4" fill="#0" id="circle141"/>
	<circle cx="696.014" cy="569.883" r="4" fill="#0" id="circle142"/>
	<circle cx="696.014" cy="678.969" r="4" fill="#0" id="circle143"/>
	<circle cx="696.014" cy="852.825" r="4" fill="#0" id="circle144"/>
	<circle cx="706.241" cy="4" r="4" fill="#0" id="circle145"/>
	<circle cx="713.058" cy="600.564" r="4" fill="#0" id="circle146"/>
	<circle cx="713.058" cy="709.649" r="4" fill="#0" id="circle147"/>
	<circle cx="719.876" cy="781.237" r="4" fill="#0" id="circle148"/>
	<circle cx="730.103" cy="457.388" r="4" fill="#0" id="circle149"/>
	<circle cx="730.103" cy="569.883" r="4" fill="#0" id="circle150"/>
	<circle cx="730.103" cy="678.969" r="4" fill="#0" id="circle151"/>
	<circle cx="730.103" cy="852.825" r="4" fill="#0" id="circle152"/>
	<circle cx="740.33" cy="4" r="4" fill="#0" id="circle153"/>
	<circle cx="747.148" cy="600.564" r="4" fill="#0" id="circle154"/>
	<circle cx="747.148" cy="709.649" r="4" fill="#0" id="circle155"/>
	<circle cx="753.966" cy="781.237" r="4" fill="#0" id="circle156"/>
	<circle cx="764.192" cy="457.388" r="4" fill="#0" id="circle157"/>
	<circle cx="764.192" cy="569.883" r="4" fill="#0" id="circle158"/>
	<circle cx="764.192" cy="678.969" r="4" fill="#0" id="circle159"/>
	<circle cx="764.192" cy="852.825" r="4" fill="#0" id="circle160"/>
	<circle cx="774.419" cy="4" r="4" fill="#0" id="circle161"/>
	<circle cx="781.237" cy="600.564" r="4" fill="#0" id="circle162"/>
	<circle cx="781.237" cy="709.649" r="4" fill="#0" id="circle163"/>
	<circle cx="788.055" cy="781.237" r="4" fill="#0" id="circle164"/>
	<circle cx="798.282" cy="457.388" r="4" fill="#0" id="circle165"/>
	<circle cx="798.282" cy="569.883" r="4" fill="#0" id="circle166"/>
	<circle cx="798.282" cy="678.969" r="4" fill="#0" id="circle167"/>
	<circle cx="798.282" cy="852.825" r="4" fill="#0" id="circle168"/>
	<circle cx="808.509" cy="4" r="4" fill="#0" id="circle169"/>
	<circle cx="815.326" cy="600.564" r="4" fill="#0" id="circle170"/>
	<circle cx="815.326" cy="709.649" r="4" fill="#0" id="circle171"/>
	<circle cx="822.144" cy="781.237" r="4" fill="#0" id="circle172"/>
	<circle cx="832.371" cy="457.388" r="4" fill="#0" id="circle173"/>
	<circle cx="832.371" cy="569.883" r="4" fill="#0" id="circle174"/>
	<circle cx="832.371" cy="678.969" r="4" fill="#0" id="circle175"/>
	<circle cx="832.371" cy="852.825" r="4" fill="#0" id="circle176"/>
	<circle cx="842.598" cy="4" r="4" fill="#0" id="circle177"/>
	<circle cx="849.416" cy="600.564" r="4" fill="#0" id="circle178"/>
	<circle cx="849.416" cy="709.649" r="4" fill="#0" id="circle179"/>
	<circle cx="856.234" cy="781.237" r="4" fill="#0" id="circle180"/>
	<circle cx="866.46" cy="457.388" r="4" fill="#0" id="circle181"/>
	<circle cx="866.46" cy="569.883" r="4" fill="#0" id="circle182"/>
	<circle cx="866.46" cy="678.969" r="4" fill="#0" id="circle183"/>
	<circle cx="866.46" cy="852.825" r="4" fill="#0" id="circle184"/>
	<circle cx="876.687" cy="4" r="4" fill="#0" id="circle185"/>
	<circle cx="883.505" cy="600.564" r="4" fill="#0" id="circle186"/>
	<circle cx="883.505" cy="709.649" r="4" fill="#0" id="circle187"/>
	<circle cx="890.323" cy="781.237" r="4" fill="#0" id="circle188"/>
	<circle cx="900.55" cy="457.388" r="4" fill="#0" id="circle189"/>
	<circle cx="900.55" cy="569.883" r="4" fill="#0" id="circle190"/>
	<circle cx="900.55" cy="678.969" r="4" fill="#0" id="circle191"/>
	<circle cx="900.55" cy="852.825" r="4" fill="#0" id="circle192"/>
	<circle cx="910.777" cy="14.2268" r="4" fill="#0" id="circle193"/>
	<circle cx="910.777" cy="423.299" r="4" fill="#0" id="circle194"/>
	<circle cx="914.186" cy="48.3162" r="4" fill="#0" id="circle195"/>
	<circle cx="914.186" cy="82.4055" r="4" fill="#0" id="circle196"/>
	<circle cx="914.186" cy="116.495" r="4" fill="#0" id="circle197"/>
	<circle cx="914.186" cy="150.584" r="4" fill="#0" id="circle198"/>
	<circle cx="914.186" cy="184.674" r="4" fill="#0" id="circle199"/>
	<circle cx="914.186" cy="218.763" r="4" fill="#0" id="circle200"/>
	<circle cx="914.186" cy="252.852" r="4" fill="#0" id="circle201"/>
	<circle cx="914.186" cy="286.942" r="4" fill="#0" id="circle202"/>
	<circle cx="914.186" cy="321.031" r="4" fill="#0" id="circle203"/>
	<circle cx="914.186" cy="355.12" r="4" fill="#0" id="circle204"/>
	<circle cx="914.186" cy="389.21" r="4" fill="#0" id="circle205"/>
	<circle cx="917.595" cy="600.564" r="4" fill="#0" id="circle206"/>
	<circle cx="917.595" cy="709.649" r="4" fill="#0" id="circle207"/>
	<circle cx="924.412" cy="781.237" r="4" fill="#0" id="circle208"/>
	<circle cx="934.639" cy="569.883" r="4" fill="#0" id="circle209"/>
	<circle cx="934.639" cy="678.969" r="4" fill="#0" id="circle210"/>
	<circle cx="934.639" cy="852.825" r="4" fill="#0" id="circle211"/>
	<circle cx="958.502" cy="781.237" r="4" fill="#0" id="circle212"/>
	<circle cx="968.729" cy="859.643" r="4" fill="#0" id="circle213"/>
	<circle cx="992.591" cy="791.464" r="4" fill="#0" id="circle214"/>
	<circle cx="996" cy="825.553" r="4" fill="#0" id="circle215"/>
	</g>
</svg>