<?xml version="1.0" encoding="UTF-8" standalone="no"?>
<!-- Created with CurveBenchmark -->
<svg
	xmlns:dc="http://purl.org/dc/elements/1.1/"
	xmlns:cc="http://creativecommons.org/ns#"
	xmlns:rdf="http://www.w3.org/1999/02/22-rdf-syntax-ns#"
	xmlns:svg="http://www.w3.org/2000/svg"
	xmlns="http://www.w3.org/2000/svg"
	xmlns:sodipodi="http://sodipodi.sourceforge.net/DTD/sodipodi-0.dtd"
	xmlns:inkscape="http://www.inkscape.org/namespaces/inkscape"
	width="1000"
	height="1000"
	id="svg2"
	version="1.1"
	sodipodi:docname="manifold/connect2d-car-09.png.txt">
<defs
	id="defs4" />
<metadata
	id="metadata7">
	<rdf:RDF>
		<cc:Work
			rdf:about="">
			<dc:format>image/svg+xml</dc:format>
			<dc:type
				rdf:resource="http://purl.org/dc/dcmitype/StillImage" />
			<dc:title></dc:title>
		</cc:Work>
	</rdf:RDF>
</metadata>
<g
	inkscape:label="Layer 1"
	inkscape:groupmode="layer"
	id="layer1">
	<path style="fill:none;stroke:red;stroke-width:1px;stroke-linecap:butt;stroke-linejoin:miter;stroke-opacity:1" d="M 996,191.414 990.615,209.724 z" id="boundary" inkscape:connector-curvature="0" />
	<path style="fill:none;stroke:red;stroke-width:1px;stroke-linecap:butt;stroke-linejoin:miter;stroke-opacity:1" d="M 990.615,209.724 983.075,223.726 z" id="boundary" inkscape:connector-curvature="0" />
	<path style="fill:none;stroke:red;stroke-width:1px;stroke-linecap:butt;stroke-linejoin:miter;stroke-opacity:1" d="M 983.075,223.726 974.458,231.266 z" id="boundary" inkscape:connector-curvature="0" />
	<path style="fill:none;stroke:red;stroke-width:1px;stroke-linecap:butt;stroke-linejoin:miter;stroke-opacity:1" d="M 974.458,231.266 974.458,242.037 z" id="boundary" inkscape:connector-curvature="0" />
	<path style="fill:none;stroke:red;stroke-width:1px;stroke-linecap:butt;stroke-linejoin:miter;stroke-opacity:1" d="M 974.458,242.037 974.458,252.808 z" id="boundary" inkscape:connector-curvature="0" />
	<path style="fill:none;stroke:red;stroke-width:1px;stroke-linecap:butt;stroke-linejoin:miter;stroke-opacity:1" d="M 974.458,252.808 969.073,263.579 z" id="boundary" inkscape:connector-curvature="0" />
	<path style="fill:none;stroke:red;stroke-width:1px;stroke-linecap:butt;stroke-linejoin:miter;stroke-opacity:1" d="M 969.073,263.579 963.687,279.735 z" id="boundary" inkscape:connector-curvature="0" />
	<path style="fill:none;stroke:red;stroke-width:1px;stroke-linecap:butt;stroke-linejoin:miter;stroke-opacity:1" d="M 963.687,279.735 958.302,290.506 z" id="boundary" inkscape:connector-curvature="0" />
	<path style="fill:none;stroke:red;stroke-width:1px;stroke-linecap:butt;stroke-linejoin:miter;stroke-opacity:1" d="M 958.302,290.506 956.148,304.508 z" id="boundary" inkscape:connector-curvature="0" />
	<path style="fill:none;stroke:red;stroke-width:1px;stroke-linecap:butt;stroke-linejoin:miter;stroke-opacity:1" d="M 956.148,304.508 950.762,315.279 z" id="boundary" inkscape:connector-curvature="0" />
	<path style="fill:none;stroke:red;stroke-width:1px;stroke-linecap:butt;stroke-linejoin:miter;stroke-opacity:1" d="M 950.762,315.279 942.145,322.819 z" id="boundary" inkscape:connector-curvature="0" />
	<path style="fill:none;stroke:red;stroke-width:1px;stroke-linecap:butt;stroke-linejoin:miter;stroke-opacity:1" d="M 942.145,322.819 931.375,328.204 z" id="boundary" inkscape:connector-curvature="0" />
	<path style="fill:none;stroke:red;stroke-width:1px;stroke-linecap:butt;stroke-linejoin:miter;stroke-opacity:1" d="M 931.375,328.204 920.604,333.59 z" id="boundary" inkscape:connector-curvature="0" />
	<path style="fill:none;stroke:red;stroke-width:1px;stroke-linecap:butt;stroke-linejoin:miter;stroke-opacity:1" d="M 920.604,333.59 920.604,344.36 z" id="boundary" inkscape:connector-curvature="0" />
	<path style="fill:none;stroke:red;stroke-width:1px;stroke-linecap:butt;stroke-linejoin:miter;stroke-opacity:1" d="M 920.604,344.36 920.604,355.131 z" id="boundary" inkscape:connector-curvature="0" />
	<path style="fill:none;stroke:red;stroke-width:1px;stroke-linecap:butt;stroke-linejoin:miter;stroke-opacity:1" d="M 920.604,355.131 915.218,365.902 z" id="boundary" inkscape:connector-curvature="0" />
	<path style="fill:none;stroke:red;stroke-width:1px;stroke-linecap:butt;stroke-linejoin:miter;stroke-opacity:1" d="M 915.218,365.902 911.987,380.982 z" id="boundary" inkscape:connector-curvature="0" />
	<path style="fill:none;stroke:red;stroke-width:1px;stroke-linecap:butt;stroke-linejoin:miter;stroke-opacity:1" d="M 911.987,380.982 906.602,391.752 z" id="boundary" inkscape:connector-curvature="0" />
	<path style="fill:none;stroke:red;stroke-width:1px;stroke-linecap:butt;stroke-linejoin:miter;stroke-opacity:1" d="M 906.602,391.752 901.216,402.523 z" id="boundary" inkscape:connector-curvature="0" />
	<path style="fill:none;stroke:red;stroke-width:1px;stroke-linecap:butt;stroke-linejoin:miter;stroke-opacity:1" d="M 901.216,402.523 892.599,411.14 z" id="boundary" inkscape:connector-curvature="0" />
	<path style="fill:none;stroke:red;stroke-width:1px;stroke-linecap:butt;stroke-linejoin:miter;stroke-opacity:1" d="M 892.599,411.14 883.983,419.757 z" id="boundary" inkscape:connector-curvature="0" />
	<path style="fill:none;stroke:red;stroke-width:1px;stroke-linecap:butt;stroke-linejoin:miter;stroke-opacity:1" d="M 883.983,419.757 874.289,425.142 z" id="boundary" inkscape:connector-curvature="0" />
	<path style="fill:none;stroke:red;stroke-width:1px;stroke-linecap:butt;stroke-linejoin:miter;stroke-opacity:1" d="M 874.289,425.142 865.672,432.682 z" id="boundary" inkscape:connector-curvature="0" />
	<path style="fill:none;stroke:red;stroke-width:1px;stroke-linecap:butt;stroke-linejoin:miter;stroke-opacity:1" d="M 865.672,432.682 854.901,438.067 z" id="boundary" inkscape:connector-curvature="0" />
	<path style="fill:none;stroke:red;stroke-width:1px;stroke-linecap:butt;stroke-linejoin:miter;stroke-opacity:1" d="M 854.901,438.067 844.13,441.299 z" id="boundary" inkscape:connector-curvature="0" />
	<path style="fill:none;stroke:red;stroke-width:1px;stroke-linecap:butt;stroke-linejoin:miter;stroke-opacity:1" d="M 844.13,441.299 833.359,441.299 z" id="boundary" inkscape:connector-curvature="0" />
	<path style="fill:none;stroke:red;stroke-width:1px;stroke-linecap:butt;stroke-linejoin:miter;stroke-opacity:1" d="M 833.359,441.299 823.666,435.913 z" id="boundary" inkscape:connector-curvature="0" />
	<path style="fill:none;stroke:red;stroke-width:1px;stroke-linecap:butt;stroke-linejoin:miter;stroke-opacity:1" d="M 823.666,435.913 812.895,432.682 z" id="boundary" inkscape:connector-curvature="0" />
	<path style="fill:none;stroke:red;stroke-width:1px;stroke-linecap:butt;stroke-linejoin:miter;stroke-opacity:1" d="M 812.895,432.682 802.124,428.374 z" id="boundary" inkscape:connector-curvature="0" />
	<path style="fill:none;stroke:red;stroke-width:1px;stroke-linecap:butt;stroke-linejoin:miter;stroke-opacity:1" d="M 802.124,428.374 794.584,419.757 z" id="boundary" inkscape:connector-curvature="0" />
	<path style="fill:none;stroke:red;stroke-width:1px;stroke-linecap:butt;stroke-linejoin:miter;stroke-opacity:1" d="M 794.584,419.757 784.89,414.371 z" id="boundary" inkscape:connector-curvature="0" />
	<path style="fill:none;stroke:red;stroke-width:1px;stroke-linecap:butt;stroke-linejoin:miter;stroke-opacity:1" d="M 784.89,414.371 774.119,414.371 z" id="boundary" inkscape:connector-curvature="0" />
	<path style="fill:none;stroke:red;stroke-width:1px;stroke-linecap:butt;stroke-linejoin:miter;stroke-opacity:1" d="M 774.119,414.371 763.349,414.371 z" id="boundary" inkscape:connector-curvature="0" />
	<path style="fill:none;stroke:red;stroke-width:1px;stroke-linecap:butt;stroke-linejoin:miter;stroke-opacity:1" d="M 763.349,414.371 753.655,419.757 z" id="boundary" inkscape:connector-curvature="0" />
	<path style="fill:none;stroke:red;stroke-width:1px;stroke-linecap:butt;stroke-linejoin:miter;stroke-opacity:1" d="M 753.655,419.757 742.884,419.757 z" id="boundary" inkscape:connector-curvature="0" />
	<path style="fill:none;stroke:red;stroke-width:1px;stroke-linecap:butt;stroke-linejoin:miter;stroke-opacity:1" d="M 742.884,419.757 732.113,419.757 z" id="boundary" inkscape:connector-curvature="0" />
	<path style="fill:none;stroke:red;stroke-width:1px;stroke-linecap:butt;stroke-linejoin:miter;stroke-opacity:1" d="M 732.113,419.757 721.342,419.757 z" id="boundary" inkscape:connector-curvature="0" />
	<path style="fill:none;stroke:red;stroke-width:1px;stroke-linecap:butt;stroke-linejoin:miter;stroke-opacity:1" d="M 721.342,419.757 710.571,419.757 z" id="boundary" inkscape:connector-curvature="0" />
	<path style="fill:none;stroke:red;stroke-width:1px;stroke-linecap:butt;stroke-linejoin:miter;stroke-opacity:1" d="M 710.571,419.757 699.8,419.757 z" id="boundary" inkscape:connector-curvature="0" />
	<path style="fill:none;stroke:red;stroke-width:1px;stroke-linecap:butt;stroke-linejoin:miter;stroke-opacity:1" d="M 699.8,419.757 689.029,419.757 z" id="boundary" inkscape:connector-curvature="0" />
	<path style="fill:none;stroke:red;stroke-width:1px;stroke-linecap:butt;stroke-linejoin:miter;stroke-opacity:1" d="M 689.029,419.757 678.258,419.757 z" id="boundary" inkscape:connector-curvature="0" />
	<path style="fill:none;stroke:red;stroke-width:1px;stroke-linecap:butt;stroke-linejoin:miter;stroke-opacity:1" d="M 678.258,419.757 667.488,419.757 z" id="boundary" inkscape:connector-curvature="0" />
	<path style="fill:none;stroke:red;stroke-width:1px;stroke-linecap:butt;stroke-linejoin:miter;stroke-opacity:1" d="M 667.488,419.757 656.717,419.757 z" id="boundary" inkscape:connector-curvature="0" />
	<path style="fill:none;stroke:red;stroke-width:1px;stroke-linecap:butt;stroke-linejoin:miter;stroke-opacity:1" d="M 656.717,419.757 645.946,419.757 z" id="boundary" inkscape:connector-curvature="0" />
	<path style="fill:none;stroke:red;stroke-width:1px;stroke-linecap:butt;stroke-linejoin:miter;stroke-opacity:1" d="M 645.946,419.757 635.175,419.757 z" id="boundary" inkscape:connector-curvature="0" />
	<path style="fill:none;stroke:red;stroke-width:1px;stroke-linecap:butt;stroke-linejoin:miter;stroke-opacity:1" d="M 635.175,419.757 624.404,419.757 z" id="boundary" inkscape:connector-curvature="0" />
	<path style="fill:none;stroke:red;stroke-width:1px;stroke-linecap:butt;stroke-linejoin:miter;stroke-opacity:1" d="M 624.404,419.757 613.633,419.757 z" id="boundary" inkscape:connector-curvature="0" />
	<path style="fill:none;stroke:red;stroke-width:1px;stroke-linecap:butt;stroke-linejoin:miter;stroke-opacity:1" d="M 613.633,419.757 602.862,419.757 z" id="boundary" inkscape:connector-curvature="0" />
	<path style="fill:none;stroke:red;stroke-width:1px;stroke-linecap:butt;stroke-linejoin:miter;stroke-opacity:1" d="M 602.862,419.757 592.091,419.757 z" id="boundary" inkscape:connector-curvature="0" />
	<path style="fill:none;stroke:red;stroke-width:1px;stroke-linecap:butt;stroke-linejoin:miter;stroke-opacity:1" d="M 592.091,419.757 581.32,419.757 z" id="boundary" inkscape:connector-curvature="0" />
	<path style="fill:none;stroke:red;stroke-width:1px;stroke-linecap:butt;stroke-linejoin:miter;stroke-opacity:1" d="M 581.32,419.757 570.549,419.757 z" id="boundary" inkscape:connector-curvature="0" />
	<path style="fill:none;stroke:red;stroke-width:1px;stroke-linecap:butt;stroke-linejoin:miter;stroke-opacity:1" d="M 570.549,419.757 563.01,428.374 z" id="boundary" inkscape:connector-curvature="0" />
	<path style="fill:none;stroke:red;stroke-width:1px;stroke-linecap:butt;stroke-linejoin:miter;stroke-opacity:1" d="M 563.01,428.374 554.393,435.913 z" id="boundary" inkscape:connector-curvature="0" />
	<path style="fill:none;stroke:red;stroke-width:1px;stroke-linecap:butt;stroke-linejoin:miter;stroke-opacity:1" d="M 554.393,435.913 546.853,444.53 z" id="boundary" inkscape:connector-curvature="0" />
	<path style="fill:none;stroke:red;stroke-width:1px;stroke-linecap:butt;stroke-linejoin:miter;stroke-opacity:1" d="M 546.853,444.53 538.237,452.069 z" id="boundary" inkscape:connector-curvature="0" />
	<path style="fill:none;stroke:red;stroke-width:1px;stroke-linecap:butt;stroke-linejoin:miter;stroke-opacity:1" d="M 538.237,452.069 533.928,462.84 z" id="boundary" inkscape:connector-curvature="0" />
	<path style="fill:none;stroke:red;stroke-width:1px;stroke-linecap:butt;stroke-linejoin:miter;stroke-opacity:1" d="M 533.928,462.84 524.235,468.226 z" id="boundary" inkscape:connector-curvature="0" />
	<path style="fill:none;stroke:red;stroke-width:1px;stroke-linecap:butt;stroke-linejoin:miter;stroke-opacity:1" d="M 524.235,468.226 514.541,473.611 z" id="boundary" inkscape:connector-curvature="0" />
	<path style="fill:none;stroke:red;stroke-width:1px;stroke-linecap:butt;stroke-linejoin:miter;stroke-opacity:1" d="M 514.541,473.611 503.77,473.611 z" id="boundary" inkscape:connector-curvature="0" />
	<path style="fill:none;stroke:red;stroke-width:1px;stroke-linecap:butt;stroke-linejoin:miter;stroke-opacity:1" d="M 503.77,473.611 492.999,473.611 z" id="boundary" inkscape:connector-curvature="0" />
	<path style="fill:none;stroke:red;stroke-width:1px;stroke-linecap:butt;stroke-linejoin:miter;stroke-opacity:1" d="M 492.999,473.611 482.228,473.611 z" id="boundary" inkscape:connector-curvature="0" />
	<path style="fill:none;stroke:red;stroke-width:1px;stroke-linecap:butt;stroke-linejoin:miter;stroke-opacity:1" d="M 482.228,473.611 472.534,468.226 z" id="boundary" inkscape:connector-curvature="0" />
	<path style="fill:none;stroke:red;stroke-width:1px;stroke-linecap:butt;stroke-linejoin:miter;stroke-opacity:1" d="M 472.534,468.226 461.763,468.226 z" id="boundary" inkscape:connector-curvature="0" />
	<path style="fill:none;stroke:red;stroke-width:1px;stroke-linecap:butt;stroke-linejoin:miter;stroke-opacity:1" d="M 461.763,468.226 450.992,464.995 z" id="boundary" inkscape:connector-curvature="0" />
	<path style="fill:none;stroke:red;stroke-width:1px;stroke-linecap:butt;stroke-linejoin:miter;stroke-opacity:1" d="M 450.992,464.995 441.299,459.609 z" id="boundary" inkscape:connector-curvature="0" />
	<path style="fill:none;stroke:red;stroke-width:1px;stroke-linecap:butt;stroke-linejoin:miter;stroke-opacity:1" d="M 441.299,459.609 434.836,450.992 z" id="boundary" inkscape:connector-curvature="0" />
	<path style="fill:none;stroke:red;stroke-width:1px;stroke-linecap:butt;stroke-linejoin:miter;stroke-opacity:1" d="M 434.836,450.992 429.451,441.299 z" id="boundary" inkscape:connector-curvature="0" />
	<path style="fill:none;stroke:red;stroke-width:1px;stroke-linecap:butt;stroke-linejoin:miter;stroke-opacity:1" d="M 429.451,441.299 427.296,430.528 z" id="boundary" inkscape:connector-curvature="0" />
	<path style="fill:none;stroke:red;stroke-width:1px;stroke-linecap:butt;stroke-linejoin:miter;stroke-opacity:1" d="M 427.296,430.528 424.065,419.757 z" id="boundary" inkscape:connector-curvature="0" />
	<path style="fill:none;stroke:red;stroke-width:1px;stroke-linecap:butt;stroke-linejoin:miter;stroke-opacity:1" d="M 424.065,419.757 414.371,414.371 z" id="boundary" inkscape:connector-curvature="0" />
	<path style="fill:none;stroke:red;stroke-width:1px;stroke-linecap:butt;stroke-linejoin:miter;stroke-opacity:1" d="M 414.371,414.371 403.6,414.371 z" id="boundary" inkscape:connector-curvature="0" />
	<path style="fill:none;stroke:red;stroke-width:1px;stroke-linecap:butt;stroke-linejoin:miter;stroke-opacity:1" d="M 403.6,414.371 392.83,419.757 z" id="boundary" inkscape:connector-curvature="0" />
	<path style="fill:none;stroke:red;stroke-width:1px;stroke-linecap:butt;stroke-linejoin:miter;stroke-opacity:1" d="M 392.83,419.757 382.059,419.757 z" id="boundary" inkscape:connector-curvature="0" />
	<path style="fill:none;stroke:red;stroke-width:1px;stroke-linecap:butt;stroke-linejoin:miter;stroke-opacity:1" d="M 382.059,419.757 371.288,419.757 z" id="boundary" inkscape:connector-curvature="0" />
	<path style="fill:none;stroke:red;stroke-width:1px;stroke-linecap:butt;stroke-linejoin:miter;stroke-opacity:1" d="M 371.288,419.757 360.517,419.757 z" id="boundary" inkscape:connector-curvature="0" />
	<path style="fill:none;stroke:red;stroke-width:1px;stroke-linecap:butt;stroke-linejoin:miter;stroke-opacity:1" d="M 360.517,419.757 349.746,419.757 z" id="boundary" inkscape:connector-curvature="0" />
	<path style="fill:none;stroke:red;stroke-width:1px;stroke-linecap:butt;stroke-linejoin:miter;stroke-opacity:1" d="M 349.746,419.757 338.975,419.757 z" id="boundary" inkscape:connector-curvature="0" />
	<path style="fill:none;stroke:red;stroke-width:1px;stroke-linecap:butt;stroke-linejoin:miter;stroke-opacity:1" d="M 338.975,419.757 328.204,419.757 z" id="boundary" inkscape:connector-curvature="0" />
	<path style="fill:none;stroke:red;stroke-width:1px;stroke-linecap:butt;stroke-linejoin:miter;stroke-opacity:1" d="M 328.204,419.757 317.433,419.757 z" id="boundary" inkscape:connector-curvature="0" />
	<path style="fill:none;stroke:red;stroke-width:1px;stroke-linecap:butt;stroke-linejoin:miter;stroke-opacity:1" d="M 317.433,419.757 306.662,419.757 z" id="boundary" inkscape:connector-curvature="0" />
	<path style="fill:none;stroke:red;stroke-width:1px;stroke-linecap:butt;stroke-linejoin:miter;stroke-opacity:1" d="M 306.662,419.757 295.891,425.142 z" id="boundary" inkscape:connector-curvature="0" />
	<path style="fill:none;stroke:red;stroke-width:1px;stroke-linecap:butt;stroke-linejoin:miter;stroke-opacity:1" d="M 295.891,425.142 285.121,425.142 z" id="boundary" inkscape:connector-curvature="0" />
	<path style="fill:none;stroke:red;stroke-width:1px;stroke-linecap:butt;stroke-linejoin:miter;stroke-opacity:1" d="M 285.121,425.142 274.35,425.142 z" id="boundary" inkscape:connector-curvature="0" />
	<path style="fill:none;stroke:red;stroke-width:1px;stroke-linecap:butt;stroke-linejoin:miter;stroke-opacity:1" d="M 274.35,425.142 263.579,425.142 z" id="boundary" inkscape:connector-curvature="0" />
	<path style="fill:none;stroke:red;stroke-width:1px;stroke-linecap:butt;stroke-linejoin:miter;stroke-opacity:1" d="M 263.579,425.142 252.808,425.142 z" id="boundary" inkscape:connector-curvature="0" />
	<path style="fill:none;stroke:red;stroke-width:1px;stroke-linecap:butt;stroke-linejoin:miter;stroke-opacity:1" d="M 252.808,425.142 242.037,425.142 z" id="boundary" inkscape:connector-curvature="0" />
	<path style="fill:none;stroke:red;stroke-width:1px;stroke-linecap:butt;stroke-linejoin:miter;stroke-opacity:1" d="M 242.037,425.142 231.266,425.142 z" id="boundary" inkscape:connector-curvature="0" />
	<path style="fill:none;stroke:red;stroke-width:1px;stroke-linecap:butt;stroke-linejoin:miter;stroke-opacity:1" d="M 231.266,425.142 220.495,425.142 z" id="boundary" inkscape:connector-curvature="0" />
	<path style="fill:none;stroke:red;stroke-width:1px;stroke-linecap:butt;stroke-linejoin:miter;stroke-opacity:1" d="M 220.495,425.142 209.724,425.142 z" id="boundary" inkscape:connector-curvature="0" />
	<path style="fill:none;stroke:red;stroke-width:1px;stroke-linecap:butt;stroke-linejoin:miter;stroke-opacity:1" d="M 209.724,425.142 198.953,425.142 z" id="boundary" inkscape:connector-curvature="0" />
	<path style="fill:none;stroke:red;stroke-width:1px;stroke-linecap:butt;stroke-linejoin:miter;stroke-opacity:1" d="M 198.953,425.142 188.182,425.142 z" id="boundary" inkscape:connector-curvature="0" />
	<path style="fill:none;stroke:red;stroke-width:1px;stroke-linecap:butt;stroke-linejoin:miter;stroke-opacity:1" d="M 188.182,425.142 177.412,425.142 z" id="boundary" inkscape:connector-curvature="0" />
	<path style="fill:none;stroke:red;stroke-width:1px;stroke-linecap:butt;stroke-linejoin:miter;stroke-opacity:1" d="M 177.412,425.142 166.641,425.142 z" id="boundary" inkscape:connector-curvature="0" />
	<path style="fill:none;stroke:red;stroke-width:1px;stroke-linecap:butt;stroke-linejoin:miter;stroke-opacity:1" d="M 166.641,425.142 155.87,425.142 z" id="boundary" inkscape:connector-curvature="0" />
	<path style="fill:none;stroke:red;stroke-width:1px;stroke-linecap:butt;stroke-linejoin:miter;stroke-opacity:1" d="M 155.87,425.142 145.099,430.528 z" id="boundary" inkscape:connector-curvature="0" />
	<path style="fill:none;stroke:red;stroke-width:1px;stroke-linecap:butt;stroke-linejoin:miter;stroke-opacity:1" d="M 145.099,430.528 134.328,435.913 z" id="boundary" inkscape:connector-curvature="0" />
	<path style="fill:none;stroke:red;stroke-width:1px;stroke-linecap:butt;stroke-linejoin:miter;stroke-opacity:1" d="M 134.328,435.913 124.634,441.299 z" id="boundary" inkscape:connector-curvature="0" />
	<path style="fill:none;stroke:red;stroke-width:1px;stroke-linecap:butt;stroke-linejoin:miter;stroke-opacity:1" d="M 124.634,441.299 113.863,439.144 z" id="boundary" inkscape:connector-curvature="0" />
	<path style="fill:none;stroke:red;stroke-width:1px;stroke-linecap:butt;stroke-linejoin:miter;stroke-opacity:1" d="M 113.863,439.144 103.092,435.913 z" id="boundary" inkscape:connector-curvature="0" />
	<path style="fill:none;stroke:red;stroke-width:1px;stroke-linecap:butt;stroke-linejoin:miter;stroke-opacity:1" d="M 103.092,435.913 93.3985,430.528 z" id="boundary" inkscape:connector-curvature="0" />
	<path style="fill:none;stroke:red;stroke-width:1px;stroke-linecap:butt;stroke-linejoin:miter;stroke-opacity:1" d="M 93.3985,430.528 82.6276,430.528 z" id="boundary" inkscape:connector-curvature="0" />
	<path style="fill:none;stroke:red;stroke-width:1px;stroke-linecap:butt;stroke-linejoin:miter;stroke-opacity:1" d="M 82.6276,430.528 72.9338,425.142 z" id="boundary" inkscape:connector-curvature="0" />
	<path style="fill:none;stroke:red;stroke-width:1px;stroke-linecap:butt;stroke-linejoin:miter;stroke-opacity:1" d="M 72.9338,425.142 63.24,419.757 z" id="boundary" inkscape:connector-curvature="0" />
	<path style="fill:none;stroke:red;stroke-width:1px;stroke-linecap:butt;stroke-linejoin:miter;stroke-opacity:1" d="M 63.24,419.757 57.8545,410.063 z" id="boundary" inkscape:connector-curvature="0" />
	<path style="fill:none;stroke:red;stroke-width:1px;stroke-linecap:butt;stroke-linejoin:miter;stroke-opacity:1" d="M 57.8545,410.063 52.4691,400.369 z" id="boundary" inkscape:connector-curvature="0" />
	<path style="fill:none;stroke:red;stroke-width:1px;stroke-linecap:butt;stroke-linejoin:miter;stroke-opacity:1" d="M 52.4691,400.369 44.9294,391.752 z" id="boundary" inkscape:connector-curvature="0" />
	<path style="fill:none;stroke:red;stroke-width:1px;stroke-linecap:butt;stroke-linejoin:miter;stroke-opacity:1" d="M 44.9294,391.752 36.3127,384.213 z" id="boundary" inkscape:connector-curvature="0" />
	<path style="fill:none;stroke:red;stroke-width:1px;stroke-linecap:butt;stroke-linejoin:miter;stroke-opacity:1" d="M 36.3127,384.213 30.9273,374.519 z" id="boundary" inkscape:connector-curvature="0" />
	<path style="fill:none;stroke:red;stroke-width:1px;stroke-linecap:butt;stroke-linejoin:miter;stroke-opacity:1" d="M 30.9273,374.519 25.5418,364.825 z" id="boundary" inkscape:connector-curvature="0" />
	<path style="fill:none;stroke:red;stroke-width:1px;stroke-linecap:butt;stroke-linejoin:miter;stroke-opacity:1" d="M 25.5418,364.825 22.3105,354.054 z" id="boundary" inkscape:connector-curvature="0" />
	<path style="fill:none;stroke:red;stroke-width:1px;stroke-linecap:butt;stroke-linejoin:miter;stroke-opacity:1" d="M 22.3105,354.054 20.1564,343.283 z" id="boundary" inkscape:connector-curvature="0" />
	<path style="fill:none;stroke:red;stroke-width:1px;stroke-linecap:butt;stroke-linejoin:miter;stroke-opacity:1" d="M 20.1564,343.283 20.1564,332.512 z" id="boundary" inkscape:connector-curvature="0" />
	<path style="fill:none;stroke:red;stroke-width:1px;stroke-linecap:butt;stroke-linejoin:miter;stroke-opacity:1" d="M 20.1564,332.512 20.1564,321.742 z" id="boundary" inkscape:connector-curvature="0" />
	<path style="fill:none;stroke:red;stroke-width:1px;stroke-linecap:butt;stroke-linejoin:miter;stroke-opacity:1" d="M 20.1564,321.742 20.1564,310.971 z" id="boundary" inkscape:connector-curvature="0" />
	<path style="fill:none;stroke:red;stroke-width:1px;stroke-linecap:butt;stroke-linejoin:miter;stroke-opacity:1" d="M 20.1564,310.971 20.1564,300.2 z" id="boundary" inkscape:connector-curvature="0" />
	<path style="fill:none;stroke:red;stroke-width:1px;stroke-linecap:butt;stroke-linejoin:miter;stroke-opacity:1" d="M 20.1564,300.2 20.1564,289.429 z" id="boundary" inkscape:connector-curvature="0" />
	<path style="fill:none;stroke:red;stroke-width:1px;stroke-linecap:butt;stroke-linejoin:miter;stroke-opacity:1" d="M 20.1564,289.429 20.1564,278.658 z" id="boundary" inkscape:connector-curvature="0" />
	<path style="fill:none;stroke:red;stroke-width:1px;stroke-linecap:butt;stroke-linejoin:miter;stroke-opacity:1" d="M 20.1564,278.658 14.7709,268.964 z" id="boundary" inkscape:connector-curvature="0" />
	<path style="fill:none;stroke:red;stroke-width:1px;stroke-linecap:butt;stroke-linejoin:miter;stroke-opacity:1" d="M 14.7709,268.964 9.38545,259.27 z" id="boundary" inkscape:connector-curvature="0" />
	<path style="fill:none;stroke:red;stroke-width:1px;stroke-linecap:butt;stroke-linejoin:miter;stroke-opacity:1" d="M 9.38545,259.27 4,249.577 z" id="boundary" inkscape:connector-curvature="0" />
	<path style="fill:none;stroke:red;stroke-width:1px;stroke-linecap:butt;stroke-linejoin:miter;stroke-opacity:1" d="M 4,249.577 9.38545,238.806 z" id="boundary" inkscape:connector-curvature="0" />
	<path style="fill:none;stroke:red;stroke-width:1px;stroke-linecap:butt;stroke-linejoin:miter;stroke-opacity:1" d="M 9.38545,238.806 18.0022,230.189 z" id="boundary" inkscape:connector-curvature="0" />
	<path style="fill:none;stroke:red;stroke-width:1px;stroke-linecap:butt;stroke-linejoin:miter;stroke-opacity:1" d="M 18.0022,230.189 26.6189,221.572 z" id="boundary" inkscape:connector-curvature="0" />
	<path style="fill:none;stroke:red;stroke-width:1px;stroke-linecap:butt;stroke-linejoin:miter;stroke-opacity:1" d="M 26.6189,221.572 37.3898,216.187 z" id="boundary" inkscape:connector-curvature="0" />
	<path style="fill:none;stroke:red;stroke-width:1px;stroke-linecap:butt;stroke-linejoin:miter;stroke-opacity:1" d="M 37.3898,216.187 48.1607,210.801 z" id="boundary" inkscape:connector-curvature="0" />
	<path style="fill:none;stroke:red;stroke-width:1px;stroke-linecap:butt;stroke-linejoin:miter;stroke-opacity:1" d="M 48.1607,210.801 56.7774,203.262 z" id="boundary" inkscape:connector-curvature="0" />
	<path style="fill:none;stroke:red;stroke-width:1px;stroke-linecap:butt;stroke-linejoin:miter;stroke-opacity:1" d="M 56.7774,203.262 66.4712,197.876 z" id="boundary" inkscape:connector-curvature="0" />
	<path style="fill:none;stroke:red;stroke-width:1px;stroke-linecap:butt;stroke-linejoin:miter;stroke-opacity:1" d="M 66.4712,197.876 76.165,192.491 z" id="boundary" inkscape:connector-curvature="0" />
	<path style="fill:none;stroke:red;stroke-width:1px;stroke-linecap:butt;stroke-linejoin:miter;stroke-opacity:1" d="M 76.165,192.491 85.8588,187.105 z" id="boundary" inkscape:connector-curvature="0" />
	<path style="fill:none;stroke:red;stroke-width:1px;stroke-linecap:butt;stroke-linejoin:miter;stroke-opacity:1" d="M 85.8588,187.105 95.5527,181.72 z" id="boundary" inkscape:connector-curvature="0" />
	<path style="fill:none;stroke:red;stroke-width:1px;stroke-linecap:butt;stroke-linejoin:miter;stroke-opacity:1" d="M 95.5527,181.72 105.246,176.334 z" id="boundary" inkscape:connector-curvature="0" />
	<path style="fill:none;stroke:red;stroke-width:1px;stroke-linecap:butt;stroke-linejoin:miter;stroke-opacity:1" d="M 105.246,176.334 116.017,176.334 z" id="boundary" inkscape:connector-curvature="0" />
	<path style="fill:none;stroke:red;stroke-width:1px;stroke-linecap:butt;stroke-linejoin:miter;stroke-opacity:1" d="M 116.017,176.334 125.711,170.949 z" id="boundary" inkscape:connector-curvature="0" />
	<path style="fill:none;stroke:red;stroke-width:1px;stroke-linecap:butt;stroke-linejoin:miter;stroke-opacity:1" d="M 125.711,170.949 135.405,165.564 z" id="boundary" inkscape:connector-curvature="0" />
	<path style="fill:none;stroke:red;stroke-width:1px;stroke-linecap:butt;stroke-linejoin:miter;stroke-opacity:1" d="M 135.405,165.564 145.099,160.178 z" id="boundary" inkscape:connector-curvature="0" />
	<path style="fill:none;stroke:red;stroke-width:1px;stroke-linecap:butt;stroke-linejoin:miter;stroke-opacity:1" d="M 145.099,160.178 154.793,154.793 z" id="boundary" inkscape:connector-curvature="0" />
	<path style="fill:none;stroke:red;stroke-width:1px;stroke-linecap:butt;stroke-linejoin:miter;stroke-opacity:1" d="M 154.793,154.793 165.564,154.793 z" id="boundary" inkscape:connector-curvature="0" />
	<path style="fill:none;stroke:red;stroke-width:1px;stroke-linecap:butt;stroke-linejoin:miter;stroke-opacity:1" d="M 165.564,154.793 175.257,149.407 z" id="boundary" inkscape:connector-curvature="0" />
	<path style="fill:none;stroke:red;stroke-width:1px;stroke-linecap:butt;stroke-linejoin:miter;stroke-opacity:1" d="M 175.257,149.407 186.028,149.407 z" id="boundary" inkscape:connector-curvature="0" />
	<path style="fill:none;stroke:red;stroke-width:1px;stroke-linecap:butt;stroke-linejoin:miter;stroke-opacity:1" d="M 186.028,149.407 196.799,149.407 z" id="boundary" inkscape:connector-curvature="0" />
	<path style="fill:none;stroke:red;stroke-width:1px;stroke-linecap:butt;stroke-linejoin:miter;stroke-opacity:1" d="M 196.799,149.407 207.57,149.407 z" id="boundary" inkscape:connector-curvature="0" />
	<path style="fill:none;stroke:red;stroke-width:1px;stroke-linecap:butt;stroke-linejoin:miter;stroke-opacity:1" d="M 207.57,149.407 218.341,149.407 z" id="boundary" inkscape:connector-curvature="0" />
	<path style="fill:none;stroke:red;stroke-width:1px;stroke-linecap:butt;stroke-linejoin:miter;stroke-opacity:1" d="M 218.341,149.407 229.112,149.407 z" id="boundary" inkscape:connector-curvature="0" />
	<path style="fill:none;stroke:red;stroke-width:1px;stroke-linecap:butt;stroke-linejoin:miter;stroke-opacity:1" d="M 229.112,149.407 239.883,149.407 z" id="boundary" inkscape:connector-curvature="0" />
	<path style="fill:none;stroke:red;stroke-width:1px;stroke-linecap:butt;stroke-linejoin:miter;stroke-opacity:1" d="M 239.883,149.407 249.577,144.022 z" id="boundary" inkscape:connector-curvature="0" />
	<path style="fill:none;stroke:red;stroke-width:1px;stroke-linecap:butt;stroke-linejoin:miter;stroke-opacity:1" d="M 249.577,144.022 260.347,138.636 z" id="boundary" inkscape:connector-curvature="0" />
	<path style="fill:none;stroke:red;stroke-width:1px;stroke-linecap:butt;stroke-linejoin:miter;stroke-opacity:1" d="M 260.347,138.636 271.118,138.636 z" id="boundary" inkscape:connector-curvature="0" />
	<path style="fill:none;stroke:red;stroke-width:1px;stroke-linecap:butt;stroke-linejoin:miter;stroke-opacity:1" d="M 271.118,138.636 280.812,144.022 z" id="boundary" inkscape:connector-curvature="0" />
	<path style="fill:none;stroke:red;stroke-width:1px;stroke-linecap:butt;stroke-linejoin:miter;stroke-opacity:1" d="M 280.812,144.022 291.583,144.022 z" id="boundary" inkscape:connector-curvature="0" />
	<path style="fill:none;stroke:red;stroke-width:1px;stroke-linecap:butt;stroke-linejoin:miter;stroke-opacity:1" d="M 291.583,144.022 302.354,144.022 z" id="boundary" inkscape:connector-curvature="0" />
	<path style="fill:none;stroke:red;stroke-width:1px;stroke-linecap:butt;stroke-linejoin:miter;stroke-opacity:1" d="M 302.354,144.022 313.125,139.713 z" id="boundary" inkscape:connector-curvature="0" />
	<path style="fill:none;stroke:red;stroke-width:1px;stroke-linecap:butt;stroke-linejoin:miter;stroke-opacity:1" d="M 313.125,139.713 323.896,134.328 z" id="boundary" inkscape:connector-curvature="0" />
	<path style="fill:none;stroke:red;stroke-width:1px;stroke-linecap:butt;stroke-linejoin:miter;stroke-opacity:1" d="M 323.896,134.328 332.512,125.711 z" id="boundary" inkscape:connector-curvature="0" />
	<path style="fill:none;stroke:red;stroke-width:1px;stroke-linecap:butt;stroke-linejoin:miter;stroke-opacity:1" d="M 332.512,125.711 341.129,117.094 z" id="boundary" inkscape:connector-curvature="0" />
	<path style="fill:none;stroke:red;stroke-width:1px;stroke-linecap:butt;stroke-linejoin:miter;stroke-opacity:1" d="M 341.129,117.094 351.9,111.709 z" id="boundary" inkscape:connector-curvature="0" />
	<path style="fill:none;stroke:red;stroke-width:1px;stroke-linecap:butt;stroke-linejoin:miter;stroke-opacity:1" d="M 351.9,111.709 360.517,103.092 z" id="boundary" inkscape:connector-curvature="0" />
	<path style="fill:none;stroke:red;stroke-width:1px;stroke-linecap:butt;stroke-linejoin:miter;stroke-opacity:1" d="M 360.517,103.092 371.288,97.7068 z" id="boundary" inkscape:connector-curvature="0" />
	<path style="fill:none;stroke:red;stroke-width:1px;stroke-linecap:butt;stroke-linejoin:miter;stroke-opacity:1" d="M 371.288,97.7068 382.059,92.3214 z" id="boundary" inkscape:connector-curvature="0" />
	<path style="fill:none;stroke:red;stroke-width:1px;stroke-linecap:butt;stroke-linejoin:miter;stroke-opacity:1" d="M 382.059,92.3214 392.83,90.1672 z" id="boundary" inkscape:connector-curvature="0" />
	<path style="fill:none;stroke:red;stroke-width:1px;stroke-linecap:butt;stroke-linejoin:miter;stroke-opacity:1" d="M 392.83,90.1672 403.6,93.3985 z" id="boundary" inkscape:connector-curvature="0" />
	<path style="fill:none;stroke:red;stroke-width:1px;stroke-linecap:butt;stroke-linejoin:miter;stroke-opacity:1" d="M 403.6,93.3985 411.14,102.015 z" id="boundary" inkscape:connector-curvature="0" />
	<path style="fill:none;stroke:red;stroke-width:1px;stroke-linecap:butt;stroke-linejoin:miter;stroke-opacity:1" d="M 411.14,102.015 416.526,111.709 z" id="boundary" inkscape:connector-curvature="0" />
	<path style="fill:none;stroke:red;stroke-width:1px;stroke-linecap:butt;stroke-linejoin:miter;stroke-opacity:1" d="M 416.526,111.709 426.219,117.094 z" id="boundary" inkscape:connector-curvature="0" />
	<path style="fill:none;stroke:red;stroke-width:1px;stroke-linecap:butt;stroke-linejoin:miter;stroke-opacity:1" d="M 426.219,117.094 436.99,117.094 z" id="boundary" inkscape:connector-curvature="0" />
	<path style="fill:none;stroke:red;stroke-width:1px;stroke-linecap:butt;stroke-linejoin:miter;stroke-opacity:1" d="M 436.99,117.094 446.684,111.709 z" id="boundary" inkscape:connector-curvature="0" />
	<path style="fill:none;stroke:red;stroke-width:1px;stroke-linecap:butt;stroke-linejoin:miter;stroke-opacity:1" d="M 446.684,111.709 456.378,104.169 z" id="boundary" inkscape:connector-curvature="0" />
	<path style="fill:none;stroke:red;stroke-width:1px;stroke-linecap:butt;stroke-linejoin:miter;stroke-opacity:1" d="M 456.378,104.169 456.378,93.3985 z" id="boundary" inkscape:connector-curvature="0" />
	<path style="fill:none;stroke:red;stroke-width:1px;stroke-linecap:butt;stroke-linejoin:miter;stroke-opacity:1" d="M 456.378,93.3985 456.378,82.6276 z" id="boundary" inkscape:connector-curvature="0" />
	<path style="fill:none;stroke:red;stroke-width:1px;stroke-linecap:butt;stroke-linejoin:miter;stroke-opacity:1" d="M 456.378,82.6276 456.378,71.8567 z" id="boundary" inkscape:connector-curvature="0" />
	<path style="fill:none;stroke:red;stroke-width:1px;stroke-linecap:butt;stroke-linejoin:miter;stroke-opacity:1" d="M 456.378,71.8567 456.378,61.0858 z" id="boundary" inkscape:connector-curvature="0" />
	<path style="fill:none;stroke:red;stroke-width:1px;stroke-linecap:butt;stroke-linejoin:miter;stroke-opacity:1" d="M 456.378,61.0858 461.763,44.9294 z" id="boundary" inkscape:connector-curvature="0" />
	<path style="fill:none;stroke:red;stroke-width:1px;stroke-linecap:butt;stroke-linejoin:miter;stroke-opacity:1" d="M 461.763,44.9294 467.149,34.1585 z" id="boundary" inkscape:connector-curvature="0" />
	<path style="fill:none;stroke:red;stroke-width:1px;stroke-linecap:butt;stroke-linejoin:miter;stroke-opacity:1" d="M 467.149,34.1585 472.534,23.3876 z" id="boundary" inkscape:connector-curvature="0" />
	<path style="fill:none;stroke:red;stroke-width:1px;stroke-linecap:butt;stroke-linejoin:miter;stroke-opacity:1" d="M 472.534,23.3876 477.92,12.6167 z" id="boundary" inkscape:connector-curvature="0" />
	<path style="fill:none;stroke:red;stroke-width:1px;stroke-linecap:butt;stroke-linejoin:miter;stroke-opacity:1" d="M 477.92,12.6167 488.691,7.23127 z" id="boundary" inkscape:connector-curvature="0" />
	<path style="fill:none;stroke:red;stroke-width:1px;stroke-linecap:butt;stroke-linejoin:miter;stroke-opacity:1" d="M 488.691,7.23127 499.461,4 z" id="boundary" inkscape:connector-curvature="0" />
	<path style="fill:none;stroke:red;stroke-width:1px;stroke-linecap:butt;stroke-linejoin:miter;stroke-opacity:1" d="M 499.461,4 510.232,4 z" id="boundary" inkscape:connector-curvature="0" />
	<path style="fill:none;stroke:red;stroke-width:1px;stroke-linecap:butt;stroke-linejoin:miter;stroke-opacity:1" d="M 510.232,4 521.003,4 z" id="boundary" inkscape:connector-curvature="0" />
	<path style="fill:none;stroke:red;stroke-width:1px;stroke-linecap:butt;stroke-linejoin:miter;stroke-opacity:1" d="M 521.003,4 531.774,4 z" id="boundary" inkscape:connector-curvature="0" />
	<path style="fill:none;stroke:red;stroke-width:1px;stroke-linecap:butt;stroke-linejoin:miter;stroke-opacity:1" d="M 531.774,4 542.545,4 z" id="boundary" inkscape:connector-curvature="0" />
	<path style="fill:none;stroke:red;stroke-width:1px;stroke-linecap:butt;stroke-linejoin:miter;stroke-opacity:1" d="M 542.545,4 553.316,4 z" id="boundary" inkscape:connector-curvature="0" />
	<path style="fill:none;stroke:red;stroke-width:1px;stroke-linecap:butt;stroke-linejoin:miter;stroke-opacity:1" d="M 553.316,4 564.087,4 z" id="boundary" inkscape:connector-curvature="0" />
	<path style="fill:none;stroke:red;stroke-width:1px;stroke-linecap:butt;stroke-linejoin:miter;stroke-opacity:1" d="M 564.087,4 574.858,4 z" id="boundary" inkscape:connector-curvature="0" />
	<path style="fill:none;stroke:red;stroke-width:1px;stroke-linecap:butt;stroke-linejoin:miter;stroke-opacity:1" d="M 574.858,4 585.629,4 z" id="boundary" inkscape:connector-curvature="0" />
	<path style="fill:none;stroke:red;stroke-width:1px;stroke-linecap:butt;stroke-linejoin:miter;stroke-opacity:1" d="M 585.629,4 596.4,6.15418 z" id="boundary" inkscape:connector-curvature="0" />
	<path style="fill:none;stroke:red;stroke-width:1px;stroke-linecap:butt;stroke-linejoin:miter;stroke-opacity:1" d="M 596.4,6.15418 607.17,9.38545 z" id="boundary" inkscape:connector-curvature="0" />
	<path style="fill:none;stroke:red;stroke-width:1px;stroke-linecap:butt;stroke-linejoin:miter;stroke-opacity:1" d="M 607.17,9.38545 617.941,9.38545 z" id="boundary" inkscape:connector-curvature="0" />
	<path style="fill:none;stroke:red;stroke-width:1px;stroke-linecap:butt;stroke-linejoin:miter;stroke-opacity:1" d="M 617.941,9.38545 627.635,14.7709 z" id="boundary" inkscape:connector-curvature="0" />
	<path style="fill:none;stroke:red;stroke-width:1px;stroke-linecap:butt;stroke-linejoin:miter;stroke-opacity:1" d="M 627.635,14.7709 638.406,14.7709 z" id="boundary" inkscape:connector-curvature="0" />
	<path style="fill:none;stroke:red;stroke-width:1px;stroke-linecap:butt;stroke-linejoin:miter;stroke-opacity:1" d="M 638.406,14.7709 649.177,14.7709 z" id="boundary" inkscape:connector-curvature="0" />
	<path style="fill:none;stroke:red;stroke-width:1px;stroke-linecap:butt;stroke-linejoin:miter;stroke-opacity:1" d="M 649.177,14.7709 659.948,14.7709 z" id="boundary" inkscape:connector-curvature="0" />
	<path style="fill:none;stroke:red;stroke-width:1px;stroke-linecap:butt;stroke-linejoin:miter;stroke-opacity:1" d="M 659.948,14.7709 670.719,15.848 z" id="boundary" inkscape:connector-curvature="0" />
	<path style="fill:none;stroke:red;stroke-width:1px;stroke-linecap:butt;stroke-linejoin:miter;stroke-opacity:1" d="M 670.719,15.848 681.49,20.1564 z" id="boundary" inkscape:connector-curvature="0" />
	<path style="fill:none;stroke:red;stroke-width:1px;stroke-linecap:butt;stroke-linejoin:miter;stroke-opacity:1" d="M 681.49,20.1564 692.261,20.1564 z" id="boundary" inkscape:connector-curvature="0" />
	<path style="fill:none;stroke:red;stroke-width:1px;stroke-linecap:butt;stroke-linejoin:miter;stroke-opacity:1" d="M 692.261,20.1564 703.031,20.1564 z" id="boundary" inkscape:connector-curvature="0" />
	<path style="fill:none;stroke:red;stroke-width:1px;stroke-linecap:butt;stroke-linejoin:miter;stroke-opacity:1" d="M 703.031,20.1564 713.802,20.1564 z" id="boundary" inkscape:connector-curvature="0" />
	<path style="fill:none;stroke:red;stroke-width:1px;stroke-linecap:butt;stroke-linejoin:miter;stroke-opacity:1" d="M 713.802,20.1564 724.573,20.1564 z" id="boundary" inkscape:connector-curvature="0" />
	<path style="fill:none;stroke:red;stroke-width:1px;stroke-linecap:butt;stroke-linejoin:miter;stroke-opacity:1" d="M 724.573,20.1564 735.344,20.1564 z" id="boundary" inkscape:connector-curvature="0" />
	<path style="fill:none;stroke:red;stroke-width:1px;stroke-linecap:butt;stroke-linejoin:miter;stroke-opacity:1" d="M 735.344,20.1564 746.115,20.1564 z" id="boundary" inkscape:connector-curvature="0" />
	<path style="fill:none;stroke:red;stroke-width:1px;stroke-linecap:butt;stroke-linejoin:miter;stroke-opacity:1" d="M 746.115,20.1564 756.886,21.2334 z" id="boundary" inkscape:connector-curvature="0" />
	<path style="fill:none;stroke:red;stroke-width:1px;stroke-linecap:butt;stroke-linejoin:miter;stroke-opacity:1" d="M 756.886,21.2334 764.426,29.8502 z" id="boundary" inkscape:connector-curvature="0" />
	<path style="fill:none;stroke:red;stroke-width:1px;stroke-linecap:butt;stroke-linejoin:miter;stroke-opacity:1" d="M 764.426,29.8502 759.04,48.1607 z" id="boundary" inkscape:connector-curvature="0" />
	<path style="fill:none;stroke:red;stroke-width:1px;stroke-linecap:butt;stroke-linejoin:miter;stroke-opacity:1" d="M 759.04,48.1607 764.426,57.8545 z" id="boundary" inkscape:connector-curvature="0" />
	<path style="fill:none;stroke:red;stroke-width:1px;stroke-linecap:butt;stroke-linejoin:miter;stroke-opacity:1" d="M 764.426,57.8545 764.426,68.6254 z" id="boundary" inkscape:connector-curvature="0" />
	<path style="fill:none;stroke:red;stroke-width:1px;stroke-linecap:butt;stroke-linejoin:miter;stroke-opacity:1" d="M 764.426,68.6254 764.426,79.3963 z" id="boundary" inkscape:connector-curvature="0" />
	<path style="fill:none;stroke:red;stroke-width:1px;stroke-linecap:butt;stroke-linejoin:miter;stroke-opacity:1" d="M 764.426,79.3963 764.426,90.1672 z" id="boundary" inkscape:connector-curvature="0" />
	<path style="fill:none;stroke:red;stroke-width:1px;stroke-linecap:butt;stroke-linejoin:miter;stroke-opacity:1" d="M 764.426,90.1672 773.042,96.6298 z" id="boundary" inkscape:connector-curvature="0" />
	<path style="fill:none;stroke:red;stroke-width:1px;stroke-linecap:butt;stroke-linejoin:miter;stroke-opacity:1" d="M 773.042,96.6298 780.582,105.246 z" id="boundary" inkscape:connector-curvature="0" />
	<path style="fill:none;stroke:red;stroke-width:1px;stroke-linecap:butt;stroke-linejoin:miter;stroke-opacity:1" d="M 780.582,105.246 785.967,114.94 z" id="boundary" inkscape:connector-curvature="0" />
	<path style="fill:none;stroke:red;stroke-width:1px;stroke-linecap:butt;stroke-linejoin:miter;stroke-opacity:1" d="M 785.967,114.94 793.507,123.557 z" id="boundary" inkscape:connector-curvature="0" />
	<path style="fill:none;stroke:red;stroke-width:1px;stroke-linecap:butt;stroke-linejoin:miter;stroke-opacity:1" d="M 793.507,123.557 802.124,131.097 z" id="boundary" inkscape:connector-curvature="0" />
	<path style="fill:none;stroke:red;stroke-width:1px;stroke-linecap:butt;stroke-linejoin:miter;stroke-opacity:1" d="M 802.124,131.097 809.663,139.713 z" id="boundary" inkscape:connector-curvature="0" />
	<path style="fill:none;stroke:red;stroke-width:1px;stroke-linecap:butt;stroke-linejoin:miter;stroke-opacity:1" d="M 809.663,139.713 820.434,144.022 z" id="boundary" inkscape:connector-curvature="0" />
	<path style="fill:none;stroke:red;stroke-width:1px;stroke-linecap:butt;stroke-linejoin:miter;stroke-opacity:1" d="M 820.434,144.022 831.205,144.022 z" id="boundary" inkscape:connector-curvature="0" />
	<path style="fill:none;stroke:red;stroke-width:1px;stroke-linecap:butt;stroke-linejoin:miter;stroke-opacity:1" d="M 831.205,144.022 841.976,144.022 z" id="boundary" inkscape:connector-curvature="0" />
	<path style="fill:none;stroke:red;stroke-width:1px;stroke-linecap:butt;stroke-linejoin:miter;stroke-opacity:1" d="M 841.976,144.022 852.747,144.022 z" id="boundary" inkscape:connector-curvature="0" />
	<path style="fill:none;stroke:red;stroke-width:1px;stroke-linecap:butt;stroke-linejoin:miter;stroke-opacity:1" d="M 852.747,144.022 863.518,144.022 z" id="boundary" inkscape:connector-curvature="0" />
	<path style="fill:none;stroke:red;stroke-width:1px;stroke-linecap:butt;stroke-linejoin:miter;stroke-opacity:1" d="M 863.518,144.022 874.289,144.022 z" id="boundary" inkscape:connector-curvature="0" />
	<path style="fill:none;stroke:red;stroke-width:1px;stroke-linecap:butt;stroke-linejoin:miter;stroke-opacity:1" d="M 874.289,144.022 885.06,144.022 z" id="boundary" inkscape:connector-curvature="0" />
	<path style="fill:none;stroke:red;stroke-width:1px;stroke-linecap:butt;stroke-linejoin:miter;stroke-opacity:1" d="M 885.06,144.022 895.831,144.022 z" id="boundary" inkscape:connector-curvature="0" />
	<path style="fill:none;stroke:red;stroke-width:1px;stroke-linecap:butt;stroke-linejoin:miter;stroke-opacity:1" d="M 895.831,144.022 905.524,149.407 z" id="boundary" inkscape:connector-curvature="0" />
	<path style="fill:none;stroke:red;stroke-width:1px;stroke-linecap:butt;stroke-linejoin:miter;stroke-opacity:1" d="M 905.524,149.407 916.295,149.407 z" id="boundary" inkscape:connector-curvature="0" />
	<path style="fill:none;stroke:red;stroke-width:1px;stroke-linecap:butt;stroke-linejoin:miter;stroke-opacity:1" d="M 916.295,149.407 927.066,149.407 z" id="boundary" inkscape:connector-curvature="0" />
	<path style="fill:none;stroke:red;stroke-width:1px;stroke-linecap:butt;stroke-linejoin:miter;stroke-opacity:1" d="M 927.066,149.407 937.837,149.407 z" id="boundary" inkscape:connector-curvature="0" />
	<path style="fill:none;stroke:red;stroke-width:1px;stroke-linecap:butt;stroke-linejoin:miter;stroke-opacity:1" d="M 937.837,149.407 947.531,154.793 z" id="boundary" inkscape:connector-curvature="0" />
	<path style="fill:none;stroke:red;stroke-width:1px;stroke-linecap:butt;stroke-linejoin:miter;stroke-opacity:1" d="M 947.531,154.793 958.302,154.793 z" id="boundary" inkscape:connector-curvature="0" />
	<path style="fill:none;stroke:red;stroke-width:1px;stroke-linecap:butt;stroke-linejoin:miter;stroke-opacity:1" d="M 958.302,154.793 969.073,158.024 z" id="boundary" inkscape:connector-curvature="0" />
	<path style="fill:none;stroke:red;stroke-width:1px;stroke-linecap:butt;stroke-linejoin:miter;stroke-opacity:1" d="M 969.073,158.024 978.767,163.409 z" id="boundary" inkscape:connector-curvature="0" />
	<path style="fill:none;stroke:red;stroke-width:1px;stroke-linecap:butt;stroke-linejoin:miter;stroke-opacity:1" d="M 978.767,163.409 985.229,172.026 z" id="boundary" inkscape:connector-curvature="0" />
	<path style="fill:none;stroke:red;stroke-width:1px;stroke-linecap:butt;stroke-linejoin:miter;stroke-opacity:1" d="M 985.229,172.026 990.615,181.72 z" id="boundary" inkscape:connector-curvature="0" />
	<path style="fill:none;stroke:red;stroke-width:1px;stroke-linecap:butt;stroke-linejoin:miter;stroke-opacity:1" d="M 990.615,181.72 996,191.414 z" id="boundary" inkscape:connector-curvature="0" />
	<circle cx="4" cy="249.577" r="4" fill="#0" id="circle0"/>
	<circle cx="9.38545" cy="238.806" r="4" fill="#0" id="circle1"/>
	<circle cx="9.38545" cy="259.27" r="4" fill="#0" id="circle2"/>
	<circle cx="14.7709" cy="268.964" r="4" fill="#0" id="circle3"/>
	<circle cx="18.0022" cy="230.189" r="4" fill="#0" id="circle4"/>
	<circle cx="20.1564" cy="278.658" r="4" fill="#0" id="circle5"/>
	<circle cx="20.1564" cy="289.429" r="4" fill="#0" id="circle6"/>
	<circle cx="20.1564" cy="300.2" r="4" fill="#0" id="circle7"/>
	<circle cx="20.1564" cy="310.971" r="4" fill="#0" id="circle8"/>
	<circle cx="20.1564" cy="321.742" r="4" fill="#0" id="circle9"/>
	<circle cx="20.1564" cy="332.512" r="4" fill="#0" id="circle10"/>
	<circle cx="20.1564" cy="343.283" r="4" fill="#0" id="circle11"/>
	<circle cx="22.3105" cy="354.054" r="4" fill="#0" id="circle12"/>
	<circle cx="25.5418" cy="364.825" r="4" fill="#0" id="circle13"/>
	<circle cx="26.6189" cy="221.572" r="4" fill="#0" id="circle14"/>
	<circle cx="30.9273" cy="374.519" r="4" fill="#0" id="circle15"/>
	<circle cx="36.3127" cy="384.213" r="4" fill="#0" id="circle16"/>
	<circle cx="37.3898" cy="216.187" r="4" fill="#0" id="circle17"/>
	<circle cx="44.9294" cy="391.752" r="4" fill="#0" id="circle18"/>
	<circle cx="48.1607" cy="210.801" r="4" fill="#0" id="circle19"/>
	<circle cx="52.4691" cy="400.369" r="4" fill="#0" id="circle20"/>
	<circle cx="56.7774" cy="203.262" r="4" fill="#0" id="circle21"/>
	<circle cx="57.8545" cy="410.063" r="4" fill="#0" id="circle22"/>
	<circle cx="63.24" cy="419.757" r="4" fill="#0" id="circle23"/>
	<circle cx="66.4712" cy="197.876" r="4" fill="#0" id="circle24"/>
	<circle cx="72.9338" cy="425.142" r="4" fill="#0" id="circle25"/>
	<circle cx="76.165" cy="192.491" r="4" fill="#0" id="circle26"/>
	<circle cx="82.6276" cy="430.528" r="4" fill="#0" id="circle27"/>
	<circle cx="85.8588" cy="187.105" r="4" fill="#0" id="circle28"/>
	<circle cx="93.3985" cy="430.528" r="4" fill="#0" id="circle29"/>
	<circle cx="95.5527" cy="181.72" r="4" fill="#0" id="circle30"/>
	<circle cx="103.092" cy="435.913" r="4" fill="#0" id="circle31"/>
	<circle cx="105.246" cy="176.334" r="4" fill="#0" id="circle32"/>
	<circle cx="113.863" cy="439.144" r="4" fill="#0" id="circle33"/>
	<circle cx="116.017" cy="176.334" r="4" fill="#0" id="circle34"/>
	<circle cx="124.634" cy="441.299" r="4" fill="#0" id="circle35"/>
	<circle cx="125.711" cy="170.949" r="4" fill="#0" id="circle36"/>
	<circle cx="134.328" cy="435.913" r="4" fill="#0" id="circle37"/>
	<circle cx="135.405" cy="165.564" r="4" fill="#0" id="circle38"/>
	<circle cx="145.099" cy="160.178" r="4" fill="#0" id="circle39"/>
	<circle cx="145.099" cy="430.528" r="4" fill="#0" id="circle40"/>
	<circle cx="154.793" cy="154.793" r="4" fill="#0" id="circle41"/>
	<circle cx="155.87" cy="425.142" r="4" fill="#0" id="circle42"/>
	<circle cx="165.564" cy="154.793" r="4" fill="#0" id="circle43"/>
	<circle cx="166.641" cy="425.142" r="4" fill="#0" id="circle44"/>
	<circle cx="175.257" cy="149.407" r="4" fill="#0" id="circle45"/>
	<circle cx="177.412" cy="425.142" r="4" fill="#0" id="circle46"/>
	<circle cx="186.028" cy="149.407" r="4" fill="#0" id="circle47"/>
	<circle cx="188.182" cy="425.142" r="4" fill="#0" id="circle48"/>
	<circle cx="196.799" cy="149.407" r="4" fill="#0" id="circle49"/>
	<circle cx="198.953" cy="425.142" r="4" fill="#0" id="circle50"/>
	<circle cx="207.57" cy="149.407" r="4" fill="#0" id="circle51"/>
	<circle cx="209.724" cy="425.142" r="4" fill="#0" id="circle52"/>
	<circle cx="218.341" cy="149.407" r="4" fill="#0" id="circle53"/>
	<circle cx="220.495" cy="425.142" r="4" fill="#0" id="circle54"/>
	<circle cx="229.112" cy="149.407" r="4" fill="#0" id="circle55"/>
	<circle cx="231.266" cy="425.142" r="4" fill="#0" id="circle56"/>
	<circle cx="239.883" cy="149.407" r="4" fill="#0" id="circle57"/>
	<circle cx="242.037" cy="425.142" r="4" fill="#0" id="circle58"/>
	<circle cx="249.577" cy="144.022" r="4" fill="#0" id="circle59"/>
	<circle cx="252.808" cy="425.142" r="4" fill="#0" id="circle60"/>
	<circle cx="260.347" cy="138.636" r="4" fill="#0" id="circle61"/>
	<circle cx="263.579" cy="425.142" r="4" fill="#0" id="circle62"/>
	<circle cx="271.118" cy="138.636" r="4" fill="#0" id="circle63"/>
	<circle cx="274.35" cy="425.142" r="4" fill="#0" id="circle64"/>
	<circle cx="280.812" cy="144.022" r="4" fill="#0" id="circle65"/>
	<circle cx="285.121" cy="425.142" r="4" fill="#0" id="circle66"/>
	<circle cx="291.583" cy="144.022" r="4" fill="#0" id="circle67"/>
	<circle cx="295.891" cy="425.142" r="4" fill="#0" id="circle68"/>
	<circle cx="302.354" cy="144.022" r="4" fill="#0" id="circle69"/>
	<circle cx="306.662" cy="419.757" r="4" fill="#0" id="circle70"/>
	<circle cx="313.125" cy="139.713" r="4" fill="#0" id="circle71"/>
	<circle cx="317.433" cy="419.757" r="4" fill="#0" id="circle72"/>
	<circle cx="323.896" cy="134.328" r="4" fill="#0" id="circle73"/>
	<circle cx="328.204" cy="419.757" r="4" fill="#0" id="circle74"/>
	<circle cx="332.512" cy="125.711" r="4" fill="#0" id="circle75"/>
	<circle cx="338.975" cy="419.757" r="4" fill="#0" id="circle76"/>
	<circle cx="341.129" cy="117.094" r="4" fill="#0" id="circle77"/>
	<circle cx="349.746" cy="419.757" r="4" fill="#0" id="circle78"/>
	<circle cx="351.9" cy="111.709" r="4" fill="#0" id="circle79"/>
	<circle cx="360.517" cy="103.092" r="4" fill="#0" id="circle80"/>
	<circle cx="360.517" cy="419.757" r="4" fill="#0" id="circle81"/>
	<circle cx="371.288" cy="97.7068" r="4" fill="#0" id="circle82"/>
	<circle cx="371.288" cy="419.757" r="4" fill="#0" id="circle83"/>
	<circle cx="382.059" cy="92.3214" r="4" fill="#0" id="circle84"/>
	<circle cx="382.059" cy="419.757" r="4" fill="#0" id="circle85"/>
	<circle cx="392.83" cy="90.1672" r="4" fill="#0" id="circle86"/>
	<circle cx="392.83" cy="419.757" r="4" fill="#0" id="circle87"/>
	<circle cx="403.6" cy="93.3985" r="4" fill="#0" id="circle88"/>
	<circle cx="403.6" cy="414.371" r="4" fill="#0" id="circle89"/>
	<circle cx="411.14" cy="102.015" r="4" fill="#0" id="circle90"/>
	<circle cx="414.371" cy="414.371" r="4" fill="#0" id="circle91"/>
	<circle cx="416.526" cy="111.709" r="4" fill="#0" id="circle92"/>
	<circle cx="424.065" cy="419.757" r="4" fill="#0" id="circle93"/>
	<circle cx="426.219" cy="117.094" r="4" fill="#0" id="circle94"/>
	<circle cx="427.296" cy="430.528" r="4" fill="#0" id="circle95"/>
	<circle cx="429.451" cy="441.299" r="4" fill="#0" id="circle96"/>
	<circle cx="434.836" cy="450.992" r="4" fill="#0" id="circle97"/>
	<circle cx="436.99" cy="117.094" r="4" fill="#0" id="circle98"/>
	<circle cx="441.299" cy="459.609" r="4" fill="#0" id="circle99"/>
	<circle cx="446.684" cy="111.709" r="4" fill="#0" id="circle100"/>
	<circle cx="450.992" cy="464.995" r="4" fill="#0" id="circle101"/>
	<circle cx="456.378" cy="61.0858" r="4" fill="#0" id="circle102"/>
	<circle cx="456.378" cy="71.8567" r="4" fill="#0" id="circle103"/>
	<circle cx="456.378" cy="82.6276" r="4" fill="#0" id="circle104"/>
	<circle cx="456.378" cy="93.3985" r="4" fill="#0" id="circle105"/>
	<circle cx="456.378" cy="104.169" r="4" fill="#0" id="circle106"/>
	<circle cx="461.763" cy="44.9294" r="4" fill="#0" id="circle107"/>
	<circle cx="461.763" cy="468.226" r="4" fill="#0" id="circle108"/>
	<circle cx="467.149" cy="34.1585" r="4" fill="#0" id="circle109"/>
	<circle cx="472.534" cy="23.3876" r="4" fill="#0" id="circle110"/>
	<circle cx="472.534" cy="468.226" r="4" fill="#0" id="circle111"/>
	<circle cx="477.92" cy="12.6167" r="4" fill="#0" id="circle112"/>
	<circle cx="482.228" cy="473.611" r="4" fill="#0" id="circle113"/>
	<circle cx="488.691" cy="7.23127" r="4" fill="#0" id="circle114"/>
	<circle cx="492.999" cy="473.611" r="4" fill="#0" id="circle115"/>
	<circle cx="499.461" cy="4" r="4" fill="#0" id="circle116"/>
	<circle cx="503.77" cy="473.611" r="4" fill="#0" id="circle117"/>
	<circle cx="510.232" cy="4" r="4" fill="#0" id="circle118"/>
	<circle cx="514.541" cy="473.611" r="4" fill="#0" id="circle119"/>
	<circle cx="521.003" cy="4" r="4" fill="#0" id="circle120"/>
	<circle cx="524.235" cy="468.226" r="4" fill="#0" id="circle121"/>
	<circle cx="531.774" cy="4" r="4" fill="#0" id="circle122"/>
	<circle cx="533.928" cy="462.84" r="4" fill="#0" id="circle123"/>
	<circle cx="538.237" cy="452.069" r="4" fill="#0" id="circle124"/>
	<circle cx="542.545" cy="4" r="4" fill="#0" id="circle125"/>
	<circle cx="546.853" cy="444.53" r="4" fill="#0" id="circle126"/>
	<circle cx="553.316" cy="4" r="4" fill="#0" id="circle127"/>
	<circle cx="554.393" cy="435.913" r="4" fill="#0" id="circle128"/>
	<circle cx="563.01" cy="428.374" r="4" fill="#0" id="circle129"/>
	<circle cx="564.087" cy="4" r="4" fill="#0" id="circle130"/>
	<circle cx="570.549" cy="419.757" r="4" fill="#0" id="circle131"/>
	<circle cx="574.858" cy="4" r="4" fill="#0" id="circle132"/>
	<circle cx="581.32" cy="419.757" r="4" fill="#0" id="circle133"/>
	<circle cx="585.629" cy="4" r="4" fill="#0" id="circle134"/>
	<circle cx="592.091" cy="419.757" r="4" fill="#0" id="circle135"/>
	<circle cx="596.4" cy="6.15418" r="4" fill="#0" id="circle136"/>
	<circle cx="602.862" cy="419.757" r="4" fill="#0" id="circle137"/>
	<circle cx="607.17" cy="9.38545" r="4" fill="#0" id="circle138"/>
	<circle cx="613.633" cy="419.757" r="4" fill="#0" id="circle139"/>
	<circle cx="617.941" cy="9.38545" r="4" fill="#0" id="circle140"/>
	<circle cx="624.404" cy="419.757" r="4" fill="#0" id="circle141"/>
	<circle cx="627.635" cy="14.7709" r="4" fill="#0" id="circle142"/>
	<circle cx="635.175" cy="419.757" r="4" fill="#0" id="circle143"/>
	<circle cx="638.406" cy="14.7709" r="4" fill="#0" id="circle144"/>
	<circle cx="645.946" cy="419.757" r="4" fill="#0" id="circle145"/>
	<circle cx="649.177" cy="14.7709" r="4" fill="#0" id="circle146"/>
	<circle cx="656.717" cy="419.757" r="4" fill="#0" id="circle147"/>
	<circle cx="659.948" cy="14.7709" r="4" fill="#0" id="circle148"/>
	<circle cx="667.488" cy="419.757" r="4" fill="#0" id="circle149"/>
	<circle cx="670.719" cy="15.848" r="4" fill="#0" id="circle150"/>
	<circle cx="678.258" cy="419.757" r="4" fill="#0" id="circle151"/>
	<circle cx="681.49" cy="20.1564" r="4" fill="#0" id="circle152"/>
	<circle cx="689.029" cy="419.757" r="4" fill="#0" id="circle153"/>
	<circle cx="692.261" cy="20.1564" r="4" fill="#0" id="circle154"/>
	<circle cx="699.8" cy="419.757" r="4" fill="#0" id="circle155"/>
	<circle cx="703.031" cy="20.1564" r="4" fill="#0" id="circle156"/>
	<circle cx="710.571" cy="419.757" r="4" fill="#0" id="circle157"/>
	<circle cx="713.802" cy="20.1564" r="4" fill="#0" id="circle158"/>
	<circle cx="721.342" cy="419.757" r="4" fill="#0" id="circle159"/>
	<circle cx="724.573" cy="20.1564" r="4" fill="#0" id="circle160"/>
	<circle cx="732.113" cy="419.757" r="4" fill="#0" id="circle161"/>
	<circle cx="735.344" cy="20.1564" r="4" fill="#0" id="circle162"/>
	<circle cx="742.884" cy="419.757" r="4" fill="#0" id="circle163"/>
	<circle cx="746.115" cy="20.1564" r="4" fill="#0" id="circle164"/>
	<circle cx="753.655" cy="419.757" r="4" fill="#0" id="circle165"/>
	<circle cx="756.886" cy="21.2334" r="4" fill="#0" id="circle166"/>
	<circle cx="759.04" cy="48.1607" r="4" fill="#0" id="circle167"/>
	<circle cx="763.349" cy="414.371" r="4" fill="#0" id="circle168"/>
	<circle cx="764.426" cy="29.8502" r="4" fill="#0" id="circle169"/>
	<circle cx="764.426" cy="57.8545" r="4" fill="#0" id="circle170"/>
	<circle cx="764.426" cy="68.6254" r="4" fill="#0" id="circle171"/>
	<circle cx="764.426" cy="79.3963" r="4" fill="#0" id="circle172"/>
	<circle cx="764.426" cy="90.1672" r="4" fill="#0" id="circle173"/>
	<circle cx="773.042" cy="96.6298" r="4" fill="#0" id="circle174"/>
	<circle cx="774.119" cy="414.371" r="4" fill="#0" id="circle175"/>
	<circle cx="780.582" cy="105.246" r="4" fill="#0" id="circle176"/>
	<circle cx="784.89" cy="414.371" r="4" fill="#0" id="circle177"/>
	<circle cx="785.967" cy="114.94" r="4" fill="#0" id="circle178"/>
	<circle cx="793.507" cy="123.557" r="4" fill="#0" id="circle179"/>
	<circle cx="794.584" cy="419.757" r="4" fill="#0" id="circle180"/>
	<circle cx="802.124" cy="131.097" r="4" fill="#0" id="circle181"/>
	<circle cx="802.124" cy="428.374" r="4" fill="#0" id="circle182"/>
	<circle cx="809.663" cy="139.713" r="4" fill="#0" id="circle183"/>
	<circle cx="812.895" cy="432.682" r="4" fill="#0" id="circle184"/>
	<circle cx="820.434" cy="144.022" r="4" fill="#0" id="circle185"/>
	<circle cx="823.666" cy="435.913" r="4" fill="#0" id="circle186"/>
	<circle cx="831.205" cy="144.022" r="4" fill="#0" id="circle187"/>
	<circle cx="833.359" cy="441.299" r="4" fill="#0" id="circle188"/>
	<circle cx="841.976" cy="144.022" r="4" fill="#0" id="circle189"/>
	<circle cx="844.13" cy="441.299" r="4" fill="#0" id="circle190"/>
	<circle cx="852.747" cy="144.022" r="4" fill="#0" id="circle191"/>
	<circle cx="854.901" cy="438.067" r="4" fill="#0" id="circle192"/>
	<circle cx="863.518" cy="144.022" r="4" fill="#0" id="circle193"/>
	<circle cx="865.672" cy="432.682" r="4" fill="#0" id="circle194"/>
	<circle cx="874.289" cy="144.022" r="4" fill="#0" id="circle195"/>
	<circle cx="874.289" cy="425.142" r="4" fill="#0" id="circle196"/>
	<circle cx="883.983" cy="419.757" r="4" fill="#0" id="circle197"/>
	<circle cx="885.06" cy="144.022" r="4" fill="#0" id="circle198"/>
	<circle cx="892.599" cy="411.14" r="4" fill="#0" id="circle199"/>
	<circle cx="895.831" cy="144.022" r="4" fill="#0" id="circle200"/>
	<circle cx="901.216" cy="402.523" r="4" fill="#0" id="circle201"/>
	<circle cx="905.524" cy="149.407" r="4" fill="#0" id="circle202"/>
	<circle cx="906.602" cy="391.752" r="4" fill="#0" id="circle203"/>
	<circle cx="911.987" cy="380.982" r="4" fill="#0" id="circle204"/>
	<circle cx="915.218" cy="365.902" r="4" fill="#0" id="circle205"/>
	<circle cx="916.295" cy="149.407" r="4" fill="#0" id="circle206"/>
	<circle cx="920.604" cy="333.59" r="4" fill="#0" id="circle207"/>
	<circle cx="920.604" cy="344.36" r="4" fill="#0" id="circle208"/>
	<circle cx="920.604" cy="355.131" r="4" fill="#0" id="circle209"/>
	<circle cx="927.066" cy="149.407" r="4" fill="#0" id="circle210"/>
	<circle cx="931.375" cy="328.204" r="4" fill="#0" id="circle211"/>
	<circle cx="937.837" cy="149.407" r="4" fill="#0" id="circle212"/>
	<circle cx="942.145" cy="322.819" r="4" fill="#0" id="circle213"/>
	<circle cx="947.531" cy="154.793" r="4" fill="#0" id="circle214"/>
	<circle cx="950.762" cy="315.279" r="4" fill="#0" id="circle215"/>
	<circle cx="956.148" cy="304.508" r="4" fill="#0" id="circle216"/>
	<circle cx="958.302" cy="154.793" r="4" fill="#0" id="circle217"/>
	<circle cx="958.302" cy="290.506" r="4" fill="#0" id="circle218"/>
	<circle cx="963.687" cy="279.735" r="4" fill="#0" id="circle219"/>
	<circle cx="969.073" cy="158.024" r="4" fill="#0" id="circle220"/>
	<circle cx="969.073" cy="263.579" r="4" fill="#0" id="circle221"/>
	<circle cx="974.458" cy="231.266" r="4" fill="#0" id="circle222"/>
	<circle cx="974.458" cy="242.037" r="4" fill="#0" id="circle223"/>
	<circle cx="974.458" cy="252.808" r="4" fill="#0" id="circle224"/>
	<circle cx="978.767" cy="163.409" r="4" fill="#0" id="circle225"/>
	<circle cx="983.075" cy="223.726" r="4" fill="#0" id="circle226"/>
	<circle cx="985.229" cy="172.026" r="4" fill="#0" id="circle227"/>
	<circle cx="990.615" cy="181.72" r="4" fill="#0" id="circle228"/>
	<circle cx="990.615" cy="209.724" r="4" fill="#0" id="circle229"/>
	<circle cx="996" cy="191.414" r="4" fill="#0" id="circle230"/>
	</g>
</svg>