<?xml version="1.0" encoding="UTF-8" standalone="no"?>
<!-- Created with CurveBenchmark -->
<svg
	xmlns:dc="http://purl.org/dc/elements/1.1/"
	xmlns:cc="http://creativecommons.org/ns#"
	xmlns:rdf="http://www.w3.org/1999/02/22-rdf-syntax-ns#"
	xmlns:svg="http://www.w3.org/2000/svg"
	xmlns="http://www.w3.org/2000/svg"
	xmlns:sodipodi="http://sodipodi.sourceforge.net/DTD/sodipodi-0.dtd"
	xmlns:inkscape="http://www.inkscape.org/namespaces/inkscape"
	width="1000"
	height="1000"
	id="svg2"
	version="1.1"
	sodipodi:docname="manifold/connect2d-phantomocc1.png.txt">
<defs
	id="defs4" />
<metadata
	id="metadata7">
	<rdf:RDF>
		<cc:Work
			rdf:about="">
			<dc:format>image/svg+xml</dc:format>
			<dc:type
				rdf:resource="http://purl.org/dc/dcmitype/StillImage" />
			<dc:title></dc:title>
		</cc:Work>
	</rdf:RDF>
</metadata>
<g
	inkscape:label="Layer 1"
	inkscape:groupmode="layer"
	id="layer1">
	<path style="fill:none;stroke:red;stroke-width:1px;stroke-linecap:butt;stroke-linejoin:miter;stroke-opacity:1" d="M 980.5,4 996,7.1 z" id="boundary" inkscape:connector-curvature="0" />
	<path style="fill:none;stroke:red;stroke-width:1px;stroke-linecap:butt;stroke-linejoin:miter;stroke-opacity:1" d="M 996,7.1 986.7,25.7 z" id="boundary" inkscape:connector-curvature="0" />
	<path style="fill:none;stroke:red;stroke-width:1px;stroke-linecap:butt;stroke-linejoin:miter;stroke-opacity:1" d="M 986.7,25.7 974.3,36.55 z" id="boundary" inkscape:connector-curvature="0" />
	<path style="fill:none;stroke:red;stroke-width:1px;stroke-linecap:butt;stroke-linejoin:miter;stroke-opacity:1" d="M 974.3,36.55 963.45,48.95 z" id="boundary" inkscape:connector-curvature="0" />
	<path style="fill:none;stroke:red;stroke-width:1px;stroke-linecap:butt;stroke-linejoin:miter;stroke-opacity:1" d="M 963.45,48.95 951.05,59.8 z" id="boundary" inkscape:connector-curvature="0" />
	<path style="fill:none;stroke:red;stroke-width:1px;stroke-linecap:butt;stroke-linejoin:miter;stroke-opacity:1" d="M 951.05,59.8 938.65,73.75 z" id="boundary" inkscape:connector-curvature="0" />
	<path style="fill:none;stroke:red;stroke-width:1px;stroke-linecap:butt;stroke-linejoin:miter;stroke-opacity:1" d="M 938.65,73.75 923.15,81.5 z" id="boundary" inkscape:connector-curvature="0" />
	<path style="fill:none;stroke:red;stroke-width:1px;stroke-linecap:butt;stroke-linejoin:miter;stroke-opacity:1" d="M 923.15,81.5 910.75,90.8 z" id="boundary" inkscape:connector-curvature="0" />
	<path style="fill:none;stroke:red;stroke-width:1px;stroke-linecap:butt;stroke-linejoin:miter;stroke-opacity:1" d="M 910.75,90.8 896.8,98.55 z" id="boundary" inkscape:connector-curvature="0" />
	<path style="fill:none;stroke:red;stroke-width:1px;stroke-linecap:butt;stroke-linejoin:miter;stroke-opacity:1" d="M 896.8,98.55 881.3,106.3 z" id="boundary" inkscape:connector-curvature="0" />
	<path style="fill:none;stroke:red;stroke-width:1px;stroke-linecap:butt;stroke-linejoin:miter;stroke-opacity:1" d="M 881.3,106.3 870.45,118.7 z" id="boundary" inkscape:connector-curvature="0" />
	<path style="fill:none;stroke:red;stroke-width:1px;stroke-linecap:butt;stroke-linejoin:miter;stroke-opacity:1" d="M 870.45,118.7 854.95,126.45 z" id="boundary" inkscape:connector-curvature="0" />
	<path style="fill:none;stroke:red;stroke-width:1px;stroke-linecap:butt;stroke-linejoin:miter;stroke-opacity:1" d="M 854.95,126.45 839.45,134.2 z" id="boundary" inkscape:connector-curvature="0" />
	<path style="fill:none;stroke:red;stroke-width:1px;stroke-linecap:butt;stroke-linejoin:miter;stroke-opacity:1" d="M 839.45,134.2 827.05,145.05 z" id="boundary" inkscape:connector-curvature="0" />
	<path style="fill:none;stroke:red;stroke-width:1px;stroke-linecap:butt;stroke-linejoin:miter;stroke-opacity:1" d="M 827.05,145.05 827.05,160.55 z" id="boundary" inkscape:connector-curvature="0" />
	<path style="fill:none;stroke:red;stroke-width:1px;stroke-linecap:butt;stroke-linejoin:miter;stroke-opacity:1" d="M 827.05,160.55 814.65,174.5 z" id="boundary" inkscape:connector-curvature="0" />
	<path style="fill:none;stroke:red;stroke-width:1px;stroke-linecap:butt;stroke-linejoin:miter;stroke-opacity:1" d="M 814.65,174.5 802.25,183.8 z" id="boundary" inkscape:connector-curvature="0" />
	<path style="fill:none;stroke:red;stroke-width:1px;stroke-linecap:butt;stroke-linejoin:miter;stroke-opacity:1" d="M 802.25,183.8 788.3,191.55 z" id="boundary" inkscape:connector-curvature="0" />
	<path style="fill:none;stroke:red;stroke-width:1px;stroke-linecap:butt;stroke-linejoin:miter;stroke-opacity:1" d="M 788.3,191.55 791.4,207.05 z" id="boundary" inkscape:connector-curvature="0" />
	<path style="fill:none;stroke:red;stroke-width:1px;stroke-linecap:butt;stroke-linejoin:miter;stroke-opacity:1" d="M 791.4,207.05 777.45,227.2 z" id="boundary" inkscape:connector-curvature="0" />
	<path style="fill:none;stroke:red;stroke-width:1px;stroke-linecap:butt;stroke-linejoin:miter;stroke-opacity:1" d="M 777.45,227.2 761.95,234.95 z" id="boundary" inkscape:connector-curvature="0" />
	<path style="fill:none;stroke:red;stroke-width:1px;stroke-linecap:butt;stroke-linejoin:miter;stroke-opacity:1" d="M 761.95,234.95 746.45,242.7 z" id="boundary" inkscape:connector-curvature="0" />
	<path style="fill:none;stroke:red;stroke-width:1px;stroke-linecap:butt;stroke-linejoin:miter;stroke-opacity:1" d="M 746.45,242.7 730.95,250.45 z" id="boundary" inkscape:connector-curvature="0" />
	<path style="fill:none;stroke:red;stroke-width:1px;stroke-linecap:butt;stroke-linejoin:miter;stroke-opacity:1" d="M 730.95,250.45 715.45,258.2 z" id="boundary" inkscape:connector-curvature="0" />
	<path style="fill:none;stroke:red;stroke-width:1px;stroke-linecap:butt;stroke-linejoin:miter;stroke-opacity:1" d="M 715.45,258.2 703.05,269.05 z" id="boundary" inkscape:connector-curvature="0" />
	<path style="fill:none;stroke:red;stroke-width:1px;stroke-linecap:butt;stroke-linejoin:miter;stroke-opacity:1" d="M 703.05,269.05 695.3,284.55 z" id="boundary" inkscape:connector-curvature="0" />
	<path style="fill:none;stroke:red;stroke-width:1px;stroke-linecap:butt;stroke-linejoin:miter;stroke-opacity:1" d="M 695.3,284.55 687.55,307.8 z" id="boundary" inkscape:connector-curvature="0" />
	<path style="fill:none;stroke:red;stroke-width:1px;stroke-linecap:butt;stroke-linejoin:miter;stroke-opacity:1" d="M 687.55,307.8 679.8,331.05 z" id="boundary" inkscape:connector-curvature="0" />
	<path style="fill:none;stroke:red;stroke-width:1px;stroke-linecap:butt;stroke-linejoin:miter;stroke-opacity:1" d="M 679.8,331.05 672.05,346.55 z" id="boundary" inkscape:connector-curvature="0" />
	<path style="fill:none;stroke:red;stroke-width:1px;stroke-linecap:butt;stroke-linejoin:miter;stroke-opacity:1" d="M 672.05,346.55 664.3,369.8 z" id="boundary" inkscape:connector-curvature="0" />
	<path style="fill:none;stroke:red;stroke-width:1px;stroke-linecap:butt;stroke-linejoin:miter;stroke-opacity:1" d="M 664.3,369.8 679.8,368.25 z" id="boundary" inkscape:connector-curvature="0" />
	<path style="fill:none;stroke:red;stroke-width:1px;stroke-linecap:butt;stroke-linejoin:miter;stroke-opacity:1" d="M 679.8,368.25 695.3,363.6 z" id="boundary" inkscape:connector-curvature="0" />
	<path style="fill:none;stroke:red;stroke-width:1px;stroke-linecap:butt;stroke-linejoin:miter;stroke-opacity:1" d="M 695.3,363.6 710.8,360.5 z" id="boundary" inkscape:connector-curvature="0" />
	<path style="fill:none;stroke:red;stroke-width:1px;stroke-linecap:butt;stroke-linejoin:miter;stroke-opacity:1" d="M 710.8,360.5 724.75,352.75 z" id="boundary" inkscape:connector-curvature="0" />
	<path style="fill:none;stroke:red;stroke-width:1px;stroke-linecap:butt;stroke-linejoin:miter;stroke-opacity:1" d="M 724.75,352.75 740.25,352.75 z" id="boundary" inkscape:connector-curvature="0" />
	<path style="fill:none;stroke:red;stroke-width:1px;stroke-linecap:butt;stroke-linejoin:miter;stroke-opacity:1" d="M 740.25,352.75 746.45,368.25 z" id="boundary" inkscape:connector-curvature="0" />
	<path style="fill:none;stroke:red;stroke-width:1px;stroke-linecap:butt;stroke-linejoin:miter;stroke-opacity:1" d="M 746.45,368.25 734.05,377.55 z" id="boundary" inkscape:connector-curvature="0" />
	<path style="fill:none;stroke:red;stroke-width:1px;stroke-linecap:butt;stroke-linejoin:miter;stroke-opacity:1" d="M 734.05,377.55 718.55,385.3 z" id="boundary" inkscape:connector-curvature="0" />
	<path style="fill:none;stroke:red;stroke-width:1px;stroke-linecap:butt;stroke-linejoin:miter;stroke-opacity:1" d="M 718.55,385.3 706.15,399.25 z" id="boundary" inkscape:connector-curvature="0" />
	<path style="fill:none;stroke:red;stroke-width:1px;stroke-linecap:butt;stroke-linejoin:miter;stroke-opacity:1" d="M 706.15,399.25 690.65,407 z" id="boundary" inkscape:connector-curvature="0" />
	<path style="fill:none;stroke:red;stroke-width:1px;stroke-linecap:butt;stroke-linejoin:miter;stroke-opacity:1" d="M 690.65,407 676.7,416.3 z" id="boundary" inkscape:connector-curvature="0" />
	<path style="fill:none;stroke:red;stroke-width:1px;stroke-linecap:butt;stroke-linejoin:miter;stroke-opacity:1" d="M 676.7,416.3 662.75,424.05 z" id="boundary" inkscape:connector-curvature="0" />
	<path style="fill:none;stroke:red;stroke-width:1px;stroke-linecap:butt;stroke-linejoin:miter;stroke-opacity:1" d="M 662.75,424.05 648.8,431.8 z" id="boundary" inkscape:connector-curvature="0" />
	<path style="fill:none;stroke:red;stroke-width:1px;stroke-linecap:butt;stroke-linejoin:miter;stroke-opacity:1" d="M 648.8,431.8 633.3,439.55 z" id="boundary" inkscape:connector-curvature="0" />
	<path style="fill:none;stroke:red;stroke-width:1px;stroke-linecap:butt;stroke-linejoin:miter;stroke-opacity:1" d="M 633.3,439.55 625.55,455.05 z" id="boundary" inkscape:connector-curvature="0" />
	<path style="fill:none;stroke:red;stroke-width:1px;stroke-linecap:butt;stroke-linejoin:miter;stroke-opacity:1" d="M 625.55,455.05 617.8,478.3 z" id="boundary" inkscape:connector-curvature="0" />
	<path style="fill:none;stroke:red;stroke-width:1px;stroke-linecap:butt;stroke-linejoin:miter;stroke-opacity:1" d="M 617.8,478.3 617.8,493.8 z" id="boundary" inkscape:connector-curvature="0" />
	<path style="fill:none;stroke:red;stroke-width:1px;stroke-linecap:butt;stroke-linejoin:miter;stroke-opacity:1" d="M 617.8,493.8 617.8,509.3 z" id="boundary" inkscape:connector-curvature="0" />
	<path style="fill:none;stroke:red;stroke-width:1px;stroke-linecap:butt;stroke-linejoin:miter;stroke-opacity:1" d="M 617.8,509.3 610.05,524.8 z" id="boundary" inkscape:connector-curvature="0" />
	<path style="fill:none;stroke:red;stroke-width:1px;stroke-linecap:butt;stroke-linejoin:miter;stroke-opacity:1" d="M 610.05,524.8 602.3,540.3 z" id="boundary" inkscape:connector-curvature="0" />
	<path style="fill:none;stroke:red;stroke-width:1px;stroke-linecap:butt;stroke-linejoin:miter;stroke-opacity:1" d="M 602.3,540.3 594.55,555.8 z" id="boundary" inkscape:connector-curvature="0" />
	<path style="fill:none;stroke:red;stroke-width:1px;stroke-linecap:butt;stroke-linejoin:miter;stroke-opacity:1" d="M 594.55,555.8 586.8,579.05 z" id="boundary" inkscape:connector-curvature="0" />
	<path style="fill:none;stroke:red;stroke-width:1px;stroke-linecap:butt;stroke-linejoin:miter;stroke-opacity:1" d="M 586.8,579.05 579.05,594.55 z" id="boundary" inkscape:connector-curvature="0" />
	<path style="fill:none;stroke:red;stroke-width:1px;stroke-linecap:butt;stroke-linejoin:miter;stroke-opacity:1" d="M 579.05,594.55 571.3,610.05 z" id="boundary" inkscape:connector-curvature="0" />
	<path style="fill:none;stroke:red;stroke-width:1px;stroke-linecap:butt;stroke-linejoin:miter;stroke-opacity:1" d="M 571.3,610.05 563.55,633.3 z" id="boundary" inkscape:connector-curvature="0" />
	<path style="fill:none;stroke:red;stroke-width:1px;stroke-linecap:butt;stroke-linejoin:miter;stroke-opacity:1" d="M 563.55,633.3 555.8,648.8 z" id="boundary" inkscape:connector-curvature="0" />
	<path style="fill:none;stroke:red;stroke-width:1px;stroke-linecap:butt;stroke-linejoin:miter;stroke-opacity:1" d="M 555.8,648.8 543.4,670.5 z" id="boundary" inkscape:connector-curvature="0" />
	<path style="fill:none;stroke:red;stroke-width:1px;stroke-linecap:butt;stroke-linejoin:miter;stroke-opacity:1" d="M 543.4,670.5 527.9,678.25 z" id="boundary" inkscape:connector-curvature="0" />
	<path style="fill:none;stroke:red;stroke-width:1px;stroke-linecap:butt;stroke-linejoin:miter;stroke-opacity:1" d="M 527.9,678.25 513.95,687.55 z" id="boundary" inkscape:connector-curvature="0" />
	<path style="fill:none;stroke:red;stroke-width:1px;stroke-linecap:butt;stroke-linejoin:miter;stroke-opacity:1" d="M 513.95,687.55 500,695.3 z" id="boundary" inkscape:connector-curvature="0" />
	<path style="fill:none;stroke:red;stroke-width:1px;stroke-linecap:butt;stroke-linejoin:miter;stroke-opacity:1" d="M 500,695.3 484.5,696.85 z" id="boundary" inkscape:connector-curvature="0" />
	<path style="fill:none;stroke:red;stroke-width:1px;stroke-linecap:butt;stroke-linejoin:miter;stroke-opacity:1" d="M 484.5,696.85 476.75,682.9 z" id="boundary" inkscape:connector-curvature="0" />
	<path style="fill:none;stroke:red;stroke-width:1px;stroke-linecap:butt;stroke-linejoin:miter;stroke-opacity:1" d="M 476.75,682.9 469,668.95 z" id="boundary" inkscape:connector-curvature="0" />
	<path style="fill:none;stroke:red;stroke-width:1px;stroke-linecap:butt;stroke-linejoin:miter;stroke-opacity:1" d="M 469,668.95 469,653.45 z" id="boundary" inkscape:connector-curvature="0" />
	<path style="fill:none;stroke:red;stroke-width:1px;stroke-linecap:butt;stroke-linejoin:miter;stroke-opacity:1" d="M 469,653.45 461.25,639.5 z" id="boundary" inkscape:connector-curvature="0" />
	<path style="fill:none;stroke:red;stroke-width:1px;stroke-linecap:butt;stroke-linejoin:miter;stroke-opacity:1" d="M 461.25,639.5 461.25,624 z" id="boundary" inkscape:connector-curvature="0" />
	<path style="fill:none;stroke:red;stroke-width:1px;stroke-linecap:butt;stroke-linejoin:miter;stroke-opacity:1" d="M 461.25,624 453.5,610.05 z" id="boundary" inkscape:connector-curvature="0" />
	<path style="fill:none;stroke:red;stroke-width:1px;stroke-linecap:butt;stroke-linejoin:miter;stroke-opacity:1" d="M 453.5,610.05 450.4,594.55 z" id="boundary" inkscape:connector-curvature="0" />
	<path style="fill:none;stroke:red;stroke-width:1px;stroke-linecap:butt;stroke-linejoin:miter;stroke-opacity:1" d="M 450.4,594.55 445.75,579.05 z" id="boundary" inkscape:connector-curvature="0" />
	<path style="fill:none;stroke:red;stroke-width:1px;stroke-linecap:butt;stroke-linejoin:miter;stroke-opacity:1" d="M 445.75,579.05 442.65,563.55 z" id="boundary" inkscape:connector-curvature="0" />
	<path style="fill:none;stroke:red;stroke-width:1px;stroke-linecap:butt;stroke-linejoin:miter;stroke-opacity:1" d="M 442.65,563.55 438,548.05 z" id="boundary" inkscape:connector-curvature="0" />
	<path style="fill:none;stroke:red;stroke-width:1px;stroke-linecap:butt;stroke-linejoin:miter;stroke-opacity:1" d="M 438,548.05 438,532.55 z" id="boundary" inkscape:connector-curvature="0" />
	<path style="fill:none;stroke:red;stroke-width:1px;stroke-linecap:butt;stroke-linejoin:miter;stroke-opacity:1" d="M 438,532.55 430.25,518.6 z" id="boundary" inkscape:connector-curvature="0" />
	<path style="fill:none;stroke:red;stroke-width:1px;stroke-linecap:butt;stroke-linejoin:miter;stroke-opacity:1" d="M 430.25,518.6 422.5,504.65 z" id="boundary" inkscape:connector-curvature="0" />
	<path style="fill:none;stroke:red;stroke-width:1px;stroke-linecap:butt;stroke-linejoin:miter;stroke-opacity:1" d="M 422.5,504.65 422.5,489.15 z" id="boundary" inkscape:connector-curvature="0" />
	<path style="fill:none;stroke:red;stroke-width:1px;stroke-linecap:butt;stroke-linejoin:miter;stroke-opacity:1" d="M 422.5,489.15 414.75,475.2 z" id="boundary" inkscape:connector-curvature="0" />
	<path style="fill:none;stroke:red;stroke-width:1px;stroke-linecap:butt;stroke-linejoin:miter;stroke-opacity:1" d="M 414.75,475.2 408.55,459.7 z" id="boundary" inkscape:connector-curvature="0" />
	<path style="fill:none;stroke:red;stroke-width:1px;stroke-linecap:butt;stroke-linejoin:miter;stroke-opacity:1" d="M 408.55,459.7 399.25,447.3 z" id="boundary" inkscape:connector-curvature="0" />
	<path style="fill:none;stroke:red;stroke-width:1px;stroke-linecap:butt;stroke-linejoin:miter;stroke-opacity:1" d="M 399.25,447.3 383.75,447.3 z" id="boundary" inkscape:connector-curvature="0" />
	<path style="fill:none;stroke:red;stroke-width:1px;stroke-linecap:butt;stroke-linejoin:miter;stroke-opacity:1" d="M 383.75,447.3 368.25,447.3 z" id="boundary" inkscape:connector-curvature="0" />
	<path style="fill:none;stroke:red;stroke-width:1px;stroke-linecap:butt;stroke-linejoin:miter;stroke-opacity:1" d="M 368.25,447.3 354.3,455.05 z" id="boundary" inkscape:connector-curvature="0" />
	<path style="fill:none;stroke:red;stroke-width:1px;stroke-linecap:butt;stroke-linejoin:miter;stroke-opacity:1" d="M 354.3,455.05 338.8,455.05 z" id="boundary" inkscape:connector-curvature="0" />
	<path style="fill:none;stroke:red;stroke-width:1px;stroke-linecap:butt;stroke-linejoin:miter;stroke-opacity:1" d="M 338.8,455.05 324.85,462.8 z" id="boundary" inkscape:connector-curvature="0" />
	<path style="fill:none;stroke:red;stroke-width:1px;stroke-linecap:butt;stroke-linejoin:miter;stroke-opacity:1" d="M 324.85,462.8 310.9,470.55 z" id="boundary" inkscape:connector-curvature="0" />
	<path style="fill:none;stroke:red;stroke-width:1px;stroke-linecap:butt;stroke-linejoin:miter;stroke-opacity:1" d="M 310.9,470.55 296.95,462.8 z" id="boundary" inkscape:connector-curvature="0" />
	<path style="fill:none;stroke:red;stroke-width:1px;stroke-linecap:butt;stroke-linejoin:miter;stroke-opacity:1" d="M 296.95,462.8 283,455.05 z" id="boundary" inkscape:connector-curvature="0" />
	<path style="fill:none;stroke:red;stroke-width:1px;stroke-linecap:butt;stroke-linejoin:miter;stroke-opacity:1" d="M 283,455.05 267.5,455.05 z" id="boundary" inkscape:connector-curvature="0" />
	<path style="fill:none;stroke:red;stroke-width:1px;stroke-linecap:butt;stroke-linejoin:miter;stroke-opacity:1" d="M 267.5,455.05 253.55,462.8 z" id="boundary" inkscape:connector-curvature="0" />
	<path style="fill:none;stroke:red;stroke-width:1px;stroke-linecap:butt;stroke-linejoin:miter;stroke-opacity:1" d="M 253.55,462.8 253.55,478.3 z" id="boundary" inkscape:connector-curvature="0" />
	<path style="fill:none;stroke:red;stroke-width:1px;stroke-linecap:butt;stroke-linejoin:miter;stroke-opacity:1" d="M 253.55,478.3 253.55,493.8 z" id="boundary" inkscape:connector-curvature="0" />
	<path style="fill:none;stroke:red;stroke-width:1px;stroke-linecap:butt;stroke-linejoin:miter;stroke-opacity:1" d="M 253.55,493.8 253.55,509.3 z" id="boundary" inkscape:connector-curvature="0" />
	<path style="fill:none;stroke:red;stroke-width:1px;stroke-linecap:butt;stroke-linejoin:miter;stroke-opacity:1" d="M 253.55,509.3 253.55,524.8 z" id="boundary" inkscape:connector-curvature="0" />
	<path style="fill:none;stroke:red;stroke-width:1px;stroke-linecap:butt;stroke-linejoin:miter;stroke-opacity:1" d="M 253.55,524.8 253.55,540.3 z" id="boundary" inkscape:connector-curvature="0" />
	<path style="fill:none;stroke:red;stroke-width:1px;stroke-linecap:butt;stroke-linejoin:miter;stroke-opacity:1" d="M 253.55,540.3 253.55,555.8 z" id="boundary" inkscape:connector-curvature="0" />
	<path style="fill:none;stroke:red;stroke-width:1px;stroke-linecap:butt;stroke-linejoin:miter;stroke-opacity:1" d="M 253.55,555.8 253.55,571.3 z" id="boundary" inkscape:connector-curvature="0" />
	<path style="fill:none;stroke:red;stroke-width:1px;stroke-linecap:butt;stroke-linejoin:miter;stroke-opacity:1" d="M 253.55,571.3 253.55,586.8 z" id="boundary" inkscape:connector-curvature="0" />
	<path style="fill:none;stroke:red;stroke-width:1px;stroke-linecap:butt;stroke-linejoin:miter;stroke-opacity:1" d="M 253.55,586.8 253.55,602.3 z" id="boundary" inkscape:connector-curvature="0" />
	<path style="fill:none;stroke:red;stroke-width:1px;stroke-linecap:butt;stroke-linejoin:miter;stroke-opacity:1" d="M 253.55,602.3 253.55,617.8 z" id="boundary" inkscape:connector-curvature="0" />
	<path style="fill:none;stroke:red;stroke-width:1px;stroke-linecap:butt;stroke-linejoin:miter;stroke-opacity:1" d="M 253.55,617.8 253.55,633.3 z" id="boundary" inkscape:connector-curvature="0" />
	<path style="fill:none;stroke:red;stroke-width:1px;stroke-linecap:butt;stroke-linejoin:miter;stroke-opacity:1" d="M 253.55,633.3 253.55,648.8 z" id="boundary" inkscape:connector-curvature="0" />
	<path style="fill:none;stroke:red;stroke-width:1px;stroke-linecap:butt;stroke-linejoin:miter;stroke-opacity:1" d="M 253.55,648.8 252,675.15 z" id="boundary" inkscape:connector-curvature="0" />
	<path style="fill:none;stroke:red;stroke-width:1px;stroke-linecap:butt;stroke-linejoin:miter;stroke-opacity:1" d="M 252,675.15 236.5,679.8 z" id="boundary" inkscape:connector-curvature="0" />
	<path style="fill:none;stroke:red;stroke-width:1px;stroke-linecap:butt;stroke-linejoin:miter;stroke-opacity:1" d="M 236.5,679.8 221,679.8 z" id="boundary" inkscape:connector-curvature="0" />
	<path style="fill:none;stroke:red;stroke-width:1px;stroke-linecap:butt;stroke-linejoin:miter;stroke-opacity:1" d="M 221,679.8 205.5,679.8 z" id="boundary" inkscape:connector-curvature="0" />
	<path style="fill:none;stroke:red;stroke-width:1px;stroke-linecap:butt;stroke-linejoin:miter;stroke-opacity:1" d="M 205.5,679.8 190,679.8 z" id="boundary" inkscape:connector-curvature="0" />
	<path style="fill:none;stroke:red;stroke-width:1px;stroke-linecap:butt;stroke-linejoin:miter;stroke-opacity:1" d="M 190,679.8 174.5,679.8 z" id="boundary" inkscape:connector-curvature="0" />
	<path style="fill:none;stroke:red;stroke-width:1px;stroke-linecap:butt;stroke-linejoin:miter;stroke-opacity:1" d="M 174.5,679.8 159,679.8 z" id="boundary" inkscape:connector-curvature="0" />
	<path style="fill:none;stroke:red;stroke-width:1px;stroke-linecap:butt;stroke-linejoin:miter;stroke-opacity:1" d="M 159,679.8 143.5,679.8 z" id="boundary" inkscape:connector-curvature="0" />
	<path style="fill:none;stroke:red;stroke-width:1px;stroke-linecap:butt;stroke-linejoin:miter;stroke-opacity:1" d="M 143.5,679.8 128,679.8 z" id="boundary" inkscape:connector-curvature="0" />
	<path style="fill:none;stroke:red;stroke-width:1px;stroke-linecap:butt;stroke-linejoin:miter;stroke-opacity:1" d="M 128,679.8 112.5,679.8 z" id="boundary" inkscape:connector-curvature="0" />
	<path style="fill:none;stroke:red;stroke-width:1px;stroke-linecap:butt;stroke-linejoin:miter;stroke-opacity:1" d="M 112.5,679.8 97,679.8 z" id="boundary" inkscape:connector-curvature="0" />
	<path style="fill:none;stroke:red;stroke-width:1px;stroke-linecap:butt;stroke-linejoin:miter;stroke-opacity:1" d="M 97,679.8 81.5,679.8 z" id="boundary" inkscape:connector-curvature="0" />
	<path style="fill:none;stroke:red;stroke-width:1px;stroke-linecap:butt;stroke-linejoin:miter;stroke-opacity:1" d="M 81.5,679.8 66,679.8 z" id="boundary" inkscape:connector-curvature="0" />
	<path style="fill:none;stroke:red;stroke-width:1px;stroke-linecap:butt;stroke-linejoin:miter;stroke-opacity:1" d="M 66,679.8 50.5,679.8 z" id="boundary" inkscape:connector-curvature="0" />
	<path style="fill:none;stroke:red;stroke-width:1px;stroke-linecap:butt;stroke-linejoin:miter;stroke-opacity:1" d="M 50.5,679.8 35,679.8 z" id="boundary" inkscape:connector-curvature="0" />
	<path style="fill:none;stroke:red;stroke-width:1px;stroke-linecap:butt;stroke-linejoin:miter;stroke-opacity:1" d="M 35,679.8 19.5,679.8 z" id="boundary" inkscape:connector-curvature="0" />
	<path style="fill:none;stroke:red;stroke-width:1px;stroke-linecap:butt;stroke-linejoin:miter;stroke-opacity:1" d="M 19.5,679.8 4,675.15 z" id="boundary" inkscape:connector-curvature="0" />
	<path style="fill:none;stroke:red;stroke-width:1px;stroke-linecap:butt;stroke-linejoin:miter;stroke-opacity:1" d="M 4,675.15 4,659.65 z" id="boundary" inkscape:connector-curvature="0" />
	<path style="fill:none;stroke:red;stroke-width:1px;stroke-linecap:butt;stroke-linejoin:miter;stroke-opacity:1" d="M 4,659.65 4,644.15 z" id="boundary" inkscape:connector-curvature="0" />
	<path style="fill:none;stroke:red;stroke-width:1px;stroke-linecap:butt;stroke-linejoin:miter;stroke-opacity:1" d="M 4,644.15 4,628.65 z" id="boundary" inkscape:connector-curvature="0" />
	<path style="fill:none;stroke:red;stroke-width:1px;stroke-linecap:butt;stroke-linejoin:miter;stroke-opacity:1" d="M 4,628.65 4,613.15 z" id="boundary" inkscape:connector-curvature="0" />
	<path style="fill:none;stroke:red;stroke-width:1px;stroke-linecap:butt;stroke-linejoin:miter;stroke-opacity:1" d="M 4,613.15 4,597.65 z" id="boundary" inkscape:connector-curvature="0" />
	<path style="fill:none;stroke:red;stroke-width:1px;stroke-linecap:butt;stroke-linejoin:miter;stroke-opacity:1" d="M 4,597.65 4,582.15 z" id="boundary" inkscape:connector-curvature="0" />
	<path style="fill:none;stroke:red;stroke-width:1px;stroke-linecap:butt;stroke-linejoin:miter;stroke-opacity:1" d="M 4,582.15 4,566.65 z" id="boundary" inkscape:connector-curvature="0" />
	<path style="fill:none;stroke:red;stroke-width:1px;stroke-linecap:butt;stroke-linejoin:miter;stroke-opacity:1" d="M 4,566.65 4,551.15 z" id="boundary" inkscape:connector-curvature="0" />
	<path style="fill:none;stroke:red;stroke-width:1px;stroke-linecap:butt;stroke-linejoin:miter;stroke-opacity:1" d="M 4,551.15 4,535.65 z" id="boundary" inkscape:connector-curvature="0" />
	<path style="fill:none;stroke:red;stroke-width:1px;stroke-linecap:butt;stroke-linejoin:miter;stroke-opacity:1" d="M 4,535.65 4,520.15 z" id="boundary" inkscape:connector-curvature="0" />
	<path style="fill:none;stroke:red;stroke-width:1px;stroke-linecap:butt;stroke-linejoin:miter;stroke-opacity:1" d="M 4,520.15 4,504.65 z" id="boundary" inkscape:connector-curvature="0" />
	<path style="fill:none;stroke:red;stroke-width:1px;stroke-linecap:butt;stroke-linejoin:miter;stroke-opacity:1" d="M 4,504.65 4,489.15 z" id="boundary" inkscape:connector-curvature="0" />
	<path style="fill:none;stroke:red;stroke-width:1px;stroke-linecap:butt;stroke-linejoin:miter;stroke-opacity:1" d="M 4,489.15 4,473.65 z" id="boundary" inkscape:connector-curvature="0" />
	<path style="fill:none;stroke:red;stroke-width:1px;stroke-linecap:butt;stroke-linejoin:miter;stroke-opacity:1" d="M 4,473.65 4,458.15 z" id="boundary" inkscape:connector-curvature="0" />
	<path style="fill:none;stroke:red;stroke-width:1px;stroke-linecap:butt;stroke-linejoin:miter;stroke-opacity:1" d="M 4,458.15 4,442.65 z" id="boundary" inkscape:connector-curvature="0" />
	<path style="fill:none;stroke:red;stroke-width:1px;stroke-linecap:butt;stroke-linejoin:miter;stroke-opacity:1" d="M 4,442.65 4,427.15 z" id="boundary" inkscape:connector-curvature="0" />
	<path style="fill:none;stroke:red;stroke-width:1px;stroke-linecap:butt;stroke-linejoin:miter;stroke-opacity:1" d="M 4,427.15 4,411.65 z" id="boundary" inkscape:connector-curvature="0" />
	<path style="fill:none;stroke:red;stroke-width:1px;stroke-linecap:butt;stroke-linejoin:miter;stroke-opacity:1" d="M 4,411.65 4,396.15 z" id="boundary" inkscape:connector-curvature="0" />
	<path style="fill:none;stroke:red;stroke-width:1px;stroke-linecap:butt;stroke-linejoin:miter;stroke-opacity:1" d="M 4,396.15 4,380.65 z" id="boundary" inkscape:connector-curvature="0" />
	<path style="fill:none;stroke:red;stroke-width:1px;stroke-linecap:butt;stroke-linejoin:miter;stroke-opacity:1" d="M 4,380.65 4,365.15 z" id="boundary" inkscape:connector-curvature="0" />
	<path style="fill:none;stroke:red;stroke-width:1px;stroke-linecap:butt;stroke-linejoin:miter;stroke-opacity:1" d="M 4,365.15 19.5,360.5 z" id="boundary" inkscape:connector-curvature="0" />
	<path style="fill:none;stroke:red;stroke-width:1px;stroke-linecap:butt;stroke-linejoin:miter;stroke-opacity:1" d="M 19.5,360.5 35,360.5 z" id="boundary" inkscape:connector-curvature="0" />
	<path style="fill:none;stroke:red;stroke-width:1px;stroke-linecap:butt;stroke-linejoin:miter;stroke-opacity:1" d="M 35,360.5 50.5,360.5 z" id="boundary" inkscape:connector-curvature="0" />
	<path style="fill:none;stroke:red;stroke-width:1px;stroke-linecap:butt;stroke-linejoin:miter;stroke-opacity:1" d="M 50.5,360.5 66,360.5 z" id="boundary" inkscape:connector-curvature="0" />
	<path style="fill:none;stroke:red;stroke-width:1px;stroke-linecap:butt;stroke-linejoin:miter;stroke-opacity:1" d="M 66,360.5 81.5,360.5 z" id="boundary" inkscape:connector-curvature="0" />
	<path style="fill:none;stroke:red;stroke-width:1px;stroke-linecap:butt;stroke-linejoin:miter;stroke-opacity:1" d="M 81.5,360.5 97,360.5 z" id="boundary" inkscape:connector-curvature="0" />
	<path style="fill:none;stroke:red;stroke-width:1px;stroke-linecap:butt;stroke-linejoin:miter;stroke-opacity:1" d="M 97,360.5 112.5,360.5 z" id="boundary" inkscape:connector-curvature="0" />
	<path style="fill:none;stroke:red;stroke-width:1px;stroke-linecap:butt;stroke-linejoin:miter;stroke-opacity:1" d="M 112.5,360.5 128,360.5 z" id="boundary" inkscape:connector-curvature="0" />
	<path style="fill:none;stroke:red;stroke-width:1px;stroke-linecap:butt;stroke-linejoin:miter;stroke-opacity:1" d="M 128,360.5 143.5,360.5 z" id="boundary" inkscape:connector-curvature="0" />
	<path style="fill:none;stroke:red;stroke-width:1px;stroke-linecap:butt;stroke-linejoin:miter;stroke-opacity:1" d="M 143.5,360.5 159,360.5 z" id="boundary" inkscape:connector-curvature="0" />
	<path style="fill:none;stroke:red;stroke-width:1px;stroke-linecap:butt;stroke-linejoin:miter;stroke-opacity:1" d="M 159,360.5 174.5,360.5 z" id="boundary" inkscape:connector-curvature="0" />
	<path style="fill:none;stroke:red;stroke-width:1px;stroke-linecap:butt;stroke-linejoin:miter;stroke-opacity:1" d="M 174.5,360.5 190,360.5 z" id="boundary" inkscape:connector-curvature="0" />
	<path style="fill:none;stroke:red;stroke-width:1px;stroke-linecap:butt;stroke-linejoin:miter;stroke-opacity:1" d="M 190,360.5 205.5,360.5 z" id="boundary" inkscape:connector-curvature="0" />
	<path style="fill:none;stroke:red;stroke-width:1px;stroke-linecap:butt;stroke-linejoin:miter;stroke-opacity:1" d="M 205.5,360.5 221,360.5 z" id="boundary" inkscape:connector-curvature="0" />
	<path style="fill:none;stroke:red;stroke-width:1px;stroke-linecap:butt;stroke-linejoin:miter;stroke-opacity:1" d="M 221,360.5 236.5,360.5 z" id="boundary" inkscape:connector-curvature="0" />
	<path style="fill:none;stroke:red;stroke-width:1px;stroke-linecap:butt;stroke-linejoin:miter;stroke-opacity:1" d="M 236.5,360.5 250.45,352.75 z" id="boundary" inkscape:connector-curvature="0" />
	<path style="fill:none;stroke:red;stroke-width:1px;stroke-linecap:butt;stroke-linejoin:miter;stroke-opacity:1" d="M 250.45,352.75 264.4,345 z" id="boundary" inkscape:connector-curvature="0" />
	<path style="fill:none;stroke:red;stroke-width:1px;stroke-linecap:butt;stroke-linejoin:miter;stroke-opacity:1" d="M 264.4,345 276.8,332.6 z" id="boundary" inkscape:connector-curvature="0" />
	<path style="fill:none;stroke:red;stroke-width:1px;stroke-linecap:butt;stroke-linejoin:miter;stroke-opacity:1" d="M 276.8,332.6 289.2,321.75 z" id="boundary" inkscape:connector-curvature="0" />
	<path style="fill:none;stroke:red;stroke-width:1px;stroke-linecap:butt;stroke-linejoin:miter;stroke-opacity:1" d="M 289.2,321.75 300.05,309.35 z" id="boundary" inkscape:connector-curvature="0" />
	<path style="fill:none;stroke:red;stroke-width:1px;stroke-linecap:butt;stroke-linejoin:miter;stroke-opacity:1" d="M 300.05,309.35 306.25,287.65 z" id="boundary" inkscape:connector-curvature="0" />
	<path style="fill:none;stroke:red;stroke-width:1px;stroke-linecap:butt;stroke-linejoin:miter;stroke-opacity:1" d="M 306.25,287.65 306.25,272.15 z" id="boundary" inkscape:connector-curvature="0" />
	<path style="fill:none;stroke:red;stroke-width:1px;stroke-linecap:butt;stroke-linejoin:miter;stroke-opacity:1" d="M 306.25,272.15 295.4,259.75 z" id="boundary" inkscape:connector-curvature="0" />
	<path style="fill:none;stroke:red;stroke-width:1px;stroke-linecap:butt;stroke-linejoin:miter;stroke-opacity:1" d="M 295.4,259.75 283,248.9 z" id="boundary" inkscape:connector-curvature="0" />
	<path style="fill:none;stroke:red;stroke-width:1px;stroke-linecap:butt;stroke-linejoin:miter;stroke-opacity:1" d="M 283,248.9 275.25,234.95 z" id="boundary" inkscape:connector-curvature="0" />
	<path style="fill:none;stroke:red;stroke-width:1px;stroke-linecap:butt;stroke-linejoin:miter;stroke-opacity:1" d="M 275.25,234.95 264.4,222.55 z" id="boundary" inkscape:connector-curvature="0" />
	<path style="fill:none;stroke:red;stroke-width:1px;stroke-linecap:butt;stroke-linejoin:miter;stroke-opacity:1" d="M 264.4,222.55 253.55,210.15 z" id="boundary" inkscape:connector-curvature="0" />
	<path style="fill:none;stroke:red;stroke-width:1px;stroke-linecap:butt;stroke-linejoin:miter;stroke-opacity:1" d="M 253.55,210.15 241.15,199.3 z" id="boundary" inkscape:connector-curvature="0" />
	<path style="fill:none;stroke:red;stroke-width:1px;stroke-linecap:butt;stroke-linejoin:miter;stroke-opacity:1" d="M 241.15,199.3 234.95,183.8 z" id="boundary" inkscape:connector-curvature="0" />
	<path style="fill:none;stroke:red;stroke-width:1px;stroke-linecap:butt;stroke-linejoin:miter;stroke-opacity:1" d="M 234.95,183.8 221,176.05 z" id="boundary" inkscape:connector-curvature="0" />
	<path style="fill:none;stroke:red;stroke-width:1px;stroke-linecap:butt;stroke-linejoin:miter;stroke-opacity:1" d="M 221,176.05 208.6,166.75 z" id="boundary" inkscape:connector-curvature="0" />
	<path style="fill:none;stroke:red;stroke-width:1px;stroke-linecap:butt;stroke-linejoin:miter;stroke-opacity:1" d="M 208.6,166.75 202.4,151.25 z" id="boundary" inkscape:connector-curvature="0" />
	<path style="fill:none;stroke:red;stroke-width:1px;stroke-linecap:butt;stroke-linejoin:miter;stroke-opacity:1" d="M 202.4,151.25 190,140.4 z" id="boundary" inkscape:connector-curvature="0" />
	<path style="fill:none;stroke:red;stroke-width:1px;stroke-linecap:butt;stroke-linejoin:miter;stroke-opacity:1" d="M 190,140.4 179.15,128 z" id="boundary" inkscape:connector-curvature="0" />
	<path style="fill:none;stroke:red;stroke-width:1px;stroke-linecap:butt;stroke-linejoin:miter;stroke-opacity:1" d="M 179.15,128 166.75,117.15 z" id="boundary" inkscape:connector-curvature="0" />
	<path style="fill:none;stroke:red;stroke-width:1px;stroke-linecap:butt;stroke-linejoin:miter;stroke-opacity:1" d="M 166.75,117.15 155.9,104.75 z" id="boundary" inkscape:connector-curvature="0" />
	<path style="fill:none;stroke:red;stroke-width:1px;stroke-linecap:butt;stroke-linejoin:miter;stroke-opacity:1" d="M 155.9,104.75 143.5,93.9 z" id="boundary" inkscape:connector-curvature="0" />
	<path style="fill:none;stroke:red;stroke-width:1px;stroke-linecap:butt;stroke-linejoin:miter;stroke-opacity:1" d="M 143.5,93.9 143.5,78.4 z" id="boundary" inkscape:connector-curvature="0" />
	<path style="fill:none;stroke:red;stroke-width:1px;stroke-linecap:butt;stroke-linejoin:miter;stroke-opacity:1" d="M 143.5,78.4 155.9,66 z" id="boundary" inkscape:connector-curvature="0" />
	<path style="fill:none;stroke:red;stroke-width:1px;stroke-linecap:butt;stroke-linejoin:miter;stroke-opacity:1" d="M 155.9,66 171.4,58.25 z" id="boundary" inkscape:connector-curvature="0" />
	<path style="fill:none;stroke:red;stroke-width:1px;stroke-linecap:butt;stroke-linejoin:miter;stroke-opacity:1" d="M 171.4,58.25 185.35,50.5 z" id="boundary" inkscape:connector-curvature="0" />
	<path style="fill:none;stroke:red;stroke-width:1px;stroke-linecap:butt;stroke-linejoin:miter;stroke-opacity:1" d="M 185.35,50.5 199.3,42.75 z" id="boundary" inkscape:connector-curvature="0" />
	<path style="fill:none;stroke:red;stroke-width:1px;stroke-linecap:butt;stroke-linejoin:miter;stroke-opacity:1" d="M 199.3,42.75 214.8,47.4 z" id="boundary" inkscape:connector-curvature="0" />
	<path style="fill:none;stroke:red;stroke-width:1px;stroke-linecap:butt;stroke-linejoin:miter;stroke-opacity:1" d="M 214.8,47.4 230.3,50.5 z" id="boundary" inkscape:connector-curvature="0" />
	<path style="fill:none;stroke:red;stroke-width:1px;stroke-linecap:butt;stroke-linejoin:miter;stroke-opacity:1" d="M 230.3,50.5 245.8,50.5 z" id="boundary" inkscape:connector-curvature="0" />
	<path style="fill:none;stroke:red;stroke-width:1px;stroke-linecap:butt;stroke-linejoin:miter;stroke-opacity:1" d="M 245.8,50.5 261.3,50.5 z" id="boundary" inkscape:connector-curvature="0" />
	<path style="fill:none;stroke:red;stroke-width:1px;stroke-linecap:butt;stroke-linejoin:miter;stroke-opacity:1" d="M 261.3,50.5 276.8,55.15 z" id="boundary" inkscape:connector-curvature="0" />
	<path style="fill:none;stroke:red;stroke-width:1px;stroke-linecap:butt;stroke-linejoin:miter;stroke-opacity:1" d="M 276.8,55.15 292.3,58.25 z" id="boundary" inkscape:connector-curvature="0" />
	<path style="fill:none;stroke:red;stroke-width:1px;stroke-linecap:butt;stroke-linejoin:miter;stroke-opacity:1" d="M 292.3,58.25 307.8,58.25 z" id="boundary" inkscape:connector-curvature="0" />
	<path style="fill:none;stroke:red;stroke-width:1px;stroke-linecap:butt;stroke-linejoin:miter;stroke-opacity:1" d="M 307.8,58.25 323.3,58.25 z" id="boundary" inkscape:connector-curvature="0" />
	<path style="fill:none;stroke:red;stroke-width:1px;stroke-linecap:butt;stroke-linejoin:miter;stroke-opacity:1" d="M 323.3,58.25 338.8,62.9 z" id="boundary" inkscape:connector-curvature="0" />
	<path style="fill:none;stroke:red;stroke-width:1px;stroke-linecap:butt;stroke-linejoin:miter;stroke-opacity:1" d="M 338.8,62.9 354.3,66 z" id="boundary" inkscape:connector-curvature="0" />
	<path style="fill:none;stroke:red;stroke-width:1px;stroke-linecap:butt;stroke-linejoin:miter;stroke-opacity:1" d="M 354.3,66 369.8,66 z" id="boundary" inkscape:connector-curvature="0" />
	<path style="fill:none;stroke:red;stroke-width:1px;stroke-linecap:butt;stroke-linejoin:miter;stroke-opacity:1" d="M 369.8,66 377.55,79.95 z" id="boundary" inkscape:connector-curvature="0" />
	<path style="fill:none;stroke:red;stroke-width:1px;stroke-linecap:butt;stroke-linejoin:miter;stroke-opacity:1" d="M 377.55,79.95 393.05,81.5 z" id="boundary" inkscape:connector-curvature="0" />
	<path style="fill:none;stroke:red;stroke-width:1px;stroke-linecap:butt;stroke-linejoin:miter;stroke-opacity:1" d="M 393.05,81.5 407,89.25 z" id="boundary" inkscape:connector-curvature="0" />
	<path style="fill:none;stroke:red;stroke-width:1px;stroke-linecap:butt;stroke-linejoin:miter;stroke-opacity:1" d="M 407,89.25 422.5,89.25 z" id="boundary" inkscape:connector-curvature="0" />
	<path style="fill:none;stroke:red;stroke-width:1px;stroke-linecap:butt;stroke-linejoin:miter;stroke-opacity:1" d="M 422.5,89.25 438,86.15 z" id="boundary" inkscape:connector-curvature="0" />
	<path style="fill:none;stroke:red;stroke-width:1px;stroke-linecap:butt;stroke-linejoin:miter;stroke-opacity:1" d="M 438,86.15 450.4,73.75 z" id="boundary" inkscape:connector-curvature="0" />
	<path style="fill:none;stroke:red;stroke-width:1px;stroke-linecap:butt;stroke-linejoin:miter;stroke-opacity:1" d="M 450.4,73.75 465.9,66 z" id="boundary" inkscape:connector-curvature="0" />
	<path style="fill:none;stroke:red;stroke-width:1px;stroke-linecap:butt;stroke-linejoin:miter;stroke-opacity:1" d="M 465.9,66 481.4,58.25 z" id="boundary" inkscape:connector-curvature="0" />
	<path style="fill:none;stroke:red;stroke-width:1px;stroke-linecap:butt;stroke-linejoin:miter;stroke-opacity:1" d="M 481.4,58.25 496.9,50.5 z" id="boundary" inkscape:connector-curvature="0" />
	<path style="fill:none;stroke:red;stroke-width:1px;stroke-linecap:butt;stroke-linejoin:miter;stroke-opacity:1" d="M 496.9,50.5 512.4,42.75 z" id="boundary" inkscape:connector-curvature="0" />
	<path style="fill:none;stroke:red;stroke-width:1px;stroke-linecap:butt;stroke-linejoin:miter;stroke-opacity:1" d="M 512.4,42.75 527.9,42.75 z" id="boundary" inkscape:connector-curvature="0" />
	<path style="fill:none;stroke:red;stroke-width:1px;stroke-linecap:butt;stroke-linejoin:miter;stroke-opacity:1" d="M 527.9,42.75 541.85,35 z" id="boundary" inkscape:connector-curvature="0" />
	<path style="fill:none;stroke:red;stroke-width:1px;stroke-linecap:butt;stroke-linejoin:miter;stroke-opacity:1" d="M 541.85,35 555.8,27.25 z" id="boundary" inkscape:connector-curvature="0" />
	<path style="fill:none;stroke:red;stroke-width:1px;stroke-linecap:butt;stroke-linejoin:miter;stroke-opacity:1" d="M 555.8,27.25 560.45,42.75 z" id="boundary" inkscape:connector-curvature="0" />
	<path style="fill:none;stroke:red;stroke-width:1px;stroke-linecap:butt;stroke-linejoin:miter;stroke-opacity:1" d="M 560.45,42.75 548.05,52.05 z" id="boundary" inkscape:connector-curvature="0" />
	<path style="fill:none;stroke:red;stroke-width:1px;stroke-linecap:butt;stroke-linejoin:miter;stroke-opacity:1" d="M 548.05,52.05 535.65,66 z" id="boundary" inkscape:connector-curvature="0" />
	<path style="fill:none;stroke:red;stroke-width:1px;stroke-linecap:butt;stroke-linejoin:miter;stroke-opacity:1" d="M 535.65,66 523.25,75.3 z" id="boundary" inkscape:connector-curvature="0" />
	<path style="fill:none;stroke:red;stroke-width:1px;stroke-linecap:butt;stroke-linejoin:miter;stroke-opacity:1" d="M 523.25,75.3 509.3,83.05 z" id="boundary" inkscape:connector-curvature="0" />
	<path style="fill:none;stroke:red;stroke-width:1px;stroke-linecap:butt;stroke-linejoin:miter;stroke-opacity:1" d="M 509.3,83.05 493.8,90.8 z" id="boundary" inkscape:connector-curvature="0" />
	<path style="fill:none;stroke:red;stroke-width:1px;stroke-linecap:butt;stroke-linejoin:miter;stroke-opacity:1" d="M 493.8,90.8 501.55,104.75 z" id="boundary" inkscape:connector-curvature="0" />
	<path style="fill:none;stroke:red;stroke-width:1px;stroke-linecap:butt;stroke-linejoin:miter;stroke-opacity:1" d="M 501.55,104.75 517.05,104.75 z" id="boundary" inkscape:connector-curvature="0" />
	<path style="fill:none;stroke:red;stroke-width:1px;stroke-linecap:butt;stroke-linejoin:miter;stroke-opacity:1" d="M 517.05,104.75 532.55,104.75 z" id="boundary" inkscape:connector-curvature="0" />
	<path style="fill:none;stroke:red;stroke-width:1px;stroke-linecap:butt;stroke-linejoin:miter;stroke-opacity:1" d="M 532.55,104.75 548.05,109.4 z" id="boundary" inkscape:connector-curvature="0" />
	<path style="fill:none;stroke:red;stroke-width:1px;stroke-linecap:butt;stroke-linejoin:miter;stroke-opacity:1" d="M 548.05,109.4 563.55,112.5 z" id="boundary" inkscape:connector-curvature="0" />
	<path style="fill:none;stroke:red;stroke-width:1px;stroke-linecap:butt;stroke-linejoin:miter;stroke-opacity:1" d="M 563.55,112.5 579.05,117.15 z" id="boundary" inkscape:connector-curvature="0" />
	<path style="fill:none;stroke:red;stroke-width:1px;stroke-linecap:butt;stroke-linejoin:miter;stroke-opacity:1" d="M 579.05,117.15 594.55,115.6 z" id="boundary" inkscape:connector-curvature="0" />
	<path style="fill:none;stroke:red;stroke-width:1px;stroke-linecap:butt;stroke-linejoin:miter;stroke-opacity:1" d="M 594.55,115.6 610.05,117.15 z" id="boundary" inkscape:connector-curvature="0" />
	<path style="fill:none;stroke:red;stroke-width:1px;stroke-linecap:butt;stroke-linejoin:miter;stroke-opacity:1" d="M 610.05,117.15 625.55,120.25 z" id="boundary" inkscape:connector-curvature="0" />
	<path style="fill:none;stroke:red;stroke-width:1px;stroke-linecap:butt;stroke-linejoin:miter;stroke-opacity:1" d="M 625.55,120.25 641.05,115.6 z" id="boundary" inkscape:connector-curvature="0" />
	<path style="fill:none;stroke:red;stroke-width:1px;stroke-linecap:butt;stroke-linejoin:miter;stroke-opacity:1" d="M 641.05,115.6 653.45,104.75 z" id="boundary" inkscape:connector-curvature="0" />
	<path style="fill:none;stroke:red;stroke-width:1px;stroke-linecap:butt;stroke-linejoin:miter;stroke-opacity:1" d="M 653.45,104.75 667.4,97 z" id="boundary" inkscape:connector-curvature="0" />
	<path style="fill:none;stroke:red;stroke-width:1px;stroke-linecap:butt;stroke-linejoin:miter;stroke-opacity:1" d="M 667.4,97 682.9,89.25 z" id="boundary" inkscape:connector-curvature="0" />
	<path style="fill:none;stroke:red;stroke-width:1px;stroke-linecap:butt;stroke-linejoin:miter;stroke-opacity:1" d="M 682.9,89.25 696.85,81.5 z" id="boundary" inkscape:connector-curvature="0" />
	<path style="fill:none;stroke:red;stroke-width:1px;stroke-linecap:butt;stroke-linejoin:miter;stroke-opacity:1" d="M 696.85,81.5 712.35,81.5 z" id="boundary" inkscape:connector-curvature="0" />
	<path style="fill:none;stroke:red;stroke-width:1px;stroke-linecap:butt;stroke-linejoin:miter;stroke-opacity:1" d="M 712.35,81.5 726.3,89.25 z" id="boundary" inkscape:connector-curvature="0" />
	<path style="fill:none;stroke:red;stroke-width:1px;stroke-linecap:butt;stroke-linejoin:miter;stroke-opacity:1" d="M 726.3,89.25 741.8,84.6 z" id="boundary" inkscape:connector-curvature="0" />
	<path style="fill:none;stroke:red;stroke-width:1px;stroke-linecap:butt;stroke-linejoin:miter;stroke-opacity:1" d="M 741.8,84.6 757.3,76.85 z" id="boundary" inkscape:connector-curvature="0" />
	<path style="fill:none;stroke:red;stroke-width:1px;stroke-linecap:butt;stroke-linejoin:miter;stroke-opacity:1" d="M 757.3,76.85 766.6,89.25 z" id="boundary" inkscape:connector-curvature="0" />
	<path style="fill:none;stroke:red;stroke-width:1px;stroke-linecap:butt;stroke-linejoin:miter;stroke-opacity:1" d="M 766.6,89.25 780.55,81.5 z" id="boundary" inkscape:connector-curvature="0" />
	<path style="fill:none;stroke:red;stroke-width:1px;stroke-linecap:butt;stroke-linejoin:miter;stroke-opacity:1" d="M 780.55,81.5 796.05,76.85 z" id="boundary" inkscape:connector-curvature="0" />
	<path style="fill:none;stroke:red;stroke-width:1px;stroke-linecap:butt;stroke-linejoin:miter;stroke-opacity:1" d="M 796.05,76.85 811.55,69.1 z" id="boundary" inkscape:connector-curvature="0" />
	<path style="fill:none;stroke:red;stroke-width:1px;stroke-linecap:butt;stroke-linejoin:miter;stroke-opacity:1" d="M 811.55,69.1 827.05,61.35 z" id="boundary" inkscape:connector-curvature="0" />
	<path style="fill:none;stroke:red;stroke-width:1px;stroke-linecap:butt;stroke-linejoin:miter;stroke-opacity:1" d="M 827.05,61.35 842.55,53.6 z" id="boundary" inkscape:connector-curvature="0" />
	<path style="fill:none;stroke:red;stroke-width:1px;stroke-linecap:butt;stroke-linejoin:miter;stroke-opacity:1" d="M 842.55,53.6 858.05,45.85 z" id="boundary" inkscape:connector-curvature="0" />
	<path style="fill:none;stroke:red;stroke-width:1px;stroke-linecap:butt;stroke-linejoin:miter;stroke-opacity:1" d="M 858.05,45.85 873.55,38.1 z" id="boundary" inkscape:connector-curvature="0" />
	<path style="fill:none;stroke:red;stroke-width:1px;stroke-linecap:butt;stroke-linejoin:miter;stroke-opacity:1" d="M 873.55,38.1 889.05,30.35 z" id="boundary" inkscape:connector-curvature="0" />
	<path style="fill:none;stroke:red;stroke-width:1px;stroke-linecap:butt;stroke-linejoin:miter;stroke-opacity:1" d="M 889.05,30.35 904.55,22.6 z" id="boundary" inkscape:connector-curvature="0" />
	<path style="fill:none;stroke:red;stroke-width:1px;stroke-linecap:butt;stroke-linejoin:miter;stroke-opacity:1" d="M 904.55,22.6 920.05,19.5 z" id="boundary" inkscape:connector-curvature="0" />
	<path style="fill:none;stroke:red;stroke-width:1px;stroke-linecap:butt;stroke-linejoin:miter;stroke-opacity:1" d="M 920.05,19.5 934,11.75 z" id="boundary" inkscape:connector-curvature="0" />
	<path style="fill:none;stroke:red;stroke-width:1px;stroke-linecap:butt;stroke-linejoin:miter;stroke-opacity:1" d="M 934,11.75 949.5,8.65 z" id="boundary" inkscape:connector-curvature="0" />
	<path style="fill:none;stroke:red;stroke-width:1px;stroke-linecap:butt;stroke-linejoin:miter;stroke-opacity:1" d="M 949.5,8.65 965,4 z" id="boundary" inkscape:connector-curvature="0" />
	<path style="fill:none;stroke:red;stroke-width:1px;stroke-linecap:butt;stroke-linejoin:miter;stroke-opacity:1" d="M 965,4 980.5,4 z" id="boundary" inkscape:connector-curvature="0" />
	<circle cx="4" cy="365.15" r="4" fill="#0" id="circle0"/>
	<circle cx="4" cy="380.65" r="4" fill="#0" id="circle1"/>
	<circle cx="4" cy="396.15" r="4" fill="#0" id="circle2"/>
	<circle cx="4" cy="411.65" r="4" fill="#0" id="circle3"/>
	<circle cx="4" cy="427.15" r="4" fill="#0" id="circle4"/>
	<circle cx="4" cy="442.65" r="4" fill="#0" id="circle5"/>
	<circle cx="4" cy="458.15" r="4" fill="#0" id="circle6"/>
	<circle cx="4" cy="473.65" r="4" fill="#0" id="circle7"/>
	<circle cx="4" cy="489.15" r="4" fill="#0" id="circle8"/>
	<circle cx="4" cy="504.65" r="4" fill="#0" id="circle9"/>
	<circle cx="4" cy="520.15" r="4" fill="#0" id="circle10"/>
	<circle cx="4" cy="535.65" r="4" fill="#0" id="circle11"/>
	<circle cx="4" cy="551.15" r="4" fill="#0" id="circle12"/>
	<circle cx="4" cy="566.65" r="4" fill="#0" id="circle13"/>
	<circle cx="4" cy="582.15" r="4" fill="#0" id="circle14"/>
	<circle cx="4" cy="597.65" r="4" fill="#0" id="circle15"/>
	<circle cx="4" cy="613.15" r="4" fill="#0" id="circle16"/>
	<circle cx="4" cy="628.65" r="4" fill="#0" id="circle17"/>
	<circle cx="4" cy="644.15" r="4" fill="#0" id="circle18"/>
	<circle cx="4" cy="659.65" r="4" fill="#0" id="circle19"/>
	<circle cx="4" cy="675.15" r="4" fill="#0" id="circle20"/>
	<circle cx="19.5" cy="360.5" r="4" fill="#0" id="circle21"/>
	<circle cx="19.5" cy="679.8" r="4" fill="#0" id="circle22"/>
	<circle cx="35" cy="360.5" r="4" fill="#0" id="circle23"/>
	<circle cx="35" cy="679.8" r="4" fill="#0" id="circle24"/>
	<circle cx="50.5" cy="360.5" r="4" fill="#0" id="circle25"/>
	<circle cx="50.5" cy="679.8" r="4" fill="#0" id="circle26"/>
	<circle cx="66" cy="360.5" r="4" fill="#0" id="circle27"/>
	<circle cx="66" cy="679.8" r="4" fill="#0" id="circle28"/>
	<circle cx="81.5" cy="360.5" r="4" fill="#0" id="circle29"/>
	<circle cx="81.5" cy="679.8" r="4" fill="#0" id="circle30"/>
	<circle cx="97" cy="360.5" r="4" fill="#0" id="circle31"/>
	<circle cx="97" cy="679.8" r="4" fill="#0" id="circle32"/>
	<circle cx="112.5" cy="360.5" r="4" fill="#0" id="circle33"/>
	<circle cx="112.5" cy="679.8" r="4" fill="#0" id="circle34"/>
	<circle cx="128" cy="360.5" r="4" fill="#0" id="circle35"/>
	<circle cx="128" cy="679.8" r="4" fill="#0" id="circle36"/>
	<circle cx="143.5" cy="78.4" r="4" fill="#0" id="circle37"/>
	<circle cx="143.5" cy="93.9" r="4" fill="#0" id="circle38"/>
	<circle cx="143.5" cy="360.5" r="4" fill="#0" id="circle39"/>
	<circle cx="143.5" cy="679.8" r="4" fill="#0" id="circle40"/>
	<circle cx="155.9" cy="66" r="4" fill="#0" id="circle41"/>
	<circle cx="155.9" cy="104.75" r="4" fill="#0" id="circle42"/>
	<circle cx="159" cy="360.5" r="4" fill="#0" id="circle43"/>
	<circle cx="159" cy="679.8" r="4" fill="#0" id="circle44"/>
	<circle cx="166.75" cy="117.15" r="4" fill="#0" id="circle45"/>
	<circle cx="171.4" cy="58.25" r="4" fill="#0" id="circle46"/>
	<circle cx="174.5" cy="360.5" r="4" fill="#0" id="circle47"/>
	<circle cx="174.5" cy="679.8" r="4" fill="#0" id="circle48"/>
	<circle cx="179.15" cy="128" r="4" fill="#0" id="circle49"/>
	<circle cx="185.35" cy="50.5" r="4" fill="#0" id="circle50"/>
	<circle cx="190" cy="140.4" r="4" fill="#0" id="circle51"/>
	<circle cx="190" cy="360.5" r="4" fill="#0" id="circle52"/>
	<circle cx="190" cy="679.8" r="4" fill="#0" id="circle53"/>
	<circle cx="199.3" cy="42.75" r="4" fill="#0" id="circle54"/>
	<circle cx="202.4" cy="151.25" r="4" fill="#0" id="circle55"/>
	<circle cx="205.5" cy="360.5" r="4" fill="#0" id="circle56"/>
	<circle cx="205.5" cy="679.8" r="4" fill="#0" id="circle57"/>
	<circle cx="208.6" cy="166.75" r="4" fill="#0" id="circle58"/>
	<circle cx="214.8" cy="47.4" r="4" fill="#0" id="circle59"/>
	<circle cx="221" cy="176.05" r="4" fill="#0" id="circle60"/>
	<circle cx="221" cy="360.5" r="4" fill="#0" id="circle61"/>
	<circle cx="221" cy="679.8" r="4" fill="#0" id="circle62"/>
	<circle cx="230.3" cy="50.5" r="4" fill="#0" id="circle63"/>
	<circle cx="234.95" cy="183.8" r="4" fill="#0" id="circle64"/>
	<circle cx="236.5" cy="360.5" r="4" fill="#0" id="circle65"/>
	<circle cx="236.5" cy="679.8" r="4" fill="#0" id="circle66"/>
	<circle cx="241.15" cy="199.3" r="4" fill="#0" id="circle67"/>
	<circle cx="245.8" cy="50.5" r="4" fill="#0" id="circle68"/>
	<circle cx="250.45" cy="352.75" r="4" fill="#0" id="circle69"/>
	<circle cx="252" cy="675.15" r="4" fill="#0" id="circle70"/>
	<circle cx="253.55" cy="210.15" r="4" fill="#0" id="circle71"/>
	<circle cx="253.55" cy="462.8" r="4" fill="#0" id="circle72"/>
	<circle cx="253.55" cy="478.3" r="4" fill="#0" id="circle73"/>
	<circle cx="253.55" cy="493.8" r="4" fill="#0" id="circle74"/>
	<circle cx="253.55" cy="509.3" r="4" fill="#0" id="circle75"/>
	<circle cx="253.55" cy="524.8" r="4" fill="#0" id="circle76"/>
	<circle cx="253.55" cy="540.3" r="4" fill="#0" id="circle77"/>
	<circle cx="253.55" cy="555.8" r="4" fill="#0" id="circle78"/>
	<circle cx="253.55" cy="571.3" r="4" fill="#0" id="circle79"/>
	<circle cx="253.55" cy="586.8" r="4" fill="#0" id="circle80"/>
	<circle cx="253.55" cy="602.3" r="4" fill="#0" id="circle81"/>
	<circle cx="253.55" cy="617.8" r="4" fill="#0" id="circle82"/>
	<circle cx="253.55" cy="633.3" r="4" fill="#0" id="circle83"/>
	<circle cx="253.55" cy="648.8" r="4" fill="#0" id="circle84"/>
	<circle cx="261.3" cy="50.5" r="4" fill="#0" id="circle85"/>
	<circle cx="264.4" cy="222.55" r="4" fill="#0" id="circle86"/>
	<circle cx="264.4" cy="345" r="4" fill="#0" id="circle87"/>
	<circle cx="267.5" cy="455.05" r="4" fill="#0" id="circle88"/>
	<circle cx="275.25" cy="234.95" r="4" fill="#0" id="circle89"/>
	<circle cx="276.8" cy="55.15" r="4" fill="#0" id="circle90"/>
	<circle cx="276.8" cy="332.6" r="4" fill="#0" id="circle91"/>
	<circle cx="283" cy="248.9" r="4" fill="#0" id="circle92"/>
	<circle cx="283" cy="455.05" r="4" fill="#0" id="circle93"/>
	<circle cx="289.2" cy="321.75" r="4" fill="#0" id="circle94"/>
	<circle cx="292.3" cy="58.25" r="4" fill="#0" id="circle95"/>
	<circle cx="295.4" cy="259.75" r="4" fill="#0" id="circle96"/>
	<circle cx="296.95" cy="462.8" r="4" fill="#0" id="circle97"/>
	<circle cx="300.05" cy="309.35" r="4" fill="#0" id="circle98"/>
	<circle cx="306.25" cy="272.15" r="4" fill="#0" id="circle99"/>
	<circle cx="306.25" cy="287.65" r="4" fill="#0" id="circle100"/>
	<circle cx="307.8" cy="58.25" r="4" fill="#0" id="circle101"/>
	<circle cx="310.9" cy="470.55" r="4" fill="#0" id="circle102"/>
	<circle cx="323.3" cy="58.25" r="4" fill="#0" id="circle103"/>
	<circle cx="324.85" cy="462.8" r="4" fill="#0" id="circle104"/>
	<circle cx="338.8" cy="62.9" r="4" fill="#0" id="circle105"/>
	<circle cx="338.8" cy="455.05" r="4" fill="#0" id="circle106"/>
	<circle cx="354.3" cy="66" r="4" fill="#0" id="circle107"/>
	<circle cx="354.3" cy="455.05" r="4" fill="#0" id="circle108"/>
	<circle cx="368.25" cy="447.3" r="4" fill="#0" id="circle109"/>
	<circle cx="369.8" cy="66" r="4" fill="#0" id="circle110"/>
	<circle cx="377.55" cy="79.95" r="4" fill="#0" id="circle111"/>
	<circle cx="383.75" cy="447.3" r="4" fill="#0" id="circle112"/>
	<circle cx="393.05" cy="81.5" r="4" fill="#0" id="circle113"/>
	<circle cx="399.25" cy="447.3" r="4" fill="#0" id="circle114"/>
	<circle cx="407" cy="89.25" r="4" fill="#0" id="circle115"/>
	<circle cx="408.55" cy="459.7" r="4" fill="#0" id="circle116"/>
	<circle cx="414.75" cy="475.2" r="4" fill="#0" id="circle117"/>
	<circle cx="422.5" cy="89.25" r="4" fill="#0" id="circle118"/>
	<circle cx="422.5" cy="489.15" r="4" fill="#0" id="circle119"/>
	<circle cx="422.5" cy="504.65" r="4" fill="#0" id="circle120"/>
	<circle cx="430.25" cy="518.6" r="4" fill="#0" id="circle121"/>
	<circle cx="438" cy="86.15" r="4" fill="#0" id="circle122"/>
	<circle cx="438" cy="532.55" r="4" fill="#0" id="circle123"/>
	<circle cx="438" cy="548.05" r="4" fill="#0" id="circle124"/>
	<circle cx="442.65" cy="563.55" r="4" fill="#0" id="circle125"/>
	<circle cx="445.75" cy="579.05" r="4" fill="#0" id="circle126"/>
	<circle cx="450.4" cy="73.75" r="4" fill="#0" id="circle127"/>
	<circle cx="450.4" cy="594.55" r="4" fill="#0" id="circle128"/>
	<circle cx="453.5" cy="610.05" r="4" fill="#0" id="circle129"/>
	<circle cx="461.25" cy="624" r="4" fill="#0" id="circle130"/>
	<circle cx="461.25" cy="639.5" r="4" fill="#0" id="circle131"/>
	<circle cx="465.9" cy="66" r="4" fill="#0" id="circle132"/>
	<circle cx="469" cy="653.45" r="4" fill="#0" id="circle133"/>
	<circle cx="469" cy="668.95" r="4" fill="#0" id="circle134"/>
	<circle cx="476.75" cy="682.9" r="4" fill="#0" id="circle135"/>
	<circle cx="481.4" cy="58.25" r="4" fill="#0" id="circle136"/>
	<circle cx="484.5" cy="696.85" r="4" fill="#0" id="circle137"/>
	<circle cx="493.8" cy="90.8" r="4" fill="#0" id="circle138"/>
	<circle cx="496.9" cy="50.5" r="4" fill="#0" id="circle139"/>
	<circle cx="500" cy="695.3" r="4" fill="#0" id="circle140"/>
	<circle cx="501.55" cy="104.75" r="4" fill="#0" id="circle141"/>
	<circle cx="509.3" cy="83.05" r="4" fill="#0" id="circle142"/>
	<circle cx="512.4" cy="42.75" r="4" fill="#0" id="circle143"/>
	<circle cx="513.95" cy="687.55" r="4" fill="#0" id="circle144"/>
	<circle cx="517.05" cy="104.75" r="4" fill="#0" id="circle145"/>
	<circle cx="523.25" cy="75.3" r="4" fill="#0" id="circle146"/>
	<circle cx="527.9" cy="42.75" r="4" fill="#0" id="circle147"/>
	<circle cx="527.9" cy="678.25" r="4" fill="#0" id="circle148"/>
	<circle cx="532.55" cy="104.75" r="4" fill="#0" id="circle149"/>
	<circle cx="535.65" cy="66" r="4" fill="#0" id="circle150"/>
	<circle cx="541.85" cy="35" r="4" fill="#0" id="circle151"/>
	<circle cx="543.4" cy="670.5" r="4" fill="#0" id="circle152"/>
	<circle cx="548.05" cy="52.05" r="4" fill="#0" id="circle153"/>
	<circle cx="548.05" cy="109.4" r="4" fill="#0" id="circle154"/>
	<circle cx="555.8" cy="27.25" r="4" fill="#0" id="circle155"/>
	<circle cx="555.8" cy="648.8" r="4" fill="#0" id="circle156"/>
	<circle cx="560.45" cy="42.75" r="4" fill="#0" id="circle157"/>
	<circle cx="563.55" cy="112.5" r="4" fill="#0" id="circle158"/>
	<circle cx="563.55" cy="633.3" r="4" fill="#0" id="circle159"/>
	<circle cx="571.3" cy="610.05" r="4" fill="#0" id="circle160"/>
	<circle cx="579.05" cy="117.15" r="4" fill="#0" id="circle161"/>
	<circle cx="579.05" cy="594.55" r="4" fill="#0" id="circle162"/>
	<circle cx="586.8" cy="579.05" r="4" fill="#0" id="circle163"/>
	<circle cx="594.55" cy="115.6" r="4" fill="#0" id="circle164"/>
	<circle cx="594.55" cy="555.8" r="4" fill="#0" id="circle165"/>
	<circle cx="602.3" cy="540.3" r="4" fill="#0" id="circle166"/>
	<circle cx="610.05" cy="117.15" r="4" fill="#0" id="circle167"/>
	<circle cx="610.05" cy="524.8" r="4" fill="#0" id="circle168"/>
	<circle cx="617.8" cy="478.3" r="4" fill="#0" id="circle169"/>
	<circle cx="617.8" cy="493.8" r="4" fill="#0" id="circle170"/>
	<circle cx="617.8" cy="509.3" r="4" fill="#0" id="circle171"/>
	<circle cx="625.55" cy="120.25" r="4" fill="#0" id="circle172"/>
	<circle cx="625.55" cy="455.05" r="4" fill="#0" id="circle173"/>
	<circle cx="633.3" cy="439.55" r="4" fill="#0" id="circle174"/>
	<circle cx="641.05" cy="115.6" r="4" fill="#0" id="circle175"/>
	<circle cx="648.8" cy="431.8" r="4" fill="#0" id="circle176"/>
	<circle cx="653.45" cy="104.75" r="4" fill="#0" id="circle177"/>
	<circle cx="662.75" cy="424.05" r="4" fill="#0" id="circle178"/>
	<circle cx="664.3" cy="369.8" r="4" fill="#0" id="circle179"/>
	<circle cx="667.4" cy="97" r="4" fill="#0" id="circle180"/>
	<circle cx="672.05" cy="346.55" r="4" fill="#0" id="circle181"/>
	<circle cx="676.7" cy="416.3" r="4" fill="#0" id="circle182"/>
	<circle cx="679.8" cy="331.05" r="4" fill="#0" id="circle183"/>
	<circle cx="679.8" cy="368.25" r="4" fill="#0" id="circle184"/>
	<circle cx="682.9" cy="89.25" r="4" fill="#0" id="circle185"/>
	<circle cx="687.55" cy="307.8" r="4" fill="#0" id="circle186"/>
	<circle cx="690.65" cy="407" r="4" fill="#0" id="circle187"/>
	<circle cx="695.3" cy="284.55" r="4" fill="#0" id="circle188"/>
	<circle cx="695.3" cy="363.6" r="4" fill="#0" id="circle189"/>
	<circle cx="696.85" cy="81.5" r="4" fill="#0" id="circle190"/>
	<circle cx="703.05" cy="269.05" r="4" fill="#0" id="circle191"/>
	<circle cx="706.15" cy="399.25" r="4" fill="#0" id="circle192"/>
	<circle cx="710.8" cy="360.5" r="4" fill="#0" id="circle193"/>
	<circle cx="712.35" cy="81.5" r="4" fill="#0" id="circle194"/>
	<circle cx="715.45" cy="258.2" r="4" fill="#0" id="circle195"/>
	<circle cx="718.55" cy="385.3" r="4" fill="#0" id="circle196"/>
	<circle cx="724.75" cy="352.75" r="4" fill="#0" id="circle197"/>
	<circle cx="726.3" cy="89.25" r="4" fill="#0" id="circle198"/>
	<circle cx="730.95" cy="250.45" r="4" fill="#0" id="circle199"/>
	<circle cx="734.05" cy="377.55" r="4" fill="#0" id="circle200"/>
	<circle cx="740.25" cy="352.75" r="4" fill="#0" id="circle201"/>
	<circle cx="741.8" cy="84.6" r="4" fill="#0" id="circle202"/>
	<circle cx="746.45" cy="242.7" r="4" fill="#0" id="circle203"/>
	<circle cx="746.45" cy="368.25" r="4" fill="#0" id="circle204"/>
	<circle cx="757.3" cy="76.85" r="4" fill="#0" id="circle205"/>
	<circle cx="761.95" cy="234.95" r="4" fill="#0" id="circle206"/>
	<circle cx="766.6" cy="89.25" r="4" fill="#0" id="circle207"/>
	<circle cx="777.45" cy="227.2" r="4" fill="#0" id="circle208"/>
	<circle cx="780.55" cy="81.5" r="4" fill="#0" id="circle209"/>
	<circle cx="788.3" cy="191.55" r="4" fill="#0" id="circle210"/>
	<circle cx="791.4" cy="207.05" r="4" fill="#0" id="circle211"/>
	<circle cx="796.05" cy="76.85" r="4" fill="#0" id="circle212"/>
	<circle cx="802.25" cy="183.8" r="4" fill="#0" id="circle213"/>
	<circle cx="811.55" cy="69.1" r="4" fill="#0" id="circle214"/>
	<circle cx="814.65" cy="174.5" r="4" fill="#0" id="circle215"/>
	<circle cx="827.05" cy="61.35" r="4" fill="#0" id="circle216"/>
	<circle cx="827.05" cy="145.05" r="4" fill="#0" id="circle217"/>
	<circle cx="827.05" cy="160.55" r="4" fill="#0" id="circle218"/>
	<circle cx="839.45" cy="134.2" r="4" fill="#0" id="circle219"/>
	<circle cx="842.55" cy="53.6" r="4" fill="#0" id="circle220"/>
	<circle cx="854.95" cy="126.45" r="4" fill="#0" id="circle221"/>
	<circle cx="858.05" cy="45.85" r="4" fill="#0" id="circle222"/>
	<circle cx="870.45" cy="118.7" r="4" fill="#0" id="circle223"/>
	<circle cx="873.55" cy="38.1" r="4" fill="#0" id="circle224"/>
	<circle cx="881.3" cy="106.3" r="4" fill="#0" id="circle225"/>
	<circle cx="889.05" cy="30.35" r="4" fill="#0" id="circle226"/>
	<circle cx="896.8" cy="98.55" r="4" fill="#0" id="circle227"/>
	<circle cx="904.55" cy="22.6" r="4" fill="#0" id="circle228"/>
	<circle cx="910.75" cy="90.8" r="4" fill="#0" id="circle229"/>
	<circle cx="920.05" cy="19.5" r="4" fill="#0" id="circle230"/>
	<circle cx="923.15" cy="81.5" r="4" fill="#0" id="circle231"/>
	<circle cx="934" cy="11.75" r="4" fill="#0" id="circle232"/>
	<circle cx="938.65" cy="73.75" r="4" fill="#0" id="circle233"/>
	<circle cx="949.5" cy="8.65" r="4" fill="#0" id="circle234"/>
	<circle cx="951.05" cy="59.8" r="4" fill="#0" id="circle235"/>
	<circle cx="963.45" cy="48.95" r="4" fill="#0" id="circle236"/>
	<circle cx="965" cy="4" r="4" fill="#0" id="circle237"/>
	<circle cx="974.3" cy="36.55" r="4" fill="#0" id="circle238"/>
	<circle cx="980.5" cy="4" r="4" fill="#0" id="circle239"/>
	<circle cx="986.7" cy="25.7" r="4" fill="#0" id="circle240"/>
	<circle cx="996" cy="7.1" r="4" fill="#0" id="circle241"/>
	</g>
</svg>