<?xml version="1.0" encoding="UTF-8" standalone="no"?>
<!-- Created with CurveBenchmark -->
<svg
	xmlns:dc="http://purl.org/dc/elements/1.1/"
	xmlns:cc="http://creativecommons.org/ns#"
	xmlns:rdf="http://www.w3.org/1999/02/22-rdf-syntax-ns#"
	xmlns:svg="http://www.w3.org/2000/svg"
	xmlns="http://www.w3.org/2000/svg"
	xmlns:sodipodi="http://sodipodi.sourceforge.net/DTD/sodipodi-0.dtd"
	xmlns:inkscape="http://www.inkscape.org/namespaces/inkscape"
	width="1000"
	height="1000"
	id="svg2"
	version="1.1"
	sodipodi:docname="manifold/connect2d-Misk06.png.txt">
<defs
	id="defs4" />
<metadata
	id="metadata7">
	<rdf:RDF>
		<cc:Work
			rdf:about="">
			<dc:format>image/svg+xml</dc:format>
			<dc:type
				rdf:resource="http://purl.org/dc/dcmitype/StillImage" />
			<dc:title></dc:title>
		</cc:Work>
	</rdf:RDF>
</metadata>
<g
	inkscape:label="Layer 1"
	inkscape:groupmode="layer"
	id="layer1">
	<path style="fill:none;stroke:red;stroke-width:1px;stroke-linecap:butt;stroke-linejoin:miter;stroke-opacity:1" d="M 881.062,721.918 872.221,739.601 z" id="boundary" inkscape:connector-curvature="0" />
	<path style="fill:none;stroke:red;stroke-width:1px;stroke-linecap:butt;stroke-linejoin:miter;stroke-opacity:1" d="M 872.221,739.601 863.38,757.283 z" id="boundary" inkscape:connector-curvature="0" />
	<path style="fill:none;stroke:red;stroke-width:1px;stroke-linecap:butt;stroke-linejoin:miter;stroke-opacity:1" d="M 863.38,757.283 851.002,774.966 z" id="boundary" inkscape:connector-curvature="0" />
	<path style="fill:none;stroke:red;stroke-width:1px;stroke-linecap:butt;stroke-linejoin:miter;stroke-opacity:1" d="M 851.002,774.966 835.087,783.807 z" id="boundary" inkscape:connector-curvature="0" />
	<path style="fill:none;stroke:red;stroke-width:1px;stroke-linecap:butt;stroke-linejoin:miter;stroke-opacity:1" d="M 835.087,783.807 817.405,783.807 z" id="boundary" inkscape:connector-curvature="0" />
	<path style="fill:none;stroke:red;stroke-width:1px;stroke-linecap:butt;stroke-linejoin:miter;stroke-opacity:1" d="M 817.405,783.807 799.722,783.807 z" id="boundary" inkscape:connector-curvature="0" />
	<path style="fill:none;stroke:red;stroke-width:1px;stroke-linecap:butt;stroke-linejoin:miter;stroke-opacity:1" d="M 799.722,783.807 783.807,774.966 z" id="boundary" inkscape:connector-curvature="0" />
	<path style="fill:none;stroke:red;stroke-width:1px;stroke-linecap:butt;stroke-linejoin:miter;stroke-opacity:1" d="M 783.807,774.966 766.125,771.43 z" id="boundary" inkscape:connector-curvature="0" />
	<path style="fill:none;stroke:red;stroke-width:1px;stroke-linecap:butt;stroke-linejoin:miter;stroke-opacity:1" d="M 766.125,771.43 750.21,762.588 z" id="boundary" inkscape:connector-curvature="0" />
	<path style="fill:none;stroke:red;stroke-width:1px;stroke-linecap:butt;stroke-linejoin:miter;stroke-opacity:1" d="M 750.21,762.588 732.528,757.283 z" id="boundary" inkscape:connector-curvature="0" />
	<path style="fill:none;stroke:red;stroke-width:1px;stroke-linecap:butt;stroke-linejoin:miter;stroke-opacity:1" d="M 732.528,757.283 716.613,748.442 z" id="boundary" inkscape:connector-curvature="0" />
	<path style="fill:none;stroke:red;stroke-width:1px;stroke-linecap:butt;stroke-linejoin:miter;stroke-opacity:1" d="M 716.613,748.442 700.699,739.601 z" id="boundary" inkscape:connector-curvature="0" />
	<path style="fill:none;stroke:red;stroke-width:1px;stroke-linecap:butt;stroke-linejoin:miter;stroke-opacity:1" d="M 700.699,739.601 683.016,739.601 z" id="boundary" inkscape:connector-curvature="0" />
	<path style="fill:none;stroke:red;stroke-width:1px;stroke-linecap:butt;stroke-linejoin:miter;stroke-opacity:1" d="M 683.016,739.601 665.333,739.601 z" id="boundary" inkscape:connector-curvature="0" />
	<path style="fill:none;stroke:red;stroke-width:1px;stroke-linecap:butt;stroke-linejoin:miter;stroke-opacity:1" d="M 665.333,739.601 647.651,739.601 z" id="boundary" inkscape:connector-curvature="0" />
	<path style="fill:none;stroke:red;stroke-width:1px;stroke-linecap:butt;stroke-linejoin:miter;stroke-opacity:1" d="M 647.651,739.601 629.968,739.601 z" id="boundary" inkscape:connector-curvature="0" />
	<path style="fill:none;stroke:red;stroke-width:1px;stroke-linecap:butt;stroke-linejoin:miter;stroke-opacity:1" d="M 629.968,739.601 612.285,744.906 z" id="boundary" inkscape:connector-curvature="0" />
	<path style="fill:none;stroke:red;stroke-width:1px;stroke-linecap:butt;stroke-linejoin:miter;stroke-opacity:1" d="M 612.285,744.906 594.602,753.747 z" id="boundary" inkscape:connector-curvature="0" />
	<path style="fill:none;stroke:red;stroke-width:1px;stroke-linecap:butt;stroke-linejoin:miter;stroke-opacity:1" d="M 594.602,753.747 576.92,762.588 z" id="boundary" inkscape:connector-curvature="0" />
	<path style="fill:none;stroke:red;stroke-width:1px;stroke-linecap:butt;stroke-linejoin:miter;stroke-opacity:1" d="M 576.92,762.588 562.774,774.966 z" id="boundary" inkscape:connector-curvature="0" />
	<path style="fill:none;stroke:red;stroke-width:1px;stroke-linecap:butt;stroke-linejoin:miter;stroke-opacity:1" d="M 562.774,774.966 553.932,792.649 z" id="boundary" inkscape:connector-curvature="0" />
	<path style="fill:none;stroke:red;stroke-width:1px;stroke-linecap:butt;stroke-linejoin:miter;stroke-opacity:1" d="M 553.932,792.649 545.091,810.332 z" id="boundary" inkscape:connector-curvature="0" />
	<path style="fill:none;stroke:red;stroke-width:1px;stroke-linecap:butt;stroke-linejoin:miter;stroke-opacity:1" d="M 545.091,810.332 545.091,828.014 z" id="boundary" inkscape:connector-curvature="0" />
	<path style="fill:none;stroke:red;stroke-width:1px;stroke-linecap:butt;stroke-linejoin:miter;stroke-opacity:1" d="M 545.091,828.014 559.237,838.624 z" id="boundary" inkscape:connector-curvature="0" />
	<path style="fill:none;stroke:red;stroke-width:1px;stroke-linecap:butt;stroke-linejoin:miter;stroke-opacity:1" d="M 559.237,838.624 576.92,845.697 z" id="boundary" inkscape:connector-curvature="0" />
	<path style="fill:none;stroke:red;stroke-width:1px;stroke-linecap:butt;stroke-linejoin:miter;stroke-opacity:1" d="M 576.92,845.697 594.602,852.77 z" id="boundary" inkscape:connector-curvature="0" />
	<path style="fill:none;stroke:red;stroke-width:1px;stroke-linecap:butt;stroke-linejoin:miter;stroke-opacity:1" d="M 594.602,852.77 612.285,852.77 z" id="boundary" inkscape:connector-curvature="0" />
	<path style="fill:none;stroke:red;stroke-width:1px;stroke-linecap:butt;stroke-linejoin:miter;stroke-opacity:1" d="M 612.285,852.77 629.968,854.538 z" id="boundary" inkscape:connector-curvature="0" />
	<path style="fill:none;stroke:red;stroke-width:1px;stroke-linecap:butt;stroke-linejoin:miter;stroke-opacity:1" d="M 629.968,854.538 645.882,863.38 z" id="boundary" inkscape:connector-curvature="0" />
	<path style="fill:none;stroke:red;stroke-width:1px;stroke-linecap:butt;stroke-linejoin:miter;stroke-opacity:1" d="M 645.882,863.38 663.565,870.453 z" id="boundary" inkscape:connector-curvature="0" />
	<path style="fill:none;stroke:red;stroke-width:1px;stroke-linecap:butt;stroke-linejoin:miter;stroke-opacity:1" d="M 663.565,870.453 679.48,879.294 z" id="boundary" inkscape:connector-curvature="0" />
	<path style="fill:none;stroke:red;stroke-width:1px;stroke-linecap:butt;stroke-linejoin:miter;stroke-opacity:1" d="M 679.48,879.294 697.162,879.294 z" id="boundary" inkscape:connector-curvature="0" />
	<path style="fill:none;stroke:red;stroke-width:1px;stroke-linecap:butt;stroke-linejoin:miter;stroke-opacity:1" d="M 697.162,879.294 714.845,879.294 z" id="boundary" inkscape:connector-curvature="0" />
	<path style="fill:none;stroke:red;stroke-width:1px;stroke-linecap:butt;stroke-linejoin:miter;stroke-opacity:1" d="M 714.845,879.294 730.759,888.135 z" id="boundary" inkscape:connector-curvature="0" />
	<path style="fill:none;stroke:red;stroke-width:1px;stroke-linecap:butt;stroke-linejoin:miter;stroke-opacity:1" d="M 730.759,888.135 746.674,896.977 z" id="boundary" inkscape:connector-curvature="0" />
	<path style="fill:none;stroke:red;stroke-width:1px;stroke-linecap:butt;stroke-linejoin:miter;stroke-opacity:1" d="M 746.674,896.977 764.357,900.513 z" id="boundary" inkscape:connector-curvature="0" />
	<path style="fill:none;stroke:red;stroke-width:1px;stroke-linecap:butt;stroke-linejoin:miter;stroke-opacity:1" d="M 764.357,900.513 780.271,909.355 z" id="boundary" inkscape:connector-curvature="0" />
	<path style="fill:none;stroke:red;stroke-width:1px;stroke-linecap:butt;stroke-linejoin:miter;stroke-opacity:1" d="M 780.271,909.355 792.649,923.501 z" id="boundary" inkscape:connector-curvature="0" />
	<path style="fill:none;stroke:red;stroke-width:1px;stroke-linecap:butt;stroke-linejoin:miter;stroke-opacity:1" d="M 792.649,923.501 808.563,932.342 z" id="boundary" inkscape:connector-curvature="0" />
	<path style="fill:none;stroke:red;stroke-width:1px;stroke-linecap:butt;stroke-linejoin:miter;stroke-opacity:1" d="M 808.563,932.342 819.173,946.488 z" id="boundary" inkscape:connector-curvature="0" />
	<path style="fill:none;stroke:red;stroke-width:1px;stroke-linecap:butt;stroke-linejoin:miter;stroke-opacity:1" d="M 819.173,946.488 813.868,967.708 z" id="boundary" inkscape:connector-curvature="0" />
	<path style="fill:none;stroke:red;stroke-width:1px;stroke-linecap:butt;stroke-linejoin:miter;stroke-opacity:1" d="M 813.868,967.708 797.954,978.317 z" id="boundary" inkscape:connector-curvature="0" />
	<path style="fill:none;stroke:red;stroke-width:1px;stroke-linecap:butt;stroke-linejoin:miter;stroke-opacity:1" d="M 797.954,978.317 782.039,987.159 z" id="boundary" inkscape:connector-curvature="0" />
	<path style="fill:none;stroke:red;stroke-width:1px;stroke-linecap:butt;stroke-linejoin:miter;stroke-opacity:1" d="M 782.039,987.159 764.357,987.159 z" id="boundary" inkscape:connector-curvature="0" />
	<path style="fill:none;stroke:red;stroke-width:1px;stroke-linecap:butt;stroke-linejoin:miter;stroke-opacity:1" d="M 764.357,987.159 746.674,987.159 z" id="boundary" inkscape:connector-curvature="0" />
	<path style="fill:none;stroke:red;stroke-width:1px;stroke-linecap:butt;stroke-linejoin:miter;stroke-opacity:1" d="M 746.674,987.159 728.991,987.159 z" id="boundary" inkscape:connector-curvature="0" />
	<path style="fill:none;stroke:red;stroke-width:1px;stroke-linecap:butt;stroke-linejoin:miter;stroke-opacity:1" d="M 728.991,987.159 711.308,987.159 z" id="boundary" inkscape:connector-curvature="0" />
	<path style="fill:none;stroke:red;stroke-width:1px;stroke-linecap:butt;stroke-linejoin:miter;stroke-opacity:1" d="M 711.308,987.159 695.394,978.317 z" id="boundary" inkscape:connector-curvature="0" />
	<path style="fill:none;stroke:red;stroke-width:1px;stroke-linecap:butt;stroke-linejoin:miter;stroke-opacity:1" d="M 695.394,978.317 677.711,973.012 z" id="boundary" inkscape:connector-curvature="0" />
	<path style="fill:none;stroke:red;stroke-width:1px;stroke-linecap:butt;stroke-linejoin:miter;stroke-opacity:1" d="M 677.711,973.012 660.029,969.476 z" id="boundary" inkscape:connector-curvature="0" />
	<path style="fill:none;stroke:red;stroke-width:1px;stroke-linecap:butt;stroke-linejoin:miter;stroke-opacity:1" d="M 660.029,969.476 642.346,969.476 z" id="boundary" inkscape:connector-curvature="0" />
	<path style="fill:none;stroke:red;stroke-width:1px;stroke-linecap:butt;stroke-linejoin:miter;stroke-opacity:1" d="M 642.346,969.476 626.431,960.635 z" id="boundary" inkscape:connector-curvature="0" />
	<path style="fill:none;stroke:red;stroke-width:1px;stroke-linecap:butt;stroke-linejoin:miter;stroke-opacity:1" d="M 626.431,960.635 610.517,951.793 z" id="boundary" inkscape:connector-curvature="0" />
	<path style="fill:none;stroke:red;stroke-width:1px;stroke-linecap:butt;stroke-linejoin:miter;stroke-opacity:1" d="M 610.517,951.793 592.834,951.793 z" id="boundary" inkscape:connector-curvature="0" />
	<path style="fill:none;stroke:red;stroke-width:1px;stroke-linecap:butt;stroke-linejoin:miter;stroke-opacity:1" d="M 592.834,951.793 580.456,937.647 z" id="boundary" inkscape:connector-curvature="0" />
	<path style="fill:none;stroke:red;stroke-width:1px;stroke-linecap:butt;stroke-linejoin:miter;stroke-opacity:1" d="M 580.456,937.647 566.31,925.269 z" id="boundary" inkscape:connector-curvature="0" />
	<path style="fill:none;stroke:red;stroke-width:1px;stroke-linecap:butt;stroke-linejoin:miter;stroke-opacity:1" d="M 566.31,925.269 550.396,916.428 z" id="boundary" inkscape:connector-curvature="0" />
	<path style="fill:none;stroke:red;stroke-width:1px;stroke-linecap:butt;stroke-linejoin:miter;stroke-opacity:1" d="M 550.396,916.428 532.713,916.428 z" id="boundary" inkscape:connector-curvature="0" />
	<path style="fill:none;stroke:red;stroke-width:1px;stroke-linecap:butt;stroke-linejoin:miter;stroke-opacity:1" d="M 532.713,916.428 516.799,907.586 z" id="boundary" inkscape:connector-curvature="0" />
	<path style="fill:none;stroke:red;stroke-width:1px;stroke-linecap:butt;stroke-linejoin:miter;stroke-opacity:1" d="M 516.799,907.586 500.884,898.745 z" id="boundary" inkscape:connector-curvature="0" />
	<path style="fill:none;stroke:red;stroke-width:1px;stroke-linecap:butt;stroke-linejoin:miter;stroke-opacity:1" d="M 500.884,898.745 484.97,889.904 z" id="boundary" inkscape:connector-curvature="0" />
	<path style="fill:none;stroke:red;stroke-width:1px;stroke-linecap:butt;stroke-linejoin:miter;stroke-opacity:1" d="M 484.97,889.904 467.287,888.135 z" id="boundary" inkscape:connector-curvature="0" />
	<path style="fill:none;stroke:red;stroke-width:1px;stroke-linecap:butt;stroke-linejoin:miter;stroke-opacity:1" d="M 467.287,888.135 451.373,879.294 z" id="boundary" inkscape:connector-curvature="0" />
	<path style="fill:none;stroke:red;stroke-width:1px;stroke-linecap:butt;stroke-linejoin:miter;stroke-opacity:1" d="M 451.373,879.294 433.69,872.221 z" id="boundary" inkscape:connector-curvature="0" />
	<path style="fill:none;stroke:red;stroke-width:1px;stroke-linecap:butt;stroke-linejoin:miter;stroke-opacity:1" d="M 433.69,872.221 417.775,863.38 z" id="boundary" inkscape:connector-curvature="0" />
	<path style="fill:none;stroke:red;stroke-width:1px;stroke-linecap:butt;stroke-linejoin:miter;stroke-opacity:1" d="M 417.775,863.38 400.093,863.38 z" id="boundary" inkscape:connector-curvature="0" />
	<path style="fill:none;stroke:red;stroke-width:1px;stroke-linecap:butt;stroke-linejoin:miter;stroke-opacity:1" d="M 400.093,863.38 382.41,868.684 z" id="boundary" inkscape:connector-curvature="0" />
	<path style="fill:none;stroke:red;stroke-width:1px;stroke-linecap:butt;stroke-linejoin:miter;stroke-opacity:1" d="M 382.41,868.684 364.727,877.526 z" id="boundary" inkscape:connector-curvature="0" />
	<path style="fill:none;stroke:red;stroke-width:1px;stroke-linecap:butt;stroke-linejoin:miter;stroke-opacity:1" d="M 364.727,877.526 350.581,889.904 z" id="boundary" inkscape:connector-curvature="0" />
	<path style="fill:none;stroke:red;stroke-width:1px;stroke-linecap:butt;stroke-linejoin:miter;stroke-opacity:1" d="M 350.581,889.904 350.581,907.586 z" id="boundary" inkscape:connector-curvature="0" />
	<path style="fill:none;stroke:red;stroke-width:1px;stroke-linecap:butt;stroke-linejoin:miter;stroke-opacity:1" d="M 350.581,907.586 350.581,925.269 z" id="boundary" inkscape:connector-curvature="0" />
	<path style="fill:none;stroke:red;stroke-width:1px;stroke-linecap:butt;stroke-linejoin:miter;stroke-opacity:1" d="M 350.581,925.269 350.581,942.952 z" id="boundary" inkscape:connector-curvature="0" />
	<path style="fill:none;stroke:red;stroke-width:1px;stroke-linecap:butt;stroke-linejoin:miter;stroke-opacity:1" d="M 350.581,942.952 350.581,960.635 z" id="boundary" inkscape:connector-curvature="0" />
	<path style="fill:none;stroke:red;stroke-width:1px;stroke-linecap:butt;stroke-linejoin:miter;stroke-opacity:1" d="M 350.581,960.635 341.74,978.317 z" id="boundary" inkscape:connector-curvature="0" />
	<path style="fill:none;stroke:red;stroke-width:1px;stroke-linecap:butt;stroke-linejoin:miter;stroke-opacity:1" d="M 341.74,978.317 327.594,996 z" id="boundary" inkscape:connector-curvature="0" />
	<path style="fill:none;stroke:red;stroke-width:1px;stroke-linecap:butt;stroke-linejoin:miter;stroke-opacity:1" d="M 327.594,996 309.911,996 z" id="boundary" inkscape:connector-curvature="0" />
	<path style="fill:none;stroke:red;stroke-width:1px;stroke-linecap:butt;stroke-linejoin:miter;stroke-opacity:1" d="M 309.911,996 292.228,994.232 z" id="boundary" inkscape:connector-curvature="0" />
	<path style="fill:none;stroke:red;stroke-width:1px;stroke-linecap:butt;stroke-linejoin:miter;stroke-opacity:1" d="M 292.228,994.232 274.545,987.159 z" id="boundary" inkscape:connector-curvature="0" />
	<path style="fill:none;stroke:red;stroke-width:1px;stroke-linecap:butt;stroke-linejoin:miter;stroke-opacity:1" d="M 274.545,987.159 256.863,985.39 z" id="boundary" inkscape:connector-curvature="0" />
	<path style="fill:none;stroke:red;stroke-width:1px;stroke-linecap:butt;stroke-linejoin:miter;stroke-opacity:1" d="M 256.863,985.39 242.717,973.012 z" id="boundary" inkscape:connector-curvature="0" />
	<path style="fill:none;stroke:red;stroke-width:1px;stroke-linecap:butt;stroke-linejoin:miter;stroke-opacity:1" d="M 242.717,973.012 230.339,958.866 z" id="boundary" inkscape:connector-curvature="0" />
	<path style="fill:none;stroke:red;stroke-width:1px;stroke-linecap:butt;stroke-linejoin:miter;stroke-opacity:1" d="M 230.339,958.866 216.193,946.488 z" id="boundary" inkscape:connector-curvature="0" />
	<path style="fill:none;stroke:red;stroke-width:1px;stroke-linecap:butt;stroke-linejoin:miter;stroke-opacity:1" d="M 216.193,946.488 203.815,932.342 z" id="boundary" inkscape:connector-curvature="0" />
	<path style="fill:none;stroke:red;stroke-width:1px;stroke-linecap:butt;stroke-linejoin:miter;stroke-opacity:1" d="M 203.815,932.342 194.973,916.428 z" id="boundary" inkscape:connector-curvature="0" />
	<path style="fill:none;stroke:red;stroke-width:1px;stroke-linecap:butt;stroke-linejoin:miter;stroke-opacity:1" d="M 194.973,916.428 182.595,902.282 z" id="boundary" inkscape:connector-curvature="0" />
	<path style="fill:none;stroke:red;stroke-width:1px;stroke-linecap:butt;stroke-linejoin:miter;stroke-opacity:1" d="M 182.595,902.282 171.986,888.135 z" id="boundary" inkscape:connector-curvature="0" />
	<path style="fill:none;stroke:red;stroke-width:1px;stroke-linecap:butt;stroke-linejoin:miter;stroke-opacity:1" d="M 171.986,888.135 163.144,872.221 z" id="boundary" inkscape:connector-curvature="0" />
	<path style="fill:none;stroke:red;stroke-width:1px;stroke-linecap:butt;stroke-linejoin:miter;stroke-opacity:1" d="M 163.144,872.221 163.144,854.538 z" id="boundary" inkscape:connector-curvature="0" />
	<path style="fill:none;stroke:red;stroke-width:1px;stroke-linecap:butt;stroke-linejoin:miter;stroke-opacity:1" d="M 163.144,854.538 145.462,849.234 z" id="boundary" inkscape:connector-curvature="0" />
	<path style="fill:none;stroke:red;stroke-width:1px;stroke-linecap:butt;stroke-linejoin:miter;stroke-opacity:1" d="M 145.462,849.234 129.547,840.392 z" id="boundary" inkscape:connector-curvature="0" />
	<path style="fill:none;stroke:red;stroke-width:1px;stroke-linecap:butt;stroke-linejoin:miter;stroke-opacity:1" d="M 129.547,840.392 111.865,836.856 z" id="boundary" inkscape:connector-curvature="0" />
	<path style="fill:none;stroke:red;stroke-width:1px;stroke-linecap:butt;stroke-linejoin:miter;stroke-opacity:1" d="M 111.865,836.856 95.9501,845.697 z" id="boundary" inkscape:connector-curvature="0" />
	<path style="fill:none;stroke:red;stroke-width:1px;stroke-linecap:butt;stroke-linejoin:miter;stroke-opacity:1" d="M 95.9501,845.697 80.0357,836.856 z" id="boundary" inkscape:connector-curvature="0" />
	<path style="fill:none;stroke:red;stroke-width:1px;stroke-linecap:butt;stroke-linejoin:miter;stroke-opacity:1" d="M 80.0357,836.856 65.8895,826.246 z" id="boundary" inkscape:connector-curvature="0" />
	<path style="fill:none;stroke:red;stroke-width:1px;stroke-linecap:butt;stroke-linejoin:miter;stroke-opacity:1" d="M 65.8895,826.246 57.0481,810.332 z" id="boundary" inkscape:connector-curvature="0" />
	<path style="fill:none;stroke:red;stroke-width:1px;stroke-linecap:butt;stroke-linejoin:miter;stroke-opacity:1" d="M 57.0481,810.332 57.0481,792.649 z" id="boundary" inkscape:connector-curvature="0" />
	<path style="fill:none;stroke:red;stroke-width:1px;stroke-linecap:butt;stroke-linejoin:miter;stroke-opacity:1" d="M 57.0481,792.649 48.2068,776.734 z" id="boundary" inkscape:connector-curvature="0" />
	<path style="fill:none;stroke:red;stroke-width:1px;stroke-linecap:butt;stroke-linejoin:miter;stroke-opacity:1" d="M 48.2068,776.734 39.3654,760.82 z" id="boundary" inkscape:connector-curvature="0" />
	<path style="fill:none;stroke:red;stroke-width:1px;stroke-linecap:butt;stroke-linejoin:miter;stroke-opacity:1" d="M 39.3654,760.82 39.3654,743.137 z" id="boundary" inkscape:connector-curvature="0" />
	<path style="fill:none;stroke:red;stroke-width:1px;stroke-linecap:butt;stroke-linejoin:miter;stroke-opacity:1" d="M 39.3654,743.137 39.3654,725.455 z" id="boundary" inkscape:connector-curvature="0" />
	<path style="fill:none;stroke:red;stroke-width:1px;stroke-linecap:butt;stroke-linejoin:miter;stroke-opacity:1" d="M 39.3654,725.455 48.2068,698.93 z" id="boundary" inkscape:connector-curvature="0" />
	<path style="fill:none;stroke:red;stroke-width:1px;stroke-linecap:butt;stroke-linejoin:miter;stroke-opacity:1" d="M 48.2068,698.93 57.0481,681.248 z" id="boundary" inkscape:connector-curvature="0" />
	<path style="fill:none;stroke:red;stroke-width:1px;stroke-linecap:butt;stroke-linejoin:miter;stroke-opacity:1" d="M 57.0481,681.248 65.8895,663.565 z" id="boundary" inkscape:connector-curvature="0" />
	<path style="fill:none;stroke:red;stroke-width:1px;stroke-linecap:butt;stroke-linejoin:miter;stroke-opacity:1" d="M 65.8895,663.565 80.0357,649.419 z" id="boundary" inkscape:connector-curvature="0" />
	<path style="fill:none;stroke:red;stroke-width:1px;stroke-linecap:butt;stroke-linejoin:miter;stroke-opacity:1" d="M 80.0357,649.419 88.877,631.736 z" id="boundary" inkscape:connector-curvature="0" />
	<path style="fill:none;stroke:red;stroke-width:1px;stroke-linecap:butt;stroke-linejoin:miter;stroke-opacity:1" d="M 88.877,631.736 97.7184,614.053 z" id="boundary" inkscape:connector-curvature="0" />
	<path style="fill:none;stroke:red;stroke-width:1px;stroke-linecap:butt;stroke-linejoin:miter;stroke-opacity:1" d="M 97.7184,614.053 106.56,596.371 z" id="boundary" inkscape:connector-curvature="0" />
	<path style="fill:none;stroke:red;stroke-width:1px;stroke-linecap:butt;stroke-linejoin:miter;stroke-opacity:1" d="M 106.56,596.371 110.096,575.152 z" id="boundary" inkscape:connector-curvature="0" />
	<path style="fill:none;stroke:red;stroke-width:1px;stroke-linecap:butt;stroke-linejoin:miter;stroke-opacity:1" d="M 110.096,575.152 118.938,557.469 z" id="boundary" inkscape:connector-curvature="0" />
	<path style="fill:none;stroke:red;stroke-width:1px;stroke-linecap:butt;stroke-linejoin:miter;stroke-opacity:1" d="M 118.938,557.469 127.779,530.945 z" id="boundary" inkscape:connector-curvature="0" />
	<path style="fill:none;stroke:red;stroke-width:1px;stroke-linecap:butt;stroke-linejoin:miter;stroke-opacity:1" d="M 127.779,530.945 136.62,511.494 z" id="boundary" inkscape:connector-curvature="0" />
	<path style="fill:none;stroke:red;stroke-width:1px;stroke-linecap:butt;stroke-linejoin:miter;stroke-opacity:1" d="M 136.62,511.494 136.62,493.811 z" id="boundary" inkscape:connector-curvature="0" />
	<path style="fill:none;stroke:red;stroke-width:1px;stroke-linecap:butt;stroke-linejoin:miter;stroke-opacity:1" d="M 136.62,493.811 136.62,476.128 z" id="boundary" inkscape:connector-curvature="0" />
	<path style="fill:none;stroke:red;stroke-width:1px;stroke-linecap:butt;stroke-linejoin:miter;stroke-opacity:1" d="M 136.62,476.128 136.62,458.446 z" id="boundary" inkscape:connector-curvature="0" />
	<path style="fill:none;stroke:red;stroke-width:1px;stroke-linecap:butt;stroke-linejoin:miter;stroke-opacity:1" d="M 136.62,458.446 136.62,440.763 z" id="boundary" inkscape:connector-curvature="0" />
	<path style="fill:none;stroke:red;stroke-width:1px;stroke-linecap:butt;stroke-linejoin:miter;stroke-opacity:1" d="M 136.62,440.763 136.62,423.08 z" id="boundary" inkscape:connector-curvature="0" />
	<path style="fill:none;stroke:red;stroke-width:1px;stroke-linecap:butt;stroke-linejoin:miter;stroke-opacity:1" d="M 136.62,423.08 136.62,405.398 z" id="boundary" inkscape:connector-curvature="0" />
	<path style="fill:none;stroke:red;stroke-width:1px;stroke-linecap:butt;stroke-linejoin:miter;stroke-opacity:1" d="M 136.62,405.398 127.779,389.483 z" id="boundary" inkscape:connector-curvature="0" />
	<path style="fill:none;stroke:red;stroke-width:1px;stroke-linecap:butt;stroke-linejoin:miter;stroke-opacity:1" d="M 127.779,389.483 127.779,371.8 z" id="boundary" inkscape:connector-curvature="0" />
	<path style="fill:none;stroke:red;stroke-width:1px;stroke-linecap:butt;stroke-linejoin:miter;stroke-opacity:1" d="M 127.779,371.8 127.779,354.118 z" id="boundary" inkscape:connector-curvature="0" />
	<path style="fill:none;stroke:red;stroke-width:1px;stroke-linecap:butt;stroke-linejoin:miter;stroke-opacity:1" d="M 127.779,354.118 115.401,339.971 z" id="boundary" inkscape:connector-curvature="0" />
	<path style="fill:none;stroke:red;stroke-width:1px;stroke-linecap:butt;stroke-linejoin:miter;stroke-opacity:1" d="M 115.401,339.971 106.56,324.057 z" id="boundary" inkscape:connector-curvature="0" />
	<path style="fill:none;stroke:red;stroke-width:1px;stroke-linecap:butt;stroke-linejoin:miter;stroke-opacity:1" d="M 106.56,324.057 101.255,306.374 z" id="boundary" inkscape:connector-curvature="0" />
	<path style="fill:none;stroke:red;stroke-width:1px;stroke-linecap:butt;stroke-linejoin:miter;stroke-opacity:1" d="M 101.255,306.374 87.1087,295.765 z" id="boundary" inkscape:connector-curvature="0" />
	<path style="fill:none;stroke:red;stroke-width:1px;stroke-linecap:butt;stroke-linejoin:miter;stroke-opacity:1" d="M 87.1087,295.765 71.1943,286.923 z" id="boundary" inkscape:connector-curvature="0" />
	<path style="fill:none;stroke:red;stroke-width:1px;stroke-linecap:butt;stroke-linejoin:miter;stroke-opacity:1" d="M 71.1943,286.923 57.0481,274.545 z" id="boundary" inkscape:connector-curvature="0" />
	<path style="fill:none;stroke:red;stroke-width:1px;stroke-linecap:butt;stroke-linejoin:miter;stroke-opacity:1" d="M 57.0481,274.545 44.6702,260.399 z" id="boundary" inkscape:connector-curvature="0" />
	<path style="fill:none;stroke:red;stroke-width:1px;stroke-linecap:butt;stroke-linejoin:miter;stroke-opacity:1" d="M 44.6702,260.399 30.5241,248.021 z" id="boundary" inkscape:connector-curvature="0" />
	<path style="fill:none;stroke:red;stroke-width:1px;stroke-linecap:butt;stroke-linejoin:miter;stroke-opacity:1" d="M 30.5241,248.021 18.1462,233.875 z" id="boundary" inkscape:connector-curvature="0" />
	<path style="fill:none;stroke:red;stroke-width:1px;stroke-linecap:butt;stroke-linejoin:miter;stroke-opacity:1" d="M 18.1462,233.875 4,221.497 z" id="boundary" inkscape:connector-curvature="0" />
	<path style="fill:none;stroke:red;stroke-width:1px;stroke-linecap:butt;stroke-linejoin:miter;stroke-opacity:1" d="M 4,221.497 12.8414,203.815 z" id="boundary" inkscape:connector-curvature="0" />
	<path style="fill:none;stroke:red;stroke-width:1px;stroke-linecap:butt;stroke-linejoin:miter;stroke-opacity:1" d="M 12.8414,203.815 26.9875,189.668 z" id="boundary" inkscape:connector-curvature="0" />
	<path style="fill:none;stroke:red;stroke-width:1px;stroke-linecap:butt;stroke-linejoin:miter;stroke-opacity:1" d="M 26.9875,189.668 42.902,180.827 z" id="boundary" inkscape:connector-curvature="0" />
	<path style="fill:none;stroke:red;stroke-width:1px;stroke-linecap:butt;stroke-linejoin:miter;stroke-opacity:1" d="M 42.902,180.827 58.8164,171.986 z" id="boundary" inkscape:connector-curvature="0" />
	<path style="fill:none;stroke:red;stroke-width:1px;stroke-linecap:butt;stroke-linejoin:miter;stroke-opacity:1" d="M 58.8164,171.986 74.7308,159.608 z" id="boundary" inkscape:connector-curvature="0" />
	<path style="fill:none;stroke:red;stroke-width:1px;stroke-linecap:butt;stroke-linejoin:miter;stroke-opacity:1" d="M 74.7308,159.608 88.877,145.462 z" id="boundary" inkscape:connector-curvature="0" />
	<path style="fill:none;stroke:red;stroke-width:1px;stroke-linecap:butt;stroke-linejoin:miter;stroke-opacity:1" d="M 88.877,145.462 103.023,131.316 z" id="boundary" inkscape:connector-curvature="0" />
	<path style="fill:none;stroke:red;stroke-width:1px;stroke-linecap:butt;stroke-linejoin:miter;stroke-opacity:1" d="M 103.023,131.316 117.169,118.938 z" id="boundary" inkscape:connector-curvature="0" />
	<path style="fill:none;stroke:red;stroke-width:1px;stroke-linecap:butt;stroke-linejoin:miter;stroke-opacity:1" d="M 117.169,118.938 129.547,104.791 z" id="boundary" inkscape:connector-curvature="0" />
	<path style="fill:none;stroke:red;stroke-width:1px;stroke-linecap:butt;stroke-linejoin:miter;stroke-opacity:1" d="M 129.547,104.791 143.693,92.4135 z" id="boundary" inkscape:connector-curvature="0" />
	<path style="fill:none;stroke:red;stroke-width:1px;stroke-linecap:butt;stroke-linejoin:miter;stroke-opacity:1" d="M 143.693,92.4135 159.608,83.5722 z" id="boundary" inkscape:connector-curvature="0" />
	<path style="fill:none;stroke:red;stroke-width:1px;stroke-linecap:butt;stroke-linejoin:miter;stroke-opacity:1" d="M 159.608,83.5722 177.291,74.7308 z" id="boundary" inkscape:connector-curvature="0" />
	<path style="fill:none;stroke:red;stroke-width:1px;stroke-linecap:butt;stroke-linejoin:miter;stroke-opacity:1" d="M 177.291,74.7308 191.437,60.5847 z" id="boundary" inkscape:connector-curvature="0" />
	<path style="fill:none;stroke:red;stroke-width:1px;stroke-linecap:butt;stroke-linejoin:miter;stroke-opacity:1" d="M 191.437,60.5847 209.119,51.7433 z" id="boundary" inkscape:connector-curvature="0" />
	<path style="fill:none;stroke:red;stroke-width:1px;stroke-linecap:butt;stroke-linejoin:miter;stroke-opacity:1" d="M 209.119,51.7433 226.802,42.902 z" id="boundary" inkscape:connector-curvature="0" />
	<path style="fill:none;stroke:red;stroke-width:1px;stroke-linecap:butt;stroke-linejoin:miter;stroke-opacity:1" d="M 226.802,42.902 240.948,30.5241 z" id="boundary" inkscape:connector-curvature="0" />
	<path style="fill:none;stroke:red;stroke-width:1px;stroke-linecap:butt;stroke-linejoin:miter;stroke-opacity:1" d="M 240.948,30.5241 256.863,21.6827 z" id="boundary" inkscape:connector-curvature="0" />
	<path style="fill:none;stroke:red;stroke-width:1px;stroke-linecap:butt;stroke-linejoin:miter;stroke-opacity:1" d="M 256.863,21.6827 274.545,12.8414 z" id="boundary" inkscape:connector-curvature="0" />
	<path style="fill:none;stroke:red;stroke-width:1px;stroke-linecap:butt;stroke-linejoin:miter;stroke-opacity:1" d="M 274.545,12.8414 292.228,12.8414 z" id="boundary" inkscape:connector-curvature="0" />
	<path style="fill:none;stroke:red;stroke-width:1px;stroke-linecap:butt;stroke-linejoin:miter;stroke-opacity:1" d="M 292.228,12.8414 308.143,4 z" id="boundary" inkscape:connector-curvature="0" />
	<path style="fill:none;stroke:red;stroke-width:1px;stroke-linecap:butt;stroke-linejoin:miter;stroke-opacity:1" d="M 308.143,4 325.825,4 z" id="boundary" inkscape:connector-curvature="0" />
	<path style="fill:none;stroke:red;stroke-width:1px;stroke-linecap:butt;stroke-linejoin:miter;stroke-opacity:1" d="M 325.825,4 343.508,4 z" id="boundary" inkscape:connector-curvature="0" />
	<path style="fill:none;stroke:red;stroke-width:1px;stroke-linecap:butt;stroke-linejoin:miter;stroke-opacity:1" d="M 343.508,4 361.191,4 z" id="boundary" inkscape:connector-curvature="0" />
	<path style="fill:none;stroke:red;stroke-width:1px;stroke-linecap:butt;stroke-linejoin:miter;stroke-opacity:1" d="M 361.191,4 378.873,4 z" id="boundary" inkscape:connector-curvature="0" />
	<path style="fill:none;stroke:red;stroke-width:1px;stroke-linecap:butt;stroke-linejoin:miter;stroke-opacity:1" d="M 378.873,4 396.556,4 z" id="boundary" inkscape:connector-curvature="0" />
	<path style="fill:none;stroke:red;stroke-width:1px;stroke-linecap:butt;stroke-linejoin:miter;stroke-opacity:1" d="M 396.556,4 414.239,4 z" id="boundary" inkscape:connector-curvature="0" />
	<path style="fill:none;stroke:red;stroke-width:1px;stroke-linecap:butt;stroke-linejoin:miter;stroke-opacity:1" d="M 414.239,4 431.922,4 z" id="boundary" inkscape:connector-curvature="0" />
	<path style="fill:none;stroke:red;stroke-width:1px;stroke-linecap:butt;stroke-linejoin:miter;stroke-opacity:1" d="M 431.922,4 449.604,4 z" id="boundary" inkscape:connector-curvature="0" />
	<path style="fill:none;stroke:red;stroke-width:1px;stroke-linecap:butt;stroke-linejoin:miter;stroke-opacity:1" d="M 449.604,4 465.519,12.8414 z" id="boundary" inkscape:connector-curvature="0" />
	<path style="fill:none;stroke:red;stroke-width:1px;stroke-linecap:butt;stroke-linejoin:miter;stroke-opacity:1" d="M 465.519,12.8414 483.201,12.8414 z" id="boundary" inkscape:connector-curvature="0" />
	<path style="fill:none;stroke:red;stroke-width:1px;stroke-linecap:butt;stroke-linejoin:miter;stroke-opacity:1" d="M 483.201,12.8414 500.884,12.8414 z" id="boundary" inkscape:connector-curvature="0" />
	<path style="fill:none;stroke:red;stroke-width:1px;stroke-linecap:butt;stroke-linejoin:miter;stroke-opacity:1" d="M 500.884,12.8414 516.799,21.6827 z" id="boundary" inkscape:connector-curvature="0" />
	<path style="fill:none;stroke:red;stroke-width:1px;stroke-linecap:butt;stroke-linejoin:miter;stroke-opacity:1" d="M 516.799,21.6827 532.713,30.5241 z" id="boundary" inkscape:connector-curvature="0" />
	<path style="fill:none;stroke:red;stroke-width:1px;stroke-linecap:butt;stroke-linejoin:miter;stroke-opacity:1" d="M 532.713,30.5241 548.627,39.3654 z" id="boundary" inkscape:connector-curvature="0" />
	<path style="fill:none;stroke:red;stroke-width:1px;stroke-linecap:butt;stroke-linejoin:miter;stroke-opacity:1" d="M 548.627,39.3654 561.005,53.5116 z" id="boundary" inkscape:connector-curvature="0" />
	<path style="fill:none;stroke:red;stroke-width:1px;stroke-linecap:butt;stroke-linejoin:miter;stroke-opacity:1" d="M 561.005,53.5116 578.688,60.5847 z" id="boundary" inkscape:connector-curvature="0" />
	<path style="fill:none;stroke:red;stroke-width:1px;stroke-linecap:butt;stroke-linejoin:miter;stroke-opacity:1" d="M 578.688,60.5847 589.298,74.7308 z" id="boundary" inkscape:connector-curvature="0" />
	<path style="fill:none;stroke:red;stroke-width:1px;stroke-linecap:butt;stroke-linejoin:miter;stroke-opacity:1" d="M 589.298,74.7308 603.444,85.3405 z" id="boundary" inkscape:connector-curvature="0" />
	<path style="fill:none;stroke:red;stroke-width:1px;stroke-linecap:butt;stroke-linejoin:miter;stroke-opacity:1" d="M 603.444,85.3405 615.822,99.4866 z" id="boundary" inkscape:connector-curvature="0" />
	<path style="fill:none;stroke:red;stroke-width:1px;stroke-linecap:butt;stroke-linejoin:miter;stroke-opacity:1" d="M 615.822,99.4866 629.968,111.865 z" id="boundary" inkscape:connector-curvature="0" />
	<path style="fill:none;stroke:red;stroke-width:1px;stroke-linecap:butt;stroke-linejoin:miter;stroke-opacity:1" d="M 629.968,111.865 645.882,120.706 z" id="boundary" inkscape:connector-curvature="0" />
	<path style="fill:none;stroke:red;stroke-width:1px;stroke-linecap:butt;stroke-linejoin:miter;stroke-opacity:1" d="M 645.882,120.706 660.029,133.084 z" id="boundary" inkscape:connector-curvature="0" />
	<path style="fill:none;stroke:red;stroke-width:1px;stroke-linecap:butt;stroke-linejoin:miter;stroke-opacity:1" d="M 660.029,133.084 675.943,141.925 z" id="boundary" inkscape:connector-curvature="0" />
	<path style="fill:none;stroke:red;stroke-width:1px;stroke-linecap:butt;stroke-linejoin:miter;stroke-opacity:1" d="M 675.943,141.925 693.626,148.998 z" id="boundary" inkscape:connector-curvature="0" />
	<path style="fill:none;stroke:red;stroke-width:1px;stroke-linecap:butt;stroke-linejoin:miter;stroke-opacity:1" d="M 693.626,148.998 704.235,163.144 z" id="boundary" inkscape:connector-curvature="0" />
	<path style="fill:none;stroke:red;stroke-width:1px;stroke-linecap:butt;stroke-linejoin:miter;stroke-opacity:1" d="M 704.235,163.144 721.918,163.144 z" id="boundary" inkscape:connector-curvature="0" />
	<path style="fill:none;stroke:red;stroke-width:1px;stroke-linecap:butt;stroke-linejoin:miter;stroke-opacity:1" d="M 721.918,163.144 739.601,163.144 z" id="boundary" inkscape:connector-curvature="0" />
	<path style="fill:none;stroke:red;stroke-width:1px;stroke-linecap:butt;stroke-linejoin:miter;stroke-opacity:1" d="M 739.601,163.144 757.283,163.144 z" id="boundary" inkscape:connector-curvature="0" />
	<path style="fill:none;stroke:red;stroke-width:1px;stroke-linecap:butt;stroke-linejoin:miter;stroke-opacity:1" d="M 757.283,163.144 773.198,154.303 z" id="boundary" inkscape:connector-curvature="0" />
	<path style="fill:none;stroke:red;stroke-width:1px;stroke-linecap:butt;stroke-linejoin:miter;stroke-opacity:1" d="M 773.198,154.303 790.881,150.766 z" id="boundary" inkscape:connector-curvature="0" />
	<path style="fill:none;stroke:red;stroke-width:1px;stroke-linecap:butt;stroke-linejoin:miter;stroke-opacity:1" d="M 790.881,150.766 808.563,145.462 z" id="boundary" inkscape:connector-curvature="0" />
	<path style="fill:none;stroke:red;stroke-width:1px;stroke-linecap:butt;stroke-linejoin:miter;stroke-opacity:1" d="M 808.563,145.462 826.246,145.462 z" id="boundary" inkscape:connector-curvature="0" />
	<path style="fill:none;stroke:red;stroke-width:1px;stroke-linecap:butt;stroke-linejoin:miter;stroke-opacity:1" d="M 826.246,145.462 843.929,145.462 z" id="boundary" inkscape:connector-curvature="0" />
	<path style="fill:none;stroke:red;stroke-width:1px;stroke-linecap:butt;stroke-linejoin:miter;stroke-opacity:1" d="M 843.929,145.462 858.075,156.071 z" id="boundary" inkscape:connector-curvature="0" />
	<path style="fill:none;stroke:red;stroke-width:1px;stroke-linecap:butt;stroke-linejoin:miter;stroke-opacity:1" d="M 858.075,156.071 863.38,173.754 z" id="boundary" inkscape:connector-curvature="0" />
	<path style="fill:none;stroke:red;stroke-width:1px;stroke-linecap:butt;stroke-linejoin:miter;stroke-opacity:1" d="M 863.38,173.754 859.843,205.583 z" id="boundary" inkscape:connector-curvature="0" />
	<path style="fill:none;stroke:red;stroke-width:1px;stroke-linecap:butt;stroke-linejoin:miter;stroke-opacity:1" d="M 859.843,205.583 851.002,223.266 z" id="boundary" inkscape:connector-curvature="0" />
	<path style="fill:none;stroke:red;stroke-width:1px;stroke-linecap:butt;stroke-linejoin:miter;stroke-opacity:1" d="M 851.002,223.266 842.16,240.948 z" id="boundary" inkscape:connector-curvature="0" />
	<path style="fill:none;stroke:red;stroke-width:1px;stroke-linecap:butt;stroke-linejoin:miter;stroke-opacity:1" d="M 842.16,240.948 828.014,253.326 z" id="boundary" inkscape:connector-curvature="0" />
	<path style="fill:none;stroke:red;stroke-width:1px;stroke-linecap:butt;stroke-linejoin:miter;stroke-opacity:1" d="M 828.014,253.326 828.014,271.009 z" id="boundary" inkscape:connector-curvature="0" />
	<path style="fill:none;stroke:red;stroke-width:1px;stroke-linecap:butt;stroke-linejoin:miter;stroke-opacity:1" d="M 828.014,271.009 831.551,288.692 z" id="boundary" inkscape:connector-curvature="0" />
	<path style="fill:none;stroke:red;stroke-width:1px;stroke-linecap:butt;stroke-linejoin:miter;stroke-opacity:1" d="M 831.551,288.692 845.697,301.07 z" id="boundary" inkscape:connector-curvature="0" />
	<path style="fill:none;stroke:red;stroke-width:1px;stroke-linecap:butt;stroke-linejoin:miter;stroke-opacity:1" d="M 845.697,301.07 861.611,309.911 z" id="boundary" inkscape:connector-curvature="0" />
	<path style="fill:none;stroke:red;stroke-width:1px;stroke-linecap:butt;stroke-linejoin:miter;stroke-opacity:1" d="M 861.611,309.911 870.453,325.825 z" id="boundary" inkscape:connector-curvature="0" />
	<path style="fill:none;stroke:red;stroke-width:1px;stroke-linecap:butt;stroke-linejoin:miter;stroke-opacity:1" d="M 870.453,325.825 877.526,343.508 z" id="boundary" inkscape:connector-curvature="0" />
	<path style="fill:none;stroke:red;stroke-width:1px;stroke-linecap:butt;stroke-linejoin:miter;stroke-opacity:1" d="M 877.526,343.508 881.062,361.191 z" id="boundary" inkscape:connector-curvature="0" />
	<path style="fill:none;stroke:red;stroke-width:1px;stroke-linecap:butt;stroke-linejoin:miter;stroke-opacity:1" d="M 881.062,361.191 872.221,385.947 z" id="boundary" inkscape:connector-curvature="0" />
	<path style="fill:none;stroke:red;stroke-width:1px;stroke-linecap:butt;stroke-linejoin:miter;stroke-opacity:1" d="M 872.221,385.947 858.075,410.702 z" id="boundary" inkscape:connector-curvature="0" />
	<path style="fill:none;stroke:red;stroke-width:1px;stroke-linecap:butt;stroke-linejoin:miter;stroke-opacity:1" d="M 858.075,410.702 849.234,428.385 z" id="boundary" inkscape:connector-curvature="0" />
	<path style="fill:none;stroke:red;stroke-width:1px;stroke-linecap:butt;stroke-linejoin:miter;stroke-opacity:1" d="M 849.234,428.385 833.319,438.995 z" id="boundary" inkscape:connector-curvature="0" />
	<path style="fill:none;stroke:red;stroke-width:1px;stroke-linecap:butt;stroke-linejoin:miter;stroke-opacity:1" d="M 833.319,438.995 817.405,447.836 z" id="boundary" inkscape:connector-curvature="0" />
	<path style="fill:none;stroke:red;stroke-width:1px;stroke-linecap:butt;stroke-linejoin:miter;stroke-opacity:1" d="M 817.405,447.836 801.49,456.677 z" id="boundary" inkscape:connector-curvature="0" />
	<path style="fill:none;stroke:red;stroke-width:1px;stroke-linecap:butt;stroke-linejoin:miter;stroke-opacity:1" d="M 801.49,456.677 783.807,465.519 z" id="boundary" inkscape:connector-curvature="0" />
	<path style="fill:none;stroke:red;stroke-width:1px;stroke-linecap:butt;stroke-linejoin:miter;stroke-opacity:1" d="M 783.807,465.519 766.125,474.36 z" id="boundary" inkscape:connector-curvature="0" />
	<path style="fill:none;stroke:red;stroke-width:1px;stroke-linecap:butt;stroke-linejoin:miter;stroke-opacity:1" d="M 766.125,474.36 766.125,492.043 z" id="boundary" inkscape:connector-curvature="0" />
	<path style="fill:none;stroke:red;stroke-width:1px;stroke-linecap:butt;stroke-linejoin:miter;stroke-opacity:1" d="M 766.125,492.043 774.966,507.957 z" id="boundary" inkscape:connector-curvature="0" />
	<path style="fill:none;stroke:red;stroke-width:1px;stroke-linecap:butt;stroke-linejoin:miter;stroke-opacity:1" d="M 774.966,507.957 774.966,525.64 z" id="boundary" inkscape:connector-curvature="0" />
	<path style="fill:none;stroke:red;stroke-width:1px;stroke-linecap:butt;stroke-linejoin:miter;stroke-opacity:1" d="M 774.966,525.64 783.807,541.554 z" id="boundary" inkscape:connector-curvature="0" />
	<path style="fill:none;stroke:red;stroke-width:1px;stroke-linecap:butt;stroke-linejoin:miter;stroke-opacity:1" d="M 783.807,541.554 797.954,553.932 z" id="boundary" inkscape:connector-curvature="0" />
	<path style="fill:none;stroke:red;stroke-width:1px;stroke-linecap:butt;stroke-linejoin:miter;stroke-opacity:1" d="M 797.954,553.932 810.332,568.078 z" id="boundary" inkscape:connector-curvature="0" />
	<path style="fill:none;stroke:red;stroke-width:1px;stroke-linecap:butt;stroke-linejoin:miter;stroke-opacity:1" d="M 810.332,568.078 819.173,583.993 z" id="boundary" inkscape:connector-curvature="0" />
	<path style="fill:none;stroke:red;stroke-width:1px;stroke-linecap:butt;stroke-linejoin:miter;stroke-opacity:1" d="M 819.173,583.993 835.087,592.834 z" id="boundary" inkscape:connector-curvature="0" />
	<path style="fill:none;stroke:red;stroke-width:1px;stroke-linecap:butt;stroke-linejoin:miter;stroke-opacity:1" d="M 835.087,592.834 849.234,605.212 z" id="boundary" inkscape:connector-curvature="0" />
	<path style="fill:none;stroke:red;stroke-width:1px;stroke-linecap:butt;stroke-linejoin:miter;stroke-opacity:1" d="M 849.234,605.212 854.538,622.895 z" id="boundary" inkscape:connector-curvature="0" />
	<path style="fill:none;stroke:red;stroke-width:1px;stroke-linecap:butt;stroke-linejoin:miter;stroke-opacity:1" d="M 854.538,622.895 863.38,638.809 z" id="boundary" inkscape:connector-curvature="0" />
	<path style="fill:none;stroke:red;stroke-width:1px;stroke-linecap:butt;stroke-linejoin:miter;stroke-opacity:1" d="M 863.38,638.809 877.526,651.187 z" id="boundary" inkscape:connector-curvature="0" />
	<path style="fill:none;stroke:red;stroke-width:1px;stroke-linecap:butt;stroke-linejoin:miter;stroke-opacity:1" d="M 877.526,651.187 881.062,668.87 z" id="boundary" inkscape:connector-curvature="0" />
	<path style="fill:none;stroke:red;stroke-width:1px;stroke-linecap:butt;stroke-linejoin:miter;stroke-opacity:1" d="M 881.062,668.87 881.062,686.553 z" id="boundary" inkscape:connector-curvature="0" />
	<path style="fill:none;stroke:red;stroke-width:1px;stroke-linecap:butt;stroke-linejoin:miter;stroke-opacity:1" d="M 881.062,686.553 881.062,704.235 z" id="boundary" inkscape:connector-curvature="0" />
	<path style="fill:none;stroke:red;stroke-width:1px;stroke-linecap:butt;stroke-linejoin:miter;stroke-opacity:1" d="M 881.062,704.235 881.062,721.918 z" id="boundary" inkscape:connector-curvature="0" />
	<circle cx="4" cy="221.497" r="4" fill="#0" id="circle0"/>
	<circle cx="12.8414" cy="203.815" r="4" fill="#0" id="circle1"/>
	<circle cx="18.1462" cy="233.875" r="4" fill="#0" id="circle2"/>
	<circle cx="26.9875" cy="189.668" r="4" fill="#0" id="circle3"/>
	<circle cx="30.5241" cy="248.021" r="4" fill="#0" id="circle4"/>
	<circle cx="39.3654" cy="725.455" r="4" fill="#0" id="circle5"/>
	<circle cx="39.3654" cy="743.137" r="4" fill="#0" id="circle6"/>
	<circle cx="39.3654" cy="760.82" r="4" fill="#0" id="circle7"/>
	<circle cx="42.902" cy="180.827" r="4" fill="#0" id="circle8"/>
	<circle cx="44.6702" cy="260.399" r="4" fill="#0" id="circle9"/>
	<circle cx="48.2068" cy="698.93" r="4" fill="#0" id="circle10"/>
	<circle cx="48.2068" cy="776.734" r="4" fill="#0" id="circle11"/>
	<circle cx="57.0481" cy="274.545" r="4" fill="#0" id="circle12"/>
	<circle cx="57.0481" cy="681.248" r="4" fill="#0" id="circle13"/>
	<circle cx="57.0481" cy="792.649" r="4" fill="#0" id="circle14"/>
	<circle cx="57.0481" cy="810.332" r="4" fill="#0" id="circle15"/>
	<circle cx="58.8164" cy="171.986" r="4" fill="#0" id="circle16"/>
	<circle cx="65.8895" cy="663.565" r="4" fill="#0" id="circle17"/>
	<circle cx="65.8895" cy="826.246" r="4" fill="#0" id="circle18"/>
	<circle cx="71.1943" cy="286.923" r="4" fill="#0" id="circle19"/>
	<circle cx="74.7308" cy="159.608" r="4" fill="#0" id="circle20"/>
	<circle cx="80.0357" cy="649.419" r="4" fill="#0" id="circle21"/>
	<circle cx="80.0357" cy="836.856" r="4" fill="#0" id="circle22"/>
	<circle cx="87.1087" cy="295.765" r="4" fill="#0" id="circle23"/>
	<circle cx="88.877" cy="145.462" r="4" fill="#0" id="circle24"/>
	<circle cx="88.877" cy="631.736" r="4" fill="#0" id="circle25"/>
	<circle cx="95.9501" cy="845.697" r="4" fill="#0" id="circle26"/>
	<circle cx="97.7184" cy="614.053" r="4" fill="#0" id="circle27"/>
	<circle cx="101.255" cy="306.374" r="4" fill="#0" id="circle28"/>
	<circle cx="103.023" cy="131.316" r="4" fill="#0" id="circle29"/>
	<circle cx="106.56" cy="324.057" r="4" fill="#0" id="circle30"/>
	<circle cx="106.56" cy="596.371" r="4" fill="#0" id="circle31"/>
	<circle cx="110.096" cy="575.152" r="4" fill="#0" id="circle32"/>
	<circle cx="111.865" cy="836.856" r="4" fill="#0" id="circle33"/>
	<circle cx="115.401" cy="339.971" r="4" fill="#0" id="circle34"/>
	<circle cx="117.169" cy="118.938" r="4" fill="#0" id="circle35"/>
	<circle cx="118.938" cy="557.469" r="4" fill="#0" id="circle36"/>
	<circle cx="127.779" cy="354.118" r="4" fill="#0" id="circle37"/>
	<circle cx="127.779" cy="371.8" r="4" fill="#0" id="circle38"/>
	<circle cx="127.779" cy="389.483" r="4" fill="#0" id="circle39"/>
	<circle cx="127.779" cy="530.945" r="4" fill="#0" id="circle40"/>
	<circle cx="129.547" cy="104.791" r="4" fill="#0" id="circle41"/>
	<circle cx="129.547" cy="840.392" r="4" fill="#0" id="circle42"/>
	<circle cx="136.62" cy="405.398" r="4" fill="#0" id="circle43"/>
	<circle cx="136.62" cy="423.08" r="4" fill="#0" id="circle44"/>
	<circle cx="136.62" cy="440.763" r="4" fill="#0" id="circle45"/>
	<circle cx="136.62" cy="458.446" r="4" fill="#0" id="circle46"/>
	<circle cx="136.62" cy="476.128" r="4" fill="#0" id="circle47"/>
	<circle cx="136.62" cy="493.811" r="4" fill="#0" id="circle48"/>
	<circle cx="136.62" cy="511.494" r="4" fill="#0" id="circle49"/>
	<circle cx="143.693" cy="92.4135" r="4" fill="#0" id="circle50"/>
	<circle cx="145.462" cy="849.234" r="4" fill="#0" id="circle51"/>
	<circle cx="159.608" cy="83.5722" r="4" fill="#0" id="circle52"/>
	<circle cx="163.144" cy="854.538" r="4" fill="#0" id="circle53"/>
	<circle cx="163.144" cy="872.221" r="4" fill="#0" id="circle54"/>
	<circle cx="171.986" cy="888.135" r="4" fill="#0" id="circle55"/>
	<circle cx="177.291" cy="74.7308" r="4" fill="#0" id="circle56"/>
	<circle cx="182.595" cy="902.282" r="4" fill="#0" id="circle57"/>
	<circle cx="191.437" cy="60.5847" r="4" fill="#0" id="circle58"/>
	<circle cx="194.973" cy="916.428" r="4" fill="#0" id="circle59"/>
	<circle cx="203.815" cy="932.342" r="4" fill="#0" id="circle60"/>
	<circle cx="209.119" cy="51.7433" r="4" fill="#0" id="circle61"/>
	<circle cx="216.193" cy="946.488" r="4" fill="#0" id="circle62"/>
	<circle cx="226.802" cy="42.902" r="4" fill="#0" id="circle63"/>
	<circle cx="230.339" cy="958.866" r="4" fill="#0" id="circle64"/>
	<circle cx="240.948" cy="30.5241" r="4" fill="#0" id="circle65"/>
	<circle cx="242.717" cy="973.012" r="4" fill="#0" id="circle66"/>
	<circle cx="256.863" cy="21.6827" r="4" fill="#0" id="circle67"/>
	<circle cx="256.863" cy="985.39" r="4" fill="#0" id="circle68"/>
	<circle cx="274.545" cy="12.8414" r="4" fill="#0" id="circle69"/>
	<circle cx="274.545" cy="987.159" r="4" fill="#0" id="circle70"/>
	<circle cx="292.228" cy="12.8414" r="4" fill="#0" id="circle71"/>
	<circle cx="292.228" cy="994.232" r="4" fill="#0" id="circle72"/>
	<circle cx="308.143" cy="4" r="4" fill="#0" id="circle73"/>
	<circle cx="309.911" cy="996" r="4" fill="#0" id="circle74"/>
	<circle cx="325.825" cy="4" r="4" fill="#0" id="circle75"/>
	<circle cx="327.594" cy="996" r="4" fill="#0" id="circle76"/>
	<circle cx="341.74" cy="978.317" r="4" fill="#0" id="circle77"/>
	<circle cx="343.508" cy="4" r="4" fill="#0" id="circle78"/>
	<circle cx="350.581" cy="889.904" r="4" fill="#0" id="circle79"/>
	<circle cx="350.581" cy="907.586" r="4" fill="#0" id="circle80"/>
	<circle cx="350.581" cy="925.269" r="4" fill="#0" id="circle81"/>
	<circle cx="350.581" cy="942.952" r="4" fill="#0" id="circle82"/>
	<circle cx="350.581" cy="960.635" r="4" fill="#0" id="circle83"/>
	<circle cx="361.191" cy="4" r="4" fill="#0" id="circle84"/>
	<circle cx="364.727" cy="877.526" r="4" fill="#0" id="circle85"/>
	<circle cx="378.873" cy="4" r="4" fill="#0" id="circle86"/>
	<circle cx="382.41" cy="868.684" r="4" fill="#0" id="circle87"/>
	<circle cx="396.556" cy="4" r="4" fill="#0" id="circle88"/>
	<circle cx="400.093" cy="863.38" r="4" fill="#0" id="circle89"/>
	<circle cx="414.239" cy="4" r="4" fill="#0" id="circle90"/>
	<circle cx="417.775" cy="863.38" r="4" fill="#0" id="circle91"/>
	<circle cx="431.922" cy="4" r="4" fill="#0" id="circle92"/>
	<circle cx="433.69" cy="872.221" r="4" fill="#0" id="circle93"/>
	<circle cx="449.604" cy="4" r="4" fill="#0" id="circle94"/>
	<circle cx="451.373" cy="879.294" r="4" fill="#0" id="circle95"/>
	<circle cx="465.519" cy="12.8414" r="4" fill="#0" id="circle96"/>
	<circle cx="467.287" cy="888.135" r="4" fill="#0" id="circle97"/>
	<circle cx="483.201" cy="12.8414" r="4" fill="#0" id="circle98"/>
	<circle cx="484.97" cy="889.904" r="4" fill="#0" id="circle99"/>
	<circle cx="500.884" cy="12.8414" r="4" fill="#0" id="circle100"/>
	<circle cx="500.884" cy="898.745" r="4" fill="#0" id="circle101"/>
	<circle cx="516.799" cy="21.6827" r="4" fill="#0" id="circle102"/>
	<circle cx="516.799" cy="907.586" r="4" fill="#0" id="circle103"/>
	<circle cx="532.713" cy="30.5241" r="4" fill="#0" id="circle104"/>
	<circle cx="532.713" cy="916.428" r="4" fill="#0" id="circle105"/>
	<circle cx="545.091" cy="810.332" r="4" fill="#0" id="circle106"/>
	<circle cx="545.091" cy="828.014" r="4" fill="#0" id="circle107"/>
	<circle cx="548.627" cy="39.3654" r="4" fill="#0" id="circle108"/>
	<circle cx="550.396" cy="916.428" r="4" fill="#0" id="circle109"/>
	<circle cx="553.932" cy="792.649" r="4" fill="#0" id="circle110"/>
	<circle cx="559.237" cy="838.624" r="4" fill="#0" id="circle111"/>
	<circle cx="561.005" cy="53.5116" r="4" fill="#0" id="circle112"/>
	<circle cx="562.774" cy="774.966" r="4" fill="#0" id="circle113"/>
	<circle cx="566.31" cy="925.269" r="4" fill="#0" id="circle114"/>
	<circle cx="576.92" cy="762.588" r="4" fill="#0" id="circle115"/>
	<circle cx="576.92" cy="845.697" r="4" fill="#0" id="circle116"/>
	<circle cx="578.688" cy="60.5847" r="4" fill="#0" id="circle117"/>
	<circle cx="580.456" cy="937.647" r="4" fill="#0" id="circle118"/>
	<circle cx="589.298" cy="74.7308" r="4" fill="#0" id="circle119"/>
	<circle cx="592.834" cy="951.793" r="4" fill="#0" id="circle120"/>
	<circle cx="594.602" cy="753.747" r="4" fill="#0" id="circle121"/>
	<circle cx="594.602" cy="852.77" r="4" fill="#0" id="circle122"/>
	<circle cx="603.444" cy="85.3405" r="4" fill="#0" id="circle123"/>
	<circle cx="610.517" cy="951.793" r="4" fill="#0" id="circle124"/>
	<circle cx="612.285" cy="744.906" r="4" fill="#0" id="circle125"/>
	<circle cx="612.285" cy="852.77" r="4" fill="#0" id="circle126"/>
	<circle cx="615.822" cy="99.4866" r="4" fill="#0" id="circle127"/>
	<circle cx="626.431" cy="960.635" r="4" fill="#0" id="circle128"/>
	<circle cx="629.968" cy="111.865" r="4" fill="#0" id="circle129"/>
	<circle cx="629.968" cy="739.601" r="4" fill="#0" id="circle130"/>
	<circle cx="629.968" cy="854.538" r="4" fill="#0" id="circle131"/>
	<circle cx="642.346" cy="969.476" r="4" fill="#0" id="circle132"/>
	<circle cx="645.882" cy="120.706" r="4" fill="#0" id="circle133"/>
	<circle cx="645.882" cy="863.38" r="4" fill="#0" id="circle134"/>
	<circle cx="647.651" cy="739.601" r="4" fill="#0" id="circle135"/>
	<circle cx="660.029" cy="133.084" r="4" fill="#0" id="circle136"/>
	<circle cx="660.029" cy="969.476" r="4" fill="#0" id="circle137"/>
	<circle cx="663.565" cy="870.453" r="4" fill="#0" id="circle138"/>
	<circle cx="665.333" cy="739.601" r="4" fill="#0" id="circle139"/>
	<circle cx="675.943" cy="141.925" r="4" fill="#0" id="circle140"/>
	<circle cx="677.711" cy="973.012" r="4" fill="#0" id="circle141"/>
	<circle cx="679.48" cy="879.294" r="4" fill="#0" id="circle142"/>
	<circle cx="683.016" cy="739.601" r="4" fill="#0" id="circle143"/>
	<circle cx="693.626" cy="148.998" r="4" fill="#0" id="circle144"/>
	<circle cx="695.394" cy="978.317" r="4" fill="#0" id="circle145"/>
	<circle cx="697.162" cy="879.294" r="4" fill="#0" id="circle146"/>
	<circle cx="700.699" cy="739.601" r="4" fill="#0" id="circle147"/>
	<circle cx="704.235" cy="163.144" r="4" fill="#0" id="circle148"/>
	<circle cx="711.308" cy="987.159" r="4" fill="#0" id="circle149"/>
	<circle cx="714.845" cy="879.294" r="4" fill="#0" id="circle150"/>
	<circle cx="716.613" cy="748.442" r="4" fill="#0" id="circle151"/>
	<circle cx="721.918" cy="163.144" r="4" fill="#0" id="circle152"/>
	<circle cx="728.991" cy="987.159" r="4" fill="#0" id="circle153"/>
	<circle cx="730.759" cy="888.135" r="4" fill="#0" id="circle154"/>
	<circle cx="732.528" cy="757.283" r="4" fill="#0" id="circle155"/>
	<circle cx="739.601" cy="163.144" r="4" fill="#0" id="circle156"/>
	<circle cx="746.674" cy="896.977" r="4" fill="#0" id="circle157"/>
	<circle cx="746.674" cy="987.159" r="4" fill="#0" id="circle158"/>
	<circle cx="750.21" cy="762.588" r="4" fill="#0" id="circle159"/>
	<circle cx="757.283" cy="163.144" r="4" fill="#0" id="circle160"/>
	<circle cx="764.357" cy="900.513" r="4" fill="#0" id="circle161"/>
	<circle cx="764.357" cy="987.159" r="4" fill="#0" id="circle162"/>
	<circle cx="766.125" cy="474.36" r="4" fill="#0" id="circle163"/>
	<circle cx="766.125" cy="492.043" r="4" fill="#0" id="circle164"/>
	<circle cx="766.125" cy="771.43" r="4" fill="#0" id="circle165"/>
	<circle cx="773.198" cy="154.303" r="4" fill="#0" id="circle166"/>
	<circle cx="774.966" cy="507.957" r="4" fill="#0" id="circle167"/>
	<circle cx="774.966" cy="525.64" r="4" fill="#0" id="circle168"/>
	<circle cx="780.271" cy="909.355" r="4" fill="#0" id="circle169"/>
	<circle cx="782.039" cy="987.159" r="4" fill="#0" id="circle170"/>
	<circle cx="783.807" cy="465.519" r="4" fill="#0" id="circle171"/>
	<circle cx="783.807" cy="541.554" r="4" fill="#0" id="circle172"/>
	<circle cx="783.807" cy="774.966" r="4" fill="#0" id="circle173"/>
	<circle cx="790.881" cy="150.766" r="4" fill="#0" id="circle174"/>
	<circle cx="792.649" cy="923.501" r="4" fill="#0" id="circle175"/>
	<circle cx="797.954" cy="553.932" r="4" fill="#0" id="circle176"/>
	<circle cx="797.954" cy="978.317" r="4" fill="#0" id="circle177"/>
	<circle cx="799.722" cy="783.807" r="4" fill="#0" id="circle178"/>
	<circle cx="801.49" cy="456.677" r="4" fill="#0" id="circle179"/>
	<circle cx="808.563" cy="145.462" r="4" fill="#0" id="circle180"/>
	<circle cx="808.563" cy="932.342" r="4" fill="#0" id="circle181"/>
	<circle cx="810.332" cy="568.078" r="4" fill="#0" id="circle182"/>
	<circle cx="813.868" cy="967.708" r="4" fill="#0" id="circle183"/>
	<circle cx="817.405" cy="447.836" r="4" fill="#0" id="circle184"/>
	<circle cx="817.405" cy="783.807" r="4" fill="#0" id="circle185"/>
	<circle cx="819.173" cy="583.993" r="4" fill="#0" id="circle186"/>
	<circle cx="819.173" cy="946.488" r="4" fill="#0" id="circle187"/>
	<circle cx="826.246" cy="145.462" r="4" fill="#0" id="circle188"/>
	<circle cx="828.014" cy="253.326" r="4" fill="#0" id="circle189"/>
	<circle cx="828.014" cy="271.009" r="4" fill="#0" id="circle190"/>
	<circle cx="831.551" cy="288.692" r="4" fill="#0" id="circle191"/>
	<circle cx="833.319" cy="438.995" r="4" fill="#0" id="circle192"/>
	<circle cx="835.087" cy="592.834" r="4" fill="#0" id="circle193"/>
	<circle cx="835.087" cy="783.807" r="4" fill="#0" id="circle194"/>
	<circle cx="842.16" cy="240.948" r="4" fill="#0" id="circle195"/>
	<circle cx="843.929" cy="145.462" r="4" fill="#0" id="circle196"/>
	<circle cx="845.697" cy="301.07" r="4" fill="#0" id="circle197"/>
	<circle cx="849.234" cy="428.385" r="4" fill="#0" id="circle198"/>
	<circle cx="849.234" cy="605.212" r="4" fill="#0" id="circle199"/>
	<circle cx="851.002" cy="223.266" r="4" fill="#0" id="circle200"/>
	<circle cx="851.002" cy="774.966" r="4" fill="#0" id="circle201"/>
	<circle cx="854.538" cy="622.895" r="4" fill="#0" id="circle202"/>
	<circle cx="858.075" cy="156.071" r="4" fill="#0" id="circle203"/>
	<circle cx="858.075" cy="410.702" r="4" fill="#0" id="circle204"/>
	<circle cx="859.843" cy="205.583" r="4" fill="#0" id="circle205"/>
	<circle cx="861.611" cy="309.911" r="4" fill="#0" id="circle206"/>
	<circle cx="863.38" cy="173.754" r="4" fill="#0" id="circle207"/>
	<circle cx="863.38" cy="638.809" r="4" fill="#0" id="circle208"/>
	<circle cx="863.38" cy="757.283" r="4" fill="#0" id="circle209"/>
	<circle cx="870.453" cy="325.825" r="4" fill="#0" id="circle210"/>
	<circle cx="872.221" cy="385.947" r="4" fill="#0" id="circle211"/>
	<circle cx="872.221" cy="739.601" r="4" fill="#0" id="circle212"/>
	<circle cx="877.526" cy="343.508" r="4" fill="#0" id="circle213"/>
	<circle cx="877.526" cy="651.187" r="4" fill="#0" id="circle214"/>
	<circle cx="881.062" cy="361.191" r="4" fill="#0" id="circle215"/>
	<circle cx="881.062" cy="668.87" r="4" fill="#0" id="circle216"/>
	<circle cx="881.062" cy="686.553" r="4" fill="#0" id="circle217"/>
	<circle cx="881.062" cy="704.235" r="4" fill="#0" id="circle218"/>
	<circle cx="881.062" cy="721.918" r="4" fill="#0" id="circle219"/>
	</g>
</svg>