<?xml version="1.0" encoding="UTF-8" standalone="no"?>
<!-- Created with CurveBenchmark -->
<svg
	xmlns:dc="http://purl.org/dc/elements/1.1/"
	xmlns:cc="http://creativecommons.org/ns#"
	xmlns:rdf="http://www.w3.org/1999/02/22-rdf-syntax-ns#"
	xmlns:svg="http://www.w3.org/2000/svg"
	xmlns="http://www.w3.org/2000/svg"
	xmlns:sodipodi="http://sodipodi.sourceforge.net/DTD/sodipodi-0.dtd"
	xmlns:inkscape="http://www.inkscape.org/namespaces/inkscape"
	width="1000"
	height="1000"
	id="svg2"
	version="1.1"
	sodipodi:docname="manifold/connect2d-fish0106.png.txt">
<defs
	id="defs4" />
<metadata
	id="metadata7">
	<rdf:RDF>
		<cc:Work
			rdf:about="">
			<dc:format>image/svg+xml</dc:format>
			<dc:type
				rdf:resource="http://purl.org/dc/dcmitype/StillImage" />
			<dc:title></dc:title>
		</cc:Work>
	</rdf:RDF>
</metadata>
<g
	inkscape:label="Layer 1"
	inkscape:groupmode="layer"
	id="layer1">
	<path style="fill:none;stroke:red;stroke-width:1px;stroke-linecap:butt;stroke-linejoin:miter;stroke-opacity:1" d="M 996,105.62 989.548,126.589 z" id="boundary" inkscape:connector-curvature="0" />
	<path style="fill:none;stroke:red;stroke-width:1px;stroke-linecap:butt;stroke-linejoin:miter;stroke-opacity:1" d="M 989.548,126.589 987.935,142.719 z" id="boundary" inkscape:connector-curvature="0" />
	<path style="fill:none;stroke:red;stroke-width:1px;stroke-linecap:butt;stroke-linejoin:miter;stroke-opacity:1" d="M 987.935,142.719 978.257,155.623 z" id="boundary" inkscape:connector-curvature="0" />
	<path style="fill:none;stroke:red;stroke-width:1px;stroke-linecap:butt;stroke-linejoin:miter;stroke-opacity:1" d="M 978.257,155.623 965.353,166.914 z" id="boundary" inkscape:connector-curvature="0" />
	<path style="fill:none;stroke:red;stroke-width:1px;stroke-linecap:butt;stroke-linejoin:miter;stroke-opacity:1" d="M 965.353,166.914 954.062,179.818 z" id="boundary" inkscape:connector-curvature="0" />
	<path style="fill:none;stroke:red;stroke-width:1px;stroke-linecap:butt;stroke-linejoin:miter;stroke-opacity:1" d="M 954.062,179.818 937.932,187.883 z" id="boundary" inkscape:connector-curvature="0" />
	<path style="fill:none;stroke:red;stroke-width:1px;stroke-linecap:butt;stroke-linejoin:miter;stroke-opacity:1" d="M 937.932,187.883 921.802,195.948 z" id="boundary" inkscape:connector-curvature="0" />
	<path style="fill:none;stroke:red;stroke-width:1px;stroke-linecap:butt;stroke-linejoin:miter;stroke-opacity:1" d="M 921.802,195.948 905.672,204.013 z" id="boundary" inkscape:connector-curvature="0" />
	<path style="fill:none;stroke:red;stroke-width:1px;stroke-linecap:butt;stroke-linejoin:miter;stroke-opacity:1" d="M 905.672,204.013 889.541,212.078 z" id="boundary" inkscape:connector-curvature="0" />
	<path style="fill:none;stroke:red;stroke-width:1px;stroke-linecap:butt;stroke-linejoin:miter;stroke-opacity:1" d="M 889.541,212.078 876.637,223.369 z" id="boundary" inkscape:connector-curvature="0" />
	<path style="fill:none;stroke:red;stroke-width:1px;stroke-linecap:butt;stroke-linejoin:miter;stroke-opacity:1" d="M 876.637,223.369 862.12,231.434 z" id="boundary" inkscape:connector-curvature="0" />
	<path style="fill:none;stroke:red;stroke-width:1px;stroke-linecap:butt;stroke-linejoin:miter;stroke-opacity:1" d="M 862.12,231.434 847.603,239.499 z" id="boundary" inkscape:connector-curvature="0" />
	<path style="fill:none;stroke:red;stroke-width:1px;stroke-linecap:butt;stroke-linejoin:miter;stroke-opacity:1" d="M 847.603,239.499 831.473,239.499 z" id="boundary" inkscape:connector-curvature="0" />
	<path style="fill:none;stroke:red;stroke-width:1px;stroke-linecap:butt;stroke-linejoin:miter;stroke-opacity:1" d="M 831.473,239.499 815.343,245.951 z" id="boundary" inkscape:connector-curvature="0" />
	<path style="fill:none;stroke:red;stroke-width:1px;stroke-linecap:butt;stroke-linejoin:miter;stroke-opacity:1" d="M 815.343,245.951 800.826,255.629 z" id="boundary" inkscape:connector-curvature="0" />
	<path style="fill:none;stroke:red;stroke-width:1px;stroke-linecap:butt;stroke-linejoin:miter;stroke-opacity:1" d="M 800.826,255.629 784.696,255.629 z" id="boundary" inkscape:connector-curvature="0" />
	<path style="fill:none;stroke:red;stroke-width:1px;stroke-linecap:butt;stroke-linejoin:miter;stroke-opacity:1" d="M 784.696,255.629 770.179,263.694 z" id="boundary" inkscape:connector-curvature="0" />
	<path style="fill:none;stroke:red;stroke-width:1px;stroke-linecap:butt;stroke-linejoin:miter;stroke-opacity:1" d="M 770.179,263.694 754.049,263.694 z" id="boundary" inkscape:connector-curvature="0" />
	<path style="fill:none;stroke:red;stroke-width:1px;stroke-linecap:butt;stroke-linejoin:miter;stroke-opacity:1" d="M 754.049,263.694 739.532,271.759 z" id="boundary" inkscape:connector-curvature="0" />
	<path style="fill:none;stroke:red;stroke-width:1px;stroke-linecap:butt;stroke-linejoin:miter;stroke-opacity:1" d="M 739.532,271.759 723.402,279.824 z" id="boundary" inkscape:connector-curvature="0" />
	<path style="fill:none;stroke:red;stroke-width:1px;stroke-linecap:butt;stroke-linejoin:miter;stroke-opacity:1" d="M 723.402,279.824 723.402,304.02 z" id="boundary" inkscape:connector-curvature="0" />
	<path style="fill:none;stroke:red;stroke-width:1px;stroke-linecap:butt;stroke-linejoin:miter;stroke-opacity:1" d="M 723.402,304.02 713.724,331.441 z" id="boundary" inkscape:connector-curvature="0" />
	<path style="fill:none;stroke:red;stroke-width:1px;stroke-linecap:butt;stroke-linejoin:miter;stroke-opacity:1" d="M 713.724,331.441 705.659,347.571 z" id="boundary" inkscape:connector-curvature="0" />
	<path style="fill:none;stroke:red;stroke-width:1px;stroke-linecap:butt;stroke-linejoin:miter;stroke-opacity:1" d="M 705.659,347.571 692.754,360.475 z" id="boundary" inkscape:connector-curvature="0" />
	<path style="fill:none;stroke:red;stroke-width:1px;stroke-linecap:butt;stroke-linejoin:miter;stroke-opacity:1" d="M 692.754,360.475 678.237,368.54 z" id="boundary" inkscape:connector-curvature="0" />
	<path style="fill:none;stroke:red;stroke-width:1px;stroke-linecap:butt;stroke-linejoin:miter;stroke-opacity:1" d="M 678.237,368.54 662.107,368.54 z" id="boundary" inkscape:connector-curvature="0" />
	<path style="fill:none;stroke:red;stroke-width:1px;stroke-linecap:butt;stroke-linejoin:miter;stroke-opacity:1" d="M 662.107,368.54 657.268,352.41 z" id="boundary" inkscape:connector-curvature="0" />
	<path style="fill:none;stroke:red;stroke-width:1px;stroke-linecap:butt;stroke-linejoin:miter;stroke-opacity:1" d="M 657.268,352.41 641.138,347.571 z" id="boundary" inkscape:connector-curvature="0" />
	<path style="fill:none;stroke:red;stroke-width:1px;stroke-linecap:butt;stroke-linejoin:miter;stroke-opacity:1" d="M 641.138,347.571 654.042,334.667 z" id="boundary" inkscape:connector-curvature="0" />
	<path style="fill:none;stroke:red;stroke-width:1px;stroke-linecap:butt;stroke-linejoin:miter;stroke-opacity:1" d="M 654.042,334.667 642.751,312.085 z" id="boundary" inkscape:connector-curvature="0" />
	<path style="fill:none;stroke:red;stroke-width:1px;stroke-linecap:butt;stroke-linejoin:miter;stroke-opacity:1" d="M 642.751,312.085 633.073,328.215 z" id="boundary" inkscape:connector-curvature="0" />
	<path style="fill:none;stroke:red;stroke-width:1px;stroke-linecap:butt;stroke-linejoin:miter;stroke-opacity:1" d="M 633.073,328.215 616.943,323.376 z" id="boundary" inkscape:connector-curvature="0" />
	<path style="fill:none;stroke:red;stroke-width:1px;stroke-linecap:butt;stroke-linejoin:miter;stroke-opacity:1" d="M 616.943,323.376 616.943,307.246 z" id="boundary" inkscape:connector-curvature="0" />
	<path style="fill:none;stroke:red;stroke-width:1px;stroke-linecap:butt;stroke-linejoin:miter;stroke-opacity:1" d="M 616.943,307.246 625.008,292.728 z" id="boundary" inkscape:connector-curvature="0" />
	<path style="fill:none;stroke:red;stroke-width:1px;stroke-linecap:butt;stroke-linejoin:miter;stroke-opacity:1" d="M 625.008,292.728 615.33,279.824 z" id="boundary" inkscape:connector-curvature="0" />
	<path style="fill:none;stroke:red;stroke-width:1px;stroke-linecap:butt;stroke-linejoin:miter;stroke-opacity:1" d="M 615.33,279.824 600.813,287.889 z" id="boundary" inkscape:connector-curvature="0" />
	<path style="fill:none;stroke:red;stroke-width:1px;stroke-linecap:butt;stroke-linejoin:miter;stroke-opacity:1" d="M 600.813,287.889 584.683,287.889 z" id="boundary" inkscape:connector-curvature="0" />
	<path style="fill:none;stroke:red;stroke-width:1px;stroke-linecap:butt;stroke-linejoin:miter;stroke-opacity:1" d="M 584.683,287.889 568.553,287.889 z" id="boundary" inkscape:connector-curvature="0" />
	<path style="fill:none;stroke:red;stroke-width:1px;stroke-linecap:butt;stroke-linejoin:miter;stroke-opacity:1" d="M 568.553,287.889 552.423,287.889 z" id="boundary" inkscape:connector-curvature="0" />
	<path style="fill:none;stroke:red;stroke-width:1px;stroke-linecap:butt;stroke-linejoin:miter;stroke-opacity:1" d="M 552.423,287.889 536.293,287.889 z" id="boundary" inkscape:connector-curvature="0" />
	<path style="fill:none;stroke:red;stroke-width:1px;stroke-linecap:butt;stroke-linejoin:miter;stroke-opacity:1" d="M 536.293,287.889 520.163,287.889 z" id="boundary" inkscape:connector-curvature="0" />
	<path style="fill:none;stroke:red;stroke-width:1px;stroke-linecap:butt;stroke-linejoin:miter;stroke-opacity:1" d="M 520.163,287.889 504.033,287.889 z" id="boundary" inkscape:connector-curvature="0" />
	<path style="fill:none;stroke:red;stroke-width:1px;stroke-linecap:butt;stroke-linejoin:miter;stroke-opacity:1" d="M 504.033,287.889 487.902,287.889 z" id="boundary" inkscape:connector-curvature="0" />
	<path style="fill:none;stroke:red;stroke-width:1px;stroke-linecap:butt;stroke-linejoin:miter;stroke-opacity:1" d="M 487.902,287.889 473.385,279.824 z" id="boundary" inkscape:connector-curvature="0" />
	<path style="fill:none;stroke:red;stroke-width:1px;stroke-linecap:butt;stroke-linejoin:miter;stroke-opacity:1" d="M 473.385,279.824 457.255,279.824 z" id="boundary" inkscape:connector-curvature="0" />
	<path style="fill:none;stroke:red;stroke-width:1px;stroke-linecap:butt;stroke-linejoin:miter;stroke-opacity:1" d="M 457.255,279.824 441.125,279.824 z" id="boundary" inkscape:connector-curvature="0" />
	<path style="fill:none;stroke:red;stroke-width:1px;stroke-linecap:butt;stroke-linejoin:miter;stroke-opacity:1" d="M 441.125,279.824 424.995,279.824 z" id="boundary" inkscape:connector-curvature="0" />
	<path style="fill:none;stroke:red;stroke-width:1px;stroke-linecap:butt;stroke-linejoin:miter;stroke-opacity:1" d="M 424.995,279.824 410.478,287.889 z" id="boundary" inkscape:connector-curvature="0" />
	<path style="fill:none;stroke:red;stroke-width:1px;stroke-linecap:butt;stroke-linejoin:miter;stroke-opacity:1" d="M 410.478,287.889 394.348,287.889 z" id="boundary" inkscape:connector-curvature="0" />
	<path style="fill:none;stroke:red;stroke-width:1px;stroke-linecap:butt;stroke-linejoin:miter;stroke-opacity:1" d="M 394.348,287.889 379.831,295.954 z" id="boundary" inkscape:connector-curvature="0" />
	<path style="fill:none;stroke:red;stroke-width:1px;stroke-linecap:butt;stroke-linejoin:miter;stroke-opacity:1" d="M 379.831,295.954 365.314,304.02 z" id="boundary" inkscape:connector-curvature="0" />
	<path style="fill:none;stroke:red;stroke-width:1px;stroke-linecap:butt;stroke-linejoin:miter;stroke-opacity:1" d="M 365.314,304.02 350.797,312.085 z" id="boundary" inkscape:connector-curvature="0" />
	<path style="fill:none;stroke:red;stroke-width:1px;stroke-linecap:butt;stroke-linejoin:miter;stroke-opacity:1" d="M 350.797,312.085 336.28,320.15 z" id="boundary" inkscape:connector-curvature="0" />
	<path style="fill:none;stroke:red;stroke-width:1px;stroke-linecap:butt;stroke-linejoin:miter;stroke-opacity:1" d="M 336.28,320.15 320.15,320.15 z" id="boundary" inkscape:connector-curvature="0" />
	<path style="fill:none;stroke:red;stroke-width:1px;stroke-linecap:butt;stroke-linejoin:miter;stroke-opacity:1" d="M 320.15,320.15 310.472,307.246 z" id="boundary" inkscape:connector-curvature="0" />
	<path style="fill:none;stroke:red;stroke-width:1px;stroke-linecap:butt;stroke-linejoin:miter;stroke-opacity:1" d="M 310.472,307.246 310.472,291.115 z" id="boundary" inkscape:connector-curvature="0" />
	<path style="fill:none;stroke:red;stroke-width:1px;stroke-linecap:butt;stroke-linejoin:miter;stroke-opacity:1" d="M 310.472,291.115 310.472,274.985 z" id="boundary" inkscape:connector-curvature="0" />
	<path style="fill:none;stroke:red;stroke-width:1px;stroke-linecap:butt;stroke-linejoin:miter;stroke-opacity:1" d="M 310.472,274.985 310.472,258.855 z" id="boundary" inkscape:connector-curvature="0" />
	<path style="fill:none;stroke:red;stroke-width:1px;stroke-linecap:butt;stroke-linejoin:miter;stroke-opacity:1" d="M 310.472,258.855 304.02,242.725 z" id="boundary" inkscape:connector-curvature="0" />
	<path style="fill:none;stroke:red;stroke-width:1px;stroke-linecap:butt;stroke-linejoin:miter;stroke-opacity:1" d="M 304.02,242.725 291.115,231.434 z" id="boundary" inkscape:connector-curvature="0" />
	<path style="fill:none;stroke:red;stroke-width:1px;stroke-linecap:butt;stroke-linejoin:miter;stroke-opacity:1" d="M 291.115,231.434 276.598,223.369 z" id="boundary" inkscape:connector-curvature="0" />
	<path style="fill:none;stroke:red;stroke-width:1px;stroke-linecap:butt;stroke-linejoin:miter;stroke-opacity:1" d="M 276.598,223.369 260.468,223.369 z" id="boundary" inkscape:connector-curvature="0" />
	<path style="fill:none;stroke:red;stroke-width:1px;stroke-linecap:butt;stroke-linejoin:miter;stroke-opacity:1" d="M 260.468,223.369 244.338,223.369 z" id="boundary" inkscape:connector-curvature="0" />
	<path style="fill:none;stroke:red;stroke-width:1px;stroke-linecap:butt;stroke-linejoin:miter;stroke-opacity:1" d="M 244.338,223.369 228.208,223.369 z" id="boundary" inkscape:connector-curvature="0" />
	<path style="fill:none;stroke:red;stroke-width:1px;stroke-linecap:butt;stroke-linejoin:miter;stroke-opacity:1" d="M 228.208,223.369 212.078,223.369 z" id="boundary" inkscape:connector-curvature="0" />
	<path style="fill:none;stroke:red;stroke-width:1px;stroke-linecap:butt;stroke-linejoin:miter;stroke-opacity:1" d="M 212.078,223.369 197.561,231.434 z" id="boundary" inkscape:connector-curvature="0" />
	<path style="fill:none;stroke:red;stroke-width:1px;stroke-linecap:butt;stroke-linejoin:miter;stroke-opacity:1" d="M 197.561,231.434 183.044,223.369 z" id="boundary" inkscape:connector-curvature="0" />
	<path style="fill:none;stroke:red;stroke-width:1px;stroke-linecap:butt;stroke-linejoin:miter;stroke-opacity:1" d="M 183.044,223.369 166.914,223.369 z" id="boundary" inkscape:connector-curvature="0" />
	<path style="fill:none;stroke:red;stroke-width:1px;stroke-linecap:butt;stroke-linejoin:miter;stroke-opacity:1" d="M 166.914,223.369 155.623,239.499 z" id="boundary" inkscape:connector-curvature="0" />
	<path style="fill:none;stroke:red;stroke-width:1px;stroke-linecap:butt;stroke-linejoin:miter;stroke-opacity:1" d="M 155.623,239.499 139.493,239.499 z" id="boundary" inkscape:connector-curvature="0" />
	<path style="fill:none;stroke:red;stroke-width:1px;stroke-linecap:butt;stroke-linejoin:miter;stroke-opacity:1" d="M 139.493,239.499 123.363,239.499 z" id="boundary" inkscape:connector-curvature="0" />
	<path style="fill:none;stroke:red;stroke-width:1px;stroke-linecap:butt;stroke-linejoin:miter;stroke-opacity:1" d="M 123.363,239.499 107.233,239.499 z" id="boundary" inkscape:connector-curvature="0" />
	<path style="fill:none;stroke:red;stroke-width:1px;stroke-linecap:butt;stroke-linejoin:miter;stroke-opacity:1" d="M 107.233,239.499 92.7154,247.564 z" id="boundary" inkscape:connector-curvature="0" />
	<path style="fill:none;stroke:red;stroke-width:1px;stroke-linecap:butt;stroke-linejoin:miter;stroke-opacity:1" d="M 92.7154,247.564 76.5854,250.79 z" id="boundary" inkscape:connector-curvature="0" />
	<path style="fill:none;stroke:red;stroke-width:1px;stroke-linecap:butt;stroke-linejoin:miter;stroke-opacity:1" d="M 76.5854,250.79 60.4553,255.629 z" id="boundary" inkscape:connector-curvature="0" />
	<path style="fill:none;stroke:red;stroke-width:1px;stroke-linecap:butt;stroke-linejoin:miter;stroke-opacity:1" d="M 60.4553,255.629 44.3252,255.629 z" id="boundary" inkscape:connector-curvature="0" />
	<path style="fill:none;stroke:red;stroke-width:1px;stroke-linecap:butt;stroke-linejoin:miter;stroke-opacity:1" d="M 44.3252,255.629 28.1951,255.629 z" id="boundary" inkscape:connector-curvature="0" />
	<path style="fill:none;stroke:red;stroke-width:1px;stroke-linecap:butt;stroke-linejoin:miter;stroke-opacity:1" d="M 28.1951,255.629 12.065,257.242 z" id="boundary" inkscape:connector-curvature="0" />
	<path style="fill:none;stroke:red;stroke-width:1px;stroke-linecap:butt;stroke-linejoin:miter;stroke-opacity:1" d="M 12.065,257.242 4,242.725 z" id="boundary" inkscape:connector-curvature="0" />
	<path style="fill:none;stroke:red;stroke-width:1px;stroke-linecap:butt;stroke-linejoin:miter;stroke-opacity:1" d="M 4,242.725 20.1301,234.66 z" id="boundary" inkscape:connector-curvature="0" />
	<path style="fill:none;stroke:red;stroke-width:1px;stroke-linecap:butt;stroke-linejoin:miter;stroke-opacity:1" d="M 20.1301,234.66 36.2602,218.53 z" id="boundary" inkscape:connector-curvature="0" />
	<path style="fill:none;stroke:red;stroke-width:1px;stroke-linecap:butt;stroke-linejoin:miter;stroke-opacity:1" d="M 36.2602,218.53 49.1642,205.626 z" id="boundary" inkscape:connector-curvature="0" />
	<path style="fill:none;stroke:red;stroke-width:1px;stroke-linecap:butt;stroke-linejoin:miter;stroke-opacity:1" d="M 49.1642,205.626 63.6813,197.561 z" id="boundary" inkscape:connector-curvature="0" />
	<path style="fill:none;stroke:red;stroke-width:1px;stroke-linecap:butt;stroke-linejoin:miter;stroke-opacity:1" d="M 63.6813,197.561 68.5203,168.527 z" id="boundary" inkscape:connector-curvature="0" />
	<path style="fill:none;stroke:red;stroke-width:1px;stroke-linecap:butt;stroke-linejoin:miter;stroke-opacity:1" d="M 68.5203,168.527 60.4553,154.01 z" id="boundary" inkscape:connector-curvature="0" />
	<path style="fill:none;stroke:red;stroke-width:1px;stroke-linecap:butt;stroke-linejoin:miter;stroke-opacity:1" d="M 60.4553,154.01 52.3902,129.815 z" id="boundary" inkscape:connector-curvature="0" />
	<path style="fill:none;stroke:red;stroke-width:1px;stroke-linecap:butt;stroke-linejoin:miter;stroke-opacity:1" d="M 52.3902,129.815 41.0992,116.911 z" id="boundary" inkscape:connector-curvature="0" />
	<path style="fill:none;stroke:red;stroke-width:1px;stroke-linecap:butt;stroke-linejoin:miter;stroke-opacity:1" d="M 41.0992,116.911 28.1951,105.62 z" id="boundary" inkscape:connector-curvature="0" />
	<path style="fill:none;stroke:red;stroke-width:1px;stroke-linecap:butt;stroke-linejoin:miter;stroke-opacity:1" d="M 28.1951,105.62 16.9041,92.7154 z" id="boundary" inkscape:connector-curvature="0" />
	<path style="fill:none;stroke:red;stroke-width:1px;stroke-linecap:butt;stroke-linejoin:miter;stroke-opacity:1" d="M 16.9041,92.7154 4,81.4244 z" id="boundary" inkscape:connector-curvature="0" />
	<path style="fill:none;stroke:red;stroke-width:1px;stroke-linecap:butt;stroke-linejoin:miter;stroke-opacity:1" d="M 4,81.4244 20.1301,76.5854 z" id="boundary" inkscape:connector-curvature="0" />
	<path style="fill:none;stroke:red;stroke-width:1px;stroke-linecap:butt;stroke-linejoin:miter;stroke-opacity:1" d="M 20.1301,76.5854 36.2602,76.5854 z" id="boundary" inkscape:connector-curvature="0" />
	<path style="fill:none;stroke:red;stroke-width:1px;stroke-linecap:butt;stroke-linejoin:miter;stroke-opacity:1" d="M 36.2602,76.5854 52.3902,76.5854 z" id="boundary" inkscape:connector-curvature="0" />
	<path style="fill:none;stroke:red;stroke-width:1px;stroke-linecap:butt;stroke-linejoin:miter;stroke-opacity:1" d="M 52.3902,76.5854 68.5203,76.5854 z" id="boundary" inkscape:connector-curvature="0" />
	<path style="fill:none;stroke:red;stroke-width:1px;stroke-linecap:butt;stroke-linejoin:miter;stroke-opacity:1" d="M 68.5203,76.5854 84.6504,79.8114 z" id="boundary" inkscape:connector-curvature="0" />
	<path style="fill:none;stroke:red;stroke-width:1px;stroke-linecap:butt;stroke-linejoin:miter;stroke-opacity:1" d="M 84.6504,79.8114 94.3285,92.7154 z" id="boundary" inkscape:connector-curvature="0" />
	<path style="fill:none;stroke:red;stroke-width:1px;stroke-linecap:butt;stroke-linejoin:miter;stroke-opacity:1" d="M 94.3285,92.7154 110.459,92.7154 z" id="boundary" inkscape:connector-curvature="0" />
	<path style="fill:none;stroke:red;stroke-width:1px;stroke-linecap:butt;stroke-linejoin:miter;stroke-opacity:1" d="M 110.459,92.7154 126.589,92.7154 z" id="boundary" inkscape:connector-curvature="0" />
	<path style="fill:none;stroke:red;stroke-width:1px;stroke-linecap:butt;stroke-linejoin:miter;stroke-opacity:1" d="M 126.589,92.7154 141.106,100.78 z" id="boundary" inkscape:connector-curvature="0" />
	<path style="fill:none;stroke:red;stroke-width:1px;stroke-linecap:butt;stroke-linejoin:miter;stroke-opacity:1" d="M 141.106,100.78 157.236,104.007 z" id="boundary" inkscape:connector-curvature="0" />
	<path style="fill:none;stroke:red;stroke-width:1px;stroke-linecap:butt;stroke-linejoin:miter;stroke-opacity:1" d="M 157.236,104.007 173.366,108.846 z" id="boundary" inkscape:connector-curvature="0" />
	<path style="fill:none;stroke:red;stroke-width:1px;stroke-linecap:butt;stroke-linejoin:miter;stroke-opacity:1" d="M 173.366,108.846 189.496,112.072 z" id="boundary" inkscape:connector-curvature="0" />
	<path style="fill:none;stroke:red;stroke-width:1px;stroke-linecap:butt;stroke-linejoin:miter;stroke-opacity:1" d="M 189.496,112.072 205.626,116.911 z" id="boundary" inkscape:connector-curvature="0" />
	<path style="fill:none;stroke:red;stroke-width:1px;stroke-linecap:butt;stroke-linejoin:miter;stroke-opacity:1" d="M 205.626,116.911 221.756,120.137 z" id="boundary" inkscape:connector-curvature="0" />
	<path style="fill:none;stroke:red;stroke-width:1px;stroke-linecap:butt;stroke-linejoin:miter;stroke-opacity:1" d="M 221.756,120.137 237.886,124.976 z" id="boundary" inkscape:connector-curvature="0" />
	<path style="fill:none;stroke:red;stroke-width:1px;stroke-linecap:butt;stroke-linejoin:miter;stroke-opacity:1" d="M 237.886,124.976 254.016,121.75 z" id="boundary" inkscape:connector-curvature="0" />
	<path style="fill:none;stroke:red;stroke-width:1px;stroke-linecap:butt;stroke-linejoin:miter;stroke-opacity:1" d="M 254.016,121.75 270.146,116.911 z" id="boundary" inkscape:connector-curvature="0" />
	<path style="fill:none;stroke:red;stroke-width:1px;stroke-linecap:butt;stroke-linejoin:miter;stroke-opacity:1" d="M 270.146,116.911 284.663,108.846 z" id="boundary" inkscape:connector-curvature="0" />
	<path style="fill:none;stroke:red;stroke-width:1px;stroke-linecap:butt;stroke-linejoin:miter;stroke-opacity:1" d="M 284.663,108.846 295.954,95.9415 z" id="boundary" inkscape:connector-curvature="0" />
	<path style="fill:none;stroke:red;stroke-width:1px;stroke-linecap:butt;stroke-linejoin:miter;stroke-opacity:1" d="M 295.954,95.9415 308.859,84.6504 z" id="boundary" inkscape:connector-curvature="0" />
	<path style="fill:none;stroke:red;stroke-width:1px;stroke-linecap:butt;stroke-linejoin:miter;stroke-opacity:1" d="M 308.859,84.6504 310.472,57.2293 z" id="boundary" inkscape:connector-curvature="0" />
	<path style="fill:none;stroke:red;stroke-width:1px;stroke-linecap:butt;stroke-linejoin:miter;stroke-opacity:1" d="M 310.472,57.2293 310.472,41.0992 z" id="boundary" inkscape:connector-curvature="0" />
	<path style="fill:none;stroke:red;stroke-width:1px;stroke-linecap:butt;stroke-linejoin:miter;stroke-opacity:1" d="M 310.472,41.0992 310.472,24.9691 z" id="boundary" inkscape:connector-curvature="0" />
	<path style="fill:none;stroke:red;stroke-width:1px;stroke-linecap:butt;stroke-linejoin:miter;stroke-opacity:1" d="M 310.472,24.9691 326.602,20.1301 z" id="boundary" inkscape:connector-curvature="0" />
	<path style="fill:none;stroke:red;stroke-width:1px;stroke-linecap:butt;stroke-linejoin:miter;stroke-opacity:1" d="M 326.602,20.1301 342.732,23.3561 z" id="boundary" inkscape:connector-curvature="0" />
	<path style="fill:none;stroke:red;stroke-width:1px;stroke-linecap:butt;stroke-linejoin:miter;stroke-opacity:1" d="M 342.732,23.3561 349.184,39.4862 z" id="boundary" inkscape:connector-curvature="0" />
	<path style="fill:none;stroke:red;stroke-width:1px;stroke-linecap:butt;stroke-linejoin:miter;stroke-opacity:1" d="M 349.184,39.4862 365.314,45.9382 z" id="boundary" inkscape:connector-curvature="0" />
	<path style="fill:none;stroke:red;stroke-width:1px;stroke-linecap:butt;stroke-linejoin:miter;stroke-opacity:1" d="M 365.314,45.9382 376.605,58.8423 z" id="boundary" inkscape:connector-curvature="0" />
	<path style="fill:none;stroke:red;stroke-width:1px;stroke-linecap:butt;stroke-linejoin:miter;stroke-opacity:1" d="M 376.605,58.8423 384.67,73.3593 z" id="boundary" inkscape:connector-curvature="0" />
	<path style="fill:none;stroke:red;stroke-width:1px;stroke-linecap:butt;stroke-linejoin:miter;stroke-opacity:1" d="M 384.67,73.3593 397.574,84.6504 z" id="boundary" inkscape:connector-curvature="0" />
	<path style="fill:none;stroke:red;stroke-width:1px;stroke-linecap:butt;stroke-linejoin:miter;stroke-opacity:1" d="M 397.574,84.6504 413.704,86.2634 z" id="boundary" inkscape:connector-curvature="0" />
	<path style="fill:none;stroke:red;stroke-width:1px;stroke-linecap:butt;stroke-linejoin:miter;stroke-opacity:1" d="M 413.704,86.2634 429.834,92.7154 z" id="boundary" inkscape:connector-curvature="0" />
	<path style="fill:none;stroke:red;stroke-width:1px;stroke-linecap:butt;stroke-linejoin:miter;stroke-opacity:1" d="M 429.834,92.7154 445.964,92.7154 z" id="boundary" inkscape:connector-curvature="0" />
	<path style="fill:none;stroke:red;stroke-width:1px;stroke-linecap:butt;stroke-linejoin:miter;stroke-opacity:1" d="M 445.964,92.7154 462.094,92.7154 z" id="boundary" inkscape:connector-curvature="0" />
	<path style="fill:none;stroke:red;stroke-width:1px;stroke-linecap:butt;stroke-linejoin:miter;stroke-opacity:1" d="M 462.094,92.7154 478.224,92.7154 z" id="boundary" inkscape:connector-curvature="0" />
	<path style="fill:none;stroke:red;stroke-width:1px;stroke-linecap:butt;stroke-linejoin:miter;stroke-opacity:1" d="M 478.224,92.7154 492.741,84.6504 z" id="boundary" inkscape:connector-curvature="0" />
	<path style="fill:none;stroke:red;stroke-width:1px;stroke-linecap:butt;stroke-linejoin:miter;stroke-opacity:1" d="M 492.741,84.6504 507.259,92.7154 z" id="boundary" inkscape:connector-curvature="0" />
	<path style="fill:none;stroke:red;stroke-width:1px;stroke-linecap:butt;stroke-linejoin:miter;stroke-opacity:1" d="M 507.259,92.7154 512.098,71.7463 z" id="boundary" inkscape:connector-curvature="0" />
	<path style="fill:none;stroke:red;stroke-width:1px;stroke-linecap:butt;stroke-linejoin:miter;stroke-opacity:1" d="M 512.098,71.7463 504.033,57.2293 z" id="boundary" inkscape:connector-curvature="0" />
	<path style="fill:none;stroke:red;stroke-width:1px;stroke-linecap:butt;stroke-linejoin:miter;stroke-opacity:1" d="M 504.033,57.2293 504.033,41.0992 z" id="boundary" inkscape:connector-curvature="0" />
	<path style="fill:none;stroke:red;stroke-width:1px;stroke-linecap:butt;stroke-linejoin:miter;stroke-opacity:1" d="M 504.033,41.0992 512.098,16.9041 z" id="boundary" inkscape:connector-curvature="0" />
	<path style="fill:none;stroke:red;stroke-width:1px;stroke-linecap:butt;stroke-linejoin:miter;stroke-opacity:1" d="M 512.098,16.9041 525.002,4 z" id="boundary" inkscape:connector-curvature="0" />
	<path style="fill:none;stroke:red;stroke-width:1px;stroke-linecap:butt;stroke-linejoin:miter;stroke-opacity:1" d="M 525.002,4 541.132,4 z" id="boundary" inkscape:connector-curvature="0" />
	<path style="fill:none;stroke:red;stroke-width:1px;stroke-linecap:butt;stroke-linejoin:miter;stroke-opacity:1" d="M 541.132,4 552.423,16.9041 z" id="boundary" inkscape:connector-curvature="0" />
	<path style="fill:none;stroke:red;stroke-width:1px;stroke-linecap:butt;stroke-linejoin:miter;stroke-opacity:1" d="M 552.423,16.9041 560.488,31.4211 z" id="boundary" inkscape:connector-curvature="0" />
	<path style="fill:none;stroke:red;stroke-width:1px;stroke-linecap:butt;stroke-linejoin:miter;stroke-opacity:1" d="M 560.488,31.4211 570.166,44.3252 z" id="boundary" inkscape:connector-curvature="0" />
	<path style="fill:none;stroke:red;stroke-width:1px;stroke-linecap:butt;stroke-linejoin:miter;stroke-opacity:1" d="M 570.166,44.3252 578.231,58.8423 z" id="boundary" inkscape:connector-curvature="0" />
	<path style="fill:none;stroke:red;stroke-width:1px;stroke-linecap:butt;stroke-linejoin:miter;stroke-opacity:1" d="M 578.231,58.8423 591.135,70.1333 z" id="boundary" inkscape:connector-curvature="0" />
	<path style="fill:none;stroke:red;stroke-width:1px;stroke-linecap:butt;stroke-linejoin:miter;stroke-opacity:1" d="M 591.135,70.1333 605.652,78.1984 z" id="boundary" inkscape:connector-curvature="0" />
	<path style="fill:none;stroke:red;stroke-width:1px;stroke-linecap:butt;stroke-linejoin:miter;stroke-opacity:1" d="M 605.652,78.1984 618.556,89.4894 z" id="boundary" inkscape:connector-curvature="0" />
	<path style="fill:none;stroke:red;stroke-width:1px;stroke-linecap:butt;stroke-linejoin:miter;stroke-opacity:1" d="M 618.556,89.4894 634.686,92.7154 z" id="boundary" inkscape:connector-curvature="0" />
	<path style="fill:none;stroke:red;stroke-width:1px;stroke-linecap:butt;stroke-linejoin:miter;stroke-opacity:1" d="M 634.686,92.7154 650.816,92.7154 z" id="boundary" inkscape:connector-curvature="0" />
	<path style="fill:none;stroke:red;stroke-width:1px;stroke-linecap:butt;stroke-linejoin:miter;stroke-opacity:1" d="M 650.816,92.7154 666.946,92.7154 z" id="boundary" inkscape:connector-curvature="0" />
	<path style="fill:none;stroke:red;stroke-width:1px;stroke-linecap:butt;stroke-linejoin:miter;stroke-opacity:1" d="M 666.946,92.7154 683.076,92.7154 z" id="boundary" inkscape:connector-curvature="0" />
	<path style="fill:none;stroke:red;stroke-width:1px;stroke-linecap:butt;stroke-linejoin:miter;stroke-opacity:1" d="M 683.076,92.7154 699.207,92.7154 z" id="boundary" inkscape:connector-curvature="0" />
	<path style="fill:none;stroke:red;stroke-width:1px;stroke-linecap:butt;stroke-linejoin:miter;stroke-opacity:1" d="M 699.207,92.7154 715.337,87.8764 z" id="boundary" inkscape:connector-curvature="0" />
	<path style="fill:none;stroke:red;stroke-width:1px;stroke-linecap:butt;stroke-linejoin:miter;stroke-opacity:1" d="M 715.337,87.8764 728.241,76.5854 z" id="boundary" inkscape:connector-curvature="0" />
	<path style="fill:none;stroke:red;stroke-width:1px;stroke-linecap:butt;stroke-linejoin:miter;stroke-opacity:1" d="M 728.241,76.5854 744.371,76.5854 z" id="boundary" inkscape:connector-curvature="0" />
	<path style="fill:none;stroke:red;stroke-width:1px;stroke-linecap:butt;stroke-linejoin:miter;stroke-opacity:1" d="M 744.371,76.5854 760.501,76.5854 z" id="boundary" inkscape:connector-curvature="0" />
	<path style="fill:none;stroke:red;stroke-width:1px;stroke-linecap:butt;stroke-linejoin:miter;stroke-opacity:1" d="M 760.501,76.5854 776.631,76.5854 z" id="boundary" inkscape:connector-curvature="0" />
	<path style="fill:none;stroke:red;stroke-width:1px;stroke-linecap:butt;stroke-linejoin:miter;stroke-opacity:1" d="M 776.631,76.5854 792.761,76.5854 z" id="boundary" inkscape:connector-curvature="0" />
	<path style="fill:none;stroke:red;stroke-width:1px;stroke-linecap:butt;stroke-linejoin:miter;stroke-opacity:1" d="M 792.761,76.5854 808.891,76.5854 z" id="boundary" inkscape:connector-curvature="0" />
	<path style="fill:none;stroke:red;stroke-width:1px;stroke-linecap:butt;stroke-linejoin:miter;stroke-opacity:1" d="M 808.891,76.5854 825.021,76.5854 z" id="boundary" inkscape:connector-curvature="0" />
	<path style="fill:none;stroke:red;stroke-width:1px;stroke-linecap:butt;stroke-linejoin:miter;stroke-opacity:1" d="M 825.021,76.5854 841.151,76.5854 z" id="boundary" inkscape:connector-curvature="0" />
	<path style="fill:none;stroke:red;stroke-width:1px;stroke-linecap:butt;stroke-linejoin:miter;stroke-opacity:1" d="M 841.151,76.5854 857.281,76.5854 z" id="boundary" inkscape:connector-curvature="0" />
	<path style="fill:none;stroke:red;stroke-width:1px;stroke-linecap:butt;stroke-linejoin:miter;stroke-opacity:1" d="M 857.281,76.5854 873.411,76.5854 z" id="boundary" inkscape:connector-curvature="0" />
	<path style="fill:none;stroke:red;stroke-width:1px;stroke-linecap:butt;stroke-linejoin:miter;stroke-opacity:1" d="M 873.411,76.5854 889.541,76.5854 z" id="boundary" inkscape:connector-curvature="0" />
	<path style="fill:none;stroke:red;stroke-width:1px;stroke-linecap:butt;stroke-linejoin:miter;stroke-opacity:1" d="M 889.541,76.5854 905.672,76.5854 z" id="boundary" inkscape:connector-curvature="0" />
	<path style="fill:none;stroke:red;stroke-width:1px;stroke-linecap:butt;stroke-linejoin:miter;stroke-opacity:1" d="M 905.672,76.5854 921.802,76.5854 z" id="boundary" inkscape:connector-curvature="0" />
	<path style="fill:none;stroke:red;stroke-width:1px;stroke-linecap:butt;stroke-linejoin:miter;stroke-opacity:1" d="M 921.802,76.5854 937.932,78.1984 z" id="boundary" inkscape:connector-curvature="0" />
	<path style="fill:none;stroke:red;stroke-width:1px;stroke-linecap:butt;stroke-linejoin:miter;stroke-opacity:1" d="M 937.932,78.1984 949.223,91.1024 z" id="boundary" inkscape:connector-curvature="0" />
	<path style="fill:none;stroke:red;stroke-width:1px;stroke-linecap:butt;stroke-linejoin:miter;stroke-opacity:1" d="M 949.223,91.1024 965.353,92.7154 z" id="boundary" inkscape:connector-curvature="0" />
	<path style="fill:none;stroke:red;stroke-width:1px;stroke-linecap:butt;stroke-linejoin:miter;stroke-opacity:1" d="M 965.353,92.7154 981.483,97.5545 z" id="boundary" inkscape:connector-curvature="0" />
	<path style="fill:none;stroke:red;stroke-width:1px;stroke-linecap:butt;stroke-linejoin:miter;stroke-opacity:1" d="M 981.483,97.5545 996,105.62 z" id="boundary" inkscape:connector-curvature="0" />
	<circle cx="4" cy="81.4244" r="4" fill="#0" id="circle0"/>
	<circle cx="4" cy="242.725" r="4" fill="#0" id="circle1"/>
	<circle cx="12.065" cy="257.242" r="4" fill="#0" id="circle2"/>
	<circle cx="16.9041" cy="92.7154" r="4" fill="#0" id="circle3"/>
	<circle cx="20.1301" cy="76.5854" r="4" fill="#0" id="circle4"/>
	<circle cx="20.1301" cy="234.66" r="4" fill="#0" id="circle5"/>
	<circle cx="28.1951" cy="105.62" r="4" fill="#0" id="circle6"/>
	<circle cx="28.1951" cy="255.629" r="4" fill="#0" id="circle7"/>
	<circle cx="36.2602" cy="76.5854" r="4" fill="#0" id="circle8"/>
	<circle cx="36.2602" cy="218.53" r="4" fill="#0" id="circle9"/>
	<circle cx="41.0992" cy="116.911" r="4" fill="#0" id="circle10"/>
	<circle cx="44.3252" cy="255.629" r="4" fill="#0" id="circle11"/>
	<circle cx="49.1642" cy="205.626" r="4" fill="#0" id="circle12"/>
	<circle cx="52.3902" cy="76.5854" r="4" fill="#0" id="circle13"/>
	<circle cx="52.3902" cy="129.815" r="4" fill="#0" id="circle14"/>
	<circle cx="60.4553" cy="154.01" r="4" fill="#0" id="circle15"/>
	<circle cx="60.4553" cy="255.629" r="4" fill="#0" id="circle16"/>
	<circle cx="63.6813" cy="197.561" r="4" fill="#0" id="circle17"/>
	<circle cx="68.5203" cy="76.5854" r="4" fill="#0" id="circle18"/>
	<circle cx="68.5203" cy="168.527" r="4" fill="#0" id="circle19"/>
	<circle cx="76.5854" cy="250.79" r="4" fill="#0" id="circle20"/>
	<circle cx="84.6504" cy="79.8114" r="4" fill="#0" id="circle21"/>
	<circle cx="92.7154" cy="247.564" r="4" fill="#0" id="circle22"/>
	<circle cx="94.3285" cy="92.7154" r="4" fill="#0" id="circle23"/>
	<circle cx="107.233" cy="239.499" r="4" fill="#0" id="circle24"/>
	<circle cx="110.459" cy="92.7154" r="4" fill="#0" id="circle25"/>
	<circle cx="123.363" cy="239.499" r="4" fill="#0" id="circle26"/>
	<circle cx="126.589" cy="92.7154" r="4" fill="#0" id="circle27"/>
	<circle cx="139.493" cy="239.499" r="4" fill="#0" id="circle28"/>
	<circle cx="141.106" cy="100.78" r="4" fill="#0" id="circle29"/>
	<circle cx="155.623" cy="239.499" r="4" fill="#0" id="circle30"/>
	<circle cx="157.236" cy="104.007" r="4" fill="#0" id="circle31"/>
	<circle cx="166.914" cy="223.369" r="4" fill="#0" id="circle32"/>
	<circle cx="173.366" cy="108.846" r="4" fill="#0" id="circle33"/>
	<circle cx="183.044" cy="223.369" r="4" fill="#0" id="circle34"/>
	<circle cx="189.496" cy="112.072" r="4" fill="#0" id="circle35"/>
	<circle cx="197.561" cy="231.434" r="4" fill="#0" id="circle36"/>
	<circle cx="205.626" cy="116.911" r="4" fill="#0" id="circle37"/>
	<circle cx="212.078" cy="223.369" r="4" fill="#0" id="circle38"/>
	<circle cx="221.756" cy="120.137" r="4" fill="#0" id="circle39"/>
	<circle cx="228.208" cy="223.369" r="4" fill="#0" id="circle40"/>
	<circle cx="237.886" cy="124.976" r="4" fill="#0" id="circle41"/>
	<circle cx="244.338" cy="223.369" r="4" fill="#0" id="circle42"/>
	<circle cx="254.016" cy="121.75" r="4" fill="#0" id="circle43"/>
	<circle cx="260.468" cy="223.369" r="4" fill="#0" id="circle44"/>
	<circle cx="270.146" cy="116.911" r="4" fill="#0" id="circle45"/>
	<circle cx="276.598" cy="223.369" r="4" fill="#0" id="circle46"/>
	<circle cx="284.663" cy="108.846" r="4" fill="#0" id="circle47"/>
	<circle cx="291.115" cy="231.434" r="4" fill="#0" id="circle48"/>
	<circle cx="295.954" cy="95.9415" r="4" fill="#0" id="circle49"/>
	<circle cx="304.02" cy="242.725" r="4" fill="#0" id="circle50"/>
	<circle cx="308.859" cy="84.6504" r="4" fill="#0" id="circle51"/>
	<circle cx="310.472" cy="24.9691" r="4" fill="#0" id="circle52"/>
	<circle cx="310.472" cy="41.0992" r="4" fill="#0" id="circle53"/>
	<circle cx="310.472" cy="57.2293" r="4" fill="#0" id="circle54"/>
	<circle cx="310.472" cy="258.855" r="4" fill="#0" id="circle55"/>
	<circle cx="310.472" cy="274.985" r="4" fill="#0" id="circle56"/>
	<circle cx="310.472" cy="291.115" r="4" fill="#0" id="circle57"/>
	<circle cx="310.472" cy="307.246" r="4" fill="#0" id="circle58"/>
	<circle cx="320.15" cy="320.15" r="4" fill="#0" id="circle59"/>
	<circle cx="326.602" cy="20.1301" r="4" fill="#0" id="circle60"/>
	<circle cx="336.28" cy="320.15" r="4" fill="#0" id="circle61"/>
	<circle cx="342.732" cy="23.3561" r="4" fill="#0" id="circle62"/>
	<circle cx="349.184" cy="39.4862" r="4" fill="#0" id="circle63"/>
	<circle cx="350.797" cy="312.085" r="4" fill="#0" id="circle64"/>
	<circle cx="365.314" cy="45.9382" r="4" fill="#0" id="circle65"/>
	<circle cx="365.314" cy="304.02" r="4" fill="#0" id="circle66"/>
	<circle cx="376.605" cy="58.8423" r="4" fill="#0" id="circle67"/>
	<circle cx="379.831" cy="295.954" r="4" fill="#0" id="circle68"/>
	<circle cx="384.67" cy="73.3593" r="4" fill="#0" id="circle69"/>
	<circle cx="394.348" cy="287.889" r="4" fill="#0" id="circle70"/>
	<circle cx="397.574" cy="84.6504" r="4" fill="#0" id="circle71"/>
	<circle cx="410.478" cy="287.889" r="4" fill="#0" id="circle72"/>
	<circle cx="413.704" cy="86.2634" r="4" fill="#0" id="circle73"/>
	<circle cx="424.995" cy="279.824" r="4" fill="#0" id="circle74"/>
	<circle cx="429.834" cy="92.7154" r="4" fill="#0" id="circle75"/>
	<circle cx="441.125" cy="279.824" r="4" fill="#0" id="circle76"/>
	<circle cx="445.964" cy="92.7154" r="4" fill="#0" id="circle77"/>
	<circle cx="457.255" cy="279.824" r="4" fill="#0" id="circle78"/>
	<circle cx="462.094" cy="92.7154" r="4" fill="#0" id="circle79"/>
	<circle cx="473.385" cy="279.824" r="4" fill="#0" id="circle80"/>
	<circle cx="478.224" cy="92.7154" r="4" fill="#0" id="circle81"/>
	<circle cx="487.902" cy="287.889" r="4" fill="#0" id="circle82"/>
	<circle cx="492.741" cy="84.6504" r="4" fill="#0" id="circle83"/>
	<circle cx="504.033" cy="41.0992" r="4" fill="#0" id="circle84"/>
	<circle cx="504.033" cy="57.2293" r="4" fill="#0" id="circle85"/>
	<circle cx="504.033" cy="287.889" r="4" fill="#0" id="circle86"/>
	<circle cx="507.259" cy="92.7154" r="4" fill="#0" id="circle87"/>
	<circle cx="512.098" cy="16.9041" r="4" fill="#0" id="circle88"/>
	<circle cx="512.098" cy="71.7463" r="4" fill="#0" id="circle89"/>
	<circle cx="520.163" cy="287.889" r="4" fill="#0" id="circle90"/>
	<circle cx="525.002" cy="4" r="4" fill="#0" id="circle91"/>
	<circle cx="536.293" cy="287.889" r="4" fill="#0" id="circle92"/>
	<circle cx="541.132" cy="4" r="4" fill="#0" id="circle93"/>
	<circle cx="552.423" cy="16.9041" r="4" fill="#0" id="circle94"/>
	<circle cx="552.423" cy="287.889" r="4" fill="#0" id="circle95"/>
	<circle cx="560.488" cy="31.4211" r="4" fill="#0" id="circle96"/>
	<circle cx="568.553" cy="287.889" r="4" fill="#0" id="circle97"/>
	<circle cx="570.166" cy="44.3252" r="4" fill="#0" id="circle98"/>
	<circle cx="578.231" cy="58.8423" r="4" fill="#0" id="circle99"/>
	<circle cx="584.683" cy="287.889" r="4" fill="#0" id="circle100"/>
	<circle cx="591.135" cy="70.1333" r="4" fill="#0" id="circle101"/>
	<circle cx="600.813" cy="287.889" r="4" fill="#0" id="circle102"/>
	<circle cx="605.652" cy="78.1984" r="4" fill="#0" id="circle103"/>
	<circle cx="615.33" cy="279.824" r="4" fill="#0" id="circle104"/>
	<circle cx="616.943" cy="307.246" r="4" fill="#0" id="circle105"/>
	<circle cx="616.943" cy="323.376" r="4" fill="#0" id="circle106"/>
	<circle cx="618.556" cy="89.4894" r="4" fill="#0" id="circle107"/>
	<circle cx="625.008" cy="292.728" r="4" fill="#0" id="circle108"/>
	<circle cx="633.073" cy="328.215" r="4" fill="#0" id="circle109"/>
	<circle cx="634.686" cy="92.7154" r="4" fill="#0" id="circle110"/>
	<circle cx="641.138" cy="347.571" r="4" fill="#0" id="circle111"/>
	<circle cx="642.751" cy="312.085" r="4" fill="#0" id="circle112"/>
	<circle cx="650.816" cy="92.7154" r="4" fill="#0" id="circle113"/>
	<circle cx="654.042" cy="334.667" r="4" fill="#0" id="circle114"/>
	<circle cx="657.268" cy="352.41" r="4" fill="#0" id="circle115"/>
	<circle cx="662.107" cy="368.54" r="4" fill="#0" id="circle116"/>
	<circle cx="666.946" cy="92.7154" r="4" fill="#0" id="circle117"/>
	<circle cx="678.237" cy="368.54" r="4" fill="#0" id="circle118"/>
	<circle cx="683.076" cy="92.7154" r="4" fill="#0" id="circle119"/>
	<circle cx="692.754" cy="360.475" r="4" fill="#0" id="circle120"/>
	<circle cx="699.207" cy="92.7154" r="4" fill="#0" id="circle121"/>
	<circle cx="705.659" cy="347.571" r="4" fill="#0" id="circle122"/>
	<circle cx="713.724" cy="331.441" r="4" fill="#0" id="circle123"/>
	<circle cx="715.337" cy="87.8764" r="4" fill="#0" id="circle124"/>
	<circle cx="723.402" cy="279.824" r="4" fill="#0" id="circle125"/>
	<circle cx="723.402" cy="304.02" r="4" fill="#0" id="circle126"/>
	<circle cx="728.241" cy="76.5854" r="4" fill="#0" id="circle127"/>
	<circle cx="739.532" cy="271.759" r="4" fill="#0" id="circle128"/>
	<circle cx="744.371" cy="76.5854" r="4" fill="#0" id="circle129"/>
	<circle cx="754.049" cy="263.694" r="4" fill="#0" id="circle130"/>
	<circle cx="760.501" cy="76.5854" r="4" fill="#0" id="circle131"/>
	<circle cx="770.179" cy="263.694" r="4" fill="#0" id="circle132"/>
	<circle cx="776.631" cy="76.5854" r="4" fill="#0" id="circle133"/>
	<circle cx="784.696" cy="255.629" r="4" fill="#0" id="circle134"/>
	<circle cx="792.761" cy="76.5854" r="4" fill="#0" id="circle135"/>
	<circle cx="800.826" cy="255.629" r="4" fill="#0" id="circle136"/>
	<circle cx="808.891" cy="76.5854" r="4" fill="#0" id="circle137"/>
	<circle cx="815.343" cy="245.951" r="4" fill="#0" id="circle138"/>
	<circle cx="825.021" cy="76.5854" r="4" fill="#0" id="circle139"/>
	<circle cx="831.473" cy="239.499" r="4" fill="#0" id="circle140"/>
	<circle cx="841.151" cy="76.5854" r="4" fill="#0" id="circle141"/>
	<circle cx="847.603" cy="239.499" r="4" fill="#0" id="circle142"/>
	<circle cx="857.281" cy="76.5854" r="4" fill="#0" id="circle143"/>
	<circle cx="862.12" cy="231.434" r="4" fill="#0" id="circle144"/>
	<circle cx="873.411" cy="76.5854" r="4" fill="#0" id="circle145"/>
	<circle cx="876.637" cy="223.369" r="4" fill="#0" id="circle146"/>
	<circle cx="889.541" cy="76.5854" r="4" fill="#0" id="circle147"/>
	<circle cx="889.541" cy="212.078" r="4" fill="#0" id="circle148"/>
	<circle cx="905.672" cy="76.5854" r="4" fill="#0" id="circle149"/>
	<circle cx="905.672" cy="204.013" r="4" fill="#0" id="circle150"/>
	<circle cx="921.802" cy="76.5854" r="4" fill="#0" id="circle151"/>
	<circle cx="921.802" cy="195.948" r="4" fill="#0" id="circle152"/>
	<circle cx="937.932" cy="78.1984" r="4" fill="#0" id="circle153"/>
	<circle cx="937.932" cy="187.883" r="4" fill="#0" id="circle154"/>
	<circle cx="949.223" cy="91.1024" r="4" fill="#0" id="circle155"/>
	<circle cx="954.062" cy="179.818" r="4" fill="#0" id="circle156"/>
	<circle cx="965.353" cy="92.7154" r="4" fill="#0" id="circle157"/>
	<circle cx="965.353" cy="166.914" r="4" fill="#0" id="circle158"/>
	<circle cx="978.257" cy="155.623" r="4" fill="#0" id="circle159"/>
	<circle cx="981.483" cy="97.5545" r="4" fill="#0" id="circle160"/>
	<circle cx="987.935" cy="142.719" r="4" fill="#0" id="circle161"/>
	<circle cx="989.548" cy="126.589" r="4" fill="#0" id="circle162"/>
	<circle cx="996" cy="105.62" r="4" fill="#0" id="circle163"/>
	</g>
</svg>