<?xml version="1.0" encoding="UTF-8" standalone="no"?>
<!-- Created with CurveBenchmark -->
<svg
	xmlns:dc="http://purl.org/dc/elements/1.1/"
	xmlns:cc="http://creativecommons.org/ns#"
	xmlns:rdf="http://www.w3.org/1999/02/22-rdf-syntax-ns#"
	xmlns:svg="http://www.w3.org/2000/svg"
	xmlns="http://www.w3.org/2000/svg"
	xmlns:sodipodi="http://sodipodi.sourceforge.net/DTD/sodipodi-0.dtd"
	xmlns:inkscape="http://www.inkscape.org/namespaces/inkscape"
	width="1000"
	height="1000"
	id="svg2"
	version="1.1"
	sodipodi:docname="manifold/connect2d-cat14.png.txt">
<defs
	id="defs4" />
<metadata
	id="metadata7">
	<rdf:RDF>
		<cc:Work
			rdf:about="">
			<dc:format>image/svg+xml</dc:format>
			<dc:type
				rdf:resource="http://purl.org/dc/dcmitype/StillImage" />
			<dc:title></dc:title>
		</cc:Work>
	</rdf:RDF>
</metadata>
<g
	inkscape:label="Layer 1"
	inkscape:groupmode="layer"
	id="layer1">
	<path style="fill:none;stroke:red;stroke-width:1px;stroke-linecap:butt;stroke-linejoin:miter;stroke-opacity:1" d="M 996,654.803 985.469,690.607 z" id="boundary" inkscape:connector-curvature="0" />
	<path style="fill:none;stroke:red;stroke-width:1px;stroke-linecap:butt;stroke-linejoin:miter;stroke-opacity:1" d="M 985.469,690.607 968.62,709.563 z" id="boundary" inkscape:connector-curvature="0" />
	<path style="fill:none;stroke:red;stroke-width:1px;stroke-linecap:butt;stroke-linejoin:miter;stroke-opacity:1" d="M 968.62,709.563 951.771,726.412 z" id="boundary" inkscape:connector-curvature="0" />
	<path style="fill:none;stroke:red;stroke-width:1px;stroke-linecap:butt;stroke-linejoin:miter;stroke-opacity:1" d="M 951.771,726.412 930.709,732.73 z" id="boundary" inkscape:connector-curvature="0" />
	<path style="fill:none;stroke:red;stroke-width:1px;stroke-linecap:butt;stroke-linejoin:miter;stroke-opacity:1" d="M 930.709,732.73 909.648,732.73 z" id="boundary" inkscape:connector-curvature="0" />
	<path style="fill:none;stroke:red;stroke-width:1px;stroke-linecap:butt;stroke-linejoin:miter;stroke-opacity:1" d="M 909.648,732.73 888.586,732.73 z" id="boundary" inkscape:connector-curvature="0" />
	<path style="fill:none;stroke:red;stroke-width:1px;stroke-linecap:butt;stroke-linejoin:miter;stroke-opacity:1" d="M 888.586,732.73 867.524,724.306 z" id="boundary" inkscape:connector-curvature="0" />
	<path style="fill:none;stroke:red;stroke-width:1px;stroke-linecap:butt;stroke-linejoin:miter;stroke-opacity:1" d="M 867.524,724.306 856.994,705.35 z" id="boundary" inkscape:connector-curvature="0" />
	<path style="fill:none;stroke:red;stroke-width:1px;stroke-linecap:butt;stroke-linejoin:miter;stroke-opacity:1" d="M 856.994,705.35 856.994,684.289 z" id="boundary" inkscape:connector-curvature="0" />
	<path style="fill:none;stroke:red;stroke-width:1px;stroke-linecap:butt;stroke-linejoin:miter;stroke-opacity:1" d="M 856.994,684.289 873.843,667.439 z" id="boundary" inkscape:connector-curvature="0" />
	<path style="fill:none;stroke:red;stroke-width:1px;stroke-linecap:butt;stroke-linejoin:miter;stroke-opacity:1" d="M 873.843,667.439 890.692,650.59 z" id="boundary" inkscape:connector-curvature="0" />
	<path style="fill:none;stroke:red;stroke-width:1px;stroke-linecap:butt;stroke-linejoin:miter;stroke-opacity:1" d="M 890.692,650.59 899.117,612.679 z" id="boundary" inkscape:connector-curvature="0" />
	<path style="fill:none;stroke:red;stroke-width:1px;stroke-linecap:butt;stroke-linejoin:miter;stroke-opacity:1" d="M 899.117,612.679 899.117,591.618 z" id="boundary" inkscape:connector-curvature="0" />
	<path style="fill:none;stroke:red;stroke-width:1px;stroke-linecap:butt;stroke-linejoin:miter;stroke-opacity:1" d="M 899.117,591.618 899.117,570.556 z" id="boundary" inkscape:connector-curvature="0" />
	<path style="fill:none;stroke:red;stroke-width:1px;stroke-linecap:butt;stroke-linejoin:miter;stroke-opacity:1" d="M 899.117,570.556 886.48,553.707 z" id="boundary" inkscape:connector-curvature="0" />
	<path style="fill:none;stroke:red;stroke-width:1px;stroke-linecap:butt;stroke-linejoin:miter;stroke-opacity:1" d="M 886.48,553.707 867.524,543.176 z" id="boundary" inkscape:connector-curvature="0" />
	<path style="fill:none;stroke:red;stroke-width:1px;stroke-linecap:butt;stroke-linejoin:miter;stroke-opacity:1" d="M 867.524,543.176 848.569,532.645 z" id="boundary" inkscape:connector-curvature="0" />
	<path style="fill:none;stroke:red;stroke-width:1px;stroke-linecap:butt;stroke-linejoin:miter;stroke-opacity:1" d="M 848.569,532.645 831.72,520.008 z" id="boundary" inkscape:connector-curvature="0" />
	<path style="fill:none;stroke:red;stroke-width:1px;stroke-linecap:butt;stroke-linejoin:miter;stroke-opacity:1" d="M 831.72,520.008 810.658,511.584 z" id="boundary" inkscape:connector-curvature="0" />
	<path style="fill:none;stroke:red;stroke-width:1px;stroke-linecap:butt;stroke-linejoin:miter;stroke-opacity:1" d="M 810.658,511.584 791.703,501.053 z" id="boundary" inkscape:connector-curvature="0" />
	<path style="fill:none;stroke:red;stroke-width:1px;stroke-linecap:butt;stroke-linejoin:miter;stroke-opacity:1" d="M 791.703,501.053 774.854,486.31 z" id="boundary" inkscape:connector-curvature="0" />
	<path style="fill:none;stroke:red;stroke-width:1px;stroke-linecap:butt;stroke-linejoin:miter;stroke-opacity:1" d="M 774.854,486.31 762.217,469.461 z" id="boundary" inkscape:connector-curvature="0" />
	<path style="fill:none;stroke:red;stroke-width:1px;stroke-linecap:butt;stroke-linejoin:miter;stroke-opacity:1" d="M 762.217,469.461 753.792,448.399 z" id="boundary" inkscape:connector-curvature="0" />
	<path style="fill:none;stroke:red;stroke-width:1px;stroke-linecap:butt;stroke-linejoin:miter;stroke-opacity:1" d="M 753.792,448.399 732.73,448.399 z" id="boundary" inkscape:connector-curvature="0" />
	<path style="fill:none;stroke:red;stroke-width:1px;stroke-linecap:butt;stroke-linejoin:miter;stroke-opacity:1" d="M 732.73,448.399 732.73,469.461 z" id="boundary" inkscape:connector-curvature="0" />
	<path style="fill:none;stroke:red;stroke-width:1px;stroke-linecap:butt;stroke-linejoin:miter;stroke-opacity:1" d="M 732.73,469.461 732.73,490.522 z" id="boundary" inkscape:connector-curvature="0" />
	<path style="fill:none;stroke:red;stroke-width:1px;stroke-linecap:butt;stroke-linejoin:miter;stroke-opacity:1" d="M 732.73,490.522 732.73,511.584 z" id="boundary" inkscape:connector-curvature="0" />
	<path style="fill:none;stroke:red;stroke-width:1px;stroke-linecap:butt;stroke-linejoin:miter;stroke-opacity:1" d="M 732.73,511.584 732.73,532.645 z" id="boundary" inkscape:connector-curvature="0" />
	<path style="fill:none;stroke:red;stroke-width:1px;stroke-linecap:butt;stroke-linejoin:miter;stroke-opacity:1" d="M 732.73,532.645 728.518,570.556 z" id="boundary" inkscape:connector-curvature="0" />
	<path style="fill:none;stroke:red;stroke-width:1px;stroke-linecap:butt;stroke-linejoin:miter;stroke-opacity:1" d="M 728.518,570.556 711.669,585.299 z" id="boundary" inkscape:connector-curvature="0" />
	<path style="fill:none;stroke:red;stroke-width:1px;stroke-linecap:butt;stroke-linejoin:miter;stroke-opacity:1" d="M 711.669,585.299 701.138,606.361 z" id="boundary" inkscape:connector-curvature="0" />
	<path style="fill:none;stroke:red;stroke-width:1px;stroke-linecap:butt;stroke-linejoin:miter;stroke-opacity:1" d="M 701.138,606.361 686.395,623.21 z" id="boundary" inkscape:connector-curvature="0" />
	<path style="fill:none;stroke:red;stroke-width:1px;stroke-linecap:butt;stroke-linejoin:miter;stroke-opacity:1" d="M 686.395,623.21 669.546,637.953 z" id="boundary" inkscape:connector-curvature="0" />
	<path style="fill:none;stroke:red;stroke-width:1px;stroke-linecap:butt;stroke-linejoin:miter;stroke-opacity:1" d="M 669.546,637.953 652.696,656.909 z" id="boundary" inkscape:connector-curvature="0" />
	<path style="fill:none;stroke:red;stroke-width:1px;stroke-linecap:butt;stroke-linejoin:miter;stroke-opacity:1" d="M 652.696,656.909 631.635,667.439 z" id="boundary" inkscape:connector-curvature="0" />
	<path style="fill:none;stroke:red;stroke-width:1px;stroke-linecap:butt;stroke-linejoin:miter;stroke-opacity:1" d="M 631.635,667.439 610.573,677.97 z" id="boundary" inkscape:connector-curvature="0" />
	<path style="fill:none;stroke:red;stroke-width:1px;stroke-linecap:butt;stroke-linejoin:miter;stroke-opacity:1" d="M 610.573,677.97 591.618,690.607 z" id="boundary" inkscape:connector-curvature="0" />
	<path style="fill:none;stroke:red;stroke-width:1px;stroke-linecap:butt;stroke-linejoin:miter;stroke-opacity:1" d="M 591.618,690.607 570.556,690.607 z" id="boundary" inkscape:connector-curvature="0" />
	<path style="fill:none;stroke:red;stroke-width:1px;stroke-linecap:butt;stroke-linejoin:miter;stroke-opacity:1" d="M 570.556,690.607 551.601,680.076 z" id="boundary" inkscape:connector-curvature="0" />
	<path style="fill:none;stroke:red;stroke-width:1px;stroke-linecap:butt;stroke-linejoin:miter;stroke-opacity:1" d="M 551.601,680.076 530.539,671.652 z" id="boundary" inkscape:connector-curvature="0" />
	<path style="fill:none;stroke:red;stroke-width:1px;stroke-linecap:butt;stroke-linejoin:miter;stroke-opacity:1" d="M 530.539,671.652 520.008,652.696 z" id="boundary" inkscape:connector-curvature="0" />
	<path style="fill:none;stroke:red;stroke-width:1px;stroke-linecap:butt;stroke-linejoin:miter;stroke-opacity:1" d="M 520.008,652.696 520.008,631.635 z" id="boundary" inkscape:connector-curvature="0" />
	<path style="fill:none;stroke:red;stroke-width:1px;stroke-linecap:butt;stroke-linejoin:miter;stroke-opacity:1" d="M 520.008,631.635 536.858,614.786 z" id="boundary" inkscape:connector-curvature="0" />
	<path style="fill:none;stroke:red;stroke-width:1px;stroke-linecap:butt;stroke-linejoin:miter;stroke-opacity:1" d="M 536.858,614.786 557.919,604.255 z" id="boundary" inkscape:connector-curvature="0" />
	<path style="fill:none;stroke:red;stroke-width:1px;stroke-linecap:butt;stroke-linejoin:miter;stroke-opacity:1" d="M 557.919,604.255 574.769,587.406 z" id="boundary" inkscape:connector-curvature="0" />
	<path style="fill:none;stroke:red;stroke-width:1px;stroke-linecap:butt;stroke-linejoin:miter;stroke-opacity:1" d="M 574.769,587.406 591.618,572.662 z" id="boundary" inkscape:connector-curvature="0" />
	<path style="fill:none;stroke:red;stroke-width:1px;stroke-linecap:butt;stroke-linejoin:miter;stroke-opacity:1" d="M 591.618,572.662 604.255,555.813 z" id="boundary" inkscape:connector-curvature="0" />
	<path style="fill:none;stroke:red;stroke-width:1px;stroke-linecap:butt;stroke-linejoin:miter;stroke-opacity:1" d="M 604.255,555.813 604.255,534.752 z" id="boundary" inkscape:connector-curvature="0" />
	<path style="fill:none;stroke:red;stroke-width:1px;stroke-linecap:butt;stroke-linejoin:miter;stroke-opacity:1" d="M 604.255,534.752 587.406,522.115 z" id="boundary" inkscape:connector-curvature="0" />
	<path style="fill:none;stroke:red;stroke-width:1px;stroke-linecap:butt;stroke-linejoin:miter;stroke-opacity:1" d="M 587.406,522.115 568.45,532.645 z" id="boundary" inkscape:connector-curvature="0" />
	<path style="fill:none;stroke:red;stroke-width:1px;stroke-linecap:butt;stroke-linejoin:miter;stroke-opacity:1" d="M 568.45,532.645 549.495,543.176 z" id="boundary" inkscape:connector-curvature="0" />
	<path style="fill:none;stroke:red;stroke-width:1px;stroke-linecap:butt;stroke-linejoin:miter;stroke-opacity:1" d="M 549.495,543.176 530.539,553.707 z" id="boundary" inkscape:connector-curvature="0" />
	<path style="fill:none;stroke:red;stroke-width:1px;stroke-linecap:butt;stroke-linejoin:miter;stroke-opacity:1" d="M 530.539,553.707 511.584,564.238 z" id="boundary" inkscape:connector-curvature="0" />
	<path style="fill:none;stroke:red;stroke-width:1px;stroke-linecap:butt;stroke-linejoin:miter;stroke-opacity:1" d="M 511.584,564.238 492.628,574.769 z" id="boundary" inkscape:connector-curvature="0" />
	<path style="fill:none;stroke:red;stroke-width:1px;stroke-linecap:butt;stroke-linejoin:miter;stroke-opacity:1" d="M 492.628,574.769 471.567,574.769 z" id="boundary" inkscape:connector-curvature="0" />
	<path style="fill:none;stroke:red;stroke-width:1px;stroke-linecap:butt;stroke-linejoin:miter;stroke-opacity:1" d="M 471.567,574.769 452.611,585.299 z" id="boundary" inkscape:connector-curvature="0" />
	<path style="fill:none;stroke:red;stroke-width:1px;stroke-linecap:butt;stroke-linejoin:miter;stroke-opacity:1" d="M 452.611,585.299 433.656,595.83 z" id="boundary" inkscape:connector-curvature="0" />
	<path style="fill:none;stroke:red;stroke-width:1px;stroke-linecap:butt;stroke-linejoin:miter;stroke-opacity:1" d="M 433.656,595.83 414.701,606.361 z" id="boundary" inkscape:connector-curvature="0" />
	<path style="fill:none;stroke:red;stroke-width:1px;stroke-linecap:butt;stroke-linejoin:miter;stroke-opacity:1" d="M 414.701,606.361 395.745,616.892 z" id="boundary" inkscape:connector-curvature="0" />
	<path style="fill:none;stroke:red;stroke-width:1px;stroke-linecap:butt;stroke-linejoin:miter;stroke-opacity:1" d="M 395.745,616.892 395.745,637.953 z" id="boundary" inkscape:connector-curvature="0" />
	<path style="fill:none;stroke:red;stroke-width:1px;stroke-linecap:butt;stroke-linejoin:miter;stroke-opacity:1" d="M 395.745,637.953 395.745,659.015 z" id="boundary" inkscape:connector-curvature="0" />
	<path style="fill:none;stroke:red;stroke-width:1px;stroke-linecap:butt;stroke-linejoin:miter;stroke-opacity:1" d="M 395.745,659.015 395.745,680.076 z" id="boundary" inkscape:connector-curvature="0" />
	<path style="fill:none;stroke:red;stroke-width:1px;stroke-linecap:butt;stroke-linejoin:miter;stroke-opacity:1" d="M 395.745,680.076 385.214,711.669 z" id="boundary" inkscape:connector-curvature="0" />
	<path style="fill:none;stroke:red;stroke-width:1px;stroke-linecap:butt;stroke-linejoin:miter;stroke-opacity:1" d="M 385.214,711.669 374.684,732.73 z" id="boundary" inkscape:connector-curvature="0" />
	<path style="fill:none;stroke:red;stroke-width:1px;stroke-linecap:butt;stroke-linejoin:miter;stroke-opacity:1" d="M 374.684,732.73 364.153,764.323 z" id="boundary" inkscape:connector-curvature="0" />
	<path style="fill:none;stroke:red;stroke-width:1px;stroke-linecap:butt;stroke-linejoin:miter;stroke-opacity:1" d="M 364.153,764.323 353.622,795.915 z" id="boundary" inkscape:connector-curvature="0" />
	<path style="fill:none;stroke:red;stroke-width:1px;stroke-linecap:butt;stroke-linejoin:miter;stroke-opacity:1" d="M 353.622,795.915 347.304,835.932 z" id="boundary" inkscape:connector-curvature="0" />
	<path style="fill:none;stroke:red;stroke-width:1px;stroke-linecap:butt;stroke-linejoin:miter;stroke-opacity:1" d="M 347.304,835.932 330.454,848.569 z" id="boundary" inkscape:connector-curvature="0" />
	<path style="fill:none;stroke:red;stroke-width:1px;stroke-linecap:butt;stroke-linejoin:miter;stroke-opacity:1" d="M 330.454,848.569 309.393,848.569 z" id="boundary" inkscape:connector-curvature="0" />
	<path style="fill:none;stroke:red;stroke-width:1px;stroke-linecap:butt;stroke-linejoin:miter;stroke-opacity:1" d="M 309.393,848.569 288.331,848.569 z" id="boundary" inkscape:connector-curvature="0" />
	<path style="fill:none;stroke:red;stroke-width:1px;stroke-linecap:butt;stroke-linejoin:miter;stroke-opacity:1" d="M 288.331,848.569 267.27,842.251 z" id="boundary" inkscape:connector-curvature="0" />
	<path style="fill:none;stroke:red;stroke-width:1px;stroke-linecap:butt;stroke-linejoin:miter;stroke-opacity:1" d="M 267.27,842.251 267.27,821.189 z" id="boundary" inkscape:connector-curvature="0" />
	<path style="fill:none;stroke:red;stroke-width:1px;stroke-linecap:butt;stroke-linejoin:miter;stroke-opacity:1" d="M 267.27,821.189 277.8,800.127 z" id="boundary" inkscape:connector-curvature="0" />
	<path style="fill:none;stroke:red;stroke-width:1px;stroke-linecap:butt;stroke-linejoin:miter;stroke-opacity:1" d="M 277.8,800.127 288.331,779.066 z" id="boundary" inkscape:connector-curvature="0" />
	<path style="fill:none;stroke:red;stroke-width:1px;stroke-linecap:butt;stroke-linejoin:miter;stroke-opacity:1" d="M 288.331,779.066 288.331,758.004 z" id="boundary" inkscape:connector-curvature="0" />
	<path style="fill:none;stroke:red;stroke-width:1px;stroke-linecap:butt;stroke-linejoin:miter;stroke-opacity:1" d="M 288.331,758.004 298.862,730.624 z" id="boundary" inkscape:connector-curvature="0" />
	<path style="fill:none;stroke:red;stroke-width:1px;stroke-linecap:butt;stroke-linejoin:miter;stroke-opacity:1" d="M 298.862,730.624 298.862,709.563 z" id="boundary" inkscape:connector-curvature="0" />
	<path style="fill:none;stroke:red;stroke-width:1px;stroke-linecap:butt;stroke-linejoin:miter;stroke-opacity:1" d="M 298.862,709.563 288.331,690.607 z" id="boundary" inkscape:connector-curvature="0" />
	<path style="fill:none;stroke:red;stroke-width:1px;stroke-linecap:butt;stroke-linejoin:miter;stroke-opacity:1" d="M 288.331,690.607 284.119,669.546 z" id="boundary" inkscape:connector-curvature="0" />
	<path style="fill:none;stroke:red;stroke-width:1px;stroke-linecap:butt;stroke-linejoin:miter;stroke-opacity:1" d="M 284.119,669.546 277.8,648.484 z" id="boundary" inkscape:connector-curvature="0" />
	<path style="fill:none;stroke:red;stroke-width:1px;stroke-linecap:butt;stroke-linejoin:miter;stroke-opacity:1" d="M 277.8,648.484 269.376,627.423 z" id="boundary" inkscape:connector-curvature="0" />
	<path style="fill:none;stroke:red;stroke-width:1px;stroke-linecap:butt;stroke-linejoin:miter;stroke-opacity:1" d="M 269.376,627.423 248.314,627.423 z" id="boundary" inkscape:connector-curvature="0" />
	<path style="fill:none;stroke:red;stroke-width:1px;stroke-linecap:butt;stroke-linejoin:miter;stroke-opacity:1" d="M 248.314,627.423 237.783,648.484 z" id="boundary" inkscape:connector-curvature="0" />
	<path style="fill:none;stroke:red;stroke-width:1px;stroke-linecap:butt;stroke-linejoin:miter;stroke-opacity:1" d="M 237.783,648.484 237.783,669.546 z" id="boundary" inkscape:connector-curvature="0" />
	<path style="fill:none;stroke:red;stroke-width:1px;stroke-linecap:butt;stroke-linejoin:miter;stroke-opacity:1" d="M 237.783,669.546 237.783,690.607 z" id="boundary" inkscape:connector-curvature="0" />
	<path style="fill:none;stroke:red;stroke-width:1px;stroke-linecap:butt;stroke-linejoin:miter;stroke-opacity:1" d="M 237.783,690.607 237.783,711.669 z" id="boundary" inkscape:connector-curvature="0" />
	<path style="fill:none;stroke:red;stroke-width:1px;stroke-linecap:butt;stroke-linejoin:miter;stroke-opacity:1" d="M 237.783,711.669 237.783,732.73 z" id="boundary" inkscape:connector-curvature="0" />
	<path style="fill:none;stroke:red;stroke-width:1px;stroke-linecap:butt;stroke-linejoin:miter;stroke-opacity:1" d="M 237.783,732.73 227.253,753.792 z" id="boundary" inkscape:connector-curvature="0" />
	<path style="fill:none;stroke:red;stroke-width:1px;stroke-linecap:butt;stroke-linejoin:miter;stroke-opacity:1" d="M 227.253,753.792 227.253,774.854 z" id="boundary" inkscape:connector-curvature="0" />
	<path style="fill:none;stroke:red;stroke-width:1px;stroke-linecap:butt;stroke-linejoin:miter;stroke-opacity:1" d="M 227.253,774.854 227.253,795.915 z" id="boundary" inkscape:connector-curvature="0" />
	<path style="fill:none;stroke:red;stroke-width:1px;stroke-linecap:butt;stroke-linejoin:miter;stroke-opacity:1" d="M 227.253,795.915 227.253,816.977 z" id="boundary" inkscape:connector-curvature="0" />
	<path style="fill:none;stroke:red;stroke-width:1px;stroke-linecap:butt;stroke-linejoin:miter;stroke-opacity:1" d="M 227.253,816.977 210.403,835.932 z" id="boundary" inkscape:connector-curvature="0" />
	<path style="fill:none;stroke:red;stroke-width:1px;stroke-linecap:butt;stroke-linejoin:miter;stroke-opacity:1" d="M 210.403,835.932 189.342,838.038 z" id="boundary" inkscape:connector-curvature="0" />
	<path style="fill:none;stroke:red;stroke-width:1px;stroke-linecap:butt;stroke-linejoin:miter;stroke-opacity:1" d="M 189.342,838.038 168.28,838.038 z" id="boundary" inkscape:connector-curvature="0" />
	<path style="fill:none;stroke:red;stroke-width:1px;stroke-linecap:butt;stroke-linejoin:miter;stroke-opacity:1" d="M 168.28,838.038 147.219,835.932 z" id="boundary" inkscape:connector-curvature="0" />
	<path style="fill:none;stroke:red;stroke-width:1px;stroke-linecap:butt;stroke-linejoin:miter;stroke-opacity:1" d="M 147.219,835.932 130.369,821.189 z" id="boundary" inkscape:connector-curvature="0" />
	<path style="fill:none;stroke:red;stroke-width:1px;stroke-linecap:butt;stroke-linejoin:miter;stroke-opacity:1" d="M 130.369,821.189 151.431,810.658 z" id="boundary" inkscape:connector-curvature="0" />
	<path style="fill:none;stroke:red;stroke-width:1px;stroke-linecap:butt;stroke-linejoin:miter;stroke-opacity:1" d="M 151.431,810.658 161.962,791.703 z" id="boundary" inkscape:connector-curvature="0" />
	<path style="fill:none;stroke:red;stroke-width:1px;stroke-linecap:butt;stroke-linejoin:miter;stroke-opacity:1" d="M 161.962,791.703 161.962,770.641 z" id="boundary" inkscape:connector-curvature="0" />
	<path style="fill:none;stroke:red;stroke-width:1px;stroke-linecap:butt;stroke-linejoin:miter;stroke-opacity:1" d="M 161.962,770.641 161.962,749.58 z" id="boundary" inkscape:connector-curvature="0" />
	<path style="fill:none;stroke:red;stroke-width:1px;stroke-linecap:butt;stroke-linejoin:miter;stroke-opacity:1" d="M 161.962,749.58 161.962,728.518 z" id="boundary" inkscape:connector-curvature="0" />
	<path style="fill:none;stroke:red;stroke-width:1px;stroke-linecap:butt;stroke-linejoin:miter;stroke-opacity:1" d="M 161.962,728.518 161.962,707.456 z" id="boundary" inkscape:connector-curvature="0" />
	<path style="fill:none;stroke:red;stroke-width:1px;stroke-linecap:butt;stroke-linejoin:miter;stroke-opacity:1" d="M 161.962,707.456 161.962,686.395 z" id="boundary" inkscape:connector-curvature="0" />
	<path style="fill:none;stroke:red;stroke-width:1px;stroke-linecap:butt;stroke-linejoin:miter;stroke-opacity:1" d="M 161.962,686.395 155.643,665.333 z" id="boundary" inkscape:connector-curvature="0" />
	<path style="fill:none;stroke:red;stroke-width:1px;stroke-linecap:butt;stroke-linejoin:miter;stroke-opacity:1" d="M 155.643,665.333 145.113,646.378 z" id="boundary" inkscape:connector-curvature="0" />
	<path style="fill:none;stroke:red;stroke-width:1px;stroke-linecap:butt;stroke-linejoin:miter;stroke-opacity:1" d="M 145.113,646.378 140.9,625.316 z" id="boundary" inkscape:connector-curvature="0" />
	<path style="fill:none;stroke:red;stroke-width:1px;stroke-linecap:butt;stroke-linejoin:miter;stroke-opacity:1" d="M 140.9,625.316 136.688,604.255 z" id="boundary" inkscape:connector-curvature="0" />
	<path style="fill:none;stroke:red;stroke-width:1px;stroke-linecap:butt;stroke-linejoin:miter;stroke-opacity:1" d="M 136.688,604.255 126.157,585.299 z" id="boundary" inkscape:connector-curvature="0" />
	<path style="fill:none;stroke:red;stroke-width:1px;stroke-linecap:butt;stroke-linejoin:miter;stroke-opacity:1" d="M 126.157,585.299 119.839,564.238 z" id="boundary" inkscape:connector-curvature="0" />
	<path style="fill:none;stroke:red;stroke-width:1px;stroke-linecap:butt;stroke-linejoin:miter;stroke-opacity:1" d="M 119.839,564.238 109.308,545.282 z" id="boundary" inkscape:connector-curvature="0" />
	<path style="fill:none;stroke:red;stroke-width:1px;stroke-linecap:butt;stroke-linejoin:miter;stroke-opacity:1" d="M 109.308,545.282 98.7771,526.327 z" id="boundary" inkscape:connector-curvature="0" />
	<path style="fill:none;stroke:red;stroke-width:1px;stroke-linecap:butt;stroke-linejoin:miter;stroke-opacity:1" d="M 98.7771,526.327 90.3524,505.265 z" id="boundary" inkscape:connector-curvature="0" />
	<path style="fill:none;stroke:red;stroke-width:1px;stroke-linecap:butt;stroke-linejoin:miter;stroke-opacity:1" d="M 90.3524,505.265 79.8217,486.31 z" id="boundary" inkscape:connector-curvature="0" />
	<path style="fill:none;stroke:red;stroke-width:1px;stroke-linecap:butt;stroke-linejoin:miter;stroke-opacity:1" d="M 79.8217,486.31 71.397,465.248 z" id="boundary" inkscape:connector-curvature="0" />
	<path style="fill:none;stroke:red;stroke-width:1px;stroke-linecap:butt;stroke-linejoin:miter;stroke-opacity:1" d="M 71.397,465.248 60.8662,446.293 z" id="boundary" inkscape:connector-curvature="0" />
	<path style="fill:none;stroke:red;stroke-width:1px;stroke-linecap:butt;stroke-linejoin:miter;stroke-opacity:1" d="M 60.8662,446.293 56.6539,425.231 z" id="boundary" inkscape:connector-curvature="0" />
	<path style="fill:none;stroke:red;stroke-width:1px;stroke-linecap:butt;stroke-linejoin:miter;stroke-opacity:1" d="M 56.6539,425.231 56.6539,404.17 z" id="boundary" inkscape:connector-curvature="0" />
	<path style="fill:none;stroke:red;stroke-width:1px;stroke-linecap:butt;stroke-linejoin:miter;stroke-opacity:1" d="M 56.6539,404.17 56.6539,383.108 z" id="boundary" inkscape:connector-curvature="0" />
	<path style="fill:none;stroke:red;stroke-width:1px;stroke-linecap:butt;stroke-linejoin:miter;stroke-opacity:1" d="M 56.6539,383.108 56.6539,362.047 z" id="boundary" inkscape:connector-curvature="0" />
	<path style="fill:none;stroke:red;stroke-width:1px;stroke-linecap:butt;stroke-linejoin:miter;stroke-opacity:1" d="M 56.6539,362.047 50.3355,340.985 z" id="boundary" inkscape:connector-curvature="0" />
	<path style="fill:none;stroke:red;stroke-width:1px;stroke-linecap:butt;stroke-linejoin:miter;stroke-opacity:1" d="M 50.3355,340.985 41.9108,319.924 z" id="boundary" inkscape:connector-curvature="0" />
	<path style="fill:none;stroke:red;stroke-width:1px;stroke-linecap:butt;stroke-linejoin:miter;stroke-opacity:1" d="M 41.9108,319.924 31.38,300.968 z" id="boundary" inkscape:connector-curvature="0" />
	<path style="fill:none;stroke:red;stroke-width:1px;stroke-linecap:butt;stroke-linejoin:miter;stroke-opacity:1" d="M 31.38,300.968 25.0616,279.907 z" id="boundary" inkscape:connector-curvature="0" />
	<path style="fill:none;stroke:red;stroke-width:1px;stroke-linecap:butt;stroke-linejoin:miter;stroke-opacity:1" d="M 25.0616,279.907 14.5308,260.951 z" id="boundary" inkscape:connector-curvature="0" />
	<path style="fill:none;stroke:red;stroke-width:1px;stroke-linecap:butt;stroke-linejoin:miter;stroke-opacity:1" d="M 14.5308,260.951 4,241.996 z" id="boundary" inkscape:connector-curvature="0" />
	<path style="fill:none;stroke:red;stroke-width:1px;stroke-linecap:butt;stroke-linejoin:miter;stroke-opacity:1" d="M 4,241.996 4,220.934 z" id="boundary" inkscape:connector-curvature="0" />
	<path style="fill:none;stroke:red;stroke-width:1px;stroke-linecap:butt;stroke-linejoin:miter;stroke-opacity:1" d="M 4,220.934 4,199.873 z" id="boundary" inkscape:connector-curvature="0" />
	<path style="fill:none;stroke:red;stroke-width:1px;stroke-linecap:butt;stroke-linejoin:miter;stroke-opacity:1" d="M 4,199.873 4,178.811 z" id="boundary" inkscape:connector-curvature="0" />
	<path style="fill:none;stroke:red;stroke-width:1px;stroke-linecap:butt;stroke-linejoin:miter;stroke-opacity:1" d="M 4,178.811 4,157.749 z" id="boundary" inkscape:connector-curvature="0" />
	<path style="fill:none;stroke:red;stroke-width:1px;stroke-linecap:butt;stroke-linejoin:miter;stroke-opacity:1" d="M 4,157.749 4,136.688 z" id="boundary" inkscape:connector-curvature="0" />
	<path style="fill:none;stroke:red;stroke-width:1px;stroke-linecap:butt;stroke-linejoin:miter;stroke-opacity:1" d="M 4,136.688 4,115.626 z" id="boundary" inkscape:connector-curvature="0" />
	<path style="fill:none;stroke:red;stroke-width:1px;stroke-linecap:butt;stroke-linejoin:miter;stroke-opacity:1" d="M 4,115.626 4,94.5648 z" id="boundary" inkscape:connector-curvature="0" />
	<path style="fill:none;stroke:red;stroke-width:1px;stroke-linecap:butt;stroke-linejoin:miter;stroke-opacity:1" d="M 4,94.5648 4,73.5032 z" id="boundary" inkscape:connector-curvature="0" />
	<path style="fill:none;stroke:red;stroke-width:1px;stroke-linecap:butt;stroke-linejoin:miter;stroke-opacity:1" d="M 4,73.5032 4,52.4416 z" id="boundary" inkscape:connector-curvature="0" />
	<path style="fill:none;stroke:red;stroke-width:1px;stroke-linecap:butt;stroke-linejoin:miter;stroke-opacity:1" d="M 4,52.4416 4,31.38 z" id="boundary" inkscape:connector-curvature="0" />
	<path style="fill:none;stroke:red;stroke-width:1px;stroke-linecap:butt;stroke-linejoin:miter;stroke-opacity:1" d="M 4,31.38 4,10.3185 z" id="boundary" inkscape:connector-curvature="0" />
	<path style="fill:none;stroke:red;stroke-width:1px;stroke-linecap:butt;stroke-linejoin:miter;stroke-opacity:1" d="M 4,10.3185 25.0616,4 z" id="boundary" inkscape:connector-curvature="0" />
	<path style="fill:none;stroke:red;stroke-width:1px;stroke-linecap:butt;stroke-linejoin:miter;stroke-opacity:1" d="M 25.0616,4 44.017,14.5308 z" id="boundary" inkscape:connector-curvature="0" />
	<path style="fill:none;stroke:red;stroke-width:1px;stroke-linecap:butt;stroke-linejoin:miter;stroke-opacity:1" d="M 44.017,14.5308 62.9724,25.0616 z" id="boundary" inkscape:connector-curvature="0" />
	<path style="fill:none;stroke:red;stroke-width:1px;stroke-linecap:butt;stroke-linejoin:miter;stroke-opacity:1" d="M 62.9724,25.0616 81.9278,35.5924 z" id="boundary" inkscape:connector-curvature="0" />
	<path style="fill:none;stroke:red;stroke-width:1px;stroke-linecap:butt;stroke-linejoin:miter;stroke-opacity:1" d="M 81.9278,35.5924 100.883,25.0616 z" id="boundary" inkscape:connector-curvature="0" />
	<path style="fill:none;stroke:red;stroke-width:1px;stroke-linecap:butt;stroke-linejoin:miter;stroke-opacity:1" d="M 100.883,25.0616 121.945,25.0616 z" id="boundary" inkscape:connector-curvature="0" />
	<path style="fill:none;stroke:red;stroke-width:1px;stroke-linecap:butt;stroke-linejoin:miter;stroke-opacity:1" d="M 121.945,25.0616 143.006,25.0616 z" id="boundary" inkscape:connector-curvature="0" />
	<path style="fill:none;stroke:red;stroke-width:1px;stroke-linecap:butt;stroke-linejoin:miter;stroke-opacity:1" d="M 143.006,25.0616 164.068,25.0616 z" id="boundary" inkscape:connector-curvature="0" />
	<path style="fill:none;stroke:red;stroke-width:1px;stroke-linecap:butt;stroke-linejoin:miter;stroke-opacity:1" d="M 164.068,25.0616 185.13,25.0616 z" id="boundary" inkscape:connector-curvature="0" />
	<path style="fill:none;stroke:red;stroke-width:1px;stroke-linecap:butt;stroke-linejoin:miter;stroke-opacity:1" d="M 185.13,25.0616 206.191,25.0616 z" id="boundary" inkscape:connector-curvature="0" />
	<path style="fill:none;stroke:red;stroke-width:1px;stroke-linecap:butt;stroke-linejoin:miter;stroke-opacity:1" d="M 206.191,25.0616 227.253,25.0616 z" id="boundary" inkscape:connector-curvature="0" />
	<path style="fill:none;stroke:red;stroke-width:1px;stroke-linecap:butt;stroke-linejoin:miter;stroke-opacity:1" d="M 227.253,25.0616 248.314,25.0616 z" id="boundary" inkscape:connector-curvature="0" />
	<path style="fill:none;stroke:red;stroke-width:1px;stroke-linecap:butt;stroke-linejoin:miter;stroke-opacity:1" d="M 248.314,25.0616 269.376,25.0616 z" id="boundary" inkscape:connector-curvature="0" />
	<path style="fill:none;stroke:red;stroke-width:1px;stroke-linecap:butt;stroke-linejoin:miter;stroke-opacity:1" d="M 269.376,25.0616 290.437,31.38 z" id="boundary" inkscape:connector-curvature="0" />
	<path style="fill:none;stroke:red;stroke-width:1px;stroke-linecap:butt;stroke-linejoin:miter;stroke-opacity:1" d="M 290.437,31.38 309.393,20.8493 z" id="boundary" inkscape:connector-curvature="0" />
	<path style="fill:none;stroke:red;stroke-width:1px;stroke-linecap:butt;stroke-linejoin:miter;stroke-opacity:1" d="M 309.393,20.8493 330.454,18.7431 z" id="boundary" inkscape:connector-curvature="0" />
	<path style="fill:none;stroke:red;stroke-width:1px;stroke-linecap:butt;stroke-linejoin:miter;stroke-opacity:1" d="M 330.454,18.7431 338.879,39.8047 z" id="boundary" inkscape:connector-curvature="0" />
	<path style="fill:none;stroke:red;stroke-width:1px;stroke-linecap:butt;stroke-linejoin:miter;stroke-opacity:1" d="M 338.879,39.8047 343.091,60.8662 z" id="boundary" inkscape:connector-curvature="0" />
	<path style="fill:none;stroke:red;stroke-width:1px;stroke-linecap:butt;stroke-linejoin:miter;stroke-opacity:1" d="M 343.091,60.8662 332.561,79.8217 z" id="boundary" inkscape:connector-curvature="0" />
	<path style="fill:none;stroke:red;stroke-width:1px;stroke-linecap:butt;stroke-linejoin:miter;stroke-opacity:1" d="M 332.561,79.8217 332.561,100.883 z" id="boundary" inkscape:connector-curvature="0" />
	<path style="fill:none;stroke:red;stroke-width:1px;stroke-linecap:butt;stroke-linejoin:miter;stroke-opacity:1" d="M 332.561,100.883 349.41,113.52 z" id="boundary" inkscape:connector-curvature="0" />
	<path style="fill:none;stroke:red;stroke-width:1px;stroke-linecap:butt;stroke-linejoin:miter;stroke-opacity:1" d="M 349.41,113.52 370.471,119.839 z" id="boundary" inkscape:connector-curvature="0" />
	<path style="fill:none;stroke:red;stroke-width:1px;stroke-linecap:butt;stroke-linejoin:miter;stroke-opacity:1" d="M 370.471,119.839 391.533,119.839 z" id="boundary" inkscape:connector-curvature="0" />
	<path style="fill:none;stroke:red;stroke-width:1px;stroke-linecap:butt;stroke-linejoin:miter;stroke-opacity:1" d="M 391.533,119.839 410.488,109.308 z" id="boundary" inkscape:connector-curvature="0" />
	<path style="fill:none;stroke:red;stroke-width:1px;stroke-linecap:butt;stroke-linejoin:miter;stroke-opacity:1" d="M 410.488,109.308 431.55,98.7771 z" id="boundary" inkscape:connector-curvature="0" />
	<path style="fill:none;stroke:red;stroke-width:1px;stroke-linecap:butt;stroke-linejoin:miter;stroke-opacity:1" d="M 431.55,98.7771 450.505,88.2463 z" id="boundary" inkscape:connector-curvature="0" />
	<path style="fill:none;stroke:red;stroke-width:1px;stroke-linecap:butt;stroke-linejoin:miter;stroke-opacity:1" d="M 450.505,88.2463 469.461,77.7155 z" id="boundary" inkscape:connector-curvature="0" />
	<path style="fill:none;stroke:red;stroke-width:1px;stroke-linecap:butt;stroke-linejoin:miter;stroke-opacity:1" d="M 469.461,77.7155 488.416,62.9724 z" id="boundary" inkscape:connector-curvature="0" />
	<path style="fill:none;stroke:red;stroke-width:1px;stroke-linecap:butt;stroke-linejoin:miter;stroke-opacity:1" d="M 488.416,62.9724 509.478,56.6539 z" id="boundary" inkscape:connector-curvature="0" />
	<path style="fill:none;stroke:red;stroke-width:1px;stroke-linecap:butt;stroke-linejoin:miter;stroke-opacity:1" d="M 509.478,56.6539 530.539,52.4416 z" id="boundary" inkscape:connector-curvature="0" />
	<path style="fill:none;stroke:red;stroke-width:1px;stroke-linecap:butt;stroke-linejoin:miter;stroke-opacity:1" d="M 530.539,52.4416 551.601,41.9108 z" id="boundary" inkscape:connector-curvature="0" />
	<path style="fill:none;stroke:red;stroke-width:1px;stroke-linecap:butt;stroke-linejoin:miter;stroke-opacity:1" d="M 551.601,41.9108 572.662,39.8047 z" id="boundary" inkscape:connector-curvature="0" />
	<path style="fill:none;stroke:red;stroke-width:1px;stroke-linecap:butt;stroke-linejoin:miter;stroke-opacity:1" d="M 572.662,39.8047 593.724,35.5924 z" id="boundary" inkscape:connector-curvature="0" />
	<path style="fill:none;stroke:red;stroke-width:1px;stroke-linecap:butt;stroke-linejoin:miter;stroke-opacity:1" d="M 593.724,35.5924 612.679,25.0616 z" id="boundary" inkscape:connector-curvature="0" />
	<path style="fill:none;stroke:red;stroke-width:1px;stroke-linecap:butt;stroke-linejoin:miter;stroke-opacity:1" d="M 612.679,25.0616 633.741,25.0616 z" id="boundary" inkscape:connector-curvature="0" />
	<path style="fill:none;stroke:red;stroke-width:1px;stroke-linecap:butt;stroke-linejoin:miter;stroke-opacity:1" d="M 633.741,25.0616 654.803,25.0616 z" id="boundary" inkscape:connector-curvature="0" />
	<path style="fill:none;stroke:red;stroke-width:1px;stroke-linecap:butt;stroke-linejoin:miter;stroke-opacity:1" d="M 654.803,25.0616 675.864,25.0616 z" id="boundary" inkscape:connector-curvature="0" />
	<path style="fill:none;stroke:red;stroke-width:1px;stroke-linecap:butt;stroke-linejoin:miter;stroke-opacity:1" d="M 675.864,25.0616 696.926,25.0616 z" id="boundary" inkscape:connector-curvature="0" />
	<path style="fill:none;stroke:red;stroke-width:1px;stroke-linecap:butt;stroke-linejoin:miter;stroke-opacity:1" d="M 696.926,25.0616 717.987,25.0616 z" id="boundary" inkscape:connector-curvature="0" />
	<path style="fill:none;stroke:red;stroke-width:1px;stroke-linecap:butt;stroke-linejoin:miter;stroke-opacity:1" d="M 717.987,25.0616 739.049,25.0616 z" id="boundary" inkscape:connector-curvature="0" />
	<path style="fill:none;stroke:red;stroke-width:1px;stroke-linecap:butt;stroke-linejoin:miter;stroke-opacity:1" d="M 739.049,25.0616 760.11,25.0616 z" id="boundary" inkscape:connector-curvature="0" />
	<path style="fill:none;stroke:red;stroke-width:1px;stroke-linecap:butt;stroke-linejoin:miter;stroke-opacity:1" d="M 760.11,25.0616 781.172,25.0616 z" id="boundary" inkscape:connector-curvature="0" />
	<path style="fill:none;stroke:red;stroke-width:1px;stroke-linecap:butt;stroke-linejoin:miter;stroke-opacity:1" d="M 781.172,25.0616 800.127,35.5924 z" id="boundary" inkscape:connector-curvature="0" />
	<path style="fill:none;stroke:red;stroke-width:1px;stroke-linecap:butt;stroke-linejoin:miter;stroke-opacity:1" d="M 800.127,35.5924 819.083,46.1231 z" id="boundary" inkscape:connector-curvature="0" />
	<path style="fill:none;stroke:red;stroke-width:1px;stroke-linecap:butt;stroke-linejoin:miter;stroke-opacity:1" d="M 819.083,46.1231 838.038,56.6539 z" id="boundary" inkscape:connector-curvature="0" />
	<path style="fill:none;stroke:red;stroke-width:1px;stroke-linecap:butt;stroke-linejoin:miter;stroke-opacity:1" d="M 838.038,56.6539 848.569,75.6093 z" id="boundary" inkscape:connector-curvature="0" />
	<path style="fill:none;stroke:red;stroke-width:1px;stroke-linecap:butt;stroke-linejoin:miter;stroke-opacity:1" d="M 848.569,75.6093 865.418,90.3524 z" id="boundary" inkscape:connector-curvature="0" />
	<path style="fill:none;stroke:red;stroke-width:1px;stroke-linecap:butt;stroke-linejoin:miter;stroke-opacity:1" d="M 865.418,90.3524 880.161,107.202 z" id="boundary" inkscape:connector-curvature="0" />
	<path style="fill:none;stroke:red;stroke-width:1px;stroke-linecap:butt;stroke-linejoin:miter;stroke-opacity:1" d="M 880.161,107.202 890.692,126.157 z" id="boundary" inkscape:connector-curvature="0" />
	<path style="fill:none;stroke:red;stroke-width:1px;stroke-linecap:butt;stroke-linejoin:miter;stroke-opacity:1" d="M 890.692,126.157 905.435,143.006 z" id="boundary" inkscape:connector-curvature="0" />
	<path style="fill:none;stroke:red;stroke-width:1px;stroke-linecap:butt;stroke-linejoin:miter;stroke-opacity:1" d="M 905.435,143.006 915.966,161.962 z" id="boundary" inkscape:connector-curvature="0" />
	<path style="fill:none;stroke:red;stroke-width:1px;stroke-linecap:butt;stroke-linejoin:miter;stroke-opacity:1" d="M 915.966,161.962 922.285,183.023 z" id="boundary" inkscape:connector-curvature="0" />
	<path style="fill:none;stroke:red;stroke-width:1px;stroke-linecap:butt;stroke-linejoin:miter;stroke-opacity:1" d="M 922.285,183.023 922.285,204.085 z" id="boundary" inkscape:connector-curvature="0" />
	<path style="fill:none;stroke:red;stroke-width:1px;stroke-linecap:butt;stroke-linejoin:miter;stroke-opacity:1" d="M 922.285,204.085 932.815,223.04 z" id="boundary" inkscape:connector-curvature="0" />
	<path style="fill:none;stroke:red;stroke-width:1px;stroke-linecap:butt;stroke-linejoin:miter;stroke-opacity:1" d="M 932.815,223.04 932.815,244.102 z" id="boundary" inkscape:connector-curvature="0" />
	<path style="fill:none;stroke:red;stroke-width:1px;stroke-linecap:butt;stroke-linejoin:miter;stroke-opacity:1" d="M 932.815,244.102 932.815,265.163 z" id="boundary" inkscape:connector-curvature="0" />
	<path style="fill:none;stroke:red;stroke-width:1px;stroke-linecap:butt;stroke-linejoin:miter;stroke-opacity:1" d="M 932.815,265.163 932.815,286.225 z" id="boundary" inkscape:connector-curvature="0" />
	<path style="fill:none;stroke:red;stroke-width:1px;stroke-linecap:butt;stroke-linejoin:miter;stroke-opacity:1" d="M 932.815,286.225 943.346,305.18 z" id="boundary" inkscape:connector-curvature="0" />
	<path style="fill:none;stroke:red;stroke-width:1px;stroke-linecap:butt;stroke-linejoin:miter;stroke-opacity:1" d="M 943.346,305.18 943.346,326.242 z" id="boundary" inkscape:connector-curvature="0" />
	<path style="fill:none;stroke:red;stroke-width:1px;stroke-linecap:butt;stroke-linejoin:miter;stroke-opacity:1" d="M 943.346,326.242 951.771,347.304 z" id="boundary" inkscape:connector-curvature="0" />
	<path style="fill:none;stroke:red;stroke-width:1px;stroke-linecap:butt;stroke-linejoin:miter;stroke-opacity:1" d="M 951.771,347.304 953.877,368.365 z" id="boundary" inkscape:connector-curvature="0" />
	<path style="fill:none;stroke:red;stroke-width:1px;stroke-linecap:butt;stroke-linejoin:miter;stroke-opacity:1" d="M 953.877,368.365 964.408,387.321 z" id="boundary" inkscape:connector-curvature="0" />
	<path style="fill:none;stroke:red;stroke-width:1px;stroke-linecap:butt;stroke-linejoin:miter;stroke-opacity:1" d="M 964.408,387.321 974.938,406.276 z" id="boundary" inkscape:connector-curvature="0" />
	<path style="fill:none;stroke:red;stroke-width:1px;stroke-linecap:butt;stroke-linejoin:miter;stroke-opacity:1" d="M 974.938,406.276 985.469,425.231 z" id="boundary" inkscape:connector-curvature="0" />
	<path style="fill:none;stroke:red;stroke-width:1px;stroke-linecap:butt;stroke-linejoin:miter;stroke-opacity:1" d="M 985.469,425.231 996,444.187 z" id="boundary" inkscape:connector-curvature="0" />
	<path style="fill:none;stroke:red;stroke-width:1px;stroke-linecap:butt;stroke-linejoin:miter;stroke-opacity:1" d="M 996,444.187 996,465.248 z" id="boundary" inkscape:connector-curvature="0" />
	<path style="fill:none;stroke:red;stroke-width:1px;stroke-linecap:butt;stroke-linejoin:miter;stroke-opacity:1" d="M 996,465.248 996,486.31 z" id="boundary" inkscape:connector-curvature="0" />
	<path style="fill:none;stroke:red;stroke-width:1px;stroke-linecap:butt;stroke-linejoin:miter;stroke-opacity:1" d="M 996,486.31 996,507.372 z" id="boundary" inkscape:connector-curvature="0" />
	<path style="fill:none;stroke:red;stroke-width:1px;stroke-linecap:butt;stroke-linejoin:miter;stroke-opacity:1" d="M 996,507.372 996,528.433 z" id="boundary" inkscape:connector-curvature="0" />
	<path style="fill:none;stroke:red;stroke-width:1px;stroke-linecap:butt;stroke-linejoin:miter;stroke-opacity:1" d="M 996,528.433 996,549.495 z" id="boundary" inkscape:connector-curvature="0" />
	<path style="fill:none;stroke:red;stroke-width:1px;stroke-linecap:butt;stroke-linejoin:miter;stroke-opacity:1" d="M 996,549.495 996,570.556 z" id="boundary" inkscape:connector-curvature="0" />
	<path style="fill:none;stroke:red;stroke-width:1px;stroke-linecap:butt;stroke-linejoin:miter;stroke-opacity:1" d="M 996,570.556 996,591.618 z" id="boundary" inkscape:connector-curvature="0" />
	<path style="fill:none;stroke:red;stroke-width:1px;stroke-linecap:butt;stroke-linejoin:miter;stroke-opacity:1" d="M 996,591.618 996,612.679 z" id="boundary" inkscape:connector-curvature="0" />
	<path style="fill:none;stroke:red;stroke-width:1px;stroke-linecap:butt;stroke-linejoin:miter;stroke-opacity:1" d="M 996,612.679 996,633.741 z" id="boundary" inkscape:connector-curvature="0" />
	<path style="fill:none;stroke:red;stroke-width:1px;stroke-linecap:butt;stroke-linejoin:miter;stroke-opacity:1" d="M 996,633.741 996,654.803 z" id="boundary" inkscape:connector-curvature="0" />
	<circle cx="4" cy="10.3185" r="4" fill="#0" id="circle0"/>
	<circle cx="4" cy="31.38" r="4" fill="#0" id="circle1"/>
	<circle cx="4" cy="52.4416" r="4" fill="#0" id="circle2"/>
	<circle cx="4" cy="73.5032" r="4" fill="#0" id="circle3"/>
	<circle cx="4" cy="94.5648" r="4" fill="#0" id="circle4"/>
	<circle cx="4" cy="115.626" r="4" fill="#0" id="circle5"/>
	<circle cx="4" cy="136.688" r="4" fill="#0" id="circle6"/>
	<circle cx="4" cy="157.749" r="4" fill="#0" id="circle7"/>
	<circle cx="4" cy="178.811" r="4" fill="#0" id="circle8"/>
	<circle cx="4" cy="199.873" r="4" fill="#0" id="circle9"/>
	<circle cx="4" cy="220.934" r="4" fill="#0" id="circle10"/>
	<circle cx="4" cy="241.996" r="4" fill="#0" id="circle11"/>
	<circle cx="14.5308" cy="260.951" r="4" fill="#0" id="circle12"/>
	<circle cx="25.0616" cy="4" r="4" fill="#0" id="circle13"/>
	<circle cx="25.0616" cy="279.907" r="4" fill="#0" id="circle14"/>
	<circle cx="31.38" cy="300.968" r="4" fill="#0" id="circle15"/>
	<circle cx="41.9108" cy="319.924" r="4" fill="#0" id="circle16"/>
	<circle cx="44.017" cy="14.5308" r="4" fill="#0" id="circle17"/>
	<circle cx="50.3355" cy="340.985" r="4" fill="#0" id="circle18"/>
	<circle cx="56.6539" cy="362.047" r="4" fill="#0" id="circle19"/>
	<circle cx="56.6539" cy="383.108" r="4" fill="#0" id="circle20"/>
	<circle cx="56.6539" cy="404.17" r="4" fill="#0" id="circle21"/>
	<circle cx="56.6539" cy="425.231" r="4" fill="#0" id="circle22"/>
	<circle cx="60.8662" cy="446.293" r="4" fill="#0" id="circle23"/>
	<circle cx="62.9724" cy="25.0616" r="4" fill="#0" id="circle24"/>
	<circle cx="71.397" cy="465.248" r="4" fill="#0" id="circle25"/>
	<circle cx="79.8217" cy="486.31" r="4" fill="#0" id="circle26"/>
	<circle cx="81.9278" cy="35.5924" r="4" fill="#0" id="circle27"/>
	<circle cx="90.3524" cy="505.265" r="4" fill="#0" id="circle28"/>
	<circle cx="98.7771" cy="526.327" r="4" fill="#0" id="circle29"/>
	<circle cx="100.883" cy="25.0616" r="4" fill="#0" id="circle30"/>
	<circle cx="109.308" cy="545.282" r="4" fill="#0" id="circle31"/>
	<circle cx="119.839" cy="564.238" r="4" fill="#0" id="circle32"/>
	<circle cx="121.945" cy="25.0616" r="4" fill="#0" id="circle33"/>
	<circle cx="126.157" cy="585.299" r="4" fill="#0" id="circle34"/>
	<circle cx="130.369" cy="821.189" r="4" fill="#0" id="circle35"/>
	<circle cx="136.688" cy="604.255" r="4" fill="#0" id="circle36"/>
	<circle cx="140.9" cy="625.316" r="4" fill="#0" id="circle37"/>
	<circle cx="143.006" cy="25.0616" r="4" fill="#0" id="circle38"/>
	<circle cx="145.113" cy="646.378" r="4" fill="#0" id="circle39"/>
	<circle cx="147.219" cy="835.932" r="4" fill="#0" id="circle40"/>
	<circle cx="151.431" cy="810.658" r="4" fill="#0" id="circle41"/>
	<circle cx="155.643" cy="665.333" r="4" fill="#0" id="circle42"/>
	<circle cx="161.962" cy="686.395" r="4" fill="#0" id="circle43"/>
	<circle cx="161.962" cy="707.456" r="4" fill="#0" id="circle44"/>
	<circle cx="161.962" cy="728.518" r="4" fill="#0" id="circle45"/>
	<circle cx="161.962" cy="749.58" r="4" fill="#0" id="circle46"/>
	<circle cx="161.962" cy="770.641" r="4" fill="#0" id="circle47"/>
	<circle cx="161.962" cy="791.703" r="4" fill="#0" id="circle48"/>
	<circle cx="164.068" cy="25.0616" r="4" fill="#0" id="circle49"/>
	<circle cx="168.28" cy="838.038" r="4" fill="#0" id="circle50"/>
	<circle cx="185.13" cy="25.0616" r="4" fill="#0" id="circle51"/>
	<circle cx="189.342" cy="838.038" r="4" fill="#0" id="circle52"/>
	<circle cx="206.191" cy="25.0616" r="4" fill="#0" id="circle53"/>
	<circle cx="210.403" cy="835.932" r="4" fill="#0" id="circle54"/>
	<circle cx="227.253" cy="25.0616" r="4" fill="#0" id="circle55"/>
	<circle cx="227.253" cy="753.792" r="4" fill="#0" id="circle56"/>
	<circle cx="227.253" cy="774.854" r="4" fill="#0" id="circle57"/>
	<circle cx="227.253" cy="795.915" r="4" fill="#0" id="circle58"/>
	<circle cx="227.253" cy="816.977" r="4" fill="#0" id="circle59"/>
	<circle cx="237.783" cy="648.484" r="4" fill="#0" id="circle60"/>
	<circle cx="237.783" cy="669.546" r="4" fill="#0" id="circle61"/>
	<circle cx="237.783" cy="690.607" r="4" fill="#0" id="circle62"/>
	<circle cx="237.783" cy="711.669" r="4" fill="#0" id="circle63"/>
	<circle cx="237.783" cy="732.73" r="4" fill="#0" id="circle64"/>
	<circle cx="248.314" cy="25.0616" r="4" fill="#0" id="circle65"/>
	<circle cx="248.314" cy="627.423" r="4" fill="#0" id="circle66"/>
	<circle cx="267.27" cy="821.189" r="4" fill="#0" id="circle67"/>
	<circle cx="267.27" cy="842.251" r="4" fill="#0" id="circle68"/>
	<circle cx="269.376" cy="25.0616" r="4" fill="#0" id="circle69"/>
	<circle cx="269.376" cy="627.423" r="4" fill="#0" id="circle70"/>
	<circle cx="277.8" cy="648.484" r="4" fill="#0" id="circle71"/>
	<circle cx="277.8" cy="800.127" r="4" fill="#0" id="circle72"/>
	<circle cx="284.119" cy="669.546" r="4" fill="#0" id="circle73"/>
	<circle cx="288.331" cy="690.607" r="4" fill="#0" id="circle74"/>
	<circle cx="288.331" cy="758.004" r="4" fill="#0" id="circle75"/>
	<circle cx="288.331" cy="779.066" r="4" fill="#0" id="circle76"/>
	<circle cx="288.331" cy="848.569" r="4" fill="#0" id="circle77"/>
	<circle cx="290.437" cy="31.38" r="4" fill="#0" id="circle78"/>
	<circle cx="298.862" cy="709.563" r="4" fill="#0" id="circle79"/>
	<circle cx="298.862" cy="730.624" r="4" fill="#0" id="circle80"/>
	<circle cx="309.393" cy="20.8493" r="4" fill="#0" id="circle81"/>
	<circle cx="309.393" cy="848.569" r="4" fill="#0" id="circle82"/>
	<circle cx="330.454" cy="18.7431" r="4" fill="#0" id="circle83"/>
	<circle cx="330.454" cy="848.569" r="4" fill="#0" id="circle84"/>
	<circle cx="332.561" cy="79.8217" r="4" fill="#0" id="circle85"/>
	<circle cx="332.561" cy="100.883" r="4" fill="#0" id="circle86"/>
	<circle cx="338.879" cy="39.8047" r="4" fill="#0" id="circle87"/>
	<circle cx="343.091" cy="60.8662" r="4" fill="#0" id="circle88"/>
	<circle cx="347.304" cy="835.932" r="4" fill="#0" id="circle89"/>
	<circle cx="349.41" cy="113.52" r="4" fill="#0" id="circle90"/>
	<circle cx="353.622" cy="795.915" r="4" fill="#0" id="circle91"/>
	<circle cx="364.153" cy="764.323" r="4" fill="#0" id="circle92"/>
	<circle cx="370.471" cy="119.839" r="4" fill="#0" id="circle93"/>
	<circle cx="374.684" cy="732.73" r="4" fill="#0" id="circle94"/>
	<circle cx="385.214" cy="711.669" r="4" fill="#0" id="circle95"/>
	<circle cx="391.533" cy="119.839" r="4" fill="#0" id="circle96"/>
	<circle cx="395.745" cy="616.892" r="4" fill="#0" id="circle97"/>
	<circle cx="395.745" cy="637.953" r="4" fill="#0" id="circle98"/>
	<circle cx="395.745" cy="659.015" r="4" fill="#0" id="circle99"/>
	<circle cx="395.745" cy="680.076" r="4" fill="#0" id="circle100"/>
	<circle cx="410.488" cy="109.308" r="4" fill="#0" id="circle101"/>
	<circle cx="414.701" cy="606.361" r="4" fill="#0" id="circle102"/>
	<circle cx="431.55" cy="98.7771" r="4" fill="#0" id="circle103"/>
	<circle cx="433.656" cy="595.83" r="4" fill="#0" id="circle104"/>
	<circle cx="450.505" cy="88.2463" r="4" fill="#0" id="circle105"/>
	<circle cx="452.611" cy="585.299" r="4" fill="#0" id="circle106"/>
	<circle cx="469.461" cy="77.7155" r="4" fill="#0" id="circle107"/>
	<circle cx="471.567" cy="574.769" r="4" fill="#0" id="circle108"/>
	<circle cx="488.416" cy="62.9724" r="4" fill="#0" id="circle109"/>
	<circle cx="492.628" cy="574.769" r="4" fill="#0" id="circle110"/>
	<circle cx="509.478" cy="56.6539" r="4" fill="#0" id="circle111"/>
	<circle cx="511.584" cy="564.238" r="4" fill="#0" id="circle112"/>
	<circle cx="520.008" cy="631.635" r="4" fill="#0" id="circle113"/>
	<circle cx="520.008" cy="652.696" r="4" fill="#0" id="circle114"/>
	<circle cx="530.539" cy="52.4416" r="4" fill="#0" id="circle115"/>
	<circle cx="530.539" cy="553.707" r="4" fill="#0" id="circle116"/>
	<circle cx="530.539" cy="671.652" r="4" fill="#0" id="circle117"/>
	<circle cx="536.858" cy="614.786" r="4" fill="#0" id="circle118"/>
	<circle cx="549.495" cy="543.176" r="4" fill="#0" id="circle119"/>
	<circle cx="551.601" cy="41.9108" r="4" fill="#0" id="circle120"/>
	<circle cx="551.601" cy="680.076" r="4" fill="#0" id="circle121"/>
	<circle cx="557.919" cy="604.255" r="4" fill="#0" id="circle122"/>
	<circle cx="568.45" cy="532.645" r="4" fill="#0" id="circle123"/>
	<circle cx="570.556" cy="690.607" r="4" fill="#0" id="circle124"/>
	<circle cx="572.662" cy="39.8047" r="4" fill="#0" id="circle125"/>
	<circle cx="574.769" cy="587.406" r="4" fill="#0" id="circle126"/>
	<circle cx="587.406" cy="522.115" r="4" fill="#0" id="circle127"/>
	<circle cx="591.618" cy="572.662" r="4" fill="#0" id="circle128"/>
	<circle cx="591.618" cy="690.607" r="4" fill="#0" id="circle129"/>
	<circle cx="593.724" cy="35.5924" r="4" fill="#0" id="circle130"/>
	<circle cx="604.255" cy="534.752" r="4" fill="#0" id="circle131"/>
	<circle cx="604.255" cy="555.813" r="4" fill="#0" id="circle132"/>
	<circle cx="610.573" cy="677.97" r="4" fill="#0" id="circle133"/>
	<circle cx="612.679" cy="25.0616" r="4" fill="#0" id="circle134"/>
	<circle cx="631.635" cy="667.439" r="4" fill="#0" id="circle135"/>
	<circle cx="633.741" cy="25.0616" r="4" fill="#0" id="circle136"/>
	<circle cx="652.696" cy="656.909" r="4" fill="#0" id="circle137"/>
	<circle cx="654.803" cy="25.0616" r="4" fill="#0" id="circle138"/>
	<circle cx="669.546" cy="637.953" r="4" fill="#0" id="circle139"/>
	<circle cx="675.864" cy="25.0616" r="4" fill="#0" id="circle140"/>
	<circle cx="686.395" cy="623.21" r="4" fill="#0" id="circle141"/>
	<circle cx="696.926" cy="25.0616" r="4" fill="#0" id="circle142"/>
	<circle cx="701.138" cy="606.361" r="4" fill="#0" id="circle143"/>
	<circle cx="711.669" cy="585.299" r="4" fill="#0" id="circle144"/>
	<circle cx="717.987" cy="25.0616" r="4" fill="#0" id="circle145"/>
	<circle cx="728.518" cy="570.556" r="4" fill="#0" id="circle146"/>
	<circle cx="732.73" cy="448.399" r="4" fill="#0" id="circle147"/>
	<circle cx="732.73" cy="469.461" r="4" fill="#0" id="circle148"/>
	<circle cx="732.73" cy="490.522" r="4" fill="#0" id="circle149"/>
	<circle cx="732.73" cy="511.584" r="4" fill="#0" id="circle150"/>
	<circle cx="732.73" cy="532.645" r="4" fill="#0" id="circle151"/>
	<circle cx="739.049" cy="25.0616" r="4" fill="#0" id="circle152"/>
	<circle cx="753.792" cy="448.399" r="4" fill="#0" id="circle153"/>
	<circle cx="760.11" cy="25.0616" r="4" fill="#0" id="circle154"/>
	<circle cx="762.217" cy="469.461" r="4" fill="#0" id="circle155"/>
	<circle cx="774.854" cy="486.31" r="4" fill="#0" id="circle156"/>
	<circle cx="781.172" cy="25.0616" r="4" fill="#0" id="circle157"/>
	<circle cx="791.703" cy="501.053" r="4" fill="#0" id="circle158"/>
	<circle cx="800.127" cy="35.5924" r="4" fill="#0" id="circle159"/>
	<circle cx="810.658" cy="511.584" r="4" fill="#0" id="circle160"/>
	<circle cx="819.083" cy="46.1231" r="4" fill="#0" id="circle161"/>
	<circle cx="831.72" cy="520.008" r="4" fill="#0" id="circle162"/>
	<circle cx="838.038" cy="56.6539" r="4" fill="#0" id="circle163"/>
	<circle cx="848.569" cy="75.6093" r="4" fill="#0" id="circle164"/>
	<circle cx="848.569" cy="532.645" r="4" fill="#0" id="circle165"/>
	<circle cx="856.994" cy="684.289" r="4" fill="#0" id="circle166"/>
	<circle cx="856.994" cy="705.35" r="4" fill="#0" id="circle167"/>
	<circle cx="865.418" cy="90.3524" r="4" fill="#0" id="circle168"/>
	<circle cx="867.524" cy="543.176" r="4" fill="#0" id="circle169"/>
	<circle cx="867.524" cy="724.306" r="4" fill="#0" id="circle170"/>
	<circle cx="873.843" cy="667.439" r="4" fill="#0" id="circle171"/>
	<circle cx="880.161" cy="107.202" r="4" fill="#0" id="circle172"/>
	<circle cx="886.48" cy="553.707" r="4" fill="#0" id="circle173"/>
	<circle cx="888.586" cy="732.73" r="4" fill="#0" id="circle174"/>
	<circle cx="890.692" cy="126.157" r="4" fill="#0" id="circle175"/>
	<circle cx="890.692" cy="650.59" r="4" fill="#0" id="circle176"/>
	<circle cx="899.117" cy="570.556" r="4" fill="#0" id="circle177"/>
	<circle cx="899.117" cy="591.618" r="4" fill="#0" id="circle178"/>
	<circle cx="899.117" cy="612.679" r="4" fill="#0" id="circle179"/>
	<circle cx="905.435" cy="143.006" r="4" fill="#0" id="circle180"/>
	<circle cx="909.648" cy="732.73" r="4" fill="#0" id="circle181"/>
	<circle cx="915.966" cy="161.962" r="4" fill="#0" id="circle182"/>
	<circle cx="922.285" cy="183.023" r="4" fill="#0" id="circle183"/>
	<circle cx="922.285" cy="204.085" r="4" fill="#0" id="circle184"/>
	<circle cx="930.709" cy="732.73" r="4" fill="#0" id="circle185"/>
	<circle cx="932.815" cy="223.04" r="4" fill="#0" id="circle186"/>
	<circle cx="932.815" cy="244.102" r="4" fill="#0" id="circle187"/>
	<circle cx="932.815" cy="265.163" r="4" fill="#0" id="circle188"/>
	<circle cx="932.815" cy="286.225" r="4" fill="#0" id="circle189"/>
	<circle cx="943.346" cy="305.18" r="4" fill="#0" id="circle190"/>
	<circle cx="943.346" cy="326.242" r="4" fill="#0" id="circle191"/>
	<circle cx="951.771" cy="347.304" r="4" fill="#0" id="circle192"/>
	<circle cx="951.771" cy="726.412" r="4" fill="#0" id="circle193"/>
	<circle cx="953.877" cy="368.365" r="4" fill="#0" id="circle194"/>
	<circle cx="964.408" cy="387.321" r="4" fill="#0" id="circle195"/>
	<circle cx="968.62" cy="709.563" r="4" fill="#0" id="circle196"/>
	<circle cx="974.938" cy="406.276" r="4" fill="#0" id="circle197"/>
	<circle cx="985.469" cy="425.231" r="4" fill="#0" id="circle198"/>
	<circle cx="985.469" cy="690.607" r="4" fill="#0" id="circle199"/>
	<circle cx="996" cy="444.187" r="4" fill="#0" id="circle200"/>
	<circle cx="996" cy="465.248" r="4" fill="#0" id="circle201"/>
	<circle cx="996" cy="486.31" r="4" fill="#0" id="circle202"/>
	<circle cx="996" cy="507.372" r="4" fill="#0" id="circle203"/>
	<circle cx="996" cy="528.433" r="4" fill="#0" id="circle204"/>
	<circle cx="996" cy="549.495" r="4" fill="#0" id="circle205"/>
	<circle cx="996" cy="570.556" r="4" fill="#0" id="circle206"/>
	<circle cx="996" cy="591.618" r="4" fill="#0" id="circle207"/>
	<circle cx="996" cy="612.679" r="4" fill="#0" id="circle208"/>
	<circle cx="996" cy="633.741" r="4" fill="#0" id="circle209"/>
	<circle cx="996" cy="654.803" r="4" fill="#0" id="circle210"/>
	</g>
</svg>