<?xml version="1.0" encoding="UTF-8" standalone="no"?>
<!-- Created with CurveBenchmark -->
<svg
	xmlns:dc="http://purl.org/dc/elements/1.1/"
	xmlns:cc="http://creativecommons.org/ns#"
	xmlns:rdf="http://www.w3.org/1999/02/22-rdf-syntax-ns#"
	xmlns:svg="http://www.w3.org/2000/svg"
	xmlns="http://www.w3.org/2000/svg"
	xmlns:sodipodi="http://sodipodi.sourceforge.net/DTD/sodipodi-0.dtd"
	xmlns:inkscape="http://www.inkscape.org/namespaces/inkscape"
	width="1000"
	height="1000"
	id="svg2"
	version="1.1"
	sodipodi:docname="manifold/connect2d-brick-09.png.txt">
<defs
	id="defs4" />
<metadata
	id="metadata7">
	<rdf:RDF>
		<cc:Work
			rdf:about="">
			<dc:format>image/svg+xml</dc:format>
			<dc:type
				rdf:resource="http://purl.org/dc/dcmitype/StillImage" />
			<dc:title></dc:title>
		</cc:Work>
	</rdf:RDF>
</metadata>
<g
	inkscape:label="Layer 1"
	inkscape:groupmode="layer"
	id="layer1">
	<path style="fill:none;stroke:red;stroke-width:1px;stroke-linecap:butt;stroke-linejoin:miter;stroke-opacity:1" d="M 996,240.844 996,249.426 z" id="boundary" inkscape:connector-curvature="0" />
	<path style="fill:none;stroke:red;stroke-width:1px;stroke-linecap:butt;stroke-linejoin:miter;stroke-opacity:1" d="M 996,249.426 991.709,262.298 z" id="boundary" inkscape:connector-curvature="0" />
	<path style="fill:none;stroke:red;stroke-width:1px;stroke-linecap:butt;stroke-linejoin:miter;stroke-opacity:1" d="M 991.709,262.298 985.702,273.453 z" id="boundary" inkscape:connector-curvature="0" />
	<path style="fill:none;stroke:red;stroke-width:1px;stroke-linecap:butt;stroke-linejoin:miter;stroke-opacity:1" d="M 985.702,273.453 978.837,279.46 z" id="boundary" inkscape:connector-curvature="0" />
	<path style="fill:none;stroke:red;stroke-width:1px;stroke-linecap:butt;stroke-linejoin:miter;stroke-opacity:1" d="M 978.837,279.46 974.547,288.042 z" id="boundary" inkscape:connector-curvature="0" />
	<path style="fill:none;stroke:red;stroke-width:1px;stroke-linecap:butt;stroke-linejoin:miter;stroke-opacity:1" d="M 974.547,288.042 968.54,294.907 z" id="boundary" inkscape:connector-curvature="0" />
	<path style="fill:none;stroke:red;stroke-width:1px;stroke-linecap:butt;stroke-linejoin:miter;stroke-opacity:1" d="M 968.54,294.907 961.675,300.913 z" id="boundary" inkscape:connector-curvature="0" />
	<path style="fill:none;stroke:red;stroke-width:1px;stroke-linecap:butt;stroke-linejoin:miter;stroke-opacity:1" d="M 961.675,300.913 955.668,307.779 z" id="boundary" inkscape:connector-curvature="0" />
	<path style="fill:none;stroke:red;stroke-width:1px;stroke-linecap:butt;stroke-linejoin:miter;stroke-opacity:1" d="M 955.668,307.779 948.803,313.785 z" id="boundary" inkscape:connector-curvature="0" />
	<path style="fill:none;stroke:red;stroke-width:1px;stroke-linecap:butt;stroke-linejoin:miter;stroke-opacity:1" d="M 948.803,313.785 942.796,324.941 z" id="boundary" inkscape:connector-curvature="0" />
	<path style="fill:none;stroke:red;stroke-width:1px;stroke-linecap:butt;stroke-linejoin:miter;stroke-opacity:1" d="M 942.796,324.941 935.931,330.948 z" id="boundary" inkscape:connector-curvature="0" />
	<path style="fill:none;stroke:red;stroke-width:1px;stroke-linecap:butt;stroke-linejoin:miter;stroke-opacity:1" d="M 935.931,330.948 929.924,337.813 z" id="boundary" inkscape:connector-curvature="0" />
	<path style="fill:none;stroke:red;stroke-width:1px;stroke-linecap:butt;stroke-linejoin:miter;stroke-opacity:1" d="M 929.924,337.813 925.633,346.394 z" id="boundary" inkscape:connector-curvature="0" />
	<path style="fill:none;stroke:red;stroke-width:1px;stroke-linecap:butt;stroke-linejoin:miter;stroke-opacity:1" d="M 925.633,346.394 918.768,352.401 z" id="boundary" inkscape:connector-curvature="0" />
	<path style="fill:none;stroke:red;stroke-width:1px;stroke-linecap:butt;stroke-linejoin:miter;stroke-opacity:1" d="M 918.768,352.401 918.768,360.983 z" id="boundary" inkscape:connector-curvature="0" />
	<path style="fill:none;stroke:red;stroke-width:1px;stroke-linecap:butt;stroke-linejoin:miter;stroke-opacity:1" d="M 918.768,360.983 918.768,369.564 z" id="boundary" inkscape:connector-curvature="0" />
	<path style="fill:none;stroke:red;stroke-width:1px;stroke-linecap:butt;stroke-linejoin:miter;stroke-opacity:1" d="M 918.768,369.564 923.059,377.287 z" id="boundary" inkscape:connector-curvature="0" />
	<path style="fill:none;stroke:red;stroke-width:1px;stroke-linecap:butt;stroke-linejoin:miter;stroke-opacity:1" d="M 923.059,377.287 923.059,385.869 z" id="boundary" inkscape:connector-curvature="0" />
	<path style="fill:none;stroke:red;stroke-width:1px;stroke-linecap:butt;stroke-linejoin:miter;stroke-opacity:1" d="M 923.059,385.869 923.059,394.45 z" id="boundary" inkscape:connector-curvature="0" />
	<path style="fill:none;stroke:red;stroke-width:1px;stroke-linecap:butt;stroke-linejoin:miter;stroke-opacity:1" d="M 923.059,394.45 923.059,403.031 z" id="boundary" inkscape:connector-curvature="0" />
	<path style="fill:none;stroke:red;stroke-width:1px;stroke-linecap:butt;stroke-linejoin:miter;stroke-opacity:1" d="M 923.059,403.031 923.059,411.612 z" id="boundary" inkscape:connector-curvature="0" />
	<path style="fill:none;stroke:red;stroke-width:1px;stroke-linecap:butt;stroke-linejoin:miter;stroke-opacity:1" d="M 923.059,411.612 923.059,420.194 z" id="boundary" inkscape:connector-curvature="0" />
	<path style="fill:none;stroke:red;stroke-width:1px;stroke-linecap:butt;stroke-linejoin:miter;stroke-opacity:1" d="M 923.059,420.194 923.059,428.775 z" id="boundary" inkscape:connector-curvature="0" />
	<path style="fill:none;stroke:red;stroke-width:1px;stroke-linecap:butt;stroke-linejoin:miter;stroke-opacity:1" d="M 923.059,428.775 923.059,437.356 z" id="boundary" inkscape:connector-curvature="0" />
	<path style="fill:none;stroke:red;stroke-width:1px;stroke-linecap:butt;stroke-linejoin:miter;stroke-opacity:1" d="M 923.059,437.356 927.349,445.08 z" id="boundary" inkscape:connector-curvature="0" />
	<path style="fill:none;stroke:red;stroke-width:1px;stroke-linecap:butt;stroke-linejoin:miter;stroke-opacity:1" d="M 927.349,445.08 926.491,461.384 z" id="boundary" inkscape:connector-curvature="0" />
	<path style="fill:none;stroke:red;stroke-width:1px;stroke-linecap:butt;stroke-linejoin:miter;stroke-opacity:1" d="M 926.491,461.384 919.626,468.249 z" id="boundary" inkscape:connector-curvature="0" />
	<path style="fill:none;stroke:red;stroke-width:1px;stroke-linecap:butt;stroke-linejoin:miter;stroke-opacity:1" d="M 919.626,468.249 911.903,472.54 z" id="boundary" inkscape:connector-curvature="0" />
	<path style="fill:none;stroke:red;stroke-width:1px;stroke-linecap:butt;stroke-linejoin:miter;stroke-opacity:1" d="M 911.903,472.54 904.18,476.83 z" id="boundary" inkscape:connector-curvature="0" />
	<path style="fill:none;stroke:red;stroke-width:1px;stroke-linecap:butt;stroke-linejoin:miter;stroke-opacity:1" d="M 904.18,476.83 895.599,476.83 z" id="boundary" inkscape:connector-curvature="0" />
	<path style="fill:none;stroke:red;stroke-width:1px;stroke-linecap:butt;stroke-linejoin:miter;stroke-opacity:1" d="M 895.599,476.83 887.017,476.83 z" id="boundary" inkscape:connector-curvature="0" />
	<path style="fill:none;stroke:red;stroke-width:1px;stroke-linecap:butt;stroke-linejoin:miter;stroke-opacity:1" d="M 887.017,476.83 879.294,481.121 z" id="boundary" inkscape:connector-curvature="0" />
	<path style="fill:none;stroke:red;stroke-width:1px;stroke-linecap:butt;stroke-linejoin:miter;stroke-opacity:1" d="M 879.294,481.121 870.713,481.121 z" id="boundary" inkscape:connector-curvature="0" />
	<path style="fill:none;stroke:red;stroke-width:1px;stroke-linecap:butt;stroke-linejoin:miter;stroke-opacity:1" d="M 870.713,481.121 862.99,485.412 z" id="boundary" inkscape:connector-curvature="0" />
	<path style="fill:none;stroke:red;stroke-width:1px;stroke-linecap:butt;stroke-linejoin:miter;stroke-opacity:1" d="M 862.99,485.412 854.408,485.412 z" id="boundary" inkscape:connector-curvature="0" />
	<path style="fill:none;stroke:red;stroke-width:1px;stroke-linecap:butt;stroke-linejoin:miter;stroke-opacity:1" d="M 854.408,485.412 845.827,485.412 z" id="boundary" inkscape:connector-curvature="0" />
	<path style="fill:none;stroke:red;stroke-width:1px;stroke-linecap:butt;stroke-linejoin:miter;stroke-opacity:1" d="M 845.827,485.412 838.104,489.702 z" id="boundary" inkscape:connector-curvature="0" />
	<path style="fill:none;stroke:red;stroke-width:1px;stroke-linecap:butt;stroke-linejoin:miter;stroke-opacity:1" d="M 838.104,489.702 829.522,489.702 z" id="boundary" inkscape:connector-curvature="0" />
	<path style="fill:none;stroke:red;stroke-width:1px;stroke-linecap:butt;stroke-linejoin:miter;stroke-opacity:1" d="M 829.522,489.702 820.941,489.702 z" id="boundary" inkscape:connector-curvature="0" />
	<path style="fill:none;stroke:red;stroke-width:1px;stroke-linecap:butt;stroke-linejoin:miter;stroke-opacity:1" d="M 820.941,489.702 812.36,489.702 z" id="boundary" inkscape:connector-curvature="0" />
	<path style="fill:none;stroke:red;stroke-width:1px;stroke-linecap:butt;stroke-linejoin:miter;stroke-opacity:1" d="M 812.36,489.702 803.779,489.702 z" id="boundary" inkscape:connector-curvature="0" />
	<path style="fill:none;stroke:red;stroke-width:1px;stroke-linecap:butt;stroke-linejoin:miter;stroke-opacity:1" d="M 803.779,489.702 795.197,487.986 z" id="boundary" inkscape:connector-curvature="0" />
	<path style="fill:none;stroke:red;stroke-width:1px;stroke-linecap:butt;stroke-linejoin:miter;stroke-opacity:1" d="M 795.197,487.986 786.616,485.412 z" id="boundary" inkscape:connector-curvature="0" />
	<path style="fill:none;stroke:red;stroke-width:1px;stroke-linecap:butt;stroke-linejoin:miter;stroke-opacity:1" d="M 786.616,485.412 778.893,481.121 z" id="boundary" inkscape:connector-curvature="0" />
	<path style="fill:none;stroke:red;stroke-width:1px;stroke-linecap:butt;stroke-linejoin:miter;stroke-opacity:1" d="M 778.893,481.121 770.311,480.263 z" id="boundary" inkscape:connector-curvature="0" />
	<path style="fill:none;stroke:red;stroke-width:1px;stroke-linecap:butt;stroke-linejoin:miter;stroke-opacity:1" d="M 770.311,480.263 761.73,476.83 z" id="boundary" inkscape:connector-curvature="0" />
	<path style="fill:none;stroke:red;stroke-width:1px;stroke-linecap:butt;stroke-linejoin:miter;stroke-opacity:1" d="M 761.73,476.83 754.007,472.54 z" id="boundary" inkscape:connector-curvature="0" />
	<path style="fill:none;stroke:red;stroke-width:1px;stroke-linecap:butt;stroke-linejoin:miter;stroke-opacity:1" d="M 754.007,472.54 746.284,468.249 z" id="boundary" inkscape:connector-curvature="0" />
	<path style="fill:none;stroke:red;stroke-width:1px;stroke-linecap:butt;stroke-linejoin:miter;stroke-opacity:1" d="M 746.284,468.249 738.561,463.958 z" id="boundary" inkscape:connector-curvature="0" />
	<path style="fill:none;stroke:red;stroke-width:1px;stroke-linecap:butt;stroke-linejoin:miter;stroke-opacity:1" d="M 738.561,463.958 730.837,459.668 z" id="boundary" inkscape:connector-curvature="0" />
	<path style="fill:none;stroke:red;stroke-width:1px;stroke-linecap:butt;stroke-linejoin:miter;stroke-opacity:1" d="M 730.837,459.668 722.256,458.81 z" id="boundary" inkscape:connector-curvature="0" />
	<path style="fill:none;stroke:red;stroke-width:1px;stroke-linecap:butt;stroke-linejoin:miter;stroke-opacity:1" d="M 722.256,458.81 714.533,454.519 z" id="boundary" inkscape:connector-curvature="0" />
	<path style="fill:none;stroke:red;stroke-width:1px;stroke-linecap:butt;stroke-linejoin:miter;stroke-opacity:1" d="M 714.533,454.519 707.668,448.512 z" id="boundary" inkscape:connector-curvature="0" />
	<path style="fill:none;stroke:red;stroke-width:1px;stroke-linecap:butt;stroke-linejoin:miter;stroke-opacity:1" d="M 707.668,448.512 699.945,444.221 z" id="boundary" inkscape:connector-curvature="0" />
	<path style="fill:none;stroke:red;stroke-width:1px;stroke-linecap:butt;stroke-linejoin:miter;stroke-opacity:1" d="M 699.945,444.221 693.08,438.215 z" id="boundary" inkscape:connector-curvature="0" />
	<path style="fill:none;stroke:red;stroke-width:1px;stroke-linecap:butt;stroke-linejoin:miter;stroke-opacity:1" d="M 693.08,438.215 684.498,437.356 z" id="boundary" inkscape:connector-curvature="0" />
	<path style="fill:none;stroke:red;stroke-width:1px;stroke-linecap:butt;stroke-linejoin:miter;stroke-opacity:1" d="M 684.498,437.356 675.917,433.924 z" id="boundary" inkscape:connector-curvature="0" />
	<path style="fill:none;stroke:red;stroke-width:1px;stroke-linecap:butt;stroke-linejoin:miter;stroke-opacity:1" d="M 675.917,433.924 668.194,429.633 z" id="boundary" inkscape:connector-curvature="0" />
	<path style="fill:none;stroke:red;stroke-width:1px;stroke-linecap:butt;stroke-linejoin:miter;stroke-opacity:1" d="M 668.194,429.633 661.329,423.626 z" id="boundary" inkscape:connector-curvature="0" />
	<path style="fill:none;stroke:red;stroke-width:1px;stroke-linecap:butt;stroke-linejoin:miter;stroke-opacity:1" d="M 661.329,423.626 653.606,419.336 z" id="boundary" inkscape:connector-curvature="0" />
	<path style="fill:none;stroke:red;stroke-width:1px;stroke-linecap:butt;stroke-linejoin:miter;stroke-opacity:1" d="M 653.606,419.336 645.024,416.761 z" id="boundary" inkscape:connector-curvature="0" />
	<path style="fill:none;stroke:red;stroke-width:1px;stroke-linecap:butt;stroke-linejoin:miter;stroke-opacity:1" d="M 645.024,416.761 637.301,412.471 z" id="boundary" inkscape:connector-curvature="0" />
	<path style="fill:none;stroke:red;stroke-width:1px;stroke-linecap:butt;stroke-linejoin:miter;stroke-opacity:1" d="M 637.301,412.471 628.72,412.471 z" id="boundary" inkscape:connector-curvature="0" />
	<path style="fill:none;stroke:red;stroke-width:1px;stroke-linecap:butt;stroke-linejoin:miter;stroke-opacity:1" d="M 628.72,412.471 620.138,412.471 z" id="boundary" inkscape:connector-curvature="0" />
	<path style="fill:none;stroke:red;stroke-width:1px;stroke-linecap:butt;stroke-linejoin:miter;stroke-opacity:1" d="M 620.138,412.471 611.557,412.471 z" id="boundary" inkscape:connector-curvature="0" />
	<path style="fill:none;stroke:red;stroke-width:1px;stroke-linecap:butt;stroke-linejoin:miter;stroke-opacity:1" d="M 611.557,412.471 602.976,412.471 z" id="boundary" inkscape:connector-curvature="0" />
	<path style="fill:none;stroke:red;stroke-width:1px;stroke-linecap:butt;stroke-linejoin:miter;stroke-opacity:1" d="M 602.976,412.471 594.394,412.471 z" id="boundary" inkscape:connector-curvature="0" />
	<path style="fill:none;stroke:red;stroke-width:1px;stroke-linecap:butt;stroke-linejoin:miter;stroke-opacity:1" d="M 594.394,412.471 586.671,416.761 z" id="boundary" inkscape:connector-curvature="0" />
	<path style="fill:none;stroke:red;stroke-width:1px;stroke-linecap:butt;stroke-linejoin:miter;stroke-opacity:1" d="M 586.671,416.761 578.09,416.761 z" id="boundary" inkscape:connector-curvature="0" />
	<path style="fill:none;stroke:red;stroke-width:1px;stroke-linecap:butt;stroke-linejoin:miter;stroke-opacity:1" d="M 578.09,416.761 569.509,419.336 z" id="boundary" inkscape:connector-curvature="0" />
	<path style="fill:none;stroke:red;stroke-width:1px;stroke-linecap:butt;stroke-linejoin:miter;stroke-opacity:1" d="M 569.509,419.336 560.927,421.052 z" id="boundary" inkscape:connector-curvature="0" />
	<path style="fill:none;stroke:red;stroke-width:1px;stroke-linecap:butt;stroke-linejoin:miter;stroke-opacity:1" d="M 560.927,421.052 553.204,425.343 z" id="boundary" inkscape:connector-curvature="0" />
	<path style="fill:none;stroke:red;stroke-width:1px;stroke-linecap:butt;stroke-linejoin:miter;stroke-opacity:1" d="M 553.204,425.343 545.481,429.633 z" id="boundary" inkscape:connector-curvature="0" />
	<path style="fill:none;stroke:red;stroke-width:1px;stroke-linecap:butt;stroke-linejoin:miter;stroke-opacity:1" d="M 545.481,429.633 536.9,429.633 z" id="boundary" inkscape:connector-curvature="0" />
	<path style="fill:none;stroke:red;stroke-width:1px;stroke-linecap:butt;stroke-linejoin:miter;stroke-opacity:1" d="M 536.9,429.633 528.318,433.924 z" id="boundary" inkscape:connector-curvature="0" />
	<path style="fill:none;stroke:red;stroke-width:1px;stroke-linecap:butt;stroke-linejoin:miter;stroke-opacity:1" d="M 528.318,433.924 520.595,438.215 z" id="boundary" inkscape:connector-curvature="0" />
	<path style="fill:none;stroke:red;stroke-width:1px;stroke-linecap:butt;stroke-linejoin:miter;stroke-opacity:1" d="M 520.595,438.215 512.014,438.215 z" id="boundary" inkscape:connector-curvature="0" />
	<path style="fill:none;stroke:red;stroke-width:1px;stroke-linecap:butt;stroke-linejoin:miter;stroke-opacity:1" d="M 512.014,438.215 503.433,438.215 z" id="boundary" inkscape:connector-curvature="0" />
	<path style="fill:none;stroke:red;stroke-width:1px;stroke-linecap:butt;stroke-linejoin:miter;stroke-opacity:1" d="M 503.433,438.215 494.851,438.215 z" id="boundary" inkscape:connector-curvature="0" />
	<path style="fill:none;stroke:red;stroke-width:1px;stroke-linecap:butt;stroke-linejoin:miter;stroke-opacity:1" d="M 494.851,438.215 487.128,442.505 z" id="boundary" inkscape:connector-curvature="0" />
	<path style="fill:none;stroke:red;stroke-width:1px;stroke-linecap:butt;stroke-linejoin:miter;stroke-opacity:1" d="M 487.128,442.505 478.547,442.505 z" id="boundary" inkscape:connector-curvature="0" />
	<path style="fill:none;stroke:red;stroke-width:1px;stroke-linecap:butt;stroke-linejoin:miter;stroke-opacity:1" d="M 478.547,442.505 470.824,446.796 z" id="boundary" inkscape:connector-curvature="0" />
	<path style="fill:none;stroke:red;stroke-width:1px;stroke-linecap:butt;stroke-linejoin:miter;stroke-opacity:1" d="M 470.824,446.796 462.242,446.796 z" id="boundary" inkscape:connector-curvature="0" />
	<path style="fill:none;stroke:red;stroke-width:1px;stroke-linecap:butt;stroke-linejoin:miter;stroke-opacity:1" d="M 462.242,446.796 453.661,449.37 z" id="boundary" inkscape:connector-curvature="0" />
	<path style="fill:none;stroke:red;stroke-width:1px;stroke-linecap:butt;stroke-linejoin:miter;stroke-opacity:1" d="M 453.661,449.37 445.08,451.087 z" id="boundary" inkscape:connector-curvature="0" />
	<path style="fill:none;stroke:red;stroke-width:1px;stroke-linecap:butt;stroke-linejoin:miter;stroke-opacity:1" d="M 445.08,451.087 436.498,451.087 z" id="boundary" inkscape:connector-curvature="0" />
	<path style="fill:none;stroke:red;stroke-width:1px;stroke-linecap:butt;stroke-linejoin:miter;stroke-opacity:1" d="M 436.498,451.087 427.917,453.661 z" id="boundary" inkscape:connector-curvature="0" />
	<path style="fill:none;stroke:red;stroke-width:1px;stroke-linecap:butt;stroke-linejoin:miter;stroke-opacity:1" d="M 427.917,453.661 419.336,455.377 z" id="boundary" inkscape:connector-curvature="0" />
	<path style="fill:none;stroke:red;stroke-width:1px;stroke-linecap:butt;stroke-linejoin:miter;stroke-opacity:1" d="M 419.336,455.377 410.754,455.377 z" id="boundary" inkscape:connector-curvature="0" />
	<path style="fill:none;stroke:red;stroke-width:1px;stroke-linecap:butt;stroke-linejoin:miter;stroke-opacity:1" d="M 410.754,455.377 402.173,455.377 z" id="boundary" inkscape:connector-curvature="0" />
	<path style="fill:none;stroke:red;stroke-width:1px;stroke-linecap:butt;stroke-linejoin:miter;stroke-opacity:1" d="M 402.173,455.377 394.45,459.668 z" id="boundary" inkscape:connector-curvature="0" />
	<path style="fill:none;stroke:red;stroke-width:1px;stroke-linecap:butt;stroke-linejoin:miter;stroke-opacity:1" d="M 394.45,459.668 385.869,459.668 z" id="boundary" inkscape:connector-curvature="0" />
	<path style="fill:none;stroke:red;stroke-width:1px;stroke-linecap:butt;stroke-linejoin:miter;stroke-opacity:1" d="M 385.869,459.668 378.145,463.958 z" id="boundary" inkscape:connector-curvature="0" />
	<path style="fill:none;stroke:red;stroke-width:1px;stroke-linecap:butt;stroke-linejoin:miter;stroke-opacity:1" d="M 378.145,463.958 369.564,463.958 z" id="boundary" inkscape:connector-curvature="0" />
	<path style="fill:none;stroke:red;stroke-width:1px;stroke-linecap:butt;stroke-linejoin:miter;stroke-opacity:1" d="M 369.564,463.958 360.983,463.958 z" id="boundary" inkscape:connector-curvature="0" />
	<path style="fill:none;stroke:red;stroke-width:1px;stroke-linecap:butt;stroke-linejoin:miter;stroke-opacity:1" d="M 360.983,463.958 352.401,463.958 z" id="boundary" inkscape:connector-curvature="0" />
	<path style="fill:none;stroke:red;stroke-width:1px;stroke-linecap:butt;stroke-linejoin:miter;stroke-opacity:1" d="M 352.401,463.958 343.82,463.958 z" id="boundary" inkscape:connector-curvature="0" />
	<path style="fill:none;stroke:red;stroke-width:1px;stroke-linecap:butt;stroke-linejoin:miter;stroke-opacity:1" d="M 343.82,463.958 335.239,463.958 z" id="boundary" inkscape:connector-curvature="0" />
	<path style="fill:none;stroke:red;stroke-width:1px;stroke-linecap:butt;stroke-linejoin:miter;stroke-opacity:1" d="M 335.239,463.958 327.516,459.668 z" id="boundary" inkscape:connector-curvature="0" />
	<path style="fill:none;stroke:red;stroke-width:1px;stroke-linecap:butt;stroke-linejoin:miter;stroke-opacity:1" d="M 327.516,459.668 318.934,457.952 z" id="boundary" inkscape:connector-curvature="0" />
	<path style="fill:none;stroke:red;stroke-width:1px;stroke-linecap:butt;stroke-linejoin:miter;stroke-opacity:1" d="M 318.934,457.952 310.353,455.377 z" id="boundary" inkscape:connector-curvature="0" />
	<path style="fill:none;stroke:red;stroke-width:1px;stroke-linecap:butt;stroke-linejoin:miter;stroke-opacity:1" d="M 310.353,455.377 302.63,451.087 z" id="boundary" inkscape:connector-curvature="0" />
	<path style="fill:none;stroke:red;stroke-width:1px;stroke-linecap:butt;stroke-linejoin:miter;stroke-opacity:1" d="M 302.63,451.087 294.907,446.796 z" id="boundary" inkscape:connector-curvature="0" />
	<path style="fill:none;stroke:red;stroke-width:1px;stroke-linecap:butt;stroke-linejoin:miter;stroke-opacity:1" d="M 294.907,446.796 287.183,442.505 z" id="boundary" inkscape:connector-curvature="0" />
	<path style="fill:none;stroke:red;stroke-width:1px;stroke-linecap:butt;stroke-linejoin:miter;stroke-opacity:1" d="M 287.183,442.505 279.46,438.215 z" id="boundary" inkscape:connector-curvature="0" />
	<path style="fill:none;stroke:red;stroke-width:1px;stroke-linecap:butt;stroke-linejoin:miter;stroke-opacity:1" d="M 279.46,438.215 271.737,433.924 z" id="boundary" inkscape:connector-curvature="0" />
	<path style="fill:none;stroke:red;stroke-width:1px;stroke-linecap:butt;stroke-linejoin:miter;stroke-opacity:1" d="M 271.737,433.924 264.014,429.633 z" id="boundary" inkscape:connector-curvature="0" />
	<path style="fill:none;stroke:red;stroke-width:1px;stroke-linecap:butt;stroke-linejoin:miter;stroke-opacity:1" d="M 264.014,429.633 256.291,425.343 z" id="boundary" inkscape:connector-curvature="0" />
	<path style="fill:none;stroke:red;stroke-width:1px;stroke-linecap:butt;stroke-linejoin:miter;stroke-opacity:1" d="M 256.291,425.343 248.567,421.052 z" id="boundary" inkscape:connector-curvature="0" />
	<path style="fill:none;stroke:red;stroke-width:1px;stroke-linecap:butt;stroke-linejoin:miter;stroke-opacity:1" d="M 248.567,421.052 239.986,421.052 z" id="boundary" inkscape:connector-curvature="0" />
	<path style="fill:none;stroke:red;stroke-width:1px;stroke-linecap:butt;stroke-linejoin:miter;stroke-opacity:1" d="M 239.986,421.052 232.263,416.761 z" id="boundary" inkscape:connector-curvature="0" />
	<path style="fill:none;stroke:red;stroke-width:1px;stroke-linecap:butt;stroke-linejoin:miter;stroke-opacity:1" d="M 232.263,416.761 225.398,411.612 z" id="boundary" inkscape:connector-curvature="0" />
	<path style="fill:none;stroke:red;stroke-width:1px;stroke-linecap:butt;stroke-linejoin:miter;stroke-opacity:1" d="M 225.398,411.612 216.817,408.18 z" id="boundary" inkscape:connector-curvature="0" />
	<path style="fill:none;stroke:red;stroke-width:1px;stroke-linecap:butt;stroke-linejoin:miter;stroke-opacity:1" d="M 216.817,408.18 209.093,403.889 z" id="boundary" inkscape:connector-curvature="0" />
	<path style="fill:none;stroke:red;stroke-width:1px;stroke-linecap:butt;stroke-linejoin:miter;stroke-opacity:1" d="M 209.093,403.889 202.228,397.882 z" id="boundary" inkscape:connector-curvature="0" />
	<path style="fill:none;stroke:red;stroke-width:1px;stroke-linecap:butt;stroke-linejoin:miter;stroke-opacity:1" d="M 202.228,397.882 196.221,391.017 z" id="boundary" inkscape:connector-curvature="0" />
	<path style="fill:none;stroke:red;stroke-width:1px;stroke-linecap:butt;stroke-linejoin:miter;stroke-opacity:1" d="M 196.221,391.017 188.498,386.727 z" id="boundary" inkscape:connector-curvature="0" />
	<path style="fill:none;stroke:red;stroke-width:1px;stroke-linecap:butt;stroke-linejoin:miter;stroke-opacity:1" d="M 188.498,386.727 179.917,386.727 z" id="boundary" inkscape:connector-curvature="0" />
	<path style="fill:none;stroke:red;stroke-width:1px;stroke-linecap:butt;stroke-linejoin:miter;stroke-opacity:1" d="M 179.917,386.727 171.336,386.727 z" id="boundary" inkscape:connector-curvature="0" />
	<path style="fill:none;stroke:red;stroke-width:1px;stroke-linecap:butt;stroke-linejoin:miter;stroke-opacity:1" d="M 171.336,386.727 162.754,386.727 z" id="boundary" inkscape:connector-curvature="0" />
	<path style="fill:none;stroke:red;stroke-width:1px;stroke-linecap:butt;stroke-linejoin:miter;stroke-opacity:1" d="M 162.754,386.727 155.031,391.017 z" id="boundary" inkscape:connector-curvature="0" />
	<path style="fill:none;stroke:red;stroke-width:1px;stroke-linecap:butt;stroke-linejoin:miter;stroke-opacity:1" d="M 155.031,391.017 146.45,391.017 z" id="boundary" inkscape:connector-curvature="0" />
	<path style="fill:none;stroke:red;stroke-width:1px;stroke-linecap:butt;stroke-linejoin:miter;stroke-opacity:1" d="M 146.45,391.017 137.869,391.017 z" id="boundary" inkscape:connector-curvature="0" />
	<path style="fill:none;stroke:red;stroke-width:1px;stroke-linecap:butt;stroke-linejoin:miter;stroke-opacity:1" d="M 137.869,391.017 129.287,391.017 z" id="boundary" inkscape:connector-curvature="0" />
	<path style="fill:none;stroke:red;stroke-width:1px;stroke-linecap:butt;stroke-linejoin:miter;stroke-opacity:1" d="M 129.287,391.017 120.706,391.017 z" id="boundary" inkscape:connector-curvature="0" />
	<path style="fill:none;stroke:red;stroke-width:1px;stroke-linecap:butt;stroke-linejoin:miter;stroke-opacity:1" d="M 120.706,391.017 112.125,395.308 z" id="boundary" inkscape:connector-curvature="0" />
	<path style="fill:none;stroke:red;stroke-width:1px;stroke-linecap:butt;stroke-linejoin:miter;stroke-opacity:1" d="M 112.125,395.308 103.543,395.308 z" id="boundary" inkscape:connector-curvature="0" />
	<path style="fill:none;stroke:red;stroke-width:1px;stroke-linecap:butt;stroke-linejoin:miter;stroke-opacity:1" d="M 103.543,395.308 94.9619,399.599 z" id="boundary" inkscape:connector-curvature="0" />
	<path style="fill:none;stroke:red;stroke-width:1px;stroke-linecap:butt;stroke-linejoin:miter;stroke-opacity:1" d="M 94.9619,399.599 86.3806,399.599 z" id="boundary" inkscape:connector-curvature="0" />
	<path style="fill:none;stroke:red;stroke-width:1px;stroke-linecap:butt;stroke-linejoin:miter;stroke-opacity:1" d="M 86.3806,399.599 77.7993,403.889 z" id="boundary" inkscape:connector-curvature="0" />
	<path style="fill:none;stroke:red;stroke-width:1px;stroke-linecap:butt;stroke-linejoin:miter;stroke-opacity:1" d="M 77.7993,403.889 69.218,403.889 z" id="boundary" inkscape:connector-curvature="0" />
	<path style="fill:none;stroke:red;stroke-width:1px;stroke-linecap:butt;stroke-linejoin:miter;stroke-opacity:1" d="M 69.218,403.889 60.6367,408.18 z" id="boundary" inkscape:connector-curvature="0" />
	<path style="fill:none;stroke:red;stroke-width:1px;stroke-linecap:butt;stroke-linejoin:miter;stroke-opacity:1" d="M 60.6367,408.18 52.0554,408.18 z" id="boundary" inkscape:connector-curvature="0" />
	<path style="fill:none;stroke:red;stroke-width:1px;stroke-linecap:butt;stroke-linejoin:miter;stroke-opacity:1" d="M 52.0554,408.18 43.474,408.18 z" id="boundary" inkscape:connector-curvature="0" />
	<path style="fill:none;stroke:red;stroke-width:1px;stroke-linecap:butt;stroke-linejoin:miter;stroke-opacity:1" d="M 43.474,408.18 34.8927,412.471 z" id="boundary" inkscape:connector-curvature="0" />
	<path style="fill:none;stroke:red;stroke-width:1px;stroke-linecap:butt;stroke-linejoin:miter;stroke-opacity:1" d="M 34.8927,412.471 26.3114,416.761 z" id="boundary" inkscape:connector-curvature="0" />
	<path style="fill:none;stroke:red;stroke-width:1px;stroke-linecap:butt;stroke-linejoin:miter;stroke-opacity:1" d="M 26.3114,416.761 17.7301,416.761 z" id="boundary" inkscape:connector-curvature="0" />
	<path style="fill:none;stroke:red;stroke-width:1px;stroke-linecap:butt;stroke-linejoin:miter;stroke-opacity:1" d="M 17.7301,416.761 10.8651,411.612 z" id="boundary" inkscape:connector-curvature="0" />
	<path style="fill:none;stroke:red;stroke-width:1px;stroke-linecap:butt;stroke-linejoin:miter;stroke-opacity:1" d="M 10.8651,411.612 4,405.606 z" id="boundary" inkscape:connector-curvature="0" />
	<path style="fill:none;stroke:red;stroke-width:1px;stroke-linecap:butt;stroke-linejoin:miter;stroke-opacity:1" d="M 4,405.606 4,397.024 z" id="boundary" inkscape:connector-curvature="0" />
	<path style="fill:none;stroke:red;stroke-width:1px;stroke-linecap:butt;stroke-linejoin:miter;stroke-opacity:1" d="M 4,397.024 4,388.443 z" id="boundary" inkscape:connector-curvature="0" />
	<path style="fill:none;stroke:red;stroke-width:1px;stroke-linecap:butt;stroke-linejoin:miter;stroke-opacity:1" d="M 4,388.443 4,379.862 z" id="boundary" inkscape:connector-curvature="0" />
	<path style="fill:none;stroke:red;stroke-width:1px;stroke-linecap:butt;stroke-linejoin:miter;stroke-opacity:1" d="M 4,379.862 4,371.28 z" id="boundary" inkscape:connector-curvature="0" />
	<path style="fill:none;stroke:red;stroke-width:1px;stroke-linecap:butt;stroke-linejoin:miter;stroke-opacity:1" d="M 4,371.28 4,362.699 z" id="boundary" inkscape:connector-curvature="0" />
	<path style="fill:none;stroke:red;stroke-width:1px;stroke-linecap:butt;stroke-linejoin:miter;stroke-opacity:1" d="M 4,362.699 4,354.118 z" id="boundary" inkscape:connector-curvature="0" />
	<path style="fill:none;stroke:red;stroke-width:1px;stroke-linecap:butt;stroke-linejoin:miter;stroke-opacity:1" d="M 4,354.118 4,345.536 z" id="boundary" inkscape:connector-curvature="0" />
	<path style="fill:none;stroke:red;stroke-width:1px;stroke-linecap:butt;stroke-linejoin:miter;stroke-opacity:1" d="M 4,345.536 4,336.955 z" id="boundary" inkscape:connector-curvature="0" />
	<path style="fill:none;stroke:red;stroke-width:1px;stroke-linecap:butt;stroke-linejoin:miter;stroke-opacity:1" d="M 4,336.955 4,328.374 z" id="boundary" inkscape:connector-curvature="0" />
	<path style="fill:none;stroke:red;stroke-width:1px;stroke-linecap:butt;stroke-linejoin:miter;stroke-opacity:1" d="M 4,328.374 4,319.792 z" id="boundary" inkscape:connector-curvature="0" />
	<path style="fill:none;stroke:red;stroke-width:1px;stroke-linecap:butt;stroke-linejoin:miter;stroke-opacity:1" d="M 4,319.792 4,311.211 z" id="boundary" inkscape:connector-curvature="0" />
	<path style="fill:none;stroke:red;stroke-width:1px;stroke-linecap:butt;stroke-linejoin:miter;stroke-opacity:1" d="M 4,311.211 4,302.63 z" id="boundary" inkscape:connector-curvature="0" />
	<path style="fill:none;stroke:red;stroke-width:1px;stroke-linecap:butt;stroke-linejoin:miter;stroke-opacity:1" d="M 4,302.63 4,294.048 z" id="boundary" inkscape:connector-curvature="0" />
	<path style="fill:none;stroke:red;stroke-width:1px;stroke-linecap:butt;stroke-linejoin:miter;stroke-opacity:1" d="M 4,294.048 4,285.467 z" id="boundary" inkscape:connector-curvature="0" />
	<path style="fill:none;stroke:red;stroke-width:1px;stroke-linecap:butt;stroke-linejoin:miter;stroke-opacity:1" d="M 4,285.467 4,276.886 z" id="boundary" inkscape:connector-curvature="0" />
	<path style="fill:none;stroke:red;stroke-width:1px;stroke-linecap:butt;stroke-linejoin:miter;stroke-opacity:1" d="M 4,276.886 4,268.304 z" id="boundary" inkscape:connector-curvature="0" />
	<path style="fill:none;stroke:red;stroke-width:1px;stroke-linecap:butt;stroke-linejoin:miter;stroke-opacity:1" d="M 4,268.304 10.8651,261.439 z" id="boundary" inkscape:connector-curvature="0" />
	<path style="fill:none;stroke:red;stroke-width:1px;stroke-linecap:butt;stroke-linejoin:miter;stroke-opacity:1" d="M 10.8651,261.439 17.7301,254.574 z" id="boundary" inkscape:connector-curvature="0" />
	<path style="fill:none;stroke:red;stroke-width:1px;stroke-linecap:butt;stroke-linejoin:miter;stroke-opacity:1" d="M 17.7301,254.574 24.5952,248.567 z" id="boundary" inkscape:connector-curvature="0" />
	<path style="fill:none;stroke:red;stroke-width:1px;stroke-linecap:butt;stroke-linejoin:miter;stroke-opacity:1" d="M 24.5952,248.567 30.6021,241.702 z" id="boundary" inkscape:connector-curvature="0" />
	<path style="fill:none;stroke:red;stroke-width:1px;stroke-linecap:butt;stroke-linejoin:miter;stroke-opacity:1" d="M 30.6021,241.702 37.4671,235.696 z" id="boundary" inkscape:connector-curvature="0" />
	<path style="fill:none;stroke:red;stroke-width:1px;stroke-linecap:butt;stroke-linejoin:miter;stroke-opacity:1" d="M 37.4671,235.696 43.474,228.83 z" id="boundary" inkscape:connector-curvature="0" />
	<path style="fill:none;stroke:red;stroke-width:1px;stroke-linecap:butt;stroke-linejoin:miter;stroke-opacity:1" d="M 43.474,228.83 52.0554,224.54 z" id="boundary" inkscape:connector-curvature="0" />
	<path style="fill:none;stroke:red;stroke-width:1px;stroke-linecap:butt;stroke-linejoin:miter;stroke-opacity:1" d="M 52.0554,224.54 58.9204,218.533 z" id="boundary" inkscape:connector-curvature="0" />
	<path style="fill:none;stroke:red;stroke-width:1px;stroke-linecap:butt;stroke-linejoin:miter;stroke-opacity:1" d="M 58.9204,218.533 66.6436,214.242 z" id="boundary" inkscape:connector-curvature="0" />
	<path style="fill:none;stroke:red;stroke-width:1px;stroke-linecap:butt;stroke-linejoin:miter;stroke-opacity:1" d="M 66.6436,214.242 74.3668,209.952 z" id="boundary" inkscape:connector-curvature="0" />
	<path style="fill:none;stroke:red;stroke-width:1px;stroke-linecap:butt;stroke-linejoin:miter;stroke-opacity:1" d="M 74.3668,209.952 81.2318,203.945 z" id="boundary" inkscape:connector-curvature="0" />
	<path style="fill:none;stroke:red;stroke-width:1px;stroke-linecap:butt;stroke-linejoin:miter;stroke-opacity:1" d="M 81.2318,203.945 88.0969,197.08 z" id="boundary" inkscape:connector-curvature="0" />
	<path style="fill:none;stroke:red;stroke-width:1px;stroke-linecap:butt;stroke-linejoin:miter;stroke-opacity:1" d="M 88.0969,197.08 94.9619,190.215 z" id="boundary" inkscape:connector-curvature="0" />
	<path style="fill:none;stroke:red;stroke-width:1px;stroke-linecap:butt;stroke-linejoin:miter;stroke-opacity:1" d="M 94.9619,190.215 101.827,184.208 z" id="boundary" inkscape:connector-curvature="0" />
	<path style="fill:none;stroke:red;stroke-width:1px;stroke-linecap:butt;stroke-linejoin:miter;stroke-opacity:1" d="M 101.827,184.208 109.55,179.917 z" id="boundary" inkscape:connector-curvature="0" />
	<path style="fill:none;stroke:red;stroke-width:1px;stroke-linecap:butt;stroke-linejoin:miter;stroke-opacity:1" d="M 109.55,179.917 113.841,171.336 z" id="boundary" inkscape:connector-curvature="0" />
	<path style="fill:none;stroke:red;stroke-width:1px;stroke-linecap:butt;stroke-linejoin:miter;stroke-opacity:1" d="M 113.841,171.336 118.131,162.754 z" id="boundary" inkscape:connector-curvature="0" />
	<path style="fill:none;stroke:red;stroke-width:1px;stroke-linecap:butt;stroke-linejoin:miter;stroke-opacity:1" d="M 118.131,162.754 119.848,149.882 z" id="boundary" inkscape:connector-curvature="0" />
	<path style="fill:none;stroke:red;stroke-width:1px;stroke-linecap:butt;stroke-linejoin:miter;stroke-opacity:1" d="M 119.848,149.882 119.848,141.301 z" id="boundary" inkscape:connector-curvature="0" />
	<path style="fill:none;stroke:red;stroke-width:1px;stroke-linecap:butt;stroke-linejoin:miter;stroke-opacity:1" d="M 119.848,141.301 119.848,132.72 z" id="boundary" inkscape:connector-curvature="0" />
	<path style="fill:none;stroke:red;stroke-width:1px;stroke-linecap:butt;stroke-linejoin:miter;stroke-opacity:1" d="M 119.848,132.72 119.848,124.138 z" id="boundary" inkscape:connector-curvature="0" />
	<path style="fill:none;stroke:red;stroke-width:1px;stroke-linecap:butt;stroke-linejoin:miter;stroke-opacity:1" d="M 119.848,124.138 117.273,115.557 z" id="boundary" inkscape:connector-curvature="0" />
	<path style="fill:none;stroke:red;stroke-width:1px;stroke-linecap:butt;stroke-linejoin:miter;stroke-opacity:1" d="M 117.273,115.557 115.557,106.976 z" id="boundary" inkscape:connector-curvature="0" />
	<path style="fill:none;stroke:red;stroke-width:1px;stroke-linecap:butt;stroke-linejoin:miter;stroke-opacity:1" d="M 115.557,106.976 111.266,99.2526 z" id="boundary" inkscape:connector-curvature="0" />
	<path style="fill:none;stroke:red;stroke-width:1px;stroke-linecap:butt;stroke-linejoin:miter;stroke-opacity:1" d="M 111.266,99.2526 109.55,90.6713 z" id="boundary" inkscape:connector-curvature="0" />
	<path style="fill:none;stroke:red;stroke-width:1px;stroke-linecap:butt;stroke-linejoin:miter;stroke-opacity:1" d="M 109.55,90.6713 106.976,82.09 z" id="boundary" inkscape:connector-curvature="0" />
	<path style="fill:none;stroke:red;stroke-width:1px;stroke-linecap:butt;stroke-linejoin:miter;stroke-opacity:1" d="M 106.976,82.09 105.26,73.5087 z" id="boundary" inkscape:connector-curvature="0" />
	<path style="fill:none;stroke:red;stroke-width:1px;stroke-linecap:butt;stroke-linejoin:miter;stroke-opacity:1" d="M 105.26,73.5087 102.685,64.9273 z" id="boundary" inkscape:connector-curvature="0" />
	<path style="fill:none;stroke:red;stroke-width:1px;stroke-linecap:butt;stroke-linejoin:miter;stroke-opacity:1" d="M 102.685,64.9273 102.685,56.346 z" id="boundary" inkscape:connector-curvature="0" />
	<path style="fill:none;stroke:red;stroke-width:1px;stroke-linecap:butt;stroke-linejoin:miter;stroke-opacity:1" d="M 102.685,56.346 102.685,47.7647 z" id="boundary" inkscape:connector-curvature="0" />
	<path style="fill:none;stroke:red;stroke-width:1px;stroke-linecap:butt;stroke-linejoin:miter;stroke-opacity:1" d="M 102.685,47.7647 98.3945,40.0415 z" id="boundary" inkscape:connector-curvature="0" />
	<path style="fill:none;stroke:red;stroke-width:1px;stroke-linecap:butt;stroke-linejoin:miter;stroke-opacity:1" d="M 98.3945,40.0415 98.3945,31.4602 z" id="boundary" inkscape:connector-curvature="0" />
	<path style="fill:none;stroke:red;stroke-width:1px;stroke-linecap:butt;stroke-linejoin:miter;stroke-opacity:1" d="M 98.3945,31.4602 98.3945,22.8789 z" id="boundary" inkscape:connector-curvature="0" />
	<path style="fill:none;stroke:red;stroke-width:1px;stroke-linecap:butt;stroke-linejoin:miter;stroke-opacity:1" d="M 98.3945,22.8789 94.1038,15.1557 z" id="boundary" inkscape:connector-curvature="0" />
	<path style="fill:none;stroke:red;stroke-width:1px;stroke-linecap:butt;stroke-linejoin:miter;stroke-opacity:1" d="M 94.1038,15.1557 100.969,8.29066 z" id="boundary" inkscape:connector-curvature="0" />
	<path style="fill:none;stroke:red;stroke-width:1px;stroke-linecap:butt;stroke-linejoin:miter;stroke-opacity:1" d="M 100.969,8.29066 108.692,4 z" id="boundary" inkscape:connector-curvature="0" />
	<path style="fill:none;stroke:red;stroke-width:1px;stroke-linecap:butt;stroke-linejoin:miter;stroke-opacity:1" d="M 108.692,4 117.273,4 z" id="boundary" inkscape:connector-curvature="0" />
	<path style="fill:none;stroke:red;stroke-width:1px;stroke-linecap:butt;stroke-linejoin:miter;stroke-opacity:1" d="M 117.273,4 125.855,4 z" id="boundary" inkscape:connector-curvature="0" />
	<path style="fill:none;stroke:red;stroke-width:1px;stroke-linecap:butt;stroke-linejoin:miter;stroke-opacity:1" d="M 125.855,4 133.578,8.29066 z" id="boundary" inkscape:connector-curvature="0" />
	<path style="fill:none;stroke:red;stroke-width:1px;stroke-linecap:butt;stroke-linejoin:miter;stroke-opacity:1" d="M 133.578,8.29066 142.159,8.29066 z" id="boundary" inkscape:connector-curvature="0" />
	<path style="fill:none;stroke:red;stroke-width:1px;stroke-linecap:butt;stroke-linejoin:miter;stroke-opacity:1" d="M 142.159,8.29066 150.74,8.29066 z" id="boundary" inkscape:connector-curvature="0" />
	<path style="fill:none;stroke:red;stroke-width:1px;stroke-linecap:butt;stroke-linejoin:miter;stroke-opacity:1" d="M 150.74,8.29066 159.322,8.29066 z" id="boundary" inkscape:connector-curvature="0" />
	<path style="fill:none;stroke:red;stroke-width:1px;stroke-linecap:butt;stroke-linejoin:miter;stroke-opacity:1" d="M 159.322,8.29066 167.903,8.29066 z" id="boundary" inkscape:connector-curvature="0" />
	<path style="fill:none;stroke:red;stroke-width:1px;stroke-linecap:butt;stroke-linejoin:miter;stroke-opacity:1" d="M 167.903,8.29066 175.626,12.5813 z" id="boundary" inkscape:connector-curvature="0" />
	<path style="fill:none;stroke:red;stroke-width:1px;stroke-linecap:butt;stroke-linejoin:miter;stroke-opacity:1" d="M 175.626,12.5813 184.208,12.5813 z" id="boundary" inkscape:connector-curvature="0" />
	<path style="fill:none;stroke:red;stroke-width:1px;stroke-linecap:butt;stroke-linejoin:miter;stroke-opacity:1" d="M 184.208,12.5813 192.789,12.5813 z" id="boundary" inkscape:connector-curvature="0" />
	<path style="fill:none;stroke:red;stroke-width:1px;stroke-linecap:butt;stroke-linejoin:miter;stroke-opacity:1" d="M 192.789,12.5813 201.37,12.5813 z" id="boundary" inkscape:connector-curvature="0" />
	<path style="fill:none;stroke:red;stroke-width:1px;stroke-linecap:butt;stroke-linejoin:miter;stroke-opacity:1" d="M 201.37,12.5813 209.952,14.2976 z" id="boundary" inkscape:connector-curvature="0" />
	<path style="fill:none;stroke:red;stroke-width:1px;stroke-linecap:butt;stroke-linejoin:miter;stroke-opacity:1" d="M 209.952,14.2976 218.533,16.872 z" id="boundary" inkscape:connector-curvature="0" />
	<path style="fill:none;stroke:red;stroke-width:1px;stroke-linecap:butt;stroke-linejoin:miter;stroke-opacity:1" d="M 218.533,16.872 227.114,16.872 z" id="boundary" inkscape:connector-curvature="0" />
	<path style="fill:none;stroke:red;stroke-width:1px;stroke-linecap:butt;stroke-linejoin:miter;stroke-opacity:1" d="M 227.114,16.872 235.696,16.872 z" id="boundary" inkscape:connector-curvature="0" />
	<path style="fill:none;stroke:red;stroke-width:1px;stroke-linecap:butt;stroke-linejoin:miter;stroke-opacity:1" d="M 235.696,16.872 244.277,16.872 z" id="boundary" inkscape:connector-curvature="0" />
	<path style="fill:none;stroke:red;stroke-width:1px;stroke-linecap:butt;stroke-linejoin:miter;stroke-opacity:1" d="M 244.277,16.872 252.858,18.5882 z" id="boundary" inkscape:connector-curvature="0" />
	<path style="fill:none;stroke:red;stroke-width:1px;stroke-linecap:butt;stroke-linejoin:miter;stroke-opacity:1" d="M 252.858,18.5882 258.007,25.4533 z" id="boundary" inkscape:connector-curvature="0" />
	<path style="fill:none;stroke:red;stroke-width:1px;stroke-linecap:butt;stroke-linejoin:miter;stroke-opacity:1" d="M 258.007,25.4533 262.298,33.1765 z" id="boundary" inkscape:connector-curvature="0" />
	<path style="fill:none;stroke:red;stroke-width:1px;stroke-linecap:butt;stroke-linejoin:miter;stroke-opacity:1" d="M 262.298,33.1765 269.163,39.1834 z" id="boundary" inkscape:connector-curvature="0" />
	<path style="fill:none;stroke:red;stroke-width:1px;stroke-linecap:butt;stroke-linejoin:miter;stroke-opacity:1" d="M 269.163,39.1834 275.17,46.0484 z" id="boundary" inkscape:connector-curvature="0" />
	<path style="fill:none;stroke:red;stroke-width:1px;stroke-linecap:butt;stroke-linejoin:miter;stroke-opacity:1" d="M 275.17,46.0484 282.035,52.0554 z" id="boundary" inkscape:connector-curvature="0" />
	<path style="fill:none;stroke:red;stroke-width:1px;stroke-linecap:butt;stroke-linejoin:miter;stroke-opacity:1" d="M 282.035,52.0554 288.042,58.9204 z" id="boundary" inkscape:connector-curvature="0" />
	<path style="fill:none;stroke:red;stroke-width:1px;stroke-linecap:butt;stroke-linejoin:miter;stroke-opacity:1" d="M 288.042,58.9204 292.332,66.6436 z" id="boundary" inkscape:connector-curvature="0" />
	<path style="fill:none;stroke:red;stroke-width:1px;stroke-linecap:butt;stroke-linejoin:miter;stroke-opacity:1" d="M 292.332,66.6436 298.339,73.5087 z" id="boundary" inkscape:connector-curvature="0" />
	<path style="fill:none;stroke:red;stroke-width:1px;stroke-linecap:butt;stroke-linejoin:miter;stroke-opacity:1" d="M 298.339,73.5087 302.63,81.2318 z" id="boundary" inkscape:connector-curvature="0" />
	<path style="fill:none;stroke:red;stroke-width:1px;stroke-linecap:butt;stroke-linejoin:miter;stroke-opacity:1" d="M 302.63,81.2318 311.211,81.2318 z" id="boundary" inkscape:connector-curvature="0" />
	<path style="fill:none;stroke:red;stroke-width:1px;stroke-linecap:butt;stroke-linejoin:miter;stroke-opacity:1" d="M 311.211,81.2318 319.792,81.2318 z" id="boundary" inkscape:connector-curvature="0" />
	<path style="fill:none;stroke:red;stroke-width:1px;stroke-linecap:butt;stroke-linejoin:miter;stroke-opacity:1" d="M 319.792,81.2318 328.374,81.2318 z" id="boundary" inkscape:connector-curvature="0" />
	<path style="fill:none;stroke:red;stroke-width:1px;stroke-linecap:butt;stroke-linejoin:miter;stroke-opacity:1" d="M 328.374,81.2318 336.955,81.2318 z" id="boundary" inkscape:connector-curvature="0" />
	<path style="fill:none;stroke:red;stroke-width:1px;stroke-linecap:butt;stroke-linejoin:miter;stroke-opacity:1" d="M 336.955,81.2318 345.536,81.2318 z" id="boundary" inkscape:connector-curvature="0" />
	<path style="fill:none;stroke:red;stroke-width:1px;stroke-linecap:butt;stroke-linejoin:miter;stroke-opacity:1" d="M 345.536,81.2318 354.118,76.9412 z" id="boundary" inkscape:connector-curvature="0" />
	<path style="fill:none;stroke:red;stroke-width:1px;stroke-linecap:butt;stroke-linejoin:miter;stroke-opacity:1" d="M 354.118,76.9412 362.699,76.9412 z" id="boundary" inkscape:connector-curvature="0" />
	<path style="fill:none;stroke:red;stroke-width:1px;stroke-linecap:butt;stroke-linejoin:miter;stroke-opacity:1" d="M 362.699,76.9412 371.28,76.9412 z" id="boundary" inkscape:connector-curvature="0" />
	<path style="fill:none;stroke:red;stroke-width:1px;stroke-linecap:butt;stroke-linejoin:miter;stroke-opacity:1" d="M 371.28,76.9412 379.862,76.9412 z" id="boundary" inkscape:connector-curvature="0" />
	<path style="fill:none;stroke:red;stroke-width:1px;stroke-linecap:butt;stroke-linejoin:miter;stroke-opacity:1" d="M 379.862,76.9412 388.443,76.9412 z" id="boundary" inkscape:connector-curvature="0" />
	<path style="fill:none;stroke:red;stroke-width:1px;stroke-linecap:butt;stroke-linejoin:miter;stroke-opacity:1" d="M 388.443,76.9412 397.024,76.9412 z" id="boundary" inkscape:connector-curvature="0" />
	<path style="fill:none;stroke:red;stroke-width:1px;stroke-linecap:butt;stroke-linejoin:miter;stroke-opacity:1" d="M 397.024,76.9412 405.606,76.9412 z" id="boundary" inkscape:connector-curvature="0" />
	<path style="fill:none;stroke:red;stroke-width:1px;stroke-linecap:butt;stroke-linejoin:miter;stroke-opacity:1" d="M 405.606,76.9412 413.329,72.6505 z" id="boundary" inkscape:connector-curvature="0" />
	<path style="fill:none;stroke:red;stroke-width:1px;stroke-linecap:butt;stroke-linejoin:miter;stroke-opacity:1" d="M 413.329,72.6505 421.91,72.6505 z" id="boundary" inkscape:connector-curvature="0" />
	<path style="fill:none;stroke:red;stroke-width:1px;stroke-linecap:butt;stroke-linejoin:miter;stroke-opacity:1" d="M 421.91,72.6505 430.491,72.6505 z" id="boundary" inkscape:connector-curvature="0" />
	<path style="fill:none;stroke:red;stroke-width:1px;stroke-linecap:butt;stroke-linejoin:miter;stroke-opacity:1" d="M 430.491,72.6505 439.073,72.6505 z" id="boundary" inkscape:connector-curvature="0" />
	<path style="fill:none;stroke:red;stroke-width:1px;stroke-linecap:butt;stroke-linejoin:miter;stroke-opacity:1" d="M 439.073,72.6505 447.654,72.6505 z" id="boundary" inkscape:connector-curvature="0" />
	<path style="fill:none;stroke:red;stroke-width:1px;stroke-linecap:butt;stroke-linejoin:miter;stroke-opacity:1" d="M 447.654,72.6505 456.235,72.6505 z" id="boundary" inkscape:connector-curvature="0" />
	<path style="fill:none;stroke:red;stroke-width:1px;stroke-linecap:butt;stroke-linejoin:miter;stroke-opacity:1" d="M 456.235,72.6505 464.817,72.6505 z" id="boundary" inkscape:connector-curvature="0" />
	<path style="fill:none;stroke:red;stroke-width:1px;stroke-linecap:butt;stroke-linejoin:miter;stroke-opacity:1" d="M 464.817,72.6505 473.398,72.6505 z" id="boundary" inkscape:connector-curvature="0" />
	<path style="fill:none;stroke:red;stroke-width:1px;stroke-linecap:butt;stroke-linejoin:miter;stroke-opacity:1" d="M 473.398,72.6505 481.121,68.3599 z" id="boundary" inkscape:connector-curvature="0" />
	<path style="fill:none;stroke:red;stroke-width:1px;stroke-linecap:butt;stroke-linejoin:miter;stroke-opacity:1" d="M 481.121,68.3599 489.702,68.3599 z" id="boundary" inkscape:connector-curvature="0" />
	<path style="fill:none;stroke:red;stroke-width:1px;stroke-linecap:butt;stroke-linejoin:miter;stroke-opacity:1" d="M 489.702,68.3599 498.284,68.3599 z" id="boundary" inkscape:connector-curvature="0" />
	<path style="fill:none;stroke:red;stroke-width:1px;stroke-linecap:butt;stroke-linejoin:miter;stroke-opacity:1" d="M 498.284,68.3599 506.865,68.3599 z" id="boundary" inkscape:connector-curvature="0" />
	<path style="fill:none;stroke:red;stroke-width:1px;stroke-linecap:butt;stroke-linejoin:miter;stroke-opacity:1" d="M 506.865,68.3599 515.446,68.3599 z" id="boundary" inkscape:connector-curvature="0" />
	<path style="fill:none;stroke:red;stroke-width:1px;stroke-linecap:butt;stroke-linejoin:miter;stroke-opacity:1" d="M 515.446,68.3599 524.028,68.3599 z" id="boundary" inkscape:connector-curvature="0" />
	<path style="fill:none;stroke:red;stroke-width:1px;stroke-linecap:butt;stroke-linejoin:miter;stroke-opacity:1" d="M 524.028,68.3599 532.609,68.3599 z" id="boundary" inkscape:connector-curvature="0" />
	<path style="fill:none;stroke:red;stroke-width:1px;stroke-linecap:butt;stroke-linejoin:miter;stroke-opacity:1" d="M 532.609,68.3599 541.19,68.3599 z" id="boundary" inkscape:connector-curvature="0" />
	<path style="fill:none;stroke:red;stroke-width:1px;stroke-linecap:butt;stroke-linejoin:miter;stroke-opacity:1" d="M 541.19,68.3599 549.772,68.3599 z" id="boundary" inkscape:connector-curvature="0" />
	<path style="fill:none;stroke:red;stroke-width:1px;stroke-linecap:butt;stroke-linejoin:miter;stroke-opacity:1" d="M 549.772,68.3599 558.353,68.3599 z" id="boundary" inkscape:connector-curvature="0" />
	<path style="fill:none;stroke:red;stroke-width:1px;stroke-linecap:butt;stroke-linejoin:miter;stroke-opacity:1" d="M 558.353,68.3599 566.934,68.3599 z" id="boundary" inkscape:connector-curvature="0" />
	<path style="fill:none;stroke:red;stroke-width:1px;stroke-linecap:butt;stroke-linejoin:miter;stroke-opacity:1" d="M 566.934,68.3599 575.516,68.3599 z" id="boundary" inkscape:connector-curvature="0" />
	<path style="fill:none;stroke:red;stroke-width:1px;stroke-linecap:butt;stroke-linejoin:miter;stroke-opacity:1" d="M 575.516,68.3599 584.097,68.3599 z" id="boundary" inkscape:connector-curvature="0" />
	<path style="fill:none;stroke:red;stroke-width:1px;stroke-linecap:butt;stroke-linejoin:miter;stroke-opacity:1" d="M 584.097,68.3599 592.678,68.3599 z" id="boundary" inkscape:connector-curvature="0" />
	<path style="fill:none;stroke:red;stroke-width:1px;stroke-linecap:butt;stroke-linejoin:miter;stroke-opacity:1" d="M 592.678,68.3599 600.401,64.0692 z" id="boundary" inkscape:connector-curvature="0" />
	<path style="fill:none;stroke:red;stroke-width:1px;stroke-linecap:butt;stroke-linejoin:miter;stroke-opacity:1" d="M 600.401,64.0692 608.983,64.0692 z" id="boundary" inkscape:connector-curvature="0" />
	<path style="fill:none;stroke:red;stroke-width:1px;stroke-linecap:butt;stroke-linejoin:miter;stroke-opacity:1" d="M 608.983,64.0692 617.564,64.0692 z" id="boundary" inkscape:connector-curvature="0" />
	<path style="fill:none;stroke:red;stroke-width:1px;stroke-linecap:butt;stroke-linejoin:miter;stroke-opacity:1" d="M 617.564,64.0692 626.145,64.0692 z" id="boundary" inkscape:connector-curvature="0" />
	<path style="fill:none;stroke:red;stroke-width:1px;stroke-linecap:butt;stroke-linejoin:miter;stroke-opacity:1" d="M 626.145,64.0692 634.727,64.0692 z" id="boundary" inkscape:connector-curvature="0" />
	<path style="fill:none;stroke:red;stroke-width:1px;stroke-linecap:butt;stroke-linejoin:miter;stroke-opacity:1" d="M 634.727,64.0692 643.308,64.0692 z" id="boundary" inkscape:connector-curvature="0" />
	<path style="fill:none;stroke:red;stroke-width:1px;stroke-linecap:butt;stroke-linejoin:miter;stroke-opacity:1" d="M 643.308,64.0692 651.889,64.0692 z" id="boundary" inkscape:connector-curvature="0" />
	<path style="fill:none;stroke:red;stroke-width:1px;stroke-linecap:butt;stroke-linejoin:miter;stroke-opacity:1" d="M 651.889,64.0692 660.471,64.0692 z" id="boundary" inkscape:connector-curvature="0" />
	<path style="fill:none;stroke:red;stroke-width:1px;stroke-linecap:butt;stroke-linejoin:miter;stroke-opacity:1" d="M 660.471,64.0692 669.052,64.0692 z" id="boundary" inkscape:connector-curvature="0" />
	<path style="fill:none;stroke:red;stroke-width:1px;stroke-linecap:butt;stroke-linejoin:miter;stroke-opacity:1" d="M 669.052,64.0692 677.633,64.0692 z" id="boundary" inkscape:connector-curvature="0" />
	<path style="fill:none;stroke:red;stroke-width:1px;stroke-linecap:butt;stroke-linejoin:miter;stroke-opacity:1" d="M 677.633,64.0692 686.215,64.0692 z" id="boundary" inkscape:connector-curvature="0" />
	<path style="fill:none;stroke:red;stroke-width:1px;stroke-linecap:butt;stroke-linejoin:miter;stroke-opacity:1" d="M 686.215,64.0692 694.796,64.0692 z" id="boundary" inkscape:connector-curvature="0" />
	<path style="fill:none;stroke:red;stroke-width:1px;stroke-linecap:butt;stroke-linejoin:miter;stroke-opacity:1" d="M 694.796,64.0692 702.519,68.3599 z" id="boundary" inkscape:connector-curvature="0" />
	<path style="fill:none;stroke:red;stroke-width:1px;stroke-linecap:butt;stroke-linejoin:miter;stroke-opacity:1" d="M 702.519,68.3599 710.242,72.6505 z" id="boundary" inkscape:connector-curvature="0" />
	<path style="fill:none;stroke:red;stroke-width:1px;stroke-linecap:butt;stroke-linejoin:miter;stroke-opacity:1" d="M 710.242,72.6505 717.965,76.9412 z" id="boundary" inkscape:connector-curvature="0" />
	<path style="fill:none;stroke:red;stroke-width:1px;stroke-linecap:butt;stroke-linejoin:miter;stroke-opacity:1" d="M 717.965,76.9412 725.689,81.2318 z" id="boundary" inkscape:connector-curvature="0" />
	<path style="fill:none;stroke:red;stroke-width:1px;stroke-linecap:butt;stroke-linejoin:miter;stroke-opacity:1" d="M 725.689,81.2318 732.554,86.3806 z" id="boundary" inkscape:connector-curvature="0" />
	<path style="fill:none;stroke:red;stroke-width:1px;stroke-linecap:butt;stroke-linejoin:miter;stroke-opacity:1" d="M 732.554,86.3806 738.561,93.2457 z" id="boundary" inkscape:connector-curvature="0" />
	<path style="fill:none;stroke:red;stroke-width:1px;stroke-linecap:butt;stroke-linejoin:miter;stroke-opacity:1" d="M 738.561,93.2457 745.426,98.3945 z" id="boundary" inkscape:connector-curvature="0" />
	<path style="fill:none;stroke:red;stroke-width:1px;stroke-linecap:butt;stroke-linejoin:miter;stroke-opacity:1" d="M 745.426,98.3945 753.149,102.685 z" id="boundary" inkscape:connector-curvature="0" />
	<path style="fill:none;stroke:red;stroke-width:1px;stroke-linecap:butt;stroke-linejoin:miter;stroke-opacity:1" d="M 753.149,102.685 759.156,109.55 z" id="boundary" inkscape:connector-curvature="0" />
	<path style="fill:none;stroke:red;stroke-width:1px;stroke-linecap:butt;stroke-linejoin:miter;stroke-opacity:1" d="M 759.156,109.55 766.021,115.557 z" id="boundary" inkscape:connector-curvature="0" />
	<path style="fill:none;stroke:red;stroke-width:1px;stroke-linecap:butt;stroke-linejoin:miter;stroke-opacity:1" d="M 766.021,115.557 772.028,122.422 z" id="boundary" inkscape:connector-curvature="0" />
	<path style="fill:none;stroke:red;stroke-width:1px;stroke-linecap:butt;stroke-linejoin:miter;stroke-opacity:1" d="M 772.028,122.422 778.893,128.429 z" id="boundary" inkscape:connector-curvature="0" />
	<path style="fill:none;stroke:red;stroke-width:1px;stroke-linecap:butt;stroke-linejoin:miter;stroke-opacity:1" d="M 778.893,128.429 784.9,135.294 z" id="boundary" inkscape:connector-curvature="0" />
	<path style="fill:none;stroke:red;stroke-width:1px;stroke-linecap:butt;stroke-linejoin:miter;stroke-opacity:1" d="M 784.9,135.294 789.19,143.017 z" id="boundary" inkscape:connector-curvature="0" />
	<path style="fill:none;stroke:red;stroke-width:1px;stroke-linecap:butt;stroke-linejoin:miter;stroke-opacity:1" d="M 789.19,143.017 794.339,149.882 z" id="boundary" inkscape:connector-curvature="0" />
	<path style="fill:none;stroke:red;stroke-width:1px;stroke-linecap:butt;stroke-linejoin:miter;stroke-opacity:1" d="M 794.339,149.882 802.062,154.173 z" id="boundary" inkscape:connector-curvature="0" />
	<path style="fill:none;stroke:red;stroke-width:1px;stroke-linecap:butt;stroke-linejoin:miter;stroke-opacity:1" d="M 802.062,154.173 808.927,159.322 z" id="boundary" inkscape:connector-curvature="0" />
	<path style="fill:none;stroke:red;stroke-width:1px;stroke-linecap:butt;stroke-linejoin:miter;stroke-opacity:1" d="M 808.927,159.322 817.509,162.754 z" id="boundary" inkscape:connector-curvature="0" />
	<path style="fill:none;stroke:red;stroke-width:1px;stroke-linecap:butt;stroke-linejoin:miter;stroke-opacity:1" d="M 817.509,162.754 826.09,158.464 z" id="boundary" inkscape:connector-curvature="0" />
	<path style="fill:none;stroke:red;stroke-width:1px;stroke-linecap:butt;stroke-linejoin:miter;stroke-opacity:1" d="M 826.09,158.464 834.671,158.464 z" id="boundary" inkscape:connector-curvature="0" />
	<path style="fill:none;stroke:red;stroke-width:1px;stroke-linecap:butt;stroke-linejoin:miter;stroke-opacity:1" d="M 834.671,158.464 843.253,158.464 z" id="boundary" inkscape:connector-curvature="0" />
	<path style="fill:none;stroke:red;stroke-width:1px;stroke-linecap:butt;stroke-linejoin:miter;stroke-opacity:1" d="M 843.253,158.464 850.976,154.173 z" id="boundary" inkscape:connector-curvature="0" />
	<path style="fill:none;stroke:red;stroke-width:1px;stroke-linecap:butt;stroke-linejoin:miter;stroke-opacity:1" d="M 850.976,154.173 859.557,154.173 z" id="boundary" inkscape:connector-curvature="0" />
	<path style="fill:none;stroke:red;stroke-width:1px;stroke-linecap:butt;stroke-linejoin:miter;stroke-opacity:1" d="M 859.557,154.173 868.138,154.173 z" id="boundary" inkscape:connector-curvature="0" />
	<path style="fill:none;stroke:red;stroke-width:1px;stroke-linecap:butt;stroke-linejoin:miter;stroke-opacity:1" d="M 868.138,154.173 876.72,150.74 z" id="boundary" inkscape:connector-curvature="0" />
	<path style="fill:none;stroke:red;stroke-width:1px;stroke-linecap:butt;stroke-linejoin:miter;stroke-opacity:1" d="M 876.72,150.74 885.301,149.882 z" id="boundary" inkscape:connector-curvature="0" />
	<path style="fill:none;stroke:red;stroke-width:1px;stroke-linecap:butt;stroke-linejoin:miter;stroke-opacity:1" d="M 885.301,149.882 893.882,149.882 z" id="boundary" inkscape:connector-curvature="0" />
	<path style="fill:none;stroke:red;stroke-width:1px;stroke-linecap:butt;stroke-linejoin:miter;stroke-opacity:1" d="M 893.882,149.882 902.464,146.45 z" id="boundary" inkscape:connector-curvature="0" />
	<path style="fill:none;stroke:red;stroke-width:1px;stroke-linecap:butt;stroke-linejoin:miter;stroke-opacity:1" d="M 902.464,146.45 911.045,142.159 z" id="boundary" inkscape:connector-curvature="0" />
	<path style="fill:none;stroke:red;stroke-width:1px;stroke-linecap:butt;stroke-linejoin:miter;stroke-opacity:1" d="M 911.045,142.159 919.626,141.301 z" id="boundary" inkscape:connector-curvature="0" />
	<path style="fill:none;stroke:red;stroke-width:1px;stroke-linecap:butt;stroke-linejoin:miter;stroke-opacity:1" d="M 919.626,141.301 928.208,137.869 z" id="boundary" inkscape:connector-curvature="0" />
	<path style="fill:none;stroke:red;stroke-width:1px;stroke-linecap:butt;stroke-linejoin:miter;stroke-opacity:1" d="M 928.208,137.869 936.789,137.01 z" id="boundary" inkscape:connector-curvature="0" />
	<path style="fill:none;stroke:red;stroke-width:1px;stroke-linecap:butt;stroke-linejoin:miter;stroke-opacity:1" d="M 936.789,137.01 945.37,137.01 z" id="boundary" inkscape:connector-curvature="0" />
	<path style="fill:none;stroke:red;stroke-width:1px;stroke-linecap:butt;stroke-linejoin:miter;stroke-opacity:1" d="M 945.37,137.01 953.952,133.578 z" id="boundary" inkscape:connector-curvature="0" />
	<path style="fill:none;stroke:red;stroke-width:1px;stroke-linecap:butt;stroke-linejoin:miter;stroke-opacity:1" d="M 953.952,133.578 962.533,132.72 z" id="boundary" inkscape:connector-curvature="0" />
	<path style="fill:none;stroke:red;stroke-width:1px;stroke-linecap:butt;stroke-linejoin:miter;stroke-opacity:1" d="M 962.533,132.72 971.114,132.72 z" id="boundary" inkscape:connector-curvature="0" />
	<path style="fill:none;stroke:red;stroke-width:1px;stroke-linecap:butt;stroke-linejoin:miter;stroke-opacity:1" d="M 971.114,132.72 974.547,141.301 z" id="boundary" inkscape:connector-curvature="0" />
	<path style="fill:none;stroke:red;stroke-width:1px;stroke-linecap:butt;stroke-linejoin:miter;stroke-opacity:1" d="M 974.547,141.301 978.837,149.024 z" id="boundary" inkscape:connector-curvature="0" />
	<path style="fill:none;stroke:red;stroke-width:1px;stroke-linecap:butt;stroke-linejoin:miter;stroke-opacity:1" d="M 978.837,149.024 983.128,156.747 z" id="boundary" inkscape:connector-curvature="0" />
	<path style="fill:none;stroke:red;stroke-width:1px;stroke-linecap:butt;stroke-linejoin:miter;stroke-opacity:1" d="M 983.128,156.747 983.128,165.329 z" id="boundary" inkscape:connector-curvature="0" />
	<path style="fill:none;stroke:red;stroke-width:1px;stroke-linecap:butt;stroke-linejoin:miter;stroke-opacity:1" d="M 983.128,165.329 983.128,173.91 z" id="boundary" inkscape:connector-curvature="0" />
	<path style="fill:none;stroke:red;stroke-width:1px;stroke-linecap:butt;stroke-linejoin:miter;stroke-opacity:1" d="M 983.128,173.91 987.419,181.633 z" id="boundary" inkscape:connector-curvature="0" />
	<path style="fill:none;stroke:red;stroke-width:1px;stroke-linecap:butt;stroke-linejoin:miter;stroke-opacity:1" d="M 987.419,181.633 987.419,190.215 z" id="boundary" inkscape:connector-curvature="0" />
	<path style="fill:none;stroke:red;stroke-width:1px;stroke-linecap:butt;stroke-linejoin:miter;stroke-opacity:1" d="M 987.419,190.215 989.993,198.796 z" id="boundary" inkscape:connector-curvature="0" />
	<path style="fill:none;stroke:red;stroke-width:1px;stroke-linecap:butt;stroke-linejoin:miter;stroke-opacity:1" d="M 989.993,198.796 991.709,207.377 z" id="boundary" inkscape:connector-curvature="0" />
	<path style="fill:none;stroke:red;stroke-width:1px;stroke-linecap:butt;stroke-linejoin:miter;stroke-opacity:1" d="M 991.709,207.377 996,215.1 z" id="boundary" inkscape:connector-curvature="0" />
	<path style="fill:none;stroke:red;stroke-width:1px;stroke-linecap:butt;stroke-linejoin:miter;stroke-opacity:1" d="M 996,215.1 996,223.682 z" id="boundary" inkscape:connector-curvature="0" />
	<path style="fill:none;stroke:red;stroke-width:1px;stroke-linecap:butt;stroke-linejoin:miter;stroke-opacity:1" d="M 996,223.682 996,232.263 z" id="boundary" inkscape:connector-curvature="0" />
	<path style="fill:none;stroke:red;stroke-width:1px;stroke-linecap:butt;stroke-linejoin:miter;stroke-opacity:1" d="M 996,232.263 996,240.844 z" id="boundary" inkscape:connector-curvature="0" />
	<circle cx="4" cy="268.304" r="4" fill="#0" id="circle0"/>
	<circle cx="4" cy="276.886" r="4" fill="#0" id="circle1"/>
	<circle cx="4" cy="285.467" r="4" fill="#0" id="circle2"/>
	<circle cx="4" cy="294.048" r="4" fill="#0" id="circle3"/>
	<circle cx="4" cy="302.63" r="4" fill="#0" id="circle4"/>
	<circle cx="4" cy="311.211" r="4" fill="#0" id="circle5"/>
	<circle cx="4" cy="319.792" r="4" fill="#0" id="circle6"/>
	<circle cx="4" cy="328.374" r="4" fill="#0" id="circle7"/>
	<circle cx="4" cy="336.955" r="4" fill="#0" id="circle8"/>
	<circle cx="4" cy="345.536" r="4" fill="#0" id="circle9"/>
	<circle cx="4" cy="354.118" r="4" fill="#0" id="circle10"/>
	<circle cx="4" cy="362.699" r="4" fill="#0" id="circle11"/>
	<circle cx="4" cy="371.28" r="4" fill="#0" id="circle12"/>
	<circle cx="4" cy="379.862" r="4" fill="#0" id="circle13"/>
	<circle cx="4" cy="388.443" r="4" fill="#0" id="circle14"/>
	<circle cx="4" cy="397.024" r="4" fill="#0" id="circle15"/>
	<circle cx="4" cy="405.606" r="4" fill="#0" id="circle16"/>
	<circle cx="10.8651" cy="261.439" r="4" fill="#0" id="circle17"/>
	<circle cx="10.8651" cy="411.612" r="4" fill="#0" id="circle18"/>
	<circle cx="17.7301" cy="254.574" r="4" fill="#0" id="circle19"/>
	<circle cx="17.7301" cy="416.761" r="4" fill="#0" id="circle20"/>
	<circle cx="24.5952" cy="248.567" r="4" fill="#0" id="circle21"/>
	<circle cx="26.3114" cy="416.761" r="4" fill="#0" id="circle22"/>
	<circle cx="30.6021" cy="241.702" r="4" fill="#0" id="circle23"/>
	<circle cx="34.8927" cy="412.471" r="4" fill="#0" id="circle24"/>
	<circle cx="37.4671" cy="235.696" r="4" fill="#0" id="circle25"/>
	<circle cx="43.474" cy="228.83" r="4" fill="#0" id="circle26"/>
	<circle cx="43.474" cy="408.18" r="4" fill="#0" id="circle27"/>
	<circle cx="52.0554" cy="224.54" r="4" fill="#0" id="circle28"/>
	<circle cx="52.0554" cy="408.18" r="4" fill="#0" id="circle29"/>
	<circle cx="58.9204" cy="218.533" r="4" fill="#0" id="circle30"/>
	<circle cx="60.6367" cy="408.18" r="4" fill="#0" id="circle31"/>
	<circle cx="66.6436" cy="214.242" r="4" fill="#0" id="circle32"/>
	<circle cx="69.218" cy="403.889" r="4" fill="#0" id="circle33"/>
	<circle cx="74.3668" cy="209.952" r="4" fill="#0" id="circle34"/>
	<circle cx="77.7993" cy="403.889" r="4" fill="#0" id="circle35"/>
	<circle cx="81.2318" cy="203.945" r="4" fill="#0" id="circle36"/>
	<circle cx="86.3806" cy="399.599" r="4" fill="#0" id="circle37"/>
	<circle cx="88.0969" cy="197.08" r="4" fill="#0" id="circle38"/>
	<circle cx="94.1038" cy="15.1557" r="4" fill="#0" id="circle39"/>
	<circle cx="94.9619" cy="190.215" r="4" fill="#0" id="circle40"/>
	<circle cx="94.9619" cy="399.599" r="4" fill="#0" id="circle41"/>
	<circle cx="98.3945" cy="22.8789" r="4" fill="#0" id="circle42"/>
	<circle cx="98.3945" cy="31.4602" r="4" fill="#0" id="circle43"/>
	<circle cx="98.3945" cy="40.0415" r="4" fill="#0" id="circle44"/>
	<circle cx="100.969" cy="8.29066" r="4" fill="#0" id="circle45"/>
	<circle cx="101.827" cy="184.208" r="4" fill="#0" id="circle46"/>
	<circle cx="102.685" cy="47.7647" r="4" fill="#0" id="circle47"/>
	<circle cx="102.685" cy="56.346" r="4" fill="#0" id="circle48"/>
	<circle cx="102.685" cy="64.9273" r="4" fill="#0" id="circle49"/>
	<circle cx="103.543" cy="395.308" r="4" fill="#0" id="circle50"/>
	<circle cx="105.26" cy="73.5087" r="4" fill="#0" id="circle51"/>
	<circle cx="106.976" cy="82.09" r="4" fill="#0" id="circle52"/>
	<circle cx="108.692" cy="4" r="4" fill="#0" id="circle53"/>
	<circle cx="109.55" cy="90.6713" r="4" fill="#0" id="circle54"/>
	<circle cx="109.55" cy="179.917" r="4" fill="#0" id="circle55"/>
	<circle cx="111.266" cy="99.2526" r="4" fill="#0" id="circle56"/>
	<circle cx="112.125" cy="395.308" r="4" fill="#0" id="circle57"/>
	<circle cx="113.841" cy="171.336" r="4" fill="#0" id="circle58"/>
	<circle cx="115.557" cy="106.976" r="4" fill="#0" id="circle59"/>
	<circle cx="117.273" cy="4" r="4" fill="#0" id="circle60"/>
	<circle cx="117.273" cy="115.557" r="4" fill="#0" id="circle61"/>
	<circle cx="118.131" cy="162.754" r="4" fill="#0" id="circle62"/>
	<circle cx="119.848" cy="124.138" r="4" fill="#0" id="circle63"/>
	<circle cx="119.848" cy="132.72" r="4" fill="#0" id="circle64"/>
	<circle cx="119.848" cy="141.301" r="4" fill="#0" id="circle65"/>
	<circle cx="119.848" cy="149.882" r="4" fill="#0" id="circle66"/>
	<circle cx="120.706" cy="391.017" r="4" fill="#0" id="circle67"/>
	<circle cx="125.855" cy="4" r="4" fill="#0" id="circle68"/>
	<circle cx="129.287" cy="391.017" r="4" fill="#0" id="circle69"/>
	<circle cx="133.578" cy="8.29066" r="4" fill="#0" id="circle70"/>
	<circle cx="137.869" cy="391.017" r="4" fill="#0" id="circle71"/>
	<circle cx="142.159" cy="8.29066" r="4" fill="#0" id="circle72"/>
	<circle cx="146.45" cy="391.017" r="4" fill="#0" id="circle73"/>
	<circle cx="150.74" cy="8.29066" r="4" fill="#0" id="circle74"/>
	<circle cx="155.031" cy="391.017" r="4" fill="#0" id="circle75"/>
	<circle cx="159.322" cy="8.29066" r="4" fill="#0" id="circle76"/>
	<circle cx="162.754" cy="386.727" r="4" fill="#0" id="circle77"/>
	<circle cx="167.903" cy="8.29066" r="4" fill="#0" id="circle78"/>
	<circle cx="171.336" cy="386.727" r="4" fill="#0" id="circle79"/>
	<circle cx="175.626" cy="12.5813" r="4" fill="#0" id="circle80"/>
	<circle cx="179.917" cy="386.727" r="4" fill="#0" id="circle81"/>
	<circle cx="184.208" cy="12.5813" r="4" fill="#0" id="circle82"/>
	<circle cx="188.498" cy="386.727" r="4" fill="#0" id="circle83"/>
	<circle cx="192.789" cy="12.5813" r="4" fill="#0" id="circle84"/>
	<circle cx="196.221" cy="391.017" r="4" fill="#0" id="circle85"/>
	<circle cx="201.37" cy="12.5813" r="4" fill="#0" id="circle86"/>
	<circle cx="202.228" cy="397.882" r="4" fill="#0" id="circle87"/>
	<circle cx="209.093" cy="403.889" r="4" fill="#0" id="circle88"/>
	<circle cx="209.952" cy="14.2976" r="4" fill="#0" id="circle89"/>
	<circle cx="216.817" cy="408.18" r="4" fill="#0" id="circle90"/>
	<circle cx="218.533" cy="16.872" r="4" fill="#0" id="circle91"/>
	<circle cx="225.398" cy="411.612" r="4" fill="#0" id="circle92"/>
	<circle cx="227.114" cy="16.872" r="4" fill="#0" id="circle93"/>
	<circle cx="232.263" cy="416.761" r="4" fill="#0" id="circle94"/>
	<circle cx="235.696" cy="16.872" r="4" fill="#0" id="circle95"/>
	<circle cx="239.986" cy="421.052" r="4" fill="#0" id="circle96"/>
	<circle cx="244.277" cy="16.872" r="4" fill="#0" id="circle97"/>
	<circle cx="248.567" cy="421.052" r="4" fill="#0" id="circle98"/>
	<circle cx="252.858" cy="18.5882" r="4" fill="#0" id="circle99"/>
	<circle cx="256.291" cy="425.343" r="4" fill="#0" id="circle100"/>
	<circle cx="258.007" cy="25.4533" r="4" fill="#0" id="circle101"/>
	<circle cx="262.298" cy="33.1765" r="4" fill="#0" id="circle102"/>
	<circle cx="264.014" cy="429.633" r="4" fill="#0" id="circle103"/>
	<circle cx="269.163" cy="39.1834" r="4" fill="#0" id="circle104"/>
	<circle cx="271.737" cy="433.924" r="4" fill="#0" id="circle105"/>
	<circle cx="275.17" cy="46.0484" r="4" fill="#0" id="circle106"/>
	<circle cx="279.46" cy="438.215" r="4" fill="#0" id="circle107"/>
	<circle cx="282.035" cy="52.0554" r="4" fill="#0" id="circle108"/>
	<circle cx="287.183" cy="442.505" r="4" fill="#0" id="circle109"/>
	<circle cx="288.042" cy="58.9204" r="4" fill="#0" id="circle110"/>
	<circle cx="292.332" cy="66.6436" r="4" fill="#0" id="circle111"/>
	<circle cx="294.907" cy="446.796" r="4" fill="#0" id="circle112"/>
	<circle cx="298.339" cy="73.5087" r="4" fill="#0" id="circle113"/>
	<circle cx="302.63" cy="81.2318" r="4" fill="#0" id="circle114"/>
	<circle cx="302.63" cy="451.087" r="4" fill="#0" id="circle115"/>
	<circle cx="310.353" cy="455.377" r="4" fill="#0" id="circle116"/>
	<circle cx="311.211" cy="81.2318" r="4" fill="#0" id="circle117"/>
	<circle cx="318.934" cy="457.952" r="4" fill="#0" id="circle118"/>
	<circle cx="319.792" cy="81.2318" r="4" fill="#0" id="circle119"/>
	<circle cx="327.516" cy="459.668" r="4" fill="#0" id="circle120"/>
	<circle cx="328.374" cy="81.2318" r="4" fill="#0" id="circle121"/>
	<circle cx="335.239" cy="463.958" r="4" fill="#0" id="circle122"/>
	<circle cx="336.955" cy="81.2318" r="4" fill="#0" id="circle123"/>
	<circle cx="343.82" cy="463.958" r="4" fill="#0" id="circle124"/>
	<circle cx="345.536" cy="81.2318" r="4" fill="#0" id="circle125"/>
	<circle cx="352.401" cy="463.958" r="4" fill="#0" id="circle126"/>
	<circle cx="354.118" cy="76.9412" r="4" fill="#0" id="circle127"/>
	<circle cx="360.983" cy="463.958" r="4" fill="#0" id="circle128"/>
	<circle cx="362.699" cy="76.9412" r="4" fill="#0" id="circle129"/>
	<circle cx="369.564" cy="463.958" r="4" fill="#0" id="circle130"/>
	<circle cx="371.28" cy="76.9412" r="4" fill="#0" id="circle131"/>
	<circle cx="378.145" cy="463.958" r="4" fill="#0" id="circle132"/>
	<circle cx="379.862" cy="76.9412" r="4" fill="#0" id="circle133"/>
	<circle cx="385.869" cy="459.668" r="4" fill="#0" id="circle134"/>
	<circle cx="388.443" cy="76.9412" r="4" fill="#0" id="circle135"/>
	<circle cx="394.45" cy="459.668" r="4" fill="#0" id="circle136"/>
	<circle cx="397.024" cy="76.9412" r="4" fill="#0" id="circle137"/>
	<circle cx="402.173" cy="455.377" r="4" fill="#0" id="circle138"/>
	<circle cx="405.606" cy="76.9412" r="4" fill="#0" id="circle139"/>
	<circle cx="410.754" cy="455.377" r="4" fill="#0" id="circle140"/>
	<circle cx="413.329" cy="72.6505" r="4" fill="#0" id="circle141"/>
	<circle cx="419.336" cy="455.377" r="4" fill="#0" id="circle142"/>
	<circle cx="421.91" cy="72.6505" r="4" fill="#0" id="circle143"/>
	<circle cx="427.917" cy="453.661" r="4" fill="#0" id="circle144"/>
	<circle cx="430.491" cy="72.6505" r="4" fill="#0" id="circle145"/>
	<circle cx="436.498" cy="451.087" r="4" fill="#0" id="circle146"/>
	<circle cx="439.073" cy="72.6505" r="4" fill="#0" id="circle147"/>
	<circle cx="445.08" cy="451.087" r="4" fill="#0" id="circle148"/>
	<circle cx="447.654" cy="72.6505" r="4" fill="#0" id="circle149"/>
	<circle cx="453.661" cy="449.37" r="4" fill="#0" id="circle150"/>
	<circle cx="456.235" cy="72.6505" r="4" fill="#0" id="circle151"/>
	<circle cx="462.242" cy="446.796" r="4" fill="#0" id="circle152"/>
	<circle cx="464.817" cy="72.6505" r="4" fill="#0" id="circle153"/>
	<circle cx="470.824" cy="446.796" r="4" fill="#0" id="circle154"/>
	<circle cx="473.398" cy="72.6505" r="4" fill="#0" id="circle155"/>
	<circle cx="478.547" cy="442.505" r="4" fill="#0" id="circle156"/>
	<circle cx="481.121" cy="68.3599" r="4" fill="#0" id="circle157"/>
	<circle cx="487.128" cy="442.505" r="4" fill="#0" id="circle158"/>
	<circle cx="489.702" cy="68.3599" r="4" fill="#0" id="circle159"/>
	<circle cx="494.851" cy="438.215" r="4" fill="#0" id="circle160"/>
	<circle cx="498.284" cy="68.3599" r="4" fill="#0" id="circle161"/>
	<circle cx="503.433" cy="438.215" r="4" fill="#0" id="circle162"/>
	<circle cx="506.865" cy="68.3599" r="4" fill="#0" id="circle163"/>
	<circle cx="512.014" cy="438.215" r="4" fill="#0" id="circle164"/>
	<circle cx="515.446" cy="68.3599" r="4" fill="#0" id="circle165"/>
	<circle cx="520.595" cy="438.215" r="4" fill="#0" id="circle166"/>
	<circle cx="524.028" cy="68.3599" r="4" fill="#0" id="circle167"/>
	<circle cx="528.318" cy="433.924" r="4" fill="#0" id="circle168"/>
	<circle cx="532.609" cy="68.3599" r="4" fill="#0" id="circle169"/>
	<circle cx="536.9" cy="429.633" r="4" fill="#0" id="circle170"/>
	<circle cx="541.19" cy="68.3599" r="4" fill="#0" id="circle171"/>
	<circle cx="545.481" cy="429.633" r="4" fill="#0" id="circle172"/>
	<circle cx="549.772" cy="68.3599" r="4" fill="#0" id="circle173"/>
	<circle cx="553.204" cy="425.343" r="4" fill="#0" id="circle174"/>
	<circle cx="558.353" cy="68.3599" r="4" fill="#0" id="circle175"/>
	<circle cx="560.927" cy="421.052" r="4" fill="#0" id="circle176"/>
	<circle cx="566.934" cy="68.3599" r="4" fill="#0" id="circle177"/>
	<circle cx="569.509" cy="419.336" r="4" fill="#0" id="circle178"/>
	<circle cx="575.516" cy="68.3599" r="4" fill="#0" id="circle179"/>
	<circle cx="578.09" cy="416.761" r="4" fill="#0" id="circle180"/>
	<circle cx="584.097" cy="68.3599" r="4" fill="#0" id="circle181"/>
	<circle cx="586.671" cy="416.761" r="4" fill="#0" id="circle182"/>
	<circle cx="592.678" cy="68.3599" r="4" fill="#0" id="circle183"/>
	<circle cx="594.394" cy="412.471" r="4" fill="#0" id="circle184"/>
	<circle cx="600.401" cy="64.0692" r="4" fill="#0" id="circle185"/>
	<circle cx="602.976" cy="412.471" r="4" fill="#0" id="circle186"/>
	<circle cx="608.983" cy="64.0692" r="4" fill="#0" id="circle187"/>
	<circle cx="611.557" cy="412.471" r="4" fill="#0" id="circle188"/>
	<circle cx="617.564" cy="64.0692" r="4" fill="#0" id="circle189"/>
	<circle cx="620.138" cy="412.471" r="4" fill="#0" id="circle190"/>
	<circle cx="626.145" cy="64.0692" r="4" fill="#0" id="circle191"/>
	<circle cx="628.72" cy="412.471" r="4" fill="#0" id="circle192"/>
	<circle cx="634.727" cy="64.0692" r="4" fill="#0" id="circle193"/>
	<circle cx="637.301" cy="412.471" r="4" fill="#0" id="circle194"/>
	<circle cx="643.308" cy="64.0692" r="4" fill="#0" id="circle195"/>
	<circle cx="645.024" cy="416.761" r="4" fill="#0" id="circle196"/>
	<circle cx="651.889" cy="64.0692" r="4" fill="#0" id="circle197"/>
	<circle cx="653.606" cy="419.336" r="4" fill="#0" id="circle198"/>
	<circle cx="660.471" cy="64.0692" r="4" fill="#0" id="circle199"/>
	<circle cx="661.329" cy="423.626" r="4" fill="#0" id="circle200"/>
	<circle cx="668.194" cy="429.633" r="4" fill="#0" id="circle201"/>
	<circle cx="669.052" cy="64.0692" r="4" fill="#0" id="circle202"/>
	<circle cx="675.917" cy="433.924" r="4" fill="#0" id="circle203"/>
	<circle cx="677.633" cy="64.0692" r="4" fill="#0" id="circle204"/>
	<circle cx="684.498" cy="437.356" r="4" fill="#0" id="circle205"/>
	<circle cx="686.215" cy="64.0692" r="4" fill="#0" id="circle206"/>
	<circle cx="693.08" cy="438.215" r="4" fill="#0" id="circle207"/>
	<circle cx="694.796" cy="64.0692" r="4" fill="#0" id="circle208"/>
	<circle cx="699.945" cy="444.221" r="4" fill="#0" id="circle209"/>
	<circle cx="702.519" cy="68.3599" r="4" fill="#0" id="circle210"/>
	<circle cx="707.668" cy="448.512" r="4" fill="#0" id="circle211"/>
	<circle cx="710.242" cy="72.6505" r="4" fill="#0" id="circle212"/>
	<circle cx="714.533" cy="454.519" r="4" fill="#0" id="circle213"/>
	<circle cx="717.965" cy="76.9412" r="4" fill="#0" id="circle214"/>
	<circle cx="722.256" cy="458.81" r="4" fill="#0" id="circle215"/>
	<circle cx="725.689" cy="81.2318" r="4" fill="#0" id="circle216"/>
	<circle cx="730.837" cy="459.668" r="4" fill="#0" id="circle217"/>
	<circle cx="732.554" cy="86.3806" r="4" fill="#0" id="circle218"/>
	<circle cx="738.561" cy="93.2457" r="4" fill="#0" id="circle219"/>
	<circle cx="738.561" cy="463.958" r="4" fill="#0" id="circle220"/>
	<circle cx="745.426" cy="98.3945" r="4" fill="#0" id="circle221"/>
	<circle cx="746.284" cy="468.249" r="4" fill="#0" id="circle222"/>
	<circle cx="753.149" cy="102.685" r="4" fill="#0" id="circle223"/>
	<circle cx="754.007" cy="472.54" r="4" fill="#0" id="circle224"/>
	<circle cx="759.156" cy="109.55" r="4" fill="#0" id="circle225"/>
	<circle cx="761.73" cy="476.83" r="4" fill="#0" id="circle226"/>
	<circle cx="766.021" cy="115.557" r="4" fill="#0" id="circle227"/>
	<circle cx="770.311" cy="480.263" r="4" fill="#0" id="circle228"/>
	<circle cx="772.028" cy="122.422" r="4" fill="#0" id="circle229"/>
	<circle cx="778.893" cy="128.429" r="4" fill="#0" id="circle230"/>
	<circle cx="778.893" cy="481.121" r="4" fill="#0" id="circle231"/>
	<circle cx="784.9" cy="135.294" r="4" fill="#0" id="circle232"/>
	<circle cx="786.616" cy="485.412" r="4" fill="#0" id="circle233"/>
	<circle cx="789.19" cy="143.017" r="4" fill="#0" id="circle234"/>
	<circle cx="794.339" cy="149.882" r="4" fill="#0" id="circle235"/>
	<circle cx="795.197" cy="487.986" r="4" fill="#0" id="circle236"/>
	<circle cx="802.062" cy="154.173" r="4" fill="#0" id="circle237"/>
	<circle cx="803.779" cy="489.702" r="4" fill="#0" id="circle238"/>
	<circle cx="808.927" cy="159.322" r="4" fill="#0" id="circle239"/>
	<circle cx="812.36" cy="489.702" r="4" fill="#0" id="circle240"/>
	<circle cx="817.509" cy="162.754" r="4" fill="#0" id="circle241"/>
	<circle cx="820.941" cy="489.702" r="4" fill="#0" id="circle242"/>
	<circle cx="826.09" cy="158.464" r="4" fill="#0" id="circle243"/>
	<circle cx="829.522" cy="489.702" r="4" fill="#0" id="circle244"/>
	<circle cx="834.671" cy="158.464" r="4" fill="#0" id="circle245"/>
	<circle cx="838.104" cy="489.702" r="4" fill="#0" id="circle246"/>
	<circle cx="843.253" cy="158.464" r="4" fill="#0" id="circle247"/>
	<circle cx="845.827" cy="485.412" r="4" fill="#0" id="circle248"/>
	<circle cx="850.976" cy="154.173" r="4" fill="#0" id="circle249"/>
	<circle cx="854.408" cy="485.412" r="4" fill="#0" id="circle250"/>
	<circle cx="859.557" cy="154.173" r="4" fill="#0" id="circle251"/>
	<circle cx="862.99" cy="485.412" r="4" fill="#0" id="circle252"/>
	<circle cx="868.138" cy="154.173" r="4" fill="#0" id="circle253"/>
	<circle cx="870.713" cy="481.121" r="4" fill="#0" id="circle254"/>
	<circle cx="876.72" cy="150.74" r="4" fill="#0" id="circle255"/>
	<circle cx="879.294" cy="481.121" r="4" fill="#0" id="circle256"/>
	<circle cx="885.301" cy="149.882" r="4" fill="#0" id="circle257"/>
	<circle cx="887.017" cy="476.83" r="4" fill="#0" id="circle258"/>
	<circle cx="893.882" cy="149.882" r="4" fill="#0" id="circle259"/>
	<circle cx="895.599" cy="476.83" r="4" fill="#0" id="circle260"/>
	<circle cx="902.464" cy="146.45" r="4" fill="#0" id="circle261"/>
	<circle cx="904.18" cy="476.83" r="4" fill="#0" id="circle262"/>
	<circle cx="911.045" cy="142.159" r="4" fill="#0" id="circle263"/>
	<circle cx="911.903" cy="472.54" r="4" fill="#0" id="circle264"/>
	<circle cx="918.768" cy="352.401" r="4" fill="#0" id="circle265"/>
	<circle cx="918.768" cy="360.983" r="4" fill="#0" id="circle266"/>
	<circle cx="918.768" cy="369.564" r="4" fill="#0" id="circle267"/>
	<circle cx="919.626" cy="141.301" r="4" fill="#0" id="circle268"/>
	<circle cx="919.626" cy="468.249" r="4" fill="#0" id="circle269"/>
	<circle cx="923.059" cy="377.287" r="4" fill="#0" id="circle270"/>
	<circle cx="923.059" cy="385.869" r="4" fill="#0" id="circle271"/>
	<circle cx="923.059" cy="394.45" r="4" fill="#0" id="circle272"/>
	<circle cx="923.059" cy="403.031" r="4" fill="#0" id="circle273"/>
	<circle cx="923.059" cy="411.612" r="4" fill="#0" id="circle274"/>
	<circle cx="923.059" cy="420.194" r="4" fill="#0" id="circle275"/>
	<circle cx="923.059" cy="428.775" r="4" fill="#0" id="circle276"/>
	<circle cx="923.059" cy="437.356" r="4" fill="#0" id="circle277"/>
	<circle cx="925.633" cy="346.394" r="4" fill="#0" id="circle278"/>
	<circle cx="926.491" cy="461.384" r="4" fill="#0" id="circle279"/>
	<circle cx="927.349" cy="445.08" r="4" fill="#0" id="circle280"/>
	<circle cx="928.208" cy="137.869" r="4" fill="#0" id="circle281"/>
	<circle cx="929.924" cy="337.813" r="4" fill="#0" id="circle282"/>
	<circle cx="935.931" cy="330.948" r="4" fill="#0" id="circle283"/>
	<circle cx="936.789" cy="137.01" r="4" fill="#0" id="circle284"/>
	<circle cx="942.796" cy="324.941" r="4" fill="#0" id="circle285"/>
	<circle cx="945.37" cy="137.01" r="4" fill="#0" id="circle286"/>
	<circle cx="948.803" cy="313.785" r="4" fill="#0" id="circle287"/>
	<circle cx="953.952" cy="133.578" r="4" fill="#0" id="circle288"/>
	<circle cx="955.668" cy="307.779" r="4" fill="#0" id="circle289"/>
	<circle cx="961.675" cy="300.913" r="4" fill="#0" id="circle290"/>
	<circle cx="962.533" cy="132.72" r="4" fill="#0" id="circle291"/>
	<circle cx="968.54" cy="294.907" r="4" fill="#0" id="circle292"/>
	<circle cx="971.114" cy="132.72" r="4" fill="#0" id="circle293"/>
	<circle cx="974.547" cy="141.301" r="4" fill="#0" id="circle294"/>
	<circle cx="974.547" cy="288.042" r="4" fill="#0" id="circle295"/>
	<circle cx="978.837" cy="149.024" r="4" fill="#0" id="circle296"/>
	<circle cx="978.837" cy="279.46" r="4" fill="#0" id="circle297"/>
	<circle cx="983.128" cy="156.747" r="4" fill="#0" id="circle298"/>
	<circle cx="983.128" cy="165.329" r="4" fill="#0" id="circle299"/>
	<circle cx="983.128" cy="173.91" r="4" fill="#0" id="circle300"/>
	<circle cx="985.702" cy="273.453" r="4" fill="#0" id="circle301"/>
	<circle cx="987.419" cy="181.633" r="4" fill="#0" id="circle302"/>
	<circle cx="987.419" cy="190.215" r="4" fill="#0" id="circle303"/>
	<circle cx="989.993" cy="198.796" r="4" fill="#0" id="circle304"/>
	<circle cx="991.709" cy="207.377" r="4" fill="#0" id="circle305"/>
	<circle cx="991.709" cy="262.298" r="4" fill="#0" id="circle306"/>
	<circle cx="996" cy="215.1" r="4" fill="#0" id="circle307"/>
	<circle cx="996" cy="223.682" r="4" fill="#0" id="circle308"/>
	<circle cx="996" cy="232.263" r="4" fill="#0" id="circle309"/>
	<circle cx="996" cy="240.844" r="4" fill="#0" id="circle310"/>
	<circle cx="996" cy="249.426" r="4" fill="#0" id="circle311"/>
	</g>
</svg>