<?xml version="1.0" encoding="UTF-8" standalone="no"?>
<!-- Created with CurveBenchmark -->
<svg
	xmlns:dc="http://purl.org/dc/elements/1.1/"
	xmlns:cc="http://creativecommons.org/ns#"
	xmlns:rdf="http://www.w3.org/1999/02/22-rdf-syntax-ns#"
	xmlns:svg="http://www.w3.org/2000/svg"
	xmlns="http://www.w3.org/2000/svg"
	xmlns:sodipodi="http://sodipodi.sourceforge.net/DTD/sodipodi-0.dtd"
	xmlns:inkscape="http://www.inkscape.org/namespaces/inkscape"
	width="1000"
	height="1000"
	id="svg2"
	version="1.1"
	sodipodi:docname="manifold/connect2d-fish175.png.txt">
<defs
	id="defs4" />
<metadata
	id="metadata7">
	<rdf:RDF>
		<cc:Work
			rdf:about="">
			<dc:format>image/svg+xml</dc:format>
			<dc:type
				rdf:resource="http://purl.org/dc/dcmitype/StillImage" />
			<dc:title></dc:title>
		</cc:Work>
	</rdf:RDF>
</metadata>
<g
	inkscape:label="Layer 1"
	inkscape:groupmode="layer"
	id="layer1">
	<path style="fill:none;stroke:red;stroke-width:1px;stroke-linecap:butt;stroke-linejoin:miter;stroke-opacity:1" d="M 984.727,195.636 996,232.273 z" id="boundary" inkscape:connector-curvature="0" />
	<path style="fill:none;stroke:red;stroke-width:1px;stroke-linecap:butt;stroke-linejoin:miter;stroke-opacity:1" d="M 996,232.273 973.455,254.818 z" id="boundary" inkscape:connector-curvature="0" />
	<path style="fill:none;stroke:red;stroke-width:1px;stroke-linecap:butt;stroke-linejoin:miter;stroke-opacity:1" d="M 973.455,254.818 950.909,277.364 z" id="boundary" inkscape:connector-curvature="0" />
	<path style="fill:none;stroke:red;stroke-width:1px;stroke-linecap:butt;stroke-linejoin:miter;stroke-opacity:1" d="M 950.909,277.364 928.364,299.909 z" id="boundary" inkscape:connector-curvature="0" />
	<path style="fill:none;stroke:red;stroke-width:1px;stroke-linecap:butt;stroke-linejoin:miter;stroke-opacity:1" d="M 928.364,299.909 903,314 z" id="boundary" inkscape:connector-curvature="0" />
	<path style="fill:none;stroke:red;stroke-width:1px;stroke-linecap:butt;stroke-linejoin:miter;stroke-opacity:1" d="M 903,314 874.818,322.455 z" id="boundary" inkscape:connector-curvature="0" />
	<path style="fill:none;stroke:red;stroke-width:1px;stroke-linecap:butt;stroke-linejoin:miter;stroke-opacity:1" d="M 874.818,322.455 846.636,330.909 z" id="boundary" inkscape:connector-curvature="0" />
	<path style="fill:none;stroke:red;stroke-width:1px;stroke-linecap:butt;stroke-linejoin:miter;stroke-opacity:1" d="M 846.636,330.909 821.273,345 z" id="boundary" inkscape:connector-curvature="0" />
	<path style="fill:none;stroke:red;stroke-width:1px;stroke-linecap:butt;stroke-linejoin:miter;stroke-opacity:1" d="M 821.273,345 793.091,356.273 z" id="boundary" inkscape:connector-curvature="0" />
	<path style="fill:none;stroke:red;stroke-width:1px;stroke-linecap:butt;stroke-linejoin:miter;stroke-opacity:1" d="M 793.091,356.273 764.909,361.909 z" id="boundary" inkscape:connector-curvature="0" />
	<path style="fill:none;stroke:red;stroke-width:1px;stroke-linecap:butt;stroke-linejoin:miter;stroke-opacity:1" d="M 764.909,361.909 736.727,361.909 z" id="boundary" inkscape:connector-curvature="0" />
	<path style="fill:none;stroke:red;stroke-width:1px;stroke-linecap:butt;stroke-linejoin:miter;stroke-opacity:1" d="M 736.727,361.909 711.364,376 z" id="boundary" inkscape:connector-curvature="0" />
	<path style="fill:none;stroke:red;stroke-width:1px;stroke-linecap:butt;stroke-linejoin:miter;stroke-opacity:1" d="M 711.364,376 694.455,404.182 z" id="boundary" inkscape:connector-curvature="0" />
	<path style="fill:none;stroke:red;stroke-width:1px;stroke-linecap:butt;stroke-linejoin:miter;stroke-opacity:1" d="M 694.455,404.182 674.727,429.545 z" id="boundary" inkscape:connector-curvature="0" />
	<path style="fill:none;stroke:red;stroke-width:1px;stroke-linecap:butt;stroke-linejoin:miter;stroke-opacity:1" d="M 674.727,429.545 652.182,446.455 z" id="boundary" inkscape:connector-curvature="0" />
	<path style="fill:none;stroke:red;stroke-width:1px;stroke-linecap:butt;stroke-linejoin:miter;stroke-opacity:1" d="M 652.182,446.455 624,460.545 z" id="boundary" inkscape:connector-curvature="0" />
	<path style="fill:none;stroke:red;stroke-width:1px;stroke-linecap:butt;stroke-linejoin:miter;stroke-opacity:1" d="M 624,460.545 595.818,457.727 z" id="boundary" inkscape:connector-curvature="0" />
	<path style="fill:none;stroke:red;stroke-width:1px;stroke-linecap:butt;stroke-linejoin:miter;stroke-opacity:1" d="M 595.818,457.727 573.273,440.818 z" id="boundary" inkscape:connector-curvature="0" />
	<path style="fill:none;stroke:red;stroke-width:1px;stroke-linecap:butt;stroke-linejoin:miter;stroke-opacity:1" d="M 573.273,440.818 567.636,412.636 z" id="boundary" inkscape:connector-curvature="0" />
	<path style="fill:none;stroke:red;stroke-width:1px;stroke-linecap:butt;stroke-linejoin:miter;stroke-opacity:1" d="M 567.636,412.636 567.636,384.455 z" id="boundary" inkscape:connector-curvature="0" />
	<path style="fill:none;stroke:red;stroke-width:1px;stroke-linecap:butt;stroke-linejoin:miter;stroke-opacity:1" d="M 567.636,384.455 559.182,356.273 z" id="boundary" inkscape:connector-curvature="0" />
	<path style="fill:none;stroke:red;stroke-width:1px;stroke-linecap:butt;stroke-linejoin:miter;stroke-opacity:1" d="M 559.182,356.273 531,356.273 z" id="boundary" inkscape:connector-curvature="0" />
	<path style="fill:none;stroke:red;stroke-width:1px;stroke-linecap:butt;stroke-linejoin:miter;stroke-opacity:1" d="M 531,356.273 502.818,356.273 z" id="boundary" inkscape:connector-curvature="0" />
	<path style="fill:none;stroke:red;stroke-width:1px;stroke-linecap:butt;stroke-linejoin:miter;stroke-opacity:1" d="M 502.818,356.273 474.636,350.636 z" id="boundary" inkscape:connector-curvature="0" />
	<path style="fill:none;stroke:red;stroke-width:1px;stroke-linecap:butt;stroke-linejoin:miter;stroke-opacity:1" d="M 474.636,350.636 446.455,350.636 z" id="boundary" inkscape:connector-curvature="0" />
	<path style="fill:none;stroke:red;stroke-width:1px;stroke-linecap:butt;stroke-linejoin:miter;stroke-opacity:1" d="M 446.455,350.636 418.273,350.636 z" id="boundary" inkscape:connector-curvature="0" />
	<path style="fill:none;stroke:red;stroke-width:1px;stroke-linecap:butt;stroke-linejoin:miter;stroke-opacity:1" d="M 418.273,350.636 390.091,345 z" id="boundary" inkscape:connector-curvature="0" />
	<path style="fill:none;stroke:red;stroke-width:1px;stroke-linecap:butt;stroke-linejoin:miter;stroke-opacity:1" d="M 390.091,345 361.909,353.455 z" id="boundary" inkscape:connector-curvature="0" />
	<path style="fill:none;stroke:red;stroke-width:1px;stroke-linecap:butt;stroke-linejoin:miter;stroke-opacity:1" d="M 361.909,353.455 333.727,361.909 z" id="boundary" inkscape:connector-curvature="0" />
	<path style="fill:none;stroke:red;stroke-width:1px;stroke-linecap:butt;stroke-linejoin:miter;stroke-opacity:1" d="M 333.727,361.909 305.545,367.545 z" id="boundary" inkscape:connector-curvature="0" />
	<path style="fill:none;stroke:red;stroke-width:1px;stroke-linecap:butt;stroke-linejoin:miter;stroke-opacity:1" d="M 305.545,367.545 277.364,367.545 z" id="boundary" inkscape:connector-curvature="0" />
	<path style="fill:none;stroke:red;stroke-width:1px;stroke-linecap:butt;stroke-linejoin:miter;stroke-opacity:1" d="M 277.364,367.545 249.182,359.091 z" id="boundary" inkscape:connector-curvature="0" />
	<path style="fill:none;stroke:red;stroke-width:1px;stroke-linecap:butt;stroke-linejoin:miter;stroke-opacity:1" d="M 249.182,359.091 235.091,333.727 z" id="boundary" inkscape:connector-curvature="0" />
	<path style="fill:none;stroke:red;stroke-width:1px;stroke-linecap:butt;stroke-linejoin:miter;stroke-opacity:1" d="M 235.091,333.727 223.818,305.545 z" id="boundary" inkscape:connector-curvature="0" />
	<path style="fill:none;stroke:red;stroke-width:1px;stroke-linecap:butt;stroke-linejoin:miter;stroke-opacity:1" d="M 223.818,305.545 218.182,277.364 z" id="boundary" inkscape:connector-curvature="0" />
	<path style="fill:none;stroke:red;stroke-width:1px;stroke-linecap:butt;stroke-linejoin:miter;stroke-opacity:1" d="M 218.182,277.364 190,277.364 z" id="boundary" inkscape:connector-curvature="0" />
	<path style="fill:none;stroke:red;stroke-width:1px;stroke-linecap:butt;stroke-linejoin:miter;stroke-opacity:1" d="M 190,277.364 161.818,288.636 z" id="boundary" inkscape:connector-curvature="0" />
	<path style="fill:none;stroke:red;stroke-width:1px;stroke-linecap:butt;stroke-linejoin:miter;stroke-opacity:1" d="M 161.818,288.636 139.273,305.545 z" id="boundary" inkscape:connector-curvature="0" />
	<path style="fill:none;stroke:red;stroke-width:1px;stroke-linecap:butt;stroke-linejoin:miter;stroke-opacity:1" d="M 139.273,305.545 113.909,319.636 z" id="boundary" inkscape:connector-curvature="0" />
	<path style="fill:none;stroke:red;stroke-width:1px;stroke-linecap:butt;stroke-linejoin:miter;stroke-opacity:1" d="M 113.909,319.636 85.7273,328.091 z" id="boundary" inkscape:connector-curvature="0" />
	<path style="fill:none;stroke:red;stroke-width:1px;stroke-linecap:butt;stroke-linejoin:miter;stroke-opacity:1" d="M 85.7273,328.091 57.5455,339.364 z" id="boundary" inkscape:connector-curvature="0" />
	<path style="fill:none;stroke:red;stroke-width:1px;stroke-linecap:butt;stroke-linejoin:miter;stroke-opacity:1" d="M 57.5455,339.364 29.3636,339.364 z" id="boundary" inkscape:connector-curvature="0" />
	<path style="fill:none;stroke:red;stroke-width:1px;stroke-linecap:butt;stroke-linejoin:miter;stroke-opacity:1" d="M 29.3636,339.364 4,325.273 z" id="boundary" inkscape:connector-curvature="0" />
	<path style="fill:none;stroke:red;stroke-width:1px;stroke-linecap:butt;stroke-linejoin:miter;stroke-opacity:1" d="M 4,325.273 15.2727,291.455 z" id="boundary" inkscape:connector-curvature="0" />
	<path style="fill:none;stroke:red;stroke-width:1px;stroke-linecap:butt;stroke-linejoin:miter;stroke-opacity:1" d="M 15.2727,291.455 26.5455,246.364 z" id="boundary" inkscape:connector-curvature="0" />
	<path style="fill:none;stroke:red;stroke-width:1px;stroke-linecap:butt;stroke-linejoin:miter;stroke-opacity:1" d="M 26.5455,246.364 26.5455,218.182 z" id="boundary" inkscape:connector-curvature="0" />
	<path style="fill:none;stroke:red;stroke-width:1px;stroke-linecap:butt;stroke-linejoin:miter;stroke-opacity:1" d="M 26.5455,218.182 20.9091,190 z" id="boundary" inkscape:connector-curvature="0" />
	<path style="fill:none;stroke:red;stroke-width:1px;stroke-linecap:butt;stroke-linejoin:miter;stroke-opacity:1" d="M 20.9091,190 12.4545,161.818 z" id="boundary" inkscape:connector-curvature="0" />
	<path style="fill:none;stroke:red;stroke-width:1px;stroke-linecap:butt;stroke-linejoin:miter;stroke-opacity:1" d="M 12.4545,161.818 4,133.636 z" id="boundary" inkscape:connector-curvature="0" />
	<path style="fill:none;stroke:red;stroke-width:1px;stroke-linecap:butt;stroke-linejoin:miter;stroke-opacity:1" d="M 4,133.636 32.1818,122.364 z" id="boundary" inkscape:connector-curvature="0" />
	<path style="fill:none;stroke:red;stroke-width:1px;stroke-linecap:butt;stroke-linejoin:miter;stroke-opacity:1" d="M 32.1818,122.364 60.3636,128 z" id="boundary" inkscape:connector-curvature="0" />
	<path style="fill:none;stroke:red;stroke-width:1px;stroke-linecap:butt;stroke-linejoin:miter;stroke-opacity:1" d="M 60.3636,128 88.5455,139.273 z" id="boundary" inkscape:connector-curvature="0" />
	<path style="fill:none;stroke:red;stroke-width:1px;stroke-linecap:butt;stroke-linejoin:miter;stroke-opacity:1" d="M 88.5455,139.273 116.727,150.545 z" id="boundary" inkscape:connector-curvature="0" />
	<path style="fill:none;stroke:red;stroke-width:1px;stroke-linecap:butt;stroke-linejoin:miter;stroke-opacity:1" d="M 116.727,150.545 144.909,161.818 z" id="boundary" inkscape:connector-curvature="0" />
	<path style="fill:none;stroke:red;stroke-width:1px;stroke-linecap:butt;stroke-linejoin:miter;stroke-opacity:1" d="M 144.909,161.818 170.273,175.909 z" id="boundary" inkscape:connector-curvature="0" />
	<path style="fill:none;stroke:red;stroke-width:1px;stroke-linecap:butt;stroke-linejoin:miter;stroke-opacity:1" d="M 170.273,175.909 198.455,184.364 z" id="boundary" inkscape:connector-curvature="0" />
	<path style="fill:none;stroke:red;stroke-width:1px;stroke-linecap:butt;stroke-linejoin:miter;stroke-opacity:1" d="M 198.455,184.364 223.818,167.455 z" id="boundary" inkscape:connector-curvature="0" />
	<path style="fill:none;stroke:red;stroke-width:1px;stroke-linecap:butt;stroke-linejoin:miter;stroke-opacity:1" d="M 223.818,167.455 240.727,144.909 z" id="boundary" inkscape:connector-curvature="0" />
	<path style="fill:none;stroke:red;stroke-width:1px;stroke-linecap:butt;stroke-linejoin:miter;stroke-opacity:1" d="M 240.727,144.909 263.273,122.364 z" id="boundary" inkscape:connector-curvature="0" />
	<path style="fill:none;stroke:red;stroke-width:1px;stroke-linecap:butt;stroke-linejoin:miter;stroke-opacity:1" d="M 263.273,122.364 285.818,105.455 z" id="boundary" inkscape:connector-curvature="0" />
	<path style="fill:none;stroke:red;stroke-width:1px;stroke-linecap:butt;stroke-linejoin:miter;stroke-opacity:1" d="M 285.818,105.455 308.364,88.5455 z" id="boundary" inkscape:connector-curvature="0" />
	<path style="fill:none;stroke:red;stroke-width:1px;stroke-linecap:butt;stroke-linejoin:miter;stroke-opacity:1" d="M 308.364,88.5455 336.545,77.2727 z" id="boundary" inkscape:connector-curvature="0" />
	<path style="fill:none;stroke:red;stroke-width:1px;stroke-linecap:butt;stroke-linejoin:miter;stroke-opacity:1" d="M 336.545,77.2727 364.727,82.9091 z" id="boundary" inkscape:connector-curvature="0" />
	<path style="fill:none;stroke:red;stroke-width:1px;stroke-linecap:butt;stroke-linejoin:miter;stroke-opacity:1" d="M 364.727,82.9091 392.909,91.3636 z" id="boundary" inkscape:connector-curvature="0" />
	<path style="fill:none;stroke:red;stroke-width:1px;stroke-linecap:butt;stroke-linejoin:miter;stroke-opacity:1" d="M 392.909,91.3636 418.273,105.455 z" id="boundary" inkscape:connector-curvature="0" />
	<path style="fill:none;stroke:red;stroke-width:1px;stroke-linecap:butt;stroke-linejoin:miter;stroke-opacity:1" d="M 418.273,105.455 443.636,88.5455 z" id="boundary" inkscape:connector-curvature="0" />
	<path style="fill:none;stroke:red;stroke-width:1px;stroke-linecap:butt;stroke-linejoin:miter;stroke-opacity:1" d="M 443.636,88.5455 466.182,71.6364 z" id="boundary" inkscape:connector-curvature="0" />
	<path style="fill:none;stroke:red;stroke-width:1px;stroke-linecap:butt;stroke-linejoin:miter;stroke-opacity:1" d="M 466.182,71.6364 494.364,63.1818 z" id="boundary" inkscape:connector-curvature="0" />
	<path style="fill:none;stroke:red;stroke-width:1px;stroke-linecap:butt;stroke-linejoin:miter;stroke-opacity:1" d="M 494.364,63.1818 522.545,57.5455 z" id="boundary" inkscape:connector-curvature="0" />
	<path style="fill:none;stroke:red;stroke-width:1px;stroke-linecap:butt;stroke-linejoin:miter;stroke-opacity:1" d="M 522.545,57.5455 547.909,40.6364 z" id="boundary" inkscape:connector-curvature="0" />
	<path style="fill:none;stroke:red;stroke-width:1px;stroke-linecap:butt;stroke-linejoin:miter;stroke-opacity:1" d="M 547.909,40.6364 576.091,29.3636 z" id="boundary" inkscape:connector-curvature="0" />
	<path style="fill:none;stroke:red;stroke-width:1px;stroke-linecap:butt;stroke-linejoin:miter;stroke-opacity:1" d="M 576.091,29.3636 604.273,26.5455 z" id="boundary" inkscape:connector-curvature="0" />
	<path style="fill:none;stroke:red;stroke-width:1px;stroke-linecap:butt;stroke-linejoin:miter;stroke-opacity:1" d="M 604.273,26.5455 626.818,9.63636 z" id="boundary" inkscape:connector-curvature="0" />
	<path style="fill:none;stroke:red;stroke-width:1px;stroke-linecap:butt;stroke-linejoin:miter;stroke-opacity:1" d="M 626.818,9.63636 655,4 z" id="boundary" inkscape:connector-curvature="0" />
	<path style="fill:none;stroke:red;stroke-width:1px;stroke-linecap:butt;stroke-linejoin:miter;stroke-opacity:1" d="M 655,4 674.727,26.5455 z" id="boundary" inkscape:connector-curvature="0" />
	<path style="fill:none;stroke:red;stroke-width:1px;stroke-linecap:butt;stroke-linejoin:miter;stroke-opacity:1" d="M 674.727,26.5455 688.818,51.9091 z" id="boundary" inkscape:connector-curvature="0" />
	<path style="fill:none;stroke:red;stroke-width:1px;stroke-linecap:butt;stroke-linejoin:miter;stroke-opacity:1" d="M 688.818,51.9091 711.364,68.8182 z" id="boundary" inkscape:connector-curvature="0" />
	<path style="fill:none;stroke:red;stroke-width:1px;stroke-linecap:butt;stroke-linejoin:miter;stroke-opacity:1" d="M 711.364,68.8182 711.364,97 z" id="boundary" inkscape:connector-curvature="0" />
	<path style="fill:none;stroke:red;stroke-width:1px;stroke-linecap:butt;stroke-linejoin:miter;stroke-opacity:1" d="M 711.364,97 739.545,105.455 z" id="boundary" inkscape:connector-curvature="0" />
	<path style="fill:none;stroke:red;stroke-width:1px;stroke-linecap:butt;stroke-linejoin:miter;stroke-opacity:1" d="M 739.545,105.455 767.727,111.091 z" id="boundary" inkscape:connector-curvature="0" />
	<path style="fill:none;stroke:red;stroke-width:1px;stroke-linecap:butt;stroke-linejoin:miter;stroke-opacity:1" d="M 767.727,111.091 795.909,116.727 z" id="boundary" inkscape:connector-curvature="0" />
	<path style="fill:none;stroke:red;stroke-width:1px;stroke-linecap:butt;stroke-linejoin:miter;stroke-opacity:1" d="M 795.909,116.727 824.091,128 z" id="boundary" inkscape:connector-curvature="0" />
	<path style="fill:none;stroke:red;stroke-width:1px;stroke-linecap:butt;stroke-linejoin:miter;stroke-opacity:1" d="M 824.091,128 852.273,139.273 z" id="boundary" inkscape:connector-curvature="0" />
	<path style="fill:none;stroke:red;stroke-width:1px;stroke-linecap:butt;stroke-linejoin:miter;stroke-opacity:1" d="M 852.273,139.273 880.455,144.909 z" id="boundary" inkscape:connector-curvature="0" />
	<path style="fill:none;stroke:red;stroke-width:1px;stroke-linecap:butt;stroke-linejoin:miter;stroke-opacity:1" d="M 880.455,144.909 905.818,159 z" id="boundary" inkscape:connector-curvature="0" />
	<path style="fill:none;stroke:red;stroke-width:1px;stroke-linecap:butt;stroke-linejoin:miter;stroke-opacity:1" d="M 905.818,159 934,167.455 z" id="boundary" inkscape:connector-curvature="0" />
	<path style="fill:none;stroke:red;stroke-width:1px;stroke-linecap:butt;stroke-linejoin:miter;stroke-opacity:1" d="M 934,167.455 959.364,181.545 z" id="boundary" inkscape:connector-curvature="0" />
	<path style="fill:none;stroke:red;stroke-width:1px;stroke-linecap:butt;stroke-linejoin:miter;stroke-opacity:1" d="M 959.364,181.545 984.727,195.636 z" id="boundary" inkscape:connector-curvature="0" />
	<circle cx="4" cy="133.636" r="4" fill="#0" id="circle0"/>
	<circle cx="4" cy="325.273" r="4" fill="#0" id="circle1"/>
	<circle cx="12.4545" cy="161.818" r="4" fill="#0" id="circle2"/>
	<circle cx="15.2727" cy="291.455" r="4" fill="#0" id="circle3"/>
	<circle cx="20.9091" cy="190" r="4" fill="#0" id="circle4"/>
	<circle cx="26.5455" cy="218.182" r="4" fill="#0" id="circle5"/>
	<circle cx="26.5455" cy="246.364" r="4" fill="#0" id="circle6"/>
	<circle cx="29.3636" cy="339.364" r="4" fill="#0" id="circle7"/>
	<circle cx="32.1818" cy="122.364" r="4" fill="#0" id="circle8"/>
	<circle cx="57.5455" cy="339.364" r="4" fill="#0" id="circle9"/>
	<circle cx="60.3636" cy="128" r="4" fill="#0" id="circle10"/>
	<circle cx="85.7273" cy="328.091" r="4" fill="#0" id="circle11"/>
	<circle cx="88.5455" cy="139.273" r="4" fill="#0" id="circle12"/>
	<circle cx="113.909" cy="319.636" r="4" fill="#0" id="circle13"/>
	<circle cx="116.727" cy="150.545" r="4" fill="#0" id="circle14"/>
	<circle cx="139.273" cy="305.545" r="4" fill="#0" id="circle15"/>
	<circle cx="144.909" cy="161.818" r="4" fill="#0" id="circle16"/>
	<circle cx="161.818" cy="288.636" r="4" fill="#0" id="circle17"/>
	<circle cx="170.273" cy="175.909" r="4" fill="#0" id="circle18"/>
	<circle cx="190" cy="277.364" r="4" fill="#0" id="circle19"/>
	<circle cx="198.455" cy="184.364" r="4" fill="#0" id="circle20"/>
	<circle cx="218.182" cy="277.364" r="4" fill="#0" id="circle21"/>
	<circle cx="223.818" cy="167.455" r="4" fill="#0" id="circle22"/>
	<circle cx="223.818" cy="305.545" r="4" fill="#0" id="circle23"/>
	<circle cx="235.091" cy="333.727" r="4" fill="#0" id="circle24"/>
	<circle cx="240.727" cy="144.909" r="4" fill="#0" id="circle25"/>
	<circle cx="249.182" cy="359.091" r="4" fill="#0" id="circle26"/>
	<circle cx="263.273" cy="122.364" r="4" fill="#0" id="circle27"/>
	<circle cx="277.364" cy="367.545" r="4" fill="#0" id="circle28"/>
	<circle cx="285.818" cy="105.455" r="4" fill="#0" id="circle29"/>
	<circle cx="305.545" cy="367.545" r="4" fill="#0" id="circle30"/>
	<circle cx="308.364" cy="88.5455" r="4" fill="#0" id="circle31"/>
	<circle cx="333.727" cy="361.909" r="4" fill="#0" id="circle32"/>
	<circle cx="336.545" cy="77.2727" r="4" fill="#0" id="circle33"/>
	<circle cx="361.909" cy="353.455" r="4" fill="#0" id="circle34"/>
	<circle cx="364.727" cy="82.9091" r="4" fill="#0" id="circle35"/>
	<circle cx="390.091" cy="345" r="4" fill="#0" id="circle36"/>
	<circle cx="392.909" cy="91.3636" r="4" fill="#0" id="circle37"/>
	<circle cx="418.273" cy="105.455" r="4" fill="#0" id="circle38"/>
	<circle cx="418.273" cy="350.636" r="4" fill="#0" id="circle39"/>
	<circle cx="443.636" cy="88.5455" r="4" fill="#0" id="circle40"/>
	<circle cx="446.455" cy="350.636" r="4" fill="#0" id="circle41"/>
	<circle cx="466.182" cy="71.6364" r="4" fill="#0" id="circle42"/>
	<circle cx="474.636" cy="350.636" r="4" fill="#0" id="circle43"/>
	<circle cx="494.364" cy="63.1818" r="4" fill="#0" id="circle44"/>
	<circle cx="502.818" cy="356.273" r="4" fill="#0" id="circle45"/>
	<circle cx="522.545" cy="57.5455" r="4" fill="#0" id="circle46"/>
	<circle cx="531" cy="356.273" r="4" fill="#0" id="circle47"/>
	<circle cx="547.909" cy="40.6364" r="4" fill="#0" id="circle48"/>
	<circle cx="559.182" cy="356.273" r="4" fill="#0" id="circle49"/>
	<circle cx="567.636" cy="384.455" r="4" fill="#0" id="circle50"/>
	<circle cx="567.636" cy="412.636" r="4" fill="#0" id="circle51"/>
	<circle cx="573.273" cy="440.818" r="4" fill="#0" id="circle52"/>
	<circle cx="576.091" cy="29.3636" r="4" fill="#0" id="circle53"/>
	<circle cx="595.818" cy="457.727" r="4" fill="#0" id="circle54"/>
	<circle cx="604.273" cy="26.5455" r="4" fill="#0" id="circle55"/>
	<circle cx="624" cy="460.545" r="4" fill="#0" id="circle56"/>
	<circle cx="626.818" cy="9.63636" r="4" fill="#0" id="circle57"/>
	<circle cx="652.182" cy="446.455" r="4" fill="#0" id="circle58"/>
	<circle cx="655" cy="4" r="4" fill="#0" id="circle59"/>
	<circle cx="674.727" cy="26.5455" r="4" fill="#0" id="circle60"/>
	<circle cx="674.727" cy="429.545" r="4" fill="#0" id="circle61"/>
	<circle cx="688.818" cy="51.9091" r="4" fill="#0" id="circle62"/>
	<circle cx="694.455" cy="404.182" r="4" fill="#0" id="circle63"/>
	<circle cx="711.364" cy="68.8182" r="4" fill="#0" id="circle64"/>
	<circle cx="711.364" cy="97" r="4" fill="#0" id="circle65"/>
	<circle cx="711.364" cy="376" r="4" fill="#0" id="circle66"/>
	<circle cx="736.727" cy="361.909" r="4" fill="#0" id="circle67"/>
	<circle cx="739.545" cy="105.455" r="4" fill="#0" id="circle68"/>
	<circle cx="764.909" cy="361.909" r="4" fill="#0" id="circle69"/>
	<circle cx="767.727" cy="111.091" r="4" fill="#0" id="circle70"/>
	<circle cx="793.091" cy="356.273" r="4" fill="#0" id="circle71"/>
	<circle cx="795.909" cy="116.727" r="4" fill="#0" id="circle72"/>
	<circle cx="821.273" cy="345" r="4" fill="#0" id="circle73"/>
	<circle cx="824.091" cy="128" r="4" fill="#0" id="circle74"/>
	<circle cx="846.636" cy="330.909" r="4" fill="#0" id="circle75"/>
	<circle cx="852.273" cy="139.273" r="4" fill="#0" id="circle76"/>
	<circle cx="874.818" cy="322.455" r="4" fill="#0" id="circle77"/>
	<circle cx="880.455" cy="144.909" r="4" fill="#0" id="circle78"/>
	<circle cx="903" cy="314" r="4" fill="#0" id="circle79"/>
	<circle cx="905.818" cy="159" r="4" fill="#0" id="circle80"/>
	<circle cx="928.364" cy="299.909" r="4" fill="#0" id="circle81"/>
	<circle cx="934" cy="167.455" r="4" fill="#0" id="circle82"/>
	<circle cx="950.909" cy="277.364" r="4" fill="#0" id="circle83"/>
	<circle cx="959.364" cy="181.545" r="4" fill="#0" id="circle84"/>
	<circle cx="973.455" cy="254.818" r="4" fill="#0" id="circle85"/>
	<circle cx="984.727" cy="195.636" r="4" fill="#0" id="circle86"/>
	<circle cx="996" cy="232.273" r="4" fill="#0" id="circle87"/>
	</g>
</svg>