<?xml version="1.0" encoding="UTF-8" standalone="no"?>
<!-- Created with CurveBenchmark -->
<svg
	xmlns:dc="http://purl.org/dc/elements/1.1/"
	xmlns:cc="http://creativecommons.org/ns#"
	xmlns:rdf="http://www.w3.org/1999/02/22-rdf-syntax-ns#"
	xmlns:svg="http://www.w3.org/2000/svg"
	xmlns="http://www.w3.org/2000/svg"
	xmlns:sodipodi="http://sodipodi.sourceforge.net/DTD/sodipodi-0.dtd"
	xmlns:inkscape="http://www.inkscape.org/namespaces/inkscape"
	width="1000"
	height="1000"
	id="svg2"
	version="1.1"
	sodipodi:docname="manifold/crawl-truck-04.png.txt">
<defs
	id="defs4" />
<metadata
	id="metadata7">
	<rdf:RDF>
		<cc:Work
			rdf:about="">
			<dc:format>image/svg+xml</dc:format>
			<dc:type
				rdf:resource="http://purl.org/dc/dcmitype/StillImage" />
			<dc:title></dc:title>
		</cc:Work>
	</rdf:RDF>
</metadata>
<g
	inkscape:label="Layer 1"
	inkscape:groupmode="layer"
	id="layer1">
	<path style="fill:none;stroke:red;stroke-width:1px;stroke-linecap:butt;stroke-linejoin:miter;stroke-opacity:1" d="M 4,212.618 4,233.906 z" id="boundary" inkscape:connector-curvature="0" />
	<path style="fill:none;stroke:red;stroke-width:1px;stroke-linecap:butt;stroke-linejoin:miter;stroke-opacity:1" d="M 4,233.906 4,255.193 z" id="boundary" inkscape:connector-curvature="0" />
	<path style="fill:none;stroke:red;stroke-width:1px;stroke-linecap:butt;stroke-linejoin:miter;stroke-opacity:1" d="M 4,255.193 21.03,270.094 z" id="boundary" inkscape:connector-curvature="0" />
	<path style="fill:none;stroke:red;stroke-width:1px;stroke-linecap:butt;stroke-linejoin:miter;stroke-opacity:1" d="M 21.03,270.094 38.0601,282.867 z" id="boundary" inkscape:connector-curvature="0" />
	<path style="fill:none;stroke:red;stroke-width:1px;stroke-linecap:butt;stroke-linejoin:miter;stroke-opacity:1" d="M 38.0601,282.867 59.3476,282.867 z" id="boundary" inkscape:connector-curvature="0" />
	<path style="fill:none;stroke:red;stroke-width:1px;stroke-linecap:butt;stroke-linejoin:miter;stroke-opacity:1" d="M 59.3476,282.867 80.6352,282.867 z" id="boundary" inkscape:connector-curvature="0" />
	<path style="fill:none;stroke:red;stroke-width:1px;stroke-linecap:butt;stroke-linejoin:miter;stroke-opacity:1" d="M 80.6352,282.867 99.794,293.511 z" id="boundary" inkscape:connector-curvature="0" />
	<path style="fill:none;stroke:red;stroke-width:1px;stroke-linecap:butt;stroke-linejoin:miter;stroke-opacity:1" d="M 99.794,293.511 99.794,314.798 z" id="boundary" inkscape:connector-curvature="0" />
	<path style="fill:none;stroke:red;stroke-width:1px;stroke-linecap:butt;stroke-linejoin:miter;stroke-opacity:1" d="M 99.794,314.798 99.794,336.086 z" id="boundary" inkscape:connector-curvature="0" />
	<path style="fill:none;stroke:red;stroke-width:1px;stroke-linecap:butt;stroke-linejoin:miter;stroke-opacity:1" d="M 4,212.618 14.6438,191.33 z" id="boundary" inkscape:connector-curvature="0" />
	<path style="fill:none;stroke:red;stroke-width:1px;stroke-linecap:butt;stroke-linejoin:miter;stroke-opacity:1" d="M 14.6438,191.33 31.6738,174.3 z" id="boundary" inkscape:connector-curvature="0" />
	<path style="fill:none;stroke:red;stroke-width:1px;stroke-linecap:butt;stroke-linejoin:miter;stroke-opacity:1" d="M 31.6738,174.3 52.9614,163.657 z" id="boundary" inkscape:connector-curvature="0" />
	<path style="fill:none;stroke:red;stroke-width:1px;stroke-linecap:butt;stroke-linejoin:miter;stroke-opacity:1" d="M 52.9614,163.657 74.2489,163.657 z" id="boundary" inkscape:connector-curvature="0" />
	<path style="fill:none;stroke:red;stroke-width:1px;stroke-linecap:butt;stroke-linejoin:miter;stroke-opacity:1" d="M 74.2489,163.657 93.4077,153.013 z" id="boundary" inkscape:connector-curvature="0" />
	<path style="fill:none;stroke:red;stroke-width:1px;stroke-linecap:butt;stroke-linejoin:miter;stroke-opacity:1" d="M 93.4077,153.013 114.695,153.013 z" id="boundary" inkscape:connector-curvature="0" />
	<path style="fill:none;stroke:red;stroke-width:1px;stroke-linecap:butt;stroke-linejoin:miter;stroke-opacity:1" d="M 114.695,153.013 135.983,153.013 z" id="boundary" inkscape:connector-curvature="0" />
	<path style="fill:none;stroke:red;stroke-width:1px;stroke-linecap:butt;stroke-linejoin:miter;stroke-opacity:1" d="M 135.983,153.013 157.27,153.013 z" id="boundary" inkscape:connector-curvature="0" />
	<path style="fill:none;stroke:red;stroke-width:1px;stroke-linecap:butt;stroke-linejoin:miter;stroke-opacity:1" d="M 157.27,153.013 178.558,153.013 z" id="boundary" inkscape:connector-curvature="0" />
	<path style="fill:none;stroke:red;stroke-width:1px;stroke-linecap:butt;stroke-linejoin:miter;stroke-opacity:1" d="M 178.558,153.013 199.845,153.013 z" id="boundary" inkscape:connector-curvature="0" />
	<path style="fill:none;stroke:red;stroke-width:1px;stroke-linecap:butt;stroke-linejoin:miter;stroke-opacity:1" d="M 199.845,153.013 221.133,153.013 z" id="boundary" inkscape:connector-curvature="0" />
	<path style="fill:none;stroke:red;stroke-width:1px;stroke-linecap:butt;stroke-linejoin:miter;stroke-opacity:1" d="M 221.133,153.013 242.421,153.013 z" id="boundary" inkscape:connector-curvature="0" />
	<path style="fill:none;stroke:red;stroke-width:1px;stroke-linecap:butt;stroke-linejoin:miter;stroke-opacity:1" d="M 242.421,153.013 263.708,144.498 z" id="boundary" inkscape:connector-curvature="0" />
	<path style="fill:none;stroke:red;stroke-width:1px;stroke-linecap:butt;stroke-linejoin:miter;stroke-opacity:1" d="M 263.708,144.498 284.996,142.369 z" id="boundary" inkscape:connector-curvature="0" />
	<path style="fill:none;stroke:red;stroke-width:1px;stroke-linecap:butt;stroke-linejoin:miter;stroke-opacity:1" d="M 284.996,142.369 306.283,142.369 z" id="boundary" inkscape:connector-curvature="0" />
	<path style="fill:none;stroke:red;stroke-width:1px;stroke-linecap:butt;stroke-linejoin:miter;stroke-opacity:1" d="M 306.283,142.369 327.571,142.369 z" id="boundary" inkscape:connector-curvature="0" />
	<path style="fill:none;stroke:red;stroke-width:1px;stroke-linecap:butt;stroke-linejoin:miter;stroke-opacity:1" d="M 327.571,142.369 348.858,142.369 z" id="boundary" inkscape:connector-curvature="0" />
	<path style="fill:none;stroke:red;stroke-width:1px;stroke-linecap:butt;stroke-linejoin:miter;stroke-opacity:1" d="M 348.858,142.369 370.146,142.369 z" id="boundary" inkscape:connector-curvature="0" />
	<path style="fill:none;stroke:red;stroke-width:1px;stroke-linecap:butt;stroke-linejoin:miter;stroke-opacity:1" d="M 370.146,142.369 391.433,142.369 z" id="boundary" inkscape:connector-curvature="0" />
	<path style="fill:none;stroke:red;stroke-width:1px;stroke-linecap:butt;stroke-linejoin:miter;stroke-opacity:1" d="M 391.433,142.369 412.721,142.369 z" id="boundary" inkscape:connector-curvature="0" />
	<path style="fill:none;stroke:red;stroke-width:1px;stroke-linecap:butt;stroke-linejoin:miter;stroke-opacity:1" d="M 412.721,142.369 434.009,142.369 z" id="boundary" inkscape:connector-curvature="0" />
	<path style="fill:none;stroke:red;stroke-width:1px;stroke-linecap:butt;stroke-linejoin:miter;stroke-opacity:1" d="M 99.794,336.086 80.6352,355.245 z" id="boundary" inkscape:connector-curvature="0" />
	<path style="fill:none;stroke:red;stroke-width:1px;stroke-linecap:butt;stroke-linejoin:miter;stroke-opacity:1" d="M 80.6352,355.245 61.4764,365.888 z" id="boundary" inkscape:connector-curvature="0" />
	<path style="fill:none;stroke:red;stroke-width:1px;stroke-linecap:butt;stroke-linejoin:miter;stroke-opacity:1" d="M 61.4764,365.888 42.3176,376.532 z" id="boundary" inkscape:connector-curvature="0" />
	<path style="fill:none;stroke:red;stroke-width:1px;stroke-linecap:butt;stroke-linejoin:miter;stroke-opacity:1" d="M 42.3176,376.532 25.2876,393.562 z" id="boundary" inkscape:connector-curvature="0" />
	<path style="fill:none;stroke:red;stroke-width:1px;stroke-linecap:butt;stroke-linejoin:miter;stroke-opacity:1" d="M 25.2876,393.562 14.6438,414.85 z" id="boundary" inkscape:connector-curvature="0" />
	<path style="fill:none;stroke:red;stroke-width:1px;stroke-linecap:butt;stroke-linejoin:miter;stroke-opacity:1" d="M 14.6438,414.85 14.6438,436.137 z" id="boundary" inkscape:connector-curvature="0" />
	<path style="fill:none;stroke:red;stroke-width:1px;stroke-linecap:butt;stroke-linejoin:miter;stroke-opacity:1" d="M 14.6438,436.137 14.6438,457.425 z" id="boundary" inkscape:connector-curvature="0" />
	<path style="fill:none;stroke:red;stroke-width:1px;stroke-linecap:butt;stroke-linejoin:miter;stroke-opacity:1" d="M 14.6438,457.425 25.2876,476.584 z" id="boundary" inkscape:connector-curvature="0" />
	<path style="fill:none;stroke:red;stroke-width:1px;stroke-linecap:butt;stroke-linejoin:miter;stroke-opacity:1" d="M 25.2876,476.584 25.2876,497.871 z" id="boundary" inkscape:connector-curvature="0" />
	<path style="fill:none;stroke:red;stroke-width:1px;stroke-linecap:butt;stroke-linejoin:miter;stroke-opacity:1" d="M 25.2876,497.871 40.1888,514.901 z" id="boundary" inkscape:connector-curvature="0" />
	<path style="fill:none;stroke:red;stroke-width:1px;stroke-linecap:butt;stroke-linejoin:miter;stroke-opacity:1" d="M 40.1888,514.901 57.2189,527.674 z" id="boundary" inkscape:connector-curvature="0" />
	<path style="fill:none;stroke:red;stroke-width:1px;stroke-linecap:butt;stroke-linejoin:miter;stroke-opacity:1" d="M 57.2189,527.674 76.3777,517.03 z" id="boundary" inkscape:connector-curvature="0" />
	<path style="fill:none;stroke:red;stroke-width:1px;stroke-linecap:butt;stroke-linejoin:miter;stroke-opacity:1" d="M 76.3777,517.03 97.6652,517.03 z" id="boundary" inkscape:connector-curvature="0" />
	<path style="fill:none;stroke:red;stroke-width:1px;stroke-linecap:butt;stroke-linejoin:miter;stroke-opacity:1" d="M 97.6652,517.03 118.953,517.03 z" id="boundary" inkscape:connector-curvature="0" />
	<path style="fill:none;stroke:red;stroke-width:1px;stroke-linecap:butt;stroke-linejoin:miter;stroke-opacity:1" d="M 118.953,517.03 138.112,527.674 z" id="boundary" inkscape:connector-curvature="0" />
	<path style="fill:none;stroke:red;stroke-width:1px;stroke-linecap:butt;stroke-linejoin:miter;stroke-opacity:1" d="M 138.112,527.674 157.27,538.318 z" id="boundary" inkscape:connector-curvature="0" />
	<path style="fill:none;stroke:red;stroke-width:1px;stroke-linecap:butt;stroke-linejoin:miter;stroke-opacity:1" d="M 157.27,538.318 178.558,538.318 z" id="boundary" inkscape:connector-curvature="0" />
	<path style="fill:none;stroke:red;stroke-width:1px;stroke-linecap:butt;stroke-linejoin:miter;stroke-opacity:1" d="M 178.558,538.318 197.717,527.674 z" id="boundary" inkscape:connector-curvature="0" />
	<path style="fill:none;stroke:red;stroke-width:1px;stroke-linecap:butt;stroke-linejoin:miter;stroke-opacity:1" d="M 197.717,527.674 219.004,517.03 z" id="boundary" inkscape:connector-curvature="0" />
	<path style="fill:none;stroke:red;stroke-width:1px;stroke-linecap:butt;stroke-linejoin:miter;stroke-opacity:1" d="M 219.004,517.03 240.292,506.386 z" id="boundary" inkscape:connector-curvature="0" />
	<path style="fill:none;stroke:red;stroke-width:1px;stroke-linecap:butt;stroke-linejoin:miter;stroke-opacity:1" d="M 240.292,506.386 261.579,495.742 z" id="boundary" inkscape:connector-curvature="0" />
	<path style="fill:none;stroke:red;stroke-width:1px;stroke-linecap:butt;stroke-linejoin:miter;stroke-opacity:1" d="M 261.579,495.742 282.867,495.742 z" id="boundary" inkscape:connector-curvature="0" />
	<path style="fill:none;stroke:red;stroke-width:1px;stroke-linecap:butt;stroke-linejoin:miter;stroke-opacity:1" d="M 282.867,495.742 304.155,495.742 z" id="boundary" inkscape:connector-curvature="0" />
	<path style="fill:none;stroke:red;stroke-width:1px;stroke-linecap:butt;stroke-linejoin:miter;stroke-opacity:1" d="M 304.155,495.742 325.442,495.742 z" id="boundary" inkscape:connector-curvature="0" />
	<path style="fill:none;stroke:red;stroke-width:1px;stroke-linecap:butt;stroke-linejoin:miter;stroke-opacity:1" d="M 325.442,495.742 346.73,495.742 z" id="boundary" inkscape:connector-curvature="0" />
	<path style="fill:none;stroke:red;stroke-width:1px;stroke-linecap:butt;stroke-linejoin:miter;stroke-opacity:1" d="M 346.73,495.742 368.017,495.742 z" id="boundary" inkscape:connector-curvature="0" />
	<path style="fill:none;stroke:red;stroke-width:1px;stroke-linecap:butt;stroke-linejoin:miter;stroke-opacity:1" d="M 368.017,495.742 389.305,495.742 z" id="boundary" inkscape:connector-curvature="0" />
	<path style="fill:none;stroke:red;stroke-width:1px;stroke-linecap:butt;stroke-linejoin:miter;stroke-opacity:1" d="M 389.305,495.742 410.592,495.742 z" id="boundary" inkscape:connector-curvature="0" />
	<path style="fill:none;stroke:red;stroke-width:1px;stroke-linecap:butt;stroke-linejoin:miter;stroke-opacity:1" d="M 410.592,495.742 423.365,512.773 z" id="boundary" inkscape:connector-curvature="0" />
	<path style="fill:none;stroke:red;stroke-width:1px;stroke-linecap:butt;stroke-linejoin:miter;stroke-opacity:1" d="M 423.365,512.773 440.395,527.674 z" id="boundary" inkscape:connector-curvature="0" />
	<path style="fill:none;stroke:red;stroke-width:1px;stroke-linecap:butt;stroke-linejoin:miter;stroke-opacity:1" d="M 440.395,527.674 459.554,538.318 z" id="boundary" inkscape:connector-curvature="0" />
	<path style="fill:none;stroke:red;stroke-width:1px;stroke-linecap:butt;stroke-linejoin:miter;stroke-opacity:1" d="M 459.554,538.318 480.841,538.318 z" id="boundary" inkscape:connector-curvature="0" />
	<path style="fill:none;stroke:red;stroke-width:1px;stroke-linecap:butt;stroke-linejoin:miter;stroke-opacity:1" d="M 480.841,538.318 502.129,538.318 z" id="boundary" inkscape:connector-curvature="0" />
	<path style="fill:none;stroke:red;stroke-width:1px;stroke-linecap:butt;stroke-linejoin:miter;stroke-opacity:1" d="M 502.129,538.318 523.416,538.318 z" id="boundary" inkscape:connector-curvature="0" />
	<path style="fill:none;stroke:red;stroke-width:1px;stroke-linecap:butt;stroke-linejoin:miter;stroke-opacity:1" d="M 523.416,538.318 544.704,538.318 z" id="boundary" inkscape:connector-curvature="0" />
	<path style="fill:none;stroke:red;stroke-width:1px;stroke-linecap:butt;stroke-linejoin:miter;stroke-opacity:1" d="M 544.704,538.318 565.991,538.318 z" id="boundary" inkscape:connector-curvature="0" />
	<path style="fill:none;stroke:red;stroke-width:1px;stroke-linecap:butt;stroke-linejoin:miter;stroke-opacity:1" d="M 565.991,538.318 587.279,534.06 z" id="boundary" inkscape:connector-curvature="0" />
	<path style="fill:none;stroke:red;stroke-width:1px;stroke-linecap:butt;stroke-linejoin:miter;stroke-opacity:1" d="M 587.279,534.06 608.567,523.416 z" id="boundary" inkscape:connector-curvature="0" />
	<path style="fill:none;stroke:red;stroke-width:1px;stroke-linecap:butt;stroke-linejoin:miter;stroke-opacity:1" d="M 608.567,523.416 623.468,506.386 z" id="boundary" inkscape:connector-curvature="0" />
	<path style="fill:none;stroke:red;stroke-width:1px;stroke-linecap:butt;stroke-linejoin:miter;stroke-opacity:1" d="M 623.468,506.386 642.627,495.742 z" id="boundary" inkscape:connector-curvature="0" />
	<path style="fill:none;stroke:red;stroke-width:1px;stroke-linecap:butt;stroke-linejoin:miter;stroke-opacity:1" d="M 642.627,495.742 663.914,495.742 z" id="boundary" inkscape:connector-curvature="0" />
	<path style="fill:none;stroke:red;stroke-width:1px;stroke-linecap:butt;stroke-linejoin:miter;stroke-opacity:1" d="M 663.914,495.742 685.202,495.742 z" id="boundary" inkscape:connector-curvature="0" />
	<path style="fill:none;stroke:red;stroke-width:1px;stroke-linecap:butt;stroke-linejoin:miter;stroke-opacity:1" d="M 685.202,495.742 706.489,495.742 z" id="boundary" inkscape:connector-curvature="0" />
	<path style="fill:none;stroke:red;stroke-width:1px;stroke-linecap:butt;stroke-linejoin:miter;stroke-opacity:1" d="M 706.489,495.742 727.777,495.742 z" id="boundary" inkscape:connector-curvature="0" />
	<path style="fill:none;stroke:red;stroke-width:1px;stroke-linecap:butt;stroke-linejoin:miter;stroke-opacity:1" d="M 727.777,495.742 749.064,495.742 z" id="boundary" inkscape:connector-curvature="0" />
	<path style="fill:none;stroke:red;stroke-width:1px;stroke-linecap:butt;stroke-linejoin:miter;stroke-opacity:1" d="M 749.064,495.742 770.352,495.742 z" id="boundary" inkscape:connector-curvature="0" />
	<path style="fill:none;stroke:red;stroke-width:1px;stroke-linecap:butt;stroke-linejoin:miter;stroke-opacity:1" d="M 770.352,495.742 791.639,495.742 z" id="boundary" inkscape:connector-curvature="0" />
	<path style="fill:none;stroke:red;stroke-width:1px;stroke-linecap:butt;stroke-linejoin:miter;stroke-opacity:1" d="M 791.639,495.742 812.927,495.742 z" id="boundary" inkscape:connector-curvature="0" />
	<path style="fill:none;stroke:red;stroke-width:1px;stroke-linecap:butt;stroke-linejoin:miter;stroke-opacity:1" d="M 812.927,495.742 832.086,506.386 z" id="boundary" inkscape:connector-curvature="0" />
	<path style="fill:none;stroke:red;stroke-width:1px;stroke-linecap:butt;stroke-linejoin:miter;stroke-opacity:1" d="M 832.086,506.386 840.601,527.674 z" id="boundary" inkscape:connector-curvature="0" />
	<path style="fill:none;stroke:red;stroke-width:1px;stroke-linecap:butt;stroke-linejoin:miter;stroke-opacity:1" d="M 840.601,527.674 861.888,536.189 z" id="boundary" inkscape:connector-curvature="0" />
	<path style="fill:none;stroke:red;stroke-width:1px;stroke-linecap:butt;stroke-linejoin:miter;stroke-opacity:1" d="M 861.888,536.189 883.176,527.674 z" id="boundary" inkscape:connector-curvature="0" />
	<path style="fill:none;stroke:red;stroke-width:1px;stroke-linecap:butt;stroke-linejoin:miter;stroke-opacity:1" d="M 883.176,527.674 904.464,527.674 z" id="boundary" inkscape:connector-curvature="0" />
	<path style="fill:none;stroke:red;stroke-width:1px;stroke-linecap:butt;stroke-linejoin:miter;stroke-opacity:1" d="M 904.464,527.674 925.751,525.545 z" id="boundary" inkscape:connector-curvature="0" />
	<path style="fill:none;stroke:red;stroke-width:1px;stroke-linecap:butt;stroke-linejoin:miter;stroke-opacity:1" d="M 925.751,525.545 947.039,514.901 z" id="boundary" inkscape:connector-curvature="0" />
	<path style="fill:none;stroke:red;stroke-width:1px;stroke-linecap:butt;stroke-linejoin:miter;stroke-opacity:1" d="M 947.039,514.901 968.326,504.258 z" id="boundary" inkscape:connector-curvature="0" />
	<path style="fill:none;stroke:red;stroke-width:1px;stroke-linecap:butt;stroke-linejoin:miter;stroke-opacity:1" d="M 968.326,504.258 978.97,482.97 z" id="boundary" inkscape:connector-curvature="0" />
	<path style="fill:none;stroke:red;stroke-width:1px;stroke-linecap:butt;stroke-linejoin:miter;stroke-opacity:1" d="M 978.97,482.97 985.356,453.167 z" id="boundary" inkscape:connector-curvature="0" />
	<path style="fill:none;stroke:red;stroke-width:1px;stroke-linecap:butt;stroke-linejoin:miter;stroke-opacity:1" d="M 985.356,453.167 985.356,431.88 z" id="boundary" inkscape:connector-curvature="0" />
	<path style="fill:none;stroke:red;stroke-width:1px;stroke-linecap:butt;stroke-linejoin:miter;stroke-opacity:1" d="M 434.009,142.369 451.039,116.824 z" id="boundary" inkscape:connector-curvature="0" />
	<path style="fill:none;stroke:red;stroke-width:1px;stroke-linecap:butt;stroke-linejoin:miter;stroke-opacity:1" d="M 451.039,116.824 451.039,95.5365 z" id="boundary" inkscape:connector-curvature="0" />
	<path style="fill:none;stroke:red;stroke-width:1px;stroke-linecap:butt;stroke-linejoin:miter;stroke-opacity:1" d="M 451.039,95.5365 451.039,74.2489 z" id="boundary" inkscape:connector-curvature="0" />
	<path style="fill:none;stroke:red;stroke-width:1px;stroke-linecap:butt;stroke-linejoin:miter;stroke-opacity:1" d="M 451.039,74.2489 451.039,52.9614 z" id="boundary" inkscape:connector-curvature="0" />
	<path style="fill:none;stroke:red;stroke-width:1px;stroke-linecap:butt;stroke-linejoin:miter;stroke-opacity:1" d="M 451.039,52.9614 451.039,31.6738 z" id="boundary" inkscape:connector-curvature="0" />
	<path style="fill:none;stroke:red;stroke-width:1px;stroke-linecap:butt;stroke-linejoin:miter;stroke-opacity:1" d="M 451.039,31.6738 468.069,14.6438 z" id="boundary" inkscape:connector-curvature="0" />
	<path style="fill:none;stroke:red;stroke-width:1px;stroke-linecap:butt;stroke-linejoin:miter;stroke-opacity:1" d="M 468.069,14.6438 487.227,4 z" id="boundary" inkscape:connector-curvature="0" />
	<path style="fill:none;stroke:red;stroke-width:1px;stroke-linecap:butt;stroke-linejoin:miter;stroke-opacity:1" d="M 487.227,4 508.515,4 z" id="boundary" inkscape:connector-curvature="0" />
	<path style="fill:none;stroke:red;stroke-width:1px;stroke-linecap:butt;stroke-linejoin:miter;stroke-opacity:1" d="M 508.515,4 529.803,4 z" id="boundary" inkscape:connector-curvature="0" />
	<path style="fill:none;stroke:red;stroke-width:1px;stroke-linecap:butt;stroke-linejoin:miter;stroke-opacity:1" d="M 529.803,4 551.09,4 z" id="boundary" inkscape:connector-curvature="0" />
	<path style="fill:none;stroke:red;stroke-width:1px;stroke-linecap:butt;stroke-linejoin:miter;stroke-opacity:1" d="M 551.09,4 572.378,4 z" id="boundary" inkscape:connector-curvature="0" />
	<path style="fill:none;stroke:red;stroke-width:1px;stroke-linecap:butt;stroke-linejoin:miter;stroke-opacity:1" d="M 572.378,4 593.665,4 z" id="boundary" inkscape:connector-curvature="0" />
	<path style="fill:none;stroke:red;stroke-width:1px;stroke-linecap:butt;stroke-linejoin:miter;stroke-opacity:1" d="M 593.665,4 614.953,4 z" id="boundary" inkscape:connector-curvature="0" />
	<path style="fill:none;stroke:red;stroke-width:1px;stroke-linecap:butt;stroke-linejoin:miter;stroke-opacity:1" d="M 614.953,4 636.24,4 z" id="boundary" inkscape:connector-curvature="0" />
	<path style="fill:none;stroke:red;stroke-width:1px;stroke-linecap:butt;stroke-linejoin:miter;stroke-opacity:1" d="M 636.24,4 657.528,4 z" id="boundary" inkscape:connector-curvature="0" />
	<path style="fill:none;stroke:red;stroke-width:1px;stroke-linecap:butt;stroke-linejoin:miter;stroke-opacity:1" d="M 657.528,4 678.815,4 z" id="boundary" inkscape:connector-curvature="0" />
	<path style="fill:none;stroke:red;stroke-width:1px;stroke-linecap:butt;stroke-linejoin:miter;stroke-opacity:1" d="M 678.815,4 697.974,14.6438 z" id="boundary" inkscape:connector-curvature="0" />
	<path style="fill:none;stroke:red;stroke-width:1px;stroke-linecap:butt;stroke-linejoin:miter;stroke-opacity:1" d="M 697.974,14.6438 719.262,14.6438 z" id="boundary" inkscape:connector-curvature="0" />
	<path style="fill:none;stroke:red;stroke-width:1px;stroke-linecap:butt;stroke-linejoin:miter;stroke-opacity:1" d="M 719.262,14.6438 740.549,14.6438 z" id="boundary" inkscape:connector-curvature="0" />
	<path style="fill:none;stroke:red;stroke-width:1px;stroke-linecap:butt;stroke-linejoin:miter;stroke-opacity:1" d="M 740.549,14.6438 761.837,14.6438 z" id="boundary" inkscape:connector-curvature="0" />
	<path style="fill:none;stroke:red;stroke-width:1px;stroke-linecap:butt;stroke-linejoin:miter;stroke-opacity:1" d="M 761.837,14.6438 778.867,27.4163 z" id="boundary" inkscape:connector-curvature="0" />
	<path style="fill:none;stroke:red;stroke-width:1px;stroke-linecap:butt;stroke-linejoin:miter;stroke-opacity:1" d="M 778.867,27.4163 793.768,44.4464 z" id="boundary" inkscape:connector-curvature="0" />
	<path style="fill:none;stroke:red;stroke-width:1px;stroke-linecap:butt;stroke-linejoin:miter;stroke-opacity:1" d="M 793.768,44.4464 783.124,69.9914 z" id="boundary" inkscape:connector-curvature="0" />
	<path style="fill:none;stroke:red;stroke-width:1px;stroke-linecap:butt;stroke-linejoin:miter;stroke-opacity:1" d="M 783.124,69.9914 783.124,91.279 z" id="boundary" inkscape:connector-curvature="0" />
	<path style="fill:none;stroke:red;stroke-width:1px;stroke-linecap:butt;stroke-linejoin:miter;stroke-opacity:1" d="M 783.124,91.279 783.124,112.567 z" id="boundary" inkscape:connector-curvature="0" />
	<path style="fill:none;stroke:red;stroke-width:1px;stroke-linecap:butt;stroke-linejoin:miter;stroke-opacity:1" d="M 783.124,112.567 793.768,131.725 z" id="boundary" inkscape:connector-curvature="0" />
	<path style="fill:none;stroke:red;stroke-width:1px;stroke-linecap:butt;stroke-linejoin:miter;stroke-opacity:1" d="M 793.768,131.725 815.056,138.112 z" id="boundary" inkscape:connector-curvature="0" />
	<path style="fill:none;stroke:red;stroke-width:1px;stroke-linecap:butt;stroke-linejoin:miter;stroke-opacity:1" d="M 815.056,138.112 825.7,157.27 z" id="boundary" inkscape:connector-curvature="0" />
	<path style="fill:none;stroke:red;stroke-width:1px;stroke-linecap:butt;stroke-linejoin:miter;stroke-opacity:1" d="M 825.7,157.27 836.343,176.429 z" id="boundary" inkscape:connector-curvature="0" />
	<path style="fill:none;stroke:red;stroke-width:1px;stroke-linecap:butt;stroke-linejoin:miter;stroke-opacity:1" d="M 836.343,176.429 840.601,197.717 z" id="boundary" inkscape:connector-curvature="0" />
	<path style="fill:none;stroke:red;stroke-width:1px;stroke-linecap:butt;stroke-linejoin:miter;stroke-opacity:1" d="M 840.601,197.717 846.987,219.004 z" id="boundary" inkscape:connector-curvature="0" />
	<path style="fill:none;stroke:red;stroke-width:1px;stroke-linecap:butt;stroke-linejoin:miter;stroke-opacity:1" d="M 846.987,219.004 846.987,240.292 z" id="boundary" inkscape:connector-curvature="0" />
	<path style="fill:none;stroke:red;stroke-width:1px;stroke-linecap:butt;stroke-linejoin:miter;stroke-opacity:1" d="M 846.987,240.292 868.275,248.807 z" id="boundary" inkscape:connector-curvature="0" />
	<path style="fill:none;stroke:red;stroke-width:1px;stroke-linecap:butt;stroke-linejoin:miter;stroke-opacity:1" d="M 868.275,248.807 889.562,248.807 z" id="boundary" inkscape:connector-curvature="0" />
	<path style="fill:none;stroke:red;stroke-width:1px;stroke-linecap:butt;stroke-linejoin:miter;stroke-opacity:1" d="M 889.562,248.807 906.592,261.579 z" id="boundary" inkscape:connector-curvature="0" />
	<path style="fill:none;stroke:red;stroke-width:1px;stroke-linecap:butt;stroke-linejoin:miter;stroke-opacity:1" d="M 906.592,261.579 921.494,278.609 z" id="boundary" inkscape:connector-curvature="0" />
	<path style="fill:none;stroke:red;stroke-width:1px;stroke-linecap:butt;stroke-linejoin:miter;stroke-opacity:1" d="M 921.494,278.609 921.494,299.897 z" id="boundary" inkscape:connector-curvature="0" />
	<path style="fill:none;stroke:red;stroke-width:1px;stroke-linecap:butt;stroke-linejoin:miter;stroke-opacity:1" d="M 921.494,299.897 938.524,314.798 z" id="boundary" inkscape:connector-curvature="0" />
	<path style="fill:none;stroke:red;stroke-width:1px;stroke-linecap:butt;stroke-linejoin:miter;stroke-opacity:1" d="M 938.524,314.798 957.682,325.442 z" id="boundary" inkscape:connector-curvature="0" />
	<path style="fill:none;stroke:red;stroke-width:1px;stroke-linecap:butt;stroke-linejoin:miter;stroke-opacity:1" d="M 957.682,325.442 978.97,333.957 z" id="boundary" inkscape:connector-curvature="0" />
	<path style="fill:none;stroke:red;stroke-width:1px;stroke-linecap:butt;stroke-linejoin:miter;stroke-opacity:1" d="M 978.97,333.957 985.356,355.245 z" id="boundary" inkscape:connector-curvature="0" />
	<path style="fill:none;stroke:red;stroke-width:1px;stroke-linecap:butt;stroke-linejoin:miter;stroke-opacity:1" d="M 985.356,355.245 996,374.403 z" id="boundary" inkscape:connector-curvature="0" />
	<path style="fill:none;stroke:red;stroke-width:1px;stroke-linecap:butt;stroke-linejoin:miter;stroke-opacity:1" d="M 996,374.403 996,395.691 z" id="boundary" inkscape:connector-curvature="0" />
	<path style="fill:none;stroke:red;stroke-width:1px;stroke-linecap:butt;stroke-linejoin:miter;stroke-opacity:1" d="M 996,395.691 985.356,431.88 z" id="boundary" inkscape:connector-curvature="0" />
	<circle cx="4" cy="212.618" r="4" fill="#0" id="circle0"/>
	<circle cx="4" cy="233.906" r="4" fill="#0" id="circle1"/>
	<circle cx="4" cy="255.193" r="4" fill="#0" id="circle2"/>
	<circle cx="14.6438" cy="191.33" r="4" fill="#0" id="circle3"/>
	<circle cx="14.6438" cy="414.85" r="4" fill="#0" id="circle4"/>
	<circle cx="14.6438" cy="436.137" r="4" fill="#0" id="circle5"/>
	<circle cx="14.6438" cy="457.425" r="4" fill="#0" id="circle6"/>
	<circle cx="21.03" cy="270.094" r="4" fill="#0" id="circle7"/>
	<circle cx="25.2876" cy="393.562" r="4" fill="#0" id="circle8"/>
	<circle cx="25.2876" cy="476.584" r="4" fill="#0" id="circle9"/>
	<circle cx="25.2876" cy="497.871" r="4" fill="#0" id="circle10"/>
	<circle cx="31.6738" cy="174.3" r="4" fill="#0" id="circle11"/>
	<circle cx="38.0601" cy="282.867" r="4" fill="#0" id="circle12"/>
	<circle cx="40.1888" cy="514.901" r="4" fill="#0" id="circle13"/>
	<circle cx="42.3176" cy="376.532" r="4" fill="#0" id="circle14"/>
	<circle cx="52.9614" cy="163.657" r="4" fill="#0" id="circle15"/>
	<circle cx="57.2189" cy="527.674" r="4" fill="#0" id="circle16"/>
	<circle cx="59.3476" cy="282.867" r="4" fill="#0" id="circle17"/>
	<circle cx="61.4764" cy="365.888" r="4" fill="#0" id="circle18"/>
	<circle cx="74.2489" cy="163.657" r="4" fill="#0" id="circle19"/>
	<circle cx="76.3777" cy="517.03" r="4" fill="#0" id="circle20"/>
	<circle cx="80.6352" cy="282.867" r="4" fill="#0" id="circle21"/>
	<circle cx="80.6352" cy="355.245" r="4" fill="#0" id="circle22"/>
	<circle cx="93.4077" cy="153.013" r="4" fill="#0" id="circle23"/>
	<circle cx="97.6652" cy="517.03" r="4" fill="#0" id="circle24"/>
	<circle cx="99.794" cy="293.511" r="4" fill="#0" id="circle25"/>
	<circle cx="99.794" cy="314.798" r="4" fill="#0" id="circle26"/>
	<circle cx="99.794" cy="336.086" r="4" fill="#0" id="circle27"/>
	<circle cx="114.695" cy="153.013" r="4" fill="#0" id="circle28"/>
	<circle cx="118.953" cy="517.03" r="4" fill="#0" id="circle29"/>
	<circle cx="135.983" cy="153.013" r="4" fill="#0" id="circle30"/>
	<circle cx="138.112" cy="527.674" r="4" fill="#0" id="circle31"/>
	<circle cx="157.27" cy="153.013" r="4" fill="#0" id="circle32"/>
	<circle cx="157.27" cy="538.318" r="4" fill="#0" id="circle33"/>
	<circle cx="178.558" cy="153.013" r="4" fill="#0" id="circle34"/>
	<circle cx="178.558" cy="538.318" r="4" fill="#0" id="circle35"/>
	<circle cx="197.717" cy="527.674" r="4" fill="#0" id="circle36"/>
	<circle cx="199.845" cy="153.013" r="4" fill="#0" id="circle37"/>
	<circle cx="219.004" cy="517.03" r="4" fill="#0" id="circle38"/>
	<circle cx="221.133" cy="153.013" r="4" fill="#0" id="circle39"/>
	<circle cx="240.292" cy="506.386" r="4" fill="#0" id="circle40"/>
	<circle cx="242.421" cy="153.013" r="4" fill="#0" id="circle41"/>
	<circle cx="261.579" cy="495.742" r="4" fill="#0" id="circle42"/>
	<circle cx="263.708" cy="144.498" r="4" fill="#0" id="circle43"/>
	<circle cx="282.867" cy="495.742" r="4" fill="#0" id="circle44"/>
	<circle cx="284.996" cy="142.369" r="4" fill="#0" id="circle45"/>
	<circle cx="304.155" cy="495.742" r="4" fill="#0" id="circle46"/>
	<circle cx="306.283" cy="142.369" r="4" fill="#0" id="circle47"/>
	<circle cx="325.442" cy="495.742" r="4" fill="#0" id="circle48"/>
	<circle cx="327.571" cy="142.369" r="4" fill="#0" id="circle49"/>
	<circle cx="346.73" cy="495.742" r="4" fill="#0" id="circle50"/>
	<circle cx="348.858" cy="142.369" r="4" fill="#0" id="circle51"/>
	<circle cx="368.017" cy="495.742" r="4" fill="#0" id="circle52"/>
	<circle cx="370.146" cy="142.369" r="4" fill="#0" id="circle53"/>
	<circle cx="389.305" cy="495.742" r="4" fill="#0" id="circle54"/>
	<circle cx="391.433" cy="142.369" r="4" fill="#0" id="circle55"/>
	<circle cx="410.592" cy="495.742" r="4" fill="#0" id="circle56"/>
	<circle cx="412.721" cy="142.369" r="4" fill="#0" id="circle57"/>
	<circle cx="423.365" cy="512.773" r="4" fill="#0" id="circle58"/>
	<circle cx="434.009" cy="142.369" r="4" fill="#0" id="circle59"/>
	<circle cx="440.395" cy="527.674" r="4" fill="#0" id="circle60"/>
	<circle cx="451.039" cy="31.6738" r="4" fill="#0" id="circle61"/>
	<circle cx="451.039" cy="52.9614" r="4" fill="#0" id="circle62"/>
	<circle cx="451.039" cy="74.2489" r="4" fill="#0" id="circle63"/>
	<circle cx="451.039" cy="95.5365" r="4" fill="#0" id="circle64"/>
	<circle cx="451.039" cy="116.824" r="4" fill="#0" id="circle65"/>
	<circle cx="459.554" cy="538.318" r="4" fill="#0" id="circle66"/>
	<circle cx="468.069" cy="14.6438" r="4" fill="#0" id="circle67"/>
	<circle cx="480.841" cy="538.318" r="4" fill="#0" id="circle68"/>
	<circle cx="487.227" cy="4" r="4" fill="#0" id="circle69"/>
	<circle cx="502.129" cy="538.318" r="4" fill="#0" id="circle70"/>
	<circle cx="508.515" cy="4" r="4" fill="#0" id="circle71"/>
	<circle cx="523.416" cy="538.318" r="4" fill="#0" id="circle72"/>
	<circle cx="529.803" cy="4" r="4" fill="#0" id="circle73"/>
	<circle cx="544.704" cy="538.318" r="4" fill="#0" id="circle74"/>
	<circle cx="551.09" cy="4" r="4" fill="#0" id="circle75"/>
	<circle cx="565.991" cy="538.318" r="4" fill="#0" id="circle76"/>
	<circle cx="572.378" cy="4" r="4" fill="#0" id="circle77"/>
	<circle cx="587.279" cy="534.06" r="4" fill="#0" id="circle78"/>
	<circle cx="593.665" cy="4" r="4" fill="#0" id="circle79"/>
	<circle cx="608.567" cy="523.416" r="4" fill="#0" id="circle80"/>
	<circle cx="614.953" cy="4" r="4" fill="#0" id="circle81"/>
	<circle cx="623.468" cy="506.386" r="4" fill="#0" id="circle82"/>
	<circle cx="636.24" cy="4" r="4" fill="#0" id="circle83"/>
	<circle cx="642.627" cy="495.742" r="4" fill="#0" id="circle84"/>
	<circle cx="657.528" cy="4" r="4" fill="#0" id="circle85"/>
	<circle cx="663.914" cy="495.742" r="4" fill="#0" id="circle86"/>
	<circle cx="678.815" cy="4" r="4" fill="#0" id="circle87"/>
	<circle cx="685.202" cy="495.742" r="4" fill="#0" id="circle88"/>
	<circle cx="697.974" cy="14.6438" r="4" fill="#0" id="circle89"/>
	<circle cx="706.489" cy="495.742" r="4" fill="#0" id="circle90"/>
	<circle cx="719.262" cy="14.6438" r="4" fill="#0" id="circle91"/>
	<circle cx="727.777" cy="495.742" r="4" fill="#0" id="circle92"/>
	<circle cx="740.549" cy="14.6438" r="4" fill="#0" id="circle93"/>
	<circle cx="749.064" cy="495.742" r="4" fill="#0" id="circle94"/>
	<circle cx="761.837" cy="14.6438" r="4" fill="#0" id="circle95"/>
	<circle cx="770.352" cy="495.742" r="4" fill="#0" id="circle96"/>
	<circle cx="778.867" cy="27.4163" r="4" fill="#0" id="circle97"/>
	<circle cx="783.124" cy="69.9914" r="4" fill="#0" id="circle98"/>
	<circle cx="783.124" cy="91.279" r="4" fill="#0" id="circle99"/>
	<circle cx="783.124" cy="112.567" r="4" fill="#0" id="circle100"/>
	<circle cx="791.639" cy="495.742" r="4" fill="#0" id="circle101"/>
	<circle cx="793.768" cy="44.4464" r="4" fill="#0" id="circle102"/>
	<circle cx="793.768" cy="131.725" r="4" fill="#0" id="circle103"/>
	<circle cx="812.927" cy="495.742" r="4" fill="#0" id="circle104"/>
	<circle cx="815.056" cy="138.112" r="4" fill="#0" id="circle105"/>
	<circle cx="825.7" cy="157.27" r="4" fill="#0" id="circle106"/>
	<circle cx="832.086" cy="506.386" r="4" fill="#0" id="circle107"/>
	<circle cx="836.343" cy="176.429" r="4" fill="#0" id="circle108"/>
	<circle cx="840.601" cy="197.717" r="4" fill="#0" id="circle109"/>
	<circle cx="840.601" cy="527.674" r="4" fill="#0" id="circle110"/>
	<circle cx="846.987" cy="219.004" r="4" fill="#0" id="circle111"/>
	<circle cx="846.987" cy="240.292" r="4" fill="#0" id="circle112"/>
	<circle cx="861.888" cy="536.189" r="4" fill="#0" id="circle113"/>
	<circle cx="868.275" cy="248.807" r="4" fill="#0" id="circle114"/>
	<circle cx="883.176" cy="527.674" r="4" fill="#0" id="circle115"/>
	<circle cx="889.562" cy="248.807" r="4" fill="#0" id="circle116"/>
	<circle cx="904.464" cy="527.674" r="4" fill="#0" id="circle117"/>
	<circle cx="906.592" cy="261.579" r="4" fill="#0" id="circle118"/>
	<circle cx="921.494" cy="278.609" r="4" fill="#0" id="circle119"/>
	<circle cx="921.494" cy="299.897" r="4" fill="#0" id="circle120"/>
	<circle cx="925.751" cy="525.545" r="4" fill="#0" id="circle121"/>
	<circle cx="938.524" cy="314.798" r="4" fill="#0" id="circle122"/>
	<circle cx="947.039" cy="514.901" r="4" fill="#0" id="circle123"/>
	<circle cx="957.682" cy="325.442" r="4" fill="#0" id="circle124"/>
	<circle cx="968.326" cy="504.258" r="4" fill="#0" id="circle125"/>
	<circle cx="978.97" cy="333.957" r="4" fill="#0" id="circle126"/>
	<circle cx="978.97" cy="482.97" r="4" fill="#0" id="circle127"/>
	<circle cx="985.356" cy="355.245" r="4" fill="#0" id="circle128"/>
	<circle cx="985.356" cy="431.88" r="4" fill="#0" id="circle129"/>
	<circle cx="985.356" cy="453.167" r="4" fill="#0" id="circle130"/>
	<circle cx="996" cy="374.403" r="4" fill="#0" id="circle131"/>
	<circle cx="996" cy="395.691" r="4" fill="#0" id="circle132"/>
	</g>
</svg>