<?xml version="1.0" encoding="UTF-8" standalone="no"?>
<!-- Created with CurveBenchmark -->
<svg
	xmlns:dc="http://purl.org/dc/elements/1.1/"
	xmlns:cc="http://creativecommons.org/ns#"
	xmlns:rdf="http://www.w3.org/1999/02/22-rdf-syntax-ns#"
	xmlns:svg="http://www.w3.org/2000/svg"
	xmlns="http://www.w3.org/2000/svg"
	xmlns:sodipodi="http://sodipodi.sourceforge.net/DTD/sodipodi-0.dtd"
	xmlns:inkscape="http://www.inkscape.org/namespaces/inkscape"
	width="1000"
	height="1000"
	id="svg2"
	version="1.1"
	sodipodi:docname="manifold/crawl-bird22.png.txt">
<defs
	id="defs4" />
<metadata
	id="metadata7">
	<rdf:RDF>
		<cc:Work
			rdf:about="">
			<dc:format>image/svg+xml</dc:format>
			<dc:type
				rdf:resource="http://purl.org/dc/dcmitype/StillImage" />
			<dc:title></dc:title>
		</cc:Work>
	</rdf:RDF>
</metadata>
<g
	inkscape:label="Layer 1"
	inkscape:groupmode="layer"
	id="layer1">
	<path style="fill:none;stroke:red;stroke-width:1px;stroke-linecap:butt;stroke-linejoin:miter;stroke-opacity:1" d="M 133.096,293.447 133.096,279.858 z" id="boundary" inkscape:connector-curvature="0" />
	<path style="fill:none;stroke:red;stroke-width:1px;stroke-linecap:butt;stroke-linejoin:miter;stroke-opacity:1" d="M 133.096,279.858 133.096,266.268 z" id="boundary" inkscape:connector-curvature="0" />
	<path style="fill:none;stroke:red;stroke-width:1px;stroke-linecap:butt;stroke-linejoin:miter;stroke-opacity:1" d="M 133.096,266.268 133.096,252.679 z" id="boundary" inkscape:connector-curvature="0" />
	<path style="fill:none;stroke:red;stroke-width:1px;stroke-linecap:butt;stroke-linejoin:miter;stroke-opacity:1" d="M 133.096,252.679 133.096,239.09 z" id="boundary" inkscape:connector-curvature="0" />
	<path style="fill:none;stroke:red;stroke-width:1px;stroke-linecap:butt;stroke-linejoin:miter;stroke-opacity:1" d="M 133.096,293.447 133.096,307.036 z" id="boundary" inkscape:connector-curvature="0" />
	<path style="fill:none;stroke:red;stroke-width:1px;stroke-linecap:butt;stroke-linejoin:miter;stroke-opacity:1" d="M 133.096,307.036 139.89,319.266 z" id="boundary" inkscape:connector-curvature="0" />
	<path style="fill:none;stroke:red;stroke-width:1px;stroke-linecap:butt;stroke-linejoin:miter;stroke-opacity:1" d="M 139.89,319.266 139.89,332.855 z" id="boundary" inkscape:connector-curvature="0" />
	<path style="fill:none;stroke:red;stroke-width:1px;stroke-linecap:butt;stroke-linejoin:miter;stroke-opacity:1" d="M 139.89,332.855 146.685,345.085 z" id="boundary" inkscape:connector-curvature="0" />
	<path style="fill:none;stroke:red;stroke-width:1px;stroke-linecap:butt;stroke-linejoin:miter;stroke-opacity:1" d="M 146.685,345.085 154.838,355.956 z" id="boundary" inkscape:connector-curvature="0" />
	<path style="fill:none;stroke:red;stroke-width:1px;stroke-linecap:butt;stroke-linejoin:miter;stroke-opacity:1" d="M 154.838,355.956 161.633,368.186 z" id="boundary" inkscape:connector-curvature="0" />
	<path style="fill:none;stroke:red;stroke-width:1px;stroke-linecap:butt;stroke-linejoin:miter;stroke-opacity:1" d="M 161.633,368.186 167.068,381.775 z" id="boundary" inkscape:connector-curvature="0" />
	<path style="fill:none;stroke:red;stroke-width:1px;stroke-linecap:butt;stroke-linejoin:miter;stroke-opacity:1" d="M 167.068,381.775 177.94,391.288 z" id="boundary" inkscape:connector-curvature="0" />
	<path style="fill:none;stroke:red;stroke-width:1px;stroke-linecap:butt;stroke-linejoin:miter;stroke-opacity:1" d="M 177.94,391.288 180.658,404.877 z" id="boundary" inkscape:connector-curvature="0" />
	<path style="fill:none;stroke:red;stroke-width:1px;stroke-linecap:butt;stroke-linejoin:miter;stroke-opacity:1" d="M 180.658,404.877 188.811,415.748 z" id="boundary" inkscape:connector-curvature="0" />
	<path style="fill:none;stroke:red;stroke-width:1px;stroke-linecap:butt;stroke-linejoin:miter;stroke-opacity:1" d="M 188.811,415.748 194.247,429.337 z" id="boundary" inkscape:connector-curvature="0" />
	<path style="fill:none;stroke:red;stroke-width:1px;stroke-linecap:butt;stroke-linejoin:miter;stroke-opacity:1" d="M 194.247,429.337 201.041,441.567 z" id="boundary" inkscape:connector-curvature="0" />
	<path style="fill:none;stroke:red;stroke-width:1px;stroke-linecap:butt;stroke-linejoin:miter;stroke-opacity:1" d="M 201.041,441.567 207.836,453.797 z" id="boundary" inkscape:connector-curvature="0" />
	<path style="fill:none;stroke:red;stroke-width:1px;stroke-linecap:butt;stroke-linejoin:miter;stroke-opacity:1" d="M 207.836,453.797 211.912,467.386 z" id="boundary" inkscape:connector-curvature="0" />
	<path style="fill:none;stroke:red;stroke-width:1px;stroke-linecap:butt;stroke-linejoin:miter;stroke-opacity:1" d="M 211.912,467.386 222.784,476.899 z" id="boundary" inkscape:connector-curvature="0" />
	<path style="fill:none;stroke:red;stroke-width:1px;stroke-linecap:butt;stroke-linejoin:miter;stroke-opacity:1" d="M 222.784,476.899 232.296,487.77 z" id="boundary" inkscape:connector-curvature="0" />
	<path style="fill:none;stroke:red;stroke-width:1px;stroke-linecap:butt;stroke-linejoin:miter;stroke-opacity:1" d="M 232.296,487.77 235.014,501.359 z" id="boundary" inkscape:connector-curvature="0" />
	<path style="fill:none;stroke:red;stroke-width:1px;stroke-linecap:butt;stroke-linejoin:miter;stroke-opacity:1" d="M 235.014,501.359 241.808,513.589 z" id="boundary" inkscape:connector-curvature="0" />
	<path style="fill:none;stroke:red;stroke-width:1px;stroke-linecap:butt;stroke-linejoin:miter;stroke-opacity:1" d="M 241.808,513.589 249.962,524.46 z" id="boundary" inkscape:connector-curvature="0" />
	<path style="fill:none;stroke:red;stroke-width:1px;stroke-linecap:butt;stroke-linejoin:miter;stroke-opacity:1" d="M 249.962,524.46 255.397,538.049 z" id="boundary" inkscape:connector-curvature="0" />
	<path style="fill:none;stroke:red;stroke-width:1px;stroke-linecap:butt;stroke-linejoin:miter;stroke-opacity:1" d="M 255.397,538.049 266.268,547.562 z" id="boundary" inkscape:connector-curvature="0" />
	<path style="fill:none;stroke:red;stroke-width:1px;stroke-linecap:butt;stroke-linejoin:miter;stroke-opacity:1" d="M 266.268,547.562 271.704,561.151 z" id="boundary" inkscape:connector-curvature="0" />
	<path style="fill:none;stroke:red;stroke-width:1px;stroke-linecap:butt;stroke-linejoin:miter;stroke-opacity:1" d="M 271.704,561.151 278.499,573.381 z" id="boundary" inkscape:connector-curvature="0" />
	<path style="fill:none;stroke:red;stroke-width:1px;stroke-linecap:butt;stroke-linejoin:miter;stroke-opacity:1" d="M 278.499,573.381 289.37,582.893 z" id="boundary" inkscape:connector-curvature="0" />
	<path style="fill:none;stroke:red;stroke-width:1px;stroke-linecap:butt;stroke-linejoin:miter;stroke-opacity:1" d="M 289.37,582.893 293.447,596.482 z" id="boundary" inkscape:connector-curvature="0" />
	<path style="fill:none;stroke:red;stroke-width:1px;stroke-linecap:butt;stroke-linejoin:miter;stroke-opacity:1" d="M 293.447,596.482 300.241,608.712 z" id="boundary" inkscape:connector-curvature="0" />
	<path style="fill:none;stroke:red;stroke-width:1px;stroke-linecap:butt;stroke-linejoin:miter;stroke-opacity:1" d="M 300.241,608.712 309.753,619.584 z" id="boundary" inkscape:connector-curvature="0" />
	<path style="fill:none;stroke:red;stroke-width:1px;stroke-linecap:butt;stroke-linejoin:miter;stroke-opacity:1" d="M 309.753,619.584 323.342,623.66 z" id="boundary" inkscape:connector-curvature="0" />
	<path style="fill:none;stroke:red;stroke-width:1px;stroke-linecap:butt;stroke-linejoin:miter;stroke-opacity:1" d="M 323.342,623.66 327.419,637.249 z" id="boundary" inkscape:connector-curvature="0" />
	<path style="fill:none;stroke:red;stroke-width:1px;stroke-linecap:butt;stroke-linejoin:miter;stroke-opacity:1" d="M 327.419,637.249 338.29,646.762 z" id="boundary" inkscape:connector-curvature="0" />
	<path style="fill:none;stroke:red;stroke-width:1px;stroke-linecap:butt;stroke-linejoin:miter;stroke-opacity:1" d="M 338.29,646.762 347.803,657.633 z" id="boundary" inkscape:connector-curvature="0" />
	<path style="fill:none;stroke:red;stroke-width:1px;stroke-linecap:butt;stroke-linejoin:miter;stroke-opacity:1" d="M 347.803,657.633 358.674,667.145 z" id="boundary" inkscape:connector-curvature="0" />
	<path style="fill:none;stroke:red;stroke-width:1px;stroke-linecap:butt;stroke-linejoin:miter;stroke-opacity:1" d="M 358.674,667.145 368.186,678.016 z" id="boundary" inkscape:connector-curvature="0" />
	<path style="fill:none;stroke:red;stroke-width:1px;stroke-linecap:butt;stroke-linejoin:miter;stroke-opacity:1" d="M 368.186,678.016 379.058,687.529 z" id="boundary" inkscape:connector-curvature="0" />
	<path style="fill:none;stroke:red;stroke-width:1px;stroke-linecap:butt;stroke-linejoin:miter;stroke-opacity:1" d="M 379.058,687.529 388.57,698.4 z" id="boundary" inkscape:connector-curvature="0" />
	<path style="fill:none;stroke:red;stroke-width:1px;stroke-linecap:butt;stroke-linejoin:miter;stroke-opacity:1" d="M 388.57,698.4 398.082,709.271 z" id="boundary" inkscape:connector-curvature="0" />
	<path style="fill:none;stroke:red;stroke-width:1px;stroke-linecap:butt;stroke-linejoin:miter;stroke-opacity:1" d="M 398.082,709.271 398.082,722.86 z" id="boundary" inkscape:connector-curvature="0" />
	<path style="fill:none;stroke:red;stroke-width:1px;stroke-linecap:butt;stroke-linejoin:miter;stroke-opacity:1" d="M 398.082,722.86 398.082,736.449 z" id="boundary" inkscape:connector-curvature="0" />
	<path style="fill:none;stroke:red;stroke-width:1px;stroke-linecap:butt;stroke-linejoin:miter;stroke-opacity:1" d="M 398.082,736.449 398.082,750.038 z" id="boundary" inkscape:connector-curvature="0" />
	<path style="fill:none;stroke:red;stroke-width:1px;stroke-linecap:butt;stroke-linejoin:miter;stroke-opacity:1" d="M 398.082,750.038 398.082,763.627 z" id="boundary" inkscape:connector-curvature="0" />
	<path style="fill:none;stroke:red;stroke-width:1px;stroke-linecap:butt;stroke-linejoin:miter;stroke-opacity:1" d="M 398.082,763.627 398.082,777.216 z" id="boundary" inkscape:connector-curvature="0" />
	<path style="fill:none;stroke:red;stroke-width:1px;stroke-linecap:butt;stroke-linejoin:miter;stroke-opacity:1" d="M 398.082,777.216 398.082,790.805 z" id="boundary" inkscape:connector-curvature="0" />
	<path style="fill:none;stroke:red;stroke-width:1px;stroke-linecap:butt;stroke-linejoin:miter;stroke-opacity:1" d="M 398.082,790.805 391.288,803.036 z" id="boundary" inkscape:connector-curvature="0" />
	<path style="fill:none;stroke:red;stroke-width:1px;stroke-linecap:butt;stroke-linejoin:miter;stroke-opacity:1" d="M 133.096,239.09 139.89,220.066 z" id="boundary" inkscape:connector-curvature="0" />
	<path style="fill:none;stroke:red;stroke-width:1px;stroke-linecap:butt;stroke-linejoin:miter;stroke-opacity:1" d="M 139.89,220.066 139.89,206.477 z" id="boundary" inkscape:connector-curvature="0" />
	<path style="fill:none;stroke:red;stroke-width:1px;stroke-linecap:butt;stroke-linejoin:miter;stroke-opacity:1" d="M 139.89,206.477 134.455,192.888 z" id="boundary" inkscape:connector-curvature="0" />
	<path style="fill:none;stroke:red;stroke-width:1px;stroke-linecap:butt;stroke-linejoin:miter;stroke-opacity:1" d="M 134.455,192.888 126.301,182.016 z" id="boundary" inkscape:connector-curvature="0" />
	<path style="fill:none;stroke:red;stroke-width:1px;stroke-linecap:butt;stroke-linejoin:miter;stroke-opacity:1" d="M 126.301,182.016 126.301,168.427 z" id="boundary" inkscape:connector-curvature="0" />
	<path style="fill:none;stroke:red;stroke-width:1px;stroke-linecap:butt;stroke-linejoin:miter;stroke-opacity:1" d="M 126.301,168.427 115.43,160.274 z" id="boundary" inkscape:connector-curvature="0" />
	<path style="fill:none;stroke:red;stroke-width:1px;stroke-linecap:butt;stroke-linejoin:miter;stroke-opacity:1" d="M 115.43,160.274 112.712,146.685 z" id="boundary" inkscape:connector-curvature="0" />
	<path style="fill:none;stroke:red;stroke-width:1px;stroke-linecap:butt;stroke-linejoin:miter;stroke-opacity:1" d="M 112.712,146.685 105.918,134.455 z" id="boundary" inkscape:connector-curvature="0" />
	<path style="fill:none;stroke:red;stroke-width:1px;stroke-linecap:butt;stroke-linejoin:miter;stroke-opacity:1" d="M 105.918,134.455 103.2,120.866 z" id="boundary" inkscape:connector-curvature="0" />
	<path style="fill:none;stroke:red;stroke-width:1px;stroke-linecap:butt;stroke-linejoin:miter;stroke-opacity:1" d="M 103.2,120.866 99.1233,107.277 z" id="boundary" inkscape:connector-curvature="0" />
	<path style="fill:none;stroke:red;stroke-width:1px;stroke-linecap:butt;stroke-linejoin:miter;stroke-opacity:1" d="M 99.1233,107.277 92.3288,95.0466 z" id="boundary" inkscape:connector-curvature="0" />
	<path style="fill:none;stroke:red;stroke-width:1px;stroke-linecap:butt;stroke-linejoin:miter;stroke-opacity:1" d="M 92.3288,95.0466 85.5342,82.8164 z" id="boundary" inkscape:connector-curvature="0" />
	<path style="fill:none;stroke:red;stroke-width:1px;stroke-linecap:butt;stroke-linejoin:miter;stroke-opacity:1" d="M 85.5342,82.8164 76.0219,71.9452 z" id="boundary" inkscape:connector-curvature="0" />
	<path style="fill:none;stroke:red;stroke-width:1px;stroke-linecap:butt;stroke-linejoin:miter;stroke-opacity:1" d="M 76.0219,71.9452 62.4329,66.5096 z" id="boundary" inkscape:connector-curvature="0" />
	<path style="fill:none;stroke:red;stroke-width:1px;stroke-linecap:butt;stroke-linejoin:miter;stroke-opacity:1" d="M 62.4329,66.5096 50.2027,59.7151 z" id="boundary" inkscape:connector-curvature="0" />
	<path style="fill:none;stroke:red;stroke-width:1px;stroke-linecap:butt;stroke-linejoin:miter;stroke-opacity:1" d="M 50.2027,59.7151 39.3315,50.2027 z" id="boundary" inkscape:connector-curvature="0" />
	<path style="fill:none;stroke:red;stroke-width:1px;stroke-linecap:butt;stroke-linejoin:miter;stroke-opacity:1" d="M 39.3315,50.2027 31.1781,39.3315 z" id="boundary" inkscape:connector-curvature="0" />
	<path style="fill:none;stroke:red;stroke-width:1px;stroke-linecap:butt;stroke-linejoin:miter;stroke-opacity:1" d="M 31.1781,39.3315 20.3068,31.1781 z" id="boundary" inkscape:connector-curvature="0" />
	<path style="fill:none;stroke:red;stroke-width:1px;stroke-linecap:butt;stroke-linejoin:miter;stroke-opacity:1" d="M 20.3068,31.1781 10.7945,20.3068 z" id="boundary" inkscape:connector-curvature="0" />
	<path style="fill:none;stroke:red;stroke-width:1px;stroke-linecap:butt;stroke-linejoin:miter;stroke-opacity:1" d="M 10.7945,20.3068 4,8.07671 z" id="boundary" inkscape:connector-curvature="0" />
	<path style="fill:none;stroke:red;stroke-width:1px;stroke-linecap:butt;stroke-linejoin:miter;stroke-opacity:1" d="M 4,8.07671 17.589,4 z" id="boundary" inkscape:connector-curvature="0" />
	<path style="fill:none;stroke:red;stroke-width:1px;stroke-linecap:butt;stroke-linejoin:miter;stroke-opacity:1" d="M 17.589,4 29.8192,10.7945 z" id="boundary" inkscape:connector-curvature="0" />
	<path style="fill:none;stroke:red;stroke-width:1px;stroke-linecap:butt;stroke-linejoin:miter;stroke-opacity:1" d="M 29.8192,10.7945 42.0493,17.589 z" id="boundary" inkscape:connector-curvature="0" />
	<path style="fill:none;stroke:red;stroke-width:1px;stroke-linecap:butt;stroke-linejoin:miter;stroke-opacity:1" d="M 42.0493,17.589 55.6384,17.589 z" id="boundary" inkscape:connector-curvature="0" />
	<path style="fill:none;stroke:red;stroke-width:1px;stroke-linecap:butt;stroke-linejoin:miter;stroke-opacity:1" d="M 55.6384,17.589 67.8685,24.3836 z" id="boundary" inkscape:connector-curvature="0" />
	<path style="fill:none;stroke:red;stroke-width:1px;stroke-linecap:butt;stroke-linejoin:miter;stroke-opacity:1" d="M 67.8685,24.3836 80.0986,31.1781 z" id="boundary" inkscape:connector-curvature="0" />
	<path style="fill:none;stroke:red;stroke-width:1px;stroke-linecap:butt;stroke-linejoin:miter;stroke-opacity:1" d="M 80.0986,31.1781 90.9699,39.3315 z" id="boundary" inkscape:connector-curvature="0" />
	<path style="fill:none;stroke:red;stroke-width:1px;stroke-linecap:butt;stroke-linejoin:miter;stroke-opacity:1" d="M 90.9699,39.3315 104.559,44.7671 z" id="boundary" inkscape:connector-curvature="0" />
	<path style="fill:none;stroke:red;stroke-width:1px;stroke-linecap:butt;stroke-linejoin:miter;stroke-opacity:1" d="M 104.559,44.7671 116.789,51.5616 z" id="boundary" inkscape:connector-curvature="0" />
	<path style="fill:none;stroke:red;stroke-width:1px;stroke-linecap:butt;stroke-linejoin:miter;stroke-opacity:1" d="M 116.789,51.5616 129.019,58.3562 z" id="boundary" inkscape:connector-curvature="0" />
	<path style="fill:none;stroke:red;stroke-width:1px;stroke-linecap:butt;stroke-linejoin:miter;stroke-opacity:1" d="M 129.019,58.3562 141.249,65.1507 z" id="boundary" inkscape:connector-curvature="0" />
	<path style="fill:none;stroke:red;stroke-width:1px;stroke-linecap:butt;stroke-linejoin:miter;stroke-opacity:1" d="M 141.249,65.1507 154.838,69.2274 z" id="boundary" inkscape:connector-curvature="0" />
	<path style="fill:none;stroke:red;stroke-width:1px;stroke-linecap:butt;stroke-linejoin:miter;stroke-opacity:1" d="M 154.838,69.2274 168.427,71.9452 z" id="boundary" inkscape:connector-curvature="0" />
	<path style="fill:none;stroke:red;stroke-width:1px;stroke-linecap:butt;stroke-linejoin:miter;stroke-opacity:1" d="M 168.427,71.9452 182.016,71.9452 z" id="boundary" inkscape:connector-curvature="0" />
	<path style="fill:none;stroke:red;stroke-width:1px;stroke-linecap:butt;stroke-linejoin:miter;stroke-opacity:1" d="M 182.016,71.9452 194.247,78.7397 z" id="boundary" inkscape:connector-curvature="0" />
	<path style="fill:none;stroke:red;stroke-width:1px;stroke-linecap:butt;stroke-linejoin:miter;stroke-opacity:1" d="M 194.247,78.7397 206.477,85.5342 z" id="boundary" inkscape:connector-curvature="0" />
	<path style="fill:none;stroke:red;stroke-width:1px;stroke-linecap:butt;stroke-linejoin:miter;stroke-opacity:1" d="M 206.477,85.5342 220.066,86.8932 z" id="boundary" inkscape:connector-curvature="0" />
	<path style="fill:none;stroke:red;stroke-width:1px;stroke-linecap:butt;stroke-linejoin:miter;stroke-opacity:1" d="M 220.066,86.8932 229.578,97.7644 z" id="boundary" inkscape:connector-curvature="0" />
	<path style="fill:none;stroke:red;stroke-width:1px;stroke-linecap:butt;stroke-linejoin:miter;stroke-opacity:1" d="M 229.578,97.7644 243.167,103.2 z" id="boundary" inkscape:connector-curvature="0" />
	<path style="fill:none;stroke:red;stroke-width:1px;stroke-linecap:butt;stroke-linejoin:miter;stroke-opacity:1" d="M 243.167,103.2 255.397,109.995 z" id="boundary" inkscape:connector-curvature="0" />
	<path style="fill:none;stroke:red;stroke-width:1px;stroke-linecap:butt;stroke-linejoin:miter;stroke-opacity:1" d="M 255.397,109.995 266.268,119.507 z" id="boundary" inkscape:connector-curvature="0" />
	<path style="fill:none;stroke:red;stroke-width:1px;stroke-linecap:butt;stroke-linejoin:miter;stroke-opacity:1" d="M 266.268,119.507 275.781,130.378 z" id="boundary" inkscape:connector-curvature="0" />
	<path style="fill:none;stroke:red;stroke-width:1px;stroke-linecap:butt;stroke-linejoin:miter;stroke-opacity:1" d="M 275.781,130.378 286.652,139.89 z" id="boundary" inkscape:connector-curvature="0" />
	<path style="fill:none;stroke:red;stroke-width:1px;stroke-linecap:butt;stroke-linejoin:miter;stroke-opacity:1" d="M 286.652,139.89 296.164,150.762 z" id="boundary" inkscape:connector-curvature="0" />
	<path style="fill:none;stroke:red;stroke-width:1px;stroke-linecap:butt;stroke-linejoin:miter;stroke-opacity:1" d="M 296.164,150.762 307.036,160.274 z" id="boundary" inkscape:connector-curvature="0" />
	<path style="fill:none;stroke:red;stroke-width:1px;stroke-linecap:butt;stroke-linejoin:miter;stroke-opacity:1" d="M 307.036,160.274 316.548,171.145 z" id="boundary" inkscape:connector-curvature="0" />
	<path style="fill:none;stroke:red;stroke-width:1px;stroke-linecap:butt;stroke-linejoin:miter;stroke-opacity:1" d="M 316.548,171.145 324.701,182.016 z" id="boundary" inkscape:connector-curvature="0" />
	<path style="fill:none;stroke:red;stroke-width:1px;stroke-linecap:butt;stroke-linejoin:miter;stroke-opacity:1" d="M 324.701,182.016 335.573,190.17 z" id="boundary" inkscape:connector-curvature="0" />
	<path style="fill:none;stroke:red;stroke-width:1px;stroke-linecap:butt;stroke-linejoin:miter;stroke-opacity:1" d="M 335.573,190.17 345.085,201.041 z" id="boundary" inkscape:connector-curvature="0" />
	<path style="fill:none;stroke:red;stroke-width:1px;stroke-linecap:butt;stroke-linejoin:miter;stroke-opacity:1" d="M 345.085,201.041 355.956,209.195 z" id="boundary" inkscape:connector-curvature="0" />
	<path style="fill:none;stroke:red;stroke-width:1px;stroke-linecap:butt;stroke-linejoin:miter;stroke-opacity:1" d="M 355.956,209.195 365.468,220.066 z" id="boundary" inkscape:connector-curvature="0" />
	<path style="fill:none;stroke:red;stroke-width:1px;stroke-linecap:butt;stroke-linejoin:miter;stroke-opacity:1" d="M 365.468,220.066 372.263,232.296 z" id="boundary" inkscape:connector-curvature="0" />
	<path style="fill:none;stroke:red;stroke-width:1px;stroke-linecap:butt;stroke-linejoin:miter;stroke-opacity:1" d="M 372.263,232.296 384.493,239.09 z" id="boundary" inkscape:connector-curvature="0" />
	<path style="fill:none;stroke:red;stroke-width:1px;stroke-linecap:butt;stroke-linejoin:miter;stroke-opacity:1" d="M 384.493,239.09 395.364,248.603 z" id="boundary" inkscape:connector-curvature="0" />
	<path style="fill:none;stroke:red;stroke-width:1px;stroke-linecap:butt;stroke-linejoin:miter;stroke-opacity:1" d="M 395.364,248.603 407.595,255.397 z" id="boundary" inkscape:connector-curvature="0" />
	<path style="fill:none;stroke:red;stroke-width:1px;stroke-linecap:butt;stroke-linejoin:miter;stroke-opacity:1" d="M 407.595,255.397 419.825,262.192 z" id="boundary" inkscape:connector-curvature="0" />
	<path style="fill:none;stroke:red;stroke-width:1px;stroke-linecap:butt;stroke-linejoin:miter;stroke-opacity:1" d="M 419.825,262.192 433.414,262.192 z" id="boundary" inkscape:connector-curvature="0" />
	<path style="fill:none;stroke:red;stroke-width:1px;stroke-linecap:butt;stroke-linejoin:miter;stroke-opacity:1" d="M 433.414,262.192 447.003,266.268 z" id="boundary" inkscape:connector-curvature="0" />
	<path style="fill:none;stroke:red;stroke-width:1px;stroke-linecap:butt;stroke-linejoin:miter;stroke-opacity:1" d="M 447.003,266.268 459.233,273.063 z" id="boundary" inkscape:connector-curvature="0" />
	<path style="fill:none;stroke:red;stroke-width:1px;stroke-linecap:butt;stroke-linejoin:miter;stroke-opacity:1" d="M 459.233,273.063 470.104,282.575 z" id="boundary" inkscape:connector-curvature="0" />
	<path style="fill:none;stroke:red;stroke-width:1px;stroke-linecap:butt;stroke-linejoin:miter;stroke-opacity:1" d="M 470.104,282.575 482.334,289.37 z" id="boundary" inkscape:connector-curvature="0" />
	<path style="fill:none;stroke:red;stroke-width:1px;stroke-linecap:butt;stroke-linejoin:miter;stroke-opacity:1" d="M 482.334,289.37 494.564,296.164 z" id="boundary" inkscape:connector-curvature="0" />
	<path style="fill:none;stroke:red;stroke-width:1px;stroke-linecap:butt;stroke-linejoin:miter;stroke-opacity:1" d="M 494.564,296.164 506.795,302.959 z" id="boundary" inkscape:connector-curvature="0" />
	<path style="fill:none;stroke:red;stroke-width:1px;stroke-linecap:butt;stroke-linejoin:miter;stroke-opacity:1" d="M 506.795,302.959 517.666,311.112 z" id="boundary" inkscape:connector-curvature="0" />
	<path style="fill:none;stroke:red;stroke-width:1px;stroke-linecap:butt;stroke-linejoin:miter;stroke-opacity:1" d="M 517.666,311.112 531.255,316.548 z" id="boundary" inkscape:connector-curvature="0" />
	<path style="fill:none;stroke:red;stroke-width:1px;stroke-linecap:butt;stroke-linejoin:miter;stroke-opacity:1" d="M 531.255,316.548 535.332,330.137 z" id="boundary" inkscape:connector-curvature="0" />
	<path style="fill:none;stroke:red;stroke-width:1px;stroke-linecap:butt;stroke-linejoin:miter;stroke-opacity:1" d="M 535.332,330.137 547.562,336.932 z" id="boundary" inkscape:connector-curvature="0" />
	<path style="fill:none;stroke:red;stroke-width:1px;stroke-linecap:butt;stroke-linejoin:miter;stroke-opacity:1" d="M 547.562,336.932 555.715,347.803 z" id="boundary" inkscape:connector-curvature="0" />
	<path style="fill:none;stroke:red;stroke-width:1px;stroke-linecap:butt;stroke-linejoin:miter;stroke-opacity:1" d="M 555.715,347.803 565.227,358.674 z" id="boundary" inkscape:connector-curvature="0" />
	<path style="fill:none;stroke:red;stroke-width:1px;stroke-linecap:butt;stroke-linejoin:miter;stroke-opacity:1" d="M 565.227,358.674 576.099,368.186 z" id="boundary" inkscape:connector-curvature="0" />
	<path style="fill:none;stroke:red;stroke-width:1px;stroke-linecap:butt;stroke-linejoin:miter;stroke-opacity:1" d="M 576.099,368.186 581.534,381.775 z" id="boundary" inkscape:connector-curvature="0" />
	<path style="fill:none;stroke:red;stroke-width:1px;stroke-linecap:butt;stroke-linejoin:miter;stroke-opacity:1" d="M 581.534,381.775 588.329,394.005 z" id="boundary" inkscape:connector-curvature="0" />
	<path style="fill:none;stroke:red;stroke-width:1px;stroke-linecap:butt;stroke-linejoin:miter;stroke-opacity:1" d="M 588.329,394.005 589.688,407.595 z" id="boundary" inkscape:connector-curvature="0" />
	<path style="fill:none;stroke:red;stroke-width:1px;stroke-linecap:butt;stroke-linejoin:miter;stroke-opacity:1" d="M 589.688,407.595 596.482,419.825 z" id="boundary" inkscape:connector-curvature="0" />
	<path style="fill:none;stroke:red;stroke-width:1px;stroke-linecap:butt;stroke-linejoin:miter;stroke-opacity:1" d="M 596.482,419.825 599.2,433.414 z" id="boundary" inkscape:connector-curvature="0" />
	<path style="fill:none;stroke:red;stroke-width:1px;stroke-linecap:butt;stroke-linejoin:miter;stroke-opacity:1" d="M 599.2,433.414 605.995,445.644 z" id="boundary" inkscape:connector-curvature="0" />
	<path style="fill:none;stroke:red;stroke-width:1px;stroke-linecap:butt;stroke-linejoin:miter;stroke-opacity:1" d="M 605.995,445.644 610.071,459.233 z" id="boundary" inkscape:connector-curvature="0" />
	<path style="fill:none;stroke:red;stroke-width:1px;stroke-linecap:butt;stroke-linejoin:miter;stroke-opacity:1" d="M 610.071,459.233 616.866,471.463 z" id="boundary" inkscape:connector-curvature="0" />
	<path style="fill:none;stroke:red;stroke-width:1px;stroke-linecap:butt;stroke-linejoin:miter;stroke-opacity:1" d="M 616.866,471.463 623.66,483.693 z" id="boundary" inkscape:connector-curvature="0" />
	<path style="fill:none;stroke:red;stroke-width:1px;stroke-linecap:butt;stroke-linejoin:miter;stroke-opacity:1" d="M 623.66,483.693 629.096,497.282 z" id="boundary" inkscape:connector-curvature="0" />
	<path style="fill:none;stroke:red;stroke-width:1px;stroke-linecap:butt;stroke-linejoin:miter;stroke-opacity:1" d="M 629.096,497.282 630.455,510.871 z" id="boundary" inkscape:connector-curvature="0" />
	<path style="fill:none;stroke:red;stroke-width:1px;stroke-linecap:butt;stroke-linejoin:miter;stroke-opacity:1" d="M 630.455,510.871 630.455,524.46 z" id="boundary" inkscape:connector-curvature="0" />
	<path style="fill:none;stroke:red;stroke-width:1px;stroke-linecap:butt;stroke-linejoin:miter;stroke-opacity:1" d="M 630.455,524.46 637.249,536.69 z" id="boundary" inkscape:connector-curvature="0" />
	<path style="fill:none;stroke:red;stroke-width:1px;stroke-linecap:butt;stroke-linejoin:miter;stroke-opacity:1" d="M 637.249,536.69 641.326,550.279 z" id="boundary" inkscape:connector-curvature="0" />
	<path style="fill:none;stroke:red;stroke-width:1px;stroke-linecap:butt;stroke-linejoin:miter;stroke-opacity:1" d="M 641.326,550.279 644.044,563.868 z" id="boundary" inkscape:connector-curvature="0" />
	<path style="fill:none;stroke:red;stroke-width:1px;stroke-linecap:butt;stroke-linejoin:miter;stroke-opacity:1" d="M 644.044,563.868 648.121,577.458 z" id="boundary" inkscape:connector-curvature="0" />
	<path style="fill:none;stroke:red;stroke-width:1px;stroke-linecap:butt;stroke-linejoin:miter;stroke-opacity:1" d="M 648.121,577.458 650.838,591.047 z" id="boundary" inkscape:connector-curvature="0" />
	<path style="fill:none;stroke:red;stroke-width:1px;stroke-linecap:butt;stroke-linejoin:miter;stroke-opacity:1" d="M 650.838,591.047 654.915,604.636 z" id="boundary" inkscape:connector-curvature="0" />
	<path style="fill:none;stroke:red;stroke-width:1px;stroke-linecap:butt;stroke-linejoin:miter;stroke-opacity:1" d="M 654.915,604.636 657.633,618.225 z" id="boundary" inkscape:connector-curvature="0" />
	<path style="fill:none;stroke:red;stroke-width:1px;stroke-linecap:butt;stroke-linejoin:miter;stroke-opacity:1" d="M 657.633,618.225 664.427,630.455 z" id="boundary" inkscape:connector-curvature="0" />
	<path style="fill:none;stroke:red;stroke-width:1px;stroke-linecap:butt;stroke-linejoin:miter;stroke-opacity:1" d="M 664.427,630.455 664.427,644.044 z" id="boundary" inkscape:connector-curvature="0" />
	<path style="fill:none;stroke:red;stroke-width:1px;stroke-linecap:butt;stroke-linejoin:miter;stroke-opacity:1" d="M 664.427,644.044 671.222,656.274 z" id="boundary" inkscape:connector-curvature="0" />
	<path style="fill:none;stroke:red;stroke-width:1px;stroke-linecap:butt;stroke-linejoin:miter;stroke-opacity:1" d="M 391.288,803.036 384.493,823.419 z" id="boundary" inkscape:connector-curvature="0" />
	<path style="fill:none;stroke:red;stroke-width:1px;stroke-linecap:butt;stroke-linejoin:miter;stroke-opacity:1" d="M 384.493,823.419 377.699,843.803 z" id="boundary" inkscape:connector-curvature="0" />
	<path style="fill:none;stroke:red;stroke-width:1px;stroke-linecap:butt;stroke-linejoin:miter;stroke-opacity:1" d="M 377.699,843.803 374.981,860.11 z" id="boundary" inkscape:connector-curvature="0" />
	<path style="fill:none;stroke:red;stroke-width:1px;stroke-linecap:butt;stroke-linejoin:miter;stroke-opacity:1" d="M 374.981,860.11 368.186,873.699 z" id="boundary" inkscape:connector-curvature="0" />
	<path style="fill:none;stroke:red;stroke-width:1px;stroke-linecap:butt;stroke-linejoin:miter;stroke-opacity:1" d="M 368.186,873.699 354.597,873.699 z" id="boundary" inkscape:connector-curvature="0" />
	<path style="fill:none;stroke:red;stroke-width:1px;stroke-linecap:butt;stroke-linejoin:miter;stroke-opacity:1" d="M 354.597,873.699 341.008,880.493 z" id="boundary" inkscape:connector-curvature="0" />
	<path style="fill:none;stroke:red;stroke-width:1px;stroke-linecap:butt;stroke-linejoin:miter;stroke-opacity:1" d="M 341.008,880.493 330.137,891.364 z" id="boundary" inkscape:connector-curvature="0" />
	<path style="fill:none;stroke:red;stroke-width:1px;stroke-linecap:butt;stroke-linejoin:miter;stroke-opacity:1" d="M 330.137,891.364 338.29,902.236 z" id="boundary" inkscape:connector-curvature="0" />
	<path style="fill:none;stroke:red;stroke-width:1px;stroke-linecap:butt;stroke-linejoin:miter;stroke-opacity:1" d="M 338.29,902.236 351.879,902.236 z" id="boundary" inkscape:connector-curvature="0" />
	<path style="fill:none;stroke:red;stroke-width:1px;stroke-linecap:butt;stroke-linejoin:miter;stroke-opacity:1" d="M 351.879,902.236 364.11,909.03 z" id="boundary" inkscape:connector-curvature="0" />
	<path style="fill:none;stroke:red;stroke-width:1px;stroke-linecap:butt;stroke-linejoin:miter;stroke-opacity:1" d="M 671.222,656.274 664.427,678.016 z" id="boundary" inkscape:connector-curvature="0" />
	<path style="fill:none;stroke:red;stroke-width:1px;stroke-linecap:butt;stroke-linejoin:miter;stroke-opacity:1" d="M 664.427,678.016 664.427,691.605 z" id="boundary" inkscape:connector-curvature="0" />
	<path style="fill:none;stroke:red;stroke-width:1px;stroke-linecap:butt;stroke-linejoin:miter;stroke-opacity:1" d="M 664.427,691.605 667.145,705.195 z" id="boundary" inkscape:connector-curvature="0" />
	<path style="fill:none;stroke:red;stroke-width:1px;stroke-linecap:butt;stroke-linejoin:miter;stroke-opacity:1" d="M 667.145,705.195 678.016,714.707 z" id="boundary" inkscape:connector-curvature="0" />
	<path style="fill:none;stroke:red;stroke-width:1px;stroke-linecap:butt;stroke-linejoin:miter;stroke-opacity:1" d="M 678.016,714.707 684.811,726.937 z" id="boundary" inkscape:connector-curvature="0" />
	<path style="fill:none;stroke:red;stroke-width:1px;stroke-linecap:butt;stroke-linejoin:miter;stroke-opacity:1" d="M 684.811,726.937 690.247,741.885 z" id="boundary" inkscape:connector-curvature="0" />
	<path style="fill:none;stroke:red;stroke-width:1px;stroke-linecap:butt;stroke-linejoin:miter;stroke-opacity:1" d="M 690.247,741.885 676.658,745.962 z" id="boundary" inkscape:connector-curvature="0" />
	<path style="fill:none;stroke:red;stroke-width:1px;stroke-linecap:butt;stroke-linejoin:miter;stroke-opacity:1" d="M 676.658,745.962 663.068,745.962 z" id="boundary" inkscape:connector-curvature="0" />
	<path style="fill:none;stroke:red;stroke-width:1px;stroke-linecap:butt;stroke-linejoin:miter;stroke-opacity:1" d="M 663.068,745.962 649.479,745.962 z" id="boundary" inkscape:connector-curvature="0" />
	<path style="fill:none;stroke:red;stroke-width:1px;stroke-linecap:butt;stroke-linejoin:miter;stroke-opacity:1" d="M 649.479,745.962 637.249,752.756 z" id="boundary" inkscape:connector-curvature="0" />
	<path style="fill:none;stroke:red;stroke-width:1px;stroke-linecap:butt;stroke-linejoin:miter;stroke-opacity:1" d="M 637.249,752.756 631.814,773.14 z" id="boundary" inkscape:connector-curvature="0" />
	<path style="fill:none;stroke:red;stroke-width:1px;stroke-linecap:butt;stroke-linejoin:miter;stroke-opacity:1" d="M 631.814,773.14 619.584,779.934 z" id="boundary" inkscape:connector-curvature="0" />
	<path style="fill:none;stroke:red;stroke-width:1px;stroke-linecap:butt;stroke-linejoin:miter;stroke-opacity:1" d="M 619.584,779.934 610.071,769.063 z" id="boundary" inkscape:connector-curvature="0" />
	<path style="fill:none;stroke:red;stroke-width:1px;stroke-linecap:butt;stroke-linejoin:miter;stroke-opacity:1" d="M 610.071,769.063 596.482,763.627 z" id="boundary" inkscape:connector-curvature="0" />
	<path style="fill:none;stroke:red;stroke-width:1px;stroke-linecap:butt;stroke-linejoin:miter;stroke-opacity:1" d="M 596.482,763.627 586.97,752.756 z" id="boundary" inkscape:connector-curvature="0" />
	<path style="fill:none;stroke:red;stroke-width:1px;stroke-linecap:butt;stroke-linejoin:miter;stroke-opacity:1" d="M 586.97,752.756 576.099,743.244 z" id="boundary" inkscape:connector-curvature="0" />
	<path style="fill:none;stroke:red;stroke-width:1px;stroke-linecap:butt;stroke-linejoin:miter;stroke-opacity:1" d="M 576.099,743.244 566.586,732.373 z" id="boundary" inkscape:connector-curvature="0" />
	<path style="fill:none;stroke:red;stroke-width:1px;stroke-linecap:butt;stroke-linejoin:miter;stroke-opacity:1" d="M 566.586,732.373 552.997,732.373 z" id="boundary" inkscape:connector-curvature="0" />
	<path style="fill:none;stroke:red;stroke-width:1px;stroke-linecap:butt;stroke-linejoin:miter;stroke-opacity:1" d="M 552.997,732.373 540.767,725.578 z" id="boundary" inkscape:connector-curvature="0" />
	<path style="fill:none;stroke:red;stroke-width:1px;stroke-linecap:butt;stroke-linejoin:miter;stroke-opacity:1" d="M 540.767,725.578 528.537,718.784 z" id="boundary" inkscape:connector-curvature="0" />
	<path style="fill:none;stroke:red;stroke-width:1px;stroke-linecap:butt;stroke-linejoin:miter;stroke-opacity:1" d="M 528.537,718.784 514.948,718.784 z" id="boundary" inkscape:connector-curvature="0" />
	<path style="fill:none;stroke:red;stroke-width:1px;stroke-linecap:butt;stroke-linejoin:miter;stroke-opacity:1" d="M 514.948,718.784 501.359,725.578 z" id="boundary" inkscape:connector-curvature="0" />
	<path style="fill:none;stroke:red;stroke-width:1px;stroke-linecap:butt;stroke-linejoin:miter;stroke-opacity:1" d="M 501.359,725.578 501.359,739.167 z" id="boundary" inkscape:connector-curvature="0" />
	<path style="fill:none;stroke:red;stroke-width:1px;stroke-linecap:butt;stroke-linejoin:miter;stroke-opacity:1" d="M 501.359,739.167 501.359,752.756 z" id="boundary" inkscape:connector-curvature="0" />
	<path style="fill:none;stroke:red;stroke-width:1px;stroke-linecap:butt;stroke-linejoin:miter;stroke-opacity:1" d="M 501.359,752.756 501.359,766.345 z" id="boundary" inkscape:connector-curvature="0" />
	<path style="fill:none;stroke:red;stroke-width:1px;stroke-linecap:butt;stroke-linejoin:miter;stroke-opacity:1" d="M 501.359,766.345 494.564,779.934 z" id="boundary" inkscape:connector-curvature="0" />
	<path style="fill:none;stroke:red;stroke-width:1px;stroke-linecap:butt;stroke-linejoin:miter;stroke-opacity:1" d="M 494.564,779.934 487.77,800.318 z" id="boundary" inkscape:connector-curvature="0" />
	<path style="fill:none;stroke:red;stroke-width:1px;stroke-linecap:butt;stroke-linejoin:miter;stroke-opacity:1" d="M 487.77,800.318 487.77,813.907 z" id="boundary" inkscape:connector-curvature="0" />
	<path style="fill:none;stroke:red;stroke-width:1px;stroke-linecap:butt;stroke-linejoin:miter;stroke-opacity:1" d="M 487.77,813.907 480.975,827.496 z" id="boundary" inkscape:connector-curvature="0" />
	<path style="fill:none;stroke:red;stroke-width:1px;stroke-linecap:butt;stroke-linejoin:miter;stroke-opacity:1" d="M 480.975,827.496 480.975,841.085 z" id="boundary" inkscape:connector-curvature="0" />
	<path style="fill:none;stroke:red;stroke-width:1px;stroke-linecap:butt;stroke-linejoin:miter;stroke-opacity:1" d="M 480.975,841.085 480.975,854.674 z" id="boundary" inkscape:connector-curvature="0" />
	<path style="fill:none;stroke:red;stroke-width:1px;stroke-linecap:butt;stroke-linejoin:miter;stroke-opacity:1" d="M 480.975,854.674 491.847,862.827 z" id="boundary" inkscape:connector-curvature="0" />
	<path style="fill:none;stroke:red;stroke-width:1px;stroke-linecap:butt;stroke-linejoin:miter;stroke-opacity:1" d="M 491.847,862.827 501.359,873.699 z" id="boundary" inkscape:connector-curvature="0" />
	<path style="fill:none;stroke:red;stroke-width:1px;stroke-linecap:butt;stroke-linejoin:miter;stroke-opacity:1" d="M 501.359,873.699 489.129,881.852 z" id="boundary" inkscape:connector-curvature="0" />
	<path style="fill:none;stroke:red;stroke-width:1px;stroke-linecap:butt;stroke-linejoin:miter;stroke-opacity:1" d="M 489.129,881.852 475.54,881.852 z" id="boundary" inkscape:connector-curvature="0" />
	<path style="fill:none;stroke:red;stroke-width:1px;stroke-linecap:butt;stroke-linejoin:miter;stroke-opacity:1" d="M 475.54,881.852 461.951,881.852 z" id="boundary" inkscape:connector-curvature="0" />
	<path style="fill:none;stroke:red;stroke-width:1px;stroke-linecap:butt;stroke-linejoin:miter;stroke-opacity:1" d="M 461.951,881.852 448.362,880.493 z" id="boundary" inkscape:connector-curvature="0" />
	<path style="fill:none;stroke:red;stroke-width:1px;stroke-linecap:butt;stroke-linejoin:miter;stroke-opacity:1" d="M 448.362,880.493 436.132,873.699 z" id="boundary" inkscape:connector-curvature="0" />
	<path style="fill:none;stroke:red;stroke-width:1px;stroke-linecap:butt;stroke-linejoin:miter;stroke-opacity:1" d="M 436.132,873.699 425.26,864.186 z" id="boundary" inkscape:connector-curvature="0" />
	<path style="fill:none;stroke:red;stroke-width:1px;stroke-linecap:butt;stroke-linejoin:miter;stroke-opacity:1" d="M 425.26,864.186 438.849,850.597 z" id="boundary" inkscape:connector-curvature="0" />
	<path style="fill:none;stroke:red;stroke-width:1px;stroke-linecap:butt;stroke-linejoin:miter;stroke-opacity:1" d="M 438.849,850.597 449.721,839.726 z" id="boundary" inkscape:connector-curvature="0" />
	<path style="fill:none;stroke:red;stroke-width:1px;stroke-linecap:butt;stroke-linejoin:miter;stroke-opacity:1" d="M 364.11,909.03 353.238,929.414 z" id="boundary" inkscape:connector-curvature="0" />
	<path style="fill:none;stroke:red;stroke-width:1px;stroke-linecap:butt;stroke-linejoin:miter;stroke-opacity:1" d="M 353.238,929.414 339.649,934.849 z" id="boundary" inkscape:connector-curvature="0" />
	<path style="fill:none;stroke:red;stroke-width:1px;stroke-linecap:butt;stroke-linejoin:miter;stroke-opacity:1" d="M 339.649,934.849 327.419,941.644 z" id="boundary" inkscape:connector-curvature="0" />
	<path style="fill:none;stroke:red;stroke-width:1px;stroke-linecap:butt;stroke-linejoin:miter;stroke-opacity:1" d="M 327.419,941.644 313.83,941.644 z" id="boundary" inkscape:connector-curvature="0" />
	<path style="fill:none;stroke:red;stroke-width:1px;stroke-linecap:butt;stroke-linejoin:miter;stroke-opacity:1" d="M 313.83,941.644 300.241,941.644 z" id="boundary" inkscape:connector-curvature="0" />
	<path style="fill:none;stroke:red;stroke-width:1px;stroke-linecap:butt;stroke-linejoin:miter;stroke-opacity:1" d="M 300.241,941.644 289.37,952.515 z" id="boundary" inkscape:connector-curvature="0" />
	<path style="fill:none;stroke:red;stroke-width:1px;stroke-linecap:butt;stroke-linejoin:miter;stroke-opacity:1" d="M 289.37,952.515 296.164,964.745 z" id="boundary" inkscape:connector-curvature="0" />
	<path style="fill:none;stroke:red;stroke-width:1px;stroke-linecap:butt;stroke-linejoin:miter;stroke-opacity:1" d="M 296.164,964.745 309.753,970.181 z" id="boundary" inkscape:connector-curvature="0" />
	<path style="fill:none;stroke:red;stroke-width:1px;stroke-linecap:butt;stroke-linejoin:miter;stroke-opacity:1" d="M 309.753,970.181 323.342,970.181 z" id="boundary" inkscape:connector-curvature="0" />
	<path style="fill:none;stroke:red;stroke-width:1px;stroke-linecap:butt;stroke-linejoin:miter;stroke-opacity:1" d="M 323.342,970.181 330.137,982.411 z" id="boundary" inkscape:connector-curvature="0" />
	<path style="fill:none;stroke:red;stroke-width:1px;stroke-linecap:butt;stroke-linejoin:miter;stroke-opacity:1" d="M 330.137,982.411 332.855,996 z" id="boundary" inkscape:connector-curvature="0" />
	<path style="fill:none;stroke:red;stroke-width:1px;stroke-linecap:butt;stroke-linejoin:miter;stroke-opacity:1" d="M 332.855,996 346.444,990.564 z" id="boundary" inkscape:connector-curvature="0" />
	<path style="fill:none;stroke:red;stroke-width:1px;stroke-linecap:butt;stroke-linejoin:miter;stroke-opacity:1" d="M 346.444,990.564 358.674,983.77 z" id="boundary" inkscape:connector-curvature="0" />
	<path style="fill:none;stroke:red;stroke-width:1px;stroke-linecap:butt;stroke-linejoin:miter;stroke-opacity:1" d="M 358.674,983.77 369.545,974.258 z" id="boundary" inkscape:connector-curvature="0" />
	<path style="fill:none;stroke:red;stroke-width:1px;stroke-linecap:butt;stroke-linejoin:miter;stroke-opacity:1" d="M 369.545,974.258 377.699,963.386 z" id="boundary" inkscape:connector-curvature="0" />
	<path style="fill:none;stroke:red;stroke-width:1px;stroke-linecap:butt;stroke-linejoin:miter;stroke-opacity:1" d="M 377.699,963.386 388.57,955.233 z" id="boundary" inkscape:connector-curvature="0" />
	<path style="fill:none;stroke:red;stroke-width:1px;stroke-linecap:butt;stroke-linejoin:miter;stroke-opacity:1" d="M 388.57,955.233 402.159,948.438 z" id="boundary" inkscape:connector-curvature="0" />
	<path style="fill:none;stroke:red;stroke-width:1px;stroke-linecap:butt;stroke-linejoin:miter;stroke-opacity:1" d="M 402.159,948.438 413.03,936.208 z" id="boundary" inkscape:connector-curvature="0" />
	<path style="fill:none;stroke:red;stroke-width:1px;stroke-linecap:butt;stroke-linejoin:miter;stroke-opacity:1" d="M 413.03,936.208 426.619,930.773 z" id="boundary" inkscape:connector-curvature="0" />
	<path style="fill:none;stroke:red;stroke-width:1px;stroke-linecap:butt;stroke-linejoin:miter;stroke-opacity:1" d="M 426.619,930.773 426.619,917.184 z" id="boundary" inkscape:connector-curvature="0" />
	<path style="fill:none;stroke:red;stroke-width:1px;stroke-linecap:butt;stroke-linejoin:miter;stroke-opacity:1" d="M 426.619,917.184 413.03,921.26 z" id="boundary" inkscape:connector-curvature="0" />
	<path style="fill:none;stroke:red;stroke-width:1px;stroke-linecap:butt;stroke-linejoin:miter;stroke-opacity:1" d="M 413.03,921.26 399.441,921.26 z" id="boundary" inkscape:connector-curvature="0" />
	<path style="fill:none;stroke:red;stroke-width:1px;stroke-linecap:butt;stroke-linejoin:miter;stroke-opacity:1" d="M 399.441,921.26 392.647,909.03 z" id="boundary" inkscape:connector-curvature="0" />
	<path style="fill:none;stroke:red;stroke-width:1px;stroke-linecap:butt;stroke-linejoin:miter;stroke-opacity:1" d="M 392.647,909.03 392.647,895.441 z" id="boundary" inkscape:connector-curvature="0" />
	<path style="fill:none;stroke:red;stroke-width:1px;stroke-linecap:butt;stroke-linejoin:miter;stroke-opacity:1" d="M 392.647,895.441 392.647,881.852 z" id="boundary" inkscape:connector-curvature="0" />
	<path style="fill:none;stroke:red;stroke-width:1px;stroke-linecap:butt;stroke-linejoin:miter;stroke-opacity:1" d="M 392.647,881.852 403.518,872.34 z" id="boundary" inkscape:connector-curvature="0" />
	<path style="fill:none;stroke:red;stroke-width:1px;stroke-linecap:butt;stroke-linejoin:miter;stroke-opacity:1" d="M 403.518,872.34 406.236,847.879 z" id="boundary" inkscape:connector-curvature="0" />
	<path style="fill:none;stroke:red;stroke-width:1px;stroke-linecap:butt;stroke-linejoin:miter;stroke-opacity:1" d="M 406.236,847.879 406.236,834.29 z" id="boundary" inkscape:connector-curvature="0" />
	<path style="fill:none;stroke:red;stroke-width:1px;stroke-linecap:butt;stroke-linejoin:miter;stroke-opacity:1" d="M 406.236,834.29 413.03,820.701 z" id="boundary" inkscape:connector-curvature="0" />
	<path style="fill:none;stroke:red;stroke-width:1px;stroke-linecap:butt;stroke-linejoin:miter;stroke-opacity:1" d="M 413.03,820.701 413.03,807.112 z" id="boundary" inkscape:connector-curvature="0" />
	<path style="fill:none;stroke:red;stroke-width:1px;stroke-linecap:butt;stroke-linejoin:miter;stroke-opacity:1" d="M 413.03,807.112 423.901,797.6 z" id="boundary" inkscape:connector-curvature="0" />
	<path style="fill:none;stroke:red;stroke-width:1px;stroke-linecap:butt;stroke-linejoin:miter;stroke-opacity:1" d="M 423.901,797.6 426.619,779.934 z" id="boundary" inkscape:connector-curvature="0" />
	<path style="fill:none;stroke:red;stroke-width:1px;stroke-linecap:butt;stroke-linejoin:miter;stroke-opacity:1" d="M 426.619,779.934 433.414,766.345 z" id="boundary" inkscape:connector-curvature="0" />
	<path style="fill:none;stroke:red;stroke-width:1px;stroke-linecap:butt;stroke-linejoin:miter;stroke-opacity:1" d="M 433.414,766.345 440.208,750.038 z" id="boundary" inkscape:connector-curvature="0" />
	<path style="fill:none;stroke:red;stroke-width:1px;stroke-linecap:butt;stroke-linejoin:miter;stroke-opacity:1" d="M 440.208,750.038 433.414,737.808 z" id="boundary" inkscape:connector-curvature="0" />
	<path style="fill:none;stroke:red;stroke-width:1px;stroke-linecap:butt;stroke-linejoin:miter;stroke-opacity:1" d="M 433.414,737.808 426.619,725.578 z" id="boundary" inkscape:connector-curvature="0" />
	<path style="fill:none;stroke:red;stroke-width:1px;stroke-linecap:butt;stroke-linejoin:miter;stroke-opacity:1" d="M 426.619,725.578 426.619,711.989 z" id="boundary" inkscape:connector-curvature="0" />
	<path style="fill:none;stroke:red;stroke-width:1px;stroke-linecap:butt;stroke-linejoin:miter;stroke-opacity:1" d="M 426.619,711.989 440.208,705.195 z" id="boundary" inkscape:connector-curvature="0" />
	<path style="fill:none;stroke:red;stroke-width:1px;stroke-linecap:butt;stroke-linejoin:miter;stroke-opacity:1" d="M 440.208,705.195 453.797,705.195 z" id="boundary" inkscape:connector-curvature="0" />
	<path style="fill:none;stroke:red;stroke-width:1px;stroke-linecap:butt;stroke-linejoin:miter;stroke-opacity:1" d="M 453.797,705.195 466.027,711.989 z" id="boundary" inkscape:connector-curvature="0" />
	<path style="fill:none;stroke:red;stroke-width:1px;stroke-linecap:butt;stroke-linejoin:miter;stroke-opacity:1" d="M 466.027,711.989 466.027,725.578 z" id="boundary" inkscape:connector-curvature="0" />
	<path style="fill:none;stroke:red;stroke-width:1px;stroke-linecap:butt;stroke-linejoin:miter;stroke-opacity:1" d="M 466.027,725.578 466.027,739.167 z" id="boundary" inkscape:connector-curvature="0" />
	<path style="fill:none;stroke:red;stroke-width:1px;stroke-linecap:butt;stroke-linejoin:miter;stroke-opacity:1" d="M 466.027,739.167 466.027,752.756 z" id="boundary" inkscape:connector-curvature="0" />
	<path style="fill:none;stroke:red;stroke-width:1px;stroke-linecap:butt;stroke-linejoin:miter;stroke-opacity:1" d="M 466.027,752.756 466.027,766.345 z" id="boundary" inkscape:connector-curvature="0" />
	<path style="fill:none;stroke:red;stroke-width:1px;stroke-linecap:butt;stroke-linejoin:miter;stroke-opacity:1" d="M 466.027,766.345 466.027,779.934 z" id="boundary" inkscape:connector-curvature="0" />
	<path style="fill:none;stroke:red;stroke-width:1px;stroke-linecap:butt;stroke-linejoin:miter;stroke-opacity:1" d="M 466.027,779.934 466.027,793.523 z" id="boundary" inkscape:connector-curvature="0" />
	<path style="fill:none;stroke:red;stroke-width:1px;stroke-linecap:butt;stroke-linejoin:miter;stroke-opacity:1" d="M 466.027,793.523 459.233,816.625 z" id="boundary" inkscape:connector-curvature="0" />
	<path style="fill:none;stroke:red;stroke-width:1px;stroke-linecap:butt;stroke-linejoin:miter;stroke-opacity:1" d="M 459.233,816.625 449.721,839.726 z" id="boundary" inkscape:connector-curvature="0" />
	<circle cx="4" cy="8.07671" r="4" fill="#0" id="circle0"/>
	<circle cx="10.7945" cy="20.3068" r="4" fill="#0" id="circle1"/>
	<circle cx="17.589" cy="4" r="4" fill="#0" id="circle2"/>
	<circle cx="20.3068" cy="31.1781" r="4" fill="#0" id="circle3"/>
	<circle cx="29.8192" cy="10.7945" r="4" fill="#0" id="circle4"/>
	<circle cx="31.1781" cy="39.3315" r="4" fill="#0" id="circle5"/>
	<circle cx="39.3315" cy="50.2027" r="4" fill="#0" id="circle6"/>
	<circle cx="42.0493" cy="17.589" r="4" fill="#0" id="circle7"/>
	<circle cx="50.2027" cy="59.7151" r="4" fill="#0" id="circle8"/>
	<circle cx="55.6384" cy="17.589" r="4" fill="#0" id="circle9"/>
	<circle cx="62.4329" cy="66.5096" r="4" fill="#0" id="circle10"/>
	<circle cx="67.8685" cy="24.3836" r="4" fill="#0" id="circle11"/>
	<circle cx="76.0219" cy="71.9452" r="4" fill="#0" id="circle12"/>
	<circle cx="80.0986" cy="31.1781" r="4" fill="#0" id="circle13"/>
	<circle cx="85.5342" cy="82.8164" r="4" fill="#0" id="circle14"/>
	<circle cx="90.9699" cy="39.3315" r="4" fill="#0" id="circle15"/>
	<circle cx="92.3288" cy="95.0466" r="4" fill="#0" id="circle16"/>
	<circle cx="99.1233" cy="107.277" r="4" fill="#0" id="circle17"/>
	<circle cx="103.2" cy="120.866" r="4" fill="#0" id="circle18"/>
	<circle cx="104.559" cy="44.7671" r="4" fill="#0" id="circle19"/>
	<circle cx="105.918" cy="134.455" r="4" fill="#0" id="circle20"/>
	<circle cx="112.712" cy="146.685" r="4" fill="#0" id="circle21"/>
	<circle cx="115.43" cy="160.274" r="4" fill="#0" id="circle22"/>
	<circle cx="116.789" cy="51.5616" r="4" fill="#0" id="circle23"/>
	<circle cx="126.301" cy="168.427" r="4" fill="#0" id="circle24"/>
	<circle cx="126.301" cy="182.016" r="4" fill="#0" id="circle25"/>
	<circle cx="129.019" cy="58.3562" r="4" fill="#0" id="circle26"/>
	<circle cx="133.096" cy="239.09" r="4" fill="#0" id="circle27"/>
	<circle cx="133.096" cy="252.679" r="4" fill="#0" id="circle28"/>
	<circle cx="133.096" cy="266.268" r="4" fill="#0" id="circle29"/>
	<circle cx="133.096" cy="279.858" r="4" fill="#0" id="circle30"/>
	<circle cx="133.096" cy="293.447" r="4" fill="#0" id="circle31"/>
	<circle cx="133.096" cy="307.036" r="4" fill="#0" id="circle32"/>
	<circle cx="134.455" cy="192.888" r="4" fill="#0" id="circle33"/>
	<circle cx="139.89" cy="206.477" r="4" fill="#0" id="circle34"/>
	<circle cx="139.89" cy="220.066" r="4" fill="#0" id="circle35"/>
	<circle cx="139.89" cy="319.266" r="4" fill="#0" id="circle36"/>
	<circle cx="139.89" cy="332.855" r="4" fill="#0" id="circle37"/>
	<circle cx="141.249" cy="65.1507" r="4" fill="#0" id="circle38"/>
	<circle cx="146.685" cy="345.085" r="4" fill="#0" id="circle39"/>
	<circle cx="154.838" cy="69.2274" r="4" fill="#0" id="circle40"/>
	<circle cx="154.838" cy="355.956" r="4" fill="#0" id="circle41"/>
	<circle cx="161.633" cy="368.186" r="4" fill="#0" id="circle42"/>
	<circle cx="167.068" cy="381.775" r="4" fill="#0" id="circle43"/>
	<circle cx="168.427" cy="71.9452" r="4" fill="#0" id="circle44"/>
	<circle cx="177.94" cy="391.288" r="4" fill="#0" id="circle45"/>
	<circle cx="180.658" cy="404.877" r="4" fill="#0" id="circle46"/>
	<circle cx="182.016" cy="71.9452" r="4" fill="#0" id="circle47"/>
	<circle cx="188.811" cy="415.748" r="4" fill="#0" id="circle48"/>
	<circle cx="194.247" cy="78.7397" r="4" fill="#0" id="circle49"/>
	<circle cx="194.247" cy="429.337" r="4" fill="#0" id="circle50"/>
	<circle cx="201.041" cy="441.567" r="4" fill="#0" id="circle51"/>
	<circle cx="206.477" cy="85.5342" r="4" fill="#0" id="circle52"/>
	<circle cx="207.836" cy="453.797" r="4" fill="#0" id="circle53"/>
	<circle cx="211.912" cy="467.386" r="4" fill="#0" id="circle54"/>
	<circle cx="220.066" cy="86.8932" r="4" fill="#0" id="circle55"/>
	<circle cx="222.784" cy="476.899" r="4" fill="#0" id="circle56"/>
	<circle cx="229.578" cy="97.7644" r="4" fill="#0" id="circle57"/>
	<circle cx="232.296" cy="487.77" r="4" fill="#0" id="circle58"/>
	<circle cx="235.014" cy="501.359" r="4" fill="#0" id="circle59"/>
	<circle cx="241.808" cy="513.589" r="4" fill="#0" id="circle60"/>
	<circle cx="243.167" cy="103.2" r="4" fill="#0" id="circle61"/>
	<circle cx="249.962" cy="524.46" r="4" fill="#0" id="circle62"/>
	<circle cx="255.397" cy="109.995" r="4" fill="#0" id="circle63"/>
	<circle cx="255.397" cy="538.049" r="4" fill="#0" id="circle64"/>
	<circle cx="266.268" cy="119.507" r="4" fill="#0" id="circle65"/>
	<circle cx="266.268" cy="547.562" r="4" fill="#0" id="circle66"/>
	<circle cx="271.704" cy="561.151" r="4" fill="#0" id="circle67"/>
	<circle cx="275.781" cy="130.378" r="4" fill="#0" id="circle68"/>
	<circle cx="278.499" cy="573.381" r="4" fill="#0" id="circle69"/>
	<circle cx="286.652" cy="139.89" r="4" fill="#0" id="circle70"/>
	<circle cx="289.37" cy="582.893" r="4" fill="#0" id="circle71"/>
	<circle cx="289.37" cy="952.515" r="4" fill="#0" id="circle72"/>
	<circle cx="293.447" cy="596.482" r="4" fill="#0" id="circle73"/>
	<circle cx="296.164" cy="150.762" r="4" fill="#0" id="circle74"/>
	<circle cx="296.164" cy="964.745" r="4" fill="#0" id="circle75"/>
	<circle cx="300.241" cy="608.712" r="4" fill="#0" id="circle76"/>
	<circle cx="300.241" cy="941.644" r="4" fill="#0" id="circle77"/>
	<circle cx="307.036" cy="160.274" r="4" fill="#0" id="circle78"/>
	<circle cx="309.753" cy="619.584" r="4" fill="#0" id="circle79"/>
	<circle cx="309.753" cy="970.181" r="4" fill="#0" id="circle80"/>
	<circle cx="313.83" cy="941.644" r="4" fill="#0" id="circle81"/>
	<circle cx="316.548" cy="171.145" r="4" fill="#0" id="circle82"/>
	<circle cx="323.342" cy="623.66" r="4" fill="#0" id="circle83"/>
	<circle cx="323.342" cy="970.181" r="4" fill="#0" id="circle84"/>
	<circle cx="324.701" cy="182.016" r="4" fill="#0" id="circle85"/>
	<circle cx="327.419" cy="637.249" r="4" fill="#0" id="circle86"/>
	<circle cx="327.419" cy="941.644" r="4" fill="#0" id="circle87"/>
	<circle cx="330.137" cy="891.364" r="4" fill="#0" id="circle88"/>
	<circle cx="330.137" cy="982.411" r="4" fill="#0" id="circle89"/>
	<circle cx="332.855" cy="996" r="4" fill="#0" id="circle90"/>
	<circle cx="335.573" cy="190.17" r="4" fill="#0" id="circle91"/>
	<circle cx="338.29" cy="646.762" r="4" fill="#0" id="circle92"/>
	<circle cx="338.29" cy="902.236" r="4" fill="#0" id="circle93"/>
	<circle cx="339.649" cy="934.849" r="4" fill="#0" id="circle94"/>
	<circle cx="341.008" cy="880.493" r="4" fill="#0" id="circle95"/>
	<circle cx="345.085" cy="201.041" r="4" fill="#0" id="circle96"/>
	<circle cx="346.444" cy="990.564" r="4" fill="#0" id="circle97"/>
	<circle cx="347.803" cy="657.633" r="4" fill="#0" id="circle98"/>
	<circle cx="351.879" cy="902.236" r="4" fill="#0" id="circle99"/>
	<circle cx="353.238" cy="929.414" r="4" fill="#0" id="circle100"/>
	<circle cx="354.597" cy="873.699" r="4" fill="#0" id="circle101"/>
	<circle cx="355.956" cy="209.195" r="4" fill="#0" id="circle102"/>
	<circle cx="358.674" cy="667.145" r="4" fill="#0" id="circle103"/>
	<circle cx="358.674" cy="983.77" r="4" fill="#0" id="circle104"/>
	<circle cx="364.11" cy="909.03" r="4" fill="#0" id="circle105"/>
	<circle cx="365.468" cy="220.066" r="4" fill="#0" id="circle106"/>
	<circle cx="368.186" cy="678.016" r="4" fill="#0" id="circle107"/>
	<circle cx="368.186" cy="873.699" r="4" fill="#0" id="circle108"/>
	<circle cx="369.545" cy="974.258" r="4" fill="#0" id="circle109"/>
	<circle cx="372.263" cy="232.296" r="4" fill="#0" id="circle110"/>
	<circle cx="374.981" cy="860.11" r="4" fill="#0" id="circle111"/>
	<circle cx="377.699" cy="843.803" r="4" fill="#0" id="circle112"/>
	<circle cx="377.699" cy="963.386" r="4" fill="#0" id="circle113"/>
	<circle cx="379.058" cy="687.529" r="4" fill="#0" id="circle114"/>
	<circle cx="384.493" cy="239.09" r="4" fill="#0" id="circle115"/>
	<circle cx="384.493" cy="823.419" r="4" fill="#0" id="circle116"/>
	<circle cx="388.57" cy="698.4" r="4" fill="#0" id="circle117"/>
	<circle cx="388.57" cy="955.233" r="4" fill="#0" id="circle118"/>
	<circle cx="391.288" cy="803.036" r="4" fill="#0" id="circle119"/>
	<circle cx="392.647" cy="881.852" r="4" fill="#0" id="circle120"/>
	<circle cx="392.647" cy="895.441" r="4" fill="#0" id="circle121"/>
	<circle cx="392.647" cy="909.03" r="4" fill="#0" id="circle122"/>
	<circle cx="395.364" cy="248.603" r="4" fill="#0" id="circle123"/>
	<circle cx="398.082" cy="709.271" r="4" fill="#0" id="circle124"/>
	<circle cx="398.082" cy="722.86" r="4" fill="#0" id="circle125"/>
	<circle cx="398.082" cy="736.449" r="4" fill="#0" id="circle126"/>
	<circle cx="398.082" cy="750.038" r="4" fill="#0" id="circle127"/>
	<circle cx="398.082" cy="763.627" r="4" fill="#0" id="circle128"/>
	<circle cx="398.082" cy="777.216" r="4" fill="#0" id="circle129"/>
	<circle cx="398.082" cy="790.805" r="4" fill="#0" id="circle130"/>
	<circle cx="399.441" cy="921.26" r="4" fill="#0" id="circle131"/>
	<circle cx="402.159" cy="948.438" r="4" fill="#0" id="circle132"/>
	<circle cx="403.518" cy="872.34" r="4" fill="#0" id="circle133"/>
	<circle cx="406.236" cy="834.29" r="4" fill="#0" id="circle134"/>
	<circle cx="406.236" cy="847.879" r="4" fill="#0" id="circle135"/>
	<circle cx="407.595" cy="255.397" r="4" fill="#0" id="circle136"/>
	<circle cx="413.03" cy="807.112" r="4" fill="#0" id="circle137"/>
	<circle cx="413.03" cy="820.701" r="4" fill="#0" id="circle138"/>
	<circle cx="413.03" cy="921.26" r="4" fill="#0" id="circle139"/>
	<circle cx="413.03" cy="936.208" r="4" fill="#0" id="circle140"/>
	<circle cx="419.825" cy="262.192" r="4" fill="#0" id="circle141"/>
	<circle cx="423.901" cy="797.6" r="4" fill="#0" id="circle142"/>
	<circle cx="425.26" cy="864.186" r="4" fill="#0" id="circle143"/>
	<circle cx="426.619" cy="711.989" r="4" fill="#0" id="circle144"/>
	<circle cx="426.619" cy="725.578" r="4" fill="#0" id="circle145"/>
	<circle cx="426.619" cy="779.934" r="4" fill="#0" id="circle146"/>
	<circle cx="426.619" cy="917.184" r="4" fill="#0" id="circle147"/>
	<circle cx="426.619" cy="930.773" r="4" fill="#0" id="circle148"/>
	<circle cx="433.414" cy="262.192" r="4" fill="#0" id="circle149"/>
	<circle cx="433.414" cy="737.808" r="4" fill="#0" id="circle150"/>
	<circle cx="433.414" cy="766.345" r="4" fill="#0" id="circle151"/>
	<circle cx="436.132" cy="873.699" r="4" fill="#0" id="circle152"/>
	<circle cx="438.849" cy="850.597" r="4" fill="#0" id="circle153"/>
	<circle cx="440.208" cy="705.195" r="4" fill="#0" id="circle154"/>
	<circle cx="440.208" cy="750.038" r="4" fill="#0" id="circle155"/>
	<circle cx="447.003" cy="266.268" r="4" fill="#0" id="circle156"/>
	<circle cx="448.362" cy="880.493" r="4" fill="#0" id="circle157"/>
	<circle cx="449.721" cy="839.726" r="4" fill="#0" id="circle158"/>
	<circle cx="453.797" cy="705.195" r="4" fill="#0" id="circle159"/>
	<circle cx="459.233" cy="273.063" r="4" fill="#0" id="circle160"/>
	<circle cx="459.233" cy="816.625" r="4" fill="#0" id="circle161"/>
	<circle cx="461.951" cy="881.852" r="4" fill="#0" id="circle162"/>
	<circle cx="466.027" cy="711.989" r="4" fill="#0" id="circle163"/>
	<circle cx="466.027" cy="725.578" r="4" fill="#0" id="circle164"/>
	<circle cx="466.027" cy="739.167" r="4" fill="#0" id="circle165"/>
	<circle cx="466.027" cy="752.756" r="4" fill="#0" id="circle166"/>
	<circle cx="466.027" cy="766.345" r="4" fill="#0" id="circle167"/>
	<circle cx="466.027" cy="779.934" r="4" fill="#0" id="circle168"/>
	<circle cx="466.027" cy="793.523" r="4" fill="#0" id="circle169"/>
	<circle cx="470.104" cy="282.575" r="4" fill="#0" id="circle170"/>
	<circle cx="475.54" cy="881.852" r="4" fill="#0" id="circle171"/>
	<circle cx="480.975" cy="827.496" r="4" fill="#0" id="circle172"/>
	<circle cx="480.975" cy="841.085" r="4" fill="#0" id="circle173"/>
	<circle cx="480.975" cy="854.674" r="4" fill="#0" id="circle174"/>
	<circle cx="482.334" cy="289.37" r="4" fill="#0" id="circle175"/>
	<circle cx="487.77" cy="800.318" r="4" fill="#0" id="circle176"/>
	<circle cx="487.77" cy="813.907" r="4" fill="#0" id="circle177"/>
	<circle cx="489.129" cy="881.852" r="4" fill="#0" id="circle178"/>
	<circle cx="491.847" cy="862.827" r="4" fill="#0" id="circle179"/>
	<circle cx="494.564" cy="296.164" r="4" fill="#0" id="circle180"/>
	<circle cx="494.564" cy="779.934" r="4" fill="#0" id="circle181"/>
	<circle cx="501.359" cy="725.578" r="4" fill="#0" id="circle182"/>
	<circle cx="501.359" cy="739.167" r="4" fill="#0" id="circle183"/>
	<circle cx="501.359" cy="752.756" r="4" fill="#0" id="circle184"/>
	<circle cx="501.359" cy="766.345" r="4" fill="#0" id="circle185"/>
	<circle cx="501.359" cy="873.699" r="4" fill="#0" id="circle186"/>
	<circle cx="506.795" cy="302.959" r="4" fill="#0" id="circle187"/>
	<circle cx="514.948" cy="718.784" r="4" fill="#0" id="circle188"/>
	<circle cx="517.666" cy="311.112" r="4" fill="#0" id="circle189"/>
	<circle cx="528.537" cy="718.784" r="4" fill="#0" id="circle190"/>
	<circle cx="531.255" cy="316.548" r="4" fill="#0" id="circle191"/>
	<circle cx="535.332" cy="330.137" r="4" fill="#0" id="circle192"/>
	<circle cx="540.767" cy="725.578" r="4" fill="#0" id="circle193"/>
	<circle cx="547.562" cy="336.932" r="4" fill="#0" id="circle194"/>
	<circle cx="552.997" cy="732.373" r="4" fill="#0" id="circle195"/>
	<circle cx="555.715" cy="347.803" r="4" fill="#0" id="circle196"/>
	<circle cx="565.227" cy="358.674" r="4" fill="#0" id="circle197"/>
	<circle cx="566.586" cy="732.373" r="4" fill="#0" id="circle198"/>
	<circle cx="576.099" cy="368.186" r="4" fill="#0" id="circle199"/>
	<circle cx="576.099" cy="743.244" r="4" fill="#0" id="circle200"/>
	<circle cx="581.534" cy="381.775" r="4" fill="#0" id="circle201"/>
	<circle cx="586.97" cy="752.756" r="4" fill="#0" id="circle202"/>
	<circle cx="588.329" cy="394.005" r="4" fill="#0" id="circle203"/>
	<circle cx="589.688" cy="407.595" r="4" fill="#0" id="circle204"/>
	<circle cx="596.482" cy="419.825" r="4" fill="#0" id="circle205"/>
	<circle cx="596.482" cy="763.627" r="4" fill="#0" id="circle206"/>
	<circle cx="599.2" cy="433.414" r="4" fill="#0" id="circle207"/>
	<circle cx="605.995" cy="445.644" r="4" fill="#0" id="circle208"/>
	<circle cx="610.071" cy="459.233" r="4" fill="#0" id="circle209"/>
	<circle cx="610.071" cy="769.063" r="4" fill="#0" id="circle210"/>
	<circle cx="616.866" cy="471.463" r="4" fill="#0" id="circle211"/>
	<circle cx="619.584" cy="779.934" r="4" fill="#0" id="circle212"/>
	<circle cx="623.66" cy="483.693" r="4" fill="#0" id="circle213"/>
	<circle cx="629.096" cy="497.282" r="4" fill="#0" id="circle214"/>
	<circle cx="630.455" cy="510.871" r="4" fill="#0" id="circle215"/>
	<circle cx="630.455" cy="524.46" r="4" fill="#0" id="circle216"/>
	<circle cx="631.814" cy="773.14" r="4" fill="#0" id="circle217"/>
	<circle cx="637.249" cy="536.69" r="4" fill="#0" id="circle218"/>
	<circle cx="637.249" cy="752.756" r="4" fill="#0" id="circle219"/>
	<circle cx="641.326" cy="550.279" r="4" fill="#0" id="circle220"/>
	<circle cx="644.044" cy="563.868" r="4" fill="#0" id="circle221"/>
	<circle cx="648.121" cy="577.458" r="4" fill="#0" id="circle222"/>
	<circle cx="649.479" cy="745.962" r="4" fill="#0" id="circle223"/>
	<circle cx="650.838" cy="591.047" r="4" fill="#0" id="circle224"/>
	<circle cx="654.915" cy="604.636" r="4" fill="#0" id="circle225"/>
	<circle cx="657.633" cy="618.225" r="4" fill="#0" id="circle226"/>
	<circle cx="663.068" cy="745.962" r="4" fill="#0" id="circle227"/>
	<circle cx="664.427" cy="630.455" r="4" fill="#0" id="circle228"/>
	<circle cx="664.427" cy="644.044" r="4" fill="#0" id="circle229"/>
	<circle cx="664.427" cy="678.016" r="4" fill="#0" id="circle230"/>
	<circle cx="664.427" cy="691.605" r="4" fill="#0" id="circle231"/>
	<circle cx="667.145" cy="705.195" r="4" fill="#0" id="circle232"/>
	<circle cx="671.222" cy="656.274" r="4" fill="#0" id="circle233"/>
	<circle cx="676.658" cy="745.962" r="4" fill="#0" id="circle234"/>
	<circle cx="678.016" cy="714.707" r="4" fill="#0" id="circle235"/>
	<circle cx="684.811" cy="726.937" r="4" fill="#0" id="circle236"/>
	<circle cx="690.247" cy="741.885" r="4" fill="#0" id="circle237"/>
	</g>
</svg>