<?xml version="1.0" encoding="UTF-8" standalone="no"?>
<!-- Created with CurveBenchmark -->
<svg
	xmlns:dc="http://purl.org/dc/elements/1.1/"
	xmlns:cc="http://creativecommons.org/ns#"
	xmlns:rdf="http://www.w3.org/1999/02/22-rdf-syntax-ns#"
	xmlns:svg="http://www.w3.org/2000/svg"
	xmlns="http://www.w3.org/2000/svg"
	xmlns:sodipodi="http://sodipodi.sourceforge.net/DTD/sodipodi-0.dtd"
	xmlns:inkscape="http://www.inkscape.org/namespaces/inkscape"
	width="1000"
	height="1000"
	id="svg2"
	version="1.1"
	sodipodi:docname="manifold/crawl-hammer02.png.txt">
<defs
	id="defs4" />
<metadata
	id="metadata7">
	<rdf:RDF>
		<cc:Work
			rdf:about="">
			<dc:format>image/svg+xml</dc:format>
			<dc:type
				rdf:resource="http://purl.org/dc/dcmitype/StillImage" />
			<dc:title></dc:title>
		</cc:Work>
	</rdf:RDF>
</metadata>
<g
	inkscape:label="Layer 1"
	inkscape:groupmode="layer"
	id="layer1">
	<path style="fill:none;stroke:red;stroke-width:1px;stroke-linecap:butt;stroke-linejoin:miter;stroke-opacity:1" d="M 13.3939,201.273 13.3939,182.485 z" id="boundary" inkscape:connector-curvature="0" />
	<path style="fill:none;stroke:red;stroke-width:1px;stroke-linecap:butt;stroke-linejoin:miter;stroke-opacity:1" d="M 13.3939,201.273 13.3939,220.061 z" id="boundary" inkscape:connector-curvature="0" />
	<path style="fill:none;stroke:red;stroke-width:1px;stroke-linecap:butt;stroke-linejoin:miter;stroke-opacity:1" d="M 13.3939,182.485 4,165.576 z" id="boundary" inkscape:connector-curvature="0" />
	<path style="fill:none;stroke:red;stroke-width:1px;stroke-linecap:butt;stroke-linejoin:miter;stroke-opacity:1" d="M 13.3939,220.061 22.7879,236.97 z" id="boundary" inkscape:connector-curvature="0" />
	<path style="fill:none;stroke:red;stroke-width:1px;stroke-linecap:butt;stroke-linejoin:miter;stroke-opacity:1" d="M 22.7879,236.97 13.3939,259.515 z" id="boundary" inkscape:connector-curvature="0" />
	<path style="fill:none;stroke:red;stroke-width:1px;stroke-linecap:butt;stroke-linejoin:miter;stroke-opacity:1" d="M 13.3939,259.515 13.3939,278.303 z" id="boundary" inkscape:connector-curvature="0" />
	<path style="fill:none;stroke:red;stroke-width:1px;stroke-linecap:butt;stroke-linejoin:miter;stroke-opacity:1" d="M 13.3939,278.303 13.3939,297.091 z" id="boundary" inkscape:connector-curvature="0" />
	<path style="fill:none;stroke:red;stroke-width:1px;stroke-linecap:butt;stroke-linejoin:miter;stroke-opacity:1" d="M 13.3939,297.091 4,315.879 z" id="boundary" inkscape:connector-curvature="0" />
	<path style="fill:none;stroke:red;stroke-width:1px;stroke-linecap:butt;stroke-linejoin:miter;stroke-opacity:1" d="M 4,315.879 13.3939,332.788 z" id="boundary" inkscape:connector-curvature="0" />
	<path style="fill:none;stroke:red;stroke-width:1px;stroke-linecap:butt;stroke-linejoin:miter;stroke-opacity:1" d="M 13.3939,332.788 13.3939,353.455 z" id="boundary" inkscape:connector-curvature="0" />
	<path style="fill:none;stroke:red;stroke-width:1px;stroke-linecap:butt;stroke-linejoin:miter;stroke-opacity:1" d="M 13.3939,353.455 32.1818,359.091 z" id="boundary" inkscape:connector-curvature="0" />
	<path style="fill:none;stroke:red;stroke-width:1px;stroke-linecap:butt;stroke-linejoin:miter;stroke-opacity:1" d="M 32.1818,359.091 43.4545,374.121 z" id="boundary" inkscape:connector-curvature="0" />
	<path style="fill:none;stroke:red;stroke-width:1px;stroke-linecap:butt;stroke-linejoin:miter;stroke-opacity:1" d="M 43.4545,374.121 58.4848,387.273 z" id="boundary" inkscape:connector-curvature="0" />
	<path style="fill:none;stroke:red;stroke-width:1px;stroke-linecap:butt;stroke-linejoin:miter;stroke-opacity:1" d="M 58.4848,387.273 77.2727,383.515 z" id="boundary" inkscape:connector-curvature="0" />
	<path style="fill:none;stroke:red;stroke-width:1px;stroke-linecap:butt;stroke-linejoin:miter;stroke-opacity:1" d="M 77.2727,383.515 90.4242,368.485 z" id="boundary" inkscape:connector-curvature="0" />
	<path style="fill:none;stroke:red;stroke-width:1px;stroke-linecap:butt;stroke-linejoin:miter;stroke-opacity:1" d="M 90.4242,368.485 109.212,368.485 z" id="boundary" inkscape:connector-curvature="0" />
	<path style="fill:none;stroke:red;stroke-width:1px;stroke-linecap:butt;stroke-linejoin:miter;stroke-opacity:1" d="M 109.212,368.485 128,359.091 z" id="boundary" inkscape:connector-curvature="0" />
	<path style="fill:none;stroke:red;stroke-width:1px;stroke-linecap:butt;stroke-linejoin:miter;stroke-opacity:1" d="M 128,359.091 144.909,368.485 z" id="boundary" inkscape:connector-curvature="0" />
	<path style="fill:none;stroke:red;stroke-width:1px;stroke-linecap:butt;stroke-linejoin:miter;stroke-opacity:1" d="M 144.909,368.485 159.939,357.212 z" id="boundary" inkscape:connector-curvature="0" />
	<path style="fill:none;stroke:red;stroke-width:1px;stroke-linecap:butt;stroke-linejoin:miter;stroke-opacity:1" d="M 159.939,357.212 174.97,340.303 z" id="boundary" inkscape:connector-curvature="0" />
	<path style="fill:none;stroke:red;stroke-width:1px;stroke-linecap:butt;stroke-linejoin:miter;stroke-opacity:1" d="M 4,165.576 13.3939,137.394 z" id="boundary" inkscape:connector-curvature="0" />
	<path style="fill:none;stroke:red;stroke-width:1px;stroke-linecap:butt;stroke-linejoin:miter;stroke-opacity:1" d="M 13.3939,137.394 28.4242,122.364 z" id="boundary" inkscape:connector-curvature="0" />
	<path style="fill:none;stroke:red;stroke-width:1px;stroke-linecap:butt;stroke-linejoin:miter;stroke-opacity:1" d="M 28.4242,122.364 37.8182,103.576 z" id="boundary" inkscape:connector-curvature="0" />
	<path style="fill:none;stroke:red;stroke-width:1px;stroke-linecap:butt;stroke-linejoin:miter;stroke-opacity:1" d="M 37.8182,103.576 50.9697,81.0303 z" id="boundary" inkscape:connector-curvature="0" />
	<path style="fill:none;stroke:red;stroke-width:1px;stroke-linecap:butt;stroke-linejoin:miter;stroke-opacity:1" d="M 50.9697,81.0303 66,66 z" id="boundary" inkscape:connector-curvature="0" />
	<path style="fill:none;stroke:red;stroke-width:1px;stroke-linecap:butt;stroke-linejoin:miter;stroke-opacity:1" d="M 66,66 81.0303,50.9697 z" id="boundary" inkscape:connector-curvature="0" />
	<path style="fill:none;stroke:red;stroke-width:1px;stroke-linecap:butt;stroke-linejoin:miter;stroke-opacity:1" d="M 81.0303,50.9697 96.0606,37.8182 z" id="boundary" inkscape:connector-curvature="0" />
	<path style="fill:none;stroke:red;stroke-width:1px;stroke-linecap:butt;stroke-linejoin:miter;stroke-opacity:1" d="M 96.0606,37.8182 112.97,28.4242 z" id="boundary" inkscape:connector-curvature="0" />
	<path style="fill:none;stroke:red;stroke-width:1px;stroke-linecap:butt;stroke-linejoin:miter;stroke-opacity:1" d="M 112.97,28.4242 131.758,28.4242 z" id="boundary" inkscape:connector-curvature="0" />
	<path style="fill:none;stroke:red;stroke-width:1px;stroke-linecap:butt;stroke-linejoin:miter;stroke-opacity:1" d="M 131.758,28.4242 150.545,28.4242 z" id="boundary" inkscape:connector-curvature="0" />
	<path style="fill:none;stroke:red;stroke-width:1px;stroke-linecap:butt;stroke-linejoin:miter;stroke-opacity:1" d="M 150.545,28.4242 152.424,54.7273 z" id="boundary" inkscape:connector-curvature="0" />
	<path style="fill:none;stroke:red;stroke-width:1px;stroke-linecap:butt;stroke-linejoin:miter;stroke-opacity:1" d="M 152.424,54.7273 143.03,73.5152 z" id="boundary" inkscape:connector-curvature="0" />
	<path style="fill:none;stroke:red;stroke-width:1px;stroke-linecap:butt;stroke-linejoin:miter;stroke-opacity:1" d="M 143.03,73.5152 128,86.6667 z" id="boundary" inkscape:connector-curvature="0" />
	<path style="fill:none;stroke:red;stroke-width:1px;stroke-linecap:butt;stroke-linejoin:miter;stroke-opacity:1" d="M 128,86.6667 128,114.848 z" id="boundary" inkscape:connector-curvature="0" />
	<path style="fill:none;stroke:red;stroke-width:1px;stroke-linecap:butt;stroke-linejoin:miter;stroke-opacity:1" d="M 128,114.848 118.606,143.03 z" id="boundary" inkscape:connector-curvature="0" />
	<path style="fill:none;stroke:red;stroke-width:1px;stroke-linecap:butt;stroke-linejoin:miter;stroke-opacity:1" d="M 118.606,143.03 128,159.939 z" id="boundary" inkscape:connector-curvature="0" />
	<path style="fill:none;stroke:red;stroke-width:1px;stroke-linecap:butt;stroke-linejoin:miter;stroke-opacity:1" d="M 128,159.939 146.788,156.182 z" id="boundary" inkscape:connector-curvature="0" />
	<path style="fill:none;stroke:red;stroke-width:1px;stroke-linecap:butt;stroke-linejoin:miter;stroke-opacity:1" d="M 146.788,156.182 163.697,146.788 z" id="boundary" inkscape:connector-curvature="0" />
	<path style="fill:none;stroke:red;stroke-width:1px;stroke-linecap:butt;stroke-linejoin:miter;stroke-opacity:1" d="M 163.697,146.788 182.485,146.788 z" id="boundary" inkscape:connector-curvature="0" />
	<path style="fill:none;stroke:red;stroke-width:1px;stroke-linecap:butt;stroke-linejoin:miter;stroke-opacity:1" d="M 182.485,146.788 201.273,144.909 z" id="boundary" inkscape:connector-curvature="0" />
	<path style="fill:none;stroke:red;stroke-width:1px;stroke-linecap:butt;stroke-linejoin:miter;stroke-opacity:1" d="M 201.273,144.909 220.061,137.394 z" id="boundary" inkscape:connector-curvature="0" />
	<path style="fill:none;stroke:red;stroke-width:1px;stroke-linecap:butt;stroke-linejoin:miter;stroke-opacity:1" d="M 220.061,137.394 238.848,137.394 z" id="boundary" inkscape:connector-curvature="0" />
	<path style="fill:none;stroke:red;stroke-width:1px;stroke-linecap:butt;stroke-linejoin:miter;stroke-opacity:1" d="M 238.848,137.394 257.636,131.758 z" id="boundary" inkscape:connector-curvature="0" />
	<path style="fill:none;stroke:red;stroke-width:1px;stroke-linecap:butt;stroke-linejoin:miter;stroke-opacity:1" d="M 257.636,131.758 274.545,141.152 z" id="boundary" inkscape:connector-curvature="0" />
	<path style="fill:none;stroke:red;stroke-width:1px;stroke-linecap:butt;stroke-linejoin:miter;stroke-opacity:1" d="M 274.545,141.152 282.061,122.364 z" id="boundary" inkscape:connector-curvature="0" />
	<path style="fill:none;stroke:red;stroke-width:1px;stroke-linecap:butt;stroke-linejoin:miter;stroke-opacity:1" d="M 282.061,122.364 298.97,131.758 z" id="boundary" inkscape:connector-curvature="0" />
	<path style="fill:none;stroke:red;stroke-width:1px;stroke-linecap:butt;stroke-linejoin:miter;stroke-opacity:1" d="M 298.97,131.758 317.758,131.758 z" id="boundary" inkscape:connector-curvature="0" />
	<path style="fill:none;stroke:red;stroke-width:1px;stroke-linecap:butt;stroke-linejoin:miter;stroke-opacity:1" d="M 317.758,131.758 327.152,114.848 z" id="boundary" inkscape:connector-curvature="0" />
	<path style="fill:none;stroke:red;stroke-width:1px;stroke-linecap:butt;stroke-linejoin:miter;stroke-opacity:1" d="M 327.152,114.848 345.939,122.364 z" id="boundary" inkscape:connector-curvature="0" />
	<path style="fill:none;stroke:red;stroke-width:1px;stroke-linecap:butt;stroke-linejoin:miter;stroke-opacity:1" d="M 345.939,122.364 362.848,112.97 z" id="boundary" inkscape:connector-curvature="0" />
	<path style="fill:none;stroke:red;stroke-width:1px;stroke-linecap:butt;stroke-linejoin:miter;stroke-opacity:1" d="M 362.848,112.97 379.758,122.364 z" id="boundary" inkscape:connector-curvature="0" />
	<path style="fill:none;stroke:red;stroke-width:1px;stroke-linecap:butt;stroke-linejoin:miter;stroke-opacity:1" d="M 379.758,122.364 385.394,103.576 z" id="boundary" inkscape:connector-curvature="0" />
	<path style="fill:none;stroke:red;stroke-width:1px;stroke-linecap:butt;stroke-linejoin:miter;stroke-opacity:1" d="M 385.394,103.576 404.182,103.576 z" id="boundary" inkscape:connector-curvature="0" />
	<path style="fill:none;stroke:red;stroke-width:1px;stroke-linecap:butt;stroke-linejoin:miter;stroke-opacity:1" d="M 404.182,103.576 421.091,112.97 z" id="boundary" inkscape:connector-curvature="0" />
	<path style="fill:none;stroke:red;stroke-width:1px;stroke-linecap:butt;stroke-linejoin:miter;stroke-opacity:1" d="M 421.091,112.97 430.485,96.0606 z" id="boundary" inkscape:connector-curvature="0" />
	<path style="fill:none;stroke:red;stroke-width:1px;stroke-linecap:butt;stroke-linejoin:miter;stroke-opacity:1" d="M 430.485,96.0606 449.273,103.576 z" id="boundary" inkscape:connector-curvature="0" />
	<path style="fill:none;stroke:red;stroke-width:1px;stroke-linecap:butt;stroke-linejoin:miter;stroke-opacity:1" d="M 449.273,103.576 466.182,94.1818 z" id="boundary" inkscape:connector-curvature="0" />
	<path style="fill:none;stroke:red;stroke-width:1px;stroke-linecap:butt;stroke-linejoin:miter;stroke-opacity:1" d="M 466.182,94.1818 484.97,94.1818 z" id="boundary" inkscape:connector-curvature="0" />
	<path style="fill:none;stroke:red;stroke-width:1px;stroke-linecap:butt;stroke-linejoin:miter;stroke-opacity:1" d="M 484.97,94.1818 501.879,84.7879 z" id="boundary" inkscape:connector-curvature="0" />
	<path style="fill:none;stroke:red;stroke-width:1px;stroke-linecap:butt;stroke-linejoin:miter;stroke-opacity:1" d="M 501.879,84.7879 518.788,94.1818 z" id="boundary" inkscape:connector-curvature="0" />
	<path style="fill:none;stroke:red;stroke-width:1px;stroke-linecap:butt;stroke-linejoin:miter;stroke-opacity:1" d="M 518.788,94.1818 535.697,84.7879 z" id="boundary" inkscape:connector-curvature="0" />
	<path style="fill:none;stroke:red;stroke-width:1px;stroke-linecap:butt;stroke-linejoin:miter;stroke-opacity:1" d="M 535.697,84.7879 554.485,75.3939 z" id="boundary" inkscape:connector-curvature="0" />
	<path style="fill:none;stroke:red;stroke-width:1px;stroke-linecap:butt;stroke-linejoin:miter;stroke-opacity:1" d="M 554.485,75.3939 571.394,84.7879 z" id="boundary" inkscape:connector-curvature="0" />
	<path style="fill:none;stroke:red;stroke-width:1px;stroke-linecap:butt;stroke-linejoin:miter;stroke-opacity:1" d="M 571.394,84.7879 586.424,71.6364 z" id="boundary" inkscape:connector-curvature="0" />
	<path style="fill:none;stroke:red;stroke-width:1px;stroke-linecap:butt;stroke-linejoin:miter;stroke-opacity:1" d="M 586.424,71.6364 605.212,69.7576 z" id="boundary" inkscape:connector-curvature="0" />
	<path style="fill:none;stroke:red;stroke-width:1px;stroke-linecap:butt;stroke-linejoin:miter;stroke-opacity:1" d="M 605.212,69.7576 624,66 z" id="boundary" inkscape:connector-curvature="0" />
	<path style="fill:none;stroke:red;stroke-width:1px;stroke-linecap:butt;stroke-linejoin:miter;stroke-opacity:1" d="M 624,66 640.909,75.3939 z" id="boundary" inkscape:connector-curvature="0" />
	<path style="fill:none;stroke:red;stroke-width:1px;stroke-linecap:butt;stroke-linejoin:miter;stroke-opacity:1" d="M 640.909,75.3939 648.424,56.6061 z" id="boundary" inkscape:connector-curvature="0" />
	<path style="fill:none;stroke:red;stroke-width:1px;stroke-linecap:butt;stroke-linejoin:miter;stroke-opacity:1" d="M 648.424,56.6061 667.212,56.6061 z" id="boundary" inkscape:connector-curvature="0" />
	<path style="fill:none;stroke:red;stroke-width:1px;stroke-linecap:butt;stroke-linejoin:miter;stroke-opacity:1" d="M 667.212,56.6061 684.121,66 z" id="boundary" inkscape:connector-curvature="0" />
	<path style="fill:none;stroke:red;stroke-width:1px;stroke-linecap:butt;stroke-linejoin:miter;stroke-opacity:1" d="M 684.121,66 701.03,56.6061 z" id="boundary" inkscape:connector-curvature="0" />
	<path style="fill:none;stroke:red;stroke-width:1px;stroke-linecap:butt;stroke-linejoin:miter;stroke-opacity:1" d="M 701.03,56.6061 719.818,52.8485 z" id="boundary" inkscape:connector-curvature="0" />
	<path style="fill:none;stroke:red;stroke-width:1px;stroke-linecap:butt;stroke-linejoin:miter;stroke-opacity:1" d="M 719.818,52.8485 738.606,50.9697 z" id="boundary" inkscape:connector-curvature="0" />
	<path style="fill:none;stroke:red;stroke-width:1px;stroke-linecap:butt;stroke-linejoin:miter;stroke-opacity:1" d="M 738.606,50.9697 757.394,41.5758 z" id="boundary" inkscape:connector-curvature="0" />
	<path style="fill:none;stroke:red;stroke-width:1px;stroke-linecap:butt;stroke-linejoin:miter;stroke-opacity:1" d="M 757.394,41.5758 776.182,43.4545 z" id="boundary" inkscape:connector-curvature="0" />
	<path style="fill:none;stroke:red;stroke-width:1px;stroke-linecap:butt;stroke-linejoin:miter;stroke-opacity:1" d="M 776.182,43.4545 794.97,37.8182 z" id="boundary" inkscape:connector-curvature="0" />
	<path style="fill:none;stroke:red;stroke-width:1px;stroke-linecap:butt;stroke-linejoin:miter;stroke-opacity:1" d="M 794.97,37.8182 813.758,34.0606 z" id="boundary" inkscape:connector-curvature="0" />
	<path style="fill:none;stroke:red;stroke-width:1px;stroke-linecap:butt;stroke-linejoin:miter;stroke-opacity:1" d="M 813.758,34.0606 832.545,28.4242 z" id="boundary" inkscape:connector-curvature="0" />
	<path style="fill:none;stroke:red;stroke-width:1px;stroke-linecap:butt;stroke-linejoin:miter;stroke-opacity:1" d="M 832.545,28.4242 849.455,37.8182 z" id="boundary" inkscape:connector-curvature="0" />
	<path style="fill:none;stroke:red;stroke-width:1px;stroke-linecap:butt;stroke-linejoin:miter;stroke-opacity:1" d="M 849.455,37.8182 860.727,22.7879 z" id="boundary" inkscape:connector-curvature="0" />
	<path style="fill:none;stroke:red;stroke-width:1px;stroke-linecap:butt;stroke-linejoin:miter;stroke-opacity:1" d="M 860.727,22.7879 879.515,22.7879 z" id="boundary" inkscape:connector-curvature="0" />
	<path style="fill:none;stroke:red;stroke-width:1px;stroke-linecap:butt;stroke-linejoin:miter;stroke-opacity:1" d="M 879.515,22.7879 898.303,19.0303 z" id="boundary" inkscape:connector-curvature="0" />
	<path style="fill:none;stroke:red;stroke-width:1px;stroke-linecap:butt;stroke-linejoin:miter;stroke-opacity:1" d="M 898.303,19.0303 917.091,19.0303 z" id="boundary" inkscape:connector-curvature="0" />
	<path style="fill:none;stroke:red;stroke-width:1px;stroke-linecap:butt;stroke-linejoin:miter;stroke-opacity:1" d="M 917.091,19.0303 934,9.63636 z" id="boundary" inkscape:connector-curvature="0" />
	<path style="fill:none;stroke:red;stroke-width:1px;stroke-linecap:butt;stroke-linejoin:miter;stroke-opacity:1" d="M 934,9.63636 950.909,19.0303 z" id="boundary" inkscape:connector-curvature="0" />
	<path style="fill:none;stroke:red;stroke-width:1px;stroke-linecap:butt;stroke-linejoin:miter;stroke-opacity:1" d="M 950.909,19.0303 964.061,4 z" id="boundary" inkscape:connector-curvature="0" />
	<path style="fill:none;stroke:red;stroke-width:1px;stroke-linecap:butt;stroke-linejoin:miter;stroke-opacity:1" d="M 964.061,4 980.97,13.3939 z" id="boundary" inkscape:connector-curvature="0" />
	<path style="fill:none;stroke:red;stroke-width:1px;stroke-linecap:butt;stroke-linejoin:miter;stroke-opacity:1" d="M 980.97,13.3939 992.242,28.4242 z" id="boundary" inkscape:connector-curvature="0" />
	<path style="fill:none;stroke:red;stroke-width:1px;stroke-linecap:butt;stroke-linejoin:miter;stroke-opacity:1" d="M 992.242,28.4242 992.242,49.0909 z" id="boundary" inkscape:connector-curvature="0" />
	<path style="fill:none;stroke:red;stroke-width:1px;stroke-linecap:butt;stroke-linejoin:miter;stroke-opacity:1" d="M 992.242,49.0909 996,67.8788 z" id="boundary" inkscape:connector-curvature="0" />
	<path style="fill:none;stroke:red;stroke-width:1px;stroke-linecap:butt;stroke-linejoin:miter;stroke-opacity:1" d="M 996,67.8788 977.212,75.3939 z" id="boundary" inkscape:connector-curvature="0" />
	<path style="fill:none;stroke:red;stroke-width:1px;stroke-linecap:butt;stroke-linejoin:miter;stroke-opacity:1" d="M 977.212,75.3939 962.182,86.6667 z" id="boundary" inkscape:connector-curvature="0" />
	<path style="fill:none;stroke:red;stroke-width:1px;stroke-linecap:butt;stroke-linejoin:miter;stroke-opacity:1" d="M 962.182,86.6667 943.394,86.6667 z" id="boundary" inkscape:connector-curvature="0" />
	<path style="fill:none;stroke:red;stroke-width:1px;stroke-linecap:butt;stroke-linejoin:miter;stroke-opacity:1" d="M 943.394,86.6667 924.606,86.6667 z" id="boundary" inkscape:connector-curvature="0" />
	<path style="fill:none;stroke:red;stroke-width:1px;stroke-linecap:butt;stroke-linejoin:miter;stroke-opacity:1" d="M 924.606,86.6667 907.697,96.0606 z" id="boundary" inkscape:connector-curvature="0" />
	<path style="fill:none;stroke:red;stroke-width:1px;stroke-linecap:butt;stroke-linejoin:miter;stroke-opacity:1" d="M 907.697,96.0606 888.909,96.0606 z" id="boundary" inkscape:connector-curvature="0" />
	<path style="fill:none;stroke:red;stroke-width:1px;stroke-linecap:butt;stroke-linejoin:miter;stroke-opacity:1" d="M 888.909,96.0606 870.121,96.0606 z" id="boundary" inkscape:connector-curvature="0" />
	<path style="fill:none;stroke:red;stroke-width:1px;stroke-linecap:butt;stroke-linejoin:miter;stroke-opacity:1" d="M 870.121,96.0606 853.212,105.455 z" id="boundary" inkscape:connector-curvature="0" />
	<path style="fill:none;stroke:red;stroke-width:1px;stroke-linecap:butt;stroke-linejoin:miter;stroke-opacity:1" d="M 853.212,105.455 834.424,105.455 z" id="boundary" inkscape:connector-curvature="0" />
	<path style="fill:none;stroke:red;stroke-width:1px;stroke-linecap:butt;stroke-linejoin:miter;stroke-opacity:1" d="M 834.424,105.455 815.636,105.455 z" id="boundary" inkscape:connector-curvature="0" />
	<path style="fill:none;stroke:red;stroke-width:1px;stroke-linecap:butt;stroke-linejoin:miter;stroke-opacity:1" d="M 815.636,105.455 798.727,114.848 z" id="boundary" inkscape:connector-curvature="0" />
	<path style="fill:none;stroke:red;stroke-width:1px;stroke-linecap:butt;stroke-linejoin:miter;stroke-opacity:1" d="M 798.727,114.848 779.939,114.848 z" id="boundary" inkscape:connector-curvature="0" />
	<path style="fill:none;stroke:red;stroke-width:1px;stroke-linecap:butt;stroke-linejoin:miter;stroke-opacity:1" d="M 779.939,114.848 761.152,114.848 z" id="boundary" inkscape:connector-curvature="0" />
	<path style="fill:none;stroke:red;stroke-width:1px;stroke-linecap:butt;stroke-linejoin:miter;stroke-opacity:1" d="M 761.152,114.848 744.242,124.242 z" id="boundary" inkscape:connector-curvature="0" />
	<path style="fill:none;stroke:red;stroke-width:1px;stroke-linecap:butt;stroke-linejoin:miter;stroke-opacity:1" d="M 744.242,124.242 725.455,124.242 z" id="boundary" inkscape:connector-curvature="0" />
	<path style="fill:none;stroke:red;stroke-width:1px;stroke-linecap:butt;stroke-linejoin:miter;stroke-opacity:1" d="M 725.455,124.242 706.667,129.879 z" id="boundary" inkscape:connector-curvature="0" />
	<path style="fill:none;stroke:red;stroke-width:1px;stroke-linecap:butt;stroke-linejoin:miter;stroke-opacity:1" d="M 706.667,129.879 687.879,133.636 z" id="boundary" inkscape:connector-curvature="0" />
	<path style="fill:none;stroke:red;stroke-width:1px;stroke-linecap:butt;stroke-linejoin:miter;stroke-opacity:1" d="M 687.879,133.636 669.091,133.636 z" id="boundary" inkscape:connector-curvature="0" />
	<path style="fill:none;stroke:red;stroke-width:1px;stroke-linecap:butt;stroke-linejoin:miter;stroke-opacity:1" d="M 669.091,133.636 650.303,139.273 z" id="boundary" inkscape:connector-curvature="0" />
	<path style="fill:none;stroke:red;stroke-width:1px;stroke-linecap:butt;stroke-linejoin:miter;stroke-opacity:1" d="M 650.303,139.273 631.515,143.03 z" id="boundary" inkscape:connector-curvature="0" />
	<path style="fill:none;stroke:red;stroke-width:1px;stroke-linecap:butt;stroke-linejoin:miter;stroke-opacity:1" d="M 631.515,143.03 612.727,143.03 z" id="boundary" inkscape:connector-curvature="0" />
	<path style="fill:none;stroke:red;stroke-width:1px;stroke-linecap:butt;stroke-linejoin:miter;stroke-opacity:1" d="M 612.727,143.03 593.939,148.667 z" id="boundary" inkscape:connector-curvature="0" />
	<path style="fill:none;stroke:red;stroke-width:1px;stroke-linecap:butt;stroke-linejoin:miter;stroke-opacity:1" d="M 593.939,148.667 575.152,152.424 z" id="boundary" inkscape:connector-curvature="0" />
	<path style="fill:none;stroke:red;stroke-width:1px;stroke-linecap:butt;stroke-linejoin:miter;stroke-opacity:1" d="M 575.152,152.424 556.364,152.424 z" id="boundary" inkscape:connector-curvature="0" />
	<path style="fill:none;stroke:red;stroke-width:1px;stroke-linecap:butt;stroke-linejoin:miter;stroke-opacity:1" d="M 556.364,152.424 539.455,161.818 z" id="boundary" inkscape:connector-curvature="0" />
	<path style="fill:none;stroke:red;stroke-width:1px;stroke-linecap:butt;stroke-linejoin:miter;stroke-opacity:1" d="M 539.455,161.818 520.667,161.818 z" id="boundary" inkscape:connector-curvature="0" />
	<path style="fill:none;stroke:red;stroke-width:1px;stroke-linecap:butt;stroke-linejoin:miter;stroke-opacity:1" d="M 520.667,161.818 501.879,161.818 z" id="boundary" inkscape:connector-curvature="0" />
	<path style="fill:none;stroke:red;stroke-width:1px;stroke-linecap:butt;stroke-linejoin:miter;stroke-opacity:1" d="M 501.879,161.818 484.97,171.212 z" id="boundary" inkscape:connector-curvature="0" />
	<path style="fill:none;stroke:red;stroke-width:1px;stroke-linecap:butt;stroke-linejoin:miter;stroke-opacity:1" d="M 484.97,171.212 466.182,171.212 z" id="boundary" inkscape:connector-curvature="0" />
	<path style="fill:none;stroke:red;stroke-width:1px;stroke-linecap:butt;stroke-linejoin:miter;stroke-opacity:1" d="M 466.182,171.212 447.394,171.212 z" id="boundary" inkscape:connector-curvature="0" />
	<path style="fill:none;stroke:red;stroke-width:1px;stroke-linecap:butt;stroke-linejoin:miter;stroke-opacity:1" d="M 447.394,171.212 430.485,180.606 z" id="boundary" inkscape:connector-curvature="0" />
	<path style="fill:none;stroke:red;stroke-width:1px;stroke-linecap:butt;stroke-linejoin:miter;stroke-opacity:1" d="M 430.485,180.606 411.697,180.606 z" id="boundary" inkscape:connector-curvature="0" />
	<path style="fill:none;stroke:red;stroke-width:1px;stroke-linecap:butt;stroke-linejoin:miter;stroke-opacity:1" d="M 411.697,180.606 392.909,180.606 z" id="boundary" inkscape:connector-curvature="0" />
	<path style="fill:none;stroke:red;stroke-width:1px;stroke-linecap:butt;stroke-linejoin:miter;stroke-opacity:1" d="M 392.909,180.606 376,190 z" id="boundary" inkscape:connector-curvature="0" />
	<path style="fill:none;stroke:red;stroke-width:1px;stroke-linecap:butt;stroke-linejoin:miter;stroke-opacity:1" d="M 376,190 357.212,190 z" id="boundary" inkscape:connector-curvature="0" />
	<path style="fill:none;stroke:red;stroke-width:1px;stroke-linecap:butt;stroke-linejoin:miter;stroke-opacity:1" d="M 357.212,190 338.424,190 z" id="boundary" inkscape:connector-curvature="0" />
	<path style="fill:none;stroke:red;stroke-width:1px;stroke-linecap:butt;stroke-linejoin:miter;stroke-opacity:1" d="M 338.424,190 321.515,199.394 z" id="boundary" inkscape:connector-curvature="0" />
	<path style="fill:none;stroke:red;stroke-width:1px;stroke-linecap:butt;stroke-linejoin:miter;stroke-opacity:1" d="M 321.515,199.394 302.727,199.394 z" id="boundary" inkscape:connector-curvature="0" />
	<path style="fill:none;stroke:red;stroke-width:1px;stroke-linecap:butt;stroke-linejoin:miter;stroke-opacity:1" d="M 302.727,199.394 283.939,199.394 z" id="boundary" inkscape:connector-curvature="0" />
	<path style="fill:none;stroke:red;stroke-width:1px;stroke-linecap:butt;stroke-linejoin:miter;stroke-opacity:1" d="M 283.939,199.394 267.03,208.788 z" id="boundary" inkscape:connector-curvature="0" />
	<path style="fill:none;stroke:red;stroke-width:1px;stroke-linecap:butt;stroke-linejoin:miter;stroke-opacity:1" d="M 267.03,208.788 248.242,208.788 z" id="boundary" inkscape:connector-curvature="0" />
	<path style="fill:none;stroke:red;stroke-width:1px;stroke-linecap:butt;stroke-linejoin:miter;stroke-opacity:1" d="M 248.242,208.788 229.455,208.788 z" id="boundary" inkscape:connector-curvature="0" />
	<path style="fill:none;stroke:red;stroke-width:1px;stroke-linecap:butt;stroke-linejoin:miter;stroke-opacity:1" d="M 229.455,208.788 212.545,218.182 z" id="boundary" inkscape:connector-curvature="0" />
	<path style="fill:none;stroke:red;stroke-width:1px;stroke-linecap:butt;stroke-linejoin:miter;stroke-opacity:1" d="M 212.545,218.182 193.758,218.182 z" id="boundary" inkscape:connector-curvature="0" />
	<path style="fill:none;stroke:red;stroke-width:1px;stroke-linecap:butt;stroke-linejoin:miter;stroke-opacity:1" d="M 193.758,218.182 174.97,218.182 z" id="boundary" inkscape:connector-curvature="0" />
	<path style="fill:none;stroke:red;stroke-width:1px;stroke-linecap:butt;stroke-linejoin:miter;stroke-opacity:1" d="M 174.97,218.182 156.182,227.576 z" id="boundary" inkscape:connector-curvature="0" />
	<path style="fill:none;stroke:red;stroke-width:1px;stroke-linecap:butt;stroke-linejoin:miter;stroke-opacity:1" d="M 156.182,227.576 137.394,227.576 z" id="boundary" inkscape:connector-curvature="0" />
	<path style="fill:none;stroke:red;stroke-width:1px;stroke-linecap:butt;stroke-linejoin:miter;stroke-opacity:1" d="M 137.394,227.576 141.152,246.364 z" id="boundary" inkscape:connector-curvature="0" />
	<path style="fill:none;stroke:red;stroke-width:1px;stroke-linecap:butt;stroke-linejoin:miter;stroke-opacity:1" d="M 141.152,246.364 156.182,259.515 z" id="boundary" inkscape:connector-curvature="0" />
	<path style="fill:none;stroke:red;stroke-width:1px;stroke-linecap:butt;stroke-linejoin:miter;stroke-opacity:1" d="M 156.182,259.515 173.091,268.909 z" id="boundary" inkscape:connector-curvature="0" />
	<path style="fill:none;stroke:red;stroke-width:1px;stroke-linecap:butt;stroke-linejoin:miter;stroke-opacity:1" d="M 173.091,268.909 174.97,287.697 z" id="boundary" inkscape:connector-curvature="0" />
	<path style="fill:none;stroke:red;stroke-width:1px;stroke-linecap:butt;stroke-linejoin:miter;stroke-opacity:1" d="M 174.97,287.697 182.485,306.485 z" id="boundary" inkscape:connector-curvature="0" />
	<path style="fill:none;stroke:red;stroke-width:1px;stroke-linecap:butt;stroke-linejoin:miter;stroke-opacity:1" d="M 174.97,340.303 182.485,306.485 z" id="boundary" inkscape:connector-curvature="0" />
	<circle cx="4" cy="165.576" r="4" fill="#0" id="circle0"/>
	<circle cx="4" cy="315.879" r="4" fill="#0" id="circle1"/>
	<circle cx="13.3939" cy="137.394" r="4" fill="#0" id="circle2"/>
	<circle cx="13.3939" cy="182.485" r="4" fill="#0" id="circle3"/>
	<circle cx="13.3939" cy="201.273" r="4" fill="#0" id="circle4"/>
	<circle cx="13.3939" cy="220.061" r="4" fill="#0" id="circle5"/>
	<circle cx="13.3939" cy="259.515" r="4" fill="#0" id="circle6"/>
	<circle cx="13.3939" cy="278.303" r="4" fill="#0" id="circle7"/>
	<circle cx="13.3939" cy="297.091" r="4" fill="#0" id="circle8"/>
	<circle cx="13.3939" cy="332.788" r="4" fill="#0" id="circle9"/>
	<circle cx="13.3939" cy="353.455" r="4" fill="#0" id="circle10"/>
	<circle cx="22.7879" cy="236.97" r="4" fill="#0" id="circle11"/>
	<circle cx="28.4242" cy="122.364" r="4" fill="#0" id="circle12"/>
	<circle cx="32.1818" cy="359.091" r="4" fill="#0" id="circle13"/>
	<circle cx="37.8182" cy="103.576" r="4" fill="#0" id="circle14"/>
	<circle cx="43.4545" cy="374.121" r="4" fill="#0" id="circle15"/>
	<circle cx="50.9697" cy="81.0303" r="4" fill="#0" id="circle16"/>
	<circle cx="58.4848" cy="387.273" r="4" fill="#0" id="circle17"/>
	<circle cx="66" cy="66" r="4" fill="#0" id="circle18"/>
	<circle cx="77.2727" cy="383.515" r="4" fill="#0" id="circle19"/>
	<circle cx="81.0303" cy="50.9697" r="4" fill="#0" id="circle20"/>
	<circle cx="90.4242" cy="368.485" r="4" fill="#0" id="circle21"/>
	<circle cx="96.0606" cy="37.8182" r="4" fill="#0" id="circle22"/>
	<circle cx="109.212" cy="368.485" r="4" fill="#0" id="circle23"/>
	<circle cx="112.97" cy="28.4242" r="4" fill="#0" id="circle24"/>
	<circle cx="118.606" cy="143.03" r="4" fill="#0" id="circle25"/>
	<circle cx="128" cy="86.6667" r="4" fill="#0" id="circle26"/>
	<circle cx="128" cy="114.848" r="4" fill="#0" id="circle27"/>
	<circle cx="128" cy="159.939" r="4" fill="#0" id="circle28"/>
	<circle cx="128" cy="359.091" r="4" fill="#0" id="circle29"/>
	<circle cx="131.758" cy="28.4242" r="4" fill="#0" id="circle30"/>
	<circle cx="137.394" cy="227.576" r="4" fill="#0" id="circle31"/>
	<circle cx="141.152" cy="246.364" r="4" fill="#0" id="circle32"/>
	<circle cx="143.03" cy="73.5152" r="4" fill="#0" id="circle33"/>
	<circle cx="144.909" cy="368.485" r="4" fill="#0" id="circle34"/>
	<circle cx="146.788" cy="156.182" r="4" fill="#0" id="circle35"/>
	<circle cx="150.545" cy="28.4242" r="4" fill="#0" id="circle36"/>
	<circle cx="152.424" cy="54.7273" r="4" fill="#0" id="circle37"/>
	<circle cx="156.182" cy="227.576" r="4" fill="#0" id="circle38"/>
	<circle cx="156.182" cy="259.515" r="4" fill="#0" id="circle39"/>
	<circle cx="159.939" cy="357.212" r="4" fill="#0" id="circle40"/>
	<circle cx="163.697" cy="146.788" r="4" fill="#0" id="circle41"/>
	<circle cx="173.091" cy="268.909" r="4" fill="#0" id="circle42"/>
	<circle cx="174.97" cy="218.182" r="4" fill="#0" id="circle43"/>
	<circle cx="174.97" cy="287.697" r="4" fill="#0" id="circle44"/>
	<circle cx="174.97" cy="340.303" r="4" fill="#0" id="circle45"/>
	<circle cx="182.485" cy="146.788" r="4" fill="#0" id="circle46"/>
	<circle cx="182.485" cy="306.485" r="4" fill="#0" id="circle47"/>
	<circle cx="193.758" cy="218.182" r="4" fill="#0" id="circle48"/>
	<circle cx="201.273" cy="144.909" r="4" fill="#0" id="circle49"/>
	<circle cx="212.545" cy="218.182" r="4" fill="#0" id="circle50"/>
	<circle cx="220.061" cy="137.394" r="4" fill="#0" id="circle51"/>
	<circle cx="229.455" cy="208.788" r="4" fill="#0" id="circle52"/>
	<circle cx="238.848" cy="137.394" r="4" fill="#0" id="circle53"/>
	<circle cx="248.242" cy="208.788" r="4" fill="#0" id="circle54"/>
	<circle cx="257.636" cy="131.758" r="4" fill="#0" id="circle55"/>
	<circle cx="267.03" cy="208.788" r="4" fill="#0" id="circle56"/>
	<circle cx="274.545" cy="141.152" r="4" fill="#0" id="circle57"/>
	<circle cx="282.061" cy="122.364" r="4" fill="#0" id="circle58"/>
	<circle cx="283.939" cy="199.394" r="4" fill="#0" id="circle59"/>
	<circle cx="298.97" cy="131.758" r="4" fill="#0" id="circle60"/>
	<circle cx="302.727" cy="199.394" r="4" fill="#0" id="circle61"/>
	<circle cx="317.758" cy="131.758" r="4" fill="#0" id="circle62"/>
	<circle cx="321.515" cy="199.394" r="4" fill="#0" id="circle63"/>
	<circle cx="327.152" cy="114.848" r="4" fill="#0" id="circle64"/>
	<circle cx="338.424" cy="190" r="4" fill="#0" id="circle65"/>
	<circle cx="345.939" cy="122.364" r="4" fill="#0" id="circle66"/>
	<circle cx="357.212" cy="190" r="4" fill="#0" id="circle67"/>
	<circle cx="362.848" cy="112.97" r="4" fill="#0" id="circle68"/>
	<circle cx="376" cy="190" r="4" fill="#0" id="circle69"/>
	<circle cx="379.758" cy="122.364" r="4" fill="#0" id="circle70"/>
	<circle cx="385.394" cy="103.576" r="4" fill="#0" id="circle71"/>
	<circle cx="392.909" cy="180.606" r="4" fill="#0" id="circle72"/>
	<circle cx="404.182" cy="103.576" r="4" fill="#0" id="circle73"/>
	<circle cx="411.697" cy="180.606" r="4" fill="#0" id="circle74"/>
	<circle cx="421.091" cy="112.97" r="4" fill="#0" id="circle75"/>
	<circle cx="430.485" cy="96.0606" r="4" fill="#0" id="circle76"/>
	<circle cx="430.485" cy="180.606" r="4" fill="#0" id="circle77"/>
	<circle cx="447.394" cy="171.212" r="4" fill="#0" id="circle78"/>
	<circle cx="449.273" cy="103.576" r="4" fill="#0" id="circle79"/>
	<circle cx="466.182" cy="94.1818" r="4" fill="#0" id="circle80"/>
	<circle cx="466.182" cy="171.212" r="4" fill="#0" id="circle81"/>
	<circle cx="484.97" cy="94.1818" r="4" fill="#0" id="circle82"/>
	<circle cx="484.97" cy="171.212" r="4" fill="#0" id="circle83"/>
	<circle cx="501.879" cy="84.7879" r="4" fill="#0" id="circle84"/>
	<circle cx="501.879" cy="161.818" r="4" fill="#0" id="circle85"/>
	<circle cx="518.788" cy="94.1818" r="4" fill="#0" id="circle86"/>
	<circle cx="520.667" cy="161.818" r="4" fill="#0" id="circle87"/>
	<circle cx="535.697" cy="84.7879" r="4" fill="#0" id="circle88"/>
	<circle cx="539.455" cy="161.818" r="4" fill="#0" id="circle89"/>
	<circle cx="554.485" cy="75.3939" r="4" fill="#0" id="circle90"/>
	<circle cx="556.364" cy="152.424" r="4" fill="#0" id="circle91"/>
	<circle cx="571.394" cy="84.7879" r="4" fill="#0" id="circle92"/>
	<circle cx="575.152" cy="152.424" r="4" fill="#0" id="circle93"/>
	<circle cx="586.424" cy="71.6364" r="4" fill="#0" id="circle94"/>
	<circle cx="593.939" cy="148.667" r="4" fill="#0" id="circle95"/>
	<circle cx="605.212" cy="69.7576" r="4" fill="#0" id="circle96"/>
	<circle cx="612.727" cy="143.03" r="4" fill="#0" id="circle97"/>
	<circle cx="624" cy="66" r="4" fill="#0" id="circle98"/>
	<circle cx="631.515" cy="143.03" r="4" fill="#0" id="circle99"/>
	<circle cx="640.909" cy="75.3939" r="4" fill="#0" id="circle100"/>
	<circle cx="648.424" cy="56.6061" r="4" fill="#0" id="circle101"/>
	<circle cx="650.303" cy="139.273" r="4" fill="#0" id="circle102"/>
	<circle cx="667.212" cy="56.6061" r="4" fill="#0" id="circle103"/>
	<circle cx="669.091" cy="133.636" r="4" fill="#0" id="circle104"/>
	<circle cx="684.121" cy="66" r="4" fill="#0" id="circle105"/>
	<circle cx="687.879" cy="133.636" r="4" fill="#0" id="circle106"/>
	<circle cx="701.03" cy="56.6061" r="4" fill="#0" id="circle107"/>
	<circle cx="706.667" cy="129.879" r="4" fill="#0" id="circle108"/>
	<circle cx="719.818" cy="52.8485" r="4" fill="#0" id="circle109"/>
	<circle cx="725.455" cy="124.242" r="4" fill="#0" id="circle110"/>
	<circle cx="738.606" cy="50.9697" r="4" fill="#0" id="circle111"/>
	<circle cx="744.242" cy="124.242" r="4" fill="#0" id="circle112"/>
	<circle cx="757.394" cy="41.5758" r="4" fill="#0" id="circle113"/>
	<circle cx="761.152" cy="114.848" r="4" fill="#0" id="circle114"/>
	<circle cx="776.182" cy="43.4545" r="4" fill="#0" id="circle115"/>
	<circle cx="779.939" cy="114.848" r="4" fill="#0" id="circle116"/>
	<circle cx="794.97" cy="37.8182" r="4" fill="#0" id="circle117"/>
	<circle cx="798.727" cy="114.848" r="4" fill="#0" id="circle118"/>
	<circle cx="813.758" cy="34.0606" r="4" fill="#0" id="circle119"/>
	<circle cx="815.636" cy="105.455" r="4" fill="#0" id="circle120"/>
	<circle cx="832.545" cy="28.4242" r="4" fill="#0" id="circle121"/>
	<circle cx="834.424" cy="105.455" r="4" fill="#0" id="circle122"/>
	<circle cx="849.455" cy="37.8182" r="4" fill="#0" id="circle123"/>
	<circle cx="853.212" cy="105.455" r="4" fill="#0" id="circle124"/>
	<circle cx="860.727" cy="22.7879" r="4" fill="#0" id="circle125"/>
	<circle cx="870.121" cy="96.0606" r="4" fill="#0" id="circle126"/>
	<circle cx="879.515" cy="22.7879" r="4" fill="#0" id="circle127"/>
	<circle cx="888.909" cy="96.0606" r="4" fill="#0" id="circle128"/>
	<circle cx="898.303" cy="19.0303" r="4" fill="#0" id="circle129"/>
	<circle cx="907.697" cy="96.0606" r="4" fill="#0" id="circle130"/>
	<circle cx="917.091" cy="19.0303" r="4" fill="#0" id="circle131"/>
	<circle cx="924.606" cy="86.6667" r="4" fill="#0" id="circle132"/>
	<circle cx="934" cy="9.63636" r="4" fill="#0" id="circle133"/>
	<circle cx="943.394" cy="86.6667" r="4" fill="#0" id="circle134"/>
	<circle cx="950.909" cy="19.0303" r="4" fill="#0" id="circle135"/>
	<circle cx="962.182" cy="86.6667" r="4" fill="#0" id="circle136"/>
	<circle cx="964.061" cy="4" r="4" fill="#0" id="circle137"/>
	<circle cx="977.212" cy="75.3939" r="4" fill="#0" id="circle138"/>
	<circle cx="980.97" cy="13.3939" r="4" fill="#0" id="circle139"/>
	<circle cx="992.242" cy="28.4242" r="4" fill="#0" id="circle140"/>
	<circle cx="992.242" cy="49.0909" r="4" fill="#0" id="circle141"/>
	<circle cx="996" cy="67.8788" r="4" fill="#0" id="circle142"/>
	</g>
</svg>