<?xml version="1.0" encoding="UTF-8" standalone="no"?>
<!-- Created with CurveBenchmark -->
<svg
	xmlns:dc="http://purl.org/dc/elements/1.1/"
	xmlns:cc="http://creativecommons.org/ns#"
	xmlns:rdf="http://www.w3.org/1999/02/22-rdf-syntax-ns#"
	xmlns:svg="http://www.w3.org/2000/svg"
	xmlns="http://www.w3.org/2000/svg"
	xmlns:sodipodi="http://sodipodi.sourceforge.net/DTD/sodipodi-0.dtd"
	xmlns:inkscape="http://www.inkscape.org/namespaces/inkscape"
	width="1000"
	height="1000"
	id="svg2"
	version="1.1"
	sodipodi:docname="manifold/crawl-hammer285.png.txt">
<defs
	id="defs4" />
<metadata
	id="metadata7">
	<rdf:RDF>
		<cc:Work
			rdf:about="">
			<dc:format>image/svg+xml</dc:format>
			<dc:type
				rdf:resource="http://purl.org/dc/dcmitype/StillImage" />
			<dc:title></dc:title>
		</cc:Work>
	</rdf:RDF>
</metadata>
<g
	inkscape:label="Layer 1"
	inkscape:groupmode="layer"
	id="layer1">
	<path style="fill:none;stroke:red;stroke-width:1px;stroke-linecap:butt;stroke-linejoin:miter;stroke-opacity:1" d="M 84.5101,4 55.7565,4 z" id="boundary" inkscape:connector-curvature="0" />
	<path style="fill:none;stroke:red;stroke-width:1px;stroke-linecap:butt;stroke-linejoin:miter;stroke-opacity:1" d="M 55.7565,4 38.5043,27.0029 z" id="boundary" inkscape:connector-curvature="0" />
	<path style="fill:none;stroke:red;stroke-width:1px;stroke-linecap:butt;stroke-linejoin:miter;stroke-opacity:1" d="M 84.5101,4 113.264,4 z" id="boundary" inkscape:connector-curvature="0" />
	<path style="fill:none;stroke:red;stroke-width:1px;stroke-linecap:butt;stroke-linejoin:miter;stroke-opacity:1" d="M 113.264,4 142.017,4 z" id="boundary" inkscape:connector-curvature="0" />
	<path style="fill:none;stroke:red;stroke-width:1px;stroke-linecap:butt;stroke-linejoin:miter;stroke-opacity:1" d="M 142.017,4 170.771,4 z" id="boundary" inkscape:connector-curvature="0" />
	<path style="fill:none;stroke:red;stroke-width:1px;stroke-linecap:butt;stroke-linejoin:miter;stroke-opacity:1" d="M 170.771,4 190.899,27.0029 z" id="boundary" inkscape:connector-curvature="0" />
	<path style="fill:none;stroke:red;stroke-width:1px;stroke-linecap:butt;stroke-linejoin:miter;stroke-opacity:1" d="M 38.5043,27.0029 27.0029,55.7565 z" id="boundary" inkscape:connector-curvature="0" />
	<path style="fill:none;stroke:red;stroke-width:1px;stroke-linecap:butt;stroke-linejoin:miter;stroke-opacity:1" d="M 27.0029,55.7565 15.5014,90.2609 z" id="boundary" inkscape:connector-curvature="0" />
	<path style="fill:none;stroke:red;stroke-width:1px;stroke-linecap:butt;stroke-linejoin:miter;stroke-opacity:1" d="M 15.5014,90.2609 9.75072,119.014 z" id="boundary" inkscape:connector-curvature="0" />
	<path style="fill:none;stroke:red;stroke-width:1px;stroke-linecap:butt;stroke-linejoin:miter;stroke-opacity:1" d="M 9.75072,119.014 4,165.02 z" id="boundary" inkscape:connector-curvature="0" />
	<path style="fill:none;stroke:red;stroke-width:1px;stroke-linecap:butt;stroke-linejoin:miter;stroke-opacity:1" d="M 4,165.02 29.8783,179.397 z" id="boundary" inkscape:connector-curvature="0" />
	<path style="fill:none;stroke:red;stroke-width:1px;stroke-linecap:butt;stroke-linejoin:miter;stroke-opacity:1" d="M 29.8783,179.397 58.6319,179.397 z" id="boundary" inkscape:connector-curvature="0" />
	<path style="fill:none;stroke:red;stroke-width:1px;stroke-linecap:butt;stroke-linejoin:miter;stroke-opacity:1" d="M 58.6319,179.397 73.0087,205.275 z" id="boundary" inkscape:connector-curvature="0" />
	<path style="fill:none;stroke:red;stroke-width:1px;stroke-linecap:butt;stroke-linejoin:miter;stroke-opacity:1" d="M 73.0087,205.275 73.0087,234.029 z" id="boundary" inkscape:connector-curvature="0" />
	<path style="fill:none;stroke:red;stroke-width:1px;stroke-linecap:butt;stroke-linejoin:miter;stroke-opacity:1" d="M 73.0087,234.029 73.0087,262.783 z" id="boundary" inkscape:connector-curvature="0" />
	<path style="fill:none;stroke:red;stroke-width:1px;stroke-linecap:butt;stroke-linejoin:miter;stroke-opacity:1" d="M 73.0087,262.783 73.0087,291.536 z" id="boundary" inkscape:connector-curvature="0" />
	<path style="fill:none;stroke:red;stroke-width:1px;stroke-linecap:butt;stroke-linejoin:miter;stroke-opacity:1" d="M 73.0087,291.536 78.7594,320.29 z" id="boundary" inkscape:connector-curvature="0" />
	<path style="fill:none;stroke:red;stroke-width:1px;stroke-linecap:butt;stroke-linejoin:miter;stroke-opacity:1" d="M 78.7594,320.29 78.7594,349.043 z" id="boundary" inkscape:connector-curvature="0" />
	<path style="fill:none;stroke:red;stroke-width:1px;stroke-linecap:butt;stroke-linejoin:miter;stroke-opacity:1" d="M 78.7594,349.043 73.0087,377.797 z" id="boundary" inkscape:connector-curvature="0" />
	<path style="fill:none;stroke:red;stroke-width:1px;stroke-linecap:butt;stroke-linejoin:miter;stroke-opacity:1" d="M 73.0087,377.797 73.0087,406.551 z" id="boundary" inkscape:connector-curvature="0" />
	<path style="fill:none;stroke:red;stroke-width:1px;stroke-linecap:butt;stroke-linejoin:miter;stroke-opacity:1" d="M 73.0087,406.551 67.258,435.304 z" id="boundary" inkscape:connector-curvature="0" />
	<path style="fill:none;stroke:red;stroke-width:1px;stroke-linecap:butt;stroke-linejoin:miter;stroke-opacity:1" d="M 67.258,435.304 50.0058,469.809 z" id="boundary" inkscape:connector-curvature="0" />
	<path style="fill:none;stroke:red;stroke-width:1px;stroke-linecap:butt;stroke-linejoin:miter;stroke-opacity:1" d="M 50.0058,469.809 50.0058,498.562 z" id="boundary" inkscape:connector-curvature="0" />
	<path style="fill:none;stroke:red;stroke-width:1px;stroke-linecap:butt;stroke-linejoin:miter;stroke-opacity:1" d="M 50.0058,498.562 50.0058,527.316 z" id="boundary" inkscape:connector-curvature="0" />
	<path style="fill:none;stroke:red;stroke-width:1px;stroke-linecap:butt;stroke-linejoin:miter;stroke-opacity:1" d="M 50.0058,527.316 50.0058,556.07 z" id="boundary" inkscape:connector-curvature="0" />
	<path style="fill:none;stroke:red;stroke-width:1px;stroke-linecap:butt;stroke-linejoin:miter;stroke-opacity:1" d="M 50.0058,556.07 50.0058,584.823 z" id="boundary" inkscape:connector-curvature="0" />
	<path style="fill:none;stroke:red;stroke-width:1px;stroke-linecap:butt;stroke-linejoin:miter;stroke-opacity:1" d="M 50.0058,584.823 50.0058,613.577 z" id="boundary" inkscape:connector-curvature="0" />
	<path style="fill:none;stroke:red;stroke-width:1px;stroke-linecap:butt;stroke-linejoin:miter;stroke-opacity:1" d="M 50.0058,613.577 50.0058,642.33 z" id="boundary" inkscape:connector-curvature="0" />
	<path style="fill:none;stroke:red;stroke-width:1px;stroke-linecap:butt;stroke-linejoin:miter;stroke-opacity:1" d="M 50.0058,642.33 50.0058,671.084 z" id="boundary" inkscape:connector-curvature="0" />
	<path style="fill:none;stroke:red;stroke-width:1px;stroke-linecap:butt;stroke-linejoin:miter;stroke-opacity:1" d="M 50.0058,671.084 50.0058,699.838 z" id="boundary" inkscape:connector-curvature="0" />
	<path style="fill:none;stroke:red;stroke-width:1px;stroke-linecap:butt;stroke-linejoin:miter;stroke-opacity:1" d="M 50.0058,699.838 50.0058,728.591 z" id="boundary" inkscape:connector-curvature="0" />
	<path style="fill:none;stroke:red;stroke-width:1px;stroke-linecap:butt;stroke-linejoin:miter;stroke-opacity:1" d="M 50.0058,728.591 50.0058,757.345 z" id="boundary" inkscape:connector-curvature="0" />
	<path style="fill:none;stroke:red;stroke-width:1px;stroke-linecap:butt;stroke-linejoin:miter;stroke-opacity:1" d="M 50.0058,757.345 50.0058,786.099 z" id="boundary" inkscape:connector-curvature="0" />
	<path style="fill:none;stroke:red;stroke-width:1px;stroke-linecap:butt;stroke-linejoin:miter;stroke-opacity:1" d="M 50.0058,786.099 50.0058,814.852 z" id="boundary" inkscape:connector-curvature="0" />
	<path style="fill:none;stroke:red;stroke-width:1px;stroke-linecap:butt;stroke-linejoin:miter;stroke-opacity:1" d="M 50.0058,814.852 50.0058,843.606 z" id="boundary" inkscape:connector-curvature="0" />
	<path style="fill:none;stroke:red;stroke-width:1px;stroke-linecap:butt;stroke-linejoin:miter;stroke-opacity:1" d="M 50.0058,843.606 50.0058,872.359 z" id="boundary" inkscape:connector-curvature="0" />
	<path style="fill:none;stroke:red;stroke-width:1px;stroke-linecap:butt;stroke-linejoin:miter;stroke-opacity:1" d="M 50.0058,872.359 50.0058,901.113 z" id="boundary" inkscape:connector-curvature="0" />
	<path style="fill:none;stroke:red;stroke-width:1px;stroke-linecap:butt;stroke-linejoin:miter;stroke-opacity:1" d="M 50.0058,901.113 44.2551,947.119 z" id="boundary" inkscape:connector-curvature="0" />
	<path style="fill:none;stroke:red;stroke-width:1px;stroke-linecap:butt;stroke-linejoin:miter;stroke-opacity:1" d="M 44.2551,947.119 44.2551,975.872 z" id="boundary" inkscape:connector-curvature="0" />
	<path style="fill:none;stroke:red;stroke-width:1px;stroke-linecap:butt;stroke-linejoin:miter;stroke-opacity:1" d="M 44.2551,975.872 67.258,996 z" id="boundary" inkscape:connector-curvature="0" />
	<path style="fill:none;stroke:red;stroke-width:1px;stroke-linecap:butt;stroke-linejoin:miter;stroke-opacity:1" d="M 67.258,996 96.0116,996 z" id="boundary" inkscape:connector-curvature="0" />
	<path style="fill:none;stroke:red;stroke-width:1px;stroke-linecap:butt;stroke-linejoin:miter;stroke-opacity:1" d="M 96.0116,996 124.765,996 z" id="boundary" inkscape:connector-curvature="0" />
	<path style="fill:none;stroke:red;stroke-width:1px;stroke-linecap:butt;stroke-linejoin:miter;stroke-opacity:1" d="M 124.765,996 153.519,996 z" id="boundary" inkscape:connector-curvature="0" />
	<path style="fill:none;stroke:red;stroke-width:1px;stroke-linecap:butt;stroke-linejoin:miter;stroke-opacity:1" d="M 153.519,996 167.896,961.496 z" id="boundary" inkscape:connector-curvature="0" />
	<path style="fill:none;stroke:red;stroke-width:1px;stroke-linecap:butt;stroke-linejoin:miter;stroke-opacity:1" d="M 167.896,961.496 167.896,932.742 z" id="boundary" inkscape:connector-curvature="0" />
	<path style="fill:none;stroke:red;stroke-width:1px;stroke-linecap:butt;stroke-linejoin:miter;stroke-opacity:1" d="M 167.896,932.742 167.896,903.988 z" id="boundary" inkscape:connector-curvature="0" />
	<path style="fill:none;stroke:red;stroke-width:1px;stroke-linecap:butt;stroke-linejoin:miter;stroke-opacity:1" d="M 167.896,903.988 167.896,875.235 z" id="boundary" inkscape:connector-curvature="0" />
	<path style="fill:none;stroke:red;stroke-width:1px;stroke-linecap:butt;stroke-linejoin:miter;stroke-opacity:1" d="M 167.896,875.235 167.896,846.481 z" id="boundary" inkscape:connector-curvature="0" />
	<path style="fill:none;stroke:red;stroke-width:1px;stroke-linecap:butt;stroke-linejoin:miter;stroke-opacity:1" d="M 167.896,846.481 167.896,817.728 z" id="boundary" inkscape:connector-curvature="0" />
	<path style="fill:none;stroke:red;stroke-width:1px;stroke-linecap:butt;stroke-linejoin:miter;stroke-opacity:1" d="M 167.896,817.728 167.896,788.974 z" id="boundary" inkscape:connector-curvature="0" />
	<path style="fill:none;stroke:red;stroke-width:1px;stroke-linecap:butt;stroke-linejoin:miter;stroke-opacity:1" d="M 167.896,788.974 167.896,760.22 z" id="boundary" inkscape:connector-curvature="0" />
	<path style="fill:none;stroke:red;stroke-width:1px;stroke-linecap:butt;stroke-linejoin:miter;stroke-opacity:1" d="M 167.896,760.22 167.896,731.467 z" id="boundary" inkscape:connector-curvature="0" />
	<path style="fill:none;stroke:red;stroke-width:1px;stroke-linecap:butt;stroke-linejoin:miter;stroke-opacity:1" d="M 167.896,731.467 167.896,702.713 z" id="boundary" inkscape:connector-curvature="0" />
	<path style="fill:none;stroke:red;stroke-width:1px;stroke-linecap:butt;stroke-linejoin:miter;stroke-opacity:1" d="M 167.896,702.713 167.896,673.959 z" id="boundary" inkscape:connector-curvature="0" />
	<path style="fill:none;stroke:red;stroke-width:1px;stroke-linecap:butt;stroke-linejoin:miter;stroke-opacity:1" d="M 167.896,673.959 167.896,645.206 z" id="boundary" inkscape:connector-curvature="0" />
	<path style="fill:none;stroke:red;stroke-width:1px;stroke-linecap:butt;stroke-linejoin:miter;stroke-opacity:1" d="M 167.896,645.206 167.896,616.452 z" id="boundary" inkscape:connector-curvature="0" />
	<path style="fill:none;stroke:red;stroke-width:1px;stroke-linecap:butt;stroke-linejoin:miter;stroke-opacity:1" d="M 167.896,616.452 167.896,587.699 z" id="boundary" inkscape:connector-curvature="0" />
	<path style="fill:none;stroke:red;stroke-width:1px;stroke-linecap:butt;stroke-linejoin:miter;stroke-opacity:1" d="M 167.896,587.699 167.896,558.945 z" id="boundary" inkscape:connector-curvature="0" />
	<path style="fill:none;stroke:red;stroke-width:1px;stroke-linecap:butt;stroke-linejoin:miter;stroke-opacity:1" d="M 167.896,558.945 167.896,530.191 z" id="boundary" inkscape:connector-curvature="0" />
	<path style="fill:none;stroke:red;stroke-width:1px;stroke-linecap:butt;stroke-linejoin:miter;stroke-opacity:1" d="M 167.896,530.191 167.896,501.438 z" id="boundary" inkscape:connector-curvature="0" />
	<path style="fill:none;stroke:red;stroke-width:1px;stroke-linecap:butt;stroke-linejoin:miter;stroke-opacity:1" d="M 167.896,501.438 165.02,472.684 z" id="boundary" inkscape:connector-curvature="0" />
	<path style="fill:none;stroke:red;stroke-width:1px;stroke-linecap:butt;stroke-linejoin:miter;stroke-opacity:1" d="M 165.02,472.684 150.643,446.806 z" id="boundary" inkscape:connector-curvature="0" />
	<path style="fill:none;stroke:red;stroke-width:1px;stroke-linecap:butt;stroke-linejoin:miter;stroke-opacity:1" d="M 150.643,446.806 144.893,418.052 z" id="boundary" inkscape:connector-curvature="0" />
	<path style="fill:none;stroke:red;stroke-width:1px;stroke-linecap:butt;stroke-linejoin:miter;stroke-opacity:1" d="M 144.893,418.052 139.142,389.299 z" id="boundary" inkscape:connector-curvature="0" />
	<path style="fill:none;stroke:red;stroke-width:1px;stroke-linecap:butt;stroke-linejoin:miter;stroke-opacity:1" d="M 139.142,389.299 139.142,360.545 z" id="boundary" inkscape:connector-curvature="0" />
	<path style="fill:none;stroke:red;stroke-width:1px;stroke-linecap:butt;stroke-linejoin:miter;stroke-opacity:1" d="M 139.142,360.545 139.142,331.791 z" id="boundary" inkscape:connector-curvature="0" />
	<path style="fill:none;stroke:red;stroke-width:1px;stroke-linecap:butt;stroke-linejoin:miter;stroke-opacity:1" d="M 139.142,331.791 139.142,303.038 z" id="boundary" inkscape:connector-curvature="0" />
	<path style="fill:none;stroke:red;stroke-width:1px;stroke-linecap:butt;stroke-linejoin:miter;stroke-opacity:1" d="M 139.142,303.038 139.142,274.284 z" id="boundary" inkscape:connector-curvature="0" />
	<path style="fill:none;stroke:red;stroke-width:1px;stroke-linecap:butt;stroke-linejoin:miter;stroke-opacity:1" d="M 139.142,274.284 144.893,234.029 z" id="boundary" inkscape:connector-curvature="0" />
	<path style="fill:none;stroke:red;stroke-width:1px;stroke-linecap:butt;stroke-linejoin:miter;stroke-opacity:1" d="M 144.893,234.029 144.893,205.275 z" id="boundary" inkscape:connector-curvature="0" />
	<path style="fill:none;stroke:red;stroke-width:1px;stroke-linecap:butt;stroke-linejoin:miter;stroke-opacity:1" d="M 144.893,205.275 150.643,176.522 z" id="boundary" inkscape:connector-curvature="0" />
	<path style="fill:none;stroke:red;stroke-width:1px;stroke-linecap:butt;stroke-linejoin:miter;stroke-opacity:1" d="M 150.643,176.522 162.145,130.516 z" id="boundary" inkscape:connector-curvature="0" />
	<path style="fill:none;stroke:red;stroke-width:1px;stroke-linecap:butt;stroke-linejoin:miter;stroke-opacity:1" d="M 162.145,130.516 162.145,101.762 z" id="boundary" inkscape:connector-curvature="0" />
	<path style="fill:none;stroke:red;stroke-width:1px;stroke-linecap:butt;stroke-linejoin:miter;stroke-opacity:1" d="M 162.145,101.762 185.148,78.7594 z" id="boundary" inkscape:connector-curvature="0" />
	<path style="fill:none;stroke:red;stroke-width:1px;stroke-linecap:butt;stroke-linejoin:miter;stroke-opacity:1" d="M 190.899,27.0029 185.148,78.7594 z" id="boundary" inkscape:connector-curvature="0" />
	<circle cx="4" cy="165.02" r="4" fill="#0" id="circle0"/>
	<circle cx="9.75072" cy="119.014" r="4" fill="#0" id="circle1"/>
	<circle cx="15.5014" cy="90.2609" r="4" fill="#0" id="circle2"/>
	<circle cx="27.0029" cy="55.7565" r="4" fill="#0" id="circle3"/>
	<circle cx="29.8783" cy="179.397" r="4" fill="#0" id="circle4"/>
	<circle cx="38.5043" cy="27.0029" r="4" fill="#0" id="circle5"/>
	<circle cx="44.2551" cy="947.119" r="4" fill="#0" id="circle6"/>
	<circle cx="44.2551" cy="975.872" r="4" fill="#0" id="circle7"/>
	<circle cx="50.0058" cy="469.809" r="4" fill="#0" id="circle8"/>
	<circle cx="50.0058" cy="498.562" r="4" fill="#0" id="circle9"/>
	<circle cx="50.0058" cy="527.316" r="4" fill="#0" id="circle10"/>
	<circle cx="50.0058" cy="556.07" r="4" fill="#0" id="circle11"/>
	<circle cx="50.0058" cy="584.823" r="4" fill="#0" id="circle12"/>
	<circle cx="50.0058" cy="613.577" r="4" fill="#0" id="circle13"/>
	<circle cx="50.0058" cy="642.33" r="4" fill="#0" id="circle14"/>
	<circle cx="50.0058" cy="671.084" r="4" fill="#0" id="circle15"/>
	<circle cx="50.0058" cy="699.838" r="4" fill="#0" id="circle16"/>
	<circle cx="50.0058" cy="728.591" r="4" fill="#0" id="circle17"/>
	<circle cx="50.0058" cy="757.345" r="4" fill="#0" id="circle18"/>
	<circle cx="50.0058" cy="786.099" r="4" fill="#0" id="circle19"/>
	<circle cx="50.0058" cy="814.852" r="4" fill="#0" id="circle20"/>
	<circle cx="50.0058" cy="843.606" r="4" fill="#0" id="circle21"/>
	<circle cx="50.0058" cy="872.359" r="4" fill="#0" id="circle22"/>
	<circle cx="50.0058" cy="901.113" r="4" fill="#0" id="circle23"/>
	<circle cx="55.7565" cy="4" r="4" fill="#0" id="circle24"/>
	<circle cx="58.6319" cy="179.397" r="4" fill="#0" id="circle25"/>
	<circle cx="67.258" cy="435.304" r="4" fill="#0" id="circle26"/>
	<circle cx="67.258" cy="996" r="4" fill="#0" id="circle27"/>
	<circle cx="73.0087" cy="205.275" r="4" fill="#0" id="circle28"/>
	<circle cx="73.0087" cy="234.029" r="4" fill="#0" id="circle29"/>
	<circle cx="73.0087" cy="262.783" r="4" fill="#0" id="circle30"/>
	<circle cx="73.0087" cy="291.536" r="4" fill="#0" id="circle31"/>
	<circle cx="73.0087" cy="377.797" r="4" fill="#0" id="circle32"/>
	<circle cx="73.0087" cy="406.551" r="4" fill="#0" id="circle33"/>
	<circle cx="78.7594" cy="320.29" r="4" fill="#0" id="circle34"/>
	<circle cx="78.7594" cy="349.043" r="4" fill="#0" id="circle35"/>
	<circle cx="84.5101" cy="4" r="4" fill="#0" id="circle36"/>
	<circle cx="96.0116" cy="996" r="4" fill="#0" id="circle37"/>
	<circle cx="113.264" cy="4" r="4" fill="#0" id="circle38"/>
	<circle cx="124.765" cy="996" r="4" fill="#0" id="circle39"/>
	<circle cx="139.142" cy="274.284" r="4" fill="#0" id="circle40"/>
	<circle cx="139.142" cy="303.038" r="4" fill="#0" id="circle41"/>
	<circle cx="139.142" cy="331.791" r="4" fill="#0" id="circle42"/>
	<circle cx="139.142" cy="360.545" r="4" fill="#0" id="circle43"/>
	<circle cx="139.142" cy="389.299" r="4" fill="#0" id="circle44"/>
	<circle cx="142.017" cy="4" r="4" fill="#0" id="circle45"/>
	<circle cx="144.893" cy="205.275" r="4" fill="#0" id="circle46"/>
	<circle cx="144.893" cy="234.029" r="4" fill="#0" id="circle47"/>
	<circle cx="144.893" cy="418.052" r="4" fill="#0" id="circle48"/>
	<circle cx="150.643" cy="176.522" r="4" fill="#0" id="circle49"/>
	<circle cx="150.643" cy="446.806" r="4" fill="#0" id="circle50"/>
	<circle cx="153.519" cy="996" r="4" fill="#0" id="circle51"/>
	<circle cx="162.145" cy="101.762" r="4" fill="#0" id="circle52"/>
	<circle cx="162.145" cy="130.516" r="4" fill="#0" id="circle53"/>
	<circle cx="165.02" cy="472.684" r="4" fill="#0" id="circle54"/>
	<circle cx="167.896" cy="501.438" r="4" fill="#0" id="circle55"/>
	<circle cx="167.896" cy="530.191" r="4" fill="#0" id="circle56"/>
	<circle cx="167.896" cy="558.945" r="4" fill="#0" id="circle57"/>
	<circle cx="167.896" cy="587.699" r="4" fill="#0" id="circle58"/>
	<circle cx="167.896" cy="616.452" r="4" fill="#0" id="circle59"/>
	<circle cx="167.896" cy="645.206" r="4" fill="#0" id="circle60"/>
	<circle cx="167.896" cy="673.959" r="4" fill="#0" id="circle61"/>
	<circle cx="167.896" cy="702.713" r="4" fill="#0" id="circle62"/>
	<circle cx="167.896" cy="731.467" r="4" fill="#0" id="circle63"/>
	<circle cx="167.896" cy="760.22" r="4" fill="#0" id="circle64"/>
	<circle cx="167.896" cy="788.974" r="4" fill="#0" id="circle65"/>
	<circle cx="167.896" cy="817.728" r="4" fill="#0" id="circle66"/>
	<circle cx="167.896" cy="846.481" r="4" fill="#0" id="circle67"/>
	<circle cx="167.896" cy="875.235" r="4" fill="#0" id="circle68"/>
	<circle cx="167.896" cy="903.988" r="4" fill="#0" id="circle69"/>
	<circle cx="167.896" cy="932.742" r="4" fill="#0" id="circle70"/>
	<circle cx="167.896" cy="961.496" r="4" fill="#0" id="circle71"/>
	<circle cx="170.771" cy="4" r="4" fill="#0" id="circle72"/>
	<circle cx="185.148" cy="78.7594" r="4" fill="#0" id="circle73"/>
	<circle cx="190.899" cy="27.0029" r="4" fill="#0" id="circle74"/>
	</g>
</svg>