<?xml version="1.0" encoding="UTF-8" standalone="no"?>
<!-- Created with CurveBenchmark -->
<svg
	xmlns:dc="http://purl.org/dc/elements/1.1/"
	xmlns:cc="http://creativecommons.org/ns#"
	xmlns:rdf="http://www.w3.org/1999/02/22-rdf-syntax-ns#"
	xmlns:svg="http://www.w3.org/2000/svg"
	xmlns="http://www.w3.org/2000/svg"
	xmlns:sodipodi="http://sodipodi.sourceforge.net/DTD/sodipodi-0.dtd"
	xmlns:inkscape="http://www.inkscape.org/namespaces/inkscape"
	width="1000"
	height="1000"
	id="svg2"
	version="1.1"
	sodipodi:docname="manifold/crawl-dude5occ4.png.txt">
<defs
	id="defs4" />
<metadata
	id="metadata7">
	<rdf:RDF>
		<cc:Work
			rdf:about="">
			<dc:format>image/svg+xml</dc:format>
			<dc:type
				rdf:resource="http://purl.org/dc/dcmitype/StillImage" />
			<dc:title></dc:title>
		</cc:Work>
	</rdf:RDF>
</metadata>
<g
	inkscape:label="Layer 1"
	inkscape:groupmode="layer"
	id="layer1">
	<path style="fill:none;stroke:red;stroke-width:1px;stroke-linecap:butt;stroke-linejoin:miter;stroke-opacity:1" d="M 4,417.495 4,436.908 z" id="boundary" inkscape:connector-curvature="0" />
	<path style="fill:none;stroke:red;stroke-width:1px;stroke-linecap:butt;stroke-linejoin:miter;stroke-opacity:1" d="M 4,436.908 23.4129,442.732 z" id="boundary" inkscape:connector-curvature="0" />
	<path style="fill:none;stroke:red;stroke-width:1px;stroke-linecap:butt;stroke-linejoin:miter;stroke-opacity:1" d="M 23.4129,442.732 42.8258,446.614 z" id="boundary" inkscape:connector-curvature="0" />
	<path style="fill:none;stroke:red;stroke-width:1px;stroke-linecap:butt;stroke-linejoin:miter;stroke-opacity:1" d="M 42.8258,446.614 52.5323,427.202 z" id="boundary" inkscape:connector-curvature="0" />
	<path style="fill:none;stroke:red;stroke-width:1px;stroke-linecap:butt;stroke-linejoin:miter;stroke-opacity:1" d="M 52.5323,427.202 68.0626,413.613 z" id="boundary" inkscape:connector-curvature="0" />
	<path style="fill:none;stroke:red;stroke-width:1px;stroke-linecap:butt;stroke-linejoin:miter;stroke-opacity:1" d="M 68.0626,413.613 85.5342,403.906 z" id="boundary" inkscape:connector-curvature="0" />
	<path style="fill:none;stroke:red;stroke-width:1px;stroke-linecap:butt;stroke-linejoin:miter;stroke-opacity:1" d="M 4,417.495 13.7065,398.082 z" id="boundary" inkscape:connector-curvature="0" />
	<path style="fill:none;stroke:red;stroke-width:1px;stroke-linecap:butt;stroke-linejoin:miter;stroke-opacity:1" d="M 13.7065,398.082 23.4129,378.669 z" id="boundary" inkscape:connector-curvature="0" />
	<path style="fill:none;stroke:red;stroke-width:1px;stroke-linecap:butt;stroke-linejoin:miter;stroke-opacity:1" d="M 85.5342,403.906 101.065,388.376 z" id="boundary" inkscape:connector-curvature="0" />
	<path style="fill:none;stroke:red;stroke-width:1px;stroke-linecap:butt;stroke-linejoin:miter;stroke-opacity:1" d="M 101.065,388.376 120.477,378.669 z" id="boundary" inkscape:connector-curvature="0" />
	<path style="fill:none;stroke:red;stroke-width:1px;stroke-linecap:butt;stroke-linejoin:miter;stroke-opacity:1" d="M 120.477,378.669 136.008,363.139 z" id="boundary" inkscape:connector-curvature="0" />
	<path style="fill:none;stroke:red;stroke-width:1px;stroke-linecap:butt;stroke-linejoin:miter;stroke-opacity:1" d="M 23.4129,378.669 38.9432,363.139 z" id="boundary" inkscape:connector-curvature="0" />
	<path style="fill:none;stroke:red;stroke-width:1px;stroke-linecap:butt;stroke-linejoin:miter;stroke-opacity:1" d="M 38.9432,363.139 54.4736,347.609 z" id="boundary" inkscape:connector-curvature="0" />
	<path style="fill:none;stroke:red;stroke-width:1px;stroke-linecap:butt;stroke-linejoin:miter;stroke-opacity:1" d="M 54.4736,347.609 70.0039,334.02 z" id="boundary" inkscape:connector-curvature="0" />
	<path style="fill:none;stroke:red;stroke-width:1px;stroke-linecap:butt;stroke-linejoin:miter;stroke-opacity:1" d="M 70.0039,334.02 77.7691,314.607 z" id="boundary" inkscape:connector-curvature="0" />
	<path style="fill:none;stroke:red;stroke-width:1px;stroke-linecap:butt;stroke-linejoin:miter;stroke-opacity:1" d="M 77.7691,314.607 87.4755,295.194 z" id="boundary" inkscape:connector-curvature="0" />
	<path style="fill:none;stroke:red;stroke-width:1px;stroke-linecap:butt;stroke-linejoin:miter;stroke-opacity:1" d="M 87.4755,295.194 97.182,275.781 z" id="boundary" inkscape:connector-curvature="0" />
	<path style="fill:none;stroke:red;stroke-width:1px;stroke-linecap:butt;stroke-linejoin:miter;stroke-opacity:1" d="M 97.182,275.781 112.712,260.25 z" id="boundary" inkscape:connector-curvature="0" />
	<path style="fill:none;stroke:red;stroke-width:1px;stroke-linecap:butt;stroke-linejoin:miter;stroke-opacity:1" d="M 112.712,260.25 122.419,240.838 z" id="boundary" inkscape:connector-curvature="0" />
	<path style="fill:none;stroke:red;stroke-width:1px;stroke-linecap:butt;stroke-linejoin:miter;stroke-opacity:1" d="M 122.419,240.838 137.949,227.249 z" id="boundary" inkscape:connector-curvature="0" />
	<path style="fill:none;stroke:red;stroke-width:1px;stroke-linecap:butt;stroke-linejoin:miter;stroke-opacity:1" d="M 137.949,227.249 155.421,217.542 z" id="boundary" inkscape:connector-curvature="0" />
	<path style="fill:none;stroke:red;stroke-width:1px;stroke-linecap:butt;stroke-linejoin:miter;stroke-opacity:1" d="M 155.421,217.542 170.951,202.012 z" id="boundary" inkscape:connector-curvature="0" />
	<path style="fill:none;stroke:red;stroke-width:1px;stroke-linecap:butt;stroke-linejoin:miter;stroke-opacity:1" d="M 170.951,202.012 190.364,192.305 z" id="boundary" inkscape:connector-curvature="0" />
	<path style="fill:none;stroke:red;stroke-width:1px;stroke-linecap:butt;stroke-linejoin:miter;stroke-opacity:1" d="M 190.364,192.305 209.777,182.599 z" id="boundary" inkscape:connector-curvature="0" />
	<path style="fill:none;stroke:red;stroke-width:1px;stroke-linecap:butt;stroke-linejoin:miter;stroke-opacity:1" d="M 209.777,182.599 229.19,172.892 z" id="boundary" inkscape:connector-curvature="0" />
	<path style="fill:none;stroke:red;stroke-width:1px;stroke-linecap:butt;stroke-linejoin:miter;stroke-opacity:1" d="M 229.19,172.892 248.603,169.01 z" id="boundary" inkscape:connector-curvature="0" />
	<path style="fill:none;stroke:red;stroke-width:1px;stroke-linecap:butt;stroke-linejoin:miter;stroke-opacity:1" d="M 248.603,169.01 268.016,174.834 z" id="boundary" inkscape:connector-curvature="0" />
	<path style="fill:none;stroke:red;stroke-width:1px;stroke-linecap:butt;stroke-linejoin:miter;stroke-opacity:1" d="M 268.016,174.834 285.487,165.127 z" id="boundary" inkscape:connector-curvature="0" />
	<path style="fill:none;stroke:red;stroke-width:1px;stroke-linecap:butt;stroke-linejoin:miter;stroke-opacity:1" d="M 136.008,363.139 151.538,345.667 z" id="boundary" inkscape:connector-curvature="0" />
	<path style="fill:none;stroke:red;stroke-width:1px;stroke-linecap:butt;stroke-linejoin:miter;stroke-opacity:1" d="M 151.538,345.667 167.068,332.078 z" id="boundary" inkscape:connector-curvature="0" />
	<path style="fill:none;stroke:red;stroke-width:1px;stroke-linecap:butt;stroke-linejoin:miter;stroke-opacity:1" d="M 167.068,332.078 180.658,316.548 z" id="boundary" inkscape:connector-curvature="0" />
	<path style="fill:none;stroke:red;stroke-width:1px;stroke-linecap:butt;stroke-linejoin:miter;stroke-opacity:1" d="M 180.658,316.548 200.07,306.841 z" id="boundary" inkscape:connector-curvature="0" />
	<path style="fill:none;stroke:red;stroke-width:1px;stroke-linecap:butt;stroke-linejoin:miter;stroke-opacity:1" d="M 200.07,306.841 219.483,306.841 z" id="boundary" inkscape:connector-curvature="0" />
	<path style="fill:none;stroke:red;stroke-width:1px;stroke-linecap:butt;stroke-linejoin:miter;stroke-opacity:1" d="M 219.483,306.841 231.131,322.372 z" id="boundary" inkscape:connector-curvature="0" />
	<path style="fill:none;stroke:red;stroke-width:1px;stroke-linecap:butt;stroke-linejoin:miter;stroke-opacity:1" d="M 231.131,322.372 238.896,341.785 z" id="boundary" inkscape:connector-curvature="0" />
	<path style="fill:none;stroke:red;stroke-width:1px;stroke-linecap:butt;stroke-linejoin:miter;stroke-opacity:1" d="M 238.896,341.785 246.661,361.198 z" id="boundary" inkscape:connector-curvature="0" />
	<path style="fill:none;stroke:red;stroke-width:1px;stroke-linecap:butt;stroke-linejoin:miter;stroke-opacity:1" d="M 246.661,361.198 246.661,380.611 z" id="boundary" inkscape:connector-curvature="0" />
	<path style="fill:none;stroke:red;stroke-width:1px;stroke-linecap:butt;stroke-linejoin:miter;stroke-opacity:1" d="M 246.661,380.611 256.368,398.082 z" id="boundary" inkscape:connector-curvature="0" />
	<path style="fill:none;stroke:red;stroke-width:1px;stroke-linecap:butt;stroke-linejoin:miter;stroke-opacity:1" d="M 256.368,398.082 256.368,417.495 z" id="boundary" inkscape:connector-curvature="0" />
	<path style="fill:none;stroke:red;stroke-width:1px;stroke-linecap:butt;stroke-linejoin:miter;stroke-opacity:1" d="M 256.368,417.495 266.074,434.967 z" id="boundary" inkscape:connector-curvature="0" />
	<path style="fill:none;stroke:red;stroke-width:1px;stroke-linecap:butt;stroke-linejoin:miter;stroke-opacity:1" d="M 266.074,434.967 266.074,454.38 z" id="boundary" inkscape:connector-curvature="0" />
	<path style="fill:none;stroke:red;stroke-width:1px;stroke-linecap:butt;stroke-linejoin:miter;stroke-opacity:1" d="M 266.074,454.38 275.781,471.851 z" id="boundary" inkscape:connector-curvature="0" />
	<path style="fill:none;stroke:red;stroke-width:1px;stroke-linecap:butt;stroke-linejoin:miter;stroke-opacity:1" d="M 275.781,471.851 285.487,489.323 z" id="boundary" inkscape:connector-curvature="0" />
	<path style="fill:none;stroke:red;stroke-width:1px;stroke-linecap:butt;stroke-linejoin:miter;stroke-opacity:1" d="M 285.487,489.323 285.487,508.736 z" id="boundary" inkscape:connector-curvature="0" />
	<path style="fill:none;stroke:red;stroke-width:1px;stroke-linecap:butt;stroke-linejoin:miter;stroke-opacity:1" d="M 285.487,508.736 285.487,528.149 z" id="boundary" inkscape:connector-curvature="0" />
	<path style="fill:none;stroke:red;stroke-width:1px;stroke-linecap:butt;stroke-linejoin:miter;stroke-opacity:1" d="M 285.487,165.127 295.194,143.773 z" id="boundary" inkscape:connector-curvature="0" />
	<path style="fill:none;stroke:red;stroke-width:1px;stroke-linecap:butt;stroke-linejoin:miter;stroke-opacity:1" d="M 295.194,143.773 295.194,124.36 z" id="boundary" inkscape:connector-curvature="0" />
	<path style="fill:none;stroke:red;stroke-width:1px;stroke-linecap:butt;stroke-linejoin:miter;stroke-opacity:1" d="M 295.194,124.36 285.487,106.888 z" id="boundary" inkscape:connector-curvature="0" />
	<path style="fill:none;stroke:red;stroke-width:1px;stroke-linecap:butt;stroke-linejoin:miter;stroke-opacity:1" d="M 285.487,106.888 295.194,87.4755 z" id="boundary" inkscape:connector-curvature="0" />
	<path style="fill:none;stroke:red;stroke-width:1px;stroke-linecap:butt;stroke-linejoin:miter;stroke-opacity:1" d="M 295.194,87.4755 295.194,68.0626 z" id="boundary" inkscape:connector-curvature="0" />
	<path style="fill:none;stroke:red;stroke-width:1px;stroke-linecap:butt;stroke-linejoin:miter;stroke-opacity:1" d="M 295.194,68.0626 304.9,48.6497 z" id="boundary" inkscape:connector-curvature="0" />
	<path style="fill:none;stroke:red;stroke-width:1px;stroke-linecap:butt;stroke-linejoin:miter;stroke-opacity:1" d="M 304.9,48.6497 320.431,33.1194 z" id="boundary" inkscape:connector-curvature="0" />
	<path style="fill:none;stroke:red;stroke-width:1px;stroke-linecap:butt;stroke-linejoin:miter;stroke-opacity:1" d="M 320.431,33.1194 335.961,17.589 z" id="boundary" inkscape:connector-curvature="0" />
	<path style="fill:none;stroke:red;stroke-width:1px;stroke-linecap:butt;stroke-linejoin:miter;stroke-opacity:1" d="M 335.961,17.589 355.374,7.88258 z" id="boundary" inkscape:connector-curvature="0" />
	<path style="fill:none;stroke:red;stroke-width:1px;stroke-linecap:butt;stroke-linejoin:miter;stroke-opacity:1" d="M 355.374,7.88258 374.787,4 z" id="boundary" inkscape:connector-curvature="0" />
	<path style="fill:none;stroke:red;stroke-width:1px;stroke-linecap:butt;stroke-linejoin:miter;stroke-opacity:1" d="M 374.787,4 394.2,4 z" id="boundary" inkscape:connector-curvature="0" />
	<path style="fill:none;stroke:red;stroke-width:1px;stroke-linecap:butt;stroke-linejoin:miter;stroke-opacity:1" d="M 394.2,4 413.613,9.82387 z" id="boundary" inkscape:connector-curvature="0" />
	<path style="fill:none;stroke:red;stroke-width:1px;stroke-linecap:butt;stroke-linejoin:miter;stroke-opacity:1" d="M 413.613,9.82387 421.378,29.2368 z" id="boundary" inkscape:connector-curvature="0" />
	<path style="fill:none;stroke:red;stroke-width:1px;stroke-linecap:butt;stroke-linejoin:miter;stroke-opacity:1" d="M 421.378,29.2368 433.025,44.7671 z" id="boundary" inkscape:connector-curvature="0" />
	<path style="fill:none;stroke:red;stroke-width:1px;stroke-linecap:butt;stroke-linejoin:miter;stroke-opacity:1" d="M 433.025,44.7671 442.732,62.2387 z" id="boundary" inkscape:connector-curvature="0" />
	<path style="fill:none;stroke:red;stroke-width:1px;stroke-linecap:butt;stroke-linejoin:miter;stroke-opacity:1" d="M 442.732,62.2387 452.438,79.7104 z" id="boundary" inkscape:connector-curvature="0" />
	<path style="fill:none;stroke:red;stroke-width:1px;stroke-linecap:butt;stroke-linejoin:miter;stroke-opacity:1" d="M 452.438,79.7104 452.438,103.006 z" id="boundary" inkscape:connector-curvature="0" />
	<path style="fill:none;stroke:red;stroke-width:1px;stroke-linecap:butt;stroke-linejoin:miter;stroke-opacity:1" d="M 452.438,103.006 442.732,122.419 z" id="boundary" inkscape:connector-curvature="0" />
	<path style="fill:none;stroke:red;stroke-width:1px;stroke-linecap:butt;stroke-linejoin:miter;stroke-opacity:1" d="M 442.732,122.419 442.732,141.832 z" id="boundary" inkscape:connector-curvature="0" />
	<path style="fill:none;stroke:red;stroke-width:1px;stroke-linecap:butt;stroke-linejoin:miter;stroke-opacity:1" d="M 442.732,141.832 452.438,159.303 z" id="boundary" inkscape:connector-curvature="0" />
	<path style="fill:none;stroke:red;stroke-width:1px;stroke-linecap:butt;stroke-linejoin:miter;stroke-opacity:1" d="M 452.438,159.303 469.91,169.01 z" id="boundary" inkscape:connector-curvature="0" />
	<path style="fill:none;stroke:red;stroke-width:1px;stroke-linecap:butt;stroke-linejoin:miter;stroke-opacity:1" d="M 469.91,169.01 487.382,178.716 z" id="boundary" inkscape:connector-curvature="0" />
	<path style="fill:none;stroke:red;stroke-width:1px;stroke-linecap:butt;stroke-linejoin:miter;stroke-opacity:1" d="M 487.382,178.716 506.795,178.716 z" id="boundary" inkscape:connector-curvature="0" />
	<path style="fill:none;stroke:red;stroke-width:1px;stroke-linecap:butt;stroke-linejoin:miter;stroke-opacity:1" d="M 506.795,178.716 526.207,178.716 z" id="boundary" inkscape:connector-curvature="0" />
	<path style="fill:none;stroke:red;stroke-width:1px;stroke-linecap:butt;stroke-linejoin:miter;stroke-opacity:1" d="M 526.207,178.716 545.62,180.658 z" id="boundary" inkscape:connector-curvature="0" />
	<path style="fill:none;stroke:red;stroke-width:1px;stroke-linecap:butt;stroke-linejoin:miter;stroke-opacity:1" d="M 545.62,180.658 559.209,196.188 z" id="boundary" inkscape:connector-curvature="0" />
	<path style="fill:none;stroke:red;stroke-width:1px;stroke-linecap:butt;stroke-linejoin:miter;stroke-opacity:1" d="M 559.209,196.188 578.622,203.953 z" id="boundary" inkscape:connector-curvature="0" />
	<path style="fill:none;stroke:red;stroke-width:1px;stroke-linecap:butt;stroke-linejoin:miter;stroke-opacity:1" d="M 578.622,203.953 594.153,217.542 z" id="boundary" inkscape:connector-curvature="0" />
	<path style="fill:none;stroke:red;stroke-width:1px;stroke-linecap:butt;stroke-linejoin:miter;stroke-opacity:1" d="M 594.153,217.542 611.624,227.249 z" id="boundary" inkscape:connector-curvature="0" />
	<path style="fill:none;stroke:red;stroke-width:1px;stroke-linecap:butt;stroke-linejoin:miter;stroke-opacity:1" d="M 285.487,528.149 275.781,553.386 z" id="boundary" inkscape:connector-curvature="0" />
	<path style="fill:none;stroke:red;stroke-width:1px;stroke-linecap:butt;stroke-linejoin:miter;stroke-opacity:1" d="M 275.781,553.386 275.781,572.798 z" id="boundary" inkscape:connector-curvature="0" />
	<path style="fill:none;stroke:red;stroke-width:1px;stroke-linecap:butt;stroke-linejoin:miter;stroke-opacity:1" d="M 275.781,572.798 266.074,592.211 z" id="boundary" inkscape:connector-curvature="0" />
	<path style="fill:none;stroke:red;stroke-width:1px;stroke-linecap:butt;stroke-linejoin:miter;stroke-opacity:1" d="M 266.074,592.211 262.192,625.213 z" id="boundary" inkscape:connector-curvature="0" />
	<path style="fill:none;stroke:red;stroke-width:1px;stroke-linecap:butt;stroke-linejoin:miter;stroke-opacity:1" d="M 262.192,625.213 246.661,640.744 z" id="boundary" inkscape:connector-curvature="0" />
	<path style="fill:none;stroke:red;stroke-width:1px;stroke-linecap:butt;stroke-linejoin:miter;stroke-opacity:1" d="M 246.661,640.744 227.249,660.157 z" id="boundary" inkscape:connector-curvature="0" />
	<path style="fill:none;stroke:red;stroke-width:1px;stroke-linecap:butt;stroke-linejoin:miter;stroke-opacity:1" d="M 227.249,660.157 213.659,683.452 z" id="boundary" inkscape:connector-curvature="0" />
	<path style="fill:none;stroke:red;stroke-width:1px;stroke-linecap:butt;stroke-linejoin:miter;stroke-opacity:1" d="M 213.659,683.452 203.953,702.865 z" id="boundary" inkscape:connector-curvature="0" />
	<path style="fill:none;stroke:red;stroke-width:1px;stroke-linecap:butt;stroke-linejoin:miter;stroke-opacity:1" d="M 203.953,702.865 194.247,722.278 z" id="boundary" inkscape:connector-curvature="0" />
	<path style="fill:none;stroke:red;stroke-width:1px;stroke-linecap:butt;stroke-linejoin:miter;stroke-opacity:1" d="M 194.247,722.278 184.54,741.691 z" id="boundary" inkscape:connector-curvature="0" />
	<path style="fill:none;stroke:red;stroke-width:1px;stroke-linecap:butt;stroke-linejoin:miter;stroke-opacity:1" d="M 184.54,741.691 169.01,757.221 z" id="boundary" inkscape:connector-curvature="0" />
	<path style="fill:none;stroke:red;stroke-width:1px;stroke-linecap:butt;stroke-linejoin:miter;stroke-opacity:1" d="M 169.01,757.221 159.303,776.634 z" id="boundary" inkscape:connector-curvature="0" />
	<path style="fill:none;stroke:red;stroke-width:1px;stroke-linecap:butt;stroke-linejoin:miter;stroke-opacity:1" d="M 159.303,776.634 139.89,796.047 z" id="boundary" inkscape:connector-curvature="0" />
	<path style="fill:none;stroke:red;stroke-width:1px;stroke-linecap:butt;stroke-linejoin:miter;stroke-opacity:1" d="M 139.89,796.047 130.184,825.166 z" id="boundary" inkscape:connector-curvature="0" />
	<path style="fill:none;stroke:red;stroke-width:1px;stroke-linecap:butt;stroke-linejoin:miter;stroke-opacity:1" d="M 130.184,825.166 120.477,844.579 z" id="boundary" inkscape:connector-curvature="0" />
	<path style="fill:none;stroke:red;stroke-width:1px;stroke-linecap:butt;stroke-linejoin:miter;stroke-opacity:1" d="M 120.477,844.579 120.477,863.992 z" id="boundary" inkscape:connector-curvature="0" />
	<path style="fill:none;stroke:red;stroke-width:1px;stroke-linecap:butt;stroke-linejoin:miter;stroke-opacity:1" d="M 120.477,863.992 120.477,883.405 z" id="boundary" inkscape:connector-curvature="0" />
	<path style="fill:none;stroke:red;stroke-width:1px;stroke-linecap:butt;stroke-linejoin:miter;stroke-opacity:1" d="M 120.477,883.405 120.477,902.818 z" id="boundary" inkscape:connector-curvature="0" />
	<path style="fill:none;stroke:red;stroke-width:1px;stroke-linecap:butt;stroke-linejoin:miter;stroke-opacity:1" d="M 120.477,902.818 110.771,931.937 z" id="boundary" inkscape:connector-curvature="0" />
	<path style="fill:none;stroke:red;stroke-width:1px;stroke-linecap:butt;stroke-linejoin:miter;stroke-opacity:1" d="M 110.771,931.937 120.477,949.409 z" id="boundary" inkscape:connector-curvature="0" />
	<path style="fill:none;stroke:red;stroke-width:1px;stroke-linecap:butt;stroke-linejoin:miter;stroke-opacity:1" d="M 120.477,949.409 130.184,966.881 z" id="boundary" inkscape:connector-curvature="0" />
	<path style="fill:none;stroke:red;stroke-width:1px;stroke-linecap:butt;stroke-linejoin:miter;stroke-opacity:1" d="M 130.184,966.881 141.832,982.411 z" id="boundary" inkscape:connector-curvature="0" />
	<path style="fill:none;stroke:red;stroke-width:1px;stroke-linecap:butt;stroke-linejoin:miter;stroke-opacity:1" d="M 141.832,982.411 157.362,996 z" id="boundary" inkscape:connector-curvature="0" />
	<path style="fill:none;stroke:red;stroke-width:1px;stroke-linecap:butt;stroke-linejoin:miter;stroke-opacity:1" d="M 157.362,996 176.775,996 z" id="boundary" inkscape:connector-curvature="0" />
	<path style="fill:none;stroke:red;stroke-width:1px;stroke-linecap:butt;stroke-linejoin:miter;stroke-opacity:1" d="M 176.775,996 196.188,992.117 z" id="boundary" inkscape:connector-curvature="0" />
	<path style="fill:none;stroke:red;stroke-width:1px;stroke-linecap:butt;stroke-linejoin:miter;stroke-opacity:1" d="M 196.188,992.117 200.07,964.939 z" id="boundary" inkscape:connector-curvature="0" />
	<path style="fill:none;stroke:red;stroke-width:1px;stroke-linecap:butt;stroke-linejoin:miter;stroke-opacity:1" d="M 200.07,964.939 200.07,945.526 z" id="boundary" inkscape:connector-curvature="0" />
	<path style="fill:none;stroke:red;stroke-width:1px;stroke-linecap:butt;stroke-linejoin:miter;stroke-opacity:1" d="M 200.07,945.526 190.364,928.055 z" id="boundary" inkscape:connector-curvature="0" />
	<path style="fill:none;stroke:red;stroke-width:1px;stroke-linecap:butt;stroke-linejoin:miter;stroke-opacity:1" d="M 190.364,928.055 200.07,908.642 z" id="boundary" inkscape:connector-curvature="0" />
	<path style="fill:none;stroke:red;stroke-width:1px;stroke-linecap:butt;stroke-linejoin:miter;stroke-opacity:1" d="M 200.07,908.642 200.07,889.229 z" id="boundary" inkscape:connector-curvature="0" />
	<path style="fill:none;stroke:red;stroke-width:1px;stroke-linecap:butt;stroke-linejoin:miter;stroke-opacity:1" d="M 200.07,889.229 209.777,869.816 z" id="boundary" inkscape:connector-curvature="0" />
	<path style="fill:none;stroke:red;stroke-width:1px;stroke-linecap:butt;stroke-linejoin:miter;stroke-opacity:1" d="M 209.777,869.816 219.483,850.403 z" id="boundary" inkscape:connector-curvature="0" />
	<path style="fill:none;stroke:red;stroke-width:1px;stroke-linecap:butt;stroke-linejoin:miter;stroke-opacity:1" d="M 219.483,850.403 235.014,836.814 z" id="boundary" inkscape:connector-curvature="0" />
	<path style="fill:none;stroke:red;stroke-width:1px;stroke-linecap:butt;stroke-linejoin:miter;stroke-opacity:1" d="M 235.014,836.814 246.661,821.284 z" id="boundary" inkscape:connector-curvature="0" />
	<path style="fill:none;stroke:red;stroke-width:1px;stroke-linecap:butt;stroke-linejoin:miter;stroke-opacity:1" d="M 246.661,821.284 258.309,801.871 z" id="boundary" inkscape:connector-curvature="0" />
	<path style="fill:none;stroke:red;stroke-width:1px;stroke-linecap:butt;stroke-linejoin:miter;stroke-opacity:1" d="M 258.309,801.871 273.84,788.282 z" id="boundary" inkscape:connector-curvature="0" />
	<path style="fill:none;stroke:red;stroke-width:1px;stroke-linecap:butt;stroke-linejoin:miter;stroke-opacity:1" d="M 273.84,788.282 287.429,772.751 z" id="boundary" inkscape:connector-curvature="0" />
	<path style="fill:none;stroke:red;stroke-width:1px;stroke-linecap:butt;stroke-linejoin:miter;stroke-opacity:1" d="M 287.429,772.751 302.959,759.162 z" id="boundary" inkscape:connector-curvature="0" />
	<path style="fill:none;stroke:red;stroke-width:1px;stroke-linecap:butt;stroke-linejoin:miter;stroke-opacity:1" d="M 302.959,759.162 312.665,739.75 z" id="boundary" inkscape:connector-curvature="0" />
	<path style="fill:none;stroke:red;stroke-width:1px;stroke-linecap:butt;stroke-linejoin:miter;stroke-opacity:1" d="M 312.665,739.75 322.372,720.337 z" id="boundary" inkscape:connector-curvature="0" />
	<path style="fill:none;stroke:red;stroke-width:1px;stroke-linecap:butt;stroke-linejoin:miter;stroke-opacity:1" d="M 322.372,720.337 335.961,704.806 z" id="boundary" inkscape:connector-curvature="0" />
	<path style="fill:none;stroke:red;stroke-width:1px;stroke-linecap:butt;stroke-linejoin:miter;stroke-opacity:1" d="M 335.961,704.806 351.491,691.217 z" id="boundary" inkscape:connector-curvature="0" />
	<path style="fill:none;stroke:red;stroke-width:1px;stroke-linecap:butt;stroke-linejoin:miter;stroke-opacity:1" d="M 351.491,691.217 365.08,675.687 z" id="boundary" inkscape:connector-curvature="0" />
	<path style="fill:none;stroke:red;stroke-width:1px;stroke-linecap:butt;stroke-linejoin:miter;stroke-opacity:1" d="M 365.08,675.687 384.493,679.569 z" id="boundary" inkscape:connector-curvature="0" />
	<path style="fill:none;stroke:red;stroke-width:1px;stroke-linecap:butt;stroke-linejoin:miter;stroke-opacity:1" d="M 384.493,679.569 398.082,695.1 z" id="boundary" inkscape:connector-curvature="0" />
	<path style="fill:none;stroke:red;stroke-width:1px;stroke-linecap:butt;stroke-linejoin:miter;stroke-opacity:1" d="M 398.082,695.1 415.554,704.806 z" id="boundary" inkscape:connector-curvature="0" />
	<path style="fill:none;stroke:red;stroke-width:1px;stroke-linecap:butt;stroke-linejoin:miter;stroke-opacity:1" d="M 415.554,704.806 425.26,722.278 z" id="boundary" inkscape:connector-curvature="0" />
	<path style="fill:none;stroke:red;stroke-width:1px;stroke-linecap:butt;stroke-linejoin:miter;stroke-opacity:1" d="M 425.26,722.278 440.791,733.926 z" id="boundary" inkscape:connector-curvature="0" />
	<path style="fill:none;stroke:red;stroke-width:1px;stroke-linecap:butt;stroke-linejoin:miter;stroke-opacity:1" d="M 440.791,733.926 452.438,749.456 z" id="boundary" inkscape:connector-curvature="0" />
	<path style="fill:none;stroke:red;stroke-width:1px;stroke-linecap:butt;stroke-linejoin:miter;stroke-opacity:1" d="M 452.438,749.456 467.969,763.045 z" id="boundary" inkscape:connector-curvature="0" />
	<path style="fill:none;stroke:red;stroke-width:1px;stroke-linecap:butt;stroke-linejoin:miter;stroke-opacity:1" d="M 467.969,763.045 481.558,778.575 z" id="boundary" inkscape:connector-curvature="0" />
	<path style="fill:none;stroke:red;stroke-width:1px;stroke-linecap:butt;stroke-linejoin:miter;stroke-opacity:1" d="M 481.558,778.575 491.264,796.047 z" id="boundary" inkscape:connector-curvature="0" />
	<path style="fill:none;stroke:red;stroke-width:1px;stroke-linecap:butt;stroke-linejoin:miter;stroke-opacity:1" d="M 491.264,796.047 504.853,811.577 z" id="boundary" inkscape:connector-curvature="0" />
	<path style="fill:none;stroke:red;stroke-width:1px;stroke-linecap:butt;stroke-linejoin:miter;stroke-opacity:1" d="M 504.853,811.577 514.56,829.049 z" id="boundary" inkscape:connector-curvature="0" />
	<path style="fill:none;stroke:red;stroke-width:1px;stroke-linecap:butt;stroke-linejoin:miter;stroke-opacity:1" d="M 514.56,829.049 522.325,848.462 z" id="boundary" inkscape:connector-curvature="0" />
	<path style="fill:none;stroke:red;stroke-width:1px;stroke-linecap:butt;stroke-linejoin:miter;stroke-opacity:1" d="M 522.325,848.462 537.855,860.11 z" id="boundary" inkscape:connector-curvature="0" />
	<path style="fill:none;stroke:red;stroke-width:1px;stroke-linecap:butt;stroke-linejoin:miter;stroke-opacity:1" d="M 537.855,860.11 549.503,875.64 z" id="boundary" inkscape:connector-curvature="0" />
	<path style="fill:none;stroke:red;stroke-width:1px;stroke-linecap:butt;stroke-linejoin:miter;stroke-opacity:1" d="M 549.503,875.64 565.033,889.229 z" id="boundary" inkscape:connector-curvature="0" />
	<path style="fill:none;stroke:red;stroke-width:1px;stroke-linecap:butt;stroke-linejoin:miter;stroke-opacity:1" d="M 565.033,889.229 578.622,904.759 z" id="boundary" inkscape:connector-curvature="0" />
	<path style="fill:none;stroke:red;stroke-width:1px;stroke-linecap:butt;stroke-linejoin:miter;stroke-opacity:1" d="M 578.622,904.759 594.153,918.348 z" id="boundary" inkscape:connector-curvature="0" />
	<path style="fill:none;stroke:red;stroke-width:1px;stroke-linecap:butt;stroke-linejoin:miter;stroke-opacity:1" d="M 594.153,918.348 607.742,933.879 z" id="boundary" inkscape:connector-curvature="0" />
	<path style="fill:none;stroke:red;stroke-width:1px;stroke-linecap:butt;stroke-linejoin:miter;stroke-opacity:1" d="M 607.742,933.879 623.272,947.468 z" id="boundary" inkscape:connector-curvature="0" />
	<path style="fill:none;stroke:red;stroke-width:1px;stroke-linecap:butt;stroke-linejoin:miter;stroke-opacity:1" d="M 623.272,947.468 636.861,962.998 z" id="boundary" inkscape:connector-curvature="0" />
	<path style="fill:none;stroke:red;stroke-width:1px;stroke-linecap:butt;stroke-linejoin:miter;stroke-opacity:1" d="M 636.861,962.998 654.333,972.705 z" id="boundary" inkscape:connector-curvature="0" />
	<path style="fill:none;stroke:red;stroke-width:1px;stroke-linecap:butt;stroke-linejoin:miter;stroke-opacity:1" d="M 654.333,972.705 669.863,986.294 z" id="boundary" inkscape:connector-curvature="0" />
	<path style="fill:none;stroke:red;stroke-width:1px;stroke-linecap:butt;stroke-linejoin:miter;stroke-opacity:1" d="M 669.863,986.294 685.393,966.881 z" id="boundary" inkscape:connector-curvature="0" />
	<path style="fill:none;stroke:red;stroke-width:1px;stroke-linecap:butt;stroke-linejoin:miter;stroke-opacity:1" d="M 685.393,966.881 685.393,947.468 z" id="boundary" inkscape:connector-curvature="0" />
	<path style="fill:none;stroke:red;stroke-width:1px;stroke-linecap:butt;stroke-linejoin:miter;stroke-opacity:1" d="M 685.393,947.468 685.393,926.114 z" id="boundary" inkscape:connector-curvature="0" />
	<path style="fill:none;stroke:red;stroke-width:1px;stroke-linecap:butt;stroke-linejoin:miter;stroke-opacity:1" d="M 685.393,926.114 675.687,908.642 z" id="boundary" inkscape:connector-curvature="0" />
	<path style="fill:none;stroke:red;stroke-width:1px;stroke-linecap:butt;stroke-linejoin:miter;stroke-opacity:1" d="M 675.687,908.642 664.039,893.112 z" id="boundary" inkscape:connector-curvature="0" />
	<path style="fill:none;stroke:red;stroke-width:1px;stroke-linecap:butt;stroke-linejoin:miter;stroke-opacity:1" d="M 664.039,893.112 656.274,873.699 z" id="boundary" inkscape:connector-curvature="0" />
	<path style="fill:none;stroke:red;stroke-width:1px;stroke-linecap:butt;stroke-linejoin:miter;stroke-opacity:1" d="M 656.274,873.699 646.568,856.227 z" id="boundary" inkscape:connector-curvature="0" />
	<path style="fill:none;stroke:red;stroke-width:1px;stroke-linecap:butt;stroke-linejoin:miter;stroke-opacity:1" d="M 646.568,856.227 636.861,838.755 z" id="boundary" inkscape:connector-curvature="0" />
	<path style="fill:none;stroke:red;stroke-width:1px;stroke-linecap:butt;stroke-linejoin:miter;stroke-opacity:1" d="M 636.861,838.755 623.272,823.225 z" id="boundary" inkscape:connector-curvature="0" />
	<path style="fill:none;stroke:red;stroke-width:1px;stroke-linecap:butt;stroke-linejoin:miter;stroke-opacity:1" d="M 623.272,823.225 617.448,803.812 z" id="boundary" inkscape:connector-curvature="0" />
	<path style="fill:none;stroke:red;stroke-width:1px;stroke-linecap:butt;stroke-linejoin:miter;stroke-opacity:1" d="M 617.448,803.812 607.742,786.341 z" id="boundary" inkscape:connector-curvature="0" />
	<path style="fill:none;stroke:red;stroke-width:1px;stroke-linecap:butt;stroke-linejoin:miter;stroke-opacity:1" d="M 607.742,786.341 596.094,770.81 z" id="boundary" inkscape:connector-curvature="0" />
	<path style="fill:none;stroke:red;stroke-width:1px;stroke-linecap:butt;stroke-linejoin:miter;stroke-opacity:1" d="M 596.094,770.81 578.622,761.104 z" id="boundary" inkscape:connector-curvature="0" />
	<path style="fill:none;stroke:red;stroke-width:1px;stroke-linecap:butt;stroke-linejoin:miter;stroke-opacity:1" d="M 578.622,761.104 572.798,741.691 z" id="boundary" inkscape:connector-curvature="0" />
	<path style="fill:none;stroke:red;stroke-width:1px;stroke-linecap:butt;stroke-linejoin:miter;stroke-opacity:1" d="M 572.798,741.691 557.268,728.102 z" id="boundary" inkscape:connector-curvature="0" />
	<path style="fill:none;stroke:red;stroke-width:1px;stroke-linecap:butt;stroke-linejoin:miter;stroke-opacity:1" d="M 557.268,728.102 549.503,708.689 z" id="boundary" inkscape:connector-curvature="0" />
	<path style="fill:none;stroke:red;stroke-width:1px;stroke-linecap:butt;stroke-linejoin:miter;stroke-opacity:1" d="M 549.503,708.689 533.973,695.1 z" id="boundary" inkscape:connector-curvature="0" />
	<path style="fill:none;stroke:red;stroke-width:1px;stroke-linecap:butt;stroke-linejoin:miter;stroke-opacity:1" d="M 533.973,695.1 526.207,675.687 z" id="boundary" inkscape:connector-curvature="0" />
	<path style="fill:none;stroke:red;stroke-width:1px;stroke-linecap:butt;stroke-linejoin:miter;stroke-opacity:1" d="M 526.207,675.687 510.677,664.039 z" id="boundary" inkscape:connector-curvature="0" />
	<path style="fill:none;stroke:red;stroke-width:1px;stroke-linecap:butt;stroke-linejoin:miter;stroke-opacity:1" d="M 510.677,664.039 510.677,644.626 z" id="boundary" inkscape:connector-curvature="0" />
	<path style="fill:none;stroke:red;stroke-width:1px;stroke-linecap:butt;stroke-linejoin:miter;stroke-opacity:1" d="M 510.677,644.626 499.029,629.096 z" id="boundary" inkscape:connector-curvature="0" />
	<path style="fill:none;stroke:red;stroke-width:1px;stroke-linecap:butt;stroke-linejoin:miter;stroke-opacity:1" d="M 499.029,629.096 489.323,611.624 z" id="boundary" inkscape:connector-curvature="0" />
	<path style="fill:none;stroke:red;stroke-width:1px;stroke-linecap:butt;stroke-linejoin:miter;stroke-opacity:1" d="M 489.323,611.624 481.558,592.211 z" id="boundary" inkscape:connector-curvature="0" />
	<path style="fill:none;stroke:red;stroke-width:1px;stroke-linecap:butt;stroke-linejoin:miter;stroke-opacity:1" d="M 481.558,592.211 471.851,574.74 z" id="boundary" inkscape:connector-curvature="0" />
	<path style="fill:none;stroke:red;stroke-width:1px;stroke-linecap:butt;stroke-linejoin:miter;stroke-opacity:1" d="M 471.851,574.74 462.145,557.268 z" id="boundary" inkscape:connector-curvature="0" />
	<path style="fill:none;stroke:red;stroke-width:1px;stroke-linecap:butt;stroke-linejoin:miter;stroke-opacity:1" d="M 462.145,557.268 462.145,537.855 z" id="boundary" inkscape:connector-curvature="0" />
	<path style="fill:none;stroke:red;stroke-width:1px;stroke-linecap:butt;stroke-linejoin:miter;stroke-opacity:1" d="M 462.145,537.855 452.438,520.384 z" id="boundary" inkscape:connector-curvature="0" />
	<path style="fill:none;stroke:red;stroke-width:1px;stroke-linecap:butt;stroke-linejoin:miter;stroke-opacity:1" d="M 452.438,520.384 467.969,506.795 z" id="boundary" inkscape:connector-curvature="0" />
	<path style="fill:none;stroke:red;stroke-width:1px;stroke-linecap:butt;stroke-linejoin:miter;stroke-opacity:1" d="M 467.969,506.795 471.851,481.558 z" id="boundary" inkscape:connector-curvature="0" />
	<path style="fill:none;stroke:red;stroke-width:1px;stroke-linecap:butt;stroke-linejoin:miter;stroke-opacity:1" d="M 471.851,481.558 471.851,462.145 z" id="boundary" inkscape:connector-curvature="0" />
	<path style="fill:none;stroke:red;stroke-width:1px;stroke-linecap:butt;stroke-linejoin:miter;stroke-opacity:1" d="M 471.851,462.145 481.558,442.732 z" id="boundary" inkscape:connector-curvature="0" />
	<path style="fill:none;stroke:red;stroke-width:1px;stroke-linecap:butt;stroke-linejoin:miter;stroke-opacity:1" d="M 481.558,442.732 481.558,423.319 z" id="boundary" inkscape:connector-curvature="0" />
	<path style="fill:none;stroke:red;stroke-width:1px;stroke-linecap:butt;stroke-linejoin:miter;stroke-opacity:1" d="M 481.558,423.319 481.558,403.906 z" id="boundary" inkscape:connector-curvature="0" />
	<path style="fill:none;stroke:red;stroke-width:1px;stroke-linecap:butt;stroke-linejoin:miter;stroke-opacity:1" d="M 481.558,403.906 481.558,384.493 z" id="boundary" inkscape:connector-curvature="0" />
	<path style="fill:none;stroke:red;stroke-width:1px;stroke-linecap:butt;stroke-linejoin:miter;stroke-opacity:1" d="M 481.558,384.493 500.971,365.08 z" id="boundary" inkscape:connector-curvature="0" />
	<path style="fill:none;stroke:red;stroke-width:1px;stroke-linecap:butt;stroke-linejoin:miter;stroke-opacity:1" d="M 500.971,365.08 500.971,345.667 z" id="boundary" inkscape:connector-curvature="0" />
	<path style="fill:none;stroke:red;stroke-width:1px;stroke-linecap:butt;stroke-linejoin:miter;stroke-opacity:1" d="M 500.971,345.667 500.971,326.254 z" id="boundary" inkscape:connector-curvature="0" />
	<path style="fill:none;stroke:red;stroke-width:1px;stroke-linecap:butt;stroke-linejoin:miter;stroke-opacity:1" d="M 500.971,326.254 516.501,312.665 z" id="boundary" inkscape:connector-curvature="0" />
	<path style="fill:none;stroke:red;stroke-width:1px;stroke-linecap:butt;stroke-linejoin:miter;stroke-opacity:1" d="M 516.501,312.665 530.09,297.135 z" id="boundary" inkscape:connector-curvature="0" />
	<path style="fill:none;stroke:red;stroke-width:1px;stroke-linecap:butt;stroke-linejoin:miter;stroke-opacity:1" d="M 530.09,297.135 541.738,312.665 z" id="boundary" inkscape:connector-curvature="0" />
	<path style="fill:none;stroke:red;stroke-width:1px;stroke-linecap:butt;stroke-linejoin:miter;stroke-opacity:1" d="M 541.738,312.665 561.151,316.548 z" id="boundary" inkscape:connector-curvature="0" />
	<path style="fill:none;stroke:red;stroke-width:1px;stroke-linecap:butt;stroke-linejoin:miter;stroke-opacity:1" d="M 561.151,316.548 576.681,328.196 z" id="boundary" inkscape:connector-curvature="0" />
	<path style="fill:none;stroke:red;stroke-width:1px;stroke-linecap:butt;stroke-linejoin:miter;stroke-opacity:1" d="M 576.681,328.196 596.094,335.961 z" id="boundary" inkscape:connector-curvature="0" />
	<path style="fill:none;stroke:red;stroke-width:1px;stroke-linecap:butt;stroke-linejoin:miter;stroke-opacity:1" d="M 596.094,335.961 601.918,355.374 z" id="boundary" inkscape:connector-curvature="0" />
	<path style="fill:none;stroke:red;stroke-width:1px;stroke-linecap:butt;stroke-linejoin:miter;stroke-opacity:1" d="M 611.624,227.249 615.507,194.247 z" id="boundary" inkscape:connector-curvature="0" />
	<path style="fill:none;stroke:red;stroke-width:1px;stroke-linecap:butt;stroke-linejoin:miter;stroke-opacity:1" d="M 615.507,194.247 615.507,174.834 z" id="boundary" inkscape:connector-curvature="0" />
	<path style="fill:none;stroke:red;stroke-width:1px;stroke-linecap:butt;stroke-linejoin:miter;stroke-opacity:1" d="M 615.507,174.834 634.92,169.01 z" id="boundary" inkscape:connector-curvature="0" />
	<path style="fill:none;stroke:red;stroke-width:1px;stroke-linecap:butt;stroke-linejoin:miter;stroke-opacity:1" d="M 634.92,169.01 654.333,169.01 z" id="boundary" inkscape:connector-curvature="0" />
	<path style="fill:none;stroke:red;stroke-width:1px;stroke-linecap:butt;stroke-linejoin:miter;stroke-opacity:1" d="M 654.333,169.01 673.746,169.01 z" id="boundary" inkscape:connector-curvature="0" />
	<path style="fill:none;stroke:red;stroke-width:1px;stroke-linecap:butt;stroke-linejoin:miter;stroke-opacity:1" d="M 673.746,169.01 691.217,178.716 z" id="boundary" inkscape:connector-curvature="0" />
	<path style="fill:none;stroke:red;stroke-width:1px;stroke-linecap:butt;stroke-linejoin:miter;stroke-opacity:1" d="M 691.217,178.716 710.63,178.716 z" id="boundary" inkscape:connector-curvature="0" />
	<path style="fill:none;stroke:red;stroke-width:1px;stroke-linecap:butt;stroke-linejoin:miter;stroke-opacity:1" d="M 710.63,178.716 730.043,178.716 z" id="boundary" inkscape:connector-curvature="0" />
	<path style="fill:none;stroke:red;stroke-width:1px;stroke-linecap:butt;stroke-linejoin:miter;stroke-opacity:1" d="M 730.043,178.716 749.456,178.716 z" id="boundary" inkscape:connector-curvature="0" />
	<path style="fill:none;stroke:red;stroke-width:1px;stroke-linecap:butt;stroke-linejoin:miter;stroke-opacity:1" d="M 749.456,178.716 768.869,178.716 z" id="boundary" inkscape:connector-curvature="0" />
	<path style="fill:none;stroke:red;stroke-width:1px;stroke-linecap:butt;stroke-linejoin:miter;stroke-opacity:1" d="M 768.869,178.716 788.282,178.716 z" id="boundary" inkscape:connector-curvature="0" />
	<path style="fill:none;stroke:red;stroke-width:1px;stroke-linecap:butt;stroke-linejoin:miter;stroke-opacity:1" d="M 788.282,178.716 807.695,178.716 z" id="boundary" inkscape:connector-curvature="0" />
	<path style="fill:none;stroke:red;stroke-width:1px;stroke-linecap:butt;stroke-linejoin:miter;stroke-opacity:1" d="M 807.695,178.716 825.166,188.423 z" id="boundary" inkscape:connector-curvature="0" />
	<path style="fill:none;stroke:red;stroke-width:1px;stroke-linecap:butt;stroke-linejoin:miter;stroke-opacity:1" d="M 825.166,188.423 844.579,188.423 z" id="boundary" inkscape:connector-curvature="0" />
	<path style="fill:none;stroke:red;stroke-width:1px;stroke-linecap:butt;stroke-linejoin:miter;stroke-opacity:1" d="M 844.579,188.423 863.992,188.423 z" id="boundary" inkscape:connector-curvature="0" />
	<path style="fill:none;stroke:red;stroke-width:1px;stroke-linecap:butt;stroke-linejoin:miter;stroke-opacity:1" d="M 863.992,188.423 883.405,188.423 z" id="boundary" inkscape:connector-curvature="0" />
	<path style="fill:none;stroke:red;stroke-width:1px;stroke-linecap:butt;stroke-linejoin:miter;stroke-opacity:1" d="M 883.405,188.423 889.229,207.836 z" id="boundary" inkscape:connector-curvature="0" />
	<path style="fill:none;stroke:red;stroke-width:1px;stroke-linecap:butt;stroke-linejoin:miter;stroke-opacity:1" d="M 889.229,207.836 889.229,227.249 z" id="boundary" inkscape:connector-curvature="0" />
	<path style="fill:none;stroke:red;stroke-width:1px;stroke-linecap:butt;stroke-linejoin:miter;stroke-opacity:1" d="M 889.229,227.249 879.523,258.309 z" id="boundary" inkscape:connector-curvature="0" />
	<path style="fill:none;stroke:red;stroke-width:1px;stroke-linecap:butt;stroke-linejoin:miter;stroke-opacity:1" d="M 879.523,258.309 879.523,277.722 z" id="boundary" inkscape:connector-curvature="0" />
	<path style="fill:none;stroke:red;stroke-width:1px;stroke-linecap:butt;stroke-linejoin:miter;stroke-opacity:1" d="M 879.523,277.722 879.523,297.135 z" id="boundary" inkscape:connector-curvature="0" />
	<path style="fill:none;stroke:red;stroke-width:1px;stroke-linecap:butt;stroke-linejoin:miter;stroke-opacity:1" d="M 879.523,297.135 879.523,316.548 z" id="boundary" inkscape:connector-curvature="0" />
	<path style="fill:none;stroke:red;stroke-width:1px;stroke-linecap:butt;stroke-linejoin:miter;stroke-opacity:1" d="M 879.523,316.548 879.523,335.961 z" id="boundary" inkscape:connector-curvature="0" />
	<path style="fill:none;stroke:red;stroke-width:1px;stroke-linecap:butt;stroke-linejoin:miter;stroke-opacity:1" d="M 879.523,335.961 879.523,355.374 z" id="boundary" inkscape:connector-curvature="0" />
	<path style="fill:none;stroke:red;stroke-width:1px;stroke-linecap:butt;stroke-linejoin:miter;stroke-opacity:1" d="M 879.523,355.374 879.523,374.787 z" id="boundary" inkscape:connector-curvature="0" />
	<path style="fill:none;stroke:red;stroke-width:1px;stroke-linecap:butt;stroke-linejoin:miter;stroke-opacity:1" d="M 879.523,374.787 869.816,394.2 z" id="boundary" inkscape:connector-curvature="0" />
	<path style="fill:none;stroke:red;stroke-width:1px;stroke-linecap:butt;stroke-linejoin:miter;stroke-opacity:1" d="M 869.816,394.2 869.816,413.613 z" id="boundary" inkscape:connector-curvature="0" />
	<path style="fill:none;stroke:red;stroke-width:1px;stroke-linecap:butt;stroke-linejoin:miter;stroke-opacity:1" d="M 869.816,413.613 869.816,433.025 z" id="boundary" inkscape:connector-curvature="0" />
	<path style="fill:none;stroke:red;stroke-width:1px;stroke-linecap:butt;stroke-linejoin:miter;stroke-opacity:1" d="M 869.816,433.025 869.816,452.438 z" id="boundary" inkscape:connector-curvature="0" />
	<path style="fill:none;stroke:red;stroke-width:1px;stroke-linecap:butt;stroke-linejoin:miter;stroke-opacity:1" d="M 869.816,452.438 869.816,471.851 z" id="boundary" inkscape:connector-curvature="0" />
	<path style="fill:none;stroke:red;stroke-width:1px;stroke-linecap:butt;stroke-linejoin:miter;stroke-opacity:1" d="M 869.816,471.851 869.816,491.264 z" id="boundary" inkscape:connector-curvature="0" />
	<path style="fill:none;stroke:red;stroke-width:1px;stroke-linecap:butt;stroke-linejoin:miter;stroke-opacity:1" d="M 869.816,491.264 856.227,520.384 z" id="boundary" inkscape:connector-curvature="0" />
	<path style="fill:none;stroke:red;stroke-width:1px;stroke-linecap:butt;stroke-linejoin:miter;stroke-opacity:1" d="M 856.227,520.384 836.814,520.384 z" id="boundary" inkscape:connector-curvature="0" />
	<path style="fill:none;stroke:red;stroke-width:1px;stroke-linecap:butt;stroke-linejoin:miter;stroke-opacity:1" d="M 836.814,520.384 817.401,520.384 z" id="boundary" inkscape:connector-curvature="0" />
	<path style="fill:none;stroke:red;stroke-width:1px;stroke-linecap:butt;stroke-linejoin:miter;stroke-opacity:1" d="M 817.401,520.384 799.93,510.677 z" id="boundary" inkscape:connector-curvature="0" />
	<path style="fill:none;stroke:red;stroke-width:1px;stroke-linecap:butt;stroke-linejoin:miter;stroke-opacity:1" d="M 799.93,510.677 780.517,510.677 z" id="boundary" inkscape:connector-curvature="0" />
	<path style="fill:none;stroke:red;stroke-width:1px;stroke-linecap:butt;stroke-linejoin:miter;stroke-opacity:1" d="M 780.517,510.677 761.104,510.677 z" id="boundary" inkscape:connector-curvature="0" />
	<path style="fill:none;stroke:red;stroke-width:1px;stroke-linecap:butt;stroke-linejoin:miter;stroke-opacity:1" d="M 761.104,510.677 741.691,510.677 z" id="boundary" inkscape:connector-curvature="0" />
	<path style="fill:none;stroke:red;stroke-width:1px;stroke-linecap:butt;stroke-linejoin:miter;stroke-opacity:1" d="M 741.691,510.677 722.278,510.677 z" id="boundary" inkscape:connector-curvature="0" />
	<path style="fill:none;stroke:red;stroke-width:1px;stroke-linecap:butt;stroke-linejoin:miter;stroke-opacity:1" d="M 722.278,510.677 702.865,510.677 z" id="boundary" inkscape:connector-curvature="0" />
	<path style="fill:none;stroke:red;stroke-width:1px;stroke-linecap:butt;stroke-linejoin:miter;stroke-opacity:1" d="M 702.865,510.677 683.452,510.677 z" id="boundary" inkscape:connector-curvature="0" />
	<path style="fill:none;stroke:red;stroke-width:1px;stroke-linecap:butt;stroke-linejoin:miter;stroke-opacity:1" d="M 683.452,510.677 665.98,500.971 z" id="boundary" inkscape:connector-curvature="0" />
	<path style="fill:none;stroke:red;stroke-width:1px;stroke-linecap:butt;stroke-linejoin:miter;stroke-opacity:1" d="M 665.98,500.971 646.568,500.971 z" id="boundary" inkscape:connector-curvature="0" />
	<path style="fill:none;stroke:red;stroke-width:1px;stroke-linecap:butt;stroke-linejoin:miter;stroke-opacity:1" d="M 646.568,500.971 627.155,500.971 z" id="boundary" inkscape:connector-curvature="0" />
	<path style="fill:none;stroke:red;stroke-width:1px;stroke-linecap:butt;stroke-linejoin:miter;stroke-opacity:1" d="M 627.155,500.971 607.742,500.971 z" id="boundary" inkscape:connector-curvature="0" />
	<path style="fill:none;stroke:red;stroke-width:1px;stroke-linecap:butt;stroke-linejoin:miter;stroke-opacity:1" d="M 607.742,500.971 596.094,485.44 z" id="boundary" inkscape:connector-curvature="0" />
	<path style="fill:none;stroke:red;stroke-width:1px;stroke-linecap:butt;stroke-linejoin:miter;stroke-opacity:1" d="M 596.094,485.44 596.094,466.027 z" id="boundary" inkscape:connector-curvature="0" />
	<path style="fill:none;stroke:red;stroke-width:1px;stroke-linecap:butt;stroke-linejoin:miter;stroke-opacity:1" d="M 596.094,466.027 596.094,446.614 z" id="boundary" inkscape:connector-curvature="0" />
	<path style="fill:none;stroke:red;stroke-width:1px;stroke-linecap:butt;stroke-linejoin:miter;stroke-opacity:1" d="M 596.094,446.614 596.094,427.202 z" id="boundary" inkscape:connector-curvature="0" />
	<path style="fill:none;stroke:red;stroke-width:1px;stroke-linecap:butt;stroke-linejoin:miter;stroke-opacity:1" d="M 596.094,427.202 596.094,407.789 z" id="boundary" inkscape:connector-curvature="0" />
	<path style="fill:none;stroke:red;stroke-width:1px;stroke-linecap:butt;stroke-linejoin:miter;stroke-opacity:1" d="M 596.094,407.789 596.094,388.376 z" id="boundary" inkscape:connector-curvature="0" />
	<path style="fill:none;stroke:red;stroke-width:1px;stroke-linecap:butt;stroke-linejoin:miter;stroke-opacity:1" d="M 596.094,388.376 601.918,355.374 z" id="boundary" inkscape:connector-curvature="0" />
	<circle cx="4" cy="417.495" r="4" fill="#0" id="circle0"/>
	<circle cx="4" cy="436.908" r="4" fill="#0" id="circle1"/>
	<circle cx="13.7065" cy="398.082" r="4" fill="#0" id="circle2"/>
	<circle cx="23.4129" cy="378.669" r="4" fill="#0" id="circle3"/>
	<circle cx="23.4129" cy="442.732" r="4" fill="#0" id="circle4"/>
	<circle cx="38.9432" cy="363.139" r="4" fill="#0" id="circle5"/>
	<circle cx="42.8258" cy="446.614" r="4" fill="#0" id="circle6"/>
	<circle cx="52.5323" cy="427.202" r="4" fill="#0" id="circle7"/>
	<circle cx="54.4736" cy="347.609" r="4" fill="#0" id="circle8"/>
	<circle cx="68.0626" cy="413.613" r="4" fill="#0" id="circle9"/>
	<circle cx="70.0039" cy="334.02" r="4" fill="#0" id="circle10"/>
	<circle cx="77.7691" cy="314.607" r="4" fill="#0" id="circle11"/>
	<circle cx="85.5342" cy="403.906" r="4" fill="#0" id="circle12"/>
	<circle cx="87.4755" cy="295.194" r="4" fill="#0" id="circle13"/>
	<circle cx="97.182" cy="275.781" r="4" fill="#0" id="circle14"/>
	<circle cx="101.065" cy="388.376" r="4" fill="#0" id="circle15"/>
	<circle cx="110.771" cy="931.937" r="4" fill="#0" id="circle16"/>
	<circle cx="112.712" cy="260.25" r="4" fill="#0" id="circle17"/>
	<circle cx="120.477" cy="378.669" r="4" fill="#0" id="circle18"/>
	<circle cx="120.477" cy="844.579" r="4" fill="#0" id="circle19"/>
	<circle cx="120.477" cy="863.992" r="4" fill="#0" id="circle20"/>
	<circle cx="120.477" cy="883.405" r="4" fill="#0" id="circle21"/>
	<circle cx="120.477" cy="902.818" r="4" fill="#0" id="circle22"/>
	<circle cx="120.477" cy="949.409" r="4" fill="#0" id="circle23"/>
	<circle cx="122.419" cy="240.838" r="4" fill="#0" id="circle24"/>
	<circle cx="130.184" cy="825.166" r="4" fill="#0" id="circle25"/>
	<circle cx="130.184" cy="966.881" r="4" fill="#0" id="circle26"/>
	<circle cx="136.008" cy="363.139" r="4" fill="#0" id="circle27"/>
	<circle cx="137.949" cy="227.249" r="4" fill="#0" id="circle28"/>
	<circle cx="139.89" cy="796.047" r="4" fill="#0" id="circle29"/>
	<circle cx="141.832" cy="982.411" r="4" fill="#0" id="circle30"/>
	<circle cx="151.538" cy="345.667" r="4" fill="#0" id="circle31"/>
	<circle cx="155.421" cy="217.542" r="4" fill="#0" id="circle32"/>
	<circle cx="157.362" cy="996" r="4" fill="#0" id="circle33"/>
	<circle cx="159.303" cy="776.634" r="4" fill="#0" id="circle34"/>
	<circle cx="167.068" cy="332.078" r="4" fill="#0" id="circle35"/>
	<circle cx="169.01" cy="757.221" r="4" fill="#0" id="circle36"/>
	<circle cx="170.951" cy="202.012" r="4" fill="#0" id="circle37"/>
	<circle cx="176.775" cy="996" r="4" fill="#0" id="circle38"/>
	<circle cx="180.658" cy="316.548" r="4" fill="#0" id="circle39"/>
	<circle cx="184.54" cy="741.691" r="4" fill="#0" id="circle40"/>
	<circle cx="190.364" cy="192.305" r="4" fill="#0" id="circle41"/>
	<circle cx="190.364" cy="928.055" r="4" fill="#0" id="circle42"/>
	<circle cx="194.247" cy="722.278" r="4" fill="#0" id="circle43"/>
	<circle cx="196.188" cy="992.117" r="4" fill="#0" id="circle44"/>
	<circle cx="200.07" cy="306.841" r="4" fill="#0" id="circle45"/>
	<circle cx="200.07" cy="889.229" r="4" fill="#0" id="circle46"/>
	<circle cx="200.07" cy="908.642" r="4" fill="#0" id="circle47"/>
	<circle cx="200.07" cy="945.526" r="4" fill="#0" id="circle48"/>
	<circle cx="200.07" cy="964.939" r="4" fill="#0" id="circle49"/>
	<circle cx="203.953" cy="702.865" r="4" fill="#0" id="circle50"/>
	<circle cx="209.777" cy="182.599" r="4" fill="#0" id="circle51"/>
	<circle cx="209.777" cy="869.816" r="4" fill="#0" id="circle52"/>
	<circle cx="213.659" cy="683.452" r="4" fill="#0" id="circle53"/>
	<circle cx="219.483" cy="306.841" r="4" fill="#0" id="circle54"/>
	<circle cx="219.483" cy="850.403" r="4" fill="#0" id="circle55"/>
	<circle cx="227.249" cy="660.157" r="4" fill="#0" id="circle56"/>
	<circle cx="229.19" cy="172.892" r="4" fill="#0" id="circle57"/>
	<circle cx="231.131" cy="322.372" r="4" fill="#0" id="circle58"/>
	<circle cx="235.014" cy="836.814" r="4" fill="#0" id="circle59"/>
	<circle cx="238.896" cy="341.785" r="4" fill="#0" id="circle60"/>
	<circle cx="246.661" cy="361.198" r="4" fill="#0" id="circle61"/>
	<circle cx="246.661" cy="380.611" r="4" fill="#0" id="circle62"/>
	<circle cx="246.661" cy="640.744" r="4" fill="#0" id="circle63"/>
	<circle cx="246.661" cy="821.284" r="4" fill="#0" id="circle64"/>
	<circle cx="248.603" cy="169.01" r="4" fill="#0" id="circle65"/>
	<circle cx="256.368" cy="398.082" r="4" fill="#0" id="circle66"/>
	<circle cx="256.368" cy="417.495" r="4" fill="#0" id="circle67"/>
	<circle cx="258.309" cy="801.871" r="4" fill="#0" id="circle68"/>
	<circle cx="262.192" cy="625.213" r="4" fill="#0" id="circle69"/>
	<circle cx="266.074" cy="434.967" r="4" fill="#0" id="circle70"/>
	<circle cx="266.074" cy="454.38" r="4" fill="#0" id="circle71"/>
	<circle cx="266.074" cy="592.211" r="4" fill="#0" id="circle72"/>
	<circle cx="268.016" cy="174.834" r="4" fill="#0" id="circle73"/>
	<circle cx="273.84" cy="788.282" r="4" fill="#0" id="circle74"/>
	<circle cx="275.781" cy="471.851" r="4" fill="#0" id="circle75"/>
	<circle cx="275.781" cy="553.386" r="4" fill="#0" id="circle76"/>
	<circle cx="275.781" cy="572.798" r="4" fill="#0" id="circle77"/>
	<circle cx="285.487" cy="106.888" r="4" fill="#0" id="circle78"/>
	<circle cx="285.487" cy="165.127" r="4" fill="#0" id="circle79"/>
	<circle cx="285.487" cy="489.323" r="4" fill="#0" id="circle80"/>
	<circle cx="285.487" cy="508.736" r="4" fill="#0" id="circle81"/>
	<circle cx="285.487" cy="528.149" r="4" fill="#0" id="circle82"/>
	<circle cx="287.429" cy="772.751" r="4" fill="#0" id="circle83"/>
	<circle cx="295.194" cy="68.0626" r="4" fill="#0" id="circle84"/>
	<circle cx="295.194" cy="87.4755" r="4" fill="#0" id="circle85"/>
	<circle cx="295.194" cy="124.36" r="4" fill="#0" id="circle86"/>
	<circle cx="295.194" cy="143.773" r="4" fill="#0" id="circle87"/>
	<circle cx="302.959" cy="759.162" r="4" fill="#0" id="circle88"/>
	<circle cx="304.9" cy="48.6497" r="4" fill="#0" id="circle89"/>
	<circle cx="312.665" cy="739.75" r="4" fill="#0" id="circle90"/>
	<circle cx="320.431" cy="33.1194" r="4" fill="#0" id="circle91"/>
	<circle cx="322.372" cy="720.337" r="4" fill="#0" id="circle92"/>
	<circle cx="335.961" cy="17.589" r="4" fill="#0" id="circle93"/>
	<circle cx="335.961" cy="704.806" r="4" fill="#0" id="circle94"/>
	<circle cx="351.491" cy="691.217" r="4" fill="#0" id="circle95"/>
	<circle cx="355.374" cy="7.88258" r="4" fill="#0" id="circle96"/>
	<circle cx="365.08" cy="675.687" r="4" fill="#0" id="circle97"/>
	<circle cx="374.787" cy="4" r="4" fill="#0" id="circle98"/>
	<circle cx="384.493" cy="679.569" r="4" fill="#0" id="circle99"/>
	<circle cx="394.2" cy="4" r="4" fill="#0" id="circle100"/>
	<circle cx="398.082" cy="695.1" r="4" fill="#0" id="circle101"/>
	<circle cx="413.613" cy="9.82387" r="4" fill="#0" id="circle102"/>
	<circle cx="415.554" cy="704.806" r="4" fill="#0" id="circle103"/>
	<circle cx="421.378" cy="29.2368" r="4" fill="#0" id="circle104"/>
	<circle cx="425.26" cy="722.278" r="4" fill="#0" id="circle105"/>
	<circle cx="433.025" cy="44.7671" r="4" fill="#0" id="circle106"/>
	<circle cx="440.791" cy="733.926" r="4" fill="#0" id="circle107"/>
	<circle cx="442.732" cy="62.2387" r="4" fill="#0" id="circle108"/>
	<circle cx="442.732" cy="122.419" r="4" fill="#0" id="circle109"/>
	<circle cx="442.732" cy="141.832" r="4" fill="#0" id="circle110"/>
	<circle cx="452.438" cy="79.7104" r="4" fill="#0" id="circle111"/>
	<circle cx="452.438" cy="103.006" r="4" fill="#0" id="circle112"/>
	<circle cx="452.438" cy="159.303" r="4" fill="#0" id="circle113"/>
	<circle cx="452.438" cy="520.384" r="4" fill="#0" id="circle114"/>
	<circle cx="452.438" cy="749.456" r="4" fill="#0" id="circle115"/>
	<circle cx="462.145" cy="537.855" r="4" fill="#0" id="circle116"/>
	<circle cx="462.145" cy="557.268" r="4" fill="#0" id="circle117"/>
	<circle cx="467.969" cy="506.795" r="4" fill="#0" id="circle118"/>
	<circle cx="467.969" cy="763.045" r="4" fill="#0" id="circle119"/>
	<circle cx="469.91" cy="169.01" r="4" fill="#0" id="circle120"/>
	<circle cx="471.851" cy="462.145" r="4" fill="#0" id="circle121"/>
	<circle cx="471.851" cy="481.558" r="4" fill="#0" id="circle122"/>
	<circle cx="471.851" cy="574.74" r="4" fill="#0" id="circle123"/>
	<circle cx="481.558" cy="384.493" r="4" fill="#0" id="circle124"/>
	<circle cx="481.558" cy="403.906" r="4" fill="#0" id="circle125"/>
	<circle cx="481.558" cy="423.319" r="4" fill="#0" id="circle126"/>
	<circle cx="481.558" cy="442.732" r="4" fill="#0" id="circle127"/>
	<circle cx="481.558" cy="592.211" r="4" fill="#0" id="circle128"/>
	<circle cx="481.558" cy="778.575" r="4" fill="#0" id="circle129"/>
	<circle cx="487.382" cy="178.716" r="4" fill="#0" id="circle130"/>
	<circle cx="489.323" cy="611.624" r="4" fill="#0" id="circle131"/>
	<circle cx="491.264" cy="796.047" r="4" fill="#0" id="circle132"/>
	<circle cx="499.029" cy="629.096" r="4" fill="#0" id="circle133"/>
	<circle cx="500.971" cy="326.254" r="4" fill="#0" id="circle134"/>
	<circle cx="500.971" cy="345.667" r="4" fill="#0" id="circle135"/>
	<circle cx="500.971" cy="365.08" r="4" fill="#0" id="circle136"/>
	<circle cx="504.853" cy="811.577" r="4" fill="#0" id="circle137"/>
	<circle cx="506.795" cy="178.716" r="4" fill="#0" id="circle138"/>
	<circle cx="510.677" cy="644.626" r="4" fill="#0" id="circle139"/>
	<circle cx="510.677" cy="664.039" r="4" fill="#0" id="circle140"/>
	<circle cx="514.56" cy="829.049" r="4" fill="#0" id="circle141"/>
	<circle cx="516.501" cy="312.665" r="4" fill="#0" id="circle142"/>
	<circle cx="522.325" cy="848.462" r="4" fill="#0" id="circle143"/>
	<circle cx="526.207" cy="178.716" r="4" fill="#0" id="circle144"/>
	<circle cx="526.207" cy="675.687" r="4" fill="#0" id="circle145"/>
	<circle cx="530.09" cy="297.135" r="4" fill="#0" id="circle146"/>
	<circle cx="533.973" cy="695.1" r="4" fill="#0" id="circle147"/>
	<circle cx="537.855" cy="860.11" r="4" fill="#0" id="circle148"/>
	<circle cx="541.738" cy="312.665" r="4" fill="#0" id="circle149"/>
	<circle cx="545.62" cy="180.658" r="4" fill="#0" id="circle150"/>
	<circle cx="549.503" cy="708.689" r="4" fill="#0" id="circle151"/>
	<circle cx="549.503" cy="875.64" r="4" fill="#0" id="circle152"/>
	<circle cx="557.268" cy="728.102" r="4" fill="#0" id="circle153"/>
	<circle cx="559.209" cy="196.188" r="4" fill="#0" id="circle154"/>
	<circle cx="561.151" cy="316.548" r="4" fill="#0" id="circle155"/>
	<circle cx="565.033" cy="889.229" r="4" fill="#0" id="circle156"/>
	<circle cx="572.798" cy="741.691" r="4" fill="#0" id="circle157"/>
	<circle cx="576.681" cy="328.196" r="4" fill="#0" id="circle158"/>
	<circle cx="578.622" cy="203.953" r="4" fill="#0" id="circle159"/>
	<circle cx="578.622" cy="761.104" r="4" fill="#0" id="circle160"/>
	<circle cx="578.622" cy="904.759" r="4" fill="#0" id="circle161"/>
	<circle cx="594.153" cy="217.542" r="4" fill="#0" id="circle162"/>
	<circle cx="594.153" cy="918.348" r="4" fill="#0" id="circle163"/>
	<circle cx="596.094" cy="335.961" r="4" fill="#0" id="circle164"/>
	<circle cx="596.094" cy="388.376" r="4" fill="#0" id="circle165"/>
	<circle cx="596.094" cy="407.789" r="4" fill="#0" id="circle166"/>
	<circle cx="596.094" cy="427.202" r="4" fill="#0" id="circle167"/>
	<circle cx="596.094" cy="446.614" r="4" fill="#0" id="circle168"/>
	<circle cx="596.094" cy="466.027" r="4" fill="#0" id="circle169"/>
	<circle cx="596.094" cy="485.44" r="4" fill="#0" id="circle170"/>
	<circle cx="596.094" cy="770.81" r="4" fill="#0" id="circle171"/>
	<circle cx="601.918" cy="355.374" r="4" fill="#0" id="circle172"/>
	<circle cx="607.742" cy="500.971" r="4" fill="#0" id="circle173"/>
	<circle cx="607.742" cy="786.341" r="4" fill="#0" id="circle174"/>
	<circle cx="607.742" cy="933.879" r="4" fill="#0" id="circle175"/>
	<circle cx="611.624" cy="227.249" r="4" fill="#0" id="circle176"/>
	<circle cx="615.507" cy="174.834" r="4" fill="#0" id="circle177"/>
	<circle cx="615.507" cy="194.247" r="4" fill="#0" id="circle178"/>
	<circle cx="617.448" cy="803.812" r="4" fill="#0" id="circle179"/>
	<circle cx="623.272" cy="823.225" r="4" fill="#0" id="circle180"/>
	<circle cx="623.272" cy="947.468" r="4" fill="#0" id="circle181"/>
	<circle cx="627.155" cy="500.971" r="4" fill="#0" id="circle182"/>
	<circle cx="634.92" cy="169.01" r="4" fill="#0" id="circle183"/>
	<circle cx="636.861" cy="838.755" r="4" fill="#0" id="circle184"/>
	<circle cx="636.861" cy="962.998" r="4" fill="#0" id="circle185"/>
	<circle cx="646.568" cy="500.971" r="4" fill="#0" id="circle186"/>
	<circle cx="646.568" cy="856.227" r="4" fill="#0" id="circle187"/>
	<circle cx="654.333" cy="169.01" r="4" fill="#0" id="circle188"/>
	<circle cx="654.333" cy="972.705" r="4" fill="#0" id="circle189"/>
	<circle cx="656.274" cy="873.699" r="4" fill="#0" id="circle190"/>
	<circle cx="664.039" cy="893.112" r="4" fill="#0" id="circle191"/>
	<circle cx="665.98" cy="500.971" r="4" fill="#0" id="circle192"/>
	<circle cx="669.863" cy="986.294" r="4" fill="#0" id="circle193"/>
	<circle cx="673.746" cy="169.01" r="4" fill="#0" id="circle194"/>
	<circle cx="675.687" cy="908.642" r="4" fill="#0" id="circle195"/>
	<circle cx="683.452" cy="510.677" r="4" fill="#0" id="circle196"/>
	<circle cx="685.393" cy="926.114" r="4" fill="#0" id="circle197"/>
	<circle cx="685.393" cy="947.468" r="4" fill="#0" id="circle198"/>
	<circle cx="685.393" cy="966.881" r="4" fill="#0" id="circle199"/>
	<circle cx="691.217" cy="178.716" r="4" fill="#0" id="circle200"/>
	<circle cx="702.865" cy="510.677" r="4" fill="#0" id="circle201"/>
	<circle cx="710.63" cy="178.716" r="4" fill="#0" id="circle202"/>
	<circle cx="722.278" cy="510.677" r="4" fill="#0" id="circle203"/>
	<circle cx="730.043" cy="178.716" r="4" fill="#0" id="circle204"/>
	<circle cx="741.691" cy="510.677" r="4" fill="#0" id="circle205"/>
	<circle cx="749.456" cy="178.716" r="4" fill="#0" id="circle206"/>
	<circle cx="761.104" cy="510.677" r="4" fill="#0" id="circle207"/>
	<circle cx="768.869" cy="178.716" r="4" fill="#0" id="circle208"/>
	<circle cx="780.517" cy="510.677" r="4" fill="#0" id="circle209"/>
	<circle cx="788.282" cy="178.716" r="4" fill="#0" id="circle210"/>
	<circle cx="799.93" cy="510.677" r="4" fill="#0" id="circle211"/>
	<circle cx="807.695" cy="178.716" r="4" fill="#0" id="circle212"/>
	<circle cx="817.401" cy="520.384" r="4" fill="#0" id="circle213"/>
	<circle cx="825.166" cy="188.423" r="4" fill="#0" id="circle214"/>
	<circle cx="836.814" cy="520.384" r="4" fill="#0" id="circle215"/>
	<circle cx="844.579" cy="188.423" r="4" fill="#0" id="circle216"/>
	<circle cx="856.227" cy="520.384" r="4" fill="#0" id="circle217"/>
	<circle cx="863.992" cy="188.423" r="4" fill="#0" id="circle218"/>
	<circle cx="869.816" cy="394.2" r="4" fill="#0" id="circle219"/>
	<circle cx="869.816" cy="413.613" r="4" fill="#0" id="circle220"/>
	<circle cx="869.816" cy="433.025" r="4" fill="#0" id="circle221"/>
	<circle cx="869.816" cy="452.438" r="4" fill="#0" id="circle222"/>
	<circle cx="869.816" cy="471.851" r="4" fill="#0" id="circle223"/>
	<circle cx="869.816" cy="491.264" r="4" fill="#0" id="circle224"/>
	<circle cx="879.523" cy="258.309" r="4" fill="#0" id="circle225"/>
	<circle cx="879.523" cy="277.722" r="4" fill="#0" id="circle226"/>
	<circle cx="879.523" cy="297.135" r="4" fill="#0" id="circle227"/>
	<circle cx="879.523" cy="316.548" r="4" fill="#0" id="circle228"/>
	<circle cx="879.523" cy="335.961" r="4" fill="#0" id="circle229"/>
	<circle cx="879.523" cy="355.374" r="4" fill="#0" id="circle230"/>
	<circle cx="879.523" cy="374.787" r="4" fill="#0" id="circle231"/>
	<circle cx="883.405" cy="188.423" r="4" fill="#0" id="circle232"/>
	<circle cx="889.229" cy="207.836" r="4" fill="#0" id="circle233"/>
	<circle cx="889.229" cy="227.249" r="4" fill="#0" id="circle234"/>
	</g>
</svg>