<?xml version="1.0" encoding="UTF-8" standalone="no"?>
<!-- Created with CurveBenchmark -->
<svg
	xmlns:dc="http://purl.org/dc/elements/1.1/"
	xmlns:cc="http://creativecommons.org/ns#"
	xmlns:rdf="http://www.w3.org/1999/02/22-rdf-syntax-ns#"
	xmlns:svg="http://www.w3.org/2000/svg"
	xmlns="http://www.w3.org/2000/svg"
	xmlns:sodipodi="http://sodipodi.sourceforge.net/DTD/sodipodi-0.dtd"
	xmlns:inkscape="http://www.inkscape.org/namespaces/inkscape"
	width="1000"
	height="1000"
	id="svg2"
	version="1.1"
	sodipodi:docname="manifold/crawl-fish30occ4.png.txt">
<defs
	id="defs4" />
<metadata
	id="metadata7">
	<rdf:RDF>
		<cc:Work
			rdf:about="">
			<dc:format>image/svg+xml</dc:format>
			<dc:type
				rdf:resource="http://purl.org/dc/dcmitype/StillImage" />
			<dc:title></dc:title>
		</cc:Work>
	</rdf:RDF>
</metadata>
<g
	inkscape:label="Layer 1"
	inkscape:groupmode="layer"
	id="layer1">
	<path style="fill:none;stroke:red;stroke-width:1px;stroke-linecap:butt;stroke-linejoin:miter;stroke-opacity:1" d="M 4,32.5942 4,54.5898 z" id="boundary" inkscape:connector-curvature="0" />
	<path style="fill:none;stroke:red;stroke-width:1px;stroke-linecap:butt;stroke-linejoin:miter;stroke-opacity:1" d="M 4,32.5942 4,10.5987 z" id="boundary" inkscape:connector-curvature="0" />
	<path style="fill:none;stroke:red;stroke-width:1px;stroke-linecap:butt;stroke-linejoin:miter;stroke-opacity:1" d="M 4,54.5898 14.9978,74.3858 z" id="boundary" inkscape:connector-curvature="0" />
	<path style="fill:none;stroke:red;stroke-width:1px;stroke-linecap:butt;stroke-linejoin:miter;stroke-opacity:1" d="M 14.9978,74.3858 25.9956,94.1818 z" id="boundary" inkscape:connector-curvature="0" />
	<path style="fill:none;stroke:red;stroke-width:1px;stroke-linecap:butt;stroke-linejoin:miter;stroke-opacity:1" d="M 25.9956,94.1818 32.5942,116.177 z" id="boundary" inkscape:connector-curvature="0" />
	<path style="fill:none;stroke:red;stroke-width:1px;stroke-linecap:butt;stroke-linejoin:miter;stroke-opacity:1" d="M 32.5942,116.177 43.592,135.973 z" id="boundary" inkscape:connector-curvature="0" />
	<path style="fill:none;stroke:red;stroke-width:1px;stroke-linecap:butt;stroke-linejoin:miter;stroke-opacity:1" d="M 4,10.5987 25.9956,4 z" id="boundary" inkscape:connector-curvature="0" />
	<path style="fill:none;stroke:red;stroke-width:1px;stroke-linecap:butt;stroke-linejoin:miter;stroke-opacity:1" d="M 25.9956,4 47.9911,4 z" id="boundary" inkscape:connector-curvature="0" />
	<path style="fill:none;stroke:red;stroke-width:1px;stroke-linecap:butt;stroke-linejoin:miter;stroke-opacity:1" d="M 47.9911,4 69.9867,8.39911 z" id="boundary" inkscape:connector-curvature="0" />
	<path style="fill:none;stroke:red;stroke-width:1px;stroke-linecap:butt;stroke-linejoin:miter;stroke-opacity:1" d="M 69.9867,8.39911 89.7827,19.3969 z" id="boundary" inkscape:connector-curvature="0" />
	<path style="fill:none;stroke:red;stroke-width:1px;stroke-linecap:butt;stroke-linejoin:miter;stroke-opacity:1" d="M 43.592,135.973 52.3902,157.969 z" id="boundary" inkscape:connector-curvature="0" />
	<path style="fill:none;stroke:red;stroke-width:1px;stroke-linecap:butt;stroke-linejoin:miter;stroke-opacity:1" d="M 52.3902,157.969 63.388,177.765 z" id="boundary" inkscape:connector-curvature="0" />
	<path style="fill:none;stroke:red;stroke-width:1px;stroke-linecap:butt;stroke-linejoin:miter;stroke-opacity:1" d="M 63.388,177.765 72.1863,199.761 z" id="boundary" inkscape:connector-curvature="0" />
	<path style="fill:none;stroke:red;stroke-width:1px;stroke-linecap:butt;stroke-linejoin:miter;stroke-opacity:1" d="M 72.1863,199.761 83.184,219.557 z" id="boundary" inkscape:connector-curvature="0" />
	<path style="fill:none;stroke:red;stroke-width:1px;stroke-linecap:butt;stroke-linejoin:miter;stroke-opacity:1" d="M 83.184,219.557 91.9823,241.552 z" id="boundary" inkscape:connector-curvature="0" />
	<path style="fill:none;stroke:red;stroke-width:1px;stroke-linecap:butt;stroke-linejoin:miter;stroke-opacity:1" d="M 91.9823,241.552 109.579,256.949 z" id="boundary" inkscape:connector-curvature="0" />
	<path style="fill:none;stroke:red;stroke-width:1px;stroke-linecap:butt;stroke-linejoin:miter;stroke-opacity:1" d="M 109.579,256.949 118.377,278.945 z" id="boundary" inkscape:connector-curvature="0" />
	<path style="fill:none;stroke:red;stroke-width:1px;stroke-linecap:butt;stroke-linejoin:miter;stroke-opacity:1" d="M 118.377,278.945 135.973,292.142 z" id="boundary" inkscape:connector-curvature="0" />
	<path style="fill:none;stroke:red;stroke-width:1px;stroke-linecap:butt;stroke-linejoin:miter;stroke-opacity:1" d="M 135.973,292.142 149.171,309.738 z" id="boundary" inkscape:connector-curvature="0" />
	<path style="fill:none;stroke:red;stroke-width:1px;stroke-linecap:butt;stroke-linejoin:miter;stroke-opacity:1" d="M 149.171,309.738 166.767,325.135 z" id="boundary" inkscape:connector-curvature="0" />
	<path style="fill:none;stroke:red;stroke-width:1px;stroke-linecap:butt;stroke-linejoin:miter;stroke-opacity:1" d="M 166.767,325.135 182.164,342.732 z" id="boundary" inkscape:connector-curvature="0" />
	<path style="fill:none;stroke:red;stroke-width:1px;stroke-linecap:butt;stroke-linejoin:miter;stroke-opacity:1" d="M 182.164,342.732 193.162,362.528 z" id="boundary" inkscape:connector-curvature="0" />
	<path style="fill:none;stroke:red;stroke-width:1px;stroke-linecap:butt;stroke-linejoin:miter;stroke-opacity:1" d="M 193.162,362.528 208.559,380.124 z" id="boundary" inkscape:connector-curvature="0" />
	<path style="fill:none;stroke:red;stroke-width:1px;stroke-linecap:butt;stroke-linejoin:miter;stroke-opacity:1" d="M 208.559,380.124 219.557,399.92 z" id="boundary" inkscape:connector-curvature="0" />
	<path style="fill:none;stroke:red;stroke-width:1px;stroke-linecap:butt;stroke-linejoin:miter;stroke-opacity:1" d="M 219.557,399.92 234.953,417.517 z" id="boundary" inkscape:connector-curvature="0" />
	<path style="fill:none;stroke:red;stroke-width:1px;stroke-linecap:butt;stroke-linejoin:miter;stroke-opacity:1" d="M 234.953,417.517 252.55,432.914 z" id="boundary" inkscape:connector-curvature="0" />
	<path style="fill:none;stroke:red;stroke-width:1px;stroke-linecap:butt;stroke-linejoin:miter;stroke-opacity:1" d="M 252.55,432.914 267.947,450.51 z" id="boundary" inkscape:connector-curvature="0" />
	<path style="fill:none;stroke:red;stroke-width:1px;stroke-linecap:butt;stroke-linejoin:miter;stroke-opacity:1" d="M 267.947,450.51 285.543,465.907 z" id="boundary" inkscape:connector-curvature="0" />
	<path style="fill:none;stroke:red;stroke-width:1px;stroke-linecap:butt;stroke-linejoin:miter;stroke-opacity:1" d="M 285.543,465.907 303.14,479.104 z" id="boundary" inkscape:connector-curvature="0" />
	<path style="fill:none;stroke:red;stroke-width:1px;stroke-linecap:butt;stroke-linejoin:miter;stroke-opacity:1" d="M 303.14,479.104 311.938,501.1 z" id="boundary" inkscape:connector-curvature="0" />
	<path style="fill:none;stroke:red;stroke-width:1px;stroke-linecap:butt;stroke-linejoin:miter;stroke-opacity:1" d="M 89.7827,19.3969 111.778,28.1951 z" id="boundary" inkscape:connector-curvature="0" />
	<path style="fill:none;stroke:red;stroke-width:1px;stroke-linecap:butt;stroke-linejoin:miter;stroke-opacity:1" d="M 111.778,28.1951 133.774,36.9933 z" id="boundary" inkscape:connector-curvature="0" />
	<path style="fill:none;stroke:red;stroke-width:1px;stroke-linecap:butt;stroke-linejoin:miter;stroke-opacity:1" d="M 133.774,36.9933 153.57,47.9911 z" id="boundary" inkscape:connector-curvature="0" />
	<path style="fill:none;stroke:red;stroke-width:1px;stroke-linecap:butt;stroke-linejoin:miter;stroke-opacity:1" d="M 153.57,47.9911 175.565,47.9911 z" id="boundary" inkscape:connector-curvature="0" />
	<path style="fill:none;stroke:red;stroke-width:1px;stroke-linecap:butt;stroke-linejoin:miter;stroke-opacity:1" d="M 175.565,47.9911 195.361,58.9889 z" id="boundary" inkscape:connector-curvature="0" />
	<path style="fill:none;stroke:red;stroke-width:1px;stroke-linecap:butt;stroke-linejoin:miter;stroke-opacity:1" d="M 195.361,58.9889 212.958,74.3858 z" id="boundary" inkscape:connector-curvature="0" />
	<path style="fill:none;stroke:red;stroke-width:1px;stroke-linecap:butt;stroke-linejoin:miter;stroke-opacity:1" d="M 212.958,74.3858 232.754,85.3836 z" id="boundary" inkscape:connector-curvature="0" />
	<path style="fill:none;stroke:red;stroke-width:1px;stroke-linecap:butt;stroke-linejoin:miter;stroke-opacity:1" d="M 232.754,85.3836 254.749,94.1818 z" id="boundary" inkscape:connector-curvature="0" />
	<path style="fill:none;stroke:red;stroke-width:1px;stroke-linecap:butt;stroke-linejoin:miter;stroke-opacity:1" d="M 254.749,94.1818 270.146,111.778 z" id="boundary" inkscape:connector-curvature="0" />
	<path style="fill:none;stroke:red;stroke-width:1px;stroke-linecap:butt;stroke-linejoin:miter;stroke-opacity:1" d="M 270.146,111.778 292.142,120.576 z" id="boundary" inkscape:connector-curvature="0" />
	<path style="fill:none;stroke:red;stroke-width:1px;stroke-linecap:butt;stroke-linejoin:miter;stroke-opacity:1" d="M 292.142,120.576 311.938,131.574 z" id="boundary" inkscape:connector-curvature="0" />
	<path style="fill:none;stroke:red;stroke-width:1px;stroke-linecap:butt;stroke-linejoin:miter;stroke-opacity:1" d="M 311.938,131.574 329.534,146.971 z" id="boundary" inkscape:connector-curvature="0" />
	<path style="fill:none;stroke:red;stroke-width:1px;stroke-linecap:butt;stroke-linejoin:miter;stroke-opacity:1" d="M 329.534,146.971 344.931,164.568 z" id="boundary" inkscape:connector-curvature="0" />
	<path style="fill:none;stroke:red;stroke-width:1px;stroke-linecap:butt;stroke-linejoin:miter;stroke-opacity:1" d="M 344.931,164.568 362.528,179.965 z" id="boundary" inkscape:connector-curvature="0" />
	<path style="fill:none;stroke:red;stroke-width:1px;stroke-linecap:butt;stroke-linejoin:miter;stroke-opacity:1" d="M 362.528,179.965 382.324,190.962 z" id="boundary" inkscape:connector-curvature="0" />
	<path style="fill:none;stroke:red;stroke-width:1px;stroke-linecap:butt;stroke-linejoin:miter;stroke-opacity:1" d="M 382.324,190.962 399.92,206.359 z" id="boundary" inkscape:connector-curvature="0" />
	<path style="fill:none;stroke:red;stroke-width:1px;stroke-linecap:butt;stroke-linejoin:miter;stroke-opacity:1" d="M 399.92,206.359 413.118,223.956 z" id="boundary" inkscape:connector-curvature="0" />
	<path style="fill:none;stroke:red;stroke-width:1px;stroke-linecap:butt;stroke-linejoin:miter;stroke-opacity:1" d="M 413.118,223.956 430.714,237.153 z" id="boundary" inkscape:connector-curvature="0" />
	<path style="fill:none;stroke:red;stroke-width:1px;stroke-linecap:butt;stroke-linejoin:miter;stroke-opacity:1" d="M 430.714,237.153 446.111,254.749 z" id="boundary" inkscape:connector-curvature="0" />
	<path style="fill:none;stroke:red;stroke-width:1px;stroke-linecap:butt;stroke-linejoin:miter;stroke-opacity:1" d="M 446.111,254.749 468.106,256.949 z" id="boundary" inkscape:connector-curvature="0" />
	<path style="fill:none;stroke:red;stroke-width:1px;stroke-linecap:butt;stroke-linejoin:miter;stroke-opacity:1" d="M 468.106,256.949 490.102,250.35 z" id="boundary" inkscape:connector-curvature="0" />
	<path style="fill:none;stroke:red;stroke-width:1px;stroke-linecap:butt;stroke-linejoin:miter;stroke-opacity:1" d="M 490.102,250.35 512.098,245.951 z" id="boundary" inkscape:connector-curvature="0" />
	<path style="fill:none;stroke:red;stroke-width:1px;stroke-linecap:butt;stroke-linejoin:miter;stroke-opacity:1" d="M 512.098,245.951 534.093,245.951 z" id="boundary" inkscape:connector-curvature="0" />
	<path style="fill:none;stroke:red;stroke-width:1px;stroke-linecap:butt;stroke-linejoin:miter;stroke-opacity:1" d="M 534.093,245.951 556.089,239.353 z" id="boundary" inkscape:connector-curvature="0" />
	<path style="fill:none;stroke:red;stroke-width:1px;stroke-linecap:butt;stroke-linejoin:miter;stroke-opacity:1" d="M 556.089,239.353 578.084,241.552 z" id="boundary" inkscape:connector-curvature="0" />
	<path style="fill:none;stroke:red;stroke-width:1px;stroke-linecap:butt;stroke-linejoin:miter;stroke-opacity:1" d="M 578.084,241.552 589.082,270.146 z" id="boundary" inkscape:connector-curvature="0" />
	<path style="fill:none;stroke:red;stroke-width:1px;stroke-linecap:butt;stroke-linejoin:miter;stroke-opacity:1" d="M 589.082,270.146 589.082,292.142 z" id="boundary" inkscape:connector-curvature="0" />
	<path style="fill:none;stroke:red;stroke-width:1px;stroke-linecap:butt;stroke-linejoin:miter;stroke-opacity:1" d="M 589.082,292.142 578.084,314.137 z" id="boundary" inkscape:connector-curvature="0" />
	<path style="fill:none;stroke:red;stroke-width:1px;stroke-linecap:butt;stroke-linejoin:miter;stroke-opacity:1" d="M 578.084,314.137 578.084,336.133 z" id="boundary" inkscape:connector-curvature="0" />
	<path style="fill:none;stroke:red;stroke-width:1px;stroke-linecap:butt;stroke-linejoin:miter;stroke-opacity:1" d="M 578.084,336.133 578.084,358.129 z" id="boundary" inkscape:connector-curvature="0" />
	<path style="fill:none;stroke:red;stroke-width:1px;stroke-linecap:butt;stroke-linejoin:miter;stroke-opacity:1" d="M 578.084,358.129 567.086,380.124 z" id="boundary" inkscape:connector-curvature="0" />
	<path style="fill:none;stroke:red;stroke-width:1px;stroke-linecap:butt;stroke-linejoin:miter;stroke-opacity:1" d="M 567.086,380.124 571.486,402.12 z" id="boundary" inkscape:connector-curvature="0" />
	<path style="fill:none;stroke:red;stroke-width:1px;stroke-linecap:butt;stroke-linejoin:miter;stroke-opacity:1" d="M 571.486,402.12 582.483,421.916 z" id="boundary" inkscape:connector-curvature="0" />
	<path style="fill:none;stroke:red;stroke-width:1px;stroke-linecap:butt;stroke-linejoin:miter;stroke-opacity:1" d="M 582.483,421.916 597.88,439.512 z" id="boundary" inkscape:connector-curvature="0" />
	<path style="fill:none;stroke:red;stroke-width:1px;stroke-linecap:butt;stroke-linejoin:miter;stroke-opacity:1" d="M 597.88,439.512 608.878,459.308 z" id="boundary" inkscape:connector-curvature="0" />
	<path style="fill:none;stroke:red;stroke-width:1px;stroke-linecap:butt;stroke-linejoin:miter;stroke-opacity:1" d="M 608.878,459.308 622.075,476.905 z" id="boundary" inkscape:connector-curvature="0" />
	<path style="fill:none;stroke:red;stroke-width:1px;stroke-linecap:butt;stroke-linejoin:miter;stroke-opacity:1" d="M 622.075,476.905 639.672,490.102 z" id="boundary" inkscape:connector-curvature="0" />
	<path style="fill:none;stroke:red;stroke-width:1px;stroke-linecap:butt;stroke-linejoin:miter;stroke-opacity:1" d="M 639.672,490.102 655.069,507.698 z" id="boundary" inkscape:connector-curvature="0" />
	<path style="fill:none;stroke:red;stroke-width:1px;stroke-linecap:butt;stroke-linejoin:miter;stroke-opacity:1" d="M 655.069,507.698 666.067,527.494 z" id="boundary" inkscape:connector-curvature="0" />
	<path style="fill:none;stroke:red;stroke-width:1px;stroke-linecap:butt;stroke-linejoin:miter;stroke-opacity:1" d="M 666.067,527.494 681.463,545.091 z" id="boundary" inkscape:connector-curvature="0" />
	<path style="fill:none;stroke:red;stroke-width:1px;stroke-linecap:butt;stroke-linejoin:miter;stroke-opacity:1" d="M 681.463,545.091 699.06,560.488 z" id="boundary" inkscape:connector-curvature="0" />
	<path style="fill:none;stroke:red;stroke-width:1px;stroke-linecap:butt;stroke-linejoin:miter;stroke-opacity:1" d="M 699.06,560.488 707.858,582.483 z" id="boundary" inkscape:connector-curvature="0" />
	<path style="fill:none;stroke:red;stroke-width:1px;stroke-linecap:butt;stroke-linejoin:miter;stroke-opacity:1" d="M 707.858,582.483 725.455,597.88 z" id="boundary" inkscape:connector-curvature="0" />
	<path style="fill:none;stroke:red;stroke-width:1px;stroke-linecap:butt;stroke-linejoin:miter;stroke-opacity:1" d="M 725.455,597.88 740.851,615.477 z" id="boundary" inkscape:connector-curvature="0" />
	<path style="fill:none;stroke:red;stroke-width:1px;stroke-linecap:butt;stroke-linejoin:miter;stroke-opacity:1" d="M 740.851,615.477 758.448,630.874 z" id="boundary" inkscape:connector-curvature="0" />
	<path style="fill:none;stroke:red;stroke-width:1px;stroke-linecap:butt;stroke-linejoin:miter;stroke-opacity:1" d="M 758.448,630.874 765.047,652.869 z" id="boundary" inkscape:connector-curvature="0" />
	<path style="fill:none;stroke:red;stroke-width:1px;stroke-linecap:butt;stroke-linejoin:miter;stroke-opacity:1" d="M 765.047,652.869 765.047,674.865 z" id="boundary" inkscape:connector-curvature="0" />
	<path style="fill:none;stroke:red;stroke-width:1px;stroke-linecap:butt;stroke-linejoin:miter;stroke-opacity:1" d="M 765.047,674.865 776.044,694.661 z" id="boundary" inkscape:connector-curvature="0" />
	<path style="fill:none;stroke:red;stroke-width:1px;stroke-linecap:butt;stroke-linejoin:miter;stroke-opacity:1" d="M 776.044,694.661 793.641,710.058 z" id="boundary" inkscape:connector-curvature="0" />
	<path style="fill:none;stroke:red;stroke-width:1px;stroke-linecap:butt;stroke-linejoin:miter;stroke-opacity:1" d="M 793.641,710.058 813.437,721.055 z" id="boundary" inkscape:connector-curvature="0" />
	<path style="fill:none;stroke:red;stroke-width:1px;stroke-linecap:butt;stroke-linejoin:miter;stroke-opacity:1" d="M 813.437,721.055 835.432,729.854 z" id="boundary" inkscape:connector-curvature="0" />
	<path style="fill:none;stroke:red;stroke-width:1px;stroke-linecap:butt;stroke-linejoin:miter;stroke-opacity:1" d="M 835.432,729.854 855.228,740.851 z" id="boundary" inkscape:connector-curvature="0" />
	<path style="fill:none;stroke:red;stroke-width:1px;stroke-linecap:butt;stroke-linejoin:miter;stroke-opacity:1" d="M 855.228,740.851 875.024,751.849 z" id="boundary" inkscape:connector-curvature="0" />
	<path style="fill:none;stroke:red;stroke-width:1px;stroke-linecap:butt;stroke-linejoin:miter;stroke-opacity:1" d="M 875.024,751.849 897.02,751.849 z" id="boundary" inkscape:connector-curvature="0" />
	<path style="fill:none;stroke:red;stroke-width:1px;stroke-linecap:butt;stroke-linejoin:miter;stroke-opacity:1" d="M 897.02,751.849 919.016,751.849 z" id="boundary" inkscape:connector-curvature="0" />
	<path style="fill:none;stroke:red;stroke-width:1px;stroke-linecap:butt;stroke-linejoin:miter;stroke-opacity:1" d="M 919.016,751.849 938.812,762.847 z" id="boundary" inkscape:connector-curvature="0" />
	<path style="fill:none;stroke:red;stroke-width:1px;stroke-linecap:butt;stroke-linejoin:miter;stroke-opacity:1" d="M 938.812,762.847 960.807,767.246 z" id="boundary" inkscape:connector-curvature="0" />
	<path style="fill:none;stroke:red;stroke-width:1px;stroke-linecap:butt;stroke-linejoin:miter;stroke-opacity:1" d="M 960.807,767.246 980.603,778.244 z" id="boundary" inkscape:connector-curvature="0" />
	<path style="fill:none;stroke:red;stroke-width:1px;stroke-linecap:butt;stroke-linejoin:miter;stroke-opacity:1" d="M 980.603,778.244 996,795.84 z" id="boundary" inkscape:connector-curvature="0" />
	<path style="fill:none;stroke:red;stroke-width:1px;stroke-linecap:butt;stroke-linejoin:miter;stroke-opacity:1" d="M 996,795.84 978.404,828.834 z" id="boundary" inkscape:connector-curvature="0" />
	<path style="fill:none;stroke:red;stroke-width:1px;stroke-linecap:butt;stroke-linejoin:miter;stroke-opacity:1" d="M 978.404,828.834 956.408,831.033 z" id="boundary" inkscape:connector-curvature="0" />
	<path style="fill:none;stroke:red;stroke-width:1px;stroke-linecap:butt;stroke-linejoin:miter;stroke-opacity:1" d="M 956.408,831.033 934.412,831.033 z" id="boundary" inkscape:connector-curvature="0" />
	<path style="fill:none;stroke:red;stroke-width:1px;stroke-linecap:butt;stroke-linejoin:miter;stroke-opacity:1" d="M 934.412,831.033 914.616,842.031 z" id="boundary" inkscape:connector-curvature="0" />
	<path style="fill:none;stroke:red;stroke-width:1px;stroke-linecap:butt;stroke-linejoin:miter;stroke-opacity:1" d="M 914.616,842.031 892.621,842.031 z" id="boundary" inkscape:connector-curvature="0" />
	<path style="fill:none;stroke:red;stroke-width:1px;stroke-linecap:butt;stroke-linejoin:miter;stroke-opacity:1" d="M 892.621,842.031 870.625,848.63 z" id="boundary" inkscape:connector-curvature="0" />
	<path style="fill:none;stroke:red;stroke-width:1px;stroke-linecap:butt;stroke-linejoin:miter;stroke-opacity:1" d="M 870.625,848.63 853.029,864.027 z" id="boundary" inkscape:connector-curvature="0" />
	<path style="fill:none;stroke:red;stroke-width:1px;stroke-linecap:butt;stroke-linejoin:miter;stroke-opacity:1" d="M 853.029,864.027 853.029,886.022 z" id="boundary" inkscape:connector-curvature="0" />
	<path style="fill:none;stroke:red;stroke-width:1px;stroke-linecap:butt;stroke-linejoin:miter;stroke-opacity:1" d="M 853.029,886.022 853.029,908.018 z" id="boundary" inkscape:connector-curvature="0" />
	<path style="fill:none;stroke:red;stroke-width:1px;stroke-linecap:butt;stroke-linejoin:miter;stroke-opacity:1" d="M 853.029,908.018 842.031,930.013 z" id="boundary" inkscape:connector-curvature="0" />
	<path style="fill:none;stroke:red;stroke-width:1px;stroke-linecap:butt;stroke-linejoin:miter;stroke-opacity:1" d="M 842.031,930.013 839.831,956.408 z" id="boundary" inkscape:connector-curvature="0" />
	<path style="fill:none;stroke:red;stroke-width:1px;stroke-linecap:butt;stroke-linejoin:miter;stroke-opacity:1" d="M 839.831,956.408 828.834,978.404 z" id="boundary" inkscape:connector-curvature="0" />
	<path style="fill:none;stroke:red;stroke-width:1px;stroke-linecap:butt;stroke-linejoin:miter;stroke-opacity:1" d="M 828.834,978.404 806.838,974.004 z" id="boundary" inkscape:connector-curvature="0" />
	<path style="fill:none;stroke:red;stroke-width:1px;stroke-linecap:butt;stroke-linejoin:miter;stroke-opacity:1" d="M 806.838,974.004 795.84,954.208 z" id="boundary" inkscape:connector-curvature="0" />
	<path style="fill:none;stroke:red;stroke-width:1px;stroke-linecap:butt;stroke-linejoin:miter;stroke-opacity:1" d="M 795.84,954.208 784.843,934.412 z" id="boundary" inkscape:connector-curvature="0" />
	<path style="fill:none;stroke:red;stroke-width:1px;stroke-linecap:butt;stroke-linejoin:miter;stroke-opacity:1" d="M 784.843,934.412 773.845,914.616 z" id="boundary" inkscape:connector-curvature="0" />
	<path style="fill:none;stroke:red;stroke-width:1px;stroke-linecap:butt;stroke-linejoin:miter;stroke-opacity:1" d="M 773.845,914.616 767.246,892.621 z" id="boundary" inkscape:connector-curvature="0" />
	<path style="fill:none;stroke:red;stroke-width:1px;stroke-linecap:butt;stroke-linejoin:miter;stroke-opacity:1" d="M 767.246,892.621 756.248,872.825 z" id="boundary" inkscape:connector-curvature="0" />
	<path style="fill:none;stroke:red;stroke-width:1px;stroke-linecap:butt;stroke-linejoin:miter;stroke-opacity:1" d="M 756.248,872.825 751.849,850.829 z" id="boundary" inkscape:connector-curvature="0" />
	<path style="fill:none;stroke:red;stroke-width:1px;stroke-linecap:butt;stroke-linejoin:miter;stroke-opacity:1" d="M 751.849,850.829 740.851,831.033 z" id="boundary" inkscape:connector-curvature="0" />
	<path style="fill:none;stroke:red;stroke-width:1px;stroke-linecap:butt;stroke-linejoin:miter;stroke-opacity:1" d="M 740.851,831.033 740.851,809.038 z" id="boundary" inkscape:connector-curvature="0" />
	<path style="fill:none;stroke:red;stroke-width:1px;stroke-linecap:butt;stroke-linejoin:miter;stroke-opacity:1" d="M 740.851,809.038 729.854,789.242 z" id="boundary" inkscape:connector-curvature="0" />
	<path style="fill:none;stroke:red;stroke-width:1px;stroke-linecap:butt;stroke-linejoin:miter;stroke-opacity:1" d="M 729.854,789.242 718.856,769.446 z" id="boundary" inkscape:connector-curvature="0" />
	<path style="fill:none;stroke:red;stroke-width:1px;stroke-linecap:butt;stroke-linejoin:miter;stroke-opacity:1" d="M 718.856,769.446 703.459,751.849 z" id="boundary" inkscape:connector-curvature="0" />
	<path style="fill:none;stroke:red;stroke-width:1px;stroke-linecap:butt;stroke-linejoin:miter;stroke-opacity:1" d="M 703.459,751.849 681.463,751.849 z" id="boundary" inkscape:connector-curvature="0" />
	<path style="fill:none;stroke:red;stroke-width:1px;stroke-linecap:butt;stroke-linejoin:miter;stroke-opacity:1" d="M 681.463,751.849 663.867,769.446 z" id="boundary" inkscape:connector-curvature="0" />
	<path style="fill:none;stroke:red;stroke-width:1px;stroke-linecap:butt;stroke-linejoin:miter;stroke-opacity:1" d="M 663.867,769.446 641.871,776.044 z" id="boundary" inkscape:connector-curvature="0" />
	<path style="fill:none;stroke:red;stroke-width:1px;stroke-linecap:butt;stroke-linejoin:miter;stroke-opacity:1" d="M 641.871,776.044 619.876,780.443 z" id="boundary" inkscape:connector-curvature="0" />
	<path style="fill:none;stroke:red;stroke-width:1px;stroke-linecap:butt;stroke-linejoin:miter;stroke-opacity:1" d="M 619.876,780.443 597.88,791.441 z" id="boundary" inkscape:connector-curvature="0" />
	<path style="fill:none;stroke:red;stroke-width:1px;stroke-linecap:butt;stroke-linejoin:miter;stroke-opacity:1" d="M 597.88,791.441 575.885,791.441 z" id="boundary" inkscape:connector-curvature="0" />
	<path style="fill:none;stroke:red;stroke-width:1px;stroke-linecap:butt;stroke-linejoin:miter;stroke-opacity:1" d="M 575.885,791.441 564.887,771.645 z" id="boundary" inkscape:connector-curvature="0" />
	<path style="fill:none;stroke:red;stroke-width:1px;stroke-linecap:butt;stroke-linejoin:miter;stroke-opacity:1" d="M 564.887,771.645 564.887,749.65 z" id="boundary" inkscape:connector-curvature="0" />
	<path style="fill:none;stroke:red;stroke-width:1px;stroke-linecap:butt;stroke-linejoin:miter;stroke-opacity:1" d="M 564.887,749.65 564.887,727.654 z" id="boundary" inkscape:connector-curvature="0" />
	<path style="fill:none;stroke:red;stroke-width:1px;stroke-linecap:butt;stroke-linejoin:miter;stroke-opacity:1" d="M 564.887,727.654 553.889,707.858 z" id="boundary" inkscape:connector-curvature="0" />
	<path style="fill:none;stroke:red;stroke-width:1px;stroke-linecap:butt;stroke-linejoin:miter;stroke-opacity:1" d="M 553.889,707.858 553.889,685.863 z" id="boundary" inkscape:connector-curvature="0" />
	<path style="fill:none;stroke:red;stroke-width:1px;stroke-linecap:butt;stroke-linejoin:miter;stroke-opacity:1" d="M 553.889,685.863 542.891,666.067 z" id="boundary" inkscape:connector-curvature="0" />
	<path style="fill:none;stroke:red;stroke-width:1px;stroke-linecap:butt;stroke-linejoin:miter;stroke-opacity:1" d="M 542.891,666.067 520.896,659.468 z" id="boundary" inkscape:connector-curvature="0" />
	<path style="fill:none;stroke:red;stroke-width:1px;stroke-linecap:butt;stroke-linejoin:miter;stroke-opacity:1" d="M 520.896,659.468 505.499,641.871 z" id="boundary" inkscape:connector-curvature="0" />
	<path style="fill:none;stroke:red;stroke-width:1px;stroke-linecap:butt;stroke-linejoin:miter;stroke-opacity:1" d="M 505.499,641.871 483.503,633.073 z" id="boundary" inkscape:connector-curvature="0" />
	<path style="fill:none;stroke:red;stroke-width:1px;stroke-linecap:butt;stroke-linejoin:miter;stroke-opacity:1" d="M 483.503,633.073 468.106,615.477 z" id="boundary" inkscape:connector-curvature="0" />
	<path style="fill:none;stroke:red;stroke-width:1px;stroke-linecap:butt;stroke-linejoin:miter;stroke-opacity:1" d="M 468.106,615.477 446.111,606.678 z" id="boundary" inkscape:connector-curvature="0" />
	<path style="fill:none;stroke:red;stroke-width:1px;stroke-linecap:butt;stroke-linejoin:miter;stroke-opacity:1" d="M 446.111,606.678 432.914,589.082 z" id="boundary" inkscape:connector-curvature="0" />
	<path style="fill:none;stroke:red;stroke-width:1px;stroke-linecap:butt;stroke-linejoin:miter;stroke-opacity:1" d="M 432.914,589.082 413.118,578.084 z" id="boundary" inkscape:connector-curvature="0" />
	<path style="fill:none;stroke:red;stroke-width:1px;stroke-linecap:butt;stroke-linejoin:miter;stroke-opacity:1" d="M 413.118,578.084 391.122,578.084 z" id="boundary" inkscape:connector-curvature="0" />
	<path style="fill:none;stroke:red;stroke-width:1px;stroke-linecap:butt;stroke-linejoin:miter;stroke-opacity:1" d="M 391.122,578.084 395.521,600.08 z" id="boundary" inkscape:connector-curvature="0" />
	<path style="fill:none;stroke:red;stroke-width:1px;stroke-linecap:butt;stroke-linejoin:miter;stroke-opacity:1" d="M 395.521,600.08 388.922,626.475 z" id="boundary" inkscape:connector-curvature="0" />
	<path style="fill:none;stroke:red;stroke-width:1px;stroke-linecap:butt;stroke-linejoin:miter;stroke-opacity:1" d="M 388.922,626.475 377.925,648.47 z" id="boundary" inkscape:connector-curvature="0" />
	<path style="fill:none;stroke:red;stroke-width:1px;stroke-linecap:butt;stroke-linejoin:miter;stroke-opacity:1" d="M 377.925,648.47 355.929,655.069 z" id="boundary" inkscape:connector-curvature="0" />
	<path style="fill:none;stroke:red;stroke-width:1px;stroke-linecap:butt;stroke-linejoin:miter;stroke-opacity:1" d="M 355.929,655.069 333.933,655.069 z" id="boundary" inkscape:connector-curvature="0" />
	<path style="fill:none;stroke:red;stroke-width:1px;stroke-linecap:butt;stroke-linejoin:miter;stroke-opacity:1" d="M 333.933,655.069 311.938,648.47 z" id="boundary" inkscape:connector-curvature="0" />
	<path style="fill:none;stroke:red;stroke-width:1px;stroke-linecap:butt;stroke-linejoin:miter;stroke-opacity:1" d="M 311.938,648.47 296.541,630.874 z" id="boundary" inkscape:connector-curvature="0" />
	<path style="fill:none;stroke:red;stroke-width:1px;stroke-linecap:butt;stroke-linejoin:miter;stroke-opacity:1" d="M 296.541,630.874 278.945,615.477 z" id="boundary" inkscape:connector-curvature="0" />
	<path style="fill:none;stroke:red;stroke-width:1px;stroke-linecap:butt;stroke-linejoin:miter;stroke-opacity:1" d="M 278.945,615.477 278.945,593.481 z" id="boundary" inkscape:connector-curvature="0" />
	<path style="fill:none;stroke:red;stroke-width:1px;stroke-linecap:butt;stroke-linejoin:miter;stroke-opacity:1" d="M 278.945,593.481 289.942,571.486 z" id="boundary" inkscape:connector-curvature="0" />
	<path style="fill:none;stroke:red;stroke-width:1px;stroke-linecap:butt;stroke-linejoin:miter;stroke-opacity:1" d="M 289.942,571.486 300.94,538.492 z" id="boundary" inkscape:connector-curvature="0" />
	<path style="fill:none;stroke:red;stroke-width:1px;stroke-linecap:butt;stroke-linejoin:miter;stroke-opacity:1" d="M 300.94,538.492 311.938,501.1 z" id="boundary" inkscape:connector-curvature="0" />
	<circle cx="4" cy="10.5987" r="4" fill="#0" id="circle0"/>
	<circle cx="4" cy="32.5942" r="4" fill="#0" id="circle1"/>
	<circle cx="4" cy="54.5898" r="4" fill="#0" id="circle2"/>
	<circle cx="14.9978" cy="74.3858" r="4" fill="#0" id="circle3"/>
	<circle cx="25.9956" cy="4" r="4" fill="#0" id="circle4"/>
	<circle cx="25.9956" cy="94.1818" r="4" fill="#0" id="circle5"/>
	<circle cx="32.5942" cy="116.177" r="4" fill="#0" id="circle6"/>
	<circle cx="43.592" cy="135.973" r="4" fill="#0" id="circle7"/>
	<circle cx="47.9911" cy="4" r="4" fill="#0" id="circle8"/>
	<circle cx="52.3902" cy="157.969" r="4" fill="#0" id="circle9"/>
	<circle cx="63.388" cy="177.765" r="4" fill="#0" id="circle10"/>
	<circle cx="69.9867" cy="8.39911" r="4" fill="#0" id="circle11"/>
	<circle cx="72.1863" cy="199.761" r="4" fill="#0" id="circle12"/>
	<circle cx="83.184" cy="219.557" r="4" fill="#0" id="circle13"/>
	<circle cx="89.7827" cy="19.3969" r="4" fill="#0" id="circle14"/>
	<circle cx="91.9823" cy="241.552" r="4" fill="#0" id="circle15"/>
	<circle cx="109.579" cy="256.949" r="4" fill="#0" id="circle16"/>
	<circle cx="111.778" cy="28.1951" r="4" fill="#0" id="circle17"/>
	<circle cx="118.377" cy="278.945" r="4" fill="#0" id="circle18"/>
	<circle cx="133.774" cy="36.9933" r="4" fill="#0" id="circle19"/>
	<circle cx="135.973" cy="292.142" r="4" fill="#0" id="circle20"/>
	<circle cx="149.171" cy="309.738" r="4" fill="#0" id="circle21"/>
	<circle cx="153.57" cy="47.9911" r="4" fill="#0" id="circle22"/>
	<circle cx="166.767" cy="325.135" r="4" fill="#0" id="circle23"/>
	<circle cx="175.565" cy="47.9911" r="4" fill="#0" id="circle24"/>
	<circle cx="182.164" cy="342.732" r="4" fill="#0" id="circle25"/>
	<circle cx="193.162" cy="362.528" r="4" fill="#0" id="circle26"/>
	<circle cx="195.361" cy="58.9889" r="4" fill="#0" id="circle27"/>
	<circle cx="208.559" cy="380.124" r="4" fill="#0" id="circle28"/>
	<circle cx="212.958" cy="74.3858" r="4" fill="#0" id="circle29"/>
	<circle cx="219.557" cy="399.92" r="4" fill="#0" id="circle30"/>
	<circle cx="232.754" cy="85.3836" r="4" fill="#0" id="circle31"/>
	<circle cx="234.953" cy="417.517" r="4" fill="#0" id="circle32"/>
	<circle cx="252.55" cy="432.914" r="4" fill="#0" id="circle33"/>
	<circle cx="254.749" cy="94.1818" r="4" fill="#0" id="circle34"/>
	<circle cx="267.947" cy="450.51" r="4" fill="#0" id="circle35"/>
	<circle cx="270.146" cy="111.778" r="4" fill="#0" id="circle36"/>
	<circle cx="278.945" cy="593.481" r="4" fill="#0" id="circle37"/>
	<circle cx="278.945" cy="615.477" r="4" fill="#0" id="circle38"/>
	<circle cx="285.543" cy="465.907" r="4" fill="#0" id="circle39"/>
	<circle cx="289.942" cy="571.486" r="4" fill="#0" id="circle40"/>
	<circle cx="292.142" cy="120.576" r="4" fill="#0" id="circle41"/>
	<circle cx="296.541" cy="630.874" r="4" fill="#0" id="circle42"/>
	<circle cx="300.94" cy="538.492" r="4" fill="#0" id="circle43"/>
	<circle cx="303.14" cy="479.104" r="4" fill="#0" id="circle44"/>
	<circle cx="311.938" cy="131.574" r="4" fill="#0" id="circle45"/>
	<circle cx="311.938" cy="501.1" r="4" fill="#0" id="circle46"/>
	<circle cx="311.938" cy="648.47" r="4" fill="#0" id="circle47"/>
	<circle cx="329.534" cy="146.971" r="4" fill="#0" id="circle48"/>
	<circle cx="333.933" cy="655.069" r="4" fill="#0" id="circle49"/>
	<circle cx="344.931" cy="164.568" r="4" fill="#0" id="circle50"/>
	<circle cx="355.929" cy="655.069" r="4" fill="#0" id="circle51"/>
	<circle cx="362.528" cy="179.965" r="4" fill="#0" id="circle52"/>
	<circle cx="377.925" cy="648.47" r="4" fill="#0" id="circle53"/>
	<circle cx="382.324" cy="190.962" r="4" fill="#0" id="circle54"/>
	<circle cx="388.922" cy="626.475" r="4" fill="#0" id="circle55"/>
	<circle cx="391.122" cy="578.084" r="4" fill="#0" id="circle56"/>
	<circle cx="395.521" cy="600.08" r="4" fill="#0" id="circle57"/>
	<circle cx="399.92" cy="206.359" r="4" fill="#0" id="circle58"/>
	<circle cx="413.118" cy="223.956" r="4" fill="#0" id="circle59"/>
	<circle cx="413.118" cy="578.084" r="4" fill="#0" id="circle60"/>
	<circle cx="430.714" cy="237.153" r="4" fill="#0" id="circle61"/>
	<circle cx="432.914" cy="589.082" r="4" fill="#0" id="circle62"/>
	<circle cx="446.111" cy="254.749" r="4" fill="#0" id="circle63"/>
	<circle cx="446.111" cy="606.678" r="4" fill="#0" id="circle64"/>
	<circle cx="468.106" cy="256.949" r="4" fill="#0" id="circle65"/>
	<circle cx="468.106" cy="615.477" r="4" fill="#0" id="circle66"/>
	<circle cx="483.503" cy="633.073" r="4" fill="#0" id="circle67"/>
	<circle cx="490.102" cy="250.35" r="4" fill="#0" id="circle68"/>
	<circle cx="505.499" cy="641.871" r="4" fill="#0" id="circle69"/>
	<circle cx="512.098" cy="245.951" r="4" fill="#0" id="circle70"/>
	<circle cx="520.896" cy="659.468" r="4" fill="#0" id="circle71"/>
	<circle cx="534.093" cy="245.951" r="4" fill="#0" id="circle72"/>
	<circle cx="542.891" cy="666.067" r="4" fill="#0" id="circle73"/>
	<circle cx="553.889" cy="685.863" r="4" fill="#0" id="circle74"/>
	<circle cx="553.889" cy="707.858" r="4" fill="#0" id="circle75"/>
	<circle cx="556.089" cy="239.353" r="4" fill="#0" id="circle76"/>
	<circle cx="564.887" cy="727.654" r="4" fill="#0" id="circle77"/>
	<circle cx="564.887" cy="749.65" r="4" fill="#0" id="circle78"/>
	<circle cx="564.887" cy="771.645" r="4" fill="#0" id="circle79"/>
	<circle cx="567.086" cy="380.124" r="4" fill="#0" id="circle80"/>
	<circle cx="571.486" cy="402.12" r="4" fill="#0" id="circle81"/>
	<circle cx="575.885" cy="791.441" r="4" fill="#0" id="circle82"/>
	<circle cx="578.084" cy="241.552" r="4" fill="#0" id="circle83"/>
	<circle cx="578.084" cy="314.137" r="4" fill="#0" id="circle84"/>
	<circle cx="578.084" cy="336.133" r="4" fill="#0" id="circle85"/>
	<circle cx="578.084" cy="358.129" r="4" fill="#0" id="circle86"/>
	<circle cx="582.483" cy="421.916" r="4" fill="#0" id="circle87"/>
	<circle cx="589.082" cy="270.146" r="4" fill="#0" id="circle88"/>
	<circle cx="589.082" cy="292.142" r="4" fill="#0" id="circle89"/>
	<circle cx="597.88" cy="439.512" r="4" fill="#0" id="circle90"/>
	<circle cx="597.88" cy="791.441" r="4" fill="#0" id="circle91"/>
	<circle cx="608.878" cy="459.308" r="4" fill="#0" id="circle92"/>
	<circle cx="619.876" cy="780.443" r="4" fill="#0" id="circle93"/>
	<circle cx="622.075" cy="476.905" r="4" fill="#0" id="circle94"/>
	<circle cx="639.672" cy="490.102" r="4" fill="#0" id="circle95"/>
	<circle cx="641.871" cy="776.044" r="4" fill="#0" id="circle96"/>
	<circle cx="655.069" cy="507.698" r="4" fill="#0" id="circle97"/>
	<circle cx="663.867" cy="769.446" r="4" fill="#0" id="circle98"/>
	<circle cx="666.067" cy="527.494" r="4" fill="#0" id="circle99"/>
	<circle cx="681.463" cy="545.091" r="4" fill="#0" id="circle100"/>
	<circle cx="681.463" cy="751.849" r="4" fill="#0" id="circle101"/>
	<circle cx="699.06" cy="560.488" r="4" fill="#0" id="circle102"/>
	<circle cx="703.459" cy="751.849" r="4" fill="#0" id="circle103"/>
	<circle cx="707.858" cy="582.483" r="4" fill="#0" id="circle104"/>
	<circle cx="718.856" cy="769.446" r="4" fill="#0" id="circle105"/>
	<circle cx="725.455" cy="597.88" r="4" fill="#0" id="circle106"/>
	<circle cx="729.854" cy="789.242" r="4" fill="#0" id="circle107"/>
	<circle cx="740.851" cy="615.477" r="4" fill="#0" id="circle108"/>
	<circle cx="740.851" cy="809.038" r="4" fill="#0" id="circle109"/>
	<circle cx="740.851" cy="831.033" r="4" fill="#0" id="circle110"/>
	<circle cx="751.849" cy="850.829" r="4" fill="#0" id="circle111"/>
	<circle cx="756.248" cy="872.825" r="4" fill="#0" id="circle112"/>
	<circle cx="758.448" cy="630.874" r="4" fill="#0" id="circle113"/>
	<circle cx="765.047" cy="652.869" r="4" fill="#0" id="circle114"/>
	<circle cx="765.047" cy="674.865" r="4" fill="#0" id="circle115"/>
	<circle cx="767.246" cy="892.621" r="4" fill="#0" id="circle116"/>
	<circle cx="773.845" cy="914.616" r="4" fill="#0" id="circle117"/>
	<circle cx="776.044" cy="694.661" r="4" fill="#0" id="circle118"/>
	<circle cx="784.843" cy="934.412" r="4" fill="#0" id="circle119"/>
	<circle cx="793.641" cy="710.058" r="4" fill="#0" id="circle120"/>
	<circle cx="795.84" cy="954.208" r="4" fill="#0" id="circle121"/>
	<circle cx="806.838" cy="974.004" r="4" fill="#0" id="circle122"/>
	<circle cx="813.437" cy="721.055" r="4" fill="#0" id="circle123"/>
	<circle cx="828.834" cy="978.404" r="4" fill="#0" id="circle124"/>
	<circle cx="835.432" cy="729.854" r="4" fill="#0" id="circle125"/>
	<circle cx="839.831" cy="956.408" r="4" fill="#0" id="circle126"/>
	<circle cx="842.031" cy="930.013" r="4" fill="#0" id="circle127"/>
	<circle cx="853.029" cy="864.027" r="4" fill="#0" id="circle128"/>
	<circle cx="853.029" cy="886.022" r="4" fill="#0" id="circle129"/>
	<circle cx="853.029" cy="908.018" r="4" fill="#0" id="circle130"/>
	<circle cx="855.228" cy="740.851" r="4" fill="#0" id="circle131"/>
	<circle cx="870.625" cy="848.63" r="4" fill="#0" id="circle132"/>
	<circle cx="875.024" cy="751.849" r="4" fill="#0" id="circle133"/>
	<circle cx="892.621" cy="842.031" r="4" fill="#0" id="circle134"/>
	<circle cx="897.02" cy="751.849" r="4" fill="#0" id="circle135"/>
	<circle cx="914.616" cy="842.031" r="4" fill="#0" id="circle136"/>
	<circle cx="919.016" cy="751.849" r="4" fill="#0" id="circle137"/>
	<circle cx="934.412" cy="831.033" r="4" fill="#0" id="circle138"/>
	<circle cx="938.812" cy="762.847" r="4" fill="#0" id="circle139"/>
	<circle cx="956.408" cy="831.033" r="4" fill="#0" id="circle140"/>
	<circle cx="960.807" cy="767.246" r="4" fill="#0" id="circle141"/>
	<circle cx="978.404" cy="828.834" r="4" fill="#0" id="circle142"/>
	<circle cx="980.603" cy="778.244" r="4" fill="#0" id="circle143"/>
	<circle cx="996" cy="795.84" r="4" fill="#0" id="circle144"/>
	</g>
</svg>