<?xml version="1.0" encoding="UTF-8" standalone="no"?>
<!-- Created with CurveBenchmark -->
<svg
	xmlns:dc="http://purl.org/dc/elements/1.1/"
	xmlns:cc="http://creativecommons.org/ns#"
	xmlns:rdf="http://www.w3.org/1999/02/22-rdf-syntax-ns#"
	xmlns:svg="http://www.w3.org/2000/svg"
	xmlns="http://www.w3.org/2000/svg"
	xmlns:sodipodi="http://sodipodi.sourceforge.net/DTD/sodipodi-0.dtd"
	xmlns:inkscape="http://www.inkscape.org/namespaces/inkscape"
	width="1000"
	height="1000"
	id="svg2"
	version="1.1"
	sodipodi:docname="manifold/crawl-Misk04.png.txt">
<defs
	id="defs4" />
<metadata
	id="metadata7">
	<rdf:RDF>
		<cc:Work
			rdf:about="">
			<dc:format>image/svg+xml</dc:format>
			<dc:type
				rdf:resource="http://purl.org/dc/dcmitype/StillImage" />
			<dc:title></dc:title>
		</cc:Work>
	</rdf:RDF>
</metadata>
<g
	inkscape:label="Layer 1"
	inkscape:groupmode="layer"
	id="layer1">
	<path style="fill:none;stroke:red;stroke-width:1px;stroke-linecap:butt;stroke-linejoin:miter;stroke-opacity:1" d="M 26.9807,128.479 42.3012,139.969 z" id="boundary" inkscape:connector-curvature="0" />
	<path style="fill:none;stroke:red;stroke-width:1px;stroke-linecap:butt;stroke-linejoin:miter;stroke-opacity:1" d="M 42.3012,139.969 53.7915,155.29 z" id="boundary" inkscape:connector-curvature="0" />
	<path style="fill:none;stroke:red;stroke-width:1px;stroke-linecap:butt;stroke-linejoin:miter;stroke-opacity:1" d="M 26.9807,128.479 13.5753,113.158 z" id="boundary" inkscape:connector-curvature="0" />
	<path style="fill:none;stroke:red;stroke-width:1px;stroke-linecap:butt;stroke-linejoin:miter;stroke-opacity:1" d="M 13.5753,113.158 4,95.9228 z" id="boundary" inkscape:connector-curvature="0" />
	<path style="fill:none;stroke:red;stroke-width:1px;stroke-linecap:butt;stroke-linejoin:miter;stroke-opacity:1" d="M 53.7915,155.29 72.9421,162.95 z" id="boundary" inkscape:connector-curvature="0" />
	<path style="fill:none;stroke:red;stroke-width:1px;stroke-linecap:butt;stroke-linejoin:miter;stroke-opacity:1" d="M 72.9421,162.95 86.3475,178.27 z" id="boundary" inkscape:connector-curvature="0" />
	<path style="fill:none;stroke:red;stroke-width:1px;stroke-linecap:butt;stroke-linejoin:miter;stroke-opacity:1" d="M 86.3475,178.27 99.7529,193.591 z" id="boundary" inkscape:connector-curvature="0" />
	<path style="fill:none;stroke:red;stroke-width:1px;stroke-linecap:butt;stroke-linejoin:miter;stroke-opacity:1" d="M 99.7529,193.591 109.328,210.826 z" id="boundary" inkscape:connector-curvature="0" />
	<path style="fill:none;stroke:red;stroke-width:1px;stroke-linecap:butt;stroke-linejoin:miter;stroke-opacity:1" d="M 109.328,210.826 118.903,228.062 z" id="boundary" inkscape:connector-curvature="0" />
	<path style="fill:none;stroke:red;stroke-width:1px;stroke-linecap:butt;stroke-linejoin:miter;stroke-opacity:1" d="M 118.903,228.062 128.479,245.297 z" id="boundary" inkscape:connector-curvature="0" />
	<path style="fill:none;stroke:red;stroke-width:1px;stroke-linecap:butt;stroke-linejoin:miter;stroke-opacity:1" d="M 128.479,245.297 139.969,260.618 z" id="boundary" inkscape:connector-curvature="0" />
	<path style="fill:none;stroke:red;stroke-width:1px;stroke-linecap:butt;stroke-linejoin:miter;stroke-opacity:1" d="M 139.969,260.618 147.629,279.768 z" id="boundary" inkscape:connector-curvature="0" />
	<path style="fill:none;stroke:red;stroke-width:1px;stroke-linecap:butt;stroke-linejoin:miter;stroke-opacity:1" d="M 147.629,279.768 147.629,298.919 z" id="boundary" inkscape:connector-curvature="0" />
	<path style="fill:none;stroke:red;stroke-width:1px;stroke-linecap:butt;stroke-linejoin:miter;stroke-opacity:1" d="M 147.629,298.919 157.205,316.154 z" id="boundary" inkscape:connector-curvature="0" />
	<path style="fill:none;stroke:red;stroke-width:1px;stroke-linecap:butt;stroke-linejoin:miter;stroke-opacity:1" d="M 4,95.9228 19.3205,80.6023 z" id="boundary" inkscape:connector-curvature="0" />
	<path style="fill:none;stroke:red;stroke-width:1px;stroke-linecap:butt;stroke-linejoin:miter;stroke-opacity:1" d="M 19.3205,80.6023 34.6409,65.2819 z" id="boundary" inkscape:connector-curvature="0" />
	<path style="fill:none;stroke:red;stroke-width:1px;stroke-linecap:butt;stroke-linejoin:miter;stroke-opacity:1" d="M 34.6409,65.2819 53.7915,55.7066 z" id="boundary" inkscape:connector-curvature="0" />
	<path style="fill:none;stroke:red;stroke-width:1px;stroke-linecap:butt;stroke-linejoin:miter;stroke-opacity:1" d="M 53.7915,55.7066 72.9421,46.1313 z" id="boundary" inkscape:connector-curvature="0" />
	<path style="fill:none;stroke:red;stroke-width:1px;stroke-linecap:butt;stroke-linejoin:miter;stroke-opacity:1" d="M 72.9421,46.1313 88.2625,32.7259 z" id="boundary" inkscape:connector-curvature="0" />
	<path style="fill:none;stroke:red;stroke-width:1px;stroke-linecap:butt;stroke-linejoin:miter;stroke-opacity:1" d="M 88.2625,32.7259 105.498,23.1506 z" id="boundary" inkscape:connector-curvature="0" />
	<path style="fill:none;stroke:red;stroke-width:1px;stroke-linecap:butt;stroke-linejoin:miter;stroke-opacity:1" d="M 105.498,23.1506 124.649,13.5753 z" id="boundary" inkscape:connector-curvature="0" />
	<path style="fill:none;stroke:red;stroke-width:1px;stroke-linecap:butt;stroke-linejoin:miter;stroke-opacity:1" d="M 124.649,13.5753 143.799,13.5753 z" id="boundary" inkscape:connector-curvature="0" />
	<path style="fill:none;stroke:red;stroke-width:1px;stroke-linecap:butt;stroke-linejoin:miter;stroke-opacity:1" d="M 143.799,13.5753 161.035,23.1506 z" id="boundary" inkscape:connector-curvature="0" />
	<path style="fill:none;stroke:red;stroke-width:1px;stroke-linecap:butt;stroke-linejoin:miter;stroke-opacity:1" d="M 161.035,23.1506 178.27,13.5753 z" id="boundary" inkscape:connector-curvature="0" />
	<path style="fill:none;stroke:red;stroke-width:1px;stroke-linecap:butt;stroke-linejoin:miter;stroke-opacity:1" d="M 178.27,13.5753 195.506,23.1506 z" id="boundary" inkscape:connector-curvature="0" />
	<path style="fill:none;stroke:red;stroke-width:1px;stroke-linecap:butt;stroke-linejoin:miter;stroke-opacity:1" d="M 195.506,23.1506 214.656,17.4054 z" id="boundary" inkscape:connector-curvature="0" />
	<path style="fill:none;stroke:red;stroke-width:1px;stroke-linecap:butt;stroke-linejoin:miter;stroke-opacity:1" d="M 214.656,17.4054 233.807,13.5753 z" id="boundary" inkscape:connector-curvature="0" />
	<path style="fill:none;stroke:red;stroke-width:1px;stroke-linecap:butt;stroke-linejoin:miter;stroke-opacity:1" d="M 233.807,13.5753 251.042,23.1506 z" id="boundary" inkscape:connector-curvature="0" />
	<path style="fill:none;stroke:red;stroke-width:1px;stroke-linecap:butt;stroke-linejoin:miter;stroke-opacity:1" d="M 251.042,23.1506 268.278,13.5753 z" id="boundary" inkscape:connector-curvature="0" />
	<path style="fill:none;stroke:red;stroke-width:1px;stroke-linecap:butt;stroke-linejoin:miter;stroke-opacity:1" d="M 268.278,13.5753 285.514,23.1506 z" id="boundary" inkscape:connector-curvature="0" />
	<path style="fill:none;stroke:red;stroke-width:1px;stroke-linecap:butt;stroke-linejoin:miter;stroke-opacity:1" d="M 285.514,23.1506 304.664,23.1506 z" id="boundary" inkscape:connector-curvature="0" />
	<path style="fill:none;stroke:red;stroke-width:1px;stroke-linecap:butt;stroke-linejoin:miter;stroke-opacity:1" d="M 304.664,23.1506 321.9,32.7259 z" id="boundary" inkscape:connector-curvature="0" />
	<path style="fill:none;stroke:red;stroke-width:1px;stroke-linecap:butt;stroke-linejoin:miter;stroke-opacity:1" d="M 321.9,32.7259 341.05,26.9807 z" id="boundary" inkscape:connector-curvature="0" />
	<path style="fill:none;stroke:red;stroke-width:1px;stroke-linecap:butt;stroke-linejoin:miter;stroke-opacity:1" d="M 341.05,26.9807 360.201,32.7259 z" id="boundary" inkscape:connector-curvature="0" />
	<path style="fill:none;stroke:red;stroke-width:1px;stroke-linecap:butt;stroke-linejoin:miter;stroke-opacity:1" d="M 360.201,32.7259 379.351,32.7259 z" id="boundary" inkscape:connector-curvature="0" />
	<path style="fill:none;stroke:red;stroke-width:1px;stroke-linecap:butt;stroke-linejoin:miter;stroke-opacity:1" d="M 379.351,32.7259 398.502,38.471 z" id="boundary" inkscape:connector-curvature="0" />
	<path style="fill:none;stroke:red;stroke-width:1px;stroke-linecap:butt;stroke-linejoin:miter;stroke-opacity:1" d="M 398.502,38.471 417.653,42.3012 z" id="boundary" inkscape:connector-curvature="0" />
	<path style="fill:none;stroke:red;stroke-width:1px;stroke-linecap:butt;stroke-linejoin:miter;stroke-opacity:1" d="M 417.653,42.3012 436.803,42.3012 z" id="boundary" inkscape:connector-curvature="0" />
	<path style="fill:none;stroke:red;stroke-width:1px;stroke-linecap:butt;stroke-linejoin:miter;stroke-opacity:1" d="M 436.803,42.3012 454.039,32.7259 z" id="boundary" inkscape:connector-curvature="0" />
	<path style="fill:none;stroke:red;stroke-width:1px;stroke-linecap:butt;stroke-linejoin:miter;stroke-opacity:1" d="M 454.039,32.7259 473.189,36.556 z" id="boundary" inkscape:connector-curvature="0" />
	<path style="fill:none;stroke:red;stroke-width:1px;stroke-linecap:butt;stroke-linejoin:miter;stroke-opacity:1" d="M 473.189,36.556 492.34,32.7259 z" id="boundary" inkscape:connector-curvature="0" />
	<path style="fill:none;stroke:red;stroke-width:1px;stroke-linecap:butt;stroke-linejoin:miter;stroke-opacity:1" d="M 492.34,32.7259 511.49,32.7259 z" id="boundary" inkscape:connector-curvature="0" />
	<path style="fill:none;stroke:red;stroke-width:1px;stroke-linecap:butt;stroke-linejoin:miter;stroke-opacity:1" d="M 511.49,32.7259 530.641,26.9807 z" id="boundary" inkscape:connector-curvature="0" />
	<path style="fill:none;stroke:red;stroke-width:1px;stroke-linecap:butt;stroke-linejoin:miter;stroke-opacity:1" d="M 530.641,26.9807 549.792,23.1506 z" id="boundary" inkscape:connector-curvature="0" />
	<path style="fill:none;stroke:red;stroke-width:1px;stroke-linecap:butt;stroke-linejoin:miter;stroke-opacity:1" d="M 549.792,23.1506 568.942,23.1506 z" id="boundary" inkscape:connector-curvature="0" />
	<path style="fill:none;stroke:red;stroke-width:1px;stroke-linecap:butt;stroke-linejoin:miter;stroke-opacity:1" d="M 568.942,23.1506 586.178,13.5753 z" id="boundary" inkscape:connector-curvature="0" />
	<path style="fill:none;stroke:red;stroke-width:1px;stroke-linecap:butt;stroke-linejoin:miter;stroke-opacity:1" d="M 586.178,13.5753 605.328,13.5753 z" id="boundary" inkscape:connector-curvature="0" />
	<path style="fill:none;stroke:red;stroke-width:1px;stroke-linecap:butt;stroke-linejoin:miter;stroke-opacity:1" d="M 605.328,13.5753 624.479,13.5753 z" id="boundary" inkscape:connector-curvature="0" />
	<path style="fill:none;stroke:red;stroke-width:1px;stroke-linecap:butt;stroke-linejoin:miter;stroke-opacity:1" d="M 624.479,13.5753 641.714,4 z" id="boundary" inkscape:connector-curvature="0" />
	<path style="fill:none;stroke:red;stroke-width:1px;stroke-linecap:butt;stroke-linejoin:miter;stroke-opacity:1" d="M 641.714,4 660.865,4 z" id="boundary" inkscape:connector-curvature="0" />
	<path style="fill:none;stroke:red;stroke-width:1px;stroke-linecap:butt;stroke-linejoin:miter;stroke-opacity:1" d="M 660.865,4 678.1,13.5753 z" id="boundary" inkscape:connector-curvature="0" />
	<path style="fill:none;stroke:red;stroke-width:1px;stroke-linecap:butt;stroke-linejoin:miter;stroke-opacity:1" d="M 678.1,13.5753 697.251,13.5753 z" id="boundary" inkscape:connector-curvature="0" />
	<path style="fill:none;stroke:red;stroke-width:1px;stroke-linecap:butt;stroke-linejoin:miter;stroke-opacity:1" d="M 697.251,13.5753 714.486,23.1506 z" id="boundary" inkscape:connector-curvature="0" />
	<path style="fill:none;stroke:red;stroke-width:1px;stroke-linecap:butt;stroke-linejoin:miter;stroke-opacity:1" d="M 714.486,23.1506 729.807,34.6409 z" id="boundary" inkscape:connector-curvature="0" />
	<path style="fill:none;stroke:red;stroke-width:1px;stroke-linecap:butt;stroke-linejoin:miter;stroke-opacity:1" d="M 729.807,34.6409 748.958,42.3012 z" id="boundary" inkscape:connector-curvature="0" />
	<path style="fill:none;stroke:red;stroke-width:1px;stroke-linecap:butt;stroke-linejoin:miter;stroke-opacity:1" d="M 748.958,42.3012 768.108,42.3012 z" id="boundary" inkscape:connector-curvature="0" />
	<path style="fill:none;stroke:red;stroke-width:1px;stroke-linecap:butt;stroke-linejoin:miter;stroke-opacity:1" d="M 768.108,42.3012 787.259,42.3012 z" id="boundary" inkscape:connector-curvature="0" />
	<path style="fill:none;stroke:red;stroke-width:1px;stroke-linecap:butt;stroke-linejoin:miter;stroke-opacity:1" d="M 787.259,42.3012 804.494,32.7259 z" id="boundary" inkscape:connector-curvature="0" />
	<path style="fill:none;stroke:red;stroke-width:1px;stroke-linecap:butt;stroke-linejoin:miter;stroke-opacity:1" d="M 804.494,32.7259 823.645,32.7259 z" id="boundary" inkscape:connector-curvature="0" />
	<path style="fill:none;stroke:red;stroke-width:1px;stroke-linecap:butt;stroke-linejoin:miter;stroke-opacity:1" d="M 823.645,32.7259 842.795,32.7259 z" id="boundary" inkscape:connector-curvature="0" />
	<path style="fill:none;stroke:red;stroke-width:1px;stroke-linecap:butt;stroke-linejoin:miter;stroke-opacity:1" d="M 842.795,32.7259 860.031,23.1506 z" id="boundary" inkscape:connector-curvature="0" />
	<path style="fill:none;stroke:red;stroke-width:1px;stroke-linecap:butt;stroke-linejoin:miter;stroke-opacity:1" d="M 860.031,23.1506 879.181,23.1506 z" id="boundary" inkscape:connector-curvature="0" />
	<path style="fill:none;stroke:red;stroke-width:1px;stroke-linecap:butt;stroke-linejoin:miter;stroke-opacity:1" d="M 879.181,23.1506 896.417,32.7259 z" id="boundary" inkscape:connector-curvature="0" />
	<path style="fill:none;stroke:red;stroke-width:1px;stroke-linecap:butt;stroke-linejoin:miter;stroke-opacity:1" d="M 896.417,32.7259 905.992,53.7915 z" id="boundary" inkscape:connector-curvature="0" />
	<path style="fill:none;stroke:red;stroke-width:1px;stroke-linecap:butt;stroke-linejoin:miter;stroke-opacity:1" d="M 905.992,53.7915 905.992,72.9421 z" id="boundary" inkscape:connector-curvature="0" />
	<path style="fill:none;stroke:red;stroke-width:1px;stroke-linecap:butt;stroke-linejoin:miter;stroke-opacity:1" d="M 905.992,72.9421 896.417,92.0927 z" id="boundary" inkscape:connector-curvature="0" />
	<path style="fill:none;stroke:red;stroke-width:1px;stroke-linecap:butt;stroke-linejoin:miter;stroke-opacity:1" d="M 896.417,92.0927 886.842,111.243 z" id="boundary" inkscape:connector-curvature="0" />
	<path style="fill:none;stroke:red;stroke-width:1px;stroke-linecap:butt;stroke-linejoin:miter;stroke-opacity:1" d="M 157.205,316.154 147.629,344.88 z" id="boundary" inkscape:connector-curvature="0" />
	<path style="fill:none;stroke:red;stroke-width:1px;stroke-linecap:butt;stroke-linejoin:miter;stroke-opacity:1" d="M 147.629,344.88 147.629,364.031 z" id="boundary" inkscape:connector-curvature="0" />
	<path style="fill:none;stroke:red;stroke-width:1px;stroke-linecap:butt;stroke-linejoin:miter;stroke-opacity:1" d="M 147.629,364.031 147.629,383.181 z" id="boundary" inkscape:connector-curvature="0" />
	<path style="fill:none;stroke:red;stroke-width:1px;stroke-linecap:butt;stroke-linejoin:miter;stroke-opacity:1" d="M 147.629,383.181 147.629,411.907 z" id="boundary" inkscape:connector-curvature="0" />
	<path style="fill:none;stroke:red;stroke-width:1px;stroke-linecap:butt;stroke-linejoin:miter;stroke-opacity:1" d="M 147.629,411.907 138.054,440.633 z" id="boundary" inkscape:connector-curvature="0" />
	<path style="fill:none;stroke:red;stroke-width:1px;stroke-linecap:butt;stroke-linejoin:miter;stroke-opacity:1" d="M 138.054,440.633 128.479,459.784 z" id="boundary" inkscape:connector-curvature="0" />
	<path style="fill:none;stroke:red;stroke-width:1px;stroke-linecap:butt;stroke-linejoin:miter;stroke-opacity:1" d="M 128.479,459.784 124.649,482.764 z" id="boundary" inkscape:connector-curvature="0" />
	<path style="fill:none;stroke:red;stroke-width:1px;stroke-linecap:butt;stroke-linejoin:miter;stroke-opacity:1" d="M 124.649,482.764 115.073,501.915 z" id="boundary" inkscape:connector-curvature="0" />
	<path style="fill:none;stroke:red;stroke-width:1px;stroke-linecap:butt;stroke-linejoin:miter;stroke-opacity:1" d="M 115.073,501.915 105.498,521.066 z" id="boundary" inkscape:connector-curvature="0" />
	<path style="fill:none;stroke:red;stroke-width:1px;stroke-linecap:butt;stroke-linejoin:miter;stroke-opacity:1" d="M 105.498,521.066 95.9228,540.216 z" id="boundary" inkscape:connector-curvature="0" />
	<path style="fill:none;stroke:red;stroke-width:1px;stroke-linecap:butt;stroke-linejoin:miter;stroke-opacity:1" d="M 95.9228,540.216 86.3475,559.367 z" id="boundary" inkscape:connector-curvature="0" />
	<path style="fill:none;stroke:red;stroke-width:1px;stroke-linecap:butt;stroke-linejoin:miter;stroke-opacity:1" d="M 86.3475,559.367 71.027,574.687 z" id="boundary" inkscape:connector-curvature="0" />
	<path style="fill:none;stroke:red;stroke-width:1px;stroke-linecap:butt;stroke-linejoin:miter;stroke-opacity:1" d="M 71.027,574.687 61.4517,593.838 z" id="boundary" inkscape:connector-curvature="0" />
	<path style="fill:none;stroke:red;stroke-width:1px;stroke-linecap:butt;stroke-linejoin:miter;stroke-opacity:1" d="M 61.4517,593.838 51.8764,612.988 z" id="boundary" inkscape:connector-curvature="0" />
	<path style="fill:none;stroke:red;stroke-width:1px;stroke-linecap:butt;stroke-linejoin:miter;stroke-opacity:1" d="M 51.8764,612.988 51.8764,632.139 z" id="boundary" inkscape:connector-curvature="0" />
	<path style="fill:none;stroke:red;stroke-width:1px;stroke-linecap:butt;stroke-linejoin:miter;stroke-opacity:1" d="M 51.8764,632.139 42.3012,651.29 z" id="boundary" inkscape:connector-curvature="0" />
	<path style="fill:none;stroke:red;stroke-width:1px;stroke-linecap:butt;stroke-linejoin:miter;stroke-opacity:1" d="M 42.3012,651.29 42.3012,680.015 z" id="boundary" inkscape:connector-curvature="0" />
	<path style="fill:none;stroke:red;stroke-width:1px;stroke-linecap:butt;stroke-linejoin:miter;stroke-opacity:1" d="M 42.3012,680.015 51.8764,697.251 z" id="boundary" inkscape:connector-curvature="0" />
	<path style="fill:none;stroke:red;stroke-width:1px;stroke-linecap:butt;stroke-linejoin:miter;stroke-opacity:1" d="M 51.8764,697.251 61.4517,714.486 z" id="boundary" inkscape:connector-curvature="0" />
	<path style="fill:none;stroke:red;stroke-width:1px;stroke-linecap:butt;stroke-linejoin:miter;stroke-opacity:1" d="M 61.4517,714.486 71.027,731.722 z" id="boundary" inkscape:connector-curvature="0" />
	<path style="fill:none;stroke:red;stroke-width:1px;stroke-linecap:butt;stroke-linejoin:miter;stroke-opacity:1" d="M 71.027,731.722 82.5174,747.042 z" id="boundary" inkscape:connector-curvature="0" />
	<path style="fill:none;stroke:red;stroke-width:1px;stroke-linecap:butt;stroke-linejoin:miter;stroke-opacity:1" d="M 82.5174,747.042 95.9228,762.363 z" id="boundary" inkscape:connector-curvature="0" />
	<path style="fill:none;stroke:red;stroke-width:1px;stroke-linecap:butt;stroke-linejoin:miter;stroke-opacity:1" d="M 95.9228,762.363 113.158,752.788 z" id="boundary" inkscape:connector-curvature="0" />
	<path style="fill:none;stroke:red;stroke-width:1px;stroke-linecap:butt;stroke-linejoin:miter;stroke-opacity:1" d="M 113.158,752.788 132.309,752.788 z" id="boundary" inkscape:connector-curvature="0" />
	<path style="fill:none;stroke:red;stroke-width:1px;stroke-linecap:butt;stroke-linejoin:miter;stroke-opacity:1" d="M 132.309,752.788 151.459,758.533 z" id="boundary" inkscape:connector-curvature="0" />
	<path style="fill:none;stroke:red;stroke-width:1px;stroke-linecap:butt;stroke-linejoin:miter;stroke-opacity:1" d="M 151.459,758.533 166.78,771.938 z" id="boundary" inkscape:connector-curvature="0" />
	<path style="fill:none;stroke:red;stroke-width:1px;stroke-linecap:butt;stroke-linejoin:miter;stroke-opacity:1" d="M 166.78,771.938 176.355,789.174 z" id="boundary" inkscape:connector-curvature="0" />
	<path style="fill:none;stroke:red;stroke-width:1px;stroke-linecap:butt;stroke-linejoin:miter;stroke-opacity:1" d="M 176.355,789.174 185.931,806.409 z" id="boundary" inkscape:connector-curvature="0" />
	<path style="fill:none;stroke:red;stroke-width:1px;stroke-linecap:butt;stroke-linejoin:miter;stroke-opacity:1" d="M 185.931,806.409 195.506,823.645 z" id="boundary" inkscape:connector-curvature="0" />
	<path style="fill:none;stroke:red;stroke-width:1px;stroke-linecap:butt;stroke-linejoin:miter;stroke-opacity:1" d="M 195.506,823.645 205.081,840.88 z" id="boundary" inkscape:connector-curvature="0" />
	<path style="fill:none;stroke:red;stroke-width:1px;stroke-linecap:butt;stroke-linejoin:miter;stroke-opacity:1" d="M 205.081,840.88 218.486,856.201 z" id="boundary" inkscape:connector-curvature="0" />
	<path style="fill:none;stroke:red;stroke-width:1px;stroke-linecap:butt;stroke-linejoin:miter;stroke-opacity:1" d="M 218.486,856.201 228.062,873.436 z" id="boundary" inkscape:connector-curvature="0" />
	<path style="fill:none;stroke:red;stroke-width:1px;stroke-linecap:butt;stroke-linejoin:miter;stroke-opacity:1" d="M 228.062,873.436 243.382,886.842 z" id="boundary" inkscape:connector-curvature="0" />
	<path style="fill:none;stroke:red;stroke-width:1px;stroke-linecap:butt;stroke-linejoin:miter;stroke-opacity:1" d="M 243.382,886.842 260.618,896.417 z" id="boundary" inkscape:connector-curvature="0" />
	<path style="fill:none;stroke:red;stroke-width:1px;stroke-linecap:butt;stroke-linejoin:miter;stroke-opacity:1" d="M 260.618,896.417 277.853,905.992 z" id="boundary" inkscape:connector-curvature="0" />
	<path style="fill:none;stroke:red;stroke-width:1px;stroke-linecap:butt;stroke-linejoin:miter;stroke-opacity:1" d="M 277.853,905.992 295.089,915.568 z" id="boundary" inkscape:connector-curvature="0" />
	<path style="fill:none;stroke:red;stroke-width:1px;stroke-linecap:butt;stroke-linejoin:miter;stroke-opacity:1" d="M 295.089,915.568 314.239,915.568 z" id="boundary" inkscape:connector-curvature="0" />
	<path style="fill:none;stroke:red;stroke-width:1px;stroke-linecap:butt;stroke-linejoin:miter;stroke-opacity:1" d="M 314.239,915.568 333.39,921.313 z" id="boundary" inkscape:connector-curvature="0" />
	<path style="fill:none;stroke:red;stroke-width:1px;stroke-linecap:butt;stroke-linejoin:miter;stroke-opacity:1" d="M 333.39,921.313 352.541,925.143 z" id="boundary" inkscape:connector-curvature="0" />
	<path style="fill:none;stroke:red;stroke-width:1px;stroke-linecap:butt;stroke-linejoin:miter;stroke-opacity:1" d="M 352.541,925.143 369.776,934.718 z" id="boundary" inkscape:connector-curvature="0" />
	<path style="fill:none;stroke:red;stroke-width:1px;stroke-linecap:butt;stroke-linejoin:miter;stroke-opacity:1" d="M 369.776,934.718 388.927,934.718 z" id="boundary" inkscape:connector-curvature="0" />
	<path style="fill:none;stroke:red;stroke-width:1px;stroke-linecap:butt;stroke-linejoin:miter;stroke-opacity:1" d="M 388.927,934.718 406.162,944.293 z" id="boundary" inkscape:connector-curvature="0" />
	<path style="fill:none;stroke:red;stroke-width:1px;stroke-linecap:butt;stroke-linejoin:miter;stroke-opacity:1" d="M 406.162,944.293 423.398,953.869 z" id="boundary" inkscape:connector-curvature="0" />
	<path style="fill:none;stroke:red;stroke-width:1px;stroke-linecap:butt;stroke-linejoin:miter;stroke-opacity:1" d="M 423.398,953.869 440.633,963.444 z" id="boundary" inkscape:connector-curvature="0" />
	<path style="fill:none;stroke:red;stroke-width:1px;stroke-linecap:butt;stroke-linejoin:miter;stroke-opacity:1" d="M 440.633,963.444 457.869,973.019 z" id="boundary" inkscape:connector-curvature="0" />
	<path style="fill:none;stroke:red;stroke-width:1px;stroke-linecap:butt;stroke-linejoin:miter;stroke-opacity:1" d="M 457.869,973.019 477.019,978.764 z" id="boundary" inkscape:connector-curvature="0" />
	<path style="fill:none;stroke:red;stroke-width:1px;stroke-linecap:butt;stroke-linejoin:miter;stroke-opacity:1" d="M 477.019,978.764 496.17,982.595 z" id="boundary" inkscape:connector-curvature="0" />
	<path style="fill:none;stroke:red;stroke-width:1px;stroke-linecap:butt;stroke-linejoin:miter;stroke-opacity:1" d="M 496.17,982.595 513.405,992.17 z" id="boundary" inkscape:connector-curvature="0" />
	<path style="fill:none;stroke:red;stroke-width:1px;stroke-linecap:butt;stroke-linejoin:miter;stroke-opacity:1" d="M 513.405,992.17 532.556,992.17 z" id="boundary" inkscape:connector-curvature="0" />
	<path style="fill:none;stroke:red;stroke-width:1px;stroke-linecap:butt;stroke-linejoin:miter;stroke-opacity:1" d="M 532.556,992.17 551.707,996 z" id="boundary" inkscape:connector-curvature="0" />
	<path style="fill:none;stroke:red;stroke-width:1px;stroke-linecap:butt;stroke-linejoin:miter;stroke-opacity:1" d="M 551.707,996 570.857,992.17 z" id="boundary" inkscape:connector-curvature="0" />
	<path style="fill:none;stroke:red;stroke-width:1px;stroke-linecap:butt;stroke-linejoin:miter;stroke-opacity:1" d="M 570.857,992.17 590.008,992.17 z" id="boundary" inkscape:connector-curvature="0" />
	<path style="fill:none;stroke:red;stroke-width:1px;stroke-linecap:butt;stroke-linejoin:miter;stroke-opacity:1" d="M 590.008,992.17 609.158,992.17 z" id="boundary" inkscape:connector-curvature="0" />
	<path style="fill:none;stroke:red;stroke-width:1px;stroke-linecap:butt;stroke-linejoin:miter;stroke-opacity:1" d="M 609.158,992.17 628.309,992.17 z" id="boundary" inkscape:connector-curvature="0" />
	<path style="fill:none;stroke:red;stroke-width:1px;stroke-linecap:butt;stroke-linejoin:miter;stroke-opacity:1" d="M 628.309,992.17 647.459,982.595 z" id="boundary" inkscape:connector-curvature="0" />
	<path style="fill:none;stroke:red;stroke-width:1px;stroke-linecap:butt;stroke-linejoin:miter;stroke-opacity:1" d="M 647.459,982.595 666.61,982.595 z" id="boundary" inkscape:connector-curvature="0" />
	<path style="fill:none;stroke:red;stroke-width:1px;stroke-linecap:butt;stroke-linejoin:miter;stroke-opacity:1" d="M 666.61,982.595 683.846,973.019 z" id="boundary" inkscape:connector-curvature="0" />
	<path style="fill:none;stroke:red;stroke-width:1px;stroke-linecap:butt;stroke-linejoin:miter;stroke-opacity:1" d="M 683.846,973.019 702.996,967.274 z" id="boundary" inkscape:connector-curvature="0" />
	<path style="fill:none;stroke:red;stroke-width:1px;stroke-linecap:butt;stroke-linejoin:miter;stroke-opacity:1" d="M 702.996,967.274 722.147,963.444 z" id="boundary" inkscape:connector-curvature="0" />
	<path style="fill:none;stroke:red;stroke-width:1px;stroke-linecap:butt;stroke-linejoin:miter;stroke-opacity:1" d="M 722.147,963.444 739.382,953.869 z" id="boundary" inkscape:connector-curvature="0" />
	<path style="fill:none;stroke:red;stroke-width:1px;stroke-linecap:butt;stroke-linejoin:miter;stroke-opacity:1" d="M 739.382,953.869 756.618,942.378 z" id="boundary" inkscape:connector-curvature="0" />
	<path style="fill:none;stroke:red;stroke-width:1px;stroke-linecap:butt;stroke-linejoin:miter;stroke-opacity:1" d="M 756.618,942.378 775.768,934.718 z" id="boundary" inkscape:connector-curvature="0" />
	<path style="fill:none;stroke:red;stroke-width:1px;stroke-linecap:butt;stroke-linejoin:miter;stroke-opacity:1" d="M 775.768,934.718 793.004,925.143 z" id="boundary" inkscape:connector-curvature="0" />
	<path style="fill:none;stroke:red;stroke-width:1px;stroke-linecap:butt;stroke-linejoin:miter;stroke-opacity:1" d="M 793.004,925.143 810.239,915.568 z" id="boundary" inkscape:connector-curvature="0" />
	<path style="fill:none;stroke:red;stroke-width:1px;stroke-linecap:butt;stroke-linejoin:miter;stroke-opacity:1" d="M 810.239,915.568 829.39,905.992 z" id="boundary" inkscape:connector-curvature="0" />
	<path style="fill:none;stroke:red;stroke-width:1px;stroke-linecap:butt;stroke-linejoin:miter;stroke-opacity:1" d="M 829.39,905.992 848.541,886.842 z" id="boundary" inkscape:connector-curvature="0" />
	<path style="fill:none;stroke:red;stroke-width:1px;stroke-linecap:butt;stroke-linejoin:miter;stroke-opacity:1" d="M 848.541,886.842 867.691,879.181 z" id="boundary" inkscape:connector-curvature="0" />
	<path style="fill:none;stroke:red;stroke-width:1px;stroke-linecap:butt;stroke-linejoin:miter;stroke-opacity:1" d="M 867.691,879.181 865.776,860.031 z" id="boundary" inkscape:connector-curvature="0" />
	<path style="fill:none;stroke:red;stroke-width:1px;stroke-linecap:butt;stroke-linejoin:miter;stroke-opacity:1" d="M 865.776,860.031 850.456,846.625 z" id="boundary" inkscape:connector-curvature="0" />
	<path style="fill:none;stroke:red;stroke-width:1px;stroke-linecap:butt;stroke-linejoin:miter;stroke-opacity:1" d="M 850.456,846.625 833.22,837.05 z" id="boundary" inkscape:connector-curvature="0" />
	<path style="fill:none;stroke:red;stroke-width:1px;stroke-linecap:butt;stroke-linejoin:miter;stroke-opacity:1" d="M 833.22,837.05 815.985,827.475 z" id="boundary" inkscape:connector-curvature="0" />
	<path style="fill:none;stroke:red;stroke-width:1px;stroke-linecap:butt;stroke-linejoin:miter;stroke-opacity:1" d="M 815.985,827.475 798.749,817.9 z" id="boundary" inkscape:connector-curvature="0" />
	<path style="fill:none;stroke:red;stroke-width:1px;stroke-linecap:butt;stroke-linejoin:miter;stroke-opacity:1" d="M 798.749,817.9 779.598,812.154 z" id="boundary" inkscape:connector-curvature="0" />
	<path style="fill:none;stroke:red;stroke-width:1px;stroke-linecap:butt;stroke-linejoin:miter;stroke-opacity:1" d="M 779.598,812.154 760.448,808.324 z" id="boundary" inkscape:connector-curvature="0" />
	<path style="fill:none;stroke:red;stroke-width:1px;stroke-linecap:butt;stroke-linejoin:miter;stroke-opacity:1" d="M 760.448,808.324 743.212,798.749 z" id="boundary" inkscape:connector-curvature="0" />
	<path style="fill:none;stroke:red;stroke-width:1px;stroke-linecap:butt;stroke-linejoin:miter;stroke-opacity:1" d="M 743.212,798.749 725.977,789.174 z" id="boundary" inkscape:connector-curvature="0" />
	<path style="fill:none;stroke:red;stroke-width:1px;stroke-linecap:butt;stroke-linejoin:miter;stroke-opacity:1" d="M 725.977,789.174 706.826,789.174 z" id="boundary" inkscape:connector-curvature="0" />
	<path style="fill:none;stroke:red;stroke-width:1px;stroke-linecap:butt;stroke-linejoin:miter;stroke-opacity:1" d="M 706.826,789.174 689.591,779.598 z" id="boundary" inkscape:connector-curvature="0" />
	<path style="fill:none;stroke:red;stroke-width:1px;stroke-linecap:butt;stroke-linejoin:miter;stroke-opacity:1" d="M 689.591,779.598 670.44,779.598 z" id="boundary" inkscape:connector-curvature="0" />
	<path style="fill:none;stroke:red;stroke-width:1px;stroke-linecap:butt;stroke-linejoin:miter;stroke-opacity:1" d="M 670.44,779.598 653.205,770.023 z" id="boundary" inkscape:connector-curvature="0" />
	<path style="fill:none;stroke:red;stroke-width:1px;stroke-linecap:butt;stroke-linejoin:miter;stroke-opacity:1" d="M 653.205,770.023 634.054,770.023 z" id="boundary" inkscape:connector-curvature="0" />
	<path style="fill:none;stroke:red;stroke-width:1px;stroke-linecap:butt;stroke-linejoin:miter;stroke-opacity:1" d="M 634.054,770.023 616.819,760.448 z" id="boundary" inkscape:connector-curvature="0" />
	<path style="fill:none;stroke:red;stroke-width:1px;stroke-linecap:butt;stroke-linejoin:miter;stroke-opacity:1" d="M 616.819,760.448 597.668,760.448 z" id="boundary" inkscape:connector-curvature="0" />
	<path style="fill:none;stroke:red;stroke-width:1px;stroke-linecap:butt;stroke-linejoin:miter;stroke-opacity:1" d="M 597.668,760.448 580.432,750.873 z" id="boundary" inkscape:connector-curvature="0" />
	<path style="fill:none;stroke:red;stroke-width:1px;stroke-linecap:butt;stroke-linejoin:miter;stroke-opacity:1" d="M 580.432,750.873 570.857,733.637 z" id="boundary" inkscape:connector-curvature="0" />
	<path style="fill:none;stroke:red;stroke-width:1px;stroke-linecap:butt;stroke-linejoin:miter;stroke-opacity:1" d="M 570.857,733.637 580.432,714.486 z" id="boundary" inkscape:connector-curvature="0" />
	<path style="fill:none;stroke:red;stroke-width:1px;stroke-linecap:butt;stroke-linejoin:miter;stroke-opacity:1" d="M 580.432,714.486 590.008,695.336 z" id="boundary" inkscape:connector-curvature="0" />
	<path style="fill:none;stroke:red;stroke-width:1px;stroke-linecap:butt;stroke-linejoin:miter;stroke-opacity:1" d="M 590.008,695.336 599.583,676.185 z" id="boundary" inkscape:connector-curvature="0" />
	<path style="fill:none;stroke:red;stroke-width:1px;stroke-linecap:butt;stroke-linejoin:miter;stroke-opacity:1" d="M 599.583,676.185 618.734,666.61 z" id="boundary" inkscape:connector-curvature="0" />
	<path style="fill:none;stroke:red;stroke-width:1px;stroke-linecap:butt;stroke-linejoin:miter;stroke-opacity:1" d="M 618.734,666.61 635.969,657.035 z" id="boundary" inkscape:connector-curvature="0" />
	<path style="fill:none;stroke:red;stroke-width:1px;stroke-linecap:butt;stroke-linejoin:miter;stroke-opacity:1" d="M 635.969,657.035 653.205,647.459 z" id="boundary" inkscape:connector-curvature="0" />
	<path style="fill:none;stroke:red;stroke-width:1px;stroke-linecap:butt;stroke-linejoin:miter;stroke-opacity:1" d="M 653.205,647.459 672.355,647.459 z" id="boundary" inkscape:connector-curvature="0" />
	<path style="fill:none;stroke:red;stroke-width:1px;stroke-linecap:butt;stroke-linejoin:miter;stroke-opacity:1" d="M 672.355,647.459 691.506,647.459 z" id="boundary" inkscape:connector-curvature="0" />
	<path style="fill:none;stroke:red;stroke-width:1px;stroke-linecap:butt;stroke-linejoin:miter;stroke-opacity:1" d="M 691.506,647.459 710.656,647.459 z" id="boundary" inkscape:connector-curvature="0" />
	<path style="fill:none;stroke:red;stroke-width:1px;stroke-linecap:butt;stroke-linejoin:miter;stroke-opacity:1" d="M 710.656,647.459 727.892,657.035 z" id="boundary" inkscape:connector-curvature="0" />
	<path style="fill:none;stroke:red;stroke-width:1px;stroke-linecap:butt;stroke-linejoin:miter;stroke-opacity:1" d="M 727.892,657.035 747.042,657.035 z" id="boundary" inkscape:connector-curvature="0" />
	<path style="fill:none;stroke:red;stroke-width:1px;stroke-linecap:butt;stroke-linejoin:miter;stroke-opacity:1" d="M 747.042,657.035 766.193,664.695 z" id="boundary" inkscape:connector-curvature="0" />
	<path style="fill:none;stroke:red;stroke-width:1px;stroke-linecap:butt;stroke-linejoin:miter;stroke-opacity:1" d="M 766.193,664.695 783.429,674.27 z" id="boundary" inkscape:connector-curvature="0" />
	<path style="fill:none;stroke:red;stroke-width:1px;stroke-linecap:butt;stroke-linejoin:miter;stroke-opacity:1" d="M 783.429,674.27 802.579,676.185 z" id="boundary" inkscape:connector-curvature="0" />
	<path style="fill:none;stroke:red;stroke-width:1px;stroke-linecap:butt;stroke-linejoin:miter;stroke-opacity:1" d="M 802.579,676.185 819.815,685.761 z" id="boundary" inkscape:connector-curvature="0" />
	<path style="fill:none;stroke:red;stroke-width:1px;stroke-linecap:butt;stroke-linejoin:miter;stroke-opacity:1" d="M 819.815,685.761 838.965,689.591 z" id="boundary" inkscape:connector-curvature="0" />
	<path style="fill:none;stroke:red;stroke-width:1px;stroke-linecap:butt;stroke-linejoin:miter;stroke-opacity:1" d="M 838.965,689.591 858.116,695.336 z" id="boundary" inkscape:connector-curvature="0" />
	<path style="fill:none;stroke:red;stroke-width:1px;stroke-linecap:butt;stroke-linejoin:miter;stroke-opacity:1" d="M 858.116,695.336 877.266,695.336 z" id="boundary" inkscape:connector-curvature="0" />
	<path style="fill:none;stroke:red;stroke-width:1px;stroke-linecap:butt;stroke-linejoin:miter;stroke-opacity:1" d="M 877.266,695.336 896.417,685.761 z" id="boundary" inkscape:connector-curvature="0" />
	<path style="fill:none;stroke:red;stroke-width:1px;stroke-linecap:butt;stroke-linejoin:miter;stroke-opacity:1" d="M 896.417,685.761 911.737,672.355 z" id="boundary" inkscape:connector-curvature="0" />
	<path style="fill:none;stroke:red;stroke-width:1px;stroke-linecap:butt;stroke-linejoin:miter;stroke-opacity:1" d="M 911.737,672.355 921.313,653.205 z" id="boundary" inkscape:connector-curvature="0" />
	<path style="fill:none;stroke:red;stroke-width:1px;stroke-linecap:butt;stroke-linejoin:miter;stroke-opacity:1" d="M 921.313,653.205 925.143,628.309 z" id="boundary" inkscape:connector-curvature="0" />
	<path style="fill:none;stroke:red;stroke-width:1px;stroke-linecap:butt;stroke-linejoin:miter;stroke-opacity:1" d="M 925.143,628.309 925.143,609.158 z" id="boundary" inkscape:connector-curvature="0" />
	<path style="fill:none;stroke:red;stroke-width:1px;stroke-linecap:butt;stroke-linejoin:miter;stroke-opacity:1" d="M 925.143,609.158 925.143,582.347 z" id="boundary" inkscape:connector-curvature="0" />
	<path style="fill:none;stroke:red;stroke-width:1px;stroke-linecap:butt;stroke-linejoin:miter;stroke-opacity:1" d="M 925.143,582.347 925.143,563.197 z" id="boundary" inkscape:connector-curvature="0" />
	<path style="fill:none;stroke:red;stroke-width:1px;stroke-linecap:butt;stroke-linejoin:miter;stroke-opacity:1" d="M 925.143,563.197 915.568,545.961 z" id="boundary" inkscape:connector-curvature="0" />
	<path style="fill:none;stroke:red;stroke-width:1px;stroke-linecap:butt;stroke-linejoin:miter;stroke-opacity:1" d="M 915.568,545.961 905.992,528.726 z" id="boundary" inkscape:connector-curvature="0" />
	<path style="fill:none;stroke:red;stroke-width:1px;stroke-linecap:butt;stroke-linejoin:miter;stroke-opacity:1" d="M 905.992,528.726 892.587,513.405 z" id="boundary" inkscape:connector-curvature="0" />
	<path style="fill:none;stroke:red;stroke-width:1px;stroke-linecap:butt;stroke-linejoin:miter;stroke-opacity:1" d="M 892.587,513.405 877.266,501.915 z" id="boundary" inkscape:connector-curvature="0" />
	<path style="fill:none;stroke:red;stroke-width:1px;stroke-linecap:butt;stroke-linejoin:miter;stroke-opacity:1" d="M 877.266,501.915 865.776,486.595 z" id="boundary" inkscape:connector-curvature="0" />
	<path style="fill:none;stroke:red;stroke-width:1px;stroke-linecap:butt;stroke-linejoin:miter;stroke-opacity:1" d="M 865.776,486.595 850.456,473.189 z" id="boundary" inkscape:connector-curvature="0" />
	<path style="fill:none;stroke:red;stroke-width:1px;stroke-linecap:butt;stroke-linejoin:miter;stroke-opacity:1" d="M 850.456,473.189 838.965,457.869 z" id="boundary" inkscape:connector-curvature="0" />
	<path style="fill:none;stroke:red;stroke-width:1px;stroke-linecap:butt;stroke-linejoin:miter;stroke-opacity:1" d="M 838.965,457.869 829.39,440.633 z" id="boundary" inkscape:connector-curvature="0" />
	<path style="fill:none;stroke:red;stroke-width:1px;stroke-linecap:butt;stroke-linejoin:miter;stroke-opacity:1" d="M 829.39,440.633 819.815,423.398 z" id="boundary" inkscape:connector-curvature="0" />
	<path style="fill:none;stroke:red;stroke-width:1px;stroke-linecap:butt;stroke-linejoin:miter;stroke-opacity:1" d="M 819.815,423.398 810.239,406.162 z" id="boundary" inkscape:connector-curvature="0" />
	<path style="fill:none;stroke:red;stroke-width:1px;stroke-linecap:butt;stroke-linejoin:miter;stroke-opacity:1" d="M 810.239,406.162 810.239,387.012 z" id="boundary" inkscape:connector-curvature="0" />
	<path style="fill:none;stroke:red;stroke-width:1px;stroke-linecap:butt;stroke-linejoin:miter;stroke-opacity:1" d="M 810.239,387.012 800.664,369.776 z" id="boundary" inkscape:connector-curvature="0" />
	<path style="fill:none;stroke:red;stroke-width:1px;stroke-linecap:butt;stroke-linejoin:miter;stroke-opacity:1" d="M 800.664,369.776 819.815,360.201 z" id="boundary" inkscape:connector-curvature="0" />
	<path style="fill:none;stroke:red;stroke-width:1px;stroke-linecap:butt;stroke-linejoin:miter;stroke-opacity:1" d="M 819.815,360.201 838.965,350.625 z" id="boundary" inkscape:connector-curvature="0" />
	<path style="fill:none;stroke:red;stroke-width:1px;stroke-linecap:butt;stroke-linejoin:miter;stroke-opacity:1" d="M 838.965,350.625 856.201,341.05 z" id="boundary" inkscape:connector-curvature="0" />
	<path style="fill:none;stroke:red;stroke-width:1px;stroke-linecap:butt;stroke-linejoin:miter;stroke-opacity:1" d="M 856.201,341.05 873.436,331.475 z" id="boundary" inkscape:connector-curvature="0" />
	<path style="fill:none;stroke:red;stroke-width:1px;stroke-linecap:butt;stroke-linejoin:miter;stroke-opacity:1" d="M 873.436,331.475 890.672,319.985 z" id="boundary" inkscape:connector-curvature="0" />
	<path style="fill:none;stroke:red;stroke-width:1px;stroke-linecap:butt;stroke-linejoin:miter;stroke-opacity:1" d="M 890.672,319.985 905.992,302.749 z" id="boundary" inkscape:connector-curvature="0" />
	<path style="fill:none;stroke:red;stroke-width:1px;stroke-linecap:butt;stroke-linejoin:miter;stroke-opacity:1" d="M 905.992,302.749 915.568,283.598 z" id="boundary" inkscape:connector-curvature="0" />
	<path style="fill:none;stroke:red;stroke-width:1px;stroke-linecap:butt;stroke-linejoin:miter;stroke-opacity:1" d="M 915.568,283.598 925.143,254.873 z" id="boundary" inkscape:connector-curvature="0" />
	<path style="fill:none;stroke:red;stroke-width:1px;stroke-linecap:butt;stroke-linejoin:miter;stroke-opacity:1" d="M 925.143,254.873 923.228,229.977 z" id="boundary" inkscape:connector-curvature="0" />
	<path style="fill:none;stroke:red;stroke-width:1px;stroke-linecap:butt;stroke-linejoin:miter;stroke-opacity:1" d="M 923.228,229.977 915.568,210.826 z" id="boundary" inkscape:connector-curvature="0" />
	<path style="fill:none;stroke:red;stroke-width:1px;stroke-linecap:butt;stroke-linejoin:miter;stroke-opacity:1" d="M 915.568,210.826 900.247,197.421 z" id="boundary" inkscape:connector-curvature="0" />
	<path style="fill:none;stroke:red;stroke-width:1px;stroke-linecap:butt;stroke-linejoin:miter;stroke-opacity:1" d="M 900.247,197.421 884.927,185.931 z" id="boundary" inkscape:connector-curvature="0" />
	<path style="fill:none;stroke:red;stroke-width:1px;stroke-linecap:butt;stroke-linejoin:miter;stroke-opacity:1" d="M 884.927,185.931 867.691,176.355 z" id="boundary" inkscape:connector-curvature="0" />
	<path style="fill:none;stroke:red;stroke-width:1px;stroke-linecap:butt;stroke-linejoin:miter;stroke-opacity:1" d="M 867.691,176.355 858.116,159.12 z" id="boundary" inkscape:connector-curvature="0" />
	<path style="fill:none;stroke:red;stroke-width:1px;stroke-linecap:butt;stroke-linejoin:miter;stroke-opacity:1" d="M 858.116,159.12 877.266,139.969 z" id="boundary" inkscape:connector-curvature="0" />
	<path style="fill:none;stroke:red;stroke-width:1px;stroke-linecap:butt;stroke-linejoin:miter;stroke-opacity:1" d="M 886.842,111.243 877.266,139.969 z" id="boundary" inkscape:connector-curvature="0" />
	<circle cx="4" cy="95.9228" r="4" fill="#0" id="circle0"/>
	<circle cx="13.5753" cy="113.158" r="4" fill="#0" id="circle1"/>
	<circle cx="19.3205" cy="80.6023" r="4" fill="#0" id="circle2"/>
	<circle cx="26.9807" cy="128.479" r="4" fill="#0" id="circle3"/>
	<circle cx="34.6409" cy="65.2819" r="4" fill="#0" id="circle4"/>
	<circle cx="42.3012" cy="139.969" r="4" fill="#0" id="circle5"/>
	<circle cx="42.3012" cy="651.29" r="4" fill="#0" id="circle6"/>
	<circle cx="42.3012" cy="680.015" r="4" fill="#0" id="circle7"/>
	<circle cx="51.8764" cy="612.988" r="4" fill="#0" id="circle8"/>
	<circle cx="51.8764" cy="632.139" r="4" fill="#0" id="circle9"/>
	<circle cx="51.8764" cy="697.251" r="4" fill="#0" id="circle10"/>
	<circle cx="53.7915" cy="55.7066" r="4" fill="#0" id="circle11"/>
	<circle cx="53.7915" cy="155.29" r="4" fill="#0" id="circle12"/>
	<circle cx="61.4517" cy="593.838" r="4" fill="#0" id="circle13"/>
	<circle cx="61.4517" cy="714.486" r="4" fill="#0" id="circle14"/>
	<circle cx="71.027" cy="574.687" r="4" fill="#0" id="circle15"/>
	<circle cx="71.027" cy="731.722" r="4" fill="#0" id="circle16"/>
	<circle cx="72.9421" cy="46.1313" r="4" fill="#0" id="circle17"/>
	<circle cx="72.9421" cy="162.95" r="4" fill="#0" id="circle18"/>
	<circle cx="82.5174" cy="747.042" r="4" fill="#0" id="circle19"/>
	<circle cx="86.3475" cy="178.27" r="4" fill="#0" id="circle20"/>
	<circle cx="86.3475" cy="559.367" r="4" fill="#0" id="circle21"/>
	<circle cx="88.2625" cy="32.7259" r="4" fill="#0" id="circle22"/>
	<circle cx="95.9228" cy="540.216" r="4" fill="#0" id="circle23"/>
	<circle cx="95.9228" cy="762.363" r="4" fill="#0" id="circle24"/>
	<circle cx="99.7529" cy="193.591" r="4" fill="#0" id="circle25"/>
	<circle cx="105.498" cy="23.1506" r="4" fill="#0" id="circle26"/>
	<circle cx="105.498" cy="521.066" r="4" fill="#0" id="circle27"/>
	<circle cx="109.328" cy="210.826" r="4" fill="#0" id="circle28"/>
	<circle cx="113.158" cy="752.788" r="4" fill="#0" id="circle29"/>
	<circle cx="115.073" cy="501.915" r="4" fill="#0" id="circle30"/>
	<circle cx="118.903" cy="228.062" r="4" fill="#0" id="circle31"/>
	<circle cx="124.649" cy="13.5753" r="4" fill="#0" id="circle32"/>
	<circle cx="124.649" cy="482.764" r="4" fill="#0" id="circle33"/>
	<circle cx="128.479" cy="245.297" r="4" fill="#0" id="circle34"/>
	<circle cx="128.479" cy="459.784" r="4" fill="#0" id="circle35"/>
	<circle cx="132.309" cy="752.788" r="4" fill="#0" id="circle36"/>
	<circle cx="138.054" cy="440.633" r="4" fill="#0" id="circle37"/>
	<circle cx="139.969" cy="260.618" r="4" fill="#0" id="circle38"/>
	<circle cx="143.799" cy="13.5753" r="4" fill="#0" id="circle39"/>
	<circle cx="147.629" cy="279.768" r="4" fill="#0" id="circle40"/>
	<circle cx="147.629" cy="298.919" r="4" fill="#0" id="circle41"/>
	<circle cx="147.629" cy="344.88" r="4" fill="#0" id="circle42"/>
	<circle cx="147.629" cy="364.031" r="4" fill="#0" id="circle43"/>
	<circle cx="147.629" cy="383.181" r="4" fill="#0" id="circle44"/>
	<circle cx="147.629" cy="411.907" r="4" fill="#0" id="circle45"/>
	<circle cx="151.459" cy="758.533" r="4" fill="#0" id="circle46"/>
	<circle cx="157.205" cy="316.154" r="4" fill="#0" id="circle47"/>
	<circle cx="161.035" cy="23.1506" r="4" fill="#0" id="circle48"/>
	<circle cx="166.78" cy="771.938" r="4" fill="#0" id="circle49"/>
	<circle cx="176.355" cy="789.174" r="4" fill="#0" id="circle50"/>
	<circle cx="178.27" cy="13.5753" r="4" fill="#0" id="circle51"/>
	<circle cx="185.931" cy="806.409" r="4" fill="#0" id="circle52"/>
	<circle cx="195.506" cy="23.1506" r="4" fill="#0" id="circle53"/>
	<circle cx="195.506" cy="823.645" r="4" fill="#0" id="circle54"/>
	<circle cx="205.081" cy="840.88" r="4" fill="#0" id="circle55"/>
	<circle cx="214.656" cy="17.4054" r="4" fill="#0" id="circle56"/>
	<circle cx="218.486" cy="856.201" r="4" fill="#0" id="circle57"/>
	<circle cx="228.062" cy="873.436" r="4" fill="#0" id="circle58"/>
	<circle cx="233.807" cy="13.5753" r="4" fill="#0" id="circle59"/>
	<circle cx="243.382" cy="886.842" r="4" fill="#0" id="circle60"/>
	<circle cx="251.042" cy="23.1506" r="4" fill="#0" id="circle61"/>
	<circle cx="260.618" cy="896.417" r="4" fill="#0" id="circle62"/>
	<circle cx="268.278" cy="13.5753" r="4" fill="#0" id="circle63"/>
	<circle cx="277.853" cy="905.992" r="4" fill="#0" id="circle64"/>
	<circle cx="285.514" cy="23.1506" r="4" fill="#0" id="circle65"/>
	<circle cx="295.089" cy="915.568" r="4" fill="#0" id="circle66"/>
	<circle cx="304.664" cy="23.1506" r="4" fill="#0" id="circle67"/>
	<circle cx="314.239" cy="915.568" r="4" fill="#0" id="circle68"/>
	<circle cx="321.9" cy="32.7259" r="4" fill="#0" id="circle69"/>
	<circle cx="333.39" cy="921.313" r="4" fill="#0" id="circle70"/>
	<circle cx="341.05" cy="26.9807" r="4" fill="#0" id="circle71"/>
	<circle cx="352.541" cy="925.143" r="4" fill="#0" id="circle72"/>
	<circle cx="360.201" cy="32.7259" r="4" fill="#0" id="circle73"/>
	<circle cx="369.776" cy="934.718" r="4" fill="#0" id="circle74"/>
	<circle cx="379.351" cy="32.7259" r="4" fill="#0" id="circle75"/>
	<circle cx="388.927" cy="934.718" r="4" fill="#0" id="circle76"/>
	<circle cx="398.502" cy="38.471" r="4" fill="#0" id="circle77"/>
	<circle cx="406.162" cy="944.293" r="4" fill="#0" id="circle78"/>
	<circle cx="417.653" cy="42.3012" r="4" fill="#0" id="circle79"/>
	<circle cx="423.398" cy="953.869" r="4" fill="#0" id="circle80"/>
	<circle cx="436.803" cy="42.3012" r="4" fill="#0" id="circle81"/>
	<circle cx="440.633" cy="963.444" r="4" fill="#0" id="circle82"/>
	<circle cx="454.039" cy="32.7259" r="4" fill="#0" id="circle83"/>
	<circle cx="457.869" cy="973.019" r="4" fill="#0" id="circle84"/>
	<circle cx="473.189" cy="36.556" r="4" fill="#0" id="circle85"/>
	<circle cx="477.019" cy="978.764" r="4" fill="#0" id="circle86"/>
	<circle cx="492.34" cy="32.7259" r="4" fill="#0" id="circle87"/>
	<circle cx="496.17" cy="982.595" r="4" fill="#0" id="circle88"/>
	<circle cx="511.49" cy="32.7259" r="4" fill="#0" id="circle89"/>
	<circle cx="513.405" cy="992.17" r="4" fill="#0" id="circle90"/>
	<circle cx="530.641" cy="26.9807" r="4" fill="#0" id="circle91"/>
	<circle cx="532.556" cy="992.17" r="4" fill="#0" id="circle92"/>
	<circle cx="549.792" cy="23.1506" r="4" fill="#0" id="circle93"/>
	<circle cx="551.707" cy="996" r="4" fill="#0" id="circle94"/>
	<circle cx="568.942" cy="23.1506" r="4" fill="#0" id="circle95"/>
	<circle cx="570.857" cy="733.637" r="4" fill="#0" id="circle96"/>
	<circle cx="570.857" cy="992.17" r="4" fill="#0" id="circle97"/>
	<circle cx="580.432" cy="714.486" r="4" fill="#0" id="circle98"/>
	<circle cx="580.432" cy="750.873" r="4" fill="#0" id="circle99"/>
	<circle cx="586.178" cy="13.5753" r="4" fill="#0" id="circle100"/>
	<circle cx="590.008" cy="695.336" r="4" fill="#0" id="circle101"/>
	<circle cx="590.008" cy="992.17" r="4" fill="#0" id="circle102"/>
	<circle cx="597.668" cy="760.448" r="4" fill="#0" id="circle103"/>
	<circle cx="599.583" cy="676.185" r="4" fill="#0" id="circle104"/>
	<circle cx="605.328" cy="13.5753" r="4" fill="#0" id="circle105"/>
	<circle cx="609.158" cy="992.17" r="4" fill="#0" id="circle106"/>
	<circle cx="616.819" cy="760.448" r="4" fill="#0" id="circle107"/>
	<circle cx="618.734" cy="666.61" r="4" fill="#0" id="circle108"/>
	<circle cx="624.479" cy="13.5753" r="4" fill="#0" id="circle109"/>
	<circle cx="628.309" cy="992.17" r="4" fill="#0" id="circle110"/>
	<circle cx="634.054" cy="770.023" r="4" fill="#0" id="circle111"/>
	<circle cx="635.969" cy="657.035" r="4" fill="#0" id="circle112"/>
	<circle cx="641.714" cy="4" r="4" fill="#0" id="circle113"/>
	<circle cx="647.459" cy="982.595" r="4" fill="#0" id="circle114"/>
	<circle cx="653.205" cy="647.459" r="4" fill="#0" id="circle115"/>
	<circle cx="653.205" cy="770.023" r="4" fill="#0" id="circle116"/>
	<circle cx="660.865" cy="4" r="4" fill="#0" id="circle117"/>
	<circle cx="666.61" cy="982.595" r="4" fill="#0" id="circle118"/>
	<circle cx="670.44" cy="779.598" r="4" fill="#0" id="circle119"/>
	<circle cx="672.355" cy="647.459" r="4" fill="#0" id="circle120"/>
	<circle cx="678.1" cy="13.5753" r="4" fill="#0" id="circle121"/>
	<circle cx="683.846" cy="973.019" r="4" fill="#0" id="circle122"/>
	<circle cx="689.591" cy="779.598" r="4" fill="#0" id="circle123"/>
	<circle cx="691.506" cy="647.459" r="4" fill="#0" id="circle124"/>
	<circle cx="697.251" cy="13.5753" r="4" fill="#0" id="circle125"/>
	<circle cx="702.996" cy="967.274" r="4" fill="#0" id="circle126"/>
	<circle cx="706.826" cy="789.174" r="4" fill="#0" id="circle127"/>
	<circle cx="710.656" cy="647.459" r="4" fill="#0" id="circle128"/>
	<circle cx="714.486" cy="23.1506" r="4" fill="#0" id="circle129"/>
	<circle cx="722.147" cy="963.444" r="4" fill="#0" id="circle130"/>
	<circle cx="725.977" cy="789.174" r="4" fill="#0" id="circle131"/>
	<circle cx="727.892" cy="657.035" r="4" fill="#0" id="circle132"/>
	<circle cx="729.807" cy="34.6409" r="4" fill="#0" id="circle133"/>
	<circle cx="739.382" cy="953.869" r="4" fill="#0" id="circle134"/>
	<circle cx="743.212" cy="798.749" r="4" fill="#0" id="circle135"/>
	<circle cx="747.042" cy="657.035" r="4" fill="#0" id="circle136"/>
	<circle cx="748.958" cy="42.3012" r="4" fill="#0" id="circle137"/>
	<circle cx="756.618" cy="942.378" r="4" fill="#0" id="circle138"/>
	<circle cx="760.448" cy="808.324" r="4" fill="#0" id="circle139"/>
	<circle cx="766.193" cy="664.695" r="4" fill="#0" id="circle140"/>
	<circle cx="768.108" cy="42.3012" r="4" fill="#0" id="circle141"/>
	<circle cx="775.768" cy="934.718" r="4" fill="#0" id="circle142"/>
	<circle cx="779.598" cy="812.154" r="4" fill="#0" id="circle143"/>
	<circle cx="783.429" cy="674.27" r="4" fill="#0" id="circle144"/>
	<circle cx="787.259" cy="42.3012" r="4" fill="#0" id="circle145"/>
	<circle cx="793.004" cy="925.143" r="4" fill="#0" id="circle146"/>
	<circle cx="798.749" cy="817.9" r="4" fill="#0" id="circle147"/>
	<circle cx="800.664" cy="369.776" r="4" fill="#0" id="circle148"/>
	<circle cx="802.579" cy="676.185" r="4" fill="#0" id="circle149"/>
	<circle cx="804.494" cy="32.7259" r="4" fill="#0" id="circle150"/>
	<circle cx="810.239" cy="387.012" r="4" fill="#0" id="circle151"/>
	<circle cx="810.239" cy="406.162" r="4" fill="#0" id="circle152"/>
	<circle cx="810.239" cy="915.568" r="4" fill="#0" id="circle153"/>
	<circle cx="815.985" cy="827.475" r="4" fill="#0" id="circle154"/>
	<circle cx="819.815" cy="360.201" r="4" fill="#0" id="circle155"/>
	<circle cx="819.815" cy="423.398" r="4" fill="#0" id="circle156"/>
	<circle cx="819.815" cy="685.761" r="4" fill="#0" id="circle157"/>
	<circle cx="823.645" cy="32.7259" r="4" fill="#0" id="circle158"/>
	<circle cx="829.39" cy="440.633" r="4" fill="#0" id="circle159"/>
	<circle cx="829.39" cy="905.992" r="4" fill="#0" id="circle160"/>
	<circle cx="833.22" cy="837.05" r="4" fill="#0" id="circle161"/>
	<circle cx="838.965" cy="350.625" r="4" fill="#0" id="circle162"/>
	<circle cx="838.965" cy="457.869" r="4" fill="#0" id="circle163"/>
	<circle cx="838.965" cy="689.591" r="4" fill="#0" id="circle164"/>
	<circle cx="842.795" cy="32.7259" r="4" fill="#0" id="circle165"/>
	<circle cx="848.541" cy="886.842" r="4" fill="#0" id="circle166"/>
	<circle cx="850.456" cy="473.189" r="4" fill="#0" id="circle167"/>
	<circle cx="850.456" cy="846.625" r="4" fill="#0" id="circle168"/>
	<circle cx="856.201" cy="341.05" r="4" fill="#0" id="circle169"/>
	<circle cx="858.116" cy="159.12" r="4" fill="#0" id="circle170"/>
	<circle cx="858.116" cy="695.336" r="4" fill="#0" id="circle171"/>
	<circle cx="860.031" cy="23.1506" r="4" fill="#0" id="circle172"/>
	<circle cx="865.776" cy="486.595" r="4" fill="#0" id="circle173"/>
	<circle cx="865.776" cy="860.031" r="4" fill="#0" id="circle174"/>
	<circle cx="867.691" cy="176.355" r="4" fill="#0" id="circle175"/>
	<circle cx="867.691" cy="879.181" r="4" fill="#0" id="circle176"/>
	<circle cx="873.436" cy="331.475" r="4" fill="#0" id="circle177"/>
	<circle cx="877.266" cy="139.969" r="4" fill="#0" id="circle178"/>
	<circle cx="877.266" cy="501.915" r="4" fill="#0" id="circle179"/>
	<circle cx="877.266" cy="695.336" r="4" fill="#0" id="circle180"/>
	<circle cx="879.181" cy="23.1506" r="4" fill="#0" id="circle181"/>
	<circle cx="884.927" cy="185.931" r="4" fill="#0" id="circle182"/>
	<circle cx="886.842" cy="111.243" r="4" fill="#0" id="circle183"/>
	<circle cx="890.672" cy="319.985" r="4" fill="#0" id="circle184"/>
	<circle cx="892.587" cy="513.405" r="4" fill="#0" id="circle185"/>
	<circle cx="896.417" cy="32.7259" r="4" fill="#0" id="circle186"/>
	<circle cx="896.417" cy="92.0927" r="4" fill="#0" id="circle187"/>
	<circle cx="896.417" cy="685.761" r="4" fill="#0" id="circle188"/>
	<circle cx="900.247" cy="197.421" r="4" fill="#0" id="circle189"/>
	<circle cx="905.992" cy="53.7915" r="4" fill="#0" id="circle190"/>
	<circle cx="905.992" cy="72.9421" r="4" fill="#0" id="circle191"/>
	<circle cx="905.992" cy="302.749" r="4" fill="#0" id="circle192"/>
	<circle cx="905.992" cy="528.726" r="4" fill="#0" id="circle193"/>
	<circle cx="911.737" cy="672.355" r="4" fill="#0" id="circle194"/>
	<circle cx="915.568" cy="210.826" r="4" fill="#0" id="circle195"/>
	<circle cx="915.568" cy="283.598" r="4" fill="#0" id="circle196"/>
	<circle cx="915.568" cy="545.961" r="4" fill="#0" id="circle197"/>
	<circle cx="921.313" cy="653.205" r="4" fill="#0" id="circle198"/>
	<circle cx="923.228" cy="229.977" r="4" fill="#0" id="circle199"/>
	<circle cx="925.143" cy="254.873" r="4" fill="#0" id="circle200"/>
	<circle cx="925.143" cy="563.197" r="4" fill="#0" id="circle201"/>
	<circle cx="925.143" cy="582.347" r="4" fill="#0" id="circle202"/>
	<circle cx="925.143" cy="609.158" r="4" fill="#0" id="circle203"/>
	<circle cx="925.143" cy="628.309" r="4" fill="#0" id="circle204"/>
	</g>
</svg>