<?xml version="1.0" encoding="UTF-8" standalone="no"?>
<!-- Created with CurveBenchmark -->
<svg
	xmlns:dc="http://purl.org/dc/elements/1.1/"
	xmlns:cc="http://creativecommons.org/ns#"
	xmlns:rdf="http://www.w3.org/1999/02/22-rdf-syntax-ns#"
	xmlns:svg="http://www.w3.org/2000/svg"
	xmlns="http://www.w3.org/2000/svg"
	xmlns:sodipodi="http://sodipodi.sourceforge.net/DTD/sodipodi-0.dtd"
	xmlns:inkscape="http://www.inkscape.org/namespaces/inkscape"
	width="1000"
	height="1000"
	id="svg2"
	version="1.1"
	sodipodi:docname="manifold/crawl-apple-8.png.txt">
<defs
	id="defs4" />
<metadata
	id="metadata7">
	<rdf:RDF>
		<cc:Work
			rdf:about="">
			<dc:format>image/svg+xml</dc:format>
			<dc:type
				rdf:resource="http://purl.org/dc/dcmitype/StillImage" />
			<dc:title></dc:title>
		</cc:Work>
	</rdf:RDF>
</metadata>
<g
	inkscape:label="Layer 1"
	inkscape:groupmode="layer"
	id="layer1">
	<path style="fill:none;stroke:red;stroke-width:1px;stroke-linecap:butt;stroke-linejoin:miter;stroke-opacity:1" d="M 8.52555,477.372 8.52555,468.321 z" id="boundary" inkscape:connector-curvature="0" />
	<path style="fill:none;stroke:red;stroke-width:1px;stroke-linecap:butt;stroke-linejoin:miter;stroke-opacity:1" d="M 8.52555,468.321 8.52555,459.27 z" id="boundary" inkscape:connector-curvature="0" />
	<path style="fill:none;stroke:red;stroke-width:1px;stroke-linecap:butt;stroke-linejoin:miter;stroke-opacity:1" d="M 8.52555,477.372 4,486.423 z" id="boundary" inkscape:connector-curvature="0" />
	<path style="fill:none;stroke:red;stroke-width:1px;stroke-linecap:butt;stroke-linejoin:miter;stroke-opacity:1" d="M 4,486.423 4,495.474 z" id="boundary" inkscape:connector-curvature="0" />
	<path style="fill:none;stroke:red;stroke-width:1px;stroke-linecap:butt;stroke-linejoin:miter;stroke-opacity:1" d="M 4,495.474 4,504.526 z" id="boundary" inkscape:connector-curvature="0" />
	<path style="fill:none;stroke:red;stroke-width:1px;stroke-linecap:butt;stroke-linejoin:miter;stroke-opacity:1" d="M 4,504.526 4,513.577 z" id="boundary" inkscape:connector-curvature="0" />
	<path style="fill:none;stroke:red;stroke-width:1px;stroke-linecap:butt;stroke-linejoin:miter;stroke-opacity:1" d="M 4,513.577 4,522.628 z" id="boundary" inkscape:connector-curvature="0" />
	<path style="fill:none;stroke:red;stroke-width:1px;stroke-linecap:butt;stroke-linejoin:miter;stroke-opacity:1" d="M 4,522.628 4,531.679 z" id="boundary" inkscape:connector-curvature="0" />
	<path style="fill:none;stroke:red;stroke-width:1px;stroke-linecap:butt;stroke-linejoin:miter;stroke-opacity:1" d="M 4,531.679 4,540.73 z" id="boundary" inkscape:connector-curvature="0" />
	<path style="fill:none;stroke:red;stroke-width:1px;stroke-linecap:butt;stroke-linejoin:miter;stroke-opacity:1" d="M 4,540.73 4,549.781 z" id="boundary" inkscape:connector-curvature="0" />
	<path style="fill:none;stroke:red;stroke-width:1px;stroke-linecap:butt;stroke-linejoin:miter;stroke-opacity:1" d="M 4,549.781 4,558.832 z" id="boundary" inkscape:connector-curvature="0" />
	<path style="fill:none;stroke:red;stroke-width:1px;stroke-linecap:butt;stroke-linejoin:miter;stroke-opacity:1" d="M 4,558.832 8.52555,566.978 z" id="boundary" inkscape:connector-curvature="0" />
	<path style="fill:none;stroke:red;stroke-width:1px;stroke-linecap:butt;stroke-linejoin:miter;stroke-opacity:1" d="M 8.52555,566.978 8.52555,576.029 z" id="boundary" inkscape:connector-curvature="0" />
	<path style="fill:none;stroke:red;stroke-width:1px;stroke-linecap:butt;stroke-linejoin:miter;stroke-opacity:1" d="M 8.52555,576.029 8.52555,585.08 z" id="boundary" inkscape:connector-curvature="0" />
	<path style="fill:none;stroke:red;stroke-width:1px;stroke-linecap:butt;stroke-linejoin:miter;stroke-opacity:1" d="M 8.52555,585.08 13.0511,593.226 z" id="boundary" inkscape:connector-curvature="0" />
	<path style="fill:none;stroke:red;stroke-width:1px;stroke-linecap:butt;stroke-linejoin:miter;stroke-opacity:1" d="M 13.0511,593.226 13.0511,602.277 z" id="boundary" inkscape:connector-curvature="0" />
	<path style="fill:none;stroke:red;stroke-width:1px;stroke-linecap:butt;stroke-linejoin:miter;stroke-opacity:1" d="M 13.0511,602.277 15.7664,611.328 z" id="boundary" inkscape:connector-curvature="0" />
	<path style="fill:none;stroke:red;stroke-width:1px;stroke-linecap:butt;stroke-linejoin:miter;stroke-opacity:1" d="M 15.7664,611.328 17.5766,620.38 z" id="boundary" inkscape:connector-curvature="0" />
	<path style="fill:none;stroke:red;stroke-width:1px;stroke-linecap:butt;stroke-linejoin:miter;stroke-opacity:1" d="M 17.5766,620.38 22.1022,628.526 z" id="boundary" inkscape:connector-curvature="0" />
	<path style="fill:none;stroke:red;stroke-width:1px;stroke-linecap:butt;stroke-linejoin:miter;stroke-opacity:1" d="M 22.1022,628.526 23.9124,637.577 z" id="boundary" inkscape:connector-curvature="0" />
	<path style="fill:none;stroke:red;stroke-width:1px;stroke-linecap:butt;stroke-linejoin:miter;stroke-opacity:1" d="M 23.9124,637.577 26.6277,646.628 z" id="boundary" inkscape:connector-curvature="0" />
	<path style="fill:none;stroke:red;stroke-width:1px;stroke-linecap:butt;stroke-linejoin:miter;stroke-opacity:1" d="M 26.6277,646.628 31.1533,654.774 z" id="boundary" inkscape:connector-curvature="0" />
	<path style="fill:none;stroke:red;stroke-width:1px;stroke-linecap:butt;stroke-linejoin:miter;stroke-opacity:1" d="M 31.1533,654.774 35.6788,662.92 z" id="boundary" inkscape:connector-curvature="0" />
	<path style="fill:none;stroke:red;stroke-width:1px;stroke-linecap:butt;stroke-linejoin:miter;stroke-opacity:1" d="M 35.6788,662.92 40.2044,671.066 z" id="boundary" inkscape:connector-curvature="0" />
	<path style="fill:none;stroke:red;stroke-width:1px;stroke-linecap:butt;stroke-linejoin:miter;stroke-opacity:1" d="M 40.2044,671.066 44.7299,679.212 z" id="boundary" inkscape:connector-curvature="0" />
	<path style="fill:none;stroke:red;stroke-width:1px;stroke-linecap:butt;stroke-linejoin:miter;stroke-opacity:1" d="M 44.7299,679.212 47.4453,688.263 z" id="boundary" inkscape:connector-curvature="0" />
	<path style="fill:none;stroke:red;stroke-width:1px;stroke-linecap:butt;stroke-linejoin:miter;stroke-opacity:1" d="M 47.4453,688.263 51.9708,696.409 z" id="boundary" inkscape:connector-curvature="0" />
	<path style="fill:none;stroke:red;stroke-width:1px;stroke-linecap:butt;stroke-linejoin:miter;stroke-opacity:1" d="M 51.9708,696.409 55.5912,705.46 z" id="boundary" inkscape:connector-curvature="0" />
	<path style="fill:none;stroke:red;stroke-width:1px;stroke-linecap:butt;stroke-linejoin:miter;stroke-opacity:1" d="M 55.5912,705.46 62.8321,710.891 z" id="boundary" inkscape:connector-curvature="0" />
	<path style="fill:none;stroke:red;stroke-width:1px;stroke-linecap:butt;stroke-linejoin:miter;stroke-opacity:1" d="M 62.8321,710.891 65.5474,719.942 z" id="boundary" inkscape:connector-curvature="0" />
	<path style="fill:none;stroke:red;stroke-width:1px;stroke-linecap:butt;stroke-linejoin:miter;stroke-opacity:1" d="M 65.5474,719.942 71.8832,727.182 z" id="boundary" inkscape:connector-curvature="0" />
	<path style="fill:none;stroke:red;stroke-width:1px;stroke-linecap:butt;stroke-linejoin:miter;stroke-opacity:1" d="M 71.8832,727.182 76.4088,735.328 z" id="boundary" inkscape:connector-curvature="0" />
	<path style="fill:none;stroke:red;stroke-width:1px;stroke-linecap:butt;stroke-linejoin:miter;stroke-opacity:1" d="M 76.4088,735.328 83.6496,741.664 z" id="boundary" inkscape:connector-curvature="0" />
	<path style="fill:none;stroke:red;stroke-width:1px;stroke-linecap:butt;stroke-linejoin:miter;stroke-opacity:1" d="M 83.6496,741.664 87.2701,750.715 z" id="boundary" inkscape:connector-curvature="0" />
	<path style="fill:none;stroke:red;stroke-width:1px;stroke-linecap:butt;stroke-linejoin:miter;stroke-opacity:1" d="M 87.2701,750.715 94.5109,756.146 z" id="boundary" inkscape:connector-curvature="0" />
	<path style="fill:none;stroke:red;stroke-width:1px;stroke-linecap:butt;stroke-linejoin:miter;stroke-opacity:1" d="M 94.5109,756.146 99.9416,763.387 z" id="boundary" inkscape:connector-curvature="0" />
	<path style="fill:none;stroke:red;stroke-width:1px;stroke-linecap:butt;stroke-linejoin:miter;stroke-opacity:1" d="M 99.9416,763.387 107.182,769.723 z" id="boundary" inkscape:connector-curvature="0" />
	<path style="fill:none;stroke:red;stroke-width:1px;stroke-linecap:butt;stroke-linejoin:miter;stroke-opacity:1" d="M 107.182,769.723 113.518,776.964 z" id="boundary" inkscape:connector-curvature="0" />
	<path style="fill:none;stroke:red;stroke-width:1px;stroke-linecap:butt;stroke-linejoin:miter;stroke-opacity:1" d="M 113.518,776.964 120.759,783.299 z" id="boundary" inkscape:connector-curvature="0" />
	<path style="fill:none;stroke:red;stroke-width:1px;stroke-linecap:butt;stroke-linejoin:miter;stroke-opacity:1" d="M 120.759,783.299 127.095,790.54 z" id="boundary" inkscape:connector-curvature="0" />
	<path style="fill:none;stroke:red;stroke-width:1px;stroke-linecap:butt;stroke-linejoin:miter;stroke-opacity:1" d="M 127.095,790.54 134.336,796.876 z" id="boundary" inkscape:connector-curvature="0" />
	<path style="fill:none;stroke:red;stroke-width:1px;stroke-linecap:butt;stroke-linejoin:miter;stroke-opacity:1" d="M 134.336,796.876 140.672,804.117 z" id="boundary" inkscape:connector-curvature="0" />
	<path style="fill:none;stroke:red;stroke-width:1px;stroke-linecap:butt;stroke-linejoin:miter;stroke-opacity:1" d="M 140.672,804.117 149.723,807.737 z" id="boundary" inkscape:connector-curvature="0" />
	<path style="fill:none;stroke:red;stroke-width:1px;stroke-linecap:butt;stroke-linejoin:miter;stroke-opacity:1" d="M 149.723,807.737 156.058,814.978 z" id="boundary" inkscape:connector-curvature="0" />
	<path style="fill:none;stroke:red;stroke-width:1px;stroke-linecap:butt;stroke-linejoin:miter;stroke-opacity:1" d="M 156.058,814.978 164.204,819.504 z" id="boundary" inkscape:connector-curvature="0" />
	<path style="fill:none;stroke:red;stroke-width:1px;stroke-linecap:butt;stroke-linejoin:miter;stroke-opacity:1" d="M 164.204,819.504 171.445,824.934 z" id="boundary" inkscape:connector-curvature="0" />
	<path style="fill:none;stroke:red;stroke-width:1px;stroke-linecap:butt;stroke-linejoin:miter;stroke-opacity:1" d="M 171.445,824.934 177.781,832.175 z" id="boundary" inkscape:connector-curvature="0" />
	<path style="fill:none;stroke:red;stroke-width:1px;stroke-linecap:butt;stroke-linejoin:miter;stroke-opacity:1" d="M 177.781,832.175 186.832,835.796 z" id="boundary" inkscape:connector-curvature="0" />
	<path style="fill:none;stroke:red;stroke-width:1px;stroke-linecap:butt;stroke-linejoin:miter;stroke-opacity:1" d="M 186.832,835.796 194.978,840.321 z" id="boundary" inkscape:connector-curvature="0" />
	<path style="fill:none;stroke:red;stroke-width:1px;stroke-linecap:butt;stroke-linejoin:miter;stroke-opacity:1" d="M 194.978,840.321 202.219,846.657 z" id="boundary" inkscape:connector-curvature="0" />
	<path style="fill:none;stroke:red;stroke-width:1px;stroke-linecap:butt;stroke-linejoin:miter;stroke-opacity:1" d="M 202.219,846.657 210.365,851.182 z" id="boundary" inkscape:connector-curvature="0" />
	<path style="fill:none;stroke:red;stroke-width:1px;stroke-linecap:butt;stroke-linejoin:miter;stroke-opacity:1" d="M 210.365,851.182 219.416,854.803 z" id="boundary" inkscape:connector-curvature="0" />
	<path style="fill:none;stroke:red;stroke-width:1px;stroke-linecap:butt;stroke-linejoin:miter;stroke-opacity:1" d="M 219.416,854.803 227.562,859.328 z" id="boundary" inkscape:connector-curvature="0" />
	<path style="fill:none;stroke:red;stroke-width:1px;stroke-linecap:butt;stroke-linejoin:miter;stroke-opacity:1" d="M 227.562,859.328 236.613,862.949 z" id="boundary" inkscape:connector-curvature="0" />
	<path style="fill:none;stroke:red;stroke-width:1px;stroke-linecap:butt;stroke-linejoin:miter;stroke-opacity:1" d="M 236.613,862.949 244.759,867.474 z" id="boundary" inkscape:connector-curvature="0" />
	<path style="fill:none;stroke:red;stroke-width:1px;stroke-linecap:butt;stroke-linejoin:miter;stroke-opacity:1" d="M 244.759,867.474 253.81,871.095 z" id="boundary" inkscape:connector-curvature="0" />
	<path style="fill:none;stroke:red;stroke-width:1px;stroke-linecap:butt;stroke-linejoin:miter;stroke-opacity:1" d="M 253.81,871.095 262.861,873.81 z" id="boundary" inkscape:connector-curvature="0" />
	<path style="fill:none;stroke:red;stroke-width:1px;stroke-linecap:butt;stroke-linejoin:miter;stroke-opacity:1" d="M 262.861,873.81 271.007,878.336 z" id="boundary" inkscape:connector-curvature="0" />
	<path style="fill:none;stroke:red;stroke-width:1px;stroke-linecap:butt;stroke-linejoin:miter;stroke-opacity:1" d="M 271.007,878.336 279.153,882.861 z" id="boundary" inkscape:connector-curvature="0" />
	<path style="fill:none;stroke:red;stroke-width:1px;stroke-linecap:butt;stroke-linejoin:miter;stroke-opacity:1" d="M 279.153,882.861 288.204,882.861 z" id="boundary" inkscape:connector-curvature="0" />
	<path style="fill:none;stroke:red;stroke-width:1px;stroke-linecap:butt;stroke-linejoin:miter;stroke-opacity:1" d="M 288.204,882.861 296.35,887.387 z" id="boundary" inkscape:connector-curvature="0" />
	<path style="fill:none;stroke:red;stroke-width:1px;stroke-linecap:butt;stroke-linejoin:miter;stroke-opacity:1" d="M 296.35,887.387 305.401,891.007 z" id="boundary" inkscape:connector-curvature="0" />
	<path style="fill:none;stroke:red;stroke-width:1px;stroke-linecap:butt;stroke-linejoin:miter;stroke-opacity:1" d="M 305.401,891.007 314.453,891.912 z" id="boundary" inkscape:connector-curvature="0" />
	<path style="fill:none;stroke:red;stroke-width:1px;stroke-linecap:butt;stroke-linejoin:miter;stroke-opacity:1" d="M 314.453,891.912 323.504,895.533 z" id="boundary" inkscape:connector-curvature="0" />
	<path style="fill:none;stroke:red;stroke-width:1px;stroke-linecap:butt;stroke-linejoin:miter;stroke-opacity:1" d="M 323.504,895.533 332.555,896.438 z" id="boundary" inkscape:connector-curvature="0" />
	<path style="fill:none;stroke:red;stroke-width:1px;stroke-linecap:butt;stroke-linejoin:miter;stroke-opacity:1" d="M 332.555,896.438 341.606,900.058 z" id="boundary" inkscape:connector-curvature="0" />
	<path style="fill:none;stroke:red;stroke-width:1px;stroke-linecap:butt;stroke-linejoin:miter;stroke-opacity:1" d="M 341.606,900.058 350.657,900.964 z" id="boundary" inkscape:connector-curvature="0" />
	<path style="fill:none;stroke:red;stroke-width:1px;stroke-linecap:butt;stroke-linejoin:miter;stroke-opacity:1" d="M 350.657,900.964 359.708,900.964 z" id="boundary" inkscape:connector-curvature="0" />
	<path style="fill:none;stroke:red;stroke-width:1px;stroke-linecap:butt;stroke-linejoin:miter;stroke-opacity:1" d="M 359.708,900.964 367.854,905.489 z" id="boundary" inkscape:connector-curvature="0" />
	<path style="fill:none;stroke:red;stroke-width:1px;stroke-linecap:butt;stroke-linejoin:miter;stroke-opacity:1" d="M 367.854,905.489 376.905,905.489 z" id="boundary" inkscape:connector-curvature="0" />
	<path style="fill:none;stroke:red;stroke-width:1px;stroke-linecap:butt;stroke-linejoin:miter;stroke-opacity:1" d="M 376.905,905.489 385.956,905.489 z" id="boundary" inkscape:connector-curvature="0" />
	<path style="fill:none;stroke:red;stroke-width:1px;stroke-linecap:butt;stroke-linejoin:miter;stroke-opacity:1" d="M 385.956,905.489 395.007,905.489 z" id="boundary" inkscape:connector-curvature="0" />
	<path style="fill:none;stroke:red;stroke-width:1px;stroke-linecap:butt;stroke-linejoin:miter;stroke-opacity:1" d="M 395.007,905.489 403.153,910.015 z" id="boundary" inkscape:connector-curvature="0" />
	<path style="fill:none;stroke:red;stroke-width:1px;stroke-linecap:butt;stroke-linejoin:miter;stroke-opacity:1" d="M 403.153,910.015 412.204,910.015 z" id="boundary" inkscape:connector-curvature="0" />
	<path style="fill:none;stroke:red;stroke-width:1px;stroke-linecap:butt;stroke-linejoin:miter;stroke-opacity:1" d="M 412.204,910.015 421.255,910.015 z" id="boundary" inkscape:connector-curvature="0" />
	<path style="fill:none;stroke:red;stroke-width:1px;stroke-linecap:butt;stroke-linejoin:miter;stroke-opacity:1" d="M 421.255,910.015 430.307,910.015 z" id="boundary" inkscape:connector-curvature="0" />
	<path style="fill:none;stroke:red;stroke-width:1px;stroke-linecap:butt;stroke-linejoin:miter;stroke-opacity:1" d="M 430.307,910.015 439.358,910.015 z" id="boundary" inkscape:connector-curvature="0" />
	<path style="fill:none;stroke:red;stroke-width:1px;stroke-linecap:butt;stroke-linejoin:miter;stroke-opacity:1" d="M 439.358,910.015 448.409,910.015 z" id="boundary" inkscape:connector-curvature="0" />
	<path style="fill:none;stroke:red;stroke-width:1px;stroke-linecap:butt;stroke-linejoin:miter;stroke-opacity:1" d="M 448.409,910.015 457.46,910.015 z" id="boundary" inkscape:connector-curvature="0" />
	<path style="fill:none;stroke:red;stroke-width:1px;stroke-linecap:butt;stroke-linejoin:miter;stroke-opacity:1" d="M 457.46,910.015 466.511,910.015 z" id="boundary" inkscape:connector-curvature="0" />
	<path style="fill:none;stroke:red;stroke-width:1px;stroke-linecap:butt;stroke-linejoin:miter;stroke-opacity:1" d="M 466.511,910.015 475.562,910.015 z" id="boundary" inkscape:connector-curvature="0" />
	<path style="fill:none;stroke:red;stroke-width:1px;stroke-linecap:butt;stroke-linejoin:miter;stroke-opacity:1" d="M 475.562,910.015 484.613,910.015 z" id="boundary" inkscape:connector-curvature="0" />
	<path style="fill:none;stroke:red;stroke-width:1px;stroke-linecap:butt;stroke-linejoin:miter;stroke-opacity:1" d="M 484.613,910.015 493.664,905.489 z" id="boundary" inkscape:connector-curvature="0" />
	<path style="fill:none;stroke:red;stroke-width:1px;stroke-linecap:butt;stroke-linejoin:miter;stroke-opacity:1" d="M 493.664,905.489 502.715,905.489 z" id="boundary" inkscape:connector-curvature="0" />
	<path style="fill:none;stroke:red;stroke-width:1px;stroke-linecap:butt;stroke-linejoin:miter;stroke-opacity:1" d="M 502.715,905.489 510.861,910.015 z" id="boundary" inkscape:connector-curvature="0" />
	<path style="fill:none;stroke:red;stroke-width:1px;stroke-linecap:butt;stroke-linejoin:miter;stroke-opacity:1" d="M 510.861,910.015 519.912,910.015 z" id="boundary" inkscape:connector-curvature="0" />
	<path style="fill:none;stroke:red;stroke-width:1px;stroke-linecap:butt;stroke-linejoin:miter;stroke-opacity:1" d="M 519.912,910.015 528.964,910.015 z" id="boundary" inkscape:connector-curvature="0" />
	<path style="fill:none;stroke:red;stroke-width:1px;stroke-linecap:butt;stroke-linejoin:miter;stroke-opacity:1" d="M 528.964,910.015 538.015,910.015 z" id="boundary" inkscape:connector-curvature="0" />
	<path style="fill:none;stroke:red;stroke-width:1px;stroke-linecap:butt;stroke-linejoin:miter;stroke-opacity:1" d="M 538.015,910.015 547.066,910.015 z" id="boundary" inkscape:connector-curvature="0" />
	<path style="fill:none;stroke:red;stroke-width:1px;stroke-linecap:butt;stroke-linejoin:miter;stroke-opacity:1" d="M 547.066,910.015 556.117,910.015 z" id="boundary" inkscape:connector-curvature="0" />
	<path style="fill:none;stroke:red;stroke-width:1px;stroke-linecap:butt;stroke-linejoin:miter;stroke-opacity:1" d="M 556.117,910.015 565.168,910.015 z" id="boundary" inkscape:connector-curvature="0" />
	<path style="fill:none;stroke:red;stroke-width:1px;stroke-linecap:butt;stroke-linejoin:miter;stroke-opacity:1" d="M 565.168,910.015 574.219,910.015 z" id="boundary" inkscape:connector-curvature="0" />
	<path style="fill:none;stroke:red;stroke-width:1px;stroke-linecap:butt;stroke-linejoin:miter;stroke-opacity:1" d="M 574.219,910.015 583.27,910.015 z" id="boundary" inkscape:connector-curvature="0" />
	<path style="fill:none;stroke:red;stroke-width:1px;stroke-linecap:butt;stroke-linejoin:miter;stroke-opacity:1" d="M 583.27,910.015 592.321,910.015 z" id="boundary" inkscape:connector-curvature="0" />
	<path style="fill:none;stroke:red;stroke-width:1px;stroke-linecap:butt;stroke-linejoin:miter;stroke-opacity:1" d="M 592.321,910.015 601.372,907.299 z" id="boundary" inkscape:connector-curvature="0" />
	<path style="fill:none;stroke:red;stroke-width:1px;stroke-linecap:butt;stroke-linejoin:miter;stroke-opacity:1" d="M 601.372,907.299 610.423,905.489 z" id="boundary" inkscape:connector-curvature="0" />
	<path style="fill:none;stroke:red;stroke-width:1px;stroke-linecap:butt;stroke-linejoin:miter;stroke-opacity:1" d="M 610.423,905.489 619.474,905.489 z" id="boundary" inkscape:connector-curvature="0" />
	<path style="fill:none;stroke:red;stroke-width:1px;stroke-linecap:butt;stroke-linejoin:miter;stroke-opacity:1" d="M 619.474,905.489 628.526,905.489 z" id="boundary" inkscape:connector-curvature="0" />
	<path style="fill:none;stroke:red;stroke-width:1px;stroke-linecap:butt;stroke-linejoin:miter;stroke-opacity:1" d="M 628.526,905.489 637.577,902.774 z" id="boundary" inkscape:connector-curvature="0" />
	<path style="fill:none;stroke:red;stroke-width:1px;stroke-linecap:butt;stroke-linejoin:miter;stroke-opacity:1" d="M 637.577,902.774 646.628,900.964 z" id="boundary" inkscape:connector-curvature="0" />
	<path style="fill:none;stroke:red;stroke-width:1px;stroke-linecap:butt;stroke-linejoin:miter;stroke-opacity:1" d="M 646.628,900.964 655.679,900.964 z" id="boundary" inkscape:connector-curvature="0" />
	<path style="fill:none;stroke:red;stroke-width:1px;stroke-linecap:butt;stroke-linejoin:miter;stroke-opacity:1" d="M 655.679,900.964 663.825,896.438 z" id="boundary" inkscape:connector-curvature="0" />
	<path style="fill:none;stroke:red;stroke-width:1px;stroke-linecap:butt;stroke-linejoin:miter;stroke-opacity:1" d="M 663.825,896.438 672.876,896.438 z" id="boundary" inkscape:connector-curvature="0" />
	<path style="fill:none;stroke:red;stroke-width:1px;stroke-linecap:butt;stroke-linejoin:miter;stroke-opacity:1" d="M 672.876,896.438 681.022,891.912 z" id="boundary" inkscape:connector-curvature="0" />
	<path style="fill:none;stroke:red;stroke-width:1px;stroke-linecap:butt;stroke-linejoin:miter;stroke-opacity:1" d="M 681.022,891.912 690.073,891.912 z" id="boundary" inkscape:connector-curvature="0" />
	<path style="fill:none;stroke:red;stroke-width:1px;stroke-linecap:butt;stroke-linejoin:miter;stroke-opacity:1" d="M 690.073,891.912 698.219,887.387 z" id="boundary" inkscape:connector-curvature="0" />
	<path style="fill:none;stroke:red;stroke-width:1px;stroke-linecap:butt;stroke-linejoin:miter;stroke-opacity:1" d="M 698.219,887.387 707.27,887.387 z" id="boundary" inkscape:connector-curvature="0" />
	<path style="fill:none;stroke:red;stroke-width:1px;stroke-linecap:butt;stroke-linejoin:miter;stroke-opacity:1" d="M 707.27,887.387 715.416,882.861 z" id="boundary" inkscape:connector-curvature="0" />
	<path style="fill:none;stroke:red;stroke-width:1px;stroke-linecap:butt;stroke-linejoin:miter;stroke-opacity:1" d="M 715.416,882.861 724.467,878.336 z" id="boundary" inkscape:connector-curvature="0" />
	<path style="fill:none;stroke:red;stroke-width:1px;stroke-linecap:butt;stroke-linejoin:miter;stroke-opacity:1" d="M 724.467,878.336 733.518,873.81 z" id="boundary" inkscape:connector-curvature="0" />
	<path style="fill:none;stroke:red;stroke-width:1px;stroke-linecap:butt;stroke-linejoin:miter;stroke-opacity:1" d="M 733.518,873.81 742.569,873.81 z" id="boundary" inkscape:connector-curvature="0" />
	<path style="fill:none;stroke:red;stroke-width:1px;stroke-linecap:butt;stroke-linejoin:miter;stroke-opacity:1" d="M 742.569,873.81 750.715,869.285 z" id="boundary" inkscape:connector-curvature="0" />
	<path style="fill:none;stroke:red;stroke-width:1px;stroke-linecap:butt;stroke-linejoin:miter;stroke-opacity:1" d="M 750.715,869.285 758.861,864.759 z" id="boundary" inkscape:connector-curvature="0" />
	<path style="fill:none;stroke:red;stroke-width:1px;stroke-linecap:butt;stroke-linejoin:miter;stroke-opacity:1" d="M 758.861,864.759 767.007,860.234 z" id="boundary" inkscape:connector-curvature="0" />
	<path style="fill:none;stroke:red;stroke-width:1px;stroke-linecap:butt;stroke-linejoin:miter;stroke-opacity:1" d="M 767.007,860.234 775.153,855.708 z" id="boundary" inkscape:connector-curvature="0" />
	<path style="fill:none;stroke:red;stroke-width:1px;stroke-linecap:butt;stroke-linejoin:miter;stroke-opacity:1" d="M 775.153,855.708 783.299,851.182 z" id="boundary" inkscape:connector-curvature="0" />
	<path style="fill:none;stroke:red;stroke-width:1px;stroke-linecap:butt;stroke-linejoin:miter;stroke-opacity:1" d="M 783.299,851.182 792.35,846.657 z" id="boundary" inkscape:connector-curvature="0" />
	<path style="fill:none;stroke:red;stroke-width:1px;stroke-linecap:butt;stroke-linejoin:miter;stroke-opacity:1" d="M 792.35,846.657 801.401,842.131 z" id="boundary" inkscape:connector-curvature="0" />
	<path style="fill:none;stroke:red;stroke-width:1px;stroke-linecap:butt;stroke-linejoin:miter;stroke-opacity:1" d="M 801.401,842.131 809.547,837.606 z" id="boundary" inkscape:connector-curvature="0" />
	<path style="fill:none;stroke:red;stroke-width:1px;stroke-linecap:butt;stroke-linejoin:miter;stroke-opacity:1" d="M 809.547,837.606 817.693,833.08 z" id="boundary" inkscape:connector-curvature="0" />
	<path style="fill:none;stroke:red;stroke-width:1px;stroke-linecap:butt;stroke-linejoin:miter;stroke-opacity:1" d="M 817.693,833.08 825.839,827.65 z" id="boundary" inkscape:connector-curvature="0" />
	<path style="fill:none;stroke:red;stroke-width:1px;stroke-linecap:butt;stroke-linejoin:miter;stroke-opacity:1" d="M 825.839,827.65 833.08,819.504 z" id="boundary" inkscape:connector-curvature="0" />
	<path style="fill:none;stroke:red;stroke-width:1px;stroke-linecap:butt;stroke-linejoin:miter;stroke-opacity:1" d="M 833.08,819.504 842.131,814.978 z" id="boundary" inkscape:connector-curvature="0" />
	<path style="fill:none;stroke:red;stroke-width:1px;stroke-linecap:butt;stroke-linejoin:miter;stroke-opacity:1" d="M 842.131,814.978 849.372,808.642 z" id="boundary" inkscape:connector-curvature="0" />
	<path style="fill:none;stroke:red;stroke-width:1px;stroke-linecap:butt;stroke-linejoin:miter;stroke-opacity:1" d="M 849.372,808.642 858.423,804.117 z" id="boundary" inkscape:connector-curvature="0" />
	<path style="fill:none;stroke:red;stroke-width:1px;stroke-linecap:butt;stroke-linejoin:miter;stroke-opacity:1" d="M 858.423,804.117 864.759,796.876 z" id="boundary" inkscape:connector-curvature="0" />
	<path style="fill:none;stroke:red;stroke-width:1px;stroke-linecap:butt;stroke-linejoin:miter;stroke-opacity:1" d="M 864.759,796.876 872,790.54 z" id="boundary" inkscape:connector-curvature="0" />
	<path style="fill:none;stroke:red;stroke-width:1px;stroke-linecap:butt;stroke-linejoin:miter;stroke-opacity:1" d="M 872,790.54 878.336,783.299 z" id="boundary" inkscape:connector-curvature="0" />
	<path style="fill:none;stroke:red;stroke-width:1px;stroke-linecap:butt;stroke-linejoin:miter;stroke-opacity:1" d="M 878.336,783.299 885.577,776.964 z" id="boundary" inkscape:connector-curvature="0" />
	<path style="fill:none;stroke:red;stroke-width:1px;stroke-linecap:butt;stroke-linejoin:miter;stroke-opacity:1" d="M 885.577,776.964 891.912,769.723 z" id="boundary" inkscape:connector-curvature="0" />
	<path style="fill:none;stroke:red;stroke-width:1px;stroke-linecap:butt;stroke-linejoin:miter;stroke-opacity:1" d="M 891.912,769.723 899.153,763.387 z" id="boundary" inkscape:connector-curvature="0" />
	<path style="fill:none;stroke:red;stroke-width:1px;stroke-linecap:butt;stroke-linejoin:miter;stroke-opacity:1" d="M 899.153,763.387 905.489,756.146 z" id="boundary" inkscape:connector-curvature="0" />
	<path style="fill:none;stroke:red;stroke-width:1px;stroke-linecap:butt;stroke-linejoin:miter;stroke-opacity:1" d="M 905.489,756.146 912.73,749.81 z" id="boundary" inkscape:connector-curvature="0" />
	<path style="fill:none;stroke:red;stroke-width:1px;stroke-linecap:butt;stroke-linejoin:miter;stroke-opacity:1" d="M 912.73,749.81 917.255,740.759 z" id="boundary" inkscape:connector-curvature="0" />
	<path style="fill:none;stroke:red;stroke-width:1px;stroke-linecap:butt;stroke-linejoin:miter;stroke-opacity:1" d="M 917.255,740.759 923.591,733.518 z" id="boundary" inkscape:connector-curvature="0" />
	<path style="fill:none;stroke:red;stroke-width:1px;stroke-linecap:butt;stroke-linejoin:miter;stroke-opacity:1" d="M 923.591,733.518 928.117,724.467 z" id="boundary" inkscape:connector-curvature="0" />
	<path style="fill:none;stroke:red;stroke-width:1px;stroke-linecap:butt;stroke-linejoin:miter;stroke-opacity:1" d="M 928.117,724.467 935.358,718.131 z" id="boundary" inkscape:connector-curvature="0" />
	<path style="fill:none;stroke:red;stroke-width:1px;stroke-linecap:butt;stroke-linejoin:miter;stroke-opacity:1" d="M 935.358,718.131 939.883,709.08 z" id="boundary" inkscape:connector-curvature="0" />
	<path style="fill:none;stroke:red;stroke-width:1px;stroke-linecap:butt;stroke-linejoin:miter;stroke-opacity:1" d="M 939.883,709.08 946.219,697.314 z" id="boundary" inkscape:connector-curvature="0" />
	<path style="fill:none;stroke:red;stroke-width:1px;stroke-linecap:butt;stroke-linejoin:miter;stroke-opacity:1" d="M 946.219,697.314 950.745,688.263 z" id="boundary" inkscape:connector-curvature="0" />
	<path style="fill:none;stroke:red;stroke-width:1px;stroke-linecap:butt;stroke-linejoin:miter;stroke-opacity:1" d="M 950.745,688.263 955.27,679.212 z" id="boundary" inkscape:connector-curvature="0" />
	<path style="fill:none;stroke:red;stroke-width:1px;stroke-linecap:butt;stroke-linejoin:miter;stroke-opacity:1" d="M 955.27,679.212 959.796,670.161 z" id="boundary" inkscape:connector-curvature="0" />
	<path style="fill:none;stroke:red;stroke-width:1px;stroke-linecap:butt;stroke-linejoin:miter;stroke-opacity:1" d="M 959.796,670.161 964.321,661.109 z" id="boundary" inkscape:connector-curvature="0" />
	<path style="fill:none;stroke:red;stroke-width:1px;stroke-linecap:butt;stroke-linejoin:miter;stroke-opacity:1" d="M 964.321,661.109 968.847,652.058 z" id="boundary" inkscape:connector-curvature="0" />
	<path style="fill:none;stroke:red;stroke-width:1px;stroke-linecap:butt;stroke-linejoin:miter;stroke-opacity:1" d="M 8.52555,459.27 13.0511,445.693 z" id="boundary" inkscape:connector-curvature="0" />
	<path style="fill:none;stroke:red;stroke-width:1px;stroke-linecap:butt;stroke-linejoin:miter;stroke-opacity:1" d="M 13.0511,445.693 13.0511,436.642 z" id="boundary" inkscape:connector-curvature="0" />
	<path style="fill:none;stroke:red;stroke-width:1px;stroke-linecap:butt;stroke-linejoin:miter;stroke-opacity:1" d="M 13.0511,436.642 17.5766,423.066 z" id="boundary" inkscape:connector-curvature="0" />
	<path style="fill:none;stroke:red;stroke-width:1px;stroke-linecap:butt;stroke-linejoin:miter;stroke-opacity:1" d="M 17.5766,423.066 22.1022,409.489 z" id="boundary" inkscape:connector-curvature="0" />
	<path style="fill:none;stroke:red;stroke-width:1px;stroke-linecap:butt;stroke-linejoin:miter;stroke-opacity:1" d="M 22.1022,409.489 26.6277,395.912 z" id="boundary" inkscape:connector-curvature="0" />
	<path style="fill:none;stroke:red;stroke-width:1px;stroke-linecap:butt;stroke-linejoin:miter;stroke-opacity:1" d="M 26.6277,395.912 31.1533,386.861 z" id="boundary" inkscape:connector-curvature="0" />
	<path style="fill:none;stroke:red;stroke-width:1px;stroke-linecap:butt;stroke-linejoin:miter;stroke-opacity:1" d="M 31.1533,386.861 35.6788,377.81 z" id="boundary" inkscape:connector-curvature="0" />
	<path style="fill:none;stroke:red;stroke-width:1px;stroke-linecap:butt;stroke-linejoin:miter;stroke-opacity:1" d="M 35.6788,377.81 40.2044,368.759 z" id="boundary" inkscape:connector-curvature="0" />
	<path style="fill:none;stroke:red;stroke-width:1px;stroke-linecap:butt;stroke-linejoin:miter;stroke-opacity:1" d="M 40.2044,368.759 44.7299,359.708 z" id="boundary" inkscape:connector-curvature="0" />
	<path style="fill:none;stroke:red;stroke-width:1px;stroke-linecap:butt;stroke-linejoin:miter;stroke-opacity:1" d="M 44.7299,359.708 49.2555,350.657 z" id="boundary" inkscape:connector-curvature="0" />
	<path style="fill:none;stroke:red;stroke-width:1px;stroke-linecap:butt;stroke-linejoin:miter;stroke-opacity:1" d="M 49.2555,350.657 53.781,341.606 z" id="boundary" inkscape:connector-curvature="0" />
	<path style="fill:none;stroke:red;stroke-width:1px;stroke-linecap:butt;stroke-linejoin:miter;stroke-opacity:1" d="M 53.781,341.606 61.0219,334.365 z" id="boundary" inkscape:connector-curvature="0" />
	<path style="fill:none;stroke:red;stroke-width:1px;stroke-linecap:butt;stroke-linejoin:miter;stroke-opacity:1" d="M 61.0219,334.365 65.5474,325.314 z" id="boundary" inkscape:connector-curvature="0" />
	<path style="fill:none;stroke:red;stroke-width:1px;stroke-linecap:butt;stroke-linejoin:miter;stroke-opacity:1" d="M 65.5474,325.314 71.8832,314.453 z" id="boundary" inkscape:connector-curvature="0" />
	<path style="fill:none;stroke:red;stroke-width:1px;stroke-linecap:butt;stroke-linejoin:miter;stroke-opacity:1" d="M 71.8832,314.453 79.1241,307.212 z" id="boundary" inkscape:connector-curvature="0" />
	<path style="fill:none;stroke:red;stroke-width:1px;stroke-linecap:butt;stroke-linejoin:miter;stroke-opacity:1" d="M 79.1241,307.212 85.4599,296.35 z" id="boundary" inkscape:connector-curvature="0" />
	<path style="fill:none;stroke:red;stroke-width:1px;stroke-linecap:butt;stroke-linejoin:miter;stroke-opacity:1" d="M 85.4599,296.35 92.7007,289.109 z" id="boundary" inkscape:connector-curvature="0" />
	<path style="fill:none;stroke:red;stroke-width:1px;stroke-linecap:butt;stroke-linejoin:miter;stroke-opacity:1" d="M 92.7007,289.109 99.9416,281.869 z" id="boundary" inkscape:connector-curvature="0" />
	<path style="fill:none;stroke:red;stroke-width:1px;stroke-linecap:butt;stroke-linejoin:miter;stroke-opacity:1" d="M 99.9416,281.869 107.182,275.533 z" id="boundary" inkscape:connector-curvature="0" />
	<path style="fill:none;stroke:red;stroke-width:1px;stroke-linecap:butt;stroke-linejoin:miter;stroke-opacity:1" d="M 107.182,275.533 113.518,268.292 z" id="boundary" inkscape:connector-curvature="0" />
	<path style="fill:none;stroke:red;stroke-width:1px;stroke-linecap:butt;stroke-linejoin:miter;stroke-opacity:1" d="M 113.518,268.292 120.759,261.956 z" id="boundary" inkscape:connector-curvature="0" />
	<path style="fill:none;stroke:red;stroke-width:1px;stroke-linecap:butt;stroke-linejoin:miter;stroke-opacity:1" d="M 120.759,261.956 127.095,254.715 z" id="boundary" inkscape:connector-curvature="0" />
	<path style="fill:none;stroke:red;stroke-width:1px;stroke-linecap:butt;stroke-linejoin:miter;stroke-opacity:1" d="M 127.095,254.715 134.336,248.38 z" id="boundary" inkscape:connector-curvature="0" />
	<path style="fill:none;stroke:red;stroke-width:1px;stroke-linecap:butt;stroke-linejoin:miter;stroke-opacity:1" d="M 134.336,248.38 140.672,241.139 z" id="boundary" inkscape:connector-curvature="0" />
	<path style="fill:none;stroke:red;stroke-width:1px;stroke-linecap:butt;stroke-linejoin:miter;stroke-opacity:1" d="M 140.672,241.139 149.723,236.613 z" id="boundary" inkscape:connector-curvature="0" />
	<path style="fill:none;stroke:red;stroke-width:1px;stroke-linecap:butt;stroke-linejoin:miter;stroke-opacity:1" d="M 149.723,236.613 156.964,230.277 z" id="boundary" inkscape:connector-curvature="0" />
	<path style="fill:none;stroke:red;stroke-width:1px;stroke-linecap:butt;stroke-linejoin:miter;stroke-opacity:1" d="M 156.964,230.277 165.109,225.752 z" id="boundary" inkscape:connector-curvature="0" />
	<path style="fill:none;stroke:red;stroke-width:1px;stroke-linecap:butt;stroke-linejoin:miter;stroke-opacity:1" d="M 165.109,225.752 172.35,218.511 z" id="boundary" inkscape:connector-curvature="0" />
	<path style="fill:none;stroke:red;stroke-width:1px;stroke-linecap:butt;stroke-linejoin:miter;stroke-opacity:1" d="M 172.35,218.511 179.591,212.175 z" id="boundary" inkscape:connector-curvature="0" />
	<path style="fill:none;stroke:red;stroke-width:1px;stroke-linecap:butt;stroke-linejoin:miter;stroke-opacity:1" d="M 179.591,212.175 187.737,207.65 z" id="boundary" inkscape:connector-curvature="0" />
	<path style="fill:none;stroke:red;stroke-width:1px;stroke-linecap:butt;stroke-linejoin:miter;stroke-opacity:1" d="M 187.737,207.65 196.788,203.124 z" id="boundary" inkscape:connector-curvature="0" />
	<path style="fill:none;stroke:red;stroke-width:1px;stroke-linecap:butt;stroke-linejoin:miter;stroke-opacity:1" d="M 196.788,203.124 204.934,198.599 z" id="boundary" inkscape:connector-curvature="0" />
	<path style="fill:none;stroke:red;stroke-width:1px;stroke-linecap:butt;stroke-linejoin:miter;stroke-opacity:1" d="M 204.934,198.599 213.08,194.073 z" id="boundary" inkscape:connector-curvature="0" />
	<path style="fill:none;stroke:red;stroke-width:1px;stroke-linecap:butt;stroke-linejoin:miter;stroke-opacity:1" d="M 213.08,194.073 221.226,189.547 z" id="boundary" inkscape:connector-curvature="0" />
	<path style="fill:none;stroke:red;stroke-width:1px;stroke-linecap:butt;stroke-linejoin:miter;stroke-opacity:1" d="M 221.226,189.547 229.372,185.022 z" id="boundary" inkscape:connector-curvature="0" />
	<path style="fill:none;stroke:red;stroke-width:1px;stroke-linecap:butt;stroke-linejoin:miter;stroke-opacity:1" d="M 229.372,185.022 237.518,180.496 z" id="boundary" inkscape:connector-curvature="0" />
	<path style="fill:none;stroke:red;stroke-width:1px;stroke-linecap:butt;stroke-linejoin:miter;stroke-opacity:1" d="M 237.518,180.496 246.569,175.971 z" id="boundary" inkscape:connector-curvature="0" />
	<path style="fill:none;stroke:red;stroke-width:1px;stroke-linecap:butt;stroke-linejoin:miter;stroke-opacity:1" d="M 246.569,175.971 255.62,171.445 z" id="boundary" inkscape:connector-curvature="0" />
	<path style="fill:none;stroke:red;stroke-width:1px;stroke-linecap:butt;stroke-linejoin:miter;stroke-opacity:1" d="M 255.62,171.445 264.672,171.445 z" id="boundary" inkscape:connector-curvature="0" />
	<path style="fill:none;stroke:red;stroke-width:1px;stroke-linecap:butt;stroke-linejoin:miter;stroke-opacity:1" d="M 264.672,171.445 272.818,166.92 z" id="boundary" inkscape:connector-curvature="0" />
	<path style="fill:none;stroke:red;stroke-width:1px;stroke-linecap:butt;stroke-linejoin:miter;stroke-opacity:1" d="M 272.818,166.92 280.964,162.394 z" id="boundary" inkscape:connector-curvature="0" />
	<path style="fill:none;stroke:red;stroke-width:1px;stroke-linecap:butt;stroke-linejoin:miter;stroke-opacity:1" d="M 280.964,162.394 290.015,159.679 z" id="boundary" inkscape:connector-curvature="0" />
	<path style="fill:none;stroke:red;stroke-width:1px;stroke-linecap:butt;stroke-linejoin:miter;stroke-opacity:1" d="M 290.015,159.679 299.066,157.869 z" id="boundary" inkscape:connector-curvature="0" />
	<path style="fill:none;stroke:red;stroke-width:1px;stroke-linecap:butt;stroke-linejoin:miter;stroke-opacity:1" d="M 299.066,157.869 307.212,153.343 z" id="boundary" inkscape:connector-curvature="0" />
	<path style="fill:none;stroke:red;stroke-width:1px;stroke-linecap:butt;stroke-linejoin:miter;stroke-opacity:1" d="M 307.212,153.343 316.263,153.343 z" id="boundary" inkscape:connector-curvature="0" />
	<path style="fill:none;stroke:red;stroke-width:1px;stroke-linecap:butt;stroke-linejoin:miter;stroke-opacity:1" d="M 316.263,153.343 324.409,148.818 z" id="boundary" inkscape:connector-curvature="0" />
	<path style="fill:none;stroke:red;stroke-width:1px;stroke-linecap:butt;stroke-linejoin:miter;stroke-opacity:1" d="M 324.409,148.818 333.46,148.818 z" id="boundary" inkscape:connector-curvature="0" />
	<path style="fill:none;stroke:red;stroke-width:1px;stroke-linecap:butt;stroke-linejoin:miter;stroke-opacity:1" d="M 333.46,148.818 341.606,144.292 z" id="boundary" inkscape:connector-curvature="0" />
	<path style="fill:none;stroke:red;stroke-width:1px;stroke-linecap:butt;stroke-linejoin:miter;stroke-opacity:1" d="M 341.606,144.292 350.657,144.292 z" id="boundary" inkscape:connector-curvature="0" />
	<path style="fill:none;stroke:red;stroke-width:1px;stroke-linecap:butt;stroke-linejoin:miter;stroke-opacity:1" d="M 350.657,144.292 359.708,144.292 z" id="boundary" inkscape:connector-curvature="0" />
	<path style="fill:none;stroke:red;stroke-width:1px;stroke-linecap:butt;stroke-linejoin:miter;stroke-opacity:1" d="M 359.708,144.292 367.854,139.766 z" id="boundary" inkscape:connector-curvature="0" />
	<path style="fill:none;stroke:red;stroke-width:1px;stroke-linecap:butt;stroke-linejoin:miter;stroke-opacity:1" d="M 367.854,139.766 376.905,139.766 z" id="boundary" inkscape:connector-curvature="0" />
	<path style="fill:none;stroke:red;stroke-width:1px;stroke-linecap:butt;stroke-linejoin:miter;stroke-opacity:1" d="M 376.905,139.766 385.956,139.766 z" id="boundary" inkscape:connector-curvature="0" />
	<path style="fill:none;stroke:red;stroke-width:1px;stroke-linecap:butt;stroke-linejoin:miter;stroke-opacity:1" d="M 385.956,139.766 395.007,139.766 z" id="boundary" inkscape:connector-curvature="0" />
	<path style="fill:none;stroke:red;stroke-width:1px;stroke-linecap:butt;stroke-linejoin:miter;stroke-opacity:1" d="M 395.007,139.766 403.153,135.241 z" id="boundary" inkscape:connector-curvature="0" />
	<path style="fill:none;stroke:red;stroke-width:1px;stroke-linecap:butt;stroke-linejoin:miter;stroke-opacity:1" d="M 403.153,135.241 409.489,127.095 z" id="boundary" inkscape:connector-curvature="0" />
	<path style="fill:none;stroke:red;stroke-width:1px;stroke-linecap:butt;stroke-linejoin:miter;stroke-opacity:1" d="M 409.489,127.095 418.54,127.095 z" id="boundary" inkscape:connector-curvature="0" />
	<path style="fill:none;stroke:red;stroke-width:1px;stroke-linecap:butt;stroke-linejoin:miter;stroke-opacity:1" d="M 418.54,127.095 427.591,127.095 z" id="boundary" inkscape:connector-curvature="0" />
	<path style="fill:none;stroke:red;stroke-width:1px;stroke-linecap:butt;stroke-linejoin:miter;stroke-opacity:1" d="M 427.591,127.095 423.066,135.241 z" id="boundary" inkscape:connector-curvature="0" />
	<path style="fill:none;stroke:red;stroke-width:1px;stroke-linecap:butt;stroke-linejoin:miter;stroke-opacity:1" d="M 423.066,135.241 432.117,135.241 z" id="boundary" inkscape:connector-curvature="0" />
	<path style="fill:none;stroke:red;stroke-width:1px;stroke-linecap:butt;stroke-linejoin:miter;stroke-opacity:1" d="M 432.117,135.241 441.168,131.62 z" id="boundary" inkscape:connector-curvature="0" />
	<path style="fill:none;stroke:red;stroke-width:1px;stroke-linecap:butt;stroke-linejoin:miter;stroke-opacity:1" d="M 441.168,131.62 450.219,131.62 z" id="boundary" inkscape:connector-curvature="0" />
	<path style="fill:none;stroke:red;stroke-width:1px;stroke-linecap:butt;stroke-linejoin:miter;stroke-opacity:1" d="M 968.847,652.058 973.372,638.482 z" id="boundary" inkscape:connector-curvature="0" />
	<path style="fill:none;stroke:red;stroke-width:1px;stroke-linecap:butt;stroke-linejoin:miter;stroke-opacity:1" d="M 973.372,638.482 977.898,624.905 z" id="boundary" inkscape:connector-curvature="0" />
	<path style="fill:none;stroke:red;stroke-width:1px;stroke-linecap:butt;stroke-linejoin:miter;stroke-opacity:1" d="M 977.898,624.905 982.423,611.328 z" id="boundary" inkscape:connector-curvature="0" />
	<path style="fill:none;stroke:red;stroke-width:1px;stroke-linecap:butt;stroke-linejoin:miter;stroke-opacity:1" d="M 982.423,611.328 986.949,597.752 z" id="boundary" inkscape:connector-curvature="0" />
	<path style="fill:none;stroke:red;stroke-width:1px;stroke-linecap:butt;stroke-linejoin:miter;stroke-opacity:1" d="M 986.949,597.752 986.949,588.701 z" id="boundary" inkscape:connector-curvature="0" />
	<path style="fill:none;stroke:red;stroke-width:1px;stroke-linecap:butt;stroke-linejoin:miter;stroke-opacity:1" d="M 986.949,588.701 991.474,579.65 z" id="boundary" inkscape:connector-curvature="0" />
	<path style="fill:none;stroke:red;stroke-width:1px;stroke-linecap:butt;stroke-linejoin:miter;stroke-opacity:1" d="M 991.474,579.65 991.474,570.599 z" id="boundary" inkscape:connector-curvature="0" />
	<path style="fill:none;stroke:red;stroke-width:1px;stroke-linecap:butt;stroke-linejoin:miter;stroke-opacity:1" d="M 991.474,570.599 991.474,561.547 z" id="boundary" inkscape:connector-curvature="0" />
	<path style="fill:none;stroke:red;stroke-width:1px;stroke-linecap:butt;stroke-linejoin:miter;stroke-opacity:1" d="M 991.474,561.547 996,552.496 z" id="boundary" inkscape:connector-curvature="0" />
	<path style="fill:none;stroke:red;stroke-width:1px;stroke-linecap:butt;stroke-linejoin:miter;stroke-opacity:1" d="M 996,552.496 996,543.445 z" id="boundary" inkscape:connector-curvature="0" />
	<path style="fill:none;stroke:red;stroke-width:1px;stroke-linecap:butt;stroke-linejoin:miter;stroke-opacity:1" d="M 996,543.445 996,534.394 z" id="boundary" inkscape:connector-curvature="0" />
	<path style="fill:none;stroke:red;stroke-width:1px;stroke-linecap:butt;stroke-linejoin:miter;stroke-opacity:1" d="M 996,534.394 996,525.343 z" id="boundary" inkscape:connector-curvature="0" />
	<path style="fill:none;stroke:red;stroke-width:1px;stroke-linecap:butt;stroke-linejoin:miter;stroke-opacity:1" d="M 996,525.343 996,516.292 z" id="boundary" inkscape:connector-curvature="0" />
	<path style="fill:none;stroke:red;stroke-width:1px;stroke-linecap:butt;stroke-linejoin:miter;stroke-opacity:1" d="M 996,516.292 996,507.241 z" id="boundary" inkscape:connector-curvature="0" />
	<path style="fill:none;stroke:red;stroke-width:1px;stroke-linecap:butt;stroke-linejoin:miter;stroke-opacity:1" d="M 996,507.241 996,498.19 z" id="boundary" inkscape:connector-curvature="0" />
	<path style="fill:none;stroke:red;stroke-width:1px;stroke-linecap:butt;stroke-linejoin:miter;stroke-opacity:1" d="M 996,498.19 996,489.139 z" id="boundary" inkscape:connector-curvature="0" />
	<path style="fill:none;stroke:red;stroke-width:1px;stroke-linecap:butt;stroke-linejoin:miter;stroke-opacity:1" d="M 996,489.139 991.474,480.993 z" id="boundary" inkscape:connector-curvature="0" />
	<path style="fill:none;stroke:red;stroke-width:1px;stroke-linecap:butt;stroke-linejoin:miter;stroke-opacity:1" d="M 991.474,480.993 991.474,471.942 z" id="boundary" inkscape:connector-curvature="0" />
	<path style="fill:none;stroke:red;stroke-width:1px;stroke-linecap:butt;stroke-linejoin:miter;stroke-opacity:1" d="M 991.474,471.942 991.474,462.891 z" id="boundary" inkscape:connector-curvature="0" />
	<path style="fill:none;stroke:red;stroke-width:1px;stroke-linecap:butt;stroke-linejoin:miter;stroke-opacity:1" d="M 991.474,462.891 986.949,454.745 z" id="boundary" inkscape:connector-curvature="0" />
	<path style="fill:none;stroke:red;stroke-width:1px;stroke-linecap:butt;stroke-linejoin:miter;stroke-opacity:1" d="M 986.949,454.745 986.949,445.693 z" id="boundary" inkscape:connector-curvature="0" />
	<path style="fill:none;stroke:red;stroke-width:1px;stroke-linecap:butt;stroke-linejoin:miter;stroke-opacity:1" d="M 986.949,445.693 986.044,436.642 z" id="boundary" inkscape:connector-curvature="0" />
	<path style="fill:none;stroke:red;stroke-width:1px;stroke-linecap:butt;stroke-linejoin:miter;stroke-opacity:1" d="M 986.044,436.642 982.423,427.591 z" id="boundary" inkscape:connector-curvature="0" />
	<path style="fill:none;stroke:red;stroke-width:1px;stroke-linecap:butt;stroke-linejoin:miter;stroke-opacity:1" d="M 982.423,427.591 977.898,419.445 z" id="boundary" inkscape:connector-curvature="0" />
	<path style="fill:none;stroke:red;stroke-width:1px;stroke-linecap:butt;stroke-linejoin:miter;stroke-opacity:1" d="M 977.898,419.445 977.898,410.394 z" id="boundary" inkscape:connector-curvature="0" />
	<path style="fill:none;stroke:red;stroke-width:1px;stroke-linecap:butt;stroke-linejoin:miter;stroke-opacity:1" d="M 977.898,410.394 973.372,402.248 z" id="boundary" inkscape:connector-curvature="0" />
	<path style="fill:none;stroke:red;stroke-width:1px;stroke-linecap:butt;stroke-linejoin:miter;stroke-opacity:1" d="M 973.372,402.248 970.657,393.197 z" id="boundary" inkscape:connector-curvature="0" />
	<path style="fill:none;stroke:red;stroke-width:1px;stroke-linecap:butt;stroke-linejoin:miter;stroke-opacity:1" d="M 970.657,393.197 966.131,385.051 z" id="boundary" inkscape:connector-curvature="0" />
	<path style="fill:none;stroke:red;stroke-width:1px;stroke-linecap:butt;stroke-linejoin:miter;stroke-opacity:1" d="M 966.131,385.051 962.511,376 z" id="boundary" inkscape:connector-curvature="0" />
	<path style="fill:none;stroke:red;stroke-width:1px;stroke-linecap:butt;stroke-linejoin:miter;stroke-opacity:1" d="M 962.511,376 957.985,367.854 z" id="boundary" inkscape:connector-curvature="0" />
	<path style="fill:none;stroke:red;stroke-width:1px;stroke-linecap:butt;stroke-linejoin:miter;stroke-opacity:1" d="M 957.985,367.854 954.365,358.803 z" id="boundary" inkscape:connector-curvature="0" />
	<path style="fill:none;stroke:red;stroke-width:1px;stroke-linecap:butt;stroke-linejoin:miter;stroke-opacity:1" d="M 954.365,358.803 949.839,350.657 z" id="boundary" inkscape:connector-curvature="0" />
	<path style="fill:none;stroke:red;stroke-width:1px;stroke-linecap:butt;stroke-linejoin:miter;stroke-opacity:1" d="M 949.839,350.657 946.219,341.606 z" id="boundary" inkscape:connector-curvature="0" />
	<path style="fill:none;stroke:red;stroke-width:1px;stroke-linecap:butt;stroke-linejoin:miter;stroke-opacity:1" d="M 946.219,341.606 938.978,335.27 z" id="boundary" inkscape:connector-curvature="0" />
	<path style="fill:none;stroke:red;stroke-width:1px;stroke-linecap:butt;stroke-linejoin:miter;stroke-opacity:1" d="M 938.978,335.27 935.358,326.219 z" id="boundary" inkscape:connector-curvature="0" />
	<path style="fill:none;stroke:red;stroke-width:1px;stroke-linecap:butt;stroke-linejoin:miter;stroke-opacity:1" d="M 935.358,326.219 928.117,319.883 z" id="boundary" inkscape:connector-curvature="0" />
	<path style="fill:none;stroke:red;stroke-width:1px;stroke-linecap:butt;stroke-linejoin:miter;stroke-opacity:1" d="M 928.117,319.883 923.591,311.737 z" id="boundary" inkscape:connector-curvature="0" />
	<path style="fill:none;stroke:red;stroke-width:1px;stroke-linecap:butt;stroke-linejoin:miter;stroke-opacity:1" d="M 923.591,311.737 918.161,304.496 z" id="boundary" inkscape:connector-curvature="0" />
	<path style="fill:none;stroke:red;stroke-width:1px;stroke-linecap:butt;stroke-linejoin:miter;stroke-opacity:1" d="M 918.161,304.496 913.635,296.35 z" id="boundary" inkscape:connector-curvature="0" />
	<path style="fill:none;stroke:red;stroke-width:1px;stroke-linecap:butt;stroke-linejoin:miter;stroke-opacity:1" d="M 913.635,296.35 907.299,289.109 z" id="boundary" inkscape:connector-curvature="0" />
	<path style="fill:none;stroke:red;stroke-width:1px;stroke-linecap:butt;stroke-linejoin:miter;stroke-opacity:1" d="M 907.299,289.109 900.058,282.774 z" id="boundary" inkscape:connector-curvature="0" />
	<path style="fill:none;stroke:red;stroke-width:1px;stroke-linecap:butt;stroke-linejoin:miter;stroke-opacity:1" d="M 900.058,282.774 893.723,275.533 z" id="boundary" inkscape:connector-curvature="0" />
	<path style="fill:none;stroke:red;stroke-width:1px;stroke-linecap:butt;stroke-linejoin:miter;stroke-opacity:1" d="M 893.723,275.533 886.482,269.197 z" id="boundary" inkscape:connector-curvature="0" />
	<path style="fill:none;stroke:red;stroke-width:1px;stroke-linecap:butt;stroke-linejoin:miter;stroke-opacity:1" d="M 886.482,269.197 880.146,261.956 z" id="boundary" inkscape:connector-curvature="0" />
	<path style="fill:none;stroke:red;stroke-width:1px;stroke-linecap:butt;stroke-linejoin:miter;stroke-opacity:1" d="M 880.146,261.956 872.905,255.62 z" id="boundary" inkscape:connector-curvature="0" />
	<path style="fill:none;stroke:red;stroke-width:1px;stroke-linecap:butt;stroke-linejoin:miter;stroke-opacity:1" d="M 872.905,255.62 866.569,248.38 z" id="boundary" inkscape:connector-curvature="0" />
	<path style="fill:none;stroke:red;stroke-width:1px;stroke-linecap:butt;stroke-linejoin:miter;stroke-opacity:1" d="M 866.569,248.38 859.328,242.044 z" id="boundary" inkscape:connector-curvature="0" />
	<path style="fill:none;stroke:red;stroke-width:1px;stroke-linecap:butt;stroke-linejoin:miter;stroke-opacity:1" d="M 859.328,242.044 851.182,237.518 z" id="boundary" inkscape:connector-curvature="0" />
	<path style="fill:none;stroke:red;stroke-width:1px;stroke-linecap:butt;stroke-linejoin:miter;stroke-opacity:1" d="M 851.182,237.518 843.942,231.182 z" id="boundary" inkscape:connector-curvature="0" />
	<path style="fill:none;stroke:red;stroke-width:1px;stroke-linecap:butt;stroke-linejoin:miter;stroke-opacity:1" d="M 843.942,231.182 836.701,225.752 z" id="boundary" inkscape:connector-curvature="0" />
	<path style="fill:none;stroke:red;stroke-width:1px;stroke-linecap:butt;stroke-linejoin:miter;stroke-opacity:1" d="M 836.701,225.752 828.555,221.226 z" id="boundary" inkscape:connector-curvature="0" />
	<path style="fill:none;stroke:red;stroke-width:1px;stroke-linecap:butt;stroke-linejoin:miter;stroke-opacity:1" d="M 828.555,221.226 822.219,213.985 z" id="boundary" inkscape:connector-curvature="0" />
	<path style="fill:none;stroke:red;stroke-width:1px;stroke-linecap:butt;stroke-linejoin:miter;stroke-opacity:1" d="M 822.219,213.985 814.073,209.46 z" id="boundary" inkscape:connector-curvature="0" />
	<path style="fill:none;stroke:red;stroke-width:1px;stroke-linecap:butt;stroke-linejoin:miter;stroke-opacity:1" d="M 814.073,209.46 805.022,205.839 z" id="boundary" inkscape:connector-curvature="0" />
	<path style="fill:none;stroke:red;stroke-width:1px;stroke-linecap:butt;stroke-linejoin:miter;stroke-opacity:1" d="M 805.022,205.839 798.686,198.599 z" id="boundary" inkscape:connector-curvature="0" />
	<path style="fill:none;stroke:red;stroke-width:1px;stroke-linecap:butt;stroke-linejoin:miter;stroke-opacity:1" d="M 798.686,198.599 789.635,194.978 z" id="boundary" inkscape:connector-curvature="0" />
	<path style="fill:none;stroke:red;stroke-width:1px;stroke-linecap:butt;stroke-linejoin:miter;stroke-opacity:1" d="M 789.635,194.978 781.489,190.453 z" id="boundary" inkscape:connector-curvature="0" />
	<path style="fill:none;stroke:red;stroke-width:1px;stroke-linecap:butt;stroke-linejoin:miter;stroke-opacity:1" d="M 781.489,190.453 772.438,186.832 z" id="boundary" inkscape:connector-curvature="0" />
	<path style="fill:none;stroke:red;stroke-width:1px;stroke-linecap:butt;stroke-linejoin:miter;stroke-opacity:1" d="M 772.438,186.832 764.292,182.307 z" id="boundary" inkscape:connector-curvature="0" />
	<path style="fill:none;stroke:red;stroke-width:1px;stroke-linecap:butt;stroke-linejoin:miter;stroke-opacity:1" d="M 764.292,182.307 755.241,178.686 z" id="boundary" inkscape:connector-curvature="0" />
	<path style="fill:none;stroke:red;stroke-width:1px;stroke-linecap:butt;stroke-linejoin:miter;stroke-opacity:1" d="M 755.241,178.686 747.095,174.161 z" id="boundary" inkscape:connector-curvature="0" />
	<path style="fill:none;stroke:red;stroke-width:1px;stroke-linecap:butt;stroke-linejoin:miter;stroke-opacity:1" d="M 747.095,174.161 738.044,171.445 z" id="boundary" inkscape:connector-curvature="0" />
	<path style="fill:none;stroke:red;stroke-width:1px;stroke-linecap:butt;stroke-linejoin:miter;stroke-opacity:1" d="M 738.044,171.445 729.898,166.92 z" id="boundary" inkscape:connector-curvature="0" />
	<path style="fill:none;stroke:red;stroke-width:1px;stroke-linecap:butt;stroke-linejoin:miter;stroke-opacity:1" d="M 729.898,166.92 721.752,162.394 z" id="boundary" inkscape:connector-curvature="0" />
	<path style="fill:none;stroke:red;stroke-width:1px;stroke-linecap:butt;stroke-linejoin:miter;stroke-opacity:1" d="M 721.752,162.394 712.701,162.394 z" id="boundary" inkscape:connector-curvature="0" />
	<path style="fill:none;stroke:red;stroke-width:1px;stroke-linecap:butt;stroke-linejoin:miter;stroke-opacity:1" d="M 712.701,162.394 704.555,157.869 z" id="boundary" inkscape:connector-curvature="0" />
	<path style="fill:none;stroke:red;stroke-width:1px;stroke-linecap:butt;stroke-linejoin:miter;stroke-opacity:1" d="M 704.555,157.869 695.504,154.248 z" id="boundary" inkscape:connector-curvature="0" />
	<path style="fill:none;stroke:red;stroke-width:1px;stroke-linecap:butt;stroke-linejoin:miter;stroke-opacity:1" d="M 695.504,154.248 686.453,153.343 z" id="boundary" inkscape:connector-curvature="0" />
	<path style="fill:none;stroke:red;stroke-width:1px;stroke-linecap:butt;stroke-linejoin:miter;stroke-opacity:1" d="M 686.453,153.343 677.401,149.723 z" id="boundary" inkscape:connector-curvature="0" />
	<path style="fill:none;stroke:red;stroke-width:1px;stroke-linecap:butt;stroke-linejoin:miter;stroke-opacity:1" d="M 677.401,149.723 668.35,148.818 z" id="boundary" inkscape:connector-curvature="0" />
	<path style="fill:none;stroke:red;stroke-width:1px;stroke-linecap:butt;stroke-linejoin:miter;stroke-opacity:1" d="M 668.35,148.818 659.299,145.197 z" id="boundary" inkscape:connector-curvature="0" />
	<path style="fill:none;stroke:red;stroke-width:1px;stroke-linecap:butt;stroke-linejoin:miter;stroke-opacity:1" d="M 659.299,145.197 650.248,144.292 z" id="boundary" inkscape:connector-curvature="0" />
	<path style="fill:none;stroke:red;stroke-width:1px;stroke-linecap:butt;stroke-linejoin:miter;stroke-opacity:1" d="M 650.248,144.292 641.197,144.292 z" id="boundary" inkscape:connector-curvature="0" />
	<path style="fill:none;stroke:red;stroke-width:1px;stroke-linecap:butt;stroke-linejoin:miter;stroke-opacity:1" d="M 641.197,144.292 633.051,139.766 z" id="boundary" inkscape:connector-curvature="0" />
	<path style="fill:none;stroke:red;stroke-width:1px;stroke-linecap:butt;stroke-linejoin:miter;stroke-opacity:1" d="M 633.051,139.766 624,139.766 z" id="boundary" inkscape:connector-curvature="0" />
	<path style="fill:none;stroke:red;stroke-width:1px;stroke-linecap:butt;stroke-linejoin:miter;stroke-opacity:1" d="M 624,139.766 614.949,139.766 z" id="boundary" inkscape:connector-curvature="0" />
	<path style="fill:none;stroke:red;stroke-width:1px;stroke-linecap:butt;stroke-linejoin:miter;stroke-opacity:1" d="M 614.949,139.766 605.898,139.766 z" id="boundary" inkscape:connector-curvature="0" />
	<path style="fill:none;stroke:red;stroke-width:1px;stroke-linecap:butt;stroke-linejoin:miter;stroke-opacity:1" d="M 605.898,139.766 597.752,135.241 z" id="boundary" inkscape:connector-curvature="0" />
	<path style="fill:none;stroke:red;stroke-width:1px;stroke-linecap:butt;stroke-linejoin:miter;stroke-opacity:1" d="M 597.752,135.241 588.701,135.241 z" id="boundary" inkscape:connector-curvature="0" />
	<path style="fill:none;stroke:red;stroke-width:1px;stroke-linecap:butt;stroke-linejoin:miter;stroke-opacity:1" d="M 588.701,135.241 579.65,135.241 z" id="boundary" inkscape:connector-curvature="0" />
	<path style="fill:none;stroke:red;stroke-width:1px;stroke-linecap:butt;stroke-linejoin:miter;stroke-opacity:1" d="M 579.65,135.241 570.599,135.241 z" id="boundary" inkscape:connector-curvature="0" />
	<path style="fill:none;stroke:red;stroke-width:1px;stroke-linecap:butt;stroke-linejoin:miter;stroke-opacity:1" d="M 570.599,135.241 561.547,135.241 z" id="boundary" inkscape:connector-curvature="0" />
	<path style="fill:none;stroke:red;stroke-width:1px;stroke-linecap:butt;stroke-linejoin:miter;stroke-opacity:1" d="M 561.547,135.241 552.496,135.241 z" id="boundary" inkscape:connector-curvature="0" />
	<path style="fill:none;stroke:red;stroke-width:1px;stroke-linecap:butt;stroke-linejoin:miter;stroke-opacity:1" d="M 552.496,135.241 543.445,135.241 z" id="boundary" inkscape:connector-curvature="0" />
	<path style="fill:none;stroke:red;stroke-width:1px;stroke-linecap:butt;stroke-linejoin:miter;stroke-opacity:1" d="M 543.445,135.241 534.394,135.241 z" id="boundary" inkscape:connector-curvature="0" />
	<path style="fill:none;stroke:red;stroke-width:1px;stroke-linecap:butt;stroke-linejoin:miter;stroke-opacity:1" d="M 534.394,135.241 525.343,135.241 z" id="boundary" inkscape:connector-curvature="0" />
	<path style="fill:none;stroke:red;stroke-width:1px;stroke-linecap:butt;stroke-linejoin:miter;stroke-opacity:1" d="M 525.343,135.241 516.292,135.241 z" id="boundary" inkscape:connector-curvature="0" />
	<path style="fill:none;stroke:red;stroke-width:1px;stroke-linecap:butt;stroke-linejoin:miter;stroke-opacity:1" d="M 516.292,135.241 507.241,135.241 z" id="boundary" inkscape:connector-curvature="0" />
	<path style="fill:none;stroke:red;stroke-width:1px;stroke-linecap:butt;stroke-linejoin:miter;stroke-opacity:1" d="M 507.241,135.241 507.241,126.19 z" id="boundary" inkscape:connector-curvature="0" />
	<path style="fill:none;stroke:red;stroke-width:1px;stroke-linecap:butt;stroke-linejoin:miter;stroke-opacity:1" d="M 507.241,126.19 507.241,117.139 z" id="boundary" inkscape:connector-curvature="0" />
	<path style="fill:none;stroke:red;stroke-width:1px;stroke-linecap:butt;stroke-linejoin:miter;stroke-opacity:1" d="M 507.241,117.139 507.241,108.088 z" id="boundary" inkscape:connector-curvature="0" />
	<path style="fill:none;stroke:red;stroke-width:1px;stroke-linecap:butt;stroke-linejoin:miter;stroke-opacity:1" d="M 507.241,108.088 507.241,99.0365 z" id="boundary" inkscape:connector-curvature="0" />
	<path style="fill:none;stroke:red;stroke-width:1px;stroke-linecap:butt;stroke-linejoin:miter;stroke-opacity:1" d="M 507.241,99.0365 507.241,89.9854 z" id="boundary" inkscape:connector-curvature="0" />
	<path style="fill:none;stroke:red;stroke-width:1px;stroke-linecap:butt;stroke-linejoin:miter;stroke-opacity:1" d="M 507.241,89.9854 507.241,80.9343 z" id="boundary" inkscape:connector-curvature="0" />
	<path style="fill:none;stroke:red;stroke-width:1px;stroke-linecap:butt;stroke-linejoin:miter;stroke-opacity:1" d="M 507.241,80.9343 507.241,71.8832 z" id="boundary" inkscape:connector-curvature="0" />
	<path style="fill:none;stroke:red;stroke-width:1px;stroke-linecap:butt;stroke-linejoin:miter;stroke-opacity:1" d="M 507.241,71.8832 502.715,63.7372 z" id="boundary" inkscape:connector-curvature="0" />
	<path style="fill:none;stroke:red;stroke-width:1px;stroke-linecap:butt;stroke-linejoin:miter;stroke-opacity:1" d="M 502.715,63.7372 502.715,54.6861 z" id="boundary" inkscape:connector-curvature="0" />
	<path style="fill:none;stroke:red;stroke-width:1px;stroke-linecap:butt;stroke-linejoin:miter;stroke-opacity:1" d="M 502.715,54.6861 502.715,45.635 z" id="boundary" inkscape:connector-curvature="0" />
	<path style="fill:none;stroke:red;stroke-width:1px;stroke-linecap:butt;stroke-linejoin:miter;stroke-opacity:1" d="M 502.715,45.635 498.19,37.4891 z" id="boundary" inkscape:connector-curvature="0" />
	<path style="fill:none;stroke:red;stroke-width:1px;stroke-linecap:butt;stroke-linejoin:miter;stroke-opacity:1" d="M 498.19,37.4891 498.19,28.438 z" id="boundary" inkscape:connector-curvature="0" />
	<path style="fill:none;stroke:red;stroke-width:1px;stroke-linecap:butt;stroke-linejoin:miter;stroke-opacity:1" d="M 498.19,28.438 493.664,20.292 z" id="boundary" inkscape:connector-curvature="0" />
	<path style="fill:none;stroke:red;stroke-width:1px;stroke-linecap:butt;stroke-linejoin:miter;stroke-opacity:1" d="M 493.664,20.292 488.234,13.0511 z" id="boundary" inkscape:connector-curvature="0" />
	<path style="fill:none;stroke:red;stroke-width:1px;stroke-linecap:butt;stroke-linejoin:miter;stroke-opacity:1" d="M 488.234,13.0511 479.182,15.7664 z" id="boundary" inkscape:connector-curvature="0" />
	<path style="fill:none;stroke:red;stroke-width:1px;stroke-linecap:butt;stroke-linejoin:miter;stroke-opacity:1" d="M 479.182,15.7664 479.182,24.8175 z" id="boundary" inkscape:connector-curvature="0" />
	<path style="fill:none;stroke:red;stroke-width:1px;stroke-linecap:butt;stroke-linejoin:miter;stroke-opacity:1" d="M 479.182,24.8175 479.182,33.8686 z" id="boundary" inkscape:connector-curvature="0" />
	<path style="fill:none;stroke:red;stroke-width:1px;stroke-linecap:butt;stroke-linejoin:miter;stroke-opacity:1" d="M 479.182,33.8686 483.708,42.0146 z" id="boundary" inkscape:connector-curvature="0" />
	<path style="fill:none;stroke:red;stroke-width:1px;stroke-linecap:butt;stroke-linejoin:miter;stroke-opacity:1" d="M 483.708,42.0146 483.708,51.0657 z" id="boundary" inkscape:connector-curvature="0" />
	<path style="fill:none;stroke:red;stroke-width:1px;stroke-linecap:butt;stroke-linejoin:miter;stroke-opacity:1" d="M 483.708,51.0657 483.708,60.1168 z" id="boundary" inkscape:connector-curvature="0" />
	<path style="fill:none;stroke:red;stroke-width:1px;stroke-linecap:butt;stroke-linejoin:miter;stroke-opacity:1" d="M 483.708,60.1168 488.234,68.2628 z" id="boundary" inkscape:connector-curvature="0" />
	<path style="fill:none;stroke:red;stroke-width:1px;stroke-linecap:butt;stroke-linejoin:miter;stroke-opacity:1" d="M 488.234,68.2628 488.234,77.3139 z" id="boundary" inkscape:connector-curvature="0" />
	<path style="fill:none;stroke:red;stroke-width:1px;stroke-linecap:butt;stroke-linejoin:miter;stroke-opacity:1" d="M 488.234,77.3139 488.234,86.365 z" id="boundary" inkscape:connector-curvature="0" />
	<path style="fill:none;stroke:red;stroke-width:1px;stroke-linecap:butt;stroke-linejoin:miter;stroke-opacity:1" d="M 488.234,86.365 475.562,89.0803 z" id="boundary" inkscape:connector-curvature="0" />
	<path style="fill:none;stroke:red;stroke-width:1px;stroke-linecap:butt;stroke-linejoin:miter;stroke-opacity:1" d="M 475.562,89.0803 480.088,97.2263 z" id="boundary" inkscape:connector-curvature="0" />
	<path style="fill:none;stroke:red;stroke-width:1px;stroke-linecap:butt;stroke-linejoin:miter;stroke-opacity:1" d="M 480.088,97.2263 483.708,106.277 z" id="boundary" inkscape:connector-curvature="0" />
	<path style="fill:none;stroke:red;stroke-width:1px;stroke-linecap:butt;stroke-linejoin:miter;stroke-opacity:1" d="M 483.708,106.277 484.613,115.328 z" id="boundary" inkscape:connector-curvature="0" />
	<path style="fill:none;stroke:red;stroke-width:1px;stroke-linecap:butt;stroke-linejoin:miter;stroke-opacity:1" d="M 450.219,131.62 471.036,80.9343 z" id="boundary" inkscape:connector-curvature="0" />
	<path style="fill:none;stroke:red;stroke-width:1px;stroke-linecap:butt;stroke-linejoin:miter;stroke-opacity:1" d="M 471.036,80.9343 465.606,73.6934 z" id="boundary" inkscape:connector-curvature="0" />
	<path style="fill:none;stroke:red;stroke-width:1px;stroke-linecap:butt;stroke-linejoin:miter;stroke-opacity:1" d="M 465.606,73.6934 461.08,65.5474 z" id="boundary" inkscape:connector-curvature="0" />
	<path style="fill:none;stroke:red;stroke-width:1px;stroke-linecap:butt;stroke-linejoin:miter;stroke-opacity:1" d="M 461.08,65.5474 457.46,56.4964 z" id="boundary" inkscape:connector-curvature="0" />
	<path style="fill:none;stroke:red;stroke-width:1px;stroke-linecap:butt;stroke-linejoin:miter;stroke-opacity:1" d="M 457.46,56.4964 450.219,50.1606 z" id="boundary" inkscape:connector-curvature="0" />
	<path style="fill:none;stroke:red;stroke-width:1px;stroke-linecap:butt;stroke-linejoin:miter;stroke-opacity:1" d="M 450.219,50.1606 443.883,42.9197 z" id="boundary" inkscape:connector-curvature="0" />
	<path style="fill:none;stroke:red;stroke-width:1px;stroke-linecap:butt;stroke-linejoin:miter;stroke-opacity:1" d="M 443.883,42.9197 436.642,36.5839 z" id="boundary" inkscape:connector-curvature="0" />
	<path style="fill:none;stroke:red;stroke-width:1px;stroke-linecap:butt;stroke-linejoin:miter;stroke-opacity:1" d="M 436.642,36.5839 430.307,29.3431 z" id="boundary" inkscape:connector-curvature="0" />
	<path style="fill:none;stroke:red;stroke-width:1px;stroke-linecap:butt;stroke-linejoin:miter;stroke-opacity:1" d="M 430.307,29.3431 423.066,23.0073 z" id="boundary" inkscape:connector-curvature="0" />
	<path style="fill:none;stroke:red;stroke-width:1px;stroke-linecap:butt;stroke-linejoin:miter;stroke-opacity:1" d="M 423.066,23.0073 415.825,17.5766 z" id="boundary" inkscape:connector-curvature="0" />
	<path style="fill:none;stroke:red;stroke-width:1px;stroke-linecap:butt;stroke-linejoin:miter;stroke-opacity:1" d="M 415.825,17.5766 407.679,13.0511 z" id="boundary" inkscape:connector-curvature="0" />
	<path style="fill:none;stroke:red;stroke-width:1px;stroke-linecap:butt;stroke-linejoin:miter;stroke-opacity:1" d="M 407.679,13.0511 398.628,11.2409 z" id="boundary" inkscape:connector-curvature="0" />
	<path style="fill:none;stroke:red;stroke-width:1px;stroke-linecap:butt;stroke-linejoin:miter;stroke-opacity:1" d="M 398.628,11.2409 389.577,8.52555 z" id="boundary" inkscape:connector-curvature="0" />
	<path style="fill:none;stroke:red;stroke-width:1px;stroke-linecap:butt;stroke-linejoin:miter;stroke-opacity:1" d="M 389.577,8.52555 381.431,4 z" id="boundary" inkscape:connector-curvature="0" />
	<path style="fill:none;stroke:red;stroke-width:1px;stroke-linecap:butt;stroke-linejoin:miter;stroke-opacity:1" d="M 381.431,4 372.38,4 z" id="boundary" inkscape:connector-curvature="0" />
	<path style="fill:none;stroke:red;stroke-width:1px;stroke-linecap:butt;stroke-linejoin:miter;stroke-opacity:1" d="M 372.38,4 363.328,4 z" id="boundary" inkscape:connector-curvature="0" />
	<path style="fill:none;stroke:red;stroke-width:1px;stroke-linecap:butt;stroke-linejoin:miter;stroke-opacity:1" d="M 363.328,4 354.277,4 z" id="boundary" inkscape:connector-curvature="0" />
	<path style="fill:none;stroke:red;stroke-width:1px;stroke-linecap:butt;stroke-linejoin:miter;stroke-opacity:1" d="M 354.277,4 345.226,4.90511 z" id="boundary" inkscape:connector-curvature="0" />
	<path style="fill:none;stroke:red;stroke-width:1px;stroke-linecap:butt;stroke-linejoin:miter;stroke-opacity:1" d="M 345.226,4.90511 336.175,8.52555 z" id="boundary" inkscape:connector-curvature="0" />
	<path style="fill:none;stroke:red;stroke-width:1px;stroke-linecap:butt;stroke-linejoin:miter;stroke-opacity:1" d="M 336.175,8.52555 328.029,13.0511 z" id="boundary" inkscape:connector-curvature="0" />
	<path style="fill:none;stroke:red;stroke-width:1px;stroke-linecap:butt;stroke-linejoin:miter;stroke-opacity:1" d="M 328.029,13.0511 320.788,20.292 z" id="boundary" inkscape:connector-curvature="0" />
	<path style="fill:none;stroke:red;stroke-width:1px;stroke-linecap:butt;stroke-linejoin:miter;stroke-opacity:1" d="M 320.788,20.292 320.788,29.3431 z" id="boundary" inkscape:connector-curvature="0" />
	<path style="fill:none;stroke:red;stroke-width:1px;stroke-linecap:butt;stroke-linejoin:miter;stroke-opacity:1" d="M 320.788,29.3431 320.788,38.3942 z" id="boundary" inkscape:connector-curvature="0" />
	<path style="fill:none;stroke:red;stroke-width:1px;stroke-linecap:butt;stroke-linejoin:miter;stroke-opacity:1" d="M 320.788,38.3942 325.314,46.5401 z" id="boundary" inkscape:connector-curvature="0" />
	<path style="fill:none;stroke:red;stroke-width:1px;stroke-linecap:butt;stroke-linejoin:miter;stroke-opacity:1" d="M 325.314,46.5401 329.839,54.6861 z" id="boundary" inkscape:connector-curvature="0" />
	<path style="fill:none;stroke:red;stroke-width:1px;stroke-linecap:butt;stroke-linejoin:miter;stroke-opacity:1" d="M 329.839,54.6861 332.555,63.7372 z" id="boundary" inkscape:connector-curvature="0" />
	<path style="fill:none;stroke:red;stroke-width:1px;stroke-linecap:butt;stroke-linejoin:miter;stroke-opacity:1" d="M 332.555,63.7372 337.08,71.8832 z" id="boundary" inkscape:connector-curvature="0" />
	<path style="fill:none;stroke:red;stroke-width:1px;stroke-linecap:butt;stroke-linejoin:miter;stroke-opacity:1" d="M 337.08,71.8832 340.701,80.9343 z" id="boundary" inkscape:connector-curvature="0" />
	<path style="fill:none;stroke:red;stroke-width:1px;stroke-linecap:butt;stroke-linejoin:miter;stroke-opacity:1" d="M 340.701,80.9343 347.942,86.365 z" id="boundary" inkscape:connector-curvature="0" />
	<path style="fill:none;stroke:red;stroke-width:1px;stroke-linecap:butt;stroke-linejoin:miter;stroke-opacity:1" d="M 347.942,86.365 353.372,93.6058 z" id="boundary" inkscape:connector-curvature="0" />
	<path style="fill:none;stroke:red;stroke-width:1px;stroke-linecap:butt;stroke-linejoin:miter;stroke-opacity:1" d="M 353.372,93.6058 360.613,99.9416 z" id="boundary" inkscape:connector-curvature="0" />
	<path style="fill:none;stroke:red;stroke-width:1px;stroke-linecap:butt;stroke-linejoin:miter;stroke-opacity:1" d="M 360.613,99.9416 368.759,104.467 z" id="boundary" inkscape:connector-curvature="0" />
	<path style="fill:none;stroke:red;stroke-width:1px;stroke-linecap:butt;stroke-linejoin:miter;stroke-opacity:1" d="M 368.759,104.467 376.905,108.993 z" id="boundary" inkscape:connector-curvature="0" />
	<path style="fill:none;stroke:red;stroke-width:1px;stroke-linecap:butt;stroke-linejoin:miter;stroke-opacity:1" d="M 376.905,108.993 384.146,114.423 z" id="boundary" inkscape:connector-curvature="0" />
	<path style="fill:none;stroke:red;stroke-width:1px;stroke-linecap:butt;stroke-linejoin:miter;stroke-opacity:1" d="M 384.146,114.423 393.197,118.044 z" id="boundary" inkscape:connector-curvature="0" />
	<path style="fill:none;stroke:red;stroke-width:1px;stroke-linecap:butt;stroke-linejoin:miter;stroke-opacity:1" d="M 393.197,118.044 401.343,122.569 z" id="boundary" inkscape:connector-curvature="0" />
	<circle cx="4" cy="486.423" r="4" fill="#0" id="circle0"/>
	<circle cx="4" cy="495.474" r="4" fill="#0" id="circle1"/>
	<circle cx="4" cy="504.526" r="4" fill="#0" id="circle2"/>
	<circle cx="4" cy="513.577" r="4" fill="#0" id="circle3"/>
	<circle cx="4" cy="522.628" r="4" fill="#0" id="circle4"/>
	<circle cx="4" cy="531.679" r="4" fill="#0" id="circle5"/>
	<circle cx="4" cy="540.73" r="4" fill="#0" id="circle6"/>
	<circle cx="4" cy="549.781" r="4" fill="#0" id="circle7"/>
	<circle cx="4" cy="558.832" r="4" fill="#0" id="circle8"/>
	<circle cx="8.52555" cy="459.27" r="4" fill="#0" id="circle9"/>
	<circle cx="8.52555" cy="468.321" r="4" fill="#0" id="circle10"/>
	<circle cx="8.52555" cy="477.372" r="4" fill="#0" id="circle11"/>
	<circle cx="8.52555" cy="566.978" r="4" fill="#0" id="circle12"/>
	<circle cx="8.52555" cy="576.029" r="4" fill="#0" id="circle13"/>
	<circle cx="8.52555" cy="585.08" r="4" fill="#0" id="circle14"/>
	<circle cx="13.0511" cy="436.642" r="4" fill="#0" id="circle15"/>
	<circle cx="13.0511" cy="445.693" r="4" fill="#0" id="circle16"/>
	<circle cx="13.0511" cy="593.226" r="4" fill="#0" id="circle17"/>
	<circle cx="13.0511" cy="602.277" r="4" fill="#0" id="circle18"/>
	<circle cx="15.7664" cy="611.328" r="4" fill="#0" id="circle19"/>
	<circle cx="17.5766" cy="423.066" r="4" fill="#0" id="circle20"/>
	<circle cx="17.5766" cy="620.38" r="4" fill="#0" id="circle21"/>
	<circle cx="22.1022" cy="409.489" r="4" fill="#0" id="circle22"/>
	<circle cx="22.1022" cy="628.526" r="4" fill="#0" id="circle23"/>
	<circle cx="23.9124" cy="637.577" r="4" fill="#0" id="circle24"/>
	<circle cx="26.6277" cy="395.912" r="4" fill="#0" id="circle25"/>
	<circle cx="26.6277" cy="646.628" r="4" fill="#0" id="circle26"/>
	<circle cx="31.1533" cy="386.861" r="4" fill="#0" id="circle27"/>
	<circle cx="31.1533" cy="654.774" r="4" fill="#0" id="circle28"/>
	<circle cx="35.6788" cy="377.81" r="4" fill="#0" id="circle29"/>
	<circle cx="35.6788" cy="662.92" r="4" fill="#0" id="circle30"/>
	<circle cx="40.2044" cy="368.759" r="4" fill="#0" id="circle31"/>
	<circle cx="40.2044" cy="671.066" r="4" fill="#0" id="circle32"/>
	<circle cx="44.7299" cy="359.708" r="4" fill="#0" id="circle33"/>
	<circle cx="44.7299" cy="679.212" r="4" fill="#0" id="circle34"/>
	<circle cx="47.4453" cy="688.263" r="4" fill="#0" id="circle35"/>
	<circle cx="49.2555" cy="350.657" r="4" fill="#0" id="circle36"/>
	<circle cx="51.9708" cy="696.409" r="4" fill="#0" id="circle37"/>
	<circle cx="53.781" cy="341.606" r="4" fill="#0" id="circle38"/>
	<circle cx="55.5912" cy="705.46" r="4" fill="#0" id="circle39"/>
	<circle cx="61.0219" cy="334.365" r="4" fill="#0" id="circle40"/>
	<circle cx="62.8321" cy="710.891" r="4" fill="#0" id="circle41"/>
	<circle cx="65.5474" cy="325.314" r="4" fill="#0" id="circle42"/>
	<circle cx="65.5474" cy="719.942" r="4" fill="#0" id="circle43"/>
	<circle cx="71.8832" cy="314.453" r="4" fill="#0" id="circle44"/>
	<circle cx="71.8832" cy="727.182" r="4" fill="#0" id="circle45"/>
	<circle cx="76.4088" cy="735.328" r="4" fill="#0" id="circle46"/>
	<circle cx="79.1241" cy="307.212" r="4" fill="#0" id="circle47"/>
	<circle cx="83.6496" cy="741.664" r="4" fill="#0" id="circle48"/>
	<circle cx="85.4599" cy="296.35" r="4" fill="#0" id="circle49"/>
	<circle cx="87.2701" cy="750.715" r="4" fill="#0" id="circle50"/>
	<circle cx="92.7007" cy="289.109" r="4" fill="#0" id="circle51"/>
	<circle cx="94.5109" cy="756.146" r="4" fill="#0" id="circle52"/>
	<circle cx="99.9416" cy="281.869" r="4" fill="#0" id="circle53"/>
	<circle cx="99.9416" cy="763.387" r="4" fill="#0" id="circle54"/>
	<circle cx="107.182" cy="275.533" r="4" fill="#0" id="circle55"/>
	<circle cx="107.182" cy="769.723" r="4" fill="#0" id="circle56"/>
	<circle cx="113.518" cy="268.292" r="4" fill="#0" id="circle57"/>
	<circle cx="113.518" cy="776.964" r="4" fill="#0" id="circle58"/>
	<circle cx="120.759" cy="261.956" r="4" fill="#0" id="circle59"/>
	<circle cx="120.759" cy="783.299" r="4" fill="#0" id="circle60"/>
	<circle cx="127.095" cy="254.715" r="4" fill="#0" id="circle61"/>
	<circle cx="127.095" cy="790.54" r="4" fill="#0" id="circle62"/>
	<circle cx="134.336" cy="248.38" r="4" fill="#0" id="circle63"/>
	<circle cx="134.336" cy="796.876" r="4" fill="#0" id="circle64"/>
	<circle cx="140.672" cy="241.139" r="4" fill="#0" id="circle65"/>
	<circle cx="140.672" cy="804.117" r="4" fill="#0" id="circle66"/>
	<circle cx="149.723" cy="236.613" r="4" fill="#0" id="circle67"/>
	<circle cx="149.723" cy="807.737" r="4" fill="#0" id="circle68"/>
	<circle cx="156.058" cy="814.978" r="4" fill="#0" id="circle69"/>
	<circle cx="156.964" cy="230.277" r="4" fill="#0" id="circle70"/>
	<circle cx="164.204" cy="819.504" r="4" fill="#0" id="circle71"/>
	<circle cx="165.109" cy="225.752" r="4" fill="#0" id="circle72"/>
	<circle cx="171.445" cy="824.934" r="4" fill="#0" id="circle73"/>
	<circle cx="172.35" cy="218.511" r="4" fill="#0" id="circle74"/>
	<circle cx="177.781" cy="832.175" r="4" fill="#0" id="circle75"/>
	<circle cx="179.591" cy="212.175" r="4" fill="#0" id="circle76"/>
	<circle cx="186.832" cy="835.796" r="4" fill="#0" id="circle77"/>
	<circle cx="187.737" cy="207.65" r="4" fill="#0" id="circle78"/>
	<circle cx="194.978" cy="840.321" r="4" fill="#0" id="circle79"/>
	<circle cx="196.788" cy="203.124" r="4" fill="#0" id="circle80"/>
	<circle cx="202.219" cy="846.657" r="4" fill="#0" id="circle81"/>
	<circle cx="204.934" cy="198.599" r="4" fill="#0" id="circle82"/>
	<circle cx="210.365" cy="851.182" r="4" fill="#0" id="circle83"/>
	<circle cx="213.08" cy="194.073" r="4" fill="#0" id="circle84"/>
	<circle cx="219.416" cy="854.803" r="4" fill="#0" id="circle85"/>
	<circle cx="221.226" cy="189.547" r="4" fill="#0" id="circle86"/>
	<circle cx="227.562" cy="859.328" r="4" fill="#0" id="circle87"/>
	<circle cx="229.372" cy="185.022" r="4" fill="#0" id="circle88"/>
	<circle cx="236.613" cy="862.949" r="4" fill="#0" id="circle89"/>
	<circle cx="237.518" cy="180.496" r="4" fill="#0" id="circle90"/>
	<circle cx="244.759" cy="867.474" r="4" fill="#0" id="circle91"/>
	<circle cx="246.569" cy="175.971" r="4" fill="#0" id="circle92"/>
	<circle cx="253.81" cy="871.095" r="4" fill="#0" id="circle93"/>
	<circle cx="255.62" cy="171.445" r="4" fill="#0" id="circle94"/>
	<circle cx="262.861" cy="873.81" r="4" fill="#0" id="circle95"/>
	<circle cx="264.672" cy="171.445" r="4" fill="#0" id="circle96"/>
	<circle cx="271.007" cy="878.336" r="4" fill="#0" id="circle97"/>
	<circle cx="272.818" cy="166.92" r="4" fill="#0" id="circle98"/>
	<circle cx="279.153" cy="882.861" r="4" fill="#0" id="circle99"/>
	<circle cx="280.964" cy="162.394" r="4" fill="#0" id="circle100"/>
	<circle cx="288.204" cy="882.861" r="4" fill="#0" id="circle101"/>
	<circle cx="290.015" cy="159.679" r="4" fill="#0" id="circle102"/>
	<circle cx="296.35" cy="887.387" r="4" fill="#0" id="circle103"/>
	<circle cx="299.066" cy="157.869" r="4" fill="#0" id="circle104"/>
	<circle cx="305.401" cy="891.007" r="4" fill="#0" id="circle105"/>
	<circle cx="307.212" cy="153.343" r="4" fill="#0" id="circle106"/>
	<circle cx="314.453" cy="891.912" r="4" fill="#0" id="circle107"/>
	<circle cx="316.263" cy="153.343" r="4" fill="#0" id="circle108"/>
	<circle cx="320.788" cy="20.292" r="4" fill="#0" id="circle109"/>
	<circle cx="320.788" cy="29.3431" r="4" fill="#0" id="circle110"/>
	<circle cx="320.788" cy="38.3942" r="4" fill="#0" id="circle111"/>
	<circle cx="323.504" cy="895.533" r="4" fill="#0" id="circle112"/>
	<circle cx="324.409" cy="148.818" r="4" fill="#0" id="circle113"/>
	<circle cx="325.314" cy="46.5401" r="4" fill="#0" id="circle114"/>
	<circle cx="328.029" cy="13.0511" r="4" fill="#0" id="circle115"/>
	<circle cx="329.839" cy="54.6861" r="4" fill="#0" id="circle116"/>
	<circle cx="332.555" cy="63.7372" r="4" fill="#0" id="circle117"/>
	<circle cx="332.555" cy="896.438" r="4" fill="#0" id="circle118"/>
	<circle cx="333.46" cy="148.818" r="4" fill="#0" id="circle119"/>
	<circle cx="336.175" cy="8.52555" r="4" fill="#0" id="circle120"/>
	<circle cx="337.08" cy="71.8832" r="4" fill="#0" id="circle121"/>
	<circle cx="340.701" cy="80.9343" r="4" fill="#0" id="circle122"/>
	<circle cx="341.606" cy="144.292" r="4" fill="#0" id="circle123"/>
	<circle cx="341.606" cy="900.058" r="4" fill="#0" id="circle124"/>
	<circle cx="345.226" cy="4.90511" r="4" fill="#0" id="circle125"/>
	<circle cx="347.942" cy="86.365" r="4" fill="#0" id="circle126"/>
	<circle cx="350.657" cy="144.292" r="4" fill="#0" id="circle127"/>
	<circle cx="350.657" cy="900.964" r="4" fill="#0" id="circle128"/>
	<circle cx="353.372" cy="93.6058" r="4" fill="#0" id="circle129"/>
	<circle cx="354.277" cy="4" r="4" fill="#0" id="circle130"/>
	<circle cx="359.708" cy="144.292" r="4" fill="#0" id="circle131"/>
	<circle cx="359.708" cy="900.964" r="4" fill="#0" id="circle132"/>
	<circle cx="360.613" cy="99.9416" r="4" fill="#0" id="circle133"/>
	<circle cx="363.328" cy="4" r="4" fill="#0" id="circle134"/>
	<circle cx="367.854" cy="139.766" r="4" fill="#0" id="circle135"/>
	<circle cx="367.854" cy="905.489" r="4" fill="#0" id="circle136"/>
	<circle cx="368.759" cy="104.467" r="4" fill="#0" id="circle137"/>
	<circle cx="372.38" cy="4" r="4" fill="#0" id="circle138"/>
	<circle cx="376.905" cy="108.993" r="4" fill="#0" id="circle139"/>
	<circle cx="376.905" cy="139.766" r="4" fill="#0" id="circle140"/>
	<circle cx="376.905" cy="905.489" r="4" fill="#0" id="circle141"/>
	<circle cx="381.431" cy="4" r="4" fill="#0" id="circle142"/>
	<circle cx="384.146" cy="114.423" r="4" fill="#0" id="circle143"/>
	<circle cx="385.956" cy="139.766" r="4" fill="#0" id="circle144"/>
	<circle cx="385.956" cy="905.489" r="4" fill="#0" id="circle145"/>
	<circle cx="389.577" cy="8.52555" r="4" fill="#0" id="circle146"/>
	<circle cx="393.197" cy="118.044" r="4" fill="#0" id="circle147"/>
	<circle cx="395.007" cy="139.766" r="4" fill="#0" id="circle148"/>
	<circle cx="395.007" cy="905.489" r="4" fill="#0" id="circle149"/>
	<circle cx="398.628" cy="11.2409" r="4" fill="#0" id="circle150"/>
	<circle cx="401.343" cy="122.569" r="4" fill="#0" id="circle151"/>
	<circle cx="403.153" cy="135.241" r="4" fill="#0" id="circle152"/>
	<circle cx="403.153" cy="910.015" r="4" fill="#0" id="circle153"/>
	<circle cx="407.679" cy="13.0511" r="4" fill="#0" id="circle154"/>
	<circle cx="409.489" cy="127.095" r="4" fill="#0" id="circle155"/>
	<circle cx="412.204" cy="910.015" r="4" fill="#0" id="circle156"/>
	<circle cx="414.015" cy="135.241" r="4" fill="#0" id="circle157"/>
	<circle cx="415.825" cy="17.5766" r="4" fill="#0" id="circle158"/>
	<circle cx="418.54" cy="127.095" r="4" fill="#0" id="circle159"/>
	<circle cx="421.255" cy="910.015" r="4" fill="#0" id="circle160"/>
	<circle cx="423.066" cy="23.0073" r="4" fill="#0" id="circle161"/>
	<circle cx="423.066" cy="135.241" r="4" fill="#0" id="circle162"/>
	<circle cx="427.591" cy="127.095" r="4" fill="#0" id="circle163"/>
	<circle cx="430.307" cy="29.3431" r="4" fill="#0" id="circle164"/>
	<circle cx="430.307" cy="910.015" r="4" fill="#0" id="circle165"/>
	<circle cx="432.117" cy="135.241" r="4" fill="#0" id="circle166"/>
	<circle cx="436.642" cy="36.5839" r="4" fill="#0" id="circle167"/>
	<circle cx="439.358" cy="910.015" r="4" fill="#0" id="circle168"/>
	<circle cx="441.168" cy="131.62" r="4" fill="#0" id="circle169"/>
	<circle cx="443.883" cy="42.9197" r="4" fill="#0" id="circle170"/>
	<circle cx="448.409" cy="910.015" r="4" fill="#0" id="circle171"/>
	<circle cx="450.219" cy="50.1606" r="4" fill="#0" id="circle172"/>
	<circle cx="450.219" cy="131.62" r="4" fill="#0" id="circle173"/>
	<circle cx="457.46" cy="56.4964" r="4" fill="#0" id="circle174"/>
	<circle cx="457.46" cy="910.015" r="4" fill="#0" id="circle175"/>
	<circle cx="461.08" cy="65.5474" r="4" fill="#0" id="circle176"/>
	<circle cx="465.606" cy="73.6934" r="4" fill="#0" id="circle177"/>
	<circle cx="466.511" cy="910.015" r="4" fill="#0" id="circle178"/>
	<circle cx="471.036" cy="80.9343" r="4" fill="#0" id="circle179"/>
	<circle cx="475.562" cy="89.0803" r="4" fill="#0" id="circle180"/>
	<circle cx="475.562" cy="910.015" r="4" fill="#0" id="circle181"/>
	<circle cx="479.182" cy="15.7664" r="4" fill="#0" id="circle182"/>
	<circle cx="479.182" cy="24.8175" r="4" fill="#0" id="circle183"/>
	<circle cx="479.182" cy="33.8686" r="4" fill="#0" id="circle184"/>
	<circle cx="480.088" cy="97.2263" r="4" fill="#0" id="circle185"/>
	<circle cx="483.708" cy="42.0146" r="4" fill="#0" id="circle186"/>
	<circle cx="483.708" cy="51.0657" r="4" fill="#0" id="circle187"/>
	<circle cx="483.708" cy="60.1168" r="4" fill="#0" id="circle188"/>
	<circle cx="483.708" cy="106.277" r="4" fill="#0" id="circle189"/>
	<circle cx="484.613" cy="115.328" r="4" fill="#0" id="circle190"/>
	<circle cx="484.613" cy="910.015" r="4" fill="#0" id="circle191"/>
	<circle cx="488.234" cy="13.0511" r="4" fill="#0" id="circle192"/>
	<circle cx="488.234" cy="68.2628" r="4" fill="#0" id="circle193"/>
	<circle cx="488.234" cy="77.3139" r="4" fill="#0" id="circle194"/>
	<circle cx="488.234" cy="86.365" r="4" fill="#0" id="circle195"/>
	<circle cx="493.664" cy="20.292" r="4" fill="#0" id="circle196"/>
	<circle cx="493.664" cy="905.489" r="4" fill="#0" id="circle197"/>
	<circle cx="498.19" cy="28.438" r="4" fill="#0" id="circle198"/>
	<circle cx="498.19" cy="37.4891" r="4" fill="#0" id="circle199"/>
	<circle cx="502.715" cy="45.635" r="4" fill="#0" id="circle200"/>
	<circle cx="502.715" cy="54.6861" r="4" fill="#0" id="circle201"/>
	<circle cx="502.715" cy="63.7372" r="4" fill="#0" id="circle202"/>
	<circle cx="502.715" cy="905.489" r="4" fill="#0" id="circle203"/>
	<circle cx="507.241" cy="71.8832" r="4" fill="#0" id="circle204"/>
	<circle cx="507.241" cy="80.9343" r="4" fill="#0" id="circle205"/>
	<circle cx="507.241" cy="89.9854" r="4" fill="#0" id="circle206"/>
	<circle cx="507.241" cy="99.0365" r="4" fill="#0" id="circle207"/>
	<circle cx="507.241" cy="108.088" r="4" fill="#0" id="circle208"/>
	<circle cx="507.241" cy="117.139" r="4" fill="#0" id="circle209"/>
	<circle cx="507.241" cy="126.19" r="4" fill="#0" id="circle210"/>
	<circle cx="507.241" cy="135.241" r="4" fill="#0" id="circle211"/>
	<circle cx="510.861" cy="910.015" r="4" fill="#0" id="circle212"/>
	<circle cx="516.292" cy="135.241" r="4" fill="#0" id="circle213"/>
	<circle cx="519.912" cy="910.015" r="4" fill="#0" id="circle214"/>
	<circle cx="525.343" cy="135.241" r="4" fill="#0" id="circle215"/>
	<circle cx="528.964" cy="910.015" r="4" fill="#0" id="circle216"/>
	<circle cx="534.394" cy="135.241" r="4" fill="#0" id="circle217"/>
	<circle cx="538.015" cy="910.015" r="4" fill="#0" id="circle218"/>
	<circle cx="543.445" cy="135.241" r="4" fill="#0" id="circle219"/>
	<circle cx="547.066" cy="910.015" r="4" fill="#0" id="circle220"/>
	<circle cx="552.496" cy="135.241" r="4" fill="#0" id="circle221"/>
	<circle cx="556.117" cy="910.015" r="4" fill="#0" id="circle222"/>
	<circle cx="561.547" cy="135.241" r="4" fill="#0" id="circle223"/>
	<circle cx="565.168" cy="910.015" r="4" fill="#0" id="circle224"/>
	<circle cx="570.599" cy="135.241" r="4" fill="#0" id="circle225"/>
	<circle cx="574.219" cy="910.015" r="4" fill="#0" id="circle226"/>
	<circle cx="579.65" cy="135.241" r="4" fill="#0" id="circle227"/>
	<circle cx="583.27" cy="910.015" r="4" fill="#0" id="circle228"/>
	<circle cx="588.701" cy="135.241" r="4" fill="#0" id="circle229"/>
	<circle cx="592.321" cy="910.015" r="4" fill="#0" id="circle230"/>
	<circle cx="597.752" cy="135.241" r="4" fill="#0" id="circle231"/>
	<circle cx="601.372" cy="907.299" r="4" fill="#0" id="circle232"/>
	<circle cx="605.898" cy="139.766" r="4" fill="#0" id="circle233"/>
	<circle cx="610.423" cy="905.489" r="4" fill="#0" id="circle234"/>
	<circle cx="614.949" cy="139.766" r="4" fill="#0" id="circle235"/>
	<circle cx="619.474" cy="905.489" r="4" fill="#0" id="circle236"/>
	<circle cx="624" cy="139.766" r="4" fill="#0" id="circle237"/>
	<circle cx="628.526" cy="905.489" r="4" fill="#0" id="circle238"/>
	<circle cx="633.051" cy="139.766" r="4" fill="#0" id="circle239"/>
	<circle cx="637.577" cy="902.774" r="4" fill="#0" id="circle240"/>
	<circle cx="641.197" cy="144.292" r="4" fill="#0" id="circle241"/>
	<circle cx="646.628" cy="900.964" r="4" fill="#0" id="circle242"/>
	<circle cx="650.248" cy="144.292" r="4" fill="#0" id="circle243"/>
	<circle cx="655.679" cy="900.964" r="4" fill="#0" id="circle244"/>
	<circle cx="659.299" cy="145.197" r="4" fill="#0" id="circle245"/>
	<circle cx="663.825" cy="896.438" r="4" fill="#0" id="circle246"/>
	<circle cx="668.35" cy="148.818" r="4" fill="#0" id="circle247"/>
	<circle cx="672.876" cy="896.438" r="4" fill="#0" id="circle248"/>
	<circle cx="677.401" cy="149.723" r="4" fill="#0" id="circle249"/>
	<circle cx="681.022" cy="891.912" r="4" fill="#0" id="circle250"/>
	<circle cx="686.453" cy="153.343" r="4" fill="#0" id="circle251"/>
	<circle cx="690.073" cy="891.912" r="4" fill="#0" id="circle252"/>
	<circle cx="695.504" cy="154.248" r="4" fill="#0" id="circle253"/>
	<circle cx="698.219" cy="887.387" r="4" fill="#0" id="circle254"/>
	<circle cx="704.555" cy="157.869" r="4" fill="#0" id="circle255"/>
	<circle cx="707.27" cy="887.387" r="4" fill="#0" id="circle256"/>
	<circle cx="712.701" cy="162.394" r="4" fill="#0" id="circle257"/>
	<circle cx="715.416" cy="882.861" r="4" fill="#0" id="circle258"/>
	<circle cx="721.752" cy="162.394" r="4" fill="#0" id="circle259"/>
	<circle cx="724.467" cy="878.336" r="4" fill="#0" id="circle260"/>
	<circle cx="729.898" cy="166.92" r="4" fill="#0" id="circle261"/>
	<circle cx="733.518" cy="873.81" r="4" fill="#0" id="circle262"/>
	<circle cx="738.044" cy="171.445" r="4" fill="#0" id="circle263"/>
	<circle cx="742.569" cy="873.81" r="4" fill="#0" id="circle264"/>
	<circle cx="747.095" cy="174.161" r="4" fill="#0" id="circle265"/>
	<circle cx="750.715" cy="869.285" r="4" fill="#0" id="circle266"/>
	<circle cx="755.241" cy="178.686" r="4" fill="#0" id="circle267"/>
	<circle cx="758.861" cy="864.759" r="4" fill="#0" id="circle268"/>
	<circle cx="764.292" cy="182.307" r="4" fill="#0" id="circle269"/>
	<circle cx="767.007" cy="860.234" r="4" fill="#0" id="circle270"/>
	<circle cx="772.438" cy="186.832" r="4" fill="#0" id="circle271"/>
	<circle cx="775.153" cy="855.708" r="4" fill="#0" id="circle272"/>
	<circle cx="781.489" cy="190.453" r="4" fill="#0" id="circle273"/>
	<circle cx="783.299" cy="851.182" r="4" fill="#0" id="circle274"/>
	<circle cx="789.635" cy="194.978" r="4" fill="#0" id="circle275"/>
	<circle cx="792.35" cy="846.657" r="4" fill="#0" id="circle276"/>
	<circle cx="798.686" cy="198.599" r="4" fill="#0" id="circle277"/>
	<circle cx="801.401" cy="842.131" r="4" fill="#0" id="circle278"/>
	<circle cx="805.022" cy="205.839" r="4" fill="#0" id="circle279"/>
	<circle cx="809.547" cy="837.606" r="4" fill="#0" id="circle280"/>
	<circle cx="814.073" cy="209.46" r="4" fill="#0" id="circle281"/>
	<circle cx="817.693" cy="833.08" r="4" fill="#0" id="circle282"/>
	<circle cx="822.219" cy="213.985" r="4" fill="#0" id="circle283"/>
	<circle cx="825.839" cy="827.65" r="4" fill="#0" id="circle284"/>
	<circle cx="828.555" cy="221.226" r="4" fill="#0" id="circle285"/>
	<circle cx="833.08" cy="819.504" r="4" fill="#0" id="circle286"/>
	<circle cx="836.701" cy="225.752" r="4" fill="#0" id="circle287"/>
	<circle cx="842.131" cy="814.978" r="4" fill="#0" id="circle288"/>
	<circle cx="843.942" cy="231.182" r="4" fill="#0" id="circle289"/>
	<circle cx="849.372" cy="808.642" r="4" fill="#0" id="circle290"/>
	<circle cx="851.182" cy="237.518" r="4" fill="#0" id="circle291"/>
	<circle cx="858.423" cy="804.117" r="4" fill="#0" id="circle292"/>
	<circle cx="859.328" cy="242.044" r="4" fill="#0" id="circle293"/>
	<circle cx="864.759" cy="796.876" r="4" fill="#0" id="circle294"/>
	<circle cx="866.569" cy="248.38" r="4" fill="#0" id="circle295"/>
	<circle cx="872" cy="790.54" r="4" fill="#0" id="circle296"/>
	<circle cx="872.905" cy="255.62" r="4" fill="#0" id="circle297"/>
	<circle cx="878.336" cy="783.299" r="4" fill="#0" id="circle298"/>
	<circle cx="880.146" cy="261.956" r="4" fill="#0" id="circle299"/>
	<circle cx="885.577" cy="776.964" r="4" fill="#0" id="circle300"/>
	<circle cx="886.482" cy="269.197" r="4" fill="#0" id="circle301"/>
	<circle cx="891.912" cy="769.723" r="4" fill="#0" id="circle302"/>
	<circle cx="893.723" cy="275.533" r="4" fill="#0" id="circle303"/>
	<circle cx="899.153" cy="763.387" r="4" fill="#0" id="circle304"/>
	<circle cx="900.058" cy="282.774" r="4" fill="#0" id="circle305"/>
	<circle cx="905.489" cy="756.146" r="4" fill="#0" id="circle306"/>
	<circle cx="907.299" cy="289.109" r="4" fill="#0" id="circle307"/>
	<circle cx="912.73" cy="749.81" r="4" fill="#0" id="circle308"/>
	<circle cx="913.635" cy="296.35" r="4" fill="#0" id="circle309"/>
	<circle cx="917.255" cy="740.759" r="4" fill="#0" id="circle310"/>
	<circle cx="918.161" cy="304.496" r="4" fill="#0" id="circle311"/>
	<circle cx="923.591" cy="311.737" r="4" fill="#0" id="circle312"/>
	<circle cx="923.591" cy="733.518" r="4" fill="#0" id="circle313"/>
	<circle cx="928.117" cy="319.883" r="4" fill="#0" id="circle314"/>
	<circle cx="928.117" cy="724.467" r="4" fill="#0" id="circle315"/>
	<circle cx="935.358" cy="326.219" r="4" fill="#0" id="circle316"/>
	<circle cx="935.358" cy="718.131" r="4" fill="#0" id="circle317"/>
	<circle cx="938.978" cy="335.27" r="4" fill="#0" id="circle318"/>
	<circle cx="939.883" cy="709.08" r="4" fill="#0" id="circle319"/>
	<circle cx="946.219" cy="341.606" r="4" fill="#0" id="circle320"/>
	<circle cx="946.219" cy="697.314" r="4" fill="#0" id="circle321"/>
	<circle cx="949.839" cy="350.657" r="4" fill="#0" id="circle322"/>
	<circle cx="950.745" cy="688.263" r="4" fill="#0" id="circle323"/>
	<circle cx="954.365" cy="358.803" r="4" fill="#0" id="circle324"/>
	<circle cx="955.27" cy="679.212" r="4" fill="#0" id="circle325"/>
	<circle cx="957.985" cy="367.854" r="4" fill="#0" id="circle326"/>
	<circle cx="959.796" cy="670.161" r="4" fill="#0" id="circle327"/>
	<circle cx="962.511" cy="376" r="4" fill="#0" id="circle328"/>
	<circle cx="964.321" cy="661.109" r="4" fill="#0" id="circle329"/>
	<circle cx="966.131" cy="385.051" r="4" fill="#0" id="circle330"/>
	<circle cx="968.847" cy="652.058" r="4" fill="#0" id="circle331"/>
	<circle cx="970.657" cy="393.197" r="4" fill="#0" id="circle332"/>
	<circle cx="973.372" cy="402.248" r="4" fill="#0" id="circle333"/>
	<circle cx="973.372" cy="638.482" r="4" fill="#0" id="circle334"/>
	<circle cx="977.898" cy="410.394" r="4" fill="#0" id="circle335"/>
	<circle cx="977.898" cy="419.445" r="4" fill="#0" id="circle336"/>
	<circle cx="977.898" cy="624.905" r="4" fill="#0" id="circle337"/>
	<circle cx="982.423" cy="427.591" r="4" fill="#0" id="circle338"/>
	<circle cx="982.423" cy="611.328" r="4" fill="#0" id="circle339"/>
	<circle cx="986.044" cy="436.642" r="4" fill="#0" id="circle340"/>
	<circle cx="986.949" cy="445.693" r="4" fill="#0" id="circle341"/>
	<circle cx="986.949" cy="454.745" r="4" fill="#0" id="circle342"/>
	<circle cx="986.949" cy="588.701" r="4" fill="#0" id="circle343"/>
	<circle cx="986.949" cy="597.752" r="4" fill="#0" id="circle344"/>
	<circle cx="991.474" cy="462.891" r="4" fill="#0" id="circle345"/>
	<circle cx="991.474" cy="471.942" r="4" fill="#0" id="circle346"/>
	<circle cx="991.474" cy="480.993" r="4" fill="#0" id="circle347"/>
	<circle cx="991.474" cy="561.547" r="4" fill="#0" id="circle348"/>
	<circle cx="991.474" cy="570.599" r="4" fill="#0" id="circle349"/>
	<circle cx="991.474" cy="579.65" r="4" fill="#0" id="circle350"/>
	<circle cx="996" cy="489.139" r="4" fill="#0" id="circle351"/>
	<circle cx="996" cy="498.19" r="4" fill="#0" id="circle352"/>
	<circle cx="996" cy="507.241" r="4" fill="#0" id="circle353"/>
	<circle cx="996" cy="516.292" r="4" fill="#0" id="circle354"/>
	<circle cx="996" cy="525.343" r="4" fill="#0" id="circle355"/>
	<circle cx="996" cy="534.394" r="4" fill="#0" id="circle356"/>
	<circle cx="996" cy="543.445" r="4" fill="#0" id="circle357"/>
	<circle cx="996" cy="552.496" r="4" fill="#0" id="circle358"/>
	</g>
</svg>