<?xml version="1.0" encoding="UTF-8" standalone="no"?>
<!-- Created with CurveBenchmark -->
<svg
	xmlns:dc="http://purl.org/dc/elements/1.1/"
	xmlns:cc="http://creativecommons.org/ns#"
	xmlns:rdf="http://www.w3.org/1999/02/22-rdf-syntax-ns#"
	xmlns:svg="http://www.w3.org/2000/svg"
	xmlns="http://www.w3.org/2000/svg"
	xmlns:sodipodi="http://sodipodi.sourceforge.net/DTD/sodipodi-0.dtd"
	xmlns:inkscape="http://www.inkscape.org/namespaces/inkscape"
	width="1000"
	height="1000"
	id="svg2"
	version="1.1"
	sodipodi:docname="manifold/crawl-hammer24.png.txt">
<defs
	id="defs4" />
<metadata
	id="metadata7">
	<rdf:RDF>
		<cc:Work
			rdf:about="">
			<dc:format>image/svg+xml</dc:format>
			<dc:type
				rdf:resource="http://purl.org/dc/dcmitype/StillImage" />
			<dc:title></dc:title>
		</cc:Work>
	</rdf:RDF>
</metadata>
<g
	inkscape:label="Layer 1"
	inkscape:groupmode="layer"
	id="layer1">
	<path style="fill:none;stroke:red;stroke-width:1px;stroke-linecap:butt;stroke-linejoin:miter;stroke-opacity:1" d="M 43.1579,58.386 21.4035,58.386 z" id="boundary" inkscape:connector-curvature="0" />
	<path style="fill:none;stroke:red;stroke-width:1px;stroke-linecap:butt;stroke-linejoin:miter;stroke-opacity:1" d="M 43.1579,58.386 64.9123,58.386 z" id="boundary" inkscape:connector-curvature="0" />
	<path style="fill:none;stroke:red;stroke-width:1px;stroke-linecap:butt;stroke-linejoin:miter;stroke-opacity:1" d="M 64.9123,58.386 86.6667,58.386 z" id="boundary" inkscape:connector-curvature="0" />
	<path style="fill:none;stroke:red;stroke-width:1px;stroke-linecap:butt;stroke-linejoin:miter;stroke-opacity:1" d="M 86.6667,58.386 108.421,58.386 z" id="boundary" inkscape:connector-curvature="0" />
	<path style="fill:none;stroke:red;stroke-width:1px;stroke-linecap:butt;stroke-linejoin:miter;stroke-opacity:1" d="M 108.421,58.386 130.175,58.386 z" id="boundary" inkscape:connector-curvature="0" />
	<path style="fill:none;stroke:red;stroke-width:1px;stroke-linecap:butt;stroke-linejoin:miter;stroke-opacity:1" d="M 130.175,58.386 151.93,58.386 z" id="boundary" inkscape:connector-curvature="0" />
	<path style="fill:none;stroke:red;stroke-width:1px;stroke-linecap:butt;stroke-linejoin:miter;stroke-opacity:1" d="M 151.93,58.386 171.509,69.2632 z" id="boundary" inkscape:connector-curvature="0" />
	<path style="fill:none;stroke:red;stroke-width:1px;stroke-linecap:butt;stroke-linejoin:miter;stroke-opacity:1" d="M 171.509,69.2632 193.263,69.2632 z" id="boundary" inkscape:connector-curvature="0" />
	<path style="fill:none;stroke:red;stroke-width:1px;stroke-linecap:butt;stroke-linejoin:miter;stroke-opacity:1" d="M 193.263,69.2632 215.018,69.2632 z" id="boundary" inkscape:connector-curvature="0" />
	<path style="fill:none;stroke:red;stroke-width:1px;stroke-linecap:butt;stroke-linejoin:miter;stroke-opacity:1" d="M 215.018,69.2632 236.772,69.2632 z" id="boundary" inkscape:connector-curvature="0" />
	<path style="fill:none;stroke:red;stroke-width:1px;stroke-linecap:butt;stroke-linejoin:miter;stroke-opacity:1" d="M 236.772,69.2632 258.526,69.2632 z" id="boundary" inkscape:connector-curvature="0" />
	<path style="fill:none;stroke:red;stroke-width:1px;stroke-linecap:butt;stroke-linejoin:miter;stroke-opacity:1" d="M 258.526,69.2632 280.281,69.2632 z" id="boundary" inkscape:connector-curvature="0" />
	<path style="fill:none;stroke:red;stroke-width:1px;stroke-linecap:butt;stroke-linejoin:miter;stroke-opacity:1" d="M 280.281,69.2632 302.035,69.2632 z" id="boundary" inkscape:connector-curvature="0" />
	<path style="fill:none;stroke:red;stroke-width:1px;stroke-linecap:butt;stroke-linejoin:miter;stroke-opacity:1" d="M 302.035,69.2632 323.789,69.2632 z" id="boundary" inkscape:connector-curvature="0" />
	<path style="fill:none;stroke:red;stroke-width:1px;stroke-linecap:butt;stroke-linejoin:miter;stroke-opacity:1" d="M 323.789,69.2632 345.544,69.2632 z" id="boundary" inkscape:connector-curvature="0" />
	<path style="fill:none;stroke:red;stroke-width:1px;stroke-linecap:butt;stroke-linejoin:miter;stroke-opacity:1" d="M 345.544,69.2632 365.123,80.1404 z" id="boundary" inkscape:connector-curvature="0" />
	<path style="fill:none;stroke:red;stroke-width:1px;stroke-linecap:butt;stroke-linejoin:miter;stroke-opacity:1" d="M 365.123,80.1404 384.702,69.2632 z" id="boundary" inkscape:connector-curvature="0" />
	<path style="fill:none;stroke:red;stroke-width:1px;stroke-linecap:butt;stroke-linejoin:miter;stroke-opacity:1" d="M 384.702,69.2632 406.456,73.614 z" id="boundary" inkscape:connector-curvature="0" />
	<path style="fill:none;stroke:red;stroke-width:1px;stroke-linecap:butt;stroke-linejoin:miter;stroke-opacity:1" d="M 406.456,73.614 428.211,80.1404 z" id="boundary" inkscape:connector-curvature="0" />
	<path style="fill:none;stroke:red;stroke-width:1px;stroke-linecap:butt;stroke-linejoin:miter;stroke-opacity:1" d="M 428.211,80.1404 449.965,80.1404 z" id="boundary" inkscape:connector-curvature="0" />
	<path style="fill:none;stroke:red;stroke-width:1px;stroke-linecap:butt;stroke-linejoin:miter;stroke-opacity:1" d="M 449.965,80.1404 471.719,80.1404 z" id="boundary" inkscape:connector-curvature="0" />
	<path style="fill:none;stroke:red;stroke-width:1px;stroke-linecap:butt;stroke-linejoin:miter;stroke-opacity:1" d="M 471.719,80.1404 493.474,80.1404 z" id="boundary" inkscape:connector-curvature="0" />
	<path style="fill:none;stroke:red;stroke-width:1px;stroke-linecap:butt;stroke-linejoin:miter;stroke-opacity:1" d="M 493.474,80.1404 515.228,84.4912 z" id="boundary" inkscape:connector-curvature="0" />
	<path style="fill:none;stroke:red;stroke-width:1px;stroke-linecap:butt;stroke-linejoin:miter;stroke-opacity:1" d="M 515.228,84.4912 536.982,91.0175 z" id="boundary" inkscape:connector-curvature="0" />
	<path style="fill:none;stroke:red;stroke-width:1px;stroke-linecap:butt;stroke-linejoin:miter;stroke-opacity:1" d="M 536.982,91.0175 558.737,91.0175 z" id="boundary" inkscape:connector-curvature="0" />
	<path style="fill:none;stroke:red;stroke-width:1px;stroke-linecap:butt;stroke-linejoin:miter;stroke-opacity:1" d="M 558.737,91.0175 580.491,91.0175 z" id="boundary" inkscape:connector-curvature="0" />
	<path style="fill:none;stroke:red;stroke-width:1px;stroke-linecap:butt;stroke-linejoin:miter;stroke-opacity:1" d="M 580.491,91.0175 602.246,95.3684 z" id="boundary" inkscape:connector-curvature="0" />
	<path style="fill:none;stroke:red;stroke-width:1px;stroke-linecap:butt;stroke-linejoin:miter;stroke-opacity:1" d="M 602.246,95.3684 624,101.895 z" id="boundary" inkscape:connector-curvature="0" />
	<path style="fill:none;stroke:red;stroke-width:1px;stroke-linecap:butt;stroke-linejoin:miter;stroke-opacity:1" d="M 624,101.895 645.754,101.895 z" id="boundary" inkscape:connector-curvature="0" />
	<path style="fill:none;stroke:red;stroke-width:1px;stroke-linecap:butt;stroke-linejoin:miter;stroke-opacity:1" d="M 645.754,101.895 667.509,101.895 z" id="boundary" inkscape:connector-curvature="0" />
	<path style="fill:none;stroke:red;stroke-width:1px;stroke-linecap:butt;stroke-linejoin:miter;stroke-opacity:1" d="M 667.509,101.895 687.088,112.772 z" id="boundary" inkscape:connector-curvature="0" />
	<path style="fill:none;stroke:red;stroke-width:1px;stroke-linecap:butt;stroke-linejoin:miter;stroke-opacity:1" d="M 687.088,112.772 708.842,112.772 z" id="boundary" inkscape:connector-curvature="0" />
	<path style="fill:none;stroke:red;stroke-width:1px;stroke-linecap:butt;stroke-linejoin:miter;stroke-opacity:1" d="M 708.842,112.772 730.596,112.772 z" id="boundary" inkscape:connector-curvature="0" />
	<path style="fill:none;stroke:red;stroke-width:1px;stroke-linecap:butt;stroke-linejoin:miter;stroke-opacity:1" d="M 730.596,112.772 752.351,112.772 z" id="boundary" inkscape:connector-curvature="0" />
	<path style="fill:none;stroke:red;stroke-width:1px;stroke-linecap:butt;stroke-linejoin:miter;stroke-opacity:1" d="M 752.351,112.772 774.105,112.772 z" id="boundary" inkscape:connector-curvature="0" />
	<path style="fill:none;stroke:red;stroke-width:1px;stroke-linecap:butt;stroke-linejoin:miter;stroke-opacity:1" d="M 774.105,112.772 795.86,112.772 z" id="boundary" inkscape:connector-curvature="0" />
	<path style="fill:none;stroke:red;stroke-width:1px;stroke-linecap:butt;stroke-linejoin:miter;stroke-opacity:1" d="M 795.86,112.772 817.614,112.772 z" id="boundary" inkscape:connector-curvature="0" />
	<path style="fill:none;stroke:red;stroke-width:1px;stroke-linecap:butt;stroke-linejoin:miter;stroke-opacity:1" d="M 817.614,112.772 837.193,123.649 z" id="boundary" inkscape:connector-curvature="0" />
	<path style="fill:none;stroke:red;stroke-width:1px;stroke-linecap:butt;stroke-linejoin:miter;stroke-opacity:1" d="M 21.4035,58.386 4,75.7895 z" id="boundary" inkscape:connector-curvature="0" />
	<path style="fill:none;stroke:red;stroke-width:1px;stroke-linecap:butt;stroke-linejoin:miter;stroke-opacity:1" d="M 4,75.7895 4,97.5439 z" id="boundary" inkscape:connector-curvature="0" />
	<path style="fill:none;stroke:red;stroke-width:1px;stroke-linecap:butt;stroke-linejoin:miter;stroke-opacity:1" d="M 4,97.5439 4,119.298 z" id="boundary" inkscape:connector-curvature="0" />
	<path style="fill:none;stroke:red;stroke-width:1px;stroke-linecap:butt;stroke-linejoin:miter;stroke-opacity:1" d="M 4,119.298 4,141.053 z" id="boundary" inkscape:connector-curvature="0" />
	<path style="fill:none;stroke:red;stroke-width:1px;stroke-linecap:butt;stroke-linejoin:miter;stroke-opacity:1" d="M 4,141.053 14.8772,160.632 z" id="boundary" inkscape:connector-curvature="0" />
	<path style="fill:none;stroke:red;stroke-width:1px;stroke-linecap:butt;stroke-linejoin:miter;stroke-opacity:1" d="M 14.8772,160.632 36.6316,169.333 z" id="boundary" inkscape:connector-curvature="0" />
	<path style="fill:none;stroke:red;stroke-width:1px;stroke-linecap:butt;stroke-linejoin:miter;stroke-opacity:1" d="M 36.6316,169.333 58.386,169.333 z" id="boundary" inkscape:connector-curvature="0" />
	<path style="fill:none;stroke:red;stroke-width:1px;stroke-linecap:butt;stroke-linejoin:miter;stroke-opacity:1" d="M 58.386,169.333 80.1404,169.333 z" id="boundary" inkscape:connector-curvature="0" />
	<path style="fill:none;stroke:red;stroke-width:1px;stroke-linecap:butt;stroke-linejoin:miter;stroke-opacity:1" d="M 80.1404,169.333 101.895,169.333 z" id="boundary" inkscape:connector-curvature="0" />
	<path style="fill:none;stroke:red;stroke-width:1px;stroke-linecap:butt;stroke-linejoin:miter;stroke-opacity:1" d="M 101.895,169.333 123.649,169.333 z" id="boundary" inkscape:connector-curvature="0" />
	<path style="fill:none;stroke:red;stroke-width:1px;stroke-linecap:butt;stroke-linejoin:miter;stroke-opacity:1" d="M 123.649,169.333 145.404,169.333 z" id="boundary" inkscape:connector-curvature="0" />
	<path style="fill:none;stroke:red;stroke-width:1px;stroke-linecap:butt;stroke-linejoin:miter;stroke-opacity:1" d="M 145.404,169.333 164.982,180.211 z" id="boundary" inkscape:connector-curvature="0" />
	<path style="fill:none;stroke:red;stroke-width:1px;stroke-linecap:butt;stroke-linejoin:miter;stroke-opacity:1" d="M 164.982,180.211 186.737,180.211 z" id="boundary" inkscape:connector-curvature="0" />
	<path style="fill:none;stroke:red;stroke-width:1px;stroke-linecap:butt;stroke-linejoin:miter;stroke-opacity:1" d="M 186.737,180.211 208.491,180.211 z" id="boundary" inkscape:connector-curvature="0" />
	<path style="fill:none;stroke:red;stroke-width:1px;stroke-linecap:butt;stroke-linejoin:miter;stroke-opacity:1" d="M 208.491,180.211 230.246,180.211 z" id="boundary" inkscape:connector-curvature="0" />
	<path style="fill:none;stroke:red;stroke-width:1px;stroke-linecap:butt;stroke-linejoin:miter;stroke-opacity:1" d="M 230.246,180.211 252,180.211 z" id="boundary" inkscape:connector-curvature="0" />
	<path style="fill:none;stroke:red;stroke-width:1px;stroke-linecap:butt;stroke-linejoin:miter;stroke-opacity:1" d="M 252,180.211 273.754,180.211 z" id="boundary" inkscape:connector-curvature="0" />
	<path style="fill:none;stroke:red;stroke-width:1px;stroke-linecap:butt;stroke-linejoin:miter;stroke-opacity:1" d="M 273.754,180.211 295.509,180.211 z" id="boundary" inkscape:connector-curvature="0" />
	<path style="fill:none;stroke:red;stroke-width:1px;stroke-linecap:butt;stroke-linejoin:miter;stroke-opacity:1" d="M 295.509,180.211 315.088,191.088 z" id="boundary" inkscape:connector-curvature="0" />
	<path style="fill:none;stroke:red;stroke-width:1px;stroke-linecap:butt;stroke-linejoin:miter;stroke-opacity:1" d="M 315.088,191.088 336.842,191.088 z" id="boundary" inkscape:connector-curvature="0" />
	<path style="fill:none;stroke:red;stroke-width:1px;stroke-linecap:butt;stroke-linejoin:miter;stroke-opacity:1" d="M 336.842,191.088 358.596,191.088 z" id="boundary" inkscape:connector-curvature="0" />
	<path style="fill:none;stroke:red;stroke-width:1px;stroke-linecap:butt;stroke-linejoin:miter;stroke-opacity:1" d="M 358.596,191.088 380.351,191.088 z" id="boundary" inkscape:connector-curvature="0" />
	<path style="fill:none;stroke:red;stroke-width:1px;stroke-linecap:butt;stroke-linejoin:miter;stroke-opacity:1" d="M 380.351,191.088 402.105,191.088 z" id="boundary" inkscape:connector-curvature="0" />
	<path style="fill:none;stroke:red;stroke-width:1px;stroke-linecap:butt;stroke-linejoin:miter;stroke-opacity:1" d="M 402.105,191.088 423.86,199.789 z" id="boundary" inkscape:connector-curvature="0" />
	<path style="fill:none;stroke:red;stroke-width:1px;stroke-linecap:butt;stroke-linejoin:miter;stroke-opacity:1" d="M 423.86,199.789 445.614,201.965 z" id="boundary" inkscape:connector-curvature="0" />
	<path style="fill:none;stroke:red;stroke-width:1px;stroke-linecap:butt;stroke-linejoin:miter;stroke-opacity:1" d="M 445.614,201.965 467.368,201.965 z" id="boundary" inkscape:connector-curvature="0" />
	<path style="fill:none;stroke:red;stroke-width:1px;stroke-linecap:butt;stroke-linejoin:miter;stroke-opacity:1" d="M 467.368,201.965 489.123,201.965 z" id="boundary" inkscape:connector-curvature="0" />
	<path style="fill:none;stroke:red;stroke-width:1px;stroke-linecap:butt;stroke-linejoin:miter;stroke-opacity:1" d="M 489.123,201.965 510.877,201.965 z" id="boundary" inkscape:connector-curvature="0" />
	<path style="fill:none;stroke:red;stroke-width:1px;stroke-linecap:butt;stroke-linejoin:miter;stroke-opacity:1" d="M 510.877,201.965 532.632,201.965 z" id="boundary" inkscape:connector-curvature="0" />
	<path style="fill:none;stroke:red;stroke-width:1px;stroke-linecap:butt;stroke-linejoin:miter;stroke-opacity:1" d="M 532.632,201.965 554.386,201.965 z" id="boundary" inkscape:connector-curvature="0" />
	<path style="fill:none;stroke:red;stroke-width:1px;stroke-linecap:butt;stroke-linejoin:miter;stroke-opacity:1" d="M 554.386,201.965 576.14,201.965 z" id="boundary" inkscape:connector-curvature="0" />
	<path style="fill:none;stroke:red;stroke-width:1px;stroke-linecap:butt;stroke-linejoin:miter;stroke-opacity:1" d="M 576.14,201.965 597.895,201.965 z" id="boundary" inkscape:connector-curvature="0" />
	<path style="fill:none;stroke:red;stroke-width:1px;stroke-linecap:butt;stroke-linejoin:miter;stroke-opacity:1" d="M 597.895,201.965 619.649,201.965 z" id="boundary" inkscape:connector-curvature="0" />
	<path style="fill:none;stroke:red;stroke-width:1px;stroke-linecap:butt;stroke-linejoin:miter;stroke-opacity:1" d="M 619.649,201.965 641.404,201.965 z" id="boundary" inkscape:connector-curvature="0" />
	<path style="fill:none;stroke:red;stroke-width:1px;stroke-linecap:butt;stroke-linejoin:miter;stroke-opacity:1" d="M 641.404,201.965 660.982,212.842 z" id="boundary" inkscape:connector-curvature="0" />
	<path style="fill:none;stroke:red;stroke-width:1px;stroke-linecap:butt;stroke-linejoin:miter;stroke-opacity:1" d="M 660.982,212.842 682.737,212.842 z" id="boundary" inkscape:connector-curvature="0" />
	<path style="fill:none;stroke:red;stroke-width:1px;stroke-linecap:butt;stroke-linejoin:miter;stroke-opacity:1" d="M 682.737,212.842 704.491,212.842 z" id="boundary" inkscape:connector-curvature="0" />
	<path style="fill:none;stroke:red;stroke-width:1px;stroke-linecap:butt;stroke-linejoin:miter;stroke-opacity:1" d="M 704.491,212.842 726.246,212.842 z" id="boundary" inkscape:connector-curvature="0" />
	<path style="fill:none;stroke:red;stroke-width:1px;stroke-linecap:butt;stroke-linejoin:miter;stroke-opacity:1" d="M 726.246,212.842 748,212.842 z" id="boundary" inkscape:connector-curvature="0" />
	<path style="fill:none;stroke:red;stroke-width:1px;stroke-linecap:butt;stroke-linejoin:miter;stroke-opacity:1" d="M 748,212.842 769.754,212.842 z" id="boundary" inkscape:connector-curvature="0" />
	<path style="fill:none;stroke:red;stroke-width:1px;stroke-linecap:butt;stroke-linejoin:miter;stroke-opacity:1" d="M 769.754,212.842 791.509,219.368 z" id="boundary" inkscape:connector-curvature="0" />
	<path style="fill:none;stroke:red;stroke-width:1px;stroke-linecap:butt;stroke-linejoin:miter;stroke-opacity:1" d="M 791.509,219.368 813.263,223.719 z" id="boundary" inkscape:connector-curvature="0" />
	<path style="fill:none;stroke:red;stroke-width:1px;stroke-linecap:butt;stroke-linejoin:miter;stroke-opacity:1" d="M 813.263,223.719 830.667,236.772 z" id="boundary" inkscape:connector-curvature="0" />
	<path style="fill:none;stroke:red;stroke-width:1px;stroke-linecap:butt;stroke-linejoin:miter;stroke-opacity:1" d="M 830.667,236.772 830.667,258.526 z" id="boundary" inkscape:connector-curvature="0" />
	<path style="fill:none;stroke:red;stroke-width:1px;stroke-linecap:butt;stroke-linejoin:miter;stroke-opacity:1" d="M 830.667,258.526 830.667,280.281 z" id="boundary" inkscape:connector-curvature="0" />
	<path style="fill:none;stroke:red;stroke-width:1px;stroke-linecap:butt;stroke-linejoin:miter;stroke-opacity:1" d="M 830.667,280.281 830.667,302.035 z" id="boundary" inkscape:connector-curvature="0" />
	<path style="fill:none;stroke:red;stroke-width:1px;stroke-linecap:butt;stroke-linejoin:miter;stroke-opacity:1" d="M 830.667,302.035 841.544,321.614 z" id="boundary" inkscape:connector-curvature="0" />
	<path style="fill:none;stroke:red;stroke-width:1px;stroke-linecap:butt;stroke-linejoin:miter;stroke-opacity:1" d="M 841.544,321.614 848.07,343.368 z" id="boundary" inkscape:connector-curvature="0" />
	<path style="fill:none;stroke:red;stroke-width:1px;stroke-linecap:butt;stroke-linejoin:miter;stroke-opacity:1" d="M 848.07,343.368 867.649,354.246 z" id="boundary" inkscape:connector-curvature="0" />
	<path style="fill:none;stroke:red;stroke-width:1px;stroke-linecap:butt;stroke-linejoin:miter;stroke-opacity:1" d="M 867.649,354.246 889.404,354.246 z" id="boundary" inkscape:connector-curvature="0" />
	<path style="fill:none;stroke:red;stroke-width:1px;stroke-linecap:butt;stroke-linejoin:miter;stroke-opacity:1" d="M 889.404,354.246 911.158,354.246 z" id="boundary" inkscape:connector-curvature="0" />
	<path style="fill:none;stroke:red;stroke-width:1px;stroke-linecap:butt;stroke-linejoin:miter;stroke-opacity:1" d="M 911.158,354.246 932.912,354.246 z" id="boundary" inkscape:connector-curvature="0" />
	<path style="fill:none;stroke:red;stroke-width:1px;stroke-linecap:butt;stroke-linejoin:miter;stroke-opacity:1" d="M 932.912,354.246 941.614,332.491 z" id="boundary" inkscape:connector-curvature="0" />
	<path style="fill:none;stroke:red;stroke-width:1px;stroke-linecap:butt;stroke-linejoin:miter;stroke-opacity:1" d="M 941.614,332.491 963.368,332.491 z" id="boundary" inkscape:connector-curvature="0" />
	<path style="fill:none;stroke:red;stroke-width:1px;stroke-linecap:butt;stroke-linejoin:miter;stroke-opacity:1" d="M 963.368,332.491 974.246,310.737 z" id="boundary" inkscape:connector-curvature="0" />
	<path style="fill:none;stroke:red;stroke-width:1px;stroke-linecap:butt;stroke-linejoin:miter;stroke-opacity:1" d="M 974.246,310.737 974.246,288.982 z" id="boundary" inkscape:connector-curvature="0" />
	<path style="fill:none;stroke:red;stroke-width:1px;stroke-linecap:butt;stroke-linejoin:miter;stroke-opacity:1" d="M 974.246,288.982 985.123,267.228 z" id="boundary" inkscape:connector-curvature="0" />
	<path style="fill:none;stroke:red;stroke-width:1px;stroke-linecap:butt;stroke-linejoin:miter;stroke-opacity:1" d="M 985.123,267.228 985.123,245.474 z" id="boundary" inkscape:connector-curvature="0" />
	<path style="fill:none;stroke:red;stroke-width:1px;stroke-linecap:butt;stroke-linejoin:miter;stroke-opacity:1" d="M 985.123,245.474 985.123,223.719 z" id="boundary" inkscape:connector-curvature="0" />
	<path style="fill:none;stroke:red;stroke-width:1px;stroke-linecap:butt;stroke-linejoin:miter;stroke-opacity:1" d="M 985.123,223.719 985.123,201.965 z" id="boundary" inkscape:connector-curvature="0" />
	<path style="fill:none;stroke:red;stroke-width:1px;stroke-linecap:butt;stroke-linejoin:miter;stroke-opacity:1" d="M 985.123,201.965 996,178.035 z" id="boundary" inkscape:connector-curvature="0" />
	<path style="fill:none;stroke:red;stroke-width:1px;stroke-linecap:butt;stroke-linejoin:miter;stroke-opacity:1" d="M 996,178.035 989.474,156.281 z" id="boundary" inkscape:connector-curvature="0" />
	<path style="fill:none;stroke:red;stroke-width:1px;stroke-linecap:butt;stroke-linejoin:miter;stroke-opacity:1" d="M 989.474,156.281 978.596,136.702 z" id="boundary" inkscape:connector-curvature="0" />
	<path style="fill:none;stroke:red;stroke-width:1px;stroke-linecap:butt;stroke-linejoin:miter;stroke-opacity:1" d="M 978.596,136.702 974.246,114.947 z" id="boundary" inkscape:connector-curvature="0" />
	<path style="fill:none;stroke:red;stroke-width:1px;stroke-linecap:butt;stroke-linejoin:miter;stroke-opacity:1" d="M 974.246,114.947 974.246,93.193 z" id="boundary" inkscape:connector-curvature="0" />
	<path style="fill:none;stroke:red;stroke-width:1px;stroke-linecap:butt;stroke-linejoin:miter;stroke-opacity:1" d="M 974.246,93.193 985.123,67.0877 z" id="boundary" inkscape:connector-curvature="0" />
	<path style="fill:none;stroke:red;stroke-width:1px;stroke-linecap:butt;stroke-linejoin:miter;stroke-opacity:1" d="M 985.123,67.0877 985.123,45.3333 z" id="boundary" inkscape:connector-curvature="0" />
	<path style="fill:none;stroke:red;stroke-width:1px;stroke-linecap:butt;stroke-linejoin:miter;stroke-opacity:1" d="M 985.123,45.3333 969.895,27.9298 z" id="boundary" inkscape:connector-curvature="0" />
	<path style="fill:none;stroke:red;stroke-width:1px;stroke-linecap:butt;stroke-linejoin:miter;stroke-opacity:1" d="M 969.895,27.9298 948.14,19.2281 z" id="boundary" inkscape:connector-curvature="0" />
	<path style="fill:none;stroke:red;stroke-width:1px;stroke-linecap:butt;stroke-linejoin:miter;stroke-opacity:1" d="M 948.14,19.2281 928.561,8.35088 z" id="boundary" inkscape:connector-curvature="0" />
	<path style="fill:none;stroke:red;stroke-width:1px;stroke-linecap:butt;stroke-linejoin:miter;stroke-opacity:1" d="M 928.561,8.35088 906.807,4 z" id="boundary" inkscape:connector-curvature="0" />
	<path style="fill:none;stroke:red;stroke-width:1px;stroke-linecap:butt;stroke-linejoin:miter;stroke-opacity:1" d="M 906.807,4 885.053,10.5263 z" id="boundary" inkscape:connector-curvature="0" />
	<path style="fill:none;stroke:red;stroke-width:1px;stroke-linecap:butt;stroke-linejoin:miter;stroke-opacity:1" d="M 885.053,10.5263 863.298,21.4035 z" id="boundary" inkscape:connector-curvature="0" />
	<path style="fill:none;stroke:red;stroke-width:1px;stroke-linecap:butt;stroke-linejoin:miter;stroke-opacity:1" d="M 863.298,21.4035 852.421,43.1579 z" id="boundary" inkscape:connector-curvature="0" />
	<path style="fill:none;stroke:red;stroke-width:1px;stroke-linecap:butt;stroke-linejoin:miter;stroke-opacity:1" d="M 852.421,43.1579 852.421,64.9123 z" id="boundary" inkscape:connector-curvature="0" />
	<path style="fill:none;stroke:red;stroke-width:1px;stroke-linecap:butt;stroke-linejoin:miter;stroke-opacity:1" d="M 852.421,64.9123 852.421,86.6667 z" id="boundary" inkscape:connector-curvature="0" />
	<path style="fill:none;stroke:red;stroke-width:1px;stroke-linecap:butt;stroke-linejoin:miter;stroke-opacity:1" d="M 837.193,123.649 852.421,86.6667 z" id="boundary" inkscape:connector-curvature="0" />
	<circle cx="4" cy="75.7895" r="4" fill="#0" id="circle0"/>
	<circle cx="4" cy="97.5439" r="4" fill="#0" id="circle1"/>
	<circle cx="4" cy="119.298" r="4" fill="#0" id="circle2"/>
	<circle cx="4" cy="141.053" r="4" fill="#0" id="circle3"/>
	<circle cx="14.8772" cy="160.632" r="4" fill="#0" id="circle4"/>
	<circle cx="21.4035" cy="58.386" r="4" fill="#0" id="circle5"/>
	<circle cx="36.6316" cy="169.333" r="4" fill="#0" id="circle6"/>
	<circle cx="43.1579" cy="58.386" r="4" fill="#0" id="circle7"/>
	<circle cx="58.386" cy="169.333" r="4" fill="#0" id="circle8"/>
	<circle cx="64.9123" cy="58.386" r="4" fill="#0" id="circle9"/>
	<circle cx="80.1404" cy="169.333" r="4" fill="#0" id="circle10"/>
	<circle cx="86.6667" cy="58.386" r="4" fill="#0" id="circle11"/>
	<circle cx="101.895" cy="169.333" r="4" fill="#0" id="circle12"/>
	<circle cx="108.421" cy="58.386" r="4" fill="#0" id="circle13"/>
	<circle cx="123.649" cy="169.333" r="4" fill="#0" id="circle14"/>
	<circle cx="130.175" cy="58.386" r="4" fill="#0" id="circle15"/>
	<circle cx="145.404" cy="169.333" r="4" fill="#0" id="circle16"/>
	<circle cx="151.93" cy="58.386" r="4" fill="#0" id="circle17"/>
	<circle cx="164.982" cy="180.211" r="4" fill="#0" id="circle18"/>
	<circle cx="171.509" cy="69.2632" r="4" fill="#0" id="circle19"/>
	<circle cx="186.737" cy="180.211" r="4" fill="#0" id="circle20"/>
	<circle cx="193.263" cy="69.2632" r="4" fill="#0" id="circle21"/>
	<circle cx="208.491" cy="180.211" r="4" fill="#0" id="circle22"/>
	<circle cx="215.018" cy="69.2632" r="4" fill="#0" id="circle23"/>
	<circle cx="230.246" cy="180.211" r="4" fill="#0" id="circle24"/>
	<circle cx="236.772" cy="69.2632" r="4" fill="#0" id="circle25"/>
	<circle cx="252" cy="180.211" r="4" fill="#0" id="circle26"/>
	<circle cx="258.526" cy="69.2632" r="4" fill="#0" id="circle27"/>
	<circle cx="273.754" cy="180.211" r="4" fill="#0" id="circle28"/>
	<circle cx="280.281" cy="69.2632" r="4" fill="#0" id="circle29"/>
	<circle cx="295.509" cy="180.211" r="4" fill="#0" id="circle30"/>
	<circle cx="302.035" cy="69.2632" r="4" fill="#0" id="circle31"/>
	<circle cx="315.088" cy="191.088" r="4" fill="#0" id="circle32"/>
	<circle cx="323.789" cy="69.2632" r="4" fill="#0" id="circle33"/>
	<circle cx="336.842" cy="191.088" r="4" fill="#0" id="circle34"/>
	<circle cx="345.544" cy="69.2632" r="4" fill="#0" id="circle35"/>
	<circle cx="358.596" cy="191.088" r="4" fill="#0" id="circle36"/>
	<circle cx="365.123" cy="80.1404" r="4" fill="#0" id="circle37"/>
	<circle cx="380.351" cy="191.088" r="4" fill="#0" id="circle38"/>
	<circle cx="384.702" cy="69.2632" r="4" fill="#0" id="circle39"/>
	<circle cx="402.105" cy="191.088" r="4" fill="#0" id="circle40"/>
	<circle cx="406.456" cy="73.614" r="4" fill="#0" id="circle41"/>
	<circle cx="423.86" cy="199.789" r="4" fill="#0" id="circle42"/>
	<circle cx="428.211" cy="80.1404" r="4" fill="#0" id="circle43"/>
	<circle cx="445.614" cy="201.965" r="4" fill="#0" id="circle44"/>
	<circle cx="449.965" cy="80.1404" r="4" fill="#0" id="circle45"/>
	<circle cx="467.368" cy="201.965" r="4" fill="#0" id="circle46"/>
	<circle cx="471.719" cy="80.1404" r="4" fill="#0" id="circle47"/>
	<circle cx="489.123" cy="201.965" r="4" fill="#0" id="circle48"/>
	<circle cx="493.474" cy="80.1404" r="4" fill="#0" id="circle49"/>
	<circle cx="510.877" cy="201.965" r="4" fill="#0" id="circle50"/>
	<circle cx="515.228" cy="84.4912" r="4" fill="#0" id="circle51"/>
	<circle cx="532.632" cy="201.965" r="4" fill="#0" id="circle52"/>
	<circle cx="536.982" cy="91.0175" r="4" fill="#0" id="circle53"/>
	<circle cx="554.386" cy="201.965" r="4" fill="#0" id="circle54"/>
	<circle cx="558.737" cy="91.0175" r="4" fill="#0" id="circle55"/>
	<circle cx="576.14" cy="201.965" r="4" fill="#0" id="circle56"/>
	<circle cx="580.491" cy="91.0175" r="4" fill="#0" id="circle57"/>
	<circle cx="597.895" cy="201.965" r="4" fill="#0" id="circle58"/>
	<circle cx="602.246" cy="95.3684" r="4" fill="#0" id="circle59"/>
	<circle cx="619.649" cy="201.965" r="4" fill="#0" id="circle60"/>
	<circle cx="624" cy="101.895" r="4" fill="#0" id="circle61"/>
	<circle cx="641.404" cy="201.965" r="4" fill="#0" id="circle62"/>
	<circle cx="645.754" cy="101.895" r="4" fill="#0" id="circle63"/>
	<circle cx="660.982" cy="212.842" r="4" fill="#0" id="circle64"/>
	<circle cx="667.509" cy="101.895" r="4" fill="#0" id="circle65"/>
	<circle cx="682.737" cy="212.842" r="4" fill="#0" id="circle66"/>
	<circle cx="687.088" cy="112.772" r="4" fill="#0" id="circle67"/>
	<circle cx="704.491" cy="212.842" r="4" fill="#0" id="circle68"/>
	<circle cx="708.842" cy="112.772" r="4" fill="#0" id="circle69"/>
	<circle cx="726.246" cy="212.842" r="4" fill="#0" id="circle70"/>
	<circle cx="730.596" cy="112.772" r="4" fill="#0" id="circle71"/>
	<circle cx="748" cy="212.842" r="4" fill="#0" id="circle72"/>
	<circle cx="752.351" cy="112.772" r="4" fill="#0" id="circle73"/>
	<circle cx="769.754" cy="212.842" r="4" fill="#0" id="circle74"/>
	<circle cx="774.105" cy="112.772" r="4" fill="#0" id="circle75"/>
	<circle cx="791.509" cy="219.368" r="4" fill="#0" id="circle76"/>
	<circle cx="795.86" cy="112.772" r="4" fill="#0" id="circle77"/>
	<circle cx="813.263" cy="223.719" r="4" fill="#0" id="circle78"/>
	<circle cx="817.614" cy="112.772" r="4" fill="#0" id="circle79"/>
	<circle cx="830.667" cy="236.772" r="4" fill="#0" id="circle80"/>
	<circle cx="830.667" cy="258.526" r="4" fill="#0" id="circle81"/>
	<circle cx="830.667" cy="280.281" r="4" fill="#0" id="circle82"/>
	<circle cx="830.667" cy="302.035" r="4" fill="#0" id="circle83"/>
	<circle cx="837.193" cy="123.649" r="4" fill="#0" id="circle84"/>
	<circle cx="841.544" cy="321.614" r="4" fill="#0" id="circle85"/>
	<circle cx="848.07" cy="343.368" r="4" fill="#0" id="circle86"/>
	<circle cx="852.421" cy="43.1579" r="4" fill="#0" id="circle87"/>
	<circle cx="852.421" cy="64.9123" r="4" fill="#0" id="circle88"/>
	<circle cx="852.421" cy="86.6667" r="4" fill="#0" id="circle89"/>
	<circle cx="863.298" cy="21.4035" r="4" fill="#0" id="circle90"/>
	<circle cx="867.649" cy="354.246" r="4" fill="#0" id="circle91"/>
	<circle cx="885.053" cy="10.5263" r="4" fill="#0" id="circle92"/>
	<circle cx="889.404" cy="354.246" r="4" fill="#0" id="circle93"/>
	<circle cx="906.807" cy="4" r="4" fill="#0" id="circle94"/>
	<circle cx="911.158" cy="354.246" r="4" fill="#0" id="circle95"/>
	<circle cx="928.561" cy="8.35088" r="4" fill="#0" id="circle96"/>
	<circle cx="932.912" cy="354.246" r="4" fill="#0" id="circle97"/>
	<circle cx="941.614" cy="332.491" r="4" fill="#0" id="circle98"/>
	<circle cx="948.14" cy="19.2281" r="4" fill="#0" id="circle99"/>
	<circle cx="963.368" cy="332.491" r="4" fill="#0" id="circle100"/>
	<circle cx="969.895" cy="27.9298" r="4" fill="#0" id="circle101"/>
	<circle cx="974.246" cy="93.193" r="4" fill="#0" id="circle102"/>
	<circle cx="974.246" cy="114.947" r="4" fill="#0" id="circle103"/>
	<circle cx="974.246" cy="288.982" r="4" fill="#0" id="circle104"/>
	<circle cx="974.246" cy="310.737" r="4" fill="#0" id="circle105"/>
	<circle cx="978.596" cy="136.702" r="4" fill="#0" id="circle106"/>
	<circle cx="985.123" cy="45.3333" r="4" fill="#0" id="circle107"/>
	<circle cx="985.123" cy="67.0877" r="4" fill="#0" id="circle108"/>
	<circle cx="985.123" cy="201.965" r="4" fill="#0" id="circle109"/>
	<circle cx="985.123" cy="223.719" r="4" fill="#0" id="circle110"/>
	<circle cx="985.123" cy="245.474" r="4" fill="#0" id="circle111"/>
	<circle cx="985.123" cy="267.228" r="4" fill="#0" id="circle112"/>
	<circle cx="989.474" cy="156.281" r="4" fill="#0" id="circle113"/>
	<circle cx="996" cy="178.035" r="4" fill="#0" id="circle114"/>
	</g>
</svg>