<?xml version="1.0" encoding="UTF-8" standalone="no"?>
<!-- Created with CurveBenchmark -->
<svg
	xmlns:dc="http://purl.org/dc/elements/1.1/"
	xmlns:cc="http://creativecommons.org/ns#"
	xmlns:rdf="http://www.w3.org/1999/02/22-rdf-syntax-ns#"
	xmlns:svg="http://www.w3.org/2000/svg"
	xmlns="http://www.w3.org/2000/svg"
	xmlns:sodipodi="http://sodipodi.sourceforge.net/DTD/sodipodi-0.dtd"
	xmlns:inkscape="http://www.inkscape.org/namespaces/inkscape"
	width="1000"
	height="1000"
	id="svg2"
	version="1.1"
	sodipodi:docname="manifold/crawl-stef-20.png.txt">
<defs
	id="defs4" />
<metadata
	id="metadata7">
	<rdf:RDF>
		<cc:Work
			rdf:about="">
			<dc:format>image/svg+xml</dc:format>
			<dc:type
				rdf:resource="http://purl.org/dc/dcmitype/StillImage" />
			<dc:title></dc:title>
		</cc:Work>
	</rdf:RDF>
</metadata>
<g
	inkscape:label="Layer 1"
	inkscape:groupmode="layer"
	id="layer1">
	<path style="fill:none;stroke:red;stroke-width:1px;stroke-linecap:butt;stroke-linejoin:miter;stroke-opacity:1" d="M 72.5714,86.2857 72.5714,63.4286 z" id="boundary" inkscape:connector-curvature="0" />
	<path style="fill:none;stroke:red;stroke-width:1px;stroke-linecap:butt;stroke-linejoin:miter;stroke-opacity:1" d="M 72.5714,86.2857 84,106.857 z" id="boundary" inkscape:connector-curvature="0" />
	<path style="fill:none;stroke:red;stroke-width:1px;stroke-linecap:butt;stroke-linejoin:miter;stroke-opacity:1" d="M 84,106.857 100,125.143 z" id="boundary" inkscape:connector-curvature="0" />
	<path style="fill:none;stroke:red;stroke-width:1px;stroke-linecap:butt;stroke-linejoin:miter;stroke-opacity:1" d="M 100,125.143 118.286,138.857 z" id="boundary" inkscape:connector-curvature="0" />
	<path style="fill:none;stroke:red;stroke-width:1px;stroke-linecap:butt;stroke-linejoin:miter;stroke-opacity:1" d="M 118.286,138.857 125.143,161.714 z" id="boundary" inkscape:connector-curvature="0" />
	<path style="fill:none;stroke:red;stroke-width:1px;stroke-linecap:butt;stroke-linejoin:miter;stroke-opacity:1" d="M 125.143,161.714 141.143,180 z" id="boundary" inkscape:connector-curvature="0" />
	<path style="fill:none;stroke:red;stroke-width:1px;stroke-linecap:butt;stroke-linejoin:miter;stroke-opacity:1" d="M 141.143,180 141.143,202.857 z" id="boundary" inkscape:connector-curvature="0" />
	<path style="fill:none;stroke:red;stroke-width:1px;stroke-linecap:butt;stroke-linejoin:miter;stroke-opacity:1" d="M 141.143,202.857 143.429,225.714 z" id="boundary" inkscape:connector-curvature="0" />
	<path style="fill:none;stroke:red;stroke-width:1px;stroke-linecap:butt;stroke-linejoin:miter;stroke-opacity:1" d="M 143.429,225.714 154.857,246.286 z" id="boundary" inkscape:connector-curvature="0" />
	<path style="fill:none;stroke:red;stroke-width:1px;stroke-linecap:butt;stroke-linejoin:miter;stroke-opacity:1" d="M 154.857,246.286 164,269.143 z" id="boundary" inkscape:connector-curvature="0" />
	<path style="fill:none;stroke:red;stroke-width:1px;stroke-linecap:butt;stroke-linejoin:miter;stroke-opacity:1" d="M 164,269.143 182.286,285.143 z" id="boundary" inkscape:connector-curvature="0" />
	<path style="fill:none;stroke:red;stroke-width:1px;stroke-linecap:butt;stroke-linejoin:miter;stroke-opacity:1" d="M 182.286,285.143 202.857,296.571 z" id="boundary" inkscape:connector-curvature="0" />
	<path style="fill:none;stroke:red;stroke-width:1px;stroke-linecap:butt;stroke-linejoin:miter;stroke-opacity:1" d="M 202.857,296.571 221.143,310.286 z" id="boundary" inkscape:connector-curvature="0" />
	<path style="fill:none;stroke:red;stroke-width:1px;stroke-linecap:butt;stroke-linejoin:miter;stroke-opacity:1" d="M 221.143,310.286 241.714,321.714 z" id="boundary" inkscape:connector-curvature="0" />
	<path style="fill:none;stroke:red;stroke-width:1px;stroke-linecap:butt;stroke-linejoin:miter;stroke-opacity:1" d="M 241.714,321.714 257.714,340 z" id="boundary" inkscape:connector-curvature="0" />
	<path style="fill:none;stroke:red;stroke-width:1px;stroke-linecap:butt;stroke-linejoin:miter;stroke-opacity:1" d="M 257.714,340 276,356 z" id="boundary" inkscape:connector-curvature="0" />
	<path style="fill:none;stroke:red;stroke-width:1px;stroke-linecap:butt;stroke-linejoin:miter;stroke-opacity:1" d="M 276,356 296.571,367.429 z" id="boundary" inkscape:connector-curvature="0" />
	<path style="fill:none;stroke:red;stroke-width:1px;stroke-linecap:butt;stroke-linejoin:miter;stroke-opacity:1" d="M 296.571,367.429 312.571,385.714 z" id="boundary" inkscape:connector-curvature="0" />
	<path style="fill:none;stroke:red;stroke-width:1px;stroke-linecap:butt;stroke-linejoin:miter;stroke-opacity:1" d="M 312.571,385.714 314.857,408.571 z" id="boundary" inkscape:connector-curvature="0" />
	<path style="fill:none;stroke:red;stroke-width:1px;stroke-linecap:butt;stroke-linejoin:miter;stroke-opacity:1" d="M 314.857,408.571 324,431.429 z" id="boundary" inkscape:connector-curvature="0" />
	<path style="fill:none;stroke:red;stroke-width:1px;stroke-linecap:butt;stroke-linejoin:miter;stroke-opacity:1" d="M 324,431.429 324,454.286 z" id="boundary" inkscape:connector-curvature="0" />
	<path style="fill:none;stroke:red;stroke-width:1px;stroke-linecap:butt;stroke-linejoin:miter;stroke-opacity:1" d="M 72.5714,63.4286 84,40.5714 z" id="boundary" inkscape:connector-curvature="0" />
	<path style="fill:none;stroke:red;stroke-width:1px;stroke-linecap:butt;stroke-linejoin:miter;stroke-opacity:1" d="M 84,40.5714 95.4286,17.7143 z" id="boundary" inkscape:connector-curvature="0" />
	<path style="fill:none;stroke:red;stroke-width:1px;stroke-linecap:butt;stroke-linejoin:miter;stroke-opacity:1" d="M 95.4286,17.7143 118.286,6.28571 z" id="boundary" inkscape:connector-curvature="0" />
	<path style="fill:none;stroke:red;stroke-width:1px;stroke-linecap:butt;stroke-linejoin:miter;stroke-opacity:1" d="M 118.286,6.28571 141.143,4 z" id="boundary" inkscape:connector-curvature="0" />
	<path style="fill:none;stroke:red;stroke-width:1px;stroke-linecap:butt;stroke-linejoin:miter;stroke-opacity:1" d="M 141.143,4 161.714,15.4286 z" id="boundary" inkscape:connector-curvature="0" />
	<path style="fill:none;stroke:red;stroke-width:1px;stroke-linecap:butt;stroke-linejoin:miter;stroke-opacity:1" d="M 161.714,15.4286 184.571,24.5714 z" id="boundary" inkscape:connector-curvature="0" />
	<path style="fill:none;stroke:red;stroke-width:1px;stroke-linecap:butt;stroke-linejoin:miter;stroke-opacity:1" d="M 184.571,24.5714 205.143,36 z" id="boundary" inkscape:connector-curvature="0" />
	<path style="fill:none;stroke:red;stroke-width:1px;stroke-linecap:butt;stroke-linejoin:miter;stroke-opacity:1" d="M 205.143,36 223.429,52 z" id="boundary" inkscape:connector-curvature="0" />
	<path style="fill:none;stroke:red;stroke-width:1px;stroke-linecap:butt;stroke-linejoin:miter;stroke-opacity:1" d="M 223.429,52 234.857,72.5714 z" id="boundary" inkscape:connector-curvature="0" />
	<path style="fill:none;stroke:red;stroke-width:1px;stroke-linecap:butt;stroke-linejoin:miter;stroke-opacity:1" d="M 234.857,72.5714 246.286,93.1429 z" id="boundary" inkscape:connector-curvature="0" />
	<path style="fill:none;stroke:red;stroke-width:1px;stroke-linecap:butt;stroke-linejoin:miter;stroke-opacity:1" d="M 246.286,93.1429 269.143,102.286 z" id="boundary" inkscape:connector-curvature="0" />
	<path style="fill:none;stroke:red;stroke-width:1px;stroke-linecap:butt;stroke-linejoin:miter;stroke-opacity:1" d="M 269.143,102.286 292,102.286 z" id="boundary" inkscape:connector-curvature="0" />
	<path style="fill:none;stroke:red;stroke-width:1px;stroke-linecap:butt;stroke-linejoin:miter;stroke-opacity:1" d="M 292,102.286 314.857,102.286 z" id="boundary" inkscape:connector-curvature="0" />
	<path style="fill:none;stroke:red;stroke-width:1px;stroke-linecap:butt;stroke-linejoin:miter;stroke-opacity:1" d="M 314.857,102.286 335.429,113.714 z" id="boundary" inkscape:connector-curvature="0" />
	<path style="fill:none;stroke:red;stroke-width:1px;stroke-linecap:butt;stroke-linejoin:miter;stroke-opacity:1" d="M 335.429,113.714 356,125.143 z" id="boundary" inkscape:connector-curvature="0" />
	<path style="fill:none;stroke:red;stroke-width:1px;stroke-linecap:butt;stroke-linejoin:miter;stroke-opacity:1" d="M 356,125.143 376.571,136.571 z" id="boundary" inkscape:connector-curvature="0" />
	<path style="fill:none;stroke:red;stroke-width:1px;stroke-linecap:butt;stroke-linejoin:miter;stroke-opacity:1" d="M 376.571,136.571 397.143,148 z" id="boundary" inkscape:connector-curvature="0" />
	<path style="fill:none;stroke:red;stroke-width:1px;stroke-linecap:butt;stroke-linejoin:miter;stroke-opacity:1" d="M 397.143,148 417.714,159.429 z" id="boundary" inkscape:connector-curvature="0" />
	<path style="fill:none;stroke:red;stroke-width:1px;stroke-linecap:butt;stroke-linejoin:miter;stroke-opacity:1" d="M 417.714,159.429 436,173.143 z" id="boundary" inkscape:connector-curvature="0" />
	<path style="fill:none;stroke:red;stroke-width:1px;stroke-linecap:butt;stroke-linejoin:miter;stroke-opacity:1" d="M 436,173.143 452,191.429 z" id="boundary" inkscape:connector-curvature="0" />
	<path style="fill:none;stroke:red;stroke-width:1px;stroke-linecap:butt;stroke-linejoin:miter;stroke-opacity:1" d="M 452,191.429 474.857,200.571 z" id="boundary" inkscape:connector-curvature="0" />
	<path style="fill:none;stroke:red;stroke-width:1px;stroke-linecap:butt;stroke-linejoin:miter;stroke-opacity:1" d="M 474.857,200.571 490.857,218.857 z" id="boundary" inkscape:connector-curvature="0" />
	<path style="fill:none;stroke:red;stroke-width:1px;stroke-linecap:butt;stroke-linejoin:miter;stroke-opacity:1" d="M 490.857,218.857 502.286,239.429 z" id="boundary" inkscape:connector-curvature="0" />
	<path style="fill:none;stroke:red;stroke-width:1px;stroke-linecap:butt;stroke-linejoin:miter;stroke-opacity:1" d="M 502.286,239.429 509.143,262.286 z" id="boundary" inkscape:connector-curvature="0" />
	<path style="fill:none;stroke:red;stroke-width:1px;stroke-linecap:butt;stroke-linejoin:miter;stroke-opacity:1" d="M 509.143,262.286 529.714,273.714 z" id="boundary" inkscape:connector-curvature="0" />
	<path style="fill:none;stroke:red;stroke-width:1px;stroke-linecap:butt;stroke-linejoin:miter;stroke-opacity:1" d="M 529.714,273.714 543.429,292 z" id="boundary" inkscape:connector-curvature="0" />
	<path style="fill:none;stroke:red;stroke-width:1px;stroke-linecap:butt;stroke-linejoin:miter;stroke-opacity:1" d="M 543.429,292 554.857,312.571 z" id="boundary" inkscape:connector-curvature="0" />
	<path style="fill:none;stroke:red;stroke-width:1px;stroke-linecap:butt;stroke-linejoin:miter;stroke-opacity:1" d="M 554.857,312.571 554.857,335.429 z" id="boundary" inkscape:connector-curvature="0" />
	<path style="fill:none;stroke:red;stroke-width:1px;stroke-linecap:butt;stroke-linejoin:miter;stroke-opacity:1" d="M 554.857,335.429 566.286,356 z" id="boundary" inkscape:connector-curvature="0" />
	<path style="fill:none;stroke:red;stroke-width:1px;stroke-linecap:butt;stroke-linejoin:miter;stroke-opacity:1" d="M 566.286,356 566.286,378.857 z" id="boundary" inkscape:connector-curvature="0" />
	<path style="fill:none;stroke:red;stroke-width:1px;stroke-linecap:butt;stroke-linejoin:miter;stroke-opacity:1" d="M 566.286,378.857 570.857,401.714 z" id="boundary" inkscape:connector-curvature="0" />
	<path style="fill:none;stroke:red;stroke-width:1px;stroke-linecap:butt;stroke-linejoin:miter;stroke-opacity:1" d="M 570.857,401.714 582.286,422.286 z" id="boundary" inkscape:connector-curvature="0" />
	<path style="fill:none;stroke:red;stroke-width:1px;stroke-linecap:butt;stroke-linejoin:miter;stroke-opacity:1" d="M 582.286,422.286 589.143,445.143 z" id="boundary" inkscape:connector-curvature="0" />
	<path style="fill:none;stroke:red;stroke-width:1px;stroke-linecap:butt;stroke-linejoin:miter;stroke-opacity:1" d="M 589.143,445.143 577.714,470.286 z" id="boundary" inkscape:connector-curvature="0" />
	<path style="fill:none;stroke:red;stroke-width:1px;stroke-linecap:butt;stroke-linejoin:miter;stroke-opacity:1" d="M 324,454.286 314.857,484 z" id="boundary" inkscape:connector-curvature="0" />
	<path style="fill:none;stroke:red;stroke-width:1px;stroke-linecap:butt;stroke-linejoin:miter;stroke-opacity:1" d="M 314.857,484 292,495.429 z" id="boundary" inkscape:connector-curvature="0" />
	<path style="fill:none;stroke:red;stroke-width:1px;stroke-linecap:butt;stroke-linejoin:miter;stroke-opacity:1" d="M 292,495.429 273.714,513.714 z" id="boundary" inkscape:connector-curvature="0" />
	<path style="fill:none;stroke:red;stroke-width:1px;stroke-linecap:butt;stroke-linejoin:miter;stroke-opacity:1" d="M 273.714,513.714 255.429,532 z" id="boundary" inkscape:connector-curvature="0" />
	<path style="fill:none;stroke:red;stroke-width:1px;stroke-linecap:butt;stroke-linejoin:miter;stroke-opacity:1" d="M 255.429,532 244,554.857 z" id="boundary" inkscape:connector-curvature="0" />
	<path style="fill:none;stroke:red;stroke-width:1px;stroke-linecap:butt;stroke-linejoin:miter;stroke-opacity:1" d="M 244,554.857 232.571,577.714 z" id="boundary" inkscape:connector-curvature="0" />
	<path style="fill:none;stroke:red;stroke-width:1px;stroke-linecap:butt;stroke-linejoin:miter;stroke-opacity:1" d="M 232.571,577.714 228,605.143 z" id="boundary" inkscape:connector-curvature="0" />
	<path style="fill:none;stroke:red;stroke-width:1px;stroke-linecap:butt;stroke-linejoin:miter;stroke-opacity:1" d="M 228,605.143 216.571,628 z" id="boundary" inkscape:connector-curvature="0" />
	<path style="fill:none;stroke:red;stroke-width:1px;stroke-linecap:butt;stroke-linejoin:miter;stroke-opacity:1" d="M 216.571,628 198.286,646.286 z" id="boundary" inkscape:connector-curvature="0" />
	<path style="fill:none;stroke:red;stroke-width:1px;stroke-linecap:butt;stroke-linejoin:miter;stroke-opacity:1" d="M 198.286,646.286 186.857,669.143 z" id="boundary" inkscape:connector-curvature="0" />
	<path style="fill:none;stroke:red;stroke-width:1px;stroke-linecap:butt;stroke-linejoin:miter;stroke-opacity:1" d="M 577.714,470.286 566.286,504.571 z" id="boundary" inkscape:connector-curvature="0" />
	<path style="fill:none;stroke:red;stroke-width:1px;stroke-linecap:butt;stroke-linejoin:miter;stroke-opacity:1" d="M 566.286,504.571 566.286,527.429 z" id="boundary" inkscape:connector-curvature="0" />
	<path style="fill:none;stroke:red;stroke-width:1px;stroke-linecap:butt;stroke-linejoin:miter;stroke-opacity:1" d="M 566.286,527.429 566.286,550.286 z" id="boundary" inkscape:connector-curvature="0" />
	<path style="fill:none;stroke:red;stroke-width:1px;stroke-linecap:butt;stroke-linejoin:miter;stroke-opacity:1" d="M 566.286,550.286 566.286,573.143 z" id="boundary" inkscape:connector-curvature="0" />
	<path style="fill:none;stroke:red;stroke-width:1px;stroke-linecap:butt;stroke-linejoin:miter;stroke-opacity:1" d="M 566.286,573.143 566.286,596 z" id="boundary" inkscape:connector-curvature="0" />
	<path style="fill:none;stroke:red;stroke-width:1px;stroke-linecap:butt;stroke-linejoin:miter;stroke-opacity:1" d="M 566.286,596 566.286,618.857 z" id="boundary" inkscape:connector-curvature="0" />
	<path style="fill:none;stroke:red;stroke-width:1px;stroke-linecap:butt;stroke-linejoin:miter;stroke-opacity:1" d="M 566.286,618.857 566.286,641.714 z" id="boundary" inkscape:connector-curvature="0" />
	<path style="fill:none;stroke:red;stroke-width:1px;stroke-linecap:butt;stroke-linejoin:miter;stroke-opacity:1" d="M 566.286,641.714 566.286,664.571 z" id="boundary" inkscape:connector-curvature="0" />
	<path style="fill:none;stroke:red;stroke-width:1px;stroke-linecap:butt;stroke-linejoin:miter;stroke-opacity:1" d="M 566.286,664.571 566.286,687.429 z" id="boundary" inkscape:connector-curvature="0" />
	<path style="fill:none;stroke:red;stroke-width:1px;stroke-linecap:butt;stroke-linejoin:miter;stroke-opacity:1" d="M 566.286,687.429 566.286,710.286 z" id="boundary" inkscape:connector-curvature="0" />
	<path style="fill:none;stroke:red;stroke-width:1px;stroke-linecap:butt;stroke-linejoin:miter;stroke-opacity:1" d="M 566.286,710.286 559.429,733.143 z" id="boundary" inkscape:connector-curvature="0" />
	<path style="fill:none;stroke:red;stroke-width:1px;stroke-linecap:butt;stroke-linejoin:miter;stroke-opacity:1" d="M 559.429,733.143 582.286,733.143 z" id="boundary" inkscape:connector-curvature="0" />
	<path style="fill:none;stroke:red;stroke-width:1px;stroke-linecap:butt;stroke-linejoin:miter;stroke-opacity:1" d="M 582.286,733.143 605.143,742.286 z" id="boundary" inkscape:connector-curvature="0" />
	<path style="fill:none;stroke:red;stroke-width:1px;stroke-linecap:butt;stroke-linejoin:miter;stroke-opacity:1" d="M 605.143,742.286 628,744.571 z" id="boundary" inkscape:connector-curvature="0" />
	<path style="fill:none;stroke:red;stroke-width:1px;stroke-linecap:butt;stroke-linejoin:miter;stroke-opacity:1" d="M 628,744.571 650.857,744.571 z" id="boundary" inkscape:connector-curvature="0" />
	<path style="fill:none;stroke:red;stroke-width:1px;stroke-linecap:butt;stroke-linejoin:miter;stroke-opacity:1" d="M 650.857,744.571 673.714,744.571 z" id="boundary" inkscape:connector-curvature="0" />
	<path style="fill:none;stroke:red;stroke-width:1px;stroke-linecap:butt;stroke-linejoin:miter;stroke-opacity:1" d="M 673.714,744.571 694.286,756 z" id="boundary" inkscape:connector-curvature="0" />
	<path style="fill:none;stroke:red;stroke-width:1px;stroke-linecap:butt;stroke-linejoin:miter;stroke-opacity:1" d="M 694.286,756 717.143,756 z" id="boundary" inkscape:connector-curvature="0" />
	<path style="fill:none;stroke:red;stroke-width:1px;stroke-linecap:butt;stroke-linejoin:miter;stroke-opacity:1" d="M 717.143,756 740,756 z" id="boundary" inkscape:connector-curvature="0" />
	<path style="fill:none;stroke:red;stroke-width:1px;stroke-linecap:butt;stroke-linejoin:miter;stroke-opacity:1" d="M 740,756 760.571,767.429 z" id="boundary" inkscape:connector-curvature="0" />
	<path style="fill:none;stroke:red;stroke-width:1px;stroke-linecap:butt;stroke-linejoin:miter;stroke-opacity:1" d="M 760.571,767.429 783.429,772 z" id="boundary" inkscape:connector-curvature="0" />
	<path style="fill:none;stroke:red;stroke-width:1px;stroke-linecap:butt;stroke-linejoin:miter;stroke-opacity:1" d="M 783.429,772 806.286,778.857 z" id="boundary" inkscape:connector-curvature="0" />
	<path style="fill:none;stroke:red;stroke-width:1px;stroke-linecap:butt;stroke-linejoin:miter;stroke-opacity:1" d="M 806.286,778.857 826.857,790.286 z" id="boundary" inkscape:connector-curvature="0" />
	<path style="fill:none;stroke:red;stroke-width:1px;stroke-linecap:butt;stroke-linejoin:miter;stroke-opacity:1" d="M 826.857,790.286 847.429,801.714 z" id="boundary" inkscape:connector-curvature="0" />
	<path style="fill:none;stroke:red;stroke-width:1px;stroke-linecap:butt;stroke-linejoin:miter;stroke-opacity:1" d="M 847.429,801.714 868,813.143 z" id="boundary" inkscape:connector-curvature="0" />
	<path style="fill:none;stroke:red;stroke-width:1px;stroke-linecap:butt;stroke-linejoin:miter;stroke-opacity:1" d="M 868,813.143 890.857,822.286 z" id="boundary" inkscape:connector-curvature="0" />
	<path style="fill:none;stroke:red;stroke-width:1px;stroke-linecap:butt;stroke-linejoin:miter;stroke-opacity:1" d="M 890.857,822.286 911.429,833.714 z" id="boundary" inkscape:connector-curvature="0" />
	<path style="fill:none;stroke:red;stroke-width:1px;stroke-linecap:butt;stroke-linejoin:miter;stroke-opacity:1" d="M 911.429,833.714 934.286,842.857 z" id="boundary" inkscape:connector-curvature="0" />
	<path style="fill:none;stroke:red;stroke-width:1px;stroke-linecap:butt;stroke-linejoin:miter;stroke-opacity:1" d="M 934.286,842.857 952.571,829.143 z" id="boundary" inkscape:connector-curvature="0" />
	<path style="fill:none;stroke:red;stroke-width:1px;stroke-linecap:butt;stroke-linejoin:miter;stroke-opacity:1" d="M 952.571,829.143 966.286,794.857 z" id="boundary" inkscape:connector-curvature="0" />
	<path style="fill:none;stroke:red;stroke-width:1px;stroke-linecap:butt;stroke-linejoin:miter;stroke-opacity:1" d="M 966.286,794.857 966.286,772 z" id="boundary" inkscape:connector-curvature="0" />
	<path style="fill:none;stroke:red;stroke-width:1px;stroke-linecap:butt;stroke-linejoin:miter;stroke-opacity:1" d="M 966.286,772 966.286,749.143 z" id="boundary" inkscape:connector-curvature="0" />
	<path style="fill:none;stroke:red;stroke-width:1px;stroke-linecap:butt;stroke-linejoin:miter;stroke-opacity:1" d="M 966.286,749.143 964,726.286 z" id="boundary" inkscape:connector-curvature="0" />
	<path style="fill:none;stroke:red;stroke-width:1px;stroke-linecap:butt;stroke-linejoin:miter;stroke-opacity:1" d="M 964,726.286 954.857,703.429 z" id="boundary" inkscape:connector-curvature="0" />
	<path style="fill:none;stroke:red;stroke-width:1px;stroke-linecap:butt;stroke-linejoin:miter;stroke-opacity:1" d="M 954.857,703.429 943.429,682.857 z" id="boundary" inkscape:connector-curvature="0" />
	<path style="fill:none;stroke:red;stroke-width:1px;stroke-linecap:butt;stroke-linejoin:miter;stroke-opacity:1" d="M 943.429,682.857 932,662.286 z" id="boundary" inkscape:connector-curvature="0" />
	<path style="fill:none;stroke:red;stroke-width:1px;stroke-linecap:butt;stroke-linejoin:miter;stroke-opacity:1" d="M 932,662.286 922.857,639.429 z" id="boundary" inkscape:connector-curvature="0" />
	<path style="fill:none;stroke:red;stroke-width:1px;stroke-linecap:butt;stroke-linejoin:miter;stroke-opacity:1" d="M 922.857,639.429 902.286,628 z" id="boundary" inkscape:connector-curvature="0" />
	<path style="fill:none;stroke:red;stroke-width:1px;stroke-linecap:butt;stroke-linejoin:miter;stroke-opacity:1" d="M 902.286,628 879.429,628 z" id="boundary" inkscape:connector-curvature="0" />
	<path style="fill:none;stroke:red;stroke-width:1px;stroke-linecap:butt;stroke-linejoin:miter;stroke-opacity:1" d="M 879.429,628 856.571,628 z" id="boundary" inkscape:connector-curvature="0" />
	<path style="fill:none;stroke:red;stroke-width:1px;stroke-linecap:butt;stroke-linejoin:miter;stroke-opacity:1" d="M 856.571,628 833.714,639.429 z" id="boundary" inkscape:connector-curvature="0" />
	<path style="fill:none;stroke:red;stroke-width:1px;stroke-linecap:butt;stroke-linejoin:miter;stroke-opacity:1" d="M 833.714,639.429 810.857,650.857 z" id="boundary" inkscape:connector-curvature="0" />
	<path style="fill:none;stroke:red;stroke-width:1px;stroke-linecap:butt;stroke-linejoin:miter;stroke-opacity:1" d="M 810.857,650.857 788,662.286 z" id="boundary" inkscape:connector-curvature="0" />
	<path style="fill:none;stroke:red;stroke-width:1px;stroke-linecap:butt;stroke-linejoin:miter;stroke-opacity:1" d="M 788,662.286 767.429,673.714 z" id="boundary" inkscape:connector-curvature="0" />
	<path style="fill:none;stroke:red;stroke-width:1px;stroke-linecap:butt;stroke-linejoin:miter;stroke-opacity:1" d="M 767.429,673.714 746.857,685.143 z" id="boundary" inkscape:connector-curvature="0" />
	<path style="fill:none;stroke:red;stroke-width:1px;stroke-linecap:butt;stroke-linejoin:miter;stroke-opacity:1" d="M 746.857,685.143 724,692 z" id="boundary" inkscape:connector-curvature="0" />
	<path style="fill:none;stroke:red;stroke-width:1px;stroke-linecap:butt;stroke-linejoin:miter;stroke-opacity:1" d="M 724,692 701.143,696.571 z" id="boundary" inkscape:connector-curvature="0" />
	<path style="fill:none;stroke:red;stroke-width:1px;stroke-linecap:butt;stroke-linejoin:miter;stroke-opacity:1" d="M 701.143,696.571 678.286,696.571 z" id="boundary" inkscape:connector-curvature="0" />
	<path style="fill:none;stroke:red;stroke-width:1px;stroke-linecap:butt;stroke-linejoin:miter;stroke-opacity:1" d="M 678.286,696.571 655.429,696.571 z" id="boundary" inkscape:connector-curvature="0" />
	<path style="fill:none;stroke:red;stroke-width:1px;stroke-linecap:butt;stroke-linejoin:miter;stroke-opacity:1" d="M 655.429,696.571 632.571,696.571 z" id="boundary" inkscape:connector-curvature="0" />
	<path style="fill:none;stroke:red;stroke-width:1px;stroke-linecap:butt;stroke-linejoin:miter;stroke-opacity:1" d="M 632.571,696.571 609.714,696.571 z" id="boundary" inkscape:connector-curvature="0" />
	<path style="fill:none;stroke:red;stroke-width:1px;stroke-linecap:butt;stroke-linejoin:miter;stroke-opacity:1" d="M 609.714,696.571 591.429,710.286 z" id="boundary" inkscape:connector-curvature="0" />
	<path style="fill:none;stroke:red;stroke-width:1px;stroke-linecap:butt;stroke-linejoin:miter;stroke-opacity:1" d="M 186.857,669.143 170.857,708 z" id="boundary" inkscape:connector-curvature="0" />
	<path style="fill:none;stroke:red;stroke-width:1px;stroke-linecap:butt;stroke-linejoin:miter;stroke-opacity:1" d="M 170.857,708 161.714,730.857 z" id="boundary" inkscape:connector-curvature="0" />
	<path style="fill:none;stroke:red;stroke-width:1px;stroke-linecap:butt;stroke-linejoin:miter;stroke-opacity:1" d="M 161.714,730.857 143.429,746.857 z" id="boundary" inkscape:connector-curvature="0" />
	<path style="fill:none;stroke:red;stroke-width:1px;stroke-linecap:butt;stroke-linejoin:miter;stroke-opacity:1" d="M 143.429,746.857 132,769.714 z" id="boundary" inkscape:connector-curvature="0" />
	<path style="fill:none;stroke:red;stroke-width:1px;stroke-linecap:butt;stroke-linejoin:miter;stroke-opacity:1" d="M 132,769.714 113.714,788 z" id="boundary" inkscape:connector-curvature="0" />
	<path style="fill:none;stroke:red;stroke-width:1px;stroke-linecap:butt;stroke-linejoin:miter;stroke-opacity:1" d="M 113.714,788 102.286,810.857 z" id="boundary" inkscape:connector-curvature="0" />
	<path style="fill:none;stroke:red;stroke-width:1px;stroke-linecap:butt;stroke-linejoin:miter;stroke-opacity:1" d="M 102.286,810.857 84,829.143 z" id="boundary" inkscape:connector-curvature="0" />
	<path style="fill:none;stroke:red;stroke-width:1px;stroke-linecap:butt;stroke-linejoin:miter;stroke-opacity:1" d="M 84,829.143 68,856.571 z" id="boundary" inkscape:connector-curvature="0" />
	<path style="fill:none;stroke:red;stroke-width:1px;stroke-linecap:butt;stroke-linejoin:miter;stroke-opacity:1" d="M 68,856.571 49.7143,874.857 z" id="boundary" inkscape:connector-curvature="0" />
	<path style="fill:none;stroke:red;stroke-width:1px;stroke-linecap:butt;stroke-linejoin:miter;stroke-opacity:1" d="M 49.7143,874.857 26.8571,886.286 z" id="boundary" inkscape:connector-curvature="0" />
	<path style="fill:none;stroke:red;stroke-width:1px;stroke-linecap:butt;stroke-linejoin:miter;stroke-opacity:1" d="M 26.8571,886.286 15.4286,909.143 z" id="boundary" inkscape:connector-curvature="0" />
	<path style="fill:none;stroke:red;stroke-width:1px;stroke-linecap:butt;stroke-linejoin:miter;stroke-opacity:1" d="M 15.4286,909.143 4,932 z" id="boundary" inkscape:connector-curvature="0" />
	<path style="fill:none;stroke:red;stroke-width:1px;stroke-linecap:butt;stroke-linejoin:miter;stroke-opacity:1" d="M 4,932 22.2857,948 z" id="boundary" inkscape:connector-curvature="0" />
	<path style="fill:none;stroke:red;stroke-width:1px;stroke-linecap:butt;stroke-linejoin:miter;stroke-opacity:1" d="M 22.2857,948 38.2857,966.286 z" id="boundary" inkscape:connector-curvature="0" />
	<path style="fill:none;stroke:red;stroke-width:1px;stroke-linecap:butt;stroke-linejoin:miter;stroke-opacity:1" d="M 38.2857,966.286 61.1429,973.143 z" id="boundary" inkscape:connector-curvature="0" />
	<path style="fill:none;stroke:red;stroke-width:1px;stroke-linecap:butt;stroke-linejoin:miter;stroke-opacity:1" d="M 61.1429,973.143 81.7143,984.571 z" id="boundary" inkscape:connector-curvature="0" />
	<path style="fill:none;stroke:red;stroke-width:1px;stroke-linecap:butt;stroke-linejoin:miter;stroke-opacity:1" d="M 81.7143,984.571 102.286,996 z" id="boundary" inkscape:connector-curvature="0" />
	<path style="fill:none;stroke:red;stroke-width:1px;stroke-linecap:butt;stroke-linejoin:miter;stroke-opacity:1" d="M 102.286,996 125.143,996 z" id="boundary" inkscape:connector-curvature="0" />
	<path style="fill:none;stroke:red;stroke-width:1px;stroke-linecap:butt;stroke-linejoin:miter;stroke-opacity:1" d="M 125.143,996 148,996 z" id="boundary" inkscape:connector-curvature="0" />
	<path style="fill:none;stroke:red;stroke-width:1px;stroke-linecap:butt;stroke-linejoin:miter;stroke-opacity:1" d="M 148,996 170.857,993.714 z" id="boundary" inkscape:connector-curvature="0" />
	<path style="fill:none;stroke:red;stroke-width:1px;stroke-linecap:butt;stroke-linejoin:miter;stroke-opacity:1" d="M 170.857,993.714 193.714,982.286 z" id="boundary" inkscape:connector-curvature="0" />
	<path style="fill:none;stroke:red;stroke-width:1px;stroke-linecap:butt;stroke-linejoin:miter;stroke-opacity:1" d="M 193.714,982.286 205.143,959.429 z" id="boundary" inkscape:connector-curvature="0" />
	<path style="fill:none;stroke:red;stroke-width:1px;stroke-linecap:butt;stroke-linejoin:miter;stroke-opacity:1" d="M 205.143,959.429 212,916 z" id="boundary" inkscape:connector-curvature="0" />
	<path style="fill:none;stroke:red;stroke-width:1px;stroke-linecap:butt;stroke-linejoin:miter;stroke-opacity:1" d="M 212,916 212,893.143 z" id="boundary" inkscape:connector-curvature="0" />
	<path style="fill:none;stroke:red;stroke-width:1px;stroke-linecap:butt;stroke-linejoin:miter;stroke-opacity:1" d="M 212,893.143 212,870.286 z" id="boundary" inkscape:connector-curvature="0" />
	<path style="fill:none;stroke:red;stroke-width:1px;stroke-linecap:butt;stroke-linejoin:miter;stroke-opacity:1" d="M 212,870.286 212,847.429 z" id="boundary" inkscape:connector-curvature="0" />
	<path style="fill:none;stroke:red;stroke-width:1px;stroke-linecap:butt;stroke-linejoin:miter;stroke-opacity:1" d="M 212,847.429 212,824.571 z" id="boundary" inkscape:connector-curvature="0" />
	<path style="fill:none;stroke:red;stroke-width:1px;stroke-linecap:butt;stroke-linejoin:miter;stroke-opacity:1" d="M 212,824.571 223.429,801.714 z" id="boundary" inkscape:connector-curvature="0" />
	<path style="fill:none;stroke:red;stroke-width:1px;stroke-linecap:butt;stroke-linejoin:miter;stroke-opacity:1" d="M 223.429,801.714 223.429,778.857 z" id="boundary" inkscape:connector-curvature="0" />
	<path style="fill:none;stroke:red;stroke-width:1px;stroke-linecap:butt;stroke-linejoin:miter;stroke-opacity:1" d="M 223.429,778.857 234.857,744.571 z" id="boundary" inkscape:connector-curvature="0" />
	<path style="fill:none;stroke:red;stroke-width:1px;stroke-linecap:butt;stroke-linejoin:miter;stroke-opacity:1" d="M 234.857,744.571 253.143,728.571 z" id="boundary" inkscape:connector-curvature="0" />
	<path style="fill:none;stroke:red;stroke-width:1px;stroke-linecap:butt;stroke-linejoin:miter;stroke-opacity:1" d="M 253.143,728.571 264.571,705.714 z" id="boundary" inkscape:connector-curvature="0" />
	<path style="fill:none;stroke:red;stroke-width:1px;stroke-linecap:butt;stroke-linejoin:miter;stroke-opacity:1" d="M 264.571,705.714 276,682.857 z" id="boundary" inkscape:connector-curvature="0" />
	<path style="fill:none;stroke:red;stroke-width:1px;stroke-linecap:butt;stroke-linejoin:miter;stroke-opacity:1" d="M 276,682.857 287.429,660 z" id="boundary" inkscape:connector-curvature="0" />
	<path style="fill:none;stroke:red;stroke-width:1px;stroke-linecap:butt;stroke-linejoin:miter;stroke-opacity:1" d="M 287.429,660 303.429,641.714 z" id="boundary" inkscape:connector-curvature="0" />
	<path style="fill:none;stroke:red;stroke-width:1px;stroke-linecap:butt;stroke-linejoin:miter;stroke-opacity:1" d="M 303.429,641.714 314.857,618.857 z" id="boundary" inkscape:connector-curvature="0" />
	<path style="fill:none;stroke:red;stroke-width:1px;stroke-linecap:butt;stroke-linejoin:miter;stroke-opacity:1" d="M 314.857,618.857 333.143,602.857 z" id="boundary" inkscape:connector-curvature="0" />
	<path style="fill:none;stroke:red;stroke-width:1px;stroke-linecap:butt;stroke-linejoin:miter;stroke-opacity:1" d="M 333.143,602.857 356,591.429 z" id="boundary" inkscape:connector-curvature="0" />
	<path style="fill:none;stroke:red;stroke-width:1px;stroke-linecap:butt;stroke-linejoin:miter;stroke-opacity:1" d="M 356,591.429 378.857,580 z" id="boundary" inkscape:connector-curvature="0" />
	<path style="fill:none;stroke:red;stroke-width:1px;stroke-linecap:butt;stroke-linejoin:miter;stroke-opacity:1" d="M 378.857,580 401.714,573.143 z" id="boundary" inkscape:connector-curvature="0" />
	<path style="fill:none;stroke:red;stroke-width:1px;stroke-linecap:butt;stroke-linejoin:miter;stroke-opacity:1" d="M 401.714,573.143 424.571,573.143 z" id="boundary" inkscape:connector-curvature="0" />
	<path style="fill:none;stroke:red;stroke-width:1px;stroke-linecap:butt;stroke-linejoin:miter;stroke-opacity:1" d="M 424.571,573.143 445.143,584.571 z" id="boundary" inkscape:connector-curvature="0" />
	<path style="fill:none;stroke:red;stroke-width:1px;stroke-linecap:butt;stroke-linejoin:miter;stroke-opacity:1" d="M 445.143,584.571 463.429,600.571 z" id="boundary" inkscape:connector-curvature="0" />
	<path style="fill:none;stroke:red;stroke-width:1px;stroke-linecap:butt;stroke-linejoin:miter;stroke-opacity:1" d="M 463.429,600.571 479.429,618.857 z" id="boundary" inkscape:connector-curvature="0" />
	<path style="fill:none;stroke:red;stroke-width:1px;stroke-linecap:butt;stroke-linejoin:miter;stroke-opacity:1" d="M 479.429,618.857 484,641.714 z" id="boundary" inkscape:connector-curvature="0" />
	<path style="fill:none;stroke:red;stroke-width:1px;stroke-linecap:butt;stroke-linejoin:miter;stroke-opacity:1" d="M 484,641.714 484,664.571 z" id="boundary" inkscape:connector-curvature="0" />
	<path style="fill:none;stroke:red;stroke-width:1px;stroke-linecap:butt;stroke-linejoin:miter;stroke-opacity:1" d="M 484,664.571 484,687.429 z" id="boundary" inkscape:connector-curvature="0" />
	<path style="fill:none;stroke:red;stroke-width:1px;stroke-linecap:butt;stroke-linejoin:miter;stroke-opacity:1" d="M 484,687.429 497.714,705.714 z" id="boundary" inkscape:connector-curvature="0" />
	<path style="fill:none;stroke:red;stroke-width:1px;stroke-linecap:butt;stroke-linejoin:miter;stroke-opacity:1" d="M 497.714,705.714 516,721.714 z" id="boundary" inkscape:connector-curvature="0" />
	<path style="fill:none;stroke:red;stroke-width:1px;stroke-linecap:butt;stroke-linejoin:miter;stroke-opacity:1" d="M 516,721.714 538.857,721.714 z" id="boundary" inkscape:connector-curvature="0" />
	<circle cx="4" cy="932" r="4" fill="#0" id="circle0"/>
	<circle cx="15.4286" cy="909.143" r="4" fill="#0" id="circle1"/>
	<circle cx="22.2857" cy="948" r="4" fill="#0" id="circle2"/>
	<circle cx="26.8571" cy="886.286" r="4" fill="#0" id="circle3"/>
	<circle cx="38.2857" cy="966.286" r="4" fill="#0" id="circle4"/>
	<circle cx="49.7143" cy="874.857" r="4" fill="#0" id="circle5"/>
	<circle cx="61.1429" cy="973.143" r="4" fill="#0" id="circle6"/>
	<circle cx="68" cy="856.571" r="4" fill="#0" id="circle7"/>
	<circle cx="72.5714" cy="63.4286" r="4" fill="#0" id="circle8"/>
	<circle cx="72.5714" cy="86.2857" r="4" fill="#0" id="circle9"/>
	<circle cx="81.7143" cy="984.571" r="4" fill="#0" id="circle10"/>
	<circle cx="84" cy="40.5714" r="4" fill="#0" id="circle11"/>
	<circle cx="84" cy="106.857" r="4" fill="#0" id="circle12"/>
	<circle cx="84" cy="829.143" r="4" fill="#0" id="circle13"/>
	<circle cx="95.4286" cy="17.7143" r="4" fill="#0" id="circle14"/>
	<circle cx="100" cy="125.143" r="4" fill="#0" id="circle15"/>
	<circle cx="102.286" cy="810.857" r="4" fill="#0" id="circle16"/>
	<circle cx="102.286" cy="996" r="4" fill="#0" id="circle17"/>
	<circle cx="113.714" cy="788" r="4" fill="#0" id="circle18"/>
	<circle cx="118.286" cy="6.28571" r="4" fill="#0" id="circle19"/>
	<circle cx="118.286" cy="138.857" r="4" fill="#0" id="circle20"/>
	<circle cx="125.143" cy="161.714" r="4" fill="#0" id="circle21"/>
	<circle cx="125.143" cy="996" r="4" fill="#0" id="circle22"/>
	<circle cx="132" cy="769.714" r="4" fill="#0" id="circle23"/>
	<circle cx="141.143" cy="4" r="4" fill="#0" id="circle24"/>
	<circle cx="141.143" cy="180" r="4" fill="#0" id="circle25"/>
	<circle cx="141.143" cy="202.857" r="4" fill="#0" id="circle26"/>
	<circle cx="143.429" cy="225.714" r="4" fill="#0" id="circle27"/>
	<circle cx="143.429" cy="746.857" r="4" fill="#0" id="circle28"/>
	<circle cx="148" cy="996" r="4" fill="#0" id="circle29"/>
	<circle cx="154.857" cy="246.286" r="4" fill="#0" id="circle30"/>
	<circle cx="161.714" cy="15.4286" r="4" fill="#0" id="circle31"/>
	<circle cx="161.714" cy="730.857" r="4" fill="#0" id="circle32"/>
	<circle cx="164" cy="269.143" r="4" fill="#0" id="circle33"/>
	<circle cx="170.857" cy="708" r="4" fill="#0" id="circle34"/>
	<circle cx="170.857" cy="993.714" r="4" fill="#0" id="circle35"/>
	<circle cx="182.286" cy="285.143" r="4" fill="#0" id="circle36"/>
	<circle cx="184.571" cy="24.5714" r="4" fill="#0" id="circle37"/>
	<circle cx="186.857" cy="669.143" r="4" fill="#0" id="circle38"/>
	<circle cx="193.714" cy="982.286" r="4" fill="#0" id="circle39"/>
	<circle cx="198.286" cy="646.286" r="4" fill="#0" id="circle40"/>
	<circle cx="202.857" cy="296.571" r="4" fill="#0" id="circle41"/>
	<circle cx="205.143" cy="36" r="4" fill="#0" id="circle42"/>
	<circle cx="205.143" cy="959.429" r="4" fill="#0" id="circle43"/>
	<circle cx="212" cy="824.571" r="4" fill="#0" id="circle44"/>
	<circle cx="212" cy="847.429" r="4" fill="#0" id="circle45"/>
	<circle cx="212" cy="870.286" r="4" fill="#0" id="circle46"/>
	<circle cx="212" cy="893.143" r="4" fill="#0" id="circle47"/>
	<circle cx="212" cy="916" r="4" fill="#0" id="circle48"/>
	<circle cx="216.571" cy="628" r="4" fill="#0" id="circle49"/>
	<circle cx="221.143" cy="310.286" r="4" fill="#0" id="circle50"/>
	<circle cx="223.429" cy="52" r="4" fill="#0" id="circle51"/>
	<circle cx="223.429" cy="778.857" r="4" fill="#0" id="circle52"/>
	<circle cx="223.429" cy="801.714" r="4" fill="#0" id="circle53"/>
	<circle cx="228" cy="605.143" r="4" fill="#0" id="circle54"/>
	<circle cx="232.571" cy="577.714" r="4" fill="#0" id="circle55"/>
	<circle cx="234.857" cy="72.5714" r="4" fill="#0" id="circle56"/>
	<circle cx="234.857" cy="744.571" r="4" fill="#0" id="circle57"/>
	<circle cx="241.714" cy="321.714" r="4" fill="#0" id="circle58"/>
	<circle cx="244" cy="554.857" r="4" fill="#0" id="circle59"/>
	<circle cx="246.286" cy="93.1429" r="4" fill="#0" id="circle60"/>
	<circle cx="253.143" cy="728.571" r="4" fill="#0" id="circle61"/>
	<circle cx="255.429" cy="532" r="4" fill="#0" id="circle62"/>
	<circle cx="257.714" cy="340" r="4" fill="#0" id="circle63"/>
	<circle cx="264.571" cy="705.714" r="4" fill="#0" id="circle64"/>
	<circle cx="269.143" cy="102.286" r="4" fill="#0" id="circle65"/>
	<circle cx="273.714" cy="513.714" r="4" fill="#0" id="circle66"/>
	<circle cx="276" cy="356" r="4" fill="#0" id="circle67"/>
	<circle cx="276" cy="682.857" r="4" fill="#0" id="circle68"/>
	<circle cx="287.429" cy="660" r="4" fill="#0" id="circle69"/>
	<circle cx="292" cy="102.286" r="4" fill="#0" id="circle70"/>
	<circle cx="292" cy="495.429" r="4" fill="#0" id="circle71"/>
	<circle cx="296.571" cy="367.429" r="4" fill="#0" id="circle72"/>
	<circle cx="303.429" cy="641.714" r="4" fill="#0" id="circle73"/>
	<circle cx="312.571" cy="385.714" r="4" fill="#0" id="circle74"/>
	<circle cx="314.857" cy="102.286" r="4" fill="#0" id="circle75"/>
	<circle cx="314.857" cy="408.571" r="4" fill="#0" id="circle76"/>
	<circle cx="314.857" cy="484" r="4" fill="#0" id="circle77"/>
	<circle cx="314.857" cy="618.857" r="4" fill="#0" id="circle78"/>
	<circle cx="324" cy="431.429" r="4" fill="#0" id="circle79"/>
	<circle cx="324" cy="454.286" r="4" fill="#0" id="circle80"/>
	<circle cx="333.143" cy="602.857" r="4" fill="#0" id="circle81"/>
	<circle cx="335.429" cy="113.714" r="4" fill="#0" id="circle82"/>
	<circle cx="356" cy="125.143" r="4" fill="#0" id="circle83"/>
	<circle cx="356" cy="591.429" r="4" fill="#0" id="circle84"/>
	<circle cx="376.571" cy="136.571" r="4" fill="#0" id="circle85"/>
	<circle cx="378.857" cy="580" r="4" fill="#0" id="circle86"/>
	<circle cx="397.143" cy="148" r="4" fill="#0" id="circle87"/>
	<circle cx="401.714" cy="573.143" r="4" fill="#0" id="circle88"/>
	<circle cx="417.714" cy="159.429" r="4" fill="#0" id="circle89"/>
	<circle cx="424.571" cy="573.143" r="4" fill="#0" id="circle90"/>
	<circle cx="436" cy="173.143" r="4" fill="#0" id="circle91"/>
	<circle cx="445.143" cy="584.571" r="4" fill="#0" id="circle92"/>
	<circle cx="452" cy="191.429" r="4" fill="#0" id="circle93"/>
	<circle cx="463.429" cy="600.571" r="4" fill="#0" id="circle94"/>
	<circle cx="474.857" cy="200.571" r="4" fill="#0" id="circle95"/>
	<circle cx="479.429" cy="618.857" r="4" fill="#0" id="circle96"/>
	<circle cx="484" cy="641.714" r="4" fill="#0" id="circle97"/>
	<circle cx="484" cy="664.571" r="4" fill="#0" id="circle98"/>
	<circle cx="484" cy="687.429" r="4" fill="#0" id="circle99"/>
	<circle cx="490.857" cy="218.857" r="4" fill="#0" id="circle100"/>
	<circle cx="497.714" cy="705.714" r="4" fill="#0" id="circle101"/>
	<circle cx="502.286" cy="239.429" r="4" fill="#0" id="circle102"/>
	<circle cx="509.143" cy="262.286" r="4" fill="#0" id="circle103"/>
	<circle cx="516" cy="721.714" r="4" fill="#0" id="circle104"/>
	<circle cx="529.714" cy="273.714" r="4" fill="#0" id="circle105"/>
	<circle cx="538.857" cy="721.714" r="4" fill="#0" id="circle106"/>
	<circle cx="543.429" cy="292" r="4" fill="#0" id="circle107"/>
	<circle cx="554.857" cy="312.571" r="4" fill="#0" id="circle108"/>
	<circle cx="554.857" cy="335.429" r="4" fill="#0" id="circle109"/>
	<circle cx="559.429" cy="733.143" r="4" fill="#0" id="circle110"/>
	<circle cx="566.286" cy="356" r="4" fill="#0" id="circle111"/>
	<circle cx="566.286" cy="378.857" r="4" fill="#0" id="circle112"/>
	<circle cx="566.286" cy="504.571" r="4" fill="#0" id="circle113"/>
	<circle cx="566.286" cy="527.429" r="4" fill="#0" id="circle114"/>
	<circle cx="566.286" cy="550.286" r="4" fill="#0" id="circle115"/>
	<circle cx="566.286" cy="573.143" r="4" fill="#0" id="circle116"/>
	<circle cx="566.286" cy="596" r="4" fill="#0" id="circle117"/>
	<circle cx="566.286" cy="618.857" r="4" fill="#0" id="circle118"/>
	<circle cx="566.286" cy="641.714" r="4" fill="#0" id="circle119"/>
	<circle cx="566.286" cy="664.571" r="4" fill="#0" id="circle120"/>
	<circle cx="566.286" cy="687.429" r="4" fill="#0" id="circle121"/>
	<circle cx="566.286" cy="710.286" r="4" fill="#0" id="circle122"/>
	<circle cx="570.857" cy="401.714" r="4" fill="#0" id="circle123"/>
	<circle cx="577.714" cy="470.286" r="4" fill="#0" id="circle124"/>
	<circle cx="582.286" cy="422.286" r="4" fill="#0" id="circle125"/>
	<circle cx="582.286" cy="733.143" r="4" fill="#0" id="circle126"/>
	<circle cx="589.143" cy="445.143" r="4" fill="#0" id="circle127"/>
	<circle cx="591.429" cy="710.286" r="4" fill="#0" id="circle128"/>
	<circle cx="605.143" cy="742.286" r="4" fill="#0" id="circle129"/>
	<circle cx="609.714" cy="696.571" r="4" fill="#0" id="circle130"/>
	<circle cx="628" cy="744.571" r="4" fill="#0" id="circle131"/>
	<circle cx="632.571" cy="696.571" r="4" fill="#0" id="circle132"/>
	<circle cx="650.857" cy="744.571" r="4" fill="#0" id="circle133"/>
	<circle cx="655.429" cy="696.571" r="4" fill="#0" id="circle134"/>
	<circle cx="673.714" cy="744.571" r="4" fill="#0" id="circle135"/>
	<circle cx="678.286" cy="696.571" r="4" fill="#0" id="circle136"/>
	<circle cx="694.286" cy="756" r="4" fill="#0" id="circle137"/>
	<circle cx="701.143" cy="696.571" r="4" fill="#0" id="circle138"/>
	<circle cx="717.143" cy="756" r="4" fill="#0" id="circle139"/>
	<circle cx="724" cy="692" r="4" fill="#0" id="circle140"/>
	<circle cx="740" cy="756" r="4" fill="#0" id="circle141"/>
	<circle cx="746.857" cy="685.143" r="4" fill="#0" id="circle142"/>
	<circle cx="760.571" cy="767.429" r="4" fill="#0" id="circle143"/>
	<circle cx="767.429" cy="673.714" r="4" fill="#0" id="circle144"/>
	<circle cx="783.429" cy="772" r="4" fill="#0" id="circle145"/>
	<circle cx="788" cy="662.286" r="4" fill="#0" id="circle146"/>
	<circle cx="806.286" cy="778.857" r="4" fill="#0" id="circle147"/>
	<circle cx="810.857" cy="650.857" r="4" fill="#0" id="circle148"/>
	<circle cx="826.857" cy="790.286" r="4" fill="#0" id="circle149"/>
	<circle cx="833.714" cy="639.429" r="4" fill="#0" id="circle150"/>
	<circle cx="847.429" cy="801.714" r="4" fill="#0" id="circle151"/>
	<circle cx="856.571" cy="628" r="4" fill="#0" id="circle152"/>
	<circle cx="868" cy="813.143" r="4" fill="#0" id="circle153"/>
	<circle cx="879.429" cy="628" r="4" fill="#0" id="circle154"/>
	<circle cx="890.857" cy="822.286" r="4" fill="#0" id="circle155"/>
	<circle cx="902.286" cy="628" r="4" fill="#0" id="circle156"/>
	<circle cx="911.429" cy="833.714" r="4" fill="#0" id="circle157"/>
	<circle cx="922.857" cy="639.429" r="4" fill="#0" id="circle158"/>
	<circle cx="932" cy="662.286" r="4" fill="#0" id="circle159"/>
	<circle cx="934.286" cy="842.857" r="4" fill="#0" id="circle160"/>
	<circle cx="943.429" cy="682.857" r="4" fill="#0" id="circle161"/>
	<circle cx="952.571" cy="829.143" r="4" fill="#0" id="circle162"/>
	<circle cx="954.857" cy="703.429" r="4" fill="#0" id="circle163"/>
	<circle cx="964" cy="726.286" r="4" fill="#0" id="circle164"/>
	<circle cx="966.286" cy="749.143" r="4" fill="#0" id="circle165"/>
	<circle cx="966.286" cy="772" r="4" fill="#0" id="circle166"/>
	<circle cx="966.286" cy="794.857" r="4" fill="#0" id="circle167"/>
	</g>
</svg>