<?xml version="1.0" encoding="UTF-8" standalone="no"?>
<!-- Created with CurveBenchmark -->
<svg
	xmlns:dc="http://purl.org/dc/elements/1.1/"
	xmlns:cc="http://creativecommons.org/ns#"
	xmlns:rdf="http://www.w3.org/1999/02/22-rdf-syntax-ns#"
	xmlns:svg="http://www.w3.org/2000/svg"
	xmlns="http://www.w3.org/2000/svg"
	xmlns:sodipodi="http://sodipodi.sourceforge.net/DTD/sodipodi-0.dtd"
	xmlns:inkscape="http://www.inkscape.org/namespaces/inkscape"
	width="1000"
	height="1000"
	id="svg2"
	version="1.1"
	sodipodi:docname="manifold/crawl-hammer235.png.txt">
<defs
	id="defs4" />
<metadata
	id="metadata7">
	<rdf:RDF>
		<cc:Work
			rdf:about="">
			<dc:format>image/svg+xml</dc:format>
			<dc:type
				rdf:resource="http://purl.org/dc/dcmitype/StillImage" />
			<dc:title></dc:title>
		</cc:Work>
	</rdf:RDF>
</metadata>
<g
	inkscape:label="Layer 1"
	inkscape:groupmode="layer"
	id="layer1">
	<path style="fill:none;stroke:red;stroke-width:1px;stroke-linecap:butt;stroke-linejoin:miter;stroke-opacity:1" d="M 21.2522,9.75072 4,32.7536 z" id="boundary" inkscape:connector-curvature="0" />
	<path style="fill:none;stroke:red;stroke-width:1px;stroke-linecap:butt;stroke-linejoin:miter;stroke-opacity:1" d="M 4,32.7536 6.87536,61.5072 z" id="boundary" inkscape:connector-curvature="0" />
	<path style="fill:none;stroke:red;stroke-width:1px;stroke-linecap:butt;stroke-linejoin:miter;stroke-opacity:1" d="M 6.87536,61.5072 24.1275,84.5101 z" id="boundary" inkscape:connector-curvature="0" />
	<path style="fill:none;stroke:red;stroke-width:1px;stroke-linecap:butt;stroke-linejoin:miter;stroke-opacity:1" d="M 21.2522,9.75072 50.0058,4 z" id="boundary" inkscape:connector-curvature="0" />
	<path style="fill:none;stroke:red;stroke-width:1px;stroke-linecap:butt;stroke-linejoin:miter;stroke-opacity:1" d="M 50.0058,4 78.7594,9.75072 z" id="boundary" inkscape:connector-curvature="0" />
	<path style="fill:none;stroke:red;stroke-width:1px;stroke-linecap:butt;stroke-linejoin:miter;stroke-opacity:1" d="M 78.7594,9.75072 107.513,4 z" id="boundary" inkscape:connector-curvature="0" />
	<path style="fill:none;stroke:red;stroke-width:1px;stroke-linecap:butt;stroke-linejoin:miter;stroke-opacity:1" d="M 107.513,4 136.267,4 z" id="boundary" inkscape:connector-curvature="0" />
	<path style="fill:none;stroke:red;stroke-width:1px;stroke-linecap:butt;stroke-linejoin:miter;stroke-opacity:1" d="M 136.267,4 165.02,4 z" id="boundary" inkscape:connector-curvature="0" />
	<path style="fill:none;stroke:red;stroke-width:1px;stroke-linecap:butt;stroke-linejoin:miter;stroke-opacity:1" d="M 165.02,4 193.774,4 z" id="boundary" inkscape:connector-curvature="0" />
	<path style="fill:none;stroke:red;stroke-width:1px;stroke-linecap:butt;stroke-linejoin:miter;stroke-opacity:1" d="M 24.1275,84.5101 52.8812,93.1362 z" id="boundary" inkscape:connector-curvature="0" />
	<path style="fill:none;stroke:red;stroke-width:1px;stroke-linecap:butt;stroke-linejoin:miter;stroke-opacity:1" d="M 52.8812,93.1362 78.7594,107.513 z" id="boundary" inkscape:connector-curvature="0" />
	<path style="fill:none;stroke:red;stroke-width:1px;stroke-linecap:butt;stroke-linejoin:miter;stroke-opacity:1" d="M 78.7594,107.513 78.7594,136.267 z" id="boundary" inkscape:connector-curvature="0" />
	<path style="fill:none;stroke:red;stroke-width:1px;stroke-linecap:butt;stroke-linejoin:miter;stroke-opacity:1" d="M 193.774,4 222.528,12.6261 z" id="boundary" inkscape:connector-curvature="0" />
	<path style="fill:none;stroke:red;stroke-width:1px;stroke-linecap:butt;stroke-linejoin:miter;stroke-opacity:1" d="M 222.528,12.6261 242.655,35.629 z" id="boundary" inkscape:connector-curvature="0" />
	<path style="fill:none;stroke:red;stroke-width:1px;stroke-linecap:butt;stroke-linejoin:miter;stroke-opacity:1" d="M 242.655,35.629 259.907,58.6319 z" id="boundary" inkscape:connector-curvature="0" />
	<path style="fill:none;stroke:red;stroke-width:1px;stroke-linecap:butt;stroke-linejoin:miter;stroke-opacity:1" d="M 259.907,58.6319 274.284,84.5101 z" id="boundary" inkscape:connector-curvature="0" />
	<path style="fill:none;stroke:red;stroke-width:1px;stroke-linecap:butt;stroke-linejoin:miter;stroke-opacity:1" d="M 78.7594,136.267 90.2609,165.02 z" id="boundary" inkscape:connector-curvature="0" />
	<path style="fill:none;stroke:red;stroke-width:1px;stroke-linecap:butt;stroke-linejoin:miter;stroke-opacity:1" d="M 90.2609,165.02 96.0116,193.774 z" id="boundary" inkscape:connector-curvature="0" />
	<path style="fill:none;stroke:red;stroke-width:1px;stroke-linecap:butt;stroke-linejoin:miter;stroke-opacity:1" d="M 96.0116,193.774 101.762,222.528 z" id="boundary" inkscape:connector-curvature="0" />
	<path style="fill:none;stroke:red;stroke-width:1px;stroke-linecap:butt;stroke-linejoin:miter;stroke-opacity:1" d="M 101.762,222.528 107.513,251.281 z" id="boundary" inkscape:connector-curvature="0" />
	<path style="fill:none;stroke:red;stroke-width:1px;stroke-linecap:butt;stroke-linejoin:miter;stroke-opacity:1" d="M 107.513,251.281 107.513,280.035 z" id="boundary" inkscape:connector-curvature="0" />
	<path style="fill:none;stroke:red;stroke-width:1px;stroke-linecap:butt;stroke-linejoin:miter;stroke-opacity:1" d="M 107.513,280.035 107.513,308.788 z" id="boundary" inkscape:connector-curvature="0" />
	<path style="fill:none;stroke:red;stroke-width:1px;stroke-linecap:butt;stroke-linejoin:miter;stroke-opacity:1" d="M 107.513,308.788 107.513,337.542 z" id="boundary" inkscape:connector-curvature="0" />
	<path style="fill:none;stroke:red;stroke-width:1px;stroke-linecap:butt;stroke-linejoin:miter;stroke-opacity:1" d="M 107.513,337.542 107.513,366.296 z" id="boundary" inkscape:connector-curvature="0" />
	<path style="fill:none;stroke:red;stroke-width:1px;stroke-linecap:butt;stroke-linejoin:miter;stroke-opacity:1" d="M 107.513,366.296 107.513,395.049 z" id="boundary" inkscape:connector-curvature="0" />
	<path style="fill:none;stroke:red;stroke-width:1px;stroke-linecap:butt;stroke-linejoin:miter;stroke-opacity:1" d="M 274.284,84.5101 285.786,113.264 z" id="boundary" inkscape:connector-curvature="0" />
	<path style="fill:none;stroke:red;stroke-width:1px;stroke-linecap:butt;stroke-linejoin:miter;stroke-opacity:1" d="M 285.786,113.264 294.412,142.017 z" id="boundary" inkscape:connector-curvature="0" />
	<path style="fill:none;stroke:red;stroke-width:1px;stroke-linecap:butt;stroke-linejoin:miter;stroke-opacity:1" d="M 294.412,142.017 277.159,179.397 z" id="boundary" inkscape:connector-curvature="0" />
	<path style="fill:none;stroke:red;stroke-width:1px;stroke-linecap:butt;stroke-linejoin:miter;stroke-opacity:1" d="M 277.159,179.397 248.406,179.397 z" id="boundary" inkscape:connector-curvature="0" />
	<path style="fill:none;stroke:red;stroke-width:1px;stroke-linecap:butt;stroke-linejoin:miter;stroke-opacity:1" d="M 248.406,179.397 219.652,179.397 z" id="boundary" inkscape:connector-curvature="0" />
	<path style="fill:none;stroke:red;stroke-width:1px;stroke-linecap:butt;stroke-linejoin:miter;stroke-opacity:1" d="M 219.652,179.397 196.649,159.27 z" id="boundary" inkscape:connector-curvature="0" />
	<path style="fill:none;stroke:red;stroke-width:1px;stroke-linecap:butt;stroke-linejoin:miter;stroke-opacity:1" d="M 107.513,395.049 96.0116,441.055 z" id="boundary" inkscape:connector-curvature="0" />
	<path style="fill:none;stroke:red;stroke-width:1px;stroke-linecap:butt;stroke-linejoin:miter;stroke-opacity:1" d="M 96.0116,441.055 84.5101,469.809 z" id="boundary" inkscape:connector-curvature="0" />
	<path style="fill:none;stroke:red;stroke-width:1px;stroke-linecap:butt;stroke-linejoin:miter;stroke-opacity:1" d="M 84.5101,469.809 84.5101,498.562 z" id="boundary" inkscape:connector-curvature="0" />
	<path style="fill:none;stroke:red;stroke-width:1px;stroke-linecap:butt;stroke-linejoin:miter;stroke-opacity:1" d="M 84.5101,498.562 78.7594,538.817 z" id="boundary" inkscape:connector-curvature="0" />
	<path style="fill:none;stroke:red;stroke-width:1px;stroke-linecap:butt;stroke-linejoin:miter;stroke-opacity:1" d="M 78.7594,538.817 78.7594,567.571 z" id="boundary" inkscape:connector-curvature="0" />
	<path style="fill:none;stroke:red;stroke-width:1px;stroke-linecap:butt;stroke-linejoin:miter;stroke-opacity:1" d="M 78.7594,567.571 78.7594,596.325 z" id="boundary" inkscape:connector-curvature="0" />
	<path style="fill:none;stroke:red;stroke-width:1px;stroke-linecap:butt;stroke-linejoin:miter;stroke-opacity:1" d="M 78.7594,596.325 78.7594,625.078 z" id="boundary" inkscape:connector-curvature="0" />
	<path style="fill:none;stroke:red;stroke-width:1px;stroke-linecap:butt;stroke-linejoin:miter;stroke-opacity:1" d="M 78.7594,625.078 78.7594,653.832 z" id="boundary" inkscape:connector-curvature="0" />
	<path style="fill:none;stroke:red;stroke-width:1px;stroke-linecap:butt;stroke-linejoin:miter;stroke-opacity:1" d="M 78.7594,653.832 78.7594,682.586 z" id="boundary" inkscape:connector-curvature="0" />
	<path style="fill:none;stroke:red;stroke-width:1px;stroke-linecap:butt;stroke-linejoin:miter;stroke-opacity:1" d="M 78.7594,682.586 78.7594,711.339 z" id="boundary" inkscape:connector-curvature="0" />
	<path style="fill:none;stroke:red;stroke-width:1px;stroke-linecap:butt;stroke-linejoin:miter;stroke-opacity:1" d="M 78.7594,711.339 78.7594,740.093 z" id="boundary" inkscape:connector-curvature="0" />
	<path style="fill:none;stroke:red;stroke-width:1px;stroke-linecap:butt;stroke-linejoin:miter;stroke-opacity:1" d="M 78.7594,740.093 78.7594,768.846 z" id="boundary" inkscape:connector-curvature="0" />
	<path style="fill:none;stroke:red;stroke-width:1px;stroke-linecap:butt;stroke-linejoin:miter;stroke-opacity:1" d="M 78.7594,768.846 78.7594,797.6 z" id="boundary" inkscape:connector-curvature="0" />
	<path style="fill:none;stroke:red;stroke-width:1px;stroke-linecap:butt;stroke-linejoin:miter;stroke-opacity:1" d="M 78.7594,797.6 78.7594,826.354 z" id="boundary" inkscape:connector-curvature="0" />
	<path style="fill:none;stroke:red;stroke-width:1px;stroke-linecap:butt;stroke-linejoin:miter;stroke-opacity:1" d="M 78.7594,826.354 78.7594,855.107 z" id="boundary" inkscape:connector-curvature="0" />
	<path style="fill:none;stroke:red;stroke-width:1px;stroke-linecap:butt;stroke-linejoin:miter;stroke-opacity:1" d="M 78.7594,855.107 78.7594,883.861 z" id="boundary" inkscape:connector-curvature="0" />
	<path style="fill:none;stroke:red;stroke-width:1px;stroke-linecap:butt;stroke-linejoin:miter;stroke-opacity:1" d="M 78.7594,883.861 78.7594,912.614 z" id="boundary" inkscape:connector-curvature="0" />
	<path style="fill:none;stroke:red;stroke-width:1px;stroke-linecap:butt;stroke-linejoin:miter;stroke-opacity:1" d="M 78.7594,912.614 78.7594,941.368 z" id="boundary" inkscape:connector-curvature="0" />
	<path style="fill:none;stroke:red;stroke-width:1px;stroke-linecap:butt;stroke-linejoin:miter;stroke-opacity:1" d="M 78.7594,941.368 73.0087,975.872 z" id="boundary" inkscape:connector-curvature="0" />
	<path style="fill:none;stroke:red;stroke-width:1px;stroke-linecap:butt;stroke-linejoin:miter;stroke-opacity:1" d="M 73.0087,975.872 96.0116,996 z" id="boundary" inkscape:connector-curvature="0" />
	<path style="fill:none;stroke:red;stroke-width:1px;stroke-linecap:butt;stroke-linejoin:miter;stroke-opacity:1" d="M 96.0116,996 124.765,996 z" id="boundary" inkscape:connector-curvature="0" />
	<path style="fill:none;stroke:red;stroke-width:1px;stroke-linecap:butt;stroke-linejoin:miter;stroke-opacity:1" d="M 124.765,996 153.519,996 z" id="boundary" inkscape:connector-curvature="0" />
	<path style="fill:none;stroke:red;stroke-width:1px;stroke-linecap:butt;stroke-linejoin:miter;stroke-opacity:1" d="M 153.519,996 182.272,996 z" id="boundary" inkscape:connector-curvature="0" />
	<path style="fill:none;stroke:red;stroke-width:1px;stroke-linecap:butt;stroke-linejoin:miter;stroke-opacity:1" d="M 182.272,996 211.026,996 z" id="boundary" inkscape:connector-curvature="0" />
	<path style="fill:none;stroke:red;stroke-width:1px;stroke-linecap:butt;stroke-linejoin:miter;stroke-opacity:1" d="M 211.026,996 213.901,964.371 z" id="boundary" inkscape:connector-curvature="0" />
	<path style="fill:none;stroke:red;stroke-width:1px;stroke-linecap:butt;stroke-linejoin:miter;stroke-opacity:1" d="M 213.901,964.371 208.151,935.617 z" id="boundary" inkscape:connector-curvature="0" />
	<path style="fill:none;stroke:red;stroke-width:1px;stroke-linecap:butt;stroke-linejoin:miter;stroke-opacity:1" d="M 208.151,935.617 208.151,906.864 z" id="boundary" inkscape:connector-curvature="0" />
	<path style="fill:none;stroke:red;stroke-width:1px;stroke-linecap:butt;stroke-linejoin:miter;stroke-opacity:1" d="M 208.151,906.864 208.151,878.11 z" id="boundary" inkscape:connector-curvature="0" />
	<path style="fill:none;stroke:red;stroke-width:1px;stroke-linecap:butt;stroke-linejoin:miter;stroke-opacity:1" d="M 208.151,878.11 208.151,849.357 z" id="boundary" inkscape:connector-curvature="0" />
	<path style="fill:none;stroke:red;stroke-width:1px;stroke-linecap:butt;stroke-linejoin:miter;stroke-opacity:1" d="M 208.151,849.357 208.151,820.603 z" id="boundary" inkscape:connector-curvature="0" />
	<path style="fill:none;stroke:red;stroke-width:1px;stroke-linecap:butt;stroke-linejoin:miter;stroke-opacity:1" d="M 208.151,820.603 208.151,791.849 z" id="boundary" inkscape:connector-curvature="0" />
	<path style="fill:none;stroke:red;stroke-width:1px;stroke-linecap:butt;stroke-linejoin:miter;stroke-opacity:1" d="M 208.151,791.849 208.151,763.096 z" id="boundary" inkscape:connector-curvature="0" />
	<path style="fill:none;stroke:red;stroke-width:1px;stroke-linecap:butt;stroke-linejoin:miter;stroke-opacity:1" d="M 208.151,763.096 208.151,734.342 z" id="boundary" inkscape:connector-curvature="0" />
	<path style="fill:none;stroke:red;stroke-width:1px;stroke-linecap:butt;stroke-linejoin:miter;stroke-opacity:1" d="M 208.151,734.342 208.151,705.588 z" id="boundary" inkscape:connector-curvature="0" />
	<path style="fill:none;stroke:red;stroke-width:1px;stroke-linecap:butt;stroke-linejoin:miter;stroke-opacity:1" d="M 208.151,705.588 208.151,676.835 z" id="boundary" inkscape:connector-curvature="0" />
	<path style="fill:none;stroke:red;stroke-width:1px;stroke-linecap:butt;stroke-linejoin:miter;stroke-opacity:1" d="M 208.151,676.835 208.151,648.081 z" id="boundary" inkscape:connector-curvature="0" />
	<path style="fill:none;stroke:red;stroke-width:1px;stroke-linecap:butt;stroke-linejoin:miter;stroke-opacity:1" d="M 208.151,648.081 208.151,619.328 z" id="boundary" inkscape:connector-curvature="0" />
	<path style="fill:none;stroke:red;stroke-width:1px;stroke-linecap:butt;stroke-linejoin:miter;stroke-opacity:1" d="M 208.151,619.328 208.151,590.574 z" id="boundary" inkscape:connector-curvature="0" />
	<path style="fill:none;stroke:red;stroke-width:1px;stroke-linecap:butt;stroke-linejoin:miter;stroke-opacity:1" d="M 208.151,590.574 208.151,561.82 z" id="boundary" inkscape:connector-curvature="0" />
	<path style="fill:none;stroke:red;stroke-width:1px;stroke-linecap:butt;stroke-linejoin:miter;stroke-opacity:1" d="M 208.151,561.82 208.151,533.067 z" id="boundary" inkscape:connector-curvature="0" />
	<path style="fill:none;stroke:red;stroke-width:1px;stroke-linecap:butt;stroke-linejoin:miter;stroke-opacity:1" d="M 208.151,533.067 208.151,504.313 z" id="boundary" inkscape:connector-curvature="0" />
	<path style="fill:none;stroke:red;stroke-width:1px;stroke-linecap:butt;stroke-linejoin:miter;stroke-opacity:1" d="M 208.151,504.313 202.4,475.559 z" id="boundary" inkscape:connector-curvature="0" />
	<path style="fill:none;stroke:red;stroke-width:1px;stroke-linecap:butt;stroke-linejoin:miter;stroke-opacity:1" d="M 202.4,475.559 190.899,446.806 z" id="boundary" inkscape:connector-curvature="0" />
	<path style="fill:none;stroke:red;stroke-width:1px;stroke-linecap:butt;stroke-linejoin:miter;stroke-opacity:1" d="M 190.899,446.806 185.148,418.052 z" id="boundary" inkscape:connector-curvature="0" />
	<path style="fill:none;stroke:red;stroke-width:1px;stroke-linecap:butt;stroke-linejoin:miter;stroke-opacity:1" d="M 185.148,418.052 179.397,389.299 z" id="boundary" inkscape:connector-curvature="0" />
	<path style="fill:none;stroke:red;stroke-width:1px;stroke-linecap:butt;stroke-linejoin:miter;stroke-opacity:1" d="M 179.397,389.299 179.397,360.545 z" id="boundary" inkscape:connector-curvature="0" />
	<path style="fill:none;stroke:red;stroke-width:1px;stroke-linecap:butt;stroke-linejoin:miter;stroke-opacity:1" d="M 179.397,360.545 179.397,331.791 z" id="boundary" inkscape:connector-curvature="0" />
	<path style="fill:none;stroke:red;stroke-width:1px;stroke-linecap:butt;stroke-linejoin:miter;stroke-opacity:1" d="M 179.397,331.791 179.397,303.038 z" id="boundary" inkscape:connector-curvature="0" />
	<path style="fill:none;stroke:red;stroke-width:1px;stroke-linecap:butt;stroke-linejoin:miter;stroke-opacity:1" d="M 179.397,303.038 179.397,274.284 z" id="boundary" inkscape:connector-curvature="0" />
	<path style="fill:none;stroke:red;stroke-width:1px;stroke-linecap:butt;stroke-linejoin:miter;stroke-opacity:1" d="M 179.397,274.284 185.148,234.029 z" id="boundary" inkscape:connector-curvature="0" />
	<path style="fill:none;stroke:red;stroke-width:1px;stroke-linecap:butt;stroke-linejoin:miter;stroke-opacity:1" d="M 185.148,234.029 185.148,205.275 z" id="boundary" inkscape:connector-curvature="0" />
	<path style="fill:none;stroke:red;stroke-width:1px;stroke-linecap:butt;stroke-linejoin:miter;stroke-opacity:1" d="M 196.649,159.27 185.148,205.275 z" id="boundary" inkscape:connector-curvature="0" />
	<circle cx="4" cy="32.7536" r="4" fill="#0" id="circle0"/>
	<circle cx="6.87536" cy="61.5072" r="4" fill="#0" id="circle1"/>
	<circle cx="21.2522" cy="9.75072" r="4" fill="#0" id="circle2"/>
	<circle cx="24.1275" cy="84.5101" r="4" fill="#0" id="circle3"/>
	<circle cx="50.0058" cy="4" r="4" fill="#0" id="circle4"/>
	<circle cx="52.8812" cy="93.1362" r="4" fill="#0" id="circle5"/>
	<circle cx="73.0087" cy="975.872" r="4" fill="#0" id="circle6"/>
	<circle cx="78.7594" cy="9.75072" r="4" fill="#0" id="circle7"/>
	<circle cx="78.7594" cy="107.513" r="4" fill="#0" id="circle8"/>
	<circle cx="78.7594" cy="136.267" r="4" fill="#0" id="circle9"/>
	<circle cx="78.7594" cy="538.817" r="4" fill="#0" id="circle10"/>
	<circle cx="78.7594" cy="567.571" r="4" fill="#0" id="circle11"/>
	<circle cx="78.7594" cy="596.325" r="4" fill="#0" id="circle12"/>
	<circle cx="78.7594" cy="625.078" r="4" fill="#0" id="circle13"/>
	<circle cx="78.7594" cy="653.832" r="4" fill="#0" id="circle14"/>
	<circle cx="78.7594" cy="682.586" r="4" fill="#0" id="circle15"/>
	<circle cx="78.7594" cy="711.339" r="4" fill="#0" id="circle16"/>
	<circle cx="78.7594" cy="740.093" r="4" fill="#0" id="circle17"/>
	<circle cx="78.7594" cy="768.846" r="4" fill="#0" id="circle18"/>
	<circle cx="78.7594" cy="797.6" r="4" fill="#0" id="circle19"/>
	<circle cx="78.7594" cy="826.354" r="4" fill="#0" id="circle20"/>
	<circle cx="78.7594" cy="855.107" r="4" fill="#0" id="circle21"/>
	<circle cx="78.7594" cy="883.861" r="4" fill="#0" id="circle22"/>
	<circle cx="78.7594" cy="912.614" r="4" fill="#0" id="circle23"/>
	<circle cx="78.7594" cy="941.368" r="4" fill="#0" id="circle24"/>
	<circle cx="84.5101" cy="469.809" r="4" fill="#0" id="circle25"/>
	<circle cx="84.5101" cy="498.562" r="4" fill="#0" id="circle26"/>
	<circle cx="90.2609" cy="165.02" r="4" fill="#0" id="circle27"/>
	<circle cx="96.0116" cy="193.774" r="4" fill="#0" id="circle28"/>
	<circle cx="96.0116" cy="441.055" r="4" fill="#0" id="circle29"/>
	<circle cx="96.0116" cy="996" r="4" fill="#0" id="circle30"/>
	<circle cx="101.762" cy="222.528" r="4" fill="#0" id="circle31"/>
	<circle cx="107.513" cy="4" r="4" fill="#0" id="circle32"/>
	<circle cx="107.513" cy="251.281" r="4" fill="#0" id="circle33"/>
	<circle cx="107.513" cy="280.035" r="4" fill="#0" id="circle34"/>
	<circle cx="107.513" cy="308.788" r="4" fill="#0" id="circle35"/>
	<circle cx="107.513" cy="337.542" r="4" fill="#0" id="circle36"/>
	<circle cx="107.513" cy="366.296" r="4" fill="#0" id="circle37"/>
	<circle cx="107.513" cy="395.049" r="4" fill="#0" id="circle38"/>
	<circle cx="124.765" cy="996" r="4" fill="#0" id="circle39"/>
	<circle cx="136.267" cy="4" r="4" fill="#0" id="circle40"/>
	<circle cx="153.519" cy="996" r="4" fill="#0" id="circle41"/>
	<circle cx="165.02" cy="4" r="4" fill="#0" id="circle42"/>
	<circle cx="179.397" cy="274.284" r="4" fill="#0" id="circle43"/>
	<circle cx="179.397" cy="303.038" r="4" fill="#0" id="circle44"/>
	<circle cx="179.397" cy="331.791" r="4" fill="#0" id="circle45"/>
	<circle cx="179.397" cy="360.545" r="4" fill="#0" id="circle46"/>
	<circle cx="179.397" cy="389.299" r="4" fill="#0" id="circle47"/>
	<circle cx="182.272" cy="996" r="4" fill="#0" id="circle48"/>
	<circle cx="185.148" cy="205.275" r="4" fill="#0" id="circle49"/>
	<circle cx="185.148" cy="234.029" r="4" fill="#0" id="circle50"/>
	<circle cx="185.148" cy="418.052" r="4" fill="#0" id="circle51"/>
	<circle cx="190.899" cy="446.806" r="4" fill="#0" id="circle52"/>
	<circle cx="193.774" cy="4" r="4" fill="#0" id="circle53"/>
	<circle cx="196.649" cy="159.27" r="4" fill="#0" id="circle54"/>
	<circle cx="202.4" cy="475.559" r="4" fill="#0" id="circle55"/>
	<circle cx="208.151" cy="504.313" r="4" fill="#0" id="circle56"/>
	<circle cx="208.151" cy="533.067" r="4" fill="#0" id="circle57"/>
	<circle cx="208.151" cy="561.82" r="4" fill="#0" id="circle58"/>
	<circle cx="208.151" cy="590.574" r="4" fill="#0" id="circle59"/>
	<circle cx="208.151" cy="619.328" r="4" fill="#0" id="circle60"/>
	<circle cx="208.151" cy="648.081" r="4" fill="#0" id="circle61"/>
	<circle cx="208.151" cy="676.835" r="4" fill="#0" id="circle62"/>
	<circle cx="208.151" cy="705.588" r="4" fill="#0" id="circle63"/>
	<circle cx="208.151" cy="734.342" r="4" fill="#0" id="circle64"/>
	<circle cx="208.151" cy="763.096" r="4" fill="#0" id="circle65"/>
	<circle cx="208.151" cy="791.849" r="4" fill="#0" id="circle66"/>
	<circle cx="208.151" cy="820.603" r="4" fill="#0" id="circle67"/>
	<circle cx="208.151" cy="849.357" r="4" fill="#0" id="circle68"/>
	<circle cx="208.151" cy="878.11" r="4" fill="#0" id="circle69"/>
	<circle cx="208.151" cy="906.864" r="4" fill="#0" id="circle70"/>
	<circle cx="208.151" cy="935.617" r="4" fill="#0" id="circle71"/>
	<circle cx="211.026" cy="996" r="4" fill="#0" id="circle72"/>
	<circle cx="213.901" cy="964.371" r="4" fill="#0" id="circle73"/>
	<circle cx="219.652" cy="179.397" r="4" fill="#0" id="circle74"/>
	<circle cx="222.528" cy="12.6261" r="4" fill="#0" id="circle75"/>
	<circle cx="242.655" cy="35.629" r="4" fill="#0" id="circle76"/>
	<circle cx="248.406" cy="179.397" r="4" fill="#0" id="circle77"/>
	<circle cx="259.907" cy="58.6319" r="4" fill="#0" id="circle78"/>
	<circle cx="274.284" cy="84.5101" r="4" fill="#0" id="circle79"/>
	<circle cx="277.159" cy="179.397" r="4" fill="#0" id="circle80"/>
	<circle cx="285.786" cy="113.264" r="4" fill="#0" id="circle81"/>
	<circle cx="294.412" cy="142.017" r="4" fill="#0" id="circle82"/>
	</g>
</svg>