<?xml version="1.0" encoding="UTF-8" standalone="no"?>
<!-- Created with CurveBenchmark -->
<svg
	xmlns:dc="http://purl.org/dc/elements/1.1/"
	xmlns:cc="http://creativecommons.org/ns#"
	xmlns:rdf="http://www.w3.org/1999/02/22-rdf-syntax-ns#"
	xmlns:svg="http://www.w3.org/2000/svg"
	xmlns="http://www.w3.org/2000/svg"
	xmlns:sodipodi="http://sodipodi.sourceforge.net/DTD/sodipodi-0.dtd"
	xmlns:inkscape="http://www.inkscape.org/namespaces/inkscape"
	width="1000"
	height="1000"
	id="svg2"
	version="1.1"
	sodipodi:docname="manifold/crawl-sink320.png.txt">
<defs
	id="defs4" />
<metadata
	id="metadata7">
	<rdf:RDF>
		<cc:Work
			rdf:about="">
			<dc:format>image/svg+xml</dc:format>
			<dc:type
				rdf:resource="http://purl.org/dc/dcmitype/StillImage" />
			<dc:title></dc:title>
		</cc:Work>
	</rdf:RDF>
</metadata>
<g
	inkscape:label="Layer 1"
	inkscape:groupmode="layer"
	id="layer1">
	<path style="fill:none;stroke:red;stroke-width:1px;stroke-linecap:butt;stroke-linejoin:miter;stroke-opacity:1" d="M 354.118,597.255 354.118,548.627 z" id="boundary" inkscape:connector-curvature="0" />
	<path style="fill:none;stroke:red;stroke-width:1px;stroke-linecap:butt;stroke-linejoin:miter;stroke-opacity:1" d="M 354.118,548.627 354.118,500 z" id="boundary" inkscape:connector-curvature="0" />
	<path style="fill:none;stroke:red;stroke-width:1px;stroke-linecap:butt;stroke-linejoin:miter;stroke-opacity:1" d="M 354.118,597.255 354.118,645.882 z" id="boundary" inkscape:connector-curvature="0" />
	<path style="fill:none;stroke:red;stroke-width:1px;stroke-linecap:butt;stroke-linejoin:miter;stroke-opacity:1" d="M 354.118,645.882 354.118,694.51 z" id="boundary" inkscape:connector-curvature="0" />
	<path style="fill:none;stroke:red;stroke-width:1px;stroke-linecap:butt;stroke-linejoin:miter;stroke-opacity:1" d="M 354.118,694.51 354.118,743.137 z" id="boundary" inkscape:connector-curvature="0" />
	<path style="fill:none;stroke:red;stroke-width:1px;stroke-linecap:butt;stroke-linejoin:miter;stroke-opacity:1" d="M 354.118,743.137 354.118,791.765 z" id="boundary" inkscape:connector-curvature="0" />
	<path style="fill:none;stroke:red;stroke-width:1px;stroke-linecap:butt;stroke-linejoin:miter;stroke-opacity:1" d="M 354.118,791.765 354.118,840.392 z" id="boundary" inkscape:connector-curvature="0" />
	<path style="fill:none;stroke:red;stroke-width:1px;stroke-linecap:butt;stroke-linejoin:miter;stroke-opacity:1" d="M 354.118,500 349.255,451.373 z" id="boundary" inkscape:connector-curvature="0" />
	<path style="fill:none;stroke:red;stroke-width:1px;stroke-linecap:butt;stroke-linejoin:miter;stroke-opacity:1" d="M 349.255,451.373 300.627,441.647 z" id="boundary" inkscape:connector-curvature="0" />
	<path style="fill:none;stroke:red;stroke-width:1px;stroke-linecap:butt;stroke-linejoin:miter;stroke-opacity:1" d="M 300.627,441.647 256.863,417.333 z" id="boundary" inkscape:connector-curvature="0" />
	<path style="fill:none;stroke:red;stroke-width:1px;stroke-linecap:butt;stroke-linejoin:miter;stroke-opacity:1" d="M 256.863,417.333 217.961,388.157 z" id="boundary" inkscape:connector-curvature="0" />
	<path style="fill:none;stroke:red;stroke-width:1px;stroke-linecap:butt;stroke-linejoin:miter;stroke-opacity:1" d="M 217.961,388.157 188.784,349.255 z" id="boundary" inkscape:connector-curvature="0" />
	<path style="fill:none;stroke:red;stroke-width:1px;stroke-linecap:butt;stroke-linejoin:miter;stroke-opacity:1" d="M 188.784,349.255 149.882,315.216 z" id="boundary" inkscape:connector-curvature="0" />
	<path style="fill:none;stroke:red;stroke-width:1px;stroke-linecap:butt;stroke-linejoin:miter;stroke-opacity:1" d="M 149.882,315.216 101.255,315.216 z" id="boundary" inkscape:connector-curvature="0" />
	<path style="fill:none;stroke:red;stroke-width:1px;stroke-linecap:butt;stroke-linejoin:miter;stroke-opacity:1" d="M 101.255,315.216 52.6275,315.216 z" id="boundary" inkscape:connector-curvature="0" />
	<path style="fill:none;stroke:red;stroke-width:1px;stroke-linecap:butt;stroke-linejoin:miter;stroke-opacity:1" d="M 52.6275,315.216 4,300.627 z" id="boundary" inkscape:connector-curvature="0" />
	<path style="fill:none;stroke:red;stroke-width:1px;stroke-linecap:butt;stroke-linejoin:miter;stroke-opacity:1" d="M 354.118,840.392 334.667,893.882 z" id="boundary" inkscape:connector-curvature="0" />
	<path style="fill:none;stroke:red;stroke-width:1px;stroke-linecap:butt;stroke-linejoin:miter;stroke-opacity:1" d="M 334.667,893.882 305.49,952.235 z" id="boundary" inkscape:connector-curvature="0" />
	<path style="fill:none;stroke:red;stroke-width:1px;stroke-linecap:butt;stroke-linejoin:miter;stroke-opacity:1" d="M 305.49,952.235 329.804,996 z" id="boundary" inkscape:connector-curvature="0" />
	<path style="fill:none;stroke:red;stroke-width:1px;stroke-linecap:butt;stroke-linejoin:miter;stroke-opacity:1" d="M 329.804,996 378.431,996 z" id="boundary" inkscape:connector-curvature="0" />
	<path style="fill:none;stroke:red;stroke-width:1px;stroke-linecap:butt;stroke-linejoin:miter;stroke-opacity:1" d="M 378.431,996 427.059,996 z" id="boundary" inkscape:connector-curvature="0" />
	<path style="fill:none;stroke:red;stroke-width:1px;stroke-linecap:butt;stroke-linejoin:miter;stroke-opacity:1" d="M 427.059,996 475.686,996 z" id="boundary" inkscape:connector-curvature="0" />
	<path style="fill:none;stroke:red;stroke-width:1px;stroke-linecap:butt;stroke-linejoin:miter;stroke-opacity:1" d="M 475.686,996 524.314,996 z" id="boundary" inkscape:connector-curvature="0" />
	<path style="fill:none;stroke:red;stroke-width:1px;stroke-linecap:butt;stroke-linejoin:miter;stroke-opacity:1" d="M 524.314,996 572.941,996 z" id="boundary" inkscape:connector-curvature="0" />
	<path style="fill:none;stroke:red;stroke-width:1px;stroke-linecap:butt;stroke-linejoin:miter;stroke-opacity:1" d="M 572.941,996 553.49,923.059 z" id="boundary" inkscape:connector-curvature="0" />
	<path style="fill:none;stroke:red;stroke-width:1px;stroke-linecap:butt;stroke-linejoin:miter;stroke-opacity:1" d="M 553.49,923.059 534.039,874.431 z" id="boundary" inkscape:connector-curvature="0" />
	<path style="fill:none;stroke:red;stroke-width:1px;stroke-linecap:butt;stroke-linejoin:miter;stroke-opacity:1" d="M 534.039,874.431 524.314,825.804 z" id="boundary" inkscape:connector-curvature="0" />
	<path style="fill:none;stroke:red;stroke-width:1px;stroke-linecap:butt;stroke-linejoin:miter;stroke-opacity:1" d="M 4,300.627 13.7255,222.824 z" id="boundary" inkscape:connector-curvature="0" />
	<path style="fill:none;stroke:red;stroke-width:1px;stroke-linecap:butt;stroke-linejoin:miter;stroke-opacity:1" d="M 13.7255,222.824 13.7255,174.196 z" id="boundary" inkscape:connector-curvature="0" />
	<path style="fill:none;stroke:red;stroke-width:1px;stroke-linecap:butt;stroke-linejoin:miter;stroke-opacity:1" d="M 13.7255,174.196 62.3529,164.471 z" id="boundary" inkscape:connector-curvature="0" />
	<path style="fill:none;stroke:red;stroke-width:1px;stroke-linecap:butt;stroke-linejoin:miter;stroke-opacity:1" d="M 62.3529,164.471 110.98,164.471 z" id="boundary" inkscape:connector-curvature="0" />
	<path style="fill:none;stroke:red;stroke-width:1px;stroke-linecap:butt;stroke-linejoin:miter;stroke-opacity:1" d="M 110.98,164.471 159.608,164.471 z" id="boundary" inkscape:connector-curvature="0" />
	<path style="fill:none;stroke:red;stroke-width:1px;stroke-linecap:butt;stroke-linejoin:miter;stroke-opacity:1" d="M 159.608,164.471 208.235,164.471 z" id="boundary" inkscape:connector-curvature="0" />
	<path style="fill:none;stroke:red;stroke-width:1px;stroke-linecap:butt;stroke-linejoin:miter;stroke-opacity:1" d="M 208.235,164.471 256.863,164.471 z" id="boundary" inkscape:connector-curvature="0" />
	<path style="fill:none;stroke:red;stroke-width:1px;stroke-linecap:butt;stroke-linejoin:miter;stroke-opacity:1" d="M 256.863,164.471 305.49,164.471 z" id="boundary" inkscape:connector-curvature="0" />
	<path style="fill:none;stroke:red;stroke-width:1px;stroke-linecap:butt;stroke-linejoin:miter;stroke-opacity:1" d="M 305.49,164.471 368.706,135.294 z" id="boundary" inkscape:connector-curvature="0" />
	<path style="fill:none;stroke:red;stroke-width:1px;stroke-linecap:butt;stroke-linejoin:miter;stroke-opacity:1" d="M 368.706,135.294 407.608,164.471 z" id="boundary" inkscape:connector-curvature="0" />
	<path style="fill:none;stroke:red;stroke-width:1px;stroke-linecap:butt;stroke-linejoin:miter;stroke-opacity:1" d="M 407.608,164.471 456.235,164.471 z" id="boundary" inkscape:connector-curvature="0" />
	<path style="fill:none;stroke:red;stroke-width:1px;stroke-linecap:butt;stroke-linejoin:miter;stroke-opacity:1" d="M 456.235,164.471 504.863,164.471 z" id="boundary" inkscape:connector-curvature="0" />
	<path style="fill:none;stroke:red;stroke-width:1px;stroke-linecap:butt;stroke-linejoin:miter;stroke-opacity:1" d="M 504.863,164.471 553.49,164.471 z" id="boundary" inkscape:connector-curvature="0" />
	<path style="fill:none;stroke:red;stroke-width:1px;stroke-linecap:butt;stroke-linejoin:miter;stroke-opacity:1" d="M 553.49,164.471 602.118,164.471 z" id="boundary" inkscape:connector-curvature="0" />
	<path style="fill:none;stroke:red;stroke-width:1px;stroke-linecap:butt;stroke-linejoin:miter;stroke-opacity:1" d="M 602.118,164.471 650.745,164.471 z" id="boundary" inkscape:connector-curvature="0" />
	<path style="fill:none;stroke:red;stroke-width:1px;stroke-linecap:butt;stroke-linejoin:miter;stroke-opacity:1" d="M 650.745,164.471 699.373,164.471 z" id="boundary" inkscape:connector-curvature="0" />
	<path style="fill:none;stroke:red;stroke-width:1px;stroke-linecap:butt;stroke-linejoin:miter;stroke-opacity:1" d="M 699.373,164.471 704.235,213.098 z" id="boundary" inkscape:connector-curvature="0" />
	<path style="fill:none;stroke:red;stroke-width:1px;stroke-linecap:butt;stroke-linejoin:miter;stroke-opacity:1" d="M 704.235,213.098 713.961,261.725 z" id="boundary" inkscape:connector-curvature="0" />
	<path style="fill:none;stroke:red;stroke-width:1px;stroke-linecap:butt;stroke-linejoin:miter;stroke-opacity:1" d="M 713.961,261.725 762.588,261.725 z" id="boundary" inkscape:connector-curvature="0" />
	<path style="fill:none;stroke:red;stroke-width:1px;stroke-linecap:butt;stroke-linejoin:miter;stroke-opacity:1" d="M 762.588,261.725 777.176,315.216 z" id="boundary" inkscape:connector-curvature="0" />
	<path style="fill:none;stroke:red;stroke-width:1px;stroke-linecap:butt;stroke-linejoin:miter;stroke-opacity:1" d="M 777.176,315.216 728.549,315.216 z" id="boundary" inkscape:connector-curvature="0" />
	<path style="fill:none;stroke:red;stroke-width:1px;stroke-linecap:butt;stroke-linejoin:miter;stroke-opacity:1" d="M 728.549,315.216 679.922,315.216 z" id="boundary" inkscape:connector-curvature="0" />
	<path style="fill:none;stroke:red;stroke-width:1px;stroke-linecap:butt;stroke-linejoin:miter;stroke-opacity:1" d="M 679.922,315.216 641.02,349.255 z" id="boundary" inkscape:connector-curvature="0" />
	<path style="fill:none;stroke:red;stroke-width:1px;stroke-linecap:butt;stroke-linejoin:miter;stroke-opacity:1" d="M 641.02,349.255 606.98,393.02 z" id="boundary" inkscape:connector-curvature="0" />
	<path style="fill:none;stroke:red;stroke-width:1px;stroke-linecap:butt;stroke-linejoin:miter;stroke-opacity:1" d="M 606.98,393.02 568.078,422.196 z" id="boundary" inkscape:connector-curvature="0" />
	<path style="fill:none;stroke:red;stroke-width:1px;stroke-linecap:butt;stroke-linejoin:miter;stroke-opacity:1" d="M 568.078,422.196 524.314,446.51 z" id="boundary" inkscape:connector-curvature="0" />
	<path style="fill:none;stroke:red;stroke-width:1px;stroke-linecap:butt;stroke-linejoin:miter;stroke-opacity:1" d="M 524.314,446.51 534.039,495.137 z" id="boundary" inkscape:connector-curvature="0" />
	<path style="fill:none;stroke:red;stroke-width:1px;stroke-linecap:butt;stroke-linejoin:miter;stroke-opacity:1" d="M 534.039,495.137 534.039,543.765 z" id="boundary" inkscape:connector-curvature="0" />
	<path style="fill:none;stroke:red;stroke-width:1px;stroke-linecap:butt;stroke-linejoin:miter;stroke-opacity:1" d="M 534.039,543.765 534.039,592.392 z" id="boundary" inkscape:connector-curvature="0" />
	<path style="fill:none;stroke:red;stroke-width:1px;stroke-linecap:butt;stroke-linejoin:miter;stroke-opacity:1" d="M 534.039,592.392 534.039,641.02 z" id="boundary" inkscape:connector-curvature="0" />
	<path style="fill:none;stroke:red;stroke-width:1px;stroke-linecap:butt;stroke-linejoin:miter;stroke-opacity:1" d="M 534.039,641.02 534.039,689.647 z" id="boundary" inkscape:connector-curvature="0" />
	<path style="fill:none;stroke:red;stroke-width:1px;stroke-linecap:butt;stroke-linejoin:miter;stroke-opacity:1" d="M 534.039,689.647 534.039,738.275 z" id="boundary" inkscape:connector-curvature="0" />
	<path style="fill:none;stroke:red;stroke-width:1px;stroke-linecap:butt;stroke-linejoin:miter;stroke-opacity:1" d="M 524.314,825.804 534.039,738.275 z" id="boundary" inkscape:connector-curvature="0" />
	<path style="fill:none;stroke:red;stroke-width:1px;stroke-linecap:butt;stroke-linejoin:miter;stroke-opacity:1" d="M 334.667,96.3922 334.667,47.7647 z" id="boundary" inkscape:connector-curvature="0" />
	<path style="fill:none;stroke:red;stroke-width:1px;stroke-linecap:butt;stroke-linejoin:miter;stroke-opacity:1" d="M 334.667,47.7647 383.294,47.7647 z" id="boundary" inkscape:connector-curvature="0" />
	<path style="fill:none;stroke:red;stroke-width:1px;stroke-linecap:butt;stroke-linejoin:miter;stroke-opacity:1" d="M 383.294,47.7647 358.98,4 z" id="boundary" inkscape:connector-curvature="0" />
	<path style="fill:none;stroke:red;stroke-width:1px;stroke-linecap:butt;stroke-linejoin:miter;stroke-opacity:1" d="M 334.667,96.3922 407.608,91.5294 z" id="boundary" inkscape:connector-curvature="0" />
	<circle cx="4" cy="300.627" r="4" fill="#0" id="circle0"/>
	<circle cx="13.7255" cy="174.196" r="4" fill="#0" id="circle1"/>
	<circle cx="13.7255" cy="222.824" r="4" fill="#0" id="circle2"/>
	<circle cx="52.6275" cy="315.216" r="4" fill="#0" id="circle3"/>
	<circle cx="62.3529" cy="164.471" r="4" fill="#0" id="circle4"/>
	<circle cx="101.255" cy="315.216" r="4" fill="#0" id="circle5"/>
	<circle cx="110.98" cy="164.471" r="4" fill="#0" id="circle6"/>
	<circle cx="149.882" cy="315.216" r="4" fill="#0" id="circle7"/>
	<circle cx="159.608" cy="164.471" r="4" fill="#0" id="circle8"/>
	<circle cx="188.784" cy="349.255" r="4" fill="#0" id="circle9"/>
	<circle cx="208.235" cy="164.471" r="4" fill="#0" id="circle10"/>
	<circle cx="217.961" cy="388.157" r="4" fill="#0" id="circle11"/>
	<circle cx="256.863" cy="164.471" r="4" fill="#0" id="circle12"/>
	<circle cx="256.863" cy="417.333" r="4" fill="#0" id="circle13"/>
	<circle cx="300.627" cy="441.647" r="4" fill="#0" id="circle14"/>
	<circle cx="305.49" cy="164.471" r="4" fill="#0" id="circle15"/>
	<circle cx="305.49" cy="952.235" r="4" fill="#0" id="circle16"/>
	<circle cx="329.804" cy="996" r="4" fill="#0" id="circle17"/>
	<circle cx="334.667" cy="47.7647" r="4" fill="#0" id="circle18"/>
	<circle cx="334.667" cy="96.3922" r="4" fill="#0" id="circle19"/>
	<circle cx="334.667" cy="893.882" r="4" fill="#0" id="circle20"/>
	<circle cx="349.255" cy="451.373" r="4" fill="#0" id="circle21"/>
	<circle cx="354.118" cy="500" r="4" fill="#0" id="circle22"/>
	<circle cx="354.118" cy="548.627" r="4" fill="#0" id="circle23"/>
	<circle cx="354.118" cy="597.255" r="4" fill="#0" id="circle24"/>
	<circle cx="354.118" cy="645.882" r="4" fill="#0" id="circle25"/>
	<circle cx="354.118" cy="694.51" r="4" fill="#0" id="circle26"/>
	<circle cx="354.118" cy="743.137" r="4" fill="#0" id="circle27"/>
	<circle cx="354.118" cy="791.765" r="4" fill="#0" id="circle28"/>
	<circle cx="354.118" cy="840.392" r="4" fill="#0" id="circle29"/>
	<circle cx="358.98" cy="4" r="4" fill="#0" id="circle30"/>
	<circle cx="368.706" cy="135.294" r="4" fill="#0" id="circle31"/>
	<circle cx="378.431" cy="996" r="4" fill="#0" id="circle32"/>
	<circle cx="383.294" cy="47.7647" r="4" fill="#0" id="circle33"/>
	<circle cx="407.608" cy="91.5294" r="4" fill="#0" id="circle34"/>
	<circle cx="407.608" cy="164.471" r="4" fill="#0" id="circle35"/>
	<circle cx="427.059" cy="996" r="4" fill="#0" id="circle36"/>
	<circle cx="456.235" cy="164.471" r="4" fill="#0" id="circle37"/>
	<circle cx="475.686" cy="996" r="4" fill="#0" id="circle38"/>
	<circle cx="504.863" cy="164.471" r="4" fill="#0" id="circle39"/>
	<circle cx="524.314" cy="446.51" r="4" fill="#0" id="circle40"/>
	<circle cx="524.314" cy="825.804" r="4" fill="#0" id="circle41"/>
	<circle cx="524.314" cy="996" r="4" fill="#0" id="circle42"/>
	<circle cx="534.039" cy="495.137" r="4" fill="#0" id="circle43"/>
	<circle cx="534.039" cy="543.765" r="4" fill="#0" id="circle44"/>
	<circle cx="534.039" cy="592.392" r="4" fill="#0" id="circle45"/>
	<circle cx="534.039" cy="641.02" r="4" fill="#0" id="circle46"/>
	<circle cx="534.039" cy="689.647" r="4" fill="#0" id="circle47"/>
	<circle cx="534.039" cy="738.275" r="4" fill="#0" id="circle48"/>
	<circle cx="534.039" cy="874.431" r="4" fill="#0" id="circle49"/>
	<circle cx="553.49" cy="164.471" r="4" fill="#0" id="circle50"/>
	<circle cx="553.49" cy="923.059" r="4" fill="#0" id="circle51"/>
	<circle cx="568.078" cy="422.196" r="4" fill="#0" id="circle52"/>
	<circle cx="572.941" cy="996" r="4" fill="#0" id="circle53"/>
	<circle cx="602.118" cy="164.471" r="4" fill="#0" id="circle54"/>
	<circle cx="606.98" cy="393.02" r="4" fill="#0" id="circle55"/>
	<circle cx="641.02" cy="349.255" r="4" fill="#0" id="circle56"/>
	<circle cx="650.745" cy="164.471" r="4" fill="#0" id="circle57"/>
	<circle cx="679.922" cy="315.216" r="4" fill="#0" id="circle58"/>
	<circle cx="699.373" cy="164.471" r="4" fill="#0" id="circle59"/>
	<circle cx="704.235" cy="213.098" r="4" fill="#0" id="circle60"/>
	<circle cx="713.961" cy="261.725" r="4" fill="#0" id="circle61"/>
	<circle cx="728.549" cy="315.216" r="4" fill="#0" id="circle62"/>
	<circle cx="762.588" cy="261.725" r="4" fill="#0" id="circle63"/>
	<circle cx="777.176" cy="315.216" r="4" fill="#0" id="circle64"/>
	</g>
</svg>