<?xml version="1.0" encoding="UTF-8" standalone="no"?>
<!-- Created with CurveBenchmark -->
<svg
	xmlns:dc="http://purl.org/dc/elements/1.1/"
	xmlns:cc="http://creativecommons.org/ns#"
	xmlns:rdf="http://www.w3.org/1999/02/22-rdf-syntax-ns#"
	xmlns:svg="http://www.w3.org/2000/svg"
	xmlns="http://www.w3.org/2000/svg"
	xmlns:sodipodi="http://sodipodi.sourceforge.net/DTD/sodipodi-0.dtd"
	xmlns:inkscape="http://www.inkscape.org/namespaces/inkscape"
	width="1000"
	height="1000"
	id="svg2"
	version="1.1"
	sodipodi:docname="manifold/crawl-teddy070.png.txt">
<defs
	id="defs4" />
<metadata
	id="metadata7">
	<rdf:RDF>
		<cc:Work
			rdf:about="">
			<dc:format>image/svg+xml</dc:format>
			<dc:type
				rdf:resource="http://purl.org/dc/dcmitype/StillImage" />
			<dc:title></dc:title>
		</cc:Work>
	</rdf:RDF>
</metadata>
<g
	inkscape:label="Layer 1"
	inkscape:groupmode="layer"
	id="layer1">
	<path style="fill:none;stroke:red;stroke-width:1px;stroke-linecap:butt;stroke-linejoin:miter;stroke-opacity:1" d="M 94.4387,880.125 94.4387,851.863 z" id="boundary" inkscape:connector-curvature="0" />
	<path style="fill:none;stroke:red;stroke-width:1px;stroke-linecap:butt;stroke-linejoin:miter;stroke-opacity:1" d="M 94.4387,880.125 94.4387,908.387 z" id="boundary" inkscape:connector-curvature="0" />
	<path style="fill:none;stroke:red;stroke-width:1px;stroke-linecap:butt;stroke-linejoin:miter;stroke-opacity:1" d="M 94.4387,908.387 94.4387,936.65 z" id="boundary" inkscape:connector-curvature="0" />
	<path style="fill:none;stroke:red;stroke-width:1px;stroke-linecap:butt;stroke-linejoin:miter;stroke-opacity:1" d="M 94.4387,936.65 102.917,964.912 z" id="boundary" inkscape:connector-curvature="0" />
	<path style="fill:none;stroke:red;stroke-width:1px;stroke-linecap:butt;stroke-linejoin:miter;stroke-opacity:1" d="M 102.917,964.912 125.527,981.869 z" id="boundary" inkscape:connector-curvature="0" />
	<path style="fill:none;stroke:red;stroke-width:1px;stroke-linecap:butt;stroke-linejoin:miter;stroke-opacity:1" d="M 125.527,981.869 150.963,996 z" id="boundary" inkscape:connector-curvature="0" />
	<path style="fill:none;stroke:red;stroke-width:1px;stroke-linecap:butt;stroke-linejoin:miter;stroke-opacity:1" d="M 150.963,996 179.225,996 z" id="boundary" inkscape:connector-curvature="0" />
	<path style="fill:none;stroke:red;stroke-width:1px;stroke-linecap:butt;stroke-linejoin:miter;stroke-opacity:1" d="M 179.225,996 207.487,996 z" id="boundary" inkscape:connector-curvature="0" />
	<path style="fill:none;stroke:red;stroke-width:1px;stroke-linecap:butt;stroke-linejoin:miter;stroke-opacity:1" d="M 207.487,996 235.749,996 z" id="boundary" inkscape:connector-curvature="0" />
	<path style="fill:none;stroke:red;stroke-width:1px;stroke-linecap:butt;stroke-linejoin:miter;stroke-opacity:1" d="M 235.749,996 264.011,996 z" id="boundary" inkscape:connector-curvature="0" />
	<path style="fill:none;stroke:red;stroke-width:1px;stroke-linecap:butt;stroke-linejoin:miter;stroke-opacity:1" d="M 264.011,996 292.274,996 z" id="boundary" inkscape:connector-curvature="0" />
	<path style="fill:none;stroke:red;stroke-width:1px;stroke-linecap:butt;stroke-linejoin:miter;stroke-opacity:1" d="M 292.274,996 320.536,996 z" id="boundary" inkscape:connector-curvature="0" />
	<path style="fill:none;stroke:red;stroke-width:1px;stroke-linecap:butt;stroke-linejoin:miter;stroke-opacity:1" d="M 320.536,996 348.798,996 z" id="boundary" inkscape:connector-curvature="0" />
	<path style="fill:none;stroke:red;stroke-width:1px;stroke-linecap:butt;stroke-linejoin:miter;stroke-opacity:1" d="M 348.798,996 377.06,990.348 z" id="boundary" inkscape:connector-curvature="0" />
	<path style="fill:none;stroke:red;stroke-width:1px;stroke-linecap:butt;stroke-linejoin:miter;stroke-opacity:1" d="M 377.06,990.348 405.322,990.348 z" id="boundary" inkscape:connector-curvature="0" />
	<path style="fill:none;stroke:red;stroke-width:1px;stroke-linecap:butt;stroke-linejoin:miter;stroke-opacity:1" d="M 405.322,990.348 433.584,984.695 z" id="boundary" inkscape:connector-curvature="0" />
	<path style="fill:none;stroke:red;stroke-width:1px;stroke-linecap:butt;stroke-linejoin:miter;stroke-opacity:1" d="M 433.584,984.695 461.846,984.695 z" id="boundary" inkscape:connector-curvature="0" />
	<path style="fill:none;stroke:red;stroke-width:1px;stroke-linecap:butt;stroke-linejoin:miter;stroke-opacity:1" d="M 461.846,984.695 490.108,979.043 z" id="boundary" inkscape:connector-curvature="0" />
	<path style="fill:none;stroke:red;stroke-width:1px;stroke-linecap:butt;stroke-linejoin:miter;stroke-opacity:1" d="M 490.108,979.043 518.37,973.39 z" id="boundary" inkscape:connector-curvature="0" />
	<path style="fill:none;stroke:red;stroke-width:1px;stroke-linecap:butt;stroke-linejoin:miter;stroke-opacity:1" d="M 518.37,973.39 546.632,973.39 z" id="boundary" inkscape:connector-curvature="0" />
	<path style="fill:none;stroke:red;stroke-width:1px;stroke-linecap:butt;stroke-linejoin:miter;stroke-opacity:1" d="M 546.632,973.39 574.895,967.738 z" id="boundary" inkscape:connector-curvature="0" />
	<path style="fill:none;stroke:red;stroke-width:1px;stroke-linecap:butt;stroke-linejoin:miter;stroke-opacity:1" d="M 574.895,967.738 603.157,973.39 z" id="boundary" inkscape:connector-curvature="0" />
	<path style="fill:none;stroke:red;stroke-width:1px;stroke-linecap:butt;stroke-linejoin:miter;stroke-opacity:1" d="M 603.157,973.39 631.419,981.869 z" id="boundary" inkscape:connector-curvature="0" />
	<path style="fill:none;stroke:red;stroke-width:1px;stroke-linecap:butt;stroke-linejoin:miter;stroke-opacity:1" d="M 631.419,981.869 659.681,993.174 z" id="boundary" inkscape:connector-curvature="0" />
	<path style="fill:none;stroke:red;stroke-width:1px;stroke-linecap:butt;stroke-linejoin:miter;stroke-opacity:1" d="M 659.681,993.174 687.943,996 z" id="boundary" inkscape:connector-curvature="0" />
	<path style="fill:none;stroke:red;stroke-width:1px;stroke-linecap:butt;stroke-linejoin:miter;stroke-opacity:1" d="M 687.943,996 716.205,996 z" id="boundary" inkscape:connector-curvature="0" />
	<path style="fill:none;stroke:red;stroke-width:1px;stroke-linecap:butt;stroke-linejoin:miter;stroke-opacity:1" d="M 716.205,996 744.467,996 z" id="boundary" inkscape:connector-curvature="0" />
	<path style="fill:none;stroke:red;stroke-width:1px;stroke-linecap:butt;stroke-linejoin:miter;stroke-opacity:1" d="M 744.467,996 772.729,990.348 z" id="boundary" inkscape:connector-curvature="0" />
	<path style="fill:none;stroke:red;stroke-width:1px;stroke-linecap:butt;stroke-linejoin:miter;stroke-opacity:1" d="M 772.729,990.348 800.991,984.695 z" id="boundary" inkscape:connector-curvature="0" />
	<path style="fill:none;stroke:red;stroke-width:1px;stroke-linecap:butt;stroke-linejoin:miter;stroke-opacity:1" d="M 800.991,984.695 823.601,967.738 z" id="boundary" inkscape:connector-curvature="0" />
	<path style="fill:none;stroke:red;stroke-width:1px;stroke-linecap:butt;stroke-linejoin:miter;stroke-opacity:1" d="M 823.601,967.738 846.211,945.128 z" id="boundary" inkscape:connector-curvature="0" />
	<path style="fill:none;stroke:red;stroke-width:1px;stroke-linecap:butt;stroke-linejoin:miter;stroke-opacity:1" d="M 94.4387,851.863 105.744,812.296 z" id="boundary" inkscape:connector-curvature="0" />
	<path style="fill:none;stroke:red;stroke-width:1px;stroke-linecap:butt;stroke-linejoin:miter;stroke-opacity:1" d="M 105.744,812.296 117.048,772.729 z" id="boundary" inkscape:connector-curvature="0" />
	<path style="fill:none;stroke:red;stroke-width:1px;stroke-linecap:butt;stroke-linejoin:miter;stroke-opacity:1" d="M 117.048,772.729 134.006,744.467 z" id="boundary" inkscape:connector-curvature="0" />
	<path style="fill:none;stroke:red;stroke-width:1px;stroke-linecap:butt;stroke-linejoin:miter;stroke-opacity:1" d="M 134.006,744.467 139.658,710.553 z" id="boundary" inkscape:connector-curvature="0" />
	<path style="fill:none;stroke:red;stroke-width:1px;stroke-linecap:butt;stroke-linejoin:miter;stroke-opacity:1" d="M 139.658,710.553 128.353,673.812 z" id="boundary" inkscape:connector-curvature="0" />
	<path style="fill:none;stroke:red;stroke-width:1px;stroke-linecap:butt;stroke-linejoin:miter;stroke-opacity:1" d="M 128.353,673.812 105.744,656.855 z" id="boundary" inkscape:connector-curvature="0" />
	<path style="fill:none;stroke:red;stroke-width:1px;stroke-linecap:butt;stroke-linejoin:miter;stroke-opacity:1" d="M 105.744,656.855 80.3077,642.724 z" id="boundary" inkscape:connector-curvature="0" />
	<path style="fill:none;stroke:red;stroke-width:1px;stroke-linecap:butt;stroke-linejoin:miter;stroke-opacity:1" d="M 80.3077,642.724 57.698,625.766 z" id="boundary" inkscape:connector-curvature="0" />
	<path style="fill:none;stroke:red;stroke-width:1px;stroke-linecap:butt;stroke-linejoin:miter;stroke-opacity:1" d="M 57.698,625.766 40.7407,603.157 z" id="boundary" inkscape:connector-curvature="0" />
	<path style="fill:none;stroke:red;stroke-width:1px;stroke-linecap:butt;stroke-linejoin:miter;stroke-opacity:1" d="M 40.7407,603.157 20.9573,580.547 z" id="boundary" inkscape:connector-curvature="0" />
	<path style="fill:none;stroke:red;stroke-width:1px;stroke-linecap:butt;stroke-linejoin:miter;stroke-opacity:1" d="M 20.9573,580.547 9.65242,552.285 z" id="boundary" inkscape:connector-curvature="0" />
	<path style="fill:none;stroke:red;stroke-width:1px;stroke-linecap:butt;stroke-linejoin:miter;stroke-opacity:1" d="M 9.65242,552.285 6.82621,524.023 z" id="boundary" inkscape:connector-curvature="0" />
	<path style="fill:none;stroke:red;stroke-width:1px;stroke-linecap:butt;stroke-linejoin:miter;stroke-opacity:1" d="M 6.82621,524.023 4,495.761 z" id="boundary" inkscape:connector-curvature="0" />
	<path style="fill:none;stroke:red;stroke-width:1px;stroke-linecap:butt;stroke-linejoin:miter;stroke-opacity:1" d="M 4,495.761 18.1311,470.325 z" id="boundary" inkscape:connector-curvature="0" />
	<path style="fill:none;stroke:red;stroke-width:1px;stroke-linecap:butt;stroke-linejoin:miter;stroke-opacity:1" d="M 18.1311,470.325 32.2621,444.889 z" id="boundary" inkscape:connector-curvature="0" />
	<path style="fill:none;stroke:red;stroke-width:1px;stroke-linecap:butt;stroke-linejoin:miter;stroke-opacity:1" d="M 32.2621,444.889 49.2194,422.279 z" id="boundary" inkscape:connector-curvature="0" />
	<path style="fill:none;stroke:red;stroke-width:1px;stroke-linecap:butt;stroke-linejoin:miter;stroke-opacity:1" d="M 49.2194,422.279 71.8291,405.322 z" id="boundary" inkscape:connector-curvature="0" />
	<path style="fill:none;stroke:red;stroke-width:1px;stroke-linecap:butt;stroke-linejoin:miter;stroke-opacity:1" d="M 71.8291,405.322 97.265,391.191 z" id="boundary" inkscape:connector-curvature="0" />
	<path style="fill:none;stroke:red;stroke-width:1px;stroke-linecap:butt;stroke-linejoin:miter;stroke-opacity:1" d="M 97.265,391.191 125.527,382.712 z" id="boundary" inkscape:connector-curvature="0" />
	<path style="fill:none;stroke:red;stroke-width:1px;stroke-linecap:butt;stroke-linejoin:miter;stroke-opacity:1" d="M 125.527,382.712 142.484,357.276 z" id="boundary" inkscape:connector-curvature="0" />
	<path style="fill:none;stroke:red;stroke-width:1px;stroke-linecap:butt;stroke-linejoin:miter;stroke-opacity:1" d="M 142.484,357.276 128.353,331.84 z" id="boundary" inkscape:connector-curvature="0" />
	<path style="fill:none;stroke:red;stroke-width:1px;stroke-linecap:butt;stroke-linejoin:miter;stroke-opacity:1" d="M 128.353,331.84 117.048,303.578 z" id="boundary" inkscape:connector-curvature="0" />
	<path style="fill:none;stroke:red;stroke-width:1px;stroke-linecap:butt;stroke-linejoin:miter;stroke-opacity:1" d="M 117.048,303.578 111.396,275.316 z" id="boundary" inkscape:connector-curvature="0" />
	<path style="fill:none;stroke:red;stroke-width:1px;stroke-linecap:butt;stroke-linejoin:miter;stroke-opacity:1" d="M 111.396,275.316 111.396,247.054 z" id="boundary" inkscape:connector-curvature="0" />
	<path style="fill:none;stroke:red;stroke-width:1px;stroke-linecap:butt;stroke-linejoin:miter;stroke-opacity:1" d="M 111.396,247.054 105.744,218.792 z" id="boundary" inkscape:connector-curvature="0" />
	<path style="fill:none;stroke:red;stroke-width:1px;stroke-linecap:butt;stroke-linejoin:miter;stroke-opacity:1" d="M 105.744,218.792 105.744,176.399 z" id="boundary" inkscape:connector-curvature="0" />
	<path style="fill:none;stroke:red;stroke-width:1px;stroke-linecap:butt;stroke-linejoin:miter;stroke-opacity:1" d="M 105.744,176.399 94.4387,148.137 z" id="boundary" inkscape:connector-curvature="0" />
	<path style="fill:none;stroke:red;stroke-width:1px;stroke-linecap:butt;stroke-linejoin:miter;stroke-opacity:1" d="M 94.4387,148.137 80.3077,122.701 z" id="boundary" inkscape:connector-curvature="0" />
	<path style="fill:none;stroke:red;stroke-width:1px;stroke-linecap:butt;stroke-linejoin:miter;stroke-opacity:1" d="M 80.3077,122.701 77.4815,94.4387 z" id="boundary" inkscape:connector-curvature="0" />
	<path style="fill:none;stroke:red;stroke-width:1px;stroke-linecap:butt;stroke-linejoin:miter;stroke-opacity:1" d="M 77.4815,94.4387 71.8291,66.1766 z" id="boundary" inkscape:connector-curvature="0" />
	<path style="fill:none;stroke:red;stroke-width:1px;stroke-linecap:butt;stroke-linejoin:miter;stroke-opacity:1" d="M 71.8291,66.1766 88.7863,37.9145 z" id="boundary" inkscape:connector-curvature="0" />
	<path style="fill:none;stroke:red;stroke-width:1px;stroke-linecap:butt;stroke-linejoin:miter;stroke-opacity:1" d="M 88.7863,37.9145 111.396,20.9573 z" id="boundary" inkscape:connector-curvature="0" />
	<path style="fill:none;stroke:red;stroke-width:1px;stroke-linecap:butt;stroke-linejoin:miter;stroke-opacity:1" d="M 111.396,20.9573 139.658,9.65242 z" id="boundary" inkscape:connector-curvature="0" />
	<path style="fill:none;stroke:red;stroke-width:1px;stroke-linecap:butt;stroke-linejoin:miter;stroke-opacity:1" d="M 139.658,9.65242 167.92,4 z" id="boundary" inkscape:connector-curvature="0" />
	<path style="fill:none;stroke:red;stroke-width:1px;stroke-linecap:butt;stroke-linejoin:miter;stroke-opacity:1" d="M 167.92,4 196.182,9.65242 z" id="boundary" inkscape:connector-curvature="0" />
	<path style="fill:none;stroke:red;stroke-width:1px;stroke-linecap:butt;stroke-linejoin:miter;stroke-opacity:1" d="M 196.182,9.65242 224.444,18.1311 z" id="boundary" inkscape:connector-curvature="0" />
	<path style="fill:none;stroke:red;stroke-width:1px;stroke-linecap:butt;stroke-linejoin:miter;stroke-opacity:1" d="M 224.444,18.1311 249.88,32.2621 z" id="boundary" inkscape:connector-curvature="0" />
	<path style="fill:none;stroke:red;stroke-width:1px;stroke-linecap:butt;stroke-linejoin:miter;stroke-opacity:1" d="M 249.88,32.2621 278.142,43.567 z" id="boundary" inkscape:connector-curvature="0" />
	<path style="fill:none;stroke:red;stroke-width:1px;stroke-linecap:butt;stroke-linejoin:miter;stroke-opacity:1" d="M 278.142,43.567 306.405,43.567 z" id="boundary" inkscape:connector-curvature="0" />
	<path style="fill:none;stroke:red;stroke-width:1px;stroke-linecap:butt;stroke-linejoin:miter;stroke-opacity:1" d="M 306.405,43.567 334.667,43.567 z" id="boundary" inkscape:connector-curvature="0" />
	<path style="fill:none;stroke:red;stroke-width:1px;stroke-linecap:butt;stroke-linejoin:miter;stroke-opacity:1" d="M 334.667,43.567 362.929,43.567 z" id="boundary" inkscape:connector-curvature="0" />
	<path style="fill:none;stroke:red;stroke-width:1px;stroke-linecap:butt;stroke-linejoin:miter;stroke-opacity:1" d="M 362.929,43.567 391.191,40.7407 z" id="boundary" inkscape:connector-curvature="0" />
	<path style="fill:none;stroke:red;stroke-width:1px;stroke-linecap:butt;stroke-linejoin:miter;stroke-opacity:1" d="M 391.191,40.7407 413.801,23.7835 z" id="boundary" inkscape:connector-curvature="0" />
	<path style="fill:none;stroke:red;stroke-width:1px;stroke-linecap:butt;stroke-linejoin:miter;stroke-opacity:1" d="M 413.801,23.7835 442.063,12.4786 z" id="boundary" inkscape:connector-curvature="0" />
	<path style="fill:none;stroke:red;stroke-width:1px;stroke-linecap:butt;stroke-linejoin:miter;stroke-opacity:1" d="M 442.063,12.4786 470.325,4 z" id="boundary" inkscape:connector-curvature="0" />
	<path style="fill:none;stroke:red;stroke-width:1px;stroke-linecap:butt;stroke-linejoin:miter;stroke-opacity:1" d="M 470.325,4 498.587,4 z" id="boundary" inkscape:connector-curvature="0" />
	<path style="fill:none;stroke:red;stroke-width:1px;stroke-linecap:butt;stroke-linejoin:miter;stroke-opacity:1" d="M 498.587,4 526.849,15.3048 z" id="boundary" inkscape:connector-curvature="0" />
	<path style="fill:none;stroke:red;stroke-width:1px;stroke-linecap:butt;stroke-linejoin:miter;stroke-opacity:1" d="M 526.849,15.3048 552.285,29.4359 z" id="boundary" inkscape:connector-curvature="0" />
	<path style="fill:none;stroke:red;stroke-width:1px;stroke-linecap:butt;stroke-linejoin:miter;stroke-opacity:1" d="M 552.285,29.4359 572.068,52.0456 z" id="boundary" inkscape:connector-curvature="0" />
	<path style="fill:none;stroke:red;stroke-width:1px;stroke-linecap:butt;stroke-linejoin:miter;stroke-opacity:1" d="M 572.068,52.0456 577.721,80.3077 z" id="boundary" inkscape:connector-curvature="0" />
	<path style="fill:none;stroke:red;stroke-width:1px;stroke-linecap:butt;stroke-linejoin:miter;stroke-opacity:1" d="M 577.721,80.3077 572.068,111.396 z" id="boundary" inkscape:connector-curvature="0" />
	<path style="fill:none;stroke:red;stroke-width:1px;stroke-linecap:butt;stroke-linejoin:miter;stroke-opacity:1" d="M 572.068,111.396 560.764,145.311 z" id="boundary" inkscape:connector-curvature="0" />
	<path style="fill:none;stroke:red;stroke-width:1px;stroke-linecap:butt;stroke-linejoin:miter;stroke-opacity:1" d="M 560.764,145.311 549.459,179.225 z" id="boundary" inkscape:connector-curvature="0" />
	<path style="fill:none;stroke:red;stroke-width:1px;stroke-linecap:butt;stroke-linejoin:miter;stroke-opacity:1" d="M 549.459,179.225 555.111,207.487 z" id="boundary" inkscape:connector-curvature="0" />
	<path style="fill:none;stroke:red;stroke-width:1px;stroke-linecap:butt;stroke-linejoin:miter;stroke-opacity:1" d="M 555.111,207.487 560.764,235.749 z" id="boundary" inkscape:connector-curvature="0" />
	<path style="fill:none;stroke:red;stroke-width:1px;stroke-linecap:butt;stroke-linejoin:miter;stroke-opacity:1" d="M 560.764,235.749 566.416,264.011 z" id="boundary" inkscape:connector-curvature="0" />
	<path style="fill:none;stroke:red;stroke-width:1px;stroke-linecap:butt;stroke-linejoin:miter;stroke-opacity:1" d="M 566.416,264.011 566.416,292.274 z" id="boundary" inkscape:connector-curvature="0" />
	<path style="fill:none;stroke:red;stroke-width:1px;stroke-linecap:butt;stroke-linejoin:miter;stroke-opacity:1" d="M 566.416,292.274 560.764,320.536 z" id="boundary" inkscape:connector-curvature="0" />
	<path style="fill:none;stroke:red;stroke-width:1px;stroke-linecap:butt;stroke-linejoin:miter;stroke-opacity:1" d="M 560.764,320.536 546.632,345.972 z" id="boundary" inkscape:connector-curvature="0" />
	<path style="fill:none;stroke:red;stroke-width:1px;stroke-linecap:butt;stroke-linejoin:miter;stroke-opacity:1" d="M 546.632,345.972 529.675,368.581 z" id="boundary" inkscape:connector-curvature="0" />
	<path style="fill:none;stroke:red;stroke-width:1px;stroke-linecap:butt;stroke-linejoin:miter;stroke-opacity:1" d="M 529.675,368.581 555.111,382.712 z" id="boundary" inkscape:connector-curvature="0" />
	<path style="fill:none;stroke:red;stroke-width:1px;stroke-linecap:butt;stroke-linejoin:miter;stroke-opacity:1" d="M 555.111,382.712 583.373,382.712 z" id="boundary" inkscape:connector-curvature="0" />
	<path style="fill:none;stroke:red;stroke-width:1px;stroke-linecap:butt;stroke-linejoin:miter;stroke-opacity:1" d="M 583.373,382.712 611.635,394.017 z" id="boundary" inkscape:connector-curvature="0" />
	<path style="fill:none;stroke:red;stroke-width:1px;stroke-linecap:butt;stroke-linejoin:miter;stroke-opacity:1" d="M 611.635,394.017 637.071,408.148 z" id="boundary" inkscape:connector-curvature="0" />
	<path style="fill:none;stroke:red;stroke-width:1px;stroke-linecap:butt;stroke-linejoin:miter;stroke-opacity:1" d="M 637.071,408.148 659.681,425.105 z" id="boundary" inkscape:connector-curvature="0" />
	<path style="fill:none;stroke:red;stroke-width:1px;stroke-linecap:butt;stroke-linejoin:miter;stroke-opacity:1" d="M 659.681,425.105 687.943,427.932 z" id="boundary" inkscape:connector-curvature="0" />
	<path style="fill:none;stroke:red;stroke-width:1px;stroke-linecap:butt;stroke-linejoin:miter;stroke-opacity:1" d="M 687.943,427.932 716.205,433.584 z" id="boundary" inkscape:connector-curvature="0" />
	<path style="fill:none;stroke:red;stroke-width:1px;stroke-linecap:butt;stroke-linejoin:miter;stroke-opacity:1" d="M 716.205,433.584 744.467,439.236 z" id="boundary" inkscape:connector-curvature="0" />
	<path style="fill:none;stroke:red;stroke-width:1px;stroke-linecap:butt;stroke-linejoin:miter;stroke-opacity:1" d="M 744.467,439.236 772.729,444.889 z" id="boundary" inkscape:connector-curvature="0" />
	<path style="fill:none;stroke:red;stroke-width:1px;stroke-linecap:butt;stroke-linejoin:miter;stroke-opacity:1" d="M 772.729,444.889 800.991,456.194 z" id="boundary" inkscape:connector-curvature="0" />
	<path style="fill:none;stroke:red;stroke-width:1px;stroke-linecap:butt;stroke-linejoin:miter;stroke-opacity:1" d="M 800.991,456.194 815.123,481.63 z" id="boundary" inkscape:connector-curvature="0" />
	<path style="fill:none;stroke:red;stroke-width:1px;stroke-linecap:butt;stroke-linejoin:miter;stroke-opacity:1" d="M 815.123,481.63 826.427,509.892 z" id="boundary" inkscape:connector-curvature="0" />
	<path style="fill:none;stroke:red;stroke-width:1px;stroke-linecap:butt;stroke-linejoin:miter;stroke-opacity:1" d="M 826.427,509.892 826.427,538.154 z" id="boundary" inkscape:connector-curvature="0" />
	<path style="fill:none;stroke:red;stroke-width:1px;stroke-linecap:butt;stroke-linejoin:miter;stroke-opacity:1" d="M 826.427,538.154 812.296,572.068 z" id="boundary" inkscape:connector-curvature="0" />
	<path style="fill:none;stroke:red;stroke-width:1px;stroke-linecap:butt;stroke-linejoin:miter;stroke-opacity:1" d="M 812.296,572.068 798.165,597.504 z" id="boundary" inkscape:connector-curvature="0" />
	<path style="fill:none;stroke:red;stroke-width:1px;stroke-linecap:butt;stroke-linejoin:miter;stroke-opacity:1" d="M 798.165,597.504 772.729,611.635 z" id="boundary" inkscape:connector-curvature="0" />
	<path style="fill:none;stroke:red;stroke-width:1px;stroke-linecap:butt;stroke-linejoin:miter;stroke-opacity:1" d="M 772.729,611.635 750.12,628.593 z" id="boundary" inkscape:connector-curvature="0" />
	<path style="fill:none;stroke:red;stroke-width:1px;stroke-linecap:butt;stroke-linejoin:miter;stroke-opacity:1" d="M 750.12,628.593 721.858,639.897 z" id="boundary" inkscape:connector-curvature="0" />
	<path style="fill:none;stroke:red;stroke-width:1px;stroke-linecap:butt;stroke-linejoin:miter;stroke-opacity:1" d="M 721.858,639.897 693.595,645.55 z" id="boundary" inkscape:connector-curvature="0" />
	<path style="fill:none;stroke:red;stroke-width:1px;stroke-linecap:butt;stroke-linejoin:miter;stroke-opacity:1" d="M 693.595,645.55 665.333,656.855 z" id="boundary" inkscape:connector-curvature="0" />
	<path style="fill:none;stroke:red;stroke-width:1px;stroke-linecap:butt;stroke-linejoin:miter;stroke-opacity:1" d="M 665.333,656.855 637.071,662.507 z" id="boundary" inkscape:connector-curvature="0" />
	<path style="fill:none;stroke:red;stroke-width:1px;stroke-linecap:butt;stroke-linejoin:miter;stroke-opacity:1" d="M 637.071,662.507 608.809,656.855 z" id="boundary" inkscape:connector-curvature="0" />
	<path style="fill:none;stroke:red;stroke-width:1px;stroke-linecap:butt;stroke-linejoin:miter;stroke-opacity:1" d="M 608.809,656.855 586.199,673.812 z" id="boundary" inkscape:connector-curvature="0" />
	<path style="fill:none;stroke:red;stroke-width:1px;stroke-linecap:butt;stroke-linejoin:miter;stroke-opacity:1" d="M 586.199,673.812 589.026,702.074 z" id="boundary" inkscape:connector-curvature="0" />
	<path style="fill:none;stroke:red;stroke-width:1px;stroke-linecap:butt;stroke-linejoin:miter;stroke-opacity:1" d="M 589.026,702.074 614.462,716.205 z" id="boundary" inkscape:connector-curvature="0" />
	<path style="fill:none;stroke:red;stroke-width:1px;stroke-linecap:butt;stroke-linejoin:miter;stroke-opacity:1" d="M 614.462,716.205 642.724,727.51 z" id="boundary" inkscape:connector-curvature="0" />
	<path style="fill:none;stroke:red;stroke-width:1px;stroke-linecap:butt;stroke-linejoin:miter;stroke-opacity:1" d="M 642.724,727.51 670.986,733.162 z" id="boundary" inkscape:connector-curvature="0" />
	<path style="fill:none;stroke:red;stroke-width:1px;stroke-linecap:butt;stroke-linejoin:miter;stroke-opacity:1" d="M 670.986,733.162 699.248,727.51 z" id="boundary" inkscape:connector-curvature="0" />
	<path style="fill:none;stroke:red;stroke-width:1px;stroke-linecap:butt;stroke-linejoin:miter;stroke-opacity:1" d="M 699.248,727.51 727.51,727.51 z" id="boundary" inkscape:connector-curvature="0" />
	<path style="fill:none;stroke:red;stroke-width:1px;stroke-linecap:butt;stroke-linejoin:miter;stroke-opacity:1" d="M 727.51,727.51 755.772,727.51 z" id="boundary" inkscape:connector-curvature="0" />
	<path style="fill:none;stroke:red;stroke-width:1px;stroke-linecap:butt;stroke-linejoin:miter;stroke-opacity:1" d="M 755.772,727.51 784.034,727.51 z" id="boundary" inkscape:connector-curvature="0" />
	<path style="fill:none;stroke:red;stroke-width:1px;stroke-linecap:butt;stroke-linejoin:miter;stroke-opacity:1" d="M 784.034,727.51 809.47,741.641 z" id="boundary" inkscape:connector-curvature="0" />
	<path style="fill:none;stroke:red;stroke-width:1px;stroke-linecap:butt;stroke-linejoin:miter;stroke-opacity:1" d="M 809.47,741.641 832.08,758.598 z" id="boundary" inkscape:connector-curvature="0" />
	<path style="fill:none;stroke:red;stroke-width:1px;stroke-linecap:butt;stroke-linejoin:miter;stroke-opacity:1" d="M 832.08,758.598 849.037,781.208 z" id="boundary" inkscape:connector-curvature="0" />
	<path style="fill:none;stroke:red;stroke-width:1px;stroke-linecap:butt;stroke-linejoin:miter;stroke-opacity:1" d="M 849.037,781.208 854.689,809.47 z" id="boundary" inkscape:connector-curvature="0" />
	<path style="fill:none;stroke:red;stroke-width:1px;stroke-linecap:butt;stroke-linejoin:miter;stroke-opacity:1" d="M 854.689,809.47 860.342,837.732 z" id="boundary" inkscape:connector-curvature="0" />
	<path style="fill:none;stroke:red;stroke-width:1px;stroke-linecap:butt;stroke-linejoin:miter;stroke-opacity:1" d="M 860.342,837.732 860.342,874.473 z" id="boundary" inkscape:connector-curvature="0" />
	<path style="fill:none;stroke:red;stroke-width:1px;stroke-linecap:butt;stroke-linejoin:miter;stroke-opacity:1" d="M 860.342,874.473 860.342,902.735 z" id="boundary" inkscape:connector-curvature="0" />
	<path style="fill:none;stroke:red;stroke-width:1px;stroke-linecap:butt;stroke-linejoin:miter;stroke-opacity:1" d="M 846.211,945.128 860.342,902.735 z" id="boundary" inkscape:connector-curvature="0" />
	<circle cx="4" cy="495.761" r="4" fill="#0" id="circle0"/>
	<circle cx="6.82621" cy="524.023" r="4" fill="#0" id="circle1"/>
	<circle cx="9.65242" cy="552.285" r="4" fill="#0" id="circle2"/>
	<circle cx="18.1311" cy="470.325" r="4" fill="#0" id="circle3"/>
	<circle cx="20.9573" cy="580.547" r="4" fill="#0" id="circle4"/>
	<circle cx="32.2621" cy="444.889" r="4" fill="#0" id="circle5"/>
	<circle cx="40.7407" cy="603.157" r="4" fill="#0" id="circle6"/>
	<circle cx="49.2194" cy="422.279" r="4" fill="#0" id="circle7"/>
	<circle cx="57.698" cy="625.766" r="4" fill="#0" id="circle8"/>
	<circle cx="71.8291" cy="66.1766" r="4" fill="#0" id="circle9"/>
	<circle cx="71.8291" cy="405.322" r="4" fill="#0" id="circle10"/>
	<circle cx="77.4815" cy="94.4387" r="4" fill="#0" id="circle11"/>
	<circle cx="80.3077" cy="122.701" r="4" fill="#0" id="circle12"/>
	<circle cx="80.3077" cy="642.724" r="4" fill="#0" id="circle13"/>
	<circle cx="88.7863" cy="37.9145" r="4" fill="#0" id="circle14"/>
	<circle cx="94.4387" cy="148.137" r="4" fill="#0" id="circle15"/>
	<circle cx="94.4387" cy="851.863" r="4" fill="#0" id="circle16"/>
	<circle cx="94.4387" cy="880.125" r="4" fill="#0" id="circle17"/>
	<circle cx="94.4387" cy="908.387" r="4" fill="#0" id="circle18"/>
	<circle cx="94.4387" cy="936.65" r="4" fill="#0" id="circle19"/>
	<circle cx="97.265" cy="391.191" r="4" fill="#0" id="circle20"/>
	<circle cx="102.917" cy="964.912" r="4" fill="#0" id="circle21"/>
	<circle cx="105.744" cy="176.399" r="4" fill="#0" id="circle22"/>
	<circle cx="105.744" cy="218.792" r="4" fill="#0" id="circle23"/>
	<circle cx="105.744" cy="656.855" r="4" fill="#0" id="circle24"/>
	<circle cx="105.744" cy="812.296" r="4" fill="#0" id="circle25"/>
	<circle cx="111.396" cy="20.9573" r="4" fill="#0" id="circle26"/>
	<circle cx="111.396" cy="247.054" r="4" fill="#0" id="circle27"/>
	<circle cx="111.396" cy="275.316" r="4" fill="#0" id="circle28"/>
	<circle cx="117.048" cy="303.578" r="4" fill="#0" id="circle29"/>
	<circle cx="117.048" cy="772.729" r="4" fill="#0" id="circle30"/>
	<circle cx="125.527" cy="382.712" r="4" fill="#0" id="circle31"/>
	<circle cx="125.527" cy="981.869" r="4" fill="#0" id="circle32"/>
	<circle cx="128.353" cy="331.84" r="4" fill="#0" id="circle33"/>
	<circle cx="128.353" cy="673.812" r="4" fill="#0" id="circle34"/>
	<circle cx="134.006" cy="744.467" r="4" fill="#0" id="circle35"/>
	<circle cx="139.658" cy="9.65242" r="4" fill="#0" id="circle36"/>
	<circle cx="139.658" cy="710.553" r="4" fill="#0" id="circle37"/>
	<circle cx="142.484" cy="357.276" r="4" fill="#0" id="circle38"/>
	<circle cx="150.963" cy="996" r="4" fill="#0" id="circle39"/>
	<circle cx="167.92" cy="4" r="4" fill="#0" id="circle40"/>
	<circle cx="179.225" cy="996" r="4" fill="#0" id="circle41"/>
	<circle cx="196.182" cy="9.65242" r="4" fill="#0" id="circle42"/>
	<circle cx="207.487" cy="996" r="4" fill="#0" id="circle43"/>
	<circle cx="224.444" cy="18.1311" r="4" fill="#0" id="circle44"/>
	<circle cx="235.749" cy="996" r="4" fill="#0" id="circle45"/>
	<circle cx="249.88" cy="32.2621" r="4" fill="#0" id="circle46"/>
	<circle cx="264.011" cy="996" r="4" fill="#0" id="circle47"/>
	<circle cx="278.142" cy="43.567" r="4" fill="#0" id="circle48"/>
	<circle cx="292.274" cy="996" r="4" fill="#0" id="circle49"/>
	<circle cx="306.405" cy="43.567" r="4" fill="#0" id="circle50"/>
	<circle cx="320.536" cy="996" r="4" fill="#0" id="circle51"/>
	<circle cx="334.667" cy="43.567" r="4" fill="#0" id="circle52"/>
	<circle cx="348.798" cy="996" r="4" fill="#0" id="circle53"/>
	<circle cx="362.929" cy="43.567" r="4" fill="#0" id="circle54"/>
	<circle cx="377.06" cy="990.348" r="4" fill="#0" id="circle55"/>
	<circle cx="391.191" cy="40.7407" r="4" fill="#0" id="circle56"/>
	<circle cx="405.322" cy="990.348" r="4" fill="#0" id="circle57"/>
	<circle cx="413.801" cy="23.7835" r="4" fill="#0" id="circle58"/>
	<circle cx="433.584" cy="984.695" r="4" fill="#0" id="circle59"/>
	<circle cx="442.063" cy="12.4786" r="4" fill="#0" id="circle60"/>
	<circle cx="461.846" cy="984.695" r="4" fill="#0" id="circle61"/>
	<circle cx="470.325" cy="4" r="4" fill="#0" id="circle62"/>
	<circle cx="490.108" cy="979.043" r="4" fill="#0" id="circle63"/>
	<circle cx="498.587" cy="4" r="4" fill="#0" id="circle64"/>
	<circle cx="518.37" cy="973.39" r="4" fill="#0" id="circle65"/>
	<circle cx="526.849" cy="15.3048" r="4" fill="#0" id="circle66"/>
	<circle cx="529.675" cy="368.581" r="4" fill="#0" id="circle67"/>
	<circle cx="546.632" cy="345.972" r="4" fill="#0" id="circle68"/>
	<circle cx="546.632" cy="973.39" r="4" fill="#0" id="circle69"/>
	<circle cx="549.459" cy="179.225" r="4" fill="#0" id="circle70"/>
	<circle cx="552.285" cy="29.4359" r="4" fill="#0" id="circle71"/>
	<circle cx="555.111" cy="207.487" r="4" fill="#0" id="circle72"/>
	<circle cx="555.111" cy="382.712" r="4" fill="#0" id="circle73"/>
	<circle cx="560.764" cy="145.311" r="4" fill="#0" id="circle74"/>
	<circle cx="560.764" cy="235.749" r="4" fill="#0" id="circle75"/>
	<circle cx="560.764" cy="320.536" r="4" fill="#0" id="circle76"/>
	<circle cx="566.416" cy="264.011" r="4" fill="#0" id="circle77"/>
	<circle cx="566.416" cy="292.274" r="4" fill="#0" id="circle78"/>
	<circle cx="572.068" cy="52.0456" r="4" fill="#0" id="circle79"/>
	<circle cx="572.068" cy="111.396" r="4" fill="#0" id="circle80"/>
	<circle cx="574.895" cy="967.738" r="4" fill="#0" id="circle81"/>
	<circle cx="577.721" cy="80.3077" r="4" fill="#0" id="circle82"/>
	<circle cx="583.373" cy="382.712" r="4" fill="#0" id="circle83"/>
	<circle cx="586.199" cy="673.812" r="4" fill="#0" id="circle84"/>
	<circle cx="589.026" cy="702.074" r="4" fill="#0" id="circle85"/>
	<circle cx="603.157" cy="973.39" r="4" fill="#0" id="circle86"/>
	<circle cx="608.809" cy="656.855" r="4" fill="#0" id="circle87"/>
	<circle cx="611.635" cy="394.017" r="4" fill="#0" id="circle88"/>
	<circle cx="614.462" cy="716.205" r="4" fill="#0" id="circle89"/>
	<circle cx="631.419" cy="981.869" r="4" fill="#0" id="circle90"/>
	<circle cx="637.071" cy="408.148" r="4" fill="#0" id="circle91"/>
	<circle cx="637.071" cy="662.507" r="4" fill="#0" id="circle92"/>
	<circle cx="642.724" cy="727.51" r="4" fill="#0" id="circle93"/>
	<circle cx="659.681" cy="425.105" r="4" fill="#0" id="circle94"/>
	<circle cx="659.681" cy="993.174" r="4" fill="#0" id="circle95"/>
	<circle cx="665.333" cy="656.855" r="4" fill="#0" id="circle96"/>
	<circle cx="670.986" cy="733.162" r="4" fill="#0" id="circle97"/>
	<circle cx="687.943" cy="427.932" r="4" fill="#0" id="circle98"/>
	<circle cx="687.943" cy="996" r="4" fill="#0" id="circle99"/>
	<circle cx="693.595" cy="645.55" r="4" fill="#0" id="circle100"/>
	<circle cx="699.248" cy="727.51" r="4" fill="#0" id="circle101"/>
	<circle cx="716.205" cy="433.584" r="4" fill="#0" id="circle102"/>
	<circle cx="716.205" cy="996" r="4" fill="#0" id="circle103"/>
	<circle cx="721.858" cy="639.897" r="4" fill="#0" id="circle104"/>
	<circle cx="727.51" cy="727.51" r="4" fill="#0" id="circle105"/>
	<circle cx="744.467" cy="439.236" r="4" fill="#0" id="circle106"/>
	<circle cx="744.467" cy="996" r="4" fill="#0" id="circle107"/>
	<circle cx="750.12" cy="628.593" r="4" fill="#0" id="circle108"/>
	<circle cx="755.772" cy="727.51" r="4" fill="#0" id="circle109"/>
	<circle cx="772.729" cy="444.889" r="4" fill="#0" id="circle110"/>
	<circle cx="772.729" cy="611.635" r="4" fill="#0" id="circle111"/>
	<circle cx="772.729" cy="990.348" r="4" fill="#0" id="circle112"/>
	<circle cx="784.034" cy="727.51" r="4" fill="#0" id="circle113"/>
	<circle cx="798.165" cy="597.504" r="4" fill="#0" id="circle114"/>
	<circle cx="800.991" cy="456.194" r="4" fill="#0" id="circle115"/>
	<circle cx="800.991" cy="984.695" r="4" fill="#0" id="circle116"/>
	<circle cx="809.47" cy="741.641" r="4" fill="#0" id="circle117"/>
	<circle cx="812.296" cy="572.068" r="4" fill="#0" id="circle118"/>
	<circle cx="815.123" cy="481.63" r="4" fill="#0" id="circle119"/>
	<circle cx="823.601" cy="967.738" r="4" fill="#0" id="circle120"/>
	<circle cx="826.427" cy="509.892" r="4" fill="#0" id="circle121"/>
	<circle cx="826.427" cy="538.154" r="4" fill="#0" id="circle122"/>
	<circle cx="832.08" cy="758.598" r="4" fill="#0" id="circle123"/>
	<circle cx="846.211" cy="945.128" r="4" fill="#0" id="circle124"/>
	<circle cx="849.037" cy="781.208" r="4" fill="#0" id="circle125"/>
	<circle cx="854.689" cy="809.47" r="4" fill="#0" id="circle126"/>
	<circle cx="860.342" cy="837.732" r="4" fill="#0" id="circle127"/>
	<circle cx="860.342" cy="874.473" r="4" fill="#0" id="circle128"/>
	<circle cx="860.342" cy="902.735" r="4" fill="#0" id="circle129"/>
	</g>
</svg>