<?xml version="1.0" encoding="UTF-8" standalone="no"?>
<!-- Created with CurveBenchmark -->
<svg
	xmlns:dc="http://purl.org/dc/elements/1.1/"
	xmlns:cc="http://creativecommons.org/ns#"
	xmlns:rdf="http://www.w3.org/1999/02/22-rdf-syntax-ns#"
	xmlns:svg="http://www.w3.org/2000/svg"
	xmlns="http://www.w3.org/2000/svg"
	xmlns:sodipodi="http://sodipodi.sourceforge.net/DTD/sodipodi-0.dtd"
	xmlns:inkscape="http://www.inkscape.org/namespaces/inkscape"
	width="1000"
	height="1000"
	id="svg2"
	version="1.1"
	sodipodi:docname="manifold/crawl-Glas17.png.txt">
<defs
	id="defs4" />
<metadata
	id="metadata7">
	<rdf:RDF>
		<cc:Work
			rdf:about="">
			<dc:format>image/svg+xml</dc:format>
			<dc:type
				rdf:resource="http://purl.org/dc/dcmitype/StillImage" />
			<dc:title></dc:title>
		</cc:Work>
	</rdf:RDF>
</metadata>
<g
	inkscape:label="Layer 1"
	inkscape:groupmode="layer"
	id="layer1">
	<path style="fill:none;stroke:red;stroke-width:1px;stroke-linecap:butt;stroke-linejoin:miter;stroke-opacity:1" d="M 43.6008,4 23.8004,4 z" id="boundary" inkscape:connector-curvature="0" />
	<path style="fill:none;stroke:red;stroke-width:1px;stroke-linecap:butt;stroke-linejoin:miter;stroke-opacity:1" d="M 43.6008,4 63.4012,4 z" id="boundary" inkscape:connector-curvature="0" />
	<path style="fill:none;stroke:red;stroke-width:1px;stroke-linecap:butt;stroke-linejoin:miter;stroke-opacity:1" d="M 63.4012,4 83.2016,4 z" id="boundary" inkscape:connector-curvature="0" />
	<path style="fill:none;stroke:red;stroke-width:1px;stroke-linecap:butt;stroke-linejoin:miter;stroke-opacity:1" d="M 83.2016,4 103.002,4 z" id="boundary" inkscape:connector-curvature="0" />
	<path style="fill:none;stroke:red;stroke-width:1px;stroke-linecap:butt;stroke-linejoin:miter;stroke-opacity:1" d="M 103.002,4 122.802,4 z" id="boundary" inkscape:connector-curvature="0" />
	<path style="fill:none;stroke:red;stroke-width:1px;stroke-linecap:butt;stroke-linejoin:miter;stroke-opacity:1" d="M 122.802,4 142.603,4 z" id="boundary" inkscape:connector-curvature="0" />
	<path style="fill:none;stroke:red;stroke-width:1px;stroke-linecap:butt;stroke-linejoin:miter;stroke-opacity:1" d="M 142.603,4 162.403,4 z" id="boundary" inkscape:connector-curvature="0" />
	<path style="fill:none;stroke:red;stroke-width:1px;stroke-linecap:butt;stroke-linejoin:miter;stroke-opacity:1" d="M 162.403,4 182.204,4 z" id="boundary" inkscape:connector-curvature="0" />
	<path style="fill:none;stroke:red;stroke-width:1px;stroke-linecap:butt;stroke-linejoin:miter;stroke-opacity:1" d="M 182.204,4 202.004,4 z" id="boundary" inkscape:connector-curvature="0" />
	<path style="fill:none;stroke:red;stroke-width:1px;stroke-linecap:butt;stroke-linejoin:miter;stroke-opacity:1" d="M 202.004,4 221.804,4 z" id="boundary" inkscape:connector-curvature="0" />
	<path style="fill:none;stroke:red;stroke-width:1px;stroke-linecap:butt;stroke-linejoin:miter;stroke-opacity:1" d="M 221.804,4 241.605,4 z" id="boundary" inkscape:connector-curvature="0" />
	<path style="fill:none;stroke:red;stroke-width:1px;stroke-linecap:butt;stroke-linejoin:miter;stroke-opacity:1" d="M 241.605,4 261.405,4 z" id="boundary" inkscape:connector-curvature="0" />
	<path style="fill:none;stroke:red;stroke-width:1px;stroke-linecap:butt;stroke-linejoin:miter;stroke-opacity:1" d="M 261.405,4 281.206,4 z" id="boundary" inkscape:connector-curvature="0" />
	<path style="fill:none;stroke:red;stroke-width:1px;stroke-linecap:butt;stroke-linejoin:miter;stroke-opacity:1" d="M 281.206,4 301.006,4 z" id="boundary" inkscape:connector-curvature="0" />
	<path style="fill:none;stroke:red;stroke-width:1px;stroke-linecap:butt;stroke-linejoin:miter;stroke-opacity:1" d="M 301.006,4 320.806,4 z" id="boundary" inkscape:connector-curvature="0" />
	<path style="fill:none;stroke:red;stroke-width:1px;stroke-linecap:butt;stroke-linejoin:miter;stroke-opacity:1" d="M 320.806,4 340.607,4 z" id="boundary" inkscape:connector-curvature="0" />
	<path style="fill:none;stroke:red;stroke-width:1px;stroke-linecap:butt;stroke-linejoin:miter;stroke-opacity:1" d="M 340.607,4 360.407,4 z" id="boundary" inkscape:connector-curvature="0" />
	<path style="fill:none;stroke:red;stroke-width:1px;stroke-linecap:butt;stroke-linejoin:miter;stroke-opacity:1" d="M 360.407,4 380.208,4 z" id="boundary" inkscape:connector-curvature="0" />
	<path style="fill:none;stroke:red;stroke-width:1px;stroke-linecap:butt;stroke-linejoin:miter;stroke-opacity:1" d="M 380.208,4 400.008,4 z" id="boundary" inkscape:connector-curvature="0" />
	<path style="fill:none;stroke:red;stroke-width:1px;stroke-linecap:butt;stroke-linejoin:miter;stroke-opacity:1" d="M 400.008,4 419.808,4 z" id="boundary" inkscape:connector-curvature="0" />
	<path style="fill:none;stroke:red;stroke-width:1px;stroke-linecap:butt;stroke-linejoin:miter;stroke-opacity:1" d="M 419.808,4 439.609,4 z" id="boundary" inkscape:connector-curvature="0" />
	<path style="fill:none;stroke:red;stroke-width:1px;stroke-linecap:butt;stroke-linejoin:miter;stroke-opacity:1" d="M 439.609,4 459.409,4 z" id="boundary" inkscape:connector-curvature="0" />
	<path style="fill:none;stroke:red;stroke-width:1px;stroke-linecap:butt;stroke-linejoin:miter;stroke-opacity:1" d="M 459.409,4 479.21,4 z" id="boundary" inkscape:connector-curvature="0" />
	<path style="fill:none;stroke:red;stroke-width:1px;stroke-linecap:butt;stroke-linejoin:miter;stroke-opacity:1" d="M 479.21,4 499.01,4 z" id="boundary" inkscape:connector-curvature="0" />
	<path style="fill:none;stroke:red;stroke-width:1px;stroke-linecap:butt;stroke-linejoin:miter;stroke-opacity:1" d="M 499.01,4 518.81,4 z" id="boundary" inkscape:connector-curvature="0" />
	<path style="fill:none;stroke:red;stroke-width:1px;stroke-linecap:butt;stroke-linejoin:miter;stroke-opacity:1" d="M 518.81,4 538.611,4 z" id="boundary" inkscape:connector-curvature="0" />
	<path style="fill:none;stroke:red;stroke-width:1px;stroke-linecap:butt;stroke-linejoin:miter;stroke-opacity:1" d="M 538.611,4 558.411,4 z" id="boundary" inkscape:connector-curvature="0" />
	<path style="fill:none;stroke:red;stroke-width:1px;stroke-linecap:butt;stroke-linejoin:miter;stroke-opacity:1" d="M 558.411,4 578.212,4 z" id="boundary" inkscape:connector-curvature="0" />
	<path style="fill:none;stroke:red;stroke-width:1px;stroke-linecap:butt;stroke-linejoin:miter;stroke-opacity:1" d="M 578.212,4 598.012,4 z" id="boundary" inkscape:connector-curvature="0" />
	<path style="fill:none;stroke:red;stroke-width:1px;stroke-linecap:butt;stroke-linejoin:miter;stroke-opacity:1" d="M 598.012,4 617.812,4 z" id="boundary" inkscape:connector-curvature="0" />
	<path style="fill:none;stroke:red;stroke-width:1px;stroke-linecap:butt;stroke-linejoin:miter;stroke-opacity:1" d="M 617.812,4 637.613,4 z" id="boundary" inkscape:connector-curvature="0" />
	<path style="fill:none;stroke:red;stroke-width:1px;stroke-linecap:butt;stroke-linejoin:miter;stroke-opacity:1" d="M 637.613,4 657.413,4 z" id="boundary" inkscape:connector-curvature="0" />
	<path style="fill:none;stroke:red;stroke-width:1px;stroke-linecap:butt;stroke-linejoin:miter;stroke-opacity:1" d="M 657.413,4 669.293,19.8403 z" id="boundary" inkscape:connector-curvature="0" />
	<path style="fill:none;stroke:red;stroke-width:1px;stroke-linecap:butt;stroke-linejoin:miter;stroke-opacity:1" d="M 669.293,19.8403 669.293,39.6407 z" id="boundary" inkscape:connector-curvature="0" />
	<path style="fill:none;stroke:red;stroke-width:1px;stroke-linecap:butt;stroke-linejoin:miter;stroke-opacity:1" d="M 669.293,39.6407 669.293,59.4411 z" id="boundary" inkscape:connector-curvature="0" />
	<path style="fill:none;stroke:red;stroke-width:1px;stroke-linecap:butt;stroke-linejoin:miter;stroke-opacity:1" d="M 23.8004,4 4,9.94012 z" id="boundary" inkscape:connector-curvature="0" />
	<path style="fill:none;stroke:red;stroke-width:1px;stroke-linecap:butt;stroke-linejoin:miter;stroke-opacity:1" d="M 4,9.94012 4,29.7405 z" id="boundary" inkscape:connector-curvature="0" />
	<path style="fill:none;stroke:red;stroke-width:1px;stroke-linecap:butt;stroke-linejoin:miter;stroke-opacity:1" d="M 4,29.7405 4,49.5409 z" id="boundary" inkscape:connector-curvature="0" />
	<path style="fill:none;stroke:red;stroke-width:1px;stroke-linecap:butt;stroke-linejoin:miter;stroke-opacity:1" d="M 4,49.5409 4,69.3413 z" id="boundary" inkscape:connector-curvature="0" />
	<path style="fill:none;stroke:red;stroke-width:1px;stroke-linecap:butt;stroke-linejoin:miter;stroke-opacity:1" d="M 4,69.3413 4,89.1417 z" id="boundary" inkscape:connector-curvature="0" />
	<path style="fill:none;stroke:red;stroke-width:1px;stroke-linecap:butt;stroke-linejoin:miter;stroke-opacity:1" d="M 4,89.1417 4,108.942 z" id="boundary" inkscape:connector-curvature="0" />
	<path style="fill:none;stroke:red;stroke-width:1px;stroke-linecap:butt;stroke-linejoin:miter;stroke-opacity:1" d="M 4,108.942 4,128.743 z" id="boundary" inkscape:connector-curvature="0" />
	<path style="fill:none;stroke:red;stroke-width:1px;stroke-linecap:butt;stroke-linejoin:miter;stroke-opacity:1" d="M 4,128.743 4,148.543 z" id="boundary" inkscape:connector-curvature="0" />
	<path style="fill:none;stroke:red;stroke-width:1px;stroke-linecap:butt;stroke-linejoin:miter;stroke-opacity:1" d="M 4,148.543 4,168.343 z" id="boundary" inkscape:connector-curvature="0" />
	<path style="fill:none;stroke:red;stroke-width:1px;stroke-linecap:butt;stroke-linejoin:miter;stroke-opacity:1" d="M 4,168.343 4,188.144 z" id="boundary" inkscape:connector-curvature="0" />
	<path style="fill:none;stroke:red;stroke-width:1px;stroke-linecap:butt;stroke-linejoin:miter;stroke-opacity:1" d="M 4,188.144 4,207.944 z" id="boundary" inkscape:connector-curvature="0" />
	<path style="fill:none;stroke:red;stroke-width:1px;stroke-linecap:butt;stroke-linejoin:miter;stroke-opacity:1" d="M 4,207.944 13.9002,225.764 z" id="boundary" inkscape:connector-curvature="0" />
	<path style="fill:none;stroke:red;stroke-width:1px;stroke-linecap:butt;stroke-linejoin:miter;stroke-opacity:1" d="M 13.9002,225.764 23.8004,243.585 z" id="boundary" inkscape:connector-curvature="0" />
	<path style="fill:none;stroke:red;stroke-width:1px;stroke-linecap:butt;stroke-linejoin:miter;stroke-opacity:1" d="M 23.8004,243.585 29.7405,263.385 z" id="boundary" inkscape:connector-curvature="0" />
	<path style="fill:none;stroke:red;stroke-width:1px;stroke-linecap:butt;stroke-linejoin:miter;stroke-opacity:1" d="M 29.7405,263.385 47.5609,273.285 z" id="boundary" inkscape:connector-curvature="0" />
	<path style="fill:none;stroke:red;stroke-width:1px;stroke-linecap:butt;stroke-linejoin:miter;stroke-opacity:1" d="M 47.5609,273.285 63.4012,285.166 z" id="boundary" inkscape:connector-curvature="0" />
	<path style="fill:none;stroke:red;stroke-width:1px;stroke-linecap:butt;stroke-linejoin:miter;stroke-opacity:1" d="M 63.4012,285.166 77.2615,301.006 z" id="boundary" inkscape:connector-curvature="0" />
	<path style="fill:none;stroke:red;stroke-width:1px;stroke-linecap:butt;stroke-linejoin:miter;stroke-opacity:1" d="M 77.2615,301.006 93.1018,312.886 z" id="boundary" inkscape:connector-curvature="0" />
	<path style="fill:none;stroke:red;stroke-width:1px;stroke-linecap:butt;stroke-linejoin:miter;stroke-opacity:1" d="M 93.1018,312.886 104.982,328.727 z" id="boundary" inkscape:connector-curvature="0" />
	<path style="fill:none;stroke:red;stroke-width:1px;stroke-linecap:butt;stroke-linejoin:miter;stroke-opacity:1" d="M 104.982,328.727 120.822,342.587 z" id="boundary" inkscape:connector-curvature="0" />
	<path style="fill:none;stroke:red;stroke-width:1px;stroke-linecap:butt;stroke-linejoin:miter;stroke-opacity:1" d="M 120.822,342.587 138.643,352.487 z" id="boundary" inkscape:connector-curvature="0" />
	<path style="fill:none;stroke:red;stroke-width:1px;stroke-linecap:butt;stroke-linejoin:miter;stroke-opacity:1" d="M 138.643,352.487 158.443,352.487 z" id="boundary" inkscape:connector-curvature="0" />
	<path style="fill:none;stroke:red;stroke-width:1px;stroke-linecap:butt;stroke-linejoin:miter;stroke-opacity:1" d="M 158.443,352.487 176.263,362.387 z" id="boundary" inkscape:connector-curvature="0" />
	<path style="fill:none;stroke:red;stroke-width:1px;stroke-linecap:butt;stroke-linejoin:miter;stroke-opacity:1" d="M 176.263,362.387 194.084,372.287 z" id="boundary" inkscape:connector-curvature="0" />
	<path style="fill:none;stroke:red;stroke-width:1px;stroke-linecap:butt;stroke-linejoin:miter;stroke-opacity:1" d="M 194.084,372.287 213.884,376.248 z" id="boundary" inkscape:connector-curvature="0" />
	<path style="fill:none;stroke:red;stroke-width:1px;stroke-linecap:butt;stroke-linejoin:miter;stroke-opacity:1" d="M 213.884,376.248 231.705,386.148 z" id="boundary" inkscape:connector-curvature="0" />
	<path style="fill:none;stroke:red;stroke-width:1px;stroke-linecap:butt;stroke-linejoin:miter;stroke-opacity:1" d="M 231.705,386.148 251.505,392.088 z" id="boundary" inkscape:connector-curvature="0" />
	<path style="fill:none;stroke:red;stroke-width:1px;stroke-linecap:butt;stroke-linejoin:miter;stroke-opacity:1" d="M 251.505,392.088 269.325,401.988 z" id="boundary" inkscape:connector-curvature="0" />
	<path style="fill:none;stroke:red;stroke-width:1px;stroke-linecap:butt;stroke-linejoin:miter;stroke-opacity:1" d="M 269.325,401.988 287.146,411.888 z" id="boundary" inkscape:connector-curvature="0" />
	<path style="fill:none;stroke:red;stroke-width:1px;stroke-linecap:butt;stroke-linejoin:miter;stroke-opacity:1" d="M 287.146,411.888 301.006,427.729 z" id="boundary" inkscape:connector-curvature="0" />
	<path style="fill:none;stroke:red;stroke-width:1px;stroke-linecap:butt;stroke-linejoin:miter;stroke-opacity:1" d="M 301.006,427.729 301.006,447.529 z" id="boundary" inkscape:connector-curvature="0" />
	<path style="fill:none;stroke:red;stroke-width:1px;stroke-linecap:butt;stroke-linejoin:miter;stroke-opacity:1" d="M 301.006,447.529 310.906,465.349 z" id="boundary" inkscape:connector-curvature="0" />
	<path style="fill:none;stroke:red;stroke-width:1px;stroke-linecap:butt;stroke-linejoin:miter;stroke-opacity:1" d="M 310.906,465.349 310.906,485.15 z" id="boundary" inkscape:connector-curvature="0" />
	<path style="fill:none;stroke:red;stroke-width:1px;stroke-linecap:butt;stroke-linejoin:miter;stroke-opacity:1" d="M 310.906,485.15 310.906,504.95 z" id="boundary" inkscape:connector-curvature="0" />
	<path style="fill:none;stroke:red;stroke-width:1px;stroke-linecap:butt;stroke-linejoin:miter;stroke-opacity:1" d="M 310.906,504.95 310.906,524.75 z" id="boundary" inkscape:connector-curvature="0" />
	<path style="fill:none;stroke:red;stroke-width:1px;stroke-linecap:butt;stroke-linejoin:miter;stroke-opacity:1" d="M 310.906,524.75 310.906,544.551 z" id="boundary" inkscape:connector-curvature="0" />
	<path style="fill:none;stroke:red;stroke-width:1px;stroke-linecap:butt;stroke-linejoin:miter;stroke-opacity:1" d="M 310.906,544.551 310.906,564.351 z" id="boundary" inkscape:connector-curvature="0" />
	<path style="fill:none;stroke:red;stroke-width:1px;stroke-linecap:butt;stroke-linejoin:miter;stroke-opacity:1" d="M 310.906,564.351 310.906,584.152 z" id="boundary" inkscape:connector-curvature="0" />
	<path style="fill:none;stroke:red;stroke-width:1px;stroke-linecap:butt;stroke-linejoin:miter;stroke-opacity:1" d="M 310.906,584.152 310.906,603.952 z" id="boundary" inkscape:connector-curvature="0" />
	<path style="fill:none;stroke:red;stroke-width:1px;stroke-linecap:butt;stroke-linejoin:miter;stroke-opacity:1" d="M 310.906,603.952 310.906,623.752 z" id="boundary" inkscape:connector-curvature="0" />
	<path style="fill:none;stroke:red;stroke-width:1px;stroke-linecap:butt;stroke-linejoin:miter;stroke-opacity:1" d="M 310.906,623.752 310.906,643.553 z" id="boundary" inkscape:connector-curvature="0" />
	<path style="fill:none;stroke:red;stroke-width:1px;stroke-linecap:butt;stroke-linejoin:miter;stroke-opacity:1" d="M 310.906,643.553 320.806,661.373 z" id="boundary" inkscape:connector-curvature="0" />
	<path style="fill:none;stroke:red;stroke-width:1px;stroke-linecap:butt;stroke-linejoin:miter;stroke-opacity:1" d="M 320.806,661.373 320.806,681.174 z" id="boundary" inkscape:connector-curvature="0" />
	<path style="fill:none;stroke:red;stroke-width:1px;stroke-linecap:butt;stroke-linejoin:miter;stroke-opacity:1" d="M 320.806,681.174 320.806,700.974 z" id="boundary" inkscape:connector-curvature="0" />
	<path style="fill:none;stroke:red;stroke-width:1px;stroke-linecap:butt;stroke-linejoin:miter;stroke-opacity:1" d="M 320.806,700.974 320.806,720.774 z" id="boundary" inkscape:connector-curvature="0" />
	<path style="fill:none;stroke:red;stroke-width:1px;stroke-linecap:butt;stroke-linejoin:miter;stroke-opacity:1" d="M 320.806,720.774 320.806,740.575 z" id="boundary" inkscape:connector-curvature="0" />
	<path style="fill:none;stroke:red;stroke-width:1px;stroke-linecap:butt;stroke-linejoin:miter;stroke-opacity:1" d="M 320.806,740.575 320.806,760.375 z" id="boundary" inkscape:connector-curvature="0" />
	<path style="fill:none;stroke:red;stroke-width:1px;stroke-linecap:butt;stroke-linejoin:miter;stroke-opacity:1" d="M 320.806,760.375 320.806,780.176 z" id="boundary" inkscape:connector-curvature="0" />
	<path style="fill:none;stroke:red;stroke-width:1px;stroke-linecap:butt;stroke-linejoin:miter;stroke-opacity:1" d="M 320.806,780.176 320.806,799.976 z" id="boundary" inkscape:connector-curvature="0" />
	<path style="fill:none;stroke:red;stroke-width:1px;stroke-linecap:butt;stroke-linejoin:miter;stroke-opacity:1" d="M 320.806,799.976 320.806,819.776 z" id="boundary" inkscape:connector-curvature="0" />
	<path style="fill:none;stroke:red;stroke-width:1px;stroke-linecap:butt;stroke-linejoin:miter;stroke-opacity:1" d="M 669.293,59.4411 677.214,79.2415 z" id="boundary" inkscape:connector-curvature="0" />
	<path style="fill:none;stroke:red;stroke-width:1px;stroke-linecap:butt;stroke-linejoin:miter;stroke-opacity:1" d="M 677.214,79.2415 679.194,99.0419 z" id="boundary" inkscape:connector-curvature="0" />
	<path style="fill:none;stroke:red;stroke-width:1px;stroke-linecap:butt;stroke-linejoin:miter;stroke-opacity:1" d="M 679.194,99.0419 679.194,118.842 z" id="boundary" inkscape:connector-curvature="0" />
	<path style="fill:none;stroke:red;stroke-width:1px;stroke-linecap:butt;stroke-linejoin:miter;stroke-opacity:1" d="M 679.194,118.842 679.194,138.643 z" id="boundary" inkscape:connector-curvature="0" />
	<path style="fill:none;stroke:red;stroke-width:1px;stroke-linecap:butt;stroke-linejoin:miter;stroke-opacity:1" d="M 679.194,138.643 669.293,164.383 z" id="boundary" inkscape:connector-curvature="0" />
	<path style="fill:none;stroke:red;stroke-width:1px;stroke-linecap:butt;stroke-linejoin:miter;stroke-opacity:1" d="M 669.293,164.383 669.293,184.184 z" id="boundary" inkscape:connector-curvature="0" />
	<path style="fill:none;stroke:red;stroke-width:1px;stroke-linecap:butt;stroke-linejoin:miter;stroke-opacity:1" d="M 669.293,184.184 659.393,213.884 z" id="boundary" inkscape:connector-curvature="0" />
	<path style="fill:none;stroke:red;stroke-width:1px;stroke-linecap:butt;stroke-linejoin:miter;stroke-opacity:1" d="M 659.393,213.884 649.493,243.585 z" id="boundary" inkscape:connector-curvature="0" />
	<path style="fill:none;stroke:red;stroke-width:1px;stroke-linecap:butt;stroke-linejoin:miter;stroke-opacity:1" d="M 649.493,243.585 635.633,259.425 z" id="boundary" inkscape:connector-curvature="0" />
	<path style="fill:none;stroke:red;stroke-width:1px;stroke-linecap:butt;stroke-linejoin:miter;stroke-opacity:1" d="M 635.633,259.425 625.733,279.226 z" id="boundary" inkscape:connector-curvature="0" />
	<path style="fill:none;stroke:red;stroke-width:1px;stroke-linecap:butt;stroke-linejoin:miter;stroke-opacity:1" d="M 625.733,279.226 609.892,293.086 z" id="boundary" inkscape:connector-curvature="0" />
	<path style="fill:none;stroke:red;stroke-width:1px;stroke-linecap:butt;stroke-linejoin:miter;stroke-opacity:1" d="M 609.892,293.086 596.032,308.926 z" id="boundary" inkscape:connector-curvature="0" />
	<path style="fill:none;stroke:red;stroke-width:1px;stroke-linecap:butt;stroke-linejoin:miter;stroke-opacity:1" d="M 596.032,308.926 580.192,322.786 z" id="boundary" inkscape:connector-curvature="0" />
	<path style="fill:none;stroke:red;stroke-width:1px;stroke-linecap:butt;stroke-linejoin:miter;stroke-opacity:1" d="M 580.192,322.786 560.391,332.687 z" id="boundary" inkscape:connector-curvature="0" />
	<path style="fill:none;stroke:red;stroke-width:1px;stroke-linecap:butt;stroke-linejoin:miter;stroke-opacity:1" d="M 560.391,332.687 540.591,342.587 z" id="boundary" inkscape:connector-curvature="0" />
	<path style="fill:none;stroke:red;stroke-width:1px;stroke-linecap:butt;stroke-linejoin:miter;stroke-opacity:1" d="M 540.591,342.587 526.731,358.427 z" id="boundary" inkscape:connector-curvature="0" />
	<path style="fill:none;stroke:red;stroke-width:1px;stroke-linecap:butt;stroke-linejoin:miter;stroke-opacity:1" d="M 526.731,358.427 506.93,368.327 z" id="boundary" inkscape:connector-curvature="0" />
	<path style="fill:none;stroke:red;stroke-width:1px;stroke-linecap:butt;stroke-linejoin:miter;stroke-opacity:1" d="M 506.93,368.327 487.13,378.228 z" id="boundary" inkscape:connector-curvature="0" />
	<path style="fill:none;stroke:red;stroke-width:1px;stroke-linecap:butt;stroke-linejoin:miter;stroke-opacity:1" d="M 487.13,378.228 467.329,388.128 z" id="boundary" inkscape:connector-curvature="0" />
	<path style="fill:none;stroke:red;stroke-width:1px;stroke-linecap:butt;stroke-linejoin:miter;stroke-opacity:1" d="M 467.329,388.128 451.489,401.988 z" id="boundary" inkscape:connector-curvature="0" />
	<path style="fill:none;stroke:red;stroke-width:1px;stroke-linecap:butt;stroke-linejoin:miter;stroke-opacity:1" d="M 451.489,401.988 451.489,421.788 z" id="boundary" inkscape:connector-curvature="0" />
	<path style="fill:none;stroke:red;stroke-width:1px;stroke-linecap:butt;stroke-linejoin:miter;stroke-opacity:1" d="M 451.489,421.788 451.489,441.589 z" id="boundary" inkscape:connector-curvature="0" />
	<path style="fill:none;stroke:red;stroke-width:1px;stroke-linecap:butt;stroke-linejoin:miter;stroke-opacity:1" d="M 451.489,441.589 451.489,461.389 z" id="boundary" inkscape:connector-curvature="0" />
	<path style="fill:none;stroke:red;stroke-width:1px;stroke-linecap:butt;stroke-linejoin:miter;stroke-opacity:1" d="M 451.489,461.389 451.489,481.19 z" id="boundary" inkscape:connector-curvature="0" />
	<path style="fill:none;stroke:red;stroke-width:1px;stroke-linecap:butt;stroke-linejoin:miter;stroke-opacity:1" d="M 451.489,481.19 451.489,500.99 z" id="boundary" inkscape:connector-curvature="0" />
	<path style="fill:none;stroke:red;stroke-width:1px;stroke-linecap:butt;stroke-linejoin:miter;stroke-opacity:1" d="M 451.489,500.99 451.489,520.79 z" id="boundary" inkscape:connector-curvature="0" />
	<path style="fill:none;stroke:red;stroke-width:1px;stroke-linecap:butt;stroke-linejoin:miter;stroke-opacity:1" d="M 451.489,520.79 451.489,540.591 z" id="boundary" inkscape:connector-curvature="0" />
	<path style="fill:none;stroke:red;stroke-width:1px;stroke-linecap:butt;stroke-linejoin:miter;stroke-opacity:1" d="M 451.489,540.591 451.489,560.391 z" id="boundary" inkscape:connector-curvature="0" />
	<path style="fill:none;stroke:red;stroke-width:1px;stroke-linecap:butt;stroke-linejoin:miter;stroke-opacity:1" d="M 451.489,560.391 451.489,580.192 z" id="boundary" inkscape:connector-curvature="0" />
	<path style="fill:none;stroke:red;stroke-width:1px;stroke-linecap:butt;stroke-linejoin:miter;stroke-opacity:1" d="M 451.489,580.192 451.489,599.992 z" id="boundary" inkscape:connector-curvature="0" />
	<path style="fill:none;stroke:red;stroke-width:1px;stroke-linecap:butt;stroke-linejoin:miter;stroke-opacity:1" d="M 451.489,599.992 451.489,619.792 z" id="boundary" inkscape:connector-curvature="0" />
	<path style="fill:none;stroke:red;stroke-width:1px;stroke-linecap:butt;stroke-linejoin:miter;stroke-opacity:1" d="M 451.489,619.792 451.489,639.593 z" id="boundary" inkscape:connector-curvature="0" />
	<path style="fill:none;stroke:red;stroke-width:1px;stroke-linecap:butt;stroke-linejoin:miter;stroke-opacity:1" d="M 451.489,639.593 451.489,659.393 z" id="boundary" inkscape:connector-curvature="0" />
	<path style="fill:none;stroke:red;stroke-width:1px;stroke-linecap:butt;stroke-linejoin:miter;stroke-opacity:1" d="M 451.489,659.393 451.489,679.194 z" id="boundary" inkscape:connector-curvature="0" />
	<path style="fill:none;stroke:red;stroke-width:1px;stroke-linecap:butt;stroke-linejoin:miter;stroke-opacity:1" d="M 451.489,679.194 451.489,698.994 z" id="boundary" inkscape:connector-curvature="0" />
	<path style="fill:none;stroke:red;stroke-width:1px;stroke-linecap:butt;stroke-linejoin:miter;stroke-opacity:1" d="M 451.489,698.994 441.589,718.794 z" id="boundary" inkscape:connector-curvature="0" />
	<path style="fill:none;stroke:red;stroke-width:1px;stroke-linecap:butt;stroke-linejoin:miter;stroke-opacity:1" d="M 441.589,718.794 441.589,738.595 z" id="boundary" inkscape:connector-curvature="0" />
	<path style="fill:none;stroke:red;stroke-width:1px;stroke-linecap:butt;stroke-linejoin:miter;stroke-opacity:1" d="M 441.589,738.595 441.589,758.395 z" id="boundary" inkscape:connector-curvature="0" />
	<path style="fill:none;stroke:red;stroke-width:1px;stroke-linecap:butt;stroke-linejoin:miter;stroke-opacity:1" d="M 441.589,758.395 441.589,778.196 z" id="boundary" inkscape:connector-curvature="0" />
	<path style="fill:none;stroke:red;stroke-width:1px;stroke-linecap:butt;stroke-linejoin:miter;stroke-opacity:1" d="M 441.589,778.196 441.589,797.996 z" id="boundary" inkscape:connector-curvature="0" />
	<path style="fill:none;stroke:red;stroke-width:1px;stroke-linecap:butt;stroke-linejoin:miter;stroke-opacity:1" d="M 441.589,797.996 441.589,817.796 z" id="boundary" inkscape:connector-curvature="0" />
	<path style="fill:none;stroke:red;stroke-width:1px;stroke-linecap:butt;stroke-linejoin:miter;stroke-opacity:1" d="M 441.589,817.796 451.489,835.617 z" id="boundary" inkscape:connector-curvature="0" />
	<path style="fill:none;stroke:red;stroke-width:1px;stroke-linecap:butt;stroke-linejoin:miter;stroke-opacity:1" d="M 451.489,835.617 461.389,853.437 z" id="boundary" inkscape:connector-curvature="0" />
	<path style="fill:none;stroke:red;stroke-width:1px;stroke-linecap:butt;stroke-linejoin:miter;stroke-opacity:1" d="M 461.389,853.437 477.23,867.297 z" id="boundary" inkscape:connector-curvature="0" />
	<path style="fill:none;stroke:red;stroke-width:1px;stroke-linecap:butt;stroke-linejoin:miter;stroke-opacity:1" d="M 477.23,867.297 495.05,877.198 z" id="boundary" inkscape:connector-curvature="0" />
	<path style="fill:none;stroke:red;stroke-width:1px;stroke-linecap:butt;stroke-linejoin:miter;stroke-opacity:1" d="M 495.05,877.198 514.85,885.118 z" id="boundary" inkscape:connector-curvature="0" />
	<path style="fill:none;stroke:red;stroke-width:1px;stroke-linecap:butt;stroke-linejoin:miter;stroke-opacity:1" d="M 514.85,885.118 532.671,895.018 z" id="boundary" inkscape:connector-curvature="0" />
	<path style="fill:none;stroke:red;stroke-width:1px;stroke-linecap:butt;stroke-linejoin:miter;stroke-opacity:1" d="M 532.671,895.018 550.491,904.918 z" id="boundary" inkscape:connector-curvature="0" />
	<path style="fill:none;stroke:red;stroke-width:1px;stroke-linecap:butt;stroke-linejoin:miter;stroke-opacity:1" d="M 550.491,904.918 570.291,910.858 z" id="boundary" inkscape:connector-curvature="0" />
	<path style="fill:none;stroke:red;stroke-width:1px;stroke-linecap:butt;stroke-linejoin:miter;stroke-opacity:1" d="M 570.291,910.858 588.112,920.758 z" id="boundary" inkscape:connector-curvature="0" />
	<path style="fill:none;stroke:red;stroke-width:1px;stroke-linecap:butt;stroke-linejoin:miter;stroke-opacity:1" d="M 588.112,920.758 603.952,934.619 z" id="boundary" inkscape:connector-curvature="0" />
	<path style="fill:none;stroke:red;stroke-width:1px;stroke-linecap:butt;stroke-linejoin:miter;stroke-opacity:1" d="M 603.952,934.619 621.772,944.519 z" id="boundary" inkscape:connector-curvature="0" />
	<path style="fill:none;stroke:red;stroke-width:1px;stroke-linecap:butt;stroke-linejoin:miter;stroke-opacity:1" d="M 621.772,944.519 639.593,954.419 z" id="boundary" inkscape:connector-curvature="0" />
	<path style="fill:none;stroke:red;stroke-width:1px;stroke-linecap:butt;stroke-linejoin:miter;stroke-opacity:1" d="M 639.593,954.419 659.393,960.359 z" id="boundary" inkscape:connector-curvature="0" />
	<path style="fill:none;stroke:red;stroke-width:1px;stroke-linecap:butt;stroke-linejoin:miter;stroke-opacity:1" d="M 659.393,960.359 677.214,970.259 z" id="boundary" inkscape:connector-curvature="0" />
	<path style="fill:none;stroke:red;stroke-width:1px;stroke-linecap:butt;stroke-linejoin:miter;stroke-opacity:1" d="M 677.214,970.259 697.014,978.18 z" id="boundary" inkscape:connector-curvature="0" />
	<path style="fill:none;stroke:red;stroke-width:1px;stroke-linecap:butt;stroke-linejoin:miter;stroke-opacity:1" d="M 697.014,978.18 679.194,996 z" id="boundary" inkscape:connector-curvature="0" />
	<path style="fill:none;stroke:red;stroke-width:1px;stroke-linecap:butt;stroke-linejoin:miter;stroke-opacity:1" d="M 679.194,996 659.393,996 z" id="boundary" inkscape:connector-curvature="0" />
	<path style="fill:none;stroke:red;stroke-width:1px;stroke-linecap:butt;stroke-linejoin:miter;stroke-opacity:1" d="M 659.393,996 639.593,996 z" id="boundary" inkscape:connector-curvature="0" />
	<path style="fill:none;stroke:red;stroke-width:1px;stroke-linecap:butt;stroke-linejoin:miter;stroke-opacity:1" d="M 639.593,996 619.792,996 z" id="boundary" inkscape:connector-curvature="0" />
	<path style="fill:none;stroke:red;stroke-width:1px;stroke-linecap:butt;stroke-linejoin:miter;stroke-opacity:1" d="M 619.792,996 599.992,996 z" id="boundary" inkscape:connector-curvature="0" />
	<path style="fill:none;stroke:red;stroke-width:1px;stroke-linecap:butt;stroke-linejoin:miter;stroke-opacity:1" d="M 599.992,996 580.192,996 z" id="boundary" inkscape:connector-curvature="0" />
	<path style="fill:none;stroke:red;stroke-width:1px;stroke-linecap:butt;stroke-linejoin:miter;stroke-opacity:1" d="M 580.192,996 560.391,996 z" id="boundary" inkscape:connector-curvature="0" />
	<path style="fill:none;stroke:red;stroke-width:1px;stroke-linecap:butt;stroke-linejoin:miter;stroke-opacity:1" d="M 560.391,996 540.591,996 z" id="boundary" inkscape:connector-curvature="0" />
	<path style="fill:none;stroke:red;stroke-width:1px;stroke-linecap:butt;stroke-linejoin:miter;stroke-opacity:1" d="M 540.591,996 520.79,996 z" id="boundary" inkscape:connector-curvature="0" />
	<path style="fill:none;stroke:red;stroke-width:1px;stroke-linecap:butt;stroke-linejoin:miter;stroke-opacity:1" d="M 520.79,996 500.99,996 z" id="boundary" inkscape:connector-curvature="0" />
	<path style="fill:none;stroke:red;stroke-width:1px;stroke-linecap:butt;stroke-linejoin:miter;stroke-opacity:1" d="M 500.99,996 481.19,996 z" id="boundary" inkscape:connector-curvature="0" />
	<path style="fill:none;stroke:red;stroke-width:1px;stroke-linecap:butt;stroke-linejoin:miter;stroke-opacity:1" d="M 481.19,996 461.389,996 z" id="boundary" inkscape:connector-curvature="0" />
	<path style="fill:none;stroke:red;stroke-width:1px;stroke-linecap:butt;stroke-linejoin:miter;stroke-opacity:1" d="M 461.389,996 441.589,996 z" id="boundary" inkscape:connector-curvature="0" />
	<path style="fill:none;stroke:red;stroke-width:1px;stroke-linecap:butt;stroke-linejoin:miter;stroke-opacity:1" d="M 441.589,996 421.788,996 z" id="boundary" inkscape:connector-curvature="0" />
	<path style="fill:none;stroke:red;stroke-width:1px;stroke-linecap:butt;stroke-linejoin:miter;stroke-opacity:1" d="M 421.788,996 401.988,996 z" id="boundary" inkscape:connector-curvature="0" />
	<path style="fill:none;stroke:red;stroke-width:1px;stroke-linecap:butt;stroke-linejoin:miter;stroke-opacity:1" d="M 401.988,996 382.188,996 z" id="boundary" inkscape:connector-curvature="0" />
	<path style="fill:none;stroke:red;stroke-width:1px;stroke-linecap:butt;stroke-linejoin:miter;stroke-opacity:1" d="M 382.188,996 362.387,996 z" id="boundary" inkscape:connector-curvature="0" />
	<path style="fill:none;stroke:red;stroke-width:1px;stroke-linecap:butt;stroke-linejoin:miter;stroke-opacity:1" d="M 362.387,996 342.587,996 z" id="boundary" inkscape:connector-curvature="0" />
	<path style="fill:none;stroke:red;stroke-width:1px;stroke-linecap:butt;stroke-linejoin:miter;stroke-opacity:1" d="M 342.587,996 322.786,996 z" id="boundary" inkscape:connector-curvature="0" />
	<path style="fill:none;stroke:red;stroke-width:1px;stroke-linecap:butt;stroke-linejoin:miter;stroke-opacity:1" d="M 322.786,996 302.986,996 z" id="boundary" inkscape:connector-curvature="0" />
	<path style="fill:none;stroke:red;stroke-width:1px;stroke-linecap:butt;stroke-linejoin:miter;stroke-opacity:1" d="M 302.986,996 283.186,996 z" id="boundary" inkscape:connector-curvature="0" />
	<path style="fill:none;stroke:red;stroke-width:1px;stroke-linecap:butt;stroke-linejoin:miter;stroke-opacity:1" d="M 283.186,996 263.385,996 z" id="boundary" inkscape:connector-curvature="0" />
	<path style="fill:none;stroke:red;stroke-width:1px;stroke-linecap:butt;stroke-linejoin:miter;stroke-opacity:1" d="M 263.385,996 243.585,996 z" id="boundary" inkscape:connector-curvature="0" />
	<path style="fill:none;stroke:red;stroke-width:1px;stroke-linecap:butt;stroke-linejoin:miter;stroke-opacity:1" d="M 243.585,996 223.784,996 z" id="boundary" inkscape:connector-curvature="0" />
	<path style="fill:none;stroke:red;stroke-width:1px;stroke-linecap:butt;stroke-linejoin:miter;stroke-opacity:1" d="M 223.784,996 203.984,996 z" id="boundary" inkscape:connector-curvature="0" />
	<path style="fill:none;stroke:red;stroke-width:1px;stroke-linecap:butt;stroke-linejoin:miter;stroke-opacity:1" d="M 203.984,996 184.184,996 z" id="boundary" inkscape:connector-curvature="0" />
	<path style="fill:none;stroke:red;stroke-width:1px;stroke-linecap:butt;stroke-linejoin:miter;stroke-opacity:1" d="M 184.184,996 164.383,996 z" id="boundary" inkscape:connector-curvature="0" />
	<path style="fill:none;stroke:red;stroke-width:1px;stroke-linecap:butt;stroke-linejoin:miter;stroke-opacity:1" d="M 164.383,996 144.583,996 z" id="boundary" inkscape:connector-curvature="0" />
	<path style="fill:none;stroke:red;stroke-width:1px;stroke-linecap:butt;stroke-linejoin:miter;stroke-opacity:1" d="M 144.583,996 124.782,996 z" id="boundary" inkscape:connector-curvature="0" />
	<path style="fill:none;stroke:red;stroke-width:1px;stroke-linecap:butt;stroke-linejoin:miter;stroke-opacity:1" d="M 124.782,996 104.982,996 z" id="boundary" inkscape:connector-curvature="0" />
	<path style="fill:none;stroke:red;stroke-width:1px;stroke-linecap:butt;stroke-linejoin:miter;stroke-opacity:1" d="M 104.982,996 85.1816,996 z" id="boundary" inkscape:connector-curvature="0" />
	<path style="fill:none;stroke:red;stroke-width:1px;stroke-linecap:butt;stroke-linejoin:miter;stroke-opacity:1" d="M 85.1816,996 65.3812,996 z" id="boundary" inkscape:connector-curvature="0" />
	<path style="fill:none;stroke:red;stroke-width:1px;stroke-linecap:butt;stroke-linejoin:miter;stroke-opacity:1" d="M 65.3812,996 53.501,980.16 z" id="boundary" inkscape:connector-curvature="0" />
	<path style="fill:none;stroke:red;stroke-width:1px;stroke-linecap:butt;stroke-linejoin:miter;stroke-opacity:1" d="M 53.501,980.16 33.7006,990.06 z" id="boundary" inkscape:connector-curvature="0" />
	<path style="fill:none;stroke:red;stroke-width:1px;stroke-linecap:butt;stroke-linejoin:miter;stroke-opacity:1" d="M 320.806,819.776 316.846,855.417 z" id="boundary" inkscape:connector-curvature="0" />
	<path style="fill:none;stroke:red;stroke-width:1px;stroke-linecap:butt;stroke-linejoin:miter;stroke-opacity:1" d="M 316.846,855.417 299.026,865.317 z" id="boundary" inkscape:connector-curvature="0" />
	<path style="fill:none;stroke:red;stroke-width:1px;stroke-linecap:butt;stroke-linejoin:miter;stroke-opacity:1" d="M 299.026,865.317 281.206,875.218 z" id="boundary" inkscape:connector-curvature="0" />
	<path style="fill:none;stroke:red;stroke-width:1px;stroke-linecap:butt;stroke-linejoin:miter;stroke-opacity:1" d="M 281.206,875.218 263.385,885.118 z" id="boundary" inkscape:connector-curvature="0" />
	<path style="fill:none;stroke:red;stroke-width:1px;stroke-linecap:butt;stroke-linejoin:miter;stroke-opacity:1" d="M 263.385,885.118 245.565,895.018 z" id="boundary" inkscape:connector-curvature="0" />
	<path style="fill:none;stroke:red;stroke-width:1px;stroke-linecap:butt;stroke-linejoin:miter;stroke-opacity:1" d="M 245.565,895.018 225.764,896.998 z" id="boundary" inkscape:connector-curvature="0" />
	<path style="fill:none;stroke:red;stroke-width:1px;stroke-linecap:butt;stroke-linejoin:miter;stroke-opacity:1" d="M 225.764,896.998 205.964,906.898 z" id="boundary" inkscape:connector-curvature="0" />
	<path style="fill:none;stroke:red;stroke-width:1px;stroke-linecap:butt;stroke-linejoin:miter;stroke-opacity:1" d="M 205.964,906.898 186.164,914.818 z" id="boundary" inkscape:connector-curvature="0" />
	<path style="fill:none;stroke:red;stroke-width:1px;stroke-linecap:butt;stroke-linejoin:miter;stroke-opacity:1" d="M 186.164,914.818 168.343,924.719 z" id="boundary" inkscape:connector-curvature="0" />
	<path style="fill:none;stroke:red;stroke-width:1px;stroke-linecap:butt;stroke-linejoin:miter;stroke-opacity:1" d="M 168.343,924.719 148.543,924.719 z" id="boundary" inkscape:connector-curvature="0" />
	<path style="fill:none;stroke:red;stroke-width:1px;stroke-linecap:butt;stroke-linejoin:miter;stroke-opacity:1" d="M 148.543,924.719 128.743,934.619 z" id="boundary" inkscape:connector-curvature="0" />
	<path style="fill:none;stroke:red;stroke-width:1px;stroke-linecap:butt;stroke-linejoin:miter;stroke-opacity:1" d="M 128.743,934.619 108.942,944.519 z" id="boundary" inkscape:connector-curvature="0" />
	<path style="fill:none;stroke:red;stroke-width:1px;stroke-linecap:butt;stroke-linejoin:miter;stroke-opacity:1" d="M 108.942,944.519 93.1018,960.359 z" id="boundary" inkscape:connector-curvature="0" />
	<path style="fill:none;stroke:red;stroke-width:1px;stroke-linecap:butt;stroke-linejoin:miter;stroke-opacity:1" d="M 93.1018,960.359 73.3014,970.259 z" id="boundary" inkscape:connector-curvature="0" />
	<circle cx="4" cy="9.94012" r="4" fill="#0" id="circle0"/>
	<circle cx="4" cy="29.7405" r="4" fill="#0" id="circle1"/>
	<circle cx="4" cy="49.5409" r="4" fill="#0" id="circle2"/>
	<circle cx="4" cy="69.3413" r="4" fill="#0" id="circle3"/>
	<circle cx="4" cy="89.1417" r="4" fill="#0" id="circle4"/>
	<circle cx="4" cy="108.942" r="4" fill="#0" id="circle5"/>
	<circle cx="4" cy="128.743" r="4" fill="#0" id="circle6"/>
	<circle cx="4" cy="148.543" r="4" fill="#0" id="circle7"/>
	<circle cx="4" cy="168.343" r="4" fill="#0" id="circle8"/>
	<circle cx="4" cy="188.144" r="4" fill="#0" id="circle9"/>
	<circle cx="4" cy="207.944" r="4" fill="#0" id="circle10"/>
	<circle cx="13.9002" cy="225.764" r="4" fill="#0" id="circle11"/>
	<circle cx="23.8004" cy="4" r="4" fill="#0" id="circle12"/>
	<circle cx="23.8004" cy="243.585" r="4" fill="#0" id="circle13"/>
	<circle cx="29.7405" cy="263.385" r="4" fill="#0" id="circle14"/>
	<circle cx="33.7006" cy="990.06" r="4" fill="#0" id="circle15"/>
	<circle cx="43.6008" cy="4" r="4" fill="#0" id="circle16"/>
	<circle cx="47.5609" cy="273.285" r="4" fill="#0" id="circle17"/>
	<circle cx="53.501" cy="980.16" r="4" fill="#0" id="circle18"/>
	<circle cx="63.4012" cy="4" r="4" fill="#0" id="circle19"/>
	<circle cx="63.4012" cy="285.166" r="4" fill="#0" id="circle20"/>
	<circle cx="65.3812" cy="996" r="4" fill="#0" id="circle21"/>
	<circle cx="73.3014" cy="970.259" r="4" fill="#0" id="circle22"/>
	<circle cx="77.2615" cy="301.006" r="4" fill="#0" id="circle23"/>
	<circle cx="83.2016" cy="4" r="4" fill="#0" id="circle24"/>
	<circle cx="85.1816" cy="996" r="4" fill="#0" id="circle25"/>
	<circle cx="93.1018" cy="312.886" r="4" fill="#0" id="circle26"/>
	<circle cx="93.1018" cy="960.359" r="4" fill="#0" id="circle27"/>
	<circle cx="103.002" cy="4" r="4" fill="#0" id="circle28"/>
	<circle cx="104.982" cy="328.727" r="4" fill="#0" id="circle29"/>
	<circle cx="104.982" cy="996" r="4" fill="#0" id="circle30"/>
	<circle cx="108.942" cy="944.519" r="4" fill="#0" id="circle31"/>
	<circle cx="120.822" cy="342.587" r="4" fill="#0" id="circle32"/>
	<circle cx="122.802" cy="4" r="4" fill="#0" id="circle33"/>
	<circle cx="124.782" cy="996" r="4" fill="#0" id="circle34"/>
	<circle cx="128.743" cy="934.619" r="4" fill="#0" id="circle35"/>
	<circle cx="138.643" cy="352.487" r="4" fill="#0" id="circle36"/>
	<circle cx="142.603" cy="4" r="4" fill="#0" id="circle37"/>
	<circle cx="144.583" cy="996" r="4" fill="#0" id="circle38"/>
	<circle cx="148.543" cy="924.719" r="4" fill="#0" id="circle39"/>
	<circle cx="158.443" cy="352.487" r="4" fill="#0" id="circle40"/>
	<circle cx="162.403" cy="4" r="4" fill="#0" id="circle41"/>
	<circle cx="164.383" cy="996" r="4" fill="#0" id="circle42"/>
	<circle cx="168.343" cy="924.719" r="4" fill="#0" id="circle43"/>
	<circle cx="176.263" cy="362.387" r="4" fill="#0" id="circle44"/>
	<circle cx="182.204" cy="4" r="4" fill="#0" id="circle45"/>
	<circle cx="184.184" cy="996" r="4" fill="#0" id="circle46"/>
	<circle cx="186.164" cy="914.818" r="4" fill="#0" id="circle47"/>
	<circle cx="194.084" cy="372.287" r="4" fill="#0" id="circle48"/>
	<circle cx="202.004" cy="4" r="4" fill="#0" id="circle49"/>
	<circle cx="203.984" cy="996" r="4" fill="#0" id="circle50"/>
	<circle cx="205.964" cy="906.898" r="4" fill="#0" id="circle51"/>
	<circle cx="213.884" cy="376.248" r="4" fill="#0" id="circle52"/>
	<circle cx="221.804" cy="4" r="4" fill="#0" id="circle53"/>
	<circle cx="223.784" cy="996" r="4" fill="#0" id="circle54"/>
	<circle cx="225.764" cy="896.998" r="4" fill="#0" id="circle55"/>
	<circle cx="231.705" cy="386.148" r="4" fill="#0" id="circle56"/>
	<circle cx="241.605" cy="4" r="4" fill="#0" id="circle57"/>
	<circle cx="243.585" cy="996" r="4" fill="#0" id="circle58"/>
	<circle cx="245.565" cy="895.018" r="4" fill="#0" id="circle59"/>
	<circle cx="251.505" cy="392.088" r="4" fill="#0" id="circle60"/>
	<circle cx="261.405" cy="4" r="4" fill="#0" id="circle61"/>
	<circle cx="263.385" cy="885.118" r="4" fill="#0" id="circle62"/>
	<circle cx="263.385" cy="996" r="4" fill="#0" id="circle63"/>
	<circle cx="269.325" cy="401.988" r="4" fill="#0" id="circle64"/>
	<circle cx="281.206" cy="4" r="4" fill="#0" id="circle65"/>
	<circle cx="281.206" cy="875.218" r="4" fill="#0" id="circle66"/>
	<circle cx="283.186" cy="996" r="4" fill="#0" id="circle67"/>
	<circle cx="287.146" cy="411.888" r="4" fill="#0" id="circle68"/>
	<circle cx="299.026" cy="865.317" r="4" fill="#0" id="circle69"/>
	<circle cx="301.006" cy="4" r="4" fill="#0" id="circle70"/>
	<circle cx="301.006" cy="427.729" r="4" fill="#0" id="circle71"/>
	<circle cx="301.006" cy="447.529" r="4" fill="#0" id="circle72"/>
	<circle cx="302.986" cy="996" r="4" fill="#0" id="circle73"/>
	<circle cx="310.906" cy="465.349" r="4" fill="#0" id="circle74"/>
	<circle cx="310.906" cy="485.15" r="4" fill="#0" id="circle75"/>
	<circle cx="310.906" cy="504.95" r="4" fill="#0" id="circle76"/>
	<circle cx="310.906" cy="524.75" r="4" fill="#0" id="circle77"/>
	<circle cx="310.906" cy="544.551" r="4" fill="#0" id="circle78"/>
	<circle cx="310.906" cy="564.351" r="4" fill="#0" id="circle79"/>
	<circle cx="310.906" cy="584.152" r="4" fill="#0" id="circle80"/>
	<circle cx="310.906" cy="603.952" r="4" fill="#0" id="circle81"/>
	<circle cx="310.906" cy="623.752" r="4" fill="#0" id="circle82"/>
	<circle cx="310.906" cy="643.553" r="4" fill="#0" id="circle83"/>
	<circle cx="316.846" cy="855.417" r="4" fill="#0" id="circle84"/>
	<circle cx="320.806" cy="4" r="4" fill="#0" id="circle85"/>
	<circle cx="320.806" cy="661.373" r="4" fill="#0" id="circle86"/>
	<circle cx="320.806" cy="681.174" r="4" fill="#0" id="circle87"/>
	<circle cx="320.806" cy="700.974" r="4" fill="#0" id="circle88"/>
	<circle cx="320.806" cy="720.774" r="4" fill="#0" id="circle89"/>
	<circle cx="320.806" cy="740.575" r="4" fill="#0" id="circle90"/>
	<circle cx="320.806" cy="760.375" r="4" fill="#0" id="circle91"/>
	<circle cx="320.806" cy="780.176" r="4" fill="#0" id="circle92"/>
	<circle cx="320.806" cy="799.976" r="4" fill="#0" id="circle93"/>
	<circle cx="320.806" cy="819.776" r="4" fill="#0" id="circle94"/>
	<circle cx="322.786" cy="996" r="4" fill="#0" id="circle95"/>
	<circle cx="340.607" cy="4" r="4" fill="#0" id="circle96"/>
	<circle cx="342.587" cy="996" r="4" fill="#0" id="circle97"/>
	<circle cx="360.407" cy="4" r="4" fill="#0" id="circle98"/>
	<circle cx="362.387" cy="996" r="4" fill="#0" id="circle99"/>
	<circle cx="380.208" cy="4" r="4" fill="#0" id="circle100"/>
	<circle cx="382.188" cy="996" r="4" fill="#0" id="circle101"/>
	<circle cx="400.008" cy="4" r="4" fill="#0" id="circle102"/>
	<circle cx="401.988" cy="996" r="4" fill="#0" id="circle103"/>
	<circle cx="419.808" cy="4" r="4" fill="#0" id="circle104"/>
	<circle cx="421.788" cy="996" r="4" fill="#0" id="circle105"/>
	<circle cx="439.609" cy="4" r="4" fill="#0" id="circle106"/>
	<circle cx="441.589" cy="718.794" r="4" fill="#0" id="circle107"/>
	<circle cx="441.589" cy="738.595" r="4" fill="#0" id="circle108"/>
	<circle cx="441.589" cy="758.395" r="4" fill="#0" id="circle109"/>
	<circle cx="441.589" cy="778.196" r="4" fill="#0" id="circle110"/>
	<circle cx="441.589" cy="797.996" r="4" fill="#0" id="circle111"/>
	<circle cx="441.589" cy="817.796" r="4" fill="#0" id="circle112"/>
	<circle cx="441.589" cy="996" r="4" fill="#0" id="circle113"/>
	<circle cx="451.489" cy="401.988" r="4" fill="#0" id="circle114"/>
	<circle cx="451.489" cy="421.788" r="4" fill="#0" id="circle115"/>
	<circle cx="451.489" cy="441.589" r="4" fill="#0" id="circle116"/>
	<circle cx="451.489" cy="461.389" r="4" fill="#0" id="circle117"/>
	<circle cx="451.489" cy="481.19" r="4" fill="#0" id="circle118"/>
	<circle cx="451.489" cy="500.99" r="4" fill="#0" id="circle119"/>
	<circle cx="451.489" cy="520.79" r="4" fill="#0" id="circle120"/>
	<circle cx="451.489" cy="540.591" r="4" fill="#0" id="circle121"/>
	<circle cx="451.489" cy="560.391" r="4" fill="#0" id="circle122"/>
	<circle cx="451.489" cy="580.192" r="4" fill="#0" id="circle123"/>
	<circle cx="451.489" cy="599.992" r="4" fill="#0" id="circle124"/>
	<circle cx="451.489" cy="619.792" r="4" fill="#0" id="circle125"/>
	<circle cx="451.489" cy="639.593" r="4" fill="#0" id="circle126"/>
	<circle cx="451.489" cy="659.393" r="4" fill="#0" id="circle127"/>
	<circle cx="451.489" cy="679.194" r="4" fill="#0" id="circle128"/>
	<circle cx="451.489" cy="698.994" r="4" fill="#0" id="circle129"/>
	<circle cx="451.489" cy="835.617" r="4" fill="#0" id="circle130"/>
	<circle cx="459.409" cy="4" r="4" fill="#0" id="circle131"/>
	<circle cx="461.389" cy="853.437" r="4" fill="#0" id="circle132"/>
	<circle cx="461.389" cy="996" r="4" fill="#0" id="circle133"/>
	<circle cx="467.329" cy="388.128" r="4" fill="#0" id="circle134"/>
	<circle cx="477.23" cy="867.297" r="4" fill="#0" id="circle135"/>
	<circle cx="479.21" cy="4" r="4" fill="#0" id="circle136"/>
	<circle cx="481.19" cy="996" r="4" fill="#0" id="circle137"/>
	<circle cx="487.13" cy="378.228" r="4" fill="#0" id="circle138"/>
	<circle cx="495.05" cy="877.198" r="4" fill="#0" id="circle139"/>
	<circle cx="499.01" cy="4" r="4" fill="#0" id="circle140"/>
	<circle cx="500.99" cy="996" r="4" fill="#0" id="circle141"/>
	<circle cx="506.93" cy="368.327" r="4" fill="#0" id="circle142"/>
	<circle cx="514.85" cy="885.118" r="4" fill="#0" id="circle143"/>
	<circle cx="518.81" cy="4" r="4" fill="#0" id="circle144"/>
	<circle cx="520.79" cy="996" r="4" fill="#0" id="circle145"/>
	<circle cx="526.731" cy="358.427" r="4" fill="#0" id="circle146"/>
	<circle cx="532.671" cy="895.018" r="4" fill="#0" id="circle147"/>
	<circle cx="538.611" cy="4" r="4" fill="#0" id="circle148"/>
	<circle cx="540.591" cy="342.587" r="4" fill="#0" id="circle149"/>
	<circle cx="540.591" cy="996" r="4" fill="#0" id="circle150"/>
	<circle cx="550.491" cy="904.918" r="4" fill="#0" id="circle151"/>
	<circle cx="558.411" cy="4" r="4" fill="#0" id="circle152"/>
	<circle cx="560.391" cy="332.687" r="4" fill="#0" id="circle153"/>
	<circle cx="560.391" cy="996" r="4" fill="#0" id="circle154"/>
	<circle cx="570.291" cy="910.858" r="4" fill="#0" id="circle155"/>
	<circle cx="578.212" cy="4" r="4" fill="#0" id="circle156"/>
	<circle cx="580.192" cy="322.786" r="4" fill="#0" id="circle157"/>
	<circle cx="580.192" cy="996" r="4" fill="#0" id="circle158"/>
	<circle cx="588.112" cy="920.758" r="4" fill="#0" id="circle159"/>
	<circle cx="596.032" cy="308.926" r="4" fill="#0" id="circle160"/>
	<circle cx="598.012" cy="4" r="4" fill="#0" id="circle161"/>
	<circle cx="599.992" cy="996" r="4" fill="#0" id="circle162"/>
	<circle cx="603.952" cy="934.619" r="4" fill="#0" id="circle163"/>
	<circle cx="609.892" cy="293.086" r="4" fill="#0" id="circle164"/>
	<circle cx="617.812" cy="4" r="4" fill="#0" id="circle165"/>
	<circle cx="619.792" cy="996" r="4" fill="#0" id="circle166"/>
	<circle cx="621.772" cy="944.519" r="4" fill="#0" id="circle167"/>
	<circle cx="625.733" cy="279.226" r="4" fill="#0" id="circle168"/>
	<circle cx="635.633" cy="259.425" r="4" fill="#0" id="circle169"/>
	<circle cx="637.613" cy="4" r="4" fill="#0" id="circle170"/>
	<circle cx="639.593" cy="954.419" r="4" fill="#0" id="circle171"/>
	<circle cx="639.593" cy="996" r="4" fill="#0" id="circle172"/>
	<circle cx="649.493" cy="243.585" r="4" fill="#0" id="circle173"/>
	<circle cx="657.413" cy="4" r="4" fill="#0" id="circle174"/>
	<circle cx="659.393" cy="213.884" r="4" fill="#0" id="circle175"/>
	<circle cx="659.393" cy="960.359" r="4" fill="#0" id="circle176"/>
	<circle cx="659.393" cy="996" r="4" fill="#0" id="circle177"/>
	<circle cx="669.293" cy="19.8403" r="4" fill="#0" id="circle178"/>
	<circle cx="669.293" cy="39.6407" r="4" fill="#0" id="circle179"/>
	<circle cx="669.293" cy="59.4411" r="4" fill="#0" id="circle180"/>
	<circle cx="669.293" cy="164.383" r="4" fill="#0" id="circle181"/>
	<circle cx="669.293" cy="184.184" r="4" fill="#0" id="circle182"/>
	<circle cx="677.214" cy="79.2415" r="4" fill="#0" id="circle183"/>
	<circle cx="677.214" cy="970.259" r="4" fill="#0" id="circle184"/>
	<circle cx="679.194" cy="99.0419" r="4" fill="#0" id="circle185"/>
	<circle cx="679.194" cy="118.842" r="4" fill="#0" id="circle186"/>
	<circle cx="679.194" cy="138.643" r="4" fill="#0" id="circle187"/>
	<circle cx="679.194" cy="996" r="4" fill="#0" id="circle188"/>
	<circle cx="697.014" cy="978.18" r="4" fill="#0" id="circle189"/>
	</g>
</svg>