<?xml version="1.0" encoding="UTF-8" standalone="no"?>
<!-- Created with CurveBenchmark -->
<svg
	xmlns:dc="http://purl.org/dc/elements/1.1/"
	xmlns:cc="http://creativecommons.org/ns#"
	xmlns:rdf="http://www.w3.org/1999/02/22-rdf-syntax-ns#"
	xmlns:svg="http://www.w3.org/2000/svg"
	xmlns="http://www.w3.org/2000/svg"
	xmlns:sodipodi="http://sodipodi.sourceforge.net/DTD/sodipodi-0.dtd"
	xmlns:inkscape="http://www.inkscape.org/namespaces/inkscape"
	width="1000"
	height="1000"
	id="svg2"
	version="1.1"
	sodipodi:docname="manifold/crawl-cat2.png.txt">
<defs
	id="defs4" />
<metadata
	id="metadata7">
	<rdf:RDF>
		<cc:Work
			rdf:about="">
			<dc:format>image/svg+xml</dc:format>
			<dc:type
				rdf:resource="http://purl.org/dc/dcmitype/StillImage" />
			<dc:title></dc:title>
		</cc:Work>
	</rdf:RDF>
</metadata>
<g
	inkscape:label="Layer 1"
	inkscape:groupmode="layer"
	id="layer1">
	<path style="fill:none;stroke:red;stroke-width:1px;stroke-linecap:butt;stroke-linejoin:miter;stroke-opacity:1" d="M 20.6443,138.819 20.6443,122.174 z" id="boundary" inkscape:connector-curvature="0" />
	<path style="fill:none;stroke:red;stroke-width:1px;stroke-linecap:butt;stroke-linejoin:miter;stroke-opacity:1" d="M 20.6443,138.819 20.6443,155.463 z" id="boundary" inkscape:connector-curvature="0" />
	<path style="fill:none;stroke:red;stroke-width:1px;stroke-linecap:butt;stroke-linejoin:miter;stroke-opacity:1" d="M 20.6443,155.463 20.6443,172.107 z" id="boundary" inkscape:connector-curvature="0" />
	<path style="fill:none;stroke:red;stroke-width:1px;stroke-linecap:butt;stroke-linejoin:miter;stroke-opacity:1" d="M 20.6443,172.107 12.3221,188.752 z" id="boundary" inkscape:connector-curvature="0" />
	<path style="fill:none;stroke:red;stroke-width:1px;stroke-linecap:butt;stroke-linejoin:miter;stroke-opacity:1" d="M 12.3221,188.752 4,205.396 z" id="boundary" inkscape:connector-curvature="0" />
	<path style="fill:none;stroke:red;stroke-width:1px;stroke-linecap:butt;stroke-linejoin:miter;stroke-opacity:1" d="M 4,205.396 12.3221,220.376 z" id="boundary" inkscape:connector-curvature="0" />
	<path style="fill:none;stroke:red;stroke-width:1px;stroke-linecap:butt;stroke-linejoin:miter;stroke-opacity:1" d="M 12.3221,220.376 20.6443,235.356 z" id="boundary" inkscape:connector-curvature="0" />
	<path style="fill:none;stroke:red;stroke-width:1px;stroke-linecap:butt;stroke-linejoin:miter;stroke-opacity:1" d="M 20.6443,235.356 25.6376,252 z" id="boundary" inkscape:connector-curvature="0" />
	<path style="fill:none;stroke:red;stroke-width:1px;stroke-linecap:butt;stroke-linejoin:miter;stroke-opacity:1" d="M 25.6376,252 42.2819,258.658 z" id="boundary" inkscape:connector-curvature="0" />
	<path style="fill:none;stroke:red;stroke-width:1px;stroke-linecap:butt;stroke-linejoin:miter;stroke-opacity:1" d="M 42.2819,258.658 57.2617,266.98 z" id="boundary" inkscape:connector-curvature="0" />
	<path style="fill:none;stroke:red;stroke-width:1px;stroke-linecap:butt;stroke-linejoin:miter;stroke-opacity:1" d="M 57.2617,266.98 73.906,268.644 z" id="boundary" inkscape:connector-curvature="0" />
	<path style="fill:none;stroke:red;stroke-width:1px;stroke-linecap:butt;stroke-linejoin:miter;stroke-opacity:1" d="M 73.906,268.644 90.5503,268.644 z" id="boundary" inkscape:connector-curvature="0" />
	<path style="fill:none;stroke:red;stroke-width:1px;stroke-linecap:butt;stroke-linejoin:miter;stroke-opacity:1" d="M 90.5503,268.644 105.53,260.322 z" id="boundary" inkscape:connector-curvature="0" />
	<path style="fill:none;stroke:red;stroke-width:1px;stroke-linecap:butt;stroke-linejoin:miter;stroke-opacity:1" d="M 105.53,260.322 122.174,260.322 z" id="boundary" inkscape:connector-curvature="0" />
	<path style="fill:none;stroke:red;stroke-width:1px;stroke-linecap:butt;stroke-linejoin:miter;stroke-opacity:1" d="M 122.174,260.322 137.154,268.644 z" id="boundary" inkscape:connector-curvature="0" />
	<path style="fill:none;stroke:red;stroke-width:1px;stroke-linecap:butt;stroke-linejoin:miter;stroke-opacity:1" d="M 137.154,268.644 153.799,268.644 z" id="boundary" inkscape:connector-curvature="0" />
	<path style="fill:none;stroke:red;stroke-width:1px;stroke-linecap:butt;stroke-linejoin:miter;stroke-opacity:1" d="M 153.799,268.644 168.779,276.966 z" id="boundary" inkscape:connector-curvature="0" />
	<path style="fill:none;stroke:red;stroke-width:1px;stroke-linecap:butt;stroke-linejoin:miter;stroke-opacity:1" d="M 168.779,276.966 178.765,290.282 z" id="boundary" inkscape:connector-curvature="0" />
	<path style="fill:none;stroke:red;stroke-width:1px;stroke-linecap:butt;stroke-linejoin:miter;stroke-opacity:1" d="M 178.765,290.282 192.081,301.933 z" id="boundary" inkscape:connector-curvature="0" />
	<path style="fill:none;stroke:red;stroke-width:1px;stroke-linecap:butt;stroke-linejoin:miter;stroke-opacity:1" d="M 192.081,301.933 203.732,315.248 z" id="boundary" inkscape:connector-curvature="0" />
	<path style="fill:none;stroke:red;stroke-width:1px;stroke-linecap:butt;stroke-linejoin:miter;stroke-opacity:1" d="M 203.732,315.248 212.054,330.228 z" id="boundary" inkscape:connector-curvature="0" />
	<path style="fill:none;stroke:red;stroke-width:1px;stroke-linecap:butt;stroke-linejoin:miter;stroke-opacity:1" d="M 212.054,330.228 212.054,346.872 z" id="boundary" inkscape:connector-curvature="0" />
	<path style="fill:none;stroke:red;stroke-width:1px;stroke-linecap:butt;stroke-linejoin:miter;stroke-opacity:1" d="M 212.054,346.872 220.376,361.852 z" id="boundary" inkscape:connector-curvature="0" />
	<path style="fill:none;stroke:red;stroke-width:1px;stroke-linecap:butt;stroke-linejoin:miter;stroke-opacity:1" d="M 220.376,361.852 232.027,375.168 z" id="boundary" inkscape:connector-curvature="0" />
	<path style="fill:none;stroke:red;stroke-width:1px;stroke-linecap:butt;stroke-linejoin:miter;stroke-opacity:1" d="M 232.027,375.168 245.342,385.154 z" id="boundary" inkscape:connector-curvature="0" />
	<path style="fill:none;stroke:red;stroke-width:1px;stroke-linecap:butt;stroke-linejoin:miter;stroke-opacity:1" d="M 245.342,385.154 250.336,401.799 z" id="boundary" inkscape:connector-curvature="0" />
	<path style="fill:none;stroke:red;stroke-width:1px;stroke-linecap:butt;stroke-linejoin:miter;stroke-opacity:1" d="M 250.336,401.799 261.987,415.114 z" id="boundary" inkscape:connector-curvature="0" />
	<path style="fill:none;stroke:red;stroke-width:1px;stroke-linecap:butt;stroke-linejoin:miter;stroke-opacity:1" d="M 261.987,415.114 270.309,430.094 z" id="boundary" inkscape:connector-curvature="0" />
	<path style="fill:none;stroke:red;stroke-width:1px;stroke-linecap:butt;stroke-linejoin:miter;stroke-opacity:1" d="M 270.309,430.094 270.309,446.738 z" id="boundary" inkscape:connector-curvature="0" />
	<path style="fill:none;stroke:red;stroke-width:1px;stroke-linecap:butt;stroke-linejoin:miter;stroke-opacity:1" d="M 270.309,446.738 278.631,461.718 z" id="boundary" inkscape:connector-curvature="0" />
	<path style="fill:none;stroke:red;stroke-width:1px;stroke-linecap:butt;stroke-linejoin:miter;stroke-opacity:1" d="M 278.631,461.718 295.275,468.376 z" id="boundary" inkscape:connector-curvature="0" />
	<path style="fill:none;stroke:red;stroke-width:1px;stroke-linecap:butt;stroke-linejoin:miter;stroke-opacity:1" d="M 295.275,468.376 295.275,485.02 z" id="boundary" inkscape:connector-curvature="0" />
	<path style="fill:none;stroke:red;stroke-width:1px;stroke-linecap:butt;stroke-linejoin:miter;stroke-opacity:1" d="M 295.275,485.02 303.597,500 z" id="boundary" inkscape:connector-curvature="0" />
	<path style="fill:none;stroke:red;stroke-width:1px;stroke-linecap:butt;stroke-linejoin:miter;stroke-opacity:1" d="M 303.597,500 303.597,516.644 z" id="boundary" inkscape:connector-curvature="0" />
	<path style="fill:none;stroke:red;stroke-width:1px;stroke-linecap:butt;stroke-linejoin:miter;stroke-opacity:1" d="M 303.597,516.644 303.597,533.289 z" id="boundary" inkscape:connector-curvature="0" />
	<path style="fill:none;stroke:red;stroke-width:1px;stroke-linecap:butt;stroke-linejoin:miter;stroke-opacity:1" d="M 303.597,533.289 303.597,549.933 z" id="boundary" inkscape:connector-curvature="0" />
	<path style="fill:none;stroke:red;stroke-width:1px;stroke-linecap:butt;stroke-linejoin:miter;stroke-opacity:1" d="M 303.597,549.933 303.597,566.577 z" id="boundary" inkscape:connector-curvature="0" />
	<path style="fill:none;stroke:red;stroke-width:1px;stroke-linecap:butt;stroke-linejoin:miter;stroke-opacity:1" d="M 303.597,566.577 303.597,583.221 z" id="boundary" inkscape:connector-curvature="0" />
	<path style="fill:none;stroke:red;stroke-width:1px;stroke-linecap:butt;stroke-linejoin:miter;stroke-opacity:1" d="M 303.597,583.221 303.597,599.866 z" id="boundary" inkscape:connector-curvature="0" />
	<path style="fill:none;stroke:red;stroke-width:1px;stroke-linecap:butt;stroke-linejoin:miter;stroke-opacity:1" d="M 303.597,599.866 298.604,616.51 z" id="boundary" inkscape:connector-curvature="0" />
	<path style="fill:none;stroke:red;stroke-width:1px;stroke-linecap:butt;stroke-linejoin:miter;stroke-opacity:1" d="M 298.604,616.51 281.96,616.51 z" id="boundary" inkscape:connector-curvature="0" />
	<path style="fill:none;stroke:red;stroke-width:1px;stroke-linecap:butt;stroke-linejoin:miter;stroke-opacity:1" d="M 281.96,616.51 266.98,608.188 z" id="boundary" inkscape:connector-curvature="0" />
	<path style="fill:none;stroke:red;stroke-width:1px;stroke-linecap:butt;stroke-linejoin:miter;stroke-opacity:1" d="M 20.6443,122.174 33.9597,108.859 z" id="boundary" inkscape:connector-curvature="0" />
	<path style="fill:none;stroke:red;stroke-width:1px;stroke-linecap:butt;stroke-linejoin:miter;stroke-opacity:1" d="M 33.9597,108.859 48.9396,100.537 z" id="boundary" inkscape:connector-curvature="0" />
	<path style="fill:none;stroke:red;stroke-width:1px;stroke-linecap:butt;stroke-linejoin:miter;stroke-opacity:1" d="M 48.9396,100.537 57.2617,85.557 z" id="boundary" inkscape:connector-curvature="0" />
	<path style="fill:none;stroke:red;stroke-width:1px;stroke-linecap:butt;stroke-linejoin:miter;stroke-opacity:1" d="M 266.98,608.188 253.664,621.503 z" id="boundary" inkscape:connector-curvature="0" />
	<path style="fill:none;stroke:red;stroke-width:1px;stroke-linecap:butt;stroke-linejoin:miter;stroke-opacity:1" d="M 57.2617,85.557 70.5772,70.5772 z" id="boundary" inkscape:connector-curvature="0" />
	<path style="fill:none;stroke:red;stroke-width:1px;stroke-linecap:butt;stroke-linejoin:miter;stroke-opacity:1" d="M 70.5772,70.5772 62.255,55.5973 z" id="boundary" inkscape:connector-curvature="0" />
	<path style="fill:none;stroke:red;stroke-width:1px;stroke-linecap:butt;stroke-linejoin:miter;stroke-opacity:1" d="M 62.255,55.5973 62.255,38.953 z" id="boundary" inkscape:connector-curvature="0" />
	<path style="fill:none;stroke:red;stroke-width:1px;stroke-linecap:butt;stroke-linejoin:miter;stroke-opacity:1" d="M 62.255,38.953 50.604,25.6376 z" id="boundary" inkscape:connector-curvature="0" />
	<path style="fill:none;stroke:red;stroke-width:1px;stroke-linecap:butt;stroke-linejoin:miter;stroke-opacity:1" d="M 50.604,25.6376 53.9329,8.99329 z" id="boundary" inkscape:connector-curvature="0" />
	<path style="fill:none;stroke:red;stroke-width:1px;stroke-linecap:butt;stroke-linejoin:miter;stroke-opacity:1" d="M 53.9329,8.99329 67.2483,18.9799 z" id="boundary" inkscape:connector-curvature="0" />
	<path style="fill:none;stroke:red;stroke-width:1px;stroke-linecap:butt;stroke-linejoin:miter;stroke-opacity:1" d="M 67.2483,18.9799 83.8926,25.6376 z" id="boundary" inkscape:connector-curvature="0" />
	<path style="fill:none;stroke:red;stroke-width:1px;stroke-linecap:butt;stroke-linejoin:miter;stroke-opacity:1" d="M 83.8926,25.6376 87.2215,5.66443 z" id="boundary" inkscape:connector-curvature="0" />
	<path style="fill:none;stroke:red;stroke-width:1px;stroke-linecap:butt;stroke-linejoin:miter;stroke-opacity:1" d="M 87.2215,5.66443 103.866,4 z" id="boundary" inkscape:connector-curvature="0" />
	<path style="fill:none;stroke:red;stroke-width:1px;stroke-linecap:butt;stroke-linejoin:miter;stroke-opacity:1" d="M 103.866,4 113.852,17.3154 z" id="boundary" inkscape:connector-curvature="0" />
	<path style="fill:none;stroke:red;stroke-width:1px;stroke-linecap:butt;stroke-linejoin:miter;stroke-opacity:1" d="M 113.852,17.3154 128.832,25.6376 z" id="boundary" inkscape:connector-curvature="0" />
	<path style="fill:none;stroke:red;stroke-width:1px;stroke-linecap:butt;stroke-linejoin:miter;stroke-opacity:1" d="M 128.832,25.6376 143.812,33.9597 z" id="boundary" inkscape:connector-curvature="0" />
	<path style="fill:none;stroke:red;stroke-width:1px;stroke-linecap:butt;stroke-linejoin:miter;stroke-opacity:1" d="M 143.812,33.9597 155.463,47.2752 z" id="boundary" inkscape:connector-curvature="0" />
	<path style="fill:none;stroke:red;stroke-width:1px;stroke-linecap:butt;stroke-linejoin:miter;stroke-opacity:1" d="M 155.463,47.2752 168.779,58.9262 z" id="boundary" inkscape:connector-curvature="0" />
	<path style="fill:none;stroke:red;stroke-width:1px;stroke-linecap:butt;stroke-linejoin:miter;stroke-opacity:1" d="M 168.779,58.9262 183.758,67.2483 z" id="boundary" inkscape:connector-curvature="0" />
	<path style="fill:none;stroke:red;stroke-width:1px;stroke-linecap:butt;stroke-linejoin:miter;stroke-opacity:1" d="M 183.758,67.2483 200.403,67.2483 z" id="boundary" inkscape:connector-curvature="0" />
	<path style="fill:none;stroke:red;stroke-width:1px;stroke-linecap:butt;stroke-linejoin:miter;stroke-opacity:1" d="M 200.403,67.2483 215.383,75.5705 z" id="boundary" inkscape:connector-curvature="0" />
	<path style="fill:none;stroke:red;stroke-width:1px;stroke-linecap:butt;stroke-linejoin:miter;stroke-opacity:1" d="M 215.383,75.5705 228.698,87.2215 z" id="boundary" inkscape:connector-curvature="0" />
	<path style="fill:none;stroke:red;stroke-width:1px;stroke-linecap:butt;stroke-linejoin:miter;stroke-opacity:1" d="M 228.698,87.2215 238.685,100.537 z" id="boundary" inkscape:connector-curvature="0" />
	<path style="fill:none;stroke:red;stroke-width:1px;stroke-linecap:butt;stroke-linejoin:miter;stroke-opacity:1" d="M 238.685,100.537 255.329,105.53 z" id="boundary" inkscape:connector-curvature="0" />
	<path style="fill:none;stroke:red;stroke-width:1px;stroke-linecap:butt;stroke-linejoin:miter;stroke-opacity:1" d="M 255.329,105.53 266.98,118.846 z" id="boundary" inkscape:connector-curvature="0" />
	<path style="fill:none;stroke:red;stroke-width:1px;stroke-linecap:butt;stroke-linejoin:miter;stroke-opacity:1" d="M 266.98,118.846 280.295,130.497 z" id="boundary" inkscape:connector-curvature="0" />
	<path style="fill:none;stroke:red;stroke-width:1px;stroke-linecap:butt;stroke-linejoin:miter;stroke-opacity:1" d="M 280.295,130.497 295.275,138.819 z" id="boundary" inkscape:connector-curvature="0" />
	<path style="fill:none;stroke:red;stroke-width:1px;stroke-linecap:butt;stroke-linejoin:miter;stroke-opacity:1" d="M 295.275,138.819 308.591,150.47 z" id="boundary" inkscape:connector-curvature="0" />
	<path style="fill:none;stroke:red;stroke-width:1px;stroke-linecap:butt;stroke-linejoin:miter;stroke-opacity:1" d="M 308.591,150.47 323.57,158.792 z" id="boundary" inkscape:connector-curvature="0" />
	<path style="fill:none;stroke:red;stroke-width:1px;stroke-linecap:butt;stroke-linejoin:miter;stroke-opacity:1" d="M 323.57,158.792 340.215,158.792 z" id="boundary" inkscape:connector-curvature="0" />
	<path style="fill:none;stroke:red;stroke-width:1px;stroke-linecap:butt;stroke-linejoin:miter;stroke-opacity:1" d="M 340.215,158.792 355.195,167.114 z" id="boundary" inkscape:connector-curvature="0" />
	<path style="fill:none;stroke:red;stroke-width:1px;stroke-linecap:butt;stroke-linejoin:miter;stroke-opacity:1" d="M 355.195,167.114 371.839,167.114 z" id="boundary" inkscape:connector-curvature="0" />
	<path style="fill:none;stroke:red;stroke-width:1px;stroke-linecap:butt;stroke-linejoin:miter;stroke-opacity:1" d="M 371.839,167.114 386.819,175.436 z" id="boundary" inkscape:connector-curvature="0" />
	<path style="fill:none;stroke:red;stroke-width:1px;stroke-linecap:butt;stroke-linejoin:miter;stroke-opacity:1" d="M 386.819,175.436 403.463,175.436 z" id="boundary" inkscape:connector-curvature="0" />
	<path style="fill:none;stroke:red;stroke-width:1px;stroke-linecap:butt;stroke-linejoin:miter;stroke-opacity:1" d="M 403.463,175.436 420.107,172.107 z" id="boundary" inkscape:connector-curvature="0" />
	<path style="fill:none;stroke:red;stroke-width:1px;stroke-linecap:butt;stroke-linejoin:miter;stroke-opacity:1" d="M 420.107,172.107 436.752,167.114 z" id="boundary" inkscape:connector-curvature="0" />
	<path style="fill:none;stroke:red;stroke-width:1px;stroke-linecap:butt;stroke-linejoin:miter;stroke-opacity:1" d="M 436.752,167.114 453.396,167.114 z" id="boundary" inkscape:connector-curvature="0" />
	<path style="fill:none;stroke:red;stroke-width:1px;stroke-linecap:butt;stroke-linejoin:miter;stroke-opacity:1" d="M 453.396,167.114 470.04,167.114 z" id="boundary" inkscape:connector-curvature="0" />
	<path style="fill:none;stroke:red;stroke-width:1px;stroke-linecap:butt;stroke-linejoin:miter;stroke-opacity:1" d="M 470.04,167.114 486.685,167.114 z" id="boundary" inkscape:connector-curvature="0" />
	<path style="fill:none;stroke:red;stroke-width:1px;stroke-linecap:butt;stroke-linejoin:miter;stroke-opacity:1" d="M 486.685,167.114 503.329,167.114 z" id="boundary" inkscape:connector-curvature="0" />
	<path style="fill:none;stroke:red;stroke-width:1px;stroke-linecap:butt;stroke-linejoin:miter;stroke-opacity:1" d="M 503.329,167.114 519.973,167.114 z" id="boundary" inkscape:connector-curvature="0" />
	<path style="fill:none;stroke:red;stroke-width:1px;stroke-linecap:butt;stroke-linejoin:miter;stroke-opacity:1" d="M 519.973,167.114 536.617,167.114 z" id="boundary" inkscape:connector-curvature="0" />
	<path style="fill:none;stroke:red;stroke-width:1px;stroke-linecap:butt;stroke-linejoin:miter;stroke-opacity:1" d="M 536.617,167.114 553.262,167.114 z" id="boundary" inkscape:connector-curvature="0" />
	<path style="fill:none;stroke:red;stroke-width:1px;stroke-linecap:butt;stroke-linejoin:miter;stroke-opacity:1" d="M 553.262,167.114 569.906,167.114 z" id="boundary" inkscape:connector-curvature="0" />
	<path style="fill:none;stroke:red;stroke-width:1px;stroke-linecap:butt;stroke-linejoin:miter;stroke-opacity:1" d="M 569.906,167.114 586.55,167.114 z" id="boundary" inkscape:connector-curvature="0" />
	<path style="fill:none;stroke:red;stroke-width:1px;stroke-linecap:butt;stroke-linejoin:miter;stroke-opacity:1" d="M 586.55,167.114 603.195,167.114 z" id="boundary" inkscape:connector-curvature="0" />
	<path style="fill:none;stroke:red;stroke-width:1px;stroke-linecap:butt;stroke-linejoin:miter;stroke-opacity:1" d="M 603.195,167.114 618.174,158.792 z" id="boundary" inkscape:connector-curvature="0" />
	<path style="fill:none;stroke:red;stroke-width:1px;stroke-linecap:butt;stroke-linejoin:miter;stroke-opacity:1" d="M 618.174,158.792 634.819,158.792 z" id="boundary" inkscape:connector-curvature="0" />
	<path style="fill:none;stroke:red;stroke-width:1px;stroke-linecap:butt;stroke-linejoin:miter;stroke-opacity:1" d="M 634.819,158.792 651.463,158.792 z" id="boundary" inkscape:connector-curvature="0" />
	<path style="fill:none;stroke:red;stroke-width:1px;stroke-linecap:butt;stroke-linejoin:miter;stroke-opacity:1" d="M 651.463,158.792 668.107,158.792 z" id="boundary" inkscape:connector-curvature="0" />
	<path style="fill:none;stroke:red;stroke-width:1px;stroke-linecap:butt;stroke-linejoin:miter;stroke-opacity:1" d="M 668.107,158.792 683.087,150.47 z" id="boundary" inkscape:connector-curvature="0" />
	<path style="fill:none;stroke:red;stroke-width:1px;stroke-linecap:butt;stroke-linejoin:miter;stroke-opacity:1" d="M 683.087,150.47 699.732,150.47 z" id="boundary" inkscape:connector-curvature="0" />
	<path style="fill:none;stroke:red;stroke-width:1px;stroke-linecap:butt;stroke-linejoin:miter;stroke-opacity:1" d="M 699.732,150.47 716.376,150.47 z" id="boundary" inkscape:connector-curvature="0" />
	<path style="fill:none;stroke:red;stroke-width:1px;stroke-linecap:butt;stroke-linejoin:miter;stroke-opacity:1" d="M 716.376,150.47 733.02,150.47 z" id="boundary" inkscape:connector-curvature="0" />
	<path style="fill:none;stroke:red;stroke-width:1px;stroke-linecap:butt;stroke-linejoin:miter;stroke-opacity:1" d="M 733.02,150.47 749.664,150.47 z" id="boundary" inkscape:connector-curvature="0" />
	<path style="fill:none;stroke:red;stroke-width:1px;stroke-linecap:butt;stroke-linejoin:miter;stroke-opacity:1" d="M 749.664,150.47 764.644,158.792 z" id="boundary" inkscape:connector-curvature="0" />
	<path style="fill:none;stroke:red;stroke-width:1px;stroke-linecap:butt;stroke-linejoin:miter;stroke-opacity:1" d="M 764.644,158.792 781.289,158.792 z" id="boundary" inkscape:connector-curvature="0" />
	<path style="fill:none;stroke:red;stroke-width:1px;stroke-linecap:butt;stroke-linejoin:miter;stroke-opacity:1" d="M 781.289,158.792 797.933,158.792 z" id="boundary" inkscape:connector-curvature="0" />
	<path style="fill:none;stroke:red;stroke-width:1px;stroke-linecap:butt;stroke-linejoin:miter;stroke-opacity:1" d="M 797.933,158.792 812.913,167.114 z" id="boundary" inkscape:connector-curvature="0" />
	<path style="fill:none;stroke:red;stroke-width:1px;stroke-linecap:butt;stroke-linejoin:miter;stroke-opacity:1" d="M 812.913,167.114 829.557,167.114 z" id="boundary" inkscape:connector-curvature="0" />
	<path style="fill:none;stroke:red;stroke-width:1px;stroke-linecap:butt;stroke-linejoin:miter;stroke-opacity:1" d="M 829.557,167.114 846.201,172.107 z" id="boundary" inkscape:connector-curvature="0" />
	<path style="fill:none;stroke:red;stroke-width:1px;stroke-linecap:butt;stroke-linejoin:miter;stroke-opacity:1" d="M 846.201,172.107 857.852,185.423 z" id="boundary" inkscape:connector-curvature="0" />
	<path style="fill:none;stroke:red;stroke-width:1px;stroke-linecap:butt;stroke-linejoin:miter;stroke-opacity:1" d="M 857.852,185.423 866.174,200.403 z" id="boundary" inkscape:connector-curvature="0" />
	<path style="fill:none;stroke:red;stroke-width:1px;stroke-linecap:butt;stroke-linejoin:miter;stroke-opacity:1" d="M 866.174,200.403 881.154,208.725 z" id="boundary" inkscape:connector-curvature="0" />
	<path style="fill:none;stroke:red;stroke-width:1px;stroke-linecap:butt;stroke-linejoin:miter;stroke-opacity:1" d="M 881.154,208.725 894.47,220.376 z" id="boundary" inkscape:connector-curvature="0" />
	<path style="fill:none;stroke:red;stroke-width:1px;stroke-linecap:butt;stroke-linejoin:miter;stroke-opacity:1" d="M 894.47,220.376 904.456,233.691 z" id="boundary" inkscape:connector-curvature="0" />
	<path style="fill:none;stroke:red;stroke-width:1px;stroke-linecap:butt;stroke-linejoin:miter;stroke-opacity:1" d="M 904.456,233.691 904.456,250.336 z" id="boundary" inkscape:connector-curvature="0" />
	<path style="fill:none;stroke:red;stroke-width:1px;stroke-linecap:butt;stroke-linejoin:miter;stroke-opacity:1" d="M 904.456,250.336 917.772,260.322 z" id="boundary" inkscape:connector-curvature="0" />
	<path style="fill:none;stroke:red;stroke-width:1px;stroke-linecap:butt;stroke-linejoin:miter;stroke-opacity:1" d="M 917.772,260.322 924.43,276.966 z" id="boundary" inkscape:connector-curvature="0" />
	<path style="fill:none;stroke:red;stroke-width:1px;stroke-linecap:butt;stroke-linejoin:miter;stroke-opacity:1" d="M 924.43,276.966 929.423,293.611 z" id="boundary" inkscape:connector-curvature="0" />
	<path style="fill:none;stroke:red;stroke-width:1px;stroke-linecap:butt;stroke-linejoin:miter;stroke-opacity:1" d="M 929.423,293.611 932.752,310.255 z" id="boundary" inkscape:connector-curvature="0" />
	<path style="fill:none;stroke:red;stroke-width:1px;stroke-linecap:butt;stroke-linejoin:miter;stroke-opacity:1" d="M 932.752,310.255 937.745,326.899 z" id="boundary" inkscape:connector-curvature="0" />
	<path style="fill:none;stroke:red;stroke-width:1px;stroke-linecap:butt;stroke-linejoin:miter;stroke-opacity:1" d="M 937.745,326.899 937.745,343.544 z" id="boundary" inkscape:connector-curvature="0" />
	<path style="fill:none;stroke:red;stroke-width:1px;stroke-linecap:butt;stroke-linejoin:miter;stroke-opacity:1" d="M 937.745,343.544 946.067,358.523 z" id="boundary" inkscape:connector-curvature="0" />
	<path style="fill:none;stroke:red;stroke-width:1px;stroke-linecap:butt;stroke-linejoin:miter;stroke-opacity:1" d="M 946.067,358.523 954.389,373.503 z" id="boundary" inkscape:connector-curvature="0" />
	<path style="fill:none;stroke:red;stroke-width:1px;stroke-linecap:butt;stroke-linejoin:miter;stroke-opacity:1" d="M 954.389,373.503 954.389,390.148 z" id="boundary" inkscape:connector-curvature="0" />
	<path style="fill:none;stroke:red;stroke-width:1px;stroke-linecap:butt;stroke-linejoin:miter;stroke-opacity:1" d="M 954.389,390.148 967.705,401.799 z" id="boundary" inkscape:connector-curvature="0" />
	<path style="fill:none;stroke:red;stroke-width:1px;stroke-linecap:butt;stroke-linejoin:miter;stroke-opacity:1" d="M 967.705,401.799 974.362,418.443 z" id="boundary" inkscape:connector-curvature="0" />
	<path style="fill:none;stroke:red;stroke-width:1px;stroke-linecap:butt;stroke-linejoin:miter;stroke-opacity:1" d="M 974.362,418.443 991.007,425.101 z" id="boundary" inkscape:connector-curvature="0" />
	<path style="fill:none;stroke:red;stroke-width:1px;stroke-linecap:butt;stroke-linejoin:miter;stroke-opacity:1" d="M 991.007,425.101 996,441.745 z" id="boundary" inkscape:connector-curvature="0" />
	<path style="fill:none;stroke:red;stroke-width:1px;stroke-linecap:butt;stroke-linejoin:miter;stroke-opacity:1" d="M 996,441.745 991.007,460.054 z" id="boundary" inkscape:connector-curvature="0" />
	<path style="fill:none;stroke:red;stroke-width:1px;stroke-linecap:butt;stroke-linejoin:miter;stroke-opacity:1" d="M 991.007,460.054 976.027,451.732 z" id="boundary" inkscape:connector-curvature="0" />
	<path style="fill:none;stroke:red;stroke-width:1px;stroke-linecap:butt;stroke-linejoin:miter;stroke-opacity:1" d="M 976.027,451.732 961.047,443.409 z" id="boundary" inkscape:connector-curvature="0" />
	<path style="fill:none;stroke:red;stroke-width:1px;stroke-linecap:butt;stroke-linejoin:miter;stroke-opacity:1" d="M 961.047,443.409 944.403,438.416 z" id="boundary" inkscape:connector-curvature="0" />
	<path style="fill:none;stroke:red;stroke-width:1px;stroke-linecap:butt;stroke-linejoin:miter;stroke-opacity:1" d="M 944.403,438.416 937.745,421.772 z" id="boundary" inkscape:connector-curvature="0" />
	<path style="fill:none;stroke:red;stroke-width:1px;stroke-linecap:butt;stroke-linejoin:miter;stroke-opacity:1" d="M 937.745,421.772 927.758,408.456 z" id="boundary" inkscape:connector-curvature="0" />
	<path style="fill:none;stroke:red;stroke-width:1px;stroke-linecap:butt;stroke-linejoin:miter;stroke-opacity:1" d="M 927.758,408.456 919.436,393.477 z" id="boundary" inkscape:connector-curvature="0" />
	<path style="fill:none;stroke:red;stroke-width:1px;stroke-linecap:butt;stroke-linejoin:miter;stroke-opacity:1" d="M 919.436,393.477 917.772,376.832 z" id="boundary" inkscape:connector-curvature="0" />
	<path style="fill:none;stroke:red;stroke-width:1px;stroke-linecap:butt;stroke-linejoin:miter;stroke-opacity:1" d="M 917.772,376.832 902.792,368.51 z" id="boundary" inkscape:connector-curvature="0" />
	<path style="fill:none;stroke:red;stroke-width:1px;stroke-linecap:butt;stroke-linejoin:miter;stroke-opacity:1" d="M 902.792,368.51 899.463,351.866 z" id="boundary" inkscape:connector-curvature="0" />
	<path style="fill:none;stroke:red;stroke-width:1px;stroke-linecap:butt;stroke-linejoin:miter;stroke-opacity:1" d="M 899.463,351.866 894.47,335.221 z" id="boundary" inkscape:connector-curvature="0" />
	<path style="fill:none;stroke:red;stroke-width:1px;stroke-linecap:butt;stroke-linejoin:miter;stroke-opacity:1" d="M 894.47,335.221 894.47,318.577 z" id="boundary" inkscape:connector-curvature="0" />
	<path style="fill:none;stroke:red;stroke-width:1px;stroke-linecap:butt;stroke-linejoin:miter;stroke-opacity:1" d="M 894.47,318.577 879.49,326.899 z" id="boundary" inkscape:connector-curvature="0" />
	<path style="fill:none;stroke:red;stroke-width:1px;stroke-linecap:butt;stroke-linejoin:miter;stroke-opacity:1" d="M 879.49,326.899 879.49,343.544 z" id="boundary" inkscape:connector-curvature="0" />
	<path style="fill:none;stroke:red;stroke-width:1px;stroke-linecap:butt;stroke-linejoin:miter;stroke-opacity:1" d="M 879.49,343.544 879.49,360.188 z" id="boundary" inkscape:connector-curvature="0" />
	<path style="fill:none;stroke:red;stroke-width:1px;stroke-linecap:butt;stroke-linejoin:miter;stroke-opacity:1" d="M 879.49,360.188 862.846,376.832 z" id="boundary" inkscape:connector-curvature="0" />
	<path style="fill:none;stroke:red;stroke-width:1px;stroke-linecap:butt;stroke-linejoin:miter;stroke-opacity:1" d="M 862.846,376.832 862.846,393.477 z" id="boundary" inkscape:connector-curvature="0" />
	<path style="fill:none;stroke:red;stroke-width:1px;stroke-linecap:butt;stroke-linejoin:miter;stroke-opacity:1" d="M 862.846,393.477 854.523,410.121 z" id="boundary" inkscape:connector-curvature="0" />
	<path style="fill:none;stroke:red;stroke-width:1px;stroke-linecap:butt;stroke-linejoin:miter;stroke-opacity:1" d="M 854.523,410.121 854.523,426.765 z" id="boundary" inkscape:connector-curvature="0" />
	<path style="fill:none;stroke:red;stroke-width:1px;stroke-linecap:butt;stroke-linejoin:miter;stroke-opacity:1" d="M 854.523,426.765 846.201,443.409 z" id="boundary" inkscape:connector-curvature="0" />
	<path style="fill:none;stroke:red;stroke-width:1px;stroke-linecap:butt;stroke-linejoin:miter;stroke-opacity:1" d="M 846.201,443.409 846.201,460.054 z" id="boundary" inkscape:connector-curvature="0" />
	<path style="fill:none;stroke:red;stroke-width:1px;stroke-linecap:butt;stroke-linejoin:miter;stroke-opacity:1" d="M 846.201,460.054 846.201,476.698 z" id="boundary" inkscape:connector-curvature="0" />
	<path style="fill:none;stroke:red;stroke-width:1px;stroke-linecap:butt;stroke-linejoin:miter;stroke-opacity:1" d="M 846.201,476.698 846.201,493.342 z" id="boundary" inkscape:connector-curvature="0" />
	<path style="fill:none;stroke:red;stroke-width:1px;stroke-linecap:butt;stroke-linejoin:miter;stroke-opacity:1" d="M 846.201,493.342 849.53,509.987 z" id="boundary" inkscape:connector-curvature="0" />
	<path style="fill:none;stroke:red;stroke-width:1px;stroke-linecap:butt;stroke-linejoin:miter;stroke-opacity:1" d="M 849.53,509.987 846.201,526.631 z" id="boundary" inkscape:connector-curvature="0" />
	<path style="fill:none;stroke:red;stroke-width:1px;stroke-linecap:butt;stroke-linejoin:miter;stroke-opacity:1" d="M 253.664,621.503 245.342,646.47 z" id="boundary" inkscape:connector-curvature="0" />
	<path style="fill:none;stroke:red;stroke-width:1px;stroke-linecap:butt;stroke-linejoin:miter;stroke-opacity:1" d="M 245.342,646.47 255.329,659.785 z" id="boundary" inkscape:connector-curvature="0" />
	<path style="fill:none;stroke:red;stroke-width:1px;stroke-linecap:butt;stroke-linejoin:miter;stroke-opacity:1" d="M 255.329,659.785 271.973,659.785 z" id="boundary" inkscape:connector-curvature="0" />
	<path style="fill:none;stroke:red;stroke-width:1px;stroke-linecap:butt;stroke-linejoin:miter;stroke-opacity:1" d="M 271.973,659.785 288.617,659.785 z" id="boundary" inkscape:connector-curvature="0" />
	<path style="fill:none;stroke:red;stroke-width:1px;stroke-linecap:butt;stroke-linejoin:miter;stroke-opacity:1" d="M 288.617,659.785 305.262,659.785 z" id="boundary" inkscape:connector-curvature="0" />
	<path style="fill:none;stroke:red;stroke-width:1px;stroke-linecap:butt;stroke-linejoin:miter;stroke-opacity:1" d="M 305.262,659.785 321.906,651.463 z" id="boundary" inkscape:connector-curvature="0" />
	<path style="fill:none;stroke:red;stroke-width:1px;stroke-linecap:butt;stroke-linejoin:miter;stroke-opacity:1" d="M 321.906,651.463 336.886,643.141 z" id="boundary" inkscape:connector-curvature="0" />
	<path style="fill:none;stroke:red;stroke-width:1px;stroke-linecap:butt;stroke-linejoin:miter;stroke-opacity:1" d="M 336.886,643.141 346.872,618.174 z" id="boundary" inkscape:connector-curvature="0" />
	<path style="fill:none;stroke:red;stroke-width:1px;stroke-linecap:butt;stroke-linejoin:miter;stroke-opacity:1" d="M 346.872,618.174 346.872,601.53 z" id="boundary" inkscape:connector-curvature="0" />
	<path style="fill:none;stroke:red;stroke-width:1px;stroke-linecap:butt;stroke-linejoin:miter;stroke-opacity:1" d="M 346.872,601.53 346.872,584.886 z" id="boundary" inkscape:connector-curvature="0" />
	<path style="fill:none;stroke:red;stroke-width:1px;stroke-linecap:butt;stroke-linejoin:miter;stroke-opacity:1" d="M 346.872,584.886 346.872,568.242 z" id="boundary" inkscape:connector-curvature="0" />
	<path style="fill:none;stroke:red;stroke-width:1px;stroke-linecap:butt;stroke-linejoin:miter;stroke-opacity:1" d="M 346.872,568.242 355.195,543.275 z" id="boundary" inkscape:connector-curvature="0" />
	<path style="fill:none;stroke:red;stroke-width:1px;stroke-linecap:butt;stroke-linejoin:miter;stroke-opacity:1" d="M 355.195,543.275 370.174,534.953 z" id="boundary" inkscape:connector-curvature="0" />
	<path style="fill:none;stroke:red;stroke-width:1px;stroke-linecap:butt;stroke-linejoin:miter;stroke-opacity:1" d="M 370.174,534.953 370.174,551.597 z" id="boundary" inkscape:connector-curvature="0" />
	<path style="fill:none;stroke:red;stroke-width:1px;stroke-linecap:butt;stroke-linejoin:miter;stroke-opacity:1" d="M 370.174,551.597 375.168,568.242 z" id="boundary" inkscape:connector-curvature="0" />
	<path style="fill:none;stroke:red;stroke-width:1px;stroke-linecap:butt;stroke-linejoin:miter;stroke-opacity:1" d="M 375.168,568.242 378.497,584.886 z" id="boundary" inkscape:connector-curvature="0" />
	<path style="fill:none;stroke:red;stroke-width:1px;stroke-linecap:butt;stroke-linejoin:miter;stroke-opacity:1" d="M 378.497,584.886 378.497,601.53 z" id="boundary" inkscape:connector-curvature="0" />
	<path style="fill:none;stroke:red;stroke-width:1px;stroke-linecap:butt;stroke-linejoin:miter;stroke-opacity:1" d="M 378.497,601.53 378.497,618.174 z" id="boundary" inkscape:connector-curvature="0" />
	<path style="fill:none;stroke:red;stroke-width:1px;stroke-linecap:butt;stroke-linejoin:miter;stroke-opacity:1" d="M 378.497,618.174 378.497,634.819 z" id="boundary" inkscape:connector-curvature="0" />
	<path style="fill:none;stroke:red;stroke-width:1px;stroke-linecap:butt;stroke-linejoin:miter;stroke-opacity:1" d="M 378.497,634.819 371.839,653.128 z" id="boundary" inkscape:connector-curvature="0" />
	<path style="fill:none;stroke:red;stroke-width:1px;stroke-linecap:butt;stroke-linejoin:miter;stroke-opacity:1" d="M 371.839,653.128 360.188,666.443 z" id="boundary" inkscape:connector-curvature="0" />
	<path style="fill:none;stroke:red;stroke-width:1px;stroke-linecap:butt;stroke-linejoin:miter;stroke-opacity:1" d="M 360.188,666.443 345.208,674.765 z" id="boundary" inkscape:connector-curvature="0" />
	<path style="fill:none;stroke:red;stroke-width:1px;stroke-linecap:butt;stroke-linejoin:miter;stroke-opacity:1" d="M 345.208,674.765 328.564,679.758 z" id="boundary" inkscape:connector-curvature="0" />
	<path style="fill:none;stroke:red;stroke-width:1px;stroke-linecap:butt;stroke-linejoin:miter;stroke-opacity:1" d="M 328.564,679.758 328.564,696.403 z" id="boundary" inkscape:connector-curvature="0" />
	<path style="fill:none;stroke:red;stroke-width:1px;stroke-linecap:butt;stroke-linejoin:miter;stroke-opacity:1" d="M 328.564,696.403 328.564,713.047 z" id="boundary" inkscape:connector-curvature="0" />
	<path style="fill:none;stroke:red;stroke-width:1px;stroke-linecap:butt;stroke-linejoin:miter;stroke-opacity:1" d="M 328.564,713.047 345.208,718.04 z" id="boundary" inkscape:connector-curvature="0" />
	<path style="fill:none;stroke:red;stroke-width:1px;stroke-linecap:butt;stroke-linejoin:miter;stroke-opacity:1" d="M 345.208,718.04 361.852,721.369 z" id="boundary" inkscape:connector-curvature="0" />
	<path style="fill:none;stroke:red;stroke-width:1px;stroke-linecap:butt;stroke-linejoin:miter;stroke-opacity:1" d="M 361.852,721.369 378.497,718.04 z" id="boundary" inkscape:connector-curvature="0" />
	<path style="fill:none;stroke:red;stroke-width:1px;stroke-linecap:butt;stroke-linejoin:miter;stroke-opacity:1" d="M 378.497,718.04 395.141,713.047 z" id="boundary" inkscape:connector-curvature="0" />
	<path style="fill:none;stroke:red;stroke-width:1px;stroke-linecap:butt;stroke-linejoin:miter;stroke-opacity:1" d="M 395.141,713.047 405.128,693.074 z" id="boundary" inkscape:connector-curvature="0" />
	<path style="fill:none;stroke:red;stroke-width:1px;stroke-linecap:butt;stroke-linejoin:miter;stroke-opacity:1" d="M 405.128,693.074 413.45,676.43 z" id="boundary" inkscape:connector-curvature="0" />
	<path style="fill:none;stroke:red;stroke-width:1px;stroke-linecap:butt;stroke-linejoin:miter;stroke-opacity:1" d="M 413.45,676.43 413.45,659.785 z" id="boundary" inkscape:connector-curvature="0" />
	<path style="fill:none;stroke:red;stroke-width:1px;stroke-linecap:butt;stroke-linejoin:miter;stroke-opacity:1" d="M 413.45,659.785 421.772,643.141 z" id="boundary" inkscape:connector-curvature="0" />
	<path style="fill:none;stroke:red;stroke-width:1px;stroke-linecap:butt;stroke-linejoin:miter;stroke-opacity:1" d="M 421.772,643.141 438.416,626.497 z" id="boundary" inkscape:connector-curvature="0" />
	<path style="fill:none;stroke:red;stroke-width:1px;stroke-linecap:butt;stroke-linejoin:miter;stroke-opacity:1" d="M 438.416,626.497 438.416,609.852 z" id="boundary" inkscape:connector-curvature="0" />
	<path style="fill:none;stroke:red;stroke-width:1px;stroke-linecap:butt;stroke-linejoin:miter;stroke-opacity:1" d="M 438.416,609.852 438.416,593.208 z" id="boundary" inkscape:connector-curvature="0" />
	<path style="fill:none;stroke:red;stroke-width:1px;stroke-linecap:butt;stroke-linejoin:miter;stroke-opacity:1" d="M 438.416,593.208 438.416,576.564 z" id="boundary" inkscape:connector-curvature="0" />
	<path style="fill:none;stroke:red;stroke-width:1px;stroke-linecap:butt;stroke-linejoin:miter;stroke-opacity:1" d="M 438.416,576.564 446.738,559.919 z" id="boundary" inkscape:connector-curvature="0" />
	<path style="fill:none;stroke:red;stroke-width:1px;stroke-linecap:butt;stroke-linejoin:miter;stroke-opacity:1" d="M 446.738,559.919 455.06,543.275 z" id="boundary" inkscape:connector-curvature="0" />
	<path style="fill:none;stroke:red;stroke-width:1px;stroke-linecap:butt;stroke-linejoin:miter;stroke-opacity:1" d="M 455.06,543.275 463.383,526.631 z" id="boundary" inkscape:connector-curvature="0" />
	<path style="fill:none;stroke:red;stroke-width:1px;stroke-linecap:butt;stroke-linejoin:miter;stroke-opacity:1" d="M 463.383,526.631 463.383,509.987 z" id="boundary" inkscape:connector-curvature="0" />
	<path style="fill:none;stroke:red;stroke-width:1px;stroke-linecap:butt;stroke-linejoin:miter;stroke-opacity:1" d="M 463.383,509.987 471.705,485.02 z" id="boundary" inkscape:connector-curvature="0" />
	<path style="fill:none;stroke:red;stroke-width:1px;stroke-linecap:butt;stroke-linejoin:miter;stroke-opacity:1" d="M 471.705,485.02 471.705,468.376 z" id="boundary" inkscape:connector-curvature="0" />
	<path style="fill:none;stroke:red;stroke-width:1px;stroke-linecap:butt;stroke-linejoin:miter;stroke-opacity:1" d="M 471.705,468.376 488.349,460.054 z" id="boundary" inkscape:connector-curvature="0" />
	<path style="fill:none;stroke:red;stroke-width:1px;stroke-linecap:butt;stroke-linejoin:miter;stroke-opacity:1" d="M 488.349,460.054 488.349,443.409 z" id="boundary" inkscape:connector-curvature="0" />
	<path style="fill:none;stroke:red;stroke-width:1px;stroke-linecap:butt;stroke-linejoin:miter;stroke-opacity:1" d="M 488.349,443.409 496.671,426.765 z" id="boundary" inkscape:connector-curvature="0" />
	<path style="fill:none;stroke:red;stroke-width:1px;stroke-linecap:butt;stroke-linejoin:miter;stroke-opacity:1" d="M 496.671,426.765 513.315,426.765 z" id="boundary" inkscape:connector-curvature="0" />
	<path style="fill:none;stroke:red;stroke-width:1px;stroke-linecap:butt;stroke-linejoin:miter;stroke-opacity:1" d="M 513.315,426.765 529.96,426.765 z" id="boundary" inkscape:connector-curvature="0" />
	<path style="fill:none;stroke:red;stroke-width:1px;stroke-linecap:butt;stroke-linejoin:miter;stroke-opacity:1" d="M 529.96,426.765 546.604,426.765 z" id="boundary" inkscape:connector-curvature="0" />
	<path style="fill:none;stroke:red;stroke-width:1px;stroke-linecap:butt;stroke-linejoin:miter;stroke-opacity:1" d="M 546.604,426.765 561.584,418.443 z" id="boundary" inkscape:connector-curvature="0" />
	<path style="fill:none;stroke:red;stroke-width:1px;stroke-linecap:butt;stroke-linejoin:miter;stroke-opacity:1" d="M 561.584,418.443 578.228,418.443 z" id="boundary" inkscape:connector-curvature="0" />
	<path style="fill:none;stroke:red;stroke-width:1px;stroke-linecap:butt;stroke-linejoin:miter;stroke-opacity:1" d="M 578.228,418.443 594.872,418.443 z" id="boundary" inkscape:connector-curvature="0" />
	<path style="fill:none;stroke:red;stroke-width:1px;stroke-linecap:butt;stroke-linejoin:miter;stroke-opacity:1" d="M 594.872,418.443 611.517,418.443 z" id="boundary" inkscape:connector-curvature="0" />
	<path style="fill:none;stroke:red;stroke-width:1px;stroke-linecap:butt;stroke-linejoin:miter;stroke-opacity:1" d="M 611.517,418.443 628.161,418.443 z" id="boundary" inkscape:connector-curvature="0" />
	<path style="fill:none;stroke:red;stroke-width:1px;stroke-linecap:butt;stroke-linejoin:miter;stroke-opacity:1" d="M 628.161,418.443 644.805,418.443 z" id="boundary" inkscape:connector-curvature="0" />
	<path style="fill:none;stroke:red;stroke-width:1px;stroke-linecap:butt;stroke-linejoin:miter;stroke-opacity:1" d="M 644.805,418.443 661.45,418.443 z" id="boundary" inkscape:connector-curvature="0" />
	<path style="fill:none;stroke:red;stroke-width:1px;stroke-linecap:butt;stroke-linejoin:miter;stroke-opacity:1" d="M 661.45,418.443 678.094,418.443 z" id="boundary" inkscape:connector-curvature="0" />
	<path style="fill:none;stroke:red;stroke-width:1px;stroke-linecap:butt;stroke-linejoin:miter;stroke-opacity:1" d="M 678.094,418.443 678.094,435.087 z" id="boundary" inkscape:connector-curvature="0" />
	<path style="fill:none;stroke:red;stroke-width:1px;stroke-linecap:butt;stroke-linejoin:miter;stroke-opacity:1" d="M 678.094,435.087 688.081,448.403 z" id="boundary" inkscape:connector-curvature="0" />
	<path style="fill:none;stroke:red;stroke-width:1px;stroke-linecap:butt;stroke-linejoin:miter;stroke-opacity:1" d="M 688.081,448.403 701.396,460.054 z" id="boundary" inkscape:connector-curvature="0" />
	<path style="fill:none;stroke:red;stroke-width:1px;stroke-linecap:butt;stroke-linejoin:miter;stroke-opacity:1" d="M 701.396,460.054 708.054,476.698 z" id="boundary" inkscape:connector-curvature="0" />
	<path style="fill:none;stroke:red;stroke-width:1px;stroke-linecap:butt;stroke-linejoin:miter;stroke-opacity:1" d="M 708.054,476.698 711.383,493.342 z" id="boundary" inkscape:connector-curvature="0" />
	<path style="fill:none;stroke:red;stroke-width:1px;stroke-linecap:butt;stroke-linejoin:miter;stroke-opacity:1" d="M 711.383,493.342 726.362,501.664 z" id="boundary" inkscape:connector-curvature="0" />
	<path style="fill:none;stroke:red;stroke-width:1px;stroke-linecap:butt;stroke-linejoin:miter;stroke-opacity:1" d="M 726.362,501.664 716.376,516.644 z" id="boundary" inkscape:connector-curvature="0" />
	<path style="fill:none;stroke:red;stroke-width:1px;stroke-linecap:butt;stroke-linejoin:miter;stroke-opacity:1" d="M 716.376,516.644 703.06,529.96 z" id="boundary" inkscape:connector-curvature="0" />
	<path style="fill:none;stroke:red;stroke-width:1px;stroke-linecap:butt;stroke-linejoin:miter;stroke-opacity:1" d="M 703.06,529.96 693.074,549.933 z" id="boundary" inkscape:connector-curvature="0" />
	<path style="fill:none;stroke:red;stroke-width:1px;stroke-linecap:butt;stroke-linejoin:miter;stroke-opacity:1" d="M 693.074,549.933 678.094,558.255 z" id="boundary" inkscape:connector-curvature="0" />
	<path style="fill:none;stroke:red;stroke-width:1px;stroke-linecap:butt;stroke-linejoin:miter;stroke-opacity:1" d="M 678.094,558.255 661.45,558.255 z" id="boundary" inkscape:connector-curvature="0" />
	<path style="fill:none;stroke:red;stroke-width:1px;stroke-linecap:butt;stroke-linejoin:miter;stroke-opacity:1" d="M 661.45,558.255 644.805,563.248 z" id="boundary" inkscape:connector-curvature="0" />
	<path style="fill:none;stroke:red;stroke-width:1px;stroke-linecap:butt;stroke-linejoin:miter;stroke-opacity:1" d="M 644.805,563.248 644.805,579.893 z" id="boundary" inkscape:connector-curvature="0" />
	<path style="fill:none;stroke:red;stroke-width:1px;stroke-linecap:butt;stroke-linejoin:miter;stroke-opacity:1" d="M 644.805,579.893 654.792,593.208 z" id="boundary" inkscape:connector-curvature="0" />
	<path style="fill:none;stroke:red;stroke-width:1px;stroke-linecap:butt;stroke-linejoin:miter;stroke-opacity:1" d="M 654.792,593.208 669.772,601.53 z" id="boundary" inkscape:connector-curvature="0" />
	<path style="fill:none;stroke:red;stroke-width:1px;stroke-linecap:butt;stroke-linejoin:miter;stroke-opacity:1" d="M 669.772,601.53 686.416,596.537 z" id="boundary" inkscape:connector-curvature="0" />
	<path style="fill:none;stroke:red;stroke-width:1px;stroke-linecap:butt;stroke-linejoin:miter;stroke-opacity:1" d="M 686.416,596.537 703.06,588.215 z" id="boundary" inkscape:connector-curvature="0" />
	<path style="fill:none;stroke:red;stroke-width:1px;stroke-linecap:butt;stroke-linejoin:miter;stroke-opacity:1" d="M 703.06,588.215 711.383,571.57 z" id="boundary" inkscape:connector-curvature="0" />
	<path style="fill:none;stroke:red;stroke-width:1px;stroke-linecap:butt;stroke-linejoin:miter;stroke-opacity:1" d="M 711.383,571.57 728.027,563.248 z" id="boundary" inkscape:connector-curvature="0" />
	<path style="fill:none;stroke:red;stroke-width:1px;stroke-linecap:butt;stroke-linejoin:miter;stroke-opacity:1" d="M 728.027,563.248 741.342,549.933 z" id="boundary" inkscape:connector-curvature="0" />
	<path style="fill:none;stroke:red;stroke-width:1px;stroke-linecap:butt;stroke-linejoin:miter;stroke-opacity:1" d="M 741.342,549.933 754.658,526.631 z" id="boundary" inkscape:connector-curvature="0" />
	<path style="fill:none;stroke:red;stroke-width:1px;stroke-linecap:butt;stroke-linejoin:miter;stroke-opacity:1" d="M 754.658,526.631 769.638,518.309 z" id="boundary" inkscape:connector-curvature="0" />
	<path style="fill:none;stroke:red;stroke-width:1px;stroke-linecap:butt;stroke-linejoin:miter;stroke-opacity:1" d="M 769.638,518.309 784.617,509.987 z" id="boundary" inkscape:connector-curvature="0" />
	<path style="fill:none;stroke:red;stroke-width:1px;stroke-linecap:butt;stroke-linejoin:miter;stroke-opacity:1" d="M 784.617,509.987 786.282,526.631 z" id="boundary" inkscape:connector-curvature="0" />
	<path style="fill:none;stroke:red;stroke-width:1px;stroke-linecap:butt;stroke-linejoin:miter;stroke-opacity:1" d="M 786.282,526.631 786.282,543.275 z" id="boundary" inkscape:connector-curvature="0" />
	<path style="fill:none;stroke:red;stroke-width:1px;stroke-linecap:butt;stroke-linejoin:miter;stroke-opacity:1" d="M 786.282,543.275 777.96,571.57 z" id="boundary" inkscape:connector-curvature="0" />
	<path style="fill:none;stroke:red;stroke-width:1px;stroke-linecap:butt;stroke-linejoin:miter;stroke-opacity:1" d="M 777.96,571.57 761.315,579.893 z" id="boundary" inkscape:connector-curvature="0" />
	<path style="fill:none;stroke:red;stroke-width:1px;stroke-linecap:butt;stroke-linejoin:miter;stroke-opacity:1" d="M 761.315,579.893 744.671,596.537 z" id="boundary" inkscape:connector-curvature="0" />
	<path style="fill:none;stroke:red;stroke-width:1px;stroke-linecap:butt;stroke-linejoin:miter;stroke-opacity:1" d="M 744.671,596.537 728.027,613.181 z" id="boundary" inkscape:connector-curvature="0" />
	<path style="fill:none;stroke:red;stroke-width:1px;stroke-linecap:butt;stroke-linejoin:miter;stroke-opacity:1" d="M 728.027,613.181 736.349,628.161 z" id="boundary" inkscape:connector-curvature="0" />
	<path style="fill:none;stroke:red;stroke-width:1px;stroke-linecap:butt;stroke-linejoin:miter;stroke-opacity:1" d="M 736.349,628.161 744.671,643.141 z" id="boundary" inkscape:connector-curvature="0" />
	<path style="fill:none;stroke:red;stroke-width:1px;stroke-linecap:butt;stroke-linejoin:miter;stroke-opacity:1" d="M 744.671,643.141 761.315,643.141 z" id="boundary" inkscape:connector-curvature="0" />
	<path style="fill:none;stroke:red;stroke-width:1px;stroke-linecap:butt;stroke-linejoin:miter;stroke-opacity:1" d="M 761.315,643.141 777.96,643.141 z" id="boundary" inkscape:connector-curvature="0" />
	<path style="fill:none;stroke:red;stroke-width:1px;stroke-linecap:butt;stroke-linejoin:miter;stroke-opacity:1" d="M 777.96,643.141 787.946,626.497 z" id="boundary" inkscape:connector-curvature="0" />
	<path style="fill:none;stroke:red;stroke-width:1px;stroke-linecap:butt;stroke-linejoin:miter;stroke-opacity:1" d="M 787.946,626.497 801.262,614.846 z" id="boundary" inkscape:connector-curvature="0" />
	<path style="fill:none;stroke:red;stroke-width:1px;stroke-linecap:butt;stroke-linejoin:miter;stroke-opacity:1" d="M 801.262,614.846 809.584,598.201 z" id="boundary" inkscape:connector-curvature="0" />
	<path style="fill:none;stroke:red;stroke-width:1px;stroke-linecap:butt;stroke-linejoin:miter;stroke-opacity:1" d="M 809.584,598.201 826.228,589.879 z" id="boundary" inkscape:connector-curvature="0" />
	<path style="fill:none;stroke:red;stroke-width:1px;stroke-linecap:butt;stroke-linejoin:miter;stroke-opacity:1" d="M 826.228,589.879 834.55,573.235 z" id="boundary" inkscape:connector-curvature="0" />
	<path style="fill:none;stroke:red;stroke-width:1px;stroke-linecap:butt;stroke-linejoin:miter;stroke-opacity:1" d="M 834.55,573.235 842.872,556.591 z" id="boundary" inkscape:connector-curvature="0" />
	<path style="fill:none;stroke:red;stroke-width:1px;stroke-linecap:butt;stroke-linejoin:miter;stroke-opacity:1" d="M 842.872,556.591 846.201,526.631 z" id="boundary" inkscape:connector-curvature="0" />
	<circle cx="4" cy="205.396" r="4" fill="#0" id="circle0"/>
	<circle cx="12.3221" cy="188.752" r="4" fill="#0" id="circle1"/>
	<circle cx="12.3221" cy="220.376" r="4" fill="#0" id="circle2"/>
	<circle cx="20.6443" cy="122.174" r="4" fill="#0" id="circle3"/>
	<circle cx="20.6443" cy="138.819" r="4" fill="#0" id="circle4"/>
	<circle cx="20.6443" cy="155.463" r="4" fill="#0" id="circle5"/>
	<circle cx="20.6443" cy="172.107" r="4" fill="#0" id="circle6"/>
	<circle cx="20.6443" cy="235.356" r="4" fill="#0" id="circle7"/>
	<circle cx="25.6376" cy="252" r="4" fill="#0" id="circle8"/>
	<circle cx="33.9597" cy="108.859" r="4" fill="#0" id="circle9"/>
	<circle cx="37.2886" cy="13.9866" r="4" fill="#0" id="circle10"/>
	<circle cx="42.2819" cy="258.658" r="4" fill="#0" id="circle11"/>
	<circle cx="48.9396" cy="100.537" r="4" fill="#0" id="circle12"/>
	<circle cx="50.604" cy="25.6376" r="4" fill="#0" id="circle13"/>
	<circle cx="53.9329" cy="8.99329" r="4" fill="#0" id="circle14"/>
	<circle cx="57.2617" cy="85.557" r="4" fill="#0" id="circle15"/>
	<circle cx="57.2617" cy="266.98" r="4" fill="#0" id="circle16"/>
	<circle cx="62.255" cy="38.953" r="4" fill="#0" id="circle17"/>
	<circle cx="62.255" cy="55.5973" r="4" fill="#0" id="circle18"/>
	<circle cx="67.2483" cy="18.9799" r="4" fill="#0" id="circle19"/>
	<circle cx="70.5772" cy="70.5772" r="4" fill="#0" id="circle20"/>
	<circle cx="73.906" cy="268.644" r="4" fill="#0" id="circle21"/>
	<circle cx="83.8926" cy="25.6376" r="4" fill="#0" id="circle22"/>
	<circle cx="87.2215" cy="5.66443" r="4" fill="#0" id="circle23"/>
	<circle cx="90.5503" cy="268.644" r="4" fill="#0" id="circle24"/>
	<circle cx="103.866" cy="4" r="4" fill="#0" id="circle25"/>
	<circle cx="105.53" cy="260.322" r="4" fill="#0" id="circle26"/>
	<circle cx="113.852" cy="17.3154" r="4" fill="#0" id="circle27"/>
	<circle cx="122.174" cy="260.322" r="4" fill="#0" id="circle28"/>
	<circle cx="128.832" cy="25.6376" r="4" fill="#0" id="circle29"/>
	<circle cx="137.154" cy="268.644" r="4" fill="#0" id="circle30"/>
	<circle cx="143.812" cy="33.9597" r="4" fill="#0" id="circle31"/>
	<circle cx="153.799" cy="268.644" r="4" fill="#0" id="circle32"/>
	<circle cx="155.463" cy="47.2752" r="4" fill="#0" id="circle33"/>
	<circle cx="168.779" cy="58.9262" r="4" fill="#0" id="circle34"/>
	<circle cx="168.779" cy="276.966" r="4" fill="#0" id="circle35"/>
	<circle cx="178.765" cy="290.282" r="4" fill="#0" id="circle36"/>
	<circle cx="183.758" cy="67.2483" r="4" fill="#0" id="circle37"/>
	<circle cx="192.081" cy="301.933" r="4" fill="#0" id="circle38"/>
	<circle cx="200.403" cy="67.2483" r="4" fill="#0" id="circle39"/>
	<circle cx="203.732" cy="315.248" r="4" fill="#0" id="circle40"/>
	<circle cx="212.054" cy="330.228" r="4" fill="#0" id="circle41"/>
	<circle cx="212.054" cy="346.872" r="4" fill="#0" id="circle42"/>
	<circle cx="215.383" cy="75.5705" r="4" fill="#0" id="circle43"/>
	<circle cx="220.376" cy="361.852" r="4" fill="#0" id="circle44"/>
	<circle cx="228.698" cy="87.2215" r="4" fill="#0" id="circle45"/>
	<circle cx="232.027" cy="375.168" r="4" fill="#0" id="circle46"/>
	<circle cx="238.685" cy="100.537" r="4" fill="#0" id="circle47"/>
	<circle cx="245.342" cy="385.154" r="4" fill="#0" id="circle48"/>
	<circle cx="245.342" cy="646.47" r="4" fill="#0" id="circle49"/>
	<circle cx="250.336" cy="401.799" r="4" fill="#0" id="circle50"/>
	<circle cx="253.664" cy="621.503" r="4" fill="#0" id="circle51"/>
	<circle cx="255.329" cy="105.53" r="4" fill="#0" id="circle52"/>
	<circle cx="255.329" cy="659.785" r="4" fill="#0" id="circle53"/>
	<circle cx="261.987" cy="415.114" r="4" fill="#0" id="circle54"/>
	<circle cx="266.98" cy="118.846" r="4" fill="#0" id="circle55"/>
	<circle cx="266.98" cy="608.188" r="4" fill="#0" id="circle56"/>
	<circle cx="270.309" cy="430.094" r="4" fill="#0" id="circle57"/>
	<circle cx="270.309" cy="446.738" r="4" fill="#0" id="circle58"/>
	<circle cx="271.973" cy="659.785" r="4" fill="#0" id="circle59"/>
	<circle cx="278.631" cy="461.718" r="4" fill="#0" id="circle60"/>
	<circle cx="280.295" cy="130.497" r="4" fill="#0" id="circle61"/>
	<circle cx="281.96" cy="616.51" r="4" fill="#0" id="circle62"/>
	<circle cx="288.617" cy="659.785" r="4" fill="#0" id="circle63"/>
	<circle cx="295.275" cy="138.819" r="4" fill="#0" id="circle64"/>
	<circle cx="295.275" cy="468.376" r="4" fill="#0" id="circle65"/>
	<circle cx="295.275" cy="485.02" r="4" fill="#0" id="circle66"/>
	<circle cx="298.604" cy="616.51" r="4" fill="#0" id="circle67"/>
	<circle cx="303.597" cy="500" r="4" fill="#0" id="circle68"/>
	<circle cx="303.597" cy="516.644" r="4" fill="#0" id="circle69"/>
	<circle cx="303.597" cy="533.289" r="4" fill="#0" id="circle70"/>
	<circle cx="303.597" cy="549.933" r="4" fill="#0" id="circle71"/>
	<circle cx="303.597" cy="566.577" r="4" fill="#0" id="circle72"/>
	<circle cx="303.597" cy="583.221" r="4" fill="#0" id="circle73"/>
	<circle cx="303.597" cy="599.866" r="4" fill="#0" id="circle74"/>
	<circle cx="305.262" cy="659.785" r="4" fill="#0" id="circle75"/>
	<circle cx="308.591" cy="150.47" r="4" fill="#0" id="circle76"/>
	<circle cx="321.906" cy="651.463" r="4" fill="#0" id="circle77"/>
	<circle cx="323.57" cy="158.792" r="4" fill="#0" id="circle78"/>
	<circle cx="328.564" cy="679.758" r="4" fill="#0" id="circle79"/>
	<circle cx="328.564" cy="696.403" r="4" fill="#0" id="circle80"/>
	<circle cx="328.564" cy="713.047" r="4" fill="#0" id="circle81"/>
	<circle cx="336.886" cy="643.141" r="4" fill="#0" id="circle82"/>
	<circle cx="340.215" cy="158.792" r="4" fill="#0" id="circle83"/>
	<circle cx="345.208" cy="674.765" r="4" fill="#0" id="circle84"/>
	<circle cx="345.208" cy="718.04" r="4" fill="#0" id="circle85"/>
	<circle cx="346.872" cy="568.242" r="4" fill="#0" id="circle86"/>
	<circle cx="346.872" cy="584.886" r="4" fill="#0" id="circle87"/>
	<circle cx="346.872" cy="601.53" r="4" fill="#0" id="circle88"/>
	<circle cx="346.872" cy="618.174" r="4" fill="#0" id="circle89"/>
	<circle cx="355.195" cy="167.114" r="4" fill="#0" id="circle90"/>
	<circle cx="355.195" cy="543.275" r="4" fill="#0" id="circle91"/>
	<circle cx="360.188" cy="666.443" r="4" fill="#0" id="circle92"/>
	<circle cx="361.852" cy="721.369" r="4" fill="#0" id="circle93"/>
	<circle cx="363.517" cy="518.309" r="4" fill="#0" id="circle94"/>
	<circle cx="370.174" cy="534.953" r="4" fill="#0" id="circle95"/>
	<circle cx="370.174" cy="551.597" r="4" fill="#0" id="circle96"/>
	<circle cx="371.839" cy="167.114" r="4" fill="#0" id="circle97"/>
	<circle cx="371.839" cy="653.128" r="4" fill="#0" id="circle98"/>
	<circle cx="375.168" cy="568.242" r="4" fill="#0" id="circle99"/>
	<circle cx="378.497" cy="584.886" r="4" fill="#0" id="circle100"/>
	<circle cx="378.497" cy="601.53" r="4" fill="#0" id="circle101"/>
	<circle cx="378.497" cy="618.174" r="4" fill="#0" id="circle102"/>
	<circle cx="378.497" cy="634.819" r="4" fill="#0" id="circle103"/>
	<circle cx="378.497" cy="718.04" r="4" fill="#0" id="circle104"/>
	<circle cx="386.819" cy="175.436" r="4" fill="#0" id="circle105"/>
	<circle cx="395.141" cy="713.047" r="4" fill="#0" id="circle106"/>
	<circle cx="403.463" cy="175.436" r="4" fill="#0" id="circle107"/>
	<circle cx="405.128" cy="693.074" r="4" fill="#0" id="circle108"/>
	<circle cx="413.45" cy="659.785" r="4" fill="#0" id="circle109"/>
	<circle cx="413.45" cy="676.43" r="4" fill="#0" id="circle110"/>
	<circle cx="420.107" cy="172.107" r="4" fill="#0" id="circle111"/>
	<circle cx="421.772" cy="643.141" r="4" fill="#0" id="circle112"/>
	<circle cx="436.752" cy="167.114" r="4" fill="#0" id="circle113"/>
	<circle cx="438.416" cy="576.564" r="4" fill="#0" id="circle114"/>
	<circle cx="438.416" cy="593.208" r="4" fill="#0" id="circle115"/>
	<circle cx="438.416" cy="609.852" r="4" fill="#0" id="circle116"/>
	<circle cx="438.416" cy="626.497" r="4" fill="#0" id="circle117"/>
	<circle cx="446.738" cy="559.919" r="4" fill="#0" id="circle118"/>
	<circle cx="453.396" cy="167.114" r="4" fill="#0" id="circle119"/>
	<circle cx="455.06" cy="543.275" r="4" fill="#0" id="circle120"/>
	<circle cx="463.383" cy="509.987" r="4" fill="#0" id="circle121"/>
	<circle cx="463.383" cy="526.631" r="4" fill="#0" id="circle122"/>
	<circle cx="470.04" cy="167.114" r="4" fill="#0" id="circle123"/>
	<circle cx="471.705" cy="468.376" r="4" fill="#0" id="circle124"/>
	<circle cx="471.705" cy="485.02" r="4" fill="#0" id="circle125"/>
	<circle cx="486.685" cy="167.114" r="4" fill="#0" id="circle126"/>
	<circle cx="488.349" cy="443.409" r="4" fill="#0" id="circle127"/>
	<circle cx="488.349" cy="460.054" r="4" fill="#0" id="circle128"/>
	<circle cx="496.671" cy="426.765" r="4" fill="#0" id="circle129"/>
	<circle cx="503.329" cy="167.114" r="4" fill="#0" id="circle130"/>
	<circle cx="513.315" cy="426.765" r="4" fill="#0" id="circle131"/>
	<circle cx="519.973" cy="167.114" r="4" fill="#0" id="circle132"/>
	<circle cx="529.96" cy="426.765" r="4" fill="#0" id="circle133"/>
	<circle cx="536.617" cy="167.114" r="4" fill="#0" id="circle134"/>
	<circle cx="546.604" cy="426.765" r="4" fill="#0" id="circle135"/>
	<circle cx="553.262" cy="167.114" r="4" fill="#0" id="circle136"/>
	<circle cx="561.584" cy="418.443" r="4" fill="#0" id="circle137"/>
	<circle cx="569.906" cy="167.114" r="4" fill="#0" id="circle138"/>
	<circle cx="578.228" cy="418.443" r="4" fill="#0" id="circle139"/>
	<circle cx="586.55" cy="167.114" r="4" fill="#0" id="circle140"/>
	<circle cx="594.872" cy="418.443" r="4" fill="#0" id="circle141"/>
	<circle cx="603.195" cy="167.114" r="4" fill="#0" id="circle142"/>
	<circle cx="611.517" cy="418.443" r="4" fill="#0" id="circle143"/>
	<circle cx="618.174" cy="158.792" r="4" fill="#0" id="circle144"/>
	<circle cx="628.161" cy="418.443" r="4" fill="#0" id="circle145"/>
	<circle cx="634.819" cy="158.792" r="4" fill="#0" id="circle146"/>
	<circle cx="644.805" cy="418.443" r="4" fill="#0" id="circle147"/>
	<circle cx="644.805" cy="563.248" r="4" fill="#0" id="circle148"/>
	<circle cx="644.805" cy="579.893" r="4" fill="#0" id="circle149"/>
	<circle cx="651.463" cy="158.792" r="4" fill="#0" id="circle150"/>
	<circle cx="654.792" cy="593.208" r="4" fill="#0" id="circle151"/>
	<circle cx="661.45" cy="418.443" r="4" fill="#0" id="circle152"/>
	<circle cx="661.45" cy="558.255" r="4" fill="#0" id="circle153"/>
	<circle cx="668.107" cy="158.792" r="4" fill="#0" id="circle154"/>
	<circle cx="669.772" cy="601.53" r="4" fill="#0" id="circle155"/>
	<circle cx="678.094" cy="418.443" r="4" fill="#0" id="circle156"/>
	<circle cx="678.094" cy="435.087" r="4" fill="#0" id="circle157"/>
	<circle cx="678.094" cy="558.255" r="4" fill="#0" id="circle158"/>
	<circle cx="683.087" cy="150.47" r="4" fill="#0" id="circle159"/>
	<circle cx="686.416" cy="596.537" r="4" fill="#0" id="circle160"/>
	<circle cx="688.081" cy="448.403" r="4" fill="#0" id="circle161"/>
	<circle cx="693.074" cy="549.933" r="4" fill="#0" id="circle162"/>
	<circle cx="699.732" cy="150.47" r="4" fill="#0" id="circle163"/>
	<circle cx="701.396" cy="460.054" r="4" fill="#0" id="circle164"/>
	<circle cx="703.06" cy="529.96" r="4" fill="#0" id="circle165"/>
	<circle cx="703.06" cy="588.215" r="4" fill="#0" id="circle166"/>
	<circle cx="708.054" cy="476.698" r="4" fill="#0" id="circle167"/>
	<circle cx="711.383" cy="493.342" r="4" fill="#0" id="circle168"/>
	<circle cx="711.383" cy="571.57" r="4" fill="#0" id="circle169"/>
	<circle cx="716.376" cy="150.47" r="4" fill="#0" id="circle170"/>
	<circle cx="716.376" cy="516.644" r="4" fill="#0" id="circle171"/>
	<circle cx="726.362" cy="501.664" r="4" fill="#0" id="circle172"/>
	<circle cx="728.027" cy="563.248" r="4" fill="#0" id="circle173"/>
	<circle cx="728.027" cy="613.181" r="4" fill="#0" id="circle174"/>
	<circle cx="733.02" cy="150.47" r="4" fill="#0" id="circle175"/>
	<circle cx="736.349" cy="628.161" r="4" fill="#0" id="circle176"/>
	<circle cx="741.342" cy="549.933" r="4" fill="#0" id="circle177"/>
	<circle cx="744.671" cy="596.537" r="4" fill="#0" id="circle178"/>
	<circle cx="744.671" cy="643.141" r="4" fill="#0" id="circle179"/>
	<circle cx="749.664" cy="150.47" r="4" fill="#0" id="circle180"/>
	<circle cx="754.658" cy="526.631" r="4" fill="#0" id="circle181"/>
	<circle cx="761.315" cy="579.893" r="4" fill="#0" id="circle182"/>
	<circle cx="761.315" cy="643.141" r="4" fill="#0" id="circle183"/>
	<circle cx="764.644" cy="158.792" r="4" fill="#0" id="circle184"/>
	<circle cx="769.638" cy="518.309" r="4" fill="#0" id="circle185"/>
	<circle cx="777.96" cy="571.57" r="4" fill="#0" id="circle186"/>
	<circle cx="777.96" cy="643.141" r="4" fill="#0" id="circle187"/>
	<circle cx="781.289" cy="158.792" r="4" fill="#0" id="circle188"/>
	<circle cx="784.617" cy="509.987" r="4" fill="#0" id="circle189"/>
	<circle cx="786.282" cy="526.631" r="4" fill="#0" id="circle190"/>
	<circle cx="786.282" cy="543.275" r="4" fill="#0" id="circle191"/>
	<circle cx="787.946" cy="626.497" r="4" fill="#0" id="circle192"/>
	<circle cx="797.933" cy="158.792" r="4" fill="#0" id="circle193"/>
	<circle cx="801.262" cy="614.846" r="4" fill="#0" id="circle194"/>
	<circle cx="809.584" cy="598.201" r="4" fill="#0" id="circle195"/>
	<circle cx="812.913" cy="167.114" r="4" fill="#0" id="circle196"/>
	<circle cx="826.228" cy="589.879" r="4" fill="#0" id="circle197"/>
	<circle cx="829.557" cy="167.114" r="4" fill="#0" id="circle198"/>
	<circle cx="834.55" cy="573.235" r="4" fill="#0" id="circle199"/>
	<circle cx="842.872" cy="556.591" r="4" fill="#0" id="circle200"/>
	<circle cx="846.201" cy="172.107" r="4" fill="#0" id="circle201"/>
	<circle cx="846.201" cy="443.409" r="4" fill="#0" id="circle202"/>
	<circle cx="846.201" cy="460.054" r="4" fill="#0" id="circle203"/>
	<circle cx="846.201" cy="476.698" r="4" fill="#0" id="circle204"/>
	<circle cx="846.201" cy="493.342" r="4" fill="#0" id="circle205"/>
	<circle cx="846.201" cy="526.631" r="4" fill="#0" id="circle206"/>
	<circle cx="849.53" cy="509.987" r="4" fill="#0" id="circle207"/>
	<circle cx="854.523" cy="410.121" r="4" fill="#0" id="circle208"/>
	<circle cx="854.523" cy="426.765" r="4" fill="#0" id="circle209"/>
	<circle cx="857.852" cy="185.423" r="4" fill="#0" id="circle210"/>
	<circle cx="862.846" cy="376.832" r="4" fill="#0" id="circle211"/>
	<circle cx="862.846" cy="393.477" r="4" fill="#0" id="circle212"/>
	<circle cx="866.174" cy="200.403" r="4" fill="#0" id="circle213"/>
	<circle cx="879.49" cy="326.899" r="4" fill="#0" id="circle214"/>
	<circle cx="879.49" cy="343.544" r="4" fill="#0" id="circle215"/>
	<circle cx="879.49" cy="360.188" r="4" fill="#0" id="circle216"/>
	<circle cx="881.154" cy="208.725" r="4" fill="#0" id="circle217"/>
	<circle cx="894.47" cy="220.376" r="4" fill="#0" id="circle218"/>
	<circle cx="894.47" cy="318.577" r="4" fill="#0" id="circle219"/>
	<circle cx="894.47" cy="335.221" r="4" fill="#0" id="circle220"/>
	<circle cx="899.463" cy="351.866" r="4" fill="#0" id="circle221"/>
	<circle cx="902.792" cy="368.51" r="4" fill="#0" id="circle222"/>
	<circle cx="904.456" cy="233.691" r="4" fill="#0" id="circle223"/>
	<circle cx="904.456" cy="250.336" r="4" fill="#0" id="circle224"/>
	<circle cx="917.772" cy="260.322" r="4" fill="#0" id="circle225"/>
	<circle cx="917.772" cy="376.832" r="4" fill="#0" id="circle226"/>
	<circle cx="919.436" cy="393.477" r="4" fill="#0" id="circle227"/>
	<circle cx="924.43" cy="276.966" r="4" fill="#0" id="circle228"/>
	<circle cx="927.758" cy="408.456" r="4" fill="#0" id="circle229"/>
	<circle cx="929.423" cy="293.611" r="4" fill="#0" id="circle230"/>
	<circle cx="932.752" cy="310.255" r="4" fill="#0" id="circle231"/>
	<circle cx="937.745" cy="326.899" r="4" fill="#0" id="circle232"/>
	<circle cx="937.745" cy="343.544" r="4" fill="#0" id="circle233"/>
	<circle cx="937.745" cy="421.772" r="4" fill="#0" id="circle234"/>
	<circle cx="944.403" cy="438.416" r="4" fill="#0" id="circle235"/>
	<circle cx="946.067" cy="358.523" r="4" fill="#0" id="circle236"/>
	<circle cx="954.389" cy="373.503" r="4" fill="#0" id="circle237"/>
	<circle cx="954.389" cy="390.148" r="4" fill="#0" id="circle238"/>
	<circle cx="961.047" cy="443.409" r="4" fill="#0" id="circle239"/>
	<circle cx="967.705" cy="401.799" r="4" fill="#0" id="circle240"/>
	<circle cx="974.362" cy="418.443" r="4" fill="#0" id="circle241"/>
	<circle cx="976.027" cy="451.732" r="4" fill="#0" id="circle242"/>
	<circle cx="991.007" cy="425.101" r="4" fill="#0" id="circle243"/>
	<circle cx="991.007" cy="460.054" r="4" fill="#0" id="circle244"/>
	<circle cx="996" cy="441.745" r="4" fill="#0" id="circle245"/>
	</g>
</svg>