<?xml version="1.0" encoding="UTF-8" standalone="no"?>
<!-- Created with CurveBenchmark -->
<svg
	xmlns:dc="http://purl.org/dc/elements/1.1/"
	xmlns:cc="http://creativecommons.org/ns#"
	xmlns:rdf="http://www.w3.org/1999/02/22-rdf-syntax-ns#"
	xmlns:svg="http://www.w3.org/2000/svg"
	xmlns="http://www.w3.org/2000/svg"
	xmlns:sodipodi="http://sodipodi.sourceforge.net/DTD/sodipodi-0.dtd"
	xmlns:inkscape="http://www.inkscape.org/namespaces/inkscape"
	width="1000"
	height="1000"
	id="svg2"
	version="1.1"
	sodipodi:docname="manifold/crawl-Misk17.png.txt">
<defs
	id="defs4" />
<metadata
	id="metadata7">
	<rdf:RDF>
		<cc:Work
			rdf:about="">
			<dc:format>image/svg+xml</dc:format>
			<dc:type
				rdf:resource="http://purl.org/dc/dcmitype/StillImage" />
			<dc:title></dc:title>
		</cc:Work>
	</rdf:RDF>
</metadata>
<g
	inkscape:label="Layer 1"
	inkscape:groupmode="layer"
	id="layer1">
	<path style="fill:none;stroke:red;stroke-width:1px;stroke-linecap:butt;stroke-linejoin:miter;stroke-opacity:1" d="M 4,190.516 4,207.022 z" id="boundary" inkscape:connector-curvature="0" />
	<path style="fill:none;stroke:red;stroke-width:1px;stroke-linecap:butt;stroke-linejoin:miter;stroke-opacity:1" d="M 4,207.022 12.2529,221.877 z" id="boundary" inkscape:connector-curvature="0" />
	<path style="fill:none;stroke:red;stroke-width:1px;stroke-linecap:butt;stroke-linejoin:miter;stroke-opacity:1" d="M 12.2529,221.877 23.807,235.082 z" id="boundary" inkscape:connector-curvature="0" />
	<path style="fill:none;stroke:red;stroke-width:1px;stroke-linecap:butt;stroke-linejoin:miter;stroke-opacity:1" d="M 23.807,235.082 40.3128,241.684 z" id="boundary" inkscape:connector-curvature="0" />
	<path style="fill:none;stroke:red;stroke-width:1px;stroke-linecap:butt;stroke-linejoin:miter;stroke-opacity:1" d="M 40.3128,241.684 53.5175,253.238 z" id="boundary" inkscape:connector-curvature="0" />
	<path style="fill:none;stroke:red;stroke-width:1px;stroke-linecap:butt;stroke-linejoin:miter;stroke-opacity:1" d="M 53.5175,253.238 63.421,266.443 z" id="boundary" inkscape:connector-curvature="0" />
	<path style="fill:none;stroke:red;stroke-width:1px;stroke-linecap:butt;stroke-linejoin:miter;stroke-opacity:1" d="M 63.421,266.443 76.6256,277.997 z" id="boundary" inkscape:connector-curvature="0" />
	<path style="fill:none;stroke:red;stroke-width:1px;stroke-linecap:butt;stroke-linejoin:miter;stroke-opacity:1" d="M 76.6256,277.997 86.5291,291.201 z" id="boundary" inkscape:connector-curvature="0" />
	<path style="fill:none;stroke:red;stroke-width:1px;stroke-linecap:butt;stroke-linejoin:miter;stroke-opacity:1" d="M 86.5291,291.201 94.782,306.057 z" id="boundary" inkscape:connector-curvature="0" />
	<path style="fill:none;stroke:red;stroke-width:1px;stroke-linecap:butt;stroke-linejoin:miter;stroke-opacity:1" d="M 94.782,306.057 107.987,317.611 z" id="boundary" inkscape:connector-curvature="0" />
	<path style="fill:none;stroke:red;stroke-width:1px;stroke-linecap:butt;stroke-linejoin:miter;stroke-opacity:1" d="M 107.987,317.611 111.288,334.116 z" id="boundary" inkscape:connector-curvature="0" />
	<path style="fill:none;stroke:red;stroke-width:1px;stroke-linecap:butt;stroke-linejoin:miter;stroke-opacity:1" d="M 111.288,334.116 119.541,348.972 z" id="boundary" inkscape:connector-curvature="0" />
	<path style="fill:none;stroke:red;stroke-width:1px;stroke-linecap:butt;stroke-linejoin:miter;stroke-opacity:1" d="M 119.541,348.972 127.794,363.827 z" id="boundary" inkscape:connector-curvature="0" />
	<path style="fill:none;stroke:red;stroke-width:1px;stroke-linecap:butt;stroke-linejoin:miter;stroke-opacity:1" d="M 127.794,363.827 127.794,380.333 z" id="boundary" inkscape:connector-curvature="0" />
	<path style="fill:none;stroke:red;stroke-width:1px;stroke-linecap:butt;stroke-linejoin:miter;stroke-opacity:1" d="M 127.794,380.333 127.794,396.839 z" id="boundary" inkscape:connector-curvature="0" />
	<path style="fill:none;stroke:red;stroke-width:1px;stroke-linecap:butt;stroke-linejoin:miter;stroke-opacity:1" d="M 127.794,396.839 127.794,413.344 z" id="boundary" inkscape:connector-curvature="0" />
	<path style="fill:none;stroke:red;stroke-width:1px;stroke-linecap:butt;stroke-linejoin:miter;stroke-opacity:1" d="M 127.794,413.344 127.794,429.85 z" id="boundary" inkscape:connector-curvature="0" />
	<path style="fill:none;stroke:red;stroke-width:1px;stroke-linecap:butt;stroke-linejoin:miter;stroke-opacity:1" d="M 127.794,429.85 127.794,446.356 z" id="boundary" inkscape:connector-curvature="0" />
	<path style="fill:none;stroke:red;stroke-width:1px;stroke-linecap:butt;stroke-linejoin:miter;stroke-opacity:1" d="M 127.794,446.356 127.794,462.862 z" id="boundary" inkscape:connector-curvature="0" />
	<path style="fill:none;stroke:red;stroke-width:1px;stroke-linecap:butt;stroke-linejoin:miter;stroke-opacity:1" d="M 4,190.516 17.2047,177.311 z" id="boundary" inkscape:connector-curvature="0" />
	<path style="fill:none;stroke:red;stroke-width:1px;stroke-linecap:butt;stroke-linejoin:miter;stroke-opacity:1" d="M 17.2047,177.311 32.0599,169.058 z" id="boundary" inkscape:connector-curvature="0" />
	<path style="fill:none;stroke:red;stroke-width:1px;stroke-linecap:butt;stroke-linejoin:miter;stroke-opacity:1" d="M 32.0599,169.058 46.9151,160.805 z" id="boundary" inkscape:connector-curvature="0" />
	<path style="fill:none;stroke:red;stroke-width:1px;stroke-linecap:butt;stroke-linejoin:miter;stroke-opacity:1" d="M 46.9151,160.805 61.7704,152.552 z" id="boundary" inkscape:connector-curvature="0" />
	<path style="fill:none;stroke:red;stroke-width:1px;stroke-linecap:butt;stroke-linejoin:miter;stroke-opacity:1" d="M 61.7704,152.552 76.6256,144.3 z" id="boundary" inkscape:connector-curvature="0" />
	<path style="fill:none;stroke:red;stroke-width:1px;stroke-linecap:butt;stroke-linejoin:miter;stroke-opacity:1" d="M 76.6256,144.3 86.5291,124.493 z" id="boundary" inkscape:connector-curvature="0" />
	<path style="fill:none;stroke:red;stroke-width:1px;stroke-linecap:butt;stroke-linejoin:miter;stroke-opacity:1" d="M 86.5291,124.493 99.7338,111.288 z" id="boundary" inkscape:connector-curvature="0" />
	<path style="fill:none;stroke:red;stroke-width:1px;stroke-linecap:butt;stroke-linejoin:miter;stroke-opacity:1" d="M 99.7338,111.288 116.24,103.035 z" id="boundary" inkscape:connector-curvature="0" />
	<path style="fill:none;stroke:red;stroke-width:1px;stroke-linecap:butt;stroke-linejoin:miter;stroke-opacity:1" d="M 116.24,103.035 132.745,94.782 z" id="boundary" inkscape:connector-curvature="0" />
	<path style="fill:none;stroke:red;stroke-width:1px;stroke-linecap:butt;stroke-linejoin:miter;stroke-opacity:1" d="M 132.745,94.782 145.95,81.5774 z" id="boundary" inkscape:connector-curvature="0" />
	<path style="fill:none;stroke:red;stroke-width:1px;stroke-linecap:butt;stroke-linejoin:miter;stroke-opacity:1" d="M 145.95,81.5774 162.456,73.3245 z" id="boundary" inkscape:connector-curvature="0" />
	<path style="fill:none;stroke:red;stroke-width:1px;stroke-linecap:butt;stroke-linejoin:miter;stroke-opacity:1" d="M 162.456,73.3245 175.661,61.7704 z" id="boundary" inkscape:connector-curvature="0" />
	<path style="fill:none;stroke:red;stroke-width:1px;stroke-linecap:butt;stroke-linejoin:miter;stroke-opacity:1" d="M 175.661,61.7704 190.516,53.5175 z" id="boundary" inkscape:connector-curvature="0" />
	<path style="fill:none;stroke:red;stroke-width:1px;stroke-linecap:butt;stroke-linejoin:miter;stroke-opacity:1" d="M 190.516,53.5175 203.72,40.3128 z" id="boundary" inkscape:connector-curvature="0" />
	<path style="fill:none;stroke:red;stroke-width:1px;stroke-linecap:butt;stroke-linejoin:miter;stroke-opacity:1" d="M 203.72,40.3128 220.226,32.0599 z" id="boundary" inkscape:connector-curvature="0" />
	<path style="fill:none;stroke:red;stroke-width:1px;stroke-linecap:butt;stroke-linejoin:miter;stroke-opacity:1" d="M 220.226,32.0599 236.732,23.807 z" id="boundary" inkscape:connector-curvature="0" />
	<path style="fill:none;stroke:red;stroke-width:1px;stroke-linecap:butt;stroke-linejoin:miter;stroke-opacity:1" d="M 236.732,23.807 253.238,15.5541 z" id="boundary" inkscape:connector-curvature="0" />
	<path style="fill:none;stroke:red;stroke-width:1px;stroke-linecap:butt;stroke-linejoin:miter;stroke-opacity:1" d="M 253.238,15.5541 269.744,7.30116 z" id="boundary" inkscape:connector-curvature="0" />
	<path style="fill:none;stroke:red;stroke-width:1px;stroke-linecap:butt;stroke-linejoin:miter;stroke-opacity:1" d="M 269.744,7.30116 286.25,4 z" id="boundary" inkscape:connector-curvature="0" />
	<path style="fill:none;stroke:red;stroke-width:1px;stroke-linecap:butt;stroke-linejoin:miter;stroke-opacity:1" d="M 286.25,4 302.755,4 z" id="boundary" inkscape:connector-curvature="0" />
	<path style="fill:none;stroke:red;stroke-width:1px;stroke-linecap:butt;stroke-linejoin:miter;stroke-opacity:1" d="M 302.755,4 319.261,4 z" id="boundary" inkscape:connector-curvature="0" />
	<path style="fill:none;stroke:red;stroke-width:1px;stroke-linecap:butt;stroke-linejoin:miter;stroke-opacity:1" d="M 319.261,4 335.767,4 z" id="boundary" inkscape:connector-curvature="0" />
	<path style="fill:none;stroke:red;stroke-width:1px;stroke-linecap:butt;stroke-linejoin:miter;stroke-opacity:1" d="M 335.767,4 352.273,4 z" id="boundary" inkscape:connector-curvature="0" />
	<path style="fill:none;stroke:red;stroke-width:1px;stroke-linecap:butt;stroke-linejoin:miter;stroke-opacity:1" d="M 352.273,4 368.779,4 z" id="boundary" inkscape:connector-curvature="0" />
	<path style="fill:none;stroke:red;stroke-width:1px;stroke-linecap:butt;stroke-linejoin:miter;stroke-opacity:1" d="M 368.779,4 385.285,4 z" id="boundary" inkscape:connector-curvature="0" />
	<path style="fill:none;stroke:red;stroke-width:1px;stroke-linecap:butt;stroke-linejoin:miter;stroke-opacity:1" d="M 385.285,4 401.79,4 z" id="boundary" inkscape:connector-curvature="0" />
	<path style="fill:none;stroke:red;stroke-width:1px;stroke-linecap:butt;stroke-linejoin:miter;stroke-opacity:1" d="M 401.79,4 418.296,4 z" id="boundary" inkscape:connector-curvature="0" />
	<path style="fill:none;stroke:red;stroke-width:1px;stroke-linecap:butt;stroke-linejoin:miter;stroke-opacity:1" d="M 418.296,4 434.802,4 z" id="boundary" inkscape:connector-curvature="0" />
	<path style="fill:none;stroke:red;stroke-width:1px;stroke-linecap:butt;stroke-linejoin:miter;stroke-opacity:1" d="M 434.802,4 451.308,8.95175 z" id="boundary" inkscape:connector-curvature="0" />
	<path style="fill:none;stroke:red;stroke-width:1px;stroke-linecap:butt;stroke-linejoin:miter;stroke-opacity:1" d="M 451.308,8.95175 466.163,17.2047 z" id="boundary" inkscape:connector-curvature="0" />
	<path style="fill:none;stroke:red;stroke-width:1px;stroke-linecap:butt;stroke-linejoin:miter;stroke-opacity:1" d="M 466.163,17.2047 482.669,23.807 z" id="boundary" inkscape:connector-curvature="0" />
	<path style="fill:none;stroke:red;stroke-width:1px;stroke-linecap:butt;stroke-linejoin:miter;stroke-opacity:1" d="M 482.669,23.807 492.572,37.0116 z" id="boundary" inkscape:connector-curvature="0" />
	<path style="fill:none;stroke:red;stroke-width:1px;stroke-linecap:butt;stroke-linejoin:miter;stroke-opacity:1" d="M 492.572,37.0116 500.825,51.8669 z" id="boundary" inkscape:connector-curvature="0" />
	<path style="fill:none;stroke:red;stroke-width:1px;stroke-linecap:butt;stroke-linejoin:miter;stroke-opacity:1" d="M 500.825,51.8669 514.03,63.421 z" id="boundary" inkscape:connector-curvature="0" />
	<path style="fill:none;stroke:red;stroke-width:1px;stroke-linecap:butt;stroke-linejoin:miter;stroke-opacity:1" d="M 514.03,63.421 525.584,76.6256 z" id="boundary" inkscape:connector-curvature="0" />
	<path style="fill:none;stroke:red;stroke-width:1px;stroke-linecap:butt;stroke-linejoin:miter;stroke-opacity:1" d="M 525.584,76.6256 538.789,88.1797 z" id="boundary" inkscape:connector-curvature="0" />
	<path style="fill:none;stroke:red;stroke-width:1px;stroke-linecap:butt;stroke-linejoin:miter;stroke-opacity:1" d="M 538.789,88.1797 550.343,101.384 z" id="boundary" inkscape:connector-curvature="0" />
	<path style="fill:none;stroke:red;stroke-width:1px;stroke-linecap:butt;stroke-linejoin:miter;stroke-opacity:1" d="M 550.343,101.384 563.547,111.288 z" id="boundary" inkscape:connector-curvature="0" />
	<path style="fill:none;stroke:red;stroke-width:1px;stroke-linecap:butt;stroke-linejoin:miter;stroke-opacity:1" d="M 563.547,111.288 578.403,119.541 z" id="boundary" inkscape:connector-curvature="0" />
	<path style="fill:none;stroke:red;stroke-width:1px;stroke-linecap:butt;stroke-linejoin:miter;stroke-opacity:1" d="M 127.794,462.862 119.541,487.621 z" id="boundary" inkscape:connector-curvature="0" />
	<path style="fill:none;stroke:red;stroke-width:1px;stroke-linecap:butt;stroke-linejoin:miter;stroke-opacity:1" d="M 119.541,487.621 111.288,512.379 z" id="boundary" inkscape:connector-curvature="0" />
	<path style="fill:none;stroke:red;stroke-width:1px;stroke-linecap:butt;stroke-linejoin:miter;stroke-opacity:1" d="M 111.288,512.379 103.035,528.885 z" id="boundary" inkscape:connector-curvature="0" />
	<path style="fill:none;stroke:red;stroke-width:1px;stroke-linecap:butt;stroke-linejoin:miter;stroke-opacity:1" d="M 103.035,528.885 94.782,553.644 z" id="boundary" inkscape:connector-curvature="0" />
	<path style="fill:none;stroke:red;stroke-width:1px;stroke-linecap:butt;stroke-linejoin:miter;stroke-opacity:1" d="M 94.782,553.644 86.5291,570.15 z" id="boundary" inkscape:connector-curvature="0" />
	<path style="fill:none;stroke:red;stroke-width:1px;stroke-linecap:butt;stroke-linejoin:miter;stroke-opacity:1" d="M 86.5291,570.15 78.2762,594.908 z" id="boundary" inkscape:connector-curvature="0" />
	<path style="fill:none;stroke:red;stroke-width:1px;stroke-linecap:butt;stroke-linejoin:miter;stroke-opacity:1" d="M 78.2762,594.908 66.7221,614.715 z" id="boundary" inkscape:connector-curvature="0" />
	<path style="fill:none;stroke:red;stroke-width:1px;stroke-linecap:butt;stroke-linejoin:miter;stroke-opacity:1" d="M 66.7221,614.715 53.5175,627.92 z" id="boundary" inkscape:connector-curvature="0" />
	<path style="fill:none;stroke:red;stroke-width:1px;stroke-linecap:butt;stroke-linejoin:miter;stroke-opacity:1" d="M 53.5175,627.92 45.2646,644.426 z" id="boundary" inkscape:connector-curvature="0" />
	<path style="fill:none;stroke:red;stroke-width:1px;stroke-linecap:butt;stroke-linejoin:miter;stroke-opacity:1" d="M 45.2646,644.426 37.0116,669.185 z" id="boundary" inkscape:connector-curvature="0" />
	<path style="fill:none;stroke:red;stroke-width:1px;stroke-linecap:butt;stroke-linejoin:miter;stroke-opacity:1" d="M 37.0116,669.185 37.0116,685.691 z" id="boundary" inkscape:connector-curvature="0" />
	<path style="fill:none;stroke:red;stroke-width:1px;stroke-linecap:butt;stroke-linejoin:miter;stroke-opacity:1" d="M 37.0116,685.691 37.0116,702.196 z" id="boundary" inkscape:connector-curvature="0" />
	<path style="fill:none;stroke:red;stroke-width:1px;stroke-linecap:butt;stroke-linejoin:miter;stroke-opacity:1" d="M 37.0116,702.196 37.0116,718.702 z" id="boundary" inkscape:connector-curvature="0" />
	<path style="fill:none;stroke:red;stroke-width:1px;stroke-linecap:butt;stroke-linejoin:miter;stroke-opacity:1" d="M 37.0116,718.702 37.0116,735.208 z" id="boundary" inkscape:connector-curvature="0" />
	<path style="fill:none;stroke:red;stroke-width:1px;stroke-linecap:butt;stroke-linejoin:miter;stroke-opacity:1" d="M 37.0116,735.208 45.2646,750.063 z" id="boundary" inkscape:connector-curvature="0" />
	<path style="fill:none;stroke:red;stroke-width:1px;stroke-linecap:butt;stroke-linejoin:miter;stroke-opacity:1" d="M 45.2646,750.063 56.8186,763.268 z" id="boundary" inkscape:connector-curvature="0" />
	<path style="fill:none;stroke:red;stroke-width:1px;stroke-linecap:butt;stroke-linejoin:miter;stroke-opacity:1" d="M 56.8186,763.268 70.0233,773.171 z" id="boundary" inkscape:connector-curvature="0" />
	<path style="fill:none;stroke:red;stroke-width:1px;stroke-linecap:butt;stroke-linejoin:miter;stroke-opacity:1" d="M 70.0233,773.171 74.975,789.677 z" id="boundary" inkscape:connector-curvature="0" />
	<path style="fill:none;stroke:red;stroke-width:1px;stroke-linecap:butt;stroke-linejoin:miter;stroke-opacity:1" d="M 74.975,789.677 89.8303,781.424 z" id="boundary" inkscape:connector-curvature="0" />
	<path style="fill:none;stroke:red;stroke-width:1px;stroke-linecap:butt;stroke-linejoin:miter;stroke-opacity:1" d="M 89.8303,781.424 106.336,781.424 z" id="boundary" inkscape:connector-curvature="0" />
	<path style="fill:none;stroke:red;stroke-width:1px;stroke-linecap:butt;stroke-linejoin:miter;stroke-opacity:1" d="M 106.336,781.424 122.842,781.424 z" id="boundary" inkscape:connector-curvature="0" />
	<path style="fill:none;stroke:red;stroke-width:1px;stroke-linecap:butt;stroke-linejoin:miter;stroke-opacity:1" d="M 122.842,781.424 136.047,791.328 z" id="boundary" inkscape:connector-curvature="0" />
	<path style="fill:none;stroke:red;stroke-width:1px;stroke-linecap:butt;stroke-linejoin:miter;stroke-opacity:1" d="M 136.047,791.328 144.3,806.183 z" id="boundary" inkscape:connector-curvature="0" />
	<path style="fill:none;stroke:red;stroke-width:1px;stroke-linecap:butt;stroke-linejoin:miter;stroke-opacity:1" d="M 144.3,806.183 154.203,819.388 z" id="boundary" inkscape:connector-curvature="0" />
	<path style="fill:none;stroke:red;stroke-width:1px;stroke-linecap:butt;stroke-linejoin:miter;stroke-opacity:1" d="M 154.203,819.388 167.408,830.942 z" id="boundary" inkscape:connector-curvature="0" />
	<path style="fill:none;stroke:red;stroke-width:1px;stroke-linecap:butt;stroke-linejoin:miter;stroke-opacity:1" d="M 167.408,830.942 169.058,847.448 z" id="boundary" inkscape:connector-curvature="0" />
	<path style="fill:none;stroke:red;stroke-width:1px;stroke-linecap:butt;stroke-linejoin:miter;stroke-opacity:1" d="M 169.058,847.448 177.311,862.303 z" id="boundary" inkscape:connector-curvature="0" />
	<path style="fill:none;stroke:red;stroke-width:1px;stroke-linecap:butt;stroke-linejoin:miter;stroke-opacity:1" d="M 177.311,862.303 187.215,875.507 z" id="boundary" inkscape:connector-curvature="0" />
	<path style="fill:none;stroke:red;stroke-width:1px;stroke-linecap:butt;stroke-linejoin:miter;stroke-opacity:1" d="M 187.215,875.507 198.769,888.712 z" id="boundary" inkscape:connector-curvature="0" />
	<path style="fill:none;stroke:red;stroke-width:1px;stroke-linecap:butt;stroke-linejoin:miter;stroke-opacity:1" d="M 198.769,888.712 211.973,900.266 z" id="boundary" inkscape:connector-curvature="0" />
	<path style="fill:none;stroke:red;stroke-width:1px;stroke-linecap:butt;stroke-linejoin:miter;stroke-opacity:1" d="M 211.973,900.266 223.527,913.471 z" id="boundary" inkscape:connector-curvature="0" />
	<path style="fill:none;stroke:red;stroke-width:1px;stroke-linecap:butt;stroke-linejoin:miter;stroke-opacity:1" d="M 223.527,913.471 240.033,920.073 z" id="boundary" inkscape:connector-curvature="0" />
	<path style="fill:none;stroke:red;stroke-width:1px;stroke-linecap:butt;stroke-linejoin:miter;stroke-opacity:1" d="M 240.033,920.073 256.539,921.724 z" id="boundary" inkscape:connector-curvature="0" />
	<path style="fill:none;stroke:red;stroke-width:1px;stroke-linecap:butt;stroke-linejoin:miter;stroke-opacity:1" d="M 256.539,921.724 273.045,921.724 z" id="boundary" inkscape:connector-curvature="0" />
	<path style="fill:none;stroke:red;stroke-width:1px;stroke-linecap:butt;stroke-linejoin:miter;stroke-opacity:1" d="M 273.045,921.724 287.9,929.977 z" id="boundary" inkscape:connector-curvature="0" />
	<path style="fill:none;stroke:red;stroke-width:1px;stroke-linecap:butt;stroke-linejoin:miter;stroke-opacity:1" d="M 287.9,929.977 304.406,934.928 z" id="boundary" inkscape:connector-curvature="0" />
	<path style="fill:none;stroke:red;stroke-width:1px;stroke-linecap:butt;stroke-linejoin:miter;stroke-opacity:1" d="M 304.406,934.928 319.261,943.181 z" id="boundary" inkscape:connector-curvature="0" />
	<path style="fill:none;stroke:red;stroke-width:1px;stroke-linecap:butt;stroke-linejoin:miter;stroke-opacity:1" d="M 319.261,943.181 335.767,949.784 z" id="boundary" inkscape:connector-curvature="0" />
	<path style="fill:none;stroke:red;stroke-width:1px;stroke-linecap:butt;stroke-linejoin:miter;stroke-opacity:1" d="M 335.767,949.784 352.273,954.735 z" id="boundary" inkscape:connector-curvature="0" />
	<path style="fill:none;stroke:red;stroke-width:1px;stroke-linecap:butt;stroke-linejoin:miter;stroke-opacity:1" d="M 352.273,954.735 367.128,962.988 z" id="boundary" inkscape:connector-curvature="0" />
	<path style="fill:none;stroke:red;stroke-width:1px;stroke-linecap:butt;stroke-linejoin:miter;stroke-opacity:1" d="M 367.128,962.988 381.983,971.241 z" id="boundary" inkscape:connector-curvature="0" />
	<path style="fill:none;stroke:red;stroke-width:1px;stroke-linecap:butt;stroke-linejoin:miter;stroke-opacity:1" d="M 381.983,971.241 398.489,971.241 z" id="boundary" inkscape:connector-curvature="0" />
	<path style="fill:none;stroke:red;stroke-width:1px;stroke-linecap:butt;stroke-linejoin:miter;stroke-opacity:1" d="M 398.489,971.241 413.344,979.494 z" id="boundary" inkscape:connector-curvature="0" />
	<path style="fill:none;stroke:red;stroke-width:1px;stroke-linecap:butt;stroke-linejoin:miter;stroke-opacity:1" d="M 413.344,979.494 428.2,987.747 z" id="boundary" inkscape:connector-curvature="0" />
	<path style="fill:none;stroke:red;stroke-width:1px;stroke-linecap:butt;stroke-linejoin:miter;stroke-opacity:1" d="M 428.2,987.747 444.705,992.699 z" id="boundary" inkscape:connector-curvature="0" />
	<path style="fill:none;stroke:red;stroke-width:1px;stroke-linecap:butt;stroke-linejoin:miter;stroke-opacity:1" d="M 444.705,992.699 461.211,996 z" id="boundary" inkscape:connector-curvature="0" />
	<path style="fill:none;stroke:red;stroke-width:1px;stroke-linecap:butt;stroke-linejoin:miter;stroke-opacity:1" d="M 461.211,996 477.717,996 z" id="boundary" inkscape:connector-curvature="0" />
	<path style="fill:none;stroke:red;stroke-width:1px;stroke-linecap:butt;stroke-linejoin:miter;stroke-opacity:1" d="M 477.717,996 494.223,996 z" id="boundary" inkscape:connector-curvature="0" />
	<path style="fill:none;stroke:red;stroke-width:1px;stroke-linecap:butt;stroke-linejoin:miter;stroke-opacity:1" d="M 494.223,996 510.729,996 z" id="boundary" inkscape:connector-curvature="0" />
	<path style="fill:none;stroke:red;stroke-width:1px;stroke-linecap:butt;stroke-linejoin:miter;stroke-opacity:1" d="M 510.729,996 527.235,996 z" id="boundary" inkscape:connector-curvature="0" />
	<path style="fill:none;stroke:red;stroke-width:1px;stroke-linecap:butt;stroke-linejoin:miter;stroke-opacity:1" d="M 527.235,996 543.74,996 z" id="boundary" inkscape:connector-curvature="0" />
	<path style="fill:none;stroke:red;stroke-width:1px;stroke-linecap:butt;stroke-linejoin:miter;stroke-opacity:1" d="M 543.74,996 560.246,996 z" id="boundary" inkscape:connector-curvature="0" />
	<path style="fill:none;stroke:red;stroke-width:1px;stroke-linecap:butt;stroke-linejoin:miter;stroke-opacity:1" d="M 560.246,996 575.101,987.747 z" id="boundary" inkscape:connector-curvature="0" />
	<path style="fill:none;stroke:red;stroke-width:1px;stroke-linecap:butt;stroke-linejoin:miter;stroke-opacity:1" d="M 575.101,987.747 591.607,987.747 z" id="boundary" inkscape:connector-curvature="0" />
	<path style="fill:none;stroke:red;stroke-width:1px;stroke-linecap:butt;stroke-linejoin:miter;stroke-opacity:1" d="M 591.607,987.747 606.463,979.494 z" id="boundary" inkscape:connector-curvature="0" />
	<path style="fill:none;stroke:red;stroke-width:1px;stroke-linecap:butt;stroke-linejoin:miter;stroke-opacity:1" d="M 606.463,979.494 622.968,974.542 z" id="boundary" inkscape:connector-curvature="0" />
	<path style="fill:none;stroke:red;stroke-width:1px;stroke-linecap:butt;stroke-linejoin:miter;stroke-opacity:1" d="M 622.968,974.542 639.474,966.29 z" id="boundary" inkscape:connector-curvature="0" />
	<path style="fill:none;stroke:red;stroke-width:1px;stroke-linecap:butt;stroke-linejoin:miter;stroke-opacity:1" d="M 639.474,966.29 655.98,958.037 z" id="boundary" inkscape:connector-curvature="0" />
	<path style="fill:none;stroke:red;stroke-width:1px;stroke-linecap:butt;stroke-linejoin:miter;stroke-opacity:1" d="M 655.98,958.037 672.486,954.735 z" id="boundary" inkscape:connector-curvature="0" />
	<path style="fill:none;stroke:red;stroke-width:1px;stroke-linecap:butt;stroke-linejoin:miter;stroke-opacity:1" d="M 672.486,954.735 687.341,946.483 z" id="boundary" inkscape:connector-curvature="0" />
	<path style="fill:none;stroke:red;stroke-width:1px;stroke-linecap:butt;stroke-linejoin:miter;stroke-opacity:1" d="M 687.341,946.483 702.196,936.579 z" id="boundary" inkscape:connector-curvature="0" />
	<path style="fill:none;stroke:red;stroke-width:1px;stroke-linecap:butt;stroke-linejoin:miter;stroke-opacity:1" d="M 702.196,936.579 718.702,928.326 z" id="boundary" inkscape:connector-curvature="0" />
	<path style="fill:none;stroke:red;stroke-width:1px;stroke-linecap:butt;stroke-linejoin:miter;stroke-opacity:1" d="M 718.702,928.326 735.208,920.073 z" id="boundary" inkscape:connector-curvature="0" />
	<path style="fill:none;stroke:red;stroke-width:1px;stroke-linecap:butt;stroke-linejoin:miter;stroke-opacity:1" d="M 735.208,920.073 751.714,911.82 z" id="boundary" inkscape:connector-curvature="0" />
	<path style="fill:none;stroke:red;stroke-width:1px;stroke-linecap:butt;stroke-linejoin:miter;stroke-opacity:1" d="M 751.714,911.82 759.967,895.314 z" id="boundary" inkscape:connector-curvature="0" />
	<path style="fill:none;stroke:red;stroke-width:1px;stroke-linecap:butt;stroke-linejoin:miter;stroke-opacity:1" d="M 759.967,895.314 759.967,872.206 z" id="boundary" inkscape:connector-curvature="0" />
	<path style="fill:none;stroke:red;stroke-width:1px;stroke-linecap:butt;stroke-linejoin:miter;stroke-opacity:1" d="M 759.967,872.206 746.762,862.303 z" id="boundary" inkscape:connector-curvature="0" />
	<path style="fill:none;stroke:red;stroke-width:1px;stroke-linecap:butt;stroke-linejoin:miter;stroke-opacity:1" d="M 746.762,862.303 731.907,854.05 z" id="boundary" inkscape:connector-curvature="0" />
	<path style="fill:none;stroke:red;stroke-width:1px;stroke-linecap:butt;stroke-linejoin:miter;stroke-opacity:1" d="M 731.907,854.05 715.401,854.05 z" id="boundary" inkscape:connector-curvature="0" />
	<path style="fill:none;stroke:red;stroke-width:1px;stroke-linecap:butt;stroke-linejoin:miter;stroke-opacity:1" d="M 715.401,854.05 700.546,845.797 z" id="boundary" inkscape:connector-curvature="0" />
	<path style="fill:none;stroke:red;stroke-width:1px;stroke-linecap:butt;stroke-linejoin:miter;stroke-opacity:1" d="M 700.546,845.797 685.691,837.544 z" id="boundary" inkscape:connector-curvature="0" />
	<path style="fill:none;stroke:red;stroke-width:1px;stroke-linecap:butt;stroke-linejoin:miter;stroke-opacity:1" d="M 685.691,837.544 670.835,829.291 z" id="boundary" inkscape:connector-curvature="0" />
	<path style="fill:none;stroke:red;stroke-width:1px;stroke-linecap:butt;stroke-linejoin:miter;stroke-opacity:1" d="M 670.835,829.291 654.329,824.339 z" id="boundary" inkscape:connector-curvature="0" />
	<path style="fill:none;stroke:red;stroke-width:1px;stroke-linecap:butt;stroke-linejoin:miter;stroke-opacity:1" d="M 654.329,824.339 639.474,816.087 z" id="boundary" inkscape:connector-curvature="0" />
	<path style="fill:none;stroke:red;stroke-width:1px;stroke-linecap:butt;stroke-linejoin:miter;stroke-opacity:1" d="M 639.474,816.087 622.968,812.785 z" id="boundary" inkscape:connector-curvature="0" />
	<path style="fill:none;stroke:red;stroke-width:1px;stroke-linecap:butt;stroke-linejoin:miter;stroke-opacity:1" d="M 622.968,812.785 608.113,804.532 z" id="boundary" inkscape:connector-curvature="0" />
	<path style="fill:none;stroke:red;stroke-width:1px;stroke-linecap:butt;stroke-linejoin:miter;stroke-opacity:1" d="M 608.113,804.532 591.607,804.532 z" id="boundary" inkscape:connector-curvature="0" />
	<path style="fill:none;stroke:red;stroke-width:1px;stroke-linecap:butt;stroke-linejoin:miter;stroke-opacity:1" d="M 591.607,804.532 575.101,804.532 z" id="boundary" inkscape:connector-curvature="0" />
	<path style="fill:none;stroke:red;stroke-width:1px;stroke-linecap:butt;stroke-linejoin:miter;stroke-opacity:1" d="M 575.101,804.532 560.246,796.28 z" id="boundary" inkscape:connector-curvature="0" />
	<path style="fill:none;stroke:red;stroke-width:1px;stroke-linecap:butt;stroke-linejoin:miter;stroke-opacity:1" d="M 560.246,796.28 545.391,788.027 z" id="boundary" inkscape:connector-curvature="0" />
	<path style="fill:none;stroke:red;stroke-width:1px;stroke-linecap:butt;stroke-linejoin:miter;stroke-opacity:1" d="M 545.391,788.027 528.885,788.027 z" id="boundary" inkscape:connector-curvature="0" />
	<path style="fill:none;stroke:red;stroke-width:1px;stroke-linecap:butt;stroke-linejoin:miter;stroke-opacity:1" d="M 528.885,788.027 512.379,781.424 z" id="boundary" inkscape:connector-curvature="0" />
	<path style="fill:none;stroke:red;stroke-width:1px;stroke-linecap:butt;stroke-linejoin:miter;stroke-opacity:1" d="M 512.379,781.424 509.078,764.918 z" id="boundary" inkscape:connector-curvature="0" />
	<path style="fill:none;stroke:red;stroke-width:1px;stroke-linecap:butt;stroke-linejoin:miter;stroke-opacity:1" d="M 509.078,764.918 509.078,748.413 z" id="boundary" inkscape:connector-curvature="0" />
	<path style="fill:none;stroke:red;stroke-width:1px;stroke-linecap:butt;stroke-linejoin:miter;stroke-opacity:1" d="M 509.078,748.413 517.331,731.907 z" id="boundary" inkscape:connector-curvature="0" />
	<path style="fill:none;stroke:red;stroke-width:1px;stroke-linecap:butt;stroke-linejoin:miter;stroke-opacity:1" d="M 517.331,731.907 530.536,720.353 z" id="boundary" inkscape:connector-curvature="0" />
	<path style="fill:none;stroke:red;stroke-width:1px;stroke-linecap:butt;stroke-linejoin:miter;stroke-opacity:1" d="M 530.536,720.353 542.09,707.148 z" id="boundary" inkscape:connector-curvature="0" />
	<path style="fill:none;stroke:red;stroke-width:1px;stroke-linecap:butt;stroke-linejoin:miter;stroke-opacity:1" d="M 542.09,707.148 556.945,698.895 z" id="boundary" inkscape:connector-curvature="0" />
	<path style="fill:none;stroke:red;stroke-width:1px;stroke-linecap:butt;stroke-linejoin:miter;stroke-opacity:1" d="M 556.945,698.895 571.8,690.642 z" id="boundary" inkscape:connector-curvature="0" />
	<path style="fill:none;stroke:red;stroke-width:1px;stroke-linecap:butt;stroke-linejoin:miter;stroke-opacity:1" d="M 571.8,690.642 588.306,690.642 z" id="boundary" inkscape:connector-curvature="0" />
	<path style="fill:none;stroke:red;stroke-width:1px;stroke-linecap:butt;stroke-linejoin:miter;stroke-opacity:1" d="M 588.306,690.642 604.812,690.642 z" id="boundary" inkscape:connector-curvature="0" />
	<path style="fill:none;stroke:red;stroke-width:1px;stroke-linecap:butt;stroke-linejoin:miter;stroke-opacity:1" d="M 604.812,690.642 621.318,690.642 z" id="boundary" inkscape:connector-curvature="0" />
	<path style="fill:none;stroke:red;stroke-width:1px;stroke-linecap:butt;stroke-linejoin:miter;stroke-opacity:1" d="M 621.318,690.642 637.824,690.642 z" id="boundary" inkscape:connector-curvature="0" />
	<path style="fill:none;stroke:red;stroke-width:1px;stroke-linecap:butt;stroke-linejoin:miter;stroke-opacity:1" d="M 637.824,690.642 652.679,698.895 z" id="boundary" inkscape:connector-curvature="0" />
	<path style="fill:none;stroke:red;stroke-width:1px;stroke-linecap:butt;stroke-linejoin:miter;stroke-opacity:1" d="M 652.679,698.895 669.185,705.498 z" id="boundary" inkscape:connector-curvature="0" />
	<path style="fill:none;stroke:red;stroke-width:1px;stroke-linecap:butt;stroke-linejoin:miter;stroke-opacity:1" d="M 669.185,705.498 685.691,707.148 z" id="boundary" inkscape:connector-curvature="0" />
	<path style="fill:none;stroke:red;stroke-width:1px;stroke-linecap:butt;stroke-linejoin:miter;stroke-opacity:1" d="M 685.691,707.148 700.546,715.401 z" id="boundary" inkscape:connector-curvature="0" />
	<path style="fill:none;stroke:red;stroke-width:1px;stroke-linecap:butt;stroke-linejoin:miter;stroke-opacity:1" d="M 700.546,715.401 715.401,723.654 z" id="boundary" inkscape:connector-curvature="0" />
	<path style="fill:none;stroke:red;stroke-width:1px;stroke-linecap:butt;stroke-linejoin:miter;stroke-opacity:1" d="M 715.401,723.654 731.907,723.654 z" id="boundary" inkscape:connector-curvature="0" />
	<path style="fill:none;stroke:red;stroke-width:1px;stroke-linecap:butt;stroke-linejoin:miter;stroke-opacity:1" d="M 731.907,723.654 748.413,726.955 z" id="boundary" inkscape:connector-curvature="0" />
	<path style="fill:none;stroke:red;stroke-width:1px;stroke-linecap:butt;stroke-linejoin:miter;stroke-opacity:1" d="M 748.413,726.955 764.918,731.907 z" id="boundary" inkscape:connector-curvature="0" />
	<path style="fill:none;stroke:red;stroke-width:1px;stroke-linecap:butt;stroke-linejoin:miter;stroke-opacity:1" d="M 764.918,731.907 781.424,731.907 z" id="boundary" inkscape:connector-curvature="0" />
	<path style="fill:none;stroke:red;stroke-width:1px;stroke-linecap:butt;stroke-linejoin:miter;stroke-opacity:1" d="M 781.424,731.907 797.93,723.654 z" id="boundary" inkscape:connector-curvature="0" />
	<path style="fill:none;stroke:red;stroke-width:1px;stroke-linecap:butt;stroke-linejoin:miter;stroke-opacity:1" d="M 797.93,723.654 806.183,707.148 z" id="boundary" inkscape:connector-curvature="0" />
	<path style="fill:none;stroke:red;stroke-width:1px;stroke-linecap:butt;stroke-linejoin:miter;stroke-opacity:1" d="M 806.183,707.148 814.436,690.642 z" id="boundary" inkscape:connector-curvature="0" />
	<path style="fill:none;stroke:red;stroke-width:1px;stroke-linecap:butt;stroke-linejoin:miter;stroke-opacity:1" d="M 814.436,690.642 814.436,674.136 z" id="boundary" inkscape:connector-curvature="0" />
	<path style="fill:none;stroke:red;stroke-width:1px;stroke-linecap:butt;stroke-linejoin:miter;stroke-opacity:1" d="M 578.403,119.541 575.101,145.95 z" id="boundary" inkscape:connector-curvature="0" />
	<path style="fill:none;stroke:red;stroke-width:1px;stroke-linecap:butt;stroke-linejoin:miter;stroke-opacity:1" d="M 575.101,145.95 558.596,154.203 z" id="boundary" inkscape:connector-curvature="0" />
	<path style="fill:none;stroke:red;stroke-width:1px;stroke-linecap:butt;stroke-linejoin:miter;stroke-opacity:1" d="M 558.596,154.203 547.042,167.408 z" id="boundary" inkscape:connector-curvature="0" />
	<path style="fill:none;stroke:red;stroke-width:1px;stroke-linecap:butt;stroke-linejoin:miter;stroke-opacity:1" d="M 547.042,167.408 530.536,175.661 z" id="boundary" inkscape:connector-curvature="0" />
	<path style="fill:none;stroke:red;stroke-width:1px;stroke-linecap:butt;stroke-linejoin:miter;stroke-opacity:1" d="M 530.536,175.661 517.331,187.215 z" id="boundary" inkscape:connector-curvature="0" />
	<path style="fill:none;stroke:red;stroke-width:1px;stroke-linecap:butt;stroke-linejoin:miter;stroke-opacity:1" d="M 517.331,187.215 505.777,200.419 z" id="boundary" inkscape:connector-curvature="0" />
	<path style="fill:none;stroke:red;stroke-width:1px;stroke-linecap:butt;stroke-linejoin:miter;stroke-opacity:1" d="M 505.777,200.419 497.524,216.925 z" id="boundary" inkscape:connector-curvature="0" />
	<path style="fill:none;stroke:red;stroke-width:1px;stroke-linecap:butt;stroke-linejoin:miter;stroke-opacity:1" d="M 497.524,216.925 484.319,228.479 z" id="boundary" inkscape:connector-curvature="0" />
	<path style="fill:none;stroke:red;stroke-width:1px;stroke-linecap:butt;stroke-linejoin:miter;stroke-opacity:1" d="M 484.319,228.479 472.765,241.684 z" id="boundary" inkscape:connector-curvature="0" />
	<path style="fill:none;stroke:red;stroke-width:1px;stroke-linecap:butt;stroke-linejoin:miter;stroke-opacity:1" d="M 472.765,241.684 464.512,258.19 z" id="boundary" inkscape:connector-curvature="0" />
	<path style="fill:none;stroke:red;stroke-width:1px;stroke-linecap:butt;stroke-linejoin:miter;stroke-opacity:1" d="M 464.512,258.19 456.26,274.696 z" id="boundary" inkscape:connector-curvature="0" />
	<path style="fill:none;stroke:red;stroke-width:1px;stroke-linecap:butt;stroke-linejoin:miter;stroke-opacity:1" d="M 456.26,274.696 448.007,291.201 z" id="boundary" inkscape:connector-curvature="0" />
	<path style="fill:none;stroke:red;stroke-width:1px;stroke-linecap:butt;stroke-linejoin:miter;stroke-opacity:1" d="M 448.007,291.201 434.802,302.755 z" id="boundary" inkscape:connector-curvature="0" />
	<path style="fill:none;stroke:red;stroke-width:1px;stroke-linecap:butt;stroke-linejoin:miter;stroke-opacity:1" d="M 434.802,302.755 434.802,319.261 z" id="boundary" inkscape:connector-curvature="0" />
	<path style="fill:none;stroke:red;stroke-width:1px;stroke-linecap:butt;stroke-linejoin:miter;stroke-opacity:1" d="M 434.802,319.261 448.007,329.165 z" id="boundary" inkscape:connector-curvature="0" />
	<path style="fill:none;stroke:red;stroke-width:1px;stroke-linecap:butt;stroke-linejoin:miter;stroke-opacity:1" d="M 448.007,329.165 464.512,335.767 z" id="boundary" inkscape:connector-curvature="0" />
	<path style="fill:none;stroke:red;stroke-width:1px;stroke-linecap:butt;stroke-linejoin:miter;stroke-opacity:1" d="M 464.512,335.767 481.018,342.369 z" id="boundary" inkscape:connector-curvature="0" />
	<path style="fill:none;stroke:red;stroke-width:1px;stroke-linecap:butt;stroke-linejoin:miter;stroke-opacity:1" d="M 481.018,342.369 495.874,350.622 z" id="boundary" inkscape:connector-curvature="0" />
	<path style="fill:none;stroke:red;stroke-width:1px;stroke-linecap:butt;stroke-linejoin:miter;stroke-opacity:1" d="M 495.874,350.622 510.729,358.875 z" id="boundary" inkscape:connector-curvature="0" />
	<path style="fill:none;stroke:red;stroke-width:1px;stroke-linecap:butt;stroke-linejoin:miter;stroke-opacity:1" d="M 510.729,358.875 527.235,358.875 z" id="boundary" inkscape:connector-curvature="0" />
	<path style="fill:none;stroke:red;stroke-width:1px;stroke-linecap:butt;stroke-linejoin:miter;stroke-opacity:1" d="M 527.235,358.875 543.74,358.875 z" id="boundary" inkscape:connector-curvature="0" />
	<path style="fill:none;stroke:red;stroke-width:1px;stroke-linecap:butt;stroke-linejoin:miter;stroke-opacity:1" d="M 543.74,358.875 558.596,367.128 z" id="boundary" inkscape:connector-curvature="0" />
	<path style="fill:none;stroke:red;stroke-width:1px;stroke-linecap:butt;stroke-linejoin:miter;stroke-opacity:1" d="M 558.596,367.128 575.101,372.08 z" id="boundary" inkscape:connector-curvature="0" />
	<path style="fill:none;stroke:red;stroke-width:1px;stroke-linecap:butt;stroke-linejoin:miter;stroke-opacity:1" d="M 575.101,372.08 591.607,375.381 z" id="boundary" inkscape:connector-curvature="0" />
	<path style="fill:none;stroke:red;stroke-width:1px;stroke-linecap:butt;stroke-linejoin:miter;stroke-opacity:1" d="M 591.607,375.381 608.113,375.381 z" id="boundary" inkscape:connector-curvature="0" />
	<path style="fill:none;stroke:red;stroke-width:1px;stroke-linecap:butt;stroke-linejoin:miter;stroke-opacity:1" d="M 608.113,375.381 622.968,383.634 z" id="boundary" inkscape:connector-curvature="0" />
	<path style="fill:none;stroke:red;stroke-width:1px;stroke-linecap:butt;stroke-linejoin:miter;stroke-opacity:1" d="M 622.968,383.634 639.474,383.634 z" id="boundary" inkscape:connector-curvature="0" />
	<path style="fill:none;stroke:red;stroke-width:1px;stroke-linecap:butt;stroke-linejoin:miter;stroke-opacity:1" d="M 639.474,383.634 655.98,383.634 z" id="boundary" inkscape:connector-curvature="0" />
	<path style="fill:none;stroke:red;stroke-width:1px;stroke-linecap:butt;stroke-linejoin:miter;stroke-opacity:1" d="M 655.98,383.634 670.835,391.887 z" id="boundary" inkscape:connector-curvature="0" />
	<path style="fill:none;stroke:red;stroke-width:1px;stroke-linecap:butt;stroke-linejoin:miter;stroke-opacity:1" d="M 670.835,391.887 685.691,400.14 z" id="boundary" inkscape:connector-curvature="0" />
	<path style="fill:none;stroke:red;stroke-width:1px;stroke-linecap:butt;stroke-linejoin:miter;stroke-opacity:1" d="M 685.691,400.14 702.196,400.14 z" id="boundary" inkscape:connector-curvature="0" />
	<path style="fill:none;stroke:red;stroke-width:1px;stroke-linecap:butt;stroke-linejoin:miter;stroke-opacity:1" d="M 702.196,400.14 717.052,408.393 z" id="boundary" inkscape:connector-curvature="0" />
	<path style="fill:none;stroke:red;stroke-width:1px;stroke-linecap:butt;stroke-linejoin:miter;stroke-opacity:1" d="M 717.052,408.393 728.606,423.248 z" id="boundary" inkscape:connector-curvature="0" />
	<path style="fill:none;stroke:red;stroke-width:1px;stroke-linecap:butt;stroke-linejoin:miter;stroke-opacity:1" d="M 728.606,423.248 715.401,434.802 z" id="boundary" inkscape:connector-curvature="0" />
	<path style="fill:none;stroke:red;stroke-width:1px;stroke-linecap:butt;stroke-linejoin:miter;stroke-opacity:1" d="M 715.401,434.802 707.148,451.308 z" id="boundary" inkscape:connector-curvature="0" />
	<path style="fill:none;stroke:red;stroke-width:1px;stroke-linecap:butt;stroke-linejoin:miter;stroke-opacity:1" d="M 707.148,451.308 715.401,466.163 z" id="boundary" inkscape:connector-curvature="0" />
	<path style="fill:none;stroke:red;stroke-width:1px;stroke-linecap:butt;stroke-linejoin:miter;stroke-opacity:1" d="M 715.401,466.163 723.654,481.018 z" id="boundary" inkscape:connector-curvature="0" />
	<path style="fill:none;stroke:red;stroke-width:1px;stroke-linecap:butt;stroke-linejoin:miter;stroke-opacity:1" d="M 723.654,481.018 723.654,497.524 z" id="boundary" inkscape:connector-curvature="0" />
	<path style="fill:none;stroke:red;stroke-width:1px;stroke-linecap:butt;stroke-linejoin:miter;stroke-opacity:1" d="M 723.654,497.524 731.907,512.379 z" id="boundary" inkscape:connector-curvature="0" />
	<path style="fill:none;stroke:red;stroke-width:1px;stroke-linecap:butt;stroke-linejoin:miter;stroke-opacity:1" d="M 731.907,512.379 743.461,525.584 z" id="boundary" inkscape:connector-curvature="0" />
	<path style="fill:none;stroke:red;stroke-width:1px;stroke-linecap:butt;stroke-linejoin:miter;stroke-opacity:1" d="M 743.461,525.584 756.666,537.138 z" id="boundary" inkscape:connector-curvature="0" />
	<path style="fill:none;stroke:red;stroke-width:1px;stroke-linecap:butt;stroke-linejoin:miter;stroke-opacity:1" d="M 756.666,537.138 768.22,550.343 z" id="boundary" inkscape:connector-curvature="0" />
	<path style="fill:none;stroke:red;stroke-width:1px;stroke-linecap:butt;stroke-linejoin:miter;stroke-opacity:1" d="M 768.22,550.343 784.725,556.945 z" id="boundary" inkscape:connector-curvature="0" />
	<path style="fill:none;stroke:red;stroke-width:1px;stroke-linecap:butt;stroke-linejoin:miter;stroke-opacity:1" d="M 784.725,556.945 789.677,573.451 z" id="boundary" inkscape:connector-curvature="0" />
	<path style="fill:none;stroke:red;stroke-width:1px;stroke-linecap:butt;stroke-linejoin:miter;stroke-opacity:1" d="M 789.677,573.451 797.93,588.306 z" id="boundary" inkscape:connector-curvature="0" />
	<path style="fill:none;stroke:red;stroke-width:1px;stroke-linecap:butt;stroke-linejoin:miter;stroke-opacity:1" d="M 797.93,588.306 811.135,599.86 z" id="boundary" inkscape:connector-curvature="0" />
	<path style="fill:none;stroke:red;stroke-width:1px;stroke-linecap:butt;stroke-linejoin:miter;stroke-opacity:1" d="M 811.135,599.86 814.436,616.366 z" id="boundary" inkscape:connector-curvature="0" />
	<path style="fill:none;stroke:red;stroke-width:1px;stroke-linecap:butt;stroke-linejoin:miter;stroke-opacity:1" d="M 814.436,616.366 814.436,632.872 z" id="boundary" inkscape:connector-curvature="0" />
	<path style="fill:none;stroke:red;stroke-width:1px;stroke-linecap:butt;stroke-linejoin:miter;stroke-opacity:1" d="M 814.436,632.872 822.689,647.727 z" id="boundary" inkscape:connector-curvature="0" />
	<path style="fill:none;stroke:red;stroke-width:1px;stroke-linecap:butt;stroke-linejoin:miter;stroke-opacity:1" d="M 822.689,647.727 814.436,674.136 z" id="boundary" inkscape:connector-curvature="0" />
	<circle cx="4" cy="190.516" r="4" fill="#0" id="circle0"/>
	<circle cx="4" cy="207.022" r="4" fill="#0" id="circle1"/>
	<circle cx="12.2529" cy="221.877" r="4" fill="#0" id="circle2"/>
	<circle cx="17.2047" cy="177.311" r="4" fill="#0" id="circle3"/>
	<circle cx="23.807" cy="235.082" r="4" fill="#0" id="circle4"/>
	<circle cx="32.0599" cy="169.058" r="4" fill="#0" id="circle5"/>
	<circle cx="37.0116" cy="669.185" r="4" fill="#0" id="circle6"/>
	<circle cx="37.0116" cy="685.691" r="4" fill="#0" id="circle7"/>
	<circle cx="37.0116" cy="702.196" r="4" fill="#0" id="circle8"/>
	<circle cx="37.0116" cy="718.702" r="4" fill="#0" id="circle9"/>
	<circle cx="37.0116" cy="735.208" r="4" fill="#0" id="circle10"/>
	<circle cx="40.3128" cy="241.684" r="4" fill="#0" id="circle11"/>
	<circle cx="45.2646" cy="644.426" r="4" fill="#0" id="circle12"/>
	<circle cx="45.2646" cy="750.063" r="4" fill="#0" id="circle13"/>
	<circle cx="46.9151" cy="160.805" r="4" fill="#0" id="circle14"/>
	<circle cx="53.5175" cy="253.238" r="4" fill="#0" id="circle15"/>
	<circle cx="53.5175" cy="627.92" r="4" fill="#0" id="circle16"/>
	<circle cx="56.8186" cy="763.268" r="4" fill="#0" id="circle17"/>
	<circle cx="61.7704" cy="152.552" r="4" fill="#0" id="circle18"/>
	<circle cx="63.421" cy="266.443" r="4" fill="#0" id="circle19"/>
	<circle cx="66.7221" cy="614.715" r="4" fill="#0" id="circle20"/>
	<circle cx="70.0233" cy="773.171" r="4" fill="#0" id="circle21"/>
	<circle cx="74.975" cy="789.677" r="4" fill="#0" id="circle22"/>
	<circle cx="76.6256" cy="144.3" r="4" fill="#0" id="circle23"/>
	<circle cx="76.6256" cy="277.997" r="4" fill="#0" id="circle24"/>
	<circle cx="78.2762" cy="594.908" r="4" fill="#0" id="circle25"/>
	<circle cx="86.5291" cy="124.493" r="4" fill="#0" id="circle26"/>
	<circle cx="86.5291" cy="291.201" r="4" fill="#0" id="circle27"/>
	<circle cx="86.5291" cy="570.15" r="4" fill="#0" id="circle28"/>
	<circle cx="89.8303" cy="781.424" r="4" fill="#0" id="circle29"/>
	<circle cx="94.782" cy="306.057" r="4" fill="#0" id="circle30"/>
	<circle cx="94.782" cy="553.644" r="4" fill="#0" id="circle31"/>
	<circle cx="99.7338" cy="111.288" r="4" fill="#0" id="circle32"/>
	<circle cx="103.035" cy="528.885" r="4" fill="#0" id="circle33"/>
	<circle cx="106.336" cy="781.424" r="4" fill="#0" id="circle34"/>
	<circle cx="107.987" cy="317.611" r="4" fill="#0" id="circle35"/>
	<circle cx="111.288" cy="334.116" r="4" fill="#0" id="circle36"/>
	<circle cx="111.288" cy="512.379" r="4" fill="#0" id="circle37"/>
	<circle cx="116.24" cy="103.035" r="4" fill="#0" id="circle38"/>
	<circle cx="119.541" cy="348.972" r="4" fill="#0" id="circle39"/>
	<circle cx="119.541" cy="487.621" r="4" fill="#0" id="circle40"/>
	<circle cx="122.842" cy="781.424" r="4" fill="#0" id="circle41"/>
	<circle cx="127.794" cy="363.827" r="4" fill="#0" id="circle42"/>
	<circle cx="127.794" cy="380.333" r="4" fill="#0" id="circle43"/>
	<circle cx="127.794" cy="396.839" r="4" fill="#0" id="circle44"/>
	<circle cx="127.794" cy="413.344" r="4" fill="#0" id="circle45"/>
	<circle cx="127.794" cy="429.85" r="4" fill="#0" id="circle46"/>
	<circle cx="127.794" cy="446.356" r="4" fill="#0" id="circle47"/>
	<circle cx="127.794" cy="462.862" r="4" fill="#0" id="circle48"/>
	<circle cx="132.745" cy="94.782" r="4" fill="#0" id="circle49"/>
	<circle cx="136.047" cy="791.328" r="4" fill="#0" id="circle50"/>
	<circle cx="144.3" cy="806.183" r="4" fill="#0" id="circle51"/>
	<circle cx="145.95" cy="81.5774" r="4" fill="#0" id="circle52"/>
	<circle cx="154.203" cy="819.388" r="4" fill="#0" id="circle53"/>
	<circle cx="162.456" cy="73.3245" r="4" fill="#0" id="circle54"/>
	<circle cx="167.408" cy="830.942" r="4" fill="#0" id="circle55"/>
	<circle cx="169.058" cy="847.448" r="4" fill="#0" id="circle56"/>
	<circle cx="175.661" cy="61.7704" r="4" fill="#0" id="circle57"/>
	<circle cx="177.311" cy="862.303" r="4" fill="#0" id="circle58"/>
	<circle cx="187.215" cy="875.507" r="4" fill="#0" id="circle59"/>
	<circle cx="190.516" cy="53.5175" r="4" fill="#0" id="circle60"/>
	<circle cx="198.769" cy="888.712" r="4" fill="#0" id="circle61"/>
	<circle cx="203.72" cy="40.3128" r="4" fill="#0" id="circle62"/>
	<circle cx="211.973" cy="900.266" r="4" fill="#0" id="circle63"/>
	<circle cx="220.226" cy="32.0599" r="4" fill="#0" id="circle64"/>
	<circle cx="223.527" cy="913.471" r="4" fill="#0" id="circle65"/>
	<circle cx="236.732" cy="23.807" r="4" fill="#0" id="circle66"/>
	<circle cx="240.033" cy="920.073" r="4" fill="#0" id="circle67"/>
	<circle cx="253.238" cy="15.5541" r="4" fill="#0" id="circle68"/>
	<circle cx="256.539" cy="921.724" r="4" fill="#0" id="circle69"/>
	<circle cx="269.744" cy="7.30116" r="4" fill="#0" id="circle70"/>
	<circle cx="273.045" cy="921.724" r="4" fill="#0" id="circle71"/>
	<circle cx="286.25" cy="4" r="4" fill="#0" id="circle72"/>
	<circle cx="287.9" cy="929.977" r="4" fill="#0" id="circle73"/>
	<circle cx="302.755" cy="4" r="4" fill="#0" id="circle74"/>
	<circle cx="304.406" cy="934.928" r="4" fill="#0" id="circle75"/>
	<circle cx="319.261" cy="4" r="4" fill="#0" id="circle76"/>
	<circle cx="319.261" cy="943.181" r="4" fill="#0" id="circle77"/>
	<circle cx="335.767" cy="4" r="4" fill="#0" id="circle78"/>
	<circle cx="335.767" cy="949.784" r="4" fill="#0" id="circle79"/>
	<circle cx="352.273" cy="4" r="4" fill="#0" id="circle80"/>
	<circle cx="352.273" cy="954.735" r="4" fill="#0" id="circle81"/>
	<circle cx="367.128" cy="962.988" r="4" fill="#0" id="circle82"/>
	<circle cx="368.779" cy="4" r="4" fill="#0" id="circle83"/>
	<circle cx="381.983" cy="971.241" r="4" fill="#0" id="circle84"/>
	<circle cx="385.285" cy="4" r="4" fill="#0" id="circle85"/>
	<circle cx="398.489" cy="971.241" r="4" fill="#0" id="circle86"/>
	<circle cx="401.79" cy="4" r="4" fill="#0" id="circle87"/>
	<circle cx="413.344" cy="979.494" r="4" fill="#0" id="circle88"/>
	<circle cx="418.296" cy="4" r="4" fill="#0" id="circle89"/>
	<circle cx="428.2" cy="987.747" r="4" fill="#0" id="circle90"/>
	<circle cx="434.802" cy="4" r="4" fill="#0" id="circle91"/>
	<circle cx="434.802" cy="302.755" r="4" fill="#0" id="circle92"/>
	<circle cx="434.802" cy="319.261" r="4" fill="#0" id="circle93"/>
	<circle cx="444.705" cy="992.699" r="4" fill="#0" id="circle94"/>
	<circle cx="448.007" cy="291.201" r="4" fill="#0" id="circle95"/>
	<circle cx="448.007" cy="329.165" r="4" fill="#0" id="circle96"/>
	<circle cx="451.308" cy="8.95175" r="4" fill="#0" id="circle97"/>
	<circle cx="456.26" cy="274.696" r="4" fill="#0" id="circle98"/>
	<circle cx="461.211" cy="996" r="4" fill="#0" id="circle99"/>
	<circle cx="464.512" cy="258.19" r="4" fill="#0" id="circle100"/>
	<circle cx="464.512" cy="335.767" r="4" fill="#0" id="circle101"/>
	<circle cx="466.163" cy="17.2047" r="4" fill="#0" id="circle102"/>
	<circle cx="472.765" cy="241.684" r="4" fill="#0" id="circle103"/>
	<circle cx="477.717" cy="996" r="4" fill="#0" id="circle104"/>
	<circle cx="481.018" cy="342.369" r="4" fill="#0" id="circle105"/>
	<circle cx="482.669" cy="23.807" r="4" fill="#0" id="circle106"/>
	<circle cx="484.319" cy="228.479" r="4" fill="#0" id="circle107"/>
	<circle cx="492.572" cy="37.0116" r="4" fill="#0" id="circle108"/>
	<circle cx="494.223" cy="996" r="4" fill="#0" id="circle109"/>
	<circle cx="495.874" cy="350.622" r="4" fill="#0" id="circle110"/>
	<circle cx="497.524" cy="216.925" r="4" fill="#0" id="circle111"/>
	<circle cx="500.825" cy="51.8669" r="4" fill="#0" id="circle112"/>
	<circle cx="505.777" cy="200.419" r="4" fill="#0" id="circle113"/>
	<circle cx="509.078" cy="748.413" r="4" fill="#0" id="circle114"/>
	<circle cx="509.078" cy="764.918" r="4" fill="#0" id="circle115"/>
	<circle cx="510.729" cy="358.875" r="4" fill="#0" id="circle116"/>
	<circle cx="510.729" cy="996" r="4" fill="#0" id="circle117"/>
	<circle cx="512.379" cy="781.424" r="4" fill="#0" id="circle118"/>
	<circle cx="514.03" cy="63.421" r="4" fill="#0" id="circle119"/>
	<circle cx="517.331" cy="187.215" r="4" fill="#0" id="circle120"/>
	<circle cx="517.331" cy="731.907" r="4" fill="#0" id="circle121"/>
	<circle cx="525.584" cy="76.6256" r="4" fill="#0" id="circle122"/>
	<circle cx="527.235" cy="358.875" r="4" fill="#0" id="circle123"/>
	<circle cx="527.235" cy="996" r="4" fill="#0" id="circle124"/>
	<circle cx="528.885" cy="788.027" r="4" fill="#0" id="circle125"/>
	<circle cx="530.536" cy="175.661" r="4" fill="#0" id="circle126"/>
	<circle cx="530.536" cy="720.353" r="4" fill="#0" id="circle127"/>
	<circle cx="538.789" cy="88.1797" r="4" fill="#0" id="circle128"/>
	<circle cx="542.09" cy="707.148" r="4" fill="#0" id="circle129"/>
	<circle cx="543.74" cy="358.875" r="4" fill="#0" id="circle130"/>
	<circle cx="543.74" cy="996" r="4" fill="#0" id="circle131"/>
	<circle cx="545.391" cy="788.027" r="4" fill="#0" id="circle132"/>
	<circle cx="547.042" cy="167.408" r="4" fill="#0" id="circle133"/>
	<circle cx="550.343" cy="101.384" r="4" fill="#0" id="circle134"/>
	<circle cx="556.945" cy="698.895" r="4" fill="#0" id="circle135"/>
	<circle cx="558.596" cy="154.203" r="4" fill="#0" id="circle136"/>
	<circle cx="558.596" cy="367.128" r="4" fill="#0" id="circle137"/>
	<circle cx="560.246" cy="796.28" r="4" fill="#0" id="circle138"/>
	<circle cx="560.246" cy="996" r="4" fill="#0" id="circle139"/>
	<circle cx="563.547" cy="111.288" r="4" fill="#0" id="circle140"/>
	<circle cx="571.8" cy="690.642" r="4" fill="#0" id="circle141"/>
	<circle cx="575.101" cy="145.95" r="4" fill="#0" id="circle142"/>
	<circle cx="575.101" cy="372.08" r="4" fill="#0" id="circle143"/>
	<circle cx="575.101" cy="804.532" r="4" fill="#0" id="circle144"/>
	<circle cx="575.101" cy="987.747" r="4" fill="#0" id="circle145"/>
	<circle cx="578.403" cy="119.541" r="4" fill="#0" id="circle146"/>
	<circle cx="588.306" cy="690.642" r="4" fill="#0" id="circle147"/>
	<circle cx="591.607" cy="375.381" r="4" fill="#0" id="circle148"/>
	<circle cx="591.607" cy="804.532" r="4" fill="#0" id="circle149"/>
	<circle cx="591.607" cy="987.747" r="4" fill="#0" id="circle150"/>
	<circle cx="604.812" cy="690.642" r="4" fill="#0" id="circle151"/>
	<circle cx="606.463" cy="979.494" r="4" fill="#0" id="circle152"/>
	<circle cx="608.113" cy="375.381" r="4" fill="#0" id="circle153"/>
	<circle cx="608.113" cy="804.532" r="4" fill="#0" id="circle154"/>
	<circle cx="621.318" cy="690.642" r="4" fill="#0" id="circle155"/>
	<circle cx="622.968" cy="383.634" r="4" fill="#0" id="circle156"/>
	<circle cx="622.968" cy="812.785" r="4" fill="#0" id="circle157"/>
	<circle cx="622.968" cy="974.542" r="4" fill="#0" id="circle158"/>
	<circle cx="637.824" cy="690.642" r="4" fill="#0" id="circle159"/>
	<circle cx="639.474" cy="383.634" r="4" fill="#0" id="circle160"/>
	<circle cx="639.474" cy="816.087" r="4" fill="#0" id="circle161"/>
	<circle cx="639.474" cy="966.29" r="4" fill="#0" id="circle162"/>
	<circle cx="652.679" cy="698.895" r="4" fill="#0" id="circle163"/>
	<circle cx="654.329" cy="824.339" r="4" fill="#0" id="circle164"/>
	<circle cx="655.98" cy="383.634" r="4" fill="#0" id="circle165"/>
	<circle cx="655.98" cy="958.037" r="4" fill="#0" id="circle166"/>
	<circle cx="669.185" cy="705.498" r="4" fill="#0" id="circle167"/>
	<circle cx="670.835" cy="391.887" r="4" fill="#0" id="circle168"/>
	<circle cx="670.835" cy="829.291" r="4" fill="#0" id="circle169"/>
	<circle cx="672.486" cy="954.735" r="4" fill="#0" id="circle170"/>
	<circle cx="685.691" cy="400.14" r="4" fill="#0" id="circle171"/>
	<circle cx="685.691" cy="707.148" r="4" fill="#0" id="circle172"/>
	<circle cx="685.691" cy="837.544" r="4" fill="#0" id="circle173"/>
	<circle cx="687.341" cy="946.483" r="4" fill="#0" id="circle174"/>
	<circle cx="700.546" cy="715.401" r="4" fill="#0" id="circle175"/>
	<circle cx="700.546" cy="845.797" r="4" fill="#0" id="circle176"/>
	<circle cx="702.196" cy="400.14" r="4" fill="#0" id="circle177"/>
	<circle cx="702.196" cy="936.579" r="4" fill="#0" id="circle178"/>
	<circle cx="707.148" cy="451.308" r="4" fill="#0" id="circle179"/>
	<circle cx="715.401" cy="434.802" r="4" fill="#0" id="circle180"/>
	<circle cx="715.401" cy="466.163" r="4" fill="#0" id="circle181"/>
	<circle cx="715.401" cy="723.654" r="4" fill="#0" id="circle182"/>
	<circle cx="715.401" cy="854.05" r="4" fill="#0" id="circle183"/>
	<circle cx="717.052" cy="408.393" r="4" fill="#0" id="circle184"/>
	<circle cx="718.702" cy="928.326" r="4" fill="#0" id="circle185"/>
	<circle cx="723.654" cy="481.018" r="4" fill="#0" id="circle186"/>
	<circle cx="723.654" cy="497.524" r="4" fill="#0" id="circle187"/>
	<circle cx="728.606" cy="423.248" r="4" fill="#0" id="circle188"/>
	<circle cx="731.907" cy="512.379" r="4" fill="#0" id="circle189"/>
	<circle cx="731.907" cy="723.654" r="4" fill="#0" id="circle190"/>
	<circle cx="731.907" cy="854.05" r="4" fill="#0" id="circle191"/>
	<circle cx="735.208" cy="920.073" r="4" fill="#0" id="circle192"/>
	<circle cx="743.461" cy="525.584" r="4" fill="#0" id="circle193"/>
	<circle cx="746.762" cy="862.303" r="4" fill="#0" id="circle194"/>
	<circle cx="748.413" cy="726.955" r="4" fill="#0" id="circle195"/>
	<circle cx="751.714" cy="911.82" r="4" fill="#0" id="circle196"/>
	<circle cx="756.666" cy="537.138" r="4" fill="#0" id="circle197"/>
	<circle cx="759.967" cy="872.206" r="4" fill="#0" id="circle198"/>
	<circle cx="759.967" cy="895.314" r="4" fill="#0" id="circle199"/>
	<circle cx="764.918" cy="731.907" r="4" fill="#0" id="circle200"/>
	<circle cx="768.22" cy="550.343" r="4" fill="#0" id="circle201"/>
	<circle cx="781.424" cy="731.907" r="4" fill="#0" id="circle202"/>
	<circle cx="784.725" cy="556.945" r="4" fill="#0" id="circle203"/>
	<circle cx="789.677" cy="573.451" r="4" fill="#0" id="circle204"/>
	<circle cx="797.93" cy="588.306" r="4" fill="#0" id="circle205"/>
	<circle cx="797.93" cy="723.654" r="4" fill="#0" id="circle206"/>
	<circle cx="806.183" cy="707.148" r="4" fill="#0" id="circle207"/>
	<circle cx="811.135" cy="599.86" r="4" fill="#0" id="circle208"/>
	<circle cx="814.436" cy="616.366" r="4" fill="#0" id="circle209"/>
	<circle cx="814.436" cy="632.872" r="4" fill="#0" id="circle210"/>
	<circle cx="814.436" cy="674.136" r="4" fill="#0" id="circle211"/>
	<circle cx="814.436" cy="690.642" r="4" fill="#0" id="circle212"/>
	<circle cx="822.689" cy="647.727" r="4" fill="#0" id="circle213"/>
	</g>
</svg>