<?xml version="1.0" encoding="UTF-8" standalone="no"?>
<!-- Created with CurveBenchmark -->
<svg
	xmlns:dc="http://purl.org/dc/elements/1.1/"
	xmlns:cc="http://creativecommons.org/ns#"
	xmlns:rdf="http://www.w3.org/1999/02/22-rdf-syntax-ns#"
	xmlns:svg="http://www.w3.org/2000/svg"
	xmlns="http://www.w3.org/2000/svg"
	xmlns:sodipodi="http://sodipodi.sourceforge.net/DTD/sodipodi-0.dtd"
	xmlns:inkscape="http://www.inkscape.org/namespaces/inkscape"
	width="1000"
	height="1000"
	id="svg2"
	version="1.1"
	sodipodi:docname="manifold/crawl-television345.png.txt">
<defs
	id="defs4" />
<metadata
	id="metadata7">
	<rdf:RDF>
		<cc:Work
			rdf:about="">
			<dc:format>image/svg+xml</dc:format>
			<dc:type
				rdf:resource="http://purl.org/dc/dcmitype/StillImage" />
			<dc:title></dc:title>
		</cc:Work>
	</rdf:RDF>
</metadata>
<g
	inkscape:label="Layer 1"
	inkscape:groupmode="layer"
	id="layer1">
	<path style="fill:none;stroke:red;stroke-width:1px;stroke-linecap:butt;stroke-linejoin:miter;stroke-opacity:1" d="M 4,758.57 4,791.095 z" id="boundary" inkscape:connector-curvature="0" />
	<path style="fill:none;stroke:red;stroke-width:1px;stroke-linecap:butt;stroke-linejoin:miter;stroke-opacity:1" d="M 4,791.095 26.7672,817.115 z" id="boundary" inkscape:connector-curvature="0" />
	<path style="fill:none;stroke:red;stroke-width:1px;stroke-linecap:butt;stroke-linejoin:miter;stroke-opacity:1" d="M 26.7672,817.115 59.2918,820.367 z" id="boundary" inkscape:connector-curvature="0" />
	<path style="fill:none;stroke:red;stroke-width:1px;stroke-linecap:butt;stroke-linejoin:miter;stroke-opacity:1" d="M 59.2918,820.367 91.8164,813.862 z" id="boundary" inkscape:connector-curvature="0" />
	<path style="fill:none;stroke:red;stroke-width:1px;stroke-linecap:butt;stroke-linejoin:miter;stroke-opacity:1" d="M 91.8164,813.862 124.341,817.115 z" id="boundary" inkscape:connector-curvature="0" />
	<path style="fill:none;stroke:red;stroke-width:1px;stroke-linecap:butt;stroke-linejoin:miter;stroke-opacity:1" d="M 124.341,817.115 156.866,813.862 z" id="boundary" inkscape:connector-curvature="0" />
	<path style="fill:none;stroke:red;stroke-width:1px;stroke-linecap:butt;stroke-linejoin:miter;stroke-opacity:1" d="M 156.866,813.862 189.39,813.862 z" id="boundary" inkscape:connector-curvature="0" />
	<path style="fill:none;stroke:red;stroke-width:1px;stroke-linecap:butt;stroke-linejoin:miter;stroke-opacity:1" d="M 189.39,813.862 221.915,813.862 z" id="boundary" inkscape:connector-curvature="0" />
	<path style="fill:none;stroke:red;stroke-width:1px;stroke-linecap:butt;stroke-linejoin:miter;stroke-opacity:1" d="M 221.915,813.862 254.439,813.862 z" id="boundary" inkscape:connector-curvature="0" />
	<path style="fill:none;stroke:red;stroke-width:1px;stroke-linecap:butt;stroke-linejoin:miter;stroke-opacity:1" d="M 254.439,813.862 286.964,813.862 z" id="boundary" inkscape:connector-curvature="0" />
	<path style="fill:none;stroke:red;stroke-width:1px;stroke-linecap:butt;stroke-linejoin:miter;stroke-opacity:1" d="M 286.964,813.862 319.489,813.862 z" id="boundary" inkscape:connector-curvature="0" />
	<path style="fill:none;stroke:red;stroke-width:1px;stroke-linecap:butt;stroke-linejoin:miter;stroke-opacity:1" d="M 319.489,813.862 352.013,813.862 z" id="boundary" inkscape:connector-curvature="0" />
	<path style="fill:none;stroke:red;stroke-width:1px;stroke-linecap:butt;stroke-linejoin:miter;stroke-opacity:1" d="M 352.013,813.862 384.538,813.862 z" id="boundary" inkscape:connector-curvature="0" />
	<path style="fill:none;stroke:red;stroke-width:1px;stroke-linecap:butt;stroke-linejoin:miter;stroke-opacity:1" d="M 384.538,813.862 417.062,813.862 z" id="boundary" inkscape:connector-curvature="0" />
	<path style="fill:none;stroke:red;stroke-width:1px;stroke-linecap:butt;stroke-linejoin:miter;stroke-opacity:1" d="M 417.062,813.862 449.587,813.862 z" id="boundary" inkscape:connector-curvature="0" />
	<path style="fill:none;stroke:red;stroke-width:1px;stroke-linecap:butt;stroke-linejoin:miter;stroke-opacity:1" d="M 449.587,813.862 482.111,813.862 z" id="boundary" inkscape:connector-curvature="0" />
	<path style="fill:none;stroke:red;stroke-width:1px;stroke-linecap:butt;stroke-linejoin:miter;stroke-opacity:1" d="M 482.111,813.862 514.636,813.862 z" id="boundary" inkscape:connector-curvature="0" />
	<path style="fill:none;stroke:red;stroke-width:1px;stroke-linecap:butt;stroke-linejoin:miter;stroke-opacity:1" d="M 514.636,813.862 547.161,813.862 z" id="boundary" inkscape:connector-curvature="0" />
	<path style="fill:none;stroke:red;stroke-width:1px;stroke-linecap:butt;stroke-linejoin:miter;stroke-opacity:1" d="M 547.161,813.862 579.685,813.862 z" id="boundary" inkscape:connector-curvature="0" />
	<path style="fill:none;stroke:red;stroke-width:1px;stroke-linecap:butt;stroke-linejoin:miter;stroke-opacity:1" d="M 579.685,813.862 612.21,813.862 z" id="boundary" inkscape:connector-curvature="0" />
	<path style="fill:none;stroke:red;stroke-width:1px;stroke-linecap:butt;stroke-linejoin:miter;stroke-opacity:1" d="M 612.21,813.862 644.734,813.862 z" id="boundary" inkscape:connector-curvature="0" />
	<path style="fill:none;stroke:red;stroke-width:1px;stroke-linecap:butt;stroke-linejoin:miter;stroke-opacity:1" d="M 644.734,813.862 677.259,813.862 z" id="boundary" inkscape:connector-curvature="0" />
	<path style="fill:none;stroke:red;stroke-width:1px;stroke-linecap:butt;stroke-linejoin:miter;stroke-opacity:1" d="M 677.259,813.862 709.784,813.862 z" id="boundary" inkscape:connector-curvature="0" />
	<path style="fill:none;stroke:red;stroke-width:1px;stroke-linecap:butt;stroke-linejoin:miter;stroke-opacity:1" d="M 709.784,813.862 742.308,813.862 z" id="boundary" inkscape:connector-curvature="0" />
	<path style="fill:none;stroke:red;stroke-width:1px;stroke-linecap:butt;stroke-linejoin:miter;stroke-opacity:1" d="M 742.308,813.862 774.833,813.862 z" id="boundary" inkscape:connector-curvature="0" />
	<path style="fill:none;stroke:red;stroke-width:1px;stroke-linecap:butt;stroke-linejoin:miter;stroke-opacity:1" d="M 774.833,813.862 807.357,813.862 z" id="boundary" inkscape:connector-curvature="0" />
	<path style="fill:none;stroke:red;stroke-width:1px;stroke-linecap:butt;stroke-linejoin:miter;stroke-opacity:1" d="M 807.357,813.862 839.882,813.862 z" id="boundary" inkscape:connector-curvature="0" />
	<path style="fill:none;stroke:red;stroke-width:1px;stroke-linecap:butt;stroke-linejoin:miter;stroke-opacity:1" d="M 839.882,813.862 872.407,813.862 z" id="boundary" inkscape:connector-curvature="0" />
	<path style="fill:none;stroke:red;stroke-width:1px;stroke-linecap:butt;stroke-linejoin:miter;stroke-opacity:1" d="M 872.407,813.862 904.931,813.862 z" id="boundary" inkscape:connector-curvature="0" />
	<path style="fill:none;stroke:red;stroke-width:1px;stroke-linecap:butt;stroke-linejoin:miter;stroke-opacity:1" d="M 904.931,813.862 937.456,813.862 z" id="boundary" inkscape:connector-curvature="0" />
	<path style="fill:none;stroke:red;stroke-width:1px;stroke-linecap:butt;stroke-linejoin:miter;stroke-opacity:1" d="M 937.456,813.862 969.98,823.62 z" id="boundary" inkscape:connector-curvature="0" />
	<path style="fill:none;stroke:red;stroke-width:1px;stroke-linecap:butt;stroke-linejoin:miter;stroke-opacity:1" d="M 969.98,823.62 996,804.105 z" id="boundary" inkscape:connector-curvature="0" />
	<path style="fill:none;stroke:red;stroke-width:1px;stroke-linecap:butt;stroke-linejoin:miter;stroke-opacity:1" d="M 996,804.105 996,771.58 z" id="boundary" inkscape:connector-curvature="0" />
	<path style="fill:none;stroke:red;stroke-width:1px;stroke-linecap:butt;stroke-linejoin:miter;stroke-opacity:1" d="M 996,771.58 973.233,745.561 z" id="boundary" inkscape:connector-curvature="0" />
	<path style="fill:none;stroke:red;stroke-width:1px;stroke-linecap:butt;stroke-linejoin:miter;stroke-opacity:1" d="M 973.233,745.561 940.708,745.561 z" id="boundary" inkscape:connector-curvature="0" />
	<path style="fill:none;stroke:red;stroke-width:1px;stroke-linecap:butt;stroke-linejoin:miter;stroke-opacity:1" d="M 940.708,745.561 908.184,745.561 z" id="boundary" inkscape:connector-curvature="0" />
	<path style="fill:none;stroke:red;stroke-width:1px;stroke-linecap:butt;stroke-linejoin:miter;stroke-opacity:1" d="M 908.184,745.561 875.659,745.561 z" id="boundary" inkscape:connector-curvature="0" />
	<path style="fill:none;stroke:red;stroke-width:1px;stroke-linecap:butt;stroke-linejoin:miter;stroke-opacity:1" d="M 875.659,745.561 843.134,745.561 z" id="boundary" inkscape:connector-curvature="0" />
	<path style="fill:none;stroke:red;stroke-width:1px;stroke-linecap:butt;stroke-linejoin:miter;stroke-opacity:1" d="M 843.134,745.561 810.61,745.561 z" id="boundary" inkscape:connector-curvature="0" />
	<path style="fill:none;stroke:red;stroke-width:1px;stroke-linecap:butt;stroke-linejoin:miter;stroke-opacity:1" d="M 810.61,745.561 778.085,745.561 z" id="boundary" inkscape:connector-curvature="0" />
	<path style="fill:none;stroke:red;stroke-width:1px;stroke-linecap:butt;stroke-linejoin:miter;stroke-opacity:1" d="M 778.085,745.561 745.561,745.561 z" id="boundary" inkscape:connector-curvature="0" />
	<path style="fill:none;stroke:red;stroke-width:1px;stroke-linecap:butt;stroke-linejoin:miter;stroke-opacity:1" d="M 745.561,745.561 713.036,745.561 z" id="boundary" inkscape:connector-curvature="0" />
	<path style="fill:none;stroke:red;stroke-width:1px;stroke-linecap:butt;stroke-linejoin:miter;stroke-opacity:1" d="M 713.036,745.561 680.511,745.561 z" id="boundary" inkscape:connector-curvature="0" />
	<path style="fill:none;stroke:red;stroke-width:1px;stroke-linecap:butt;stroke-linejoin:miter;stroke-opacity:1" d="M 680.511,745.561 647.987,745.561 z" id="boundary" inkscape:connector-curvature="0" />
	<path style="fill:none;stroke:red;stroke-width:1px;stroke-linecap:butt;stroke-linejoin:miter;stroke-opacity:1" d="M 647.987,745.561 615.462,745.561 z" id="boundary" inkscape:connector-curvature="0" />
	<path style="fill:none;stroke:red;stroke-width:1px;stroke-linecap:butt;stroke-linejoin:miter;stroke-opacity:1" d="M 615.462,745.561 582.938,745.561 z" id="boundary" inkscape:connector-curvature="0" />
	<path style="fill:none;stroke:red;stroke-width:1px;stroke-linecap:butt;stroke-linejoin:miter;stroke-opacity:1" d="M 582.938,745.561 579.685,713.036 z" id="boundary" inkscape:connector-curvature="0" />
	<path style="fill:none;stroke:red;stroke-width:1px;stroke-linecap:butt;stroke-linejoin:miter;stroke-opacity:1" d="M 579.685,713.036 579.685,680.511 z" id="boundary" inkscape:connector-curvature="0" />
	<path style="fill:none;stroke:red;stroke-width:1px;stroke-linecap:butt;stroke-linejoin:miter;stroke-opacity:1" d="M 4,758.57 36.5246,745.561 z" id="boundary" inkscape:connector-curvature="0" />
	<path style="fill:none;stroke:red;stroke-width:1px;stroke-linecap:butt;stroke-linejoin:miter;stroke-opacity:1" d="M 36.5246,745.561 69.0492,745.561 z" id="boundary" inkscape:connector-curvature="0" />
	<path style="fill:none;stroke:red;stroke-width:1px;stroke-linecap:butt;stroke-linejoin:miter;stroke-opacity:1" d="M 69.0492,745.561 101.574,745.561 z" id="boundary" inkscape:connector-curvature="0" />
	<path style="fill:none;stroke:red;stroke-width:1px;stroke-linecap:butt;stroke-linejoin:miter;stroke-opacity:1" d="M 101.574,745.561 134.098,745.561 z" id="boundary" inkscape:connector-curvature="0" />
	<path style="fill:none;stroke:red;stroke-width:1px;stroke-linecap:butt;stroke-linejoin:miter;stroke-opacity:1" d="M 134.098,745.561 166.623,745.561 z" id="boundary" inkscape:connector-curvature="0" />
	<path style="fill:none;stroke:red;stroke-width:1px;stroke-linecap:butt;stroke-linejoin:miter;stroke-opacity:1" d="M 166.623,745.561 199.148,745.561 z" id="boundary" inkscape:connector-curvature="0" />
	<path style="fill:none;stroke:red;stroke-width:1px;stroke-linecap:butt;stroke-linejoin:miter;stroke-opacity:1" d="M 199.148,745.561 231.672,745.561 z" id="boundary" inkscape:connector-curvature="0" />
	<path style="fill:none;stroke:red;stroke-width:1px;stroke-linecap:butt;stroke-linejoin:miter;stroke-opacity:1" d="M 231.672,745.561 264.197,745.561 z" id="boundary" inkscape:connector-curvature="0" />
	<path style="fill:none;stroke:red;stroke-width:1px;stroke-linecap:butt;stroke-linejoin:miter;stroke-opacity:1" d="M 264.197,745.561 296.721,745.561 z" id="boundary" inkscape:connector-curvature="0" />
	<path style="fill:none;stroke:red;stroke-width:1px;stroke-linecap:butt;stroke-linejoin:miter;stroke-opacity:1" d="M 296.721,745.561 329.246,745.561 z" id="boundary" inkscape:connector-curvature="0" />
	<path style="fill:none;stroke:red;stroke-width:1px;stroke-linecap:butt;stroke-linejoin:miter;stroke-opacity:1" d="M 329.246,745.561 361.77,745.561 z" id="boundary" inkscape:connector-curvature="0" />
	<path style="fill:none;stroke:red;stroke-width:1px;stroke-linecap:butt;stroke-linejoin:miter;stroke-opacity:1" d="M 361.77,745.561 387.79,726.046 z" id="boundary" inkscape:connector-curvature="0" />
	<path style="fill:none;stroke:red;stroke-width:1px;stroke-linecap:butt;stroke-linejoin:miter;stroke-opacity:1" d="M 387.79,726.046 387.79,693.521 z" id="boundary" inkscape:connector-curvature="0" />
	<path style="fill:none;stroke:red;stroke-width:1px;stroke-linecap:butt;stroke-linejoin:miter;stroke-opacity:1" d="M 387.79,693.521 358.518,677.259 z" id="boundary" inkscape:connector-curvature="0" />
	<path style="fill:none;stroke:red;stroke-width:1px;stroke-linecap:butt;stroke-linejoin:miter;stroke-opacity:1" d="M 358.518,677.259 325.993,677.259 z" id="boundary" inkscape:connector-curvature="0" />
	<path style="fill:none;stroke:red;stroke-width:1px;stroke-linecap:butt;stroke-linejoin:miter;stroke-opacity:1" d="M 325.993,677.259 293.469,677.259 z" id="boundary" inkscape:connector-curvature="0" />
	<path style="fill:none;stroke:red;stroke-width:1px;stroke-linecap:butt;stroke-linejoin:miter;stroke-opacity:1" d="M 293.469,677.259 260.944,677.259 z" id="boundary" inkscape:connector-curvature="0" />
	<path style="fill:none;stroke:red;stroke-width:1px;stroke-linecap:butt;stroke-linejoin:miter;stroke-opacity:1" d="M 260.944,677.259 228.42,677.259 z" id="boundary" inkscape:connector-curvature="0" />
	<path style="fill:none;stroke:red;stroke-width:1px;stroke-linecap:butt;stroke-linejoin:miter;stroke-opacity:1" d="M 228.42,677.259 195.895,677.259 z" id="boundary" inkscape:connector-curvature="0" />
	<path style="fill:none;stroke:red;stroke-width:1px;stroke-linecap:butt;stroke-linejoin:miter;stroke-opacity:1" d="M 195.895,677.259 163.37,677.259 z" id="boundary" inkscape:connector-curvature="0" />
	<path style="fill:none;stroke:red;stroke-width:1px;stroke-linecap:butt;stroke-linejoin:miter;stroke-opacity:1" d="M 163.37,677.259 130.846,677.259 z" id="boundary" inkscape:connector-curvature="0" />
	<path style="fill:none;stroke:red;stroke-width:1px;stroke-linecap:butt;stroke-linejoin:miter;stroke-opacity:1" d="M 130.846,677.259 98.3213,677.259 z" id="boundary" inkscape:connector-curvature="0" />
	<path style="fill:none;stroke:red;stroke-width:1px;stroke-linecap:butt;stroke-linejoin:miter;stroke-opacity:1" d="M 98.3213,677.259 82.059,647.987 z" id="boundary" inkscape:connector-curvature="0" />
	<path style="fill:none;stroke:red;stroke-width:1px;stroke-linecap:butt;stroke-linejoin:miter;stroke-opacity:1" d="M 82.059,647.987 114.584,647.987 z" id="boundary" inkscape:connector-curvature="0" />
	<path style="fill:none;stroke:red;stroke-width:1px;stroke-linecap:butt;stroke-linejoin:miter;stroke-opacity:1" d="M 114.584,647.987 147.108,647.987 z" id="boundary" inkscape:connector-curvature="0" />
	<path style="fill:none;stroke:red;stroke-width:1px;stroke-linecap:butt;stroke-linejoin:miter;stroke-opacity:1" d="M 147.108,647.987 179.633,647.987 z" id="boundary" inkscape:connector-curvature="0" />
	<path style="fill:none;stroke:red;stroke-width:1px;stroke-linecap:butt;stroke-linejoin:miter;stroke-opacity:1" d="M 179.633,647.987 212.157,647.987 z" id="boundary" inkscape:connector-curvature="0" />
	<path style="fill:none;stroke:red;stroke-width:1px;stroke-linecap:butt;stroke-linejoin:miter;stroke-opacity:1" d="M 212.157,647.987 244.682,647.987 z" id="boundary" inkscape:connector-curvature="0" />
	<path style="fill:none;stroke:red;stroke-width:1px;stroke-linecap:butt;stroke-linejoin:miter;stroke-opacity:1" d="M 244.682,647.987 277.207,647.987 z" id="boundary" inkscape:connector-curvature="0" />
	<path style="fill:none;stroke:red;stroke-width:1px;stroke-linecap:butt;stroke-linejoin:miter;stroke-opacity:1" d="M 277.207,647.987 309.731,647.987 z" id="boundary" inkscape:connector-curvature="0" />
	<path style="fill:none;stroke:red;stroke-width:1px;stroke-linecap:butt;stroke-linejoin:miter;stroke-opacity:1" d="M 309.731,647.987 342.256,647.987 z" id="boundary" inkscape:connector-curvature="0" />
	<path style="fill:none;stroke:red;stroke-width:1px;stroke-linecap:butt;stroke-linejoin:miter;stroke-opacity:1" d="M 342.256,647.987 374.78,647.987 z" id="boundary" inkscape:connector-curvature="0" />
	<path style="fill:none;stroke:red;stroke-width:1px;stroke-linecap:butt;stroke-linejoin:miter;stroke-opacity:1" d="M 579.685,680.511 579.685,641.482 z" id="boundary" inkscape:connector-curvature="0" />
	<path style="fill:none;stroke:red;stroke-width:1px;stroke-linecap:butt;stroke-linejoin:miter;stroke-opacity:1" d="M 579.685,641.482 579.685,608.957 z" id="boundary" inkscape:connector-curvature="0" />
	<path style="fill:none;stroke:red;stroke-width:1px;stroke-linecap:butt;stroke-linejoin:miter;stroke-opacity:1" d="M 579.685,608.957 579.685,576.433 z" id="boundary" inkscape:connector-curvature="0" />
	<path style="fill:none;stroke:red;stroke-width:1px;stroke-linecap:butt;stroke-linejoin:miter;stroke-opacity:1" d="M 579.685,576.433 579.685,537.403 z" id="boundary" inkscape:connector-curvature="0" />
	<path style="fill:none;stroke:red;stroke-width:1px;stroke-linecap:butt;stroke-linejoin:miter;stroke-opacity:1" d="M 579.685,537.403 579.685,504.879 z" id="boundary" inkscape:connector-curvature="0" />
	<path style="fill:none;stroke:red;stroke-width:1px;stroke-linecap:butt;stroke-linejoin:miter;stroke-opacity:1" d="M 579.685,504.879 579.685,472.354 z" id="boundary" inkscape:connector-curvature="0" />
	<path style="fill:none;stroke:red;stroke-width:1px;stroke-linecap:butt;stroke-linejoin:miter;stroke-opacity:1" d="M 579.685,472.354 579.685,439.83 z" id="boundary" inkscape:connector-curvature="0" />
	<path style="fill:none;stroke:red;stroke-width:1px;stroke-linecap:butt;stroke-linejoin:miter;stroke-opacity:1" d="M 579.685,439.83 612.21,436.577 z" id="boundary" inkscape:connector-curvature="0" />
	<path style="fill:none;stroke:red;stroke-width:1px;stroke-linecap:butt;stroke-linejoin:miter;stroke-opacity:1" d="M 612.21,436.577 644.734,436.577 z" id="boundary" inkscape:connector-curvature="0" />
	<path style="fill:none;stroke:red;stroke-width:1px;stroke-linecap:butt;stroke-linejoin:miter;stroke-opacity:1" d="M 644.734,436.577 677.259,436.577 z" id="boundary" inkscape:connector-curvature="0" />
	<path style="fill:none;stroke:red;stroke-width:1px;stroke-linecap:butt;stroke-linejoin:miter;stroke-opacity:1" d="M 677.259,436.577 709.784,436.577 z" id="boundary" inkscape:connector-curvature="0" />
	<path style="fill:none;stroke:red;stroke-width:1px;stroke-linecap:butt;stroke-linejoin:miter;stroke-opacity:1" d="M 709.784,436.577 742.308,436.577 z" id="boundary" inkscape:connector-curvature="0" />
	<path style="fill:none;stroke:red;stroke-width:1px;stroke-linecap:butt;stroke-linejoin:miter;stroke-opacity:1" d="M 742.308,436.577 774.833,436.577 z" id="boundary" inkscape:connector-curvature="0" />
	<path style="fill:none;stroke:red;stroke-width:1px;stroke-linecap:butt;stroke-linejoin:miter;stroke-opacity:1" d="M 774.833,436.577 807.357,436.577 z" id="boundary" inkscape:connector-curvature="0" />
	<path style="fill:none;stroke:red;stroke-width:1px;stroke-linecap:butt;stroke-linejoin:miter;stroke-opacity:1" d="M 807.357,436.577 839.882,436.577 z" id="boundary" inkscape:connector-curvature="0" />
	<path style="fill:none;stroke:red;stroke-width:1px;stroke-linecap:butt;stroke-linejoin:miter;stroke-opacity:1" d="M 839.882,436.577 872.407,433.325 z" id="boundary" inkscape:connector-curvature="0" />
	<path style="fill:none;stroke:red;stroke-width:1px;stroke-linecap:butt;stroke-linejoin:miter;stroke-opacity:1" d="M 872.407,433.325 872.407,400.8 z" id="boundary" inkscape:connector-curvature="0" />
	<path style="fill:none;stroke:red;stroke-width:1px;stroke-linecap:butt;stroke-linejoin:miter;stroke-opacity:1" d="M 872.407,400.8 872.407,368.275 z" id="boundary" inkscape:connector-curvature="0" />
	<path style="fill:none;stroke:red;stroke-width:1px;stroke-linecap:butt;stroke-linejoin:miter;stroke-opacity:1" d="M 872.407,368.275 872.407,335.751 z" id="boundary" inkscape:connector-curvature="0" />
	<path style="fill:none;stroke:red;stroke-width:1px;stroke-linecap:butt;stroke-linejoin:miter;stroke-opacity:1" d="M 872.407,335.751 872.407,303.226 z" id="boundary" inkscape:connector-curvature="0" />
	<path style="fill:none;stroke:red;stroke-width:1px;stroke-linecap:butt;stroke-linejoin:miter;stroke-opacity:1" d="M 872.407,303.226 878.911,260.944 z" id="boundary" inkscape:connector-curvature="0" />
	<path style="fill:none;stroke:red;stroke-width:1px;stroke-linecap:butt;stroke-linejoin:miter;stroke-opacity:1" d="M 878.911,260.944 878.911,228.42 z" id="boundary" inkscape:connector-curvature="0" />
	<path style="fill:none;stroke:red;stroke-width:1px;stroke-linecap:butt;stroke-linejoin:miter;stroke-opacity:1" d="M 878.911,228.42 878.911,195.895 z" id="boundary" inkscape:connector-curvature="0" />
	<path style="fill:none;stroke:red;stroke-width:1px;stroke-linecap:butt;stroke-linejoin:miter;stroke-opacity:1" d="M 878.911,195.895 878.911,163.37 z" id="boundary" inkscape:connector-curvature="0" />
	<path style="fill:none;stroke:red;stroke-width:1px;stroke-linecap:butt;stroke-linejoin:miter;stroke-opacity:1" d="M 878.911,163.37 878.911,130.846 z" id="boundary" inkscape:connector-curvature="0" />
	<path style="fill:none;stroke:red;stroke-width:1px;stroke-linecap:butt;stroke-linejoin:miter;stroke-opacity:1" d="M 878.911,130.846 878.911,98.3213 z" id="boundary" inkscape:connector-curvature="0" />
	<path style="fill:none;stroke:red;stroke-width:1px;stroke-linecap:butt;stroke-linejoin:miter;stroke-opacity:1" d="M 878.911,98.3213 878.911,65.7967 z" id="boundary" inkscape:connector-curvature="0" />
	<path style="fill:none;stroke:red;stroke-width:1px;stroke-linecap:butt;stroke-linejoin:miter;stroke-opacity:1" d="M 878.911,65.7967 878.911,33.2721 z" id="boundary" inkscape:connector-curvature="0" />
	<path style="fill:none;stroke:red;stroke-width:1px;stroke-linecap:butt;stroke-linejoin:miter;stroke-opacity:1" d="M 878.911,33.2721 862.649,4 z" id="boundary" inkscape:connector-curvature="0" />
	<path style="fill:none;stroke:red;stroke-width:1px;stroke-linecap:butt;stroke-linejoin:miter;stroke-opacity:1" d="M 862.649,4 830.125,4 z" id="boundary" inkscape:connector-curvature="0" />
	<path style="fill:none;stroke:red;stroke-width:1px;stroke-linecap:butt;stroke-linejoin:miter;stroke-opacity:1" d="M 830.125,4 797.6,4 z" id="boundary" inkscape:connector-curvature="0" />
	<path style="fill:none;stroke:red;stroke-width:1px;stroke-linecap:butt;stroke-linejoin:miter;stroke-opacity:1" d="M 797.6,4 765.075,4 z" id="boundary" inkscape:connector-curvature="0" />
	<path style="fill:none;stroke:red;stroke-width:1px;stroke-linecap:butt;stroke-linejoin:miter;stroke-opacity:1" d="M 765.075,4 732.551,4 z" id="boundary" inkscape:connector-curvature="0" />
	<path style="fill:none;stroke:red;stroke-width:1px;stroke-linecap:butt;stroke-linejoin:miter;stroke-opacity:1" d="M 732.551,4 700.026,4 z" id="boundary" inkscape:connector-curvature="0" />
	<path style="fill:none;stroke:red;stroke-width:1px;stroke-linecap:butt;stroke-linejoin:miter;stroke-opacity:1" d="M 700.026,4 667.502,4 z" id="boundary" inkscape:connector-curvature="0" />
	<path style="fill:none;stroke:red;stroke-width:1px;stroke-linecap:butt;stroke-linejoin:miter;stroke-opacity:1" d="M 667.502,4 634.977,4 z" id="boundary" inkscape:connector-curvature="0" />
	<path style="fill:none;stroke:red;stroke-width:1px;stroke-linecap:butt;stroke-linejoin:miter;stroke-opacity:1" d="M 634.977,4 602.452,4 z" id="boundary" inkscape:connector-curvature="0" />
	<path style="fill:none;stroke:red;stroke-width:1px;stroke-linecap:butt;stroke-linejoin:miter;stroke-opacity:1" d="M 602.452,4 569.928,4 z" id="boundary" inkscape:connector-curvature="0" />
	<path style="fill:none;stroke:red;stroke-width:1px;stroke-linecap:butt;stroke-linejoin:miter;stroke-opacity:1" d="M 569.928,4 537.403,4 z" id="boundary" inkscape:connector-curvature="0" />
	<path style="fill:none;stroke:red;stroke-width:1px;stroke-linecap:butt;stroke-linejoin:miter;stroke-opacity:1" d="M 537.403,4 504.879,4 z" id="boundary" inkscape:connector-curvature="0" />
	<path style="fill:none;stroke:red;stroke-width:1px;stroke-linecap:butt;stroke-linejoin:miter;stroke-opacity:1" d="M 504.879,4 472.354,4 z" id="boundary" inkscape:connector-curvature="0" />
	<path style="fill:none;stroke:red;stroke-width:1px;stroke-linecap:butt;stroke-linejoin:miter;stroke-opacity:1" d="M 472.354,4 439.83,4 z" id="boundary" inkscape:connector-curvature="0" />
	<path style="fill:none;stroke:red;stroke-width:1px;stroke-linecap:butt;stroke-linejoin:miter;stroke-opacity:1" d="M 439.83,4 407.305,4 z" id="boundary" inkscape:connector-curvature="0" />
	<path style="fill:none;stroke:red;stroke-width:1px;stroke-linecap:butt;stroke-linejoin:miter;stroke-opacity:1" d="M 407.305,4 374.78,4 z" id="boundary" inkscape:connector-curvature="0" />
	<path style="fill:none;stroke:red;stroke-width:1px;stroke-linecap:butt;stroke-linejoin:miter;stroke-opacity:1" d="M 374.78,4 342.256,4 z" id="boundary" inkscape:connector-curvature="0" />
	<path style="fill:none;stroke:red;stroke-width:1px;stroke-linecap:butt;stroke-linejoin:miter;stroke-opacity:1" d="M 342.256,4 309.731,4 z" id="boundary" inkscape:connector-curvature="0" />
	<path style="fill:none;stroke:red;stroke-width:1px;stroke-linecap:butt;stroke-linejoin:miter;stroke-opacity:1" d="M 309.731,4 277.207,4 z" id="boundary" inkscape:connector-curvature="0" />
	<path style="fill:none;stroke:red;stroke-width:1px;stroke-linecap:butt;stroke-linejoin:miter;stroke-opacity:1" d="M 277.207,4 244.682,4 z" id="boundary" inkscape:connector-curvature="0" />
	<path style="fill:none;stroke:red;stroke-width:1px;stroke-linecap:butt;stroke-linejoin:miter;stroke-opacity:1" d="M 244.682,4 212.157,4 z" id="boundary" inkscape:connector-curvature="0" />
	<path style="fill:none;stroke:red;stroke-width:1px;stroke-linecap:butt;stroke-linejoin:miter;stroke-opacity:1" d="M 212.157,4 179.633,4 z" id="boundary" inkscape:connector-curvature="0" />
	<path style="fill:none;stroke:red;stroke-width:1px;stroke-linecap:butt;stroke-linejoin:miter;stroke-opacity:1" d="M 179.633,4 147.108,4 z" id="boundary" inkscape:connector-curvature="0" />
	<path style="fill:none;stroke:red;stroke-width:1px;stroke-linecap:butt;stroke-linejoin:miter;stroke-opacity:1" d="M 147.108,4 114.584,10.5049 z" id="boundary" inkscape:connector-curvature="0" />
	<path style="fill:none;stroke:red;stroke-width:1px;stroke-linecap:butt;stroke-linejoin:miter;stroke-opacity:1" d="M 114.584,10.5049 114.584,43.0295 z" id="boundary" inkscape:connector-curvature="0" />
	<path style="fill:none;stroke:red;stroke-width:1px;stroke-linecap:butt;stroke-linejoin:miter;stroke-opacity:1" d="M 114.584,43.0295 114.584,75.5541 z" id="boundary" inkscape:connector-curvature="0" />
	<path style="fill:none;stroke:red;stroke-width:1px;stroke-linecap:butt;stroke-linejoin:miter;stroke-opacity:1" d="M 114.584,75.5541 114.584,108.079 z" id="boundary" inkscape:connector-curvature="0" />
	<path style="fill:none;stroke:red;stroke-width:1px;stroke-linecap:butt;stroke-linejoin:miter;stroke-opacity:1" d="M 114.584,108.079 114.584,140.603 z" id="boundary" inkscape:connector-curvature="0" />
	<path style="fill:none;stroke:red;stroke-width:1px;stroke-linecap:butt;stroke-linejoin:miter;stroke-opacity:1" d="M 114.584,140.603 114.584,173.128 z" id="boundary" inkscape:connector-curvature="0" />
	<path style="fill:none;stroke:red;stroke-width:1px;stroke-linecap:butt;stroke-linejoin:miter;stroke-opacity:1" d="M 114.584,173.128 114.584,205.652 z" id="boundary" inkscape:connector-curvature="0" />
	<path style="fill:none;stroke:red;stroke-width:1px;stroke-linecap:butt;stroke-linejoin:miter;stroke-opacity:1" d="M 114.584,205.652 114.584,238.177 z" id="boundary" inkscape:connector-curvature="0" />
	<path style="fill:none;stroke:red;stroke-width:1px;stroke-linecap:butt;stroke-linejoin:miter;stroke-opacity:1" d="M 114.584,238.177 114.584,270.702 z" id="boundary" inkscape:connector-curvature="0" />
	<path style="fill:none;stroke:red;stroke-width:1px;stroke-linecap:butt;stroke-linejoin:miter;stroke-opacity:1" d="M 114.584,270.702 114.584,303.226 z" id="boundary" inkscape:connector-curvature="0" />
	<path style="fill:none;stroke:red;stroke-width:1px;stroke-linecap:butt;stroke-linejoin:miter;stroke-opacity:1" d="M 114.584,303.226 114.584,335.751 z" id="boundary" inkscape:connector-curvature="0" />
	<path style="fill:none;stroke:red;stroke-width:1px;stroke-linecap:butt;stroke-linejoin:miter;stroke-opacity:1" d="M 114.584,335.751 114.584,368.275 z" id="boundary" inkscape:connector-curvature="0" />
	<path style="fill:none;stroke:red;stroke-width:1px;stroke-linecap:butt;stroke-linejoin:miter;stroke-opacity:1" d="M 114.584,368.275 114.584,400.8 z" id="boundary" inkscape:connector-curvature="0" />
	<path style="fill:none;stroke:red;stroke-width:1px;stroke-linecap:butt;stroke-linejoin:miter;stroke-opacity:1" d="M 114.584,400.8 117.836,433.325 z" id="boundary" inkscape:connector-curvature="0" />
	<path style="fill:none;stroke:red;stroke-width:1px;stroke-linecap:butt;stroke-linejoin:miter;stroke-opacity:1" d="M 117.836,433.325 150.361,436.577 z" id="boundary" inkscape:connector-curvature="0" />
	<path style="fill:none;stroke:red;stroke-width:1px;stroke-linecap:butt;stroke-linejoin:miter;stroke-opacity:1" d="M 150.361,436.577 182.885,436.577 z" id="boundary" inkscape:connector-curvature="0" />
	<path style="fill:none;stroke:red;stroke-width:1px;stroke-linecap:butt;stroke-linejoin:miter;stroke-opacity:1" d="M 182.885,436.577 215.41,436.577 z" id="boundary" inkscape:connector-curvature="0" />
	<path style="fill:none;stroke:red;stroke-width:1px;stroke-linecap:butt;stroke-linejoin:miter;stroke-opacity:1" d="M 215.41,436.577 247.934,436.577 z" id="boundary" inkscape:connector-curvature="0" />
	<path style="fill:none;stroke:red;stroke-width:1px;stroke-linecap:butt;stroke-linejoin:miter;stroke-opacity:1" d="M 247.934,436.577 280.459,436.577 z" id="boundary" inkscape:connector-curvature="0" />
	<path style="fill:none;stroke:red;stroke-width:1px;stroke-linecap:butt;stroke-linejoin:miter;stroke-opacity:1" d="M 280.459,436.577 312.984,436.577 z" id="boundary" inkscape:connector-curvature="0" />
	<path style="fill:none;stroke:red;stroke-width:1px;stroke-linecap:butt;stroke-linejoin:miter;stroke-opacity:1" d="M 312.984,436.577 345.508,436.577 z" id="boundary" inkscape:connector-curvature="0" />
	<path style="fill:none;stroke:red;stroke-width:1px;stroke-linecap:butt;stroke-linejoin:miter;stroke-opacity:1" d="M 345.508,436.577 378.033,436.577 z" id="boundary" inkscape:connector-curvature="0" />
	<path style="fill:none;stroke:red;stroke-width:1px;stroke-linecap:butt;stroke-linejoin:miter;stroke-opacity:1" d="M 378.033,436.577 387.79,469.102 z" id="boundary" inkscape:connector-curvature="0" />
	<path style="fill:none;stroke:red;stroke-width:1px;stroke-linecap:butt;stroke-linejoin:miter;stroke-opacity:1" d="M 387.79,469.102 387.79,501.626 z" id="boundary" inkscape:connector-curvature="0" />
	<path style="fill:none;stroke:red;stroke-width:1px;stroke-linecap:butt;stroke-linejoin:miter;stroke-opacity:1" d="M 387.79,501.626 384.538,540.656 z" id="boundary" inkscape:connector-curvature="0" />
	<path style="fill:none;stroke:red;stroke-width:1px;stroke-linecap:butt;stroke-linejoin:miter;stroke-opacity:1" d="M 384.538,540.656 352.013,543.908 z" id="boundary" inkscape:connector-curvature="0" />
	<path style="fill:none;stroke:red;stroke-width:1px;stroke-linecap:butt;stroke-linejoin:miter;stroke-opacity:1" d="M 352.013,543.908 319.489,543.908 z" id="boundary" inkscape:connector-curvature="0" />
	<path style="fill:none;stroke:red;stroke-width:1px;stroke-linecap:butt;stroke-linejoin:miter;stroke-opacity:1" d="M 319.489,543.908 286.964,543.908 z" id="boundary" inkscape:connector-curvature="0" />
	<path style="fill:none;stroke:red;stroke-width:1px;stroke-linecap:butt;stroke-linejoin:miter;stroke-opacity:1" d="M 286.964,543.908 254.439,543.908 z" id="boundary" inkscape:connector-curvature="0" />
	<path style="fill:none;stroke:red;stroke-width:1px;stroke-linecap:butt;stroke-linejoin:miter;stroke-opacity:1" d="M 254.439,543.908 221.915,543.908 z" id="boundary" inkscape:connector-curvature="0" />
	<path style="fill:none;stroke:red;stroke-width:1px;stroke-linecap:butt;stroke-linejoin:miter;stroke-opacity:1" d="M 221.915,543.908 189.39,543.908 z" id="boundary" inkscape:connector-curvature="0" />
	<path style="fill:none;stroke:red;stroke-width:1px;stroke-linecap:butt;stroke-linejoin:miter;stroke-opacity:1" d="M 189.39,543.908 156.866,543.908 z" id="boundary" inkscape:connector-curvature="0" />
	<path style="fill:none;stroke:red;stroke-width:1px;stroke-linecap:butt;stroke-linejoin:miter;stroke-opacity:1" d="M 156.866,543.908 124.341,543.908 z" id="boundary" inkscape:connector-curvature="0" />
	<path style="fill:none;stroke:red;stroke-width:1px;stroke-linecap:butt;stroke-linejoin:miter;stroke-opacity:1" d="M 124.341,543.908 140.603,573.18 z" id="boundary" inkscape:connector-curvature="0" />
	<path style="fill:none;stroke:red;stroke-width:1px;stroke-linecap:butt;stroke-linejoin:miter;stroke-opacity:1" d="M 140.603,573.18 108.079,573.18 z" id="boundary" inkscape:connector-curvature="0" />
	<path style="fill:none;stroke:red;stroke-width:1px;stroke-linecap:butt;stroke-linejoin:miter;stroke-opacity:1" d="M 108.079,573.18 82.059,550.413 z" id="boundary" inkscape:connector-curvature="0" />
	<path style="fill:none;stroke:red;stroke-width:1px;stroke-linecap:butt;stroke-linejoin:miter;stroke-opacity:1" d="M 374.78,647.987 387.79,599.2 z" id="boundary" inkscape:connector-curvature="0" />
	<path style="fill:none;stroke:red;stroke-width:1px;stroke-linecap:butt;stroke-linejoin:miter;stroke-opacity:1" d="M 387.79,599.2 368.275,573.18 z" id="boundary" inkscape:connector-curvature="0" />
	<path style="fill:none;stroke:red;stroke-width:1px;stroke-linecap:butt;stroke-linejoin:miter;stroke-opacity:1" d="M 368.275,573.18 335.751,573.18 z" id="boundary" inkscape:connector-curvature="0" />
	<path style="fill:none;stroke:red;stroke-width:1px;stroke-linecap:butt;stroke-linejoin:miter;stroke-opacity:1" d="M 335.751,573.18 303.226,573.18 z" id="boundary" inkscape:connector-curvature="0" />
	<path style="fill:none;stroke:red;stroke-width:1px;stroke-linecap:butt;stroke-linejoin:miter;stroke-opacity:1" d="M 303.226,573.18 270.702,573.18 z" id="boundary" inkscape:connector-curvature="0" />
	<path style="fill:none;stroke:red;stroke-width:1px;stroke-linecap:butt;stroke-linejoin:miter;stroke-opacity:1" d="M 270.702,573.18 238.177,573.18 z" id="boundary" inkscape:connector-curvature="0" />
	<path style="fill:none;stroke:red;stroke-width:1px;stroke-linecap:butt;stroke-linejoin:miter;stroke-opacity:1" d="M 238.177,573.18 205.652,573.18 z" id="boundary" inkscape:connector-curvature="0" />
	<path style="fill:none;stroke:red;stroke-width:1px;stroke-linecap:butt;stroke-linejoin:miter;stroke-opacity:1" d="M 205.652,573.18 173.128,573.18 z" id="boundary" inkscape:connector-curvature="0" />
	<path style="fill:none;stroke:red;stroke-width:1px;stroke-linecap:butt;stroke-linejoin:miter;stroke-opacity:1" d="M 644.734,647.987 612.21,647.987 z" id="boundary" inkscape:connector-curvature="0" />
	<path style="fill:none;stroke:red;stroke-width:1px;stroke-linecap:butt;stroke-linejoin:miter;stroke-opacity:1" d="M 644.734,647.987 677.259,647.987 z" id="boundary" inkscape:connector-curvature="0" />
	<path style="fill:none;stroke:red;stroke-width:1px;stroke-linecap:butt;stroke-linejoin:miter;stroke-opacity:1" d="M 677.259,647.987 709.784,647.987 z" id="boundary" inkscape:connector-curvature="0" />
	<path style="fill:none;stroke:red;stroke-width:1px;stroke-linecap:butt;stroke-linejoin:miter;stroke-opacity:1" d="M 709.784,647.987 742.308,647.987 z" id="boundary" inkscape:connector-curvature="0" />
	<path style="fill:none;stroke:red;stroke-width:1px;stroke-linecap:butt;stroke-linejoin:miter;stroke-opacity:1" d="M 742.308,647.987 774.833,647.987 z" id="boundary" inkscape:connector-curvature="0" />
	<path style="fill:none;stroke:red;stroke-width:1px;stroke-linecap:butt;stroke-linejoin:miter;stroke-opacity:1" d="M 774.833,647.987 807.357,647.987 z" id="boundary" inkscape:connector-curvature="0" />
	<path style="fill:none;stroke:red;stroke-width:1px;stroke-linecap:butt;stroke-linejoin:miter;stroke-opacity:1" d="M 807.357,647.987 839.882,647.987 z" id="boundary" inkscape:connector-curvature="0" />
	<path style="fill:none;stroke:red;stroke-width:1px;stroke-linecap:butt;stroke-linejoin:miter;stroke-opacity:1" d="M 839.882,647.987 872.407,647.987 z" id="boundary" inkscape:connector-curvature="0" />
	<path style="fill:none;stroke:red;stroke-width:1px;stroke-linecap:butt;stroke-linejoin:miter;stroke-opacity:1" d="M 872.407,647.987 904.931,647.987 z" id="boundary" inkscape:connector-curvature="0" />
	<path style="fill:none;stroke:red;stroke-width:1px;stroke-linecap:butt;stroke-linejoin:miter;stroke-opacity:1" d="M 904.931,647.987 937.456,647.987 z" id="boundary" inkscape:connector-curvature="0" />
	<path style="fill:none;stroke:red;stroke-width:1px;stroke-linecap:butt;stroke-linejoin:miter;stroke-opacity:1" d="M 612.21,647.987 628.472,677.259 z" id="boundary" inkscape:connector-curvature="0" />
	<path style="fill:none;stroke:red;stroke-width:1px;stroke-linecap:butt;stroke-linejoin:miter;stroke-opacity:1" d="M 628.472,677.259 660.997,677.259 z" id="boundary" inkscape:connector-curvature="0" />
	<path style="fill:none;stroke:red;stroke-width:1px;stroke-linecap:butt;stroke-linejoin:miter;stroke-opacity:1" d="M 660.997,677.259 693.521,677.259 z" id="boundary" inkscape:connector-curvature="0" />
	<path style="fill:none;stroke:red;stroke-width:1px;stroke-linecap:butt;stroke-linejoin:miter;stroke-opacity:1" d="M 693.521,677.259 726.046,677.259 z" id="boundary" inkscape:connector-curvature="0" />
	<path style="fill:none;stroke:red;stroke-width:1px;stroke-linecap:butt;stroke-linejoin:miter;stroke-opacity:1" d="M 726.046,677.259 758.57,677.259 z" id="boundary" inkscape:connector-curvature="0" />
	<path style="fill:none;stroke:red;stroke-width:1px;stroke-linecap:butt;stroke-linejoin:miter;stroke-opacity:1" d="M 758.57,677.259 791.095,677.259 z" id="boundary" inkscape:connector-curvature="0" />
	<path style="fill:none;stroke:red;stroke-width:1px;stroke-linecap:butt;stroke-linejoin:miter;stroke-opacity:1" d="M 791.095,677.259 823.62,677.259 z" id="boundary" inkscape:connector-curvature="0" />
	<path style="fill:none;stroke:red;stroke-width:1px;stroke-linecap:butt;stroke-linejoin:miter;stroke-opacity:1" d="M 823.62,677.259 856.144,677.259 z" id="boundary" inkscape:connector-curvature="0" />
	<path style="fill:none;stroke:red;stroke-width:1px;stroke-linecap:butt;stroke-linejoin:miter;stroke-opacity:1" d="M 856.144,677.259 888.669,677.259 z" id="boundary" inkscape:connector-curvature="0" />
	<path style="fill:none;stroke:red;stroke-width:1px;stroke-linecap:butt;stroke-linejoin:miter;stroke-opacity:1" d="M 888.669,677.259 921.193,677.259 z" id="boundary" inkscape:connector-curvature="0" />
	<path style="fill:none;stroke:red;stroke-width:1px;stroke-linecap:butt;stroke-linejoin:miter;stroke-opacity:1" d="M 937.456,647.987 921.193,677.259 z" id="boundary" inkscape:connector-curvature="0" />
	<path style="fill:none;stroke:red;stroke-width:1px;stroke-linecap:butt;stroke-linejoin:miter;stroke-opacity:1" d="M 612.21,543.908 644.734,543.908 z" id="boundary" inkscape:connector-curvature="0" />
	<path style="fill:none;stroke:red;stroke-width:1px;stroke-linecap:butt;stroke-linejoin:miter;stroke-opacity:1" d="M 644.734,543.908 677.259,543.908 z" id="boundary" inkscape:connector-curvature="0" />
	<path style="fill:none;stroke:red;stroke-width:1px;stroke-linecap:butt;stroke-linejoin:miter;stroke-opacity:1" d="M 677.259,543.908 709.784,543.908 z" id="boundary" inkscape:connector-curvature="0" />
	<path style="fill:none;stroke:red;stroke-width:1px;stroke-linecap:butt;stroke-linejoin:miter;stroke-opacity:1" d="M 709.784,543.908 742.308,543.908 z" id="boundary" inkscape:connector-curvature="0" />
	<path style="fill:none;stroke:red;stroke-width:1px;stroke-linecap:butt;stroke-linejoin:miter;stroke-opacity:1" d="M 742.308,543.908 774.833,543.908 z" id="boundary" inkscape:connector-curvature="0" />
	<path style="fill:none;stroke:red;stroke-width:1px;stroke-linecap:butt;stroke-linejoin:miter;stroke-opacity:1" d="M 774.833,543.908 807.357,543.908 z" id="boundary" inkscape:connector-curvature="0" />
	<path style="fill:none;stroke:red;stroke-width:1px;stroke-linecap:butt;stroke-linejoin:miter;stroke-opacity:1" d="M 807.357,543.908 839.882,543.908 z" id="boundary" inkscape:connector-curvature="0" />
	<path style="fill:none;stroke:red;stroke-width:1px;stroke-linecap:butt;stroke-linejoin:miter;stroke-opacity:1" d="M 839.882,543.908 872.407,543.908 z" id="boundary" inkscape:connector-curvature="0" />
	<path style="fill:none;stroke:red;stroke-width:1px;stroke-linecap:butt;stroke-linejoin:miter;stroke-opacity:1" d="M 872.407,543.908 904.931,543.908 z" id="boundary" inkscape:connector-curvature="0" />
	<path style="fill:none;stroke:red;stroke-width:1px;stroke-linecap:butt;stroke-linejoin:miter;stroke-opacity:1" d="M 904.931,543.908 937.456,543.908 z" id="boundary" inkscape:connector-curvature="0" />
	<path style="fill:none;stroke:red;stroke-width:1px;stroke-linecap:butt;stroke-linejoin:miter;stroke-opacity:1" d="M 937.456,543.908 921.193,573.18 z" id="boundary" inkscape:connector-curvature="0" />
	<path style="fill:none;stroke:red;stroke-width:1px;stroke-linecap:butt;stroke-linejoin:miter;stroke-opacity:1" d="M 921.193,573.18 888.669,573.18 z" id="boundary" inkscape:connector-curvature="0" />
	<path style="fill:none;stroke:red;stroke-width:1px;stroke-linecap:butt;stroke-linejoin:miter;stroke-opacity:1" d="M 888.669,573.18 856.144,573.18 z" id="boundary" inkscape:connector-curvature="0" />
	<path style="fill:none;stroke:red;stroke-width:1px;stroke-linecap:butt;stroke-linejoin:miter;stroke-opacity:1" d="M 856.144,573.18 823.62,573.18 z" id="boundary" inkscape:connector-curvature="0" />
	<path style="fill:none;stroke:red;stroke-width:1px;stroke-linecap:butt;stroke-linejoin:miter;stroke-opacity:1" d="M 823.62,573.18 791.095,573.18 z" id="boundary" inkscape:connector-curvature="0" />
	<path style="fill:none;stroke:red;stroke-width:1px;stroke-linecap:butt;stroke-linejoin:miter;stroke-opacity:1" d="M 791.095,573.18 758.57,573.18 z" id="boundary" inkscape:connector-curvature="0" />
	<path style="fill:none;stroke:red;stroke-width:1px;stroke-linecap:butt;stroke-linejoin:miter;stroke-opacity:1" d="M 758.57,573.18 726.046,573.18 z" id="boundary" inkscape:connector-curvature="0" />
	<path style="fill:none;stroke:red;stroke-width:1px;stroke-linecap:butt;stroke-linejoin:miter;stroke-opacity:1" d="M 726.046,573.18 693.521,573.18 z" id="boundary" inkscape:connector-curvature="0" />
	<path style="fill:none;stroke:red;stroke-width:1px;stroke-linecap:butt;stroke-linejoin:miter;stroke-opacity:1" d="M 693.521,573.18 660.997,573.18 z" id="boundary" inkscape:connector-curvature="0" />
	<path style="fill:none;stroke:red;stroke-width:1px;stroke-linecap:butt;stroke-linejoin:miter;stroke-opacity:1" d="M 660.997,573.18 628.472,573.18 z" id="boundary" inkscape:connector-curvature="0" />
	<path style="fill:none;stroke:red;stroke-width:1px;stroke-linecap:butt;stroke-linejoin:miter;stroke-opacity:1" d="M 612.21,543.908 628.472,573.18 z" id="boundary" inkscape:connector-curvature="0" />
	<circle cx="4" cy="758.57" r="4" fill="#0" id="circle0"/>
	<circle cx="4" cy="791.095" r="4" fill="#0" id="circle1"/>
	<circle cx="26.7672" cy="817.115" r="4" fill="#0" id="circle2"/>
	<circle cx="36.5246" cy="745.561" r="4" fill="#0" id="circle3"/>
	<circle cx="59.2918" cy="820.367" r="4" fill="#0" id="circle4"/>
	<circle cx="69.0492" cy="745.561" r="4" fill="#0" id="circle5"/>
	<circle cx="82.059" cy="550.413" r="4" fill="#0" id="circle6"/>
	<circle cx="82.059" cy="647.987" r="4" fill="#0" id="circle7"/>
	<circle cx="91.8164" cy="813.862" r="4" fill="#0" id="circle8"/>
	<circle cx="98.3213" cy="677.259" r="4" fill="#0" id="circle9"/>
	<circle cx="101.574" cy="745.561" r="4" fill="#0" id="circle10"/>
	<circle cx="108.079" cy="573.18" r="4" fill="#0" id="circle11"/>
	<circle cx="114.584" cy="10.5049" r="4" fill="#0" id="circle12"/>
	<circle cx="114.584" cy="43.0295" r="4" fill="#0" id="circle13"/>
	<circle cx="114.584" cy="75.5541" r="4" fill="#0" id="circle14"/>
	<circle cx="114.584" cy="108.079" r="4" fill="#0" id="circle15"/>
	<circle cx="114.584" cy="140.603" r="4" fill="#0" id="circle16"/>
	<circle cx="114.584" cy="173.128" r="4" fill="#0" id="circle17"/>
	<circle cx="114.584" cy="205.652" r="4" fill="#0" id="circle18"/>
	<circle cx="114.584" cy="238.177" r="4" fill="#0" id="circle19"/>
	<circle cx="114.584" cy="270.702" r="4" fill="#0" id="circle20"/>
	<circle cx="114.584" cy="303.226" r="4" fill="#0" id="circle21"/>
	<circle cx="114.584" cy="335.751" r="4" fill="#0" id="circle22"/>
	<circle cx="114.584" cy="368.275" r="4" fill="#0" id="circle23"/>
	<circle cx="114.584" cy="400.8" r="4" fill="#0" id="circle24"/>
	<circle cx="114.584" cy="647.987" r="4" fill="#0" id="circle25"/>
	<circle cx="117.836" cy="433.325" r="4" fill="#0" id="circle26"/>
	<circle cx="124.341" cy="543.908" r="4" fill="#0" id="circle27"/>
	<circle cx="124.341" cy="817.115" r="4" fill="#0" id="circle28"/>
	<circle cx="130.846" cy="677.259" r="4" fill="#0" id="circle29"/>
	<circle cx="134.098" cy="745.561" r="4" fill="#0" id="circle30"/>
	<circle cx="140.603" cy="573.18" r="4" fill="#0" id="circle31"/>
	<circle cx="147.108" cy="4" r="4" fill="#0" id="circle32"/>
	<circle cx="147.108" cy="647.987" r="4" fill="#0" id="circle33"/>
	<circle cx="150.361" cy="436.577" r="4" fill="#0" id="circle34"/>
	<circle cx="156.866" cy="543.908" r="4" fill="#0" id="circle35"/>
	<circle cx="156.866" cy="813.862" r="4" fill="#0" id="circle36"/>
	<circle cx="163.37" cy="677.259" r="4" fill="#0" id="circle37"/>
	<circle cx="166.623" cy="745.561" r="4" fill="#0" id="circle38"/>
	<circle cx="173.128" cy="573.18" r="4" fill="#0" id="circle39"/>
	<circle cx="179.633" cy="4" r="4" fill="#0" id="circle40"/>
	<circle cx="179.633" cy="647.987" r="4" fill="#0" id="circle41"/>
	<circle cx="182.885" cy="436.577" r="4" fill="#0" id="circle42"/>
	<circle cx="189.39" cy="543.908" r="4" fill="#0" id="circle43"/>
	<circle cx="189.39" cy="813.862" r="4" fill="#0" id="circle44"/>
	<circle cx="195.895" cy="677.259" r="4" fill="#0" id="circle45"/>
	<circle cx="199.148" cy="745.561" r="4" fill="#0" id="circle46"/>
	<circle cx="205.652" cy="573.18" r="4" fill="#0" id="circle47"/>
	<circle cx="212.157" cy="4" r="4" fill="#0" id="circle48"/>
	<circle cx="212.157" cy="647.987" r="4" fill="#0" id="circle49"/>
	<circle cx="215.41" cy="436.577" r="4" fill="#0" id="circle50"/>
	<circle cx="221.915" cy="543.908" r="4" fill="#0" id="circle51"/>
	<circle cx="221.915" cy="813.862" r="4" fill="#0" id="circle52"/>
	<circle cx="228.42" cy="677.259" r="4" fill="#0" id="circle53"/>
	<circle cx="231.672" cy="745.561" r="4" fill="#0" id="circle54"/>
	<circle cx="238.177" cy="573.18" r="4" fill="#0" id="circle55"/>
	<circle cx="244.682" cy="4" r="4" fill="#0" id="circle56"/>
	<circle cx="244.682" cy="647.987" r="4" fill="#0" id="circle57"/>
	<circle cx="247.934" cy="436.577" r="4" fill="#0" id="circle58"/>
	<circle cx="254.439" cy="543.908" r="4" fill="#0" id="circle59"/>
	<circle cx="254.439" cy="813.862" r="4" fill="#0" id="circle60"/>
	<circle cx="260.944" cy="677.259" r="4" fill="#0" id="circle61"/>
	<circle cx="264.197" cy="745.561" r="4" fill="#0" id="circle62"/>
	<circle cx="270.702" cy="573.18" r="4" fill="#0" id="circle63"/>
	<circle cx="277.207" cy="4" r="4" fill="#0" id="circle64"/>
	<circle cx="277.207" cy="647.987" r="4" fill="#0" id="circle65"/>
	<circle cx="280.459" cy="436.577" r="4" fill="#0" id="circle66"/>
	<circle cx="286.964" cy="543.908" r="4" fill="#0" id="circle67"/>
	<circle cx="286.964" cy="813.862" r="4" fill="#0" id="circle68"/>
	<circle cx="293.469" cy="677.259" r="4" fill="#0" id="circle69"/>
	<circle cx="296.721" cy="745.561" r="4" fill="#0" id="circle70"/>
	<circle cx="303.226" cy="573.18" r="4" fill="#0" id="circle71"/>
	<circle cx="309.731" cy="4" r="4" fill="#0" id="circle72"/>
	<circle cx="309.731" cy="647.987" r="4" fill="#0" id="circle73"/>
	<circle cx="312.984" cy="436.577" r="4" fill="#0" id="circle74"/>
	<circle cx="319.489" cy="543.908" r="4" fill="#0" id="circle75"/>
	<circle cx="319.489" cy="813.862" r="4" fill="#0" id="circle76"/>
	<circle cx="325.993" cy="677.259" r="4" fill="#0" id="circle77"/>
	<circle cx="329.246" cy="745.561" r="4" fill="#0" id="circle78"/>
	<circle cx="335.751" cy="573.18" r="4" fill="#0" id="circle79"/>
	<circle cx="342.256" cy="4" r="4" fill="#0" id="circle80"/>
	<circle cx="342.256" cy="647.987" r="4" fill="#0" id="circle81"/>
	<circle cx="345.508" cy="436.577" r="4" fill="#0" id="circle82"/>
	<circle cx="352.013" cy="543.908" r="4" fill="#0" id="circle83"/>
	<circle cx="352.013" cy="813.862" r="4" fill="#0" id="circle84"/>
	<circle cx="358.518" cy="677.259" r="4" fill="#0" id="circle85"/>
	<circle cx="361.77" cy="745.561" r="4" fill="#0" id="circle86"/>
	<circle cx="368.275" cy="573.18" r="4" fill="#0" id="circle87"/>
	<circle cx="374.78" cy="4" r="4" fill="#0" id="circle88"/>
	<circle cx="374.78" cy="647.987" r="4" fill="#0" id="circle89"/>
	<circle cx="378.033" cy="436.577" r="4" fill="#0" id="circle90"/>
	<circle cx="384.538" cy="540.656" r="4" fill="#0" id="circle91"/>
	<circle cx="384.538" cy="813.862" r="4" fill="#0" id="circle92"/>
	<circle cx="387.79" cy="469.102" r="4" fill="#0" id="circle93"/>
	<circle cx="387.79" cy="501.626" r="4" fill="#0" id="circle94"/>
	<circle cx="387.79" cy="599.2" r="4" fill="#0" id="circle95"/>
	<circle cx="387.79" cy="693.521" r="4" fill="#0" id="circle96"/>
	<circle cx="387.79" cy="726.046" r="4" fill="#0" id="circle97"/>
	<circle cx="407.305" cy="4" r="4" fill="#0" id="circle98"/>
	<circle cx="417.062" cy="813.862" r="4" fill="#0" id="circle99"/>
	<circle cx="439.83" cy="4" r="4" fill="#0" id="circle100"/>
	<circle cx="449.587" cy="813.862" r="4" fill="#0" id="circle101"/>
	<circle cx="472.354" cy="4" r="4" fill="#0" id="circle102"/>
	<circle cx="482.111" cy="813.862" r="4" fill="#0" id="circle103"/>
	<circle cx="504.879" cy="4" r="4" fill="#0" id="circle104"/>
	<circle cx="514.636" cy="813.862" r="4" fill="#0" id="circle105"/>
	<circle cx="537.403" cy="4" r="4" fill="#0" id="circle106"/>
	<circle cx="547.161" cy="813.862" r="4" fill="#0" id="circle107"/>
	<circle cx="569.928" cy="4" r="4" fill="#0" id="circle108"/>
	<circle cx="579.685" cy="439.83" r="4" fill="#0" id="circle109"/>
	<circle cx="579.685" cy="472.354" r="4" fill="#0" id="circle110"/>
	<circle cx="579.685" cy="504.879" r="4" fill="#0" id="circle111"/>
	<circle cx="579.685" cy="537.403" r="4" fill="#0" id="circle112"/>
	<circle cx="579.685" cy="576.433" r="4" fill="#0" id="circle113"/>
	<circle cx="579.685" cy="608.957" r="4" fill="#0" id="circle114"/>
	<circle cx="579.685" cy="641.482" r="4" fill="#0" id="circle115"/>
	<circle cx="579.685" cy="680.511" r="4" fill="#0" id="circle116"/>
	<circle cx="579.685" cy="713.036" r="4" fill="#0" id="circle117"/>
	<circle cx="579.685" cy="813.862" r="4" fill="#0" id="circle118"/>
	<circle cx="582.938" cy="745.561" r="4" fill="#0" id="circle119"/>
	<circle cx="602.452" cy="4" r="4" fill="#0" id="circle120"/>
	<circle cx="612.21" cy="436.577" r="4" fill="#0" id="circle121"/>
	<circle cx="612.21" cy="543.908" r="4" fill="#0" id="circle122"/>
	<circle cx="612.21" cy="647.987" r="4" fill="#0" id="circle123"/>
	<circle cx="612.21" cy="813.862" r="4" fill="#0" id="circle124"/>
	<circle cx="615.462" cy="745.561" r="4" fill="#0" id="circle125"/>
	<circle cx="628.472" cy="573.18" r="4" fill="#0" id="circle126"/>
	<circle cx="628.472" cy="677.259" r="4" fill="#0" id="circle127"/>
	<circle cx="634.977" cy="4" r="4" fill="#0" id="circle128"/>
	<circle cx="644.734" cy="436.577" r="4" fill="#0" id="circle129"/>
	<circle cx="644.734" cy="543.908" r="4" fill="#0" id="circle130"/>
	<circle cx="644.734" cy="647.987" r="4" fill="#0" id="circle131"/>
	<circle cx="644.734" cy="813.862" r="4" fill="#0" id="circle132"/>
	<circle cx="647.987" cy="745.561" r="4" fill="#0" id="circle133"/>
	<circle cx="660.997" cy="573.18" r="4" fill="#0" id="circle134"/>
	<circle cx="660.997" cy="677.259" r="4" fill="#0" id="circle135"/>
	<circle cx="667.502" cy="4" r="4" fill="#0" id="circle136"/>
	<circle cx="677.259" cy="436.577" r="4" fill="#0" id="circle137"/>
	<circle cx="677.259" cy="543.908" r="4" fill="#0" id="circle138"/>
	<circle cx="677.259" cy="647.987" r="4" fill="#0" id="circle139"/>
	<circle cx="677.259" cy="813.862" r="4" fill="#0" id="circle140"/>
	<circle cx="680.511" cy="745.561" r="4" fill="#0" id="circle141"/>
	<circle cx="693.521" cy="573.18" r="4" fill="#0" id="circle142"/>
	<circle cx="693.521" cy="677.259" r="4" fill="#0" id="circle143"/>
	<circle cx="700.026" cy="4" r="4" fill="#0" id="circle144"/>
	<circle cx="709.784" cy="436.577" r="4" fill="#0" id="circle145"/>
	<circle cx="709.784" cy="543.908" r="4" fill="#0" id="circle146"/>
	<circle cx="709.784" cy="647.987" r="4" fill="#0" id="circle147"/>
	<circle cx="709.784" cy="813.862" r="4" fill="#0" id="circle148"/>
	<circle cx="713.036" cy="745.561" r="4" fill="#0" id="circle149"/>
	<circle cx="726.046" cy="573.18" r="4" fill="#0" id="circle150"/>
	<circle cx="726.046" cy="677.259" r="4" fill="#0" id="circle151"/>
	<circle cx="732.551" cy="4" r="4" fill="#0" id="circle152"/>
	<circle cx="742.308" cy="436.577" r="4" fill="#0" id="circle153"/>
	<circle cx="742.308" cy="543.908" r="4" fill="#0" id="circle154"/>
	<circle cx="742.308" cy="647.987" r="4" fill="#0" id="circle155"/>
	<circle cx="742.308" cy="813.862" r="4" fill="#0" id="circle156"/>
	<circle cx="745.561" cy="745.561" r="4" fill="#0" id="circle157"/>
	<circle cx="758.57" cy="573.18" r="4" fill="#0" id="circle158"/>
	<circle cx="758.57" cy="677.259" r="4" fill="#0" id="circle159"/>
	<circle cx="765.075" cy="4" r="4" fill="#0" id="circle160"/>
	<circle cx="774.833" cy="436.577" r="4" fill="#0" id="circle161"/>
	<circle cx="774.833" cy="543.908" r="4" fill="#0" id="circle162"/>
	<circle cx="774.833" cy="647.987" r="4" fill="#0" id="circle163"/>
	<circle cx="774.833" cy="813.862" r="4" fill="#0" id="circle164"/>
	<circle cx="778.085" cy="745.561" r="4" fill="#0" id="circle165"/>
	<circle cx="791.095" cy="573.18" r="4" fill="#0" id="circle166"/>
	<circle cx="791.095" cy="677.259" r="4" fill="#0" id="circle167"/>
	<circle cx="797.6" cy="4" r="4" fill="#0" id="circle168"/>
	<circle cx="807.357" cy="436.577" r="4" fill="#0" id="circle169"/>
	<circle cx="807.357" cy="543.908" r="4" fill="#0" id="circle170"/>
	<circle cx="807.357" cy="647.987" r="4" fill="#0" id="circle171"/>
	<circle cx="807.357" cy="813.862" r="4" fill="#0" id="circle172"/>
	<circle cx="810.61" cy="745.561" r="4" fill="#0" id="circle173"/>
	<circle cx="823.62" cy="573.18" r="4" fill="#0" id="circle174"/>
	<circle cx="823.62" cy="677.259" r="4" fill="#0" id="circle175"/>
	<circle cx="830.125" cy="4" r="4" fill="#0" id="circle176"/>
	<circle cx="839.882" cy="436.577" r="4" fill="#0" id="circle177"/>
	<circle cx="839.882" cy="543.908" r="4" fill="#0" id="circle178"/>
	<circle cx="839.882" cy="647.987" r="4" fill="#0" id="circle179"/>
	<circle cx="839.882" cy="813.862" r="4" fill="#0" id="circle180"/>
	<circle cx="843.134" cy="745.561" r="4" fill="#0" id="circle181"/>
	<circle cx="856.144" cy="573.18" r="4" fill="#0" id="circle182"/>
	<circle cx="856.144" cy="677.259" r="4" fill="#0" id="circle183"/>
	<circle cx="862.649" cy="4" r="4" fill="#0" id="circle184"/>
	<circle cx="872.407" cy="303.226" r="4" fill="#0" id="circle185"/>
	<circle cx="872.407" cy="335.751" r="4" fill="#0" id="circle186"/>
	<circle cx="872.407" cy="368.275" r="4" fill="#0" id="circle187"/>
	<circle cx="872.407" cy="400.8" r="4" fill="#0" id="circle188"/>
	<circle cx="872.407" cy="433.325" r="4" fill="#0" id="circle189"/>
	<circle cx="872.407" cy="543.908" r="4" fill="#0" id="circle190"/>
	<circle cx="872.407" cy="647.987" r="4" fill="#0" id="circle191"/>
	<circle cx="872.407" cy="813.862" r="4" fill="#0" id="circle192"/>
	<circle cx="875.659" cy="745.561" r="4" fill="#0" id="circle193"/>
	<circle cx="878.911" cy="33.2721" r="4" fill="#0" id="circle194"/>
	<circle cx="878.911" cy="65.7967" r="4" fill="#0" id="circle195"/>
	<circle cx="878.911" cy="98.3213" r="4" fill="#0" id="circle196"/>
	<circle cx="878.911" cy="130.846" r="4" fill="#0" id="circle197"/>
	<circle cx="878.911" cy="163.37" r="4" fill="#0" id="circle198"/>
	<circle cx="878.911" cy="195.895" r="4" fill="#0" id="circle199"/>
	<circle cx="878.911" cy="228.42" r="4" fill="#0" id="circle200"/>
	<circle cx="878.911" cy="260.944" r="4" fill="#0" id="circle201"/>
	<circle cx="888.669" cy="573.18" r="4" fill="#0" id="circle202"/>
	<circle cx="888.669" cy="677.259" r="4" fill="#0" id="circle203"/>
	<circle cx="904.931" cy="543.908" r="4" fill="#0" id="circle204"/>
	<circle cx="904.931" cy="647.987" r="4" fill="#0" id="circle205"/>
	<circle cx="904.931" cy="813.862" r="4" fill="#0" id="circle206"/>
	<circle cx="908.184" cy="745.561" r="4" fill="#0" id="circle207"/>
	<circle cx="921.193" cy="573.18" r="4" fill="#0" id="circle208"/>
	<circle cx="921.193" cy="677.259" r="4" fill="#0" id="circle209"/>
	<circle cx="937.456" cy="543.908" r="4" fill="#0" id="circle210"/>
	<circle cx="937.456" cy="647.987" r="4" fill="#0" id="circle211"/>
	<circle cx="937.456" cy="813.862" r="4" fill="#0" id="circle212"/>
	<circle cx="940.708" cy="745.561" r="4" fill="#0" id="circle213"/>
	<circle cx="969.98" cy="823.62" r="4" fill="#0" id="circle214"/>
	<circle cx="973.233" cy="745.561" r="4" fill="#0" id="circle215"/>
	<circle cx="996" cy="771.58" r="4" fill="#0" id="circle216"/>
	<circle cx="996" cy="804.105" r="4" fill="#0" id="circle217"/>
	</g>
</svg>