<?xml version="1.0" encoding="UTF-8" standalone="no"?>
<!-- Created with CurveBenchmark -->
<svg
	xmlns:dc="http://purl.org/dc/elements/1.1/"
	xmlns:cc="http://creativecommons.org/ns#"
	xmlns:rdf="http://www.w3.org/1999/02/22-rdf-syntax-ns#"
	xmlns:svg="http://www.w3.org/2000/svg"
	xmlns="http://www.w3.org/2000/svg"
	xmlns:sodipodi="http://sodipodi.sourceforge.net/DTD/sodipodi-0.dtd"
	xmlns:inkscape="http://www.inkscape.org/namespaces/inkscape"
	width="1000"
	height="1000"
	id="svg2"
	version="1.1"
	sodipodi:docname="manifold/crawl-Glas10.png.txt">
<defs
	id="defs4" />
<metadata
	id="metadata7">
	<rdf:RDF>
		<cc:Work
			rdf:about="">
			<dc:format>image/svg+xml</dc:format>
			<dc:type
				rdf:resource="http://purl.org/dc/dcmitype/StillImage" />
			<dc:title></dc:title>
		</cc:Work>
	</rdf:RDF>
</metadata>
<g
	inkscape:label="Layer 1"
	inkscape:groupmode="layer"
	id="layer1">
	<path style="fill:none;stroke:red;stroke-width:1px;stroke-linecap:butt;stroke-linejoin:miter;stroke-opacity:1" d="M 46.4277,996 34.3055,979.837 z" id="boundary" inkscape:connector-curvature="0" />
	<path style="fill:none;stroke:red;stroke-width:1px;stroke-linecap:butt;stroke-linejoin:miter;stroke-opacity:1" d="M 46.4277,996 66.6314,996 z" id="boundary" inkscape:connector-curvature="0" />
	<path style="fill:none;stroke:red;stroke-width:1px;stroke-linecap:butt;stroke-linejoin:miter;stroke-opacity:1" d="M 66.6314,996 86.835,996 z" id="boundary" inkscape:connector-curvature="0" />
	<path style="fill:none;stroke:red;stroke-width:1px;stroke-linecap:butt;stroke-linejoin:miter;stroke-opacity:1" d="M 86.835,996 107.039,996 z" id="boundary" inkscape:connector-curvature="0" />
	<path style="fill:none;stroke:red;stroke-width:1px;stroke-linecap:butt;stroke-linejoin:miter;stroke-opacity:1" d="M 107.039,996 127.242,996 z" id="boundary" inkscape:connector-curvature="0" />
	<path style="fill:none;stroke:red;stroke-width:1px;stroke-linecap:butt;stroke-linejoin:miter;stroke-opacity:1" d="M 127.242,996 147.446,996 z" id="boundary" inkscape:connector-curvature="0" />
	<path style="fill:none;stroke:red;stroke-width:1px;stroke-linecap:butt;stroke-linejoin:miter;stroke-opacity:1" d="M 147.446,996 167.65,996 z" id="boundary" inkscape:connector-curvature="0" />
	<path style="fill:none;stroke:red;stroke-width:1px;stroke-linecap:butt;stroke-linejoin:miter;stroke-opacity:1" d="M 167.65,996 187.853,996 z" id="boundary" inkscape:connector-curvature="0" />
	<path style="fill:none;stroke:red;stroke-width:1px;stroke-linecap:butt;stroke-linejoin:miter;stroke-opacity:1" d="M 187.853,996 208.057,996 z" id="boundary" inkscape:connector-curvature="0" />
	<path style="fill:none;stroke:red;stroke-width:1px;stroke-linecap:butt;stroke-linejoin:miter;stroke-opacity:1" d="M 208.057,996 228.261,996 z" id="boundary" inkscape:connector-curvature="0" />
	<path style="fill:none;stroke:red;stroke-width:1px;stroke-linecap:butt;stroke-linejoin:miter;stroke-opacity:1" d="M 228.261,996 248.464,996 z" id="boundary" inkscape:connector-curvature="0" />
	<path style="fill:none;stroke:red;stroke-width:1px;stroke-linecap:butt;stroke-linejoin:miter;stroke-opacity:1" d="M 248.464,996 268.668,996 z" id="boundary" inkscape:connector-curvature="0" />
	<path style="fill:none;stroke:red;stroke-width:1px;stroke-linecap:butt;stroke-linejoin:miter;stroke-opacity:1" d="M 268.668,996 288.872,996 z" id="boundary" inkscape:connector-curvature="0" />
	<path style="fill:none;stroke:red;stroke-width:1px;stroke-linecap:butt;stroke-linejoin:miter;stroke-opacity:1" d="M 288.872,996 309.075,996 z" id="boundary" inkscape:connector-curvature="0" />
	<path style="fill:none;stroke:red;stroke-width:1px;stroke-linecap:butt;stroke-linejoin:miter;stroke-opacity:1" d="M 309.075,996 329.279,996 z" id="boundary" inkscape:connector-curvature="0" />
	<path style="fill:none;stroke:red;stroke-width:1px;stroke-linecap:butt;stroke-linejoin:miter;stroke-opacity:1" d="M 329.279,996 349.483,996 z" id="boundary" inkscape:connector-curvature="0" />
	<path style="fill:none;stroke:red;stroke-width:1px;stroke-linecap:butt;stroke-linejoin:miter;stroke-opacity:1" d="M 349.483,996 369.686,996 z" id="boundary" inkscape:connector-curvature="0" />
	<path style="fill:none;stroke:red;stroke-width:1px;stroke-linecap:butt;stroke-linejoin:miter;stroke-opacity:1" d="M 369.686,996 389.89,996 z" id="boundary" inkscape:connector-curvature="0" />
	<path style="fill:none;stroke:red;stroke-width:1px;stroke-linecap:butt;stroke-linejoin:miter;stroke-opacity:1" d="M 389.89,996 410.094,996 z" id="boundary" inkscape:connector-curvature="0" />
	<path style="fill:none;stroke:red;stroke-width:1px;stroke-linecap:butt;stroke-linejoin:miter;stroke-opacity:1" d="M 410.094,996 430.297,996 z" id="boundary" inkscape:connector-curvature="0" />
	<path style="fill:none;stroke:red;stroke-width:1px;stroke-linecap:butt;stroke-linejoin:miter;stroke-opacity:1" d="M 430.297,996 450.501,996 z" id="boundary" inkscape:connector-curvature="0" />
	<path style="fill:none;stroke:red;stroke-width:1px;stroke-linecap:butt;stroke-linejoin:miter;stroke-opacity:1" d="M 450.501,996 470.705,996 z" id="boundary" inkscape:connector-curvature="0" />
	<path style="fill:none;stroke:red;stroke-width:1px;stroke-linecap:butt;stroke-linejoin:miter;stroke-opacity:1" d="M 470.705,996 490.908,996 z" id="boundary" inkscape:connector-curvature="0" />
	<path style="fill:none;stroke:red;stroke-width:1px;stroke-linecap:butt;stroke-linejoin:miter;stroke-opacity:1" d="M 490.908,996 511.112,996 z" id="boundary" inkscape:connector-curvature="0" />
	<path style="fill:none;stroke:red;stroke-width:1px;stroke-linecap:butt;stroke-linejoin:miter;stroke-opacity:1" d="M 511.112,996 531.316,996 z" id="boundary" inkscape:connector-curvature="0" />
	<path style="fill:none;stroke:red;stroke-width:1px;stroke-linecap:butt;stroke-linejoin:miter;stroke-opacity:1" d="M 531.316,996 551.519,996 z" id="boundary" inkscape:connector-curvature="0" />
	<path style="fill:none;stroke:red;stroke-width:1px;stroke-linecap:butt;stroke-linejoin:miter;stroke-opacity:1" d="M 551.519,996 571.723,996 z" id="boundary" inkscape:connector-curvature="0" />
	<path style="fill:none;stroke:red;stroke-width:1px;stroke-linecap:butt;stroke-linejoin:miter;stroke-opacity:1" d="M 571.723,996 591.927,996 z" id="boundary" inkscape:connector-curvature="0" />
	<path style="fill:none;stroke:red;stroke-width:1px;stroke-linecap:butt;stroke-linejoin:miter;stroke-opacity:1" d="M 591.927,996 612.13,996 z" id="boundary" inkscape:connector-curvature="0" />
	<path style="fill:none;stroke:red;stroke-width:1px;stroke-linecap:butt;stroke-linejoin:miter;stroke-opacity:1" d="M 612.13,996 632.334,996 z" id="boundary" inkscape:connector-curvature="0" />
	<path style="fill:none;stroke:red;stroke-width:1px;stroke-linecap:butt;stroke-linejoin:miter;stroke-opacity:1" d="M 632.334,996 652.538,996 z" id="boundary" inkscape:connector-curvature="0" />
	<path style="fill:none;stroke:red;stroke-width:1px;stroke-linecap:butt;stroke-linejoin:miter;stroke-opacity:1" d="M 652.538,996 672.741,996 z" id="boundary" inkscape:connector-curvature="0" />
	<path style="fill:none;stroke:red;stroke-width:1px;stroke-linecap:butt;stroke-linejoin:miter;stroke-opacity:1" d="M 672.741,996 692.945,996 z" id="boundary" inkscape:connector-curvature="0" />
	<path style="fill:none;stroke:red;stroke-width:1px;stroke-linecap:butt;stroke-linejoin:miter;stroke-opacity:1" d="M 692.945,996 713.149,996 z" id="boundary" inkscape:connector-curvature="0" />
	<path style="fill:none;stroke:red;stroke-width:1px;stroke-linecap:butt;stroke-linejoin:miter;stroke-opacity:1" d="M 713.149,996 733.352,996 z" id="boundary" inkscape:connector-curvature="0" />
	<path style="fill:none;stroke:red;stroke-width:1px;stroke-linecap:butt;stroke-linejoin:miter;stroke-opacity:1" d="M 733.352,996 753.556,996 z" id="boundary" inkscape:connector-curvature="0" />
	<path style="fill:none;stroke:red;stroke-width:1px;stroke-linecap:butt;stroke-linejoin:miter;stroke-opacity:1" d="M 753.556,996 773.76,996 z" id="boundary" inkscape:connector-curvature="0" />
	<path style="fill:none;stroke:red;stroke-width:1px;stroke-linecap:butt;stroke-linejoin:miter;stroke-opacity:1" d="M 773.76,996 793.963,996 z" id="boundary" inkscape:connector-curvature="0" />
	<path style="fill:none;stroke:red;stroke-width:1px;stroke-linecap:butt;stroke-linejoin:miter;stroke-opacity:1" d="M 793.963,996 814.167,996 z" id="boundary" inkscape:connector-curvature="0" />
	<path style="fill:none;stroke:red;stroke-width:1px;stroke-linecap:butt;stroke-linejoin:miter;stroke-opacity:1" d="M 814.167,996 834.371,996 z" id="boundary" inkscape:connector-curvature="0" />
	<path style="fill:none;stroke:red;stroke-width:1px;stroke-linecap:butt;stroke-linejoin:miter;stroke-opacity:1" d="M 834.371,996 850.534,983.878 z" id="boundary" inkscape:connector-curvature="0" />
	<path style="fill:none;stroke:red;stroke-width:1px;stroke-linecap:butt;stroke-linejoin:miter;stroke-opacity:1" d="M 850.534,983.878 832.35,973.776 z" id="boundary" inkscape:connector-curvature="0" />
	<path style="fill:none;stroke:red;stroke-width:1px;stroke-linecap:butt;stroke-linejoin:miter;stroke-opacity:1" d="M 832.35,973.776 814.167,963.674 z" id="boundary" inkscape:connector-curvature="0" />
	<path style="fill:none;stroke:red;stroke-width:1px;stroke-linecap:butt;stroke-linejoin:miter;stroke-opacity:1" d="M 814.167,963.674 793.963,959.633 z" id="boundary" inkscape:connector-curvature="0" />
	<path style="fill:none;stroke:red;stroke-width:1px;stroke-linecap:butt;stroke-linejoin:miter;stroke-opacity:1" d="M 34.3055,979.837 54.5092,973.776 z" id="boundary" inkscape:connector-curvature="0" />
	<path style="fill:none;stroke:red;stroke-width:1px;stroke-linecap:butt;stroke-linejoin:miter;stroke-opacity:1" d="M 54.5092,973.776 72.6925,963.674 z" id="boundary" inkscape:connector-curvature="0" />
	<path style="fill:none;stroke:red;stroke-width:1px;stroke-linecap:butt;stroke-linejoin:miter;stroke-opacity:1" d="M 72.6925,963.674 90.8758,953.572 z" id="boundary" inkscape:connector-curvature="0" />
	<path style="fill:none;stroke:red;stroke-width:1px;stroke-linecap:butt;stroke-linejoin:miter;stroke-opacity:1" d="M 90.8758,953.572 111.079,953.572 z" id="boundary" inkscape:connector-curvature="0" />
	<path style="fill:none;stroke:red;stroke-width:1px;stroke-linecap:butt;stroke-linejoin:miter;stroke-opacity:1" d="M 111.079,953.572 131.283,953.572 z" id="boundary" inkscape:connector-curvature="0" />
	<path style="fill:none;stroke:red;stroke-width:1px;stroke-linecap:butt;stroke-linejoin:miter;stroke-opacity:1" d="M 131.283,953.572 149.466,943.47 z" id="boundary" inkscape:connector-curvature="0" />
	<path style="fill:none;stroke:red;stroke-width:1px;stroke-linecap:butt;stroke-linejoin:miter;stroke-opacity:1" d="M 793.963,959.633 773.76,953.572 z" id="boundary" inkscape:connector-curvature="0" />
	<path style="fill:none;stroke:red;stroke-width:1px;stroke-linecap:butt;stroke-linejoin:miter;stroke-opacity:1" d="M 773.76,953.572 755.576,943.47 z" id="boundary" inkscape:connector-curvature="0" />
	<path style="fill:none;stroke:red;stroke-width:1px;stroke-linecap:butt;stroke-linejoin:miter;stroke-opacity:1" d="M 755.576,943.47 737.393,933.369 z" id="boundary" inkscape:connector-curvature="0" />
	<path style="fill:none;stroke:red;stroke-width:1px;stroke-linecap:butt;stroke-linejoin:miter;stroke-opacity:1" d="M 149.466,943.47 169.67,935.389 z" id="boundary" inkscape:connector-curvature="0" />
	<path style="fill:none;stroke:red;stroke-width:1px;stroke-linecap:butt;stroke-linejoin:miter;stroke-opacity:1" d="M 737.393,933.369 717.189,925.287 z" id="boundary" inkscape:connector-curvature="0" />
	<path style="fill:none;stroke:red;stroke-width:1px;stroke-linecap:butt;stroke-linejoin:miter;stroke-opacity:1" d="M 717.189,925.287 699.006,915.185 z" id="boundary" inkscape:connector-curvature="0" />
	<path style="fill:none;stroke:red;stroke-width:1px;stroke-linecap:butt;stroke-linejoin:miter;stroke-opacity:1" d="M 699.006,915.185 678.802,913.165 z" id="boundary" inkscape:connector-curvature="0" />
	<path style="fill:none;stroke:red;stroke-width:1px;stroke-linecap:butt;stroke-linejoin:miter;stroke-opacity:1" d="M 678.802,913.165 660.619,903.063 z" id="boundary" inkscape:connector-curvature="0" />
	<path style="fill:none;stroke:red;stroke-width:1px;stroke-linecap:butt;stroke-linejoin:miter;stroke-opacity:1" d="M 660.619,903.063 642.436,892.961 z" id="boundary" inkscape:connector-curvature="0" />
	<path style="fill:none;stroke:red;stroke-width:1px;stroke-linecap:butt;stroke-linejoin:miter;stroke-opacity:1" d="M 642.436,892.961 622.232,888.921 z" id="boundary" inkscape:connector-curvature="0" />
	<path style="fill:none;stroke:red;stroke-width:1px;stroke-linecap:butt;stroke-linejoin:miter;stroke-opacity:1" d="M 622.232,888.921 602.029,882.859 z" id="boundary" inkscape:connector-curvature="0" />
	<path style="fill:none;stroke:red;stroke-width:1px;stroke-linecap:butt;stroke-linejoin:miter;stroke-opacity:1" d="M 602.029,882.859 583.845,872.758 z" id="boundary" inkscape:connector-curvature="0" />
	<path style="fill:none;stroke:red;stroke-width:1px;stroke-linecap:butt;stroke-linejoin:miter;stroke-opacity:1" d="M 583.845,872.758 565.662,862.656 z" id="boundary" inkscape:connector-curvature="0" />
	<path style="fill:none;stroke:red;stroke-width:1px;stroke-linecap:butt;stroke-linejoin:miter;stroke-opacity:1" d="M 565.662,862.656 545.458,854.574 z" id="boundary" inkscape:connector-curvature="0" />
	<path style="fill:none;stroke:red;stroke-width:1px;stroke-linecap:butt;stroke-linejoin:miter;stroke-opacity:1" d="M 545.458,854.574 541.418,834.371 z" id="boundary" inkscape:connector-curvature="0" />
	<path style="fill:none;stroke:red;stroke-width:1px;stroke-linecap:butt;stroke-linejoin:miter;stroke-opacity:1" d="M 541.418,834.371 541.418,814.167 z" id="boundary" inkscape:connector-curvature="0" />
	<path style="fill:none;stroke:red;stroke-width:1px;stroke-linecap:butt;stroke-linejoin:miter;stroke-opacity:1" d="M 541.418,814.167 541.418,793.963 z" id="boundary" inkscape:connector-curvature="0" />
	<path style="fill:none;stroke:red;stroke-width:1px;stroke-linecap:butt;stroke-linejoin:miter;stroke-opacity:1" d="M 541.418,793.963 541.418,773.76 z" id="boundary" inkscape:connector-curvature="0" />
	<path style="fill:none;stroke:red;stroke-width:1px;stroke-linecap:butt;stroke-linejoin:miter;stroke-opacity:1" d="M 541.418,773.76 541.418,753.556 z" id="boundary" inkscape:connector-curvature="0" />
	<path style="fill:none;stroke:red;stroke-width:1px;stroke-linecap:butt;stroke-linejoin:miter;stroke-opacity:1" d="M 541.418,753.556 541.418,733.352 z" id="boundary" inkscape:connector-curvature="0" />
	<path style="fill:none;stroke:red;stroke-width:1px;stroke-linecap:butt;stroke-linejoin:miter;stroke-opacity:1" d="M 541.418,733.352 541.418,713.149 z" id="boundary" inkscape:connector-curvature="0" />
	<path style="fill:none;stroke:red;stroke-width:1px;stroke-linecap:butt;stroke-linejoin:miter;stroke-opacity:1" d="M 541.418,713.149 541.418,692.945 z" id="boundary" inkscape:connector-curvature="0" />
	<path style="fill:none;stroke:red;stroke-width:1px;stroke-linecap:butt;stroke-linejoin:miter;stroke-opacity:1" d="M 541.418,692.945 541.418,672.741 z" id="boundary" inkscape:connector-curvature="0" />
	<path style="fill:none;stroke:red;stroke-width:1px;stroke-linecap:butt;stroke-linejoin:miter;stroke-opacity:1" d="M 541.418,672.741 541.418,652.538 z" id="boundary" inkscape:connector-curvature="0" />
	<path style="fill:none;stroke:red;stroke-width:1px;stroke-linecap:butt;stroke-linejoin:miter;stroke-opacity:1" d="M 541.418,652.538 541.418,632.334 z" id="boundary" inkscape:connector-curvature="0" />
	<path style="fill:none;stroke:red;stroke-width:1px;stroke-linecap:butt;stroke-linejoin:miter;stroke-opacity:1" d="M 541.418,632.334 541.418,612.13 z" id="boundary" inkscape:connector-curvature="0" />
	<path style="fill:none;stroke:red;stroke-width:1px;stroke-linecap:butt;stroke-linejoin:miter;stroke-opacity:1" d="M 541.418,612.13 541.418,591.927 z" id="boundary" inkscape:connector-curvature="0" />
	<path style="fill:none;stroke:red;stroke-width:1px;stroke-linecap:butt;stroke-linejoin:miter;stroke-opacity:1" d="M 541.418,591.927 541.418,571.723 z" id="boundary" inkscape:connector-curvature="0" />
	<path style="fill:none;stroke:red;stroke-width:1px;stroke-linecap:butt;stroke-linejoin:miter;stroke-opacity:1" d="M 541.418,571.723 541.418,551.519 z" id="boundary" inkscape:connector-curvature="0" />
	<path style="fill:none;stroke:red;stroke-width:1px;stroke-linecap:butt;stroke-linejoin:miter;stroke-opacity:1" d="M 541.418,551.519 541.418,531.316 z" id="boundary" inkscape:connector-curvature="0" />
	<path style="fill:none;stroke:red;stroke-width:1px;stroke-linecap:butt;stroke-linejoin:miter;stroke-opacity:1" d="M 541.418,531.316 541.418,511.112 z" id="boundary" inkscape:connector-curvature="0" />
	<path style="fill:none;stroke:red;stroke-width:1px;stroke-linecap:butt;stroke-linejoin:miter;stroke-opacity:1" d="M 541.418,511.112 541.418,490.908 z" id="boundary" inkscape:connector-curvature="0" />
	<path style="fill:none;stroke:red;stroke-width:1px;stroke-linecap:butt;stroke-linejoin:miter;stroke-opacity:1" d="M 169.67,935.389 189.874,925.287 z" id="boundary" inkscape:connector-curvature="0" />
	<path style="fill:none;stroke:red;stroke-width:1px;stroke-linecap:butt;stroke-linejoin:miter;stroke-opacity:1" d="M 189.874,925.287 210.077,923.267 z" id="boundary" inkscape:connector-curvature="0" />
	<path style="fill:none;stroke:red;stroke-width:1px;stroke-linecap:butt;stroke-linejoin:miter;stroke-opacity:1" d="M 210.077,923.267 228.261,913.165 z" id="boundary" inkscape:connector-curvature="0" />
	<path style="fill:none;stroke:red;stroke-width:1px;stroke-linecap:butt;stroke-linejoin:miter;stroke-opacity:1" d="M 228.261,913.165 246.444,903.063 z" id="boundary" inkscape:connector-curvature="0" />
	<path style="fill:none;stroke:red;stroke-width:1px;stroke-linecap:butt;stroke-linejoin:miter;stroke-opacity:1" d="M 246.444,903.063 264.627,892.961 z" id="boundary" inkscape:connector-curvature="0" />
	<path style="fill:none;stroke:red;stroke-width:1px;stroke-linecap:butt;stroke-linejoin:miter;stroke-opacity:1" d="M 264.627,892.961 284.831,892.961 z" id="boundary" inkscape:connector-curvature="0" />
	<path style="fill:none;stroke:red;stroke-width:1px;stroke-linecap:butt;stroke-linejoin:miter;stroke-opacity:1" d="M 284.831,892.961 303.014,882.859 z" id="boundary" inkscape:connector-curvature="0" />
	<path style="fill:none;stroke:red;stroke-width:1px;stroke-linecap:butt;stroke-linejoin:miter;stroke-opacity:1" d="M 303.014,882.859 321.198,872.758 z" id="boundary" inkscape:connector-curvature="0" />
	<path style="fill:none;stroke:red;stroke-width:1px;stroke-linecap:butt;stroke-linejoin:miter;stroke-opacity:1" d="M 321.198,872.758 341.401,872.758 z" id="boundary" inkscape:connector-curvature="0" />
	<path style="fill:none;stroke:red;stroke-width:1px;stroke-linecap:butt;stroke-linejoin:miter;stroke-opacity:1" d="M 341.401,872.758 361.605,864.676 z" id="boundary" inkscape:connector-curvature="0" />
	<path style="fill:none;stroke:red;stroke-width:1px;stroke-linecap:butt;stroke-linejoin:miter;stroke-opacity:1" d="M 361.605,864.676 381.809,854.574 z" id="boundary" inkscape:connector-curvature="0" />
	<path style="fill:none;stroke:red;stroke-width:1px;stroke-linecap:butt;stroke-linejoin:miter;stroke-opacity:1" d="M 381.809,854.574 387.87,824.269 z" id="boundary" inkscape:connector-curvature="0" />
	<path style="fill:none;stroke:red;stroke-width:1px;stroke-linecap:butt;stroke-linejoin:miter;stroke-opacity:1" d="M 387.87,824.269 387.87,804.065 z" id="boundary" inkscape:connector-curvature="0" />
	<path style="fill:none;stroke:red;stroke-width:1px;stroke-linecap:butt;stroke-linejoin:miter;stroke-opacity:1" d="M 387.87,804.065 387.87,783.862 z" id="boundary" inkscape:connector-curvature="0" />
	<path style="fill:none;stroke:red;stroke-width:1px;stroke-linecap:butt;stroke-linejoin:miter;stroke-opacity:1" d="M 387.87,783.862 387.87,763.658 z" id="boundary" inkscape:connector-curvature="0" />
	<path style="fill:none;stroke:red;stroke-width:1px;stroke-linecap:butt;stroke-linejoin:miter;stroke-opacity:1" d="M 387.87,763.658 377.768,745.475 z" id="boundary" inkscape:connector-curvature="0" />
	<path style="fill:none;stroke:red;stroke-width:1px;stroke-linecap:butt;stroke-linejoin:miter;stroke-opacity:1" d="M 377.768,745.475 377.768,725.271 z" id="boundary" inkscape:connector-curvature="0" />
	<path style="fill:none;stroke:red;stroke-width:1px;stroke-linecap:butt;stroke-linejoin:miter;stroke-opacity:1" d="M 377.768,725.271 377.768,705.067 z" id="boundary" inkscape:connector-curvature="0" />
	<path style="fill:none;stroke:red;stroke-width:1px;stroke-linecap:butt;stroke-linejoin:miter;stroke-opacity:1" d="M 377.768,705.067 377.768,684.864 z" id="boundary" inkscape:connector-curvature="0" />
	<path style="fill:none;stroke:red;stroke-width:1px;stroke-linecap:butt;stroke-linejoin:miter;stroke-opacity:1" d="M 377.768,684.864 377.768,664.66 z" id="boundary" inkscape:connector-curvature="0" />
	<path style="fill:none;stroke:red;stroke-width:1px;stroke-linecap:butt;stroke-linejoin:miter;stroke-opacity:1" d="M 377.768,664.66 377.768,644.456 z" id="boundary" inkscape:connector-curvature="0" />
	<path style="fill:none;stroke:red;stroke-width:1px;stroke-linecap:butt;stroke-linejoin:miter;stroke-opacity:1" d="M 377.768,644.456 377.768,624.253 z" id="boundary" inkscape:connector-curvature="0" />
	<path style="fill:none;stroke:red;stroke-width:1px;stroke-linecap:butt;stroke-linejoin:miter;stroke-opacity:1" d="M 377.768,624.253 377.768,604.049 z" id="boundary" inkscape:connector-curvature="0" />
	<path style="fill:none;stroke:red;stroke-width:1px;stroke-linecap:butt;stroke-linejoin:miter;stroke-opacity:1" d="M 377.768,604.049 377.768,583.845 z" id="boundary" inkscape:connector-curvature="0" />
	<path style="fill:none;stroke:red;stroke-width:1px;stroke-linecap:butt;stroke-linejoin:miter;stroke-opacity:1" d="M 377.768,583.845 377.768,563.642 z" id="boundary" inkscape:connector-curvature="0" />
	<path style="fill:none;stroke:red;stroke-width:1px;stroke-linecap:butt;stroke-linejoin:miter;stroke-opacity:1" d="M 377.768,563.642 367.666,545.458 z" id="boundary" inkscape:connector-curvature="0" />
	<path style="fill:none;stroke:red;stroke-width:1px;stroke-linecap:butt;stroke-linejoin:miter;stroke-opacity:1" d="M 367.666,545.458 367.666,525.255 z" id="boundary" inkscape:connector-curvature="0" />
	<path style="fill:none;stroke:red;stroke-width:1px;stroke-linecap:butt;stroke-linejoin:miter;stroke-opacity:1" d="M 367.666,525.255 367.666,505.051 z" id="boundary" inkscape:connector-curvature="0" />
	<path style="fill:none;stroke:red;stroke-width:1px;stroke-linecap:butt;stroke-linejoin:miter;stroke-opacity:1" d="M 367.666,505.051 367.666,484.847 z" id="boundary" inkscape:connector-curvature="0" />
	<path style="fill:none;stroke:red;stroke-width:1px;stroke-linecap:butt;stroke-linejoin:miter;stroke-opacity:1" d="M 367.666,484.847 367.666,464.644 z" id="boundary" inkscape:connector-curvature="0" />
	<path style="fill:none;stroke:red;stroke-width:1px;stroke-linecap:butt;stroke-linejoin:miter;stroke-opacity:1" d="M 367.666,464.644 367.666,444.44 z" id="boundary" inkscape:connector-curvature="0" />
	<path style="fill:none;stroke:red;stroke-width:1px;stroke-linecap:butt;stroke-linejoin:miter;stroke-opacity:1" d="M 367.666,444.44 367.666,424.236 z" id="boundary" inkscape:connector-curvature="0" />
	<path style="fill:none;stroke:red;stroke-width:1px;stroke-linecap:butt;stroke-linejoin:miter;stroke-opacity:1" d="M 367.666,424.236 359.585,404.033 z" id="boundary" inkscape:connector-curvature="0" />
	<path style="fill:none;stroke:red;stroke-width:1px;stroke-linecap:butt;stroke-linejoin:miter;stroke-opacity:1" d="M 359.585,404.033 339.381,399.992 z" id="boundary" inkscape:connector-curvature="0" />
	<path style="fill:none;stroke:red;stroke-width:1px;stroke-linecap:butt;stroke-linejoin:miter;stroke-opacity:1" d="M 339.381,399.992 319.177,393.931 z" id="boundary" inkscape:connector-curvature="0" />
	<path style="fill:none;stroke:red;stroke-width:1px;stroke-linecap:butt;stroke-linejoin:miter;stroke-opacity:1" d="M 319.177,393.931 298.974,389.89 z" id="boundary" inkscape:connector-curvature="0" />
	<path style="fill:none;stroke:red;stroke-width:1px;stroke-linecap:butt;stroke-linejoin:miter;stroke-opacity:1" d="M 298.974,389.89 280.79,379.788 z" id="boundary" inkscape:connector-curvature="0" />
	<path style="fill:none;stroke:red;stroke-width:1px;stroke-linecap:butt;stroke-linejoin:miter;stroke-opacity:1" d="M 280.79,379.788 262.607,369.686 z" id="boundary" inkscape:connector-curvature="0" />
	<path style="fill:none;stroke:red;stroke-width:1px;stroke-linecap:butt;stroke-linejoin:miter;stroke-opacity:1" d="M 262.607,369.686 242.403,369.686 z" id="boundary" inkscape:connector-curvature="0" />
	<path style="fill:none;stroke:red;stroke-width:1px;stroke-linecap:butt;stroke-linejoin:miter;stroke-opacity:1" d="M 242.403,369.686 222.2,369.686 z" id="boundary" inkscape:connector-curvature="0" />
	<path style="fill:none;stroke:red;stroke-width:1px;stroke-linecap:butt;stroke-linejoin:miter;stroke-opacity:1" d="M 222.2,369.686 204.016,359.585 z" id="boundary" inkscape:connector-curvature="0" />
	<path style="fill:none;stroke:red;stroke-width:1px;stroke-linecap:butt;stroke-linejoin:miter;stroke-opacity:1" d="M 204.016,359.585 185.833,349.483 z" id="boundary" inkscape:connector-curvature="0" />
	<path style="fill:none;stroke:red;stroke-width:1px;stroke-linecap:butt;stroke-linejoin:miter;stroke-opacity:1" d="M 185.833,349.483 165.629,349.483 z" id="boundary" inkscape:connector-curvature="0" />
	<path style="fill:none;stroke:red;stroke-width:1px;stroke-linecap:butt;stroke-linejoin:miter;stroke-opacity:1" d="M 165.629,349.483 145.426,341.401 z" id="boundary" inkscape:connector-curvature="0" />
	<path style="fill:none;stroke:red;stroke-width:1px;stroke-linecap:butt;stroke-linejoin:miter;stroke-opacity:1" d="M 145.426,341.401 129.263,329.279 z" id="boundary" inkscape:connector-curvature="0" />
	<path style="fill:none;stroke:red;stroke-width:1px;stroke-linecap:butt;stroke-linejoin:miter;stroke-opacity:1" d="M 129.263,329.279 111.079,319.177 z" id="boundary" inkscape:connector-curvature="0" />
	<path style="fill:none;stroke:red;stroke-width:1px;stroke-linecap:butt;stroke-linejoin:miter;stroke-opacity:1" d="M 111.079,319.177 92.8961,309.075 z" id="boundary" inkscape:connector-curvature="0" />
	<path style="fill:none;stroke:red;stroke-width:1px;stroke-linecap:butt;stroke-linejoin:miter;stroke-opacity:1" d="M 92.8961,309.075 76.7332,294.933 z" id="boundary" inkscape:connector-curvature="0" />
	<path style="fill:none;stroke:red;stroke-width:1px;stroke-linecap:butt;stroke-linejoin:miter;stroke-opacity:1" d="M 76.7332,294.933 62.5906,278.77 z" id="boundary" inkscape:connector-curvature="0" />
	<path style="fill:none;stroke:red;stroke-width:1px;stroke-linecap:butt;stroke-linejoin:miter;stroke-opacity:1" d="M 62.5906,278.77 44.4073,268.668 z" id="boundary" inkscape:connector-curvature="0" />
	<path style="fill:none;stroke:red;stroke-width:1px;stroke-linecap:butt;stroke-linejoin:miter;stroke-opacity:1" d="M 44.4073,268.668 28.2444,256.546 z" id="boundary" inkscape:connector-curvature="0" />
	<path style="fill:none;stroke:red;stroke-width:1px;stroke-linecap:butt;stroke-linejoin:miter;stroke-opacity:1" d="M 28.2444,256.546 14.1018,240.383 z" id="boundary" inkscape:connector-curvature="0" />
	<path style="fill:none;stroke:red;stroke-width:1px;stroke-linecap:butt;stroke-linejoin:miter;stroke-opacity:1" d="M 14.1018,240.383 4,222.2 z" id="boundary" inkscape:connector-curvature="0" />
	<path style="fill:none;stroke:red;stroke-width:1px;stroke-linecap:butt;stroke-linejoin:miter;stroke-opacity:1" d="M 4,222.2 14.1018,201.996 z" id="boundary" inkscape:connector-curvature="0" />
	<path style="fill:none;stroke:red;stroke-width:1px;stroke-linecap:butt;stroke-linejoin:miter;stroke-opacity:1" d="M 14.1018,201.996 24.2037,181.792 z" id="boundary" inkscape:connector-curvature="0" />
	<path style="fill:none;stroke:red;stroke-width:1px;stroke-linecap:butt;stroke-linejoin:miter;stroke-opacity:1" d="M 24.2037,181.792 34.3055,161.589 z" id="boundary" inkscape:connector-curvature="0" />
	<path style="fill:none;stroke:red;stroke-width:1px;stroke-linecap:butt;stroke-linejoin:miter;stroke-opacity:1" d="M 34.3055,161.589 44.4073,131.283 z" id="boundary" inkscape:connector-curvature="0" />
	<path style="fill:none;stroke:red;stroke-width:1px;stroke-linecap:butt;stroke-linejoin:miter;stroke-opacity:1" d="M 44.4073,131.283 54.5092,111.079 z" id="boundary" inkscape:connector-curvature="0" />
	<path style="fill:none;stroke:red;stroke-width:1px;stroke-linecap:butt;stroke-linejoin:miter;stroke-opacity:1" d="M 54.5092,111.079 64.611,80.7739 z" id="boundary" inkscape:connector-curvature="0" />
	<path style="fill:none;stroke:red;stroke-width:1px;stroke-linecap:butt;stroke-linejoin:miter;stroke-opacity:1" d="M 64.611,80.7739 74.7128,60.5703 z" id="boundary" inkscape:connector-curvature="0" />
	<path style="fill:none;stroke:red;stroke-width:1px;stroke-linecap:butt;stroke-linejoin:miter;stroke-opacity:1" d="M 74.7128,60.5703 84.8147,40.3666 z" id="boundary" inkscape:connector-curvature="0" />
	<path style="fill:none;stroke:red;stroke-width:1px;stroke-linecap:butt;stroke-linejoin:miter;stroke-opacity:1" d="M 84.8147,40.3666 105.018,30.2648 z" id="boundary" inkscape:connector-curvature="0" />
	<path style="fill:none;stroke:red;stroke-width:1px;stroke-linecap:butt;stroke-linejoin:miter;stroke-opacity:1" d="M 105.018,30.2648 125.222,24.2037 z" id="boundary" inkscape:connector-curvature="0" />
	<path style="fill:none;stroke:red;stroke-width:1px;stroke-linecap:butt;stroke-linejoin:miter;stroke-opacity:1" d="M 125.222,24.2037 145.426,24.2037 z" id="boundary" inkscape:connector-curvature="0" />
	<path style="fill:none;stroke:red;stroke-width:1px;stroke-linecap:butt;stroke-linejoin:miter;stroke-opacity:1" d="M 145.426,24.2037 165.629,24.2037 z" id="boundary" inkscape:connector-curvature="0" />
	<path style="fill:none;stroke:red;stroke-width:1px;stroke-linecap:butt;stroke-linejoin:miter;stroke-opacity:1" d="M 165.629,24.2037 185.833,24.2037 z" id="boundary" inkscape:connector-curvature="0" />
	<path style="fill:none;stroke:red;stroke-width:1px;stroke-linecap:butt;stroke-linejoin:miter;stroke-opacity:1" d="M 185.833,24.2037 206.037,20.1629 z" id="boundary" inkscape:connector-curvature="0" />
	<path style="fill:none;stroke:red;stroke-width:1px;stroke-linecap:butt;stroke-linejoin:miter;stroke-opacity:1" d="M 206.037,20.1629 226.24,14.1018 z" id="boundary" inkscape:connector-curvature="0" />
	<path style="fill:none;stroke:red;stroke-width:1px;stroke-linecap:butt;stroke-linejoin:miter;stroke-opacity:1" d="M 226.24,14.1018 246.444,14.1018 z" id="boundary" inkscape:connector-curvature="0" />
	<path style="fill:none;stroke:red;stroke-width:1px;stroke-linecap:butt;stroke-linejoin:miter;stroke-opacity:1" d="M 246.444,14.1018 266.648,14.1018 z" id="boundary" inkscape:connector-curvature="0" />
	<path style="fill:none;stroke:red;stroke-width:1px;stroke-linecap:butt;stroke-linejoin:miter;stroke-opacity:1" d="M 266.648,14.1018 286.851,10.0611 z" id="boundary" inkscape:connector-curvature="0" />
	<path style="fill:none;stroke:red;stroke-width:1px;stroke-linecap:butt;stroke-linejoin:miter;stroke-opacity:1" d="M 286.851,10.0611 307.055,4 z" id="boundary" inkscape:connector-curvature="0" />
	<path style="fill:none;stroke:red;stroke-width:1px;stroke-linecap:butt;stroke-linejoin:miter;stroke-opacity:1" d="M 307.055,4 327.259,4 z" id="boundary" inkscape:connector-curvature="0" />
	<path style="fill:none;stroke:red;stroke-width:1px;stroke-linecap:butt;stroke-linejoin:miter;stroke-opacity:1" d="M 327.259,4 347.462,4 z" id="boundary" inkscape:connector-curvature="0" />
	<path style="fill:none;stroke:red;stroke-width:1px;stroke-linecap:butt;stroke-linejoin:miter;stroke-opacity:1" d="M 347.462,4 367.666,4 z" id="boundary" inkscape:connector-curvature="0" />
	<path style="fill:none;stroke:red;stroke-width:1px;stroke-linecap:butt;stroke-linejoin:miter;stroke-opacity:1" d="M 367.666,4 387.87,4 z" id="boundary" inkscape:connector-curvature="0" />
	<path style="fill:none;stroke:red;stroke-width:1px;stroke-linecap:butt;stroke-linejoin:miter;stroke-opacity:1" d="M 387.87,4 408.073,4 z" id="boundary" inkscape:connector-curvature="0" />
	<path style="fill:none;stroke:red;stroke-width:1px;stroke-linecap:butt;stroke-linejoin:miter;stroke-opacity:1" d="M 408.073,4 428.277,4 z" id="boundary" inkscape:connector-curvature="0" />
	<path style="fill:none;stroke:red;stroke-width:1px;stroke-linecap:butt;stroke-linejoin:miter;stroke-opacity:1" d="M 428.277,4 448.481,4 z" id="boundary" inkscape:connector-curvature="0" />
	<path style="fill:none;stroke:red;stroke-width:1px;stroke-linecap:butt;stroke-linejoin:miter;stroke-opacity:1" d="M 448.481,4 468.684,4 z" id="boundary" inkscape:connector-curvature="0" />
	<path style="fill:none;stroke:red;stroke-width:1px;stroke-linecap:butt;stroke-linejoin:miter;stroke-opacity:1" d="M 468.684,4 488.888,8.04073 z" id="boundary" inkscape:connector-curvature="0" />
	<path style="fill:none;stroke:red;stroke-width:1px;stroke-linecap:butt;stroke-linejoin:miter;stroke-opacity:1" d="M 488.888,8.04073 509.092,14.1018 z" id="boundary" inkscape:connector-curvature="0" />
	<path style="fill:none;stroke:red;stroke-width:1px;stroke-linecap:butt;stroke-linejoin:miter;stroke-opacity:1" d="M 509.092,14.1018 529.295,14.1018 z" id="boundary" inkscape:connector-curvature="0" />
	<path style="fill:none;stroke:red;stroke-width:1px;stroke-linecap:butt;stroke-linejoin:miter;stroke-opacity:1" d="M 529.295,14.1018 547.479,24.2037 z" id="boundary" inkscape:connector-curvature="0" />
	<path style="fill:none;stroke:red;stroke-width:1px;stroke-linecap:butt;stroke-linejoin:miter;stroke-opacity:1" d="M 547.479,24.2037 567.682,24.2037 z" id="boundary" inkscape:connector-curvature="0" />
	<path style="fill:none;stroke:red;stroke-width:1px;stroke-linecap:butt;stroke-linejoin:miter;stroke-opacity:1" d="M 567.682,24.2037 587.886,26.224 z" id="boundary" inkscape:connector-curvature="0" />
	<path style="fill:none;stroke:red;stroke-width:1px;stroke-linecap:butt;stroke-linejoin:miter;stroke-opacity:1" d="M 587.886,26.224 608.09,34.3055 z" id="boundary" inkscape:connector-curvature="0" />
	<path style="fill:none;stroke:red;stroke-width:1px;stroke-linecap:butt;stroke-linejoin:miter;stroke-opacity:1" d="M 608.09,34.3055 628.293,34.3055 z" id="boundary" inkscape:connector-curvature="0" />
	<path style="fill:none;stroke:red;stroke-width:1px;stroke-linecap:butt;stroke-linejoin:miter;stroke-opacity:1" d="M 628.293,34.3055 648.497,34.3055 z" id="boundary" inkscape:connector-curvature="0" />
	<path style="fill:none;stroke:red;stroke-width:1px;stroke-linecap:butt;stroke-linejoin:miter;stroke-opacity:1" d="M 648.497,34.3055 668.701,34.3055 z" id="boundary" inkscape:connector-curvature="0" />
	<path style="fill:none;stroke:red;stroke-width:1px;stroke-linecap:butt;stroke-linejoin:miter;stroke-opacity:1" d="M 668.701,34.3055 688.904,34.3055 z" id="boundary" inkscape:connector-curvature="0" />
	<path style="fill:none;stroke:red;stroke-width:1px;stroke-linecap:butt;stroke-linejoin:miter;stroke-opacity:1" d="M 688.904,34.3055 709.108,34.3055 z" id="boundary" inkscape:connector-curvature="0" />
	<path style="fill:none;stroke:red;stroke-width:1px;stroke-linecap:butt;stroke-linejoin:miter;stroke-opacity:1" d="M 709.108,34.3055 729.312,36.3259 z" id="boundary" inkscape:connector-curvature="0" />
	<path style="fill:none;stroke:red;stroke-width:1px;stroke-linecap:butt;stroke-linejoin:miter;stroke-opacity:1" d="M 729.312,36.3259 733.352,56.5295 z" id="boundary" inkscape:connector-curvature="0" />
	<path style="fill:none;stroke:red;stroke-width:1px;stroke-linecap:butt;stroke-linejoin:miter;stroke-opacity:1" d="M 733.352,56.5295 743.454,74.7128 z" id="boundary" inkscape:connector-curvature="0" />
	<path style="fill:none;stroke:red;stroke-width:1px;stroke-linecap:butt;stroke-linejoin:miter;stroke-opacity:1" d="M 743.454,74.7128 753.556,92.8961 z" id="boundary" inkscape:connector-curvature="0" />
	<path style="fill:none;stroke:red;stroke-width:1px;stroke-linecap:butt;stroke-linejoin:miter;stroke-opacity:1" d="M 753.556,92.8961 769.719,107.039 z" id="boundary" inkscape:connector-curvature="0" />
	<path style="fill:none;stroke:red;stroke-width:1px;stroke-linecap:butt;stroke-linejoin:miter;stroke-opacity:1" d="M 769.719,107.039 777.8,127.242 z" id="boundary" inkscape:connector-curvature="0" />
	<path style="fill:none;stroke:red;stroke-width:1px;stroke-linecap:butt;stroke-linejoin:miter;stroke-opacity:1" d="M 777.8,127.242 793.963,141.385 z" id="boundary" inkscape:connector-curvature="0" />
	<path style="fill:none;stroke:red;stroke-width:1px;stroke-linecap:butt;stroke-linejoin:miter;stroke-opacity:1" d="M 793.963,141.385 804.065,159.568 z" id="boundary" inkscape:connector-curvature="0" />
	<path style="fill:none;stroke:red;stroke-width:1px;stroke-linecap:butt;stroke-linejoin:miter;stroke-opacity:1" d="M 804.065,159.568 810.126,179.772 z" id="boundary" inkscape:connector-curvature="0" />
	<path style="fill:none;stroke:red;stroke-width:1px;stroke-linecap:butt;stroke-linejoin:miter;stroke-opacity:1" d="M 541.418,490.908 551.519,460.603 z" id="boundary" inkscape:connector-curvature="0" />
	<path style="fill:none;stroke:red;stroke-width:1px;stroke-linecap:butt;stroke-linejoin:miter;stroke-opacity:1" d="M 551.519,460.603 551.519,440.399 z" id="boundary" inkscape:connector-curvature="0" />
	<path style="fill:none;stroke:red;stroke-width:1px;stroke-linecap:butt;stroke-linejoin:miter;stroke-opacity:1" d="M 551.519,440.399 551.519,420.196 z" id="boundary" inkscape:connector-curvature="0" />
	<path style="fill:none;stroke:red;stroke-width:1px;stroke-linecap:butt;stroke-linejoin:miter;stroke-opacity:1" d="M 551.519,420.196 551.519,399.992 z" id="boundary" inkscape:connector-curvature="0" />
	<path style="fill:none;stroke:red;stroke-width:1px;stroke-linecap:butt;stroke-linejoin:miter;stroke-opacity:1" d="M 551.519,399.992 571.723,389.89 z" id="boundary" inkscape:connector-curvature="0" />
	<path style="fill:none;stroke:red;stroke-width:1px;stroke-linecap:butt;stroke-linejoin:miter;stroke-opacity:1" d="M 571.723,389.89 587.886,375.747 z" id="boundary" inkscape:connector-curvature="0" />
	<path style="fill:none;stroke:red;stroke-width:1px;stroke-linecap:butt;stroke-linejoin:miter;stroke-opacity:1" d="M 587.886,375.747 608.09,365.646 z" id="boundary" inkscape:connector-curvature="0" />
	<path style="fill:none;stroke:red;stroke-width:1px;stroke-linecap:butt;stroke-linejoin:miter;stroke-opacity:1" d="M 608.09,365.646 628.293,359.585 z" id="boundary" inkscape:connector-curvature="0" />
	<path style="fill:none;stroke:red;stroke-width:1px;stroke-linecap:butt;stroke-linejoin:miter;stroke-opacity:1" d="M 628.293,359.585 646.477,349.483 z" id="boundary" inkscape:connector-curvature="0" />
	<path style="fill:none;stroke:red;stroke-width:1px;stroke-linecap:butt;stroke-linejoin:miter;stroke-opacity:1" d="M 646.477,349.483 664.66,339.381 z" id="boundary" inkscape:connector-curvature="0" />
	<path style="fill:none;stroke:red;stroke-width:1px;stroke-linecap:butt;stroke-linejoin:miter;stroke-opacity:1" d="M 664.66,339.381 682.843,329.279 z" id="boundary" inkscape:connector-curvature="0" />
	<path style="fill:none;stroke:red;stroke-width:1px;stroke-linecap:butt;stroke-linejoin:miter;stroke-opacity:1" d="M 682.843,329.279 701.026,319.177 z" id="boundary" inkscape:connector-curvature="0" />
	<path style="fill:none;stroke:red;stroke-width:1px;stroke-linecap:butt;stroke-linejoin:miter;stroke-opacity:1" d="M 701.026,319.177 719.21,309.075 z" id="boundary" inkscape:connector-curvature="0" />
	<path style="fill:none;stroke:red;stroke-width:1px;stroke-linecap:butt;stroke-linejoin:miter;stroke-opacity:1" d="M 719.21,309.075 737.393,296.953 z" id="boundary" inkscape:connector-curvature="0" />
	<path style="fill:none;stroke:red;stroke-width:1px;stroke-linecap:butt;stroke-linejoin:miter;stroke-opacity:1" d="M 737.393,296.953 753.556,278.77 z" id="boundary" inkscape:connector-curvature="0" />
	<path style="fill:none;stroke:red;stroke-width:1px;stroke-linecap:butt;stroke-linejoin:miter;stroke-opacity:1" d="M 753.556,278.77 769.719,264.627 z" id="boundary" inkscape:connector-curvature="0" />
	<path style="fill:none;stroke:red;stroke-width:1px;stroke-linecap:butt;stroke-linejoin:miter;stroke-opacity:1" d="M 769.719,264.627 783.862,248.464 z" id="boundary" inkscape:connector-curvature="0" />
	<path style="fill:none;stroke:red;stroke-width:1px;stroke-linecap:butt;stroke-linejoin:miter;stroke-opacity:1" d="M 783.862,248.464 800.024,234.322 z" id="boundary" inkscape:connector-curvature="0" />
	<path style="fill:none;stroke:red;stroke-width:1px;stroke-linecap:butt;stroke-linejoin:miter;stroke-opacity:1" d="M 800.024,234.322 810.126,214.118 z" id="boundary" inkscape:connector-curvature="0" />
	<path style="fill:none;stroke:red;stroke-width:1px;stroke-linecap:butt;stroke-linejoin:miter;stroke-opacity:1" d="M 810.126,214.118 810.126,179.772 z" id="boundary" inkscape:connector-curvature="0" />
	<circle cx="4" cy="222.2" r="4" fill="#0" id="circle0"/>
	<circle cx="14.1018" cy="201.996" r="4" fill="#0" id="circle1"/>
	<circle cx="14.1018" cy="240.383" r="4" fill="#0" id="circle2"/>
	<circle cx="14.1018" cy="989.939" r="4" fill="#0" id="circle3"/>
	<circle cx="24.2037" cy="181.792" r="4" fill="#0" id="circle4"/>
	<circle cx="28.2444" cy="256.546" r="4" fill="#0" id="circle5"/>
	<circle cx="34.3055" cy="161.589" r="4" fill="#0" id="circle6"/>
	<circle cx="34.3055" cy="979.837" r="4" fill="#0" id="circle7"/>
	<circle cx="44.4073" cy="131.283" r="4" fill="#0" id="circle8"/>
	<circle cx="44.4073" cy="268.668" r="4" fill="#0" id="circle9"/>
	<circle cx="46.4277" cy="996" r="4" fill="#0" id="circle10"/>
	<circle cx="54.5092" cy="111.079" r="4" fill="#0" id="circle11"/>
	<circle cx="54.5092" cy="973.776" r="4" fill="#0" id="circle12"/>
	<circle cx="62.5906" cy="278.77" r="4" fill="#0" id="circle13"/>
	<circle cx="64.611" cy="80.7739" r="4" fill="#0" id="circle14"/>
	<circle cx="66.6314" cy="996" r="4" fill="#0" id="circle15"/>
	<circle cx="72.6925" cy="963.674" r="4" fill="#0" id="circle16"/>
	<circle cx="74.7128" cy="60.5703" r="4" fill="#0" id="circle17"/>
	<circle cx="76.7332" cy="294.933" r="4" fill="#0" id="circle18"/>
	<circle cx="84.8147" cy="40.3666" r="4" fill="#0" id="circle19"/>
	<circle cx="86.835" cy="996" r="4" fill="#0" id="circle20"/>
	<circle cx="90.8758" cy="953.572" r="4" fill="#0" id="circle21"/>
	<circle cx="92.8961" cy="309.075" r="4" fill="#0" id="circle22"/>
	<circle cx="105.018" cy="30.2648" r="4" fill="#0" id="circle23"/>
	<circle cx="107.039" cy="996" r="4" fill="#0" id="circle24"/>
	<circle cx="111.079" cy="319.177" r="4" fill="#0" id="circle25"/>
	<circle cx="111.079" cy="953.572" r="4" fill="#0" id="circle26"/>
	<circle cx="125.222" cy="24.2037" r="4" fill="#0" id="circle27"/>
	<circle cx="127.242" cy="996" r="4" fill="#0" id="circle28"/>
	<circle cx="129.263" cy="329.279" r="4" fill="#0" id="circle29"/>
	<circle cx="131.283" cy="953.572" r="4" fill="#0" id="circle30"/>
	<circle cx="145.426" cy="24.2037" r="4" fill="#0" id="circle31"/>
	<circle cx="145.426" cy="341.401" r="4" fill="#0" id="circle32"/>
	<circle cx="147.446" cy="996" r="4" fill="#0" id="circle33"/>
	<circle cx="149.466" cy="943.47" r="4" fill="#0" id="circle34"/>
	<circle cx="165.629" cy="24.2037" r="4" fill="#0" id="circle35"/>
	<circle cx="165.629" cy="349.483" r="4" fill="#0" id="circle36"/>
	<circle cx="167.65" cy="996" r="4" fill="#0" id="circle37"/>
	<circle cx="169.67" cy="935.389" r="4" fill="#0" id="circle38"/>
	<circle cx="185.833" cy="24.2037" r="4" fill="#0" id="circle39"/>
	<circle cx="185.833" cy="349.483" r="4" fill="#0" id="circle40"/>
	<circle cx="187.853" cy="996" r="4" fill="#0" id="circle41"/>
	<circle cx="189.874" cy="925.287" r="4" fill="#0" id="circle42"/>
	<circle cx="204.016" cy="359.585" r="4" fill="#0" id="circle43"/>
	<circle cx="206.037" cy="20.1629" r="4" fill="#0" id="circle44"/>
	<circle cx="208.057" cy="996" r="4" fill="#0" id="circle45"/>
	<circle cx="210.077" cy="923.267" r="4" fill="#0" id="circle46"/>
	<circle cx="222.2" cy="369.686" r="4" fill="#0" id="circle47"/>
	<circle cx="226.24" cy="14.1018" r="4" fill="#0" id="circle48"/>
	<circle cx="228.261" cy="913.165" r="4" fill="#0" id="circle49"/>
	<circle cx="228.261" cy="996" r="4" fill="#0" id="circle50"/>
	<circle cx="242.403" cy="369.686" r="4" fill="#0" id="circle51"/>
	<circle cx="246.444" cy="14.1018" r="4" fill="#0" id="circle52"/>
	<circle cx="246.444" cy="903.063" r="4" fill="#0" id="circle53"/>
	<circle cx="248.464" cy="996" r="4" fill="#0" id="circle54"/>
	<circle cx="262.607" cy="369.686" r="4" fill="#0" id="circle55"/>
	<circle cx="264.627" cy="892.961" r="4" fill="#0" id="circle56"/>
	<circle cx="266.648" cy="14.1018" r="4" fill="#0" id="circle57"/>
	<circle cx="268.668" cy="996" r="4" fill="#0" id="circle58"/>
	<circle cx="280.79" cy="379.788" r="4" fill="#0" id="circle59"/>
	<circle cx="284.831" cy="892.961" r="4" fill="#0" id="circle60"/>
	<circle cx="286.851" cy="10.0611" r="4" fill="#0" id="circle61"/>
	<circle cx="288.872" cy="996" r="4" fill="#0" id="circle62"/>
	<circle cx="298.974" cy="389.89" r="4" fill="#0" id="circle63"/>
	<circle cx="303.014" cy="882.859" r="4" fill="#0" id="circle64"/>
	<circle cx="307.055" cy="4" r="4" fill="#0" id="circle65"/>
	<circle cx="309.075" cy="996" r="4" fill="#0" id="circle66"/>
	<circle cx="319.177" cy="393.931" r="4" fill="#0" id="circle67"/>
	<circle cx="321.198" cy="872.758" r="4" fill="#0" id="circle68"/>
	<circle cx="327.259" cy="4" r="4" fill="#0" id="circle69"/>
	<circle cx="329.279" cy="996" r="4" fill="#0" id="circle70"/>
	<circle cx="339.381" cy="399.992" r="4" fill="#0" id="circle71"/>
	<circle cx="341.401" cy="872.758" r="4" fill="#0" id="circle72"/>
	<circle cx="347.462" cy="4" r="4" fill="#0" id="circle73"/>
	<circle cx="349.483" cy="996" r="4" fill="#0" id="circle74"/>
	<circle cx="359.585" cy="404.033" r="4" fill="#0" id="circle75"/>
	<circle cx="361.605" cy="864.676" r="4" fill="#0" id="circle76"/>
	<circle cx="367.666" cy="4" r="4" fill="#0" id="circle77"/>
	<circle cx="367.666" cy="424.236" r="4" fill="#0" id="circle78"/>
	<circle cx="367.666" cy="444.44" r="4" fill="#0" id="circle79"/>
	<circle cx="367.666" cy="464.644" r="4" fill="#0" id="circle80"/>
	<circle cx="367.666" cy="484.847" r="4" fill="#0" id="circle81"/>
	<circle cx="367.666" cy="505.051" r="4" fill="#0" id="circle82"/>
	<circle cx="367.666" cy="525.255" r="4" fill="#0" id="circle83"/>
	<circle cx="367.666" cy="545.458" r="4" fill="#0" id="circle84"/>
	<circle cx="369.686" cy="996" r="4" fill="#0" id="circle85"/>
	<circle cx="377.768" cy="563.642" r="4" fill="#0" id="circle86"/>
	<circle cx="377.768" cy="583.845" r="4" fill="#0" id="circle87"/>
	<circle cx="377.768" cy="604.049" r="4" fill="#0" id="circle88"/>
	<circle cx="377.768" cy="624.253" r="4" fill="#0" id="circle89"/>
	<circle cx="377.768" cy="644.456" r="4" fill="#0" id="circle90"/>
	<circle cx="377.768" cy="664.66" r="4" fill="#0" id="circle91"/>
	<circle cx="377.768" cy="684.864" r="4" fill="#0" id="circle92"/>
	<circle cx="377.768" cy="705.067" r="4" fill="#0" id="circle93"/>
	<circle cx="377.768" cy="725.271" r="4" fill="#0" id="circle94"/>
	<circle cx="377.768" cy="745.475" r="4" fill="#0" id="circle95"/>
	<circle cx="381.809" cy="854.574" r="4" fill="#0" id="circle96"/>
	<circle cx="387.87" cy="4" r="4" fill="#0" id="circle97"/>
	<circle cx="387.87" cy="763.658" r="4" fill="#0" id="circle98"/>
	<circle cx="387.87" cy="783.862" r="4" fill="#0" id="circle99"/>
	<circle cx="387.87" cy="804.065" r="4" fill="#0" id="circle100"/>
	<circle cx="387.87" cy="824.269" r="4" fill="#0" id="circle101"/>
	<circle cx="389.89" cy="996" r="4" fill="#0" id="circle102"/>
	<circle cx="408.073" cy="4" r="4" fill="#0" id="circle103"/>
	<circle cx="410.094" cy="996" r="4" fill="#0" id="circle104"/>
	<circle cx="428.277" cy="4" r="4" fill="#0" id="circle105"/>
	<circle cx="430.297" cy="996" r="4" fill="#0" id="circle106"/>
	<circle cx="448.481" cy="4" r="4" fill="#0" id="circle107"/>
	<circle cx="450.501" cy="996" r="4" fill="#0" id="circle108"/>
	<circle cx="468.684" cy="4" r="4" fill="#0" id="circle109"/>
	<circle cx="470.705" cy="996" r="4" fill="#0" id="circle110"/>
	<circle cx="488.888" cy="8.04073" r="4" fill="#0" id="circle111"/>
	<circle cx="490.908" cy="996" r="4" fill="#0" id="circle112"/>
	<circle cx="509.092" cy="14.1018" r="4" fill="#0" id="circle113"/>
	<circle cx="511.112" cy="996" r="4" fill="#0" id="circle114"/>
	<circle cx="529.295" cy="14.1018" r="4" fill="#0" id="circle115"/>
	<circle cx="531.316" cy="996" r="4" fill="#0" id="circle116"/>
	<circle cx="541.418" cy="490.908" r="4" fill="#0" id="circle117"/>
	<circle cx="541.418" cy="511.112" r="4" fill="#0" id="circle118"/>
	<circle cx="541.418" cy="531.316" r="4" fill="#0" id="circle119"/>
	<circle cx="541.418" cy="551.519" r="4" fill="#0" id="circle120"/>
	<circle cx="541.418" cy="571.723" r="4" fill="#0" id="circle121"/>
	<circle cx="541.418" cy="591.927" r="4" fill="#0" id="circle122"/>
	<circle cx="541.418" cy="612.13" r="4" fill="#0" id="circle123"/>
	<circle cx="541.418" cy="632.334" r="4" fill="#0" id="circle124"/>
	<circle cx="541.418" cy="652.538" r="4" fill="#0" id="circle125"/>
	<circle cx="541.418" cy="672.741" r="4" fill="#0" id="circle126"/>
	<circle cx="541.418" cy="692.945" r="4" fill="#0" id="circle127"/>
	<circle cx="541.418" cy="713.149" r="4" fill="#0" id="circle128"/>
	<circle cx="541.418" cy="733.352" r="4" fill="#0" id="circle129"/>
	<circle cx="541.418" cy="753.556" r="4" fill="#0" id="circle130"/>
	<circle cx="541.418" cy="773.76" r="4" fill="#0" id="circle131"/>
	<circle cx="541.418" cy="793.963" r="4" fill="#0" id="circle132"/>
	<circle cx="541.418" cy="814.167" r="4" fill="#0" id="circle133"/>
	<circle cx="541.418" cy="834.371" r="4" fill="#0" id="circle134"/>
	<circle cx="545.458" cy="854.574" r="4" fill="#0" id="circle135"/>
	<circle cx="547.479" cy="24.2037" r="4" fill="#0" id="circle136"/>
	<circle cx="551.519" cy="399.992" r="4" fill="#0" id="circle137"/>
	<circle cx="551.519" cy="420.196" r="4" fill="#0" id="circle138"/>
	<circle cx="551.519" cy="440.399" r="4" fill="#0" id="circle139"/>
	<circle cx="551.519" cy="460.603" r="4" fill="#0" id="circle140"/>
	<circle cx="551.519" cy="996" r="4" fill="#0" id="circle141"/>
	<circle cx="565.662" cy="862.656" r="4" fill="#0" id="circle142"/>
	<circle cx="567.682" cy="24.2037" r="4" fill="#0" id="circle143"/>
	<circle cx="571.723" cy="389.89" r="4" fill="#0" id="circle144"/>
	<circle cx="571.723" cy="996" r="4" fill="#0" id="circle145"/>
	<circle cx="583.845" cy="872.758" r="4" fill="#0" id="circle146"/>
	<circle cx="587.886" cy="26.224" r="4" fill="#0" id="circle147"/>
	<circle cx="587.886" cy="375.747" r="4" fill="#0" id="circle148"/>
	<circle cx="591.927" cy="996" r="4" fill="#0" id="circle149"/>
	<circle cx="602.029" cy="882.859" r="4" fill="#0" id="circle150"/>
	<circle cx="608.09" cy="34.3055" r="4" fill="#0" id="circle151"/>
	<circle cx="608.09" cy="365.646" r="4" fill="#0" id="circle152"/>
	<circle cx="612.13" cy="996" r="4" fill="#0" id="circle153"/>
	<circle cx="622.232" cy="888.921" r="4" fill="#0" id="circle154"/>
	<circle cx="628.293" cy="34.3055" r="4" fill="#0" id="circle155"/>
	<circle cx="628.293" cy="359.585" r="4" fill="#0" id="circle156"/>
	<circle cx="632.334" cy="996" r="4" fill="#0" id="circle157"/>
	<circle cx="642.436" cy="892.961" r="4" fill="#0" id="circle158"/>
	<circle cx="646.477" cy="349.483" r="4" fill="#0" id="circle159"/>
	<circle cx="648.497" cy="34.3055" r="4" fill="#0" id="circle160"/>
	<circle cx="652.538" cy="996" r="4" fill="#0" id="circle161"/>
	<circle cx="660.619" cy="903.063" r="4" fill="#0" id="circle162"/>
	<circle cx="664.66" cy="339.381" r="4" fill="#0" id="circle163"/>
	<circle cx="668.701" cy="34.3055" r="4" fill="#0" id="circle164"/>
	<circle cx="672.741" cy="996" r="4" fill="#0" id="circle165"/>
	<circle cx="678.802" cy="913.165" r="4" fill="#0" id="circle166"/>
	<circle cx="682.843" cy="329.279" r="4" fill="#0" id="circle167"/>
	<circle cx="688.904" cy="34.3055" r="4" fill="#0" id="circle168"/>
	<circle cx="692.945" cy="996" r="4" fill="#0" id="circle169"/>
	<circle cx="699.006" cy="915.185" r="4" fill="#0" id="circle170"/>
	<circle cx="701.026" cy="319.177" r="4" fill="#0" id="circle171"/>
	<circle cx="709.108" cy="34.3055" r="4" fill="#0" id="circle172"/>
	<circle cx="713.149" cy="996" r="4" fill="#0" id="circle173"/>
	<circle cx="717.189" cy="925.287" r="4" fill="#0" id="circle174"/>
	<circle cx="719.21" cy="309.075" r="4" fill="#0" id="circle175"/>
	<circle cx="729.312" cy="36.3259" r="4" fill="#0" id="circle176"/>
	<circle cx="733.352" cy="56.5295" r="4" fill="#0" id="circle177"/>
	<circle cx="733.352" cy="996" r="4" fill="#0" id="circle178"/>
	<circle cx="737.393" cy="296.953" r="4" fill="#0" id="circle179"/>
	<circle cx="737.393" cy="933.369" r="4" fill="#0" id="circle180"/>
	<circle cx="743.454" cy="74.7128" r="4" fill="#0" id="circle181"/>
	<circle cx="753.556" cy="92.8961" r="4" fill="#0" id="circle182"/>
	<circle cx="753.556" cy="278.77" r="4" fill="#0" id="circle183"/>
	<circle cx="753.556" cy="996" r="4" fill="#0" id="circle184"/>
	<circle cx="755.576" cy="943.47" r="4" fill="#0" id="circle185"/>
	<circle cx="769.719" cy="107.039" r="4" fill="#0" id="circle186"/>
	<circle cx="769.719" cy="264.627" r="4" fill="#0" id="circle187"/>
	<circle cx="773.76" cy="953.572" r="4" fill="#0" id="circle188"/>
	<circle cx="773.76" cy="996" r="4" fill="#0" id="circle189"/>
	<circle cx="777.8" cy="127.242" r="4" fill="#0" id="circle190"/>
	<circle cx="783.862" cy="248.464" r="4" fill="#0" id="circle191"/>
	<circle cx="793.963" cy="141.385" r="4" fill="#0" id="circle192"/>
	<circle cx="793.963" cy="959.633" r="4" fill="#0" id="circle193"/>
	<circle cx="793.963" cy="996" r="4" fill="#0" id="circle194"/>
	<circle cx="800.024" cy="234.322" r="4" fill="#0" id="circle195"/>
	<circle cx="804.065" cy="159.568" r="4" fill="#0" id="circle196"/>
	<circle cx="810.126" cy="179.772" r="4" fill="#0" id="circle197"/>
	<circle cx="810.126" cy="214.118" r="4" fill="#0" id="circle198"/>
	<circle cx="814.167" cy="963.674" r="4" fill="#0" id="circle199"/>
	<circle cx="814.167" cy="996" r="4" fill="#0" id="circle200"/>
	<circle cx="832.35" cy="973.776" r="4" fill="#0" id="circle201"/>
	<circle cx="834.371" cy="996" r="4" fill="#0" id="circle202"/>
	<circle cx="850.534" cy="983.878" r="4" fill="#0" id="circle203"/>
	</g>
</svg>