<?xml version="1.0" encoding="UTF-8" standalone="no"?>
<!-- Created with CurveBenchmark -->
<svg
	xmlns:dc="http://purl.org/dc/elements/1.1/"
	xmlns:cc="http://creativecommons.org/ns#"
	xmlns:rdf="http://www.w3.org/1999/02/22-rdf-syntax-ns#"
	xmlns:svg="http://www.w3.org/2000/svg"
	xmlns="http://www.w3.org/2000/svg"
	xmlns:sodipodi="http://sodipodi.sourceforge.net/DTD/sodipodi-0.dtd"
	xmlns:inkscape="http://www.inkscape.org/namespaces/inkscape"
	width="1000"
	height="1000"
	id="svg2"
	version="1.1"
	sodipodi:docname="manifold/crawl-fish160.png.txt">
<defs
	id="defs4" />
<metadata
	id="metadata7">
	<rdf:RDF>
		<cc:Work
			rdf:about="">
			<dc:format>image/svg+xml</dc:format>
			<dc:type
				rdf:resource="http://purl.org/dc/dcmitype/StillImage" />
			<dc:title></dc:title>
		</cc:Work>
	</rdf:RDF>
</metadata>
<g
	inkscape:label="Layer 1"
	inkscape:groupmode="layer"
	id="layer1">
	<path style="fill:none;stroke:red;stroke-width:1px;stroke-linecap:butt;stroke-linejoin:miter;stroke-opacity:1" d="M 27.7605,253.485 27.7605,223.784 z" id="boundary" inkscape:connector-curvature="0" />
	<path style="fill:none;stroke:red;stroke-width:1px;stroke-linecap:butt;stroke-linejoin:miter;stroke-opacity:1" d="M 27.7605,223.784 21.8204,194.084 z" id="boundary" inkscape:connector-curvature="0" />
	<path style="fill:none;stroke:red;stroke-width:1px;stroke-linecap:butt;stroke-linejoin:miter;stroke-opacity:1" d="M 21.8204,194.084 9.94012,164.383 z" id="boundary" inkscape:connector-curvature="0" />
	<path style="fill:none;stroke:red;stroke-width:1px;stroke-linecap:butt;stroke-linejoin:miter;stroke-opacity:1" d="M 9.94012,164.383 4,134.683 z" id="boundary" inkscape:connector-curvature="0" />
	<path style="fill:none;stroke:red;stroke-width:1px;stroke-linecap:butt;stroke-linejoin:miter;stroke-opacity:1" d="M 4,134.683 33.7006,122.802 z" id="boundary" inkscape:connector-curvature="0" />
	<path style="fill:none;stroke:red;stroke-width:1px;stroke-linecap:butt;stroke-linejoin:miter;stroke-opacity:1" d="M 33.7006,122.802 63.4012,128.743 z" id="boundary" inkscape:connector-curvature="0" />
	<path style="fill:none;stroke:red;stroke-width:1px;stroke-linecap:butt;stroke-linejoin:miter;stroke-opacity:1" d="M 63.4012,128.743 93.1018,140.623 z" id="boundary" inkscape:connector-curvature="0" />
	<path style="fill:none;stroke:red;stroke-width:1px;stroke-linecap:butt;stroke-linejoin:miter;stroke-opacity:1" d="M 93.1018,140.623 119.832,155.473 z" id="boundary" inkscape:connector-curvature="0" />
	<path style="fill:none;stroke:red;stroke-width:1px;stroke-linecap:butt;stroke-linejoin:miter;stroke-opacity:1" d="M 119.832,155.473 146.563,170.323 z" id="boundary" inkscape:connector-curvature="0" />
	<path style="fill:none;stroke:red;stroke-width:1px;stroke-linecap:butt;stroke-linejoin:miter;stroke-opacity:1" d="M 146.563,170.323 176.263,179.234 z" id="boundary" inkscape:connector-curvature="0" />
	<path style="fill:none;stroke:red;stroke-width:1px;stroke-linecap:butt;stroke-linejoin:miter;stroke-opacity:1" d="M 176.263,179.234 205.964,188.144 z" id="boundary" inkscape:connector-curvature="0" />
	<path style="fill:none;stroke:red;stroke-width:1px;stroke-linecap:butt;stroke-linejoin:miter;stroke-opacity:1" d="M 205.964,188.144 223.784,164.383 z" id="boundary" inkscape:connector-curvature="0" />
	<path style="fill:none;stroke:red;stroke-width:1px;stroke-linecap:butt;stroke-linejoin:miter;stroke-opacity:1" d="M 223.784,164.383 247.545,140.623 z" id="boundary" inkscape:connector-curvature="0" />
	<path style="fill:none;stroke:red;stroke-width:1px;stroke-linecap:butt;stroke-linejoin:miter;stroke-opacity:1" d="M 247.545,140.623 271.305,116.862 z" id="boundary" inkscape:connector-curvature="0" />
	<path style="fill:none;stroke:red;stroke-width:1px;stroke-linecap:butt;stroke-linejoin:miter;stroke-opacity:1" d="M 271.305,116.862 295.066,93.1018 z" id="boundary" inkscape:connector-curvature="0" />
	<path style="fill:none;stroke:red;stroke-width:1px;stroke-linecap:butt;stroke-linejoin:miter;stroke-opacity:1" d="M 295.066,93.1018 324.766,81.2216 z" id="boundary" inkscape:connector-curvature="0" />
	<path style="fill:none;stroke:red;stroke-width:1px;stroke-linecap:butt;stroke-linejoin:miter;stroke-opacity:1" d="M 324.766,81.2216 354.467,75.2814 z" id="boundary" inkscape:connector-curvature="0" />
	<path style="fill:none;stroke:red;stroke-width:1px;stroke-linecap:butt;stroke-linejoin:miter;stroke-opacity:1" d="M 354.467,75.2814 384.168,87.1617 z" id="boundary" inkscape:connector-curvature="0" />
	<path style="fill:none;stroke:red;stroke-width:1px;stroke-linecap:butt;stroke-linejoin:miter;stroke-opacity:1" d="M 384.168,87.1617 410.898,102.012 z" id="boundary" inkscape:connector-curvature="0" />
	<path style="fill:none;stroke:red;stroke-width:1px;stroke-linecap:butt;stroke-linejoin:miter;stroke-opacity:1" d="M 410.898,102.012 440.599,90.1317 z" id="boundary" inkscape:connector-curvature="0" />
	<path style="fill:none;stroke:red;stroke-width:1px;stroke-linecap:butt;stroke-linejoin:miter;stroke-opacity:1" d="M 440.599,90.1317 464.359,69.3413 z" id="boundary" inkscape:connector-curvature="0" />
	<path style="fill:none;stroke:red;stroke-width:1px;stroke-linecap:butt;stroke-linejoin:miter;stroke-opacity:1" d="M 464.359,69.3413 494.06,60.4311 z" id="boundary" inkscape:connector-curvature="0" />
	<path style="fill:none;stroke:red;stroke-width:1px;stroke-linecap:butt;stroke-linejoin:miter;stroke-opacity:1" d="M 494.06,60.4311 520.79,45.5808 z" id="boundary" inkscape:connector-curvature="0" />
	<path style="fill:none;stroke:red;stroke-width:1px;stroke-linecap:butt;stroke-linejoin:miter;stroke-opacity:1" d="M 520.79,45.5808 550.491,27.7605 z" id="boundary" inkscape:connector-curvature="0" />
	<path style="fill:none;stroke:red;stroke-width:1px;stroke-linecap:butt;stroke-linejoin:miter;stroke-opacity:1" d="M 550.491,27.7605 580.192,15.8802 z" id="boundary" inkscape:connector-curvature="0" />
	<path style="fill:none;stroke:red;stroke-width:1px;stroke-linecap:butt;stroke-linejoin:miter;stroke-opacity:1" d="M 580.192,15.8802 609.892,4 z" id="boundary" inkscape:connector-curvature="0" />
	<path style="fill:none;stroke:red;stroke-width:1px;stroke-linecap:butt;stroke-linejoin:miter;stroke-opacity:1" d="M 609.892,4 639.593,4 z" id="boundary" inkscape:connector-curvature="0" />
	<path style="fill:none;stroke:red;stroke-width:1px;stroke-linecap:butt;stroke-linejoin:miter;stroke-opacity:1" d="M 639.593,4 666.323,18.8503 z" id="boundary" inkscape:connector-curvature="0" />
	<path style="fill:none;stroke:red;stroke-width:1px;stroke-linecap:butt;stroke-linejoin:miter;stroke-opacity:1" d="M 666.323,18.8503 684.144,42.6108 z" id="boundary" inkscape:connector-curvature="0" />
	<path style="fill:none;stroke:red;stroke-width:1px;stroke-linecap:butt;stroke-linejoin:miter;stroke-opacity:1" d="M 684.144,42.6108 707.904,60.4311 z" id="boundary" inkscape:connector-curvature="0" />
	<path style="fill:none;stroke:red;stroke-width:1px;stroke-linecap:butt;stroke-linejoin:miter;stroke-opacity:1" d="M 707.904,60.4311 707.904,90.1317 z" id="boundary" inkscape:connector-curvature="0" />
	<path style="fill:none;stroke:red;stroke-width:1px;stroke-linecap:butt;stroke-linejoin:miter;stroke-opacity:1" d="M 707.904,90.1317 734.635,104.982 z" id="boundary" inkscape:connector-curvature="0" />
	<path style="fill:none;stroke:red;stroke-width:1px;stroke-linecap:butt;stroke-linejoin:miter;stroke-opacity:1" d="M 734.635,104.982 764.335,110.922 z" id="boundary" inkscape:connector-curvature="0" />
	<path style="fill:none;stroke:red;stroke-width:1px;stroke-linecap:butt;stroke-linejoin:miter;stroke-opacity:1" d="M 764.335,110.922 794.036,116.862 z" id="boundary" inkscape:connector-curvature="0" />
	<path style="fill:none;stroke:red;stroke-width:1px;stroke-linecap:butt;stroke-linejoin:miter;stroke-opacity:1" d="M 794.036,116.862 823.737,128.743 z" id="boundary" inkscape:connector-curvature="0" />
	<path style="fill:none;stroke:red;stroke-width:1px;stroke-linecap:butt;stroke-linejoin:miter;stroke-opacity:1" d="M 823.737,128.743 853.437,140.623 z" id="boundary" inkscape:connector-curvature="0" />
	<path style="fill:none;stroke:red;stroke-width:1px;stroke-linecap:butt;stroke-linejoin:miter;stroke-opacity:1" d="M 853.437,140.623 883.138,149.533 z" id="boundary" inkscape:connector-curvature="0" />
	<path style="fill:none;stroke:red;stroke-width:1px;stroke-linecap:butt;stroke-linejoin:miter;stroke-opacity:1" d="M 883.138,149.533 909.868,164.383 z" id="boundary" inkscape:connector-curvature="0" />
	<path style="fill:none;stroke:red;stroke-width:1px;stroke-linecap:butt;stroke-linejoin:miter;stroke-opacity:1" d="M 909.868,164.383 939.569,176.263 z" id="boundary" inkscape:connector-curvature="0" />
	<path style="fill:none;stroke:red;stroke-width:1px;stroke-linecap:butt;stroke-linejoin:miter;stroke-opacity:1" d="M 939.569,176.263 966.299,191.114 z" id="boundary" inkscape:connector-curvature="0" />
	<path style="fill:none;stroke:red;stroke-width:1px;stroke-linecap:butt;stroke-linejoin:miter;stroke-opacity:1" d="M 966.299,191.114 996,202.994 z" id="boundary" inkscape:connector-curvature="0" />
	<path style="fill:none;stroke:red;stroke-width:1px;stroke-linecap:butt;stroke-linejoin:miter;stroke-opacity:1" d="M 996,202.994 996,238.635 z" id="boundary" inkscape:connector-curvature="0" />
	<path style="fill:none;stroke:red;stroke-width:1px;stroke-linecap:butt;stroke-linejoin:miter;stroke-opacity:1" d="M 996,238.635 972.24,262.395 z" id="boundary" inkscape:connector-curvature="0" />
	<path style="fill:none;stroke:red;stroke-width:1px;stroke-linecap:butt;stroke-linejoin:miter;stroke-opacity:1" d="M 972.24,262.395 948.479,286.156 z" id="boundary" inkscape:connector-curvature="0" />
	<path style="fill:none;stroke:red;stroke-width:1px;stroke-linecap:butt;stroke-linejoin:miter;stroke-opacity:1" d="M 948.479,286.156 924.719,309.916 z" id="boundary" inkscape:connector-curvature="0" />
	<path style="fill:none;stroke:red;stroke-width:1px;stroke-linecap:butt;stroke-linejoin:miter;stroke-opacity:1" d="M 924.719,309.916 900.958,327.737 z" id="boundary" inkscape:connector-curvature="0" />
	<path style="fill:none;stroke:red;stroke-width:1px;stroke-linecap:butt;stroke-linejoin:miter;stroke-opacity:1" d="M 900.958,327.737 871.257,333.677 z" id="boundary" inkscape:connector-curvature="0" />
	<path style="fill:none;stroke:red;stroke-width:1px;stroke-linecap:butt;stroke-linejoin:miter;stroke-opacity:1" d="M 871.257,333.677 841.557,345.557 z" id="boundary" inkscape:connector-curvature="0" />
	<path style="fill:none;stroke:red;stroke-width:1px;stroke-linecap:butt;stroke-linejoin:miter;stroke-opacity:1" d="M 841.557,345.557 811.856,357.437 z" id="boundary" inkscape:connector-curvature="0" />
	<path style="fill:none;stroke:red;stroke-width:1px;stroke-linecap:butt;stroke-linejoin:miter;stroke-opacity:1" d="M 811.856,357.437 782.156,369.317 z" id="boundary" inkscape:connector-curvature="0" />
	<path style="fill:none;stroke:red;stroke-width:1px;stroke-linecap:butt;stroke-linejoin:miter;stroke-opacity:1" d="M 782.156,369.317 752.455,375.257 z" id="boundary" inkscape:connector-curvature="0" />
	<path style="fill:none;stroke:red;stroke-width:1px;stroke-linecap:butt;stroke-linejoin:miter;stroke-opacity:1" d="M 752.455,375.257 722.754,387.138 z" id="boundary" inkscape:connector-curvature="0" />
	<path style="fill:none;stroke:red;stroke-width:1px;stroke-linecap:butt;stroke-linejoin:miter;stroke-opacity:1" d="M 722.754,387.138 707.904,413.868 z" id="boundary" inkscape:connector-curvature="0" />
	<path style="fill:none;stroke:red;stroke-width:1px;stroke-linecap:butt;stroke-linejoin:miter;stroke-opacity:1" d="M 707.904,413.868 690.084,443.569 z" id="boundary" inkscape:connector-curvature="0" />
	<path style="fill:none;stroke:red;stroke-width:1px;stroke-linecap:butt;stroke-linejoin:miter;stroke-opacity:1" d="M 690.084,443.569 666.323,467.329 z" id="boundary" inkscape:connector-curvature="0" />
	<path style="fill:none;stroke:red;stroke-width:1px;stroke-linecap:butt;stroke-linejoin:miter;stroke-opacity:1" d="M 666.323,467.329 636.623,476.24 z" id="boundary" inkscape:connector-curvature="0" />
	<path style="fill:none;stroke:red;stroke-width:1px;stroke-linecap:butt;stroke-linejoin:miter;stroke-opacity:1" d="M 636.623,476.24 606.922,470.299 z" id="boundary" inkscape:connector-curvature="0" />
	<path style="fill:none;stroke:red;stroke-width:1px;stroke-linecap:butt;stroke-linejoin:miter;stroke-opacity:1" d="M 606.922,470.299 577.222,479.21 z" id="boundary" inkscape:connector-curvature="0" />
	<path style="fill:none;stroke:red;stroke-width:1px;stroke-linecap:butt;stroke-linejoin:miter;stroke-opacity:1" d="M 577.222,479.21 553.461,461.389 z" id="boundary" inkscape:connector-curvature="0" />
	<path style="fill:none;stroke:red;stroke-width:1px;stroke-linecap:butt;stroke-linejoin:miter;stroke-opacity:1" d="M 553.461,461.389 544.551,431.689 z" id="boundary" inkscape:connector-curvature="0" />
	<path style="fill:none;stroke:red;stroke-width:1px;stroke-linecap:butt;stroke-linejoin:miter;stroke-opacity:1" d="M 544.551,431.689 544.551,401.988 z" id="boundary" inkscape:connector-curvature="0" />
	<path style="fill:none;stroke:red;stroke-width:1px;stroke-linecap:butt;stroke-linejoin:miter;stroke-opacity:1" d="M 544.551,401.988 538.611,369.317 z" id="boundary" inkscape:connector-curvature="0" />
	<path style="fill:none;stroke:red;stroke-width:1px;stroke-linecap:butt;stroke-linejoin:miter;stroke-opacity:1" d="M 538.611,369.317 508.91,369.317 z" id="boundary" inkscape:connector-curvature="0" />
	<path style="fill:none;stroke:red;stroke-width:1px;stroke-linecap:butt;stroke-linejoin:miter;stroke-opacity:1" d="M 508.91,369.317 479.21,363.377 z" id="boundary" inkscape:connector-curvature="0" />
	<path style="fill:none;stroke:red;stroke-width:1px;stroke-linecap:butt;stroke-linejoin:miter;stroke-opacity:1" d="M 479.21,363.377 449.509,363.377 z" id="boundary" inkscape:connector-curvature="0" />
	<path style="fill:none;stroke:red;stroke-width:1px;stroke-linecap:butt;stroke-linejoin:miter;stroke-opacity:1" d="M 449.509,363.377 419.808,363.377 z" id="boundary" inkscape:connector-curvature="0" />
	<path style="fill:none;stroke:red;stroke-width:1px;stroke-linecap:butt;stroke-linejoin:miter;stroke-opacity:1" d="M 419.808,363.377 390.108,357.437 z" id="boundary" inkscape:connector-curvature="0" />
	<path style="fill:none;stroke:red;stroke-width:1px;stroke-linecap:butt;stroke-linejoin:miter;stroke-opacity:1" d="M 390.108,357.437 360.407,363.377 z" id="boundary" inkscape:connector-curvature="0" />
	<path style="fill:none;stroke:red;stroke-width:1px;stroke-linecap:butt;stroke-linejoin:miter;stroke-opacity:1" d="M 360.407,363.377 330.707,375.257 z" id="boundary" inkscape:connector-curvature="0" />
	<path style="fill:none;stroke:red;stroke-width:1px;stroke-linecap:butt;stroke-linejoin:miter;stroke-opacity:1" d="M 330.707,375.257 301.006,381.198 z" id="boundary" inkscape:connector-curvature="0" />
	<path style="fill:none;stroke:red;stroke-width:1px;stroke-linecap:butt;stroke-linejoin:miter;stroke-opacity:1" d="M 301.006,381.198 271.305,381.198 z" id="boundary" inkscape:connector-curvature="0" />
	<path style="fill:none;stroke:red;stroke-width:1px;stroke-linecap:butt;stroke-linejoin:miter;stroke-opacity:1" d="M 271.305,381.198 241.605,369.317 z" id="boundary" inkscape:connector-curvature="0" />
	<path style="fill:none;stroke:red;stroke-width:1px;stroke-linecap:butt;stroke-linejoin:miter;stroke-opacity:1" d="M 241.605,369.317 229.725,339.617 z" id="boundary" inkscape:connector-curvature="0" />
	<path style="fill:none;stroke:red;stroke-width:1px;stroke-linecap:butt;stroke-linejoin:miter;stroke-opacity:1" d="M 229.725,339.617 223.784,309.916 z" id="boundary" inkscape:connector-curvature="0" />
	<path style="fill:none;stroke:red;stroke-width:1px;stroke-linecap:butt;stroke-linejoin:miter;stroke-opacity:1" d="M 223.784,309.916 202.994,286.156 z" id="boundary" inkscape:connector-curvature="0" />
	<path style="fill:none;stroke:red;stroke-width:1px;stroke-linecap:butt;stroke-linejoin:miter;stroke-opacity:1" d="M 202.994,286.156 173.293,295.066 z" id="boundary" inkscape:connector-curvature="0" />
	<path style="fill:none;stroke:red;stroke-width:1px;stroke-linecap:butt;stroke-linejoin:miter;stroke-opacity:1" d="M 173.293,295.066 146.563,309.916 z" id="boundary" inkscape:connector-curvature="0" />
	<path style="fill:none;stroke:red;stroke-width:1px;stroke-linecap:butt;stroke-linejoin:miter;stroke-opacity:1" d="M 146.563,309.916 119.832,327.737 z" id="boundary" inkscape:connector-curvature="0" />
	<path style="fill:none;stroke:red;stroke-width:1px;stroke-linecap:butt;stroke-linejoin:miter;stroke-opacity:1" d="M 119.832,327.737 90.1317,339.617 z" id="boundary" inkscape:connector-curvature="0" />
	<path style="fill:none;stroke:red;stroke-width:1px;stroke-linecap:butt;stroke-linejoin:miter;stroke-opacity:1" d="M 90.1317,339.617 60.4311,348.527 z" id="boundary" inkscape:connector-curvature="0" />
	<path style="fill:none;stroke:red;stroke-width:1px;stroke-linecap:butt;stroke-linejoin:miter;stroke-opacity:1" d="M 60.4311,348.527 30.7305,351.497 z" id="boundary" inkscape:connector-curvature="0" />
	<path style="fill:none;stroke:red;stroke-width:1px;stroke-linecap:butt;stroke-linejoin:miter;stroke-opacity:1" d="M 30.7305,351.497 4,336.647 z" id="boundary" inkscape:connector-curvature="0" />
	<path style="fill:none;stroke:red;stroke-width:1px;stroke-linecap:butt;stroke-linejoin:miter;stroke-opacity:1" d="M 4,336.647 15.8802,295.066 z" id="boundary" inkscape:connector-curvature="0" />
	<path style="fill:none;stroke:red;stroke-width:1px;stroke-linecap:butt;stroke-linejoin:miter;stroke-opacity:1" d="M 27.7605,253.485 15.8802,295.066 z" id="boundary" inkscape:connector-curvature="0" />
	<circle cx="4" cy="134.683" r="4" fill="#0" id="circle0"/>
	<circle cx="4" cy="336.647" r="4" fill="#0" id="circle1"/>
	<circle cx="9.94012" cy="164.383" r="4" fill="#0" id="circle2"/>
	<circle cx="15.8802" cy="295.066" r="4" fill="#0" id="circle3"/>
	<circle cx="21.8204" cy="194.084" r="4" fill="#0" id="circle4"/>
	<circle cx="27.7605" cy="223.784" r="4" fill="#0" id="circle5"/>
	<circle cx="27.7605" cy="253.485" r="4" fill="#0" id="circle6"/>
	<circle cx="30.7305" cy="351.497" r="4" fill="#0" id="circle7"/>
	<circle cx="33.7006" cy="122.802" r="4" fill="#0" id="circle8"/>
	<circle cx="60.4311" cy="348.527" r="4" fill="#0" id="circle9"/>
	<circle cx="63.4012" cy="128.743" r="4" fill="#0" id="circle10"/>
	<circle cx="90.1317" cy="339.617" r="4" fill="#0" id="circle11"/>
	<circle cx="93.1018" cy="140.623" r="4" fill="#0" id="circle12"/>
	<circle cx="119.832" cy="155.473" r="4" fill="#0" id="circle13"/>
	<circle cx="119.832" cy="327.737" r="4" fill="#0" id="circle14"/>
	<circle cx="146.563" cy="170.323" r="4" fill="#0" id="circle15"/>
	<circle cx="146.563" cy="309.916" r="4" fill="#0" id="circle16"/>
	<circle cx="173.293" cy="295.066" r="4" fill="#0" id="circle17"/>
	<circle cx="176.263" cy="179.234" r="4" fill="#0" id="circle18"/>
	<circle cx="202.994" cy="286.156" r="4" fill="#0" id="circle19"/>
	<circle cx="205.964" cy="188.144" r="4" fill="#0" id="circle20"/>
	<circle cx="223.784" cy="164.383" r="4" fill="#0" id="circle21"/>
	<circle cx="223.784" cy="309.916" r="4" fill="#0" id="circle22"/>
	<circle cx="229.725" cy="339.617" r="4" fill="#0" id="circle23"/>
	<circle cx="241.605" cy="369.317" r="4" fill="#0" id="circle24"/>
	<circle cx="247.545" cy="140.623" r="4" fill="#0" id="circle25"/>
	<circle cx="271.305" cy="116.862" r="4" fill="#0" id="circle26"/>
	<circle cx="271.305" cy="381.198" r="4" fill="#0" id="circle27"/>
	<circle cx="295.066" cy="93.1018" r="4" fill="#0" id="circle28"/>
	<circle cx="301.006" cy="381.198" r="4" fill="#0" id="circle29"/>
	<circle cx="324.766" cy="81.2216" r="4" fill="#0" id="circle30"/>
	<circle cx="330.707" cy="375.257" r="4" fill="#0" id="circle31"/>
	<circle cx="354.467" cy="75.2814" r="4" fill="#0" id="circle32"/>
	<circle cx="360.407" cy="363.377" r="4" fill="#0" id="circle33"/>
	<circle cx="384.168" cy="87.1617" r="4" fill="#0" id="circle34"/>
	<circle cx="390.108" cy="357.437" r="4" fill="#0" id="circle35"/>
	<circle cx="410.898" cy="102.012" r="4" fill="#0" id="circle36"/>
	<circle cx="419.808" cy="363.377" r="4" fill="#0" id="circle37"/>
	<circle cx="440.599" cy="90.1317" r="4" fill="#0" id="circle38"/>
	<circle cx="449.509" cy="363.377" r="4" fill="#0" id="circle39"/>
	<circle cx="464.359" cy="69.3413" r="4" fill="#0" id="circle40"/>
	<circle cx="479.21" cy="363.377" r="4" fill="#0" id="circle41"/>
	<circle cx="494.06" cy="60.4311" r="4" fill="#0" id="circle42"/>
	<circle cx="508.91" cy="369.317" r="4" fill="#0" id="circle43"/>
	<circle cx="520.79" cy="45.5808" r="4" fill="#0" id="circle44"/>
	<circle cx="538.611" cy="369.317" r="4" fill="#0" id="circle45"/>
	<circle cx="544.551" cy="401.988" r="4" fill="#0" id="circle46"/>
	<circle cx="544.551" cy="431.689" r="4" fill="#0" id="circle47"/>
	<circle cx="550.491" cy="27.7605" r="4" fill="#0" id="circle48"/>
	<circle cx="553.461" cy="461.389" r="4" fill="#0" id="circle49"/>
	<circle cx="577.222" cy="479.21" r="4" fill="#0" id="circle50"/>
	<circle cx="580.192" cy="15.8802" r="4" fill="#0" id="circle51"/>
	<circle cx="606.922" cy="470.299" r="4" fill="#0" id="circle52"/>
	<circle cx="609.892" cy="4" r="4" fill="#0" id="circle53"/>
	<circle cx="636.623" cy="476.24" r="4" fill="#0" id="circle54"/>
	<circle cx="639.593" cy="4" r="4" fill="#0" id="circle55"/>
	<circle cx="666.323" cy="18.8503" r="4" fill="#0" id="circle56"/>
	<circle cx="666.323" cy="467.329" r="4" fill="#0" id="circle57"/>
	<circle cx="684.144" cy="42.6108" r="4" fill="#0" id="circle58"/>
	<circle cx="690.084" cy="443.569" r="4" fill="#0" id="circle59"/>
	<circle cx="707.904" cy="60.4311" r="4" fill="#0" id="circle60"/>
	<circle cx="707.904" cy="90.1317" r="4" fill="#0" id="circle61"/>
	<circle cx="707.904" cy="413.868" r="4" fill="#0" id="circle62"/>
	<circle cx="722.754" cy="387.138" r="4" fill="#0" id="circle63"/>
	<circle cx="734.635" cy="104.982" r="4" fill="#0" id="circle64"/>
	<circle cx="752.455" cy="375.257" r="4" fill="#0" id="circle65"/>
	<circle cx="764.335" cy="110.922" r="4" fill="#0" id="circle66"/>
	<circle cx="782.156" cy="369.317" r="4" fill="#0" id="circle67"/>
	<circle cx="794.036" cy="116.862" r="4" fill="#0" id="circle68"/>
	<circle cx="811.856" cy="357.437" r="4" fill="#0" id="circle69"/>
	<circle cx="823.737" cy="128.743" r="4" fill="#0" id="circle70"/>
	<circle cx="841.557" cy="345.557" r="4" fill="#0" id="circle71"/>
	<circle cx="853.437" cy="140.623" r="4" fill="#0" id="circle72"/>
	<circle cx="871.257" cy="333.677" r="4" fill="#0" id="circle73"/>
	<circle cx="883.138" cy="149.533" r="4" fill="#0" id="circle74"/>
	<circle cx="900.958" cy="327.737" r="4" fill="#0" id="circle75"/>
	<circle cx="909.868" cy="164.383" r="4" fill="#0" id="circle76"/>
	<circle cx="924.719" cy="309.916" r="4" fill="#0" id="circle77"/>
	<circle cx="939.569" cy="176.263" r="4" fill="#0" id="circle78"/>
	<circle cx="948.479" cy="286.156" r="4" fill="#0" id="circle79"/>
	<circle cx="966.299" cy="191.114" r="4" fill="#0" id="circle80"/>
	<circle cx="972.24" cy="262.395" r="4" fill="#0" id="circle81"/>
	<circle cx="996" cy="202.994" r="4" fill="#0" id="circle82"/>
	<circle cx="996" cy="238.635" r="4" fill="#0" id="circle83"/>
	</g>
</svg>