<?xml version="1.0" encoding="UTF-8" standalone="no"?>
<!-- Created with CurveBenchmark -->
<svg
	xmlns:dc="http://purl.org/dc/elements/1.1/"
	xmlns:cc="http://creativecommons.org/ns#"
	xmlns:rdf="http://www.w3.org/1999/02/22-rdf-syntax-ns#"
	xmlns:svg="http://www.w3.org/2000/svg"
	xmlns="http://www.w3.org/2000/svg"
	xmlns:sodipodi="http://sodipodi.sourceforge.net/DTD/sodipodi-0.dtd"
	xmlns:inkscape="http://www.inkscape.org/namespaces/inkscape"
	width="1000"
	height="1000"
	id="svg2"
	version="1.1"
	sodipodi:docname="manifold/crawl-children-5.png.txt">
<defs
	id="defs4" />
<metadata
	id="metadata7">
	<rdf:RDF>
		<cc:Work
			rdf:about="">
			<dc:format>image/svg+xml</dc:format>
			<dc:type
				rdf:resource="http://purl.org/dc/dcmitype/StillImage" />
			<dc:title></dc:title>
		</cc:Work>
	</rdf:RDF>
</metadata>
<g
	inkscape:label="Layer 1"
	inkscape:groupmode="layer"
	id="layer1">
	<path style="fill:none;stroke:red;stroke-width:1px;stroke-linecap:butt;stroke-linejoin:miter;stroke-opacity:1" d="M 4,323.923 4,335.86 z" id="boundary" inkscape:connector-curvature="0" />
	<path style="fill:none;stroke:red;stroke-width:1px;stroke-linecap:butt;stroke-linejoin:miter;stroke-opacity:1" d="M 4,335.86 4,347.798 z" id="boundary" inkscape:connector-curvature="0" />
	<path style="fill:none;stroke:red;stroke-width:1px;stroke-linecap:butt;stroke-linejoin:miter;stroke-opacity:1" d="M 4,347.798 4,359.735 z" id="boundary" inkscape:connector-curvature="0" />
	<path style="fill:none;stroke:red;stroke-width:1px;stroke-linecap:butt;stroke-linejoin:miter;stroke-opacity:1" d="M 4,359.735 4,371.673 z" id="boundary" inkscape:connector-curvature="0" />
	<path style="fill:none;stroke:red;stroke-width:1px;stroke-linecap:butt;stroke-linejoin:miter;stroke-opacity:1" d="M 4,323.923 4,311.986 z" id="boundary" inkscape:connector-curvature="0" />
	<path style="fill:none;stroke:red;stroke-width:1px;stroke-linecap:butt;stroke-linejoin:miter;stroke-opacity:1" d="M 4,371.673 9.96871,382.416 z" id="boundary" inkscape:connector-curvature="0" />
	<path style="fill:none;stroke:red;stroke-width:1px;stroke-linecap:butt;stroke-linejoin:miter;stroke-opacity:1" d="M 9.96871,382.416 15.9374,393.16 z" id="boundary" inkscape:connector-curvature="0" />
	<path style="fill:none;stroke:red;stroke-width:1px;stroke-linecap:butt;stroke-linejoin:miter;stroke-opacity:1" d="M 15.9374,393.16 15.9374,405.097 z" id="boundary" inkscape:connector-curvature="0" />
	<path style="fill:none;stroke:red;stroke-width:1px;stroke-linecap:butt;stroke-linejoin:miter;stroke-opacity:1" d="M 15.9374,405.097 15.9374,417.035 z" id="boundary" inkscape:connector-curvature="0" />
	<path style="fill:none;stroke:red;stroke-width:1px;stroke-linecap:butt;stroke-linejoin:miter;stroke-opacity:1" d="M 4,311.986 9.96871,300.048 z" id="boundary" inkscape:connector-curvature="0" />
	<path style="fill:none;stroke:red;stroke-width:1px;stroke-linecap:butt;stroke-linejoin:miter;stroke-opacity:1" d="M 9.96871,300.048 15.9374,288.111 z" id="boundary" inkscape:connector-curvature="0" />
	<path style="fill:none;stroke:red;stroke-width:1px;stroke-linecap:butt;stroke-linejoin:miter;stroke-opacity:1" d="M 15.9374,288.111 21.9061,276.173 z" id="boundary" inkscape:connector-curvature="0" />
	<path style="fill:none;stroke:red;stroke-width:1px;stroke-linecap:butt;stroke-linejoin:miter;stroke-opacity:1" d="M 21.9061,276.173 31.4561,266.623 z" id="boundary" inkscape:connector-curvature="0" />
	<path style="fill:none;stroke:red;stroke-width:1px;stroke-linecap:butt;stroke-linejoin:miter;stroke-opacity:1" d="M 31.4561,266.623 41.006,257.073 z" id="boundary" inkscape:connector-curvature="0" />
	<path style="fill:none;stroke:red;stroke-width:1px;stroke-linecap:butt;stroke-linejoin:miter;stroke-opacity:1" d="M 41.006,257.073 52.9434,251.105 z" id="boundary" inkscape:connector-curvature="0" />
	<path style="fill:none;stroke:red;stroke-width:1px;stroke-linecap:butt;stroke-linejoin:miter;stroke-opacity:1" d="M 52.9434,251.105 62.4934,242.748 z" id="boundary" inkscape:connector-curvature="0" />
	<path style="fill:none;stroke:red;stroke-width:1px;stroke-linecap:butt;stroke-linejoin:miter;stroke-opacity:1" d="M 62.4934,242.748 70.8496,233.199 z" id="boundary" inkscape:connector-curvature="0" />
	<path style="fill:none;stroke:red;stroke-width:1px;stroke-linecap:butt;stroke-linejoin:miter;stroke-opacity:1" d="M 70.8496,233.199 80.3995,224.842 z" id="boundary" inkscape:connector-curvature="0" />
	<path style="fill:none;stroke:red;stroke-width:1px;stroke-linecap:butt;stroke-linejoin:miter;stroke-opacity:1" d="M 80.3995,224.842 81.5933,211.711 z" id="boundary" inkscape:connector-curvature="0" />
	<path style="fill:none;stroke:red;stroke-width:1px;stroke-linecap:butt;stroke-linejoin:miter;stroke-opacity:1" d="M 81.5933,211.711 81.5933,199.774 z" id="boundary" inkscape:connector-curvature="0" />
	<path style="fill:none;stroke:red;stroke-width:1px;stroke-linecap:butt;stroke-linejoin:miter;stroke-opacity:1" d="M 81.5933,199.774 74.4308,190.224 z" id="boundary" inkscape:connector-curvature="0" />
	<path style="fill:none;stroke:red;stroke-width:1px;stroke-linecap:butt;stroke-linejoin:miter;stroke-opacity:1" d="M 74.4308,190.224 64.8809,181.868 z" id="boundary" inkscape:connector-curvature="0" />
	<path style="fill:none;stroke:red;stroke-width:1px;stroke-linecap:butt;stroke-linejoin:miter;stroke-opacity:1" d="M 64.8809,181.868 56.5247,172.318 z" id="boundary" inkscape:connector-curvature="0" />
	<path style="fill:none;stroke:red;stroke-width:1px;stroke-linecap:butt;stroke-linejoin:miter;stroke-opacity:1" d="M 56.5247,172.318 46.9747,163.961 z" id="boundary" inkscape:connector-curvature="0" />
	<path style="fill:none;stroke:red;stroke-width:1px;stroke-linecap:butt;stroke-linejoin:miter;stroke-opacity:1" d="M 46.9747,163.961 39.8123,154.412 z" id="boundary" inkscape:connector-curvature="0" />
	<path style="fill:none;stroke:red;stroke-width:1px;stroke-linecap:butt;stroke-linejoin:miter;stroke-opacity:1" d="M 39.8123,154.412 33.8436,143.668 z" id="boundary" inkscape:connector-curvature="0" />
	<path style="fill:none;stroke:red;stroke-width:1px;stroke-linecap:butt;stroke-linejoin:miter;stroke-opacity:1" d="M 33.8436,143.668 27.8748,132.924 z" id="boundary" inkscape:connector-curvature="0" />
	<path style="fill:none;stroke:red;stroke-width:1px;stroke-linecap:butt;stroke-linejoin:miter;stroke-opacity:1" d="M 27.8748,132.924 27.8748,120.987 z" id="boundary" inkscape:connector-curvature="0" />
	<path style="fill:none;stroke:red;stroke-width:1px;stroke-linecap:butt;stroke-linejoin:miter;stroke-opacity:1" d="M 27.8748,120.987 27.8748,109.049 z" id="boundary" inkscape:connector-curvature="0" />
	<path style="fill:none;stroke:red;stroke-width:1px;stroke-linecap:butt;stroke-linejoin:miter;stroke-opacity:1" d="M 27.8748,109.049 27.8748,97.1119 z" id="boundary" inkscape:connector-curvature="0" />
	<path style="fill:none;stroke:red;stroke-width:1px;stroke-linecap:butt;stroke-linejoin:miter;stroke-opacity:1" d="M 27.8748,97.1119 27.8748,85.1745 z" id="boundary" inkscape:connector-curvature="0" />
	<path style="fill:none;stroke:red;stroke-width:1px;stroke-linecap:butt;stroke-linejoin:miter;stroke-opacity:1" d="M 27.8748,85.1745 27.8748,73.2371 z" id="boundary" inkscape:connector-curvature="0" />
	<path style="fill:none;stroke:red;stroke-width:1px;stroke-linecap:butt;stroke-linejoin:miter;stroke-opacity:1" d="M 27.8748,73.2371 33.8436,61.2996 z" id="boundary" inkscape:connector-curvature="0" />
	<path style="fill:none;stroke:red;stroke-width:1px;stroke-linecap:butt;stroke-linejoin:miter;stroke-opacity:1" d="M 33.8436,61.2996 39.8123,49.3622 z" id="boundary" inkscape:connector-curvature="0" />
	<path style="fill:none;stroke:red;stroke-width:1px;stroke-linecap:butt;stroke-linejoin:miter;stroke-opacity:1" d="M 39.8123,49.3622 49.3622,39.8123 z" id="boundary" inkscape:connector-curvature="0" />
	<path style="fill:none;stroke:red;stroke-width:1px;stroke-linecap:butt;stroke-linejoin:miter;stroke-opacity:1" d="M 49.3622,39.8123 58.9122,30.2623 z" id="boundary" inkscape:connector-curvature="0" />
	<path style="fill:none;stroke:red;stroke-width:1px;stroke-linecap:butt;stroke-linejoin:miter;stroke-opacity:1" d="M 58.9122,30.2623 68.4621,21.9061 z" id="boundary" inkscape:connector-curvature="0" />
	<path style="fill:none;stroke:red;stroke-width:1px;stroke-linecap:butt;stroke-linejoin:miter;stroke-opacity:1" d="M 68.4621,21.9061 79.2058,15.9374 z" id="boundary" inkscape:connector-curvature="0" />
	<path style="fill:none;stroke:red;stroke-width:1px;stroke-linecap:butt;stroke-linejoin:miter;stroke-opacity:1" d="M 79.2058,15.9374 91.1432,9.96871 z" id="boundary" inkscape:connector-curvature="0" />
	<path style="fill:none;stroke:red;stroke-width:1px;stroke-linecap:butt;stroke-linejoin:miter;stroke-opacity:1" d="M 91.1432,9.96871 103.081,9.96871 z" id="boundary" inkscape:connector-curvature="0" />
	<path style="fill:none;stroke:red;stroke-width:1px;stroke-linecap:butt;stroke-linejoin:miter;stroke-opacity:1" d="M 103.081,9.96871 113.824,4 z" id="boundary" inkscape:connector-curvature="0" />
	<path style="fill:none;stroke:red;stroke-width:1px;stroke-linecap:butt;stroke-linejoin:miter;stroke-opacity:1" d="M 113.824,4 125.762,4 z" id="boundary" inkscape:connector-curvature="0" />
	<path style="fill:none;stroke:red;stroke-width:1px;stroke-linecap:butt;stroke-linejoin:miter;stroke-opacity:1" d="M 125.762,4 137.699,4 z" id="boundary" inkscape:connector-curvature="0" />
	<path style="fill:none;stroke:red;stroke-width:1px;stroke-linecap:butt;stroke-linejoin:miter;stroke-opacity:1" d="M 137.699,4 149.637,4 z" id="boundary" inkscape:connector-curvature="0" />
	<path style="fill:none;stroke:red;stroke-width:1px;stroke-linecap:butt;stroke-linejoin:miter;stroke-opacity:1" d="M 149.637,4 161.574,4 z" id="boundary" inkscape:connector-curvature="0" />
	<path style="fill:none;stroke:red;stroke-width:1px;stroke-linecap:butt;stroke-linejoin:miter;stroke-opacity:1" d="M 161.574,4 173.511,4 z" id="boundary" inkscape:connector-curvature="0" />
	<path style="fill:none;stroke:red;stroke-width:1px;stroke-linecap:butt;stroke-linejoin:miter;stroke-opacity:1" d="M 173.511,4 184.255,9.96871 z" id="boundary" inkscape:connector-curvature="0" />
	<path style="fill:none;stroke:red;stroke-width:1px;stroke-linecap:butt;stroke-linejoin:miter;stroke-opacity:1" d="M 184.255,9.96871 196.193,9.96871 z" id="boundary" inkscape:connector-curvature="0" />
	<path style="fill:none;stroke:red;stroke-width:1px;stroke-linecap:butt;stroke-linejoin:miter;stroke-opacity:1" d="M 196.193,9.96871 206.936,15.9374 z" id="boundary" inkscape:connector-curvature="0" />
	<path style="fill:none;stroke:red;stroke-width:1px;stroke-linecap:butt;stroke-linejoin:miter;stroke-opacity:1" d="M 206.936,15.9374 217.68,21.9061 z" id="boundary" inkscape:connector-curvature="0" />
	<path style="fill:none;stroke:red;stroke-width:1px;stroke-linecap:butt;stroke-linejoin:miter;stroke-opacity:1" d="M 217.68,21.9061 228.424,27.8748 z" id="boundary" inkscape:connector-curvature="0" />
	<path style="fill:none;stroke:red;stroke-width:1px;stroke-linecap:butt;stroke-linejoin:miter;stroke-opacity:1" d="M 228.424,27.8748 239.167,33.8436 z" id="boundary" inkscape:connector-curvature="0" />
	<path style="fill:none;stroke:red;stroke-width:1px;stroke-linecap:butt;stroke-linejoin:miter;stroke-opacity:1" d="M 239.167,33.8436 248.717,42.1998 z" id="boundary" inkscape:connector-curvature="0" />
	<path style="fill:none;stroke:red;stroke-width:1px;stroke-linecap:butt;stroke-linejoin:miter;stroke-opacity:1" d="M 248.717,42.1998 255.88,51.7497 z" id="boundary" inkscape:connector-curvature="0" />
	<path style="fill:none;stroke:red;stroke-width:1px;stroke-linecap:butt;stroke-linejoin:miter;stroke-opacity:1" d="M 255.88,51.7497 265.43,58.9122 z" id="boundary" inkscape:connector-curvature="0" />
	<path style="fill:none;stroke:red;stroke-width:1px;stroke-linecap:butt;stroke-linejoin:miter;stroke-opacity:1" d="M 265.43,58.9122 270.205,70.8496 z" id="boundary" inkscape:connector-curvature="0" />
	<path style="fill:none;stroke:red;stroke-width:1px;stroke-linecap:butt;stroke-linejoin:miter;stroke-opacity:1" d="M 270.205,70.8496 273.786,82.787 z" id="boundary" inkscape:connector-curvature="0" />
	<path style="fill:none;stroke:red;stroke-width:1px;stroke-linecap:butt;stroke-linejoin:miter;stroke-opacity:1" d="M 273.786,82.787 273.786,94.7244 z" id="boundary" inkscape:connector-curvature="0" />
	<path style="fill:none;stroke:red;stroke-width:1px;stroke-linecap:butt;stroke-linejoin:miter;stroke-opacity:1" d="M 273.786,94.7244 273.786,106.662 z" id="boundary" inkscape:connector-curvature="0" />
	<path style="fill:none;stroke:red;stroke-width:1px;stroke-linecap:butt;stroke-linejoin:miter;stroke-opacity:1" d="M 273.786,106.662 273.786,118.599 z" id="boundary" inkscape:connector-curvature="0" />
	<path style="fill:none;stroke:red;stroke-width:1px;stroke-linecap:butt;stroke-linejoin:miter;stroke-opacity:1" d="M 273.786,118.599 273.786,130.537 z" id="boundary" inkscape:connector-curvature="0" />
	<path style="fill:none;stroke:red;stroke-width:1px;stroke-linecap:butt;stroke-linejoin:miter;stroke-opacity:1" d="M 273.786,130.537 273.786,142.474 z" id="boundary" inkscape:connector-curvature="0" />
	<path style="fill:none;stroke:red;stroke-width:1px;stroke-linecap:butt;stroke-linejoin:miter;stroke-opacity:1" d="M 273.786,142.474 273.786,154.412 z" id="boundary" inkscape:connector-curvature="0" />
	<path style="fill:none;stroke:red;stroke-width:1px;stroke-linecap:butt;stroke-linejoin:miter;stroke-opacity:1" d="M 273.786,154.412 273.786,166.349 z" id="boundary" inkscape:connector-curvature="0" />
	<path style="fill:none;stroke:red;stroke-width:1px;stroke-linecap:butt;stroke-linejoin:miter;stroke-opacity:1" d="M 273.786,166.349 273.786,178.286 z" id="boundary" inkscape:connector-curvature="0" />
	<path style="fill:none;stroke:red;stroke-width:1px;stroke-linecap:butt;stroke-linejoin:miter;stroke-opacity:1" d="M 273.786,178.286 267.817,190.224 z" id="boundary" inkscape:connector-curvature="0" />
	<path style="fill:none;stroke:red;stroke-width:1px;stroke-linecap:butt;stroke-linejoin:miter;stroke-opacity:1" d="M 267.817,190.224 261.848,202.161 z" id="boundary" inkscape:connector-curvature="0" />
	<path style="fill:none;stroke:red;stroke-width:1px;stroke-linecap:butt;stroke-linejoin:miter;stroke-opacity:1" d="M 261.848,202.161 261.848,214.099 z" id="boundary" inkscape:connector-curvature="0" />
	<path style="fill:none;stroke:red;stroke-width:1px;stroke-linecap:butt;stroke-linejoin:miter;stroke-opacity:1" d="M 15.9374,417.035 9.96871,431.36 z" id="boundary" inkscape:connector-curvature="0" />
	<path style="fill:none;stroke:red;stroke-width:1px;stroke-linecap:butt;stroke-linejoin:miter;stroke-opacity:1" d="M 9.96871,431.36 9.96871,443.297 z" id="boundary" inkscape:connector-curvature="0" />
	<path style="fill:none;stroke:red;stroke-width:1px;stroke-linecap:butt;stroke-linejoin:miter;stroke-opacity:1" d="M 9.96871,443.297 9.96871,455.235 z" id="boundary" inkscape:connector-curvature="0" />
	<path style="fill:none;stroke:red;stroke-width:1px;stroke-linecap:butt;stroke-linejoin:miter;stroke-opacity:1" d="M 9.96871,455.235 15.9374,465.978 z" id="boundary" inkscape:connector-curvature="0" />
	<path style="fill:none;stroke:red;stroke-width:1px;stroke-linecap:butt;stroke-linejoin:miter;stroke-opacity:1" d="M 15.9374,465.978 15.9374,477.916 z" id="boundary" inkscape:connector-curvature="0" />
	<path style="fill:none;stroke:red;stroke-width:1px;stroke-linecap:butt;stroke-linejoin:miter;stroke-opacity:1" d="M 15.9374,477.916 15.9374,489.853 z" id="boundary" inkscape:connector-curvature="0" />
	<path style="fill:none;stroke:red;stroke-width:1px;stroke-linecap:butt;stroke-linejoin:miter;stroke-opacity:1" d="M 15.9374,489.853 21.9061,500.597 z" id="boundary" inkscape:connector-curvature="0" />
	<path style="fill:none;stroke:red;stroke-width:1px;stroke-linecap:butt;stroke-linejoin:miter;stroke-opacity:1" d="M 21.9061,500.597 21.9061,512.534 z" id="boundary" inkscape:connector-curvature="0" />
	<path style="fill:none;stroke:red;stroke-width:1px;stroke-linecap:butt;stroke-linejoin:miter;stroke-opacity:1" d="M 21.9061,512.534 25.4874,524.472 z" id="boundary" inkscape:connector-curvature="0" />
	<path style="fill:none;stroke:red;stroke-width:1px;stroke-linecap:butt;stroke-linejoin:miter;stroke-opacity:1" d="M 25.4874,524.472 27.8748,536.409 z" id="boundary" inkscape:connector-curvature="0" />
	<path style="fill:none;stroke:red;stroke-width:1px;stroke-linecap:butt;stroke-linejoin:miter;stroke-opacity:1" d="M 27.8748,536.409 33.8436,547.153 z" id="boundary" inkscape:connector-curvature="0" />
	<path style="fill:none;stroke:red;stroke-width:1px;stroke-linecap:butt;stroke-linejoin:miter;stroke-opacity:1" d="M 33.8436,547.153 33.8436,559.09 z" id="boundary" inkscape:connector-curvature="0" />
	<path style="fill:none;stroke:red;stroke-width:1px;stroke-linecap:butt;stroke-linejoin:miter;stroke-opacity:1" d="M 33.8436,559.09 39.8123,569.834 z" id="boundary" inkscape:connector-curvature="0" />
	<path style="fill:none;stroke:red;stroke-width:1px;stroke-linecap:butt;stroke-linejoin:miter;stroke-opacity:1" d="M 39.8123,569.834 39.8123,581.771 z" id="boundary" inkscape:connector-curvature="0" />
	<path style="fill:none;stroke:red;stroke-width:1px;stroke-linecap:butt;stroke-linejoin:miter;stroke-opacity:1" d="M 39.8123,581.771 33.8436,598.484 z" id="boundary" inkscape:connector-curvature="0" />
	<path style="fill:none;stroke:red;stroke-width:1px;stroke-linecap:butt;stroke-linejoin:miter;stroke-opacity:1" d="M 33.8436,598.484 33.8436,610.421 z" id="boundary" inkscape:connector-curvature="0" />
	<path style="fill:none;stroke:red;stroke-width:1px;stroke-linecap:butt;stroke-linejoin:miter;stroke-opacity:1" d="M 33.8436,610.421 39.8123,621.165 z" id="boundary" inkscape:connector-curvature="0" />
	<path style="fill:none;stroke:red;stroke-width:1px;stroke-linecap:butt;stroke-linejoin:miter;stroke-opacity:1" d="M 39.8123,621.165 48.1685,630.715 z" id="boundary" inkscape:connector-curvature="0" />
	<path style="fill:none;stroke:red;stroke-width:1px;stroke-linecap:butt;stroke-linejoin:miter;stroke-opacity:1" d="M 48.1685,630.715 54.1372,641.458 z" id="boundary" inkscape:connector-curvature="0" />
	<path style="fill:none;stroke:red;stroke-width:1px;stroke-linecap:butt;stroke-linejoin:miter;stroke-opacity:1" d="M 54.1372,641.458 57.7184,653.396 z" id="boundary" inkscape:connector-curvature="0" />
	<path style="fill:none;stroke:red;stroke-width:1px;stroke-linecap:butt;stroke-linejoin:miter;stroke-opacity:1" d="M 57.7184,653.396 63.6871,664.14 z" id="boundary" inkscape:connector-curvature="0" />
	<path style="fill:none;stroke:red;stroke-width:1px;stroke-linecap:butt;stroke-linejoin:miter;stroke-opacity:1" d="M 63.6871,664.14 69.6558,674.883 z" id="boundary" inkscape:connector-curvature="0" />
	<path style="fill:none;stroke:red;stroke-width:1px;stroke-linecap:butt;stroke-linejoin:miter;stroke-opacity:1" d="M 69.6558,674.883 75.6245,685.627 z" id="boundary" inkscape:connector-curvature="0" />
	<path style="fill:none;stroke:red;stroke-width:1px;stroke-linecap:butt;stroke-linejoin:miter;stroke-opacity:1" d="M 75.6245,685.627 86.3682,691.596 z" id="boundary" inkscape:connector-curvature="0" />
	<path style="fill:none;stroke:red;stroke-width:1px;stroke-linecap:butt;stroke-linejoin:miter;stroke-opacity:1" d="M 86.3682,691.596 97.1119,697.564 z" id="boundary" inkscape:connector-curvature="0" />
	<path style="fill:none;stroke:red;stroke-width:1px;stroke-linecap:butt;stroke-linejoin:miter;stroke-opacity:1" d="M 97.1119,697.564 106.662,705.921 z" id="boundary" inkscape:connector-curvature="0" />
	<path style="fill:none;stroke:red;stroke-width:1px;stroke-linecap:butt;stroke-linejoin:miter;stroke-opacity:1" d="M 106.662,705.921 111.437,717.858 z" id="boundary" inkscape:connector-curvature="0" />
	<path style="fill:none;stroke:red;stroke-width:1px;stroke-linecap:butt;stroke-linejoin:miter;stroke-opacity:1" d="M 111.437,717.858 111.437,729.795 z" id="boundary" inkscape:connector-curvature="0" />
	<path style="fill:none;stroke:red;stroke-width:1px;stroke-linecap:butt;stroke-linejoin:miter;stroke-opacity:1" d="M 111.437,729.795 111.437,741.733 z" id="boundary" inkscape:connector-curvature="0" />
	<path style="fill:none;stroke:red;stroke-width:1px;stroke-linecap:butt;stroke-linejoin:miter;stroke-opacity:1" d="M 111.437,741.733 105.468,759.639 z" id="boundary" inkscape:connector-curvature="0" />
	<path style="fill:none;stroke:red;stroke-width:1px;stroke-linecap:butt;stroke-linejoin:miter;stroke-opacity:1" d="M 105.468,759.639 99.4994,777.545 z" id="boundary" inkscape:connector-curvature="0" />
	<path style="fill:none;stroke:red;stroke-width:1px;stroke-linecap:butt;stroke-linejoin:miter;stroke-opacity:1" d="M 99.4994,777.545 93.5307,795.451 z" id="boundary" inkscape:connector-curvature="0" />
	<path style="fill:none;stroke:red;stroke-width:1px;stroke-linecap:butt;stroke-linejoin:miter;stroke-opacity:1" d="M 93.5307,795.451 93.5307,807.389 z" id="boundary" inkscape:connector-curvature="0" />
	<path style="fill:none;stroke:red;stroke-width:1px;stroke-linecap:butt;stroke-linejoin:miter;stroke-opacity:1" d="M 93.5307,807.389 93.5307,819.326 z" id="boundary" inkscape:connector-curvature="0" />
	<path style="fill:none;stroke:red;stroke-width:1px;stroke-linecap:butt;stroke-linejoin:miter;stroke-opacity:1" d="M 93.5307,819.326 93.5307,831.264 z" id="boundary" inkscape:connector-curvature="0" />
	<path style="fill:none;stroke:red;stroke-width:1px;stroke-linecap:butt;stroke-linejoin:miter;stroke-opacity:1" d="M 93.5307,831.264 99.4994,842.007 z" id="boundary" inkscape:connector-curvature="0" />
	<path style="fill:none;stroke:red;stroke-width:1px;stroke-linecap:butt;stroke-linejoin:miter;stroke-opacity:1" d="M 99.4994,842.007 99.4994,853.945 z" id="boundary" inkscape:connector-curvature="0" />
	<path style="fill:none;stroke:red;stroke-width:1px;stroke-linecap:butt;stroke-linejoin:miter;stroke-opacity:1" d="M 99.4994,853.945 105.468,864.688 z" id="boundary" inkscape:connector-curvature="0" />
	<path style="fill:none;stroke:red;stroke-width:1px;stroke-linecap:butt;stroke-linejoin:miter;stroke-opacity:1" d="M 105.468,864.688 109.049,876.626 z" id="boundary" inkscape:connector-curvature="0" />
	<path style="fill:none;stroke:red;stroke-width:1px;stroke-linecap:butt;stroke-linejoin:miter;stroke-opacity:1" d="M 109.049,876.626 111.437,888.563 z" id="boundary" inkscape:connector-curvature="0" />
	<path style="fill:none;stroke:red;stroke-width:1px;stroke-linecap:butt;stroke-linejoin:miter;stroke-opacity:1" d="M 111.437,888.563 117.406,899.307 z" id="boundary" inkscape:connector-curvature="0" />
	<path style="fill:none;stroke:red;stroke-width:1px;stroke-linecap:butt;stroke-linejoin:miter;stroke-opacity:1" d="M 117.406,899.307 111.437,914.826 z" id="boundary" inkscape:connector-curvature="0" />
	<path style="fill:none;stroke:red;stroke-width:1px;stroke-linecap:butt;stroke-linejoin:miter;stroke-opacity:1" d="M 111.437,914.826 105.468,932.732 z" id="boundary" inkscape:connector-curvature="0" />
	<path style="fill:none;stroke:red;stroke-width:1px;stroke-linecap:butt;stroke-linejoin:miter;stroke-opacity:1" d="M 105.468,932.732 105.468,944.669 z" id="boundary" inkscape:connector-curvature="0" />
	<path style="fill:none;stroke:red;stroke-width:1px;stroke-linecap:butt;stroke-linejoin:miter;stroke-opacity:1" d="M 105.468,944.669 105.468,956.606 z" id="boundary" inkscape:connector-curvature="0" />
	<path style="fill:none;stroke:red;stroke-width:1px;stroke-linecap:butt;stroke-linejoin:miter;stroke-opacity:1" d="M 105.468,956.606 111.437,967.35 z" id="boundary" inkscape:connector-curvature="0" />
	<path style="fill:none;stroke:red;stroke-width:1px;stroke-linecap:butt;stroke-linejoin:miter;stroke-opacity:1" d="M 111.437,967.35 119.793,976.9 z" id="boundary" inkscape:connector-curvature="0" />
	<path style="fill:none;stroke:red;stroke-width:1px;stroke-linecap:butt;stroke-linejoin:miter;stroke-opacity:1" d="M 119.793,976.9 129.343,984.063 z" id="boundary" inkscape:connector-curvature="0" />
	<path style="fill:none;stroke:red;stroke-width:1px;stroke-linecap:butt;stroke-linejoin:miter;stroke-opacity:1" d="M 129.343,984.063 141.28,984.063 z" id="boundary" inkscape:connector-curvature="0" />
	<path style="fill:none;stroke:red;stroke-width:1px;stroke-linecap:butt;stroke-linejoin:miter;stroke-opacity:1" d="M 141.28,984.063 153.218,984.063 z" id="boundary" inkscape:connector-curvature="0" />
	<path style="fill:none;stroke:red;stroke-width:1px;stroke-linecap:butt;stroke-linejoin:miter;stroke-opacity:1" d="M 153.218,984.063 163.961,990.031 z" id="boundary" inkscape:connector-curvature="0" />
	<path style="fill:none;stroke:red;stroke-width:1px;stroke-linecap:butt;stroke-linejoin:miter;stroke-opacity:1" d="M 163.961,990.031 175.899,990.031 z" id="boundary" inkscape:connector-curvature="0" />
	<path style="fill:none;stroke:red;stroke-width:1px;stroke-linecap:butt;stroke-linejoin:miter;stroke-opacity:1" d="M 175.899,990.031 186.643,996 z" id="boundary" inkscape:connector-curvature="0" />
	<path style="fill:none;stroke:red;stroke-width:1px;stroke-linecap:butt;stroke-linejoin:miter;stroke-opacity:1" d="M 186.643,996 198.58,996 z" id="boundary" inkscape:connector-curvature="0" />
	<path style="fill:none;stroke:red;stroke-width:1px;stroke-linecap:butt;stroke-linejoin:miter;stroke-opacity:1" d="M 198.58,996 210.517,996 z" id="boundary" inkscape:connector-curvature="0" />
	<path style="fill:none;stroke:red;stroke-width:1px;stroke-linecap:butt;stroke-linejoin:miter;stroke-opacity:1" d="M 210.517,996 222.455,996 z" id="boundary" inkscape:connector-curvature="0" />
	<path style="fill:none;stroke:red;stroke-width:1px;stroke-linecap:butt;stroke-linejoin:miter;stroke-opacity:1" d="M 222.455,996 234.392,996 z" id="boundary" inkscape:connector-curvature="0" />
	<path style="fill:none;stroke:red;stroke-width:1px;stroke-linecap:butt;stroke-linejoin:miter;stroke-opacity:1" d="M 234.392,996 246.33,996 z" id="boundary" inkscape:connector-curvature="0" />
	<path style="fill:none;stroke:red;stroke-width:1px;stroke-linecap:butt;stroke-linejoin:miter;stroke-opacity:1" d="M 246.33,996 258.267,996 z" id="boundary" inkscape:connector-curvature="0" />
	<path style="fill:none;stroke:red;stroke-width:1px;stroke-linecap:butt;stroke-linejoin:miter;stroke-opacity:1" d="M 258.267,996 270.205,994.806 z" id="boundary" inkscape:connector-curvature="0" />
	<path style="fill:none;stroke:red;stroke-width:1px;stroke-linecap:butt;stroke-linejoin:miter;stroke-opacity:1" d="M 270.205,994.806 282.142,988.838 z" id="boundary" inkscape:connector-curvature="0" />
	<path style="fill:none;stroke:red;stroke-width:1px;stroke-linecap:butt;stroke-linejoin:miter;stroke-opacity:1" d="M 282.142,988.838 291.692,978.094 z" id="boundary" inkscape:connector-curvature="0" />
	<path style="fill:none;stroke:red;stroke-width:1px;stroke-linecap:butt;stroke-linejoin:miter;stroke-opacity:1" d="M 291.692,978.094 302.436,972.125 z" id="boundary" inkscape:connector-curvature="0" />
	<path style="fill:none;stroke:red;stroke-width:1px;stroke-linecap:butt;stroke-linejoin:miter;stroke-opacity:1" d="M 302.436,972.125 313.179,966.156 z" id="boundary" inkscape:connector-curvature="0" />
	<path style="fill:none;stroke:red;stroke-width:1px;stroke-linecap:butt;stroke-linejoin:miter;stroke-opacity:1" d="M 313.179,966.156 323.923,958.994 z" id="boundary" inkscape:connector-curvature="0" />
	<path style="fill:none;stroke:red;stroke-width:1px;stroke-linecap:butt;stroke-linejoin:miter;stroke-opacity:1" d="M 323.923,958.994 333.473,948.25 z" id="boundary" inkscape:connector-curvature="0" />
	<path style="fill:none;stroke:red;stroke-width:1px;stroke-linecap:butt;stroke-linejoin:miter;stroke-opacity:1" d="M 333.473,948.25 331.085,931.538 z" id="boundary" inkscape:connector-curvature="0" />
	<path style="fill:none;stroke:red;stroke-width:1px;stroke-linecap:butt;stroke-linejoin:miter;stroke-opacity:1" d="M 331.085,931.538 320.342,925.569 z" id="boundary" inkscape:connector-curvature="0" />
	<path style="fill:none;stroke:red;stroke-width:1px;stroke-linecap:butt;stroke-linejoin:miter;stroke-opacity:1" d="M 320.342,925.569 308.404,923.182 z" id="boundary" inkscape:connector-curvature="0" />
	<path style="fill:none;stroke:red;stroke-width:1px;stroke-linecap:butt;stroke-linejoin:miter;stroke-opacity:1" d="M 308.404,923.182 296.467,920.794 z" id="boundary" inkscape:connector-curvature="0" />
	<path style="fill:none;stroke:red;stroke-width:1px;stroke-linecap:butt;stroke-linejoin:miter;stroke-opacity:1" d="M 296.467,920.794 285.723,914.826 z" id="boundary" inkscape:connector-curvature="0" />
	<path style="fill:none;stroke:red;stroke-width:1px;stroke-linecap:butt;stroke-linejoin:miter;stroke-opacity:1" d="M 285.723,914.826 276.173,906.469 z" id="boundary" inkscape:connector-curvature="0" />
	<path style="fill:none;stroke:red;stroke-width:1px;stroke-linecap:butt;stroke-linejoin:miter;stroke-opacity:1" d="M 276.173,906.469 265.43,900.501 z" id="boundary" inkscape:connector-curvature="0" />
	<path style="fill:none;stroke:red;stroke-width:1px;stroke-linecap:butt;stroke-linejoin:miter;stroke-opacity:1" d="M 265.43,900.501 255.88,893.338 z" id="boundary" inkscape:connector-curvature="0" />
	<path style="fill:none;stroke:red;stroke-width:1px;stroke-linecap:butt;stroke-linejoin:miter;stroke-opacity:1" d="M 255.88,893.338 249.911,882.594 z" id="boundary" inkscape:connector-curvature="0" />
	<path style="fill:none;stroke:red;stroke-width:1px;stroke-linecap:butt;stroke-linejoin:miter;stroke-opacity:1" d="M 249.911,882.594 249.911,870.657 z" id="boundary" inkscape:connector-curvature="0" />
	<path style="fill:none;stroke:red;stroke-width:1px;stroke-linecap:butt;stroke-linejoin:miter;stroke-opacity:1" d="M 249.911,870.657 255.88,852.751 z" id="boundary" inkscape:connector-curvature="0" />
	<path style="fill:none;stroke:red;stroke-width:1px;stroke-linecap:butt;stroke-linejoin:miter;stroke-opacity:1" d="M 255.88,852.751 261.848,840.813 z" id="boundary" inkscape:connector-curvature="0" />
	<path style="fill:none;stroke:red;stroke-width:1px;stroke-linecap:butt;stroke-linejoin:miter;stroke-opacity:1" d="M 261.848,840.813 267.817,822.907 z" id="boundary" inkscape:connector-curvature="0" />
	<path style="fill:none;stroke:red;stroke-width:1px;stroke-linecap:butt;stroke-linejoin:miter;stroke-opacity:1" d="M 267.817,822.907 273.786,805.001 z" id="boundary" inkscape:connector-curvature="0" />
	<path style="fill:none;stroke:red;stroke-width:1px;stroke-linecap:butt;stroke-linejoin:miter;stroke-opacity:1" d="M 273.786,805.001 273.786,793.064 z" id="boundary" inkscape:connector-curvature="0" />
	<path style="fill:none;stroke:red;stroke-width:1px;stroke-linecap:butt;stroke-linejoin:miter;stroke-opacity:1" d="M 273.786,793.064 279.755,775.158 z" id="boundary" inkscape:connector-curvature="0" />
	<path style="fill:none;stroke:red;stroke-width:1px;stroke-linecap:butt;stroke-linejoin:miter;stroke-opacity:1" d="M 279.755,775.158 279.755,763.22 z" id="boundary" inkscape:connector-curvature="0" />
	<path style="fill:none;stroke:red;stroke-width:1px;stroke-linecap:butt;stroke-linejoin:miter;stroke-opacity:1" d="M 279.755,763.22 285.723,751.283 z" id="boundary" inkscape:connector-curvature="0" />
	<path style="fill:none;stroke:red;stroke-width:1px;stroke-linecap:butt;stroke-linejoin:miter;stroke-opacity:1" d="M 285.723,751.283 291.692,739.345 z" id="boundary" inkscape:connector-curvature="0" />
	<path style="fill:none;stroke:red;stroke-width:1px;stroke-linecap:butt;stroke-linejoin:miter;stroke-opacity:1" d="M 261.848,214.099 255.88,232.005 z" id="boundary" inkscape:connector-curvature="0" />
	<path style="fill:none;stroke:red;stroke-width:1px;stroke-linecap:butt;stroke-linejoin:miter;stroke-opacity:1" d="M 255.88,232.005 261.848,242.748 z" id="boundary" inkscape:connector-curvature="0" />
	<path style="fill:none;stroke:red;stroke-width:1px;stroke-linecap:butt;stroke-linejoin:miter;stroke-opacity:1" d="M 261.848,242.748 267.817,253.492 z" id="boundary" inkscape:connector-curvature="0" />
	<path style="fill:none;stroke:red;stroke-width:1px;stroke-linecap:butt;stroke-linejoin:miter;stroke-opacity:1" d="M 267.817,253.492 277.367,261.848 z" id="boundary" inkscape:connector-curvature="0" />
	<path style="fill:none;stroke:red;stroke-width:1px;stroke-linecap:butt;stroke-linejoin:miter;stroke-opacity:1" d="M 277.367,261.848 282.142,273.786 z" id="boundary" inkscape:connector-curvature="0" />
	<path style="fill:none;stroke:red;stroke-width:1px;stroke-linecap:butt;stroke-linejoin:miter;stroke-opacity:1" d="M 282.142,273.786 288.111,284.529 z" id="boundary" inkscape:connector-curvature="0" />
	<path style="fill:none;stroke:red;stroke-width:1px;stroke-linecap:butt;stroke-linejoin:miter;stroke-opacity:1" d="M 288.111,284.529 291.692,296.467 z" id="boundary" inkscape:connector-curvature="0" />
	<path style="fill:none;stroke:red;stroke-width:1px;stroke-linecap:butt;stroke-linejoin:miter;stroke-opacity:1" d="M 291.692,296.467 291.692,308.404 z" id="boundary" inkscape:connector-curvature="0" />
	<path style="fill:none;stroke:red;stroke-width:1px;stroke-linecap:butt;stroke-linejoin:miter;stroke-opacity:1" d="M 291.692,308.404 291.692,320.342 z" id="boundary" inkscape:connector-curvature="0" />
	<path style="fill:none;stroke:red;stroke-width:1px;stroke-linecap:butt;stroke-linejoin:miter;stroke-opacity:1" d="M 291.692,320.342 297.661,331.085 z" id="boundary" inkscape:connector-curvature="0" />
	<path style="fill:none;stroke:red;stroke-width:1px;stroke-linecap:butt;stroke-linejoin:miter;stroke-opacity:1" d="M 297.661,331.085 297.661,343.023 z" id="boundary" inkscape:connector-curvature="0" />
	<path style="fill:none;stroke:red;stroke-width:1px;stroke-linecap:butt;stroke-linejoin:miter;stroke-opacity:1" d="M 291.692,739.345 297.661,720.245 z" id="boundary" inkscape:connector-curvature="0" />
	<path style="fill:none;stroke:red;stroke-width:1px;stroke-linecap:butt;stroke-linejoin:miter;stroke-opacity:1" d="M 297.661,720.245 297.661,708.308 z" id="boundary" inkscape:connector-curvature="0" />
	<path style="fill:none;stroke:red;stroke-width:1px;stroke-linecap:butt;stroke-linejoin:miter;stroke-opacity:1" d="M 297.661,708.308 291.692,697.564 z" id="boundary" inkscape:connector-curvature="0" />
	<path style="fill:none;stroke:red;stroke-width:1px;stroke-linecap:butt;stroke-linejoin:miter;stroke-opacity:1" d="M 291.692,697.564 291.692,685.627 z" id="boundary" inkscape:connector-curvature="0" />
	<path style="fill:none;stroke:red;stroke-width:1px;stroke-linecap:butt;stroke-linejoin:miter;stroke-opacity:1" d="M 291.692,685.627 291.692,673.69 z" id="boundary" inkscape:connector-curvature="0" />
	<path style="fill:none;stroke:red;stroke-width:1px;stroke-linecap:butt;stroke-linejoin:miter;stroke-opacity:1" d="M 291.692,673.69 301.242,665.333 z" id="boundary" inkscape:connector-curvature="0" />
	<path style="fill:none;stroke:red;stroke-width:1px;stroke-linecap:butt;stroke-linejoin:miter;stroke-opacity:1" d="M 301.242,665.333 309.598,655.783 z" id="boundary" inkscape:connector-curvature="0" />
	<path style="fill:none;stroke:red;stroke-width:1px;stroke-linecap:butt;stroke-linejoin:miter;stroke-opacity:1" d="M 309.598,655.783 319.148,647.427 z" id="boundary" inkscape:connector-curvature="0" />
	<path style="fill:none;stroke:red;stroke-width:1px;stroke-linecap:butt;stroke-linejoin:miter;stroke-opacity:1" d="M 297.661,343.023 297.661,363.316 z" id="boundary" inkscape:connector-curvature="0" />
	<path style="fill:none;stroke:red;stroke-width:1px;stroke-linecap:butt;stroke-linejoin:miter;stroke-opacity:1" d="M 297.661,363.316 291.692,375.254 z" id="boundary" inkscape:connector-curvature="0" />
	<path style="fill:none;stroke:red;stroke-width:1px;stroke-linecap:butt;stroke-linejoin:miter;stroke-opacity:1" d="M 291.692,375.254 291.692,387.191 z" id="boundary" inkscape:connector-curvature="0" />
	<path style="fill:none;stroke:red;stroke-width:1px;stroke-linecap:butt;stroke-linejoin:miter;stroke-opacity:1" d="M 291.692,387.191 297.661,397.935 z" id="boundary" inkscape:connector-curvature="0" />
	<path style="fill:none;stroke:red;stroke-width:1px;stroke-linecap:butt;stroke-linejoin:miter;stroke-opacity:1" d="M 297.661,397.935 303.629,408.679 z" id="boundary" inkscape:connector-curvature="0" />
	<path style="fill:none;stroke:red;stroke-width:1px;stroke-linecap:butt;stroke-linejoin:miter;stroke-opacity:1" d="M 303.629,408.679 309.598,419.422 z" id="boundary" inkscape:connector-curvature="0" />
	<path style="fill:none;stroke:red;stroke-width:1px;stroke-linecap:butt;stroke-linejoin:miter;stroke-opacity:1" d="M 309.598,419.422 309.598,431.36 z" id="boundary" inkscape:connector-curvature="0" />
	<path style="fill:none;stroke:red;stroke-width:1px;stroke-linecap:butt;stroke-linejoin:miter;stroke-opacity:1" d="M 309.598,431.36 314.373,443.297 z" id="boundary" inkscape:connector-curvature="0" />
	<path style="fill:none;stroke:red;stroke-width:1px;stroke-linecap:butt;stroke-linejoin:miter;stroke-opacity:1" d="M 314.373,443.297 315.567,455.235 z" id="boundary" inkscape:connector-curvature="0" />
	<path style="fill:none;stroke:red;stroke-width:1px;stroke-linecap:butt;stroke-linejoin:miter;stroke-opacity:1" d="M 315.567,455.235 320.342,467.172 z" id="boundary" inkscape:connector-curvature="0" />
	<path style="fill:none;stroke:red;stroke-width:1px;stroke-linecap:butt;stroke-linejoin:miter;stroke-opacity:1" d="M 320.342,467.172 321.535,479.11 z" id="boundary" inkscape:connector-curvature="0" />
	<path style="fill:none;stroke:red;stroke-width:1px;stroke-linecap:butt;stroke-linejoin:miter;stroke-opacity:1" d="M 321.535,479.11 327.504,489.853 z" id="boundary" inkscape:connector-curvature="0" />
	<path style="fill:none;stroke:red;stroke-width:1px;stroke-linecap:butt;stroke-linejoin:miter;stroke-opacity:1" d="M 327.504,489.853 331.085,501.791 z" id="boundary" inkscape:connector-curvature="0" />
	<path style="fill:none;stroke:red;stroke-width:1px;stroke-linecap:butt;stroke-linejoin:miter;stroke-opacity:1" d="M 331.085,501.791 333.473,513.728 z" id="boundary" inkscape:connector-curvature="0" />
	<path style="fill:none;stroke:red;stroke-width:1px;stroke-linecap:butt;stroke-linejoin:miter;stroke-opacity:1" d="M 333.473,513.728 333.473,525.665 z" id="boundary" inkscape:connector-curvature="0" />
	<path style="fill:none;stroke:red;stroke-width:1px;stroke-linecap:butt;stroke-linejoin:miter;stroke-opacity:1" d="M 333.473,525.665 339.442,536.409 z" id="boundary" inkscape:connector-curvature="0" />
	<path style="fill:none;stroke:red;stroke-width:1px;stroke-linecap:butt;stroke-linejoin:miter;stroke-opacity:1" d="M 339.442,536.409 341.829,548.347 z" id="boundary" inkscape:connector-curvature="0" />
	<path style="fill:none;stroke:red;stroke-width:1px;stroke-linecap:butt;stroke-linejoin:miter;stroke-opacity:1" d="M 341.829,548.347 345.41,560.284 z" id="boundary" inkscape:connector-curvature="0" />
	<path style="fill:none;stroke:red;stroke-width:1px;stroke-linecap:butt;stroke-linejoin:miter;stroke-opacity:1" d="M 345.41,560.284 345.41,572.221 z" id="boundary" inkscape:connector-curvature="0" />
	<path style="fill:none;stroke:red;stroke-width:1px;stroke-linecap:butt;stroke-linejoin:miter;stroke-opacity:1" d="M 345.41,572.221 339.442,590.128 z" id="boundary" inkscape:connector-curvature="0" />
	<path style="fill:none;stroke:red;stroke-width:1px;stroke-linecap:butt;stroke-linejoin:miter;stroke-opacity:1" d="M 339.442,590.128 331.085,605.646 z" id="boundary" inkscape:connector-curvature="0" />
	<path style="fill:none;stroke:red;stroke-width:1px;stroke-linecap:butt;stroke-linejoin:miter;stroke-opacity:1" d="M 331.085,605.646 321.535,614.002 z" id="boundary" inkscape:connector-curvature="0" />
	<path style="fill:none;stroke:red;stroke-width:1px;stroke-linecap:butt;stroke-linejoin:miter;stroke-opacity:1" d="M 321.535,614.002 321.535,625.94 z" id="boundary" inkscape:connector-curvature="0" />
	<path style="fill:none;stroke:red;stroke-width:1px;stroke-linecap:butt;stroke-linejoin:miter;stroke-opacity:1" d="M 321.535,625.94 319.148,647.427 z" id="boundary" inkscape:connector-curvature="0" />
	<circle cx="4" cy="311.986" r="4" fill="#0" id="circle0"/>
	<circle cx="4" cy="323.923" r="4" fill="#0" id="circle1"/>
	<circle cx="4" cy="335.86" r="4" fill="#0" id="circle2"/>
	<circle cx="4" cy="347.798" r="4" fill="#0" id="circle3"/>
	<circle cx="4" cy="359.735" r="4" fill="#0" id="circle4"/>
	<circle cx="4" cy="371.673" r="4" fill="#0" id="circle5"/>
	<circle cx="9.96871" cy="300.048" r="4" fill="#0" id="circle6"/>
	<circle cx="9.96871" cy="382.416" r="4" fill="#0" id="circle7"/>
	<circle cx="9.96871" cy="431.36" r="4" fill="#0" id="circle8"/>
	<circle cx="9.96871" cy="443.297" r="4" fill="#0" id="circle9"/>
	<circle cx="9.96871" cy="455.235" r="4" fill="#0" id="circle10"/>
	<circle cx="15.9374" cy="288.111" r="4" fill="#0" id="circle11"/>
	<circle cx="15.9374" cy="393.16" r="4" fill="#0" id="circle12"/>
	<circle cx="15.9374" cy="405.097" r="4" fill="#0" id="circle13"/>
	<circle cx="15.9374" cy="417.035" r="4" fill="#0" id="circle14"/>
	<circle cx="15.9374" cy="465.978" r="4" fill="#0" id="circle15"/>
	<circle cx="15.9374" cy="477.916" r="4" fill="#0" id="circle16"/>
	<circle cx="15.9374" cy="489.853" r="4" fill="#0" id="circle17"/>
	<circle cx="21.9061" cy="276.173" r="4" fill="#0" id="circle18"/>
	<circle cx="21.9061" cy="500.597" r="4" fill="#0" id="circle19"/>
	<circle cx="21.9061" cy="512.534" r="4" fill="#0" id="circle20"/>
	<circle cx="25.4874" cy="524.472" r="4" fill="#0" id="circle21"/>
	<circle cx="27.8748" cy="73.2371" r="4" fill="#0" id="circle22"/>
	<circle cx="27.8748" cy="85.1745" r="4" fill="#0" id="circle23"/>
	<circle cx="27.8748" cy="97.1119" r="4" fill="#0" id="circle24"/>
	<circle cx="27.8748" cy="109.049" r="4" fill="#0" id="circle25"/>
	<circle cx="27.8748" cy="120.987" r="4" fill="#0" id="circle26"/>
	<circle cx="27.8748" cy="132.924" r="4" fill="#0" id="circle27"/>
	<circle cx="27.8748" cy="536.409" r="4" fill="#0" id="circle28"/>
	<circle cx="31.4561" cy="266.623" r="4" fill="#0" id="circle29"/>
	<circle cx="33.8436" cy="61.2996" r="4" fill="#0" id="circle30"/>
	<circle cx="33.8436" cy="143.668" r="4" fill="#0" id="circle31"/>
	<circle cx="33.8436" cy="547.153" r="4" fill="#0" id="circle32"/>
	<circle cx="33.8436" cy="559.09" r="4" fill="#0" id="circle33"/>
	<circle cx="33.8436" cy="598.484" r="4" fill="#0" id="circle34"/>
	<circle cx="33.8436" cy="610.421" r="4" fill="#0" id="circle35"/>
	<circle cx="39.8123" cy="49.3622" r="4" fill="#0" id="circle36"/>
	<circle cx="39.8123" cy="154.412" r="4" fill="#0" id="circle37"/>
	<circle cx="39.8123" cy="569.834" r="4" fill="#0" id="circle38"/>
	<circle cx="39.8123" cy="581.771" r="4" fill="#0" id="circle39"/>
	<circle cx="39.8123" cy="621.165" r="4" fill="#0" id="circle40"/>
	<circle cx="41.006" cy="257.073" r="4" fill="#0" id="circle41"/>
	<circle cx="46.9747" cy="163.961" r="4" fill="#0" id="circle42"/>
	<circle cx="48.1685" cy="630.715" r="4" fill="#0" id="circle43"/>
	<circle cx="49.3622" cy="39.8123" r="4" fill="#0" id="circle44"/>
	<circle cx="52.9434" cy="251.105" r="4" fill="#0" id="circle45"/>
	<circle cx="54.1372" cy="641.458" r="4" fill="#0" id="circle46"/>
	<circle cx="56.5247" cy="172.318" r="4" fill="#0" id="circle47"/>
	<circle cx="57.7184" cy="653.396" r="4" fill="#0" id="circle48"/>
	<circle cx="58.9122" cy="30.2623" r="4" fill="#0" id="circle49"/>
	<circle cx="62.4934" cy="242.748" r="4" fill="#0" id="circle50"/>
	<circle cx="63.6871" cy="664.14" r="4" fill="#0" id="circle51"/>
	<circle cx="64.8809" cy="181.868" r="4" fill="#0" id="circle52"/>
	<circle cx="68.4621" cy="21.9061" r="4" fill="#0" id="circle53"/>
	<circle cx="69.6558" cy="674.883" r="4" fill="#0" id="circle54"/>
	<circle cx="70.8496" cy="233.199" r="4" fill="#0" id="circle55"/>
	<circle cx="74.4308" cy="190.224" r="4" fill="#0" id="circle56"/>
	<circle cx="75.6245" cy="685.627" r="4" fill="#0" id="circle57"/>
	<circle cx="79.2058" cy="15.9374" r="4" fill="#0" id="circle58"/>
	<circle cx="80.3995" cy="224.842" r="4" fill="#0" id="circle59"/>
	<circle cx="81.5933" cy="199.774" r="4" fill="#0" id="circle60"/>
	<circle cx="81.5933" cy="211.711" r="4" fill="#0" id="circle61"/>
	<circle cx="86.3682" cy="691.596" r="4" fill="#0" id="circle62"/>
	<circle cx="91.1432" cy="9.96871" r="4" fill="#0" id="circle63"/>
	<circle cx="93.5307" cy="795.451" r="4" fill="#0" id="circle64"/>
	<circle cx="93.5307" cy="807.389" r="4" fill="#0" id="circle65"/>
	<circle cx="93.5307" cy="819.326" r="4" fill="#0" id="circle66"/>
	<circle cx="93.5307" cy="831.264" r="4" fill="#0" id="circle67"/>
	<circle cx="97.1119" cy="697.564" r="4" fill="#0" id="circle68"/>
	<circle cx="99.4994" cy="777.545" r="4" fill="#0" id="circle69"/>
	<circle cx="99.4994" cy="842.007" r="4" fill="#0" id="circle70"/>
	<circle cx="99.4994" cy="853.945" r="4" fill="#0" id="circle71"/>
	<circle cx="103.081" cy="9.96871" r="4" fill="#0" id="circle72"/>
	<circle cx="105.468" cy="759.639" r="4" fill="#0" id="circle73"/>
	<circle cx="105.468" cy="864.688" r="4" fill="#0" id="circle74"/>
	<circle cx="105.468" cy="932.732" r="4" fill="#0" id="circle75"/>
	<circle cx="105.468" cy="944.669" r="4" fill="#0" id="circle76"/>
	<circle cx="105.468" cy="956.606" r="4" fill="#0" id="circle77"/>
	<circle cx="106.662" cy="705.921" r="4" fill="#0" id="circle78"/>
	<circle cx="109.049" cy="876.626" r="4" fill="#0" id="circle79"/>
	<circle cx="111.437" cy="717.858" r="4" fill="#0" id="circle80"/>
	<circle cx="111.437" cy="729.795" r="4" fill="#0" id="circle81"/>
	<circle cx="111.437" cy="741.733" r="4" fill="#0" id="circle82"/>
	<circle cx="111.437" cy="888.563" r="4" fill="#0" id="circle83"/>
	<circle cx="111.437" cy="914.826" r="4" fill="#0" id="circle84"/>
	<circle cx="111.437" cy="967.35" r="4" fill="#0" id="circle85"/>
	<circle cx="113.824" cy="4" r="4" fill="#0" id="circle86"/>
	<circle cx="117.406" cy="899.307" r="4" fill="#0" id="circle87"/>
	<circle cx="119.793" cy="976.9" r="4" fill="#0" id="circle88"/>
	<circle cx="125.762" cy="4" r="4" fill="#0" id="circle89"/>
	<circle cx="129.343" cy="984.063" r="4" fill="#0" id="circle90"/>
	<circle cx="137.699" cy="4" r="4" fill="#0" id="circle91"/>
	<circle cx="141.28" cy="984.063" r="4" fill="#0" id="circle92"/>
	<circle cx="149.637" cy="4" r="4" fill="#0" id="circle93"/>
	<circle cx="153.218" cy="984.063" r="4" fill="#0" id="circle94"/>
	<circle cx="161.574" cy="4" r="4" fill="#0" id="circle95"/>
	<circle cx="163.961" cy="990.031" r="4" fill="#0" id="circle96"/>
	<circle cx="173.511" cy="4" r="4" fill="#0" id="circle97"/>
	<circle cx="175.899" cy="990.031" r="4" fill="#0" id="circle98"/>
	<circle cx="184.255" cy="9.96871" r="4" fill="#0" id="circle99"/>
	<circle cx="186.643" cy="996" r="4" fill="#0" id="circle100"/>
	<circle cx="196.193" cy="9.96871" r="4" fill="#0" id="circle101"/>
	<circle cx="198.58" cy="996" r="4" fill="#0" id="circle102"/>
	<circle cx="206.936" cy="15.9374" r="4" fill="#0" id="circle103"/>
	<circle cx="210.517" cy="996" r="4" fill="#0" id="circle104"/>
	<circle cx="217.68" cy="21.9061" r="4" fill="#0" id="circle105"/>
	<circle cx="222.455" cy="996" r="4" fill="#0" id="circle106"/>
	<circle cx="228.424" cy="27.8748" r="4" fill="#0" id="circle107"/>
	<circle cx="234.392" cy="996" r="4" fill="#0" id="circle108"/>
	<circle cx="239.167" cy="33.8436" r="4" fill="#0" id="circle109"/>
	<circle cx="246.33" cy="996" r="4" fill="#0" id="circle110"/>
	<circle cx="248.717" cy="42.1998" r="4" fill="#0" id="circle111"/>
	<circle cx="249.911" cy="870.657" r="4" fill="#0" id="circle112"/>
	<circle cx="249.911" cy="882.594" r="4" fill="#0" id="circle113"/>
	<circle cx="255.88" cy="51.7497" r="4" fill="#0" id="circle114"/>
	<circle cx="255.88" cy="232.005" r="4" fill="#0" id="circle115"/>
	<circle cx="255.88" cy="852.751" r="4" fill="#0" id="circle116"/>
	<circle cx="255.88" cy="893.338" r="4" fill="#0" id="circle117"/>
	<circle cx="258.267" cy="996" r="4" fill="#0" id="circle118"/>
	<circle cx="261.848" cy="202.161" r="4" fill="#0" id="circle119"/>
	<circle cx="261.848" cy="214.099" r="4" fill="#0" id="circle120"/>
	<circle cx="261.848" cy="242.748" r="4" fill="#0" id="circle121"/>
	<circle cx="261.848" cy="840.813" r="4" fill="#0" id="circle122"/>
	<circle cx="265.43" cy="58.9122" r="4" fill="#0" id="circle123"/>
	<circle cx="265.43" cy="900.501" r="4" fill="#0" id="circle124"/>
	<circle cx="267.817" cy="190.224" r="4" fill="#0" id="circle125"/>
	<circle cx="267.817" cy="253.492" r="4" fill="#0" id="circle126"/>
	<circle cx="267.817" cy="822.907" r="4" fill="#0" id="circle127"/>
	<circle cx="270.205" cy="70.8496" r="4" fill="#0" id="circle128"/>
	<circle cx="270.205" cy="994.806" r="4" fill="#0" id="circle129"/>
	<circle cx="273.786" cy="82.787" r="4" fill="#0" id="circle130"/>
	<circle cx="273.786" cy="94.7244" r="4" fill="#0" id="circle131"/>
	<circle cx="273.786" cy="106.662" r="4" fill="#0" id="circle132"/>
	<circle cx="273.786" cy="118.599" r="4" fill="#0" id="circle133"/>
	<circle cx="273.786" cy="130.537" r="4" fill="#0" id="circle134"/>
	<circle cx="273.786" cy="142.474" r="4" fill="#0" id="circle135"/>
	<circle cx="273.786" cy="154.412" r="4" fill="#0" id="circle136"/>
	<circle cx="273.786" cy="166.349" r="4" fill="#0" id="circle137"/>
	<circle cx="273.786" cy="178.286" r="4" fill="#0" id="circle138"/>
	<circle cx="273.786" cy="793.064" r="4" fill="#0" id="circle139"/>
	<circle cx="273.786" cy="805.001" r="4" fill="#0" id="circle140"/>
	<circle cx="276.173" cy="906.469" r="4" fill="#0" id="circle141"/>
	<circle cx="277.367" cy="261.848" r="4" fill="#0" id="circle142"/>
	<circle cx="279.755" cy="763.22" r="4" fill="#0" id="circle143"/>
	<circle cx="279.755" cy="775.158" r="4" fill="#0" id="circle144"/>
	<circle cx="282.142" cy="273.786" r="4" fill="#0" id="circle145"/>
	<circle cx="282.142" cy="988.838" r="4" fill="#0" id="circle146"/>
	<circle cx="285.723" cy="751.283" r="4" fill="#0" id="circle147"/>
	<circle cx="285.723" cy="914.826" r="4" fill="#0" id="circle148"/>
	<circle cx="288.111" cy="284.529" r="4" fill="#0" id="circle149"/>
	<circle cx="291.692" cy="296.467" r="4" fill="#0" id="circle150"/>
	<circle cx="291.692" cy="308.404" r="4" fill="#0" id="circle151"/>
	<circle cx="291.692" cy="320.342" r="4" fill="#0" id="circle152"/>
	<circle cx="291.692" cy="375.254" r="4" fill="#0" id="circle153"/>
	<circle cx="291.692" cy="387.191" r="4" fill="#0" id="circle154"/>
	<circle cx="291.692" cy="673.69" r="4" fill="#0" id="circle155"/>
	<circle cx="291.692" cy="685.627" r="4" fill="#0" id="circle156"/>
	<circle cx="291.692" cy="697.564" r="4" fill="#0" id="circle157"/>
	<circle cx="291.692" cy="739.345" r="4" fill="#0" id="circle158"/>
	<circle cx="291.692" cy="978.094" r="4" fill="#0" id="circle159"/>
	<circle cx="296.467" cy="920.794" r="4" fill="#0" id="circle160"/>
	<circle cx="297.661" cy="331.085" r="4" fill="#0" id="circle161"/>
	<circle cx="297.661" cy="343.023" r="4" fill="#0" id="circle162"/>
	<circle cx="297.661" cy="363.316" r="4" fill="#0" id="circle163"/>
	<circle cx="297.661" cy="397.935" r="4" fill="#0" id="circle164"/>
	<circle cx="297.661" cy="708.308" r="4" fill="#0" id="circle165"/>
	<circle cx="297.661" cy="720.245" r="4" fill="#0" id="circle166"/>
	<circle cx="301.242" cy="665.333" r="4" fill="#0" id="circle167"/>
	<circle cx="302.436" cy="972.125" r="4" fill="#0" id="circle168"/>
	<circle cx="303.629" cy="408.679" r="4" fill="#0" id="circle169"/>
	<circle cx="308.404" cy="923.182" r="4" fill="#0" id="circle170"/>
	<circle cx="309.598" cy="419.422" r="4" fill="#0" id="circle171"/>
	<circle cx="309.598" cy="431.36" r="4" fill="#0" id="circle172"/>
	<circle cx="309.598" cy="655.783" r="4" fill="#0" id="circle173"/>
	<circle cx="313.179" cy="966.156" r="4" fill="#0" id="circle174"/>
	<circle cx="314.373" cy="443.297" r="4" fill="#0" id="circle175"/>
	<circle cx="315.567" cy="455.235" r="4" fill="#0" id="circle176"/>
	<circle cx="319.148" cy="647.427" r="4" fill="#0" id="circle177"/>
	<circle cx="320.342" cy="467.172" r="4" fill="#0" id="circle178"/>
	<circle cx="320.342" cy="925.569" r="4" fill="#0" id="circle179"/>
	<circle cx="321.535" cy="479.11" r="4" fill="#0" id="circle180"/>
	<circle cx="321.535" cy="614.002" r="4" fill="#0" id="circle181"/>
	<circle cx="321.535" cy="625.94" r="4" fill="#0" id="circle182"/>
	<circle cx="323.923" cy="958.994" r="4" fill="#0" id="circle183"/>
	<circle cx="327.504" cy="489.853" r="4" fill="#0" id="circle184"/>
	<circle cx="331.085" cy="501.791" r="4" fill="#0" id="circle185"/>
	<circle cx="331.085" cy="605.646" r="4" fill="#0" id="circle186"/>
	<circle cx="331.085" cy="931.538" r="4" fill="#0" id="circle187"/>
	<circle cx="333.473" cy="513.728" r="4" fill="#0" id="circle188"/>
	<circle cx="333.473" cy="525.665" r="4" fill="#0" id="circle189"/>
	<circle cx="333.473" cy="948.25" r="4" fill="#0" id="circle190"/>
	<circle cx="339.442" cy="536.409" r="4" fill="#0" id="circle191"/>
	<circle cx="339.442" cy="590.128" r="4" fill="#0" id="circle192"/>
	<circle cx="341.829" cy="548.347" r="4" fill="#0" id="circle193"/>
	<circle cx="345.41" cy="560.284" r="4" fill="#0" id="circle194"/>
	<circle cx="345.41" cy="572.221" r="4" fill="#0" id="circle195"/>
	</g>
</svg>