<?xml version="1.0" encoding="UTF-8" standalone="no"?>
<!-- Created with CurveBenchmark -->
<svg
	xmlns:dc="http://purl.org/dc/elements/1.1/"
	xmlns:cc="http://creativecommons.org/ns#"
	xmlns:rdf="http://www.w3.org/1999/02/22-rdf-syntax-ns#"
	xmlns:svg="http://www.w3.org/2000/svg"
	xmlns="http://www.w3.org/2000/svg"
	xmlns:sodipodi="http://sodipodi.sourceforge.net/DTD/sodipodi-0.dtd"
	xmlns:inkscape="http://www.inkscape.org/namespaces/inkscape"
	width="1000"
	height="1000"
	id="svg2"
	version="1.1"
	sodipodi:docname="manifold/crawl-dude2.png.txt">
<defs
	id="defs4" />
<metadata
	id="metadata7">
	<rdf:RDF>
		<cc:Work
			rdf:about="">
			<dc:format>image/svg+xml</dc:format>
			<dc:type
				rdf:resource="http://purl.org/dc/dcmitype/StillImage" />
			<dc:title></dc:title>
		</cc:Work>
	</rdf:RDF>
</metadata>
<g
	inkscape:label="Layer 1"
	inkscape:groupmode="layer"
	id="layer1">
	<path style="fill:none;stroke:red;stroke-width:1px;stroke-linecap:butt;stroke-linejoin:miter;stroke-opacity:1" d="M 35.6806,471.289 19.8403,459.409 z" id="boundary" inkscape:connector-curvature="0" />
	<path style="fill:none;stroke:red;stroke-width:1px;stroke-linecap:butt;stroke-linejoin:miter;stroke-opacity:1" d="M 19.8403,459.409 4,445.549 z" id="boundary" inkscape:connector-curvature="0" />
	<path style="fill:none;stroke:red;stroke-width:1px;stroke-linecap:butt;stroke-linejoin:miter;stroke-opacity:1" d="M 35.6806,471.289 51.521,457.429 z" id="boundary" inkscape:connector-curvature="0" />
	<path style="fill:none;stroke:red;stroke-width:1px;stroke-linecap:butt;stroke-linejoin:miter;stroke-opacity:1" d="M 51.521,457.429 65.3812,441.589 z" id="boundary" inkscape:connector-curvature="0" />
	<path style="fill:none;stroke:red;stroke-width:1px;stroke-linecap:butt;stroke-linejoin:miter;stroke-opacity:1" d="M 65.3812,441.589 81.2216,427.729 z" id="boundary" inkscape:connector-curvature="0" />
	<path style="fill:none;stroke:red;stroke-width:1px;stroke-linecap:butt;stroke-linejoin:miter;stroke-opacity:1" d="M 4,445.549 13.9002,425.749 z" id="boundary" inkscape:connector-curvature="0" />
	<path style="fill:none;stroke:red;stroke-width:1px;stroke-linecap:butt;stroke-linejoin:miter;stroke-opacity:1" d="M 13.9002,425.749 23.8004,405.948 z" id="boundary" inkscape:connector-curvature="0" />
	<path style="fill:none;stroke:red;stroke-width:1px;stroke-linecap:butt;stroke-linejoin:miter;stroke-opacity:1" d="M 81.2216,427.729 101.022,417.828 z" id="boundary" inkscape:connector-curvature="0" />
	<path style="fill:none;stroke:red;stroke-width:1px;stroke-linecap:butt;stroke-linejoin:miter;stroke-opacity:1" d="M 101.022,417.828 114.882,401.988 z" id="boundary" inkscape:connector-curvature="0" />
	<path style="fill:none;stroke:red;stroke-width:1px;stroke-linecap:butt;stroke-linejoin:miter;stroke-opacity:1" d="M 114.882,401.988 130.723,388.128 z" id="boundary" inkscape:connector-curvature="0" />
	<path style="fill:none;stroke:red;stroke-width:1px;stroke-linecap:butt;stroke-linejoin:miter;stroke-opacity:1" d="M 130.723,388.128 144.583,372.287 z" id="boundary" inkscape:connector-curvature="0" />
	<path style="fill:none;stroke:red;stroke-width:1px;stroke-linecap:butt;stroke-linejoin:miter;stroke-opacity:1" d="M 144.583,372.287 160.423,358.427 z" id="boundary" inkscape:connector-curvature="0" />
	<path style="fill:none;stroke:red;stroke-width:1px;stroke-linecap:butt;stroke-linejoin:miter;stroke-opacity:1" d="M 160.423,358.427 170.323,338.627 z" id="boundary" inkscape:connector-curvature="0" />
	<path style="fill:none;stroke:red;stroke-width:1px;stroke-linecap:butt;stroke-linejoin:miter;stroke-opacity:1" d="M 170.323,338.627 190.124,328.727 z" id="boundary" inkscape:connector-curvature="0" />
	<path style="fill:none;stroke:red;stroke-width:1px;stroke-linecap:butt;stroke-linejoin:miter;stroke-opacity:1" d="M 190.124,328.727 203.984,312.886 z" id="boundary" inkscape:connector-curvature="0" />
	<path style="fill:none;stroke:red;stroke-width:1px;stroke-linecap:butt;stroke-linejoin:miter;stroke-opacity:1" d="M 203.984,312.886 223.784,312.886 z" id="boundary" inkscape:connector-curvature="0" />
	<path style="fill:none;stroke:red;stroke-width:1px;stroke-linecap:butt;stroke-linejoin:miter;stroke-opacity:1" d="M 223.784,312.886 241.605,322.786 z" id="boundary" inkscape:connector-curvature="0" />
	<path style="fill:none;stroke:red;stroke-width:1px;stroke-linecap:butt;stroke-linejoin:miter;stroke-opacity:1" d="M 241.605,322.786 247.545,342.587 z" id="boundary" inkscape:connector-curvature="0" />
	<path style="fill:none;stroke:red;stroke-width:1px;stroke-linecap:butt;stroke-linejoin:miter;stroke-opacity:1" d="M 247.545,342.587 251.505,362.387 z" id="boundary" inkscape:connector-curvature="0" />
	<path style="fill:none;stroke:red;stroke-width:1px;stroke-linecap:butt;stroke-linejoin:miter;stroke-opacity:1" d="M 251.505,362.387 261.405,380.208 z" id="boundary" inkscape:connector-curvature="0" />
	<path style="fill:none;stroke:red;stroke-width:1px;stroke-linecap:butt;stroke-linejoin:miter;stroke-opacity:1" d="M 261.405,380.208 265.365,400.008 z" id="boundary" inkscape:connector-curvature="0" />
	<path style="fill:none;stroke:red;stroke-width:1px;stroke-linecap:butt;stroke-linejoin:miter;stroke-opacity:1" d="M 265.365,400.008 271.305,419.808 z" id="boundary" inkscape:connector-curvature="0" />
	<path style="fill:none;stroke:red;stroke-width:1px;stroke-linecap:butt;stroke-linejoin:miter;stroke-opacity:1" d="M 271.305,419.808 281.206,437.629 z" id="boundary" inkscape:connector-curvature="0" />
	<path style="fill:none;stroke:red;stroke-width:1px;stroke-linecap:butt;stroke-linejoin:miter;stroke-opacity:1" d="M 281.206,437.629 281.206,457.429 z" id="boundary" inkscape:connector-curvature="0" />
	<path style="fill:none;stroke:red;stroke-width:1px;stroke-linecap:butt;stroke-linejoin:miter;stroke-opacity:1" d="M 281.206,457.429 291.106,475.25 z" id="boundary" inkscape:connector-curvature="0" />
	<path style="fill:none;stroke:red;stroke-width:1px;stroke-linecap:butt;stroke-linejoin:miter;stroke-opacity:1" d="M 291.106,475.25 291.106,495.05 z" id="boundary" inkscape:connector-curvature="0" />
	<path style="fill:none;stroke:red;stroke-width:1px;stroke-linecap:butt;stroke-linejoin:miter;stroke-opacity:1" d="M 291.106,495.05 301.006,512.87 z" id="boundary" inkscape:connector-curvature="0" />
	<path style="fill:none;stroke:red;stroke-width:1px;stroke-linecap:butt;stroke-linejoin:miter;stroke-opacity:1" d="M 301.006,512.87 301.006,532.671 z" id="boundary" inkscape:connector-curvature="0" />
	<path style="fill:none;stroke:red;stroke-width:1px;stroke-linecap:butt;stroke-linejoin:miter;stroke-opacity:1" d="M 301.006,532.671 301.006,552.471 z" id="boundary" inkscape:connector-curvature="0" />
	<path style="fill:none;stroke:red;stroke-width:1px;stroke-linecap:butt;stroke-linejoin:miter;stroke-opacity:1" d="M 23.8004,405.948 39.6407,390.108 z" id="boundary" inkscape:connector-curvature="0" />
	<path style="fill:none;stroke:red;stroke-width:1px;stroke-linecap:butt;stroke-linejoin:miter;stroke-opacity:1" d="M 39.6407,390.108 49.5409,370.307 z" id="boundary" inkscape:connector-curvature="0" />
	<path style="fill:none;stroke:red;stroke-width:1px;stroke-linecap:butt;stroke-linejoin:miter;stroke-opacity:1" d="M 49.5409,370.307 65.3812,354.467 z" id="boundary" inkscape:connector-curvature="0" />
	<path style="fill:none;stroke:red;stroke-width:1px;stroke-linecap:butt;stroke-linejoin:miter;stroke-opacity:1" d="M 65.3812,354.467 75.2814,334.667 z" id="boundary" inkscape:connector-curvature="0" />
	<path style="fill:none;stroke:red;stroke-width:1px;stroke-linecap:butt;stroke-linejoin:miter;stroke-opacity:1" d="M 75.2814,334.667 91.1218,320.806 z" id="boundary" inkscape:connector-curvature="0" />
	<path style="fill:none;stroke:red;stroke-width:1px;stroke-linecap:butt;stroke-linejoin:miter;stroke-opacity:1" d="M 91.1218,320.806 99.0419,301.006 z" id="boundary" inkscape:connector-curvature="0" />
	<path style="fill:none;stroke:red;stroke-width:1px;stroke-linecap:butt;stroke-linejoin:miter;stroke-opacity:1" d="M 99.0419,301.006 114.882,285.166 z" id="boundary" inkscape:connector-curvature="0" />
	<path style="fill:none;stroke:red;stroke-width:1px;stroke-linecap:butt;stroke-linejoin:miter;stroke-opacity:1" d="M 114.882,285.166 124.782,265.365 z" id="boundary" inkscape:connector-curvature="0" />
	<path style="fill:none;stroke:red;stroke-width:1px;stroke-linecap:butt;stroke-linejoin:miter;stroke-opacity:1" d="M 124.782,265.365 134.683,245.565 z" id="boundary" inkscape:connector-curvature="0" />
	<path style="fill:none;stroke:red;stroke-width:1px;stroke-linecap:butt;stroke-linejoin:miter;stroke-opacity:1" d="M 134.683,245.565 150.523,231.705 z" id="boundary" inkscape:connector-curvature="0" />
	<path style="fill:none;stroke:red;stroke-width:1px;stroke-linecap:butt;stroke-linejoin:miter;stroke-opacity:1" d="M 150.523,231.705 168.343,221.804 z" id="boundary" inkscape:connector-curvature="0" />
	<path style="fill:none;stroke:red;stroke-width:1px;stroke-linecap:butt;stroke-linejoin:miter;stroke-opacity:1" d="M 168.343,221.804 184.184,205.964 z" id="boundary" inkscape:connector-curvature="0" />
	<path style="fill:none;stroke:red;stroke-width:1px;stroke-linecap:butt;stroke-linejoin:miter;stroke-opacity:1" d="M 184.184,205.964 200.024,192.104 z" id="boundary" inkscape:connector-curvature="0" />
	<path style="fill:none;stroke:red;stroke-width:1px;stroke-linecap:butt;stroke-linejoin:miter;stroke-opacity:1" d="M 200.024,192.104 219.824,192.104 z" id="boundary" inkscape:connector-curvature="0" />
	<path style="fill:none;stroke:red;stroke-width:1px;stroke-linecap:butt;stroke-linejoin:miter;stroke-opacity:1" d="M 219.824,192.104 237.645,182.204 z" id="boundary" inkscape:connector-curvature="0" />
	<path style="fill:none;stroke:red;stroke-width:1px;stroke-linecap:butt;stroke-linejoin:miter;stroke-opacity:1" d="M 237.645,182.204 257.445,182.204 z" id="boundary" inkscape:connector-curvature="0" />
	<path style="fill:none;stroke:red;stroke-width:1px;stroke-linecap:butt;stroke-linejoin:miter;stroke-opacity:1" d="M 257.445,182.204 277.246,182.204 z" id="boundary" inkscape:connector-curvature="0" />
	<path style="fill:none;stroke:red;stroke-width:1px;stroke-linecap:butt;stroke-linejoin:miter;stroke-opacity:1" d="M 277.246,182.204 297.046,172.303 z" id="boundary" inkscape:connector-curvature="0" />
	<path style="fill:none;stroke:red;stroke-width:1px;stroke-linecap:butt;stroke-linejoin:miter;stroke-opacity:1" d="M 297.046,172.303 310.906,146.563 z" id="boundary" inkscape:connector-curvature="0" />
	<path style="fill:none;stroke:red;stroke-width:1px;stroke-linecap:butt;stroke-linejoin:miter;stroke-opacity:1" d="M 310.906,146.563 310.906,126.762 z" id="boundary" inkscape:connector-curvature="0" />
	<path style="fill:none;stroke:red;stroke-width:1px;stroke-linecap:butt;stroke-linejoin:miter;stroke-opacity:1" d="M 310.906,126.762 301.006,108.942 z" id="boundary" inkscape:connector-curvature="0" />
	<path style="fill:none;stroke:red;stroke-width:1px;stroke-linecap:butt;stroke-linejoin:miter;stroke-opacity:1" d="M 301.006,108.942 301.006,89.1417 z" id="boundary" inkscape:connector-curvature="0" />
	<path style="fill:none;stroke:red;stroke-width:1px;stroke-linecap:butt;stroke-linejoin:miter;stroke-opacity:1" d="M 301.006,89.1417 310.906,59.4411 z" id="boundary" inkscape:connector-curvature="0" />
	<path style="fill:none;stroke:red;stroke-width:1px;stroke-linecap:butt;stroke-linejoin:miter;stroke-opacity:1" d="M 310.906,59.4411 326.747,43.6008 z" id="boundary" inkscape:connector-curvature="0" />
	<path style="fill:none;stroke:red;stroke-width:1px;stroke-linecap:butt;stroke-linejoin:miter;stroke-opacity:1" d="M 326.747,43.6008 342.587,27.7605 z" id="boundary" inkscape:connector-curvature="0" />
	<path style="fill:none;stroke:red;stroke-width:1px;stroke-linecap:butt;stroke-linejoin:miter;stroke-opacity:1" d="M 342.587,27.7605 358.427,13.9002 z" id="boundary" inkscape:connector-curvature="0" />
	<path style="fill:none;stroke:red;stroke-width:1px;stroke-linecap:butt;stroke-linejoin:miter;stroke-opacity:1" d="M 358.427,13.9002 376.248,4 z" id="boundary" inkscape:connector-curvature="0" />
	<path style="fill:none;stroke:red;stroke-width:1px;stroke-linecap:butt;stroke-linejoin:miter;stroke-opacity:1" d="M 376.248,4 396.048,4 z" id="boundary" inkscape:connector-curvature="0" />
	<path style="fill:none;stroke:red;stroke-width:1px;stroke-linecap:butt;stroke-linejoin:miter;stroke-opacity:1" d="M 396.048,4 413.868,13.9002 z" id="boundary" inkscape:connector-curvature="0" />
	<path style="fill:none;stroke:red;stroke-width:1px;stroke-linecap:butt;stroke-linejoin:miter;stroke-opacity:1" d="M 413.868,13.9002 431.689,23.8004 z" id="boundary" inkscape:connector-curvature="0" />
	<path style="fill:none;stroke:red;stroke-width:1px;stroke-linecap:butt;stroke-linejoin:miter;stroke-opacity:1" d="M 431.689,23.8004 441.589,41.6208 z" id="boundary" inkscape:connector-curvature="0" />
	<path style="fill:none;stroke:red;stroke-width:1px;stroke-linecap:butt;stroke-linejoin:miter;stroke-opacity:1" d="M 441.589,41.6208 457.429,55.481 z" id="boundary" inkscape:connector-curvature="0" />
	<path style="fill:none;stroke:red;stroke-width:1px;stroke-linecap:butt;stroke-linejoin:miter;stroke-opacity:1" d="M 457.429,55.481 461.389,75.2814 z" id="boundary" inkscape:connector-curvature="0" />
	<path style="fill:none;stroke:red;stroke-width:1px;stroke-linecap:butt;stroke-linejoin:miter;stroke-opacity:1" d="M 461.389,75.2814 471.289,93.1018 z" id="boundary" inkscape:connector-curvature="0" />
	<path style="fill:none;stroke:red;stroke-width:1px;stroke-linecap:butt;stroke-linejoin:miter;stroke-opacity:1" d="M 471.289,93.1018 471.289,112.902 z" id="boundary" inkscape:connector-curvature="0" />
	<path style="fill:none;stroke:red;stroke-width:1px;stroke-linecap:butt;stroke-linejoin:miter;stroke-opacity:1" d="M 471.289,112.902 461.389,134.683 z" id="boundary" inkscape:connector-curvature="0" />
	<path style="fill:none;stroke:red;stroke-width:1px;stroke-linecap:butt;stroke-linejoin:miter;stroke-opacity:1" d="M 461.389,134.683 461.389,154.483 z" id="boundary" inkscape:connector-curvature="0" />
	<path style="fill:none;stroke:red;stroke-width:1px;stroke-linecap:butt;stroke-linejoin:miter;stroke-opacity:1" d="M 461.389,154.483 471.289,172.303 z" id="boundary" inkscape:connector-curvature="0" />
	<path style="fill:none;stroke:red;stroke-width:1px;stroke-linecap:butt;stroke-linejoin:miter;stroke-opacity:1" d="M 471.289,172.303 471.289,192.104 z" id="boundary" inkscape:connector-curvature="0" />
	<path style="fill:none;stroke:red;stroke-width:1px;stroke-linecap:butt;stroke-linejoin:miter;stroke-opacity:1" d="M 471.289,192.104 491.09,192.104 z" id="boundary" inkscape:connector-curvature="0" />
	<path style="fill:none;stroke:red;stroke-width:1px;stroke-linecap:butt;stroke-linejoin:miter;stroke-opacity:1" d="M 491.09,192.104 510.89,192.104 z" id="boundary" inkscape:connector-curvature="0" />
	<path style="fill:none;stroke:red;stroke-width:1px;stroke-linecap:butt;stroke-linejoin:miter;stroke-opacity:1" d="M 510.89,192.104 530.691,192.104 z" id="boundary" inkscape:connector-curvature="0" />
	<path style="fill:none;stroke:red;stroke-width:1px;stroke-linecap:butt;stroke-linejoin:miter;stroke-opacity:1" d="M 530.691,192.104 550.491,186.164 z" id="boundary" inkscape:connector-curvature="0" />
	<path style="fill:none;stroke:red;stroke-width:1px;stroke-linecap:butt;stroke-linejoin:miter;stroke-opacity:1" d="M 550.491,186.164 570.291,182.204 z" id="boundary" inkscape:connector-curvature="0" />
	<path style="fill:none;stroke:red;stroke-width:1px;stroke-linecap:butt;stroke-linejoin:miter;stroke-opacity:1" d="M 570.291,182.204 590.092,182.204 z" id="boundary" inkscape:connector-curvature="0" />
	<path style="fill:none;stroke:red;stroke-width:1px;stroke-linecap:butt;stroke-linejoin:miter;stroke-opacity:1" d="M 590.092,182.204 609.892,182.204 z" id="boundary" inkscape:connector-curvature="0" />
	<path style="fill:none;stroke:red;stroke-width:1px;stroke-linecap:butt;stroke-linejoin:miter;stroke-opacity:1" d="M 609.892,182.204 629.693,182.204 z" id="boundary" inkscape:connector-curvature="0" />
	<path style="fill:none;stroke:red;stroke-width:1px;stroke-linecap:butt;stroke-linejoin:miter;stroke-opacity:1" d="M 629.693,182.204 647.513,172.303 z" id="boundary" inkscape:connector-curvature="0" />
	<path style="fill:none;stroke:red;stroke-width:1px;stroke-linecap:butt;stroke-linejoin:miter;stroke-opacity:1" d="M 647.513,172.303 667.313,172.303 z" id="boundary" inkscape:connector-curvature="0" />
	<path style="fill:none;stroke:red;stroke-width:1px;stroke-linecap:butt;stroke-linejoin:miter;stroke-opacity:1" d="M 667.313,172.303 685.134,162.403 z" id="boundary" inkscape:connector-curvature="0" />
	<path style="fill:none;stroke:red;stroke-width:1px;stroke-linecap:butt;stroke-linejoin:miter;stroke-opacity:1" d="M 685.134,162.403 704.934,162.403 z" id="boundary" inkscape:connector-curvature="0" />
	<path style="fill:none;stroke:red;stroke-width:1px;stroke-linecap:butt;stroke-linejoin:miter;stroke-opacity:1" d="M 704.934,162.403 724.735,162.403 z" id="boundary" inkscape:connector-curvature="0" />
	<path style="fill:none;stroke:red;stroke-width:1px;stroke-linecap:butt;stroke-linejoin:miter;stroke-opacity:1" d="M 724.735,162.403 742.555,152.503 z" id="boundary" inkscape:connector-curvature="0" />
	<path style="fill:none;stroke:red;stroke-width:1px;stroke-linecap:butt;stroke-linejoin:miter;stroke-opacity:1" d="M 742.555,152.503 762.355,152.503 z" id="boundary" inkscape:connector-curvature="0" />
	<path style="fill:none;stroke:red;stroke-width:1px;stroke-linecap:butt;stroke-linejoin:miter;stroke-opacity:1" d="M 762.355,152.503 782.156,142.603 z" id="boundary" inkscape:connector-curvature="0" />
	<path style="fill:none;stroke:red;stroke-width:1px;stroke-linecap:butt;stroke-linejoin:miter;stroke-opacity:1" d="M 782.156,142.603 801.956,142.603 z" id="boundary" inkscape:connector-curvature="0" />
	<path style="fill:none;stroke:red;stroke-width:1px;stroke-linecap:butt;stroke-linejoin:miter;stroke-opacity:1" d="M 801.956,142.603 821.756,142.603 z" id="boundary" inkscape:connector-curvature="0" />
	<path style="fill:none;stroke:red;stroke-width:1px;stroke-linecap:butt;stroke-linejoin:miter;stroke-opacity:1" d="M 821.756,142.603 839.577,132.703 z" id="boundary" inkscape:connector-curvature="0" />
	<path style="fill:none;stroke:red;stroke-width:1px;stroke-linecap:butt;stroke-linejoin:miter;stroke-opacity:1" d="M 839.577,132.703 859.377,132.703 z" id="boundary" inkscape:connector-curvature="0" />
	<path style="fill:none;stroke:red;stroke-width:1px;stroke-linecap:butt;stroke-linejoin:miter;stroke-opacity:1" d="M 859.377,132.703 879.178,124.782 z" id="boundary" inkscape:connector-curvature="0" />
	<path style="fill:none;stroke:red;stroke-width:1px;stroke-linecap:butt;stroke-linejoin:miter;stroke-opacity:1" d="M 879.178,124.782 898.978,114.882 z" id="boundary" inkscape:connector-curvature="0" />
	<path style="fill:none;stroke:red;stroke-width:1px;stroke-linecap:butt;stroke-linejoin:miter;stroke-opacity:1" d="M 898.978,114.882 906.898,134.683 z" id="boundary" inkscape:connector-curvature="0" />
	<path style="fill:none;stroke:red;stroke-width:1px;stroke-linecap:butt;stroke-linejoin:miter;stroke-opacity:1" d="M 906.898,134.683 906.898,154.483 z" id="boundary" inkscape:connector-curvature="0" />
	<path style="fill:none;stroke:red;stroke-width:1px;stroke-linecap:butt;stroke-linejoin:miter;stroke-opacity:1" d="M 906.898,154.483 896.998,174.283 z" id="boundary" inkscape:connector-curvature="0" />
	<path style="fill:none;stroke:red;stroke-width:1px;stroke-linecap:butt;stroke-linejoin:miter;stroke-opacity:1" d="M 896.998,174.283 879.178,184.184 z" id="boundary" inkscape:connector-curvature="0" />
	<path style="fill:none;stroke:red;stroke-width:1px;stroke-linecap:butt;stroke-linejoin:miter;stroke-opacity:1" d="M 879.178,184.184 859.377,184.184 z" id="boundary" inkscape:connector-curvature="0" />
	<path style="fill:none;stroke:red;stroke-width:1px;stroke-linecap:butt;stroke-linejoin:miter;stroke-opacity:1" d="M 859.377,184.184 841.557,194.084 z" id="boundary" inkscape:connector-curvature="0" />
	<path style="fill:none;stroke:red;stroke-width:1px;stroke-linecap:butt;stroke-linejoin:miter;stroke-opacity:1" d="M 841.557,194.084 821.756,202.004 z" id="boundary" inkscape:connector-curvature="0" />
	<path style="fill:none;stroke:red;stroke-width:1px;stroke-linecap:butt;stroke-linejoin:miter;stroke-opacity:1" d="M 821.756,202.004 801.956,203.984 z" id="boundary" inkscape:connector-curvature="0" />
	<path style="fill:none;stroke:red;stroke-width:1px;stroke-linecap:butt;stroke-linejoin:miter;stroke-opacity:1" d="M 801.956,203.984 784.136,213.884 z" id="boundary" inkscape:connector-curvature="0" />
	<path style="fill:none;stroke:red;stroke-width:1px;stroke-linecap:butt;stroke-linejoin:miter;stroke-opacity:1" d="M 784.136,213.884 764.335,213.884 z" id="boundary" inkscape:connector-curvature="0" />
	<path style="fill:none;stroke:red;stroke-width:1px;stroke-linecap:butt;stroke-linejoin:miter;stroke-opacity:1" d="M 764.335,213.884 746.515,223.784 z" id="boundary" inkscape:connector-curvature="0" />
	<path style="fill:none;stroke:red;stroke-width:1px;stroke-linecap:butt;stroke-linejoin:miter;stroke-opacity:1" d="M 746.515,223.784 726.715,227.745 z" id="boundary" inkscape:connector-curvature="0" />
	<path style="fill:none;stroke:red;stroke-width:1px;stroke-linecap:butt;stroke-linejoin:miter;stroke-opacity:1" d="M 726.715,227.745 706.914,233.685 z" id="boundary" inkscape:connector-curvature="0" />
	<path style="fill:none;stroke:red;stroke-width:1px;stroke-linecap:butt;stroke-linejoin:miter;stroke-opacity:1" d="M 706.914,233.685 689.094,243.585 z" id="boundary" inkscape:connector-curvature="0" />
	<path style="fill:none;stroke:red;stroke-width:1px;stroke-linecap:butt;stroke-linejoin:miter;stroke-opacity:1" d="M 689.094,243.585 669.293,243.585 z" id="boundary" inkscape:connector-curvature="0" />
	<path style="fill:none;stroke:red;stroke-width:1px;stroke-linecap:butt;stroke-linejoin:miter;stroke-opacity:1" d="M 669.293,243.585 651.473,253.485 z" id="boundary" inkscape:connector-curvature="0" />
	<path style="fill:none;stroke:red;stroke-width:1px;stroke-linecap:butt;stroke-linejoin:miter;stroke-opacity:1" d="M 651.473,253.485 631.673,253.485 z" id="boundary" inkscape:connector-curvature="0" />
	<path style="fill:none;stroke:red;stroke-width:1px;stroke-linecap:butt;stroke-linejoin:miter;stroke-opacity:1" d="M 631.673,253.485 613.852,263.385 z" id="boundary" inkscape:connector-curvature="0" />
	<path style="fill:none;stroke:red;stroke-width:1px;stroke-linecap:butt;stroke-linejoin:miter;stroke-opacity:1" d="M 613.852,263.385 596.032,273.285 z" id="boundary" inkscape:connector-curvature="0" />
	<path style="fill:none;stroke:red;stroke-width:1px;stroke-linecap:butt;stroke-linejoin:miter;stroke-opacity:1" d="M 596.032,273.285 578.212,283.186 z" id="boundary" inkscape:connector-curvature="0" />
	<path style="fill:none;stroke:red;stroke-width:1px;stroke-linecap:butt;stroke-linejoin:miter;stroke-opacity:1" d="M 578.212,283.186 560.391,293.086 z" id="boundary" inkscape:connector-curvature="0" />
	<path style="fill:none;stroke:red;stroke-width:1px;stroke-linecap:butt;stroke-linejoin:miter;stroke-opacity:1" d="M 560.391,293.086 540.591,293.086 z" id="boundary" inkscape:connector-curvature="0" />
	<path style="fill:none;stroke:red;stroke-width:1px;stroke-linecap:butt;stroke-linejoin:miter;stroke-opacity:1" d="M 540.591,293.086 520.79,302.986 z" id="boundary" inkscape:connector-curvature="0" />
	<path style="fill:none;stroke:red;stroke-width:1px;stroke-linecap:butt;stroke-linejoin:miter;stroke-opacity:1" d="M 520.79,302.986 520.79,322.786 z" id="boundary" inkscape:connector-curvature="0" />
	<path style="fill:none;stroke:red;stroke-width:1px;stroke-linecap:butt;stroke-linejoin:miter;stroke-opacity:1" d="M 520.79,322.786 520.79,342.587 z" id="boundary" inkscape:connector-curvature="0" />
	<path style="fill:none;stroke:red;stroke-width:1px;stroke-linecap:butt;stroke-linejoin:miter;stroke-opacity:1" d="M 520.79,342.587 510.89,372.287 z" id="boundary" inkscape:connector-curvature="0" />
	<path style="fill:none;stroke:red;stroke-width:1px;stroke-linecap:butt;stroke-linejoin:miter;stroke-opacity:1" d="M 510.89,372.287 510.89,392.088 z" id="boundary" inkscape:connector-curvature="0" />
	<path style="fill:none;stroke:red;stroke-width:1px;stroke-linecap:butt;stroke-linejoin:miter;stroke-opacity:1" d="M 510.89,392.088 500.99,421.788 z" id="boundary" inkscape:connector-curvature="0" />
	<path style="fill:none;stroke:red;stroke-width:1px;stroke-linecap:butt;stroke-linejoin:miter;stroke-opacity:1" d="M 500.99,421.788 500.99,441.589 z" id="boundary" inkscape:connector-curvature="0" />
	<path style="fill:none;stroke:red;stroke-width:1px;stroke-linecap:butt;stroke-linejoin:miter;stroke-opacity:1" d="M 500.99,441.589 491.09,471.289 z" id="boundary" inkscape:connector-curvature="0" />
	<path style="fill:none;stroke:red;stroke-width:1px;stroke-linecap:butt;stroke-linejoin:miter;stroke-opacity:1" d="M 491.09,471.289 491.09,491.09 z" id="boundary" inkscape:connector-curvature="0" />
	<path style="fill:none;stroke:red;stroke-width:1px;stroke-linecap:butt;stroke-linejoin:miter;stroke-opacity:1" d="M 491.09,491.09 481.19,510.89 z" id="boundary" inkscape:connector-curvature="0" />
	<path style="fill:none;stroke:red;stroke-width:1px;stroke-linecap:butt;stroke-linejoin:miter;stroke-opacity:1" d="M 481.19,510.89 481.19,530.691 z" id="boundary" inkscape:connector-curvature="0" />
	<path style="fill:none;stroke:red;stroke-width:1px;stroke-linecap:butt;stroke-linejoin:miter;stroke-opacity:1" d="M 481.19,530.691 481.19,550.491 z" id="boundary" inkscape:connector-curvature="0" />
	<path style="fill:none;stroke:red;stroke-width:1px;stroke-linecap:butt;stroke-linejoin:miter;stroke-opacity:1" d="M 481.19,550.491 485.15,570.291 z" id="boundary" inkscape:connector-curvature="0" />
	<path style="fill:none;stroke:red;stroke-width:1px;stroke-linecap:butt;stroke-linejoin:miter;stroke-opacity:1" d="M 485.15,570.291 491.09,590.092 z" id="boundary" inkscape:connector-curvature="0" />
	<path style="fill:none;stroke:red;stroke-width:1px;stroke-linecap:butt;stroke-linejoin:miter;stroke-opacity:1" d="M 491.09,590.092 500.99,607.912 z" id="boundary" inkscape:connector-curvature="0" />
	<path style="fill:none;stroke:red;stroke-width:1px;stroke-linecap:butt;stroke-linejoin:miter;stroke-opacity:1" d="M 500.99,607.912 500.99,627.713 z" id="boundary" inkscape:connector-curvature="0" />
	<path style="fill:none;stroke:red;stroke-width:1px;stroke-linecap:butt;stroke-linejoin:miter;stroke-opacity:1" d="M 500.99,627.713 510.89,645.533 z" id="boundary" inkscape:connector-curvature="0" />
	<path style="fill:none;stroke:red;stroke-width:1px;stroke-linecap:butt;stroke-linejoin:miter;stroke-opacity:1" d="M 510.89,645.533 520.79,663.353 z" id="boundary" inkscape:connector-curvature="0" />
	<path style="fill:none;stroke:red;stroke-width:1px;stroke-linecap:butt;stroke-linejoin:miter;stroke-opacity:1" d="M 520.79,663.353 528.711,683.154 z" id="boundary" inkscape:connector-curvature="0" />
	<path style="fill:none;stroke:red;stroke-width:1px;stroke-linecap:butt;stroke-linejoin:miter;stroke-opacity:1" d="M 528.711,683.154 530.691,702.954 z" id="boundary" inkscape:connector-curvature="0" />
	<path style="fill:none;stroke:red;stroke-width:1px;stroke-linecap:butt;stroke-linejoin:miter;stroke-opacity:1" d="M 530.691,702.954 544.551,718.794 z" id="boundary" inkscape:connector-curvature="0" />
	<path style="fill:none;stroke:red;stroke-width:1px;stroke-linecap:butt;stroke-linejoin:miter;stroke-opacity:1" d="M 544.551,718.794 550.491,738.595 z" id="boundary" inkscape:connector-curvature="0" />
	<path style="fill:none;stroke:red;stroke-width:1px;stroke-linecap:butt;stroke-linejoin:miter;stroke-opacity:1" d="M 550.491,738.595 560.391,756.415 z" id="boundary" inkscape:connector-curvature="0" />
	<path style="fill:none;stroke:red;stroke-width:1px;stroke-linecap:butt;stroke-linejoin:miter;stroke-opacity:1" d="M 560.391,756.415 570.291,774.236 z" id="boundary" inkscape:connector-curvature="0" />
	<path style="fill:none;stroke:red;stroke-width:1px;stroke-linecap:butt;stroke-linejoin:miter;stroke-opacity:1" d="M 570.291,774.236 580.192,792.056 z" id="boundary" inkscape:connector-curvature="0" />
	<path style="fill:none;stroke:red;stroke-width:1px;stroke-linecap:butt;stroke-linejoin:miter;stroke-opacity:1" d="M 580.192,792.056 580.192,811.856 z" id="boundary" inkscape:connector-curvature="0" />
	<path style="fill:none;stroke:red;stroke-width:1px;stroke-linecap:butt;stroke-linejoin:miter;stroke-opacity:1" d="M 580.192,811.856 590.092,829.677 z" id="boundary" inkscape:connector-curvature="0" />
	<path style="fill:none;stroke:red;stroke-width:1px;stroke-linecap:butt;stroke-linejoin:miter;stroke-opacity:1" d="M 590.092,829.677 599.992,847.497 z" id="boundary" inkscape:connector-curvature="0" />
	<path style="fill:none;stroke:red;stroke-width:1px;stroke-linecap:butt;stroke-linejoin:miter;stroke-opacity:1" d="M 599.992,847.497 609.892,865.317 z" id="boundary" inkscape:connector-curvature="0" />
	<path style="fill:none;stroke:red;stroke-width:1px;stroke-linecap:butt;stroke-linejoin:miter;stroke-opacity:1" d="M 609.892,865.317 609.892,885.118 z" id="boundary" inkscape:connector-curvature="0" />
	<path style="fill:none;stroke:red;stroke-width:1px;stroke-linecap:butt;stroke-linejoin:miter;stroke-opacity:1" d="M 609.892,885.118 619.792,902.938 z" id="boundary" inkscape:connector-curvature="0" />
	<path style="fill:none;stroke:red;stroke-width:1px;stroke-linecap:butt;stroke-linejoin:miter;stroke-opacity:1" d="M 619.792,902.938 629.693,920.758 z" id="boundary" inkscape:connector-curvature="0" />
	<path style="fill:none;stroke:red;stroke-width:1px;stroke-linecap:butt;stroke-linejoin:miter;stroke-opacity:1" d="M 629.693,920.758 629.693,940.559 z" id="boundary" inkscape:connector-curvature="0" />
	<path style="fill:none;stroke:red;stroke-width:1px;stroke-linecap:butt;stroke-linejoin:miter;stroke-opacity:1" d="M 629.693,940.559 629.693,960.359 z" id="boundary" inkscape:connector-curvature="0" />
	<path style="fill:none;stroke:red;stroke-width:1px;stroke-linecap:butt;stroke-linejoin:miter;stroke-opacity:1" d="M 629.693,960.359 623.752,984.12 z" id="boundary" inkscape:connector-curvature="0" />
	<path style="fill:none;stroke:red;stroke-width:1px;stroke-linecap:butt;stroke-linejoin:miter;stroke-opacity:1" d="M 623.752,984.12 603.952,984.12 z" id="boundary" inkscape:connector-curvature="0" />
	<path style="fill:none;stroke:red;stroke-width:1px;stroke-linecap:butt;stroke-linejoin:miter;stroke-opacity:1" d="M 603.952,984.12 584.152,976.2 z" id="boundary" inkscape:connector-curvature="0" />
	<path style="fill:none;stroke:red;stroke-width:1px;stroke-linecap:butt;stroke-linejoin:miter;stroke-opacity:1" d="M 584.152,976.2 570.291,960.359 z" id="boundary" inkscape:connector-curvature="0" />
	<path style="fill:none;stroke:red;stroke-width:1px;stroke-linecap:butt;stroke-linejoin:miter;stroke-opacity:1" d="M 570.291,960.359 554.451,946.499 z" id="boundary" inkscape:connector-curvature="0" />
	<path style="fill:none;stroke:red;stroke-width:1px;stroke-linecap:butt;stroke-linejoin:miter;stroke-opacity:1" d="M 554.451,946.499 548.511,926.699 z" id="boundary" inkscape:connector-curvature="0" />
	<path style="fill:none;stroke:red;stroke-width:1px;stroke-linecap:butt;stroke-linejoin:miter;stroke-opacity:1" d="M 548.511,926.699 532.671,914.818 z" id="boundary" inkscape:connector-curvature="0" />
	<path style="fill:none;stroke:red;stroke-width:1px;stroke-linecap:butt;stroke-linejoin:miter;stroke-opacity:1" d="M 532.671,914.818 524.75,895.018 z" id="boundary" inkscape:connector-curvature="0" />
	<path style="fill:none;stroke:red;stroke-width:1px;stroke-linecap:butt;stroke-linejoin:miter;stroke-opacity:1" d="M 524.75,895.018 514.85,877.198 z" id="boundary" inkscape:connector-curvature="0" />
	<path style="fill:none;stroke:red;stroke-width:1px;stroke-linecap:butt;stroke-linejoin:miter;stroke-opacity:1" d="M 514.85,877.198 508.91,857.397 z" id="boundary" inkscape:connector-curvature="0" />
	<path style="fill:none;stroke:red;stroke-width:1px;stroke-linecap:butt;stroke-linejoin:miter;stroke-opacity:1" d="M 508.91,857.397 493.07,845.517 z" id="boundary" inkscape:connector-curvature="0" />
	<path style="fill:none;stroke:red;stroke-width:1px;stroke-linecap:butt;stroke-linejoin:miter;stroke-opacity:1" d="M 493.07,845.517 485.15,825.717 z" id="boundary" inkscape:connector-curvature="0" />
	<path style="fill:none;stroke:red;stroke-width:1px;stroke-linecap:butt;stroke-linejoin:miter;stroke-opacity:1" d="M 485.15,825.717 475.25,807.896 z" id="boundary" inkscape:connector-curvature="0" />
	<path style="fill:none;stroke:red;stroke-width:1px;stroke-linecap:butt;stroke-linejoin:miter;stroke-opacity:1" d="M 475.25,807.896 469.309,788.096 z" id="boundary" inkscape:connector-curvature="0" />
	<path style="fill:none;stroke:red;stroke-width:1px;stroke-linecap:butt;stroke-linejoin:miter;stroke-opacity:1" d="M 469.309,788.096 453.469,776.216 z" id="boundary" inkscape:connector-curvature="0" />
	<path style="fill:none;stroke:red;stroke-width:1px;stroke-linecap:butt;stroke-linejoin:miter;stroke-opacity:1" d="M 453.469,776.216 445.549,756.415 z" id="boundary" inkscape:connector-curvature="0" />
	<path style="fill:none;stroke:red;stroke-width:1px;stroke-linecap:butt;stroke-linejoin:miter;stroke-opacity:1" d="M 445.549,756.415 435.649,738.595 z" id="boundary" inkscape:connector-curvature="0" />
	<path style="fill:none;stroke:red;stroke-width:1px;stroke-linecap:butt;stroke-linejoin:miter;stroke-opacity:1" d="M 435.649,738.595 427.729,718.794 z" id="boundary" inkscape:connector-curvature="0" />
	<path style="fill:none;stroke:red;stroke-width:1px;stroke-linecap:butt;stroke-linejoin:miter;stroke-opacity:1" d="M 427.729,718.794 411.888,704.934 z" id="boundary" inkscape:connector-curvature="0" />
	<path style="fill:none;stroke:red;stroke-width:1px;stroke-linecap:butt;stroke-linejoin:miter;stroke-opacity:1" d="M 411.888,704.934 398.028,689.094 z" id="boundary" inkscape:connector-curvature="0" />
	<path style="fill:none;stroke:red;stroke-width:1px;stroke-linecap:butt;stroke-linejoin:miter;stroke-opacity:1" d="M 398.028,689.094 378.228,695.034 z" id="boundary" inkscape:connector-curvature="0" />
	<path style="fill:none;stroke:red;stroke-width:1px;stroke-linecap:butt;stroke-linejoin:miter;stroke-opacity:1" d="M 378.228,695.034 362.387,708.894 z" id="boundary" inkscape:connector-curvature="0" />
	<path style="fill:none;stroke:red;stroke-width:1px;stroke-linecap:butt;stroke-linejoin:miter;stroke-opacity:1" d="M 362.387,708.894 348.527,724.735 z" id="boundary" inkscape:connector-curvature="0" />
	<path style="fill:none;stroke:red;stroke-width:1px;stroke-linecap:butt;stroke-linejoin:miter;stroke-opacity:1" d="M 348.527,724.735 338.627,744.535 z" id="boundary" inkscape:connector-curvature="0" />
	<path style="fill:none;stroke:red;stroke-width:1px;stroke-linecap:butt;stroke-linejoin:miter;stroke-opacity:1" d="M 338.627,744.535 322.786,758.395 z" id="boundary" inkscape:connector-curvature="0" />
	<path style="fill:none;stroke:red;stroke-width:1px;stroke-linecap:butt;stroke-linejoin:miter;stroke-opacity:1" d="M 322.786,758.395 312.886,778.196 z" id="boundary" inkscape:connector-curvature="0" />
	<path style="fill:none;stroke:red;stroke-width:1px;stroke-linecap:butt;stroke-linejoin:miter;stroke-opacity:1" d="M 312.886,778.196 299.026,794.036 z" id="boundary" inkscape:connector-curvature="0" />
	<path style="fill:none;stroke:red;stroke-width:1px;stroke-linecap:butt;stroke-linejoin:miter;stroke-opacity:1" d="M 299.026,794.036 283.186,807.896 z" id="boundary" inkscape:connector-curvature="0" />
	<path style="fill:none;stroke:red;stroke-width:1px;stroke-linecap:butt;stroke-linejoin:miter;stroke-opacity:1" d="M 283.186,807.896 269.325,833.637 z" id="boundary" inkscape:connector-curvature="0" />
	<path style="fill:none;stroke:red;stroke-width:1px;stroke-linecap:butt;stroke-linejoin:miter;stroke-opacity:1" d="M 269.325,833.637 253.485,847.497 z" id="boundary" inkscape:connector-curvature="0" />
	<path style="fill:none;stroke:red;stroke-width:1px;stroke-linecap:butt;stroke-linejoin:miter;stroke-opacity:1" d="M 253.485,847.497 239.625,873.238 z" id="boundary" inkscape:connector-curvature="0" />
	<path style="fill:none;stroke:red;stroke-width:1px;stroke-linecap:butt;stroke-linejoin:miter;stroke-opacity:1" d="M 239.625,873.238 223.784,887.098 z" id="boundary" inkscape:connector-curvature="0" />
	<path style="fill:none;stroke:red;stroke-width:1px;stroke-linecap:butt;stroke-linejoin:miter;stroke-opacity:1" d="M 223.784,887.098 213.884,906.898 z" id="boundary" inkscape:connector-curvature="0" />
	<path style="fill:none;stroke:red;stroke-width:1px;stroke-linecap:butt;stroke-linejoin:miter;stroke-opacity:1" d="M 213.884,906.898 200.024,922.739 z" id="boundary" inkscape:connector-curvature="0" />
	<path style="fill:none;stroke:red;stroke-width:1px;stroke-linecap:butt;stroke-linejoin:miter;stroke-opacity:1" d="M 200.024,922.739 184.184,936.599 z" id="boundary" inkscape:connector-curvature="0" />
	<path style="fill:none;stroke:red;stroke-width:1px;stroke-linecap:butt;stroke-linejoin:miter;stroke-opacity:1" d="M 184.184,936.599 174.283,956.399 z" id="boundary" inkscape:connector-curvature="0" />
	<path style="fill:none;stroke:red;stroke-width:1px;stroke-linecap:butt;stroke-linejoin:miter;stroke-opacity:1" d="M 174.283,956.399 158.443,974.22 z" id="boundary" inkscape:connector-curvature="0" />
	<path style="fill:none;stroke:red;stroke-width:1px;stroke-linecap:butt;stroke-linejoin:miter;stroke-opacity:1" d="M 158.443,974.22 142.603,986.1 z" id="boundary" inkscape:connector-curvature="0" />
	<path style="fill:none;stroke:red;stroke-width:1px;stroke-linecap:butt;stroke-linejoin:miter;stroke-opacity:1" d="M 142.603,986.1 124.782,996 z" id="boundary" inkscape:connector-curvature="0" />
	<path style="fill:none;stroke:red;stroke-width:1px;stroke-linecap:butt;stroke-linejoin:miter;stroke-opacity:1" d="M 124.782,996 104.982,996 z" id="boundary" inkscape:connector-curvature="0" />
	<path style="fill:none;stroke:red;stroke-width:1px;stroke-linecap:butt;stroke-linejoin:miter;stroke-opacity:1" d="M 104.982,996 93.1018,980.16 z" id="boundary" inkscape:connector-curvature="0" />
	<path style="fill:none;stroke:red;stroke-width:1px;stroke-linecap:butt;stroke-linejoin:miter;stroke-opacity:1" d="M 93.1018,980.16 93.1018,960.359 z" id="boundary" inkscape:connector-curvature="0" />
	<path style="fill:none;stroke:red;stroke-width:1px;stroke-linecap:butt;stroke-linejoin:miter;stroke-opacity:1" d="M 93.1018,960.359 93.1018,940.559 z" id="boundary" inkscape:connector-curvature="0" />
	<path style="fill:none;stroke:red;stroke-width:1px;stroke-linecap:butt;stroke-linejoin:miter;stroke-opacity:1" d="M 93.1018,940.559 103.002,910.858 z" id="boundary" inkscape:connector-curvature="0" />
	<path style="fill:none;stroke:red;stroke-width:1px;stroke-linecap:butt;stroke-linejoin:miter;stroke-opacity:1" d="M 103.002,910.858 112.902,891.058 z" id="boundary" inkscape:connector-curvature="0" />
	<path style="fill:none;stroke:red;stroke-width:1px;stroke-linecap:butt;stroke-linejoin:miter;stroke-opacity:1" d="M 112.902,891.058 128.743,875.218 z" id="boundary" inkscape:connector-curvature="0" />
	<path style="fill:none;stroke:red;stroke-width:1px;stroke-linecap:butt;stroke-linejoin:miter;stroke-opacity:1" d="M 128.743,875.218 138.643,855.417 z" id="boundary" inkscape:connector-curvature="0" />
	<path style="fill:none;stroke:red;stroke-width:1px;stroke-linecap:butt;stroke-linejoin:miter;stroke-opacity:1" d="M 138.643,855.417 152.503,831.657 z" id="boundary" inkscape:connector-curvature="0" />
	<path style="fill:none;stroke:red;stroke-width:1px;stroke-linecap:butt;stroke-linejoin:miter;stroke-opacity:1" d="M 152.503,831.657 162.403,811.856 z" id="boundary" inkscape:connector-curvature="0" />
	<path style="fill:none;stroke:red;stroke-width:1px;stroke-linecap:butt;stroke-linejoin:miter;stroke-opacity:1" d="M 162.403,811.856 172.303,792.056 z" id="boundary" inkscape:connector-curvature="0" />
	<path style="fill:none;stroke:red;stroke-width:1px;stroke-linecap:butt;stroke-linejoin:miter;stroke-opacity:1" d="M 172.303,792.056 188.144,776.216 z" id="boundary" inkscape:connector-curvature="0" />
	<path style="fill:none;stroke:red;stroke-width:1px;stroke-linecap:butt;stroke-linejoin:miter;stroke-opacity:1" d="M 188.144,776.216 198.044,756.415 z" id="boundary" inkscape:connector-curvature="0" />
	<path style="fill:none;stroke:red;stroke-width:1px;stroke-linecap:butt;stroke-linejoin:miter;stroke-opacity:1" d="M 198.044,756.415 211.904,732.655 z" id="boundary" inkscape:connector-curvature="0" />
	<path style="fill:none;stroke:red;stroke-width:1px;stroke-linecap:butt;stroke-linejoin:miter;stroke-opacity:1" d="M 211.904,732.655 227.745,716.814 z" id="boundary" inkscape:connector-curvature="0" />
	<path style="fill:none;stroke:red;stroke-width:1px;stroke-linecap:butt;stroke-linejoin:miter;stroke-opacity:1" d="M 227.745,716.814 237.645,697.014 z" id="boundary" inkscape:connector-curvature="0" />
	<path style="fill:none;stroke:red;stroke-width:1px;stroke-linecap:butt;stroke-linejoin:miter;stroke-opacity:1" d="M 237.645,697.014 247.545,677.214 z" id="boundary" inkscape:connector-curvature="0" />
	<path style="fill:none;stroke:red;stroke-width:1px;stroke-linecap:butt;stroke-linejoin:miter;stroke-opacity:1" d="M 247.545,677.214 257.445,657.413 z" id="boundary" inkscape:connector-curvature="0" />
	<path style="fill:none;stroke:red;stroke-width:1px;stroke-linecap:butt;stroke-linejoin:miter;stroke-opacity:1" d="M 257.445,657.413 271.305,633.653 z" id="boundary" inkscape:connector-curvature="0" />
	<path style="fill:none;stroke:red;stroke-width:1px;stroke-linecap:butt;stroke-linejoin:miter;stroke-opacity:1" d="M 271.305,633.653 281.206,603.952 z" id="boundary" inkscape:connector-curvature="0" />
	<path style="fill:none;stroke:red;stroke-width:1px;stroke-linecap:butt;stroke-linejoin:miter;stroke-opacity:1" d="M 281.206,603.952 291.106,584.152 z" id="boundary" inkscape:connector-curvature="0" />
	<path style="fill:none;stroke:red;stroke-width:1px;stroke-linecap:butt;stroke-linejoin:miter;stroke-opacity:1" d="M 301.006,552.471 291.106,584.152 z" id="boundary" inkscape:connector-curvature="0" />
	<circle cx="4" cy="445.549" r="4" fill="#0" id="circle0"/>
	<circle cx="13.9002" cy="425.749" r="4" fill="#0" id="circle1"/>
	<circle cx="19.8403" cy="459.409" r="4" fill="#0" id="circle2"/>
	<circle cx="23.8004" cy="405.948" r="4" fill="#0" id="circle3"/>
	<circle cx="35.6806" cy="471.289" r="4" fill="#0" id="circle4"/>
	<circle cx="39.6407" cy="390.108" r="4" fill="#0" id="circle5"/>
	<circle cx="49.5409" cy="370.307" r="4" fill="#0" id="circle6"/>
	<circle cx="51.521" cy="457.429" r="4" fill="#0" id="circle7"/>
	<circle cx="65.3812" cy="354.467" r="4" fill="#0" id="circle8"/>
	<circle cx="65.3812" cy="441.589" r="4" fill="#0" id="circle9"/>
	<circle cx="75.2814" cy="334.667" r="4" fill="#0" id="circle10"/>
	<circle cx="81.2216" cy="427.729" r="4" fill="#0" id="circle11"/>
	<circle cx="91.1218" cy="320.806" r="4" fill="#0" id="circle12"/>
	<circle cx="93.1018" cy="940.559" r="4" fill="#0" id="circle13"/>
	<circle cx="93.1018" cy="960.359" r="4" fill="#0" id="circle14"/>
	<circle cx="93.1018" cy="980.16" r="4" fill="#0" id="circle15"/>
	<circle cx="99.0419" cy="301.006" r="4" fill="#0" id="circle16"/>
	<circle cx="101.022" cy="417.828" r="4" fill="#0" id="circle17"/>
	<circle cx="103.002" cy="910.858" r="4" fill="#0" id="circle18"/>
	<circle cx="104.982" cy="996" r="4" fill="#0" id="circle19"/>
	<circle cx="112.902" cy="891.058" r="4" fill="#0" id="circle20"/>
	<circle cx="114.882" cy="285.166" r="4" fill="#0" id="circle21"/>
	<circle cx="114.882" cy="401.988" r="4" fill="#0" id="circle22"/>
	<circle cx="124.782" cy="265.365" r="4" fill="#0" id="circle23"/>
	<circle cx="124.782" cy="996" r="4" fill="#0" id="circle24"/>
	<circle cx="128.743" cy="875.218" r="4" fill="#0" id="circle25"/>
	<circle cx="130.723" cy="388.128" r="4" fill="#0" id="circle26"/>
	<circle cx="134.683" cy="245.565" r="4" fill="#0" id="circle27"/>
	<circle cx="138.643" cy="855.417" r="4" fill="#0" id="circle28"/>
	<circle cx="142.603" cy="986.1" r="4" fill="#0" id="circle29"/>
	<circle cx="144.583" cy="372.287" r="4" fill="#0" id="circle30"/>
	<circle cx="150.523" cy="231.705" r="4" fill="#0" id="circle31"/>
	<circle cx="152.503" cy="831.657" r="4" fill="#0" id="circle32"/>
	<circle cx="158.443" cy="974.22" r="4" fill="#0" id="circle33"/>
	<circle cx="160.423" cy="358.427" r="4" fill="#0" id="circle34"/>
	<circle cx="162.403" cy="811.856" r="4" fill="#0" id="circle35"/>
	<circle cx="168.343" cy="221.804" r="4" fill="#0" id="circle36"/>
	<circle cx="170.323" cy="338.627" r="4" fill="#0" id="circle37"/>
	<circle cx="172.303" cy="792.056" r="4" fill="#0" id="circle38"/>
	<circle cx="174.283" cy="956.399" r="4" fill="#0" id="circle39"/>
	<circle cx="184.184" cy="205.964" r="4" fill="#0" id="circle40"/>
	<circle cx="184.184" cy="936.599" r="4" fill="#0" id="circle41"/>
	<circle cx="188.144" cy="776.216" r="4" fill="#0" id="circle42"/>
	<circle cx="190.124" cy="328.727" r="4" fill="#0" id="circle43"/>
	<circle cx="198.044" cy="756.415" r="4" fill="#0" id="circle44"/>
	<circle cx="200.024" cy="192.104" r="4" fill="#0" id="circle45"/>
	<circle cx="200.024" cy="922.739" r="4" fill="#0" id="circle46"/>
	<circle cx="203.984" cy="312.886" r="4" fill="#0" id="circle47"/>
	<circle cx="211.904" cy="732.655" r="4" fill="#0" id="circle48"/>
	<circle cx="213.884" cy="906.898" r="4" fill="#0" id="circle49"/>
	<circle cx="219.824" cy="192.104" r="4" fill="#0" id="circle50"/>
	<circle cx="223.784" cy="312.886" r="4" fill="#0" id="circle51"/>
	<circle cx="223.784" cy="887.098" r="4" fill="#0" id="circle52"/>
	<circle cx="227.745" cy="716.814" r="4" fill="#0" id="circle53"/>
	<circle cx="237.645" cy="182.204" r="4" fill="#0" id="circle54"/>
	<circle cx="237.645" cy="697.014" r="4" fill="#0" id="circle55"/>
	<circle cx="239.625" cy="873.238" r="4" fill="#0" id="circle56"/>
	<circle cx="241.605" cy="322.786" r="4" fill="#0" id="circle57"/>
	<circle cx="247.545" cy="342.587" r="4" fill="#0" id="circle58"/>
	<circle cx="247.545" cy="677.214" r="4" fill="#0" id="circle59"/>
	<circle cx="251.505" cy="362.387" r="4" fill="#0" id="circle60"/>
	<circle cx="253.485" cy="847.497" r="4" fill="#0" id="circle61"/>
	<circle cx="257.445" cy="182.204" r="4" fill="#0" id="circle62"/>
	<circle cx="257.445" cy="657.413" r="4" fill="#0" id="circle63"/>
	<circle cx="261.405" cy="380.208" r="4" fill="#0" id="circle64"/>
	<circle cx="265.365" cy="400.008" r="4" fill="#0" id="circle65"/>
	<circle cx="269.325" cy="833.637" r="4" fill="#0" id="circle66"/>
	<circle cx="271.305" cy="419.808" r="4" fill="#0" id="circle67"/>
	<circle cx="271.305" cy="633.653" r="4" fill="#0" id="circle68"/>
	<circle cx="277.246" cy="182.204" r="4" fill="#0" id="circle69"/>
	<circle cx="281.206" cy="437.629" r="4" fill="#0" id="circle70"/>
	<circle cx="281.206" cy="457.429" r="4" fill="#0" id="circle71"/>
	<circle cx="281.206" cy="603.952" r="4" fill="#0" id="circle72"/>
	<circle cx="283.186" cy="807.896" r="4" fill="#0" id="circle73"/>
	<circle cx="291.106" cy="475.25" r="4" fill="#0" id="circle74"/>
	<circle cx="291.106" cy="495.05" r="4" fill="#0" id="circle75"/>
	<circle cx="291.106" cy="584.152" r="4" fill="#0" id="circle76"/>
	<circle cx="297.046" cy="172.303" r="4" fill="#0" id="circle77"/>
	<circle cx="299.026" cy="794.036" r="4" fill="#0" id="circle78"/>
	<circle cx="301.006" cy="89.1417" r="4" fill="#0" id="circle79"/>
	<circle cx="301.006" cy="108.942" r="4" fill="#0" id="circle80"/>
	<circle cx="301.006" cy="512.87" r="4" fill="#0" id="circle81"/>
	<circle cx="301.006" cy="532.671" r="4" fill="#0" id="circle82"/>
	<circle cx="301.006" cy="552.471" r="4" fill="#0" id="circle83"/>
	<circle cx="310.906" cy="59.4411" r="4" fill="#0" id="circle84"/>
	<circle cx="310.906" cy="126.762" r="4" fill="#0" id="circle85"/>
	<circle cx="310.906" cy="146.563" r="4" fill="#0" id="circle86"/>
	<circle cx="312.886" cy="778.196" r="4" fill="#0" id="circle87"/>
	<circle cx="322.786" cy="758.395" r="4" fill="#0" id="circle88"/>
	<circle cx="326.747" cy="43.6008" r="4" fill="#0" id="circle89"/>
	<circle cx="338.627" cy="744.535" r="4" fill="#0" id="circle90"/>
	<circle cx="342.587" cy="27.7605" r="4" fill="#0" id="circle91"/>
	<circle cx="348.527" cy="724.735" r="4" fill="#0" id="circle92"/>
	<circle cx="358.427" cy="13.9002" r="4" fill="#0" id="circle93"/>
	<circle cx="362.387" cy="708.894" r="4" fill="#0" id="circle94"/>
	<circle cx="376.248" cy="4" r="4" fill="#0" id="circle95"/>
	<circle cx="378.228" cy="695.034" r="4" fill="#0" id="circle96"/>
	<circle cx="396.048" cy="4" r="4" fill="#0" id="circle97"/>
	<circle cx="398.028" cy="689.094" r="4" fill="#0" id="circle98"/>
	<circle cx="411.888" cy="704.934" r="4" fill="#0" id="circle99"/>
	<circle cx="413.868" cy="13.9002" r="4" fill="#0" id="circle100"/>
	<circle cx="427.729" cy="718.794" r="4" fill="#0" id="circle101"/>
	<circle cx="431.689" cy="23.8004" r="4" fill="#0" id="circle102"/>
	<circle cx="435.649" cy="738.595" r="4" fill="#0" id="circle103"/>
	<circle cx="441.589" cy="41.6208" r="4" fill="#0" id="circle104"/>
	<circle cx="445.549" cy="756.415" r="4" fill="#0" id="circle105"/>
	<circle cx="453.469" cy="776.216" r="4" fill="#0" id="circle106"/>
	<circle cx="457.429" cy="55.481" r="4" fill="#0" id="circle107"/>
	<circle cx="461.389" cy="75.2814" r="4" fill="#0" id="circle108"/>
	<circle cx="461.389" cy="134.683" r="4" fill="#0" id="circle109"/>
	<circle cx="461.389" cy="154.483" r="4" fill="#0" id="circle110"/>
	<circle cx="469.309" cy="788.096" r="4" fill="#0" id="circle111"/>
	<circle cx="471.289" cy="93.1018" r="4" fill="#0" id="circle112"/>
	<circle cx="471.289" cy="112.902" r="4" fill="#0" id="circle113"/>
	<circle cx="471.289" cy="172.303" r="4" fill="#0" id="circle114"/>
	<circle cx="471.289" cy="192.104" r="4" fill="#0" id="circle115"/>
	<circle cx="475.25" cy="807.896" r="4" fill="#0" id="circle116"/>
	<circle cx="481.19" cy="510.89" r="4" fill="#0" id="circle117"/>
	<circle cx="481.19" cy="530.691" r="4" fill="#0" id="circle118"/>
	<circle cx="481.19" cy="550.491" r="4" fill="#0" id="circle119"/>
	<circle cx="485.15" cy="570.291" r="4" fill="#0" id="circle120"/>
	<circle cx="485.15" cy="825.717" r="4" fill="#0" id="circle121"/>
	<circle cx="491.09" cy="192.104" r="4" fill="#0" id="circle122"/>
	<circle cx="491.09" cy="471.289" r="4" fill="#0" id="circle123"/>
	<circle cx="491.09" cy="491.09" r="4" fill="#0" id="circle124"/>
	<circle cx="491.09" cy="590.092" r="4" fill="#0" id="circle125"/>
	<circle cx="493.07" cy="845.517" r="4" fill="#0" id="circle126"/>
	<circle cx="500.99" cy="421.788" r="4" fill="#0" id="circle127"/>
	<circle cx="500.99" cy="441.589" r="4" fill="#0" id="circle128"/>
	<circle cx="500.99" cy="607.912" r="4" fill="#0" id="circle129"/>
	<circle cx="500.99" cy="627.713" r="4" fill="#0" id="circle130"/>
	<circle cx="508.91" cy="857.397" r="4" fill="#0" id="circle131"/>
	<circle cx="510.89" cy="192.104" r="4" fill="#0" id="circle132"/>
	<circle cx="510.89" cy="372.287" r="4" fill="#0" id="circle133"/>
	<circle cx="510.89" cy="392.088" r="4" fill="#0" id="circle134"/>
	<circle cx="510.89" cy="645.533" r="4" fill="#0" id="circle135"/>
	<circle cx="514.85" cy="877.198" r="4" fill="#0" id="circle136"/>
	<circle cx="520.79" cy="302.986" r="4" fill="#0" id="circle137"/>
	<circle cx="520.79" cy="322.786" r="4" fill="#0" id="circle138"/>
	<circle cx="520.79" cy="342.587" r="4" fill="#0" id="circle139"/>
	<circle cx="520.79" cy="663.353" r="4" fill="#0" id="circle140"/>
	<circle cx="524.75" cy="895.018" r="4" fill="#0" id="circle141"/>
	<circle cx="528.711" cy="683.154" r="4" fill="#0" id="circle142"/>
	<circle cx="530.691" cy="192.104" r="4" fill="#0" id="circle143"/>
	<circle cx="530.691" cy="702.954" r="4" fill="#0" id="circle144"/>
	<circle cx="532.671" cy="914.818" r="4" fill="#0" id="circle145"/>
	<circle cx="540.591" cy="293.086" r="4" fill="#0" id="circle146"/>
	<circle cx="544.551" cy="718.794" r="4" fill="#0" id="circle147"/>
	<circle cx="548.511" cy="926.699" r="4" fill="#0" id="circle148"/>
	<circle cx="550.491" cy="186.164" r="4" fill="#0" id="circle149"/>
	<circle cx="550.491" cy="738.595" r="4" fill="#0" id="circle150"/>
	<circle cx="554.451" cy="946.499" r="4" fill="#0" id="circle151"/>
	<circle cx="560.391" cy="293.086" r="4" fill="#0" id="circle152"/>
	<circle cx="560.391" cy="756.415" r="4" fill="#0" id="circle153"/>
	<circle cx="570.291" cy="182.204" r="4" fill="#0" id="circle154"/>
	<circle cx="570.291" cy="774.236" r="4" fill="#0" id="circle155"/>
	<circle cx="570.291" cy="960.359" r="4" fill="#0" id="circle156"/>
	<circle cx="578.212" cy="283.186" r="4" fill="#0" id="circle157"/>
	<circle cx="580.192" cy="792.056" r="4" fill="#0" id="circle158"/>
	<circle cx="580.192" cy="811.856" r="4" fill="#0" id="circle159"/>
	<circle cx="584.152" cy="976.2" r="4" fill="#0" id="circle160"/>
	<circle cx="590.092" cy="182.204" r="4" fill="#0" id="circle161"/>
	<circle cx="590.092" cy="829.677" r="4" fill="#0" id="circle162"/>
	<circle cx="596.032" cy="273.285" r="4" fill="#0" id="circle163"/>
	<circle cx="599.992" cy="847.497" r="4" fill="#0" id="circle164"/>
	<circle cx="603.952" cy="984.12" r="4" fill="#0" id="circle165"/>
	<circle cx="609.892" cy="182.204" r="4" fill="#0" id="circle166"/>
	<circle cx="609.892" cy="865.317" r="4" fill="#0" id="circle167"/>
	<circle cx="609.892" cy="885.118" r="4" fill="#0" id="circle168"/>
	<circle cx="613.852" cy="263.385" r="4" fill="#0" id="circle169"/>
	<circle cx="619.792" cy="902.938" r="4" fill="#0" id="circle170"/>
	<circle cx="623.752" cy="984.12" r="4" fill="#0" id="circle171"/>
	<circle cx="629.693" cy="182.204" r="4" fill="#0" id="circle172"/>
	<circle cx="629.693" cy="920.758" r="4" fill="#0" id="circle173"/>
	<circle cx="629.693" cy="940.559" r="4" fill="#0" id="circle174"/>
	<circle cx="629.693" cy="960.359" r="4" fill="#0" id="circle175"/>
	<circle cx="631.673" cy="253.485" r="4" fill="#0" id="circle176"/>
	<circle cx="647.513" cy="172.303" r="4" fill="#0" id="circle177"/>
	<circle cx="651.473" cy="253.485" r="4" fill="#0" id="circle178"/>
	<circle cx="667.313" cy="172.303" r="4" fill="#0" id="circle179"/>
	<circle cx="669.293" cy="243.585" r="4" fill="#0" id="circle180"/>
	<circle cx="685.134" cy="162.403" r="4" fill="#0" id="circle181"/>
	<circle cx="689.094" cy="243.585" r="4" fill="#0" id="circle182"/>
	<circle cx="704.934" cy="162.403" r="4" fill="#0" id="circle183"/>
	<circle cx="706.914" cy="233.685" r="4" fill="#0" id="circle184"/>
	<circle cx="724.735" cy="162.403" r="4" fill="#0" id="circle185"/>
	<circle cx="726.715" cy="227.745" r="4" fill="#0" id="circle186"/>
	<circle cx="742.555" cy="152.503" r="4" fill="#0" id="circle187"/>
	<circle cx="746.515" cy="223.784" r="4" fill="#0" id="circle188"/>
	<circle cx="762.355" cy="152.503" r="4" fill="#0" id="circle189"/>
	<circle cx="764.335" cy="213.884" r="4" fill="#0" id="circle190"/>
	<circle cx="782.156" cy="142.603" r="4" fill="#0" id="circle191"/>
	<circle cx="784.136" cy="213.884" r="4" fill="#0" id="circle192"/>
	<circle cx="801.956" cy="142.603" r="4" fill="#0" id="circle193"/>
	<circle cx="801.956" cy="203.984" r="4" fill="#0" id="circle194"/>
	<circle cx="821.756" cy="142.603" r="4" fill="#0" id="circle195"/>
	<circle cx="821.756" cy="202.004" r="4" fill="#0" id="circle196"/>
	<circle cx="839.577" cy="132.703" r="4" fill="#0" id="circle197"/>
	<circle cx="841.557" cy="194.084" r="4" fill="#0" id="circle198"/>
	<circle cx="859.377" cy="132.703" r="4" fill="#0" id="circle199"/>
	<circle cx="859.377" cy="184.184" r="4" fill="#0" id="circle200"/>
	<circle cx="879.178" cy="124.782" r="4" fill="#0" id="circle201"/>
	<circle cx="879.178" cy="184.184" r="4" fill="#0" id="circle202"/>
	<circle cx="896.998" cy="174.283" r="4" fill="#0" id="circle203"/>
	<circle cx="898.978" cy="114.882" r="4" fill="#0" id="circle204"/>
	<circle cx="906.898" cy="134.683" r="4" fill="#0" id="circle205"/>
	<circle cx="906.898" cy="154.483" r="4" fill="#0" id="circle206"/>
	</g>
</svg>