<?xml version="1.0" encoding="UTF-8" standalone="no"?>
<!-- Created with CurveBenchmark -->
<svg
	xmlns:dc="http://purl.org/dc/elements/1.1/"
	xmlns:cc="http://creativecommons.org/ns#"
	xmlns:rdf="http://www.w3.org/1999/02/22-rdf-syntax-ns#"
	xmlns:svg="http://www.w3.org/2000/svg"
	xmlns="http://www.w3.org/2000/svg"
	xmlns:sodipodi="http://sodipodi.sourceforge.net/DTD/sodipodi-0.dtd"
	xmlns:inkscape="http://www.inkscape.org/namespaces/inkscape"
	width="1000"
	height="1000"
	id="svg2"
	version="1.1"
	sodipodi:docname="manifold/crawl-brick01.png.txt">
<defs
	id="defs4" />
<metadata
	id="metadata7">
	<rdf:RDF>
		<cc:Work
			rdf:about="">
			<dc:format>image/svg+xml</dc:format>
			<dc:type
				rdf:resource="http://purl.org/dc/dcmitype/StillImage" />
			<dc:title></dc:title>
		</cc:Work>
	</rdf:RDF>
</metadata>
<g
	inkscape:label="Layer 1"
	inkscape:groupmode="layer"
	id="layer1">
	<path style="fill:none;stroke:red;stroke-width:1px;stroke-linecap:butt;stroke-linejoin:miter;stroke-opacity:1" d="M 4,188.821 4,207.681 z" id="boundary" inkscape:connector-curvature="0" />
	<path style="fill:none;stroke:red;stroke-width:1px;stroke-linecap:butt;stroke-linejoin:miter;stroke-opacity:1" d="M 4,207.681 13.4297,224.654 z" id="boundary" inkscape:connector-curvature="0" />
	<path style="fill:none;stroke:red;stroke-width:1px;stroke-linecap:butt;stroke-linejoin:miter;stroke-opacity:1" d="M 13.4297,224.654 22.8593,241.627 z" id="boundary" inkscape:connector-curvature="0" />
	<path style="fill:none;stroke:red;stroke-width:1px;stroke-linecap:butt;stroke-linejoin:miter;stroke-opacity:1" d="M 22.8593,241.627 28.5171,260.487 z" id="boundary" inkscape:connector-curvature="0" />
	<path style="fill:none;stroke:red;stroke-width:1px;stroke-linecap:butt;stroke-linejoin:miter;stroke-opacity:1" d="M 28.5171,260.487 32.289,279.346 z" id="boundary" inkscape:connector-curvature="0" />
	<path style="fill:none;stroke:red;stroke-width:1px;stroke-linecap:butt;stroke-linejoin:miter;stroke-opacity:1" d="M 32.289,279.346 41.7186,296.319 z" id="boundary" inkscape:connector-curvature="0" />
	<path style="fill:none;stroke:red;stroke-width:1px;stroke-linecap:butt;stroke-linejoin:miter;stroke-opacity:1" d="M 41.7186,296.319 53.0342,311.407 z" id="boundary" inkscape:connector-curvature="0" />
	<path style="fill:none;stroke:red;stroke-width:1px;stroke-linecap:butt;stroke-linejoin:miter;stroke-opacity:1" d="M 53.0342,311.407 71.8935,317.065 z" id="boundary" inkscape:connector-curvature="0" />
	<path style="fill:none;stroke:red;stroke-width:1px;stroke-linecap:butt;stroke-linejoin:miter;stroke-opacity:1" d="M 71.8935,317.065 88.8669,307.635 z" id="boundary" inkscape:connector-curvature="0" />
	<path style="fill:none;stroke:red;stroke-width:1px;stroke-linecap:butt;stroke-linejoin:miter;stroke-opacity:1" d="M 88.8669,307.635 107.726,307.635 z" id="boundary" inkscape:connector-curvature="0" />
	<path style="fill:none;stroke:red;stroke-width:1px;stroke-linecap:butt;stroke-linejoin:miter;stroke-opacity:1" d="M 107.726,307.635 126.586,307.635 z" id="boundary" inkscape:connector-curvature="0" />
	<path style="fill:none;stroke:red;stroke-width:1px;stroke-linecap:butt;stroke-linejoin:miter;stroke-opacity:1" d="M 126.586,307.635 145.445,307.635 z" id="boundary" inkscape:connector-curvature="0" />
	<path style="fill:none;stroke:red;stroke-width:1px;stroke-linecap:butt;stroke-linejoin:miter;stroke-opacity:1" d="M 145.445,307.635 162.418,298.205 z" id="boundary" inkscape:connector-curvature="0" />
	<path style="fill:none;stroke:red;stroke-width:1px;stroke-linecap:butt;stroke-linejoin:miter;stroke-opacity:1" d="M 162.418,298.205 181.278,298.205 z" id="boundary" inkscape:connector-curvature="0" />
	<path style="fill:none;stroke:red;stroke-width:1px;stroke-linecap:butt;stroke-linejoin:miter;stroke-opacity:1" d="M 181.278,298.205 200.137,298.205 z" id="boundary" inkscape:connector-curvature="0" />
	<path style="fill:none;stroke:red;stroke-width:1px;stroke-linecap:butt;stroke-linejoin:miter;stroke-opacity:1" d="M 200.137,298.205 218.996,298.205 z" id="boundary" inkscape:connector-curvature="0" />
	<path style="fill:none;stroke:red;stroke-width:1px;stroke-linecap:butt;stroke-linejoin:miter;stroke-opacity:1" d="M 218.996,298.205 235.97,307.635 z" id="boundary" inkscape:connector-curvature="0" />
	<path style="fill:none;stroke:red;stroke-width:1px;stroke-linecap:butt;stroke-linejoin:miter;stroke-opacity:1" d="M 235.97,307.635 252.943,317.065 z" id="boundary" inkscape:connector-curvature="0" />
	<path style="fill:none;stroke:red;stroke-width:1px;stroke-linecap:butt;stroke-linejoin:miter;stroke-opacity:1" d="M 252.943,317.065 269.916,326.494 z" id="boundary" inkscape:connector-curvature="0" />
	<path style="fill:none;stroke:red;stroke-width:1px;stroke-linecap:butt;stroke-linejoin:miter;stroke-opacity:1" d="M 269.916,326.494 286.89,335.924 z" id="boundary" inkscape:connector-curvature="0" />
	<path style="fill:none;stroke:red;stroke-width:1px;stroke-linecap:butt;stroke-linejoin:miter;stroke-opacity:1" d="M 286.89,335.924 303.863,345.354 z" id="boundary" inkscape:connector-curvature="0" />
	<path style="fill:none;stroke:red;stroke-width:1px;stroke-linecap:butt;stroke-linejoin:miter;stroke-opacity:1" d="M 303.863,345.354 320.837,354.783 z" id="boundary" inkscape:connector-curvature="0" />
	<path style="fill:none;stroke:red;stroke-width:1px;stroke-linecap:butt;stroke-linejoin:miter;stroke-opacity:1" d="M 320.837,354.783 339.696,362.327 z" id="boundary" inkscape:connector-curvature="0" />
	<path style="fill:none;stroke:red;stroke-width:1px;stroke-linecap:butt;stroke-linejoin:miter;stroke-opacity:1" d="M 339.696,362.327 352.897,377.414 z" id="boundary" inkscape:connector-curvature="0" />
	<path style="fill:none;stroke:red;stroke-width:1px;stroke-linecap:butt;stroke-linejoin:miter;stroke-opacity:1" d="M 352.897,377.414 371.757,383.072 z" id="boundary" inkscape:connector-curvature="0" />
	<path style="fill:none;stroke:red;stroke-width:1px;stroke-linecap:butt;stroke-linejoin:miter;stroke-opacity:1" d="M 371.757,383.072 390.616,383.072 z" id="boundary" inkscape:connector-curvature="0" />
	<path style="fill:none;stroke:red;stroke-width:1px;stroke-linecap:butt;stroke-linejoin:miter;stroke-opacity:1" d="M 390.616,383.072 409.475,383.072 z" id="boundary" inkscape:connector-curvature="0" />
	<path style="fill:none;stroke:red;stroke-width:1px;stroke-linecap:butt;stroke-linejoin:miter;stroke-opacity:1" d="M 409.475,383.072 428.335,383.072 z" id="boundary" inkscape:connector-curvature="0" />
	<path style="fill:none;stroke:red;stroke-width:1px;stroke-linecap:butt;stroke-linejoin:miter;stroke-opacity:1" d="M 428.335,383.072 447.194,383.072 z" id="boundary" inkscape:connector-curvature="0" />
	<path style="fill:none;stroke:red;stroke-width:1px;stroke-linecap:butt;stroke-linejoin:miter;stroke-opacity:1" d="M 447.194,383.072 466.053,383.072 z" id="boundary" inkscape:connector-curvature="0" />
	<path style="fill:none;stroke:red;stroke-width:1px;stroke-linecap:butt;stroke-linejoin:miter;stroke-opacity:1" d="M 466.053,383.072 483.027,373.643 z" id="boundary" inkscape:connector-curvature="0" />
	<path style="fill:none;stroke:red;stroke-width:1px;stroke-linecap:butt;stroke-linejoin:miter;stroke-opacity:1" d="M 483.027,373.643 501.886,373.643 z" id="boundary" inkscape:connector-curvature="0" />
	<path style="fill:none;stroke:red;stroke-width:1px;stroke-linecap:butt;stroke-linejoin:miter;stroke-opacity:1" d="M 501.886,373.643 520.745,369.871 z" id="boundary" inkscape:connector-curvature="0" />
	<path style="fill:none;stroke:red;stroke-width:1px;stroke-linecap:butt;stroke-linejoin:miter;stroke-opacity:1" d="M 520.745,369.871 539.605,364.213 z" id="boundary" inkscape:connector-curvature="0" />
	<path style="fill:none;stroke:red;stroke-width:1px;stroke-linecap:butt;stroke-linejoin:miter;stroke-opacity:1" d="M 539.605,364.213 558.464,364.213 z" id="boundary" inkscape:connector-curvature="0" />
	<path style="fill:none;stroke:red;stroke-width:1px;stroke-linecap:butt;stroke-linejoin:miter;stroke-opacity:1" d="M 558.464,364.213 577.323,364.213 z" id="boundary" inkscape:connector-curvature="0" />
	<path style="fill:none;stroke:red;stroke-width:1px;stroke-linecap:butt;stroke-linejoin:miter;stroke-opacity:1" d="M 577.323,364.213 596.183,364.213 z" id="boundary" inkscape:connector-curvature="0" />
	<path style="fill:none;stroke:red;stroke-width:1px;stroke-linecap:butt;stroke-linejoin:miter;stroke-opacity:1" d="M 596.183,364.213 615.042,364.213 z" id="boundary" inkscape:connector-curvature="0" />
	<path style="fill:none;stroke:red;stroke-width:1px;stroke-linecap:butt;stroke-linejoin:miter;stroke-opacity:1" d="M 615.042,364.213 632.015,354.783 z" id="boundary" inkscape:connector-curvature="0" />
	<path style="fill:none;stroke:red;stroke-width:1px;stroke-linecap:butt;stroke-linejoin:miter;stroke-opacity:1" d="M 632.015,354.783 648.989,345.354 z" id="boundary" inkscape:connector-curvature="0" />
	<path style="fill:none;stroke:red;stroke-width:1px;stroke-linecap:butt;stroke-linejoin:miter;stroke-opacity:1" d="M 648.989,345.354 667.848,345.354 z" id="boundary" inkscape:connector-curvature="0" />
	<path style="fill:none;stroke:red;stroke-width:1px;stroke-linecap:butt;stroke-linejoin:miter;stroke-opacity:1" d="M 667.848,345.354 686.707,351.011 z" id="boundary" inkscape:connector-curvature="0" />
	<path style="fill:none;stroke:red;stroke-width:1px;stroke-linecap:butt;stroke-linejoin:miter;stroke-opacity:1" d="M 686.707,351.011 701.795,364.213 z" id="boundary" inkscape:connector-curvature="0" />
	<path style="fill:none;stroke:red;stroke-width:1px;stroke-linecap:butt;stroke-linejoin:miter;stroke-opacity:1" d="M 701.795,364.213 713.11,379.3 z" id="boundary" inkscape:connector-curvature="0" />
	<path style="fill:none;stroke:red;stroke-width:1px;stroke-linecap:butt;stroke-linejoin:miter;stroke-opacity:1" d="M 713.11,379.3 728.198,392.502 z" id="boundary" inkscape:connector-curvature="0" />
	<path style="fill:none;stroke:red;stroke-width:1px;stroke-linecap:butt;stroke-linejoin:miter;stroke-opacity:1" d="M 728.198,392.502 745.171,401.932 z" id="boundary" inkscape:connector-curvature="0" />
	<path style="fill:none;stroke:red;stroke-width:1px;stroke-linecap:butt;stroke-linejoin:miter;stroke-opacity:1" d="M 745.171,401.932 762.144,411.361 z" id="boundary" inkscape:connector-curvature="0" />
	<path style="fill:none;stroke:red;stroke-width:1px;stroke-linecap:butt;stroke-linejoin:miter;stroke-opacity:1" d="M 762.144,411.361 781.004,417.019 z" id="boundary" inkscape:connector-curvature="0" />
	<path style="fill:none;stroke:red;stroke-width:1px;stroke-linecap:butt;stroke-linejoin:miter;stroke-opacity:1" d="M 781.004,417.019 799.863,420.791 z" id="boundary" inkscape:connector-curvature="0" />
	<path style="fill:none;stroke:red;stroke-width:1px;stroke-linecap:butt;stroke-linejoin:miter;stroke-opacity:1" d="M 799.863,420.791 818.722,420.791 z" id="boundary" inkscape:connector-curvature="0" />
	<path style="fill:none;stroke:red;stroke-width:1px;stroke-linecap:butt;stroke-linejoin:miter;stroke-opacity:1" d="M 818.722,420.791 835.696,411.361 z" id="boundary" inkscape:connector-curvature="0" />
	<path style="fill:none;stroke:red;stroke-width:1px;stroke-linecap:butt;stroke-linejoin:miter;stroke-opacity:1" d="M 835.696,411.361 854.555,411.361 z" id="boundary" inkscape:connector-curvature="0" />
	<path style="fill:none;stroke:red;stroke-width:1px;stroke-linecap:butt;stroke-linejoin:miter;stroke-opacity:1" d="M 854.555,411.361 873.414,411.361 z" id="boundary" inkscape:connector-curvature="0" />
	<path style="fill:none;stroke:red;stroke-width:1px;stroke-linecap:butt;stroke-linejoin:miter;stroke-opacity:1" d="M 873.414,411.361 892.274,411.361 z" id="boundary" inkscape:connector-curvature="0" />
	<path style="fill:none;stroke:red;stroke-width:1px;stroke-linecap:butt;stroke-linejoin:miter;stroke-opacity:1" d="M 892.274,411.361 911.133,411.361 z" id="boundary" inkscape:connector-curvature="0" />
	<path style="fill:none;stroke:red;stroke-width:1px;stroke-linecap:butt;stroke-linejoin:miter;stroke-opacity:1" d="M 911.133,411.361 929.992,411.361 z" id="boundary" inkscape:connector-curvature="0" />
	<path style="fill:none;stroke:red;stroke-width:1px;stroke-linecap:butt;stroke-linejoin:miter;stroke-opacity:1" d="M 929.992,411.361 946.966,401.932 z" id="boundary" inkscape:connector-curvature="0" />
	<path style="fill:none;stroke:red;stroke-width:1px;stroke-linecap:butt;stroke-linejoin:miter;stroke-opacity:1" d="M 946.966,401.932 965.825,396.274 z" id="boundary" inkscape:connector-curvature="0" />
	<path style="fill:none;stroke:red;stroke-width:1px;stroke-linecap:butt;stroke-linejoin:miter;stroke-opacity:1" d="M 965.825,396.274 965.825,375.529 z" id="boundary" inkscape:connector-curvature="0" />
	<path style="fill:none;stroke:red;stroke-width:1px;stroke-linecap:butt;stroke-linejoin:miter;stroke-opacity:1" d="M 965.825,375.529 956.395,358.555 z" id="boundary" inkscape:connector-curvature="0" />
	<path style="fill:none;stroke:red;stroke-width:1px;stroke-linecap:butt;stroke-linejoin:miter;stroke-opacity:1" d="M 956.395,358.555 948.852,339.696 z" id="boundary" inkscape:connector-curvature="0" />
	<path style="fill:none;stroke:red;stroke-width:1px;stroke-linecap:butt;stroke-linejoin:miter;stroke-opacity:1" d="M 948.852,339.696 948.852,320.837 z" id="boundary" inkscape:connector-curvature="0" />
	<path style="fill:none;stroke:red;stroke-width:1px;stroke-linecap:butt;stroke-linejoin:miter;stroke-opacity:1" d="M 948.852,320.837 939.422,303.863 z" id="boundary" inkscape:connector-curvature="0" />
	<path style="fill:none;stroke:red;stroke-width:1px;stroke-linecap:butt;stroke-linejoin:miter;stroke-opacity:1" d="M 939.422,303.863 929.992,286.89 z" id="boundary" inkscape:connector-curvature="0" />
	<path style="fill:none;stroke:red;stroke-width:1px;stroke-linecap:butt;stroke-linejoin:miter;stroke-opacity:1" d="M 929.992,286.89 920.563,269.916 z" id="boundary" inkscape:connector-curvature="0" />
	<path style="fill:none;stroke:red;stroke-width:1px;stroke-linecap:butt;stroke-linejoin:miter;stroke-opacity:1" d="M 920.563,269.916 939.422,260.487 z" id="boundary" inkscape:connector-curvature="0" />
	<path style="fill:none;stroke:red;stroke-width:1px;stroke-linecap:butt;stroke-linejoin:miter;stroke-opacity:1" d="M 939.422,260.487 948.852,241.627 z" id="boundary" inkscape:connector-curvature="0" />
	<path style="fill:none;stroke:red;stroke-width:1px;stroke-linecap:butt;stroke-linejoin:miter;stroke-opacity:1" d="M 948.852,241.627 963.939,228.426 z" id="boundary" inkscape:connector-curvature="0" />
	<path style="fill:none;stroke:red;stroke-width:1px;stroke-linecap:butt;stroke-linejoin:miter;stroke-opacity:1" d="M 963.939,228.426 977.141,213.338 z" id="boundary" inkscape:connector-curvature="0" />
	<path style="fill:none;stroke:red;stroke-width:1px;stroke-linecap:butt;stroke-linejoin:miter;stroke-opacity:1" d="M 977.141,213.338 992.228,200.137 z" id="boundary" inkscape:connector-curvature="0" />
	<path style="fill:none;stroke:red;stroke-width:1px;stroke-linecap:butt;stroke-linejoin:miter;stroke-opacity:1" d="M 4,188.821 22.8593,179.392 z" id="boundary" inkscape:connector-curvature="0" />
	<path style="fill:none;stroke:red;stroke-width:1px;stroke-linecap:butt;stroke-linejoin:miter;stroke-opacity:1" d="M 22.8593,179.392 41.7186,169.962 z" id="boundary" inkscape:connector-curvature="0" />
	<path style="fill:none;stroke:red;stroke-width:1px;stroke-linecap:butt;stroke-linejoin:miter;stroke-opacity:1" d="M 41.7186,169.962 56.8061,154.875 z" id="boundary" inkscape:connector-curvature="0" />
	<path style="fill:none;stroke:red;stroke-width:1px;stroke-linecap:butt;stroke-linejoin:miter;stroke-opacity:1" d="M 56.8061,154.875 73.7795,145.445 z" id="boundary" inkscape:connector-curvature="0" />
	<path style="fill:none;stroke:red;stroke-width:1px;stroke-linecap:butt;stroke-linejoin:miter;stroke-opacity:1" d="M 992.228,200.137 996,173.734 z" id="boundary" inkscape:connector-curvature="0" />
	<path style="fill:none;stroke:red;stroke-width:1px;stroke-linecap:butt;stroke-linejoin:miter;stroke-opacity:1" d="M 996,173.734 996,154.875 z" id="boundary" inkscape:connector-curvature="0" />
	<path style="fill:none;stroke:red;stroke-width:1px;stroke-linecap:butt;stroke-linejoin:miter;stroke-opacity:1" d="M 996,154.875 996,136.015 z" id="boundary" inkscape:connector-curvature="0" />
	<path style="fill:none;stroke:red;stroke-width:1px;stroke-linecap:butt;stroke-linejoin:miter;stroke-opacity:1" d="M 996,136.015 986.57,119.042 z" id="boundary" inkscape:connector-curvature="0" />
	<path style="fill:none;stroke:red;stroke-width:1px;stroke-linecap:butt;stroke-linejoin:miter;stroke-opacity:1" d="M 986.57,119.042 975.255,103.954 z" id="boundary" inkscape:connector-curvature="0" />
	<path style="fill:none;stroke:red;stroke-width:1px;stroke-linecap:butt;stroke-linejoin:miter;stroke-opacity:1" d="M 975.255,103.954 962.053,88.8669 z" id="boundary" inkscape:connector-curvature="0" />
	<path style="fill:none;stroke:red;stroke-width:1px;stroke-linecap:butt;stroke-linejoin:miter;stroke-opacity:1" d="M 962.053,88.8669 945.08,98.2966 z" id="boundary" inkscape:connector-curvature="0" />
	<path style="fill:none;stroke:red;stroke-width:1px;stroke-linecap:butt;stroke-linejoin:miter;stroke-opacity:1" d="M 945.08,98.2966 926.221,98.2966 z" id="boundary" inkscape:connector-curvature="0" />
	<path style="fill:none;stroke:red;stroke-width:1px;stroke-linecap:butt;stroke-linejoin:miter;stroke-opacity:1" d="M 926.221,98.2966 907.361,98.2966 z" id="boundary" inkscape:connector-curvature="0" />
	<path style="fill:none;stroke:red;stroke-width:1px;stroke-linecap:butt;stroke-linejoin:miter;stroke-opacity:1" d="M 907.361,98.2966 890.388,107.726 z" id="boundary" inkscape:connector-curvature="0" />
	<path style="fill:none;stroke:red;stroke-width:1px;stroke-linecap:butt;stroke-linejoin:miter;stroke-opacity:1" d="M 890.388,107.726 871.529,107.726 z" id="boundary" inkscape:connector-curvature="0" />
	<path style="fill:none;stroke:red;stroke-width:1px;stroke-linecap:butt;stroke-linejoin:miter;stroke-opacity:1" d="M 871.529,107.726 852.669,107.726 z" id="boundary" inkscape:connector-curvature="0" />
	<path style="fill:none;stroke:red;stroke-width:1px;stroke-linecap:butt;stroke-linejoin:miter;stroke-opacity:1" d="M 852.669,107.726 833.81,113.384 z" id="boundary" inkscape:connector-curvature="0" />
	<path style="fill:none;stroke:red;stroke-width:1px;stroke-linecap:butt;stroke-linejoin:miter;stroke-opacity:1" d="M 833.81,113.384 814.951,117.156 z" id="boundary" inkscape:connector-curvature="0" />
	<path style="fill:none;stroke:red;stroke-width:1px;stroke-linecap:butt;stroke-linejoin:miter;stroke-opacity:1" d="M 814.951,117.156 796.091,117.156 z" id="boundary" inkscape:connector-curvature="0" />
	<path style="fill:none;stroke:red;stroke-width:1px;stroke-linecap:butt;stroke-linejoin:miter;stroke-opacity:1" d="M 796.091,117.156 777.232,113.384 z" id="boundary" inkscape:connector-curvature="0" />
	<path style="fill:none;stroke:red;stroke-width:1px;stroke-linecap:butt;stroke-linejoin:miter;stroke-opacity:1" d="M 777.232,113.384 764.03,98.2966 z" id="boundary" inkscape:connector-curvature="0" />
	<path style="fill:none;stroke:red;stroke-width:1px;stroke-linecap:butt;stroke-linejoin:miter;stroke-opacity:1" d="M 764.03,98.2966 748.943,85.0951 z" id="boundary" inkscape:connector-curvature="0" />
	<path style="fill:none;stroke:red;stroke-width:1px;stroke-linecap:butt;stroke-linejoin:miter;stroke-opacity:1" d="M 748.943,85.0951 735.741,70.0076 z" id="boundary" inkscape:connector-curvature="0" />
	<path style="fill:none;stroke:red;stroke-width:1px;stroke-linecap:butt;stroke-linejoin:miter;stroke-opacity:1" d="M 735.741,70.0076 718.768,60.5779 z" id="boundary" inkscape:connector-curvature="0" />
	<path style="fill:none;stroke:red;stroke-width:1px;stroke-linecap:butt;stroke-linejoin:miter;stroke-opacity:1" d="M 718.768,60.5779 703.681,49.2624 z" id="boundary" inkscape:connector-curvature="0" />
	<path style="fill:none;stroke:red;stroke-width:1px;stroke-linecap:butt;stroke-linejoin:miter;stroke-opacity:1" d="M 703.681,49.2624 690.479,34.1749 z" id="boundary" inkscape:connector-curvature="0" />
	<path style="fill:none;stroke:red;stroke-width:1px;stroke-linecap:butt;stroke-linejoin:miter;stroke-opacity:1" d="M 690.479,34.1749 671.62,32.289 z" id="boundary" inkscape:connector-curvature="0" />
	<path style="fill:none;stroke:red;stroke-width:1px;stroke-linecap:butt;stroke-linejoin:miter;stroke-opacity:1" d="M 671.62,32.289 652.76,32.289 z" id="boundary" inkscape:connector-curvature="0" />
	<path style="fill:none;stroke:red;stroke-width:1px;stroke-linecap:butt;stroke-linejoin:miter;stroke-opacity:1" d="M 652.76,32.289 633.901,32.289 z" id="boundary" inkscape:connector-curvature="0" />
	<path style="fill:none;stroke:red;stroke-width:1px;stroke-linecap:butt;stroke-linejoin:miter;stroke-opacity:1" d="M 633.901,32.289 615.042,32.289 z" id="boundary" inkscape:connector-curvature="0" />
	<path style="fill:none;stroke:red;stroke-width:1px;stroke-linecap:butt;stroke-linejoin:miter;stroke-opacity:1" d="M 615.042,32.289 598.068,41.7186 z" id="boundary" inkscape:connector-curvature="0" />
	<path style="fill:none;stroke:red;stroke-width:1px;stroke-linecap:butt;stroke-linejoin:miter;stroke-opacity:1" d="M 598.068,41.7186 579.209,41.7186 z" id="boundary" inkscape:connector-curvature="0" />
	<path style="fill:none;stroke:red;stroke-width:1px;stroke-linecap:butt;stroke-linejoin:miter;stroke-opacity:1" d="M 579.209,41.7186 560.35,41.7186 z" id="boundary" inkscape:connector-curvature="0" />
	<path style="fill:none;stroke:red;stroke-width:1px;stroke-linecap:butt;stroke-linejoin:miter;stroke-opacity:1" d="M 560.35,41.7186 541.49,41.7186 z" id="boundary" inkscape:connector-curvature="0" />
	<path style="fill:none;stroke:red;stroke-width:1px;stroke-linecap:butt;stroke-linejoin:miter;stroke-opacity:1" d="M 541.49,41.7186 522.631,41.7186 z" id="boundary" inkscape:connector-curvature="0" />
	<path style="fill:none;stroke:red;stroke-width:1px;stroke-linecap:butt;stroke-linejoin:miter;stroke-opacity:1" d="M 522.631,41.7186 503.772,41.7186 z" id="boundary" inkscape:connector-curvature="0" />
	<path style="fill:none;stroke:red;stroke-width:1px;stroke-linecap:butt;stroke-linejoin:miter;stroke-opacity:1" d="M 503.772,41.7186 484.913,41.7186 z" id="boundary" inkscape:connector-curvature="0" />
	<path style="fill:none;stroke:red;stroke-width:1px;stroke-linecap:butt;stroke-linejoin:miter;stroke-opacity:1" d="M 484.913,41.7186 466.053,47.3764 z" id="boundary" inkscape:connector-curvature="0" />
	<path style="fill:none;stroke:red;stroke-width:1px;stroke-linecap:butt;stroke-linejoin:miter;stroke-opacity:1" d="M 466.053,47.3764 447.194,56.8061 z" id="boundary" inkscape:connector-curvature="0" />
	<path style="fill:none;stroke:red;stroke-width:1px;stroke-linecap:butt;stroke-linejoin:miter;stroke-opacity:1" d="M 447.194,56.8061 428.335,60.5779 z" id="boundary" inkscape:connector-curvature="0" />
	<path style="fill:none;stroke:red;stroke-width:1px;stroke-linecap:butt;stroke-linejoin:miter;stroke-opacity:1" d="M 428.335,60.5779 409.475,60.5779 z" id="boundary" inkscape:connector-curvature="0" />
	<path style="fill:none;stroke:red;stroke-width:1px;stroke-linecap:butt;stroke-linejoin:miter;stroke-opacity:1" d="M 409.475,60.5779 390.616,66.2357 z" id="boundary" inkscape:connector-curvature="0" />
	<path style="fill:none;stroke:red;stroke-width:1px;stroke-linecap:butt;stroke-linejoin:miter;stroke-opacity:1" d="M 390.616,66.2357 371.757,70.0076 z" id="boundary" inkscape:connector-curvature="0" />
	<path style="fill:none;stroke:red;stroke-width:1px;stroke-linecap:butt;stroke-linejoin:miter;stroke-opacity:1" d="M 371.757,70.0076 352.897,70.0076 z" id="boundary" inkscape:connector-curvature="0" />
	<path style="fill:none;stroke:red;stroke-width:1px;stroke-linecap:butt;stroke-linejoin:miter;stroke-opacity:1" d="M 352.897,70.0076 334.038,70.0076 z" id="boundary" inkscape:connector-curvature="0" />
	<path style="fill:none;stroke:red;stroke-width:1px;stroke-linecap:butt;stroke-linejoin:miter;stroke-opacity:1" d="M 334.038,70.0076 315.179,70.0076 z" id="boundary" inkscape:connector-curvature="0" />
	<path style="fill:none;stroke:red;stroke-width:1px;stroke-linecap:butt;stroke-linejoin:miter;stroke-opacity:1" d="M 315.179,70.0076 296.319,66.2357 z" id="boundary" inkscape:connector-curvature="0" />
	<path style="fill:none;stroke:red;stroke-width:1px;stroke-linecap:butt;stroke-linejoin:miter;stroke-opacity:1" d="M 296.319,66.2357 288.776,47.3764 z" id="boundary" inkscape:connector-curvature="0" />
	<path style="fill:none;stroke:red;stroke-width:1px;stroke-linecap:butt;stroke-linejoin:miter;stroke-opacity:1" d="M 288.776,47.3764 279.346,30.403 z" id="boundary" inkscape:connector-curvature="0" />
	<path style="fill:none;stroke:red;stroke-width:1px;stroke-linecap:butt;stroke-linejoin:miter;stroke-opacity:1" d="M 279.346,30.403 269.916,13.4297 z" id="boundary" inkscape:connector-curvature="0" />
	<path style="fill:none;stroke:red;stroke-width:1px;stroke-linecap:butt;stroke-linejoin:miter;stroke-opacity:1" d="M 269.916,13.4297 252.943,4 z" id="boundary" inkscape:connector-curvature="0" />
	<path style="fill:none;stroke:red;stroke-width:1px;stroke-linecap:butt;stroke-linejoin:miter;stroke-opacity:1" d="M 252.943,4 234.084,4 z" id="boundary" inkscape:connector-curvature="0" />
	<path style="fill:none;stroke:red;stroke-width:1px;stroke-linecap:butt;stroke-linejoin:miter;stroke-opacity:1" d="M 234.084,4 215.224,4 z" id="boundary" inkscape:connector-curvature="0" />
	<path style="fill:none;stroke:red;stroke-width:1px;stroke-linecap:butt;stroke-linejoin:miter;stroke-opacity:1" d="M 215.224,4 196.365,4 z" id="boundary" inkscape:connector-curvature="0" />
	<path style="fill:none;stroke:red;stroke-width:1px;stroke-linecap:butt;stroke-linejoin:miter;stroke-opacity:1" d="M 196.365,4 177.506,4 z" id="boundary" inkscape:connector-curvature="0" />
	<path style="fill:none;stroke:red;stroke-width:1px;stroke-linecap:butt;stroke-linejoin:miter;stroke-opacity:1" d="M 177.506,4 158.646,4 z" id="boundary" inkscape:connector-curvature="0" />
	<path style="fill:none;stroke:red;stroke-width:1px;stroke-linecap:butt;stroke-linejoin:miter;stroke-opacity:1" d="M 158.646,4 141.673,13.4297 z" id="boundary" inkscape:connector-curvature="0" />
	<path style="fill:none;stroke:red;stroke-width:1px;stroke-linecap:butt;stroke-linejoin:miter;stroke-opacity:1" d="M 141.673,13.4297 122.814,13.4297 z" id="boundary" inkscape:connector-curvature="0" />
	<path style="fill:none;stroke:red;stroke-width:1px;stroke-linecap:butt;stroke-linejoin:miter;stroke-opacity:1" d="M 122.814,13.4297 103.954,22.8593 z" id="boundary" inkscape:connector-curvature="0" />
	<path style="fill:none;stroke:red;stroke-width:1px;stroke-linecap:butt;stroke-linejoin:miter;stroke-opacity:1" d="M 103.954,22.8593 88.8669,37.9468 z" id="boundary" inkscape:connector-curvature="0" />
	<path style="fill:none;stroke:red;stroke-width:1px;stroke-linecap:butt;stroke-linejoin:miter;stroke-opacity:1" d="M 88.8669,37.9468 88.8669,56.8061 z" id="boundary" inkscape:connector-curvature="0" />
	<path style="fill:none;stroke:red;stroke-width:1px;stroke-linecap:butt;stroke-linejoin:miter;stroke-opacity:1" d="M 88.8669,56.8061 98.2966,73.7795 z" id="boundary" inkscape:connector-curvature="0" />
	<path style="fill:none;stroke:red;stroke-width:1px;stroke-linecap:butt;stroke-linejoin:miter;stroke-opacity:1" d="M 73.7795,145.445 88.8669,122.814 z" id="boundary" inkscape:connector-curvature="0" />
	<path style="fill:none;stroke:red;stroke-width:1px;stroke-linecap:butt;stroke-linejoin:miter;stroke-opacity:1" d="M 88.8669,122.814 103.954,107.726 z" id="boundary" inkscape:connector-curvature="0" />
	<path style="fill:none;stroke:red;stroke-width:1px;stroke-linecap:butt;stroke-linejoin:miter;stroke-opacity:1" d="M 103.954,107.726 98.2966,73.7795 z" id="boundary" inkscape:connector-curvature="0" />
	<circle cx="4" cy="188.821" r="4" fill="#0" id="circle0"/>
	<circle cx="4" cy="207.681" r="4" fill="#0" id="circle1"/>
	<circle cx="13.4297" cy="224.654" r="4" fill="#0" id="circle2"/>
	<circle cx="22.8593" cy="179.392" r="4" fill="#0" id="circle3"/>
	<circle cx="22.8593" cy="241.627" r="4" fill="#0" id="circle4"/>
	<circle cx="28.5171" cy="260.487" r="4" fill="#0" id="circle5"/>
	<circle cx="32.289" cy="279.346" r="4" fill="#0" id="circle6"/>
	<circle cx="41.7186" cy="169.962" r="4" fill="#0" id="circle7"/>
	<circle cx="41.7186" cy="296.319" r="4" fill="#0" id="circle8"/>
	<circle cx="53.0342" cy="311.407" r="4" fill="#0" id="circle9"/>
	<circle cx="56.8061" cy="154.875" r="4" fill="#0" id="circle10"/>
	<circle cx="71.8935" cy="317.065" r="4" fill="#0" id="circle11"/>
	<circle cx="73.7795" cy="145.445" r="4" fill="#0" id="circle12"/>
	<circle cx="88.8669" cy="37.9468" r="4" fill="#0" id="circle13"/>
	<circle cx="88.8669" cy="56.8061" r="4" fill="#0" id="circle14"/>
	<circle cx="88.8669" cy="122.814" r="4" fill="#0" id="circle15"/>
	<circle cx="88.8669" cy="307.635" r="4" fill="#0" id="circle16"/>
	<circle cx="98.2966" cy="73.7795" r="4" fill="#0" id="circle17"/>
	<circle cx="103.954" cy="22.8593" r="4" fill="#0" id="circle18"/>
	<circle cx="103.954" cy="107.726" r="4" fill="#0" id="circle19"/>
	<circle cx="107.726" cy="307.635" r="4" fill="#0" id="circle20"/>
	<circle cx="122.814" cy="13.4297" r="4" fill="#0" id="circle21"/>
	<circle cx="126.586" cy="307.635" r="4" fill="#0" id="circle22"/>
	<circle cx="141.673" cy="13.4297" r="4" fill="#0" id="circle23"/>
	<circle cx="145.445" cy="307.635" r="4" fill="#0" id="circle24"/>
	<circle cx="158.646" cy="4" r="4" fill="#0" id="circle25"/>
	<circle cx="162.418" cy="298.205" r="4" fill="#0" id="circle26"/>
	<circle cx="177.506" cy="4" r="4" fill="#0" id="circle27"/>
	<circle cx="181.278" cy="298.205" r="4" fill="#0" id="circle28"/>
	<circle cx="196.365" cy="4" r="4" fill="#0" id="circle29"/>
	<circle cx="200.137" cy="298.205" r="4" fill="#0" id="circle30"/>
	<circle cx="215.224" cy="4" r="4" fill="#0" id="circle31"/>
	<circle cx="218.996" cy="298.205" r="4" fill="#0" id="circle32"/>
	<circle cx="234.084" cy="4" r="4" fill="#0" id="circle33"/>
	<circle cx="235.97" cy="307.635" r="4" fill="#0" id="circle34"/>
	<circle cx="252.943" cy="4" r="4" fill="#0" id="circle35"/>
	<circle cx="252.943" cy="317.065" r="4" fill="#0" id="circle36"/>
	<circle cx="269.916" cy="13.4297" r="4" fill="#0" id="circle37"/>
	<circle cx="269.916" cy="326.494" r="4" fill="#0" id="circle38"/>
	<circle cx="279.346" cy="30.403" r="4" fill="#0" id="circle39"/>
	<circle cx="286.89" cy="335.924" r="4" fill="#0" id="circle40"/>
	<circle cx="288.776" cy="47.3764" r="4" fill="#0" id="circle41"/>
	<circle cx="296.319" cy="66.2357" r="4" fill="#0" id="circle42"/>
	<circle cx="303.863" cy="345.354" r="4" fill="#0" id="circle43"/>
	<circle cx="315.179" cy="70.0076" r="4" fill="#0" id="circle44"/>
	<circle cx="320.837" cy="354.783" r="4" fill="#0" id="circle45"/>
	<circle cx="334.038" cy="70.0076" r="4" fill="#0" id="circle46"/>
	<circle cx="339.696" cy="362.327" r="4" fill="#0" id="circle47"/>
	<circle cx="352.897" cy="70.0076" r="4" fill="#0" id="circle48"/>
	<circle cx="352.897" cy="377.414" r="4" fill="#0" id="circle49"/>
	<circle cx="371.757" cy="70.0076" r="4" fill="#0" id="circle50"/>
	<circle cx="371.757" cy="383.072" r="4" fill="#0" id="circle51"/>
	<circle cx="390.616" cy="66.2357" r="4" fill="#0" id="circle52"/>
	<circle cx="390.616" cy="383.072" r="4" fill="#0" id="circle53"/>
	<circle cx="409.475" cy="60.5779" r="4" fill="#0" id="circle54"/>
	<circle cx="409.475" cy="383.072" r="4" fill="#0" id="circle55"/>
	<circle cx="428.335" cy="60.5779" r="4" fill="#0" id="circle56"/>
	<circle cx="428.335" cy="383.072" r="4" fill="#0" id="circle57"/>
	<circle cx="447.194" cy="56.8061" r="4" fill="#0" id="circle58"/>
	<circle cx="447.194" cy="383.072" r="4" fill="#0" id="circle59"/>
	<circle cx="466.053" cy="47.3764" r="4" fill="#0" id="circle60"/>
	<circle cx="466.053" cy="383.072" r="4" fill="#0" id="circle61"/>
	<circle cx="483.027" cy="373.643" r="4" fill="#0" id="circle62"/>
	<circle cx="484.913" cy="41.7186" r="4" fill="#0" id="circle63"/>
	<circle cx="501.886" cy="373.643" r="4" fill="#0" id="circle64"/>
	<circle cx="503.772" cy="41.7186" r="4" fill="#0" id="circle65"/>
	<circle cx="520.745" cy="369.871" r="4" fill="#0" id="circle66"/>
	<circle cx="522.631" cy="41.7186" r="4" fill="#0" id="circle67"/>
	<circle cx="539.605" cy="364.213" r="4" fill="#0" id="circle68"/>
	<circle cx="541.49" cy="41.7186" r="4" fill="#0" id="circle69"/>
	<circle cx="558.464" cy="364.213" r="4" fill="#0" id="circle70"/>
	<circle cx="560.35" cy="41.7186" r="4" fill="#0" id="circle71"/>
	<circle cx="577.323" cy="364.213" r="4" fill="#0" id="circle72"/>
	<circle cx="579.209" cy="41.7186" r="4" fill="#0" id="circle73"/>
	<circle cx="596.183" cy="364.213" r="4" fill="#0" id="circle74"/>
	<circle cx="598.068" cy="41.7186" r="4" fill="#0" id="circle75"/>
	<circle cx="615.042" cy="32.289" r="4" fill="#0" id="circle76"/>
	<circle cx="615.042" cy="364.213" r="4" fill="#0" id="circle77"/>
	<circle cx="632.015" cy="354.783" r="4" fill="#0" id="circle78"/>
	<circle cx="633.901" cy="32.289" r="4" fill="#0" id="circle79"/>
	<circle cx="648.989" cy="345.354" r="4" fill="#0" id="circle80"/>
	<circle cx="652.76" cy="32.289" r="4" fill="#0" id="circle81"/>
	<circle cx="667.848" cy="345.354" r="4" fill="#0" id="circle82"/>
	<circle cx="671.62" cy="32.289" r="4" fill="#0" id="circle83"/>
	<circle cx="686.707" cy="351.011" r="4" fill="#0" id="circle84"/>
	<circle cx="690.479" cy="34.1749" r="4" fill="#0" id="circle85"/>
	<circle cx="701.795" cy="364.213" r="4" fill="#0" id="circle86"/>
	<circle cx="703.681" cy="49.2624" r="4" fill="#0" id="circle87"/>
	<circle cx="713.11" cy="379.3" r="4" fill="#0" id="circle88"/>
	<circle cx="718.768" cy="60.5779" r="4" fill="#0" id="circle89"/>
	<circle cx="728.198" cy="392.502" r="4" fill="#0" id="circle90"/>
	<circle cx="735.741" cy="70.0076" r="4" fill="#0" id="circle91"/>
	<circle cx="745.171" cy="401.932" r="4" fill="#0" id="circle92"/>
	<circle cx="748.943" cy="85.0951" r="4" fill="#0" id="circle93"/>
	<circle cx="762.144" cy="411.361" r="4" fill="#0" id="circle94"/>
	<circle cx="764.03" cy="98.2966" r="4" fill="#0" id="circle95"/>
	<circle cx="777.232" cy="113.384" r="4" fill="#0" id="circle96"/>
	<circle cx="781.004" cy="417.019" r="4" fill="#0" id="circle97"/>
	<circle cx="796.091" cy="117.156" r="4" fill="#0" id="circle98"/>
	<circle cx="799.863" cy="420.791" r="4" fill="#0" id="circle99"/>
	<circle cx="814.951" cy="117.156" r="4" fill="#0" id="circle100"/>
	<circle cx="818.722" cy="420.791" r="4" fill="#0" id="circle101"/>
	<circle cx="833.81" cy="113.384" r="4" fill="#0" id="circle102"/>
	<circle cx="835.696" cy="411.361" r="4" fill="#0" id="circle103"/>
	<circle cx="852.669" cy="107.726" r="4" fill="#0" id="circle104"/>
	<circle cx="854.555" cy="411.361" r="4" fill="#0" id="circle105"/>
	<circle cx="871.529" cy="107.726" r="4" fill="#0" id="circle106"/>
	<circle cx="873.414" cy="411.361" r="4" fill="#0" id="circle107"/>
	<circle cx="890.388" cy="107.726" r="4" fill="#0" id="circle108"/>
	<circle cx="892.274" cy="411.361" r="4" fill="#0" id="circle109"/>
	<circle cx="907.361" cy="98.2966" r="4" fill="#0" id="circle110"/>
	<circle cx="911.133" cy="411.361" r="4" fill="#0" id="circle111"/>
	<circle cx="920.563" cy="269.916" r="4" fill="#0" id="circle112"/>
	<circle cx="926.221" cy="98.2966" r="4" fill="#0" id="circle113"/>
	<circle cx="929.992" cy="286.89" r="4" fill="#0" id="circle114"/>
	<circle cx="929.992" cy="411.361" r="4" fill="#0" id="circle115"/>
	<circle cx="939.422" cy="260.487" r="4" fill="#0" id="circle116"/>
	<circle cx="939.422" cy="303.863" r="4" fill="#0" id="circle117"/>
	<circle cx="945.08" cy="98.2966" r="4" fill="#0" id="circle118"/>
	<circle cx="946.966" cy="401.932" r="4" fill="#0" id="circle119"/>
	<circle cx="948.852" cy="241.627" r="4" fill="#0" id="circle120"/>
	<circle cx="948.852" cy="320.837" r="4" fill="#0" id="circle121"/>
	<circle cx="948.852" cy="339.696" r="4" fill="#0" id="circle122"/>
	<circle cx="956.395" cy="358.555" r="4" fill="#0" id="circle123"/>
	<circle cx="962.053" cy="88.8669" r="4" fill="#0" id="circle124"/>
	<circle cx="963.939" cy="228.426" r="4" fill="#0" id="circle125"/>
	<circle cx="965.825" cy="375.529" r="4" fill="#0" id="circle126"/>
	<circle cx="965.825" cy="396.274" r="4" fill="#0" id="circle127"/>
	<circle cx="975.255" cy="103.954" r="4" fill="#0" id="circle128"/>
	<circle cx="977.141" cy="213.338" r="4" fill="#0" id="circle129"/>
	<circle cx="986.57" cy="119.042" r="4" fill="#0" id="circle130"/>
	<circle cx="992.228" cy="200.137" r="4" fill="#0" id="circle131"/>
	<circle cx="996" cy="136.015" r="4" fill="#0" id="circle132"/>
	<circle cx="996" cy="154.875" r="4" fill="#0" id="circle133"/>
	<circle cx="996" cy="173.734" r="4" fill="#0" id="circle134"/>
	</g>
</svg>