<?xml version="1.0" encoding="UTF-8" standalone="no"?>
<!-- Created with CurveBenchmark -->
<svg
	xmlns:dc="http://purl.org/dc/elements/1.1/"
	xmlns:cc="http://creativecommons.org/ns#"
	xmlns:rdf="http://www.w3.org/1999/02/22-rdf-syntax-ns#"
	xmlns:svg="http://www.w3.org/2000/svg"
	xmlns="http://www.w3.org/2000/svg"
	xmlns:sodipodi="http://sodipodi.sourceforge.net/DTD/sodipodi-0.dtd"
	xmlns:inkscape="http://www.inkscape.org/namespaces/inkscape"
	width="1000"
	height="1000"
	id="svg2"
	version="1.1"
	sodipodi:docname="manifold/crawl-key02.png.txt">
<defs
	id="defs4" />
<metadata
	id="metadata7">
	<rdf:RDF>
		<cc:Work
			rdf:about="">
			<dc:format>image/svg+xml</dc:format>
			<dc:type
				rdf:resource="http://purl.org/dc/dcmitype/StillImage" />
			<dc:title></dc:title>
		</cc:Work>
	</rdf:RDF>
</metadata>
<g
	inkscape:label="Layer 1"
	inkscape:groupmode="layer"
	id="layer1">
	<path style="fill:none;stroke:red;stroke-width:1px;stroke-linecap:butt;stroke-linejoin:miter;stroke-opacity:1" d="M 4,211.546 4,229.135 z" id="boundary" inkscape:connector-curvature="0" />
	<path style="fill:none;stroke:red;stroke-width:1px;stroke-linecap:butt;stroke-linejoin:miter;stroke-opacity:1" d="M 4,229.135 4,246.723 z" id="boundary" inkscape:connector-curvature="0" />
	<path style="fill:none;stroke:red;stroke-width:1px;stroke-linecap:butt;stroke-linejoin:miter;stroke-opacity:1" d="M 4,246.723 4,264.312 z" id="boundary" inkscape:connector-curvature="0" />
	<path style="fill:none;stroke:red;stroke-width:1px;stroke-linecap:butt;stroke-linejoin:miter;stroke-opacity:1" d="M 4,211.546 4,193.957 z" id="boundary" inkscape:connector-curvature="0" />
	<path style="fill:none;stroke:red;stroke-width:1px;stroke-linecap:butt;stroke-linejoin:miter;stroke-opacity:1" d="M 4,264.312 12.7943,280.142 z" id="boundary" inkscape:connector-curvature="0" />
	<path style="fill:none;stroke:red;stroke-width:1px;stroke-linecap:butt;stroke-linejoin:miter;stroke-opacity:1" d="M 12.7943,280.142 21.5887,295.972 z" id="boundary" inkscape:connector-curvature="0" />
	<path style="fill:none;stroke:red;stroke-width:1px;stroke-linecap:butt;stroke-linejoin:miter;stroke-opacity:1" d="M 21.5887,295.972 26.8652,313.56 z" id="boundary" inkscape:connector-curvature="0" />
	<path style="fill:none;stroke:red;stroke-width:1px;stroke-linecap:butt;stroke-linejoin:miter;stroke-opacity:1" d="M 26.8652,313.56 35.6596,329.39 z" id="boundary" inkscape:connector-curvature="0" />
	<path style="fill:none;stroke:red;stroke-width:1px;stroke-linecap:butt;stroke-linejoin:miter;stroke-opacity:1" d="M 35.6596,329.39 42.695,346.979 z" id="boundary" inkscape:connector-curvature="0" />
	<path style="fill:none;stroke:red;stroke-width:1px;stroke-linecap:butt;stroke-linejoin:miter;stroke-opacity:1" d="M 42.695,346.979 56.766,357.532 z" id="boundary" inkscape:connector-curvature="0" />
	<path style="fill:none;stroke:red;stroke-width:1px;stroke-linecap:butt;stroke-linejoin:miter;stroke-opacity:1" d="M 56.766,357.532 62.0426,375.121 z" id="boundary" inkscape:connector-curvature="0" />
	<path style="fill:none;stroke:red;stroke-width:1px;stroke-linecap:butt;stroke-linejoin:miter;stroke-opacity:1" d="M 62.0426,375.121 74.3546,389.191 z" id="boundary" inkscape:connector-curvature="0" />
	<path style="fill:none;stroke:red;stroke-width:1px;stroke-linecap:butt;stroke-linejoin:miter;stroke-opacity:1" d="M 74.3546,389.191 83.1489,405.021 z" id="boundary" inkscape:connector-curvature="0" />
	<path style="fill:none;stroke:red;stroke-width:1px;stroke-linecap:butt;stroke-linejoin:miter;stroke-opacity:1" d="M 83.1489,405.021 97.2199,417.333 z" id="boundary" inkscape:connector-curvature="0" />
	<path style="fill:none;stroke:red;stroke-width:1px;stroke-linecap:butt;stroke-linejoin:miter;stroke-opacity:1" d="M 97.2199,417.333 109.532,431.404 z" id="boundary" inkscape:connector-curvature="0" />
	<path style="fill:none;stroke:red;stroke-width:1px;stroke-linecap:butt;stroke-linejoin:miter;stroke-opacity:1" d="M 109.532,431.404 123.603,443.716 z" id="boundary" inkscape:connector-curvature="0" />
	<path style="fill:none;stroke:red;stroke-width:1px;stroke-linecap:butt;stroke-linejoin:miter;stroke-opacity:1" d="M 123.603,443.716 139.433,452.511 z" id="boundary" inkscape:connector-curvature="0" />
	<path style="fill:none;stroke:red;stroke-width:1px;stroke-linecap:butt;stroke-linejoin:miter;stroke-opacity:1" d="M 139.433,452.511 157.021,454.27 z" id="boundary" inkscape:connector-curvature="0" />
	<path style="fill:none;stroke:red;stroke-width:1px;stroke-linecap:butt;stroke-linejoin:miter;stroke-opacity:1" d="M 157.021,454.27 172.851,463.064 z" id="boundary" inkscape:connector-curvature="0" />
	<path style="fill:none;stroke:red;stroke-width:1px;stroke-linecap:butt;stroke-linejoin:miter;stroke-opacity:1" d="M 172.851,463.064 188.681,471.858 z" id="boundary" inkscape:connector-curvature="0" />
	<path style="fill:none;stroke:red;stroke-width:1px;stroke-linecap:butt;stroke-linejoin:miter;stroke-opacity:1" d="M 188.681,471.858 206.27,471.858 z" id="boundary" inkscape:connector-curvature="0" />
	<path style="fill:none;stroke:red;stroke-width:1px;stroke-linecap:butt;stroke-linejoin:miter;stroke-opacity:1" d="M 206.27,471.858 223.858,471.858 z" id="boundary" inkscape:connector-curvature="0" />
	<path style="fill:none;stroke:red;stroke-width:1px;stroke-linecap:butt;stroke-linejoin:miter;stroke-opacity:1" d="M 223.858,471.858 241.447,471.858 z" id="boundary" inkscape:connector-curvature="0" />
	<path style="fill:none;stroke:red;stroke-width:1px;stroke-linecap:butt;stroke-linejoin:miter;stroke-opacity:1" d="M 241.447,471.858 259.035,471.858 z" id="boundary" inkscape:connector-curvature="0" />
	<path style="fill:none;stroke:red;stroke-width:1px;stroke-linecap:butt;stroke-linejoin:miter;stroke-opacity:1" d="M 259.035,471.858 276.624,471.858 z" id="boundary" inkscape:connector-curvature="0" />
	<path style="fill:none;stroke:red;stroke-width:1px;stroke-linecap:butt;stroke-linejoin:miter;stroke-opacity:1" d="M 276.624,471.858 294.213,471.858 z" id="boundary" inkscape:connector-curvature="0" />
	<path style="fill:none;stroke:red;stroke-width:1px;stroke-linecap:butt;stroke-linejoin:miter;stroke-opacity:1" d="M 294.213,471.858 311.801,471.858 z" id="boundary" inkscape:connector-curvature="0" />
	<path style="fill:none;stroke:red;stroke-width:1px;stroke-linecap:butt;stroke-linejoin:miter;stroke-opacity:1" d="M 311.801,471.858 329.39,471.858 z" id="boundary" inkscape:connector-curvature="0" />
	<path style="fill:none;stroke:red;stroke-width:1px;stroke-linecap:butt;stroke-linejoin:miter;stroke-opacity:1" d="M 329.39,471.858 345.22,463.064 z" id="boundary" inkscape:connector-curvature="0" />
	<path style="fill:none;stroke:red;stroke-width:1px;stroke-linecap:butt;stroke-linejoin:miter;stroke-opacity:1" d="M 345.22,463.064 362.809,463.064 z" id="boundary" inkscape:connector-curvature="0" />
	<path style="fill:none;stroke:red;stroke-width:1px;stroke-linecap:butt;stroke-linejoin:miter;stroke-opacity:1" d="M 362.809,463.064 380.397,459.546 z" id="boundary" inkscape:connector-curvature="0" />
	<path style="fill:none;stroke:red;stroke-width:1px;stroke-linecap:butt;stroke-linejoin:miter;stroke-opacity:1" d="M 380.397,459.546 397.986,454.27 z" id="boundary" inkscape:connector-curvature="0" />
	<path style="fill:none;stroke:red;stroke-width:1px;stroke-linecap:butt;stroke-linejoin:miter;stroke-opacity:1" d="M 397.986,454.27 415.574,454.27 z" id="boundary" inkscape:connector-curvature="0" />
	<path style="fill:none;stroke:red;stroke-width:1px;stroke-linecap:butt;stroke-linejoin:miter;stroke-opacity:1" d="M 415.574,454.27 431.404,443.716 z" id="boundary" inkscape:connector-curvature="0" />
	<path style="fill:none;stroke:red;stroke-width:1px;stroke-linecap:butt;stroke-linejoin:miter;stroke-opacity:1" d="M 4,193.957 12.7943,176.369 z" id="boundary" inkscape:connector-curvature="0" />
	<path style="fill:none;stroke:red;stroke-width:1px;stroke-linecap:butt;stroke-linejoin:miter;stroke-opacity:1" d="M 12.7943,176.369 21.5887,158.78 z" id="boundary" inkscape:connector-curvature="0" />
	<path style="fill:none;stroke:red;stroke-width:1px;stroke-linecap:butt;stroke-linejoin:miter;stroke-opacity:1" d="M 21.5887,158.78 21.5887,141.191 z" id="boundary" inkscape:connector-curvature="0" />
	<path style="fill:none;stroke:red;stroke-width:1px;stroke-linecap:butt;stroke-linejoin:miter;stroke-opacity:1" d="M 21.5887,141.191 30.383,123.603 z" id="boundary" inkscape:connector-curvature="0" />
	<path style="fill:none;stroke:red;stroke-width:1px;stroke-linecap:butt;stroke-linejoin:miter;stroke-opacity:1" d="M 30.383,123.603 44.4539,109.532 z" id="boundary" inkscape:connector-curvature="0" />
	<path style="fill:none;stroke:red;stroke-width:1px;stroke-linecap:butt;stroke-linejoin:miter;stroke-opacity:1" d="M 44.4539,109.532 58.5248,95.461 z" id="boundary" inkscape:connector-curvature="0" />
	<path style="fill:none;stroke:red;stroke-width:1px;stroke-linecap:butt;stroke-linejoin:miter;stroke-opacity:1" d="M 58.5248,95.461 72.5957,83.1489 z" id="boundary" inkscape:connector-curvature="0" />
	<path style="fill:none;stroke:red;stroke-width:1px;stroke-linecap:butt;stroke-linejoin:miter;stroke-opacity:1" d="M 72.5957,83.1489 84.9078,69.078 z" id="boundary" inkscape:connector-curvature="0" />
	<path style="fill:none;stroke:red;stroke-width:1px;stroke-linecap:butt;stroke-linejoin:miter;stroke-opacity:1" d="M 84.9078,69.078 98.9787,56.766 z" id="boundary" inkscape:connector-curvature="0" />
	<path style="fill:none;stroke:red;stroke-width:1px;stroke-linecap:butt;stroke-linejoin:miter;stroke-opacity:1" d="M 98.9787,56.766 114.809,47.9716 z" id="boundary" inkscape:connector-curvature="0" />
	<path style="fill:none;stroke:red;stroke-width:1px;stroke-linecap:butt;stroke-linejoin:miter;stroke-opacity:1" d="M 114.809,47.9716 130.638,39.1773 z" id="boundary" inkscape:connector-curvature="0" />
	<path style="fill:none;stroke:red;stroke-width:1px;stroke-linecap:butt;stroke-linejoin:miter;stroke-opacity:1" d="M 130.638,39.1773 144.709,26.8652 z" id="boundary" inkscape:connector-curvature="0" />
	<path style="fill:none;stroke:red;stroke-width:1px;stroke-linecap:butt;stroke-linejoin:miter;stroke-opacity:1" d="M 144.709,26.8652 162.298,21.5887 z" id="boundary" inkscape:connector-curvature="0" />
	<path style="fill:none;stroke:red;stroke-width:1px;stroke-linecap:butt;stroke-linejoin:miter;stroke-opacity:1" d="M 162.298,21.5887 178.128,12.7943 z" id="boundary" inkscape:connector-curvature="0" />
	<path style="fill:none;stroke:red;stroke-width:1px;stroke-linecap:butt;stroke-linejoin:miter;stroke-opacity:1" d="M 178.128,12.7943 195.716,12.7943 z" id="boundary" inkscape:connector-curvature="0" />
	<path style="fill:none;stroke:red;stroke-width:1px;stroke-linecap:butt;stroke-linejoin:miter;stroke-opacity:1" d="M 195.716,12.7943 211.546,4 z" id="boundary" inkscape:connector-curvature="0" />
	<path style="fill:none;stroke:red;stroke-width:1px;stroke-linecap:butt;stroke-linejoin:miter;stroke-opacity:1" d="M 211.546,4 229.135,4 z" id="boundary" inkscape:connector-curvature="0" />
	<path style="fill:none;stroke:red;stroke-width:1px;stroke-linecap:butt;stroke-linejoin:miter;stroke-opacity:1" d="M 229.135,4 246.723,4 z" id="boundary" inkscape:connector-curvature="0" />
	<path style="fill:none;stroke:red;stroke-width:1px;stroke-linecap:butt;stroke-linejoin:miter;stroke-opacity:1" d="M 246.723,4 264.312,4 z" id="boundary" inkscape:connector-curvature="0" />
	<path style="fill:none;stroke:red;stroke-width:1px;stroke-linecap:butt;stroke-linejoin:miter;stroke-opacity:1" d="M 264.312,4 281.901,4 z" id="boundary" inkscape:connector-curvature="0" />
	<path style="fill:none;stroke:red;stroke-width:1px;stroke-linecap:butt;stroke-linejoin:miter;stroke-opacity:1" d="M 281.901,4 299.489,4 z" id="boundary" inkscape:connector-curvature="0" />
	<path style="fill:none;stroke:red;stroke-width:1px;stroke-linecap:butt;stroke-linejoin:miter;stroke-opacity:1" d="M 299.489,4 317.078,4 z" id="boundary" inkscape:connector-curvature="0" />
	<path style="fill:none;stroke:red;stroke-width:1px;stroke-linecap:butt;stroke-linejoin:miter;stroke-opacity:1" d="M 317.078,4 334.667,4 z" id="boundary" inkscape:connector-curvature="0" />
	<path style="fill:none;stroke:red;stroke-width:1px;stroke-linecap:butt;stroke-linejoin:miter;stroke-opacity:1" d="M 334.667,4 352.255,4 z" id="boundary" inkscape:connector-curvature="0" />
	<path style="fill:none;stroke:red;stroke-width:1px;stroke-linecap:butt;stroke-linejoin:miter;stroke-opacity:1" d="M 352.255,4 368.085,12.7943 z" id="boundary" inkscape:connector-curvature="0" />
	<path style="fill:none;stroke:red;stroke-width:1px;stroke-linecap:butt;stroke-linejoin:miter;stroke-opacity:1" d="M 368.085,12.7943 385.674,12.7943 z" id="boundary" inkscape:connector-curvature="0" />
	<path style="fill:none;stroke:red;stroke-width:1px;stroke-linecap:butt;stroke-linejoin:miter;stroke-opacity:1" d="M 385.674,12.7943 401.504,21.5887 z" id="boundary" inkscape:connector-curvature="0" />
	<path style="fill:none;stroke:red;stroke-width:1px;stroke-linecap:butt;stroke-linejoin:miter;stroke-opacity:1" d="M 401.504,21.5887 419.092,26.8652 z" id="boundary" inkscape:connector-curvature="0" />
	<path style="fill:none;stroke:red;stroke-width:1px;stroke-linecap:butt;stroke-linejoin:miter;stroke-opacity:1" d="M 419.092,26.8652 436.681,30.383 z" id="boundary" inkscape:connector-curvature="0" />
	<path style="fill:none;stroke:red;stroke-width:1px;stroke-linecap:butt;stroke-linejoin:miter;stroke-opacity:1" d="M 436.681,30.383 445.475,46.2128 z" id="boundary" inkscape:connector-curvature="0" />
	<path style="fill:none;stroke:red;stroke-width:1px;stroke-linecap:butt;stroke-linejoin:miter;stroke-opacity:1" d="M 445.475,46.2128 459.546,58.5248 z" id="boundary" inkscape:connector-curvature="0" />
	<path style="fill:none;stroke:red;stroke-width:1px;stroke-linecap:butt;stroke-linejoin:miter;stroke-opacity:1" d="M 459.546,58.5248 463.064,76.1135 z" id="boundary" inkscape:connector-curvature="0" />
	<path style="fill:none;stroke:red;stroke-width:1px;stroke-linecap:butt;stroke-linejoin:miter;stroke-opacity:1" d="M 463.064,76.1135 463.064,93.7021 z" id="boundary" inkscape:connector-curvature="0" />
	<path style="fill:none;stroke:red;stroke-width:1px;stroke-linecap:butt;stroke-linejoin:miter;stroke-opacity:1" d="M 463.064,93.7021 471.858,109.532 z" id="boundary" inkscape:connector-curvature="0" />
	<path style="fill:none;stroke:red;stroke-width:1px;stroke-linecap:butt;stroke-linejoin:miter;stroke-opacity:1" d="M 471.858,109.532 480.652,125.362 z" id="boundary" inkscape:connector-curvature="0" />
	<path style="fill:none;stroke:red;stroke-width:1px;stroke-linecap:butt;stroke-linejoin:miter;stroke-opacity:1" d="M 480.652,125.362 494.723,137.674 z" id="boundary" inkscape:connector-curvature="0" />
	<path style="fill:none;stroke:red;stroke-width:1px;stroke-linecap:butt;stroke-linejoin:miter;stroke-opacity:1" d="M 494.723,137.674 512.312,144.709 z" id="boundary" inkscape:connector-curvature="0" />
	<path style="fill:none;stroke:red;stroke-width:1px;stroke-linecap:butt;stroke-linejoin:miter;stroke-opacity:1" d="M 512.312,144.709 529.901,144.709 z" id="boundary" inkscape:connector-curvature="0" />
	<path style="fill:none;stroke:red;stroke-width:1px;stroke-linecap:butt;stroke-linejoin:miter;stroke-opacity:1" d="M 529.901,144.709 547.489,144.709 z" id="boundary" inkscape:connector-curvature="0" />
	<path style="fill:none;stroke:red;stroke-width:1px;stroke-linecap:butt;stroke-linejoin:miter;stroke-opacity:1" d="M 547.489,144.709 563.319,135.915 z" id="boundary" inkscape:connector-curvature="0" />
	<path style="fill:none;stroke:red;stroke-width:1px;stroke-linecap:butt;stroke-linejoin:miter;stroke-opacity:1" d="M 563.319,135.915 580.908,135.915 z" id="boundary" inkscape:connector-curvature="0" />
	<path style="fill:none;stroke:red;stroke-width:1px;stroke-linecap:butt;stroke-linejoin:miter;stroke-opacity:1" d="M 580.908,135.915 596.738,144.709 z" id="boundary" inkscape:connector-curvature="0" />
	<path style="fill:none;stroke:red;stroke-width:1px;stroke-linecap:butt;stroke-linejoin:miter;stroke-opacity:1" d="M 596.738,144.709 612.567,153.504 z" id="boundary" inkscape:connector-curvature="0" />
	<path style="fill:none;stroke:red;stroke-width:1px;stroke-linecap:butt;stroke-linejoin:miter;stroke-opacity:1" d="M 612.567,153.504 628.397,162.298 z" id="boundary" inkscape:connector-curvature="0" />
	<path style="fill:none;stroke:red;stroke-width:1px;stroke-linecap:butt;stroke-linejoin:miter;stroke-opacity:1" d="M 628.397,162.298 645.986,165.816 z" id="boundary" inkscape:connector-curvature="0" />
	<path style="fill:none;stroke:red;stroke-width:1px;stroke-linecap:butt;stroke-linejoin:miter;stroke-opacity:1" d="M 645.986,165.816 661.816,174.61 z" id="boundary" inkscape:connector-curvature="0" />
	<path style="fill:none;stroke:red;stroke-width:1px;stroke-linecap:butt;stroke-linejoin:miter;stroke-opacity:1" d="M 661.816,174.61 679.404,179.887 z" id="boundary" inkscape:connector-curvature="0" />
	<path style="fill:none;stroke:red;stroke-width:1px;stroke-linecap:butt;stroke-linejoin:miter;stroke-opacity:1" d="M 679.404,179.887 696.993,179.887 z" id="boundary" inkscape:connector-curvature="0" />
	<path style="fill:none;stroke:red;stroke-width:1px;stroke-linecap:butt;stroke-linejoin:miter;stroke-opacity:1" d="M 696.993,179.887 712.823,171.092 z" id="boundary" inkscape:connector-curvature="0" />
	<path style="fill:none;stroke:red;stroke-width:1px;stroke-linecap:butt;stroke-linejoin:miter;stroke-opacity:1" d="M 712.823,171.092 730.411,171.092 z" id="boundary" inkscape:connector-curvature="0" />
	<path style="fill:none;stroke:red;stroke-width:1px;stroke-linecap:butt;stroke-linejoin:miter;stroke-opacity:1" d="M 730.411,171.092 748,162.298 z" id="boundary" inkscape:connector-curvature="0" />
	<path style="fill:none;stroke:red;stroke-width:1px;stroke-linecap:butt;stroke-linejoin:miter;stroke-opacity:1" d="M 748,162.298 765.589,162.298 z" id="boundary" inkscape:connector-curvature="0" />
	<path style="fill:none;stroke:red;stroke-width:1px;stroke-linecap:butt;stroke-linejoin:miter;stroke-opacity:1" d="M 765.589,162.298 781.418,171.092 z" id="boundary" inkscape:connector-curvature="0" />
	<path style="fill:none;stroke:red;stroke-width:1px;stroke-linecap:butt;stroke-linejoin:miter;stroke-opacity:1" d="M 781.418,171.092 799.007,171.092 z" id="boundary" inkscape:connector-curvature="0" />
	<path style="fill:none;stroke:red;stroke-width:1px;stroke-linecap:butt;stroke-linejoin:miter;stroke-opacity:1" d="M 799.007,171.092 814.837,179.887 z" id="boundary" inkscape:connector-curvature="0" />
	<path style="fill:none;stroke:red;stroke-width:1px;stroke-linecap:butt;stroke-linejoin:miter;stroke-opacity:1" d="M 814.837,179.887 832.426,179.887 z" id="boundary" inkscape:connector-curvature="0" />
	<path style="fill:none;stroke:red;stroke-width:1px;stroke-linecap:butt;stroke-linejoin:miter;stroke-opacity:1" d="M 832.426,179.887 848.255,188.681 z" id="boundary" inkscape:connector-curvature="0" />
	<path style="fill:none;stroke:red;stroke-width:1px;stroke-linecap:butt;stroke-linejoin:miter;stroke-opacity:1" d="M 848.255,188.681 865.844,188.681 z" id="boundary" inkscape:connector-curvature="0" />
	<path style="fill:none;stroke:red;stroke-width:1px;stroke-linecap:butt;stroke-linejoin:miter;stroke-opacity:1" d="M 865.844,188.681 881.674,179.887 z" id="boundary" inkscape:connector-curvature="0" />
	<path style="fill:none;stroke:red;stroke-width:1px;stroke-linecap:butt;stroke-linejoin:miter;stroke-opacity:1" d="M 881.674,179.887 899.262,179.887 z" id="boundary" inkscape:connector-curvature="0" />
	<path style="fill:none;stroke:red;stroke-width:1px;stroke-linecap:butt;stroke-linejoin:miter;stroke-opacity:1" d="M 899.262,179.887 916.851,179.887 z" id="boundary" inkscape:connector-curvature="0" />
	<path style="fill:none;stroke:red;stroke-width:1px;stroke-linecap:butt;stroke-linejoin:miter;stroke-opacity:1" d="M 916.851,179.887 934.44,181.645 z" id="boundary" inkscape:connector-curvature="0" />
	<path style="fill:none;stroke:red;stroke-width:1px;stroke-linecap:butt;stroke-linejoin:miter;stroke-opacity:1" d="M 934.44,181.645 950.27,190.44 z" id="boundary" inkscape:connector-curvature="0" />
	<path style="fill:none;stroke:red;stroke-width:1px;stroke-linecap:butt;stroke-linejoin:miter;stroke-opacity:1" d="M 950.27,190.44 959.064,206.27 z" id="boundary" inkscape:connector-curvature="0" />
	<path style="fill:none;stroke:red;stroke-width:1px;stroke-linecap:butt;stroke-linejoin:miter;stroke-opacity:1" d="M 959.064,206.27 974.894,215.064 z" id="boundary" inkscape:connector-curvature="0" />
	<path style="fill:none;stroke:red;stroke-width:1px;stroke-linecap:butt;stroke-linejoin:miter;stroke-opacity:1" d="M 974.894,215.064 981.929,232.652 z" id="boundary" inkscape:connector-curvature="0" />
	<path style="fill:none;stroke:red;stroke-width:1px;stroke-linecap:butt;stroke-linejoin:miter;stroke-opacity:1" d="M 981.929,232.652 996,243.206 z" id="boundary" inkscape:connector-curvature="0" />
	<path style="fill:none;stroke:red;stroke-width:1px;stroke-linecap:butt;stroke-linejoin:miter;stroke-opacity:1" d="M 431.404,443.716 445.475,427.887 z" id="boundary" inkscape:connector-curvature="0" />
	<path style="fill:none;stroke:red;stroke-width:1px;stroke-linecap:butt;stroke-linejoin:miter;stroke-opacity:1" d="M 445.475,427.887 445.475,410.298 z" id="boundary" inkscape:connector-curvature="0" />
	<path style="fill:none;stroke:red;stroke-width:1px;stroke-linecap:butt;stroke-linejoin:miter;stroke-opacity:1" d="M 445.475,410.298 454.27,383.915 z" id="boundary" inkscape:connector-curvature="0" />
	<path style="fill:none;stroke:red;stroke-width:1px;stroke-linecap:butt;stroke-linejoin:miter;stroke-opacity:1" d="M 454.27,383.915 463.064,357.532 z" id="boundary" inkscape:connector-curvature="0" />
	<path style="fill:none;stroke:red;stroke-width:1px;stroke-linecap:butt;stroke-linejoin:miter;stroke-opacity:1" d="M 463.064,357.532 471.858,339.943 z" id="boundary" inkscape:connector-curvature="0" />
	<path style="fill:none;stroke:red;stroke-width:1px;stroke-linecap:butt;stroke-linejoin:miter;stroke-opacity:1" d="M 471.858,339.943 489.447,339.943 z" id="boundary" inkscape:connector-curvature="0" />
	<path style="fill:none;stroke:red;stroke-width:1px;stroke-linecap:butt;stroke-linejoin:miter;stroke-opacity:1" d="M 489.447,339.943 507.035,339.943 z" id="boundary" inkscape:connector-curvature="0" />
	<path style="fill:none;stroke:red;stroke-width:1px;stroke-linecap:butt;stroke-linejoin:miter;stroke-opacity:1" d="M 507.035,339.943 524.624,339.943 z" id="boundary" inkscape:connector-curvature="0" />
	<path style="fill:none;stroke:red;stroke-width:1px;stroke-linecap:butt;stroke-linejoin:miter;stroke-opacity:1" d="M 524.624,339.943 542.213,339.943 z" id="boundary" inkscape:connector-curvature="0" />
	<path style="fill:none;stroke:red;stroke-width:1px;stroke-linecap:butt;stroke-linejoin:miter;stroke-opacity:1" d="M 542.213,339.943 559.801,339.943 z" id="boundary" inkscape:connector-curvature="0" />
	<path style="fill:none;stroke:red;stroke-width:1px;stroke-linecap:butt;stroke-linejoin:miter;stroke-opacity:1" d="M 559.801,339.943 577.39,339.943 z" id="boundary" inkscape:connector-curvature="0" />
	<path style="fill:none;stroke:red;stroke-width:1px;stroke-linecap:butt;stroke-linejoin:miter;stroke-opacity:1" d="M 577.39,339.943 591.461,327.631 z" id="boundary" inkscape:connector-curvature="0" />
	<path style="fill:none;stroke:red;stroke-width:1px;stroke-linecap:butt;stroke-linejoin:miter;stroke-opacity:1" d="M 591.461,327.631 609.05,322.355 z" id="boundary" inkscape:connector-curvature="0" />
	<path style="fill:none;stroke:red;stroke-width:1px;stroke-linecap:butt;stroke-linejoin:miter;stroke-opacity:1" d="M 609.05,322.355 626.638,318.837 z" id="boundary" inkscape:connector-curvature="0" />
	<path style="fill:none;stroke:red;stroke-width:1px;stroke-linecap:butt;stroke-linejoin:miter;stroke-opacity:1" d="M 626.638,318.837 644.227,313.56 z" id="boundary" inkscape:connector-curvature="0" />
	<path style="fill:none;stroke:red;stroke-width:1px;stroke-linecap:butt;stroke-linejoin:miter;stroke-opacity:1" d="M 644.227,313.56 660.057,304.766 z" id="boundary" inkscape:connector-curvature="0" />
	<path style="fill:none;stroke:red;stroke-width:1px;stroke-linecap:butt;stroke-linejoin:miter;stroke-opacity:1" d="M 660.057,304.766 677.645,311.801 z" id="boundary" inkscape:connector-curvature="0" />
	<path style="fill:none;stroke:red;stroke-width:1px;stroke-linecap:butt;stroke-linejoin:miter;stroke-opacity:1" d="M 677.645,311.801 691.716,322.355 z" id="boundary" inkscape:connector-curvature="0" />
	<path style="fill:none;stroke:red;stroke-width:1px;stroke-linecap:butt;stroke-linejoin:miter;stroke-opacity:1" d="M 691.716,322.355 709.305,322.355 z" id="boundary" inkscape:connector-curvature="0" />
	<path style="fill:none;stroke:red;stroke-width:1px;stroke-linecap:butt;stroke-linejoin:miter;stroke-opacity:1" d="M 709.305,322.355 726.894,325.872 z" id="boundary" inkscape:connector-curvature="0" />
	<path style="fill:none;stroke:red;stroke-width:1px;stroke-linecap:butt;stroke-linejoin:miter;stroke-opacity:1" d="M 726.894,325.872 744.482,331.149 z" id="boundary" inkscape:connector-curvature="0" />
	<path style="fill:none;stroke:red;stroke-width:1px;stroke-linecap:butt;stroke-linejoin:miter;stroke-opacity:1" d="M 744.482,331.149 760.312,322.355 z" id="boundary" inkscape:connector-curvature="0" />
	<path style="fill:none;stroke:red;stroke-width:1px;stroke-linecap:butt;stroke-linejoin:miter;stroke-opacity:1" d="M 760.312,322.355 777.901,322.355 z" id="boundary" inkscape:connector-curvature="0" />
	<path style="fill:none;stroke:red;stroke-width:1px;stroke-linecap:butt;stroke-linejoin:miter;stroke-opacity:1" d="M 777.901,322.355 795.489,322.355 z" id="boundary" inkscape:connector-curvature="0" />
	<path style="fill:none;stroke:red;stroke-width:1px;stroke-linecap:butt;stroke-linejoin:miter;stroke-opacity:1" d="M 795.489,322.355 813.078,317.078 z" id="boundary" inkscape:connector-curvature="0" />
	<path style="fill:none;stroke:red;stroke-width:1px;stroke-linecap:butt;stroke-linejoin:miter;stroke-opacity:1" d="M 813.078,317.078 830.667,313.56 z" id="boundary" inkscape:connector-curvature="0" />
	<path style="fill:none;stroke:red;stroke-width:1px;stroke-linecap:butt;stroke-linejoin:miter;stroke-opacity:1" d="M 830.667,313.56 846.496,322.355 z" id="boundary" inkscape:connector-curvature="0" />
	<path style="fill:none;stroke:red;stroke-width:1px;stroke-linecap:butt;stroke-linejoin:miter;stroke-opacity:1" d="M 846.496,322.355 864.085,322.355 z" id="boundary" inkscape:connector-curvature="0" />
	<path style="fill:none;stroke:red;stroke-width:1px;stroke-linecap:butt;stroke-linejoin:miter;stroke-opacity:1" d="M 864.085,322.355 879.915,331.149 z" id="boundary" inkscape:connector-curvature="0" />
	<path style="fill:none;stroke:red;stroke-width:1px;stroke-linecap:butt;stroke-linejoin:miter;stroke-opacity:1" d="M 879.915,331.149 897.504,331.149 z" id="boundary" inkscape:connector-curvature="0" />
	<path style="fill:none;stroke:red;stroke-width:1px;stroke-linecap:butt;stroke-linejoin:miter;stroke-opacity:1" d="M 897.504,331.149 915.092,329.39 z" id="boundary" inkscape:connector-curvature="0" />
	<path style="fill:none;stroke:red;stroke-width:1px;stroke-linecap:butt;stroke-linejoin:miter;stroke-opacity:1" d="M 915.092,329.39 932.681,320.596 z" id="boundary" inkscape:connector-curvature="0" />
	<path style="fill:none;stroke:red;stroke-width:1px;stroke-linecap:butt;stroke-linejoin:miter;stroke-opacity:1" d="M 932.681,320.596 946.752,304.766 z" id="boundary" inkscape:connector-curvature="0" />
	<path style="fill:none;stroke:red;stroke-width:1px;stroke-linecap:butt;stroke-linejoin:miter;stroke-opacity:1" d="M 946.752,304.766 960.823,292.454 z" id="boundary" inkscape:connector-curvature="0" />
	<path style="fill:none;stroke:red;stroke-width:1px;stroke-linecap:butt;stroke-linejoin:miter;stroke-opacity:1" d="M 960.823,292.454 978.411,283.66 z" id="boundary" inkscape:connector-curvature="0" />
	<path style="fill:none;stroke:red;stroke-width:1px;stroke-linecap:butt;stroke-linejoin:miter;stroke-opacity:1" d="M 978.411,283.66 996,274.865 z" id="boundary" inkscape:connector-curvature="0" />
	<path style="fill:none;stroke:red;stroke-width:1px;stroke-linecap:butt;stroke-linejoin:miter;stroke-opacity:1" d="M 996,243.206 996,274.865 z" id="boundary" inkscape:connector-curvature="0" />
	<circle cx="4" cy="193.957" r="4" fill="#0" id="circle0"/>
	<circle cx="4" cy="211.546" r="4" fill="#0" id="circle1"/>
	<circle cx="4" cy="229.135" r="4" fill="#0" id="circle2"/>
	<circle cx="4" cy="246.723" r="4" fill="#0" id="circle3"/>
	<circle cx="4" cy="264.312" r="4" fill="#0" id="circle4"/>
	<circle cx="12.7943" cy="176.369" r="4" fill="#0" id="circle5"/>
	<circle cx="12.7943" cy="280.142" r="4" fill="#0" id="circle6"/>
	<circle cx="21.5887" cy="141.191" r="4" fill="#0" id="circle7"/>
	<circle cx="21.5887" cy="158.78" r="4" fill="#0" id="circle8"/>
	<circle cx="21.5887" cy="295.972" r="4" fill="#0" id="circle9"/>
	<circle cx="26.8652" cy="313.56" r="4" fill="#0" id="circle10"/>
	<circle cx="30.383" cy="123.603" r="4" fill="#0" id="circle11"/>
	<circle cx="35.6596" cy="329.39" r="4" fill="#0" id="circle12"/>
	<circle cx="42.695" cy="346.979" r="4" fill="#0" id="circle13"/>
	<circle cx="44.4539" cy="109.532" r="4" fill="#0" id="circle14"/>
	<circle cx="56.766" cy="357.532" r="4" fill="#0" id="circle15"/>
	<circle cx="58.5248" cy="95.461" r="4" fill="#0" id="circle16"/>
	<circle cx="62.0426" cy="375.121" r="4" fill="#0" id="circle17"/>
	<circle cx="72.5957" cy="83.1489" r="4" fill="#0" id="circle18"/>
	<circle cx="74.3546" cy="389.191" r="4" fill="#0" id="circle19"/>
	<circle cx="83.1489" cy="405.021" r="4" fill="#0" id="circle20"/>
	<circle cx="84.9078" cy="69.078" r="4" fill="#0" id="circle21"/>
	<circle cx="97.2199" cy="417.333" r="4" fill="#0" id="circle22"/>
	<circle cx="98.9787" cy="56.766" r="4" fill="#0" id="circle23"/>
	<circle cx="109.532" cy="431.404" r="4" fill="#0" id="circle24"/>
	<circle cx="114.809" cy="47.9716" r="4" fill="#0" id="circle25"/>
	<circle cx="123.603" cy="443.716" r="4" fill="#0" id="circle26"/>
	<circle cx="130.638" cy="39.1773" r="4" fill="#0" id="circle27"/>
	<circle cx="139.433" cy="452.511" r="4" fill="#0" id="circle28"/>
	<circle cx="144.709" cy="26.8652" r="4" fill="#0" id="circle29"/>
	<circle cx="157.021" cy="454.27" r="4" fill="#0" id="circle30"/>
	<circle cx="162.298" cy="21.5887" r="4" fill="#0" id="circle31"/>
	<circle cx="172.851" cy="463.064" r="4" fill="#0" id="circle32"/>
	<circle cx="178.128" cy="12.7943" r="4" fill="#0" id="circle33"/>
	<circle cx="188.681" cy="471.858" r="4" fill="#0" id="circle34"/>
	<circle cx="195.716" cy="12.7943" r="4" fill="#0" id="circle35"/>
	<circle cx="206.27" cy="471.858" r="4" fill="#0" id="circle36"/>
	<circle cx="211.546" cy="4" r="4" fill="#0" id="circle37"/>
	<circle cx="223.858" cy="471.858" r="4" fill="#0" id="circle38"/>
	<circle cx="229.135" cy="4" r="4" fill="#0" id="circle39"/>
	<circle cx="241.447" cy="471.858" r="4" fill="#0" id="circle40"/>
	<circle cx="246.723" cy="4" r="4" fill="#0" id="circle41"/>
	<circle cx="259.035" cy="471.858" r="4" fill="#0" id="circle42"/>
	<circle cx="264.312" cy="4" r="4" fill="#0" id="circle43"/>
	<circle cx="276.624" cy="471.858" r="4" fill="#0" id="circle44"/>
	<circle cx="281.901" cy="4" r="4" fill="#0" id="circle45"/>
	<circle cx="294.213" cy="471.858" r="4" fill="#0" id="circle46"/>
	<circle cx="299.489" cy="4" r="4" fill="#0" id="circle47"/>
	<circle cx="311.801" cy="471.858" r="4" fill="#0" id="circle48"/>
	<circle cx="317.078" cy="4" r="4" fill="#0" id="circle49"/>
	<circle cx="329.39" cy="471.858" r="4" fill="#0" id="circle50"/>
	<circle cx="334.667" cy="4" r="4" fill="#0" id="circle51"/>
	<circle cx="345.22" cy="463.064" r="4" fill="#0" id="circle52"/>
	<circle cx="352.255" cy="4" r="4" fill="#0" id="circle53"/>
	<circle cx="362.809" cy="463.064" r="4" fill="#0" id="circle54"/>
	<circle cx="368.085" cy="12.7943" r="4" fill="#0" id="circle55"/>
	<circle cx="380.397" cy="459.546" r="4" fill="#0" id="circle56"/>
	<circle cx="385.674" cy="12.7943" r="4" fill="#0" id="circle57"/>
	<circle cx="397.986" cy="454.27" r="4" fill="#0" id="circle58"/>
	<circle cx="401.504" cy="21.5887" r="4" fill="#0" id="circle59"/>
	<circle cx="415.574" cy="454.27" r="4" fill="#0" id="circle60"/>
	<circle cx="419.092" cy="26.8652" r="4" fill="#0" id="circle61"/>
	<circle cx="431.404" cy="443.716" r="4" fill="#0" id="circle62"/>
	<circle cx="436.681" cy="30.383" r="4" fill="#0" id="circle63"/>
	<circle cx="445.475" cy="46.2128" r="4" fill="#0" id="circle64"/>
	<circle cx="445.475" cy="410.298" r="4" fill="#0" id="circle65"/>
	<circle cx="445.475" cy="427.887" r="4" fill="#0" id="circle66"/>
	<circle cx="454.27" cy="383.915" r="4" fill="#0" id="circle67"/>
	<circle cx="459.546" cy="58.5248" r="4" fill="#0" id="circle68"/>
	<circle cx="463.064" cy="76.1135" r="4" fill="#0" id="circle69"/>
	<circle cx="463.064" cy="93.7021" r="4" fill="#0" id="circle70"/>
	<circle cx="463.064" cy="357.532" r="4" fill="#0" id="circle71"/>
	<circle cx="471.858" cy="109.532" r="4" fill="#0" id="circle72"/>
	<circle cx="471.858" cy="339.943" r="4" fill="#0" id="circle73"/>
	<circle cx="480.652" cy="125.362" r="4" fill="#0" id="circle74"/>
	<circle cx="489.447" cy="339.943" r="4" fill="#0" id="circle75"/>
	<circle cx="494.723" cy="137.674" r="4" fill="#0" id="circle76"/>
	<circle cx="507.035" cy="339.943" r="4" fill="#0" id="circle77"/>
	<circle cx="512.312" cy="144.709" r="4" fill="#0" id="circle78"/>
	<circle cx="524.624" cy="339.943" r="4" fill="#0" id="circle79"/>
	<circle cx="529.901" cy="144.709" r="4" fill="#0" id="circle80"/>
	<circle cx="542.213" cy="339.943" r="4" fill="#0" id="circle81"/>
	<circle cx="547.489" cy="144.709" r="4" fill="#0" id="circle82"/>
	<circle cx="559.801" cy="339.943" r="4" fill="#0" id="circle83"/>
	<circle cx="563.319" cy="135.915" r="4" fill="#0" id="circle84"/>
	<circle cx="577.39" cy="339.943" r="4" fill="#0" id="circle85"/>
	<circle cx="580.908" cy="135.915" r="4" fill="#0" id="circle86"/>
	<circle cx="591.461" cy="327.631" r="4" fill="#0" id="circle87"/>
	<circle cx="596.738" cy="144.709" r="4" fill="#0" id="circle88"/>
	<circle cx="609.05" cy="322.355" r="4" fill="#0" id="circle89"/>
	<circle cx="612.567" cy="153.504" r="4" fill="#0" id="circle90"/>
	<circle cx="626.638" cy="318.837" r="4" fill="#0" id="circle91"/>
	<circle cx="628.397" cy="162.298" r="4" fill="#0" id="circle92"/>
	<circle cx="644.227" cy="313.56" r="4" fill="#0" id="circle93"/>
	<circle cx="645.986" cy="165.816" r="4" fill="#0" id="circle94"/>
	<circle cx="660.057" cy="304.766" r="4" fill="#0" id="circle95"/>
	<circle cx="661.816" cy="174.61" r="4" fill="#0" id="circle96"/>
	<circle cx="677.645" cy="311.801" r="4" fill="#0" id="circle97"/>
	<circle cx="679.404" cy="179.887" r="4" fill="#0" id="circle98"/>
	<circle cx="691.716" cy="322.355" r="4" fill="#0" id="circle99"/>
	<circle cx="696.993" cy="179.887" r="4" fill="#0" id="circle100"/>
	<circle cx="709.305" cy="322.355" r="4" fill="#0" id="circle101"/>
	<circle cx="712.823" cy="171.092" r="4" fill="#0" id="circle102"/>
	<circle cx="726.894" cy="325.872" r="4" fill="#0" id="circle103"/>
	<circle cx="730.411" cy="171.092" r="4" fill="#0" id="circle104"/>
	<circle cx="744.482" cy="331.149" r="4" fill="#0" id="circle105"/>
	<circle cx="748" cy="162.298" r="4" fill="#0" id="circle106"/>
	<circle cx="760.312" cy="322.355" r="4" fill="#0" id="circle107"/>
	<circle cx="765.589" cy="162.298" r="4" fill="#0" id="circle108"/>
	<circle cx="777.901" cy="322.355" r="4" fill="#0" id="circle109"/>
	<circle cx="781.418" cy="171.092" r="4" fill="#0" id="circle110"/>
	<circle cx="795.489" cy="322.355" r="4" fill="#0" id="circle111"/>
	<circle cx="799.007" cy="171.092" r="4" fill="#0" id="circle112"/>
	<circle cx="813.078" cy="317.078" r="4" fill="#0" id="circle113"/>
	<circle cx="814.837" cy="179.887" r="4" fill="#0" id="circle114"/>
	<circle cx="830.667" cy="313.56" r="4" fill="#0" id="circle115"/>
	<circle cx="832.426" cy="179.887" r="4" fill="#0" id="circle116"/>
	<circle cx="846.496" cy="322.355" r="4" fill="#0" id="circle117"/>
	<circle cx="848.255" cy="188.681" r="4" fill="#0" id="circle118"/>
	<circle cx="864.085" cy="322.355" r="4" fill="#0" id="circle119"/>
	<circle cx="865.844" cy="188.681" r="4" fill="#0" id="circle120"/>
	<circle cx="879.915" cy="331.149" r="4" fill="#0" id="circle121"/>
	<circle cx="881.674" cy="179.887" r="4" fill="#0" id="circle122"/>
	<circle cx="897.504" cy="331.149" r="4" fill="#0" id="circle123"/>
	<circle cx="899.262" cy="179.887" r="4" fill="#0" id="circle124"/>
	<circle cx="915.092" cy="329.39" r="4" fill="#0" id="circle125"/>
	<circle cx="916.851" cy="179.887" r="4" fill="#0" id="circle126"/>
	<circle cx="932.681" cy="320.596" r="4" fill="#0" id="circle127"/>
	<circle cx="934.44" cy="181.645" r="4" fill="#0" id="circle128"/>
	<circle cx="946.752" cy="304.766" r="4" fill="#0" id="circle129"/>
	<circle cx="950.27" cy="190.44" r="4" fill="#0" id="circle130"/>
	<circle cx="959.064" cy="206.27" r="4" fill="#0" id="circle131"/>
	<circle cx="960.823" cy="292.454" r="4" fill="#0" id="circle132"/>
	<circle cx="974.894" cy="215.064" r="4" fill="#0" id="circle133"/>
	<circle cx="978.411" cy="283.66" r="4" fill="#0" id="circle134"/>
	<circle cx="981.929" cy="232.652" r="4" fill="#0" id="circle135"/>
	<circle cx="996" cy="243.206" r="4" fill="#0" id="circle136"/>
	<circle cx="996" cy="274.865" r="4" fill="#0" id="circle137"/>
	</g>
</svg>