<?xml version="1.0" encoding="UTF-8" standalone="no"?>
<!-- Created with CurveBenchmark -->
<svg
	xmlns:dc="http://purl.org/dc/elements/1.1/"
	xmlns:cc="http://creativecommons.org/ns#"
	xmlns:rdf="http://www.w3.org/1999/02/22-rdf-syntax-ns#"
	xmlns:svg="http://www.w3.org/2000/svg"
	xmlns="http://www.w3.org/2000/svg"
	xmlns:sodipodi="http://sodipodi.sourceforge.net/DTD/sodipodi-0.dtd"
	xmlns:inkscape="http://www.inkscape.org/namespaces/inkscape"
	width="1000"
	height="1000"
	id="svg2"
	version="1.1"
	sodipodi:docname="manifold/crawl-guitar035.png.txt">
<defs
	id="defs4" />
<metadata
	id="metadata7">
	<rdf:RDF>
		<cc:Work
			rdf:about="">
			<dc:format>image/svg+xml</dc:format>
			<dc:type
				rdf:resource="http://purl.org/dc/dcmitype/StillImage" />
			<dc:title></dc:title>
		</cc:Work>
	</rdf:RDF>
</metadata>
<g
	inkscape:label="Layer 1"
	inkscape:groupmode="layer"
	id="layer1">
	<path style="fill:none;stroke:red;stroke-width:1px;stroke-linecap:butt;stroke-linejoin:miter;stroke-opacity:1" d="M 4,823.018 4,858.32 z" id="boundary" inkscape:connector-curvature="0" />
	<path style="fill:none;stroke:red;stroke-width:1px;stroke-linecap:butt;stroke-linejoin:miter;stroke-opacity:1" d="M 4,858.32 11.0605,893.623 z" id="boundary" inkscape:connector-curvature="0" />
	<path style="fill:none;stroke:red;stroke-width:1px;stroke-linecap:butt;stroke-linejoin:miter;stroke-opacity:1" d="M 11.0605,893.623 32.242,921.865 z" id="boundary" inkscape:connector-curvature="0" />
	<path style="fill:none;stroke:red;stroke-width:1px;stroke-linecap:butt;stroke-linejoin:miter;stroke-opacity:1" d="M 32.242,921.865 53.4235,950.107 z" id="boundary" inkscape:connector-curvature="0" />
	<path style="fill:none;stroke:red;stroke-width:1px;stroke-linecap:butt;stroke-linejoin:miter;stroke-opacity:1" d="M 4,823.018 11.0605,787.715 z" id="boundary" inkscape:connector-curvature="0" />
	<path style="fill:none;stroke:red;stroke-width:1px;stroke-linecap:butt;stroke-linejoin:miter;stroke-opacity:1" d="M 53.4235,950.107 85.1957,967.758 z" id="boundary" inkscape:connector-curvature="0" />
	<path style="fill:none;stroke:red;stroke-width:1px;stroke-linecap:butt;stroke-linejoin:miter;stroke-opacity:1" d="M 85.1957,967.758 120.498,981.879 z" id="boundary" inkscape:connector-curvature="0" />
	<path style="fill:none;stroke:red;stroke-width:1px;stroke-linecap:butt;stroke-linejoin:miter;stroke-opacity:1" d="M 120.498,981.879 155.801,988.94 z" id="boundary" inkscape:connector-curvature="0" />
	<path style="fill:none;stroke:red;stroke-width:1px;stroke-linecap:butt;stroke-linejoin:miter;stroke-opacity:1" d="M 155.801,988.94 191.103,996 z" id="boundary" inkscape:connector-curvature="0" />
	<path style="fill:none;stroke:red;stroke-width:1px;stroke-linecap:butt;stroke-linejoin:miter;stroke-opacity:1" d="M 191.103,996 226.406,988.94 z" id="boundary" inkscape:connector-curvature="0" />
	<path style="fill:none;stroke:red;stroke-width:1px;stroke-linecap:butt;stroke-linejoin:miter;stroke-opacity:1" d="M 226.406,988.94 261.708,985.409 z" id="boundary" inkscape:connector-curvature="0" />
	<path style="fill:none;stroke:red;stroke-width:1px;stroke-linecap:butt;stroke-linejoin:miter;stroke-opacity:1" d="M 261.708,985.409 297.011,974.819 z" id="boundary" inkscape:connector-curvature="0" />
	<path style="fill:none;stroke:red;stroke-width:1px;stroke-linecap:butt;stroke-linejoin:miter;stroke-opacity:1" d="M 11.0605,787.715 25.1815,752.413 z" id="boundary" inkscape:connector-curvature="0" />
	<path style="fill:none;stroke:red;stroke-width:1px;stroke-linecap:butt;stroke-linejoin:miter;stroke-opacity:1" d="M 297.011,974.819 328.783,953.637 z" id="boundary" inkscape:connector-curvature="0" />
	<path style="fill:none;stroke:red;stroke-width:1px;stroke-linecap:butt;stroke-linejoin:miter;stroke-opacity:1" d="M 328.783,953.637 349.964,925.395 z" id="boundary" inkscape:connector-curvature="0" />
	<path style="fill:none;stroke:red;stroke-width:1px;stroke-linecap:butt;stroke-linejoin:miter;stroke-opacity:1" d="M 349.964,925.395 367.616,893.623 z" id="boundary" inkscape:connector-curvature="0" />
	<path style="fill:none;stroke:red;stroke-width:1px;stroke-linecap:butt;stroke-linejoin:miter;stroke-opacity:1" d="M 25.1815,752.413 46.363,717.11 z" id="boundary" inkscape:connector-curvature="0" />
	<path style="fill:none;stroke:red;stroke-width:1px;stroke-linecap:butt;stroke-linejoin:miter;stroke-opacity:1" d="M 46.363,717.11 60.484,681.808 z" id="boundary" inkscape:connector-curvature="0" />
	<path style="fill:none;stroke:red;stroke-width:1px;stroke-linecap:butt;stroke-linejoin:miter;stroke-opacity:1" d="M 367.616,893.623 381.737,851.26 z" id="boundary" inkscape:connector-curvature="0" />
	<path style="fill:none;stroke:red;stroke-width:1px;stroke-linecap:butt;stroke-linejoin:miter;stroke-opacity:1" d="M 381.737,851.26 381.737,815.957 z" id="boundary" inkscape:connector-curvature="0" />
	<path style="fill:none;stroke:red;stroke-width:1px;stroke-linecap:butt;stroke-linejoin:miter;stroke-opacity:1" d="M 381.737,815.957 371.146,780.655 z" id="boundary" inkscape:connector-curvature="0" />
	<path style="fill:none;stroke:red;stroke-width:1px;stroke-linecap:butt;stroke-linejoin:miter;stroke-opacity:1" d="M 371.146,780.655 360.555,745.352 z" id="boundary" inkscape:connector-curvature="0" />
	<path style="fill:none;stroke:red;stroke-width:1px;stroke-linecap:butt;stroke-linejoin:miter;stroke-opacity:1" d="M 360.555,745.352 339.374,717.11 z" id="boundary" inkscape:connector-curvature="0" />
	<path style="fill:none;stroke:red;stroke-width:1px;stroke-linecap:butt;stroke-linejoin:miter;stroke-opacity:1" d="M 339.374,717.11 325.253,681.808 z" id="boundary" inkscape:connector-curvature="0" />
	<path style="fill:none;stroke:red;stroke-width:1px;stroke-linecap:butt;stroke-linejoin:miter;stroke-opacity:1" d="M 325.253,681.808 325.253,646.505 z" id="boundary" inkscape:connector-curvature="0" />
	<path style="fill:none;stroke:red;stroke-width:1px;stroke-linecap:butt;stroke-linejoin:miter;stroke-opacity:1" d="M 325.253,646.505 339.374,611.203 z" id="boundary" inkscape:connector-curvature="0" />
	<path style="fill:none;stroke:red;stroke-width:1px;stroke-linecap:butt;stroke-linejoin:miter;stroke-opacity:1" d="M 339.374,611.203 346.434,568.84 z" id="boundary" inkscape:connector-curvature="0" />
	<path style="fill:none;stroke:red;stroke-width:1px;stroke-linecap:butt;stroke-linejoin:miter;stroke-opacity:1" d="M 346.434,568.84 325.253,540.598 z" id="boundary" inkscape:connector-curvature="0" />
	<path style="fill:none;stroke:red;stroke-width:1px;stroke-linecap:butt;stroke-linejoin:miter;stroke-opacity:1" d="M 325.253,540.598 289.95,540.598 z" id="boundary" inkscape:connector-curvature="0" />
	<path style="fill:none;stroke:red;stroke-width:1px;stroke-linecap:butt;stroke-linejoin:miter;stroke-opacity:1" d="M 289.95,540.598 254.648,544.128 z" id="boundary" inkscape:connector-curvature="0" />
	<path style="fill:none;stroke:red;stroke-width:1px;stroke-linecap:butt;stroke-linejoin:miter;stroke-opacity:1" d="M 254.648,544.128 254.648,508.826 z" id="boundary" inkscape:connector-curvature="0" />
	<path style="fill:none;stroke:red;stroke-width:1px;stroke-linecap:butt;stroke-linejoin:miter;stroke-opacity:1" d="M 254.648,508.826 254.648,473.523 z" id="boundary" inkscape:connector-curvature="0" />
	<path style="fill:none;stroke:red;stroke-width:1px;stroke-linecap:butt;stroke-linejoin:miter;stroke-opacity:1" d="M 254.648,473.523 254.648,438.221 z" id="boundary" inkscape:connector-curvature="0" />
	<path style="fill:none;stroke:red;stroke-width:1px;stroke-linecap:butt;stroke-linejoin:miter;stroke-opacity:1" d="M 254.648,438.221 247.587,402.918 z" id="boundary" inkscape:connector-curvature="0" />
	<path style="fill:none;stroke:red;stroke-width:1px;stroke-linecap:butt;stroke-linejoin:miter;stroke-opacity:1" d="M 247.587,402.918 247.587,367.616 z" id="boundary" inkscape:connector-curvature="0" />
	<path style="fill:none;stroke:red;stroke-width:1px;stroke-linecap:butt;stroke-linejoin:miter;stroke-opacity:1" d="M 247.587,367.616 247.587,332.313 z" id="boundary" inkscape:connector-curvature="0" />
	<path style="fill:none;stroke:red;stroke-width:1px;stroke-linecap:butt;stroke-linejoin:miter;stroke-opacity:1" d="M 247.587,332.313 247.587,297.011 z" id="boundary" inkscape:connector-curvature="0" />
	<path style="fill:none;stroke:red;stroke-width:1px;stroke-linecap:butt;stroke-linejoin:miter;stroke-opacity:1" d="M 247.587,297.011 247.587,261.708 z" id="boundary" inkscape:connector-curvature="0" />
	<path style="fill:none;stroke:red;stroke-width:1px;stroke-linecap:butt;stroke-linejoin:miter;stroke-opacity:1" d="M 247.587,261.708 247.587,226.406 z" id="boundary" inkscape:connector-curvature="0" />
	<path style="fill:none;stroke:red;stroke-width:1px;stroke-linecap:butt;stroke-linejoin:miter;stroke-opacity:1" d="M 247.587,226.406 247.587,191.103 z" id="boundary" inkscape:connector-curvature="0" />
	<path style="fill:none;stroke:red;stroke-width:1px;stroke-linecap:butt;stroke-linejoin:miter;stroke-opacity:1" d="M 247.587,191.103 247.587,155.801 z" id="boundary" inkscape:connector-curvature="0" />
	<path style="fill:none;stroke:red;stroke-width:1px;stroke-linecap:butt;stroke-linejoin:miter;stroke-opacity:1" d="M 247.587,155.801 244.057,120.498 z" id="boundary" inkscape:connector-curvature="0" />
	<path style="fill:none;stroke:red;stroke-width:1px;stroke-linecap:butt;stroke-linejoin:miter;stroke-opacity:1" d="M 244.057,120.498 198.164,124.028 z" id="boundary" inkscape:connector-curvature="0" />
	<path style="fill:none;stroke:red;stroke-width:1px;stroke-linecap:butt;stroke-linejoin:miter;stroke-opacity:1" d="M 198.164,124.028 201.694,159.331 z" id="boundary" inkscape:connector-curvature="0" />
	<path style="fill:none;stroke:red;stroke-width:1px;stroke-linecap:butt;stroke-linejoin:miter;stroke-opacity:1" d="M 201.694,159.331 201.694,194.633 z" id="boundary" inkscape:connector-curvature="0" />
	<path style="fill:none;stroke:red;stroke-width:1px;stroke-linecap:butt;stroke-linejoin:miter;stroke-opacity:1" d="M 201.694,194.633 201.694,229.936 z" id="boundary" inkscape:connector-curvature="0" />
	<path style="fill:none;stroke:red;stroke-width:1px;stroke-linecap:butt;stroke-linejoin:miter;stroke-opacity:1" d="M 201.694,229.936 201.694,265.238 z" id="boundary" inkscape:connector-curvature="0" />
	<path style="fill:none;stroke:red;stroke-width:1px;stroke-linecap:butt;stroke-linejoin:miter;stroke-opacity:1" d="M 201.694,265.238 201.694,300.541 z" id="boundary" inkscape:connector-curvature="0" />
	<path style="fill:none;stroke:red;stroke-width:1px;stroke-linecap:butt;stroke-linejoin:miter;stroke-opacity:1" d="M 201.694,300.541 194.633,335.843 z" id="boundary" inkscape:connector-curvature="0" />
	<path style="fill:none;stroke:red;stroke-width:1px;stroke-linecap:butt;stroke-linejoin:miter;stroke-opacity:1" d="M 194.633,335.843 194.633,371.146 z" id="boundary" inkscape:connector-curvature="0" />
	<path style="fill:none;stroke:red;stroke-width:1px;stroke-linecap:butt;stroke-linejoin:miter;stroke-opacity:1" d="M 194.633,371.146 194.633,406.448 z" id="boundary" inkscape:connector-curvature="0" />
	<path style="fill:none;stroke:red;stroke-width:1px;stroke-linecap:butt;stroke-linejoin:miter;stroke-opacity:1" d="M 194.633,406.448 191.103,459.402 z" id="boundary" inkscape:connector-curvature="0" />
	<path style="fill:none;stroke:red;stroke-width:1px;stroke-linecap:butt;stroke-linejoin:miter;stroke-opacity:1" d="M 191.103,459.402 162.861,480.584 z" id="boundary" inkscape:connector-curvature="0" />
	<path style="fill:none;stroke:red;stroke-width:1px;stroke-linecap:butt;stroke-linejoin:miter;stroke-opacity:1" d="M 162.861,480.584 131.089,498.235 z" id="boundary" inkscape:connector-curvature="0" />
	<path style="fill:none;stroke:red;stroke-width:1px;stroke-linecap:butt;stroke-linejoin:miter;stroke-opacity:1" d="M 131.089,498.235 95.7865,505.295 z" id="boundary" inkscape:connector-curvature="0" />
	<path style="fill:none;stroke:red;stroke-width:1px;stroke-linecap:butt;stroke-linejoin:miter;stroke-opacity:1" d="M 95.7865,505.295 64.0142,522.947 z" id="boundary" inkscape:connector-curvature="0" />
	<path style="fill:none;stroke:red;stroke-width:1px;stroke-linecap:butt;stroke-linejoin:miter;stroke-opacity:1" d="M 64.0142,522.947 46.363,554.719 z" id="boundary" inkscape:connector-curvature="0" />
	<path style="fill:none;stroke:red;stroke-width:1px;stroke-linecap:butt;stroke-linejoin:miter;stroke-opacity:1" d="M 46.363,554.719 46.363,590.021 z" id="boundary" inkscape:connector-curvature="0" />
	<path style="fill:none;stroke:red;stroke-width:1px;stroke-linecap:butt;stroke-linejoin:miter;stroke-opacity:1" d="M 46.363,590.021 53.4235,625.324 z" id="boundary" inkscape:connector-curvature="0" />
	<path style="fill:none;stroke:red;stroke-width:1px;stroke-linecap:butt;stroke-linejoin:miter;stroke-opacity:1" d="M 60.484,681.808 53.4235,625.324 z" id="boundary" inkscape:connector-curvature="0" />
	<path style="fill:none;stroke:red;stroke-width:1px;stroke-linecap:butt;stroke-linejoin:miter;stroke-opacity:1" d="M 159.331,25.1815 187.573,4 z" id="boundary" inkscape:connector-curvature="0" />
	<path style="fill:none;stroke:red;stroke-width:1px;stroke-linecap:butt;stroke-linejoin:miter;stroke-opacity:1" d="M 187.573,4 222.875,4 z" id="boundary" inkscape:connector-curvature="0" />
	<path style="fill:none;stroke:red;stroke-width:1px;stroke-linecap:butt;stroke-linejoin:miter;stroke-opacity:1" d="M 159.331,25.1815 166.391,60.484 z" id="boundary" inkscape:connector-curvature="0" />
	<path style="fill:none;stroke:red;stroke-width:1px;stroke-linecap:butt;stroke-linejoin:miter;stroke-opacity:1" d="M 166.391,60.484 173.452,95.7865 z" id="boundary" inkscape:connector-curvature="0" />
	<path style="fill:none;stroke:red;stroke-width:1px;stroke-linecap:butt;stroke-linejoin:miter;stroke-opacity:1" d="M 222.875,4 233.466,39.3025 z" id="boundary" inkscape:connector-curvature="0" />
	<path style="fill:none;stroke:red;stroke-width:1px;stroke-linecap:butt;stroke-linejoin:miter;stroke-opacity:1" d="M 233.466,39.3025 240.527,74.605 z" id="boundary" inkscape:connector-curvature="0" />
	<circle cx="4" cy="823.018" r="4" fill="#0" id="circle0"/>
	<circle cx="4" cy="858.32" r="4" fill="#0" id="circle1"/>
	<circle cx="11.0605" cy="787.715" r="4" fill="#0" id="circle2"/>
	<circle cx="11.0605" cy="893.623" r="4" fill="#0" id="circle3"/>
	<circle cx="25.1815" cy="752.413" r="4" fill="#0" id="circle4"/>
	<circle cx="32.242" cy="921.865" r="4" fill="#0" id="circle5"/>
	<circle cx="46.363" cy="554.719" r="4" fill="#0" id="circle6"/>
	<circle cx="46.363" cy="590.021" r="4" fill="#0" id="circle7"/>
	<circle cx="46.363" cy="717.11" r="4" fill="#0" id="circle8"/>
	<circle cx="53.4235" cy="625.324" r="4" fill="#0" id="circle9"/>
	<circle cx="53.4235" cy="950.107" r="4" fill="#0" id="circle10"/>
	<circle cx="60.484" cy="681.808" r="4" fill="#0" id="circle11"/>
	<circle cx="64.0142" cy="522.947" r="4" fill="#0" id="circle12"/>
	<circle cx="85.1957" cy="967.758" r="4" fill="#0" id="circle13"/>
	<circle cx="95.7865" cy="505.295" r="4" fill="#0" id="circle14"/>
	<circle cx="120.498" cy="981.879" r="4" fill="#0" id="circle15"/>
	<circle cx="131.089" cy="498.235" r="4" fill="#0" id="circle16"/>
	<circle cx="155.801" cy="988.94" r="4" fill="#0" id="circle17"/>
	<circle cx="159.331" cy="25.1815" r="4" fill="#0" id="circle18"/>
	<circle cx="162.861" cy="480.584" r="4" fill="#0" id="circle19"/>
	<circle cx="166.391" cy="60.484" r="4" fill="#0" id="circle20"/>
	<circle cx="173.452" cy="95.7865" r="4" fill="#0" id="circle21"/>
	<circle cx="187.573" cy="4" r="4" fill="#0" id="circle22"/>
	<circle cx="191.103" cy="459.402" r="4" fill="#0" id="circle23"/>
	<circle cx="191.103" cy="996" r="4" fill="#0" id="circle24"/>
	<circle cx="194.633" cy="335.843" r="4" fill="#0" id="circle25"/>
	<circle cx="194.633" cy="371.146" r="4" fill="#0" id="circle26"/>
	<circle cx="194.633" cy="406.448" r="4" fill="#0" id="circle27"/>
	<circle cx="198.164" cy="124.028" r="4" fill="#0" id="circle28"/>
	<circle cx="201.694" cy="159.331" r="4" fill="#0" id="circle29"/>
	<circle cx="201.694" cy="194.633" r="4" fill="#0" id="circle30"/>
	<circle cx="201.694" cy="229.936" r="4" fill="#0" id="circle31"/>
	<circle cx="201.694" cy="265.238" r="4" fill="#0" id="circle32"/>
	<circle cx="201.694" cy="300.541" r="4" fill="#0" id="circle33"/>
	<circle cx="222.875" cy="4" r="4" fill="#0" id="circle34"/>
	<circle cx="226.406" cy="988.94" r="4" fill="#0" id="circle35"/>
	<circle cx="233.466" cy="39.3025" r="4" fill="#0" id="circle36"/>
	<circle cx="240.527" cy="74.605" r="4" fill="#0" id="circle37"/>
	<circle cx="244.057" cy="120.498" r="4" fill="#0" id="circle38"/>
	<circle cx="247.587" cy="155.801" r="4" fill="#0" id="circle39"/>
	<circle cx="247.587" cy="191.103" r="4" fill="#0" id="circle40"/>
	<circle cx="247.587" cy="226.406" r="4" fill="#0" id="circle41"/>
	<circle cx="247.587" cy="261.708" r="4" fill="#0" id="circle42"/>
	<circle cx="247.587" cy="297.011" r="4" fill="#0" id="circle43"/>
	<circle cx="247.587" cy="332.313" r="4" fill="#0" id="circle44"/>
	<circle cx="247.587" cy="367.616" r="4" fill="#0" id="circle45"/>
	<circle cx="247.587" cy="402.918" r="4" fill="#0" id="circle46"/>
	<circle cx="254.648" cy="438.221" r="4" fill="#0" id="circle47"/>
	<circle cx="254.648" cy="473.523" r="4" fill="#0" id="circle48"/>
	<circle cx="254.648" cy="508.826" r="4" fill="#0" id="circle49"/>
	<circle cx="254.648" cy="544.128" r="4" fill="#0" id="circle50"/>
	<circle cx="261.708" cy="985.409" r="4" fill="#0" id="circle51"/>
	<circle cx="289.95" cy="540.598" r="4" fill="#0" id="circle52"/>
	<circle cx="297.011" cy="974.819" r="4" fill="#0" id="circle53"/>
	<circle cx="325.253" cy="540.598" r="4" fill="#0" id="circle54"/>
	<circle cx="325.253" cy="646.505" r="4" fill="#0" id="circle55"/>
	<circle cx="325.253" cy="681.808" r="4" fill="#0" id="circle56"/>
	<circle cx="328.783" cy="953.637" r="4" fill="#0" id="circle57"/>
	<circle cx="339.374" cy="611.203" r="4" fill="#0" id="circle58"/>
	<circle cx="339.374" cy="717.11" r="4" fill="#0" id="circle59"/>
	<circle cx="346.434" cy="568.84" r="4" fill="#0" id="circle60"/>
	<circle cx="349.964" cy="925.395" r="4" fill="#0" id="circle61"/>
	<circle cx="360.555" cy="745.352" r="4" fill="#0" id="circle62"/>
	<circle cx="367.616" cy="893.623" r="4" fill="#0" id="circle63"/>
	<circle cx="371.146" cy="780.655" r="4" fill="#0" id="circle64"/>
	<circle cx="381.737" cy="815.957" r="4" fill="#0" id="circle65"/>
	<circle cx="381.737" cy="851.26" r="4" fill="#0" id="circle66"/>
	</g>
</svg>