<?xml version="1.0" encoding="UTF-8" standalone="no"?>
<!-- Created with CurveBenchmark -->
<svg
	xmlns:dc="http://purl.org/dc/elements/1.1/"
	xmlns:cc="http://creativecommons.org/ns#"
	xmlns:rdf="http://www.w3.org/1999/02/22-rdf-syntax-ns#"
	xmlns:svg="http://www.w3.org/2000/svg"
	xmlns="http://www.w3.org/2000/svg"
	xmlns:sodipodi="http://sodipodi.sourceforge.net/DTD/sodipodi-0.dtd"
	xmlns:inkscape="http://www.inkscape.org/namespaces/inkscape"
	width="1000"
	height="1000"
	id="svg2"
	version="1.1"
	sodipodi:docname="manifold/crawl-fish30aff1.png.txt">
<defs
	id="defs4" />
<metadata
	id="metadata7">
	<rdf:RDF>
		<cc:Work
			rdf:about="">
			<dc:format>image/svg+xml</dc:format>
			<dc:type
				rdf:resource="http://purl.org/dc/dcmitype/StillImage" />
			<dc:title></dc:title>
		</cc:Work>
	</rdf:RDF>
</metadata>
<g
	inkscape:label="Layer 1"
	inkscape:groupmode="layer"
	id="layer1">
	<path style="fill:none;stroke:red;stroke-width:1px;stroke-linecap:butt;stroke-linejoin:miter;stroke-opacity:1" d="M 14.6438,72.1202 14.6438,50.8326 z" id="boundary" inkscape:connector-curvature="0" />
	<path style="fill:none;stroke:red;stroke-width:1px;stroke-linecap:butt;stroke-linejoin:miter;stroke-opacity:1" d="M 14.6438,50.8326 4,31.6738 z" id="boundary" inkscape:connector-curvature="0" />
	<path style="fill:none;stroke:red;stroke-width:1px;stroke-linecap:butt;stroke-linejoin:miter;stroke-opacity:1" d="M 4,31.6738 4,10.3863 z" id="boundary" inkscape:connector-curvature="0" />
	<path style="fill:none;stroke:red;stroke-width:1px;stroke-linecap:butt;stroke-linejoin:miter;stroke-opacity:1" d="M 4,10.3863 25.2876,4 z" id="boundary" inkscape:connector-curvature="0" />
	<path style="fill:none;stroke:red;stroke-width:1px;stroke-linecap:butt;stroke-linejoin:miter;stroke-opacity:1" d="M 25.2876,4 46.5751,8.25751 z" id="boundary" inkscape:connector-curvature="0" />
	<path style="fill:none;stroke:red;stroke-width:1px;stroke-linecap:butt;stroke-linejoin:miter;stroke-opacity:1" d="M 46.5751,8.25751 65.7339,18.9013 z" id="boundary" inkscape:connector-curvature="0" />
	<path style="fill:none;stroke:red;stroke-width:1px;stroke-linecap:butt;stroke-linejoin:miter;stroke-opacity:1" d="M 65.7339,18.9013 80.6352,35.9313 z" id="boundary" inkscape:connector-curvature="0" />
	<path style="fill:none;stroke:red;stroke-width:1px;stroke-linecap:butt;stroke-linejoin:miter;stroke-opacity:1" d="M 80.6352,35.9313 97.6652,48.7039 z" id="boundary" inkscape:connector-curvature="0" />
	<path style="fill:none;stroke:red;stroke-width:1px;stroke-linecap:butt;stroke-linejoin:miter;stroke-opacity:1" d="M 97.6652,48.7039 116.824,59.3476 z" id="boundary" inkscape:connector-curvature="0" />
	<path style="fill:none;stroke:red;stroke-width:1px;stroke-linecap:butt;stroke-linejoin:miter;stroke-opacity:1" d="M 116.824,59.3476 133.854,74.2489 z" id="boundary" inkscape:connector-curvature="0" />
	<path style="fill:none;stroke:red;stroke-width:1px;stroke-linecap:butt;stroke-linejoin:miter;stroke-opacity:1" d="M 133.854,74.2489 153.013,84.8927 z" id="boundary" inkscape:connector-curvature="0" />
	<path style="fill:none;stroke:red;stroke-width:1px;stroke-linecap:butt;stroke-linejoin:miter;stroke-opacity:1" d="M 153.013,84.8927 170.043,99.794 z" id="boundary" inkscape:connector-curvature="0" />
	<path style="fill:none;stroke:red;stroke-width:1px;stroke-linecap:butt;stroke-linejoin:miter;stroke-opacity:1" d="M 170.043,99.794 189.202,110.438 z" id="boundary" inkscape:connector-curvature="0" />
	<path style="fill:none;stroke:red;stroke-width:1px;stroke-linecap:butt;stroke-linejoin:miter;stroke-opacity:1" d="M 189.202,110.438 206.232,125.339 z" id="boundary" inkscape:connector-curvature="0" />
	<path style="fill:none;stroke:red;stroke-width:1px;stroke-linecap:butt;stroke-linejoin:miter;stroke-opacity:1" d="M 206.232,125.339 219.004,142.369 z" id="boundary" inkscape:connector-curvature="0" />
	<path style="fill:none;stroke:red;stroke-width:1px;stroke-linecap:butt;stroke-linejoin:miter;stroke-opacity:1" d="M 219.004,142.369 238.163,153.013 z" id="boundary" inkscape:connector-curvature="0" />
	<path style="fill:none;stroke:red;stroke-width:1px;stroke-linecap:butt;stroke-linejoin:miter;stroke-opacity:1" d="M 238.163,153.013 255.193,165.785 z" id="boundary" inkscape:connector-curvature="0" />
	<path style="fill:none;stroke:red;stroke-width:1px;stroke-linecap:butt;stroke-linejoin:miter;stroke-opacity:1" d="M 255.193,165.785 272.223,180.687 z" id="boundary" inkscape:connector-curvature="0" />
	<path style="fill:none;stroke:red;stroke-width:1px;stroke-linecap:butt;stroke-linejoin:miter;stroke-opacity:1" d="M 272.223,180.687 287.124,197.717 z" id="boundary" inkscape:connector-curvature="0" />
	<path style="fill:none;stroke:red;stroke-width:1px;stroke-linecap:butt;stroke-linejoin:miter;stroke-opacity:1" d="M 287.124,197.717 304.155,212.618 z" id="boundary" inkscape:connector-curvature="0" />
	<path style="fill:none;stroke:red;stroke-width:1px;stroke-linecap:butt;stroke-linejoin:miter;stroke-opacity:1" d="M 304.155,212.618 319.056,229.648 z" id="boundary" inkscape:connector-curvature="0" />
	<path style="fill:none;stroke:red;stroke-width:1px;stroke-linecap:butt;stroke-linejoin:miter;stroke-opacity:1" d="M 319.056,229.648 336.086,244.549 z" id="boundary" inkscape:connector-curvature="0" />
	<path style="fill:none;stroke:red;stroke-width:1px;stroke-linecap:butt;stroke-linejoin:miter;stroke-opacity:1" d="M 336.086,244.549 350.987,261.579 z" id="boundary" inkscape:connector-curvature="0" />
	<path style="fill:none;stroke:red;stroke-width:1px;stroke-linecap:butt;stroke-linejoin:miter;stroke-opacity:1" d="M 350.987,261.579 368.017,276.481 z" id="boundary" inkscape:connector-curvature="0" />
	<path style="fill:none;stroke:red;stroke-width:1px;stroke-linecap:butt;stroke-linejoin:miter;stroke-opacity:1" d="M 14.6438,72.1202 29.5451,89.1502 z" id="boundary" inkscape:connector-curvature="0" />
	<path style="fill:none;stroke:red;stroke-width:1px;stroke-linecap:butt;stroke-linejoin:miter;stroke-opacity:1" d="M 29.5451,89.1502 40.1888,108.309 z" id="boundary" inkscape:connector-curvature="0" />
	<path style="fill:none;stroke:red;stroke-width:1px;stroke-linecap:butt;stroke-linejoin:miter;stroke-opacity:1" d="M 368.017,276.481 376.532,297.768 z" id="boundary" inkscape:connector-curvature="0" />
	<path style="fill:none;stroke:red;stroke-width:1px;stroke-linecap:butt;stroke-linejoin:miter;stroke-opacity:1" d="M 376.532,297.768 393.562,312.67 z" id="boundary" inkscape:connector-curvature="0" />
	<path style="fill:none;stroke:red;stroke-width:1px;stroke-linecap:butt;stroke-linejoin:miter;stroke-opacity:1" d="M 393.562,312.67 408.464,329.7 z" id="boundary" inkscape:connector-curvature="0" />
	<path style="fill:none;stroke:red;stroke-width:1px;stroke-linecap:butt;stroke-linejoin:miter;stroke-opacity:1" d="M 408.464,329.7 425.494,344.601 z" id="boundary" inkscape:connector-curvature="0" />
	<path style="fill:none;stroke:red;stroke-width:1px;stroke-linecap:butt;stroke-linejoin:miter;stroke-opacity:1" d="M 425.494,344.601 444.652,355.245 z" id="boundary" inkscape:connector-curvature="0" />
	<path style="fill:none;stroke:red;stroke-width:1px;stroke-linecap:butt;stroke-linejoin:miter;stroke-opacity:1" d="M 444.652,355.245 465.94,355.245 z" id="boundary" inkscape:connector-curvature="0" />
	<path style="fill:none;stroke:red;stroke-width:1px;stroke-linecap:butt;stroke-linejoin:miter;stroke-opacity:1" d="M 465.94,355.245 485.099,365.888 z" id="boundary" inkscape:connector-curvature="0" />
	<path style="fill:none;stroke:red;stroke-width:1px;stroke-linecap:butt;stroke-linejoin:miter;stroke-opacity:1" d="M 485.099,365.888 506.386,365.888 z" id="boundary" inkscape:connector-curvature="0" />
	<path style="fill:none;stroke:red;stroke-width:1px;stroke-linecap:butt;stroke-linejoin:miter;stroke-opacity:1" d="M 506.386,365.888 527.674,372.275 z" id="boundary" inkscape:connector-curvature="0" />
	<path style="fill:none;stroke:red;stroke-width:1px;stroke-linecap:butt;stroke-linejoin:miter;stroke-opacity:1" d="M 527.674,372.275 546.833,382.918 z" id="boundary" inkscape:connector-curvature="0" />
	<path style="fill:none;stroke:red;stroke-width:1px;stroke-linecap:butt;stroke-linejoin:miter;stroke-opacity:1" d="M 546.833,382.918 559.605,399.948 z" id="boundary" inkscape:connector-curvature="0" />
	<path style="fill:none;stroke:red;stroke-width:1px;stroke-linecap:butt;stroke-linejoin:miter;stroke-opacity:1" d="M 40.1888,108.309 48.7039,129.597 z" id="boundary" inkscape:connector-curvature="0" />
	<path style="fill:none;stroke:red;stroke-width:1px;stroke-linecap:butt;stroke-linejoin:miter;stroke-opacity:1" d="M 48.7039,129.597 57.2189,150.884 z" id="boundary" inkscape:connector-curvature="0" />
	<path style="fill:none;stroke:red;stroke-width:1px;stroke-linecap:butt;stroke-linejoin:miter;stroke-opacity:1" d="M 57.2189,150.884 67.8627,170.043 z" id="boundary" inkscape:connector-curvature="0" />
	<path style="fill:none;stroke:red;stroke-width:1px;stroke-linecap:butt;stroke-linejoin:miter;stroke-opacity:1" d="M 67.8627,170.043 78.5064,189.202 z" id="boundary" inkscape:connector-curvature="0" />
	<path style="fill:none;stroke:red;stroke-width:1px;stroke-linecap:butt;stroke-linejoin:miter;stroke-opacity:1" d="M 78.5064,189.202 89.1502,208.361 z" id="boundary" inkscape:connector-curvature="0" />
	<path style="fill:none;stroke:red;stroke-width:1px;stroke-linecap:butt;stroke-linejoin:miter;stroke-opacity:1" d="M 89.1502,208.361 99.794,227.519 z" id="boundary" inkscape:connector-curvature="0" />
	<path style="fill:none;stroke:red;stroke-width:1px;stroke-linecap:butt;stroke-linejoin:miter;stroke-opacity:1" d="M 99.794,227.519 110.438,246.678 z" id="boundary" inkscape:connector-curvature="0" />
	<path style="fill:none;stroke:red;stroke-width:1px;stroke-linecap:butt;stroke-linejoin:miter;stroke-opacity:1" d="M 110.438,246.678 121.082,265.837 z" id="boundary" inkscape:connector-curvature="0" />
	<path style="fill:none;stroke:red;stroke-width:1px;stroke-linecap:butt;stroke-linejoin:miter;stroke-opacity:1" d="M 121.082,265.837 138.112,280.738 z" id="boundary" inkscape:connector-curvature="0" />
	<path style="fill:none;stroke:red;stroke-width:1px;stroke-linecap:butt;stroke-linejoin:miter;stroke-opacity:1" d="M 138.112,280.738 153.013,297.768 z" id="boundary" inkscape:connector-curvature="0" />
	<path style="fill:none;stroke:red;stroke-width:1px;stroke-linecap:butt;stroke-linejoin:miter;stroke-opacity:1" d="M 153.013,297.768 163.657,316.927 z" id="boundary" inkscape:connector-curvature="0" />
	<path style="fill:none;stroke:red;stroke-width:1px;stroke-linecap:butt;stroke-linejoin:miter;stroke-opacity:1" d="M 163.657,316.927 178.558,333.957 z" id="boundary" inkscape:connector-curvature="0" />
	<path style="fill:none;stroke:red;stroke-width:1px;stroke-linecap:butt;stroke-linejoin:miter;stroke-opacity:1" d="M 178.558,333.957 189.202,353.116 z" id="boundary" inkscape:connector-curvature="0" />
	<path style="fill:none;stroke:red;stroke-width:1px;stroke-linecap:butt;stroke-linejoin:miter;stroke-opacity:1" d="M 189.202,353.116 206.232,368.017 z" id="boundary" inkscape:connector-curvature="0" />
	<path style="fill:none;stroke:red;stroke-width:1px;stroke-linecap:butt;stroke-linejoin:miter;stroke-opacity:1" d="M 206.232,368.017 216.876,387.176 z" id="boundary" inkscape:connector-curvature="0" />
	<path style="fill:none;stroke:red;stroke-width:1px;stroke-linecap:butt;stroke-linejoin:miter;stroke-opacity:1" d="M 216.876,387.176 229.648,404.206 z" id="boundary" inkscape:connector-curvature="0" />
	<path style="fill:none;stroke:red;stroke-width:1px;stroke-linecap:butt;stroke-linejoin:miter;stroke-opacity:1" d="M 229.648,404.206 244.549,421.236 z" id="boundary" inkscape:connector-curvature="0" />
	<path style="fill:none;stroke:red;stroke-width:1px;stroke-linecap:butt;stroke-linejoin:miter;stroke-opacity:1" d="M 244.549,421.236 255.193,440.395 z" id="boundary" inkscape:connector-curvature="0" />
	<path style="fill:none;stroke:red;stroke-width:1px;stroke-linecap:butt;stroke-linejoin:miter;stroke-opacity:1" d="M 255.193,440.395 270.094,457.425 z" id="boundary" inkscape:connector-curvature="0" />
	<path style="fill:none;stroke:red;stroke-width:1px;stroke-linecap:butt;stroke-linejoin:miter;stroke-opacity:1" d="M 270.094,457.425 265.837,482.97 z" id="boundary" inkscape:connector-curvature="0" />
	<path style="fill:none;stroke:red;stroke-width:1px;stroke-linecap:butt;stroke-linejoin:miter;stroke-opacity:1" d="M 265.837,482.97 248.807,500 z" id="boundary" inkscape:connector-curvature="0" />
	<path style="fill:none;stroke:red;stroke-width:1px;stroke-linecap:butt;stroke-linejoin:miter;stroke-opacity:1" d="M 248.807,500 238.163,521.288 z" id="boundary" inkscape:connector-curvature="0" />
	<path style="fill:none;stroke:red;stroke-width:1px;stroke-linecap:butt;stroke-linejoin:miter;stroke-opacity:1" d="M 238.163,521.288 248.807,540.446 z" id="boundary" inkscape:connector-curvature="0" />
	<path style="fill:none;stroke:red;stroke-width:1px;stroke-linecap:butt;stroke-linejoin:miter;stroke-opacity:1" d="M 248.807,540.446 259.451,559.605 z" id="boundary" inkscape:connector-curvature="0" />
	<path style="fill:none;stroke:red;stroke-width:1px;stroke-linecap:butt;stroke-linejoin:miter;stroke-opacity:1" d="M 259.451,559.605 272.223,576.635 z" id="boundary" inkscape:connector-curvature="0" />
	<path style="fill:none;stroke:red;stroke-width:1px;stroke-linecap:butt;stroke-linejoin:miter;stroke-opacity:1" d="M 272.223,576.635 293.511,585.15 z" id="boundary" inkscape:connector-curvature="0" />
	<path style="fill:none;stroke:red;stroke-width:1px;stroke-linecap:butt;stroke-linejoin:miter;stroke-opacity:1" d="M 293.511,585.15 314.798,591.536 z" id="boundary" inkscape:connector-curvature="0" />
	<path style="fill:none;stroke:red;stroke-width:1px;stroke-linecap:butt;stroke-linejoin:miter;stroke-opacity:1" d="M 314.798,591.536 336.086,591.536 z" id="boundary" inkscape:connector-curvature="0" />
	<path style="fill:none;stroke:red;stroke-width:1px;stroke-linecap:butt;stroke-linejoin:miter;stroke-opacity:1" d="M 336.086,591.536 346.73,570.249 z" id="boundary" inkscape:connector-curvature="0" />
	<path style="fill:none;stroke:red;stroke-width:1px;stroke-linecap:butt;stroke-linejoin:miter;stroke-opacity:1" d="M 346.73,570.249 346.73,548.961 z" id="boundary" inkscape:connector-curvature="0" />
	<path style="fill:none;stroke:red;stroke-width:1px;stroke-linecap:butt;stroke-linejoin:miter;stroke-opacity:1" d="M 346.73,548.961 368.017,553.219 z" id="boundary" inkscape:connector-curvature="0" />
	<path style="fill:none;stroke:red;stroke-width:1px;stroke-linecap:butt;stroke-linejoin:miter;stroke-opacity:1" d="M 368.017,553.219 376.532,574.506 z" id="boundary" inkscape:connector-curvature="0" />
	<path style="fill:none;stroke:red;stroke-width:1px;stroke-linecap:butt;stroke-linejoin:miter;stroke-opacity:1" d="M 376.532,574.506 397.82,580.893 z" id="boundary" inkscape:connector-curvature="0" />
	<path style="fill:none;stroke:red;stroke-width:1px;stroke-linecap:butt;stroke-linejoin:miter;stroke-opacity:1" d="M 397.82,580.893 410.592,597.923 z" id="boundary" inkscape:connector-curvature="0" />
	<path style="fill:none;stroke:red;stroke-width:1px;stroke-linecap:butt;stroke-linejoin:miter;stroke-opacity:1" d="M 410.592,597.923 427.622,612.824 z" id="boundary" inkscape:connector-curvature="0" />
	<path style="fill:none;stroke:red;stroke-width:1px;stroke-linecap:butt;stroke-linejoin:miter;stroke-opacity:1" d="M 427.622,612.824 440.395,629.854 z" id="boundary" inkscape:connector-curvature="0" />
	<path style="fill:none;stroke:red;stroke-width:1px;stroke-linecap:butt;stroke-linejoin:miter;stroke-opacity:1" d="M 440.395,629.854 451.039,649.013 z" id="boundary" inkscape:connector-curvature="0" />
	<path style="fill:none;stroke:red;stroke-width:1px;stroke-linecap:butt;stroke-linejoin:miter;stroke-opacity:1" d="M 451.039,649.013 472.326,655.399 z" id="boundary" inkscape:connector-curvature="0" />
	<path style="fill:none;stroke:red;stroke-width:1px;stroke-linecap:butt;stroke-linejoin:miter;stroke-opacity:1" d="M 472.326,655.399 485.099,672.429 z" id="boundary" inkscape:connector-curvature="0" />
	<path style="fill:none;stroke:red;stroke-width:1px;stroke-linecap:butt;stroke-linejoin:miter;stroke-opacity:1" d="M 485.099,672.429 495.742,691.588 z" id="boundary" inkscape:connector-curvature="0" />
	<path style="fill:none;stroke:red;stroke-width:1px;stroke-linecap:butt;stroke-linejoin:miter;stroke-opacity:1" d="M 495.742,691.588 504.258,712.876 z" id="boundary" inkscape:connector-curvature="0" />
	<path style="fill:none;stroke:red;stroke-width:1px;stroke-linecap:butt;stroke-linejoin:miter;stroke-opacity:1" d="M 504.258,712.876 504.258,734.163 z" id="boundary" inkscape:connector-curvature="0" />
	<path style="fill:none;stroke:red;stroke-width:1px;stroke-linecap:butt;stroke-linejoin:miter;stroke-opacity:1" d="M 504.258,734.163 504.258,755.451 z" id="boundary" inkscape:connector-curvature="0" />
	<path style="fill:none;stroke:red;stroke-width:1px;stroke-linecap:butt;stroke-linejoin:miter;stroke-opacity:1" d="M 504.258,755.451 517.03,772.481 z" id="boundary" inkscape:connector-curvature="0" />
	<path style="fill:none;stroke:red;stroke-width:1px;stroke-linecap:butt;stroke-linejoin:miter;stroke-opacity:1" d="M 517.03,772.481 536.189,783.124 z" id="boundary" inkscape:connector-curvature="0" />
	<path style="fill:none;stroke:red;stroke-width:1px;stroke-linecap:butt;stroke-linejoin:miter;stroke-opacity:1" d="M 536.189,783.124 557.476,783.124 z" id="boundary" inkscape:connector-curvature="0" />
	<path style="fill:none;stroke:red;stroke-width:1px;stroke-linecap:butt;stroke-linejoin:miter;stroke-opacity:1" d="M 557.476,783.124 578.764,783.124 z" id="boundary" inkscape:connector-curvature="0" />
	<path style="fill:none;stroke:red;stroke-width:1px;stroke-linecap:butt;stroke-linejoin:miter;stroke-opacity:1" d="M 578.764,783.124 600.052,783.124 z" id="boundary" inkscape:connector-curvature="0" />
	<path style="fill:none;stroke:red;stroke-width:1px;stroke-linecap:butt;stroke-linejoin:miter;stroke-opacity:1" d="M 600.052,783.124 621.339,783.124 z" id="boundary" inkscape:connector-curvature="0" />
	<path style="fill:none;stroke:red;stroke-width:1px;stroke-linecap:butt;stroke-linejoin:miter;stroke-opacity:1" d="M 621.339,783.124 640.498,793.768 z" id="boundary" inkscape:connector-curvature="0" />
	<path style="fill:none;stroke:red;stroke-width:1px;stroke-linecap:butt;stroke-linejoin:miter;stroke-opacity:1" d="M 640.498,793.768 653.27,810.798 z" id="boundary" inkscape:connector-curvature="0" />
	<path style="fill:none;stroke:red;stroke-width:1px;stroke-linecap:butt;stroke-linejoin:miter;stroke-opacity:1" d="M 653.27,810.798 663.914,829.957 z" id="boundary" inkscape:connector-curvature="0" />
	<path style="fill:none;stroke:red;stroke-width:1px;stroke-linecap:butt;stroke-linejoin:miter;stroke-opacity:1" d="M 663.914,829.957 663.914,851.245 z" id="boundary" inkscape:connector-curvature="0" />
	<path style="fill:none;stroke:red;stroke-width:1px;stroke-linecap:butt;stroke-linejoin:miter;stroke-opacity:1" d="M 663.914,851.245 674.558,870.403 z" id="boundary" inkscape:connector-curvature="0" />
	<path style="fill:none;stroke:red;stroke-width:1px;stroke-linecap:butt;stroke-linejoin:miter;stroke-opacity:1" d="M 674.558,870.403 685.202,889.562 z" id="boundary" inkscape:connector-curvature="0" />
	<path style="fill:none;stroke:red;stroke-width:1px;stroke-linecap:butt;stroke-linejoin:miter;stroke-opacity:1" d="M 685.202,889.562 685.202,910.85 z" id="boundary" inkscape:connector-curvature="0" />
	<path style="fill:none;stroke:red;stroke-width:1px;stroke-linecap:butt;stroke-linejoin:miter;stroke-opacity:1" d="M 685.202,910.85 695.845,930.009 z" id="boundary" inkscape:connector-curvature="0" />
	<path style="fill:none;stroke:red;stroke-width:1px;stroke-linecap:butt;stroke-linejoin:miter;stroke-opacity:1" d="M 695.845,930.009 706.489,949.167 z" id="boundary" inkscape:connector-curvature="0" />
	<path style="fill:none;stroke:red;stroke-width:1px;stroke-linecap:butt;stroke-linejoin:miter;stroke-opacity:1" d="M 706.489,949.167 708.618,970.455 z" id="boundary" inkscape:connector-curvature="0" />
	<path style="fill:none;stroke:red;stroke-width:1px;stroke-linecap:butt;stroke-linejoin:miter;stroke-opacity:1" d="M 708.618,970.455 725.648,985.356 z" id="boundary" inkscape:connector-curvature="0" />
	<path style="fill:none;stroke:red;stroke-width:1px;stroke-linecap:butt;stroke-linejoin:miter;stroke-opacity:1" d="M 725.648,985.356 744.807,996 z" id="boundary" inkscape:connector-curvature="0" />
	<path style="fill:none;stroke:red;stroke-width:1px;stroke-linecap:butt;stroke-linejoin:miter;stroke-opacity:1" d="M 744.807,996 759.708,978.97 z" id="boundary" inkscape:connector-curvature="0" />
	<path style="fill:none;stroke:red;stroke-width:1px;stroke-linecap:butt;stroke-linejoin:miter;stroke-opacity:1" d="M 759.708,978.97 761.837,953.425 z" id="boundary" inkscape:connector-curvature="0" />
	<path style="fill:none;stroke:red;stroke-width:1px;stroke-linecap:butt;stroke-linejoin:miter;stroke-opacity:1" d="M 761.837,953.425 772.481,932.137 z" id="boundary" inkscape:connector-curvature="0" />
	<path style="fill:none;stroke:red;stroke-width:1px;stroke-linecap:butt;stroke-linejoin:miter;stroke-opacity:1" d="M 772.481,932.137 791.639,921.494 z" id="boundary" inkscape:connector-curvature="0" />
	<path style="fill:none;stroke:red;stroke-width:1px;stroke-linecap:butt;stroke-linejoin:miter;stroke-opacity:1" d="M 791.639,921.494 812.927,921.494 z" id="boundary" inkscape:connector-curvature="0" />
	<path style="fill:none;stroke:red;stroke-width:1px;stroke-linecap:butt;stroke-linejoin:miter;stroke-opacity:1" d="M 812.927,921.494 832.086,932.137 z" id="boundary" inkscape:connector-curvature="0" />
	<path style="fill:none;stroke:red;stroke-width:1px;stroke-linecap:butt;stroke-linejoin:miter;stroke-opacity:1" d="M 832.086,932.137 853.373,932.137 z" id="boundary" inkscape:connector-curvature="0" />
	<path style="fill:none;stroke:red;stroke-width:1px;stroke-linecap:butt;stroke-linejoin:miter;stroke-opacity:1" d="M 853.373,932.137 872.532,942.781 z" id="boundary" inkscape:connector-curvature="0" />
	<path style="fill:none;stroke:red;stroke-width:1px;stroke-linecap:butt;stroke-linejoin:miter;stroke-opacity:1" d="M 872.532,942.781 893.82,942.781 z" id="boundary" inkscape:connector-curvature="0" />
	<path style="fill:none;stroke:red;stroke-width:1px;stroke-linecap:butt;stroke-linejoin:miter;stroke-opacity:1" d="M 893.82,942.781 915.107,940.652 z" id="boundary" inkscape:connector-curvature="0" />
	<path style="fill:none;stroke:red;stroke-width:1px;stroke-linecap:butt;stroke-linejoin:miter;stroke-opacity:1" d="M 559.605,399.948 555.348,427.622 z" id="boundary" inkscape:connector-curvature="0" />
	<path style="fill:none;stroke:red;stroke-width:1px;stroke-linecap:butt;stroke-linejoin:miter;stroke-opacity:1" d="M 555.348,427.622 544.704,448.91 z" id="boundary" inkscape:connector-curvature="0" />
	<path style="fill:none;stroke:red;stroke-width:1px;stroke-linecap:butt;stroke-linejoin:miter;stroke-opacity:1" d="M 544.704,448.91 534.06,470.197 z" id="boundary" inkscape:connector-curvature="0" />
	<path style="fill:none;stroke:red;stroke-width:1px;stroke-linecap:butt;stroke-linejoin:miter;stroke-opacity:1" d="M 534.06,470.197 517.03,485.099 z" id="boundary" inkscape:connector-curvature="0" />
	<path style="fill:none;stroke:red;stroke-width:1px;stroke-linecap:butt;stroke-linejoin:miter;stroke-opacity:1" d="M 517.03,485.099 534.06,497.871 z" id="boundary" inkscape:connector-curvature="0" />
	<path style="fill:none;stroke:red;stroke-width:1px;stroke-linecap:butt;stroke-linejoin:miter;stroke-opacity:1" d="M 534.06,497.871 544.704,517.03 z" id="boundary" inkscape:connector-curvature="0" />
	<path style="fill:none;stroke:red;stroke-width:1px;stroke-linecap:butt;stroke-linejoin:miter;stroke-opacity:1" d="M 544.704,517.03 553.219,538.318 z" id="boundary" inkscape:connector-curvature="0" />
	<path style="fill:none;stroke:red;stroke-width:1px;stroke-linecap:butt;stroke-linejoin:miter;stroke-opacity:1" d="M 553.219,538.318 570.249,553.219 z" id="boundary" inkscape:connector-curvature="0" />
	<path style="fill:none;stroke:red;stroke-width:1px;stroke-linecap:butt;stroke-linejoin:miter;stroke-opacity:1" d="M 570.249,553.219 578.764,574.506 z" id="boundary" inkscape:connector-curvature="0" />
	<path style="fill:none;stroke:red;stroke-width:1px;stroke-linecap:butt;stroke-linejoin:miter;stroke-opacity:1" d="M 578.764,574.506 595.794,589.408 z" id="boundary" inkscape:connector-curvature="0" />
	<path style="fill:none;stroke:red;stroke-width:1px;stroke-linecap:butt;stroke-linejoin:miter;stroke-opacity:1" d="M 595.794,589.408 610.695,606.438 z" id="boundary" inkscape:connector-curvature="0" />
	<path style="fill:none;stroke:red;stroke-width:1px;stroke-linecap:butt;stroke-linejoin:miter;stroke-opacity:1" d="M 610.695,606.438 621.339,625.597 z" id="boundary" inkscape:connector-curvature="0" />
	<path style="fill:none;stroke:red;stroke-width:1px;stroke-linecap:butt;stroke-linejoin:miter;stroke-opacity:1" d="M 621.339,625.597 634.112,642.627 z" id="boundary" inkscape:connector-curvature="0" />
	<path style="fill:none;stroke:red;stroke-width:1px;stroke-linecap:butt;stroke-linejoin:miter;stroke-opacity:1" d="M 634.112,642.627 644.755,661.785 z" id="boundary" inkscape:connector-curvature="0" />
	<path style="fill:none;stroke:red;stroke-width:1px;stroke-linecap:butt;stroke-linejoin:miter;stroke-opacity:1" d="M 644.755,661.785 661.785,676.687 z" id="boundary" inkscape:connector-curvature="0" />
	<path style="fill:none;stroke:red;stroke-width:1px;stroke-linecap:butt;stroke-linejoin:miter;stroke-opacity:1" d="M 661.785,676.687 670.3,697.974 z" id="boundary" inkscape:connector-curvature="0" />
	<path style="fill:none;stroke:red;stroke-width:1px;stroke-linecap:butt;stroke-linejoin:miter;stroke-opacity:1" d="M 670.3,697.974 687.33,712.876 z" id="boundary" inkscape:connector-curvature="0" />
	<path style="fill:none;stroke:red;stroke-width:1px;stroke-linecap:butt;stroke-linejoin:miter;stroke-opacity:1" d="M 687.33,712.876 702.232,729.906 z" id="boundary" inkscape:connector-curvature="0" />
	<path style="fill:none;stroke:red;stroke-width:1px;stroke-linecap:butt;stroke-linejoin:miter;stroke-opacity:1" d="M 702.232,729.906 697.974,751.193 z" id="boundary" inkscape:connector-curvature="0" />
	<path style="fill:none;stroke:red;stroke-width:1px;stroke-linecap:butt;stroke-linejoin:miter;stroke-opacity:1" d="M 697.974,751.193 708.618,770.352 z" id="boundary" inkscape:connector-curvature="0" />
	<path style="fill:none;stroke:red;stroke-width:1px;stroke-linecap:butt;stroke-linejoin:miter;stroke-opacity:1" d="M 708.618,770.352 719.262,789.511 z" id="boundary" inkscape:connector-curvature="0" />
	<path style="fill:none;stroke:red;stroke-width:1px;stroke-linecap:butt;stroke-linejoin:miter;stroke-opacity:1" d="M 719.262,789.511 736.292,804.412 z" id="boundary" inkscape:connector-curvature="0" />
	<path style="fill:none;stroke:red;stroke-width:1px;stroke-linecap:butt;stroke-linejoin:miter;stroke-opacity:1" d="M 736.292,804.412 755.451,815.056 z" id="boundary" inkscape:connector-curvature="0" />
	<path style="fill:none;stroke:red;stroke-width:1px;stroke-linecap:butt;stroke-linejoin:miter;stroke-opacity:1" d="M 755.451,815.056 766.094,834.215 z" id="boundary" inkscape:connector-curvature="0" />
	<path style="fill:none;stroke:red;stroke-width:1px;stroke-linecap:butt;stroke-linejoin:miter;stroke-opacity:1" d="M 766.094,834.215 785.253,844.858 z" id="boundary" inkscape:connector-curvature="0" />
	<path style="fill:none;stroke:red;stroke-width:1px;stroke-linecap:butt;stroke-linejoin:miter;stroke-opacity:1" d="M 785.253,844.858 804.412,855.502 z" id="boundary" inkscape:connector-curvature="0" />
	<path style="fill:none;stroke:red;stroke-width:1px;stroke-linecap:butt;stroke-linejoin:miter;stroke-opacity:1" d="M 804.412,855.502 825.7,861.888 z" id="boundary" inkscape:connector-curvature="0" />
	<path style="fill:none;stroke:red;stroke-width:1px;stroke-linecap:butt;stroke-linejoin:miter;stroke-opacity:1" d="M 825.7,861.888 842.73,876.79 z" id="boundary" inkscape:connector-curvature="0" />
	<path style="fill:none;stroke:red;stroke-width:1px;stroke-linecap:butt;stroke-linejoin:miter;stroke-opacity:1" d="M 842.73,876.79 861.888,887.433 z" id="boundary" inkscape:connector-curvature="0" />
	<path style="fill:none;stroke:red;stroke-width:1px;stroke-linecap:butt;stroke-linejoin:miter;stroke-opacity:1" d="M 861.888,887.433 881.047,898.077 z" id="boundary" inkscape:connector-curvature="0" />
	<path style="fill:none;stroke:red;stroke-width:1px;stroke-linecap:butt;stroke-linejoin:miter;stroke-opacity:1" d="M 881.047,898.077 900.206,908.721 z" id="boundary" inkscape:connector-curvature="0" />
	<path style="fill:none;stroke:red;stroke-width:1px;stroke-linecap:butt;stroke-linejoin:miter;stroke-opacity:1" d="M 915.107,940.652 900.206,908.721 z" id="boundary" inkscape:connector-curvature="0" />
	<circle cx="4" cy="10.3863" r="4" fill="#0" id="circle0"/>
	<circle cx="4" cy="31.6738" r="4" fill="#0" id="circle1"/>
	<circle cx="14.6438" cy="50.8326" r="4" fill="#0" id="circle2"/>
	<circle cx="14.6438" cy="72.1202" r="4" fill="#0" id="circle3"/>
	<circle cx="25.2876" cy="4" r="4" fill="#0" id="circle4"/>
	<circle cx="29.5451" cy="89.1502" r="4" fill="#0" id="circle5"/>
	<circle cx="40.1888" cy="108.309" r="4" fill="#0" id="circle6"/>
	<circle cx="46.5751" cy="8.25751" r="4" fill="#0" id="circle7"/>
	<circle cx="48.7039" cy="129.597" r="4" fill="#0" id="circle8"/>
	<circle cx="57.2189" cy="150.884" r="4" fill="#0" id="circle9"/>
	<circle cx="65.7339" cy="18.9013" r="4" fill="#0" id="circle10"/>
	<circle cx="67.8627" cy="170.043" r="4" fill="#0" id="circle11"/>
	<circle cx="78.5064" cy="189.202" r="4" fill="#0" id="circle12"/>
	<circle cx="80.6352" cy="35.9313" r="4" fill="#0" id="circle13"/>
	<circle cx="89.1502" cy="208.361" r="4" fill="#0" id="circle14"/>
	<circle cx="97.6652" cy="48.7039" r="4" fill="#0" id="circle15"/>
	<circle cx="99.794" cy="227.519" r="4" fill="#0" id="circle16"/>
	<circle cx="110.438" cy="246.678" r="4" fill="#0" id="circle17"/>
	<circle cx="116.824" cy="59.3476" r="4" fill="#0" id="circle18"/>
	<circle cx="121.082" cy="265.837" r="4" fill="#0" id="circle19"/>
	<circle cx="133.854" cy="74.2489" r="4" fill="#0" id="circle20"/>
	<circle cx="138.112" cy="280.738" r="4" fill="#0" id="circle21"/>
	<circle cx="153.013" cy="84.8927" r="4" fill="#0" id="circle22"/>
	<circle cx="153.013" cy="297.768" r="4" fill="#0" id="circle23"/>
	<circle cx="163.657" cy="316.927" r="4" fill="#0" id="circle24"/>
	<circle cx="170.043" cy="99.794" r="4" fill="#0" id="circle25"/>
	<circle cx="178.558" cy="333.957" r="4" fill="#0" id="circle26"/>
	<circle cx="189.202" cy="110.438" r="4" fill="#0" id="circle27"/>
	<circle cx="189.202" cy="353.116" r="4" fill="#0" id="circle28"/>
	<circle cx="206.232" cy="125.339" r="4" fill="#0" id="circle29"/>
	<circle cx="206.232" cy="368.017" r="4" fill="#0" id="circle30"/>
	<circle cx="216.876" cy="387.176" r="4" fill="#0" id="circle31"/>
	<circle cx="219.004" cy="142.369" r="4" fill="#0" id="circle32"/>
	<circle cx="229.648" cy="404.206" r="4" fill="#0" id="circle33"/>
	<circle cx="238.163" cy="153.013" r="4" fill="#0" id="circle34"/>
	<circle cx="238.163" cy="521.288" r="4" fill="#0" id="circle35"/>
	<circle cx="244.549" cy="421.236" r="4" fill="#0" id="circle36"/>
	<circle cx="248.807" cy="500" r="4" fill="#0" id="circle37"/>
	<circle cx="248.807" cy="540.446" r="4" fill="#0" id="circle38"/>
	<circle cx="255.193" cy="165.785" r="4" fill="#0" id="circle39"/>
	<circle cx="255.193" cy="440.395" r="4" fill="#0" id="circle40"/>
	<circle cx="259.451" cy="559.605" r="4" fill="#0" id="circle41"/>
	<circle cx="265.837" cy="482.97" r="4" fill="#0" id="circle42"/>
	<circle cx="270.094" cy="457.425" r="4" fill="#0" id="circle43"/>
	<circle cx="272.223" cy="180.687" r="4" fill="#0" id="circle44"/>
	<circle cx="272.223" cy="576.635" r="4" fill="#0" id="circle45"/>
	<circle cx="287.124" cy="197.717" r="4" fill="#0" id="circle46"/>
	<circle cx="293.511" cy="585.15" r="4" fill="#0" id="circle47"/>
	<circle cx="304.155" cy="212.618" r="4" fill="#0" id="circle48"/>
	<circle cx="314.798" cy="591.536" r="4" fill="#0" id="circle49"/>
	<circle cx="319.056" cy="229.648" r="4" fill="#0" id="circle50"/>
	<circle cx="336.086" cy="244.549" r="4" fill="#0" id="circle51"/>
	<circle cx="336.086" cy="591.536" r="4" fill="#0" id="circle52"/>
	<circle cx="346.73" cy="548.961" r="4" fill="#0" id="circle53"/>
	<circle cx="346.73" cy="570.249" r="4" fill="#0" id="circle54"/>
	<circle cx="350.987" cy="261.579" r="4" fill="#0" id="circle55"/>
	<circle cx="368.017" cy="276.481" r="4" fill="#0" id="circle56"/>
	<circle cx="368.017" cy="553.219" r="4" fill="#0" id="circle57"/>
	<circle cx="376.532" cy="297.768" r="4" fill="#0" id="circle58"/>
	<circle cx="376.532" cy="574.506" r="4" fill="#0" id="circle59"/>
	<circle cx="393.562" cy="312.67" r="4" fill="#0" id="circle60"/>
	<circle cx="397.82" cy="580.893" r="4" fill="#0" id="circle61"/>
	<circle cx="408.464" cy="329.7" r="4" fill="#0" id="circle62"/>
	<circle cx="410.592" cy="597.923" r="4" fill="#0" id="circle63"/>
	<circle cx="425.494" cy="344.601" r="4" fill="#0" id="circle64"/>
	<circle cx="427.622" cy="612.824" r="4" fill="#0" id="circle65"/>
	<circle cx="440.395" cy="629.854" r="4" fill="#0" id="circle66"/>
	<circle cx="444.652" cy="355.245" r="4" fill="#0" id="circle67"/>
	<circle cx="451.039" cy="649.013" r="4" fill="#0" id="circle68"/>
	<circle cx="465.94" cy="355.245" r="4" fill="#0" id="circle69"/>
	<circle cx="472.326" cy="655.399" r="4" fill="#0" id="circle70"/>
	<circle cx="485.099" cy="365.888" r="4" fill="#0" id="circle71"/>
	<circle cx="485.099" cy="672.429" r="4" fill="#0" id="circle72"/>
	<circle cx="495.742" cy="691.588" r="4" fill="#0" id="circle73"/>
	<circle cx="504.258" cy="712.876" r="4" fill="#0" id="circle74"/>
	<circle cx="504.258" cy="734.163" r="4" fill="#0" id="circle75"/>
	<circle cx="504.258" cy="755.451" r="4" fill="#0" id="circle76"/>
	<circle cx="506.386" cy="365.888" r="4" fill="#0" id="circle77"/>
	<circle cx="517.03" cy="485.099" r="4" fill="#0" id="circle78"/>
	<circle cx="517.03" cy="772.481" r="4" fill="#0" id="circle79"/>
	<circle cx="527.674" cy="372.275" r="4" fill="#0" id="circle80"/>
	<circle cx="534.06" cy="470.197" r="4" fill="#0" id="circle81"/>
	<circle cx="534.06" cy="497.871" r="4" fill="#0" id="circle82"/>
	<circle cx="536.189" cy="783.124" r="4" fill="#0" id="circle83"/>
	<circle cx="544.704" cy="448.91" r="4" fill="#0" id="circle84"/>
	<circle cx="544.704" cy="517.03" r="4" fill="#0" id="circle85"/>
	<circle cx="546.833" cy="382.918" r="4" fill="#0" id="circle86"/>
	<circle cx="553.219" cy="538.318" r="4" fill="#0" id="circle87"/>
	<circle cx="555.348" cy="427.622" r="4" fill="#0" id="circle88"/>
	<circle cx="557.476" cy="783.124" r="4" fill="#0" id="circle89"/>
	<circle cx="559.605" cy="399.948" r="4" fill="#0" id="circle90"/>
	<circle cx="570.249" cy="553.219" r="4" fill="#0" id="circle91"/>
	<circle cx="578.764" cy="574.506" r="4" fill="#0" id="circle92"/>
	<circle cx="578.764" cy="783.124" r="4" fill="#0" id="circle93"/>
	<circle cx="595.794" cy="589.408" r="4" fill="#0" id="circle94"/>
	<circle cx="600.052" cy="783.124" r="4" fill="#0" id="circle95"/>
	<circle cx="610.695" cy="606.438" r="4" fill="#0" id="circle96"/>
	<circle cx="621.339" cy="625.597" r="4" fill="#0" id="circle97"/>
	<circle cx="621.339" cy="783.124" r="4" fill="#0" id="circle98"/>
	<circle cx="634.112" cy="642.627" r="4" fill="#0" id="circle99"/>
	<circle cx="640.498" cy="793.768" r="4" fill="#0" id="circle100"/>
	<circle cx="644.755" cy="661.785" r="4" fill="#0" id="circle101"/>
	<circle cx="653.27" cy="810.798" r="4" fill="#0" id="circle102"/>
	<circle cx="661.785" cy="676.687" r="4" fill="#0" id="circle103"/>
	<circle cx="663.914" cy="829.957" r="4" fill="#0" id="circle104"/>
	<circle cx="663.914" cy="851.245" r="4" fill="#0" id="circle105"/>
	<circle cx="670.3" cy="697.974" r="4" fill="#0" id="circle106"/>
	<circle cx="674.558" cy="870.403" r="4" fill="#0" id="circle107"/>
	<circle cx="685.202" cy="889.562" r="4" fill="#0" id="circle108"/>
	<circle cx="685.202" cy="910.85" r="4" fill="#0" id="circle109"/>
	<circle cx="687.33" cy="712.876" r="4" fill="#0" id="circle110"/>
	<circle cx="695.845" cy="930.009" r="4" fill="#0" id="circle111"/>
	<circle cx="697.974" cy="751.193" r="4" fill="#0" id="circle112"/>
	<circle cx="702.232" cy="729.906" r="4" fill="#0" id="circle113"/>
	<circle cx="706.489" cy="949.167" r="4" fill="#0" id="circle114"/>
	<circle cx="708.618" cy="770.352" r="4" fill="#0" id="circle115"/>
	<circle cx="708.618" cy="970.455" r="4" fill="#0" id="circle116"/>
	<circle cx="719.262" cy="789.511" r="4" fill="#0" id="circle117"/>
	<circle cx="725.648" cy="985.356" r="4" fill="#0" id="circle118"/>
	<circle cx="736.292" cy="804.412" r="4" fill="#0" id="circle119"/>
	<circle cx="744.807" cy="996" r="4" fill="#0" id="circle120"/>
	<circle cx="755.451" cy="815.056" r="4" fill="#0" id="circle121"/>
	<circle cx="759.708" cy="978.97" r="4" fill="#0" id="circle122"/>
	<circle cx="761.837" cy="953.425" r="4" fill="#0" id="circle123"/>
	<circle cx="766.094" cy="834.215" r="4" fill="#0" id="circle124"/>
	<circle cx="772.481" cy="932.137" r="4" fill="#0" id="circle125"/>
	<circle cx="785.253" cy="844.858" r="4" fill="#0" id="circle126"/>
	<circle cx="791.639" cy="921.494" r="4" fill="#0" id="circle127"/>
	<circle cx="804.412" cy="855.502" r="4" fill="#0" id="circle128"/>
	<circle cx="812.927" cy="921.494" r="4" fill="#0" id="circle129"/>
	<circle cx="825.7" cy="861.888" r="4" fill="#0" id="circle130"/>
	<circle cx="832.086" cy="932.137" r="4" fill="#0" id="circle131"/>
	<circle cx="842.73" cy="876.79" r="4" fill="#0" id="circle132"/>
	<circle cx="853.373" cy="932.137" r="4" fill="#0" id="circle133"/>
	<circle cx="861.888" cy="887.433" r="4" fill="#0" id="circle134"/>
	<circle cx="872.532" cy="942.781" r="4" fill="#0" id="circle135"/>
	<circle cx="881.047" cy="898.077" r="4" fill="#0" id="circle136"/>
	<circle cx="893.82" cy="942.781" r="4" fill="#0" id="circle137"/>
	<circle cx="900.206" cy="908.721" r="4" fill="#0" id="circle138"/>
	<circle cx="915.107" cy="940.652" r="4" fill="#0" id="circle139"/>
	</g>
</svg>