<?xml version="1.0" encoding="UTF-8" standalone="no"?>
<!-- Created with CurveBenchmark -->
<svg
	xmlns:dc="http://purl.org/dc/elements/1.1/"
	xmlns:cc="http://creativecommons.org/ns#"
	xmlns:rdf="http://www.w3.org/1999/02/22-rdf-syntax-ns#"
	xmlns:svg="http://www.w3.org/2000/svg"
	xmlns="http://www.w3.org/2000/svg"
	xmlns:sodipodi="http://sodipodi.sourceforge.net/DTD/sodipodi-0.dtd"
	xmlns:inkscape="http://www.inkscape.org/namespaces/inkscape"
	width="1000"
	height="1000"
	id="svg2"
	version="1.1"
	sodipodi:docname="manifold/crawl-sink045.png.txt">
<defs
	id="defs4" />
<metadata
	id="metadata7">
	<rdf:RDF>
		<cc:Work
			rdf:about="">
			<dc:format>image/svg+xml</dc:format>
			<dc:type
				rdf:resource="http://purl.org/dc/dcmitype/StillImage" />
			<dc:title></dc:title>
		</cc:Work>
	</rdf:RDF>
</metadata>
<g
	inkscape:label="Layer 1"
	inkscape:groupmode="layer"
	id="layer1">
	<path style="fill:none;stroke:red;stroke-width:1px;stroke-linecap:butt;stroke-linejoin:miter;stroke-opacity:1" d="M 334.667,660.471 334.667,611.843 z" id="boundary" inkscape:connector-curvature="0" />
	<path style="fill:none;stroke:red;stroke-width:1px;stroke-linecap:butt;stroke-linejoin:miter;stroke-opacity:1" d="M 334.667,611.843 334.667,563.216 z" id="boundary" inkscape:connector-curvature="0" />
	<path style="fill:none;stroke:red;stroke-width:1px;stroke-linecap:butt;stroke-linejoin:miter;stroke-opacity:1" d="M 334.667,563.216 334.667,514.588 z" id="boundary" inkscape:connector-curvature="0" />
	<path style="fill:none;stroke:red;stroke-width:1px;stroke-linecap:butt;stroke-linejoin:miter;stroke-opacity:1" d="M 334.667,514.588 334.667,465.961 z" id="boundary" inkscape:connector-curvature="0" />
	<path style="fill:none;stroke:red;stroke-width:1px;stroke-linecap:butt;stroke-linejoin:miter;stroke-opacity:1" d="M 334.667,660.471 334.667,709.098 z" id="boundary" inkscape:connector-curvature="0" />
	<path style="fill:none;stroke:red;stroke-width:1px;stroke-linecap:butt;stroke-linejoin:miter;stroke-opacity:1" d="M 334.667,709.098 334.667,757.725 z" id="boundary" inkscape:connector-curvature="0" />
	<path style="fill:none;stroke:red;stroke-width:1px;stroke-linecap:butt;stroke-linejoin:miter;stroke-opacity:1" d="M 334.667,757.725 334.667,806.353 z" id="boundary" inkscape:connector-curvature="0" />
	<path style="fill:none;stroke:red;stroke-width:1px;stroke-linecap:butt;stroke-linejoin:miter;stroke-opacity:1" d="M 334.667,465.961 286.039,451.373 z" id="boundary" inkscape:connector-curvature="0" />
	<path style="fill:none;stroke:red;stroke-width:1px;stroke-linecap:butt;stroke-linejoin:miter;stroke-opacity:1" d="M 286.039,451.373 237.412,436.784 z" id="boundary" inkscape:connector-curvature="0" />
	<path style="fill:none;stroke:red;stroke-width:1px;stroke-linecap:butt;stroke-linejoin:miter;stroke-opacity:1" d="M 237.412,436.784 198.51,402.745 z" id="boundary" inkscape:connector-curvature="0" />
	<path style="fill:none;stroke:red;stroke-width:1px;stroke-linecap:butt;stroke-linejoin:miter;stroke-opacity:1" d="M 198.51,402.745 179.059,354.118 z" id="boundary" inkscape:connector-curvature="0" />
	<path style="fill:none;stroke:red;stroke-width:1px;stroke-linecap:butt;stroke-linejoin:miter;stroke-opacity:1" d="M 179.059,354.118 145.02,315.216 z" id="boundary" inkscape:connector-curvature="0" />
	<path style="fill:none;stroke:red;stroke-width:1px;stroke-linecap:butt;stroke-linejoin:miter;stroke-opacity:1" d="M 145.02,315.216 96.3922,315.216 z" id="boundary" inkscape:connector-curvature="0" />
	<path style="fill:none;stroke:red;stroke-width:1px;stroke-linecap:butt;stroke-linejoin:miter;stroke-opacity:1" d="M 96.3922,315.216 47.7647,315.216 z" id="boundary" inkscape:connector-curvature="0" />
	<path style="fill:none;stroke:red;stroke-width:1px;stroke-linecap:butt;stroke-linejoin:miter;stroke-opacity:1" d="M 47.7647,315.216 4,290.902 z" id="boundary" inkscape:connector-curvature="0" />
	<path style="fill:none;stroke:red;stroke-width:1px;stroke-linecap:butt;stroke-linejoin:miter;stroke-opacity:1" d="M 4,290.902 13.7255,213.098 z" id="boundary" inkscape:connector-curvature="0" />
	<path style="fill:none;stroke:red;stroke-width:1px;stroke-linecap:butt;stroke-linejoin:miter;stroke-opacity:1" d="M 13.7255,213.098 13.7255,164.471 z" id="boundary" inkscape:connector-curvature="0" />
	<path style="fill:none;stroke:red;stroke-width:1px;stroke-linecap:butt;stroke-linejoin:miter;stroke-opacity:1" d="M 13.7255,164.471 62.3529,164.471 z" id="boundary" inkscape:connector-curvature="0" />
	<path style="fill:none;stroke:red;stroke-width:1px;stroke-linecap:butt;stroke-linejoin:miter;stroke-opacity:1" d="M 62.3529,164.471 110.98,164.471 z" id="boundary" inkscape:connector-curvature="0" />
	<path style="fill:none;stroke:red;stroke-width:1px;stroke-linecap:butt;stroke-linejoin:miter;stroke-opacity:1" d="M 110.98,164.471 149.882,125.569 z" id="boundary" inkscape:connector-curvature="0" />
	<path style="fill:none;stroke:red;stroke-width:1px;stroke-linecap:butt;stroke-linejoin:miter;stroke-opacity:1" d="M 149.882,125.569 149.882,76.9412 z" id="boundary" inkscape:connector-curvature="0" />
	<path style="fill:none;stroke:red;stroke-width:1px;stroke-linecap:butt;stroke-linejoin:miter;stroke-opacity:1" d="M 149.882,76.9412 174.196,33.1765 z" id="boundary" inkscape:connector-curvature="0" />
	<path style="fill:none;stroke:red;stroke-width:1px;stroke-linecap:butt;stroke-linejoin:miter;stroke-opacity:1" d="M 174.196,33.1765 213.098,4 z" id="boundary" inkscape:connector-curvature="0" />
	<path style="fill:none;stroke:red;stroke-width:1px;stroke-linecap:butt;stroke-linejoin:miter;stroke-opacity:1" d="M 213.098,4 252,33.1765 z" id="boundary" inkscape:connector-curvature="0" />
	<path style="fill:none;stroke:red;stroke-width:1px;stroke-linecap:butt;stroke-linejoin:miter;stroke-opacity:1" d="M 252,33.1765 295.765,57.4902 z" id="boundary" inkscape:connector-curvature="0" />
	<path style="fill:none;stroke:red;stroke-width:1px;stroke-linecap:butt;stroke-linejoin:miter;stroke-opacity:1" d="M 295.765,57.4902 339.529,81.8039 z" id="boundary" inkscape:connector-curvature="0" />
	<path style="fill:none;stroke:red;stroke-width:1px;stroke-linecap:butt;stroke-linejoin:miter;stroke-opacity:1" d="M 339.529,81.8039 334.667,164.471 z" id="boundary" inkscape:connector-curvature="0" />
	<path style="fill:none;stroke:red;stroke-width:1px;stroke-linecap:butt;stroke-linejoin:miter;stroke-opacity:1" d="M 334.667,164.471 286.039,164.471 z" id="boundary" inkscape:connector-curvature="0" />
	<path style="fill:none;stroke:red;stroke-width:1px;stroke-linecap:butt;stroke-linejoin:miter;stroke-opacity:1" d="M 286.039,164.471 237.412,164.471 z" id="boundary" inkscape:connector-curvature="0" />
	<path style="fill:none;stroke:red;stroke-width:1px;stroke-linecap:butt;stroke-linejoin:miter;stroke-opacity:1" d="M 237.412,164.471 188.784,159.608 z" id="boundary" inkscape:connector-curvature="0" />
	<path style="fill:none;stroke:red;stroke-width:1px;stroke-linecap:butt;stroke-linejoin:miter;stroke-opacity:1" d="M 334.667,806.353 315.216,893.882 z" id="boundary" inkscape:connector-curvature="0" />
	<path style="fill:none;stroke:red;stroke-width:1px;stroke-linecap:butt;stroke-linejoin:miter;stroke-opacity:1" d="M 315.216,893.882 286.039,942.51 z" id="boundary" inkscape:connector-curvature="0" />
	<path style="fill:none;stroke:red;stroke-width:1px;stroke-linecap:butt;stroke-linejoin:miter;stroke-opacity:1" d="M 286.039,942.51 286.039,991.137 z" id="boundary" inkscape:connector-curvature="0" />
	<path style="fill:none;stroke:red;stroke-width:1px;stroke-linecap:butt;stroke-linejoin:miter;stroke-opacity:1" d="M 286.039,991.137 334.667,996 z" id="boundary" inkscape:connector-curvature="0" />
	<path style="fill:none;stroke:red;stroke-width:1px;stroke-linecap:butt;stroke-linejoin:miter;stroke-opacity:1" d="M 334.667,996 383.294,996 z" id="boundary" inkscape:connector-curvature="0" />
	<path style="fill:none;stroke:red;stroke-width:1px;stroke-linecap:butt;stroke-linejoin:miter;stroke-opacity:1" d="M 383.294,996 431.922,996 z" id="boundary" inkscape:connector-curvature="0" />
	<path style="fill:none;stroke:red;stroke-width:1px;stroke-linecap:butt;stroke-linejoin:miter;stroke-opacity:1" d="M 431.922,996 480.549,996 z" id="boundary" inkscape:connector-curvature="0" />
	<path style="fill:none;stroke:red;stroke-width:1px;stroke-linecap:butt;stroke-linejoin:miter;stroke-opacity:1" d="M 480.549,996 529.176,996 z" id="boundary" inkscape:connector-curvature="0" />
	<path style="fill:none;stroke:red;stroke-width:1px;stroke-linecap:butt;stroke-linejoin:miter;stroke-opacity:1" d="M 529.176,996 538.902,932.784 z" id="boundary" inkscape:connector-curvature="0" />
	<path style="fill:none;stroke:red;stroke-width:1px;stroke-linecap:butt;stroke-linejoin:miter;stroke-opacity:1" d="M 538.902,932.784 519.451,884.157 z" id="boundary" inkscape:connector-curvature="0" />
	<path style="fill:none;stroke:red;stroke-width:1px;stroke-linecap:butt;stroke-linejoin:miter;stroke-opacity:1" d="M 519.451,884.157 514.588,835.529 z" id="boundary" inkscape:connector-curvature="0" />
	<path style="fill:none;stroke:red;stroke-width:1px;stroke-linecap:butt;stroke-linejoin:miter;stroke-opacity:1" d="M 514.588,835.529 514.588,786.902 z" id="boundary" inkscape:connector-curvature="0" />
	<path style="fill:none;stroke:red;stroke-width:1px;stroke-linecap:butt;stroke-linejoin:miter;stroke-opacity:1" d="M 514.588,786.902 514.588,738.275 z" id="boundary" inkscape:connector-curvature="0" />
	<path style="fill:none;stroke:red;stroke-width:1px;stroke-linecap:butt;stroke-linejoin:miter;stroke-opacity:1" d="M 514.588,738.275 514.588,689.647 z" id="boundary" inkscape:connector-curvature="0" />
	<path style="fill:none;stroke:red;stroke-width:1px;stroke-linecap:butt;stroke-linejoin:miter;stroke-opacity:1" d="M 514.588,689.647 514.588,641.02 z" id="boundary" inkscape:connector-curvature="0" />
	<path style="fill:none;stroke:red;stroke-width:1px;stroke-linecap:butt;stroke-linejoin:miter;stroke-opacity:1" d="M 514.588,641.02 514.588,592.392 z" id="boundary" inkscape:connector-curvature="0" />
	<path style="fill:none;stroke:red;stroke-width:1px;stroke-linecap:butt;stroke-linejoin:miter;stroke-opacity:1" d="M 514.588,592.392 514.588,543.765 z" id="boundary" inkscape:connector-curvature="0" />
	<path style="fill:none;stroke:red;stroke-width:1px;stroke-linecap:butt;stroke-linejoin:miter;stroke-opacity:1" d="M 514.588,543.765 514.588,495.137 z" id="boundary" inkscape:connector-curvature="0" />
	<path style="fill:none;stroke:red;stroke-width:1px;stroke-linecap:butt;stroke-linejoin:miter;stroke-opacity:1" d="M 514.588,495.137 514.588,446.51 z" id="boundary" inkscape:connector-curvature="0" />
	<path style="fill:none;stroke:red;stroke-width:1px;stroke-linecap:butt;stroke-linejoin:miter;stroke-opacity:1" d="M 514.588,446.51 514.588,397.882 z" id="boundary" inkscape:connector-curvature="0" />
	<path style="fill:none;stroke:red;stroke-width:1px;stroke-linecap:butt;stroke-linejoin:miter;stroke-opacity:1" d="M 514.588,397.882 538.902,354.118 z" id="boundary" inkscape:connector-curvature="0" />
	<path style="fill:none;stroke:red;stroke-width:1px;stroke-linecap:butt;stroke-linejoin:miter;stroke-opacity:1" d="M 538.902,354.118 568.078,315.216 z" id="boundary" inkscape:connector-curvature="0" />
	<path style="fill:none;stroke:red;stroke-width:1px;stroke-linecap:butt;stroke-linejoin:miter;stroke-opacity:1" d="M 568.078,315.216 616.706,315.216 z" id="boundary" inkscape:connector-curvature="0" />
	<path style="fill:none;stroke:red;stroke-width:1px;stroke-linecap:butt;stroke-linejoin:miter;stroke-opacity:1" d="M 616.706,315.216 626.431,261.725 z" id="boundary" inkscape:connector-curvature="0" />
	<path style="fill:none;stroke:red;stroke-width:1px;stroke-linecap:butt;stroke-linejoin:miter;stroke-opacity:1" d="M 626.431,261.725 665.333,290.902 z" id="boundary" inkscape:connector-curvature="0" />
	<path style="fill:none;stroke:red;stroke-width:1px;stroke-linecap:butt;stroke-linejoin:miter;stroke-opacity:1" d="M 431.922,252 402.745,213.098 z" id="boundary" inkscape:connector-curvature="0" />
	<path style="fill:none;stroke:red;stroke-width:1px;stroke-linecap:butt;stroke-linejoin:miter;stroke-opacity:1" d="M 431.922,252 480.549,261.725 z" id="boundary" inkscape:connector-curvature="0" />
	<path style="fill:none;stroke:red;stroke-width:1px;stroke-linecap:butt;stroke-linejoin:miter;stroke-opacity:1" d="M 480.549,261.725 529.176,261.725 z" id="boundary" inkscape:connector-curvature="0" />
	<path style="fill:none;stroke:red;stroke-width:1px;stroke-linecap:butt;stroke-linejoin:miter;stroke-opacity:1" d="M 529.176,261.725 577.804,261.725 z" id="boundary" inkscape:connector-curvature="0" />
	<path style="fill:none;stroke:red;stroke-width:1px;stroke-linecap:butt;stroke-linejoin:miter;stroke-opacity:1" d="M 402.745,213.098 383.294,164.471 z" id="boundary" inkscape:connector-curvature="0" />
	<circle cx="4" cy="290.902" r="4" fill="#0" id="circle0"/>
	<circle cx="13.7255" cy="164.471" r="4" fill="#0" id="circle1"/>
	<circle cx="13.7255" cy="213.098" r="4" fill="#0" id="circle2"/>
	<circle cx="47.7647" cy="315.216" r="4" fill="#0" id="circle3"/>
	<circle cx="62.3529" cy="164.471" r="4" fill="#0" id="circle4"/>
	<circle cx="96.3922" cy="315.216" r="4" fill="#0" id="circle5"/>
	<circle cx="110.98" cy="164.471" r="4" fill="#0" id="circle6"/>
	<circle cx="145.02" cy="315.216" r="4" fill="#0" id="circle7"/>
	<circle cx="149.882" cy="76.9412" r="4" fill="#0" id="circle8"/>
	<circle cx="149.882" cy="125.569" r="4" fill="#0" id="circle9"/>
	<circle cx="174.196" cy="33.1765" r="4" fill="#0" id="circle10"/>
	<circle cx="179.059" cy="354.118" r="4" fill="#0" id="circle11"/>
	<circle cx="188.784" cy="159.608" r="4" fill="#0" id="circle12"/>
	<circle cx="198.51" cy="402.745" r="4" fill="#0" id="circle13"/>
	<circle cx="213.098" cy="4" r="4" fill="#0" id="circle14"/>
	<circle cx="237.412" cy="164.471" r="4" fill="#0" id="circle15"/>
	<circle cx="237.412" cy="436.784" r="4" fill="#0" id="circle16"/>
	<circle cx="252" cy="33.1765" r="4" fill="#0" id="circle17"/>
	<circle cx="286.039" cy="164.471" r="4" fill="#0" id="circle18"/>
	<circle cx="286.039" cy="451.373" r="4" fill="#0" id="circle19"/>
	<circle cx="286.039" cy="942.51" r="4" fill="#0" id="circle20"/>
	<circle cx="286.039" cy="991.137" r="4" fill="#0" id="circle21"/>
	<circle cx="295.765" cy="57.4902" r="4" fill="#0" id="circle22"/>
	<circle cx="315.216" cy="893.882" r="4" fill="#0" id="circle23"/>
	<circle cx="334.667" cy="164.471" r="4" fill="#0" id="circle24"/>
	<circle cx="334.667" cy="465.961" r="4" fill="#0" id="circle25"/>
	<circle cx="334.667" cy="514.588" r="4" fill="#0" id="circle26"/>
	<circle cx="334.667" cy="563.216" r="4" fill="#0" id="circle27"/>
	<circle cx="334.667" cy="611.843" r="4" fill="#0" id="circle28"/>
	<circle cx="334.667" cy="660.471" r="4" fill="#0" id="circle29"/>
	<circle cx="334.667" cy="709.098" r="4" fill="#0" id="circle30"/>
	<circle cx="334.667" cy="757.725" r="4" fill="#0" id="circle31"/>
	<circle cx="334.667" cy="806.353" r="4" fill="#0" id="circle32"/>
	<circle cx="334.667" cy="996" r="4" fill="#0" id="circle33"/>
	<circle cx="339.529" cy="81.8039" r="4" fill="#0" id="circle34"/>
	<circle cx="383.294" cy="164.471" r="4" fill="#0" id="circle35"/>
	<circle cx="383.294" cy="996" r="4" fill="#0" id="circle36"/>
	<circle cx="402.745" cy="213.098" r="4" fill="#0" id="circle37"/>
	<circle cx="431.922" cy="252" r="4" fill="#0" id="circle38"/>
	<circle cx="431.922" cy="996" r="4" fill="#0" id="circle39"/>
	<circle cx="480.549" cy="261.725" r="4" fill="#0" id="circle40"/>
	<circle cx="480.549" cy="996" r="4" fill="#0" id="circle41"/>
	<circle cx="514.588" cy="397.882" r="4" fill="#0" id="circle42"/>
	<circle cx="514.588" cy="446.51" r="4" fill="#0" id="circle43"/>
	<circle cx="514.588" cy="495.137" r="4" fill="#0" id="circle44"/>
	<circle cx="514.588" cy="543.765" r="4" fill="#0" id="circle45"/>
	<circle cx="514.588" cy="592.392" r="4" fill="#0" id="circle46"/>
	<circle cx="514.588" cy="641.02" r="4" fill="#0" id="circle47"/>
	<circle cx="514.588" cy="689.647" r="4" fill="#0" id="circle48"/>
	<circle cx="514.588" cy="738.275" r="4" fill="#0" id="circle49"/>
	<circle cx="514.588" cy="786.902" r="4" fill="#0" id="circle50"/>
	<circle cx="514.588" cy="835.529" r="4" fill="#0" id="circle51"/>
	<circle cx="519.451" cy="884.157" r="4" fill="#0" id="circle52"/>
	<circle cx="529.176" cy="261.725" r="4" fill="#0" id="circle53"/>
	<circle cx="529.176" cy="996" r="4" fill="#0" id="circle54"/>
	<circle cx="538.902" cy="354.118" r="4" fill="#0" id="circle55"/>
	<circle cx="538.902" cy="932.784" r="4" fill="#0" id="circle56"/>
	<circle cx="568.078" cy="315.216" r="4" fill="#0" id="circle57"/>
	<circle cx="577.804" cy="261.725" r="4" fill="#0" id="circle58"/>
	<circle cx="616.706" cy="315.216" r="4" fill="#0" id="circle59"/>
	<circle cx="626.431" cy="261.725" r="4" fill="#0" id="circle60"/>
	<circle cx="665.333" cy="290.902" r="4" fill="#0" id="circle61"/>
	</g>
</svg>