<?xml version="1.0" encoding="UTF-8" standalone="no"?>
<!-- Created with CurveBenchmark -->
<svg
	xmlns:dc="http://purl.org/dc/elements/1.1/"
	xmlns:cc="http://creativecommons.org/ns#"
	xmlns:rdf="http://www.w3.org/1999/02/22-rdf-syntax-ns#"
	xmlns:svg="http://www.w3.org/2000/svg"
	xmlns="http://www.w3.org/2000/svg"
	xmlns:sodipodi="http://sodipodi.sourceforge.net/DTD/sodipodi-0.dtd"
	xmlns:inkscape="http://www.inkscape.org/namespaces/inkscape"
	width="1000"
	height="1000"
	id="svg2"
	version="1.1"
	sodipodi:docname="manifold/crawl-stef-02.png.txt">
<defs
	id="defs4" />
<metadata
	id="metadata7">
	<rdf:RDF>
		<cc:Work
			rdf:about="">
			<dc:format>image/svg+xml</dc:format>
			<dc:type
				rdf:resource="http://purl.org/dc/dcmitype/StillImage" />
			<dc:title></dc:title>
		</cc:Work>
	</rdf:RDF>
</metadata>
<g
	inkscape:label="Layer 1"
	inkscape:groupmode="layer"
	id="layer1">
	<path style="fill:none;stroke:red;stroke-width:1px;stroke-linecap:butt;stroke-linejoin:miter;stroke-opacity:1" d="M 4,68.4376 4,85.3949 z" id="boundary" inkscape:connector-curvature="0" />
	<path style="fill:none;stroke:red;stroke-width:1px;stroke-linecap:butt;stroke-linejoin:miter;stroke-opacity:1" d="M 4,85.3949 4,102.352 z" id="boundary" inkscape:connector-curvature="0" />
	<path style="fill:none;stroke:red;stroke-width:1px;stroke-linecap:butt;stroke-linejoin:miter;stroke-opacity:1" d="M 4,102.352 12.4786,117.614 z" id="boundary" inkscape:connector-curvature="0" />
	<path style="fill:none;stroke:red;stroke-width:1px;stroke-linecap:butt;stroke-linejoin:miter;stroke-opacity:1" d="M 12.4786,117.614 24.3487,131.179 z" id="boundary" inkscape:connector-curvature="0" />
	<path style="fill:none;stroke:red;stroke-width:1px;stroke-linecap:butt;stroke-linejoin:miter;stroke-opacity:1" d="M 24.3487,131.179 41.306,137.962 z" id="boundary" inkscape:connector-curvature="0" />
	<path style="fill:none;stroke:red;stroke-width:1px;stroke-linecap:butt;stroke-linejoin:miter;stroke-opacity:1" d="M 41.306,137.962 58.2632,141.354 z" id="boundary" inkscape:connector-curvature="0" />
	<path style="fill:none;stroke:red;stroke-width:1px;stroke-linecap:butt;stroke-linejoin:miter;stroke-opacity:1" d="M 58.2632,141.354 75.2205,141.354 z" id="boundary" inkscape:connector-curvature="0" />
	<path style="fill:none;stroke:red;stroke-width:1px;stroke-linecap:butt;stroke-linejoin:miter;stroke-opacity:1" d="M 75.2205,141.354 92.1778,141.354 z" id="boundary" inkscape:connector-curvature="0" />
	<path style="fill:none;stroke:red;stroke-width:1px;stroke-linecap:butt;stroke-linejoin:miter;stroke-opacity:1" d="M 92.1778,141.354 109.135,141.354 z" id="boundary" inkscape:connector-curvature="0" />
	<path style="fill:none;stroke:red;stroke-width:1px;stroke-linecap:butt;stroke-linejoin:miter;stroke-opacity:1" d="M 109.135,141.354 117.614,156.615 z" id="boundary" inkscape:connector-curvature="0" />
	<path style="fill:none;stroke:red;stroke-width:1px;stroke-linecap:butt;stroke-linejoin:miter;stroke-opacity:1" d="M 117.614,156.615 122.701,173.573 z" id="boundary" inkscape:connector-curvature="0" />
	<path style="fill:none;stroke:red;stroke-width:1px;stroke-linecap:butt;stroke-linejoin:miter;stroke-opacity:1" d="M 122.701,173.573 122.701,190.53 z" id="boundary" inkscape:connector-curvature="0" />
	<path style="fill:none;stroke:red;stroke-width:1px;stroke-linecap:butt;stroke-linejoin:miter;stroke-opacity:1" d="M 122.701,190.53 122.701,207.487 z" id="boundary" inkscape:connector-curvature="0" />
	<path style="fill:none;stroke:red;stroke-width:1px;stroke-linecap:butt;stroke-linejoin:miter;stroke-opacity:1" d="M 122.701,207.487 122.701,224.444 z" id="boundary" inkscape:connector-curvature="0" />
	<path style="fill:none;stroke:red;stroke-width:1px;stroke-linecap:butt;stroke-linejoin:miter;stroke-opacity:1" d="M 122.701,224.444 122.701,241.402 z" id="boundary" inkscape:connector-curvature="0" />
	<path style="fill:none;stroke:red;stroke-width:1px;stroke-linecap:butt;stroke-linejoin:miter;stroke-opacity:1" d="M 122.701,241.402 126.092,258.359 z" id="boundary" inkscape:connector-curvature="0" />
	<path style="fill:none;stroke:red;stroke-width:1px;stroke-linecap:butt;stroke-linejoin:miter;stroke-opacity:1" d="M 126.092,258.359 139.658,268.533 z" id="boundary" inkscape:connector-curvature="0" />
	<path style="fill:none;stroke:red;stroke-width:1px;stroke-linecap:butt;stroke-linejoin:miter;stroke-opacity:1" d="M 139.658,268.533 154.92,277.012 z" id="boundary" inkscape:connector-curvature="0" />
	<path style="fill:none;stroke:red;stroke-width:1px;stroke-linecap:butt;stroke-linejoin:miter;stroke-opacity:1" d="M 154.92,277.012 170.181,285.491 z" id="boundary" inkscape:connector-curvature="0" />
	<path style="fill:none;stroke:red;stroke-width:1px;stroke-linecap:butt;stroke-linejoin:miter;stroke-opacity:1" d="M 170.181,285.491 185.443,293.969 z" id="boundary" inkscape:connector-curvature="0" />
	<path style="fill:none;stroke:red;stroke-width:1px;stroke-linecap:butt;stroke-linejoin:miter;stroke-opacity:1" d="M 185.443,293.969 200.704,302.448 z" id="boundary" inkscape:connector-curvature="0" />
	<path style="fill:none;stroke:red;stroke-width:1px;stroke-linecap:butt;stroke-linejoin:miter;stroke-opacity:1" d="M 200.704,302.448 215.966,310.926 z" id="boundary" inkscape:connector-curvature="0" />
	<path style="fill:none;stroke:red;stroke-width:1px;stroke-linecap:butt;stroke-linejoin:miter;stroke-opacity:1" d="M 215.966,310.926 231.227,319.405 z" id="boundary" inkscape:connector-curvature="0" />
	<path style="fill:none;stroke:red;stroke-width:1px;stroke-linecap:butt;stroke-linejoin:miter;stroke-opacity:1" d="M 231.227,319.405 246.489,327.884 z" id="boundary" inkscape:connector-curvature="0" />
	<path style="fill:none;stroke:red;stroke-width:1px;stroke-linecap:butt;stroke-linejoin:miter;stroke-opacity:1" d="M 246.489,327.884 260.055,339.754 z" id="boundary" inkscape:connector-curvature="0" />
	<path style="fill:none;stroke:red;stroke-width:1px;stroke-linecap:butt;stroke-linejoin:miter;stroke-opacity:1" d="M 260.055,339.754 271.925,353.32 z" id="boundary" inkscape:connector-curvature="0" />
	<path style="fill:none;stroke:red;stroke-width:1px;stroke-linecap:butt;stroke-linejoin:miter;stroke-opacity:1" d="M 271.925,353.32 288.882,360.103 z" id="boundary" inkscape:connector-curvature="0" />
	<path style="fill:none;stroke:red;stroke-width:1px;stroke-linecap:butt;stroke-linejoin:miter;stroke-opacity:1" d="M 288.882,360.103 292.274,377.06 z" id="boundary" inkscape:connector-curvature="0" />
	<path style="fill:none;stroke:red;stroke-width:1px;stroke-linecap:butt;stroke-linejoin:miter;stroke-opacity:1" d="M 292.274,377.06 292.274,394.017 z" id="boundary" inkscape:connector-curvature="0" />
	<path style="fill:none;stroke:red;stroke-width:1px;stroke-linecap:butt;stroke-linejoin:miter;stroke-opacity:1" d="M 292.274,394.017 292.274,410.974 z" id="boundary" inkscape:connector-curvature="0" />
	<path style="fill:none;stroke:red;stroke-width:1px;stroke-linecap:butt;stroke-linejoin:miter;stroke-opacity:1" d="M 292.274,410.974 288.882,427.932 z" id="boundary" inkscape:connector-curvature="0" />
	<path style="fill:none;stroke:red;stroke-width:1px;stroke-linecap:butt;stroke-linejoin:miter;stroke-opacity:1" d="M 4,68.4376 12.4786,51.4803 z" id="boundary" inkscape:connector-curvature="0" />
	<path style="fill:none;stroke:red;stroke-width:1px;stroke-linecap:butt;stroke-linejoin:miter;stroke-opacity:1" d="M 12.4786,51.4803 20.9573,34.5231 z" id="boundary" inkscape:connector-curvature="0" />
	<path style="fill:none;stroke:red;stroke-width:1px;stroke-linecap:butt;stroke-linejoin:miter;stroke-opacity:1" d="M 288.882,427.932 275.316,441.497 z" id="boundary" inkscape:connector-curvature="0" />
	<path style="fill:none;stroke:red;stroke-width:1px;stroke-linecap:butt;stroke-linejoin:miter;stroke-opacity:1" d="M 20.9573,34.5231 34.5231,20.9573 z" id="boundary" inkscape:connector-curvature="0" />
	<path style="fill:none;stroke:red;stroke-width:1px;stroke-linecap:butt;stroke-linejoin:miter;stroke-opacity:1" d="M 34.5231,20.9573 49.7846,12.4786 z" id="boundary" inkscape:connector-curvature="0" />
	<path style="fill:none;stroke:red;stroke-width:1px;stroke-linecap:butt;stroke-linejoin:miter;stroke-opacity:1" d="M 49.7846,12.4786 65.0462,4 z" id="boundary" inkscape:connector-curvature="0" />
	<path style="fill:none;stroke:red;stroke-width:1px;stroke-linecap:butt;stroke-linejoin:miter;stroke-opacity:1" d="M 65.0462,4 82.0034,4 z" id="boundary" inkscape:connector-curvature="0" />
	<path style="fill:none;stroke:red;stroke-width:1px;stroke-linecap:butt;stroke-linejoin:miter;stroke-opacity:1" d="M 82.0034,4 97.265,12.4786 z" id="boundary" inkscape:connector-curvature="0" />
	<path style="fill:none;stroke:red;stroke-width:1px;stroke-linecap:butt;stroke-linejoin:miter;stroke-opacity:1" d="M 97.265,12.4786 114.222,15.8701 z" id="boundary" inkscape:connector-curvature="0" />
	<path style="fill:none;stroke:red;stroke-width:1px;stroke-linecap:butt;stroke-linejoin:miter;stroke-opacity:1" d="M 114.222,15.8701 129.484,24.3487 z" id="boundary" inkscape:connector-curvature="0" />
	<path style="fill:none;stroke:red;stroke-width:1px;stroke-linecap:butt;stroke-linejoin:miter;stroke-opacity:1" d="M 129.484,24.3487 141.354,37.9145 z" id="boundary" inkscape:connector-curvature="0" />
	<path style="fill:none;stroke:red;stroke-width:1px;stroke-linecap:butt;stroke-linejoin:miter;stroke-opacity:1" d="M 141.354,37.9145 154.92,48.0889 z" id="boundary" inkscape:connector-curvature="0" />
	<path style="fill:none;stroke:red;stroke-width:1px;stroke-linecap:butt;stroke-linejoin:miter;stroke-opacity:1" d="M 154.92,48.0889 161.703,65.0462 z" id="boundary" inkscape:connector-curvature="0" />
	<path style="fill:none;stroke:red;stroke-width:1px;stroke-linecap:butt;stroke-linejoin:miter;stroke-opacity:1" d="M 161.703,65.0462 170.181,80.3077 z" id="boundary" inkscape:connector-curvature="0" />
	<path style="fill:none;stroke:red;stroke-width:1px;stroke-linecap:butt;stroke-linejoin:miter;stroke-opacity:1" d="M 170.181,80.3077 175.268,97.265 z" id="boundary" inkscape:connector-curvature="0" />
	<path style="fill:none;stroke:red;stroke-width:1px;stroke-linecap:butt;stroke-linejoin:miter;stroke-opacity:1" d="M 175.268,97.265 188.834,107.439 z" id="boundary" inkscape:connector-curvature="0" />
	<path style="fill:none;stroke:red;stroke-width:1px;stroke-linecap:butt;stroke-linejoin:miter;stroke-opacity:1" d="M 188.834,107.439 204.096,115.918 z" id="boundary" inkscape:connector-curvature="0" />
	<path style="fill:none;stroke:red;stroke-width:1px;stroke-linecap:butt;stroke-linejoin:miter;stroke-opacity:1" d="M 204.096,115.918 217.662,127.788 z" id="boundary" inkscape:connector-curvature="0" />
	<path style="fill:none;stroke:red;stroke-width:1px;stroke-linecap:butt;stroke-linejoin:miter;stroke-opacity:1" d="M 217.662,127.788 231.227,139.658 z" id="boundary" inkscape:connector-curvature="0" />
	<path style="fill:none;stroke:red;stroke-width:1px;stroke-linecap:butt;stroke-linejoin:miter;stroke-opacity:1" d="M 231.227,139.658 246.489,148.137 z" id="boundary" inkscape:connector-curvature="0" />
	<path style="fill:none;stroke:red;stroke-width:1px;stroke-linecap:butt;stroke-linejoin:miter;stroke-opacity:1" d="M 246.489,148.137 261.75,156.615 z" id="boundary" inkscape:connector-curvature="0" />
	<path style="fill:none;stroke:red;stroke-width:1px;stroke-linecap:butt;stroke-linejoin:miter;stroke-opacity:1" d="M 261.75,156.615 277.012,165.094 z" id="boundary" inkscape:connector-curvature="0" />
	<path style="fill:none;stroke:red;stroke-width:1px;stroke-linecap:butt;stroke-linejoin:miter;stroke-opacity:1" d="M 277.012,165.094 293.969,170.181 z" id="boundary" inkscape:connector-curvature="0" />
	<path style="fill:none;stroke:red;stroke-width:1px;stroke-linecap:butt;stroke-linejoin:miter;stroke-opacity:1" d="M 293.969,170.181 307.535,182.051 z" id="boundary" inkscape:connector-curvature="0" />
	<path style="fill:none;stroke:red;stroke-width:1px;stroke-linecap:butt;stroke-linejoin:miter;stroke-opacity:1" d="M 307.535,182.051 322.797,190.53 z" id="boundary" inkscape:connector-curvature="0" />
	<path style="fill:none;stroke:red;stroke-width:1px;stroke-linecap:butt;stroke-linejoin:miter;stroke-opacity:1" d="M 322.797,190.53 334.667,204.096 z" id="boundary" inkscape:connector-curvature="0" />
	<path style="fill:none;stroke:red;stroke-width:1px;stroke-linecap:butt;stroke-linejoin:miter;stroke-opacity:1" d="M 334.667,204.096 351.624,210.879 z" id="boundary" inkscape:connector-curvature="0" />
	<path style="fill:none;stroke:red;stroke-width:1px;stroke-linecap:butt;stroke-linejoin:miter;stroke-opacity:1" d="M 351.624,210.879 366.885,219.357 z" id="boundary" inkscape:connector-curvature="0" />
	<path style="fill:none;stroke:red;stroke-width:1px;stroke-linecap:butt;stroke-linejoin:miter;stroke-opacity:1" d="M 366.885,219.357 378.756,232.923 z" id="boundary" inkscape:connector-curvature="0" />
	<path style="fill:none;stroke:red;stroke-width:1px;stroke-linecap:butt;stroke-linejoin:miter;stroke-opacity:1" d="M 378.756,232.923 394.017,241.402 z" id="boundary" inkscape:connector-curvature="0" />
	<path style="fill:none;stroke:red;stroke-width:1px;stroke-linecap:butt;stroke-linejoin:miter;stroke-opacity:1" d="M 394.017,241.402 409.279,249.88 z" id="boundary" inkscape:connector-curvature="0" />
	<path style="fill:none;stroke:red;stroke-width:1px;stroke-linecap:butt;stroke-linejoin:miter;stroke-opacity:1" d="M 409.279,249.88 424.54,258.359 z" id="boundary" inkscape:connector-curvature="0" />
	<path style="fill:none;stroke:red;stroke-width:1px;stroke-linecap:butt;stroke-linejoin:miter;stroke-opacity:1" d="M 424.54,258.359 436.41,271.925 z" id="boundary" inkscape:connector-curvature="0" />
	<path style="fill:none;stroke:red;stroke-width:1px;stroke-linecap:butt;stroke-linejoin:miter;stroke-opacity:1" d="M 436.41,271.925 444.889,287.186 z" id="boundary" inkscape:connector-curvature="0" />
	<path style="fill:none;stroke:red;stroke-width:1px;stroke-linecap:butt;stroke-linejoin:miter;stroke-opacity:1" d="M 444.889,287.186 451.672,304.144 z" id="boundary" inkscape:connector-curvature="0" />
	<path style="fill:none;stroke:red;stroke-width:1px;stroke-linecap:butt;stroke-linejoin:miter;stroke-opacity:1" d="M 451.672,304.144 460.15,319.405 z" id="boundary" inkscape:connector-curvature="0" />
	<path style="fill:none;stroke:red;stroke-width:1px;stroke-linecap:butt;stroke-linejoin:miter;stroke-opacity:1" d="M 460.15,319.405 466.933,336.362 z" id="boundary" inkscape:connector-curvature="0" />
	<path style="fill:none;stroke:red;stroke-width:1px;stroke-linecap:butt;stroke-linejoin:miter;stroke-opacity:1" d="M 466.933,336.362 475.412,351.624 z" id="boundary" inkscape:connector-curvature="0" />
	<path style="fill:none;stroke:red;stroke-width:1px;stroke-linecap:butt;stroke-linejoin:miter;stroke-opacity:1" d="M 475.412,351.624 480.499,368.581 z" id="boundary" inkscape:connector-curvature="0" />
	<path style="fill:none;stroke:red;stroke-width:1px;stroke-linecap:butt;stroke-linejoin:miter;stroke-opacity:1" d="M 480.499,368.581 494.065,378.756 z" id="boundary" inkscape:connector-curvature="0" />
	<path style="fill:none;stroke:red;stroke-width:1px;stroke-linecap:butt;stroke-linejoin:miter;stroke-opacity:1" d="M 494.065,378.756 500.848,395.713 z" id="boundary" inkscape:connector-curvature="0" />
	<path style="fill:none;stroke:red;stroke-width:1px;stroke-linecap:butt;stroke-linejoin:miter;stroke-opacity:1" d="M 500.848,395.713 509.326,410.974 z" id="boundary" inkscape:connector-curvature="0" />
	<path style="fill:none;stroke:red;stroke-width:1px;stroke-linecap:butt;stroke-linejoin:miter;stroke-opacity:1" d="M 509.326,410.974 514.414,427.932 z" id="boundary" inkscape:connector-curvature="0" />
	<path style="fill:none;stroke:red;stroke-width:1px;stroke-linecap:butt;stroke-linejoin:miter;stroke-opacity:1" d="M 514.414,427.932 522.892,443.193 z" id="boundary" inkscape:connector-curvature="0" />
	<path style="fill:none;stroke:red;stroke-width:1px;stroke-linecap:butt;stroke-linejoin:miter;stroke-opacity:1" d="M 522.892,443.193 531.371,458.455 z" id="boundary" inkscape:connector-curvature="0" />
	<path style="fill:none;stroke:red;stroke-width:1px;stroke-linecap:butt;stroke-linejoin:miter;stroke-opacity:1" d="M 531.371,458.455 538.154,475.412 z" id="boundary" inkscape:connector-curvature="0" />
	<path style="fill:none;stroke:red;stroke-width:1px;stroke-linecap:butt;stroke-linejoin:miter;stroke-opacity:1" d="M 538.154,475.412 546.632,490.674 z" id="boundary" inkscape:connector-curvature="0" />
	<path style="fill:none;stroke:red;stroke-width:1px;stroke-linecap:butt;stroke-linejoin:miter;stroke-opacity:1" d="M 546.632,490.674 548.328,507.631 z" id="boundary" inkscape:connector-curvature="0" />
	<path style="fill:none;stroke:red;stroke-width:1px;stroke-linecap:butt;stroke-linejoin:miter;stroke-opacity:1" d="M 548.328,507.631 556.807,522.892 z" id="boundary" inkscape:connector-curvature="0" />
	<path style="fill:none;stroke:red;stroke-width:1px;stroke-linecap:butt;stroke-linejoin:miter;stroke-opacity:1" d="M 556.807,522.892 560.198,539.85 z" id="boundary" inkscape:connector-curvature="0" />
	<path style="fill:none;stroke:red;stroke-width:1px;stroke-linecap:butt;stroke-linejoin:miter;stroke-opacity:1" d="M 560.198,539.85 565.285,556.807 z" id="boundary" inkscape:connector-curvature="0" />
	<path style="fill:none;stroke:red;stroke-width:1px;stroke-linecap:butt;stroke-linejoin:miter;stroke-opacity:1" d="M 565.285,556.807 573.764,572.068 z" id="boundary" inkscape:connector-curvature="0" />
	<path style="fill:none;stroke:red;stroke-width:1px;stroke-linecap:butt;stroke-linejoin:miter;stroke-opacity:1" d="M 573.764,572.068 590.721,577.156 z" id="boundary" inkscape:connector-curvature="0" />
	<path style="fill:none;stroke:red;stroke-width:1px;stroke-linecap:butt;stroke-linejoin:miter;stroke-opacity:1" d="M 590.721,577.156 605.983,585.634 z" id="boundary" inkscape:connector-curvature="0" />
	<path style="fill:none;stroke:red;stroke-width:1px;stroke-linecap:butt;stroke-linejoin:miter;stroke-opacity:1" d="M 605.983,585.634 619.549,597.504 z" id="boundary" inkscape:connector-curvature="0" />
	<path style="fill:none;stroke:red;stroke-width:1px;stroke-linecap:butt;stroke-linejoin:miter;stroke-opacity:1" d="M 619.549,597.504 634.81,605.983 z" id="boundary" inkscape:connector-curvature="0" />
	<path style="fill:none;stroke:red;stroke-width:1px;stroke-linecap:butt;stroke-linejoin:miter;stroke-opacity:1" d="M 634.81,605.983 648.376,617.853 z" id="boundary" inkscape:connector-curvature="0" />
	<path style="fill:none;stroke:red;stroke-width:1px;stroke-linecap:butt;stroke-linejoin:miter;stroke-opacity:1" d="M 648.376,617.853 663.638,626.332 z" id="boundary" inkscape:connector-curvature="0" />
	<path style="fill:none;stroke:red;stroke-width:1px;stroke-linecap:butt;stroke-linejoin:miter;stroke-opacity:1" d="M 663.638,626.332 680.595,633.115 z" id="boundary" inkscape:connector-curvature="0" />
	<path style="fill:none;stroke:red;stroke-width:1px;stroke-linecap:butt;stroke-linejoin:miter;stroke-opacity:1" d="M 680.595,633.115 692.465,646.68 z" id="boundary" inkscape:connector-curvature="0" />
	<path style="fill:none;stroke:red;stroke-width:1px;stroke-linecap:butt;stroke-linejoin:miter;stroke-opacity:1" d="M 692.465,646.68 709.422,653.463 z" id="boundary" inkscape:connector-curvature="0" />
	<path style="fill:none;stroke:red;stroke-width:1px;stroke-linecap:butt;stroke-linejoin:miter;stroke-opacity:1" d="M 709.422,653.463 724.684,661.942 z" id="boundary" inkscape:connector-curvature="0" />
	<path style="fill:none;stroke:red;stroke-width:1px;stroke-linecap:butt;stroke-linejoin:miter;stroke-opacity:1" d="M 724.684,661.942 741.641,668.725 z" id="boundary" inkscape:connector-curvature="0" />
	<path style="fill:none;stroke:red;stroke-width:1px;stroke-linecap:butt;stroke-linejoin:miter;stroke-opacity:1" d="M 741.641,668.725 756.903,677.203 z" id="boundary" inkscape:connector-curvature="0" />
	<path style="fill:none;stroke:red;stroke-width:1px;stroke-linecap:butt;stroke-linejoin:miter;stroke-opacity:1" d="M 756.903,677.203 773.86,683.986 z" id="boundary" inkscape:connector-curvature="0" />
	<path style="fill:none;stroke:red;stroke-width:1px;stroke-linecap:butt;stroke-linejoin:miter;stroke-opacity:1" d="M 773.86,683.986 789.121,692.465 z" id="boundary" inkscape:connector-curvature="0" />
	<path style="fill:none;stroke:red;stroke-width:1px;stroke-linecap:butt;stroke-linejoin:miter;stroke-opacity:1" d="M 789.121,692.465 806.079,699.248 z" id="boundary" inkscape:connector-curvature="0" />
	<path style="fill:none;stroke:red;stroke-width:1px;stroke-linecap:butt;stroke-linejoin:miter;stroke-opacity:1" d="M 806.079,699.248 817.949,712.814 z" id="boundary" inkscape:connector-curvature="0" />
	<path style="fill:none;stroke:red;stroke-width:1px;stroke-linecap:butt;stroke-linejoin:miter;stroke-opacity:1" d="M 817.949,712.814 831.515,724.684 z" id="boundary" inkscape:connector-curvature="0" />
	<path style="fill:none;stroke:red;stroke-width:1px;stroke-linecap:butt;stroke-linejoin:miter;stroke-opacity:1" d="M 831.515,724.684 843.385,738.25 z" id="boundary" inkscape:connector-curvature="0" />
	<path style="fill:none;stroke:red;stroke-width:1px;stroke-linecap:butt;stroke-linejoin:miter;stroke-opacity:1" d="M 843.385,738.25 856.95,750.12 z" id="boundary" inkscape:connector-curvature="0" />
	<path style="fill:none;stroke:red;stroke-width:1px;stroke-linecap:butt;stroke-linejoin:miter;stroke-opacity:1" d="M 856.95,750.12 862.038,767.077 z" id="boundary" inkscape:connector-curvature="0" />
	<path style="fill:none;stroke:red;stroke-width:1px;stroke-linecap:butt;stroke-linejoin:miter;stroke-opacity:1" d="M 862.038,767.077 875.603,777.251 z" id="boundary" inkscape:connector-curvature="0" />
	<path style="fill:none;stroke:red;stroke-width:1px;stroke-linecap:butt;stroke-linejoin:miter;stroke-opacity:1" d="M 875.603,777.251 887.474,790.817 z" id="boundary" inkscape:connector-curvature="0" />
	<path style="fill:none;stroke:red;stroke-width:1px;stroke-linecap:butt;stroke-linejoin:miter;stroke-opacity:1" d="M 887.474,790.817 895.952,806.079 z" id="boundary" inkscape:connector-curvature="0" />
	<path style="fill:none;stroke:red;stroke-width:1px;stroke-linecap:butt;stroke-linejoin:miter;stroke-opacity:1" d="M 895.952,806.079 909.518,817.949 z" id="boundary" inkscape:connector-curvature="0" />
	<path style="fill:none;stroke:red;stroke-width:1px;stroke-linecap:butt;stroke-linejoin:miter;stroke-opacity:1" d="M 909.518,817.949 926.475,819.644 z" id="boundary" inkscape:connector-curvature="0" />
	<path style="fill:none;stroke:red;stroke-width:1px;stroke-linecap:butt;stroke-linejoin:miter;stroke-opacity:1" d="M 926.475,819.644 938.345,833.21 z" id="boundary" inkscape:connector-curvature="0" />
	<path style="fill:none;stroke:red;stroke-width:1px;stroke-linecap:butt;stroke-linejoin:miter;stroke-opacity:1" d="M 938.345,833.21 946.824,848.472 z" id="boundary" inkscape:connector-curvature="0" />
	<path style="fill:none;stroke:red;stroke-width:1px;stroke-linecap:butt;stroke-linejoin:miter;stroke-opacity:1" d="M 946.824,848.472 946.824,865.429 z" id="boundary" inkscape:connector-curvature="0" />
	<path style="fill:none;stroke:red;stroke-width:1px;stroke-linecap:butt;stroke-linejoin:miter;stroke-opacity:1" d="M 275.316,441.497 263.446,461.846 z" id="boundary" inkscape:connector-curvature="0" />
	<path style="fill:none;stroke:red;stroke-width:1px;stroke-linecap:butt;stroke-linejoin:miter;stroke-opacity:1" d="M 263.446,461.846 249.88,475.412 z" id="boundary" inkscape:connector-curvature="0" />
	<path style="fill:none;stroke:red;stroke-width:1px;stroke-linecap:butt;stroke-linejoin:miter;stroke-opacity:1" d="M 249.88,475.412 234.619,487.282 z" id="boundary" inkscape:connector-curvature="0" />
	<path style="fill:none;stroke:red;stroke-width:1px;stroke-linecap:butt;stroke-linejoin:miter;stroke-opacity:1" d="M 234.619,487.282 217.662,490.674 z" id="boundary" inkscape:connector-curvature="0" />
	<path style="fill:none;stroke:red;stroke-width:1px;stroke-linecap:butt;stroke-linejoin:miter;stroke-opacity:1" d="M 217.662,490.674 200.704,499.152 z" id="boundary" inkscape:connector-curvature="0" />
	<path style="fill:none;stroke:red;stroke-width:1px;stroke-linecap:butt;stroke-linejoin:miter;stroke-opacity:1" d="M 200.704,499.152 183.747,507.631 z" id="boundary" inkscape:connector-curvature="0" />
	<path style="fill:none;stroke:red;stroke-width:1px;stroke-linecap:butt;stroke-linejoin:miter;stroke-opacity:1" d="M 183.747,507.631 166.79,516.109 z" id="boundary" inkscape:connector-curvature="0" />
	<path style="fill:none;stroke:red;stroke-width:1px;stroke-linecap:butt;stroke-linejoin:miter;stroke-opacity:1" d="M 166.79,516.109 153.224,529.675 z" id="boundary" inkscape:connector-curvature="0" />
	<path style="fill:none;stroke:red;stroke-width:1px;stroke-linecap:butt;stroke-linejoin:miter;stroke-opacity:1" d="M 153.224,529.675 139.658,543.241 z" id="boundary" inkscape:connector-curvature="0" />
	<path style="fill:none;stroke:red;stroke-width:1px;stroke-linecap:butt;stroke-linejoin:miter;stroke-opacity:1" d="M 139.658,543.241 131.179,560.198 z" id="boundary" inkscape:connector-curvature="0" />
	<path style="fill:none;stroke:red;stroke-width:1px;stroke-linecap:butt;stroke-linejoin:miter;stroke-opacity:1" d="M 131.179,560.198 131.179,577.156 z" id="boundary" inkscape:connector-curvature="0" />
	<path style="fill:none;stroke:red;stroke-width:1px;stroke-linecap:butt;stroke-linejoin:miter;stroke-opacity:1" d="M 946.824,865.429 938.345,887.474 z" id="boundary" inkscape:connector-curvature="0" />
	<path style="fill:none;stroke:red;stroke-width:1px;stroke-linecap:butt;stroke-linejoin:miter;stroke-opacity:1" d="M 131.179,577.156 122.701,602.591 z" id="boundary" inkscape:connector-curvature="0" />
	<path style="fill:none;stroke:red;stroke-width:1px;stroke-linecap:butt;stroke-linejoin:miter;stroke-opacity:1" d="M 122.701,602.591 131.179,617.853 z" id="boundary" inkscape:connector-curvature="0" />
	<path style="fill:none;stroke:red;stroke-width:1px;stroke-linecap:butt;stroke-linejoin:miter;stroke-opacity:1" d="M 131.179,617.853 139.658,633.115 z" id="boundary" inkscape:connector-curvature="0" />
	<path style="fill:none;stroke:red;stroke-width:1px;stroke-linecap:butt;stroke-linejoin:miter;stroke-opacity:1" d="M 139.658,633.115 149.832,646.68 z" id="boundary" inkscape:connector-curvature="0" />
	<path style="fill:none;stroke:red;stroke-width:1px;stroke-linecap:butt;stroke-linejoin:miter;stroke-opacity:1" d="M 149.832,646.68 158.311,661.942 z" id="boundary" inkscape:connector-curvature="0" />
	<path style="fill:none;stroke:red;stroke-width:1px;stroke-linecap:butt;stroke-linejoin:miter;stroke-opacity:1" d="M 158.311,661.942 170.181,675.508 z" id="boundary" inkscape:connector-curvature="0" />
	<path style="fill:none;stroke:red;stroke-width:1px;stroke-linecap:butt;stroke-linejoin:miter;stroke-opacity:1" d="M 170.181,675.508 178.66,690.769 z" id="boundary" inkscape:connector-curvature="0" />
	<path style="fill:none;stroke:red;stroke-width:1px;stroke-linecap:butt;stroke-linejoin:miter;stroke-opacity:1" d="M 178.66,690.769 190.53,704.335 z" id="boundary" inkscape:connector-curvature="0" />
	<path style="fill:none;stroke:red;stroke-width:1px;stroke-linecap:butt;stroke-linejoin:miter;stroke-opacity:1" d="M 190.53,704.335 204.096,716.205 z" id="boundary" inkscape:connector-curvature="0" />
	<path style="fill:none;stroke:red;stroke-width:1px;stroke-linecap:butt;stroke-linejoin:miter;stroke-opacity:1" d="M 204.096,716.205 215.966,729.771 z" id="boundary" inkscape:connector-curvature="0" />
	<path style="fill:none;stroke:red;stroke-width:1px;stroke-linecap:butt;stroke-linejoin:miter;stroke-opacity:1" d="M 215.966,729.771 229.532,741.641 z" id="boundary" inkscape:connector-curvature="0" />
	<path style="fill:none;stroke:red;stroke-width:1px;stroke-linecap:butt;stroke-linejoin:miter;stroke-opacity:1" d="M 229.532,741.641 241.402,755.207 z" id="boundary" inkscape:connector-curvature="0" />
	<path style="fill:none;stroke:red;stroke-width:1px;stroke-linecap:butt;stroke-linejoin:miter;stroke-opacity:1" d="M 241.402,755.207 254.968,767.077 z" id="boundary" inkscape:connector-curvature="0" />
	<path style="fill:none;stroke:red;stroke-width:1px;stroke-linecap:butt;stroke-linejoin:miter;stroke-opacity:1" d="M 254.968,767.077 266.838,780.643 z" id="boundary" inkscape:connector-curvature="0" />
	<path style="fill:none;stroke:red;stroke-width:1px;stroke-linecap:butt;stroke-linejoin:miter;stroke-opacity:1" d="M 266.838,780.643 280.403,792.513 z" id="boundary" inkscape:connector-curvature="0" />
	<path style="fill:none;stroke:red;stroke-width:1px;stroke-linecap:butt;stroke-linejoin:miter;stroke-opacity:1" d="M 280.403,792.513 292.274,806.079 z" id="boundary" inkscape:connector-curvature="0" />
	<path style="fill:none;stroke:red;stroke-width:1px;stroke-linecap:butt;stroke-linejoin:miter;stroke-opacity:1" d="M 292.274,806.079 292.274,823.036 z" id="boundary" inkscape:connector-curvature="0" />
	<path style="fill:none;stroke:red;stroke-width:1px;stroke-linecap:butt;stroke-linejoin:miter;stroke-opacity:1" d="M 292.274,823.036 292.274,839.993 z" id="boundary" inkscape:connector-curvature="0" />
	<path style="fill:none;stroke:red;stroke-width:1px;stroke-linecap:butt;stroke-linejoin:miter;stroke-opacity:1" d="M 292.274,839.993 288.882,860.342 z" id="boundary" inkscape:connector-curvature="0" />
	<path style="fill:none;stroke:red;stroke-width:1px;stroke-linecap:butt;stroke-linejoin:miter;stroke-opacity:1" d="M 288.882,860.342 275.316,873.908 z" id="boundary" inkscape:connector-curvature="0" />
	<path style="fill:none;stroke:red;stroke-width:1px;stroke-linecap:butt;stroke-linejoin:miter;stroke-opacity:1" d="M 275.316,873.908 261.75,885.778 z" id="boundary" inkscape:connector-curvature="0" />
	<path style="fill:none;stroke:red;stroke-width:1px;stroke-linecap:butt;stroke-linejoin:miter;stroke-opacity:1" d="M 261.75,885.778 246.489,894.256 z" id="boundary" inkscape:connector-curvature="0" />
	<path style="fill:none;stroke:red;stroke-width:1px;stroke-linecap:butt;stroke-linejoin:miter;stroke-opacity:1" d="M 246.489,894.256 232.923,907.822 z" id="boundary" inkscape:connector-curvature="0" />
	<path style="fill:none;stroke:red;stroke-width:1px;stroke-linecap:butt;stroke-linejoin:miter;stroke-opacity:1" d="M 232.923,907.822 232.923,924.779 z" id="boundary" inkscape:connector-curvature="0" />
	<path style="fill:none;stroke:red;stroke-width:1px;stroke-linecap:butt;stroke-linejoin:miter;stroke-opacity:1" d="M 232.923,924.779 243.097,938.345 z" id="boundary" inkscape:connector-curvature="0" />
	<path style="fill:none;stroke:red;stroke-width:1px;stroke-linecap:butt;stroke-linejoin:miter;stroke-opacity:1" d="M 243.097,938.345 260.055,938.345 z" id="boundary" inkscape:connector-curvature="0" />
	<path style="fill:none;stroke:red;stroke-width:1px;stroke-linecap:butt;stroke-linejoin:miter;stroke-opacity:1" d="M 260.055,938.345 277.012,938.345 z" id="boundary" inkscape:connector-curvature="0" />
	<path style="fill:none;stroke:red;stroke-width:1px;stroke-linecap:butt;stroke-linejoin:miter;stroke-opacity:1" d="M 277.012,938.345 292.274,929.867 z" id="boundary" inkscape:connector-curvature="0" />
	<path style="fill:none;stroke:red;stroke-width:1px;stroke-linecap:butt;stroke-linejoin:miter;stroke-opacity:1" d="M 292.274,929.867 309.231,929.867 z" id="boundary" inkscape:connector-curvature="0" />
	<path style="fill:none;stroke:red;stroke-width:1px;stroke-linecap:butt;stroke-linejoin:miter;stroke-opacity:1" d="M 309.231,929.867 324.492,921.388 z" id="boundary" inkscape:connector-curvature="0" />
	<path style="fill:none;stroke:red;stroke-width:1px;stroke-linecap:butt;stroke-linejoin:miter;stroke-opacity:1" d="M 324.492,921.388 341.45,921.388 z" id="boundary" inkscape:connector-curvature="0" />
	<path style="fill:none;stroke:red;stroke-width:1px;stroke-linecap:butt;stroke-linejoin:miter;stroke-opacity:1" d="M 341.45,921.388 356.711,912.909 z" id="boundary" inkscape:connector-curvature="0" />
	<path style="fill:none;stroke:red;stroke-width:1px;stroke-linecap:butt;stroke-linejoin:miter;stroke-opacity:1" d="M 356.711,912.909 371.973,904.431 z" id="boundary" inkscape:connector-curvature="0" />
	<path style="fill:none;stroke:red;stroke-width:1px;stroke-linecap:butt;stroke-linejoin:miter;stroke-opacity:1" d="M 371.973,904.431 387.234,895.952 z" id="boundary" inkscape:connector-curvature="0" />
	<path style="fill:none;stroke:red;stroke-width:1px;stroke-linecap:butt;stroke-linejoin:miter;stroke-opacity:1" d="M 387.234,895.952 404.191,887.474 z" id="boundary" inkscape:connector-curvature="0" />
	<path style="fill:none;stroke:red;stroke-width:1px;stroke-linecap:butt;stroke-linejoin:miter;stroke-opacity:1" d="M 404.191,887.474 417.757,875.603 z" id="boundary" inkscape:connector-curvature="0" />
	<path style="fill:none;stroke:red;stroke-width:1px;stroke-linecap:butt;stroke-linejoin:miter;stroke-opacity:1" d="M 938.345,887.474 929.867,912.909 z" id="boundary" inkscape:connector-curvature="0" />
	<path style="fill:none;stroke:red;stroke-width:1px;stroke-linecap:butt;stroke-linejoin:miter;stroke-opacity:1" d="M 929.867,912.909 921.388,929.867 z" id="boundary" inkscape:connector-curvature="0" />
	<path style="fill:none;stroke:red;stroke-width:1px;stroke-linecap:butt;stroke-linejoin:miter;stroke-opacity:1" d="M 921.388,929.867 912.909,946.824 z" id="boundary" inkscape:connector-curvature="0" />
	<path style="fill:none;stroke:red;stroke-width:1px;stroke-linecap:butt;stroke-linejoin:miter;stroke-opacity:1" d="M 912.909,946.824 899.344,962.085 z" id="boundary" inkscape:connector-curvature="0" />
	<path style="fill:none;stroke:red;stroke-width:1px;stroke-linecap:butt;stroke-linejoin:miter;stroke-opacity:1" d="M 899.344,962.085 885.778,975.651 z" id="boundary" inkscape:connector-curvature="0" />
	<path style="fill:none;stroke:red;stroke-width:1px;stroke-linecap:butt;stroke-linejoin:miter;stroke-opacity:1" d="M 885.778,975.651 872.212,989.217 z" id="boundary" inkscape:connector-curvature="0" />
	<path style="fill:none;stroke:red;stroke-width:1px;stroke-linecap:butt;stroke-linejoin:miter;stroke-opacity:1" d="M 872.212,989.217 855.255,996 z" id="boundary" inkscape:connector-curvature="0" />
	<path style="fill:none;stroke:red;stroke-width:1px;stroke-linecap:butt;stroke-linejoin:miter;stroke-opacity:1" d="M 855.255,996 843.385,982.434 z" id="boundary" inkscape:connector-curvature="0" />
	<path style="fill:none;stroke:red;stroke-width:1px;stroke-linecap:butt;stroke-linejoin:miter;stroke-opacity:1" d="M 843.385,982.434 834.906,967.173 z" id="boundary" inkscape:connector-curvature="0" />
	<path style="fill:none;stroke:red;stroke-width:1px;stroke-linecap:butt;stroke-linejoin:miter;stroke-opacity:1" d="M 834.906,967.173 843.385,946.824 z" id="boundary" inkscape:connector-curvature="0" />
	<path style="fill:none;stroke:red;stroke-width:1px;stroke-linecap:butt;stroke-linejoin:miter;stroke-opacity:1" d="M 843.385,946.824 843.385,929.867 z" id="boundary" inkscape:connector-curvature="0" />
	<path style="fill:none;stroke:red;stroke-width:1px;stroke-linecap:butt;stroke-linejoin:miter;stroke-opacity:1" d="M 843.385,929.867 843.385,912.909 z" id="boundary" inkscape:connector-curvature="0" />
	<path style="fill:none;stroke:red;stroke-width:1px;stroke-linecap:butt;stroke-linejoin:miter;stroke-opacity:1" d="M 843.385,912.909 843.385,895.952 z" id="boundary" inkscape:connector-curvature="0" />
	<path style="fill:none;stroke:red;stroke-width:1px;stroke-linecap:butt;stroke-linejoin:miter;stroke-opacity:1" d="M 843.385,895.952 843.385,878.995 z" id="boundary" inkscape:connector-curvature="0" />
	<path style="fill:none;stroke:red;stroke-width:1px;stroke-linecap:butt;stroke-linejoin:miter;stroke-opacity:1" d="M 843.385,878.995 839.993,862.038 z" id="boundary" inkscape:connector-curvature="0" />
	<path style="fill:none;stroke:red;stroke-width:1px;stroke-linecap:butt;stroke-linejoin:miter;stroke-opacity:1" d="M 839.993,862.038 828.123,848.472 z" id="boundary" inkscape:connector-curvature="0" />
	<path style="fill:none;stroke:red;stroke-width:1px;stroke-linecap:butt;stroke-linejoin:miter;stroke-opacity:1" d="M 828.123,848.472 811.166,841.689 z" id="boundary" inkscape:connector-curvature="0" />
	<path style="fill:none;stroke:red;stroke-width:1px;stroke-linecap:butt;stroke-linejoin:miter;stroke-opacity:1" d="M 811.166,841.689 795.904,833.21 z" id="boundary" inkscape:connector-curvature="0" />
	<path style="fill:none;stroke:red;stroke-width:1px;stroke-linecap:butt;stroke-linejoin:miter;stroke-opacity:1" d="M 795.904,833.21 778.947,826.427 z" id="boundary" inkscape:connector-curvature="0" />
	<path style="fill:none;stroke:red;stroke-width:1px;stroke-linecap:butt;stroke-linejoin:miter;stroke-opacity:1" d="M 778.947,826.427 763.685,817.949 z" id="boundary" inkscape:connector-curvature="0" />
	<path style="fill:none;stroke:red;stroke-width:1px;stroke-linecap:butt;stroke-linejoin:miter;stroke-opacity:1" d="M 763.685,817.949 746.728,811.166 z" id="boundary" inkscape:connector-curvature="0" />
	<path style="fill:none;stroke:red;stroke-width:1px;stroke-linecap:butt;stroke-linejoin:miter;stroke-opacity:1" d="M 746.728,811.166 731.467,802.687 z" id="boundary" inkscape:connector-curvature="0" />
	<path style="fill:none;stroke:red;stroke-width:1px;stroke-linecap:butt;stroke-linejoin:miter;stroke-opacity:1" d="M 731.467,802.687 716.205,794.209 z" id="boundary" inkscape:connector-curvature="0" />
	<path style="fill:none;stroke:red;stroke-width:1px;stroke-linecap:butt;stroke-linejoin:miter;stroke-opacity:1" d="M 716.205,794.209 700.944,785.73 z" id="boundary" inkscape:connector-curvature="0" />
	<path style="fill:none;stroke:red;stroke-width:1px;stroke-linecap:butt;stroke-linejoin:miter;stroke-opacity:1" d="M 700.944,785.73 685.682,777.251 z" id="boundary" inkscape:connector-curvature="0" />
	<path style="fill:none;stroke:red;stroke-width:1px;stroke-linecap:butt;stroke-linejoin:miter;stroke-opacity:1" d="M 685.682,777.251 670.421,768.773 z" id="boundary" inkscape:connector-curvature="0" />
	<path style="fill:none;stroke:red;stroke-width:1px;stroke-linecap:butt;stroke-linejoin:miter;stroke-opacity:1" d="M 670.421,768.773 655.159,760.294 z" id="boundary" inkscape:connector-curvature="0" />
	<path style="fill:none;stroke:red;stroke-width:1px;stroke-linecap:butt;stroke-linejoin:miter;stroke-opacity:1" d="M 655.159,760.294 639.897,751.815 z" id="boundary" inkscape:connector-curvature="0" />
	<path style="fill:none;stroke:red;stroke-width:1px;stroke-linecap:butt;stroke-linejoin:miter;stroke-opacity:1" d="M 639.897,751.815 624.636,743.337 z" id="boundary" inkscape:connector-curvature="0" />
	<path style="fill:none;stroke:red;stroke-width:1px;stroke-linecap:butt;stroke-linejoin:miter;stroke-opacity:1" d="M 624.636,743.337 609.374,734.858 z" id="boundary" inkscape:connector-curvature="0" />
	<path style="fill:none;stroke:red;stroke-width:1px;stroke-linecap:butt;stroke-linejoin:miter;stroke-opacity:1" d="M 609.374,734.858 594.113,726.379 z" id="boundary" inkscape:connector-curvature="0" />
	<path style="fill:none;stroke:red;stroke-width:1px;stroke-linecap:butt;stroke-linejoin:miter;stroke-opacity:1" d="M 594.113,726.379 587.33,709.422 z" id="boundary" inkscape:connector-curvature="0" />
	<path style="fill:none;stroke:red;stroke-width:1px;stroke-linecap:butt;stroke-linejoin:miter;stroke-opacity:1" d="M 587.33,709.422 573.764,697.552 z" id="boundary" inkscape:connector-curvature="0" />
	<path style="fill:none;stroke:red;stroke-width:1px;stroke-linecap:butt;stroke-linejoin:miter;stroke-opacity:1" d="M 573.764,697.552 563.59,683.986 z" id="boundary" inkscape:connector-curvature="0" />
	<path style="fill:none;stroke:red;stroke-width:1px;stroke-linecap:butt;stroke-linejoin:miter;stroke-opacity:1" d="M 563.59,683.986 546.632,678.899 z" id="boundary" inkscape:connector-curvature="0" />
	<path style="fill:none;stroke:red;stroke-width:1px;stroke-linecap:butt;stroke-linejoin:miter;stroke-opacity:1" d="M 546.632,678.899 534.762,665.333 z" id="boundary" inkscape:connector-curvature="0" />
	<path style="fill:none;stroke:red;stroke-width:1px;stroke-linecap:butt;stroke-linejoin:miter;stroke-opacity:1" d="M 534.762,665.333 521.197,653.463 z" id="boundary" inkscape:connector-curvature="0" />
	<path style="fill:none;stroke:red;stroke-width:1px;stroke-linecap:butt;stroke-linejoin:miter;stroke-opacity:1" d="M 521.197,653.463 509.326,639.897 z" id="boundary" inkscape:connector-curvature="0" />
	<path style="fill:none;stroke:red;stroke-width:1px;stroke-linecap:butt;stroke-linejoin:miter;stroke-opacity:1" d="M 509.326,639.897 495.761,628.027 z" id="boundary" inkscape:connector-curvature="0" />
	<path style="fill:none;stroke:red;stroke-width:1px;stroke-linecap:butt;stroke-linejoin:miter;stroke-opacity:1" d="M 495.761,628.027 483.891,614.462 z" id="boundary" inkscape:connector-curvature="0" />
	<path style="fill:none;stroke:red;stroke-width:1px;stroke-linecap:butt;stroke-linejoin:miter;stroke-opacity:1" d="M 483.891,614.462 470.325,602.591 z" id="boundary" inkscape:connector-curvature="0" />
	<path style="fill:none;stroke:red;stroke-width:1px;stroke-linecap:butt;stroke-linejoin:miter;stroke-opacity:1" d="M 470.325,602.591 463.542,585.634 z" id="boundary" inkscape:connector-curvature="0" />
	<path style="fill:none;stroke:red;stroke-width:1px;stroke-linecap:butt;stroke-linejoin:miter;stroke-opacity:1" d="M 463.542,585.634 446.585,578.851 z" id="boundary" inkscape:connector-curvature="0" />
	<path style="fill:none;stroke:red;stroke-width:1px;stroke-linecap:butt;stroke-linejoin:miter;stroke-opacity:1" d="M 446.585,578.851 436.41,565.285 z" id="boundary" inkscape:connector-curvature="0" />
	<path style="fill:none;stroke:red;stroke-width:1px;stroke-linecap:butt;stroke-linejoin:miter;stroke-opacity:1" d="M 436.41,565.285 419.453,565.285 z" id="boundary" inkscape:connector-curvature="0" />
	<path style="fill:none;stroke:red;stroke-width:1px;stroke-linecap:butt;stroke-linejoin:miter;stroke-opacity:1" d="M 419.453,565.285 402.496,565.285 z" id="boundary" inkscape:connector-curvature="0" />
	<path style="fill:none;stroke:red;stroke-width:1px;stroke-linecap:butt;stroke-linejoin:miter;stroke-opacity:1" d="M 402.496,565.285 385.538,565.285 z" id="boundary" inkscape:connector-curvature="0" />
	<path style="fill:none;stroke:red;stroke-width:1px;stroke-linecap:butt;stroke-linejoin:miter;stroke-opacity:1" d="M 385.538,565.285 368.581,565.285 z" id="boundary" inkscape:connector-curvature="0" />
	<path style="fill:none;stroke:red;stroke-width:1px;stroke-linecap:butt;stroke-linejoin:miter;stroke-opacity:1" d="M 368.581,565.285 351.624,565.285 z" id="boundary" inkscape:connector-curvature="0" />
	<path style="fill:none;stroke:red;stroke-width:1px;stroke-linecap:butt;stroke-linejoin:miter;stroke-opacity:1" d="M 351.624,565.285 334.667,565.285 z" id="boundary" inkscape:connector-curvature="0" />
	<path style="fill:none;stroke:red;stroke-width:1px;stroke-linecap:butt;stroke-linejoin:miter;stroke-opacity:1" d="M 334.667,565.285 317.709,565.285 z" id="boundary" inkscape:connector-curvature="0" />
	<path style="fill:none;stroke:red;stroke-width:1px;stroke-linecap:butt;stroke-linejoin:miter;stroke-opacity:1" d="M 317.709,565.285 300.752,568.677 z" id="boundary" inkscape:connector-curvature="0" />
	<path style="fill:none;stroke:red;stroke-width:1px;stroke-linecap:butt;stroke-linejoin:miter;stroke-opacity:1" d="M 300.752,568.677 283.795,573.764 z" id="boundary" inkscape:connector-curvature="0" />
	<path style="fill:none;stroke:red;stroke-width:1px;stroke-linecap:butt;stroke-linejoin:miter;stroke-opacity:1" d="M 283.795,573.764 266.838,573.764 z" id="boundary" inkscape:connector-curvature="0" />
	<path style="fill:none;stroke:red;stroke-width:1px;stroke-linecap:butt;stroke-linejoin:miter;stroke-opacity:1" d="M 266.838,573.764 249.88,577.156 z" id="boundary" inkscape:connector-curvature="0" />
	<path style="fill:none;stroke:red;stroke-width:1px;stroke-linecap:butt;stroke-linejoin:miter;stroke-opacity:1" d="M 249.88,577.156 232.923,582.243 z" id="boundary" inkscape:connector-curvature="0" />
	<path style="fill:none;stroke:red;stroke-width:1px;stroke-linecap:butt;stroke-linejoin:miter;stroke-opacity:1" d="M 232.923,582.243 217.662,590.721 z" id="boundary" inkscape:connector-curvature="0" />
	<path style="fill:none;stroke:red;stroke-width:1px;stroke-linecap:butt;stroke-linejoin:miter;stroke-opacity:1" d="M 217.662,590.721 217.662,607.679 z" id="boundary" inkscape:connector-curvature="0" />
	<path style="fill:none;stroke:red;stroke-width:1px;stroke-linecap:butt;stroke-linejoin:miter;stroke-opacity:1" d="M 217.662,607.679 226.14,622.94 z" id="boundary" inkscape:connector-curvature="0" />
	<path style="fill:none;stroke:red;stroke-width:1px;stroke-linecap:butt;stroke-linejoin:miter;stroke-opacity:1" d="M 226.14,622.94 239.706,633.115 z" id="boundary" inkscape:connector-curvature="0" />
	<path style="fill:none;stroke:red;stroke-width:1px;stroke-linecap:butt;stroke-linejoin:miter;stroke-opacity:1" d="M 239.706,633.115 251.576,646.68 z" id="boundary" inkscape:connector-curvature="0" />
	<path style="fill:none;stroke:red;stroke-width:1px;stroke-linecap:butt;stroke-linejoin:miter;stroke-opacity:1" d="M 251.576,646.68 265.142,658.55 z" id="boundary" inkscape:connector-curvature="0" />
	<path style="fill:none;stroke:red;stroke-width:1px;stroke-linecap:butt;stroke-linejoin:miter;stroke-opacity:1" d="M 265.142,658.55 277.012,672.116 z" id="boundary" inkscape:connector-curvature="0" />
	<path style="fill:none;stroke:red;stroke-width:1px;stroke-linecap:butt;stroke-linejoin:miter;stroke-opacity:1" d="M 277.012,672.116 290.578,683.986 z" id="boundary" inkscape:connector-curvature="0" />
	<path style="fill:none;stroke:red;stroke-width:1px;stroke-linecap:butt;stroke-linejoin:miter;stroke-opacity:1" d="M 290.578,683.986 302.448,697.552 z" id="boundary" inkscape:connector-curvature="0" />
	<path style="fill:none;stroke:red;stroke-width:1px;stroke-linecap:butt;stroke-linejoin:miter;stroke-opacity:1" d="M 302.448,697.552 316.014,709.422 z" id="boundary" inkscape:connector-curvature="0" />
	<path style="fill:none;stroke:red;stroke-width:1px;stroke-linecap:butt;stroke-linejoin:miter;stroke-opacity:1" d="M 316.014,709.422 331.275,717.901 z" id="boundary" inkscape:connector-curvature="0" />
	<path style="fill:none;stroke:red;stroke-width:1px;stroke-linecap:butt;stroke-linejoin:miter;stroke-opacity:1" d="M 331.275,717.901 344.841,729.771 z" id="boundary" inkscape:connector-curvature="0" />
	<path style="fill:none;stroke:red;stroke-width:1px;stroke-linecap:butt;stroke-linejoin:miter;stroke-opacity:1" d="M 344.841,729.771 351.624,746.728 z" id="boundary" inkscape:connector-curvature="0" />
	<path style="fill:none;stroke:red;stroke-width:1px;stroke-linecap:butt;stroke-linejoin:miter;stroke-opacity:1" d="M 351.624,746.728 365.19,758.598 z" id="boundary" inkscape:connector-curvature="0" />
	<path style="fill:none;stroke:red;stroke-width:1px;stroke-linecap:butt;stroke-linejoin:miter;stroke-opacity:1" d="M 365.19,758.598 370.277,775.556 z" id="boundary" inkscape:connector-curvature="0" />
	<path style="fill:none;stroke:red;stroke-width:1px;stroke-linecap:butt;stroke-linejoin:miter;stroke-opacity:1" d="M 370.277,775.556 378.756,790.817 z" id="boundary" inkscape:connector-curvature="0" />
	<path style="fill:none;stroke:red;stroke-width:1px;stroke-linecap:butt;stroke-linejoin:miter;stroke-opacity:1" d="M 378.756,790.817 392.321,802.687 z" id="boundary" inkscape:connector-curvature="0" />
	<path style="fill:none;stroke:red;stroke-width:1px;stroke-linecap:butt;stroke-linejoin:miter;stroke-opacity:1" d="M 392.321,802.687 399.104,819.644 z" id="boundary" inkscape:connector-curvature="0" />
	<path style="fill:none;stroke:red;stroke-width:1px;stroke-linecap:butt;stroke-linejoin:miter;stroke-opacity:1" d="M 399.104,819.644 412.67,831.515 z" id="boundary" inkscape:connector-curvature="0" />
	<path style="fill:none;stroke:red;stroke-width:1px;stroke-linecap:butt;stroke-linejoin:miter;stroke-opacity:1" d="M 412.67,831.515 419.453,848.472 z" id="boundary" inkscape:connector-curvature="0" />
	<path style="fill:none;stroke:red;stroke-width:1px;stroke-linecap:butt;stroke-linejoin:miter;stroke-opacity:1" d="M 419.453,848.472 417.757,875.603 z" id="boundary" inkscape:connector-curvature="0" />
	<circle cx="4" cy="68.4376" r="4" fill="#0" id="circle0"/>
	<circle cx="4" cy="85.3949" r="4" fill="#0" id="circle1"/>
	<circle cx="4" cy="102.352" r="4" fill="#0" id="circle2"/>
	<circle cx="12.4786" cy="51.4803" r="4" fill="#0" id="circle3"/>
	<circle cx="12.4786" cy="117.614" r="4" fill="#0" id="circle4"/>
	<circle cx="20.9573" cy="34.5231" r="4" fill="#0" id="circle5"/>
	<circle cx="24.3487" cy="131.179" r="4" fill="#0" id="circle6"/>
	<circle cx="34.5231" cy="20.9573" r="4" fill="#0" id="circle7"/>
	<circle cx="41.306" cy="137.962" r="4" fill="#0" id="circle8"/>
	<circle cx="49.7846" cy="12.4786" r="4" fill="#0" id="circle9"/>
	<circle cx="58.2632" cy="141.354" r="4" fill="#0" id="circle10"/>
	<circle cx="65.0462" cy="4" r="4" fill="#0" id="circle11"/>
	<circle cx="75.2205" cy="141.354" r="4" fill="#0" id="circle12"/>
	<circle cx="82.0034" cy="4" r="4" fill="#0" id="circle13"/>
	<circle cx="92.1778" cy="141.354" r="4" fill="#0" id="circle14"/>
	<circle cx="97.265" cy="12.4786" r="4" fill="#0" id="circle15"/>
	<circle cx="109.135" cy="141.354" r="4" fill="#0" id="circle16"/>
	<circle cx="114.222" cy="15.8701" r="4" fill="#0" id="circle17"/>
	<circle cx="117.614" cy="156.615" r="4" fill="#0" id="circle18"/>
	<circle cx="122.701" cy="173.573" r="4" fill="#0" id="circle19"/>
	<circle cx="122.701" cy="190.53" r="4" fill="#0" id="circle20"/>
	<circle cx="122.701" cy="207.487" r="4" fill="#0" id="circle21"/>
	<circle cx="122.701" cy="224.444" r="4" fill="#0" id="circle22"/>
	<circle cx="122.701" cy="241.402" r="4" fill="#0" id="circle23"/>
	<circle cx="122.701" cy="602.591" r="4" fill="#0" id="circle24"/>
	<circle cx="126.092" cy="258.359" r="4" fill="#0" id="circle25"/>
	<circle cx="129.484" cy="24.3487" r="4" fill="#0" id="circle26"/>
	<circle cx="131.179" cy="560.198" r="4" fill="#0" id="circle27"/>
	<circle cx="131.179" cy="577.156" r="4" fill="#0" id="circle28"/>
	<circle cx="131.179" cy="617.853" r="4" fill="#0" id="circle29"/>
	<circle cx="139.658" cy="268.533" r="4" fill="#0" id="circle30"/>
	<circle cx="139.658" cy="543.241" r="4" fill="#0" id="circle31"/>
	<circle cx="139.658" cy="633.115" r="4" fill="#0" id="circle32"/>
	<circle cx="141.354" cy="37.9145" r="4" fill="#0" id="circle33"/>
	<circle cx="149.832" cy="646.68" r="4" fill="#0" id="circle34"/>
	<circle cx="153.224" cy="529.675" r="4" fill="#0" id="circle35"/>
	<circle cx="154.92" cy="48.0889" r="4" fill="#0" id="circle36"/>
	<circle cx="154.92" cy="277.012" r="4" fill="#0" id="circle37"/>
	<circle cx="158.311" cy="661.942" r="4" fill="#0" id="circle38"/>
	<circle cx="161.703" cy="65.0462" r="4" fill="#0" id="circle39"/>
	<circle cx="166.79" cy="516.109" r="4" fill="#0" id="circle40"/>
	<circle cx="170.181" cy="80.3077" r="4" fill="#0" id="circle41"/>
	<circle cx="170.181" cy="285.491" r="4" fill="#0" id="circle42"/>
	<circle cx="170.181" cy="675.508" r="4" fill="#0" id="circle43"/>
	<circle cx="175.268" cy="97.265" r="4" fill="#0" id="circle44"/>
	<circle cx="178.66" cy="690.769" r="4" fill="#0" id="circle45"/>
	<circle cx="183.747" cy="507.631" r="4" fill="#0" id="circle46"/>
	<circle cx="185.443" cy="293.969" r="4" fill="#0" id="circle47"/>
	<circle cx="188.834" cy="107.439" r="4" fill="#0" id="circle48"/>
	<circle cx="190.53" cy="704.335" r="4" fill="#0" id="circle49"/>
	<circle cx="200.704" cy="302.448" r="4" fill="#0" id="circle50"/>
	<circle cx="200.704" cy="499.152" r="4" fill="#0" id="circle51"/>
	<circle cx="204.096" cy="115.918" r="4" fill="#0" id="circle52"/>
	<circle cx="204.096" cy="716.205" r="4" fill="#0" id="circle53"/>
	<circle cx="215.966" cy="310.926" r="4" fill="#0" id="circle54"/>
	<circle cx="215.966" cy="729.771" r="4" fill="#0" id="circle55"/>
	<circle cx="217.662" cy="127.788" r="4" fill="#0" id="circle56"/>
	<circle cx="217.662" cy="490.674" r="4" fill="#0" id="circle57"/>
	<circle cx="217.662" cy="590.721" r="4" fill="#0" id="circle58"/>
	<circle cx="217.662" cy="607.679" r="4" fill="#0" id="circle59"/>
	<circle cx="226.14" cy="622.94" r="4" fill="#0" id="circle60"/>
	<circle cx="229.532" cy="741.641" r="4" fill="#0" id="circle61"/>
	<circle cx="231.227" cy="139.658" r="4" fill="#0" id="circle62"/>
	<circle cx="231.227" cy="319.405" r="4" fill="#0" id="circle63"/>
	<circle cx="232.923" cy="582.243" r="4" fill="#0" id="circle64"/>
	<circle cx="232.923" cy="907.822" r="4" fill="#0" id="circle65"/>
	<circle cx="232.923" cy="924.779" r="4" fill="#0" id="circle66"/>
	<circle cx="234.619" cy="487.282" r="4" fill="#0" id="circle67"/>
	<circle cx="239.706" cy="633.115" r="4" fill="#0" id="circle68"/>
	<circle cx="241.402" cy="755.207" r="4" fill="#0" id="circle69"/>
	<circle cx="243.097" cy="938.345" r="4" fill="#0" id="circle70"/>
	<circle cx="246.489" cy="148.137" r="4" fill="#0" id="circle71"/>
	<circle cx="246.489" cy="327.884" r="4" fill="#0" id="circle72"/>
	<circle cx="246.489" cy="894.256" r="4" fill="#0" id="circle73"/>
	<circle cx="249.88" cy="475.412" r="4" fill="#0" id="circle74"/>
	<circle cx="249.88" cy="577.156" r="4" fill="#0" id="circle75"/>
	<circle cx="251.576" cy="646.68" r="4" fill="#0" id="circle76"/>
	<circle cx="254.968" cy="767.077" r="4" fill="#0" id="circle77"/>
	<circle cx="260.055" cy="339.754" r="4" fill="#0" id="circle78"/>
	<circle cx="260.055" cy="938.345" r="4" fill="#0" id="circle79"/>
	<circle cx="261.75" cy="156.615" r="4" fill="#0" id="circle80"/>
	<circle cx="261.75" cy="885.778" r="4" fill="#0" id="circle81"/>
	<circle cx="263.446" cy="461.846" r="4" fill="#0" id="circle82"/>
	<circle cx="265.142" cy="658.55" r="4" fill="#0" id="circle83"/>
	<circle cx="266.838" cy="573.764" r="4" fill="#0" id="circle84"/>
	<circle cx="266.838" cy="780.643" r="4" fill="#0" id="circle85"/>
	<circle cx="271.925" cy="353.32" r="4" fill="#0" id="circle86"/>
	<circle cx="275.316" cy="441.497" r="4" fill="#0" id="circle87"/>
	<circle cx="275.316" cy="873.908" r="4" fill="#0" id="circle88"/>
	<circle cx="277.012" cy="165.094" r="4" fill="#0" id="circle89"/>
	<circle cx="277.012" cy="672.116" r="4" fill="#0" id="circle90"/>
	<circle cx="277.012" cy="938.345" r="4" fill="#0" id="circle91"/>
	<circle cx="280.403" cy="792.513" r="4" fill="#0" id="circle92"/>
	<circle cx="283.795" cy="573.764" r="4" fill="#0" id="circle93"/>
	<circle cx="288.882" cy="360.103" r="4" fill="#0" id="circle94"/>
	<circle cx="288.882" cy="427.932" r="4" fill="#0" id="circle95"/>
	<circle cx="288.882" cy="860.342" r="4" fill="#0" id="circle96"/>
	<circle cx="290.578" cy="683.986" r="4" fill="#0" id="circle97"/>
	<circle cx="292.274" cy="377.06" r="4" fill="#0" id="circle98"/>
	<circle cx="292.274" cy="394.017" r="4" fill="#0" id="circle99"/>
	<circle cx="292.274" cy="410.974" r="4" fill="#0" id="circle100"/>
	<circle cx="292.274" cy="806.079" r="4" fill="#0" id="circle101"/>
	<circle cx="292.274" cy="823.036" r="4" fill="#0" id="circle102"/>
	<circle cx="292.274" cy="839.993" r="4" fill="#0" id="circle103"/>
	<circle cx="292.274" cy="929.867" r="4" fill="#0" id="circle104"/>
	<circle cx="293.969" cy="170.181" r="4" fill="#0" id="circle105"/>
	<circle cx="300.752" cy="568.677" r="4" fill="#0" id="circle106"/>
	<circle cx="302.448" cy="697.552" r="4" fill="#0" id="circle107"/>
	<circle cx="307.535" cy="182.051" r="4" fill="#0" id="circle108"/>
	<circle cx="309.231" cy="929.867" r="4" fill="#0" id="circle109"/>
	<circle cx="316.014" cy="709.422" r="4" fill="#0" id="circle110"/>
	<circle cx="317.709" cy="565.285" r="4" fill="#0" id="circle111"/>
	<circle cx="322.797" cy="190.53" r="4" fill="#0" id="circle112"/>
	<circle cx="324.492" cy="921.388" r="4" fill="#0" id="circle113"/>
	<circle cx="331.275" cy="717.901" r="4" fill="#0" id="circle114"/>
	<circle cx="334.667" cy="204.096" r="4" fill="#0" id="circle115"/>
	<circle cx="334.667" cy="565.285" r="4" fill="#0" id="circle116"/>
	<circle cx="341.45" cy="921.388" r="4" fill="#0" id="circle117"/>
	<circle cx="344.841" cy="729.771" r="4" fill="#0" id="circle118"/>
	<circle cx="351.624" cy="210.879" r="4" fill="#0" id="circle119"/>
	<circle cx="351.624" cy="565.285" r="4" fill="#0" id="circle120"/>
	<circle cx="351.624" cy="746.728" r="4" fill="#0" id="circle121"/>
	<circle cx="356.711" cy="912.909" r="4" fill="#0" id="circle122"/>
	<circle cx="365.19" cy="758.598" r="4" fill="#0" id="circle123"/>
	<circle cx="366.885" cy="219.357" r="4" fill="#0" id="circle124"/>
	<circle cx="368.581" cy="565.285" r="4" fill="#0" id="circle125"/>
	<circle cx="370.277" cy="775.556" r="4" fill="#0" id="circle126"/>
	<circle cx="371.973" cy="904.431" r="4" fill="#0" id="circle127"/>
	<circle cx="378.756" cy="232.923" r="4" fill="#0" id="circle128"/>
	<circle cx="378.756" cy="790.817" r="4" fill="#0" id="circle129"/>
	<circle cx="385.538" cy="565.285" r="4" fill="#0" id="circle130"/>
	<circle cx="387.234" cy="895.952" r="4" fill="#0" id="circle131"/>
	<circle cx="392.321" cy="802.687" r="4" fill="#0" id="circle132"/>
	<circle cx="394.017" cy="241.402" r="4" fill="#0" id="circle133"/>
	<circle cx="399.104" cy="819.644" r="4" fill="#0" id="circle134"/>
	<circle cx="402.496" cy="565.285" r="4" fill="#0" id="circle135"/>
	<circle cx="404.191" cy="887.474" r="4" fill="#0" id="circle136"/>
	<circle cx="409.279" cy="249.88" r="4" fill="#0" id="circle137"/>
	<circle cx="412.67" cy="831.515" r="4" fill="#0" id="circle138"/>
	<circle cx="417.757" cy="875.603" r="4" fill="#0" id="circle139"/>
	<circle cx="419.453" cy="565.285" r="4" fill="#0" id="circle140"/>
	<circle cx="419.453" cy="848.472" r="4" fill="#0" id="circle141"/>
	<circle cx="424.54" cy="258.359" r="4" fill="#0" id="circle142"/>
	<circle cx="436.41" cy="271.925" r="4" fill="#0" id="circle143"/>
	<circle cx="436.41" cy="565.285" r="4" fill="#0" id="circle144"/>
	<circle cx="444.889" cy="287.186" r="4" fill="#0" id="circle145"/>
	<circle cx="446.585" cy="578.851" r="4" fill="#0" id="circle146"/>
	<circle cx="451.672" cy="304.144" r="4" fill="#0" id="circle147"/>
	<circle cx="460.15" cy="319.405" r="4" fill="#0" id="circle148"/>
	<circle cx="463.542" cy="585.634" r="4" fill="#0" id="circle149"/>
	<circle cx="466.933" cy="336.362" r="4" fill="#0" id="circle150"/>
	<circle cx="470.325" cy="602.591" r="4" fill="#0" id="circle151"/>
	<circle cx="475.412" cy="351.624" r="4" fill="#0" id="circle152"/>
	<circle cx="480.499" cy="368.581" r="4" fill="#0" id="circle153"/>
	<circle cx="483.891" cy="614.462" r="4" fill="#0" id="circle154"/>
	<circle cx="494.065" cy="378.756" r="4" fill="#0" id="circle155"/>
	<circle cx="495.761" cy="628.027" r="4" fill="#0" id="circle156"/>
	<circle cx="500.848" cy="395.713" r="4" fill="#0" id="circle157"/>
	<circle cx="509.326" cy="410.974" r="4" fill="#0" id="circle158"/>
	<circle cx="509.326" cy="639.897" r="4" fill="#0" id="circle159"/>
	<circle cx="514.414" cy="427.932" r="4" fill="#0" id="circle160"/>
	<circle cx="521.197" cy="653.463" r="4" fill="#0" id="circle161"/>
	<circle cx="522.892" cy="443.193" r="4" fill="#0" id="circle162"/>
	<circle cx="531.371" cy="458.455" r="4" fill="#0" id="circle163"/>
	<circle cx="534.762" cy="665.333" r="4" fill="#0" id="circle164"/>
	<circle cx="538.154" cy="475.412" r="4" fill="#0" id="circle165"/>
	<circle cx="546.632" cy="490.674" r="4" fill="#0" id="circle166"/>
	<circle cx="546.632" cy="678.899" r="4" fill="#0" id="circle167"/>
	<circle cx="548.328" cy="507.631" r="4" fill="#0" id="circle168"/>
	<circle cx="556.807" cy="522.892" r="4" fill="#0" id="circle169"/>
	<circle cx="560.198" cy="539.85" r="4" fill="#0" id="circle170"/>
	<circle cx="563.59" cy="683.986" r="4" fill="#0" id="circle171"/>
	<circle cx="565.285" cy="556.807" r="4" fill="#0" id="circle172"/>
	<circle cx="573.764" cy="572.068" r="4" fill="#0" id="circle173"/>
	<circle cx="573.764" cy="697.552" r="4" fill="#0" id="circle174"/>
	<circle cx="587.33" cy="709.422" r="4" fill="#0" id="circle175"/>
	<circle cx="590.721" cy="577.156" r="4" fill="#0" id="circle176"/>
	<circle cx="594.113" cy="726.379" r="4" fill="#0" id="circle177"/>
	<circle cx="605.983" cy="585.634" r="4" fill="#0" id="circle178"/>
	<circle cx="609.374" cy="734.858" r="4" fill="#0" id="circle179"/>
	<circle cx="619.549" cy="597.504" r="4" fill="#0" id="circle180"/>
	<circle cx="624.636" cy="743.337" r="4" fill="#0" id="circle181"/>
	<circle cx="634.81" cy="605.983" r="4" fill="#0" id="circle182"/>
	<circle cx="639.897" cy="751.815" r="4" fill="#0" id="circle183"/>
	<circle cx="648.376" cy="617.853" r="4" fill="#0" id="circle184"/>
	<circle cx="655.159" cy="760.294" r="4" fill="#0" id="circle185"/>
	<circle cx="663.638" cy="626.332" r="4" fill="#0" id="circle186"/>
	<circle cx="670.421" cy="768.773" r="4" fill="#0" id="circle187"/>
	<circle cx="680.595" cy="633.115" r="4" fill="#0" id="circle188"/>
	<circle cx="685.682" cy="777.251" r="4" fill="#0" id="circle189"/>
	<circle cx="692.465" cy="646.68" r="4" fill="#0" id="circle190"/>
	<circle cx="700.944" cy="785.73" r="4" fill="#0" id="circle191"/>
	<circle cx="709.422" cy="653.463" r="4" fill="#0" id="circle192"/>
	<circle cx="716.205" cy="794.209" r="4" fill="#0" id="circle193"/>
	<circle cx="724.684" cy="661.942" r="4" fill="#0" id="circle194"/>
	<circle cx="731.467" cy="802.687" r="4" fill="#0" id="circle195"/>
	<circle cx="741.641" cy="668.725" r="4" fill="#0" id="circle196"/>
	<circle cx="746.728" cy="811.166" r="4" fill="#0" id="circle197"/>
	<circle cx="756.903" cy="677.203" r="4" fill="#0" id="circle198"/>
	<circle cx="763.685" cy="817.949" r="4" fill="#0" id="circle199"/>
	<circle cx="773.86" cy="683.986" r="4" fill="#0" id="circle200"/>
	<circle cx="778.947" cy="826.427" r="4" fill="#0" id="circle201"/>
	<circle cx="789.121" cy="692.465" r="4" fill="#0" id="circle202"/>
	<circle cx="795.904" cy="833.21" r="4" fill="#0" id="circle203"/>
	<circle cx="806.079" cy="699.248" r="4" fill="#0" id="circle204"/>
	<circle cx="811.166" cy="841.689" r="4" fill="#0" id="circle205"/>
	<circle cx="817.949" cy="712.814" r="4" fill="#0" id="circle206"/>
	<circle cx="828.123" cy="848.472" r="4" fill="#0" id="circle207"/>
	<circle cx="831.515" cy="724.684" r="4" fill="#0" id="circle208"/>
	<circle cx="834.906" cy="967.173" r="4" fill="#0" id="circle209"/>
	<circle cx="839.993" cy="862.038" r="4" fill="#0" id="circle210"/>
	<circle cx="843.385" cy="738.25" r="4" fill="#0" id="circle211"/>
	<circle cx="843.385" cy="878.995" r="4" fill="#0" id="circle212"/>
	<circle cx="843.385" cy="895.952" r="4" fill="#0" id="circle213"/>
	<circle cx="843.385" cy="912.909" r="4" fill="#0" id="circle214"/>
	<circle cx="843.385" cy="929.867" r="4" fill="#0" id="circle215"/>
	<circle cx="843.385" cy="946.824" r="4" fill="#0" id="circle216"/>
	<circle cx="843.385" cy="982.434" r="4" fill="#0" id="circle217"/>
	<circle cx="855.255" cy="996" r="4" fill="#0" id="circle218"/>
	<circle cx="856.95" cy="750.12" r="4" fill="#0" id="circle219"/>
	<circle cx="862.038" cy="767.077" r="4" fill="#0" id="circle220"/>
	<circle cx="872.212" cy="989.217" r="4" fill="#0" id="circle221"/>
	<circle cx="875.603" cy="777.251" r="4" fill="#0" id="circle222"/>
	<circle cx="885.778" cy="975.651" r="4" fill="#0" id="circle223"/>
	<circle cx="887.474" cy="790.817" r="4" fill="#0" id="circle224"/>
	<circle cx="895.952" cy="806.079" r="4" fill="#0" id="circle225"/>
	<circle cx="899.344" cy="962.085" r="4" fill="#0" id="circle226"/>
	<circle cx="909.518" cy="817.949" r="4" fill="#0" id="circle227"/>
	<circle cx="912.909" cy="946.824" r="4" fill="#0" id="circle228"/>
	<circle cx="921.388" cy="929.867" r="4" fill="#0" id="circle229"/>
	<circle cx="926.475" cy="819.644" r="4" fill="#0" id="circle230"/>
	<circle cx="929.867" cy="912.909" r="4" fill="#0" id="circle231"/>
	<circle cx="938.345" cy="833.21" r="4" fill="#0" id="circle232"/>
	<circle cx="938.345" cy="887.474" r="4" fill="#0" id="circle233"/>
	<circle cx="946.824" cy="848.472" r="4" fill="#0" id="circle234"/>
	<circle cx="946.824" cy="865.429" r="4" fill="#0" id="circle235"/>
	</g>
</svg>