<?xml version="1.0" encoding="UTF-8" standalone="no"?>
<!-- Created with CurveBenchmark -->
<svg
	xmlns:dc="http://purl.org/dc/elements/1.1/"
	xmlns:cc="http://creativecommons.org/ns#"
	xmlns:rdf="http://www.w3.org/1999/02/22-rdf-syntax-ns#"
	xmlns:svg="http://www.w3.org/2000/svg"
	xmlns="http://www.w3.org/2000/svg"
	xmlns:sodipodi="http://sodipodi.sourceforge.net/DTD/sodipodi-0.dtd"
	xmlns:inkscape="http://www.inkscape.org/namespaces/inkscape"
	width="1000"
	height="1000"
	id="svg2"
	version="1.1"
	sodipodi:docname="manifold/crawl-brick08.png.txt">
<defs
	id="defs4" />
<metadata
	id="metadata7">
	<rdf:RDF>
		<cc:Work
			rdf:about="">
			<dc:format>image/svg+xml</dc:format>
			<dc:type
				rdf:resource="http://purl.org/dc/dcmitype/StillImage" />
			<dc:title></dc:title>
		</cc:Work>
	</rdf:RDF>
</metadata>
<g
	inkscape:label="Layer 1"
	inkscape:groupmode="layer"
	id="layer1">
	<path style="fill:none;stroke:red;stroke-width:1px;stroke-linecap:butt;stroke-linejoin:miter;stroke-opacity:1" d="M 4,213.525 4,232.067 z" id="boundary" inkscape:connector-curvature="0" />
	<path style="fill:none;stroke:red;stroke-width:1px;stroke-linecap:butt;stroke-linejoin:miter;stroke-opacity:1" d="M 4,232.067 4,250.609 z" id="boundary" inkscape:connector-curvature="0" />
	<path style="fill:none;stroke:red;stroke-width:1px;stroke-linecap:butt;stroke-linejoin:miter;stroke-opacity:1" d="M 4,250.609 18.8336,263.589 z" id="boundary" inkscape:connector-curvature="0" />
	<path style="fill:none;stroke:red;stroke-width:1px;stroke-linecap:butt;stroke-linejoin:miter;stroke-opacity:1" d="M 18.8336,263.589 37.3757,265.443 z" id="boundary" inkscape:connector-curvature="0" />
	<path style="fill:none;stroke:red;stroke-width:1px;stroke-linecap:butt;stroke-linejoin:miter;stroke-opacity:1" d="M 37.3757,265.443 55.9178,265.443 z" id="boundary" inkscape:connector-curvature="0" />
	<path style="fill:none;stroke:red;stroke-width:1px;stroke-linecap:butt;stroke-linejoin:miter;stroke-opacity:1" d="M 55.9178,265.443 74.4598,265.443 z" id="boundary" inkscape:connector-curvature="0" />
	<path style="fill:none;stroke:red;stroke-width:1px;stroke-linecap:butt;stroke-linejoin:miter;stroke-opacity:1" d="M 74.4598,265.443 93.0019,265.443 z" id="boundary" inkscape:connector-curvature="0" />
	<path style="fill:none;stroke:red;stroke-width:1px;stroke-linecap:butt;stroke-linejoin:miter;stroke-opacity:1" d="M 93.0019,265.443 111.544,265.443 z" id="boundary" inkscape:connector-curvature="0" />
	<path style="fill:none;stroke:red;stroke-width:1px;stroke-linecap:butt;stroke-linejoin:miter;stroke-opacity:1" d="M 111.544,265.443 130.086,265.443 z" id="boundary" inkscape:connector-curvature="0" />
	<path style="fill:none;stroke:red;stroke-width:1px;stroke-linecap:butt;stroke-linejoin:miter;stroke-opacity:1" d="M 130.086,265.443 148.628,265.443 z" id="boundary" inkscape:connector-curvature="0" />
	<path style="fill:none;stroke:red;stroke-width:1px;stroke-linecap:butt;stroke-linejoin:miter;stroke-opacity:1" d="M 148.628,265.443 167.17,265.443 z" id="boundary" inkscape:connector-curvature="0" />
	<path style="fill:none;stroke:red;stroke-width:1px;stroke-linecap:butt;stroke-linejoin:miter;stroke-opacity:1" d="M 167.17,265.443 185.712,265.443 z" id="boundary" inkscape:connector-curvature="0" />
	<path style="fill:none;stroke:red;stroke-width:1px;stroke-linecap:butt;stroke-linejoin:miter;stroke-opacity:1" d="M 185.712,265.443 204.254,265.443 z" id="boundary" inkscape:connector-curvature="0" />
	<path style="fill:none;stroke:red;stroke-width:1px;stroke-linecap:butt;stroke-linejoin:miter;stroke-opacity:1" d="M 204.254,265.443 220.942,274.714 z" id="boundary" inkscape:connector-curvature="0" />
	<path style="fill:none;stroke:red;stroke-width:1px;stroke-linecap:butt;stroke-linejoin:miter;stroke-opacity:1" d="M 220.942,274.714 230.213,291.402 z" id="boundary" inkscape:connector-curvature="0" />
	<path style="fill:none;stroke:red;stroke-width:1px;stroke-linecap:butt;stroke-linejoin:miter;stroke-opacity:1" d="M 230.213,291.402 245.047,302.527 z" id="boundary" inkscape:connector-curvature="0" />
	<path style="fill:none;stroke:red;stroke-width:1px;stroke-linecap:butt;stroke-linejoin:miter;stroke-opacity:1" d="M 245.047,302.527 256.172,317.361 z" id="boundary" inkscape:connector-curvature="0" />
	<path style="fill:none;stroke:red;stroke-width:1px;stroke-linecap:butt;stroke-linejoin:miter;stroke-opacity:1" d="M 256.172,317.361 274.714,324.778 z" id="boundary" inkscape:connector-curvature="0" />
	<path style="fill:none;stroke:red;stroke-width:1px;stroke-linecap:butt;stroke-linejoin:miter;stroke-opacity:1" d="M 274.714,324.778 293.256,330.34 z" id="boundary" inkscape:connector-curvature="0" />
	<path style="fill:none;stroke:red;stroke-width:1px;stroke-linecap:butt;stroke-linejoin:miter;stroke-opacity:1" d="M 293.256,330.34 311.798,330.34 z" id="boundary" inkscape:connector-curvature="0" />
	<path style="fill:none;stroke:red;stroke-width:1px;stroke-linecap:butt;stroke-linejoin:miter;stroke-opacity:1" d="M 311.798,330.34 330.34,330.34 z" id="boundary" inkscape:connector-curvature="0" />
	<path style="fill:none;stroke:red;stroke-width:1px;stroke-linecap:butt;stroke-linejoin:miter;stroke-opacity:1" d="M 330.34,330.34 348.882,330.34 z" id="boundary" inkscape:connector-curvature="0" />
	<path style="fill:none;stroke:red;stroke-width:1px;stroke-linecap:butt;stroke-linejoin:miter;stroke-opacity:1" d="M 348.882,330.34 367.424,330.34 z" id="boundary" inkscape:connector-curvature="0" />
	<path style="fill:none;stroke:red;stroke-width:1px;stroke-linecap:butt;stroke-linejoin:miter;stroke-opacity:1" d="M 367.424,330.34 385.966,330.34 z" id="boundary" inkscape:connector-curvature="0" />
	<path style="fill:none;stroke:red;stroke-width:1px;stroke-linecap:butt;stroke-linejoin:miter;stroke-opacity:1" d="M 385.966,330.34 404.508,330.34 z" id="boundary" inkscape:connector-curvature="0" />
	<path style="fill:none;stroke:red;stroke-width:1px;stroke-linecap:butt;stroke-linejoin:miter;stroke-opacity:1" d="M 404.508,330.34 423.05,321.069 z" id="boundary" inkscape:connector-curvature="0" />
	<path style="fill:none;stroke:red;stroke-width:1px;stroke-linecap:butt;stroke-linejoin:miter;stroke-opacity:1" d="M 423.05,321.069 441.593,321.069 z" id="boundary" inkscape:connector-curvature="0" />
	<path style="fill:none;stroke:red;stroke-width:1px;stroke-linecap:butt;stroke-linejoin:miter;stroke-opacity:1" d="M 441.593,321.069 460.135,321.069 z" id="boundary" inkscape:connector-curvature="0" />
	<path style="fill:none;stroke:red;stroke-width:1px;stroke-linecap:butt;stroke-linejoin:miter;stroke-opacity:1" d="M 460.135,321.069 476.822,311.798 z" id="boundary" inkscape:connector-curvature="0" />
	<path style="fill:none;stroke:red;stroke-width:1px;stroke-linecap:butt;stroke-linejoin:miter;stroke-opacity:1" d="M 476.822,311.798 495.364,311.798 z" id="boundary" inkscape:connector-curvature="0" />
	<path style="fill:none;stroke:red;stroke-width:1px;stroke-linecap:butt;stroke-linejoin:miter;stroke-opacity:1" d="M 495.364,311.798 513.907,311.798 z" id="boundary" inkscape:connector-curvature="0" />
	<path style="fill:none;stroke:red;stroke-width:1px;stroke-linecap:butt;stroke-linejoin:miter;stroke-opacity:1" d="M 513.907,311.798 532.449,311.798 z" id="boundary" inkscape:connector-curvature="0" />
	<path style="fill:none;stroke:red;stroke-width:1px;stroke-linecap:butt;stroke-linejoin:miter;stroke-opacity:1" d="M 532.449,311.798 550.991,311.798 z" id="boundary" inkscape:connector-curvature="0" />
	<path style="fill:none;stroke:red;stroke-width:1px;stroke-linecap:butt;stroke-linejoin:miter;stroke-opacity:1" d="M 550.991,311.798 569.533,311.798 z" id="boundary" inkscape:connector-curvature="0" />
	<path style="fill:none;stroke:red;stroke-width:1px;stroke-linecap:butt;stroke-linejoin:miter;stroke-opacity:1" d="M 569.533,311.798 588.075,311.798 z" id="boundary" inkscape:connector-curvature="0" />
	<path style="fill:none;stroke:red;stroke-width:1px;stroke-linecap:butt;stroke-linejoin:miter;stroke-opacity:1" d="M 588.075,311.798 606.617,311.798 z" id="boundary" inkscape:connector-curvature="0" />
	<path style="fill:none;stroke:red;stroke-width:1px;stroke-linecap:butt;stroke-linejoin:miter;stroke-opacity:1" d="M 606.617,311.798 625.159,311.798 z" id="boundary" inkscape:connector-curvature="0" />
	<path style="fill:none;stroke:red;stroke-width:1px;stroke-linecap:butt;stroke-linejoin:miter;stroke-opacity:1" d="M 625.159,311.798 641.847,321.069 z" id="boundary" inkscape:connector-curvature="0" />
	<path style="fill:none;stroke:red;stroke-width:1px;stroke-linecap:butt;stroke-linejoin:miter;stroke-opacity:1" d="M 641.847,321.069 658.535,330.34 z" id="boundary" inkscape:connector-curvature="0" />
	<path style="fill:none;stroke:red;stroke-width:1px;stroke-linecap:butt;stroke-linejoin:miter;stroke-opacity:1" d="M 658.535,330.34 677.077,337.757 z" id="boundary" inkscape:connector-curvature="0" />
	<path style="fill:none;stroke:red;stroke-width:1px;stroke-linecap:butt;stroke-linejoin:miter;stroke-opacity:1" d="M 677.077,337.757 693.764,347.028 z" id="boundary" inkscape:connector-curvature="0" />
	<path style="fill:none;stroke:red;stroke-width:1px;stroke-linecap:butt;stroke-linejoin:miter;stroke-opacity:1" d="M 693.764,347.028 708.598,358.153 z" id="boundary" inkscape:connector-curvature="0" />
	<path style="fill:none;stroke:red;stroke-width:1px;stroke-linecap:butt;stroke-linejoin:miter;stroke-opacity:1" d="M 708.598,358.153 719.723,372.987 z" id="boundary" inkscape:connector-curvature="0" />
	<path style="fill:none;stroke:red;stroke-width:1px;stroke-linecap:butt;stroke-linejoin:miter;stroke-opacity:1" d="M 719.723,372.987 734.557,385.966 z" id="boundary" inkscape:connector-curvature="0" />
	<path style="fill:none;stroke:red;stroke-width:1px;stroke-linecap:butt;stroke-linejoin:miter;stroke-opacity:1" d="M 734.557,385.966 751.245,395.237 z" id="boundary" inkscape:connector-curvature="0" />
	<path style="fill:none;stroke:red;stroke-width:1px;stroke-linecap:butt;stroke-linejoin:miter;stroke-opacity:1" d="M 751.245,395.237 769.787,395.237 z" id="boundary" inkscape:connector-curvature="0" />
	<path style="fill:none;stroke:red;stroke-width:1px;stroke-linecap:butt;stroke-linejoin:miter;stroke-opacity:1" d="M 769.787,395.237 788.329,395.237 z" id="boundary" inkscape:connector-curvature="0" />
	<path style="fill:none;stroke:red;stroke-width:1px;stroke-linecap:butt;stroke-linejoin:miter;stroke-opacity:1" d="M 788.329,395.237 806.871,395.237 z" id="boundary" inkscape:connector-curvature="0" />
	<path style="fill:none;stroke:red;stroke-width:1px;stroke-linecap:butt;stroke-linejoin:miter;stroke-opacity:1" d="M 806.871,395.237 825.413,395.237 z" id="boundary" inkscape:connector-curvature="0" />
	<path style="fill:none;stroke:red;stroke-width:1px;stroke-linecap:butt;stroke-linejoin:miter;stroke-opacity:1" d="M 825.413,395.237 843.955,395.237 z" id="boundary" inkscape:connector-curvature="0" />
	<path style="fill:none;stroke:red;stroke-width:1px;stroke-linecap:butt;stroke-linejoin:miter;stroke-opacity:1" d="M 843.955,395.237 862.497,393.383 z" id="boundary" inkscape:connector-curvature="0" />
	<path style="fill:none;stroke:red;stroke-width:1px;stroke-linecap:butt;stroke-linejoin:miter;stroke-opacity:1" d="M 862.497,393.383 881.039,385.966 z" id="boundary" inkscape:connector-curvature="0" />
	<path style="fill:none;stroke:red;stroke-width:1px;stroke-linecap:butt;stroke-linejoin:miter;stroke-opacity:1" d="M 881.039,385.966 899.581,385.966 z" id="boundary" inkscape:connector-curvature="0" />
	<path style="fill:none;stroke:red;stroke-width:1px;stroke-linecap:butt;stroke-linejoin:miter;stroke-opacity:1" d="M 4,213.525 13.271,194.983 z" id="boundary" inkscape:connector-curvature="0" />
	<path style="fill:none;stroke:red;stroke-width:1px;stroke-linecap:butt;stroke-linejoin:miter;stroke-opacity:1" d="M 13.271,194.983 22.5421,176.441 z" id="boundary" inkscape:connector-curvature="0" />
	<path style="fill:none;stroke:red;stroke-width:1px;stroke-linecap:butt;stroke-linejoin:miter;stroke-opacity:1" d="M 22.5421,176.441 37.3757,161.607 z" id="boundary" inkscape:connector-curvature="0" />
	<path style="fill:none;stroke:red;stroke-width:1px;stroke-linecap:butt;stroke-linejoin:miter;stroke-opacity:1" d="M 37.3757,161.607 54.0636,152.336 z" id="boundary" inkscape:connector-curvature="0" />
	<path style="fill:none;stroke:red;stroke-width:1px;stroke-linecap:butt;stroke-linejoin:miter;stroke-opacity:1" d="M 54.0636,152.336 68.8972,139.357 z" id="boundary" inkscape:connector-curvature="0" />
	<path style="fill:none;stroke:red;stroke-width:1px;stroke-linecap:butt;stroke-linejoin:miter;stroke-opacity:1" d="M 68.8972,139.357 83.7308,124.523 z" id="boundary" inkscape:connector-curvature="0" />
	<path style="fill:none;stroke:red;stroke-width:1px;stroke-linecap:butt;stroke-linejoin:miter;stroke-opacity:1" d="M 899.581,385.966 914.415,367.424 z" id="boundary" inkscape:connector-curvature="0" />
	<path style="fill:none;stroke:red;stroke-width:1px;stroke-linecap:butt;stroke-linejoin:miter;stroke-opacity:1" d="M 914.415,367.424 923.686,347.028 z" id="boundary" inkscape:connector-curvature="0" />
	<path style="fill:none;stroke:red;stroke-width:1px;stroke-linecap:butt;stroke-linejoin:miter;stroke-opacity:1" d="M 923.686,347.028 923.686,328.486 z" id="boundary" inkscape:connector-curvature="0" />
	<path style="fill:none;stroke:red;stroke-width:1px;stroke-linecap:butt;stroke-linejoin:miter;stroke-opacity:1" d="M 923.686,328.486 923.686,309.944 z" id="boundary" inkscape:connector-curvature="0" />
	<path style="fill:none;stroke:red;stroke-width:1px;stroke-linecap:butt;stroke-linejoin:miter;stroke-opacity:1" d="M 923.686,309.944 923.686,291.402 z" id="boundary" inkscape:connector-curvature="0" />
	<path style="fill:none;stroke:red;stroke-width:1px;stroke-linecap:butt;stroke-linejoin:miter;stroke-opacity:1" d="M 923.686,291.402 914.415,274.714 z" id="boundary" inkscape:connector-curvature="0" />
	<path style="fill:none;stroke:red;stroke-width:1px;stroke-linecap:butt;stroke-linejoin:miter;stroke-opacity:1" d="M 914.415,274.714 923.686,256.172 z" id="boundary" inkscape:connector-curvature="0" />
	<path style="fill:none;stroke:red;stroke-width:1px;stroke-linecap:butt;stroke-linejoin:miter;stroke-opacity:1" d="M 923.686,256.172 932.957,237.63 z" id="boundary" inkscape:connector-curvature="0" />
	<path style="fill:none;stroke:red;stroke-width:1px;stroke-linecap:butt;stroke-linejoin:miter;stroke-opacity:1" d="M 932.957,237.63 951.499,228.359 z" id="boundary" inkscape:connector-curvature="0" />
	<path style="fill:none;stroke:red;stroke-width:1px;stroke-linecap:butt;stroke-linejoin:miter;stroke-opacity:1" d="M 951.499,228.359 966.333,215.379 z" id="boundary" inkscape:connector-curvature="0" />
	<path style="fill:none;stroke:red;stroke-width:1px;stroke-linecap:butt;stroke-linejoin:miter;stroke-opacity:1" d="M 966.333,215.379 984.875,206.108 z" id="boundary" inkscape:connector-curvature="0" />
	<path style="fill:none;stroke:red;stroke-width:1px;stroke-linecap:butt;stroke-linejoin:miter;stroke-opacity:1" d="M 984.875,206.108 994.146,187.566 z" id="boundary" inkscape:connector-curvature="0" />
	<path style="fill:none;stroke:red;stroke-width:1px;stroke-linecap:butt;stroke-linejoin:miter;stroke-opacity:1" d="M 994.146,187.566 996,157.899 z" id="boundary" inkscape:connector-curvature="0" />
	<path style="fill:none;stroke:red;stroke-width:1px;stroke-linecap:butt;stroke-linejoin:miter;stroke-opacity:1" d="M 996,157.899 988.583,139.357 z" id="boundary" inkscape:connector-curvature="0" />
	<path style="fill:none;stroke:red;stroke-width:1px;stroke-linecap:butt;stroke-linejoin:miter;stroke-opacity:1" d="M 988.583,139.357 988.583,120.815 z" id="boundary" inkscape:connector-curvature="0" />
	<path style="fill:none;stroke:red;stroke-width:1px;stroke-linecap:butt;stroke-linejoin:miter;stroke-opacity:1" d="M 988.583,120.815 979.312,104.127 z" id="boundary" inkscape:connector-curvature="0" />
	<path style="fill:none;stroke:red;stroke-width:1px;stroke-linecap:butt;stroke-linejoin:miter;stroke-opacity:1" d="M 979.312,104.127 966.333,89.2935 z" id="boundary" inkscape:connector-curvature="0" />
	<path style="fill:none;stroke:red;stroke-width:1px;stroke-linecap:butt;stroke-linejoin:miter;stroke-opacity:1" d="M 966.333,89.2935 951.499,78.1682 z" id="boundary" inkscape:connector-curvature="0" />
	<path style="fill:none;stroke:red;stroke-width:1px;stroke-linecap:butt;stroke-linejoin:miter;stroke-opacity:1" d="M 951.499,78.1682 932.957,78.1682 z" id="boundary" inkscape:connector-curvature="0" />
	<path style="fill:none;stroke:red;stroke-width:1px;stroke-linecap:butt;stroke-linejoin:miter;stroke-opacity:1" d="M 932.957,78.1682 914.415,78.1682 z" id="boundary" inkscape:connector-curvature="0" />
	<path style="fill:none;stroke:red;stroke-width:1px;stroke-linecap:butt;stroke-linejoin:miter;stroke-opacity:1" d="M 914.415,78.1682 895.873,78.1682 z" id="boundary" inkscape:connector-curvature="0" />
	<path style="fill:none;stroke:red;stroke-width:1px;stroke-linecap:butt;stroke-linejoin:miter;stroke-opacity:1" d="M 895.873,78.1682 877.331,78.1682 z" id="boundary" inkscape:connector-curvature="0" />
	<path style="fill:none;stroke:red;stroke-width:1px;stroke-linecap:butt;stroke-linejoin:miter;stroke-opacity:1" d="M 877.331,78.1682 858.789,78.1682 z" id="boundary" inkscape:connector-curvature="0" />
	<path style="fill:none;stroke:red;stroke-width:1px;stroke-linecap:butt;stroke-linejoin:miter;stroke-opacity:1" d="M 858.789,78.1682 840.247,78.1682 z" id="boundary" inkscape:connector-curvature="0" />
	<path style="fill:none;stroke:red;stroke-width:1px;stroke-linecap:butt;stroke-linejoin:miter;stroke-opacity:1" d="M 840.247,78.1682 821.705,78.1682 z" id="boundary" inkscape:connector-curvature="0" />
	<path style="fill:none;stroke:red;stroke-width:1px;stroke-linecap:butt;stroke-linejoin:miter;stroke-opacity:1" d="M 821.705,78.1682 803.163,78.1682 z" id="boundary" inkscape:connector-curvature="0" />
	<path style="fill:none;stroke:red;stroke-width:1px;stroke-linecap:butt;stroke-linejoin:miter;stroke-opacity:1" d="M 803.163,78.1682 784.621,78.1682 z" id="boundary" inkscape:connector-curvature="0" />
	<path style="fill:none;stroke:red;stroke-width:1px;stroke-linecap:butt;stroke-linejoin:miter;stroke-opacity:1" d="M 784.621,78.1682 773.495,63.3346 z" id="boundary" inkscape:connector-curvature="0" />
	<path style="fill:none;stroke:red;stroke-width:1px;stroke-linecap:butt;stroke-linejoin:miter;stroke-opacity:1" d="M 773.495,63.3346 758.662,50.3551 z" id="boundary" inkscape:connector-curvature="0" />
	<path style="fill:none;stroke:red;stroke-width:1px;stroke-linecap:butt;stroke-linejoin:miter;stroke-opacity:1" d="M 758.662,50.3551 741.974,41.0841 z" id="boundary" inkscape:connector-curvature="0" />
	<path style="fill:none;stroke:red;stroke-width:1px;stroke-linecap:butt;stroke-linejoin:miter;stroke-opacity:1" d="M 741.974,41.0841 723.432,41.0841 z" id="boundary" inkscape:connector-curvature="0" />
	<path style="fill:none;stroke:red;stroke-width:1px;stroke-linecap:butt;stroke-linejoin:miter;stroke-opacity:1" d="M 723.432,41.0841 704.89,41.0841 z" id="boundary" inkscape:connector-curvature="0" />
	<path style="fill:none;stroke:red;stroke-width:1px;stroke-linecap:butt;stroke-linejoin:miter;stroke-opacity:1" d="M 704.89,41.0841 686.348,41.0841 z" id="boundary" inkscape:connector-curvature="0" />
	<path style="fill:none;stroke:red;stroke-width:1px;stroke-linecap:butt;stroke-linejoin:miter;stroke-opacity:1" d="M 686.348,41.0841 669.66,50.3551 z" id="boundary" inkscape:connector-curvature="0" />
	<path style="fill:none;stroke:red;stroke-width:1px;stroke-linecap:butt;stroke-linejoin:miter;stroke-opacity:1" d="M 669.66,50.3551 651.118,50.3551 z" id="boundary" inkscape:connector-curvature="0" />
	<path style="fill:none;stroke:red;stroke-width:1px;stroke-linecap:butt;stroke-linejoin:miter;stroke-opacity:1" d="M 651.118,50.3551 632.576,50.3551 z" id="boundary" inkscape:connector-curvature="0" />
	<path style="fill:none;stroke:red;stroke-width:1px;stroke-linecap:butt;stroke-linejoin:miter;stroke-opacity:1" d="M 632.576,50.3551 615.888,59.6262 z" id="boundary" inkscape:connector-curvature="0" />
	<path style="fill:none;stroke:red;stroke-width:1px;stroke-linecap:butt;stroke-linejoin:miter;stroke-opacity:1" d="M 615.888,59.6262 597.346,59.6262 z" id="boundary" inkscape:connector-curvature="0" />
	<path style="fill:none;stroke:red;stroke-width:1px;stroke-linecap:butt;stroke-linejoin:miter;stroke-opacity:1" d="M 597.346,59.6262 578.804,59.6262 z" id="boundary" inkscape:connector-curvature="0" />
	<path style="fill:none;stroke:red;stroke-width:1px;stroke-linecap:butt;stroke-linejoin:miter;stroke-opacity:1" d="M 578.804,59.6262 560.262,59.6262 z" id="boundary" inkscape:connector-curvature="0" />
	<path style="fill:none;stroke:red;stroke-width:1px;stroke-linecap:butt;stroke-linejoin:miter;stroke-opacity:1" d="M 560.262,59.6262 541.72,59.6262 z" id="boundary" inkscape:connector-curvature="0" />
	<path style="fill:none;stroke:red;stroke-width:1px;stroke-linecap:butt;stroke-linejoin:miter;stroke-opacity:1" d="M 541.72,59.6262 523.178,59.6262 z" id="boundary" inkscape:connector-curvature="0" />
	<path style="fill:none;stroke:red;stroke-width:1px;stroke-linecap:butt;stroke-linejoin:miter;stroke-opacity:1" d="M 523.178,59.6262 504.636,59.6262 z" id="boundary" inkscape:connector-curvature="0" />
	<path style="fill:none;stroke:red;stroke-width:1px;stroke-linecap:butt;stroke-linejoin:miter;stroke-opacity:1" d="M 504.636,59.6262 486.093,59.6262 z" id="boundary" inkscape:connector-curvature="0" />
	<path style="fill:none;stroke:red;stroke-width:1px;stroke-linecap:butt;stroke-linejoin:miter;stroke-opacity:1" d="M 486.093,59.6262 467.551,59.6262 z" id="boundary" inkscape:connector-curvature="0" />
	<path style="fill:none;stroke:red;stroke-width:1px;stroke-linecap:butt;stroke-linejoin:miter;stroke-opacity:1" d="M 467.551,59.6262 449.009,59.6262 z" id="boundary" inkscape:connector-curvature="0" />
	<path style="fill:none;stroke:red;stroke-width:1px;stroke-linecap:butt;stroke-linejoin:miter;stroke-opacity:1" d="M 449.009,59.6262 430.467,59.6262 z" id="boundary" inkscape:connector-curvature="0" />
	<path style="fill:none;stroke:red;stroke-width:1px;stroke-linecap:butt;stroke-linejoin:miter;stroke-opacity:1" d="M 430.467,59.6262 411.925,59.6262 z" id="boundary" inkscape:connector-curvature="0" />
	<path style="fill:none;stroke:red;stroke-width:1px;stroke-linecap:butt;stroke-linejoin:miter;stroke-opacity:1" d="M 411.925,59.6262 393.383,59.6262 z" id="boundary" inkscape:connector-curvature="0" />
	<path style="fill:none;stroke:red;stroke-width:1px;stroke-linecap:butt;stroke-linejoin:miter;stroke-opacity:1" d="M 393.383,59.6262 374.841,54.0636 z" id="boundary" inkscape:connector-curvature="0" />
	<path style="fill:none;stroke:red;stroke-width:1px;stroke-linecap:butt;stroke-linejoin:miter;stroke-opacity:1" d="M 374.841,54.0636 356.299,50.3551 z" id="boundary" inkscape:connector-curvature="0" />
	<path style="fill:none;stroke:red;stroke-width:1px;stroke-linecap:butt;stroke-linejoin:miter;stroke-opacity:1" d="M 356.299,50.3551 337.757,44.7925 z" id="boundary" inkscape:connector-curvature="0" />
	<path style="fill:none;stroke:red;stroke-width:1px;stroke-linecap:butt;stroke-linejoin:miter;stroke-opacity:1" d="M 337.757,44.7925 319.215,41.0841 z" id="boundary" inkscape:connector-curvature="0" />
	<path style="fill:none;stroke:red;stroke-width:1px;stroke-linecap:butt;stroke-linejoin:miter;stroke-opacity:1" d="M 319.215,41.0841 300.673,37.3757 z" id="boundary" inkscape:connector-curvature="0" />
	<path style="fill:none;stroke:red;stroke-width:1px;stroke-linecap:butt;stroke-linejoin:miter;stroke-opacity:1" d="M 300.673,37.3757 283.985,28.1047 z" id="boundary" inkscape:connector-curvature="0" />
	<path style="fill:none;stroke:red;stroke-width:1px;stroke-linecap:butt;stroke-linejoin:miter;stroke-opacity:1" d="M 283.985,28.1047 265.443,22.5421 z" id="boundary" inkscape:connector-curvature="0" />
	<path style="fill:none;stroke:red;stroke-width:1px;stroke-linecap:butt;stroke-linejoin:miter;stroke-opacity:1" d="M 265.443,22.5421 254.318,7.70841 z" id="boundary" inkscape:connector-curvature="0" />
	<path style="fill:none;stroke:red;stroke-width:1px;stroke-linecap:butt;stroke-linejoin:miter;stroke-opacity:1" d="M 254.318,7.70841 235.776,4 z" id="boundary" inkscape:connector-curvature="0" />
	<path style="fill:none;stroke:red;stroke-width:1px;stroke-linecap:butt;stroke-linejoin:miter;stroke-opacity:1" d="M 235.776,4 217.234,4 z" id="boundary" inkscape:connector-curvature="0" />
	<path style="fill:none;stroke:red;stroke-width:1px;stroke-linecap:butt;stroke-linejoin:miter;stroke-opacity:1" d="M 217.234,4 198.692,4 z" id="boundary" inkscape:connector-curvature="0" />
	<path style="fill:none;stroke:red;stroke-width:1px;stroke-linecap:butt;stroke-linejoin:miter;stroke-opacity:1" d="M 198.692,4 180.15,9.56262 z" id="boundary" inkscape:connector-curvature="0" />
	<path style="fill:none;stroke:red;stroke-width:1px;stroke-linecap:butt;stroke-linejoin:miter;stroke-opacity:1" d="M 180.15,9.56262 161.607,13.271 z" id="boundary" inkscape:connector-curvature="0" />
	<path style="fill:none;stroke:red;stroke-width:1px;stroke-linecap:butt;stroke-linejoin:miter;stroke-opacity:1" d="M 161.607,13.271 143.065,13.271 z" id="boundary" inkscape:connector-curvature="0" />
	<path style="fill:none;stroke:red;stroke-width:1px;stroke-linecap:butt;stroke-linejoin:miter;stroke-opacity:1" d="M 143.065,13.271 124.523,13.271 z" id="boundary" inkscape:connector-curvature="0" />
	<path style="fill:none;stroke:red;stroke-width:1px;stroke-linecap:butt;stroke-linejoin:miter;stroke-opacity:1" d="M 124.523,13.271 105.981,18.8336 z" id="boundary" inkscape:connector-curvature="0" />
	<path style="fill:none;stroke:red;stroke-width:1px;stroke-linecap:butt;stroke-linejoin:miter;stroke-opacity:1" d="M 105.981,18.8336 96.7103,37.3757 z" id="boundary" inkscape:connector-curvature="0" />
	<path style="fill:none;stroke:red;stroke-width:1px;stroke-linecap:butt;stroke-linejoin:miter;stroke-opacity:1" d="M 96.7103,37.3757 87.4393,55.9178 z" id="boundary" inkscape:connector-curvature="0" />
	<path style="fill:none;stroke:red;stroke-width:1px;stroke-linecap:butt;stroke-linejoin:miter;stroke-opacity:1" d="M 87.4393,55.9178 87.4393,74.4598 z" id="boundary" inkscape:connector-curvature="0" />
	<path style="fill:none;stroke:red;stroke-width:1px;stroke-linecap:butt;stroke-linejoin:miter;stroke-opacity:1" d="M 87.4393,74.4598 87.4393,93.0019 z" id="boundary" inkscape:connector-curvature="0" />
	<path style="fill:none;stroke:red;stroke-width:1px;stroke-linecap:butt;stroke-linejoin:miter;stroke-opacity:1" d="M 83.7308,124.523 87.4393,93.0019 z" id="boundary" inkscape:connector-curvature="0" />
	<circle cx="4" cy="213.525" r="4" fill="#0" id="circle0"/>
	<circle cx="4" cy="232.067" r="4" fill="#0" id="circle1"/>
	<circle cx="4" cy="250.609" r="4" fill="#0" id="circle2"/>
	<circle cx="13.271" cy="194.983" r="4" fill="#0" id="circle3"/>
	<circle cx="18.8336" cy="263.589" r="4" fill="#0" id="circle4"/>
	<circle cx="22.5421" cy="176.441" r="4" fill="#0" id="circle5"/>
	<circle cx="37.3757" cy="161.607" r="4" fill="#0" id="circle6"/>
	<circle cx="37.3757" cy="265.443" r="4" fill="#0" id="circle7"/>
	<circle cx="54.0636" cy="152.336" r="4" fill="#0" id="circle8"/>
	<circle cx="55.9178" cy="265.443" r="4" fill="#0" id="circle9"/>
	<circle cx="68.8972" cy="139.357" r="4" fill="#0" id="circle10"/>
	<circle cx="74.4598" cy="265.443" r="4" fill="#0" id="circle11"/>
	<circle cx="83.7308" cy="124.523" r="4" fill="#0" id="circle12"/>
	<circle cx="87.4393" cy="55.9178" r="4" fill="#0" id="circle13"/>
	<circle cx="87.4393" cy="74.4598" r="4" fill="#0" id="circle14"/>
	<circle cx="87.4393" cy="93.0019" r="4" fill="#0" id="circle15"/>
	<circle cx="93.0019" cy="265.443" r="4" fill="#0" id="circle16"/>
	<circle cx="96.7103" cy="37.3757" r="4" fill="#0" id="circle17"/>
	<circle cx="105.981" cy="18.8336" r="4" fill="#0" id="circle18"/>
	<circle cx="111.544" cy="265.443" r="4" fill="#0" id="circle19"/>
	<circle cx="124.523" cy="13.271" r="4" fill="#0" id="circle20"/>
	<circle cx="130.086" cy="265.443" r="4" fill="#0" id="circle21"/>
	<circle cx="143.065" cy="13.271" r="4" fill="#0" id="circle22"/>
	<circle cx="148.628" cy="265.443" r="4" fill="#0" id="circle23"/>
	<circle cx="161.607" cy="13.271" r="4" fill="#0" id="circle24"/>
	<circle cx="167.17" cy="265.443" r="4" fill="#0" id="circle25"/>
	<circle cx="180.15" cy="9.56262" r="4" fill="#0" id="circle26"/>
	<circle cx="185.712" cy="265.443" r="4" fill="#0" id="circle27"/>
	<circle cx="198.692" cy="4" r="4" fill="#0" id="circle28"/>
	<circle cx="204.254" cy="265.443" r="4" fill="#0" id="circle29"/>
	<circle cx="217.234" cy="4" r="4" fill="#0" id="circle30"/>
	<circle cx="220.942" cy="274.714" r="4" fill="#0" id="circle31"/>
	<circle cx="230.213" cy="291.402" r="4" fill="#0" id="circle32"/>
	<circle cx="235.776" cy="4" r="4" fill="#0" id="circle33"/>
	<circle cx="245.047" cy="302.527" r="4" fill="#0" id="circle34"/>
	<circle cx="254.318" cy="7.70841" r="4" fill="#0" id="circle35"/>
	<circle cx="256.172" cy="317.361" r="4" fill="#0" id="circle36"/>
	<circle cx="265.443" cy="22.5421" r="4" fill="#0" id="circle37"/>
	<circle cx="274.714" cy="324.778" r="4" fill="#0" id="circle38"/>
	<circle cx="283.985" cy="28.1047" r="4" fill="#0" id="circle39"/>
	<circle cx="293.256" cy="330.34" r="4" fill="#0" id="circle40"/>
	<circle cx="300.673" cy="37.3757" r="4" fill="#0" id="circle41"/>
	<circle cx="311.798" cy="330.34" r="4" fill="#0" id="circle42"/>
	<circle cx="319.215" cy="41.0841" r="4" fill="#0" id="circle43"/>
	<circle cx="330.34" cy="330.34" r="4" fill="#0" id="circle44"/>
	<circle cx="337.757" cy="44.7925" r="4" fill="#0" id="circle45"/>
	<circle cx="348.882" cy="330.34" r="4" fill="#0" id="circle46"/>
	<circle cx="356.299" cy="50.3551" r="4" fill="#0" id="circle47"/>
	<circle cx="367.424" cy="330.34" r="4" fill="#0" id="circle48"/>
	<circle cx="374.841" cy="54.0636" r="4" fill="#0" id="circle49"/>
	<circle cx="385.966" cy="330.34" r="4" fill="#0" id="circle50"/>
	<circle cx="393.383" cy="59.6262" r="4" fill="#0" id="circle51"/>
	<circle cx="404.508" cy="330.34" r="4" fill="#0" id="circle52"/>
	<circle cx="411.925" cy="59.6262" r="4" fill="#0" id="circle53"/>
	<circle cx="423.05" cy="321.069" r="4" fill="#0" id="circle54"/>
	<circle cx="430.467" cy="59.6262" r="4" fill="#0" id="circle55"/>
	<circle cx="441.593" cy="321.069" r="4" fill="#0" id="circle56"/>
	<circle cx="449.009" cy="59.6262" r="4" fill="#0" id="circle57"/>
	<circle cx="460.135" cy="321.069" r="4" fill="#0" id="circle58"/>
	<circle cx="467.551" cy="59.6262" r="4" fill="#0" id="circle59"/>
	<circle cx="476.822" cy="311.798" r="4" fill="#0" id="circle60"/>
	<circle cx="486.093" cy="59.6262" r="4" fill="#0" id="circle61"/>
	<circle cx="495.364" cy="311.798" r="4" fill="#0" id="circle62"/>
	<circle cx="504.636" cy="59.6262" r="4" fill="#0" id="circle63"/>
	<circle cx="513.907" cy="311.798" r="4" fill="#0" id="circle64"/>
	<circle cx="523.178" cy="59.6262" r="4" fill="#0" id="circle65"/>
	<circle cx="532.449" cy="311.798" r="4" fill="#0" id="circle66"/>
	<circle cx="541.72" cy="59.6262" r="4" fill="#0" id="circle67"/>
	<circle cx="550.991" cy="311.798" r="4" fill="#0" id="circle68"/>
	<circle cx="560.262" cy="59.6262" r="4" fill="#0" id="circle69"/>
	<circle cx="569.533" cy="311.798" r="4" fill="#0" id="circle70"/>
	<circle cx="578.804" cy="59.6262" r="4" fill="#0" id="circle71"/>
	<circle cx="588.075" cy="311.798" r="4" fill="#0" id="circle72"/>
	<circle cx="597.346" cy="59.6262" r="4" fill="#0" id="circle73"/>
	<circle cx="606.617" cy="311.798" r="4" fill="#0" id="circle74"/>
	<circle cx="615.888" cy="59.6262" r="4" fill="#0" id="circle75"/>
	<circle cx="625.159" cy="311.798" r="4" fill="#0" id="circle76"/>
	<circle cx="632.576" cy="50.3551" r="4" fill="#0" id="circle77"/>
	<circle cx="641.847" cy="321.069" r="4" fill="#0" id="circle78"/>
	<circle cx="651.118" cy="50.3551" r="4" fill="#0" id="circle79"/>
	<circle cx="658.535" cy="330.34" r="4" fill="#0" id="circle80"/>
	<circle cx="669.66" cy="50.3551" r="4" fill="#0" id="circle81"/>
	<circle cx="677.077" cy="337.757" r="4" fill="#0" id="circle82"/>
	<circle cx="686.348" cy="41.0841" r="4" fill="#0" id="circle83"/>
	<circle cx="693.764" cy="347.028" r="4" fill="#0" id="circle84"/>
	<circle cx="704.89" cy="41.0841" r="4" fill="#0" id="circle85"/>
	<circle cx="708.598" cy="358.153" r="4" fill="#0" id="circle86"/>
	<circle cx="719.723" cy="372.987" r="4" fill="#0" id="circle87"/>
	<circle cx="723.432" cy="41.0841" r="4" fill="#0" id="circle88"/>
	<circle cx="734.557" cy="385.966" r="4" fill="#0" id="circle89"/>
	<circle cx="741.974" cy="41.0841" r="4" fill="#0" id="circle90"/>
	<circle cx="751.245" cy="395.237" r="4" fill="#0" id="circle91"/>
	<circle cx="758.662" cy="50.3551" r="4" fill="#0" id="circle92"/>
	<circle cx="769.787" cy="395.237" r="4" fill="#0" id="circle93"/>
	<circle cx="773.495" cy="63.3346" r="4" fill="#0" id="circle94"/>
	<circle cx="784.621" cy="78.1682" r="4" fill="#0" id="circle95"/>
	<circle cx="788.329" cy="395.237" r="4" fill="#0" id="circle96"/>
	<circle cx="803.163" cy="78.1682" r="4" fill="#0" id="circle97"/>
	<circle cx="806.871" cy="395.237" r="4" fill="#0" id="circle98"/>
	<circle cx="821.705" cy="78.1682" r="4" fill="#0" id="circle99"/>
	<circle cx="825.413" cy="395.237" r="4" fill="#0" id="circle100"/>
	<circle cx="840.247" cy="78.1682" r="4" fill="#0" id="circle101"/>
	<circle cx="843.955" cy="395.237" r="4" fill="#0" id="circle102"/>
	<circle cx="858.789" cy="78.1682" r="4" fill="#0" id="circle103"/>
	<circle cx="862.497" cy="393.383" r="4" fill="#0" id="circle104"/>
	<circle cx="877.331" cy="78.1682" r="4" fill="#0" id="circle105"/>
	<circle cx="881.039" cy="385.966" r="4" fill="#0" id="circle106"/>
	<circle cx="895.873" cy="78.1682" r="4" fill="#0" id="circle107"/>
	<circle cx="899.581" cy="385.966" r="4" fill="#0" id="circle108"/>
	<circle cx="914.415" cy="78.1682" r="4" fill="#0" id="circle109"/>
	<circle cx="914.415" cy="274.714" r="4" fill="#0" id="circle110"/>
	<circle cx="914.415" cy="367.424" r="4" fill="#0" id="circle111"/>
	<circle cx="923.686" cy="256.172" r="4" fill="#0" id="circle112"/>
	<circle cx="923.686" cy="291.402" r="4" fill="#0" id="circle113"/>
	<circle cx="923.686" cy="309.944" r="4" fill="#0" id="circle114"/>
	<circle cx="923.686" cy="328.486" r="4" fill="#0" id="circle115"/>
	<circle cx="923.686" cy="347.028" r="4" fill="#0" id="circle116"/>
	<circle cx="932.957" cy="78.1682" r="4" fill="#0" id="circle117"/>
	<circle cx="932.957" cy="237.63" r="4" fill="#0" id="circle118"/>
	<circle cx="951.499" cy="78.1682" r="4" fill="#0" id="circle119"/>
	<circle cx="951.499" cy="228.359" r="4" fill="#0" id="circle120"/>
	<circle cx="966.333" cy="89.2935" r="4" fill="#0" id="circle121"/>
	<circle cx="966.333" cy="215.379" r="4" fill="#0" id="circle122"/>
	<circle cx="979.312" cy="104.127" r="4" fill="#0" id="circle123"/>
	<circle cx="984.875" cy="206.108" r="4" fill="#0" id="circle124"/>
	<circle cx="988.583" cy="120.815" r="4" fill="#0" id="circle125"/>
	<circle cx="988.583" cy="139.357" r="4" fill="#0" id="circle126"/>
	<circle cx="994.146" cy="187.566" r="4" fill="#0" id="circle127"/>
	<circle cx="996" cy="157.899" r="4" fill="#0" id="circle128"/>
	</g>
</svg>