<?xml version="1.0" encoding="UTF-8" standalone="no"?>
<!-- Created with CurveBenchmark -->
<svg
	xmlns:dc="http://purl.org/dc/elements/1.1/"
	xmlns:cc="http://creativecommons.org/ns#"
	xmlns:rdf="http://www.w3.org/1999/02/22-rdf-syntax-ns#"
	xmlns:svg="http://www.w3.org/2000/svg"
	xmlns="http://www.w3.org/2000/svg"
	xmlns:sodipodi="http://sodipodi.sourceforge.net/DTD/sodipodi-0.dtd"
	xmlns:inkscape="http://www.inkscape.org/namespaces/inkscape"
	width="1000"
	height="1000"
	id="svg2"
	version="1.1"
	sodipodi:docname="manifold/crawl-hammer37.png.txt">
<defs
	id="defs4" />
<metadata
	id="metadata7">
	<rdf:RDF>
		<cc:Work
			rdf:about="">
			<dc:format>image/svg+xml</dc:format>
			<dc:type
				rdf:resource="http://purl.org/dc/dcmitype/StillImage" />
			<dc:title></dc:title>
		</cc:Work>
	</rdf:RDF>
</metadata>
<g
	inkscape:label="Layer 1"
	inkscape:groupmode="layer"
	id="layer1">
	<path style="fill:none;stroke:red;stroke-width:1px;stroke-linecap:butt;stroke-linejoin:miter;stroke-opacity:1" d="M 14.1431,257.579 14.1431,237.292 z" id="boundary" inkscape:connector-curvature="0" />
	<path style="fill:none;stroke:red;stroke-width:1px;stroke-linecap:butt;stroke-linejoin:miter;stroke-opacity:1" d="M 14.1431,237.292 4,219.035 z" id="boundary" inkscape:connector-curvature="0" />
	<path style="fill:none;stroke:red;stroke-width:1px;stroke-linecap:butt;stroke-linejoin:miter;stroke-opacity:1" d="M 4,219.035 4,198.748 z" id="boundary" inkscape:connector-curvature="0" />
	<path style="fill:none;stroke:red;stroke-width:1px;stroke-linecap:butt;stroke-linejoin:miter;stroke-opacity:1" d="M 14.1431,257.579 28.3436,273.808 z" id="boundary" inkscape:connector-curvature="0" />
	<path style="fill:none;stroke:red;stroke-width:1px;stroke-linecap:butt;stroke-linejoin:miter;stroke-opacity:1" d="M 28.3436,273.808 44.5726,285.98 z" id="boundary" inkscape:connector-curvature="0" />
	<path style="fill:none;stroke:red;stroke-width:1px;stroke-linecap:butt;stroke-linejoin:miter;stroke-opacity:1" d="M 44.5726,285.98 56.7444,302.209 z" id="boundary" inkscape:connector-curvature="0" />
	<path style="fill:none;stroke:red;stroke-width:1px;stroke-linecap:butt;stroke-linejoin:miter;stroke-opacity:1" d="M 56.7444,302.209 72.9734,316.409 z" id="boundary" inkscape:connector-curvature="0" />
	<path style="fill:none;stroke:red;stroke-width:1px;stroke-linecap:butt;stroke-linejoin:miter;stroke-opacity:1" d="M 72.9734,316.409 91.2311,306.266 z" id="boundary" inkscape:connector-curvature="0" />
	<path style="fill:none;stroke:red;stroke-width:1px;stroke-linecap:butt;stroke-linejoin:miter;stroke-opacity:1" d="M 91.2311,306.266 107.46,320.466 z" id="boundary" inkscape:connector-curvature="0" />
	<path style="fill:none;stroke:red;stroke-width:1px;stroke-linecap:butt;stroke-linejoin:miter;stroke-opacity:1" d="M 107.46,320.466 127.746,326.552 z" id="boundary" inkscape:connector-curvature="0" />
	<path style="fill:none;stroke:red;stroke-width:1px;stroke-linecap:butt;stroke-linejoin:miter;stroke-opacity:1" d="M 127.746,326.552 146.004,316.409 z" id="boundary" inkscape:connector-curvature="0" />
	<path style="fill:none;stroke:red;stroke-width:1px;stroke-linecap:butt;stroke-linejoin:miter;stroke-opacity:1" d="M 146.004,316.409 166.29,310.323 z" id="boundary" inkscape:connector-curvature="0" />
	<path style="fill:none;stroke:red;stroke-width:1px;stroke-linecap:butt;stroke-linejoin:miter;stroke-opacity:1" d="M 166.29,310.323 182.519,296.123 z" id="boundary" inkscape:connector-curvature="0" />
	<path style="fill:none;stroke:red;stroke-width:1px;stroke-linecap:butt;stroke-linejoin:miter;stroke-opacity:1" d="M 182.519,296.123 202.806,304.237 z" id="boundary" inkscape:connector-curvature="0" />
	<path style="fill:none;stroke:red;stroke-width:1px;stroke-linecap:butt;stroke-linejoin:miter;stroke-opacity:1" d="M 202.806,304.237 217.006,320.466 z" id="boundary" inkscape:connector-curvature="0" />
	<path style="fill:none;stroke:red;stroke-width:1px;stroke-linecap:butt;stroke-linejoin:miter;stroke-opacity:1" d="M 217.006,320.466 233.235,334.667 z" id="boundary" inkscape:connector-curvature="0" />
	<path style="fill:none;stroke:red;stroke-width:1px;stroke-linecap:butt;stroke-linejoin:miter;stroke-opacity:1" d="M 233.235,334.667 249.464,346.838 z" id="boundary" inkscape:connector-curvature="0" />
	<path style="fill:none;stroke:red;stroke-width:1px;stroke-linecap:butt;stroke-linejoin:miter;stroke-opacity:1" d="M 249.464,346.838 267.722,356.982 z" id="boundary" inkscape:connector-curvature="0" />
	<path style="fill:none;stroke:red;stroke-width:1px;stroke-linecap:butt;stroke-linejoin:miter;stroke-opacity:1" d="M 267.722,356.982 273.808,377.268 z" id="boundary" inkscape:connector-curvature="0" />
	<path style="fill:none;stroke:red;stroke-width:1px;stroke-linecap:butt;stroke-linejoin:miter;stroke-opacity:1" d="M 273.808,377.268 288.008,393.497 z" id="boundary" inkscape:connector-curvature="0" />
	<path style="fill:none;stroke:red;stroke-width:1px;stroke-linecap:butt;stroke-linejoin:miter;stroke-opacity:1" d="M 288.008,393.497 288.008,413.783 z" id="boundary" inkscape:connector-curvature="0" />
	<path style="fill:none;stroke:red;stroke-width:1px;stroke-linecap:butt;stroke-linejoin:miter;stroke-opacity:1" d="M 288.008,413.783 298.151,432.041 z" id="boundary" inkscape:connector-curvature="0" />
	<path style="fill:none;stroke:red;stroke-width:1px;stroke-linecap:butt;stroke-linejoin:miter;stroke-opacity:1" d="M 298.151,432.041 298.151,452.327 z" id="boundary" inkscape:connector-curvature="0" />
	<path style="fill:none;stroke:red;stroke-width:1px;stroke-linecap:butt;stroke-linejoin:miter;stroke-opacity:1" d="M 298.151,452.327 314.38,466.528 z" id="boundary" inkscape:connector-curvature="0" />
	<path style="fill:none;stroke:red;stroke-width:1px;stroke-linecap:butt;stroke-linejoin:miter;stroke-opacity:1" d="M 314.38,466.528 328.581,482.757 z" id="boundary" inkscape:connector-curvature="0" />
	<path style="fill:none;stroke:red;stroke-width:1px;stroke-linecap:butt;stroke-linejoin:miter;stroke-opacity:1" d="M 328.581,482.757 328.581,503.043 z" id="boundary" inkscape:connector-curvature="0" />
	<path style="fill:none;stroke:red;stroke-width:1px;stroke-linecap:butt;stroke-linejoin:miter;stroke-opacity:1" d="M 328.581,503.043 338.724,521.301 z" id="boundary" inkscape:connector-curvature="0" />
	<path style="fill:none;stroke:red;stroke-width:1px;stroke-linecap:butt;stroke-linejoin:miter;stroke-opacity:1" d="M 338.724,521.301 352.924,537.53 z" id="boundary" inkscape:connector-curvature="0" />
	<path style="fill:none;stroke:red;stroke-width:1px;stroke-linecap:butt;stroke-linejoin:miter;stroke-opacity:1" d="M 352.924,537.53 369.153,549.701 z" id="boundary" inkscape:connector-curvature="0" />
	<path style="fill:none;stroke:red;stroke-width:1px;stroke-linecap:butt;stroke-linejoin:miter;stroke-opacity:1" d="M 369.153,549.701 379.297,567.959 z" id="boundary" inkscape:connector-curvature="0" />
	<path style="fill:none;stroke:red;stroke-width:1px;stroke-linecap:butt;stroke-linejoin:miter;stroke-opacity:1" d="M 379.297,567.959 389.44,586.217 z" id="boundary" inkscape:connector-curvature="0" />
	<path style="fill:none;stroke:red;stroke-width:1px;stroke-linecap:butt;stroke-linejoin:miter;stroke-opacity:1" d="M 389.44,586.217 389.44,606.503 z" id="boundary" inkscape:connector-curvature="0" />
	<path style="fill:none;stroke:red;stroke-width:1px;stroke-linecap:butt;stroke-linejoin:miter;stroke-opacity:1" d="M 389.44,606.503 405.669,620.703 z" id="boundary" inkscape:connector-curvature="0" />
	<path style="fill:none;stroke:red;stroke-width:1px;stroke-linecap:butt;stroke-linejoin:miter;stroke-opacity:1" d="M 405.669,620.703 421.898,634.904 z" id="boundary" inkscape:connector-curvature="0" />
	<path style="fill:none;stroke:red;stroke-width:1px;stroke-linecap:butt;stroke-linejoin:miter;stroke-opacity:1" d="M 421.898,634.904 436.098,651.133 z" id="boundary" inkscape:connector-curvature="0" />
	<path style="fill:none;stroke:red;stroke-width:1px;stroke-linecap:butt;stroke-linejoin:miter;stroke-opacity:1" d="M 436.098,651.133 440.155,671.419 z" id="boundary" inkscape:connector-curvature="0" />
	<path style="fill:none;stroke:red;stroke-width:1px;stroke-linecap:butt;stroke-linejoin:miter;stroke-opacity:1" d="M 440.155,671.419 450.299,689.677 z" id="boundary" inkscape:connector-curvature="0" />
	<path style="fill:none;stroke:red;stroke-width:1px;stroke-linecap:butt;stroke-linejoin:miter;stroke-opacity:1" d="M 450.299,689.677 454.356,709.963 z" id="boundary" inkscape:connector-curvature="0" />
	<path style="fill:none;stroke:red;stroke-width:1px;stroke-linecap:butt;stroke-linejoin:miter;stroke-opacity:1" d="M 454.356,709.963 474.642,718.078 z" id="boundary" inkscape:connector-curvature="0" />
	<path style="fill:none;stroke:red;stroke-width:1px;stroke-linecap:butt;stroke-linejoin:miter;stroke-opacity:1" d="M 474.642,718.078 480.728,738.364 z" id="boundary" inkscape:connector-curvature="0" />
	<path style="fill:none;stroke:red;stroke-width:1px;stroke-linecap:butt;stroke-linejoin:miter;stroke-opacity:1" d="M 480.728,738.364 490.871,756.622 z" id="boundary" inkscape:connector-curvature="0" />
	<path style="fill:none;stroke:red;stroke-width:1px;stroke-linecap:butt;stroke-linejoin:miter;stroke-opacity:1" d="M 490.871,756.622 490.871,776.908 z" id="boundary" inkscape:connector-curvature="0" />
	<path style="fill:none;stroke:red;stroke-width:1px;stroke-linecap:butt;stroke-linejoin:miter;stroke-opacity:1" d="M 490.871,776.908 507.1,791.108 z" id="boundary" inkscape:connector-curvature="0" />
	<path style="fill:none;stroke:red;stroke-width:1px;stroke-linecap:butt;stroke-linejoin:miter;stroke-opacity:1" d="M 507.1,791.108 523.329,803.28 z" id="boundary" inkscape:connector-curvature="0" />
	<path style="fill:none;stroke:red;stroke-width:1px;stroke-linecap:butt;stroke-linejoin:miter;stroke-opacity:1" d="M 523.329,803.28 541.587,813.423 z" id="boundary" inkscape:connector-curvature="0" />
	<path style="fill:none;stroke:red;stroke-width:1px;stroke-linecap:butt;stroke-linejoin:miter;stroke-opacity:1" d="M 541.587,813.423 541.587,833.71 z" id="boundary" inkscape:connector-curvature="0" />
	<path style="fill:none;stroke:red;stroke-width:1px;stroke-linecap:butt;stroke-linejoin:miter;stroke-opacity:1" d="M 541.587,833.71 547.673,853.996 z" id="boundary" inkscape:connector-curvature="0" />
	<path style="fill:none;stroke:red;stroke-width:1px;stroke-linecap:butt;stroke-linejoin:miter;stroke-opacity:1" d="M 547.673,853.996 557.816,872.254 z" id="boundary" inkscape:connector-curvature="0" />
	<path style="fill:none;stroke:red;stroke-width:1px;stroke-linecap:butt;stroke-linejoin:miter;stroke-opacity:1" d="M 557.816,872.254 572.016,888.483 z" id="boundary" inkscape:connector-curvature="0" />
	<path style="fill:none;stroke:red;stroke-width:1px;stroke-linecap:butt;stroke-linejoin:miter;stroke-opacity:1" d="M 572.016,888.483 582.16,906.74 z" id="boundary" inkscape:connector-curvature="0" />
	<path style="fill:none;stroke:red;stroke-width:1px;stroke-linecap:butt;stroke-linejoin:miter;stroke-opacity:1" d="M 582.16,906.74 592.303,924.998 z" id="boundary" inkscape:connector-curvature="0" />
	<path style="fill:none;stroke:red;stroke-width:1px;stroke-linecap:butt;stroke-linejoin:miter;stroke-opacity:1" d="M 592.303,924.998 598.389,945.284 z" id="boundary" inkscape:connector-curvature="0" />
	<path style="fill:none;stroke:red;stroke-width:1px;stroke-linecap:butt;stroke-linejoin:miter;stroke-opacity:1" d="M 598.389,945.284 612.589,961.513 z" id="boundary" inkscape:connector-curvature="0" />
	<path style="fill:none;stroke:red;stroke-width:1px;stroke-linecap:butt;stroke-linejoin:miter;stroke-opacity:1" d="M 612.589,961.513 602.446,979.771 z" id="boundary" inkscape:connector-curvature="0" />
	<path style="fill:none;stroke:red;stroke-width:1px;stroke-linecap:butt;stroke-linejoin:miter;stroke-opacity:1" d="M 602.446,979.771 622.732,985.857 z" id="boundary" inkscape:connector-curvature="0" />
	<path style="fill:none;stroke:red;stroke-width:1px;stroke-linecap:butt;stroke-linejoin:miter;stroke-opacity:1" d="M 622.732,985.857 640.99,996 z" id="boundary" inkscape:connector-curvature="0" />
	<path style="fill:none;stroke:red;stroke-width:1px;stroke-linecap:butt;stroke-linejoin:miter;stroke-opacity:1" d="M 640.99,996 661.276,996 z" id="boundary" inkscape:connector-curvature="0" />
	<path style="fill:none;stroke:red;stroke-width:1px;stroke-linecap:butt;stroke-linejoin:miter;stroke-opacity:1" d="M 661.276,996 679.534,985.857 z" id="boundary" inkscape:connector-curvature="0" />
	<path style="fill:none;stroke:red;stroke-width:1px;stroke-linecap:butt;stroke-linejoin:miter;stroke-opacity:1" d="M 679.534,985.857 699.82,985.857 z" id="boundary" inkscape:connector-curvature="0" />
	<path style="fill:none;stroke:red;stroke-width:1px;stroke-linecap:butt;stroke-linejoin:miter;stroke-opacity:1" d="M 699.82,985.857 720.106,983.828 z" id="boundary" inkscape:connector-curvature="0" />
	<path style="fill:none;stroke:red;stroke-width:1px;stroke-linecap:butt;stroke-linejoin:miter;stroke-opacity:1" d="M 720.106,983.828 730.249,963.542 z" id="boundary" inkscape:connector-curvature="0" />
	<path style="fill:none;stroke:red;stroke-width:1px;stroke-linecap:butt;stroke-linejoin:miter;stroke-opacity:1" d="M 4,198.748 20.229,182.519 z" id="boundary" inkscape:connector-curvature="0" />
	<path style="fill:none;stroke:red;stroke-width:1px;stroke-linecap:butt;stroke-linejoin:miter;stroke-opacity:1" d="M 20.229,182.519 38.4867,172.376 z" id="boundary" inkscape:connector-curvature="0" />
	<path style="fill:none;stroke:red;stroke-width:1px;stroke-linecap:butt;stroke-linejoin:miter;stroke-opacity:1" d="M 38.4867,172.376 56.7444,162.233 z" id="boundary" inkscape:connector-curvature="0" />
	<path style="fill:none;stroke:red;stroke-width:1px;stroke-linecap:butt;stroke-linejoin:miter;stroke-opacity:1" d="M 56.7444,162.233 77.0307,156.147 z" id="boundary" inkscape:connector-curvature="0" />
	<path style="fill:none;stroke:red;stroke-width:1px;stroke-linecap:butt;stroke-linejoin:miter;stroke-opacity:1" d="M 77.0307,156.147 97.317,146.004 z" id="boundary" inkscape:connector-curvature="0" />
	<path style="fill:none;stroke:red;stroke-width:1px;stroke-linecap:butt;stroke-linejoin:miter;stroke-opacity:1" d="M 97.317,146.004 113.546,131.804 z" id="boundary" inkscape:connector-curvature="0" />
	<path style="fill:none;stroke:red;stroke-width:1px;stroke-linecap:butt;stroke-linejoin:miter;stroke-opacity:1" d="M 113.546,131.804 131.804,121.661 z" id="boundary" inkscape:connector-curvature="0" />
	<path style="fill:none;stroke:red;stroke-width:1px;stroke-linecap:butt;stroke-linejoin:miter;stroke-opacity:1" d="M 131.804,121.661 148.033,105.431 z" id="boundary" inkscape:connector-curvature="0" />
	<path style="fill:none;stroke:red;stroke-width:1px;stroke-linecap:butt;stroke-linejoin:miter;stroke-opacity:1" d="M 148.033,105.431 168.319,95.2883 z" id="boundary" inkscape:connector-curvature="0" />
	<path style="fill:none;stroke:red;stroke-width:1px;stroke-linecap:butt;stroke-linejoin:miter;stroke-opacity:1" d="M 168.319,95.2883 188.605,85.1452 z" id="boundary" inkscape:connector-curvature="0" />
	<path style="fill:none;stroke:red;stroke-width:1px;stroke-linecap:butt;stroke-linejoin:miter;stroke-opacity:1" d="M 188.605,85.1452 204.834,70.9448 z" id="boundary" inkscape:connector-curvature="0" />
	<path style="fill:none;stroke:red;stroke-width:1px;stroke-linecap:butt;stroke-linejoin:miter;stroke-opacity:1" d="M 204.834,70.9448 225.121,70.9448 z" id="boundary" inkscape:connector-curvature="0" />
	<path style="fill:none;stroke:red;stroke-width:1px;stroke-linecap:butt;stroke-linejoin:miter;stroke-opacity:1" d="M 225.121,70.9448 239.321,54.7157 z" id="boundary" inkscape:connector-curvature="0" />
	<path style="fill:none;stroke:red;stroke-width:1px;stroke-linecap:butt;stroke-linejoin:miter;stroke-opacity:1" d="M 239.321,54.7157 255.55,40.5153 z" id="boundary" inkscape:connector-curvature="0" />
	<path style="fill:none;stroke:red;stroke-width:1px;stroke-linecap:butt;stroke-linejoin:miter;stroke-opacity:1" d="M 255.55,40.5153 273.808,30.3722 z" id="boundary" inkscape:connector-curvature="0" />
	<path style="fill:none;stroke:red;stroke-width:1px;stroke-linecap:butt;stroke-linejoin:miter;stroke-opacity:1" d="M 273.808,30.3722 294.094,20.229 z" id="boundary" inkscape:connector-curvature="0" />
	<path style="fill:none;stroke:red;stroke-width:1px;stroke-linecap:butt;stroke-linejoin:miter;stroke-opacity:1" d="M 294.094,20.229 310.323,4 z" id="boundary" inkscape:connector-curvature="0" />
	<path style="fill:none;stroke:red;stroke-width:1px;stroke-linecap:butt;stroke-linejoin:miter;stroke-opacity:1" d="M 310.323,4 328.581,14.1431 z" id="boundary" inkscape:connector-curvature="0" />
	<path style="fill:none;stroke:red;stroke-width:1px;stroke-linecap:butt;stroke-linejoin:miter;stroke-opacity:1" d="M 328.581,14.1431 340.753,30.3722 z" id="boundary" inkscape:connector-curvature="0" />
	<path style="fill:none;stroke:red;stroke-width:1px;stroke-linecap:butt;stroke-linejoin:miter;stroke-opacity:1" d="M 340.753,30.3722 359.01,40.5153 z" id="boundary" inkscape:connector-curvature="0" />
	<path style="fill:none;stroke:red;stroke-width:1px;stroke-linecap:butt;stroke-linejoin:miter;stroke-opacity:1" d="M 359.01,40.5153 379.297,40.5153 z" id="boundary" inkscape:connector-curvature="0" />
	<path style="fill:none;stroke:red;stroke-width:1px;stroke-linecap:butt;stroke-linejoin:miter;stroke-opacity:1" d="M 379.297,40.5153 397.554,50.6585 z" id="boundary" inkscape:connector-curvature="0" />
	<path style="fill:none;stroke:red;stroke-width:1px;stroke-linecap:butt;stroke-linejoin:miter;stroke-opacity:1" d="M 397.554,50.6585 415.812,60.8016 z" id="boundary" inkscape:connector-curvature="0" />
	<path style="fill:none;stroke:red;stroke-width:1px;stroke-linecap:butt;stroke-linejoin:miter;stroke-opacity:1" d="M 415.812,60.8016 434.07,70.9448 z" id="boundary" inkscape:connector-curvature="0" />
	<path style="fill:none;stroke:red;stroke-width:1px;stroke-linecap:butt;stroke-linejoin:miter;stroke-opacity:1" d="M 434.07,70.9448 442.184,91.2311 z" id="boundary" inkscape:connector-curvature="0" />
	<path style="fill:none;stroke:red;stroke-width:1px;stroke-linecap:butt;stroke-linejoin:miter;stroke-opacity:1" d="M 442.184,91.2311 452.327,109.489 z" id="boundary" inkscape:connector-curvature="0" />
	<path style="fill:none;stroke:red;stroke-width:1px;stroke-linecap:butt;stroke-linejoin:miter;stroke-opacity:1" d="M 730.249,963.542 746.479,947.313 z" id="boundary" inkscape:connector-curvature="0" />
	<path style="fill:none;stroke:red;stroke-width:1px;stroke-linecap:butt;stroke-linejoin:miter;stroke-opacity:1" d="M 746.479,947.313 746.479,927.027 z" id="boundary" inkscape:connector-curvature="0" />
	<path style="fill:none;stroke:red;stroke-width:1px;stroke-linecap:butt;stroke-linejoin:miter;stroke-opacity:1" d="M 746.479,927.027 736.335,908.769 z" id="boundary" inkscape:connector-curvature="0" />
	<path style="fill:none;stroke:red;stroke-width:1px;stroke-linecap:butt;stroke-linejoin:miter;stroke-opacity:1" d="M 736.335,908.769 726.192,890.511 z" id="boundary" inkscape:connector-curvature="0" />
	<path style="fill:none;stroke:red;stroke-width:1px;stroke-linecap:butt;stroke-linejoin:miter;stroke-opacity:1" d="M 726.192,890.511 716.049,872.254 z" id="boundary" inkscape:connector-curvature="0" />
	<path style="fill:none;stroke:red;stroke-width:1px;stroke-linecap:butt;stroke-linejoin:miter;stroke-opacity:1" d="M 716.049,872.254 703.877,856.025 z" id="boundary" inkscape:connector-curvature="0" />
	<path style="fill:none;stroke:red;stroke-width:1px;stroke-linecap:butt;stroke-linejoin:miter;stroke-opacity:1" d="M 703.877,856.025 687.648,841.824 z" id="boundary" inkscape:connector-curvature="0" />
	<path style="fill:none;stroke:red;stroke-width:1px;stroke-linecap:butt;stroke-linejoin:miter;stroke-opacity:1" d="M 687.648,841.824 675.476,825.595 z" id="boundary" inkscape:connector-curvature="0" />
	<path style="fill:none;stroke:red;stroke-width:1px;stroke-linecap:butt;stroke-linejoin:miter;stroke-opacity:1" d="M 675.476,825.595 665.333,807.337 z" id="boundary" inkscape:connector-curvature="0" />
	<path style="fill:none;stroke:red;stroke-width:1px;stroke-linecap:butt;stroke-linejoin:miter;stroke-opacity:1" d="M 665.333,807.337 663.305,787.051 z" id="boundary" inkscape:connector-curvature="0" />
	<path style="fill:none;stroke:red;stroke-width:1px;stroke-linecap:butt;stroke-linejoin:miter;stroke-opacity:1" d="M 663.305,787.051 649.104,770.822 z" id="boundary" inkscape:connector-curvature="0" />
	<path style="fill:none;stroke:red;stroke-width:1px;stroke-linecap:butt;stroke-linejoin:miter;stroke-opacity:1" d="M 649.104,770.822 638.961,752.564 z" id="boundary" inkscape:connector-curvature="0" />
	<path style="fill:none;stroke:red;stroke-width:1px;stroke-linecap:butt;stroke-linejoin:miter;stroke-opacity:1" d="M 638.961,752.564 624.761,736.335 z" id="boundary" inkscape:connector-curvature="0" />
	<path style="fill:none;stroke:red;stroke-width:1px;stroke-linecap:butt;stroke-linejoin:miter;stroke-opacity:1" d="M 624.761,736.335 624.761,716.049 z" id="boundary" inkscape:connector-curvature="0" />
	<path style="fill:none;stroke:red;stroke-width:1px;stroke-linecap:butt;stroke-linejoin:miter;stroke-opacity:1" d="M 624.761,716.049 614.618,697.791 z" id="boundary" inkscape:connector-curvature="0" />
	<path style="fill:none;stroke:red;stroke-width:1px;stroke-linecap:butt;stroke-linejoin:miter;stroke-opacity:1" d="M 614.618,697.791 604.474,679.534 z" id="boundary" inkscape:connector-curvature="0" />
	<path style="fill:none;stroke:red;stroke-width:1px;stroke-linecap:butt;stroke-linejoin:miter;stroke-opacity:1" d="M 604.474,679.534 594.331,661.276 z" id="boundary" inkscape:connector-curvature="0" />
	<path style="fill:none;stroke:red;stroke-width:1px;stroke-linecap:butt;stroke-linejoin:miter;stroke-opacity:1" d="M 594.331,661.276 588.245,640.99 z" id="boundary" inkscape:connector-curvature="0" />
	<path style="fill:none;stroke:red;stroke-width:1px;stroke-linecap:butt;stroke-linejoin:miter;stroke-opacity:1" d="M 588.245,640.99 574.045,624.761 z" id="boundary" inkscape:connector-curvature="0" />
	<path style="fill:none;stroke:red;stroke-width:1px;stroke-linecap:butt;stroke-linejoin:miter;stroke-opacity:1" d="M 574.045,624.761 557.816,610.56 z" id="boundary" inkscape:connector-curvature="0" />
	<path style="fill:none;stroke:red;stroke-width:1px;stroke-linecap:butt;stroke-linejoin:miter;stroke-opacity:1" d="M 557.816,610.56 553.759,590.274 z" id="boundary" inkscape:connector-curvature="0" />
	<path style="fill:none;stroke:red;stroke-width:1px;stroke-linecap:butt;stroke-linejoin:miter;stroke-opacity:1" d="M 553.759,590.274 547.673,569.988 z" id="boundary" inkscape:connector-curvature="0" />
	<path style="fill:none;stroke:red;stroke-width:1px;stroke-linecap:butt;stroke-linejoin:miter;stroke-opacity:1" d="M 547.673,569.988 533.472,553.759 z" id="boundary" inkscape:connector-curvature="0" />
	<path style="fill:none;stroke:red;stroke-width:1px;stroke-linecap:butt;stroke-linejoin:miter;stroke-opacity:1" d="M 533.472,553.759 517.243,539.558 z" id="boundary" inkscape:connector-curvature="0" />
	<path style="fill:none;stroke:red;stroke-width:1px;stroke-linecap:butt;stroke-linejoin:miter;stroke-opacity:1" d="M 517.243,539.558 513.186,519.272 z" id="boundary" inkscape:connector-curvature="0" />
	<path style="fill:none;stroke:red;stroke-width:1px;stroke-linecap:butt;stroke-linejoin:miter;stroke-opacity:1" d="M 513.186,519.272 503.043,501.014 z" id="boundary" inkscape:connector-curvature="0" />
	<path style="fill:none;stroke:red;stroke-width:1px;stroke-linecap:butt;stroke-linejoin:miter;stroke-opacity:1" d="M 503.043,501.014 492.9,482.757 z" id="boundary" inkscape:connector-curvature="0" />
	<path style="fill:none;stroke:red;stroke-width:1px;stroke-linecap:butt;stroke-linejoin:miter;stroke-opacity:1" d="M 492.9,482.757 476.671,468.556 z" id="boundary" inkscape:connector-curvature="0" />
	<path style="fill:none;stroke:red;stroke-width:1px;stroke-linecap:butt;stroke-linejoin:miter;stroke-opacity:1" d="M 476.671,468.556 468.556,448.27 z" id="boundary" inkscape:connector-curvature="0" />
	<path style="fill:none;stroke:red;stroke-width:1px;stroke-linecap:butt;stroke-linejoin:miter;stroke-opacity:1" d="M 468.556,448.27 452.327,436.098 z" id="boundary" inkscape:connector-curvature="0" />
	<path style="fill:none;stroke:red;stroke-width:1px;stroke-linecap:butt;stroke-linejoin:miter;stroke-opacity:1" d="M 452.327,436.098 438.127,419.869 z" id="boundary" inkscape:connector-curvature="0" />
	<path style="fill:none;stroke:red;stroke-width:1px;stroke-linecap:butt;stroke-linejoin:miter;stroke-opacity:1" d="M 438.127,419.869 430.012,399.583 z" id="boundary" inkscape:connector-curvature="0" />
	<path style="fill:none;stroke:red;stroke-width:1px;stroke-linecap:butt;stroke-linejoin:miter;stroke-opacity:1" d="M 430.012,399.583 419.869,381.325 z" id="boundary" inkscape:connector-curvature="0" />
	<path style="fill:none;stroke:red;stroke-width:1px;stroke-linecap:butt;stroke-linejoin:miter;stroke-opacity:1" d="M 419.869,381.325 405.669,365.096 z" id="boundary" inkscape:connector-curvature="0" />
	<path style="fill:none;stroke:red;stroke-width:1px;stroke-linecap:butt;stroke-linejoin:miter;stroke-opacity:1" d="M 405.669,365.096 395.526,346.838 z" id="boundary" inkscape:connector-curvature="0" />
	<path style="fill:none;stroke:red;stroke-width:1px;stroke-linecap:butt;stroke-linejoin:miter;stroke-opacity:1" d="M 395.526,346.838 381.325,330.609 z" id="boundary" inkscape:connector-curvature="0" />
	<path style="fill:none;stroke:red;stroke-width:1px;stroke-linecap:butt;stroke-linejoin:miter;stroke-opacity:1" d="M 381.325,330.609 381.325,310.323 z" id="boundary" inkscape:connector-curvature="0" />
	<path style="fill:none;stroke:red;stroke-width:1px;stroke-linecap:butt;stroke-linejoin:miter;stroke-opacity:1" d="M 381.325,310.323 371.182,292.065 z" id="boundary" inkscape:connector-curvature="0" />
	<path style="fill:none;stroke:red;stroke-width:1px;stroke-linecap:butt;stroke-linejoin:miter;stroke-opacity:1" d="M 371.182,292.065 371.182,271.779 z" id="boundary" inkscape:connector-curvature="0" />
	<path style="fill:none;stroke:red;stroke-width:1px;stroke-linecap:butt;stroke-linejoin:miter;stroke-opacity:1" d="M 371.182,271.779 361.039,253.521 z" id="boundary" inkscape:connector-curvature="0" />
	<path style="fill:none;stroke:red;stroke-width:1px;stroke-linecap:butt;stroke-linejoin:miter;stroke-opacity:1" d="M 361.039,253.521 350.896,235.264 z" id="boundary" inkscape:connector-curvature="0" />
	<path style="fill:none;stroke:red;stroke-width:1px;stroke-linecap:butt;stroke-linejoin:miter;stroke-opacity:1" d="M 350.896,235.264 350.896,214.978 z" id="boundary" inkscape:connector-curvature="0" />
	<path style="fill:none;stroke:red;stroke-width:1px;stroke-linecap:butt;stroke-linejoin:miter;stroke-opacity:1" d="M 350.896,214.978 350.896,194.691 z" id="boundary" inkscape:connector-curvature="0" />
	<path style="fill:none;stroke:red;stroke-width:1px;stroke-linecap:butt;stroke-linejoin:miter;stroke-opacity:1" d="M 350.896,194.691 371.182,184.548 z" id="boundary" inkscape:connector-curvature="0" />
	<path style="fill:none;stroke:red;stroke-width:1px;stroke-linecap:butt;stroke-linejoin:miter;stroke-opacity:1" d="M 371.182,184.548 381.325,164.262 z" id="boundary" inkscape:connector-curvature="0" />
	<path style="fill:none;stroke:red;stroke-width:1px;stroke-linecap:butt;stroke-linejoin:miter;stroke-opacity:1" d="M 381.325,164.262 401.611,164.262 z" id="boundary" inkscape:connector-curvature="0" />
	<path style="fill:none;stroke:red;stroke-width:1px;stroke-linecap:butt;stroke-linejoin:miter;stroke-opacity:1" d="M 401.611,164.262 419.869,154.119 z" id="boundary" inkscape:connector-curvature="0" />
	<path style="fill:none;stroke:red;stroke-width:1px;stroke-linecap:butt;stroke-linejoin:miter;stroke-opacity:1" d="M 419.869,154.119 436.098,141.947 z" id="boundary" inkscape:connector-curvature="0" />
	<path style="fill:none;stroke:red;stroke-width:1px;stroke-linecap:butt;stroke-linejoin:miter;stroke-opacity:1" d="M 436.098,141.947 452.327,109.489 z" id="boundary" inkscape:connector-curvature="0" />
	<circle cx="4" cy="198.748" r="4" fill="#0" id="circle0"/>
	<circle cx="4" cy="219.035" r="4" fill="#0" id="circle1"/>
	<circle cx="14.1431" cy="237.292" r="4" fill="#0" id="circle2"/>
	<circle cx="14.1431" cy="257.579" r="4" fill="#0" id="circle3"/>
	<circle cx="20.229" cy="182.519" r="4" fill="#0" id="circle4"/>
	<circle cx="28.3436" cy="273.808" r="4" fill="#0" id="circle5"/>
	<circle cx="38.4867" cy="172.376" r="4" fill="#0" id="circle6"/>
	<circle cx="44.5726" cy="285.98" r="4" fill="#0" id="circle7"/>
	<circle cx="56.7444" cy="162.233" r="4" fill="#0" id="circle8"/>
	<circle cx="56.7444" cy="302.209" r="4" fill="#0" id="circle9"/>
	<circle cx="72.9734" cy="316.409" r="4" fill="#0" id="circle10"/>
	<circle cx="77.0307" cy="156.147" r="4" fill="#0" id="circle11"/>
	<circle cx="91.2311" cy="306.266" r="4" fill="#0" id="circle12"/>
	<circle cx="97.317" cy="146.004" r="4" fill="#0" id="circle13"/>
	<circle cx="107.46" cy="320.466" r="4" fill="#0" id="circle14"/>
	<circle cx="113.546" cy="131.804" r="4" fill="#0" id="circle15"/>
	<circle cx="127.746" cy="326.552" r="4" fill="#0" id="circle16"/>
	<circle cx="131.804" cy="121.661" r="4" fill="#0" id="circle17"/>
	<circle cx="146.004" cy="316.409" r="4" fill="#0" id="circle18"/>
	<circle cx="148.033" cy="105.431" r="4" fill="#0" id="circle19"/>
	<circle cx="166.29" cy="310.323" r="4" fill="#0" id="circle20"/>
	<circle cx="168.319" cy="95.2883" r="4" fill="#0" id="circle21"/>
	<circle cx="182.519" cy="296.123" r="4" fill="#0" id="circle22"/>
	<circle cx="188.605" cy="85.1452" r="4" fill="#0" id="circle23"/>
	<circle cx="202.806" cy="304.237" r="4" fill="#0" id="circle24"/>
	<circle cx="204.834" cy="70.9448" r="4" fill="#0" id="circle25"/>
	<circle cx="217.006" cy="320.466" r="4" fill="#0" id="circle26"/>
	<circle cx="225.121" cy="70.9448" r="4" fill="#0" id="circle27"/>
	<circle cx="233.235" cy="334.667" r="4" fill="#0" id="circle28"/>
	<circle cx="239.321" cy="54.7157" r="4" fill="#0" id="circle29"/>
	<circle cx="249.464" cy="346.838" r="4" fill="#0" id="circle30"/>
	<circle cx="255.55" cy="40.5153" r="4" fill="#0" id="circle31"/>
	<circle cx="267.722" cy="356.982" r="4" fill="#0" id="circle32"/>
	<circle cx="273.808" cy="30.3722" r="4" fill="#0" id="circle33"/>
	<circle cx="273.808" cy="377.268" r="4" fill="#0" id="circle34"/>
	<circle cx="288.008" cy="393.497" r="4" fill="#0" id="circle35"/>
	<circle cx="288.008" cy="413.783" r="4" fill="#0" id="circle36"/>
	<circle cx="294.094" cy="20.229" r="4" fill="#0" id="circle37"/>
	<circle cx="298.151" cy="432.041" r="4" fill="#0" id="circle38"/>
	<circle cx="298.151" cy="452.327" r="4" fill="#0" id="circle39"/>
	<circle cx="310.323" cy="4" r="4" fill="#0" id="circle40"/>
	<circle cx="314.38" cy="466.528" r="4" fill="#0" id="circle41"/>
	<circle cx="328.581" cy="14.1431" r="4" fill="#0" id="circle42"/>
	<circle cx="328.581" cy="482.757" r="4" fill="#0" id="circle43"/>
	<circle cx="328.581" cy="503.043" r="4" fill="#0" id="circle44"/>
	<circle cx="338.724" cy="521.301" r="4" fill="#0" id="circle45"/>
	<circle cx="340.753" cy="30.3722" r="4" fill="#0" id="circle46"/>
	<circle cx="350.896" cy="194.691" r="4" fill="#0" id="circle47"/>
	<circle cx="350.896" cy="214.978" r="4" fill="#0" id="circle48"/>
	<circle cx="350.896" cy="235.264" r="4" fill="#0" id="circle49"/>
	<circle cx="352.924" cy="537.53" r="4" fill="#0" id="circle50"/>
	<circle cx="359.01" cy="40.5153" r="4" fill="#0" id="circle51"/>
	<circle cx="361.039" cy="253.521" r="4" fill="#0" id="circle52"/>
	<circle cx="369.153" cy="549.701" r="4" fill="#0" id="circle53"/>
	<circle cx="371.182" cy="184.548" r="4" fill="#0" id="circle54"/>
	<circle cx="371.182" cy="271.779" r="4" fill="#0" id="circle55"/>
	<circle cx="371.182" cy="292.065" r="4" fill="#0" id="circle56"/>
	<circle cx="379.297" cy="40.5153" r="4" fill="#0" id="circle57"/>
	<circle cx="379.297" cy="567.959" r="4" fill="#0" id="circle58"/>
	<circle cx="381.325" cy="164.262" r="4" fill="#0" id="circle59"/>
	<circle cx="381.325" cy="310.323" r="4" fill="#0" id="circle60"/>
	<circle cx="381.325" cy="330.609" r="4" fill="#0" id="circle61"/>
	<circle cx="389.44" cy="586.217" r="4" fill="#0" id="circle62"/>
	<circle cx="389.44" cy="606.503" r="4" fill="#0" id="circle63"/>
	<circle cx="395.526" cy="346.838" r="4" fill="#0" id="circle64"/>
	<circle cx="397.554" cy="50.6585" r="4" fill="#0" id="circle65"/>
	<circle cx="401.611" cy="164.262" r="4" fill="#0" id="circle66"/>
	<circle cx="405.669" cy="365.096" r="4" fill="#0" id="circle67"/>
	<circle cx="405.669" cy="620.703" r="4" fill="#0" id="circle68"/>
	<circle cx="415.812" cy="60.8016" r="4" fill="#0" id="circle69"/>
	<circle cx="419.869" cy="154.119" r="4" fill="#0" id="circle70"/>
	<circle cx="419.869" cy="381.325" r="4" fill="#0" id="circle71"/>
	<circle cx="421.898" cy="634.904" r="4" fill="#0" id="circle72"/>
	<circle cx="430.012" cy="399.583" r="4" fill="#0" id="circle73"/>
	<circle cx="434.07" cy="70.9448" r="4" fill="#0" id="circle74"/>
	<circle cx="436.098" cy="141.947" r="4" fill="#0" id="circle75"/>
	<circle cx="436.098" cy="651.133" r="4" fill="#0" id="circle76"/>
	<circle cx="438.127" cy="419.869" r="4" fill="#0" id="circle77"/>
	<circle cx="440.155" cy="671.419" r="4" fill="#0" id="circle78"/>
	<circle cx="442.184" cy="91.2311" r="4" fill="#0" id="circle79"/>
	<circle cx="450.299" cy="689.677" r="4" fill="#0" id="circle80"/>
	<circle cx="452.327" cy="109.489" r="4" fill="#0" id="circle81"/>
	<circle cx="452.327" cy="436.098" r="4" fill="#0" id="circle82"/>
	<circle cx="454.356" cy="709.963" r="4" fill="#0" id="circle83"/>
	<circle cx="468.556" cy="448.27" r="4" fill="#0" id="circle84"/>
	<circle cx="474.642" cy="718.078" r="4" fill="#0" id="circle85"/>
	<circle cx="476.671" cy="468.556" r="4" fill="#0" id="circle86"/>
	<circle cx="480.728" cy="738.364" r="4" fill="#0" id="circle87"/>
	<circle cx="490.871" cy="756.622" r="4" fill="#0" id="circle88"/>
	<circle cx="490.871" cy="776.908" r="4" fill="#0" id="circle89"/>
	<circle cx="492.9" cy="482.757" r="4" fill="#0" id="circle90"/>
	<circle cx="503.043" cy="501.014" r="4" fill="#0" id="circle91"/>
	<circle cx="507.1" cy="791.108" r="4" fill="#0" id="circle92"/>
	<circle cx="513.186" cy="519.272" r="4" fill="#0" id="circle93"/>
	<circle cx="517.243" cy="539.558" r="4" fill="#0" id="circle94"/>
	<circle cx="523.329" cy="803.28" r="4" fill="#0" id="circle95"/>
	<circle cx="533.472" cy="553.759" r="4" fill="#0" id="circle96"/>
	<circle cx="541.587" cy="813.423" r="4" fill="#0" id="circle97"/>
	<circle cx="541.587" cy="833.71" r="4" fill="#0" id="circle98"/>
	<circle cx="547.673" cy="569.988" r="4" fill="#0" id="circle99"/>
	<circle cx="547.673" cy="853.996" r="4" fill="#0" id="circle100"/>
	<circle cx="553.759" cy="590.274" r="4" fill="#0" id="circle101"/>
	<circle cx="557.816" cy="610.56" r="4" fill="#0" id="circle102"/>
	<circle cx="557.816" cy="872.254" r="4" fill="#0" id="circle103"/>
	<circle cx="572.016" cy="888.483" r="4" fill="#0" id="circle104"/>
	<circle cx="574.045" cy="624.761" r="4" fill="#0" id="circle105"/>
	<circle cx="582.16" cy="906.74" r="4" fill="#0" id="circle106"/>
	<circle cx="588.245" cy="640.99" r="4" fill="#0" id="circle107"/>
	<circle cx="592.303" cy="924.998" r="4" fill="#0" id="circle108"/>
	<circle cx="594.331" cy="661.276" r="4" fill="#0" id="circle109"/>
	<circle cx="598.389" cy="945.284" r="4" fill="#0" id="circle110"/>
	<circle cx="602.446" cy="979.771" r="4" fill="#0" id="circle111"/>
	<circle cx="604.474" cy="679.534" r="4" fill="#0" id="circle112"/>
	<circle cx="612.589" cy="961.513" r="4" fill="#0" id="circle113"/>
	<circle cx="614.618" cy="697.791" r="4" fill="#0" id="circle114"/>
	<circle cx="622.732" cy="985.857" r="4" fill="#0" id="circle115"/>
	<circle cx="624.761" cy="716.049" r="4" fill="#0" id="circle116"/>
	<circle cx="624.761" cy="736.335" r="4" fill="#0" id="circle117"/>
	<circle cx="638.961" cy="752.564" r="4" fill="#0" id="circle118"/>
	<circle cx="640.99" cy="996" r="4" fill="#0" id="circle119"/>
	<circle cx="649.104" cy="770.822" r="4" fill="#0" id="circle120"/>
	<circle cx="661.276" cy="996" r="4" fill="#0" id="circle121"/>
	<circle cx="663.305" cy="787.051" r="4" fill="#0" id="circle122"/>
	<circle cx="665.333" cy="807.337" r="4" fill="#0" id="circle123"/>
	<circle cx="675.476" cy="825.595" r="4" fill="#0" id="circle124"/>
	<circle cx="679.534" cy="985.857" r="4" fill="#0" id="circle125"/>
	<circle cx="687.648" cy="841.824" r="4" fill="#0" id="circle126"/>
	<circle cx="699.82" cy="985.857" r="4" fill="#0" id="circle127"/>
	<circle cx="703.877" cy="856.025" r="4" fill="#0" id="circle128"/>
	<circle cx="716.049" cy="872.254" r="4" fill="#0" id="circle129"/>
	<circle cx="720.106" cy="983.828" r="4" fill="#0" id="circle130"/>
	<circle cx="726.192" cy="890.511" r="4" fill="#0" id="circle131"/>
	<circle cx="730.249" cy="963.542" r="4" fill="#0" id="circle132"/>
	<circle cx="736.335" cy="908.769" r="4" fill="#0" id="circle133"/>
	<circle cx="746.479" cy="927.027" r="4" fill="#0" id="circle134"/>
	<circle cx="746.479" cy="947.313" r="4" fill="#0" id="circle135"/>
	</g>
</svg>