<?xml version="1.0" encoding="UTF-8" standalone="no"?>
<!-- Created with CurveBenchmark -->
<svg
	xmlns:dc="http://purl.org/dc/elements/1.1/"
	xmlns:cc="http://creativecommons.org/ns#"
	xmlns:rdf="http://www.w3.org/1999/02/22-rdf-syntax-ns#"
	xmlns:svg="http://www.w3.org/2000/svg"
	xmlns="http://www.w3.org/2000/svg"
	xmlns:sodipodi="http://sodipodi.sourceforge.net/DTD/sodipodi-0.dtd"
	xmlns:inkscape="http://www.inkscape.org/namespaces/inkscape"
	width="1000"
	height="1000"
	id="svg2"
	version="1.1"
	sodipodi:docname="manifold/crawl-fish0760.png.txt">
<defs
	id="defs4" />
<metadata
	id="metadata7">
	<rdf:RDF>
		<cc:Work
			rdf:about="">
			<dc:format>image/svg+xml</dc:format>
			<dc:type
				rdf:resource="http://purl.org/dc/dcmitype/StillImage" />
			<dc:title></dc:title>
		</cc:Work>
	</rdf:RDF>
</metadata>
<g
	inkscape:label="Layer 1"
	inkscape:groupmode="layer"
	id="layer1">
	<path style="fill:none;stroke:red;stroke-width:1px;stroke-linecap:butt;stroke-linejoin:miter;stroke-opacity:1" d="M 93.2354,145.289 78.3628,145.289 z" id="boundary" inkscape:connector-curvature="0" />
	<path style="fill:none;stroke:red;stroke-width:1px;stroke-linecap:butt;stroke-linejoin:miter;stroke-opacity:1" d="M 93.2354,145.289 108.108,142.315 z" id="boundary" inkscape:connector-curvature="0" />
	<path style="fill:none;stroke:red;stroke-width:1px;stroke-linecap:butt;stroke-linejoin:miter;stroke-opacity:1" d="M 78.3628,145.289 64.9775,152.726 z" id="boundary" inkscape:connector-curvature="0" />
	<path style="fill:none;stroke:red;stroke-width:1px;stroke-linecap:butt;stroke-linejoin:miter;stroke-opacity:1" d="M 64.9775,152.726 51.5922,160.162 z" id="boundary" inkscape:connector-curvature="0" />
	<path style="fill:none;stroke:red;stroke-width:1px;stroke-linecap:butt;stroke-linejoin:miter;stroke-opacity:1" d="M 51.5922,160.162 38.2069,167.598 z" id="boundary" inkscape:connector-curvature="0" />
	<path style="fill:none;stroke:red;stroke-width:1px;stroke-linecap:butt;stroke-linejoin:miter;stroke-opacity:1" d="M 38.2069,167.598 23.3343,175.034 z" id="boundary" inkscape:connector-curvature="0" />
	<path style="fill:none;stroke:red;stroke-width:1px;stroke-linecap:butt;stroke-linejoin:miter;stroke-opacity:1" d="M 23.3343,175.034 15.8981,189.907 z" id="boundary" inkscape:connector-curvature="0" />
	<path style="fill:none;stroke:red;stroke-width:1px;stroke-linecap:butt;stroke-linejoin:miter;stroke-opacity:1" d="M 15.8981,189.907 18.8726,206.267 z" id="boundary" inkscape:connector-curvature="0" />
	<path style="fill:none;stroke:red;stroke-width:1px;stroke-linecap:butt;stroke-linejoin:miter;stroke-opacity:1" d="M 18.8726,206.267 23.3343,221.139 z" id="boundary" inkscape:connector-curvature="0" />
	<path style="fill:none;stroke:red;stroke-width:1px;stroke-linecap:butt;stroke-linejoin:miter;stroke-opacity:1" d="M 23.3343,221.139 33.7451,233.037 z" id="boundary" inkscape:connector-curvature="0" />
	<path style="fill:none;stroke:red;stroke-width:1px;stroke-linecap:butt;stroke-linejoin:miter;stroke-opacity:1" d="M 33.7451,233.037 41.1814,246.423 z" id="boundary" inkscape:connector-curvature="0" />
	<path style="fill:none;stroke:red;stroke-width:1px;stroke-linecap:butt;stroke-linejoin:miter;stroke-opacity:1" d="M 41.1814,246.423 48.6177,259.808 z" id="boundary" inkscape:connector-curvature="0" />
	<path style="fill:none;stroke:red;stroke-width:1px;stroke-linecap:butt;stroke-linejoin:miter;stroke-opacity:1" d="M 48.6177,259.808 63.4903,265.757 z" id="boundary" inkscape:connector-curvature="0" />
	<path style="fill:none;stroke:red;stroke-width:1px;stroke-linecap:butt;stroke-linejoin:miter;stroke-opacity:1" d="M 63.4903,265.757 76.8756,273.193 z" id="boundary" inkscape:connector-curvature="0" />
	<path style="fill:none;stroke:red;stroke-width:1px;stroke-linecap:butt;stroke-linejoin:miter;stroke-opacity:1" d="M 76.8756,273.193 91.7481,273.193 z" id="boundary" inkscape:connector-curvature="0" />
	<path style="fill:none;stroke:red;stroke-width:1px;stroke-linecap:butt;stroke-linejoin:miter;stroke-opacity:1" d="M 91.7481,273.193 105.133,280.63 z" id="boundary" inkscape:connector-curvature="0" />
	<path style="fill:none;stroke:red;stroke-width:1px;stroke-linecap:butt;stroke-linejoin:miter;stroke-opacity:1" d="M 105.133,280.63 120.006,286.579 z" id="boundary" inkscape:connector-curvature="0" />
	<path style="fill:none;stroke:red;stroke-width:1px;stroke-linecap:butt;stroke-linejoin:miter;stroke-opacity:1" d="M 120.006,286.579 131.904,295.502 z" id="boundary" inkscape:connector-curvature="0" />
	<path style="fill:none;stroke:red;stroke-width:1px;stroke-linecap:butt;stroke-linejoin:miter;stroke-opacity:1" d="M 131.904,295.502 145.289,302.939 z" id="boundary" inkscape:connector-curvature="0" />
	<path style="fill:none;stroke:red;stroke-width:1px;stroke-linecap:butt;stroke-linejoin:miter;stroke-opacity:1" d="M 145.289,302.939 160.162,302.939 z" id="boundary" inkscape:connector-curvature="0" />
	<path style="fill:none;stroke:red;stroke-width:1px;stroke-linecap:butt;stroke-linejoin:miter;stroke-opacity:1" d="M 160.162,302.939 173.547,310.375 z" id="boundary" inkscape:connector-curvature="0" />
	<path style="fill:none;stroke:red;stroke-width:1px;stroke-linecap:butt;stroke-linejoin:miter;stroke-opacity:1" d="M 173.547,310.375 186.933,317.811 z" id="boundary" inkscape:connector-curvature="0" />
	<path style="fill:none;stroke:red;stroke-width:1px;stroke-linecap:butt;stroke-linejoin:miter;stroke-opacity:1" d="M 186.933,317.811 201.805,317.811 z" id="boundary" inkscape:connector-curvature="0" />
	<path style="fill:none;stroke:red;stroke-width:1px;stroke-linecap:butt;stroke-linejoin:miter;stroke-opacity:1" d="M 201.805,317.811 216.678,317.811 z" id="boundary" inkscape:connector-curvature="0" />
	<path style="fill:none;stroke:red;stroke-width:1px;stroke-linecap:butt;stroke-linejoin:miter;stroke-opacity:1" d="M 216.678,317.811 230.063,325.247 z" id="boundary" inkscape:connector-curvature="0" />
	<path style="fill:none;stroke:red;stroke-width:1px;stroke-linecap:butt;stroke-linejoin:miter;stroke-opacity:1" d="M 230.063,325.247 244.936,329.709 z" id="boundary" inkscape:connector-curvature="0" />
	<path style="fill:none;stroke:red;stroke-width:1px;stroke-linecap:butt;stroke-linejoin:miter;stroke-opacity:1" d="M 244.936,329.709 258.321,337.145 z" id="boundary" inkscape:connector-curvature="0" />
	<path style="fill:none;stroke:red;stroke-width:1px;stroke-linecap:butt;stroke-linejoin:miter;stroke-opacity:1" d="M 258.321,337.145 273.193,340.12 z" id="boundary" inkscape:connector-curvature="0" />
	<path style="fill:none;stroke:red;stroke-width:1px;stroke-linecap:butt;stroke-linejoin:miter;stroke-opacity:1" d="M 273.193,340.12 288.066,340.12 z" id="boundary" inkscape:connector-curvature="0" />
	<path style="fill:none;stroke:red;stroke-width:1px;stroke-linecap:butt;stroke-linejoin:miter;stroke-opacity:1" d="M 288.066,340.12 302.939,340.12 z" id="boundary" inkscape:connector-curvature="0" />
	<path style="fill:none;stroke:red;stroke-width:1px;stroke-linecap:butt;stroke-linejoin:miter;stroke-opacity:1" d="M 302.939,340.12 317.811,340.12 z" id="boundary" inkscape:connector-curvature="0" />
	<path style="fill:none;stroke:red;stroke-width:1px;stroke-linecap:butt;stroke-linejoin:miter;stroke-opacity:1" d="M 317.811,340.12 332.684,340.12 z" id="boundary" inkscape:connector-curvature="0" />
	<path style="fill:none;stroke:red;stroke-width:1px;stroke-linecap:butt;stroke-linejoin:miter;stroke-opacity:1" d="M 332.684,340.12 347.556,343.094 z" id="boundary" inkscape:connector-curvature="0" />
	<path style="fill:none;stroke:red;stroke-width:1px;stroke-linecap:butt;stroke-linejoin:miter;stroke-opacity:1" d="M 347.556,343.094 360.942,350.531 z" id="boundary" inkscape:connector-curvature="0" />
	<path style="fill:none;stroke:red;stroke-width:1px;stroke-linecap:butt;stroke-linejoin:miter;stroke-opacity:1" d="M 360.942,350.531 372.84,360.942 z" id="boundary" inkscape:connector-curvature="0" />
	<path style="fill:none;stroke:red;stroke-width:1px;stroke-linecap:butt;stroke-linejoin:miter;stroke-opacity:1" d="M 372.84,360.942 383.25,372.84 z" id="boundary" inkscape:connector-curvature="0" />
	<path style="fill:none;stroke:red;stroke-width:1px;stroke-linecap:butt;stroke-linejoin:miter;stroke-opacity:1" d="M 383.25,372.84 390.687,386.225 z" id="boundary" inkscape:connector-curvature="0" />
	<path style="fill:none;stroke:red;stroke-width:1px;stroke-linecap:butt;stroke-linejoin:miter;stroke-opacity:1" d="M 390.687,386.225 401.097,398.123 z" id="boundary" inkscape:connector-curvature="0" />
	<path style="fill:none;stroke:red;stroke-width:1px;stroke-linecap:butt;stroke-linejoin:miter;stroke-opacity:1" d="M 401.097,398.123 412.996,407.046 z" id="boundary" inkscape:connector-curvature="0" />
	<path style="fill:none;stroke:red;stroke-width:1px;stroke-linecap:butt;stroke-linejoin:miter;stroke-opacity:1" d="M 412.996,407.046 421.919,418.945 z" id="boundary" inkscape:connector-curvature="0" />
	<path style="fill:none;stroke:red;stroke-width:1px;stroke-linecap:butt;stroke-linejoin:miter;stroke-opacity:1" d="M 421.919,418.945 433.817,429.355 z" id="boundary" inkscape:connector-curvature="0" />
	<path style="fill:none;stroke:red;stroke-width:1px;stroke-linecap:butt;stroke-linejoin:miter;stroke-opacity:1" d="M 433.817,429.355 447.202,436.792 z" id="boundary" inkscape:connector-curvature="0" />
	<path style="fill:none;stroke:red;stroke-width:1px;stroke-linecap:butt;stroke-linejoin:miter;stroke-opacity:1" d="M 447.202,436.792 460.588,429.355 z" id="boundary" inkscape:connector-curvature="0" />
	<path style="fill:none;stroke:red;stroke-width:1px;stroke-linecap:butt;stroke-linejoin:miter;stroke-opacity:1" d="M 460.588,429.355 472.486,417.457 z" id="boundary" inkscape:connector-curvature="0" />
	<path style="fill:none;stroke:red;stroke-width:1px;stroke-linecap:butt;stroke-linejoin:miter;stroke-opacity:1" d="M 472.486,417.457 484.384,405.559 z" id="boundary" inkscape:connector-curvature="0" />
	<path style="fill:none;stroke:red;stroke-width:1px;stroke-linecap:butt;stroke-linejoin:miter;stroke-opacity:1" d="M 108.108,142.315 120.006,130.417 z" id="boundary" inkscape:connector-curvature="0" />
	<path style="fill:none;stroke:red;stroke-width:1px;stroke-linecap:butt;stroke-linejoin:miter;stroke-opacity:1" d="M 120.006,130.417 133.391,122.981 z" id="boundary" inkscape:connector-curvature="0" />
	<path style="fill:none;stroke:red;stroke-width:1px;stroke-linecap:butt;stroke-linejoin:miter;stroke-opacity:1" d="M 133.391,122.981 148.264,117.031 z" id="boundary" inkscape:connector-curvature="0" />
	<path style="fill:none;stroke:red;stroke-width:1px;stroke-linecap:butt;stroke-linejoin:miter;stroke-opacity:1" d="M 148.264,117.031 163.136,109.595 z" id="boundary" inkscape:connector-curvature="0" />
	<path style="fill:none;stroke:red;stroke-width:1px;stroke-linecap:butt;stroke-linejoin:miter;stroke-opacity:1" d="M 163.136,109.595 178.009,102.159 z" id="boundary" inkscape:connector-curvature="0" />
	<path style="fill:none;stroke:red;stroke-width:1px;stroke-linecap:butt;stroke-linejoin:miter;stroke-opacity:1" d="M 178.009,102.159 192.882,94.7226 z" id="boundary" inkscape:connector-curvature="0" />
	<path style="fill:none;stroke:red;stroke-width:1px;stroke-linecap:butt;stroke-linejoin:miter;stroke-opacity:1" d="M 192.882,94.7226 207.754,87.2864 z" id="boundary" inkscape:connector-curvature="0" />
	<path style="fill:none;stroke:red;stroke-width:1px;stroke-linecap:butt;stroke-linejoin:miter;stroke-opacity:1" d="M 207.754,87.2864 222.627,85.7991 z" id="boundary" inkscape:connector-curvature="0" />
	<path style="fill:none;stroke:red;stroke-width:1px;stroke-linecap:butt;stroke-linejoin:miter;stroke-opacity:1" d="M 222.627,85.7991 237.499,79.8501 z" id="boundary" inkscape:connector-curvature="0" />
	<path style="fill:none;stroke:red;stroke-width:1px;stroke-linecap:butt;stroke-linejoin:miter;stroke-opacity:1" d="M 237.499,79.8501 252.372,78.3628 z" id="boundary" inkscape:connector-curvature="0" />
	<path style="fill:none;stroke:red;stroke-width:1px;stroke-linecap:butt;stroke-linejoin:miter;stroke-opacity:1" d="M 252.372,78.3628 267.244,78.3628 z" id="boundary" inkscape:connector-curvature="0" />
	<path style="fill:none;stroke:red;stroke-width:1px;stroke-linecap:butt;stroke-linejoin:miter;stroke-opacity:1" d="M 267.244,78.3628 282.117,72.4138 z" id="boundary" inkscape:connector-curvature="0" />
	<path style="fill:none;stroke:red;stroke-width:1px;stroke-linecap:butt;stroke-linejoin:miter;stroke-opacity:1" d="M 282.117,72.4138 296.99,70.9265 z" id="boundary" inkscape:connector-curvature="0" />
	<path style="fill:none;stroke:red;stroke-width:1px;stroke-linecap:butt;stroke-linejoin:miter;stroke-opacity:1" d="M 296.99,70.9265 311.862,70.9265 z" id="boundary" inkscape:connector-curvature="0" />
	<path style="fill:none;stroke:red;stroke-width:1px;stroke-linecap:butt;stroke-linejoin:miter;stroke-opacity:1" d="M 311.862,70.9265 326.735,70.9265 z" id="boundary" inkscape:connector-curvature="0" />
	<path style="fill:none;stroke:red;stroke-width:1px;stroke-linecap:butt;stroke-linejoin:miter;stroke-opacity:1" d="M 326.735,70.9265 341.607,70.9265 z" id="boundary" inkscape:connector-curvature="0" />
	<path style="fill:none;stroke:red;stroke-width:1px;stroke-linecap:butt;stroke-linejoin:miter;stroke-opacity:1" d="M 341.607,70.9265 356.48,70.9265 z" id="boundary" inkscape:connector-curvature="0" />
	<path style="fill:none;stroke:red;stroke-width:1px;stroke-linecap:butt;stroke-linejoin:miter;stroke-opacity:1" d="M 356.48,70.9265 371.352,70.9265 z" id="boundary" inkscape:connector-curvature="0" />
	<path style="fill:none;stroke:red;stroke-width:1px;stroke-linecap:butt;stroke-linejoin:miter;stroke-opacity:1" d="M 371.352,70.9265 386.225,70.9265 z" id="boundary" inkscape:connector-curvature="0" />
	<path style="fill:none;stroke:red;stroke-width:1px;stroke-linecap:butt;stroke-linejoin:miter;stroke-opacity:1" d="M 386.225,70.9265 398.123,60.5157 z" id="boundary" inkscape:connector-curvature="0" />
	<path style="fill:none;stroke:red;stroke-width:1px;stroke-linecap:butt;stroke-linejoin:miter;stroke-opacity:1" d="M 484.384,405.559 496.282,392.174 z" id="boundary" inkscape:connector-curvature="0" />
	<path style="fill:none;stroke:red;stroke-width:1px;stroke-linecap:butt;stroke-linejoin:miter;stroke-opacity:1" d="M 496.282,392.174 503.718,369.865 z" id="boundary" inkscape:connector-curvature="0" />
	<path style="fill:none;stroke:red;stroke-width:1px;stroke-linecap:butt;stroke-linejoin:miter;stroke-opacity:1" d="M 503.718,369.865 517.103,362.429 z" id="boundary" inkscape:connector-curvature="0" />
	<path style="fill:none;stroke:red;stroke-width:1px;stroke-linecap:butt;stroke-linejoin:miter;stroke-opacity:1" d="M 517.103,362.429 529.001,353.505 z" id="boundary" inkscape:connector-curvature="0" />
	<path style="fill:none;stroke:red;stroke-width:1px;stroke-linecap:butt;stroke-linejoin:miter;stroke-opacity:1" d="M 529.001,353.505 536.438,340.12 z" id="boundary" inkscape:connector-curvature="0" />
	<path style="fill:none;stroke:red;stroke-width:1px;stroke-linecap:butt;stroke-linejoin:miter;stroke-opacity:1" d="M 536.438,340.12 533.463,325.247 z" id="boundary" inkscape:connector-curvature="0" />
	<path style="fill:none;stroke:red;stroke-width:1px;stroke-linecap:butt;stroke-linejoin:miter;stroke-opacity:1" d="M 533.463,325.247 548.336,317.811 z" id="boundary" inkscape:connector-curvature="0" />
	<path style="fill:none;stroke:red;stroke-width:1px;stroke-linecap:butt;stroke-linejoin:miter;stroke-opacity:1" d="M 548.336,317.811 563.208,317.811 z" id="boundary" inkscape:connector-curvature="0" />
	<path style="fill:none;stroke:red;stroke-width:1px;stroke-linecap:butt;stroke-linejoin:miter;stroke-opacity:1" d="M 563.208,317.811 578.081,317.811 z" id="boundary" inkscape:connector-curvature="0" />
	<path style="fill:none;stroke:red;stroke-width:1px;stroke-linecap:butt;stroke-linejoin:miter;stroke-opacity:1" d="M 578.081,317.811 592.954,317.811 z" id="boundary" inkscape:connector-curvature="0" />
	<path style="fill:none;stroke:red;stroke-width:1px;stroke-linecap:butt;stroke-linejoin:miter;stroke-opacity:1" d="M 592.954,317.811 606.339,310.375 z" id="boundary" inkscape:connector-curvature="0" />
	<path style="fill:none;stroke:red;stroke-width:1px;stroke-linecap:butt;stroke-linejoin:miter;stroke-opacity:1" d="M 606.339,310.375 621.211,310.375 z" id="boundary" inkscape:connector-curvature="0" />
	<path style="fill:none;stroke:red;stroke-width:1px;stroke-linecap:butt;stroke-linejoin:miter;stroke-opacity:1" d="M 621.211,310.375 636.084,305.913 z" id="boundary" inkscape:connector-curvature="0" />
	<path style="fill:none;stroke:red;stroke-width:1px;stroke-linecap:butt;stroke-linejoin:miter;stroke-opacity:1" d="M 636.084,305.913 650.957,302.939 z" id="boundary" inkscape:connector-curvature="0" />
	<path style="fill:none;stroke:red;stroke-width:1px;stroke-linecap:butt;stroke-linejoin:miter;stroke-opacity:1" d="M 650.957,302.939 665.829,302.939 z" id="boundary" inkscape:connector-curvature="0" />
	<path style="fill:none;stroke:red;stroke-width:1px;stroke-linecap:butt;stroke-linejoin:miter;stroke-opacity:1" d="M 665.829,302.939 679.214,295.502 z" id="boundary" inkscape:connector-curvature="0" />
	<path style="fill:none;stroke:red;stroke-width:1px;stroke-linecap:butt;stroke-linejoin:miter;stroke-opacity:1" d="M 679.214,295.502 694.087,292.528 z" id="boundary" inkscape:connector-curvature="0" />
	<path style="fill:none;stroke:red;stroke-width:1px;stroke-linecap:butt;stroke-linejoin:miter;stroke-opacity:1" d="M 694.087,292.528 708.96,288.066 z" id="boundary" inkscape:connector-curvature="0" />
	<path style="fill:none;stroke:red;stroke-width:1px;stroke-linecap:butt;stroke-linejoin:miter;stroke-opacity:1" d="M 708.96,288.066 722.345,280.63 z" id="boundary" inkscape:connector-curvature="0" />
	<path style="fill:none;stroke:red;stroke-width:1px;stroke-linecap:butt;stroke-linejoin:miter;stroke-opacity:1" d="M 722.345,280.63 737.217,280.63 z" id="boundary" inkscape:connector-curvature="0" />
	<path style="fill:none;stroke:red;stroke-width:1px;stroke-linecap:butt;stroke-linejoin:miter;stroke-opacity:1" d="M 737.217,280.63 752.09,280.63 z" id="boundary" inkscape:connector-curvature="0" />
	<path style="fill:none;stroke:red;stroke-width:1px;stroke-linecap:butt;stroke-linejoin:miter;stroke-opacity:1" d="M 752.09,280.63 765.475,273.193 z" id="boundary" inkscape:connector-curvature="0" />
	<path style="fill:none;stroke:red;stroke-width:1px;stroke-linecap:butt;stroke-linejoin:miter;stroke-opacity:1" d="M 765.475,273.193 780.348,273.193 z" id="boundary" inkscape:connector-curvature="0" />
	<path style="fill:none;stroke:red;stroke-width:1px;stroke-linecap:butt;stroke-linejoin:miter;stroke-opacity:1" d="M 780.348,273.193 795.22,273.193 z" id="boundary" inkscape:connector-curvature="0" />
	<path style="fill:none;stroke:red;stroke-width:1px;stroke-linecap:butt;stroke-linejoin:miter;stroke-opacity:1" d="M 795.22,273.193 810.093,273.193 z" id="boundary" inkscape:connector-curvature="0" />
	<path style="fill:none;stroke:red;stroke-width:1px;stroke-linecap:butt;stroke-linejoin:miter;stroke-opacity:1" d="M 810.093,273.193 824.966,273.193 z" id="boundary" inkscape:connector-curvature="0" />
	<path style="fill:none;stroke:red;stroke-width:1px;stroke-linecap:butt;stroke-linejoin:miter;stroke-opacity:1" d="M 824.966,273.193 839.838,273.193 z" id="boundary" inkscape:connector-curvature="0" />
	<path style="fill:none;stroke:red;stroke-width:1px;stroke-linecap:butt;stroke-linejoin:miter;stroke-opacity:1" d="M 839.838,273.193 853.223,280.63 z" id="boundary" inkscape:connector-curvature="0" />
	<path style="fill:none;stroke:red;stroke-width:1px;stroke-linecap:butt;stroke-linejoin:miter;stroke-opacity:1" d="M 853.223,280.63 868.096,283.604 z" id="boundary" inkscape:connector-curvature="0" />
	<path style="fill:none;stroke:red;stroke-width:1px;stroke-linecap:butt;stroke-linejoin:miter;stroke-opacity:1" d="M 868.096,283.604 881.481,291.04 z" id="boundary" inkscape:connector-curvature="0" />
	<path style="fill:none;stroke:red;stroke-width:1px;stroke-linecap:butt;stroke-linejoin:miter;stroke-opacity:1" d="M 881.481,291.04 896.354,295.502 z" id="boundary" inkscape:connector-curvature="0" />
	<path style="fill:none;stroke:red;stroke-width:1px;stroke-linecap:butt;stroke-linejoin:miter;stroke-opacity:1" d="M 896.354,295.502 909.739,302.939 z" id="boundary" inkscape:connector-curvature="0" />
	<path style="fill:none;stroke:red;stroke-width:1px;stroke-linecap:butt;stroke-linejoin:miter;stroke-opacity:1" d="M 909.739,302.939 923.124,310.375 z" id="boundary" inkscape:connector-curvature="0" />
	<path style="fill:none;stroke:red;stroke-width:1px;stroke-linecap:butt;stroke-linejoin:miter;stroke-opacity:1" d="M 923.124,310.375 936.51,317.811 z" id="boundary" inkscape:connector-curvature="0" />
	<path style="fill:none;stroke:red;stroke-width:1px;stroke-linecap:butt;stroke-linejoin:miter;stroke-opacity:1" d="M 936.51,317.811 951.382,322.273 z" id="boundary" inkscape:connector-curvature="0" />
	<path style="fill:none;stroke:red;stroke-width:1px;stroke-linecap:butt;stroke-linejoin:miter;stroke-opacity:1" d="M 951.382,322.273 964.768,329.709 z" id="boundary" inkscape:connector-curvature="0" />
	<path style="fill:none;stroke:red;stroke-width:1px;stroke-linecap:butt;stroke-linejoin:miter;stroke-opacity:1" d="M 964.768,329.709 976.666,340.12 z" id="boundary" inkscape:connector-curvature="0" />
	<path style="fill:none;stroke:red;stroke-width:1px;stroke-linecap:butt;stroke-linejoin:miter;stroke-opacity:1" d="M 976.666,340.12 991.538,340.12 z" id="boundary" inkscape:connector-curvature="0" />
	<path style="fill:none;stroke:red;stroke-width:1px;stroke-linecap:butt;stroke-linejoin:miter;stroke-opacity:1" d="M 398.123,60.5157 405.559,38.2069 z" id="boundary" inkscape:connector-curvature="0" />
	<path style="fill:none;stroke:red;stroke-width:1px;stroke-linecap:butt;stroke-linejoin:miter;stroke-opacity:1" d="M 405.559,38.2069 412.996,23.3343 z" id="boundary" inkscape:connector-curvature="0" />
	<path style="fill:none;stroke:red;stroke-width:1px;stroke-linecap:butt;stroke-linejoin:miter;stroke-opacity:1" d="M 412.996,23.3343 420.432,8.46177 z" id="boundary" inkscape:connector-curvature="0" />
	<path style="fill:none;stroke:red;stroke-width:1px;stroke-linecap:butt;stroke-linejoin:miter;stroke-opacity:1" d="M 420.432,8.46177 435.304,4 z" id="boundary" inkscape:connector-curvature="0" />
	<path style="fill:none;stroke:red;stroke-width:1px;stroke-linecap:butt;stroke-linejoin:miter;stroke-opacity:1" d="M 435.304,4 450.177,6.97451 z" id="boundary" inkscape:connector-curvature="0" />
	<path style="fill:none;stroke:red;stroke-width:1px;stroke-linecap:butt;stroke-linejoin:miter;stroke-opacity:1" d="M 450.177,6.97451 459.1,18.8726 z" id="boundary" inkscape:connector-curvature="0" />
	<path style="fill:none;stroke:red;stroke-width:1px;stroke-linecap:butt;stroke-linejoin:miter;stroke-opacity:1" d="M 459.1,18.8726 466.537,32.2579 z" id="boundary" inkscape:connector-curvature="0" />
	<path style="fill:none;stroke:red;stroke-width:1px;stroke-linecap:butt;stroke-linejoin:miter;stroke-opacity:1" d="M 466.537,32.2579 473.973,45.6432 z" id="boundary" inkscape:connector-curvature="0" />
	<path style="fill:none;stroke:red;stroke-width:1px;stroke-linecap:butt;stroke-linejoin:miter;stroke-opacity:1" d="M 473.973,45.6432 473.973,60.5157 z" id="boundary" inkscape:connector-curvature="0" />
	<path style="fill:none;stroke:red;stroke-width:1px;stroke-linecap:butt;stroke-linejoin:miter;stroke-opacity:1" d="M 473.973,60.5157 473.973,75.3883 z" id="boundary" inkscape:connector-curvature="0" />
	<path style="fill:none;stroke:red;stroke-width:1px;stroke-linecap:butt;stroke-linejoin:miter;stroke-opacity:1" d="M 473.973,75.3883 488.846,78.3628 z" id="boundary" inkscape:connector-curvature="0" />
	<path style="fill:none;stroke:red;stroke-width:1px;stroke-linecap:butt;stroke-linejoin:miter;stroke-opacity:1" d="M 488.846,78.3628 502.231,85.7991 z" id="boundary" inkscape:connector-curvature="0" />
	<path style="fill:none;stroke:red;stroke-width:1px;stroke-linecap:butt;stroke-linejoin:miter;stroke-opacity:1" d="M 502.231,85.7991 517.103,85.7991 z" id="boundary" inkscape:connector-curvature="0" />
	<path style="fill:none;stroke:red;stroke-width:1px;stroke-linecap:butt;stroke-linejoin:miter;stroke-opacity:1" d="M 517.103,85.7991 530.489,93.2354 z" id="boundary" inkscape:connector-curvature="0" />
	<path style="fill:none;stroke:red;stroke-width:1px;stroke-linecap:butt;stroke-linejoin:miter;stroke-opacity:1" d="M 530.489,93.2354 543.874,100.672 z" id="boundary" inkscape:connector-curvature="0" />
	<path style="fill:none;stroke:red;stroke-width:1px;stroke-linecap:butt;stroke-linejoin:miter;stroke-opacity:1" d="M 543.874,100.672 557.259,108.108 z" id="boundary" inkscape:connector-curvature="0" />
	<path style="fill:none;stroke:red;stroke-width:1px;stroke-linecap:butt;stroke-linejoin:miter;stroke-opacity:1" d="M 557.259,108.108 572.132,108.108 z" id="boundary" inkscape:connector-curvature="0" />
	<path style="fill:none;stroke:red;stroke-width:1px;stroke-linecap:butt;stroke-linejoin:miter;stroke-opacity:1" d="M 572.132,108.108 584.03,118.519 z" id="boundary" inkscape:connector-curvature="0" />
	<path style="fill:none;stroke:red;stroke-width:1px;stroke-linecap:butt;stroke-linejoin:miter;stroke-opacity:1" d="M 584.03,118.519 598.903,122.981 z" id="boundary" inkscape:connector-curvature="0" />
	<path style="fill:none;stroke:red;stroke-width:1px;stroke-linecap:butt;stroke-linejoin:miter;stroke-opacity:1" d="M 598.903,122.981 613.775,125.955 z" id="boundary" inkscape:connector-curvature="0" />
	<path style="fill:none;stroke:red;stroke-width:1px;stroke-linecap:butt;stroke-linejoin:miter;stroke-opacity:1" d="M 613.775,125.955 627.16,133.391 z" id="boundary" inkscape:connector-curvature="0" />
	<path style="fill:none;stroke:red;stroke-width:1px;stroke-linecap:butt;stroke-linejoin:miter;stroke-opacity:1" d="M 627.16,133.391 642.033,137.853 z" id="boundary" inkscape:connector-curvature="0" />
	<path style="fill:none;stroke:red;stroke-width:1px;stroke-linecap:butt;stroke-linejoin:miter;stroke-opacity:1" d="M 642.033,137.853 655.418,130.417 z" id="boundary" inkscape:connector-curvature="0" />
	<path style="fill:none;stroke:red;stroke-width:1px;stroke-linecap:butt;stroke-linejoin:miter;stroke-opacity:1" d="M 655.418,130.417 668.804,122.981 z" id="boundary" inkscape:connector-curvature="0" />
	<path style="fill:none;stroke:red;stroke-width:1px;stroke-linecap:butt;stroke-linejoin:miter;stroke-opacity:1" d="M 668.804,122.981 683.676,122.981 z" id="boundary" inkscape:connector-curvature="0" />
	<path style="fill:none;stroke:red;stroke-width:1px;stroke-linecap:butt;stroke-linejoin:miter;stroke-opacity:1" d="M 683.676,122.981 698.549,122.981 z" id="boundary" inkscape:connector-curvature="0" />
	<path style="fill:none;stroke:red;stroke-width:1px;stroke-linecap:butt;stroke-linejoin:miter;stroke-opacity:1" d="M 698.549,122.981 711.934,130.417 z" id="boundary" inkscape:connector-curvature="0" />
	<path style="fill:none;stroke:red;stroke-width:1px;stroke-linecap:butt;stroke-linejoin:miter;stroke-opacity:1" d="M 711.934,130.417 723.832,139.34 z" id="boundary" inkscape:connector-curvature="0" />
	<path style="fill:none;stroke:red;stroke-width:1px;stroke-linecap:butt;stroke-linejoin:miter;stroke-opacity:1" d="M 723.832,139.34 738.705,145.289 z" id="boundary" inkscape:connector-curvature="0" />
	<path style="fill:none;stroke:red;stroke-width:1px;stroke-linecap:butt;stroke-linejoin:miter;stroke-opacity:1" d="M 738.705,145.289 752.09,152.726 z" id="boundary" inkscape:connector-curvature="0" />
	<path style="fill:none;stroke:red;stroke-width:1px;stroke-linecap:butt;stroke-linejoin:miter;stroke-opacity:1" d="M 752.09,152.726 762.501,164.624 z" id="boundary" inkscape:connector-curvature="0" />
	<path style="fill:none;stroke:red;stroke-width:1px;stroke-linecap:butt;stroke-linejoin:miter;stroke-opacity:1" d="M 762.501,164.624 774.399,175.034 z" id="boundary" inkscape:connector-curvature="0" />
	<path style="fill:none;stroke:red;stroke-width:1px;stroke-linecap:butt;stroke-linejoin:miter;stroke-opacity:1" d="M 774.399,175.034 787.784,182.471 z" id="boundary" inkscape:connector-curvature="0" />
	<path style="fill:none;stroke:red;stroke-width:1px;stroke-linecap:butt;stroke-linejoin:miter;stroke-opacity:1" d="M 787.784,182.471 801.169,189.907 z" id="boundary" inkscape:connector-curvature="0" />
	<path style="fill:none;stroke:red;stroke-width:1px;stroke-linecap:butt;stroke-linejoin:miter;stroke-opacity:1" d="M 801.169,189.907 816.042,189.907 z" id="boundary" inkscape:connector-curvature="0" />
	<path style="fill:none;stroke:red;stroke-width:1px;stroke-linecap:butt;stroke-linejoin:miter;stroke-opacity:1" d="M 816.042,189.907 830.915,185.445 z" id="boundary" inkscape:connector-curvature="0" />
	<path style="fill:none;stroke:red;stroke-width:1px;stroke-linecap:butt;stroke-linejoin:miter;stroke-opacity:1" d="M 830.915,185.445 845.787,178.009 z" id="boundary" inkscape:connector-curvature="0" />
	<path style="fill:none;stroke:red;stroke-width:1px;stroke-linecap:butt;stroke-linejoin:miter;stroke-opacity:1" d="M 845.787,178.009 860.66,175.034 z" id="boundary" inkscape:connector-curvature="0" />
	<path style="fill:none;stroke:red;stroke-width:1px;stroke-linecap:butt;stroke-linejoin:miter;stroke-opacity:1" d="M 860.66,175.034 875.532,170.573 z" id="boundary" inkscape:connector-curvature="0" />
	<path style="fill:none;stroke:red;stroke-width:1px;stroke-linecap:butt;stroke-linejoin:miter;stroke-opacity:1" d="M 875.532,170.573 890.405,163.136 z" id="boundary" inkscape:connector-curvature="0" />
	<path style="fill:none;stroke:red;stroke-width:1px;stroke-linecap:butt;stroke-linejoin:miter;stroke-opacity:1" d="M 890.405,163.136 905.277,160.162 z" id="boundary" inkscape:connector-curvature="0" />
	<path style="fill:none;stroke:red;stroke-width:1px;stroke-linecap:butt;stroke-linejoin:miter;stroke-opacity:1" d="M 905.277,160.162 918.663,149.751 z" id="boundary" inkscape:connector-curvature="0" />
	<path style="fill:none;stroke:red;stroke-width:1px;stroke-linecap:butt;stroke-linejoin:miter;stroke-opacity:1" d="M 918.663,149.751 933.535,145.289 z" id="boundary" inkscape:connector-curvature="0" />
	<path style="fill:none;stroke:red;stroke-width:1px;stroke-linecap:butt;stroke-linejoin:miter;stroke-opacity:1" d="M 933.535,145.289 948.408,145.289 z" id="boundary" inkscape:connector-curvature="0" />
	<path style="fill:none;stroke:red;stroke-width:1px;stroke-linecap:butt;stroke-linejoin:miter;stroke-opacity:1" d="M 948.408,145.289 963.28,142.315 z" id="boundary" inkscape:connector-curvature="0" />
	<path style="fill:none;stroke:red;stroke-width:1px;stroke-linecap:butt;stroke-linejoin:miter;stroke-opacity:1" d="M 963.28,142.315 978.153,137.853 z" id="boundary" inkscape:connector-curvature="0" />
	<path style="fill:none;stroke:red;stroke-width:1px;stroke-linecap:butt;stroke-linejoin:miter;stroke-opacity:1" d="M 978.153,137.853 991.538,130.417 z" id="boundary" inkscape:connector-curvature="0" />
	<path style="fill:none;stroke:red;stroke-width:1px;stroke-linecap:butt;stroke-linejoin:miter;stroke-opacity:1" d="M 991.538,130.417 991.538,151.238 z" id="boundary" inkscape:connector-curvature="0" />
	<path style="fill:none;stroke:red;stroke-width:1px;stroke-linecap:butt;stroke-linejoin:miter;stroke-opacity:1" d="M 991.538,151.238 984.102,166.111 z" id="boundary" inkscape:connector-curvature="0" />
	<path style="fill:none;stroke:red;stroke-width:1px;stroke-linecap:butt;stroke-linejoin:miter;stroke-opacity:1" d="M 984.102,166.111 972.204,176.522 z" id="boundary" inkscape:connector-curvature="0" />
	<path style="fill:none;stroke:red;stroke-width:1px;stroke-linecap:butt;stroke-linejoin:miter;stroke-opacity:1" d="M 972.204,176.522 970.717,194.369 z" id="boundary" inkscape:connector-curvature="0" />
	<path style="fill:none;stroke:red;stroke-width:1px;stroke-linecap:butt;stroke-linejoin:miter;stroke-opacity:1" d="M 970.717,194.369 955.844,201.805 z" id="boundary" inkscape:connector-curvature="0" />
	<path style="fill:none;stroke:red;stroke-width:1px;stroke-linecap:butt;stroke-linejoin:miter;stroke-opacity:1" d="M 955.844,201.805 940.972,206.267 z" id="boundary" inkscape:connector-curvature="0" />
	<path style="fill:none;stroke:red;stroke-width:1px;stroke-linecap:butt;stroke-linejoin:miter;stroke-opacity:1" d="M 940.972,206.267 932.048,218.165 z" id="boundary" inkscape:connector-curvature="0" />
	<path style="fill:none;stroke:red;stroke-width:1px;stroke-linecap:butt;stroke-linejoin:miter;stroke-opacity:1" d="M 932.048,218.165 920.15,228.576 z" id="boundary" inkscape:connector-curvature="0" />
	<path style="fill:none;stroke:red;stroke-width:1px;stroke-linecap:butt;stroke-linejoin:miter;stroke-opacity:1" d="M 920.15,228.576 927.586,241.961 z" id="boundary" inkscape:connector-curvature="0" />
	<path style="fill:none;stroke:red;stroke-width:1px;stroke-linecap:butt;stroke-linejoin:miter;stroke-opacity:1" d="M 927.586,241.961 935.022,255.346 z" id="boundary" inkscape:connector-curvature="0" />
	<path style="fill:none;stroke:red;stroke-width:1px;stroke-linecap:butt;stroke-linejoin:miter;stroke-opacity:1" d="M 935.022,255.346 946.921,264.27 z" id="boundary" inkscape:connector-curvature="0" />
	<path style="fill:none;stroke:red;stroke-width:1px;stroke-linecap:butt;stroke-linejoin:miter;stroke-opacity:1" d="M 946.921,264.27 960.306,271.706 z" id="boundary" inkscape:connector-curvature="0" />
	<path style="fill:none;stroke:red;stroke-width:1px;stroke-linecap:butt;stroke-linejoin:miter;stroke-opacity:1" d="M 960.306,271.706 973.691,279.142 z" id="boundary" inkscape:connector-curvature="0" />
	<path style="fill:none;stroke:red;stroke-width:1px;stroke-linecap:butt;stroke-linejoin:miter;stroke-opacity:1" d="M 973.691,279.142 985.589,289.553 z" id="boundary" inkscape:connector-curvature="0" />
	<path style="fill:none;stroke:red;stroke-width:1px;stroke-linecap:butt;stroke-linejoin:miter;stroke-opacity:1" d="M 985.589,289.553 987.076,304.426 z" id="boundary" inkscape:connector-curvature="0" />
	<path style="fill:none;stroke:red;stroke-width:1px;stroke-linecap:butt;stroke-linejoin:miter;stroke-opacity:1" d="M 987.076,304.426 996,316.324 z" id="boundary" inkscape:connector-curvature="0" />
	<path style="fill:none;stroke:red;stroke-width:1px;stroke-linecap:butt;stroke-linejoin:miter;stroke-opacity:1" d="M 996,316.324 991.538,340.12 z" id="boundary" inkscape:connector-curvature="0" />
	<circle cx="4" cy="201.805" r="4" fill="#0" id="circle0"/>
	<circle cx="15.8981" cy="189.907" r="4" fill="#0" id="circle1"/>
	<circle cx="18.8726" cy="206.267" r="4" fill="#0" id="circle2"/>
	<circle cx="23.3343" cy="175.034" r="4" fill="#0" id="circle3"/>
	<circle cx="23.3343" cy="221.139" r="4" fill="#0" id="circle4"/>
	<circle cx="33.7451" cy="233.037" r="4" fill="#0" id="circle5"/>
	<circle cx="38.2069" cy="167.598" r="4" fill="#0" id="circle6"/>
	<circle cx="41.1814" cy="246.423" r="4" fill="#0" id="circle7"/>
	<circle cx="48.6177" cy="259.808" r="4" fill="#0" id="circle8"/>
	<circle cx="51.5922" cy="160.162" r="4" fill="#0" id="circle9"/>
	<circle cx="63.4903" cy="265.757" r="4" fill="#0" id="circle10"/>
	<circle cx="64.9775" cy="152.726" r="4" fill="#0" id="circle11"/>
	<circle cx="76.8756" cy="273.193" r="4" fill="#0" id="circle12"/>
	<circle cx="78.3628" cy="145.289" r="4" fill="#0" id="circle13"/>
	<circle cx="91.7481" cy="273.193" r="4" fill="#0" id="circle14"/>
	<circle cx="93.2354" cy="145.289" r="4" fill="#0" id="circle15"/>
	<circle cx="105.133" cy="280.63" r="4" fill="#0" id="circle16"/>
	<circle cx="108.108" cy="142.315" r="4" fill="#0" id="circle17"/>
	<circle cx="120.006" cy="130.417" r="4" fill="#0" id="circle18"/>
	<circle cx="120.006" cy="286.579" r="4" fill="#0" id="circle19"/>
	<circle cx="131.904" cy="295.502" r="4" fill="#0" id="circle20"/>
	<circle cx="133.391" cy="122.981" r="4" fill="#0" id="circle21"/>
	<circle cx="145.289" cy="302.939" r="4" fill="#0" id="circle22"/>
	<circle cx="148.264" cy="117.031" r="4" fill="#0" id="circle23"/>
	<circle cx="160.162" cy="302.939" r="4" fill="#0" id="circle24"/>
	<circle cx="163.136" cy="109.595" r="4" fill="#0" id="circle25"/>
	<circle cx="173.547" cy="310.375" r="4" fill="#0" id="circle26"/>
	<circle cx="178.009" cy="102.159" r="4" fill="#0" id="circle27"/>
	<circle cx="186.933" cy="317.811" r="4" fill="#0" id="circle28"/>
	<circle cx="192.882" cy="94.7226" r="4" fill="#0" id="circle29"/>
	<circle cx="201.805" cy="317.811" r="4" fill="#0" id="circle30"/>
	<circle cx="207.754" cy="87.2864" r="4" fill="#0" id="circle31"/>
	<circle cx="216.678" cy="317.811" r="4" fill="#0" id="circle32"/>
	<circle cx="222.627" cy="85.7991" r="4" fill="#0" id="circle33"/>
	<circle cx="230.063" cy="325.247" r="4" fill="#0" id="circle34"/>
	<circle cx="237.499" cy="79.8501" r="4" fill="#0" id="circle35"/>
	<circle cx="244.936" cy="329.709" r="4" fill="#0" id="circle36"/>
	<circle cx="252.372" cy="78.3628" r="4" fill="#0" id="circle37"/>
	<circle cx="258.321" cy="337.145" r="4" fill="#0" id="circle38"/>
	<circle cx="267.244" cy="78.3628" r="4" fill="#0" id="circle39"/>
	<circle cx="273.193" cy="340.12" r="4" fill="#0" id="circle40"/>
	<circle cx="282.117" cy="72.4138" r="4" fill="#0" id="circle41"/>
	<circle cx="288.066" cy="340.12" r="4" fill="#0" id="circle42"/>
	<circle cx="296.99" cy="70.9265" r="4" fill="#0" id="circle43"/>
	<circle cx="302.939" cy="340.12" r="4" fill="#0" id="circle44"/>
	<circle cx="311.862" cy="70.9265" r="4" fill="#0" id="circle45"/>
	<circle cx="317.811" cy="340.12" r="4" fill="#0" id="circle46"/>
	<circle cx="326.735" cy="70.9265" r="4" fill="#0" id="circle47"/>
	<circle cx="332.684" cy="340.12" r="4" fill="#0" id="circle48"/>
	<circle cx="341.607" cy="70.9265" r="4" fill="#0" id="circle49"/>
	<circle cx="347.556" cy="343.094" r="4" fill="#0" id="circle50"/>
	<circle cx="356.48" cy="70.9265" r="4" fill="#0" id="circle51"/>
	<circle cx="360.942" cy="350.531" r="4" fill="#0" id="circle52"/>
	<circle cx="371.352" cy="70.9265" r="4" fill="#0" id="circle53"/>
	<circle cx="372.84" cy="360.942" r="4" fill="#0" id="circle54"/>
	<circle cx="383.25" cy="372.84" r="4" fill="#0" id="circle55"/>
	<circle cx="386.225" cy="70.9265" r="4" fill="#0" id="circle56"/>
	<circle cx="390.687" cy="386.225" r="4" fill="#0" id="circle57"/>
	<circle cx="398.123" cy="60.5157" r="4" fill="#0" id="circle58"/>
	<circle cx="401.097" cy="398.123" r="4" fill="#0" id="circle59"/>
	<circle cx="405.559" cy="38.2069" r="4" fill="#0" id="circle60"/>
	<circle cx="412.996" cy="23.3343" r="4" fill="#0" id="circle61"/>
	<circle cx="412.996" cy="407.046" r="4" fill="#0" id="circle62"/>
	<circle cx="420.432" cy="8.46177" r="4" fill="#0" id="circle63"/>
	<circle cx="421.919" cy="418.945" r="4" fill="#0" id="circle64"/>
	<circle cx="433.817" cy="429.355" r="4" fill="#0" id="circle65"/>
	<circle cx="435.304" cy="4" r="4" fill="#0" id="circle66"/>
	<circle cx="447.202" cy="436.792" r="4" fill="#0" id="circle67"/>
	<circle cx="450.177" cy="6.97451" r="4" fill="#0" id="circle68"/>
	<circle cx="459.1" cy="18.8726" r="4" fill="#0" id="circle69"/>
	<circle cx="460.588" cy="429.355" r="4" fill="#0" id="circle70"/>
	<circle cx="466.537" cy="32.2579" r="4" fill="#0" id="circle71"/>
	<circle cx="472.486" cy="417.457" r="4" fill="#0" id="circle72"/>
	<circle cx="473.973" cy="45.6432" r="4" fill="#0" id="circle73"/>
	<circle cx="473.973" cy="60.5157" r="4" fill="#0" id="circle74"/>
	<circle cx="473.973" cy="75.3883" r="4" fill="#0" id="circle75"/>
	<circle cx="484.384" cy="405.559" r="4" fill="#0" id="circle76"/>
	<circle cx="488.846" cy="78.3628" r="4" fill="#0" id="circle77"/>
	<circle cx="496.282" cy="392.174" r="4" fill="#0" id="circle78"/>
	<circle cx="502.231" cy="85.7991" r="4" fill="#0" id="circle79"/>
	<circle cx="503.718" cy="369.865" r="4" fill="#0" id="circle80"/>
	<circle cx="517.103" cy="85.7991" r="4" fill="#0" id="circle81"/>
	<circle cx="517.103" cy="362.429" r="4" fill="#0" id="circle82"/>
	<circle cx="529.001" cy="353.505" r="4" fill="#0" id="circle83"/>
	<circle cx="530.489" cy="93.2354" r="4" fill="#0" id="circle84"/>
	<circle cx="533.463" cy="325.247" r="4" fill="#0" id="circle85"/>
	<circle cx="536.438" cy="340.12" r="4" fill="#0" id="circle86"/>
	<circle cx="543.874" cy="100.672" r="4" fill="#0" id="circle87"/>
	<circle cx="548.336" cy="317.811" r="4" fill="#0" id="circle88"/>
	<circle cx="557.259" cy="108.108" r="4" fill="#0" id="circle89"/>
	<circle cx="563.208" cy="317.811" r="4" fill="#0" id="circle90"/>
	<circle cx="572.132" cy="108.108" r="4" fill="#0" id="circle91"/>
	<circle cx="578.081" cy="317.811" r="4" fill="#0" id="circle92"/>
	<circle cx="584.03" cy="118.519" r="4" fill="#0" id="circle93"/>
	<circle cx="592.954" cy="317.811" r="4" fill="#0" id="circle94"/>
	<circle cx="598.903" cy="122.981" r="4" fill="#0" id="circle95"/>
	<circle cx="606.339" cy="310.375" r="4" fill="#0" id="circle96"/>
	<circle cx="613.775" cy="125.955" r="4" fill="#0" id="circle97"/>
	<circle cx="621.211" cy="310.375" r="4" fill="#0" id="circle98"/>
	<circle cx="627.16" cy="133.391" r="4" fill="#0" id="circle99"/>
	<circle cx="636.084" cy="305.913" r="4" fill="#0" id="circle100"/>
	<circle cx="642.033" cy="137.853" r="4" fill="#0" id="circle101"/>
	<circle cx="650.957" cy="302.939" r="4" fill="#0" id="circle102"/>
	<circle cx="655.418" cy="130.417" r="4" fill="#0" id="circle103"/>
	<circle cx="665.829" cy="302.939" r="4" fill="#0" id="circle104"/>
	<circle cx="668.804" cy="122.981" r="4" fill="#0" id="circle105"/>
	<circle cx="679.214" cy="295.502" r="4" fill="#0" id="circle106"/>
	<circle cx="683.676" cy="122.981" r="4" fill="#0" id="circle107"/>
	<circle cx="694.087" cy="292.528" r="4" fill="#0" id="circle108"/>
	<circle cx="698.549" cy="122.981" r="4" fill="#0" id="circle109"/>
	<circle cx="708.96" cy="288.066" r="4" fill="#0" id="circle110"/>
	<circle cx="711.934" cy="130.417" r="4" fill="#0" id="circle111"/>
	<circle cx="722.345" cy="280.63" r="4" fill="#0" id="circle112"/>
	<circle cx="723.832" cy="139.34" r="4" fill="#0" id="circle113"/>
	<circle cx="737.217" cy="280.63" r="4" fill="#0" id="circle114"/>
	<circle cx="738.705" cy="145.289" r="4" fill="#0" id="circle115"/>
	<circle cx="752.09" cy="152.726" r="4" fill="#0" id="circle116"/>
	<circle cx="752.09" cy="280.63" r="4" fill="#0" id="circle117"/>
	<circle cx="762.501" cy="164.624" r="4" fill="#0" id="circle118"/>
	<circle cx="765.475" cy="273.193" r="4" fill="#0" id="circle119"/>
	<circle cx="774.399" cy="175.034" r="4" fill="#0" id="circle120"/>
	<circle cx="780.348" cy="273.193" r="4" fill="#0" id="circle121"/>
	<circle cx="787.784" cy="182.471" r="4" fill="#0" id="circle122"/>
	<circle cx="795.22" cy="273.193" r="4" fill="#0" id="circle123"/>
	<circle cx="801.169" cy="189.907" r="4" fill="#0" id="circle124"/>
	<circle cx="810.093" cy="273.193" r="4" fill="#0" id="circle125"/>
	<circle cx="816.042" cy="189.907" r="4" fill="#0" id="circle126"/>
	<circle cx="824.966" cy="273.193" r="4" fill="#0" id="circle127"/>
	<circle cx="830.915" cy="185.445" r="4" fill="#0" id="circle128"/>
	<circle cx="839.838" cy="273.193" r="4" fill="#0" id="circle129"/>
	<circle cx="845.787" cy="178.009" r="4" fill="#0" id="circle130"/>
	<circle cx="853.223" cy="280.63" r="4" fill="#0" id="circle131"/>
	<circle cx="860.66" cy="175.034" r="4" fill="#0" id="circle132"/>
	<circle cx="868.096" cy="283.604" r="4" fill="#0" id="circle133"/>
	<circle cx="875.532" cy="170.573" r="4" fill="#0" id="circle134"/>
	<circle cx="881.481" cy="291.04" r="4" fill="#0" id="circle135"/>
	<circle cx="890.405" cy="163.136" r="4" fill="#0" id="circle136"/>
	<circle cx="896.354" cy="295.502" r="4" fill="#0" id="circle137"/>
	<circle cx="905.277" cy="160.162" r="4" fill="#0" id="circle138"/>
	<circle cx="909.739" cy="302.939" r="4" fill="#0" id="circle139"/>
	<circle cx="918.663" cy="149.751" r="4" fill="#0" id="circle140"/>
	<circle cx="920.15" cy="228.576" r="4" fill="#0" id="circle141"/>
	<circle cx="923.124" cy="310.375" r="4" fill="#0" id="circle142"/>
	<circle cx="927.586" cy="241.961" r="4" fill="#0" id="circle143"/>
	<circle cx="932.048" cy="218.165" r="4" fill="#0" id="circle144"/>
	<circle cx="933.535" cy="145.289" r="4" fill="#0" id="circle145"/>
	<circle cx="935.022" cy="255.346" r="4" fill="#0" id="circle146"/>
	<circle cx="936.51" cy="317.811" r="4" fill="#0" id="circle147"/>
	<circle cx="940.972" cy="206.267" r="4" fill="#0" id="circle148"/>
	<circle cx="946.921" cy="264.27" r="4" fill="#0" id="circle149"/>
	<circle cx="948.408" cy="145.289" r="4" fill="#0" id="circle150"/>
	<circle cx="951.382" cy="322.273" r="4" fill="#0" id="circle151"/>
	<circle cx="955.844" cy="201.805" r="4" fill="#0" id="circle152"/>
	<circle cx="960.306" cy="271.706" r="4" fill="#0" id="circle153"/>
	<circle cx="963.28" cy="142.315" r="4" fill="#0" id="circle154"/>
	<circle cx="964.768" cy="329.709" r="4" fill="#0" id="circle155"/>
	<circle cx="970.717" cy="194.369" r="4" fill="#0" id="circle156"/>
	<circle cx="972.204" cy="176.522" r="4" fill="#0" id="circle157"/>
	<circle cx="973.691" cy="279.142" r="4" fill="#0" id="circle158"/>
	<circle cx="976.666" cy="340.12" r="4" fill="#0" id="circle159"/>
	<circle cx="978.153" cy="137.853" r="4" fill="#0" id="circle160"/>
	<circle cx="984.102" cy="166.111" r="4" fill="#0" id="circle161"/>
	<circle cx="985.589" cy="289.553" r="4" fill="#0" id="circle162"/>
	<circle cx="987.076" cy="304.426" r="4" fill="#0" id="circle163"/>
	<circle cx="991.538" cy="130.417" r="4" fill="#0" id="circle164"/>
	<circle cx="991.538" cy="151.238" r="4" fill="#0" id="circle165"/>
	<circle cx="991.538" cy="340.12" r="4" fill="#0" id="circle166"/>
	<circle cx="996" cy="316.324" r="4" fill="#0" id="circle167"/>
	</g>
</svg>