<?xml version="1.0" encoding="UTF-8" standalone="no"?>
<!-- Created with CurveBenchmark -->
<svg
	xmlns:dc="http://purl.org/dc/elements/1.1/"
	xmlns:cc="http://creativecommons.org/ns#"
	xmlns:rdf="http://www.w3.org/1999/02/22-rdf-syntax-ns#"
	xmlns:svg="http://www.w3.org/2000/svg"
	xmlns="http://www.w3.org/2000/svg"
	xmlns:sodipodi="http://sodipodi.sourceforge.net/DTD/sodipodi-0.dtd"
	xmlns:inkscape="http://www.inkscape.org/namespaces/inkscape"
	width="1000"
	height="1000"
	id="svg2"
	version="1.1"
	sodipodi:docname="manifold/crawl-woodenspoonbinary19.png.txt">
<defs
	id="defs4" />
<metadata
	id="metadata7">
	<rdf:RDF>
		<cc:Work
			rdf:about="">
			<dc:format>image/svg+xml</dc:format>
			<dc:type
				rdf:resource="http://purl.org/dc/dcmitype/StillImage" />
			<dc:title></dc:title>
		</cc:Work>
	</rdf:RDF>
</metadata>
<g
	inkscape:label="Layer 1"
	inkscape:groupmode="layer"
	id="layer1">
	<path style="fill:none;stroke:red;stroke-width:1px;stroke-linecap:butt;stroke-linejoin:miter;stroke-opacity:1" d="M 5.18802,137.653 8.7521,142.405 z" id="boundary" inkscape:connector-curvature="0" />
	<path style="fill:none;stroke:red;stroke-width:1px;stroke-linecap:butt;stroke-linejoin:miter;stroke-opacity:1" d="M 5.18802,137.653 4,131.713 z" id="boundary" inkscape:connector-curvature="0" />
	<path style="fill:none;stroke:red;stroke-width:1px;stroke-linecap:butt;stroke-linejoin:miter;stroke-opacity:1" d="M 4,131.713 6.97006,126.366 z" id="boundary" inkscape:connector-curvature="0" />
	<path style="fill:none;stroke:red;stroke-width:1px;stroke-linecap:butt;stroke-linejoin:miter;stroke-opacity:1" d="M 6.97006,126.366 10.5341,121.614 z" id="boundary" inkscape:connector-curvature="0" />
	<path style="fill:none;stroke:red;stroke-width:1px;stroke-linecap:butt;stroke-linejoin:miter;stroke-opacity:1" d="M 8.7521,142.405 13.5042,146.563 z" id="boundary" inkscape:connector-curvature="0" />
	<path style="fill:none;stroke:red;stroke-width:1px;stroke-linecap:butt;stroke-linejoin:miter;stroke-opacity:1" d="M 13.5042,146.563 18.2563,150.127 z" id="boundary" inkscape:connector-curvature="0" />
	<path style="fill:none;stroke:red;stroke-width:1px;stroke-linecap:butt;stroke-linejoin:miter;stroke-opacity:1" d="M 18.2563,150.127 23.6024,153.097 z" id="boundary" inkscape:connector-curvature="0" />
	<path style="fill:none;stroke:red;stroke-width:1px;stroke-linecap:butt;stroke-linejoin:miter;stroke-opacity:1" d="M 23.6024,153.097 29.5425,154.285 z" id="boundary" inkscape:connector-curvature="0" />
	<path style="fill:none;stroke:red;stroke-width:1px;stroke-linecap:butt;stroke-linejoin:miter;stroke-opacity:1" d="M 29.5425,154.285 35.4826,154.285 z" id="boundary" inkscape:connector-curvature="0" />
	<path style="fill:none;stroke:red;stroke-width:1px;stroke-linecap:butt;stroke-linejoin:miter;stroke-opacity:1" d="M 35.4826,154.285 41.4228,154.285 z" id="boundary" inkscape:connector-curvature="0" />
	<path style="fill:none;stroke:red;stroke-width:1px;stroke-linecap:butt;stroke-linejoin:miter;stroke-opacity:1" d="M 41.4228,154.285 47.3629,154.285 z" id="boundary" inkscape:connector-curvature="0" />
	<path style="fill:none;stroke:red;stroke-width:1px;stroke-linecap:butt;stroke-linejoin:miter;stroke-opacity:1" d="M 47.3629,154.285 53.303,154.285 z" id="boundary" inkscape:connector-curvature="0" />
	<path style="fill:none;stroke:red;stroke-width:1px;stroke-linecap:butt;stroke-linejoin:miter;stroke-opacity:1" d="M 53.303,154.285 59.2431,153.691 z" id="boundary" inkscape:connector-curvature="0" />
	<path style="fill:none;stroke:red;stroke-width:1px;stroke-linecap:butt;stroke-linejoin:miter;stroke-opacity:1" d="M 59.2431,153.691 65.1832,152.503 z" id="boundary" inkscape:connector-curvature="0" />
	<path style="fill:none;stroke:red;stroke-width:1px;stroke-linecap:butt;stroke-linejoin:miter;stroke-opacity:1" d="M 65.1832,152.503 71.1234,151.909 z" id="boundary" inkscape:connector-curvature="0" />
	<path style="fill:none;stroke:red;stroke-width:1px;stroke-linecap:butt;stroke-linejoin:miter;stroke-opacity:1" d="M 71.1234,151.909 77.0635,151.909 z" id="boundary" inkscape:connector-curvature="0" />
	<path style="fill:none;stroke:red;stroke-width:1px;stroke-linecap:butt;stroke-linejoin:miter;stroke-opacity:1" d="M 77.0635,151.909 83.0036,151.315 z" id="boundary" inkscape:connector-curvature="0" />
	<path style="fill:none;stroke:red;stroke-width:1px;stroke-linecap:butt;stroke-linejoin:miter;stroke-opacity:1" d="M 83.0036,151.315 88.9437,151.315 z" id="boundary" inkscape:connector-curvature="0" />
	<path style="fill:none;stroke:red;stroke-width:1px;stroke-linecap:butt;stroke-linejoin:miter;stroke-opacity:1" d="M 88.9437,151.315 94.8838,150.721 z" id="boundary" inkscape:connector-curvature="0" />
	<path style="fill:none;stroke:red;stroke-width:1px;stroke-linecap:butt;stroke-linejoin:miter;stroke-opacity:1" d="M 94.8838,150.721 100.824,150.127 z" id="boundary" inkscape:connector-curvature="0" />
	<path style="fill:none;stroke:red;stroke-width:1px;stroke-linecap:butt;stroke-linejoin:miter;stroke-opacity:1" d="M 100.824,150.127 106.764,149.533 z" id="boundary" inkscape:connector-curvature="0" />
	<path style="fill:none;stroke:red;stroke-width:1px;stroke-linecap:butt;stroke-linejoin:miter;stroke-opacity:1" d="M 106.764,149.533 112.704,148.345 z" id="boundary" inkscape:connector-curvature="0" />
	<path style="fill:none;stroke:red;stroke-width:1px;stroke-linecap:butt;stroke-linejoin:miter;stroke-opacity:1" d="M 112.704,148.345 118.644,147.751 z" id="boundary" inkscape:connector-curvature="0" />
	<path style="fill:none;stroke:red;stroke-width:1px;stroke-linecap:butt;stroke-linejoin:miter;stroke-opacity:1" d="M 118.644,147.751 124.584,147.157 z" id="boundary" inkscape:connector-curvature="0" />
	<path style="fill:none;stroke:red;stroke-width:1px;stroke-linecap:butt;stroke-linejoin:miter;stroke-opacity:1" d="M 124.584,147.157 130.525,147.157 z" id="boundary" inkscape:connector-curvature="0" />
	<path style="fill:none;stroke:red;stroke-width:1px;stroke-linecap:butt;stroke-linejoin:miter;stroke-opacity:1" d="M 130.525,147.157 136.465,146.563 z" id="boundary" inkscape:connector-curvature="0" />
	<path style="fill:none;stroke:red;stroke-width:1px;stroke-linecap:butt;stroke-linejoin:miter;stroke-opacity:1" d="M 136.465,146.563 142.405,145.969 z" id="boundary" inkscape:connector-curvature="0" />
	<path style="fill:none;stroke:red;stroke-width:1px;stroke-linecap:butt;stroke-linejoin:miter;stroke-opacity:1" d="M 142.405,145.969 148.345,145.375 z" id="boundary" inkscape:connector-curvature="0" />
	<path style="fill:none;stroke:red;stroke-width:1px;stroke-linecap:butt;stroke-linejoin:miter;stroke-opacity:1" d="M 148.345,145.375 154.285,144.781 z" id="boundary" inkscape:connector-curvature="0" />
	<path style="fill:none;stroke:red;stroke-width:1px;stroke-linecap:butt;stroke-linejoin:miter;stroke-opacity:1" d="M 154.285,144.781 160.225,144.187 z" id="boundary" inkscape:connector-curvature="0" />
	<path style="fill:none;stroke:red;stroke-width:1px;stroke-linecap:butt;stroke-linejoin:miter;stroke-opacity:1" d="M 160.225,144.187 166.165,144.187 z" id="boundary" inkscape:connector-curvature="0" />
	<path style="fill:none;stroke:red;stroke-width:1px;stroke-linecap:butt;stroke-linejoin:miter;stroke-opacity:1" d="M 166.165,144.187 172.105,143.593 z" id="boundary" inkscape:connector-curvature="0" />
	<path style="fill:none;stroke:red;stroke-width:1px;stroke-linecap:butt;stroke-linejoin:miter;stroke-opacity:1" d="M 172.105,143.593 178.046,142.999 z" id="boundary" inkscape:connector-curvature="0" />
	<path style="fill:none;stroke:red;stroke-width:1px;stroke-linecap:butt;stroke-linejoin:miter;stroke-opacity:1" d="M 178.046,142.999 183.986,142.405 z" id="boundary" inkscape:connector-curvature="0" />
	<path style="fill:none;stroke:red;stroke-width:1px;stroke-linecap:butt;stroke-linejoin:miter;stroke-opacity:1" d="M 183.986,142.405 189.926,142.405 z" id="boundary" inkscape:connector-curvature="0" />
	<path style="fill:none;stroke:red;stroke-width:1px;stroke-linecap:butt;stroke-linejoin:miter;stroke-opacity:1" d="M 189.926,142.405 195.866,142.405 z" id="boundary" inkscape:connector-curvature="0" />
	<path style="fill:none;stroke:red;stroke-width:1px;stroke-linecap:butt;stroke-linejoin:miter;stroke-opacity:1" d="M 195.866,142.405 201.806,141.811 z" id="boundary" inkscape:connector-curvature="0" />
	<path style="fill:none;stroke:red;stroke-width:1px;stroke-linecap:butt;stroke-linejoin:miter;stroke-opacity:1" d="M 201.806,141.811 207.746,140.623 z" id="boundary" inkscape:connector-curvature="0" />
	<path style="fill:none;stroke:red;stroke-width:1px;stroke-linecap:butt;stroke-linejoin:miter;stroke-opacity:1" d="M 207.746,140.623 213.686,140.029 z" id="boundary" inkscape:connector-curvature="0" />
	<path style="fill:none;stroke:red;stroke-width:1px;stroke-linecap:butt;stroke-linejoin:miter;stroke-opacity:1" d="M 213.686,140.029 219.626,139.435 z" id="boundary" inkscape:connector-curvature="0" />
	<path style="fill:none;stroke:red;stroke-width:1px;stroke-linecap:butt;stroke-linejoin:miter;stroke-opacity:1" d="M 219.626,139.435 225.566,138.841 z" id="boundary" inkscape:connector-curvature="0" />
	<path style="fill:none;stroke:red;stroke-width:1px;stroke-linecap:butt;stroke-linejoin:miter;stroke-opacity:1" d="M 225.566,138.841 231.507,138.247 z" id="boundary" inkscape:connector-curvature="0" />
	<path style="fill:none;stroke:red;stroke-width:1px;stroke-linecap:butt;stroke-linejoin:miter;stroke-opacity:1" d="M 231.507,138.247 237.447,137.653 z" id="boundary" inkscape:connector-curvature="0" />
	<path style="fill:none;stroke:red;stroke-width:1px;stroke-linecap:butt;stroke-linejoin:miter;stroke-opacity:1" d="M 237.447,137.653 243.387,137.059 z" id="boundary" inkscape:connector-curvature="0" />
	<path style="fill:none;stroke:red;stroke-width:1px;stroke-linecap:butt;stroke-linejoin:miter;stroke-opacity:1" d="M 243.387,137.059 249.327,137.059 z" id="boundary" inkscape:connector-curvature="0" />
	<path style="fill:none;stroke:red;stroke-width:1px;stroke-linecap:butt;stroke-linejoin:miter;stroke-opacity:1" d="M 249.327,137.059 255.267,137.059 z" id="boundary" inkscape:connector-curvature="0" />
	<path style="fill:none;stroke:red;stroke-width:1px;stroke-linecap:butt;stroke-linejoin:miter;stroke-opacity:1" d="M 255.267,137.059 261.207,136.465 z" id="boundary" inkscape:connector-curvature="0" />
	<path style="fill:none;stroke:red;stroke-width:1px;stroke-linecap:butt;stroke-linejoin:miter;stroke-opacity:1" d="M 261.207,136.465 267.147,135.871 z" id="boundary" inkscape:connector-curvature="0" />
	<path style="fill:none;stroke:red;stroke-width:1px;stroke-linecap:butt;stroke-linejoin:miter;stroke-opacity:1" d="M 267.147,135.871 273.087,135.277 z" id="boundary" inkscape:connector-curvature="0" />
	<path style="fill:none;stroke:red;stroke-width:1px;stroke-linecap:butt;stroke-linejoin:miter;stroke-opacity:1" d="M 273.087,135.277 279.028,135.277 z" id="boundary" inkscape:connector-curvature="0" />
	<path style="fill:none;stroke:red;stroke-width:1px;stroke-linecap:butt;stroke-linejoin:miter;stroke-opacity:1" d="M 279.028,135.277 284.968,134.683 z" id="boundary" inkscape:connector-curvature="0" />
	<path style="fill:none;stroke:red;stroke-width:1px;stroke-linecap:butt;stroke-linejoin:miter;stroke-opacity:1" d="M 284.968,134.683 290.908,134.089 z" id="boundary" inkscape:connector-curvature="0" />
	<path style="fill:none;stroke:red;stroke-width:1px;stroke-linecap:butt;stroke-linejoin:miter;stroke-opacity:1" d="M 290.908,134.089 296.848,133.495 z" id="boundary" inkscape:connector-curvature="0" />
	<path style="fill:none;stroke:red;stroke-width:1px;stroke-linecap:butt;stroke-linejoin:miter;stroke-opacity:1" d="M 296.848,133.495 302.788,132.901 z" id="boundary" inkscape:connector-curvature="0" />
	<path style="fill:none;stroke:red;stroke-width:1px;stroke-linecap:butt;stroke-linejoin:miter;stroke-opacity:1" d="M 302.788,132.901 308.728,132.307 z" id="boundary" inkscape:connector-curvature="0" />
	<path style="fill:none;stroke:red;stroke-width:1px;stroke-linecap:butt;stroke-linejoin:miter;stroke-opacity:1" d="M 308.728,132.307 314.668,132.307 z" id="boundary" inkscape:connector-curvature="0" />
	<path style="fill:none;stroke:red;stroke-width:1px;stroke-linecap:butt;stroke-linejoin:miter;stroke-opacity:1" d="M 314.668,132.307 320.608,132.307 z" id="boundary" inkscape:connector-curvature="0" />
	<path style="fill:none;stroke:red;stroke-width:1px;stroke-linecap:butt;stroke-linejoin:miter;stroke-opacity:1" d="M 320.608,132.307 326.549,132.307 z" id="boundary" inkscape:connector-curvature="0" />
	<path style="fill:none;stroke:red;stroke-width:1px;stroke-linecap:butt;stroke-linejoin:miter;stroke-opacity:1" d="M 326.549,132.307 332.489,132.307 z" id="boundary" inkscape:connector-curvature="0" />
	<path style="fill:none;stroke:red;stroke-width:1px;stroke-linecap:butt;stroke-linejoin:miter;stroke-opacity:1" d="M 332.489,132.307 338.429,131.713 z" id="boundary" inkscape:connector-curvature="0" />
	<path style="fill:none;stroke:red;stroke-width:1px;stroke-linecap:butt;stroke-linejoin:miter;stroke-opacity:1" d="M 338.429,131.713 344.369,131.119 z" id="boundary" inkscape:connector-curvature="0" />
	<path style="fill:none;stroke:red;stroke-width:1px;stroke-linecap:butt;stroke-linejoin:miter;stroke-opacity:1" d="M 344.369,131.119 350.309,131.119 z" id="boundary" inkscape:connector-curvature="0" />
	<path style="fill:none;stroke:red;stroke-width:1px;stroke-linecap:butt;stroke-linejoin:miter;stroke-opacity:1" d="M 350.309,131.119 356.249,131.119 z" id="boundary" inkscape:connector-curvature="0" />
	<path style="fill:none;stroke:red;stroke-width:1px;stroke-linecap:butt;stroke-linejoin:miter;stroke-opacity:1" d="M 356.249,131.119 362.189,130.525 z" id="boundary" inkscape:connector-curvature="0" />
	<path style="fill:none;stroke:red;stroke-width:1px;stroke-linecap:butt;stroke-linejoin:miter;stroke-opacity:1" d="M 362.189,130.525 368.129,129.931 z" id="boundary" inkscape:connector-curvature="0" />
	<path style="fill:none;stroke:red;stroke-width:1px;stroke-linecap:butt;stroke-linejoin:miter;stroke-opacity:1" d="M 368.129,129.931 374.069,129.337 z" id="boundary" inkscape:connector-curvature="0" />
	<path style="fill:none;stroke:red;stroke-width:1px;stroke-linecap:butt;stroke-linejoin:miter;stroke-opacity:1" d="M 374.069,129.337 380.01,128.743 z" id="boundary" inkscape:connector-curvature="0" />
	<path style="fill:none;stroke:red;stroke-width:1px;stroke-linecap:butt;stroke-linejoin:miter;stroke-opacity:1" d="M 380.01,128.743 385.95,128.743 z" id="boundary" inkscape:connector-curvature="0" />
	<path style="fill:none;stroke:red;stroke-width:1px;stroke-linecap:butt;stroke-linejoin:miter;stroke-opacity:1" d="M 385.95,128.743 391.89,128.743 z" id="boundary" inkscape:connector-curvature="0" />
	<path style="fill:none;stroke:red;stroke-width:1px;stroke-linecap:butt;stroke-linejoin:miter;stroke-opacity:1" d="M 391.89,128.743 397.83,128.149 z" id="boundary" inkscape:connector-curvature="0" />
	<path style="fill:none;stroke:red;stroke-width:1px;stroke-linecap:butt;stroke-linejoin:miter;stroke-opacity:1" d="M 397.83,128.149 403.77,128.149 z" id="boundary" inkscape:connector-curvature="0" />
	<path style="fill:none;stroke:red;stroke-width:1px;stroke-linecap:butt;stroke-linejoin:miter;stroke-opacity:1" d="M 403.77,128.149 409.71,127.554 z" id="boundary" inkscape:connector-curvature="0" />
	<path style="fill:none;stroke:red;stroke-width:1px;stroke-linecap:butt;stroke-linejoin:miter;stroke-opacity:1" d="M 409.71,127.554 415.65,126.96 z" id="boundary" inkscape:connector-curvature="0" />
	<path style="fill:none;stroke:red;stroke-width:1px;stroke-linecap:butt;stroke-linejoin:miter;stroke-opacity:1" d="M 415.65,126.96 421.59,126.96 z" id="boundary" inkscape:connector-curvature="0" />
	<path style="fill:none;stroke:red;stroke-width:1px;stroke-linecap:butt;stroke-linejoin:miter;stroke-opacity:1" d="M 421.59,126.96 427.531,126.96 z" id="boundary" inkscape:connector-curvature="0" />
	<path style="fill:none;stroke:red;stroke-width:1px;stroke-linecap:butt;stroke-linejoin:miter;stroke-opacity:1" d="M 427.531,126.96 433.471,126.366 z" id="boundary" inkscape:connector-curvature="0" />
	<path style="fill:none;stroke:red;stroke-width:1px;stroke-linecap:butt;stroke-linejoin:miter;stroke-opacity:1" d="M 433.471,126.366 439.411,126.366 z" id="boundary" inkscape:connector-curvature="0" />
	<path style="fill:none;stroke:red;stroke-width:1px;stroke-linecap:butt;stroke-linejoin:miter;stroke-opacity:1" d="M 439.411,126.366 445.351,126.366 z" id="boundary" inkscape:connector-curvature="0" />
	<path style="fill:none;stroke:red;stroke-width:1px;stroke-linecap:butt;stroke-linejoin:miter;stroke-opacity:1" d="M 445.351,126.366 451.291,126.366 z" id="boundary" inkscape:connector-curvature="0" />
	<path style="fill:none;stroke:red;stroke-width:1px;stroke-linecap:butt;stroke-linejoin:miter;stroke-opacity:1" d="M 451.291,126.366 457.231,125.772 z" id="boundary" inkscape:connector-curvature="0" />
	<path style="fill:none;stroke:red;stroke-width:1px;stroke-linecap:butt;stroke-linejoin:miter;stroke-opacity:1" d="M 457.231,125.772 463.171,125.178 z" id="boundary" inkscape:connector-curvature="0" />
	<path style="fill:none;stroke:red;stroke-width:1px;stroke-linecap:butt;stroke-linejoin:miter;stroke-opacity:1" d="M 463.171,125.178 469.111,125.178 z" id="boundary" inkscape:connector-curvature="0" />
	<path style="fill:none;stroke:red;stroke-width:1px;stroke-linecap:butt;stroke-linejoin:miter;stroke-opacity:1" d="M 469.111,125.178 475.051,125.178 z" id="boundary" inkscape:connector-curvature="0" />
	<path style="fill:none;stroke:red;stroke-width:1px;stroke-linecap:butt;stroke-linejoin:miter;stroke-opacity:1" d="M 475.051,125.178 480.992,124.584 z" id="boundary" inkscape:connector-curvature="0" />
	<path style="fill:none;stroke:red;stroke-width:1px;stroke-linecap:butt;stroke-linejoin:miter;stroke-opacity:1" d="M 480.992,124.584 486.932,124.584 z" id="boundary" inkscape:connector-curvature="0" />
	<path style="fill:none;stroke:red;stroke-width:1px;stroke-linecap:butt;stroke-linejoin:miter;stroke-opacity:1" d="M 486.932,124.584 492.872,124.584 z" id="boundary" inkscape:connector-curvature="0" />
	<path style="fill:none;stroke:red;stroke-width:1px;stroke-linecap:butt;stroke-linejoin:miter;stroke-opacity:1" d="M 492.872,124.584 498.812,124.584 z" id="boundary" inkscape:connector-curvature="0" />
	<path style="fill:none;stroke:red;stroke-width:1px;stroke-linecap:butt;stroke-linejoin:miter;stroke-opacity:1" d="M 498.812,124.584 504.752,124.584 z" id="boundary" inkscape:connector-curvature="0" />
	<path style="fill:none;stroke:red;stroke-width:1px;stroke-linecap:butt;stroke-linejoin:miter;stroke-opacity:1" d="M 504.752,124.584 510.692,123.99 z" id="boundary" inkscape:connector-curvature="0" />
	<path style="fill:none;stroke:red;stroke-width:1px;stroke-linecap:butt;stroke-linejoin:miter;stroke-opacity:1" d="M 510.692,123.99 516.632,123.99 z" id="boundary" inkscape:connector-curvature="0" />
	<path style="fill:none;stroke:red;stroke-width:1px;stroke-linecap:butt;stroke-linejoin:miter;stroke-opacity:1" d="M 516.632,123.99 522.572,123.396 z" id="boundary" inkscape:connector-curvature="0" />
	<path style="fill:none;stroke:red;stroke-width:1px;stroke-linecap:butt;stroke-linejoin:miter;stroke-opacity:1" d="M 522.572,123.396 528.513,123.396 z" id="boundary" inkscape:connector-curvature="0" />
	<path style="fill:none;stroke:red;stroke-width:1px;stroke-linecap:butt;stroke-linejoin:miter;stroke-opacity:1" d="M 528.513,123.396 534.453,123.396 z" id="boundary" inkscape:connector-curvature="0" />
	<path style="fill:none;stroke:red;stroke-width:1px;stroke-linecap:butt;stroke-linejoin:miter;stroke-opacity:1" d="M 534.453,123.396 540.393,122.802 z" id="boundary" inkscape:connector-curvature="0" />
	<path style="fill:none;stroke:red;stroke-width:1px;stroke-linecap:butt;stroke-linejoin:miter;stroke-opacity:1" d="M 540.393,122.802 546.333,123.396 z" id="boundary" inkscape:connector-curvature="0" />
	<path style="fill:none;stroke:red;stroke-width:1px;stroke-linecap:butt;stroke-linejoin:miter;stroke-opacity:1" d="M 546.333,123.396 552.273,122.802 z" id="boundary" inkscape:connector-curvature="0" />
	<path style="fill:none;stroke:red;stroke-width:1px;stroke-linecap:butt;stroke-linejoin:miter;stroke-opacity:1" d="M 552.273,122.802 558.213,122.802 z" id="boundary" inkscape:connector-curvature="0" />
	<path style="fill:none;stroke:red;stroke-width:1px;stroke-linecap:butt;stroke-linejoin:miter;stroke-opacity:1" d="M 558.213,122.802 564.153,122.802 z" id="boundary" inkscape:connector-curvature="0" />
	<path style="fill:none;stroke:red;stroke-width:1px;stroke-linecap:butt;stroke-linejoin:miter;stroke-opacity:1" d="M 564.153,122.802 570.093,122.208 z" id="boundary" inkscape:connector-curvature="0" />
	<path style="fill:none;stroke:red;stroke-width:1px;stroke-linecap:butt;stroke-linejoin:miter;stroke-opacity:1" d="M 570.093,122.208 576.034,122.208 z" id="boundary" inkscape:connector-curvature="0" />
	<path style="fill:none;stroke:red;stroke-width:1px;stroke-linecap:butt;stroke-linejoin:miter;stroke-opacity:1" d="M 576.034,122.208 581.974,122.208 z" id="boundary" inkscape:connector-curvature="0" />
	<path style="fill:none;stroke:red;stroke-width:1px;stroke-linecap:butt;stroke-linejoin:miter;stroke-opacity:1" d="M 581.974,122.208 587.914,122.208 z" id="boundary" inkscape:connector-curvature="0" />
	<path style="fill:none;stroke:red;stroke-width:1px;stroke-linecap:butt;stroke-linejoin:miter;stroke-opacity:1" d="M 587.914,122.208 593.854,122.208 z" id="boundary" inkscape:connector-curvature="0" />
	<path style="fill:none;stroke:red;stroke-width:1px;stroke-linecap:butt;stroke-linejoin:miter;stroke-opacity:1" d="M 593.854,122.208 599.794,122.208 z" id="boundary" inkscape:connector-curvature="0" />
	<path style="fill:none;stroke:red;stroke-width:1px;stroke-linecap:butt;stroke-linejoin:miter;stroke-opacity:1" d="M 599.794,122.208 605.734,121.614 z" id="boundary" inkscape:connector-curvature="0" />
	<path style="fill:none;stroke:red;stroke-width:1px;stroke-linecap:butt;stroke-linejoin:miter;stroke-opacity:1" d="M 605.734,121.614 611.674,121.614 z" id="boundary" inkscape:connector-curvature="0" />
	<path style="fill:none;stroke:red;stroke-width:1px;stroke-linecap:butt;stroke-linejoin:miter;stroke-opacity:1" d="M 611.674,121.614 617.614,121.02 z" id="boundary" inkscape:connector-curvature="0" />
	<path style="fill:none;stroke:red;stroke-width:1px;stroke-linecap:butt;stroke-linejoin:miter;stroke-opacity:1" d="M 617.614,121.02 623.554,121.02 z" id="boundary" inkscape:connector-curvature="0" />
	<path style="fill:none;stroke:red;stroke-width:1px;stroke-linecap:butt;stroke-linejoin:miter;stroke-opacity:1" d="M 623.554,121.02 629.495,120.426 z" id="boundary" inkscape:connector-curvature="0" />
	<path style="fill:none;stroke:red;stroke-width:1px;stroke-linecap:butt;stroke-linejoin:miter;stroke-opacity:1" d="M 629.495,120.426 635.435,120.426 z" id="boundary" inkscape:connector-curvature="0" />
	<path style="fill:none;stroke:red;stroke-width:1px;stroke-linecap:butt;stroke-linejoin:miter;stroke-opacity:1" d="M 635.435,120.426 641.375,121.02 z" id="boundary" inkscape:connector-curvature="0" />
	<path style="fill:none;stroke:red;stroke-width:1px;stroke-linecap:butt;stroke-linejoin:miter;stroke-opacity:1" d="M 641.375,121.02 647.315,121.02 z" id="boundary" inkscape:connector-curvature="0" />
	<path style="fill:none;stroke:red;stroke-width:1px;stroke-linecap:butt;stroke-linejoin:miter;stroke-opacity:1" d="M 647.315,121.02 653.255,121.02 z" id="boundary" inkscape:connector-curvature="0" />
	<path style="fill:none;stroke:red;stroke-width:1px;stroke-linecap:butt;stroke-linejoin:miter;stroke-opacity:1" d="M 653.255,121.02 659.195,121.614 z" id="boundary" inkscape:connector-curvature="0" />
	<path style="fill:none;stroke:red;stroke-width:1px;stroke-linecap:butt;stroke-linejoin:miter;stroke-opacity:1" d="M 659.195,121.614 665.135,122.802 z" id="boundary" inkscape:connector-curvature="0" />
	<path style="fill:none;stroke:red;stroke-width:1px;stroke-linecap:butt;stroke-linejoin:miter;stroke-opacity:1" d="M 665.135,122.802 671.075,124.584 z" id="boundary" inkscape:connector-curvature="0" />
	<path style="fill:none;stroke:red;stroke-width:1px;stroke-linecap:butt;stroke-linejoin:miter;stroke-opacity:1" d="M 671.075,124.584 677.016,125.772 z" id="boundary" inkscape:connector-curvature="0" />
	<path style="fill:none;stroke:red;stroke-width:1px;stroke-linecap:butt;stroke-linejoin:miter;stroke-opacity:1" d="M 677.016,125.772 682.362,128.743 z" id="boundary" inkscape:connector-curvature="0" />
	<path style="fill:none;stroke:red;stroke-width:1px;stroke-linecap:butt;stroke-linejoin:miter;stroke-opacity:1" d="M 682.362,128.743 688.302,131.119 z" id="boundary" inkscape:connector-curvature="0" />
	<path style="fill:none;stroke:red;stroke-width:1px;stroke-linecap:butt;stroke-linejoin:miter;stroke-opacity:1" d="M 688.302,131.119 693.648,134.089 z" id="boundary" inkscape:connector-curvature="0" />
	<path style="fill:none;stroke:red;stroke-width:1px;stroke-linecap:butt;stroke-linejoin:miter;stroke-opacity:1" d="M 693.648,134.089 698.4,137.653 z" id="boundary" inkscape:connector-curvature="0" />
	<path style="fill:none;stroke:red;stroke-width:1px;stroke-linecap:butt;stroke-linejoin:miter;stroke-opacity:1" d="M 698.4,137.653 703.152,141.217 z" id="boundary" inkscape:connector-curvature="0" />
	<path style="fill:none;stroke:red;stroke-width:1px;stroke-linecap:butt;stroke-linejoin:miter;stroke-opacity:1" d="M 703.152,141.217 707.904,144.781 z" id="boundary" inkscape:connector-curvature="0" />
	<path style="fill:none;stroke:red;stroke-width:1px;stroke-linecap:butt;stroke-linejoin:miter;stroke-opacity:1" d="M 707.904,144.781 712.656,148.345 z" id="boundary" inkscape:connector-curvature="0" />
	<path style="fill:none;stroke:red;stroke-width:1px;stroke-linecap:butt;stroke-linejoin:miter;stroke-opacity:1" d="M 712.656,148.345 718.002,151.315 z" id="boundary" inkscape:connector-curvature="0" />
	<path style="fill:none;stroke:red;stroke-width:1px;stroke-linecap:butt;stroke-linejoin:miter;stroke-opacity:1" d="M 718.002,151.315 723.349,154.285 z" id="boundary" inkscape:connector-curvature="0" />
	<path style="fill:none;stroke:red;stroke-width:1px;stroke-linecap:butt;stroke-linejoin:miter;stroke-opacity:1" d="M 723.349,154.285 728.695,157.255 z" id="boundary" inkscape:connector-curvature="0" />
	<path style="fill:none;stroke:red;stroke-width:1px;stroke-linecap:butt;stroke-linejoin:miter;stroke-opacity:1" d="M 728.695,157.255 733.447,160.819 z" id="boundary" inkscape:connector-curvature="0" />
	<path style="fill:none;stroke:red;stroke-width:1px;stroke-linecap:butt;stroke-linejoin:miter;stroke-opacity:1" d="M 733.447,160.819 739.387,163.195 z" id="boundary" inkscape:connector-curvature="0" />
	<path style="fill:none;stroke:red;stroke-width:1px;stroke-linecap:butt;stroke-linejoin:miter;stroke-opacity:1" d="M 739.387,163.195 744.733,166.165 z" id="boundary" inkscape:connector-curvature="0" />
	<path style="fill:none;stroke:red;stroke-width:1px;stroke-linecap:butt;stroke-linejoin:miter;stroke-opacity:1" d="M 744.733,166.165 750.079,169.135 z" id="boundary" inkscape:connector-curvature="0" />
	<path style="fill:none;stroke:red;stroke-width:1px;stroke-linecap:butt;stroke-linejoin:miter;stroke-opacity:1" d="M 750.079,169.135 756.019,171.511 z" id="boundary" inkscape:connector-curvature="0" />
	<path style="fill:none;stroke:red;stroke-width:1px;stroke-linecap:butt;stroke-linejoin:miter;stroke-opacity:1" d="M 756.019,171.511 761.959,173.887 z" id="boundary" inkscape:connector-curvature="0" />
	<path style="fill:none;stroke:red;stroke-width:1px;stroke-linecap:butt;stroke-linejoin:miter;stroke-opacity:1" d="M 761.959,173.887 767.305,176.857 z" id="boundary" inkscape:connector-curvature="0" />
	<path style="fill:none;stroke:red;stroke-width:1px;stroke-linecap:butt;stroke-linejoin:miter;stroke-opacity:1" d="M 767.305,176.857 773.246,178.64 z" id="boundary" inkscape:connector-curvature="0" />
	<path style="fill:none;stroke:red;stroke-width:1px;stroke-linecap:butt;stroke-linejoin:miter;stroke-opacity:1" d="M 773.246,178.64 779.186,181.016 z" id="boundary" inkscape:connector-curvature="0" />
	<path style="fill:none;stroke:red;stroke-width:1px;stroke-linecap:butt;stroke-linejoin:miter;stroke-opacity:1" d="M 779.186,181.016 785.126,182.798 z" id="boundary" inkscape:connector-curvature="0" />
	<path style="fill:none;stroke:red;stroke-width:1px;stroke-linecap:butt;stroke-linejoin:miter;stroke-opacity:1" d="M 785.126,182.798 791.066,184.58 z" id="boundary" inkscape:connector-curvature="0" />
	<path style="fill:none;stroke:red;stroke-width:1px;stroke-linecap:butt;stroke-linejoin:miter;stroke-opacity:1" d="M 791.066,184.58 797.006,186.362 z" id="boundary" inkscape:connector-curvature="0" />
	<path style="fill:none;stroke:red;stroke-width:1px;stroke-linecap:butt;stroke-linejoin:miter;stroke-opacity:1" d="M 797.006,186.362 802.946,187.55 z" id="boundary" inkscape:connector-curvature="0" />
	<path style="fill:none;stroke:red;stroke-width:1px;stroke-linecap:butt;stroke-linejoin:miter;stroke-opacity:1" d="M 802.946,187.55 808.886,189.332 z" id="boundary" inkscape:connector-curvature="0" />
	<path style="fill:none;stroke:red;stroke-width:1px;stroke-linecap:butt;stroke-linejoin:miter;stroke-opacity:1" d="M 808.886,189.332 814.826,190.52 z" id="boundary" inkscape:connector-curvature="0" />
	<path style="fill:none;stroke:red;stroke-width:1px;stroke-linecap:butt;stroke-linejoin:miter;stroke-opacity:1" d="M 814.826,190.52 820.766,191.708 z" id="boundary" inkscape:connector-curvature="0" />
	<path style="fill:none;stroke:red;stroke-width:1px;stroke-linecap:butt;stroke-linejoin:miter;stroke-opacity:1" d="M 820.766,191.708 826.707,192.896 z" id="boundary" inkscape:connector-curvature="0" />
	<path style="fill:none;stroke:red;stroke-width:1px;stroke-linecap:butt;stroke-linejoin:miter;stroke-opacity:1" d="M 826.707,192.896 832.647,193.49 z" id="boundary" inkscape:connector-curvature="0" />
	<path style="fill:none;stroke:red;stroke-width:1px;stroke-linecap:butt;stroke-linejoin:miter;stroke-opacity:1" d="M 832.647,193.49 838.587,194.678 z" id="boundary" inkscape:connector-curvature="0" />
	<path style="fill:none;stroke:red;stroke-width:1px;stroke-linecap:butt;stroke-linejoin:miter;stroke-opacity:1" d="M 838.587,194.678 844.527,195.272 z" id="boundary" inkscape:connector-curvature="0" />
	<path style="fill:none;stroke:red;stroke-width:1px;stroke-linecap:butt;stroke-linejoin:miter;stroke-opacity:1" d="M 844.527,195.272 850.467,195.272 z" id="boundary" inkscape:connector-curvature="0" />
	<path style="fill:none;stroke:red;stroke-width:1px;stroke-linecap:butt;stroke-linejoin:miter;stroke-opacity:1" d="M 850.467,195.272 856.407,195.866 z" id="boundary" inkscape:connector-curvature="0" />
	<path style="fill:none;stroke:red;stroke-width:1px;stroke-linecap:butt;stroke-linejoin:miter;stroke-opacity:1" d="M 856.407,195.866 862.347,195.866 z" id="boundary" inkscape:connector-curvature="0" />
	<path style="fill:none;stroke:red;stroke-width:1px;stroke-linecap:butt;stroke-linejoin:miter;stroke-opacity:1" d="M 862.347,195.866 868.287,195.866 z" id="boundary" inkscape:connector-curvature="0" />
	<path style="fill:none;stroke:red;stroke-width:1px;stroke-linecap:butt;stroke-linejoin:miter;stroke-opacity:1" d="M 868.287,195.866 874.228,194.678 z" id="boundary" inkscape:connector-curvature="0" />
	<path style="fill:none;stroke:red;stroke-width:1px;stroke-linecap:butt;stroke-linejoin:miter;stroke-opacity:1" d="M 874.228,194.678 880.168,194.678 z" id="boundary" inkscape:connector-curvature="0" />
	<path style="fill:none;stroke:red;stroke-width:1px;stroke-linecap:butt;stroke-linejoin:miter;stroke-opacity:1" d="M 880.168,194.678 886.108,194.084 z" id="boundary" inkscape:connector-curvature="0" />
	<path style="fill:none;stroke:red;stroke-width:1px;stroke-linecap:butt;stroke-linejoin:miter;stroke-opacity:1" d="M 886.108,194.084 892.048,193.49 z" id="boundary" inkscape:connector-curvature="0" />
	<path style="fill:none;stroke:red;stroke-width:1px;stroke-linecap:butt;stroke-linejoin:miter;stroke-opacity:1" d="M 892.048,193.49 897.988,192.896 z" id="boundary" inkscape:connector-curvature="0" />
	<path style="fill:none;stroke:red;stroke-width:1px;stroke-linecap:butt;stroke-linejoin:miter;stroke-opacity:1" d="M 897.988,192.896 903.928,191.708 z" id="boundary" inkscape:connector-curvature="0" />
	<path style="fill:none;stroke:red;stroke-width:1px;stroke-linecap:butt;stroke-linejoin:miter;stroke-opacity:1" d="M 903.928,191.708 909.868,189.332 z" id="boundary" inkscape:connector-curvature="0" />
	<path style="fill:none;stroke:red;stroke-width:1px;stroke-linecap:butt;stroke-linejoin:miter;stroke-opacity:1" d="M 909.868,189.332 915.808,188.738 z" id="boundary" inkscape:connector-curvature="0" />
	<path style="fill:none;stroke:red;stroke-width:1px;stroke-linecap:butt;stroke-linejoin:miter;stroke-opacity:1" d="M 915.808,188.738 921.749,187.55 z" id="boundary" inkscape:connector-curvature="0" />
	<path style="fill:none;stroke:red;stroke-width:1px;stroke-linecap:butt;stroke-linejoin:miter;stroke-opacity:1" d="M 921.749,187.55 927.689,184.58 z" id="boundary" inkscape:connector-curvature="0" />
	<path style="fill:none;stroke:red;stroke-width:1px;stroke-linecap:butt;stroke-linejoin:miter;stroke-opacity:1" d="M 927.689,184.58 933.629,182.204 z" id="boundary" inkscape:connector-curvature="0" />
	<path style="fill:none;stroke:red;stroke-width:1px;stroke-linecap:butt;stroke-linejoin:miter;stroke-opacity:1" d="M 933.629,182.204 939.569,179.828 z" id="boundary" inkscape:connector-curvature="0" />
	<path style="fill:none;stroke:red;stroke-width:1px;stroke-linecap:butt;stroke-linejoin:miter;stroke-opacity:1" d="M 939.569,179.828 944.321,176.263 z" id="boundary" inkscape:connector-curvature="0" />
	<path style="fill:none;stroke:red;stroke-width:1px;stroke-linecap:butt;stroke-linejoin:miter;stroke-opacity:1" d="M 944.321,176.263 949.667,173.293 z" id="boundary" inkscape:connector-curvature="0" />
	<path style="fill:none;stroke:red;stroke-width:1px;stroke-linecap:butt;stroke-linejoin:miter;stroke-opacity:1" d="M 949.667,173.293 954.419,169.135 z" id="boundary" inkscape:connector-curvature="0" />
	<path style="fill:none;stroke:red;stroke-width:1px;stroke-linecap:butt;stroke-linejoin:miter;stroke-opacity:1" d="M 954.419,169.135 960.359,166.165 z" id="boundary" inkscape:connector-curvature="0" />
	<path style="fill:none;stroke:red;stroke-width:1px;stroke-linecap:butt;stroke-linejoin:miter;stroke-opacity:1" d="M 960.359,166.165 965.111,162.601 z" id="boundary" inkscape:connector-curvature="0" />
	<path style="fill:none;stroke:red;stroke-width:1px;stroke-linecap:butt;stroke-linejoin:miter;stroke-opacity:1" d="M 965.111,162.601 969.863,157.849 z" id="boundary" inkscape:connector-curvature="0" />
	<path style="fill:none;stroke:red;stroke-width:1px;stroke-linecap:butt;stroke-linejoin:miter;stroke-opacity:1" d="M 969.863,157.849 975.804,154.879 z" id="boundary" inkscape:connector-curvature="0" />
	<path style="fill:none;stroke:red;stroke-width:1px;stroke-linecap:butt;stroke-linejoin:miter;stroke-opacity:1" d="M 975.804,154.879 980.556,150.721 z" id="boundary" inkscape:connector-curvature="0" />
	<path style="fill:none;stroke:red;stroke-width:1px;stroke-linecap:butt;stroke-linejoin:miter;stroke-opacity:1" d="M 980.556,150.721 984.714,145.969 z" id="boundary" inkscape:connector-curvature="0" />
	<path style="fill:none;stroke:red;stroke-width:1px;stroke-linecap:butt;stroke-linejoin:miter;stroke-opacity:1" d="M 984.714,145.969 987.684,140.623 z" id="boundary" inkscape:connector-curvature="0" />
	<path style="fill:none;stroke:red;stroke-width:1px;stroke-linecap:butt;stroke-linejoin:miter;stroke-opacity:1" d="M 10.5341,121.614 15.2862,116.862 z" id="boundary" inkscape:connector-curvature="0" />
	<path style="fill:none;stroke:red;stroke-width:1px;stroke-linecap:butt;stroke-linejoin:miter;stroke-opacity:1" d="M 15.2862,116.862 21.2263,114.486 z" id="boundary" inkscape:connector-curvature="0" />
	<path style="fill:none;stroke:red;stroke-width:1px;stroke-linecap:butt;stroke-linejoin:miter;stroke-opacity:1" d="M 21.2263,114.486 27.1665,113.892 z" id="boundary" inkscape:connector-curvature="0" />
	<path style="fill:none;stroke:red;stroke-width:1px;stroke-linecap:butt;stroke-linejoin:miter;stroke-opacity:1" d="M 27.1665,113.892 33.1066,112.11 z" id="boundary" inkscape:connector-curvature="0" />
	<path style="fill:none;stroke:red;stroke-width:1px;stroke-linecap:butt;stroke-linejoin:miter;stroke-opacity:1" d="M 33.1066,112.11 39.0467,111.516 z" id="boundary" inkscape:connector-curvature="0" />
	<path style="fill:none;stroke:red;stroke-width:1px;stroke-linecap:butt;stroke-linejoin:miter;stroke-opacity:1" d="M 39.0467,111.516 44.9868,111.516 z" id="boundary" inkscape:connector-curvature="0" />
	<path style="fill:none;stroke:red;stroke-width:1px;stroke-linecap:butt;stroke-linejoin:miter;stroke-opacity:1" d="M 44.9868,111.516 50.9269,110.922 z" id="boundary" inkscape:connector-curvature="0" />
	<path style="fill:none;stroke:red;stroke-width:1px;stroke-linecap:butt;stroke-linejoin:miter;stroke-opacity:1" d="M 50.9269,110.922 56.8671,110.328 z" id="boundary" inkscape:connector-curvature="0" />
	<path style="fill:none;stroke:red;stroke-width:1px;stroke-linecap:butt;stroke-linejoin:miter;stroke-opacity:1" d="M 56.8671,110.328 62.8072,109.734 z" id="boundary" inkscape:connector-curvature="0" />
	<path style="fill:none;stroke:red;stroke-width:1px;stroke-linecap:butt;stroke-linejoin:miter;stroke-opacity:1" d="M 62.8072,109.734 68.7473,109.14 z" id="boundary" inkscape:connector-curvature="0" />
	<path style="fill:none;stroke:red;stroke-width:1px;stroke-linecap:butt;stroke-linejoin:miter;stroke-opacity:1" d="M 68.7473,109.14 74.6874,108.546 z" id="boundary" inkscape:connector-curvature="0" />
	<path style="fill:none;stroke:red;stroke-width:1px;stroke-linecap:butt;stroke-linejoin:miter;stroke-opacity:1" d="M 74.6874,108.546 80.6275,107.952 z" id="boundary" inkscape:connector-curvature="0" />
	<path style="fill:none;stroke:red;stroke-width:1px;stroke-linecap:butt;stroke-linejoin:miter;stroke-opacity:1" d="M 80.6275,107.952 86.5677,107.952 z" id="boundary" inkscape:connector-curvature="0" />
	<path style="fill:none;stroke:red;stroke-width:1px;stroke-linecap:butt;stroke-linejoin:miter;stroke-opacity:1" d="M 86.5677,107.952 92.5078,107.358 z" id="boundary" inkscape:connector-curvature="0" />
	<path style="fill:none;stroke:red;stroke-width:1px;stroke-linecap:butt;stroke-linejoin:miter;stroke-opacity:1" d="M 92.5078,107.358 98.4479,106.17 z" id="boundary" inkscape:connector-curvature="0" />
	<path style="fill:none;stroke:red;stroke-width:1px;stroke-linecap:butt;stroke-linejoin:miter;stroke-opacity:1" d="M 98.4479,106.17 104.388,106.17 z" id="boundary" inkscape:connector-curvature="0" />
	<path style="fill:none;stroke:red;stroke-width:1px;stroke-linecap:butt;stroke-linejoin:miter;stroke-opacity:1" d="M 104.388,106.17 110.328,105.576 z" id="boundary" inkscape:connector-curvature="0" />
	<path style="fill:none;stroke:red;stroke-width:1px;stroke-linecap:butt;stroke-linejoin:miter;stroke-opacity:1" d="M 110.328,105.576 116.268,104.982 z" id="boundary" inkscape:connector-curvature="0" />
	<path style="fill:none;stroke:red;stroke-width:1px;stroke-linecap:butt;stroke-linejoin:miter;stroke-opacity:1" d="M 116.268,104.982 122.208,104.388 z" id="boundary" inkscape:connector-curvature="0" />
	<path style="fill:none;stroke:red;stroke-width:1px;stroke-linecap:butt;stroke-linejoin:miter;stroke-opacity:1" d="M 122.208,104.388 128.149,103.794 z" id="boundary" inkscape:connector-curvature="0" />
	<path style="fill:none;stroke:red;stroke-width:1px;stroke-linecap:butt;stroke-linejoin:miter;stroke-opacity:1" d="M 128.149,103.794 134.089,103.794 z" id="boundary" inkscape:connector-curvature="0" />
	<path style="fill:none;stroke:red;stroke-width:1px;stroke-linecap:butt;stroke-linejoin:miter;stroke-opacity:1" d="M 134.089,103.794 140.029,102.606 z" id="boundary" inkscape:connector-curvature="0" />
	<path style="fill:none;stroke:red;stroke-width:1px;stroke-linecap:butt;stroke-linejoin:miter;stroke-opacity:1" d="M 140.029,102.606 145.969,102.606 z" id="boundary" inkscape:connector-curvature="0" />
	<path style="fill:none;stroke:red;stroke-width:1px;stroke-linecap:butt;stroke-linejoin:miter;stroke-opacity:1" d="M 145.969,102.606 151.909,102.012 z" id="boundary" inkscape:connector-curvature="0" />
	<path style="fill:none;stroke:red;stroke-width:1px;stroke-linecap:butt;stroke-linejoin:miter;stroke-opacity:1" d="M 151.909,102.012 157.849,101.418 z" id="boundary" inkscape:connector-curvature="0" />
	<path style="fill:none;stroke:red;stroke-width:1px;stroke-linecap:butt;stroke-linejoin:miter;stroke-opacity:1" d="M 157.849,101.418 163.789,100.824 z" id="boundary" inkscape:connector-curvature="0" />
	<path style="fill:none;stroke:red;stroke-width:1px;stroke-linecap:butt;stroke-linejoin:miter;stroke-opacity:1" d="M 163.789,100.824 169.729,100.23 z" id="boundary" inkscape:connector-curvature="0" />
	<path style="fill:none;stroke:red;stroke-width:1px;stroke-linecap:butt;stroke-linejoin:miter;stroke-opacity:1" d="M 169.729,100.23 175.669,100.23 z" id="boundary" inkscape:connector-curvature="0" />
	<path style="fill:none;stroke:red;stroke-width:1px;stroke-linecap:butt;stroke-linejoin:miter;stroke-opacity:1" d="M 175.669,100.23 181.61,99.6359 z" id="boundary" inkscape:connector-curvature="0" />
	<path style="fill:none;stroke:red;stroke-width:1px;stroke-linecap:butt;stroke-linejoin:miter;stroke-opacity:1" d="M 181.61,99.6359 187.55,99.0419 z" id="boundary" inkscape:connector-curvature="0" />
	<path style="fill:none;stroke:red;stroke-width:1px;stroke-linecap:butt;stroke-linejoin:miter;stroke-opacity:1" d="M 187.55,99.0419 193.49,98.4479 z" id="boundary" inkscape:connector-curvature="0" />
	<path style="fill:none;stroke:red;stroke-width:1px;stroke-linecap:butt;stroke-linejoin:miter;stroke-opacity:1" d="M 193.49,98.4479 199.43,98.4479 z" id="boundary" inkscape:connector-curvature="0" />
	<path style="fill:none;stroke:red;stroke-width:1px;stroke-linecap:butt;stroke-linejoin:miter;stroke-opacity:1" d="M 199.43,98.4479 205.37,97.8539 z" id="boundary" inkscape:connector-curvature="0" />
	<path style="fill:none;stroke:red;stroke-width:1px;stroke-linecap:butt;stroke-linejoin:miter;stroke-opacity:1" d="M 205.37,97.8539 211.31,97.2599 z" id="boundary" inkscape:connector-curvature="0" />
	<path style="fill:none;stroke:red;stroke-width:1px;stroke-linecap:butt;stroke-linejoin:miter;stroke-opacity:1" d="M 211.31,97.2599 217.25,96.6659 z" id="boundary" inkscape:connector-curvature="0" />
	<path style="fill:none;stroke:red;stroke-width:1px;stroke-linecap:butt;stroke-linejoin:miter;stroke-opacity:1" d="M 217.25,96.6659 223.19,96.6659 z" id="boundary" inkscape:connector-curvature="0" />
	<path style="fill:none;stroke:red;stroke-width:1px;stroke-linecap:butt;stroke-linejoin:miter;stroke-opacity:1" d="M 223.19,96.6659 229.131,96.0719 z" id="boundary" inkscape:connector-curvature="0" />
	<path style="fill:none;stroke:red;stroke-width:1px;stroke-linecap:butt;stroke-linejoin:miter;stroke-opacity:1" d="M 229.131,96.0719 235.071,95.4778 z" id="boundary" inkscape:connector-curvature="0" />
	<path style="fill:none;stroke:red;stroke-width:1px;stroke-linecap:butt;stroke-linejoin:miter;stroke-opacity:1" d="M 235.071,95.4778 241.011,95.4778 z" id="boundary" inkscape:connector-curvature="0" />
	<path style="fill:none;stroke:red;stroke-width:1px;stroke-linecap:butt;stroke-linejoin:miter;stroke-opacity:1" d="M 241.011,95.4778 246.951,94.8838 z" id="boundary" inkscape:connector-curvature="0" />
	<path style="fill:none;stroke:red;stroke-width:1px;stroke-linecap:butt;stroke-linejoin:miter;stroke-opacity:1" d="M 246.951,94.8838 252.891,94.2898 z" id="boundary" inkscape:connector-curvature="0" />
	<path style="fill:none;stroke:red;stroke-width:1px;stroke-linecap:butt;stroke-linejoin:miter;stroke-opacity:1" d="M 252.891,94.2898 258.831,94.2898 z" id="boundary" inkscape:connector-curvature="0" />
	<path style="fill:none;stroke:red;stroke-width:1px;stroke-linecap:butt;stroke-linejoin:miter;stroke-opacity:1" d="M 258.831,94.2898 264.771,93.6958 z" id="boundary" inkscape:connector-curvature="0" />
	<path style="fill:none;stroke:red;stroke-width:1px;stroke-linecap:butt;stroke-linejoin:miter;stroke-opacity:1" d="M 264.771,93.6958 270.711,93.1018 z" id="boundary" inkscape:connector-curvature="0" />
	<path style="fill:none;stroke:red;stroke-width:1px;stroke-linecap:butt;stroke-linejoin:miter;stroke-opacity:1" d="M 270.711,93.1018 276.651,92.5078 z" id="boundary" inkscape:connector-curvature="0" />
	<path style="fill:none;stroke:red;stroke-width:1px;stroke-linecap:butt;stroke-linejoin:miter;stroke-opacity:1" d="M 276.651,92.5078 282.592,92.5078 z" id="boundary" inkscape:connector-curvature="0" />
	<path style="fill:none;stroke:red;stroke-width:1px;stroke-linecap:butt;stroke-linejoin:miter;stroke-opacity:1" d="M 282.592,92.5078 288.532,91.9138 z" id="boundary" inkscape:connector-curvature="0" />
	<path style="fill:none;stroke:red;stroke-width:1px;stroke-linecap:butt;stroke-linejoin:miter;stroke-opacity:1" d="M 288.532,91.9138 294.472,91.3198 z" id="boundary" inkscape:connector-curvature="0" />
	<path style="fill:none;stroke:red;stroke-width:1px;stroke-linecap:butt;stroke-linejoin:miter;stroke-opacity:1" d="M 294.472,91.3198 300.412,91.3198 z" id="boundary" inkscape:connector-curvature="0" />
	<path style="fill:none;stroke:red;stroke-width:1px;stroke-linecap:butt;stroke-linejoin:miter;stroke-opacity:1" d="M 300.412,91.3198 306.352,91.3198 z" id="boundary" inkscape:connector-curvature="0" />
	<path style="fill:none;stroke:red;stroke-width:1px;stroke-linecap:butt;stroke-linejoin:miter;stroke-opacity:1" d="M 306.352,91.3198 312.292,90.1317 z" id="boundary" inkscape:connector-curvature="0" />
	<path style="fill:none;stroke:red;stroke-width:1px;stroke-linecap:butt;stroke-linejoin:miter;stroke-opacity:1" d="M 312.292,90.1317 318.232,90.1317 z" id="boundary" inkscape:connector-curvature="0" />
	<path style="fill:none;stroke:red;stroke-width:1px;stroke-linecap:butt;stroke-linejoin:miter;stroke-opacity:1" d="M 318.232,90.1317 324.172,89.5377 z" id="boundary" inkscape:connector-curvature="0" />
	<path style="fill:none;stroke:red;stroke-width:1px;stroke-linecap:butt;stroke-linejoin:miter;stroke-opacity:1" d="M 324.172,89.5377 330.113,89.5377 z" id="boundary" inkscape:connector-curvature="0" />
	<path style="fill:none;stroke:red;stroke-width:1px;stroke-linecap:butt;stroke-linejoin:miter;stroke-opacity:1" d="M 330.113,89.5377 336.053,88.9437 z" id="boundary" inkscape:connector-curvature="0" />
	<path style="fill:none;stroke:red;stroke-width:1px;stroke-linecap:butt;stroke-linejoin:miter;stroke-opacity:1" d="M 336.053,88.9437 341.993,88.3497 z" id="boundary" inkscape:connector-curvature="0" />
	<path style="fill:none;stroke:red;stroke-width:1px;stroke-linecap:butt;stroke-linejoin:miter;stroke-opacity:1" d="M 341.993,88.3497 347.933,88.3497 z" id="boundary" inkscape:connector-curvature="0" />
	<path style="fill:none;stroke:red;stroke-width:1px;stroke-linecap:butt;stroke-linejoin:miter;stroke-opacity:1" d="M 347.933,88.3497 353.873,87.7557 z" id="boundary" inkscape:connector-curvature="0" />
	<path style="fill:none;stroke:red;stroke-width:1px;stroke-linecap:butt;stroke-linejoin:miter;stroke-opacity:1" d="M 353.873,87.7557 359.813,87.1617 z" id="boundary" inkscape:connector-curvature="0" />
	<path style="fill:none;stroke:red;stroke-width:1px;stroke-linecap:butt;stroke-linejoin:miter;stroke-opacity:1" d="M 359.813,87.1617 365.753,87.1617 z" id="boundary" inkscape:connector-curvature="0" />
	<path style="fill:none;stroke:red;stroke-width:1px;stroke-linecap:butt;stroke-linejoin:miter;stroke-opacity:1" d="M 365.753,87.1617 371.693,87.1617 z" id="boundary" inkscape:connector-curvature="0" />
	<path style="fill:none;stroke:red;stroke-width:1px;stroke-linecap:butt;stroke-linejoin:miter;stroke-opacity:1" d="M 371.693,87.1617 377.634,86.5677 z" id="boundary" inkscape:connector-curvature="0" />
	<path style="fill:none;stroke:red;stroke-width:1px;stroke-linecap:butt;stroke-linejoin:miter;stroke-opacity:1" d="M 377.634,86.5677 383.574,85.9737 z" id="boundary" inkscape:connector-curvature="0" />
	<path style="fill:none;stroke:red;stroke-width:1px;stroke-linecap:butt;stroke-linejoin:miter;stroke-opacity:1" d="M 383.574,85.9737 389.514,85.9737 z" id="boundary" inkscape:connector-curvature="0" />
	<path style="fill:none;stroke:red;stroke-width:1px;stroke-linecap:butt;stroke-linejoin:miter;stroke-opacity:1" d="M 389.514,85.9737 395.454,85.3796 z" id="boundary" inkscape:connector-curvature="0" />
	<path style="fill:none;stroke:red;stroke-width:1px;stroke-linecap:butt;stroke-linejoin:miter;stroke-opacity:1" d="M 395.454,85.3796 401.394,84.7856 z" id="boundary" inkscape:connector-curvature="0" />
	<path style="fill:none;stroke:red;stroke-width:1px;stroke-linecap:butt;stroke-linejoin:miter;stroke-opacity:1" d="M 401.394,84.7856 407.334,84.7856 z" id="boundary" inkscape:connector-curvature="0" />
	<path style="fill:none;stroke:red;stroke-width:1px;stroke-linecap:butt;stroke-linejoin:miter;stroke-opacity:1" d="M 407.334,84.7856 413.274,84.7856 z" id="boundary" inkscape:connector-curvature="0" />
	<path style="fill:none;stroke:red;stroke-width:1px;stroke-linecap:butt;stroke-linejoin:miter;stroke-opacity:1" d="M 413.274,84.7856 419.214,84.7856 z" id="boundary" inkscape:connector-curvature="0" />
	<path style="fill:none;stroke:red;stroke-width:1px;stroke-linecap:butt;stroke-linejoin:miter;stroke-opacity:1" d="M 419.214,84.7856 425.154,84.1916 z" id="boundary" inkscape:connector-curvature="0" />
	<path style="fill:none;stroke:red;stroke-width:1px;stroke-linecap:butt;stroke-linejoin:miter;stroke-opacity:1" d="M 425.154,84.1916 431.095,83.5976 z" id="boundary" inkscape:connector-curvature="0" />
	<path style="fill:none;stroke:red;stroke-width:1px;stroke-linecap:butt;stroke-linejoin:miter;stroke-opacity:1" d="M 431.095,83.5976 437.035,83.5976 z" id="boundary" inkscape:connector-curvature="0" />
	<path style="fill:none;stroke:red;stroke-width:1px;stroke-linecap:butt;stroke-linejoin:miter;stroke-opacity:1" d="M 437.035,83.5976 442.975,83.0036 z" id="boundary" inkscape:connector-curvature="0" />
	<path style="fill:none;stroke:red;stroke-width:1px;stroke-linecap:butt;stroke-linejoin:miter;stroke-opacity:1" d="M 442.975,83.0036 448.915,83.0036 z" id="boundary" inkscape:connector-curvature="0" />
	<path style="fill:none;stroke:red;stroke-width:1px;stroke-linecap:butt;stroke-linejoin:miter;stroke-opacity:1" d="M 448.915,83.0036 454.855,83.0036 z" id="boundary" inkscape:connector-curvature="0" />
	<path style="fill:none;stroke:red;stroke-width:1px;stroke-linecap:butt;stroke-linejoin:miter;stroke-opacity:1" d="M 454.855,83.0036 460.795,83.0036 z" id="boundary" inkscape:connector-curvature="0" />
	<path style="fill:none;stroke:red;stroke-width:1px;stroke-linecap:butt;stroke-linejoin:miter;stroke-opacity:1" d="M 460.795,83.0036 466.735,82.4096 z" id="boundary" inkscape:connector-curvature="0" />
	<path style="fill:none;stroke:red;stroke-width:1px;stroke-linecap:butt;stroke-linejoin:miter;stroke-opacity:1" d="M 466.735,82.4096 472.675,82.4096 z" id="boundary" inkscape:connector-curvature="0" />
	<path style="fill:none;stroke:red;stroke-width:1px;stroke-linecap:butt;stroke-linejoin:miter;stroke-opacity:1" d="M 472.675,82.4096 478.616,82.4096 z" id="boundary" inkscape:connector-curvature="0" />
	<path style="fill:none;stroke:red;stroke-width:1px;stroke-linecap:butt;stroke-linejoin:miter;stroke-opacity:1" d="M 478.616,82.4096 484.556,81.8156 z" id="boundary" inkscape:connector-curvature="0" />
	<path style="fill:none;stroke:red;stroke-width:1px;stroke-linecap:butt;stroke-linejoin:miter;stroke-opacity:1" d="M 484.556,81.8156 490.496,81.8156 z" id="boundary" inkscape:connector-curvature="0" />
	<path style="fill:none;stroke:red;stroke-width:1px;stroke-linecap:butt;stroke-linejoin:miter;stroke-opacity:1" d="M 490.496,81.8156 496.436,81.2216 z" id="boundary" inkscape:connector-curvature="0" />
	<path style="fill:none;stroke:red;stroke-width:1px;stroke-linecap:butt;stroke-linejoin:miter;stroke-opacity:1" d="M 496.436,81.2216 502.376,81.2216 z" id="boundary" inkscape:connector-curvature="0" />
	<path style="fill:none;stroke:red;stroke-width:1px;stroke-linecap:butt;stroke-linejoin:miter;stroke-opacity:1" d="M 502.376,81.2216 508.316,81.2216 z" id="boundary" inkscape:connector-curvature="0" />
	<path style="fill:none;stroke:red;stroke-width:1px;stroke-linecap:butt;stroke-linejoin:miter;stroke-opacity:1" d="M 508.316,81.2216 514.256,81.2216 z" id="boundary" inkscape:connector-curvature="0" />
	<path style="fill:none;stroke:red;stroke-width:1px;stroke-linecap:butt;stroke-linejoin:miter;stroke-opacity:1" d="M 514.256,81.2216 520.196,80.6275 z" id="boundary" inkscape:connector-curvature="0" />
	<path style="fill:none;stroke:red;stroke-width:1px;stroke-linecap:butt;stroke-linejoin:miter;stroke-opacity:1" d="M 520.196,80.6275 526.137,80.6275 z" id="boundary" inkscape:connector-curvature="0" />
	<path style="fill:none;stroke:red;stroke-width:1px;stroke-linecap:butt;stroke-linejoin:miter;stroke-opacity:1" d="M 526.137,80.6275 532.077,80.0335 z" id="boundary" inkscape:connector-curvature="0" />
	<path style="fill:none;stroke:red;stroke-width:1px;stroke-linecap:butt;stroke-linejoin:miter;stroke-opacity:1" d="M 532.077,80.0335 538.017,80.0335 z" id="boundary" inkscape:connector-curvature="0" />
	<path style="fill:none;stroke:red;stroke-width:1px;stroke-linecap:butt;stroke-linejoin:miter;stroke-opacity:1" d="M 538.017,80.0335 543.957,80.0335 z" id="boundary" inkscape:connector-curvature="0" />
	<path style="fill:none;stroke:red;stroke-width:1px;stroke-linecap:butt;stroke-linejoin:miter;stroke-opacity:1" d="M 543.957,80.0335 549.897,80.0335 z" id="boundary" inkscape:connector-curvature="0" />
	<path style="fill:none;stroke:red;stroke-width:1px;stroke-linecap:butt;stroke-linejoin:miter;stroke-opacity:1" d="M 549.897,80.0335 555.837,79.4395 z" id="boundary" inkscape:connector-curvature="0" />
	<path style="fill:none;stroke:red;stroke-width:1px;stroke-linecap:butt;stroke-linejoin:miter;stroke-opacity:1" d="M 555.837,79.4395 561.777,80.0335 z" id="boundary" inkscape:connector-curvature="0" />
	<path style="fill:none;stroke:red;stroke-width:1px;stroke-linecap:butt;stroke-linejoin:miter;stroke-opacity:1" d="M 561.777,80.0335 567.717,80.0335 z" id="boundary" inkscape:connector-curvature="0" />
	<path style="fill:none;stroke:red;stroke-width:1px;stroke-linecap:butt;stroke-linejoin:miter;stroke-opacity:1" d="M 567.717,80.0335 573.657,79.4395 z" id="boundary" inkscape:connector-curvature="0" />
	<path style="fill:none;stroke:red;stroke-width:1px;stroke-linecap:butt;stroke-linejoin:miter;stroke-opacity:1" d="M 573.657,79.4395 579.598,78.8455 z" id="boundary" inkscape:connector-curvature="0" />
	<path style="fill:none;stroke:red;stroke-width:1px;stroke-linecap:butt;stroke-linejoin:miter;stroke-opacity:1" d="M 579.598,78.8455 585.538,78.8455 z" id="boundary" inkscape:connector-curvature="0" />
	<path style="fill:none;stroke:red;stroke-width:1px;stroke-linecap:butt;stroke-linejoin:miter;stroke-opacity:1" d="M 585.538,78.8455 591.478,78.8455 z" id="boundary" inkscape:connector-curvature="0" />
	<path style="fill:none;stroke:red;stroke-width:1px;stroke-linecap:butt;stroke-linejoin:miter;stroke-opacity:1" d="M 591.478,78.8455 597.418,78.2515 z" id="boundary" inkscape:connector-curvature="0" />
	<path style="fill:none;stroke:red;stroke-width:1px;stroke-linecap:butt;stroke-linejoin:miter;stroke-opacity:1" d="M 597.418,78.2515 603.358,78.2515 z" id="boundary" inkscape:connector-curvature="0" />
	<path style="fill:none;stroke:red;stroke-width:1px;stroke-linecap:butt;stroke-linejoin:miter;stroke-opacity:1" d="M 603.358,78.2515 609.298,78.2515 z" id="boundary" inkscape:connector-curvature="0" />
	<path style="fill:none;stroke:red;stroke-width:1px;stroke-linecap:butt;stroke-linejoin:miter;stroke-opacity:1" d="M 609.298,78.2515 615.238,77.6575 z" id="boundary" inkscape:connector-curvature="0" />
	<path style="fill:none;stroke:red;stroke-width:1px;stroke-linecap:butt;stroke-linejoin:miter;stroke-opacity:1" d="M 615.238,77.6575 621.178,77.6575 z" id="boundary" inkscape:connector-curvature="0" />
	<path style="fill:none;stroke:red;stroke-width:1px;stroke-linecap:butt;stroke-linejoin:miter;stroke-opacity:1" d="M 621.178,77.6575 627.119,77.6575 z" id="boundary" inkscape:connector-curvature="0" />
	<path style="fill:none;stroke:red;stroke-width:1px;stroke-linecap:butt;stroke-linejoin:miter;stroke-opacity:1" d="M 627.119,77.6575 633.059,77.6575 z" id="boundary" inkscape:connector-curvature="0" />
	<path style="fill:none;stroke:red;stroke-width:1px;stroke-linecap:butt;stroke-linejoin:miter;stroke-opacity:1" d="M 633.059,77.6575 638.999,77.6575 z" id="boundary" inkscape:connector-curvature="0" />
	<path style="fill:none;stroke:red;stroke-width:1px;stroke-linecap:butt;stroke-linejoin:miter;stroke-opacity:1" d="M 638.999,77.6575 644.939,77.6575 z" id="boundary" inkscape:connector-curvature="0" />
	<path style="fill:none;stroke:red;stroke-width:1px;stroke-linecap:butt;stroke-linejoin:miter;stroke-opacity:1" d="M 644.939,77.6575 650.879,77.0635 z" id="boundary" inkscape:connector-curvature="0" />
	<path style="fill:none;stroke:red;stroke-width:1px;stroke-linecap:butt;stroke-linejoin:miter;stroke-opacity:1" d="M 650.879,77.0635 656.819,76.4695 z" id="boundary" inkscape:connector-curvature="0" />
	<path style="fill:none;stroke:red;stroke-width:1px;stroke-linecap:butt;stroke-linejoin:miter;stroke-opacity:1" d="M 656.819,76.4695 662.759,75.2814 z" id="boundary" inkscape:connector-curvature="0" />
	<path style="fill:none;stroke:red;stroke-width:1px;stroke-linecap:butt;stroke-linejoin:miter;stroke-opacity:1" d="M 662.759,75.2814 668.699,72.9054 z" id="boundary" inkscape:connector-curvature="0" />
	<path style="fill:none;stroke:red;stroke-width:1px;stroke-linecap:butt;stroke-linejoin:miter;stroke-opacity:1" d="M 668.699,72.9054 674.64,71.1234 z" id="boundary" inkscape:connector-curvature="0" />
	<path style="fill:none;stroke:red;stroke-width:1px;stroke-linecap:butt;stroke-linejoin:miter;stroke-opacity:1" d="M 674.64,71.1234 679.986,68.1533 z" id="boundary" inkscape:connector-curvature="0" />
	<path style="fill:none;stroke:red;stroke-width:1px;stroke-linecap:butt;stroke-linejoin:miter;stroke-opacity:1" d="M 679.986,68.1533 685.332,65.1832 z" id="boundary" inkscape:connector-curvature="0" />
	<path style="fill:none;stroke:red;stroke-width:1px;stroke-linecap:butt;stroke-linejoin:miter;stroke-opacity:1" d="M 685.332,65.1832 690.678,62.2132 z" id="boundary" inkscape:connector-curvature="0" />
	<path style="fill:none;stroke:red;stroke-width:1px;stroke-linecap:butt;stroke-linejoin:miter;stroke-opacity:1" d="M 690.678,62.2132 695.43,58.6491 z" id="boundary" inkscape:connector-curvature="0" />
	<path style="fill:none;stroke:red;stroke-width:1px;stroke-linecap:butt;stroke-linejoin:miter;stroke-opacity:1" d="M 695.43,58.6491 700.182,55.085 z" id="boundary" inkscape:connector-curvature="0" />
	<path style="fill:none;stroke:red;stroke-width:1px;stroke-linecap:butt;stroke-linejoin:miter;stroke-opacity:1" d="M 700.182,55.085 704.934,51.521 z" id="boundary" inkscape:connector-curvature="0" />
	<path style="fill:none;stroke:red;stroke-width:1px;stroke-linecap:butt;stroke-linejoin:miter;stroke-opacity:1" d="M 704.934,51.521 710.28,48.5509 z" id="boundary" inkscape:connector-curvature="0" />
	<path style="fill:none;stroke:red;stroke-width:1px;stroke-linecap:butt;stroke-linejoin:miter;stroke-opacity:1" d="M 710.28,48.5509 715.032,44.9868 z" id="boundary" inkscape:connector-curvature="0" />
	<path style="fill:none;stroke:red;stroke-width:1px;stroke-linecap:butt;stroke-linejoin:miter;stroke-opacity:1" d="M 715.032,44.9868 720.378,42.0168 z" id="boundary" inkscape:connector-curvature="0" />
	<path style="fill:none;stroke:red;stroke-width:1px;stroke-linecap:butt;stroke-linejoin:miter;stroke-opacity:1" d="M 720.378,42.0168 725.725,39.0467 z" id="boundary" inkscape:connector-curvature="0" />
	<path style="fill:none;stroke:red;stroke-width:1px;stroke-linecap:butt;stroke-linejoin:miter;stroke-opacity:1" d="M 725.725,39.0467 731.665,36.0766 z" id="boundary" inkscape:connector-curvature="0" />
	<path style="fill:none;stroke:red;stroke-width:1px;stroke-linecap:butt;stroke-linejoin:miter;stroke-opacity:1" d="M 731.665,36.0766 737.605,33.1066 z" id="boundary" inkscape:connector-curvature="0" />
	<path style="fill:none;stroke:red;stroke-width:1px;stroke-linecap:butt;stroke-linejoin:miter;stroke-opacity:1" d="M 737.605,33.1066 743.545,30.1365 z" id="boundary" inkscape:connector-curvature="0" />
	<path style="fill:none;stroke:red;stroke-width:1px;stroke-linecap:butt;stroke-linejoin:miter;stroke-opacity:1" d="M 743.545,30.1365 749.485,27.7605 z" id="boundary" inkscape:connector-curvature="0" />
	<path style="fill:none;stroke:red;stroke-width:1px;stroke-linecap:butt;stroke-linejoin:miter;stroke-opacity:1" d="M 749.485,27.7605 755.425,25.3844 z" id="boundary" inkscape:connector-curvature="0" />
	<path style="fill:none;stroke:red;stroke-width:1px;stroke-linecap:butt;stroke-linejoin:miter;stroke-opacity:1" d="M 755.425,25.3844 761.365,22.4144 z" id="boundary" inkscape:connector-curvature="0" />
	<path style="fill:none;stroke:red;stroke-width:1px;stroke-linecap:butt;stroke-linejoin:miter;stroke-opacity:1" d="M 761.365,22.4144 767.305,20.0383 z" id="boundary" inkscape:connector-curvature="0" />
	<path style="fill:none;stroke:red;stroke-width:1px;stroke-linecap:butt;stroke-linejoin:miter;stroke-opacity:1" d="M 767.305,20.0383 773.246,17.6623 z" id="boundary" inkscape:connector-curvature="0" />
	<path style="fill:none;stroke:red;stroke-width:1px;stroke-linecap:butt;stroke-linejoin:miter;stroke-opacity:1" d="M 773.246,17.6623 779.186,15.8802 z" id="boundary" inkscape:connector-curvature="0" />
	<path style="fill:none;stroke:red;stroke-width:1px;stroke-linecap:butt;stroke-linejoin:miter;stroke-opacity:1" d="M 779.186,15.8802 785.126,14.0982 z" id="boundary" inkscape:connector-curvature="0" />
	<path style="fill:none;stroke:red;stroke-width:1px;stroke-linecap:butt;stroke-linejoin:miter;stroke-opacity:1" d="M 785.126,14.0982 791.066,12.3162 z" id="boundary" inkscape:connector-curvature="0" />
	<path style="fill:none;stroke:red;stroke-width:1px;stroke-linecap:butt;stroke-linejoin:miter;stroke-opacity:1" d="M 791.066,12.3162 797.006,11.1281 z" id="boundary" inkscape:connector-curvature="0" />
	<path style="fill:none;stroke:red;stroke-width:1px;stroke-linecap:butt;stroke-linejoin:miter;stroke-opacity:1" d="M 797.006,11.1281 802.946,9.94012 z" id="boundary" inkscape:connector-curvature="0" />
	<path style="fill:none;stroke:red;stroke-width:1px;stroke-linecap:butt;stroke-linejoin:miter;stroke-opacity:1" d="M 802.946,9.94012 808.886,8.15808 z" id="boundary" inkscape:connector-curvature="0" />
	<path style="fill:none;stroke:red;stroke-width:1px;stroke-linecap:butt;stroke-linejoin:miter;stroke-opacity:1" d="M 808.886,8.15808 814.826,7.56407 z" id="boundary" inkscape:connector-curvature="0" />
	<path style="fill:none;stroke:red;stroke-width:1px;stroke-linecap:butt;stroke-linejoin:miter;stroke-opacity:1" d="M 814.826,7.56407 820.766,6.97006 z" id="boundary" inkscape:connector-curvature="0" />
	<path style="fill:none;stroke:red;stroke-width:1px;stroke-linecap:butt;stroke-linejoin:miter;stroke-opacity:1" d="M 820.766,6.97006 826.707,5.78204 z" id="boundary" inkscape:connector-curvature="0" />
	<path style="fill:none;stroke:red;stroke-width:1px;stroke-linecap:butt;stroke-linejoin:miter;stroke-opacity:1" d="M 826.707,5.78204 832.647,5.18802 z" id="boundary" inkscape:connector-curvature="0" />
	<path style="fill:none;stroke:red;stroke-width:1px;stroke-linecap:butt;stroke-linejoin:miter;stroke-opacity:1" d="M 832.647,5.18802 838.587,5.18802 z" id="boundary" inkscape:connector-curvature="0" />
	<path style="fill:none;stroke:red;stroke-width:1px;stroke-linecap:butt;stroke-linejoin:miter;stroke-opacity:1" d="M 838.587,5.18802 844.527,4.59401 z" id="boundary" inkscape:connector-curvature="0" />
	<path style="fill:none;stroke:red;stroke-width:1px;stroke-linecap:butt;stroke-linejoin:miter;stroke-opacity:1" d="M 844.527,4.59401 850.467,4 z" id="boundary" inkscape:connector-curvature="0" />
	<path style="fill:none;stroke:red;stroke-width:1px;stroke-linecap:butt;stroke-linejoin:miter;stroke-opacity:1" d="M 850.467,4 856.407,4 z" id="boundary" inkscape:connector-curvature="0" />
	<path style="fill:none;stroke:red;stroke-width:1px;stroke-linecap:butt;stroke-linejoin:miter;stroke-opacity:1" d="M 856.407,4 862.347,4 z" id="boundary" inkscape:connector-curvature="0" />
	<path style="fill:none;stroke:red;stroke-width:1px;stroke-linecap:butt;stroke-linejoin:miter;stroke-opacity:1" d="M 862.347,4 868.287,4 z" id="boundary" inkscape:connector-curvature="0" />
	<path style="fill:none;stroke:red;stroke-width:1px;stroke-linecap:butt;stroke-linejoin:miter;stroke-opacity:1" d="M 868.287,4 874.228,4.59401 z" id="boundary" inkscape:connector-curvature="0" />
	<path style="fill:none;stroke:red;stroke-width:1px;stroke-linecap:butt;stroke-linejoin:miter;stroke-opacity:1" d="M 874.228,4.59401 880.168,5.18802 z" id="boundary" inkscape:connector-curvature="0" />
	<path style="fill:none;stroke:red;stroke-width:1px;stroke-linecap:butt;stroke-linejoin:miter;stroke-opacity:1" d="M 880.168,5.18802 886.108,5.18802 z" id="boundary" inkscape:connector-curvature="0" />
	<path style="fill:none;stroke:red;stroke-width:1px;stroke-linecap:butt;stroke-linejoin:miter;stroke-opacity:1" d="M 886.108,5.18802 892.048,6.37605 z" id="boundary" inkscape:connector-curvature="0" />
	<path style="fill:none;stroke:red;stroke-width:1px;stroke-linecap:butt;stroke-linejoin:miter;stroke-opacity:1" d="M 892.048,6.37605 897.988,6.97006 z" id="boundary" inkscape:connector-curvature="0" />
	<path style="fill:none;stroke:red;stroke-width:1px;stroke-linecap:butt;stroke-linejoin:miter;stroke-opacity:1" d="M 897.988,6.97006 903.928,8.15808 z" id="boundary" inkscape:connector-curvature="0" />
	<path style="fill:none;stroke:red;stroke-width:1px;stroke-linecap:butt;stroke-linejoin:miter;stroke-opacity:1" d="M 903.928,8.15808 909.868,9.34611 z" id="boundary" inkscape:connector-curvature="0" />
	<path style="fill:none;stroke:red;stroke-width:1px;stroke-linecap:butt;stroke-linejoin:miter;stroke-opacity:1" d="M 909.868,9.34611 915.808,10.5341 z" id="boundary" inkscape:connector-curvature="0" />
	<path style="fill:none;stroke:red;stroke-width:1px;stroke-linecap:butt;stroke-linejoin:miter;stroke-opacity:1" d="M 915.808,10.5341 921.749,12.3162 z" id="boundary" inkscape:connector-curvature="0" />
	<path style="fill:none;stroke:red;stroke-width:1px;stroke-linecap:butt;stroke-linejoin:miter;stroke-opacity:1" d="M 921.749,12.3162 927.689,14.6922 z" id="boundary" inkscape:connector-curvature="0" />
	<path style="fill:none;stroke:red;stroke-width:1px;stroke-linecap:butt;stroke-linejoin:miter;stroke-opacity:1" d="M 927.689,14.6922 933.629,16.4743 z" id="boundary" inkscape:connector-curvature="0" />
	<path style="fill:none;stroke:red;stroke-width:1px;stroke-linecap:butt;stroke-linejoin:miter;stroke-opacity:1" d="M 933.629,16.4743 938.975,19.4443 z" id="boundary" inkscape:connector-curvature="0" />
	<path style="fill:none;stroke:red;stroke-width:1px;stroke-linecap:butt;stroke-linejoin:miter;stroke-opacity:1" d="M 938.975,19.4443 944.321,22.4144 z" id="boundary" inkscape:connector-curvature="0" />
	<path style="fill:none;stroke:red;stroke-width:1px;stroke-linecap:butt;stroke-linejoin:miter;stroke-opacity:1" d="M 944.321,22.4144 950.261,24.1964 z" id="boundary" inkscape:connector-curvature="0" />
	<path style="fill:none;stroke:red;stroke-width:1px;stroke-linecap:butt;stroke-linejoin:miter;stroke-opacity:1" d="M 950.261,24.1964 955.607,27.1665 z" id="boundary" inkscape:connector-curvature="0" />
	<path style="fill:none;stroke:red;stroke-width:1px;stroke-linecap:butt;stroke-linejoin:miter;stroke-opacity:1" d="M 955.607,27.1665 960.359,30.7305 z" id="boundary" inkscape:connector-curvature="0" />
	<path style="fill:none;stroke:red;stroke-width:1px;stroke-linecap:butt;stroke-linejoin:miter;stroke-opacity:1" d="M 960.359,30.7305 965.111,34.2946 z" id="boundary" inkscape:connector-curvature="0" />
	<path style="fill:none;stroke:red;stroke-width:1px;stroke-linecap:butt;stroke-linejoin:miter;stroke-opacity:1" d="M 965.111,34.2946 969.863,37.8587 z" id="boundary" inkscape:connector-curvature="0" />
	<path style="fill:none;stroke:red;stroke-width:1px;stroke-linecap:butt;stroke-linejoin:miter;stroke-opacity:1" d="M 969.863,37.8587 973.428,42.6108 z" id="boundary" inkscape:connector-curvature="0" />
	<path style="fill:none;stroke:red;stroke-width:1px;stroke-linecap:butt;stroke-linejoin:miter;stroke-opacity:1" d="M 973.428,42.6108 976.992,47.3629 z" id="boundary" inkscape:connector-curvature="0" />
	<path style="fill:none;stroke:red;stroke-width:1px;stroke-linecap:butt;stroke-linejoin:miter;stroke-opacity:1" d="M 976.992,47.3629 980.556,52.115 z" id="boundary" inkscape:connector-curvature="0" />
	<path style="fill:none;stroke:red;stroke-width:1px;stroke-linecap:butt;stroke-linejoin:miter;stroke-opacity:1" d="M 980.556,52.115 983.526,57.4611 z" id="boundary" inkscape:connector-curvature="0" />
	<path style="fill:none;stroke:red;stroke-width:1px;stroke-linecap:butt;stroke-linejoin:miter;stroke-opacity:1" d="M 983.526,57.4611 986.496,62.8072 z" id="boundary" inkscape:connector-curvature="0" />
	<path style="fill:none;stroke:red;stroke-width:1px;stroke-linecap:butt;stroke-linejoin:miter;stroke-opacity:1" d="M 986.496,62.8072 988.872,68.7473 z" id="boundary" inkscape:connector-curvature="0" />
	<path style="fill:none;stroke:red;stroke-width:1px;stroke-linecap:butt;stroke-linejoin:miter;stroke-opacity:1" d="M 988.872,68.7473 991.842,74.0934 z" id="boundary" inkscape:connector-curvature="0" />
	<path style="fill:none;stroke:red;stroke-width:1px;stroke-linecap:butt;stroke-linejoin:miter;stroke-opacity:1" d="M 991.842,74.0934 993.03,80.0335 z" id="boundary" inkscape:connector-curvature="0" />
	<path style="fill:none;stroke:red;stroke-width:1px;stroke-linecap:butt;stroke-linejoin:miter;stroke-opacity:1" d="M 993.03,80.0335 994.812,85.9737 z" id="boundary" inkscape:connector-curvature="0" />
	<path style="fill:none;stroke:red;stroke-width:1px;stroke-linecap:butt;stroke-linejoin:miter;stroke-opacity:1" d="M 994.812,85.9737 994.812,91.9138 z" id="boundary" inkscape:connector-curvature="0" />
	<path style="fill:none;stroke:red;stroke-width:1px;stroke-linecap:butt;stroke-linejoin:miter;stroke-opacity:1" d="M 994.812,91.9138 996,97.8539 z" id="boundary" inkscape:connector-curvature="0" />
	<path style="fill:none;stroke:red;stroke-width:1px;stroke-linecap:butt;stroke-linejoin:miter;stroke-opacity:1" d="M 987.684,140.623 991.248,134.683 z" id="boundary" inkscape:connector-curvature="0" />
	<path style="fill:none;stroke:red;stroke-width:1px;stroke-linecap:butt;stroke-linejoin:miter;stroke-opacity:1" d="M 991.248,134.683 993.03,128.743 z" id="boundary" inkscape:connector-curvature="0" />
	<path style="fill:none;stroke:red;stroke-width:1px;stroke-linecap:butt;stroke-linejoin:miter;stroke-opacity:1" d="M 993.03,128.743 994.812,122.802 z" id="boundary" inkscape:connector-curvature="0" />
	<path style="fill:none;stroke:red;stroke-width:1px;stroke-linecap:butt;stroke-linejoin:miter;stroke-opacity:1" d="M 996,97.8539 994.812,105.576 z" id="boundary" inkscape:connector-curvature="0" />
	<path style="fill:none;stroke:red;stroke-width:1px;stroke-linecap:butt;stroke-linejoin:miter;stroke-opacity:1" d="M 994.812,105.576 996,111.516 z" id="boundary" inkscape:connector-curvature="0" />
	<path style="fill:none;stroke:red;stroke-width:1px;stroke-linecap:butt;stroke-linejoin:miter;stroke-opacity:1" d="M 996,111.516 994.812,122.802 z" id="boundary" inkscape:connector-curvature="0" />
	<circle cx="4" cy="131.713" r="4" fill="#0" id="circle0"/>
	<circle cx="5.18802" cy="137.653" r="4" fill="#0" id="circle1"/>
	<circle cx="6.97006" cy="126.366" r="4" fill="#0" id="circle2"/>
	<circle cx="8.7521" cy="142.405" r="4" fill="#0" id="circle3"/>
	<circle cx="10.5341" cy="121.614" r="4" fill="#0" id="circle4"/>
	<circle cx="13.5042" cy="146.563" r="4" fill="#0" id="circle5"/>
	<circle cx="15.2862" cy="116.862" r="4" fill="#0" id="circle6"/>
	<circle cx="18.2563" cy="150.127" r="4" fill="#0" id="circle7"/>
	<circle cx="21.2263" cy="114.486" r="4" fill="#0" id="circle8"/>
	<circle cx="23.6024" cy="153.097" r="4" fill="#0" id="circle9"/>
	<circle cx="27.1665" cy="113.892" r="4" fill="#0" id="circle10"/>
	<circle cx="29.5425" cy="154.285" r="4" fill="#0" id="circle11"/>
	<circle cx="33.1066" cy="112.11" r="4" fill="#0" id="circle12"/>
	<circle cx="35.4826" cy="154.285" r="4" fill="#0" id="circle13"/>
	<circle cx="39.0467" cy="111.516" r="4" fill="#0" id="circle14"/>
	<circle cx="41.4228" cy="154.285" r="4" fill="#0" id="circle15"/>
	<circle cx="44.9868" cy="111.516" r="4" fill="#0" id="circle16"/>
	<circle cx="47.3629" cy="154.285" r="4" fill="#0" id="circle17"/>
	<circle cx="50.9269" cy="110.922" r="4" fill="#0" id="circle18"/>
	<circle cx="53.303" cy="154.285" r="4" fill="#0" id="circle19"/>
	<circle cx="56.8671" cy="110.328" r="4" fill="#0" id="circle20"/>
	<circle cx="59.2431" cy="153.691" r="4" fill="#0" id="circle21"/>
	<circle cx="62.8072" cy="109.734" r="4" fill="#0" id="circle22"/>
	<circle cx="65.1832" cy="152.503" r="4" fill="#0" id="circle23"/>
	<circle cx="68.7473" cy="109.14" r="4" fill="#0" id="circle24"/>
	<circle cx="71.1234" cy="151.909" r="4" fill="#0" id="circle25"/>
	<circle cx="74.6874" cy="108.546" r="4" fill="#0" id="circle26"/>
	<circle cx="77.0635" cy="151.909" r="4" fill="#0" id="circle27"/>
	<circle cx="80.6275" cy="107.952" r="4" fill="#0" id="circle28"/>
	<circle cx="83.0036" cy="151.315" r="4" fill="#0" id="circle29"/>
	<circle cx="86.5677" cy="107.952" r="4" fill="#0" id="circle30"/>
	<circle cx="88.9437" cy="151.315" r="4" fill="#0" id="circle31"/>
	<circle cx="92.5078" cy="107.358" r="4" fill="#0" id="circle32"/>
	<circle cx="94.8838" cy="150.721" r="4" fill="#0" id="circle33"/>
	<circle cx="98.4479" cy="106.17" r="4" fill="#0" id="circle34"/>
	<circle cx="100.824" cy="150.127" r="4" fill="#0" id="circle35"/>
	<circle cx="104.388" cy="106.17" r="4" fill="#0" id="circle36"/>
	<circle cx="106.764" cy="149.533" r="4" fill="#0" id="circle37"/>
	<circle cx="110.328" cy="105.576" r="4" fill="#0" id="circle38"/>
	<circle cx="112.704" cy="148.345" r="4" fill="#0" id="circle39"/>
	<circle cx="116.268" cy="104.982" r="4" fill="#0" id="circle40"/>
	<circle cx="118.644" cy="147.751" r="4" fill="#0" id="circle41"/>
	<circle cx="122.208" cy="104.388" r="4" fill="#0" id="circle42"/>
	<circle cx="124.584" cy="147.157" r="4" fill="#0" id="circle43"/>
	<circle cx="128.149" cy="103.794" r="4" fill="#0" id="circle44"/>
	<circle cx="130.525" cy="147.157" r="4" fill="#0" id="circle45"/>
	<circle cx="134.089" cy="103.794" r="4" fill="#0" id="circle46"/>
	<circle cx="136.465" cy="146.563" r="4" fill="#0" id="circle47"/>
	<circle cx="140.029" cy="102.606" r="4" fill="#0" id="circle48"/>
	<circle cx="142.405" cy="145.969" r="4" fill="#0" id="circle49"/>
	<circle cx="145.969" cy="102.606" r="4" fill="#0" id="circle50"/>
	<circle cx="148.345" cy="145.375" r="4" fill="#0" id="circle51"/>
	<circle cx="151.909" cy="102.012" r="4" fill="#0" id="circle52"/>
	<circle cx="154.285" cy="144.781" r="4" fill="#0" id="circle53"/>
	<circle cx="157.849" cy="101.418" r="4" fill="#0" id="circle54"/>
	<circle cx="160.225" cy="144.187" r="4" fill="#0" id="circle55"/>
	<circle cx="163.789" cy="100.824" r="4" fill="#0" id="circle56"/>
	<circle cx="166.165" cy="144.187" r="4" fill="#0" id="circle57"/>
	<circle cx="169.729" cy="100.23" r="4" fill="#0" id="circle58"/>
	<circle cx="172.105" cy="143.593" r="4" fill="#0" id="circle59"/>
	<circle cx="175.669" cy="100.23" r="4" fill="#0" id="circle60"/>
	<circle cx="178.046" cy="142.999" r="4" fill="#0" id="circle61"/>
	<circle cx="181.61" cy="99.6359" r="4" fill="#0" id="circle62"/>
	<circle cx="183.986" cy="142.405" r="4" fill="#0" id="circle63"/>
	<circle cx="187.55" cy="99.0419" r="4" fill="#0" id="circle64"/>
	<circle cx="189.926" cy="142.405" r="4" fill="#0" id="circle65"/>
	<circle cx="193.49" cy="98.4479" r="4" fill="#0" id="circle66"/>
	<circle cx="195.866" cy="142.405" r="4" fill="#0" id="circle67"/>
	<circle cx="199.43" cy="98.4479" r="4" fill="#0" id="circle68"/>
	<circle cx="201.806" cy="141.811" r="4" fill="#0" id="circle69"/>
	<circle cx="205.37" cy="97.8539" r="4" fill="#0" id="circle70"/>
	<circle cx="207.746" cy="140.623" r="4" fill="#0" id="circle71"/>
	<circle cx="211.31" cy="97.2599" r="4" fill="#0" id="circle72"/>
	<circle cx="213.686" cy="140.029" r="4" fill="#0" id="circle73"/>
	<circle cx="217.25" cy="96.6659" r="4" fill="#0" id="circle74"/>
	<circle cx="219.626" cy="139.435" r="4" fill="#0" id="circle75"/>
	<circle cx="223.19" cy="96.6659" r="4" fill="#0" id="circle76"/>
	<circle cx="225.566" cy="138.841" r="4" fill="#0" id="circle77"/>
	<circle cx="229.131" cy="96.0719" r="4" fill="#0" id="circle78"/>
	<circle cx="231.507" cy="138.247" r="4" fill="#0" id="circle79"/>
	<circle cx="235.071" cy="95.4778" r="4" fill="#0" id="circle80"/>
	<circle cx="237.447" cy="137.653" r="4" fill="#0" id="circle81"/>
	<circle cx="241.011" cy="95.4778" r="4" fill="#0" id="circle82"/>
	<circle cx="243.387" cy="137.059" r="4" fill="#0" id="circle83"/>
	<circle cx="246.951" cy="94.8838" r="4" fill="#0" id="circle84"/>
	<circle cx="249.327" cy="137.059" r="4" fill="#0" id="circle85"/>
	<circle cx="252.891" cy="94.2898" r="4" fill="#0" id="circle86"/>
	<circle cx="255.267" cy="137.059" r="4" fill="#0" id="circle87"/>
	<circle cx="258.831" cy="94.2898" r="4" fill="#0" id="circle88"/>
	<circle cx="261.207" cy="136.465" r="4" fill="#0" id="circle89"/>
	<circle cx="264.771" cy="93.6958" r="4" fill="#0" id="circle90"/>
	<circle cx="267.147" cy="135.871" r="4" fill="#0" id="circle91"/>
	<circle cx="270.711" cy="93.1018" r="4" fill="#0" id="circle92"/>
	<circle cx="273.087" cy="135.277" r="4" fill="#0" id="circle93"/>
	<circle cx="276.651" cy="92.5078" r="4" fill="#0" id="circle94"/>
	<circle cx="279.028" cy="135.277" r="4" fill="#0" id="circle95"/>
	<circle cx="282.592" cy="92.5078" r="4" fill="#0" id="circle96"/>
	<circle cx="284.968" cy="134.683" r="4" fill="#0" id="circle97"/>
	<circle cx="288.532" cy="91.9138" r="4" fill="#0" id="circle98"/>
	<circle cx="290.908" cy="134.089" r="4" fill="#0" id="circle99"/>
	<circle cx="294.472" cy="91.3198" r="4" fill="#0" id="circle100"/>
	<circle cx="296.848" cy="133.495" r="4" fill="#0" id="circle101"/>
	<circle cx="300.412" cy="91.3198" r="4" fill="#0" id="circle102"/>
	<circle cx="302.788" cy="132.901" r="4" fill="#0" id="circle103"/>
	<circle cx="306.352" cy="91.3198" r="4" fill="#0" id="circle104"/>
	<circle cx="308.728" cy="132.307" r="4" fill="#0" id="circle105"/>
	<circle cx="312.292" cy="90.1317" r="4" fill="#0" id="circle106"/>
	<circle cx="314.668" cy="132.307" r="4" fill="#0" id="circle107"/>
	<circle cx="318.232" cy="90.1317" r="4" fill="#0" id="circle108"/>
	<circle cx="320.608" cy="132.307" r="4" fill="#0" id="circle109"/>
	<circle cx="324.172" cy="89.5377" r="4" fill="#0" id="circle110"/>
	<circle cx="326.549" cy="132.307" r="4" fill="#0" id="circle111"/>
	<circle cx="330.113" cy="89.5377" r="4" fill="#0" id="circle112"/>
	<circle cx="332.489" cy="132.307" r="4" fill="#0" id="circle113"/>
	<circle cx="336.053" cy="88.9437" r="4" fill="#0" id="circle114"/>
	<circle cx="338.429" cy="131.713" r="4" fill="#0" id="circle115"/>
	<circle cx="341.993" cy="88.3497" r="4" fill="#0" id="circle116"/>
	<circle cx="344.369" cy="131.119" r="4" fill="#0" id="circle117"/>
	<circle cx="347.933" cy="88.3497" r="4" fill="#0" id="circle118"/>
	<circle cx="350.309" cy="131.119" r="4" fill="#0" id="circle119"/>
	<circle cx="353.873" cy="87.7557" r="4" fill="#0" id="circle120"/>
	<circle cx="356.249" cy="131.119" r="4" fill="#0" id="circle121"/>
	<circle cx="359.813" cy="87.1617" r="4" fill="#0" id="circle122"/>
	<circle cx="362.189" cy="130.525" r="4" fill="#0" id="circle123"/>
	<circle cx="365.753" cy="87.1617" r="4" fill="#0" id="circle124"/>
	<circle cx="368.129" cy="129.931" r="4" fill="#0" id="circle125"/>
	<circle cx="371.693" cy="87.1617" r="4" fill="#0" id="circle126"/>
	<circle cx="374.069" cy="129.337" r="4" fill="#0" id="circle127"/>
	<circle cx="377.634" cy="86.5677" r="4" fill="#0" id="circle128"/>
	<circle cx="380.01" cy="128.743" r="4" fill="#0" id="circle129"/>
	<circle cx="383.574" cy="85.9737" r="4" fill="#0" id="circle130"/>
	<circle cx="385.95" cy="128.743" r="4" fill="#0" id="circle131"/>
	<circle cx="389.514" cy="85.9737" r="4" fill="#0" id="circle132"/>
	<circle cx="391.89" cy="128.743" r="4" fill="#0" id="circle133"/>
	<circle cx="395.454" cy="85.3796" r="4" fill="#0" id="circle134"/>
	<circle cx="397.83" cy="128.149" r="4" fill="#0" id="circle135"/>
	<circle cx="401.394" cy="84.7856" r="4" fill="#0" id="circle136"/>
	<circle cx="403.77" cy="128.149" r="4" fill="#0" id="circle137"/>
	<circle cx="407.334" cy="84.7856" r="4" fill="#0" id="circle138"/>
	<circle cx="409.71" cy="127.554" r="4" fill="#0" id="circle139"/>
	<circle cx="413.274" cy="84.7856" r="4" fill="#0" id="circle140"/>
	<circle cx="415.65" cy="126.96" r="4" fill="#0" id="circle141"/>
	<circle cx="419.214" cy="84.7856" r="4" fill="#0" id="circle142"/>
	<circle cx="421.59" cy="126.96" r="4" fill="#0" id="circle143"/>
	<circle cx="425.154" cy="84.1916" r="4" fill="#0" id="circle144"/>
	<circle cx="427.531" cy="126.96" r="4" fill="#0" id="circle145"/>
	<circle cx="431.095" cy="83.5976" r="4" fill="#0" id="circle146"/>
	<circle cx="433.471" cy="126.366" r="4" fill="#0" id="circle147"/>
	<circle cx="437.035" cy="83.5976" r="4" fill="#0" id="circle148"/>
	<circle cx="439.411" cy="126.366" r="4" fill="#0" id="circle149"/>
	<circle cx="442.975" cy="83.0036" r="4" fill="#0" id="circle150"/>
	<circle cx="445.351" cy="126.366" r="4" fill="#0" id="circle151"/>
	<circle cx="448.915" cy="83.0036" r="4" fill="#0" id="circle152"/>
	<circle cx="451.291" cy="126.366" r="4" fill="#0" id="circle153"/>
	<circle cx="454.855" cy="83.0036" r="4" fill="#0" id="circle154"/>
	<circle cx="457.231" cy="125.772" r="4" fill="#0" id="circle155"/>
	<circle cx="460.795" cy="83.0036" r="4" fill="#0" id="circle156"/>
	<circle cx="463.171" cy="125.178" r="4" fill="#0" id="circle157"/>
	<circle cx="466.735" cy="82.4096" r="4" fill="#0" id="circle158"/>
	<circle cx="469.111" cy="125.178" r="4" fill="#0" id="circle159"/>
	<circle cx="472.675" cy="82.4096" r="4" fill="#0" id="circle160"/>
	<circle cx="475.051" cy="125.178" r="4" fill="#0" id="circle161"/>
	<circle cx="478.616" cy="82.4096" r="4" fill="#0" id="circle162"/>
	<circle cx="480.992" cy="124.584" r="4" fill="#0" id="circle163"/>
	<circle cx="484.556" cy="81.8156" r="4" fill="#0" id="circle164"/>
	<circle cx="486.932" cy="124.584" r="4" fill="#0" id="circle165"/>
	<circle cx="490.496" cy="81.8156" r="4" fill="#0" id="circle166"/>
	<circle cx="492.872" cy="124.584" r="4" fill="#0" id="circle167"/>
	<circle cx="496.436" cy="81.2216" r="4" fill="#0" id="circle168"/>
	<circle cx="498.812" cy="124.584" r="4" fill="#0" id="circle169"/>
	<circle cx="502.376" cy="81.2216" r="4" fill="#0" id="circle170"/>
	<circle cx="504.752" cy="124.584" r="4" fill="#0" id="circle171"/>
	<circle cx="508.316" cy="81.2216" r="4" fill="#0" id="circle172"/>
	<circle cx="510.692" cy="123.99" r="4" fill="#0" id="circle173"/>
	<circle cx="514.256" cy="81.2216" r="4" fill="#0" id="circle174"/>
	<circle cx="516.632" cy="123.99" r="4" fill="#0" id="circle175"/>
	<circle cx="520.196" cy="80.6275" r="4" fill="#0" id="circle176"/>
	<circle cx="522.572" cy="123.396" r="4" fill="#0" id="circle177"/>
	<circle cx="526.137" cy="80.6275" r="4" fill="#0" id="circle178"/>
	<circle cx="528.513" cy="123.396" r="4" fill="#0" id="circle179"/>
	<circle cx="532.077" cy="80.0335" r="4" fill="#0" id="circle180"/>
	<circle cx="534.453" cy="123.396" r="4" fill="#0" id="circle181"/>
	<circle cx="538.017" cy="80.0335" r="4" fill="#0" id="circle182"/>
	<circle cx="540.393" cy="122.802" r="4" fill="#0" id="circle183"/>
	<circle cx="543.957" cy="80.0335" r="4" fill="#0" id="circle184"/>
	<circle cx="546.333" cy="123.396" r="4" fill="#0" id="circle185"/>
	<circle cx="549.897" cy="80.0335" r="4" fill="#0" id="circle186"/>
	<circle cx="552.273" cy="122.802" r="4" fill="#0" id="circle187"/>
	<circle cx="555.837" cy="79.4395" r="4" fill="#0" id="circle188"/>
	<circle cx="558.213" cy="122.802" r="4" fill="#0" id="circle189"/>
	<circle cx="561.777" cy="80.0335" r="4" fill="#0" id="circle190"/>
	<circle cx="564.153" cy="122.802" r="4" fill="#0" id="circle191"/>
	<circle cx="567.717" cy="80.0335" r="4" fill="#0" id="circle192"/>
	<circle cx="570.093" cy="122.208" r="4" fill="#0" id="circle193"/>
	<circle cx="573.657" cy="79.4395" r="4" fill="#0" id="circle194"/>
	<circle cx="576.034" cy="122.208" r="4" fill="#0" id="circle195"/>
	<circle cx="579.598" cy="78.8455" r="4" fill="#0" id="circle196"/>
	<circle cx="581.974" cy="122.208" r="4" fill="#0" id="circle197"/>
	<circle cx="585.538" cy="78.8455" r="4" fill="#0" id="circle198"/>
	<circle cx="587.914" cy="122.208" r="4" fill="#0" id="circle199"/>
	<circle cx="591.478" cy="78.8455" r="4" fill="#0" id="circle200"/>
	<circle cx="593.854" cy="122.208" r="4" fill="#0" id="circle201"/>
	<circle cx="597.418" cy="78.2515" r="4" fill="#0" id="circle202"/>
	<circle cx="599.794" cy="122.208" r="4" fill="#0" id="circle203"/>
	<circle cx="603.358" cy="78.2515" r="4" fill="#0" id="circle204"/>
	<circle cx="605.734" cy="121.614" r="4" fill="#0" id="circle205"/>
	<circle cx="609.298" cy="78.2515" r="4" fill="#0" id="circle206"/>
	<circle cx="611.674" cy="121.614" r="4" fill="#0" id="circle207"/>
	<circle cx="615.238" cy="77.6575" r="4" fill="#0" id="circle208"/>
	<circle cx="617.614" cy="121.02" r="4" fill="#0" id="circle209"/>
	<circle cx="621.178" cy="77.6575" r="4" fill="#0" id="circle210"/>
	<circle cx="623.554" cy="121.02" r="4" fill="#0" id="circle211"/>
	<circle cx="627.119" cy="77.6575" r="4" fill="#0" id="circle212"/>
	<circle cx="629.495" cy="120.426" r="4" fill="#0" id="circle213"/>
	<circle cx="633.059" cy="77.6575" r="4" fill="#0" id="circle214"/>
	<circle cx="635.435" cy="120.426" r="4" fill="#0" id="circle215"/>
	<circle cx="638.999" cy="77.6575" r="4" fill="#0" id="circle216"/>
	<circle cx="641.375" cy="121.02" r="4" fill="#0" id="circle217"/>
	<circle cx="644.939" cy="77.6575" r="4" fill="#0" id="circle218"/>
	<circle cx="647.315" cy="121.02" r="4" fill="#0" id="circle219"/>
	<circle cx="650.879" cy="77.0635" r="4" fill="#0" id="circle220"/>
	<circle cx="653.255" cy="121.02" r="4" fill="#0" id="circle221"/>
	<circle cx="656.819" cy="76.4695" r="4" fill="#0" id="circle222"/>
	<circle cx="659.195" cy="121.614" r="4" fill="#0" id="circle223"/>
	<circle cx="662.759" cy="75.2814" r="4" fill="#0" id="circle224"/>
	<circle cx="665.135" cy="122.802" r="4" fill="#0" id="circle225"/>
	<circle cx="668.699" cy="72.9054" r="4" fill="#0" id="circle226"/>
	<circle cx="671.075" cy="124.584" r="4" fill="#0" id="circle227"/>
	<circle cx="674.64" cy="71.1234" r="4" fill="#0" id="circle228"/>
	<circle cx="677.016" cy="125.772" r="4" fill="#0" id="circle229"/>
	<circle cx="679.986" cy="68.1533" r="4" fill="#0" id="circle230"/>
	<circle cx="682.362" cy="128.743" r="4" fill="#0" id="circle231"/>
	<circle cx="685.332" cy="65.1832" r="4" fill="#0" id="circle232"/>
	<circle cx="688.302" cy="131.119" r="4" fill="#0" id="circle233"/>
	<circle cx="690.678" cy="62.2132" r="4" fill="#0" id="circle234"/>
	<circle cx="693.648" cy="134.089" r="4" fill="#0" id="circle235"/>
	<circle cx="695.43" cy="58.6491" r="4" fill="#0" id="circle236"/>
	<circle cx="698.4" cy="137.653" r="4" fill="#0" id="circle237"/>
	<circle cx="700.182" cy="55.085" r="4" fill="#0" id="circle238"/>
	<circle cx="703.152" cy="141.217" r="4" fill="#0" id="circle239"/>
	<circle cx="704.934" cy="51.521" r="4" fill="#0" id="circle240"/>
	<circle cx="707.904" cy="144.781" r="4" fill="#0" id="circle241"/>
	<circle cx="710.28" cy="48.5509" r="4" fill="#0" id="circle242"/>
	<circle cx="712.656" cy="148.345" r="4" fill="#0" id="circle243"/>
	<circle cx="715.032" cy="44.9868" r="4" fill="#0" id="circle244"/>
	<circle cx="718.002" cy="151.315" r="4" fill="#0" id="circle245"/>
	<circle cx="720.378" cy="42.0168" r="4" fill="#0" id="circle246"/>
	<circle cx="723.349" cy="154.285" r="4" fill="#0" id="circle247"/>
	<circle cx="725.725" cy="39.0467" r="4" fill="#0" id="circle248"/>
	<circle cx="728.695" cy="157.255" r="4" fill="#0" id="circle249"/>
	<circle cx="731.665" cy="36.0766" r="4" fill="#0" id="circle250"/>
	<circle cx="733.447" cy="160.819" r="4" fill="#0" id="circle251"/>
	<circle cx="737.605" cy="33.1066" r="4" fill="#0" id="circle252"/>
	<circle cx="739.387" cy="163.195" r="4" fill="#0" id="circle253"/>
	<circle cx="743.545" cy="30.1365" r="4" fill="#0" id="circle254"/>
	<circle cx="744.733" cy="166.165" r="4" fill="#0" id="circle255"/>
	<circle cx="749.485" cy="27.7605" r="4" fill="#0" id="circle256"/>
	<circle cx="750.079" cy="169.135" r="4" fill="#0" id="circle257"/>
	<circle cx="755.425" cy="25.3844" r="4" fill="#0" id="circle258"/>
	<circle cx="756.019" cy="171.511" r="4" fill="#0" id="circle259"/>
	<circle cx="761.365" cy="22.4144" r="4" fill="#0" id="circle260"/>
	<circle cx="761.959" cy="173.887" r="4" fill="#0" id="circle261"/>
	<circle cx="767.305" cy="20.0383" r="4" fill="#0" id="circle262"/>
	<circle cx="767.305" cy="176.857" r="4" fill="#0" id="circle263"/>
	<circle cx="773.246" cy="17.6623" r="4" fill="#0" id="circle264"/>
	<circle cx="773.246" cy="178.64" r="4" fill="#0" id="circle265"/>
	<circle cx="779.186" cy="15.8802" r="4" fill="#0" id="circle266"/>
	<circle cx="779.186" cy="181.016" r="4" fill="#0" id="circle267"/>
	<circle cx="785.126" cy="14.0982" r="4" fill="#0" id="circle268"/>
	<circle cx="785.126" cy="182.798" r="4" fill="#0" id="circle269"/>
	<circle cx="791.066" cy="12.3162" r="4" fill="#0" id="circle270"/>
	<circle cx="791.066" cy="184.58" r="4" fill="#0" id="circle271"/>
	<circle cx="797.006" cy="11.1281" r="4" fill="#0" id="circle272"/>
	<circle cx="797.006" cy="186.362" r="4" fill="#0" id="circle273"/>
	<circle cx="802.946" cy="9.94012" r="4" fill="#0" id="circle274"/>
	<circle cx="802.946" cy="187.55" r="4" fill="#0" id="circle275"/>
	<circle cx="808.886" cy="8.15808" r="4" fill="#0" id="circle276"/>
	<circle cx="808.886" cy="189.332" r="4" fill="#0" id="circle277"/>
	<circle cx="814.826" cy="7.56407" r="4" fill="#0" id="circle278"/>
	<circle cx="814.826" cy="190.52" r="4" fill="#0" id="circle279"/>
	<circle cx="820.766" cy="6.97006" r="4" fill="#0" id="circle280"/>
	<circle cx="820.766" cy="191.708" r="4" fill="#0" id="circle281"/>
	<circle cx="826.707" cy="5.78204" r="4" fill="#0" id="circle282"/>
	<circle cx="826.707" cy="192.896" r="4" fill="#0" id="circle283"/>
	<circle cx="832.647" cy="5.18802" r="4" fill="#0" id="circle284"/>
	<circle cx="832.647" cy="193.49" r="4" fill="#0" id="circle285"/>
	<circle cx="838.587" cy="5.18802" r="4" fill="#0" id="circle286"/>
	<circle cx="838.587" cy="194.678" r="4" fill="#0" id="circle287"/>
	<circle cx="844.527" cy="4.59401" r="4" fill="#0" id="circle288"/>
	<circle cx="844.527" cy="195.272" r="4" fill="#0" id="circle289"/>
	<circle cx="850.467" cy="4" r="4" fill="#0" id="circle290"/>
	<circle cx="850.467" cy="195.272" r="4" fill="#0" id="circle291"/>
	<circle cx="856.407" cy="4" r="4" fill="#0" id="circle292"/>
	<circle cx="856.407" cy="195.866" r="4" fill="#0" id="circle293"/>
	<circle cx="862.347" cy="4" r="4" fill="#0" id="circle294"/>
	<circle cx="862.347" cy="195.866" r="4" fill="#0" id="circle295"/>
	<circle cx="868.287" cy="4" r="4" fill="#0" id="circle296"/>
	<circle cx="868.287" cy="195.866" r="4" fill="#0" id="circle297"/>
	<circle cx="874.228" cy="4.59401" r="4" fill="#0" id="circle298"/>
	<circle cx="874.228" cy="194.678" r="4" fill="#0" id="circle299"/>
	<circle cx="880.168" cy="5.18802" r="4" fill="#0" id="circle300"/>
	<circle cx="880.168" cy="194.678" r="4" fill="#0" id="circle301"/>
	<circle cx="886.108" cy="5.18802" r="4" fill="#0" id="circle302"/>
	<circle cx="886.108" cy="194.084" r="4" fill="#0" id="circle303"/>
	<circle cx="892.048" cy="6.37605" r="4" fill="#0" id="circle304"/>
	<circle cx="892.048" cy="193.49" r="4" fill="#0" id="circle305"/>
	<circle cx="897.988" cy="6.97006" r="4" fill="#0" id="circle306"/>
	<circle cx="897.988" cy="192.896" r="4" fill="#0" id="circle307"/>
	<circle cx="903.928" cy="8.15808" r="4" fill="#0" id="circle308"/>
	<circle cx="903.928" cy="191.708" r="4" fill="#0" id="circle309"/>
	<circle cx="909.868" cy="9.34611" r="4" fill="#0" id="circle310"/>
	<circle cx="909.868" cy="189.332" r="4" fill="#0" id="circle311"/>
	<circle cx="915.808" cy="10.5341" r="4" fill="#0" id="circle312"/>
	<circle cx="915.808" cy="188.738" r="4" fill="#0" id="circle313"/>
	<circle cx="921.749" cy="12.3162" r="4" fill="#0" id="circle314"/>
	<circle cx="921.749" cy="187.55" r="4" fill="#0" id="circle315"/>
	<circle cx="927.689" cy="14.6922" r="4" fill="#0" id="circle316"/>
	<circle cx="927.689" cy="184.58" r="4" fill="#0" id="circle317"/>
	<circle cx="933.629" cy="16.4743" r="4" fill="#0" id="circle318"/>
	<circle cx="933.629" cy="182.204" r="4" fill="#0" id="circle319"/>
	<circle cx="938.975" cy="19.4443" r="4" fill="#0" id="circle320"/>
	<circle cx="939.569" cy="179.828" r="4" fill="#0" id="circle321"/>
	<circle cx="944.321" cy="22.4144" r="4" fill="#0" id="circle322"/>
	<circle cx="944.321" cy="176.263" r="4" fill="#0" id="circle323"/>
	<circle cx="949.667" cy="173.293" r="4" fill="#0" id="circle324"/>
	<circle cx="950.261" cy="24.1964" r="4" fill="#0" id="circle325"/>
	<circle cx="954.419" cy="169.135" r="4" fill="#0" id="circle326"/>
	<circle cx="955.607" cy="27.1665" r="4" fill="#0" id="circle327"/>
	<circle cx="960.359" cy="30.7305" r="4" fill="#0" id="circle328"/>
	<circle cx="960.359" cy="166.165" r="4" fill="#0" id="circle329"/>
	<circle cx="965.111" cy="34.2946" r="4" fill="#0" id="circle330"/>
	<circle cx="965.111" cy="162.601" r="4" fill="#0" id="circle331"/>
	<circle cx="969.863" cy="37.8587" r="4" fill="#0" id="circle332"/>
	<circle cx="969.863" cy="157.849" r="4" fill="#0" id="circle333"/>
	<circle cx="973.428" cy="42.6108" r="4" fill="#0" id="circle334"/>
	<circle cx="975.804" cy="154.879" r="4" fill="#0" id="circle335"/>
	<circle cx="976.992" cy="47.3629" r="4" fill="#0" id="circle336"/>
	<circle cx="980.556" cy="52.115" r="4" fill="#0" id="circle337"/>
	<circle cx="980.556" cy="150.721" r="4" fill="#0" id="circle338"/>
	<circle cx="983.526" cy="57.4611" r="4" fill="#0" id="circle339"/>
	<circle cx="984.714" cy="145.969" r="4" fill="#0" id="circle340"/>
	<circle cx="986.496" cy="62.8072" r="4" fill="#0" id="circle341"/>
	<circle cx="987.684" cy="140.623" r="4" fill="#0" id="circle342"/>
	<circle cx="988.872" cy="68.7473" r="4" fill="#0" id="circle343"/>
	<circle cx="991.248" cy="134.683" r="4" fill="#0" id="circle344"/>
	<circle cx="991.842" cy="74.0934" r="4" fill="#0" id="circle345"/>
	<circle cx="993.03" cy="80.0335" r="4" fill="#0" id="circle346"/>
	<circle cx="993.03" cy="128.743" r="4" fill="#0" id="circle347"/>
	<circle cx="994.812" cy="85.9737" r="4" fill="#0" id="circle348"/>
	<circle cx="994.812" cy="91.9138" r="4" fill="#0" id="circle349"/>
	<circle cx="994.812" cy="105.576" r="4" fill="#0" id="circle350"/>
	<circle cx="994.812" cy="122.802" r="4" fill="#0" id="circle351"/>
	<circle cx="996" cy="97.8539" r="4" fill="#0" id="circle352"/>
	<circle cx="996" cy="111.516" r="4" fill="#0" id="circle353"/>
	</g>
</svg>