<?xml version="1.0" encoding="UTF-8" standalone="no"?>
<!-- Created with CurveBenchmark -->
<svg
	xmlns:dc="http://purl.org/dc/elements/1.1/"
	xmlns:cc="http://creativecommons.org/ns#"
	xmlns:rdf="http://www.w3.org/1999/02/22-rdf-syntax-ns#"
	xmlns:svg="http://www.w3.org/2000/svg"
	xmlns="http://www.w3.org/2000/svg"
	xmlns:sodipodi="http://sodipodi.sourceforge.net/DTD/sodipodi-0.dtd"
	xmlns:inkscape="http://www.inkscape.org/namespaces/inkscape"
	width="1000"
	height="1000"
	id="svg2"
	version="1.1"
	sodipodi:docname="manifold/crawl-sink005.png.txt">
<defs
	id="defs4" />
<metadata
	id="metadata7">
	<rdf:RDF>
		<cc:Work
			rdf:about="">
			<dc:format>image/svg+xml</dc:format>
			<dc:type
				rdf:resource="http://purl.org/dc/dcmitype/StillImage" />
			<dc:title></dc:title>
		</cc:Work>
	</rdf:RDF>
</metadata>
<g
	inkscape:label="Layer 1"
	inkscape:groupmode="layer"
	id="layer1">
	<path style="fill:none;stroke:red;stroke-width:1px;stroke-linecap:butt;stroke-linejoin:miter;stroke-opacity:1" d="M 4,236.273 4,284.663 z" id="boundary" inkscape:connector-curvature="0" />
	<path style="fill:none;stroke:red;stroke-width:1px;stroke-linecap:butt;stroke-linejoin:miter;stroke-opacity:1" d="M 4,236.273 4,187.883 z" id="boundary" inkscape:connector-curvature="0" />
	<path style="fill:none;stroke:red;stroke-width:1px;stroke-linecap:butt;stroke-linejoin:miter;stroke-opacity:1" d="M 4,284.663 42.7122,318.537 z" id="boundary" inkscape:connector-curvature="0" />
	<path style="fill:none;stroke:red;stroke-width:1px;stroke-linecap:butt;stroke-linejoin:miter;stroke-opacity:1" d="M 42.7122,318.537 91.1024,318.537 z" id="boundary" inkscape:connector-curvature="0" />
	<path style="fill:none;stroke:red;stroke-width:1px;stroke-linecap:butt;stroke-linejoin:miter;stroke-opacity:1" d="M 91.1024,318.537 139.493,318.537 z" id="boundary" inkscape:connector-curvature="0" />
	<path style="fill:none;stroke:red;stroke-width:1px;stroke-linecap:butt;stroke-linejoin:miter;stroke-opacity:1" d="M 139.493,318.537 187.883,323.376 z" id="boundary" inkscape:connector-curvature="0" />
	<path style="fill:none;stroke:red;stroke-width:1px;stroke-linecap:butt;stroke-linejoin:miter;stroke-opacity:1" d="M 187.883,323.376 197.561,371.766 z" id="boundary" inkscape:connector-curvature="0" />
	<path style="fill:none;stroke:red;stroke-width:1px;stroke-linecap:butt;stroke-linejoin:miter;stroke-opacity:1" d="M 197.561,371.766 226.595,410.478 z" id="boundary" inkscape:connector-curvature="0" />
	<path style="fill:none;stroke:red;stroke-width:1px;stroke-linecap:butt;stroke-linejoin:miter;stroke-opacity:1" d="M 226.595,410.478 265.307,439.512 z" id="boundary" inkscape:connector-curvature="0" />
	<path style="fill:none;stroke:red;stroke-width:1px;stroke-linecap:butt;stroke-linejoin:miter;stroke-opacity:1" d="M 265.307,439.512 313.698,454.029 z" id="boundary" inkscape:connector-curvature="0" />
	<path style="fill:none;stroke:red;stroke-width:1px;stroke-linecap:butt;stroke-linejoin:miter;stroke-opacity:1" d="M 313.698,454.029 362.088,468.546 z" id="boundary" inkscape:connector-curvature="0" />
	<path style="fill:none;stroke:red;stroke-width:1px;stroke-linecap:butt;stroke-linejoin:miter;stroke-opacity:1" d="M 362.088,468.546 362.088,516.937 z" id="boundary" inkscape:connector-curvature="0" />
	<path style="fill:none;stroke:red;stroke-width:1px;stroke-linecap:butt;stroke-linejoin:miter;stroke-opacity:1" d="M 362.088,516.937 362.088,565.327 z" id="boundary" inkscape:connector-curvature="0" />
	<path style="fill:none;stroke:red;stroke-width:1px;stroke-linecap:butt;stroke-linejoin:miter;stroke-opacity:1" d="M 362.088,565.327 362.088,613.717 z" id="boundary" inkscape:connector-curvature="0" />
	<path style="fill:none;stroke:red;stroke-width:1px;stroke-linecap:butt;stroke-linejoin:miter;stroke-opacity:1" d="M 362.088,613.717 362.088,662.107 z" id="boundary" inkscape:connector-curvature="0" />
	<path style="fill:none;stroke:red;stroke-width:1px;stroke-linecap:butt;stroke-linejoin:miter;stroke-opacity:1" d="M 362.088,662.107 362.088,710.498 z" id="boundary" inkscape:connector-curvature="0" />
	<path style="fill:none;stroke:red;stroke-width:1px;stroke-linecap:butt;stroke-linejoin:miter;stroke-opacity:1" d="M 362.088,710.498 362.088,758.888 z" id="boundary" inkscape:connector-curvature="0" />
	<path style="fill:none;stroke:red;stroke-width:1px;stroke-linecap:butt;stroke-linejoin:miter;stroke-opacity:1" d="M 4,187.883 52.3902,168.527 z" id="boundary" inkscape:connector-curvature="0" />
	<path style="fill:none;stroke:red;stroke-width:1px;stroke-linecap:butt;stroke-linejoin:miter;stroke-opacity:1" d="M 52.3902,168.527 100.78,168.527 z" id="boundary" inkscape:connector-curvature="0" />
	<path style="fill:none;stroke:red;stroke-width:1px;stroke-linecap:butt;stroke-linejoin:miter;stroke-opacity:1" d="M 100.78,168.527 149.171,168.527 z" id="boundary" inkscape:connector-curvature="0" />
	<path style="fill:none;stroke:red;stroke-width:1px;stroke-linecap:butt;stroke-linejoin:miter;stroke-opacity:1" d="M 149.171,168.527 187.883,120.137 z" id="boundary" inkscape:connector-curvature="0" />
	<path style="fill:none;stroke:red;stroke-width:1px;stroke-linecap:butt;stroke-linejoin:miter;stroke-opacity:1" d="M 187.883,120.137 187.883,71.7463 z" id="boundary" inkscape:connector-curvature="0" />
	<path style="fill:none;stroke:red;stroke-width:1px;stroke-linecap:butt;stroke-linejoin:miter;stroke-opacity:1" d="M 187.883,71.7463 212.078,28.1951 z" id="boundary" inkscape:connector-curvature="0" />
	<path style="fill:none;stroke:red;stroke-width:1px;stroke-linecap:butt;stroke-linejoin:miter;stroke-opacity:1" d="M 212.078,28.1951 255.629,4 z" id="boundary" inkscape:connector-curvature="0" />
	<path style="fill:none;stroke:red;stroke-width:1px;stroke-linecap:butt;stroke-linejoin:miter;stroke-opacity:1" d="M 255.629,4 294.341,37.8732 z" id="boundary" inkscape:connector-curvature="0" />
	<path style="fill:none;stroke:red;stroke-width:1px;stroke-linecap:butt;stroke-linejoin:miter;stroke-opacity:1" d="M 294.341,37.8732 333.054,71.7463 z" id="boundary" inkscape:connector-curvature="0" />
	<path style="fill:none;stroke:red;stroke-width:1px;stroke-linecap:butt;stroke-linejoin:miter;stroke-opacity:1" d="M 362.088,758.888 352.41,826.634 z" id="boundary" inkscape:connector-curvature="0" />
	<path style="fill:none;stroke:red;stroke-width:1px;stroke-linecap:butt;stroke-linejoin:miter;stroke-opacity:1" d="M 352.41,826.634 333.054,904.059 z" id="boundary" inkscape:connector-curvature="0" />
	<path style="fill:none;stroke:red;stroke-width:1px;stroke-linecap:butt;stroke-linejoin:miter;stroke-opacity:1" d="M 333.054,904.059 304.02,952.449 z" id="boundary" inkscape:connector-curvature="0" />
	<path style="fill:none;stroke:red;stroke-width:1px;stroke-linecap:butt;stroke-linejoin:miter;stroke-opacity:1" d="M 304.02,952.449 328.215,996 z" id="boundary" inkscape:connector-curvature="0" />
	<path style="fill:none;stroke:red;stroke-width:1px;stroke-linecap:butt;stroke-linejoin:miter;stroke-opacity:1" d="M 328.215,996 376.605,996 z" id="boundary" inkscape:connector-curvature="0" />
	<path style="fill:none;stroke:red;stroke-width:1px;stroke-linecap:butt;stroke-linejoin:miter;stroke-opacity:1" d="M 376.605,996 424.995,996 z" id="boundary" inkscape:connector-curvature="0" />
	<path style="fill:none;stroke:red;stroke-width:1px;stroke-linecap:butt;stroke-linejoin:miter;stroke-opacity:1" d="M 424.995,996 473.385,996 z" id="boundary" inkscape:connector-curvature="0" />
	<path style="fill:none;stroke:red;stroke-width:1px;stroke-linecap:butt;stroke-linejoin:miter;stroke-opacity:1" d="M 473.385,996 521.776,996 z" id="boundary" inkscape:connector-curvature="0" />
	<path style="fill:none;stroke:red;stroke-width:1px;stroke-linecap:butt;stroke-linejoin:miter;stroke-opacity:1" d="M 521.776,996 570.166,996 z" id="boundary" inkscape:connector-curvature="0" />
	<path style="fill:none;stroke:red;stroke-width:1px;stroke-linecap:butt;stroke-linejoin:miter;stroke-opacity:1" d="M 570.166,996 570.166,937.932 z" id="boundary" inkscape:connector-curvature="0" />
	<path style="fill:none;stroke:red;stroke-width:1px;stroke-linecap:butt;stroke-linejoin:miter;stroke-opacity:1" d="M 570.166,937.932 545.971,894.38 z" id="boundary" inkscape:connector-curvature="0" />
	<path style="fill:none;stroke:red;stroke-width:1px;stroke-linecap:butt;stroke-linejoin:miter;stroke-opacity:1" d="M 545.971,894.38 531.454,845.99 z" id="boundary" inkscape:connector-curvature="0" />
	<path style="fill:none;stroke:red;stroke-width:1px;stroke-linecap:butt;stroke-linejoin:miter;stroke-opacity:1" d="M 531.454,845.99 531.454,797.6 z" id="boundary" inkscape:connector-curvature="0" />
	<path style="fill:none;stroke:red;stroke-width:1px;stroke-linecap:butt;stroke-linejoin:miter;stroke-opacity:1" d="M 531.454,797.6 531.454,749.21 z" id="boundary" inkscape:connector-curvature="0" />
	<path style="fill:none;stroke:red;stroke-width:1px;stroke-linecap:butt;stroke-linejoin:miter;stroke-opacity:1" d="M 531.454,749.21 531.454,700.82 z" id="boundary" inkscape:connector-curvature="0" />
	<path style="fill:none;stroke:red;stroke-width:1px;stroke-linecap:butt;stroke-linejoin:miter;stroke-opacity:1" d="M 531.454,700.82 531.454,652.429 z" id="boundary" inkscape:connector-curvature="0" />
	<path style="fill:none;stroke:red;stroke-width:1px;stroke-linecap:butt;stroke-linejoin:miter;stroke-opacity:1" d="M 531.454,652.429 531.454,604.039 z" id="boundary" inkscape:connector-curvature="0" />
	<path style="fill:none;stroke:red;stroke-width:1px;stroke-linecap:butt;stroke-linejoin:miter;stroke-opacity:1" d="M 531.454,604.039 531.454,555.649 z" id="boundary" inkscape:connector-curvature="0" />
	<path style="fill:none;stroke:red;stroke-width:1px;stroke-linecap:butt;stroke-linejoin:miter;stroke-opacity:1" d="M 531.454,555.649 531.454,507.259 z" id="boundary" inkscape:connector-curvature="0" />
	<path style="fill:none;stroke:red;stroke-width:1px;stroke-linecap:butt;stroke-linejoin:miter;stroke-opacity:1" d="M 531.454,507.259 531.454,458.868 z" id="boundary" inkscape:connector-curvature="0" />
	<path style="fill:none;stroke:red;stroke-width:1px;stroke-linecap:butt;stroke-linejoin:miter;stroke-opacity:1" d="M 531.454,458.868 531.454,410.478 z" id="boundary" inkscape:connector-curvature="0" />
	<path style="fill:none;stroke:red;stroke-width:1px;stroke-linecap:butt;stroke-linejoin:miter;stroke-opacity:1" d="M 531.454,410.478 560.488,362.088 z" id="boundary" inkscape:connector-curvature="0" />
	<path style="fill:none;stroke:red;stroke-width:1px;stroke-linecap:butt;stroke-linejoin:miter;stroke-opacity:1" d="M 560.488,362.088 584.683,318.537 z" id="boundary" inkscape:connector-curvature="0" />
	<path style="fill:none;stroke:red;stroke-width:1px;stroke-linecap:butt;stroke-linejoin:miter;stroke-opacity:1" d="M 584.683,318.537 633.073,318.537 z" id="boundary" inkscape:connector-curvature="0" />
	<path style="fill:none;stroke:red;stroke-width:1px;stroke-linecap:butt;stroke-linejoin:miter;stroke-opacity:1" d="M 633.073,318.537 681.463,318.537 z" id="boundary" inkscape:connector-curvature="0" />
	<path style="fill:none;stroke:red;stroke-width:1px;stroke-linecap:butt;stroke-linejoin:miter;stroke-opacity:1" d="M 681.463,318.537 695.98,265.307 z" id="boundary" inkscape:connector-curvature="0" />
	<path style="fill:none;stroke:red;stroke-width:1px;stroke-linecap:butt;stroke-linejoin:miter;stroke-opacity:1" d="M 695.98,265.307 647.59,265.307 z" id="boundary" inkscape:connector-curvature="0" />
	<path style="fill:none;stroke:red;stroke-width:1px;stroke-linecap:butt;stroke-linejoin:miter;stroke-opacity:1" d="M 647.59,265.307 599.2,265.307 z" id="boundary" inkscape:connector-curvature="0" />
	<path style="fill:none;stroke:red;stroke-width:1px;stroke-linecap:butt;stroke-linejoin:miter;stroke-opacity:1" d="M 599.2,265.307 550.81,265.307 z" id="boundary" inkscape:connector-curvature="0" />
	<path style="fill:none;stroke:red;stroke-width:1px;stroke-linecap:butt;stroke-linejoin:miter;stroke-opacity:1" d="M 550.81,265.307 502.42,260.468 z" id="boundary" inkscape:connector-curvature="0" />
	<path style="fill:none;stroke:red;stroke-width:1px;stroke-linecap:butt;stroke-linejoin:miter;stroke-opacity:1" d="M 502.42,260.468 478.224,216.917 z" id="boundary" inkscape:connector-curvature="0" />
	<path style="fill:none;stroke:red;stroke-width:1px;stroke-linecap:butt;stroke-linejoin:miter;stroke-opacity:1" d="M 478.224,216.917 463.707,168.527 z" id="boundary" inkscape:connector-curvature="0" />
	<path style="fill:none;stroke:red;stroke-width:1px;stroke-linecap:butt;stroke-linejoin:miter;stroke-opacity:1" d="M 463.707,168.527 415.317,168.527 z" id="boundary" inkscape:connector-curvature="0" />
	<path style="fill:none;stroke:red;stroke-width:1px;stroke-linecap:butt;stroke-linejoin:miter;stroke-opacity:1" d="M 415.317,168.527 366.927,168.527 z" id="boundary" inkscape:connector-curvature="0" />
	<path style="fill:none;stroke:red;stroke-width:1px;stroke-linecap:butt;stroke-linejoin:miter;stroke-opacity:1" d="M 366.927,168.527 318.537,168.527 z" id="boundary" inkscape:connector-curvature="0" />
	<path style="fill:none;stroke:red;stroke-width:1px;stroke-linecap:butt;stroke-linejoin:miter;stroke-opacity:1" d="M 333.054,71.7463 318.537,168.527 z" id="boundary" inkscape:connector-curvature="0" />
	<path style="fill:none;stroke:red;stroke-width:1px;stroke-linecap:butt;stroke-linejoin:miter;stroke-opacity:1" d="M 270.146,168.527 221.756,158.849 z" id="boundary" inkscape:connector-curvature="0" />
	<circle cx="4" cy="187.883" r="4" fill="#0" id="circle0"/>
	<circle cx="4" cy="236.273" r="4" fill="#0" id="circle1"/>
	<circle cx="4" cy="284.663" r="4" fill="#0" id="circle2"/>
	<circle cx="42.7122" cy="318.537" r="4" fill="#0" id="circle3"/>
	<circle cx="52.3902" cy="168.527" r="4" fill="#0" id="circle4"/>
	<circle cx="91.1024" cy="318.537" r="4" fill="#0" id="circle5"/>
	<circle cx="100.78" cy="168.527" r="4" fill="#0" id="circle6"/>
	<circle cx="139.493" cy="318.537" r="4" fill="#0" id="circle7"/>
	<circle cx="149.171" cy="168.527" r="4" fill="#0" id="circle8"/>
	<circle cx="187.883" cy="71.7463" r="4" fill="#0" id="circle9"/>
	<circle cx="187.883" cy="120.137" r="4" fill="#0" id="circle10"/>
	<circle cx="187.883" cy="323.376" r="4" fill="#0" id="circle11"/>
	<circle cx="197.561" cy="371.766" r="4" fill="#0" id="circle12"/>
	<circle cx="212.078" cy="28.1951" r="4" fill="#0" id="circle13"/>
	<circle cx="221.756" cy="158.849" r="4" fill="#0" id="circle14"/>
	<circle cx="226.595" cy="410.478" r="4" fill="#0" id="circle15"/>
	<circle cx="255.629" cy="4" r="4" fill="#0" id="circle16"/>
	<circle cx="265.307" cy="439.512" r="4" fill="#0" id="circle17"/>
	<circle cx="270.146" cy="168.527" r="4" fill="#0" id="circle18"/>
	<circle cx="294.341" cy="37.8732" r="4" fill="#0" id="circle19"/>
	<circle cx="304.02" cy="952.449" r="4" fill="#0" id="circle20"/>
	<circle cx="313.698" cy="454.029" r="4" fill="#0" id="circle21"/>
	<circle cx="318.537" cy="168.527" r="4" fill="#0" id="circle22"/>
	<circle cx="328.215" cy="996" r="4" fill="#0" id="circle23"/>
	<circle cx="333.054" cy="71.7463" r="4" fill="#0" id="circle24"/>
	<circle cx="333.054" cy="904.059" r="4" fill="#0" id="circle25"/>
	<circle cx="352.41" cy="826.634" r="4" fill="#0" id="circle26"/>
	<circle cx="362.088" cy="468.546" r="4" fill="#0" id="circle27"/>
	<circle cx="362.088" cy="516.937" r="4" fill="#0" id="circle28"/>
	<circle cx="362.088" cy="565.327" r="4" fill="#0" id="circle29"/>
	<circle cx="362.088" cy="613.717" r="4" fill="#0" id="circle30"/>
	<circle cx="362.088" cy="662.107" r="4" fill="#0" id="circle31"/>
	<circle cx="362.088" cy="710.498" r="4" fill="#0" id="circle32"/>
	<circle cx="362.088" cy="758.888" r="4" fill="#0" id="circle33"/>
	<circle cx="366.927" cy="168.527" r="4" fill="#0" id="circle34"/>
	<circle cx="376.605" cy="996" r="4" fill="#0" id="circle35"/>
	<circle cx="415.317" cy="168.527" r="4" fill="#0" id="circle36"/>
	<circle cx="424.995" cy="996" r="4" fill="#0" id="circle37"/>
	<circle cx="463.707" cy="168.527" r="4" fill="#0" id="circle38"/>
	<circle cx="473.385" cy="996" r="4" fill="#0" id="circle39"/>
	<circle cx="478.224" cy="216.917" r="4" fill="#0" id="circle40"/>
	<circle cx="502.42" cy="260.468" r="4" fill="#0" id="circle41"/>
	<circle cx="521.776" cy="996" r="4" fill="#0" id="circle42"/>
	<circle cx="531.454" cy="410.478" r="4" fill="#0" id="circle43"/>
	<circle cx="531.454" cy="458.868" r="4" fill="#0" id="circle44"/>
	<circle cx="531.454" cy="507.259" r="4" fill="#0" id="circle45"/>
	<circle cx="531.454" cy="555.649" r="4" fill="#0" id="circle46"/>
	<circle cx="531.454" cy="604.039" r="4" fill="#0" id="circle47"/>
	<circle cx="531.454" cy="652.429" r="4" fill="#0" id="circle48"/>
	<circle cx="531.454" cy="700.82" r="4" fill="#0" id="circle49"/>
	<circle cx="531.454" cy="749.21" r="4" fill="#0" id="circle50"/>
	<circle cx="531.454" cy="797.6" r="4" fill="#0" id="circle51"/>
	<circle cx="531.454" cy="845.99" r="4" fill="#0" id="circle52"/>
	<circle cx="545.971" cy="894.38" r="4" fill="#0" id="circle53"/>
	<circle cx="550.81" cy="265.307" r="4" fill="#0" id="circle54"/>
	<circle cx="560.488" cy="362.088" r="4" fill="#0" id="circle55"/>
	<circle cx="570.166" cy="937.932" r="4" fill="#0" id="circle56"/>
	<circle cx="570.166" cy="996" r="4" fill="#0" id="circle57"/>
	<circle cx="584.683" cy="318.537" r="4" fill="#0" id="circle58"/>
	<circle cx="599.2" cy="265.307" r="4" fill="#0" id="circle59"/>
	<circle cx="633.073" cy="318.537" r="4" fill="#0" id="circle60"/>
	<circle cx="647.59" cy="265.307" r="4" fill="#0" id="circle61"/>
	<circle cx="681.463" cy="318.537" r="4" fill="#0" id="circle62"/>
	<circle cx="695.98" cy="265.307" r="4" fill="#0" id="circle63"/>
	</g>
</svg>