<?xml version="1.0" encoding="UTF-8" standalone="no"?>
<!-- Created with CurveBenchmark -->
<svg
	xmlns:dc="http://purl.org/dc/elements/1.1/"
	xmlns:cc="http://creativecommons.org/ns#"
	xmlns:rdf="http://www.w3.org/1999/02/22-rdf-syntax-ns#"
	xmlns:svg="http://www.w3.org/2000/svg"
	xmlns="http://www.w3.org/2000/svg"
	xmlns:sodipodi="http://sodipodi.sourceforge.net/DTD/sodipodi-0.dtd"
	xmlns:inkscape="http://www.inkscape.org/namespaces/inkscape"
	width="1000"
	height="1000"
	id="svg2"
	version="1.1"
	sodipodi:docname="manifold/crawl-ray0471.png.txt">
<defs
	id="defs4" />
<metadata
	id="metadata7">
	<rdf:RDF>
		<cc:Work
			rdf:about="">
			<dc:format>image/svg+xml</dc:format>
			<dc:type
				rdf:resource="http://purl.org/dc/dcmitype/StillImage" />
			<dc:title></dc:title>
		</cc:Work>
	</rdf:RDF>
</metadata>
<g
	inkscape:label="Layer 1"
	inkscape:groupmode="layer"
	id="layer1">
	<path style="fill:none;stroke:red;stroke-width:1px;stroke-linecap:butt;stroke-linejoin:miter;stroke-opacity:1" d="M 10.9761,425.356 10.9761,411.404 z" id="boundary" inkscape:connector-curvature="0" />
	<path style="fill:none;stroke:red;stroke-width:1px;stroke-linecap:butt;stroke-linejoin:miter;stroke-opacity:1" d="M 10.9761,411.404 4,398.847 z" id="boundary" inkscape:connector-curvature="0" />
	<path style="fill:none;stroke:red;stroke-width:1px;stroke-linecap:butt;stroke-linejoin:miter;stroke-opacity:1" d="M 4,398.847 4,384.895 z" id="boundary" inkscape:connector-curvature="0" />
	<path style="fill:none;stroke:red;stroke-width:1px;stroke-linecap:butt;stroke-linejoin:miter;stroke-opacity:1" d="M 10.9761,425.356 20.7426,436.518 z" id="boundary" inkscape:connector-curvature="0" />
	<path style="fill:none;stroke:red;stroke-width:1px;stroke-linecap:butt;stroke-linejoin:miter;stroke-opacity:1" d="M 20.7426,436.518 27.7187,449.075 z" id="boundary" inkscape:connector-curvature="0" />
	<path style="fill:none;stroke:red;stroke-width:1px;stroke-linecap:butt;stroke-linejoin:miter;stroke-opacity:1" d="M 27.7187,449.075 33.2996,463.027 z" id="boundary" inkscape:connector-curvature="0" />
	<path style="fill:none;stroke:red;stroke-width:1px;stroke-linecap:butt;stroke-linejoin:miter;stroke-opacity:1" d="M 33.2996,463.027 40.2757,475.584 z" id="boundary" inkscape:connector-curvature="0" />
	<path style="fill:none;stroke:red;stroke-width:1px;stroke-linecap:butt;stroke-linejoin:miter;stroke-opacity:1" d="M 40.2757,475.584 50.0422,486.745 z" id="boundary" inkscape:connector-curvature="0" />
	<path style="fill:none;stroke:red;stroke-width:1px;stroke-linecap:butt;stroke-linejoin:miter;stroke-opacity:1" d="M 50.0422,486.745 57.0183,499.302 z" id="boundary" inkscape:connector-curvature="0" />
	<path style="fill:none;stroke:red;stroke-width:1px;stroke-linecap:butt;stroke-linejoin:miter;stroke-opacity:1" d="M 57.0183,499.302 59.8087,513.255 z" id="boundary" inkscape:connector-curvature="0" />
	<path style="fill:none;stroke:red;stroke-width:1px;stroke-linecap:butt;stroke-linejoin:miter;stroke-opacity:1" d="M 59.8087,513.255 62.5992,527.207 z" id="boundary" inkscape:connector-curvature="0" />
	<path style="fill:none;stroke:red;stroke-width:1px;stroke-linecap:butt;stroke-linejoin:miter;stroke-opacity:1" d="M 62.5992,527.207 66.7848,541.159 z" id="boundary" inkscape:connector-curvature="0" />
	<path style="fill:none;stroke:red;stroke-width:1px;stroke-linecap:butt;stroke-linejoin:miter;stroke-opacity:1" d="M 66.7848,541.159 66.7848,555.111 z" id="boundary" inkscape:connector-curvature="0" />
	<path style="fill:none;stroke:red;stroke-width:1px;stroke-linecap:butt;stroke-linejoin:miter;stroke-opacity:1" d="M 66.7848,555.111 66.7848,569.063 z" id="boundary" inkscape:connector-curvature="0" />
	<path style="fill:none;stroke:red;stroke-width:1px;stroke-linecap:butt;stroke-linejoin:miter;stroke-opacity:1" d="M 66.7848,569.063 66.7848,583.015 z" id="boundary" inkscape:connector-curvature="0" />
	<path style="fill:none;stroke:red;stroke-width:1px;stroke-linecap:butt;stroke-linejoin:miter;stroke-opacity:1" d="M 66.7848,583.015 69.5752,596.968 z" id="boundary" inkscape:connector-curvature="0" />
	<path style="fill:none;stroke:red;stroke-width:1px;stroke-linecap:butt;stroke-linejoin:miter;stroke-opacity:1" d="M 69.5752,596.968 73.7609,610.92 z" id="boundary" inkscape:connector-curvature="0" />
	<path style="fill:none;stroke:red;stroke-width:1px;stroke-linecap:butt;stroke-linejoin:miter;stroke-opacity:1" d="M 73.7609,610.92 73.7609,624.872 z" id="boundary" inkscape:connector-curvature="0" />
	<path style="fill:none;stroke:red;stroke-width:1px;stroke-linecap:butt;stroke-linejoin:miter;stroke-opacity:1" d="M 73.7609,624.872 73.7609,638.824 z" id="boundary" inkscape:connector-curvature="0" />
	<path style="fill:none;stroke:red;stroke-width:1px;stroke-linecap:butt;stroke-linejoin:miter;stroke-opacity:1" d="M 73.7609,638.824 73.7609,652.776 z" id="boundary" inkscape:connector-curvature="0" />
	<path style="fill:none;stroke:red;stroke-width:1px;stroke-linecap:butt;stroke-linejoin:miter;stroke-opacity:1" d="M 73.7609,652.776 73.7609,666.729 z" id="boundary" inkscape:connector-curvature="0" />
	<path style="fill:none;stroke:red;stroke-width:1px;stroke-linecap:butt;stroke-linejoin:miter;stroke-opacity:1" d="M 73.7609,666.729 73.7609,680.681 z" id="boundary" inkscape:connector-curvature="0" />
	<path style="fill:none;stroke:red;stroke-width:1px;stroke-linecap:butt;stroke-linejoin:miter;stroke-opacity:1" d="M 73.7609,680.681 73.7609,694.633 z" id="boundary" inkscape:connector-curvature="0" />
	<path style="fill:none;stroke:red;stroke-width:1px;stroke-linecap:butt;stroke-linejoin:miter;stroke-opacity:1" d="M 73.7609,694.633 73.7609,708.585 z" id="boundary" inkscape:connector-curvature="0" />
	<path style="fill:none;stroke:red;stroke-width:1px;stroke-linecap:butt;stroke-linejoin:miter;stroke-opacity:1" d="M 73.7609,708.585 73.7609,722.537 z" id="boundary" inkscape:connector-curvature="0" />
	<path style="fill:none;stroke:red;stroke-width:1px;stroke-linecap:butt;stroke-linejoin:miter;stroke-opacity:1" d="M 73.7609,722.537 76.5513,736.489 z" id="boundary" inkscape:connector-curvature="0" />
	<path style="fill:none;stroke:red;stroke-width:1px;stroke-linecap:butt;stroke-linejoin:miter;stroke-opacity:1" d="M 76.5513,736.489 80.737,750.442 z" id="boundary" inkscape:connector-curvature="0" />
	<path style="fill:none;stroke:red;stroke-width:1px;stroke-linecap:butt;stroke-linejoin:miter;stroke-opacity:1" d="M 80.737,750.442 80.737,764.394 z" id="boundary" inkscape:connector-curvature="0" />
	<path style="fill:none;stroke:red;stroke-width:1px;stroke-linecap:butt;stroke-linejoin:miter;stroke-opacity:1" d="M 80.737,764.394 87.7131,776.951 z" id="boundary" inkscape:connector-curvature="0" />
	<path style="fill:none;stroke:red;stroke-width:1px;stroke-linecap:butt;stroke-linejoin:miter;stroke-opacity:1" d="M 87.7131,776.951 87.7131,790.903 z" id="boundary" inkscape:connector-curvature="0" />
	<path style="fill:none;stroke:red;stroke-width:1px;stroke-linecap:butt;stroke-linejoin:miter;stroke-opacity:1" d="M 87.7131,790.903 87.7131,804.855 z" id="boundary" inkscape:connector-curvature="0" />
	<path style="fill:none;stroke:red;stroke-width:1px;stroke-linecap:butt;stroke-linejoin:miter;stroke-opacity:1" d="M 87.7131,804.855 87.7131,818.807 z" id="boundary" inkscape:connector-curvature="0" />
	<path style="fill:none;stroke:red;stroke-width:1px;stroke-linecap:butt;stroke-linejoin:miter;stroke-opacity:1" d="M 87.7131,818.807 89.1083,832.759 z" id="boundary" inkscape:connector-curvature="0" />
	<path style="fill:none;stroke:red;stroke-width:1px;stroke-linecap:butt;stroke-linejoin:miter;stroke-opacity:1" d="M 89.1083,832.759 94.6892,846.712 z" id="boundary" inkscape:connector-curvature="0" />
	<path style="fill:none;stroke:red;stroke-width:1px;stroke-linecap:butt;stroke-linejoin:miter;stroke-opacity:1" d="M 94.6892,846.712 101.665,859.269 z" id="boundary" inkscape:connector-curvature="0" />
	<path style="fill:none;stroke:red;stroke-width:1px;stroke-linecap:butt;stroke-linejoin:miter;stroke-opacity:1" d="M 101.665,859.269 101.665,873.221 z" id="boundary" inkscape:connector-curvature="0" />
	<path style="fill:none;stroke:red;stroke-width:1px;stroke-linecap:butt;stroke-linejoin:miter;stroke-opacity:1" d="M 101.665,873.221 101.665,887.173 z" id="boundary" inkscape:connector-curvature="0" />
	<path style="fill:none;stroke:red;stroke-width:1px;stroke-linecap:butt;stroke-linejoin:miter;stroke-opacity:1" d="M 101.665,887.173 108.641,899.73 z" id="boundary" inkscape:connector-curvature="0" />
	<path style="fill:none;stroke:red;stroke-width:1px;stroke-linecap:butt;stroke-linejoin:miter;stroke-opacity:1" d="M 108.641,899.73 115.617,912.287 z" id="boundary" inkscape:connector-curvature="0" />
	<path style="fill:none;stroke:red;stroke-width:1px;stroke-linecap:butt;stroke-linejoin:miter;stroke-opacity:1" d="M 115.617,912.287 115.617,926.239 z" id="boundary" inkscape:connector-curvature="0" />
	<path style="fill:none;stroke:red;stroke-width:1px;stroke-linecap:butt;stroke-linejoin:miter;stroke-opacity:1" d="M 115.617,926.239 119.803,940.191 z" id="boundary" inkscape:connector-curvature="0" />
	<path style="fill:none;stroke:red;stroke-width:1px;stroke-linecap:butt;stroke-linejoin:miter;stroke-opacity:1" d="M 119.803,940.191 122.594,954.143 z" id="boundary" inkscape:connector-curvature="0" />
	<path style="fill:none;stroke:red;stroke-width:1px;stroke-linecap:butt;stroke-linejoin:miter;stroke-opacity:1" d="M 122.594,954.143 129.57,966.7 z" id="boundary" inkscape:connector-curvature="0" />
	<path style="fill:none;stroke:red;stroke-width:1px;stroke-linecap:butt;stroke-linejoin:miter;stroke-opacity:1" d="M 129.57,966.7 137.941,977.862 z" id="boundary" inkscape:connector-curvature="0" />
	<path style="fill:none;stroke:red;stroke-width:1px;stroke-linecap:butt;stroke-linejoin:miter;stroke-opacity:1" d="M 137.941,977.862 147.707,989.024 z" id="boundary" inkscape:connector-curvature="0" />
	<path style="fill:none;stroke:red;stroke-width:1px;stroke-linecap:butt;stroke-linejoin:miter;stroke-opacity:1" d="M 147.707,989.024 160.264,996 z" id="boundary" inkscape:connector-curvature="0" />
	<path style="fill:none;stroke:red;stroke-width:1px;stroke-linecap:butt;stroke-linejoin:miter;stroke-opacity:1" d="M 160.264,996 172.821,989.024 z" id="boundary" inkscape:connector-curvature="0" />
	<path style="fill:none;stroke:red;stroke-width:1px;stroke-linecap:butt;stroke-linejoin:miter;stroke-opacity:1" d="M 4,384.895 15.1617,373.733 z" id="boundary" inkscape:connector-curvature="0" />
	<path style="fill:none;stroke:red;stroke-width:1px;stroke-linecap:butt;stroke-linejoin:miter;stroke-opacity:1" d="M 15.1617,373.733 24.9283,356.99 z" id="boundary" inkscape:connector-curvature="0" />
	<path style="fill:none;stroke:red;stroke-width:1px;stroke-linecap:butt;stroke-linejoin:miter;stroke-opacity:1" d="M 24.9283,356.99 36.09,345.828 z" id="boundary" inkscape:connector-curvature="0" />
	<path style="fill:none;stroke:red;stroke-width:1px;stroke-linecap:butt;stroke-linejoin:miter;stroke-opacity:1" d="M 36.09,345.828 50.0422,338.852 z" id="boundary" inkscape:connector-curvature="0" />
	<path style="fill:none;stroke:red;stroke-width:1px;stroke-linecap:butt;stroke-linejoin:miter;stroke-opacity:1" d="M 50.0422,338.852 63.9944,331.876 z" id="boundary" inkscape:connector-curvature="0" />
	<path style="fill:none;stroke:red;stroke-width:1px;stroke-linecap:butt;stroke-linejoin:miter;stroke-opacity:1" d="M 63.9944,331.876 77.9466,331.876 z" id="boundary" inkscape:connector-curvature="0" />
	<path style="fill:none;stroke:red;stroke-width:1px;stroke-linecap:butt;stroke-linejoin:miter;stroke-opacity:1" d="M 77.9466,331.876 91.8987,331.876 z" id="boundary" inkscape:connector-curvature="0" />
	<path style="fill:none;stroke:red;stroke-width:1px;stroke-linecap:butt;stroke-linejoin:miter;stroke-opacity:1" d="M 91.8987,331.876 105.851,331.876 z" id="boundary" inkscape:connector-curvature="0" />
	<path style="fill:none;stroke:red;stroke-width:1px;stroke-linecap:butt;stroke-linejoin:miter;stroke-opacity:1" d="M 105.851,331.876 119.803,324.9 z" id="boundary" inkscape:connector-curvature="0" />
	<path style="fill:none;stroke:red;stroke-width:1px;stroke-linecap:butt;stroke-linejoin:miter;stroke-opacity:1" d="M 119.803,324.9 132.36,317.924 z" id="boundary" inkscape:connector-curvature="0" />
	<path style="fill:none;stroke:red;stroke-width:1px;stroke-linecap:butt;stroke-linejoin:miter;stroke-opacity:1" d="M 132.36,317.924 144.917,310.948 z" id="boundary" inkscape:connector-curvature="0" />
	<path style="fill:none;stroke:red;stroke-width:1px;stroke-linecap:butt;stroke-linejoin:miter;stroke-opacity:1" d="M 144.917,310.948 157.474,301.181 z" id="boundary" inkscape:connector-curvature="0" />
	<path style="fill:none;stroke:red;stroke-width:1px;stroke-linecap:butt;stroke-linejoin:miter;stroke-opacity:1" d="M 157.474,301.181 164.45,287.229 z" id="boundary" inkscape:connector-curvature="0" />
	<path style="fill:none;stroke:red;stroke-width:1px;stroke-linecap:butt;stroke-linejoin:miter;stroke-opacity:1" d="M 164.45,287.229 175.612,276.068 z" id="boundary" inkscape:connector-curvature="0" />
	<path style="fill:none;stroke:red;stroke-width:1px;stroke-linecap:butt;stroke-linejoin:miter;stroke-opacity:1" d="M 175.612,276.068 188.169,269.091 z" id="boundary" inkscape:connector-curvature="0" />
	<path style="fill:none;stroke:red;stroke-width:1px;stroke-linecap:butt;stroke-linejoin:miter;stroke-opacity:1" d="M 188.169,269.091 195.145,256.534 z" id="boundary" inkscape:connector-curvature="0" />
	<path style="fill:none;stroke:red;stroke-width:1px;stroke-linecap:butt;stroke-linejoin:miter;stroke-opacity:1" d="M 195.145,256.534 206.307,245.373 z" id="boundary" inkscape:connector-curvature="0" />
	<path style="fill:none;stroke:red;stroke-width:1px;stroke-linecap:butt;stroke-linejoin:miter;stroke-opacity:1" d="M 206.307,245.373 217.468,234.211 z" id="boundary" inkscape:connector-curvature="0" />
	<path style="fill:none;stroke:red;stroke-width:1px;stroke-linecap:butt;stroke-linejoin:miter;stroke-opacity:1" d="M 217.468,234.211 227.235,217.468 z" id="boundary" inkscape:connector-curvature="0" />
	<path style="fill:none;stroke:red;stroke-width:1px;stroke-linecap:butt;stroke-linejoin:miter;stroke-opacity:1" d="M 227.235,217.468 238.397,206.307 z" id="boundary" inkscape:connector-curvature="0" />
	<path style="fill:none;stroke:red;stroke-width:1px;stroke-linecap:butt;stroke-linejoin:miter;stroke-opacity:1" d="M 238.397,206.307 249.558,195.145 z" id="boundary" inkscape:connector-curvature="0" />
	<path style="fill:none;stroke:red;stroke-width:1px;stroke-linecap:butt;stroke-linejoin:miter;stroke-opacity:1" d="M 249.558,195.145 260.72,185.378 z" id="boundary" inkscape:connector-curvature="0" />
	<path style="fill:none;stroke:red;stroke-width:1px;stroke-linecap:butt;stroke-linejoin:miter;stroke-opacity:1" d="M 260.72,185.378 270.487,174.217 z" id="boundary" inkscape:connector-curvature="0" />
	<path style="fill:none;stroke:red;stroke-width:1px;stroke-linecap:butt;stroke-linejoin:miter;stroke-opacity:1" d="M 270.487,174.217 281.648,164.45 z" id="boundary" inkscape:connector-curvature="0" />
	<path style="fill:none;stroke:red;stroke-width:1px;stroke-linecap:butt;stroke-linejoin:miter;stroke-opacity:1" d="M 281.648,164.45 291.415,153.288 z" id="boundary" inkscape:connector-curvature="0" />
	<path style="fill:none;stroke:red;stroke-width:1px;stroke-linecap:butt;stroke-linejoin:miter;stroke-opacity:1" d="M 291.415,153.288 302.577,143.522 z" id="boundary" inkscape:connector-curvature="0" />
	<path style="fill:none;stroke:red;stroke-width:1px;stroke-linecap:butt;stroke-linejoin:miter;stroke-opacity:1" d="M 302.577,143.522 315.134,136.546 z" id="boundary" inkscape:connector-curvature="0" />
	<path style="fill:none;stroke:red;stroke-width:1px;stroke-linecap:butt;stroke-linejoin:miter;stroke-opacity:1" d="M 315.134,136.546 326.295,125.384 z" id="boundary" inkscape:connector-curvature="0" />
	<path style="fill:none;stroke:red;stroke-width:1px;stroke-linecap:butt;stroke-linejoin:miter;stroke-opacity:1" d="M 326.295,125.384 337.457,115.617 z" id="boundary" inkscape:connector-curvature="0" />
	<path style="fill:none;stroke:red;stroke-width:1px;stroke-linecap:butt;stroke-linejoin:miter;stroke-opacity:1" d="M 337.457,115.617 347.224,104.456 z" id="boundary" inkscape:connector-curvature="0" />
	<path style="fill:none;stroke:red;stroke-width:1px;stroke-linecap:butt;stroke-linejoin:miter;stroke-opacity:1" d="M 347.224,104.456 361.176,97.4796 z" id="boundary" inkscape:connector-curvature="0" />
	<path style="fill:none;stroke:red;stroke-width:1px;stroke-linecap:butt;stroke-linejoin:miter;stroke-opacity:1" d="M 361.176,97.4796 372.338,87.7131 z" id="boundary" inkscape:connector-curvature="0" />
	<path style="fill:none;stroke:red;stroke-width:1px;stroke-linecap:butt;stroke-linejoin:miter;stroke-opacity:1" d="M 372.338,87.7131 384.895,80.737 z" id="boundary" inkscape:connector-curvature="0" />
	<path style="fill:none;stroke:red;stroke-width:1px;stroke-linecap:butt;stroke-linejoin:miter;stroke-opacity:1" d="M 384.895,80.737 397.451,73.7609 z" id="boundary" inkscape:connector-curvature="0" />
	<path style="fill:none;stroke:red;stroke-width:1px;stroke-linecap:butt;stroke-linejoin:miter;stroke-opacity:1" d="M 397.451,73.7609 404.428,61.2039 z" id="boundary" inkscape:connector-curvature="0" />
	<path style="fill:none;stroke:red;stroke-width:1px;stroke-linecap:butt;stroke-linejoin:miter;stroke-opacity:1" d="M 404.428,61.2039 418.38,54.2278 z" id="boundary" inkscape:connector-curvature="0" />
	<path style="fill:none;stroke:red;stroke-width:1px;stroke-linecap:butt;stroke-linejoin:miter;stroke-opacity:1" d="M 418.38,54.2278 429.541,45.8565 z" id="boundary" inkscape:connector-curvature="0" />
	<path style="fill:none;stroke:red;stroke-width:1px;stroke-linecap:butt;stroke-linejoin:miter;stroke-opacity:1" d="M 429.541,45.8565 442.098,38.8805 z" id="boundary" inkscape:connector-curvature="0" />
	<path style="fill:none;stroke:red;stroke-width:1px;stroke-linecap:butt;stroke-linejoin:miter;stroke-opacity:1" d="M 442.098,38.8805 454.655,31.9044 z" id="boundary" inkscape:connector-curvature="0" />
	<path style="fill:none;stroke:red;stroke-width:1px;stroke-linecap:butt;stroke-linejoin:miter;stroke-opacity:1" d="M 454.655,31.9044 468.608,24.9283 z" id="boundary" inkscape:connector-curvature="0" />
	<path style="fill:none;stroke:red;stroke-width:1px;stroke-linecap:butt;stroke-linejoin:miter;stroke-opacity:1" d="M 468.608,24.9283 481.165,17.9522 z" id="boundary" inkscape:connector-curvature="0" />
	<path style="fill:none;stroke:red;stroke-width:1px;stroke-linecap:butt;stroke-linejoin:miter;stroke-opacity:1" d="M 481.165,17.9522 492.326,8.18565 z" id="boundary" inkscape:connector-curvature="0" />
	<path style="fill:none;stroke:red;stroke-width:1px;stroke-linecap:butt;stroke-linejoin:miter;stroke-opacity:1" d="M 492.326,8.18565 506.278,4 z" id="boundary" inkscape:connector-curvature="0" />
	<path style="fill:none;stroke:red;stroke-width:1px;stroke-linecap:butt;stroke-linejoin:miter;stroke-opacity:1" d="M 506.278,4 520.231,4 z" id="boundary" inkscape:connector-curvature="0" />
	<path style="fill:none;stroke:red;stroke-width:1px;stroke-linecap:butt;stroke-linejoin:miter;stroke-opacity:1" d="M 520.231,4 534.183,4 z" id="boundary" inkscape:connector-curvature="0" />
	<path style="fill:none;stroke:red;stroke-width:1px;stroke-linecap:butt;stroke-linejoin:miter;stroke-opacity:1" d="M 534.183,4 542.554,15.1617 z" id="boundary" inkscape:connector-curvature="0" />
	<path style="fill:none;stroke:red;stroke-width:1px;stroke-linecap:butt;stroke-linejoin:miter;stroke-opacity:1" d="M 542.554,15.1617 535.578,33.2996 z" id="boundary" inkscape:connector-curvature="0" />
	<path style="fill:none;stroke:red;stroke-width:1px;stroke-linecap:butt;stroke-linejoin:miter;stroke-opacity:1" d="M 535.578,33.2996 528.602,54.2278 z" id="boundary" inkscape:connector-curvature="0" />
	<path style="fill:none;stroke:red;stroke-width:1px;stroke-linecap:butt;stroke-linejoin:miter;stroke-opacity:1" d="M 528.602,54.2278 528.602,68.18 z" id="boundary" inkscape:connector-curvature="0" />
	<path style="fill:none;stroke:red;stroke-width:1px;stroke-linecap:butt;stroke-linejoin:miter;stroke-opacity:1" d="M 528.602,68.18 521.626,82.1322 z" id="boundary" inkscape:connector-curvature="0" />
	<path style="fill:none;stroke:red;stroke-width:1px;stroke-linecap:butt;stroke-linejoin:miter;stroke-opacity:1" d="M 521.626,82.1322 521.626,96.0844 z" id="boundary" inkscape:connector-curvature="0" />
	<path style="fill:none;stroke:red;stroke-width:1px;stroke-linecap:butt;stroke-linejoin:miter;stroke-opacity:1" d="M 521.626,96.0844 514.65,110.037 z" id="boundary" inkscape:connector-curvature="0" />
	<path style="fill:none;stroke:red;stroke-width:1px;stroke-linecap:butt;stroke-linejoin:miter;stroke-opacity:1" d="M 514.65,110.037 507.674,123.989 z" id="boundary" inkscape:connector-curvature="0" />
	<path style="fill:none;stroke:red;stroke-width:1px;stroke-linecap:butt;stroke-linejoin:miter;stroke-opacity:1" d="M 507.674,123.989 507.674,137.941 z" id="boundary" inkscape:connector-curvature="0" />
	<path style="fill:none;stroke:red;stroke-width:1px;stroke-linecap:butt;stroke-linejoin:miter;stroke-opacity:1" d="M 507.674,137.941 507.674,151.893 z" id="boundary" inkscape:connector-curvature="0" />
	<path style="fill:none;stroke:red;stroke-width:1px;stroke-linecap:butt;stroke-linejoin:miter;stroke-opacity:1" d="M 507.674,151.893 507.674,165.845 z" id="boundary" inkscape:connector-curvature="0" />
	<path style="fill:none;stroke:red;stroke-width:1px;stroke-linecap:butt;stroke-linejoin:miter;stroke-opacity:1" d="M 507.674,165.845 500.698,179.797 z" id="boundary" inkscape:connector-curvature="0" />
	<path style="fill:none;stroke:red;stroke-width:1px;stroke-linecap:butt;stroke-linejoin:miter;stroke-opacity:1" d="M 500.698,179.797 493.722,193.75 z" id="boundary" inkscape:connector-curvature="0" />
	<path style="fill:none;stroke:red;stroke-width:1px;stroke-linecap:butt;stroke-linejoin:miter;stroke-opacity:1" d="M 493.722,193.75 493.722,207.702 z" id="boundary" inkscape:connector-curvature="0" />
	<path style="fill:none;stroke:red;stroke-width:1px;stroke-linecap:butt;stroke-linejoin:miter;stroke-opacity:1" d="M 493.722,207.702 493.722,221.654 z" id="boundary" inkscape:connector-curvature="0" />
	<path style="fill:none;stroke:red;stroke-width:1px;stroke-linecap:butt;stroke-linejoin:miter;stroke-opacity:1" d="M 493.722,221.654 493.722,235.606 z" id="boundary" inkscape:connector-curvature="0" />
	<path style="fill:none;stroke:red;stroke-width:1px;stroke-linecap:butt;stroke-linejoin:miter;stroke-opacity:1" d="M 493.722,235.606 493.722,249.558 z" id="boundary" inkscape:connector-curvature="0" />
	<path style="fill:none;stroke:red;stroke-width:1px;stroke-linecap:butt;stroke-linejoin:miter;stroke-opacity:1" d="M 493.722,249.558 493.722,263.511 z" id="boundary" inkscape:connector-curvature="0" />
	<path style="fill:none;stroke:red;stroke-width:1px;stroke-linecap:butt;stroke-linejoin:miter;stroke-opacity:1" d="M 493.722,263.511 493.722,277.463 z" id="boundary" inkscape:connector-curvature="0" />
	<path style="fill:none;stroke:red;stroke-width:1px;stroke-linecap:butt;stroke-linejoin:miter;stroke-opacity:1" d="M 493.722,277.463 493.722,291.415 z" id="boundary" inkscape:connector-curvature="0" />
	<path style="fill:none;stroke:red;stroke-width:1px;stroke-linecap:butt;stroke-linejoin:miter;stroke-opacity:1" d="M 493.722,291.415 500.698,303.972 z" id="boundary" inkscape:connector-curvature="0" />
	<path style="fill:none;stroke:red;stroke-width:1px;stroke-linecap:butt;stroke-linejoin:miter;stroke-opacity:1" d="M 500.698,303.972 500.698,317.924 z" id="boundary" inkscape:connector-curvature="0" />
	<path style="fill:none;stroke:red;stroke-width:1px;stroke-linecap:butt;stroke-linejoin:miter;stroke-opacity:1" d="M 500.698,317.924 507.674,330.481 z" id="boundary" inkscape:connector-curvature="0" />
	<path style="fill:none;stroke:red;stroke-width:1px;stroke-linecap:butt;stroke-linejoin:miter;stroke-opacity:1" d="M 507.674,330.481 507.674,344.433 z" id="boundary" inkscape:connector-curvature="0" />
	<path style="fill:none;stroke:red;stroke-width:1px;stroke-linecap:butt;stroke-linejoin:miter;stroke-opacity:1" d="M 507.674,344.433 518.835,354.2 z" id="boundary" inkscape:connector-curvature="0" />
	<path style="fill:none;stroke:red;stroke-width:1px;stroke-linecap:butt;stroke-linejoin:miter;stroke-opacity:1" d="M 518.835,354.2 521.626,368.152 z" id="boundary" inkscape:connector-curvature="0" />
	<path style="fill:none;stroke:red;stroke-width:1px;stroke-linecap:butt;stroke-linejoin:miter;stroke-opacity:1" d="M 521.626,368.152 528.602,380.709 z" id="boundary" inkscape:connector-curvature="0" />
	<path style="fill:none;stroke:red;stroke-width:1px;stroke-linecap:butt;stroke-linejoin:miter;stroke-opacity:1" d="M 528.602,380.709 528.602,394.661 z" id="boundary" inkscape:connector-curvature="0" />
	<path style="fill:none;stroke:red;stroke-width:1px;stroke-linecap:butt;stroke-linejoin:miter;stroke-opacity:1" d="M 528.602,394.661 535.578,407.218 z" id="boundary" inkscape:connector-curvature="0" />
	<path style="fill:none;stroke:red;stroke-width:1px;stroke-linecap:butt;stroke-linejoin:miter;stroke-opacity:1" d="M 535.578,407.218 542.554,419.775 z" id="boundary" inkscape:connector-curvature="0" />
	<path style="fill:none;stroke:red;stroke-width:1px;stroke-linecap:butt;stroke-linejoin:miter;stroke-opacity:1" d="M 542.554,419.775 548.135,433.727 z" id="boundary" inkscape:connector-curvature="0" />
	<path style="fill:none;stroke:red;stroke-width:1px;stroke-linecap:butt;stroke-linejoin:miter;stroke-opacity:1" d="M 548.135,433.727 556.506,444.889 z" id="boundary" inkscape:connector-curvature="0" />
	<path style="fill:none;stroke:red;stroke-width:1px;stroke-linecap:butt;stroke-linejoin:miter;stroke-opacity:1" d="M 556.506,444.889 559.297,458.841 z" id="boundary" inkscape:connector-curvature="0" />
	<path style="fill:none;stroke:red;stroke-width:1px;stroke-linecap:butt;stroke-linejoin:miter;stroke-opacity:1" d="M 559.297,458.841 573.249,464.422 z" id="boundary" inkscape:connector-curvature="0" />
	<path style="fill:none;stroke:red;stroke-width:1px;stroke-linecap:butt;stroke-linejoin:miter;stroke-opacity:1" d="M 573.249,464.422 587.201,464.422 z" id="boundary" inkscape:connector-curvature="0" />
	<path style="fill:none;stroke:red;stroke-width:1px;stroke-linecap:butt;stroke-linejoin:miter;stroke-opacity:1" d="M 587.201,464.422 601.153,464.422 z" id="boundary" inkscape:connector-curvature="0" />
	<path style="fill:none;stroke:red;stroke-width:1px;stroke-linecap:butt;stroke-linejoin:miter;stroke-opacity:1" d="M 601.153,464.422 613.71,471.398 z" id="boundary" inkscape:connector-curvature="0" />
	<path style="fill:none;stroke:red;stroke-width:1px;stroke-linecap:butt;stroke-linejoin:miter;stroke-opacity:1" d="M 613.71,471.398 619.291,485.35 z" id="boundary" inkscape:connector-curvature="0" />
	<path style="fill:none;stroke:red;stroke-width:1px;stroke-linecap:butt;stroke-linejoin:miter;stroke-opacity:1" d="M 619.291,485.35 616.501,504.883 z" id="boundary" inkscape:connector-curvature="0" />
	<path style="fill:none;stroke:red;stroke-width:1px;stroke-linecap:butt;stroke-linejoin:miter;stroke-opacity:1" d="M 616.501,504.883 609.525,518.835 z" id="boundary" inkscape:connector-curvature="0" />
	<path style="fill:none;stroke:red;stroke-width:1px;stroke-linecap:butt;stroke-linejoin:miter;stroke-opacity:1" d="M 609.525,518.835 598.363,528.602 z" id="boundary" inkscape:connector-curvature="0" />
	<path style="fill:none;stroke:red;stroke-width:1px;stroke-linecap:butt;stroke-linejoin:miter;stroke-opacity:1" d="M 598.363,528.602 598.363,542.554 z" id="boundary" inkscape:connector-curvature="0" />
	<path style="fill:none;stroke:red;stroke-width:1px;stroke-linecap:butt;stroke-linejoin:miter;stroke-opacity:1" d="M 598.363,542.554 612.315,543.949 z" id="boundary" inkscape:connector-curvature="0" />
	<path style="fill:none;stroke:red;stroke-width:1px;stroke-linecap:butt;stroke-linejoin:miter;stroke-opacity:1" d="M 612.315,543.949 626.267,536.973 z" id="boundary" inkscape:connector-curvature="0" />
	<path style="fill:none;stroke:red;stroke-width:1px;stroke-linecap:butt;stroke-linejoin:miter;stroke-opacity:1" d="M 626.267,536.973 637.429,527.207 z" id="boundary" inkscape:connector-curvature="0" />
	<path style="fill:none;stroke:red;stroke-width:1px;stroke-linecap:butt;stroke-linejoin:miter;stroke-opacity:1" d="M 637.429,527.207 643.01,513.255 z" id="boundary" inkscape:connector-curvature="0" />
	<path style="fill:none;stroke:red;stroke-width:1px;stroke-linecap:butt;stroke-linejoin:miter;stroke-opacity:1" d="M 643.01,513.255 656.962,506.278 z" id="boundary" inkscape:connector-curvature="0" />
	<path style="fill:none;stroke:red;stroke-width:1px;stroke-linecap:butt;stroke-linejoin:miter;stroke-opacity:1" d="M 656.962,506.278 670.914,499.302 z" id="boundary" inkscape:connector-curvature="0" />
	<path style="fill:none;stroke:red;stroke-width:1px;stroke-linecap:butt;stroke-linejoin:miter;stroke-opacity:1" d="M 670.914,499.302 683.471,492.326 z" id="boundary" inkscape:connector-curvature="0" />
	<path style="fill:none;stroke:red;stroke-width:1px;stroke-linecap:butt;stroke-linejoin:miter;stroke-opacity:1" d="M 683.471,492.326 694.633,482.56 z" id="boundary" inkscape:connector-curvature="0" />
	<path style="fill:none;stroke:red;stroke-width:1px;stroke-linecap:butt;stroke-linejoin:miter;stroke-opacity:1" d="M 694.633,482.56 701.609,468.608 z" id="boundary" inkscape:connector-curvature="0" />
	<path style="fill:none;stroke:red;stroke-width:1px;stroke-linecap:butt;stroke-linejoin:miter;stroke-opacity:1" d="M 701.609,468.608 712.771,457.446 z" id="boundary" inkscape:connector-curvature="0" />
	<path style="fill:none;stroke:red;stroke-width:1px;stroke-linecap:butt;stroke-linejoin:miter;stroke-opacity:1" d="M 712.771,457.446 715.561,440.703 z" id="boundary" inkscape:connector-curvature="0" />
	<path style="fill:none;stroke:red;stroke-width:1px;stroke-linecap:butt;stroke-linejoin:miter;stroke-opacity:1" d="M 715.561,440.703 722.537,419.775 z" id="boundary" inkscape:connector-curvature="0" />
	<path style="fill:none;stroke:red;stroke-width:1px;stroke-linecap:butt;stroke-linejoin:miter;stroke-opacity:1" d="M 722.537,419.775 733.699,408.613 z" id="boundary" inkscape:connector-curvature="0" />
	<path style="fill:none;stroke:red;stroke-width:1px;stroke-linecap:butt;stroke-linejoin:miter;stroke-opacity:1" d="M 172.821,989.024 179.797,968.096 z" id="boundary" inkscape:connector-curvature="0" />
	<path style="fill:none;stroke:red;stroke-width:1px;stroke-linecap:butt;stroke-linejoin:miter;stroke-opacity:1" d="M 179.797,968.096 190.959,958.329 z" id="boundary" inkscape:connector-curvature="0" />
	<path style="fill:none;stroke:red;stroke-width:1px;stroke-linecap:butt;stroke-linejoin:miter;stroke-opacity:1" d="M 733.699,408.613 736.489,384.895 z" id="boundary" inkscape:connector-curvature="0" />
	<path style="fill:none;stroke:red;stroke-width:1px;stroke-linecap:butt;stroke-linejoin:miter;stroke-opacity:1" d="M 736.489,384.895 743.466,370.942 z" id="boundary" inkscape:connector-curvature="0" />
	<path style="fill:none;stroke:red;stroke-width:1px;stroke-linecap:butt;stroke-linejoin:miter;stroke-opacity:1" d="M 743.466,370.942 750.442,350.014 z" id="boundary" inkscape:connector-curvature="0" />
	<path style="fill:none;stroke:red;stroke-width:1px;stroke-linecap:butt;stroke-linejoin:miter;stroke-opacity:1" d="M 750.442,350.014 750.442,336.062 z" id="boundary" inkscape:connector-curvature="0" />
	<path style="fill:none;stroke:red;stroke-width:1px;stroke-linecap:butt;stroke-linejoin:miter;stroke-opacity:1" d="M 750.442,336.062 761.603,324.9 z" id="boundary" inkscape:connector-curvature="0" />
	<path style="fill:none;stroke:red;stroke-width:1px;stroke-linecap:butt;stroke-linejoin:miter;stroke-opacity:1" d="M 761.603,324.9 764.394,308.158 z" id="boundary" inkscape:connector-curvature="0" />
	<path style="fill:none;stroke:red;stroke-width:1px;stroke-linecap:butt;stroke-linejoin:miter;stroke-opacity:1" d="M 764.394,308.158 771.37,294.205 z" id="boundary" inkscape:connector-curvature="0" />
	<path style="fill:none;stroke:red;stroke-width:1px;stroke-linecap:butt;stroke-linejoin:miter;stroke-opacity:1" d="M 771.37,294.205 778.346,273.277 z" id="boundary" inkscape:connector-curvature="0" />
	<path style="fill:none;stroke:red;stroke-width:1px;stroke-linecap:butt;stroke-linejoin:miter;stroke-opacity:1" d="M 778.346,273.277 789.508,262.115 z" id="boundary" inkscape:connector-curvature="0" />
	<path style="fill:none;stroke:red;stroke-width:1px;stroke-linecap:butt;stroke-linejoin:miter;stroke-opacity:1" d="M 789.508,262.115 796.484,248.163 z" id="boundary" inkscape:connector-curvature="0" />
	<path style="fill:none;stroke:red;stroke-width:1px;stroke-linecap:butt;stroke-linejoin:miter;stroke-opacity:1" d="M 796.484,248.163 807.646,237.001 z" id="boundary" inkscape:connector-curvature="0" />
	<path style="fill:none;stroke:red;stroke-width:1px;stroke-linecap:butt;stroke-linejoin:miter;stroke-opacity:1" d="M 807.646,237.001 818.807,227.235 z" id="boundary" inkscape:connector-curvature="0" />
	<path style="fill:none;stroke:red;stroke-width:1px;stroke-linecap:butt;stroke-linejoin:miter;stroke-opacity:1" d="M 818.807,227.235 831.364,220.259 z" id="boundary" inkscape:connector-curvature="0" />
	<path style="fill:none;stroke:red;stroke-width:1px;stroke-linecap:butt;stroke-linejoin:miter;stroke-opacity:1" d="M 831.364,220.259 845.316,213.283 z" id="boundary" inkscape:connector-curvature="0" />
	<path style="fill:none;stroke:red;stroke-width:1px;stroke-linecap:butt;stroke-linejoin:miter;stroke-opacity:1" d="M 845.316,213.283 859.269,213.283 z" id="boundary" inkscape:connector-curvature="0" />
	<path style="fill:none;stroke:red;stroke-width:1px;stroke-linecap:butt;stroke-linejoin:miter;stroke-opacity:1" d="M 859.269,213.283 871.826,220.259 z" id="boundary" inkscape:connector-curvature="0" />
	<path style="fill:none;stroke:red;stroke-width:1px;stroke-linecap:butt;stroke-linejoin:miter;stroke-opacity:1" d="M 871.826,220.259 884.383,227.235 z" id="boundary" inkscape:connector-curvature="0" />
	<path style="fill:none;stroke:red;stroke-width:1px;stroke-linecap:butt;stroke-linejoin:miter;stroke-opacity:1" d="M 884.383,227.235 898.335,231.421 z" id="boundary" inkscape:connector-curvature="0" />
	<path style="fill:none;stroke:red;stroke-width:1px;stroke-linecap:butt;stroke-linejoin:miter;stroke-opacity:1" d="M 898.335,231.421 903.916,245.373 z" id="boundary" inkscape:connector-curvature="0" />
	<path style="fill:none;stroke:red;stroke-width:1px;stroke-linecap:butt;stroke-linejoin:miter;stroke-opacity:1" d="M 903.916,245.373 910.892,257.93 z" id="boundary" inkscape:connector-curvature="0" />
	<path style="fill:none;stroke:red;stroke-width:1px;stroke-linecap:butt;stroke-linejoin:miter;stroke-opacity:1" d="M 910.892,257.93 912.287,271.882 z" id="boundary" inkscape:connector-curvature="0" />
	<path style="fill:none;stroke:red;stroke-width:1px;stroke-linecap:butt;stroke-linejoin:miter;stroke-opacity:1" d="M 912.287,271.882 919.263,284.439 z" id="boundary" inkscape:connector-curvature="0" />
	<path style="fill:none;stroke:red;stroke-width:1px;stroke-linecap:butt;stroke-linejoin:miter;stroke-opacity:1" d="M 919.263,284.439 919.263,298.391 z" id="boundary" inkscape:connector-curvature="0" />
	<path style="fill:none;stroke:red;stroke-width:1px;stroke-linecap:butt;stroke-linejoin:miter;stroke-opacity:1" d="M 919.263,298.391 922.053,312.343 z" id="boundary" inkscape:connector-curvature="0" />
	<path style="fill:none;stroke:red;stroke-width:1px;stroke-linecap:butt;stroke-linejoin:miter;stroke-opacity:1" d="M 922.053,312.343 926.239,326.295 z" id="boundary" inkscape:connector-curvature="0" />
	<path style="fill:none;stroke:red;stroke-width:1px;stroke-linecap:butt;stroke-linejoin:miter;stroke-opacity:1" d="M 926.239,326.295 926.239,340.248 z" id="boundary" inkscape:connector-curvature="0" />
	<path style="fill:none;stroke:red;stroke-width:1px;stroke-linecap:butt;stroke-linejoin:miter;stroke-opacity:1" d="M 926.239,340.248 926.239,354.2 z" id="boundary" inkscape:connector-curvature="0" />
	<path style="fill:none;stroke:red;stroke-width:1px;stroke-linecap:butt;stroke-linejoin:miter;stroke-opacity:1" d="M 926.239,354.2 919.263,375.128 z" id="boundary" inkscape:connector-curvature="0" />
	<path style="fill:none;stroke:red;stroke-width:1px;stroke-linecap:butt;stroke-linejoin:miter;stroke-opacity:1" d="M 919.263,375.128 919.263,389.08 z" id="boundary" inkscape:connector-curvature="0" />
	<path style="fill:none;stroke:red;stroke-width:1px;stroke-linecap:butt;stroke-linejoin:miter;stroke-opacity:1" d="M 919.263,389.08 919.263,403.032 z" id="boundary" inkscape:connector-curvature="0" />
	<path style="fill:none;stroke:red;stroke-width:1px;stroke-linecap:butt;stroke-linejoin:miter;stroke-opacity:1" d="M 919.263,403.032 919.263,416.985 z" id="boundary" inkscape:connector-curvature="0" />
	<path style="fill:none;stroke:red;stroke-width:1px;stroke-linecap:butt;stroke-linejoin:miter;stroke-opacity:1" d="M 919.263,416.985 912.287,437.913 z" id="boundary" inkscape:connector-curvature="0" />
	<path style="fill:none;stroke:red;stroke-width:1px;stroke-linecap:butt;stroke-linejoin:miter;stroke-opacity:1" d="M 912.287,437.913 912.287,451.865 z" id="boundary" inkscape:connector-curvature="0" />
	<path style="fill:none;stroke:red;stroke-width:1px;stroke-linecap:butt;stroke-linejoin:miter;stroke-opacity:1" d="M 912.287,451.865 889.963,440.703 z" id="boundary" inkscape:connector-curvature="0" />
	<path style="fill:none;stroke:red;stroke-width:1px;stroke-linecap:butt;stroke-linejoin:miter;stroke-opacity:1" d="M 889.963,440.703 896.94,419.775 z" id="boundary" inkscape:connector-curvature="0" />
	<path style="fill:none;stroke:red;stroke-width:1px;stroke-linecap:butt;stroke-linejoin:miter;stroke-opacity:1" d="M 896.94,419.775 896.94,405.823 z" id="boundary" inkscape:connector-curvature="0" />
	<path style="fill:none;stroke:red;stroke-width:1px;stroke-linecap:butt;stroke-linejoin:miter;stroke-opacity:1" d="M 896.94,405.823 896.94,391.871 z" id="boundary" inkscape:connector-curvature="0" />
	<path style="fill:none;stroke:red;stroke-width:1px;stroke-linecap:butt;stroke-linejoin:miter;stroke-opacity:1" d="M 896.94,391.871 896.94,377.918 z" id="boundary" inkscape:connector-curvature="0" />
	<path style="fill:none;stroke:red;stroke-width:1px;stroke-linecap:butt;stroke-linejoin:miter;stroke-opacity:1" d="M 896.94,377.918 896.94,363.966 z" id="boundary" inkscape:connector-curvature="0" />
	<path style="fill:none;stroke:red;stroke-width:1px;stroke-linecap:butt;stroke-linejoin:miter;stroke-opacity:1" d="M 896.94,363.966 896.94,350.014 z" id="boundary" inkscape:connector-curvature="0" />
	<path style="fill:none;stroke:red;stroke-width:1px;stroke-linecap:butt;stroke-linejoin:miter;stroke-opacity:1" d="M 896.94,350.014 896.94,336.062 z" id="boundary" inkscape:connector-curvature="0" />
	<path style="fill:none;stroke:red;stroke-width:1px;stroke-linecap:butt;stroke-linejoin:miter;stroke-opacity:1" d="M 896.94,336.062 896.94,322.11 z" id="boundary" inkscape:connector-curvature="0" />
	<path style="fill:none;stroke:red;stroke-width:1px;stroke-linecap:butt;stroke-linejoin:miter;stroke-opacity:1" d="M 190.959,958.329 193.75,933.215 z" id="boundary" inkscape:connector-curvature="0" />
	<path style="fill:none;stroke:red;stroke-width:1px;stroke-linecap:butt;stroke-linejoin:miter;stroke-opacity:1" d="M 193.75,933.215 207.702,919.263 z" id="boundary" inkscape:connector-curvature="0" />
	<path style="fill:none;stroke:red;stroke-width:1px;stroke-linecap:butt;stroke-linejoin:miter;stroke-opacity:1" d="M 207.702,919.263 214.678,905.311 z" id="boundary" inkscape:connector-curvature="0" />
	<path style="fill:none;stroke:red;stroke-width:1px;stroke-linecap:butt;stroke-linejoin:miter;stroke-opacity:1" d="M 214.678,905.311 221.654,891.359 z" id="boundary" inkscape:connector-curvature="0" />
	<path style="fill:none;stroke:red;stroke-width:1px;stroke-linecap:butt;stroke-linejoin:miter;stroke-opacity:1" d="M 221.654,891.359 228.63,877.406 z" id="boundary" inkscape:connector-curvature="0" />
	<path style="fill:none;stroke:red;stroke-width:1px;stroke-linecap:butt;stroke-linejoin:miter;stroke-opacity:1" d="M 228.63,877.406 239.792,867.64 z" id="boundary" inkscape:connector-curvature="0" />
	<path style="fill:none;stroke:red;stroke-width:1px;stroke-linecap:butt;stroke-linejoin:miter;stroke-opacity:1" d="M 239.792,867.64 248.163,856.478 z" id="boundary" inkscape:connector-curvature="0" />
	<path style="fill:none;stroke:red;stroke-width:1px;stroke-linecap:butt;stroke-linejoin:miter;stroke-opacity:1" d="M 248.163,856.478 256.534,842.526 z" id="boundary" inkscape:connector-curvature="0" />
	<path style="fill:none;stroke:red;stroke-width:1px;stroke-linecap:butt;stroke-linejoin:miter;stroke-opacity:1" d="M 256.534,842.526 263.511,828.574 z" id="boundary" inkscape:connector-curvature="0" />
	<path style="fill:none;stroke:red;stroke-width:1px;stroke-linecap:butt;stroke-linejoin:miter;stroke-opacity:1" d="M 263.511,828.574 274.672,818.807 z" id="boundary" inkscape:connector-curvature="0" />
	<path style="fill:none;stroke:red;stroke-width:1px;stroke-linecap:butt;stroke-linejoin:miter;stroke-opacity:1" d="M 274.672,818.807 288.624,811.831 z" id="boundary" inkscape:connector-curvature="0" />
	<path style="fill:none;stroke:red;stroke-width:1px;stroke-linecap:butt;stroke-linejoin:miter;stroke-opacity:1" d="M 288.624,811.831 298.391,800.669 z" id="boundary" inkscape:connector-curvature="0" />
	<path style="fill:none;stroke:red;stroke-width:1px;stroke-linecap:butt;stroke-linejoin:miter;stroke-opacity:1" d="M 298.391,800.669 312.343,786.717 z" id="boundary" inkscape:connector-curvature="0" />
	<path style="fill:none;stroke:red;stroke-width:1px;stroke-linecap:butt;stroke-linejoin:miter;stroke-opacity:1" d="M 312.343,786.717 326.295,786.717 z" id="boundary" inkscape:connector-curvature="0" />
	<path style="fill:none;stroke:red;stroke-width:1px;stroke-linecap:butt;stroke-linejoin:miter;stroke-opacity:1" d="M 326.295,786.717 337.457,776.951 z" id="boundary" inkscape:connector-curvature="0" />
	<path style="fill:none;stroke:red;stroke-width:1px;stroke-linecap:butt;stroke-linejoin:miter;stroke-opacity:1" d="M 337.457,776.951 351.409,769.975 z" id="boundary" inkscape:connector-curvature="0" />
	<path style="fill:none;stroke:red;stroke-width:1px;stroke-linecap:butt;stroke-linejoin:miter;stroke-opacity:1" d="M 351.409,769.975 365.361,765.789 z" id="boundary" inkscape:connector-curvature="0" />
	<path style="fill:none;stroke:red;stroke-width:1px;stroke-linecap:butt;stroke-linejoin:miter;stroke-opacity:1" d="M 365.361,765.789 377.918,757.418 z" id="boundary" inkscape:connector-curvature="0" />
	<path style="fill:none;stroke:red;stroke-width:1px;stroke-linecap:butt;stroke-linejoin:miter;stroke-opacity:1" d="M 377.918,757.418 391.871,750.442 z" id="boundary" inkscape:connector-curvature="0" />
	<path style="fill:none;stroke:red;stroke-width:1px;stroke-linecap:butt;stroke-linejoin:miter;stroke-opacity:1" d="M 391.871,750.442 403.032,737.885 z" id="boundary" inkscape:connector-curvature="0" />
	<path style="fill:none;stroke:red;stroke-width:1px;stroke-linecap:butt;stroke-linejoin:miter;stroke-opacity:1" d="M 403.032,737.885 416.985,737.885 z" id="boundary" inkscape:connector-curvature="0" />
	<path style="fill:none;stroke:red;stroke-width:1px;stroke-linecap:butt;stroke-linejoin:miter;stroke-opacity:1" d="M 416.985,737.885 428.146,728.118 z" id="boundary" inkscape:connector-curvature="0" />
	<path style="fill:none;stroke:red;stroke-width:1px;stroke-linecap:butt;stroke-linejoin:miter;stroke-opacity:1" d="M 428.146,728.118 442.098,723.932 z" id="boundary" inkscape:connector-curvature="0" />
	<path style="fill:none;stroke:red;stroke-width:1px;stroke-linecap:butt;stroke-linejoin:miter;stroke-opacity:1" d="M 442.098,723.932 454.655,715.561 z" id="boundary" inkscape:connector-curvature="0" />
	<path style="fill:none;stroke:red;stroke-width:1px;stroke-linecap:butt;stroke-linejoin:miter;stroke-opacity:1" d="M 454.655,715.561 468.608,709.98 z" id="boundary" inkscape:connector-curvature="0" />
	<path style="fill:none;stroke:red;stroke-width:1px;stroke-linecap:butt;stroke-linejoin:miter;stroke-opacity:1" d="M 468.608,709.98 479.769,696.028 z" id="boundary" inkscape:connector-curvature="0" />
	<path style="fill:none;stroke:red;stroke-width:1px;stroke-linecap:butt;stroke-linejoin:miter;stroke-opacity:1" d="M 479.769,696.028 493.722,689.052 z" id="boundary" inkscape:connector-curvature="0" />
	<path style="fill:none;stroke:red;stroke-width:1px;stroke-linecap:butt;stroke-linejoin:miter;stroke-opacity:1" d="M 493.722,689.052 493.722,675.1 z" id="boundary" inkscape:connector-curvature="0" />
	<path style="fill:none;stroke:red;stroke-width:1px;stroke-linecap:butt;stroke-linejoin:miter;stroke-opacity:1" d="M 493.722,675.1 507.674,675.1 z" id="boundary" inkscape:connector-curvature="0" />
	<path style="fill:none;stroke:red;stroke-width:1px;stroke-linecap:butt;stroke-linejoin:miter;stroke-opacity:1" d="M 507.674,675.1 520.231,682.076 z" id="boundary" inkscape:connector-curvature="0" />
	<path style="fill:none;stroke:red;stroke-width:1px;stroke-linecap:butt;stroke-linejoin:miter;stroke-opacity:1" d="M 520.231,682.076 524.416,696.028 z" id="boundary" inkscape:connector-curvature="0" />
	<path style="fill:none;stroke:red;stroke-width:1px;stroke-linecap:butt;stroke-linejoin:miter;stroke-opacity:1" d="M 524.416,696.028 538.368,701.609 z" id="boundary" inkscape:connector-curvature="0" />
	<path style="fill:none;stroke:red;stroke-width:1px;stroke-linecap:butt;stroke-linejoin:miter;stroke-opacity:1" d="M 538.368,701.609 552.321,701.609 z" id="boundary" inkscape:connector-curvature="0" />
	<path style="fill:none;stroke:red;stroke-width:1px;stroke-linecap:butt;stroke-linejoin:miter;stroke-opacity:1" d="M 552.321,701.609 563.482,689.052 z" id="boundary" inkscape:connector-curvature="0" />
	<path style="fill:none;stroke:red;stroke-width:1px;stroke-linecap:butt;stroke-linejoin:miter;stroke-opacity:1" d="M 563.482,689.052 570.459,675.1 z" id="boundary" inkscape:connector-curvature="0" />
	<path style="fill:none;stroke:red;stroke-width:1px;stroke-linecap:butt;stroke-linejoin:miter;stroke-opacity:1" d="M 570.459,675.1 570.459,661.148 z" id="boundary" inkscape:connector-curvature="0" />
	<path style="fill:none;stroke:red;stroke-width:1px;stroke-linecap:butt;stroke-linejoin:miter;stroke-opacity:1" d="M 570.459,661.148 570.459,640.219 z" id="boundary" inkscape:connector-curvature="0" />
	<path style="fill:none;stroke:red;stroke-width:1px;stroke-linecap:butt;stroke-linejoin:miter;stroke-opacity:1" d="M 570.459,640.219 570.459,626.267 z" id="boundary" inkscape:connector-curvature="0" />
	<path style="fill:none;stroke:red;stroke-width:1px;stroke-linecap:butt;stroke-linejoin:miter;stroke-opacity:1" d="M 570.459,626.267 570.459,612.315 z" id="boundary" inkscape:connector-curvature="0" />
	<path style="fill:none;stroke:red;stroke-width:1px;stroke-linecap:butt;stroke-linejoin:miter;stroke-opacity:1" d="M 570.459,612.315 583.015,605.339 z" id="boundary" inkscape:connector-curvature="0" />
	<path style="fill:none;stroke:red;stroke-width:1px;stroke-linecap:butt;stroke-linejoin:miter;stroke-opacity:1" d="M 583.015,605.339 596.968,601.153 z" id="boundary" inkscape:connector-curvature="0" />
	<path style="fill:none;stroke:red;stroke-width:1px;stroke-linecap:butt;stroke-linejoin:miter;stroke-opacity:1" d="M 596.968,601.153 610.92,598.363 z" id="boundary" inkscape:connector-curvature="0" />
	<path style="fill:none;stroke:red;stroke-width:1px;stroke-linecap:butt;stroke-linejoin:miter;stroke-opacity:1" d="M 610.92,598.363 623.477,591.387 z" id="boundary" inkscape:connector-curvature="0" />
	<path style="fill:none;stroke:red;stroke-width:1px;stroke-linecap:butt;stroke-linejoin:miter;stroke-opacity:1" d="M 623.477,591.387 637.429,588.596 z" id="boundary" inkscape:connector-curvature="0" />
	<path style="fill:none;stroke:red;stroke-width:1px;stroke-linecap:butt;stroke-linejoin:miter;stroke-opacity:1" d="M 637.429,588.596 647.195,577.435 z" id="boundary" inkscape:connector-curvature="0" />
	<path style="fill:none;stroke:red;stroke-width:1px;stroke-linecap:butt;stroke-linejoin:miter;stroke-opacity:1" d="M 647.195,577.435 661.148,577.435 z" id="boundary" inkscape:connector-curvature="0" />
	<path style="fill:none;stroke:red;stroke-width:1px;stroke-linecap:butt;stroke-linejoin:miter;stroke-opacity:1" d="M 661.148,577.435 673.705,570.459 z" id="boundary" inkscape:connector-curvature="0" />
	<path style="fill:none;stroke:red;stroke-width:1px;stroke-linecap:butt;stroke-linejoin:miter;stroke-opacity:1" d="M 673.705,570.459 684.866,562.087 z" id="boundary" inkscape:connector-curvature="0" />
	<path style="fill:none;stroke:red;stroke-width:1px;stroke-linecap:butt;stroke-linejoin:miter;stroke-opacity:1" d="M 684.866,562.087 698.819,555.111 z" id="boundary" inkscape:connector-curvature="0" />
	<path style="fill:none;stroke:red;stroke-width:1px;stroke-linecap:butt;stroke-linejoin:miter;stroke-opacity:1" d="M 698.819,555.111 705.795,541.159 z" id="boundary" inkscape:connector-curvature="0" />
	<path style="fill:none;stroke:red;stroke-width:1px;stroke-linecap:butt;stroke-linejoin:miter;stroke-opacity:1" d="M 705.795,541.159 716.956,521.626 z" id="boundary" inkscape:connector-curvature="0" />
	<path style="fill:none;stroke:red;stroke-width:1px;stroke-linecap:butt;stroke-linejoin:miter;stroke-opacity:1" d="M 716.956,521.626 723.932,507.674 z" id="boundary" inkscape:connector-curvature="0" />
	<path style="fill:none;stroke:red;stroke-width:1px;stroke-linecap:butt;stroke-linejoin:miter;stroke-opacity:1" d="M 723.932,507.674 735.094,497.907 z" id="boundary" inkscape:connector-curvature="0" />
	<path style="fill:none;stroke:red;stroke-width:1px;stroke-linecap:butt;stroke-linejoin:miter;stroke-opacity:1" d="M 735.094,497.907 737.885,479.769 z" id="boundary" inkscape:connector-curvature="0" />
	<path style="fill:none;stroke:red;stroke-width:1px;stroke-linecap:butt;stroke-linejoin:miter;stroke-opacity:1" d="M 737.885,479.769 749.046,470.003 z" id="boundary" inkscape:connector-curvature="0" />
	<path style="fill:none;stroke:red;stroke-width:1px;stroke-linecap:butt;stroke-linejoin:miter;stroke-opacity:1" d="M 749.046,470.003 747.651,451.865 z" id="boundary" inkscape:connector-curvature="0" />
	<path style="fill:none;stroke:red;stroke-width:1px;stroke-linecap:butt;stroke-linejoin:miter;stroke-opacity:1" d="M 747.651,451.865 744.861,437.913 z" id="boundary" inkscape:connector-curvature="0" />
	<path style="fill:none;stroke:red;stroke-width:1px;stroke-linecap:butt;stroke-linejoin:miter;stroke-opacity:1" d="M 744.861,437.913 756.023,428.146 z" id="boundary" inkscape:connector-curvature="0" />
	<path style="fill:none;stroke:red;stroke-width:1px;stroke-linecap:butt;stroke-linejoin:miter;stroke-opacity:1" d="M 756.023,428.146 769.975,421.17 z" id="boundary" inkscape:connector-curvature="0" />
	<path style="fill:none;stroke:red;stroke-width:1px;stroke-linecap:butt;stroke-linejoin:miter;stroke-opacity:1" d="M 769.975,421.17 778.346,410.008 z" id="boundary" inkscape:connector-curvature="0" />
	<path style="fill:none;stroke:red;stroke-width:1px;stroke-linecap:butt;stroke-linejoin:miter;stroke-opacity:1" d="M 778.346,410.008 779.741,396.056 z" id="boundary" inkscape:connector-curvature="0" />
	<path style="fill:none;stroke:red;stroke-width:1px;stroke-linecap:butt;stroke-linejoin:miter;stroke-opacity:1" d="M 779.741,396.056 779.741,382.104 z" id="boundary" inkscape:connector-curvature="0" />
	<path style="fill:none;stroke:red;stroke-width:1px;stroke-linecap:butt;stroke-linejoin:miter;stroke-opacity:1" d="M 779.741,382.104 779.741,368.152 z" id="boundary" inkscape:connector-curvature="0" />
	<path style="fill:none;stroke:red;stroke-width:1px;stroke-linecap:butt;stroke-linejoin:miter;stroke-opacity:1" d="M 779.741,368.152 786.717,347.224 z" id="boundary" inkscape:connector-curvature="0" />
	<path style="fill:none;stroke:red;stroke-width:1px;stroke-linecap:butt;stroke-linejoin:miter;stroke-opacity:1" d="M 786.717,347.224 793.693,333.271 z" id="boundary" inkscape:connector-curvature="0" />
	<path style="fill:none;stroke:red;stroke-width:1px;stroke-linecap:butt;stroke-linejoin:miter;stroke-opacity:1" d="M 793.693,333.271 793.693,319.319 z" id="boundary" inkscape:connector-curvature="0" />
	<path style="fill:none;stroke:red;stroke-width:1px;stroke-linecap:butt;stroke-linejoin:miter;stroke-opacity:1" d="M 793.693,319.319 800.669,305.367 z" id="boundary" inkscape:connector-curvature="0" />
	<path style="fill:none;stroke:red;stroke-width:1px;stroke-linecap:butt;stroke-linejoin:miter;stroke-opacity:1" d="M 800.669,305.367 807.646,284.439 z" id="boundary" inkscape:connector-curvature="0" />
	<path style="fill:none;stroke:red;stroke-width:1px;stroke-linecap:butt;stroke-linejoin:miter;stroke-opacity:1" d="M 807.646,284.439 818.807,274.672 z" id="boundary" inkscape:connector-curvature="0" />
	<path style="fill:none;stroke:red;stroke-width:1px;stroke-linecap:butt;stroke-linejoin:miter;stroke-opacity:1" d="M 818.807,274.672 828.574,256.534 z" id="boundary" inkscape:connector-curvature="0" />
	<path style="fill:none;stroke:red;stroke-width:1px;stroke-linecap:butt;stroke-linejoin:miter;stroke-opacity:1" d="M 828.574,256.534 842.526,256.534 z" id="boundary" inkscape:connector-curvature="0" />
	<path style="fill:none;stroke:red;stroke-width:1px;stroke-linecap:butt;stroke-linejoin:miter;stroke-opacity:1" d="M 842.526,256.534 855.083,249.558 z" id="boundary" inkscape:connector-curvature="0" />
	<path style="fill:none;stroke:red;stroke-width:1px;stroke-linecap:butt;stroke-linejoin:miter;stroke-opacity:1" d="M 855.083,249.558 869.035,249.558 z" id="boundary" inkscape:connector-curvature="0" />
	<path style="fill:none;stroke:red;stroke-width:1px;stroke-linecap:butt;stroke-linejoin:miter;stroke-opacity:1" d="M 869.035,249.558 881.592,256.534 z" id="boundary" inkscape:connector-curvature="0" />
	<path style="fill:none;stroke:red;stroke-width:1px;stroke-linecap:butt;stroke-linejoin:miter;stroke-opacity:1" d="M 881.592,256.534 882.987,270.487 z" id="boundary" inkscape:connector-curvature="0" />
	<path style="fill:none;stroke:red;stroke-width:1px;stroke-linecap:butt;stroke-linejoin:miter;stroke-opacity:1" d="M 882.987,270.487 889.963,283.044 z" id="boundary" inkscape:connector-curvature="0" />
	<path style="fill:none;stroke:red;stroke-width:1px;stroke-linecap:butt;stroke-linejoin:miter;stroke-opacity:1" d="M 889.963,283.044 896.94,295.601 z" id="boundary" inkscape:connector-curvature="0" />
	<path style="fill:none;stroke:red;stroke-width:1px;stroke-linecap:butt;stroke-linejoin:miter;stroke-opacity:1" d="M 896.94,295.601 896.94,322.11 z" id="boundary" inkscape:connector-curvature="0" />
	<path style="fill:none;stroke:red;stroke-width:1px;stroke-linecap:butt;stroke-linejoin:miter;stroke-opacity:1" d="M 743.466,873.221 743.466,859.269 z" id="boundary" inkscape:connector-curvature="0" />
	<path style="fill:none;stroke:red;stroke-width:1px;stroke-linecap:butt;stroke-linejoin:miter;stroke-opacity:1" d="M 743.466,873.221 743.466,887.173 z" id="boundary" inkscape:connector-curvature="0" />
	<path style="fill:none;stroke:red;stroke-width:1px;stroke-linecap:butt;stroke-linejoin:miter;stroke-opacity:1" d="M 743.466,887.173 751.837,898.335 z" id="boundary" inkscape:connector-curvature="0" />
	<path style="fill:none;stroke:red;stroke-width:1px;stroke-linecap:butt;stroke-linejoin:miter;stroke-opacity:1" d="M 751.837,898.335 758.813,884.383 z" id="boundary" inkscape:connector-curvature="0" />
	<path style="fill:none;stroke:red;stroke-width:1px;stroke-linecap:butt;stroke-linejoin:miter;stroke-opacity:1" d="M 758.813,884.383 758.813,870.43 z" id="boundary" inkscape:connector-curvature="0" />
	<path style="fill:none;stroke:red;stroke-width:1px;stroke-linecap:butt;stroke-linejoin:miter;stroke-opacity:1" d="M 758.813,870.43 743.466,859.269 z" id="boundary" inkscape:connector-curvature="0" />
	<path style="fill:none;stroke:red;stroke-width:1px;stroke-linecap:butt;stroke-linejoin:miter;stroke-opacity:1" d="M 750.442,838.34 750.442,824.388 z" id="boundary" inkscape:connector-curvature="0" />
	<path style="fill:none;stroke:red;stroke-width:1px;stroke-linecap:butt;stroke-linejoin:miter;stroke-opacity:1" d="M 750.442,824.388 750.442,810.436 z" id="boundary" inkscape:connector-curvature="0" />
	<path style="fill:none;stroke:red;stroke-width:1px;stroke-linecap:butt;stroke-linejoin:miter;stroke-opacity:1" d="M 750.442,810.436 757.418,796.484 z" id="boundary" inkscape:connector-curvature="0" />
	<path style="fill:none;stroke:red;stroke-width:1px;stroke-linecap:butt;stroke-linejoin:miter;stroke-opacity:1" d="M 757.418,796.484 757.418,782.532 z" id="boundary" inkscape:connector-curvature="0" />
	<path style="fill:none;stroke:red;stroke-width:1px;stroke-linecap:butt;stroke-linejoin:miter;stroke-opacity:1" d="M 757.418,782.532 764.394,768.579 z" id="boundary" inkscape:connector-curvature="0" />
	<path style="fill:none;stroke:red;stroke-width:1px;stroke-linecap:butt;stroke-linejoin:miter;stroke-opacity:1" d="M 764.394,768.579 764.394,754.627 z" id="boundary" inkscape:connector-curvature="0" />
	<path style="fill:none;stroke:red;stroke-width:1px;stroke-linecap:butt;stroke-linejoin:miter;stroke-opacity:1" d="M 764.394,754.627 779.741,758.813 z" id="boundary" inkscape:connector-curvature="0" />
	<path style="fill:none;stroke:red;stroke-width:1px;stroke-linecap:butt;stroke-linejoin:miter;stroke-opacity:1" d="M 779.741,758.813 779.741,772.765 z" id="boundary" inkscape:connector-curvature="0" />
	<path style="fill:none;stroke:red;stroke-width:1px;stroke-linecap:butt;stroke-linejoin:miter;stroke-opacity:1" d="M 779.741,772.765 772.765,786.717 z" id="boundary" inkscape:connector-curvature="0" />
	<path style="fill:none;stroke:red;stroke-width:1px;stroke-linecap:butt;stroke-linejoin:miter;stroke-opacity:1" d="M 772.765,786.717 772.765,800.669 z" id="boundary" inkscape:connector-curvature="0" />
	<path style="fill:none;stroke:red;stroke-width:1px;stroke-linecap:butt;stroke-linejoin:miter;stroke-opacity:1" d="M 772.765,800.669 765.789,814.622 z" id="boundary" inkscape:connector-curvature="0" />
	<path style="fill:none;stroke:red;stroke-width:1px;stroke-linecap:butt;stroke-linejoin:miter;stroke-opacity:1" d="M 765.789,814.622 765.789,828.574 z" id="boundary" inkscape:connector-curvature="0" />
	<path style="fill:none;stroke:red;stroke-width:1px;stroke-linecap:butt;stroke-linejoin:miter;stroke-opacity:1" d="M 765.789,828.574 765.789,842.526 z" id="boundary" inkscape:connector-curvature="0" />
	<path style="fill:none;stroke:red;stroke-width:1px;stroke-linecap:butt;stroke-linejoin:miter;stroke-opacity:1" d="M 750.442,838.34 765.789,842.526 z" id="boundary" inkscape:connector-curvature="0" />
	<path style="fill:none;stroke:red;stroke-width:1px;stroke-linecap:butt;stroke-linejoin:miter;stroke-opacity:1" d="M 778.346,719.747 778.346,705.795 z" id="boundary" inkscape:connector-curvature="0" />
	<path style="fill:none;stroke:red;stroke-width:1px;stroke-linecap:butt;stroke-linejoin:miter;stroke-opacity:1" d="M 778.346,719.747 771.37,733.699 z" id="boundary" inkscape:connector-curvature="0" />
	<path style="fill:none;stroke:red;stroke-width:1px;stroke-linecap:butt;stroke-linejoin:miter;stroke-opacity:1" d="M 778.346,705.795 789.508,694.633 z" id="boundary" inkscape:connector-curvature="0" />
	<path style="fill:none;stroke:red;stroke-width:1px;stroke-linecap:butt;stroke-linejoin:miter;stroke-opacity:1" d="M 789.508,694.633 792.298,677.89 z" id="boundary" inkscape:connector-curvature="0" />
	<path style="fill:none;stroke:red;stroke-width:1px;stroke-linecap:butt;stroke-linejoin:miter;stroke-opacity:1" d="M 792.298,677.89 803.46,666.729 z" id="boundary" inkscape:connector-curvature="0" />
	<path style="fill:none;stroke:red;stroke-width:1px;stroke-linecap:butt;stroke-linejoin:miter;stroke-opacity:1" d="M 803.46,666.729 806.25,649.986 z" id="boundary" inkscape:connector-curvature="0" />
	<path style="fill:none;stroke:red;stroke-width:1px;stroke-linecap:butt;stroke-linejoin:miter;stroke-opacity:1" d="M 806.25,649.986 817.412,638.824 z" id="boundary" inkscape:connector-curvature="0" />
	<path style="fill:none;stroke:red;stroke-width:1px;stroke-linecap:butt;stroke-linejoin:miter;stroke-opacity:1" d="M 817.412,638.824 828.574,647.195 z" id="boundary" inkscape:connector-curvature="0" />
	<path style="fill:none;stroke:red;stroke-width:1px;stroke-linecap:butt;stroke-linejoin:miter;stroke-opacity:1" d="M 828.574,647.195 839.736,637.429 z" id="boundary" inkscape:connector-curvature="0" />
	<path style="fill:none;stroke:red;stroke-width:1px;stroke-linecap:butt;stroke-linejoin:miter;stroke-opacity:1" d="M 839.736,637.429 842.526,619.291 z" id="boundary" inkscape:connector-curvature="0" />
	<path style="fill:none;stroke:red;stroke-width:1px;stroke-linecap:butt;stroke-linejoin:miter;stroke-opacity:1" d="M 842.526,619.291 853.688,609.525 z" id="boundary" inkscape:connector-curvature="0" />
	<path style="fill:none;stroke:red;stroke-width:1px;stroke-linecap:butt;stroke-linejoin:miter;stroke-opacity:1" d="M 853.688,609.525 856.478,591.387 z" id="boundary" inkscape:connector-curvature="0" />
	<path style="fill:none;stroke:red;stroke-width:1px;stroke-linecap:butt;stroke-linejoin:miter;stroke-opacity:1" d="M 856.478,591.387 867.64,581.62 z" id="boundary" inkscape:connector-curvature="0" />
	<path style="fill:none;stroke:red;stroke-width:1px;stroke-linecap:butt;stroke-linejoin:miter;stroke-opacity:1" d="M 867.64,581.62 874.616,567.668 z" id="boundary" inkscape:connector-curvature="0" />
	<path style="fill:none;stroke:red;stroke-width:1px;stroke-linecap:butt;stroke-linejoin:miter;stroke-opacity:1" d="M 874.616,567.668 881.592,553.716 z" id="boundary" inkscape:connector-curvature="0" />
	<path style="fill:none;stroke:red;stroke-width:1px;stroke-linecap:butt;stroke-linejoin:miter;stroke-opacity:1" d="M 881.592,553.716 884.383,535.578 z" id="boundary" inkscape:connector-curvature="0" />
	<path style="fill:none;stroke:red;stroke-width:1px;stroke-linecap:butt;stroke-linejoin:miter;stroke-opacity:1" d="M 884.383,535.578 891.359,521.626 z" id="boundary" inkscape:connector-curvature="0" />
	<path style="fill:none;stroke:red;stroke-width:1px;stroke-linecap:butt;stroke-linejoin:miter;stroke-opacity:1" d="M 771.37,733.699 786.717,744.861 z" id="boundary" inkscape:connector-curvature="0" />
	<path style="fill:none;stroke:red;stroke-width:1px;stroke-linecap:butt;stroke-linejoin:miter;stroke-opacity:1" d="M 891.359,521.626 898.335,500.698 z" id="boundary" inkscape:connector-curvature="0" />
	<path style="fill:none;stroke:red;stroke-width:1px;stroke-linecap:butt;stroke-linejoin:miter;stroke-opacity:1" d="M 898.335,500.698 898.335,486.745 z" id="boundary" inkscape:connector-curvature="0" />
	<path style="fill:none;stroke:red;stroke-width:1px;stroke-linecap:butt;stroke-linejoin:miter;stroke-opacity:1" d="M 898.335,486.745 909.496,476.979 z" id="boundary" inkscape:connector-curvature="0" />
	<path style="fill:none;stroke:red;stroke-width:1px;stroke-linecap:butt;stroke-linejoin:miter;stroke-opacity:1" d="M 786.717,744.861 793.693,723.932 z" id="boundary" inkscape:connector-curvature="0" />
	<path style="fill:none;stroke:red;stroke-width:1px;stroke-linecap:butt;stroke-linejoin:miter;stroke-opacity:1" d="M 793.693,723.932 800.669,709.98 z" id="boundary" inkscape:connector-curvature="0" />
	<path style="fill:none;stroke:red;stroke-width:1px;stroke-linecap:butt;stroke-linejoin:miter;stroke-opacity:1" d="M 800.669,709.98 807.646,696.028 z" id="boundary" inkscape:connector-curvature="0" />
	<path style="fill:none;stroke:red;stroke-width:1px;stroke-linecap:butt;stroke-linejoin:miter;stroke-opacity:1" d="M 807.646,696.028 814.622,682.076 z" id="boundary" inkscape:connector-curvature="0" />
	<path style="fill:none;stroke:red;stroke-width:1px;stroke-linecap:butt;stroke-linejoin:miter;stroke-opacity:1" d="M 814.622,682.076 821.598,668.124 z" id="boundary" inkscape:connector-curvature="0" />
	<path style="fill:none;stroke:red;stroke-width:1px;stroke-linecap:butt;stroke-linejoin:miter;stroke-opacity:1" d="M 909.496,476.979 882.987,475.584 z" id="boundary" inkscape:connector-curvature="0" />
	<path style="fill:none;stroke:red;stroke-width:1px;stroke-linecap:butt;stroke-linejoin:miter;stroke-opacity:1" d="M 882.987,475.584 882.987,461.632 z" id="boundary" inkscape:connector-curvature="0" />
	<path style="fill:none;stroke:red;stroke-width:1px;stroke-linecap:butt;stroke-linejoin:miter;stroke-opacity:1" d="M 882.987,461.632 876.011,489.536 z" id="boundary" inkscape:connector-curvature="0" />
	<path style="fill:none;stroke:red;stroke-width:1px;stroke-linecap:butt;stroke-linejoin:miter;stroke-opacity:1" d="M 876.011,489.536 869.035,503.488 z" id="boundary" inkscape:connector-curvature="0" />
	<path style="fill:none;stroke:red;stroke-width:1px;stroke-linecap:butt;stroke-linejoin:miter;stroke-opacity:1" d="M 869.035,503.488 869.035,517.44 z" id="boundary" inkscape:connector-curvature="0" />
	<path style="fill:none;stroke:red;stroke-width:1px;stroke-linecap:butt;stroke-linejoin:miter;stroke-opacity:1" d="M 869.035,517.44 862.059,531.392 z" id="boundary" inkscape:connector-curvature="0" />
	<path style="fill:none;stroke:red;stroke-width:1px;stroke-linecap:butt;stroke-linejoin:miter;stroke-opacity:1" d="M 862.059,531.392 855.083,545.345 z" id="boundary" inkscape:connector-curvature="0" />
	<path style="fill:none;stroke:red;stroke-width:1px;stroke-linecap:butt;stroke-linejoin:miter;stroke-opacity:1" d="M 855.083,545.345 852.293,569.063 z" id="boundary" inkscape:connector-curvature="0" />
	<path style="fill:none;stroke:red;stroke-width:1px;stroke-linecap:butt;stroke-linejoin:miter;stroke-opacity:1" d="M 852.293,569.063 841.131,580.225 z" id="boundary" inkscape:connector-curvature="0" />
	<path style="fill:none;stroke:red;stroke-width:1px;stroke-linecap:butt;stroke-linejoin:miter;stroke-opacity:1" d="M 841.131,580.225 834.155,594.177 z" id="boundary" inkscape:connector-curvature="0" />
	<path style="fill:none;stroke:red;stroke-width:1px;stroke-linecap:butt;stroke-linejoin:miter;stroke-opacity:1" d="M 834.155,594.177 827.179,608.129 z" id="boundary" inkscape:connector-curvature="0" />
	<path style="fill:none;stroke:red;stroke-width:1px;stroke-linecap:butt;stroke-linejoin:miter;stroke-opacity:1" d="M 827.179,608.129 820.203,622.082 z" id="boundary" inkscape:connector-curvature="0" />
	<circle cx="4" cy="384.895" r="4" fill="#0" id="circle0"/>
	<circle cx="4" cy="398.847" r="4" fill="#0" id="circle1"/>
	<circle cx="10.9761" cy="411.404" r="4" fill="#0" id="circle2"/>
	<circle cx="10.9761" cy="425.356" r="4" fill="#0" id="circle3"/>
	<circle cx="15.1617" cy="373.733" r="4" fill="#0" id="circle4"/>
	<circle cx="20.7426" cy="436.518" r="4" fill="#0" id="circle5"/>
	<circle cx="24.9283" cy="356.99" r="4" fill="#0" id="circle6"/>
	<circle cx="27.7187" cy="449.075" r="4" fill="#0" id="circle7"/>
	<circle cx="33.2996" cy="463.027" r="4" fill="#0" id="circle8"/>
	<circle cx="36.09" cy="345.828" r="4" fill="#0" id="circle9"/>
	<circle cx="40.2757" cy="475.584" r="4" fill="#0" id="circle10"/>
	<circle cx="50.0422" cy="338.852" r="4" fill="#0" id="circle11"/>
	<circle cx="50.0422" cy="486.745" r="4" fill="#0" id="circle12"/>
	<circle cx="57.0183" cy="499.302" r="4" fill="#0" id="circle13"/>
	<circle cx="59.8087" cy="513.255" r="4" fill="#0" id="circle14"/>
	<circle cx="62.5992" cy="527.207" r="4" fill="#0" id="circle15"/>
	<circle cx="63.9944" cy="331.876" r="4" fill="#0" id="circle16"/>
	<circle cx="66.7848" cy="541.159" r="4" fill="#0" id="circle17"/>
	<circle cx="66.7848" cy="555.111" r="4" fill="#0" id="circle18"/>
	<circle cx="66.7848" cy="569.063" r="4" fill="#0" id="circle19"/>
	<circle cx="66.7848" cy="583.015" r="4" fill="#0" id="circle20"/>
	<circle cx="69.5752" cy="596.968" r="4" fill="#0" id="circle21"/>
	<circle cx="73.7609" cy="610.92" r="4" fill="#0" id="circle22"/>
	<circle cx="73.7609" cy="624.872" r="4" fill="#0" id="circle23"/>
	<circle cx="73.7609" cy="638.824" r="4" fill="#0" id="circle24"/>
	<circle cx="73.7609" cy="652.776" r="4" fill="#0" id="circle25"/>
	<circle cx="73.7609" cy="666.729" r="4" fill="#0" id="circle26"/>
	<circle cx="73.7609" cy="680.681" r="4" fill="#0" id="circle27"/>
	<circle cx="73.7609" cy="694.633" r="4" fill="#0" id="circle28"/>
	<circle cx="73.7609" cy="708.585" r="4" fill="#0" id="circle29"/>
	<circle cx="73.7609" cy="722.537" r="4" fill="#0" id="circle30"/>
	<circle cx="76.5513" cy="736.489" r="4" fill="#0" id="circle31"/>
	<circle cx="77.9466" cy="331.876" r="4" fill="#0" id="circle32"/>
	<circle cx="80.737" cy="750.442" r="4" fill="#0" id="circle33"/>
	<circle cx="80.737" cy="764.394" r="4" fill="#0" id="circle34"/>
	<circle cx="87.7131" cy="776.951" r="4" fill="#0" id="circle35"/>
	<circle cx="87.7131" cy="790.903" r="4" fill="#0" id="circle36"/>
	<circle cx="87.7131" cy="804.855" r="4" fill="#0" id="circle37"/>
	<circle cx="87.7131" cy="818.807" r="4" fill="#0" id="circle38"/>
	<circle cx="89.1083" cy="832.759" r="4" fill="#0" id="circle39"/>
	<circle cx="91.8987" cy="331.876" r="4" fill="#0" id="circle40"/>
	<circle cx="94.6892" cy="846.712" r="4" fill="#0" id="circle41"/>
	<circle cx="101.665" cy="859.269" r="4" fill="#0" id="circle42"/>
	<circle cx="101.665" cy="873.221" r="4" fill="#0" id="circle43"/>
	<circle cx="101.665" cy="887.173" r="4" fill="#0" id="circle44"/>
	<circle cx="105.851" cy="331.876" r="4" fill="#0" id="circle45"/>
	<circle cx="108.641" cy="899.73" r="4" fill="#0" id="circle46"/>
	<circle cx="115.617" cy="912.287" r="4" fill="#0" id="circle47"/>
	<circle cx="115.617" cy="926.239" r="4" fill="#0" id="circle48"/>
	<circle cx="119.803" cy="324.9" r="4" fill="#0" id="circle49"/>
	<circle cx="119.803" cy="940.191" r="4" fill="#0" id="circle50"/>
	<circle cx="122.594" cy="954.143" r="4" fill="#0" id="circle51"/>
	<circle cx="129.57" cy="966.7" r="4" fill="#0" id="circle52"/>
	<circle cx="132.36" cy="317.924" r="4" fill="#0" id="circle53"/>
	<circle cx="137.941" cy="977.862" r="4" fill="#0" id="circle54"/>
	<circle cx="144.917" cy="310.948" r="4" fill="#0" id="circle55"/>
	<circle cx="147.707" cy="989.024" r="4" fill="#0" id="circle56"/>
	<circle cx="157.474" cy="301.181" r="4" fill="#0" id="circle57"/>
	<circle cx="160.264" cy="996" r="4" fill="#0" id="circle58"/>
	<circle cx="164.45" cy="287.229" r="4" fill="#0" id="circle59"/>
	<circle cx="172.821" cy="989.024" r="4" fill="#0" id="circle60"/>
	<circle cx="175.612" cy="276.068" r="4" fill="#0" id="circle61"/>
	<circle cx="179.797" cy="968.096" r="4" fill="#0" id="circle62"/>
	<circle cx="188.169" cy="269.091" r="4" fill="#0" id="circle63"/>
	<circle cx="190.959" cy="958.329" r="4" fill="#0" id="circle64"/>
	<circle cx="193.75" cy="933.215" r="4" fill="#0" id="circle65"/>
	<circle cx="195.145" cy="256.534" r="4" fill="#0" id="circle66"/>
	<circle cx="206.307" cy="245.373" r="4" fill="#0" id="circle67"/>
	<circle cx="207.702" cy="919.263" r="4" fill="#0" id="circle68"/>
	<circle cx="214.678" cy="905.311" r="4" fill="#0" id="circle69"/>
	<circle cx="217.468" cy="234.211" r="4" fill="#0" id="circle70"/>
	<circle cx="221.654" cy="891.359" r="4" fill="#0" id="circle71"/>
	<circle cx="227.235" cy="217.468" r="4" fill="#0" id="circle72"/>
	<circle cx="228.63" cy="877.406" r="4" fill="#0" id="circle73"/>
	<circle cx="238.397" cy="206.307" r="4" fill="#0" id="circle74"/>
	<circle cx="239.792" cy="867.64" r="4" fill="#0" id="circle75"/>
	<circle cx="248.163" cy="856.478" r="4" fill="#0" id="circle76"/>
	<circle cx="249.558" cy="195.145" r="4" fill="#0" id="circle77"/>
	<circle cx="256.534" cy="842.526" r="4" fill="#0" id="circle78"/>
	<circle cx="260.72" cy="185.378" r="4" fill="#0" id="circle79"/>
	<circle cx="263.511" cy="828.574" r="4" fill="#0" id="circle80"/>
	<circle cx="270.487" cy="174.217" r="4" fill="#0" id="circle81"/>
	<circle cx="274.672" cy="818.807" r="4" fill="#0" id="circle82"/>
	<circle cx="281.648" cy="164.45" r="4" fill="#0" id="circle83"/>
	<circle cx="288.624" cy="811.831" r="4" fill="#0" id="circle84"/>
	<circle cx="291.415" cy="153.288" r="4" fill="#0" id="circle85"/>
	<circle cx="298.391" cy="800.669" r="4" fill="#0" id="circle86"/>
	<circle cx="302.577" cy="143.522" r="4" fill="#0" id="circle87"/>
	<circle cx="312.343" cy="786.717" r="4" fill="#0" id="circle88"/>
	<circle cx="315.134" cy="136.546" r="4" fill="#0" id="circle89"/>
	<circle cx="326.295" cy="125.384" r="4" fill="#0" id="circle90"/>
	<circle cx="326.295" cy="786.717" r="4" fill="#0" id="circle91"/>
	<circle cx="337.457" cy="115.617" r="4" fill="#0" id="circle92"/>
	<circle cx="337.457" cy="776.951" r="4" fill="#0" id="circle93"/>
	<circle cx="347.224" cy="104.456" r="4" fill="#0" id="circle94"/>
	<circle cx="351.409" cy="769.975" r="4" fill="#0" id="circle95"/>
	<circle cx="361.176" cy="97.4796" r="4" fill="#0" id="circle96"/>
	<circle cx="365.361" cy="765.789" r="4" fill="#0" id="circle97"/>
	<circle cx="372.338" cy="87.7131" r="4" fill="#0" id="circle98"/>
	<circle cx="377.918" cy="757.418" r="4" fill="#0" id="circle99"/>
	<circle cx="384.895" cy="80.737" r="4" fill="#0" id="circle100"/>
	<circle cx="391.871" cy="750.442" r="4" fill="#0" id="circle101"/>
	<circle cx="397.451" cy="73.7609" r="4" fill="#0" id="circle102"/>
	<circle cx="403.032" cy="737.885" r="4" fill="#0" id="circle103"/>
	<circle cx="404.428" cy="61.2039" r="4" fill="#0" id="circle104"/>
	<circle cx="416.985" cy="737.885" r="4" fill="#0" id="circle105"/>
	<circle cx="418.38" cy="54.2278" r="4" fill="#0" id="circle106"/>
	<circle cx="428.146" cy="728.118" r="4" fill="#0" id="circle107"/>
	<circle cx="429.541" cy="45.8565" r="4" fill="#0" id="circle108"/>
	<circle cx="442.098" cy="38.8805" r="4" fill="#0" id="circle109"/>
	<circle cx="442.098" cy="723.932" r="4" fill="#0" id="circle110"/>
	<circle cx="454.655" cy="31.9044" r="4" fill="#0" id="circle111"/>
	<circle cx="454.655" cy="715.561" r="4" fill="#0" id="circle112"/>
	<circle cx="468.608" cy="24.9283" r="4" fill="#0" id="circle113"/>
	<circle cx="468.608" cy="709.98" r="4" fill="#0" id="circle114"/>
	<circle cx="479.769" cy="696.028" r="4" fill="#0" id="circle115"/>
	<circle cx="481.165" cy="17.9522" r="4" fill="#0" id="circle116"/>
	<circle cx="492.326" cy="8.18565" r="4" fill="#0" id="circle117"/>
	<circle cx="493.722" cy="193.75" r="4" fill="#0" id="circle118"/>
	<circle cx="493.722" cy="207.702" r="4" fill="#0" id="circle119"/>
	<circle cx="493.722" cy="221.654" r="4" fill="#0" id="circle120"/>
	<circle cx="493.722" cy="235.606" r="4" fill="#0" id="circle121"/>
	<circle cx="493.722" cy="249.558" r="4" fill="#0" id="circle122"/>
	<circle cx="493.722" cy="263.511" r="4" fill="#0" id="circle123"/>
	<circle cx="493.722" cy="277.463" r="4" fill="#0" id="circle124"/>
	<circle cx="493.722" cy="291.415" r="4" fill="#0" id="circle125"/>
	<circle cx="493.722" cy="675.1" r="4" fill="#0" id="circle126"/>
	<circle cx="493.722" cy="689.052" r="4" fill="#0" id="circle127"/>
	<circle cx="500.698" cy="179.797" r="4" fill="#0" id="circle128"/>
	<circle cx="500.698" cy="303.972" r="4" fill="#0" id="circle129"/>
	<circle cx="500.698" cy="317.924" r="4" fill="#0" id="circle130"/>
	<circle cx="506.278" cy="4" r="4" fill="#0" id="circle131"/>
	<circle cx="507.674" cy="123.989" r="4" fill="#0" id="circle132"/>
	<circle cx="507.674" cy="137.941" r="4" fill="#0" id="circle133"/>
	<circle cx="507.674" cy="151.893" r="4" fill="#0" id="circle134"/>
	<circle cx="507.674" cy="165.845" r="4" fill="#0" id="circle135"/>
	<circle cx="507.674" cy="330.481" r="4" fill="#0" id="circle136"/>
	<circle cx="507.674" cy="344.433" r="4" fill="#0" id="circle137"/>
	<circle cx="507.674" cy="675.1" r="4" fill="#0" id="circle138"/>
	<circle cx="514.65" cy="110.037" r="4" fill="#0" id="circle139"/>
	<circle cx="518.835" cy="354.2" r="4" fill="#0" id="circle140"/>
	<circle cx="520.231" cy="4" r="4" fill="#0" id="circle141"/>
	<circle cx="520.231" cy="682.076" r="4" fill="#0" id="circle142"/>
	<circle cx="521.626" cy="82.1322" r="4" fill="#0" id="circle143"/>
	<circle cx="521.626" cy="96.0844" r="4" fill="#0" id="circle144"/>
	<circle cx="521.626" cy="368.152" r="4" fill="#0" id="circle145"/>
	<circle cx="524.416" cy="696.028" r="4" fill="#0" id="circle146"/>
	<circle cx="528.602" cy="54.2278" r="4" fill="#0" id="circle147"/>
	<circle cx="528.602" cy="68.18" r="4" fill="#0" id="circle148"/>
	<circle cx="528.602" cy="380.709" r="4" fill="#0" id="circle149"/>
	<circle cx="528.602" cy="394.661" r="4" fill="#0" id="circle150"/>
	<circle cx="534.183" cy="4" r="4" fill="#0" id="circle151"/>
	<circle cx="535.578" cy="33.2996" r="4" fill="#0" id="circle152"/>
	<circle cx="535.578" cy="407.218" r="4" fill="#0" id="circle153"/>
	<circle cx="538.368" cy="701.609" r="4" fill="#0" id="circle154"/>
	<circle cx="542.554" cy="15.1617" r="4" fill="#0" id="circle155"/>
	<circle cx="542.554" cy="419.775" r="4" fill="#0" id="circle156"/>
	<circle cx="548.135" cy="433.727" r="4" fill="#0" id="circle157"/>
	<circle cx="552.321" cy="701.609" r="4" fill="#0" id="circle158"/>
	<circle cx="556.506" cy="444.889" r="4" fill="#0" id="circle159"/>
	<circle cx="559.297" cy="458.841" r="4" fill="#0" id="circle160"/>
	<circle cx="563.482" cy="689.052" r="4" fill="#0" id="circle161"/>
	<circle cx="570.459" cy="612.315" r="4" fill="#0" id="circle162"/>
	<circle cx="570.459" cy="626.267" r="4" fill="#0" id="circle163"/>
	<circle cx="570.459" cy="640.219" r="4" fill="#0" id="circle164"/>
	<circle cx="570.459" cy="661.148" r="4" fill="#0" id="circle165"/>
	<circle cx="570.459" cy="675.1" r="4" fill="#0" id="circle166"/>
	<circle cx="573.249" cy="464.422" r="4" fill="#0" id="circle167"/>
	<circle cx="583.015" cy="605.339" r="4" fill="#0" id="circle168"/>
	<circle cx="587.201" cy="464.422" r="4" fill="#0" id="circle169"/>
	<circle cx="596.968" cy="601.153" r="4" fill="#0" id="circle170"/>
	<circle cx="598.363" cy="528.602" r="4" fill="#0" id="circle171"/>
	<circle cx="598.363" cy="542.554" r="4" fill="#0" id="circle172"/>
	<circle cx="601.153" cy="464.422" r="4" fill="#0" id="circle173"/>
	<circle cx="609.525" cy="518.835" r="4" fill="#0" id="circle174"/>
	<circle cx="610.92" cy="598.363" r="4" fill="#0" id="circle175"/>
	<circle cx="612.315" cy="543.949" r="4" fill="#0" id="circle176"/>
	<circle cx="613.71" cy="471.398" r="4" fill="#0" id="circle177"/>
	<circle cx="616.501" cy="504.883" r="4" fill="#0" id="circle178"/>
	<circle cx="619.291" cy="485.35" r="4" fill="#0" id="circle179"/>
	<circle cx="623.477" cy="591.387" r="4" fill="#0" id="circle180"/>
	<circle cx="626.267" cy="536.973" r="4" fill="#0" id="circle181"/>
	<circle cx="637.429" cy="527.207" r="4" fill="#0" id="circle182"/>
	<circle cx="637.429" cy="588.596" r="4" fill="#0" id="circle183"/>
	<circle cx="643.01" cy="513.255" r="4" fill="#0" id="circle184"/>
	<circle cx="647.195" cy="577.435" r="4" fill="#0" id="circle185"/>
	<circle cx="656.962" cy="506.278" r="4" fill="#0" id="circle186"/>
	<circle cx="661.148" cy="577.435" r="4" fill="#0" id="circle187"/>
	<circle cx="670.914" cy="499.302" r="4" fill="#0" id="circle188"/>
	<circle cx="673.705" cy="570.459" r="4" fill="#0" id="circle189"/>
	<circle cx="683.471" cy="492.326" r="4" fill="#0" id="circle190"/>
	<circle cx="684.866" cy="562.087" r="4" fill="#0" id="circle191"/>
	<circle cx="694.633" cy="482.56" r="4" fill="#0" id="circle192"/>
	<circle cx="698.819" cy="555.111" r="4" fill="#0" id="circle193"/>
	<circle cx="701.609" cy="468.608" r="4" fill="#0" id="circle194"/>
	<circle cx="705.795" cy="541.159" r="4" fill="#0" id="circle195"/>
	<circle cx="712.771" cy="457.446" r="4" fill="#0" id="circle196"/>
	<circle cx="715.561" cy="440.703" r="4" fill="#0" id="circle197"/>
	<circle cx="716.956" cy="521.626" r="4" fill="#0" id="circle198"/>
	<circle cx="722.537" cy="419.775" r="4" fill="#0" id="circle199"/>
	<circle cx="723.932" cy="507.674" r="4" fill="#0" id="circle200"/>
	<circle cx="733.699" cy="408.613" r="4" fill="#0" id="circle201"/>
	<circle cx="735.094" cy="497.907" r="4" fill="#0" id="circle202"/>
	<circle cx="736.489" cy="384.895" r="4" fill="#0" id="circle203"/>
	<circle cx="737.885" cy="479.769" r="4" fill="#0" id="circle204"/>
	<circle cx="743.466" cy="370.942" r="4" fill="#0" id="circle205"/>
	<circle cx="743.466" cy="859.269" r="4" fill="#0" id="circle206"/>
	<circle cx="743.466" cy="873.221" r="4" fill="#0" id="circle207"/>
	<circle cx="743.466" cy="887.173" r="4" fill="#0" id="circle208"/>
	<circle cx="744.861" cy="437.913" r="4" fill="#0" id="circle209"/>
	<circle cx="747.651" cy="451.865" r="4" fill="#0" id="circle210"/>
	<circle cx="749.046" cy="470.003" r="4" fill="#0" id="circle211"/>
	<circle cx="750.442" cy="336.062" r="4" fill="#0" id="circle212"/>
	<circle cx="750.442" cy="350.014" r="4" fill="#0" id="circle213"/>
	<circle cx="750.442" cy="810.436" r="4" fill="#0" id="circle214"/>
	<circle cx="750.442" cy="824.388" r="4" fill="#0" id="circle215"/>
	<circle cx="750.442" cy="838.34" r="4" fill="#0" id="circle216"/>
	<circle cx="751.837" cy="898.335" r="4" fill="#0" id="circle217"/>
	<circle cx="756.023" cy="428.146" r="4" fill="#0" id="circle218"/>
	<circle cx="757.418" cy="782.532" r="4" fill="#0" id="circle219"/>
	<circle cx="757.418" cy="796.484" r="4" fill="#0" id="circle220"/>
	<circle cx="758.813" cy="870.43" r="4" fill="#0" id="circle221"/>
	<circle cx="758.813" cy="884.383" r="4" fill="#0" id="circle222"/>
	<circle cx="761.603" cy="324.9" r="4" fill="#0" id="circle223"/>
	<circle cx="764.394" cy="308.158" r="4" fill="#0" id="circle224"/>
	<circle cx="764.394" cy="754.627" r="4" fill="#0" id="circle225"/>
	<circle cx="764.394" cy="768.579" r="4" fill="#0" id="circle226"/>
	<circle cx="765.789" cy="814.622" r="4" fill="#0" id="circle227"/>
	<circle cx="765.789" cy="828.574" r="4" fill="#0" id="circle228"/>
	<circle cx="765.789" cy="842.526" r="4" fill="#0" id="circle229"/>
	<circle cx="765.789" cy="856.478" r="4" fill="#0" id="circle230"/>
	<circle cx="769.975" cy="421.17" r="4" fill="#0" id="circle231"/>
	<circle cx="771.37" cy="294.205" r="4" fill="#0" id="circle232"/>
	<circle cx="771.37" cy="733.699" r="4" fill="#0" id="circle233"/>
	<circle cx="772.765" cy="786.717" r="4" fill="#0" id="circle234"/>
	<circle cx="772.765" cy="800.669" r="4" fill="#0" id="circle235"/>
	<circle cx="778.346" cy="273.277" r="4" fill="#0" id="circle236"/>
	<circle cx="778.346" cy="410.008" r="4" fill="#0" id="circle237"/>
	<circle cx="778.346" cy="705.795" r="4" fill="#0" id="circle238"/>
	<circle cx="778.346" cy="719.747" r="4" fill="#0" id="circle239"/>
	<circle cx="779.741" cy="368.152" r="4" fill="#0" id="circle240"/>
	<circle cx="779.741" cy="382.104" r="4" fill="#0" id="circle241"/>
	<circle cx="779.741" cy="396.056" r="4" fill="#0" id="circle242"/>
	<circle cx="779.741" cy="758.813" r="4" fill="#0" id="circle243"/>
	<circle cx="779.741" cy="772.765" r="4" fill="#0" id="circle244"/>
	<circle cx="786.717" cy="347.224" r="4" fill="#0" id="circle245"/>
	<circle cx="786.717" cy="744.861" r="4" fill="#0" id="circle246"/>
	<circle cx="789.508" cy="262.115" r="4" fill="#0" id="circle247"/>
	<circle cx="789.508" cy="694.633" r="4" fill="#0" id="circle248"/>
	<circle cx="792.298" cy="677.89" r="4" fill="#0" id="circle249"/>
	<circle cx="793.693" cy="319.319" r="4" fill="#0" id="circle250"/>
	<circle cx="793.693" cy="333.271" r="4" fill="#0" id="circle251"/>
	<circle cx="793.693" cy="723.932" r="4" fill="#0" id="circle252"/>
	<circle cx="796.484" cy="248.163" r="4" fill="#0" id="circle253"/>
	<circle cx="800.669" cy="305.367" r="4" fill="#0" id="circle254"/>
	<circle cx="800.669" cy="709.98" r="4" fill="#0" id="circle255"/>
	<circle cx="803.46" cy="666.729" r="4" fill="#0" id="circle256"/>
	<circle cx="806.25" cy="649.986" r="4" fill="#0" id="circle257"/>
	<circle cx="807.646" cy="237.001" r="4" fill="#0" id="circle258"/>
	<circle cx="807.646" cy="284.439" r="4" fill="#0" id="circle259"/>
	<circle cx="807.646" cy="696.028" r="4" fill="#0" id="circle260"/>
	<circle cx="814.622" cy="682.076" r="4" fill="#0" id="circle261"/>
	<circle cx="817.412" cy="638.824" r="4" fill="#0" id="circle262"/>
	<circle cx="818.807" cy="227.235" r="4" fill="#0" id="circle263"/>
	<circle cx="818.807" cy="274.672" r="4" fill="#0" id="circle264"/>
	<circle cx="820.203" cy="622.082" r="4" fill="#0" id="circle265"/>
	<circle cx="821.598" cy="668.124" r="4" fill="#0" id="circle266"/>
	<circle cx="827.179" cy="608.129" r="4" fill="#0" id="circle267"/>
	<circle cx="828.574" cy="256.534" r="4" fill="#0" id="circle268"/>
	<circle cx="828.574" cy="647.195" r="4" fill="#0" id="circle269"/>
	<circle cx="831.364" cy="220.259" r="4" fill="#0" id="circle270"/>
	<circle cx="834.155" cy="594.177" r="4" fill="#0" id="circle271"/>
	<circle cx="839.736" cy="637.429" r="4" fill="#0" id="circle272"/>
	<circle cx="841.131" cy="580.225" r="4" fill="#0" id="circle273"/>
	<circle cx="842.526" cy="256.534" r="4" fill="#0" id="circle274"/>
	<circle cx="842.526" cy="619.291" r="4" fill="#0" id="circle275"/>
	<circle cx="845.316" cy="213.283" r="4" fill="#0" id="circle276"/>
	<circle cx="852.293" cy="569.063" r="4" fill="#0" id="circle277"/>
	<circle cx="853.688" cy="609.525" r="4" fill="#0" id="circle278"/>
	<circle cx="855.083" cy="249.558" r="4" fill="#0" id="circle279"/>
	<circle cx="855.083" cy="545.345" r="4" fill="#0" id="circle280"/>
	<circle cx="856.478" cy="591.387" r="4" fill="#0" id="circle281"/>
	<circle cx="859.269" cy="213.283" r="4" fill="#0" id="circle282"/>
	<circle cx="862.059" cy="531.392" r="4" fill="#0" id="circle283"/>
	<circle cx="867.64" cy="581.62" r="4" fill="#0" id="circle284"/>
	<circle cx="869.035" cy="249.558" r="4" fill="#0" id="circle285"/>
	<circle cx="869.035" cy="503.488" r="4" fill="#0" id="circle286"/>
	<circle cx="869.035" cy="517.44" r="4" fill="#0" id="circle287"/>
	<circle cx="871.826" cy="220.259" r="4" fill="#0" id="circle288"/>
	<circle cx="874.616" cy="567.668" r="4" fill="#0" id="circle289"/>
	<circle cx="876.011" cy="489.536" r="4" fill="#0" id="circle290"/>
	<circle cx="881.592" cy="256.534" r="4" fill="#0" id="circle291"/>
	<circle cx="881.592" cy="553.716" r="4" fill="#0" id="circle292"/>
	<circle cx="882.987" cy="270.487" r="4" fill="#0" id="circle293"/>
	<circle cx="882.987" cy="461.632" r="4" fill="#0" id="circle294"/>
	<circle cx="882.987" cy="475.584" r="4" fill="#0" id="circle295"/>
	<circle cx="884.383" cy="227.235" r="4" fill="#0" id="circle296"/>
	<circle cx="884.383" cy="535.578" r="4" fill="#0" id="circle297"/>
	<circle cx="889.963" cy="283.044" r="4" fill="#0" id="circle298"/>
	<circle cx="889.963" cy="440.703" r="4" fill="#0" id="circle299"/>
	<circle cx="891.359" cy="521.626" r="4" fill="#0" id="circle300"/>
	<circle cx="896.94" cy="295.601" r="4" fill="#0" id="circle301"/>
	<circle cx="896.94" cy="322.11" r="4" fill="#0" id="circle302"/>
	<circle cx="896.94" cy="336.062" r="4" fill="#0" id="circle303"/>
	<circle cx="896.94" cy="350.014" r="4" fill="#0" id="circle304"/>
	<circle cx="896.94" cy="363.966" r="4" fill="#0" id="circle305"/>
	<circle cx="896.94" cy="377.918" r="4" fill="#0" id="circle306"/>
	<circle cx="896.94" cy="391.871" r="4" fill="#0" id="circle307"/>
	<circle cx="896.94" cy="405.823" r="4" fill="#0" id="circle308"/>
	<circle cx="896.94" cy="419.775" r="4" fill="#0" id="circle309"/>
	<circle cx="898.335" cy="231.421" r="4" fill="#0" id="circle310"/>
	<circle cx="898.335" cy="486.745" r="4" fill="#0" id="circle311"/>
	<circle cx="898.335" cy="500.698" r="4" fill="#0" id="circle312"/>
	<circle cx="903.916" cy="245.373" r="4" fill="#0" id="circle313"/>
	<circle cx="909.496" cy="476.979" r="4" fill="#0" id="circle314"/>
	<circle cx="910.892" cy="257.93" r="4" fill="#0" id="circle315"/>
	<circle cx="912.287" cy="271.882" r="4" fill="#0" id="circle316"/>
	<circle cx="912.287" cy="437.913" r="4" fill="#0" id="circle317"/>
	<circle cx="912.287" cy="451.865" r="4" fill="#0" id="circle318"/>
	<circle cx="919.263" cy="284.439" r="4" fill="#0" id="circle319"/>
	<circle cx="919.263" cy="298.391" r="4" fill="#0" id="circle320"/>
	<circle cx="919.263" cy="375.128" r="4" fill="#0" id="circle321"/>
	<circle cx="919.263" cy="389.08" r="4" fill="#0" id="circle322"/>
	<circle cx="919.263" cy="403.032" r="4" fill="#0" id="circle323"/>
	<circle cx="919.263" cy="416.985" r="4" fill="#0" id="circle324"/>
	<circle cx="922.053" cy="312.343" r="4" fill="#0" id="circle325"/>
	<circle cx="926.239" cy="326.295" r="4" fill="#0" id="circle326"/>
	<circle cx="926.239" cy="340.248" r="4" fill="#0" id="circle327"/>
	<circle cx="926.239" cy="354.2" r="4" fill="#0" id="circle328"/>
	</g>
</svg>