<?xml version="1.0" encoding="UTF-8" standalone="no"?>
<!-- Created with CurveBenchmark -->
<svg
	xmlns:dc="http://purl.org/dc/elements/1.1/"
	xmlns:cc="http://creativecommons.org/ns#"
	xmlns:rdf="http://www.w3.org/1999/02/22-rdf-syntax-ns#"
	xmlns:svg="http://www.w3.org/2000/svg"
	xmlns="http://www.w3.org/2000/svg"
	xmlns:sodipodi="http://sodipodi.sourceforge.net/DTD/sodipodi-0.dtd"
	xmlns:inkscape="http://www.inkscape.org/namespaces/inkscape"
	width="1000"
	height="1000"
	id="svg2"
	version="1.1"
	sodipodi:docname="manifold/crawl-calf2.png.txt">
<defs
	id="defs4" />
<metadata
	id="metadata7">
	<rdf:RDF>
		<cc:Work
			rdf:about="">
			<dc:format>image/svg+xml</dc:format>
			<dc:type
				rdf:resource="http://purl.org/dc/dcmitype/StillImage" />
			<dc:title></dc:title>
		</cc:Work>
	</rdf:RDF>
</metadata>
<g
	inkscape:label="Layer 1"
	inkscape:groupmode="layer"
	id="layer1">
	<path style="fill:none;stroke:red;stroke-width:1px;stroke-linecap:butt;stroke-linejoin:miter;stroke-opacity:1" d="M 4,128.743 4,148.543 z" id="boundary" inkscape:connector-curvature="0" />
	<path style="fill:none;stroke:red;stroke-width:1px;stroke-linecap:butt;stroke-linejoin:miter;stroke-opacity:1" d="M 4,128.743 4,108.942 z" id="boundary" inkscape:connector-curvature="0" />
	<path style="fill:none;stroke:red;stroke-width:1px;stroke-linecap:butt;stroke-linejoin:miter;stroke-opacity:1" d="M 4,148.543 13.9002,166.363 z" id="boundary" inkscape:connector-curvature="0" />
	<path style="fill:none;stroke:red;stroke-width:1px;stroke-linecap:butt;stroke-linejoin:miter;stroke-opacity:1" d="M 13.9002,166.363 27.7605,182.204 z" id="boundary" inkscape:connector-curvature="0" />
	<path style="fill:none;stroke:red;stroke-width:1px;stroke-linecap:butt;stroke-linejoin:miter;stroke-opacity:1" d="M 27.7605,182.204 47.5609,190.124 z" id="boundary" inkscape:connector-curvature="0" />
	<path style="fill:none;stroke:red;stroke-width:1px;stroke-linecap:butt;stroke-linejoin:miter;stroke-opacity:1" d="M 47.5609,190.124 65.3812,200.024 z" id="boundary" inkscape:connector-curvature="0" />
	<path style="fill:none;stroke:red;stroke-width:1px;stroke-linecap:butt;stroke-linejoin:miter;stroke-opacity:1" d="M 65.3812,200.024 85.1816,203.984 z" id="boundary" inkscape:connector-curvature="0" />
	<path style="fill:none;stroke:red;stroke-width:1px;stroke-linecap:butt;stroke-linejoin:miter;stroke-opacity:1" d="M 85.1816,203.984 104.982,207.944 z" id="boundary" inkscape:connector-curvature="0" />
	<path style="fill:none;stroke:red;stroke-width:1px;stroke-linecap:butt;stroke-linejoin:miter;stroke-opacity:1" d="M 104.982,207.944 124.782,213.884 z" id="boundary" inkscape:connector-curvature="0" />
	<path style="fill:none;stroke:red;stroke-width:1px;stroke-linecap:butt;stroke-linejoin:miter;stroke-opacity:1" d="M 124.782,213.884 142.603,223.784 z" id="boundary" inkscape:connector-curvature="0" />
	<path style="fill:none;stroke:red;stroke-width:1px;stroke-linecap:butt;stroke-linejoin:miter;stroke-opacity:1" d="M 142.603,223.784 160.423,233.685 z" id="boundary" inkscape:connector-curvature="0" />
	<path style="fill:none;stroke:red;stroke-width:1px;stroke-linecap:butt;stroke-linejoin:miter;stroke-opacity:1" d="M 160.423,233.685 178.244,243.585 z" id="boundary" inkscape:connector-curvature="0" />
	<path style="fill:none;stroke:red;stroke-width:1px;stroke-linecap:butt;stroke-linejoin:miter;stroke-opacity:1" d="M 178.244,243.585 196.064,253.485 z" id="boundary" inkscape:connector-curvature="0" />
	<path style="fill:none;stroke:red;stroke-width:1px;stroke-linecap:butt;stroke-linejoin:miter;stroke-opacity:1" d="M 196.064,253.485 213.884,263.385 z" id="boundary" inkscape:connector-curvature="0" />
	<path style="fill:none;stroke:red;stroke-width:1px;stroke-linecap:butt;stroke-linejoin:miter;stroke-opacity:1" d="M 213.884,263.385 231.705,273.285 z" id="boundary" inkscape:connector-curvature="0" />
	<path style="fill:none;stroke:red;stroke-width:1px;stroke-linecap:butt;stroke-linejoin:miter;stroke-opacity:1" d="M 231.705,273.285 249.525,283.186 z" id="boundary" inkscape:connector-curvature="0" />
	<path style="fill:none;stroke:red;stroke-width:1px;stroke-linecap:butt;stroke-linejoin:miter;stroke-opacity:1" d="M 249.525,283.186 267.345,293.086 z" id="boundary" inkscape:connector-curvature="0" />
	<path style="fill:none;stroke:red;stroke-width:1px;stroke-linecap:butt;stroke-linejoin:miter;stroke-opacity:1" d="M 267.345,293.086 287.146,301.006 z" id="boundary" inkscape:connector-curvature="0" />
	<path style="fill:none;stroke:red;stroke-width:1px;stroke-linecap:butt;stroke-linejoin:miter;stroke-opacity:1" d="M 287.146,301.006 304.966,310.906 z" id="boundary" inkscape:connector-curvature="0" />
	<path style="fill:none;stroke:red;stroke-width:1px;stroke-linecap:butt;stroke-linejoin:miter;stroke-opacity:1" d="M 304.966,310.906 324.766,318.826 z" id="boundary" inkscape:connector-curvature="0" />
	<path style="fill:none;stroke:red;stroke-width:1px;stroke-linecap:butt;stroke-linejoin:miter;stroke-opacity:1" d="M 324.766,318.826 340.607,332.687 z" id="boundary" inkscape:connector-curvature="0" />
	<path style="fill:none;stroke:red;stroke-width:1px;stroke-linecap:butt;stroke-linejoin:miter;stroke-opacity:1" d="M 340.607,332.687 358.427,342.587 z" id="boundary" inkscape:connector-curvature="0" />
	<path style="fill:none;stroke:red;stroke-width:1px;stroke-linecap:butt;stroke-linejoin:miter;stroke-opacity:1" d="M 358.427,342.587 372.287,358.427 z" id="boundary" inkscape:connector-curvature="0" />
	<path style="fill:none;stroke:red;stroke-width:1px;stroke-linecap:butt;stroke-linejoin:miter;stroke-opacity:1" d="M 372.287,358.427 392.088,366.347 z" id="boundary" inkscape:connector-curvature="0" />
	<path style="fill:none;stroke:red;stroke-width:1px;stroke-linecap:butt;stroke-linejoin:miter;stroke-opacity:1" d="M 392.088,366.347 405.948,382.188 z" id="boundary" inkscape:connector-curvature="0" />
	<path style="fill:none;stroke:red;stroke-width:1px;stroke-linecap:butt;stroke-linejoin:miter;stroke-opacity:1" d="M 405.948,382.188 425.749,382.188 z" id="boundary" inkscape:connector-curvature="0" />
	<path style="fill:none;stroke:red;stroke-width:1px;stroke-linecap:butt;stroke-linejoin:miter;stroke-opacity:1" d="M 425.749,382.188 439.609,398.028 z" id="boundary" inkscape:connector-curvature="0" />
	<path style="fill:none;stroke:red;stroke-width:1px;stroke-linecap:butt;stroke-linejoin:miter;stroke-opacity:1" d="M 4,108.942 23.8004,99.0419 z" id="boundary" inkscape:connector-curvature="0" />
	<path style="fill:none;stroke:red;stroke-width:1px;stroke-linecap:butt;stroke-linejoin:miter;stroke-opacity:1" d="M 23.8004,99.0419 43.6008,93.1018 z" id="boundary" inkscape:connector-curvature="0" />
	<path style="fill:none;stroke:red;stroke-width:1px;stroke-linecap:butt;stroke-linejoin:miter;stroke-opacity:1" d="M 43.6008,93.1018 61.4212,83.2016 z" id="boundary" inkscape:connector-curvature="0" />
	<path style="fill:none;stroke:red;stroke-width:1px;stroke-linecap:butt;stroke-linejoin:miter;stroke-opacity:1" d="M 61.4212,83.2016 79.2415,73.3014 z" id="boundary" inkscape:connector-curvature="0" />
	<path style="fill:none;stroke:red;stroke-width:1px;stroke-linecap:butt;stroke-linejoin:miter;stroke-opacity:1" d="M 79.2415,73.3014 99.0419,63.4012 z" id="boundary" inkscape:connector-curvature="0" />
	<path style="fill:none;stroke:red;stroke-width:1px;stroke-linecap:butt;stroke-linejoin:miter;stroke-opacity:1" d="M 99.0419,63.4012 114.882,47.5609 z" id="boundary" inkscape:connector-curvature="0" />
	<path style="fill:none;stroke:red;stroke-width:1px;stroke-linecap:butt;stroke-linejoin:miter;stroke-opacity:1" d="M 114.882,47.5609 134.683,37.6607 z" id="boundary" inkscape:connector-curvature="0" />
	<path style="fill:none;stroke:red;stroke-width:1px;stroke-linecap:butt;stroke-linejoin:miter;stroke-opacity:1" d="M 134.683,37.6607 150.523,23.8004 z" id="boundary" inkscape:connector-curvature="0" />
	<path style="fill:none;stroke:red;stroke-width:1px;stroke-linecap:butt;stroke-linejoin:miter;stroke-opacity:1" d="M 150.523,23.8004 168.343,13.9002 z" id="boundary" inkscape:connector-curvature="0" />
	<path style="fill:none;stroke:red;stroke-width:1px;stroke-linecap:butt;stroke-linejoin:miter;stroke-opacity:1" d="M 168.343,13.9002 186.164,4 z" id="boundary" inkscape:connector-curvature="0" />
	<path style="fill:none;stroke:red;stroke-width:1px;stroke-linecap:butt;stroke-linejoin:miter;stroke-opacity:1" d="M 186.164,4 205.964,4 z" id="boundary" inkscape:connector-curvature="0" />
	<path style="fill:none;stroke:red;stroke-width:1px;stroke-linecap:butt;stroke-linejoin:miter;stroke-opacity:1" d="M 205.964,4 223.784,13.9002 z" id="boundary" inkscape:connector-curvature="0" />
	<path style="fill:none;stroke:red;stroke-width:1px;stroke-linecap:butt;stroke-linejoin:miter;stroke-opacity:1" d="M 223.784,13.9002 243.585,19.8403 z" id="boundary" inkscape:connector-curvature="0" />
	<path style="fill:none;stroke:red;stroke-width:1px;stroke-linecap:butt;stroke-linejoin:miter;stroke-opacity:1" d="M 243.585,19.8403 259.425,33.7006 z" id="boundary" inkscape:connector-curvature="0" />
	<path style="fill:none;stroke:red;stroke-width:1px;stroke-linecap:butt;stroke-linejoin:miter;stroke-opacity:1" d="M 259.425,33.7006 277.246,23.8004 z" id="boundary" inkscape:connector-curvature="0" />
	<path style="fill:none;stroke:red;stroke-width:1px;stroke-linecap:butt;stroke-linejoin:miter;stroke-opacity:1" d="M 277.246,23.8004 297.046,23.8004 z" id="boundary" inkscape:connector-curvature="0" />
	<path style="fill:none;stroke:red;stroke-width:1px;stroke-linecap:butt;stroke-linejoin:miter;stroke-opacity:1" d="M 297.046,23.8004 316.846,23.8004 z" id="boundary" inkscape:connector-curvature="0" />
	<path style="fill:none;stroke:red;stroke-width:1px;stroke-linecap:butt;stroke-linejoin:miter;stroke-opacity:1" d="M 316.846,23.8004 336.647,23.8004 z" id="boundary" inkscape:connector-curvature="0" />
	<path style="fill:none;stroke:red;stroke-width:1px;stroke-linecap:butt;stroke-linejoin:miter;stroke-opacity:1" d="M 336.647,23.8004 342.587,43.6008 z" id="boundary" inkscape:connector-curvature="0" />
	<path style="fill:none;stroke:red;stroke-width:1px;stroke-linecap:butt;stroke-linejoin:miter;stroke-opacity:1" d="M 342.587,43.6008 342.587,63.4012 z" id="boundary" inkscape:connector-curvature="0" />
	<path style="fill:none;stroke:red;stroke-width:1px;stroke-linecap:butt;stroke-linejoin:miter;stroke-opacity:1" d="M 342.587,63.4012 342.587,83.2016 z" id="boundary" inkscape:connector-curvature="0" />
	<path style="fill:none;stroke:red;stroke-width:1px;stroke-linecap:butt;stroke-linejoin:miter;stroke-opacity:1" d="M 342.587,83.2016 358.427,95.0818 z" id="boundary" inkscape:connector-curvature="0" />
	<path style="fill:none;stroke:red;stroke-width:1px;stroke-linecap:butt;stroke-linejoin:miter;stroke-opacity:1" d="M 358.427,95.0818 378.228,103.002 z" id="boundary" inkscape:connector-curvature="0" />
	<path style="fill:none;stroke:red;stroke-width:1px;stroke-linecap:butt;stroke-linejoin:miter;stroke-opacity:1" d="M 378.228,103.002 398.028,103.002 z" id="boundary" inkscape:connector-curvature="0" />
	<path style="fill:none;stroke:red;stroke-width:1px;stroke-linecap:butt;stroke-linejoin:miter;stroke-opacity:1" d="M 398.028,103.002 417.828,103.002 z" id="boundary" inkscape:connector-curvature="0" />
	<path style="fill:none;stroke:red;stroke-width:1px;stroke-linecap:butt;stroke-linejoin:miter;stroke-opacity:1" d="M 417.828,103.002 437.629,103.002 z" id="boundary" inkscape:connector-curvature="0" />
	<path style="fill:none;stroke:red;stroke-width:1px;stroke-linecap:butt;stroke-linejoin:miter;stroke-opacity:1" d="M 437.629,103.002 455.449,112.902 z" id="boundary" inkscape:connector-curvature="0" />
	<path style="fill:none;stroke:red;stroke-width:1px;stroke-linecap:butt;stroke-linejoin:miter;stroke-opacity:1" d="M 455.449,112.902 475.25,112.902 z" id="boundary" inkscape:connector-curvature="0" />
	<path style="fill:none;stroke:red;stroke-width:1px;stroke-linecap:butt;stroke-linejoin:miter;stroke-opacity:1" d="M 475.25,112.902 495.05,112.902 z" id="boundary" inkscape:connector-curvature="0" />
	<path style="fill:none;stroke:red;stroke-width:1px;stroke-linecap:butt;stroke-linejoin:miter;stroke-opacity:1" d="M 495.05,112.902 514.85,112.902 z" id="boundary" inkscape:connector-curvature="0" />
	<path style="fill:none;stroke:red;stroke-width:1px;stroke-linecap:butt;stroke-linejoin:miter;stroke-opacity:1" d="M 514.85,112.902 534.651,112.902 z" id="boundary" inkscape:connector-curvature="0" />
	<path style="fill:none;stroke:red;stroke-width:1px;stroke-linecap:butt;stroke-linejoin:miter;stroke-opacity:1" d="M 534.651,112.902 554.451,112.902 z" id="boundary" inkscape:connector-curvature="0" />
	<path style="fill:none;stroke:red;stroke-width:1px;stroke-linecap:butt;stroke-linejoin:miter;stroke-opacity:1" d="M 554.451,112.902 574.251,112.902 z" id="boundary" inkscape:connector-curvature="0" />
	<path style="fill:none;stroke:red;stroke-width:1px;stroke-linecap:butt;stroke-linejoin:miter;stroke-opacity:1" d="M 574.251,112.902 594.052,112.902 z" id="boundary" inkscape:connector-curvature="0" />
	<path style="fill:none;stroke:red;stroke-width:1px;stroke-linecap:butt;stroke-linejoin:miter;stroke-opacity:1" d="M 594.052,112.902 613.852,112.902 z" id="boundary" inkscape:connector-curvature="0" />
	<path style="fill:none;stroke:red;stroke-width:1px;stroke-linecap:butt;stroke-linejoin:miter;stroke-opacity:1" d="M 613.852,112.902 633.653,112.902 z" id="boundary" inkscape:connector-curvature="0" />
	<path style="fill:none;stroke:red;stroke-width:1px;stroke-linecap:butt;stroke-linejoin:miter;stroke-opacity:1" d="M 633.653,112.902 653.453,112.902 z" id="boundary" inkscape:connector-curvature="0" />
	<path style="fill:none;stroke:red;stroke-width:1px;stroke-linecap:butt;stroke-linejoin:miter;stroke-opacity:1" d="M 653.453,112.902 673.253,112.902 z" id="boundary" inkscape:connector-curvature="0" />
	<path style="fill:none;stroke:red;stroke-width:1px;stroke-linecap:butt;stroke-linejoin:miter;stroke-opacity:1" d="M 673.253,112.902 693.054,112.902 z" id="boundary" inkscape:connector-curvature="0" />
	<path style="fill:none;stroke:red;stroke-width:1px;stroke-linecap:butt;stroke-linejoin:miter;stroke-opacity:1" d="M 693.054,112.902 712.854,112.902 z" id="boundary" inkscape:connector-curvature="0" />
	<path style="fill:none;stroke:red;stroke-width:1px;stroke-linecap:butt;stroke-linejoin:miter;stroke-opacity:1" d="M 712.854,112.902 732.655,112.902 z" id="boundary" inkscape:connector-curvature="0" />
	<path style="fill:none;stroke:red;stroke-width:1px;stroke-linecap:butt;stroke-linejoin:miter;stroke-opacity:1" d="M 732.655,112.902 752.455,112.902 z" id="boundary" inkscape:connector-curvature="0" />
	<path style="fill:none;stroke:red;stroke-width:1px;stroke-linecap:butt;stroke-linejoin:miter;stroke-opacity:1" d="M 752.455,112.902 772.255,112.902 z" id="boundary" inkscape:connector-curvature="0" />
	<path style="fill:none;stroke:red;stroke-width:1px;stroke-linecap:butt;stroke-linejoin:miter;stroke-opacity:1" d="M 772.255,112.902 792.056,112.902 z" id="boundary" inkscape:connector-curvature="0" />
	<path style="fill:none;stroke:red;stroke-width:1px;stroke-linecap:butt;stroke-linejoin:miter;stroke-opacity:1" d="M 792.056,112.902 811.856,112.902 z" id="boundary" inkscape:connector-curvature="0" />
	<path style="fill:none;stroke:red;stroke-width:1px;stroke-linecap:butt;stroke-linejoin:miter;stroke-opacity:1" d="M 811.856,112.902 831.657,112.902 z" id="boundary" inkscape:connector-curvature="0" />
	<path style="fill:none;stroke:red;stroke-width:1px;stroke-linecap:butt;stroke-linejoin:miter;stroke-opacity:1" d="M 831.657,112.902 851.457,112.902 z" id="boundary" inkscape:connector-curvature="0" />
	<path style="fill:none;stroke:red;stroke-width:1px;stroke-linecap:butt;stroke-linejoin:miter;stroke-opacity:1" d="M 851.457,112.902 869.277,122.802 z" id="boundary" inkscape:connector-curvature="0" />
	<path style="fill:none;stroke:red;stroke-width:1px;stroke-linecap:butt;stroke-linejoin:miter;stroke-opacity:1" d="M 869.277,122.802 889.078,122.802 z" id="boundary" inkscape:connector-curvature="0" />
	<path style="fill:none;stroke:red;stroke-width:1px;stroke-linecap:butt;stroke-linejoin:miter;stroke-opacity:1" d="M 889.078,122.802 908.878,122.802 z" id="boundary" inkscape:connector-curvature="0" />
	<path style="fill:none;stroke:red;stroke-width:1px;stroke-linecap:butt;stroke-linejoin:miter;stroke-opacity:1" d="M 908.878,122.802 916.798,142.603 z" id="boundary" inkscape:connector-curvature="0" />
	<path style="fill:none;stroke:red;stroke-width:1px;stroke-linecap:butt;stroke-linejoin:miter;stroke-opacity:1" d="M 916.798,142.603 932.639,154.483 z" id="boundary" inkscape:connector-curvature="0" />
	<path style="fill:none;stroke:red;stroke-width:1px;stroke-linecap:butt;stroke-linejoin:miter;stroke-opacity:1" d="M 932.639,154.483 946.499,170.323 z" id="boundary" inkscape:connector-curvature="0" />
	<path style="fill:none;stroke:red;stroke-width:1px;stroke-linecap:butt;stroke-linejoin:miter;stroke-opacity:1" d="M 946.499,170.323 956.399,188.144 z" id="boundary" inkscape:connector-curvature="0" />
	<path style="fill:none;stroke:red;stroke-width:1px;stroke-linecap:butt;stroke-linejoin:miter;stroke-opacity:1" d="M 956.399,188.144 956.399,207.944 z" id="boundary" inkscape:connector-curvature="0" />
	<path style="fill:none;stroke:red;stroke-width:1px;stroke-linecap:butt;stroke-linejoin:miter;stroke-opacity:1" d="M 956.399,207.944 956.399,227.745 z" id="boundary" inkscape:connector-curvature="0" />
	<path style="fill:none;stroke:red;stroke-width:1px;stroke-linecap:butt;stroke-linejoin:miter;stroke-opacity:1" d="M 956.399,227.745 964.319,247.545 z" id="boundary" inkscape:connector-curvature="0" />
	<path style="fill:none;stroke:red;stroke-width:1px;stroke-linecap:butt;stroke-linejoin:miter;stroke-opacity:1" d="M 964.319,247.545 966.299,267.345 z" id="boundary" inkscape:connector-curvature="0" />
	<path style="fill:none;stroke:red;stroke-width:1px;stroke-linecap:butt;stroke-linejoin:miter;stroke-opacity:1" d="M 966.299,267.345 966.299,287.146 z" id="boundary" inkscape:connector-curvature="0" />
	<path style="fill:none;stroke:red;stroke-width:1px;stroke-linecap:butt;stroke-linejoin:miter;stroke-opacity:1" d="M 439.609,398.028 429.709,425.749 z" id="boundary" inkscape:connector-curvature="0" />
	<path style="fill:none;stroke:red;stroke-width:1px;stroke-linecap:butt;stroke-linejoin:miter;stroke-opacity:1" d="M 429.709,425.749 429.709,445.549 z" id="boundary" inkscape:connector-curvature="0" />
	<path style="fill:none;stroke:red;stroke-width:1px;stroke-linecap:butt;stroke-linejoin:miter;stroke-opacity:1" d="M 429.709,445.549 419.808,475.25 z" id="boundary" inkscape:connector-curvature="0" />
	<path style="fill:none;stroke:red;stroke-width:1px;stroke-linecap:butt;stroke-linejoin:miter;stroke-opacity:1" d="M 419.808,475.25 419.808,495.05 z" id="boundary" inkscape:connector-curvature="0" />
	<path style="fill:none;stroke:red;stroke-width:1px;stroke-linecap:butt;stroke-linejoin:miter;stroke-opacity:1" d="M 419.808,495.05 419.808,514.85 z" id="boundary" inkscape:connector-curvature="0" />
	<path style="fill:none;stroke:red;stroke-width:1px;stroke-linecap:butt;stroke-linejoin:miter;stroke-opacity:1" d="M 419.808,514.85 409.908,544.551 z" id="boundary" inkscape:connector-curvature="0" />
	<path style="fill:none;stroke:red;stroke-width:1px;stroke-linecap:butt;stroke-linejoin:miter;stroke-opacity:1" d="M 409.908,544.551 400.008,574.251 z" id="boundary" inkscape:connector-curvature="0" />
	<path style="fill:none;stroke:red;stroke-width:1px;stroke-linecap:butt;stroke-linejoin:miter;stroke-opacity:1" d="M 400.008,574.251 390.108,594.052 z" id="boundary" inkscape:connector-curvature="0" />
	<path style="fill:none;stroke:red;stroke-width:1px;stroke-linecap:butt;stroke-linejoin:miter;stroke-opacity:1" d="M 390.108,594.052 380.208,613.852 z" id="boundary" inkscape:connector-curvature="0" />
	<path style="fill:none;stroke:red;stroke-width:1px;stroke-linecap:butt;stroke-linejoin:miter;stroke-opacity:1" d="M 380.208,613.852 366.347,637.613 z" id="boundary" inkscape:connector-curvature="0" />
	<path style="fill:none;stroke:red;stroke-width:1px;stroke-linecap:butt;stroke-linejoin:miter;stroke-opacity:1" d="M 366.347,637.613 370.307,659.393 z" id="boundary" inkscape:connector-curvature="0" />
	<path style="fill:none;stroke:red;stroke-width:1px;stroke-linecap:butt;stroke-linejoin:miter;stroke-opacity:1" d="M 370.307,659.393 390.108,659.393 z" id="boundary" inkscape:connector-curvature="0" />
	<path style="fill:none;stroke:red;stroke-width:1px;stroke-linecap:butt;stroke-linejoin:miter;stroke-opacity:1" d="M 390.108,659.393 409.908,653.453 z" id="boundary" inkscape:connector-curvature="0" />
	<path style="fill:none;stroke:red;stroke-width:1px;stroke-linecap:butt;stroke-linejoin:miter;stroke-opacity:1" d="M 409.908,653.453 421.788,629.693 z" id="boundary" inkscape:connector-curvature="0" />
	<path style="fill:none;stroke:red;stroke-width:1px;stroke-linecap:butt;stroke-linejoin:miter;stroke-opacity:1" d="M 421.788,629.693 449.509,633.653 z" id="boundary" inkscape:connector-curvature="0" />
	<path style="fill:none;stroke:red;stroke-width:1px;stroke-linecap:butt;stroke-linejoin:miter;stroke-opacity:1" d="M 449.509,633.653 459.409,603.952 z" id="boundary" inkscape:connector-curvature="0" />
	<path style="fill:none;stroke:red;stroke-width:1px;stroke-linecap:butt;stroke-linejoin:miter;stroke-opacity:1" d="M 459.409,603.952 431.689,599.992 z" id="boundary" inkscape:connector-curvature="0" />
	<path style="fill:none;stroke:red;stroke-width:1px;stroke-linecap:butt;stroke-linejoin:miter;stroke-opacity:1" d="M 431.689,599.992 441.589,570.291 z" id="boundary" inkscape:connector-curvature="0" />
	<path style="fill:none;stroke:red;stroke-width:1px;stroke-linecap:butt;stroke-linejoin:miter;stroke-opacity:1" d="M 441.589,570.291 451.489,550.491 z" id="boundary" inkscape:connector-curvature="0" />
	<path style="fill:none;stroke:red;stroke-width:1px;stroke-linecap:butt;stroke-linejoin:miter;stroke-opacity:1" d="M 451.489,550.491 461.389,530.691 z" id="boundary" inkscape:connector-curvature="0" />
	<path style="fill:none;stroke:red;stroke-width:1px;stroke-linecap:butt;stroke-linejoin:miter;stroke-opacity:1" d="M 461.389,530.691 461.389,510.89 z" id="boundary" inkscape:connector-curvature="0" />
	<path style="fill:none;stroke:red;stroke-width:1px;stroke-linecap:butt;stroke-linejoin:miter;stroke-opacity:1" d="M 461.389,510.89 461.389,491.09 z" id="boundary" inkscape:connector-curvature="0" />
	<path style="fill:none;stroke:red;stroke-width:1px;stroke-linecap:butt;stroke-linejoin:miter;stroke-opacity:1" d="M 461.389,491.09 461.389,471.289 z" id="boundary" inkscape:connector-curvature="0" />
	<path style="fill:none;stroke:red;stroke-width:1px;stroke-linecap:butt;stroke-linejoin:miter;stroke-opacity:1" d="M 461.389,471.289 471.289,451.489 z" id="boundary" inkscape:connector-curvature="0" />
	<path style="fill:none;stroke:red;stroke-width:1px;stroke-linecap:butt;stroke-linejoin:miter;stroke-opacity:1" d="M 471.289,451.489 489.11,461.389 z" id="boundary" inkscape:connector-curvature="0" />
	<path style="fill:none;stroke:red;stroke-width:1px;stroke-linecap:butt;stroke-linejoin:miter;stroke-opacity:1" d="M 489.11,461.389 489.11,481.19 z" id="boundary" inkscape:connector-curvature="0" />
	<path style="fill:none;stroke:red;stroke-width:1px;stroke-linecap:butt;stroke-linejoin:miter;stroke-opacity:1" d="M 489.11,481.19 483.17,500.99 z" id="boundary" inkscape:connector-curvature="0" />
	<path style="fill:none;stroke:red;stroke-width:1px;stroke-linecap:butt;stroke-linejoin:miter;stroke-opacity:1" d="M 483.17,500.99 479.21,520.79 z" id="boundary" inkscape:connector-curvature="0" />
	<path style="fill:none;stroke:red;stroke-width:1px;stroke-linecap:butt;stroke-linejoin:miter;stroke-opacity:1" d="M 479.21,520.79 479.21,540.591 z" id="boundary" inkscape:connector-curvature="0" />
	<path style="fill:none;stroke:red;stroke-width:1px;stroke-linecap:butt;stroke-linejoin:miter;stroke-opacity:1" d="M 479.21,540.591 469.309,574.251 z" id="boundary" inkscape:connector-curvature="0" />
	<path style="fill:none;stroke:red;stroke-width:1px;stroke-linecap:butt;stroke-linejoin:miter;stroke-opacity:1" d="M 966.299,287.146 956.399,322.786 z" id="boundary" inkscape:connector-curvature="0" />
	<path style="fill:none;stroke:red;stroke-width:1px;stroke-linecap:butt;stroke-linejoin:miter;stroke-opacity:1" d="M 956.399,322.786 956.399,342.587 z" id="boundary" inkscape:connector-curvature="0" />
	<path style="fill:none;stroke:red;stroke-width:1px;stroke-linecap:butt;stroke-linejoin:miter;stroke-opacity:1" d="M 956.399,342.587 956.399,362.387 z" id="boundary" inkscape:connector-curvature="0" />
	<path style="fill:none;stroke:red;stroke-width:1px;stroke-linecap:butt;stroke-linejoin:miter;stroke-opacity:1" d="M 956.399,362.387 960.359,382.188 z" id="boundary" inkscape:connector-curvature="0" />
	<path style="fill:none;stroke:red;stroke-width:1px;stroke-linecap:butt;stroke-linejoin:miter;stroke-opacity:1" d="M 960.359,382.188 970.259,400.008 z" id="boundary" inkscape:connector-curvature="0" />
	<path style="fill:none;stroke:red;stroke-width:1px;stroke-linecap:butt;stroke-linejoin:miter;stroke-opacity:1" d="M 970.259,400.008 976.2,419.808 z" id="boundary" inkscape:connector-curvature="0" />
	<path style="fill:none;stroke:red;stroke-width:1px;stroke-linecap:butt;stroke-linejoin:miter;stroke-opacity:1" d="M 976.2,419.808 986.1,437.629 z" id="boundary" inkscape:connector-curvature="0" />
	<path style="fill:none;stroke:red;stroke-width:1px;stroke-linecap:butt;stroke-linejoin:miter;stroke-opacity:1" d="M 986.1,437.629 986.1,457.429 z" id="boundary" inkscape:connector-curvature="0" />
	<path style="fill:none;stroke:red;stroke-width:1px;stroke-linecap:butt;stroke-linejoin:miter;stroke-opacity:1" d="M 986.1,457.429 986.1,477.23 z" id="boundary" inkscape:connector-curvature="0" />
	<path style="fill:none;stroke:red;stroke-width:1px;stroke-linecap:butt;stroke-linejoin:miter;stroke-opacity:1" d="M 986.1,477.23 986.1,497.03 z" id="boundary" inkscape:connector-curvature="0" />
	<path style="fill:none;stroke:red;stroke-width:1px;stroke-linecap:butt;stroke-linejoin:miter;stroke-opacity:1" d="M 986.1,497.03 986.1,516.83 z" id="boundary" inkscape:connector-curvature="0" />
	<path style="fill:none;stroke:red;stroke-width:1px;stroke-linecap:butt;stroke-linejoin:miter;stroke-opacity:1" d="M 986.1,516.83 996,534.651 z" id="boundary" inkscape:connector-curvature="0" />
	<path style="fill:none;stroke:red;stroke-width:1px;stroke-linecap:butt;stroke-linejoin:miter;stroke-opacity:1" d="M 996,534.651 996,554.451 z" id="boundary" inkscape:connector-curvature="0" />
	<path style="fill:none;stroke:red;stroke-width:1px;stroke-linecap:butt;stroke-linejoin:miter;stroke-opacity:1" d="M 996,554.451 996,574.251 z" id="boundary" inkscape:connector-curvature="0" />
	<path style="fill:none;stroke:red;stroke-width:1px;stroke-linecap:butt;stroke-linejoin:miter;stroke-opacity:1" d="M 996,574.251 996,594.052 z" id="boundary" inkscape:connector-curvature="0" />
	<path style="fill:none;stroke:red;stroke-width:1px;stroke-linecap:butt;stroke-linejoin:miter;stroke-opacity:1" d="M 996,594.052 996,613.852 z" id="boundary" inkscape:connector-curvature="0" />
	<path style="fill:none;stroke:red;stroke-width:1px;stroke-linecap:butt;stroke-linejoin:miter;stroke-opacity:1" d="M 996,613.852 996,633.653 z" id="boundary" inkscape:connector-curvature="0" />
	<path style="fill:none;stroke:red;stroke-width:1px;stroke-linecap:butt;stroke-linejoin:miter;stroke-opacity:1" d="M 996,633.653 996,653.453 z" id="boundary" inkscape:connector-curvature="0" />
	<path style="fill:none;stroke:red;stroke-width:1px;stroke-linecap:butt;stroke-linejoin:miter;stroke-opacity:1" d="M 996,653.453 996,673.253 z" id="boundary" inkscape:connector-curvature="0" />
	<path style="fill:none;stroke:red;stroke-width:1px;stroke-linecap:butt;stroke-linejoin:miter;stroke-opacity:1" d="M 996,673.253 982.14,698.994 z" id="boundary" inkscape:connector-curvature="0" />
	<path style="fill:none;stroke:red;stroke-width:1px;stroke-linecap:butt;stroke-linejoin:miter;stroke-opacity:1" d="M 982.14,698.994 964.319,708.894 z" id="boundary" inkscape:connector-curvature="0" />
	<path style="fill:none;stroke:red;stroke-width:1px;stroke-linecap:butt;stroke-linejoin:miter;stroke-opacity:1" d="M 964.319,708.894 946.499,698.994 z" id="boundary" inkscape:connector-curvature="0" />
	<path style="fill:none;stroke:red;stroke-width:1px;stroke-linecap:butt;stroke-linejoin:miter;stroke-opacity:1" d="M 946.499,698.994 934.619,683.154 z" id="boundary" inkscape:connector-curvature="0" />
	<path style="fill:none;stroke:red;stroke-width:1px;stroke-linecap:butt;stroke-linejoin:miter;stroke-opacity:1" d="M 934.619,683.154 934.619,653.453 z" id="boundary" inkscape:connector-curvature="0" />
	<path style="fill:none;stroke:red;stroke-width:1px;stroke-linecap:butt;stroke-linejoin:miter;stroke-opacity:1" d="M 934.619,653.453 944.519,617.812 z" id="boundary" inkscape:connector-curvature="0" />
	<path style="fill:none;stroke:red;stroke-width:1px;stroke-linecap:butt;stroke-linejoin:miter;stroke-opacity:1" d="M 944.519,617.812 944.519,598.012 z" id="boundary" inkscape:connector-curvature="0" />
	<path style="fill:none;stroke:red;stroke-width:1px;stroke-linecap:butt;stroke-linejoin:miter;stroke-opacity:1" d="M 944.519,598.012 944.519,578.212 z" id="boundary" inkscape:connector-curvature="0" />
	<path style="fill:none;stroke:red;stroke-width:1px;stroke-linecap:butt;stroke-linejoin:miter;stroke-opacity:1" d="M 944.519,578.212 938.579,558.411 z" id="boundary" inkscape:connector-curvature="0" />
	<path style="fill:none;stroke:red;stroke-width:1px;stroke-linecap:butt;stroke-linejoin:miter;stroke-opacity:1" d="M 938.579,558.411 934.619,538.611 z" id="boundary" inkscape:connector-curvature="0" />
	<path style="fill:none;stroke:red;stroke-width:1px;stroke-linecap:butt;stroke-linejoin:miter;stroke-opacity:1" d="M 934.619,538.611 928.679,518.81 z" id="boundary" inkscape:connector-curvature="0" />
	<path style="fill:none;stroke:red;stroke-width:1px;stroke-linecap:butt;stroke-linejoin:miter;stroke-opacity:1" d="M 928.679,518.81 924.719,499.01 z" id="boundary" inkscape:connector-curvature="0" />
	<path style="fill:none;stroke:red;stroke-width:1px;stroke-linecap:butt;stroke-linejoin:miter;stroke-opacity:1" d="M 924.719,499.01 914.818,481.19 z" id="boundary" inkscape:connector-curvature="0" />
	<path style="fill:none;stroke:red;stroke-width:1px;stroke-linecap:butt;stroke-linejoin:miter;stroke-opacity:1" d="M 914.818,481.19 912.838,461.389 z" id="boundary" inkscape:connector-curvature="0" />
	<path style="fill:none;stroke:red;stroke-width:1px;stroke-linecap:butt;stroke-linejoin:miter;stroke-opacity:1" d="M 912.838,461.389 895.018,451.489 z" id="boundary" inkscape:connector-curvature="0" />
	<path style="fill:none;stroke:red;stroke-width:1px;stroke-linecap:butt;stroke-linejoin:miter;stroke-opacity:1" d="M 895.018,451.489 895.018,431.689 z" id="boundary" inkscape:connector-curvature="0" />
	<path style="fill:none;stroke:red;stroke-width:1px;stroke-linecap:butt;stroke-linejoin:miter;stroke-opacity:1" d="M 895.018,431.689 877.198,441.589 z" id="boundary" inkscape:connector-curvature="0" />
	<path style="fill:none;stroke:red;stroke-width:1px;stroke-linecap:butt;stroke-linejoin:miter;stroke-opacity:1" d="M 877.198,441.589 877.198,421.788 z" id="boundary" inkscape:connector-curvature="0" />
	<path style="fill:none;stroke:red;stroke-width:1px;stroke-linecap:butt;stroke-linejoin:miter;stroke-opacity:1" d="M 877.198,421.788 877.198,401.988 z" id="boundary" inkscape:connector-curvature="0" />
	<path style="fill:none;stroke:red;stroke-width:1px;stroke-linecap:butt;stroke-linejoin:miter;stroke-opacity:1" d="M 469.309,574.251 510.89,580.192 z" id="boundary" inkscape:connector-curvature="0" />
	<path style="fill:none;stroke:red;stroke-width:1px;stroke-linecap:butt;stroke-linejoin:miter;stroke-opacity:1" d="M 510.89,580.192 510.89,599.992 z" id="boundary" inkscape:connector-curvature="0" />
	<path style="fill:none;stroke:red;stroke-width:1px;stroke-linecap:butt;stroke-linejoin:miter;stroke-opacity:1" d="M 510.89,599.992 510.89,619.792 z" id="boundary" inkscape:connector-curvature="0" />
	<path style="fill:none;stroke:red;stroke-width:1px;stroke-linecap:butt;stroke-linejoin:miter;stroke-opacity:1" d="M 510.89,619.792 510.89,639.593 z" id="boundary" inkscape:connector-curvature="0" />
	<path style="fill:none;stroke:red;stroke-width:1px;stroke-linecap:butt;stroke-linejoin:miter;stroke-opacity:1" d="M 510.89,639.593 500.99,659.393 z" id="boundary" inkscape:connector-curvature="0" />
	<path style="fill:none;stroke:red;stroke-width:1px;stroke-linecap:butt;stroke-linejoin:miter;stroke-opacity:1" d="M 500.99,659.393 491.09,689.094 z" id="boundary" inkscape:connector-curvature="0" />
	<path style="fill:none;stroke:red;stroke-width:1px;stroke-linecap:butt;stroke-linejoin:miter;stroke-opacity:1" d="M 491.09,689.094 481.19,718.794 z" id="boundary" inkscape:connector-curvature="0" />
	<path style="fill:none;stroke:red;stroke-width:1px;stroke-linecap:butt;stroke-linejoin:miter;stroke-opacity:1" d="M 481.19,718.794 461.389,728.695 z" id="boundary" inkscape:connector-curvature="0" />
	<path style="fill:none;stroke:red;stroke-width:1px;stroke-linecap:butt;stroke-linejoin:miter;stroke-opacity:1" d="M 461.389,728.695 441.589,728.695 z" id="boundary" inkscape:connector-curvature="0" />
	<path style="fill:none;stroke:red;stroke-width:1px;stroke-linecap:butt;stroke-linejoin:miter;stroke-opacity:1" d="M 441.589,728.695 429.709,712.854 z" id="boundary" inkscape:connector-curvature="0" />
	<path style="fill:none;stroke:red;stroke-width:1px;stroke-linecap:butt;stroke-linejoin:miter;stroke-opacity:1" d="M 429.709,712.854 429.709,693.054 z" id="boundary" inkscape:connector-curvature="0" />
	<path style="fill:none;stroke:red;stroke-width:1px;stroke-linecap:butt;stroke-linejoin:miter;stroke-opacity:1" d="M 429.709,693.054 439.609,663.353 z" id="boundary" inkscape:connector-curvature="0" />
	<path style="fill:none;stroke:red;stroke-width:1px;stroke-linecap:butt;stroke-linejoin:miter;stroke-opacity:1" d="M 877.198,401.988 805.916,417.828 z" id="boundary" inkscape:connector-curvature="0" />
	<path style="fill:none;stroke:red;stroke-width:1px;stroke-linecap:butt;stroke-linejoin:miter;stroke-opacity:1" d="M 805.916,417.828 805.916,437.629 z" id="boundary" inkscape:connector-curvature="0" />
	<path style="fill:none;stroke:red;stroke-width:1px;stroke-linecap:butt;stroke-linejoin:miter;stroke-opacity:1" d="M 805.916,437.629 807.896,457.429 z" id="boundary" inkscape:connector-curvature="0" />
	<path style="fill:none;stroke:red;stroke-width:1px;stroke-linecap:butt;stroke-linejoin:miter;stroke-opacity:1" d="M 807.896,457.429 815.816,477.23 z" id="boundary" inkscape:connector-curvature="0" />
	<path style="fill:none;stroke:red;stroke-width:1px;stroke-linecap:butt;stroke-linejoin:miter;stroke-opacity:1" d="M 815.816,477.23 815.816,497.03 z" id="boundary" inkscape:connector-curvature="0" />
	<path style="fill:none;stroke:red;stroke-width:1px;stroke-linecap:butt;stroke-linejoin:miter;stroke-opacity:1" d="M 815.816,497.03 815.816,516.83 z" id="boundary" inkscape:connector-curvature="0" />
	<path style="fill:none;stroke:red;stroke-width:1px;stroke-linecap:butt;stroke-linejoin:miter;stroke-opacity:1" d="M 815.816,516.83 815.816,536.631 z" id="boundary" inkscape:connector-curvature="0" />
	<path style="fill:none;stroke:red;stroke-width:1px;stroke-linecap:butt;stroke-linejoin:miter;stroke-opacity:1" d="M 815.816,536.631 815.816,556.431 z" id="boundary" inkscape:connector-curvature="0" />
	<path style="fill:none;stroke:red;stroke-width:1px;stroke-linecap:butt;stroke-linejoin:miter;stroke-opacity:1" d="M 815.816,556.431 815.816,576.232 z" id="boundary" inkscape:connector-curvature="0" />
	<path style="fill:none;stroke:red;stroke-width:1px;stroke-linecap:butt;stroke-linejoin:miter;stroke-opacity:1" d="M 815.816,576.232 805.916,594.052 z" id="boundary" inkscape:connector-curvature="0" />
	<path style="fill:none;stroke:red;stroke-width:1px;stroke-linecap:butt;stroke-linejoin:miter;stroke-opacity:1" d="M 805.916,594.052 796.016,613.852 z" id="boundary" inkscape:connector-curvature="0" />
	<path style="fill:none;stroke:red;stroke-width:1px;stroke-linecap:butt;stroke-linejoin:miter;stroke-opacity:1" d="M 796.016,613.852 796.016,633.653 z" id="boundary" inkscape:connector-curvature="0" />
	<path style="fill:none;stroke:red;stroke-width:1px;stroke-linecap:butt;stroke-linejoin:miter;stroke-opacity:1" d="M 796.016,633.653 815.816,639.593 z" id="boundary" inkscape:connector-curvature="0" />
	<path style="fill:none;stroke:red;stroke-width:1px;stroke-linecap:butt;stroke-linejoin:miter;stroke-opacity:1" d="M 815.816,639.593 835.617,639.593 z" id="boundary" inkscape:connector-curvature="0" />
	<path style="fill:none;stroke:red;stroke-width:1px;stroke-linecap:butt;stroke-linejoin:miter;stroke-opacity:1" d="M 835.617,639.593 851.457,627.713 z" id="boundary" inkscape:connector-curvature="0" />
	<path style="fill:none;stroke:red;stroke-width:1px;stroke-linecap:butt;stroke-linejoin:miter;stroke-opacity:1" d="M 851.457,627.713 857.397,599.992 z" id="boundary" inkscape:connector-curvature="0" />
	<path style="fill:none;stroke:red;stroke-width:1px;stroke-linecap:butt;stroke-linejoin:miter;stroke-opacity:1" d="M 857.397,599.992 867.297,580.192 z" id="boundary" inkscape:connector-curvature="0" />
	<path style="fill:none;stroke:red;stroke-width:1px;stroke-linecap:butt;stroke-linejoin:miter;stroke-opacity:1" d="M 867.297,580.192 867.297,560.391 z" id="boundary" inkscape:connector-curvature="0" />
	<path style="fill:none;stroke:red;stroke-width:1px;stroke-linecap:butt;stroke-linejoin:miter;stroke-opacity:1" d="M 867.297,560.391 867.297,540.591 z" id="boundary" inkscape:connector-curvature="0" />
	<path style="fill:none;stroke:red;stroke-width:1px;stroke-linecap:butt;stroke-linejoin:miter;stroke-opacity:1" d="M 867.297,540.591 867.297,520.79 z" id="boundary" inkscape:connector-curvature="0" />
	<path style="fill:none;stroke:red;stroke-width:1px;stroke-linecap:butt;stroke-linejoin:miter;stroke-opacity:1" d="M 867.297,520.79 867.297,500.99 z" id="boundary" inkscape:connector-curvature="0" />
	<path style="fill:none;stroke:red;stroke-width:1px;stroke-linecap:butt;stroke-linejoin:miter;stroke-opacity:1" d="M 867.297,500.99 877.198,481.19 z" id="boundary" inkscape:connector-curvature="0" />
	<path style="fill:none;stroke:red;stroke-width:1px;stroke-linecap:butt;stroke-linejoin:miter;stroke-opacity:1" d="M 877.198,481.19 877.198,461.389 z" id="boundary" inkscape:connector-curvature="0" />
	<path style="fill:none;stroke:red;stroke-width:1px;stroke-linecap:butt;stroke-linejoin:miter;stroke-opacity:1" d="M 706.914,382.188 687.114,382.188 z" id="boundary" inkscape:connector-curvature="0" />
	<path style="fill:none;stroke:red;stroke-width:1px;stroke-linecap:butt;stroke-linejoin:miter;stroke-opacity:1" d="M 687.114,382.188 667.313,382.188 z" id="boundary" inkscape:connector-curvature="0" />
	<path style="fill:none;stroke:red;stroke-width:1px;stroke-linecap:butt;stroke-linejoin:miter;stroke-opacity:1" d="M 667.313,382.188 649.493,392.088 z" id="boundary" inkscape:connector-curvature="0" />
	<path style="fill:none;stroke:red;stroke-width:1px;stroke-linecap:butt;stroke-linejoin:miter;stroke-opacity:1" d="M 649.493,392.088 629.693,392.088 z" id="boundary" inkscape:connector-curvature="0" />
	<path style="fill:none;stroke:red;stroke-width:1px;stroke-linecap:butt;stroke-linejoin:miter;stroke-opacity:1" d="M 629.693,392.088 609.892,392.088 z" id="boundary" inkscape:connector-curvature="0" />
	<path style="fill:none;stroke:red;stroke-width:1px;stroke-linecap:butt;stroke-linejoin:miter;stroke-opacity:1" d="M 609.892,392.088 590.092,392.088 z" id="boundary" inkscape:connector-curvature="0" />
	<path style="fill:none;stroke:red;stroke-width:1px;stroke-linecap:butt;stroke-linejoin:miter;stroke-opacity:1" d="M 590.092,392.088 570.291,392.088 z" id="boundary" inkscape:connector-curvature="0" />
	<path style="fill:none;stroke:red;stroke-width:1px;stroke-linecap:butt;stroke-linejoin:miter;stroke-opacity:1" d="M 706.914,382.188 724.735,372.287 z" id="boundary" inkscape:connector-curvature="0" />
	<path style="fill:none;stroke:red;stroke-width:1px;stroke-linecap:butt;stroke-linejoin:miter;stroke-opacity:1" d="M 724.735,372.287 742.555,360.407 z" id="boundary" inkscape:connector-curvature="0" />
	<path style="fill:none;stroke:red;stroke-width:1px;stroke-linecap:butt;stroke-linejoin:miter;stroke-opacity:1" d="M 742.555,360.407 762.355,352.487 z" id="boundary" inkscape:connector-curvature="0" />
	<path style="fill:none;stroke:red;stroke-width:1px;stroke-linecap:butt;stroke-linejoin:miter;stroke-opacity:1" d="M 762.355,352.487 782.156,360.407 z" id="boundary" inkscape:connector-curvature="0" />
	<path style="fill:none;stroke:red;stroke-width:1px;stroke-linecap:butt;stroke-linejoin:miter;stroke-opacity:1" d="M 782.156,360.407 790.076,380.208 z" id="boundary" inkscape:connector-curvature="0" />
	<path style="fill:none;stroke:red;stroke-width:1px;stroke-linecap:butt;stroke-linejoin:miter;stroke-opacity:1" d="M 790.076,380.208 799.976,398.028 z" id="boundary" inkscape:connector-curvature="0" />
	<path style="fill:none;stroke:red;stroke-width:1px;stroke-linecap:butt;stroke-linejoin:miter;stroke-opacity:1" d="M 570.291,392.088 560.391,421.788 z" id="boundary" inkscape:connector-curvature="0" />
	<path style="fill:none;stroke:red;stroke-width:1px;stroke-linecap:butt;stroke-linejoin:miter;stroke-opacity:1" d="M 560.391,421.788 550.491,451.489 z" id="boundary" inkscape:connector-curvature="0" />
	<path style="fill:none;stroke:red;stroke-width:1px;stroke-linecap:butt;stroke-linejoin:miter;stroke-opacity:1" d="M 550.491,451.489 550.491,471.289 z" id="boundary" inkscape:connector-curvature="0" />
	<path style="fill:none;stroke:red;stroke-width:1px;stroke-linecap:butt;stroke-linejoin:miter;stroke-opacity:1" d="M 550.491,471.289 540.591,491.09 z" id="boundary" inkscape:connector-curvature="0" />
	<path style="fill:none;stroke:red;stroke-width:1px;stroke-linecap:butt;stroke-linejoin:miter;stroke-opacity:1" d="M 540.591,491.09 530.691,510.89 z" id="boundary" inkscape:connector-curvature="0" />
	<path style="fill:none;stroke:red;stroke-width:1px;stroke-linecap:butt;stroke-linejoin:miter;stroke-opacity:1" d="M 530.691,510.89 520.79,540.591 z" id="boundary" inkscape:connector-curvature="0" />
	<path style="fill:none;stroke:red;stroke-width:1px;stroke-linecap:butt;stroke-linejoin:miter;stroke-opacity:1" d="M 520.79,540.591 520.79,560.391 z" id="boundary" inkscape:connector-curvature="0" />
	<circle cx="4" cy="108.942" r="4" fill="#0" id="circle0"/>
	<circle cx="4" cy="128.743" r="4" fill="#0" id="circle1"/>
	<circle cx="4" cy="148.543" r="4" fill="#0" id="circle2"/>
	<circle cx="13.9002" cy="166.363" r="4" fill="#0" id="circle3"/>
	<circle cx="23.8004" cy="99.0419" r="4" fill="#0" id="circle4"/>
	<circle cx="27.7605" cy="182.204" r="4" fill="#0" id="circle5"/>
	<circle cx="43.6008" cy="93.1018" r="4" fill="#0" id="circle6"/>
	<circle cx="47.5609" cy="190.124" r="4" fill="#0" id="circle7"/>
	<circle cx="61.4212" cy="83.2016" r="4" fill="#0" id="circle8"/>
	<circle cx="65.3812" cy="200.024" r="4" fill="#0" id="circle9"/>
	<circle cx="79.2415" cy="73.3014" r="4" fill="#0" id="circle10"/>
	<circle cx="85.1816" cy="203.984" r="4" fill="#0" id="circle11"/>
	<circle cx="99.0419" cy="63.4012" r="4" fill="#0" id="circle12"/>
	<circle cx="104.982" cy="207.944" r="4" fill="#0" id="circle13"/>
	<circle cx="114.882" cy="47.5609" r="4" fill="#0" id="circle14"/>
	<circle cx="124.782" cy="213.884" r="4" fill="#0" id="circle15"/>
	<circle cx="134.683" cy="37.6607" r="4" fill="#0" id="circle16"/>
	<circle cx="142.603" cy="223.784" r="4" fill="#0" id="circle17"/>
	<circle cx="150.523" cy="23.8004" r="4" fill="#0" id="circle18"/>
	<circle cx="160.423" cy="233.685" r="4" fill="#0" id="circle19"/>
	<circle cx="168.343" cy="13.9002" r="4" fill="#0" id="circle20"/>
	<circle cx="178.244" cy="243.585" r="4" fill="#0" id="circle21"/>
	<circle cx="186.164" cy="4" r="4" fill="#0" id="circle22"/>
	<circle cx="196.064" cy="253.485" r="4" fill="#0" id="circle23"/>
	<circle cx="205.964" cy="4" r="4" fill="#0" id="circle24"/>
	<circle cx="213.884" cy="263.385" r="4" fill="#0" id="circle25"/>
	<circle cx="223.784" cy="13.9002" r="4" fill="#0" id="circle26"/>
	<circle cx="231.705" cy="273.285" r="4" fill="#0" id="circle27"/>
	<circle cx="243.585" cy="19.8403" r="4" fill="#0" id="circle28"/>
	<circle cx="249.525" cy="283.186" r="4" fill="#0" id="circle29"/>
	<circle cx="259.425" cy="33.7006" r="4" fill="#0" id="circle30"/>
	<circle cx="267.345" cy="293.086" r="4" fill="#0" id="circle31"/>
	<circle cx="277.246" cy="23.8004" r="4" fill="#0" id="circle32"/>
	<circle cx="287.146" cy="301.006" r="4" fill="#0" id="circle33"/>
	<circle cx="297.046" cy="23.8004" r="4" fill="#0" id="circle34"/>
	<circle cx="304.966" cy="310.906" r="4" fill="#0" id="circle35"/>
	<circle cx="316.846" cy="23.8004" r="4" fill="#0" id="circle36"/>
	<circle cx="324.766" cy="318.826" r="4" fill="#0" id="circle37"/>
	<circle cx="336.647" cy="23.8004" r="4" fill="#0" id="circle38"/>
	<circle cx="340.607" cy="332.687" r="4" fill="#0" id="circle39"/>
	<circle cx="342.587" cy="43.6008" r="4" fill="#0" id="circle40"/>
	<circle cx="342.587" cy="63.4012" r="4" fill="#0" id="circle41"/>
	<circle cx="342.587" cy="83.2016" r="4" fill="#0" id="circle42"/>
	<circle cx="350.507" cy="653.453" r="4" fill="#0" id="circle43"/>
	<circle cx="358.427" cy="95.0818" r="4" fill="#0" id="circle44"/>
	<circle cx="358.427" cy="342.587" r="4" fill="#0" id="circle45"/>
	<circle cx="366.347" cy="637.613" r="4" fill="#0" id="circle46"/>
	<circle cx="370.307" cy="659.393" r="4" fill="#0" id="circle47"/>
	<circle cx="372.287" cy="358.427" r="4" fill="#0" id="circle48"/>
	<circle cx="378.228" cy="103.002" r="4" fill="#0" id="circle49"/>
	<circle cx="380.208" cy="613.852" r="4" fill="#0" id="circle50"/>
	<circle cx="390.108" cy="594.052" r="4" fill="#0" id="circle51"/>
	<circle cx="390.108" cy="659.393" r="4" fill="#0" id="circle52"/>
	<circle cx="392.088" cy="366.347" r="4" fill="#0" id="circle53"/>
	<circle cx="398.028" cy="103.002" r="4" fill="#0" id="circle54"/>
	<circle cx="400.008" cy="574.251" r="4" fill="#0" id="circle55"/>
	<circle cx="405.948" cy="382.188" r="4" fill="#0" id="circle56"/>
	<circle cx="409.908" cy="544.551" r="4" fill="#0" id="circle57"/>
	<circle cx="409.908" cy="653.453" r="4" fill="#0" id="circle58"/>
	<circle cx="417.828" cy="103.002" r="4" fill="#0" id="circle59"/>
	<circle cx="419.808" cy="475.25" r="4" fill="#0" id="circle60"/>
	<circle cx="419.808" cy="495.05" r="4" fill="#0" id="circle61"/>
	<circle cx="419.808" cy="514.85" r="4" fill="#0" id="circle62"/>
	<circle cx="421.788" cy="629.693" r="4" fill="#0" id="circle63"/>
	<circle cx="425.749" cy="382.188" r="4" fill="#0" id="circle64"/>
	<circle cx="429.709" cy="425.749" r="4" fill="#0" id="circle65"/>
	<circle cx="429.709" cy="445.549" r="4" fill="#0" id="circle66"/>
	<circle cx="429.709" cy="693.054" r="4" fill="#0" id="circle67"/>
	<circle cx="429.709" cy="712.854" r="4" fill="#0" id="circle68"/>
	<circle cx="431.689" cy="599.992" r="4" fill="#0" id="circle69"/>
	<circle cx="437.629" cy="103.002" r="4" fill="#0" id="circle70"/>
	<circle cx="439.609" cy="398.028" r="4" fill="#0" id="circle71"/>
	<circle cx="439.609" cy="663.353" r="4" fill="#0" id="circle72"/>
	<circle cx="441.589" cy="570.291" r="4" fill="#0" id="circle73"/>
	<circle cx="441.589" cy="728.695" r="4" fill="#0" id="circle74"/>
	<circle cx="449.509" cy="633.653" r="4" fill="#0" id="circle75"/>
	<circle cx="451.489" cy="550.491" r="4" fill="#0" id="circle76"/>
	<circle cx="455.449" cy="112.902" r="4" fill="#0" id="circle77"/>
	<circle cx="459.409" cy="603.952" r="4" fill="#0" id="circle78"/>
	<circle cx="461.389" cy="471.289" r="4" fill="#0" id="circle79"/>
	<circle cx="461.389" cy="491.09" r="4" fill="#0" id="circle80"/>
	<circle cx="461.389" cy="510.89" r="4" fill="#0" id="circle81"/>
	<circle cx="461.389" cy="530.691" r="4" fill="#0" id="circle82"/>
	<circle cx="461.389" cy="728.695" r="4" fill="#0" id="circle83"/>
	<circle cx="469.309" cy="574.251" r="4" fill="#0" id="circle84"/>
	<circle cx="471.289" cy="451.489" r="4" fill="#0" id="circle85"/>
	<circle cx="475.25" cy="112.902" r="4" fill="#0" id="circle86"/>
	<circle cx="479.21" cy="520.79" r="4" fill="#0" id="circle87"/>
	<circle cx="479.21" cy="540.591" r="4" fill="#0" id="circle88"/>
	<circle cx="481.19" cy="718.794" r="4" fill="#0" id="circle89"/>
	<circle cx="483.17" cy="500.99" r="4" fill="#0" id="circle90"/>
	<circle cx="489.11" cy="461.389" r="4" fill="#0" id="circle91"/>
	<circle cx="489.11" cy="481.19" r="4" fill="#0" id="circle92"/>
	<circle cx="491.09" cy="689.094" r="4" fill="#0" id="circle93"/>
	<circle cx="495.05" cy="112.902" r="4" fill="#0" id="circle94"/>
	<circle cx="500.99" cy="659.393" r="4" fill="#0" id="circle95"/>
	<circle cx="510.89" cy="580.192" r="4" fill="#0" id="circle96"/>
	<circle cx="510.89" cy="599.992" r="4" fill="#0" id="circle97"/>
	<circle cx="510.89" cy="619.792" r="4" fill="#0" id="circle98"/>
	<circle cx="510.89" cy="639.593" r="4" fill="#0" id="circle99"/>
	<circle cx="514.85" cy="112.902" r="4" fill="#0" id="circle100"/>
	<circle cx="520.79" cy="540.591" r="4" fill="#0" id="circle101"/>
	<circle cx="520.79" cy="560.391" r="4" fill="#0" id="circle102"/>
	<circle cx="530.691" cy="510.89" r="4" fill="#0" id="circle103"/>
	<circle cx="534.651" cy="112.902" r="4" fill="#0" id="circle104"/>
	<circle cx="540.591" cy="491.09" r="4" fill="#0" id="circle105"/>
	<circle cx="550.491" cy="451.489" r="4" fill="#0" id="circle106"/>
	<circle cx="550.491" cy="471.289" r="4" fill="#0" id="circle107"/>
	<circle cx="554.451" cy="112.902" r="4" fill="#0" id="circle108"/>
	<circle cx="560.391" cy="421.788" r="4" fill="#0" id="circle109"/>
	<circle cx="570.291" cy="392.088" r="4" fill="#0" id="circle110"/>
	<circle cx="574.251" cy="112.902" r="4" fill="#0" id="circle111"/>
	<circle cx="590.092" cy="392.088" r="4" fill="#0" id="circle112"/>
	<circle cx="594.052" cy="112.902" r="4" fill="#0" id="circle113"/>
	<circle cx="609.892" cy="392.088" r="4" fill="#0" id="circle114"/>
	<circle cx="613.852" cy="112.902" r="4" fill="#0" id="circle115"/>
	<circle cx="629.693" cy="392.088" r="4" fill="#0" id="circle116"/>
	<circle cx="633.653" cy="112.902" r="4" fill="#0" id="circle117"/>
	<circle cx="649.493" cy="392.088" r="4" fill="#0" id="circle118"/>
	<circle cx="653.453" cy="112.902" r="4" fill="#0" id="circle119"/>
	<circle cx="667.313" cy="382.188" r="4" fill="#0" id="circle120"/>
	<circle cx="673.253" cy="112.902" r="4" fill="#0" id="circle121"/>
	<circle cx="687.114" cy="382.188" r="4" fill="#0" id="circle122"/>
	<circle cx="693.054" cy="112.902" r="4" fill="#0" id="circle123"/>
	<circle cx="706.914" cy="382.188" r="4" fill="#0" id="circle124"/>
	<circle cx="712.854" cy="112.902" r="4" fill="#0" id="circle125"/>
	<circle cx="724.735" cy="372.287" r="4" fill="#0" id="circle126"/>
	<circle cx="732.655" cy="112.902" r="4" fill="#0" id="circle127"/>
	<circle cx="742.555" cy="360.407" r="4" fill="#0" id="circle128"/>
	<circle cx="752.455" cy="112.902" r="4" fill="#0" id="circle129"/>
	<circle cx="762.355" cy="352.487" r="4" fill="#0" id="circle130"/>
	<circle cx="772.255" cy="112.902" r="4" fill="#0" id="circle131"/>
	<circle cx="782.156" cy="360.407" r="4" fill="#0" id="circle132"/>
	<circle cx="790.076" cy="380.208" r="4" fill="#0" id="circle133"/>
	<circle cx="792.056" cy="112.902" r="4" fill="#0" id="circle134"/>
	<circle cx="796.016" cy="613.852" r="4" fill="#0" id="circle135"/>
	<circle cx="796.016" cy="633.653" r="4" fill="#0" id="circle136"/>
	<circle cx="799.976" cy="398.028" r="4" fill="#0" id="circle137"/>
	<circle cx="805.916" cy="417.828" r="4" fill="#0" id="circle138"/>
	<circle cx="805.916" cy="437.629" r="4" fill="#0" id="circle139"/>
	<circle cx="805.916" cy="594.052" r="4" fill="#0" id="circle140"/>
	<circle cx="807.896" cy="457.429" r="4" fill="#0" id="circle141"/>
	<circle cx="811.856" cy="112.902" r="4" fill="#0" id="circle142"/>
	<circle cx="815.816" cy="477.23" r="4" fill="#0" id="circle143"/>
	<circle cx="815.816" cy="497.03" r="4" fill="#0" id="circle144"/>
	<circle cx="815.816" cy="516.83" r="4" fill="#0" id="circle145"/>
	<circle cx="815.816" cy="536.631" r="4" fill="#0" id="circle146"/>
	<circle cx="815.816" cy="556.431" r="4" fill="#0" id="circle147"/>
	<circle cx="815.816" cy="576.232" r="4" fill="#0" id="circle148"/>
	<circle cx="815.816" cy="639.593" r="4" fill="#0" id="circle149"/>
	<circle cx="831.657" cy="112.902" r="4" fill="#0" id="circle150"/>
	<circle cx="835.617" cy="639.593" r="4" fill="#0" id="circle151"/>
	<circle cx="851.457" cy="112.902" r="4" fill="#0" id="circle152"/>
	<circle cx="851.457" cy="627.713" r="4" fill="#0" id="circle153"/>
	<circle cx="857.397" cy="599.992" r="4" fill="#0" id="circle154"/>
	<circle cx="867.297" cy="500.99" r="4" fill="#0" id="circle155"/>
	<circle cx="867.297" cy="520.79" r="4" fill="#0" id="circle156"/>
	<circle cx="867.297" cy="540.591" r="4" fill="#0" id="circle157"/>
	<circle cx="867.297" cy="560.391" r="4" fill="#0" id="circle158"/>
	<circle cx="867.297" cy="580.192" r="4" fill="#0" id="circle159"/>
	<circle cx="869.277" cy="122.802" r="4" fill="#0" id="circle160"/>
	<circle cx="877.198" cy="401.988" r="4" fill="#0" id="circle161"/>
	<circle cx="877.198" cy="421.788" r="4" fill="#0" id="circle162"/>
	<circle cx="877.198" cy="441.589" r="4" fill="#0" id="circle163"/>
	<circle cx="877.198" cy="461.389" r="4" fill="#0" id="circle164"/>
	<circle cx="877.198" cy="481.19" r="4" fill="#0" id="circle165"/>
	<circle cx="889.078" cy="122.802" r="4" fill="#0" id="circle166"/>
	<circle cx="895.018" cy="431.689" r="4" fill="#0" id="circle167"/>
	<circle cx="895.018" cy="451.489" r="4" fill="#0" id="circle168"/>
	<circle cx="908.878" cy="122.802" r="4" fill="#0" id="circle169"/>
	<circle cx="912.838" cy="461.389" r="4" fill="#0" id="circle170"/>
	<circle cx="914.818" cy="481.19" r="4" fill="#0" id="circle171"/>
	<circle cx="916.798" cy="142.603" r="4" fill="#0" id="circle172"/>
	<circle cx="924.719" cy="499.01" r="4" fill="#0" id="circle173"/>
	<circle cx="928.679" cy="518.81" r="4" fill="#0" id="circle174"/>
	<circle cx="932.639" cy="154.483" r="4" fill="#0" id="circle175"/>
	<circle cx="934.619" cy="538.611" r="4" fill="#0" id="circle176"/>
	<circle cx="934.619" cy="653.453" r="4" fill="#0" id="circle177"/>
	<circle cx="934.619" cy="683.154" r="4" fill="#0" id="circle178"/>
	<circle cx="938.579" cy="558.411" r="4" fill="#0" id="circle179"/>
	<circle cx="944.519" cy="578.212" r="4" fill="#0" id="circle180"/>
	<circle cx="944.519" cy="598.012" r="4" fill="#0" id="circle181"/>
	<circle cx="944.519" cy="617.812" r="4" fill="#0" id="circle182"/>
	<circle cx="946.499" cy="170.323" r="4" fill="#0" id="circle183"/>
	<circle cx="946.499" cy="698.994" r="4" fill="#0" id="circle184"/>
	<circle cx="956.399" cy="188.144" r="4" fill="#0" id="circle185"/>
	<circle cx="956.399" cy="207.944" r="4" fill="#0" id="circle186"/>
	<circle cx="956.399" cy="227.745" r="4" fill="#0" id="circle187"/>
	<circle cx="956.399" cy="322.786" r="4" fill="#0" id="circle188"/>
	<circle cx="956.399" cy="342.587" r="4" fill="#0" id="circle189"/>
	<circle cx="956.399" cy="362.387" r="4" fill="#0" id="circle190"/>
	<circle cx="960.359" cy="382.188" r="4" fill="#0" id="circle191"/>
	<circle cx="964.319" cy="247.545" r="4" fill="#0" id="circle192"/>
	<circle cx="964.319" cy="708.894" r="4" fill="#0" id="circle193"/>
	<circle cx="966.299" cy="267.345" r="4" fill="#0" id="circle194"/>
	<circle cx="966.299" cy="287.146" r="4" fill="#0" id="circle195"/>
	<circle cx="970.259" cy="400.008" r="4" fill="#0" id="circle196"/>
	<circle cx="976.2" cy="419.808" r="4" fill="#0" id="circle197"/>
	<circle cx="982.14" cy="698.994" r="4" fill="#0" id="circle198"/>
	<circle cx="986.1" cy="437.629" r="4" fill="#0" id="circle199"/>
	<circle cx="986.1" cy="457.429" r="4" fill="#0" id="circle200"/>
	<circle cx="986.1" cy="477.23" r="4" fill="#0" id="circle201"/>
	<circle cx="986.1" cy="497.03" r="4" fill="#0" id="circle202"/>
	<circle cx="986.1" cy="516.83" r="4" fill="#0" id="circle203"/>
	<circle cx="996" cy="534.651" r="4" fill="#0" id="circle204"/>
	<circle cx="996" cy="554.451" r="4" fill="#0" id="circle205"/>
	<circle cx="996" cy="574.251" r="4" fill="#0" id="circle206"/>
	<circle cx="996" cy="594.052" r="4" fill="#0" id="circle207"/>
	<circle cx="996" cy="613.852" r="4" fill="#0" id="circle208"/>
	<circle cx="996" cy="633.653" r="4" fill="#0" id="circle209"/>
	<circle cx="996" cy="653.453" r="4" fill="#0" id="circle210"/>
	<circle cx="996" cy="673.253" r="4" fill="#0" id="circle211"/>
	</g>
</svg>