<?xml version="1.0" encoding="UTF-8" standalone="no"?>
<!-- Created with CurveBenchmark -->
<svg
	xmlns:dc="http://purl.org/dc/elements/1.1/"
	xmlns:cc="http://creativecommons.org/ns#"
	xmlns:rdf="http://www.w3.org/1999/02/22-rdf-syntax-ns#"
	xmlns:svg="http://www.w3.org/2000/svg"
	xmlns="http://www.w3.org/2000/svg"
	xmlns:sodipodi="http://sodipodi.sourceforge.net/DTD/sodipodi-0.dtd"
	xmlns:inkscape="http://www.inkscape.org/namespaces/inkscape"
	width="1000"
	height="1000"
	id="svg2"
	version="1.1"
	sodipodi:docname="manifold/crawl-woodenspoonbinary59.png.txt">
<defs
	id="defs4" />
<metadata
	id="metadata7">
	<rdf:RDF>
		<cc:Work
			rdf:about="">
			<dc:format>image/svg+xml</dc:format>
			<dc:type
				rdf:resource="http://purl.org/dc/dcmitype/StillImage" />
			<dc:title></dc:title>
		</cc:Work>
	</rdf:RDF>
</metadata>
<g
	inkscape:label="Layer 1"
	inkscape:groupmode="layer"
	id="layer1">
	<path style="fill:none;stroke:red;stroke-width:1px;stroke-linecap:butt;stroke-linejoin:miter;stroke-opacity:1" d="M 27.9448,958.372 55.3103,978.897 z" id="boundary" inkscape:connector-curvature="0" />
	<path style="fill:none;stroke:red;stroke-width:1px;stroke-linecap:butt;stroke-linejoin:miter;stroke-opacity:1" d="M 27.9448,958.372 10.8414,927.586 z" id="boundary" inkscape:connector-curvature="0" />
	<path style="fill:none;stroke:red;stroke-width:1px;stroke-linecap:butt;stroke-linejoin:miter;stroke-opacity:1" d="M 10.8414,927.586 4,893.379 z" id="boundary" inkscape:connector-curvature="0" />
	<path style="fill:none;stroke:red;stroke-width:1px;stroke-linecap:butt;stroke-linejoin:miter;stroke-opacity:1" d="M 55.3103,978.897 89.5172,989.159 z" id="boundary" inkscape:connector-curvature="0" />
	<path style="fill:none;stroke:red;stroke-width:1px;stroke-linecap:butt;stroke-linejoin:miter;stroke-opacity:1" d="M 89.5172,989.159 123.724,996 z" id="boundary" inkscape:connector-curvature="0" />
	<path style="fill:none;stroke:red;stroke-width:1px;stroke-linecap:butt;stroke-linejoin:miter;stroke-opacity:1" d="M 123.724,996 157.931,992.579 z" id="boundary" inkscape:connector-curvature="0" />
	<path style="fill:none;stroke:red;stroke-width:1px;stroke-linecap:butt;stroke-linejoin:miter;stroke-opacity:1" d="M 157.931,992.579 192.138,982.317 z" id="boundary" inkscape:connector-curvature="0" />
	<path style="fill:none;stroke:red;stroke-width:1px;stroke-linecap:butt;stroke-linejoin:miter;stroke-opacity:1" d="M 192.138,982.317 219.503,961.793 z" id="boundary" inkscape:connector-curvature="0" />
	<path style="fill:none;stroke:red;stroke-width:1px;stroke-linecap:butt;stroke-linejoin:miter;stroke-opacity:1" d="M 4,893.379 14.2621,859.172 z" id="boundary" inkscape:connector-curvature="0" />
	<path style="fill:none;stroke:red;stroke-width:1px;stroke-linecap:butt;stroke-linejoin:miter;stroke-opacity:1" d="M 14.2621,859.172 31.3655,828.386 z" id="boundary" inkscape:connector-curvature="0" />
	<path style="fill:none;stroke:red;stroke-width:1px;stroke-linecap:butt;stroke-linejoin:miter;stroke-opacity:1" d="M 219.503,961.793 246.869,937.848 z" id="boundary" inkscape:connector-curvature="0" />
	<path style="fill:none;stroke:red;stroke-width:1px;stroke-linecap:butt;stroke-linejoin:miter;stroke-opacity:1" d="M 246.869,937.848 267.393,910.483 z" id="boundary" inkscape:connector-curvature="0" />
	<path style="fill:none;stroke:red;stroke-width:1px;stroke-linecap:butt;stroke-linejoin:miter;stroke-opacity:1" d="M 31.3655,828.386 58.731,804.441 z" id="boundary" inkscape:connector-curvature="0" />
	<path style="fill:none;stroke:red;stroke-width:1px;stroke-linecap:butt;stroke-linejoin:miter;stroke-opacity:1" d="M 58.731,804.441 89.5172,787.338 z" id="boundary" inkscape:connector-curvature="0" />
	<path style="fill:none;stroke:red;stroke-width:1px;stroke-linecap:butt;stroke-linejoin:miter;stroke-opacity:1" d="M 89.5172,787.338 120.303,770.234 z" id="boundary" inkscape:connector-curvature="0" />
	<path style="fill:none;stroke:red;stroke-width:1px;stroke-linecap:butt;stroke-linejoin:miter;stroke-opacity:1" d="M 120.303,770.234 154.51,759.972 z" id="boundary" inkscape:connector-curvature="0" />
	<path style="fill:none;stroke:red;stroke-width:1px;stroke-linecap:butt;stroke-linejoin:miter;stroke-opacity:1" d="M 154.51,759.972 188.717,749.71 z" id="boundary" inkscape:connector-curvature="0" />
	<path style="fill:none;stroke:red;stroke-width:1px;stroke-linecap:butt;stroke-linejoin:miter;stroke-opacity:1" d="M 188.717,749.71 222.924,742.869 z" id="boundary" inkscape:connector-curvature="0" />
	<path style="fill:none;stroke:red;stroke-width:1px;stroke-linecap:butt;stroke-linejoin:miter;stroke-opacity:1" d="M 222.924,742.869 257.131,732.607 z" id="boundary" inkscape:connector-curvature="0" />
	<path style="fill:none;stroke:red;stroke-width:1px;stroke-linecap:butt;stroke-linejoin:miter;stroke-opacity:1" d="M 257.131,732.607 284.497,712.083 z" id="boundary" inkscape:connector-curvature="0" />
	<path style="fill:none;stroke:red;stroke-width:1px;stroke-linecap:butt;stroke-linejoin:miter;stroke-opacity:1" d="M 267.393,910.483 284.497,876.276 z" id="boundary" inkscape:connector-curvature="0" />
	<path style="fill:none;stroke:red;stroke-width:1px;stroke-linecap:butt;stroke-linejoin:miter;stroke-opacity:1" d="M 284.497,712.083 311.862,684.717 z" id="boundary" inkscape:connector-curvature="0" />
	<path style="fill:none;stroke:red;stroke-width:1px;stroke-linecap:butt;stroke-linejoin:miter;stroke-opacity:1" d="M 311.862,684.717 339.228,657.352 z" id="boundary" inkscape:connector-curvature="0" />
	<path style="fill:none;stroke:red;stroke-width:1px;stroke-linecap:butt;stroke-linejoin:miter;stroke-opacity:1" d="M 339.228,657.352 366.593,633.407 z" id="boundary" inkscape:connector-curvature="0" />
	<path style="fill:none;stroke:red;stroke-width:1px;stroke-linecap:butt;stroke-linejoin:miter;stroke-opacity:1" d="M 366.593,633.407 380.276,667.614 z" id="boundary" inkscape:connector-curvature="0" />
	<path style="fill:none;stroke:red;stroke-width:1px;stroke-linecap:butt;stroke-linejoin:miter;stroke-opacity:1" d="M 380.276,667.614 404.221,640.248 z" id="boundary" inkscape:connector-curvature="0" />
	<path style="fill:none;stroke:red;stroke-width:1px;stroke-linecap:butt;stroke-linejoin:miter;stroke-opacity:1" d="M 404.221,640.248 393.959,606.041 z" id="boundary" inkscape:connector-curvature="0" />
	<path style="fill:none;stroke:red;stroke-width:1px;stroke-linecap:butt;stroke-linejoin:miter;stroke-opacity:1" d="M 393.959,606.041 428.166,612.883 z" id="boundary" inkscape:connector-curvature="0" />
	<path style="fill:none;stroke:red;stroke-width:1px;stroke-linecap:butt;stroke-linejoin:miter;stroke-opacity:1" d="M 428.166,612.883 417.903,578.676 z" id="boundary" inkscape:connector-curvature="0" />
	<path style="fill:none;stroke:red;stroke-width:1px;stroke-linecap:butt;stroke-linejoin:miter;stroke-opacity:1" d="M 417.903,578.676 455.531,585.517 z" id="boundary" inkscape:connector-curvature="0" />
	<path style="fill:none;stroke:red;stroke-width:1px;stroke-linecap:butt;stroke-linejoin:miter;stroke-opacity:1" d="M 455.531,585.517 445.269,551.31 z" id="boundary" inkscape:connector-curvature="0" />
	<path style="fill:none;stroke:red;stroke-width:1px;stroke-linecap:butt;stroke-linejoin:miter;stroke-opacity:1" d="M 445.269,551.31 482.897,558.152 z" id="boundary" inkscape:connector-curvature="0" />
	<path style="fill:none;stroke:red;stroke-width:1px;stroke-linecap:butt;stroke-linejoin:miter;stroke-opacity:1" d="M 482.897,558.152 472.634,523.945 z" id="boundary" inkscape:connector-curvature="0" />
	<path style="fill:none;stroke:red;stroke-width:1px;stroke-linecap:butt;stroke-linejoin:miter;stroke-opacity:1" d="M 472.634,523.945 506.841,530.786 z" id="boundary" inkscape:connector-curvature="0" />
	<path style="fill:none;stroke:red;stroke-width:1px;stroke-linecap:butt;stroke-linejoin:miter;stroke-opacity:1" d="M 506.841,530.786 496.579,496.579 z" id="boundary" inkscape:connector-curvature="0" />
	<path style="fill:none;stroke:red;stroke-width:1px;stroke-linecap:butt;stroke-linejoin:miter;stroke-opacity:1" d="M 496.579,496.579 534.207,503.421 z" id="boundary" inkscape:connector-curvature="0" />
	<path style="fill:none;stroke:red;stroke-width:1px;stroke-linecap:butt;stroke-linejoin:miter;stroke-opacity:1" d="M 534.207,503.421 523.945,469.214 z" id="boundary" inkscape:connector-curvature="0" />
	<path style="fill:none;stroke:red;stroke-width:1px;stroke-linecap:butt;stroke-linejoin:miter;stroke-opacity:1" d="M 523.945,469.214 558.152,476.055 z" id="boundary" inkscape:connector-curvature="0" />
	<path style="fill:none;stroke:red;stroke-width:1px;stroke-linecap:butt;stroke-linejoin:miter;stroke-opacity:1" d="M 558.152,476.055 551.31,441.848 z" id="boundary" inkscape:connector-curvature="0" />
	<path style="fill:none;stroke:red;stroke-width:1px;stroke-linecap:butt;stroke-linejoin:miter;stroke-opacity:1" d="M 551.31,441.848 585.517,448.69 z" id="boundary" inkscape:connector-curvature="0" />
	<path style="fill:none;stroke:red;stroke-width:1px;stroke-linecap:butt;stroke-linejoin:miter;stroke-opacity:1" d="M 585.517,448.69 578.676,414.483 z" id="boundary" inkscape:connector-curvature="0" />
	<path style="fill:none;stroke:red;stroke-width:1px;stroke-linecap:butt;stroke-linejoin:miter;stroke-opacity:1" d="M 578.676,414.483 612.883,421.324 z" id="boundary" inkscape:connector-curvature="0" />
	<path style="fill:none;stroke:red;stroke-width:1px;stroke-linecap:butt;stroke-linejoin:miter;stroke-opacity:1" d="M 612.883,421.324 602.621,387.117 z" id="boundary" inkscape:connector-curvature="0" />
	<path style="fill:none;stroke:red;stroke-width:1px;stroke-linecap:butt;stroke-linejoin:miter;stroke-opacity:1" d="M 602.621,387.117 636.828,393.959 z" id="boundary" inkscape:connector-curvature="0" />
	<path style="fill:none;stroke:red;stroke-width:1px;stroke-linecap:butt;stroke-linejoin:miter;stroke-opacity:1" d="M 636.828,393.959 629.986,359.752 z" id="boundary" inkscape:connector-curvature="0" />
	<path style="fill:none;stroke:red;stroke-width:1px;stroke-linecap:butt;stroke-linejoin:miter;stroke-opacity:1" d="M 629.986,359.752 664.193,366.593 z" id="boundary" inkscape:connector-curvature="0" />
	<path style="fill:none;stroke:red;stroke-width:1px;stroke-linecap:butt;stroke-linejoin:miter;stroke-opacity:1" d="M 664.193,366.593 657.352,332.386 z" id="boundary" inkscape:connector-curvature="0" />
	<path style="fill:none;stroke:red;stroke-width:1px;stroke-linecap:butt;stroke-linejoin:miter;stroke-opacity:1" d="M 657.352,332.386 691.559,339.228 z" id="boundary" inkscape:connector-curvature="0" />
	<path style="fill:none;stroke:red;stroke-width:1px;stroke-linecap:butt;stroke-linejoin:miter;stroke-opacity:1" d="M 691.559,339.228 684.717,305.021 z" id="boundary" inkscape:connector-curvature="0" />
	<path style="fill:none;stroke:red;stroke-width:1px;stroke-linecap:butt;stroke-linejoin:miter;stroke-opacity:1" d="M 684.717,305.021 718.924,311.862 z" id="boundary" inkscape:connector-curvature="0" />
	<path style="fill:none;stroke:red;stroke-width:1px;stroke-linecap:butt;stroke-linejoin:miter;stroke-opacity:1" d="M 718.924,311.862 708.662,277.655 z" id="boundary" inkscape:connector-curvature="0" />
	<path style="fill:none;stroke:red;stroke-width:1px;stroke-linecap:butt;stroke-linejoin:miter;stroke-opacity:1" d="M 708.662,277.655 742.869,284.497 z" id="boundary" inkscape:connector-curvature="0" />
	<path style="fill:none;stroke:red;stroke-width:1px;stroke-linecap:butt;stroke-linejoin:miter;stroke-opacity:1" d="M 742.869,284.497 736.028,250.29 z" id="boundary" inkscape:connector-curvature="0" />
	<path style="fill:none;stroke:red;stroke-width:1px;stroke-linecap:butt;stroke-linejoin:miter;stroke-opacity:1" d="M 736.028,250.29 770.234,257.131 z" id="boundary" inkscape:connector-curvature="0" />
	<path style="fill:none;stroke:red;stroke-width:1px;stroke-linecap:butt;stroke-linejoin:miter;stroke-opacity:1" d="M 770.234,257.131 763.393,222.924 z" id="boundary" inkscape:connector-curvature="0" />
	<path style="fill:none;stroke:red;stroke-width:1px;stroke-linecap:butt;stroke-linejoin:miter;stroke-opacity:1" d="M 763.393,222.924 797.6,229.766 z" id="boundary" inkscape:connector-curvature="0" />
	<path style="fill:none;stroke:red;stroke-width:1px;stroke-linecap:butt;stroke-linejoin:miter;stroke-opacity:1" d="M 797.6,229.766 787.338,195.559 z" id="boundary" inkscape:connector-curvature="0" />
	<path style="fill:none;stroke:red;stroke-width:1px;stroke-linecap:butt;stroke-linejoin:miter;stroke-opacity:1" d="M 787.338,195.559 821.545,202.4 z" id="boundary" inkscape:connector-curvature="0" />
	<path style="fill:none;stroke:red;stroke-width:1px;stroke-linecap:butt;stroke-linejoin:miter;stroke-opacity:1" d="M 821.545,202.4 814.703,168.193 z" id="boundary" inkscape:connector-curvature="0" />
	<path style="fill:none;stroke:red;stroke-width:1px;stroke-linecap:butt;stroke-linejoin:miter;stroke-opacity:1" d="M 814.703,168.193 848.91,175.034 z" id="boundary" inkscape:connector-curvature="0" />
	<path style="fill:none;stroke:red;stroke-width:1px;stroke-linecap:butt;stroke-linejoin:miter;stroke-opacity:1" d="M 848.91,175.034 842.069,140.828 z" id="boundary" inkscape:connector-curvature="0" />
	<path style="fill:none;stroke:red;stroke-width:1px;stroke-linecap:butt;stroke-linejoin:miter;stroke-opacity:1" d="M 842.069,140.828 876.276,147.669 z" id="boundary" inkscape:connector-curvature="0" />
	<path style="fill:none;stroke:red;stroke-width:1px;stroke-linecap:butt;stroke-linejoin:miter;stroke-opacity:1" d="M 876.276,147.669 866.014,113.462 z" id="boundary" inkscape:connector-curvature="0" />
	<path style="fill:none;stroke:red;stroke-width:1px;stroke-linecap:butt;stroke-linejoin:miter;stroke-opacity:1" d="M 866.014,113.462 900.221,120.303 z" id="boundary" inkscape:connector-curvature="0" />
	<path style="fill:none;stroke:red;stroke-width:1px;stroke-linecap:butt;stroke-linejoin:miter;stroke-opacity:1" d="M 900.221,120.303 893.379,86.0966 z" id="boundary" inkscape:connector-curvature="0" />
	<path style="fill:none;stroke:red;stroke-width:1px;stroke-linecap:butt;stroke-linejoin:miter;stroke-opacity:1" d="M 893.379,86.0966 927.586,92.9379 z" id="boundary" inkscape:connector-curvature="0" />
	<path style="fill:none;stroke:red;stroke-width:1px;stroke-linecap:butt;stroke-linejoin:miter;stroke-opacity:1" d="M 927.586,92.9379 920.745,58.731 z" id="boundary" inkscape:connector-curvature="0" />
	<path style="fill:none;stroke:red;stroke-width:1px;stroke-linecap:butt;stroke-linejoin:miter;stroke-opacity:1" d="M 920.745,58.731 954.952,65.5724 z" id="boundary" inkscape:connector-curvature="0" />
	<path style="fill:none;stroke:red;stroke-width:1px;stroke-linecap:butt;stroke-linejoin:miter;stroke-opacity:1" d="M 954.952,65.5724 948.11,31.3655 z" id="boundary" inkscape:connector-curvature="0" />
	<path style="fill:none;stroke:red;stroke-width:1px;stroke-linecap:butt;stroke-linejoin:miter;stroke-opacity:1" d="M 948.11,31.3655 982.317,38.2069 z" id="boundary" inkscape:connector-curvature="0" />
	<path style="fill:none;stroke:red;stroke-width:1px;stroke-linecap:butt;stroke-linejoin:miter;stroke-opacity:1" d="M 982.317,38.2069 975.476,4 z" id="boundary" inkscape:connector-curvature="0" />
	<path style="fill:none;stroke:red;stroke-width:1px;stroke-linecap:butt;stroke-linejoin:miter;stroke-opacity:1" d="M 284.497,876.276 291.338,814.703 z" id="boundary" inkscape:connector-curvature="0" />
	<path style="fill:none;stroke:red;stroke-width:1px;stroke-linecap:butt;stroke-linejoin:miter;stroke-opacity:1" d="M 291.338,814.703 287.917,780.497 z" id="boundary" inkscape:connector-curvature="0" />
	<path style="fill:none;stroke:red;stroke-width:1px;stroke-linecap:butt;stroke-linejoin:miter;stroke-opacity:1" d="M 287.917,780.497 305.021,749.71 z" id="boundary" inkscape:connector-curvature="0" />
	<path style="fill:none;stroke:red;stroke-width:1px;stroke-linecap:butt;stroke-linejoin:miter;stroke-opacity:1" d="M 305.021,749.71 328.966,722.345 z" id="boundary" inkscape:connector-curvature="0" />
	<path style="fill:none;stroke:red;stroke-width:1px;stroke-linecap:butt;stroke-linejoin:miter;stroke-opacity:1" d="M 328.966,722.345 352.91,694.979 z" id="boundary" inkscape:connector-curvature="0" />
	<circle cx="4" cy="893.379" r="4" fill="#0" id="circle0"/>
	<circle cx="10.8414" cy="927.586" r="4" fill="#0" id="circle1"/>
	<circle cx="14.2621" cy="859.172" r="4" fill="#0" id="circle2"/>
	<circle cx="27.9448" cy="958.372" r="4" fill="#0" id="circle3"/>
	<circle cx="31.3655" cy="828.386" r="4" fill="#0" id="circle4"/>
	<circle cx="55.3103" cy="978.897" r="4" fill="#0" id="circle5"/>
	<circle cx="58.731" cy="804.441" r="4" fill="#0" id="circle6"/>
	<circle cx="89.5172" cy="787.338" r="4" fill="#0" id="circle7"/>
	<circle cx="89.5172" cy="989.159" r="4" fill="#0" id="circle8"/>
	<circle cx="120.303" cy="770.234" r="4" fill="#0" id="circle9"/>
	<circle cx="123.724" cy="996" r="4" fill="#0" id="circle10"/>
	<circle cx="154.51" cy="759.972" r="4" fill="#0" id="circle11"/>
	<circle cx="157.931" cy="992.579" r="4" fill="#0" id="circle12"/>
	<circle cx="188.717" cy="749.71" r="4" fill="#0" id="circle13"/>
	<circle cx="192.138" cy="982.317" r="4" fill="#0" id="circle14"/>
	<circle cx="219.503" cy="961.793" r="4" fill="#0" id="circle15"/>
	<circle cx="222.924" cy="742.869" r="4" fill="#0" id="circle16"/>
	<circle cx="246.869" cy="937.848" r="4" fill="#0" id="circle17"/>
	<circle cx="257.131" cy="732.607" r="4" fill="#0" id="circle18"/>
	<circle cx="267.393" cy="910.483" r="4" fill="#0" id="circle19"/>
	<circle cx="284.497" cy="712.083" r="4" fill="#0" id="circle20"/>
	<circle cx="284.497" cy="876.276" r="4" fill="#0" id="circle21"/>
	<circle cx="287.917" cy="780.497" r="4" fill="#0" id="circle22"/>
	<circle cx="291.338" cy="814.703" r="4" fill="#0" id="circle23"/>
	<circle cx="305.021" cy="749.71" r="4" fill="#0" id="circle24"/>
	<circle cx="311.862" cy="684.717" r="4" fill="#0" id="circle25"/>
	<circle cx="328.966" cy="722.345" r="4" fill="#0" id="circle26"/>
	<circle cx="339.228" cy="657.352" r="4" fill="#0" id="circle27"/>
	<circle cx="352.91" cy="694.979" r="4" fill="#0" id="circle28"/>
	<circle cx="366.593" cy="633.407" r="4" fill="#0" id="circle29"/>
	<circle cx="380.276" cy="667.614" r="4" fill="#0" id="circle30"/>
	<circle cx="393.959" cy="606.041" r="4" fill="#0" id="circle31"/>
	<circle cx="404.221" cy="640.248" r="4" fill="#0" id="circle32"/>
	<circle cx="417.903" cy="578.676" r="4" fill="#0" id="circle33"/>
	<circle cx="428.166" cy="612.883" r="4" fill="#0" id="circle34"/>
	<circle cx="445.269" cy="551.31" r="4" fill="#0" id="circle35"/>
	<circle cx="455.531" cy="585.517" r="4" fill="#0" id="circle36"/>
	<circle cx="472.634" cy="523.945" r="4" fill="#0" id="circle37"/>
	<circle cx="482.897" cy="558.152" r="4" fill="#0" id="circle38"/>
	<circle cx="496.579" cy="496.579" r="4" fill="#0" id="circle39"/>
	<circle cx="506.841" cy="530.786" r="4" fill="#0" id="circle40"/>
	<circle cx="523.945" cy="469.214" r="4" fill="#0" id="circle41"/>
	<circle cx="534.207" cy="503.421" r="4" fill="#0" id="circle42"/>
	<circle cx="551.31" cy="441.848" r="4" fill="#0" id="circle43"/>
	<circle cx="558.152" cy="476.055" r="4" fill="#0" id="circle44"/>
	<circle cx="578.676" cy="414.483" r="4" fill="#0" id="circle45"/>
	<circle cx="585.517" cy="448.69" r="4" fill="#0" id="circle46"/>
	<circle cx="602.621" cy="387.117" r="4" fill="#0" id="circle47"/>
	<circle cx="612.883" cy="421.324" r="4" fill="#0" id="circle48"/>
	<circle cx="629.986" cy="359.752" r="4" fill="#0" id="circle49"/>
	<circle cx="636.828" cy="393.959" r="4" fill="#0" id="circle50"/>
	<circle cx="657.352" cy="332.386" r="4" fill="#0" id="circle51"/>
	<circle cx="664.193" cy="366.593" r="4" fill="#0" id="circle52"/>
	<circle cx="684.717" cy="305.021" r="4" fill="#0" id="circle53"/>
	<circle cx="691.559" cy="339.228" r="4" fill="#0" id="circle54"/>
	<circle cx="708.662" cy="277.655" r="4" fill="#0" id="circle55"/>
	<circle cx="718.924" cy="311.862" r="4" fill="#0" id="circle56"/>
	<circle cx="736.028" cy="250.29" r="4" fill="#0" id="circle57"/>
	<circle cx="742.869" cy="284.497" r="4" fill="#0" id="circle58"/>
	<circle cx="763.393" cy="222.924" r="4" fill="#0" id="circle59"/>
	<circle cx="770.234" cy="257.131" r="4" fill="#0" id="circle60"/>
	<circle cx="787.338" cy="195.559" r="4" fill="#0" id="circle61"/>
	<circle cx="797.6" cy="229.766" r="4" fill="#0" id="circle62"/>
	<circle cx="814.703" cy="168.193" r="4" fill="#0" id="circle63"/>
	<circle cx="821.545" cy="202.4" r="4" fill="#0" id="circle64"/>
	<circle cx="842.069" cy="140.828" r="4" fill="#0" id="circle65"/>
	<circle cx="848.91" cy="175.034" r="4" fill="#0" id="circle66"/>
	<circle cx="866.014" cy="113.462" r="4" fill="#0" id="circle67"/>
	<circle cx="876.276" cy="147.669" r="4" fill="#0" id="circle68"/>
	<circle cx="893.379" cy="86.0966" r="4" fill="#0" id="circle69"/>
	<circle cx="900.221" cy="120.303" r="4" fill="#0" id="circle70"/>
	<circle cx="920.745" cy="58.731" r="4" fill="#0" id="circle71"/>
	<circle cx="927.586" cy="92.9379" r="4" fill="#0" id="circle72"/>
	<circle cx="948.11" cy="31.3655" r="4" fill="#0" id="circle73"/>
	<circle cx="954.952" cy="65.5724" r="4" fill="#0" id="circle74"/>
	<circle cx="975.476" cy="4" r="4" fill="#0" id="circle75"/>
	<circle cx="982.317" cy="38.2069" r="4" fill="#0" id="circle76"/>
	</g>
</svg>