<?xml version="1.0" encoding="UTF-8" standalone="no"?>
<!-- Created with CurveBenchmark -->
<svg
	xmlns:dc="http://purl.org/dc/elements/1.1/"
	xmlns:cc="http://creativecommons.org/ns#"
	xmlns:rdf="http://www.w3.org/1999/02/22-rdf-syntax-ns#"
	xmlns:svg="http://www.w3.org/2000/svg"
	xmlns="http://www.w3.org/2000/svg"
	xmlns:sodipodi="http://sodipodi.sourceforge.net/DTD/sodipodi-0.dtd"
	xmlns:inkscape="http://www.inkscape.org/namespaces/inkscape"
	width="1000"
	height="1000"
	id="svg2"
	version="1.1"
	sodipodi:docname="manifold/crawl-hammer340.png.txt">
<defs
	id="defs4" />
<metadata
	id="metadata7">
	<rdf:RDF>
		<cc:Work
			rdf:about="">
			<dc:format>image/svg+xml</dc:format>
			<dc:type
				rdf:resource="http://purl.org/dc/dcmitype/StillImage" />
			<dc:title></dc:title>
		</cc:Work>
	</rdf:RDF>
</metadata>
<g
	inkscape:label="Layer 1"
	inkscape:groupmode="layer"
	id="layer1">
	<path style="fill:none;stroke:red;stroke-width:1px;stroke-linecap:butt;stroke-linejoin:miter;stroke-opacity:1" d="M 47.1304,81.6348 29.8783,104.638 z" id="boundary" inkscape:connector-curvature="0" />
	<path style="fill:none;stroke:red;stroke-width:1px;stroke-linecap:butt;stroke-linejoin:miter;stroke-opacity:1" d="M 47.1304,81.6348 64.3826,58.6319 z" id="boundary" inkscape:connector-curvature="0" />
	<path style="fill:none;stroke:red;stroke-width:1px;stroke-linecap:butt;stroke-linejoin:miter;stroke-opacity:1" d="M 29.8783,104.638 15.5014,130.516 z" id="boundary" inkscape:connector-curvature="0" />
	<path style="fill:none;stroke:red;stroke-width:1px;stroke-linecap:butt;stroke-linejoin:miter;stroke-opacity:1" d="M 64.3826,58.6319 87.3855,35.629 z" id="boundary" inkscape:connector-curvature="0" />
	<path style="fill:none;stroke:red;stroke-width:1px;stroke-linecap:butt;stroke-linejoin:miter;stroke-opacity:1" d="M 87.3855,35.629 110.388,18.3768 z" id="boundary" inkscape:connector-curvature="0" />
	<path style="fill:none;stroke:red;stroke-width:1px;stroke-linecap:butt;stroke-linejoin:miter;stroke-opacity:1" d="M 110.388,18.3768 136.267,4 z" id="boundary" inkscape:connector-curvature="0" />
	<path style="fill:none;stroke:red;stroke-width:1px;stroke-linecap:butt;stroke-linejoin:miter;stroke-opacity:1" d="M 136.267,4 165.02,4 z" id="boundary" inkscape:connector-curvature="0" />
	<path style="fill:none;stroke:red;stroke-width:1px;stroke-linecap:butt;stroke-linejoin:miter;stroke-opacity:1" d="M 165.02,4 193.774,4 z" id="boundary" inkscape:connector-curvature="0" />
	<path style="fill:none;stroke:red;stroke-width:1px;stroke-linecap:butt;stroke-linejoin:miter;stroke-opacity:1" d="M 193.774,4 222.528,4 z" id="boundary" inkscape:connector-curvature="0" />
	<path style="fill:none;stroke:red;stroke-width:1px;stroke-linecap:butt;stroke-linejoin:miter;stroke-opacity:1" d="M 222.528,4 251.281,4 z" id="boundary" inkscape:connector-curvature="0" />
	<path style="fill:none;stroke:red;stroke-width:1px;stroke-linecap:butt;stroke-linejoin:miter;stroke-opacity:1" d="M 251.281,4 280.035,12.6261 z" id="boundary" inkscape:connector-curvature="0" />
	<path style="fill:none;stroke:red;stroke-width:1px;stroke-linecap:butt;stroke-linejoin:miter;stroke-opacity:1" d="M 280.035,12.6261 308.788,15.5014 z" id="boundary" inkscape:connector-curvature="0" />
	<path style="fill:none;stroke:red;stroke-width:1px;stroke-linecap:butt;stroke-linejoin:miter;stroke-opacity:1" d="M 308.788,15.5014 337.542,9.75072 z" id="boundary" inkscape:connector-curvature="0" />
	<path style="fill:none;stroke:red;stroke-width:1px;stroke-linecap:butt;stroke-linejoin:miter;stroke-opacity:1" d="M 337.542,9.75072 366.296,4 z" id="boundary" inkscape:connector-curvature="0" />
	<path style="fill:none;stroke:red;stroke-width:1px;stroke-linecap:butt;stroke-linejoin:miter;stroke-opacity:1" d="M 366.296,4 392.174,18.3768 z" id="boundary" inkscape:connector-curvature="0" />
	<path style="fill:none;stroke:red;stroke-width:1px;stroke-linecap:butt;stroke-linejoin:miter;stroke-opacity:1" d="M 15.5014,130.516 4,170.771 z" id="boundary" inkscape:connector-curvature="0" />
	<path style="fill:none;stroke:red;stroke-width:1px;stroke-linecap:butt;stroke-linejoin:miter;stroke-opacity:1" d="M 4,170.771 32.7536,179.397 z" id="boundary" inkscape:connector-curvature="0" />
	<path style="fill:none;stroke:red;stroke-width:1px;stroke-linecap:butt;stroke-linejoin:miter;stroke-opacity:1" d="M 32.7536,179.397 52.8812,153.519 z" id="boundary" inkscape:connector-curvature="0" />
	<path style="fill:none;stroke:red;stroke-width:1px;stroke-linecap:butt;stroke-linejoin:miter;stroke-opacity:1" d="M 52.8812,153.519 70.1333,130.516 z" id="boundary" inkscape:connector-curvature="0" />
	<path style="fill:none;stroke:red;stroke-width:1px;stroke-linecap:butt;stroke-linejoin:miter;stroke-opacity:1" d="M 70.1333,130.516 93.1362,107.513 z" id="boundary" inkscape:connector-curvature="0" />
	<path style="fill:none;stroke:red;stroke-width:1px;stroke-linecap:butt;stroke-linejoin:miter;stroke-opacity:1" d="M 93.1362,107.513 119.014,93.1362 z" id="boundary" inkscape:connector-curvature="0" />
	<path style="fill:none;stroke:red;stroke-width:1px;stroke-linecap:butt;stroke-linejoin:miter;stroke-opacity:1" d="M 119.014,93.1362 142.017,110.388 z" id="boundary" inkscape:connector-curvature="0" />
	<path style="fill:none;stroke:red;stroke-width:1px;stroke-linecap:butt;stroke-linejoin:miter;stroke-opacity:1" d="M 142.017,110.388 142.017,139.142 z" id="boundary" inkscape:connector-curvature="0" />
	<path style="fill:none;stroke:red;stroke-width:1px;stroke-linecap:butt;stroke-linejoin:miter;stroke-opacity:1" d="M 142.017,139.142 153.519,167.896 z" id="boundary" inkscape:connector-curvature="0" />
	<path style="fill:none;stroke:red;stroke-width:1px;stroke-linecap:butt;stroke-linejoin:miter;stroke-opacity:1" d="M 153.519,167.896 159.27,196.649 z" id="boundary" inkscape:connector-curvature="0" />
	<path style="fill:none;stroke:red;stroke-width:1px;stroke-linecap:butt;stroke-linejoin:miter;stroke-opacity:1" d="M 159.27,196.649 165.02,225.403 z" id="boundary" inkscape:connector-curvature="0" />
	<path style="fill:none;stroke:red;stroke-width:1px;stroke-linecap:butt;stroke-linejoin:miter;stroke-opacity:1" d="M 165.02,225.403 170.771,254.157 z" id="boundary" inkscape:connector-curvature="0" />
	<path style="fill:none;stroke:red;stroke-width:1px;stroke-linecap:butt;stroke-linejoin:miter;stroke-opacity:1" d="M 170.771,254.157 170.771,282.91 z" id="boundary" inkscape:connector-curvature="0" />
	<path style="fill:none;stroke:red;stroke-width:1px;stroke-linecap:butt;stroke-linejoin:miter;stroke-opacity:1" d="M 170.771,282.91 170.771,311.664 z" id="boundary" inkscape:connector-curvature="0" />
	<path style="fill:none;stroke:red;stroke-width:1px;stroke-linecap:butt;stroke-linejoin:miter;stroke-opacity:1" d="M 170.771,311.664 170.771,340.417 z" id="boundary" inkscape:connector-curvature="0" />
	<path style="fill:none;stroke:red;stroke-width:1px;stroke-linecap:butt;stroke-linejoin:miter;stroke-opacity:1" d="M 170.771,340.417 170.771,369.171 z" id="boundary" inkscape:connector-curvature="0" />
	<path style="fill:none;stroke:red;stroke-width:1px;stroke-linecap:butt;stroke-linejoin:miter;stroke-opacity:1" d="M 170.771,369.171 170.771,397.925 z" id="boundary" inkscape:connector-curvature="0" />
	<path style="fill:none;stroke:red;stroke-width:1px;stroke-linecap:butt;stroke-linejoin:miter;stroke-opacity:1" d="M 170.771,397.925 159.27,441.055 z" id="boundary" inkscape:connector-curvature="0" />
	<path style="fill:none;stroke:red;stroke-width:1px;stroke-linecap:butt;stroke-linejoin:miter;stroke-opacity:1" d="M 159.27,441.055 142.017,481.31 z" id="boundary" inkscape:connector-curvature="0" />
	<path style="fill:none;stroke:red;stroke-width:1px;stroke-linecap:butt;stroke-linejoin:miter;stroke-opacity:1" d="M 142.017,481.31 142.017,510.064 z" id="boundary" inkscape:connector-curvature="0" />
	<path style="fill:none;stroke:red;stroke-width:1px;stroke-linecap:butt;stroke-linejoin:miter;stroke-opacity:1" d="M 142.017,510.064 142.017,538.817 z" id="boundary" inkscape:connector-curvature="0" />
	<path style="fill:none;stroke:red;stroke-width:1px;stroke-linecap:butt;stroke-linejoin:miter;stroke-opacity:1" d="M 142.017,538.817 142.017,567.571 z" id="boundary" inkscape:connector-curvature="0" />
	<path style="fill:none;stroke:red;stroke-width:1px;stroke-linecap:butt;stroke-linejoin:miter;stroke-opacity:1" d="M 142.017,567.571 142.017,596.325 z" id="boundary" inkscape:connector-curvature="0" />
	<path style="fill:none;stroke:red;stroke-width:1px;stroke-linecap:butt;stroke-linejoin:miter;stroke-opacity:1" d="M 142.017,596.325 142.017,625.078 z" id="boundary" inkscape:connector-curvature="0" />
	<path style="fill:none;stroke:red;stroke-width:1px;stroke-linecap:butt;stroke-linejoin:miter;stroke-opacity:1" d="M 142.017,625.078 142.017,653.832 z" id="boundary" inkscape:connector-curvature="0" />
	<path style="fill:none;stroke:red;stroke-width:1px;stroke-linecap:butt;stroke-linejoin:miter;stroke-opacity:1" d="M 142.017,653.832 142.017,682.586 z" id="boundary" inkscape:connector-curvature="0" />
	<path style="fill:none;stroke:red;stroke-width:1px;stroke-linecap:butt;stroke-linejoin:miter;stroke-opacity:1" d="M 142.017,682.586 142.017,711.339 z" id="boundary" inkscape:connector-curvature="0" />
	<path style="fill:none;stroke:red;stroke-width:1px;stroke-linecap:butt;stroke-linejoin:miter;stroke-opacity:1" d="M 142.017,711.339 142.017,740.093 z" id="boundary" inkscape:connector-curvature="0" />
	<path style="fill:none;stroke:red;stroke-width:1px;stroke-linecap:butt;stroke-linejoin:miter;stroke-opacity:1" d="M 142.017,740.093 136.267,786.099 z" id="boundary" inkscape:connector-curvature="0" />
	<path style="fill:none;stroke:red;stroke-width:1px;stroke-linecap:butt;stroke-linejoin:miter;stroke-opacity:1" d="M 136.267,786.099 136.267,814.852 z" id="boundary" inkscape:connector-curvature="0" />
	<path style="fill:none;stroke:red;stroke-width:1px;stroke-linecap:butt;stroke-linejoin:miter;stroke-opacity:1" d="M 136.267,814.852 136.267,843.606 z" id="boundary" inkscape:connector-curvature="0" />
	<path style="fill:none;stroke:red;stroke-width:1px;stroke-linecap:butt;stroke-linejoin:miter;stroke-opacity:1" d="M 136.267,843.606 136.267,872.359 z" id="boundary" inkscape:connector-curvature="0" />
	<path style="fill:none;stroke:red;stroke-width:1px;stroke-linecap:butt;stroke-linejoin:miter;stroke-opacity:1" d="M 136.267,872.359 136.267,901.113 z" id="boundary" inkscape:connector-curvature="0" />
	<path style="fill:none;stroke:red;stroke-width:1px;stroke-linecap:butt;stroke-linejoin:miter;stroke-opacity:1" d="M 136.267,901.113 136.267,929.867 z" id="boundary" inkscape:connector-curvature="0" />
	<path style="fill:none;stroke:red;stroke-width:1px;stroke-linecap:butt;stroke-linejoin:miter;stroke-opacity:1" d="M 136.267,929.867 130.516,958.62 z" id="boundary" inkscape:connector-curvature="0" />
	<path style="fill:none;stroke:red;stroke-width:1px;stroke-linecap:butt;stroke-linejoin:miter;stroke-opacity:1" d="M 130.516,958.62 130.516,987.374 z" id="boundary" inkscape:connector-curvature="0" />
	<path style="fill:none;stroke:red;stroke-width:1px;stroke-linecap:butt;stroke-linejoin:miter;stroke-opacity:1" d="M 130.516,987.374 159.27,996 z" id="boundary" inkscape:connector-curvature="0" />
	<path style="fill:none;stroke:red;stroke-width:1px;stroke-linecap:butt;stroke-linejoin:miter;stroke-opacity:1" d="M 159.27,996 188.023,996 z" id="boundary" inkscape:connector-curvature="0" />
	<path style="fill:none;stroke:red;stroke-width:1px;stroke-linecap:butt;stroke-linejoin:miter;stroke-opacity:1" d="M 188.023,996 216.777,996 z" id="boundary" inkscape:connector-curvature="0" />
	<path style="fill:none;stroke:red;stroke-width:1px;stroke-linecap:butt;stroke-linejoin:miter;stroke-opacity:1" d="M 216.777,996 245.53,996 z" id="boundary" inkscape:connector-curvature="0" />
	<path style="fill:none;stroke:red;stroke-width:1px;stroke-linecap:butt;stroke-linejoin:miter;stroke-opacity:1" d="M 245.53,996 274.284,996 z" id="boundary" inkscape:connector-curvature="0" />
	<path style="fill:none;stroke:red;stroke-width:1px;stroke-linecap:butt;stroke-linejoin:miter;stroke-opacity:1" d="M 274.284,996 282.91,967.246 z" id="boundary" inkscape:connector-curvature="0" />
	<path style="fill:none;stroke:red;stroke-width:1px;stroke-linecap:butt;stroke-linejoin:miter;stroke-opacity:1" d="M 282.91,967.246 282.91,938.493 z" id="boundary" inkscape:connector-curvature="0" />
	<path style="fill:none;stroke:red;stroke-width:1px;stroke-linecap:butt;stroke-linejoin:miter;stroke-opacity:1" d="M 282.91,938.493 282.91,909.739 z" id="boundary" inkscape:connector-curvature="0" />
	<path style="fill:none;stroke:red;stroke-width:1px;stroke-linecap:butt;stroke-linejoin:miter;stroke-opacity:1" d="M 282.91,909.739 277.159,880.986 z" id="boundary" inkscape:connector-curvature="0" />
	<path style="fill:none;stroke:red;stroke-width:1px;stroke-linecap:butt;stroke-linejoin:miter;stroke-opacity:1" d="M 277.159,880.986 277.159,852.232 z" id="boundary" inkscape:connector-curvature="0" />
	<path style="fill:none;stroke:red;stroke-width:1px;stroke-linecap:butt;stroke-linejoin:miter;stroke-opacity:1" d="M 277.159,852.232 277.159,823.478 z" id="boundary" inkscape:connector-curvature="0" />
	<path style="fill:none;stroke:red;stroke-width:1px;stroke-linecap:butt;stroke-linejoin:miter;stroke-opacity:1" d="M 277.159,823.478 277.159,794.725 z" id="boundary" inkscape:connector-curvature="0" />
	<path style="fill:none;stroke:red;stroke-width:1px;stroke-linecap:butt;stroke-linejoin:miter;stroke-opacity:1" d="M 277.159,794.725 277.159,765.971 z" id="boundary" inkscape:connector-curvature="0" />
	<path style="fill:none;stroke:red;stroke-width:1px;stroke-linecap:butt;stroke-linejoin:miter;stroke-opacity:1" d="M 277.159,765.971 277.159,737.217 z" id="boundary" inkscape:connector-curvature="0" />
	<path style="fill:none;stroke:red;stroke-width:1px;stroke-linecap:butt;stroke-linejoin:miter;stroke-opacity:1" d="M 277.159,737.217 277.159,708.464 z" id="boundary" inkscape:connector-curvature="0" />
	<path style="fill:none;stroke:red;stroke-width:1px;stroke-linecap:butt;stroke-linejoin:miter;stroke-opacity:1" d="M 277.159,708.464 277.159,679.71 z" id="boundary" inkscape:connector-curvature="0" />
	<path style="fill:none;stroke:red;stroke-width:1px;stroke-linecap:butt;stroke-linejoin:miter;stroke-opacity:1" d="M 277.159,679.71 277.159,650.957 z" id="boundary" inkscape:connector-curvature="0" />
	<path style="fill:none;stroke:red;stroke-width:1px;stroke-linecap:butt;stroke-linejoin:miter;stroke-opacity:1" d="M 277.159,650.957 277.159,622.203 z" id="boundary" inkscape:connector-curvature="0" />
	<path style="fill:none;stroke:red;stroke-width:1px;stroke-linecap:butt;stroke-linejoin:miter;stroke-opacity:1" d="M 277.159,622.203 277.159,593.449 z" id="boundary" inkscape:connector-curvature="0" />
	<path style="fill:none;stroke:red;stroke-width:1px;stroke-linecap:butt;stroke-linejoin:miter;stroke-opacity:1" d="M 277.159,593.449 277.159,564.696 z" id="boundary" inkscape:connector-curvature="0" />
	<path style="fill:none;stroke:red;stroke-width:1px;stroke-linecap:butt;stroke-linejoin:miter;stroke-opacity:1" d="M 277.159,564.696 277.159,535.942 z" id="boundary" inkscape:connector-curvature="0" />
	<path style="fill:none;stroke:red;stroke-width:1px;stroke-linecap:butt;stroke-linejoin:miter;stroke-opacity:1" d="M 277.159,535.942 277.159,507.188 z" id="boundary" inkscape:connector-curvature="0" />
	<path style="fill:none;stroke:red;stroke-width:1px;stroke-linecap:butt;stroke-linejoin:miter;stroke-opacity:1" d="M 277.159,507.188 271.409,478.435 z" id="boundary" inkscape:connector-curvature="0" />
	<path style="fill:none;stroke:red;stroke-width:1px;stroke-linecap:butt;stroke-linejoin:miter;stroke-opacity:1" d="M 271.409,478.435 257.032,452.557 z" id="boundary" inkscape:connector-curvature="0" />
	<path style="fill:none;stroke:red;stroke-width:1px;stroke-linecap:butt;stroke-linejoin:miter;stroke-opacity:1" d="M 257.032,452.557 248.406,423.803 z" id="boundary" inkscape:connector-curvature="0" />
	<path style="fill:none;stroke:red;stroke-width:1px;stroke-linecap:butt;stroke-linejoin:miter;stroke-opacity:1" d="M 248.406,423.803 248.406,395.049 z" id="boundary" inkscape:connector-curvature="0" />
	<path style="fill:none;stroke:red;stroke-width:1px;stroke-linecap:butt;stroke-linejoin:miter;stroke-opacity:1" d="M 248.406,395.049 248.406,366.296 z" id="boundary" inkscape:connector-curvature="0" />
	<path style="fill:none;stroke:red;stroke-width:1px;stroke-linecap:butt;stroke-linejoin:miter;stroke-opacity:1" d="M 248.406,366.296 248.406,337.542 z" id="boundary" inkscape:connector-curvature="0" />
	<path style="fill:none;stroke:red;stroke-width:1px;stroke-linecap:butt;stroke-linejoin:miter;stroke-opacity:1" d="M 248.406,337.542 248.406,308.788 z" id="boundary" inkscape:connector-curvature="0" />
	<path style="fill:none;stroke:red;stroke-width:1px;stroke-linecap:butt;stroke-linejoin:miter;stroke-opacity:1" d="M 248.406,308.788 248.406,280.035 z" id="boundary" inkscape:connector-curvature="0" />
	<path style="fill:none;stroke:red;stroke-width:1px;stroke-linecap:butt;stroke-linejoin:miter;stroke-opacity:1" d="M 248.406,280.035 248.406,251.281 z" id="boundary" inkscape:connector-curvature="0" />
	<path style="fill:none;stroke:red;stroke-width:1px;stroke-linecap:butt;stroke-linejoin:miter;stroke-opacity:1" d="M 248.406,251.281 248.406,222.528 z" id="boundary" inkscape:connector-curvature="0" />
	<path style="fill:none;stroke:red;stroke-width:1px;stroke-linecap:butt;stroke-linejoin:miter;stroke-opacity:1" d="M 248.406,222.528 254.157,193.774 z" id="boundary" inkscape:connector-curvature="0" />
	<path style="fill:none;stroke:red;stroke-width:1px;stroke-linecap:butt;stroke-linejoin:miter;stroke-opacity:1" d="M 254.157,193.774 265.658,159.27 z" id="boundary" inkscape:connector-curvature="0" />
	<path style="fill:none;stroke:red;stroke-width:1px;stroke-linecap:butt;stroke-linejoin:miter;stroke-opacity:1" d="M 265.658,159.27 277.159,113.264 z" id="boundary" inkscape:connector-curvature="0" />
	<path style="fill:none;stroke:red;stroke-width:1px;stroke-linecap:butt;stroke-linejoin:miter;stroke-opacity:1" d="M 277.159,113.264 277.159,84.5101 z" id="boundary" inkscape:connector-curvature="0" />
	<path style="fill:none;stroke:red;stroke-width:1px;stroke-linecap:butt;stroke-linejoin:miter;stroke-opacity:1" d="M 277.159,84.5101 305.913,75.8841 z" id="boundary" inkscape:connector-curvature="0" />
	<path style="fill:none;stroke:red;stroke-width:1px;stroke-linecap:butt;stroke-linejoin:miter;stroke-opacity:1" d="M 305.913,75.8841 334.667,81.6348 z" id="boundary" inkscape:connector-curvature="0" />
	<path style="fill:none;stroke:red;stroke-width:1px;stroke-linecap:butt;stroke-linejoin:miter;stroke-opacity:1" d="M 334.667,81.6348 363.42,93.1362 z" id="boundary" inkscape:connector-curvature="0" />
	<path style="fill:none;stroke:red;stroke-width:1px;stroke-linecap:butt;stroke-linejoin:miter;stroke-opacity:1" d="M 363.42,93.1362 392.174,73.0087 z" id="boundary" inkscape:connector-curvature="0" />
	<path style="fill:none;stroke:red;stroke-width:1px;stroke-linecap:butt;stroke-linejoin:miter;stroke-opacity:1" d="M 392.174,18.3768 392.174,73.0087 z" id="boundary" inkscape:connector-curvature="0" />
	<circle cx="4" cy="170.771" r="4" fill="#0" id="circle0"/>
	<circle cx="15.5014" cy="130.516" r="4" fill="#0" id="circle1"/>
	<circle cx="29.8783" cy="104.638" r="4" fill="#0" id="circle2"/>
	<circle cx="32.7536" cy="179.397" r="4" fill="#0" id="circle3"/>
	<circle cx="47.1304" cy="81.6348" r="4" fill="#0" id="circle4"/>
	<circle cx="52.8812" cy="153.519" r="4" fill="#0" id="circle5"/>
	<circle cx="64.3826" cy="58.6319" r="4" fill="#0" id="circle6"/>
	<circle cx="70.1333" cy="130.516" r="4" fill="#0" id="circle7"/>
	<circle cx="87.3855" cy="35.629" r="4" fill="#0" id="circle8"/>
	<circle cx="93.1362" cy="107.513" r="4" fill="#0" id="circle9"/>
	<circle cx="110.388" cy="18.3768" r="4" fill="#0" id="circle10"/>
	<circle cx="119.014" cy="93.1362" r="4" fill="#0" id="circle11"/>
	<circle cx="130.516" cy="958.62" r="4" fill="#0" id="circle12"/>
	<circle cx="130.516" cy="987.374" r="4" fill="#0" id="circle13"/>
	<circle cx="136.267" cy="4" r="4" fill="#0" id="circle14"/>
	<circle cx="136.267" cy="786.099" r="4" fill="#0" id="circle15"/>
	<circle cx="136.267" cy="814.852" r="4" fill="#0" id="circle16"/>
	<circle cx="136.267" cy="843.606" r="4" fill="#0" id="circle17"/>
	<circle cx="136.267" cy="872.359" r="4" fill="#0" id="circle18"/>
	<circle cx="136.267" cy="901.113" r="4" fill="#0" id="circle19"/>
	<circle cx="136.267" cy="929.867" r="4" fill="#0" id="circle20"/>
	<circle cx="142.017" cy="110.388" r="4" fill="#0" id="circle21"/>
	<circle cx="142.017" cy="139.142" r="4" fill="#0" id="circle22"/>
	<circle cx="142.017" cy="481.31" r="4" fill="#0" id="circle23"/>
	<circle cx="142.017" cy="510.064" r="4" fill="#0" id="circle24"/>
	<circle cx="142.017" cy="538.817" r="4" fill="#0" id="circle25"/>
	<circle cx="142.017" cy="567.571" r="4" fill="#0" id="circle26"/>
	<circle cx="142.017" cy="596.325" r="4" fill="#0" id="circle27"/>
	<circle cx="142.017" cy="625.078" r="4" fill="#0" id="circle28"/>
	<circle cx="142.017" cy="653.832" r="4" fill="#0" id="circle29"/>
	<circle cx="142.017" cy="682.586" r="4" fill="#0" id="circle30"/>
	<circle cx="142.017" cy="711.339" r="4" fill="#0" id="circle31"/>
	<circle cx="142.017" cy="740.093" r="4" fill="#0" id="circle32"/>
	<circle cx="153.519" cy="167.896" r="4" fill="#0" id="circle33"/>
	<circle cx="159.27" cy="196.649" r="4" fill="#0" id="circle34"/>
	<circle cx="159.27" cy="441.055" r="4" fill="#0" id="circle35"/>
	<circle cx="159.27" cy="996" r="4" fill="#0" id="circle36"/>
	<circle cx="165.02" cy="4" r="4" fill="#0" id="circle37"/>
	<circle cx="165.02" cy="225.403" r="4" fill="#0" id="circle38"/>
	<circle cx="170.771" cy="254.157" r="4" fill="#0" id="circle39"/>
	<circle cx="170.771" cy="282.91" r="4" fill="#0" id="circle40"/>
	<circle cx="170.771" cy="311.664" r="4" fill="#0" id="circle41"/>
	<circle cx="170.771" cy="340.417" r="4" fill="#0" id="circle42"/>
	<circle cx="170.771" cy="369.171" r="4" fill="#0" id="circle43"/>
	<circle cx="170.771" cy="397.925" r="4" fill="#0" id="circle44"/>
	<circle cx="188.023" cy="996" r="4" fill="#0" id="circle45"/>
	<circle cx="193.774" cy="4" r="4" fill="#0" id="circle46"/>
	<circle cx="216.777" cy="996" r="4" fill="#0" id="circle47"/>
	<circle cx="222.528" cy="4" r="4" fill="#0" id="circle48"/>
	<circle cx="245.53" cy="996" r="4" fill="#0" id="circle49"/>
	<circle cx="248.406" cy="222.528" r="4" fill="#0" id="circle50"/>
	<circle cx="248.406" cy="251.281" r="4" fill="#0" id="circle51"/>
	<circle cx="248.406" cy="280.035" r="4" fill="#0" id="circle52"/>
	<circle cx="248.406" cy="308.788" r="4" fill="#0" id="circle53"/>
	<circle cx="248.406" cy="337.542" r="4" fill="#0" id="circle54"/>
	<circle cx="248.406" cy="366.296" r="4" fill="#0" id="circle55"/>
	<circle cx="248.406" cy="395.049" r="4" fill="#0" id="circle56"/>
	<circle cx="248.406" cy="423.803" r="4" fill="#0" id="circle57"/>
	<circle cx="251.281" cy="4" r="4" fill="#0" id="circle58"/>
	<circle cx="254.157" cy="193.774" r="4" fill="#0" id="circle59"/>
	<circle cx="257.032" cy="452.557" r="4" fill="#0" id="circle60"/>
	<circle cx="265.658" cy="159.27" r="4" fill="#0" id="circle61"/>
	<circle cx="271.409" cy="478.435" r="4" fill="#0" id="circle62"/>
	<circle cx="274.284" cy="996" r="4" fill="#0" id="circle63"/>
	<circle cx="277.159" cy="84.5101" r="4" fill="#0" id="circle64"/>
	<circle cx="277.159" cy="113.264" r="4" fill="#0" id="circle65"/>
	<circle cx="277.159" cy="507.188" r="4" fill="#0" id="circle66"/>
	<circle cx="277.159" cy="535.942" r="4" fill="#0" id="circle67"/>
	<circle cx="277.159" cy="564.696" r="4" fill="#0" id="circle68"/>
	<circle cx="277.159" cy="593.449" r="4" fill="#0" id="circle69"/>
	<circle cx="277.159" cy="622.203" r="4" fill="#0" id="circle70"/>
	<circle cx="277.159" cy="650.957" r="4" fill="#0" id="circle71"/>
	<circle cx="277.159" cy="679.71" r="4" fill="#0" id="circle72"/>
	<circle cx="277.159" cy="708.464" r="4" fill="#0" id="circle73"/>
	<circle cx="277.159" cy="737.217" r="4" fill="#0" id="circle74"/>
	<circle cx="277.159" cy="765.971" r="4" fill="#0" id="circle75"/>
	<circle cx="277.159" cy="794.725" r="4" fill="#0" id="circle76"/>
	<circle cx="277.159" cy="823.478" r="4" fill="#0" id="circle77"/>
	<circle cx="277.159" cy="852.232" r="4" fill="#0" id="circle78"/>
	<circle cx="277.159" cy="880.986" r="4" fill="#0" id="circle79"/>
	<circle cx="280.035" cy="12.6261" r="4" fill="#0" id="circle80"/>
	<circle cx="282.91" cy="909.739" r="4" fill="#0" id="circle81"/>
	<circle cx="282.91" cy="938.493" r="4" fill="#0" id="circle82"/>
	<circle cx="282.91" cy="967.246" r="4" fill="#0" id="circle83"/>
	<circle cx="305.913" cy="75.8841" r="4" fill="#0" id="circle84"/>
	<circle cx="308.788" cy="15.5014" r="4" fill="#0" id="circle85"/>
	<circle cx="334.667" cy="81.6348" r="4" fill="#0" id="circle86"/>
	<circle cx="337.542" cy="9.75072" r="4" fill="#0" id="circle87"/>
	<circle cx="363.42" cy="93.1362" r="4" fill="#0" id="circle88"/>
	<circle cx="366.296" cy="4" r="4" fill="#0" id="circle89"/>
	<circle cx="392.174" cy="18.3768" r="4" fill="#0" id="circle90"/>
	<circle cx="392.174" cy="73.0087" r="4" fill="#0" id="circle91"/>
	</g>
</svg>