<?xml version="1.0" encoding="UTF-8" standalone="no"?>
<!-- Created with CurveBenchmark -->
<svg
	xmlns:dc="http://purl.org/dc/elements/1.1/"
	xmlns:cc="http://creativecommons.org/ns#"
	xmlns:rdf="http://www.w3.org/1999/02/22-rdf-syntax-ns#"
	xmlns:svg="http://www.w3.org/2000/svg"
	xmlns="http://www.w3.org/2000/svg"
	xmlns:sodipodi="http://sodipodi.sourceforge.net/DTD/sodipodi-0.dtd"
	xmlns:inkscape="http://www.inkscape.org/namespaces/inkscape"
	width="1000"
	height="1000"
	id="svg2"
	version="1.1"
	sodipodi:docname="manifold/crawl-brick09.png.txt">
<defs
	id="defs4" />
<metadata
	id="metadata7">
	<rdf:RDF>
		<cc:Work
			rdf:about="">
			<dc:format>image/svg+xml</dc:format>
			<dc:type
				rdf:resource="http://purl.org/dc/dcmitype/StillImage" />
			<dc:title></dc:title>
		</cc:Work>
	</rdf:RDF>
</metadata>
<g
	inkscape:label="Layer 1"
	inkscape:groupmode="layer"
	id="layer1">
	<path style="fill:none;stroke:red;stroke-width:1px;stroke-linecap:butt;stroke-linejoin:miter;stroke-opacity:1" d="M 4,273.688 4,292.548 z" id="boundary" inkscape:connector-curvature="0" />
	<path style="fill:none;stroke:red;stroke-width:1px;stroke-linecap:butt;stroke-linejoin:miter;stroke-opacity:1" d="M 4,292.548 4,311.407 z" id="boundary" inkscape:connector-curvature="0" />
	<path style="fill:none;stroke:red;stroke-width:1px;stroke-linecap:butt;stroke-linejoin:miter;stroke-opacity:1" d="M 4,311.407 4,330.266 z" id="boundary" inkscape:connector-curvature="0" />
	<path style="fill:none;stroke:red;stroke-width:1px;stroke-linecap:butt;stroke-linejoin:miter;stroke-opacity:1" d="M 4,330.266 4,349.125 z" id="boundary" inkscape:connector-curvature="0" />
	<path style="fill:none;stroke:red;stroke-width:1px;stroke-linecap:butt;stroke-linejoin:miter;stroke-opacity:1" d="M 4,349.125 4,367.985 z" id="boundary" inkscape:connector-curvature="0" />
	<path style="fill:none;stroke:red;stroke-width:1px;stroke-linecap:butt;stroke-linejoin:miter;stroke-opacity:1" d="M 4,367.985 4,386.844 z" id="boundary" inkscape:connector-curvature="0" />
	<path style="fill:none;stroke:red;stroke-width:1px;stroke-linecap:butt;stroke-linejoin:miter;stroke-opacity:1" d="M 4,386.844 13.4297,403.817 z" id="boundary" inkscape:connector-curvature="0" />
	<path style="fill:none;stroke:red;stroke-width:1px;stroke-linecap:butt;stroke-linejoin:miter;stroke-opacity:1" d="M 13.4297,403.817 22.8593,420.791 z" id="boundary" inkscape:connector-curvature="0" />
	<path style="fill:none;stroke:red;stroke-width:1px;stroke-linecap:butt;stroke-linejoin:miter;stroke-opacity:1" d="M 22.8593,420.791 39.8327,411.361 z" id="boundary" inkscape:connector-curvature="0" />
	<path style="fill:none;stroke:red;stroke-width:1px;stroke-linecap:butt;stroke-linejoin:miter;stroke-opacity:1" d="M 39.8327,411.361 58.692,411.361 z" id="boundary" inkscape:connector-curvature="0" />
	<path style="fill:none;stroke:red;stroke-width:1px;stroke-linecap:butt;stroke-linejoin:miter;stroke-opacity:1" d="M 58.692,411.361 75.6654,401.932 z" id="boundary" inkscape:connector-curvature="0" />
	<path style="fill:none;stroke:red;stroke-width:1px;stroke-linecap:butt;stroke-linejoin:miter;stroke-opacity:1" d="M 75.6654,401.932 94.5247,401.932 z" id="boundary" inkscape:connector-curvature="0" />
	<path style="fill:none;stroke:red;stroke-width:1px;stroke-linecap:butt;stroke-linejoin:miter;stroke-opacity:1" d="M 94.5247,401.932 113.384,400.046 z" id="boundary" inkscape:connector-curvature="0" />
	<path style="fill:none;stroke:red;stroke-width:1px;stroke-linecap:butt;stroke-linejoin:miter;stroke-opacity:1" d="M 113.384,400.046 132.243,392.502 z" id="boundary" inkscape:connector-curvature="0" />
	<path style="fill:none;stroke:red;stroke-width:1px;stroke-linecap:butt;stroke-linejoin:miter;stroke-opacity:1" d="M 132.243,392.502 151.103,392.502 z" id="boundary" inkscape:connector-curvature="0" />
	<path style="fill:none;stroke:red;stroke-width:1px;stroke-linecap:butt;stroke-linejoin:miter;stroke-opacity:1" d="M 151.103,392.502 169.962,392.502 z" id="boundary" inkscape:connector-curvature="0" />
	<path style="fill:none;stroke:red;stroke-width:1px;stroke-linecap:butt;stroke-linejoin:miter;stroke-opacity:1" d="M 169.962,392.502 188.821,392.502 z" id="boundary" inkscape:connector-curvature="0" />
	<path style="fill:none;stroke:red;stroke-width:1px;stroke-linecap:butt;stroke-linejoin:miter;stroke-opacity:1" d="M 188.821,392.502 205.795,401.932 z" id="boundary" inkscape:connector-curvature="0" />
	<path style="fill:none;stroke:red;stroke-width:1px;stroke-linecap:butt;stroke-linejoin:miter;stroke-opacity:1" d="M 205.795,401.932 222.768,411.361 z" id="boundary" inkscape:connector-curvature="0" />
	<path style="fill:none;stroke:red;stroke-width:1px;stroke-linecap:butt;stroke-linejoin:miter;stroke-opacity:1" d="M 222.768,411.361 239.741,420.791 z" id="boundary" inkscape:connector-curvature="0" />
	<path style="fill:none;stroke:red;stroke-width:1px;stroke-linecap:butt;stroke-linejoin:miter;stroke-opacity:1" d="M 239.741,420.791 256.715,430.221 z" id="boundary" inkscape:connector-curvature="0" />
	<path style="fill:none;stroke:red;stroke-width:1px;stroke-linecap:butt;stroke-linejoin:miter;stroke-opacity:1" d="M 256.715,430.221 273.688,439.65 z" id="boundary" inkscape:connector-curvature="0" />
	<path style="fill:none;stroke:red;stroke-width:1px;stroke-linecap:butt;stroke-linejoin:miter;stroke-opacity:1" d="M 273.688,439.65 292.548,447.194 z" id="boundary" inkscape:connector-curvature="0" />
	<path style="fill:none;stroke:red;stroke-width:1px;stroke-linecap:butt;stroke-linejoin:miter;stroke-opacity:1" d="M 292.548,447.194 309.521,456.624 z" id="boundary" inkscape:connector-curvature="0" />
	<path style="fill:none;stroke:red;stroke-width:1px;stroke-linecap:butt;stroke-linejoin:miter;stroke-opacity:1" d="M 309.521,456.624 328.38,458.51 z" id="boundary" inkscape:connector-curvature="0" />
	<path style="fill:none;stroke:red;stroke-width:1px;stroke-linecap:butt;stroke-linejoin:miter;stroke-opacity:1" d="M 328.38,458.51 345.354,467.939 z" id="boundary" inkscape:connector-curvature="0" />
	<path style="fill:none;stroke:red;stroke-width:1px;stroke-linecap:butt;stroke-linejoin:miter;stroke-opacity:1" d="M 345.354,467.939 364.213,467.939 z" id="boundary" inkscape:connector-curvature="0" />
	<path style="fill:none;stroke:red;stroke-width:1px;stroke-linecap:butt;stroke-linejoin:miter;stroke-opacity:1" d="M 364.213,467.939 383.072,458.51 z" id="boundary" inkscape:connector-curvature="0" />
	<path style="fill:none;stroke:red;stroke-width:1px;stroke-linecap:butt;stroke-linejoin:miter;stroke-opacity:1" d="M 383.072,458.51 401.932,458.51 z" id="boundary" inkscape:connector-curvature="0" />
	<path style="fill:none;stroke:red;stroke-width:1px;stroke-linecap:butt;stroke-linejoin:miter;stroke-opacity:1" d="M 401.932,458.51 420.791,458.51 z" id="boundary" inkscape:connector-curvature="0" />
	<path style="fill:none;stroke:red;stroke-width:1px;stroke-linecap:butt;stroke-linejoin:miter;stroke-opacity:1" d="M 420.791,458.51 439.65,458.51 z" id="boundary" inkscape:connector-curvature="0" />
	<path style="fill:none;stroke:red;stroke-width:1px;stroke-linecap:butt;stroke-linejoin:miter;stroke-opacity:1" d="M 439.65,458.51 456.624,449.08 z" id="boundary" inkscape:connector-curvature="0" />
	<path style="fill:none;stroke:red;stroke-width:1px;stroke-linecap:butt;stroke-linejoin:miter;stroke-opacity:1" d="M 456.624,449.08 475.483,449.08 z" id="boundary" inkscape:connector-curvature="0" />
	<path style="fill:none;stroke:red;stroke-width:1px;stroke-linecap:butt;stroke-linejoin:miter;stroke-opacity:1" d="M 475.483,449.08 492.456,439.65 z" id="boundary" inkscape:connector-curvature="0" />
	<path style="fill:none;stroke:red;stroke-width:1px;stroke-linecap:butt;stroke-linejoin:miter;stroke-opacity:1" d="M 492.456,439.65 511.316,439.65 z" id="boundary" inkscape:connector-curvature="0" />
	<path style="fill:none;stroke:red;stroke-width:1px;stroke-linecap:butt;stroke-linejoin:miter;stroke-opacity:1" d="M 511.316,439.65 530.175,435.878 z" id="boundary" inkscape:connector-curvature="0" />
	<path style="fill:none;stroke:red;stroke-width:1px;stroke-linecap:butt;stroke-linejoin:miter;stroke-opacity:1" d="M 530.175,435.878 549.034,430.221 z" id="boundary" inkscape:connector-curvature="0" />
	<path style="fill:none;stroke:red;stroke-width:1px;stroke-linecap:butt;stroke-linejoin:miter;stroke-opacity:1" d="M 549.034,430.221 567.894,426.449 z" id="boundary" inkscape:connector-curvature="0" />
	<path style="fill:none;stroke:red;stroke-width:1px;stroke-linecap:butt;stroke-linejoin:miter;stroke-opacity:1" d="M 567.894,426.449 586.753,417.019 z" id="boundary" inkscape:connector-curvature="0" />
	<path style="fill:none;stroke:red;stroke-width:1px;stroke-linecap:butt;stroke-linejoin:miter;stroke-opacity:1" d="M 586.753,417.019 605.612,411.361 z" id="boundary" inkscape:connector-curvature="0" />
	<path style="fill:none;stroke:red;stroke-width:1px;stroke-linecap:butt;stroke-linejoin:miter;stroke-opacity:1" d="M 605.612,411.361 624.471,411.361 z" id="boundary" inkscape:connector-curvature="0" />
	<path style="fill:none;stroke:red;stroke-width:1px;stroke-linecap:butt;stroke-linejoin:miter;stroke-opacity:1" d="M 624.471,411.361 641.445,420.791 z" id="boundary" inkscape:connector-curvature="0" />
	<path style="fill:none;stroke:red;stroke-width:1px;stroke-linecap:butt;stroke-linejoin:miter;stroke-opacity:1" d="M 641.445,420.791 658.418,430.221 z" id="boundary" inkscape:connector-curvature="0" />
	<path style="fill:none;stroke:red;stroke-width:1px;stroke-linecap:butt;stroke-linejoin:miter;stroke-opacity:1" d="M 658.418,430.221 675.392,439.65 z" id="boundary" inkscape:connector-curvature="0" />
	<path style="fill:none;stroke:red;stroke-width:1px;stroke-linecap:butt;stroke-linejoin:miter;stroke-opacity:1" d="M 675.392,439.65 692.365,449.08 z" id="boundary" inkscape:connector-curvature="0" />
	<path style="fill:none;stroke:red;stroke-width:1px;stroke-linecap:butt;stroke-linejoin:miter;stroke-opacity:1" d="M 692.365,449.08 711.224,449.08 z" id="boundary" inkscape:connector-curvature="0" />
	<path style="fill:none;stroke:red;stroke-width:1px;stroke-linecap:butt;stroke-linejoin:miter;stroke-opacity:1" d="M 711.224,449.08 728.198,458.51 z" id="boundary" inkscape:connector-curvature="0" />
	<path style="fill:none;stroke:red;stroke-width:1px;stroke-linecap:butt;stroke-linejoin:miter;stroke-opacity:1" d="M 728.198,458.51 745.171,467.939 z" id="boundary" inkscape:connector-curvature="0" />
	<path style="fill:none;stroke:red;stroke-width:1px;stroke-linecap:butt;stroke-linejoin:miter;stroke-opacity:1" d="M 745.171,467.939 762.144,477.369 z" id="boundary" inkscape:connector-curvature="0" />
	<path style="fill:none;stroke:red;stroke-width:1px;stroke-linecap:butt;stroke-linejoin:miter;stroke-opacity:1" d="M 762.144,477.369 779.118,486.798 z" id="boundary" inkscape:connector-curvature="0" />
	<path style="fill:none;stroke:red;stroke-width:1px;stroke-linecap:butt;stroke-linejoin:miter;stroke-opacity:1" d="M 779.118,486.798 797.977,486.798 z" id="boundary" inkscape:connector-curvature="0" />
	<path style="fill:none;stroke:red;stroke-width:1px;stroke-linecap:butt;stroke-linejoin:miter;stroke-opacity:1" d="M 797.977,486.798 816.837,486.798 z" id="boundary" inkscape:connector-curvature="0" />
	<path style="fill:none;stroke:red;stroke-width:1px;stroke-linecap:butt;stroke-linejoin:miter;stroke-opacity:1" d="M 816.837,486.798 835.696,486.798 z" id="boundary" inkscape:connector-curvature="0" />
	<path style="fill:none;stroke:red;stroke-width:1px;stroke-linecap:butt;stroke-linejoin:miter;stroke-opacity:1" d="M 835.696,486.798 854.555,486.798 z" id="boundary" inkscape:connector-curvature="0" />
	<path style="fill:none;stroke:red;stroke-width:1px;stroke-linecap:butt;stroke-linejoin:miter;stroke-opacity:1" d="M 854.555,486.798 873.414,486.798 z" id="boundary" inkscape:connector-curvature="0" />
	<path style="fill:none;stroke:red;stroke-width:1px;stroke-linecap:butt;stroke-linejoin:miter;stroke-opacity:1" d="M 873.414,486.798 890.388,477.369 z" id="boundary" inkscape:connector-curvature="0" />
	<path style="fill:none;stroke:red;stroke-width:1px;stroke-linecap:butt;stroke-linejoin:miter;stroke-opacity:1" d="M 890.388,477.369 909.247,477.369 z" id="boundary" inkscape:connector-curvature="0" />
	<path style="fill:none;stroke:red;stroke-width:1px;stroke-linecap:butt;stroke-linejoin:miter;stroke-opacity:1" d="M 4,273.688 13.4297,254.829 z" id="boundary" inkscape:connector-curvature="0" />
	<path style="fill:none;stroke:red;stroke-width:1px;stroke-linecap:butt;stroke-linejoin:miter;stroke-opacity:1" d="M 13.4297,254.829 32.289,245.399 z" id="boundary" inkscape:connector-curvature="0" />
	<path style="fill:none;stroke:red;stroke-width:1px;stroke-linecap:butt;stroke-linejoin:miter;stroke-opacity:1" d="M 32.289,245.399 47.3764,230.312 z" id="boundary" inkscape:connector-curvature="0" />
	<path style="fill:none;stroke:red;stroke-width:1px;stroke-linecap:butt;stroke-linejoin:miter;stroke-opacity:1" d="M 47.3764,230.312 64.3498,220.882 z" id="boundary" inkscape:connector-curvature="0" />
	<path style="fill:none;stroke:red;stroke-width:1px;stroke-linecap:butt;stroke-linejoin:miter;stroke-opacity:1" d="M 64.3498,220.882 79.4373,207.681 z" id="boundary" inkscape:connector-curvature="0" />
	<path style="fill:none;stroke:red;stroke-width:1px;stroke-linecap:butt;stroke-linejoin:miter;stroke-opacity:1" d="M 79.4373,207.681 94.5247,192.593 z" id="boundary" inkscape:connector-curvature="0" />
	<path style="fill:none;stroke:red;stroke-width:1px;stroke-linecap:butt;stroke-linejoin:miter;stroke-opacity:1" d="M 94.5247,192.593 107.726,169.962 z" id="boundary" inkscape:connector-curvature="0" />
	<path style="fill:none;stroke:red;stroke-width:1px;stroke-linecap:butt;stroke-linejoin:miter;stroke-opacity:1" d="M 107.726,169.962 117.156,147.331 z" id="boundary" inkscape:connector-curvature="0" />
	<path style="fill:none;stroke:red;stroke-width:1px;stroke-linecap:butt;stroke-linejoin:miter;stroke-opacity:1" d="M 117.156,147.331 117.156,128.471 z" id="boundary" inkscape:connector-curvature="0" />
	<path style="fill:none;stroke:red;stroke-width:1px;stroke-linecap:butt;stroke-linejoin:miter;stroke-opacity:1" d="M 117.156,128.471 117.156,109.612 z" id="boundary" inkscape:connector-curvature="0" />
	<path style="fill:none;stroke:red;stroke-width:1px;stroke-linecap:butt;stroke-linejoin:miter;stroke-opacity:1" d="M 117.156,109.612 107.726,92.6388 z" id="boundary" inkscape:connector-curvature="0" />
	<path style="fill:none;stroke:red;stroke-width:1px;stroke-linecap:butt;stroke-linejoin:miter;stroke-opacity:1" d="M 107.726,92.6388 98.2966,75.6654 z" id="boundary" inkscape:connector-curvature="0" />
	<path style="fill:none;stroke:red;stroke-width:1px;stroke-linecap:butt;stroke-linejoin:miter;stroke-opacity:1" d="M 98.2966,75.6654 98.2966,56.8061 z" id="boundary" inkscape:connector-curvature="0" />
	<path style="fill:none;stroke:red;stroke-width:1px;stroke-linecap:butt;stroke-linejoin:miter;stroke-opacity:1" d="M 98.2966,56.8061 98.2966,37.9468 z" id="boundary" inkscape:connector-curvature="0" />
	<path style="fill:none;stroke:red;stroke-width:1px;stroke-linecap:butt;stroke-linejoin:miter;stroke-opacity:1" d="M 98.2966,37.9468 98.2966,19.0875 z" id="boundary" inkscape:connector-curvature="0" />
	<path style="fill:none;stroke:red;stroke-width:1px;stroke-linecap:butt;stroke-linejoin:miter;stroke-opacity:1" d="M 98.2966,19.0875 113.384,4 z" id="boundary" inkscape:connector-curvature="0" />
	<path style="fill:none;stroke:red;stroke-width:1px;stroke-linecap:butt;stroke-linejoin:miter;stroke-opacity:1" d="M 113.384,4 132.243,4 z" id="boundary" inkscape:connector-curvature="0" />
	<path style="fill:none;stroke:red;stroke-width:1px;stroke-linecap:butt;stroke-linejoin:miter;stroke-opacity:1" d="M 132.243,4 149.217,13.4297 z" id="boundary" inkscape:connector-curvature="0" />
	<path style="fill:none;stroke:red;stroke-width:1px;stroke-linecap:butt;stroke-linejoin:miter;stroke-opacity:1" d="M 149.217,13.4297 168.076,13.4297 z" id="boundary" inkscape:connector-curvature="0" />
	<path style="fill:none;stroke:red;stroke-width:1px;stroke-linecap:butt;stroke-linejoin:miter;stroke-opacity:1" d="M 168.076,13.4297 186.935,13.4297 z" id="boundary" inkscape:connector-curvature="0" />
	<path style="fill:none;stroke:red;stroke-width:1px;stroke-linecap:butt;stroke-linejoin:miter;stroke-opacity:1" d="M 186.935,13.4297 205.795,13.4297 z" id="boundary" inkscape:connector-curvature="0" />
	<path style="fill:none;stroke:red;stroke-width:1px;stroke-linecap:butt;stroke-linejoin:miter;stroke-opacity:1" d="M 205.795,13.4297 224.654,13.4297 z" id="boundary" inkscape:connector-curvature="0" />
	<path style="fill:none;stroke:red;stroke-width:1px;stroke-linecap:butt;stroke-linejoin:miter;stroke-opacity:1" d="M 224.654,13.4297 243.513,13.4297 z" id="boundary" inkscape:connector-curvature="0" />
	<path style="fill:none;stroke:red;stroke-width:1px;stroke-linecap:butt;stroke-linejoin:miter;stroke-opacity:1" d="M 243.513,13.4297 260.487,22.8593 z" id="boundary" inkscape:connector-curvature="0" />
	<path style="fill:none;stroke:red;stroke-width:1px;stroke-linecap:butt;stroke-linejoin:miter;stroke-opacity:1" d="M 260.487,22.8593 269.916,39.8327 z" id="boundary" inkscape:connector-curvature="0" />
	<path style="fill:none;stroke:red;stroke-width:1px;stroke-linecap:butt;stroke-linejoin:miter;stroke-opacity:1" d="M 269.916,39.8327 285.004,53.0342 z" id="boundary" inkscape:connector-curvature="0" />
	<path style="fill:none;stroke:red;stroke-width:1px;stroke-linecap:butt;stroke-linejoin:miter;stroke-opacity:1" d="M 285.004,53.0342 298.205,68.1217 z" id="boundary" inkscape:connector-curvature="0" />
	<path style="fill:none;stroke:red;stroke-width:1px;stroke-linecap:butt;stroke-linejoin:miter;stroke-opacity:1" d="M 298.205,68.1217 313.293,79.4373 z" id="boundary" inkscape:connector-curvature="0" />
	<path style="fill:none;stroke:red;stroke-width:1px;stroke-linecap:butt;stroke-linejoin:miter;stroke-opacity:1" d="M 313.293,79.4373 332.152,79.4373 z" id="boundary" inkscape:connector-curvature="0" />
	<path style="fill:none;stroke:red;stroke-width:1px;stroke-linecap:butt;stroke-linejoin:miter;stroke-opacity:1" d="M 332.152,79.4373 351.011,79.4373 z" id="boundary" inkscape:connector-curvature="0" />
	<path style="fill:none;stroke:red;stroke-width:1px;stroke-linecap:butt;stroke-linejoin:miter;stroke-opacity:1" d="M 351.011,79.4373 369.871,79.4373 z" id="boundary" inkscape:connector-curvature="0" />
	<path style="fill:none;stroke:red;stroke-width:1px;stroke-linecap:butt;stroke-linejoin:miter;stroke-opacity:1" d="M 369.871,79.4373 388.73,79.4373 z" id="boundary" inkscape:connector-curvature="0" />
	<path style="fill:none;stroke:red;stroke-width:1px;stroke-linecap:butt;stroke-linejoin:miter;stroke-opacity:1" d="M 388.73,79.4373 407.589,79.4373 z" id="boundary" inkscape:connector-curvature="0" />
	<path style="fill:none;stroke:red;stroke-width:1px;stroke-linecap:butt;stroke-linejoin:miter;stroke-opacity:1" d="M 407.589,79.4373 424.563,70.0076 z" id="boundary" inkscape:connector-curvature="0" />
	<path style="fill:none;stroke:red;stroke-width:1px;stroke-linecap:butt;stroke-linejoin:miter;stroke-opacity:1" d="M 424.563,70.0076 443.422,70.0076 z" id="boundary" inkscape:connector-curvature="0" />
	<path style="fill:none;stroke:red;stroke-width:1px;stroke-linecap:butt;stroke-linejoin:miter;stroke-opacity:1" d="M 443.422,70.0076 462.281,70.0076 z" id="boundary" inkscape:connector-curvature="0" />
	<path style="fill:none;stroke:red;stroke-width:1px;stroke-linecap:butt;stroke-linejoin:miter;stroke-opacity:1" d="M 462.281,70.0076 481.141,70.0076 z" id="boundary" inkscape:connector-curvature="0" />
	<path style="fill:none;stroke:red;stroke-width:1px;stroke-linecap:butt;stroke-linejoin:miter;stroke-opacity:1" d="M 481.141,70.0076 500,70.0076 z" id="boundary" inkscape:connector-curvature="0" />
	<path style="fill:none;stroke:red;stroke-width:1px;stroke-linecap:butt;stroke-linejoin:miter;stroke-opacity:1" d="M 500,70.0076 518.859,70.0076 z" id="boundary" inkscape:connector-curvature="0" />
	<path style="fill:none;stroke:red;stroke-width:1px;stroke-linecap:butt;stroke-linejoin:miter;stroke-opacity:1" d="M 518.859,70.0076 537.719,70.0076 z" id="boundary" inkscape:connector-curvature="0" />
	<path style="fill:none;stroke:red;stroke-width:1px;stroke-linecap:butt;stroke-linejoin:miter;stroke-opacity:1" d="M 537.719,70.0076 556.578,70.0076 z" id="boundary" inkscape:connector-curvature="0" />
	<path style="fill:none;stroke:red;stroke-width:1px;stroke-linecap:butt;stroke-linejoin:miter;stroke-opacity:1" d="M 556.578,70.0076 575.437,70.0076 z" id="boundary" inkscape:connector-curvature="0" />
	<path style="fill:none;stroke:red;stroke-width:1px;stroke-linecap:butt;stroke-linejoin:miter;stroke-opacity:1" d="M 575.437,70.0076 594.297,70.0076 z" id="boundary" inkscape:connector-curvature="0" />
	<path style="fill:none;stroke:red;stroke-width:1px;stroke-linecap:butt;stroke-linejoin:miter;stroke-opacity:1" d="M 594.297,70.0076 611.27,60.5779 z" id="boundary" inkscape:connector-curvature="0" />
	<path style="fill:none;stroke:red;stroke-width:1px;stroke-linecap:butt;stroke-linejoin:miter;stroke-opacity:1" d="M 611.27,60.5779 630.129,60.5779 z" id="boundary" inkscape:connector-curvature="0" />
	<path style="fill:none;stroke:red;stroke-width:1px;stroke-linecap:butt;stroke-linejoin:miter;stroke-opacity:1" d="M 630.129,60.5779 648.989,60.5779 z" id="boundary" inkscape:connector-curvature="0" />
	<path style="fill:none;stroke:red;stroke-width:1px;stroke-linecap:butt;stroke-linejoin:miter;stroke-opacity:1" d="M 648.989,60.5779 667.848,60.5779 z" id="boundary" inkscape:connector-curvature="0" />
	<path style="fill:none;stroke:red;stroke-width:1px;stroke-linecap:butt;stroke-linejoin:miter;stroke-opacity:1" d="M 667.848,60.5779 686.707,60.5779 z" id="boundary" inkscape:connector-curvature="0" />
	<path style="fill:none;stroke:red;stroke-width:1px;stroke-linecap:butt;stroke-linejoin:miter;stroke-opacity:1" d="M 686.707,60.5779 703.681,70.0076 z" id="boundary" inkscape:connector-curvature="0" />
	<path style="fill:none;stroke:red;stroke-width:1px;stroke-linecap:butt;stroke-linejoin:miter;stroke-opacity:1" d="M 703.681,70.0076 720.654,79.4373 z" id="boundary" inkscape:connector-curvature="0" />
	<path style="fill:none;stroke:red;stroke-width:1px;stroke-linecap:butt;stroke-linejoin:miter;stroke-opacity:1" d="M 720.654,79.4373 735.741,90.7529 z" id="boundary" inkscape:connector-curvature="0" />
	<path style="fill:none;stroke:red;stroke-width:1px;stroke-linecap:butt;stroke-linejoin:miter;stroke-opacity:1" d="M 735.741,90.7529 750.829,103.954 z" id="boundary" inkscape:connector-curvature="0" />
	<path style="fill:none;stroke:red;stroke-width:1px;stroke-linecap:butt;stroke-linejoin:miter;stroke-opacity:1" d="M 750.829,103.954 767.802,113.384 z" id="boundary" inkscape:connector-curvature="0" />
	<path style="fill:none;stroke:red;stroke-width:1px;stroke-linecap:butt;stroke-linejoin:miter;stroke-opacity:1" d="M 767.802,113.384 777.232,130.357 z" id="boundary" inkscape:connector-curvature="0" />
	<path style="fill:none;stroke:red;stroke-width:1px;stroke-linecap:butt;stroke-linejoin:miter;stroke-opacity:1" d="M 777.232,130.357 788.548,145.445 z" id="boundary" inkscape:connector-curvature="0" />
	<path style="fill:none;stroke:red;stroke-width:1px;stroke-linecap:butt;stroke-linejoin:miter;stroke-opacity:1" d="M 788.548,145.445 805.521,154.875 z" id="boundary" inkscape:connector-curvature="0" />
	<path style="fill:none;stroke:red;stroke-width:1px;stroke-linecap:butt;stroke-linejoin:miter;stroke-opacity:1" d="M 805.521,154.875 822.494,164.304 z" id="boundary" inkscape:connector-curvature="0" />
	<path style="fill:none;stroke:red;stroke-width:1px;stroke-linecap:butt;stroke-linejoin:miter;stroke-opacity:1" d="M 822.494,164.304 841.354,164.304 z" id="boundary" inkscape:connector-curvature="0" />
	<path style="fill:none;stroke:red;stroke-width:1px;stroke-linecap:butt;stroke-linejoin:miter;stroke-opacity:1" d="M 841.354,164.304 858.327,154.875 z" id="boundary" inkscape:connector-curvature="0" />
	<path style="fill:none;stroke:red;stroke-width:1px;stroke-linecap:butt;stroke-linejoin:miter;stroke-opacity:1" d="M 858.327,154.875 877.186,154.875 z" id="boundary" inkscape:connector-curvature="0" />
	<path style="fill:none;stroke:red;stroke-width:1px;stroke-linecap:butt;stroke-linejoin:miter;stroke-opacity:1" d="M 877.186,154.875 896.046,154.875 z" id="boundary" inkscape:connector-curvature="0" />
	<path style="fill:none;stroke:red;stroke-width:1px;stroke-linecap:butt;stroke-linejoin:miter;stroke-opacity:1" d="M 896.046,154.875 913.019,145.445 z" id="boundary" inkscape:connector-curvature="0" />
	<path style="fill:none;stroke:red;stroke-width:1px;stroke-linecap:butt;stroke-linejoin:miter;stroke-opacity:1" d="M 913.019,145.445 931.878,137.901 z" id="boundary" inkscape:connector-curvature="0" />
	<path style="fill:none;stroke:red;stroke-width:1px;stroke-linecap:butt;stroke-linejoin:miter;stroke-opacity:1" d="M 931.878,137.901 950.738,136.015 z" id="boundary" inkscape:connector-curvature="0" />
	<path style="fill:none;stroke:red;stroke-width:1px;stroke-linecap:butt;stroke-linejoin:miter;stroke-opacity:1" d="M 950.738,136.015 967.711,145.445 z" id="boundary" inkscape:connector-curvature="0" />
	<path style="fill:none;stroke:red;stroke-width:1px;stroke-linecap:butt;stroke-linejoin:miter;stroke-opacity:1" d="M 967.711,145.445 977.141,162.418 z" id="boundary" inkscape:connector-curvature="0" />
	<path style="fill:none;stroke:red;stroke-width:1px;stroke-linecap:butt;stroke-linejoin:miter;stroke-opacity:1" d="M 977.141,162.418 986.57,179.392 z" id="boundary" inkscape:connector-curvature="0" />
	<path style="fill:none;stroke:red;stroke-width:1px;stroke-linecap:butt;stroke-linejoin:miter;stroke-opacity:1" d="M 986.57,179.392 986.57,198.251 z" id="boundary" inkscape:connector-curvature="0" />
	<path style="fill:none;stroke:red;stroke-width:1px;stroke-linecap:butt;stroke-linejoin:miter;stroke-opacity:1" d="M 986.57,198.251 996,215.224 z" id="boundary" inkscape:connector-curvature="0" />
	<path style="fill:none;stroke:red;stroke-width:1px;stroke-linecap:butt;stroke-linejoin:miter;stroke-opacity:1" d="M 996,215.224 996,234.084 z" id="boundary" inkscape:connector-curvature="0" />
	<path style="fill:none;stroke:red;stroke-width:1px;stroke-linecap:butt;stroke-linejoin:miter;stroke-opacity:1" d="M 996,234.084 996,252.943 z" id="boundary" inkscape:connector-curvature="0" />
	<path style="fill:none;stroke:red;stroke-width:1px;stroke-linecap:butt;stroke-linejoin:miter;stroke-opacity:1" d="M 996,252.943 986.57,269.916 z" id="boundary" inkscape:connector-curvature="0" />
	<path style="fill:none;stroke:red;stroke-width:1px;stroke-linecap:butt;stroke-linejoin:miter;stroke-opacity:1" d="M 986.57,269.916 973.369,294.433 z" id="boundary" inkscape:connector-curvature="0" />
	<path style="fill:none;stroke:red;stroke-width:1px;stroke-linecap:butt;stroke-linejoin:miter;stroke-opacity:1" d="M 973.369,294.433 958.281,307.635 z" id="boundary" inkscape:connector-curvature="0" />
	<path style="fill:none;stroke:red;stroke-width:1px;stroke-linecap:butt;stroke-linejoin:miter;stroke-opacity:1" d="M 958.281,307.635 945.08,322.722 z" id="boundary" inkscape:connector-curvature="0" />
	<path style="fill:none;stroke:red;stroke-width:1px;stroke-linecap:butt;stroke-linejoin:miter;stroke-opacity:1" d="M 945.08,322.722 929.992,335.924 z" id="boundary" inkscape:connector-curvature="0" />
	<path style="fill:none;stroke:red;stroke-width:1px;stroke-linecap:butt;stroke-linejoin:miter;stroke-opacity:1" d="M 929.992,335.924 920.563,354.783 z" id="boundary" inkscape:connector-curvature="0" />
	<path style="fill:none;stroke:red;stroke-width:1px;stroke-linecap:butt;stroke-linejoin:miter;stroke-opacity:1" d="M 920.563,354.783 920.563,373.643 z" id="boundary" inkscape:connector-curvature="0" />
	<path style="fill:none;stroke:red;stroke-width:1px;stroke-linecap:butt;stroke-linejoin:miter;stroke-opacity:1" d="M 920.563,373.643 920.563,392.502 z" id="boundary" inkscape:connector-curvature="0" />
	<path style="fill:none;stroke:red;stroke-width:1px;stroke-linecap:butt;stroke-linejoin:miter;stroke-opacity:1" d="M 920.563,392.502 920.563,411.361 z" id="boundary" inkscape:connector-curvature="0" />
	<path style="fill:none;stroke:red;stroke-width:1px;stroke-linecap:butt;stroke-linejoin:miter;stroke-opacity:1" d="M 920.563,411.361 920.563,430.221 z" id="boundary" inkscape:connector-curvature="0" />
	<path style="fill:none;stroke:red;stroke-width:1px;stroke-linecap:butt;stroke-linejoin:miter;stroke-opacity:1" d="M 920.563,430.221 920.563,449.08 z" id="boundary" inkscape:connector-curvature="0" />
	<path style="fill:none;stroke:red;stroke-width:1px;stroke-linecap:butt;stroke-linejoin:miter;stroke-opacity:1" d="M 920.563,449.08 909.247,477.369 z" id="boundary" inkscape:connector-curvature="0" />
	<circle cx="4" cy="273.688" r="4" fill="#0" id="circle0"/>
	<circle cx="4" cy="292.548" r="4" fill="#0" id="circle1"/>
	<circle cx="4" cy="311.407" r="4" fill="#0" id="circle2"/>
	<circle cx="4" cy="330.266" r="4" fill="#0" id="circle3"/>
	<circle cx="4" cy="349.125" r="4" fill="#0" id="circle4"/>
	<circle cx="4" cy="367.985" r="4" fill="#0" id="circle5"/>
	<circle cx="4" cy="386.844" r="4" fill="#0" id="circle6"/>
	<circle cx="13.4297" cy="254.829" r="4" fill="#0" id="circle7"/>
	<circle cx="13.4297" cy="403.817" r="4" fill="#0" id="circle8"/>
	<circle cx="22.8593" cy="420.791" r="4" fill="#0" id="circle9"/>
	<circle cx="32.289" cy="245.399" r="4" fill="#0" id="circle10"/>
	<circle cx="39.8327" cy="411.361" r="4" fill="#0" id="circle11"/>
	<circle cx="47.3764" cy="230.312" r="4" fill="#0" id="circle12"/>
	<circle cx="58.692" cy="411.361" r="4" fill="#0" id="circle13"/>
	<circle cx="64.3498" cy="220.882" r="4" fill="#0" id="circle14"/>
	<circle cx="75.6654" cy="401.932" r="4" fill="#0" id="circle15"/>
	<circle cx="79.4373" cy="207.681" r="4" fill="#0" id="circle16"/>
	<circle cx="94.5247" cy="192.593" r="4" fill="#0" id="circle17"/>
	<circle cx="94.5247" cy="401.932" r="4" fill="#0" id="circle18"/>
	<circle cx="98.2966" cy="19.0875" r="4" fill="#0" id="circle19"/>
	<circle cx="98.2966" cy="37.9468" r="4" fill="#0" id="circle20"/>
	<circle cx="98.2966" cy="56.8061" r="4" fill="#0" id="circle21"/>
	<circle cx="98.2966" cy="75.6654" r="4" fill="#0" id="circle22"/>
	<circle cx="107.726" cy="92.6388" r="4" fill="#0" id="circle23"/>
	<circle cx="107.726" cy="169.962" r="4" fill="#0" id="circle24"/>
	<circle cx="113.384" cy="4" r="4" fill="#0" id="circle25"/>
	<circle cx="113.384" cy="400.046" r="4" fill="#0" id="circle26"/>
	<circle cx="117.156" cy="109.612" r="4" fill="#0" id="circle27"/>
	<circle cx="117.156" cy="128.471" r="4" fill="#0" id="circle28"/>
	<circle cx="117.156" cy="147.331" r="4" fill="#0" id="circle29"/>
	<circle cx="132.243" cy="4" r="4" fill="#0" id="circle30"/>
	<circle cx="132.243" cy="392.502" r="4" fill="#0" id="circle31"/>
	<circle cx="149.217" cy="13.4297" r="4" fill="#0" id="circle32"/>
	<circle cx="151.103" cy="392.502" r="4" fill="#0" id="circle33"/>
	<circle cx="168.076" cy="13.4297" r="4" fill="#0" id="circle34"/>
	<circle cx="169.962" cy="392.502" r="4" fill="#0" id="circle35"/>
	<circle cx="186.935" cy="13.4297" r="4" fill="#0" id="circle36"/>
	<circle cx="188.821" cy="392.502" r="4" fill="#0" id="circle37"/>
	<circle cx="205.795" cy="13.4297" r="4" fill="#0" id="circle38"/>
	<circle cx="205.795" cy="401.932" r="4" fill="#0" id="circle39"/>
	<circle cx="222.768" cy="411.361" r="4" fill="#0" id="circle40"/>
	<circle cx="224.654" cy="13.4297" r="4" fill="#0" id="circle41"/>
	<circle cx="239.741" cy="420.791" r="4" fill="#0" id="circle42"/>
	<circle cx="243.513" cy="13.4297" r="4" fill="#0" id="circle43"/>
	<circle cx="256.715" cy="430.221" r="4" fill="#0" id="circle44"/>
	<circle cx="260.487" cy="22.8593" r="4" fill="#0" id="circle45"/>
	<circle cx="269.916" cy="39.8327" r="4" fill="#0" id="circle46"/>
	<circle cx="273.688" cy="439.65" r="4" fill="#0" id="circle47"/>
	<circle cx="285.004" cy="53.0342" r="4" fill="#0" id="circle48"/>
	<circle cx="292.548" cy="447.194" r="4" fill="#0" id="circle49"/>
	<circle cx="298.205" cy="68.1217" r="4" fill="#0" id="circle50"/>
	<circle cx="309.521" cy="456.624" r="4" fill="#0" id="circle51"/>
	<circle cx="313.293" cy="79.4373" r="4" fill="#0" id="circle52"/>
	<circle cx="328.38" cy="458.51" r="4" fill="#0" id="circle53"/>
	<circle cx="332.152" cy="79.4373" r="4" fill="#0" id="circle54"/>
	<circle cx="345.354" cy="467.939" r="4" fill="#0" id="circle55"/>
	<circle cx="351.011" cy="79.4373" r="4" fill="#0" id="circle56"/>
	<circle cx="364.213" cy="467.939" r="4" fill="#0" id="circle57"/>
	<circle cx="369.871" cy="79.4373" r="4" fill="#0" id="circle58"/>
	<circle cx="383.072" cy="458.51" r="4" fill="#0" id="circle59"/>
	<circle cx="388.73" cy="79.4373" r="4" fill="#0" id="circle60"/>
	<circle cx="401.932" cy="458.51" r="4" fill="#0" id="circle61"/>
	<circle cx="407.589" cy="79.4373" r="4" fill="#0" id="circle62"/>
	<circle cx="420.791" cy="458.51" r="4" fill="#0" id="circle63"/>
	<circle cx="424.563" cy="70.0076" r="4" fill="#0" id="circle64"/>
	<circle cx="439.65" cy="458.51" r="4" fill="#0" id="circle65"/>
	<circle cx="443.422" cy="70.0076" r="4" fill="#0" id="circle66"/>
	<circle cx="456.624" cy="449.08" r="4" fill="#0" id="circle67"/>
	<circle cx="462.281" cy="70.0076" r="4" fill="#0" id="circle68"/>
	<circle cx="475.483" cy="449.08" r="4" fill="#0" id="circle69"/>
	<circle cx="481.141" cy="70.0076" r="4" fill="#0" id="circle70"/>
	<circle cx="492.456" cy="439.65" r="4" fill="#0" id="circle71"/>
	<circle cx="500" cy="70.0076" r="4" fill="#0" id="circle72"/>
	<circle cx="511.316" cy="439.65" r="4" fill="#0" id="circle73"/>
	<circle cx="518.859" cy="70.0076" r="4" fill="#0" id="circle74"/>
	<circle cx="530.175" cy="435.878" r="4" fill="#0" id="circle75"/>
	<circle cx="537.719" cy="70.0076" r="4" fill="#0" id="circle76"/>
	<circle cx="549.034" cy="430.221" r="4" fill="#0" id="circle77"/>
	<circle cx="556.578" cy="70.0076" r="4" fill="#0" id="circle78"/>
	<circle cx="567.894" cy="426.449" r="4" fill="#0" id="circle79"/>
	<circle cx="575.437" cy="70.0076" r="4" fill="#0" id="circle80"/>
	<circle cx="586.753" cy="417.019" r="4" fill="#0" id="circle81"/>
	<circle cx="594.297" cy="70.0076" r="4" fill="#0" id="circle82"/>
	<circle cx="605.612" cy="411.361" r="4" fill="#0" id="circle83"/>
	<circle cx="611.27" cy="60.5779" r="4" fill="#0" id="circle84"/>
	<circle cx="624.471" cy="411.361" r="4" fill="#0" id="circle85"/>
	<circle cx="630.129" cy="60.5779" r="4" fill="#0" id="circle86"/>
	<circle cx="641.445" cy="420.791" r="4" fill="#0" id="circle87"/>
	<circle cx="648.989" cy="60.5779" r="4" fill="#0" id="circle88"/>
	<circle cx="658.418" cy="430.221" r="4" fill="#0" id="circle89"/>
	<circle cx="667.848" cy="60.5779" r="4" fill="#0" id="circle90"/>
	<circle cx="675.392" cy="439.65" r="4" fill="#0" id="circle91"/>
	<circle cx="686.707" cy="60.5779" r="4" fill="#0" id="circle92"/>
	<circle cx="692.365" cy="449.08" r="4" fill="#0" id="circle93"/>
	<circle cx="703.681" cy="70.0076" r="4" fill="#0" id="circle94"/>
	<circle cx="711.224" cy="449.08" r="4" fill="#0" id="circle95"/>
	<circle cx="720.654" cy="79.4373" r="4" fill="#0" id="circle96"/>
	<circle cx="728.198" cy="458.51" r="4" fill="#0" id="circle97"/>
	<circle cx="735.741" cy="90.7529" r="4" fill="#0" id="circle98"/>
	<circle cx="745.171" cy="467.939" r="4" fill="#0" id="circle99"/>
	<circle cx="750.829" cy="103.954" r="4" fill="#0" id="circle100"/>
	<circle cx="762.144" cy="477.369" r="4" fill="#0" id="circle101"/>
	<circle cx="767.802" cy="113.384" r="4" fill="#0" id="circle102"/>
	<circle cx="777.232" cy="130.357" r="4" fill="#0" id="circle103"/>
	<circle cx="779.118" cy="486.798" r="4" fill="#0" id="circle104"/>
	<circle cx="788.548" cy="145.445" r="4" fill="#0" id="circle105"/>
	<circle cx="797.977" cy="486.798" r="4" fill="#0" id="circle106"/>
	<circle cx="805.521" cy="154.875" r="4" fill="#0" id="circle107"/>
	<circle cx="816.837" cy="486.798" r="4" fill="#0" id="circle108"/>
	<circle cx="822.494" cy="164.304" r="4" fill="#0" id="circle109"/>
	<circle cx="835.696" cy="486.798" r="4" fill="#0" id="circle110"/>
	<circle cx="841.354" cy="164.304" r="4" fill="#0" id="circle111"/>
	<circle cx="854.555" cy="486.798" r="4" fill="#0" id="circle112"/>
	<circle cx="858.327" cy="154.875" r="4" fill="#0" id="circle113"/>
	<circle cx="873.414" cy="486.798" r="4" fill="#0" id="circle114"/>
	<circle cx="877.186" cy="154.875" r="4" fill="#0" id="circle115"/>
	<circle cx="890.388" cy="477.369" r="4" fill="#0" id="circle116"/>
	<circle cx="896.046" cy="154.875" r="4" fill="#0" id="circle117"/>
	<circle cx="909.247" cy="477.369" r="4" fill="#0" id="circle118"/>
	<circle cx="913.019" cy="145.445" r="4" fill="#0" id="circle119"/>
	<circle cx="920.563" cy="354.783" r="4" fill="#0" id="circle120"/>
	<circle cx="920.563" cy="373.643" r="4" fill="#0" id="circle121"/>
	<circle cx="920.563" cy="392.502" r="4" fill="#0" id="circle122"/>
	<circle cx="920.563" cy="411.361" r="4" fill="#0" id="circle123"/>
	<circle cx="920.563" cy="430.221" r="4" fill="#0" id="circle124"/>
	<circle cx="920.563" cy="449.08" r="4" fill="#0" id="circle125"/>
	<circle cx="929.992" cy="335.924" r="4" fill="#0" id="circle126"/>
	<circle cx="931.878" cy="137.901" r="4" fill="#0" id="circle127"/>
	<circle cx="945.08" cy="322.722" r="4" fill="#0" id="circle128"/>
	<circle cx="950.738" cy="136.015" r="4" fill="#0" id="circle129"/>
	<circle cx="958.281" cy="307.635" r="4" fill="#0" id="circle130"/>
	<circle cx="967.711" cy="145.445" r="4" fill="#0" id="circle131"/>
	<circle cx="973.369" cy="294.433" r="4" fill="#0" id="circle132"/>
	<circle cx="977.141" cy="162.418" r="4" fill="#0" id="circle133"/>
	<circle cx="986.57" cy="179.392" r="4" fill="#0" id="circle134"/>
	<circle cx="986.57" cy="198.251" r="4" fill="#0" id="circle135"/>
	<circle cx="986.57" cy="269.916" r="4" fill="#0" id="circle136"/>
	<circle cx="996" cy="215.224" r="4" fill="#0" id="circle137"/>
	<circle cx="996" cy="234.084" r="4" fill="#0" id="circle138"/>
	<circle cx="996" cy="252.943" r="4" fill="#0" id="circle139"/>
	</g>
</svg>