<?xml version="1.0" encoding="UTF-8" standalone="no"?>
<!-- Created with CurveBenchmark -->
<svg
	xmlns:dc="http://purl.org/dc/elements/1.1/"
	xmlns:cc="http://creativecommons.org/ns#"
	xmlns:rdf="http://www.w3.org/1999/02/22-rdf-syntax-ns#"
	xmlns:svg="http://www.w3.org/2000/svg"
	xmlns="http://www.w3.org/2000/svg"
	xmlns:sodipodi="http://sodipodi.sourceforge.net/DTD/sodipodi-0.dtd"
	xmlns:inkscape="http://www.inkscape.org/namespaces/inkscape"
	width="1000"
	height="1000"
	id="svg2"
	version="1.1"
	sodipodi:docname="manifold/crawl-stef-12.png.txt">
<defs
	id="defs4" />
<metadata
	id="metadata7">
	<rdf:RDF>
		<cc:Work
			rdf:about="">
			<dc:format>image/svg+xml</dc:format>
			<dc:type
				rdf:resource="http://purl.org/dc/dcmitype/StillImage" />
			<dc:title></dc:title>
		</cc:Work>
	</rdf:RDF>
</metadata>
<g
	inkscape:label="Layer 1"
	inkscape:groupmode="layer"
	id="layer1">
	<path style="fill:none;stroke:red;stroke-width:1px;stroke-linecap:butt;stroke-linejoin:miter;stroke-opacity:1" d="M 4,90.4587 4,113.211 z" id="boundary" inkscape:connector-curvature="0" />
	<path style="fill:none;stroke:red;stroke-width:1px;stroke-linecap:butt;stroke-linejoin:miter;stroke-opacity:1" d="M 4,113.211 4,135.963 z" id="boundary" inkscape:connector-curvature="0" />
	<path style="fill:none;stroke:red;stroke-width:1px;stroke-linecap:butt;stroke-linejoin:miter;stroke-opacity:1" d="M 4,135.963 15.3761,156.44 z" id="boundary" inkscape:connector-curvature="0" />
	<path style="fill:none;stroke:red;stroke-width:1px;stroke-linecap:butt;stroke-linejoin:miter;stroke-opacity:1" d="M 15.3761,156.44 26.7523,176.917 z" id="boundary" inkscape:connector-curvature="0" />
	<path style="fill:none;stroke:red;stroke-width:1px;stroke-linecap:butt;stroke-linejoin:miter;stroke-opacity:1" d="M 26.7523,176.917 40.4037,195.119 z" id="boundary" inkscape:connector-curvature="0" />
	<path style="fill:none;stroke:red;stroke-width:1px;stroke-linecap:butt;stroke-linejoin:miter;stroke-opacity:1" d="M 40.4037,195.119 63.156,204.22 z" id="boundary" inkscape:connector-curvature="0" />
	<path style="fill:none;stroke:red;stroke-width:1px;stroke-linecap:butt;stroke-linejoin:miter;stroke-opacity:1" d="M 63.156,204.22 83.633,215.596 z" id="boundary" inkscape:connector-curvature="0" />
	<path style="fill:none;stroke:red;stroke-width:1px;stroke-linecap:butt;stroke-linejoin:miter;stroke-opacity:1" d="M 83.633,215.596 83.633,238.349 z" id="boundary" inkscape:connector-curvature="0" />
	<path style="fill:none;stroke:red;stroke-width:1px;stroke-linecap:butt;stroke-linejoin:miter;stroke-opacity:1" d="M 83.633,238.349 95.0092,258.826 z" id="boundary" inkscape:connector-curvature="0" />
	<path style="fill:none;stroke:red;stroke-width:1px;stroke-linecap:butt;stroke-linejoin:miter;stroke-opacity:1" d="M 95.0092,258.826 106.385,279.303 z" id="boundary" inkscape:connector-curvature="0" />
	<path style="fill:none;stroke:red;stroke-width:1px;stroke-linecap:butt;stroke-linejoin:miter;stroke-opacity:1" d="M 106.385,279.303 120.037,297.505 z" id="boundary" inkscape:connector-curvature="0" />
	<path style="fill:none;stroke:red;stroke-width:1px;stroke-linecap:butt;stroke-linejoin:miter;stroke-opacity:1" d="M 120.037,297.505 138.239,313.431 z" id="boundary" inkscape:connector-curvature="0" />
	<path style="fill:none;stroke:red;stroke-width:1px;stroke-linecap:butt;stroke-linejoin:miter;stroke-opacity:1" d="M 138.239,313.431 154.165,331.633 z" id="boundary" inkscape:connector-curvature="0" />
	<path style="fill:none;stroke:red;stroke-width:1px;stroke-linecap:butt;stroke-linejoin:miter;stroke-opacity:1" d="M 154.165,331.633 176.917,340.734 z" id="boundary" inkscape:connector-curvature="0" />
	<path style="fill:none;stroke:red;stroke-width:1px;stroke-linecap:butt;stroke-linejoin:miter;stroke-opacity:1" d="M 176.917,340.734 197.394,352.11 z" id="boundary" inkscape:connector-curvature="0" />
	<path style="fill:none;stroke:red;stroke-width:1px;stroke-linecap:butt;stroke-linejoin:miter;stroke-opacity:1" d="M 197.394,352.11 220.147,358.936 z" id="boundary" inkscape:connector-curvature="0" />
	<path style="fill:none;stroke:red;stroke-width:1px;stroke-linecap:butt;stroke-linejoin:miter;stroke-opacity:1" d="M 220.147,358.936 242.899,358.936 z" id="boundary" inkscape:connector-curvature="0" />
	<path style="fill:none;stroke:red;stroke-width:1px;stroke-linecap:butt;stroke-linejoin:miter;stroke-opacity:1" d="M 242.899,358.936 263.376,370.312 z" id="boundary" inkscape:connector-curvature="0" />
	<path style="fill:none;stroke:red;stroke-width:1px;stroke-linecap:butt;stroke-linejoin:miter;stroke-opacity:1" d="M 263.376,370.312 265.651,393.064 z" id="boundary" inkscape:connector-curvature="0" />
	<path style="fill:none;stroke:red;stroke-width:1px;stroke-linecap:butt;stroke-linejoin:miter;stroke-opacity:1" d="M 265.651,393.064 245.174,406.716 z" id="boundary" inkscape:connector-curvature="0" />
	<path style="fill:none;stroke:red;stroke-width:1px;stroke-linecap:butt;stroke-linejoin:miter;stroke-opacity:1" d="M 245.174,406.716 222.422,418.092 z" id="boundary" inkscape:connector-curvature="0" />
	<path style="fill:none;stroke:red;stroke-width:1px;stroke-linecap:butt;stroke-linejoin:miter;stroke-opacity:1" d="M 4,90.4587 15.3761,67.7064 z" id="boundary" inkscape:connector-curvature="0" />
	<path style="fill:none;stroke:red;stroke-width:1px;stroke-linecap:butt;stroke-linejoin:miter;stroke-opacity:1" d="M 15.3761,67.7064 26.7523,44.9541 z" id="boundary" inkscape:connector-curvature="0" />
	<path style="fill:none;stroke:red;stroke-width:1px;stroke-linecap:butt;stroke-linejoin:miter;stroke-opacity:1" d="M 26.7523,44.9541 38.1284,22.2018 z" id="boundary" inkscape:connector-curvature="0" />
	<path style="fill:none;stroke:red;stroke-width:1px;stroke-linecap:butt;stroke-linejoin:miter;stroke-opacity:1" d="M 38.1284,22.2018 60.8807,10.8257 z" id="boundary" inkscape:connector-curvature="0" />
	<path style="fill:none;stroke:red;stroke-width:1px;stroke-linecap:butt;stroke-linejoin:miter;stroke-opacity:1" d="M 60.8807,10.8257 83.633,4 z" id="boundary" inkscape:connector-curvature="0" />
	<path style="fill:none;stroke:red;stroke-width:1px;stroke-linecap:butt;stroke-linejoin:miter;stroke-opacity:1" d="M 83.633,4 106.385,8.55046 z" id="boundary" inkscape:connector-curvature="0" />
	<path style="fill:none;stroke:red;stroke-width:1px;stroke-linecap:butt;stroke-linejoin:miter;stroke-opacity:1" d="M 106.385,8.55046 126.862,19.9266 z" id="boundary" inkscape:connector-curvature="0" />
	<path style="fill:none;stroke:red;stroke-width:1px;stroke-linecap:butt;stroke-linejoin:miter;stroke-opacity:1" d="M 126.862,19.9266 142.789,38.1284 z" id="boundary" inkscape:connector-curvature="0" />
	<path style="fill:none;stroke:red;stroke-width:1px;stroke-linecap:butt;stroke-linejoin:miter;stroke-opacity:1" d="M 142.789,38.1284 160.991,51.7798 z" id="boundary" inkscape:connector-curvature="0" />
	<path style="fill:none;stroke:red;stroke-width:1px;stroke-linecap:butt;stroke-linejoin:miter;stroke-opacity:1" d="M 160.991,51.7798 170.092,74.5321 z" id="boundary" inkscape:connector-curvature="0" />
	<path style="fill:none;stroke:red;stroke-width:1px;stroke-linecap:butt;stroke-linejoin:miter;stroke-opacity:1" d="M 170.092,74.5321 176.917,97.2844 z" id="boundary" inkscape:connector-curvature="0" />
	<path style="fill:none;stroke:red;stroke-width:1px;stroke-linecap:butt;stroke-linejoin:miter;stroke-opacity:1" d="M 176.917,97.2844 199.67,106.385 z" id="boundary" inkscape:connector-curvature="0" />
	<path style="fill:none;stroke:red;stroke-width:1px;stroke-linecap:butt;stroke-linejoin:miter;stroke-opacity:1" d="M 199.67,106.385 222.422,106.385 z" id="boundary" inkscape:connector-curvature="0" />
	<path style="fill:none;stroke:red;stroke-width:1px;stroke-linecap:butt;stroke-linejoin:miter;stroke-opacity:1" d="M 222.422,106.385 245.174,106.385 z" id="boundary" inkscape:connector-curvature="0" />
	<path style="fill:none;stroke:red;stroke-width:1px;stroke-linecap:butt;stroke-linejoin:miter;stroke-opacity:1" d="M 245.174,106.385 267.927,106.385 z" id="boundary" inkscape:connector-curvature="0" />
	<path style="fill:none;stroke:red;stroke-width:1px;stroke-linecap:butt;stroke-linejoin:miter;stroke-opacity:1" d="M 267.927,106.385 290.679,106.385 z" id="boundary" inkscape:connector-curvature="0" />
	<path style="fill:none;stroke:red;stroke-width:1px;stroke-linecap:butt;stroke-linejoin:miter;stroke-opacity:1" d="M 290.679,106.385 313.431,106.385 z" id="boundary" inkscape:connector-curvature="0" />
	<path style="fill:none;stroke:red;stroke-width:1px;stroke-linecap:butt;stroke-linejoin:miter;stroke-opacity:1" d="M 313.431,106.385 336.183,113.211 z" id="boundary" inkscape:connector-curvature="0" />
	<path style="fill:none;stroke:red;stroke-width:1px;stroke-linecap:butt;stroke-linejoin:miter;stroke-opacity:1" d="M 336.183,113.211 356.661,124.587 z" id="boundary" inkscape:connector-curvature="0" />
	<path style="fill:none;stroke:red;stroke-width:1px;stroke-linecap:butt;stroke-linejoin:miter;stroke-opacity:1" d="M 356.661,124.587 379.413,133.688 z" id="boundary" inkscape:connector-curvature="0" />
	<path style="fill:none;stroke:red;stroke-width:1px;stroke-linecap:butt;stroke-linejoin:miter;stroke-opacity:1" d="M 379.413,133.688 399.89,145.064 z" id="boundary" inkscape:connector-curvature="0" />
	<path style="fill:none;stroke:red;stroke-width:1px;stroke-linecap:butt;stroke-linejoin:miter;stroke-opacity:1" d="M 399.89,145.064 415.817,163.266 z" id="boundary" inkscape:connector-curvature="0" />
	<path style="fill:none;stroke:red;stroke-width:1px;stroke-linecap:butt;stroke-linejoin:miter;stroke-opacity:1" d="M 415.817,163.266 434.018,176.917 z" id="boundary" inkscape:connector-curvature="0" />
	<path style="fill:none;stroke:red;stroke-width:1px;stroke-linecap:butt;stroke-linejoin:miter;stroke-opacity:1" d="M 434.018,176.917 449.945,195.119 z" id="boundary" inkscape:connector-curvature="0" />
	<path style="fill:none;stroke:red;stroke-width:1px;stroke-linecap:butt;stroke-linejoin:miter;stroke-opacity:1" d="M 449.945,195.119 472.697,204.22 z" id="boundary" inkscape:connector-curvature="0" />
	<path style="fill:none;stroke:red;stroke-width:1px;stroke-linecap:butt;stroke-linejoin:miter;stroke-opacity:1" d="M 472.697,204.22 493.174,215.596 z" id="boundary" inkscape:connector-curvature="0" />
	<path style="fill:none;stroke:red;stroke-width:1px;stroke-linecap:butt;stroke-linejoin:miter;stroke-opacity:1" d="M 493.174,215.596 511.376,231.523 z" id="boundary" inkscape:connector-curvature="0" />
	<path style="fill:none;stroke:red;stroke-width:1px;stroke-linecap:butt;stroke-linejoin:miter;stroke-opacity:1" d="M 511.376,231.523 527.303,249.725 z" id="boundary" inkscape:connector-curvature="0" />
	<path style="fill:none;stroke:red;stroke-width:1px;stroke-linecap:butt;stroke-linejoin:miter;stroke-opacity:1" d="M 527.303,249.725 538.679,270.202 z" id="boundary" inkscape:connector-curvature="0" />
	<path style="fill:none;stroke:red;stroke-width:1px;stroke-linecap:butt;stroke-linejoin:miter;stroke-opacity:1" d="M 538.679,270.202 559.156,281.578 z" id="boundary" inkscape:connector-curvature="0" />
	<path style="fill:none;stroke:red;stroke-width:1px;stroke-linecap:butt;stroke-linejoin:miter;stroke-opacity:1" d="M 559.156,281.578 570.532,302.055 z" id="boundary" inkscape:connector-curvature="0" />
	<path style="fill:none;stroke:red;stroke-width:1px;stroke-linecap:butt;stroke-linejoin:miter;stroke-opacity:1" d="M 570.532,302.055 586.459,320.257 z" id="boundary" inkscape:connector-curvature="0" />
	<path style="fill:none;stroke:red;stroke-width:1px;stroke-linecap:butt;stroke-linejoin:miter;stroke-opacity:1" d="M 586.459,320.257 597.835,340.734 z" id="boundary" inkscape:connector-curvature="0" />
	<path style="fill:none;stroke:red;stroke-width:1px;stroke-linecap:butt;stroke-linejoin:miter;stroke-opacity:1" d="M 597.835,340.734 606.936,363.486 z" id="boundary" inkscape:connector-curvature="0" />
	<path style="fill:none;stroke:red;stroke-width:1px;stroke-linecap:butt;stroke-linejoin:miter;stroke-opacity:1" d="M 606.936,363.486 618.312,383.963 z" id="boundary" inkscape:connector-curvature="0" />
	<path style="fill:none;stroke:red;stroke-width:1px;stroke-linecap:butt;stroke-linejoin:miter;stroke-opacity:1" d="M 618.312,383.963 620.587,406.716 z" id="boundary" inkscape:connector-curvature="0" />
	<path style="fill:none;stroke:red;stroke-width:1px;stroke-linecap:butt;stroke-linejoin:miter;stroke-opacity:1" d="M 620.587,406.716 620.587,429.468 z" id="boundary" inkscape:connector-curvature="0" />
	<path style="fill:none;stroke:red;stroke-width:1px;stroke-linecap:butt;stroke-linejoin:miter;stroke-opacity:1" d="M 620.587,429.468 620.587,452.22 z" id="boundary" inkscape:connector-curvature="0" />
	<path style="fill:none;stroke:red;stroke-width:1px;stroke-linecap:butt;stroke-linejoin:miter;stroke-opacity:1" d="M 620.587,452.22 620.587,474.972 z" id="boundary" inkscape:connector-curvature="0" />
	<path style="fill:none;stroke:red;stroke-width:1px;stroke-linecap:butt;stroke-linejoin:miter;stroke-opacity:1" d="M 620.587,474.972 620.587,497.725 z" id="boundary" inkscape:connector-curvature="0" />
	<path style="fill:none;stroke:red;stroke-width:1px;stroke-linecap:butt;stroke-linejoin:miter;stroke-opacity:1" d="M 620.587,497.725 620.587,520.477 z" id="boundary" inkscape:connector-curvature="0" />
	<path style="fill:none;stroke:red;stroke-width:1px;stroke-linecap:butt;stroke-linejoin:miter;stroke-opacity:1" d="M 620.587,520.477 627.413,543.229 z" id="boundary" inkscape:connector-curvature="0" />
	<path style="fill:none;stroke:red;stroke-width:1px;stroke-linecap:butt;stroke-linejoin:miter;stroke-opacity:1" d="M 627.413,543.229 638.789,563.706 z" id="boundary" inkscape:connector-curvature="0" />
	<path style="fill:none;stroke:red;stroke-width:1px;stroke-linecap:butt;stroke-linejoin:miter;stroke-opacity:1" d="M 638.789,563.706 661.541,572.807 z" id="boundary" inkscape:connector-curvature="0" />
	<path style="fill:none;stroke:red;stroke-width:1px;stroke-linecap:butt;stroke-linejoin:miter;stroke-opacity:1" d="M 661.541,572.807 677.468,554.606 z" id="boundary" inkscape:connector-curvature="0" />
	<path style="fill:none;stroke:red;stroke-width:1px;stroke-linecap:butt;stroke-linejoin:miter;stroke-opacity:1" d="M 677.468,554.606 695.67,538.679 z" id="boundary" inkscape:connector-curvature="0" />
	<path style="fill:none;stroke:red;stroke-width:1px;stroke-linecap:butt;stroke-linejoin:miter;stroke-opacity:1" d="M 695.67,538.679 711.596,520.477 z" id="boundary" inkscape:connector-curvature="0" />
	<path style="fill:none;stroke:red;stroke-width:1px;stroke-linecap:butt;stroke-linejoin:miter;stroke-opacity:1" d="M 711.596,520.477 722.972,497.725 z" id="boundary" inkscape:connector-curvature="0" />
	<path style="fill:none;stroke:red;stroke-width:1px;stroke-linecap:butt;stroke-linejoin:miter;stroke-opacity:1" d="M 722.972,497.725 741.174,481.798 z" id="boundary" inkscape:connector-curvature="0" />
	<path style="fill:none;stroke:red;stroke-width:1px;stroke-linecap:butt;stroke-linejoin:miter;stroke-opacity:1" d="M 741.174,481.798 757.101,463.596 z" id="boundary" inkscape:connector-curvature="0" />
	<path style="fill:none;stroke:red;stroke-width:1px;stroke-linecap:butt;stroke-linejoin:miter;stroke-opacity:1" d="M 757.101,463.596 768.477,440.844 z" id="boundary" inkscape:connector-curvature="0" />
	<path style="fill:none;stroke:red;stroke-width:1px;stroke-linecap:butt;stroke-linejoin:miter;stroke-opacity:1" d="M 768.477,440.844 779.853,418.092 z" id="boundary" inkscape:connector-curvature="0" />
	<path style="fill:none;stroke:red;stroke-width:1px;stroke-linecap:butt;stroke-linejoin:miter;stroke-opacity:1" d="M 779.853,418.092 798.055,402.165 z" id="boundary" inkscape:connector-curvature="0" />
	<path style="fill:none;stroke:red;stroke-width:1px;stroke-linecap:butt;stroke-linejoin:miter;stroke-opacity:1" d="M 798.055,402.165 818.532,390.789 z" id="boundary" inkscape:connector-curvature="0" />
	<path style="fill:none;stroke:red;stroke-width:1px;stroke-linecap:butt;stroke-linejoin:miter;stroke-opacity:1" d="M 818.532,390.789 839.009,402.165 z" id="boundary" inkscape:connector-curvature="0" />
	<path style="fill:none;stroke:red;stroke-width:1px;stroke-linecap:butt;stroke-linejoin:miter;stroke-opacity:1" d="M 839.009,402.165 859.486,413.541 z" id="boundary" inkscape:connector-curvature="0" />
	<path style="fill:none;stroke:red;stroke-width:1px;stroke-linecap:butt;stroke-linejoin:miter;stroke-opacity:1" d="M 859.486,413.541 877.688,427.193 z" id="boundary" inkscape:connector-curvature="0" />
	<path style="fill:none;stroke:red;stroke-width:1px;stroke-linecap:butt;stroke-linejoin:miter;stroke-opacity:1" d="M 877.688,427.193 898.165,438.569 z" id="boundary" inkscape:connector-curvature="0" />
	<path style="fill:none;stroke:red;stroke-width:1px;stroke-linecap:butt;stroke-linejoin:miter;stroke-opacity:1" d="M 898.165,438.569 916.367,454.495 z" id="boundary" inkscape:connector-curvature="0" />
	<path style="fill:none;stroke:red;stroke-width:1px;stroke-linecap:butt;stroke-linejoin:miter;stroke-opacity:1" d="M 916.367,454.495 939.119,459.046 z" id="boundary" inkscape:connector-curvature="0" />
	<path style="fill:none;stroke:red;stroke-width:1px;stroke-linecap:butt;stroke-linejoin:miter;stroke-opacity:1" d="M 939.119,459.046 959.596,470.422 z" id="boundary" inkscape:connector-curvature="0" />
	<path style="fill:none;stroke:red;stroke-width:1px;stroke-linecap:butt;stroke-linejoin:miter;stroke-opacity:1" d="M 959.596,470.422 980.073,481.798 z" id="boundary" inkscape:connector-curvature="0" />
	<path style="fill:none;stroke:red;stroke-width:1px;stroke-linecap:butt;stroke-linejoin:miter;stroke-opacity:1" d="M 980.073,481.798 996,500 z" id="boundary" inkscape:connector-curvature="0" />
	<path style="fill:none;stroke:red;stroke-width:1px;stroke-linecap:butt;stroke-linejoin:miter;stroke-opacity:1" d="M 222.422,418.092 204.22,436.294 z" id="boundary" inkscape:connector-curvature="0" />
	<path style="fill:none;stroke:red;stroke-width:1px;stroke-linecap:butt;stroke-linejoin:miter;stroke-opacity:1" d="M 204.22,436.294 186.018,454.495 z" id="boundary" inkscape:connector-curvature="0" />
	<path style="fill:none;stroke:red;stroke-width:1px;stroke-linecap:butt;stroke-linejoin:miter;stroke-opacity:1" d="M 186.018,454.495 174.642,477.248 z" id="boundary" inkscape:connector-curvature="0" />
	<path style="fill:none;stroke:red;stroke-width:1px;stroke-linecap:butt;stroke-linejoin:miter;stroke-opacity:1" d="M 174.642,477.248 163.266,500 z" id="boundary" inkscape:connector-curvature="0" />
	<path style="fill:none;stroke:red;stroke-width:1px;stroke-linecap:butt;stroke-linejoin:miter;stroke-opacity:1" d="M 163.266,500 163.266,522.752 z" id="boundary" inkscape:connector-curvature="0" />
	<path style="fill:none;stroke:red;stroke-width:1px;stroke-linecap:butt;stroke-linejoin:miter;stroke-opacity:1" d="M 163.266,522.752 163.266,545.505 z" id="boundary" inkscape:connector-curvature="0" />
	<path style="fill:none;stroke:red;stroke-width:1px;stroke-linecap:butt;stroke-linejoin:miter;stroke-opacity:1" d="M 163.266,545.505 163.266,568.257 z" id="boundary" inkscape:connector-curvature="0" />
	<path style="fill:none;stroke:red;stroke-width:1px;stroke-linecap:butt;stroke-linejoin:miter;stroke-opacity:1" d="M 163.266,568.257 163.266,591.009 z" id="boundary" inkscape:connector-curvature="0" />
	<path style="fill:none;stroke:red;stroke-width:1px;stroke-linecap:butt;stroke-linejoin:miter;stroke-opacity:1" d="M 163.266,591.009 163.266,613.761 z" id="boundary" inkscape:connector-curvature="0" />
	<path style="fill:none;stroke:red;stroke-width:1px;stroke-linecap:butt;stroke-linejoin:miter;stroke-opacity:1" d="M 163.266,613.761 163.266,636.514 z" id="boundary" inkscape:connector-curvature="0" />
	<path style="fill:none;stroke:red;stroke-width:1px;stroke-linecap:butt;stroke-linejoin:miter;stroke-opacity:1" d="M 163.266,636.514 163.266,659.266 z" id="boundary" inkscape:connector-curvature="0" />
	<path style="fill:none;stroke:red;stroke-width:1px;stroke-linecap:butt;stroke-linejoin:miter;stroke-opacity:1" d="M 163.266,659.266 163.266,682.018 z" id="boundary" inkscape:connector-curvature="0" />
	<path style="fill:none;stroke:red;stroke-width:1px;stroke-linecap:butt;stroke-linejoin:miter;stroke-opacity:1" d="M 163.266,682.018 163.266,704.771 z" id="boundary" inkscape:connector-curvature="0" />
	<path style="fill:none;stroke:red;stroke-width:1px;stroke-linecap:butt;stroke-linejoin:miter;stroke-opacity:1" d="M 163.266,704.771 163.266,727.523 z" id="boundary" inkscape:connector-curvature="0" />
	<path style="fill:none;stroke:red;stroke-width:1px;stroke-linecap:butt;stroke-linejoin:miter;stroke-opacity:1" d="M 163.266,727.523 163.266,750.275 z" id="boundary" inkscape:connector-curvature="0" />
	<path style="fill:none;stroke:red;stroke-width:1px;stroke-linecap:butt;stroke-linejoin:miter;stroke-opacity:1" d="M 163.266,750.275 163.266,773.028 z" id="boundary" inkscape:connector-curvature="0" />
	<path style="fill:none;stroke:red;stroke-width:1px;stroke-linecap:butt;stroke-linejoin:miter;stroke-opacity:1" d="M 163.266,773.028 163.266,795.78 z" id="boundary" inkscape:connector-curvature="0" />
	<path style="fill:none;stroke:red;stroke-width:1px;stroke-linecap:butt;stroke-linejoin:miter;stroke-opacity:1" d="M 163.266,795.78 163.266,818.532 z" id="boundary" inkscape:connector-curvature="0" />
	<path style="fill:none;stroke:red;stroke-width:1px;stroke-linecap:butt;stroke-linejoin:miter;stroke-opacity:1" d="M 163.266,818.532 147.339,845.835 z" id="boundary" inkscape:connector-curvature="0" />
	<path style="fill:none;stroke:red;stroke-width:1px;stroke-linecap:butt;stroke-linejoin:miter;stroke-opacity:1" d="M 147.339,845.835 124.587,845.835 z" id="boundary" inkscape:connector-curvature="0" />
	<path style="fill:none;stroke:red;stroke-width:1px;stroke-linecap:butt;stroke-linejoin:miter;stroke-opacity:1" d="M 124.587,845.835 106.385,864.037 z" id="boundary" inkscape:connector-curvature="0" />
	<path style="fill:none;stroke:red;stroke-width:1px;stroke-linecap:butt;stroke-linejoin:miter;stroke-opacity:1" d="M 106.385,864.037 106.385,886.789 z" id="boundary" inkscape:connector-curvature="0" />
	<path style="fill:none;stroke:red;stroke-width:1px;stroke-linecap:butt;stroke-linejoin:miter;stroke-opacity:1" d="M 106.385,886.789 129.138,893.615 z" id="boundary" inkscape:connector-curvature="0" />
	<path style="fill:none;stroke:red;stroke-width:1px;stroke-linecap:butt;stroke-linejoin:miter;stroke-opacity:1" d="M 129.138,893.615 151.89,893.615 z" id="boundary" inkscape:connector-curvature="0" />
	<path style="fill:none;stroke:red;stroke-width:1px;stroke-linecap:butt;stroke-linejoin:miter;stroke-opacity:1" d="M 151.89,893.615 174.642,893.615 z" id="boundary" inkscape:connector-curvature="0" />
	<path style="fill:none;stroke:red;stroke-width:1px;stroke-linecap:butt;stroke-linejoin:miter;stroke-opacity:1" d="M 174.642,893.615 197.394,893.615 z" id="boundary" inkscape:connector-curvature="0" />
	<path style="fill:none;stroke:red;stroke-width:1px;stroke-linecap:butt;stroke-linejoin:miter;stroke-opacity:1" d="M 197.394,893.615 220.147,893.615 z" id="boundary" inkscape:connector-curvature="0" />
	<path style="fill:none;stroke:red;stroke-width:1px;stroke-linecap:butt;stroke-linejoin:miter;stroke-opacity:1" d="M 220.147,893.615 242.899,893.615 z" id="boundary" inkscape:connector-curvature="0" />
	<path style="fill:none;stroke:red;stroke-width:1px;stroke-linecap:butt;stroke-linejoin:miter;stroke-opacity:1" d="M 242.899,893.615 265.651,893.615 z" id="boundary" inkscape:connector-curvature="0" />
	<path style="fill:none;stroke:red;stroke-width:1px;stroke-linecap:butt;stroke-linejoin:miter;stroke-opacity:1" d="M 265.651,893.615 283.853,879.963 z" id="boundary" inkscape:connector-curvature="0" />
	<path style="fill:none;stroke:red;stroke-width:1px;stroke-linecap:butt;stroke-linejoin:miter;stroke-opacity:1" d="M 996,500 982.349,529.578 z" id="boundary" inkscape:connector-curvature="0" />
	<path style="fill:none;stroke:red;stroke-width:1px;stroke-linecap:butt;stroke-linejoin:miter;stroke-opacity:1" d="M 982.349,529.578 959.596,529.578 z" id="boundary" inkscape:connector-curvature="0" />
	<path style="fill:none;stroke:red;stroke-width:1px;stroke-linecap:butt;stroke-linejoin:miter;stroke-opacity:1" d="M 959.596,529.578 936.844,529.578 z" id="boundary" inkscape:connector-curvature="0" />
	<path style="fill:none;stroke:red;stroke-width:1px;stroke-linecap:butt;stroke-linejoin:miter;stroke-opacity:1" d="M 936.844,529.578 914.092,529.578 z" id="boundary" inkscape:connector-curvature="0" />
	<path style="fill:none;stroke:red;stroke-width:1px;stroke-linecap:butt;stroke-linejoin:miter;stroke-opacity:1" d="M 914.092,529.578 891.339,529.578 z" id="boundary" inkscape:connector-curvature="0" />
	<path style="fill:none;stroke:red;stroke-width:1px;stroke-linecap:butt;stroke-linejoin:miter;stroke-opacity:1" d="M 891.339,529.578 870.862,540.954 z" id="boundary" inkscape:connector-curvature="0" />
	<path style="fill:none;stroke:red;stroke-width:1px;stroke-linecap:butt;stroke-linejoin:miter;stroke-opacity:1" d="M 870.862,540.954 848.11,540.954 z" id="boundary" inkscape:connector-curvature="0" />
	<path style="fill:none;stroke:red;stroke-width:1px;stroke-linecap:butt;stroke-linejoin:miter;stroke-opacity:1" d="M 848.11,540.954 825.358,540.954 z" id="boundary" inkscape:connector-curvature="0" />
	<path style="fill:none;stroke:red;stroke-width:1px;stroke-linecap:butt;stroke-linejoin:miter;stroke-opacity:1" d="M 825.358,540.954 802.606,540.954 z" id="boundary" inkscape:connector-curvature="0" />
	<path style="fill:none;stroke:red;stroke-width:1px;stroke-linecap:butt;stroke-linejoin:miter;stroke-opacity:1" d="M 802.606,540.954 779.853,552.33 z" id="boundary" inkscape:connector-curvature="0" />
	<path style="fill:none;stroke:red;stroke-width:1px;stroke-linecap:butt;stroke-linejoin:miter;stroke-opacity:1" d="M 779.853,552.33 757.101,563.706 z" id="boundary" inkscape:connector-curvature="0" />
	<path style="fill:none;stroke:red;stroke-width:1px;stroke-linecap:butt;stroke-linejoin:miter;stroke-opacity:1" d="M 757.101,563.706 741.174,581.908 z" id="boundary" inkscape:connector-curvature="0" />
	<path style="fill:none;stroke:red;stroke-width:1px;stroke-linecap:butt;stroke-linejoin:miter;stroke-opacity:1" d="M 741.174,581.908 718.422,593.284 z" id="boundary" inkscape:connector-curvature="0" />
	<path style="fill:none;stroke:red;stroke-width:1px;stroke-linecap:butt;stroke-linejoin:miter;stroke-opacity:1" d="M 718.422,593.284 700.22,609.211 z" id="boundary" inkscape:connector-curvature="0" />
	<path style="fill:none;stroke:red;stroke-width:1px;stroke-linecap:butt;stroke-linejoin:miter;stroke-opacity:1" d="M 700.22,609.211 688.844,631.963 z" id="boundary" inkscape:connector-curvature="0" />
	<path style="fill:none;stroke:red;stroke-width:1px;stroke-linecap:butt;stroke-linejoin:miter;stroke-opacity:1" d="M 688.844,631.963 677.468,654.716 z" id="boundary" inkscape:connector-curvature="0" />
	<path style="fill:none;stroke:red;stroke-width:1px;stroke-linecap:butt;stroke-linejoin:miter;stroke-opacity:1" d="M 677.468,654.716 654.716,677.468 z" id="boundary" inkscape:connector-curvature="0" />
	<path style="fill:none;stroke:red;stroke-width:1px;stroke-linecap:butt;stroke-linejoin:miter;stroke-opacity:1" d="M 654.716,677.468 631.963,688.844 z" id="boundary" inkscape:connector-curvature="0" />
	<path style="fill:none;stroke:red;stroke-width:1px;stroke-linecap:butt;stroke-linejoin:miter;stroke-opacity:1" d="M 631.963,688.844 611.486,700.22 z" id="boundary" inkscape:connector-curvature="0" />
	<path style="fill:none;stroke:red;stroke-width:1px;stroke-linecap:butt;stroke-linejoin:miter;stroke-opacity:1" d="M 611.486,700.22 591.009,688.844 z" id="boundary" inkscape:connector-curvature="0" />
	<path style="fill:none;stroke:red;stroke-width:1px;stroke-linecap:butt;stroke-linejoin:miter;stroke-opacity:1" d="M 591.009,688.844 570.532,677.468 z" id="boundary" inkscape:connector-curvature="0" />
	<path style="fill:none;stroke:red;stroke-width:1px;stroke-linecap:butt;stroke-linejoin:miter;stroke-opacity:1" d="M 570.532,677.468 550.055,666.092 z" id="boundary" inkscape:connector-curvature="0" />
	<path style="fill:none;stroke:red;stroke-width:1px;stroke-linecap:butt;stroke-linejoin:miter;stroke-opacity:1" d="M 550.055,666.092 527.303,656.991 z" id="boundary" inkscape:connector-curvature="0" />
	<path style="fill:none;stroke:red;stroke-width:1px;stroke-linecap:butt;stroke-linejoin:miter;stroke-opacity:1" d="M 527.303,656.991 515.927,636.514 z" id="boundary" inkscape:connector-curvature="0" />
	<path style="fill:none;stroke:red;stroke-width:1px;stroke-linecap:butt;stroke-linejoin:miter;stroke-opacity:1" d="M 515.927,636.514 515.927,613.761 z" id="boundary" inkscape:connector-curvature="0" />
	<path style="fill:none;stroke:red;stroke-width:1px;stroke-linecap:butt;stroke-linejoin:miter;stroke-opacity:1" d="M 515.927,613.761 504.55,593.284 z" id="boundary" inkscape:connector-curvature="0" />
	<path style="fill:none;stroke:red;stroke-width:1px;stroke-linecap:butt;stroke-linejoin:miter;stroke-opacity:1" d="M 504.55,593.284 493.174,572.807 z" id="boundary" inkscape:connector-curvature="0" />
	<path style="fill:none;stroke:red;stroke-width:1px;stroke-linecap:butt;stroke-linejoin:miter;stroke-opacity:1" d="M 493.174,572.807 486.349,550.055 z" id="boundary" inkscape:connector-curvature="0" />
	<path style="fill:none;stroke:red;stroke-width:1px;stroke-linecap:butt;stroke-linejoin:miter;stroke-opacity:1" d="M 486.349,550.055 481.798,527.303 z" id="boundary" inkscape:connector-curvature="0" />
	<path style="fill:none;stroke:red;stroke-width:1px;stroke-linecap:butt;stroke-linejoin:miter;stroke-opacity:1" d="M 481.798,527.303 470.422,506.826 z" id="boundary" inkscape:connector-curvature="0" />
	<path style="fill:none;stroke:red;stroke-width:1px;stroke-linecap:butt;stroke-linejoin:miter;stroke-opacity:1" d="M 470.422,506.826 470.422,484.073 z" id="boundary" inkscape:connector-curvature="0" />
	<path style="fill:none;stroke:red;stroke-width:1px;stroke-linecap:butt;stroke-linejoin:miter;stroke-opacity:1" d="M 470.422,484.073 463.596,461.321 z" id="boundary" inkscape:connector-curvature="0" />
	<path style="fill:none;stroke:red;stroke-width:1px;stroke-linecap:butt;stroke-linejoin:miter;stroke-opacity:1" d="M 463.596,461.321 440.844,461.321 z" id="boundary" inkscape:connector-curvature="0" />
	<path style="fill:none;stroke:red;stroke-width:1px;stroke-linecap:butt;stroke-linejoin:miter;stroke-opacity:1" d="M 440.844,461.321 418.092,461.321 z" id="boundary" inkscape:connector-curvature="0" />
	<path style="fill:none;stroke:red;stroke-width:1px;stroke-linecap:butt;stroke-linejoin:miter;stroke-opacity:1" d="M 418.092,461.321 397.615,472.697 z" id="boundary" inkscape:connector-curvature="0" />
	<path style="fill:none;stroke:red;stroke-width:1px;stroke-linecap:butt;stroke-linejoin:miter;stroke-opacity:1" d="M 397.615,472.697 377.138,484.073 z" id="boundary" inkscape:connector-curvature="0" />
	<path style="fill:none;stroke:red;stroke-width:1px;stroke-linecap:butt;stroke-linejoin:miter;stroke-opacity:1" d="M 377.138,484.073 356.661,495.45 z" id="boundary" inkscape:connector-curvature="0" />
	<path style="fill:none;stroke:red;stroke-width:1px;stroke-linecap:butt;stroke-linejoin:miter;stroke-opacity:1" d="M 356.661,495.45 333.908,495.45 z" id="boundary" inkscape:connector-curvature="0" />
	<path style="fill:none;stroke:red;stroke-width:1px;stroke-linecap:butt;stroke-linejoin:miter;stroke-opacity:1" d="M 333.908,495.45 311.156,495.45 z" id="boundary" inkscape:connector-curvature="0" />
	<path style="fill:none;stroke:red;stroke-width:1px;stroke-linecap:butt;stroke-linejoin:miter;stroke-opacity:1" d="M 311.156,495.45 288.404,495.45 z" id="boundary" inkscape:connector-curvature="0" />
	<path style="fill:none;stroke:red;stroke-width:1px;stroke-linecap:butt;stroke-linejoin:miter;stroke-opacity:1" d="M 288.404,495.45 265.651,495.45 z" id="boundary" inkscape:connector-curvature="0" />
	<path style="fill:none;stroke:red;stroke-width:1px;stroke-linecap:butt;stroke-linejoin:miter;stroke-opacity:1" d="M 265.651,495.45 245.174,506.826 z" id="boundary" inkscape:connector-curvature="0" />
	<path style="fill:none;stroke:red;stroke-width:1px;stroke-linecap:butt;stroke-linejoin:miter;stroke-opacity:1" d="M 245.174,506.826 245.174,529.578 z" id="boundary" inkscape:connector-curvature="0" />
	<path style="fill:none;stroke:red;stroke-width:1px;stroke-linecap:butt;stroke-linejoin:miter;stroke-opacity:1" d="M 245.174,529.578 245.174,552.33 z" id="boundary" inkscape:connector-curvature="0" />
	<path style="fill:none;stroke:red;stroke-width:1px;stroke-linecap:butt;stroke-linejoin:miter;stroke-opacity:1" d="M 245.174,552.33 245.174,575.083 z" id="boundary" inkscape:connector-curvature="0" />
	<path style="fill:none;stroke:red;stroke-width:1px;stroke-linecap:butt;stroke-linejoin:miter;stroke-opacity:1" d="M 245.174,575.083 245.174,597.835 z" id="boundary" inkscape:connector-curvature="0" />
	<path style="fill:none;stroke:red;stroke-width:1px;stroke-linecap:butt;stroke-linejoin:miter;stroke-opacity:1" d="M 245.174,597.835 245.174,620.587 z" id="boundary" inkscape:connector-curvature="0" />
	<path style="fill:none;stroke:red;stroke-width:1px;stroke-linecap:butt;stroke-linejoin:miter;stroke-opacity:1" d="M 245.174,620.587 245.174,643.339 z" id="boundary" inkscape:connector-curvature="0" />
	<path style="fill:none;stroke:red;stroke-width:1px;stroke-linecap:butt;stroke-linejoin:miter;stroke-opacity:1" d="M 245.174,643.339 245.174,666.092 z" id="boundary" inkscape:connector-curvature="0" />
	<path style="fill:none;stroke:red;stroke-width:1px;stroke-linecap:butt;stroke-linejoin:miter;stroke-opacity:1" d="M 245.174,666.092 245.174,688.844 z" id="boundary" inkscape:connector-curvature="0" />
	<path style="fill:none;stroke:red;stroke-width:1px;stroke-linecap:butt;stroke-linejoin:miter;stroke-opacity:1" d="M 245.174,688.844 245.174,711.596 z" id="boundary" inkscape:connector-curvature="0" />
	<path style="fill:none;stroke:red;stroke-width:1px;stroke-linecap:butt;stroke-linejoin:miter;stroke-opacity:1" d="M 245.174,711.596 249.725,734.349 z" id="boundary" inkscape:connector-curvature="0" />
	<path style="fill:none;stroke:red;stroke-width:1px;stroke-linecap:butt;stroke-linejoin:miter;stroke-opacity:1" d="M 249.725,734.349 261.101,754.826 z" id="boundary" inkscape:connector-curvature="0" />
	<path style="fill:none;stroke:red;stroke-width:1px;stroke-linecap:butt;stroke-linejoin:miter;stroke-opacity:1" d="M 261.101,754.826 267.927,777.578 z" id="boundary" inkscape:connector-curvature="0" />
	<path style="fill:none;stroke:red;stroke-width:1px;stroke-linecap:butt;stroke-linejoin:miter;stroke-opacity:1" d="M 267.927,777.578 279.303,798.055 z" id="boundary" inkscape:connector-curvature="0" />
	<path style="fill:none;stroke:red;stroke-width:1px;stroke-linecap:butt;stroke-linejoin:miter;stroke-opacity:1" d="M 279.303,798.055 279.303,820.807 z" id="boundary" inkscape:connector-curvature="0" />
	<path style="fill:none;stroke:red;stroke-width:1px;stroke-linecap:butt;stroke-linejoin:miter;stroke-opacity:1" d="M 279.303,820.807 290.679,841.284 z" id="boundary" inkscape:connector-curvature="0" />
	<path style="fill:none;stroke:red;stroke-width:1px;stroke-linecap:butt;stroke-linejoin:miter;stroke-opacity:1" d="M 290.679,841.284 283.853,879.963 z" id="boundary" inkscape:connector-curvature="0" />
	<circle cx="4" cy="90.4587" r="4" fill="#0" id="circle0"/>
	<circle cx="4" cy="113.211" r="4" fill="#0" id="circle1"/>
	<circle cx="4" cy="135.963" r="4" fill="#0" id="circle2"/>
	<circle cx="15.3761" cy="67.7064" r="4" fill="#0" id="circle3"/>
	<circle cx="15.3761" cy="156.44" r="4" fill="#0" id="circle4"/>
	<circle cx="26.7523" cy="44.9541" r="4" fill="#0" id="circle5"/>
	<circle cx="26.7523" cy="176.917" r="4" fill="#0" id="circle6"/>
	<circle cx="38.1284" cy="22.2018" r="4" fill="#0" id="circle7"/>
	<circle cx="40.4037" cy="195.119" r="4" fill="#0" id="circle8"/>
	<circle cx="60.8807" cy="10.8257" r="4" fill="#0" id="circle9"/>
	<circle cx="63.156" cy="204.22" r="4" fill="#0" id="circle10"/>
	<circle cx="83.633" cy="4" r="4" fill="#0" id="circle11"/>
	<circle cx="83.633" cy="215.596" r="4" fill="#0" id="circle12"/>
	<circle cx="83.633" cy="238.349" r="4" fill="#0" id="circle13"/>
	<circle cx="95.0092" cy="258.826" r="4" fill="#0" id="circle14"/>
	<circle cx="106.385" cy="8.55046" r="4" fill="#0" id="circle15"/>
	<circle cx="106.385" cy="279.303" r="4" fill="#0" id="circle16"/>
	<circle cx="106.385" cy="864.037" r="4" fill="#0" id="circle17"/>
	<circle cx="106.385" cy="886.789" r="4" fill="#0" id="circle18"/>
	<circle cx="120.037" cy="297.505" r="4" fill="#0" id="circle19"/>
	<circle cx="124.587" cy="845.835" r="4" fill="#0" id="circle20"/>
	<circle cx="126.862" cy="19.9266" r="4" fill="#0" id="circle21"/>
	<circle cx="129.138" cy="893.615" r="4" fill="#0" id="circle22"/>
	<circle cx="138.239" cy="313.431" r="4" fill="#0" id="circle23"/>
	<circle cx="142.789" cy="38.1284" r="4" fill="#0" id="circle24"/>
	<circle cx="147.339" cy="845.835" r="4" fill="#0" id="circle25"/>
	<circle cx="151.89" cy="893.615" r="4" fill="#0" id="circle26"/>
	<circle cx="154.165" cy="331.633" r="4" fill="#0" id="circle27"/>
	<circle cx="160.991" cy="51.7798" r="4" fill="#0" id="circle28"/>
	<circle cx="163.266" cy="500" r="4" fill="#0" id="circle29"/>
	<circle cx="163.266" cy="522.752" r="4" fill="#0" id="circle30"/>
	<circle cx="163.266" cy="545.505" r="4" fill="#0" id="circle31"/>
	<circle cx="163.266" cy="568.257" r="4" fill="#0" id="circle32"/>
	<circle cx="163.266" cy="591.009" r="4" fill="#0" id="circle33"/>
	<circle cx="163.266" cy="613.761" r="4" fill="#0" id="circle34"/>
	<circle cx="163.266" cy="636.514" r="4" fill="#0" id="circle35"/>
	<circle cx="163.266" cy="659.266" r="4" fill="#0" id="circle36"/>
	<circle cx="163.266" cy="682.018" r="4" fill="#0" id="circle37"/>
	<circle cx="163.266" cy="704.771" r="4" fill="#0" id="circle38"/>
	<circle cx="163.266" cy="727.523" r="4" fill="#0" id="circle39"/>
	<circle cx="163.266" cy="750.275" r="4" fill="#0" id="circle40"/>
	<circle cx="163.266" cy="773.028" r="4" fill="#0" id="circle41"/>
	<circle cx="163.266" cy="795.78" r="4" fill="#0" id="circle42"/>
	<circle cx="163.266" cy="818.532" r="4" fill="#0" id="circle43"/>
	<circle cx="170.092" cy="74.5321" r="4" fill="#0" id="circle44"/>
	<circle cx="174.642" cy="477.248" r="4" fill="#0" id="circle45"/>
	<circle cx="174.642" cy="893.615" r="4" fill="#0" id="circle46"/>
	<circle cx="176.917" cy="97.2844" r="4" fill="#0" id="circle47"/>
	<circle cx="176.917" cy="340.734" r="4" fill="#0" id="circle48"/>
	<circle cx="186.018" cy="454.495" r="4" fill="#0" id="circle49"/>
	<circle cx="197.394" cy="352.11" r="4" fill="#0" id="circle50"/>
	<circle cx="197.394" cy="893.615" r="4" fill="#0" id="circle51"/>
	<circle cx="199.67" cy="106.385" r="4" fill="#0" id="circle52"/>
	<circle cx="204.22" cy="436.294" r="4" fill="#0" id="circle53"/>
	<circle cx="220.147" cy="358.936" r="4" fill="#0" id="circle54"/>
	<circle cx="220.147" cy="893.615" r="4" fill="#0" id="circle55"/>
	<circle cx="222.422" cy="106.385" r="4" fill="#0" id="circle56"/>
	<circle cx="222.422" cy="418.092" r="4" fill="#0" id="circle57"/>
	<circle cx="242.899" cy="358.936" r="4" fill="#0" id="circle58"/>
	<circle cx="242.899" cy="893.615" r="4" fill="#0" id="circle59"/>
	<circle cx="245.174" cy="106.385" r="4" fill="#0" id="circle60"/>
	<circle cx="245.174" cy="406.716" r="4" fill="#0" id="circle61"/>
	<circle cx="245.174" cy="506.826" r="4" fill="#0" id="circle62"/>
	<circle cx="245.174" cy="529.578" r="4" fill="#0" id="circle63"/>
	<circle cx="245.174" cy="552.33" r="4" fill="#0" id="circle64"/>
	<circle cx="245.174" cy="575.083" r="4" fill="#0" id="circle65"/>
	<circle cx="245.174" cy="597.835" r="4" fill="#0" id="circle66"/>
	<circle cx="245.174" cy="620.587" r="4" fill="#0" id="circle67"/>
	<circle cx="245.174" cy="643.339" r="4" fill="#0" id="circle68"/>
	<circle cx="245.174" cy="666.092" r="4" fill="#0" id="circle69"/>
	<circle cx="245.174" cy="688.844" r="4" fill="#0" id="circle70"/>
	<circle cx="245.174" cy="711.596" r="4" fill="#0" id="circle71"/>
	<circle cx="249.725" cy="734.349" r="4" fill="#0" id="circle72"/>
	<circle cx="261.101" cy="754.826" r="4" fill="#0" id="circle73"/>
	<circle cx="263.376" cy="370.312" r="4" fill="#0" id="circle74"/>
	<circle cx="265.651" cy="393.064" r="4" fill="#0" id="circle75"/>
	<circle cx="265.651" cy="495.45" r="4" fill="#0" id="circle76"/>
	<circle cx="265.651" cy="893.615" r="4" fill="#0" id="circle77"/>
	<circle cx="267.927" cy="106.385" r="4" fill="#0" id="circle78"/>
	<circle cx="267.927" cy="777.578" r="4" fill="#0" id="circle79"/>
	<circle cx="279.303" cy="798.055" r="4" fill="#0" id="circle80"/>
	<circle cx="279.303" cy="820.807" r="4" fill="#0" id="circle81"/>
	<circle cx="283.853" cy="879.963" r="4" fill="#0" id="circle82"/>
	<circle cx="288.404" cy="495.45" r="4" fill="#0" id="circle83"/>
	<circle cx="290.679" cy="106.385" r="4" fill="#0" id="circle84"/>
	<circle cx="290.679" cy="841.284" r="4" fill="#0" id="circle85"/>
	<circle cx="311.156" cy="495.45" r="4" fill="#0" id="circle86"/>
	<circle cx="313.431" cy="106.385" r="4" fill="#0" id="circle87"/>
	<circle cx="333.908" cy="495.45" r="4" fill="#0" id="circle88"/>
	<circle cx="336.183" cy="113.211" r="4" fill="#0" id="circle89"/>
	<circle cx="356.661" cy="124.587" r="4" fill="#0" id="circle90"/>
	<circle cx="356.661" cy="495.45" r="4" fill="#0" id="circle91"/>
	<circle cx="377.138" cy="484.073" r="4" fill="#0" id="circle92"/>
	<circle cx="379.413" cy="133.688" r="4" fill="#0" id="circle93"/>
	<circle cx="397.615" cy="472.697" r="4" fill="#0" id="circle94"/>
	<circle cx="399.89" cy="145.064" r="4" fill="#0" id="circle95"/>
	<circle cx="415.817" cy="163.266" r="4" fill="#0" id="circle96"/>
	<circle cx="418.092" cy="461.321" r="4" fill="#0" id="circle97"/>
	<circle cx="434.018" cy="176.917" r="4" fill="#0" id="circle98"/>
	<circle cx="440.844" cy="461.321" r="4" fill="#0" id="circle99"/>
	<circle cx="449.945" cy="195.119" r="4" fill="#0" id="circle100"/>
	<circle cx="463.596" cy="461.321" r="4" fill="#0" id="circle101"/>
	<circle cx="470.422" cy="484.073" r="4" fill="#0" id="circle102"/>
	<circle cx="470.422" cy="506.826" r="4" fill="#0" id="circle103"/>
	<circle cx="472.697" cy="204.22" r="4" fill="#0" id="circle104"/>
	<circle cx="481.798" cy="527.303" r="4" fill="#0" id="circle105"/>
	<circle cx="486.349" cy="550.055" r="4" fill="#0" id="circle106"/>
	<circle cx="493.174" cy="215.596" r="4" fill="#0" id="circle107"/>
	<circle cx="493.174" cy="572.807" r="4" fill="#0" id="circle108"/>
	<circle cx="504.55" cy="593.284" r="4" fill="#0" id="circle109"/>
	<circle cx="511.376" cy="231.523" r="4" fill="#0" id="circle110"/>
	<circle cx="515.927" cy="613.761" r="4" fill="#0" id="circle111"/>
	<circle cx="515.927" cy="636.514" r="4" fill="#0" id="circle112"/>
	<circle cx="527.303" cy="249.725" r="4" fill="#0" id="circle113"/>
	<circle cx="527.303" cy="656.991" r="4" fill="#0" id="circle114"/>
	<circle cx="538.679" cy="270.202" r="4" fill="#0" id="circle115"/>
	<circle cx="550.055" cy="666.092" r="4" fill="#0" id="circle116"/>
	<circle cx="559.156" cy="281.578" r="4" fill="#0" id="circle117"/>
	<circle cx="570.532" cy="302.055" r="4" fill="#0" id="circle118"/>
	<circle cx="570.532" cy="677.468" r="4" fill="#0" id="circle119"/>
	<circle cx="586.459" cy="320.257" r="4" fill="#0" id="circle120"/>
	<circle cx="591.009" cy="688.844" r="4" fill="#0" id="circle121"/>
	<circle cx="597.835" cy="340.734" r="4" fill="#0" id="circle122"/>
	<circle cx="606.936" cy="363.486" r="4" fill="#0" id="circle123"/>
	<circle cx="611.486" cy="700.22" r="4" fill="#0" id="circle124"/>
	<circle cx="618.312" cy="383.963" r="4" fill="#0" id="circle125"/>
	<circle cx="620.587" cy="406.716" r="4" fill="#0" id="circle126"/>
	<circle cx="620.587" cy="429.468" r="4" fill="#0" id="circle127"/>
	<circle cx="620.587" cy="452.22" r="4" fill="#0" id="circle128"/>
	<circle cx="620.587" cy="474.972" r="4" fill="#0" id="circle129"/>
	<circle cx="620.587" cy="497.725" r="4" fill="#0" id="circle130"/>
	<circle cx="620.587" cy="520.477" r="4" fill="#0" id="circle131"/>
	<circle cx="627.413" cy="543.229" r="4" fill="#0" id="circle132"/>
	<circle cx="631.963" cy="688.844" r="4" fill="#0" id="circle133"/>
	<circle cx="638.789" cy="563.706" r="4" fill="#0" id="circle134"/>
	<circle cx="654.716" cy="677.468" r="4" fill="#0" id="circle135"/>
	<circle cx="661.541" cy="572.807" r="4" fill="#0" id="circle136"/>
	<circle cx="677.468" cy="554.606" r="4" fill="#0" id="circle137"/>
	<circle cx="677.468" cy="654.716" r="4" fill="#0" id="circle138"/>
	<circle cx="688.844" cy="631.963" r="4" fill="#0" id="circle139"/>
	<circle cx="695.67" cy="538.679" r="4" fill="#0" id="circle140"/>
	<circle cx="700.22" cy="609.211" r="4" fill="#0" id="circle141"/>
	<circle cx="711.596" cy="520.477" r="4" fill="#0" id="circle142"/>
	<circle cx="718.422" cy="593.284" r="4" fill="#0" id="circle143"/>
	<circle cx="722.972" cy="497.725" r="4" fill="#0" id="circle144"/>
	<circle cx="741.174" cy="481.798" r="4" fill="#0" id="circle145"/>
	<circle cx="741.174" cy="581.908" r="4" fill="#0" id="circle146"/>
	<circle cx="757.101" cy="463.596" r="4" fill="#0" id="circle147"/>
	<circle cx="757.101" cy="563.706" r="4" fill="#0" id="circle148"/>
	<circle cx="768.477" cy="440.844" r="4" fill="#0" id="circle149"/>
	<circle cx="779.853" cy="418.092" r="4" fill="#0" id="circle150"/>
	<circle cx="779.853" cy="552.33" r="4" fill="#0" id="circle151"/>
	<circle cx="798.055" cy="402.165" r="4" fill="#0" id="circle152"/>
	<circle cx="802.606" cy="540.954" r="4" fill="#0" id="circle153"/>
	<circle cx="818.532" cy="390.789" r="4" fill="#0" id="circle154"/>
	<circle cx="825.358" cy="540.954" r="4" fill="#0" id="circle155"/>
	<circle cx="839.009" cy="402.165" r="4" fill="#0" id="circle156"/>
	<circle cx="848.11" cy="540.954" r="4" fill="#0" id="circle157"/>
	<circle cx="859.486" cy="413.541" r="4" fill="#0" id="circle158"/>
	<circle cx="870.862" cy="540.954" r="4" fill="#0" id="circle159"/>
	<circle cx="877.688" cy="427.193" r="4" fill="#0" id="circle160"/>
	<circle cx="891.339" cy="529.578" r="4" fill="#0" id="circle161"/>
	<circle cx="898.165" cy="438.569" r="4" fill="#0" id="circle162"/>
	<circle cx="914.092" cy="529.578" r="4" fill="#0" id="circle163"/>
	<circle cx="916.367" cy="454.495" r="4" fill="#0" id="circle164"/>
	<circle cx="936.844" cy="529.578" r="4" fill="#0" id="circle165"/>
	<circle cx="939.119" cy="459.046" r="4" fill="#0" id="circle166"/>
	<circle cx="959.596" cy="470.422" r="4" fill="#0" id="circle167"/>
	<circle cx="959.596" cy="529.578" r="4" fill="#0" id="circle168"/>
	<circle cx="980.073" cy="481.798" r="4" fill="#0" id="circle169"/>
	<circle cx="982.349" cy="529.578" r="4" fill="#0" id="circle170"/>
	<circle cx="996" cy="500" r="4" fill="#0" id="circle171"/>
	</g>
</svg>