<?xml version="1.0" encoding="UTF-8" standalone="no"?>
<!-- Created with CurveBenchmark -->
<svg
	xmlns:dc="http://purl.org/dc/elements/1.1/"
	xmlns:cc="http://creativecommons.org/ns#"
	xmlns:rdf="http://www.w3.org/1999/02/22-rdf-syntax-ns#"
	xmlns:svg="http://www.w3.org/2000/svg"
	xmlns="http://www.w3.org/2000/svg"
	xmlns:sodipodi="http://sodipodi.sourceforge.net/DTD/sodipodi-0.dtd"
	xmlns:inkscape="http://www.inkscape.org/namespaces/inkscape"
	width="1000"
	height="1000"
	id="svg2"
	version="1.1"
	sodipodi:docname="manifold/crawl-face08.png.txt">
<defs
	id="defs4" />
<metadata
	id="metadata7">
	<rdf:RDF>
		<cc:Work
			rdf:about="">
			<dc:format>image/svg+xml</dc:format>
			<dc:type
				rdf:resource="http://purl.org/dc/dcmitype/StillImage" />
			<dc:title></dc:title>
		</cc:Work>
	</rdf:RDF>
</metadata>
<g
	inkscape:label="Layer 1"
	inkscape:groupmode="layer"
	id="layer1">
	<path style="fill:none;stroke:red;stroke-width:1px;stroke-linecap:butt;stroke-linejoin:miter;stroke-opacity:1" d="M 4,450.891 4,467.261 z" id="boundary" inkscape:connector-curvature="0" />
	<path style="fill:none;stroke:red;stroke-width:1px;stroke-linecap:butt;stroke-linejoin:miter;stroke-opacity:1" d="M 4,467.261 4,483.63 z" id="boundary" inkscape:connector-curvature="0" />
	<path style="fill:none;stroke:red;stroke-width:1px;stroke-linecap:butt;stroke-linejoin:miter;stroke-opacity:1" d="M 4,483.63 12.1848,498.363 z" id="boundary" inkscape:connector-curvature="0" />
	<path style="fill:none;stroke:red;stroke-width:1px;stroke-linecap:butt;stroke-linejoin:miter;stroke-opacity:1" d="M 12.1848,498.363 12.1848,514.733 z" id="boundary" inkscape:connector-curvature="0" />
	<path style="fill:none;stroke:red;stroke-width:1px;stroke-linecap:butt;stroke-linejoin:miter;stroke-opacity:1" d="M 12.1848,514.733 12.1848,531.102 z" id="boundary" inkscape:connector-curvature="0" />
	<path style="fill:none;stroke:red;stroke-width:1px;stroke-linecap:butt;stroke-linejoin:miter;stroke-opacity:1" d="M 12.1848,531.102 20.3696,545.835 z" id="boundary" inkscape:connector-curvature="0" />
	<path style="fill:none;stroke:red;stroke-width:1px;stroke-linecap:butt;stroke-linejoin:miter;stroke-opacity:1" d="M 20.3696,545.835 20.3696,562.205 z" id="boundary" inkscape:connector-curvature="0" />
	<path style="fill:none;stroke:red;stroke-width:1px;stroke-linecap:butt;stroke-linejoin:miter;stroke-opacity:1" d="M 20.3696,562.205 25.2805,578.574 z" id="boundary" inkscape:connector-curvature="0" />
	<path style="fill:none;stroke:red;stroke-width:1px;stroke-linecap:butt;stroke-linejoin:miter;stroke-opacity:1" d="M 25.2805,578.574 33.4653,593.307 z" id="boundary" inkscape:connector-curvature="0" />
	<path style="fill:none;stroke:red;stroke-width:1px;stroke-linecap:butt;stroke-linejoin:miter;stroke-opacity:1" d="M 33.4653,593.307 44.9241,606.403 z" id="boundary" inkscape:connector-curvature="0" />
	<path style="fill:none;stroke:red;stroke-width:1px;stroke-linecap:butt;stroke-linejoin:miter;stroke-opacity:1" d="M 44.9241,606.403 53.1089,621.135 z" id="boundary" inkscape:connector-curvature="0" />
	<path style="fill:none;stroke:red;stroke-width:1px;stroke-linecap:butt;stroke-linejoin:miter;stroke-opacity:1" d="M 53.1089,621.135 61.2937,635.868 z" id="boundary" inkscape:connector-curvature="0" />
	<path style="fill:none;stroke:red;stroke-width:1px;stroke-linecap:butt;stroke-linejoin:miter;stroke-opacity:1" d="M 61.2937,635.868 71.1155,648.964 z" id="boundary" inkscape:connector-curvature="0" />
	<path style="fill:none;stroke:red;stroke-width:1px;stroke-linecap:butt;stroke-linejoin:miter;stroke-opacity:1" d="M 71.1155,648.964 84.2112,660.422 z" id="boundary" inkscape:connector-curvature="0" />
	<path style="fill:none;stroke:red;stroke-width:1px;stroke-linecap:butt;stroke-linejoin:miter;stroke-opacity:1" d="M 84.2112,660.422 94.033,673.518 z" id="boundary" inkscape:connector-curvature="0" />
	<path style="fill:none;stroke:red;stroke-width:1px;stroke-linecap:butt;stroke-linejoin:miter;stroke-opacity:1" d="M 94.033,673.518 95.67,689.888 z" id="boundary" inkscape:connector-curvature="0" />
	<path style="fill:none;stroke:red;stroke-width:1px;stroke-linecap:butt;stroke-linejoin:miter;stroke-opacity:1" d="M 95.67,689.888 102.218,706.257 z" id="boundary" inkscape:connector-curvature="0" />
	<path style="fill:none;stroke:red;stroke-width:1px;stroke-linecap:butt;stroke-linejoin:miter;stroke-opacity:1" d="M 102.218,706.257 110.403,720.99 z" id="boundary" inkscape:connector-curvature="0" />
	<path style="fill:none;stroke:red;stroke-width:1px;stroke-linecap:butt;stroke-linejoin:miter;stroke-opacity:1" d="M 110.403,720.99 118.587,735.723 z" id="boundary" inkscape:connector-curvature="0" />
	<path style="fill:none;stroke:red;stroke-width:1px;stroke-linecap:butt;stroke-linejoin:miter;stroke-opacity:1" d="M 118.587,735.723 126.772,750.455 z" id="boundary" inkscape:connector-curvature="0" />
	<path style="fill:none;stroke:red;stroke-width:1px;stroke-linecap:butt;stroke-linejoin:miter;stroke-opacity:1" d="M 126.772,750.455 141.505,758.64 z" id="boundary" inkscape:connector-curvature="0" />
	<path style="fill:none;stroke:red;stroke-width:1px;stroke-linecap:butt;stroke-linejoin:miter;stroke-opacity:1" d="M 141.505,758.64 143.142,775.01 z" id="boundary" inkscape:connector-curvature="0" />
	<path style="fill:none;stroke:red;stroke-width:1px;stroke-linecap:butt;stroke-linejoin:miter;stroke-opacity:1" d="M 143.142,775.01 143.142,791.38 z" id="boundary" inkscape:connector-curvature="0" />
	<path style="fill:none;stroke:red;stroke-width:1px;stroke-linecap:butt;stroke-linejoin:miter;stroke-opacity:1" d="M 143.142,791.38 143.142,807.749 z" id="boundary" inkscape:connector-curvature="0" />
	<path style="fill:none;stroke:red;stroke-width:1px;stroke-linecap:butt;stroke-linejoin:miter;stroke-opacity:1" d="M 143.142,807.749 143.142,824.119 z" id="boundary" inkscape:connector-curvature="0" />
	<path style="fill:none;stroke:red;stroke-width:1px;stroke-linecap:butt;stroke-linejoin:miter;stroke-opacity:1" d="M 143.142,824.119 143.142,840.488 z" id="boundary" inkscape:connector-curvature="0" />
	<path style="fill:none;stroke:red;stroke-width:1px;stroke-linecap:butt;stroke-linejoin:miter;stroke-opacity:1" d="M 143.142,840.488 151.327,855.221 z" id="boundary" inkscape:connector-curvature="0" />
	<path style="fill:none;stroke:red;stroke-width:1px;stroke-linecap:butt;stroke-linejoin:miter;stroke-opacity:1" d="M 151.327,855.221 159.512,869.954 z" id="boundary" inkscape:connector-curvature="0" />
	<path style="fill:none;stroke:red;stroke-width:1px;stroke-linecap:butt;stroke-linejoin:miter;stroke-opacity:1" d="M 159.512,869.954 167.696,884.686 z" id="boundary" inkscape:connector-curvature="0" />
	<path style="fill:none;stroke:red;stroke-width:1px;stroke-linecap:butt;stroke-linejoin:miter;stroke-opacity:1" d="M 167.696,884.686 180.792,896.145 z" id="boundary" inkscape:connector-curvature="0" />
	<path style="fill:none;stroke:red;stroke-width:1px;stroke-linecap:butt;stroke-linejoin:miter;stroke-opacity:1" d="M 180.792,896.145 192.251,909.241 z" id="boundary" inkscape:connector-curvature="0" />
	<path style="fill:none;stroke:red;stroke-width:1px;stroke-linecap:butt;stroke-linejoin:miter;stroke-opacity:1" d="M 192.251,909.241 205.347,920.7 z" id="boundary" inkscape:connector-curvature="0" />
	<path style="fill:none;stroke:red;stroke-width:1px;stroke-linecap:butt;stroke-linejoin:miter;stroke-opacity:1" d="M 205.347,920.7 216.805,933.795 z" id="boundary" inkscape:connector-curvature="0" />
	<path style="fill:none;stroke:red;stroke-width:1px;stroke-linecap:butt;stroke-linejoin:miter;stroke-opacity:1" d="M 216.805,933.795 233.175,938.706 z" id="boundary" inkscape:connector-curvature="0" />
	<path style="fill:none;stroke:red;stroke-width:1px;stroke-linecap:butt;stroke-linejoin:miter;stroke-opacity:1" d="M 233.175,938.706 242.997,951.802 z" id="boundary" inkscape:connector-curvature="0" />
	<path style="fill:none;stroke:red;stroke-width:1px;stroke-linecap:butt;stroke-linejoin:miter;stroke-opacity:1" d="M 242.997,951.802 256.092,963.261 z" id="boundary" inkscape:connector-curvature="0" />
	<path style="fill:none;stroke:red;stroke-width:1px;stroke-linecap:butt;stroke-linejoin:miter;stroke-opacity:1" d="M 256.092,963.261 267.551,976.356 z" id="boundary" inkscape:connector-curvature="0" />
	<path style="fill:none;stroke:red;stroke-width:1px;stroke-linecap:butt;stroke-linejoin:miter;stroke-opacity:1" d="M 267.551,976.356 283.921,982.904 z" id="boundary" inkscape:connector-curvature="0" />
	<path style="fill:none;stroke:red;stroke-width:1px;stroke-linecap:butt;stroke-linejoin:miter;stroke-opacity:1" d="M 283.921,982.904 295.38,996 z" id="boundary" inkscape:connector-curvature="0" />
	<path style="fill:none;stroke:red;stroke-width:1px;stroke-linecap:butt;stroke-linejoin:miter;stroke-opacity:1" d="M 295.38,996 311.749,996 z" id="boundary" inkscape:connector-curvature="0" />
	<path style="fill:none;stroke:red;stroke-width:1px;stroke-linecap:butt;stroke-linejoin:miter;stroke-opacity:1" d="M 311.749,996 328.119,996 z" id="boundary" inkscape:connector-curvature="0" />
	<path style="fill:none;stroke:red;stroke-width:1px;stroke-linecap:butt;stroke-linejoin:miter;stroke-opacity:1" d="M 328.119,996 344.488,994.363 z" id="boundary" inkscape:connector-curvature="0" />
	<path style="fill:none;stroke:red;stroke-width:1px;stroke-linecap:butt;stroke-linejoin:miter;stroke-opacity:1" d="M 344.488,994.363 360.858,987.815 z" id="boundary" inkscape:connector-curvature="0" />
	<path style="fill:none;stroke:red;stroke-width:1px;stroke-linecap:butt;stroke-linejoin:miter;stroke-opacity:1" d="M 360.858,987.815 375.591,979.63 z" id="boundary" inkscape:connector-curvature="0" />
	<path style="fill:none;stroke:red;stroke-width:1px;stroke-linecap:butt;stroke-linejoin:miter;stroke-opacity:1" d="M 375.591,979.63 390.323,971.446 z" id="boundary" inkscape:connector-curvature="0" />
	<path style="fill:none;stroke:red;stroke-width:1px;stroke-linecap:butt;stroke-linejoin:miter;stroke-opacity:1" d="M 390.323,971.446 405.056,963.261 z" id="boundary" inkscape:connector-curvature="0" />
	<path style="fill:none;stroke:red;stroke-width:1px;stroke-linecap:butt;stroke-linejoin:miter;stroke-opacity:1" d="M 405.056,963.261 418.152,953.439 z" id="boundary" inkscape:connector-curvature="0" />
	<path style="fill:none;stroke:red;stroke-width:1px;stroke-linecap:butt;stroke-linejoin:miter;stroke-opacity:1" d="M 4,450.891 12.1848,434.521 z" id="boundary" inkscape:connector-curvature="0" />
	<path style="fill:none;stroke:red;stroke-width:1px;stroke-linecap:butt;stroke-linejoin:miter;stroke-opacity:1" d="M 12.1848,434.521 28.5545,426.337 z" id="boundary" inkscape:connector-curvature="0" />
	<path style="fill:none;stroke:red;stroke-width:1px;stroke-linecap:butt;stroke-linejoin:miter;stroke-opacity:1" d="M 418.152,953.439 431.248,938.706 z" id="boundary" inkscape:connector-curvature="0" />
	<path style="fill:none;stroke:red;stroke-width:1px;stroke-linecap:butt;stroke-linejoin:miter;stroke-opacity:1" d="M 431.248,938.706 447.617,930.521 z" id="boundary" inkscape:connector-curvature="0" />
	<path style="fill:none;stroke:red;stroke-width:1px;stroke-linecap:butt;stroke-linejoin:miter;stroke-opacity:1" d="M 447.617,930.521 455.802,914.152 z" id="boundary" inkscape:connector-curvature="0" />
	<path style="fill:none;stroke:red;stroke-width:1px;stroke-linecap:butt;stroke-linejoin:miter;stroke-opacity:1" d="M 455.802,914.152 468.898,902.693 z" id="boundary" inkscape:connector-curvature="0" />
	<path style="fill:none;stroke:red;stroke-width:1px;stroke-linecap:butt;stroke-linejoin:miter;stroke-opacity:1" d="M 468.898,902.693 477.083,886.323 z" id="boundary" inkscape:connector-curvature="0" />
	<path style="fill:none;stroke:red;stroke-width:1px;stroke-linecap:butt;stroke-linejoin:miter;stroke-opacity:1" d="M 477.083,886.323 485.267,869.954 z" id="boundary" inkscape:connector-curvature="0" />
	<path style="fill:none;stroke:red;stroke-width:1px;stroke-linecap:butt;stroke-linejoin:miter;stroke-opacity:1" d="M 485.267,869.954 493.452,853.584 z" id="boundary" inkscape:connector-curvature="0" />
	<path style="fill:none;stroke:red;stroke-width:1px;stroke-linecap:butt;stroke-linejoin:miter;stroke-opacity:1" d="M 493.452,853.584 504.911,840.488 z" id="boundary" inkscape:connector-curvature="0" />
	<path style="fill:none;stroke:red;stroke-width:1px;stroke-linecap:butt;stroke-linejoin:miter;stroke-opacity:1" d="M 504.911,840.488 513.096,815.934 z" id="boundary" inkscape:connector-curvature="0" />
	<path style="fill:none;stroke:red;stroke-width:1px;stroke-linecap:butt;stroke-linejoin:miter;stroke-opacity:1" d="M 513.096,815.934 513.096,799.564 z" id="boundary" inkscape:connector-curvature="0" />
	<path style="fill:none;stroke:red;stroke-width:1px;stroke-linecap:butt;stroke-linejoin:miter;stroke-opacity:1" d="M 513.096,799.564 513.096,783.195 z" id="boundary" inkscape:connector-curvature="0" />
	<path style="fill:none;stroke:red;stroke-width:1px;stroke-linecap:butt;stroke-linejoin:miter;stroke-opacity:1" d="M 513.096,783.195 513.096,766.825 z" id="boundary" inkscape:connector-curvature="0" />
	<path style="fill:none;stroke:red;stroke-width:1px;stroke-linecap:butt;stroke-linejoin:miter;stroke-opacity:1" d="M 513.096,766.825 513.096,750.455 z" id="boundary" inkscape:connector-curvature="0" />
	<path style="fill:none;stroke:red;stroke-width:1px;stroke-linecap:butt;stroke-linejoin:miter;stroke-opacity:1" d="M 513.096,750.455 513.096,734.086 z" id="boundary" inkscape:connector-curvature="0" />
	<path style="fill:none;stroke:red;stroke-width:1px;stroke-linecap:butt;stroke-linejoin:miter;stroke-opacity:1" d="M 513.096,734.086 521.281,717.716 z" id="boundary" inkscape:connector-curvature="0" />
	<path style="fill:none;stroke:red;stroke-width:1px;stroke-linecap:butt;stroke-linejoin:miter;stroke-opacity:1" d="M 521.281,717.716 529.465,693.162 z" id="boundary" inkscape:connector-curvature="0" />
	<path style="fill:none;stroke:red;stroke-width:1px;stroke-linecap:butt;stroke-linejoin:miter;stroke-opacity:1" d="M 529.465,693.162 537.65,676.792 z" id="boundary" inkscape:connector-curvature="0" />
	<path style="fill:none;stroke:red;stroke-width:1px;stroke-linecap:butt;stroke-linejoin:miter;stroke-opacity:1" d="M 537.65,676.792 545.835,652.238 z" id="boundary" inkscape:connector-curvature="0" />
	<path style="fill:none;stroke:red;stroke-width:1px;stroke-linecap:butt;stroke-linejoin:miter;stroke-opacity:1" d="M 545.835,652.238 554.02,635.868 z" id="boundary" inkscape:connector-curvature="0" />
	<path style="fill:none;stroke:red;stroke-width:1px;stroke-linecap:butt;stroke-linejoin:miter;stroke-opacity:1" d="M 554.02,635.868 570.389,627.683 z" id="boundary" inkscape:connector-curvature="0" />
	<path style="fill:none;stroke:red;stroke-width:1px;stroke-linecap:butt;stroke-linejoin:miter;stroke-opacity:1" d="M 570.389,627.683 583.485,616.224 z" id="boundary" inkscape:connector-curvature="0" />
	<path style="fill:none;stroke:red;stroke-width:1px;stroke-linecap:butt;stroke-linejoin:miter;stroke-opacity:1" d="M 583.485,616.224 594.944,603.129 z" id="boundary" inkscape:connector-curvature="0" />
	<path style="fill:none;stroke:red;stroke-width:1px;stroke-linecap:butt;stroke-linejoin:miter;stroke-opacity:1" d="M 594.944,603.129 594.944,586.759 z" id="boundary" inkscape:connector-curvature="0" />
	<path style="fill:none;stroke:red;stroke-width:1px;stroke-linecap:butt;stroke-linejoin:miter;stroke-opacity:1" d="M 594.944,586.759 603.129,562.205 z" id="boundary" inkscape:connector-curvature="0" />
	<path style="fill:none;stroke:red;stroke-width:1px;stroke-linecap:butt;stroke-linejoin:miter;stroke-opacity:1" d="M 603.129,562.205 603.129,545.835 z" id="boundary" inkscape:connector-curvature="0" />
	<path style="fill:none;stroke:red;stroke-width:1px;stroke-linecap:butt;stroke-linejoin:miter;stroke-opacity:1" d="M 603.129,545.835 611.314,529.465 z" id="boundary" inkscape:connector-curvature="0" />
	<path style="fill:none;stroke:red;stroke-width:1px;stroke-linecap:butt;stroke-linejoin:miter;stroke-opacity:1" d="M 611.314,529.465 619.498,504.911 z" id="boundary" inkscape:connector-curvature="0" />
	<path style="fill:none;stroke:red;stroke-width:1px;stroke-linecap:butt;stroke-linejoin:miter;stroke-opacity:1" d="M 619.498,504.911 627.683,490.178 z" id="boundary" inkscape:connector-curvature="0" />
	<path style="fill:none;stroke:red;stroke-width:1px;stroke-linecap:butt;stroke-linejoin:miter;stroke-opacity:1" d="M 627.683,490.178 627.683,473.809 z" id="boundary" inkscape:connector-curvature="0" />
	<path style="fill:none;stroke:red;stroke-width:1px;stroke-linecap:butt;stroke-linejoin:miter;stroke-opacity:1" d="M 627.683,473.809 627.683,457.439 z" id="boundary" inkscape:connector-curvature="0" />
	<path style="fill:none;stroke:red;stroke-width:1px;stroke-linecap:butt;stroke-linejoin:miter;stroke-opacity:1" d="M 627.683,457.439 627.683,441.069 z" id="boundary" inkscape:connector-curvature="0" />
	<path style="fill:none;stroke:red;stroke-width:1px;stroke-linecap:butt;stroke-linejoin:miter;stroke-opacity:1" d="M 627.683,441.069 627.683,424.7 z" id="boundary" inkscape:connector-curvature="0" />
	<path style="fill:none;stroke:red;stroke-width:1px;stroke-linecap:butt;stroke-linejoin:miter;stroke-opacity:1" d="M 627.683,424.7 619.498,409.967 z" id="boundary" inkscape:connector-curvature="0" />
	<path style="fill:none;stroke:red;stroke-width:1px;stroke-linecap:butt;stroke-linejoin:miter;stroke-opacity:1" d="M 619.498,409.967 606.403,398.508 z" id="boundary" inkscape:connector-curvature="0" />
	<path style="fill:none;stroke:red;stroke-width:1px;stroke-linecap:butt;stroke-linejoin:miter;stroke-opacity:1" d="M 606.403,398.508 591.67,390.323 z" id="boundary" inkscape:connector-curvature="0" />
	<path style="fill:none;stroke:red;stroke-width:1px;stroke-linecap:butt;stroke-linejoin:miter;stroke-opacity:1" d="M 591.67,390.323 578.574,380.502 z" id="boundary" inkscape:connector-curvature="0" />
	<path style="fill:none;stroke:red;stroke-width:1px;stroke-linecap:butt;stroke-linejoin:miter;stroke-opacity:1" d="M 578.574,380.502 578.574,364.132 z" id="boundary" inkscape:connector-curvature="0" />
	<path style="fill:none;stroke:red;stroke-width:1px;stroke-linecap:butt;stroke-linejoin:miter;stroke-opacity:1" d="M 578.574,364.132 578.574,347.762 z" id="boundary" inkscape:connector-curvature="0" />
	<path style="fill:none;stroke:red;stroke-width:1px;stroke-linecap:butt;stroke-linejoin:miter;stroke-opacity:1" d="M 578.574,347.762 578.574,331.393 z" id="boundary" inkscape:connector-curvature="0" />
	<path style="fill:none;stroke:red;stroke-width:1px;stroke-linecap:butt;stroke-linejoin:miter;stroke-opacity:1" d="M 578.574,331.393 578.574,315.023 z" id="boundary" inkscape:connector-curvature="0" />
	<path style="fill:none;stroke:red;stroke-width:1px;stroke-linecap:butt;stroke-linejoin:miter;stroke-opacity:1" d="M 578.574,315.023 578.574,298.653 z" id="boundary" inkscape:connector-curvature="0" />
	<path style="fill:none;stroke:red;stroke-width:1px;stroke-linecap:butt;stroke-linejoin:miter;stroke-opacity:1" d="M 578.574,298.653 570.389,283.921 z" id="boundary" inkscape:connector-curvature="0" />
	<path style="fill:none;stroke:red;stroke-width:1px;stroke-linecap:butt;stroke-linejoin:miter;stroke-opacity:1" d="M 570.389,283.921 570.389,267.551 z" id="boundary" inkscape:connector-curvature="0" />
	<path style="fill:none;stroke:red;stroke-width:1px;stroke-linecap:butt;stroke-linejoin:miter;stroke-opacity:1" d="M 570.389,267.551 570.389,251.182 z" id="boundary" inkscape:connector-curvature="0" />
	<path style="fill:none;stroke:red;stroke-width:1px;stroke-linecap:butt;stroke-linejoin:miter;stroke-opacity:1" d="M 570.389,251.182 570.389,234.812 z" id="boundary" inkscape:connector-curvature="0" />
	<path style="fill:none;stroke:red;stroke-width:1px;stroke-linecap:butt;stroke-linejoin:miter;stroke-opacity:1" d="M 570.389,234.812 570.389,218.442 z" id="boundary" inkscape:connector-curvature="0" />
	<path style="fill:none;stroke:red;stroke-width:1px;stroke-linecap:butt;stroke-linejoin:miter;stroke-opacity:1" d="M 570.389,218.442 570.389,202.073 z" id="boundary" inkscape:connector-curvature="0" />
	<path style="fill:none;stroke:red;stroke-width:1px;stroke-linecap:butt;stroke-linejoin:miter;stroke-opacity:1" d="M 570.389,202.073 570.389,185.703 z" id="boundary" inkscape:connector-curvature="0" />
	<path style="fill:none;stroke:red;stroke-width:1px;stroke-linecap:butt;stroke-linejoin:miter;stroke-opacity:1" d="M 570.389,185.703 562.205,170.97 z" id="boundary" inkscape:connector-curvature="0" />
	<path style="fill:none;stroke:red;stroke-width:1px;stroke-linecap:butt;stroke-linejoin:miter;stroke-opacity:1" d="M 562.205,170.97 560.568,154.601 z" id="boundary" inkscape:connector-curvature="0" />
	<path style="fill:none;stroke:red;stroke-width:1px;stroke-linecap:butt;stroke-linejoin:miter;stroke-opacity:1" d="M 560.568,154.601 552.383,139.868 z" id="boundary" inkscape:connector-curvature="0" />
	<path style="fill:none;stroke:red;stroke-width:1px;stroke-linecap:butt;stroke-linejoin:miter;stroke-opacity:1" d="M 552.383,139.868 545.835,123.498 z" id="boundary" inkscape:connector-curvature="0" />
	<path style="fill:none;stroke:red;stroke-width:1px;stroke-linecap:butt;stroke-linejoin:miter;stroke-opacity:1" d="M 545.835,123.498 537.65,108.766 z" id="boundary" inkscape:connector-curvature="0" />
	<path style="fill:none;stroke:red;stroke-width:1px;stroke-linecap:butt;stroke-linejoin:miter;stroke-opacity:1" d="M 537.65,108.766 529.465,94.033 z" id="boundary" inkscape:connector-curvature="0" />
	<path style="fill:none;stroke:red;stroke-width:1px;stroke-linecap:butt;stroke-linejoin:miter;stroke-opacity:1" d="M 529.465,94.033 519.644,80.9373 z" id="boundary" inkscape:connector-curvature="0" />
	<path style="fill:none;stroke:red;stroke-width:1px;stroke-linecap:butt;stroke-linejoin:miter;stroke-opacity:1" d="M 519.644,80.9373 506.548,69.4785 z" id="boundary" inkscape:connector-curvature="0" />
	<path style="fill:none;stroke:red;stroke-width:1px;stroke-linecap:butt;stroke-linejoin:miter;stroke-opacity:1" d="M 506.548,69.4785 491.815,61.2937 z" id="boundary" inkscape:connector-curvature="0" />
	<path style="fill:none;stroke:red;stroke-width:1px;stroke-linecap:butt;stroke-linejoin:miter;stroke-opacity:1" d="M 491.815,61.2937 477.083,53.1089 z" id="boundary" inkscape:connector-curvature="0" />
	<path style="fill:none;stroke:red;stroke-width:1px;stroke-linecap:butt;stroke-linejoin:miter;stroke-opacity:1" d="M 477.083,53.1089 462.35,44.9241 z" id="boundary" inkscape:connector-curvature="0" />
	<path style="fill:none;stroke:red;stroke-width:1px;stroke-linecap:butt;stroke-linejoin:miter;stroke-opacity:1" d="M 462.35,44.9241 445.98,40.0132 z" id="boundary" inkscape:connector-curvature="0" />
	<path style="fill:none;stroke:red;stroke-width:1px;stroke-linecap:butt;stroke-linejoin:miter;stroke-opacity:1" d="M 445.98,40.0132 429.611,41.6502 z" id="boundary" inkscape:connector-curvature="0" />
	<path style="fill:none;stroke:red;stroke-width:1px;stroke-linecap:butt;stroke-linejoin:miter;stroke-opacity:1" d="M 429.611,41.6502 413.241,44.9241 z" id="boundary" inkscape:connector-curvature="0" />
	<path style="fill:none;stroke:red;stroke-width:1px;stroke-linecap:butt;stroke-linejoin:miter;stroke-opacity:1" d="M 413.241,44.9241 396.871,41.6502 z" id="boundary" inkscape:connector-curvature="0" />
	<path style="fill:none;stroke:red;stroke-width:1px;stroke-linecap:butt;stroke-linejoin:miter;stroke-opacity:1" d="M 396.871,41.6502 385.413,28.5545 z" id="boundary" inkscape:connector-curvature="0" />
	<path style="fill:none;stroke:red;stroke-width:1px;stroke-linecap:butt;stroke-linejoin:miter;stroke-opacity:1" d="M 385.413,28.5545 372.317,17.0957 z" id="boundary" inkscape:connector-curvature="0" />
	<path style="fill:none;stroke:red;stroke-width:1px;stroke-linecap:butt;stroke-linejoin:miter;stroke-opacity:1" d="M 372.317,17.0957 357.584,8.91089 z" id="boundary" inkscape:connector-curvature="0" />
	<path style="fill:none;stroke:red;stroke-width:1px;stroke-linecap:butt;stroke-linejoin:miter;stroke-opacity:1" d="M 357.584,8.91089 341.215,4 z" id="boundary" inkscape:connector-curvature="0" />
	<path style="fill:none;stroke:red;stroke-width:1px;stroke-linecap:butt;stroke-linejoin:miter;stroke-opacity:1" d="M 341.215,4 324.845,4 z" id="boundary" inkscape:connector-curvature="0" />
	<path style="fill:none;stroke:red;stroke-width:1px;stroke-linecap:butt;stroke-linejoin:miter;stroke-opacity:1" d="M 324.845,4 308.475,4 z" id="boundary" inkscape:connector-curvature="0" />
	<path style="fill:none;stroke:red;stroke-width:1px;stroke-linecap:butt;stroke-linejoin:miter;stroke-opacity:1" d="M 308.475,4 292.106,4 z" id="boundary" inkscape:connector-curvature="0" />
	<path style="fill:none;stroke:red;stroke-width:1px;stroke-linecap:butt;stroke-linejoin:miter;stroke-opacity:1" d="M 292.106,4 275.736,4 z" id="boundary" inkscape:connector-curvature="0" />
	<path style="fill:none;stroke:red;stroke-width:1px;stroke-linecap:butt;stroke-linejoin:miter;stroke-opacity:1" d="M 275.736,4 259.366,7.27393 z" id="boundary" inkscape:connector-curvature="0" />
	<path style="fill:none;stroke:red;stroke-width:1px;stroke-linecap:butt;stroke-linejoin:miter;stroke-opacity:1" d="M 259.366,7.27393 242.997,15.4587 z" id="boundary" inkscape:connector-curvature="0" />
	<path style="fill:none;stroke:red;stroke-width:1px;stroke-linecap:butt;stroke-linejoin:miter;stroke-opacity:1" d="M 242.997,15.4587 226.627,20.3696 z" id="boundary" inkscape:connector-curvature="0" />
	<path style="fill:none;stroke:red;stroke-width:1px;stroke-linecap:butt;stroke-linejoin:miter;stroke-opacity:1" d="M 226.627,20.3696 211.894,28.5545 z" id="boundary" inkscape:connector-curvature="0" />
	<path style="fill:none;stroke:red;stroke-width:1px;stroke-linecap:butt;stroke-linejoin:miter;stroke-opacity:1" d="M 211.894,28.5545 197.162,36.7393 z" id="boundary" inkscape:connector-curvature="0" />
	<path style="fill:none;stroke:red;stroke-width:1px;stroke-linecap:butt;stroke-linejoin:miter;stroke-opacity:1" d="M 197.162,36.7393 184.066,49.835 z" id="boundary" inkscape:connector-curvature="0" />
	<path style="fill:none;stroke:red;stroke-width:1px;stroke-linecap:butt;stroke-linejoin:miter;stroke-opacity:1" d="M 184.066,49.835 174.244,69.4785 z" id="boundary" inkscape:connector-curvature="0" />
	<path style="fill:none;stroke:red;stroke-width:1px;stroke-linecap:butt;stroke-linejoin:miter;stroke-opacity:1" d="M 174.244,69.4785 161.149,80.9373 z" id="boundary" inkscape:connector-curvature="0" />
	<path style="fill:none;stroke:red;stroke-width:1px;stroke-linecap:butt;stroke-linejoin:miter;stroke-opacity:1" d="M 161.149,80.9373 144.779,89.1221 z" id="boundary" inkscape:connector-curvature="0" />
	<path style="fill:none;stroke:red;stroke-width:1px;stroke-linecap:butt;stroke-linejoin:miter;stroke-opacity:1" d="M 144.779,89.1221 136.594,105.492 z" id="boundary" inkscape:connector-curvature="0" />
	<path style="fill:none;stroke:red;stroke-width:1px;stroke-linecap:butt;stroke-linejoin:miter;stroke-opacity:1" d="M 136.594,105.492 125.135,118.587 z" id="boundary" inkscape:connector-curvature="0" />
	<path style="fill:none;stroke:red;stroke-width:1px;stroke-linecap:butt;stroke-linejoin:miter;stroke-opacity:1" d="M 125.135,118.587 112.04,130.046 z" id="boundary" inkscape:connector-curvature="0" />
	<path style="fill:none;stroke:red;stroke-width:1px;stroke-linecap:butt;stroke-linejoin:miter;stroke-opacity:1" d="M 112.04,130.046 98.9439,143.142 z" id="boundary" inkscape:connector-curvature="0" />
	<path style="fill:none;stroke:red;stroke-width:1px;stroke-linecap:butt;stroke-linejoin:miter;stroke-opacity:1" d="M 98.9439,143.142 85.8482,156.238 z" id="boundary" inkscape:connector-curvature="0" />
	<path style="fill:none;stroke:red;stroke-width:1px;stroke-linecap:butt;stroke-linejoin:miter;stroke-opacity:1" d="M 85.8482,156.238 77.6634,172.607 z" id="boundary" inkscape:connector-curvature="0" />
	<path style="fill:none;stroke:red;stroke-width:1px;stroke-linecap:butt;stroke-linejoin:miter;stroke-opacity:1" d="M 77.6634,172.607 69.4785,188.977 z" id="boundary" inkscape:connector-curvature="0" />
	<path style="fill:none;stroke:red;stroke-width:1px;stroke-linecap:butt;stroke-linejoin:miter;stroke-opacity:1" d="M 69.4785,188.977 61.2937,205.347 z" id="boundary" inkscape:connector-curvature="0" />
	<path style="fill:none;stroke:red;stroke-width:1px;stroke-linecap:butt;stroke-linejoin:miter;stroke-opacity:1" d="M 61.2937,205.347 53.1089,229.901 z" id="boundary" inkscape:connector-curvature="0" />
	<path style="fill:none;stroke:red;stroke-width:1px;stroke-linecap:butt;stroke-linejoin:miter;stroke-opacity:1" d="M 53.1089,229.901 44.9241,246.271 z" id="boundary" inkscape:connector-curvature="0" />
	<path style="fill:none;stroke:red;stroke-width:1px;stroke-linecap:butt;stroke-linejoin:miter;stroke-opacity:1" d="M 44.9241,246.271 36.7393,270.825 z" id="boundary" inkscape:connector-curvature="0" />
	<path style="fill:none;stroke:red;stroke-width:1px;stroke-linecap:butt;stroke-linejoin:miter;stroke-opacity:1" d="M 36.7393,270.825 36.7393,287.195 z" id="boundary" inkscape:connector-curvature="0" />
	<path style="fill:none;stroke:red;stroke-width:1px;stroke-linecap:butt;stroke-linejoin:miter;stroke-opacity:1" d="M 36.7393,287.195 36.7393,303.564 z" id="boundary" inkscape:connector-curvature="0" />
	<path style="fill:none;stroke:red;stroke-width:1px;stroke-linecap:butt;stroke-linejoin:miter;stroke-opacity:1" d="M 36.7393,303.564 36.7393,319.934 z" id="boundary" inkscape:connector-curvature="0" />
	<path style="fill:none;stroke:red;stroke-width:1px;stroke-linecap:butt;stroke-linejoin:miter;stroke-opacity:1" d="M 36.7393,319.934 36.7393,336.304 z" id="boundary" inkscape:connector-curvature="0" />
	<path style="fill:none;stroke:red;stroke-width:1px;stroke-linecap:butt;stroke-linejoin:miter;stroke-opacity:1" d="M 36.7393,336.304 36.7393,352.673 z" id="boundary" inkscape:connector-curvature="0" />
	<path style="fill:none;stroke:red;stroke-width:1px;stroke-linecap:butt;stroke-linejoin:miter;stroke-opacity:1" d="M 36.7393,352.673 36.7393,369.043 z" id="boundary" inkscape:connector-curvature="0" />
	<path style="fill:none;stroke:red;stroke-width:1px;stroke-linecap:butt;stroke-linejoin:miter;stroke-opacity:1" d="M 36.7393,369.043 36.7393,385.413 z" id="boundary" inkscape:connector-curvature="0" />
	<path style="fill:none;stroke:red;stroke-width:1px;stroke-linecap:butt;stroke-linejoin:miter;stroke-opacity:1" d="M 36.7393,385.413 36.7393,401.782 z" id="boundary" inkscape:connector-curvature="0" />
	<path style="fill:none;stroke:red;stroke-width:1px;stroke-linecap:butt;stroke-linejoin:miter;stroke-opacity:1" d="M 28.5545,426.337 36.7393,401.782 z" id="boundary" inkscape:connector-curvature="0" />
	<circle cx="4" cy="450.891" r="4" fill="#0" id="circle0"/>
	<circle cx="4" cy="467.261" r="4" fill="#0" id="circle1"/>
	<circle cx="4" cy="483.63" r="4" fill="#0" id="circle2"/>
	<circle cx="12.1848" cy="434.521" r="4" fill="#0" id="circle3"/>
	<circle cx="12.1848" cy="498.363" r="4" fill="#0" id="circle4"/>
	<circle cx="12.1848" cy="514.733" r="4" fill="#0" id="circle5"/>
	<circle cx="12.1848" cy="531.102" r="4" fill="#0" id="circle6"/>
	<circle cx="20.3696" cy="545.835" r="4" fill="#0" id="circle7"/>
	<circle cx="20.3696" cy="562.205" r="4" fill="#0" id="circle8"/>
	<circle cx="25.2805" cy="578.574" r="4" fill="#0" id="circle9"/>
	<circle cx="28.5545" cy="426.337" r="4" fill="#0" id="circle10"/>
	<circle cx="33.4653" cy="593.307" r="4" fill="#0" id="circle11"/>
	<circle cx="36.7393" cy="270.825" r="4" fill="#0" id="circle12"/>
	<circle cx="36.7393" cy="287.195" r="4" fill="#0" id="circle13"/>
	<circle cx="36.7393" cy="303.564" r="4" fill="#0" id="circle14"/>
	<circle cx="36.7393" cy="319.934" r="4" fill="#0" id="circle15"/>
	<circle cx="36.7393" cy="336.304" r="4" fill="#0" id="circle16"/>
	<circle cx="36.7393" cy="352.673" r="4" fill="#0" id="circle17"/>
	<circle cx="36.7393" cy="369.043" r="4" fill="#0" id="circle18"/>
	<circle cx="36.7393" cy="385.413" r="4" fill="#0" id="circle19"/>
	<circle cx="36.7393" cy="401.782" r="4" fill="#0" id="circle20"/>
	<circle cx="44.9241" cy="246.271" r="4" fill="#0" id="circle21"/>
	<circle cx="44.9241" cy="606.403" r="4" fill="#0" id="circle22"/>
	<circle cx="53.1089" cy="229.901" r="4" fill="#0" id="circle23"/>
	<circle cx="53.1089" cy="621.135" r="4" fill="#0" id="circle24"/>
	<circle cx="61.2937" cy="205.347" r="4" fill="#0" id="circle25"/>
	<circle cx="61.2937" cy="635.868" r="4" fill="#0" id="circle26"/>
	<circle cx="69.4785" cy="188.977" r="4" fill="#0" id="circle27"/>
	<circle cx="71.1155" cy="648.964" r="4" fill="#0" id="circle28"/>
	<circle cx="77.6634" cy="172.607" r="4" fill="#0" id="circle29"/>
	<circle cx="84.2112" cy="660.422" r="4" fill="#0" id="circle30"/>
	<circle cx="85.8482" cy="156.238" r="4" fill="#0" id="circle31"/>
	<circle cx="94.033" cy="673.518" r="4" fill="#0" id="circle32"/>
	<circle cx="95.67" cy="689.888" r="4" fill="#0" id="circle33"/>
	<circle cx="98.9439" cy="143.142" r="4" fill="#0" id="circle34"/>
	<circle cx="102.218" cy="706.257" r="4" fill="#0" id="circle35"/>
	<circle cx="110.403" cy="720.99" r="4" fill="#0" id="circle36"/>
	<circle cx="112.04" cy="130.046" r="4" fill="#0" id="circle37"/>
	<circle cx="118.587" cy="735.723" r="4" fill="#0" id="circle38"/>
	<circle cx="125.135" cy="118.587" r="4" fill="#0" id="circle39"/>
	<circle cx="126.772" cy="750.455" r="4" fill="#0" id="circle40"/>
	<circle cx="136.594" cy="105.492" r="4" fill="#0" id="circle41"/>
	<circle cx="141.505" cy="758.64" r="4" fill="#0" id="circle42"/>
	<circle cx="143.142" cy="775.01" r="4" fill="#0" id="circle43"/>
	<circle cx="143.142" cy="791.38" r="4" fill="#0" id="circle44"/>
	<circle cx="143.142" cy="807.749" r="4" fill="#0" id="circle45"/>
	<circle cx="143.142" cy="824.119" r="4" fill="#0" id="circle46"/>
	<circle cx="143.142" cy="840.488" r="4" fill="#0" id="circle47"/>
	<circle cx="144.779" cy="89.1221" r="4" fill="#0" id="circle48"/>
	<circle cx="151.327" cy="855.221" r="4" fill="#0" id="circle49"/>
	<circle cx="159.512" cy="869.954" r="4" fill="#0" id="circle50"/>
	<circle cx="161.149" cy="80.9373" r="4" fill="#0" id="circle51"/>
	<circle cx="167.696" cy="884.686" r="4" fill="#0" id="circle52"/>
	<circle cx="174.244" cy="69.4785" r="4" fill="#0" id="circle53"/>
	<circle cx="180.792" cy="896.145" r="4" fill="#0" id="circle54"/>
	<circle cx="184.066" cy="49.835" r="4" fill="#0" id="circle55"/>
	<circle cx="192.251" cy="909.241" r="4" fill="#0" id="circle56"/>
	<circle cx="197.162" cy="36.7393" r="4" fill="#0" id="circle57"/>
	<circle cx="205.347" cy="920.7" r="4" fill="#0" id="circle58"/>
	<circle cx="211.894" cy="28.5545" r="4" fill="#0" id="circle59"/>
	<circle cx="216.805" cy="933.795" r="4" fill="#0" id="circle60"/>
	<circle cx="226.627" cy="20.3696" r="4" fill="#0" id="circle61"/>
	<circle cx="233.175" cy="938.706" r="4" fill="#0" id="circle62"/>
	<circle cx="242.997" cy="15.4587" r="4" fill="#0" id="circle63"/>
	<circle cx="242.997" cy="951.802" r="4" fill="#0" id="circle64"/>
	<circle cx="256.092" cy="963.261" r="4" fill="#0" id="circle65"/>
	<circle cx="259.366" cy="7.27393" r="4" fill="#0" id="circle66"/>
	<circle cx="267.551" cy="976.356" r="4" fill="#0" id="circle67"/>
	<circle cx="275.736" cy="4" r="4" fill="#0" id="circle68"/>
	<circle cx="283.921" cy="982.904" r="4" fill="#0" id="circle69"/>
	<circle cx="292.106" cy="4" r="4" fill="#0" id="circle70"/>
	<circle cx="295.38" cy="996" r="4" fill="#0" id="circle71"/>
	<circle cx="308.475" cy="4" r="4" fill="#0" id="circle72"/>
	<circle cx="311.749" cy="996" r="4" fill="#0" id="circle73"/>
	<circle cx="324.845" cy="4" r="4" fill="#0" id="circle74"/>
	<circle cx="328.119" cy="996" r="4" fill="#0" id="circle75"/>
	<circle cx="341.215" cy="4" r="4" fill="#0" id="circle76"/>
	<circle cx="344.488" cy="994.363" r="4" fill="#0" id="circle77"/>
	<circle cx="357.584" cy="8.91089" r="4" fill="#0" id="circle78"/>
	<circle cx="360.858" cy="987.815" r="4" fill="#0" id="circle79"/>
	<circle cx="372.317" cy="17.0957" r="4" fill="#0" id="circle80"/>
	<circle cx="375.591" cy="979.63" r="4" fill="#0" id="circle81"/>
	<circle cx="385.413" cy="28.5545" r="4" fill="#0" id="circle82"/>
	<circle cx="390.323" cy="971.446" r="4" fill="#0" id="circle83"/>
	<circle cx="396.871" cy="41.6502" r="4" fill="#0" id="circle84"/>
	<circle cx="405.056" cy="963.261" r="4" fill="#0" id="circle85"/>
	<circle cx="413.241" cy="44.9241" r="4" fill="#0" id="circle86"/>
	<circle cx="418.152" cy="953.439" r="4" fill="#0" id="circle87"/>
	<circle cx="429.611" cy="41.6502" r="4" fill="#0" id="circle88"/>
	<circle cx="431.248" cy="938.706" r="4" fill="#0" id="circle89"/>
	<circle cx="445.98" cy="40.0132" r="4" fill="#0" id="circle90"/>
	<circle cx="447.617" cy="930.521" r="4" fill="#0" id="circle91"/>
	<circle cx="455.802" cy="914.152" r="4" fill="#0" id="circle92"/>
	<circle cx="462.35" cy="44.9241" r="4" fill="#0" id="circle93"/>
	<circle cx="468.898" cy="902.693" r="4" fill="#0" id="circle94"/>
	<circle cx="477.083" cy="53.1089" r="4" fill="#0" id="circle95"/>
	<circle cx="477.083" cy="886.323" r="4" fill="#0" id="circle96"/>
	<circle cx="485.267" cy="869.954" r="4" fill="#0" id="circle97"/>
	<circle cx="491.815" cy="61.2937" r="4" fill="#0" id="circle98"/>
	<circle cx="493.452" cy="853.584" r="4" fill="#0" id="circle99"/>
	<circle cx="504.911" cy="840.488" r="4" fill="#0" id="circle100"/>
	<circle cx="506.548" cy="69.4785" r="4" fill="#0" id="circle101"/>
	<circle cx="513.096" cy="734.086" r="4" fill="#0" id="circle102"/>
	<circle cx="513.096" cy="750.455" r="4" fill="#0" id="circle103"/>
	<circle cx="513.096" cy="766.825" r="4" fill="#0" id="circle104"/>
	<circle cx="513.096" cy="783.195" r="4" fill="#0" id="circle105"/>
	<circle cx="513.096" cy="799.564" r="4" fill="#0" id="circle106"/>
	<circle cx="513.096" cy="815.934" r="4" fill="#0" id="circle107"/>
	<circle cx="519.644" cy="80.9373" r="4" fill="#0" id="circle108"/>
	<circle cx="521.281" cy="717.716" r="4" fill="#0" id="circle109"/>
	<circle cx="529.465" cy="94.033" r="4" fill="#0" id="circle110"/>
	<circle cx="529.465" cy="693.162" r="4" fill="#0" id="circle111"/>
	<circle cx="537.65" cy="108.766" r="4" fill="#0" id="circle112"/>
	<circle cx="537.65" cy="676.792" r="4" fill="#0" id="circle113"/>
	<circle cx="545.835" cy="123.498" r="4" fill="#0" id="circle114"/>
	<circle cx="545.835" cy="652.238" r="4" fill="#0" id="circle115"/>
	<circle cx="552.383" cy="139.868" r="4" fill="#0" id="circle116"/>
	<circle cx="554.02" cy="635.868" r="4" fill="#0" id="circle117"/>
	<circle cx="560.568" cy="154.601" r="4" fill="#0" id="circle118"/>
	<circle cx="562.205" cy="170.97" r="4" fill="#0" id="circle119"/>
	<circle cx="570.389" cy="185.703" r="4" fill="#0" id="circle120"/>
	<circle cx="570.389" cy="202.073" r="4" fill="#0" id="circle121"/>
	<circle cx="570.389" cy="218.442" r="4" fill="#0" id="circle122"/>
	<circle cx="570.389" cy="234.812" r="4" fill="#0" id="circle123"/>
	<circle cx="570.389" cy="251.182" r="4" fill="#0" id="circle124"/>
	<circle cx="570.389" cy="267.551" r="4" fill="#0" id="circle125"/>
	<circle cx="570.389" cy="283.921" r="4" fill="#0" id="circle126"/>
	<circle cx="570.389" cy="627.683" r="4" fill="#0" id="circle127"/>
	<circle cx="578.574" cy="298.653" r="4" fill="#0" id="circle128"/>
	<circle cx="578.574" cy="315.023" r="4" fill="#0" id="circle129"/>
	<circle cx="578.574" cy="331.393" r="4" fill="#0" id="circle130"/>
	<circle cx="578.574" cy="347.762" r="4" fill="#0" id="circle131"/>
	<circle cx="578.574" cy="364.132" r="4" fill="#0" id="circle132"/>
	<circle cx="578.574" cy="380.502" r="4" fill="#0" id="circle133"/>
	<circle cx="583.485" cy="616.224" r="4" fill="#0" id="circle134"/>
	<circle cx="591.67" cy="390.323" r="4" fill="#0" id="circle135"/>
	<circle cx="594.944" cy="586.759" r="4" fill="#0" id="circle136"/>
	<circle cx="594.944" cy="603.129" r="4" fill="#0" id="circle137"/>
	<circle cx="603.129" cy="545.835" r="4" fill="#0" id="circle138"/>
	<circle cx="603.129" cy="562.205" r="4" fill="#0" id="circle139"/>
	<circle cx="606.403" cy="398.508" r="4" fill="#0" id="circle140"/>
	<circle cx="611.314" cy="529.465" r="4" fill="#0" id="circle141"/>
	<circle cx="619.498" cy="409.967" r="4" fill="#0" id="circle142"/>
	<circle cx="619.498" cy="504.911" r="4" fill="#0" id="circle143"/>
	<circle cx="627.683" cy="424.7" r="4" fill="#0" id="circle144"/>
	<circle cx="627.683" cy="441.069" r="4" fill="#0" id="circle145"/>
	<circle cx="627.683" cy="457.439" r="4" fill="#0" id="circle146"/>
	<circle cx="627.683" cy="473.809" r="4" fill="#0" id="circle147"/>
	<circle cx="627.683" cy="490.178" r="4" fill="#0" id="circle148"/>
	</g>
</svg>