<?xml version="1.0" encoding="UTF-8" standalone="no"?>
<!-- Created with CurveBenchmark -->
<svg
	xmlns:dc="http://purl.org/dc/elements/1.1/"
	xmlns:cc="http://creativecommons.org/ns#"
	xmlns:rdf="http://www.w3.org/1999/02/22-rdf-syntax-ns#"
	xmlns:svg="http://www.w3.org/2000/svg"
	xmlns="http://www.w3.org/2000/svg"
	xmlns:sodipodi="http://sodipodi.sourceforge.net/DTD/sodipodi-0.dtd"
	xmlns:inkscape="http://www.inkscape.org/namespaces/inkscape"
	width="1000"
	height="1000"
	id="svg2"
	version="1.1"
	sodipodi:docname="manifold/crawl-sink130.png.txt">
<defs
	id="defs4" />
<metadata
	id="metadata7">
	<rdf:RDF>
		<cc:Work
			rdf:about="">
			<dc:format>image/svg+xml</dc:format>
			<dc:type
				rdf:resource="http://purl.org/dc/dcmitype/StillImage" />
			<dc:title></dc:title>
		</cc:Work>
	</rdf:RDF>
</metadata>
<g
	inkscape:label="Layer 1"
	inkscape:groupmode="layer"
	id="layer1">
	<path style="fill:none;stroke:red;stroke-width:1px;stroke-linecap:butt;stroke-linejoin:miter;stroke-opacity:1" d="M 62.6404,209.241 62.6404,160.374 z" id="boundary" inkscape:connector-curvature="0" />
	<path style="fill:none;stroke:red;stroke-width:1px;stroke-linecap:butt;stroke-linejoin:miter;stroke-opacity:1" d="M 62.6404,160.374 111.507,160.374 z" id="boundary" inkscape:connector-curvature="0" />
	<path style="fill:none;stroke:red;stroke-width:1px;stroke-linecap:butt;stroke-linejoin:miter;stroke-opacity:1" d="M 111.507,160.374 160.374,160.374 z" id="boundary" inkscape:connector-curvature="0" />
	<path style="fill:none;stroke:red;stroke-width:1px;stroke-linecap:butt;stroke-linejoin:miter;stroke-opacity:1" d="M 160.374,160.374 209.241,160.374 z" id="boundary" inkscape:connector-curvature="0" />
	<path style="fill:none;stroke:red;stroke-width:1px;stroke-linecap:butt;stroke-linejoin:miter;stroke-opacity:1" d="M 209.241,160.374 258.108,160.374 z" id="boundary" inkscape:connector-curvature="0" />
	<path style="fill:none;stroke:red;stroke-width:1px;stroke-linecap:butt;stroke-linejoin:miter;stroke-opacity:1" d="M 258.108,160.374 306.975,170.148 z" id="boundary" inkscape:connector-curvature="0" />
	<path style="fill:none;stroke:red;stroke-width:1px;stroke-linecap:butt;stroke-linejoin:miter;stroke-opacity:1" d="M 306.975,170.148 355.842,170.148 z" id="boundary" inkscape:connector-curvature="0" />
	<path style="fill:none;stroke:red;stroke-width:1px;stroke-linecap:butt;stroke-linejoin:miter;stroke-opacity:1" d="M 355.842,170.148 394.936,140.828 z" id="boundary" inkscape:connector-curvature="0" />
	<path style="fill:none;stroke:red;stroke-width:1px;stroke-linecap:butt;stroke-linejoin:miter;stroke-opacity:1" d="M 394.936,140.828 394.936,91.9606 z" id="boundary" inkscape:connector-curvature="0" />
	<path style="fill:none;stroke:red;stroke-width:1px;stroke-linecap:butt;stroke-linejoin:miter;stroke-opacity:1" d="M 394.936,91.9606 365.616,52.867 z" id="boundary" inkscape:connector-curvature="0" />
	<path style="fill:none;stroke:red;stroke-width:1px;stroke-linecap:butt;stroke-linejoin:miter;stroke-opacity:1" d="M 365.616,52.867 385.163,4 z" id="boundary" inkscape:connector-curvature="0" />
	<path style="fill:none;stroke:red;stroke-width:1px;stroke-linecap:butt;stroke-linejoin:miter;stroke-opacity:1" d="M 385.163,4 429.143,28.4335 z" id="boundary" inkscape:connector-curvature="0" />
	<path style="fill:none;stroke:red;stroke-width:1px;stroke-linecap:butt;stroke-linejoin:miter;stroke-opacity:1" d="M 62.6404,209.241 33.3202,258.108 z" id="boundary" inkscape:connector-curvature="0" />
	<path style="fill:none;stroke:red;stroke-width:1px;stroke-linecap:butt;stroke-linejoin:miter;stroke-opacity:1" d="M 33.3202,258.108 4,297.202 z" id="boundary" inkscape:connector-curvature="0" />
	<path style="fill:none;stroke:red;stroke-width:1px;stroke-linecap:butt;stroke-linejoin:miter;stroke-opacity:1" d="M 4,297.202 52.867,311.862 z" id="boundary" inkscape:connector-curvature="0" />
	<path style="fill:none;stroke:red;stroke-width:1px;stroke-linecap:butt;stroke-linejoin:miter;stroke-opacity:1" d="M 52.867,311.862 101.734,311.862 z" id="boundary" inkscape:connector-curvature="0" />
	<path style="fill:none;stroke:red;stroke-width:1px;stroke-linecap:butt;stroke-linejoin:miter;stroke-opacity:1" d="M 101.734,311.862 140.828,341.182 z" id="boundary" inkscape:connector-curvature="0" />
	<path style="fill:none;stroke:red;stroke-width:1px;stroke-linecap:butt;stroke-linejoin:miter;stroke-opacity:1" d="M 140.828,341.182 170.148,380.276 z" id="boundary" inkscape:connector-curvature="0" />
	<path style="fill:none;stroke:red;stroke-width:1px;stroke-linecap:butt;stroke-linejoin:miter;stroke-opacity:1" d="M 170.148,380.276 209.241,409.596 z" id="boundary" inkscape:connector-curvature="0" />
	<path style="fill:none;stroke:red;stroke-width:1px;stroke-linecap:butt;stroke-linejoin:miter;stroke-opacity:1" d="M 209.241,409.596 258.108,429.143 z" id="boundary" inkscape:connector-curvature="0" />
	<path style="fill:none;stroke:red;stroke-width:1px;stroke-linecap:butt;stroke-linejoin:miter;stroke-opacity:1" d="M 258.108,429.143 277.655,478.01 z" id="boundary" inkscape:connector-curvature="0" />
	<path style="fill:none;stroke:red;stroke-width:1px;stroke-linecap:butt;stroke-linejoin:miter;stroke-opacity:1" d="M 277.655,478.01 277.655,526.877 z" id="boundary" inkscape:connector-curvature="0" />
	<path style="fill:none;stroke:red;stroke-width:1px;stroke-linecap:butt;stroke-linejoin:miter;stroke-opacity:1" d="M 277.655,526.877 277.655,575.744 z" id="boundary" inkscape:connector-curvature="0" />
	<path style="fill:none;stroke:red;stroke-width:1px;stroke-linecap:butt;stroke-linejoin:miter;stroke-opacity:1" d="M 277.655,575.744 277.655,624.611 z" id="boundary" inkscape:connector-curvature="0" />
	<path style="fill:none;stroke:red;stroke-width:1px;stroke-linecap:butt;stroke-linejoin:miter;stroke-opacity:1" d="M 277.655,624.611 277.655,673.478 z" id="boundary" inkscape:connector-curvature="0" />
	<path style="fill:none;stroke:red;stroke-width:1px;stroke-linecap:butt;stroke-linejoin:miter;stroke-opacity:1" d="M 277.655,673.478 277.655,722.345 z" id="boundary" inkscape:connector-curvature="0" />
	<path style="fill:none;stroke:red;stroke-width:1px;stroke-linecap:butt;stroke-linejoin:miter;stroke-opacity:1" d="M 277.655,722.345 277.655,771.212 z" id="boundary" inkscape:connector-curvature="0" />
	<path style="fill:none;stroke:red;stroke-width:1px;stroke-linecap:butt;stroke-linejoin:miter;stroke-opacity:1" d="M 277.655,771.212 277.655,820.079 z" id="boundary" inkscape:connector-curvature="0" />
	<path style="fill:none;stroke:red;stroke-width:1px;stroke-linecap:butt;stroke-linejoin:miter;stroke-opacity:1" d="M 277.655,820.079 267.882,873.833 z" id="boundary" inkscape:connector-curvature="0" />
	<path style="fill:none;stroke:red;stroke-width:1px;stroke-linecap:butt;stroke-linejoin:miter;stroke-opacity:1" d="M 267.882,873.833 248.335,922.7 z" id="boundary" inkscape:connector-curvature="0" />
	<path style="fill:none;stroke:red;stroke-width:1px;stroke-linecap:butt;stroke-linejoin:miter;stroke-opacity:1" d="M 248.335,922.7 219.015,961.793 z" id="boundary" inkscape:connector-curvature="0" />
	<path style="fill:none;stroke:red;stroke-width:1px;stroke-linecap:butt;stroke-linejoin:miter;stroke-opacity:1" d="M 219.015,961.793 258.108,996 z" id="boundary" inkscape:connector-curvature="0" />
	<path style="fill:none;stroke:red;stroke-width:1px;stroke-linecap:butt;stroke-linejoin:miter;stroke-opacity:1" d="M 258.108,996 306.975,996 z" id="boundary" inkscape:connector-curvature="0" />
	<path style="fill:none;stroke:red;stroke-width:1px;stroke-linecap:butt;stroke-linejoin:miter;stroke-opacity:1" d="M 306.975,996 355.842,996 z" id="boundary" inkscape:connector-curvature="0" />
	<path style="fill:none;stroke:red;stroke-width:1px;stroke-linecap:butt;stroke-linejoin:miter;stroke-opacity:1" d="M 355.842,996 404.709,996 z" id="boundary" inkscape:connector-curvature="0" />
	<path style="fill:none;stroke:red;stroke-width:1px;stroke-linecap:butt;stroke-linejoin:miter;stroke-opacity:1" d="M 404.709,996 453.576,996 z" id="boundary" inkscape:connector-curvature="0" />
	<path style="fill:none;stroke:red;stroke-width:1px;stroke-linecap:butt;stroke-linejoin:miter;stroke-opacity:1" d="M 453.576,996 502.443,996 z" id="boundary" inkscape:connector-curvature="0" />
	<path style="fill:none;stroke:red;stroke-width:1px;stroke-linecap:butt;stroke-linejoin:miter;stroke-opacity:1" d="M 502.443,996 487.783,937.36 z" id="boundary" inkscape:connector-curvature="0" />
	<path style="fill:none;stroke:red;stroke-width:1px;stroke-linecap:butt;stroke-linejoin:miter;stroke-opacity:1" d="M 487.783,937.36 463.35,893.379 z" id="boundary" inkscape:connector-curvature="0" />
	<path style="fill:none;stroke:red;stroke-width:1px;stroke-linecap:butt;stroke-linejoin:miter;stroke-opacity:1" d="M 463.35,893.379 448.69,844.512 z" id="boundary" inkscape:connector-curvature="0" />
	<path style="fill:none;stroke:red;stroke-width:1px;stroke-linecap:butt;stroke-linejoin:miter;stroke-opacity:1" d="M 448.69,844.512 448.69,795.645 z" id="boundary" inkscape:connector-curvature="0" />
	<path style="fill:none;stroke:red;stroke-width:1px;stroke-linecap:butt;stroke-linejoin:miter;stroke-opacity:1" d="M 448.69,795.645 448.69,746.778 z" id="boundary" inkscape:connector-curvature="0" />
	<path style="fill:none;stroke:red;stroke-width:1px;stroke-linecap:butt;stroke-linejoin:miter;stroke-opacity:1" d="M 448.69,746.778 448.69,697.911 z" id="boundary" inkscape:connector-curvature="0" />
	<path style="fill:none;stroke:red;stroke-width:1px;stroke-linecap:butt;stroke-linejoin:miter;stroke-opacity:1" d="M 448.69,697.911 448.69,649.044 z" id="boundary" inkscape:connector-curvature="0" />
	<path style="fill:none;stroke:red;stroke-width:1px;stroke-linecap:butt;stroke-linejoin:miter;stroke-opacity:1" d="M 448.69,649.044 448.69,600.177 z" id="boundary" inkscape:connector-curvature="0" />
	<path style="fill:none;stroke:red;stroke-width:1px;stroke-linecap:butt;stroke-linejoin:miter;stroke-opacity:1" d="M 448.69,600.177 448.69,551.31 z" id="boundary" inkscape:connector-curvature="0" />
	<path style="fill:none;stroke:red;stroke-width:1px;stroke-linecap:butt;stroke-linejoin:miter;stroke-opacity:1" d="M 448.69,551.31 448.69,502.443 z" id="boundary" inkscape:connector-curvature="0" />
	<path style="fill:none;stroke:red;stroke-width:1px;stroke-linecap:butt;stroke-linejoin:miter;stroke-opacity:1" d="M 448.69,502.443 448.69,453.576 z" id="boundary" inkscape:connector-curvature="0" />
	<path style="fill:none;stroke:red;stroke-width:1px;stroke-linecap:butt;stroke-linejoin:miter;stroke-opacity:1" d="M 448.69,453.576 497.557,434.03 z" id="boundary" inkscape:connector-curvature="0" />
	<path style="fill:none;stroke:red;stroke-width:1px;stroke-linecap:butt;stroke-linejoin:miter;stroke-opacity:1" d="M 497.557,434.03 541.537,409.596 z" id="boundary" inkscape:connector-curvature="0" />
	<path style="fill:none;stroke:red;stroke-width:1px;stroke-linecap:butt;stroke-linejoin:miter;stroke-opacity:1" d="M 541.537,409.596 580.631,380.276 z" id="boundary" inkscape:connector-curvature="0" />
	<path style="fill:none;stroke:red;stroke-width:1px;stroke-linecap:butt;stroke-linejoin:miter;stroke-opacity:1" d="M 580.631,380.276 609.951,341.182 z" id="boundary" inkscape:connector-curvature="0" />
	<path style="fill:none;stroke:red;stroke-width:1px;stroke-linecap:butt;stroke-linejoin:miter;stroke-opacity:1" d="M 609.951,341.182 649.044,311.862 z" id="boundary" inkscape:connector-curvature="0" />
	<path style="fill:none;stroke:red;stroke-width:1px;stroke-linecap:butt;stroke-linejoin:miter;stroke-opacity:1" d="M 649.044,311.862 697.911,311.862 z" id="boundary" inkscape:connector-curvature="0" />
	<path style="fill:none;stroke:red;stroke-width:1px;stroke-linecap:butt;stroke-linejoin:miter;stroke-opacity:1" d="M 697.911,311.862 746.778,311.862 z" id="boundary" inkscape:connector-curvature="0" />
	<path style="fill:none;stroke:red;stroke-width:1px;stroke-linecap:butt;stroke-linejoin:miter;stroke-opacity:1" d="M 746.778,311.862 751.665,253.222 z" id="boundary" inkscape:connector-curvature="0" />
	<path style="fill:none;stroke:red;stroke-width:1px;stroke-linecap:butt;stroke-linejoin:miter;stroke-opacity:1" d="M 751.665,253.222 751.665,204.355 z" id="boundary" inkscape:connector-curvature="0" />
	<path style="fill:none;stroke:red;stroke-width:1px;stroke-linecap:butt;stroke-linejoin:miter;stroke-opacity:1" d="M 751.665,204.355 727.232,160.374 z" id="boundary" inkscape:connector-curvature="0" />
	<path style="fill:none;stroke:red;stroke-width:1px;stroke-linecap:butt;stroke-linejoin:miter;stroke-opacity:1" d="M 727.232,160.374 678.365,160.374 z" id="boundary" inkscape:connector-curvature="0" />
	<path style="fill:none;stroke:red;stroke-width:1px;stroke-linecap:butt;stroke-linejoin:miter;stroke-opacity:1" d="M 678.365,160.374 629.498,160.374 z" id="boundary" inkscape:connector-curvature="0" />
	<path style="fill:none;stroke:red;stroke-width:1px;stroke-linecap:butt;stroke-linejoin:miter;stroke-opacity:1" d="M 629.498,160.374 580.631,160.374 z" id="boundary" inkscape:connector-curvature="0" />
	<path style="fill:none;stroke:red;stroke-width:1px;stroke-linecap:butt;stroke-linejoin:miter;stroke-opacity:1" d="M 580.631,160.374 531.764,170.148 z" id="boundary" inkscape:connector-curvature="0" />
	<path style="fill:none;stroke:red;stroke-width:1px;stroke-linecap:butt;stroke-linejoin:miter;stroke-opacity:1" d="M 531.764,170.148 482.897,170.148 z" id="boundary" inkscape:connector-curvature="0" />
	<path style="fill:none;stroke:red;stroke-width:1px;stroke-linecap:butt;stroke-linejoin:miter;stroke-opacity:1" d="M 482.897,170.148 434.03,170.148 z" id="boundary" inkscape:connector-curvature="0" />
	<circle cx="4" cy="297.202" r="4" fill="#0" id="circle0"/>
	<circle cx="33.3202" cy="258.108" r="4" fill="#0" id="circle1"/>
	<circle cx="52.867" cy="311.862" r="4" fill="#0" id="circle2"/>
	<circle cx="62.6404" cy="160.374" r="4" fill="#0" id="circle3"/>
	<circle cx="62.6404" cy="209.241" r="4" fill="#0" id="circle4"/>
	<circle cx="101.734" cy="311.862" r="4" fill="#0" id="circle5"/>
	<circle cx="111.507" cy="160.374" r="4" fill="#0" id="circle6"/>
	<circle cx="140.828" cy="341.182" r="4" fill="#0" id="circle7"/>
	<circle cx="160.374" cy="160.374" r="4" fill="#0" id="circle8"/>
	<circle cx="170.148" cy="380.276" r="4" fill="#0" id="circle9"/>
	<circle cx="209.241" cy="160.374" r="4" fill="#0" id="circle10"/>
	<circle cx="209.241" cy="409.596" r="4" fill="#0" id="circle11"/>
	<circle cx="219.015" cy="961.793" r="4" fill="#0" id="circle12"/>
	<circle cx="248.335" cy="922.7" r="4" fill="#0" id="circle13"/>
	<circle cx="258.108" cy="160.374" r="4" fill="#0" id="circle14"/>
	<circle cx="258.108" cy="429.143" r="4" fill="#0" id="circle15"/>
	<circle cx="258.108" cy="996" r="4" fill="#0" id="circle16"/>
	<circle cx="267.882" cy="873.833" r="4" fill="#0" id="circle17"/>
	<circle cx="277.655" cy="478.01" r="4" fill="#0" id="circle18"/>
	<circle cx="277.655" cy="526.877" r="4" fill="#0" id="circle19"/>
	<circle cx="277.655" cy="575.744" r="4" fill="#0" id="circle20"/>
	<circle cx="277.655" cy="624.611" r="4" fill="#0" id="circle21"/>
	<circle cx="277.655" cy="673.478" r="4" fill="#0" id="circle22"/>
	<circle cx="277.655" cy="722.345" r="4" fill="#0" id="circle23"/>
	<circle cx="277.655" cy="771.212" r="4" fill="#0" id="circle24"/>
	<circle cx="277.655" cy="820.079" r="4" fill="#0" id="circle25"/>
	<circle cx="306.975" cy="170.148" r="4" fill="#0" id="circle26"/>
	<circle cx="306.975" cy="996" r="4" fill="#0" id="circle27"/>
	<circle cx="355.842" cy="170.148" r="4" fill="#0" id="circle28"/>
	<circle cx="355.842" cy="996" r="4" fill="#0" id="circle29"/>
	<circle cx="365.616" cy="52.867" r="4" fill="#0" id="circle30"/>
	<circle cx="385.163" cy="4" r="4" fill="#0" id="circle31"/>
	<circle cx="394.936" cy="91.9606" r="4" fill="#0" id="circle32"/>
	<circle cx="394.936" cy="140.828" r="4" fill="#0" id="circle33"/>
	<circle cx="404.709" cy="996" r="4" fill="#0" id="circle34"/>
	<circle cx="429.143" cy="28.4335" r="4" fill="#0" id="circle35"/>
	<circle cx="434.03" cy="170.148" r="4" fill="#0" id="circle36"/>
	<circle cx="448.69" cy="453.576" r="4" fill="#0" id="circle37"/>
	<circle cx="448.69" cy="502.443" r="4" fill="#0" id="circle38"/>
	<circle cx="448.69" cy="551.31" r="4" fill="#0" id="circle39"/>
	<circle cx="448.69" cy="600.177" r="4" fill="#0" id="circle40"/>
	<circle cx="448.69" cy="649.044" r="4" fill="#0" id="circle41"/>
	<circle cx="448.69" cy="697.911" r="4" fill="#0" id="circle42"/>
	<circle cx="448.69" cy="746.778" r="4" fill="#0" id="circle43"/>
	<circle cx="448.69" cy="795.645" r="4" fill="#0" id="circle44"/>
	<circle cx="448.69" cy="844.512" r="4" fill="#0" id="circle45"/>
	<circle cx="453.576" cy="996" r="4" fill="#0" id="circle46"/>
	<circle cx="463.35" cy="893.379" r="4" fill="#0" id="circle47"/>
	<circle cx="482.897" cy="170.148" r="4" fill="#0" id="circle48"/>
	<circle cx="487.783" cy="937.36" r="4" fill="#0" id="circle49"/>
	<circle cx="497.557" cy="434.03" r="4" fill="#0" id="circle50"/>
	<circle cx="502.443" cy="996" r="4" fill="#0" id="circle51"/>
	<circle cx="531.764" cy="170.148" r="4" fill="#0" id="circle52"/>
	<circle cx="541.537" cy="409.596" r="4" fill="#0" id="circle53"/>
	<circle cx="580.631" cy="160.374" r="4" fill="#0" id="circle54"/>
	<circle cx="580.631" cy="380.276" r="4" fill="#0" id="circle55"/>
	<circle cx="609.951" cy="341.182" r="4" fill="#0" id="circle56"/>
	<circle cx="629.498" cy="160.374" r="4" fill="#0" id="circle57"/>
	<circle cx="649.044" cy="311.862" r="4" fill="#0" id="circle58"/>
	<circle cx="678.365" cy="160.374" r="4" fill="#0" id="circle59"/>
	<circle cx="697.911" cy="311.862" r="4" fill="#0" id="circle60"/>
	<circle cx="727.232" cy="160.374" r="4" fill="#0" id="circle61"/>
	<circle cx="746.778" cy="311.862" r="4" fill="#0" id="circle62"/>
	<circle cx="751.665" cy="204.355" r="4" fill="#0" id="circle63"/>
	<circle cx="751.665" cy="253.222" r="4" fill="#0" id="circle64"/>
	</g>
</svg>