<?xml version="1.0" encoding="UTF-8" standalone="no"?>
<!-- Created with CurveBenchmark -->
<svg
	xmlns:dc="http://purl.org/dc/elements/1.1/"
	xmlns:cc="http://creativecommons.org/ns#"
	xmlns:rdf="http://www.w3.org/1999/02/22-rdf-syntax-ns#"
	xmlns:svg="http://www.w3.org/2000/svg"
	xmlns="http://www.w3.org/2000/svg"
	xmlns:sodipodi="http://sodipodi.sourceforge.net/DTD/sodipodi-0.dtd"
	xmlns:inkscape="http://www.inkscape.org/namespaces/inkscape"
	width="1000"
	height="1000"
	id="svg2"
	version="1.1"
	sodipodi:docname="manifold/crawl-arb02.png.txt">
<defs
	id="defs4" />
<metadata
	id="metadata7">
	<rdf:RDF>
		<cc:Work
			rdf:about="">
			<dc:format>image/svg+xml</dc:format>
			<dc:type
				rdf:resource="http://purl.org/dc/dcmitype/StillImage" />
			<dc:title></dc:title>
		</cc:Work>
	</rdf:RDF>
</metadata>
<g
	inkscape:label="Layer 1"
	inkscape:groupmode="layer"
	id="layer1">
	<path style="fill:none;stroke:red;stroke-width:1px;stroke-linecap:butt;stroke-linejoin:miter;stroke-opacity:1" d="M 22.7612,19.2435 15.7258,9.86288 z" id="boundary" inkscape:connector-curvature="0" />
	<path style="fill:none;stroke:red;stroke-width:1px;stroke-linecap:butt;stroke-linejoin:miter;stroke-opacity:1" d="M 22.7612,19.2435 34.487,22.7612 z" id="boundary" inkscape:connector-curvature="0" />
	<path style="fill:none;stroke:red;stroke-width:1px;stroke-linecap:butt;stroke-linejoin:miter;stroke-opacity:1" d="M 34.487,22.7612 42.695,32.1418 z" id="boundary" inkscape:connector-curvature="0" />
	<path style="fill:none;stroke:red;stroke-width:1px;stroke-linecap:butt;stroke-linejoin:miter;stroke-opacity:1" d="M 42.695,32.1418 52.0757,40.3499 z" id="boundary" inkscape:connector-curvature="0" />
	<path style="fill:none;stroke:red;stroke-width:1px;stroke-linecap:butt;stroke-linejoin:miter;stroke-opacity:1" d="M 52.0757,40.3499 61.4563,48.5579 z" id="boundary" inkscape:connector-curvature="0" />
	<path style="fill:none;stroke:red;stroke-width:1px;stroke-linecap:butt;stroke-linejoin:miter;stroke-opacity:1" d="M 61.4563,48.5579 72.0095,54.4208 z" id="boundary" inkscape:connector-curvature="0" />
	<path style="fill:none;stroke:red;stroke-width:1px;stroke-linecap:butt;stroke-linejoin:miter;stroke-opacity:1" d="M 72.0095,54.4208 80.2175,63.8014 z" id="boundary" inkscape:connector-curvature="0" />
	<path style="fill:none;stroke:red;stroke-width:1px;stroke-linecap:butt;stroke-linejoin:miter;stroke-opacity:1" d="M 80.2175,63.8014 89.5981,72.0095 z" id="boundary" inkscape:connector-curvature="0" />
	<path style="fill:none;stroke:red;stroke-width:1px;stroke-linecap:butt;stroke-linejoin:miter;stroke-opacity:1" d="M 89.5981,72.0095 100.151,77.8723 z" id="boundary" inkscape:connector-curvature="0" />
	<path style="fill:none;stroke:red;stroke-width:1px;stroke-linecap:butt;stroke-linejoin:miter;stroke-opacity:1" d="M 100.151,77.8723 109.532,86.0804 z" id="boundary" inkscape:connector-curvature="0" />
	<path style="fill:none;stroke:red;stroke-width:1px;stroke-linecap:butt;stroke-linejoin:miter;stroke-opacity:1" d="M 109.532,86.0804 116.567,95.461 z" id="boundary" inkscape:connector-curvature="0" />
	<path style="fill:none;stroke:red;stroke-width:1px;stroke-linecap:butt;stroke-linejoin:miter;stroke-opacity:1" d="M 116.567,95.461 125.948,102.496 z" id="boundary" inkscape:connector-curvature="0" />
	<path style="fill:none;stroke:red;stroke-width:1px;stroke-linecap:butt;stroke-linejoin:miter;stroke-opacity:1" d="M 125.948,102.496 136.501,108.359 z" id="boundary" inkscape:connector-curvature="0" />
	<path style="fill:none;stroke:red;stroke-width:1px;stroke-linecap:butt;stroke-linejoin:miter;stroke-opacity:1" d="M 136.501,108.359 145.882,116.567 z" id="boundary" inkscape:connector-curvature="0" />
	<path style="fill:none;stroke:red;stroke-width:1px;stroke-linecap:butt;stroke-linejoin:miter;stroke-opacity:1" d="M 145.882,116.567 154.09,125.948 z" id="boundary" inkscape:connector-curvature="0" />
	<path style="fill:none;stroke:red;stroke-width:1px;stroke-linecap:butt;stroke-linejoin:miter;stroke-opacity:1" d="M 154.09,125.948 163.47,134.156 z" id="boundary" inkscape:connector-curvature="0" />
	<path style="fill:none;stroke:red;stroke-width:1px;stroke-linecap:butt;stroke-linejoin:miter;stroke-opacity:1" d="M 163.47,134.156 172.851,142.364 z" id="boundary" inkscape:connector-curvature="0" />
	<path style="fill:none;stroke:red;stroke-width:1px;stroke-linecap:butt;stroke-linejoin:miter;stroke-opacity:1" d="M 172.851,142.364 183.404,148.227 z" id="boundary" inkscape:connector-curvature="0" />
	<path style="fill:none;stroke:red;stroke-width:1px;stroke-linecap:butt;stroke-linejoin:miter;stroke-opacity:1" d="M 183.404,148.227 191.612,157.608 z" id="boundary" inkscape:connector-curvature="0" />
	<path style="fill:none;stroke:red;stroke-width:1px;stroke-linecap:butt;stroke-linejoin:miter;stroke-opacity:1" d="M 191.612,157.608 200.993,165.816 z" id="boundary" inkscape:connector-curvature="0" />
	<path style="fill:none;stroke:red;stroke-width:1px;stroke-linecap:butt;stroke-linejoin:miter;stroke-opacity:1" d="M 200.993,165.816 211.546,171.678 z" id="boundary" inkscape:connector-curvature="0" />
	<path style="fill:none;stroke:red;stroke-width:1px;stroke-linecap:butt;stroke-linejoin:miter;stroke-opacity:1" d="M 211.546,171.678 220.927,179.887 z" id="boundary" inkscape:connector-curvature="0" />
	<path style="fill:none;stroke:red;stroke-width:1px;stroke-linecap:butt;stroke-linejoin:miter;stroke-opacity:1" d="M 220.927,179.887 227.962,189.267 z" id="boundary" inkscape:connector-curvature="0" />
	<path style="fill:none;stroke:red;stroke-width:1px;stroke-linecap:butt;stroke-linejoin:miter;stroke-opacity:1" d="M 227.962,189.267 237.343,196.303 z" id="boundary" inkscape:connector-curvature="0" />
	<path style="fill:none;stroke:red;stroke-width:1px;stroke-linecap:butt;stroke-linejoin:miter;stroke-opacity:1" d="M 237.343,196.303 247.896,202.165 z" id="boundary" inkscape:connector-curvature="0" />
	<path style="fill:none;stroke:red;stroke-width:1px;stroke-linecap:butt;stroke-linejoin:miter;stroke-opacity:1" d="M 247.896,202.165 257.277,210.374 z" id="boundary" inkscape:connector-curvature="0" />
	<path style="fill:none;stroke:red;stroke-width:1px;stroke-linecap:butt;stroke-linejoin:miter;stroke-opacity:1" d="M 257.277,210.374 265.485,219.754 z" id="boundary" inkscape:connector-curvature="0" />
	<path style="fill:none;stroke:red;stroke-width:1px;stroke-linecap:butt;stroke-linejoin:miter;stroke-opacity:1" d="M 265.485,219.754 274.865,227.962 z" id="boundary" inkscape:connector-curvature="0" />
	<path style="fill:none;stroke:red;stroke-width:1px;stroke-linecap:butt;stroke-linejoin:miter;stroke-opacity:1" d="M 274.865,227.962 285.418,233.825 z" id="boundary" inkscape:connector-curvature="0" />
	<path style="fill:none;stroke:red;stroke-width:1px;stroke-linecap:butt;stroke-linejoin:miter;stroke-opacity:1" d="M 285.418,233.825 294.799,242.033 z" id="boundary" inkscape:connector-curvature="0" />
	<path style="fill:none;stroke:red;stroke-width:1px;stroke-linecap:butt;stroke-linejoin:miter;stroke-opacity:1" d="M 294.799,242.033 303.007,251.414 z" id="boundary" inkscape:connector-curvature="0" />
	<path style="fill:none;stroke:red;stroke-width:1px;stroke-linecap:butt;stroke-linejoin:miter;stroke-opacity:1" d="M 303.007,251.414 312.388,259.622 z" id="boundary" inkscape:connector-curvature="0" />
	<path style="fill:none;stroke:red;stroke-width:1px;stroke-linecap:butt;stroke-linejoin:miter;stroke-opacity:1" d="M 312.388,259.622 322.941,265.485 z" id="boundary" inkscape:connector-curvature="0" />
	<path style="fill:none;stroke:red;stroke-width:1px;stroke-linecap:butt;stroke-linejoin:miter;stroke-opacity:1" d="M 322.941,265.485 332.322,273.693 z" id="boundary" inkscape:connector-curvature="0" />
	<path style="fill:none;stroke:red;stroke-width:1px;stroke-linecap:butt;stroke-linejoin:miter;stroke-opacity:1" d="M 332.322,273.693 344.047,277.21 z" id="boundary" inkscape:connector-curvature="0" />
	<path style="fill:none;stroke:red;stroke-width:1px;stroke-linecap:butt;stroke-linejoin:miter;stroke-opacity:1" d="M 344.047,277.21 355.773,277.21 z" id="boundary" inkscape:connector-curvature="0" />
	<path style="fill:none;stroke:red;stroke-width:1px;stroke-linecap:butt;stroke-linejoin:miter;stroke-opacity:1" d="M 355.773,277.21 367.499,277.21 z" id="boundary" inkscape:connector-curvature="0" />
	<path style="fill:none;stroke:red;stroke-width:1px;stroke-linecap:butt;stroke-linejoin:miter;stroke-opacity:1" d="M 367.499,277.21 379.225,277.21 z" id="boundary" inkscape:connector-curvature="0" />
	<path style="fill:none;stroke:red;stroke-width:1px;stroke-linecap:butt;stroke-linejoin:miter;stroke-opacity:1" d="M 379.225,277.21 390.95,277.21 z" id="boundary" inkscape:connector-curvature="0" />
	<path style="fill:none;stroke:red;stroke-width:1px;stroke-linecap:butt;stroke-linejoin:miter;stroke-opacity:1" d="M 390.95,277.21 402.676,277.21 z" id="boundary" inkscape:connector-curvature="0" />
	<path style="fill:none;stroke:red;stroke-width:1px;stroke-linecap:butt;stroke-linejoin:miter;stroke-opacity:1" d="M 402.676,277.21 414.402,277.21 z" id="boundary" inkscape:connector-curvature="0" />
	<path style="fill:none;stroke:red;stroke-width:1px;stroke-linecap:butt;stroke-linejoin:miter;stroke-opacity:1" d="M 414.402,277.21 424.955,271.348 z" id="boundary" inkscape:connector-curvature="0" />
	<path style="fill:none;stroke:red;stroke-width:1px;stroke-linecap:butt;stroke-linejoin:miter;stroke-opacity:1" d="M 424.955,271.348 435.508,265.485 z" id="boundary" inkscape:connector-curvature="0" />
	<path style="fill:none;stroke:red;stroke-width:1px;stroke-linecap:butt;stroke-linejoin:miter;stroke-opacity:1" d="M 15.7258,9.86288 4,5.17258 z" id="boundary" inkscape:connector-curvature="0" />
	<path style="fill:none;stroke:red;stroke-width:1px;stroke-linecap:butt;stroke-linejoin:miter;stroke-opacity:1" d="M 4,5.17258 4,16.8983 z" id="boundary" inkscape:connector-curvature="0" />
	<path style="fill:none;stroke:red;stroke-width:1px;stroke-linecap:butt;stroke-linejoin:miter;stroke-opacity:1" d="M 4,16.8983 4,28.6241 z" id="boundary" inkscape:connector-curvature="0" />
	<path style="fill:none;stroke:red;stroke-width:1px;stroke-linecap:butt;stroke-linejoin:miter;stroke-opacity:1" d="M 4,28.6241 4,40.3499 z" id="boundary" inkscape:connector-curvature="0" />
	<path style="fill:none;stroke:red;stroke-width:1px;stroke-linecap:butt;stroke-linejoin:miter;stroke-opacity:1" d="M 4,40.3499 4,52.0757 z" id="boundary" inkscape:connector-curvature="0" />
	<path style="fill:none;stroke:red;stroke-width:1px;stroke-linecap:butt;stroke-linejoin:miter;stroke-opacity:1" d="M 4,52.0757 4,63.8014 z" id="boundary" inkscape:connector-curvature="0" />
	<path style="fill:none;stroke:red;stroke-width:1px;stroke-linecap:butt;stroke-linejoin:miter;stroke-opacity:1" d="M 4,63.8014 4,75.5272 z" id="boundary" inkscape:connector-curvature="0" />
	<path style="fill:none;stroke:red;stroke-width:1px;stroke-linecap:butt;stroke-linejoin:miter;stroke-opacity:1" d="M 4,75.5272 4,87.253 z" id="boundary" inkscape:connector-curvature="0" />
	<path style="fill:none;stroke:red;stroke-width:1px;stroke-linecap:butt;stroke-linejoin:miter;stroke-opacity:1" d="M 4,87.253 4,98.9787 z" id="boundary" inkscape:connector-curvature="0" />
	<path style="fill:none;stroke:red;stroke-width:1px;stroke-linecap:butt;stroke-linejoin:miter;stroke-opacity:1" d="M 4,98.9787 4,110.704 z" id="boundary" inkscape:connector-curvature="0" />
	<path style="fill:none;stroke:red;stroke-width:1px;stroke-linecap:butt;stroke-linejoin:miter;stroke-opacity:1" d="M 4,110.704 4,122.43 z" id="boundary" inkscape:connector-curvature="0" />
	<path style="fill:none;stroke:red;stroke-width:1px;stroke-linecap:butt;stroke-linejoin:miter;stroke-opacity:1" d="M 4,122.43 4,134.156 z" id="boundary" inkscape:connector-curvature="0" />
	<path style="fill:none;stroke:red;stroke-width:1px;stroke-linecap:butt;stroke-linejoin:miter;stroke-opacity:1" d="M 4,134.156 4,145.882 z" id="boundary" inkscape:connector-curvature="0" />
	<path style="fill:none;stroke:red;stroke-width:1px;stroke-linecap:butt;stroke-linejoin:miter;stroke-opacity:1" d="M 4,145.882 4,157.608 z" id="boundary" inkscape:connector-curvature="0" />
	<path style="fill:none;stroke:red;stroke-width:1px;stroke-linecap:butt;stroke-linejoin:miter;stroke-opacity:1" d="M 4,157.608 4,169.333 z" id="boundary" inkscape:connector-curvature="0" />
	<path style="fill:none;stroke:red;stroke-width:1px;stroke-linecap:butt;stroke-linejoin:miter;stroke-opacity:1" d="M 4,169.333 4,181.059 z" id="boundary" inkscape:connector-curvature="0" />
	<path style="fill:none;stroke:red;stroke-width:1px;stroke-linecap:butt;stroke-linejoin:miter;stroke-opacity:1" d="M 4,181.059 4,192.785 z" id="boundary" inkscape:connector-curvature="0" />
	<path style="fill:none;stroke:red;stroke-width:1px;stroke-linecap:butt;stroke-linejoin:miter;stroke-opacity:1" d="M 4,192.785 4,204.511 z" id="boundary" inkscape:connector-curvature="0" />
	<path style="fill:none;stroke:red;stroke-width:1px;stroke-linecap:butt;stroke-linejoin:miter;stroke-opacity:1" d="M 4,204.511 4,216.236 z" id="boundary" inkscape:connector-curvature="0" />
	<path style="fill:none;stroke:red;stroke-width:1px;stroke-linecap:butt;stroke-linejoin:miter;stroke-opacity:1" d="M 4,216.236 4,227.962 z" id="boundary" inkscape:connector-curvature="0" />
	<path style="fill:none;stroke:red;stroke-width:1px;stroke-linecap:butt;stroke-linejoin:miter;stroke-opacity:1" d="M 4,227.962 4,239.688 z" id="boundary" inkscape:connector-curvature="0" />
	<path style="fill:none;stroke:red;stroke-width:1px;stroke-linecap:butt;stroke-linejoin:miter;stroke-opacity:1" d="M 4,239.688 4,251.414 z" id="boundary" inkscape:connector-curvature="0" />
	<path style="fill:none;stroke:red;stroke-width:1px;stroke-linecap:butt;stroke-linejoin:miter;stroke-opacity:1" d="M 4,251.414 4,263.139 z" id="boundary" inkscape:connector-curvature="0" />
	<path style="fill:none;stroke:red;stroke-width:1px;stroke-linecap:butt;stroke-linejoin:miter;stroke-opacity:1" d="M 4,263.139 4,274.865 z" id="boundary" inkscape:connector-curvature="0" />
	<path style="fill:none;stroke:red;stroke-width:1px;stroke-linecap:butt;stroke-linejoin:miter;stroke-opacity:1" d="M 4,274.865 4,286.591 z" id="boundary" inkscape:connector-curvature="0" />
	<path style="fill:none;stroke:red;stroke-width:1px;stroke-linecap:butt;stroke-linejoin:miter;stroke-opacity:1" d="M 4,286.591 4,298.317 z" id="boundary" inkscape:connector-curvature="0" />
	<path style="fill:none;stroke:red;stroke-width:1px;stroke-linecap:butt;stroke-linejoin:miter;stroke-opacity:1" d="M 4,298.317 4,310.043 z" id="boundary" inkscape:connector-curvature="0" />
	<path style="fill:none;stroke:red;stroke-width:1px;stroke-linecap:butt;stroke-linejoin:miter;stroke-opacity:1" d="M 4,310.043 4,321.768 z" id="boundary" inkscape:connector-curvature="0" />
	<path style="fill:none;stroke:red;stroke-width:1px;stroke-linecap:butt;stroke-linejoin:miter;stroke-opacity:1" d="M 4,321.768 4,333.494 z" id="boundary" inkscape:connector-curvature="0" />
	<path style="fill:none;stroke:red;stroke-width:1px;stroke-linecap:butt;stroke-linejoin:miter;stroke-opacity:1" d="M 4,333.494 4,345.22 z" id="boundary" inkscape:connector-curvature="0" />
	<path style="fill:none;stroke:red;stroke-width:1px;stroke-linecap:butt;stroke-linejoin:miter;stroke-opacity:1" d="M 4,345.22 4,356.946 z" id="boundary" inkscape:connector-curvature="0" />
	<path style="fill:none;stroke:red;stroke-width:1px;stroke-linecap:butt;stroke-linejoin:miter;stroke-opacity:1" d="M 4,356.946 4,368.671 z" id="boundary" inkscape:connector-curvature="0" />
	<path style="fill:none;stroke:red;stroke-width:1px;stroke-linecap:butt;stroke-linejoin:miter;stroke-opacity:1" d="M 4,368.671 4,380.397 z" id="boundary" inkscape:connector-curvature="0" />
	<path style="fill:none;stroke:red;stroke-width:1px;stroke-linecap:butt;stroke-linejoin:miter;stroke-opacity:1" d="M 4,380.397 4,392.123 z" id="boundary" inkscape:connector-curvature="0" />
	<path style="fill:none;stroke:red;stroke-width:1px;stroke-linecap:butt;stroke-linejoin:miter;stroke-opacity:1" d="M 4,392.123 4,403.849 z" id="boundary" inkscape:connector-curvature="0" />
	<path style="fill:none;stroke:red;stroke-width:1px;stroke-linecap:butt;stroke-linejoin:miter;stroke-opacity:1" d="M 4,403.849 4,415.574 z" id="boundary" inkscape:connector-curvature="0" />
	<path style="fill:none;stroke:red;stroke-width:1px;stroke-linecap:butt;stroke-linejoin:miter;stroke-opacity:1" d="M 4,415.574 4,427.3 z" id="boundary" inkscape:connector-curvature="0" />
	<path style="fill:none;stroke:red;stroke-width:1px;stroke-linecap:butt;stroke-linejoin:miter;stroke-opacity:1" d="M 4,427.3 4,439.026 z" id="boundary" inkscape:connector-curvature="0" />
	<path style="fill:none;stroke:red;stroke-width:1px;stroke-linecap:butt;stroke-linejoin:miter;stroke-opacity:1" d="M 4,439.026 4,450.752 z" id="boundary" inkscape:connector-curvature="0" />
	<path style="fill:none;stroke:red;stroke-width:1px;stroke-linecap:butt;stroke-linejoin:miter;stroke-opacity:1" d="M 4,450.752 4,462.478 z" id="boundary" inkscape:connector-curvature="0" />
	<path style="fill:none;stroke:red;stroke-width:1px;stroke-linecap:butt;stroke-linejoin:miter;stroke-opacity:1" d="M 4,462.478 4,474.203 z" id="boundary" inkscape:connector-curvature="0" />
	<path style="fill:none;stroke:red;stroke-width:1px;stroke-linecap:butt;stroke-linejoin:miter;stroke-opacity:1" d="M 4,474.203 4,485.929 z" id="boundary" inkscape:connector-curvature="0" />
	<path style="fill:none;stroke:red;stroke-width:1px;stroke-linecap:butt;stroke-linejoin:miter;stroke-opacity:1" d="M 4,485.929 4,497.655 z" id="boundary" inkscape:connector-curvature="0" />
	<path style="fill:none;stroke:red;stroke-width:1px;stroke-linecap:butt;stroke-linejoin:miter;stroke-opacity:1" d="M 4,497.655 4,509.381 z" id="boundary" inkscape:connector-curvature="0" />
	<path style="fill:none;stroke:red;stroke-width:1px;stroke-linecap:butt;stroke-linejoin:miter;stroke-opacity:1" d="M 4,509.381 4,521.106 z" id="boundary" inkscape:connector-curvature="0" />
	<path style="fill:none;stroke:red;stroke-width:1px;stroke-linecap:butt;stroke-linejoin:miter;stroke-opacity:1" d="M 4,521.106 4,532.832 z" id="boundary" inkscape:connector-curvature="0" />
	<path style="fill:none;stroke:red;stroke-width:1px;stroke-linecap:butt;stroke-linejoin:miter;stroke-opacity:1" d="M 4,532.832 4,544.558 z" id="boundary" inkscape:connector-curvature="0" />
	<path style="fill:none;stroke:red;stroke-width:1px;stroke-linecap:butt;stroke-linejoin:miter;stroke-opacity:1" d="M 4,544.558 4,556.284 z" id="boundary" inkscape:connector-curvature="0" />
	<path style="fill:none;stroke:red;stroke-width:1px;stroke-linecap:butt;stroke-linejoin:miter;stroke-opacity:1" d="M 4,556.284 4,568.009 z" id="boundary" inkscape:connector-curvature="0" />
	<path style="fill:none;stroke:red;stroke-width:1px;stroke-linecap:butt;stroke-linejoin:miter;stroke-opacity:1" d="M 4,568.009 4,579.735 z" id="boundary" inkscape:connector-curvature="0" />
	<path style="fill:none;stroke:red;stroke-width:1px;stroke-linecap:butt;stroke-linejoin:miter;stroke-opacity:1" d="M 4,579.735 4,591.461 z" id="boundary" inkscape:connector-curvature="0" />
	<path style="fill:none;stroke:red;stroke-width:1px;stroke-linecap:butt;stroke-linejoin:miter;stroke-opacity:1" d="M 4,591.461 4,603.187 z" id="boundary" inkscape:connector-curvature="0" />
	<path style="fill:none;stroke:red;stroke-width:1px;stroke-linecap:butt;stroke-linejoin:miter;stroke-opacity:1" d="M 4,603.187 4,614.913 z" id="boundary" inkscape:connector-curvature="0" />
	<path style="fill:none;stroke:red;stroke-width:1px;stroke-linecap:butt;stroke-linejoin:miter;stroke-opacity:1" d="M 4,614.913 4,626.638 z" id="boundary" inkscape:connector-curvature="0" />
	<path style="fill:none;stroke:red;stroke-width:1px;stroke-linecap:butt;stroke-linejoin:miter;stroke-opacity:1" d="M 4,626.638 4,638.364 z" id="boundary" inkscape:connector-curvature="0" />
	<path style="fill:none;stroke:red;stroke-width:1px;stroke-linecap:butt;stroke-linejoin:miter;stroke-opacity:1" d="M 4,638.364 4,650.09 z" id="boundary" inkscape:connector-curvature="0" />
	<path style="fill:none;stroke:red;stroke-width:1px;stroke-linecap:butt;stroke-linejoin:miter;stroke-opacity:1" d="M 4,650.09 4,661.816 z" id="boundary" inkscape:connector-curvature="0" />
	<path style="fill:none;stroke:red;stroke-width:1px;stroke-linecap:butt;stroke-linejoin:miter;stroke-opacity:1" d="M 4,661.816 4,673.541 z" id="boundary" inkscape:connector-curvature="0" />
	<path style="fill:none;stroke:red;stroke-width:1px;stroke-linecap:butt;stroke-linejoin:miter;stroke-opacity:1" d="M 4,673.541 4,685.267 z" id="boundary" inkscape:connector-curvature="0" />
	<path style="fill:none;stroke:red;stroke-width:1px;stroke-linecap:butt;stroke-linejoin:miter;stroke-opacity:1" d="M 4,685.267 4,696.993 z" id="boundary" inkscape:connector-curvature="0" />
	<path style="fill:none;stroke:red;stroke-width:1px;stroke-linecap:butt;stroke-linejoin:miter;stroke-opacity:1" d="M 4,696.993 4,708.719 z" id="boundary" inkscape:connector-curvature="0" />
	<path style="fill:none;stroke:red;stroke-width:1px;stroke-linecap:butt;stroke-linejoin:miter;stroke-opacity:1" d="M 4,708.719 15.7258,712.236 z" id="boundary" inkscape:connector-curvature="0" />
	<path style="fill:none;stroke:red;stroke-width:1px;stroke-linecap:butt;stroke-linejoin:miter;stroke-opacity:1" d="M 15.7258,712.236 25.1064,705.201 z" id="boundary" inkscape:connector-curvature="0" />
	<path style="fill:none;stroke:red;stroke-width:1px;stroke-linecap:butt;stroke-linejoin:miter;stroke-opacity:1" d="M 25.1064,705.201 36.8322,699.338 z" id="boundary" inkscape:connector-curvature="0" />
	<path style="fill:none;stroke:red;stroke-width:1px;stroke-linecap:butt;stroke-linejoin:miter;stroke-opacity:1" d="M 435.508,265.485 447.234,259.622 z" id="boundary" inkscape:connector-curvature="0" />
	<path style="fill:none;stroke:red;stroke-width:1px;stroke-linecap:butt;stroke-linejoin:miter;stroke-opacity:1" d="M 447.234,259.622 453.097,247.896 z" id="boundary" inkscape:connector-curvature="0" />
	<path style="fill:none;stroke:red;stroke-width:1px;stroke-linecap:butt;stroke-linejoin:miter;stroke-opacity:1" d="M 36.8322,699.338 46.2128,688.785 z" id="boundary" inkscape:connector-curvature="0" />
	<path style="fill:none;stroke:red;stroke-width:1px;stroke-linecap:butt;stroke-linejoin:miter;stroke-opacity:1" d="M 46.2128,688.785 57.9385,682.922 z" id="boundary" inkscape:connector-curvature="0" />
	<path style="fill:none;stroke:red;stroke-width:1px;stroke-linecap:butt;stroke-linejoin:miter;stroke-opacity:1" d="M 57.9385,682.922 68.4917,677.059 z" id="boundary" inkscape:connector-curvature="0" />
	<path style="fill:none;stroke:red;stroke-width:1px;stroke-linecap:butt;stroke-linejoin:miter;stroke-opacity:1" d="M 68.4917,677.059 77.8723,670.024 z" id="boundary" inkscape:connector-curvature="0" />
	<path style="fill:none;stroke:red;stroke-width:1px;stroke-linecap:butt;stroke-linejoin:miter;stroke-opacity:1" d="M 77.8723,670.024 89.5981,664.161 z" id="boundary" inkscape:connector-curvature="0" />
	<path style="fill:none;stroke:red;stroke-width:1px;stroke-linecap:butt;stroke-linejoin:miter;stroke-opacity:1" d="M 89.5981,664.161 98.9787,653.608 z" id="boundary" inkscape:connector-curvature="0" />
	<path style="fill:none;stroke:red;stroke-width:1px;stroke-linecap:butt;stroke-linejoin:miter;stroke-opacity:1" d="M 98.9787,653.608 110.704,647.745 z" id="boundary" inkscape:connector-curvature="0" />
	<path style="fill:none;stroke:red;stroke-width:1px;stroke-linecap:butt;stroke-linejoin:miter;stroke-opacity:1" d="M 110.704,647.745 121.258,641.882 z" id="boundary" inkscape:connector-curvature="0" />
	<path style="fill:none;stroke:red;stroke-width:1px;stroke-linecap:butt;stroke-linejoin:miter;stroke-opacity:1" d="M 121.258,641.882 130.638,634.846 z" id="boundary" inkscape:connector-curvature="0" />
	<path style="fill:none;stroke:red;stroke-width:1px;stroke-linecap:butt;stroke-linejoin:miter;stroke-opacity:1" d="M 130.638,634.846 142.364,628.983 z" id="boundary" inkscape:connector-curvature="0" />
	<path style="fill:none;stroke:red;stroke-width:1px;stroke-linecap:butt;stroke-linejoin:miter;stroke-opacity:1" d="M 142.364,628.983 151.745,618.43 z" id="boundary" inkscape:connector-curvature="0" />
	<path style="fill:none;stroke:red;stroke-width:1px;stroke-linecap:butt;stroke-linejoin:miter;stroke-opacity:1" d="M 151.745,618.43 163.47,612.567 z" id="boundary" inkscape:connector-curvature="0" />
	<path style="fill:none;stroke:red;stroke-width:1px;stroke-linecap:butt;stroke-linejoin:miter;stroke-opacity:1" d="M 163.47,612.567 174.024,606.704 z" id="boundary" inkscape:connector-curvature="0" />
	<path style="fill:none;stroke:red;stroke-width:1px;stroke-linecap:butt;stroke-linejoin:miter;stroke-opacity:1" d="M 174.024,606.704 184.577,600.842 z" id="boundary" inkscape:connector-curvature="0" />
	<path style="fill:none;stroke:red;stroke-width:1px;stroke-linecap:butt;stroke-linejoin:miter;stroke-opacity:1" d="M 184.577,600.842 195.13,593.806 z" id="boundary" inkscape:connector-curvature="0" />
	<path style="fill:none;stroke:red;stroke-width:1px;stroke-linecap:butt;stroke-linejoin:miter;stroke-opacity:1" d="M 195.13,593.806 206.856,587.943 z" id="boundary" inkscape:connector-curvature="0" />
	<path style="fill:none;stroke:red;stroke-width:1px;stroke-linecap:butt;stroke-linejoin:miter;stroke-opacity:1" d="M 206.856,587.943 216.236,577.39 z" id="boundary" inkscape:connector-curvature="0" />
	<path style="fill:none;stroke:red;stroke-width:1px;stroke-linecap:butt;stroke-linejoin:miter;stroke-opacity:1" d="M 216.236,577.39 227.962,571.527 z" id="boundary" inkscape:connector-curvature="0" />
	<path style="fill:none;stroke:red;stroke-width:1px;stroke-linecap:butt;stroke-linejoin:miter;stroke-opacity:1" d="M 227.962,571.527 238.515,565.664 z" id="boundary" inkscape:connector-curvature="0" />
	<path style="fill:none;stroke:red;stroke-width:1px;stroke-linecap:butt;stroke-linejoin:miter;stroke-opacity:1" d="M 238.515,565.664 247.896,558.629 z" id="boundary" inkscape:connector-curvature="0" />
	<path style="fill:none;stroke:red;stroke-width:1px;stroke-linecap:butt;stroke-linejoin:miter;stroke-opacity:1" d="M 247.896,558.629 259.622,552.766 z" id="boundary" inkscape:connector-curvature="0" />
	<path style="fill:none;stroke:red;stroke-width:1px;stroke-linecap:butt;stroke-linejoin:miter;stroke-opacity:1" d="M 259.622,552.766 269.002,542.213 z" id="boundary" inkscape:connector-curvature="0" />
	<path style="fill:none;stroke:red;stroke-width:1px;stroke-linecap:butt;stroke-linejoin:miter;stroke-opacity:1" d="M 269.002,542.213 280.728,536.35 z" id="boundary" inkscape:connector-curvature="0" />
	<path style="fill:none;stroke:red;stroke-width:1px;stroke-linecap:butt;stroke-linejoin:miter;stroke-opacity:1" d="M 280.728,536.35 291.281,530.487 z" id="boundary" inkscape:connector-curvature="0" />
	<path style="fill:none;stroke:red;stroke-width:1px;stroke-linecap:butt;stroke-linejoin:miter;stroke-opacity:1" d="M 291.281,530.487 300.662,523.452 z" id="boundary" inkscape:connector-curvature="0" />
	<path style="fill:none;stroke:red;stroke-width:1px;stroke-linecap:butt;stroke-linejoin:miter;stroke-opacity:1" d="M 300.662,523.452 312.388,517.589 z" id="boundary" inkscape:connector-curvature="0" />
	<path style="fill:none;stroke:red;stroke-width:1px;stroke-linecap:butt;stroke-linejoin:miter;stroke-opacity:1" d="M 312.388,517.589 321.768,507.035 z" id="boundary" inkscape:connector-curvature="0" />
	<path style="fill:none;stroke:red;stroke-width:1px;stroke-linecap:butt;stroke-linejoin:miter;stroke-opacity:1" d="M 321.768,507.035 333.494,501.173 z" id="boundary" inkscape:connector-curvature="0" />
	<path style="fill:none;stroke:red;stroke-width:1px;stroke-linecap:butt;stroke-linejoin:miter;stroke-opacity:1" d="M 333.494,501.173 345.22,501.173 z" id="boundary" inkscape:connector-curvature="0" />
	<path style="fill:none;stroke:red;stroke-width:1px;stroke-linecap:butt;stroke-linejoin:miter;stroke-opacity:1" d="M 345.22,501.173 356.946,495.31 z" id="boundary" inkscape:connector-curvature="0" />
	<path style="fill:none;stroke:red;stroke-width:1px;stroke-linecap:butt;stroke-linejoin:miter;stroke-opacity:1" d="M 356.946,495.31 368.671,495.31 z" id="boundary" inkscape:connector-curvature="0" />
	<path style="fill:none;stroke:red;stroke-width:1px;stroke-linecap:butt;stroke-linejoin:miter;stroke-opacity:1" d="M 368.671,495.31 380.397,495.31 z" id="boundary" inkscape:connector-curvature="0" />
	<path style="fill:none;stroke:red;stroke-width:1px;stroke-linecap:butt;stroke-linejoin:miter;stroke-opacity:1" d="M 380.397,495.31 392.123,489.447 z" id="boundary" inkscape:connector-curvature="0" />
	<path style="fill:none;stroke:red;stroke-width:1px;stroke-linecap:butt;stroke-linejoin:miter;stroke-opacity:1" d="M 392.123,489.447 403.849,489.447 z" id="boundary" inkscape:connector-curvature="0" />
	<path style="fill:none;stroke:red;stroke-width:1px;stroke-linecap:butt;stroke-linejoin:miter;stroke-opacity:1" d="M 403.849,489.447 415.574,489.447 z" id="boundary" inkscape:connector-curvature="0" />
	<path style="fill:none;stroke:red;stroke-width:1px;stroke-linecap:butt;stroke-linejoin:miter;stroke-opacity:1" d="M 415.574,489.447 427.3,483.584 z" id="boundary" inkscape:connector-curvature="0" />
	<path style="fill:none;stroke:red;stroke-width:1px;stroke-linecap:butt;stroke-linejoin:miter;stroke-opacity:1" d="M 427.3,483.584 439.026,483.584 z" id="boundary" inkscape:connector-curvature="0" />
	<path style="fill:none;stroke:red;stroke-width:1px;stroke-linecap:butt;stroke-linejoin:miter;stroke-opacity:1" d="M 439.026,483.584 450.752,483.584 z" id="boundary" inkscape:connector-curvature="0" />
	<path style="fill:none;stroke:red;stroke-width:1px;stroke-linecap:butt;stroke-linejoin:miter;stroke-opacity:1" d="M 450.752,483.584 462.478,477.721 z" id="boundary" inkscape:connector-curvature="0" />
	<path style="fill:none;stroke:red;stroke-width:1px;stroke-linecap:butt;stroke-linejoin:miter;stroke-opacity:1" d="M 462.478,477.721 474.203,477.721 z" id="boundary" inkscape:connector-curvature="0" />
	<path style="fill:none;stroke:red;stroke-width:1px;stroke-linecap:butt;stroke-linejoin:miter;stroke-opacity:1" d="M 474.203,477.721 485.929,477.721 z" id="boundary" inkscape:connector-curvature="0" />
	<path style="fill:none;stroke:red;stroke-width:1px;stroke-linecap:butt;stroke-linejoin:miter;stroke-opacity:1" d="M 485.929,477.721 497.655,471.858 z" id="boundary" inkscape:connector-curvature="0" />
	<path style="fill:none;stroke:red;stroke-width:1px;stroke-linecap:butt;stroke-linejoin:miter;stroke-opacity:1" d="M 497.655,471.858 509.381,471.858 z" id="boundary" inkscape:connector-curvature="0" />
	<path style="fill:none;stroke:red;stroke-width:1px;stroke-linecap:butt;stroke-linejoin:miter;stroke-opacity:1" d="M 509.381,471.858 521.106,471.858 z" id="boundary" inkscape:connector-curvature="0" />
	<path style="fill:none;stroke:red;stroke-width:1px;stroke-linecap:butt;stroke-linejoin:miter;stroke-opacity:1" d="M 521.106,471.858 532.832,471.858 z" id="boundary" inkscape:connector-curvature="0" />
	<path style="fill:none;stroke:red;stroke-width:1px;stroke-linecap:butt;stroke-linejoin:miter;stroke-opacity:1" d="M 532.832,471.858 543.385,465.995 z" id="boundary" inkscape:connector-curvature="0" />
	<path style="fill:none;stroke:red;stroke-width:1px;stroke-linecap:butt;stroke-linejoin:miter;stroke-opacity:1" d="M 543.385,465.995 555.111,465.995 z" id="boundary" inkscape:connector-curvature="0" />
	<path style="fill:none;stroke:red;stroke-width:1px;stroke-linecap:butt;stroke-linejoin:miter;stroke-opacity:1" d="M 555.111,465.995 566.837,465.995 z" id="boundary" inkscape:connector-curvature="0" />
	<path style="fill:none;stroke:red;stroke-width:1px;stroke-linecap:butt;stroke-linejoin:miter;stroke-opacity:1" d="M 566.837,465.995 577.39,460.132 z" id="boundary" inkscape:connector-curvature="0" />
	<path style="fill:none;stroke:red;stroke-width:1px;stroke-linecap:butt;stroke-linejoin:miter;stroke-opacity:1" d="M 577.39,460.132 589.116,460.132 z" id="boundary" inkscape:connector-curvature="0" />
	<path style="fill:none;stroke:red;stroke-width:1px;stroke-linecap:butt;stroke-linejoin:miter;stroke-opacity:1" d="M 589.116,460.132 600.842,460.132 z" id="boundary" inkscape:connector-curvature="0" />
	<path style="fill:none;stroke:red;stroke-width:1px;stroke-linecap:butt;stroke-linejoin:miter;stroke-opacity:1" d="M 600.842,460.132 611.395,454.27 z" id="boundary" inkscape:connector-curvature="0" />
	<path style="fill:none;stroke:red;stroke-width:1px;stroke-linecap:butt;stroke-linejoin:miter;stroke-opacity:1" d="M 611.395,454.27 623.121,454.27 z" id="boundary" inkscape:connector-curvature="0" />
	<path style="fill:none;stroke:red;stroke-width:1px;stroke-linecap:butt;stroke-linejoin:miter;stroke-opacity:1" d="M 623.121,454.27 634.846,454.27 z" id="boundary" inkscape:connector-curvature="0" />
	<path style="fill:none;stroke:red;stroke-width:1px;stroke-linecap:butt;stroke-linejoin:miter;stroke-opacity:1" d="M 634.846,454.27 645.4,448.407 z" id="boundary" inkscape:connector-curvature="0" />
	<path style="fill:none;stroke:red;stroke-width:1px;stroke-linecap:butt;stroke-linejoin:miter;stroke-opacity:1" d="M 645.4,448.407 657.125,448.407 z" id="boundary" inkscape:connector-curvature="0" />
	<path style="fill:none;stroke:red;stroke-width:1px;stroke-linecap:butt;stroke-linejoin:miter;stroke-opacity:1" d="M 657.125,448.407 668.851,451.924 z" id="boundary" inkscape:connector-curvature="0" />
	<path style="fill:none;stroke:red;stroke-width:1px;stroke-linecap:butt;stroke-linejoin:miter;stroke-opacity:1" d="M 668.851,451.924 678.232,460.132 z" id="boundary" inkscape:connector-curvature="0" />
	<path style="fill:none;stroke:red;stroke-width:1px;stroke-linecap:butt;stroke-linejoin:miter;stroke-opacity:1" d="M 678.232,460.132 685.267,469.513 z" id="boundary" inkscape:connector-curvature="0" />
	<path style="fill:none;stroke:red;stroke-width:1px;stroke-linecap:butt;stroke-linejoin:miter;stroke-opacity:1" d="M 685.267,469.513 694.648,477.721 z" id="boundary" inkscape:connector-curvature="0" />
	<path style="fill:none;stroke:red;stroke-width:1px;stroke-linecap:butt;stroke-linejoin:miter;stroke-opacity:1" d="M 694.648,477.721 702.856,487.102 z" id="boundary" inkscape:connector-curvature="0" />
	<path style="fill:none;stroke:red;stroke-width:1px;stroke-linecap:butt;stroke-linejoin:miter;stroke-opacity:1" d="M 702.856,487.102 712.236,495.31 z" id="boundary" inkscape:connector-curvature="0" />
	<path style="fill:none;stroke:red;stroke-width:1px;stroke-linecap:butt;stroke-linejoin:miter;stroke-opacity:1" d="M 712.236,495.31 720.444,504.69 z" id="boundary" inkscape:connector-curvature="0" />
	<path style="fill:none;stroke:red;stroke-width:1px;stroke-linecap:butt;stroke-linejoin:miter;stroke-opacity:1" d="M 720.444,504.69 729.825,512.898 z" id="boundary" inkscape:connector-curvature="0" />
	<path style="fill:none;stroke:red;stroke-width:1px;stroke-linecap:butt;stroke-linejoin:miter;stroke-opacity:1" d="M 729.825,512.898 738.033,522.279 z" id="boundary" inkscape:connector-curvature="0" />
	<path style="fill:none;stroke:red;stroke-width:1px;stroke-linecap:butt;stroke-linejoin:miter;stroke-opacity:1" d="M 738.033,522.279 747.414,530.487 z" id="boundary" inkscape:connector-curvature="0" />
	<path style="fill:none;stroke:red;stroke-width:1px;stroke-linecap:butt;stroke-linejoin:miter;stroke-opacity:1" d="M 747.414,530.487 755.622,539.868 z" id="boundary" inkscape:connector-curvature="0" />
	<path style="fill:none;stroke:red;stroke-width:1px;stroke-linecap:butt;stroke-linejoin:miter;stroke-opacity:1" d="M 755.622,539.868 765.002,548.076 z" id="boundary" inkscape:connector-curvature="0" />
	<path style="fill:none;stroke:red;stroke-width:1px;stroke-linecap:butt;stroke-linejoin:miter;stroke-opacity:1" d="M 765.002,548.076 773.21,557.456 z" id="boundary" inkscape:connector-curvature="0" />
	<path style="fill:none;stroke:red;stroke-width:1px;stroke-linecap:butt;stroke-linejoin:miter;stroke-opacity:1" d="M 773.21,557.456 782.591,565.664 z" id="boundary" inkscape:connector-curvature="0" />
	<path style="fill:none;stroke:red;stroke-width:1px;stroke-linecap:butt;stroke-linejoin:miter;stroke-opacity:1" d="M 782.591,565.664 790.799,575.045 z" id="boundary" inkscape:connector-curvature="0" />
	<path style="fill:none;stroke:red;stroke-width:1px;stroke-linecap:butt;stroke-linejoin:miter;stroke-opacity:1" d="M 790.799,575.045 800.18,583.253 z" id="boundary" inkscape:connector-curvature="0" />
	<path style="fill:none;stroke:red;stroke-width:1px;stroke-linecap:butt;stroke-linejoin:miter;stroke-opacity:1" d="M 800.18,583.253 808.388,592.634 z" id="boundary" inkscape:connector-curvature="0" />
	<path style="fill:none;stroke:red;stroke-width:1px;stroke-linecap:butt;stroke-linejoin:miter;stroke-opacity:1" d="M 808.388,592.634 817.768,600.842 z" id="boundary" inkscape:connector-curvature="0" />
	<path style="fill:none;stroke:red;stroke-width:1px;stroke-linecap:butt;stroke-linejoin:miter;stroke-opacity:1" d="M 817.768,600.842 825.976,610.222 z" id="boundary" inkscape:connector-curvature="0" />
	<path style="fill:none;stroke:red;stroke-width:1px;stroke-linecap:butt;stroke-linejoin:miter;stroke-opacity:1" d="M 825.976,610.222 835.357,618.43 z" id="boundary" inkscape:connector-curvature="0" />
	<path style="fill:none;stroke:red;stroke-width:1px;stroke-linecap:butt;stroke-linejoin:miter;stroke-opacity:1" d="M 835.357,618.43 843.565,627.811 z" id="boundary" inkscape:connector-curvature="0" />
	<path style="fill:none;stroke:red;stroke-width:1px;stroke-linecap:butt;stroke-linejoin:miter;stroke-opacity:1" d="M 843.565,627.811 852.946,636.019 z" id="boundary" inkscape:connector-curvature="0" />
	<path style="fill:none;stroke:red;stroke-width:1px;stroke-linecap:butt;stroke-linejoin:miter;stroke-opacity:1" d="M 852.946,636.019 861.154,645.4 z" id="boundary" inkscape:connector-curvature="0" />
	<path style="fill:none;stroke:red;stroke-width:1px;stroke-linecap:butt;stroke-linejoin:miter;stroke-opacity:1" d="M 861.154,645.4 870.534,653.608 z" id="boundary" inkscape:connector-curvature="0" />
	<path style="fill:none;stroke:red;stroke-width:1px;stroke-linecap:butt;stroke-linejoin:miter;stroke-opacity:1" d="M 870.534,653.608 878.742,662.988 z" id="boundary" inkscape:connector-curvature="0" />
	<path style="fill:none;stroke:red;stroke-width:1px;stroke-linecap:butt;stroke-linejoin:miter;stroke-opacity:1" d="M 878.742,662.988 888.123,671.196 z" id="boundary" inkscape:connector-curvature="0" />
	<path style="fill:none;stroke:red;stroke-width:1px;stroke-linecap:butt;stroke-linejoin:miter;stroke-opacity:1" d="M 888.123,671.196 896.331,680.577 z" id="boundary" inkscape:connector-curvature="0" />
	<path style="fill:none;stroke:red;stroke-width:1px;stroke-linecap:butt;stroke-linejoin:miter;stroke-opacity:1" d="M 896.331,680.577 905.712,688.785 z" id="boundary" inkscape:connector-curvature="0" />
	<path style="fill:none;stroke:red;stroke-width:1px;stroke-linecap:butt;stroke-linejoin:miter;stroke-opacity:1" d="M 905.712,688.785 913.92,698.165 z" id="boundary" inkscape:connector-curvature="0" />
	<path style="fill:none;stroke:red;stroke-width:1px;stroke-linecap:butt;stroke-linejoin:miter;stroke-opacity:1" d="M 913.92,698.165 923.3,706.374 z" id="boundary" inkscape:connector-curvature="0" />
	<path style="fill:none;stroke:red;stroke-width:1px;stroke-linecap:butt;stroke-linejoin:miter;stroke-opacity:1" d="M 923.3,706.374 931.508,715.754 z" id="boundary" inkscape:connector-curvature="0" />
	<path style="fill:none;stroke:red;stroke-width:1px;stroke-linecap:butt;stroke-linejoin:miter;stroke-opacity:1" d="M 931.508,715.754 940.889,723.962 z" id="boundary" inkscape:connector-curvature="0" />
	<path style="fill:none;stroke:red;stroke-width:1px;stroke-linecap:butt;stroke-linejoin:miter;stroke-opacity:1" d="M 940.889,723.962 949.097,733.343 z" id="boundary" inkscape:connector-curvature="0" />
	<path style="fill:none;stroke:red;stroke-width:1px;stroke-linecap:butt;stroke-linejoin:miter;stroke-opacity:1" d="M 949.097,733.343 958.478,741.551 z" id="boundary" inkscape:connector-curvature="0" />
	<path style="fill:none;stroke:red;stroke-width:1px;stroke-linecap:butt;stroke-linejoin:miter;stroke-opacity:1" d="M 958.478,741.551 966.686,750.931 z" id="boundary" inkscape:connector-curvature="0" />
	<path style="fill:none;stroke:red;stroke-width:1px;stroke-linecap:butt;stroke-linejoin:miter;stroke-opacity:1" d="M 966.686,750.931 976.066,759.139 z" id="boundary" inkscape:connector-curvature="0" />
	<path style="fill:none;stroke:red;stroke-width:1px;stroke-linecap:butt;stroke-linejoin:miter;stroke-opacity:1" d="M 976.066,759.139 984.274,768.52 z" id="boundary" inkscape:connector-curvature="0" />
	<path style="fill:none;stroke:red;stroke-width:1px;stroke-linecap:butt;stroke-linejoin:miter;stroke-opacity:1" d="M 984.274,768.52 993.655,775.556 z" id="boundary" inkscape:connector-curvature="0" />
	<path style="fill:none;stroke:red;stroke-width:1px;stroke-linecap:butt;stroke-linejoin:miter;stroke-opacity:1" d="M 453.097,247.896 461.305,233.825 z" id="boundary" inkscape:connector-curvature="0" />
	<path style="fill:none;stroke:red;stroke-width:1px;stroke-linecap:butt;stroke-linejoin:miter;stroke-opacity:1" d="M 461.305,233.825 470.686,224.444 z" id="boundary" inkscape:connector-curvature="0" />
	<path style="fill:none;stroke:red;stroke-width:1px;stroke-linecap:butt;stroke-linejoin:miter;stroke-opacity:1" d="M 470.686,224.444 476.548,212.719 z" id="boundary" inkscape:connector-curvature="0" />
	<path style="fill:none;stroke:red;stroke-width:1px;stroke-linecap:butt;stroke-linejoin:miter;stroke-opacity:1" d="M 476.548,212.719 485.929,203.338 z" id="boundary" inkscape:connector-curvature="0" />
	<path style="fill:none;stroke:red;stroke-width:1px;stroke-linecap:butt;stroke-linejoin:miter;stroke-opacity:1" d="M 485.929,203.338 491.792,191.612 z" id="boundary" inkscape:connector-curvature="0" />
	<path style="fill:none;stroke:red;stroke-width:1px;stroke-linecap:butt;stroke-linejoin:miter;stroke-opacity:1" d="M 491.792,191.612 501.173,183.404 z" id="boundary" inkscape:connector-curvature="0" />
	<path style="fill:none;stroke:red;stroke-width:1px;stroke-linecap:butt;stroke-linejoin:miter;stroke-opacity:1" d="M 501.173,183.404 511.726,177.541 z" id="boundary" inkscape:connector-curvature="0" />
	<path style="fill:none;stroke:red;stroke-width:1px;stroke-linecap:butt;stroke-linejoin:miter;stroke-opacity:1" d="M 511.726,177.541 523.452,171.678 z" id="boundary" inkscape:connector-curvature="0" />
	<path style="fill:none;stroke:red;stroke-width:1px;stroke-linecap:butt;stroke-linejoin:miter;stroke-opacity:1" d="M 523.452,171.678 534.005,177.541 z" id="boundary" inkscape:connector-curvature="0" />
	<path style="fill:none;stroke:red;stroke-width:1px;stroke-linecap:butt;stroke-linejoin:miter;stroke-opacity:1" d="M 534.005,177.541 544.558,183.404 z" id="boundary" inkscape:connector-curvature="0" />
	<path style="fill:none;stroke:red;stroke-width:1px;stroke-linecap:butt;stroke-linejoin:miter;stroke-opacity:1" d="M 544.558,183.404 556.284,186.922 z" id="boundary" inkscape:connector-curvature="0" />
	<path style="fill:none;stroke:red;stroke-width:1px;stroke-linecap:butt;stroke-linejoin:miter;stroke-opacity:1" d="M 556.284,186.922 562.147,197.475 z" id="boundary" inkscape:connector-curvature="0" />
	<path style="fill:none;stroke:red;stroke-width:1px;stroke-linecap:butt;stroke-linejoin:miter;stroke-opacity:1" d="M 562.147,197.475 569.182,206.856 z" id="boundary" inkscape:connector-curvature="0" />
	<path style="fill:none;stroke:red;stroke-width:1px;stroke-linecap:butt;stroke-linejoin:miter;stroke-opacity:1" d="M 569.182,206.856 578.563,215.064 z" id="boundary" inkscape:connector-curvature="0" />
	<path style="fill:none;stroke:red;stroke-width:1px;stroke-linecap:butt;stroke-linejoin:miter;stroke-opacity:1" d="M 578.563,215.064 583.253,226.79 z" id="boundary" inkscape:connector-curvature="0" />
	<path style="fill:none;stroke:red;stroke-width:1px;stroke-linecap:butt;stroke-linejoin:miter;stroke-opacity:1" d="M 583.253,226.79 591.461,236.17 z" id="boundary" inkscape:connector-curvature="0" />
	<path style="fill:none;stroke:red;stroke-width:1px;stroke-linecap:butt;stroke-linejoin:miter;stroke-opacity:1" d="M 591.461,236.17 600.842,243.206 z" id="boundary" inkscape:connector-curvature="0" />
	<path style="fill:none;stroke:red;stroke-width:1px;stroke-linecap:butt;stroke-linejoin:miter;stroke-opacity:1" d="M 600.842,243.206 605.532,254.931 z" id="boundary" inkscape:connector-curvature="0" />
	<path style="fill:none;stroke:red;stroke-width:1px;stroke-linecap:butt;stroke-linejoin:miter;stroke-opacity:1" d="M 605.532,254.931 614.913,263.139 z" id="boundary" inkscape:connector-curvature="0" />
	<path style="fill:none;stroke:red;stroke-width:1px;stroke-linecap:butt;stroke-linejoin:miter;stroke-opacity:1" d="M 614.913,263.139 624.293,271.348 z" id="boundary" inkscape:connector-curvature="0" />
	<path style="fill:none;stroke:red;stroke-width:1px;stroke-linecap:butt;stroke-linejoin:miter;stroke-opacity:1" d="M 624.293,271.348 634.846,277.21 z" id="boundary" inkscape:connector-curvature="0" />
	<path style="fill:none;stroke:red;stroke-width:1px;stroke-linecap:butt;stroke-linejoin:miter;stroke-opacity:1" d="M 634.846,277.21 646.572,277.21 z" id="boundary" inkscape:connector-curvature="0" />
	<path style="fill:none;stroke:red;stroke-width:1px;stroke-linecap:butt;stroke-linejoin:miter;stroke-opacity:1" d="M 646.572,277.21 658.298,277.21 z" id="boundary" inkscape:connector-curvature="0" />
	<path style="fill:none;stroke:red;stroke-width:1px;stroke-linecap:butt;stroke-linejoin:miter;stroke-opacity:1" d="M 658.298,277.21 670.024,277.21 z" id="boundary" inkscape:connector-curvature="0" />
	<path style="fill:none;stroke:red;stroke-width:1px;stroke-linecap:butt;stroke-linejoin:miter;stroke-opacity:1" d="M 670.024,277.21 681.749,277.21 z" id="boundary" inkscape:connector-curvature="0" />
	<path style="fill:none;stroke:red;stroke-width:1px;stroke-linecap:butt;stroke-linejoin:miter;stroke-opacity:1" d="M 681.749,277.21 693.475,277.21 z" id="boundary" inkscape:connector-curvature="0" />
	<path style="fill:none;stroke:red;stroke-width:1px;stroke-linecap:butt;stroke-linejoin:miter;stroke-opacity:1" d="M 693.475,277.21 705.201,277.21 z" id="boundary" inkscape:connector-curvature="0" />
	<path style="fill:none;stroke:red;stroke-width:1px;stroke-linecap:butt;stroke-linejoin:miter;stroke-opacity:1" d="M 705.201,277.21 716.927,277.21 z" id="boundary" inkscape:connector-curvature="0" />
	<path style="fill:none;stroke:red;stroke-width:1px;stroke-linecap:butt;stroke-linejoin:miter;stroke-opacity:1" d="M 716.927,277.21 726.307,267.83 z" id="boundary" inkscape:connector-curvature="0" />
	<path style="fill:none;stroke:red;stroke-width:1px;stroke-linecap:butt;stroke-linejoin:miter;stroke-opacity:1" d="M 726.307,267.83 735.688,259.622 z" id="boundary" inkscape:connector-curvature="0" />
	<path style="fill:none;stroke:red;stroke-width:1px;stroke-linecap:butt;stroke-linejoin:miter;stroke-opacity:1" d="M 735.688,259.622 743.896,250.241 z" id="boundary" inkscape:connector-curvature="0" />
	<path style="fill:none;stroke:red;stroke-width:1px;stroke-linecap:butt;stroke-linejoin:miter;stroke-opacity:1" d="M 743.896,250.241 753.277,242.033 z" id="boundary" inkscape:connector-curvature="0" />
	<path style="fill:none;stroke:red;stroke-width:1px;stroke-linecap:butt;stroke-linejoin:miter;stroke-opacity:1" d="M 753.277,242.033 761.485,232.652 z" id="boundary" inkscape:connector-curvature="0" />
	<path style="fill:none;stroke:red;stroke-width:1px;stroke-linecap:butt;stroke-linejoin:miter;stroke-opacity:1" d="M 761.485,232.652 770.865,224.444 z" id="boundary" inkscape:connector-curvature="0" />
	<path style="fill:none;stroke:red;stroke-width:1px;stroke-linecap:butt;stroke-linejoin:miter;stroke-opacity:1" d="M 770.865,224.444 779.073,215.064 z" id="boundary" inkscape:connector-curvature="0" />
	<path style="fill:none;stroke:red;stroke-width:1px;stroke-linecap:butt;stroke-linejoin:miter;stroke-opacity:1" d="M 779.073,215.064 788.454,206.856 z" id="boundary" inkscape:connector-curvature="0" />
	<path style="fill:none;stroke:red;stroke-width:1px;stroke-linecap:butt;stroke-linejoin:miter;stroke-opacity:1" d="M 788.454,206.856 796.662,197.475 z" id="boundary" inkscape:connector-curvature="0" />
	<path style="fill:none;stroke:red;stroke-width:1px;stroke-linecap:butt;stroke-linejoin:miter;stroke-opacity:1" d="M 796.662,197.475 806.043,189.267 z" id="boundary" inkscape:connector-curvature="0" />
	<path style="fill:none;stroke:red;stroke-width:1px;stroke-linecap:butt;stroke-linejoin:miter;stroke-opacity:1" d="M 806.043,189.267 814.251,179.887 z" id="boundary" inkscape:connector-curvature="0" />
	<path style="fill:none;stroke:red;stroke-width:1px;stroke-linecap:butt;stroke-linejoin:miter;stroke-opacity:1" d="M 814.251,179.887 823.631,171.678 z" id="boundary" inkscape:connector-curvature="0" />
	<path style="fill:none;stroke:red;stroke-width:1px;stroke-linecap:butt;stroke-linejoin:miter;stroke-opacity:1" d="M 823.631,171.678 831.839,162.298 z" id="boundary" inkscape:connector-curvature="0" />
	<path style="fill:none;stroke:red;stroke-width:1px;stroke-linecap:butt;stroke-linejoin:miter;stroke-opacity:1" d="M 831.839,162.298 841.22,154.09 z" id="boundary" inkscape:connector-curvature="0" />
	<path style="fill:none;stroke:red;stroke-width:1px;stroke-linecap:butt;stroke-linejoin:miter;stroke-opacity:1" d="M 841.22,154.09 849.428,144.709 z" id="boundary" inkscape:connector-curvature="0" />
	<path style="fill:none;stroke:red;stroke-width:1px;stroke-linecap:butt;stroke-linejoin:miter;stroke-opacity:1" d="M 849.428,144.709 858.809,136.501 z" id="boundary" inkscape:connector-curvature="0" />
	<path style="fill:none;stroke:red;stroke-width:1px;stroke-linecap:butt;stroke-linejoin:miter;stroke-opacity:1" d="M 858.809,136.501 867.017,127.121 z" id="boundary" inkscape:connector-curvature="0" />
	<path style="fill:none;stroke:red;stroke-width:1px;stroke-linecap:butt;stroke-linejoin:miter;stroke-opacity:1" d="M 867.017,127.121 876.397,118.913 z" id="boundary" inkscape:connector-curvature="0" />
	<path style="fill:none;stroke:red;stroke-width:1px;stroke-linecap:butt;stroke-linejoin:miter;stroke-opacity:1" d="M 876.397,118.913 884.605,109.532 z" id="boundary" inkscape:connector-curvature="0" />
	<path style="fill:none;stroke:red;stroke-width:1px;stroke-linecap:butt;stroke-linejoin:miter;stroke-opacity:1" d="M 884.605,109.532 893.986,101.324 z" id="boundary" inkscape:connector-curvature="0" />
	<path style="fill:none;stroke:red;stroke-width:1px;stroke-linecap:butt;stroke-linejoin:miter;stroke-opacity:1" d="M 893.986,101.324 902.194,91.9433 z" id="boundary" inkscape:connector-curvature="0" />
	<path style="fill:none;stroke:red;stroke-width:1px;stroke-linecap:butt;stroke-linejoin:miter;stroke-opacity:1" d="M 902.194,91.9433 911.574,83.7352 z" id="boundary" inkscape:connector-curvature="0" />
	<path style="fill:none;stroke:red;stroke-width:1px;stroke-linecap:butt;stroke-linejoin:miter;stroke-opacity:1" d="M 911.574,83.7352 919.783,74.3546 z" id="boundary" inkscape:connector-curvature="0" />
	<path style="fill:none;stroke:red;stroke-width:1px;stroke-linecap:butt;stroke-linejoin:miter;stroke-opacity:1" d="M 919.783,74.3546 929.163,66.1466 z" id="boundary" inkscape:connector-curvature="0" />
	<path style="fill:none;stroke:red;stroke-width:1px;stroke-linecap:butt;stroke-linejoin:miter;stroke-opacity:1" d="M 929.163,66.1466 937.371,56.766 z" id="boundary" inkscape:connector-curvature="0" />
	<path style="fill:none;stroke:red;stroke-width:1px;stroke-linecap:butt;stroke-linejoin:miter;stroke-opacity:1" d="M 937.371,56.766 946.752,48.5579 z" id="boundary" inkscape:connector-curvature="0" />
	<path style="fill:none;stroke:red;stroke-width:1px;stroke-linecap:butt;stroke-linejoin:miter;stroke-opacity:1" d="M 946.752,48.5579 954.96,39.1773 z" id="boundary" inkscape:connector-curvature="0" />
	<path style="fill:none;stroke:red;stroke-width:1px;stroke-linecap:butt;stroke-linejoin:miter;stroke-opacity:1" d="M 954.96,39.1773 964.34,30.9693 z" id="boundary" inkscape:connector-curvature="0" />
	<path style="fill:none;stroke:red;stroke-width:1px;stroke-linecap:butt;stroke-linejoin:miter;stroke-opacity:1" d="M 964.34,30.9693 972.548,21.5887 z" id="boundary" inkscape:connector-curvature="0" />
	<path style="fill:none;stroke:red;stroke-width:1px;stroke-linecap:butt;stroke-linejoin:miter;stroke-opacity:1" d="M 972.548,21.5887 981.929,13.3806 z" id="boundary" inkscape:connector-curvature="0" />
	<path style="fill:none;stroke:red;stroke-width:1px;stroke-linecap:butt;stroke-linejoin:miter;stroke-opacity:1" d="M 981.929,13.3806 990.137,4 z" id="boundary" inkscape:connector-curvature="0" />
	<path style="fill:none;stroke:red;stroke-width:1px;stroke-linecap:butt;stroke-linejoin:miter;stroke-opacity:1" d="M 990.137,4 996,14.5532 z" id="boundary" inkscape:connector-curvature="0" />
	<path style="fill:none;stroke:red;stroke-width:1px;stroke-linecap:butt;stroke-linejoin:miter;stroke-opacity:1" d="M 996,14.5532 996,26.279 z" id="boundary" inkscape:connector-curvature="0" />
	<path style="fill:none;stroke:red;stroke-width:1px;stroke-linecap:butt;stroke-linejoin:miter;stroke-opacity:1" d="M 996,26.279 996,38.0047 z" id="boundary" inkscape:connector-curvature="0" />
	<path style="fill:none;stroke:red;stroke-width:1px;stroke-linecap:butt;stroke-linejoin:miter;stroke-opacity:1" d="M 996,38.0047 996,49.7305 z" id="boundary" inkscape:connector-curvature="0" />
	<path style="fill:none;stroke:red;stroke-width:1px;stroke-linecap:butt;stroke-linejoin:miter;stroke-opacity:1" d="M 996,49.7305 996,61.4563 z" id="boundary" inkscape:connector-curvature="0" />
	<path style="fill:none;stroke:red;stroke-width:1px;stroke-linecap:butt;stroke-linejoin:miter;stroke-opacity:1" d="M 996,61.4563 996,73.182 z" id="boundary" inkscape:connector-curvature="0" />
	<path style="fill:none;stroke:red;stroke-width:1px;stroke-linecap:butt;stroke-linejoin:miter;stroke-opacity:1" d="M 996,73.182 996,84.9078 z" id="boundary" inkscape:connector-curvature="0" />
	<path style="fill:none;stroke:red;stroke-width:1px;stroke-linecap:butt;stroke-linejoin:miter;stroke-opacity:1" d="M 996,84.9078 996,96.6336 z" id="boundary" inkscape:connector-curvature="0" />
	<path style="fill:none;stroke:red;stroke-width:1px;stroke-linecap:butt;stroke-linejoin:miter;stroke-opacity:1" d="M 996,96.6336 996,108.359 z" id="boundary" inkscape:connector-curvature="0" />
	<path style="fill:none;stroke:red;stroke-width:1px;stroke-linecap:butt;stroke-linejoin:miter;stroke-opacity:1" d="M 996,108.359 996,120.085 z" id="boundary" inkscape:connector-curvature="0" />
	<path style="fill:none;stroke:red;stroke-width:1px;stroke-linecap:butt;stroke-linejoin:miter;stroke-opacity:1" d="M 996,120.085 996,131.811 z" id="boundary" inkscape:connector-curvature="0" />
	<path style="fill:none;stroke:red;stroke-width:1px;stroke-linecap:butt;stroke-linejoin:miter;stroke-opacity:1" d="M 996,131.811 996,143.537 z" id="boundary" inkscape:connector-curvature="0" />
	<path style="fill:none;stroke:red;stroke-width:1px;stroke-linecap:butt;stroke-linejoin:miter;stroke-opacity:1" d="M 996,143.537 996,155.262 z" id="boundary" inkscape:connector-curvature="0" />
	<path style="fill:none;stroke:red;stroke-width:1px;stroke-linecap:butt;stroke-linejoin:miter;stroke-opacity:1" d="M 996,155.262 996,166.988 z" id="boundary" inkscape:connector-curvature="0" />
	<path style="fill:none;stroke:red;stroke-width:1px;stroke-linecap:butt;stroke-linejoin:miter;stroke-opacity:1" d="M 996,166.988 996,178.714 z" id="boundary" inkscape:connector-curvature="0" />
	<path style="fill:none;stroke:red;stroke-width:1px;stroke-linecap:butt;stroke-linejoin:miter;stroke-opacity:1" d="M 996,178.714 996,190.44 z" id="boundary" inkscape:connector-curvature="0" />
	<path style="fill:none;stroke:red;stroke-width:1px;stroke-linecap:butt;stroke-linejoin:miter;stroke-opacity:1" d="M 996,190.44 996,202.165 z" id="boundary" inkscape:connector-curvature="0" />
	<path style="fill:none;stroke:red;stroke-width:1px;stroke-linecap:butt;stroke-linejoin:miter;stroke-opacity:1" d="M 996,202.165 996,213.891 z" id="boundary" inkscape:connector-curvature="0" />
	<path style="fill:none;stroke:red;stroke-width:1px;stroke-linecap:butt;stroke-linejoin:miter;stroke-opacity:1" d="M 996,213.891 996,225.617 z" id="boundary" inkscape:connector-curvature="0" />
	<path style="fill:none;stroke:red;stroke-width:1px;stroke-linecap:butt;stroke-linejoin:miter;stroke-opacity:1" d="M 996,225.617 996,237.343 z" id="boundary" inkscape:connector-curvature="0" />
	<path style="fill:none;stroke:red;stroke-width:1px;stroke-linecap:butt;stroke-linejoin:miter;stroke-opacity:1" d="M 996,237.343 996,249.069 z" id="boundary" inkscape:connector-curvature="0" />
	<path style="fill:none;stroke:red;stroke-width:1px;stroke-linecap:butt;stroke-linejoin:miter;stroke-opacity:1" d="M 996,249.069 996,260.794 z" id="boundary" inkscape:connector-curvature="0" />
	<path style="fill:none;stroke:red;stroke-width:1px;stroke-linecap:butt;stroke-linejoin:miter;stroke-opacity:1" d="M 996,260.794 996,272.52 z" id="boundary" inkscape:connector-curvature="0" />
	<path style="fill:none;stroke:red;stroke-width:1px;stroke-linecap:butt;stroke-linejoin:miter;stroke-opacity:1" d="M 996,272.52 996,284.246 z" id="boundary" inkscape:connector-curvature="0" />
	<path style="fill:none;stroke:red;stroke-width:1px;stroke-linecap:butt;stroke-linejoin:miter;stroke-opacity:1" d="M 996,284.246 996,295.972 z" id="boundary" inkscape:connector-curvature="0" />
	<path style="fill:none;stroke:red;stroke-width:1px;stroke-linecap:butt;stroke-linejoin:miter;stroke-opacity:1" d="M 996,295.972 996,307.697 z" id="boundary" inkscape:connector-curvature="0" />
	<path style="fill:none;stroke:red;stroke-width:1px;stroke-linecap:butt;stroke-linejoin:miter;stroke-opacity:1" d="M 996,307.697 996,319.423 z" id="boundary" inkscape:connector-curvature="0" />
	<path style="fill:none;stroke:red;stroke-width:1px;stroke-linecap:butt;stroke-linejoin:miter;stroke-opacity:1" d="M 996,319.423 996,331.149 z" id="boundary" inkscape:connector-curvature="0" />
	<path style="fill:none;stroke:red;stroke-width:1px;stroke-linecap:butt;stroke-linejoin:miter;stroke-opacity:1" d="M 996,331.149 996,342.875 z" id="boundary" inkscape:connector-curvature="0" />
	<path style="fill:none;stroke:red;stroke-width:1px;stroke-linecap:butt;stroke-linejoin:miter;stroke-opacity:1" d="M 996,342.875 996,354.6 z" id="boundary" inkscape:connector-curvature="0" />
	<path style="fill:none;stroke:red;stroke-width:1px;stroke-linecap:butt;stroke-linejoin:miter;stroke-opacity:1" d="M 996,354.6 996,366.326 z" id="boundary" inkscape:connector-curvature="0" />
	<path style="fill:none;stroke:red;stroke-width:1px;stroke-linecap:butt;stroke-linejoin:miter;stroke-opacity:1" d="M 996,366.326 996,378.052 z" id="boundary" inkscape:connector-curvature="0" />
	<path style="fill:none;stroke:red;stroke-width:1px;stroke-linecap:butt;stroke-linejoin:miter;stroke-opacity:1" d="M 996,378.052 996,389.778 z" id="boundary" inkscape:connector-curvature="0" />
	<path style="fill:none;stroke:red;stroke-width:1px;stroke-linecap:butt;stroke-linejoin:miter;stroke-opacity:1" d="M 996,389.778 996,401.504 z" id="boundary" inkscape:connector-curvature="0" />
	<path style="fill:none;stroke:red;stroke-width:1px;stroke-linecap:butt;stroke-linejoin:miter;stroke-opacity:1" d="M 996,401.504 996,413.229 z" id="boundary" inkscape:connector-curvature="0" />
	<path style="fill:none;stroke:red;stroke-width:1px;stroke-linecap:butt;stroke-linejoin:miter;stroke-opacity:1" d="M 996,413.229 996,424.955 z" id="boundary" inkscape:connector-curvature="0" />
	<path style="fill:none;stroke:red;stroke-width:1px;stroke-linecap:butt;stroke-linejoin:miter;stroke-opacity:1" d="M 996,424.955 996,436.681 z" id="boundary" inkscape:connector-curvature="0" />
	<path style="fill:none;stroke:red;stroke-width:1px;stroke-linecap:butt;stroke-linejoin:miter;stroke-opacity:1" d="M 996,436.681 996,448.407 z" id="boundary" inkscape:connector-curvature="0" />
	<path style="fill:none;stroke:red;stroke-width:1px;stroke-linecap:butt;stroke-linejoin:miter;stroke-opacity:1" d="M 996,448.407 996,460.132 z" id="boundary" inkscape:connector-curvature="0" />
	<path style="fill:none;stroke:red;stroke-width:1px;stroke-linecap:butt;stroke-linejoin:miter;stroke-opacity:1" d="M 996,460.132 996,471.858 z" id="boundary" inkscape:connector-curvature="0" />
	<path style="fill:none;stroke:red;stroke-width:1px;stroke-linecap:butt;stroke-linejoin:miter;stroke-opacity:1" d="M 996,471.858 996,483.584 z" id="boundary" inkscape:connector-curvature="0" />
	<path style="fill:none;stroke:red;stroke-width:1px;stroke-linecap:butt;stroke-linejoin:miter;stroke-opacity:1" d="M 996,483.584 996,495.31 z" id="boundary" inkscape:connector-curvature="0" />
	<path style="fill:none;stroke:red;stroke-width:1px;stroke-linecap:butt;stroke-linejoin:miter;stroke-opacity:1" d="M 996,495.31 996,507.035 z" id="boundary" inkscape:connector-curvature="0" />
	<path style="fill:none;stroke:red;stroke-width:1px;stroke-linecap:butt;stroke-linejoin:miter;stroke-opacity:1" d="M 996,507.035 996,518.761 z" id="boundary" inkscape:connector-curvature="0" />
	<path style="fill:none;stroke:red;stroke-width:1px;stroke-linecap:butt;stroke-linejoin:miter;stroke-opacity:1" d="M 996,518.761 996,530.487 z" id="boundary" inkscape:connector-curvature="0" />
	<path style="fill:none;stroke:red;stroke-width:1px;stroke-linecap:butt;stroke-linejoin:miter;stroke-opacity:1" d="M 996,530.487 996,542.213 z" id="boundary" inkscape:connector-curvature="0" />
	<path style="fill:none;stroke:red;stroke-width:1px;stroke-linecap:butt;stroke-linejoin:miter;stroke-opacity:1" d="M 996,542.213 996,553.939 z" id="boundary" inkscape:connector-curvature="0" />
	<path style="fill:none;stroke:red;stroke-width:1px;stroke-linecap:butt;stroke-linejoin:miter;stroke-opacity:1" d="M 996,553.939 996,565.664 z" id="boundary" inkscape:connector-curvature="0" />
	<path style="fill:none;stroke:red;stroke-width:1px;stroke-linecap:butt;stroke-linejoin:miter;stroke-opacity:1" d="M 996,565.664 996,577.39 z" id="boundary" inkscape:connector-curvature="0" />
	<path style="fill:none;stroke:red;stroke-width:1px;stroke-linecap:butt;stroke-linejoin:miter;stroke-opacity:1" d="M 996,577.39 996,589.116 z" id="boundary" inkscape:connector-curvature="0" />
	<path style="fill:none;stroke:red;stroke-width:1px;stroke-linecap:butt;stroke-linejoin:miter;stroke-opacity:1" d="M 996,589.116 996,600.842 z" id="boundary" inkscape:connector-curvature="0" />
	<path style="fill:none;stroke:red;stroke-width:1px;stroke-linecap:butt;stroke-linejoin:miter;stroke-opacity:1" d="M 996,600.842 996,612.567 z" id="boundary" inkscape:connector-curvature="0" />
	<path style="fill:none;stroke:red;stroke-width:1px;stroke-linecap:butt;stroke-linejoin:miter;stroke-opacity:1" d="M 996,612.567 996,624.293 z" id="boundary" inkscape:connector-curvature="0" />
	<path style="fill:none;stroke:red;stroke-width:1px;stroke-linecap:butt;stroke-linejoin:miter;stroke-opacity:1" d="M 996,624.293 996,636.019 z" id="boundary" inkscape:connector-curvature="0" />
	<path style="fill:none;stroke:red;stroke-width:1px;stroke-linecap:butt;stroke-linejoin:miter;stroke-opacity:1" d="M 996,636.019 996,647.745 z" id="boundary" inkscape:connector-curvature="0" />
	<path style="fill:none;stroke:red;stroke-width:1px;stroke-linecap:butt;stroke-linejoin:miter;stroke-opacity:1" d="M 996,647.745 996,659.47 z" id="boundary" inkscape:connector-curvature="0" />
	<path style="fill:none;stroke:red;stroke-width:1px;stroke-linecap:butt;stroke-linejoin:miter;stroke-opacity:1" d="M 996,659.47 996,671.196 z" id="boundary" inkscape:connector-curvature="0" />
	<path style="fill:none;stroke:red;stroke-width:1px;stroke-linecap:butt;stroke-linejoin:miter;stroke-opacity:1" d="M 996,671.196 996,682.922 z" id="boundary" inkscape:connector-curvature="0" />
	<path style="fill:none;stroke:red;stroke-width:1px;stroke-linecap:butt;stroke-linejoin:miter;stroke-opacity:1" d="M 996,682.922 996,694.648 z" id="boundary" inkscape:connector-curvature="0" />
	<path style="fill:none;stroke:red;stroke-width:1px;stroke-linecap:butt;stroke-linejoin:miter;stroke-opacity:1" d="M 996,694.648 996,706.374 z" id="boundary" inkscape:connector-curvature="0" />
	<path style="fill:none;stroke:red;stroke-width:1px;stroke-linecap:butt;stroke-linejoin:miter;stroke-opacity:1" d="M 996,706.374 996,718.099 z" id="boundary" inkscape:connector-curvature="0" />
	<path style="fill:none;stroke:red;stroke-width:1px;stroke-linecap:butt;stroke-linejoin:miter;stroke-opacity:1" d="M 996,718.099 996,729.825 z" id="boundary" inkscape:connector-curvature="0" />
	<path style="fill:none;stroke:red;stroke-width:1px;stroke-linecap:butt;stroke-linejoin:miter;stroke-opacity:1" d="M 996,729.825 996,741.551 z" id="boundary" inkscape:connector-curvature="0" />
	<path style="fill:none;stroke:red;stroke-width:1px;stroke-linecap:butt;stroke-linejoin:miter;stroke-opacity:1" d="M 996,741.551 996,753.277 z" id="boundary" inkscape:connector-curvature="0" />
	<path style="fill:none;stroke:red;stroke-width:1px;stroke-linecap:butt;stroke-linejoin:miter;stroke-opacity:1" d="M 996,753.277 993.655,775.556 z" id="boundary" inkscape:connector-curvature="0" />
	<circle cx="4" cy="5.17258" r="4" fill="#0" id="circle0"/>
	<circle cx="4" cy="16.8983" r="4" fill="#0" id="circle1"/>
	<circle cx="4" cy="28.6241" r="4" fill="#0" id="circle2"/>
	<circle cx="4" cy="40.3499" r="4" fill="#0" id="circle3"/>
	<circle cx="4" cy="52.0757" r="4" fill="#0" id="circle4"/>
	<circle cx="4" cy="63.8014" r="4" fill="#0" id="circle5"/>
	<circle cx="4" cy="75.5272" r="4" fill="#0" id="circle6"/>
	<circle cx="4" cy="87.253" r="4" fill="#0" id="circle7"/>
	<circle cx="4" cy="98.9787" r="4" fill="#0" id="circle8"/>
	<circle cx="4" cy="110.704" r="4" fill="#0" id="circle9"/>
	<circle cx="4" cy="122.43" r="4" fill="#0" id="circle10"/>
	<circle cx="4" cy="134.156" r="4" fill="#0" id="circle11"/>
	<circle cx="4" cy="145.882" r="4" fill="#0" id="circle12"/>
	<circle cx="4" cy="157.608" r="4" fill="#0" id="circle13"/>
	<circle cx="4" cy="169.333" r="4" fill="#0" id="circle14"/>
	<circle cx="4" cy="181.059" r="4" fill="#0" id="circle15"/>
	<circle cx="4" cy="192.785" r="4" fill="#0" id="circle16"/>
	<circle cx="4" cy="204.511" r="4" fill="#0" id="circle17"/>
	<circle cx="4" cy="216.236" r="4" fill="#0" id="circle18"/>
	<circle cx="4" cy="227.962" r="4" fill="#0" id="circle19"/>
	<circle cx="4" cy="239.688" r="4" fill="#0" id="circle20"/>
	<circle cx="4" cy="251.414" r="4" fill="#0" id="circle21"/>
	<circle cx="4" cy="263.139" r="4" fill="#0" id="circle22"/>
	<circle cx="4" cy="274.865" r="4" fill="#0" id="circle23"/>
	<circle cx="4" cy="286.591" r="4" fill="#0" id="circle24"/>
	<circle cx="4" cy="298.317" r="4" fill="#0" id="circle25"/>
	<circle cx="4" cy="310.043" r="4" fill="#0" id="circle26"/>
	<circle cx="4" cy="321.768" r="4" fill="#0" id="circle27"/>
	<circle cx="4" cy="333.494" r="4" fill="#0" id="circle28"/>
	<circle cx="4" cy="345.22" r="4" fill="#0" id="circle29"/>
	<circle cx="4" cy="356.946" r="4" fill="#0" id="circle30"/>
	<circle cx="4" cy="368.671" r="4" fill="#0" id="circle31"/>
	<circle cx="4" cy="380.397" r="4" fill="#0" id="circle32"/>
	<circle cx="4" cy="392.123" r="4" fill="#0" id="circle33"/>
	<circle cx="4" cy="403.849" r="4" fill="#0" id="circle34"/>
	<circle cx="4" cy="415.574" r="4" fill="#0" id="circle35"/>
	<circle cx="4" cy="427.3" r="4" fill="#0" id="circle36"/>
	<circle cx="4" cy="439.026" r="4" fill="#0" id="circle37"/>
	<circle cx="4" cy="450.752" r="4" fill="#0" id="circle38"/>
	<circle cx="4" cy="462.478" r="4" fill="#0" id="circle39"/>
	<circle cx="4" cy="474.203" r="4" fill="#0" id="circle40"/>
	<circle cx="4" cy="485.929" r="4" fill="#0" id="circle41"/>
	<circle cx="4" cy="497.655" r="4" fill="#0" id="circle42"/>
	<circle cx="4" cy="509.381" r="4" fill="#0" id="circle43"/>
	<circle cx="4" cy="521.106" r="4" fill="#0" id="circle44"/>
	<circle cx="4" cy="532.832" r="4" fill="#0" id="circle45"/>
	<circle cx="4" cy="544.558" r="4" fill="#0" id="circle46"/>
	<circle cx="4" cy="556.284" r="4" fill="#0" id="circle47"/>
	<circle cx="4" cy="568.009" r="4" fill="#0" id="circle48"/>
	<circle cx="4" cy="579.735" r="4" fill="#0" id="circle49"/>
	<circle cx="4" cy="591.461" r="4" fill="#0" id="circle50"/>
	<circle cx="4" cy="603.187" r="4" fill="#0" id="circle51"/>
	<circle cx="4" cy="614.913" r="4" fill="#0" id="circle52"/>
	<circle cx="4" cy="626.638" r="4" fill="#0" id="circle53"/>
	<circle cx="4" cy="638.364" r="4" fill="#0" id="circle54"/>
	<circle cx="4" cy="650.09" r="4" fill="#0" id="circle55"/>
	<circle cx="4" cy="661.816" r="4" fill="#0" id="circle56"/>
	<circle cx="4" cy="673.541" r="4" fill="#0" id="circle57"/>
	<circle cx="4" cy="685.267" r="4" fill="#0" id="circle58"/>
	<circle cx="4" cy="696.993" r="4" fill="#0" id="circle59"/>
	<circle cx="4" cy="708.719" r="4" fill="#0" id="circle60"/>
	<circle cx="15.7258" cy="9.86288" r="4" fill="#0" id="circle61"/>
	<circle cx="15.7258" cy="712.236" r="4" fill="#0" id="circle62"/>
	<circle cx="22.7612" cy="19.2435" r="4" fill="#0" id="circle63"/>
	<circle cx="25.1064" cy="705.201" r="4" fill="#0" id="circle64"/>
	<circle cx="34.487" cy="22.7612" r="4" fill="#0" id="circle65"/>
	<circle cx="36.8322" cy="699.338" r="4" fill="#0" id="circle66"/>
	<circle cx="42.695" cy="32.1418" r="4" fill="#0" id="circle67"/>
	<circle cx="46.2128" cy="688.785" r="4" fill="#0" id="circle68"/>
	<circle cx="52.0757" cy="40.3499" r="4" fill="#0" id="circle69"/>
	<circle cx="57.9385" cy="682.922" r="4" fill="#0" id="circle70"/>
	<circle cx="61.4563" cy="48.5579" r="4" fill="#0" id="circle71"/>
	<circle cx="68.4917" cy="677.059" r="4" fill="#0" id="circle72"/>
	<circle cx="72.0095" cy="54.4208" r="4" fill="#0" id="circle73"/>
	<circle cx="77.8723" cy="670.024" r="4" fill="#0" id="circle74"/>
	<circle cx="80.2175" cy="63.8014" r="4" fill="#0" id="circle75"/>
	<circle cx="89.5981" cy="72.0095" r="4" fill="#0" id="circle76"/>
	<circle cx="89.5981" cy="664.161" r="4" fill="#0" id="circle77"/>
	<circle cx="98.9787" cy="653.608" r="4" fill="#0" id="circle78"/>
	<circle cx="100.151" cy="77.8723" r="4" fill="#0" id="circle79"/>
	<circle cx="109.532" cy="86.0804" r="4" fill="#0" id="circle80"/>
	<circle cx="110.704" cy="647.745" r="4" fill="#0" id="circle81"/>
	<circle cx="116.567" cy="95.461" r="4" fill="#0" id="circle82"/>
	<circle cx="121.258" cy="641.882" r="4" fill="#0" id="circle83"/>
	<circle cx="125.948" cy="102.496" r="4" fill="#0" id="circle84"/>
	<circle cx="130.638" cy="634.846" r="4" fill="#0" id="circle85"/>
	<circle cx="136.501" cy="108.359" r="4" fill="#0" id="circle86"/>
	<circle cx="142.364" cy="628.983" r="4" fill="#0" id="circle87"/>
	<circle cx="145.882" cy="116.567" r="4" fill="#0" id="circle88"/>
	<circle cx="151.745" cy="618.43" r="4" fill="#0" id="circle89"/>
	<circle cx="154.09" cy="125.948" r="4" fill="#0" id="circle90"/>
	<circle cx="163.47" cy="134.156" r="4" fill="#0" id="circle91"/>
	<circle cx="163.47" cy="612.567" r="4" fill="#0" id="circle92"/>
	<circle cx="172.851" cy="142.364" r="4" fill="#0" id="circle93"/>
	<circle cx="174.024" cy="606.704" r="4" fill="#0" id="circle94"/>
	<circle cx="183.404" cy="148.227" r="4" fill="#0" id="circle95"/>
	<circle cx="184.577" cy="600.842" r="4" fill="#0" id="circle96"/>
	<circle cx="191.612" cy="157.608" r="4" fill="#0" id="circle97"/>
	<circle cx="195.13" cy="593.806" r="4" fill="#0" id="circle98"/>
	<circle cx="200.993" cy="165.816" r="4" fill="#0" id="circle99"/>
	<circle cx="206.856" cy="587.943" r="4" fill="#0" id="circle100"/>
	<circle cx="211.546" cy="171.678" r="4" fill="#0" id="circle101"/>
	<circle cx="216.236" cy="577.39" r="4" fill="#0" id="circle102"/>
	<circle cx="220.927" cy="179.887" r="4" fill="#0" id="circle103"/>
	<circle cx="227.962" cy="189.267" r="4" fill="#0" id="circle104"/>
	<circle cx="227.962" cy="571.527" r="4" fill="#0" id="circle105"/>
	<circle cx="237.343" cy="196.303" r="4" fill="#0" id="circle106"/>
	<circle cx="238.515" cy="565.664" r="4" fill="#0" id="circle107"/>
	<circle cx="247.896" cy="202.165" r="4" fill="#0" id="circle108"/>
	<circle cx="247.896" cy="558.629" r="4" fill="#0" id="circle109"/>
	<circle cx="257.277" cy="210.374" r="4" fill="#0" id="circle110"/>
	<circle cx="259.622" cy="552.766" r="4" fill="#0" id="circle111"/>
	<circle cx="265.485" cy="219.754" r="4" fill="#0" id="circle112"/>
	<circle cx="269.002" cy="542.213" r="4" fill="#0" id="circle113"/>
	<circle cx="274.865" cy="227.962" r="4" fill="#0" id="circle114"/>
	<circle cx="280.728" cy="536.35" r="4" fill="#0" id="circle115"/>
	<circle cx="285.418" cy="233.825" r="4" fill="#0" id="circle116"/>
	<circle cx="291.281" cy="530.487" r="4" fill="#0" id="circle117"/>
	<circle cx="294.799" cy="242.033" r="4" fill="#0" id="circle118"/>
	<circle cx="300.662" cy="523.452" r="4" fill="#0" id="circle119"/>
	<circle cx="303.007" cy="251.414" r="4" fill="#0" id="circle120"/>
	<circle cx="312.388" cy="259.622" r="4" fill="#0" id="circle121"/>
	<circle cx="312.388" cy="517.589" r="4" fill="#0" id="circle122"/>
	<circle cx="321.768" cy="507.035" r="4" fill="#0" id="circle123"/>
	<circle cx="322.941" cy="265.485" r="4" fill="#0" id="circle124"/>
	<circle cx="332.322" cy="273.693" r="4" fill="#0" id="circle125"/>
	<circle cx="333.494" cy="501.173" r="4" fill="#0" id="circle126"/>
	<circle cx="344.047" cy="277.21" r="4" fill="#0" id="circle127"/>
	<circle cx="345.22" cy="501.173" r="4" fill="#0" id="circle128"/>
	<circle cx="355.773" cy="277.21" r="4" fill="#0" id="circle129"/>
	<circle cx="356.946" cy="495.31" r="4" fill="#0" id="circle130"/>
	<circle cx="367.499" cy="277.21" r="4" fill="#0" id="circle131"/>
	<circle cx="368.671" cy="495.31" r="4" fill="#0" id="circle132"/>
	<circle cx="379.225" cy="277.21" r="4" fill="#0" id="circle133"/>
	<circle cx="380.397" cy="495.31" r="4" fill="#0" id="circle134"/>
	<circle cx="390.95" cy="277.21" r="4" fill="#0" id="circle135"/>
	<circle cx="392.123" cy="489.447" r="4" fill="#0" id="circle136"/>
	<circle cx="402.676" cy="277.21" r="4" fill="#0" id="circle137"/>
	<circle cx="403.849" cy="489.447" r="4" fill="#0" id="circle138"/>
	<circle cx="414.402" cy="277.21" r="4" fill="#0" id="circle139"/>
	<circle cx="415.574" cy="489.447" r="4" fill="#0" id="circle140"/>
	<circle cx="424.955" cy="271.348" r="4" fill="#0" id="circle141"/>
	<circle cx="427.3" cy="483.584" r="4" fill="#0" id="circle142"/>
	<circle cx="435.508" cy="265.485" r="4" fill="#0" id="circle143"/>
	<circle cx="439.026" cy="483.584" r="4" fill="#0" id="circle144"/>
	<circle cx="447.234" cy="259.622" r="4" fill="#0" id="circle145"/>
	<circle cx="450.752" cy="483.584" r="4" fill="#0" id="circle146"/>
	<circle cx="453.097" cy="247.896" r="4" fill="#0" id="circle147"/>
	<circle cx="461.305" cy="233.825" r="4" fill="#0" id="circle148"/>
	<circle cx="462.478" cy="477.721" r="4" fill="#0" id="circle149"/>
	<circle cx="470.686" cy="224.444" r="4" fill="#0" id="circle150"/>
	<circle cx="474.203" cy="477.721" r="4" fill="#0" id="circle151"/>
	<circle cx="476.548" cy="212.719" r="4" fill="#0" id="circle152"/>
	<circle cx="485.929" cy="203.338" r="4" fill="#0" id="circle153"/>
	<circle cx="485.929" cy="477.721" r="4" fill="#0" id="circle154"/>
	<circle cx="491.792" cy="191.612" r="4" fill="#0" id="circle155"/>
	<circle cx="497.655" cy="471.858" r="4" fill="#0" id="circle156"/>
	<circle cx="501.173" cy="183.404" r="4" fill="#0" id="circle157"/>
	<circle cx="509.381" cy="471.858" r="4" fill="#0" id="circle158"/>
	<circle cx="511.726" cy="177.541" r="4" fill="#0" id="circle159"/>
	<circle cx="521.106" cy="471.858" r="4" fill="#0" id="circle160"/>
	<circle cx="523.452" cy="171.678" r="4" fill="#0" id="circle161"/>
	<circle cx="532.832" cy="471.858" r="4" fill="#0" id="circle162"/>
	<circle cx="534.005" cy="177.541" r="4" fill="#0" id="circle163"/>
	<circle cx="543.385" cy="465.995" r="4" fill="#0" id="circle164"/>
	<circle cx="544.558" cy="183.404" r="4" fill="#0" id="circle165"/>
	<circle cx="555.111" cy="465.995" r="4" fill="#0" id="circle166"/>
	<circle cx="556.284" cy="186.922" r="4" fill="#0" id="circle167"/>
	<circle cx="562.147" cy="197.475" r="4" fill="#0" id="circle168"/>
	<circle cx="566.837" cy="465.995" r="4" fill="#0" id="circle169"/>
	<circle cx="569.182" cy="206.856" r="4" fill="#0" id="circle170"/>
	<circle cx="577.39" cy="460.132" r="4" fill="#0" id="circle171"/>
	<circle cx="578.563" cy="215.064" r="4" fill="#0" id="circle172"/>
	<circle cx="583.253" cy="226.79" r="4" fill="#0" id="circle173"/>
	<circle cx="589.116" cy="460.132" r="4" fill="#0" id="circle174"/>
	<circle cx="591.461" cy="236.17" r="4" fill="#0" id="circle175"/>
	<circle cx="600.842" cy="243.206" r="4" fill="#0" id="circle176"/>
	<circle cx="600.842" cy="460.132" r="4" fill="#0" id="circle177"/>
	<circle cx="605.532" cy="254.931" r="4" fill="#0" id="circle178"/>
	<circle cx="611.395" cy="454.27" r="4" fill="#0" id="circle179"/>
	<circle cx="614.913" cy="263.139" r="4" fill="#0" id="circle180"/>
	<circle cx="623.121" cy="454.27" r="4" fill="#0" id="circle181"/>
	<circle cx="624.293" cy="271.348" r="4" fill="#0" id="circle182"/>
	<circle cx="634.846" cy="277.21" r="4" fill="#0" id="circle183"/>
	<circle cx="634.846" cy="454.27" r="4" fill="#0" id="circle184"/>
	<circle cx="645.4" cy="448.407" r="4" fill="#0" id="circle185"/>
	<circle cx="646.572" cy="277.21" r="4" fill="#0" id="circle186"/>
	<circle cx="657.125" cy="448.407" r="4" fill="#0" id="circle187"/>
	<circle cx="658.298" cy="277.21" r="4" fill="#0" id="circle188"/>
	<circle cx="668.851" cy="451.924" r="4" fill="#0" id="circle189"/>
	<circle cx="670.024" cy="277.21" r="4" fill="#0" id="circle190"/>
	<circle cx="678.232" cy="460.132" r="4" fill="#0" id="circle191"/>
	<circle cx="681.749" cy="277.21" r="4" fill="#0" id="circle192"/>
	<circle cx="685.267" cy="469.513" r="4" fill="#0" id="circle193"/>
	<circle cx="693.475" cy="277.21" r="4" fill="#0" id="circle194"/>
	<circle cx="694.648" cy="477.721" r="4" fill="#0" id="circle195"/>
	<circle cx="702.856" cy="487.102" r="4" fill="#0" id="circle196"/>
	<circle cx="705.201" cy="277.21" r="4" fill="#0" id="circle197"/>
	<circle cx="712.236" cy="495.31" r="4" fill="#0" id="circle198"/>
	<circle cx="716.927" cy="277.21" r="4" fill="#0" id="circle199"/>
	<circle cx="720.444" cy="504.69" r="4" fill="#0" id="circle200"/>
	<circle cx="726.307" cy="267.83" r="4" fill="#0" id="circle201"/>
	<circle cx="729.825" cy="512.898" r="4" fill="#0" id="circle202"/>
	<circle cx="735.688" cy="259.622" r="4" fill="#0" id="circle203"/>
	<circle cx="738.033" cy="522.279" r="4" fill="#0" id="circle204"/>
	<circle cx="743.896" cy="250.241" r="4" fill="#0" id="circle205"/>
	<circle cx="747.414" cy="530.487" r="4" fill="#0" id="circle206"/>
	<circle cx="753.277" cy="242.033" r="4" fill="#0" id="circle207"/>
	<circle cx="755.622" cy="539.868" r="4" fill="#0" id="circle208"/>
	<circle cx="761.485" cy="232.652" r="4" fill="#0" id="circle209"/>
	<circle cx="765.002" cy="548.076" r="4" fill="#0" id="circle210"/>
	<circle cx="770.865" cy="224.444" r="4" fill="#0" id="circle211"/>
	<circle cx="773.21" cy="557.456" r="4" fill="#0" id="circle212"/>
	<circle cx="779.073" cy="215.064" r="4" fill="#0" id="circle213"/>
	<circle cx="782.591" cy="565.664" r="4" fill="#0" id="circle214"/>
	<circle cx="788.454" cy="206.856" r="4" fill="#0" id="circle215"/>
	<circle cx="790.799" cy="575.045" r="4" fill="#0" id="circle216"/>
	<circle cx="796.662" cy="197.475" r="4" fill="#0" id="circle217"/>
	<circle cx="800.18" cy="583.253" r="4" fill="#0" id="circle218"/>
	<circle cx="806.043" cy="189.267" r="4" fill="#0" id="circle219"/>
	<circle cx="808.388" cy="592.634" r="4" fill="#0" id="circle220"/>
	<circle cx="814.251" cy="179.887" r="4" fill="#0" id="circle221"/>
	<circle cx="817.768" cy="600.842" r="4" fill="#0" id="circle222"/>
	<circle cx="823.631" cy="171.678" r="4" fill="#0" id="circle223"/>
	<circle cx="825.976" cy="610.222" r="4" fill="#0" id="circle224"/>
	<circle cx="831.839" cy="162.298" r="4" fill="#0" id="circle225"/>
	<circle cx="835.357" cy="618.43" r="4" fill="#0" id="circle226"/>
	<circle cx="841.22" cy="154.09" r="4" fill="#0" id="circle227"/>
	<circle cx="843.565" cy="627.811" r="4" fill="#0" id="circle228"/>
	<circle cx="849.428" cy="144.709" r="4" fill="#0" id="circle229"/>
	<circle cx="852.946" cy="636.019" r="4" fill="#0" id="circle230"/>
	<circle cx="858.809" cy="136.501" r="4" fill="#0" id="circle231"/>
	<circle cx="861.154" cy="645.4" r="4" fill="#0" id="circle232"/>
	<circle cx="867.017" cy="127.121" r="4" fill="#0" id="circle233"/>
	<circle cx="870.534" cy="653.608" r="4" fill="#0" id="circle234"/>
	<circle cx="876.397" cy="118.913" r="4" fill="#0" id="circle235"/>
	<circle cx="878.742" cy="662.988" r="4" fill="#0" id="circle236"/>
	<circle cx="884.605" cy="109.532" r="4" fill="#0" id="circle237"/>
	<circle cx="888.123" cy="671.196" r="4" fill="#0" id="circle238"/>
	<circle cx="893.986" cy="101.324" r="4" fill="#0" id="circle239"/>
	<circle cx="896.331" cy="680.577" r="4" fill="#0" id="circle240"/>
	<circle cx="902.194" cy="91.9433" r="4" fill="#0" id="circle241"/>
	<circle cx="905.712" cy="688.785" r="4" fill="#0" id="circle242"/>
	<circle cx="911.574" cy="83.7352" r="4" fill="#0" id="circle243"/>
	<circle cx="913.92" cy="698.165" r="4" fill="#0" id="circle244"/>
	<circle cx="919.783" cy="74.3546" r="4" fill="#0" id="circle245"/>
	<circle cx="923.3" cy="706.374" r="4" fill="#0" id="circle246"/>
	<circle cx="929.163" cy="66.1466" r="4" fill="#0" id="circle247"/>
	<circle cx="931.508" cy="715.754" r="4" fill="#0" id="circle248"/>
	<circle cx="937.371" cy="56.766" r="4" fill="#0" id="circle249"/>
	<circle cx="940.889" cy="723.962" r="4" fill="#0" id="circle250"/>
	<circle cx="946.752" cy="48.5579" r="4" fill="#0" id="circle251"/>
	<circle cx="949.097" cy="733.343" r="4" fill="#0" id="circle252"/>
	<circle cx="954.96" cy="39.1773" r="4" fill="#0" id="circle253"/>
	<circle cx="958.478" cy="741.551" r="4" fill="#0" id="circle254"/>
	<circle cx="964.34" cy="30.9693" r="4" fill="#0" id="circle255"/>
	<circle cx="966.686" cy="750.931" r="4" fill="#0" id="circle256"/>
	<circle cx="972.548" cy="21.5887" r="4" fill="#0" id="circle257"/>
	<circle cx="976.066" cy="759.139" r="4" fill="#0" id="circle258"/>
	<circle cx="981.929" cy="13.3806" r="4" fill="#0" id="circle259"/>
	<circle cx="984.274" cy="768.52" r="4" fill="#0" id="circle260"/>
	<circle cx="990.137" cy="4" r="4" fill="#0" id="circle261"/>
	<circle cx="993.655" cy="775.556" r="4" fill="#0" id="circle262"/>
	<circle cx="996" cy="14.5532" r="4" fill="#0" id="circle263"/>
	<circle cx="996" cy="26.279" r="4" fill="#0" id="circle264"/>
	<circle cx="996" cy="38.0047" r="4" fill="#0" id="circle265"/>
	<circle cx="996" cy="49.7305" r="4" fill="#0" id="circle266"/>
	<circle cx="996" cy="61.4563" r="4" fill="#0" id="circle267"/>
	<circle cx="996" cy="73.182" r="4" fill="#0" id="circle268"/>
	<circle cx="996" cy="84.9078" r="4" fill="#0" id="circle269"/>
	<circle cx="996" cy="96.6336" r="4" fill="#0" id="circle270"/>
	<circle cx="996" cy="108.359" r="4" fill="#0" id="circle271"/>
	<circle cx="996" cy="120.085" r="4" fill="#0" id="circle272"/>
	<circle cx="996" cy="131.811" r="4" fill="#0" id="circle273"/>
	<circle cx="996" cy="143.537" r="4" fill="#0" id="circle274"/>
	<circle cx="996" cy="155.262" r="4" fill="#0" id="circle275"/>
	<circle cx="996" cy="166.988" r="4" fill="#0" id="circle276"/>
	<circle cx="996" cy="178.714" r="4" fill="#0" id="circle277"/>
	<circle cx="996" cy="190.44" r="4" fill="#0" id="circle278"/>
	<circle cx="996" cy="202.165" r="4" fill="#0" id="circle279"/>
	<circle cx="996" cy="213.891" r="4" fill="#0" id="circle280"/>
	<circle cx="996" cy="225.617" r="4" fill="#0" id="circle281"/>
	<circle cx="996" cy="237.343" r="4" fill="#0" id="circle282"/>
	<circle cx="996" cy="249.069" r="4" fill="#0" id="circle283"/>
	<circle cx="996" cy="260.794" r="4" fill="#0" id="circle284"/>
	<circle cx="996" cy="272.52" r="4" fill="#0" id="circle285"/>
	<circle cx="996" cy="284.246" r="4" fill="#0" id="circle286"/>
	<circle cx="996" cy="295.972" r="4" fill="#0" id="circle287"/>
	<circle cx="996" cy="307.697" r="4" fill="#0" id="circle288"/>
	<circle cx="996" cy="319.423" r="4" fill="#0" id="circle289"/>
	<circle cx="996" cy="331.149" r="4" fill="#0" id="circle290"/>
	<circle cx="996" cy="342.875" r="4" fill="#0" id="circle291"/>
	<circle cx="996" cy="354.6" r="4" fill="#0" id="circle292"/>
	<circle cx="996" cy="366.326" r="4" fill="#0" id="circle293"/>
	<circle cx="996" cy="378.052" r="4" fill="#0" id="circle294"/>
	<circle cx="996" cy="389.778" r="4" fill="#0" id="circle295"/>
	<circle cx="996" cy="401.504" r="4" fill="#0" id="circle296"/>
	<circle cx="996" cy="413.229" r="4" fill="#0" id="circle297"/>
	<circle cx="996" cy="424.955" r="4" fill="#0" id="circle298"/>
	<circle cx="996" cy="436.681" r="4" fill="#0" id="circle299"/>
	<circle cx="996" cy="448.407" r="4" fill="#0" id="circle300"/>
	<circle cx="996" cy="460.132" r="4" fill="#0" id="circle301"/>
	<circle cx="996" cy="471.858" r="4" fill="#0" id="circle302"/>
	<circle cx="996" cy="483.584" r="4" fill="#0" id="circle303"/>
	<circle cx="996" cy="495.31" r="4" fill="#0" id="circle304"/>
	<circle cx="996" cy="507.035" r="4" fill="#0" id="circle305"/>
	<circle cx="996" cy="518.761" r="4" fill="#0" id="circle306"/>
	<circle cx="996" cy="530.487" r="4" fill="#0" id="circle307"/>
	<circle cx="996" cy="542.213" r="4" fill="#0" id="circle308"/>
	<circle cx="996" cy="553.939" r="4" fill="#0" id="circle309"/>
	<circle cx="996" cy="565.664" r="4" fill="#0" id="circle310"/>
	<circle cx="996" cy="577.39" r="4" fill="#0" id="circle311"/>
	<circle cx="996" cy="589.116" r="4" fill="#0" id="circle312"/>
	<circle cx="996" cy="600.842" r="4" fill="#0" id="circle313"/>
	<circle cx="996" cy="612.567" r="4" fill="#0" id="circle314"/>
	<circle cx="996" cy="624.293" r="4" fill="#0" id="circle315"/>
	<circle cx="996" cy="636.019" r="4" fill="#0" id="circle316"/>
	<circle cx="996" cy="647.745" r="4" fill="#0" id="circle317"/>
	<circle cx="996" cy="659.47" r="4" fill="#0" id="circle318"/>
	<circle cx="996" cy="671.196" r="4" fill="#0" id="circle319"/>
	<circle cx="996" cy="682.922" r="4" fill="#0" id="circle320"/>
	<circle cx="996" cy="694.648" r="4" fill="#0" id="circle321"/>
	<circle cx="996" cy="706.374" r="4" fill="#0" id="circle322"/>
	<circle cx="996" cy="718.099" r="4" fill="#0" id="circle323"/>
	<circle cx="996" cy="729.825" r="4" fill="#0" id="circle324"/>
	<circle cx="996" cy="741.551" r="4" fill="#0" id="circle325"/>
	<circle cx="996" cy="753.277" r="4" fill="#0" id="circle326"/>
	</g>
</svg>