<?xml version="1.0" encoding="UTF-8" standalone="no"?>
<!-- Created with CurveBenchmark -->
<svg
	xmlns:dc="http://purl.org/dc/elements/1.1/"
	xmlns:cc="http://creativecommons.org/ns#"
	xmlns:rdf="http://www.w3.org/1999/02/22-rdf-syntax-ns#"
	xmlns:svg="http://www.w3.org/2000/svg"
	xmlns="http://www.w3.org/2000/svg"
	xmlns:sodipodi="http://sodipodi.sourceforge.net/DTD/sodipodi-0.dtd"
	xmlns:inkscape="http://www.inkscape.org/namespaces/inkscape"
	width="1000"
	height="1000"
	id="svg2"
	version="1.1"
	sodipodi:docname="manifold/crawl-flatfish30.png.txt">
<defs
	id="defs4" />
<metadata
	id="metadata7">
	<rdf:RDF>
		<cc:Work
			rdf:about="">
			<dc:format>image/svg+xml</dc:format>
			<dc:type
				rdf:resource="http://purl.org/dc/dcmitype/StillImage" />
			<dc:title></dc:title>
		</cc:Work>
	</rdf:RDF>
</metadata>
<g
	inkscape:label="Layer 1"
	inkscape:groupmode="layer"
	id="layer1">
	<path style="fill:none;stroke:red;stroke-width:1px;stroke-linecap:butt;stroke-linejoin:miter;stroke-opacity:1" d="M 4,594.761 4,611.835 z" id="boundary" inkscape:connector-curvature="0" />
	<path style="fill:none;stroke:red;stroke-width:1px;stroke-linecap:butt;stroke-linejoin:miter;stroke-opacity:1" d="M 4,611.835 4,628.909 z" id="boundary" inkscape:connector-curvature="0" />
	<path style="fill:none;stroke:red;stroke-width:1px;stroke-linecap:butt;stroke-linejoin:miter;stroke-opacity:1" d="M 4,628.909 4,645.983 z" id="boundary" inkscape:connector-curvature="0" />
	<path style="fill:none;stroke:red;stroke-width:1px;stroke-linecap:butt;stroke-linejoin:miter;stroke-opacity:1" d="M 4,645.983 12.537,661.349 z" id="boundary" inkscape:connector-curvature="0" />
	<path style="fill:none;stroke:red;stroke-width:1px;stroke-linecap:butt;stroke-linejoin:miter;stroke-opacity:1" d="M 12.537,661.349 24.4888,675.009 z" id="boundary" inkscape:connector-curvature="0" />
	<path style="fill:none;stroke:red;stroke-width:1px;stroke-linecap:butt;stroke-linejoin:miter;stroke-opacity:1" d="M 24.4888,675.009 33.0258,690.375 z" id="boundary" inkscape:connector-curvature="0" />
	<path style="fill:none;stroke:red;stroke-width:1px;stroke-linecap:butt;stroke-linejoin:miter;stroke-opacity:1" d="M 33.0258,690.375 46.685,702.327 z" id="boundary" inkscape:connector-curvature="0" />
	<path style="fill:none;stroke:red;stroke-width:1px;stroke-linecap:butt;stroke-linejoin:miter;stroke-opacity:1" d="M 46.685,702.327 63.759,705.742 z" id="boundary" inkscape:connector-curvature="0" />
	<path style="fill:none;stroke:red;stroke-width:1px;stroke-linecap:butt;stroke-linejoin:miter;stroke-opacity:1" d="M 63.759,705.742 80.833,710.864 z" id="boundary" inkscape:connector-curvature="0" />
	<path style="fill:none;stroke:red;stroke-width:1px;stroke-linecap:butt;stroke-linejoin:miter;stroke-opacity:1" d="M 80.833,710.864 97.9071,710.864 z" id="boundary" inkscape:connector-curvature="0" />
	<path style="fill:none;stroke:red;stroke-width:1px;stroke-linecap:butt;stroke-linejoin:miter;stroke-opacity:1" d="M 97.9071,710.864 114.981,705.742 z" id="boundary" inkscape:connector-curvature="0" />
	<path style="fill:none;stroke:red;stroke-width:1px;stroke-linecap:butt;stroke-linejoin:miter;stroke-opacity:1" d="M 114.981,705.742 132.055,710.864 z" id="boundary" inkscape:connector-curvature="0" />
	<path style="fill:none;stroke:red;stroke-width:1px;stroke-linecap:butt;stroke-linejoin:miter;stroke-opacity:1" d="M 132.055,710.864 147.422,719.401 z" id="boundary" inkscape:connector-curvature="0" />
	<path style="fill:none;stroke:red;stroke-width:1px;stroke-linecap:butt;stroke-linejoin:miter;stroke-opacity:1" d="M 147.422,719.401 162.788,710.864 z" id="boundary" inkscape:connector-curvature="0" />
	<path style="fill:none;stroke:red;stroke-width:1px;stroke-linecap:butt;stroke-linejoin:miter;stroke-opacity:1" d="M 162.788,710.864 171.325,726.231 z" id="boundary" inkscape:connector-curvature="0" />
	<path style="fill:none;stroke:red;stroke-width:1px;stroke-linecap:butt;stroke-linejoin:miter;stroke-opacity:1" d="M 171.325,726.231 188.399,719.401 z" id="boundary" inkscape:connector-curvature="0" />
	<path style="fill:none;stroke:red;stroke-width:1px;stroke-linecap:butt;stroke-linejoin:miter;stroke-opacity:1" d="M 188.399,719.401 205.473,719.401 z" id="boundary" inkscape:connector-curvature="0" />
	<path style="fill:none;stroke:red;stroke-width:1px;stroke-linecap:butt;stroke-linejoin:miter;stroke-opacity:1" d="M 205.473,719.401 222.547,719.401 z" id="boundary" inkscape:connector-curvature="0" />
	<path style="fill:none;stroke:red;stroke-width:1px;stroke-linecap:butt;stroke-linejoin:miter;stroke-opacity:1" d="M 222.547,719.401 239.621,719.401 z" id="boundary" inkscape:connector-curvature="0" />
	<path style="fill:none;stroke:red;stroke-width:1px;stroke-linecap:butt;stroke-linejoin:miter;stroke-opacity:1" d="M 239.621,719.401 256.695,719.401 z" id="boundary" inkscape:connector-curvature="0" />
	<path style="fill:none;stroke:red;stroke-width:1px;stroke-linecap:butt;stroke-linejoin:miter;stroke-opacity:1" d="M 256.695,719.401 273.769,717.694 z" id="boundary" inkscape:connector-curvature="0" />
	<path style="fill:none;stroke:red;stroke-width:1px;stroke-linecap:butt;stroke-linejoin:miter;stroke-opacity:1" d="M 4,594.761 12.537,577.687 z" id="boundary" inkscape:connector-curvature="0" />
	<path style="fill:none;stroke:red;stroke-width:1px;stroke-linecap:butt;stroke-linejoin:miter;stroke-opacity:1" d="M 12.537,577.687 12.537,560.613 z" id="boundary" inkscape:connector-curvature="0" />
	<path style="fill:none;stroke:red;stroke-width:1px;stroke-linecap:butt;stroke-linejoin:miter;stroke-opacity:1" d="M 273.769,717.694 287.429,702.327 z" id="boundary" inkscape:connector-curvature="0" />
	<path style="fill:none;stroke:red;stroke-width:1px;stroke-linecap:butt;stroke-linejoin:miter;stroke-opacity:1" d="M 287.429,702.327 304.503,702.327 z" id="boundary" inkscape:connector-curvature="0" />
	<path style="fill:none;stroke:red;stroke-width:1px;stroke-linecap:butt;stroke-linejoin:miter;stroke-opacity:1" d="M 304.503,702.327 321.577,702.327 z" id="boundary" inkscape:connector-curvature="0" />
	<path style="fill:none;stroke:red;stroke-width:1px;stroke-linecap:butt;stroke-linejoin:miter;stroke-opacity:1" d="M 321.577,702.327 336.943,710.864 z" id="boundary" inkscape:connector-curvature="0" />
	<path style="fill:none;stroke:red;stroke-width:1px;stroke-linecap:butt;stroke-linejoin:miter;stroke-opacity:1" d="M 336.943,710.864 354.017,710.864 z" id="boundary" inkscape:connector-curvature="0" />
	<path style="fill:none;stroke:red;stroke-width:1px;stroke-linecap:butt;stroke-linejoin:miter;stroke-opacity:1" d="M 354.017,710.864 364.262,724.523 z" id="boundary" inkscape:connector-curvature="0" />
	<path style="fill:none;stroke:red;stroke-width:1px;stroke-linecap:butt;stroke-linejoin:miter;stroke-opacity:1" d="M 364.262,724.523 381.336,727.938 z" id="boundary" inkscape:connector-curvature="0" />
	<path style="fill:none;stroke:red;stroke-width:1px;stroke-linecap:butt;stroke-linejoin:miter;stroke-opacity:1" d="M 381.336,727.938 396.702,736.475 z" id="boundary" inkscape:connector-curvature="0" />
	<path style="fill:none;stroke:red;stroke-width:1px;stroke-linecap:butt;stroke-linejoin:miter;stroke-opacity:1" d="M 396.702,736.475 413.776,736.475 z" id="boundary" inkscape:connector-curvature="0" />
	<path style="fill:none;stroke:red;stroke-width:1px;stroke-linecap:butt;stroke-linejoin:miter;stroke-opacity:1" d="M 413.776,736.475 424.021,750.134 z" id="boundary" inkscape:connector-curvature="0" />
	<path style="fill:none;stroke:red;stroke-width:1px;stroke-linecap:butt;stroke-linejoin:miter;stroke-opacity:1" d="M 424.021,750.134 441.095,745.012 z" id="boundary" inkscape:connector-curvature="0" />
	<path style="fill:none;stroke:red;stroke-width:1px;stroke-linecap:butt;stroke-linejoin:miter;stroke-opacity:1" d="M 441.095,745.012 446.217,721.108 z" id="boundary" inkscape:connector-curvature="0" />
	<path style="fill:none;stroke:red;stroke-width:1px;stroke-linecap:butt;stroke-linejoin:miter;stroke-opacity:1" d="M 446.217,721.108 439.387,704.034 z" id="boundary" inkscape:connector-curvature="0" />
	<path style="fill:none;stroke:red;stroke-width:1px;stroke-linecap:butt;stroke-linejoin:miter;stroke-opacity:1" d="M 439.387,704.034 422.313,697.205 z" id="boundary" inkscape:connector-curvature="0" />
	<path style="fill:none;stroke:red;stroke-width:1px;stroke-linecap:butt;stroke-linejoin:miter;stroke-opacity:1" d="M 422.313,697.205 415.484,680.131 z" id="boundary" inkscape:connector-curvature="0" />
	<path style="fill:none;stroke:red;stroke-width:1px;stroke-linecap:butt;stroke-linejoin:miter;stroke-opacity:1" d="M 415.484,680.131 401.824,668.179 z" id="boundary" inkscape:connector-curvature="0" />
	<path style="fill:none;stroke:red;stroke-width:1px;stroke-linecap:butt;stroke-linejoin:miter;stroke-opacity:1" d="M 401.824,668.179 398.41,651.105 z" id="boundary" inkscape:connector-curvature="0" />
	<path style="fill:none;stroke:red;stroke-width:1px;stroke-linecap:butt;stroke-linejoin:miter;stroke-opacity:1" d="M 398.41,651.105 415.484,651.105 z" id="boundary" inkscape:connector-curvature="0" />
	<path style="fill:none;stroke:red;stroke-width:1px;stroke-linecap:butt;stroke-linejoin:miter;stroke-opacity:1" d="M 415.484,651.105 432.558,651.105 z" id="boundary" inkscape:connector-curvature="0" />
	<path style="fill:none;stroke:red;stroke-width:1px;stroke-linecap:butt;stroke-linejoin:miter;stroke-opacity:1" d="M 432.558,651.105 449.632,651.105 z" id="boundary" inkscape:connector-curvature="0" />
	<path style="fill:none;stroke:red;stroke-width:1px;stroke-linecap:butt;stroke-linejoin:miter;stroke-opacity:1" d="M 449.632,651.105 466.706,651.105 z" id="boundary" inkscape:connector-curvature="0" />
	<path style="fill:none;stroke:red;stroke-width:1px;stroke-linecap:butt;stroke-linejoin:miter;stroke-opacity:1" d="M 466.706,651.105 483.78,651.105 z" id="boundary" inkscape:connector-curvature="0" />
	<path style="fill:none;stroke:red;stroke-width:1px;stroke-linecap:butt;stroke-linejoin:miter;stroke-opacity:1" d="M 483.78,651.105 500.854,642.568 z" id="boundary" inkscape:connector-curvature="0" />
	<path style="fill:none;stroke:red;stroke-width:1px;stroke-linecap:butt;stroke-linejoin:miter;stroke-opacity:1" d="M 500.854,642.568 516.22,634.031 z" id="boundary" inkscape:connector-curvature="0" />
	<path style="fill:none;stroke:red;stroke-width:1px;stroke-linecap:butt;stroke-linejoin:miter;stroke-opacity:1" d="M 516.22,634.031 531.587,625.494 z" id="boundary" inkscape:connector-curvature="0" />
	<path style="fill:none;stroke:red;stroke-width:1px;stroke-linecap:butt;stroke-linejoin:miter;stroke-opacity:1" d="M 531.587,625.494 546.954,616.957 z" id="boundary" inkscape:connector-curvature="0" />
	<path style="fill:none;stroke:red;stroke-width:1px;stroke-linecap:butt;stroke-linejoin:miter;stroke-opacity:1" d="M 546.954,616.957 564.028,615.25 z" id="boundary" inkscape:connector-curvature="0" />
	<path style="fill:none;stroke:red;stroke-width:1px;stroke-linecap:butt;stroke-linejoin:miter;stroke-opacity:1" d="M 564.028,615.25 581.102,606.713 z" id="boundary" inkscape:connector-curvature="0" />
	<path style="fill:none;stroke:red;stroke-width:1px;stroke-linecap:butt;stroke-linejoin:miter;stroke-opacity:1" d="M 581.102,606.713 598.176,598.176 z" id="boundary" inkscape:connector-curvature="0" />
	<path style="fill:none;stroke:red;stroke-width:1px;stroke-linecap:butt;stroke-linejoin:miter;stroke-opacity:1" d="M 598.176,598.176 606.713,581.102 z" id="boundary" inkscape:connector-curvature="0" />
	<path style="fill:none;stroke:red;stroke-width:1px;stroke-linecap:butt;stroke-linejoin:miter;stroke-opacity:1" d="M 606.713,581.102 623.787,572.565 z" id="boundary" inkscape:connector-curvature="0" />
	<path style="fill:none;stroke:red;stroke-width:1px;stroke-linecap:butt;stroke-linejoin:miter;stroke-opacity:1" d="M 623.787,572.565 632.324,555.491 z" id="boundary" inkscape:connector-curvature="0" />
	<path style="fill:none;stroke:red;stroke-width:1px;stroke-linecap:butt;stroke-linejoin:miter;stroke-opacity:1" d="M 632.324,555.491 640.861,540.124 z" id="boundary" inkscape:connector-curvature="0" />
	<path style="fill:none;stroke:red;stroke-width:1px;stroke-linecap:butt;stroke-linejoin:miter;stroke-opacity:1" d="M 640.861,540.124 656.227,531.587 z" id="boundary" inkscape:connector-curvature="0" />
	<path style="fill:none;stroke:red;stroke-width:1px;stroke-linecap:butt;stroke-linejoin:miter;stroke-opacity:1" d="M 656.227,531.587 663.057,514.513 z" id="boundary" inkscape:connector-curvature="0" />
	<path style="fill:none;stroke:red;stroke-width:1px;stroke-linecap:butt;stroke-linejoin:miter;stroke-opacity:1" d="M 663.057,514.513 676.716,502.561 z" id="boundary" inkscape:connector-curvature="0" />
	<path style="fill:none;stroke:red;stroke-width:1px;stroke-linecap:butt;stroke-linejoin:miter;stroke-opacity:1" d="M 676.716,502.561 693.79,494.024 z" id="boundary" inkscape:connector-curvature="0" />
	<path style="fill:none;stroke:red;stroke-width:1px;stroke-linecap:butt;stroke-linejoin:miter;stroke-opacity:1" d="M 693.79,494.024 697.205,471.828 z" id="boundary" inkscape:connector-curvature="0" />
	<path style="fill:none;stroke:red;stroke-width:1px;stroke-linecap:butt;stroke-linejoin:miter;stroke-opacity:1" d="M 697.205,471.828 705.742,454.754 z" id="boundary" inkscape:connector-curvature="0" />
	<path style="fill:none;stroke:red;stroke-width:1px;stroke-linecap:butt;stroke-linejoin:miter;stroke-opacity:1" d="M 705.742,454.754 714.279,437.68 z" id="boundary" inkscape:connector-curvature="0" />
	<path style="fill:none;stroke:red;stroke-width:1px;stroke-linecap:butt;stroke-linejoin:miter;stroke-opacity:1" d="M 714.279,437.68 731.353,429.143 z" id="boundary" inkscape:connector-curvature="0" />
	<path style="fill:none;stroke:red;stroke-width:1px;stroke-linecap:butt;stroke-linejoin:miter;stroke-opacity:1" d="M 731.353,429.143 731.353,412.069 z" id="boundary" inkscape:connector-curvature="0" />
	<path style="fill:none;stroke:red;stroke-width:1px;stroke-linecap:butt;stroke-linejoin:miter;stroke-opacity:1" d="M 731.353,412.069 739.89,394.995 z" id="boundary" inkscape:connector-curvature="0" />
	<path style="fill:none;stroke:red;stroke-width:1px;stroke-linecap:butt;stroke-linejoin:miter;stroke-opacity:1" d="M 739.89,394.995 739.89,377.921 z" id="boundary" inkscape:connector-curvature="0" />
	<path style="fill:none;stroke:red;stroke-width:1px;stroke-linecap:butt;stroke-linejoin:miter;stroke-opacity:1" d="M 739.89,377.921 748.427,360.847 z" id="boundary" inkscape:connector-curvature="0" />
	<path style="fill:none;stroke:red;stroke-width:1px;stroke-linecap:butt;stroke-linejoin:miter;stroke-opacity:1" d="M 748.427,360.847 748.427,343.773 z" id="boundary" inkscape:connector-curvature="0" />
	<path style="fill:none;stroke:red;stroke-width:1px;stroke-linecap:butt;stroke-linejoin:miter;stroke-opacity:1" d="M 748.427,343.773 762.086,331.821 z" id="boundary" inkscape:connector-curvature="0" />
	<path style="fill:none;stroke:red;stroke-width:1px;stroke-linecap:butt;stroke-linejoin:miter;stroke-opacity:1" d="M 12.537,560.613 21.074,535.002 z" id="boundary" inkscape:connector-curvature="0" />
	<path style="fill:none;stroke:red;stroke-width:1px;stroke-linecap:butt;stroke-linejoin:miter;stroke-opacity:1" d="M 21.074,535.002 29.611,517.928 z" id="boundary" inkscape:connector-curvature="0" />
	<path style="fill:none;stroke:red;stroke-width:1px;stroke-linecap:butt;stroke-linejoin:miter;stroke-opacity:1" d="M 29.611,517.928 29.611,500.854 z" id="boundary" inkscape:connector-curvature="0" />
	<path style="fill:none;stroke:red;stroke-width:1px;stroke-linecap:butt;stroke-linejoin:miter;stroke-opacity:1" d="M 29.611,500.854 29.611,483.78 z" id="boundary" inkscape:connector-curvature="0" />
	<path style="fill:none;stroke:red;stroke-width:1px;stroke-linecap:butt;stroke-linejoin:miter;stroke-opacity:1" d="M 29.611,483.78 38.148,466.706 z" id="boundary" inkscape:connector-curvature="0" />
	<path style="fill:none;stroke:red;stroke-width:1px;stroke-linecap:butt;stroke-linejoin:miter;stroke-opacity:1" d="M 38.148,466.706 38.148,449.632 z" id="boundary" inkscape:connector-curvature="0" />
	<path style="fill:none;stroke:red;stroke-width:1px;stroke-linecap:butt;stroke-linejoin:miter;stroke-opacity:1" d="M 38.148,449.632 51.8072,435.972 z" id="boundary" inkscape:connector-curvature="0" />
	<path style="fill:none;stroke:red;stroke-width:1px;stroke-linecap:butt;stroke-linejoin:miter;stroke-opacity:1" d="M 51.8072,435.972 65.4664,422.313 z" id="boundary" inkscape:connector-curvature="0" />
	<path style="fill:none;stroke:red;stroke-width:1px;stroke-linecap:butt;stroke-linejoin:miter;stroke-opacity:1" d="M 65.4664,422.313 72.296,398.41 z" id="boundary" inkscape:connector-curvature="0" />
	<path style="fill:none;stroke:red;stroke-width:1px;stroke-linecap:butt;stroke-linejoin:miter;stroke-opacity:1" d="M 72.296,398.41 80.833,381.336 z" id="boundary" inkscape:connector-curvature="0" />
	<path style="fill:none;stroke:red;stroke-width:1px;stroke-linecap:butt;stroke-linejoin:miter;stroke-opacity:1" d="M 80.833,381.336 94.4923,367.676 z" id="boundary" inkscape:connector-curvature="0" />
	<path style="fill:none;stroke:red;stroke-width:1px;stroke-linecap:butt;stroke-linejoin:miter;stroke-opacity:1" d="M 94.4923,367.676 97.9071,347.188 z" id="boundary" inkscape:connector-curvature="0" />
	<path style="fill:none;stroke:red;stroke-width:1px;stroke-linecap:butt;stroke-linejoin:miter;stroke-opacity:1" d="M 97.9071,347.188 106.444,330.114 z" id="boundary" inkscape:connector-curvature="0" />
	<path style="fill:none;stroke:red;stroke-width:1px;stroke-linecap:butt;stroke-linejoin:miter;stroke-opacity:1" d="M 106.444,330.114 114.981,313.04 z" id="boundary" inkscape:connector-curvature="0" />
	<path style="fill:none;stroke:red;stroke-width:1px;stroke-linecap:butt;stroke-linejoin:miter;stroke-opacity:1" d="M 114.981,313.04 128.64,299.38 z" id="boundary" inkscape:connector-curvature="0" />
	<path style="fill:none;stroke:red;stroke-width:1px;stroke-linecap:butt;stroke-linejoin:miter;stroke-opacity:1" d="M 128.64,299.38 140.592,278.892 z" id="boundary" inkscape:connector-curvature="0" />
	<path style="fill:none;stroke:red;stroke-width:1px;stroke-linecap:butt;stroke-linejoin:miter;stroke-opacity:1" d="M 140.592,278.892 157.666,278.892 z" id="boundary" inkscape:connector-curvature="0" />
	<path style="fill:none;stroke:red;stroke-width:1px;stroke-linecap:butt;stroke-linejoin:miter;stroke-opacity:1" d="M 157.666,278.892 166.203,261.818 z" id="boundary" inkscape:connector-curvature="0" />
	<path style="fill:none;stroke:red;stroke-width:1px;stroke-linecap:butt;stroke-linejoin:miter;stroke-opacity:1" d="M 166.203,261.818 183.277,253.281 z" id="boundary" inkscape:connector-curvature="0" />
	<path style="fill:none;stroke:red;stroke-width:1px;stroke-linecap:butt;stroke-linejoin:miter;stroke-opacity:1" d="M 183.277,253.281 200.351,244.744 z" id="boundary" inkscape:connector-curvature="0" />
	<path style="fill:none;stroke:red;stroke-width:1px;stroke-linecap:butt;stroke-linejoin:miter;stroke-opacity:1" d="M 200.351,244.744 217.425,236.207 z" id="boundary" inkscape:connector-curvature="0" />
	<path style="fill:none;stroke:red;stroke-width:1px;stroke-linecap:butt;stroke-linejoin:miter;stroke-opacity:1" d="M 217.425,236.207 231.084,222.547 z" id="boundary" inkscape:connector-curvature="0" />
	<path style="fill:none;stroke:red;stroke-width:1px;stroke-linecap:butt;stroke-linejoin:miter;stroke-opacity:1" d="M 231.084,222.547 248.158,222.547 z" id="boundary" inkscape:connector-curvature="0" />
	<path style="fill:none;stroke:red;stroke-width:1px;stroke-linecap:butt;stroke-linejoin:miter;stroke-opacity:1" d="M 248.158,222.547 265.232,214.01 z" id="boundary" inkscape:connector-curvature="0" />
	<path style="fill:none;stroke:red;stroke-width:1px;stroke-linecap:butt;stroke-linejoin:miter;stroke-opacity:1" d="M 265.232,214.01 282.306,205.473 z" id="boundary" inkscape:connector-curvature="0" />
	<path style="fill:none;stroke:red;stroke-width:1px;stroke-linecap:butt;stroke-linejoin:miter;stroke-opacity:1" d="M 282.306,205.473 299.38,196.936 z" id="boundary" inkscape:connector-curvature="0" />
	<path style="fill:none;stroke:red;stroke-width:1px;stroke-linecap:butt;stroke-linejoin:miter;stroke-opacity:1" d="M 299.38,196.936 314.747,188.399 z" id="boundary" inkscape:connector-curvature="0" />
	<path style="fill:none;stroke:red;stroke-width:1px;stroke-linecap:butt;stroke-linejoin:miter;stroke-opacity:1" d="M 314.747,188.399 330.114,196.936 z" id="boundary" inkscape:connector-curvature="0" />
	<path style="fill:none;stroke:red;stroke-width:1px;stroke-linecap:butt;stroke-linejoin:miter;stroke-opacity:1" d="M 330.114,196.936 345.48,184.985 z" id="boundary" inkscape:connector-curvature="0" />
	<path style="fill:none;stroke:red;stroke-width:1px;stroke-linecap:butt;stroke-linejoin:miter;stroke-opacity:1" d="M 345.48,184.985 362.554,179.862 z" id="boundary" inkscape:connector-curvature="0" />
	<path style="fill:none;stroke:red;stroke-width:1px;stroke-linecap:butt;stroke-linejoin:miter;stroke-opacity:1" d="M 362.554,179.862 377.921,171.325 z" id="boundary" inkscape:connector-curvature="0" />
	<path style="fill:none;stroke:red;stroke-width:1px;stroke-linecap:butt;stroke-linejoin:miter;stroke-opacity:1" d="M 377.921,171.325 394.995,171.325 z" id="boundary" inkscape:connector-curvature="0" />
	<path style="fill:none;stroke:red;stroke-width:1px;stroke-linecap:butt;stroke-linejoin:miter;stroke-opacity:1" d="M 394.995,171.325 410.361,162.788 z" id="boundary" inkscape:connector-curvature="0" />
	<path style="fill:none;stroke:red;stroke-width:1px;stroke-linecap:butt;stroke-linejoin:miter;stroke-opacity:1" d="M 410.361,162.788 427.435,162.788 z" id="boundary" inkscape:connector-curvature="0" />
	<path style="fill:none;stroke:red;stroke-width:1px;stroke-linecap:butt;stroke-linejoin:miter;stroke-opacity:1" d="M 427.435,162.788 442.802,171.325 z" id="boundary" inkscape:connector-curvature="0" />
	<path style="fill:none;stroke:red;stroke-width:1px;stroke-linecap:butt;stroke-linejoin:miter;stroke-opacity:1" d="M 442.802,171.325 458.169,162.788 z" id="boundary" inkscape:connector-curvature="0" />
	<path style="fill:none;stroke:red;stroke-width:1px;stroke-linecap:butt;stroke-linejoin:miter;stroke-opacity:1" d="M 458.169,162.788 475.243,162.788 z" id="boundary" inkscape:connector-curvature="0" />
	<path style="fill:none;stroke:red;stroke-width:1px;stroke-linecap:butt;stroke-linejoin:miter;stroke-opacity:1" d="M 475.243,162.788 492.317,162.788 z" id="boundary" inkscape:connector-curvature="0" />
	<path style="fill:none;stroke:red;stroke-width:1px;stroke-linecap:butt;stroke-linejoin:miter;stroke-opacity:1" d="M 492.317,162.788 509.391,162.788 z" id="boundary" inkscape:connector-curvature="0" />
	<path style="fill:none;stroke:red;stroke-width:1px;stroke-linecap:butt;stroke-linejoin:miter;stroke-opacity:1" d="M 509.391,162.788 526.465,162.788 z" id="boundary" inkscape:connector-curvature="0" />
	<path style="fill:none;stroke:red;stroke-width:1px;stroke-linecap:butt;stroke-linejoin:miter;stroke-opacity:1" d="M 526.465,162.788 543.539,167.91 z" id="boundary" inkscape:connector-curvature="0" />
	<path style="fill:none;stroke:red;stroke-width:1px;stroke-linecap:butt;stroke-linejoin:miter;stroke-opacity:1" d="M 543.539,167.91 557.198,179.862 z" id="boundary" inkscape:connector-curvature="0" />
	<path style="fill:none;stroke:red;stroke-width:1px;stroke-linecap:butt;stroke-linejoin:miter;stroke-opacity:1" d="M 557.198,179.862 574.272,179.862 z" id="boundary" inkscape:connector-curvature="0" />
	<path style="fill:none;stroke:red;stroke-width:1px;stroke-linecap:butt;stroke-linejoin:miter;stroke-opacity:1" d="M 574.272,179.862 589.639,188.399 z" id="boundary" inkscape:connector-curvature="0" />
	<path style="fill:none;stroke:red;stroke-width:1px;stroke-linecap:butt;stroke-linejoin:miter;stroke-opacity:1" d="M 589.639,188.399 606.713,188.399 z" id="boundary" inkscape:connector-curvature="0" />
	<path style="fill:none;stroke:red;stroke-width:1px;stroke-linecap:butt;stroke-linejoin:miter;stroke-opacity:1" d="M 606.713,188.399 622.079,196.936 z" id="boundary" inkscape:connector-curvature="0" />
	<path style="fill:none;stroke:red;stroke-width:1px;stroke-linecap:butt;stroke-linejoin:miter;stroke-opacity:1" d="M 622.079,196.936 637.446,188.399 z" id="boundary" inkscape:connector-curvature="0" />
	<path style="fill:none;stroke:red;stroke-width:1px;stroke-linecap:butt;stroke-linejoin:miter;stroke-opacity:1" d="M 637.446,188.399 645.983,203.766 z" id="boundary" inkscape:connector-curvature="0" />
	<path style="fill:none;stroke:red;stroke-width:1px;stroke-linecap:butt;stroke-linejoin:miter;stroke-opacity:1" d="M 645.983,203.766 663.057,202.059 z" id="boundary" inkscape:connector-curvature="0" />
	<path style="fill:none;stroke:red;stroke-width:1px;stroke-linecap:butt;stroke-linejoin:miter;stroke-opacity:1" d="M 663.057,202.059 680.131,205.473 z" id="boundary" inkscape:connector-curvature="0" />
	<path style="fill:none;stroke:red;stroke-width:1px;stroke-linecap:butt;stroke-linejoin:miter;stroke-opacity:1" d="M 680.131,205.473 697.205,205.473 z" id="boundary" inkscape:connector-curvature="0" />
	<path style="fill:none;stroke:red;stroke-width:1px;stroke-linecap:butt;stroke-linejoin:miter;stroke-opacity:1" d="M 697.205,205.473 714.279,202.059 z" id="boundary" inkscape:connector-curvature="0" />
	<path style="fill:none;stroke:red;stroke-width:1px;stroke-linecap:butt;stroke-linejoin:miter;stroke-opacity:1" d="M 714.279,202.059 726.231,188.399 z" id="boundary" inkscape:connector-curvature="0" />
	<path style="fill:none;stroke:red;stroke-width:1px;stroke-linecap:butt;stroke-linejoin:miter;stroke-opacity:1" d="M 726.231,188.399 734.768,171.325 z" id="boundary" inkscape:connector-curvature="0" />
	<path style="fill:none;stroke:red;stroke-width:1px;stroke-linecap:butt;stroke-linejoin:miter;stroke-opacity:1" d="M 734.768,171.325 743.305,154.251 z" id="boundary" inkscape:connector-curvature="0" />
	<path style="fill:none;stroke:red;stroke-width:1px;stroke-linecap:butt;stroke-linejoin:miter;stroke-opacity:1" d="M 743.305,154.251 746.719,125.225 z" id="boundary" inkscape:connector-curvature="0" />
	<path style="fill:none;stroke:red;stroke-width:1px;stroke-linecap:butt;stroke-linejoin:miter;stroke-opacity:1" d="M 746.719,125.225 755.256,99.6145 z" id="boundary" inkscape:connector-curvature="0" />
	<path style="fill:none;stroke:red;stroke-width:1px;stroke-linecap:butt;stroke-linejoin:miter;stroke-opacity:1" d="M 755.256,99.6145 763.793,82.5404 z" id="boundary" inkscape:connector-curvature="0" />
	<path style="fill:none;stroke:red;stroke-width:1px;stroke-linecap:butt;stroke-linejoin:miter;stroke-opacity:1" d="M 763.793,82.5404 777.453,68.8812 z" id="boundary" inkscape:connector-curvature="0" />
	<path style="fill:none;stroke:red;stroke-width:1px;stroke-linecap:butt;stroke-linejoin:miter;stroke-opacity:1" d="M 777.453,68.8812 785.99,51.8072 z" id="boundary" inkscape:connector-curvature="0" />
	<path style="fill:none;stroke:red;stroke-width:1px;stroke-linecap:butt;stroke-linejoin:miter;stroke-opacity:1" d="M 785.99,51.8072 794.527,34.7332 z" id="boundary" inkscape:connector-curvature="0" />
	<path style="fill:none;stroke:red;stroke-width:1px;stroke-linecap:butt;stroke-linejoin:miter;stroke-opacity:1" d="M 794.527,34.7332 808.186,21.074 z" id="boundary" inkscape:connector-curvature="0" />
	<path style="fill:none;stroke:red;stroke-width:1px;stroke-linecap:butt;stroke-linejoin:miter;stroke-opacity:1" d="M 808.186,21.074 816.723,4 z" id="boundary" inkscape:connector-curvature="0" />
	<path style="fill:none;stroke:red;stroke-width:1px;stroke-linecap:butt;stroke-linejoin:miter;stroke-opacity:1" d="M 816.723,4 833.797,4 z" id="boundary" inkscape:connector-curvature="0" />
	<path style="fill:none;stroke:red;stroke-width:1px;stroke-linecap:butt;stroke-linejoin:miter;stroke-opacity:1" d="M 833.797,4 850.871,5.7074 z" id="boundary" inkscape:connector-curvature="0" />
	<path style="fill:none;stroke:red;stroke-width:1px;stroke-linecap:butt;stroke-linejoin:miter;stroke-opacity:1" d="M 850.871,5.7074 842.334,27.9036 z" id="boundary" inkscape:connector-curvature="0" />
	<path style="fill:none;stroke:red;stroke-width:1px;stroke-linecap:butt;stroke-linejoin:miter;stroke-opacity:1" d="M 842.334,27.9036 842.334,44.9776 z" id="boundary" inkscape:connector-curvature="0" />
	<path style="fill:none;stroke:red;stroke-width:1px;stroke-linecap:butt;stroke-linejoin:miter;stroke-opacity:1" d="M 842.334,44.9776 842.334,62.0516 z" id="boundary" inkscape:connector-curvature="0" />
	<path style="fill:none;stroke:red;stroke-width:1px;stroke-linecap:butt;stroke-linejoin:miter;stroke-opacity:1" d="M 842.334,62.0516 842.334,79.1256 z" id="boundary" inkscape:connector-curvature="0" />
	<path style="fill:none;stroke:red;stroke-width:1px;stroke-linecap:butt;stroke-linejoin:miter;stroke-opacity:1" d="M 842.334,79.1256 850.871,94.4923 z" id="boundary" inkscape:connector-curvature="0" />
	<path style="fill:none;stroke:red;stroke-width:1px;stroke-linecap:butt;stroke-linejoin:miter;stroke-opacity:1" d="M 850.871,94.4923 859.408,109.859 z" id="boundary" inkscape:connector-curvature="0" />
	<path style="fill:none;stroke:red;stroke-width:1px;stroke-linecap:butt;stroke-linejoin:miter;stroke-opacity:1" d="M 859.408,109.859 876.482,116.688 z" id="boundary" inkscape:connector-curvature="0" />
	<path style="fill:none;stroke:red;stroke-width:1px;stroke-linecap:butt;stroke-linejoin:miter;stroke-opacity:1" d="M 876.482,116.688 891.849,125.225 z" id="boundary" inkscape:connector-curvature="0" />
	<path style="fill:none;stroke:red;stroke-width:1px;stroke-linecap:butt;stroke-linejoin:miter;stroke-opacity:1" d="M 891.849,125.225 900.386,140.592 z" id="boundary" inkscape:connector-curvature="0" />
	<path style="fill:none;stroke:red;stroke-width:1px;stroke-linecap:butt;stroke-linejoin:miter;stroke-opacity:1" d="M 900.386,140.592 907.215,157.666 z" id="boundary" inkscape:connector-curvature="0" />
	<path style="fill:none;stroke:red;stroke-width:1px;stroke-linecap:butt;stroke-linejoin:miter;stroke-opacity:1" d="M 907.215,157.666 919.167,171.325 z" id="boundary" inkscape:connector-curvature="0" />
	<path style="fill:none;stroke:red;stroke-width:1px;stroke-linecap:butt;stroke-linejoin:miter;stroke-opacity:1" d="M 919.167,171.325 927.704,186.692 z" id="boundary" inkscape:connector-curvature="0" />
	<path style="fill:none;stroke:red;stroke-width:1px;stroke-linecap:butt;stroke-linejoin:miter;stroke-opacity:1" d="M 927.704,186.692 936.241,202.059 z" id="boundary" inkscape:connector-curvature="0" />
	<path style="fill:none;stroke:red;stroke-width:1px;stroke-linecap:butt;stroke-linejoin:miter;stroke-opacity:1" d="M 936.241,202.059 943.071,219.133 z" id="boundary" inkscape:connector-curvature="0" />
	<path style="fill:none;stroke:red;stroke-width:1px;stroke-linecap:butt;stroke-linejoin:miter;stroke-opacity:1" d="M 943.071,219.133 953.315,232.792 z" id="boundary" inkscape:connector-curvature="0" />
	<path style="fill:none;stroke:red;stroke-width:1px;stroke-linecap:butt;stroke-linejoin:miter;stroke-opacity:1" d="M 953.315,232.792 961.852,249.866 z" id="boundary" inkscape:connector-curvature="0" />
	<path style="fill:none;stroke:red;stroke-width:1px;stroke-linecap:butt;stroke-linejoin:miter;stroke-opacity:1" d="M 961.852,249.866 978.926,256.695 z" id="boundary" inkscape:connector-curvature="0" />
	<path style="fill:none;stroke:red;stroke-width:1px;stroke-linecap:butt;stroke-linejoin:miter;stroke-opacity:1" d="M 978.926,256.695 996,261.818 z" id="boundary" inkscape:connector-curvature="0" />
	<path style="fill:none;stroke:red;stroke-width:1px;stroke-linecap:butt;stroke-linejoin:miter;stroke-opacity:1" d="M 996,261.818 994.293,278.892 z" id="boundary" inkscape:connector-curvature="0" />
	<path style="fill:none;stroke:red;stroke-width:1px;stroke-linecap:butt;stroke-linejoin:miter;stroke-opacity:1" d="M 994.293,278.892 977.219,287.429 z" id="boundary" inkscape:connector-curvature="0" />
	<path style="fill:none;stroke:red;stroke-width:1px;stroke-linecap:butt;stroke-linejoin:miter;stroke-opacity:1" d="M 977.219,287.429 960.145,287.429 z" id="boundary" inkscape:connector-curvature="0" />
	<path style="fill:none;stroke:red;stroke-width:1px;stroke-linecap:butt;stroke-linejoin:miter;stroke-opacity:1" d="M 960.145,287.429 943.071,292.551 z" id="boundary" inkscape:connector-curvature="0" />
	<path style="fill:none;stroke:red;stroke-width:1px;stroke-linecap:butt;stroke-linejoin:miter;stroke-opacity:1" d="M 943.071,292.551 925.997,287.429 z" id="boundary" inkscape:connector-curvature="0" />
	<path style="fill:none;stroke:red;stroke-width:1px;stroke-linecap:butt;stroke-linejoin:miter;stroke-opacity:1" d="M 925.997,287.429 912.337,297.673 z" id="boundary" inkscape:connector-curvature="0" />
	<path style="fill:none;stroke:red;stroke-width:1px;stroke-linecap:butt;stroke-linejoin:miter;stroke-opacity:1" d="M 912.337,297.673 895.263,292.551 z" id="boundary" inkscape:connector-curvature="0" />
	<path style="fill:none;stroke:red;stroke-width:1px;stroke-linecap:butt;stroke-linejoin:miter;stroke-opacity:1" d="M 895.263,292.551 878.189,292.551 z" id="boundary" inkscape:connector-curvature="0" />
	<path style="fill:none;stroke:red;stroke-width:1px;stroke-linecap:butt;stroke-linejoin:miter;stroke-opacity:1" d="M 878.189,292.551 862.823,284.014 z" id="boundary" inkscape:connector-curvature="0" />
	<path style="fill:none;stroke:red;stroke-width:1px;stroke-linecap:butt;stroke-linejoin:miter;stroke-opacity:1" d="M 862.823,284.014 847.456,292.551 z" id="boundary" inkscape:connector-curvature="0" />
	<path style="fill:none;stroke:red;stroke-width:1px;stroke-linecap:butt;stroke-linejoin:miter;stroke-opacity:1" d="M 847.456,292.551 830.382,292.551 z" id="boundary" inkscape:connector-curvature="0" />
	<path style="fill:none;stroke:red;stroke-width:1px;stroke-linecap:butt;stroke-linejoin:miter;stroke-opacity:1" d="M 830.382,292.551 815.015,284.014 z" id="boundary" inkscape:connector-curvature="0" />
	<path style="fill:none;stroke:red;stroke-width:1px;stroke-linecap:butt;stroke-linejoin:miter;stroke-opacity:1" d="M 815.015,284.014 797.941,284.014 z" id="boundary" inkscape:connector-curvature="0" />
	<path style="fill:none;stroke:red;stroke-width:1px;stroke-linecap:butt;stroke-linejoin:miter;stroke-opacity:1" d="M 797.941,284.014 782.575,292.551 z" id="boundary" inkscape:connector-curvature="0" />
	<path style="fill:none;stroke:red;stroke-width:1px;stroke-linecap:butt;stroke-linejoin:miter;stroke-opacity:1" d="M 782.575,292.551 765.501,301.088 z" id="boundary" inkscape:connector-curvature="0" />
	<path style="fill:none;stroke:red;stroke-width:1px;stroke-linecap:butt;stroke-linejoin:miter;stroke-opacity:1" d="M 765.501,301.088 762.086,331.821 z" id="boundary" inkscape:connector-curvature="0" />
	<circle cx="4" cy="594.761" r="4" fill="#0" id="circle0"/>
	<circle cx="4" cy="611.835" r="4" fill="#0" id="circle1"/>
	<circle cx="4" cy="628.909" r="4" fill="#0" id="circle2"/>
	<circle cx="4" cy="645.983" r="4" fill="#0" id="circle3"/>
	<circle cx="12.537" cy="560.613" r="4" fill="#0" id="circle4"/>
	<circle cx="12.537" cy="577.687" r="4" fill="#0" id="circle5"/>
	<circle cx="12.537" cy="661.349" r="4" fill="#0" id="circle6"/>
	<circle cx="21.074" cy="535.002" r="4" fill="#0" id="circle7"/>
	<circle cx="24.4888" cy="675.009" r="4" fill="#0" id="circle8"/>
	<circle cx="29.611" cy="483.78" r="4" fill="#0" id="circle9"/>
	<circle cx="29.611" cy="500.854" r="4" fill="#0" id="circle10"/>
	<circle cx="29.611" cy="517.928" r="4" fill="#0" id="circle11"/>
	<circle cx="33.0258" cy="690.375" r="4" fill="#0" id="circle12"/>
	<circle cx="38.148" cy="449.632" r="4" fill="#0" id="circle13"/>
	<circle cx="38.148" cy="466.706" r="4" fill="#0" id="circle14"/>
	<circle cx="46.685" cy="702.327" r="4" fill="#0" id="circle15"/>
	<circle cx="51.8072" cy="435.972" r="4" fill="#0" id="circle16"/>
	<circle cx="63.759" cy="705.742" r="4" fill="#0" id="circle17"/>
	<circle cx="65.4664" cy="422.313" r="4" fill="#0" id="circle18"/>
	<circle cx="72.296" cy="398.41" r="4" fill="#0" id="circle19"/>
	<circle cx="80.833" cy="381.336" r="4" fill="#0" id="circle20"/>
	<circle cx="80.833" cy="710.864" r="4" fill="#0" id="circle21"/>
	<circle cx="94.4923" cy="367.676" r="4" fill="#0" id="circle22"/>
	<circle cx="97.9071" cy="347.188" r="4" fill="#0" id="circle23"/>
	<circle cx="97.9071" cy="710.864" r="4" fill="#0" id="circle24"/>
	<circle cx="106.444" cy="330.114" r="4" fill="#0" id="circle25"/>
	<circle cx="114.981" cy="313.04" r="4" fill="#0" id="circle26"/>
	<circle cx="114.981" cy="705.742" r="4" fill="#0" id="circle27"/>
	<circle cx="128.64" cy="299.38" r="4" fill="#0" id="circle28"/>
	<circle cx="132.055" cy="710.864" r="4" fill="#0" id="circle29"/>
	<circle cx="140.592" cy="278.892" r="4" fill="#0" id="circle30"/>
	<circle cx="147.422" cy="719.401" r="4" fill="#0" id="circle31"/>
	<circle cx="157.666" cy="278.892" r="4" fill="#0" id="circle32"/>
	<circle cx="162.788" cy="710.864" r="4" fill="#0" id="circle33"/>
	<circle cx="166.203" cy="261.818" r="4" fill="#0" id="circle34"/>
	<circle cx="171.325" cy="726.231" r="4" fill="#0" id="circle35"/>
	<circle cx="183.277" cy="253.281" r="4" fill="#0" id="circle36"/>
	<circle cx="188.399" cy="719.401" r="4" fill="#0" id="circle37"/>
	<circle cx="200.351" cy="244.744" r="4" fill="#0" id="circle38"/>
	<circle cx="205.473" cy="719.401" r="4" fill="#0" id="circle39"/>
	<circle cx="217.425" cy="236.207" r="4" fill="#0" id="circle40"/>
	<circle cx="222.547" cy="719.401" r="4" fill="#0" id="circle41"/>
	<circle cx="231.084" cy="222.547" r="4" fill="#0" id="circle42"/>
	<circle cx="239.621" cy="719.401" r="4" fill="#0" id="circle43"/>
	<circle cx="248.158" cy="222.547" r="4" fill="#0" id="circle44"/>
	<circle cx="256.695" cy="719.401" r="4" fill="#0" id="circle45"/>
	<circle cx="265.232" cy="214.01" r="4" fill="#0" id="circle46"/>
	<circle cx="273.769" cy="717.694" r="4" fill="#0" id="circle47"/>
	<circle cx="282.306" cy="205.473" r="4" fill="#0" id="circle48"/>
	<circle cx="287.429" cy="702.327" r="4" fill="#0" id="circle49"/>
	<circle cx="299.38" cy="196.936" r="4" fill="#0" id="circle50"/>
	<circle cx="304.503" cy="702.327" r="4" fill="#0" id="circle51"/>
	<circle cx="314.747" cy="188.399" r="4" fill="#0" id="circle52"/>
	<circle cx="321.577" cy="702.327" r="4" fill="#0" id="circle53"/>
	<circle cx="330.114" cy="196.936" r="4" fill="#0" id="circle54"/>
	<circle cx="336.943" cy="710.864" r="4" fill="#0" id="circle55"/>
	<circle cx="345.48" cy="184.985" r="4" fill="#0" id="circle56"/>
	<circle cx="354.017" cy="710.864" r="4" fill="#0" id="circle57"/>
	<circle cx="362.554" cy="179.862" r="4" fill="#0" id="circle58"/>
	<circle cx="364.262" cy="724.523" r="4" fill="#0" id="circle59"/>
	<circle cx="377.921" cy="171.325" r="4" fill="#0" id="circle60"/>
	<circle cx="381.336" cy="727.938" r="4" fill="#0" id="circle61"/>
	<circle cx="394.995" cy="171.325" r="4" fill="#0" id="circle62"/>
	<circle cx="396.702" cy="736.475" r="4" fill="#0" id="circle63"/>
	<circle cx="398.41" cy="651.105" r="4" fill="#0" id="circle64"/>
	<circle cx="401.824" cy="668.179" r="4" fill="#0" id="circle65"/>
	<circle cx="410.361" cy="162.788" r="4" fill="#0" id="circle66"/>
	<circle cx="413.776" cy="736.475" r="4" fill="#0" id="circle67"/>
	<circle cx="415.484" cy="651.105" r="4" fill="#0" id="circle68"/>
	<circle cx="415.484" cy="680.131" r="4" fill="#0" id="circle69"/>
	<circle cx="422.313" cy="697.205" r="4" fill="#0" id="circle70"/>
	<circle cx="424.021" cy="750.134" r="4" fill="#0" id="circle71"/>
	<circle cx="427.435" cy="162.788" r="4" fill="#0" id="circle72"/>
	<circle cx="432.558" cy="651.105" r="4" fill="#0" id="circle73"/>
	<circle cx="439.387" cy="704.034" r="4" fill="#0" id="circle74"/>
	<circle cx="441.095" cy="745.012" r="4" fill="#0" id="circle75"/>
	<circle cx="442.802" cy="171.325" r="4" fill="#0" id="circle76"/>
	<circle cx="446.217" cy="721.108" r="4" fill="#0" id="circle77"/>
	<circle cx="449.632" cy="651.105" r="4" fill="#0" id="circle78"/>
	<circle cx="458.169" cy="162.788" r="4" fill="#0" id="circle79"/>
	<circle cx="466.706" cy="651.105" r="4" fill="#0" id="circle80"/>
	<circle cx="475.243" cy="162.788" r="4" fill="#0" id="circle81"/>
	<circle cx="483.78" cy="651.105" r="4" fill="#0" id="circle82"/>
	<circle cx="492.317" cy="162.788" r="4" fill="#0" id="circle83"/>
	<circle cx="500.854" cy="642.568" r="4" fill="#0" id="circle84"/>
	<circle cx="509.391" cy="162.788" r="4" fill="#0" id="circle85"/>
	<circle cx="516.22" cy="634.031" r="4" fill="#0" id="circle86"/>
	<circle cx="526.465" cy="162.788" r="4" fill="#0" id="circle87"/>
	<circle cx="531.587" cy="625.494" r="4" fill="#0" id="circle88"/>
	<circle cx="543.539" cy="167.91" r="4" fill="#0" id="circle89"/>
	<circle cx="546.954" cy="616.957" r="4" fill="#0" id="circle90"/>
	<circle cx="557.198" cy="179.862" r="4" fill="#0" id="circle91"/>
	<circle cx="564.028" cy="615.25" r="4" fill="#0" id="circle92"/>
	<circle cx="574.272" cy="179.862" r="4" fill="#0" id="circle93"/>
	<circle cx="581.102" cy="606.713" r="4" fill="#0" id="circle94"/>
	<circle cx="589.639" cy="188.399" r="4" fill="#0" id="circle95"/>
	<circle cx="598.176" cy="598.176" r="4" fill="#0" id="circle96"/>
	<circle cx="606.713" cy="188.399" r="4" fill="#0" id="circle97"/>
	<circle cx="606.713" cy="581.102" r="4" fill="#0" id="circle98"/>
	<circle cx="622.079" cy="196.936" r="4" fill="#0" id="circle99"/>
	<circle cx="623.787" cy="572.565" r="4" fill="#0" id="circle100"/>
	<circle cx="632.324" cy="555.491" r="4" fill="#0" id="circle101"/>
	<circle cx="637.446" cy="188.399" r="4" fill="#0" id="circle102"/>
	<circle cx="640.861" cy="540.124" r="4" fill="#0" id="circle103"/>
	<circle cx="645.983" cy="203.766" r="4" fill="#0" id="circle104"/>
	<circle cx="656.227" cy="531.587" r="4" fill="#0" id="circle105"/>
	<circle cx="663.057" cy="202.059" r="4" fill="#0" id="circle106"/>
	<circle cx="663.057" cy="514.513" r="4" fill="#0" id="circle107"/>
	<circle cx="676.716" cy="502.561" r="4" fill="#0" id="circle108"/>
	<circle cx="680.131" cy="205.473" r="4" fill="#0" id="circle109"/>
	<circle cx="693.79" cy="494.024" r="4" fill="#0" id="circle110"/>
	<circle cx="697.205" cy="205.473" r="4" fill="#0" id="circle111"/>
	<circle cx="697.205" cy="471.828" r="4" fill="#0" id="circle112"/>
	<circle cx="705.742" cy="454.754" r="4" fill="#0" id="circle113"/>
	<circle cx="714.279" cy="202.059" r="4" fill="#0" id="circle114"/>
	<circle cx="714.279" cy="437.68" r="4" fill="#0" id="circle115"/>
	<circle cx="726.231" cy="188.399" r="4" fill="#0" id="circle116"/>
	<circle cx="731.353" cy="412.069" r="4" fill="#0" id="circle117"/>
	<circle cx="731.353" cy="429.143" r="4" fill="#0" id="circle118"/>
	<circle cx="734.768" cy="171.325" r="4" fill="#0" id="circle119"/>
	<circle cx="739.89" cy="377.921" r="4" fill="#0" id="circle120"/>
	<circle cx="739.89" cy="394.995" r="4" fill="#0" id="circle121"/>
	<circle cx="743.305" cy="154.251" r="4" fill="#0" id="circle122"/>
	<circle cx="746.719" cy="125.225" r="4" fill="#0" id="circle123"/>
	<circle cx="748.427" cy="343.773" r="4" fill="#0" id="circle124"/>
	<circle cx="748.427" cy="360.847" r="4" fill="#0" id="circle125"/>
	<circle cx="755.256" cy="99.6145" r="4" fill="#0" id="circle126"/>
	<circle cx="762.086" cy="331.821" r="4" fill="#0" id="circle127"/>
	<circle cx="763.793" cy="82.5404" r="4" fill="#0" id="circle128"/>
	<circle cx="765.501" cy="301.088" r="4" fill="#0" id="circle129"/>
	<circle cx="777.453" cy="68.8812" r="4" fill="#0" id="circle130"/>
	<circle cx="782.575" cy="292.551" r="4" fill="#0" id="circle131"/>
	<circle cx="785.99" cy="51.8072" r="4" fill="#0" id="circle132"/>
	<circle cx="794.527" cy="34.7332" r="4" fill="#0" id="circle133"/>
	<circle cx="797.941" cy="284.014" r="4" fill="#0" id="circle134"/>
	<circle cx="808.186" cy="21.074" r="4" fill="#0" id="circle135"/>
	<circle cx="815.015" cy="284.014" r="4" fill="#0" id="circle136"/>
	<circle cx="816.723" cy="4" r="4" fill="#0" id="circle137"/>
	<circle cx="830.382" cy="292.551" r="4" fill="#0" id="circle138"/>
	<circle cx="833.797" cy="4" r="4" fill="#0" id="circle139"/>
	<circle cx="842.334" cy="27.9036" r="4" fill="#0" id="circle140"/>
	<circle cx="842.334" cy="44.9776" r="4" fill="#0" id="circle141"/>
	<circle cx="842.334" cy="62.0516" r="4" fill="#0" id="circle142"/>
	<circle cx="842.334" cy="79.1256" r="4" fill="#0" id="circle143"/>
	<circle cx="847.456" cy="292.551" r="4" fill="#0" id="circle144"/>
	<circle cx="850.871" cy="5.7074" r="4" fill="#0" id="circle145"/>
	<circle cx="850.871" cy="94.4923" r="4" fill="#0" id="circle146"/>
	<circle cx="859.408" cy="109.859" r="4" fill="#0" id="circle147"/>
	<circle cx="862.823" cy="284.014" r="4" fill="#0" id="circle148"/>
	<circle cx="876.482" cy="116.688" r="4" fill="#0" id="circle149"/>
	<circle cx="878.189" cy="292.551" r="4" fill="#0" id="circle150"/>
	<circle cx="891.849" cy="125.225" r="4" fill="#0" id="circle151"/>
	<circle cx="895.263" cy="292.551" r="4" fill="#0" id="circle152"/>
	<circle cx="900.386" cy="140.592" r="4" fill="#0" id="circle153"/>
	<circle cx="907.215" cy="157.666" r="4" fill="#0" id="circle154"/>
	<circle cx="912.337" cy="297.673" r="4" fill="#0" id="circle155"/>
	<circle cx="919.167" cy="171.325" r="4" fill="#0" id="circle156"/>
	<circle cx="925.997" cy="287.429" r="4" fill="#0" id="circle157"/>
	<circle cx="927.704" cy="186.692" r="4" fill="#0" id="circle158"/>
	<circle cx="936.241" cy="202.059" r="4" fill="#0" id="circle159"/>
	<circle cx="943.071" cy="219.133" r="4" fill="#0" id="circle160"/>
	<circle cx="943.071" cy="292.551" r="4" fill="#0" id="circle161"/>
	<circle cx="953.315" cy="232.792" r="4" fill="#0" id="circle162"/>
	<circle cx="960.145" cy="287.429" r="4" fill="#0" id="circle163"/>
	<circle cx="961.852" cy="249.866" r="4" fill="#0" id="circle164"/>
	<circle cx="977.219" cy="287.429" r="4" fill="#0" id="circle165"/>
	<circle cx="978.926" cy="256.695" r="4" fill="#0" id="circle166"/>
	<circle cx="994.293" cy="278.892" r="4" fill="#0" id="circle167"/>
	<circle cx="996" cy="261.818" r="4" fill="#0" id="circle168"/>
	</g>
</svg>