<?xml version="1.0" encoding="UTF-8" standalone="no"?>
<!-- Created with CurveBenchmark -->
<svg
	xmlns:dc="http://purl.org/dc/elements/1.1/"
	xmlns:cc="http://creativecommons.org/ns#"
	xmlns:rdf="http://www.w3.org/1999/02/22-rdf-syntax-ns#"
	xmlns:svg="http://www.w3.org/2000/svg"
	xmlns="http://www.w3.org/2000/svg"
	xmlns:sodipodi="http://sodipodi.sourceforge.net/DTD/sodipodi-0.dtd"
	xmlns:inkscape="http://www.inkscape.org/namespaces/inkscape"
	width="1000"
	height="1000"
	id="svg2"
	version="1.1"
	sodipodi:docname="manifold/crawl-teddy145.png.txt">
<defs
	id="defs4" />
<metadata
	id="metadata7">
	<rdf:RDF>
		<cc:Work
			rdf:about="">
			<dc:format>image/svg+xml</dc:format>
			<dc:type
				rdf:resource="http://purl.org/dc/dcmitype/StillImage" />
			<dc:title></dc:title>
		</cc:Work>
	</rdf:RDF>
</metadata>
<g
	inkscape:label="Layer 1"
	inkscape:groupmode="layer"
	id="layer1">
	<path style="fill:none;stroke:red;stroke-width:1px;stroke-linecap:butt;stroke-linejoin:miter;stroke-opacity:1" d="M 54.8718,540.98 54.8718,512.718 z" id="boundary" inkscape:connector-curvature="0" />
	<path style="fill:none;stroke:red;stroke-width:1px;stroke-linecap:butt;stroke-linejoin:miter;stroke-opacity:1" d="M 54.8718,512.718 54.8718,484.456 z" id="boundary" inkscape:connector-curvature="0" />
	<path style="fill:none;stroke:red;stroke-width:1px;stroke-linecap:butt;stroke-linejoin:miter;stroke-opacity:1" d="M 54.8718,484.456 54.8718,456.194 z" id="boundary" inkscape:connector-curvature="0" />
	<path style="fill:none;stroke:red;stroke-width:1px;stroke-linecap:butt;stroke-linejoin:miter;stroke-opacity:1" d="M 54.8718,456.194 60.5242,416.627 z" id="boundary" inkscape:connector-curvature="0" />
	<path style="fill:none;stroke:red;stroke-width:1px;stroke-linecap:butt;stroke-linejoin:miter;stroke-opacity:1" d="M 60.5242,416.627 60.5242,377.06 z" id="boundary" inkscape:connector-curvature="0" />
	<path style="fill:none;stroke:red;stroke-width:1px;stroke-linecap:butt;stroke-linejoin:miter;stroke-opacity:1" d="M 60.5242,377.06 43.567,354.45 z" id="boundary" inkscape:connector-curvature="0" />
	<path style="fill:none;stroke:red;stroke-width:1px;stroke-linecap:butt;stroke-linejoin:miter;stroke-opacity:1" d="M 43.567,354.45 29.4359,329.014 z" id="boundary" inkscape:connector-curvature="0" />
	<path style="fill:none;stroke:red;stroke-width:1px;stroke-linecap:butt;stroke-linejoin:miter;stroke-opacity:1" d="M 29.4359,329.014 15.3048,303.578 z" id="boundary" inkscape:connector-curvature="0" />
	<path style="fill:none;stroke:red;stroke-width:1px;stroke-linecap:butt;stroke-linejoin:miter;stroke-opacity:1" d="M 15.3048,303.578 9.65242,275.316 z" id="boundary" inkscape:connector-curvature="0" />
	<path style="fill:none;stroke:red;stroke-width:1px;stroke-linecap:butt;stroke-linejoin:miter;stroke-opacity:1" d="M 9.65242,275.316 4,247.054 z" id="boundary" inkscape:connector-curvature="0" />
	<path style="fill:none;stroke:red;stroke-width:1px;stroke-linecap:butt;stroke-linejoin:miter;stroke-opacity:1" d="M 4,247.054 9.65242,213.14 z" id="boundary" inkscape:connector-curvature="0" />
	<path style="fill:none;stroke:red;stroke-width:1px;stroke-linecap:butt;stroke-linejoin:miter;stroke-opacity:1" d="M 9.65242,213.14 15.3048,179.225 z" id="boundary" inkscape:connector-curvature="0" />
	<path style="fill:none;stroke:red;stroke-width:1px;stroke-linecap:butt;stroke-linejoin:miter;stroke-opacity:1" d="M 15.3048,179.225 26.6097,150.963 z" id="boundary" inkscape:connector-curvature="0" />
	<path style="fill:none;stroke:red;stroke-width:1px;stroke-linecap:butt;stroke-linejoin:miter;stroke-opacity:1" d="M 26.6097,150.963 37.9145,122.701 z" id="boundary" inkscape:connector-curvature="0" />
	<path style="fill:none;stroke:red;stroke-width:1px;stroke-linecap:butt;stroke-linejoin:miter;stroke-opacity:1" d="M 37.9145,122.701 60.5242,100.091 z" id="boundary" inkscape:connector-curvature="0" />
	<path style="fill:none;stroke:red;stroke-width:1px;stroke-linecap:butt;stroke-linejoin:miter;stroke-opacity:1" d="M 60.5242,100.091 83.1339,83.1339 z" id="boundary" inkscape:connector-curvature="0" />
	<path style="fill:none;stroke:red;stroke-width:1px;stroke-linecap:butt;stroke-linejoin:miter;stroke-opacity:1" d="M 83.1339,83.1339 88.7863,43.567 z" id="boundary" inkscape:connector-curvature="0" />
	<path style="fill:none;stroke:red;stroke-width:1px;stroke-linecap:butt;stroke-linejoin:miter;stroke-opacity:1" d="M 88.7863,43.567 105.744,15.3048 z" id="boundary" inkscape:connector-curvature="0" />
	<path style="fill:none;stroke:red;stroke-width:1px;stroke-linecap:butt;stroke-linejoin:miter;stroke-opacity:1" d="M 105.744,15.3048 134.006,9.65242 z" id="boundary" inkscape:connector-curvature="0" />
	<path style="fill:none;stroke:red;stroke-width:1px;stroke-linecap:butt;stroke-linejoin:miter;stroke-opacity:1" d="M 134.006,9.65242 162.268,4 z" id="boundary" inkscape:connector-curvature="0" />
	<path style="fill:none;stroke:red;stroke-width:1px;stroke-linecap:butt;stroke-linejoin:miter;stroke-opacity:1" d="M 162.268,4 187.704,18.1311 z" id="boundary" inkscape:connector-curvature="0" />
	<path style="fill:none;stroke:red;stroke-width:1px;stroke-linecap:butt;stroke-linejoin:miter;stroke-opacity:1" d="M 187.704,18.1311 215.966,9.65242 z" id="boundary" inkscape:connector-curvature="0" />
	<path style="fill:none;stroke:red;stroke-width:1px;stroke-linecap:butt;stroke-linejoin:miter;stroke-opacity:1" d="M 215.966,9.65242 244.228,4 z" id="boundary" inkscape:connector-curvature="0" />
	<path style="fill:none;stroke:red;stroke-width:1px;stroke-linecap:butt;stroke-linejoin:miter;stroke-opacity:1" d="M 244.228,4 272.49,9.65242 z" id="boundary" inkscape:connector-curvature="0" />
	<path style="fill:none;stroke:red;stroke-width:1px;stroke-linecap:butt;stroke-linejoin:miter;stroke-opacity:1" d="M 272.49,9.65242 295.1,26.6097 z" id="boundary" inkscape:connector-curvature="0" />
	<path style="fill:none;stroke:red;stroke-width:1px;stroke-linecap:butt;stroke-linejoin:miter;stroke-opacity:1" d="M 295.1,26.6097 309.231,52.0456 z" id="boundary" inkscape:connector-curvature="0" />
	<path style="fill:none;stroke:red;stroke-width:1px;stroke-linecap:butt;stroke-linejoin:miter;stroke-opacity:1" d="M 309.231,52.0456 312.057,80.3077 z" id="boundary" inkscape:connector-curvature="0" />
	<path style="fill:none;stroke:red;stroke-width:1px;stroke-linecap:butt;stroke-linejoin:miter;stroke-opacity:1" d="M 312.057,80.3077 334.667,100.091 z" id="boundary" inkscape:connector-curvature="0" />
	<path style="fill:none;stroke:red;stroke-width:1px;stroke-linecap:butt;stroke-linejoin:miter;stroke-opacity:1" d="M 334.667,100.091 351.624,122.701 z" id="boundary" inkscape:connector-curvature="0" />
	<path style="fill:none;stroke:red;stroke-width:1px;stroke-linecap:butt;stroke-linejoin:miter;stroke-opacity:1" d="M 351.624,122.701 365.755,148.137 z" id="boundary" inkscape:connector-curvature="0" />
	<path style="fill:none;stroke:red;stroke-width:1px;stroke-linecap:butt;stroke-linejoin:miter;stroke-opacity:1" d="M 365.755,148.137 382.712,170.746 z" id="boundary" inkscape:connector-curvature="0" />
	<path style="fill:none;stroke:red;stroke-width:1px;stroke-linecap:butt;stroke-linejoin:miter;stroke-opacity:1" d="M 382.712,170.746 408.148,184.877 z" id="boundary" inkscape:connector-curvature="0" />
	<path style="fill:none;stroke:red;stroke-width:1px;stroke-linecap:butt;stroke-linejoin:miter;stroke-opacity:1" d="M 408.148,184.877 436.41,190.53 z" id="boundary" inkscape:connector-curvature="0" />
	<path style="fill:none;stroke:red;stroke-width:1px;stroke-linecap:butt;stroke-linejoin:miter;stroke-opacity:1" d="M 436.41,190.53 464.672,201.835 z" id="boundary" inkscape:connector-curvature="0" />
	<path style="fill:none;stroke:red;stroke-width:1px;stroke-linecap:butt;stroke-linejoin:miter;stroke-opacity:1" d="M 464.672,201.835 487.282,218.792 z" id="boundary" inkscape:connector-curvature="0" />
	<path style="fill:none;stroke:red;stroke-width:1px;stroke-linecap:butt;stroke-linejoin:miter;stroke-opacity:1" d="M 487.282,218.792 504.239,241.402 z" id="boundary" inkscape:connector-curvature="0" />
	<path style="fill:none;stroke:red;stroke-width:1px;stroke-linecap:butt;stroke-linejoin:miter;stroke-opacity:1" d="M 504.239,241.402 504.239,269.664 z" id="boundary" inkscape:connector-curvature="0" />
	<path style="fill:none;stroke:red;stroke-width:1px;stroke-linecap:butt;stroke-linejoin:miter;stroke-opacity:1" d="M 504.239,269.664 492.934,297.926 z" id="boundary" inkscape:connector-curvature="0" />
	<path style="fill:none;stroke:red;stroke-width:1px;stroke-linecap:butt;stroke-linejoin:miter;stroke-opacity:1" d="M 492.934,297.926 487.282,326.188 z" id="boundary" inkscape:connector-curvature="0" />
	<path style="fill:none;stroke:red;stroke-width:1px;stroke-linecap:butt;stroke-linejoin:miter;stroke-opacity:1" d="M 487.282,326.188 473.151,351.624 z" id="boundary" inkscape:connector-curvature="0" />
	<path style="fill:none;stroke:red;stroke-width:1px;stroke-linecap:butt;stroke-linejoin:miter;stroke-opacity:1" d="M 473.151,351.624 444.889,362.929 z" id="boundary" inkscape:connector-curvature="0" />
	<path style="fill:none;stroke:red;stroke-width:1px;stroke-linecap:butt;stroke-linejoin:miter;stroke-opacity:1" d="M 444.889,362.929 422.279,379.886 z" id="boundary" inkscape:connector-curvature="0" />
	<path style="fill:none;stroke:red;stroke-width:1px;stroke-linecap:butt;stroke-linejoin:miter;stroke-opacity:1" d="M 422.279,379.886 399.67,396.843 z" id="boundary" inkscape:connector-curvature="0" />
	<path style="fill:none;stroke:red;stroke-width:1px;stroke-linecap:butt;stroke-linejoin:miter;stroke-opacity:1" d="M 399.67,396.843 408.148,425.105 z" id="boundary" inkscape:connector-curvature="0" />
	<path style="fill:none;stroke:red;stroke-width:1px;stroke-linecap:butt;stroke-linejoin:miter;stroke-opacity:1" d="M 408.148,425.105 436.41,433.584 z" id="boundary" inkscape:connector-curvature="0" />
	<path style="fill:none;stroke:red;stroke-width:1px;stroke-linecap:butt;stroke-linejoin:miter;stroke-opacity:1" d="M 436.41,433.584 464.672,433.584 z" id="boundary" inkscape:connector-curvature="0" />
	<path style="fill:none;stroke:red;stroke-width:1px;stroke-linecap:butt;stroke-linejoin:miter;stroke-opacity:1" d="M 464.672,433.584 492.934,439.236 z" id="boundary" inkscape:connector-curvature="0" />
	<path style="fill:none;stroke:red;stroke-width:1px;stroke-linecap:butt;stroke-linejoin:miter;stroke-opacity:1" d="M 492.934,439.236 521.197,444.889 z" id="boundary" inkscape:connector-curvature="0" />
	<path style="fill:none;stroke:red;stroke-width:1px;stroke-linecap:butt;stroke-linejoin:miter;stroke-opacity:1" d="M 521.197,444.889 546.632,459.02 z" id="boundary" inkscape:connector-curvature="0" />
	<path style="fill:none;stroke:red;stroke-width:1px;stroke-linecap:butt;stroke-linejoin:miter;stroke-opacity:1" d="M 546.632,459.02 566.416,481.63 z" id="boundary" inkscape:connector-curvature="0" />
	<path style="fill:none;stroke:red;stroke-width:1px;stroke-linecap:butt;stroke-linejoin:miter;stroke-opacity:1" d="M 566.416,481.63 572.068,509.892 z" id="boundary" inkscape:connector-curvature="0" />
	<path style="fill:none;stroke:red;stroke-width:1px;stroke-linecap:butt;stroke-linejoin:miter;stroke-opacity:1" d="M 54.8718,540.98 54.8718,586.199 z" id="boundary" inkscape:connector-curvature="0" />
	<path style="fill:none;stroke:red;stroke-width:1px;stroke-linecap:butt;stroke-linejoin:miter;stroke-opacity:1" d="M 54.8718,586.199 54.8718,614.462 z" id="boundary" inkscape:connector-curvature="0" />
	<path style="fill:none;stroke:red;stroke-width:1px;stroke-linecap:butt;stroke-linejoin:miter;stroke-opacity:1" d="M 54.8718,614.462 54.8718,642.724 z" id="boundary" inkscape:connector-curvature="0" />
	<path style="fill:none;stroke:red;stroke-width:1px;stroke-linecap:butt;stroke-linejoin:miter;stroke-opacity:1" d="M 54.8718,642.724 54.8718,670.986 z" id="boundary" inkscape:connector-curvature="0" />
	<path style="fill:none;stroke:red;stroke-width:1px;stroke-linecap:butt;stroke-linejoin:miter;stroke-opacity:1" d="M 54.8718,670.986 54.8718,699.248 z" id="boundary" inkscape:connector-curvature="0" />
	<path style="fill:none;stroke:red;stroke-width:1px;stroke-linecap:butt;stroke-linejoin:miter;stroke-opacity:1" d="M 54.8718,699.248 54.8718,727.51 z" id="boundary" inkscape:connector-curvature="0" />
	<path style="fill:none;stroke:red;stroke-width:1px;stroke-linecap:butt;stroke-linejoin:miter;stroke-opacity:1" d="M 54.8718,727.51 54.8718,755.772 z" id="boundary" inkscape:connector-curvature="0" />
	<path style="fill:none;stroke:red;stroke-width:1px;stroke-linecap:butt;stroke-linejoin:miter;stroke-opacity:1" d="M 54.8718,755.772 54.8718,784.034 z" id="boundary" inkscape:connector-curvature="0" />
	<path style="fill:none;stroke:red;stroke-width:1px;stroke-linecap:butt;stroke-linejoin:miter;stroke-opacity:1" d="M 54.8718,784.034 66.1766,812.296 z" id="boundary" inkscape:connector-curvature="0" />
	<path style="fill:none;stroke:red;stroke-width:1px;stroke-linecap:butt;stroke-linejoin:miter;stroke-opacity:1" d="M 66.1766,812.296 66.1766,840.558 z" id="boundary" inkscape:connector-curvature="0" />
	<path style="fill:none;stroke:red;stroke-width:1px;stroke-linecap:butt;stroke-linejoin:miter;stroke-opacity:1" d="M 66.1766,840.558 66.1766,868.821 z" id="boundary" inkscape:connector-curvature="0" />
	<path style="fill:none;stroke:red;stroke-width:1px;stroke-linecap:butt;stroke-linejoin:miter;stroke-opacity:1" d="M 66.1766,868.821 71.8291,897.083 z" id="boundary" inkscape:connector-curvature="0" />
	<path style="fill:none;stroke:red;stroke-width:1px;stroke-linecap:butt;stroke-linejoin:miter;stroke-opacity:1" d="M 71.8291,897.083 77.4815,925.345 z" id="boundary" inkscape:connector-curvature="0" />
	<path style="fill:none;stroke:red;stroke-width:1px;stroke-linecap:butt;stroke-linejoin:miter;stroke-opacity:1" d="M 77.4815,925.345 83.1339,953.607 z" id="boundary" inkscape:connector-curvature="0" />
	<path style="fill:none;stroke:red;stroke-width:1px;stroke-linecap:butt;stroke-linejoin:miter;stroke-opacity:1" d="M 83.1339,953.607 100.091,976.217 z" id="boundary" inkscape:connector-curvature="0" />
	<path style="fill:none;stroke:red;stroke-width:1px;stroke-linecap:butt;stroke-linejoin:miter;stroke-opacity:1" d="M 100.091,976.217 128.353,987.521 z" id="boundary" inkscape:connector-curvature="0" />
	<path style="fill:none;stroke:red;stroke-width:1px;stroke-linecap:butt;stroke-linejoin:miter;stroke-opacity:1" d="M 128.353,987.521 156.615,996 z" id="boundary" inkscape:connector-curvature="0" />
	<path style="fill:none;stroke:red;stroke-width:1px;stroke-linecap:butt;stroke-linejoin:miter;stroke-opacity:1" d="M 156.615,996 184.877,996 z" id="boundary" inkscape:connector-curvature="0" />
	<path style="fill:none;stroke:red;stroke-width:1px;stroke-linecap:butt;stroke-linejoin:miter;stroke-opacity:1" d="M 184.877,996 213.14,990.348 z" id="boundary" inkscape:connector-curvature="0" />
	<path style="fill:none;stroke:red;stroke-width:1px;stroke-linecap:butt;stroke-linejoin:miter;stroke-opacity:1" d="M 213.14,990.348 241.402,990.348 z" id="boundary" inkscape:connector-curvature="0" />
	<path style="fill:none;stroke:red;stroke-width:1px;stroke-linecap:butt;stroke-linejoin:miter;stroke-opacity:1" d="M 241.402,990.348 269.664,984.695 z" id="boundary" inkscape:connector-curvature="0" />
	<path style="fill:none;stroke:red;stroke-width:1px;stroke-linecap:butt;stroke-linejoin:miter;stroke-opacity:1" d="M 269.664,984.695 297.926,984.695 z" id="boundary" inkscape:connector-curvature="0" />
	<path style="fill:none;stroke:red;stroke-width:1px;stroke-linecap:butt;stroke-linejoin:miter;stroke-opacity:1" d="M 297.926,984.695 326.188,987.521 z" id="boundary" inkscape:connector-curvature="0" />
	<path style="fill:none;stroke:red;stroke-width:1px;stroke-linecap:butt;stroke-linejoin:miter;stroke-opacity:1" d="M 326.188,987.521 354.45,996 z" id="boundary" inkscape:connector-curvature="0" />
	<path style="fill:none;stroke:red;stroke-width:1px;stroke-linecap:butt;stroke-linejoin:miter;stroke-opacity:1" d="M 354.45,996 382.712,996 z" id="boundary" inkscape:connector-curvature="0" />
	<path style="fill:none;stroke:red;stroke-width:1px;stroke-linecap:butt;stroke-linejoin:miter;stroke-opacity:1" d="M 382.712,996 410.974,996 z" id="boundary" inkscape:connector-curvature="0" />
	<path style="fill:none;stroke:red;stroke-width:1px;stroke-linecap:butt;stroke-linejoin:miter;stroke-opacity:1" d="M 410.974,996 439.236,996 z" id="boundary" inkscape:connector-curvature="0" />
	<path style="fill:none;stroke:red;stroke-width:1px;stroke-linecap:butt;stroke-linejoin:miter;stroke-opacity:1" d="M 439.236,996 464.672,981.869 z" id="boundary" inkscape:connector-curvature="0" />
	<path style="fill:none;stroke:red;stroke-width:1px;stroke-linecap:butt;stroke-linejoin:miter;stroke-opacity:1" d="M 464.672,981.869 492.934,984.695 z" id="boundary" inkscape:connector-curvature="0" />
	<path style="fill:none;stroke:red;stroke-width:1px;stroke-linecap:butt;stroke-linejoin:miter;stroke-opacity:1" d="M 492.934,984.695 521.197,996 z" id="boundary" inkscape:connector-curvature="0" />
	<path style="fill:none;stroke:red;stroke-width:1px;stroke-linecap:butt;stroke-linejoin:miter;stroke-opacity:1" d="M 521.197,996 549.459,996 z" id="boundary" inkscape:connector-curvature="0" />
	<path style="fill:none;stroke:red;stroke-width:1px;stroke-linecap:butt;stroke-linejoin:miter;stroke-opacity:1" d="M 549.459,996 577.721,993.174 z" id="boundary" inkscape:connector-curvature="0" />
	<path style="fill:none;stroke:red;stroke-width:1px;stroke-linecap:butt;stroke-linejoin:miter;stroke-opacity:1" d="M 577.721,993.174 605.983,981.869 z" id="boundary" inkscape:connector-curvature="0" />
	<path style="fill:none;stroke:red;stroke-width:1px;stroke-linecap:butt;stroke-linejoin:miter;stroke-opacity:1" d="M 605.983,981.869 631.419,967.738 z" id="boundary" inkscape:connector-curvature="0" />
	<path style="fill:none;stroke:red;stroke-width:1px;stroke-linecap:butt;stroke-linejoin:miter;stroke-opacity:1" d="M 631.419,967.738 642.724,939.476 z" id="boundary" inkscape:connector-curvature="0" />
	<path style="fill:none;stroke:red;stroke-width:1px;stroke-linecap:butt;stroke-linejoin:miter;stroke-opacity:1" d="M 642.724,939.476 651.202,902.735 z" id="boundary" inkscape:connector-curvature="0" />
	<path style="fill:none;stroke:red;stroke-width:1px;stroke-linecap:butt;stroke-linejoin:miter;stroke-opacity:1" d="M 651.202,902.735 651.202,874.473 z" id="boundary" inkscape:connector-curvature="0" />
	<path style="fill:none;stroke:red;stroke-width:1px;stroke-linecap:butt;stroke-linejoin:miter;stroke-opacity:1" d="M 651.202,874.473 656.855,823.601 z" id="boundary" inkscape:connector-curvature="0" />
	<path style="fill:none;stroke:red;stroke-width:1px;stroke-linecap:butt;stroke-linejoin:miter;stroke-opacity:1" d="M 656.855,823.601 651.202,795.339 z" id="boundary" inkscape:connector-curvature="0" />
	<path style="fill:none;stroke:red;stroke-width:1px;stroke-linecap:butt;stroke-linejoin:miter;stroke-opacity:1" d="M 651.202,795.339 648.376,767.077 z" id="boundary" inkscape:connector-curvature="0" />
	<path style="fill:none;stroke:red;stroke-width:1px;stroke-linecap:butt;stroke-linejoin:miter;stroke-opacity:1" d="M 648.376,767.077 639.897,738.815 z" id="boundary" inkscape:connector-curvature="0" />
	<path style="fill:none;stroke:red;stroke-width:1px;stroke-linecap:butt;stroke-linejoin:miter;stroke-opacity:1" d="M 639.897,738.815 611.635,727.51 z" id="boundary" inkscape:connector-curvature="0" />
	<path style="fill:none;stroke:red;stroke-width:1px;stroke-linecap:butt;stroke-linejoin:miter;stroke-opacity:1" d="M 611.635,727.51 583.373,727.51 z" id="boundary" inkscape:connector-curvature="0" />
	<path style="fill:none;stroke:red;stroke-width:1px;stroke-linecap:butt;stroke-linejoin:miter;stroke-opacity:1" d="M 583.373,727.51 555.111,727.51 z" id="boundary" inkscape:connector-curvature="0" />
	<path style="fill:none;stroke:red;stroke-width:1px;stroke-linecap:butt;stroke-linejoin:miter;stroke-opacity:1" d="M 555.111,727.51 526.849,733.162 z" id="boundary" inkscape:connector-curvature="0" />
	<path style="fill:none;stroke:red;stroke-width:1px;stroke-linecap:butt;stroke-linejoin:miter;stroke-opacity:1" d="M 526.849,733.162 504.239,716.205 z" id="boundary" inkscape:connector-curvature="0" />
	<path style="fill:none;stroke:red;stroke-width:1px;stroke-linecap:butt;stroke-linejoin:miter;stroke-opacity:1" d="M 504.239,716.205 498.587,687.943 z" id="boundary" inkscape:connector-curvature="0" />
	<path style="fill:none;stroke:red;stroke-width:1px;stroke-linecap:butt;stroke-linejoin:miter;stroke-opacity:1" d="M 498.587,687.943 504.239,659.681 z" id="boundary" inkscape:connector-curvature="0" />
	<path style="fill:none;stroke:red;stroke-width:1px;stroke-linecap:butt;stroke-linejoin:miter;stroke-opacity:1" d="M 504.239,659.681 498.587,631.419 z" id="boundary" inkscape:connector-curvature="0" />
	<path style="fill:none;stroke:red;stroke-width:1px;stroke-linecap:butt;stroke-linejoin:miter;stroke-opacity:1" d="M 498.587,631.419 521.197,614.462 z" id="boundary" inkscape:connector-curvature="0" />
	<path style="fill:none;stroke:red;stroke-width:1px;stroke-linecap:butt;stroke-linejoin:miter;stroke-opacity:1" d="M 521.197,614.462 543.806,597.504 z" id="boundary" inkscape:connector-curvature="0" />
	<path style="fill:none;stroke:red;stroke-width:1px;stroke-linecap:butt;stroke-linejoin:miter;stroke-opacity:1" d="M 543.806,597.504 560.764,563.59 z" id="boundary" inkscape:connector-curvature="0" />
	<path style="fill:none;stroke:red;stroke-width:1px;stroke-linecap:butt;stroke-linejoin:miter;stroke-opacity:1" d="M 560.764,563.59 572.068,509.892 z" id="boundary" inkscape:connector-curvature="0" />
	<circle cx="4" cy="247.054" r="4" fill="#0" id="circle0"/>
	<circle cx="9.65242" cy="213.14" r="4" fill="#0" id="circle1"/>
	<circle cx="9.65242" cy="275.316" r="4" fill="#0" id="circle2"/>
	<circle cx="15.3048" cy="179.225" r="4" fill="#0" id="circle3"/>
	<circle cx="15.3048" cy="303.578" r="4" fill="#0" id="circle4"/>
	<circle cx="26.6097" cy="150.963" r="4" fill="#0" id="circle5"/>
	<circle cx="29.4359" cy="329.014" r="4" fill="#0" id="circle6"/>
	<circle cx="37.9145" cy="122.701" r="4" fill="#0" id="circle7"/>
	<circle cx="43.567" cy="354.45" r="4" fill="#0" id="circle8"/>
	<circle cx="54.8718" cy="456.194" r="4" fill="#0" id="circle9"/>
	<circle cx="54.8718" cy="484.456" r="4" fill="#0" id="circle10"/>
	<circle cx="54.8718" cy="512.718" r="4" fill="#0" id="circle11"/>
	<circle cx="54.8718" cy="540.98" r="4" fill="#0" id="circle12"/>
	<circle cx="54.8718" cy="586.199" r="4" fill="#0" id="circle13"/>
	<circle cx="54.8718" cy="614.462" r="4" fill="#0" id="circle14"/>
	<circle cx="54.8718" cy="642.724" r="4" fill="#0" id="circle15"/>
	<circle cx="54.8718" cy="670.986" r="4" fill="#0" id="circle16"/>
	<circle cx="54.8718" cy="699.248" r="4" fill="#0" id="circle17"/>
	<circle cx="54.8718" cy="727.51" r="4" fill="#0" id="circle18"/>
	<circle cx="54.8718" cy="755.772" r="4" fill="#0" id="circle19"/>
	<circle cx="54.8718" cy="784.034" r="4" fill="#0" id="circle20"/>
	<circle cx="60.5242" cy="100.091" r="4" fill="#0" id="circle21"/>
	<circle cx="60.5242" cy="377.06" r="4" fill="#0" id="circle22"/>
	<circle cx="60.5242" cy="416.627" r="4" fill="#0" id="circle23"/>
	<circle cx="66.1766" cy="812.296" r="4" fill="#0" id="circle24"/>
	<circle cx="66.1766" cy="840.558" r="4" fill="#0" id="circle25"/>
	<circle cx="66.1766" cy="868.821" r="4" fill="#0" id="circle26"/>
	<circle cx="71.8291" cy="897.083" r="4" fill="#0" id="circle27"/>
	<circle cx="77.4815" cy="925.345" r="4" fill="#0" id="circle28"/>
	<circle cx="83.1339" cy="83.1339" r="4" fill="#0" id="circle29"/>
	<circle cx="83.1339" cy="953.607" r="4" fill="#0" id="circle30"/>
	<circle cx="88.7863" cy="43.567" r="4" fill="#0" id="circle31"/>
	<circle cx="100.091" cy="976.217" r="4" fill="#0" id="circle32"/>
	<circle cx="105.744" cy="15.3048" r="4" fill="#0" id="circle33"/>
	<circle cx="128.353" cy="987.521" r="4" fill="#0" id="circle34"/>
	<circle cx="134.006" cy="9.65242" r="4" fill="#0" id="circle35"/>
	<circle cx="156.615" cy="996" r="4" fill="#0" id="circle36"/>
	<circle cx="162.268" cy="4" r="4" fill="#0" id="circle37"/>
	<circle cx="184.877" cy="996" r="4" fill="#0" id="circle38"/>
	<circle cx="187.704" cy="18.1311" r="4" fill="#0" id="circle39"/>
	<circle cx="213.14" cy="990.348" r="4" fill="#0" id="circle40"/>
	<circle cx="215.966" cy="9.65242" r="4" fill="#0" id="circle41"/>
	<circle cx="241.402" cy="990.348" r="4" fill="#0" id="circle42"/>
	<circle cx="244.228" cy="4" r="4" fill="#0" id="circle43"/>
	<circle cx="269.664" cy="984.695" r="4" fill="#0" id="circle44"/>
	<circle cx="272.49" cy="9.65242" r="4" fill="#0" id="circle45"/>
	<circle cx="295.1" cy="26.6097" r="4" fill="#0" id="circle46"/>
	<circle cx="297.926" cy="984.695" r="4" fill="#0" id="circle47"/>
	<circle cx="309.231" cy="52.0456" r="4" fill="#0" id="circle48"/>
	<circle cx="312.057" cy="80.3077" r="4" fill="#0" id="circle49"/>
	<circle cx="326.188" cy="987.521" r="4" fill="#0" id="circle50"/>
	<circle cx="334.667" cy="100.091" r="4" fill="#0" id="circle51"/>
	<circle cx="351.624" cy="122.701" r="4" fill="#0" id="circle52"/>
	<circle cx="354.45" cy="996" r="4" fill="#0" id="circle53"/>
	<circle cx="365.755" cy="148.137" r="4" fill="#0" id="circle54"/>
	<circle cx="382.712" cy="170.746" r="4" fill="#0" id="circle55"/>
	<circle cx="382.712" cy="996" r="4" fill="#0" id="circle56"/>
	<circle cx="399.67" cy="396.843" r="4" fill="#0" id="circle57"/>
	<circle cx="408.148" cy="184.877" r="4" fill="#0" id="circle58"/>
	<circle cx="408.148" cy="425.105" r="4" fill="#0" id="circle59"/>
	<circle cx="410.974" cy="996" r="4" fill="#0" id="circle60"/>
	<circle cx="422.279" cy="379.886" r="4" fill="#0" id="circle61"/>
	<circle cx="436.41" cy="190.53" r="4" fill="#0" id="circle62"/>
	<circle cx="436.41" cy="433.584" r="4" fill="#0" id="circle63"/>
	<circle cx="439.236" cy="996" r="4" fill="#0" id="circle64"/>
	<circle cx="444.889" cy="362.929" r="4" fill="#0" id="circle65"/>
	<circle cx="464.672" cy="201.835" r="4" fill="#0" id="circle66"/>
	<circle cx="464.672" cy="433.584" r="4" fill="#0" id="circle67"/>
	<circle cx="464.672" cy="981.869" r="4" fill="#0" id="circle68"/>
	<circle cx="473.151" cy="351.624" r="4" fill="#0" id="circle69"/>
	<circle cx="487.282" cy="218.792" r="4" fill="#0" id="circle70"/>
	<circle cx="487.282" cy="326.188" r="4" fill="#0" id="circle71"/>
	<circle cx="492.934" cy="297.926" r="4" fill="#0" id="circle72"/>
	<circle cx="492.934" cy="439.236" r="4" fill="#0" id="circle73"/>
	<circle cx="492.934" cy="984.695" r="4" fill="#0" id="circle74"/>
	<circle cx="498.587" cy="631.419" r="4" fill="#0" id="circle75"/>
	<circle cx="498.587" cy="687.943" r="4" fill="#0" id="circle76"/>
	<circle cx="504.239" cy="241.402" r="4" fill="#0" id="circle77"/>
	<circle cx="504.239" cy="269.664" r="4" fill="#0" id="circle78"/>
	<circle cx="504.239" cy="659.681" r="4" fill="#0" id="circle79"/>
	<circle cx="504.239" cy="716.205" r="4" fill="#0" id="circle80"/>
	<circle cx="521.197" cy="444.889" r="4" fill="#0" id="circle81"/>
	<circle cx="521.197" cy="614.462" r="4" fill="#0" id="circle82"/>
	<circle cx="521.197" cy="996" r="4" fill="#0" id="circle83"/>
	<circle cx="526.849" cy="733.162" r="4" fill="#0" id="circle84"/>
	<circle cx="543.806" cy="597.504" r="4" fill="#0" id="circle85"/>
	<circle cx="546.632" cy="459.02" r="4" fill="#0" id="circle86"/>
	<circle cx="549.459" cy="996" r="4" fill="#0" id="circle87"/>
	<circle cx="555.111" cy="727.51" r="4" fill="#0" id="circle88"/>
	<circle cx="560.764" cy="563.59" r="4" fill="#0" id="circle89"/>
	<circle cx="566.416" cy="481.63" r="4" fill="#0" id="circle90"/>
	<circle cx="572.068" cy="509.892" r="4" fill="#0" id="circle91"/>
	<circle cx="577.721" cy="993.174" r="4" fill="#0" id="circle92"/>
	<circle cx="583.373" cy="727.51" r="4" fill="#0" id="circle93"/>
	<circle cx="605.983" cy="981.869" r="4" fill="#0" id="circle94"/>
	<circle cx="611.635" cy="727.51" r="4" fill="#0" id="circle95"/>
	<circle cx="631.419" cy="967.738" r="4" fill="#0" id="circle96"/>
	<circle cx="639.897" cy="738.815" r="4" fill="#0" id="circle97"/>
	<circle cx="642.724" cy="939.476" r="4" fill="#0" id="circle98"/>
	<circle cx="648.376" cy="767.077" r="4" fill="#0" id="circle99"/>
	<circle cx="651.202" cy="795.339" r="4" fill="#0" id="circle100"/>
	<circle cx="651.202" cy="874.473" r="4" fill="#0" id="circle101"/>
	<circle cx="651.202" cy="902.735" r="4" fill="#0" id="circle102"/>
	<circle cx="656.855" cy="823.601" r="4" fill="#0" id="circle103"/>
	</g>
</svg>