<?xml version="1.0" encoding="UTF-8" standalone="no"?>
<!-- Created with CurveBenchmark -->
<svg
	xmlns:dc="http://purl.org/dc/elements/1.1/"
	xmlns:cc="http://creativecommons.org/ns#"
	xmlns:rdf="http://www.w3.org/1999/02/22-rdf-syntax-ns#"
	xmlns:svg="http://www.w3.org/2000/svg"
	xmlns="http://www.w3.org/2000/svg"
	xmlns:sodipodi="http://sodipodi.sourceforge.net/DTD/sodipodi-0.dtd"
	xmlns:inkscape="http://www.inkscape.org/namespaces/inkscape"
	width="1000"
	height="1000"
	id="svg2"
	version="1.1"
	sodipodi:docname="manifold/crawl-hammer030.png.txt">
<defs
	id="defs4" />
<metadata
	id="metadata7">
	<rdf:RDF>
		<cc:Work
			rdf:about="">
			<dc:format>image/svg+xml</dc:format>
			<dc:type
				rdf:resource="http://purl.org/dc/dcmitype/StillImage" />
			<dc:title></dc:title>
		</cc:Work>
	</rdf:RDF>
</metadata>
<g
	inkscape:label="Layer 1"
	inkscape:groupmode="layer"
	id="layer1">
	<path style="fill:none;stroke:red;stroke-width:1px;stroke-linecap:butt;stroke-linejoin:miter;stroke-opacity:1" d="M 159.27,288.661 159.27,259.907 z" id="boundary" inkscape:connector-curvature="0" />
	<path style="fill:none;stroke:red;stroke-width:1px;stroke-linecap:butt;stroke-linejoin:miter;stroke-opacity:1" d="M 159.27,288.661 159.27,317.414 z" id="boundary" inkscape:connector-curvature="0" />
	<path style="fill:none;stroke:red;stroke-width:1px;stroke-linecap:butt;stroke-linejoin:miter;stroke-opacity:1" d="M 159.27,317.414 159.27,346.168 z" id="boundary" inkscape:connector-curvature="0" />
	<path style="fill:none;stroke:red;stroke-width:1px;stroke-linecap:butt;stroke-linejoin:miter;stroke-opacity:1" d="M 159.27,346.168 159.27,374.922 z" id="boundary" inkscape:connector-curvature="0" />
	<path style="fill:none;stroke:red;stroke-width:1px;stroke-linecap:butt;stroke-linejoin:miter;stroke-opacity:1" d="M 159.27,374.922 159.27,403.675 z" id="boundary" inkscape:connector-curvature="0" />
	<path style="fill:none;stroke:red;stroke-width:1px;stroke-linecap:butt;stroke-linejoin:miter;stroke-opacity:1" d="M 159.27,259.907 153.519,231.154 z" id="boundary" inkscape:connector-curvature="0" />
	<path style="fill:none;stroke:red;stroke-width:1px;stroke-linecap:butt;stroke-linejoin:miter;stroke-opacity:1" d="M 153.519,231.154 153.519,202.4 z" id="boundary" inkscape:connector-curvature="0" />
	<path style="fill:none;stroke:red;stroke-width:1px;stroke-linecap:butt;stroke-linejoin:miter;stroke-opacity:1" d="M 153.519,202.4 142.017,173.646 z" id="boundary" inkscape:connector-curvature="0" />
	<path style="fill:none;stroke:red;stroke-width:1px;stroke-linecap:butt;stroke-linejoin:miter;stroke-opacity:1" d="M 142.017,173.646 130.516,144.893 z" id="boundary" inkscape:connector-curvature="0" />
	<path style="fill:none;stroke:red;stroke-width:1px;stroke-linecap:butt;stroke-linejoin:miter;stroke-opacity:1" d="M 130.516,144.893 130.516,116.139 z" id="boundary" inkscape:connector-curvature="0" />
	<path style="fill:none;stroke:red;stroke-width:1px;stroke-linecap:butt;stroke-linejoin:miter;stroke-opacity:1" d="M 130.516,116.139 104.638,101.762 z" id="boundary" inkscape:connector-curvature="0" />
	<path style="fill:none;stroke:red;stroke-width:1px;stroke-linecap:butt;stroke-linejoin:miter;stroke-opacity:1" d="M 104.638,101.762 81.6348,124.765 z" id="boundary" inkscape:connector-curvature="0" />
	<path style="fill:none;stroke:red;stroke-width:1px;stroke-linecap:butt;stroke-linejoin:miter;stroke-opacity:1" d="M 81.6348,124.765 64.3826,153.519 z" id="boundary" inkscape:connector-curvature="0" />
	<path style="fill:none;stroke:red;stroke-width:1px;stroke-linecap:butt;stroke-linejoin:miter;stroke-opacity:1" d="M 64.3826,153.519 47.1304,179.397 z" id="boundary" inkscape:connector-curvature="0" />
	<path style="fill:none;stroke:red;stroke-width:1px;stroke-linecap:butt;stroke-linejoin:miter;stroke-opacity:1" d="M 47.1304,179.397 18.3768,179.397 z" id="boundary" inkscape:connector-curvature="0" />
	<path style="fill:none;stroke:red;stroke-width:1px;stroke-linecap:butt;stroke-linejoin:miter;stroke-opacity:1" d="M 18.3768,179.397 4,153.519 z" id="boundary" inkscape:connector-curvature="0" />
	<path style="fill:none;stroke:red;stroke-width:1px;stroke-linecap:butt;stroke-linejoin:miter;stroke-opacity:1" d="M 4,153.519 15.5014,119.014 z" id="boundary" inkscape:connector-curvature="0" />
	<path style="fill:none;stroke:red;stroke-width:1px;stroke-linecap:butt;stroke-linejoin:miter;stroke-opacity:1" d="M 15.5014,119.014 32.7536,90.2609 z" id="boundary" inkscape:connector-curvature="0" />
	<path style="fill:none;stroke:red;stroke-width:1px;stroke-linecap:butt;stroke-linejoin:miter;stroke-opacity:1" d="M 32.7536,90.2609 50.0058,67.258 z" id="boundary" inkscape:connector-curvature="0" />
	<path style="fill:none;stroke:red;stroke-width:1px;stroke-linecap:butt;stroke-linejoin:miter;stroke-opacity:1" d="M 50.0058,67.258 73.0087,44.2551 z" id="boundary" inkscape:connector-curvature="0" />
	<path style="fill:none;stroke:red;stroke-width:1px;stroke-linecap:butt;stroke-linejoin:miter;stroke-opacity:1" d="M 73.0087,44.2551 96.0116,21.2522 z" id="boundary" inkscape:connector-curvature="0" />
	<path style="fill:none;stroke:red;stroke-width:1px;stroke-linecap:butt;stroke-linejoin:miter;stroke-opacity:1" d="M 96.0116,21.2522 119.014,4 z" id="boundary" inkscape:connector-curvature="0" />
	<path style="fill:none;stroke:red;stroke-width:1px;stroke-linecap:butt;stroke-linejoin:miter;stroke-opacity:1" d="M 119.014,4 147.768,4 z" id="boundary" inkscape:connector-curvature="0" />
	<path style="fill:none;stroke:red;stroke-width:1px;stroke-linecap:butt;stroke-linejoin:miter;stroke-opacity:1" d="M 147.768,4 176.522,4 z" id="boundary" inkscape:connector-curvature="0" />
	<path style="fill:none;stroke:red;stroke-width:1px;stroke-linecap:butt;stroke-linejoin:miter;stroke-opacity:1" d="M 176.522,4 205.275,4 z" id="boundary" inkscape:connector-curvature="0" />
	<path style="fill:none;stroke:red;stroke-width:1px;stroke-linecap:butt;stroke-linejoin:miter;stroke-opacity:1" d="M 205.275,4 234.029,4 z" id="boundary" inkscape:connector-curvature="0" />
	<path style="fill:none;stroke:red;stroke-width:1px;stroke-linecap:butt;stroke-linejoin:miter;stroke-opacity:1" d="M 234.029,4 262.783,4 z" id="boundary" inkscape:connector-curvature="0" />
	<path style="fill:none;stroke:red;stroke-width:1px;stroke-linecap:butt;stroke-linejoin:miter;stroke-opacity:1" d="M 262.783,4 291.536,15.5014 z" id="boundary" inkscape:connector-curvature="0" />
	<path style="fill:none;stroke:red;stroke-width:1px;stroke-linecap:butt;stroke-linejoin:miter;stroke-opacity:1" d="M 291.536,15.5014 320.29,4 z" id="boundary" inkscape:connector-curvature="0" />
	<path style="fill:none;stroke:red;stroke-width:1px;stroke-linecap:butt;stroke-linejoin:miter;stroke-opacity:1" d="M 320.29,4 349.043,4 z" id="boundary" inkscape:connector-curvature="0" />
	<path style="fill:none;stroke:red;stroke-width:1px;stroke-linecap:butt;stroke-linejoin:miter;stroke-opacity:1" d="M 349.043,4 372.046,21.2522 z" id="boundary" inkscape:connector-curvature="0" />
	<path style="fill:none;stroke:red;stroke-width:1px;stroke-linecap:butt;stroke-linejoin:miter;stroke-opacity:1" d="M 159.27,403.675 147.768,441.055 z" id="boundary" inkscape:connector-curvature="0" />
	<path style="fill:none;stroke:red;stroke-width:1px;stroke-linecap:butt;stroke-linejoin:miter;stroke-opacity:1" d="M 147.768,441.055 136.267,469.809 z" id="boundary" inkscape:connector-curvature="0" />
	<path style="fill:none;stroke:red;stroke-width:1px;stroke-linecap:butt;stroke-linejoin:miter;stroke-opacity:1" d="M 136.267,469.809 130.516,504.313 z" id="boundary" inkscape:connector-curvature="0" />
	<path style="fill:none;stroke:red;stroke-width:1px;stroke-linecap:butt;stroke-linejoin:miter;stroke-opacity:1" d="M 130.516,504.313 130.516,533.067 z" id="boundary" inkscape:connector-curvature="0" />
	<path style="fill:none;stroke:red;stroke-width:1px;stroke-linecap:butt;stroke-linejoin:miter;stroke-opacity:1" d="M 130.516,533.067 130.516,561.82 z" id="boundary" inkscape:connector-curvature="0" />
	<path style="fill:none;stroke:red;stroke-width:1px;stroke-linecap:butt;stroke-linejoin:miter;stroke-opacity:1" d="M 130.516,561.82 130.516,590.574 z" id="boundary" inkscape:connector-curvature="0" />
	<path style="fill:none;stroke:red;stroke-width:1px;stroke-linecap:butt;stroke-linejoin:miter;stroke-opacity:1" d="M 130.516,590.574 130.516,619.328 z" id="boundary" inkscape:connector-curvature="0" />
	<path style="fill:none;stroke:red;stroke-width:1px;stroke-linecap:butt;stroke-linejoin:miter;stroke-opacity:1" d="M 130.516,619.328 130.516,648.081 z" id="boundary" inkscape:connector-curvature="0" />
	<path style="fill:none;stroke:red;stroke-width:1px;stroke-linecap:butt;stroke-linejoin:miter;stroke-opacity:1" d="M 130.516,648.081 130.516,676.835 z" id="boundary" inkscape:connector-curvature="0" />
	<path style="fill:none;stroke:red;stroke-width:1px;stroke-linecap:butt;stroke-linejoin:miter;stroke-opacity:1" d="M 130.516,676.835 130.516,705.588 z" id="boundary" inkscape:connector-curvature="0" />
	<path style="fill:none;stroke:red;stroke-width:1px;stroke-linecap:butt;stroke-linejoin:miter;stroke-opacity:1" d="M 130.516,705.588 130.516,734.342 z" id="boundary" inkscape:connector-curvature="0" />
	<path style="fill:none;stroke:red;stroke-width:1px;stroke-linecap:butt;stroke-linejoin:miter;stroke-opacity:1" d="M 130.516,734.342 130.516,763.096 z" id="boundary" inkscape:connector-curvature="0" />
	<path style="fill:none;stroke:red;stroke-width:1px;stroke-linecap:butt;stroke-linejoin:miter;stroke-opacity:1" d="M 130.516,763.096 130.516,791.849 z" id="boundary" inkscape:connector-curvature="0" />
	<path style="fill:none;stroke:red;stroke-width:1px;stroke-linecap:butt;stroke-linejoin:miter;stroke-opacity:1" d="M 130.516,791.849 130.516,820.603 z" id="boundary" inkscape:connector-curvature="0" />
	<path style="fill:none;stroke:red;stroke-width:1px;stroke-linecap:butt;stroke-linejoin:miter;stroke-opacity:1" d="M 130.516,820.603 130.516,849.357 z" id="boundary" inkscape:connector-curvature="0" />
	<path style="fill:none;stroke:red;stroke-width:1px;stroke-linecap:butt;stroke-linejoin:miter;stroke-opacity:1" d="M 130.516,849.357 130.516,878.11 z" id="boundary" inkscape:connector-curvature="0" />
	<path style="fill:none;stroke:red;stroke-width:1px;stroke-linecap:butt;stroke-linejoin:miter;stroke-opacity:1" d="M 130.516,878.11 124.765,912.614 z" id="boundary" inkscape:connector-curvature="0" />
	<path style="fill:none;stroke:red;stroke-width:1px;stroke-linecap:butt;stroke-linejoin:miter;stroke-opacity:1" d="M 124.765,912.614 124.765,941.368 z" id="boundary" inkscape:connector-curvature="0" />
	<path style="fill:none;stroke:red;stroke-width:1px;stroke-linecap:butt;stroke-linejoin:miter;stroke-opacity:1" d="M 372.046,21.2522 374.922,61.5072 z" id="boundary" inkscape:connector-curvature="0" />
	<path style="fill:none;stroke:red;stroke-width:1px;stroke-linecap:butt;stroke-linejoin:miter;stroke-opacity:1" d="M 374.922,61.5072 351.919,93.1362 z" id="boundary" inkscape:connector-curvature="0" />
	<path style="fill:none;stroke:red;stroke-width:1px;stroke-linecap:butt;stroke-linejoin:miter;stroke-opacity:1" d="M 351.919,93.1362 323.165,93.1362 z" id="boundary" inkscape:connector-curvature="0" />
	<path style="fill:none;stroke:red;stroke-width:1px;stroke-linecap:butt;stroke-linejoin:miter;stroke-opacity:1" d="M 323.165,93.1362 300.162,75.8841 z" id="boundary" inkscape:connector-curvature="0" />
	<path style="fill:none;stroke:red;stroke-width:1px;stroke-linecap:butt;stroke-linejoin:miter;stroke-opacity:1" d="M 300.162,75.8841 271.409,78.7594 z" id="boundary" inkscape:connector-curvature="0" />
	<path style="fill:none;stroke:red;stroke-width:1px;stroke-linecap:butt;stroke-linejoin:miter;stroke-opacity:1" d="M 271.409,78.7594 265.658,107.513 z" id="boundary" inkscape:connector-curvature="0" />
	<path style="fill:none;stroke:red;stroke-width:1px;stroke-linecap:butt;stroke-linejoin:miter;stroke-opacity:1" d="M 124.765,941.368 119.014,981.623 z" id="boundary" inkscape:connector-curvature="0" />
	<path style="fill:none;stroke:red;stroke-width:1px;stroke-linecap:butt;stroke-linejoin:miter;stroke-opacity:1" d="M 119.014,981.623 144.893,996 z" id="boundary" inkscape:connector-curvature="0" />
	<path style="fill:none;stroke:red;stroke-width:1px;stroke-linecap:butt;stroke-linejoin:miter;stroke-opacity:1" d="M 144.893,996 173.646,996 z" id="boundary" inkscape:connector-curvature="0" />
	<path style="fill:none;stroke:red;stroke-width:1px;stroke-linecap:butt;stroke-linejoin:miter;stroke-opacity:1" d="M 173.646,996 202.4,996 z" id="boundary" inkscape:connector-curvature="0" />
	<path style="fill:none;stroke:red;stroke-width:1px;stroke-linecap:butt;stroke-linejoin:miter;stroke-opacity:1" d="M 202.4,996 231.154,996 z" id="boundary" inkscape:connector-curvature="0" />
	<path style="fill:none;stroke:red;stroke-width:1px;stroke-linecap:butt;stroke-linejoin:miter;stroke-opacity:1" d="M 231.154,996 259.907,996 z" id="boundary" inkscape:connector-curvature="0" />
	<path style="fill:none;stroke:red;stroke-width:1px;stroke-linecap:butt;stroke-linejoin:miter;stroke-opacity:1" d="M 259.907,996 271.409,964.371 z" id="boundary" inkscape:connector-curvature="0" />
	<path style="fill:none;stroke:red;stroke-width:1px;stroke-linecap:butt;stroke-linejoin:miter;stroke-opacity:1" d="M 271.409,964.371 271.409,935.617 z" id="boundary" inkscape:connector-curvature="0" />
	<path style="fill:none;stroke:red;stroke-width:1px;stroke-linecap:butt;stroke-linejoin:miter;stroke-opacity:1" d="M 271.409,935.617 265.658,906.864 z" id="boundary" inkscape:connector-curvature="0" />
	<path style="fill:none;stroke:red;stroke-width:1px;stroke-linecap:butt;stroke-linejoin:miter;stroke-opacity:1" d="M 265.658,906.864 265.658,878.11 z" id="boundary" inkscape:connector-curvature="0" />
	<path style="fill:none;stroke:red;stroke-width:1px;stroke-linecap:butt;stroke-linejoin:miter;stroke-opacity:1" d="M 265.658,878.11 265.658,849.357 z" id="boundary" inkscape:connector-curvature="0" />
	<path style="fill:none;stroke:red;stroke-width:1px;stroke-linecap:butt;stroke-linejoin:miter;stroke-opacity:1" d="M 265.658,849.357 265.658,820.603 z" id="boundary" inkscape:connector-curvature="0" />
	<path style="fill:none;stroke:red;stroke-width:1px;stroke-linecap:butt;stroke-linejoin:miter;stroke-opacity:1" d="M 265.658,820.603 265.658,791.849 z" id="boundary" inkscape:connector-curvature="0" />
	<path style="fill:none;stroke:red;stroke-width:1px;stroke-linecap:butt;stroke-linejoin:miter;stroke-opacity:1" d="M 265.658,791.849 265.658,763.096 z" id="boundary" inkscape:connector-curvature="0" />
	<path style="fill:none;stroke:red;stroke-width:1px;stroke-linecap:butt;stroke-linejoin:miter;stroke-opacity:1" d="M 265.658,763.096 265.658,734.342 z" id="boundary" inkscape:connector-curvature="0" />
	<path style="fill:none;stroke:red;stroke-width:1px;stroke-linecap:butt;stroke-linejoin:miter;stroke-opacity:1" d="M 265.658,734.342 265.658,705.588 z" id="boundary" inkscape:connector-curvature="0" />
	<path style="fill:none;stroke:red;stroke-width:1px;stroke-linecap:butt;stroke-linejoin:miter;stroke-opacity:1" d="M 265.658,705.588 265.658,676.835 z" id="boundary" inkscape:connector-curvature="0" />
	<path style="fill:none;stroke:red;stroke-width:1px;stroke-linecap:butt;stroke-linejoin:miter;stroke-opacity:1" d="M 265.658,676.835 265.658,648.081 z" id="boundary" inkscape:connector-curvature="0" />
	<path style="fill:none;stroke:red;stroke-width:1px;stroke-linecap:butt;stroke-linejoin:miter;stroke-opacity:1" d="M 265.658,648.081 265.658,619.328 z" id="boundary" inkscape:connector-curvature="0" />
	<path style="fill:none;stroke:red;stroke-width:1px;stroke-linecap:butt;stroke-linejoin:miter;stroke-opacity:1" d="M 265.658,619.328 265.658,590.574 z" id="boundary" inkscape:connector-curvature="0" />
	<path style="fill:none;stroke:red;stroke-width:1px;stroke-linecap:butt;stroke-linejoin:miter;stroke-opacity:1" d="M 265.658,590.574 265.658,561.82 z" id="boundary" inkscape:connector-curvature="0" />
	<path style="fill:none;stroke:red;stroke-width:1px;stroke-linecap:butt;stroke-linejoin:miter;stroke-opacity:1" d="M 265.658,561.82 265.658,533.067 z" id="boundary" inkscape:connector-curvature="0" />
	<path style="fill:none;stroke:red;stroke-width:1px;stroke-linecap:butt;stroke-linejoin:miter;stroke-opacity:1" d="M 265.658,533.067 265.658,504.313 z" id="boundary" inkscape:connector-curvature="0" />
	<path style="fill:none;stroke:red;stroke-width:1px;stroke-linecap:butt;stroke-linejoin:miter;stroke-opacity:1" d="M 265.658,504.313 259.907,475.559 z" id="boundary" inkscape:connector-curvature="0" />
	<path style="fill:none;stroke:red;stroke-width:1px;stroke-linecap:butt;stroke-linejoin:miter;stroke-opacity:1" d="M 259.907,475.559 248.406,446.806 z" id="boundary" inkscape:connector-curvature="0" />
	<path style="fill:none;stroke:red;stroke-width:1px;stroke-linecap:butt;stroke-linejoin:miter;stroke-opacity:1" d="M 248.406,446.806 236.904,418.052 z" id="boundary" inkscape:connector-curvature="0" />
	<path style="fill:none;stroke:red;stroke-width:1px;stroke-linecap:butt;stroke-linejoin:miter;stroke-opacity:1" d="M 236.904,418.052 236.904,389.299 z" id="boundary" inkscape:connector-curvature="0" />
	<path style="fill:none;stroke:red;stroke-width:1px;stroke-linecap:butt;stroke-linejoin:miter;stroke-opacity:1" d="M 236.904,389.299 236.904,360.545 z" id="boundary" inkscape:connector-curvature="0" />
	<path style="fill:none;stroke:red;stroke-width:1px;stroke-linecap:butt;stroke-linejoin:miter;stroke-opacity:1" d="M 236.904,360.545 236.904,331.791 z" id="boundary" inkscape:connector-curvature="0" />
	<path style="fill:none;stroke:red;stroke-width:1px;stroke-linecap:butt;stroke-linejoin:miter;stroke-opacity:1" d="M 236.904,331.791 236.904,303.038 z" id="boundary" inkscape:connector-curvature="0" />
	<path style="fill:none;stroke:red;stroke-width:1px;stroke-linecap:butt;stroke-linejoin:miter;stroke-opacity:1" d="M 236.904,303.038 236.904,274.284 z" id="boundary" inkscape:connector-curvature="0" />
	<path style="fill:none;stroke:red;stroke-width:1px;stroke-linecap:butt;stroke-linejoin:miter;stroke-opacity:1" d="M 236.904,274.284 236.904,245.53 z" id="boundary" inkscape:connector-curvature="0" />
	<path style="fill:none;stroke:red;stroke-width:1px;stroke-linecap:butt;stroke-linejoin:miter;stroke-opacity:1" d="M 236.904,245.53 242.655,199.525 z" id="boundary" inkscape:connector-curvature="0" />
	<path style="fill:none;stroke:red;stroke-width:1px;stroke-linecap:butt;stroke-linejoin:miter;stroke-opacity:1" d="M 242.655,199.525 254.157,159.27 z" id="boundary" inkscape:connector-curvature="0" />
	<path style="fill:none;stroke:red;stroke-width:1px;stroke-linecap:butt;stroke-linejoin:miter;stroke-opacity:1" d="M 254.157,159.27 265.658,107.513 z" id="boundary" inkscape:connector-curvature="0" />
	<circle cx="4" cy="153.519" r="4" fill="#0" id="circle0"/>
	<circle cx="15.5014" cy="119.014" r="4" fill="#0" id="circle1"/>
	<circle cx="18.3768" cy="179.397" r="4" fill="#0" id="circle2"/>
	<circle cx="32.7536" cy="90.2609" r="4" fill="#0" id="circle3"/>
	<circle cx="47.1304" cy="179.397" r="4" fill="#0" id="circle4"/>
	<circle cx="50.0058" cy="67.258" r="4" fill="#0" id="circle5"/>
	<circle cx="64.3826" cy="153.519" r="4" fill="#0" id="circle6"/>
	<circle cx="73.0087" cy="44.2551" r="4" fill="#0" id="circle7"/>
	<circle cx="81.6348" cy="124.765" r="4" fill="#0" id="circle8"/>
	<circle cx="96.0116" cy="21.2522" r="4" fill="#0" id="circle9"/>
	<circle cx="104.638" cy="101.762" r="4" fill="#0" id="circle10"/>
	<circle cx="119.014" cy="4" r="4" fill="#0" id="circle11"/>
	<circle cx="119.014" cy="981.623" r="4" fill="#0" id="circle12"/>
	<circle cx="124.765" cy="912.614" r="4" fill="#0" id="circle13"/>
	<circle cx="124.765" cy="941.368" r="4" fill="#0" id="circle14"/>
	<circle cx="130.516" cy="116.139" r="4" fill="#0" id="circle15"/>
	<circle cx="130.516" cy="144.893" r="4" fill="#0" id="circle16"/>
	<circle cx="130.516" cy="504.313" r="4" fill="#0" id="circle17"/>
	<circle cx="130.516" cy="533.067" r="4" fill="#0" id="circle18"/>
	<circle cx="130.516" cy="561.82" r="4" fill="#0" id="circle19"/>
	<circle cx="130.516" cy="590.574" r="4" fill="#0" id="circle20"/>
	<circle cx="130.516" cy="619.328" r="4" fill="#0" id="circle21"/>
	<circle cx="130.516" cy="648.081" r="4" fill="#0" id="circle22"/>
	<circle cx="130.516" cy="676.835" r="4" fill="#0" id="circle23"/>
	<circle cx="130.516" cy="705.588" r="4" fill="#0" id="circle24"/>
	<circle cx="130.516" cy="734.342" r="4" fill="#0" id="circle25"/>
	<circle cx="130.516" cy="763.096" r="4" fill="#0" id="circle26"/>
	<circle cx="130.516" cy="791.849" r="4" fill="#0" id="circle27"/>
	<circle cx="130.516" cy="820.603" r="4" fill="#0" id="circle28"/>
	<circle cx="130.516" cy="849.357" r="4" fill="#0" id="circle29"/>
	<circle cx="130.516" cy="878.11" r="4" fill="#0" id="circle30"/>
	<circle cx="136.267" cy="469.809" r="4" fill="#0" id="circle31"/>
	<circle cx="142.017" cy="173.646" r="4" fill="#0" id="circle32"/>
	<circle cx="144.893" cy="996" r="4" fill="#0" id="circle33"/>
	<circle cx="147.768" cy="4" r="4" fill="#0" id="circle34"/>
	<circle cx="147.768" cy="441.055" r="4" fill="#0" id="circle35"/>
	<circle cx="153.519" cy="202.4" r="4" fill="#0" id="circle36"/>
	<circle cx="153.519" cy="231.154" r="4" fill="#0" id="circle37"/>
	<circle cx="159.27" cy="259.907" r="4" fill="#0" id="circle38"/>
	<circle cx="159.27" cy="288.661" r="4" fill="#0" id="circle39"/>
	<circle cx="159.27" cy="317.414" r="4" fill="#0" id="circle40"/>
	<circle cx="159.27" cy="346.168" r="4" fill="#0" id="circle41"/>
	<circle cx="159.27" cy="374.922" r="4" fill="#0" id="circle42"/>
	<circle cx="159.27" cy="403.675" r="4" fill="#0" id="circle43"/>
	<circle cx="173.646" cy="996" r="4" fill="#0" id="circle44"/>
	<circle cx="176.522" cy="4" r="4" fill="#0" id="circle45"/>
	<circle cx="202.4" cy="996" r="4" fill="#0" id="circle46"/>
	<circle cx="205.275" cy="4" r="4" fill="#0" id="circle47"/>
	<circle cx="231.154" cy="996" r="4" fill="#0" id="circle48"/>
	<circle cx="234.029" cy="4" r="4" fill="#0" id="circle49"/>
	<circle cx="236.904" cy="245.53" r="4" fill="#0" id="circle50"/>
	<circle cx="236.904" cy="274.284" r="4" fill="#0" id="circle51"/>
	<circle cx="236.904" cy="303.038" r="4" fill="#0" id="circle52"/>
	<circle cx="236.904" cy="331.791" r="4" fill="#0" id="circle53"/>
	<circle cx="236.904" cy="360.545" r="4" fill="#0" id="circle54"/>
	<circle cx="236.904" cy="389.299" r="4" fill="#0" id="circle55"/>
	<circle cx="236.904" cy="418.052" r="4" fill="#0" id="circle56"/>
	<circle cx="242.655" cy="199.525" r="4" fill="#0" id="circle57"/>
	<circle cx="248.406" cy="446.806" r="4" fill="#0" id="circle58"/>
	<circle cx="254.157" cy="159.27" r="4" fill="#0" id="circle59"/>
	<circle cx="259.907" cy="475.559" r="4" fill="#0" id="circle60"/>
	<circle cx="259.907" cy="996" r="4" fill="#0" id="circle61"/>
	<circle cx="262.783" cy="4" r="4" fill="#0" id="circle62"/>
	<circle cx="265.658" cy="107.513" r="4" fill="#0" id="circle63"/>
	<circle cx="265.658" cy="504.313" r="4" fill="#0" id="circle64"/>
	<circle cx="265.658" cy="533.067" r="4" fill="#0" id="circle65"/>
	<circle cx="265.658" cy="561.82" r="4" fill="#0" id="circle66"/>
	<circle cx="265.658" cy="590.574" r="4" fill="#0" id="circle67"/>
	<circle cx="265.658" cy="619.328" r="4" fill="#0" id="circle68"/>
	<circle cx="265.658" cy="648.081" r="4" fill="#0" id="circle69"/>
	<circle cx="265.658" cy="676.835" r="4" fill="#0" id="circle70"/>
	<circle cx="265.658" cy="705.588" r="4" fill="#0" id="circle71"/>
	<circle cx="265.658" cy="734.342" r="4" fill="#0" id="circle72"/>
	<circle cx="265.658" cy="763.096" r="4" fill="#0" id="circle73"/>
	<circle cx="265.658" cy="791.849" r="4" fill="#0" id="circle74"/>
	<circle cx="265.658" cy="820.603" r="4" fill="#0" id="circle75"/>
	<circle cx="265.658" cy="849.357" r="4" fill="#0" id="circle76"/>
	<circle cx="265.658" cy="878.11" r="4" fill="#0" id="circle77"/>
	<circle cx="265.658" cy="906.864" r="4" fill="#0" id="circle78"/>
	<circle cx="271.409" cy="78.7594" r="4" fill="#0" id="circle79"/>
	<circle cx="271.409" cy="935.617" r="4" fill="#0" id="circle80"/>
	<circle cx="271.409" cy="964.371" r="4" fill="#0" id="circle81"/>
	<circle cx="291.536" cy="15.5014" r="4" fill="#0" id="circle82"/>
	<circle cx="300.162" cy="75.8841" r="4" fill="#0" id="circle83"/>
	<circle cx="320.29" cy="4" r="4" fill="#0" id="circle84"/>
	<circle cx="323.165" cy="93.1362" r="4" fill="#0" id="circle85"/>
	<circle cx="349.043" cy="4" r="4" fill="#0" id="circle86"/>
	<circle cx="351.919" cy="93.1362" r="4" fill="#0" id="circle87"/>
	<circle cx="372.046" cy="21.2522" r="4" fill="#0" id="circle88"/>
	<circle cx="374.922" cy="61.5072" r="4" fill="#0" id="circle89"/>
	</g>
</svg>