<?xml version="1.0" encoding="UTF-8" standalone="no"?>
<!-- Created with CurveBenchmark -->
<svg
	xmlns:dc="http://purl.org/dc/elements/1.1/"
	xmlns:cc="http://creativecommons.org/ns#"
	xmlns:rdf="http://www.w3.org/1999/02/22-rdf-syntax-ns#"
	xmlns:svg="http://www.w3.org/2000/svg"
	xmlns="http://www.w3.org/2000/svg"
	xmlns:sodipodi="http://sodipodi.sourceforge.net/DTD/sodipodi-0.dtd"
	xmlns:inkscape="http://www.inkscape.org/namespaces/inkscape"
	width="1000"
	height="1000"
	id="svg2"
	version="1.1"
	sodipodi:docname="manifold/crawl-mgen1ap.png.txt">
<defs
	id="defs4" />
<metadata
	id="metadata7">
	<rdf:RDF>
		<cc:Work
			rdf:about="">
			<dc:format>image/svg+xml</dc:format>
			<dc:type
				rdf:resource="http://purl.org/dc/dcmitype/StillImage" />
			<dc:title></dc:title>
		</cc:Work>
	</rdf:RDF>
</metadata>
<g
	inkscape:label="Layer 1"
	inkscape:groupmode="layer"
	id="layer1">
	<path style="fill:none;stroke:red;stroke-width:1px;stroke-linecap:butt;stroke-linejoin:miter;stroke-opacity:1" d="M 37.6985,75.6093 25.0616,58.7601 z" id="boundary" inkscape:connector-curvature="0" />
	<path style="fill:none;stroke:red;stroke-width:1px;stroke-linecap:butt;stroke-linejoin:miter;stroke-opacity:1" d="M 25.0616,58.7601 14.5308,39.8047 z" id="boundary" inkscape:connector-curvature="0" />
	<path style="fill:none;stroke:red;stroke-width:1px;stroke-linecap:butt;stroke-linejoin:miter;stroke-opacity:1" d="M 14.5308,39.8047 4,20.8493 z" id="boundary" inkscape:connector-curvature="0" />
	<path style="fill:none;stroke:red;stroke-width:1px;stroke-linecap:butt;stroke-linejoin:miter;stroke-opacity:1" d="M 37.6985,75.6093 58.7601,84.034 z" id="boundary" inkscape:connector-curvature="0" />
	<path style="fill:none;stroke:red;stroke-width:1px;stroke-linecap:butt;stroke-linejoin:miter;stroke-opacity:1" d="M 58.7601,84.034 73.5032,100.883 z" id="boundary" inkscape:connector-curvature="0" />
	<path style="fill:none;stroke:red;stroke-width:1px;stroke-linecap:butt;stroke-linejoin:miter;stroke-opacity:1" d="M 73.5032,100.883 90.3524,115.626 z" id="boundary" inkscape:connector-curvature="0" />
	<path style="fill:none;stroke:red;stroke-width:1px;stroke-linecap:butt;stroke-linejoin:miter;stroke-opacity:1" d="M 90.3524,115.626 105.096,132.476 z" id="boundary" inkscape:connector-curvature="0" />
	<path style="fill:none;stroke:red;stroke-width:1px;stroke-linecap:butt;stroke-linejoin:miter;stroke-opacity:1" d="M 105.096,132.476 121.945,147.219 z" id="boundary" inkscape:connector-curvature="0" />
	<path style="fill:none;stroke:red;stroke-width:1px;stroke-linecap:butt;stroke-linejoin:miter;stroke-opacity:1" d="M 121.945,147.219 136.688,164.068 z" id="boundary" inkscape:connector-curvature="0" />
	<path style="fill:none;stroke:red;stroke-width:1px;stroke-linecap:butt;stroke-linejoin:miter;stroke-opacity:1" d="M 4,20.8493 20.8493,4 z" id="boundary" inkscape:connector-curvature="0" />
	<path style="fill:none;stroke:red;stroke-width:1px;stroke-linecap:butt;stroke-linejoin:miter;stroke-opacity:1" d="M 20.8493,4 39.8047,14.5308 z" id="boundary" inkscape:connector-curvature="0" />
	<path style="fill:none;stroke:red;stroke-width:1px;stroke-linecap:butt;stroke-linejoin:miter;stroke-opacity:1" d="M 39.8047,14.5308 58.7601,25.0616 z" id="boundary" inkscape:connector-curvature="0" />
	<path style="fill:none;stroke:red;stroke-width:1px;stroke-linecap:butt;stroke-linejoin:miter;stroke-opacity:1" d="M 58.7601,25.0616 77.7155,35.5924 z" id="boundary" inkscape:connector-curvature="0" />
	<path style="fill:none;stroke:red;stroke-width:1px;stroke-linecap:butt;stroke-linejoin:miter;stroke-opacity:1" d="M 77.7155,35.5924 98.7771,39.8047 z" id="boundary" inkscape:connector-curvature="0" />
	<path style="fill:none;stroke:red;stroke-width:1px;stroke-linecap:butt;stroke-linejoin:miter;stroke-opacity:1" d="M 98.7771,39.8047 117.732,50.3355 z" id="boundary" inkscape:connector-curvature="0" />
	<path style="fill:none;stroke:red;stroke-width:1px;stroke-linecap:butt;stroke-linejoin:miter;stroke-opacity:1" d="M 117.732,50.3355 138.794,56.6539 z" id="boundary" inkscape:connector-curvature="0" />
	<path style="fill:none;stroke:red;stroke-width:1px;stroke-linecap:butt;stroke-linejoin:miter;stroke-opacity:1" d="M 138.794,56.6539 159.856,56.6539 z" id="boundary" inkscape:connector-curvature="0" />
	<path style="fill:none;stroke:red;stroke-width:1px;stroke-linecap:butt;stroke-linejoin:miter;stroke-opacity:1" d="M 159.856,56.6539 178.811,67.1847 z" id="boundary" inkscape:connector-curvature="0" />
	<path style="fill:none;stroke:red;stroke-width:1px;stroke-linecap:butt;stroke-linejoin:miter;stroke-opacity:1" d="M 178.811,67.1847 199.873,67.1847 z" id="boundary" inkscape:connector-curvature="0" />
	<path style="fill:none;stroke:red;stroke-width:1px;stroke-linecap:butt;stroke-linejoin:miter;stroke-opacity:1" d="M 199.873,67.1847 220.934,67.1847 z" id="boundary" inkscape:connector-curvature="0" />
	<path style="fill:none;stroke:red;stroke-width:1px;stroke-linecap:butt;stroke-linejoin:miter;stroke-opacity:1" d="M 220.934,67.1847 241.996,67.1847 z" id="boundary" inkscape:connector-curvature="0" />
	<path style="fill:none;stroke:red;stroke-width:1px;stroke-linecap:butt;stroke-linejoin:miter;stroke-opacity:1" d="M 241.996,67.1847 263.057,56.6539 z" id="boundary" inkscape:connector-curvature="0" />
	<path style="fill:none;stroke:red;stroke-width:1px;stroke-linecap:butt;stroke-linejoin:miter;stroke-opacity:1" d="M 263.057,56.6539 284.119,46.1231 z" id="boundary" inkscape:connector-curvature="0" />
	<path style="fill:none;stroke:red;stroke-width:1px;stroke-linecap:butt;stroke-linejoin:miter;stroke-opacity:1" d="M 284.119,46.1231 305.18,46.1231 z" id="boundary" inkscape:connector-curvature="0" />
	<path style="fill:none;stroke:red;stroke-width:1px;stroke-linecap:butt;stroke-linejoin:miter;stroke-opacity:1" d="M 305.18,46.1231 324.136,35.5924 z" id="boundary" inkscape:connector-curvature="0" />
	<path style="fill:none;stroke:red;stroke-width:1px;stroke-linecap:butt;stroke-linejoin:miter;stroke-opacity:1" d="M 324.136,35.5924 343.091,25.0616 z" id="boundary" inkscape:connector-curvature="0" />
	<path style="fill:none;stroke:red;stroke-width:1px;stroke-linecap:butt;stroke-linejoin:miter;stroke-opacity:1" d="M 343.091,25.0616 364.153,20.8493 z" id="boundary" inkscape:connector-curvature="0" />
	<path style="fill:none;stroke:red;stroke-width:1px;stroke-linecap:butt;stroke-linejoin:miter;stroke-opacity:1" d="M 364.153,20.8493 385.214,14.5308 z" id="boundary" inkscape:connector-curvature="0" />
	<path style="fill:none;stroke:red;stroke-width:1px;stroke-linecap:butt;stroke-linejoin:miter;stroke-opacity:1" d="M 385.214,14.5308 406.276,14.5308 z" id="boundary" inkscape:connector-curvature="0" />
	<path style="fill:none;stroke:red;stroke-width:1px;stroke-linecap:butt;stroke-linejoin:miter;stroke-opacity:1" d="M 406.276,14.5308 427.338,8.21231 z" id="boundary" inkscape:connector-curvature="0" />
	<path style="fill:none;stroke:red;stroke-width:1px;stroke-linecap:butt;stroke-linejoin:miter;stroke-opacity:1" d="M 427.338,8.21231 448.399,14.5308 z" id="boundary" inkscape:connector-curvature="0" />
	<path style="fill:none;stroke:red;stroke-width:1px;stroke-linecap:butt;stroke-linejoin:miter;stroke-opacity:1" d="M 448.399,14.5308 469.461,10.3185 z" id="boundary" inkscape:connector-curvature="0" />
	<path style="fill:none;stroke:red;stroke-width:1px;stroke-linecap:butt;stroke-linejoin:miter;stroke-opacity:1" d="M 469.461,10.3185 490.522,10.3185 z" id="boundary" inkscape:connector-curvature="0" />
	<path style="fill:none;stroke:red;stroke-width:1px;stroke-linecap:butt;stroke-linejoin:miter;stroke-opacity:1" d="M 490.522,10.3185 511.584,10.3185 z" id="boundary" inkscape:connector-curvature="0" />
	<path style="fill:none;stroke:red;stroke-width:1px;stroke-linecap:butt;stroke-linejoin:miter;stroke-opacity:1" d="M 511.584,10.3185 532.645,14.5308 z" id="boundary" inkscape:connector-curvature="0" />
	<path style="fill:none;stroke:red;stroke-width:1px;stroke-linecap:butt;stroke-linejoin:miter;stroke-opacity:1" d="M 532.645,14.5308 553.707,20.8493 z" id="boundary" inkscape:connector-curvature="0" />
	<path style="fill:none;stroke:red;stroke-width:1px;stroke-linecap:butt;stroke-linejoin:miter;stroke-opacity:1" d="M 553.707,20.8493 574.769,25.0616 z" id="boundary" inkscape:connector-curvature="0" />
	<path style="fill:none;stroke:red;stroke-width:1px;stroke-linecap:butt;stroke-linejoin:miter;stroke-opacity:1" d="M 574.769,25.0616 593.724,35.5924 z" id="boundary" inkscape:connector-curvature="0" />
	<path style="fill:none;stroke:red;stroke-width:1px;stroke-linecap:butt;stroke-linejoin:miter;stroke-opacity:1" d="M 593.724,35.5924 614.786,39.8047 z" id="boundary" inkscape:connector-curvature="0" />
	<path style="fill:none;stroke:red;stroke-width:1px;stroke-linecap:butt;stroke-linejoin:miter;stroke-opacity:1" d="M 614.786,39.8047 635.847,46.1231 z" id="boundary" inkscape:connector-curvature="0" />
	<path style="fill:none;stroke:red;stroke-width:1px;stroke-linecap:butt;stroke-linejoin:miter;stroke-opacity:1" d="M 635.847,46.1231 654.803,56.6539 z" id="boundary" inkscape:connector-curvature="0" />
	<path style="fill:none;stroke:red;stroke-width:1px;stroke-linecap:butt;stroke-linejoin:miter;stroke-opacity:1" d="M 654.803,56.6539 673.758,67.1847 z" id="boundary" inkscape:connector-curvature="0" />
	<path style="fill:none;stroke:red;stroke-width:1px;stroke-linecap:butt;stroke-linejoin:miter;stroke-opacity:1" d="M 673.758,67.1847 688.501,84.034 z" id="boundary" inkscape:connector-curvature="0" />
	<path style="fill:none;stroke:red;stroke-width:1px;stroke-linecap:butt;stroke-linejoin:miter;stroke-opacity:1" d="M 688.501,84.034 705.35,98.7771 z" id="boundary" inkscape:connector-curvature="0" />
	<path style="fill:none;stroke:red;stroke-width:1px;stroke-linecap:butt;stroke-linejoin:miter;stroke-opacity:1" d="M 705.35,98.7771 720.093,115.626 z" id="boundary" inkscape:connector-curvature="0" />
	<path style="fill:none;stroke:red;stroke-width:1px;stroke-linecap:butt;stroke-linejoin:miter;stroke-opacity:1" d="M 720.093,115.626 732.73,132.476 z" id="boundary" inkscape:connector-curvature="0" />
	<path style="fill:none;stroke:red;stroke-width:1px;stroke-linecap:butt;stroke-linejoin:miter;stroke-opacity:1" d="M 732.73,132.476 743.261,151.431 z" id="boundary" inkscape:connector-curvature="0" />
	<path style="fill:none;stroke:red;stroke-width:1px;stroke-linecap:butt;stroke-linejoin:miter;stroke-opacity:1" d="M 743.261,151.431 743.261,172.493 z" id="boundary" inkscape:connector-curvature="0" />
	<path style="fill:none;stroke:red;stroke-width:1px;stroke-linecap:butt;stroke-linejoin:miter;stroke-opacity:1" d="M 743.261,172.493 764.323,178.811 z" id="boundary" inkscape:connector-curvature="0" />
	<path style="fill:none;stroke:red;stroke-width:1px;stroke-linecap:butt;stroke-linejoin:miter;stroke-opacity:1" d="M 764.323,178.811 785.384,178.811 z" id="boundary" inkscape:connector-curvature="0" />
	<path style="fill:none;stroke:red;stroke-width:1px;stroke-linecap:butt;stroke-linejoin:miter;stroke-opacity:1" d="M 785.384,178.811 806.446,183.023 z" id="boundary" inkscape:connector-curvature="0" />
	<path style="fill:none;stroke:red;stroke-width:1px;stroke-linecap:butt;stroke-linejoin:miter;stroke-opacity:1" d="M 806.446,183.023 827.507,183.023 z" id="boundary" inkscape:connector-curvature="0" />
	<path style="fill:none;stroke:red;stroke-width:1px;stroke-linecap:butt;stroke-linejoin:miter;stroke-opacity:1" d="M 827.507,183.023 846.463,193.554 z" id="boundary" inkscape:connector-curvature="0" />
	<path style="fill:none;stroke:red;stroke-width:1px;stroke-linecap:butt;stroke-linejoin:miter;stroke-opacity:1" d="M 846.463,193.554 867.524,193.554 z" id="boundary" inkscape:connector-curvature="0" />
	<path style="fill:none;stroke:red;stroke-width:1px;stroke-linecap:butt;stroke-linejoin:miter;stroke-opacity:1" d="M 867.524,193.554 886.48,183.023 z" id="boundary" inkscape:connector-curvature="0" />
	<path style="fill:none;stroke:red;stroke-width:1px;stroke-linecap:butt;stroke-linejoin:miter;stroke-opacity:1" d="M 886.48,183.023 905.435,193.554 z" id="boundary" inkscape:connector-curvature="0" />
	<path style="fill:none;stroke:red;stroke-width:1px;stroke-linecap:butt;stroke-linejoin:miter;stroke-opacity:1" d="M 905.435,193.554 924.391,183.023 z" id="boundary" inkscape:connector-curvature="0" />
	<path style="fill:none;stroke:red;stroke-width:1px;stroke-linecap:butt;stroke-linejoin:miter;stroke-opacity:1" d="M 924.391,183.023 945.452,183.023 z" id="boundary" inkscape:connector-curvature="0" />
	<path style="fill:none;stroke:red;stroke-width:1px;stroke-linecap:butt;stroke-linejoin:miter;stroke-opacity:1" d="M 945.452,183.023 966.514,183.023 z" id="boundary" inkscape:connector-curvature="0" />
	<path style="fill:none;stroke:red;stroke-width:1px;stroke-linecap:butt;stroke-linejoin:miter;stroke-opacity:1" d="M 966.514,183.023 968.62,214.616 z" id="boundary" inkscape:connector-curvature="0" />
	<path style="fill:none;stroke:red;stroke-width:1px;stroke-linecap:butt;stroke-linejoin:miter;stroke-opacity:1" d="M 968.62,214.616 947.558,225.146 z" id="boundary" inkscape:connector-curvature="0" />
	<path style="fill:none;stroke:red;stroke-width:1px;stroke-linecap:butt;stroke-linejoin:miter;stroke-opacity:1" d="M 947.558,225.146 926.497,235.677 z" id="boundary" inkscape:connector-curvature="0" />
	<path style="fill:none;stroke:red;stroke-width:1px;stroke-linecap:butt;stroke-linejoin:miter;stroke-opacity:1" d="M 926.497,235.677 909.648,248.314 z" id="boundary" inkscape:connector-curvature="0" />
	<path style="fill:none;stroke:red;stroke-width:1px;stroke-linecap:butt;stroke-linejoin:miter;stroke-opacity:1" d="M 909.648,248.314 888.586,252.527 z" id="boundary" inkscape:connector-curvature="0" />
	<path style="fill:none;stroke:red;stroke-width:1px;stroke-linecap:butt;stroke-linejoin:miter;stroke-opacity:1" d="M 888.586,252.527 867.524,258.845 z" id="boundary" inkscape:connector-curvature="0" />
	<path style="fill:none;stroke:red;stroke-width:1px;stroke-linecap:butt;stroke-linejoin:miter;stroke-opacity:1" d="M 867.524,258.845 848.569,269.376 z" id="boundary" inkscape:connector-curvature="0" />
	<path style="fill:none;stroke:red;stroke-width:1px;stroke-linecap:butt;stroke-linejoin:miter;stroke-opacity:1" d="M 848.569,269.376 827.507,269.376 z" id="boundary" inkscape:connector-curvature="0" />
	<path style="fill:none;stroke:red;stroke-width:1px;stroke-linecap:butt;stroke-linejoin:miter;stroke-opacity:1" d="M 827.507,269.376 808.552,279.907 z" id="boundary" inkscape:connector-curvature="0" />
	<path style="fill:none;stroke:red;stroke-width:1px;stroke-linecap:butt;stroke-linejoin:miter;stroke-opacity:1" d="M 808.552,279.907 787.49,279.907 z" id="boundary" inkscape:connector-curvature="0" />
	<path style="fill:none;stroke:red;stroke-width:1px;stroke-linecap:butt;stroke-linejoin:miter;stroke-opacity:1" d="M 787.49,279.907 768.535,290.437 z" id="boundary" inkscape:connector-curvature="0" />
	<path style="fill:none;stroke:red;stroke-width:1px;stroke-linecap:butt;stroke-linejoin:miter;stroke-opacity:1" d="M 768.535,290.437 747.473,290.437 z" id="boundary" inkscape:connector-curvature="0" />
	<path style="fill:none;stroke:red;stroke-width:1px;stroke-linecap:butt;stroke-linejoin:miter;stroke-opacity:1" d="M 747.473,290.437 726.412,298.862 z" id="boundary" inkscape:connector-curvature="0" />
	<path style="fill:none;stroke:red;stroke-width:1px;stroke-linecap:butt;stroke-linejoin:miter;stroke-opacity:1" d="M 726.412,298.862 709.563,311.499 z" id="boundary" inkscape:connector-curvature="0" />
	<path style="fill:none;stroke:red;stroke-width:1px;stroke-linecap:butt;stroke-linejoin:miter;stroke-opacity:1" d="M 709.563,311.499 688.501,311.499 z" id="boundary" inkscape:connector-curvature="0" />
	<path style="fill:none;stroke:red;stroke-width:1px;stroke-linecap:butt;stroke-linejoin:miter;stroke-opacity:1" d="M 688.501,311.499 669.546,322.03 z" id="boundary" inkscape:connector-curvature="0" />
	<path style="fill:none;stroke:red;stroke-width:1px;stroke-linecap:butt;stroke-linejoin:miter;stroke-opacity:1" d="M 669.546,322.03 680.076,340.985 z" id="boundary" inkscape:connector-curvature="0" />
	<path style="fill:none;stroke:red;stroke-width:1px;stroke-linecap:butt;stroke-linejoin:miter;stroke-opacity:1" d="M 680.076,340.985 690.607,359.941 z" id="boundary" inkscape:connector-curvature="0" />
	<path style="fill:none;stroke:red;stroke-width:1px;stroke-linecap:butt;stroke-linejoin:miter;stroke-opacity:1" d="M 690.607,359.941 701.138,378.896 z" id="boundary" inkscape:connector-curvature="0" />
	<path style="fill:none;stroke:red;stroke-width:1px;stroke-linecap:butt;stroke-linejoin:miter;stroke-opacity:1" d="M 701.138,378.896 711.669,397.851 z" id="boundary" inkscape:connector-curvature="0" />
	<path style="fill:none;stroke:red;stroke-width:1px;stroke-linecap:butt;stroke-linejoin:miter;stroke-opacity:1" d="M 711.669,397.851 722.2,416.807 z" id="boundary" inkscape:connector-curvature="0" />
	<path style="fill:none;stroke:red;stroke-width:1px;stroke-linecap:butt;stroke-linejoin:miter;stroke-opacity:1" d="M 722.2,416.807 732.73,435.762 z" id="boundary" inkscape:connector-curvature="0" />
	<path style="fill:none;stroke:red;stroke-width:1px;stroke-linecap:butt;stroke-linejoin:miter;stroke-opacity:1" d="M 732.73,435.762 743.261,454.718 z" id="boundary" inkscape:connector-curvature="0" />
	<path style="fill:none;stroke:red;stroke-width:1px;stroke-linecap:butt;stroke-linejoin:miter;stroke-opacity:1" d="M 743.261,454.718 743.261,475.779 z" id="boundary" inkscape:connector-curvature="0" />
	<path style="fill:none;stroke:red;stroke-width:1px;stroke-linecap:butt;stroke-linejoin:miter;stroke-opacity:1" d="M 743.261,475.779 753.792,494.735 z" id="boundary" inkscape:connector-curvature="0" />
	<path style="fill:none;stroke:red;stroke-width:1px;stroke-linecap:butt;stroke-linejoin:miter;stroke-opacity:1" d="M 136.688,164.068 130.369,199.873 z" id="boundary" inkscape:connector-curvature="0" />
	<path style="fill:none;stroke:red;stroke-width:1px;stroke-linecap:butt;stroke-linejoin:miter;stroke-opacity:1" d="M 130.369,199.873 130.369,231.465 z" id="boundary" inkscape:connector-curvature="0" />
	<path style="fill:none;stroke:red;stroke-width:1px;stroke-linecap:butt;stroke-linejoin:miter;stroke-opacity:1" d="M 130.369,231.465 140.9,250.42 z" id="boundary" inkscape:connector-curvature="0" />
	<path style="fill:none;stroke:red;stroke-width:1px;stroke-linecap:butt;stroke-linejoin:miter;stroke-opacity:1" d="M 140.9,250.42 128.263,277.8 z" id="boundary" inkscape:connector-curvature="0" />
	<path style="fill:none;stroke:red;stroke-width:1px;stroke-linecap:butt;stroke-linejoin:miter;stroke-opacity:1" d="M 128.263,277.8 109.308,267.27 z" id="boundary" inkscape:connector-curvature="0" />
	<path style="fill:none;stroke:red;stroke-width:1px;stroke-linecap:butt;stroke-linejoin:miter;stroke-opacity:1" d="M 109.308,267.27 88.2463,263.057 z" id="boundary" inkscape:connector-curvature="0" />
	<path style="fill:none;stroke:red;stroke-width:1px;stroke-linecap:butt;stroke-linejoin:miter;stroke-opacity:1" d="M 88.2463,263.057 77.7155,284.119 z" id="boundary" inkscape:connector-curvature="0" />
	<path style="fill:none;stroke:red;stroke-width:1px;stroke-linecap:butt;stroke-linejoin:miter;stroke-opacity:1" d="M 77.7155,284.119 67.1847,315.711 z" id="boundary" inkscape:connector-curvature="0" />
	<path style="fill:none;stroke:red;stroke-width:1px;stroke-linecap:butt;stroke-linejoin:miter;stroke-opacity:1" d="M 67.1847,315.711 88.2463,322.03 z" id="boundary" inkscape:connector-curvature="0" />
	<path style="fill:none;stroke:red;stroke-width:1px;stroke-linecap:butt;stroke-linejoin:miter;stroke-opacity:1" d="M 88.2463,322.03 100.883,338.879 z" id="boundary" inkscape:connector-curvature="0" />
	<path style="fill:none;stroke:red;stroke-width:1px;stroke-linecap:butt;stroke-linejoin:miter;stroke-opacity:1" d="M 100.883,338.879 121.945,347.304 z" id="boundary" inkscape:connector-curvature="0" />
	<path style="fill:none;stroke:red;stroke-width:1px;stroke-linecap:butt;stroke-linejoin:miter;stroke-opacity:1" d="M 121.945,347.304 140.9,357.834 z" id="boundary" inkscape:connector-curvature="0" />
	<path style="fill:none;stroke:red;stroke-width:1px;stroke-linecap:butt;stroke-linejoin:miter;stroke-opacity:1" d="M 140.9,357.834 161.962,364.153 z" id="boundary" inkscape:connector-curvature="0" />
	<path style="fill:none;stroke:red;stroke-width:1px;stroke-linecap:butt;stroke-linejoin:miter;stroke-opacity:1" d="M 161.962,364.153 183.023,368.365 z" id="boundary" inkscape:connector-curvature="0" />
	<path style="fill:none;stroke:red;stroke-width:1px;stroke-linecap:butt;stroke-linejoin:miter;stroke-opacity:1" d="M 183.023,368.365 204.085,364.153 z" id="boundary" inkscape:connector-curvature="0" />
	<path style="fill:none;stroke:red;stroke-width:1px;stroke-linecap:butt;stroke-linejoin:miter;stroke-opacity:1" d="M 204.085,364.153 199.873,393.639 z" id="boundary" inkscape:connector-curvature="0" />
	<path style="fill:none;stroke:red;stroke-width:1px;stroke-linecap:butt;stroke-linejoin:miter;stroke-opacity:1" d="M 199.873,393.639 189.342,414.701 z" id="boundary" inkscape:connector-curvature="0" />
	<path style="fill:none;stroke:red;stroke-width:1px;stroke-linecap:butt;stroke-linejoin:miter;stroke-opacity:1" d="M 189.342,414.701 172.493,431.55 z" id="boundary" inkscape:connector-curvature="0" />
	<path style="fill:none;stroke:red;stroke-width:1px;stroke-linecap:butt;stroke-linejoin:miter;stroke-opacity:1" d="M 172.493,431.55 161.962,463.142 z" id="boundary" inkscape:connector-curvature="0" />
	<path style="fill:none;stroke:red;stroke-width:1px;stroke-linecap:butt;stroke-linejoin:miter;stroke-opacity:1" d="M 161.962,463.142 151.431,484.204 z" id="boundary" inkscape:connector-curvature="0" />
	<path style="fill:none;stroke:red;stroke-width:1px;stroke-linecap:butt;stroke-linejoin:miter;stroke-opacity:1" d="M 151.431,484.204 140.9,505.265 z" id="boundary" inkscape:connector-curvature="0" />
	<path style="fill:none;stroke:red;stroke-width:1px;stroke-linecap:butt;stroke-linejoin:miter;stroke-opacity:1" d="M 140.9,505.265 140.9,526.327 z" id="boundary" inkscape:connector-curvature="0" />
	<path style="fill:none;stroke:red;stroke-width:1px;stroke-linecap:butt;stroke-linejoin:miter;stroke-opacity:1" d="M 140.9,526.327 130.369,557.919 z" id="boundary" inkscape:connector-curvature="0" />
	<path style="fill:none;stroke:red;stroke-width:1px;stroke-linecap:butt;stroke-linejoin:miter;stroke-opacity:1" d="M 130.369,557.919 130.369,578.981 z" id="boundary" inkscape:connector-curvature="0" />
	<path style="fill:none;stroke:red;stroke-width:1px;stroke-linecap:butt;stroke-linejoin:miter;stroke-opacity:1" d="M 130.369,578.981 130.369,610.573 z" id="boundary" inkscape:connector-curvature="0" />
	<path style="fill:none;stroke:red;stroke-width:1px;stroke-linecap:butt;stroke-linejoin:miter;stroke-opacity:1" d="M 130.369,610.573 140.9,629.529 z" id="boundary" inkscape:connector-curvature="0" />
	<path style="fill:none;stroke:red;stroke-width:1px;stroke-linecap:butt;stroke-linejoin:miter;stroke-opacity:1" d="M 140.9,629.529 134.582,656.909 z" id="boundary" inkscape:connector-curvature="0" />
	<path style="fill:none;stroke:red;stroke-width:1px;stroke-linecap:butt;stroke-linejoin:miter;stroke-opacity:1" d="M 134.582,656.909 113.52,659.015 z" id="boundary" inkscape:connector-curvature="0" />
	<path style="fill:none;stroke:red;stroke-width:1px;stroke-linecap:butt;stroke-linejoin:miter;stroke-opacity:1" d="M 113.52,659.015 92.4586,667.439 z" id="boundary" inkscape:connector-curvature="0" />
	<path style="fill:none;stroke:red;stroke-width:1px;stroke-linecap:butt;stroke-linejoin:miter;stroke-opacity:1" d="M 92.4586,667.439 71.397,667.439 z" id="boundary" inkscape:connector-curvature="0" />
	<path style="fill:none;stroke:red;stroke-width:1px;stroke-linecap:butt;stroke-linejoin:miter;stroke-opacity:1" d="M 71.397,667.439 52.4416,677.97 z" id="boundary" inkscape:connector-curvature="0" />
	<path style="fill:none;stroke:red;stroke-width:1px;stroke-linecap:butt;stroke-linejoin:miter;stroke-opacity:1" d="M 52.4416,677.97 31.38,688.501 z" id="boundary" inkscape:connector-curvature="0" />
	<path style="fill:none;stroke:red;stroke-width:1px;stroke-linecap:butt;stroke-linejoin:miter;stroke-opacity:1" d="M 31.38,688.501 14.5308,705.35 z" id="boundary" inkscape:connector-curvature="0" />
	<path style="fill:none;stroke:red;stroke-width:1px;stroke-linecap:butt;stroke-linejoin:miter;stroke-opacity:1" d="M 14.5308,705.35 25.0616,724.306 z" id="boundary" inkscape:connector-curvature="0" />
	<path style="fill:none;stroke:red;stroke-width:1px;stroke-linecap:butt;stroke-linejoin:miter;stroke-opacity:1" d="M 25.0616,724.306 39.8047,741.155 z" id="boundary" inkscape:connector-curvature="0" />
	<path style="fill:none;stroke:red;stroke-width:1px;stroke-linecap:butt;stroke-linejoin:miter;stroke-opacity:1" d="M 39.8047,741.155 56.6539,753.792 z" id="boundary" inkscape:connector-curvature="0" />
	<path style="fill:none;stroke:red;stroke-width:1px;stroke-linecap:butt;stroke-linejoin:miter;stroke-opacity:1" d="M 56.6539,753.792 62.9724,774.854 z" id="boundary" inkscape:connector-curvature="0" />
	<path style="fill:none;stroke:red;stroke-width:1px;stroke-linecap:butt;stroke-linejoin:miter;stroke-opacity:1" d="M 62.9724,774.854 84.034,772.747 z" id="boundary" inkscape:connector-curvature="0" />
	<path style="fill:none;stroke:red;stroke-width:1px;stroke-linecap:butt;stroke-linejoin:miter;stroke-opacity:1" d="M 84.034,772.747 105.096,772.747 z" id="boundary" inkscape:connector-curvature="0" />
	<path style="fill:none;stroke:red;stroke-width:1px;stroke-linecap:butt;stroke-linejoin:miter;stroke-opacity:1" d="M 105.096,772.747 126.157,772.747 z" id="boundary" inkscape:connector-curvature="0" />
	<path style="fill:none;stroke:red;stroke-width:1px;stroke-linecap:butt;stroke-linejoin:miter;stroke-opacity:1" d="M 126.157,772.747 147.219,772.747 z" id="boundary" inkscape:connector-curvature="0" />
	<path style="fill:none;stroke:red;stroke-width:1px;stroke-linecap:butt;stroke-linejoin:miter;stroke-opacity:1" d="M 147.219,772.747 168.28,764.323 z" id="boundary" inkscape:connector-curvature="0" />
	<path style="fill:none;stroke:red;stroke-width:1px;stroke-linecap:butt;stroke-linejoin:miter;stroke-opacity:1" d="M 168.28,764.323 185.13,779.066 z" id="boundary" inkscape:connector-curvature="0" />
	<path style="fill:none;stroke:red;stroke-width:1px;stroke-linecap:butt;stroke-linejoin:miter;stroke-opacity:1" d="M 185.13,779.066 199.873,795.915 z" id="boundary" inkscape:connector-curvature="0" />
	<path style="fill:none;stroke:red;stroke-width:1px;stroke-linecap:butt;stroke-linejoin:miter;stroke-opacity:1" d="M 199.873,795.915 210.403,814.87 z" id="boundary" inkscape:connector-curvature="0" />
	<path style="fill:none;stroke:red;stroke-width:1px;stroke-linecap:butt;stroke-linejoin:miter;stroke-opacity:1" d="M 210.403,814.87 218.828,835.932 z" id="boundary" inkscape:connector-curvature="0" />
	<path style="fill:none;stroke:red;stroke-width:1px;stroke-linecap:butt;stroke-linejoin:miter;stroke-opacity:1" d="M 218.828,835.932 229.359,854.887 z" id="boundary" inkscape:connector-curvature="0" />
	<path style="fill:none;stroke:red;stroke-width:1px;stroke-linecap:butt;stroke-linejoin:miter;stroke-opacity:1" d="M 229.359,854.887 237.783,875.949 z" id="boundary" inkscape:connector-curvature="0" />
	<path style="fill:none;stroke:red;stroke-width:1px;stroke-linecap:butt;stroke-linejoin:miter;stroke-opacity:1" d="M 237.783,875.949 254.633,890.692 z" id="boundary" inkscape:connector-curvature="0" />
	<path style="fill:none;stroke:red;stroke-width:1px;stroke-linecap:butt;stroke-linejoin:miter;stroke-opacity:1" d="M 254.633,890.692 263.057,911.754 z" id="boundary" inkscape:connector-curvature="0" />
	<path style="fill:none;stroke:red;stroke-width:1px;stroke-linecap:butt;stroke-linejoin:miter;stroke-opacity:1" d="M 263.057,911.754 273.588,930.709 z" id="boundary" inkscape:connector-curvature="0" />
	<path style="fill:none;stroke:red;stroke-width:1px;stroke-linecap:butt;stroke-linejoin:miter;stroke-opacity:1" d="M 273.588,930.709 288.331,947.558 z" id="boundary" inkscape:connector-curvature="0" />
	<path style="fill:none;stroke:red;stroke-width:1px;stroke-linecap:butt;stroke-linejoin:miter;stroke-opacity:1" d="M 288.331,947.558 305.18,962.301 z" id="boundary" inkscape:connector-curvature="0" />
	<path style="fill:none;stroke:red;stroke-width:1px;stroke-linecap:butt;stroke-linejoin:miter;stroke-opacity:1" d="M 305.18,962.301 322.03,974.938 z" id="boundary" inkscape:connector-curvature="0" />
	<path style="fill:none;stroke:red;stroke-width:1px;stroke-linecap:butt;stroke-linejoin:miter;stroke-opacity:1" d="M 322.03,974.938 340.985,985.469 z" id="boundary" inkscape:connector-curvature="0" />
	<path style="fill:none;stroke:red;stroke-width:1px;stroke-linecap:butt;stroke-linejoin:miter;stroke-opacity:1" d="M 340.985,985.469 359.941,996 z" id="boundary" inkscape:connector-curvature="0" />
	<path style="fill:none;stroke:red;stroke-width:1px;stroke-linecap:butt;stroke-linejoin:miter;stroke-opacity:1" d="M 359.941,996 381.002,996 z" id="boundary" inkscape:connector-curvature="0" />
	<path style="fill:none;stroke:red;stroke-width:1px;stroke-linecap:butt;stroke-linejoin:miter;stroke-opacity:1" d="M 381.002,996 402.064,996 z" id="boundary" inkscape:connector-curvature="0" />
	<path style="fill:none;stroke:red;stroke-width:1px;stroke-linecap:butt;stroke-linejoin:miter;stroke-opacity:1" d="M 402.064,996 423.125,996 z" id="boundary" inkscape:connector-curvature="0" />
	<path style="fill:none;stroke:red;stroke-width:1px;stroke-linecap:butt;stroke-linejoin:miter;stroke-opacity:1" d="M 423.125,996 444.187,996 z" id="boundary" inkscape:connector-curvature="0" />
	<path style="fill:none;stroke:red;stroke-width:1px;stroke-linecap:butt;stroke-linejoin:miter;stroke-opacity:1" d="M 444.187,996 465.248,991.788 z" id="boundary" inkscape:connector-curvature="0" />
	<path style="fill:none;stroke:red;stroke-width:1px;stroke-linecap:butt;stroke-linejoin:miter;stroke-opacity:1" d="M 465.248,991.788 486.31,985.469 z" id="boundary" inkscape:connector-curvature="0" />
	<path style="fill:none;stroke:red;stroke-width:1px;stroke-linecap:butt;stroke-linejoin:miter;stroke-opacity:1" d="M 486.31,985.469 507.372,985.469 z" id="boundary" inkscape:connector-curvature="0" />
	<path style="fill:none;stroke:red;stroke-width:1px;stroke-linecap:butt;stroke-linejoin:miter;stroke-opacity:1" d="M 507.372,985.469 526.327,972.832 z" id="boundary" inkscape:connector-curvature="0" />
	<path style="fill:none;stroke:red;stroke-width:1px;stroke-linecap:butt;stroke-linejoin:miter;stroke-opacity:1" d="M 526.327,972.832 547.389,962.301 z" id="boundary" inkscape:connector-curvature="0" />
	<path style="fill:none;stroke:red;stroke-width:1px;stroke-linecap:butt;stroke-linejoin:miter;stroke-opacity:1" d="M 547.389,962.301 568.45,951.771 z" id="boundary" inkscape:connector-curvature="0" />
	<path style="fill:none;stroke:red;stroke-width:1px;stroke-linecap:butt;stroke-linejoin:miter;stroke-opacity:1" d="M 568.45,951.771 585.299,932.815 z" id="boundary" inkscape:connector-curvature="0" />
	<path style="fill:none;stroke:red;stroke-width:1px;stroke-linecap:butt;stroke-linejoin:miter;stroke-opacity:1" d="M 585.299,932.815 602.149,918.072 z" id="boundary" inkscape:connector-curvature="0" />
	<path style="fill:none;stroke:red;stroke-width:1px;stroke-linecap:butt;stroke-linejoin:miter;stroke-opacity:1" d="M 602.149,918.072 606.361,890.692 z" id="boundary" inkscape:connector-curvature="0" />
	<path style="fill:none;stroke:red;stroke-width:1px;stroke-linecap:butt;stroke-linejoin:miter;stroke-opacity:1" d="M 606.361,890.692 623.21,875.949 z" id="boundary" inkscape:connector-curvature="0" />
	<path style="fill:none;stroke:red;stroke-width:1px;stroke-linecap:butt;stroke-linejoin:miter;stroke-opacity:1" d="M 623.21,875.949 633.741,854.887 z" id="boundary" inkscape:connector-curvature="0" />
	<path style="fill:none;stroke:red;stroke-width:1px;stroke-linecap:butt;stroke-linejoin:miter;stroke-opacity:1" d="M 633.741,854.887 644.272,833.826 z" id="boundary" inkscape:connector-curvature="0" />
	<path style="fill:none;stroke:red;stroke-width:1px;stroke-linecap:butt;stroke-linejoin:miter;stroke-opacity:1" d="M 644.272,833.826 654.803,812.764 z" id="boundary" inkscape:connector-curvature="0" />
	<path style="fill:none;stroke:red;stroke-width:1px;stroke-linecap:butt;stroke-linejoin:miter;stroke-opacity:1" d="M 654.803,812.764 665.333,791.703 z" id="boundary" inkscape:connector-curvature="0" />
	<path style="fill:none;stroke:red;stroke-width:1px;stroke-linecap:butt;stroke-linejoin:miter;stroke-opacity:1" d="M 665.333,791.703 675.864,770.641 z" id="boundary" inkscape:connector-curvature="0" />
	<path style="fill:none;stroke:red;stroke-width:1px;stroke-linecap:butt;stroke-linejoin:miter;stroke-opacity:1" d="M 675.864,770.641 686.395,749.58 z" id="boundary" inkscape:connector-curvature="0" />
	<path style="fill:none;stroke:red;stroke-width:1px;stroke-linecap:butt;stroke-linejoin:miter;stroke-opacity:1" d="M 686.395,749.58 696.926,728.518 z" id="boundary" inkscape:connector-curvature="0" />
	<path style="fill:none;stroke:red;stroke-width:1px;stroke-linecap:butt;stroke-linejoin:miter;stroke-opacity:1" d="M 696.926,728.518 701.138,701.138 z" id="boundary" inkscape:connector-curvature="0" />
	<path style="fill:none;stroke:red;stroke-width:1px;stroke-linecap:butt;stroke-linejoin:miter;stroke-opacity:1" d="M 701.138,701.138 711.669,680.076 z" id="boundary" inkscape:connector-curvature="0" />
	<path style="fill:none;stroke:red;stroke-width:1px;stroke-linecap:butt;stroke-linejoin:miter;stroke-opacity:1" d="M 711.669,680.076 722.2,648.484 z" id="boundary" inkscape:connector-curvature="0" />
	<path style="fill:none;stroke:red;stroke-width:1px;stroke-linecap:butt;stroke-linejoin:miter;stroke-opacity:1" d="M 722.2,648.484 732.73,627.423 z" id="boundary" inkscape:connector-curvature="0" />
	<path style="fill:none;stroke:red;stroke-width:1px;stroke-linecap:butt;stroke-linejoin:miter;stroke-opacity:1" d="M 732.73,627.423 732.73,606.361 z" id="boundary" inkscape:connector-curvature="0" />
	<path style="fill:none;stroke:red;stroke-width:1px;stroke-linecap:butt;stroke-linejoin:miter;stroke-opacity:1" d="M 732.73,606.361 743.261,574.769 z" id="boundary" inkscape:connector-curvature="0" />
	<path style="fill:none;stroke:red;stroke-width:1px;stroke-linecap:butt;stroke-linejoin:miter;stroke-opacity:1" d="M 743.261,574.769 743.261,553.707 z" id="boundary" inkscape:connector-curvature="0" />
	<path style="fill:none;stroke:red;stroke-width:1px;stroke-linecap:butt;stroke-linejoin:miter;stroke-opacity:1" d="M 743.261,553.707 743.261,532.645 z" id="boundary" inkscape:connector-curvature="0" />
	<path style="fill:none;stroke:red;stroke-width:1px;stroke-linecap:butt;stroke-linejoin:miter;stroke-opacity:1" d="M 743.261,532.645 753.792,494.735 z" id="boundary" inkscape:connector-curvature="0" />
	<circle cx="4" cy="20.8493" r="4" fill="#0" id="circle0"/>
	<circle cx="14.5308" cy="39.8047" r="4" fill="#0" id="circle1"/>
	<circle cx="14.5308" cy="705.35" r="4" fill="#0" id="circle2"/>
	<circle cx="20.8493" cy="4" r="4" fill="#0" id="circle3"/>
	<circle cx="25.0616" cy="58.7601" r="4" fill="#0" id="circle4"/>
	<circle cx="25.0616" cy="724.306" r="4" fill="#0" id="circle5"/>
	<circle cx="31.38" cy="688.501" r="4" fill="#0" id="circle6"/>
	<circle cx="37.6985" cy="75.6093" r="4" fill="#0" id="circle7"/>
	<circle cx="39.8047" cy="14.5308" r="4" fill="#0" id="circle8"/>
	<circle cx="39.8047" cy="741.155" r="4" fill="#0" id="circle9"/>
	<circle cx="52.4416" cy="677.97" r="4" fill="#0" id="circle10"/>
	<circle cx="56.6539" cy="753.792" r="4" fill="#0" id="circle11"/>
	<circle cx="58.7601" cy="25.0616" r="4" fill="#0" id="circle12"/>
	<circle cx="58.7601" cy="84.034" r="4" fill="#0" id="circle13"/>
	<circle cx="62.9724" cy="774.854" r="4" fill="#0" id="circle14"/>
	<circle cx="67.1847" cy="315.711" r="4" fill="#0" id="circle15"/>
	<circle cx="71.397" cy="667.439" r="4" fill="#0" id="circle16"/>
	<circle cx="73.5032" cy="100.883" r="4" fill="#0" id="circle17"/>
	<circle cx="77.7155" cy="35.5924" r="4" fill="#0" id="circle18"/>
	<circle cx="77.7155" cy="284.119" r="4" fill="#0" id="circle19"/>
	<circle cx="84.034" cy="772.747" r="4" fill="#0" id="circle20"/>
	<circle cx="88.2463" cy="263.057" r="4" fill="#0" id="circle21"/>
	<circle cx="88.2463" cy="322.03" r="4" fill="#0" id="circle22"/>
	<circle cx="90.3524" cy="115.626" r="4" fill="#0" id="circle23"/>
	<circle cx="92.4586" cy="667.439" r="4" fill="#0" id="circle24"/>
	<circle cx="98.7771" cy="39.8047" r="4" fill="#0" id="circle25"/>
	<circle cx="100.883" cy="338.879" r="4" fill="#0" id="circle26"/>
	<circle cx="105.096" cy="132.476" r="4" fill="#0" id="circle27"/>
	<circle cx="105.096" cy="772.747" r="4" fill="#0" id="circle28"/>
	<circle cx="109.308" cy="267.27" r="4" fill="#0" id="circle29"/>
	<circle cx="113.52" cy="659.015" r="4" fill="#0" id="circle30"/>
	<circle cx="117.732" cy="50.3355" r="4" fill="#0" id="circle31"/>
	<circle cx="121.945" cy="147.219" r="4" fill="#0" id="circle32"/>
	<circle cx="121.945" cy="347.304" r="4" fill="#0" id="circle33"/>
	<circle cx="126.157" cy="772.747" r="4" fill="#0" id="circle34"/>
	<circle cx="128.263" cy="277.8" r="4" fill="#0" id="circle35"/>
	<circle cx="130.369" cy="199.873" r="4" fill="#0" id="circle36"/>
	<circle cx="130.369" cy="231.465" r="4" fill="#0" id="circle37"/>
	<circle cx="130.369" cy="557.919" r="4" fill="#0" id="circle38"/>
	<circle cx="130.369" cy="578.981" r="4" fill="#0" id="circle39"/>
	<circle cx="130.369" cy="610.573" r="4" fill="#0" id="circle40"/>
	<circle cx="134.582" cy="656.909" r="4" fill="#0" id="circle41"/>
	<circle cx="136.688" cy="164.068" r="4" fill="#0" id="circle42"/>
	<circle cx="138.794" cy="56.6539" r="4" fill="#0" id="circle43"/>
	<circle cx="140.9" cy="250.42" r="4" fill="#0" id="circle44"/>
	<circle cx="140.9" cy="357.834" r="4" fill="#0" id="circle45"/>
	<circle cx="140.9" cy="505.265" r="4" fill="#0" id="circle46"/>
	<circle cx="140.9" cy="526.327" r="4" fill="#0" id="circle47"/>
	<circle cx="140.9" cy="629.529" r="4" fill="#0" id="circle48"/>
	<circle cx="147.219" cy="772.747" r="4" fill="#0" id="circle49"/>
	<circle cx="151.431" cy="484.204" r="4" fill="#0" id="circle50"/>
	<circle cx="159.856" cy="56.6539" r="4" fill="#0" id="circle51"/>
	<circle cx="161.962" cy="364.153" r="4" fill="#0" id="circle52"/>
	<circle cx="161.962" cy="463.142" r="4" fill="#0" id="circle53"/>
	<circle cx="168.28" cy="764.323" r="4" fill="#0" id="circle54"/>
	<circle cx="172.493" cy="431.55" r="4" fill="#0" id="circle55"/>
	<circle cx="178.811" cy="67.1847" r="4" fill="#0" id="circle56"/>
	<circle cx="183.023" cy="368.365" r="4" fill="#0" id="circle57"/>
	<circle cx="185.13" cy="779.066" r="4" fill="#0" id="circle58"/>
	<circle cx="189.342" cy="414.701" r="4" fill="#0" id="circle59"/>
	<circle cx="199.873" cy="67.1847" r="4" fill="#0" id="circle60"/>
	<circle cx="199.873" cy="393.639" r="4" fill="#0" id="circle61"/>
	<circle cx="199.873" cy="795.915" r="4" fill="#0" id="circle62"/>
	<circle cx="204.085" cy="364.153" r="4" fill="#0" id="circle63"/>
	<circle cx="210.403" cy="814.87" r="4" fill="#0" id="circle64"/>
	<circle cx="218.828" cy="835.932" r="4" fill="#0" id="circle65"/>
	<circle cx="220.934" cy="67.1847" r="4" fill="#0" id="circle66"/>
	<circle cx="229.359" cy="854.887" r="4" fill="#0" id="circle67"/>
	<circle cx="237.783" cy="875.949" r="4" fill="#0" id="circle68"/>
	<circle cx="241.996" cy="67.1847" r="4" fill="#0" id="circle69"/>
	<circle cx="254.633" cy="890.692" r="4" fill="#0" id="circle70"/>
	<circle cx="263.057" cy="56.6539" r="4" fill="#0" id="circle71"/>
	<circle cx="263.057" cy="911.754" r="4" fill="#0" id="circle72"/>
	<circle cx="273.588" cy="930.709" r="4" fill="#0" id="circle73"/>
	<circle cx="284.119" cy="46.1231" r="4" fill="#0" id="circle74"/>
	<circle cx="288.331" cy="947.558" r="4" fill="#0" id="circle75"/>
	<circle cx="305.18" cy="46.1231" r="4" fill="#0" id="circle76"/>
	<circle cx="305.18" cy="962.301" r="4" fill="#0" id="circle77"/>
	<circle cx="322.03" cy="974.938" r="4" fill="#0" id="circle78"/>
	<circle cx="324.136" cy="35.5924" r="4" fill="#0" id="circle79"/>
	<circle cx="340.985" cy="985.469" r="4" fill="#0" id="circle80"/>
	<circle cx="343.091" cy="25.0616" r="4" fill="#0" id="circle81"/>
	<circle cx="359.941" cy="996" r="4" fill="#0" id="circle82"/>
	<circle cx="364.153" cy="20.8493" r="4" fill="#0" id="circle83"/>
	<circle cx="381.002" cy="996" r="4" fill="#0" id="circle84"/>
	<circle cx="385.214" cy="14.5308" r="4" fill="#0" id="circle85"/>
	<circle cx="402.064" cy="996" r="4" fill="#0" id="circle86"/>
	<circle cx="406.276" cy="14.5308" r="4" fill="#0" id="circle87"/>
	<circle cx="423.125" cy="996" r="4" fill="#0" id="circle88"/>
	<circle cx="427.338" cy="8.21231" r="4" fill="#0" id="circle89"/>
	<circle cx="444.187" cy="996" r="4" fill="#0" id="circle90"/>
	<circle cx="448.399" cy="14.5308" r="4" fill="#0" id="circle91"/>
	<circle cx="465.248" cy="991.788" r="4" fill="#0" id="circle92"/>
	<circle cx="469.461" cy="10.3185" r="4" fill="#0" id="circle93"/>
	<circle cx="486.31" cy="985.469" r="4" fill="#0" id="circle94"/>
	<circle cx="490.522" cy="10.3185" r="4" fill="#0" id="circle95"/>
	<circle cx="507.372" cy="985.469" r="4" fill="#0" id="circle96"/>
	<circle cx="511.584" cy="10.3185" r="4" fill="#0" id="circle97"/>
	<circle cx="526.327" cy="972.832" r="4" fill="#0" id="circle98"/>
	<circle cx="532.645" cy="14.5308" r="4" fill="#0" id="circle99"/>
	<circle cx="547.389" cy="962.301" r="4" fill="#0" id="circle100"/>
	<circle cx="553.707" cy="20.8493" r="4" fill="#0" id="circle101"/>
	<circle cx="568.45" cy="951.771" r="4" fill="#0" id="circle102"/>
	<circle cx="574.769" cy="25.0616" r="4" fill="#0" id="circle103"/>
	<circle cx="585.299" cy="932.815" r="4" fill="#0" id="circle104"/>
	<circle cx="593.724" cy="35.5924" r="4" fill="#0" id="circle105"/>
	<circle cx="602.149" cy="918.072" r="4" fill="#0" id="circle106"/>
	<circle cx="606.361" cy="890.692" r="4" fill="#0" id="circle107"/>
	<circle cx="614.786" cy="39.8047" r="4" fill="#0" id="circle108"/>
	<circle cx="623.21" cy="875.949" r="4" fill="#0" id="circle109"/>
	<circle cx="633.741" cy="854.887" r="4" fill="#0" id="circle110"/>
	<circle cx="635.847" cy="46.1231" r="4" fill="#0" id="circle111"/>
	<circle cx="644.272" cy="833.826" r="4" fill="#0" id="circle112"/>
	<circle cx="654.803" cy="56.6539" r="4" fill="#0" id="circle113"/>
	<circle cx="654.803" cy="812.764" r="4" fill="#0" id="circle114"/>
	<circle cx="665.333" cy="791.703" r="4" fill="#0" id="circle115"/>
	<circle cx="669.546" cy="322.03" r="4" fill="#0" id="circle116"/>
	<circle cx="673.758" cy="67.1847" r="4" fill="#0" id="circle117"/>
	<circle cx="675.864" cy="770.641" r="4" fill="#0" id="circle118"/>
	<circle cx="680.076" cy="340.985" r="4" fill="#0" id="circle119"/>
	<circle cx="686.395" cy="749.58" r="4" fill="#0" id="circle120"/>
	<circle cx="688.501" cy="84.034" r="4" fill="#0" id="circle121"/>
	<circle cx="688.501" cy="311.499" r="4" fill="#0" id="circle122"/>
	<circle cx="690.607" cy="359.941" r="4" fill="#0" id="circle123"/>
	<circle cx="696.926" cy="728.518" r="4" fill="#0" id="circle124"/>
	<circle cx="701.138" cy="378.896" r="4" fill="#0" id="circle125"/>
	<circle cx="701.138" cy="701.138" r="4" fill="#0" id="circle126"/>
	<circle cx="705.35" cy="98.7771" r="4" fill="#0" id="circle127"/>
	<circle cx="709.563" cy="311.499" r="4" fill="#0" id="circle128"/>
	<circle cx="711.669" cy="397.851" r="4" fill="#0" id="circle129"/>
	<circle cx="711.669" cy="680.076" r="4" fill="#0" id="circle130"/>
	<circle cx="720.093" cy="115.626" r="4" fill="#0" id="circle131"/>
	<circle cx="722.2" cy="416.807" r="4" fill="#0" id="circle132"/>
	<circle cx="722.2" cy="648.484" r="4" fill="#0" id="circle133"/>
	<circle cx="726.412" cy="298.862" r="4" fill="#0" id="circle134"/>
	<circle cx="732.73" cy="132.476" r="4" fill="#0" id="circle135"/>
	<circle cx="732.73" cy="435.762" r="4" fill="#0" id="circle136"/>
	<circle cx="732.73" cy="606.361" r="4" fill="#0" id="circle137"/>
	<circle cx="732.73" cy="627.423" r="4" fill="#0" id="circle138"/>
	<circle cx="743.261" cy="151.431" r="4" fill="#0" id="circle139"/>
	<circle cx="743.261" cy="172.493" r="4" fill="#0" id="circle140"/>
	<circle cx="743.261" cy="454.718" r="4" fill="#0" id="circle141"/>
	<circle cx="743.261" cy="475.779" r="4" fill="#0" id="circle142"/>
	<circle cx="743.261" cy="532.645" r="4" fill="#0" id="circle143"/>
	<circle cx="743.261" cy="553.707" r="4" fill="#0" id="circle144"/>
	<circle cx="743.261" cy="574.769" r="4" fill="#0" id="circle145"/>
	<circle cx="747.473" cy="290.437" r="4" fill="#0" id="circle146"/>
	<circle cx="753.792" cy="494.735" r="4" fill="#0" id="circle147"/>
	<circle cx="764.323" cy="178.811" r="4" fill="#0" id="circle148"/>
	<circle cx="768.535" cy="290.437" r="4" fill="#0" id="circle149"/>
	<circle cx="785.384" cy="178.811" r="4" fill="#0" id="circle150"/>
	<circle cx="787.49" cy="279.907" r="4" fill="#0" id="circle151"/>
	<circle cx="806.446" cy="183.023" r="4" fill="#0" id="circle152"/>
	<circle cx="808.552" cy="279.907" r="4" fill="#0" id="circle153"/>
	<circle cx="827.507" cy="183.023" r="4" fill="#0" id="circle154"/>
	<circle cx="827.507" cy="269.376" r="4" fill="#0" id="circle155"/>
	<circle cx="846.463" cy="193.554" r="4" fill="#0" id="circle156"/>
	<circle cx="848.569" cy="269.376" r="4" fill="#0" id="circle157"/>
	<circle cx="867.524" cy="193.554" r="4" fill="#0" id="circle158"/>
	<circle cx="867.524" cy="258.845" r="4" fill="#0" id="circle159"/>
	<circle cx="886.48" cy="183.023" r="4" fill="#0" id="circle160"/>
	<circle cx="888.586" cy="252.527" r="4" fill="#0" id="circle161"/>
	<circle cx="905.435" cy="193.554" r="4" fill="#0" id="circle162"/>
	<circle cx="909.648" cy="248.314" r="4" fill="#0" id="circle163"/>
	<circle cx="924.391" cy="183.023" r="4" fill="#0" id="circle164"/>
	<circle cx="926.497" cy="235.677" r="4" fill="#0" id="circle165"/>
	<circle cx="945.452" cy="183.023" r="4" fill="#0" id="circle166"/>
	<circle cx="947.558" cy="225.146" r="4" fill="#0" id="circle167"/>
	<circle cx="966.514" cy="183.023" r="4" fill="#0" id="circle168"/>
	<circle cx="968.62" cy="214.616" r="4" fill="#0" id="circle169"/>
	</g>
</svg>