<?xml version="1.0" encoding="UTF-8" standalone="no"?>
<!-- Created with CurveBenchmark -->
<svg
	xmlns:dc="http://purl.org/dc/elements/1.1/"
	xmlns:cc="http://creativecommons.org/ns#"
	xmlns:rdf="http://www.w3.org/1999/02/22-rdf-syntax-ns#"
	xmlns:svg="http://www.w3.org/2000/svg"
	xmlns="http://www.w3.org/2000/svg"
	xmlns:sodipodi="http://sodipodi.sourceforge.net/DTD/sodipodi-0.dtd"
	xmlns:inkscape="http://www.inkscape.org/namespaces/inkscape"
	width="1000"
	height="1000"
	id="svg2"
	version="1.1"
	sodipodi:docname="manifold/crawl-bird38.png.txt">
<defs
	id="defs4" />
<metadata
	id="metadata7">
	<rdf:RDF>
		<cc:Work
			rdf:about="">
			<dc:format>image/svg+xml</dc:format>
			<dc:type
				rdf:resource="http://purl.org/dc/dcmitype/StillImage" />
			<dc:title></dc:title>
		</cc:Work>
	</rdf:RDF>
</metadata>
<g
	inkscape:label="Layer 1"
	inkscape:groupmode="layer"
	id="layer1">
	<path style="fill:none;stroke:red;stroke-width:1px;stroke-linecap:butt;stroke-linejoin:miter;stroke-opacity:1" d="M 4,162.167 4,177.523 z" id="boundary" inkscape:connector-curvature="0" />
	<path style="fill:none;stroke:red;stroke-width:1px;stroke-linecap:butt;stroke-linejoin:miter;stroke-opacity:1" d="M 4,177.523 4,192.879 z" id="boundary" inkscape:connector-curvature="0" />
	<path style="fill:none;stroke:red;stroke-width:1px;stroke-linecap:butt;stroke-linejoin:miter;stroke-opacity:1" d="M 4,192.879 4,208.235 z" id="boundary" inkscape:connector-curvature="0" />
	<path style="fill:none;stroke:red;stroke-width:1px;stroke-linecap:butt;stroke-linejoin:miter;stroke-opacity:1" d="M 4,208.235 11.678,222.056 z" id="boundary" inkscape:connector-curvature="0" />
	<path style="fill:none;stroke:red;stroke-width:1px;stroke-linecap:butt;stroke-linejoin:miter;stroke-opacity:1" d="M 11.678,222.056 19.356,235.876 z" id="boundary" inkscape:connector-curvature="0" />
	<path style="fill:none;stroke:red;stroke-width:1px;stroke-linecap:butt;stroke-linejoin:miter;stroke-opacity:1" d="M 19.356,235.876 19.356,251.232 z" id="boundary" inkscape:connector-curvature="0" />
	<path style="fill:none;stroke:red;stroke-width:1px;stroke-linecap:butt;stroke-linejoin:miter;stroke-opacity:1" d="M 19.356,251.232 27.0341,265.053 z" id="boundary" inkscape:connector-curvature="0" />
	<path style="fill:none;stroke:red;stroke-width:1px;stroke-linecap:butt;stroke-linejoin:miter;stroke-opacity:1" d="M 27.0341,265.053 30.1053,280.409 z" id="boundary" inkscape:connector-curvature="0" />
	<path style="fill:none;stroke:red;stroke-width:1px;stroke-linecap:butt;stroke-linejoin:miter;stroke-opacity:1" d="M 30.1053,280.409 42.3901,289.622 z" id="boundary" inkscape:connector-curvature="0" />
	<path style="fill:none;stroke:red;stroke-width:1px;stroke-linecap:butt;stroke-linejoin:miter;stroke-opacity:1" d="M 42.3901,289.622 57.7461,292.693 z" id="boundary" inkscape:connector-curvature="0" />
	<path style="fill:none;stroke:red;stroke-width:1px;stroke-linecap:butt;stroke-linejoin:miter;stroke-opacity:1" d="M 4,162.167 16.2848,149.882 z" id="boundary" inkscape:connector-curvature="0" />
	<path style="fill:none;stroke:red;stroke-width:1px;stroke-linecap:butt;stroke-linejoin:miter;stroke-opacity:1" d="M 57.7461,292.693 66.9598,274.266 z" id="boundary" inkscape:connector-curvature="0" />
	<path style="fill:none;stroke:red;stroke-width:1px;stroke-linecap:butt;stroke-linejoin:miter;stroke-opacity:1" d="M 66.9598,274.266 66.9598,258.91 z" id="boundary" inkscape:connector-curvature="0" />
	<path style="fill:none;stroke:red;stroke-width:1px;stroke-linecap:butt;stroke-linejoin:miter;stroke-opacity:1" d="M 66.9598,258.91 66.9598,243.554 z" id="boundary" inkscape:connector-curvature="0" />
	<path style="fill:none;stroke:red;stroke-width:1px;stroke-linecap:butt;stroke-linejoin:miter;stroke-opacity:1" d="M 66.9598,243.554 66.9598,228.198 z" id="boundary" inkscape:connector-curvature="0" />
	<path style="fill:none;stroke:red;stroke-width:1px;stroke-linecap:butt;stroke-linejoin:miter;stroke-opacity:1" d="M 66.9598,228.198 66.9598,212.842 z" id="boundary" inkscape:connector-curvature="0" />
	<path style="fill:none;stroke:red;stroke-width:1px;stroke-linecap:butt;stroke-linejoin:miter;stroke-opacity:1" d="M 66.9598,212.842 74.6378,197.486 z" id="boundary" inkscape:connector-curvature="0" />
	<path style="fill:none;stroke:red;stroke-width:1px;stroke-linecap:butt;stroke-linejoin:miter;stroke-opacity:1" d="M 16.2848,149.882 27.0341,131.455 z" id="boundary" inkscape:connector-curvature="0" />
	<path style="fill:none;stroke:red;stroke-width:1px;stroke-linecap:butt;stroke-linejoin:miter;stroke-opacity:1" d="M 27.0341,131.455 34.7121,116.099 z" id="boundary" inkscape:connector-curvature="0" />
	<path style="fill:none;stroke:red;stroke-width:1px;stroke-linecap:butt;stroke-linejoin:miter;stroke-opacity:1" d="M 34.7121,116.099 42.3901,100.743 z" id="boundary" inkscape:connector-curvature="0" />
	<path style="fill:none;stroke:red;stroke-width:1px;stroke-linecap:butt;stroke-linejoin:miter;stroke-opacity:1" d="M 42.3901,100.743 54.6749,88.4582 z" id="boundary" inkscape:connector-curvature="0" />
	<path style="fill:none;stroke:red;stroke-width:1px;stroke-linecap:butt;stroke-linejoin:miter;stroke-opacity:1" d="M 74.6378,197.486 82.3158,174.452 z" id="boundary" inkscape:connector-curvature="0" />
	<path style="fill:none;stroke:red;stroke-width:1px;stroke-linecap:butt;stroke-linejoin:miter;stroke-opacity:1" d="M 82.3158,174.452 89.9938,159.096 z" id="boundary" inkscape:connector-curvature="0" />
	<path style="fill:none;stroke:red;stroke-width:1px;stroke-linecap:butt;stroke-linejoin:miter;stroke-opacity:1" d="M 89.9938,159.096 105.35,143.74 z" id="boundary" inkscape:connector-curvature="0" />
	<path style="fill:none;stroke:red;stroke-width:1px;stroke-linecap:butt;stroke-linejoin:miter;stroke-opacity:1" d="M 105.35,143.74 120.706,143.74 z" id="boundary" inkscape:connector-curvature="0" />
	<path style="fill:none;stroke:red;stroke-width:1px;stroke-linecap:butt;stroke-linejoin:miter;stroke-opacity:1" d="M 120.706,143.74 136.062,136.062 z" id="boundary" inkscape:connector-curvature="0" />
	<path style="fill:none;stroke:red;stroke-width:1px;stroke-linecap:butt;stroke-linejoin:miter;stroke-opacity:1" d="M 136.062,136.062 148.347,125.313 z" id="boundary" inkscape:connector-curvature="0" />
	<path style="fill:none;stroke:red;stroke-width:1px;stroke-linecap:butt;stroke-linejoin:miter;stroke-opacity:1" d="M 148.347,125.313 163.703,117.635 z" id="boundary" inkscape:connector-curvature="0" />
	<path style="fill:none;stroke:red;stroke-width:1px;stroke-linecap:butt;stroke-linejoin:miter;stroke-opacity:1" d="M 163.703,117.635 179.059,113.028 z" id="boundary" inkscape:connector-curvature="0" />
	<path style="fill:none;stroke:red;stroke-width:1px;stroke-linecap:butt;stroke-linejoin:miter;stroke-opacity:1" d="M 179.059,113.028 188.272,125.313 z" id="boundary" inkscape:connector-curvature="0" />
	<path style="fill:none;stroke:red;stroke-width:1px;stroke-linecap:butt;stroke-linejoin:miter;stroke-opacity:1" d="M 188.272,125.313 188.272,140.669 z" id="boundary" inkscape:connector-curvature="0" />
	<path style="fill:none;stroke:red;stroke-width:1px;stroke-linecap:butt;stroke-linejoin:miter;stroke-opacity:1" d="M 188.272,140.669 188.272,156.025 z" id="boundary" inkscape:connector-curvature="0" />
	<path style="fill:none;stroke:red;stroke-width:1px;stroke-linecap:butt;stroke-linejoin:miter;stroke-opacity:1" d="M 188.272,156.025 188.272,171.381 z" id="boundary" inkscape:connector-curvature="0" />
	<path style="fill:none;stroke:red;stroke-width:1px;stroke-linecap:butt;stroke-linejoin:miter;stroke-opacity:1" d="M 188.272,171.381 188.272,186.737 z" id="boundary" inkscape:connector-curvature="0" />
	<path style="fill:none;stroke:red;stroke-width:1px;stroke-linecap:butt;stroke-linejoin:miter;stroke-opacity:1" d="M 188.272,186.737 180.594,208.235 z" id="boundary" inkscape:connector-curvature="0" />
	<path style="fill:none;stroke:red;stroke-width:1px;stroke-linecap:butt;stroke-linejoin:miter;stroke-opacity:1" d="M 180.594,208.235 172.916,231.269 z" id="boundary" inkscape:connector-curvature="0" />
	<path style="fill:none;stroke:red;stroke-width:1px;stroke-linecap:butt;stroke-linejoin:miter;stroke-opacity:1" d="M 172.916,231.269 166.774,252.768 z" id="boundary" inkscape:connector-curvature="0" />
	<path style="fill:none;stroke:red;stroke-width:1px;stroke-linecap:butt;stroke-linejoin:miter;stroke-opacity:1" d="M 166.774,252.768 159.096,268.124 z" id="boundary" inkscape:connector-curvature="0" />
	<path style="fill:none;stroke:red;stroke-width:1px;stroke-linecap:butt;stroke-linejoin:miter;stroke-opacity:1" d="M 159.096,268.124 151.418,283.48 z" id="boundary" inkscape:connector-curvature="0" />
	<path style="fill:none;stroke:red;stroke-width:1px;stroke-linecap:butt;stroke-linejoin:miter;stroke-opacity:1" d="M 151.418,283.48 139.133,295.765 z" id="boundary" inkscape:connector-curvature="0" />
	<path style="fill:none;stroke:red;stroke-width:1px;stroke-linecap:butt;stroke-linejoin:miter;stroke-opacity:1" d="M 139.133,295.765 131.455,311.121 z" id="boundary" inkscape:connector-curvature="0" />
	<path style="fill:none;stroke:red;stroke-width:1px;stroke-linecap:butt;stroke-linejoin:miter;stroke-opacity:1" d="M 131.455,311.121 119.17,323.406 z" id="boundary" inkscape:connector-curvature="0" />
	<path style="fill:none;stroke:red;stroke-width:1px;stroke-linecap:butt;stroke-linejoin:miter;stroke-opacity:1" d="M 119.17,323.406 111.492,338.762 z" id="boundary" inkscape:connector-curvature="0" />
	<path style="fill:none;stroke:red;stroke-width:1px;stroke-linecap:butt;stroke-linejoin:miter;stroke-opacity:1" d="M 111.492,338.762 103.814,354.118 z" id="boundary" inkscape:connector-curvature="0" />
	<path style="fill:none;stroke:red;stroke-width:1px;stroke-linecap:butt;stroke-linejoin:miter;stroke-opacity:1" d="M 103.814,354.118 93.065,372.545 z" id="boundary" inkscape:connector-curvature="0" />
	<path style="fill:none;stroke:red;stroke-width:1px;stroke-linecap:butt;stroke-linejoin:miter;stroke-opacity:1" d="M 93.065,372.545 80.7802,384.83 z" id="boundary" inkscape:connector-curvature="0" />
	<path style="fill:none;stroke:red;stroke-width:1px;stroke-linecap:butt;stroke-linejoin:miter;stroke-opacity:1" d="M 80.7802,384.83 73.1022,400.186 z" id="boundary" inkscape:connector-curvature="0" />
	<path style="fill:none;stroke:red;stroke-width:1px;stroke-linecap:butt;stroke-linejoin:miter;stroke-opacity:1" d="M 73.1022,400.186 65.4241,415.542 z" id="boundary" inkscape:connector-curvature="0" />
	<path style="fill:none;stroke:red;stroke-width:1px;stroke-linecap:butt;stroke-linejoin:miter;stroke-opacity:1" d="M 65.4241,415.542 57.7461,430.898 z" id="boundary" inkscape:connector-curvature="0" />
	<path style="fill:none;stroke:red;stroke-width:1px;stroke-linecap:butt;stroke-linejoin:miter;stroke-opacity:1" d="M 57.7461,430.898 50.0681,453.932 z" id="boundary" inkscape:connector-curvature="0" />
	<path style="fill:none;stroke:red;stroke-width:1px;stroke-linecap:butt;stroke-linejoin:miter;stroke-opacity:1" d="M 50.0681,453.932 50.0681,469.288 z" id="boundary" inkscape:connector-curvature="0" />
	<path style="fill:none;stroke:red;stroke-width:1px;stroke-linecap:butt;stroke-linejoin:miter;stroke-opacity:1" d="M 50.0681,469.288 50.0681,484.644 z" id="boundary" inkscape:connector-curvature="0" />
	<path style="fill:none;stroke:red;stroke-width:1px;stroke-linecap:butt;stroke-linejoin:miter;stroke-opacity:1" d="M 50.0681,484.644 50.0681,500 z" id="boundary" inkscape:connector-curvature="0" />
	<path style="fill:none;stroke:red;stroke-width:1px;stroke-linecap:butt;stroke-linejoin:miter;stroke-opacity:1" d="M 50.0681,500 57.7461,513.82 z" id="boundary" inkscape:connector-curvature="0" />
	<path style="fill:none;stroke:red;stroke-width:1px;stroke-linecap:butt;stroke-linejoin:miter;stroke-opacity:1" d="M 57.7461,513.82 65.4241,527.641 z" id="boundary" inkscape:connector-curvature="0" />
	<path style="fill:none;stroke:red;stroke-width:1px;stroke-linecap:butt;stroke-linejoin:miter;stroke-opacity:1" d="M 65.4241,527.641 73.1022,541.461 z" id="boundary" inkscape:connector-curvature="0" />
	<path style="fill:none;stroke:red;stroke-width:1px;stroke-linecap:butt;stroke-linejoin:miter;stroke-opacity:1" d="M 73.1022,541.461 82.3158,553.746 z" id="boundary" inkscape:connector-curvature="0" />
	<path style="fill:none;stroke:red;stroke-width:1px;stroke-linecap:butt;stroke-linejoin:miter;stroke-opacity:1" d="M 82.3158,553.746 96.1362,561.424 z" id="boundary" inkscape:connector-curvature="0" />
	<path style="fill:none;stroke:red;stroke-width:1px;stroke-linecap:butt;stroke-linejoin:miter;stroke-opacity:1" d="M 96.1362,561.424 103.814,575.245 z" id="boundary" inkscape:connector-curvature="0" />
	<path style="fill:none;stroke:red;stroke-width:1px;stroke-linecap:butt;stroke-linejoin:miter;stroke-opacity:1" d="M 103.814,575.245 111.492,589.065 z" id="boundary" inkscape:connector-curvature="0" />
	<path style="fill:none;stroke:red;stroke-width:1px;stroke-linecap:butt;stroke-linejoin:miter;stroke-opacity:1" d="M 111.492,589.065 120.706,601.35 z" id="boundary" inkscape:connector-curvature="0" />
	<path style="fill:none;stroke:red;stroke-width:1px;stroke-linecap:butt;stroke-linejoin:miter;stroke-opacity:1" d="M 120.706,601.35 132.991,612.099 z" id="boundary" inkscape:connector-curvature="0" />
	<path style="fill:none;stroke:red;stroke-width:1px;stroke-linecap:butt;stroke-linejoin:miter;stroke-opacity:1" d="M 132.991,612.099 146.811,619.777 z" id="boundary" inkscape:connector-curvature="0" />
	<path style="fill:none;stroke:red;stroke-width:1px;stroke-linecap:butt;stroke-linejoin:miter;stroke-opacity:1" d="M 146.811,619.777 162.167,619.777 z" id="boundary" inkscape:connector-curvature="0" />
	<path style="fill:none;stroke:red;stroke-width:1px;stroke-linecap:butt;stroke-linejoin:miter;stroke-opacity:1" d="M 162.167,619.777 175.988,627.455 z" id="boundary" inkscape:connector-curvature="0" />
	<path style="fill:none;stroke:red;stroke-width:1px;stroke-linecap:butt;stroke-linejoin:miter;stroke-opacity:1" d="M 175.988,627.455 191.344,627.455 z" id="boundary" inkscape:connector-curvature="0" />
	<path style="fill:none;stroke:red;stroke-width:1px;stroke-linecap:butt;stroke-linejoin:miter;stroke-opacity:1" d="M 191.344,627.455 205.164,619.777 z" id="boundary" inkscape:connector-curvature="0" />
	<path style="fill:none;stroke:red;stroke-width:1px;stroke-linecap:butt;stroke-linejoin:miter;stroke-opacity:1" d="M 205.164,619.777 220.52,619.777 z" id="boundary" inkscape:connector-curvature="0" />
	<path style="fill:none;stroke:red;stroke-width:1px;stroke-linecap:butt;stroke-linejoin:miter;stroke-opacity:1" d="M 220.52,619.777 235.876,619.777 z" id="boundary" inkscape:connector-curvature="0" />
	<path style="fill:none;stroke:red;stroke-width:1px;stroke-linecap:butt;stroke-linejoin:miter;stroke-opacity:1" d="M 235.876,619.777 249.697,612.099 z" id="boundary" inkscape:connector-curvature="0" />
	<path style="fill:none;stroke:red;stroke-width:1px;stroke-linecap:butt;stroke-linejoin:miter;stroke-opacity:1" d="M 249.697,612.099 263.517,604.421 z" id="boundary" inkscape:connector-curvature="0" />
	<path style="fill:none;stroke:red;stroke-width:1px;stroke-linecap:butt;stroke-linejoin:miter;stroke-opacity:1" d="M 263.517,604.421 278.873,604.421 z" id="boundary" inkscape:connector-curvature="0" />
	<path style="fill:none;stroke:red;stroke-width:1px;stroke-linecap:butt;stroke-linejoin:miter;stroke-opacity:1" d="M 278.873,604.421 292.693,612.099 z" id="boundary" inkscape:connector-curvature="0" />
	<path style="fill:none;stroke:red;stroke-width:1px;stroke-linecap:butt;stroke-linejoin:miter;stroke-opacity:1" d="M 292.693,612.099 308.05,618.241 z" id="boundary" inkscape:connector-curvature="0" />
	<path style="fill:none;stroke:red;stroke-width:1px;stroke-linecap:butt;stroke-linejoin:miter;stroke-opacity:1" d="M 308.05,618.241 320.334,627.455 z" id="boundary" inkscape:connector-curvature="0" />
	<path style="fill:none;stroke:red;stroke-width:1px;stroke-linecap:butt;stroke-linejoin:miter;stroke-opacity:1" d="M 320.334,627.455 334.155,635.133 z" id="boundary" inkscape:connector-curvature="0" />
	<path style="fill:none;stroke:red;stroke-width:1px;stroke-linecap:butt;stroke-linejoin:miter;stroke-opacity:1" d="M 334.155,635.133 347.975,642.811 z" id="boundary" inkscape:connector-curvature="0" />
	<path style="fill:none;stroke:red;stroke-width:1px;stroke-linecap:butt;stroke-linejoin:miter;stroke-opacity:1" d="M 347.975,642.811 361.796,650.489 z" id="boundary" inkscape:connector-curvature="0" />
	<path style="fill:none;stroke:red;stroke-width:1px;stroke-linecap:butt;stroke-linejoin:miter;stroke-opacity:1" d="M 361.796,650.489 372.545,662.774 z" id="boundary" inkscape:connector-curvature="0" />
	<path style="fill:none;stroke:red;stroke-width:1px;stroke-linecap:butt;stroke-linejoin:miter;stroke-opacity:1" d="M 372.545,662.774 374.08,678.13 z" id="boundary" inkscape:connector-curvature="0" />
	<path style="fill:none;stroke:red;stroke-width:1px;stroke-linecap:butt;stroke-linejoin:miter;stroke-opacity:1" d="M 374.08,678.13 386.365,688.879 z" id="boundary" inkscape:connector-curvature="0" />
	<path style="fill:none;stroke:red;stroke-width:1px;stroke-linecap:butt;stroke-linejoin:miter;stroke-opacity:1" d="M 386.365,688.879 397.115,701.164 z" id="boundary" inkscape:connector-curvature="0" />
	<path style="fill:none;stroke:red;stroke-width:1px;stroke-linecap:butt;stroke-linejoin:miter;stroke-opacity:1" d="M 397.115,701.164 403.257,716.52 z" id="boundary" inkscape:connector-curvature="0" />
	<path style="fill:none;stroke:red;stroke-width:1px;stroke-linecap:butt;stroke-linejoin:miter;stroke-opacity:1" d="M 403.257,716.52 403.257,731.876 z" id="boundary" inkscape:connector-curvature="0" />
	<path style="fill:none;stroke:red;stroke-width:1px;stroke-linecap:butt;stroke-linejoin:miter;stroke-opacity:1" d="M 403.257,731.876 404.793,747.232 z" id="boundary" inkscape:connector-curvature="0" />
	<path style="fill:none;stroke:red;stroke-width:1px;stroke-linecap:butt;stroke-linejoin:miter;stroke-opacity:1" d="M 404.793,747.232 412.471,761.053 z" id="boundary" inkscape:connector-curvature="0" />
	<path style="fill:none;stroke:red;stroke-width:1px;stroke-linecap:butt;stroke-linejoin:miter;stroke-opacity:1" d="M 412.471,761.053 418.613,776.409 z" id="boundary" inkscape:connector-curvature="0" />
	<path style="fill:none;stroke:red;stroke-width:1px;stroke-linecap:butt;stroke-linejoin:miter;stroke-opacity:1" d="M 418.613,776.409 418.613,791.765 z" id="boundary" inkscape:connector-curvature="0" />
	<path style="fill:none;stroke:red;stroke-width:1px;stroke-linecap:butt;stroke-linejoin:miter;stroke-opacity:1" d="M 418.613,791.765 418.613,807.121 z" id="boundary" inkscape:connector-curvature="0" />
	<path style="fill:none;stroke:red;stroke-width:1px;stroke-linecap:butt;stroke-linejoin:miter;stroke-opacity:1" d="M 418.613,807.121 418.613,822.477 z" id="boundary" inkscape:connector-curvature="0" />
	<path style="fill:none;stroke:red;stroke-width:1px;stroke-linecap:butt;stroke-linejoin:miter;stroke-opacity:1" d="M 418.613,822.477 418.613,837.833 z" id="boundary" inkscape:connector-curvature="0" />
	<path style="fill:none;stroke:red;stroke-width:1px;stroke-linecap:butt;stroke-linejoin:miter;stroke-opacity:1" d="M 418.613,837.833 426.291,851.653 z" id="boundary" inkscape:connector-curvature="0" />
	<path style="fill:none;stroke:red;stroke-width:1px;stroke-linecap:butt;stroke-linejoin:miter;stroke-opacity:1" d="M 426.291,851.653 426.291,867.009 z" id="boundary" inkscape:connector-curvature="0" />
	<path style="fill:none;stroke:red;stroke-width:1px;stroke-linecap:butt;stroke-linejoin:miter;stroke-opacity:1" d="M 426.291,867.009 426.291,882.365 z" id="boundary" inkscape:connector-curvature="0" />
	<path style="fill:none;stroke:red;stroke-width:1px;stroke-linecap:butt;stroke-linejoin:miter;stroke-opacity:1" d="M 426.291,882.365 426.291,897.721 z" id="boundary" inkscape:connector-curvature="0" />
	<path style="fill:none;stroke:red;stroke-width:1px;stroke-linecap:butt;stroke-linejoin:miter;stroke-opacity:1" d="M 426.291,897.721 426.291,913.077 z" id="boundary" inkscape:connector-curvature="0" />
	<path style="fill:none;stroke:red;stroke-width:1px;stroke-linecap:butt;stroke-linejoin:miter;stroke-opacity:1" d="M 426.291,913.077 450.861,917.684 z" id="boundary" inkscape:connector-curvature="0" />
	<path style="fill:none;stroke:red;stroke-width:1px;stroke-linecap:butt;stroke-linejoin:miter;stroke-opacity:1" d="M 450.861,917.684 450.861,902.328 z" id="boundary" inkscape:connector-curvature="0" />
	<path style="fill:none;stroke:red;stroke-width:1px;stroke-linecap:butt;stroke-linejoin:miter;stroke-opacity:1" d="M 450.861,902.328 443.183,888.508 z" id="boundary" inkscape:connector-curvature="0" />
	<path style="fill:none;stroke:red;stroke-width:1px;stroke-linecap:butt;stroke-linejoin:miter;stroke-opacity:1" d="M 443.183,888.508 443.183,873.152 z" id="boundary" inkscape:connector-curvature="0" />
	<path style="fill:none;stroke:red;stroke-width:1px;stroke-linecap:butt;stroke-linejoin:miter;stroke-opacity:1" d="M 443.183,873.152 443.183,857.796 z" id="boundary" inkscape:connector-curvature="0" />
	<path style="fill:none;stroke:red;stroke-width:1px;stroke-linecap:butt;stroke-linejoin:miter;stroke-opacity:1" d="M 443.183,857.796 443.183,842.44 z" id="boundary" inkscape:connector-curvature="0" />
	<path style="fill:none;stroke:red;stroke-width:1px;stroke-linecap:butt;stroke-linejoin:miter;stroke-opacity:1" d="M 443.183,842.44 443.183,827.084 z" id="boundary" inkscape:connector-curvature="0" />
	<path style="fill:none;stroke:red;stroke-width:1px;stroke-linecap:butt;stroke-linejoin:miter;stroke-opacity:1" d="M 443.183,827.084 443.183,811.728 z" id="boundary" inkscape:connector-curvature="0" />
	<path style="fill:none;stroke:red;stroke-width:1px;stroke-linecap:butt;stroke-linejoin:miter;stroke-opacity:1" d="M 443.183,811.728 443.183,796.372 z" id="boundary" inkscape:connector-curvature="0" />
	<path style="fill:none;stroke:red;stroke-width:1px;stroke-linecap:butt;stroke-linejoin:miter;stroke-opacity:1" d="M 443.183,796.372 443.183,781.015 z" id="boundary" inkscape:connector-curvature="0" />
	<path style="fill:none;stroke:red;stroke-width:1px;stroke-linecap:butt;stroke-linejoin:miter;stroke-opacity:1" d="M 443.183,781.015 443.183,765.659 z" id="boundary" inkscape:connector-curvature="0" />
	<path style="fill:none;stroke:red;stroke-width:1px;stroke-linecap:butt;stroke-linejoin:miter;stroke-opacity:1" d="M 443.183,765.659 443.183,750.303 z" id="boundary" inkscape:connector-curvature="0" />
	<path style="fill:none;stroke:red;stroke-width:1px;stroke-linecap:butt;stroke-linejoin:miter;stroke-opacity:1" d="M 443.183,750.303 443.183,734.947 z" id="boundary" inkscape:connector-curvature="0" />
	<path style="fill:none;stroke:red;stroke-width:1px;stroke-linecap:butt;stroke-linejoin:miter;stroke-opacity:1" d="M 443.183,734.947 443.183,719.591 z" id="boundary" inkscape:connector-curvature="0" />
	<path style="fill:none;stroke:red;stroke-width:1px;stroke-linecap:butt;stroke-linejoin:miter;stroke-opacity:1" d="M 443.183,719.591 443.183,704.235 z" id="boundary" inkscape:connector-curvature="0" />
	<path style="fill:none;stroke:red;stroke-width:1px;stroke-linecap:butt;stroke-linejoin:miter;stroke-opacity:1" d="M 443.183,704.235 443.183,688.879 z" id="boundary" inkscape:connector-curvature="0" />
	<path style="fill:none;stroke:red;stroke-width:1px;stroke-linecap:butt;stroke-linejoin:miter;stroke-opacity:1" d="M 443.183,688.879 458.539,688.879 z" id="boundary" inkscape:connector-curvature="0" />
	<path style="fill:none;stroke:red;stroke-width:1px;stroke-linecap:butt;stroke-linejoin:miter;stroke-opacity:1" d="M 458.539,688.879 472.359,681.201 z" id="boundary" inkscape:connector-curvature="0" />
	<path style="fill:none;stroke:red;stroke-width:1px;stroke-linecap:butt;stroke-linejoin:miter;stroke-opacity:1" d="M 472.359,681.201 486.18,673.523 z" id="boundary" inkscape:connector-curvature="0" />
	<path style="fill:none;stroke:red;stroke-width:1px;stroke-linecap:butt;stroke-linejoin:miter;stroke-opacity:1" d="M 486.18,673.523 501.536,673.523 z" id="boundary" inkscape:connector-curvature="0" />
	<path style="fill:none;stroke:red;stroke-width:1px;stroke-linecap:butt;stroke-linejoin:miter;stroke-opacity:1" d="M 501.536,673.523 515.356,665.845 z" id="boundary" inkscape:connector-curvature="0" />
	<path style="fill:none;stroke:red;stroke-width:1px;stroke-linecap:butt;stroke-linejoin:miter;stroke-opacity:1" d="M 515.356,665.845 529.176,658.167 z" id="boundary" inkscape:connector-curvature="0" />
	<path style="fill:none;stroke:red;stroke-width:1px;stroke-linecap:butt;stroke-linejoin:miter;stroke-opacity:1" d="M 529.176,658.167 542.997,650.489 z" id="boundary" inkscape:connector-curvature="0" />
	<path style="fill:none;stroke:red;stroke-width:1px;stroke-linecap:butt;stroke-linejoin:miter;stroke-opacity:1" d="M 542.997,650.489 558.353,650.489 z" id="boundary" inkscape:connector-curvature="0" />
	<path style="fill:none;stroke:red;stroke-width:1px;stroke-linecap:butt;stroke-linejoin:miter;stroke-opacity:1" d="M 558.353,650.489 573.709,642.811 z" id="boundary" inkscape:connector-curvature="0" />
	<path style="fill:none;stroke:red;stroke-width:1px;stroke-linecap:butt;stroke-linejoin:miter;stroke-opacity:1" d="M 573.709,642.811 589.065,635.133 z" id="boundary" inkscape:connector-curvature="0" />
	<path style="fill:none;stroke:red;stroke-width:1px;stroke-linecap:butt;stroke-linejoin:miter;stroke-opacity:1" d="M 589.065,635.133 604.421,635.133 z" id="boundary" inkscape:connector-curvature="0" />
	<path style="fill:none;stroke:red;stroke-width:1px;stroke-linecap:butt;stroke-linejoin:miter;stroke-opacity:1" d="M 604.421,635.133 619.777,635.133 z" id="boundary" inkscape:connector-curvature="0" />
	<path style="fill:none;stroke:red;stroke-width:1px;stroke-linecap:butt;stroke-linejoin:miter;stroke-opacity:1" d="M 619.777,635.133 635.133,627.455 z" id="boundary" inkscape:connector-curvature="0" />
	<path style="fill:none;stroke:red;stroke-width:1px;stroke-linecap:butt;stroke-linejoin:miter;stroke-opacity:1" d="M 635.133,627.455 650.489,627.455 z" id="boundary" inkscape:connector-curvature="0" />
	<path style="fill:none;stroke:red;stroke-width:1px;stroke-linecap:butt;stroke-linejoin:miter;stroke-opacity:1" d="M 650.489,627.455 665.845,627.455 z" id="boundary" inkscape:connector-curvature="0" />
	<path style="fill:none;stroke:red;stroke-width:1px;stroke-linecap:butt;stroke-linejoin:miter;stroke-opacity:1" d="M 665.845,627.455 681.201,627.455 z" id="boundary" inkscape:connector-curvature="0" />
	<path style="fill:none;stroke:red;stroke-width:1px;stroke-linecap:butt;stroke-linejoin:miter;stroke-opacity:1" d="M 681.201,627.455 696.557,627.455 z" id="boundary" inkscape:connector-curvature="0" />
	<path style="fill:none;stroke:red;stroke-width:1px;stroke-linecap:butt;stroke-linejoin:miter;stroke-opacity:1" d="M 696.557,627.455 711.913,627.455 z" id="boundary" inkscape:connector-curvature="0" />
	<path style="fill:none;stroke:red;stroke-width:1px;stroke-linecap:butt;stroke-linejoin:miter;stroke-opacity:1" d="M 711.913,627.455 727.269,627.455 z" id="boundary" inkscape:connector-curvature="0" />
	<path style="fill:none;stroke:red;stroke-width:1px;stroke-linecap:butt;stroke-linejoin:miter;stroke-opacity:1" d="M 727.269,627.455 736.483,639.74 z" id="boundary" inkscape:connector-curvature="0" />
	<path style="fill:none;stroke:red;stroke-width:1px;stroke-linecap:butt;stroke-linejoin:miter;stroke-opacity:1" d="M 736.483,639.74 750.303,647.418 z" id="boundary" inkscape:connector-curvature="0" />
	<path style="fill:none;stroke:red;stroke-width:1px;stroke-linecap:butt;stroke-linejoin:miter;stroke-opacity:1" d="M 750.303,647.418 765.659,653.56 z" id="boundary" inkscape:connector-curvature="0" />
	<path style="fill:none;stroke:red;stroke-width:1px;stroke-linecap:butt;stroke-linejoin:miter;stroke-opacity:1" d="M 765.659,653.56 779.48,661.238 z" id="boundary" inkscape:connector-curvature="0" />
	<path style="fill:none;stroke:red;stroke-width:1px;stroke-linecap:butt;stroke-linejoin:miter;stroke-opacity:1" d="M 779.48,661.238 791.765,671.988 z" id="boundary" inkscape:connector-curvature="0" />
	<path style="fill:none;stroke:red;stroke-width:1px;stroke-linecap:butt;stroke-linejoin:miter;stroke-opacity:1" d="M 791.765,671.988 807.121,664.31 z" id="boundary" inkscape:connector-curvature="0" />
	<path style="fill:none;stroke:red;stroke-width:1px;stroke-linecap:butt;stroke-linejoin:miter;stroke-opacity:1" d="M 807.121,664.31 814.799,650.489 z" id="boundary" inkscape:connector-curvature="0" />
	<path style="fill:none;stroke:red;stroke-width:1px;stroke-linecap:butt;stroke-linejoin:miter;stroke-opacity:1" d="M 814.799,650.489 830.155,650.489 z" id="boundary" inkscape:connector-curvature="0" />
	<path style="fill:none;stroke:red;stroke-width:1px;stroke-linecap:butt;stroke-linejoin:miter;stroke-opacity:1" d="M 830.155,650.489 845.511,650.489 z" id="boundary" inkscape:connector-curvature="0" />
	<path style="fill:none;stroke:red;stroke-width:1px;stroke-linecap:butt;stroke-linejoin:miter;stroke-opacity:1" d="M 845.511,650.489 853.189,664.31 z" id="boundary" inkscape:connector-curvature="0" />
	<path style="fill:none;stroke:red;stroke-width:1px;stroke-linecap:butt;stroke-linejoin:miter;stroke-opacity:1" d="M 853.189,664.31 867.009,671.988 z" id="boundary" inkscape:connector-curvature="0" />
	<path style="fill:none;stroke:red;stroke-width:1px;stroke-linecap:butt;stroke-linejoin:miter;stroke-opacity:1" d="M 867.009,671.988 882.365,678.13 z" id="boundary" inkscape:connector-curvature="0" />
	<path style="fill:none;stroke:red;stroke-width:1px;stroke-linecap:butt;stroke-linejoin:miter;stroke-opacity:1" d="M 882.365,678.13 894.65,688.879 z" id="boundary" inkscape:connector-curvature="0" />
	<path style="fill:none;stroke:red;stroke-width:1px;stroke-linecap:butt;stroke-linejoin:miter;stroke-opacity:1" d="M 894.65,688.879 910.006,688.879 z" id="boundary" inkscape:connector-curvature="0" />
	<path style="fill:none;stroke:red;stroke-width:1px;stroke-linecap:butt;stroke-linejoin:miter;stroke-opacity:1" d="M 910.006,688.879 919.22,701.164 z" id="boundary" inkscape:connector-curvature="0" />
	<path style="fill:none;stroke:red;stroke-width:1px;stroke-linecap:butt;stroke-linejoin:miter;stroke-opacity:1" d="M 919.22,701.164 931.505,711.913 z" id="boundary" inkscape:connector-curvature="0" />
	<path style="fill:none;stroke:red;stroke-width:1px;stroke-linecap:butt;stroke-linejoin:miter;stroke-opacity:1" d="M 931.505,711.913 945.325,702.7 z" id="boundary" inkscape:connector-curvature="0" />
	<path style="fill:none;stroke:red;stroke-width:1px;stroke-linecap:butt;stroke-linejoin:miter;stroke-opacity:1" d="M 945.325,702.7 942.254,678.13 z" id="boundary" inkscape:connector-curvature="0" />
	<path style="fill:none;stroke:red;stroke-width:1px;stroke-linecap:butt;stroke-linejoin:miter;stroke-opacity:1" d="M 942.254,678.13 934.576,664.31 z" id="boundary" inkscape:connector-curvature="0" />
	<path style="fill:none;stroke:red;stroke-width:1px;stroke-linecap:butt;stroke-linejoin:miter;stroke-opacity:1" d="M 934.576,664.31 926.898,650.489 z" id="boundary" inkscape:connector-curvature="0" />
	<path style="fill:none;stroke:red;stroke-width:1px;stroke-linecap:butt;stroke-linejoin:miter;stroke-opacity:1" d="M 926.898,650.489 926.898,635.133 z" id="boundary" inkscape:connector-curvature="0" />
	<path style="fill:none;stroke:red;stroke-width:1px;stroke-linecap:butt;stroke-linejoin:miter;stroke-opacity:1" d="M 926.898,635.133 940.718,627.455 z" id="boundary" inkscape:connector-curvature="0" />
	<path style="fill:none;stroke:red;stroke-width:1px;stroke-linecap:butt;stroke-linejoin:miter;stroke-opacity:1" d="M 940.718,627.455 956.074,627.455 z" id="boundary" inkscape:connector-curvature="0" />
	<path style="fill:none;stroke:red;stroke-width:1px;stroke-linecap:butt;stroke-linejoin:miter;stroke-opacity:1" d="M 956.074,627.455 969.895,619.777 z" id="boundary" inkscape:connector-curvature="0" />
	<path style="fill:none;stroke:red;stroke-width:1px;stroke-linecap:butt;stroke-linejoin:miter;stroke-opacity:1" d="M 969.895,619.777 983.715,627.455 z" id="boundary" inkscape:connector-curvature="0" />
	<path style="fill:none;stroke:red;stroke-width:1px;stroke-linecap:butt;stroke-linejoin:miter;stroke-opacity:1" d="M 983.715,627.455 996,610.563 z" id="boundary" inkscape:connector-curvature="0" />
	<path style="fill:none;stroke:red;stroke-width:1px;stroke-linecap:butt;stroke-linejoin:miter;stroke-opacity:1" d="M 996,610.563 988.322,596.743 z" id="boundary" inkscape:connector-curvature="0" />
	<path style="fill:none;stroke:red;stroke-width:1px;stroke-linecap:butt;stroke-linejoin:miter;stroke-opacity:1" d="M 988.322,596.743 983.715,581.387 z" id="boundary" inkscape:connector-curvature="0" />
	<path style="fill:none;stroke:red;stroke-width:1px;stroke-linecap:butt;stroke-linejoin:miter;stroke-opacity:1" d="M 983.715,581.387 971.43,572.173 z" id="boundary" inkscape:connector-curvature="0" />
	<path style="fill:none;stroke:red;stroke-width:1px;stroke-linecap:butt;stroke-linejoin:miter;stroke-opacity:1" d="M 971.43,572.173 956.074,572.173 z" id="boundary" inkscape:connector-curvature="0" />
	<path style="fill:none;stroke:red;stroke-width:1px;stroke-linecap:butt;stroke-linejoin:miter;stroke-opacity:1" d="M 956.074,572.173 942.254,564.495 z" id="boundary" inkscape:connector-curvature="0" />
	<path style="fill:none;stroke:red;stroke-width:1px;stroke-linecap:butt;stroke-linejoin:miter;stroke-opacity:1" d="M 942.254,564.495 926.898,564.495 z" id="boundary" inkscape:connector-curvature="0" />
	<path style="fill:none;stroke:red;stroke-width:1px;stroke-linecap:butt;stroke-linejoin:miter;stroke-opacity:1" d="M 926.898,564.495 913.077,556.817 z" id="boundary" inkscape:connector-curvature="0" />
	<path style="fill:none;stroke:red;stroke-width:1px;stroke-linecap:butt;stroke-linejoin:miter;stroke-opacity:1" d="M 913.077,556.817 899.257,549.139 z" id="boundary" inkscape:connector-curvature="0" />
	<path style="fill:none;stroke:red;stroke-width:1px;stroke-linecap:butt;stroke-linejoin:miter;stroke-opacity:1" d="M 899.257,549.139 886.972,538.39 z" id="boundary" inkscape:connector-curvature="0" />
	<path style="fill:none;stroke:red;stroke-width:1px;stroke-linecap:butt;stroke-linejoin:miter;stroke-opacity:1" d="M 886.972,538.39 873.152,530.712 z" id="boundary" inkscape:connector-curvature="0" />
	<path style="fill:none;stroke:red;stroke-width:1px;stroke-linecap:butt;stroke-linejoin:miter;stroke-opacity:1" d="M 873.152,530.712 857.796,526.105 z" id="boundary" inkscape:connector-curvature="0" />
	<path style="fill:none;stroke:red;stroke-width:1px;stroke-linecap:butt;stroke-linejoin:miter;stroke-opacity:1" d="M 857.796,526.105 847.046,513.82 z" id="boundary" inkscape:connector-curvature="0" />
	<path style="fill:none;stroke:red;stroke-width:1px;stroke-linecap:butt;stroke-linejoin:miter;stroke-opacity:1" d="M 847.046,513.82 833.226,506.142 z" id="boundary" inkscape:connector-curvature="0" />
	<path style="fill:none;stroke:red;stroke-width:1px;stroke-linecap:butt;stroke-linejoin:miter;stroke-opacity:1" d="M 833.226,506.142 817.87,500 z" id="boundary" inkscape:connector-curvature="0" />
	<path style="fill:none;stroke:red;stroke-width:1px;stroke-linecap:butt;stroke-linejoin:miter;stroke-opacity:1" d="M 817.87,500 807.121,487.715 z" id="boundary" inkscape:connector-curvature="0" />
	<path style="fill:none;stroke:red;stroke-width:1px;stroke-linecap:butt;stroke-linejoin:miter;stroke-opacity:1" d="M 807.121,487.715 791.765,487.715 z" id="boundary" inkscape:connector-curvature="0" />
	<path style="fill:none;stroke:red;stroke-width:1px;stroke-linecap:butt;stroke-linejoin:miter;stroke-opacity:1" d="M 791.765,487.715 779.48,476.966 z" id="boundary" inkscape:connector-curvature="0" />
	<path style="fill:none;stroke:red;stroke-width:1px;stroke-linecap:butt;stroke-linejoin:miter;stroke-opacity:1" d="M 779.48,476.966 768.731,464.681 z" id="boundary" inkscape:connector-curvature="0" />
	<path style="fill:none;stroke:red;stroke-width:1px;stroke-linecap:butt;stroke-linejoin:miter;stroke-opacity:1" d="M 768.731,464.681 753.375,458.539 z" id="boundary" inkscape:connector-curvature="0" />
	<path style="fill:none;stroke:red;stroke-width:1px;stroke-linecap:butt;stroke-linejoin:miter;stroke-opacity:1" d="M 753.375,458.539 741.09,449.325 z" id="boundary" inkscape:connector-curvature="0" />
	<path style="fill:none;stroke:red;stroke-width:1px;stroke-linecap:butt;stroke-linejoin:miter;stroke-opacity:1" d="M 741.09,449.325 727.269,441.647 z" id="boundary" inkscape:connector-curvature="0" />
	<path style="fill:none;stroke:red;stroke-width:1px;stroke-linecap:butt;stroke-linejoin:miter;stroke-opacity:1" d="M 727.269,441.647 718.056,429.362 z" id="boundary" inkscape:connector-curvature="0" />
	<path style="fill:none;stroke:red;stroke-width:1px;stroke-linecap:butt;stroke-linejoin:miter;stroke-opacity:1" d="M 718.056,429.362 705.771,418.613 z" id="boundary" inkscape:connector-curvature="0" />
	<path style="fill:none;stroke:red;stroke-width:1px;stroke-linecap:butt;stroke-linejoin:miter;stroke-opacity:1" d="M 705.771,418.613 691.95,410.935 z" id="boundary" inkscape:connector-curvature="0" />
	<path style="fill:none;stroke:red;stroke-width:1px;stroke-linecap:butt;stroke-linejoin:miter;stroke-opacity:1" d="M 691.95,410.935 676.594,404.793 z" id="boundary" inkscape:connector-curvature="0" />
	<path style="fill:none;stroke:red;stroke-width:1px;stroke-linecap:butt;stroke-linejoin:miter;stroke-opacity:1" d="M 676.594,404.793 665.845,392.508 z" id="boundary" inkscape:connector-curvature="0" />
	<path style="fill:none;stroke:red;stroke-width:1px;stroke-linecap:butt;stroke-linejoin:miter;stroke-opacity:1" d="M 665.845,392.508 653.56,381.759 z" id="boundary" inkscape:connector-curvature="0" />
	<path style="fill:none;stroke:red;stroke-width:1px;stroke-linecap:butt;stroke-linejoin:miter;stroke-opacity:1" d="M 653.56,381.759 642.811,369.474 z" id="boundary" inkscape:connector-curvature="0" />
	<path style="fill:none;stroke:red;stroke-width:1px;stroke-linecap:butt;stroke-linejoin:miter;stroke-opacity:1" d="M 642.811,369.474 627.455,364.867 z" id="boundary" inkscape:connector-curvature="0" />
	<path style="fill:none;stroke:red;stroke-width:1px;stroke-linecap:butt;stroke-linejoin:miter;stroke-opacity:1" d="M 627.455,364.867 618.241,352.582 z" id="boundary" inkscape:connector-curvature="0" />
	<path style="fill:none;stroke:red;stroke-width:1px;stroke-linecap:butt;stroke-linejoin:miter;stroke-opacity:1" d="M 618.241,352.582 602.885,349.511 z" id="boundary" inkscape:connector-curvature="0" />
	<path style="fill:none;stroke:red;stroke-width:1px;stroke-linecap:butt;stroke-linejoin:miter;stroke-opacity:1" d="M 602.885,349.511 587.529,344.904 z" id="boundary" inkscape:connector-curvature="0" />
	<path style="fill:none;stroke:red;stroke-width:1px;stroke-linecap:butt;stroke-linejoin:miter;stroke-opacity:1" d="M 587.529,344.904 575.245,334.155 z" id="boundary" inkscape:connector-curvature="0" />
	<path style="fill:none;stroke:red;stroke-width:1px;stroke-linecap:butt;stroke-linejoin:miter;stroke-opacity:1" d="M 575.245,334.155 561.424,326.477 z" id="boundary" inkscape:connector-curvature="0" />
	<path style="fill:none;stroke:red;stroke-width:1px;stroke-linecap:butt;stroke-linejoin:miter;stroke-opacity:1" d="M 561.424,326.477 546.068,326.477 z" id="boundary" inkscape:connector-curvature="0" />
	<path style="fill:none;stroke:red;stroke-width:1px;stroke-linecap:butt;stroke-linejoin:miter;stroke-opacity:1" d="M 546.068,326.477 532.248,318.799 z" id="boundary" inkscape:connector-curvature="0" />
	<path style="fill:none;stroke:red;stroke-width:1px;stroke-linecap:butt;stroke-linejoin:miter;stroke-opacity:1" d="M 532.248,318.799 516.892,314.192 z" id="boundary" inkscape:connector-curvature="0" />
	<path style="fill:none;stroke:red;stroke-width:1px;stroke-linecap:butt;stroke-linejoin:miter;stroke-opacity:1" d="M 516.892,314.192 503.071,306.514 z" id="boundary" inkscape:connector-curvature="0" />
	<path style="fill:none;stroke:red;stroke-width:1px;stroke-linecap:butt;stroke-linejoin:miter;stroke-opacity:1" d="M 503.071,306.514 487.715,303.443 z" id="boundary" inkscape:connector-curvature="0" />
	<path style="fill:none;stroke:red;stroke-width:1px;stroke-linecap:butt;stroke-linejoin:miter;stroke-opacity:1" d="M 487.715,303.443 472.359,303.443 z" id="boundary" inkscape:connector-curvature="0" />
	<path style="fill:none;stroke:red;stroke-width:1px;stroke-linecap:butt;stroke-linejoin:miter;stroke-opacity:1" d="M 472.359,303.443 457.003,303.443 z" id="boundary" inkscape:connector-curvature="0" />
	<path style="fill:none;stroke:red;stroke-width:1px;stroke-linecap:butt;stroke-linejoin:miter;stroke-opacity:1" d="M 457.003,303.443 441.647,303.443 z" id="boundary" inkscape:connector-curvature="0" />
	<path style="fill:none;stroke:red;stroke-width:1px;stroke-linecap:butt;stroke-linejoin:miter;stroke-opacity:1" d="M 441.647,303.443 426.291,303.443 z" id="boundary" inkscape:connector-curvature="0" />
	<path style="fill:none;stroke:red;stroke-width:1px;stroke-linecap:butt;stroke-linejoin:miter;stroke-opacity:1" d="M 426.291,303.443 410.935,303.443 z" id="boundary" inkscape:connector-curvature="0" />
	<path style="fill:none;stroke:red;stroke-width:1px;stroke-linecap:butt;stroke-linejoin:miter;stroke-opacity:1" d="M 410.935,303.443 395.579,303.443 z" id="boundary" inkscape:connector-curvature="0" />
	<path style="fill:none;stroke:red;stroke-width:1px;stroke-linecap:butt;stroke-linejoin:miter;stroke-opacity:1" d="M 395.579,303.443 380.223,303.443 z" id="boundary" inkscape:connector-curvature="0" />
	<path style="fill:none;stroke:red;stroke-width:1px;stroke-linecap:butt;stroke-linejoin:miter;stroke-opacity:1" d="M 380.223,303.443 364.867,303.443 z" id="boundary" inkscape:connector-curvature="0" />
	<path style="fill:none;stroke:red;stroke-width:1px;stroke-linecap:butt;stroke-linejoin:miter;stroke-opacity:1" d="M 364.867,303.443 349.511,303.443 z" id="boundary" inkscape:connector-curvature="0" />
	<path style="fill:none;stroke:red;stroke-width:1px;stroke-linecap:butt;stroke-linejoin:miter;stroke-opacity:1" d="M 349.511,303.443 334.155,303.443 z" id="boundary" inkscape:connector-curvature="0" />
	<path style="fill:none;stroke:red;stroke-width:1px;stroke-linecap:butt;stroke-linejoin:miter;stroke-opacity:1" d="M 334.155,303.443 318.799,303.443 z" id="boundary" inkscape:connector-curvature="0" />
	<path style="fill:none;stroke:red;stroke-width:1px;stroke-linecap:butt;stroke-linejoin:miter;stroke-opacity:1" d="M 318.799,303.443 303.443,303.443 z" id="boundary" inkscape:connector-curvature="0" />
	<path style="fill:none;stroke:red;stroke-width:1px;stroke-linecap:butt;stroke-linejoin:miter;stroke-opacity:1" d="M 303.443,303.443 289.622,311.121 z" id="boundary" inkscape:connector-curvature="0" />
	<path style="fill:none;stroke:red;stroke-width:1px;stroke-linecap:butt;stroke-linejoin:miter;stroke-opacity:1" d="M 289.622,311.121 274.266,314.192 z" id="boundary" inkscape:connector-curvature="0" />
	<path style="fill:none;stroke:red;stroke-width:1px;stroke-linecap:butt;stroke-linejoin:miter;stroke-opacity:1" d="M 274.266,314.192 258.91,321.87 z" id="boundary" inkscape:connector-curvature="0" />
	<path style="fill:none;stroke:red;stroke-width:1px;stroke-linecap:butt;stroke-linejoin:miter;stroke-opacity:1" d="M 258.91,321.87 246.625,334.155 z" id="boundary" inkscape:connector-curvature="0" />
	<path style="fill:none;stroke:red;stroke-width:1px;stroke-linecap:butt;stroke-linejoin:miter;stroke-opacity:1" d="M 246.625,334.155 238.947,349.511 z" id="boundary" inkscape:connector-curvature="0" />
	<path style="fill:none;stroke:red;stroke-width:1px;stroke-linecap:butt;stroke-linejoin:miter;stroke-opacity:1" d="M 238.947,349.511 223.591,349.511 z" id="boundary" inkscape:connector-curvature="0" />
	<path style="fill:none;stroke:red;stroke-width:1px;stroke-linecap:butt;stroke-linejoin:miter;stroke-opacity:1" d="M 223.591,349.511 215.913,364.867 z" id="boundary" inkscape:connector-curvature="0" />
	<path style="fill:none;stroke:red;stroke-width:1px;stroke-linecap:butt;stroke-linejoin:miter;stroke-opacity:1" d="M 215.913,364.867 203.628,377.152 z" id="boundary" inkscape:connector-curvature="0" />
	<path style="fill:none;stroke:red;stroke-width:1px;stroke-linecap:butt;stroke-linejoin:miter;stroke-opacity:1" d="M 203.628,377.152 195.95,400.186 z" id="boundary" inkscape:connector-curvature="0" />
	<path style="fill:none;stroke:red;stroke-width:1px;stroke-linecap:butt;stroke-linejoin:miter;stroke-opacity:1" d="M 195.95,400.186 188.272,423.22 z" id="boundary" inkscape:connector-curvature="0" />
	<path style="fill:none;stroke:red;stroke-width:1px;stroke-linecap:butt;stroke-linejoin:miter;stroke-opacity:1" d="M 188.272,423.22 180.594,446.254 z" id="boundary" inkscape:connector-curvature="0" />
	<path style="fill:none;stroke:red;stroke-width:1px;stroke-linecap:butt;stroke-linejoin:miter;stroke-opacity:1" d="M 180.594,446.254 175.988,473.895 z" id="boundary" inkscape:connector-curvature="0" />
	<path style="fill:none;stroke:red;stroke-width:1px;stroke-linecap:butt;stroke-linejoin:miter;stroke-opacity:1" d="M 175.988,473.895 166.774,487.715 z" id="boundary" inkscape:connector-curvature="0" />
	<path style="fill:none;stroke:red;stroke-width:1px;stroke-linecap:butt;stroke-linejoin:miter;stroke-opacity:1" d="M 166.774,487.715 151.418,487.715 z" id="boundary" inkscape:connector-curvature="0" />
	<path style="fill:none;stroke:red;stroke-width:1px;stroke-linecap:butt;stroke-linejoin:miter;stroke-opacity:1" d="M 151.418,487.715 136.062,481.573 z" id="boundary" inkscape:connector-curvature="0" />
	<path style="fill:none;stroke:red;stroke-width:1px;stroke-linecap:butt;stroke-linejoin:miter;stroke-opacity:1" d="M 136.062,481.573 136.062,466.217 z" id="boundary" inkscape:connector-curvature="0" />
	<path style="fill:none;stroke:red;stroke-width:1px;stroke-linecap:butt;stroke-linejoin:miter;stroke-opacity:1" d="M 136.062,466.217 143.74,450.861 z" id="boundary" inkscape:connector-curvature="0" />
	<path style="fill:none;stroke:red;stroke-width:1px;stroke-linecap:butt;stroke-linejoin:miter;stroke-opacity:1" d="M 143.74,450.861 143.74,435.505 z" id="boundary" inkscape:connector-curvature="0" />
	<path style="fill:none;stroke:red;stroke-width:1px;stroke-linecap:butt;stroke-linejoin:miter;stroke-opacity:1" d="M 143.74,435.505 143.74,420.149 z" id="boundary" inkscape:connector-curvature="0" />
	<path style="fill:none;stroke:red;stroke-width:1px;stroke-linecap:butt;stroke-linejoin:miter;stroke-opacity:1" d="M 143.74,420.149 156.025,409.399 z" id="boundary" inkscape:connector-curvature="0" />
	<path style="fill:none;stroke:red;stroke-width:1px;stroke-linecap:butt;stroke-linejoin:miter;stroke-opacity:1" d="M 156.025,409.399 163.703,394.043 z" id="boundary" inkscape:connector-curvature="0" />
	<path style="fill:none;stroke:red;stroke-width:1px;stroke-linecap:butt;stroke-linejoin:miter;stroke-opacity:1" d="M 163.703,394.043 171.381,378.687 z" id="boundary" inkscape:connector-curvature="0" />
	<path style="fill:none;stroke:red;stroke-width:1px;stroke-linecap:butt;stroke-linejoin:miter;stroke-opacity:1" d="M 171.381,378.687 174.452,351.046 z" id="boundary" inkscape:connector-curvature="0" />
	<path style="fill:none;stroke:red;stroke-width:1px;stroke-linecap:butt;stroke-linejoin:miter;stroke-opacity:1" d="M 174.452,351.046 186.737,340.297 z" id="boundary" inkscape:connector-curvature="0" />
	<path style="fill:none;stroke:red;stroke-width:1px;stroke-linecap:butt;stroke-linejoin:miter;stroke-opacity:1" d="M 186.737,340.297 197.486,328.012 z" id="boundary" inkscape:connector-curvature="0" />
	<path style="fill:none;stroke:red;stroke-width:1px;stroke-linecap:butt;stroke-linejoin:miter;stroke-opacity:1" d="M 197.486,328.012 197.486,312.656 z" id="boundary" inkscape:connector-curvature="0" />
	<path style="fill:none;stroke:red;stroke-width:1px;stroke-linecap:butt;stroke-linejoin:miter;stroke-opacity:1" d="M 197.486,312.656 205.164,297.3 z" id="boundary" inkscape:connector-curvature="0" />
	<path style="fill:none;stroke:red;stroke-width:1px;stroke-linecap:butt;stroke-linejoin:miter;stroke-opacity:1" d="M 205.164,297.3 217.449,286.551 z" id="boundary" inkscape:connector-curvature="0" />
	<path style="fill:none;stroke:red;stroke-width:1px;stroke-linecap:butt;stroke-linejoin:miter;stroke-opacity:1" d="M 217.449,286.551 225.127,271.195 z" id="boundary" inkscape:connector-curvature="0" />
	<path style="fill:none;stroke:red;stroke-width:1px;stroke-linecap:butt;stroke-linejoin:miter;stroke-opacity:1" d="M 225.127,271.195 232.805,255.839 z" id="boundary" inkscape:connector-curvature="0" />
	<path style="fill:none;stroke:red;stroke-width:1px;stroke-linecap:butt;stroke-linejoin:miter;stroke-opacity:1" d="M 232.805,255.839 243.554,243.554 z" id="boundary" inkscape:connector-curvature="0" />
	<path style="fill:none;stroke:red;stroke-width:1px;stroke-linecap:butt;stroke-linejoin:miter;stroke-opacity:1" d="M 243.554,243.554 243.554,228.198 z" id="boundary" inkscape:connector-curvature="0" />
	<path style="fill:none;stroke:red;stroke-width:1px;stroke-linecap:butt;stroke-linejoin:miter;stroke-opacity:1" d="M 243.554,228.198 243.554,212.842 z" id="boundary" inkscape:connector-curvature="0" />
	<path style="fill:none;stroke:red;stroke-width:1px;stroke-linecap:butt;stroke-linejoin:miter;stroke-opacity:1" d="M 243.554,212.842 251.232,199.022 z" id="boundary" inkscape:connector-curvature="0" />
	<path style="fill:none;stroke:red;stroke-width:1px;stroke-linecap:butt;stroke-linejoin:miter;stroke-opacity:1" d="M 251.232,199.022 251.232,183.666 z" id="boundary" inkscape:connector-curvature="0" />
	<path style="fill:none;stroke:red;stroke-width:1px;stroke-linecap:butt;stroke-linejoin:miter;stroke-opacity:1" d="M 251.232,183.666 251.232,168.31 z" id="boundary" inkscape:connector-curvature="0" />
	<path style="fill:none;stroke:red;stroke-width:1px;stroke-linecap:butt;stroke-linejoin:miter;stroke-opacity:1" d="M 251.232,168.31 251.232,152.954 z" id="boundary" inkscape:connector-curvature="0" />
	<path style="fill:none;stroke:red;stroke-width:1px;stroke-linecap:butt;stroke-linejoin:miter;stroke-opacity:1" d="M 251.232,152.954 248.161,137.598 z" id="boundary" inkscape:connector-curvature="0" />
	<path style="fill:none;stroke:red;stroke-width:1px;stroke-linecap:butt;stroke-linejoin:miter;stroke-opacity:1" d="M 248.161,137.598 243.554,122.241 z" id="boundary" inkscape:connector-curvature="0" />
	<path style="fill:none;stroke:red;stroke-width:1px;stroke-linecap:butt;stroke-linejoin:miter;stroke-opacity:1" d="M 243.554,122.241 243.554,106.885 z" id="boundary" inkscape:connector-curvature="0" />
	<path style="fill:none;stroke:red;stroke-width:1px;stroke-linecap:butt;stroke-linejoin:miter;stroke-opacity:1" d="M 243.554,106.885 243.554,91.5294 z" id="boundary" inkscape:connector-curvature="0" />
	<path style="fill:none;stroke:red;stroke-width:1px;stroke-linecap:butt;stroke-linejoin:miter;stroke-opacity:1" d="M 243.554,91.5294 240.483,76.1734 z" id="boundary" inkscape:connector-curvature="0" />
	<path style="fill:none;stroke:red;stroke-width:1px;stroke-linecap:butt;stroke-linejoin:miter;stroke-opacity:1" d="M 240.483,76.1734 235.876,60.8173 z" id="boundary" inkscape:connector-curvature="0" />
	<path style="fill:none;stroke:red;stroke-width:1px;stroke-linecap:butt;stroke-linejoin:miter;stroke-opacity:1" d="M 235.876,60.8173 234.341,45.4613 z" id="boundary" inkscape:connector-curvature="0" />
	<path style="fill:none;stroke:red;stroke-width:1px;stroke-linecap:butt;stroke-linejoin:miter;stroke-opacity:1" d="M 234.341,45.4613 218.985,39.3189 z" id="boundary" inkscape:connector-curvature="0" />
	<path style="fill:none;stroke:red;stroke-width:1px;stroke-linecap:butt;stroke-linejoin:miter;stroke-opacity:1" d="M 218.985,39.3189 212.842,23.9628 z" id="boundary" inkscape:connector-curvature="0" />
	<path style="fill:none;stroke:red;stroke-width:1px;stroke-linecap:butt;stroke-linejoin:miter;stroke-opacity:1" d="M 212.842,23.9628 197.486,19.356 z" id="boundary" inkscape:connector-curvature="0" />
	<path style="fill:none;stroke:red;stroke-width:1px;stroke-linecap:butt;stroke-linejoin:miter;stroke-opacity:1" d="M 197.486,19.356 183.666,11.678 z" id="boundary" inkscape:connector-curvature="0" />
	<path style="fill:none;stroke:red;stroke-width:1px;stroke-linecap:butt;stroke-linejoin:miter;stroke-opacity:1" d="M 183.666,11.678 169.845,4 z" id="boundary" inkscape:connector-curvature="0" />
	<path style="fill:none;stroke:red;stroke-width:1px;stroke-linecap:butt;stroke-linejoin:miter;stroke-opacity:1" d="M 169.845,4 154.489,4 z" id="boundary" inkscape:connector-curvature="0" />
	<path style="fill:none;stroke:red;stroke-width:1px;stroke-linecap:butt;stroke-linejoin:miter;stroke-opacity:1" d="M 154.489,4 139.133,4 z" id="boundary" inkscape:connector-curvature="0" />
	<path style="fill:none;stroke:red;stroke-width:1px;stroke-linecap:butt;stroke-linejoin:miter;stroke-opacity:1" d="M 139.133,4 123.777,4 z" id="boundary" inkscape:connector-curvature="0" />
	<path style="fill:none;stroke:red;stroke-width:1px;stroke-linecap:butt;stroke-linejoin:miter;stroke-opacity:1" d="M 123.777,4 108.421,4 z" id="boundary" inkscape:connector-curvature="0" />
	<path style="fill:none;stroke:red;stroke-width:1px;stroke-linecap:butt;stroke-linejoin:miter;stroke-opacity:1" d="M 108.421,4 93.065,11.678 z" id="boundary" inkscape:connector-curvature="0" />
	<path style="fill:none;stroke:red;stroke-width:1px;stroke-linecap:butt;stroke-linejoin:miter;stroke-opacity:1" d="M 93.065,11.678 80.7802,23.9628 z" id="boundary" inkscape:connector-curvature="0" />
	<path style="fill:none;stroke:red;stroke-width:1px;stroke-linecap:butt;stroke-linejoin:miter;stroke-opacity:1" d="M 80.7802,23.9628 73.1022,39.3189 z" id="boundary" inkscape:connector-curvature="0" />
	<path style="fill:none;stroke:red;stroke-width:1px;stroke-linecap:butt;stroke-linejoin:miter;stroke-opacity:1" d="M 73.1022,39.3189 65.4241,62.3529 z" id="boundary" inkscape:connector-curvature="0" />
	<path style="fill:none;stroke:red;stroke-width:1px;stroke-linecap:butt;stroke-linejoin:miter;stroke-opacity:1" d="M 54.6749,88.4582 65.4241,62.3529 z" id="boundary" inkscape:connector-curvature="0" />
	<path style="fill:none;stroke:red;stroke-width:1px;stroke-linecap:butt;stroke-linejoin:miter;stroke-opacity:1" d="M 427.827,949.932 418.613,937.647 z" id="boundary" inkscape:connector-curvature="0" />
	<path style="fill:none;stroke:red;stroke-width:1px;stroke-linecap:butt;stroke-linejoin:miter;stroke-opacity:1" d="M 427.827,949.932 441.647,957.61 z" id="boundary" inkscape:connector-curvature="0" />
	<path style="fill:none;stroke:red;stroke-width:1px;stroke-linecap:butt;stroke-linejoin:miter;stroke-opacity:1" d="M 441.647,957.61 457.003,953.003 z" id="boundary" inkscape:connector-curvature="0" />
	<path style="fill:none;stroke:red;stroke-width:1px;stroke-linecap:butt;stroke-linejoin:miter;stroke-opacity:1" d="M 457.003,953.003 463.146,926.898 z" id="boundary" inkscape:connector-curvature="0" />
	<circle cx="4" cy="162.167" r="4" fill="#0" id="circle0"/>
	<circle cx="4" cy="177.523" r="4" fill="#0" id="circle1"/>
	<circle cx="4" cy="192.879" r="4" fill="#0" id="circle2"/>
	<circle cx="4" cy="208.235" r="4" fill="#0" id="circle3"/>
	<circle cx="11.678" cy="222.056" r="4" fill="#0" id="circle4"/>
	<circle cx="16.2848" cy="149.882" r="4" fill="#0" id="circle5"/>
	<circle cx="19.356" cy="235.876" r="4" fill="#0" id="circle6"/>
	<circle cx="19.356" cy="251.232" r="4" fill="#0" id="circle7"/>
	<circle cx="27.0341" cy="131.455" r="4" fill="#0" id="circle8"/>
	<circle cx="27.0341" cy="265.053" r="4" fill="#0" id="circle9"/>
	<circle cx="30.1053" cy="280.409" r="4" fill="#0" id="circle10"/>
	<circle cx="34.7121" cy="116.099" r="4" fill="#0" id="circle11"/>
	<circle cx="42.3901" cy="100.743" r="4" fill="#0" id="circle12"/>
	<circle cx="42.3901" cy="289.622" r="4" fill="#0" id="circle13"/>
	<circle cx="50.0681" cy="453.932" r="4" fill="#0" id="circle14"/>
	<circle cx="50.0681" cy="469.288" r="4" fill="#0" id="circle15"/>
	<circle cx="50.0681" cy="484.644" r="4" fill="#0" id="circle16"/>
	<circle cx="50.0681" cy="500" r="4" fill="#0" id="circle17"/>
	<circle cx="54.6749" cy="88.4582" r="4" fill="#0" id="circle18"/>
	<circle cx="57.7461" cy="292.693" r="4" fill="#0" id="circle19"/>
	<circle cx="57.7461" cy="430.898" r="4" fill="#0" id="circle20"/>
	<circle cx="57.7461" cy="513.82" r="4" fill="#0" id="circle21"/>
	<circle cx="65.4241" cy="62.3529" r="4" fill="#0" id="circle22"/>
	<circle cx="65.4241" cy="415.542" r="4" fill="#0" id="circle23"/>
	<circle cx="65.4241" cy="527.641" r="4" fill="#0" id="circle24"/>
	<circle cx="66.9598" cy="212.842" r="4" fill="#0" id="circle25"/>
	<circle cx="66.9598" cy="228.198" r="4" fill="#0" id="circle26"/>
	<circle cx="66.9598" cy="243.554" r="4" fill="#0" id="circle27"/>
	<circle cx="66.9598" cy="258.91" r="4" fill="#0" id="circle28"/>
	<circle cx="66.9598" cy="274.266" r="4" fill="#0" id="circle29"/>
	<circle cx="73.1022" cy="39.3189" r="4" fill="#0" id="circle30"/>
	<circle cx="73.1022" cy="400.186" r="4" fill="#0" id="circle31"/>
	<circle cx="73.1022" cy="541.461" r="4" fill="#0" id="circle32"/>
	<circle cx="74.6378" cy="197.486" r="4" fill="#0" id="circle33"/>
	<circle cx="80.7802" cy="23.9628" r="4" fill="#0" id="circle34"/>
	<circle cx="80.7802" cy="384.83" r="4" fill="#0" id="circle35"/>
	<circle cx="82.3158" cy="174.452" r="4" fill="#0" id="circle36"/>
	<circle cx="82.3158" cy="553.746" r="4" fill="#0" id="circle37"/>
	<circle cx="89.9938" cy="159.096" r="4" fill="#0" id="circle38"/>
	<circle cx="93.065" cy="11.678" r="4" fill="#0" id="circle39"/>
	<circle cx="93.065" cy="372.545" r="4" fill="#0" id="circle40"/>
	<circle cx="96.1362" cy="561.424" r="4" fill="#0" id="circle41"/>
	<circle cx="103.814" cy="354.118" r="4" fill="#0" id="circle42"/>
	<circle cx="103.814" cy="575.245" r="4" fill="#0" id="circle43"/>
	<circle cx="105.35" cy="143.74" r="4" fill="#0" id="circle44"/>
	<circle cx="108.421" cy="4" r="4" fill="#0" id="circle45"/>
	<circle cx="111.492" cy="338.762" r="4" fill="#0" id="circle46"/>
	<circle cx="111.492" cy="589.065" r="4" fill="#0" id="circle47"/>
	<circle cx="119.17" cy="323.406" r="4" fill="#0" id="circle48"/>
	<circle cx="120.706" cy="143.74" r="4" fill="#0" id="circle49"/>
	<circle cx="120.706" cy="601.35" r="4" fill="#0" id="circle50"/>
	<circle cx="123.777" cy="4" r="4" fill="#0" id="circle51"/>
	<circle cx="131.455" cy="311.121" r="4" fill="#0" id="circle52"/>
	<circle cx="132.991" cy="612.099" r="4" fill="#0" id="circle53"/>
	<circle cx="136.062" cy="136.062" r="4" fill="#0" id="circle54"/>
	<circle cx="136.062" cy="466.217" r="4" fill="#0" id="circle55"/>
	<circle cx="136.062" cy="481.573" r="4" fill="#0" id="circle56"/>
	<circle cx="139.133" cy="4" r="4" fill="#0" id="circle57"/>
	<circle cx="139.133" cy="295.765" r="4" fill="#0" id="circle58"/>
	<circle cx="143.74" cy="420.149" r="4" fill="#0" id="circle59"/>
	<circle cx="143.74" cy="435.505" r="4" fill="#0" id="circle60"/>
	<circle cx="143.74" cy="450.861" r="4" fill="#0" id="circle61"/>
	<circle cx="146.811" cy="619.777" r="4" fill="#0" id="circle62"/>
	<circle cx="148.347" cy="125.313" r="4" fill="#0" id="circle63"/>
	<circle cx="151.418" cy="283.48" r="4" fill="#0" id="circle64"/>
	<circle cx="151.418" cy="487.715" r="4" fill="#0" id="circle65"/>
	<circle cx="154.489" cy="4" r="4" fill="#0" id="circle66"/>
	<circle cx="156.025" cy="409.399" r="4" fill="#0" id="circle67"/>
	<circle cx="159.096" cy="268.124" r="4" fill="#0" id="circle68"/>
	<circle cx="162.167" cy="619.777" r="4" fill="#0" id="circle69"/>
	<circle cx="163.703" cy="117.635" r="4" fill="#0" id="circle70"/>
	<circle cx="163.703" cy="394.043" r="4" fill="#0" id="circle71"/>
	<circle cx="166.774" cy="252.768" r="4" fill="#0" id="circle72"/>
	<circle cx="166.774" cy="487.715" r="4" fill="#0" id="circle73"/>
	<circle cx="169.845" cy="4" r="4" fill="#0" id="circle74"/>
	<circle cx="171.381" cy="378.687" r="4" fill="#0" id="circle75"/>
	<circle cx="172.916" cy="231.269" r="4" fill="#0" id="circle76"/>
	<circle cx="174.452" cy="351.046" r="4" fill="#0" id="circle77"/>
	<circle cx="175.988" cy="473.895" r="4" fill="#0" id="circle78"/>
	<circle cx="175.988" cy="627.455" r="4" fill="#0" id="circle79"/>
	<circle cx="179.059" cy="113.028" r="4" fill="#0" id="circle80"/>
	<circle cx="180.594" cy="208.235" r="4" fill="#0" id="circle81"/>
	<circle cx="180.594" cy="446.254" r="4" fill="#0" id="circle82"/>
	<circle cx="183.666" cy="11.678" r="4" fill="#0" id="circle83"/>
	<circle cx="186.737" cy="340.297" r="4" fill="#0" id="circle84"/>
	<circle cx="188.272" cy="125.313" r="4" fill="#0" id="circle85"/>
	<circle cx="188.272" cy="140.669" r="4" fill="#0" id="circle86"/>
	<circle cx="188.272" cy="156.025" r="4" fill="#0" id="circle87"/>
	<circle cx="188.272" cy="171.381" r="4" fill="#0" id="circle88"/>
	<circle cx="188.272" cy="186.737" r="4" fill="#0" id="circle89"/>
	<circle cx="188.272" cy="423.22" r="4" fill="#0" id="circle90"/>
	<circle cx="191.344" cy="627.455" r="4" fill="#0" id="circle91"/>
	<circle cx="195.95" cy="400.186" r="4" fill="#0" id="circle92"/>
	<circle cx="197.486" cy="19.356" r="4" fill="#0" id="circle93"/>
	<circle cx="197.486" cy="312.656" r="4" fill="#0" id="circle94"/>
	<circle cx="197.486" cy="328.012" r="4" fill="#0" id="circle95"/>
	<circle cx="203.628" cy="377.152" r="4" fill="#0" id="circle96"/>
	<circle cx="205.164" cy="297.3" r="4" fill="#0" id="circle97"/>
	<circle cx="205.164" cy="619.777" r="4" fill="#0" id="circle98"/>
	<circle cx="212.842" cy="23.9628" r="4" fill="#0" id="circle99"/>
	<circle cx="215.913" cy="364.867" r="4" fill="#0" id="circle100"/>
	<circle cx="217.449" cy="286.551" r="4" fill="#0" id="circle101"/>
	<circle cx="218.985" cy="39.3189" r="4" fill="#0" id="circle102"/>
	<circle cx="220.52" cy="619.777" r="4" fill="#0" id="circle103"/>
	<circle cx="223.591" cy="349.511" r="4" fill="#0" id="circle104"/>
	<circle cx="225.127" cy="271.195" r="4" fill="#0" id="circle105"/>
	<circle cx="232.805" cy="255.839" r="4" fill="#0" id="circle106"/>
	<circle cx="234.341" cy="45.4613" r="4" fill="#0" id="circle107"/>
	<circle cx="235.876" cy="60.8173" r="4" fill="#0" id="circle108"/>
	<circle cx="235.876" cy="619.777" r="4" fill="#0" id="circle109"/>
	<circle cx="238.947" cy="349.511" r="4" fill="#0" id="circle110"/>
	<circle cx="240.483" cy="76.1734" r="4" fill="#0" id="circle111"/>
	<circle cx="243.554" cy="91.5294" r="4" fill="#0" id="circle112"/>
	<circle cx="243.554" cy="106.885" r="4" fill="#0" id="circle113"/>
	<circle cx="243.554" cy="122.241" r="4" fill="#0" id="circle114"/>
	<circle cx="243.554" cy="212.842" r="4" fill="#0" id="circle115"/>
	<circle cx="243.554" cy="228.198" r="4" fill="#0" id="circle116"/>
	<circle cx="243.554" cy="243.554" r="4" fill="#0" id="circle117"/>
	<circle cx="246.625" cy="334.155" r="4" fill="#0" id="circle118"/>
	<circle cx="248.161" cy="137.598" r="4" fill="#0" id="circle119"/>
	<circle cx="249.697" cy="612.099" r="4" fill="#0" id="circle120"/>
	<circle cx="251.232" cy="152.954" r="4" fill="#0" id="circle121"/>
	<circle cx="251.232" cy="168.31" r="4" fill="#0" id="circle122"/>
	<circle cx="251.232" cy="183.666" r="4" fill="#0" id="circle123"/>
	<circle cx="251.232" cy="199.022" r="4" fill="#0" id="circle124"/>
	<circle cx="258.91" cy="321.87" r="4" fill="#0" id="circle125"/>
	<circle cx="263.517" cy="604.421" r="4" fill="#0" id="circle126"/>
	<circle cx="274.266" cy="314.192" r="4" fill="#0" id="circle127"/>
	<circle cx="278.873" cy="604.421" r="4" fill="#0" id="circle128"/>
	<circle cx="289.622" cy="311.121" r="4" fill="#0" id="circle129"/>
	<circle cx="292.693" cy="612.099" r="4" fill="#0" id="circle130"/>
	<circle cx="303.443" cy="303.443" r="4" fill="#0" id="circle131"/>
	<circle cx="308.05" cy="618.241" r="4" fill="#0" id="circle132"/>
	<circle cx="318.799" cy="303.443" r="4" fill="#0" id="circle133"/>
	<circle cx="320.334" cy="627.455" r="4" fill="#0" id="circle134"/>
	<circle cx="334.155" cy="303.443" r="4" fill="#0" id="circle135"/>
	<circle cx="334.155" cy="635.133" r="4" fill="#0" id="circle136"/>
	<circle cx="347.975" cy="642.811" r="4" fill="#0" id="circle137"/>
	<circle cx="349.511" cy="303.443" r="4" fill="#0" id="circle138"/>
	<circle cx="361.796" cy="650.489" r="4" fill="#0" id="circle139"/>
	<circle cx="364.867" cy="303.443" r="4" fill="#0" id="circle140"/>
	<circle cx="372.545" cy="662.774" r="4" fill="#0" id="circle141"/>
	<circle cx="374.08" cy="678.13" r="4" fill="#0" id="circle142"/>
	<circle cx="380.223" cy="303.443" r="4" fill="#0" id="circle143"/>
	<circle cx="386.365" cy="688.879" r="4" fill="#0" id="circle144"/>
	<circle cx="395.579" cy="303.443" r="4" fill="#0" id="circle145"/>
	<circle cx="397.115" cy="701.164" r="4" fill="#0" id="circle146"/>
	<circle cx="403.257" cy="716.52" r="4" fill="#0" id="circle147"/>
	<circle cx="403.257" cy="731.876" r="4" fill="#0" id="circle148"/>
	<circle cx="404.793" cy="747.232" r="4" fill="#0" id="circle149"/>
	<circle cx="410.935" cy="303.443" r="4" fill="#0" id="circle150"/>
	<circle cx="412.471" cy="761.053" r="4" fill="#0" id="circle151"/>
	<circle cx="418.613" cy="776.409" r="4" fill="#0" id="circle152"/>
	<circle cx="418.613" cy="791.765" r="4" fill="#0" id="circle153"/>
	<circle cx="418.613" cy="807.121" r="4" fill="#0" id="circle154"/>
	<circle cx="418.613" cy="822.477" r="4" fill="#0" id="circle155"/>
	<circle cx="418.613" cy="837.833" r="4" fill="#0" id="circle156"/>
	<circle cx="418.613" cy="937.647" r="4" fill="#0" id="circle157"/>
	<circle cx="426.291" cy="303.443" r="4" fill="#0" id="circle158"/>
	<circle cx="426.291" cy="851.653" r="4" fill="#0" id="circle159"/>
	<circle cx="426.291" cy="867.009" r="4" fill="#0" id="circle160"/>
	<circle cx="426.291" cy="882.365" r="4" fill="#0" id="circle161"/>
	<circle cx="426.291" cy="897.721" r="4" fill="#0" id="circle162"/>
	<circle cx="426.291" cy="913.077" r="4" fill="#0" id="circle163"/>
	<circle cx="427.827" cy="949.932" r="4" fill="#0" id="circle164"/>
	<circle cx="441.647" cy="303.443" r="4" fill="#0" id="circle165"/>
	<circle cx="441.647" cy="957.61" r="4" fill="#0" id="circle166"/>
	<circle cx="443.183" cy="688.879" r="4" fill="#0" id="circle167"/>
	<circle cx="443.183" cy="704.235" r="4" fill="#0" id="circle168"/>
	<circle cx="443.183" cy="719.591" r="4" fill="#0" id="circle169"/>
	<circle cx="443.183" cy="734.947" r="4" fill="#0" id="circle170"/>
	<circle cx="443.183" cy="750.303" r="4" fill="#0" id="circle171"/>
	<circle cx="443.183" cy="765.659" r="4" fill="#0" id="circle172"/>
	<circle cx="443.183" cy="781.015" r="4" fill="#0" id="circle173"/>
	<circle cx="443.183" cy="796.372" r="4" fill="#0" id="circle174"/>
	<circle cx="443.183" cy="811.728" r="4" fill="#0" id="circle175"/>
	<circle cx="443.183" cy="827.084" r="4" fill="#0" id="circle176"/>
	<circle cx="443.183" cy="842.44" r="4" fill="#0" id="circle177"/>
	<circle cx="443.183" cy="857.796" r="4" fill="#0" id="circle178"/>
	<circle cx="443.183" cy="873.152" r="4" fill="#0" id="circle179"/>
	<circle cx="443.183" cy="888.508" r="4" fill="#0" id="circle180"/>
	<circle cx="450.861" cy="902.328" r="4" fill="#0" id="circle181"/>
	<circle cx="450.861" cy="917.684" r="4" fill="#0" id="circle182"/>
	<circle cx="457.003" cy="303.443" r="4" fill="#0" id="circle183"/>
	<circle cx="457.003" cy="953.003" r="4" fill="#0" id="circle184"/>
	<circle cx="458.539" cy="688.879" r="4" fill="#0" id="circle185"/>
	<circle cx="463.146" cy="926.898" r="4" fill="#0" id="circle186"/>
	<circle cx="472.359" cy="303.443" r="4" fill="#0" id="circle187"/>
	<circle cx="472.359" cy="681.201" r="4" fill="#0" id="circle188"/>
	<circle cx="486.18" cy="673.523" r="4" fill="#0" id="circle189"/>
	<circle cx="487.715" cy="303.443" r="4" fill="#0" id="circle190"/>
	<circle cx="501.536" cy="673.523" r="4" fill="#0" id="circle191"/>
	<circle cx="503.071" cy="306.514" r="4" fill="#0" id="circle192"/>
	<circle cx="515.356" cy="665.845" r="4" fill="#0" id="circle193"/>
	<circle cx="516.892" cy="314.192" r="4" fill="#0" id="circle194"/>
	<circle cx="529.176" cy="658.167" r="4" fill="#0" id="circle195"/>
	<circle cx="532.248" cy="318.799" r="4" fill="#0" id="circle196"/>
	<circle cx="542.997" cy="650.489" r="4" fill="#0" id="circle197"/>
	<circle cx="546.068" cy="326.477" r="4" fill="#0" id="circle198"/>
	<circle cx="558.353" cy="650.489" r="4" fill="#0" id="circle199"/>
	<circle cx="561.424" cy="326.477" r="4" fill="#0" id="circle200"/>
	<circle cx="573.709" cy="642.811" r="4" fill="#0" id="circle201"/>
	<circle cx="575.245" cy="334.155" r="4" fill="#0" id="circle202"/>
	<circle cx="587.529" cy="344.904" r="4" fill="#0" id="circle203"/>
	<circle cx="589.065" cy="635.133" r="4" fill="#0" id="circle204"/>
	<circle cx="602.885" cy="349.511" r="4" fill="#0" id="circle205"/>
	<circle cx="604.421" cy="635.133" r="4" fill="#0" id="circle206"/>
	<circle cx="618.241" cy="352.582" r="4" fill="#0" id="circle207"/>
	<circle cx="619.777" cy="635.133" r="4" fill="#0" id="circle208"/>
	<circle cx="627.455" cy="364.867" r="4" fill="#0" id="circle209"/>
	<circle cx="635.133" cy="627.455" r="4" fill="#0" id="circle210"/>
	<circle cx="642.811" cy="369.474" r="4" fill="#0" id="circle211"/>
	<circle cx="650.489" cy="627.455" r="4" fill="#0" id="circle212"/>
	<circle cx="653.56" cy="381.759" r="4" fill="#0" id="circle213"/>
	<circle cx="665.845" cy="392.508" r="4" fill="#0" id="circle214"/>
	<circle cx="665.845" cy="627.455" r="4" fill="#0" id="circle215"/>
	<circle cx="676.594" cy="404.793" r="4" fill="#0" id="circle216"/>
	<circle cx="681.201" cy="627.455" r="4" fill="#0" id="circle217"/>
	<circle cx="691.95" cy="410.935" r="4" fill="#0" id="circle218"/>
	<circle cx="696.557" cy="627.455" r="4" fill="#0" id="circle219"/>
	<circle cx="705.771" cy="418.613" r="4" fill="#0" id="circle220"/>
	<circle cx="711.913" cy="627.455" r="4" fill="#0" id="circle221"/>
	<circle cx="718.056" cy="429.362" r="4" fill="#0" id="circle222"/>
	<circle cx="727.269" cy="441.647" r="4" fill="#0" id="circle223"/>
	<circle cx="727.269" cy="627.455" r="4" fill="#0" id="circle224"/>
	<circle cx="736.483" cy="639.74" r="4" fill="#0" id="circle225"/>
	<circle cx="741.09" cy="449.325" r="4" fill="#0" id="circle226"/>
	<circle cx="750.303" cy="647.418" r="4" fill="#0" id="circle227"/>
	<circle cx="753.375" cy="458.539" r="4" fill="#0" id="circle228"/>
	<circle cx="765.659" cy="653.56" r="4" fill="#0" id="circle229"/>
	<circle cx="768.731" cy="464.681" r="4" fill="#0" id="circle230"/>
	<circle cx="779.48" cy="476.966" r="4" fill="#0" id="circle231"/>
	<circle cx="779.48" cy="661.238" r="4" fill="#0" id="circle232"/>
	<circle cx="791.765" cy="487.715" r="4" fill="#0" id="circle233"/>
	<circle cx="791.765" cy="671.988" r="4" fill="#0" id="circle234"/>
	<circle cx="807.121" cy="487.715" r="4" fill="#0" id="circle235"/>
	<circle cx="807.121" cy="664.31" r="4" fill="#0" id="circle236"/>
	<circle cx="814.799" cy="650.489" r="4" fill="#0" id="circle237"/>
	<circle cx="817.87" cy="500" r="4" fill="#0" id="circle238"/>
	<circle cx="830.155" cy="650.489" r="4" fill="#0" id="circle239"/>
	<circle cx="833.226" cy="506.142" r="4" fill="#0" id="circle240"/>
	<circle cx="845.511" cy="650.489" r="4" fill="#0" id="circle241"/>
	<circle cx="847.046" cy="513.82" r="4" fill="#0" id="circle242"/>
	<circle cx="853.189" cy="664.31" r="4" fill="#0" id="circle243"/>
	<circle cx="857.796" cy="526.105" r="4" fill="#0" id="circle244"/>
	<circle cx="867.009" cy="671.988" r="4" fill="#0" id="circle245"/>
	<circle cx="873.152" cy="530.712" r="4" fill="#0" id="circle246"/>
	<circle cx="882.365" cy="678.13" r="4" fill="#0" id="circle247"/>
	<circle cx="886.972" cy="538.39" r="4" fill="#0" id="circle248"/>
	<circle cx="894.65" cy="688.879" r="4" fill="#0" id="circle249"/>
	<circle cx="899.257" cy="549.139" r="4" fill="#0" id="circle250"/>
	<circle cx="910.006" cy="688.879" r="4" fill="#0" id="circle251"/>
	<circle cx="913.077" cy="556.817" r="4" fill="#0" id="circle252"/>
	<circle cx="919.22" cy="701.164" r="4" fill="#0" id="circle253"/>
	<circle cx="926.898" cy="564.495" r="4" fill="#0" id="circle254"/>
	<circle cx="926.898" cy="635.133" r="4" fill="#0" id="circle255"/>
	<circle cx="926.898" cy="650.489" r="4" fill="#0" id="circle256"/>
	<circle cx="931.505" cy="711.913" r="4" fill="#0" id="circle257"/>
	<circle cx="934.576" cy="664.31" r="4" fill="#0" id="circle258"/>
	<circle cx="940.718" cy="627.455" r="4" fill="#0" id="circle259"/>
	<circle cx="942.254" cy="564.495" r="4" fill="#0" id="circle260"/>
	<circle cx="942.254" cy="678.13" r="4" fill="#0" id="circle261"/>
	<circle cx="945.325" cy="702.7" r="4" fill="#0" id="circle262"/>
	<circle cx="956.074" cy="572.173" r="4" fill="#0" id="circle263"/>
	<circle cx="956.074" cy="627.455" r="4" fill="#0" id="circle264"/>
	<circle cx="969.895" cy="619.777" r="4" fill="#0" id="circle265"/>
	<circle cx="971.43" cy="572.173" r="4" fill="#0" id="circle266"/>
	<circle cx="983.715" cy="581.387" r="4" fill="#0" id="circle267"/>
	<circle cx="983.715" cy="627.455" r="4" fill="#0" id="circle268"/>
	<circle cx="988.322" cy="596.743" r="4" fill="#0" id="circle269"/>
	<circle cx="996" cy="610.563" r="4" fill="#0" id="circle270"/>
	</g>
</svg>