<?xml version="1.0" encoding="UTF-8" standalone="no"?>
<!-- Created with CurveBenchmark -->
<svg
	xmlns:dc="http://purl.org/dc/elements/1.1/"
	xmlns:cc="http://creativecommons.org/ns#"
	xmlns:rdf="http://www.w3.org/1999/02/22-rdf-syntax-ns#"
	xmlns:svg="http://www.w3.org/2000/svg"
	xmlns="http://www.w3.org/2000/svg"
	xmlns:sodipodi="http://sodipodi.sourceforge.net/DTD/sodipodi-0.dtd"
	xmlns:inkscape="http://www.inkscape.org/namespaces/inkscape"
	width="1000"
	height="1000"
	id="svg2"
	version="1.1"
	sodipodi:docname="manifold/crawl-bed035.png.txt">
<defs
	id="defs4" />
<metadata
	id="metadata7">
	<rdf:RDF>
		<cc:Work
			rdf:about="">
			<dc:format>image/svg+xml</dc:format>
			<dc:type
				rdf:resource="http://purl.org/dc/dcmitype/StillImage" />
			<dc:title></dc:title>
		</cc:Work>
	</rdf:RDF>
</metadata>
<g
	inkscape:label="Layer 1"
	inkscape:groupmode="layer"
	id="layer1">
	<path style="fill:none;stroke:red;stroke-width:1px;stroke-linecap:butt;stroke-linejoin:miter;stroke-opacity:1" d="M 14.2444,113.274 4,126.933 z" id="boundary" inkscape:connector-curvature="0" />
	<path style="fill:none;stroke:red;stroke-width:1px;stroke-linecap:butt;stroke-linejoin:miter;stroke-opacity:1" d="M 4,126.933 4,144.007 z" id="boundary" inkscape:connector-curvature="0" />
	<path style="fill:none;stroke:red;stroke-width:1px;stroke-linecap:butt;stroke-linejoin:miter;stroke-opacity:1" d="M 14.2444,113.274 29.611,104.737 z" id="boundary" inkscape:connector-curvature="0" />
	<path style="fill:none;stroke:red;stroke-width:1px;stroke-linecap:butt;stroke-linejoin:miter;stroke-opacity:1" d="M 29.611,104.737 44.9776,96.1997 z" id="boundary" inkscape:connector-curvature="0" />
	<path style="fill:none;stroke:red;stroke-width:1px;stroke-linecap:butt;stroke-linejoin:miter;stroke-opacity:1" d="M 4,144.007 9.1222,161.081 z" id="boundary" inkscape:connector-curvature="0" />
	<path style="fill:none;stroke:red;stroke-width:1px;stroke-linecap:butt;stroke-linejoin:miter;stroke-opacity:1" d="M 9.1222,161.081 14.2444,178.155 z" id="boundary" inkscape:connector-curvature="0" />
	<path style="fill:none;stroke:red;stroke-width:1px;stroke-linecap:butt;stroke-linejoin:miter;stroke-opacity:1" d="M 14.2444,178.155 14.2444,195.229 z" id="boundary" inkscape:connector-curvature="0" />
	<path style="fill:none;stroke:red;stroke-width:1px;stroke-linecap:butt;stroke-linejoin:miter;stroke-opacity:1" d="M 14.2444,195.229 17.6592,212.303 z" id="boundary" inkscape:connector-curvature="0" />
	<path style="fill:none;stroke:red;stroke-width:1px;stroke-linecap:butt;stroke-linejoin:miter;stroke-opacity:1" d="M 17.6592,212.303 17.6592,229.377 z" id="boundary" inkscape:connector-curvature="0" />
	<path style="fill:none;stroke:red;stroke-width:1px;stroke-linecap:butt;stroke-linejoin:miter;stroke-opacity:1" d="M 17.6592,229.377 17.6592,246.451 z" id="boundary" inkscape:connector-curvature="0" />
	<path style="fill:none;stroke:red;stroke-width:1px;stroke-linecap:butt;stroke-linejoin:miter;stroke-opacity:1" d="M 44.9776,96.1997 62.0516,89.3701 z" id="boundary" inkscape:connector-curvature="0" />
	<path style="fill:none;stroke:red;stroke-width:1px;stroke-linecap:butt;stroke-linejoin:miter;stroke-opacity:1" d="M 62.0516,89.3701 79.1256,85.9552 z" id="boundary" inkscape:connector-curvature="0" />
	<path style="fill:none;stroke:red;stroke-width:1px;stroke-linecap:butt;stroke-linejoin:miter;stroke-opacity:1" d="M 79.1256,85.9552 96.1997,79.1256 z" id="boundary" inkscape:connector-curvature="0" />
	<path style="fill:none;stroke:red;stroke-width:1px;stroke-linecap:butt;stroke-linejoin:miter;stroke-opacity:1" d="M 96.1997,79.1256 113.274,75.7108 z" id="boundary" inkscape:connector-curvature="0" />
	<path style="fill:none;stroke:red;stroke-width:1px;stroke-linecap:butt;stroke-linejoin:miter;stroke-opacity:1" d="M 113.274,75.7108 130.348,68.8812 z" id="boundary" inkscape:connector-curvature="0" />
	<path style="fill:none;stroke:red;stroke-width:1px;stroke-linecap:butt;stroke-linejoin:miter;stroke-opacity:1" d="M 130.348,68.8812 147.422,65.4664 z" id="boundary" inkscape:connector-curvature="0" />
	<path style="fill:none;stroke:red;stroke-width:1px;stroke-linecap:butt;stroke-linejoin:miter;stroke-opacity:1" d="M 147.422,65.4664 164.496,62.0516 z" id="boundary" inkscape:connector-curvature="0" />
	<path style="fill:none;stroke:red;stroke-width:1px;stroke-linecap:butt;stroke-linejoin:miter;stroke-opacity:1" d="M 164.496,62.0516 179.862,53.5146 z" id="boundary" inkscape:connector-curvature="0" />
	<path style="fill:none;stroke:red;stroke-width:1px;stroke-linecap:butt;stroke-linejoin:miter;stroke-opacity:1" d="M 179.862,53.5146 195.229,44.9776 z" id="boundary" inkscape:connector-curvature="0" />
	<path style="fill:none;stroke:red;stroke-width:1px;stroke-linecap:butt;stroke-linejoin:miter;stroke-opacity:1" d="M 195.229,44.9776 210.596,36.4406 z" id="boundary" inkscape:connector-curvature="0" />
	<path style="fill:none;stroke:red;stroke-width:1px;stroke-linecap:butt;stroke-linejoin:miter;stroke-opacity:1" d="M 210.596,36.4406 225.962,24.4888 z" id="boundary" inkscape:connector-curvature="0" />
	<path style="fill:none;stroke:red;stroke-width:1px;stroke-linecap:butt;stroke-linejoin:miter;stroke-opacity:1" d="M 225.962,24.4888 239.621,4 z" id="boundary" inkscape:connector-curvature="0" />
	<path style="fill:none;stroke:red;stroke-width:1px;stroke-linecap:butt;stroke-linejoin:miter;stroke-opacity:1" d="M 239.621,4 256.695,4 z" id="boundary" inkscape:connector-curvature="0" />
	<path style="fill:none;stroke:red;stroke-width:1px;stroke-linecap:butt;stroke-linejoin:miter;stroke-opacity:1" d="M 256.695,4 272.062,12.537 z" id="boundary" inkscape:connector-curvature="0" />
	<path style="fill:none;stroke:red;stroke-width:1px;stroke-linecap:butt;stroke-linejoin:miter;stroke-opacity:1" d="M 272.062,12.537 285.721,24.4888 z" id="boundary" inkscape:connector-curvature="0" />
	<path style="fill:none;stroke:red;stroke-width:1px;stroke-linecap:butt;stroke-linejoin:miter;stroke-opacity:1" d="M 285.721,24.4888 299.38,34.7332 z" id="boundary" inkscape:connector-curvature="0" />
	<path style="fill:none;stroke:red;stroke-width:1px;stroke-linecap:butt;stroke-linejoin:miter;stroke-opacity:1" d="M 299.38,34.7332 316.454,41.5628 z" id="boundary" inkscape:connector-curvature="0" />
	<path style="fill:none;stroke:red;stroke-width:1px;stroke-linecap:butt;stroke-linejoin:miter;stroke-opacity:1" d="M 316.454,41.5628 330.114,51.8072 z" id="boundary" inkscape:connector-curvature="0" />
	<path style="fill:none;stroke:red;stroke-width:1px;stroke-linecap:butt;stroke-linejoin:miter;stroke-opacity:1" d="M 330.114,51.8072 340.358,65.4664 z" id="boundary" inkscape:connector-curvature="0" />
	<path style="fill:none;stroke:red;stroke-width:1px;stroke-linecap:butt;stroke-linejoin:miter;stroke-opacity:1" d="M 340.358,65.4664 357.432,68.8812 z" id="boundary" inkscape:connector-curvature="0" />
	<path style="fill:none;stroke:red;stroke-width:1px;stroke-linecap:butt;stroke-linejoin:miter;stroke-opacity:1" d="M 357.432,68.8812 374.506,72.296 z" id="boundary" inkscape:connector-curvature="0" />
	<path style="fill:none;stroke:red;stroke-width:1px;stroke-linecap:butt;stroke-linejoin:miter;stroke-opacity:1" d="M 374.506,72.296 391.58,75.7108 z" id="boundary" inkscape:connector-curvature="0" />
	<path style="fill:none;stroke:red;stroke-width:1px;stroke-linecap:butt;stroke-linejoin:miter;stroke-opacity:1" d="M 391.58,75.7108 408.654,82.5404 z" id="boundary" inkscape:connector-curvature="0" />
	<path style="fill:none;stroke:red;stroke-width:1px;stroke-linecap:butt;stroke-linejoin:miter;stroke-opacity:1" d="M 408.654,82.5404 425.728,85.9552 z" id="boundary" inkscape:connector-curvature="0" />
	<path style="fill:none;stroke:red;stroke-width:1px;stroke-linecap:butt;stroke-linejoin:miter;stroke-opacity:1" d="M 425.728,85.9552 442.802,92.7849 z" id="boundary" inkscape:connector-curvature="0" />
	<path style="fill:none;stroke:red;stroke-width:1px;stroke-linecap:butt;stroke-linejoin:miter;stroke-opacity:1" d="M 442.802,92.7849 459.876,99.6145 z" id="boundary" inkscape:connector-curvature="0" />
	<path style="fill:none;stroke:red;stroke-width:1px;stroke-linecap:butt;stroke-linejoin:miter;stroke-opacity:1" d="M 459.876,99.6145 475.243,108.151 z" id="boundary" inkscape:connector-curvature="0" />
	<path style="fill:none;stroke:red;stroke-width:1px;stroke-linecap:butt;stroke-linejoin:miter;stroke-opacity:1" d="M 475.243,108.151 488.902,118.396 z" id="boundary" inkscape:connector-curvature="0" />
	<path style="fill:none;stroke:red;stroke-width:1px;stroke-linecap:butt;stroke-linejoin:miter;stroke-opacity:1" d="M 488.902,118.396 494.024,135.47 z" id="boundary" inkscape:connector-curvature="0" />
	<path style="fill:none;stroke:red;stroke-width:1px;stroke-linecap:butt;stroke-linejoin:miter;stroke-opacity:1" d="M 494.024,135.47 490.609,157.666 z" id="boundary" inkscape:connector-curvature="0" />
	<path style="fill:none;stroke:red;stroke-width:1px;stroke-linecap:butt;stroke-linejoin:miter;stroke-opacity:1" d="M 490.609,157.666 480.365,171.325 z" id="boundary" inkscape:connector-curvature="0" />
	<path style="fill:none;stroke:red;stroke-width:1px;stroke-linecap:butt;stroke-linejoin:miter;stroke-opacity:1" d="M 480.365,171.325 480.365,188.399 z" id="boundary" inkscape:connector-curvature="0" />
	<path style="fill:none;stroke:red;stroke-width:1px;stroke-linecap:butt;stroke-linejoin:miter;stroke-opacity:1" d="M 480.365,188.399 480.365,205.473 z" id="boundary" inkscape:connector-curvature="0" />
	<path style="fill:none;stroke:red;stroke-width:1px;stroke-linecap:butt;stroke-linejoin:miter;stroke-opacity:1" d="M 480.365,205.473 492.317,219.133 z" id="boundary" inkscape:connector-curvature="0" />
	<path style="fill:none;stroke:red;stroke-width:1px;stroke-linecap:butt;stroke-linejoin:miter;stroke-opacity:1" d="M 492.317,219.133 509.391,225.962 z" id="boundary" inkscape:connector-curvature="0" />
	<path style="fill:none;stroke:red;stroke-width:1px;stroke-linecap:butt;stroke-linejoin:miter;stroke-opacity:1" d="M 509.391,225.962 523.05,236.207 z" id="boundary" inkscape:connector-curvature="0" />
	<path style="fill:none;stroke:red;stroke-width:1px;stroke-linecap:butt;stroke-linejoin:miter;stroke-opacity:1" d="M 523.05,236.207 536.709,246.451 z" id="boundary" inkscape:connector-curvature="0" />
	<path style="fill:none;stroke:red;stroke-width:1px;stroke-linecap:butt;stroke-linejoin:miter;stroke-opacity:1" d="M 536.709,246.451 552.076,254.988 z" id="boundary" inkscape:connector-curvature="0" />
	<path style="fill:none;stroke:red;stroke-width:1px;stroke-linecap:butt;stroke-linejoin:miter;stroke-opacity:1" d="M 552.076,254.988 562.32,268.647 z" id="boundary" inkscape:connector-curvature="0" />
	<path style="fill:none;stroke:red;stroke-width:1px;stroke-linecap:butt;stroke-linejoin:miter;stroke-opacity:1" d="M 562.32,268.647 577.687,277.184 z" id="boundary" inkscape:connector-curvature="0" />
	<path style="fill:none;stroke:red;stroke-width:1px;stroke-linecap:butt;stroke-linejoin:miter;stroke-opacity:1" d="M 577.687,277.184 594.761,273.769 z" id="boundary" inkscape:connector-curvature="0" />
	<path style="fill:none;stroke:red;stroke-width:1px;stroke-linecap:butt;stroke-linejoin:miter;stroke-opacity:1" d="M 594.761,273.769 611.835,273.769 z" id="boundary" inkscape:connector-curvature="0" />
	<path style="fill:none;stroke:red;stroke-width:1px;stroke-linecap:butt;stroke-linejoin:miter;stroke-opacity:1" d="M 611.835,273.769 628.909,273.769 z" id="boundary" inkscape:connector-curvature="0" />
	<path style="fill:none;stroke:red;stroke-width:1px;stroke-linecap:butt;stroke-linejoin:miter;stroke-opacity:1" d="M 628.909,273.769 642.568,263.525 z" id="boundary" inkscape:connector-curvature="0" />
	<path style="fill:none;stroke:red;stroke-width:1px;stroke-linecap:butt;stroke-linejoin:miter;stroke-opacity:1" d="M 642.568,263.525 656.227,253.281 z" id="boundary" inkscape:connector-curvature="0" />
	<path style="fill:none;stroke:red;stroke-width:1px;stroke-linecap:butt;stroke-linejoin:miter;stroke-opacity:1" d="M 656.227,253.281 673.301,246.451 z" id="boundary" inkscape:connector-curvature="0" />
	<path style="fill:none;stroke:red;stroke-width:1px;stroke-linecap:butt;stroke-linejoin:miter;stroke-opacity:1" d="M 673.301,246.451 690.375,239.621 z" id="boundary" inkscape:connector-curvature="0" />
	<path style="fill:none;stroke:red;stroke-width:1px;stroke-linecap:butt;stroke-linejoin:miter;stroke-opacity:1" d="M 690.375,239.621 705.742,231.084 z" id="boundary" inkscape:connector-curvature="0" />
	<path style="fill:none;stroke:red;stroke-width:1px;stroke-linecap:butt;stroke-linejoin:miter;stroke-opacity:1" d="M 705.742,231.084 722.816,229.377 z" id="boundary" inkscape:connector-curvature="0" />
	<path style="fill:none;stroke:red;stroke-width:1px;stroke-linecap:butt;stroke-linejoin:miter;stroke-opacity:1" d="M 722.816,229.377 738.182,237.914 z" id="boundary" inkscape:connector-curvature="0" />
	<path style="fill:none;stroke:red;stroke-width:1px;stroke-linecap:butt;stroke-linejoin:miter;stroke-opacity:1" d="M 738.182,237.914 753.549,246.451 z" id="boundary" inkscape:connector-curvature="0" />
	<path style="fill:none;stroke:red;stroke-width:1px;stroke-linecap:butt;stroke-linejoin:miter;stroke-opacity:1" d="M 753.549,246.451 770.623,253.281 z" id="boundary" inkscape:connector-curvature="0" />
	<path style="fill:none;stroke:red;stroke-width:1px;stroke-linecap:butt;stroke-linejoin:miter;stroke-opacity:1" d="M 770.623,253.281 787.697,260.11 z" id="boundary" inkscape:connector-curvature="0" />
	<path style="fill:none;stroke:red;stroke-width:1px;stroke-linecap:butt;stroke-linejoin:miter;stroke-opacity:1" d="M 787.697,260.11 801.356,270.355 z" id="boundary" inkscape:connector-curvature="0" />
	<path style="fill:none;stroke:red;stroke-width:1px;stroke-linecap:butt;stroke-linejoin:miter;stroke-opacity:1" d="M 801.356,270.355 818.43,273.769 z" id="boundary" inkscape:connector-curvature="0" />
	<path style="fill:none;stroke:red;stroke-width:1px;stroke-linecap:butt;stroke-linejoin:miter;stroke-opacity:1" d="M 818.43,273.769 835.504,273.769 z" id="boundary" inkscape:connector-curvature="0" />
	<path style="fill:none;stroke:red;stroke-width:1px;stroke-linecap:butt;stroke-linejoin:miter;stroke-opacity:1" d="M 835.504,273.769 852.578,277.184 z" id="boundary" inkscape:connector-curvature="0" />
	<path style="fill:none;stroke:red;stroke-width:1px;stroke-linecap:butt;stroke-linejoin:miter;stroke-opacity:1" d="M 852.578,277.184 869.652,277.184 z" id="boundary" inkscape:connector-curvature="0" />
	<path style="fill:none;stroke:red;stroke-width:1px;stroke-linecap:butt;stroke-linejoin:miter;stroke-opacity:1" d="M 869.652,277.184 886.726,280.599 z" id="boundary" inkscape:connector-curvature="0" />
	<path style="fill:none;stroke:red;stroke-width:1px;stroke-linecap:butt;stroke-linejoin:miter;stroke-opacity:1" d="M 886.726,280.599 903.8,284.014 z" id="boundary" inkscape:connector-curvature="0" />
	<path style="fill:none;stroke:red;stroke-width:1px;stroke-linecap:butt;stroke-linejoin:miter;stroke-opacity:1" d="M 903.8,284.014 920.874,287.429 z" id="boundary" inkscape:connector-curvature="0" />
	<path style="fill:none;stroke:red;stroke-width:1px;stroke-linecap:butt;stroke-linejoin:miter;stroke-opacity:1" d="M 920.874,287.429 937.948,290.843 z" id="boundary" inkscape:connector-curvature="0" />
	<path style="fill:none;stroke:red;stroke-width:1px;stroke-linecap:butt;stroke-linejoin:miter;stroke-opacity:1" d="M 937.948,290.843 955.022,297.673 z" id="boundary" inkscape:connector-curvature="0" />
	<path style="fill:none;stroke:red;stroke-width:1px;stroke-linecap:butt;stroke-linejoin:miter;stroke-opacity:1" d="M 955.022,297.673 972.096,304.503 z" id="boundary" inkscape:connector-curvature="0" />
	<path style="fill:none;stroke:red;stroke-width:1px;stroke-linecap:butt;stroke-linejoin:miter;stroke-opacity:1" d="M 972.096,304.503 985.756,314.747 z" id="boundary" inkscape:connector-curvature="0" />
	<path style="fill:none;stroke:red;stroke-width:1px;stroke-linecap:butt;stroke-linejoin:miter;stroke-opacity:1" d="M 985.756,314.747 996,328.406 z" id="boundary" inkscape:connector-curvature="0" />
	<path style="fill:none;stroke:red;stroke-width:1px;stroke-linecap:butt;stroke-linejoin:miter;stroke-opacity:1" d="M 996,328.406 992.585,352.31 z" id="boundary" inkscape:connector-curvature="0" />
	<path style="fill:none;stroke:red;stroke-width:1px;stroke-linecap:butt;stroke-linejoin:miter;stroke-opacity:1" d="M 992.585,352.31 978.926,365.969 z" id="boundary" inkscape:connector-curvature="0" />
	<path style="fill:none;stroke:red;stroke-width:1px;stroke-linecap:butt;stroke-linejoin:miter;stroke-opacity:1" d="M 978.926,365.969 978.926,383.043 z" id="boundary" inkscape:connector-curvature="0" />
	<path style="fill:none;stroke:red;stroke-width:1px;stroke-linecap:butt;stroke-linejoin:miter;stroke-opacity:1" d="M 978.926,383.043 975.511,406.947 z" id="boundary" inkscape:connector-curvature="0" />
	<path style="fill:none;stroke:red;stroke-width:1px;stroke-linecap:butt;stroke-linejoin:miter;stroke-opacity:1" d="M 975.511,406.947 975.511,424.021 z" id="boundary" inkscape:connector-curvature="0" />
	<path style="fill:none;stroke:red;stroke-width:1px;stroke-linecap:butt;stroke-linejoin:miter;stroke-opacity:1" d="M 975.511,424.021 975.511,441.095 z" id="boundary" inkscape:connector-curvature="0" />
	<path style="fill:none;stroke:red;stroke-width:1px;stroke-linecap:butt;stroke-linejoin:miter;stroke-opacity:1" d="M 975.511,441.095 977.219,458.169 z" id="boundary" inkscape:connector-curvature="0" />
	<path style="fill:none;stroke:red;stroke-width:1px;stroke-linecap:butt;stroke-linejoin:miter;stroke-opacity:1" d="M 977.219,458.169 984.048,475.243 z" id="boundary" inkscape:connector-curvature="0" />
	<path style="fill:none;stroke:red;stroke-width:1px;stroke-linecap:butt;stroke-linejoin:miter;stroke-opacity:1" d="M 984.048,475.243 985.756,492.317 z" id="boundary" inkscape:connector-curvature="0" />
	<path style="fill:none;stroke:red;stroke-width:1px;stroke-linecap:butt;stroke-linejoin:miter;stroke-opacity:1" d="M 985.756,492.317 978.926,509.391 z" id="boundary" inkscape:connector-curvature="0" />
	<path style="fill:none;stroke:red;stroke-width:1px;stroke-linecap:butt;stroke-linejoin:miter;stroke-opacity:1" d="M 978.926,509.391 985.756,526.465 z" id="boundary" inkscape:connector-curvature="0" />
	<path style="fill:none;stroke:red;stroke-width:1px;stroke-linecap:butt;stroke-linejoin:miter;stroke-opacity:1" d="M 985.756,526.465 968.682,531.587 z" id="boundary" inkscape:connector-curvature="0" />
	<path style="fill:none;stroke:red;stroke-width:1px;stroke-linecap:butt;stroke-linejoin:miter;stroke-opacity:1" d="M 968.682,531.587 960.145,516.22 z" id="boundary" inkscape:connector-curvature="0" />
	<path style="fill:none;stroke:red;stroke-width:1px;stroke-linecap:butt;stroke-linejoin:miter;stroke-opacity:1" d="M 960.145,516.22 960.145,499.146 z" id="boundary" inkscape:connector-curvature="0" />
	<path style="fill:none;stroke:red;stroke-width:1px;stroke-linecap:butt;stroke-linejoin:miter;stroke-opacity:1" d="M 960.145,499.146 958.437,478.657 z" id="boundary" inkscape:connector-curvature="0" />
	<path style="fill:none;stroke:red;stroke-width:1px;stroke-linecap:butt;stroke-linejoin:miter;stroke-opacity:1" d="M 958.437,478.657 943.071,470.12 z" id="boundary" inkscape:connector-curvature="0" />
	<path style="fill:none;stroke:red;stroke-width:1px;stroke-linecap:butt;stroke-linejoin:miter;stroke-opacity:1" d="M 943.071,470.12 925.997,470.12 z" id="boundary" inkscape:connector-curvature="0" />
	<path style="fill:none;stroke:red;stroke-width:1px;stroke-linecap:butt;stroke-linejoin:miter;stroke-opacity:1" d="M 925.997,470.12 908.923,473.535 z" id="boundary" inkscape:connector-curvature="0" />
	<path style="fill:none;stroke:red;stroke-width:1px;stroke-linecap:butt;stroke-linejoin:miter;stroke-opacity:1" d="M 908.923,473.535 891.849,480.365 z" id="boundary" inkscape:connector-curvature="0" />
	<path style="fill:none;stroke:red;stroke-width:1px;stroke-linecap:butt;stroke-linejoin:miter;stroke-opacity:1" d="M 891.849,480.365 874.775,483.78 z" id="boundary" inkscape:connector-curvature="0" />
	<path style="fill:none;stroke:red;stroke-width:1px;stroke-linecap:butt;stroke-linejoin:miter;stroke-opacity:1" d="M 874.775,483.78 862.823,470.12 z" id="boundary" inkscape:connector-curvature="0" />
	<path style="fill:none;stroke:red;stroke-width:1px;stroke-linecap:butt;stroke-linejoin:miter;stroke-opacity:1" d="M 862.823,470.12 845.749,466.706 z" id="boundary" inkscape:connector-curvature="0" />
	<path style="fill:none;stroke:red;stroke-width:1px;stroke-linecap:butt;stroke-linejoin:miter;stroke-opacity:1" d="M 845.749,466.706 828.675,468.413 z" id="boundary" inkscape:connector-curvature="0" />
	<path style="fill:none;stroke:red;stroke-width:1px;stroke-linecap:butt;stroke-linejoin:miter;stroke-opacity:1" d="M 828.675,468.413 811.601,473.535 z" id="boundary" inkscape:connector-curvature="0" />
	<path style="fill:none;stroke:red;stroke-width:1px;stroke-linecap:butt;stroke-linejoin:miter;stroke-opacity:1" d="M 811.601,473.535 794.527,480.365 z" id="boundary" inkscape:connector-curvature="0" />
	<path style="fill:none;stroke:red;stroke-width:1px;stroke-linecap:butt;stroke-linejoin:miter;stroke-opacity:1" d="M 794.527,480.365 777.453,487.194 z" id="boundary" inkscape:connector-curvature="0" />
	<path style="fill:none;stroke:red;stroke-width:1px;stroke-linecap:butt;stroke-linejoin:miter;stroke-opacity:1" d="M 777.453,487.194 760.379,494.024 z" id="boundary" inkscape:connector-curvature="0" />
	<path style="fill:none;stroke:red;stroke-width:1px;stroke-linecap:butt;stroke-linejoin:miter;stroke-opacity:1" d="M 760.379,494.024 743.305,499.146 z" id="boundary" inkscape:connector-curvature="0" />
	<path style="fill:none;stroke:red;stroke-width:1px;stroke-linecap:butt;stroke-linejoin:miter;stroke-opacity:1" d="M 743.305,499.146 726.231,500.854 z" id="boundary" inkscape:connector-curvature="0" />
	<path style="fill:none;stroke:red;stroke-width:1px;stroke-linecap:butt;stroke-linejoin:miter;stroke-opacity:1" d="M 726.231,500.854 709.157,500.854 z" id="boundary" inkscape:connector-curvature="0" />
	<path style="fill:none;stroke:red;stroke-width:1px;stroke-linecap:butt;stroke-linejoin:miter;stroke-opacity:1" d="M 709.157,500.854 692.083,497.439 z" id="boundary" inkscape:connector-curvature="0" />
	<path style="fill:none;stroke:red;stroke-width:1px;stroke-linecap:butt;stroke-linejoin:miter;stroke-opacity:1" d="M 692.083,497.439 675.009,494.024 z" id="boundary" inkscape:connector-curvature="0" />
	<path style="fill:none;stroke:red;stroke-width:1px;stroke-linecap:butt;stroke-linejoin:miter;stroke-opacity:1" d="M 675.009,494.024 657.935,487.194 z" id="boundary" inkscape:connector-curvature="0" />
	<path style="fill:none;stroke:red;stroke-width:1px;stroke-linecap:butt;stroke-linejoin:miter;stroke-opacity:1" d="M 657.935,487.194 640.861,480.365 z" id="boundary" inkscape:connector-curvature="0" />
	<path style="fill:none;stroke:red;stroke-width:1px;stroke-linecap:butt;stroke-linejoin:miter;stroke-opacity:1" d="M 640.861,480.365 623.787,473.535 z" id="boundary" inkscape:connector-curvature="0" />
	<path style="fill:none;stroke:red;stroke-width:1px;stroke-linecap:butt;stroke-linejoin:miter;stroke-opacity:1" d="M 623.787,473.535 606.713,466.706 z" id="boundary" inkscape:connector-curvature="0" />
	<path style="fill:none;stroke:red;stroke-width:1px;stroke-linecap:butt;stroke-linejoin:miter;stroke-opacity:1" d="M 606.713,466.706 589.639,466.706 z" id="boundary" inkscape:connector-curvature="0" />
	<path style="fill:none;stroke:red;stroke-width:1px;stroke-linecap:butt;stroke-linejoin:miter;stroke-opacity:1" d="M 589.639,466.706 572.565,473.535 z" id="boundary" inkscape:connector-curvature="0" />
	<path style="fill:none;stroke:red;stroke-width:1px;stroke-linecap:butt;stroke-linejoin:miter;stroke-opacity:1" d="M 572.565,473.535 558.905,483.78 z" id="boundary" inkscape:connector-curvature="0" />
	<path style="fill:none;stroke:red;stroke-width:1px;stroke-linecap:butt;stroke-linejoin:miter;stroke-opacity:1" d="M 558.905,483.78 541.831,476.95 z" id="boundary" inkscape:connector-curvature="0" />
	<path style="fill:none;stroke:red;stroke-width:1px;stroke-linecap:butt;stroke-linejoin:miter;stroke-opacity:1" d="M 541.831,476.95 524.757,473.535 z" id="boundary" inkscape:connector-curvature="0" />
	<path style="fill:none;stroke:red;stroke-width:1px;stroke-linecap:butt;stroke-linejoin:miter;stroke-opacity:1" d="M 524.757,473.535 507.683,470.12 z" id="boundary" inkscape:connector-curvature="0" />
	<path style="fill:none;stroke:red;stroke-width:1px;stroke-linecap:butt;stroke-linejoin:miter;stroke-opacity:1" d="M 507.683,470.12 490.609,475.243 z" id="boundary" inkscape:connector-curvature="0" />
	<path style="fill:none;stroke:red;stroke-width:1px;stroke-linecap:butt;stroke-linejoin:miter;stroke-opacity:1" d="M 490.609,475.243 494.024,492.317 z" id="boundary" inkscape:connector-curvature="0" />
	<path style="fill:none;stroke:red;stroke-width:1px;stroke-linecap:butt;stroke-linejoin:miter;stroke-opacity:1" d="M 494.024,492.317 487.194,509.391 z" id="boundary" inkscape:connector-curvature="0" />
	<path style="fill:none;stroke:red;stroke-width:1px;stroke-linecap:butt;stroke-linejoin:miter;stroke-opacity:1" d="M 487.194,509.391 490.609,528.172 z" id="boundary" inkscape:connector-curvature="0" />
	<path style="fill:none;stroke:red;stroke-width:1px;stroke-linecap:butt;stroke-linejoin:miter;stroke-opacity:1" d="M 490.609,528.172 473.535,528.172 z" id="boundary" inkscape:connector-curvature="0" />
	<path style="fill:none;stroke:red;stroke-width:1px;stroke-linecap:butt;stroke-linejoin:miter;stroke-opacity:1" d="M 473.535,528.172 456.461,531.587 z" id="boundary" inkscape:connector-curvature="0" />
	<path style="fill:none;stroke:red;stroke-width:1px;stroke-linecap:butt;stroke-linejoin:miter;stroke-opacity:1" d="M 456.461,531.587 447.924,516.22 z" id="boundary" inkscape:connector-curvature="0" />
	<path style="fill:none;stroke:red;stroke-width:1px;stroke-linecap:butt;stroke-linejoin:miter;stroke-opacity:1" d="M 447.924,516.22 444.509,499.146 z" id="boundary" inkscape:connector-curvature="0" />
	<path style="fill:none;stroke:red;stroke-width:1px;stroke-linecap:butt;stroke-linejoin:miter;stroke-opacity:1" d="M 444.509,499.146 444.509,482.072 z" id="boundary" inkscape:connector-curvature="0" />
	<path style="fill:none;stroke:red;stroke-width:1px;stroke-linecap:butt;stroke-linejoin:miter;stroke-opacity:1" d="M 444.509,482.072 444.509,464.998 z" id="boundary" inkscape:connector-curvature="0" />
	<path style="fill:none;stroke:red;stroke-width:1px;stroke-linecap:butt;stroke-linejoin:miter;stroke-opacity:1" d="M 444.509,464.998 427.435,463.291 z" id="boundary" inkscape:connector-curvature="0" />
	<path style="fill:none;stroke:red;stroke-width:1px;stroke-linecap:butt;stroke-linejoin:miter;stroke-opacity:1" d="M 427.435,463.291 410.361,463.291 z" id="boundary" inkscape:connector-curvature="0" />
	<path style="fill:none;stroke:red;stroke-width:1px;stroke-linecap:butt;stroke-linejoin:miter;stroke-opacity:1" d="M 410.361,463.291 393.287,463.291 z" id="boundary" inkscape:connector-curvature="0" />
	<path style="fill:none;stroke:red;stroke-width:1px;stroke-linecap:butt;stroke-linejoin:miter;stroke-opacity:1" d="M 393.287,463.291 376.213,463.291 z" id="boundary" inkscape:connector-curvature="0" />
	<path style="fill:none;stroke:red;stroke-width:1px;stroke-linecap:butt;stroke-linejoin:miter;stroke-opacity:1" d="M 376.213,463.291 359.139,463.291 z" id="boundary" inkscape:connector-curvature="0" />
	<path style="fill:none;stroke:red;stroke-width:1px;stroke-linecap:butt;stroke-linejoin:miter;stroke-opacity:1" d="M 359.139,463.291 342.065,463.291 z" id="boundary" inkscape:connector-curvature="0" />
	<path style="fill:none;stroke:red;stroke-width:1px;stroke-linecap:butt;stroke-linejoin:miter;stroke-opacity:1" d="M 342.065,463.291 324.991,463.291 z" id="boundary" inkscape:connector-curvature="0" />
	<path style="fill:none;stroke:red;stroke-width:1px;stroke-linecap:butt;stroke-linejoin:miter;stroke-opacity:1" d="M 324.991,463.291 307.917,463.291 z" id="boundary" inkscape:connector-curvature="0" />
	<path style="fill:none;stroke:red;stroke-width:1px;stroke-linecap:butt;stroke-linejoin:miter;stroke-opacity:1" d="M 307.917,463.291 290.843,463.291 z" id="boundary" inkscape:connector-curvature="0" />
	<path style="fill:none;stroke:red;stroke-width:1px;stroke-linecap:butt;stroke-linejoin:miter;stroke-opacity:1" d="M 290.843,463.291 273.769,463.291 z" id="boundary" inkscape:connector-curvature="0" />
	<path style="fill:none;stroke:red;stroke-width:1px;stroke-linecap:butt;stroke-linejoin:miter;stroke-opacity:1" d="M 273.769,463.291 256.695,463.291 z" id="boundary" inkscape:connector-curvature="0" />
	<path style="fill:none;stroke:red;stroke-width:1px;stroke-linecap:butt;stroke-linejoin:miter;stroke-opacity:1" d="M 256.695,463.291 239.621,463.291 z" id="boundary" inkscape:connector-curvature="0" />
	<path style="fill:none;stroke:red;stroke-width:1px;stroke-linecap:butt;stroke-linejoin:miter;stroke-opacity:1" d="M 239.621,463.291 222.547,463.291 z" id="boundary" inkscape:connector-curvature="0" />
	<path style="fill:none;stroke:red;stroke-width:1px;stroke-linecap:butt;stroke-linejoin:miter;stroke-opacity:1" d="M 222.547,463.291 205.473,463.291 z" id="boundary" inkscape:connector-curvature="0" />
	<path style="fill:none;stroke:red;stroke-width:1px;stroke-linecap:butt;stroke-linejoin:miter;stroke-opacity:1" d="M 205.473,463.291 188.399,463.291 z" id="boundary" inkscape:connector-curvature="0" />
	<path style="fill:none;stroke:red;stroke-width:1px;stroke-linecap:butt;stroke-linejoin:miter;stroke-opacity:1" d="M 188.399,463.291 171.325,463.291 z" id="boundary" inkscape:connector-curvature="0" />
	<path style="fill:none;stroke:red;stroke-width:1px;stroke-linecap:butt;stroke-linejoin:miter;stroke-opacity:1" d="M 171.325,463.291 154.251,463.291 z" id="boundary" inkscape:connector-curvature="0" />
	<path style="fill:none;stroke:red;stroke-width:1px;stroke-linecap:butt;stroke-linejoin:miter;stroke-opacity:1" d="M 154.251,463.291 137.177,463.291 z" id="boundary" inkscape:connector-curvature="0" />
	<path style="fill:none;stroke:red;stroke-width:1px;stroke-linecap:butt;stroke-linejoin:miter;stroke-opacity:1" d="M 137.177,463.291 120.103,463.291 z" id="boundary" inkscape:connector-curvature="0" />
	<path style="fill:none;stroke:red;stroke-width:1px;stroke-linecap:butt;stroke-linejoin:miter;stroke-opacity:1" d="M 120.103,463.291 103.029,463.291 z" id="boundary" inkscape:connector-curvature="0" />
	<path style="fill:none;stroke:red;stroke-width:1px;stroke-linecap:butt;stroke-linejoin:miter;stroke-opacity:1" d="M 103.029,463.291 85.9552,463.291 z" id="boundary" inkscape:connector-curvature="0" />
	<path style="fill:none;stroke:red;stroke-width:1px;stroke-linecap:butt;stroke-linejoin:miter;stroke-opacity:1" d="M 85.9552,463.291 68.8812,461.583 z" id="boundary" inkscape:connector-curvature="0" />
	<path style="fill:none;stroke:red;stroke-width:1px;stroke-linecap:butt;stroke-linejoin:miter;stroke-opacity:1" d="M 68.8812,461.583 51.8072,459.876 z" id="boundary" inkscape:connector-curvature="0" />
	<path style="fill:none;stroke:red;stroke-width:1px;stroke-linecap:butt;stroke-linejoin:miter;stroke-opacity:1" d="M 51.8072,459.876 34.7332,459.876 z" id="boundary" inkscape:connector-curvature="0" />
	<path style="fill:none;stroke:red;stroke-width:1px;stroke-linecap:butt;stroke-linejoin:miter;stroke-opacity:1" d="M 34.7332,459.876 36.4406,476.95 z" id="boundary" inkscape:connector-curvature="0" />
	<path style="fill:none;stroke:red;stroke-width:1px;stroke-linecap:butt;stroke-linejoin:miter;stroke-opacity:1" d="M 36.4406,476.95 36.4406,494.024 z" id="boundary" inkscape:connector-curvature="0" />
	<path style="fill:none;stroke:red;stroke-width:1px;stroke-linecap:butt;stroke-linejoin:miter;stroke-opacity:1" d="M 36.4406,494.024 31.3184,511.098 z" id="boundary" inkscape:connector-curvature="0" />
	<path style="fill:none;stroke:red;stroke-width:1px;stroke-linecap:butt;stroke-linejoin:miter;stroke-opacity:1" d="M 31.3184,511.098 29.611,528.172 z" id="boundary" inkscape:connector-curvature="0" />
	<path style="fill:none;stroke:red;stroke-width:1px;stroke-linecap:butt;stroke-linejoin:miter;stroke-opacity:1" d="M 29.611,528.172 12.537,526.465 z" id="boundary" inkscape:connector-curvature="0" />
	<path style="fill:none;stroke:red;stroke-width:1px;stroke-linecap:butt;stroke-linejoin:miter;stroke-opacity:1" d="M 12.537,526.465 10.8296,509.391 z" id="boundary" inkscape:connector-curvature="0" />
	<path style="fill:none;stroke:red;stroke-width:1px;stroke-linecap:butt;stroke-linejoin:miter;stroke-opacity:1" d="M 10.8296,509.391 10.8296,492.317 z" id="boundary" inkscape:connector-curvature="0" />
	<path style="fill:none;stroke:red;stroke-width:1px;stroke-linecap:butt;stroke-linejoin:miter;stroke-opacity:1" d="M 10.8296,492.317 7.4148,475.243 z" id="boundary" inkscape:connector-curvature="0" />
	<path style="fill:none;stroke:red;stroke-width:1px;stroke-linecap:butt;stroke-linejoin:miter;stroke-opacity:1" d="M 7.4148,475.243 7.4148,458.169 z" id="boundary" inkscape:connector-curvature="0" />
	<path style="fill:none;stroke:red;stroke-width:1px;stroke-linecap:butt;stroke-linejoin:miter;stroke-opacity:1" d="M 7.4148,458.169 7.4148,441.095 z" id="boundary" inkscape:connector-curvature="0" />
	<path style="fill:none;stroke:red;stroke-width:1px;stroke-linecap:butt;stroke-linejoin:miter;stroke-opacity:1" d="M 7.4148,441.095 4,424.021 z" id="boundary" inkscape:connector-curvature="0" />
	<path style="fill:none;stroke:red;stroke-width:1px;stroke-linecap:butt;stroke-linejoin:miter;stroke-opacity:1" d="M 4,424.021 4,406.947 z" id="boundary" inkscape:connector-curvature="0" />
	<path style="fill:none;stroke:red;stroke-width:1px;stroke-linecap:butt;stroke-linejoin:miter;stroke-opacity:1" d="M 4,406.947 4,389.873 z" id="boundary" inkscape:connector-curvature="0" />
	<path style="fill:none;stroke:red;stroke-width:1px;stroke-linecap:butt;stroke-linejoin:miter;stroke-opacity:1" d="M 4,389.873 7.4148,365.969 z" id="boundary" inkscape:connector-curvature="0" />
	<path style="fill:none;stroke:red;stroke-width:1px;stroke-linecap:butt;stroke-linejoin:miter;stroke-opacity:1" d="M 7.4148,365.969 7.4148,348.895 z" id="boundary" inkscape:connector-curvature="0" />
	<path style="fill:none;stroke:red;stroke-width:1px;stroke-linecap:butt;stroke-linejoin:miter;stroke-opacity:1" d="M 7.4148,348.895 7.4148,331.821 z" id="boundary" inkscape:connector-curvature="0" />
	<path style="fill:none;stroke:red;stroke-width:1px;stroke-linecap:butt;stroke-linejoin:miter;stroke-opacity:1" d="M 17.6592,246.451 14.2444,273.769 z" id="boundary" inkscape:connector-curvature="0" />
	<path style="fill:none;stroke:red;stroke-width:1px;stroke-linecap:butt;stroke-linejoin:miter;stroke-opacity:1" d="M 7.4148,331.821 10.8296,304.503 z" id="boundary" inkscape:connector-curvature="0" />
	<path style="fill:none;stroke:red;stroke-width:1px;stroke-linecap:butt;stroke-linejoin:miter;stroke-opacity:1" d="M 10.8296,304.503 14.2444,273.769 z" id="boundary" inkscape:connector-curvature="0" />
	<circle cx="4" cy="126.933" r="4" fill="#0" id="circle0"/>
	<circle cx="4" cy="144.007" r="4" fill="#0" id="circle1"/>
	<circle cx="4" cy="389.873" r="4" fill="#0" id="circle2"/>
	<circle cx="4" cy="406.947" r="4" fill="#0" id="circle3"/>
	<circle cx="4" cy="424.021" r="4" fill="#0" id="circle4"/>
	<circle cx="7.4148" cy="331.821" r="4" fill="#0" id="circle5"/>
	<circle cx="7.4148" cy="348.895" r="4" fill="#0" id="circle6"/>
	<circle cx="7.4148" cy="365.969" r="4" fill="#0" id="circle7"/>
	<circle cx="7.4148" cy="441.095" r="4" fill="#0" id="circle8"/>
	<circle cx="7.4148" cy="458.169" r="4" fill="#0" id="circle9"/>
	<circle cx="7.4148" cy="475.243" r="4" fill="#0" id="circle10"/>
	<circle cx="9.1222" cy="161.081" r="4" fill="#0" id="circle11"/>
	<circle cx="10.8296" cy="304.503" r="4" fill="#0" id="circle12"/>
	<circle cx="10.8296" cy="492.317" r="4" fill="#0" id="circle13"/>
	<circle cx="10.8296" cy="509.391" r="4" fill="#0" id="circle14"/>
	<circle cx="12.537" cy="526.465" r="4" fill="#0" id="circle15"/>
	<circle cx="14.2444" cy="113.274" r="4" fill="#0" id="circle16"/>
	<circle cx="14.2444" cy="178.155" r="4" fill="#0" id="circle17"/>
	<circle cx="14.2444" cy="195.229" r="4" fill="#0" id="circle18"/>
	<circle cx="14.2444" cy="273.769" r="4" fill="#0" id="circle19"/>
	<circle cx="17.6592" cy="212.303" r="4" fill="#0" id="circle20"/>
	<circle cx="17.6592" cy="229.377" r="4" fill="#0" id="circle21"/>
	<circle cx="17.6592" cy="246.451" r="4" fill="#0" id="circle22"/>
	<circle cx="29.611" cy="104.737" r="4" fill="#0" id="circle23"/>
	<circle cx="29.611" cy="528.172" r="4" fill="#0" id="circle24"/>
	<circle cx="31.3184" cy="511.098" r="4" fill="#0" id="circle25"/>
	<circle cx="34.7332" cy="459.876" r="4" fill="#0" id="circle26"/>
	<circle cx="36.4406" cy="476.95" r="4" fill="#0" id="circle27"/>
	<circle cx="36.4406" cy="494.024" r="4" fill="#0" id="circle28"/>
	<circle cx="44.9776" cy="96.1997" r="4" fill="#0" id="circle29"/>
	<circle cx="51.8072" cy="459.876" r="4" fill="#0" id="circle30"/>
	<circle cx="62.0516" cy="89.3701" r="4" fill="#0" id="circle31"/>
	<circle cx="68.8812" cy="461.583" r="4" fill="#0" id="circle32"/>
	<circle cx="79.1256" cy="85.9552" r="4" fill="#0" id="circle33"/>
	<circle cx="85.9552" cy="463.291" r="4" fill="#0" id="circle34"/>
	<circle cx="96.1997" cy="79.1256" r="4" fill="#0" id="circle35"/>
	<circle cx="103.029" cy="463.291" r="4" fill="#0" id="circle36"/>
	<circle cx="113.274" cy="75.7108" r="4" fill="#0" id="circle37"/>
	<circle cx="120.103" cy="463.291" r="4" fill="#0" id="circle38"/>
	<circle cx="130.348" cy="68.8812" r="4" fill="#0" id="circle39"/>
	<circle cx="137.177" cy="463.291" r="4" fill="#0" id="circle40"/>
	<circle cx="147.422" cy="65.4664" r="4" fill="#0" id="circle41"/>
	<circle cx="154.251" cy="463.291" r="4" fill="#0" id="circle42"/>
	<circle cx="164.496" cy="62.0516" r="4" fill="#0" id="circle43"/>
	<circle cx="171.325" cy="463.291" r="4" fill="#0" id="circle44"/>
	<circle cx="179.862" cy="53.5146" r="4" fill="#0" id="circle45"/>
	<circle cx="188.399" cy="463.291" r="4" fill="#0" id="circle46"/>
	<circle cx="195.229" cy="44.9776" r="4" fill="#0" id="circle47"/>
	<circle cx="205.473" cy="463.291" r="4" fill="#0" id="circle48"/>
	<circle cx="210.596" cy="36.4406" r="4" fill="#0" id="circle49"/>
	<circle cx="222.547" cy="463.291" r="4" fill="#0" id="circle50"/>
	<circle cx="225.962" cy="24.4888" r="4" fill="#0" id="circle51"/>
	<circle cx="239.621" cy="4" r="4" fill="#0" id="circle52"/>
	<circle cx="239.621" cy="463.291" r="4" fill="#0" id="circle53"/>
	<circle cx="256.695" cy="4" r="4" fill="#0" id="circle54"/>
	<circle cx="256.695" cy="463.291" r="4" fill="#0" id="circle55"/>
	<circle cx="272.062" cy="12.537" r="4" fill="#0" id="circle56"/>
	<circle cx="273.769" cy="463.291" r="4" fill="#0" id="circle57"/>
	<circle cx="285.721" cy="24.4888" r="4" fill="#0" id="circle58"/>
	<circle cx="290.843" cy="463.291" r="4" fill="#0" id="circle59"/>
	<circle cx="299.38" cy="34.7332" r="4" fill="#0" id="circle60"/>
	<circle cx="307.917" cy="463.291" r="4" fill="#0" id="circle61"/>
	<circle cx="316.454" cy="41.5628" r="4" fill="#0" id="circle62"/>
	<circle cx="324.991" cy="463.291" r="4" fill="#0" id="circle63"/>
	<circle cx="330.114" cy="51.8072" r="4" fill="#0" id="circle64"/>
	<circle cx="340.358" cy="65.4664" r="4" fill="#0" id="circle65"/>
	<circle cx="342.065" cy="463.291" r="4" fill="#0" id="circle66"/>
	<circle cx="357.432" cy="68.8812" r="4" fill="#0" id="circle67"/>
	<circle cx="359.139" cy="463.291" r="4" fill="#0" id="circle68"/>
	<circle cx="374.506" cy="72.296" r="4" fill="#0" id="circle69"/>
	<circle cx="376.213" cy="463.291" r="4" fill="#0" id="circle70"/>
	<circle cx="391.58" cy="75.7108" r="4" fill="#0" id="circle71"/>
	<circle cx="393.287" cy="463.291" r="4" fill="#0" id="circle72"/>
	<circle cx="408.654" cy="82.5404" r="4" fill="#0" id="circle73"/>
	<circle cx="410.361" cy="463.291" r="4" fill="#0" id="circle74"/>
	<circle cx="425.728" cy="85.9552" r="4" fill="#0" id="circle75"/>
	<circle cx="427.435" cy="463.291" r="4" fill="#0" id="circle76"/>
	<circle cx="442.802" cy="92.7849" r="4" fill="#0" id="circle77"/>
	<circle cx="444.509" cy="464.998" r="4" fill="#0" id="circle78"/>
	<circle cx="444.509" cy="482.072" r="4" fill="#0" id="circle79"/>
	<circle cx="444.509" cy="499.146" r="4" fill="#0" id="circle80"/>
	<circle cx="447.924" cy="516.22" r="4" fill="#0" id="circle81"/>
	<circle cx="456.461" cy="531.587" r="4" fill="#0" id="circle82"/>
	<circle cx="459.876" cy="99.6145" r="4" fill="#0" id="circle83"/>
	<circle cx="473.535" cy="528.172" r="4" fill="#0" id="circle84"/>
	<circle cx="475.243" cy="108.151" r="4" fill="#0" id="circle85"/>
	<circle cx="480.365" cy="171.325" r="4" fill="#0" id="circle86"/>
	<circle cx="480.365" cy="188.399" r="4" fill="#0" id="circle87"/>
	<circle cx="480.365" cy="205.473" r="4" fill="#0" id="circle88"/>
	<circle cx="487.194" cy="509.391" r="4" fill="#0" id="circle89"/>
	<circle cx="488.902" cy="118.396" r="4" fill="#0" id="circle90"/>
	<circle cx="490.609" cy="157.666" r="4" fill="#0" id="circle91"/>
	<circle cx="490.609" cy="475.243" r="4" fill="#0" id="circle92"/>
	<circle cx="490.609" cy="528.172" r="4" fill="#0" id="circle93"/>
	<circle cx="492.317" cy="219.133" r="4" fill="#0" id="circle94"/>
	<circle cx="494.024" cy="135.47" r="4" fill="#0" id="circle95"/>
	<circle cx="494.024" cy="492.317" r="4" fill="#0" id="circle96"/>
	<circle cx="507.683" cy="470.12" r="4" fill="#0" id="circle97"/>
	<circle cx="509.391" cy="225.962" r="4" fill="#0" id="circle98"/>
	<circle cx="523.05" cy="236.207" r="4" fill="#0" id="circle99"/>
	<circle cx="524.757" cy="473.535" r="4" fill="#0" id="circle100"/>
	<circle cx="536.709" cy="246.451" r="4" fill="#0" id="circle101"/>
	<circle cx="541.831" cy="476.95" r="4" fill="#0" id="circle102"/>
	<circle cx="552.076" cy="254.988" r="4" fill="#0" id="circle103"/>
	<circle cx="558.905" cy="483.78" r="4" fill="#0" id="circle104"/>
	<circle cx="562.32" cy="268.647" r="4" fill="#0" id="circle105"/>
	<circle cx="572.565" cy="473.535" r="4" fill="#0" id="circle106"/>
	<circle cx="577.687" cy="277.184" r="4" fill="#0" id="circle107"/>
	<circle cx="589.639" cy="466.706" r="4" fill="#0" id="circle108"/>
	<circle cx="594.761" cy="273.769" r="4" fill="#0" id="circle109"/>
	<circle cx="606.713" cy="466.706" r="4" fill="#0" id="circle110"/>
	<circle cx="611.835" cy="273.769" r="4" fill="#0" id="circle111"/>
	<circle cx="623.787" cy="473.535" r="4" fill="#0" id="circle112"/>
	<circle cx="628.909" cy="273.769" r="4" fill="#0" id="circle113"/>
	<circle cx="640.861" cy="480.365" r="4" fill="#0" id="circle114"/>
	<circle cx="642.568" cy="263.525" r="4" fill="#0" id="circle115"/>
	<circle cx="656.227" cy="253.281" r="4" fill="#0" id="circle116"/>
	<circle cx="657.935" cy="487.194" r="4" fill="#0" id="circle117"/>
	<circle cx="673.301" cy="246.451" r="4" fill="#0" id="circle118"/>
	<circle cx="675.009" cy="494.024" r="4" fill="#0" id="circle119"/>
	<circle cx="690.375" cy="239.621" r="4" fill="#0" id="circle120"/>
	<circle cx="692.083" cy="497.439" r="4" fill="#0" id="circle121"/>
	<circle cx="705.742" cy="231.084" r="4" fill="#0" id="circle122"/>
	<circle cx="709.157" cy="500.854" r="4" fill="#0" id="circle123"/>
	<circle cx="722.816" cy="229.377" r="4" fill="#0" id="circle124"/>
	<circle cx="726.231" cy="500.854" r="4" fill="#0" id="circle125"/>
	<circle cx="738.182" cy="237.914" r="4" fill="#0" id="circle126"/>
	<circle cx="743.305" cy="499.146" r="4" fill="#0" id="circle127"/>
	<circle cx="753.549" cy="246.451" r="4" fill="#0" id="circle128"/>
	<circle cx="760.379" cy="494.024" r="4" fill="#0" id="circle129"/>
	<circle cx="770.623" cy="253.281" r="4" fill="#0" id="circle130"/>
	<circle cx="777.453" cy="487.194" r="4" fill="#0" id="circle131"/>
	<circle cx="787.697" cy="260.11" r="4" fill="#0" id="circle132"/>
	<circle cx="794.527" cy="480.365" r="4" fill="#0" id="circle133"/>
	<circle cx="801.356" cy="270.355" r="4" fill="#0" id="circle134"/>
	<circle cx="811.601" cy="473.535" r="4" fill="#0" id="circle135"/>
	<circle cx="818.43" cy="273.769" r="4" fill="#0" id="circle136"/>
	<circle cx="828.675" cy="468.413" r="4" fill="#0" id="circle137"/>
	<circle cx="835.504" cy="273.769" r="4" fill="#0" id="circle138"/>
	<circle cx="845.749" cy="466.706" r="4" fill="#0" id="circle139"/>
	<circle cx="852.578" cy="277.184" r="4" fill="#0" id="circle140"/>
	<circle cx="862.823" cy="470.12" r="4" fill="#0" id="circle141"/>
	<circle cx="869.652" cy="277.184" r="4" fill="#0" id="circle142"/>
	<circle cx="874.775" cy="483.78" r="4" fill="#0" id="circle143"/>
	<circle cx="886.726" cy="280.599" r="4" fill="#0" id="circle144"/>
	<circle cx="891.849" cy="480.365" r="4" fill="#0" id="circle145"/>
	<circle cx="903.8" cy="284.014" r="4" fill="#0" id="circle146"/>
	<circle cx="908.923" cy="473.535" r="4" fill="#0" id="circle147"/>
	<circle cx="920.874" cy="287.429" r="4" fill="#0" id="circle148"/>
	<circle cx="925.997" cy="470.12" r="4" fill="#0" id="circle149"/>
	<circle cx="937.948" cy="290.843" r="4" fill="#0" id="circle150"/>
	<circle cx="943.071" cy="470.12" r="4" fill="#0" id="circle151"/>
	<circle cx="955.022" cy="297.673" r="4" fill="#0" id="circle152"/>
	<circle cx="958.437" cy="478.657" r="4" fill="#0" id="circle153"/>
	<circle cx="960.145" cy="499.146" r="4" fill="#0" id="circle154"/>
	<circle cx="960.145" cy="516.22" r="4" fill="#0" id="circle155"/>
	<circle cx="968.682" cy="531.587" r="4" fill="#0" id="circle156"/>
	<circle cx="972.096" cy="304.503" r="4" fill="#0" id="circle157"/>
	<circle cx="975.511" cy="406.947" r="4" fill="#0" id="circle158"/>
	<circle cx="975.511" cy="424.021" r="4" fill="#0" id="circle159"/>
	<circle cx="975.511" cy="441.095" r="4" fill="#0" id="circle160"/>
	<circle cx="977.219" cy="458.169" r="4" fill="#0" id="circle161"/>
	<circle cx="978.926" cy="365.969" r="4" fill="#0" id="circle162"/>
	<circle cx="978.926" cy="383.043" r="4" fill="#0" id="circle163"/>
	<circle cx="978.926" cy="509.391" r="4" fill="#0" id="circle164"/>
	<circle cx="984.048" cy="475.243" r="4" fill="#0" id="circle165"/>
	<circle cx="985.756" cy="314.747" r="4" fill="#0" id="circle166"/>
	<circle cx="985.756" cy="492.317" r="4" fill="#0" id="circle167"/>
	<circle cx="985.756" cy="526.465" r="4" fill="#0" id="circle168"/>
	<circle cx="992.585" cy="352.31" r="4" fill="#0" id="circle169"/>
	<circle cx="996" cy="328.406" r="4" fill="#0" id="circle170"/>
	</g>
</svg>