<?xml version="1.0" encoding="UTF-8" standalone="no"?>
<!-- Created with CurveBenchmark -->
<svg
	xmlns:dc="http://purl.org/dc/elements/1.1/"
	xmlns:cc="http://creativecommons.org/ns#"
	xmlns:rdf="http://www.w3.org/1999/02/22-rdf-syntax-ns#"
	xmlns:svg="http://www.w3.org/2000/svg"
	xmlns="http://www.w3.org/2000/svg"
	xmlns:sodipodi="http://sodipodi.sourceforge.net/DTD/sodipodi-0.dtd"
	xmlns:inkscape="http://www.inkscape.org/namespaces/inkscape"
	width="1000"
	height="1000"
	id="svg2"
	version="1.1"
	sodipodi:docname="manifold/crawl-Bone08.png.txt">
<defs
	id="defs4" />
<metadata
	id="metadata7">
	<rdf:RDF>
		<cc:Work
			rdf:about="">
			<dc:format>image/svg+xml</dc:format>
			<dc:type
				rdf:resource="http://purl.org/dc/dcmitype/StillImage" />
			<dc:title></dc:title>
		</cc:Work>
	</rdf:RDF>
</metadata>
<g
	inkscape:label="Layer 1"
	inkscape:groupmode="layer"
	id="layer1">
	<path style="fill:none;stroke:red;stroke-width:1px;stroke-linecap:butt;stroke-linejoin:miter;stroke-opacity:1" d="M 4,828.675 4,845.749 z" id="boundary" inkscape:connector-curvature="0" />
	<path style="fill:none;stroke:red;stroke-width:1px;stroke-linecap:butt;stroke-linejoin:miter;stroke-opacity:1" d="M 4,828.675 4,811.601 z" id="boundary" inkscape:connector-curvature="0" />
	<path style="fill:none;stroke:red;stroke-width:1px;stroke-linecap:butt;stroke-linejoin:miter;stroke-opacity:1" d="M 4,845.749 12.537,861.115 z" id="boundary" inkscape:connector-curvature="0" />
	<path style="fill:none;stroke:red;stroke-width:1px;stroke-linecap:butt;stroke-linejoin:miter;stroke-opacity:1" d="M 12.537,861.115 21.074,876.482 z" id="boundary" inkscape:connector-curvature="0" />
	<path style="fill:none;stroke:red;stroke-width:1px;stroke-linecap:butt;stroke-linejoin:miter;stroke-opacity:1" d="M 21.074,876.482 31.3184,890.141 z" id="boundary" inkscape:connector-curvature="0" />
	<path style="fill:none;stroke:red;stroke-width:1px;stroke-linecap:butt;stroke-linejoin:miter;stroke-opacity:1" d="M 31.3184,890.141 44.9776,902.093 z" id="boundary" inkscape:connector-curvature="0" />
	<path style="fill:none;stroke:red;stroke-width:1px;stroke-linecap:butt;stroke-linejoin:miter;stroke-opacity:1" d="M 44.9776,902.093 62.0516,902.093 z" id="boundary" inkscape:connector-curvature="0" />
	<path style="fill:none;stroke:red;stroke-width:1px;stroke-linecap:butt;stroke-linejoin:miter;stroke-opacity:1" d="M 62.0516,902.093 79.1256,902.093 z" id="boundary" inkscape:connector-curvature="0" />
	<path style="fill:none;stroke:red;stroke-width:1px;stroke-linecap:butt;stroke-linejoin:miter;stroke-opacity:1" d="M 79.1256,902.093 96.1997,902.093 z" id="boundary" inkscape:connector-curvature="0" />
	<path style="fill:none;stroke:red;stroke-width:1px;stroke-linecap:butt;stroke-linejoin:miter;stroke-opacity:1" d="M 4,811.601 17.6592,797.941 z" id="boundary" inkscape:connector-curvature="0" />
	<path style="fill:none;stroke:red;stroke-width:1px;stroke-linecap:butt;stroke-linejoin:miter;stroke-opacity:1" d="M 17.6592,797.941 31.3184,784.282 z" id="boundary" inkscape:connector-curvature="0" />
	<path style="fill:none;stroke:red;stroke-width:1px;stroke-linecap:butt;stroke-linejoin:miter;stroke-opacity:1" d="M 31.3184,784.282 44.9776,772.33 z" id="boundary" inkscape:connector-curvature="0" />
	<path style="fill:none;stroke:red;stroke-width:1px;stroke-linecap:butt;stroke-linejoin:miter;stroke-opacity:1" d="M 44.9776,772.33 56.9294,758.671 z" id="boundary" inkscape:connector-curvature="0" />
	<path style="fill:none;stroke:red;stroke-width:1px;stroke-linecap:butt;stroke-linejoin:miter;stroke-opacity:1" d="M 56.9294,758.671 74.0034,755.256 z" id="boundary" inkscape:connector-curvature="0" />
	<path style="fill:none;stroke:red;stroke-width:1px;stroke-linecap:butt;stroke-linejoin:miter;stroke-opacity:1" d="M 74.0034,755.256 91.0775,760.379 z" id="boundary" inkscape:connector-curvature="0" />
	<path style="fill:none;stroke:red;stroke-width:1px;stroke-linecap:butt;stroke-linejoin:miter;stroke-opacity:1" d="M 91.0775,760.379 106.444,768.916 z" id="boundary" inkscape:connector-curvature="0" />
	<path style="fill:none;stroke:red;stroke-width:1px;stroke-linecap:butt;stroke-linejoin:miter;stroke-opacity:1" d="M 106.444,768.916 120.103,780.867 z" id="boundary" inkscape:connector-curvature="0" />
	<path style="fill:none;stroke:red;stroke-width:1px;stroke-linecap:butt;stroke-linejoin:miter;stroke-opacity:1" d="M 120.103,780.867 135.47,789.404 z" id="boundary" inkscape:connector-curvature="0" />
	<path style="fill:none;stroke:red;stroke-width:1px;stroke-linecap:butt;stroke-linejoin:miter;stroke-opacity:1" d="M 135.47,789.404 152.544,789.404 z" id="boundary" inkscape:connector-curvature="0" />
	<path style="fill:none;stroke:red;stroke-width:1px;stroke-linecap:butt;stroke-linejoin:miter;stroke-opacity:1" d="M 152.544,789.404 169.618,789.404 z" id="boundary" inkscape:connector-curvature="0" />
	<path style="fill:none;stroke:red;stroke-width:1px;stroke-linecap:butt;stroke-linejoin:miter;stroke-opacity:1" d="M 169.618,789.404 183.277,777.453 z" id="boundary" inkscape:connector-curvature="0" />
	<path style="fill:none;stroke:red;stroke-width:1px;stroke-linecap:butt;stroke-linejoin:miter;stroke-opacity:1" d="M 183.277,777.453 200.351,768.916 z" id="boundary" inkscape:connector-curvature="0" />
	<path style="fill:none;stroke:red;stroke-width:1px;stroke-linecap:butt;stroke-linejoin:miter;stroke-opacity:1" d="M 200.351,768.916 214.01,755.256 z" id="boundary" inkscape:connector-curvature="0" />
	<path style="fill:none;stroke:red;stroke-width:1px;stroke-linecap:butt;stroke-linejoin:miter;stroke-opacity:1" d="M 214.01,755.256 227.67,741.597 z" id="boundary" inkscape:connector-curvature="0" />
	<path style="fill:none;stroke:red;stroke-width:1px;stroke-linecap:butt;stroke-linejoin:miter;stroke-opacity:1" d="M 227.67,741.597 241.329,729.645 z" id="boundary" inkscape:connector-curvature="0" />
	<path style="fill:none;stroke:red;stroke-width:1px;stroke-linecap:butt;stroke-linejoin:miter;stroke-opacity:1" d="M 241.329,729.645 256.695,721.108 z" id="boundary" inkscape:connector-curvature="0" />
	<path style="fill:none;stroke:red;stroke-width:1px;stroke-linecap:butt;stroke-linejoin:miter;stroke-opacity:1" d="M 256.695,721.108 270.355,707.449 z" id="boundary" inkscape:connector-curvature="0" />
	<path style="fill:none;stroke:red;stroke-width:1px;stroke-linecap:butt;stroke-linejoin:miter;stroke-opacity:1" d="M 270.355,707.449 284.014,695.497 z" id="boundary" inkscape:connector-curvature="0" />
	<path style="fill:none;stroke:red;stroke-width:1px;stroke-linecap:butt;stroke-linejoin:miter;stroke-opacity:1" d="M 284.014,695.497 299.38,686.96 z" id="boundary" inkscape:connector-curvature="0" />
	<path style="fill:none;stroke:red;stroke-width:1px;stroke-linecap:butt;stroke-linejoin:miter;stroke-opacity:1" d="M 299.38,686.96 313.04,673.301 z" id="boundary" inkscape:connector-curvature="0" />
	<path style="fill:none;stroke:red;stroke-width:1px;stroke-linecap:butt;stroke-linejoin:miter;stroke-opacity:1" d="M 313.04,673.301 330.114,664.764 z" id="boundary" inkscape:connector-curvature="0" />
	<path style="fill:none;stroke:red;stroke-width:1px;stroke-linecap:butt;stroke-linejoin:miter;stroke-opacity:1" d="M 330.114,664.764 343.773,652.812 z" id="boundary" inkscape:connector-curvature="0" />
	<path style="fill:none;stroke:red;stroke-width:1px;stroke-linecap:butt;stroke-linejoin:miter;stroke-opacity:1" d="M 343.773,652.812 355.725,639.153 z" id="boundary" inkscape:connector-curvature="0" />
	<path style="fill:none;stroke:red;stroke-width:1px;stroke-linecap:butt;stroke-linejoin:miter;stroke-opacity:1" d="M 355.725,639.153 369.384,627.201 z" id="boundary" inkscape:connector-curvature="0" />
	<path style="fill:none;stroke:red;stroke-width:1px;stroke-linecap:butt;stroke-linejoin:miter;stroke-opacity:1" d="M 369.384,627.201 384.75,618.664 z" id="boundary" inkscape:connector-curvature="0" />
	<path style="fill:none;stroke:red;stroke-width:1px;stroke-linecap:butt;stroke-linejoin:miter;stroke-opacity:1" d="M 384.75,618.664 398.41,605.005 z" id="boundary" inkscape:connector-curvature="0" />
	<path style="fill:none;stroke:red;stroke-width:1px;stroke-linecap:butt;stroke-linejoin:miter;stroke-opacity:1" d="M 398.41,605.005 412.069,593.053 z" id="boundary" inkscape:connector-curvature="0" />
	<path style="fill:none;stroke:red;stroke-width:1px;stroke-linecap:butt;stroke-linejoin:miter;stroke-opacity:1" d="M 412.069,593.053 427.435,584.516 z" id="boundary" inkscape:connector-curvature="0" />
	<path style="fill:none;stroke:red;stroke-width:1px;stroke-linecap:butt;stroke-linejoin:miter;stroke-opacity:1" d="M 427.435,584.516 444.509,575.979 z" id="boundary" inkscape:connector-curvature="0" />
	<path style="fill:none;stroke:red;stroke-width:1px;stroke-linecap:butt;stroke-linejoin:miter;stroke-opacity:1" d="M 444.509,575.979 458.169,562.32 z" id="boundary" inkscape:connector-curvature="0" />
	<path style="fill:none;stroke:red;stroke-width:1px;stroke-linecap:butt;stroke-linejoin:miter;stroke-opacity:1" d="M 458.169,562.32 471.828,550.368 z" id="boundary" inkscape:connector-curvature="0" />
	<path style="fill:none;stroke:red;stroke-width:1px;stroke-linecap:butt;stroke-linejoin:miter;stroke-opacity:1" d="M 471.828,550.368 483.78,536.709 z" id="boundary" inkscape:connector-curvature="0" />
	<path style="fill:none;stroke:red;stroke-width:1px;stroke-linecap:butt;stroke-linejoin:miter;stroke-opacity:1" d="M 96.1997,902.093 89.3701,922.582 z" id="boundary" inkscape:connector-curvature="0" />
	<path style="fill:none;stroke:red;stroke-width:1px;stroke-linecap:butt;stroke-linejoin:miter;stroke-opacity:1" d="M 89.3701,922.582 80.833,948.193 z" id="boundary" inkscape:connector-curvature="0" />
	<path style="fill:none;stroke:red;stroke-width:1px;stroke-linecap:butt;stroke-linejoin:miter;stroke-opacity:1" d="M 80.833,948.193 80.833,965.267 z" id="boundary" inkscape:connector-curvature="0" />
	<path style="fill:none;stroke:red;stroke-width:1px;stroke-linecap:butt;stroke-linejoin:miter;stroke-opacity:1" d="M 80.833,965.267 97.9071,970.389 z" id="boundary" inkscape:connector-curvature="0" />
	<path style="fill:none;stroke:red;stroke-width:1px;stroke-linecap:butt;stroke-linejoin:miter;stroke-opacity:1" d="M 97.9071,970.389 113.274,978.926 z" id="boundary" inkscape:connector-curvature="0" />
	<path style="fill:none;stroke:red;stroke-width:1px;stroke-linecap:butt;stroke-linejoin:miter;stroke-opacity:1" d="M 113.274,978.926 128.64,987.463 z" id="boundary" inkscape:connector-curvature="0" />
	<path style="fill:none;stroke:red;stroke-width:1px;stroke-linecap:butt;stroke-linejoin:miter;stroke-opacity:1" d="M 128.64,987.463 145.714,987.463 z" id="boundary" inkscape:connector-curvature="0" />
	<path style="fill:none;stroke:red;stroke-width:1px;stroke-linecap:butt;stroke-linejoin:miter;stroke-opacity:1" d="M 145.714,987.463 161.081,996 z" id="boundary" inkscape:connector-curvature="0" />
	<path style="fill:none;stroke:red;stroke-width:1px;stroke-linecap:butt;stroke-linejoin:miter;stroke-opacity:1" d="M 161.081,996 178.155,996 z" id="boundary" inkscape:connector-curvature="0" />
	<path style="fill:none;stroke:red;stroke-width:1px;stroke-linecap:butt;stroke-linejoin:miter;stroke-opacity:1" d="M 178.155,996 193.522,987.463 z" id="boundary" inkscape:connector-curvature="0" />
	<path style="fill:none;stroke:red;stroke-width:1px;stroke-linecap:butt;stroke-linejoin:miter;stroke-opacity:1" d="M 193.522,987.463 208.888,978.926 z" id="boundary" inkscape:connector-curvature="0" />
	<path style="fill:none;stroke:red;stroke-width:1px;stroke-linecap:butt;stroke-linejoin:miter;stroke-opacity:1" d="M 208.888,978.926 222.547,968.682 z" id="boundary" inkscape:connector-curvature="0" />
	<path style="fill:none;stroke:red;stroke-width:1px;stroke-linecap:butt;stroke-linejoin:miter;stroke-opacity:1" d="M 222.547,968.682 236.207,953.315 z" id="boundary" inkscape:connector-curvature="0" />
	<path style="fill:none;stroke:red;stroke-width:1px;stroke-linecap:butt;stroke-linejoin:miter;stroke-opacity:1" d="M 236.207,953.315 244.744,924.289 z" id="boundary" inkscape:connector-curvature="0" />
	<path style="fill:none;stroke:red;stroke-width:1px;stroke-linecap:butt;stroke-linejoin:miter;stroke-opacity:1" d="M 244.744,924.289 244.744,907.215 z" id="boundary" inkscape:connector-curvature="0" />
	<path style="fill:none;stroke:red;stroke-width:1px;stroke-linecap:butt;stroke-linejoin:miter;stroke-opacity:1" d="M 244.744,907.215 236.207,891.849 z" id="boundary" inkscape:connector-curvature="0" />
	<path style="fill:none;stroke:red;stroke-width:1px;stroke-linecap:butt;stroke-linejoin:miter;stroke-opacity:1" d="M 236.207,891.849 236.207,874.775 z" id="boundary" inkscape:connector-curvature="0" />
	<path style="fill:none;stroke:red;stroke-width:1px;stroke-linecap:butt;stroke-linejoin:miter;stroke-opacity:1" d="M 236.207,874.775 227.67,859.408 z" id="boundary" inkscape:connector-curvature="0" />
	<path style="fill:none;stroke:red;stroke-width:1px;stroke-linecap:butt;stroke-linejoin:miter;stroke-opacity:1" d="M 227.67,859.408 227.67,842.334 z" id="boundary" inkscape:connector-curvature="0" />
	<path style="fill:none;stroke:red;stroke-width:1px;stroke-linecap:butt;stroke-linejoin:miter;stroke-opacity:1" d="M 227.67,842.334 236.207,825.26 z" id="boundary" inkscape:connector-curvature="0" />
	<path style="fill:none;stroke:red;stroke-width:1px;stroke-linecap:butt;stroke-linejoin:miter;stroke-opacity:1" d="M 236.207,825.26 251.573,816.723 z" id="boundary" inkscape:connector-curvature="0" />
	<path style="fill:none;stroke:red;stroke-width:1px;stroke-linecap:butt;stroke-linejoin:miter;stroke-opacity:1" d="M 251.573,816.723 266.94,808.186 z" id="boundary" inkscape:connector-curvature="0" />
	<path style="fill:none;stroke:red;stroke-width:1px;stroke-linecap:butt;stroke-linejoin:miter;stroke-opacity:1" d="M 266.94,808.186 282.306,797.941 z" id="boundary" inkscape:connector-curvature="0" />
	<path style="fill:none;stroke:red;stroke-width:1px;stroke-linecap:butt;stroke-linejoin:miter;stroke-opacity:1" d="M 282.306,797.941 295.966,782.575 z" id="boundary" inkscape:connector-curvature="0" />
	<path style="fill:none;stroke:red;stroke-width:1px;stroke-linecap:butt;stroke-linejoin:miter;stroke-opacity:1" d="M 295.966,782.575 313.04,774.038 z" id="boundary" inkscape:connector-curvature="0" />
	<path style="fill:none;stroke:red;stroke-width:1px;stroke-linecap:butt;stroke-linejoin:miter;stroke-opacity:1" d="M 313.04,774.038 326.699,762.086 z" id="boundary" inkscape:connector-curvature="0" />
	<path style="fill:none;stroke:red;stroke-width:1px;stroke-linecap:butt;stroke-linejoin:miter;stroke-opacity:1" d="M 326.699,762.086 338.651,748.427 z" id="boundary" inkscape:connector-curvature="0" />
	<path style="fill:none;stroke:red;stroke-width:1px;stroke-linecap:butt;stroke-linejoin:miter;stroke-opacity:1" d="M 338.651,748.427 354.017,739.89 z" id="boundary" inkscape:connector-curvature="0" />
	<path style="fill:none;stroke:red;stroke-width:1px;stroke-linecap:butt;stroke-linejoin:miter;stroke-opacity:1" d="M 354.017,739.89 369.384,731.353 z" id="boundary" inkscape:connector-curvature="0" />
	<path style="fill:none;stroke:red;stroke-width:1px;stroke-linecap:butt;stroke-linejoin:miter;stroke-opacity:1" d="M 369.384,731.353 384.75,721.108 z" id="boundary" inkscape:connector-curvature="0" />
	<path style="fill:none;stroke:red;stroke-width:1px;stroke-linecap:butt;stroke-linejoin:miter;stroke-opacity:1" d="M 384.75,721.108 398.41,705.742 z" id="boundary" inkscape:connector-curvature="0" />
	<path style="fill:none;stroke:red;stroke-width:1px;stroke-linecap:butt;stroke-linejoin:miter;stroke-opacity:1" d="M 398.41,705.742 413.776,697.205 z" id="boundary" inkscape:connector-curvature="0" />
	<path style="fill:none;stroke:red;stroke-width:1px;stroke-linecap:butt;stroke-linejoin:miter;stroke-opacity:1" d="M 413.776,697.205 427.435,686.96 z" id="boundary" inkscape:connector-curvature="0" />
	<path style="fill:none;stroke:red;stroke-width:1px;stroke-linecap:butt;stroke-linejoin:miter;stroke-opacity:1" d="M 427.435,686.96 441.095,671.594 z" id="boundary" inkscape:connector-curvature="0" />
	<path style="fill:none;stroke:red;stroke-width:1px;stroke-linecap:butt;stroke-linejoin:miter;stroke-opacity:1" d="M 441.095,671.594 458.169,663.057 z" id="boundary" inkscape:connector-curvature="0" />
	<path style="fill:none;stroke:red;stroke-width:1px;stroke-linecap:butt;stroke-linejoin:miter;stroke-opacity:1" d="M 458.169,663.057 473.535,654.52 z" id="boundary" inkscape:connector-curvature="0" />
	<path style="fill:none;stroke:red;stroke-width:1px;stroke-linecap:butt;stroke-linejoin:miter;stroke-opacity:1" d="M 473.535,654.52 487.194,644.275 z" id="boundary" inkscape:connector-curvature="0" />
	<path style="fill:none;stroke:red;stroke-width:1px;stroke-linecap:butt;stroke-linejoin:miter;stroke-opacity:1" d="M 487.194,644.275 500.854,628.909 z" id="boundary" inkscape:connector-curvature="0" />
	<path style="fill:none;stroke:red;stroke-width:1px;stroke-linecap:butt;stroke-linejoin:miter;stroke-opacity:1" d="M 500.854,628.909 517.928,620.372 z" id="boundary" inkscape:connector-curvature="0" />
	<path style="fill:none;stroke:red;stroke-width:1px;stroke-linecap:butt;stroke-linejoin:miter;stroke-opacity:1" d="M 517.928,620.372 531.587,608.42 z" id="boundary" inkscape:connector-curvature="0" />
	<path style="fill:none;stroke:red;stroke-width:1px;stroke-linecap:butt;stroke-linejoin:miter;stroke-opacity:1" d="M 531.587,608.42 548.661,599.883 z" id="boundary" inkscape:connector-curvature="0" />
	<path style="fill:none;stroke:red;stroke-width:1px;stroke-linecap:butt;stroke-linejoin:miter;stroke-opacity:1" d="M 548.661,599.883 560.613,586.224 z" id="boundary" inkscape:connector-curvature="0" />
	<path style="fill:none;stroke:red;stroke-width:1px;stroke-linecap:butt;stroke-linejoin:miter;stroke-opacity:1" d="M 560.613,586.224 569.15,569.15 z" id="boundary" inkscape:connector-curvature="0" />
	<path style="fill:none;stroke:red;stroke-width:1px;stroke-linecap:butt;stroke-linejoin:miter;stroke-opacity:1" d="M 569.15,569.15 577.687,543.539 z" id="boundary" inkscape:connector-curvature="0" />
	<path style="fill:none;stroke:red;stroke-width:1px;stroke-linecap:butt;stroke-linejoin:miter;stroke-opacity:1" d="M 577.687,543.539 577.687,526.465 z" id="boundary" inkscape:connector-curvature="0" />
	<path style="fill:none;stroke:red;stroke-width:1px;stroke-linecap:butt;stroke-linejoin:miter;stroke-opacity:1" d="M 577.687,526.465 586.224,509.391 z" id="boundary" inkscape:connector-curvature="0" />
	<path style="fill:none;stroke:red;stroke-width:1px;stroke-linecap:butt;stroke-linejoin:miter;stroke-opacity:1" d="M 586.224,509.391 586.224,492.317 z" id="boundary" inkscape:connector-curvature="0" />
	<path style="fill:none;stroke:red;stroke-width:1px;stroke-linecap:butt;stroke-linejoin:miter;stroke-opacity:1" d="M 586.224,492.317 586.224,475.243 z" id="boundary" inkscape:connector-curvature="0" />
	<path style="fill:none;stroke:red;stroke-width:1px;stroke-linecap:butt;stroke-linejoin:miter;stroke-opacity:1" d="M 586.224,475.243 586.224,458.169 z" id="boundary" inkscape:connector-curvature="0" />
	<path style="fill:none;stroke:red;stroke-width:1px;stroke-linecap:butt;stroke-linejoin:miter;stroke-opacity:1" d="M 586.224,458.169 594.761,432.558 z" id="boundary" inkscape:connector-curvature="0" />
	<path style="fill:none;stroke:red;stroke-width:1px;stroke-linecap:butt;stroke-linejoin:miter;stroke-opacity:1" d="M 594.761,432.558 603.298,415.484 z" id="boundary" inkscape:connector-curvature="0" />
	<path style="fill:none;stroke:red;stroke-width:1px;stroke-linecap:butt;stroke-linejoin:miter;stroke-opacity:1" d="M 603.298,415.484 603.298,398.41 z" id="boundary" inkscape:connector-curvature="0" />
	<path style="fill:none;stroke:red;stroke-width:1px;stroke-linecap:butt;stroke-linejoin:miter;stroke-opacity:1" d="M 603.298,398.41 603.298,381.336 z" id="boundary" inkscape:connector-curvature="0" />
	<path style="fill:none;stroke:red;stroke-width:1px;stroke-linecap:butt;stroke-linejoin:miter;stroke-opacity:1" d="M 603.298,381.336 603.298,364.262 z" id="boundary" inkscape:connector-curvature="0" />
	<path style="fill:none;stroke:red;stroke-width:1px;stroke-linecap:butt;stroke-linejoin:miter;stroke-opacity:1" d="M 603.298,364.262 611.835,338.651 z" id="boundary" inkscape:connector-curvature="0" />
	<path style="fill:none;stroke:red;stroke-width:1px;stroke-linecap:butt;stroke-linejoin:miter;stroke-opacity:1" d="M 611.835,338.651 611.835,321.577 z" id="boundary" inkscape:connector-curvature="0" />
	<path style="fill:none;stroke:red;stroke-width:1px;stroke-linecap:butt;stroke-linejoin:miter;stroke-opacity:1" d="M 611.835,321.577 620.372,304.503 z" id="boundary" inkscape:connector-curvature="0" />
	<path style="fill:none;stroke:red;stroke-width:1px;stroke-linecap:butt;stroke-linejoin:miter;stroke-opacity:1" d="M 620.372,304.503 620.372,287.429 z" id="boundary" inkscape:connector-curvature="0" />
	<path style="fill:none;stroke:red;stroke-width:1px;stroke-linecap:butt;stroke-linejoin:miter;stroke-opacity:1" d="M 620.372,287.429 620.372,270.355 z" id="boundary" inkscape:connector-curvature="0" />
	<path style="fill:none;stroke:red;stroke-width:1px;stroke-linecap:butt;stroke-linejoin:miter;stroke-opacity:1" d="M 620.372,270.355 628.909,253.281 z" id="boundary" inkscape:connector-curvature="0" />
	<path style="fill:none;stroke:red;stroke-width:1px;stroke-linecap:butt;stroke-linejoin:miter;stroke-opacity:1" d="M 628.909,253.281 642.568,241.329 z" id="boundary" inkscape:connector-curvature="0" />
	<path style="fill:none;stroke:red;stroke-width:1px;stroke-linecap:butt;stroke-linejoin:miter;stroke-opacity:1" d="M 642.568,241.329 659.642,244.744 z" id="boundary" inkscape:connector-curvature="0" />
	<path style="fill:none;stroke:red;stroke-width:1px;stroke-linecap:butt;stroke-linejoin:miter;stroke-opacity:1" d="M 659.642,244.744 676.716,244.744 z" id="boundary" inkscape:connector-curvature="0" />
	<path style="fill:none;stroke:red;stroke-width:1px;stroke-linecap:butt;stroke-linejoin:miter;stroke-opacity:1" d="M 676.716,244.744 693.79,244.744 z" id="boundary" inkscape:connector-curvature="0" />
	<path style="fill:none;stroke:red;stroke-width:1px;stroke-linecap:butt;stroke-linejoin:miter;stroke-opacity:1" d="M 693.79,244.744 709.157,253.281 z" id="boundary" inkscape:connector-curvature="0" />
	<path style="fill:none;stroke:red;stroke-width:1px;stroke-linecap:butt;stroke-linejoin:miter;stroke-opacity:1" d="M 709.157,253.281 726.231,260.11 z" id="boundary" inkscape:connector-curvature="0" />
	<path style="fill:none;stroke:red;stroke-width:1px;stroke-linecap:butt;stroke-linejoin:miter;stroke-opacity:1" d="M 726.231,260.11 743.305,261.818 z" id="boundary" inkscape:connector-curvature="0" />
	<path style="fill:none;stroke:red;stroke-width:1px;stroke-linecap:butt;stroke-linejoin:miter;stroke-opacity:1" d="M 743.305,261.818 760.379,260.11 z" id="boundary" inkscape:connector-curvature="0" />
	<path style="fill:none;stroke:red;stroke-width:1px;stroke-linecap:butt;stroke-linejoin:miter;stroke-opacity:1" d="M 760.379,260.11 774.038,244.744 z" id="boundary" inkscape:connector-curvature="0" />
	<path style="fill:none;stroke:red;stroke-width:1px;stroke-linecap:butt;stroke-linejoin:miter;stroke-opacity:1" d="M 774.038,244.744 782.575,227.67 z" id="boundary" inkscape:connector-curvature="0" />
	<path style="fill:none;stroke:red;stroke-width:1px;stroke-linecap:butt;stroke-linejoin:miter;stroke-opacity:1" d="M 782.575,227.67 796.234,215.718 z" id="boundary" inkscape:connector-curvature="0" />
	<path style="fill:none;stroke:red;stroke-width:1px;stroke-linecap:butt;stroke-linejoin:miter;stroke-opacity:1" d="M 796.234,215.718 808.186,202.059 z" id="boundary" inkscape:connector-curvature="0" />
	<path style="fill:none;stroke:red;stroke-width:1px;stroke-linecap:butt;stroke-linejoin:miter;stroke-opacity:1" d="M 808.186,202.059 811.601,176.448 z" id="boundary" inkscape:connector-curvature="0" />
	<path style="fill:none;stroke:red;stroke-width:1px;stroke-linecap:butt;stroke-linejoin:miter;stroke-opacity:1" d="M 811.601,176.448 808.186,159.373 z" id="boundary" inkscape:connector-curvature="0" />
	<path style="fill:none;stroke:red;stroke-width:1px;stroke-linecap:butt;stroke-linejoin:miter;stroke-opacity:1" d="M 808.186,159.373 799.649,144.007 z" id="boundary" inkscape:connector-curvature="0" />
	<path style="fill:none;stroke:red;stroke-width:1px;stroke-linecap:butt;stroke-linejoin:miter;stroke-opacity:1" d="M 799.649,144.007 791.112,128.64 z" id="boundary" inkscape:connector-curvature="0" />
	<path style="fill:none;stroke:red;stroke-width:1px;stroke-linecap:butt;stroke-linejoin:miter;stroke-opacity:1" d="M 791.112,128.64 791.112,111.566 z" id="boundary" inkscape:connector-curvature="0" />
	<path style="fill:none;stroke:red;stroke-width:1px;stroke-linecap:butt;stroke-linejoin:miter;stroke-opacity:1" d="M 791.112,111.566 777.453,99.6145 z" id="boundary" inkscape:connector-curvature="0" />
	<path style="fill:none;stroke:red;stroke-width:1px;stroke-linecap:butt;stroke-linejoin:miter;stroke-opacity:1" d="M 777.453,99.6145 763.793,89.3701 z" id="boundary" inkscape:connector-curvature="0" />
	<path style="fill:none;stroke:red;stroke-width:1px;stroke-linecap:butt;stroke-linejoin:miter;stroke-opacity:1" d="M 763.793,89.3701 748.427,80.833 z" id="boundary" inkscape:connector-curvature="0" />
	<path style="fill:none;stroke:red;stroke-width:1px;stroke-linecap:butt;stroke-linejoin:miter;stroke-opacity:1" d="M 748.427,80.833 731.353,80.833 z" id="boundary" inkscape:connector-curvature="0" />
	<path style="fill:none;stroke:red;stroke-width:1px;stroke-linecap:butt;stroke-linejoin:miter;stroke-opacity:1" d="M 731.353,80.833 714.279,80.833 z" id="boundary" inkscape:connector-curvature="0" />
	<path style="fill:none;stroke:red;stroke-width:1px;stroke-linecap:butt;stroke-linejoin:miter;stroke-opacity:1" d="M 714.279,80.833 697.205,75.7108 z" id="boundary" inkscape:connector-curvature="0" />
	<path style="fill:none;stroke:red;stroke-width:1px;stroke-linecap:butt;stroke-linejoin:miter;stroke-opacity:1" d="M 697.205,75.7108 688.668,60.3442 z" id="boundary" inkscape:connector-curvature="0" />
	<path style="fill:none;stroke:red;stroke-width:1px;stroke-linecap:butt;stroke-linejoin:miter;stroke-opacity:1" d="M 688.668,60.3442 688.668,43.2702 z" id="boundary" inkscape:connector-curvature="0" />
	<path style="fill:none;stroke:red;stroke-width:1px;stroke-linecap:butt;stroke-linejoin:miter;stroke-opacity:1" d="M 688.668,43.2702 680.131,27.9036 z" id="boundary" inkscape:connector-curvature="0" />
	<path style="fill:none;stroke:red;stroke-width:1px;stroke-linecap:butt;stroke-linejoin:miter;stroke-opacity:1" d="M 680.131,27.9036 668.179,14.2444 z" id="boundary" inkscape:connector-curvature="0" />
	<path style="fill:none;stroke:red;stroke-width:1px;stroke-linecap:butt;stroke-linejoin:miter;stroke-opacity:1" d="M 668.179,14.2444 654.52,4 z" id="boundary" inkscape:connector-curvature="0" />
	<path style="fill:none;stroke:red;stroke-width:1px;stroke-linecap:butt;stroke-linejoin:miter;stroke-opacity:1" d="M 654.52,4 637.446,4 z" id="boundary" inkscape:connector-curvature="0" />
	<path style="fill:none;stroke:red;stroke-width:1px;stroke-linecap:butt;stroke-linejoin:miter;stroke-opacity:1" d="M 637.446,4 620.372,4 z" id="boundary" inkscape:connector-curvature="0" />
	<path style="fill:none;stroke:red;stroke-width:1px;stroke-linecap:butt;stroke-linejoin:miter;stroke-opacity:1" d="M 620.372,4 603.298,4 z" id="boundary" inkscape:connector-curvature="0" />
	<path style="fill:none;stroke:red;stroke-width:1px;stroke-linecap:butt;stroke-linejoin:miter;stroke-opacity:1" d="M 603.298,4 586.224,4 z" id="boundary" inkscape:connector-curvature="0" />
	<path style="fill:none;stroke:red;stroke-width:1px;stroke-linecap:butt;stroke-linejoin:miter;stroke-opacity:1" d="M 586.224,4 569.15,7.4148 z" id="boundary" inkscape:connector-curvature="0" />
	<path style="fill:none;stroke:red;stroke-width:1px;stroke-linecap:butt;stroke-linejoin:miter;stroke-opacity:1" d="M 569.15,7.4148 552.076,15.9518 z" id="boundary" inkscape:connector-curvature="0" />
	<path style="fill:none;stroke:red;stroke-width:1px;stroke-linecap:butt;stroke-linejoin:miter;stroke-opacity:1" d="M 552.076,15.9518 543.539,33.0258 z" id="boundary" inkscape:connector-curvature="0" />
	<path style="fill:none;stroke:red;stroke-width:1px;stroke-linecap:butt;stroke-linejoin:miter;stroke-opacity:1" d="M 543.539,33.0258 529.88,46.685 z" id="boundary" inkscape:connector-curvature="0" />
	<path style="fill:none;stroke:red;stroke-width:1px;stroke-linecap:butt;stroke-linejoin:miter;stroke-opacity:1" d="M 529.88,46.685 516.22,60.3442 z" id="boundary" inkscape:connector-curvature="0" />
	<path style="fill:none;stroke:red;stroke-width:1px;stroke-linecap:butt;stroke-linejoin:miter;stroke-opacity:1" d="M 516.22,60.3442 507.683,77.4182 z" id="boundary" inkscape:connector-curvature="0" />
	<path style="fill:none;stroke:red;stroke-width:1px;stroke-linecap:butt;stroke-linejoin:miter;stroke-opacity:1" d="M 507.683,77.4182 507.683,94.4923 z" id="boundary" inkscape:connector-curvature="0" />
	<path style="fill:none;stroke:red;stroke-width:1px;stroke-linecap:butt;stroke-linejoin:miter;stroke-opacity:1" d="M 507.683,94.4923 516.22,109.859 z" id="boundary" inkscape:connector-curvature="0" />
	<path style="fill:none;stroke:red;stroke-width:1px;stroke-linecap:butt;stroke-linejoin:miter;stroke-opacity:1" d="M 516.22,109.859 524.757,125.225 z" id="boundary" inkscape:connector-curvature="0" />
	<path style="fill:none;stroke:red;stroke-width:1px;stroke-linecap:butt;stroke-linejoin:miter;stroke-opacity:1" d="M 524.757,125.225 529.88,142.299 z" id="boundary" inkscape:connector-curvature="0" />
	<path style="fill:none;stroke:red;stroke-width:1px;stroke-linecap:butt;stroke-linejoin:miter;stroke-opacity:1" d="M 529.88,142.299 533.294,159.373 z" id="boundary" inkscape:connector-curvature="0" />
	<path style="fill:none;stroke:red;stroke-width:1px;stroke-linecap:butt;stroke-linejoin:miter;stroke-opacity:1" d="M 533.294,159.373 541.831,174.74 z" id="boundary" inkscape:connector-curvature="0" />
	<path style="fill:none;stroke:red;stroke-width:1px;stroke-linecap:butt;stroke-linejoin:miter;stroke-opacity:1" d="M 541.831,174.74 541.831,191.814 z" id="boundary" inkscape:connector-curvature="0" />
	<path style="fill:none;stroke:red;stroke-width:1px;stroke-linecap:butt;stroke-linejoin:miter;stroke-opacity:1" d="M 541.831,191.814 541.831,208.888 z" id="boundary" inkscape:connector-curvature="0" />
	<path style="fill:none;stroke:red;stroke-width:1px;stroke-linecap:butt;stroke-linejoin:miter;stroke-opacity:1" d="M 541.831,208.888 541.831,225.962 z" id="boundary" inkscape:connector-curvature="0" />
	<path style="fill:none;stroke:red;stroke-width:1px;stroke-linecap:butt;stroke-linejoin:miter;stroke-opacity:1" d="M 541.831,225.962 533.294,248.158 z" id="boundary" inkscape:connector-curvature="0" />
	<path style="fill:none;stroke:red;stroke-width:1px;stroke-linecap:butt;stroke-linejoin:miter;stroke-opacity:1" d="M 533.294,248.158 533.294,265.232 z" id="boundary" inkscape:connector-curvature="0" />
	<path style="fill:none;stroke:red;stroke-width:1px;stroke-linecap:butt;stroke-linejoin:miter;stroke-opacity:1" d="M 533.294,265.232 533.294,282.306 z" id="boundary" inkscape:connector-curvature="0" />
	<path style="fill:none;stroke:red;stroke-width:1px;stroke-linecap:butt;stroke-linejoin:miter;stroke-opacity:1" d="M 533.294,282.306 524.757,299.38 z" id="boundary" inkscape:connector-curvature="0" />
	<path style="fill:none;stroke:red;stroke-width:1px;stroke-linecap:butt;stroke-linejoin:miter;stroke-opacity:1" d="M 524.757,299.38 524.757,316.454 z" id="boundary" inkscape:connector-curvature="0" />
	<path style="fill:none;stroke:red;stroke-width:1px;stroke-linecap:butt;stroke-linejoin:miter;stroke-opacity:1" d="M 524.757,316.454 516.22,342.065 z" id="boundary" inkscape:connector-curvature="0" />
	<path style="fill:none;stroke:red;stroke-width:1px;stroke-linecap:butt;stroke-linejoin:miter;stroke-opacity:1" d="M 516.22,342.065 516.22,359.139 z" id="boundary" inkscape:connector-curvature="0" />
	<path style="fill:none;stroke:red;stroke-width:1px;stroke-linecap:butt;stroke-linejoin:miter;stroke-opacity:1" d="M 516.22,359.139 507.683,384.75 z" id="boundary" inkscape:connector-curvature="0" />
	<path style="fill:none;stroke:red;stroke-width:1px;stroke-linecap:butt;stroke-linejoin:miter;stroke-opacity:1" d="M 507.683,384.75 507.683,401.824 z" id="boundary" inkscape:connector-curvature="0" />
	<path style="fill:none;stroke:red;stroke-width:1px;stroke-linecap:butt;stroke-linejoin:miter;stroke-opacity:1" d="M 507.683,401.824 507.683,418.898 z" id="boundary" inkscape:connector-curvature="0" />
	<path style="fill:none;stroke:red;stroke-width:1px;stroke-linecap:butt;stroke-linejoin:miter;stroke-opacity:1" d="M 507.683,418.898 507.683,435.972 z" id="boundary" inkscape:connector-curvature="0" />
	<path style="fill:none;stroke:red;stroke-width:1px;stroke-linecap:butt;stroke-linejoin:miter;stroke-opacity:1" d="M 507.683,435.972 499.146,453.046 z" id="boundary" inkscape:connector-curvature="0" />
	<path style="fill:none;stroke:red;stroke-width:1px;stroke-linecap:butt;stroke-linejoin:miter;stroke-opacity:1" d="M 499.146,453.046 499.146,470.12 z" id="boundary" inkscape:connector-curvature="0" />
	<path style="fill:none;stroke:red;stroke-width:1px;stroke-linecap:butt;stroke-linejoin:miter;stroke-opacity:1" d="M 499.146,470.12 499.146,487.194 z" id="boundary" inkscape:connector-curvature="0" />
	<path style="fill:none;stroke:red;stroke-width:1px;stroke-linecap:butt;stroke-linejoin:miter;stroke-opacity:1" d="M 499.146,487.194 490.609,504.269 z" id="boundary" inkscape:connector-curvature="0" />
	<path style="fill:none;stroke:red;stroke-width:1px;stroke-linecap:butt;stroke-linejoin:miter;stroke-opacity:1" d="M 483.78,536.709 490.609,504.269 z" id="boundary" inkscape:connector-curvature="0" />
	<circle cx="4" cy="811.601" r="4" fill="#0" id="circle0"/>
	<circle cx="4" cy="828.675" r="4" fill="#0" id="circle1"/>
	<circle cx="4" cy="845.749" r="4" fill="#0" id="circle2"/>
	<circle cx="12.537" cy="861.115" r="4" fill="#0" id="circle3"/>
	<circle cx="17.6592" cy="797.941" r="4" fill="#0" id="circle4"/>
	<circle cx="21.074" cy="876.482" r="4" fill="#0" id="circle5"/>
	<circle cx="31.3184" cy="784.282" r="4" fill="#0" id="circle6"/>
	<circle cx="31.3184" cy="890.141" r="4" fill="#0" id="circle7"/>
	<circle cx="44.9776" cy="772.33" r="4" fill="#0" id="circle8"/>
	<circle cx="44.9776" cy="902.093" r="4" fill="#0" id="circle9"/>
	<circle cx="56.9294" cy="758.671" r="4" fill="#0" id="circle10"/>
	<circle cx="62.0516" cy="902.093" r="4" fill="#0" id="circle11"/>
	<circle cx="74.0034" cy="755.256" r="4" fill="#0" id="circle12"/>
	<circle cx="79.1256" cy="902.093" r="4" fill="#0" id="circle13"/>
	<circle cx="80.833" cy="948.193" r="4" fill="#0" id="circle14"/>
	<circle cx="80.833" cy="965.267" r="4" fill="#0" id="circle15"/>
	<circle cx="89.3701" cy="922.582" r="4" fill="#0" id="circle16"/>
	<circle cx="91.0775" cy="760.379" r="4" fill="#0" id="circle17"/>
	<circle cx="96.1997" cy="902.093" r="4" fill="#0" id="circle18"/>
	<circle cx="97.9071" cy="970.389" r="4" fill="#0" id="circle19"/>
	<circle cx="106.444" cy="768.916" r="4" fill="#0" id="circle20"/>
	<circle cx="113.274" cy="978.926" r="4" fill="#0" id="circle21"/>
	<circle cx="120.103" cy="780.867" r="4" fill="#0" id="circle22"/>
	<circle cx="128.64" cy="987.463" r="4" fill="#0" id="circle23"/>
	<circle cx="135.47" cy="789.404" r="4" fill="#0" id="circle24"/>
	<circle cx="145.714" cy="987.463" r="4" fill="#0" id="circle25"/>
	<circle cx="152.544" cy="789.404" r="4" fill="#0" id="circle26"/>
	<circle cx="161.081" cy="996" r="4" fill="#0" id="circle27"/>
	<circle cx="169.618" cy="789.404" r="4" fill="#0" id="circle28"/>
	<circle cx="178.155" cy="996" r="4" fill="#0" id="circle29"/>
	<circle cx="183.277" cy="777.453" r="4" fill="#0" id="circle30"/>
	<circle cx="193.522" cy="987.463" r="4" fill="#0" id="circle31"/>
	<circle cx="200.351" cy="768.916" r="4" fill="#0" id="circle32"/>
	<circle cx="208.888" cy="978.926" r="4" fill="#0" id="circle33"/>
	<circle cx="214.01" cy="755.256" r="4" fill="#0" id="circle34"/>
	<circle cx="222.547" cy="968.682" r="4" fill="#0" id="circle35"/>
	<circle cx="227.67" cy="741.597" r="4" fill="#0" id="circle36"/>
	<circle cx="227.67" cy="842.334" r="4" fill="#0" id="circle37"/>
	<circle cx="227.67" cy="859.408" r="4" fill="#0" id="circle38"/>
	<circle cx="236.207" cy="825.26" r="4" fill="#0" id="circle39"/>
	<circle cx="236.207" cy="874.775" r="4" fill="#0" id="circle40"/>
	<circle cx="236.207" cy="891.849" r="4" fill="#0" id="circle41"/>
	<circle cx="236.207" cy="953.315" r="4" fill="#0" id="circle42"/>
	<circle cx="241.329" cy="729.645" r="4" fill="#0" id="circle43"/>
	<circle cx="244.744" cy="907.215" r="4" fill="#0" id="circle44"/>
	<circle cx="244.744" cy="924.289" r="4" fill="#0" id="circle45"/>
	<circle cx="251.573" cy="816.723" r="4" fill="#0" id="circle46"/>
	<circle cx="256.695" cy="721.108" r="4" fill="#0" id="circle47"/>
	<circle cx="266.94" cy="808.186" r="4" fill="#0" id="circle48"/>
	<circle cx="270.355" cy="707.449" r="4" fill="#0" id="circle49"/>
	<circle cx="282.306" cy="797.941" r="4" fill="#0" id="circle50"/>
	<circle cx="284.014" cy="695.497" r="4" fill="#0" id="circle51"/>
	<circle cx="295.966" cy="782.575" r="4" fill="#0" id="circle52"/>
	<circle cx="299.38" cy="686.96" r="4" fill="#0" id="circle53"/>
	<circle cx="313.04" cy="673.301" r="4" fill="#0" id="circle54"/>
	<circle cx="313.04" cy="774.038" r="4" fill="#0" id="circle55"/>
	<circle cx="326.699" cy="762.086" r="4" fill="#0" id="circle56"/>
	<circle cx="330.114" cy="664.764" r="4" fill="#0" id="circle57"/>
	<circle cx="338.651" cy="748.427" r="4" fill="#0" id="circle58"/>
	<circle cx="343.773" cy="652.812" r="4" fill="#0" id="circle59"/>
	<circle cx="354.017" cy="739.89" r="4" fill="#0" id="circle60"/>
	<circle cx="355.725" cy="639.153" r="4" fill="#0" id="circle61"/>
	<circle cx="369.384" cy="627.201" r="4" fill="#0" id="circle62"/>
	<circle cx="369.384" cy="731.353" r="4" fill="#0" id="circle63"/>
	<circle cx="384.75" cy="618.664" r="4" fill="#0" id="circle64"/>
	<circle cx="384.75" cy="721.108" r="4" fill="#0" id="circle65"/>
	<circle cx="398.41" cy="605.005" r="4" fill="#0" id="circle66"/>
	<circle cx="398.41" cy="705.742" r="4" fill="#0" id="circle67"/>
	<circle cx="412.069" cy="593.053" r="4" fill="#0" id="circle68"/>
	<circle cx="413.776" cy="697.205" r="4" fill="#0" id="circle69"/>
	<circle cx="427.435" cy="584.516" r="4" fill="#0" id="circle70"/>
	<circle cx="427.435" cy="686.96" r="4" fill="#0" id="circle71"/>
	<circle cx="441.095" cy="671.594" r="4" fill="#0" id="circle72"/>
	<circle cx="444.509" cy="575.979" r="4" fill="#0" id="circle73"/>
	<circle cx="458.169" cy="562.32" r="4" fill="#0" id="circle74"/>
	<circle cx="458.169" cy="663.057" r="4" fill="#0" id="circle75"/>
	<circle cx="471.828" cy="550.368" r="4" fill="#0" id="circle76"/>
	<circle cx="473.535" cy="654.52" r="4" fill="#0" id="circle77"/>
	<circle cx="483.78" cy="536.709" r="4" fill="#0" id="circle78"/>
	<circle cx="487.194" cy="644.275" r="4" fill="#0" id="circle79"/>
	<circle cx="490.609" cy="504.269" r="4" fill="#0" id="circle80"/>
	<circle cx="499.146" cy="453.046" r="4" fill="#0" id="circle81"/>
	<circle cx="499.146" cy="470.12" r="4" fill="#0" id="circle82"/>
	<circle cx="499.146" cy="487.194" r="4" fill="#0" id="circle83"/>
	<circle cx="500.854" cy="628.909" r="4" fill="#0" id="circle84"/>
	<circle cx="507.683" cy="77.4182" r="4" fill="#0" id="circle85"/>
	<circle cx="507.683" cy="94.4923" r="4" fill="#0" id="circle86"/>
	<circle cx="507.683" cy="384.75" r="4" fill="#0" id="circle87"/>
	<circle cx="507.683" cy="401.824" r="4" fill="#0" id="circle88"/>
	<circle cx="507.683" cy="418.898" r="4" fill="#0" id="circle89"/>
	<circle cx="507.683" cy="435.972" r="4" fill="#0" id="circle90"/>
	<circle cx="516.22" cy="60.3442" r="4" fill="#0" id="circle91"/>
	<circle cx="516.22" cy="109.859" r="4" fill="#0" id="circle92"/>
	<circle cx="516.22" cy="342.065" r="4" fill="#0" id="circle93"/>
	<circle cx="516.22" cy="359.139" r="4" fill="#0" id="circle94"/>
	<circle cx="517.928" cy="620.372" r="4" fill="#0" id="circle95"/>
	<circle cx="524.757" cy="125.225" r="4" fill="#0" id="circle96"/>
	<circle cx="524.757" cy="299.38" r="4" fill="#0" id="circle97"/>
	<circle cx="524.757" cy="316.454" r="4" fill="#0" id="circle98"/>
	<circle cx="529.88" cy="46.685" r="4" fill="#0" id="circle99"/>
	<circle cx="529.88" cy="142.299" r="4" fill="#0" id="circle100"/>
	<circle cx="531.587" cy="608.42" r="4" fill="#0" id="circle101"/>
	<circle cx="533.294" cy="159.373" r="4" fill="#0" id="circle102"/>
	<circle cx="533.294" cy="248.158" r="4" fill="#0" id="circle103"/>
	<circle cx="533.294" cy="265.232" r="4" fill="#0" id="circle104"/>
	<circle cx="533.294" cy="282.306" r="4" fill="#0" id="circle105"/>
	<circle cx="541.831" cy="174.74" r="4" fill="#0" id="circle106"/>
	<circle cx="541.831" cy="191.814" r="4" fill="#0" id="circle107"/>
	<circle cx="541.831" cy="208.888" r="4" fill="#0" id="circle108"/>
	<circle cx="541.831" cy="225.962" r="4" fill="#0" id="circle109"/>
	<circle cx="543.539" cy="33.0258" r="4" fill="#0" id="circle110"/>
	<circle cx="548.661" cy="599.883" r="4" fill="#0" id="circle111"/>
	<circle cx="552.076" cy="15.9518" r="4" fill="#0" id="circle112"/>
	<circle cx="560.613" cy="586.224" r="4" fill="#0" id="circle113"/>
	<circle cx="569.15" cy="7.4148" r="4" fill="#0" id="circle114"/>
	<circle cx="569.15" cy="569.15" r="4" fill="#0" id="circle115"/>
	<circle cx="577.687" cy="526.465" r="4" fill="#0" id="circle116"/>
	<circle cx="577.687" cy="543.539" r="4" fill="#0" id="circle117"/>
	<circle cx="586.224" cy="4" r="4" fill="#0" id="circle118"/>
	<circle cx="586.224" cy="458.169" r="4" fill="#0" id="circle119"/>
	<circle cx="586.224" cy="475.243" r="4" fill="#0" id="circle120"/>
	<circle cx="586.224" cy="492.317" r="4" fill="#0" id="circle121"/>
	<circle cx="586.224" cy="509.391" r="4" fill="#0" id="circle122"/>
	<circle cx="594.761" cy="432.558" r="4" fill="#0" id="circle123"/>
	<circle cx="603.298" cy="4" r="4" fill="#0" id="circle124"/>
	<circle cx="603.298" cy="364.262" r="4" fill="#0" id="circle125"/>
	<circle cx="603.298" cy="381.336" r="4" fill="#0" id="circle126"/>
	<circle cx="603.298" cy="398.41" r="4" fill="#0" id="circle127"/>
	<circle cx="603.298" cy="415.484" r="4" fill="#0" id="circle128"/>
	<circle cx="611.835" cy="321.577" r="4" fill="#0" id="circle129"/>
	<circle cx="611.835" cy="338.651" r="4" fill="#0" id="circle130"/>
	<circle cx="620.372" cy="4" r="4" fill="#0" id="circle131"/>
	<circle cx="620.372" cy="270.355" r="4" fill="#0" id="circle132"/>
	<circle cx="620.372" cy="287.429" r="4" fill="#0" id="circle133"/>
	<circle cx="620.372" cy="304.503" r="4" fill="#0" id="circle134"/>
	<circle cx="628.909" cy="253.281" r="4" fill="#0" id="circle135"/>
	<circle cx="637.446" cy="4" r="4" fill="#0" id="circle136"/>
	<circle cx="642.568" cy="241.329" r="4" fill="#0" id="circle137"/>
	<circle cx="654.52" cy="4" r="4" fill="#0" id="circle138"/>
	<circle cx="659.642" cy="244.744" r="4" fill="#0" id="circle139"/>
	<circle cx="668.179" cy="14.2444" r="4" fill="#0" id="circle140"/>
	<circle cx="676.716" cy="244.744" r="4" fill="#0" id="circle141"/>
	<circle cx="680.131" cy="27.9036" r="4" fill="#0" id="circle142"/>
	<circle cx="688.668" cy="43.2702" r="4" fill="#0" id="circle143"/>
	<circle cx="688.668" cy="60.3442" r="4" fill="#0" id="circle144"/>
	<circle cx="693.79" cy="244.744" r="4" fill="#0" id="circle145"/>
	<circle cx="697.205" cy="75.7108" r="4" fill="#0" id="circle146"/>
	<circle cx="709.157" cy="253.281" r="4" fill="#0" id="circle147"/>
	<circle cx="714.279" cy="80.833" r="4" fill="#0" id="circle148"/>
	<circle cx="726.231" cy="260.11" r="4" fill="#0" id="circle149"/>
	<circle cx="731.353" cy="80.833" r="4" fill="#0" id="circle150"/>
	<circle cx="743.305" cy="261.818" r="4" fill="#0" id="circle151"/>
	<circle cx="748.427" cy="80.833" r="4" fill="#0" id="circle152"/>
	<circle cx="760.379" cy="260.11" r="4" fill="#0" id="circle153"/>
	<circle cx="763.793" cy="89.3701" r="4" fill="#0" id="circle154"/>
	<circle cx="774.038" cy="244.744" r="4" fill="#0" id="circle155"/>
	<circle cx="777.453" cy="99.6145" r="4" fill="#0" id="circle156"/>
	<circle cx="782.575" cy="227.67" r="4" fill="#0" id="circle157"/>
	<circle cx="791.112" cy="111.566" r="4" fill="#0" id="circle158"/>
	<circle cx="791.112" cy="128.64" r="4" fill="#0" id="circle159"/>
	<circle cx="796.234" cy="215.718" r="4" fill="#0" id="circle160"/>
	<circle cx="799.649" cy="144.007" r="4" fill="#0" id="circle161"/>
	<circle cx="808.186" cy="159.373" r="4" fill="#0" id="circle162"/>
	<circle cx="808.186" cy="202.059" r="4" fill="#0" id="circle163"/>
	<circle cx="811.601" cy="176.448" r="4" fill="#0" id="circle164"/>
	</g>
</svg>