<?xml version="1.0" encoding="UTF-8" standalone="no"?>
<!-- Created with CurveBenchmark -->
<svg
	xmlns:dc="http://purl.org/dc/elements/1.1/"
	xmlns:cc="http://creativecommons.org/ns#"
	xmlns:rdf="http://www.w3.org/1999/02/22-rdf-syntax-ns#"
	xmlns:svg="http://www.w3.org/2000/svg"
	xmlns="http://www.w3.org/2000/svg"
	xmlns:sodipodi="http://sodipodi.sourceforge.net/DTD/sodipodi-0.dtd"
	xmlns:inkscape="http://www.inkscape.org/namespaces/inkscape"
	width="1000"
	height="1000"
	id="svg2"
	version="1.1"
	sodipodi:docname="manifold/crawl-guitar350.png.txt">
<defs
	id="defs4" />
<metadata
	id="metadata7">
	<rdf:RDF>
		<cc:Work
			rdf:about="">
			<dc:format>image/svg+xml</dc:format>
			<dc:type
				rdf:resource="http://purl.org/dc/dcmitype/StillImage" />
			<dc:title></dc:title>
		</cc:Work>
	</rdf:RDF>
</metadata>
<g
	inkscape:label="Layer 1"
	inkscape:groupmode="layer"
	id="layer1">
	<path style="fill:none;stroke:red;stroke-width:1px;stroke-linecap:butt;stroke-linejoin:miter;stroke-opacity:1" d="M 4,819.488 4,854.79 z" id="boundary" inkscape:connector-curvature="0" />
	<path style="fill:none;stroke:red;stroke-width:1px;stroke-linecap:butt;stroke-linejoin:miter;stroke-opacity:1" d="M 4,854.79 11.0605,890.093 z" id="boundary" inkscape:connector-curvature="0" />
	<path style="fill:none;stroke:red;stroke-width:1px;stroke-linecap:butt;stroke-linejoin:miter;stroke-opacity:1" d="M 11.0605,890.093 32.242,918.335 z" id="boundary" inkscape:connector-curvature="0" />
	<path style="fill:none;stroke:red;stroke-width:1px;stroke-linecap:butt;stroke-linejoin:miter;stroke-opacity:1" d="M 32.242,918.335 53.4235,946.577 z" id="boundary" inkscape:connector-curvature="0" />
	<path style="fill:none;stroke:red;stroke-width:1px;stroke-linecap:butt;stroke-linejoin:miter;stroke-opacity:1" d="M 53.4235,946.577 81.6655,967.758 z" id="boundary" inkscape:connector-curvature="0" />
	<path style="fill:none;stroke:red;stroke-width:1px;stroke-linecap:butt;stroke-linejoin:miter;stroke-opacity:1" d="M 81.6655,967.758 113.438,985.409 z" id="boundary" inkscape:connector-curvature="0" />
	<path style="fill:none;stroke:red;stroke-width:1px;stroke-linecap:butt;stroke-linejoin:miter;stroke-opacity:1" d="M 113.438,985.409 148.74,992.47 z" id="boundary" inkscape:connector-curvature="0" />
	<path style="fill:none;stroke:red;stroke-width:1px;stroke-linecap:butt;stroke-linejoin:miter;stroke-opacity:1" d="M 148.74,992.47 184.043,992.47 z" id="boundary" inkscape:connector-curvature="0" />
	<path style="fill:none;stroke:red;stroke-width:1px;stroke-linecap:butt;stroke-linejoin:miter;stroke-opacity:1" d="M 184.043,992.47 219.345,996 z" id="boundary" inkscape:connector-curvature="0" />
	<path style="fill:none;stroke:red;stroke-width:1px;stroke-linecap:butt;stroke-linejoin:miter;stroke-opacity:1" d="M 219.345,996 254.648,992.47 z" id="boundary" inkscape:connector-curvature="0" />
	<path style="fill:none;stroke:red;stroke-width:1px;stroke-linecap:butt;stroke-linejoin:miter;stroke-opacity:1" d="M 254.648,992.47 289.95,981.879 z" id="boundary" inkscape:connector-curvature="0" />
	<path style="fill:none;stroke:red;stroke-width:1px;stroke-linecap:butt;stroke-linejoin:miter;stroke-opacity:1" d="M 289.95,981.879 325.253,967.758 z" id="boundary" inkscape:connector-curvature="0" />
	<path style="fill:none;stroke:red;stroke-width:1px;stroke-linecap:butt;stroke-linejoin:miter;stroke-opacity:1" d="M 325.253,967.758 353.495,946.577 z" id="boundary" inkscape:connector-curvature="0" />
	<path style="fill:none;stroke:red;stroke-width:1px;stroke-linecap:butt;stroke-linejoin:miter;stroke-opacity:1" d="M 353.495,946.577 381.737,918.335 z" id="boundary" inkscape:connector-curvature="0" />
	<path style="fill:none;stroke:red;stroke-width:1px;stroke-linecap:butt;stroke-linejoin:miter;stroke-opacity:1" d="M 381.737,918.335 399.388,886.562 z" id="boundary" inkscape:connector-curvature="0" />
	<path style="fill:none;stroke:red;stroke-width:1px;stroke-linecap:butt;stroke-linejoin:miter;stroke-opacity:1" d="M 399.388,886.562 402.918,851.26 z" id="boundary" inkscape:connector-curvature="0" />
	<path style="fill:none;stroke:red;stroke-width:1px;stroke-linecap:butt;stroke-linejoin:miter;stroke-opacity:1" d="M 402.918,851.26 402.918,815.957 z" id="boundary" inkscape:connector-curvature="0" />
	<path style="fill:none;stroke:red;stroke-width:1px;stroke-linecap:butt;stroke-linejoin:miter;stroke-opacity:1" d="M 402.918,815.957 392.327,780.655 z" id="boundary" inkscape:connector-curvature="0" />
	<path style="fill:none;stroke:red;stroke-width:1px;stroke-linecap:butt;stroke-linejoin:miter;stroke-opacity:1" d="M 392.327,780.655 374.676,748.883 z" id="boundary" inkscape:connector-curvature="0" />
	<path style="fill:none;stroke:red;stroke-width:1px;stroke-linecap:butt;stroke-linejoin:miter;stroke-opacity:1" d="M 374.676,748.883 357.025,717.11 z" id="boundary" inkscape:connector-curvature="0" />
	<path style="fill:none;stroke:red;stroke-width:1px;stroke-linecap:butt;stroke-linejoin:miter;stroke-opacity:1" d="M 357.025,717.11 339.374,685.338 z" id="boundary" inkscape:connector-curvature="0" />
	<path style="fill:none;stroke:red;stroke-width:1px;stroke-linecap:butt;stroke-linejoin:miter;stroke-opacity:1" d="M 339.374,685.338 339.374,650.036 z" id="boundary" inkscape:connector-curvature="0" />
	<path style="fill:none;stroke:red;stroke-width:1px;stroke-linecap:butt;stroke-linejoin:miter;stroke-opacity:1" d="M 339.374,650.036 357.025,618.263 z" id="boundary" inkscape:connector-curvature="0" />
	<path style="fill:none;stroke:red;stroke-width:1px;stroke-linecap:butt;stroke-linejoin:miter;stroke-opacity:1" d="M 4,819.488 18.121,777.125 z" id="boundary" inkscape:connector-curvature="0" />
	<path style="fill:none;stroke:red;stroke-width:1px;stroke-linecap:butt;stroke-linejoin:miter;stroke-opacity:1" d="M 18.121,777.125 35.7722,745.352 z" id="boundary" inkscape:connector-curvature="0" />
	<path style="fill:none;stroke:red;stroke-width:1px;stroke-linecap:butt;stroke-linejoin:miter;stroke-opacity:1" d="M 35.7722,745.352 56.9537,717.11 z" id="boundary" inkscape:connector-curvature="0" />
	<path style="fill:none;stroke:red;stroke-width:1px;stroke-linecap:butt;stroke-linejoin:miter;stroke-opacity:1" d="M 56.9537,717.11 74.605,664.157 z" id="boundary" inkscape:connector-curvature="0" />
	<path style="fill:none;stroke:red;stroke-width:1px;stroke-linecap:butt;stroke-linejoin:miter;stroke-opacity:1" d="M 74.605,664.157 64.0142,628.854 z" id="boundary" inkscape:connector-curvature="0" />
	<path style="fill:none;stroke:red;stroke-width:1px;stroke-linecap:butt;stroke-linejoin:miter;stroke-opacity:1" d="M 64.0142,628.854 53.4235,593.552 z" id="boundary" inkscape:connector-curvature="0" />
	<path style="fill:none;stroke:red;stroke-width:1px;stroke-linecap:butt;stroke-linejoin:miter;stroke-opacity:1" d="M 53.4235,593.552 53.4235,558.249 z" id="boundary" inkscape:connector-curvature="0" />
	<path style="fill:none;stroke:red;stroke-width:1px;stroke-linecap:butt;stroke-linejoin:miter;stroke-opacity:1" d="M 53.4235,558.249 74.605,530.007 z" id="boundary" inkscape:connector-curvature="0" />
	<path style="fill:none;stroke:red;stroke-width:1px;stroke-linecap:butt;stroke-linejoin:miter;stroke-opacity:1" d="M 74.605,530.007 102.847,508.826 z" id="boundary" inkscape:connector-curvature="0" />
	<path style="fill:none;stroke:red;stroke-width:1px;stroke-linecap:butt;stroke-linejoin:miter;stroke-opacity:1" d="M 102.847,508.826 138.149,501.765 z" id="boundary" inkscape:connector-curvature="0" />
	<path style="fill:none;stroke:red;stroke-width:1px;stroke-linecap:butt;stroke-linejoin:miter;stroke-opacity:1" d="M 138.149,501.765 173.452,480.584 z" id="boundary" inkscape:connector-curvature="0" />
	<path style="fill:none;stroke:red;stroke-width:1px;stroke-linecap:butt;stroke-linejoin:miter;stroke-opacity:1" d="M 173.452,480.584 173.452,445.281 z" id="boundary" inkscape:connector-curvature="0" />
	<path style="fill:none;stroke:red;stroke-width:1px;stroke-linecap:butt;stroke-linejoin:miter;stroke-opacity:1" d="M 173.452,445.281 173.452,409.979 z" id="boundary" inkscape:connector-curvature="0" />
	<path style="fill:none;stroke:red;stroke-width:1px;stroke-linecap:butt;stroke-linejoin:miter;stroke-opacity:1" d="M 173.452,409.979 173.452,374.676 z" id="boundary" inkscape:connector-curvature="0" />
	<path style="fill:none;stroke:red;stroke-width:1px;stroke-linecap:butt;stroke-linejoin:miter;stroke-opacity:1" d="M 173.452,374.676 173.452,339.374 z" id="boundary" inkscape:connector-curvature="0" />
	<path style="fill:none;stroke:red;stroke-width:1px;stroke-linecap:butt;stroke-linejoin:miter;stroke-opacity:1" d="M 173.452,339.374 173.452,304.071 z" id="boundary" inkscape:connector-curvature="0" />
	<path style="fill:none;stroke:red;stroke-width:1px;stroke-linecap:butt;stroke-linejoin:miter;stroke-opacity:1" d="M 173.452,304.071 173.452,268.769 z" id="boundary" inkscape:connector-curvature="0" />
	<path style="fill:none;stroke:red;stroke-width:1px;stroke-linecap:butt;stroke-linejoin:miter;stroke-opacity:1" d="M 173.452,268.769 173.452,233.466 z" id="boundary" inkscape:connector-curvature="0" />
	<path style="fill:none;stroke:red;stroke-width:1px;stroke-linecap:butt;stroke-linejoin:miter;stroke-opacity:1" d="M 173.452,233.466 173.452,198.164 z" id="boundary" inkscape:connector-curvature="0" />
	<path style="fill:none;stroke:red;stroke-width:1px;stroke-linecap:butt;stroke-linejoin:miter;stroke-opacity:1" d="M 173.452,198.164 173.452,162.861 z" id="boundary" inkscape:connector-curvature="0" />
	<path style="fill:none;stroke:red;stroke-width:1px;stroke-linecap:butt;stroke-linejoin:miter;stroke-opacity:1" d="M 173.452,162.861 173.452,127.559 z" id="boundary" inkscape:connector-curvature="0" />
	<path style="fill:none;stroke:red;stroke-width:1px;stroke-linecap:butt;stroke-linejoin:miter;stroke-opacity:1" d="M 173.452,127.559 152.27,99.3167 z" id="boundary" inkscape:connector-curvature="0" />
	<path style="fill:none;stroke:red;stroke-width:1px;stroke-linecap:butt;stroke-linejoin:miter;stroke-opacity:1" d="M 152.27,99.3167 159.331,64.0142 z" id="boundary" inkscape:connector-curvature="0" />
	<path style="fill:none;stroke:red;stroke-width:1px;stroke-linecap:butt;stroke-linejoin:miter;stroke-opacity:1" d="M 159.331,64.0142 159.331,28.7117 z" id="boundary" inkscape:connector-curvature="0" />
	<path style="fill:none;stroke:red;stroke-width:1px;stroke-linecap:butt;stroke-linejoin:miter;stroke-opacity:1" d="M 159.331,28.7117 187.573,7.53025 z" id="boundary" inkscape:connector-curvature="0" />
	<path style="fill:none;stroke:red;stroke-width:1px;stroke-linecap:butt;stroke-linejoin:miter;stroke-opacity:1" d="M 187.573,7.53025 222.875,4 z" id="boundary" inkscape:connector-curvature="0" />
	<path style="fill:none;stroke:red;stroke-width:1px;stroke-linecap:butt;stroke-linejoin:miter;stroke-opacity:1" d="M 222.875,4 233.466,42.8327 z" id="boundary" inkscape:connector-curvature="0" />
	<path style="fill:none;stroke:red;stroke-width:1px;stroke-linecap:butt;stroke-linejoin:miter;stroke-opacity:1" d="M 233.466,42.8327 233.466,78.1352 z" id="boundary" inkscape:connector-curvature="0" />
	<path style="fill:none;stroke:red;stroke-width:1px;stroke-linecap:butt;stroke-linejoin:miter;stroke-opacity:1" d="M 233.466,78.1352 226.406,120.498 z" id="boundary" inkscape:connector-curvature="0" />
	<path style="fill:none;stroke:red;stroke-width:1px;stroke-linecap:butt;stroke-linejoin:miter;stroke-opacity:1" d="M 226.406,120.498 226.406,155.801 z" id="boundary" inkscape:connector-curvature="0" />
	<path style="fill:none;stroke:red;stroke-width:1px;stroke-linecap:butt;stroke-linejoin:miter;stroke-opacity:1" d="M 226.406,155.801 226.406,191.103 z" id="boundary" inkscape:connector-curvature="0" />
	<path style="fill:none;stroke:red;stroke-width:1px;stroke-linecap:butt;stroke-linejoin:miter;stroke-opacity:1" d="M 226.406,191.103 226.406,226.406 z" id="boundary" inkscape:connector-curvature="0" />
	<path style="fill:none;stroke:red;stroke-width:1px;stroke-linecap:butt;stroke-linejoin:miter;stroke-opacity:1" d="M 226.406,226.406 226.406,261.708 z" id="boundary" inkscape:connector-curvature="0" />
	<path style="fill:none;stroke:red;stroke-width:1px;stroke-linecap:butt;stroke-linejoin:miter;stroke-opacity:1" d="M 226.406,261.708 226.406,297.011 z" id="boundary" inkscape:connector-curvature="0" />
	<path style="fill:none;stroke:red;stroke-width:1px;stroke-linecap:butt;stroke-linejoin:miter;stroke-opacity:1" d="M 226.406,297.011 226.406,332.313 z" id="boundary" inkscape:connector-curvature="0" />
	<path style="fill:none;stroke:red;stroke-width:1px;stroke-linecap:butt;stroke-linejoin:miter;stroke-opacity:1" d="M 226.406,332.313 226.406,367.616 z" id="boundary" inkscape:connector-curvature="0" />
	<path style="fill:none;stroke:red;stroke-width:1px;stroke-linecap:butt;stroke-linejoin:miter;stroke-opacity:1" d="M 226.406,367.616 226.406,402.918 z" id="boundary" inkscape:connector-curvature="0" />
	<path style="fill:none;stroke:red;stroke-width:1px;stroke-linecap:butt;stroke-linejoin:miter;stroke-opacity:1" d="M 226.406,402.918 233.466,438.221 z" id="boundary" inkscape:connector-curvature="0" />
	<path style="fill:none;stroke:red;stroke-width:1px;stroke-linecap:butt;stroke-linejoin:miter;stroke-opacity:1" d="M 233.466,438.221 233.466,473.523 z" id="boundary" inkscape:connector-curvature="0" />
	<path style="fill:none;stroke:red;stroke-width:1px;stroke-linecap:butt;stroke-linejoin:miter;stroke-opacity:1" d="M 233.466,473.523 247.587,508.826 z" id="boundary" inkscape:connector-curvature="0" />
	<path style="fill:none;stroke:red;stroke-width:1px;stroke-linecap:butt;stroke-linejoin:miter;stroke-opacity:1" d="M 247.587,508.826 247.587,544.128 z" id="boundary" inkscape:connector-curvature="0" />
	<path style="fill:none;stroke:red;stroke-width:1px;stroke-linecap:butt;stroke-linejoin:miter;stroke-opacity:1" d="M 247.587,544.128 268.769,572.37 z" id="boundary" inkscape:connector-curvature="0" />
	<path style="fill:none;stroke:red;stroke-width:1px;stroke-linecap:butt;stroke-linejoin:miter;stroke-opacity:1" d="M 268.769,572.37 304.071,572.37 z" id="boundary" inkscape:connector-curvature="0" />
	<path style="fill:none;stroke:red;stroke-width:1px;stroke-linecap:butt;stroke-linejoin:miter;stroke-opacity:1" d="M 304.071,572.37 328.783,544.128 z" id="boundary" inkscape:connector-curvature="0" />
	<path style="fill:none;stroke:red;stroke-width:1px;stroke-linecap:butt;stroke-linejoin:miter;stroke-opacity:1" d="M 328.783,544.128 360.555,561.779 z" id="boundary" inkscape:connector-curvature="0" />
	<path style="fill:none;stroke:red;stroke-width:1px;stroke-linecap:butt;stroke-linejoin:miter;stroke-opacity:1" d="M 360.555,561.779 357.025,618.263 z" id="boundary" inkscape:connector-curvature="0" />
	<circle cx="4" cy="819.488" r="4" fill="#0" id="circle0"/>
	<circle cx="4" cy="854.79" r="4" fill="#0" id="circle1"/>
	<circle cx="11.0605" cy="890.093" r="4" fill="#0" id="circle2"/>
	<circle cx="18.121" cy="777.125" r="4" fill="#0" id="circle3"/>
	<circle cx="32.242" cy="918.335" r="4" fill="#0" id="circle4"/>
	<circle cx="35.7722" cy="745.352" r="4" fill="#0" id="circle5"/>
	<circle cx="53.4235" cy="558.249" r="4" fill="#0" id="circle6"/>
	<circle cx="53.4235" cy="593.552" r="4" fill="#0" id="circle7"/>
	<circle cx="53.4235" cy="946.577" r="4" fill="#0" id="circle8"/>
	<circle cx="56.9537" cy="717.11" r="4" fill="#0" id="circle9"/>
	<circle cx="64.0142" cy="628.854" r="4" fill="#0" id="circle10"/>
	<circle cx="74.605" cy="530.007" r="4" fill="#0" id="circle11"/>
	<circle cx="74.605" cy="664.157" r="4" fill="#0" id="circle12"/>
	<circle cx="81.6655" cy="967.758" r="4" fill="#0" id="circle13"/>
	<circle cx="102.847" cy="508.826" r="4" fill="#0" id="circle14"/>
	<circle cx="113.438" cy="985.409" r="4" fill="#0" id="circle15"/>
	<circle cx="138.149" cy="501.765" r="4" fill="#0" id="circle16"/>
	<circle cx="148.74" cy="992.47" r="4" fill="#0" id="circle17"/>
	<circle cx="152.27" cy="99.3167" r="4" fill="#0" id="circle18"/>
	<circle cx="159.331" cy="28.7117" r="4" fill="#0" id="circle19"/>
	<circle cx="159.331" cy="64.0142" r="4" fill="#0" id="circle20"/>
	<circle cx="173.452" cy="127.559" r="4" fill="#0" id="circle21"/>
	<circle cx="173.452" cy="162.861" r="4" fill="#0" id="circle22"/>
	<circle cx="173.452" cy="198.164" r="4" fill="#0" id="circle23"/>
	<circle cx="173.452" cy="233.466" r="4" fill="#0" id="circle24"/>
	<circle cx="173.452" cy="268.769" r="4" fill="#0" id="circle25"/>
	<circle cx="173.452" cy="304.071" r="4" fill="#0" id="circle26"/>
	<circle cx="173.452" cy="339.374" r="4" fill="#0" id="circle27"/>
	<circle cx="173.452" cy="374.676" r="4" fill="#0" id="circle28"/>
	<circle cx="173.452" cy="409.979" r="4" fill="#0" id="circle29"/>
	<circle cx="173.452" cy="445.281" r="4" fill="#0" id="circle30"/>
	<circle cx="173.452" cy="480.584" r="4" fill="#0" id="circle31"/>
	<circle cx="184.043" cy="992.47" r="4" fill="#0" id="circle32"/>
	<circle cx="187.573" cy="7.53025" r="4" fill="#0" id="circle33"/>
	<circle cx="219.345" cy="996" r="4" fill="#0" id="circle34"/>
	<circle cx="222.875" cy="4" r="4" fill="#0" id="circle35"/>
	<circle cx="226.406" cy="120.498" r="4" fill="#0" id="circle36"/>
	<circle cx="226.406" cy="155.801" r="4" fill="#0" id="circle37"/>
	<circle cx="226.406" cy="191.103" r="4" fill="#0" id="circle38"/>
	<circle cx="226.406" cy="226.406" r="4" fill="#0" id="circle39"/>
	<circle cx="226.406" cy="261.708" r="4" fill="#0" id="circle40"/>
	<circle cx="226.406" cy="297.011" r="4" fill="#0" id="circle41"/>
	<circle cx="226.406" cy="332.313" r="4" fill="#0" id="circle42"/>
	<circle cx="226.406" cy="367.616" r="4" fill="#0" id="circle43"/>
	<circle cx="226.406" cy="402.918" r="4" fill="#0" id="circle44"/>
	<circle cx="233.466" cy="42.8327" r="4" fill="#0" id="circle45"/>
	<circle cx="233.466" cy="78.1352" r="4" fill="#0" id="circle46"/>
	<circle cx="233.466" cy="438.221" r="4" fill="#0" id="circle47"/>
	<circle cx="233.466" cy="473.523" r="4" fill="#0" id="circle48"/>
	<circle cx="247.587" cy="508.826" r="4" fill="#0" id="circle49"/>
	<circle cx="247.587" cy="544.128" r="4" fill="#0" id="circle50"/>
	<circle cx="254.648" cy="992.47" r="4" fill="#0" id="circle51"/>
	<circle cx="268.769" cy="572.37" r="4" fill="#0" id="circle52"/>
	<circle cx="289.95" cy="981.879" r="4" fill="#0" id="circle53"/>
	<circle cx="304.071" cy="572.37" r="4" fill="#0" id="circle54"/>
	<circle cx="325.253" cy="967.758" r="4" fill="#0" id="circle55"/>
	<circle cx="328.783" cy="544.128" r="4" fill="#0" id="circle56"/>
	<circle cx="339.374" cy="650.036" r="4" fill="#0" id="circle57"/>
	<circle cx="339.374" cy="685.338" r="4" fill="#0" id="circle58"/>
	<circle cx="353.495" cy="946.577" r="4" fill="#0" id="circle59"/>
	<circle cx="357.025" cy="618.263" r="4" fill="#0" id="circle60"/>
	<circle cx="357.025" cy="717.11" r="4" fill="#0" id="circle61"/>
	<circle cx="360.555" cy="561.779" r="4" fill="#0" id="circle62"/>
	<circle cx="374.676" cy="748.883" r="4" fill="#0" id="circle63"/>
	<circle cx="381.737" cy="918.335" r="4" fill="#0" id="circle64"/>
	<circle cx="392.327" cy="780.655" r="4" fill="#0" id="circle65"/>
	<circle cx="399.388" cy="886.562" r="4" fill="#0" id="circle66"/>
	<circle cx="402.918" cy="815.957" r="4" fill="#0" id="circle67"/>
	<circle cx="402.918" cy="851.26" r="4" fill="#0" id="circle68"/>
	</g>
</svg>