<?xml version="1.0" encoding="UTF-8" standalone="no"?>
<!-- Created with CurveBenchmark -->
<svg
	xmlns:dc="http://purl.org/dc/elements/1.1/"
	xmlns:cc="http://creativecommons.org/ns#"
	xmlns:rdf="http://www.w3.org/1999/02/22-rdf-syntax-ns#"
	xmlns:svg="http://www.w3.org/2000/svg"
	xmlns="http://www.w3.org/2000/svg"
	xmlns:sodipodi="http://sodipodi.sourceforge.net/DTD/sodipodi-0.dtd"
	xmlns:inkscape="http://www.inkscape.org/namespaces/inkscape"
	width="1000"
	height="1000"
	id="svg2"
	version="1.1"
	sodipodi:docname="manifold/crawl-car11.png.txt">
<defs
	id="defs4" />
<metadata
	id="metadata7">
	<rdf:RDF>
		<cc:Work
			rdf:about="">
			<dc:format>image/svg+xml</dc:format>
			<dc:type
				rdf:resource="http://purl.org/dc/dcmitype/StillImage" />
			<dc:title></dc:title>
		</cc:Work>
	</rdf:RDF>
</metadata>
<g
	inkscape:label="Layer 1"
	inkscape:groupmode="layer"
	id="layer1">
	<path style="fill:none;stroke:red;stroke-width:1px;stroke-linecap:butt;stroke-linejoin:miter;stroke-opacity:1" d="M 12.9209,284.115 12.9209,266.273 z" id="boundary" inkscape:connector-curvature="0" />
	<path style="fill:none;stroke:red;stroke-width:1px;stroke-linecap:butt;stroke-linejoin:miter;stroke-opacity:1" d="M 12.9209,266.273 4,250.216 z" id="boundary" inkscape:connector-curvature="0" />
	<path style="fill:none;stroke:red;stroke-width:1px;stroke-linecap:butt;stroke-linejoin:miter;stroke-opacity:1" d="M 12.9209,284.115 21.8417,300.173 z" id="boundary" inkscape:connector-curvature="0" />
	<path style="fill:none;stroke:red;stroke-width:1px;stroke-linecap:butt;stroke-linejoin:miter;stroke-opacity:1" d="M 21.8417,300.173 21.8417,318.014 z" id="boundary" inkscape:connector-curvature="0" />
	<path style="fill:none;stroke:red;stroke-width:1px;stroke-linecap:butt;stroke-linejoin:miter;stroke-opacity:1" d="M 21.8417,318.014 21.8417,335.856 z" id="boundary" inkscape:connector-curvature="0" />
	<path style="fill:none;stroke:red;stroke-width:1px;stroke-linecap:butt;stroke-linejoin:miter;stroke-opacity:1" d="M 21.8417,335.856 21.8417,353.698 z" id="boundary" inkscape:connector-curvature="0" />
	<path style="fill:none;stroke:red;stroke-width:1px;stroke-linecap:butt;stroke-linejoin:miter;stroke-opacity:1" d="M 21.8417,353.698 21.8417,371.54 z" id="boundary" inkscape:connector-curvature="0" />
	<path style="fill:none;stroke:red;stroke-width:1px;stroke-linecap:butt;stroke-linejoin:miter;stroke-opacity:1" d="M 21.8417,371.54 27.1942,389.381 z" id="boundary" inkscape:connector-curvature="0" />
	<path style="fill:none;stroke:red;stroke-width:1px;stroke-linecap:butt;stroke-linejoin:miter;stroke-opacity:1" d="M 27.1942,389.381 39.6835,403.655 z" id="boundary" inkscape:connector-curvature="0" />
	<path style="fill:none;stroke:red;stroke-width:1px;stroke-linecap:butt;stroke-linejoin:miter;stroke-opacity:1" d="M 39.6835,403.655 48.6043,419.712 z" id="boundary" inkscape:connector-curvature="0" />
	<path style="fill:none;stroke:red;stroke-width:1px;stroke-linecap:butt;stroke-linejoin:miter;stroke-opacity:1" d="M 4,250.216 18.2734,235.942 z" id="boundary" inkscape:connector-curvature="0" />
	<path style="fill:none;stroke:red;stroke-width:1px;stroke-linecap:butt;stroke-linejoin:miter;stroke-opacity:1" d="M 18.2734,235.942 34.3309,227.022 z" id="boundary" inkscape:connector-curvature="0" />
	<path style="fill:none;stroke:red;stroke-width:1px;stroke-linecap:butt;stroke-linejoin:miter;stroke-opacity:1" d="M 34.3309,227.022 43.2518,210.964 z" id="boundary" inkscape:connector-curvature="0" />
	<path style="fill:none;stroke:red;stroke-width:1px;stroke-linecap:butt;stroke-linejoin:miter;stroke-opacity:1" d="M 43.2518,210.964 61.0935,209.18 z" id="boundary" inkscape:connector-curvature="0" />
	<path style="fill:none;stroke:red;stroke-width:1px;stroke-linecap:butt;stroke-linejoin:miter;stroke-opacity:1" d="M 61.0935,209.18 78.9353,202.043 z" id="boundary" inkscape:connector-curvature="0" />
	<path style="fill:none;stroke:red;stroke-width:1px;stroke-linecap:butt;stroke-linejoin:miter;stroke-opacity:1" d="M 78.9353,202.043 96.777,202.043 z" id="boundary" inkscape:connector-curvature="0" />
	<path style="fill:none;stroke:red;stroke-width:1px;stroke-linecap:butt;stroke-linejoin:miter;stroke-opacity:1" d="M 96.777,202.043 114.619,200.259 z" id="boundary" inkscape:connector-curvature="0" />
	<path style="fill:none;stroke:red;stroke-width:1px;stroke-linecap:butt;stroke-linejoin:miter;stroke-opacity:1" d="M 114.619,200.259 132.46,200.259 z" id="boundary" inkscape:connector-curvature="0" />
	<path style="fill:none;stroke:red;stroke-width:1px;stroke-linecap:butt;stroke-linejoin:miter;stroke-opacity:1" d="M 132.46,200.259 150.302,200.259 z" id="boundary" inkscape:connector-curvature="0" />
	<path style="fill:none;stroke:red;stroke-width:1px;stroke-linecap:butt;stroke-linejoin:miter;stroke-opacity:1" d="M 150.302,200.259 166.36,191.338 z" id="boundary" inkscape:connector-curvature="0" />
	<path style="fill:none;stroke:red;stroke-width:1px;stroke-linecap:butt;stroke-linejoin:miter;stroke-opacity:1" d="M 166.36,191.338 184.201,191.338 z" id="boundary" inkscape:connector-curvature="0" />
	<path style="fill:none;stroke:red;stroke-width:1px;stroke-linecap:butt;stroke-linejoin:miter;stroke-opacity:1" d="M 184.201,191.338 202.043,185.986 z" id="boundary" inkscape:connector-curvature="0" />
	<path style="fill:none;stroke:red;stroke-width:1px;stroke-linecap:butt;stroke-linejoin:miter;stroke-opacity:1" d="M 202.043,185.986 219.885,182.417 z" id="boundary" inkscape:connector-curvature="0" />
	<path style="fill:none;stroke:red;stroke-width:1px;stroke-linecap:butt;stroke-linejoin:miter;stroke-opacity:1" d="M 219.885,182.417 237.727,182.417 z" id="boundary" inkscape:connector-curvature="0" />
	<path style="fill:none;stroke:red;stroke-width:1px;stroke-linecap:butt;stroke-linejoin:miter;stroke-opacity:1" d="M 237.727,182.417 255.568,178.849 z" id="boundary" inkscape:connector-curvature="0" />
	<path style="fill:none;stroke:red;stroke-width:1px;stroke-linecap:butt;stroke-linejoin:miter;stroke-opacity:1" d="M 255.568,178.849 273.41,173.496 z" id="boundary" inkscape:connector-curvature="0" />
	<path style="fill:none;stroke:red;stroke-width:1px;stroke-linecap:butt;stroke-linejoin:miter;stroke-opacity:1" d="M 273.41,173.496 280.547,152.086 z" id="boundary" inkscape:connector-curvature="0" />
	<path style="fill:none;stroke:red;stroke-width:1px;stroke-linecap:butt;stroke-linejoin:miter;stroke-opacity:1" d="M 280.547,152.086 294.82,137.813 z" id="boundary" inkscape:connector-curvature="0" />
	<path style="fill:none;stroke:red;stroke-width:1px;stroke-linecap:butt;stroke-linejoin:miter;stroke-opacity:1" d="M 294.82,137.813 310.878,146.734 z" id="boundary" inkscape:connector-curvature="0" />
	<path style="fill:none;stroke:red;stroke-width:1px;stroke-linecap:butt;stroke-linejoin:miter;stroke-opacity:1" d="M 310.878,146.734 328.719,146.734 z" id="boundary" inkscape:connector-curvature="0" />
	<path style="fill:none;stroke:red;stroke-width:1px;stroke-linecap:butt;stroke-linejoin:miter;stroke-opacity:1" d="M 328.719,146.734 337.64,130.676 z" id="boundary" inkscape:connector-curvature="0" />
	<path style="fill:none;stroke:red;stroke-width:1px;stroke-linecap:butt;stroke-linejoin:miter;stroke-opacity:1" d="M 337.64,130.676 351.914,116.403 z" id="boundary" inkscape:connector-curvature="0" />
	<path style="fill:none;stroke:red;stroke-width:1px;stroke-linecap:butt;stroke-linejoin:miter;stroke-opacity:1" d="M 351.914,116.403 369.755,111.05 z" id="boundary" inkscape:connector-curvature="0" />
	<path style="fill:none;stroke:red;stroke-width:1px;stroke-linecap:butt;stroke-linejoin:miter;stroke-opacity:1" d="M 369.755,111.05 387.597,111.05 z" id="boundary" inkscape:connector-curvature="0" />
	<path style="fill:none;stroke:red;stroke-width:1px;stroke-linecap:butt;stroke-linejoin:miter;stroke-opacity:1" d="M 387.597,111.05 405.439,111.05 z" id="boundary" inkscape:connector-curvature="0" />
	<path style="fill:none;stroke:red;stroke-width:1px;stroke-linecap:butt;stroke-linejoin:miter;stroke-opacity:1" d="M 405.439,111.05 419.712,121.755 z" id="boundary" inkscape:connector-curvature="0" />
	<path style="fill:none;stroke:red;stroke-width:1px;stroke-linecap:butt;stroke-linejoin:miter;stroke-opacity:1" d="M 419.712,121.755 425.065,139.597 z" id="boundary" inkscape:connector-curvature="0" />
	<path style="fill:none;stroke:red;stroke-width:1px;stroke-linecap:butt;stroke-linejoin:miter;stroke-opacity:1" d="M 425.065,139.597 442.906,132.46 z" id="boundary" inkscape:connector-curvature="0" />
	<path style="fill:none;stroke:red;stroke-width:1px;stroke-linecap:butt;stroke-linejoin:miter;stroke-opacity:1" d="M 442.906,132.46 450.043,107.482 z" id="boundary" inkscape:connector-curvature="0" />
	<path style="fill:none;stroke:red;stroke-width:1px;stroke-linecap:butt;stroke-linejoin:miter;stroke-opacity:1" d="M 450.043,107.482 450.043,89.6403 z" id="boundary" inkscape:connector-curvature="0" />
	<path style="fill:none;stroke:red;stroke-width:1px;stroke-linecap:butt;stroke-linejoin:miter;stroke-opacity:1" d="M 450.043,89.6403 450.043,71.7986 z" id="boundary" inkscape:connector-curvature="0" />
	<path style="fill:none;stroke:red;stroke-width:1px;stroke-linecap:butt;stroke-linejoin:miter;stroke-opacity:1" d="M 450.043,71.7986 450.043,53.9568 z" id="boundary" inkscape:connector-curvature="0" />
	<path style="fill:none;stroke:red;stroke-width:1px;stroke-linecap:butt;stroke-linejoin:miter;stroke-opacity:1" d="M 450.043,53.9568 458.964,36.1151 z" id="boundary" inkscape:connector-curvature="0" />
	<path style="fill:none;stroke:red;stroke-width:1px;stroke-linecap:butt;stroke-linejoin:miter;stroke-opacity:1" d="M 458.964,36.1151 476.806,18.2734 z" id="boundary" inkscape:connector-curvature="0" />
	<path style="fill:none;stroke:red;stroke-width:1px;stroke-linecap:butt;stroke-linejoin:miter;stroke-opacity:1" d="M 476.806,18.2734 494.647,9.35252 z" id="boundary" inkscape:connector-curvature="0" />
	<path style="fill:none;stroke:red;stroke-width:1px;stroke-linecap:butt;stroke-linejoin:miter;stroke-opacity:1" d="M 494.647,9.35252 512.489,4 z" id="boundary" inkscape:connector-curvature="0" />
	<path style="fill:none;stroke:red;stroke-width:1px;stroke-linecap:butt;stroke-linejoin:miter;stroke-opacity:1" d="M 512.489,4 530.331,4 z" id="boundary" inkscape:connector-curvature="0" />
	<path style="fill:none;stroke:red;stroke-width:1px;stroke-linecap:butt;stroke-linejoin:miter;stroke-opacity:1" d="M 530.331,4 548.173,4 z" id="boundary" inkscape:connector-curvature="0" />
	<path style="fill:none;stroke:red;stroke-width:1px;stroke-linecap:butt;stroke-linejoin:miter;stroke-opacity:1" d="M 548.173,4 566.014,4 z" id="boundary" inkscape:connector-curvature="0" />
	<path style="fill:none;stroke:red;stroke-width:1px;stroke-linecap:butt;stroke-linejoin:miter;stroke-opacity:1" d="M 566.014,4 583.856,4 z" id="boundary" inkscape:connector-curvature="0" />
	<path style="fill:none;stroke:red;stroke-width:1px;stroke-linecap:butt;stroke-linejoin:miter;stroke-opacity:1" d="M 583.856,4 601.698,4 z" id="boundary" inkscape:connector-curvature="0" />
	<path style="fill:none;stroke:red;stroke-width:1px;stroke-linecap:butt;stroke-linejoin:miter;stroke-opacity:1" d="M 601.698,4 619.54,4 z" id="boundary" inkscape:connector-curvature="0" />
	<path style="fill:none;stroke:red;stroke-width:1px;stroke-linecap:butt;stroke-linejoin:miter;stroke-opacity:1" d="M 619.54,4 637.381,4 z" id="boundary" inkscape:connector-curvature="0" />
	<path style="fill:none;stroke:red;stroke-width:1px;stroke-linecap:butt;stroke-linejoin:miter;stroke-opacity:1" d="M 637.381,4 655.223,4 z" id="boundary" inkscape:connector-curvature="0" />
	<path style="fill:none;stroke:red;stroke-width:1px;stroke-linecap:butt;stroke-linejoin:miter;stroke-opacity:1" d="M 655.223,4 673.065,4 z" id="boundary" inkscape:connector-curvature="0" />
	<path style="fill:none;stroke:red;stroke-width:1px;stroke-linecap:butt;stroke-linejoin:miter;stroke-opacity:1" d="M 673.065,4 690.906,4 z" id="boundary" inkscape:connector-curvature="0" />
	<path style="fill:none;stroke:red;stroke-width:1px;stroke-linecap:butt;stroke-linejoin:miter;stroke-opacity:1" d="M 690.906,4 706.964,12.9209 z" id="boundary" inkscape:connector-curvature="0" />
	<path style="fill:none;stroke:red;stroke-width:1px;stroke-linecap:butt;stroke-linejoin:miter;stroke-opacity:1" d="M 706.964,12.9209 723.022,21.8417 z" id="boundary" inkscape:connector-curvature="0" />
	<path style="fill:none;stroke:red;stroke-width:1px;stroke-linecap:butt;stroke-linejoin:miter;stroke-opacity:1" d="M 723.022,21.8417 740.863,21.8417 z" id="boundary" inkscape:connector-curvature="0" />
	<path style="fill:none;stroke:red;stroke-width:1px;stroke-linecap:butt;stroke-linejoin:miter;stroke-opacity:1" d="M 740.863,21.8417 756.921,30.7626 z" id="boundary" inkscape:connector-curvature="0" />
	<path style="fill:none;stroke:red;stroke-width:1px;stroke-linecap:butt;stroke-linejoin:miter;stroke-opacity:1" d="M 756.921,30.7626 771.194,43.2518 z" id="boundary" inkscape:connector-curvature="0" />
	<path style="fill:none;stroke:red;stroke-width:1px;stroke-linecap:butt;stroke-linejoin:miter;stroke-opacity:1" d="M 771.194,43.2518 772.978,61.0935 z" id="boundary" inkscape:connector-curvature="0" />
	<path style="fill:none;stroke:red;stroke-width:1px;stroke-linecap:butt;stroke-linejoin:miter;stroke-opacity:1" d="M 772.978,61.0935 772.978,78.9353 z" id="boundary" inkscape:connector-curvature="0" />
	<path style="fill:none;stroke:red;stroke-width:1px;stroke-linecap:butt;stroke-linejoin:miter;stroke-opacity:1" d="M 772.978,78.9353 772.978,96.777 z" id="boundary" inkscape:connector-curvature="0" />
	<path style="fill:none;stroke:red;stroke-width:1px;stroke-linecap:butt;stroke-linejoin:miter;stroke-opacity:1" d="M 772.978,96.777 772.978,114.619 z" id="boundary" inkscape:connector-curvature="0" />
	<path style="fill:none;stroke:red;stroke-width:1px;stroke-linecap:butt;stroke-linejoin:miter;stroke-opacity:1" d="M 772.978,114.619 783.683,128.892 z" id="boundary" inkscape:connector-curvature="0" />
	<path style="fill:none;stroke:red;stroke-width:1px;stroke-linecap:butt;stroke-linejoin:miter;stroke-opacity:1" d="M 783.683,128.892 797.957,141.381 z" id="boundary" inkscape:connector-curvature="0" />
	<path style="fill:none;stroke:red;stroke-width:1px;stroke-linecap:butt;stroke-linejoin:miter;stroke-opacity:1" d="M 797.957,141.381 814.014,150.302 z" id="boundary" inkscape:connector-curvature="0" />
	<path style="fill:none;stroke:red;stroke-width:1px;stroke-linecap:butt;stroke-linejoin:miter;stroke-opacity:1" d="M 814.014,150.302 826.504,164.576 z" id="boundary" inkscape:connector-curvature="0" />
	<path style="fill:none;stroke:red;stroke-width:1px;stroke-linecap:butt;stroke-linejoin:miter;stroke-opacity:1" d="M 826.504,164.576 844.345,164.576 z" id="boundary" inkscape:connector-curvature="0" />
	<path style="fill:none;stroke:red;stroke-width:1px;stroke-linecap:butt;stroke-linejoin:miter;stroke-opacity:1" d="M 844.345,164.576 860.403,155.655 z" id="boundary" inkscape:connector-curvature="0" />
	<path style="fill:none;stroke:red;stroke-width:1px;stroke-linecap:butt;stroke-linejoin:miter;stroke-opacity:1" d="M 860.403,155.655 876.46,164.576 z" id="boundary" inkscape:connector-curvature="0" />
	<path style="fill:none;stroke:red;stroke-width:1px;stroke-linecap:butt;stroke-linejoin:miter;stroke-opacity:1" d="M 876.46,164.576 894.302,164.576 z" id="boundary" inkscape:connector-curvature="0" />
	<path style="fill:none;stroke:red;stroke-width:1px;stroke-linecap:butt;stroke-linejoin:miter;stroke-opacity:1" d="M 894.302,164.576 912.144,164.576 z" id="boundary" inkscape:connector-curvature="0" />
	<path style="fill:none;stroke:red;stroke-width:1px;stroke-linecap:butt;stroke-linejoin:miter;stroke-opacity:1" d="M 912.144,164.576 929.986,164.576 z" id="boundary" inkscape:connector-curvature="0" />
	<path style="fill:none;stroke:red;stroke-width:1px;stroke-linecap:butt;stroke-linejoin:miter;stroke-opacity:1" d="M 929.986,164.576 947.827,166.36 z" id="boundary" inkscape:connector-curvature="0" />
	<path style="fill:none;stroke:red;stroke-width:1px;stroke-linecap:butt;stroke-linejoin:miter;stroke-opacity:1" d="M 947.827,166.36 963.885,175.281 z" id="boundary" inkscape:connector-curvature="0" />
	<path style="fill:none;stroke:red;stroke-width:1px;stroke-linecap:butt;stroke-linejoin:miter;stroke-opacity:1" d="M 963.885,175.281 978.158,187.77 z" id="boundary" inkscape:connector-curvature="0" />
	<path style="fill:none;stroke:red;stroke-width:1px;stroke-linecap:butt;stroke-linejoin:miter;stroke-opacity:1" d="M 978.158,187.77 987.079,203.827 z" id="boundary" inkscape:connector-curvature="0" />
	<path style="fill:none;stroke:red;stroke-width:1px;stroke-linecap:butt;stroke-linejoin:miter;stroke-opacity:1" d="M 987.079,203.827 996,219.885 z" id="boundary" inkscape:connector-curvature="0" />
	<path style="fill:none;stroke:red;stroke-width:1px;stroke-linecap:butt;stroke-linejoin:miter;stroke-opacity:1" d="M 996,219.885 996,237.727 z" id="boundary" inkscape:connector-curvature="0" />
	<path style="fill:none;stroke:red;stroke-width:1px;stroke-linecap:butt;stroke-linejoin:miter;stroke-opacity:1" d="M 996,237.727 996,255.568 z" id="boundary" inkscape:connector-curvature="0" />
	<path style="fill:none;stroke:red;stroke-width:1px;stroke-linecap:butt;stroke-linejoin:miter;stroke-opacity:1" d="M 996,255.568 996,273.41 z" id="boundary" inkscape:connector-curvature="0" />
	<path style="fill:none;stroke:red;stroke-width:1px;stroke-linecap:butt;stroke-linejoin:miter;stroke-opacity:1" d="M 48.6043,419.712 48.6043,446.475 z" id="boundary" inkscape:connector-curvature="0" />
	<path style="fill:none;stroke:red;stroke-width:1px;stroke-linecap:butt;stroke-linejoin:miter;stroke-opacity:1" d="M 48.6043,446.475 48.6043,464.317 z" id="boundary" inkscape:connector-curvature="0" />
	<path style="fill:none;stroke:red;stroke-width:1px;stroke-linecap:butt;stroke-linejoin:miter;stroke-opacity:1" d="M 48.6043,464.317 66.446,469.669 z" id="boundary" inkscape:connector-curvature="0" />
	<path style="fill:none;stroke:red;stroke-width:1px;stroke-linecap:butt;stroke-linejoin:miter;stroke-opacity:1" d="M 66.446,469.669 77.1511,483.942 z" id="boundary" inkscape:connector-curvature="0" />
	<path style="fill:none;stroke:red;stroke-width:1px;stroke-linecap:butt;stroke-linejoin:miter;stroke-opacity:1" d="M 77.1511,483.942 94.9928,487.511 z" id="boundary" inkscape:connector-curvature="0" />
	<path style="fill:none;stroke:red;stroke-width:1px;stroke-linecap:butt;stroke-linejoin:miter;stroke-opacity:1" d="M 94.9928,487.511 112.835,478.59 z" id="boundary" inkscape:connector-curvature="0" />
	<path style="fill:none;stroke:red;stroke-width:1px;stroke-linecap:butt;stroke-linejoin:miter;stroke-opacity:1" d="M 112.835,478.59 127.108,466.101 z" id="boundary" inkscape:connector-curvature="0" />
	<path style="fill:none;stroke:red;stroke-width:1px;stroke-linecap:butt;stroke-linejoin:miter;stroke-opacity:1" d="M 127.108,466.101 137.813,451.827 z" id="boundary" inkscape:connector-curvature="0" />
	<path style="fill:none;stroke:red;stroke-width:1px;stroke-linecap:butt;stroke-linejoin:miter;stroke-opacity:1" d="M 137.813,451.827 153.871,460.748 z" id="boundary" inkscape:connector-curvature="0" />
	<path style="fill:none;stroke:red;stroke-width:1px;stroke-linecap:butt;stroke-linejoin:miter;stroke-opacity:1" d="M 153.871,460.748 171.712,460.748 z" id="boundary" inkscape:connector-curvature="0" />
	<path style="fill:none;stroke:red;stroke-width:1px;stroke-linecap:butt;stroke-linejoin:miter;stroke-opacity:1" d="M 171.712,460.748 189.554,460.748 z" id="boundary" inkscape:connector-curvature="0" />
	<path style="fill:none;stroke:red;stroke-width:1px;stroke-linecap:butt;stroke-linejoin:miter;stroke-opacity:1" d="M 189.554,460.748 207.396,460.748 z" id="boundary" inkscape:connector-curvature="0" />
	<path style="fill:none;stroke:red;stroke-width:1px;stroke-linecap:butt;stroke-linejoin:miter;stroke-opacity:1" d="M 207.396,460.748 225.237,457.18 z" id="boundary" inkscape:connector-curvature="0" />
	<path style="fill:none;stroke:red;stroke-width:1px;stroke-linecap:butt;stroke-linejoin:miter;stroke-opacity:1" d="M 225.237,457.18 243.079,457.18 z" id="boundary" inkscape:connector-curvature="0" />
	<path style="fill:none;stroke:red;stroke-width:1px;stroke-linecap:butt;stroke-linejoin:miter;stroke-opacity:1" d="M 243.079,457.18 260.921,460.748 z" id="boundary" inkscape:connector-curvature="0" />
	<path style="fill:none;stroke:red;stroke-width:1px;stroke-linecap:butt;stroke-linejoin:miter;stroke-opacity:1" d="M 260.921,460.748 278.763,460.748 z" id="boundary" inkscape:connector-curvature="0" />
	<path style="fill:none;stroke:red;stroke-width:1px;stroke-linecap:butt;stroke-linejoin:miter;stroke-opacity:1" d="M 278.763,460.748 296.604,457.18 z" id="boundary" inkscape:connector-curvature="0" />
	<path style="fill:none;stroke:red;stroke-width:1px;stroke-linecap:butt;stroke-linejoin:miter;stroke-opacity:1" d="M 296.604,457.18 314.446,448.259 z" id="boundary" inkscape:connector-curvature="0" />
	<path style="fill:none;stroke:red;stroke-width:1px;stroke-linecap:butt;stroke-linejoin:miter;stroke-opacity:1" d="M 314.446,448.259 332.288,439.338 z" id="boundary" inkscape:connector-curvature="0" />
	<path style="fill:none;stroke:red;stroke-width:1px;stroke-linecap:butt;stroke-linejoin:miter;stroke-opacity:1" d="M 332.288,439.338 350.129,433.986 z" id="boundary" inkscape:connector-curvature="0" />
	<path style="fill:none;stroke:red;stroke-width:1px;stroke-linecap:butt;stroke-linejoin:miter;stroke-opacity:1" d="M 350.129,433.986 366.187,425.065 z" id="boundary" inkscape:connector-curvature="0" />
	<path style="fill:none;stroke:red;stroke-width:1px;stroke-linecap:butt;stroke-linejoin:miter;stroke-opacity:1" d="M 366.187,425.065 384.029,423.281 z" id="boundary" inkscape:connector-curvature="0" />
	<path style="fill:none;stroke:red;stroke-width:1px;stroke-linecap:butt;stroke-linejoin:miter;stroke-opacity:1" d="M 384.029,423.281 392.95,407.223 z" id="boundary" inkscape:connector-curvature="0" />
	<path style="fill:none;stroke:red;stroke-width:1px;stroke-linecap:butt;stroke-linejoin:miter;stroke-opacity:1" d="M 392.95,407.223 410.791,407.223 z" id="boundary" inkscape:connector-curvature="0" />
	<path style="fill:none;stroke:red;stroke-width:1px;stroke-linecap:butt;stroke-linejoin:miter;stroke-opacity:1" d="M 410.791,407.223 428.633,407.223 z" id="boundary" inkscape:connector-curvature="0" />
	<path style="fill:none;stroke:red;stroke-width:1px;stroke-linecap:butt;stroke-linejoin:miter;stroke-opacity:1" d="M 428.633,407.223 446.475,407.223 z" id="boundary" inkscape:connector-curvature="0" />
	<path style="fill:none;stroke:red;stroke-width:1px;stroke-linecap:butt;stroke-linejoin:miter;stroke-opacity:1" d="M 996,273.41 987.079,300.173 z" id="boundary" inkscape:connector-curvature="0" />
	<path style="fill:none;stroke:red;stroke-width:1px;stroke-linecap:butt;stroke-linejoin:miter;stroke-opacity:1" d="M 987.079,300.173 978.158,318.014 z" id="boundary" inkscape:connector-curvature="0" />
	<path style="fill:none;stroke:red;stroke-width:1px;stroke-linecap:butt;stroke-linejoin:miter;stroke-opacity:1" d="M 978.158,318.014 972.806,342.993 z" id="boundary" inkscape:connector-curvature="0" />
	<path style="fill:none;stroke:red;stroke-width:1px;stroke-linecap:butt;stroke-linejoin:miter;stroke-opacity:1" d="M 972.806,342.993 963.885,360.835 z" id="boundary" inkscape:connector-curvature="0" />
	<path style="fill:none;stroke:red;stroke-width:1px;stroke-linecap:butt;stroke-linejoin:miter;stroke-opacity:1" d="M 963.885,360.835 946.043,369.755 z" id="boundary" inkscape:connector-curvature="0" />
	<path style="fill:none;stroke:red;stroke-width:1px;stroke-linecap:butt;stroke-linejoin:miter;stroke-opacity:1" d="M 946.043,369.755 931.77,380.46 z" id="boundary" inkscape:connector-curvature="0" />
	<path style="fill:none;stroke:red;stroke-width:1px;stroke-linecap:butt;stroke-linejoin:miter;stroke-opacity:1" d="M 931.77,380.46 915.712,389.381 z" id="boundary" inkscape:connector-curvature="0" />
	<path style="fill:none;stroke:red;stroke-width:1px;stroke-linecap:butt;stroke-linejoin:miter;stroke-opacity:1" d="M 915.712,389.381 915.712,407.223 z" id="boundary" inkscape:connector-curvature="0" />
	<path style="fill:none;stroke:red;stroke-width:1px;stroke-linecap:butt;stroke-linejoin:miter;stroke-opacity:1" d="M 915.712,407.223 903.223,430.417 z" id="boundary" inkscape:connector-curvature="0" />
	<path style="fill:none;stroke:red;stroke-width:1px;stroke-linecap:butt;stroke-linejoin:miter;stroke-opacity:1" d="M 903.223,430.417 888.95,442.906 z" id="boundary" inkscape:connector-curvature="0" />
	<path style="fill:none;stroke:red;stroke-width:1px;stroke-linecap:butt;stroke-linejoin:miter;stroke-opacity:1" d="M 888.95,442.906 874.676,458.964 z" id="boundary" inkscape:connector-curvature="0" />
	<path style="fill:none;stroke:red;stroke-width:1px;stroke-linecap:butt;stroke-linejoin:miter;stroke-opacity:1" d="M 874.676,458.964 856.835,460.748 z" id="boundary" inkscape:connector-curvature="0" />
	<path style="fill:none;stroke:red;stroke-width:1px;stroke-linecap:butt;stroke-linejoin:miter;stroke-opacity:1" d="M 856.835,460.748 838.993,460.748 z" id="boundary" inkscape:connector-curvature="0" />
	<path style="fill:none;stroke:red;stroke-width:1px;stroke-linecap:butt;stroke-linejoin:miter;stroke-opacity:1" d="M 838.993,460.748 821.151,460.748 z" id="boundary" inkscape:connector-curvature="0" />
	<path style="fill:none;stroke:red;stroke-width:1px;stroke-linecap:butt;stroke-linejoin:miter;stroke-opacity:1" d="M 821.151,460.748 806.878,450.043 z" id="boundary" inkscape:connector-curvature="0" />
	<path style="fill:none;stroke:red;stroke-width:1px;stroke-linecap:butt;stroke-linejoin:miter;stroke-opacity:1" d="M 806.878,450.043 797.957,433.986 z" id="boundary" inkscape:connector-curvature="0" />
	<path style="fill:none;stroke:red;stroke-width:1px;stroke-linecap:butt;stroke-linejoin:miter;stroke-opacity:1" d="M 797.957,433.986 780.115,433.986 z" id="boundary" inkscape:connector-curvature="0" />
	<path style="fill:none;stroke:red;stroke-width:1px;stroke-linecap:butt;stroke-linejoin:miter;stroke-opacity:1" d="M 780.115,433.986 764.058,425.065 z" id="boundary" inkscape:connector-curvature="0" />
	<path style="fill:none;stroke:red;stroke-width:1px;stroke-linecap:butt;stroke-linejoin:miter;stroke-opacity:1" d="M 764.058,425.065 746.216,425.065 z" id="boundary" inkscape:connector-curvature="0" />
	<path style="fill:none;stroke:red;stroke-width:1px;stroke-linecap:butt;stroke-linejoin:miter;stroke-opacity:1" d="M 746.216,425.065 728.374,425.065 z" id="boundary" inkscape:connector-curvature="0" />
	<path style="fill:none;stroke:red;stroke-width:1px;stroke-linecap:butt;stroke-linejoin:miter;stroke-opacity:1" d="M 728.374,425.065 710.532,425.065 z" id="boundary" inkscape:connector-curvature="0" />
	<path style="fill:none;stroke:red;stroke-width:1px;stroke-linecap:butt;stroke-linejoin:miter;stroke-opacity:1" d="M 710.532,425.065 692.691,425.065 z" id="boundary" inkscape:connector-curvature="0" />
	<path style="fill:none;stroke:red;stroke-width:1px;stroke-linecap:butt;stroke-linejoin:miter;stroke-opacity:1" d="M 692.691,425.065 674.849,425.065 z" id="boundary" inkscape:connector-curvature="0" />
	<path style="fill:none;stroke:red;stroke-width:1px;stroke-linecap:butt;stroke-linejoin:miter;stroke-opacity:1" d="M 674.849,425.065 657.007,425.065 z" id="boundary" inkscape:connector-curvature="0" />
	<path style="fill:none;stroke:red;stroke-width:1px;stroke-linecap:butt;stroke-linejoin:miter;stroke-opacity:1" d="M 657.007,425.065 639.165,425.065 z" id="boundary" inkscape:connector-curvature="0" />
	<path style="fill:none;stroke:red;stroke-width:1px;stroke-linecap:butt;stroke-linejoin:miter;stroke-opacity:1" d="M 639.165,425.065 621.324,425.065 z" id="boundary" inkscape:connector-curvature="0" />
	<path style="fill:none;stroke:red;stroke-width:1px;stroke-linecap:butt;stroke-linejoin:miter;stroke-opacity:1" d="M 621.324,425.065 603.482,425.065 z" id="boundary" inkscape:connector-curvature="0" />
	<path style="fill:none;stroke:red;stroke-width:1px;stroke-linecap:butt;stroke-linejoin:miter;stroke-opacity:1" d="M 603.482,425.065 585.64,425.065 z" id="boundary" inkscape:connector-curvature="0" />
	<path style="fill:none;stroke:red;stroke-width:1px;stroke-linecap:butt;stroke-linejoin:miter;stroke-opacity:1" d="M 585.64,425.065 576.719,442.906 z" id="boundary" inkscape:connector-curvature="0" />
	<path style="fill:none;stroke:red;stroke-width:1px;stroke-linecap:butt;stroke-linejoin:miter;stroke-opacity:1" d="M 576.719,442.906 576.719,460.748 z" id="boundary" inkscape:connector-curvature="0" />
	<path style="fill:none;stroke:red;stroke-width:1px;stroke-linecap:butt;stroke-linejoin:miter;stroke-opacity:1" d="M 576.719,460.748 562.446,476.806 z" id="boundary" inkscape:connector-curvature="0" />
	<path style="fill:none;stroke:red;stroke-width:1px;stroke-linecap:butt;stroke-linejoin:miter;stroke-opacity:1" d="M 562.446,476.806 548.173,487.511 z" id="boundary" inkscape:connector-curvature="0" />
	<path style="fill:none;stroke:red;stroke-width:1px;stroke-linecap:butt;stroke-linejoin:miter;stroke-opacity:1" d="M 548.173,487.511 530.331,491.079 z" id="boundary" inkscape:connector-curvature="0" />
	<path style="fill:none;stroke:red;stroke-width:1px;stroke-linecap:butt;stroke-linejoin:miter;stroke-opacity:1" d="M 530.331,491.079 512.489,500 z" id="boundary" inkscape:connector-curvature="0" />
	<path style="fill:none;stroke:red;stroke-width:1px;stroke-linecap:butt;stroke-linejoin:miter;stroke-opacity:1" d="M 512.489,500 494.647,496.432 z" id="boundary" inkscape:connector-curvature="0" />
	<path style="fill:none;stroke:red;stroke-width:1px;stroke-linecap:butt;stroke-linejoin:miter;stroke-opacity:1" d="M 494.647,496.432 480.374,483.942 z" id="boundary" inkscape:connector-curvature="0" />
	<path style="fill:none;stroke:red;stroke-width:1px;stroke-linecap:butt;stroke-linejoin:miter;stroke-opacity:1" d="M 480.374,483.942 471.453,467.885 z" id="boundary" inkscape:connector-curvature="0" />
	<path style="fill:none;stroke:red;stroke-width:1px;stroke-linecap:butt;stroke-linejoin:miter;stroke-opacity:1" d="M 471.453,467.885 464.317,450.043 z" id="boundary" inkscape:connector-curvature="0" />
	<path style="fill:none;stroke:red;stroke-width:1px;stroke-linecap:butt;stroke-linejoin:miter;stroke-opacity:1" d="M 464.317,450.043 450.043,437.554 z" id="boundary" inkscape:connector-curvature="0" />
	<path style="fill:none;stroke:red;stroke-width:1px;stroke-linecap:butt;stroke-linejoin:miter;stroke-opacity:1" d="M 446.475,407.223 450.043,437.554 z" id="boundary" inkscape:connector-curvature="0" />
	<circle cx="4" cy="250.216" r="4" fill="#0" id="circle0"/>
	<circle cx="12.9209" cy="266.273" r="4" fill="#0" id="circle1"/>
	<circle cx="12.9209" cy="284.115" r="4" fill="#0" id="circle2"/>
	<circle cx="18.2734" cy="235.942" r="4" fill="#0" id="circle3"/>
	<circle cx="21.8417" cy="300.173" r="4" fill="#0" id="circle4"/>
	<circle cx="21.8417" cy="318.014" r="4" fill="#0" id="circle5"/>
	<circle cx="21.8417" cy="335.856" r="4" fill="#0" id="circle6"/>
	<circle cx="21.8417" cy="353.698" r="4" fill="#0" id="circle7"/>
	<circle cx="21.8417" cy="371.54" r="4" fill="#0" id="circle8"/>
	<circle cx="27.1942" cy="389.381" r="4" fill="#0" id="circle9"/>
	<circle cx="34.3309" cy="227.022" r="4" fill="#0" id="circle10"/>
	<circle cx="39.6835" cy="403.655" r="4" fill="#0" id="circle11"/>
	<circle cx="43.2518" cy="210.964" r="4" fill="#0" id="circle12"/>
	<circle cx="48.6043" cy="419.712" r="4" fill="#0" id="circle13"/>
	<circle cx="48.6043" cy="446.475" r="4" fill="#0" id="circle14"/>
	<circle cx="48.6043" cy="464.317" r="4" fill="#0" id="circle15"/>
	<circle cx="61.0935" cy="209.18" r="4" fill="#0" id="circle16"/>
	<circle cx="66.446" cy="469.669" r="4" fill="#0" id="circle17"/>
	<circle cx="77.1511" cy="483.942" r="4" fill="#0" id="circle18"/>
	<circle cx="78.9353" cy="202.043" r="4" fill="#0" id="circle19"/>
	<circle cx="87.8561" cy="218.101" r="4" fill="#0" id="circle20"/>
	<circle cx="94.9928" cy="487.511" r="4" fill="#0" id="circle21"/>
	<circle cx="96.777" cy="202.043" r="4" fill="#0" id="circle22"/>
	<circle cx="112.835" cy="478.59" r="4" fill="#0" id="circle23"/>
	<circle cx="114.619" cy="200.259" r="4" fill="#0" id="circle24"/>
	<circle cx="127.108" cy="466.101" r="4" fill="#0" id="circle25"/>
	<circle cx="132.46" cy="200.259" r="4" fill="#0" id="circle26"/>
	<circle cx="137.813" cy="451.827" r="4" fill="#0" id="circle27"/>
	<circle cx="150.302" cy="200.259" r="4" fill="#0" id="circle28"/>
	<circle cx="153.871" cy="460.748" r="4" fill="#0" id="circle29"/>
	<circle cx="166.36" cy="191.338" r="4" fill="#0" id="circle30"/>
	<circle cx="171.712" cy="460.748" r="4" fill="#0" id="circle31"/>
	<circle cx="184.201" cy="191.338" r="4" fill="#0" id="circle32"/>
	<circle cx="189.554" cy="460.748" r="4" fill="#0" id="circle33"/>
	<circle cx="202.043" cy="185.986" r="4" fill="#0" id="circle34"/>
	<circle cx="207.396" cy="460.748" r="4" fill="#0" id="circle35"/>
	<circle cx="219.885" cy="182.417" r="4" fill="#0" id="circle36"/>
	<circle cx="225.237" cy="457.18" r="4" fill="#0" id="circle37"/>
	<circle cx="237.727" cy="182.417" r="4" fill="#0" id="circle38"/>
	<circle cx="243.079" cy="457.18" r="4" fill="#0" id="circle39"/>
	<circle cx="255.568" cy="178.849" r="4" fill="#0" id="circle40"/>
	<circle cx="260.921" cy="460.748" r="4" fill="#0" id="circle41"/>
	<circle cx="273.41" cy="173.496" r="4" fill="#0" id="circle42"/>
	<circle cx="278.763" cy="460.748" r="4" fill="#0" id="circle43"/>
	<circle cx="280.547" cy="152.086" r="4" fill="#0" id="circle44"/>
	<circle cx="294.82" cy="137.813" r="4" fill="#0" id="circle45"/>
	<circle cx="296.604" cy="457.18" r="4" fill="#0" id="circle46"/>
	<circle cx="310.878" cy="146.734" r="4" fill="#0" id="circle47"/>
	<circle cx="314.446" cy="448.259" r="4" fill="#0" id="circle48"/>
	<circle cx="328.719" cy="146.734" r="4" fill="#0" id="circle49"/>
	<circle cx="332.288" cy="439.338" r="4" fill="#0" id="circle50"/>
	<circle cx="337.64" cy="130.676" r="4" fill="#0" id="circle51"/>
	<circle cx="350.129" cy="433.986" r="4" fill="#0" id="circle52"/>
	<circle cx="351.914" cy="116.403" r="4" fill="#0" id="circle53"/>
	<circle cx="366.187" cy="425.065" r="4" fill="#0" id="circle54"/>
	<circle cx="369.755" cy="111.05" r="4" fill="#0" id="circle55"/>
	<circle cx="384.029" cy="423.281" r="4" fill="#0" id="circle56"/>
	<circle cx="387.597" cy="111.05" r="4" fill="#0" id="circle57"/>
	<circle cx="392.95" cy="407.223" r="4" fill="#0" id="circle58"/>
	<circle cx="405.439" cy="111.05" r="4" fill="#0" id="circle59"/>
	<circle cx="410.791" cy="407.223" r="4" fill="#0" id="circle60"/>
	<circle cx="419.712" cy="121.755" r="4" fill="#0" id="circle61"/>
	<circle cx="425.065" cy="139.597" r="4" fill="#0" id="circle62"/>
	<circle cx="428.633" cy="407.223" r="4" fill="#0" id="circle63"/>
	<circle cx="442.906" cy="132.46" r="4" fill="#0" id="circle64"/>
	<circle cx="446.475" cy="407.223" r="4" fill="#0" id="circle65"/>
	<circle cx="450.043" cy="53.9568" r="4" fill="#0" id="circle66"/>
	<circle cx="450.043" cy="71.7986" r="4" fill="#0" id="circle67"/>
	<circle cx="450.043" cy="89.6403" r="4" fill="#0" id="circle68"/>
	<circle cx="450.043" cy="107.482" r="4" fill="#0" id="circle69"/>
	<circle cx="450.043" cy="437.554" r="4" fill="#0" id="circle70"/>
	<circle cx="458.964" cy="36.1151" r="4" fill="#0" id="circle71"/>
	<circle cx="464.317" cy="450.043" r="4" fill="#0" id="circle72"/>
	<circle cx="471.453" cy="467.885" r="4" fill="#0" id="circle73"/>
	<circle cx="476.806" cy="18.2734" r="4" fill="#0" id="circle74"/>
	<circle cx="480.374" cy="483.942" r="4" fill="#0" id="circle75"/>
	<circle cx="494.647" cy="9.35252" r="4" fill="#0" id="circle76"/>
	<circle cx="494.647" cy="496.432" r="4" fill="#0" id="circle77"/>
	<circle cx="512.489" cy="4" r="4" fill="#0" id="circle78"/>
	<circle cx="512.489" cy="500" r="4" fill="#0" id="circle79"/>
	<circle cx="530.331" cy="4" r="4" fill="#0" id="circle80"/>
	<circle cx="530.331" cy="491.079" r="4" fill="#0" id="circle81"/>
	<circle cx="548.173" cy="4" r="4" fill="#0" id="circle82"/>
	<circle cx="548.173" cy="487.511" r="4" fill="#0" id="circle83"/>
	<circle cx="562.446" cy="476.806" r="4" fill="#0" id="circle84"/>
	<circle cx="566.014" cy="4" r="4" fill="#0" id="circle85"/>
	<circle cx="576.719" cy="442.906" r="4" fill="#0" id="circle86"/>
	<circle cx="576.719" cy="460.748" r="4" fill="#0" id="circle87"/>
	<circle cx="583.856" cy="4" r="4" fill="#0" id="circle88"/>
	<circle cx="585.64" cy="425.065" r="4" fill="#0" id="circle89"/>
	<circle cx="601.698" cy="4" r="4" fill="#0" id="circle90"/>
	<circle cx="603.482" cy="425.065" r="4" fill="#0" id="circle91"/>
	<circle cx="619.54" cy="4" r="4" fill="#0" id="circle92"/>
	<circle cx="621.324" cy="425.065" r="4" fill="#0" id="circle93"/>
	<circle cx="637.381" cy="4" r="4" fill="#0" id="circle94"/>
	<circle cx="639.165" cy="425.065" r="4" fill="#0" id="circle95"/>
	<circle cx="655.223" cy="4" r="4" fill="#0" id="circle96"/>
	<circle cx="657.007" cy="425.065" r="4" fill="#0" id="circle97"/>
	<circle cx="673.065" cy="4" r="4" fill="#0" id="circle98"/>
	<circle cx="674.849" cy="425.065" r="4" fill="#0" id="circle99"/>
	<circle cx="690.906" cy="4" r="4" fill="#0" id="circle100"/>
	<circle cx="692.691" cy="425.065" r="4" fill="#0" id="circle101"/>
	<circle cx="706.964" cy="12.9209" r="4" fill="#0" id="circle102"/>
	<circle cx="710.532" cy="425.065" r="4" fill="#0" id="circle103"/>
	<circle cx="723.022" cy="21.8417" r="4" fill="#0" id="circle104"/>
	<circle cx="728.374" cy="425.065" r="4" fill="#0" id="circle105"/>
	<circle cx="740.863" cy="21.8417" r="4" fill="#0" id="circle106"/>
	<circle cx="746.216" cy="425.065" r="4" fill="#0" id="circle107"/>
	<circle cx="756.921" cy="30.7626" r="4" fill="#0" id="circle108"/>
	<circle cx="764.058" cy="425.065" r="4" fill="#0" id="circle109"/>
	<circle cx="771.194" cy="43.2518" r="4" fill="#0" id="circle110"/>
	<circle cx="772.978" cy="61.0935" r="4" fill="#0" id="circle111"/>
	<circle cx="772.978" cy="78.9353" r="4" fill="#0" id="circle112"/>
	<circle cx="772.978" cy="96.777" r="4" fill="#0" id="circle113"/>
	<circle cx="772.978" cy="114.619" r="4" fill="#0" id="circle114"/>
	<circle cx="780.115" cy="433.986" r="4" fill="#0" id="circle115"/>
	<circle cx="783.683" cy="128.892" r="4" fill="#0" id="circle116"/>
	<circle cx="797.957" cy="141.381" r="4" fill="#0" id="circle117"/>
	<circle cx="797.957" cy="433.986" r="4" fill="#0" id="circle118"/>
	<circle cx="806.878" cy="450.043" r="4" fill="#0" id="circle119"/>
	<circle cx="814.014" cy="150.302" r="4" fill="#0" id="circle120"/>
	<circle cx="821.151" cy="460.748" r="4" fill="#0" id="circle121"/>
	<circle cx="826.504" cy="164.576" r="4" fill="#0" id="circle122"/>
	<circle cx="838.993" cy="460.748" r="4" fill="#0" id="circle123"/>
	<circle cx="844.345" cy="164.576" r="4" fill="#0" id="circle124"/>
	<circle cx="856.835" cy="460.748" r="4" fill="#0" id="circle125"/>
	<circle cx="860.403" cy="155.655" r="4" fill="#0" id="circle126"/>
	<circle cx="874.676" cy="458.964" r="4" fill="#0" id="circle127"/>
	<circle cx="876.46" cy="164.576" r="4" fill="#0" id="circle128"/>
	<circle cx="888.95" cy="442.906" r="4" fill="#0" id="circle129"/>
	<circle cx="894.302" cy="164.576" r="4" fill="#0" id="circle130"/>
	<circle cx="903.223" cy="430.417" r="4" fill="#0" id="circle131"/>
	<circle cx="912.144" cy="164.576" r="4" fill="#0" id="circle132"/>
	<circle cx="915.712" cy="389.381" r="4" fill="#0" id="circle133"/>
	<circle cx="915.712" cy="407.223" r="4" fill="#0" id="circle134"/>
	<circle cx="929.986" cy="164.576" r="4" fill="#0" id="circle135"/>
	<circle cx="931.77" cy="380.46" r="4" fill="#0" id="circle136"/>
	<circle cx="946.043" cy="369.755" r="4" fill="#0" id="circle137"/>
	<circle cx="947.827" cy="166.36" r="4" fill="#0" id="circle138"/>
	<circle cx="963.885" cy="175.281" r="4" fill="#0" id="circle139"/>
	<circle cx="963.885" cy="360.835" r="4" fill="#0" id="circle140"/>
	<circle cx="972.806" cy="342.993" r="4" fill="#0" id="circle141"/>
	<circle cx="978.158" cy="187.77" r="4" fill="#0" id="circle142"/>
	<circle cx="978.158" cy="318.014" r="4" fill="#0" id="circle143"/>
	<circle cx="987.079" cy="203.827" r="4" fill="#0" id="circle144"/>
	<circle cx="987.079" cy="300.173" r="4" fill="#0" id="circle145"/>
	<circle cx="996" cy="219.885" r="4" fill="#0" id="circle146"/>
	<circle cx="996" cy="237.727" r="4" fill="#0" id="circle147"/>
	<circle cx="996" cy="255.568" r="4" fill="#0" id="circle148"/>
	<circle cx="996" cy="273.41" r="4" fill="#0" id="circle149"/>
	</g>
</svg>