<?xml version="1.0" encoding="UTF-8" standalone="no"?>
<!-- Created with CurveBenchmark -->
<svg
	xmlns:dc="http://purl.org/dc/elements/1.1/"
	xmlns:cc="http://creativecommons.org/ns#"
	xmlns:rdf="http://www.w3.org/1999/02/22-rdf-syntax-ns#"
	xmlns:svg="http://www.w3.org/2000/svg"
	xmlns="http://www.w3.org/2000/svg"
	xmlns:sodipodi="http://sodipodi.sourceforge.net/DTD/sodipodi-0.dtd"
	xmlns:inkscape="http://www.inkscape.org/namespaces/inkscape"
	width="1000"
	height="1000"
	id="svg2"
	version="1.1"
	sodipodi:docname="manifold/crawl-apple-9.png.txt">
<defs
	id="defs4" />
<metadata
	id="metadata7">
	<rdf:RDF>
		<cc:Work
			rdf:about="">
			<dc:format>image/svg+xml</dc:format>
			<dc:type
				rdf:resource="http://purl.org/dc/dcmitype/StillImage" />
			<dc:title></dc:title>
		</cc:Work>
	</rdf:RDF>
</metadata>
<g
	inkscape:label="Layer 1"
	inkscape:groupmode="layer"
	id="layer1">
	<path style="fill:none;stroke:red;stroke-width:1px;stroke-linecap:butt;stroke-linejoin:miter;stroke-opacity:1" d="M 8.78764,504.788 8.78764,495.212 z" id="boundary" inkscape:connector-curvature="0" />
	<path style="fill:none;stroke:red;stroke-width:1px;stroke-linecap:butt;stroke-linejoin:miter;stroke-opacity:1" d="M 8.78764,495.212 8.78764,485.637 z" id="boundary" inkscape:connector-curvature="0" />
	<path style="fill:none;stroke:red;stroke-width:1px;stroke-linecap:butt;stroke-linejoin:miter;stroke-opacity:1" d="M 8.78764,504.788 4,514.363 z" id="boundary" inkscape:connector-curvature="0" />
	<path style="fill:none;stroke:red;stroke-width:1px;stroke-linecap:butt;stroke-linejoin:miter;stroke-opacity:1" d="M 4,514.363 4,523.938 z" id="boundary" inkscape:connector-curvature="0" />
	<path style="fill:none;stroke:red;stroke-width:1px;stroke-linecap:butt;stroke-linejoin:miter;stroke-opacity:1" d="M 4,523.938 4,533.514 z" id="boundary" inkscape:connector-curvature="0" />
	<path style="fill:none;stroke:red;stroke-width:1px;stroke-linecap:butt;stroke-linejoin:miter;stroke-opacity:1" d="M 4,533.514 4,543.089 z" id="boundary" inkscape:connector-curvature="0" />
	<path style="fill:none;stroke:red;stroke-width:1px;stroke-linecap:butt;stroke-linejoin:miter;stroke-opacity:1" d="M 4,543.089 4,552.664 z" id="boundary" inkscape:connector-curvature="0" />
	<path style="fill:none;stroke:red;stroke-width:1px;stroke-linecap:butt;stroke-linejoin:miter;stroke-opacity:1" d="M 4,552.664 4,562.239 z" id="boundary" inkscape:connector-curvature="0" />
	<path style="fill:none;stroke:red;stroke-width:1px;stroke-linecap:butt;stroke-linejoin:miter;stroke-opacity:1" d="M 4,562.239 4,571.815 z" id="boundary" inkscape:connector-curvature="0" />
	<path style="fill:none;stroke:red;stroke-width:1px;stroke-linecap:butt;stroke-linejoin:miter;stroke-opacity:1" d="M 4,571.815 4,581.39 z" id="boundary" inkscape:connector-curvature="0" />
	<path style="fill:none;stroke:red;stroke-width:1px;stroke-linecap:butt;stroke-linejoin:miter;stroke-opacity:1" d="M 4,581.39 4,590.965 z" id="boundary" inkscape:connector-curvature="0" />
	<path style="fill:none;stroke:red;stroke-width:1px;stroke-linecap:butt;stroke-linejoin:miter;stroke-opacity:1" d="M 4,590.965 8.78764,599.583 z" id="boundary" inkscape:connector-curvature="0" />
	<path style="fill:none;stroke:red;stroke-width:1px;stroke-linecap:butt;stroke-linejoin:miter;stroke-opacity:1" d="M 8.78764,599.583 8.78764,609.158 z" id="boundary" inkscape:connector-curvature="0" />
	<path style="fill:none;stroke:red;stroke-width:1px;stroke-linecap:butt;stroke-linejoin:miter;stroke-opacity:1" d="M 8.78764,609.158 8.78764,618.734 z" id="boundary" inkscape:connector-curvature="0" />
	<path style="fill:none;stroke:red;stroke-width:1px;stroke-linecap:butt;stroke-linejoin:miter;stroke-opacity:1" d="M 8.78764,618.734 13.5753,627.351 z" id="boundary" inkscape:connector-curvature="0" />
	<path style="fill:none;stroke:red;stroke-width:1px;stroke-linecap:butt;stroke-linejoin:miter;stroke-opacity:1" d="M 13.5753,627.351 13.5753,636.927 z" id="boundary" inkscape:connector-curvature="0" />
	<path style="fill:none;stroke:red;stroke-width:1px;stroke-linecap:butt;stroke-linejoin:miter;stroke-opacity:1" d="M 13.5753,636.927 16.4479,646.502 z" id="boundary" inkscape:connector-curvature="0" />
	<path style="fill:none;stroke:red;stroke-width:1px;stroke-linecap:butt;stroke-linejoin:miter;stroke-opacity:1" d="M 16.4479,646.502 18.3629,656.077 z" id="boundary" inkscape:connector-curvature="0" />
	<path style="fill:none;stroke:red;stroke-width:1px;stroke-linecap:butt;stroke-linejoin:miter;stroke-opacity:1" d="M 18.3629,656.077 23.1506,664.695 z" id="boundary" inkscape:connector-curvature="0" />
	<path style="fill:none;stroke:red;stroke-width:1px;stroke-linecap:butt;stroke-linejoin:miter;stroke-opacity:1" d="M 23.1506,664.695 25.0656,674.27 z" id="boundary" inkscape:connector-curvature="0" />
	<path style="fill:none;stroke:red;stroke-width:1px;stroke-linecap:butt;stroke-linejoin:miter;stroke-opacity:1" d="M 25.0656,674.27 27.9382,683.846 z" id="boundary" inkscape:connector-curvature="0" />
	<path style="fill:none;stroke:red;stroke-width:1px;stroke-linecap:butt;stroke-linejoin:miter;stroke-opacity:1" d="M 27.9382,683.846 32.7259,692.463 z" id="boundary" inkscape:connector-curvature="0" />
	<path style="fill:none;stroke:red;stroke-width:1px;stroke-linecap:butt;stroke-linejoin:miter;stroke-opacity:1" d="M 32.7259,692.463 37.5135,701.081 z" id="boundary" inkscape:connector-curvature="0" />
	<path style="fill:none;stroke:red;stroke-width:1px;stroke-linecap:butt;stroke-linejoin:miter;stroke-opacity:1" d="M 37.5135,701.081 42.3012,709.699 z" id="boundary" inkscape:connector-curvature="0" />
	<path style="fill:none;stroke:red;stroke-width:1px;stroke-linecap:butt;stroke-linejoin:miter;stroke-opacity:1" d="M 42.3012,709.699 47.0888,718.317 z" id="boundary" inkscape:connector-curvature="0" />
	<path style="fill:none;stroke:red;stroke-width:1px;stroke-linecap:butt;stroke-linejoin:miter;stroke-opacity:1" d="M 47.0888,718.317 49.9614,727.892 z" id="boundary" inkscape:connector-curvature="0" />
	<path style="fill:none;stroke:red;stroke-width:1px;stroke-linecap:butt;stroke-linejoin:miter;stroke-opacity:1" d="M 49.9614,727.892 54.749,736.51 z" id="boundary" inkscape:connector-curvature="0" />
	<path style="fill:none;stroke:red;stroke-width:1px;stroke-linecap:butt;stroke-linejoin:miter;stroke-opacity:1" d="M 54.749,736.51 58.5792,746.085 z" id="boundary" inkscape:connector-curvature="0" />
	<path style="fill:none;stroke:red;stroke-width:1px;stroke-linecap:butt;stroke-linejoin:miter;stroke-opacity:1" d="M 58.5792,746.085 66.2394,751.83 z" id="boundary" inkscape:connector-curvature="0" />
	<path style="fill:none;stroke:red;stroke-width:1px;stroke-linecap:butt;stroke-linejoin:miter;stroke-opacity:1" d="M 66.2394,751.83 69.112,761.405 z" id="boundary" inkscape:connector-curvature="0" />
	<path style="fill:none;stroke:red;stroke-width:1px;stroke-linecap:butt;stroke-linejoin:miter;stroke-opacity:1" d="M 69.112,761.405 75.8147,769.066 z" id="boundary" inkscape:connector-curvature="0" />
	<path style="fill:none;stroke:red;stroke-width:1px;stroke-linecap:butt;stroke-linejoin:miter;stroke-opacity:1" d="M 75.8147,769.066 80.6023,777.683 z" id="boundary" inkscape:connector-curvature="0" />
	<path style="fill:none;stroke:red;stroke-width:1px;stroke-linecap:butt;stroke-linejoin:miter;stroke-opacity:1" d="M 80.6023,777.683 88.2625,784.386 z" id="boundary" inkscape:connector-curvature="0" />
	<path style="fill:none;stroke:red;stroke-width:1px;stroke-linecap:butt;stroke-linejoin:miter;stroke-opacity:1" d="M 88.2625,784.386 92.0927,793.961 z" id="boundary" inkscape:connector-curvature="0" />
	<path style="fill:none;stroke:red;stroke-width:1px;stroke-linecap:butt;stroke-linejoin:miter;stroke-opacity:1" d="M 92.0927,793.961 99.7529,799.707 z" id="boundary" inkscape:connector-curvature="0" />
	<path style="fill:none;stroke:red;stroke-width:1px;stroke-linecap:butt;stroke-linejoin:miter;stroke-opacity:1" d="M 99.7529,799.707 105.498,807.367 z" id="boundary" inkscape:connector-curvature="0" />
	<path style="fill:none;stroke:red;stroke-width:1px;stroke-linecap:butt;stroke-linejoin:miter;stroke-opacity:1" d="M 105.498,807.367 113.158,814.069 z" id="boundary" inkscape:connector-curvature="0" />
	<path style="fill:none;stroke:red;stroke-width:1px;stroke-linecap:butt;stroke-linejoin:miter;stroke-opacity:1" d="M 113.158,814.069 119.861,821.73 z" id="boundary" inkscape:connector-curvature="0" />
	<path style="fill:none;stroke:red;stroke-width:1px;stroke-linecap:butt;stroke-linejoin:miter;stroke-opacity:1" d="M 119.861,821.73 127.521,828.432 z" id="boundary" inkscape:connector-curvature="0" />
	<path style="fill:none;stroke:red;stroke-width:1px;stroke-linecap:butt;stroke-linejoin:miter;stroke-opacity:1" d="M 127.521,828.432 134.224,836.093 z" id="boundary" inkscape:connector-curvature="0" />
	<path style="fill:none;stroke:red;stroke-width:1px;stroke-linecap:butt;stroke-linejoin:miter;stroke-opacity:1" d="M 134.224,836.093 141.884,842.795 z" id="boundary" inkscape:connector-curvature="0" />
	<path style="fill:none;stroke:red;stroke-width:1px;stroke-linecap:butt;stroke-linejoin:miter;stroke-opacity:1" d="M 141.884,842.795 148.587,850.456 z" id="boundary" inkscape:connector-curvature="0" />
	<path style="fill:none;stroke:red;stroke-width:1px;stroke-linecap:butt;stroke-linejoin:miter;stroke-opacity:1" d="M 148.587,850.456 158.162,854.286 z" id="boundary" inkscape:connector-curvature="0" />
	<path style="fill:none;stroke:red;stroke-width:1px;stroke-linecap:butt;stroke-linejoin:miter;stroke-opacity:1" d="M 158.162,854.286 164.865,861.946 z" id="boundary" inkscape:connector-curvature="0" />
	<path style="fill:none;stroke:red;stroke-width:1px;stroke-linecap:butt;stroke-linejoin:miter;stroke-opacity:1" d="M 164.865,861.946 173.483,866.734 z" id="boundary" inkscape:connector-curvature="0" />
	<path style="fill:none;stroke:red;stroke-width:1px;stroke-linecap:butt;stroke-linejoin:miter;stroke-opacity:1" d="M 173.483,866.734 181.143,872.479 z" id="boundary" inkscape:connector-curvature="0" />
	<path style="fill:none;stroke:red;stroke-width:1px;stroke-linecap:butt;stroke-linejoin:miter;stroke-opacity:1" d="M 181.143,872.479 187.846,880.139 z" id="boundary" inkscape:connector-curvature="0" />
	<path style="fill:none;stroke:red;stroke-width:1px;stroke-linecap:butt;stroke-linejoin:miter;stroke-opacity:1" d="M 187.846,880.139 197.421,883.969 z" id="boundary" inkscape:connector-curvature="0" />
	<path style="fill:none;stroke:red;stroke-width:1px;stroke-linecap:butt;stroke-linejoin:miter;stroke-opacity:1" d="M 197.421,883.969 206.039,888.757 z" id="boundary" inkscape:connector-curvature="0" />
	<path style="fill:none;stroke:red;stroke-width:1px;stroke-linecap:butt;stroke-linejoin:miter;stroke-opacity:1" d="M 206.039,888.757 213.699,895.459 z" id="boundary" inkscape:connector-curvature="0" />
	<path style="fill:none;stroke:red;stroke-width:1px;stroke-linecap:butt;stroke-linejoin:miter;stroke-opacity:1" d="M 213.699,895.459 222.317,900.247 z" id="boundary" inkscape:connector-curvature="0" />
	<path style="fill:none;stroke:red;stroke-width:1px;stroke-linecap:butt;stroke-linejoin:miter;stroke-opacity:1" d="M 222.317,900.247 231.892,904.077 z" id="boundary" inkscape:connector-curvature="0" />
	<path style="fill:none;stroke:red;stroke-width:1px;stroke-linecap:butt;stroke-linejoin:miter;stroke-opacity:1" d="M 231.892,904.077 240.51,908.865 z" id="boundary" inkscape:connector-curvature="0" />
	<path style="fill:none;stroke:red;stroke-width:1px;stroke-linecap:butt;stroke-linejoin:miter;stroke-opacity:1" d="M 240.51,908.865 250.085,912.695 z" id="boundary" inkscape:connector-curvature="0" />
	<path style="fill:none;stroke:red;stroke-width:1px;stroke-linecap:butt;stroke-linejoin:miter;stroke-opacity:1" d="M 250.085,912.695 258.703,917.483 z" id="boundary" inkscape:connector-curvature="0" />
	<path style="fill:none;stroke:red;stroke-width:1px;stroke-linecap:butt;stroke-linejoin:miter;stroke-opacity:1" d="M 258.703,917.483 268.278,921.313 z" id="boundary" inkscape:connector-curvature="0" />
	<path style="fill:none;stroke:red;stroke-width:1px;stroke-linecap:butt;stroke-linejoin:miter;stroke-opacity:1" d="M 268.278,921.313 277.853,924.185 z" id="boundary" inkscape:connector-curvature="0" />
	<path style="fill:none;stroke:red;stroke-width:1px;stroke-linecap:butt;stroke-linejoin:miter;stroke-opacity:1" d="M 277.853,924.185 286.471,928.973 z" id="boundary" inkscape:connector-curvature="0" />
	<path style="fill:none;stroke:red;stroke-width:1px;stroke-linecap:butt;stroke-linejoin:miter;stroke-opacity:1" d="M 286.471,928.973 295.089,933.761 z" id="boundary" inkscape:connector-curvature="0" />
	<path style="fill:none;stroke:red;stroke-width:1px;stroke-linecap:butt;stroke-linejoin:miter;stroke-opacity:1" d="M 295.089,933.761 304.664,933.761 z" id="boundary" inkscape:connector-curvature="0" />
	<path style="fill:none;stroke:red;stroke-width:1px;stroke-linecap:butt;stroke-linejoin:miter;stroke-opacity:1" d="M 304.664,933.761 313.282,938.548 z" id="boundary" inkscape:connector-curvature="0" />
	<path style="fill:none;stroke:red;stroke-width:1px;stroke-linecap:butt;stroke-linejoin:miter;stroke-opacity:1" d="M 313.282,938.548 322.857,942.378 z" id="boundary" inkscape:connector-curvature="0" />
	<path style="fill:none;stroke:red;stroke-width:1px;stroke-linecap:butt;stroke-linejoin:miter;stroke-opacity:1" d="M 322.857,942.378 332.432,943.336 z" id="boundary" inkscape:connector-curvature="0" />
	<path style="fill:none;stroke:red;stroke-width:1px;stroke-linecap:butt;stroke-linejoin:miter;stroke-opacity:1" d="M 332.432,943.336 342.008,947.166 z" id="boundary" inkscape:connector-curvature="0" />
	<path style="fill:none;stroke:red;stroke-width:1px;stroke-linecap:butt;stroke-linejoin:miter;stroke-opacity:1" d="M 342.008,947.166 351.583,948.124 z" id="boundary" inkscape:connector-curvature="0" />
	<path style="fill:none;stroke:red;stroke-width:1px;stroke-linecap:butt;stroke-linejoin:miter;stroke-opacity:1" d="M 351.583,948.124 361.158,951.954 z" id="boundary" inkscape:connector-curvature="0" />
	<path style="fill:none;stroke:red;stroke-width:1px;stroke-linecap:butt;stroke-linejoin:miter;stroke-opacity:1" d="M 361.158,951.954 370.734,952.911 z" id="boundary" inkscape:connector-curvature="0" />
	<path style="fill:none;stroke:red;stroke-width:1px;stroke-linecap:butt;stroke-linejoin:miter;stroke-opacity:1" d="M 370.734,952.911 380.309,952.911 z" id="boundary" inkscape:connector-curvature="0" />
	<path style="fill:none;stroke:red;stroke-width:1px;stroke-linecap:butt;stroke-linejoin:miter;stroke-opacity:1" d="M 380.309,952.911 388.927,957.699 z" id="boundary" inkscape:connector-curvature="0" />
	<path style="fill:none;stroke:red;stroke-width:1px;stroke-linecap:butt;stroke-linejoin:miter;stroke-opacity:1" d="M 388.927,957.699 398.502,957.699 z" id="boundary" inkscape:connector-curvature="0" />
	<path style="fill:none;stroke:red;stroke-width:1px;stroke-linecap:butt;stroke-linejoin:miter;stroke-opacity:1" d="M 398.502,957.699 408.077,957.699 z" id="boundary" inkscape:connector-curvature="0" />
	<path style="fill:none;stroke:red;stroke-width:1px;stroke-linecap:butt;stroke-linejoin:miter;stroke-opacity:1" d="M 408.077,957.699 417.653,957.699 z" id="boundary" inkscape:connector-curvature="0" />
	<path style="fill:none;stroke:red;stroke-width:1px;stroke-linecap:butt;stroke-linejoin:miter;stroke-opacity:1" d="M 417.653,957.699 426.27,962.486 z" id="boundary" inkscape:connector-curvature="0" />
	<path style="fill:none;stroke:red;stroke-width:1px;stroke-linecap:butt;stroke-linejoin:miter;stroke-opacity:1" d="M 426.27,962.486 435.846,962.486 z" id="boundary" inkscape:connector-curvature="0" />
	<path style="fill:none;stroke:red;stroke-width:1px;stroke-linecap:butt;stroke-linejoin:miter;stroke-opacity:1" d="M 435.846,962.486 445.421,962.486 z" id="boundary" inkscape:connector-curvature="0" />
	<path style="fill:none;stroke:red;stroke-width:1px;stroke-linecap:butt;stroke-linejoin:miter;stroke-opacity:1" d="M 445.421,962.486 454.996,962.486 z" id="boundary" inkscape:connector-curvature="0" />
	<path style="fill:none;stroke:red;stroke-width:1px;stroke-linecap:butt;stroke-linejoin:miter;stroke-opacity:1" d="M 454.996,962.486 464.571,962.486 z" id="boundary" inkscape:connector-curvature="0" />
	<path style="fill:none;stroke:red;stroke-width:1px;stroke-linecap:butt;stroke-linejoin:miter;stroke-opacity:1" d="M 464.571,962.486 474.147,962.486 z" id="boundary" inkscape:connector-curvature="0" />
	<path style="fill:none;stroke:red;stroke-width:1px;stroke-linecap:butt;stroke-linejoin:miter;stroke-opacity:1" d="M 474.147,962.486 483.722,962.486 z" id="boundary" inkscape:connector-curvature="0" />
	<path style="fill:none;stroke:red;stroke-width:1px;stroke-linecap:butt;stroke-linejoin:miter;stroke-opacity:1" d="M 483.722,962.486 493.297,962.486 z" id="boundary" inkscape:connector-curvature="0" />
	<path style="fill:none;stroke:red;stroke-width:1px;stroke-linecap:butt;stroke-linejoin:miter;stroke-opacity:1" d="M 493.297,962.486 502.873,962.486 z" id="boundary" inkscape:connector-curvature="0" />
	<path style="fill:none;stroke:red;stroke-width:1px;stroke-linecap:butt;stroke-linejoin:miter;stroke-opacity:1" d="M 502.873,962.486 512.448,962.486 z" id="boundary" inkscape:connector-curvature="0" />
	<path style="fill:none;stroke:red;stroke-width:1px;stroke-linecap:butt;stroke-linejoin:miter;stroke-opacity:1" d="M 512.448,962.486 522.023,957.699 z" id="boundary" inkscape:connector-curvature="0" />
	<path style="fill:none;stroke:red;stroke-width:1px;stroke-linecap:butt;stroke-linejoin:miter;stroke-opacity:1" d="M 522.023,957.699 531.598,957.699 z" id="boundary" inkscape:connector-curvature="0" />
	<path style="fill:none;stroke:red;stroke-width:1px;stroke-linecap:butt;stroke-linejoin:miter;stroke-opacity:1" d="M 531.598,957.699 540.216,962.486 z" id="boundary" inkscape:connector-curvature="0" />
	<path style="fill:none;stroke:red;stroke-width:1px;stroke-linecap:butt;stroke-linejoin:miter;stroke-opacity:1" d="M 540.216,962.486 549.792,962.486 z" id="boundary" inkscape:connector-curvature="0" />
	<path style="fill:none;stroke:red;stroke-width:1px;stroke-linecap:butt;stroke-linejoin:miter;stroke-opacity:1" d="M 549.792,962.486 559.367,962.486 z" id="boundary" inkscape:connector-curvature="0" />
	<path style="fill:none;stroke:red;stroke-width:1px;stroke-linecap:butt;stroke-linejoin:miter;stroke-opacity:1" d="M 559.367,962.486 568.942,962.486 z" id="boundary" inkscape:connector-curvature="0" />
	<path style="fill:none;stroke:red;stroke-width:1px;stroke-linecap:butt;stroke-linejoin:miter;stroke-opacity:1" d="M 568.942,962.486 578.517,962.486 z" id="boundary" inkscape:connector-curvature="0" />
	<path style="fill:none;stroke:red;stroke-width:1px;stroke-linecap:butt;stroke-linejoin:miter;stroke-opacity:1" d="M 578.517,962.486 588.093,962.486 z" id="boundary" inkscape:connector-curvature="0" />
	<path style="fill:none;stroke:red;stroke-width:1px;stroke-linecap:butt;stroke-linejoin:miter;stroke-opacity:1" d="M 588.093,962.486 597.668,962.486 z" id="boundary" inkscape:connector-curvature="0" />
	<path style="fill:none;stroke:red;stroke-width:1px;stroke-linecap:butt;stroke-linejoin:miter;stroke-opacity:1" d="M 597.668,962.486 607.243,962.486 z" id="boundary" inkscape:connector-curvature="0" />
	<path style="fill:none;stroke:red;stroke-width:1px;stroke-linecap:butt;stroke-linejoin:miter;stroke-opacity:1" d="M 607.243,962.486 616.819,962.486 z" id="boundary" inkscape:connector-curvature="0" />
	<path style="fill:none;stroke:red;stroke-width:1px;stroke-linecap:butt;stroke-linejoin:miter;stroke-opacity:1" d="M 616.819,962.486 626.394,962.486 z" id="boundary" inkscape:connector-curvature="0" />
	<path style="fill:none;stroke:red;stroke-width:1px;stroke-linecap:butt;stroke-linejoin:miter;stroke-opacity:1" d="M 626.394,962.486 635.969,959.614 z" id="boundary" inkscape:connector-curvature="0" />
	<path style="fill:none;stroke:red;stroke-width:1px;stroke-linecap:butt;stroke-linejoin:miter;stroke-opacity:1" d="M 635.969,959.614 645.544,957.699 z" id="boundary" inkscape:connector-curvature="0" />
	<path style="fill:none;stroke:red;stroke-width:1px;stroke-linecap:butt;stroke-linejoin:miter;stroke-opacity:1" d="M 645.544,957.699 655.12,957.699 z" id="boundary" inkscape:connector-curvature="0" />
	<path style="fill:none;stroke:red;stroke-width:1px;stroke-linecap:butt;stroke-linejoin:miter;stroke-opacity:1" d="M 655.12,957.699 664.695,957.699 z" id="boundary" inkscape:connector-curvature="0" />
	<path style="fill:none;stroke:red;stroke-width:1px;stroke-linecap:butt;stroke-linejoin:miter;stroke-opacity:1" d="M 664.695,957.699 674.27,954.826 z" id="boundary" inkscape:connector-curvature="0" />
	<path style="fill:none;stroke:red;stroke-width:1px;stroke-linecap:butt;stroke-linejoin:miter;stroke-opacity:1" d="M 674.27,954.826 683.846,952.911 z" id="boundary" inkscape:connector-curvature="0" />
	<path style="fill:none;stroke:red;stroke-width:1px;stroke-linecap:butt;stroke-linejoin:miter;stroke-opacity:1" d="M 683.846,952.911 693.421,952.911 z" id="boundary" inkscape:connector-curvature="0" />
	<path style="fill:none;stroke:red;stroke-width:1px;stroke-linecap:butt;stroke-linejoin:miter;stroke-opacity:1" d="M 693.421,952.911 702.039,948.124 z" id="boundary" inkscape:connector-curvature="0" />
	<path style="fill:none;stroke:red;stroke-width:1px;stroke-linecap:butt;stroke-linejoin:miter;stroke-opacity:1" d="M 702.039,948.124 711.614,948.124 z" id="boundary" inkscape:connector-curvature="0" />
	<path style="fill:none;stroke:red;stroke-width:1px;stroke-linecap:butt;stroke-linejoin:miter;stroke-opacity:1" d="M 711.614,948.124 720.232,943.336 z" id="boundary" inkscape:connector-curvature="0" />
	<path style="fill:none;stroke:red;stroke-width:1px;stroke-linecap:butt;stroke-linejoin:miter;stroke-opacity:1" d="M 720.232,943.336 729.807,943.336 z" id="boundary" inkscape:connector-curvature="0" />
	<path style="fill:none;stroke:red;stroke-width:1px;stroke-linecap:butt;stroke-linejoin:miter;stroke-opacity:1" d="M 729.807,943.336 738.425,938.548 z" id="boundary" inkscape:connector-curvature="0" />
	<path style="fill:none;stroke:red;stroke-width:1px;stroke-linecap:butt;stroke-linejoin:miter;stroke-opacity:1" d="M 738.425,938.548 748,938.548 z" id="boundary" inkscape:connector-curvature="0" />
	<path style="fill:none;stroke:red;stroke-width:1px;stroke-linecap:butt;stroke-linejoin:miter;stroke-opacity:1" d="M 748,938.548 756.618,933.761 z" id="boundary" inkscape:connector-curvature="0" />
	<path style="fill:none;stroke:red;stroke-width:1px;stroke-linecap:butt;stroke-linejoin:miter;stroke-opacity:1" d="M 756.618,933.761 766.193,928.973 z" id="boundary" inkscape:connector-curvature="0" />
	<path style="fill:none;stroke:red;stroke-width:1px;stroke-linecap:butt;stroke-linejoin:miter;stroke-opacity:1" d="M 766.193,928.973 775.768,924.185 z" id="boundary" inkscape:connector-curvature="0" />
	<path style="fill:none;stroke:red;stroke-width:1px;stroke-linecap:butt;stroke-linejoin:miter;stroke-opacity:1" d="M 775.768,924.185 785.344,924.185 z" id="boundary" inkscape:connector-curvature="0" />
	<path style="fill:none;stroke:red;stroke-width:1px;stroke-linecap:butt;stroke-linejoin:miter;stroke-opacity:1" d="M 785.344,924.185 793.961,919.398 z" id="boundary" inkscape:connector-curvature="0" />
	<path style="fill:none;stroke:red;stroke-width:1px;stroke-linecap:butt;stroke-linejoin:miter;stroke-opacity:1" d="M 793.961,919.398 802.579,914.61 z" id="boundary" inkscape:connector-curvature="0" />
	<path style="fill:none;stroke:red;stroke-width:1px;stroke-linecap:butt;stroke-linejoin:miter;stroke-opacity:1" d="M 802.579,914.61 811.197,909.822 z" id="boundary" inkscape:connector-curvature="0" />
	<path style="fill:none;stroke:red;stroke-width:1px;stroke-linecap:butt;stroke-linejoin:miter;stroke-opacity:1" d="M 811.197,909.822 819.815,905.035 z" id="boundary" inkscape:connector-curvature="0" />
	<path style="fill:none;stroke:red;stroke-width:1px;stroke-linecap:butt;stroke-linejoin:miter;stroke-opacity:1" d="M 819.815,905.035 828.432,900.247 z" id="boundary" inkscape:connector-curvature="0" />
	<path style="fill:none;stroke:red;stroke-width:1px;stroke-linecap:butt;stroke-linejoin:miter;stroke-opacity:1" d="M 828.432,900.247 838.008,895.459 z" id="boundary" inkscape:connector-curvature="0" />
	<path style="fill:none;stroke:red;stroke-width:1px;stroke-linecap:butt;stroke-linejoin:miter;stroke-opacity:1" d="M 838.008,895.459 847.583,890.672 z" id="boundary" inkscape:connector-curvature="0" />
	<path style="fill:none;stroke:red;stroke-width:1px;stroke-linecap:butt;stroke-linejoin:miter;stroke-opacity:1" d="M 847.583,890.672 856.201,885.884 z" id="boundary" inkscape:connector-curvature="0" />
	<path style="fill:none;stroke:red;stroke-width:1px;stroke-linecap:butt;stroke-linejoin:miter;stroke-opacity:1" d="M 856.201,885.884 864.819,881.097 z" id="boundary" inkscape:connector-curvature="0" />
	<path style="fill:none;stroke:red;stroke-width:1px;stroke-linecap:butt;stroke-linejoin:miter;stroke-opacity:1" d="M 864.819,881.097 873.436,875.351 z" id="boundary" inkscape:connector-curvature="0" />
	<path style="fill:none;stroke:red;stroke-width:1px;stroke-linecap:butt;stroke-linejoin:miter;stroke-opacity:1" d="M 873.436,875.351 881.097,866.734 z" id="boundary" inkscape:connector-curvature="0" />
	<path style="fill:none;stroke:red;stroke-width:1px;stroke-linecap:butt;stroke-linejoin:miter;stroke-opacity:1" d="M 881.097,866.734 890.672,861.946 z" id="boundary" inkscape:connector-curvature="0" />
	<path style="fill:none;stroke:red;stroke-width:1px;stroke-linecap:butt;stroke-linejoin:miter;stroke-opacity:1" d="M 890.672,861.946 898.332,855.243 z" id="boundary" inkscape:connector-curvature="0" />
	<path style="fill:none;stroke:red;stroke-width:1px;stroke-linecap:butt;stroke-linejoin:miter;stroke-opacity:1" d="M 898.332,855.243 907.907,850.456 z" id="boundary" inkscape:connector-curvature="0" />
	<path style="fill:none;stroke:red;stroke-width:1px;stroke-linecap:butt;stroke-linejoin:miter;stroke-opacity:1" d="M 907.907,850.456 914.61,842.795 z" id="boundary" inkscape:connector-curvature="0" />
	<path style="fill:none;stroke:red;stroke-width:1px;stroke-linecap:butt;stroke-linejoin:miter;stroke-opacity:1" d="M 914.61,842.795 922.27,836.093 z" id="boundary" inkscape:connector-curvature="0" />
	<path style="fill:none;stroke:red;stroke-width:1px;stroke-linecap:butt;stroke-linejoin:miter;stroke-opacity:1" d="M 922.27,836.093 928.973,828.432 z" id="boundary" inkscape:connector-curvature="0" />
	<path style="fill:none;stroke:red;stroke-width:1px;stroke-linecap:butt;stroke-linejoin:miter;stroke-opacity:1" d="M 928.973,828.432 936.633,821.73 z" id="boundary" inkscape:connector-curvature="0" />
	<path style="fill:none;stroke:red;stroke-width:1px;stroke-linecap:butt;stroke-linejoin:miter;stroke-opacity:1" d="M 936.633,821.73 943.336,814.069 z" id="boundary" inkscape:connector-curvature="0" />
	<path style="fill:none;stroke:red;stroke-width:1px;stroke-linecap:butt;stroke-linejoin:miter;stroke-opacity:1" d="M 943.336,814.069 950.996,807.367 z" id="boundary" inkscape:connector-curvature="0" />
	<path style="fill:none;stroke:red;stroke-width:1px;stroke-linecap:butt;stroke-linejoin:miter;stroke-opacity:1" d="M 950.996,807.367 957.699,799.707 z" id="boundary" inkscape:connector-curvature="0" />
	<path style="fill:none;stroke:red;stroke-width:1px;stroke-linecap:butt;stroke-linejoin:miter;stroke-opacity:1" d="M 957.699,799.707 965.359,793.004 z" id="boundary" inkscape:connector-curvature="0" />
	<path style="fill:none;stroke:red;stroke-width:1px;stroke-linecap:butt;stroke-linejoin:miter;stroke-opacity:1" d="M 965.359,793.004 970.147,783.429 z" id="boundary" inkscape:connector-curvature="0" />
	<path style="fill:none;stroke:red;stroke-width:1px;stroke-linecap:butt;stroke-linejoin:miter;stroke-opacity:1" d="M 970.147,783.429 976.849,775.768 z" id="boundary" inkscape:connector-curvature="0" />
	<path style="fill:none;stroke:red;stroke-width:1px;stroke-linecap:butt;stroke-linejoin:miter;stroke-opacity:1" d="M 976.849,775.768 981.637,766.193 z" id="boundary" inkscape:connector-curvature="0" />
	<path style="fill:none;stroke:red;stroke-width:1px;stroke-linecap:butt;stroke-linejoin:miter;stroke-opacity:1" d="M 981.637,766.193 989.297,759.49 z" id="boundary" inkscape:connector-curvature="0" />
	<path style="fill:none;stroke:red;stroke-width:1px;stroke-linecap:butt;stroke-linejoin:miter;stroke-opacity:1" d="M 989.297,759.49 986.425,746.085 z" id="boundary" inkscape:connector-curvature="0" />
	<path style="fill:none;stroke:red;stroke-width:1px;stroke-linecap:butt;stroke-linejoin:miter;stroke-opacity:1" d="M 986.425,746.085 976.849,746.085 z" id="boundary" inkscape:connector-curvature="0" />
	<path style="fill:none;stroke:red;stroke-width:1px;stroke-linecap:butt;stroke-linejoin:miter;stroke-opacity:1" d="M 976.849,746.085 968.232,741.297 z" id="boundary" inkscape:connector-curvature="0" />
	<path style="fill:none;stroke:red;stroke-width:1px;stroke-linecap:butt;stroke-linejoin:miter;stroke-opacity:1" d="M 968.232,741.297 959.614,736.51 z" id="boundary" inkscape:connector-curvature="0" />
	<path style="fill:none;stroke:red;stroke-width:1px;stroke-linecap:butt;stroke-linejoin:miter;stroke-opacity:1" d="M 959.614,736.51 954.826,727.892 z" id="boundary" inkscape:connector-curvature="0" />
	<path style="fill:none;stroke:red;stroke-width:1px;stroke-linecap:butt;stroke-linejoin:miter;stroke-opacity:1" d="M 954.826,727.892 948.124,720.232 z" id="boundary" inkscape:connector-curvature="0" />
	<path style="fill:none;stroke:red;stroke-width:1px;stroke-linecap:butt;stroke-linejoin:miter;stroke-opacity:1" d="M 948.124,720.232 948.124,710.656 z" id="boundary" inkscape:connector-curvature="0" />
	<path style="fill:none;stroke:red;stroke-width:1px;stroke-linecap:butt;stroke-linejoin:miter;stroke-opacity:1" d="M 948.124,710.656 943.336,702.039 z" id="boundary" inkscape:connector-curvature="0" />
	<path style="fill:none;stroke:red;stroke-width:1px;stroke-linecap:butt;stroke-linejoin:miter;stroke-opacity:1" d="M 943.336,702.039 943.336,692.463 z" id="boundary" inkscape:connector-curvature="0" />
	<path style="fill:none;stroke:red;stroke-width:1px;stroke-linecap:butt;stroke-linejoin:miter;stroke-opacity:1" d="M 943.336,692.463 943.336,682.888 z" id="boundary" inkscape:connector-curvature="0" />
	<path style="fill:none;stroke:red;stroke-width:1px;stroke-linecap:butt;stroke-linejoin:miter;stroke-opacity:1" d="M 943.336,682.888 936.633,675.228 z" id="boundary" inkscape:connector-curvature="0" />
	<path style="fill:none;stroke:red;stroke-width:1px;stroke-linecap:butt;stroke-linejoin:miter;stroke-opacity:1" d="M 936.633,675.228 928.973,669.483 z" id="boundary" inkscape:connector-curvature="0" />
	<path style="fill:none;stroke:red;stroke-width:1px;stroke-linecap:butt;stroke-linejoin:miter;stroke-opacity:1" d="M 928.973,669.483 920.355,664.695 z" id="boundary" inkscape:connector-curvature="0" />
	<path style="fill:none;stroke:red;stroke-width:1px;stroke-linecap:butt;stroke-linejoin:miter;stroke-opacity:1" d="M 920.355,664.695 911.737,659.907 z" id="boundary" inkscape:connector-curvature="0" />
	<path style="fill:none;stroke:red;stroke-width:1px;stroke-linecap:butt;stroke-linejoin:miter;stroke-opacity:1" d="M 911.737,659.907 904.077,653.205 z" id="boundary" inkscape:connector-curvature="0" />
	<path style="fill:none;stroke:red;stroke-width:1px;stroke-linecap:butt;stroke-linejoin:miter;stroke-opacity:1" d="M 904.077,653.205 900.247,643.629 z" id="boundary" inkscape:connector-curvature="0" />
	<path style="fill:none;stroke:red;stroke-width:1px;stroke-linecap:butt;stroke-linejoin:miter;stroke-opacity:1" d="M 900.247,643.629 895.459,635.012 z" id="boundary" inkscape:connector-curvature="0" />
	<path style="fill:none;stroke:red;stroke-width:1px;stroke-linecap:butt;stroke-linejoin:miter;stroke-opacity:1" d="M 895.459,635.012 890.672,626.394 z" id="boundary" inkscape:connector-curvature="0" />
	<path style="fill:none;stroke:red;stroke-width:1px;stroke-linecap:butt;stroke-linejoin:miter;stroke-opacity:1" d="M 890.672,626.394 885.884,617.776 z" id="boundary" inkscape:connector-curvature="0" />
	<path style="fill:none;stroke:red;stroke-width:1px;stroke-linecap:butt;stroke-linejoin:miter;stroke-opacity:1" d="M 885.884,617.776 885.884,608.201 z" id="boundary" inkscape:connector-curvature="0" />
	<path style="fill:none;stroke:red;stroke-width:1px;stroke-linecap:butt;stroke-linejoin:miter;stroke-opacity:1" d="M 885.884,608.201 885.884,598.625 z" id="boundary" inkscape:connector-curvature="0" />
	<path style="fill:none;stroke:red;stroke-width:1px;stroke-linecap:butt;stroke-linejoin:miter;stroke-opacity:1" d="M 885.884,598.625 885.884,589.05 z" id="boundary" inkscape:connector-curvature="0" />
	<path style="fill:none;stroke:red;stroke-width:1px;stroke-linecap:butt;stroke-linejoin:miter;stroke-opacity:1" d="M 885.884,589.05 885.884,579.475 z" id="boundary" inkscape:connector-curvature="0" />
	<path style="fill:none;stroke:red;stroke-width:1px;stroke-linecap:butt;stroke-linejoin:miter;stroke-opacity:1" d="M 885.884,579.475 887.799,565.112 z" id="boundary" inkscape:connector-curvature="0" />
	<path style="fill:none;stroke:red;stroke-width:1px;stroke-linecap:butt;stroke-linejoin:miter;stroke-opacity:1" d="M 887.799,565.112 883.969,555.537 z" id="boundary" inkscape:connector-curvature="0" />
	<path style="fill:none;stroke:red;stroke-width:1px;stroke-linecap:butt;stroke-linejoin:miter;stroke-opacity:1" d="M 883.969,555.537 876.309,549.792 z" id="boundary" inkscape:connector-curvature="0" />
	<path style="fill:none;stroke:red;stroke-width:1px;stroke-linecap:butt;stroke-linejoin:miter;stroke-opacity:1" d="M 876.309,549.792 876.309,540.216 z" id="boundary" inkscape:connector-curvature="0" />
	<path style="fill:none;stroke:red;stroke-width:1px;stroke-linecap:butt;stroke-linejoin:miter;stroke-opacity:1" d="M 876.309,540.216 871.521,531.598 z" id="boundary" inkscape:connector-curvature="0" />
	<path style="fill:none;stroke:red;stroke-width:1px;stroke-linecap:butt;stroke-linejoin:miter;stroke-opacity:1" d="M 871.521,531.598 871.521,522.023 z" id="boundary" inkscape:connector-curvature="0" />
	<path style="fill:none;stroke:red;stroke-width:1px;stroke-linecap:butt;stroke-linejoin:miter;stroke-opacity:1" d="M 871.521,522.023 871.521,512.448 z" id="boundary" inkscape:connector-curvature="0" />
	<path style="fill:none;stroke:red;stroke-width:1px;stroke-linecap:butt;stroke-linejoin:miter;stroke-opacity:1" d="M 871.521,512.448 871.521,502.873 z" id="boundary" inkscape:connector-curvature="0" />
	<path style="fill:none;stroke:red;stroke-width:1px;stroke-linecap:butt;stroke-linejoin:miter;stroke-opacity:1" d="M 871.521,502.873 871.521,493.297 z" id="boundary" inkscape:connector-curvature="0" />
	<path style="fill:none;stroke:red;stroke-width:1px;stroke-linecap:butt;stroke-linejoin:miter;stroke-opacity:1" d="M 8.78764,485.637 13.5753,471.274 z" id="boundary" inkscape:connector-curvature="0" />
	<path style="fill:none;stroke:red;stroke-width:1px;stroke-linecap:butt;stroke-linejoin:miter;stroke-opacity:1" d="M 13.5753,471.274 13.5753,461.699 z" id="boundary" inkscape:connector-curvature="0" />
	<path style="fill:none;stroke:red;stroke-width:1px;stroke-linecap:butt;stroke-linejoin:miter;stroke-opacity:1" d="M 13.5753,461.699 18.3629,447.336 z" id="boundary" inkscape:connector-curvature="0" />
	<path style="fill:none;stroke:red;stroke-width:1px;stroke-linecap:butt;stroke-linejoin:miter;stroke-opacity:1" d="M 18.3629,447.336 23.1506,432.973 z" id="boundary" inkscape:connector-curvature="0" />
	<path style="fill:none;stroke:red;stroke-width:1px;stroke-linecap:butt;stroke-linejoin:miter;stroke-opacity:1" d="M 23.1506,432.973 27.9382,418.61 z" id="boundary" inkscape:connector-curvature="0" />
	<path style="fill:none;stroke:red;stroke-width:1px;stroke-linecap:butt;stroke-linejoin:miter;stroke-opacity:1" d="M 27.9382,418.61 32.7259,409.035 z" id="boundary" inkscape:connector-curvature="0" />
	<path style="fill:none;stroke:red;stroke-width:1px;stroke-linecap:butt;stroke-linejoin:miter;stroke-opacity:1" d="M 32.7259,409.035 37.5135,399.459 z" id="boundary" inkscape:connector-curvature="0" />
	<path style="fill:none;stroke:red;stroke-width:1px;stroke-linecap:butt;stroke-linejoin:miter;stroke-opacity:1" d="M 37.5135,399.459 42.3012,389.884 z" id="boundary" inkscape:connector-curvature="0" />
	<path style="fill:none;stroke:red;stroke-width:1px;stroke-linecap:butt;stroke-linejoin:miter;stroke-opacity:1" d="M 42.3012,389.884 47.0888,380.309 z" id="boundary" inkscape:connector-curvature="0" />
	<path style="fill:none;stroke:red;stroke-width:1px;stroke-linecap:butt;stroke-linejoin:miter;stroke-opacity:1" d="M 47.0888,380.309 51.8764,370.734 z" id="boundary" inkscape:connector-curvature="0" />
	<path style="fill:none;stroke:red;stroke-width:1px;stroke-linecap:butt;stroke-linejoin:miter;stroke-opacity:1" d="M 51.8764,370.734 56.6641,361.158 z" id="boundary" inkscape:connector-curvature="0" />
	<path style="fill:none;stroke:red;stroke-width:1px;stroke-linecap:butt;stroke-linejoin:miter;stroke-opacity:1" d="M 56.6641,361.158 64.3243,353.498 z" id="boundary" inkscape:connector-curvature="0" />
	<path style="fill:none;stroke:red;stroke-width:1px;stroke-linecap:butt;stroke-linejoin:miter;stroke-opacity:1" d="M 64.3243,353.498 69.112,343.923 z" id="boundary" inkscape:connector-curvature="0" />
	<path style="fill:none;stroke:red;stroke-width:1px;stroke-linecap:butt;stroke-linejoin:miter;stroke-opacity:1" d="M 69.112,343.923 75.8147,332.432 z" id="boundary" inkscape:connector-curvature="0" />
	<path style="fill:none;stroke:red;stroke-width:1px;stroke-linecap:butt;stroke-linejoin:miter;stroke-opacity:1" d="M 75.8147,332.432 83.4749,324.772 z" id="boundary" inkscape:connector-curvature="0" />
	<path style="fill:none;stroke:red;stroke-width:1px;stroke-linecap:butt;stroke-linejoin:miter;stroke-opacity:1" d="M 83.4749,324.772 90.1776,313.282 z" id="boundary" inkscape:connector-curvature="0" />
	<path style="fill:none;stroke:red;stroke-width:1px;stroke-linecap:butt;stroke-linejoin:miter;stroke-opacity:1" d="M 90.1776,313.282 97.8378,305.622 z" id="boundary" inkscape:connector-curvature="0" />
	<path style="fill:none;stroke:red;stroke-width:1px;stroke-linecap:butt;stroke-linejoin:miter;stroke-opacity:1" d="M 97.8378,305.622 105.498,297.961 z" id="boundary" inkscape:connector-curvature="0" />
	<path style="fill:none;stroke:red;stroke-width:1px;stroke-linecap:butt;stroke-linejoin:miter;stroke-opacity:1" d="M 105.498,297.961 113.158,291.259 z" id="boundary" inkscape:connector-curvature="0" />
	<path style="fill:none;stroke:red;stroke-width:1px;stroke-linecap:butt;stroke-linejoin:miter;stroke-opacity:1" d="M 113.158,291.259 119.861,283.598 z" id="boundary" inkscape:connector-curvature="0" />
	<path style="fill:none;stroke:red;stroke-width:1px;stroke-linecap:butt;stroke-linejoin:miter;stroke-opacity:1" d="M 119.861,283.598 127.521,276.896 z" id="boundary" inkscape:connector-curvature="0" />
	<path style="fill:none;stroke:red;stroke-width:1px;stroke-linecap:butt;stroke-linejoin:miter;stroke-opacity:1" d="M 127.521,276.896 134.224,269.236 z" id="boundary" inkscape:connector-curvature="0" />
	<path style="fill:none;stroke:red;stroke-width:1px;stroke-linecap:butt;stroke-linejoin:miter;stroke-opacity:1" d="M 134.224,269.236 141.884,262.533 z" id="boundary" inkscape:connector-curvature="0" />
	<path style="fill:none;stroke:red;stroke-width:1px;stroke-linecap:butt;stroke-linejoin:miter;stroke-opacity:1" d="M 141.884,262.533 148.587,254.873 z" id="boundary" inkscape:connector-curvature="0" />
	<path style="fill:none;stroke:red;stroke-width:1px;stroke-linecap:butt;stroke-linejoin:miter;stroke-opacity:1" d="M 148.587,254.873 158.162,250.085 z" id="boundary" inkscape:connector-curvature="0" />
	<path style="fill:none;stroke:red;stroke-width:1px;stroke-linecap:butt;stroke-linejoin:miter;stroke-opacity:1" d="M 158.162,250.085 165.822,243.382 z" id="boundary" inkscape:connector-curvature="0" />
	<path style="fill:none;stroke:red;stroke-width:1px;stroke-linecap:butt;stroke-linejoin:miter;stroke-opacity:1" d="M 165.822,243.382 174.44,238.595 z" id="boundary" inkscape:connector-curvature="0" />
	<path style="fill:none;stroke:red;stroke-width:1px;stroke-linecap:butt;stroke-linejoin:miter;stroke-opacity:1" d="M 174.44,238.595 182.1,230.934 z" id="boundary" inkscape:connector-curvature="0" />
	<path style="fill:none;stroke:red;stroke-width:1px;stroke-linecap:butt;stroke-linejoin:miter;stroke-opacity:1" d="M 182.1,230.934 189.761,224.232 z" id="boundary" inkscape:connector-curvature="0" />
	<path style="fill:none;stroke:red;stroke-width:1px;stroke-linecap:butt;stroke-linejoin:miter;stroke-opacity:1" d="M 189.761,224.232 198.378,219.444 z" id="boundary" inkscape:connector-curvature="0" />
	<path style="fill:none;stroke:red;stroke-width:1px;stroke-linecap:butt;stroke-linejoin:miter;stroke-opacity:1" d="M 198.378,219.444 207.954,214.656 z" id="boundary" inkscape:connector-curvature="0" />
	<path style="fill:none;stroke:red;stroke-width:1px;stroke-linecap:butt;stroke-linejoin:miter;stroke-opacity:1" d="M 207.954,214.656 216.571,209.869 z" id="boundary" inkscape:connector-curvature="0" />
	<path style="fill:none;stroke:red;stroke-width:1px;stroke-linecap:butt;stroke-linejoin:miter;stroke-opacity:1" d="M 216.571,209.869 225.189,205.081 z" id="boundary" inkscape:connector-curvature="0" />
	<path style="fill:none;stroke:red;stroke-width:1px;stroke-linecap:butt;stroke-linejoin:miter;stroke-opacity:1" d="M 225.189,205.081 233.807,200.293 z" id="boundary" inkscape:connector-curvature="0" />
	<path style="fill:none;stroke:red;stroke-width:1px;stroke-linecap:butt;stroke-linejoin:miter;stroke-opacity:1" d="M 233.807,200.293 242.425,195.506 z" id="boundary" inkscape:connector-curvature="0" />
	<path style="fill:none;stroke:red;stroke-width:1px;stroke-linecap:butt;stroke-linejoin:miter;stroke-opacity:1" d="M 242.425,195.506 251.042,190.718 z" id="boundary" inkscape:connector-curvature="0" />
	<path style="fill:none;stroke:red;stroke-width:1px;stroke-linecap:butt;stroke-linejoin:miter;stroke-opacity:1" d="M 251.042,190.718 260.618,185.931 z" id="boundary" inkscape:connector-curvature="0" />
	<path style="fill:none;stroke:red;stroke-width:1px;stroke-linecap:butt;stroke-linejoin:miter;stroke-opacity:1" d="M 260.618,185.931 270.193,181.143 z" id="boundary" inkscape:connector-curvature="0" />
	<path style="fill:none;stroke:red;stroke-width:1px;stroke-linecap:butt;stroke-linejoin:miter;stroke-opacity:1" d="M 270.193,181.143 279.768,181.143 z" id="boundary" inkscape:connector-curvature="0" />
	<path style="fill:none;stroke:red;stroke-width:1px;stroke-linecap:butt;stroke-linejoin:miter;stroke-opacity:1" d="M 279.768,181.143 288.386,176.355 z" id="boundary" inkscape:connector-curvature="0" />
	<path style="fill:none;stroke:red;stroke-width:1px;stroke-linecap:butt;stroke-linejoin:miter;stroke-opacity:1" d="M 288.386,176.355 297.004,171.568 z" id="boundary" inkscape:connector-curvature="0" />
	<path style="fill:none;stroke:red;stroke-width:1px;stroke-linecap:butt;stroke-linejoin:miter;stroke-opacity:1" d="M 297.004,171.568 306.579,168.695 z" id="boundary" inkscape:connector-curvature="0" />
	<path style="fill:none;stroke:red;stroke-width:1px;stroke-linecap:butt;stroke-linejoin:miter;stroke-opacity:1" d="M 306.579,168.695 316.154,166.78 z" id="boundary" inkscape:connector-curvature="0" />
	<path style="fill:none;stroke:red;stroke-width:1px;stroke-linecap:butt;stroke-linejoin:miter;stroke-opacity:1" d="M 316.154,166.78 324.772,161.992 z" id="boundary" inkscape:connector-curvature="0" />
	<path style="fill:none;stroke:red;stroke-width:1px;stroke-linecap:butt;stroke-linejoin:miter;stroke-opacity:1" d="M 324.772,161.992 334.347,161.992 z" id="boundary" inkscape:connector-curvature="0" />
	<path style="fill:none;stroke:red;stroke-width:1px;stroke-linecap:butt;stroke-linejoin:miter;stroke-opacity:1" d="M 334.347,161.992 342.965,157.205 z" id="boundary" inkscape:connector-curvature="0" />
	<path style="fill:none;stroke:red;stroke-width:1px;stroke-linecap:butt;stroke-linejoin:miter;stroke-opacity:1" d="M 342.965,157.205 352.541,157.205 z" id="boundary" inkscape:connector-curvature="0" />
	<path style="fill:none;stroke:red;stroke-width:1px;stroke-linecap:butt;stroke-linejoin:miter;stroke-opacity:1" d="M 352.541,157.205 361.158,152.417 z" id="boundary" inkscape:connector-curvature="0" />
	<path style="fill:none;stroke:red;stroke-width:1px;stroke-linecap:butt;stroke-linejoin:miter;stroke-opacity:1" d="M 361.158,152.417 370.734,152.417 z" id="boundary" inkscape:connector-curvature="0" />
	<path style="fill:none;stroke:red;stroke-width:1px;stroke-linecap:butt;stroke-linejoin:miter;stroke-opacity:1" d="M 370.734,152.417 380.309,152.417 z" id="boundary" inkscape:connector-curvature="0" />
	<path style="fill:none;stroke:red;stroke-width:1px;stroke-linecap:butt;stroke-linejoin:miter;stroke-opacity:1" d="M 380.309,152.417 388.927,147.629 z" id="boundary" inkscape:connector-curvature="0" />
	<path style="fill:none;stroke:red;stroke-width:1px;stroke-linecap:butt;stroke-linejoin:miter;stroke-opacity:1" d="M 388.927,147.629 398.502,147.629 z" id="boundary" inkscape:connector-curvature="0" />
	<path style="fill:none;stroke:red;stroke-width:1px;stroke-linecap:butt;stroke-linejoin:miter;stroke-opacity:1" d="M 398.502,147.629 408.077,147.629 z" id="boundary" inkscape:connector-curvature="0" />
	<path style="fill:none;stroke:red;stroke-width:1px;stroke-linecap:butt;stroke-linejoin:miter;stroke-opacity:1" d="M 408.077,147.629 417.653,147.629 z" id="boundary" inkscape:connector-curvature="0" />
	<path style="fill:none;stroke:red;stroke-width:1px;stroke-linecap:butt;stroke-linejoin:miter;stroke-opacity:1" d="M 417.653,147.629 426.27,142.842 z" id="boundary" inkscape:connector-curvature="0" />
	<path style="fill:none;stroke:red;stroke-width:1px;stroke-linecap:butt;stroke-linejoin:miter;stroke-opacity:1" d="M 426.27,142.842 432.973,134.224 z" id="boundary" inkscape:connector-curvature="0" />
	<path style="fill:none;stroke:red;stroke-width:1px;stroke-linecap:butt;stroke-linejoin:miter;stroke-opacity:1" d="M 432.973,134.224 442.548,134.224 z" id="boundary" inkscape:connector-curvature="0" />
	<path style="fill:none;stroke:red;stroke-width:1px;stroke-linecap:butt;stroke-linejoin:miter;stroke-opacity:1" d="M 442.548,134.224 452.124,134.224 z" id="boundary" inkscape:connector-curvature="0" />
	<path style="fill:none;stroke:red;stroke-width:1px;stroke-linecap:butt;stroke-linejoin:miter;stroke-opacity:1" d="M 452.124,134.224 447.336,142.842 z" id="boundary" inkscape:connector-curvature="0" />
	<path style="fill:none;stroke:red;stroke-width:1px;stroke-linecap:butt;stroke-linejoin:miter;stroke-opacity:1" d="M 447.336,142.842 456.911,142.842 z" id="boundary" inkscape:connector-curvature="0" />
	<path style="fill:none;stroke:red;stroke-width:1px;stroke-linecap:butt;stroke-linejoin:miter;stroke-opacity:1" d="M 456.911,142.842 466.486,139.012 z" id="boundary" inkscape:connector-curvature="0" />
	<path style="fill:none;stroke:red;stroke-width:1px;stroke-linecap:butt;stroke-linejoin:miter;stroke-opacity:1" d="M 466.486,139.012 476.062,139.012 z" id="boundary" inkscape:connector-curvature="0" />
	<path style="fill:none;stroke:red;stroke-width:1px;stroke-linecap:butt;stroke-linejoin:miter;stroke-opacity:1" d="M 871.521,493.297 876.309,478.934 z" id="boundary" inkscape:connector-curvature="0" />
	<path style="fill:none;stroke:red;stroke-width:1px;stroke-linecap:butt;stroke-linejoin:miter;stroke-opacity:1" d="M 876.309,478.934 883.969,472.232 z" id="boundary" inkscape:connector-curvature="0" />
	<path style="fill:none;stroke:red;stroke-width:1px;stroke-linecap:butt;stroke-linejoin:miter;stroke-opacity:1" d="M 883.969,472.232 885.884,454.039 z" id="boundary" inkscape:connector-curvature="0" />
	<path style="fill:none;stroke:red;stroke-width:1px;stroke-linecap:butt;stroke-linejoin:miter;stroke-opacity:1" d="M 885.884,454.039 881.097,445.421 z" id="boundary" inkscape:connector-curvature="0" />
	<path style="fill:none;stroke:red;stroke-width:1px;stroke-linecap:butt;stroke-linejoin:miter;stroke-opacity:1" d="M 881.097,445.421 881.097,435.846 z" id="boundary" inkscape:connector-curvature="0" />
	<path style="fill:none;stroke:red;stroke-width:1px;stroke-linecap:butt;stroke-linejoin:miter;stroke-opacity:1" d="M 881.097,435.846 881.097,426.27 z" id="boundary" inkscape:connector-curvature="0" />
	<path style="fill:none;stroke:red;stroke-width:1px;stroke-linecap:butt;stroke-linejoin:miter;stroke-opacity:1" d="M 881.097,426.27 881.097,416.695 z" id="boundary" inkscape:connector-curvature="0" />
	<path style="fill:none;stroke:red;stroke-width:1px;stroke-linecap:butt;stroke-linejoin:miter;stroke-opacity:1" d="M 881.097,416.695 885.884,402.332 z" id="boundary" inkscape:connector-curvature="0" />
	<path style="fill:none;stroke:red;stroke-width:1px;stroke-linecap:butt;stroke-linejoin:miter;stroke-opacity:1" d="M 885.884,402.332 890.672,392.757 z" id="boundary" inkscape:connector-curvature="0" />
	<path style="fill:none;stroke:red;stroke-width:1px;stroke-linecap:butt;stroke-linejoin:miter;stroke-opacity:1" d="M 890.672,392.757 898.332,386.054 z" id="boundary" inkscape:connector-curvature="0" />
	<path style="fill:none;stroke:red;stroke-width:1px;stroke-linecap:butt;stroke-linejoin:miter;stroke-opacity:1" d="M 898.332,386.054 905.035,378.394 z" id="boundary" inkscape:connector-curvature="0" />
	<path style="fill:none;stroke:red;stroke-width:1px;stroke-linecap:butt;stroke-linejoin:miter;stroke-opacity:1" d="M 905.035,378.394 909.822,368.819 z" id="boundary" inkscape:connector-curvature="0" />
	<path style="fill:none;stroke:red;stroke-width:1px;stroke-linecap:butt;stroke-linejoin:miter;stroke-opacity:1" d="M 909.822,368.819 909.822,359.243 z" id="boundary" inkscape:connector-curvature="0" />
	<path style="fill:none;stroke:red;stroke-width:1px;stroke-linecap:butt;stroke-linejoin:miter;stroke-opacity:1" d="M 909.822,359.243 909.822,349.668 z" id="boundary" inkscape:connector-curvature="0" />
	<path style="fill:none;stroke:red;stroke-width:1px;stroke-linecap:butt;stroke-linejoin:miter;stroke-opacity:1" d="M 909.822,349.668 914.61,340.093 z" id="boundary" inkscape:connector-curvature="0" />
	<path style="fill:none;stroke:red;stroke-width:1px;stroke-linecap:butt;stroke-linejoin:miter;stroke-opacity:1" d="M 914.61,340.093 919.398,330.517 z" id="boundary" inkscape:connector-curvature="0" />
	<path style="fill:none;stroke:red;stroke-width:1px;stroke-linecap:butt;stroke-linejoin:miter;stroke-opacity:1" d="M 919.398,330.517 924.185,320.942 z" id="boundary" inkscape:connector-curvature="0" />
	<path style="fill:none;stroke:red;stroke-width:1px;stroke-linecap:butt;stroke-linejoin:miter;stroke-opacity:1" d="M 924.185,320.942 932.803,316.154 z" id="boundary" inkscape:connector-curvature="0" />
	<path style="fill:none;stroke:red;stroke-width:1px;stroke-linecap:butt;stroke-linejoin:miter;stroke-opacity:1" d="M 932.803,316.154 941.421,311.367 z" id="boundary" inkscape:connector-curvature="0" />
	<path style="fill:none;stroke:red;stroke-width:1px;stroke-linecap:butt;stroke-linejoin:miter;stroke-opacity:1" d="M 941.421,311.367 950.039,306.579 z" id="boundary" inkscape:connector-curvature="0" />
	<path style="fill:none;stroke:red;stroke-width:1px;stroke-linecap:butt;stroke-linejoin:miter;stroke-opacity:1" d="M 950.039,306.579 945.251,291.259 z" id="boundary" inkscape:connector-curvature="0" />
	<path style="fill:none;stroke:red;stroke-width:1px;stroke-linecap:butt;stroke-linejoin:miter;stroke-opacity:1" d="M 945.251,291.259 937.591,284.556 z" id="boundary" inkscape:connector-curvature="0" />
	<path style="fill:none;stroke:red;stroke-width:1px;stroke-linecap:butt;stroke-linejoin:miter;stroke-opacity:1" d="M 937.591,284.556 930.888,276.896 z" id="boundary" inkscape:connector-curvature="0" />
	<path style="fill:none;stroke:red;stroke-width:1px;stroke-linecap:butt;stroke-linejoin:miter;stroke-opacity:1" d="M 930.888,276.896 923.228,270.193 z" id="boundary" inkscape:connector-curvature="0" />
	<path style="fill:none;stroke:red;stroke-width:1px;stroke-linecap:butt;stroke-linejoin:miter;stroke-opacity:1" d="M 923.228,270.193 916.525,262.533 z" id="boundary" inkscape:connector-curvature="0" />
	<path style="fill:none;stroke:red;stroke-width:1px;stroke-linecap:butt;stroke-linejoin:miter;stroke-opacity:1" d="M 916.525,262.533 908.865,255.83 z" id="boundary" inkscape:connector-curvature="0" />
	<path style="fill:none;stroke:red;stroke-width:1px;stroke-linecap:butt;stroke-linejoin:miter;stroke-opacity:1" d="M 908.865,255.83 900.247,251.042 z" id="boundary" inkscape:connector-curvature="0" />
	<path style="fill:none;stroke:red;stroke-width:1px;stroke-linecap:butt;stroke-linejoin:miter;stroke-opacity:1" d="M 900.247,251.042 892.587,244.34 z" id="boundary" inkscape:connector-curvature="0" />
	<path style="fill:none;stroke:red;stroke-width:1px;stroke-linecap:butt;stroke-linejoin:miter;stroke-opacity:1" d="M 892.587,244.34 884.927,238.595 z" id="boundary" inkscape:connector-curvature="0" />
	<path style="fill:none;stroke:red;stroke-width:1px;stroke-linecap:butt;stroke-linejoin:miter;stroke-opacity:1" d="M 884.927,238.595 876.309,233.807 z" id="boundary" inkscape:connector-curvature="0" />
	<path style="fill:none;stroke:red;stroke-width:1px;stroke-linecap:butt;stroke-linejoin:miter;stroke-opacity:1" d="M 876.309,233.807 869.606,226.147 z" id="boundary" inkscape:connector-curvature="0" />
	<path style="fill:none;stroke:red;stroke-width:1px;stroke-linecap:butt;stroke-linejoin:miter;stroke-opacity:1" d="M 869.606,226.147 860.988,221.359 z" id="boundary" inkscape:connector-curvature="0" />
	<path style="fill:none;stroke:red;stroke-width:1px;stroke-linecap:butt;stroke-linejoin:miter;stroke-opacity:1" d="M 860.988,221.359 851.413,217.529 z" id="boundary" inkscape:connector-curvature="0" />
	<path style="fill:none;stroke:red;stroke-width:1px;stroke-linecap:butt;stroke-linejoin:miter;stroke-opacity:1" d="M 851.413,217.529 844.71,209.869 z" id="boundary" inkscape:connector-curvature="0" />
	<path style="fill:none;stroke:red;stroke-width:1px;stroke-linecap:butt;stroke-linejoin:miter;stroke-opacity:1" d="M 844.71,209.869 835.135,206.039 z" id="boundary" inkscape:connector-curvature="0" />
	<path style="fill:none;stroke:red;stroke-width:1px;stroke-linecap:butt;stroke-linejoin:miter;stroke-opacity:1" d="M 835.135,206.039 826.517,201.251 z" id="boundary" inkscape:connector-curvature="0" />
	<path style="fill:none;stroke:red;stroke-width:1px;stroke-linecap:butt;stroke-linejoin:miter;stroke-opacity:1" d="M 826.517,201.251 816.942,197.421 z" id="boundary" inkscape:connector-curvature="0" />
	<path style="fill:none;stroke:red;stroke-width:1px;stroke-linecap:butt;stroke-linejoin:miter;stroke-opacity:1" d="M 816.942,197.421 808.324,192.633 z" id="boundary" inkscape:connector-curvature="0" />
	<path style="fill:none;stroke:red;stroke-width:1px;stroke-linecap:butt;stroke-linejoin:miter;stroke-opacity:1" d="M 808.324,192.633 798.749,188.803 z" id="boundary" inkscape:connector-curvature="0" />
	<path style="fill:none;stroke:red;stroke-width:1px;stroke-linecap:butt;stroke-linejoin:miter;stroke-opacity:1" d="M 798.749,188.803 790.131,184.015 z" id="boundary" inkscape:connector-curvature="0" />
	<path style="fill:none;stroke:red;stroke-width:1px;stroke-linecap:butt;stroke-linejoin:miter;stroke-opacity:1" d="M 790.131,184.015 780.556,181.143 z" id="boundary" inkscape:connector-curvature="0" />
	<path style="fill:none;stroke:red;stroke-width:1px;stroke-linecap:butt;stroke-linejoin:miter;stroke-opacity:1" d="M 780.556,181.143 771.938,176.355 z" id="boundary" inkscape:connector-curvature="0" />
	<path style="fill:none;stroke:red;stroke-width:1px;stroke-linecap:butt;stroke-linejoin:miter;stroke-opacity:1" d="M 771.938,176.355 763.32,171.568 z" id="boundary" inkscape:connector-curvature="0" />
	<path style="fill:none;stroke:red;stroke-width:1px;stroke-linecap:butt;stroke-linejoin:miter;stroke-opacity:1" d="M 763.32,171.568 753.745,171.568 z" id="boundary" inkscape:connector-curvature="0" />
	<path style="fill:none;stroke:red;stroke-width:1px;stroke-linecap:butt;stroke-linejoin:miter;stroke-opacity:1" d="M 753.745,171.568 745.127,166.78 z" id="boundary" inkscape:connector-curvature="0" />
	<path style="fill:none;stroke:red;stroke-width:1px;stroke-linecap:butt;stroke-linejoin:miter;stroke-opacity:1" d="M 745.127,166.78 735.552,162.95 z" id="boundary" inkscape:connector-curvature="0" />
	<path style="fill:none;stroke:red;stroke-width:1px;stroke-linecap:butt;stroke-linejoin:miter;stroke-opacity:1" d="M 735.552,162.95 725.977,161.992 z" id="boundary" inkscape:connector-curvature="0" />
	<path style="fill:none;stroke:red;stroke-width:1px;stroke-linecap:butt;stroke-linejoin:miter;stroke-opacity:1" d="M 725.977,161.992 716.402,158.162 z" id="boundary" inkscape:connector-curvature="0" />
	<path style="fill:none;stroke:red;stroke-width:1px;stroke-linecap:butt;stroke-linejoin:miter;stroke-opacity:1" d="M 716.402,158.162 706.826,157.205 z" id="boundary" inkscape:connector-curvature="0" />
	<path style="fill:none;stroke:red;stroke-width:1px;stroke-linecap:butt;stroke-linejoin:miter;stroke-opacity:1" d="M 706.826,157.205 697.251,153.375 z" id="boundary" inkscape:connector-curvature="0" />
	<path style="fill:none;stroke:red;stroke-width:1px;stroke-linecap:butt;stroke-linejoin:miter;stroke-opacity:1" d="M 697.251,153.375 687.676,152.417 z" id="boundary" inkscape:connector-curvature="0" />
	<path style="fill:none;stroke:red;stroke-width:1px;stroke-linecap:butt;stroke-linejoin:miter;stroke-opacity:1" d="M 687.676,152.417 678.1,152.417 z" id="boundary" inkscape:connector-curvature="0" />
	<path style="fill:none;stroke:red;stroke-width:1px;stroke-linecap:butt;stroke-linejoin:miter;stroke-opacity:1" d="M 678.1,152.417 669.483,147.629 z" id="boundary" inkscape:connector-curvature="0" />
	<path style="fill:none;stroke:red;stroke-width:1px;stroke-linecap:butt;stroke-linejoin:miter;stroke-opacity:1" d="M 669.483,147.629 659.907,147.629 z" id="boundary" inkscape:connector-curvature="0" />
	<path style="fill:none;stroke:red;stroke-width:1px;stroke-linecap:butt;stroke-linejoin:miter;stroke-opacity:1" d="M 659.907,147.629 650.332,147.629 z" id="boundary" inkscape:connector-curvature="0" />
	<path style="fill:none;stroke:red;stroke-width:1px;stroke-linecap:butt;stroke-linejoin:miter;stroke-opacity:1" d="M 650.332,147.629 640.757,147.629 z" id="boundary" inkscape:connector-curvature="0" />
	<path style="fill:none;stroke:red;stroke-width:1px;stroke-linecap:butt;stroke-linejoin:miter;stroke-opacity:1" d="M 640.757,147.629 632.139,142.842 z" id="boundary" inkscape:connector-curvature="0" />
	<path style="fill:none;stroke:red;stroke-width:1px;stroke-linecap:butt;stroke-linejoin:miter;stroke-opacity:1" d="M 632.139,142.842 622.564,142.842 z" id="boundary" inkscape:connector-curvature="0" />
	<path style="fill:none;stroke:red;stroke-width:1px;stroke-linecap:butt;stroke-linejoin:miter;stroke-opacity:1" d="M 622.564,142.842 612.988,142.842 z" id="boundary" inkscape:connector-curvature="0" />
	<path style="fill:none;stroke:red;stroke-width:1px;stroke-linecap:butt;stroke-linejoin:miter;stroke-opacity:1" d="M 612.988,142.842 603.413,142.842 z" id="boundary" inkscape:connector-curvature="0" />
	<path style="fill:none;stroke:red;stroke-width:1px;stroke-linecap:butt;stroke-linejoin:miter;stroke-opacity:1" d="M 603.413,142.842 593.838,142.842 z" id="boundary" inkscape:connector-curvature="0" />
	<path style="fill:none;stroke:red;stroke-width:1px;stroke-linecap:butt;stroke-linejoin:miter;stroke-opacity:1" d="M 593.838,142.842 584.263,142.842 z" id="boundary" inkscape:connector-curvature="0" />
	<path style="fill:none;stroke:red;stroke-width:1px;stroke-linecap:butt;stroke-linejoin:miter;stroke-opacity:1" d="M 584.263,142.842 574.687,142.842 z" id="boundary" inkscape:connector-curvature="0" />
	<path style="fill:none;stroke:red;stroke-width:1px;stroke-linecap:butt;stroke-linejoin:miter;stroke-opacity:1" d="M 574.687,142.842 565.112,142.842 z" id="boundary" inkscape:connector-curvature="0" />
	<path style="fill:none;stroke:red;stroke-width:1px;stroke-linecap:butt;stroke-linejoin:miter;stroke-opacity:1" d="M 565.112,142.842 555.537,142.842 z" id="boundary" inkscape:connector-curvature="0" />
	<path style="fill:none;stroke:red;stroke-width:1px;stroke-linecap:butt;stroke-linejoin:miter;stroke-opacity:1" d="M 555.537,142.842 545.961,142.842 z" id="boundary" inkscape:connector-curvature="0" />
	<path style="fill:none;stroke:red;stroke-width:1px;stroke-linecap:butt;stroke-linejoin:miter;stroke-opacity:1" d="M 545.961,142.842 536.386,142.842 z" id="boundary" inkscape:connector-curvature="0" />
	<path style="fill:none;stroke:red;stroke-width:1px;stroke-linecap:butt;stroke-linejoin:miter;stroke-opacity:1" d="M 536.386,142.842 536.386,133.266 z" id="boundary" inkscape:connector-curvature="0" />
	<path style="fill:none;stroke:red;stroke-width:1px;stroke-linecap:butt;stroke-linejoin:miter;stroke-opacity:1" d="M 536.386,133.266 536.386,123.691 z" id="boundary" inkscape:connector-curvature="0" />
	<path style="fill:none;stroke:red;stroke-width:1px;stroke-linecap:butt;stroke-linejoin:miter;stroke-opacity:1" d="M 536.386,123.691 536.386,114.116 z" id="boundary" inkscape:connector-curvature="0" />
	<path style="fill:none;stroke:red;stroke-width:1px;stroke-linecap:butt;stroke-linejoin:miter;stroke-opacity:1" d="M 536.386,114.116 536.386,104.541 z" id="boundary" inkscape:connector-curvature="0" />
	<path style="fill:none;stroke:red;stroke-width:1px;stroke-linecap:butt;stroke-linejoin:miter;stroke-opacity:1" d="M 536.386,104.541 536.386,94.9653 z" id="boundary" inkscape:connector-curvature="0" />
	<path style="fill:none;stroke:red;stroke-width:1px;stroke-linecap:butt;stroke-linejoin:miter;stroke-opacity:1" d="M 536.386,94.9653 536.386,85.39 z" id="boundary" inkscape:connector-curvature="0" />
	<path style="fill:none;stroke:red;stroke-width:1px;stroke-linecap:butt;stroke-linejoin:miter;stroke-opacity:1" d="M 536.386,85.39 536.386,75.8147 z" id="boundary" inkscape:connector-curvature="0" />
	<path style="fill:none;stroke:red;stroke-width:1px;stroke-linecap:butt;stroke-linejoin:miter;stroke-opacity:1" d="M 536.386,75.8147 531.598,67.1969 z" id="boundary" inkscape:connector-curvature="0" />
	<path style="fill:none;stroke:red;stroke-width:1px;stroke-linecap:butt;stroke-linejoin:miter;stroke-opacity:1" d="M 531.598,67.1969 531.598,57.6216 z" id="boundary" inkscape:connector-curvature="0" />
	<path style="fill:none;stroke:red;stroke-width:1px;stroke-linecap:butt;stroke-linejoin:miter;stroke-opacity:1" d="M 531.598,57.6216 531.598,48.0463 z" id="boundary" inkscape:connector-curvature="0" />
	<path style="fill:none;stroke:red;stroke-width:1px;stroke-linecap:butt;stroke-linejoin:miter;stroke-opacity:1" d="M 531.598,48.0463 526.811,39.4286 z" id="boundary" inkscape:connector-curvature="0" />
	<path style="fill:none;stroke:red;stroke-width:1px;stroke-linecap:butt;stroke-linejoin:miter;stroke-opacity:1" d="M 526.811,39.4286 526.811,29.8533 z" id="boundary" inkscape:connector-curvature="0" />
	<path style="fill:none;stroke:red;stroke-width:1px;stroke-linecap:butt;stroke-linejoin:miter;stroke-opacity:1" d="M 526.811,29.8533 522.023,21.2355 z" id="boundary" inkscape:connector-curvature="0" />
	<path style="fill:none;stroke:red;stroke-width:1px;stroke-linecap:butt;stroke-linejoin:miter;stroke-opacity:1" d="M 522.023,21.2355 516.278,13.5753 z" id="boundary" inkscape:connector-curvature="0" />
	<path style="fill:none;stroke:red;stroke-width:1px;stroke-linecap:butt;stroke-linejoin:miter;stroke-opacity:1" d="M 516.278,13.5753 506.703,16.4479 z" id="boundary" inkscape:connector-curvature="0" />
	<path style="fill:none;stroke:red;stroke-width:1px;stroke-linecap:butt;stroke-linejoin:miter;stroke-opacity:1" d="M 506.703,16.4479 506.703,26.0232 z" id="boundary" inkscape:connector-curvature="0" />
	<path style="fill:none;stroke:red;stroke-width:1px;stroke-linecap:butt;stroke-linejoin:miter;stroke-opacity:1" d="M 506.703,26.0232 506.703,35.5985 z" id="boundary" inkscape:connector-curvature="0" />
	<path style="fill:none;stroke:red;stroke-width:1px;stroke-linecap:butt;stroke-linejoin:miter;stroke-opacity:1" d="M 506.703,35.5985 511.49,44.2162 z" id="boundary" inkscape:connector-curvature="0" />
	<path style="fill:none;stroke:red;stroke-width:1px;stroke-linecap:butt;stroke-linejoin:miter;stroke-opacity:1" d="M 511.49,44.2162 511.49,53.7915 z" id="boundary" inkscape:connector-curvature="0" />
	<path style="fill:none;stroke:red;stroke-width:1px;stroke-linecap:butt;stroke-linejoin:miter;stroke-opacity:1" d="M 511.49,53.7915 511.49,63.3668 z" id="boundary" inkscape:connector-curvature="0" />
	<path style="fill:none;stroke:red;stroke-width:1px;stroke-linecap:butt;stroke-linejoin:miter;stroke-opacity:1" d="M 511.49,63.3668 516.278,71.9846 z" id="boundary" inkscape:connector-curvature="0" />
	<path style="fill:none;stroke:red;stroke-width:1px;stroke-linecap:butt;stroke-linejoin:miter;stroke-opacity:1" d="M 516.278,71.9846 516.278,81.5598 z" id="boundary" inkscape:connector-curvature="0" />
	<path style="fill:none;stroke:red;stroke-width:1px;stroke-linecap:butt;stroke-linejoin:miter;stroke-opacity:1" d="M 516.278,81.5598 516.278,91.1351 z" id="boundary" inkscape:connector-curvature="0" />
	<path style="fill:none;stroke:red;stroke-width:1px;stroke-linecap:butt;stroke-linejoin:miter;stroke-opacity:1" d="M 516.278,91.1351 502.873,94.0077 z" id="boundary" inkscape:connector-curvature="0" />
	<path style="fill:none;stroke:red;stroke-width:1px;stroke-linecap:butt;stroke-linejoin:miter;stroke-opacity:1" d="M 502.873,94.0077 507.66,102.625 z" id="boundary" inkscape:connector-curvature="0" />
	<path style="fill:none;stroke:red;stroke-width:1px;stroke-linecap:butt;stroke-linejoin:miter;stroke-opacity:1" d="M 507.66,102.625 511.49,112.201 z" id="boundary" inkscape:connector-curvature="0" />
	<path style="fill:none;stroke:red;stroke-width:1px;stroke-linecap:butt;stroke-linejoin:miter;stroke-opacity:1" d="M 511.49,112.201 512.448,121.776 z" id="boundary" inkscape:connector-curvature="0" />
	<path style="fill:none;stroke:red;stroke-width:1px;stroke-linecap:butt;stroke-linejoin:miter;stroke-opacity:1" d="M 476.062,139.012 498.085,85.39 z" id="boundary" inkscape:connector-curvature="0" />
	<path style="fill:none;stroke:red;stroke-width:1px;stroke-linecap:butt;stroke-linejoin:miter;stroke-opacity:1" d="M 498.085,85.39 492.34,77.7297 z" id="boundary" inkscape:connector-curvature="0" />
	<path style="fill:none;stroke:red;stroke-width:1px;stroke-linecap:butt;stroke-linejoin:miter;stroke-opacity:1" d="M 492.34,77.7297 487.552,69.112 z" id="boundary" inkscape:connector-curvature="0" />
	<path style="fill:none;stroke:red;stroke-width:1px;stroke-linecap:butt;stroke-linejoin:miter;stroke-opacity:1" d="M 487.552,69.112 483.722,59.5367 z" id="boundary" inkscape:connector-curvature="0" />
	<path style="fill:none;stroke:red;stroke-width:1px;stroke-linecap:butt;stroke-linejoin:miter;stroke-opacity:1" d="M 483.722,59.5367 476.062,52.834 z" id="boundary" inkscape:connector-curvature="0" />
	<path style="fill:none;stroke:red;stroke-width:1px;stroke-linecap:butt;stroke-linejoin:miter;stroke-opacity:1" d="M 476.062,52.834 469.359,45.1737 z" id="boundary" inkscape:connector-curvature="0" />
	<path style="fill:none;stroke:red;stroke-width:1px;stroke-linecap:butt;stroke-linejoin:miter;stroke-opacity:1" d="M 469.359,45.1737 461.699,38.471 z" id="boundary" inkscape:connector-curvature="0" />
	<path style="fill:none;stroke:red;stroke-width:1px;stroke-linecap:butt;stroke-linejoin:miter;stroke-opacity:1" d="M 461.699,38.471 454.996,30.8108 z" id="boundary" inkscape:connector-curvature="0" />
	<path style="fill:none;stroke:red;stroke-width:1px;stroke-linecap:butt;stroke-linejoin:miter;stroke-opacity:1" d="M 454.996,30.8108 447.336,24.1081 z" id="boundary" inkscape:connector-curvature="0" />
	<path style="fill:none;stroke:red;stroke-width:1px;stroke-linecap:butt;stroke-linejoin:miter;stroke-opacity:1" d="M 447.336,24.1081 439.676,18.3629 z" id="boundary" inkscape:connector-curvature="0" />
	<path style="fill:none;stroke:red;stroke-width:1px;stroke-linecap:butt;stroke-linejoin:miter;stroke-opacity:1" d="M 439.676,18.3629 431.058,13.5753 z" id="boundary" inkscape:connector-curvature="0" />
	<path style="fill:none;stroke:red;stroke-width:1px;stroke-linecap:butt;stroke-linejoin:miter;stroke-opacity:1" d="M 431.058,13.5753 421.483,11.6602 z" id="boundary" inkscape:connector-curvature="0" />
	<path style="fill:none;stroke:red;stroke-width:1px;stroke-linecap:butt;stroke-linejoin:miter;stroke-opacity:1" d="M 421.483,11.6602 411.907,8.78764 z" id="boundary" inkscape:connector-curvature="0" />
	<path style="fill:none;stroke:red;stroke-width:1px;stroke-linecap:butt;stroke-linejoin:miter;stroke-opacity:1" d="M 411.907,8.78764 403.29,4 z" id="boundary" inkscape:connector-curvature="0" />
	<path style="fill:none;stroke:red;stroke-width:1px;stroke-linecap:butt;stroke-linejoin:miter;stroke-opacity:1" d="M 403.29,4 393.714,4 z" id="boundary" inkscape:connector-curvature="0" />
	<path style="fill:none;stroke:red;stroke-width:1px;stroke-linecap:butt;stroke-linejoin:miter;stroke-opacity:1" d="M 393.714,4 384.139,4 z" id="boundary" inkscape:connector-curvature="0" />
	<path style="fill:none;stroke:red;stroke-width:1px;stroke-linecap:butt;stroke-linejoin:miter;stroke-opacity:1" d="M 384.139,4 374.564,4 z" id="boundary" inkscape:connector-curvature="0" />
	<path style="fill:none;stroke:red;stroke-width:1px;stroke-linecap:butt;stroke-linejoin:miter;stroke-opacity:1" d="M 374.564,4 364.988,4.95753 z" id="boundary" inkscape:connector-curvature="0" />
	<path style="fill:none;stroke:red;stroke-width:1px;stroke-linecap:butt;stroke-linejoin:miter;stroke-opacity:1" d="M 364.988,4.95753 355.413,8.78764 z" id="boundary" inkscape:connector-curvature="0" />
	<path style="fill:none;stroke:red;stroke-width:1px;stroke-linecap:butt;stroke-linejoin:miter;stroke-opacity:1" d="M 355.413,8.78764 346.795,13.5753 z" id="boundary" inkscape:connector-curvature="0" />
	<path style="fill:none;stroke:red;stroke-width:1px;stroke-linecap:butt;stroke-linejoin:miter;stroke-opacity:1" d="M 346.795,13.5753 339.135,21.2355 z" id="boundary" inkscape:connector-curvature="0" />
	<path style="fill:none;stroke:red;stroke-width:1px;stroke-linecap:butt;stroke-linejoin:miter;stroke-opacity:1" d="M 339.135,21.2355 339.135,30.8108 z" id="boundary" inkscape:connector-curvature="0" />
	<path style="fill:none;stroke:red;stroke-width:1px;stroke-linecap:butt;stroke-linejoin:miter;stroke-opacity:1" d="M 339.135,30.8108 339.135,40.3861 z" id="boundary" inkscape:connector-curvature="0" />
	<path style="fill:none;stroke:red;stroke-width:1px;stroke-linecap:butt;stroke-linejoin:miter;stroke-opacity:1" d="M 339.135,40.3861 343.923,49.0039 z" id="boundary" inkscape:connector-curvature="0" />
	<path style="fill:none;stroke:red;stroke-width:1px;stroke-linecap:butt;stroke-linejoin:miter;stroke-opacity:1" d="M 343.923,49.0039 348.71,57.6216 z" id="boundary" inkscape:connector-curvature="0" />
	<path style="fill:none;stroke:red;stroke-width:1px;stroke-linecap:butt;stroke-linejoin:miter;stroke-opacity:1" d="M 348.71,57.6216 351.583,67.1969 z" id="boundary" inkscape:connector-curvature="0" />
	<path style="fill:none;stroke:red;stroke-width:1px;stroke-linecap:butt;stroke-linejoin:miter;stroke-opacity:1" d="M 351.583,67.1969 356.371,75.8147 z" id="boundary" inkscape:connector-curvature="0" />
	<path style="fill:none;stroke:red;stroke-width:1px;stroke-linecap:butt;stroke-linejoin:miter;stroke-opacity:1" d="M 356.371,75.8147 360.201,85.39 z" id="boundary" inkscape:connector-curvature="0" />
	<path style="fill:none;stroke:red;stroke-width:1px;stroke-linecap:butt;stroke-linejoin:miter;stroke-opacity:1" d="M 360.201,85.39 367.861,91.1351 z" id="boundary" inkscape:connector-curvature="0" />
	<path style="fill:none;stroke:red;stroke-width:1px;stroke-linecap:butt;stroke-linejoin:miter;stroke-opacity:1" d="M 367.861,91.1351 373.606,98.7954 z" id="boundary" inkscape:connector-curvature="0" />
	<path style="fill:none;stroke:red;stroke-width:1px;stroke-linecap:butt;stroke-linejoin:miter;stroke-opacity:1" d="M 373.606,98.7954 381.266,105.498 z" id="boundary" inkscape:connector-curvature="0" />
	<path style="fill:none;stroke:red;stroke-width:1px;stroke-linecap:butt;stroke-linejoin:miter;stroke-opacity:1" d="M 381.266,105.498 389.884,110.286 z" id="boundary" inkscape:connector-curvature="0" />
	<path style="fill:none;stroke:red;stroke-width:1px;stroke-linecap:butt;stroke-linejoin:miter;stroke-opacity:1" d="M 389.884,110.286 398.502,115.073 z" id="boundary" inkscape:connector-curvature="0" />
	<path style="fill:none;stroke:red;stroke-width:1px;stroke-linecap:butt;stroke-linejoin:miter;stroke-opacity:1" d="M 398.502,115.073 406.162,120.819 z" id="boundary" inkscape:connector-curvature="0" />
	<path style="fill:none;stroke:red;stroke-width:1px;stroke-linecap:butt;stroke-linejoin:miter;stroke-opacity:1" d="M 406.162,120.819 415.737,124.649 z" id="boundary" inkscape:connector-curvature="0" />
	<path style="fill:none;stroke:red;stroke-width:1px;stroke-linecap:butt;stroke-linejoin:miter;stroke-opacity:1" d="M 415.737,124.649 424.355,129.436 z" id="boundary" inkscape:connector-curvature="0" />
	<circle cx="4" cy="514.363" r="4" fill="#0" id="circle0"/>
	<circle cx="4" cy="523.938" r="4" fill="#0" id="circle1"/>
	<circle cx="4" cy="533.514" r="4" fill="#0" id="circle2"/>
	<circle cx="4" cy="543.089" r="4" fill="#0" id="circle3"/>
	<circle cx="4" cy="552.664" r="4" fill="#0" id="circle4"/>
	<circle cx="4" cy="562.239" r="4" fill="#0" id="circle5"/>
	<circle cx="4" cy="571.815" r="4" fill="#0" id="circle6"/>
	<circle cx="4" cy="581.39" r="4" fill="#0" id="circle7"/>
	<circle cx="4" cy="590.965" r="4" fill="#0" id="circle8"/>
	<circle cx="8.78764" cy="485.637" r="4" fill="#0" id="circle9"/>
	<circle cx="8.78764" cy="495.212" r="4" fill="#0" id="circle10"/>
	<circle cx="8.78764" cy="504.788" r="4" fill="#0" id="circle11"/>
	<circle cx="8.78764" cy="599.583" r="4" fill="#0" id="circle12"/>
	<circle cx="8.78764" cy="609.158" r="4" fill="#0" id="circle13"/>
	<circle cx="8.78764" cy="618.734" r="4" fill="#0" id="circle14"/>
	<circle cx="13.5753" cy="461.699" r="4" fill="#0" id="circle15"/>
	<circle cx="13.5753" cy="471.274" r="4" fill="#0" id="circle16"/>
	<circle cx="13.5753" cy="627.351" r="4" fill="#0" id="circle17"/>
	<circle cx="13.5753" cy="636.927" r="4" fill="#0" id="circle18"/>
	<circle cx="16.4479" cy="646.502" r="4" fill="#0" id="circle19"/>
	<circle cx="18.3629" cy="447.336" r="4" fill="#0" id="circle20"/>
	<circle cx="18.3629" cy="656.077" r="4" fill="#0" id="circle21"/>
	<circle cx="23.1506" cy="432.973" r="4" fill="#0" id="circle22"/>
	<circle cx="23.1506" cy="664.695" r="4" fill="#0" id="circle23"/>
	<circle cx="25.0656" cy="674.27" r="4" fill="#0" id="circle24"/>
	<circle cx="27.9382" cy="418.61" r="4" fill="#0" id="circle25"/>
	<circle cx="27.9382" cy="683.846" r="4" fill="#0" id="circle26"/>
	<circle cx="32.7259" cy="409.035" r="4" fill="#0" id="circle27"/>
	<circle cx="32.7259" cy="692.463" r="4" fill="#0" id="circle28"/>
	<circle cx="37.5135" cy="399.459" r="4" fill="#0" id="circle29"/>
	<circle cx="37.5135" cy="701.081" r="4" fill="#0" id="circle30"/>
	<circle cx="42.3012" cy="389.884" r="4" fill="#0" id="circle31"/>
	<circle cx="42.3012" cy="709.699" r="4" fill="#0" id="circle32"/>
	<circle cx="47.0888" cy="380.309" r="4" fill="#0" id="circle33"/>
	<circle cx="47.0888" cy="718.317" r="4" fill="#0" id="circle34"/>
	<circle cx="49.9614" cy="727.892" r="4" fill="#0" id="circle35"/>
	<circle cx="51.8764" cy="370.734" r="4" fill="#0" id="circle36"/>
	<circle cx="54.749" cy="736.51" r="4" fill="#0" id="circle37"/>
	<circle cx="56.6641" cy="361.158" r="4" fill="#0" id="circle38"/>
	<circle cx="58.5792" cy="746.085" r="4" fill="#0" id="circle39"/>
	<circle cx="64.3243" cy="353.498" r="4" fill="#0" id="circle40"/>
	<circle cx="66.2394" cy="751.83" r="4" fill="#0" id="circle41"/>
	<circle cx="69.112" cy="343.923" r="4" fill="#0" id="circle42"/>
	<circle cx="69.112" cy="761.405" r="4" fill="#0" id="circle43"/>
	<circle cx="75.8147" cy="332.432" r="4" fill="#0" id="circle44"/>
	<circle cx="75.8147" cy="769.066" r="4" fill="#0" id="circle45"/>
	<circle cx="80.6023" cy="777.683" r="4" fill="#0" id="circle46"/>
	<circle cx="83.4749" cy="324.772" r="4" fill="#0" id="circle47"/>
	<circle cx="88.2625" cy="784.386" r="4" fill="#0" id="circle48"/>
	<circle cx="90.1776" cy="313.282" r="4" fill="#0" id="circle49"/>
	<circle cx="92.0927" cy="793.961" r="4" fill="#0" id="circle50"/>
	<circle cx="97.8378" cy="305.622" r="4" fill="#0" id="circle51"/>
	<circle cx="99.7529" cy="799.707" r="4" fill="#0" id="circle52"/>
	<circle cx="105.498" cy="297.961" r="4" fill="#0" id="circle53"/>
	<circle cx="105.498" cy="807.367" r="4" fill="#0" id="circle54"/>
	<circle cx="113.158" cy="291.259" r="4" fill="#0" id="circle55"/>
	<circle cx="113.158" cy="814.069" r="4" fill="#0" id="circle56"/>
	<circle cx="119.861" cy="283.598" r="4" fill="#0" id="circle57"/>
	<circle cx="119.861" cy="821.73" r="4" fill="#0" id="circle58"/>
	<circle cx="127.521" cy="276.896" r="4" fill="#0" id="circle59"/>
	<circle cx="127.521" cy="828.432" r="4" fill="#0" id="circle60"/>
	<circle cx="134.224" cy="269.236" r="4" fill="#0" id="circle61"/>
	<circle cx="134.224" cy="836.093" r="4" fill="#0" id="circle62"/>
	<circle cx="141.884" cy="262.533" r="4" fill="#0" id="circle63"/>
	<circle cx="141.884" cy="842.795" r="4" fill="#0" id="circle64"/>
	<circle cx="148.587" cy="254.873" r="4" fill="#0" id="circle65"/>
	<circle cx="148.587" cy="850.456" r="4" fill="#0" id="circle66"/>
	<circle cx="158.162" cy="250.085" r="4" fill="#0" id="circle67"/>
	<circle cx="158.162" cy="854.286" r="4" fill="#0" id="circle68"/>
	<circle cx="164.865" cy="861.946" r="4" fill="#0" id="circle69"/>
	<circle cx="165.822" cy="243.382" r="4" fill="#0" id="circle70"/>
	<circle cx="173.483" cy="866.734" r="4" fill="#0" id="circle71"/>
	<circle cx="174.44" cy="238.595" r="4" fill="#0" id="circle72"/>
	<circle cx="181.143" cy="872.479" r="4" fill="#0" id="circle73"/>
	<circle cx="182.1" cy="230.934" r="4" fill="#0" id="circle74"/>
	<circle cx="187.846" cy="880.139" r="4" fill="#0" id="circle75"/>
	<circle cx="189.761" cy="224.232" r="4" fill="#0" id="circle76"/>
	<circle cx="197.421" cy="883.969" r="4" fill="#0" id="circle77"/>
	<circle cx="198.378" cy="219.444" r="4" fill="#0" id="circle78"/>
	<circle cx="206.039" cy="888.757" r="4" fill="#0" id="circle79"/>
	<circle cx="207.954" cy="214.656" r="4" fill="#0" id="circle80"/>
	<circle cx="213.699" cy="895.459" r="4" fill="#0" id="circle81"/>
	<circle cx="216.571" cy="209.869" r="4" fill="#0" id="circle82"/>
	<circle cx="222.317" cy="900.247" r="4" fill="#0" id="circle83"/>
	<circle cx="225.189" cy="205.081" r="4" fill="#0" id="circle84"/>
	<circle cx="231.892" cy="904.077" r="4" fill="#0" id="circle85"/>
	<circle cx="233.807" cy="200.293" r="4" fill="#0" id="circle86"/>
	<circle cx="240.51" cy="908.865" r="4" fill="#0" id="circle87"/>
	<circle cx="242.425" cy="195.506" r="4" fill="#0" id="circle88"/>
	<circle cx="250.085" cy="912.695" r="4" fill="#0" id="circle89"/>
	<circle cx="251.042" cy="190.718" r="4" fill="#0" id="circle90"/>
	<circle cx="258.703" cy="917.483" r="4" fill="#0" id="circle91"/>
	<circle cx="260.618" cy="185.931" r="4" fill="#0" id="circle92"/>
	<circle cx="268.278" cy="921.313" r="4" fill="#0" id="circle93"/>
	<circle cx="270.193" cy="181.143" r="4" fill="#0" id="circle94"/>
	<circle cx="277.853" cy="924.185" r="4" fill="#0" id="circle95"/>
	<circle cx="279.768" cy="181.143" r="4" fill="#0" id="circle96"/>
	<circle cx="286.471" cy="928.973" r="4" fill="#0" id="circle97"/>
	<circle cx="288.386" cy="176.355" r="4" fill="#0" id="circle98"/>
	<circle cx="295.089" cy="933.761" r="4" fill="#0" id="circle99"/>
	<circle cx="297.004" cy="171.568" r="4" fill="#0" id="circle100"/>
	<circle cx="304.664" cy="933.761" r="4" fill="#0" id="circle101"/>
	<circle cx="306.579" cy="168.695" r="4" fill="#0" id="circle102"/>
	<circle cx="313.282" cy="938.548" r="4" fill="#0" id="circle103"/>
	<circle cx="316.154" cy="166.78" r="4" fill="#0" id="circle104"/>
	<circle cx="322.857" cy="942.378" r="4" fill="#0" id="circle105"/>
	<circle cx="324.772" cy="161.992" r="4" fill="#0" id="circle106"/>
	<circle cx="332.432" cy="943.336" r="4" fill="#0" id="circle107"/>
	<circle cx="334.347" cy="161.992" r="4" fill="#0" id="circle108"/>
	<circle cx="339.135" cy="21.2355" r="4" fill="#0" id="circle109"/>
	<circle cx="339.135" cy="30.8108" r="4" fill="#0" id="circle110"/>
	<circle cx="339.135" cy="40.3861" r="4" fill="#0" id="circle111"/>
	<circle cx="342.008" cy="947.166" r="4" fill="#0" id="circle112"/>
	<circle cx="342.965" cy="157.205" r="4" fill="#0" id="circle113"/>
	<circle cx="343.923" cy="49.0039" r="4" fill="#0" id="circle114"/>
	<circle cx="346.795" cy="13.5753" r="4" fill="#0" id="circle115"/>
	<circle cx="348.71" cy="57.6216" r="4" fill="#0" id="circle116"/>
	<circle cx="351.583" cy="67.1969" r="4" fill="#0" id="circle117"/>
	<circle cx="351.583" cy="948.124" r="4" fill="#0" id="circle118"/>
	<circle cx="352.541" cy="157.205" r="4" fill="#0" id="circle119"/>
	<circle cx="355.413" cy="8.78764" r="4" fill="#0" id="circle120"/>
	<circle cx="356.371" cy="75.8147" r="4" fill="#0" id="circle121"/>
	<circle cx="360.201" cy="85.39" r="4" fill="#0" id="circle122"/>
	<circle cx="361.158" cy="152.417" r="4" fill="#0" id="circle123"/>
	<circle cx="361.158" cy="951.954" r="4" fill="#0" id="circle124"/>
	<circle cx="364.988" cy="4.95753" r="4" fill="#0" id="circle125"/>
	<circle cx="367.861" cy="91.1351" r="4" fill="#0" id="circle126"/>
	<circle cx="370.734" cy="152.417" r="4" fill="#0" id="circle127"/>
	<circle cx="370.734" cy="952.911" r="4" fill="#0" id="circle128"/>
	<circle cx="373.606" cy="98.7954" r="4" fill="#0" id="circle129"/>
	<circle cx="374.564" cy="4" r="4" fill="#0" id="circle130"/>
	<circle cx="380.309" cy="152.417" r="4" fill="#0" id="circle131"/>
	<circle cx="380.309" cy="952.911" r="4" fill="#0" id="circle132"/>
	<circle cx="381.266" cy="105.498" r="4" fill="#0" id="circle133"/>
	<circle cx="384.139" cy="4" r="4" fill="#0" id="circle134"/>
	<circle cx="388.927" cy="147.629" r="4" fill="#0" id="circle135"/>
	<circle cx="388.927" cy="957.699" r="4" fill="#0" id="circle136"/>
	<circle cx="389.884" cy="110.286" r="4" fill="#0" id="circle137"/>
	<circle cx="393.714" cy="4" r="4" fill="#0" id="circle138"/>
	<circle cx="398.502" cy="115.073" r="4" fill="#0" id="circle139"/>
	<circle cx="398.502" cy="147.629" r="4" fill="#0" id="circle140"/>
	<circle cx="398.502" cy="957.699" r="4" fill="#0" id="circle141"/>
	<circle cx="403.29" cy="4" r="4" fill="#0" id="circle142"/>
	<circle cx="406.162" cy="120.819" r="4" fill="#0" id="circle143"/>
	<circle cx="408.077" cy="147.629" r="4" fill="#0" id="circle144"/>
	<circle cx="408.077" cy="957.699" r="4" fill="#0" id="circle145"/>
	<circle cx="411.907" cy="8.78764" r="4" fill="#0" id="circle146"/>
	<circle cx="415.737" cy="124.649" r="4" fill="#0" id="circle147"/>
	<circle cx="417.653" cy="147.629" r="4" fill="#0" id="circle148"/>
	<circle cx="417.653" cy="957.699" r="4" fill="#0" id="circle149"/>
	<circle cx="421.483" cy="11.6602" r="4" fill="#0" id="circle150"/>
	<circle cx="424.355" cy="129.436" r="4" fill="#0" id="circle151"/>
	<circle cx="426.27" cy="142.842" r="4" fill="#0" id="circle152"/>
	<circle cx="426.27" cy="962.486" r="4" fill="#0" id="circle153"/>
	<circle cx="431.058" cy="13.5753" r="4" fill="#0" id="circle154"/>
	<circle cx="432.973" cy="134.224" r="4" fill="#0" id="circle155"/>
	<circle cx="435.846" cy="962.486" r="4" fill="#0" id="circle156"/>
	<circle cx="437.761" cy="142.842" r="4" fill="#0" id="circle157"/>
	<circle cx="439.676" cy="18.3629" r="4" fill="#0" id="circle158"/>
	<circle cx="442.548" cy="134.224" r="4" fill="#0" id="circle159"/>
	<circle cx="445.421" cy="962.486" r="4" fill="#0" id="circle160"/>
	<circle cx="447.336" cy="24.1081" r="4" fill="#0" id="circle161"/>
	<circle cx="447.336" cy="142.842" r="4" fill="#0" id="circle162"/>
	<circle cx="452.124" cy="134.224" r="4" fill="#0" id="circle163"/>
	<circle cx="454.996" cy="30.8108" r="4" fill="#0" id="circle164"/>
	<circle cx="454.996" cy="962.486" r="4" fill="#0" id="circle165"/>
	<circle cx="456.911" cy="142.842" r="4" fill="#0" id="circle166"/>
	<circle cx="461.699" cy="38.471" r="4" fill="#0" id="circle167"/>
	<circle cx="464.571" cy="962.486" r="4" fill="#0" id="circle168"/>
	<circle cx="466.486" cy="139.012" r="4" fill="#0" id="circle169"/>
	<circle cx="469.359" cy="45.1737" r="4" fill="#0" id="circle170"/>
	<circle cx="474.147" cy="962.486" r="4" fill="#0" id="circle171"/>
	<circle cx="476.062" cy="52.834" r="4" fill="#0" id="circle172"/>
	<circle cx="476.062" cy="139.012" r="4" fill="#0" id="circle173"/>
	<circle cx="483.722" cy="59.5367" r="4" fill="#0" id="circle174"/>
	<circle cx="483.722" cy="962.486" r="4" fill="#0" id="circle175"/>
	<circle cx="487.552" cy="69.112" r="4" fill="#0" id="circle176"/>
	<circle cx="492.34" cy="77.7297" r="4" fill="#0" id="circle177"/>
	<circle cx="493.297" cy="962.486" r="4" fill="#0" id="circle178"/>
	<circle cx="498.085" cy="85.39" r="4" fill="#0" id="circle179"/>
	<circle cx="502.873" cy="94.0077" r="4" fill="#0" id="circle180"/>
	<circle cx="502.873" cy="962.486" r="4" fill="#0" id="circle181"/>
	<circle cx="506.703" cy="16.4479" r="4" fill="#0" id="circle182"/>
	<circle cx="506.703" cy="26.0232" r="4" fill="#0" id="circle183"/>
	<circle cx="506.703" cy="35.5985" r="4" fill="#0" id="circle184"/>
	<circle cx="507.66" cy="102.625" r="4" fill="#0" id="circle185"/>
	<circle cx="511.49" cy="44.2162" r="4" fill="#0" id="circle186"/>
	<circle cx="511.49" cy="53.7915" r="4" fill="#0" id="circle187"/>
	<circle cx="511.49" cy="63.3668" r="4" fill="#0" id="circle188"/>
	<circle cx="511.49" cy="112.201" r="4" fill="#0" id="circle189"/>
	<circle cx="512.448" cy="121.776" r="4" fill="#0" id="circle190"/>
	<circle cx="512.448" cy="962.486" r="4" fill="#0" id="circle191"/>
	<circle cx="516.278" cy="13.5753" r="4" fill="#0" id="circle192"/>
	<circle cx="516.278" cy="71.9846" r="4" fill="#0" id="circle193"/>
	<circle cx="516.278" cy="81.5598" r="4" fill="#0" id="circle194"/>
	<circle cx="516.278" cy="91.1351" r="4" fill="#0" id="circle195"/>
	<circle cx="522.023" cy="21.2355" r="4" fill="#0" id="circle196"/>
	<circle cx="522.023" cy="957.699" r="4" fill="#0" id="circle197"/>
	<circle cx="526.811" cy="29.8533" r="4" fill="#0" id="circle198"/>
	<circle cx="526.811" cy="39.4286" r="4" fill="#0" id="circle199"/>
	<circle cx="531.598" cy="48.0463" r="4" fill="#0" id="circle200"/>
	<circle cx="531.598" cy="57.6216" r="4" fill="#0" id="circle201"/>
	<circle cx="531.598" cy="67.1969" r="4" fill="#0" id="circle202"/>
	<circle cx="531.598" cy="957.699" r="4" fill="#0" id="circle203"/>
	<circle cx="536.386" cy="75.8147" r="4" fill="#0" id="circle204"/>
	<circle cx="536.386" cy="85.39" r="4" fill="#0" id="circle205"/>
	<circle cx="536.386" cy="94.9653" r="4" fill="#0" id="circle206"/>
	<circle cx="536.386" cy="104.541" r="4" fill="#0" id="circle207"/>
	<circle cx="536.386" cy="114.116" r="4" fill="#0" id="circle208"/>
	<circle cx="536.386" cy="123.691" r="4" fill="#0" id="circle209"/>
	<circle cx="536.386" cy="133.266" r="4" fill="#0" id="circle210"/>
	<circle cx="536.386" cy="142.842" r="4" fill="#0" id="circle211"/>
	<circle cx="540.216" cy="962.486" r="4" fill="#0" id="circle212"/>
	<circle cx="545.961" cy="142.842" r="4" fill="#0" id="circle213"/>
	<circle cx="549.792" cy="962.486" r="4" fill="#0" id="circle214"/>
	<circle cx="555.537" cy="142.842" r="4" fill="#0" id="circle215"/>
	<circle cx="559.367" cy="962.486" r="4" fill="#0" id="circle216"/>
	<circle cx="565.112" cy="142.842" r="4" fill="#0" id="circle217"/>
	<circle cx="568.942" cy="962.486" r="4" fill="#0" id="circle218"/>
	<circle cx="574.687" cy="142.842" r="4" fill="#0" id="circle219"/>
	<circle cx="578.517" cy="962.486" r="4" fill="#0" id="circle220"/>
	<circle cx="584.263" cy="142.842" r="4" fill="#0" id="circle221"/>
	<circle cx="588.093" cy="962.486" r="4" fill="#0" id="circle222"/>
	<circle cx="593.838" cy="142.842" r="4" fill="#0" id="circle223"/>
	<circle cx="597.668" cy="962.486" r="4" fill="#0" id="circle224"/>
	<circle cx="603.413" cy="142.842" r="4" fill="#0" id="circle225"/>
	<circle cx="607.243" cy="962.486" r="4" fill="#0" id="circle226"/>
	<circle cx="612.988" cy="142.842" r="4" fill="#0" id="circle227"/>
	<circle cx="616.819" cy="962.486" r="4" fill="#0" id="circle228"/>
	<circle cx="622.564" cy="142.842" r="4" fill="#0" id="circle229"/>
	<circle cx="626.394" cy="962.486" r="4" fill="#0" id="circle230"/>
	<circle cx="632.139" cy="142.842" r="4" fill="#0" id="circle231"/>
	<circle cx="635.969" cy="959.614" r="4" fill="#0" id="circle232"/>
	<circle cx="640.757" cy="147.629" r="4" fill="#0" id="circle233"/>
	<circle cx="645.544" cy="957.699" r="4" fill="#0" id="circle234"/>
	<circle cx="650.332" cy="147.629" r="4" fill="#0" id="circle235"/>
	<circle cx="655.12" cy="957.699" r="4" fill="#0" id="circle236"/>
	<circle cx="659.907" cy="147.629" r="4" fill="#0" id="circle237"/>
	<circle cx="664.695" cy="957.699" r="4" fill="#0" id="circle238"/>
	<circle cx="669.483" cy="147.629" r="4" fill="#0" id="circle239"/>
	<circle cx="674.27" cy="954.826" r="4" fill="#0" id="circle240"/>
	<circle cx="678.1" cy="152.417" r="4" fill="#0" id="circle241"/>
	<circle cx="683.846" cy="952.911" r="4" fill="#0" id="circle242"/>
	<circle cx="687.676" cy="152.417" r="4" fill="#0" id="circle243"/>
	<circle cx="693.421" cy="952.911" r="4" fill="#0" id="circle244"/>
	<circle cx="697.251" cy="153.375" r="4" fill="#0" id="circle245"/>
	<circle cx="702.039" cy="948.124" r="4" fill="#0" id="circle246"/>
	<circle cx="706.826" cy="157.205" r="4" fill="#0" id="circle247"/>
	<circle cx="711.614" cy="948.124" r="4" fill="#0" id="circle248"/>
	<circle cx="716.402" cy="158.162" r="4" fill="#0" id="circle249"/>
	<circle cx="720.232" cy="943.336" r="4" fill="#0" id="circle250"/>
	<circle cx="725.977" cy="161.992" r="4" fill="#0" id="circle251"/>
	<circle cx="729.807" cy="943.336" r="4" fill="#0" id="circle252"/>
	<circle cx="735.552" cy="162.95" r="4" fill="#0" id="circle253"/>
	<circle cx="738.425" cy="938.548" r="4" fill="#0" id="circle254"/>
	<circle cx="745.127" cy="166.78" r="4" fill="#0" id="circle255"/>
	<circle cx="748" cy="938.548" r="4" fill="#0" id="circle256"/>
	<circle cx="753.745" cy="171.568" r="4" fill="#0" id="circle257"/>
	<circle cx="756.618" cy="933.761" r="4" fill="#0" id="circle258"/>
	<circle cx="763.32" cy="171.568" r="4" fill="#0" id="circle259"/>
	<circle cx="766.193" cy="928.973" r="4" fill="#0" id="circle260"/>
	<circle cx="771.938" cy="176.355" r="4" fill="#0" id="circle261"/>
	<circle cx="775.768" cy="924.185" r="4" fill="#0" id="circle262"/>
	<circle cx="780.556" cy="181.143" r="4" fill="#0" id="circle263"/>
	<circle cx="785.344" cy="924.185" r="4" fill="#0" id="circle264"/>
	<circle cx="790.131" cy="184.015" r="4" fill="#0" id="circle265"/>
	<circle cx="793.961" cy="919.398" r="4" fill="#0" id="circle266"/>
	<circle cx="798.749" cy="188.803" r="4" fill="#0" id="circle267"/>
	<circle cx="802.579" cy="914.61" r="4" fill="#0" id="circle268"/>
	<circle cx="808.324" cy="192.633" r="4" fill="#0" id="circle269"/>
	<circle cx="811.197" cy="909.822" r="4" fill="#0" id="circle270"/>
	<circle cx="816.942" cy="197.421" r="4" fill="#0" id="circle271"/>
	<circle cx="819.815" cy="905.035" r="4" fill="#0" id="circle272"/>
	<circle cx="826.517" cy="201.251" r="4" fill="#0" id="circle273"/>
	<circle cx="828.432" cy="900.247" r="4" fill="#0" id="circle274"/>
	<circle cx="835.135" cy="206.039" r="4" fill="#0" id="circle275"/>
	<circle cx="838.008" cy="895.459" r="4" fill="#0" id="circle276"/>
	<circle cx="844.71" cy="209.869" r="4" fill="#0" id="circle277"/>
	<circle cx="847.583" cy="890.672" r="4" fill="#0" id="circle278"/>
	<circle cx="851.413" cy="217.529" r="4" fill="#0" id="circle279"/>
	<circle cx="856.201" cy="885.884" r="4" fill="#0" id="circle280"/>
	<circle cx="860.988" cy="221.359" r="4" fill="#0" id="circle281"/>
	<circle cx="864.819" cy="881.097" r="4" fill="#0" id="circle282"/>
	<circle cx="869.606" cy="226.147" r="4" fill="#0" id="circle283"/>
	<circle cx="871.521" cy="493.297" r="4" fill="#0" id="circle284"/>
	<circle cx="871.521" cy="502.873" r="4" fill="#0" id="circle285"/>
	<circle cx="871.521" cy="512.448" r="4" fill="#0" id="circle286"/>
	<circle cx="871.521" cy="522.023" r="4" fill="#0" id="circle287"/>
	<circle cx="871.521" cy="531.598" r="4" fill="#0" id="circle288"/>
	<circle cx="873.436" cy="875.351" r="4" fill="#0" id="circle289"/>
	<circle cx="876.309" cy="233.807" r="4" fill="#0" id="circle290"/>
	<circle cx="876.309" cy="478.934" r="4" fill="#0" id="circle291"/>
	<circle cx="876.309" cy="540.216" r="4" fill="#0" id="circle292"/>
	<circle cx="876.309" cy="549.792" r="4" fill="#0" id="circle293"/>
	<circle cx="881.097" cy="416.695" r="4" fill="#0" id="circle294"/>
	<circle cx="881.097" cy="426.27" r="4" fill="#0" id="circle295"/>
	<circle cx="881.097" cy="435.846" r="4" fill="#0" id="circle296"/>
	<circle cx="881.097" cy="445.421" r="4" fill="#0" id="circle297"/>
	<circle cx="881.097" cy="866.734" r="4" fill="#0" id="circle298"/>
	<circle cx="883.969" cy="472.232" r="4" fill="#0" id="circle299"/>
	<circle cx="883.969" cy="555.537" r="4" fill="#0" id="circle300"/>
	<circle cx="884.927" cy="238.595" r="4" fill="#0" id="circle301"/>
	<circle cx="885.884" cy="402.332" r="4" fill="#0" id="circle302"/>
	<circle cx="885.884" cy="454.039" r="4" fill="#0" id="circle303"/>
	<circle cx="885.884" cy="579.475" r="4" fill="#0" id="circle304"/>
	<circle cx="885.884" cy="589.05" r="4" fill="#0" id="circle305"/>
	<circle cx="885.884" cy="598.625" r="4" fill="#0" id="circle306"/>
	<circle cx="885.884" cy="608.201" r="4" fill="#0" id="circle307"/>
	<circle cx="885.884" cy="617.776" r="4" fill="#0" id="circle308"/>
	<circle cx="887.799" cy="565.112" r="4" fill="#0" id="circle309"/>
	<circle cx="890.672" cy="392.757" r="4" fill="#0" id="circle310"/>
	<circle cx="890.672" cy="626.394" r="4" fill="#0" id="circle311"/>
	<circle cx="890.672" cy="861.946" r="4" fill="#0" id="circle312"/>
	<circle cx="892.587" cy="244.34" r="4" fill="#0" id="circle313"/>
	<circle cx="895.459" cy="635.012" r="4" fill="#0" id="circle314"/>
	<circle cx="898.332" cy="386.054" r="4" fill="#0" id="circle315"/>
	<circle cx="898.332" cy="855.243" r="4" fill="#0" id="circle316"/>
	<circle cx="900.247" cy="251.042" r="4" fill="#0" id="circle317"/>
	<circle cx="900.247" cy="643.629" r="4" fill="#0" id="circle318"/>
	<circle cx="904.077" cy="653.205" r="4" fill="#0" id="circle319"/>
	<circle cx="905.035" cy="378.394" r="4" fill="#0" id="circle320"/>
	<circle cx="907.907" cy="850.456" r="4" fill="#0" id="circle321"/>
	<circle cx="908.865" cy="255.83" r="4" fill="#0" id="circle322"/>
	<circle cx="909.822" cy="349.668" r="4" fill="#0" id="circle323"/>
	<circle cx="909.822" cy="359.243" r="4" fill="#0" id="circle324"/>
	<circle cx="909.822" cy="368.819" r="4" fill="#0" id="circle325"/>
	<circle cx="911.737" cy="659.907" r="4" fill="#0" id="circle326"/>
	<circle cx="914.61" cy="340.093" r="4" fill="#0" id="circle327"/>
	<circle cx="914.61" cy="842.795" r="4" fill="#0" id="circle328"/>
	<circle cx="916.525" cy="262.533" r="4" fill="#0" id="circle329"/>
	<circle cx="919.398" cy="330.517" r="4" fill="#0" id="circle330"/>
	<circle cx="920.355" cy="664.695" r="4" fill="#0" id="circle331"/>
	<circle cx="922.27" cy="836.093" r="4" fill="#0" id="circle332"/>
	<circle cx="923.228" cy="270.193" r="4" fill="#0" id="circle333"/>
	<circle cx="924.185" cy="320.942" r="4" fill="#0" id="circle334"/>
	<circle cx="928.973" cy="669.483" r="4" fill="#0" id="circle335"/>
	<circle cx="928.973" cy="828.432" r="4" fill="#0" id="circle336"/>
	<circle cx="930.888" cy="276.896" r="4" fill="#0" id="circle337"/>
	<circle cx="932.803" cy="316.154" r="4" fill="#0" id="circle338"/>
	<circle cx="936.633" cy="675.228" r="4" fill="#0" id="circle339"/>
	<circle cx="936.633" cy="821.73" r="4" fill="#0" id="circle340"/>
	<circle cx="937.591" cy="284.556" r="4" fill="#0" id="circle341"/>
	<circle cx="941.421" cy="311.367" r="4" fill="#0" id="circle342"/>
	<circle cx="943.336" cy="682.888" r="4" fill="#0" id="circle343"/>
	<circle cx="943.336" cy="692.463" r="4" fill="#0" id="circle344"/>
	<circle cx="943.336" cy="702.039" r="4" fill="#0" id="circle345"/>
	<circle cx="943.336" cy="814.069" r="4" fill="#0" id="circle346"/>
	<circle cx="945.251" cy="291.259" r="4" fill="#0" id="circle347"/>
	<circle cx="948.124" cy="710.656" r="4" fill="#0" id="circle348"/>
	<circle cx="948.124" cy="720.232" r="4" fill="#0" id="circle349"/>
	<circle cx="950.039" cy="306.579" r="4" fill="#0" id="circle350"/>
	<circle cx="950.996" cy="807.367" r="4" fill="#0" id="circle351"/>
	<circle cx="954.826" cy="727.892" r="4" fill="#0" id="circle352"/>
	<circle cx="957.699" cy="799.707" r="4" fill="#0" id="circle353"/>
	<circle cx="959.614" cy="736.51" r="4" fill="#0" id="circle354"/>
	<circle cx="965.359" cy="793.004" r="4" fill="#0" id="circle355"/>
	<circle cx="968.232" cy="741.297" r="4" fill="#0" id="circle356"/>
	<circle cx="970.147" cy="783.429" r="4" fill="#0" id="circle357"/>
	<circle cx="976.849" cy="746.085" r="4" fill="#0" id="circle358"/>
	<circle cx="976.849" cy="775.768" r="4" fill="#0" id="circle359"/>
	<circle cx="981.637" cy="766.193" r="4" fill="#0" id="circle360"/>
	<circle cx="986.425" cy="746.085" r="4" fill="#0" id="circle361"/>
	<circle cx="989.297" cy="759.49" r="4" fill="#0" id="circle362"/>
	<circle cx="996" cy="743.212" r="4" fill="#0" id="circle363"/>
	</g>
</svg>