<?xml version="1.0" encoding="UTF-8" standalone="no"?>
<!-- Created with CurveBenchmark -->
<svg
	xmlns:dc="http://purl.org/dc/elements/1.1/"
	xmlns:cc="http://creativecommons.org/ns#"
	xmlns:rdf="http://www.w3.org/1999/02/22-rdf-syntax-ns#"
	xmlns:svg="http://www.w3.org/2000/svg"
	xmlns="http://www.w3.org/2000/svg"
	xmlns:sodipodi="http://sodipodi.sourceforge.net/DTD/sodipodi-0.dtd"
	xmlns:inkscape="http://www.inkscape.org/namespaces/inkscape"
	width="1000"
	height="1000"
	id="svg2"
	version="1.1"
	sodipodi:docname="manifold/crawl-guitar315.png.txt">
<defs
	id="defs4" />
<metadata
	id="metadata7">
	<rdf:RDF>
		<cc:Work
			rdf:about="">
			<dc:format>image/svg+xml</dc:format>
			<dc:type
				rdf:resource="http://purl.org/dc/dcmitype/StillImage" />
			<dc:title></dc:title>
		</cc:Work>
	</rdf:RDF>
</metadata>
<g
	inkscape:label="Layer 1"
	inkscape:groupmode="layer"
	id="layer1">
	<path style="fill:none;stroke:red;stroke-width:1px;stroke-linecap:butt;stroke-linejoin:miter;stroke-opacity:1" d="M 81.6655,512.356 53.4235,533.537 z" id="boundary" inkscape:connector-curvature="0" />
	<path style="fill:none;stroke:red;stroke-width:1px;stroke-linecap:butt;stroke-linejoin:miter;stroke-opacity:1" d="M 81.6655,512.356 116.968,505.295 z" id="boundary" inkscape:connector-curvature="0" />
	<path style="fill:none;stroke:red;stroke-width:1px;stroke-linecap:butt;stroke-linejoin:miter;stroke-opacity:1" d="M 53.4235,533.537 39.3025,568.84 z" id="boundary" inkscape:connector-curvature="0" />
	<path style="fill:none;stroke:red;stroke-width:1px;stroke-linecap:butt;stroke-linejoin:miter;stroke-opacity:1" d="M 39.3025,568.84 42.8327,604.142 z" id="boundary" inkscape:connector-curvature="0" />
	<path style="fill:none;stroke:red;stroke-width:1px;stroke-linecap:butt;stroke-linejoin:miter;stroke-opacity:1" d="M 42.8327,604.142 53.4235,639.445 z" id="boundary" inkscape:connector-curvature="0" />
	<path style="fill:none;stroke:red;stroke-width:1px;stroke-linecap:butt;stroke-linejoin:miter;stroke-opacity:1" d="M 53.4235,639.445 60.484,674.747 z" id="boundary" inkscape:connector-curvature="0" />
	<path style="fill:none;stroke:red;stroke-width:1px;stroke-linecap:butt;stroke-linejoin:miter;stroke-opacity:1" d="M 60.484,674.747 46.363,710.05 z" id="boundary" inkscape:connector-curvature="0" />
	<path style="fill:none;stroke:red;stroke-width:1px;stroke-linecap:butt;stroke-linejoin:miter;stroke-opacity:1" d="M 116.968,505.295 124.028,462.932 z" id="boundary" inkscape:connector-curvature="0" />
	<path style="fill:none;stroke:red;stroke-width:1px;stroke-linecap:butt;stroke-linejoin:miter;stroke-opacity:1" d="M 124.028,462.932 124.028,427.63 z" id="boundary" inkscape:connector-curvature="0" />
	<path style="fill:none;stroke:red;stroke-width:1px;stroke-linecap:butt;stroke-linejoin:miter;stroke-opacity:1" d="M 124.028,427.63 124.028,392.327 z" id="boundary" inkscape:connector-curvature="0" />
	<path style="fill:none;stroke:red;stroke-width:1px;stroke-linecap:butt;stroke-linejoin:miter;stroke-opacity:1" d="M 124.028,392.327 124.028,357.025 z" id="boundary" inkscape:connector-curvature="0" />
	<path style="fill:none;stroke:red;stroke-width:1px;stroke-linecap:butt;stroke-linejoin:miter;stroke-opacity:1" d="M 124.028,357.025 124.028,321.722 z" id="boundary" inkscape:connector-curvature="0" />
	<path style="fill:none;stroke:red;stroke-width:1px;stroke-linecap:butt;stroke-linejoin:miter;stroke-opacity:1" d="M 124.028,321.722 124.028,286.42 z" id="boundary" inkscape:connector-curvature="0" />
	<path style="fill:none;stroke:red;stroke-width:1px;stroke-linecap:butt;stroke-linejoin:miter;stroke-opacity:1" d="M 124.028,286.42 124.028,251.117 z" id="boundary" inkscape:connector-curvature="0" />
	<path style="fill:none;stroke:red;stroke-width:1px;stroke-linecap:butt;stroke-linejoin:miter;stroke-opacity:1" d="M 124.028,251.117 124.028,215.815 z" id="boundary" inkscape:connector-curvature="0" />
	<path style="fill:none;stroke:red;stroke-width:1px;stroke-linecap:butt;stroke-linejoin:miter;stroke-opacity:1" d="M 124.028,215.815 124.028,180.512 z" id="boundary" inkscape:connector-curvature="0" />
	<path style="fill:none;stroke:red;stroke-width:1px;stroke-linecap:butt;stroke-linejoin:miter;stroke-opacity:1" d="M 124.028,180.512 124.028,145.21 z" id="boundary" inkscape:connector-curvature="0" />
	<path style="fill:none;stroke:red;stroke-width:1px;stroke-linecap:butt;stroke-linejoin:miter;stroke-opacity:1" d="M 124.028,145.21 169.922,131.089 z" id="boundary" inkscape:connector-curvature="0" />
	<path style="fill:none;stroke:red;stroke-width:1px;stroke-linecap:butt;stroke-linejoin:miter;stroke-opacity:1" d="M 169.922,131.089 169.922,166.391 z" id="boundary" inkscape:connector-curvature="0" />
	<path style="fill:none;stroke:red;stroke-width:1px;stroke-linecap:butt;stroke-linejoin:miter;stroke-opacity:1" d="M 169.922,166.391 169.922,201.694 z" id="boundary" inkscape:connector-curvature="0" />
	<path style="fill:none;stroke:red;stroke-width:1px;stroke-linecap:butt;stroke-linejoin:miter;stroke-opacity:1" d="M 169.922,201.694 169.922,236.996 z" id="boundary" inkscape:connector-curvature="0" />
	<path style="fill:none;stroke:red;stroke-width:1px;stroke-linecap:butt;stroke-linejoin:miter;stroke-opacity:1" d="M 169.922,236.996 169.922,272.299 z" id="boundary" inkscape:connector-curvature="0" />
	<path style="fill:none;stroke:red;stroke-width:1px;stroke-linecap:butt;stroke-linejoin:miter;stroke-opacity:1" d="M 169.922,272.299 169.922,307.601 z" id="boundary" inkscape:connector-curvature="0" />
	<path style="fill:none;stroke:red;stroke-width:1px;stroke-linecap:butt;stroke-linejoin:miter;stroke-opacity:1" d="M 169.922,307.601 169.922,342.904 z" id="boundary" inkscape:connector-curvature="0" />
	<path style="fill:none;stroke:red;stroke-width:1px;stroke-linecap:butt;stroke-linejoin:miter;stroke-opacity:1" d="M 169.922,342.904 169.922,378.206 z" id="boundary" inkscape:connector-curvature="0" />
	<path style="fill:none;stroke:red;stroke-width:1px;stroke-linecap:butt;stroke-linejoin:miter;stroke-opacity:1" d="M 169.922,378.206 169.922,413.509 z" id="boundary" inkscape:connector-curvature="0" />
	<path style="fill:none;stroke:red;stroke-width:1px;stroke-linecap:butt;stroke-linejoin:miter;stroke-opacity:1" d="M 169.922,413.509 176.982,448.811 z" id="boundary" inkscape:connector-curvature="0" />
	<path style="fill:none;stroke:red;stroke-width:1px;stroke-linecap:butt;stroke-linejoin:miter;stroke-opacity:1" d="M 176.982,448.811 194.633,480.584 z" id="boundary" inkscape:connector-curvature="0" />
	<path style="fill:none;stroke:red;stroke-width:1px;stroke-linecap:butt;stroke-linejoin:miter;stroke-opacity:1" d="M 194.633,480.584 229.936,494.705 z" id="boundary" inkscape:connector-curvature="0" />
	<path style="fill:none;stroke:red;stroke-width:1px;stroke-linecap:butt;stroke-linejoin:miter;stroke-opacity:1" d="M 229.936,494.705 240.527,530.007 z" id="boundary" inkscape:connector-curvature="0" />
	<path style="fill:none;stroke:red;stroke-width:1px;stroke-linecap:butt;stroke-linejoin:miter;stroke-opacity:1" d="M 240.527,530.007 272.299,547.658 z" id="boundary" inkscape:connector-curvature="0" />
	<path style="fill:none;stroke:red;stroke-width:1px;stroke-linecap:butt;stroke-linejoin:miter;stroke-opacity:1" d="M 272.299,547.658 307.601,547.658 z" id="boundary" inkscape:connector-curvature="0" />
	<path style="fill:none;stroke:red;stroke-width:1px;stroke-linecap:butt;stroke-linejoin:miter;stroke-opacity:1" d="M 46.363,710.05 28.7117,755.943 z" id="boundary" inkscape:connector-curvature="0" />
	<path style="fill:none;stroke:red;stroke-width:1px;stroke-linecap:butt;stroke-linejoin:miter;stroke-opacity:1" d="M 28.7117,755.943 11.0605,787.715 z" id="boundary" inkscape:connector-curvature="0" />
	<path style="fill:none;stroke:red;stroke-width:1px;stroke-linecap:butt;stroke-linejoin:miter;stroke-opacity:1" d="M 11.0605,787.715 4,837.139 z" id="boundary" inkscape:connector-curvature="0" />
	<path style="fill:none;stroke:red;stroke-width:1px;stroke-linecap:butt;stroke-linejoin:miter;stroke-opacity:1" d="M 4,837.139 11.0605,872.441 z" id="boundary" inkscape:connector-curvature="0" />
	<path style="fill:none;stroke:red;stroke-width:1px;stroke-linecap:butt;stroke-linejoin:miter;stroke-opacity:1" d="M 11.0605,872.441 14.5907,907.744 z" id="boundary" inkscape:connector-curvature="0" />
	<path style="fill:none;stroke:red;stroke-width:1px;stroke-linecap:butt;stroke-linejoin:miter;stroke-opacity:1" d="M 14.5907,907.744 32.242,939.516 z" id="boundary" inkscape:connector-curvature="0" />
	<path style="fill:none;stroke:red;stroke-width:1px;stroke-linecap:butt;stroke-linejoin:miter;stroke-opacity:1" d="M 32.242,939.516 60.484,964.228 z" id="boundary" inkscape:connector-curvature="0" />
	<path style="fill:none;stroke:red;stroke-width:1px;stroke-linecap:butt;stroke-linejoin:miter;stroke-opacity:1" d="M 60.484,964.228 88.726,988.94 z" id="boundary" inkscape:connector-curvature="0" />
	<path style="fill:none;stroke:red;stroke-width:1px;stroke-linecap:butt;stroke-linejoin:miter;stroke-opacity:1" d="M 88.726,988.94 124.028,996 z" id="boundary" inkscape:connector-curvature="0" />
	<path style="fill:none;stroke:red;stroke-width:1px;stroke-linecap:butt;stroke-linejoin:miter;stroke-opacity:1" d="M 124.028,996 159.331,996 z" id="boundary" inkscape:connector-curvature="0" />
	<path style="fill:none;stroke:red;stroke-width:1px;stroke-linecap:butt;stroke-linejoin:miter;stroke-opacity:1" d="M 159.331,996 194.633,996 z" id="boundary" inkscape:connector-curvature="0" />
	<path style="fill:none;stroke:red;stroke-width:1px;stroke-linecap:butt;stroke-linejoin:miter;stroke-opacity:1" d="M 194.633,996 229.936,996 z" id="boundary" inkscape:connector-curvature="0" />
	<path style="fill:none;stroke:red;stroke-width:1px;stroke-linecap:butt;stroke-linejoin:miter;stroke-opacity:1" d="M 229.936,996 265.238,988.94 z" id="boundary" inkscape:connector-curvature="0" />
	<path style="fill:none;stroke:red;stroke-width:1px;stroke-linecap:butt;stroke-linejoin:miter;stroke-opacity:1" d="M 265.238,988.94 293.48,967.758 z" id="boundary" inkscape:connector-curvature="0" />
	<path style="fill:none;stroke:red;stroke-width:1px;stroke-linecap:butt;stroke-linejoin:miter;stroke-opacity:1" d="M 293.48,967.758 321.722,939.516 z" id="boundary" inkscape:connector-curvature="0" />
	<path style="fill:none;stroke:red;stroke-width:1px;stroke-linecap:butt;stroke-linejoin:miter;stroke-opacity:1" d="M 321.722,939.516 339.374,900.683 z" id="boundary" inkscape:connector-curvature="0" />
	<path style="fill:none;stroke:red;stroke-width:1px;stroke-linecap:butt;stroke-linejoin:miter;stroke-opacity:1" d="M 339.374,900.683 353.495,854.79 z" id="boundary" inkscape:connector-curvature="0" />
	<path style="fill:none;stroke:red;stroke-width:1px;stroke-linecap:butt;stroke-linejoin:miter;stroke-opacity:1" d="M 353.495,854.79 346.434,819.488 z" id="boundary" inkscape:connector-curvature="0" />
	<path style="fill:none;stroke:red;stroke-width:1px;stroke-linecap:butt;stroke-linejoin:miter;stroke-opacity:1" d="M 346.434,819.488 339.374,784.185 z" id="boundary" inkscape:connector-curvature="0" />
	<path style="fill:none;stroke:red;stroke-width:1px;stroke-linecap:butt;stroke-linejoin:miter;stroke-opacity:1" d="M 339.374,784.185 328.783,748.883 z" id="boundary" inkscape:connector-curvature="0" />
	<path style="fill:none;stroke:red;stroke-width:1px;stroke-linecap:butt;stroke-linejoin:miter;stroke-opacity:1" d="M 328.783,748.883 311.132,717.11 z" id="boundary" inkscape:connector-curvature="0" />
	<path style="fill:none;stroke:red;stroke-width:1px;stroke-linecap:butt;stroke-linejoin:miter;stroke-opacity:1" d="M 311.132,717.11 304.071,681.808 z" id="boundary" inkscape:connector-curvature="0" />
	<path style="fill:none;stroke:red;stroke-width:1px;stroke-linecap:butt;stroke-linejoin:miter;stroke-opacity:1" d="M 304.071,681.808 304.071,646.505 z" id="boundary" inkscape:connector-curvature="0" />
	<path style="fill:none;stroke:red;stroke-width:1px;stroke-linecap:butt;stroke-linejoin:miter;stroke-opacity:1" d="M 307.601,547.658 318.192,597.082 z" id="boundary" inkscape:connector-curvature="0" />
	<path style="fill:none;stroke:red;stroke-width:1px;stroke-linecap:butt;stroke-linejoin:miter;stroke-opacity:1" d="M 318.192,597.082 304.071,646.505 z" id="boundary" inkscape:connector-curvature="0" />
	<path style="fill:none;stroke:red;stroke-width:1px;stroke-linecap:butt;stroke-linejoin:miter;stroke-opacity:1" d="M 159.331,4 138.149,32.242 z" id="boundary" inkscape:connector-curvature="0" />
	<path style="fill:none;stroke:red;stroke-width:1px;stroke-linecap:butt;stroke-linejoin:miter;stroke-opacity:1" d="M 159.331,4 194.633,11.0605 z" id="boundary" inkscape:connector-curvature="0" />
	<path style="fill:none;stroke:red;stroke-width:1px;stroke-linecap:butt;stroke-linejoin:miter;stroke-opacity:1" d="M 194.633,11.0605 191.103,53.4235 z" id="boundary" inkscape:connector-curvature="0" />
	<path style="fill:none;stroke:red;stroke-width:1px;stroke-linecap:butt;stroke-linejoin:miter;stroke-opacity:1" d="M 191.103,53.4235 184.043,88.726 z" id="boundary" inkscape:connector-curvature="0" />
	<path style="fill:none;stroke:red;stroke-width:1px;stroke-linecap:butt;stroke-linejoin:miter;stroke-opacity:1" d="M 184.043,88.726 124.028,95.7865 z" id="boundary" inkscape:connector-curvature="0" />
	<circle cx="4" cy="837.139" r="4" fill="#0" id="circle0"/>
	<circle cx="11.0605" cy="787.715" r="4" fill="#0" id="circle1"/>
	<circle cx="11.0605" cy="872.441" r="4" fill="#0" id="circle2"/>
	<circle cx="14.5907" cy="907.744" r="4" fill="#0" id="circle3"/>
	<circle cx="28.7117" cy="755.943" r="4" fill="#0" id="circle4"/>
	<circle cx="32.242" cy="939.516" r="4" fill="#0" id="circle5"/>
	<circle cx="39.3025" cy="568.84" r="4" fill="#0" id="circle6"/>
	<circle cx="42.8327" cy="604.142" r="4" fill="#0" id="circle7"/>
	<circle cx="46.363" cy="710.05" r="4" fill="#0" id="circle8"/>
	<circle cx="53.4235" cy="533.537" r="4" fill="#0" id="circle9"/>
	<circle cx="53.4235" cy="639.445" r="4" fill="#0" id="circle10"/>
	<circle cx="60.484" cy="674.747" r="4" fill="#0" id="circle11"/>
	<circle cx="60.484" cy="964.228" r="4" fill="#0" id="circle12"/>
	<circle cx="81.6655" cy="512.356" r="4" fill="#0" id="circle13"/>
	<circle cx="88.726" cy="988.94" r="4" fill="#0" id="circle14"/>
	<circle cx="116.968" cy="505.295" r="4" fill="#0" id="circle15"/>
	<circle cx="124.028" cy="95.7865" r="4" fill="#0" id="circle16"/>
	<circle cx="124.028" cy="145.21" r="4" fill="#0" id="circle17"/>
	<circle cx="124.028" cy="180.512" r="4" fill="#0" id="circle18"/>
	<circle cx="124.028" cy="215.815" r="4" fill="#0" id="circle19"/>
	<circle cx="124.028" cy="251.117" r="4" fill="#0" id="circle20"/>
	<circle cx="124.028" cy="286.42" r="4" fill="#0" id="circle21"/>
	<circle cx="124.028" cy="321.722" r="4" fill="#0" id="circle22"/>
	<circle cx="124.028" cy="357.025" r="4" fill="#0" id="circle23"/>
	<circle cx="124.028" cy="392.327" r="4" fill="#0" id="circle24"/>
	<circle cx="124.028" cy="427.63" r="4" fill="#0" id="circle25"/>
	<circle cx="124.028" cy="462.932" r="4" fill="#0" id="circle26"/>
	<circle cx="124.028" cy="996" r="4" fill="#0" id="circle27"/>
	<circle cx="138.149" cy="32.242" r="4" fill="#0" id="circle28"/>
	<circle cx="159.331" cy="4" r="4" fill="#0" id="circle29"/>
	<circle cx="159.331" cy="996" r="4" fill="#0" id="circle30"/>
	<circle cx="169.922" cy="131.089" r="4" fill="#0" id="circle31"/>
	<circle cx="169.922" cy="166.391" r="4" fill="#0" id="circle32"/>
	<circle cx="169.922" cy="201.694" r="4" fill="#0" id="circle33"/>
	<circle cx="169.922" cy="236.996" r="4" fill="#0" id="circle34"/>
	<circle cx="169.922" cy="272.299" r="4" fill="#0" id="circle35"/>
	<circle cx="169.922" cy="307.601" r="4" fill="#0" id="circle36"/>
	<circle cx="169.922" cy="342.904" r="4" fill="#0" id="circle37"/>
	<circle cx="169.922" cy="378.206" r="4" fill="#0" id="circle38"/>
	<circle cx="169.922" cy="413.509" r="4" fill="#0" id="circle39"/>
	<circle cx="176.982" cy="448.811" r="4" fill="#0" id="circle40"/>
	<circle cx="184.043" cy="88.726" r="4" fill="#0" id="circle41"/>
	<circle cx="191.103" cy="53.4235" r="4" fill="#0" id="circle42"/>
	<circle cx="194.633" cy="11.0605" r="4" fill="#0" id="circle43"/>
	<circle cx="194.633" cy="480.584" r="4" fill="#0" id="circle44"/>
	<circle cx="194.633" cy="996" r="4" fill="#0" id="circle45"/>
	<circle cx="229.936" cy="494.705" r="4" fill="#0" id="circle46"/>
	<circle cx="229.936" cy="996" r="4" fill="#0" id="circle47"/>
	<circle cx="240.527" cy="530.007" r="4" fill="#0" id="circle48"/>
	<circle cx="265.238" cy="988.94" r="4" fill="#0" id="circle49"/>
	<circle cx="272.299" cy="547.658" r="4" fill="#0" id="circle50"/>
	<circle cx="293.48" cy="967.758" r="4" fill="#0" id="circle51"/>
	<circle cx="304.071" cy="646.505" r="4" fill="#0" id="circle52"/>
	<circle cx="304.071" cy="681.808" r="4" fill="#0" id="circle53"/>
	<circle cx="307.601" cy="547.658" r="4" fill="#0" id="circle54"/>
	<circle cx="311.132" cy="717.11" r="4" fill="#0" id="circle55"/>
	<circle cx="318.192" cy="597.082" r="4" fill="#0" id="circle56"/>
	<circle cx="321.722" cy="939.516" r="4" fill="#0" id="circle57"/>
	<circle cx="328.783" cy="748.883" r="4" fill="#0" id="circle58"/>
	<circle cx="339.374" cy="784.185" r="4" fill="#0" id="circle59"/>
	<circle cx="339.374" cy="900.683" r="4" fill="#0" id="circle60"/>
	<circle cx="346.434" cy="819.488" r="4" fill="#0" id="circle61"/>
	<circle cx="353.495" cy="854.79" r="4" fill="#0" id="circle62"/>
	</g>
</svg>