<?xml version="1.0" encoding="UTF-8" standalone="no"?>
<!-- Created with CurveBenchmark -->
<svg
	xmlns:dc="http://purl.org/dc/elements/1.1/"
	xmlns:cc="http://creativecommons.org/ns#"
	xmlns:rdf="http://www.w3.org/1999/02/22-rdf-syntax-ns#"
	xmlns:svg="http://www.w3.org/2000/svg"
	xmlns="http://www.w3.org/2000/svg"
	xmlns:sodipodi="http://sodipodi.sourceforge.net/DTD/sodipodi-0.dtd"
	xmlns:inkscape="http://www.inkscape.org/namespaces/inkscape"
	width="1000"
	height="1000"
	id="svg2"
	version="1.1"
	sodipodi:docname="manifold/crawl-fountain-12.png.txt">
<defs
	id="defs4" />
<metadata
	id="metadata7">
	<rdf:RDF>
		<cc:Work
			rdf:about="">
			<dc:format>image/svg+xml</dc:format>
			<dc:type
				rdf:resource="http://purl.org/dc/dcmitype/StillImage" />
			<dc:title></dc:title>
		</cc:Work>
	</rdf:RDF>
</metadata>
<g
	inkscape:label="Layer 1"
	inkscape:groupmode="layer"
	id="layer1">
	<path style="fill:none;stroke:red;stroke-width:1px;stroke-linecap:butt;stroke-linejoin:miter;stroke-opacity:1" d="M 4,571.137 4,580.95 z" id="boundary" inkscape:connector-curvature="0" />
	<path style="fill:none;stroke:red;stroke-width:1px;stroke-linecap:butt;stroke-linejoin:miter;stroke-opacity:1" d="M 4,580.95 4,590.762 z" id="boundary" inkscape:connector-curvature="0" />
	<path style="fill:none;stroke:red;stroke-width:1px;stroke-linecap:butt;stroke-linejoin:miter;stroke-opacity:1" d="M 4,590.762 8.90603,599.592 z" id="boundary" inkscape:connector-curvature="0" />
	<path style="fill:none;stroke:red;stroke-width:1px;stroke-linecap:butt;stroke-linejoin:miter;stroke-opacity:1" d="M 8.90603,599.592 13.8121,608.423 z" id="boundary" inkscape:connector-curvature="0" />
	<path style="fill:none;stroke:red;stroke-width:1px;stroke-linecap:butt;stroke-linejoin:miter;stroke-opacity:1" d="M 13.8121,608.423 16.7557,618.235 z" id="boundary" inkscape:connector-curvature="0" />
	<path style="fill:none;stroke:red;stroke-width:1px;stroke-linecap:butt;stroke-linejoin:miter;stroke-opacity:1" d="M 16.7557,618.235 24.6053,625.104 z" id="boundary" inkscape:connector-curvature="0" />
	<path style="fill:none;stroke:red;stroke-width:1px;stroke-linecap:butt;stroke-linejoin:miter;stroke-opacity:1" d="M 24.6053,625.104 31.4738,632.954 z" id="boundary" inkscape:connector-curvature="0" />
	<path style="fill:none;stroke:red;stroke-width:1px;stroke-linecap:butt;stroke-linejoin:miter;stroke-opacity:1" d="M 31.4738,632.954 40.3046,637.86 z" id="boundary" inkscape:connector-curvature="0" />
	<path style="fill:none;stroke:red;stroke-width:1px;stroke-linecap:butt;stroke-linejoin:miter;stroke-opacity:1" d="M 40.3046,637.86 48.1543,643.747 z" id="boundary" inkscape:connector-curvature="0" />
	<path style="fill:none;stroke:red;stroke-width:1px;stroke-linecap:butt;stroke-linejoin:miter;stroke-opacity:1" d="M 48.1543,643.747 57.9664,647.672 z" id="boundary" inkscape:connector-curvature="0" />
	<path style="fill:none;stroke:red;stroke-width:1px;stroke-linecap:butt;stroke-linejoin:miter;stroke-opacity:1" d="M 57.9664,647.672 66.7972,652.578 z" id="boundary" inkscape:connector-curvature="0" />
	<path style="fill:none;stroke:red;stroke-width:1px;stroke-linecap:butt;stroke-linejoin:miter;stroke-opacity:1" d="M 66.7972,652.578 76.6093,652.578 z" id="boundary" inkscape:connector-curvature="0" />
	<path style="fill:none;stroke:red;stroke-width:1px;stroke-linecap:butt;stroke-linejoin:miter;stroke-opacity:1" d="M 76.6093,652.578 86.4214,652.578 z" id="boundary" inkscape:connector-curvature="0" />
	<path style="fill:none;stroke:red;stroke-width:1px;stroke-linecap:butt;stroke-linejoin:miter;stroke-opacity:1" d="M 86.4214,652.578 96.2334,652.578 z" id="boundary" inkscape:connector-curvature="0" />
	<path style="fill:none;stroke:red;stroke-width:1px;stroke-linecap:butt;stroke-linejoin:miter;stroke-opacity:1" d="M 96.2334,652.578 106.045,652.578 z" id="boundary" inkscape:connector-curvature="0" />
	<path style="fill:none;stroke:red;stroke-width:1px;stroke-linecap:butt;stroke-linejoin:miter;stroke-opacity:1" d="M 106.045,652.578 114.876,657.484 z" id="boundary" inkscape:connector-curvature="0" />
	<path style="fill:none;stroke:red;stroke-width:1px;stroke-linecap:butt;stroke-linejoin:miter;stroke-opacity:1" d="M 114.876,657.484 124.688,657.484 z" id="boundary" inkscape:connector-curvature="0" />
	<path style="fill:none;stroke:red;stroke-width:1px;stroke-linecap:butt;stroke-linejoin:miter;stroke-opacity:1" d="M 124.688,657.484 134.5,657.484 z" id="boundary" inkscape:connector-curvature="0" />
	<path style="fill:none;stroke:red;stroke-width:1px;stroke-linecap:butt;stroke-linejoin:miter;stroke-opacity:1" d="M 134.5,657.484 144.313,657.484 z" id="boundary" inkscape:connector-curvature="0" />
	<path style="fill:none;stroke:red;stroke-width:1px;stroke-linecap:butt;stroke-linejoin:miter;stroke-opacity:1" d="M 144.313,657.484 154.125,661.409 z" id="boundary" inkscape:connector-curvature="0" />
	<path style="fill:none;stroke:red;stroke-width:1px;stroke-linecap:butt;stroke-linejoin:miter;stroke-opacity:1" d="M 154.125,661.409 163.937,662.39 z" id="boundary" inkscape:connector-curvature="0" />
	<path style="fill:none;stroke:red;stroke-width:1px;stroke-linecap:butt;stroke-linejoin:miter;stroke-opacity:1" d="M 163.937,662.39 173.749,662.39 z" id="boundary" inkscape:connector-curvature="0" />
	<path style="fill:none;stroke:red;stroke-width:1px;stroke-linecap:butt;stroke-linejoin:miter;stroke-opacity:1" d="M 173.749,662.39 183.561,662.39 z" id="boundary" inkscape:connector-curvature="0" />
	<path style="fill:none;stroke:red;stroke-width:1px;stroke-linecap:butt;stroke-linejoin:miter;stroke-opacity:1" d="M 183.561,662.39 193.373,662.39 z" id="boundary" inkscape:connector-curvature="0" />
	<path style="fill:none;stroke:red;stroke-width:1px;stroke-linecap:butt;stroke-linejoin:miter;stroke-opacity:1" d="M 193.373,662.39 201.223,669.258 z" id="boundary" inkscape:connector-curvature="0" />
	<path style="fill:none;stroke:red;stroke-width:1px;stroke-linecap:butt;stroke-linejoin:miter;stroke-opacity:1" d="M 201.223,669.258 208.091,677.108 z" id="boundary" inkscape:connector-curvature="0" />
	<path style="fill:none;stroke:red;stroke-width:1px;stroke-linecap:butt;stroke-linejoin:miter;stroke-opacity:1" d="M 208.091,677.108 217.903,681.033 z" id="boundary" inkscape:connector-curvature="0" />
	<path style="fill:none;stroke:red;stroke-width:1px;stroke-linecap:butt;stroke-linejoin:miter;stroke-opacity:1" d="M 217.903,681.033 224.772,688.882 z" id="boundary" inkscape:connector-curvature="0" />
	<path style="fill:none;stroke:red;stroke-width:1px;stroke-linecap:butt;stroke-linejoin:miter;stroke-opacity:1" d="M 224.772,688.882 234.584,691.826 z" id="boundary" inkscape:connector-curvature="0" />
	<path style="fill:none;stroke:red;stroke-width:1px;stroke-linecap:butt;stroke-linejoin:miter;stroke-opacity:1" d="M 234.584,691.826 243.414,696.732 z" id="boundary" inkscape:connector-curvature="0" />
	<path style="fill:none;stroke:red;stroke-width:1px;stroke-linecap:butt;stroke-linejoin:miter;stroke-opacity:1" d="M 243.414,696.732 252.245,701.638 z" id="boundary" inkscape:connector-curvature="0" />
	<path style="fill:none;stroke:red;stroke-width:1px;stroke-linecap:butt;stroke-linejoin:miter;stroke-opacity:1" d="M 252.245,701.638 262.057,705.563 z" id="boundary" inkscape:connector-curvature="0" />
	<path style="fill:none;stroke:red;stroke-width:1px;stroke-linecap:butt;stroke-linejoin:miter;stroke-opacity:1" d="M 262.057,705.563 271.869,706.544 z" id="boundary" inkscape:connector-curvature="0" />
	<path style="fill:none;stroke:red;stroke-width:1px;stroke-linecap:butt;stroke-linejoin:miter;stroke-opacity:1" d="M 271.869,706.544 280.7,711.45 z" id="boundary" inkscape:connector-curvature="0" />
	<path style="fill:none;stroke:red;stroke-width:1px;stroke-linecap:butt;stroke-linejoin:miter;stroke-opacity:1" d="M 280.7,711.45 290.512,711.45 z" id="boundary" inkscape:connector-curvature="0" />
	<path style="fill:none;stroke:red;stroke-width:1px;stroke-linecap:butt;stroke-linejoin:miter;stroke-opacity:1" d="M 290.512,711.45 300.324,711.45 z" id="boundary" inkscape:connector-curvature="0" />
	<path style="fill:none;stroke:red;stroke-width:1px;stroke-linecap:butt;stroke-linejoin:miter;stroke-opacity:1" d="M 300.324,711.45 309.155,716.356 z" id="boundary" inkscape:connector-curvature="0" />
	<path style="fill:none;stroke:red;stroke-width:1px;stroke-linecap:butt;stroke-linejoin:miter;stroke-opacity:1" d="M 309.155,716.356 317.986,721.262 z" id="boundary" inkscape:connector-curvature="0" />
	<path style="fill:none;stroke:red;stroke-width:1px;stroke-linecap:butt;stroke-linejoin:miter;stroke-opacity:1" d="M 317.986,721.262 327.798,721.262 z" id="boundary" inkscape:connector-curvature="0" />
	<path style="fill:none;stroke:red;stroke-width:1px;stroke-linecap:butt;stroke-linejoin:miter;stroke-opacity:1" d="M 327.798,721.262 336.629,726.168 z" id="boundary" inkscape:connector-curvature="0" />
	<path style="fill:none;stroke:red;stroke-width:1px;stroke-linecap:butt;stroke-linejoin:miter;stroke-opacity:1" d="M 336.629,726.168 346.441,726.168 z" id="boundary" inkscape:connector-curvature="0" />
	<path style="fill:none;stroke:red;stroke-width:1px;stroke-linecap:butt;stroke-linejoin:miter;stroke-opacity:1" d="M 346.441,726.168 355.272,731.074 z" id="boundary" inkscape:connector-curvature="0" />
	<path style="fill:none;stroke:red;stroke-width:1px;stroke-linecap:butt;stroke-linejoin:miter;stroke-opacity:1" d="M 355.272,731.074 365.084,731.074 z" id="boundary" inkscape:connector-curvature="0" />
	<path style="fill:none;stroke:red;stroke-width:1px;stroke-linecap:butt;stroke-linejoin:miter;stroke-opacity:1" d="M 365.084,731.074 374.896,734.999 z" id="boundary" inkscape:connector-curvature="0" />
	<path style="fill:none;stroke:red;stroke-width:1px;stroke-linecap:butt;stroke-linejoin:miter;stroke-opacity:1" d="M 374.896,734.999 384.708,735.98 z" id="boundary" inkscape:connector-curvature="0" />
	<path style="fill:none;stroke:red;stroke-width:1px;stroke-linecap:butt;stroke-linejoin:miter;stroke-opacity:1" d="M 384.708,735.98 393.539,740.886 z" id="boundary" inkscape:connector-curvature="0" />
	<path style="fill:none;stroke:red;stroke-width:1px;stroke-linecap:butt;stroke-linejoin:miter;stroke-opacity:1" d="M 393.539,740.886 403.351,740.886 z" id="boundary" inkscape:connector-curvature="0" />
	<path style="fill:none;stroke:red;stroke-width:1px;stroke-linecap:butt;stroke-linejoin:miter;stroke-opacity:1" d="M 403.351,740.886 413.163,740.886 z" id="boundary" inkscape:connector-curvature="0" />
	<path style="fill:none;stroke:red;stroke-width:1px;stroke-linecap:butt;stroke-linejoin:miter;stroke-opacity:1" d="M 413.163,740.886 422.975,740.886 z" id="boundary" inkscape:connector-curvature="0" />
	<path style="fill:none;stroke:red;stroke-width:1px;stroke-linecap:butt;stroke-linejoin:miter;stroke-opacity:1" d="M 422.975,740.886 432.787,740.886 z" id="boundary" inkscape:connector-curvature="0" />
	<path style="fill:none;stroke:red;stroke-width:1px;stroke-linecap:butt;stroke-linejoin:miter;stroke-opacity:1" d="M 432.787,740.886 442.599,740.886 z" id="boundary" inkscape:connector-curvature="0" />
	<path style="fill:none;stroke:red;stroke-width:1px;stroke-linecap:butt;stroke-linejoin:miter;stroke-opacity:1" d="M 442.599,740.886 452.411,740.886 z" id="boundary" inkscape:connector-curvature="0" />
	<path style="fill:none;stroke:red;stroke-width:1px;stroke-linecap:butt;stroke-linejoin:miter;stroke-opacity:1" d="M 452.411,740.886 462.224,740.886 z" id="boundary" inkscape:connector-curvature="0" />
	<path style="fill:none;stroke:red;stroke-width:1px;stroke-linecap:butt;stroke-linejoin:miter;stroke-opacity:1" d="M 462.224,740.886 472.036,740.886 z" id="boundary" inkscape:connector-curvature="0" />
	<path style="fill:none;stroke:red;stroke-width:1px;stroke-linecap:butt;stroke-linejoin:miter;stroke-opacity:1" d="M 472.036,740.886 481.848,740.886 z" id="boundary" inkscape:connector-curvature="0" />
	<path style="fill:none;stroke:red;stroke-width:1px;stroke-linecap:butt;stroke-linejoin:miter;stroke-opacity:1" d="M 481.848,740.886 491.66,740.886 z" id="boundary" inkscape:connector-curvature="0" />
	<path style="fill:none;stroke:red;stroke-width:1px;stroke-linecap:butt;stroke-linejoin:miter;stroke-opacity:1" d="M 491.66,740.886 501.472,740.886 z" id="boundary" inkscape:connector-curvature="0" />
	<path style="fill:none;stroke:red;stroke-width:1px;stroke-linecap:butt;stroke-linejoin:miter;stroke-opacity:1" d="M 501.472,740.886 511.284,740.886 z" id="boundary" inkscape:connector-curvature="0" />
	<path style="fill:none;stroke:red;stroke-width:1px;stroke-linecap:butt;stroke-linejoin:miter;stroke-opacity:1" d="M 511.284,740.886 521.096,740.886 z" id="boundary" inkscape:connector-curvature="0" />
	<path style="fill:none;stroke:red;stroke-width:1px;stroke-linecap:butt;stroke-linejoin:miter;stroke-opacity:1" d="M 521.096,740.886 530.908,740.886 z" id="boundary" inkscape:connector-curvature="0" />
	<path style="fill:none;stroke:red;stroke-width:1px;stroke-linecap:butt;stroke-linejoin:miter;stroke-opacity:1" d="M 530.908,740.886 540.72,740.886 z" id="boundary" inkscape:connector-curvature="0" />
	<path style="fill:none;stroke:red;stroke-width:1px;stroke-linecap:butt;stroke-linejoin:miter;stroke-opacity:1" d="M 540.72,740.886 550.532,740.886 z" id="boundary" inkscape:connector-curvature="0" />
	<path style="fill:none;stroke:red;stroke-width:1px;stroke-linecap:butt;stroke-linejoin:miter;stroke-opacity:1" d="M 550.532,740.886 560.344,740.886 z" id="boundary" inkscape:connector-curvature="0" />
	<path style="fill:none;stroke:red;stroke-width:1px;stroke-linecap:butt;stroke-linejoin:miter;stroke-opacity:1" d="M 560.344,740.886 570.156,743.83 z" id="boundary" inkscape:connector-curvature="0" />
	<path style="fill:none;stroke:red;stroke-width:1px;stroke-linecap:butt;stroke-linejoin:miter;stroke-opacity:1" d="M 570.156,743.83 579.968,745.792 z" id="boundary" inkscape:connector-curvature="0" />
	<path style="fill:none;stroke:red;stroke-width:1px;stroke-linecap:butt;stroke-linejoin:miter;stroke-opacity:1" d="M 579.968,745.792 589.78,745.792 z" id="boundary" inkscape:connector-curvature="0" />
	<path style="fill:none;stroke:red;stroke-width:1px;stroke-linecap:butt;stroke-linejoin:miter;stroke-opacity:1" d="M 589.78,745.792 599.592,745.792 z" id="boundary" inkscape:connector-curvature="0" />
	<path style="fill:none;stroke:red;stroke-width:1px;stroke-linecap:butt;stroke-linejoin:miter;stroke-opacity:1" d="M 599.592,745.792 609.405,745.792 z" id="boundary" inkscape:connector-curvature="0" />
	<path style="fill:none;stroke:red;stroke-width:1px;stroke-linecap:butt;stroke-linejoin:miter;stroke-opacity:1" d="M 609.405,745.792 619.217,745.792 z" id="boundary" inkscape:connector-curvature="0" />
	<path style="fill:none;stroke:red;stroke-width:1px;stroke-linecap:butt;stroke-linejoin:miter;stroke-opacity:1" d="M 619.217,745.792 629.029,745.792 z" id="boundary" inkscape:connector-curvature="0" />
	<path style="fill:none;stroke:red;stroke-width:1px;stroke-linecap:butt;stroke-linejoin:miter;stroke-opacity:1" d="M 629.029,745.792 638.841,745.792 z" id="boundary" inkscape:connector-curvature="0" />
	<path style="fill:none;stroke:red;stroke-width:1px;stroke-linecap:butt;stroke-linejoin:miter;stroke-opacity:1" d="M 638.841,745.792 648.653,745.792 z" id="boundary" inkscape:connector-curvature="0" />
	<path style="fill:none;stroke:red;stroke-width:1px;stroke-linecap:butt;stroke-linejoin:miter;stroke-opacity:1" d="M 648.653,745.792 658.465,745.792 z" id="boundary" inkscape:connector-curvature="0" />
	<path style="fill:none;stroke:red;stroke-width:1px;stroke-linecap:butt;stroke-linejoin:miter;stroke-opacity:1" d="M 658.465,745.792 668.277,745.792 z" id="boundary" inkscape:connector-curvature="0" />
	<path style="fill:none;stroke:red;stroke-width:1px;stroke-linecap:butt;stroke-linejoin:miter;stroke-opacity:1" d="M 668.277,745.792 678.089,745.792 z" id="boundary" inkscape:connector-curvature="0" />
	<path style="fill:none;stroke:red;stroke-width:1px;stroke-linecap:butt;stroke-linejoin:miter;stroke-opacity:1" d="M 678.089,745.792 687.901,745.792 z" id="boundary" inkscape:connector-curvature="0" />
	<path style="fill:none;stroke:red;stroke-width:1px;stroke-linecap:butt;stroke-linejoin:miter;stroke-opacity:1" d="M 687.901,745.792 697.713,745.792 z" id="boundary" inkscape:connector-curvature="0" />
	<path style="fill:none;stroke:red;stroke-width:1px;stroke-linecap:butt;stroke-linejoin:miter;stroke-opacity:1" d="M 697.713,745.792 706.544,740.886 z" id="boundary" inkscape:connector-curvature="0" />
	<path style="fill:none;stroke:red;stroke-width:1px;stroke-linecap:butt;stroke-linejoin:miter;stroke-opacity:1" d="M 706.544,740.886 716.356,740.886 z" id="boundary" inkscape:connector-curvature="0" />
	<path style="fill:none;stroke:red;stroke-width:1px;stroke-linecap:butt;stroke-linejoin:miter;stroke-opacity:1" d="M 716.356,740.886 725.187,735.98 z" id="boundary" inkscape:connector-curvature="0" />
	<path style="fill:none;stroke:red;stroke-width:1px;stroke-linecap:butt;stroke-linejoin:miter;stroke-opacity:1" d="M 725.187,735.98 734.999,733.037 z" id="boundary" inkscape:connector-curvature="0" />
	<path style="fill:none;stroke:red;stroke-width:1px;stroke-linecap:butt;stroke-linejoin:miter;stroke-opacity:1" d="M 734.999,733.037 744.811,728.131 z" id="boundary" inkscape:connector-curvature="0" />
	<path style="fill:none;stroke:red;stroke-width:1px;stroke-linecap:butt;stroke-linejoin:miter;stroke-opacity:1" d="M 744.811,728.131 754.623,723.225 z" id="boundary" inkscape:connector-curvature="0" />
	<path style="fill:none;stroke:red;stroke-width:1px;stroke-linecap:butt;stroke-linejoin:miter;stroke-opacity:1" d="M 754.623,723.225 764.435,721.262 z" id="boundary" inkscape:connector-curvature="0" />
	<path style="fill:none;stroke:red;stroke-width:1px;stroke-linecap:butt;stroke-linejoin:miter;stroke-opacity:1" d="M 764.435,721.262 774.247,718.318 z" id="boundary" inkscape:connector-curvature="0" />
	<path style="fill:none;stroke:red;stroke-width:1px;stroke-linecap:butt;stroke-linejoin:miter;stroke-opacity:1" d="M 774.247,718.318 784.059,713.412 z" id="boundary" inkscape:connector-curvature="0" />
	<path style="fill:none;stroke:red;stroke-width:1px;stroke-linecap:butt;stroke-linejoin:miter;stroke-opacity:1" d="M 784.059,713.412 793.871,711.45 z" id="boundary" inkscape:connector-curvature="0" />
	<path style="fill:none;stroke:red;stroke-width:1px;stroke-linecap:butt;stroke-linejoin:miter;stroke-opacity:1" d="M 793.871,711.45 802.702,706.544 z" id="boundary" inkscape:connector-curvature="0" />
	<path style="fill:none;stroke:red;stroke-width:1px;stroke-linecap:butt;stroke-linejoin:miter;stroke-opacity:1" d="M 802.702,706.544 812.514,706.544 z" id="boundary" inkscape:connector-curvature="0" />
	<path style="fill:none;stroke:red;stroke-width:1px;stroke-linecap:butt;stroke-linejoin:miter;stroke-opacity:1" d="M 812.514,706.544 822.326,704.582 z" id="boundary" inkscape:connector-curvature="0" />
	<path style="fill:none;stroke:red;stroke-width:1px;stroke-linecap:butt;stroke-linejoin:miter;stroke-opacity:1" d="M 822.326,704.582 832.138,701.638 z" id="boundary" inkscape:connector-curvature="0" />
	<path style="fill:none;stroke:red;stroke-width:1px;stroke-linecap:butt;stroke-linejoin:miter;stroke-opacity:1" d="M 832.138,701.638 840.969,696.732 z" id="boundary" inkscape:connector-curvature="0" />
	<path style="fill:none;stroke:red;stroke-width:1px;stroke-linecap:butt;stroke-linejoin:miter;stroke-opacity:1" d="M 840.969,696.732 849.8,691.826 z" id="boundary" inkscape:connector-curvature="0" />
	<path style="fill:none;stroke:red;stroke-width:1px;stroke-linecap:butt;stroke-linejoin:miter;stroke-opacity:1" d="M 4,571.137 8.90603,561.325 z" id="boundary" inkscape:connector-curvature="0" />
	<path style="fill:none;stroke:red;stroke-width:1px;stroke-linecap:butt;stroke-linejoin:miter;stroke-opacity:1" d="M 8.90603,561.325 13.8121,551.513 z" id="boundary" inkscape:connector-curvature="0" />
	<path style="fill:none;stroke:red;stroke-width:1px;stroke-linecap:butt;stroke-linejoin:miter;stroke-opacity:1" d="M 13.8121,551.513 18.7181,541.701 z" id="boundary" inkscape:connector-curvature="0" />
	<path style="fill:none;stroke:red;stroke-width:1px;stroke-linecap:butt;stroke-linejoin:miter;stroke-opacity:1" d="M 849.8,691.826 857.65,683.976 z" id="boundary" inkscape:connector-curvature="0" />
	<path style="fill:none;stroke:red;stroke-width:1px;stroke-linecap:butt;stroke-linejoin:miter;stroke-opacity:1" d="M 857.65,683.976 865.5,677.108 z" id="boundary" inkscape:connector-curvature="0" />
	<path style="fill:none;stroke:red;stroke-width:1px;stroke-linecap:butt;stroke-linejoin:miter;stroke-opacity:1" d="M 865.5,677.108 874.33,672.202 z" id="boundary" inkscape:connector-curvature="0" />
	<path style="fill:none;stroke:red;stroke-width:1px;stroke-linecap:butt;stroke-linejoin:miter;stroke-opacity:1" d="M 874.33,672.202 883.161,667.296 z" id="boundary" inkscape:connector-curvature="0" />
	<path style="fill:none;stroke:red;stroke-width:1px;stroke-linecap:butt;stroke-linejoin:miter;stroke-opacity:1" d="M 883.161,667.296 892.973,662.39 z" id="boundary" inkscape:connector-curvature="0" />
	<path style="fill:none;stroke:red;stroke-width:1px;stroke-linecap:butt;stroke-linejoin:miter;stroke-opacity:1" d="M 892.973,662.39 902.785,657.484 z" id="boundary" inkscape:connector-curvature="0" />
	<path style="fill:none;stroke:red;stroke-width:1px;stroke-linecap:butt;stroke-linejoin:miter;stroke-opacity:1" d="M 902.785,657.484 912.597,652.578 z" id="boundary" inkscape:connector-curvature="0" />
	<path style="fill:none;stroke:red;stroke-width:1px;stroke-linecap:butt;stroke-linejoin:miter;stroke-opacity:1" d="M 912.597,652.578 922.409,647.672 z" id="boundary" inkscape:connector-curvature="0" />
	<path style="fill:none;stroke:red;stroke-width:1px;stroke-linecap:butt;stroke-linejoin:miter;stroke-opacity:1" d="M 922.409,647.672 932.222,642.766 z" id="boundary" inkscape:connector-curvature="0" />
	<path style="fill:none;stroke:red;stroke-width:1px;stroke-linecap:butt;stroke-linejoin:miter;stroke-opacity:1" d="M 932.222,642.766 942.034,637.86 z" id="boundary" inkscape:connector-curvature="0" />
	<path style="fill:none;stroke:red;stroke-width:1px;stroke-linecap:butt;stroke-linejoin:miter;stroke-opacity:1" d="M 942.034,637.86 951.846,637.86 z" id="boundary" inkscape:connector-curvature="0" />
	<path style="fill:none;stroke:red;stroke-width:1px;stroke-linecap:butt;stroke-linejoin:miter;stroke-opacity:1" d="M 951.846,637.86 960.677,632.954 z" id="boundary" inkscape:connector-curvature="0" />
	<path style="fill:none;stroke:red;stroke-width:1px;stroke-linecap:butt;stroke-linejoin:miter;stroke-opacity:1" d="M 960.677,632.954 969.507,628.047 z" id="boundary" inkscape:connector-curvature="0" />
	<path style="fill:none;stroke:red;stroke-width:1px;stroke-linecap:butt;stroke-linejoin:miter;stroke-opacity:1" d="M 969.507,628.047 978.338,622.16 z" id="boundary" inkscape:connector-curvature="0" />
	<path style="fill:none;stroke:red;stroke-width:1px;stroke-linecap:butt;stroke-linejoin:miter;stroke-opacity:1" d="M 18.7181,541.701 26.5678,533.852 z" id="boundary" inkscape:connector-curvature="0" />
	<path style="fill:none;stroke:red;stroke-width:1px;stroke-linecap:butt;stroke-linejoin:miter;stroke-opacity:1" d="M 26.5678,533.852 33.4362,522.077 z" id="boundary" inkscape:connector-curvature="0" />
	<path style="fill:none;stroke:red;stroke-width:1px;stroke-linecap:butt;stroke-linejoin:miter;stroke-opacity:1" d="M 33.4362,522.077 41.2859,514.227 z" id="boundary" inkscape:connector-curvature="0" />
	<path style="fill:none;stroke:red;stroke-width:1px;stroke-linecap:butt;stroke-linejoin:miter;stroke-opacity:1" d="M 41.2859,514.227 51.0979,509.321 z" id="boundary" inkscape:connector-curvature="0" />
	<path style="fill:none;stroke:red;stroke-width:1px;stroke-linecap:butt;stroke-linejoin:miter;stroke-opacity:1" d="M 51.0979,509.321 60.91,504.415 z" id="boundary" inkscape:connector-curvature="0" />
	<path style="fill:none;stroke:red;stroke-width:1px;stroke-linecap:butt;stroke-linejoin:miter;stroke-opacity:1" d="M 60.91,504.415 70.7221,504.415 z" id="boundary" inkscape:connector-curvature="0" />
	<path style="fill:none;stroke:red;stroke-width:1px;stroke-linecap:butt;stroke-linejoin:miter;stroke-opacity:1" d="M 70.7221,504.415 78.5717,496.566 z" id="boundary" inkscape:connector-curvature="0" />
	<path style="fill:none;stroke:red;stroke-width:1px;stroke-linecap:butt;stroke-linejoin:miter;stroke-opacity:1" d="M 78.5717,496.566 86.4214,489.697 z" id="boundary" inkscape:connector-curvature="0" />
	<path style="fill:none;stroke:red;stroke-width:1px;stroke-linecap:butt;stroke-linejoin:miter;stroke-opacity:1" d="M 86.4214,489.697 93.2898,481.848 z" id="boundary" inkscape:connector-curvature="0" />
	<path style="fill:none;stroke:red;stroke-width:1px;stroke-linecap:butt;stroke-linejoin:miter;stroke-opacity:1" d="M 93.2898,481.848 103.102,476.942 z" id="boundary" inkscape:connector-curvature="0" />
	<path style="fill:none;stroke:red;stroke-width:1px;stroke-linecap:butt;stroke-linejoin:miter;stroke-opacity:1" d="M 103.102,476.942 112.914,472.036 z" id="boundary" inkscape:connector-curvature="0" />
	<path style="fill:none;stroke:red;stroke-width:1px;stroke-linecap:butt;stroke-linejoin:miter;stroke-opacity:1" d="M 112.914,472.036 122.726,467.13 z" id="boundary" inkscape:connector-curvature="0" />
	<path style="fill:none;stroke:red;stroke-width:1px;stroke-linecap:butt;stroke-linejoin:miter;stroke-opacity:1" d="M 122.726,467.13 132.538,465.167 z" id="boundary" inkscape:connector-curvature="0" />
	<path style="fill:none;stroke:red;stroke-width:1px;stroke-linecap:butt;stroke-linejoin:miter;stroke-opacity:1" d="M 132.538,465.167 142.35,462.224 z" id="boundary" inkscape:connector-curvature="0" />
	<path style="fill:none;stroke:red;stroke-width:1px;stroke-linecap:butt;stroke-linejoin:miter;stroke-opacity:1" d="M 142.35,462.224 152.162,460.261 z" id="boundary" inkscape:connector-curvature="0" />
	<path style="fill:none;stroke:red;stroke-width:1px;stroke-linecap:butt;stroke-linejoin:miter;stroke-opacity:1" d="M 152.162,460.261 161.974,457.318 z" id="boundary" inkscape:connector-curvature="0" />
	<path style="fill:none;stroke:red;stroke-width:1px;stroke-linecap:butt;stroke-linejoin:miter;stroke-opacity:1" d="M 161.974,457.318 171.786,455.355 z" id="boundary" inkscape:connector-curvature="0" />
	<path style="fill:none;stroke:red;stroke-width:1px;stroke-linecap:butt;stroke-linejoin:miter;stroke-opacity:1" d="M 171.786,455.355 180.617,443.581 z" id="boundary" inkscape:connector-curvature="0" />
	<path style="fill:none;stroke:red;stroke-width:1px;stroke-linecap:butt;stroke-linejoin:miter;stroke-opacity:1" d="M 180.617,443.581 185.523,433.769 z" id="boundary" inkscape:connector-curvature="0" />
	<path style="fill:none;stroke:red;stroke-width:1px;stroke-linecap:butt;stroke-linejoin:miter;stroke-opacity:1" d="M 185.523,433.769 185.523,423.956 z" id="boundary" inkscape:connector-curvature="0" />
	<path style="fill:none;stroke:red;stroke-width:1px;stroke-linecap:butt;stroke-linejoin:miter;stroke-opacity:1" d="M 185.523,423.956 190.429,414.144 z" id="boundary" inkscape:connector-curvature="0" />
	<path style="fill:none;stroke:red;stroke-width:1px;stroke-linecap:butt;stroke-linejoin:miter;stroke-opacity:1" d="M 190.429,414.144 198.279,406.295 z" id="boundary" inkscape:connector-curvature="0" />
	<path style="fill:none;stroke:red;stroke-width:1px;stroke-linecap:butt;stroke-linejoin:miter;stroke-opacity:1" d="M 198.279,406.295 206.129,398.445 z" id="boundary" inkscape:connector-curvature="0" />
	<path style="fill:none;stroke:red;stroke-width:1px;stroke-linecap:butt;stroke-linejoin:miter;stroke-opacity:1" d="M 206.129,398.445 211.035,388.633 z" id="boundary" inkscape:connector-curvature="0" />
	<path style="fill:none;stroke:red;stroke-width:1px;stroke-linecap:butt;stroke-linejoin:miter;stroke-opacity:1" d="M 211.035,388.633 218.884,381.765 z" id="boundary" inkscape:connector-curvature="0" />
	<path style="fill:none;stroke:red;stroke-width:1px;stroke-linecap:butt;stroke-linejoin:miter;stroke-opacity:1" d="M 218.884,381.765 222.809,371.953 z" id="boundary" inkscape:connector-curvature="0" />
	<path style="fill:none;stroke:red;stroke-width:1px;stroke-linecap:butt;stroke-linejoin:miter;stroke-opacity:1" d="M 222.809,371.953 232.621,367.046 z" id="boundary" inkscape:connector-curvature="0" />
	<path style="fill:none;stroke:red;stroke-width:1px;stroke-linecap:butt;stroke-linejoin:miter;stroke-opacity:1" d="M 232.621,367.046 242.433,362.14 z" id="boundary" inkscape:connector-curvature="0" />
	<path style="fill:none;stroke:red;stroke-width:1px;stroke-linecap:butt;stroke-linejoin:miter;stroke-opacity:1" d="M 242.433,362.14 252.245,362.14 z" id="boundary" inkscape:connector-curvature="0" />
	<path style="fill:none;stroke:red;stroke-width:1px;stroke-linecap:butt;stroke-linejoin:miter;stroke-opacity:1" d="M 252.245,362.14 262.057,362.14 z" id="boundary" inkscape:connector-curvature="0" />
	<path style="fill:none;stroke:red;stroke-width:1px;stroke-linecap:butt;stroke-linejoin:miter;stroke-opacity:1" d="M 262.057,362.14 271.869,362.14 z" id="boundary" inkscape:connector-curvature="0" />
	<path style="fill:none;stroke:red;stroke-width:1px;stroke-linecap:butt;stroke-linejoin:miter;stroke-opacity:1" d="M 271.869,362.14 281.682,362.14 z" id="boundary" inkscape:connector-curvature="0" />
	<path style="fill:none;stroke:red;stroke-width:1px;stroke-linecap:butt;stroke-linejoin:miter;stroke-opacity:1" d="M 281.682,362.14 290.512,357.234 z" id="boundary" inkscape:connector-curvature="0" />
	<path style="fill:none;stroke:red;stroke-width:1px;stroke-linecap:butt;stroke-linejoin:miter;stroke-opacity:1" d="M 290.512,357.234 300.324,357.234 z" id="boundary" inkscape:connector-curvature="0" />
	<path style="fill:none;stroke:red;stroke-width:1px;stroke-linecap:butt;stroke-linejoin:miter;stroke-opacity:1" d="M 300.324,357.234 310.136,357.234 z" id="boundary" inkscape:connector-curvature="0" />
	<path style="fill:none;stroke:red;stroke-width:1px;stroke-linecap:butt;stroke-linejoin:miter;stroke-opacity:1" d="M 310.136,357.234 319.949,357.234 z" id="boundary" inkscape:connector-curvature="0" />
	<path style="fill:none;stroke:red;stroke-width:1px;stroke-linecap:butt;stroke-linejoin:miter;stroke-opacity:1" d="M 319.949,357.234 329.761,357.234 z" id="boundary" inkscape:connector-curvature="0" />
	<path style="fill:none;stroke:red;stroke-width:1px;stroke-linecap:butt;stroke-linejoin:miter;stroke-opacity:1" d="M 329.761,357.234 339.573,353.31 z" id="boundary" inkscape:connector-curvature="0" />
	<path style="fill:none;stroke:red;stroke-width:1px;stroke-linecap:butt;stroke-linejoin:miter;stroke-opacity:1" d="M 339.573,353.31 349.385,348.404 z" id="boundary" inkscape:connector-curvature="0" />
	<path style="fill:none;stroke:red;stroke-width:1px;stroke-linecap:butt;stroke-linejoin:miter;stroke-opacity:1" d="M 349.385,348.404 359.197,343.498 z" id="boundary" inkscape:connector-curvature="0" />
	<path style="fill:none;stroke:red;stroke-width:1px;stroke-linecap:butt;stroke-linejoin:miter;stroke-opacity:1" d="M 359.197,343.498 369.009,338.591 z" id="boundary" inkscape:connector-curvature="0" />
	<path style="fill:none;stroke:red;stroke-width:1px;stroke-linecap:butt;stroke-linejoin:miter;stroke-opacity:1" d="M 369.009,338.591 378.821,337.61 z" id="boundary" inkscape:connector-curvature="0" />
	<path style="fill:none;stroke:red;stroke-width:1px;stroke-linecap:butt;stroke-linejoin:miter;stroke-opacity:1" d="M 378.821,337.61 388.633,337.61 z" id="boundary" inkscape:connector-curvature="0" />
	<path style="fill:none;stroke:red;stroke-width:1px;stroke-linecap:butt;stroke-linejoin:miter;stroke-opacity:1" d="M 388.633,337.61 397.464,332.704 z" id="boundary" inkscape:connector-curvature="0" />
	<path style="fill:none;stroke:red;stroke-width:1px;stroke-linecap:butt;stroke-linejoin:miter;stroke-opacity:1" d="M 397.464,332.704 407.276,332.704 z" id="boundary" inkscape:connector-curvature="0" />
	<path style="fill:none;stroke:red;stroke-width:1px;stroke-linecap:butt;stroke-linejoin:miter;stroke-opacity:1" d="M 407.276,332.704 417.088,332.704 z" id="boundary" inkscape:connector-curvature="0" />
	<path style="fill:none;stroke:red;stroke-width:1px;stroke-linecap:butt;stroke-linejoin:miter;stroke-opacity:1" d="M 417.088,332.704 425.919,327.798 z" id="boundary" inkscape:connector-curvature="0" />
	<path style="fill:none;stroke:red;stroke-width:1px;stroke-linecap:butt;stroke-linejoin:miter;stroke-opacity:1" d="M 425.919,327.798 435.731,327.798 z" id="boundary" inkscape:connector-curvature="0" />
	<path style="fill:none;stroke:red;stroke-width:1px;stroke-linecap:butt;stroke-linejoin:miter;stroke-opacity:1" d="M 435.731,327.798 445.543,320.93 z" id="boundary" inkscape:connector-curvature="0" />
	<path style="fill:none;stroke:red;stroke-width:1px;stroke-linecap:butt;stroke-linejoin:miter;stroke-opacity:1" d="M 445.543,320.93 450.449,311.118 z" id="boundary" inkscape:connector-curvature="0" />
	<path style="fill:none;stroke:red;stroke-width:1px;stroke-linecap:butt;stroke-linejoin:miter;stroke-opacity:1" d="M 450.449,311.118 455.355,301.306 z" id="boundary" inkscape:connector-curvature="0" />
	<path style="fill:none;stroke:red;stroke-width:1px;stroke-linecap:butt;stroke-linejoin:miter;stroke-opacity:1" d="M 455.355,301.306 460.261,291.494 z" id="boundary" inkscape:connector-curvature="0" />
	<path style="fill:none;stroke:red;stroke-width:1px;stroke-linecap:butt;stroke-linejoin:miter;stroke-opacity:1" d="M 460.261,291.494 465.167,281.682 z" id="boundary" inkscape:connector-curvature="0" />
	<path style="fill:none;stroke:red;stroke-width:1px;stroke-linecap:butt;stroke-linejoin:miter;stroke-opacity:1" d="M 465.167,281.682 470.073,271.869 z" id="boundary" inkscape:connector-curvature="0" />
	<path style="fill:none;stroke:red;stroke-width:1px;stroke-linecap:butt;stroke-linejoin:miter;stroke-opacity:1" d="M 978.338,622.16 986.188,608.423 z" id="boundary" inkscape:connector-curvature="0" />
	<path style="fill:none;stroke:red;stroke-width:1px;stroke-linecap:butt;stroke-linejoin:miter;stroke-opacity:1" d="M 986.188,608.423 991.094,598.611 z" id="boundary" inkscape:connector-curvature="0" />
	<path style="fill:none;stroke:red;stroke-width:1px;stroke-linecap:butt;stroke-linejoin:miter;stroke-opacity:1" d="M 991.094,598.611 996,583.893 z" id="boundary" inkscape:connector-curvature="0" />
	<path style="fill:none;stroke:red;stroke-width:1px;stroke-linecap:butt;stroke-linejoin:miter;stroke-opacity:1" d="M 996,583.893 996,574.081 z" id="boundary" inkscape:connector-curvature="0" />
	<path style="fill:none;stroke:red;stroke-width:1px;stroke-linecap:butt;stroke-linejoin:miter;stroke-opacity:1" d="M 996,574.081 996,564.269 z" id="boundary" inkscape:connector-curvature="0" />
	<path style="fill:none;stroke:red;stroke-width:1px;stroke-linecap:butt;stroke-linejoin:miter;stroke-opacity:1" d="M 996,564.269 996,554.457 z" id="boundary" inkscape:connector-curvature="0" />
	<path style="fill:none;stroke:red;stroke-width:1px;stroke-linecap:butt;stroke-linejoin:miter;stroke-opacity:1" d="M 996,554.457 990.113,546.607 z" id="boundary" inkscape:connector-curvature="0" />
	<path style="fill:none;stroke:red;stroke-width:1px;stroke-linecap:butt;stroke-linejoin:miter;stroke-opacity:1" d="M 990.113,546.607 983.244,538.758 z" id="boundary" inkscape:connector-curvature="0" />
	<path style="fill:none;stroke:red;stroke-width:1px;stroke-linecap:butt;stroke-linejoin:miter;stroke-opacity:1" d="M 983.244,538.758 973.432,534.833 z" id="boundary" inkscape:connector-curvature="0" />
	<path style="fill:none;stroke:red;stroke-width:1px;stroke-linecap:butt;stroke-linejoin:miter;stroke-opacity:1" d="M 973.432,534.833 966.564,526.983 z" id="boundary" inkscape:connector-curvature="0" />
	<path style="fill:none;stroke:red;stroke-width:1px;stroke-linecap:butt;stroke-linejoin:miter;stroke-opacity:1" d="M 966.564,526.983 958.714,520.115 z" id="boundary" inkscape:connector-curvature="0" />
	<path style="fill:none;stroke:red;stroke-width:1px;stroke-linecap:butt;stroke-linejoin:miter;stroke-opacity:1" d="M 958.714,520.115 951.846,512.265 z" id="boundary" inkscape:connector-curvature="0" />
	<path style="fill:none;stroke:red;stroke-width:1px;stroke-linecap:butt;stroke-linejoin:miter;stroke-opacity:1" d="M 951.846,512.265 942.034,509.321 z" id="boundary" inkscape:connector-curvature="0" />
	<path style="fill:none;stroke:red;stroke-width:1px;stroke-linecap:butt;stroke-linejoin:miter;stroke-opacity:1" d="M 942.034,509.321 936.146,501.472 z" id="boundary" inkscape:connector-curvature="0" />
	<path style="fill:none;stroke:red;stroke-width:1px;stroke-linecap:butt;stroke-linejoin:miter;stroke-opacity:1" d="M 936.146,501.472 926.334,497.547 z" id="boundary" inkscape:connector-curvature="0" />
	<path style="fill:none;stroke:red;stroke-width:1px;stroke-linecap:butt;stroke-linejoin:miter;stroke-opacity:1" d="M 926.334,497.547 917.503,492.641 z" id="boundary" inkscape:connector-curvature="0" />
	<path style="fill:none;stroke:red;stroke-width:1px;stroke-linecap:butt;stroke-linejoin:miter;stroke-opacity:1" d="M 917.503,492.641 909.654,485.773 z" id="boundary" inkscape:connector-curvature="0" />
	<path style="fill:none;stroke:red;stroke-width:1px;stroke-linecap:butt;stroke-linejoin:miter;stroke-opacity:1" d="M 909.654,485.773 901.804,479.885 z" id="boundary" inkscape:connector-curvature="0" />
	<path style="fill:none;stroke:red;stroke-width:1px;stroke-linecap:butt;stroke-linejoin:miter;stroke-opacity:1" d="M 901.804,479.885 892.973,474.979 z" id="boundary" inkscape:connector-curvature="0" />
	<path style="fill:none;stroke:red;stroke-width:1px;stroke-linecap:butt;stroke-linejoin:miter;stroke-opacity:1" d="M 892.973,474.979 883.161,474.979 z" id="boundary" inkscape:connector-curvature="0" />
	<path style="fill:none;stroke:red;stroke-width:1px;stroke-linecap:butt;stroke-linejoin:miter;stroke-opacity:1" d="M 883.161,474.979 874.33,470.073 z" id="boundary" inkscape:connector-curvature="0" />
	<path style="fill:none;stroke:red;stroke-width:1px;stroke-linecap:butt;stroke-linejoin:miter;stroke-opacity:1" d="M 874.33,470.073 864.518,470.073 z" id="boundary" inkscape:connector-curvature="0" />
	<path style="fill:none;stroke:red;stroke-width:1px;stroke-linecap:butt;stroke-linejoin:miter;stroke-opacity:1" d="M 864.518,470.073 855.687,465.167 z" id="boundary" inkscape:connector-curvature="0" />
	<path style="fill:none;stroke:red;stroke-width:1px;stroke-linecap:butt;stroke-linejoin:miter;stroke-opacity:1" d="M 855.687,465.167 845.875,465.167 z" id="boundary" inkscape:connector-curvature="0" />
	<path style="fill:none;stroke:red;stroke-width:1px;stroke-linecap:butt;stroke-linejoin:miter;stroke-opacity:1" d="M 845.875,465.167 836.063,461.242 z" id="boundary" inkscape:connector-curvature="0" />
	<path style="fill:none;stroke:red;stroke-width:1px;stroke-linecap:butt;stroke-linejoin:miter;stroke-opacity:1" d="M 836.063,461.242 834.101,451.43 z" id="boundary" inkscape:connector-curvature="0" />
	<path style="fill:none;stroke:red;stroke-width:1px;stroke-linecap:butt;stroke-linejoin:miter;stroke-opacity:1" d="M 834.101,451.43 834.101,441.618 z" id="boundary" inkscape:connector-curvature="0" />
	<path style="fill:none;stroke:red;stroke-width:1px;stroke-linecap:butt;stroke-linejoin:miter;stroke-opacity:1" d="M 834.101,441.618 831.157,431.806 z" id="boundary" inkscape:connector-curvature="0" />
	<path style="fill:none;stroke:red;stroke-width:1px;stroke-linecap:butt;stroke-linejoin:miter;stroke-opacity:1" d="M 831.157,431.806 827.232,421.994 z" id="boundary" inkscape:connector-curvature="0" />
	<path style="fill:none;stroke:red;stroke-width:1px;stroke-linecap:butt;stroke-linejoin:miter;stroke-opacity:1" d="M 827.232,421.994 822.326,413.163 z" id="boundary" inkscape:connector-curvature="0" />
	<path style="fill:none;stroke:red;stroke-width:1px;stroke-linecap:butt;stroke-linejoin:miter;stroke-opacity:1" d="M 822.326,413.163 818.402,403.351 z" id="boundary" inkscape:connector-curvature="0" />
	<path style="fill:none;stroke:red;stroke-width:1px;stroke-linecap:butt;stroke-linejoin:miter;stroke-opacity:1" d="M 818.402,403.351 810.552,396.483 z" id="boundary" inkscape:connector-curvature="0" />
	<path style="fill:none;stroke:red;stroke-width:1px;stroke-linecap:butt;stroke-linejoin:miter;stroke-opacity:1" d="M 810.552,396.483 801.721,391.577 z" id="boundary" inkscape:connector-curvature="0" />
	<path style="fill:none;stroke:red;stroke-width:1px;stroke-linecap:butt;stroke-linejoin:miter;stroke-opacity:1" d="M 801.721,391.577 792.89,386.671 z" id="boundary" inkscape:connector-curvature="0" />
	<path style="fill:none;stroke:red;stroke-width:1px;stroke-linecap:butt;stroke-linejoin:miter;stroke-opacity:1" d="M 792.89,386.671 783.078,386.671 z" id="boundary" inkscape:connector-curvature="0" />
	<path style="fill:none;stroke:red;stroke-width:1px;stroke-linecap:butt;stroke-linejoin:miter;stroke-opacity:1" d="M 783.078,386.671 773.266,386.671 z" id="boundary" inkscape:connector-curvature="0" />
	<path style="fill:none;stroke:red;stroke-width:1px;stroke-linecap:butt;stroke-linejoin:miter;stroke-opacity:1" d="M 773.266,386.671 763.454,386.671 z" id="boundary" inkscape:connector-curvature="0" />
	<path style="fill:none;stroke:red;stroke-width:1px;stroke-linecap:butt;stroke-linejoin:miter;stroke-opacity:1" d="M 763.454,386.671 753.642,386.671 z" id="boundary" inkscape:connector-curvature="0" />
	<path style="fill:none;stroke:red;stroke-width:1px;stroke-linecap:butt;stroke-linejoin:miter;stroke-opacity:1" d="M 753.642,386.671 743.83,386.671 z" id="boundary" inkscape:connector-curvature="0" />
	<path style="fill:none;stroke:red;stroke-width:1px;stroke-linecap:butt;stroke-linejoin:miter;stroke-opacity:1" d="M 743.83,386.671 734.018,386.671 z" id="boundary" inkscape:connector-curvature="0" />
	<path style="fill:none;stroke:red;stroke-width:1px;stroke-linecap:butt;stroke-linejoin:miter;stroke-opacity:1" d="M 734.018,386.671 724.206,386.671 z" id="boundary" inkscape:connector-curvature="0" />
	<path style="fill:none;stroke:red;stroke-width:1px;stroke-linecap:butt;stroke-linejoin:miter;stroke-opacity:1" d="M 724.206,386.671 714.394,386.671 z" id="boundary" inkscape:connector-curvature="0" />
	<path style="fill:none;stroke:red;stroke-width:1px;stroke-linecap:butt;stroke-linejoin:miter;stroke-opacity:1" d="M 714.394,386.671 704.582,386.671 z" id="boundary" inkscape:connector-curvature="0" />
	<path style="fill:none;stroke:red;stroke-width:1px;stroke-linecap:butt;stroke-linejoin:miter;stroke-opacity:1" d="M 704.582,386.671 695.751,381.765 z" id="boundary" inkscape:connector-curvature="0" />
	<path style="fill:none;stroke:red;stroke-width:1px;stroke-linecap:butt;stroke-linejoin:miter;stroke-opacity:1" d="M 695.751,381.765 685.939,381.765 z" id="boundary" inkscape:connector-curvature="0" />
	<path style="fill:none;stroke:red;stroke-width:1px;stroke-linecap:butt;stroke-linejoin:miter;stroke-opacity:1" d="M 685.939,381.765 676.127,381.765 z" id="boundary" inkscape:connector-curvature="0" />
	<path style="fill:none;stroke:red;stroke-width:1px;stroke-linecap:butt;stroke-linejoin:miter;stroke-opacity:1" d="M 676.127,381.765 667.296,376.859 z" id="boundary" inkscape:connector-curvature="0" />
	<path style="fill:none;stroke:red;stroke-width:1px;stroke-linecap:butt;stroke-linejoin:miter;stroke-opacity:1" d="M 667.296,376.859 657.484,376.859 z" id="boundary" inkscape:connector-curvature="0" />
	<path style="fill:none;stroke:red;stroke-width:1px;stroke-linecap:butt;stroke-linejoin:miter;stroke-opacity:1" d="M 657.484,376.859 648.653,371.953 z" id="boundary" inkscape:connector-curvature="0" />
	<path style="fill:none;stroke:red;stroke-width:1px;stroke-linecap:butt;stroke-linejoin:miter;stroke-opacity:1" d="M 648.653,371.953 638.841,371.953 z" id="boundary" inkscape:connector-curvature="0" />
	<path style="fill:none;stroke:red;stroke-width:1px;stroke-linecap:butt;stroke-linejoin:miter;stroke-opacity:1" d="M 638.841,371.953 629.029,371.953 z" id="boundary" inkscape:connector-curvature="0" />
	<path style="fill:none;stroke:red;stroke-width:1px;stroke-linecap:butt;stroke-linejoin:miter;stroke-opacity:1" d="M 629.029,371.953 619.217,371.953 z" id="boundary" inkscape:connector-curvature="0" />
	<path style="fill:none;stroke:red;stroke-width:1px;stroke-linecap:butt;stroke-linejoin:miter;stroke-opacity:1" d="M 619.217,371.953 610.386,367.046 z" id="boundary" inkscape:connector-curvature="0" />
	<path style="fill:none;stroke:red;stroke-width:1px;stroke-linecap:butt;stroke-linejoin:miter;stroke-opacity:1" d="M 610.386,367.046 601.555,362.14 z" id="boundary" inkscape:connector-curvature="0" />
	<path style="fill:none;stroke:red;stroke-width:1px;stroke-linecap:butt;stroke-linejoin:miter;stroke-opacity:1" d="M 601.555,362.14 591.743,358.216 z" id="boundary" inkscape:connector-curvature="0" />
	<path style="fill:none;stroke:red;stroke-width:1px;stroke-linecap:butt;stroke-linejoin:miter;stroke-opacity:1" d="M 591.743,358.216 581.931,357.234 z" id="boundary" inkscape:connector-curvature="0" />
	<path style="fill:none;stroke:red;stroke-width:1px;stroke-linecap:butt;stroke-linejoin:miter;stroke-opacity:1" d="M 581.931,357.234 572.119,353.31 z" id="boundary" inkscape:connector-curvature="0" />
	<path style="fill:none;stroke:red;stroke-width:1px;stroke-linecap:butt;stroke-linejoin:miter;stroke-opacity:1" d="M 572.119,353.31 562.307,352.328 z" id="boundary" inkscape:connector-curvature="0" />
	<path style="fill:none;stroke:red;stroke-width:1px;stroke-linecap:butt;stroke-linejoin:miter;stroke-opacity:1" d="M 562.307,352.328 554.457,345.46 z" id="boundary" inkscape:connector-curvature="0" />
	<path style="fill:none;stroke:red;stroke-width:1px;stroke-linecap:butt;stroke-linejoin:miter;stroke-opacity:1" d="M 554.457,345.46 554.457,335.648 z" id="boundary" inkscape:connector-curvature="0" />
	<path style="fill:none;stroke:red;stroke-width:1px;stroke-linecap:butt;stroke-linejoin:miter;stroke-opacity:1" d="M 554.457,335.648 554.457,325.836 z" id="boundary" inkscape:connector-curvature="0" />
	<path style="fill:none;stroke:red;stroke-width:1px;stroke-linecap:butt;stroke-linejoin:miter;stroke-opacity:1" d="M 554.457,325.836 554.457,316.024 z" id="boundary" inkscape:connector-curvature="0" />
	<path style="fill:none;stroke:red;stroke-width:1px;stroke-linecap:butt;stroke-linejoin:miter;stroke-opacity:1" d="M 554.457,316.024 554.457,306.212 z" id="boundary" inkscape:connector-curvature="0" />
	<path style="fill:none;stroke:red;stroke-width:1px;stroke-linecap:butt;stroke-linejoin:miter;stroke-opacity:1" d="M 554.457,306.212 554.457,296.4 z" id="boundary" inkscape:connector-curvature="0" />
	<path style="fill:none;stroke:red;stroke-width:1px;stroke-linecap:butt;stroke-linejoin:miter;stroke-opacity:1" d="M 554.457,296.4 549.551,287.569 z" id="boundary" inkscape:connector-curvature="0" />
	<path style="fill:none;stroke:red;stroke-width:1px;stroke-linecap:butt;stroke-linejoin:miter;stroke-opacity:1" d="M 549.551,287.569 549.551,277.757 z" id="boundary" inkscape:connector-curvature="0" />
	<path style="fill:none;stroke:red;stroke-width:1px;stroke-linecap:butt;stroke-linejoin:miter;stroke-opacity:1" d="M 549.551,277.757 549.551,267.945 z" id="boundary" inkscape:connector-curvature="0" />
	<path style="fill:none;stroke:red;stroke-width:1px;stroke-linecap:butt;stroke-linejoin:miter;stroke-opacity:1" d="M 549.551,267.945 544.645,259.114 z" id="boundary" inkscape:connector-curvature="0" />
	<path style="fill:none;stroke:red;stroke-width:1px;stroke-linecap:butt;stroke-linejoin:miter;stroke-opacity:1" d="M 544.645,259.114 544.645,249.302 z" id="boundary" inkscape:connector-curvature="0" />
	<path style="fill:none;stroke:red;stroke-width:1px;stroke-linecap:butt;stroke-linejoin:miter;stroke-opacity:1" d="M 544.645,249.302 544.645,239.49 z" id="boundary" inkscape:connector-curvature="0" />
	<path style="fill:none;stroke:red;stroke-width:1px;stroke-linecap:butt;stroke-linejoin:miter;stroke-opacity:1" d="M 544.645,239.49 544.645,229.678 z" id="boundary" inkscape:connector-curvature="0" />
	<path style="fill:none;stroke:red;stroke-width:1px;stroke-linecap:butt;stroke-linejoin:miter;stroke-opacity:1" d="M 544.645,229.678 544.645,219.865 z" id="boundary" inkscape:connector-curvature="0" />
	<path style="fill:none;stroke:red;stroke-width:1px;stroke-linecap:butt;stroke-linejoin:miter;stroke-opacity:1" d="M 544.645,219.865 544.645,210.053 z" id="boundary" inkscape:connector-curvature="0" />
	<path style="fill:none;stroke:red;stroke-width:1px;stroke-linecap:butt;stroke-linejoin:miter;stroke-opacity:1" d="M 544.645,210.053 539.739,201.223 z" id="boundary" inkscape:connector-curvature="0" />
	<path style="fill:none;stroke:red;stroke-width:1px;stroke-linecap:butt;stroke-linejoin:miter;stroke-opacity:1" d="M 539.739,201.223 539.739,191.41 z" id="boundary" inkscape:connector-curvature="0" />
	<path style="fill:none;stroke:red;stroke-width:1px;stroke-linecap:butt;stroke-linejoin:miter;stroke-opacity:1" d="M 539.739,191.41 539.739,181.598 z" id="boundary" inkscape:connector-curvature="0" />
	<path style="fill:none;stroke:red;stroke-width:1px;stroke-linecap:butt;stroke-linejoin:miter;stroke-opacity:1" d="M 539.739,181.598 539.739,171.786 z" id="boundary" inkscape:connector-curvature="0" />
	<path style="fill:none;stroke:red;stroke-width:1px;stroke-linecap:butt;stroke-linejoin:miter;stroke-opacity:1" d="M 539.739,171.786 548.57,166.88 z" id="boundary" inkscape:connector-curvature="0" />
	<path style="fill:none;stroke:red;stroke-width:1px;stroke-linecap:butt;stroke-linejoin:miter;stroke-opacity:1" d="M 548.57,166.88 557.401,161.974 z" id="boundary" inkscape:connector-curvature="0" />
	<path style="fill:none;stroke:red;stroke-width:1px;stroke-linecap:butt;stroke-linejoin:miter;stroke-opacity:1" d="M 557.401,161.974 566.231,157.068 z" id="boundary" inkscape:connector-curvature="0" />
	<path style="fill:none;stroke:red;stroke-width:1px;stroke-linecap:butt;stroke-linejoin:miter;stroke-opacity:1" d="M 566.231,157.068 576.044,156.087 z" id="boundary" inkscape:connector-curvature="0" />
	<path style="fill:none;stroke:red;stroke-width:1px;stroke-linecap:butt;stroke-linejoin:miter;stroke-opacity:1" d="M 576.044,156.087 585.856,151.181 z" id="boundary" inkscape:connector-curvature="0" />
	<path style="fill:none;stroke:red;stroke-width:1px;stroke-linecap:butt;stroke-linejoin:miter;stroke-opacity:1" d="M 585.856,151.181 595.668,147.256 z" id="boundary" inkscape:connector-curvature="0" />
	<path style="fill:none;stroke:red;stroke-width:1px;stroke-linecap:butt;stroke-linejoin:miter;stroke-opacity:1" d="M 595.668,147.256 605.48,147.256 z" id="boundary" inkscape:connector-curvature="0" />
	<path style="fill:none;stroke:red;stroke-width:1px;stroke-linecap:butt;stroke-linejoin:miter;stroke-opacity:1" d="M 605.48,147.256 614.311,142.35 z" id="boundary" inkscape:connector-curvature="0" />
	<path style="fill:none;stroke:red;stroke-width:1px;stroke-linecap:butt;stroke-linejoin:miter;stroke-opacity:1" d="M 614.311,142.35 624.123,142.35 z" id="boundary" inkscape:connector-curvature="0" />
	<path style="fill:none;stroke:red;stroke-width:1px;stroke-linecap:butt;stroke-linejoin:miter;stroke-opacity:1" d="M 624.123,142.35 632.954,137.444 z" id="boundary" inkscape:connector-curvature="0" />
	<path style="fill:none;stroke:red;stroke-width:1px;stroke-linecap:butt;stroke-linejoin:miter;stroke-opacity:1" d="M 632.954,137.444 642.766,132.538 z" id="boundary" inkscape:connector-curvature="0" />
	<path style="fill:none;stroke:red;stroke-width:1px;stroke-linecap:butt;stroke-linejoin:miter;stroke-opacity:1" d="M 642.766,132.538 652.578,127.632 z" id="boundary" inkscape:connector-curvature="0" />
	<path style="fill:none;stroke:red;stroke-width:1px;stroke-linecap:butt;stroke-linejoin:miter;stroke-opacity:1" d="M 652.578,127.632 650.615,117.82 z" id="boundary" inkscape:connector-curvature="0" />
	<path style="fill:none;stroke:red;stroke-width:1px;stroke-linecap:butt;stroke-linejoin:miter;stroke-opacity:1" d="M 650.615,117.82 642.766,111.933 z" id="boundary" inkscape:connector-curvature="0" />
	<path style="fill:none;stroke:red;stroke-width:1px;stroke-linecap:butt;stroke-linejoin:miter;stroke-opacity:1" d="M 642.766,111.933 632.954,111.933 z" id="boundary" inkscape:connector-curvature="0" />
	<path style="fill:none;stroke:red;stroke-width:1px;stroke-linecap:butt;stroke-linejoin:miter;stroke-opacity:1" d="M 632.954,111.933 623.141,111.933 z" id="boundary" inkscape:connector-curvature="0" />
	<path style="fill:none;stroke:red;stroke-width:1px;stroke-linecap:butt;stroke-linejoin:miter;stroke-opacity:1" d="M 623.141,111.933 613.329,111.933 z" id="boundary" inkscape:connector-curvature="0" />
	<path style="fill:none;stroke:red;stroke-width:1px;stroke-linecap:butt;stroke-linejoin:miter;stroke-opacity:1" d="M 613.329,111.933 603.517,113.895 z" id="boundary" inkscape:connector-curvature="0" />
	<path style="fill:none;stroke:red;stroke-width:1px;stroke-linecap:butt;stroke-linejoin:miter;stroke-opacity:1" d="M 603.517,113.895 593.705,116.839 z" id="boundary" inkscape:connector-curvature="0" />
	<path style="fill:none;stroke:red;stroke-width:1px;stroke-linecap:butt;stroke-linejoin:miter;stroke-opacity:1" d="M 593.705,116.839 583.893,116.839 z" id="boundary" inkscape:connector-curvature="0" />
	<path style="fill:none;stroke:red;stroke-width:1px;stroke-linecap:butt;stroke-linejoin:miter;stroke-opacity:1" d="M 583.893,116.839 574.081,116.839 z" id="boundary" inkscape:connector-curvature="0" />
	<path style="fill:none;stroke:red;stroke-width:1px;stroke-linecap:butt;stroke-linejoin:miter;stroke-opacity:1" d="M 574.081,116.839 564.269,116.839 z" id="boundary" inkscape:connector-curvature="0" />
	<path style="fill:none;stroke:red;stroke-width:1px;stroke-linecap:butt;stroke-linejoin:miter;stroke-opacity:1" d="M 564.269,116.839 554.457,116.839 z" id="boundary" inkscape:connector-curvature="0" />
	<path style="fill:none;stroke:red;stroke-width:1px;stroke-linecap:butt;stroke-linejoin:miter;stroke-opacity:1" d="M 554.457,116.839 544.645,116.839 z" id="boundary" inkscape:connector-curvature="0" />
	<path style="fill:none;stroke:red;stroke-width:1px;stroke-linecap:butt;stroke-linejoin:miter;stroke-opacity:1" d="M 544.645,116.839 534.833,114.876 z" id="boundary" inkscape:connector-curvature="0" />
	<path style="fill:none;stroke:red;stroke-width:1px;stroke-linecap:butt;stroke-linejoin:miter;stroke-opacity:1" d="M 534.833,114.876 534.833,105.064 z" id="boundary" inkscape:connector-curvature="0" />
	<path style="fill:none;stroke:red;stroke-width:1px;stroke-linecap:butt;stroke-linejoin:miter;stroke-opacity:1" d="M 534.833,105.064 534.833,95.2522 z" id="boundary" inkscape:connector-curvature="0" />
	<path style="fill:none;stroke:red;stroke-width:1px;stroke-linecap:butt;stroke-linejoin:miter;stroke-opacity:1" d="M 534.833,95.2522 529.927,86.4214 z" id="boundary" inkscape:connector-curvature="0" />
	<path style="fill:none;stroke:red;stroke-width:1px;stroke-linecap:butt;stroke-linejoin:miter;stroke-opacity:1" d="M 529.927,86.4214 529.927,76.6093 z" id="boundary" inkscape:connector-curvature="0" />
	<path style="fill:none;stroke:red;stroke-width:1px;stroke-linecap:butt;stroke-linejoin:miter;stroke-opacity:1" d="M 529.927,76.6093 529.927,66.7972 z" id="boundary" inkscape:connector-curvature="0" />
	<path style="fill:none;stroke:red;stroke-width:1px;stroke-linecap:butt;stroke-linejoin:miter;stroke-opacity:1" d="M 529.927,66.7972 529.927,56.9852 z" id="boundary" inkscape:connector-curvature="0" />
	<path style="fill:none;stroke:red;stroke-width:1px;stroke-linecap:butt;stroke-linejoin:miter;stroke-opacity:1" d="M 529.927,56.9852 529.927,47.1731 z" id="boundary" inkscape:connector-curvature="0" />
	<path style="fill:none;stroke:red;stroke-width:1px;stroke-linecap:butt;stroke-linejoin:miter;stroke-opacity:1" d="M 529.927,47.1731 529.927,37.361 z" id="boundary" inkscape:connector-curvature="0" />
	<path style="fill:none;stroke:red;stroke-width:1px;stroke-linecap:butt;stroke-linejoin:miter;stroke-opacity:1" d="M 529.927,37.361 529.927,27.549 z" id="boundary" inkscape:connector-curvature="0" />
	<path style="fill:none;stroke:red;stroke-width:1px;stroke-linecap:butt;stroke-linejoin:miter;stroke-opacity:1" d="M 529.927,27.549 529.927,17.7369 z" id="boundary" inkscape:connector-curvature="0" />
	<path style="fill:none;stroke:red;stroke-width:1px;stroke-linecap:butt;stroke-linejoin:miter;stroke-opacity:1" d="M 529.927,17.7369 523.058,9.88724 z" id="boundary" inkscape:connector-curvature="0" />
	<path style="fill:none;stroke:red;stroke-width:1px;stroke-linecap:butt;stroke-linejoin:miter;stroke-opacity:1" d="M 523.058,9.88724 515.209,4 z" id="boundary" inkscape:connector-curvature="0" />
	<path style="fill:none;stroke:red;stroke-width:1px;stroke-linecap:butt;stroke-linejoin:miter;stroke-opacity:1" d="M 515.209,4 506.378,8.90603 z" id="boundary" inkscape:connector-curvature="0" />
	<path style="fill:none;stroke:red;stroke-width:1px;stroke-linecap:butt;stroke-linejoin:miter;stroke-opacity:1" d="M 506.378,8.90603 496.566,8.90603 z" id="boundary" inkscape:connector-curvature="0" />
	<path style="fill:none;stroke:red;stroke-width:1px;stroke-linecap:butt;stroke-linejoin:miter;stroke-opacity:1" d="M 496.566,8.90603 486.754,8.90603 z" id="boundary" inkscape:connector-curvature="0" />
	<path style="fill:none;stroke:red;stroke-width:1px;stroke-linecap:butt;stroke-linejoin:miter;stroke-opacity:1" d="M 486.754,8.90603 477.923,13.8121 z" id="boundary" inkscape:connector-curvature="0" />
	<path style="fill:none;stroke:red;stroke-width:1px;stroke-linecap:butt;stroke-linejoin:miter;stroke-opacity:1" d="M 477.923,13.8121 470.073,21.6617 z" id="boundary" inkscape:connector-curvature="0" />
	<path style="fill:none;stroke:red;stroke-width:1px;stroke-linecap:butt;stroke-linejoin:miter;stroke-opacity:1" d="M 470.073,21.6617 470.073,31.4738 z" id="boundary" inkscape:connector-curvature="0" />
	<path style="fill:none;stroke:red;stroke-width:1px;stroke-linecap:butt;stroke-linejoin:miter;stroke-opacity:1" d="M 470.073,31.4738 474.979,40.3046 z" id="boundary" inkscape:connector-curvature="0" />
	<path style="fill:none;stroke:red;stroke-width:1px;stroke-linecap:butt;stroke-linejoin:miter;stroke-opacity:1" d="M 474.979,40.3046 479.885,49.1355 z" id="boundary" inkscape:connector-curvature="0" />
	<path style="fill:none;stroke:red;stroke-width:1px;stroke-linecap:butt;stroke-linejoin:miter;stroke-opacity:1" d="M 479.885,49.1355 482.829,58.9476 z" id="boundary" inkscape:connector-curvature="0" />
	<path style="fill:none;stroke:red;stroke-width:1px;stroke-linecap:butt;stroke-linejoin:miter;stroke-opacity:1" d="M 482.829,58.9476 484.791,68.7596 z" id="boundary" inkscape:connector-curvature="0" />
	<path style="fill:none;stroke:red;stroke-width:1px;stroke-linecap:butt;stroke-linejoin:miter;stroke-opacity:1" d="M 484.791,68.7596 484.791,78.5717 z" id="boundary" inkscape:connector-curvature="0" />
	<path style="fill:none;stroke:red;stroke-width:1px;stroke-linecap:butt;stroke-linejoin:miter;stroke-opacity:1" d="M 484.791,78.5717 484.791,88.3838 z" id="boundary" inkscape:connector-curvature="0" />
	<path style="fill:none;stroke:red;stroke-width:1px;stroke-linecap:butt;stroke-linejoin:miter;stroke-opacity:1" d="M 484.791,88.3838 484.791,98.1958 z" id="boundary" inkscape:connector-curvature="0" />
	<path style="fill:none;stroke:red;stroke-width:1px;stroke-linecap:butt;stroke-linejoin:miter;stroke-opacity:1" d="M 484.791,98.1958 477.923,111.933 z" id="boundary" inkscape:connector-curvature="0" />
	<path style="fill:none;stroke:red;stroke-width:1px;stroke-linecap:butt;stroke-linejoin:miter;stroke-opacity:1" d="M 477.923,111.933 468.111,111.933 z" id="boundary" inkscape:connector-curvature="0" />
	<path style="fill:none;stroke:red;stroke-width:1px;stroke-linecap:butt;stroke-linejoin:miter;stroke-opacity:1" d="M 468.111,111.933 458.299,111.933 z" id="boundary" inkscape:connector-curvature="0" />
	<path style="fill:none;stroke:red;stroke-width:1px;stroke-linecap:butt;stroke-linejoin:miter;stroke-opacity:1" d="M 458.299,111.933 448.487,111.933 z" id="boundary" inkscape:connector-curvature="0" />
	<path style="fill:none;stroke:red;stroke-width:1px;stroke-linecap:butt;stroke-linejoin:miter;stroke-opacity:1" d="M 448.487,111.933 438.675,111.933 z" id="boundary" inkscape:connector-curvature="0" />
	<path style="fill:none;stroke:red;stroke-width:1px;stroke-linecap:butt;stroke-linejoin:miter;stroke-opacity:1" d="M 438.675,111.933 428.863,111.933 z" id="boundary" inkscape:connector-curvature="0" />
	<path style="fill:none;stroke:red;stroke-width:1px;stroke-linecap:butt;stroke-linejoin:miter;stroke-opacity:1" d="M 428.863,111.933 419.05,111.933 z" id="boundary" inkscape:connector-curvature="0" />
	<path style="fill:none;stroke:red;stroke-width:1px;stroke-linecap:butt;stroke-linejoin:miter;stroke-opacity:1" d="M 419.05,111.933 409.238,111.933 z" id="boundary" inkscape:connector-curvature="0" />
	<path style="fill:none;stroke:red;stroke-width:1px;stroke-linecap:butt;stroke-linejoin:miter;stroke-opacity:1" d="M 409.238,111.933 399.426,111.933 z" id="boundary" inkscape:connector-curvature="0" />
	<path style="fill:none;stroke:red;stroke-width:1px;stroke-linecap:butt;stroke-linejoin:miter;stroke-opacity:1" d="M 399.426,111.933 389.614,116.839 z" id="boundary" inkscape:connector-curvature="0" />
	<path style="fill:none;stroke:red;stroke-width:1px;stroke-linecap:butt;stroke-linejoin:miter;stroke-opacity:1" d="M 389.614,116.839 379.802,121.745 z" id="boundary" inkscape:connector-curvature="0" />
	<path style="fill:none;stroke:red;stroke-width:1px;stroke-linecap:butt;stroke-linejoin:miter;stroke-opacity:1" d="M 379.802,121.745 371.953,129.594 z" id="boundary" inkscape:connector-curvature="0" />
	<path style="fill:none;stroke:red;stroke-width:1px;stroke-linecap:butt;stroke-linejoin:miter;stroke-opacity:1" d="M 371.953,129.594 367.046,139.407 z" id="boundary" inkscape:connector-curvature="0" />
	<path style="fill:none;stroke:red;stroke-width:1px;stroke-linecap:butt;stroke-linejoin:miter;stroke-opacity:1" d="M 367.046,139.407 374.896,146.275 z" id="boundary" inkscape:connector-curvature="0" />
	<path style="fill:none;stroke:red;stroke-width:1px;stroke-linecap:butt;stroke-linejoin:miter;stroke-opacity:1" d="M 374.896,146.275 382.746,152.162 z" id="boundary" inkscape:connector-curvature="0" />
	<path style="fill:none;stroke:red;stroke-width:1px;stroke-linecap:butt;stroke-linejoin:miter;stroke-opacity:1" d="M 382.746,152.162 391.577,157.068 z" id="boundary" inkscape:connector-curvature="0" />
	<path style="fill:none;stroke:red;stroke-width:1px;stroke-linecap:butt;stroke-linejoin:miter;stroke-opacity:1" d="M 391.577,157.068 401.389,157.068 z" id="boundary" inkscape:connector-curvature="0" />
	<path style="fill:none;stroke:red;stroke-width:1px;stroke-linecap:butt;stroke-linejoin:miter;stroke-opacity:1" d="M 401.389,157.068 411.201,157.068 z" id="boundary" inkscape:connector-curvature="0" />
	<path style="fill:none;stroke:red;stroke-width:1px;stroke-linecap:butt;stroke-linejoin:miter;stroke-opacity:1" d="M 411.201,157.068 421.013,157.068 z" id="boundary" inkscape:connector-curvature="0" />
	<path style="fill:none;stroke:red;stroke-width:1px;stroke-linecap:butt;stroke-linejoin:miter;stroke-opacity:1" d="M 421.013,157.068 430.825,157.068 z" id="boundary" inkscape:connector-curvature="0" />
	<path style="fill:none;stroke:red;stroke-width:1px;stroke-linecap:butt;stroke-linejoin:miter;stroke-opacity:1" d="M 430.825,157.068 440.637,157.068 z" id="boundary" inkscape:connector-curvature="0" />
	<path style="fill:none;stroke:red;stroke-width:1px;stroke-linecap:butt;stroke-linejoin:miter;stroke-opacity:1" d="M 440.637,157.068 450.449,157.068 z" id="boundary" inkscape:connector-curvature="0" />
	<path style="fill:none;stroke:red;stroke-width:1px;stroke-linecap:butt;stroke-linejoin:miter;stroke-opacity:1" d="M 450.449,157.068 460.261,157.068 z" id="boundary" inkscape:connector-curvature="0" />
	<path style="fill:none;stroke:red;stroke-width:1px;stroke-linecap:butt;stroke-linejoin:miter;stroke-opacity:1" d="M 460.261,157.068 470.073,157.068 z" id="boundary" inkscape:connector-curvature="0" />
	<path style="fill:none;stroke:red;stroke-width:1px;stroke-linecap:butt;stroke-linejoin:miter;stroke-opacity:1" d="M 470.073,157.068 474.979,165.899 z" id="boundary" inkscape:connector-curvature="0" />
	<path style="fill:none;stroke:red;stroke-width:1px;stroke-linecap:butt;stroke-linejoin:miter;stroke-opacity:1" d="M 474.979,165.899 474.979,175.711 z" id="boundary" inkscape:connector-curvature="0" />
	<path style="fill:none;stroke:red;stroke-width:1px;stroke-linecap:butt;stroke-linejoin:miter;stroke-opacity:1" d="M 474.979,175.711 474.979,185.523 z" id="boundary" inkscape:connector-curvature="0" />
	<path style="fill:none;stroke:red;stroke-width:1px;stroke-linecap:butt;stroke-linejoin:miter;stroke-opacity:1" d="M 474.979,185.523 474.979,195.335 z" id="boundary" inkscape:connector-curvature="0" />
	<path style="fill:none;stroke:red;stroke-width:1px;stroke-linecap:butt;stroke-linejoin:miter;stroke-opacity:1" d="M 474.979,195.335 474.979,205.147 z" id="boundary" inkscape:connector-curvature="0" />
	<path style="fill:none;stroke:red;stroke-width:1px;stroke-linecap:butt;stroke-linejoin:miter;stroke-opacity:1" d="M 474.979,205.147 474.979,214.959 z" id="boundary" inkscape:connector-curvature="0" />
	<path style="fill:none;stroke:red;stroke-width:1px;stroke-linecap:butt;stroke-linejoin:miter;stroke-opacity:1" d="M 474.979,214.959 474.979,224.772 z" id="boundary" inkscape:connector-curvature="0" />
	<path style="fill:none;stroke:red;stroke-width:1px;stroke-linecap:butt;stroke-linejoin:miter;stroke-opacity:1" d="M 474.979,224.772 474.979,234.584 z" id="boundary" inkscape:connector-curvature="0" />
	<path style="fill:none;stroke:red;stroke-width:1px;stroke-linecap:butt;stroke-linejoin:miter;stroke-opacity:1" d="M 474.979,234.584 474.979,244.396 z" id="boundary" inkscape:connector-curvature="0" />
	<path style="fill:none;stroke:red;stroke-width:1px;stroke-linecap:butt;stroke-linejoin:miter;stroke-opacity:1" d="M 474.979,244.396 474.979,254.208 z" id="boundary" inkscape:connector-curvature="0" />
	<path style="fill:none;stroke:red;stroke-width:1px;stroke-linecap:butt;stroke-linejoin:miter;stroke-opacity:1" d="M 470.073,271.869 474.979,254.208 z" id="boundary" inkscape:connector-curvature="0" />
	<circle cx="4" cy="571.137" r="4" fill="#0" id="circle0"/>
	<circle cx="4" cy="580.95" r="4" fill="#0" id="circle1"/>
	<circle cx="4" cy="590.762" r="4" fill="#0" id="circle2"/>
	<circle cx="8.90603" cy="561.325" r="4" fill="#0" id="circle3"/>
	<circle cx="8.90603" cy="599.592" r="4" fill="#0" id="circle4"/>
	<circle cx="13.8121" cy="551.513" r="4" fill="#0" id="circle5"/>
	<circle cx="13.8121" cy="608.423" r="4" fill="#0" id="circle6"/>
	<circle cx="16.7557" cy="618.235" r="4" fill="#0" id="circle7"/>
	<circle cx="18.7181" cy="541.701" r="4" fill="#0" id="circle8"/>
	<circle cx="24.6053" cy="625.104" r="4" fill="#0" id="circle9"/>
	<circle cx="26.5678" cy="533.852" r="4" fill="#0" id="circle10"/>
	<circle cx="31.4738" cy="632.954" r="4" fill="#0" id="circle11"/>
	<circle cx="33.4362" cy="522.077" r="4" fill="#0" id="circle12"/>
	<circle cx="40.3046" cy="637.86" r="4" fill="#0" id="circle13"/>
	<circle cx="41.2859" cy="514.227" r="4" fill="#0" id="circle14"/>
	<circle cx="48.1543" cy="643.747" r="4" fill="#0" id="circle15"/>
	<circle cx="51.0979" cy="509.321" r="4" fill="#0" id="circle16"/>
	<circle cx="57.9664" cy="647.672" r="4" fill="#0" id="circle17"/>
	<circle cx="60.91" cy="504.415" r="4" fill="#0" id="circle18"/>
	<circle cx="66.7972" cy="652.578" r="4" fill="#0" id="circle19"/>
	<circle cx="70.7221" cy="504.415" r="4" fill="#0" id="circle20"/>
	<circle cx="76.6093" cy="652.578" r="4" fill="#0" id="circle21"/>
	<circle cx="78.5717" cy="496.566" r="4" fill="#0" id="circle22"/>
	<circle cx="86.4214" cy="489.697" r="4" fill="#0" id="circle23"/>
	<circle cx="86.4214" cy="652.578" r="4" fill="#0" id="circle24"/>
	<circle cx="93.2898" cy="481.848" r="4" fill="#0" id="circle25"/>
	<circle cx="96.2334" cy="652.578" r="4" fill="#0" id="circle26"/>
	<circle cx="103.102" cy="476.942" r="4" fill="#0" id="circle27"/>
	<circle cx="106.045" cy="652.578" r="4" fill="#0" id="circle28"/>
	<circle cx="112.914" cy="472.036" r="4" fill="#0" id="circle29"/>
	<circle cx="114.876" cy="657.484" r="4" fill="#0" id="circle30"/>
	<circle cx="122.726" cy="467.13" r="4" fill="#0" id="circle31"/>
	<circle cx="124.688" cy="657.484" r="4" fill="#0" id="circle32"/>
	<circle cx="132.538" cy="465.167" r="4" fill="#0" id="circle33"/>
	<circle cx="134.5" cy="657.484" r="4" fill="#0" id="circle34"/>
	<circle cx="142.35" cy="462.224" r="4" fill="#0" id="circle35"/>
	<circle cx="144.313" cy="657.484" r="4" fill="#0" id="circle36"/>
	<circle cx="152.162" cy="460.261" r="4" fill="#0" id="circle37"/>
	<circle cx="154.125" cy="661.409" r="4" fill="#0" id="circle38"/>
	<circle cx="161.974" cy="457.318" r="4" fill="#0" id="circle39"/>
	<circle cx="163.937" cy="662.39" r="4" fill="#0" id="circle40"/>
	<circle cx="171.786" cy="455.355" r="4" fill="#0" id="circle41"/>
	<circle cx="173.749" cy="662.39" r="4" fill="#0" id="circle42"/>
	<circle cx="180.617" cy="443.581" r="4" fill="#0" id="circle43"/>
	<circle cx="183.561" cy="662.39" r="4" fill="#0" id="circle44"/>
	<circle cx="185.523" cy="423.956" r="4" fill="#0" id="circle45"/>
	<circle cx="185.523" cy="433.769" r="4" fill="#0" id="circle46"/>
	<circle cx="190.429" cy="414.144" r="4" fill="#0" id="circle47"/>
	<circle cx="193.373" cy="662.39" r="4" fill="#0" id="circle48"/>
	<circle cx="198.279" cy="406.295" r="4" fill="#0" id="circle49"/>
	<circle cx="201.223" cy="669.258" r="4" fill="#0" id="circle50"/>
	<circle cx="206.129" cy="398.445" r="4" fill="#0" id="circle51"/>
	<circle cx="208.091" cy="677.108" r="4" fill="#0" id="circle52"/>
	<circle cx="211.035" cy="388.633" r="4" fill="#0" id="circle53"/>
	<circle cx="217.903" cy="681.033" r="4" fill="#0" id="circle54"/>
	<circle cx="218.884" cy="381.765" r="4" fill="#0" id="circle55"/>
	<circle cx="222.809" cy="371.953" r="4" fill="#0" id="circle56"/>
	<circle cx="224.772" cy="688.882" r="4" fill="#0" id="circle57"/>
	<circle cx="232.621" cy="367.046" r="4" fill="#0" id="circle58"/>
	<circle cx="234.584" cy="691.826" r="4" fill="#0" id="circle59"/>
	<circle cx="242.433" cy="362.14" r="4" fill="#0" id="circle60"/>
	<circle cx="243.414" cy="696.732" r="4" fill="#0" id="circle61"/>
	<circle cx="252.245" cy="362.14" r="4" fill="#0" id="circle62"/>
	<circle cx="252.245" cy="701.638" r="4" fill="#0" id="circle63"/>
	<circle cx="262.057" cy="362.14" r="4" fill="#0" id="circle64"/>
	<circle cx="262.057" cy="705.563" r="4" fill="#0" id="circle65"/>
	<circle cx="271.869" cy="362.14" r="4" fill="#0" id="circle66"/>
	<circle cx="271.869" cy="706.544" r="4" fill="#0" id="circle67"/>
	<circle cx="280.7" cy="711.45" r="4" fill="#0" id="circle68"/>
	<circle cx="281.682" cy="362.14" r="4" fill="#0" id="circle69"/>
	<circle cx="290.512" cy="357.234" r="4" fill="#0" id="circle70"/>
	<circle cx="290.512" cy="711.45" r="4" fill="#0" id="circle71"/>
	<circle cx="300.324" cy="357.234" r="4" fill="#0" id="circle72"/>
	<circle cx="300.324" cy="711.45" r="4" fill="#0" id="circle73"/>
	<circle cx="309.155" cy="716.356" r="4" fill="#0" id="circle74"/>
	<circle cx="310.136" cy="357.234" r="4" fill="#0" id="circle75"/>
	<circle cx="317.986" cy="721.262" r="4" fill="#0" id="circle76"/>
	<circle cx="319.949" cy="357.234" r="4" fill="#0" id="circle77"/>
	<circle cx="327.798" cy="721.262" r="4" fill="#0" id="circle78"/>
	<circle cx="329.761" cy="357.234" r="4" fill="#0" id="circle79"/>
	<circle cx="336.629" cy="726.168" r="4" fill="#0" id="circle80"/>
	<circle cx="339.573" cy="353.31" r="4" fill="#0" id="circle81"/>
	<circle cx="346.441" cy="726.168" r="4" fill="#0" id="circle82"/>
	<circle cx="349.385" cy="348.404" r="4" fill="#0" id="circle83"/>
	<circle cx="355.272" cy="731.074" r="4" fill="#0" id="circle84"/>
	<circle cx="359.197" cy="343.498" r="4" fill="#0" id="circle85"/>
	<circle cx="365.084" cy="731.074" r="4" fill="#0" id="circle86"/>
	<circle cx="367.046" cy="139.407" r="4" fill="#0" id="circle87"/>
	<circle cx="369.009" cy="338.591" r="4" fill="#0" id="circle88"/>
	<circle cx="371.953" cy="129.594" r="4" fill="#0" id="circle89"/>
	<circle cx="374.896" cy="146.275" r="4" fill="#0" id="circle90"/>
	<circle cx="374.896" cy="734.999" r="4" fill="#0" id="circle91"/>
	<circle cx="378.821" cy="337.61" r="4" fill="#0" id="circle92"/>
	<circle cx="379.802" cy="121.745" r="4" fill="#0" id="circle93"/>
	<circle cx="382.746" cy="152.162" r="4" fill="#0" id="circle94"/>
	<circle cx="384.708" cy="735.98" r="4" fill="#0" id="circle95"/>
	<circle cx="388.633" cy="337.61" r="4" fill="#0" id="circle96"/>
	<circle cx="389.614" cy="116.839" r="4" fill="#0" id="circle97"/>
	<circle cx="391.577" cy="157.068" r="4" fill="#0" id="circle98"/>
	<circle cx="393.539" cy="740.886" r="4" fill="#0" id="circle99"/>
	<circle cx="397.464" cy="332.704" r="4" fill="#0" id="circle100"/>
	<circle cx="399.426" cy="111.933" r="4" fill="#0" id="circle101"/>
	<circle cx="401.389" cy="157.068" r="4" fill="#0" id="circle102"/>
	<circle cx="403.351" cy="740.886" r="4" fill="#0" id="circle103"/>
	<circle cx="407.276" cy="332.704" r="4" fill="#0" id="circle104"/>
	<circle cx="409.238" cy="111.933" r="4" fill="#0" id="circle105"/>
	<circle cx="411.201" cy="157.068" r="4" fill="#0" id="circle106"/>
	<circle cx="413.163" cy="740.886" r="4" fill="#0" id="circle107"/>
	<circle cx="417.088" cy="332.704" r="4" fill="#0" id="circle108"/>
	<circle cx="419.05" cy="111.933" r="4" fill="#0" id="circle109"/>
	<circle cx="421.013" cy="157.068" r="4" fill="#0" id="circle110"/>
	<circle cx="422.975" cy="740.886" r="4" fill="#0" id="circle111"/>
	<circle cx="425.919" cy="327.798" r="4" fill="#0" id="circle112"/>
	<circle cx="428.863" cy="111.933" r="4" fill="#0" id="circle113"/>
	<circle cx="430.825" cy="157.068" r="4" fill="#0" id="circle114"/>
	<circle cx="432.787" cy="740.886" r="4" fill="#0" id="circle115"/>
	<circle cx="435.731" cy="327.798" r="4" fill="#0" id="circle116"/>
	<circle cx="438.675" cy="111.933" r="4" fill="#0" id="circle117"/>
	<circle cx="440.637" cy="157.068" r="4" fill="#0" id="circle118"/>
	<circle cx="442.599" cy="740.886" r="4" fill="#0" id="circle119"/>
	<circle cx="445.543" cy="320.93" r="4" fill="#0" id="circle120"/>
	<circle cx="448.487" cy="111.933" r="4" fill="#0" id="circle121"/>
	<circle cx="450.449" cy="157.068" r="4" fill="#0" id="circle122"/>
	<circle cx="450.449" cy="311.118" r="4" fill="#0" id="circle123"/>
	<circle cx="452.411" cy="740.886" r="4" fill="#0" id="circle124"/>
	<circle cx="455.355" cy="301.306" r="4" fill="#0" id="circle125"/>
	<circle cx="458.299" cy="111.933" r="4" fill="#0" id="circle126"/>
	<circle cx="460.261" cy="157.068" r="4" fill="#0" id="circle127"/>
	<circle cx="460.261" cy="291.494" r="4" fill="#0" id="circle128"/>
	<circle cx="462.224" cy="740.886" r="4" fill="#0" id="circle129"/>
	<circle cx="465.167" cy="281.682" r="4" fill="#0" id="circle130"/>
	<circle cx="468.111" cy="111.933" r="4" fill="#0" id="circle131"/>
	<circle cx="470.073" cy="21.6617" r="4" fill="#0" id="circle132"/>
	<circle cx="470.073" cy="31.4738" r="4" fill="#0" id="circle133"/>
	<circle cx="470.073" cy="157.068" r="4" fill="#0" id="circle134"/>
	<circle cx="470.073" cy="271.869" r="4" fill="#0" id="circle135"/>
	<circle cx="472.036" cy="740.886" r="4" fill="#0" id="circle136"/>
	<circle cx="474.979" cy="40.3046" r="4" fill="#0" id="circle137"/>
	<circle cx="474.979" cy="165.899" r="4" fill="#0" id="circle138"/>
	<circle cx="474.979" cy="175.711" r="4" fill="#0" id="circle139"/>
	<circle cx="474.979" cy="185.523" r="4" fill="#0" id="circle140"/>
	<circle cx="474.979" cy="195.335" r="4" fill="#0" id="circle141"/>
	<circle cx="474.979" cy="205.147" r="4" fill="#0" id="circle142"/>
	<circle cx="474.979" cy="214.959" r="4" fill="#0" id="circle143"/>
	<circle cx="474.979" cy="224.772" r="4" fill="#0" id="circle144"/>
	<circle cx="474.979" cy="234.584" r="4" fill="#0" id="circle145"/>
	<circle cx="474.979" cy="244.396" r="4" fill="#0" id="circle146"/>
	<circle cx="474.979" cy="254.208" r="4" fill="#0" id="circle147"/>
	<circle cx="477.923" cy="13.8121" r="4" fill="#0" id="circle148"/>
	<circle cx="477.923" cy="111.933" r="4" fill="#0" id="circle149"/>
	<circle cx="479.885" cy="49.1355" r="4" fill="#0" id="circle150"/>
	<circle cx="481.848" cy="740.886" r="4" fill="#0" id="circle151"/>
	<circle cx="482.829" cy="58.9476" r="4" fill="#0" id="circle152"/>
	<circle cx="484.791" cy="68.7596" r="4" fill="#0" id="circle153"/>
	<circle cx="484.791" cy="78.5717" r="4" fill="#0" id="circle154"/>
	<circle cx="484.791" cy="88.3838" r="4" fill="#0" id="circle155"/>
	<circle cx="484.791" cy="98.1958" r="4" fill="#0" id="circle156"/>
	<circle cx="486.754" cy="8.90603" r="4" fill="#0" id="circle157"/>
	<circle cx="491.66" cy="740.886" r="4" fill="#0" id="circle158"/>
	<circle cx="496.566" cy="8.90603" r="4" fill="#0" id="circle159"/>
	<circle cx="501.472" cy="740.886" r="4" fill="#0" id="circle160"/>
	<circle cx="506.378" cy="8.90603" r="4" fill="#0" id="circle161"/>
	<circle cx="511.284" cy="740.886" r="4" fill="#0" id="circle162"/>
	<circle cx="515.209" cy="4" r="4" fill="#0" id="circle163"/>
	<circle cx="521.096" cy="740.886" r="4" fill="#0" id="circle164"/>
	<circle cx="523.058" cy="9.88724" r="4" fill="#0" id="circle165"/>
	<circle cx="529.927" cy="17.7369" r="4" fill="#0" id="circle166"/>
	<circle cx="529.927" cy="27.549" r="4" fill="#0" id="circle167"/>
	<circle cx="529.927" cy="37.361" r="4" fill="#0" id="circle168"/>
	<circle cx="529.927" cy="47.1731" r="4" fill="#0" id="circle169"/>
	<circle cx="529.927" cy="56.9852" r="4" fill="#0" id="circle170"/>
	<circle cx="529.927" cy="66.7972" r="4" fill="#0" id="circle171"/>
	<circle cx="529.927" cy="76.6093" r="4" fill="#0" id="circle172"/>
	<circle cx="529.927" cy="86.4214" r="4" fill="#0" id="circle173"/>
	<circle cx="530.908" cy="740.886" r="4" fill="#0" id="circle174"/>
	<circle cx="534.833" cy="95.2522" r="4" fill="#0" id="circle175"/>
	<circle cx="534.833" cy="105.064" r="4" fill="#0" id="circle176"/>
	<circle cx="534.833" cy="114.876" r="4" fill="#0" id="circle177"/>
	<circle cx="539.739" cy="171.786" r="4" fill="#0" id="circle178"/>
	<circle cx="539.739" cy="181.598" r="4" fill="#0" id="circle179"/>
	<circle cx="539.739" cy="191.41" r="4" fill="#0" id="circle180"/>
	<circle cx="539.739" cy="201.223" r="4" fill="#0" id="circle181"/>
	<circle cx="540.72" cy="740.886" r="4" fill="#0" id="circle182"/>
	<circle cx="544.645" cy="116.839" r="4" fill="#0" id="circle183"/>
	<circle cx="544.645" cy="210.053" r="4" fill="#0" id="circle184"/>
	<circle cx="544.645" cy="219.865" r="4" fill="#0" id="circle185"/>
	<circle cx="544.645" cy="229.678" r="4" fill="#0" id="circle186"/>
	<circle cx="544.645" cy="239.49" r="4" fill="#0" id="circle187"/>
	<circle cx="544.645" cy="249.302" r="4" fill="#0" id="circle188"/>
	<circle cx="544.645" cy="259.114" r="4" fill="#0" id="circle189"/>
	<circle cx="548.57" cy="166.88" r="4" fill="#0" id="circle190"/>
	<circle cx="549.551" cy="267.945" r="4" fill="#0" id="circle191"/>
	<circle cx="549.551" cy="277.757" r="4" fill="#0" id="circle192"/>
	<circle cx="549.551" cy="287.569" r="4" fill="#0" id="circle193"/>
	<circle cx="550.532" cy="740.886" r="4" fill="#0" id="circle194"/>
	<circle cx="554.457" cy="116.839" r="4" fill="#0" id="circle195"/>
	<circle cx="554.457" cy="296.4" r="4" fill="#0" id="circle196"/>
	<circle cx="554.457" cy="306.212" r="4" fill="#0" id="circle197"/>
	<circle cx="554.457" cy="316.024" r="4" fill="#0" id="circle198"/>
	<circle cx="554.457" cy="325.836" r="4" fill="#0" id="circle199"/>
	<circle cx="554.457" cy="335.648" r="4" fill="#0" id="circle200"/>
	<circle cx="554.457" cy="345.46" r="4" fill="#0" id="circle201"/>
	<circle cx="557.401" cy="161.974" r="4" fill="#0" id="circle202"/>
	<circle cx="560.344" cy="740.886" r="4" fill="#0" id="circle203"/>
	<circle cx="562.307" cy="352.328" r="4" fill="#0" id="circle204"/>
	<circle cx="564.269" cy="116.839" r="4" fill="#0" id="circle205"/>
	<circle cx="566.231" cy="157.068" r="4" fill="#0" id="circle206"/>
	<circle cx="570.156" cy="743.83" r="4" fill="#0" id="circle207"/>
	<circle cx="572.119" cy="353.31" r="4" fill="#0" id="circle208"/>
	<circle cx="574.081" cy="116.839" r="4" fill="#0" id="circle209"/>
	<circle cx="576.044" cy="156.087" r="4" fill="#0" id="circle210"/>
	<circle cx="579.968" cy="745.792" r="4" fill="#0" id="circle211"/>
	<circle cx="581.931" cy="357.234" r="4" fill="#0" id="circle212"/>
	<circle cx="583.893" cy="116.839" r="4" fill="#0" id="circle213"/>
	<circle cx="585.856" cy="151.181" r="4" fill="#0" id="circle214"/>
	<circle cx="589.78" cy="745.792" r="4" fill="#0" id="circle215"/>
	<circle cx="591.743" cy="358.216" r="4" fill="#0" id="circle216"/>
	<circle cx="593.705" cy="116.839" r="4" fill="#0" id="circle217"/>
	<circle cx="595.668" cy="147.256" r="4" fill="#0" id="circle218"/>
	<circle cx="599.592" cy="745.792" r="4" fill="#0" id="circle219"/>
	<circle cx="601.555" cy="362.14" r="4" fill="#0" id="circle220"/>
	<circle cx="603.517" cy="113.895" r="4" fill="#0" id="circle221"/>
	<circle cx="605.48" cy="147.256" r="4" fill="#0" id="circle222"/>
	<circle cx="609.405" cy="745.792" r="4" fill="#0" id="circle223"/>
	<circle cx="610.386" cy="367.046" r="4" fill="#0" id="circle224"/>
	<circle cx="613.329" cy="111.933" r="4" fill="#0" id="circle225"/>
	<circle cx="614.311" cy="142.35" r="4" fill="#0" id="circle226"/>
	<circle cx="619.217" cy="371.953" r="4" fill="#0" id="circle227"/>
	<circle cx="619.217" cy="745.792" r="4" fill="#0" id="circle228"/>
	<circle cx="623.141" cy="111.933" r="4" fill="#0" id="circle229"/>
	<circle cx="624.123" cy="142.35" r="4" fill="#0" id="circle230"/>
	<circle cx="629.029" cy="371.953" r="4" fill="#0" id="circle231"/>
	<circle cx="629.029" cy="745.792" r="4" fill="#0" id="circle232"/>
	<circle cx="632.954" cy="111.933" r="4" fill="#0" id="circle233"/>
	<circle cx="632.954" cy="137.444" r="4" fill="#0" id="circle234"/>
	<circle cx="638.841" cy="371.953" r="4" fill="#0" id="circle235"/>
	<circle cx="638.841" cy="745.792" r="4" fill="#0" id="circle236"/>
	<circle cx="642.766" cy="111.933" r="4" fill="#0" id="circle237"/>
	<circle cx="642.766" cy="132.538" r="4" fill="#0" id="circle238"/>
	<circle cx="648.653" cy="371.953" r="4" fill="#0" id="circle239"/>
	<circle cx="648.653" cy="745.792" r="4" fill="#0" id="circle240"/>
	<circle cx="650.615" cy="117.82" r="4" fill="#0" id="circle241"/>
	<circle cx="652.578" cy="127.632" r="4" fill="#0" id="circle242"/>
	<circle cx="657.484" cy="376.859" r="4" fill="#0" id="circle243"/>
	<circle cx="658.465" cy="745.792" r="4" fill="#0" id="circle244"/>
	<circle cx="667.296" cy="376.859" r="4" fill="#0" id="circle245"/>
	<circle cx="668.277" cy="745.792" r="4" fill="#0" id="circle246"/>
	<circle cx="676.127" cy="381.765" r="4" fill="#0" id="circle247"/>
	<circle cx="678.089" cy="745.792" r="4" fill="#0" id="circle248"/>
	<circle cx="685.939" cy="381.765" r="4" fill="#0" id="circle249"/>
	<circle cx="687.901" cy="745.792" r="4" fill="#0" id="circle250"/>
	<circle cx="695.751" cy="381.765" r="4" fill="#0" id="circle251"/>
	<circle cx="697.713" cy="745.792" r="4" fill="#0" id="circle252"/>
	<circle cx="704.582" cy="386.671" r="4" fill="#0" id="circle253"/>
	<circle cx="706.544" cy="740.886" r="4" fill="#0" id="circle254"/>
	<circle cx="714.394" cy="386.671" r="4" fill="#0" id="circle255"/>
	<circle cx="716.356" cy="740.886" r="4" fill="#0" id="circle256"/>
	<circle cx="724.206" cy="386.671" r="4" fill="#0" id="circle257"/>
	<circle cx="725.187" cy="735.98" r="4" fill="#0" id="circle258"/>
	<circle cx="734.018" cy="386.671" r="4" fill="#0" id="circle259"/>
	<circle cx="734.999" cy="733.037" r="4" fill="#0" id="circle260"/>
	<circle cx="743.83" cy="386.671" r="4" fill="#0" id="circle261"/>
	<circle cx="744.811" cy="728.131" r="4" fill="#0" id="circle262"/>
	<circle cx="753.642" cy="386.671" r="4" fill="#0" id="circle263"/>
	<circle cx="754.623" cy="723.225" r="4" fill="#0" id="circle264"/>
	<circle cx="763.454" cy="386.671" r="4" fill="#0" id="circle265"/>
	<circle cx="764.435" cy="721.262" r="4" fill="#0" id="circle266"/>
	<circle cx="773.266" cy="386.671" r="4" fill="#0" id="circle267"/>
	<circle cx="774.247" cy="718.318" r="4" fill="#0" id="circle268"/>
	<circle cx="783.078" cy="386.671" r="4" fill="#0" id="circle269"/>
	<circle cx="784.059" cy="713.412" r="4" fill="#0" id="circle270"/>
	<circle cx="792.89" cy="386.671" r="4" fill="#0" id="circle271"/>
	<circle cx="793.871" cy="711.45" r="4" fill="#0" id="circle272"/>
	<circle cx="801.721" cy="391.577" r="4" fill="#0" id="circle273"/>
	<circle cx="802.702" cy="706.544" r="4" fill="#0" id="circle274"/>
	<circle cx="810.552" cy="396.483" r="4" fill="#0" id="circle275"/>
	<circle cx="812.514" cy="706.544" r="4" fill="#0" id="circle276"/>
	<circle cx="818.402" cy="403.351" r="4" fill="#0" id="circle277"/>
	<circle cx="822.326" cy="413.163" r="4" fill="#0" id="circle278"/>
	<circle cx="822.326" cy="704.582" r="4" fill="#0" id="circle279"/>
	<circle cx="827.232" cy="421.994" r="4" fill="#0" id="circle280"/>
	<circle cx="831.157" cy="431.806" r="4" fill="#0" id="circle281"/>
	<circle cx="832.138" cy="701.638" r="4" fill="#0" id="circle282"/>
	<circle cx="834.101" cy="441.618" r="4" fill="#0" id="circle283"/>
	<circle cx="834.101" cy="451.43" r="4" fill="#0" id="circle284"/>
	<circle cx="836.063" cy="461.242" r="4" fill="#0" id="circle285"/>
	<circle cx="840.969" cy="696.732" r="4" fill="#0" id="circle286"/>
	<circle cx="845.875" cy="465.167" r="4" fill="#0" id="circle287"/>
	<circle cx="849.8" cy="691.826" r="4" fill="#0" id="circle288"/>
	<circle cx="855.687" cy="465.167" r="4" fill="#0" id="circle289"/>
	<circle cx="857.65" cy="683.976" r="4" fill="#0" id="circle290"/>
	<circle cx="864.518" cy="470.073" r="4" fill="#0" id="circle291"/>
	<circle cx="865.5" cy="677.108" r="4" fill="#0" id="circle292"/>
	<circle cx="874.33" cy="470.073" r="4" fill="#0" id="circle293"/>
	<circle cx="874.33" cy="672.202" r="4" fill="#0" id="circle294"/>
	<circle cx="883.161" cy="474.979" r="4" fill="#0" id="circle295"/>
	<circle cx="883.161" cy="667.296" r="4" fill="#0" id="circle296"/>
	<circle cx="892.973" cy="474.979" r="4" fill="#0" id="circle297"/>
	<circle cx="892.973" cy="662.39" r="4" fill="#0" id="circle298"/>
	<circle cx="901.804" cy="479.885" r="4" fill="#0" id="circle299"/>
	<circle cx="902.785" cy="657.484" r="4" fill="#0" id="circle300"/>
	<circle cx="909.654" cy="485.773" r="4" fill="#0" id="circle301"/>
	<circle cx="912.597" cy="652.578" r="4" fill="#0" id="circle302"/>
	<circle cx="917.503" cy="492.641" r="4" fill="#0" id="circle303"/>
	<circle cx="922.409" cy="647.672" r="4" fill="#0" id="circle304"/>
	<circle cx="926.334" cy="497.547" r="4" fill="#0" id="circle305"/>
	<circle cx="932.222" cy="642.766" r="4" fill="#0" id="circle306"/>
	<circle cx="936.146" cy="501.472" r="4" fill="#0" id="circle307"/>
	<circle cx="942.034" cy="509.321" r="4" fill="#0" id="circle308"/>
	<circle cx="942.034" cy="637.86" r="4" fill="#0" id="circle309"/>
	<circle cx="951.846" cy="512.265" r="4" fill="#0" id="circle310"/>
	<circle cx="951.846" cy="637.86" r="4" fill="#0" id="circle311"/>
	<circle cx="958.714" cy="520.115" r="4" fill="#0" id="circle312"/>
	<circle cx="960.677" cy="632.954" r="4" fill="#0" id="circle313"/>
	<circle cx="966.564" cy="526.983" r="4" fill="#0" id="circle314"/>
	<circle cx="969.507" cy="628.047" r="4" fill="#0" id="circle315"/>
	<circle cx="973.432" cy="534.833" r="4" fill="#0" id="circle316"/>
	<circle cx="978.338" cy="622.16" r="4" fill="#0" id="circle317"/>
	<circle cx="983.244" cy="538.758" r="4" fill="#0" id="circle318"/>
	<circle cx="986.188" cy="608.423" r="4" fill="#0" id="circle319"/>
	<circle cx="990.113" cy="546.607" r="4" fill="#0" id="circle320"/>
	<circle cx="991.094" cy="598.611" r="4" fill="#0" id="circle321"/>
	<circle cx="996" cy="554.457" r="4" fill="#0" id="circle322"/>
	<circle cx="996" cy="564.269" r="4" fill="#0" id="circle323"/>
	<circle cx="996" cy="574.081" r="4" fill="#0" id="circle324"/>
	<circle cx="996" cy="583.893" r="4" fill="#0" id="circle325"/>
	</g>
</svg>