<?xml version="1.0" encoding="UTF-8" standalone="no"?>
<!-- Created with CurveBenchmark -->
<svg
	xmlns:dc="http://purl.org/dc/elements/1.1/"
	xmlns:cc="http://creativecommons.org/ns#"
	xmlns:rdf="http://www.w3.org/1999/02/22-rdf-syntax-ns#"
	xmlns:svg="http://www.w3.org/2000/svg"
	xmlns="http://www.w3.org/2000/svg"
	xmlns:sodipodi="http://sodipodi.sourceforge.net/DTD/sodipodi-0.dtd"
	xmlns:inkscape="http://www.inkscape.org/namespaces/inkscape"
	width="1000"
	height="1000"
	id="svg2"
	version="1.1"
	sodipodi:docname="manifold/crawl-chopper-05.png.txt">
<defs
	id="defs4" />
<metadata
	id="metadata7">
	<rdf:RDF>
		<cc:Work
			rdf:about="">
			<dc:format>image/svg+xml</dc:format>
			<dc:type
				rdf:resource="http://purl.org/dc/dcmitype/StillImage" />
			<dc:title></dc:title>
		</cc:Work>
	</rdf:RDF>
</metadata>
<g
	inkscape:label="Layer 1"
	inkscape:groupmode="layer"
	id="layer1">
	<path style="fill:none;stroke:red;stroke-width:1px;stroke-linecap:butt;stroke-linejoin:miter;stroke-opacity:1" d="M 4,715.023 4,725.747 z" id="boundary" inkscape:connector-curvature="0" />
	<path style="fill:none;stroke:red;stroke-width:1px;stroke-linecap:butt;stroke-linejoin:miter;stroke-opacity:1" d="M 4,725.747 9.36216,735.399 z" id="boundary" inkscape:connector-curvature="0" />
	<path style="fill:none;stroke:red;stroke-width:1px;stroke-linecap:butt;stroke-linejoin:miter;stroke-opacity:1" d="M 4,715.023 14.7243,711.805 z" id="boundary" inkscape:connector-curvature="0" />
	<path style="fill:none;stroke:red;stroke-width:1px;stroke-linecap:butt;stroke-linejoin:miter;stroke-opacity:1" d="M 14.7243,711.805 21.1589,720.385 z" id="boundary" inkscape:connector-curvature="0" />
	<path style="fill:none;stroke:red;stroke-width:1px;stroke-linecap:butt;stroke-linejoin:miter;stroke-opacity:1" d="M 21.1589,720.385 31.8832,722.53 z" id="boundary" inkscape:connector-curvature="0" />
	<path style="fill:none;stroke:red;stroke-width:1px;stroke-linecap:butt;stroke-linejoin:miter;stroke-opacity:1" d="M 31.8832,722.53 42.6076,722.53 z" id="boundary" inkscape:connector-curvature="0" />
	<path style="fill:none;stroke:red;stroke-width:1px;stroke-linecap:butt;stroke-linejoin:miter;stroke-opacity:1" d="M 42.6076,722.53 53.3319,722.53 z" id="boundary" inkscape:connector-curvature="0" />
	<path style="fill:none;stroke:red;stroke-width:1px;stroke-linecap:butt;stroke-linejoin:miter;stroke-opacity:1" d="M 53.3319,722.53 64.0562,722.53 z" id="boundary" inkscape:connector-curvature="0" />
	<path style="fill:none;stroke:red;stroke-width:1px;stroke-linecap:butt;stroke-linejoin:miter;stroke-opacity:1" d="M 64.0562,722.53 74.7805,722.53 z" id="boundary" inkscape:connector-curvature="0" />
	<path style="fill:none;stroke:red;stroke-width:1px;stroke-linecap:butt;stroke-linejoin:miter;stroke-opacity:1" d="M 74.7805,722.53 85.5049,722.53 z" id="boundary" inkscape:connector-curvature="0" />
	<path style="fill:none;stroke:red;stroke-width:1px;stroke-linecap:butt;stroke-linejoin:miter;stroke-opacity:1" d="M 85.5049,722.53 96.2292,722.53 z" id="boundary" inkscape:connector-curvature="0" />
	<path style="fill:none;stroke:red;stroke-width:1px;stroke-linecap:butt;stroke-linejoin:miter;stroke-opacity:1" d="M 96.2292,722.53 106.954,722.53 z" id="boundary" inkscape:connector-curvature="0" />
	<path style="fill:none;stroke:red;stroke-width:1px;stroke-linecap:butt;stroke-linejoin:miter;stroke-opacity:1" d="M 106.954,722.53 116.605,717.168 z" id="boundary" inkscape:connector-curvature="0" />
	<path style="fill:none;stroke:red;stroke-width:1px;stroke-linecap:butt;stroke-linejoin:miter;stroke-opacity:1" d="M 116.605,717.168 127.33,717.168 z" id="boundary" inkscape:connector-curvature="0" />
	<path style="fill:none;stroke:red;stroke-width:1px;stroke-linecap:butt;stroke-linejoin:miter;stroke-opacity:1" d="M 127.33,717.168 136.982,711.805 z" id="boundary" inkscape:connector-curvature="0" />
	<path style="fill:none;stroke:red;stroke-width:1px;stroke-linecap:butt;stroke-linejoin:miter;stroke-opacity:1" d="M 136.982,711.805 146.634,706.443 z" id="boundary" inkscape:connector-curvature="0" />
	<path style="fill:none;stroke:red;stroke-width:1px;stroke-linecap:butt;stroke-linejoin:miter;stroke-opacity:1" d="M 146.634,706.443 157.358,706.443 z" id="boundary" inkscape:connector-curvature="0" />
	<path style="fill:none;stroke:red;stroke-width:1px;stroke-linecap:butt;stroke-linejoin:miter;stroke-opacity:1" d="M 157.358,706.443 167.01,701.081 z" id="boundary" inkscape:connector-curvature="0" />
	<path style="fill:none;stroke:red;stroke-width:1px;stroke-linecap:butt;stroke-linejoin:miter;stroke-opacity:1" d="M 167.01,701.081 177.734,701.081 z" id="boundary" inkscape:connector-curvature="0" />
	<path style="fill:none;stroke:red;stroke-width:1px;stroke-linecap:butt;stroke-linejoin:miter;stroke-opacity:1" d="M 9.36216,735.399 16.8692,743.978 z" id="boundary" inkscape:connector-curvature="0" />
	<path style="fill:none;stroke:red;stroke-width:1px;stroke-linecap:butt;stroke-linejoin:miter;stroke-opacity:1" d="M 16.8692,743.978 27.5935,745.051 z" id="boundary" inkscape:connector-curvature="0" />
	<path style="fill:none;stroke:red;stroke-width:1px;stroke-linecap:butt;stroke-linejoin:miter;stroke-opacity:1" d="M 27.5935,745.051 38.3178,745.051 z" id="boundary" inkscape:connector-curvature="0" />
	<path style="fill:none;stroke:red;stroke-width:1px;stroke-linecap:butt;stroke-linejoin:miter;stroke-opacity:1" d="M 38.3178,745.051 49.0422,745.051 z" id="boundary" inkscape:connector-curvature="0" />
	<path style="fill:none;stroke:red;stroke-width:1px;stroke-linecap:butt;stroke-linejoin:miter;stroke-opacity:1" d="M 49.0422,745.051 59.7665,745.051 z" id="boundary" inkscape:connector-curvature="0" />
	<path style="fill:none;stroke:red;stroke-width:1px;stroke-linecap:butt;stroke-linejoin:miter;stroke-opacity:1" d="M 59.7665,745.051 70.4908,745.051 z" id="boundary" inkscape:connector-curvature="0" />
	<path style="fill:none;stroke:red;stroke-width:1px;stroke-linecap:butt;stroke-linejoin:miter;stroke-opacity:1" d="M 70.4908,745.051 81.2151,745.051 z" id="boundary" inkscape:connector-curvature="0" />
	<path style="fill:none;stroke:red;stroke-width:1px;stroke-linecap:butt;stroke-linejoin:miter;stroke-opacity:1" d="M 81.2151,745.051 91.9395,745.051 z" id="boundary" inkscape:connector-curvature="0" />
	<path style="fill:none;stroke:red;stroke-width:1px;stroke-linecap:butt;stroke-linejoin:miter;stroke-opacity:1" d="M 91.9395,745.051 102.664,745.051 z" id="boundary" inkscape:connector-curvature="0" />
	<path style="fill:none;stroke:red;stroke-width:1px;stroke-linecap:butt;stroke-linejoin:miter;stroke-opacity:1" d="M 102.664,745.051 113.388,745.051 z" id="boundary" inkscape:connector-curvature="0" />
	<path style="fill:none;stroke:red;stroke-width:1px;stroke-linecap:butt;stroke-linejoin:miter;stroke-opacity:1" d="M 113.388,745.051 124.112,745.051 z" id="boundary" inkscape:connector-curvature="0" />
	<path style="fill:none;stroke:red;stroke-width:1px;stroke-linecap:butt;stroke-linejoin:miter;stroke-opacity:1" d="M 124.112,745.051 134.837,745.051 z" id="boundary" inkscape:connector-curvature="0" />
	<path style="fill:none;stroke:red;stroke-width:1px;stroke-linecap:butt;stroke-linejoin:miter;stroke-opacity:1" d="M 134.837,745.051 145.561,745.051 z" id="boundary" inkscape:connector-curvature="0" />
	<path style="fill:none;stroke:red;stroke-width:1px;stroke-linecap:butt;stroke-linejoin:miter;stroke-opacity:1" d="M 145.561,745.051 155.213,739.689 z" id="boundary" inkscape:connector-curvature="0" />
	<path style="fill:none;stroke:red;stroke-width:1px;stroke-linecap:butt;stroke-linejoin:miter;stroke-opacity:1" d="M 155.213,739.689 165.937,739.689 z" id="boundary" inkscape:connector-curvature="0" />
	<path style="fill:none;stroke:red;stroke-width:1px;stroke-linecap:butt;stroke-linejoin:miter;stroke-opacity:1" d="M 165.937,739.689 176.662,734.326 z" id="boundary" inkscape:connector-curvature="0" />
	<path style="fill:none;stroke:red;stroke-width:1px;stroke-linecap:butt;stroke-linejoin:miter;stroke-opacity:1" d="M 176.662,734.326 187.386,734.326 z" id="boundary" inkscape:connector-curvature="0" />
	<path style="fill:none;stroke:red;stroke-width:1px;stroke-linecap:butt;stroke-linejoin:miter;stroke-opacity:1" d="M 187.386,734.326 198.11,728.964 z" id="boundary" inkscape:connector-curvature="0" />
	<path style="fill:none;stroke:red;stroke-width:1px;stroke-linecap:butt;stroke-linejoin:miter;stroke-opacity:1" d="M 198.11,728.964 208.835,728.964 z" id="boundary" inkscape:connector-curvature="0" />
	<path style="fill:none;stroke:red;stroke-width:1px;stroke-linecap:butt;stroke-linejoin:miter;stroke-opacity:1" d="M 208.835,728.964 219.559,723.602 z" id="boundary" inkscape:connector-curvature="0" />
	<path style="fill:none;stroke:red;stroke-width:1px;stroke-linecap:butt;stroke-linejoin:miter;stroke-opacity:1" d="M 219.559,723.602 230.283,723.602 z" id="boundary" inkscape:connector-curvature="0" />
	<path style="fill:none;stroke:red;stroke-width:1px;stroke-linecap:butt;stroke-linejoin:miter;stroke-opacity:1" d="M 230.283,723.602 241.008,718.24 z" id="boundary" inkscape:connector-curvature="0" />
	<path style="fill:none;stroke:red;stroke-width:1px;stroke-linecap:butt;stroke-linejoin:miter;stroke-opacity:1" d="M 241.008,718.24 251.732,718.24 z" id="boundary" inkscape:connector-curvature="0" />
	<path style="fill:none;stroke:red;stroke-width:1px;stroke-linecap:butt;stroke-linejoin:miter;stroke-opacity:1" d="M 251.732,718.24 262.456,718.24 z" id="boundary" inkscape:connector-curvature="0" />
	<path style="fill:none;stroke:red;stroke-width:1px;stroke-linecap:butt;stroke-linejoin:miter;stroke-opacity:1" d="M 262.456,718.24 272.108,712.878 z" id="boundary" inkscape:connector-curvature="0" />
	<path style="fill:none;stroke:red;stroke-width:1px;stroke-linecap:butt;stroke-linejoin:miter;stroke-opacity:1" d="M 272.108,712.878 282.832,712.878 z" id="boundary" inkscape:connector-curvature="0" />
	<path style="fill:none;stroke:red;stroke-width:1px;stroke-linecap:butt;stroke-linejoin:miter;stroke-opacity:1" d="M 282.832,712.878 293.557,709.661 z" id="boundary" inkscape:connector-curvature="0" />
	<path style="fill:none;stroke:red;stroke-width:1px;stroke-linecap:butt;stroke-linejoin:miter;stroke-opacity:1" d="M 293.557,709.661 304.281,707.516 z" id="boundary" inkscape:connector-curvature="0" />
	<path style="fill:none;stroke:red;stroke-width:1px;stroke-linecap:butt;stroke-linejoin:miter;stroke-opacity:1" d="M 304.281,707.516 315.005,704.298 z" id="boundary" inkscape:connector-curvature="0" />
	<path style="fill:none;stroke:red;stroke-width:1px;stroke-linecap:butt;stroke-linejoin:miter;stroke-opacity:1" d="M 315.005,704.298 325.73,702.154 z" id="boundary" inkscape:connector-curvature="0" />
	<path style="fill:none;stroke:red;stroke-width:1px;stroke-linecap:butt;stroke-linejoin:miter;stroke-opacity:1" d="M 325.73,702.154 336.454,702.154 z" id="boundary" inkscape:connector-curvature="0" />
	<path style="fill:none;stroke:red;stroke-width:1px;stroke-linecap:butt;stroke-linejoin:miter;stroke-opacity:1" d="M 336.454,702.154 347.178,698.936 z" id="boundary" inkscape:connector-curvature="0" />
	<path style="fill:none;stroke:red;stroke-width:1px;stroke-linecap:butt;stroke-linejoin:miter;stroke-opacity:1" d="M 347.178,698.936 357.903,696.791 z" id="boundary" inkscape:connector-curvature="0" />
	<path style="fill:none;stroke:red;stroke-width:1px;stroke-linecap:butt;stroke-linejoin:miter;stroke-opacity:1" d="M 357.903,696.791 368.627,696.791 z" id="boundary" inkscape:connector-curvature="0" />
	<path style="fill:none;stroke:red;stroke-width:1px;stroke-linecap:butt;stroke-linejoin:miter;stroke-opacity:1" d="M 368.627,696.791 379.351,693.574 z" id="boundary" inkscape:connector-curvature="0" />
	<path style="fill:none;stroke:red;stroke-width:1px;stroke-linecap:butt;stroke-linejoin:miter;stroke-opacity:1" d="M 379.351,693.574 390.076,691.429 z" id="boundary" inkscape:connector-curvature="0" />
	<path style="fill:none;stroke:red;stroke-width:1px;stroke-linecap:butt;stroke-linejoin:miter;stroke-opacity:1" d="M 390.076,691.429 400.8,691.429 z" id="boundary" inkscape:connector-curvature="0" />
	<path style="fill:none;stroke:red;stroke-width:1px;stroke-linecap:butt;stroke-linejoin:miter;stroke-opacity:1" d="M 400.8,691.429 411.524,688.212 z" id="boundary" inkscape:connector-curvature="0" />
	<path style="fill:none;stroke:red;stroke-width:1px;stroke-linecap:butt;stroke-linejoin:miter;stroke-opacity:1" d="M 411.524,688.212 422.249,686.067 z" id="boundary" inkscape:connector-curvature="0" />
	<path style="fill:none;stroke:red;stroke-width:1px;stroke-linecap:butt;stroke-linejoin:miter;stroke-opacity:1" d="M 422.249,686.067 432.973,682.85 z" id="boundary" inkscape:connector-curvature="0" />
	<path style="fill:none;stroke:red;stroke-width:1px;stroke-linecap:butt;stroke-linejoin:miter;stroke-opacity:1" d="M 432.973,682.85 441.552,674.27 z" id="boundary" inkscape:connector-curvature="0" />
	<path style="fill:none;stroke:red;stroke-width:1px;stroke-linecap:butt;stroke-linejoin:miter;stroke-opacity:1" d="M 441.552,674.27 444.77,659.256 z" id="boundary" inkscape:connector-curvature="0" />
	<path style="fill:none;stroke:red;stroke-width:1px;stroke-linecap:butt;stroke-linejoin:miter;stroke-opacity:1" d="M 444.77,659.256 444.77,648.532 z" id="boundary" inkscape:connector-curvature="0" />
	<path style="fill:none;stroke:red;stroke-width:1px;stroke-linecap:butt;stroke-linejoin:miter;stroke-opacity:1" d="M 444.77,648.532 444.77,637.808 z" id="boundary" inkscape:connector-curvature="0" />
	<path style="fill:none;stroke:red;stroke-width:1px;stroke-linecap:butt;stroke-linejoin:miter;stroke-opacity:1" d="M 444.77,637.808 455.494,632.445 z" id="boundary" inkscape:connector-curvature="0" />
	<path style="fill:none;stroke:red;stroke-width:1px;stroke-linecap:butt;stroke-linejoin:miter;stroke-opacity:1" d="M 455.494,632.445 466.218,632.445 z" id="boundary" inkscape:connector-curvature="0" />
	<path style="fill:none;stroke:red;stroke-width:1px;stroke-linecap:butt;stroke-linejoin:miter;stroke-opacity:1" d="M 466.218,632.445 476.943,632.445 z" id="boundary" inkscape:connector-curvature="0" />
	<path style="fill:none;stroke:red;stroke-width:1px;stroke-linecap:butt;stroke-linejoin:miter;stroke-opacity:1" d="M 476.943,632.445 487.667,632.445 z" id="boundary" inkscape:connector-curvature="0" />
	<path style="fill:none;stroke:red;stroke-width:1px;stroke-linecap:butt;stroke-linejoin:miter;stroke-opacity:1" d="M 487.667,632.445 498.391,632.445 z" id="boundary" inkscape:connector-curvature="0" />
	<path style="fill:none;stroke:red;stroke-width:1px;stroke-linecap:butt;stroke-linejoin:miter;stroke-opacity:1" d="M 498.391,632.445 509.116,632.445 z" id="boundary" inkscape:connector-curvature="0" />
	<path style="fill:none;stroke:red;stroke-width:1px;stroke-linecap:butt;stroke-linejoin:miter;stroke-opacity:1" d="M 509.116,632.445 518.768,627.083 z" id="boundary" inkscape:connector-curvature="0" />
	<path style="fill:none;stroke:red;stroke-width:1px;stroke-linecap:butt;stroke-linejoin:miter;stroke-opacity:1" d="M 518.768,627.083 529.492,627.083 z" id="boundary" inkscape:connector-curvature="0" />
	<path style="fill:none;stroke:red;stroke-width:1px;stroke-linecap:butt;stroke-linejoin:miter;stroke-opacity:1" d="M 529.492,627.083 540.216,627.083 z" id="boundary" inkscape:connector-curvature="0" />
	<path style="fill:none;stroke:red;stroke-width:1px;stroke-linecap:butt;stroke-linejoin:miter;stroke-opacity:1" d="M 540.216,627.083 550.941,627.083 z" id="boundary" inkscape:connector-curvature="0" />
	<path style="fill:none;stroke:red;stroke-width:1px;stroke-linecap:butt;stroke-linejoin:miter;stroke-opacity:1" d="M 550.941,627.083 561.665,627.083 z" id="boundary" inkscape:connector-curvature="0" />
	<path style="fill:none;stroke:red;stroke-width:1px;stroke-linecap:butt;stroke-linejoin:miter;stroke-opacity:1" d="M 561.665,627.083 572.389,623.866 z" id="boundary" inkscape:connector-curvature="0" />
	<path style="fill:none;stroke:red;stroke-width:1px;stroke-linecap:butt;stroke-linejoin:miter;stroke-opacity:1" d="M 572.389,623.866 583.114,621.721 z" id="boundary" inkscape:connector-curvature="0" />
	<path style="fill:none;stroke:red;stroke-width:1px;stroke-linecap:butt;stroke-linejoin:miter;stroke-opacity:1" d="M 583.114,621.721 593.838,618.504 z" id="boundary" inkscape:connector-curvature="0" />
	<path style="fill:none;stroke:red;stroke-width:1px;stroke-linecap:butt;stroke-linejoin:miter;stroke-opacity:1" d="M 593.838,618.504 604.562,616.359 z" id="boundary" inkscape:connector-curvature="0" />
	<path style="fill:none;stroke:red;stroke-width:1px;stroke-linecap:butt;stroke-linejoin:miter;stroke-opacity:1" d="M 604.562,616.359 615.286,613.142 z" id="boundary" inkscape:connector-curvature="0" />
	<path style="fill:none;stroke:red;stroke-width:1px;stroke-linecap:butt;stroke-linejoin:miter;stroke-opacity:1" d="M 615.286,613.142 626.011,610.997 z" id="boundary" inkscape:connector-curvature="0" />
	<path style="fill:none;stroke:red;stroke-width:1px;stroke-linecap:butt;stroke-linejoin:miter;stroke-opacity:1" d="M 626.011,610.997 636.735,610.997 z" id="boundary" inkscape:connector-curvature="0" />
	<path style="fill:none;stroke:red;stroke-width:1px;stroke-linecap:butt;stroke-linejoin:miter;stroke-opacity:1" d="M 636.735,610.997 647.459,610.997 z" id="boundary" inkscape:connector-curvature="0" />
	<path style="fill:none;stroke:red;stroke-width:1px;stroke-linecap:butt;stroke-linejoin:miter;stroke-opacity:1" d="M 647.459,610.997 657.111,605.635 z" id="boundary" inkscape:connector-curvature="0" />
	<path style="fill:none;stroke:red;stroke-width:1px;stroke-linecap:butt;stroke-linejoin:miter;stroke-opacity:1" d="M 657.111,605.635 667.836,605.635 z" id="boundary" inkscape:connector-curvature="0" />
	<path style="fill:none;stroke:red;stroke-width:1px;stroke-linecap:butt;stroke-linejoin:miter;stroke-opacity:1" d="M 667.836,605.635 678.56,605.635 z" id="boundary" inkscape:connector-curvature="0" />
	<path style="fill:none;stroke:red;stroke-width:1px;stroke-linecap:butt;stroke-linejoin:miter;stroke-opacity:1" d="M 678.56,605.635 689.284,605.635 z" id="boundary" inkscape:connector-curvature="0" />
	<path style="fill:none;stroke:red;stroke-width:1px;stroke-linecap:butt;stroke-linejoin:miter;stroke-opacity:1" d="M 689.284,605.635 698.936,600.272 z" id="boundary" inkscape:connector-curvature="0" />
	<path style="fill:none;stroke:red;stroke-width:1px;stroke-linecap:butt;stroke-linejoin:miter;stroke-opacity:1" d="M 698.936,600.272 709.661,600.272 z" id="boundary" inkscape:connector-curvature="0" />
	<path style="fill:none;stroke:red;stroke-width:1px;stroke-linecap:butt;stroke-linejoin:miter;stroke-opacity:1" d="M 709.661,600.272 720.385,600.272 z" id="boundary" inkscape:connector-curvature="0" />
	<path style="fill:none;stroke:red;stroke-width:1px;stroke-linecap:butt;stroke-linejoin:miter;stroke-opacity:1" d="M 720.385,600.272 731.109,600.272 z" id="boundary" inkscape:connector-curvature="0" />
	<path style="fill:none;stroke:red;stroke-width:1px;stroke-linecap:butt;stroke-linejoin:miter;stroke-opacity:1" d="M 731.109,600.272 741.834,599.2 z" id="boundary" inkscape:connector-curvature="0" />
	<path style="fill:none;stroke:red;stroke-width:1px;stroke-linecap:butt;stroke-linejoin:miter;stroke-opacity:1" d="M 741.834,599.2 752.558,594.91 z" id="boundary" inkscape:connector-curvature="0" />
	<path style="fill:none;stroke:red;stroke-width:1px;stroke-linecap:butt;stroke-linejoin:miter;stroke-opacity:1" d="M 752.558,594.91 763.282,593.838 z" id="boundary" inkscape:connector-curvature="0" />
	<path style="fill:none;stroke:red;stroke-width:1px;stroke-linecap:butt;stroke-linejoin:miter;stroke-opacity:1" d="M 763.282,593.838 774.006,588.476 z" id="boundary" inkscape:connector-curvature="0" />
	<path style="fill:none;stroke:red;stroke-width:1px;stroke-linecap:butt;stroke-linejoin:miter;stroke-opacity:1" d="M 774.006,588.476 777.224,572.389 z" id="boundary" inkscape:connector-curvature="0" />
	<path style="fill:none;stroke:red;stroke-width:1px;stroke-linecap:butt;stroke-linejoin:miter;stroke-opacity:1" d="M 777.224,572.389 777.224,561.665 z" id="boundary" inkscape:connector-curvature="0" />
	<path style="fill:none;stroke:red;stroke-width:1px;stroke-linecap:butt;stroke-linejoin:miter;stroke-opacity:1" d="M 777.224,561.665 771.862,552.013 z" id="boundary" inkscape:connector-curvature="0" />
	<path style="fill:none;stroke:red;stroke-width:1px;stroke-linecap:butt;stroke-linejoin:miter;stroke-opacity:1" d="M 771.862,552.013 771.862,541.289 z" id="boundary" inkscape:connector-curvature="0" />
	<path style="fill:none;stroke:red;stroke-width:1px;stroke-linecap:butt;stroke-linejoin:miter;stroke-opacity:1" d="M 771.862,541.289 769.717,530.564 z" id="boundary" inkscape:connector-curvature="0" />
	<path style="fill:none;stroke:red;stroke-width:1px;stroke-linecap:butt;stroke-linejoin:miter;stroke-opacity:1" d="M 769.717,530.564 761.137,524.13 z" id="boundary" inkscape:connector-curvature="0" />
	<path style="fill:none;stroke:red;stroke-width:1px;stroke-linecap:butt;stroke-linejoin:miter;stroke-opacity:1" d="M 761.137,524.13 755.775,514.478 z" id="boundary" inkscape:connector-curvature="0" />
	<path style="fill:none;stroke:red;stroke-width:1px;stroke-linecap:butt;stroke-linejoin:miter;stroke-opacity:1" d="M 755.775,514.478 752.558,503.754 z" id="boundary" inkscape:connector-curvature="0" />
	<path style="fill:none;stroke:red;stroke-width:1px;stroke-linecap:butt;stroke-linejoin:miter;stroke-opacity:1" d="M 752.558,503.754 745.051,495.174 z" id="boundary" inkscape:connector-curvature="0" />
	<path style="fill:none;stroke:red;stroke-width:1px;stroke-linecap:butt;stroke-linejoin:miter;stroke-opacity:1" d="M 745.051,495.174 734.326,491.957 z" id="boundary" inkscape:connector-curvature="0" />
	<path style="fill:none;stroke:red;stroke-width:1px;stroke-linecap:butt;stroke-linejoin:miter;stroke-opacity:1" d="M 734.326,491.957 723.602,491.957 z" id="boundary" inkscape:connector-curvature="0" />
	<path style="fill:none;stroke:red;stroke-width:1px;stroke-linecap:butt;stroke-linejoin:miter;stroke-opacity:1" d="M 723.602,491.957 712.878,491.957 z" id="boundary" inkscape:connector-curvature="0" />
	<path style="fill:none;stroke:red;stroke-width:1px;stroke-linecap:butt;stroke-linejoin:miter;stroke-opacity:1" d="M 712.878,491.957 707.516,482.305 z" id="boundary" inkscape:connector-curvature="0" />
	<path style="fill:none;stroke:red;stroke-width:1px;stroke-linecap:butt;stroke-linejoin:miter;stroke-opacity:1" d="M 707.516,482.305 707.516,471.581 z" id="boundary" inkscape:connector-curvature="0" />
	<path style="fill:none;stroke:red;stroke-width:1px;stroke-linecap:butt;stroke-linejoin:miter;stroke-opacity:1" d="M 707.516,471.581 717.168,466.218 z" id="boundary" inkscape:connector-curvature="0" />
	<path style="fill:none;stroke:red;stroke-width:1px;stroke-linecap:butt;stroke-linejoin:miter;stroke-opacity:1" d="M 717.168,466.218 727.892,466.218 z" id="boundary" inkscape:connector-curvature="0" />
	<path style="fill:none;stroke:red;stroke-width:1px;stroke-linecap:butt;stroke-linejoin:miter;stroke-opacity:1" d="M 727.892,466.218 738.616,463.001 z" id="boundary" inkscape:connector-curvature="0" />
	<path style="fill:none;stroke:red;stroke-width:1px;stroke-linecap:butt;stroke-linejoin:miter;stroke-opacity:1" d="M 738.616,463.001 749.341,457.639 z" id="boundary" inkscape:connector-curvature="0" />
	<path style="fill:none;stroke:red;stroke-width:1px;stroke-linecap:butt;stroke-linejoin:miter;stroke-opacity:1" d="M 749.341,457.639 760.065,452.277 z" id="boundary" inkscape:connector-curvature="0" />
	<path style="fill:none;stroke:red;stroke-width:1px;stroke-linecap:butt;stroke-linejoin:miter;stroke-opacity:1" d="M 760.065,452.277 770.789,446.915 z" id="boundary" inkscape:connector-curvature="0" />
	<path style="fill:none;stroke:red;stroke-width:1px;stroke-linecap:butt;stroke-linejoin:miter;stroke-opacity:1" d="M 770.789,446.915 779.369,438.335 z" id="boundary" inkscape:connector-curvature="0" />
	<path style="fill:none;stroke:red;stroke-width:1px;stroke-linecap:butt;stroke-linejoin:miter;stroke-opacity:1" d="M 779.369,438.335 787.948,428.683 z" id="boundary" inkscape:connector-curvature="0" />
	<path style="fill:none;stroke:red;stroke-width:1px;stroke-linecap:butt;stroke-linejoin:miter;stroke-opacity:1" d="M 787.948,428.683 798.672,423.321 z" id="boundary" inkscape:connector-curvature="0" />
	<path style="fill:none;stroke:red;stroke-width:1px;stroke-linecap:butt;stroke-linejoin:miter;stroke-opacity:1" d="M 798.672,423.321 808.324,417.959 z" id="boundary" inkscape:connector-curvature="0" />
	<path style="fill:none;stroke:red;stroke-width:1px;stroke-linecap:butt;stroke-linejoin:miter;stroke-opacity:1" d="M 808.324,417.959 816.904,411.524 z" id="boundary" inkscape:connector-curvature="0" />
	<path style="fill:none;stroke:red;stroke-width:1px;stroke-linecap:butt;stroke-linejoin:miter;stroke-opacity:1" d="M 816.904,411.524 827.628,406.162 z" id="boundary" inkscape:connector-curvature="0" />
	<path style="fill:none;stroke:red;stroke-width:1px;stroke-linecap:butt;stroke-linejoin:miter;stroke-opacity:1" d="M 827.628,406.162 836.208,396.51 z" id="boundary" inkscape:connector-curvature="0" />
	<path style="fill:none;stroke:red;stroke-width:1px;stroke-linecap:butt;stroke-linejoin:miter;stroke-opacity:1" d="M 836.208,396.51 844.787,389.003 z" id="boundary" inkscape:connector-curvature="0" />
	<path style="fill:none;stroke:red;stroke-width:1px;stroke-linecap:butt;stroke-linejoin:miter;stroke-opacity:1" d="M 844.787,389.003 855.511,385.786 z" id="boundary" inkscape:connector-curvature="0" />
	<path style="fill:none;stroke:red;stroke-width:1px;stroke-linecap:butt;stroke-linejoin:miter;stroke-opacity:1" d="M 855.511,385.786 865.163,380.424 z" id="boundary" inkscape:connector-curvature="0" />
	<path style="fill:none;stroke:red;stroke-width:1px;stroke-linecap:butt;stroke-linejoin:miter;stroke-opacity:1" d="M 865.163,380.424 874.815,375.062 z" id="boundary" inkscape:connector-curvature="0" />
	<path style="fill:none;stroke:red;stroke-width:1px;stroke-linecap:butt;stroke-linejoin:miter;stroke-opacity:1" d="M 874.815,375.062 885.539,375.062 z" id="boundary" inkscape:connector-curvature="0" />
	<path style="fill:none;stroke:red;stroke-width:1px;stroke-linecap:butt;stroke-linejoin:miter;stroke-opacity:1" d="M 885.539,375.062 895.191,369.699 z" id="boundary" inkscape:connector-curvature="0" />
	<path style="fill:none;stroke:red;stroke-width:1px;stroke-linecap:butt;stroke-linejoin:miter;stroke-opacity:1" d="M 895.191,369.699 905.916,364.337 z" id="boundary" inkscape:connector-curvature="0" />
	<path style="fill:none;stroke:red;stroke-width:1px;stroke-linecap:butt;stroke-linejoin:miter;stroke-opacity:1" d="M 905.916,364.337 916.64,358.975 z" id="boundary" inkscape:connector-curvature="0" />
	<path style="fill:none;stroke:red;stroke-width:1px;stroke-linecap:butt;stroke-linejoin:miter;stroke-opacity:1" d="M 916.64,358.975 927.364,353.613 z" id="boundary" inkscape:connector-curvature="0" />
	<path style="fill:none;stroke:red;stroke-width:1px;stroke-linecap:butt;stroke-linejoin:miter;stroke-opacity:1" d="M 927.364,353.613 938.089,353.613 z" id="boundary" inkscape:connector-curvature="0" />
	<path style="fill:none;stroke:red;stroke-width:1px;stroke-linecap:butt;stroke-linejoin:miter;stroke-opacity:1" d="M 938.089,353.613 947.741,348.251 z" id="boundary" inkscape:connector-curvature="0" />
	<path style="fill:none;stroke:red;stroke-width:1px;stroke-linecap:butt;stroke-linejoin:miter;stroke-opacity:1" d="M 947.741,348.251 958.465,345.034 z" id="boundary" inkscape:connector-curvature="0" />
	<path style="fill:none;stroke:red;stroke-width:1px;stroke-linecap:butt;stroke-linejoin:miter;stroke-opacity:1" d="M 958.465,345.034 969.189,339.671 z" id="boundary" inkscape:connector-curvature="0" />
	<path style="fill:none;stroke:red;stroke-width:1px;stroke-linecap:butt;stroke-linejoin:miter;stroke-opacity:1" d="M 969.189,339.671 979.914,334.309 z" id="boundary" inkscape:connector-curvature="0" />
	<path style="fill:none;stroke:red;stroke-width:1px;stroke-linecap:butt;stroke-linejoin:miter;stroke-opacity:1" d="M 979.914,334.309 990.638,328.947 z" id="boundary" inkscape:connector-curvature="0" />
	<path style="fill:none;stroke:red;stroke-width:1px;stroke-linecap:butt;stroke-linejoin:miter;stroke-opacity:1" d="M 990.638,328.947 996,318.223 z" id="boundary" inkscape:connector-curvature="0" />
	<path style="fill:none;stroke:red;stroke-width:1px;stroke-linecap:butt;stroke-linejoin:miter;stroke-opacity:1" d="M 996,318.223 991.71,304.281 z" id="boundary" inkscape:connector-curvature="0" />
	<path style="fill:none;stroke:red;stroke-width:1px;stroke-linecap:butt;stroke-linejoin:miter;stroke-opacity:1" d="M 991.71,304.281 984.203,295.702 z" id="boundary" inkscape:connector-curvature="0" />
	<path style="fill:none;stroke:red;stroke-width:1px;stroke-linecap:butt;stroke-linejoin:miter;stroke-opacity:1" d="M 984.203,295.702 974.551,290.339 z" id="boundary" inkscape:connector-curvature="0" />
	<path style="fill:none;stroke:red;stroke-width:1px;stroke-linecap:butt;stroke-linejoin:miter;stroke-opacity:1" d="M 974.551,290.339 963.827,288.195 z" id="boundary" inkscape:connector-curvature="0" />
	<path style="fill:none;stroke:red;stroke-width:1px;stroke-linecap:butt;stroke-linejoin:miter;stroke-opacity:1" d="M 963.827,288.195 953.103,288.195 z" id="boundary" inkscape:connector-curvature="0" />
	<path style="fill:none;stroke:red;stroke-width:1px;stroke-linecap:butt;stroke-linejoin:miter;stroke-opacity:1" d="M 953.103,288.195 942.378,288.195 z" id="boundary" inkscape:connector-curvature="0" />
	<path style="fill:none;stroke:red;stroke-width:1px;stroke-linecap:butt;stroke-linejoin:miter;stroke-opacity:1" d="M 942.378,288.195 931.654,288.195 z" id="boundary" inkscape:connector-curvature="0" />
	<path style="fill:none;stroke:red;stroke-width:1px;stroke-linecap:butt;stroke-linejoin:miter;stroke-opacity:1" d="M 931.654,288.195 920.93,288.195 z" id="boundary" inkscape:connector-curvature="0" />
	<path style="fill:none;stroke:red;stroke-width:1px;stroke-linecap:butt;stroke-linejoin:miter;stroke-opacity:1" d="M 920.93,288.195 910.205,288.195 z" id="boundary" inkscape:connector-curvature="0" />
	<path style="fill:none;stroke:red;stroke-width:1px;stroke-linecap:butt;stroke-linejoin:miter;stroke-opacity:1" d="M 910.205,288.195 900.554,293.557 z" id="boundary" inkscape:connector-curvature="0" />
	<path style="fill:none;stroke:red;stroke-width:1px;stroke-linecap:butt;stroke-linejoin:miter;stroke-opacity:1" d="M 900.554,293.557 889.829,293.557 z" id="boundary" inkscape:connector-curvature="0" />
	<path style="fill:none;stroke:red;stroke-width:1px;stroke-linecap:butt;stroke-linejoin:miter;stroke-opacity:1" d="M 889.829,293.557 880.177,298.919 z" id="boundary" inkscape:connector-curvature="0" />
	<path style="fill:none;stroke:red;stroke-width:1px;stroke-linecap:butt;stroke-linejoin:miter;stroke-opacity:1" d="M 880.177,298.919 869.453,298.919 z" id="boundary" inkscape:connector-curvature="0" />
	<path style="fill:none;stroke:red;stroke-width:1px;stroke-linecap:butt;stroke-linejoin:miter;stroke-opacity:1" d="M 869.453,298.919 859.801,304.281 z" id="boundary" inkscape:connector-curvature="0" />
	<path style="fill:none;stroke:red;stroke-width:1px;stroke-linecap:butt;stroke-linejoin:miter;stroke-opacity:1" d="M 859.801,304.281 849.077,304.281 z" id="boundary" inkscape:connector-curvature="0" />
	<path style="fill:none;stroke:red;stroke-width:1px;stroke-linecap:butt;stroke-linejoin:miter;stroke-opacity:1" d="M 849.077,304.281 838.352,304.281 z" id="boundary" inkscape:connector-curvature="0" />
	<path style="fill:none;stroke:red;stroke-width:1px;stroke-linecap:butt;stroke-linejoin:miter;stroke-opacity:1" d="M 838.352,304.281 827.628,304.281 z" id="boundary" inkscape:connector-curvature="0" />
	<path style="fill:none;stroke:red;stroke-width:1px;stroke-linecap:butt;stroke-linejoin:miter;stroke-opacity:1" d="M 827.628,304.281 816.904,309.643 z" id="boundary" inkscape:connector-curvature="0" />
	<path style="fill:none;stroke:red;stroke-width:1px;stroke-linecap:butt;stroke-linejoin:miter;stroke-opacity:1" d="M 816.904,309.643 806.179,309.643 z" id="boundary" inkscape:connector-curvature="0" />
	<path style="fill:none;stroke:red;stroke-width:1px;stroke-linecap:butt;stroke-linejoin:miter;stroke-opacity:1" d="M 806.179,309.643 795.455,309.643 z" id="boundary" inkscape:connector-curvature="0" />
	<path style="fill:none;stroke:red;stroke-width:1px;stroke-linecap:butt;stroke-linejoin:miter;stroke-opacity:1" d="M 795.455,309.643 784.731,309.643 z" id="boundary" inkscape:connector-curvature="0" />
	<path style="fill:none;stroke:red;stroke-width:1px;stroke-linecap:butt;stroke-linejoin:miter;stroke-opacity:1" d="M 784.731,309.643 774.006,309.643 z" id="boundary" inkscape:connector-curvature="0" />
	<path style="fill:none;stroke:red;stroke-width:1px;stroke-linecap:butt;stroke-linejoin:miter;stroke-opacity:1" d="M 774.006,309.643 763.282,309.643 z" id="boundary" inkscape:connector-curvature="0" />
	<path style="fill:none;stroke:red;stroke-width:1px;stroke-linecap:butt;stroke-linejoin:miter;stroke-opacity:1" d="M 763.282,309.643 752.558,309.643 z" id="boundary" inkscape:connector-curvature="0" />
	<path style="fill:none;stroke:red;stroke-width:1px;stroke-linecap:butt;stroke-linejoin:miter;stroke-opacity:1" d="M 752.558,309.643 741.834,309.643 z" id="boundary" inkscape:connector-curvature="0" />
	<path style="fill:none;stroke:red;stroke-width:1px;stroke-linecap:butt;stroke-linejoin:miter;stroke-opacity:1" d="M 741.834,309.643 731.109,309.643 z" id="boundary" inkscape:connector-curvature="0" />
	<path style="fill:none;stroke:red;stroke-width:1px;stroke-linecap:butt;stroke-linejoin:miter;stroke-opacity:1" d="M 731.109,309.643 720.385,309.643 z" id="boundary" inkscape:connector-curvature="0" />
	<path style="fill:none;stroke:red;stroke-width:1px;stroke-linecap:butt;stroke-linejoin:miter;stroke-opacity:1" d="M 720.385,309.643 709.661,309.643 z" id="boundary" inkscape:connector-curvature="0" />
	<path style="fill:none;stroke:red;stroke-width:1px;stroke-linecap:butt;stroke-linejoin:miter;stroke-opacity:1" d="M 709.661,309.643 698.936,309.643 z" id="boundary" inkscape:connector-curvature="0" />
	<path style="fill:none;stroke:red;stroke-width:1px;stroke-linecap:butt;stroke-linejoin:miter;stroke-opacity:1" d="M 698.936,309.643 688.212,309.643 z" id="boundary" inkscape:connector-curvature="0" />
	<path style="fill:none;stroke:red;stroke-width:1px;stroke-linecap:butt;stroke-linejoin:miter;stroke-opacity:1" d="M 688.212,309.643 677.488,309.643 z" id="boundary" inkscape:connector-curvature="0" />
	<path style="fill:none;stroke:red;stroke-width:1px;stroke-linecap:butt;stroke-linejoin:miter;stroke-opacity:1" d="M 677.488,309.643 666.763,309.643 z" id="boundary" inkscape:connector-curvature="0" />
	<path style="fill:none;stroke:red;stroke-width:1px;stroke-linecap:butt;stroke-linejoin:miter;stroke-opacity:1" d="M 666.763,309.643 656.039,309.643 z" id="boundary" inkscape:connector-curvature="0" />
	<path style="fill:none;stroke:red;stroke-width:1px;stroke-linecap:butt;stroke-linejoin:miter;stroke-opacity:1" d="M 656.039,309.643 645.315,305.354 z" id="boundary" inkscape:connector-curvature="0" />
	<path style="fill:none;stroke:red;stroke-width:1px;stroke-linecap:butt;stroke-linejoin:miter;stroke-opacity:1" d="M 645.315,305.354 637.808,296.774 z" id="boundary" inkscape:connector-curvature="0" />
	<path style="fill:none;stroke:red;stroke-width:1px;stroke-linecap:butt;stroke-linejoin:miter;stroke-opacity:1" d="M 637.808,296.774 629.228,289.267 z" id="boundary" inkscape:connector-curvature="0" />
	<path style="fill:none;stroke:red;stroke-width:1px;stroke-linecap:butt;stroke-linejoin:miter;stroke-opacity:1" d="M 629.228,289.267 627.083,278.543 z" id="boundary" inkscape:connector-curvature="0" />
	<path style="fill:none;stroke:red;stroke-width:1px;stroke-linecap:butt;stroke-linejoin:miter;stroke-opacity:1" d="M 627.083,278.543 636.735,273.181 z" id="boundary" inkscape:connector-curvature="0" />
	<path style="fill:none;stroke:red;stroke-width:1px;stroke-linecap:butt;stroke-linejoin:miter;stroke-opacity:1" d="M 636.735,273.181 647.459,273.181 z" id="boundary" inkscape:connector-curvature="0" />
	<path style="fill:none;stroke:red;stroke-width:1px;stroke-linecap:butt;stroke-linejoin:miter;stroke-opacity:1" d="M 647.459,273.181 658.184,269.963 z" id="boundary" inkscape:connector-curvature="0" />
	<path style="fill:none;stroke:red;stroke-width:1px;stroke-linecap:butt;stroke-linejoin:miter;stroke-opacity:1" d="M 658.184,269.963 668.908,267.818 z" id="boundary" inkscape:connector-curvature="0" />
	<path style="fill:none;stroke:red;stroke-width:1px;stroke-linecap:butt;stroke-linejoin:miter;stroke-opacity:1" d="M 668.908,267.818 678.56,262.456 z" id="boundary" inkscape:connector-curvature="0" />
	<path style="fill:none;stroke:red;stroke-width:1px;stroke-linecap:butt;stroke-linejoin:miter;stroke-opacity:1" d="M 678.56,262.456 686.067,251.732 z" id="boundary" inkscape:connector-curvature="0" />
	<path style="fill:none;stroke:red;stroke-width:1px;stroke-linecap:butt;stroke-linejoin:miter;stroke-opacity:1" d="M 177.734,701.081 180.951,684.995 z" id="boundary" inkscape:connector-curvature="0" />
	<path style="fill:none;stroke:red;stroke-width:1px;stroke-linecap:butt;stroke-linejoin:miter;stroke-opacity:1" d="M 180.951,684.995 180.951,674.27 z" id="boundary" inkscape:connector-curvature="0" />
	<path style="fill:none;stroke:red;stroke-width:1px;stroke-linecap:butt;stroke-linejoin:miter;stroke-opacity:1" d="M 180.951,674.27 180.951,663.546 z" id="boundary" inkscape:connector-curvature="0" />
	<path style="fill:none;stroke:red;stroke-width:1px;stroke-linecap:butt;stroke-linejoin:miter;stroke-opacity:1" d="M 180.951,663.546 180.951,652.822 z" id="boundary" inkscape:connector-curvature="0" />
	<path style="fill:none;stroke:red;stroke-width:1px;stroke-linecap:butt;stroke-linejoin:miter;stroke-opacity:1" d="M 180.951,652.822 180.951,642.097 z" id="boundary" inkscape:connector-curvature="0" />
	<path style="fill:none;stroke:red;stroke-width:1px;stroke-linecap:butt;stroke-linejoin:miter;stroke-opacity:1" d="M 180.951,642.097 180.951,631.373 z" id="boundary" inkscape:connector-curvature="0" />
	<path style="fill:none;stroke:red;stroke-width:1px;stroke-linecap:butt;stroke-linejoin:miter;stroke-opacity:1" d="M 180.951,631.373 172.372,624.938 z" id="boundary" inkscape:connector-curvature="0" />
	<path style="fill:none;stroke:red;stroke-width:1px;stroke-linecap:butt;stroke-linejoin:miter;stroke-opacity:1" d="M 172.372,624.938 161.648,621.721 z" id="boundary" inkscape:connector-curvature="0" />
	<path style="fill:none;stroke:red;stroke-width:1px;stroke-linecap:butt;stroke-linejoin:miter;stroke-opacity:1" d="M 161.648,621.721 150.923,621.721 z" id="boundary" inkscape:connector-curvature="0" />
	<path style="fill:none;stroke:red;stroke-width:1px;stroke-linecap:butt;stroke-linejoin:miter;stroke-opacity:1" d="M 150.923,621.721 140.199,621.721 z" id="boundary" inkscape:connector-curvature="0" />
	<path style="fill:none;stroke:red;stroke-width:1px;stroke-linecap:butt;stroke-linejoin:miter;stroke-opacity:1" d="M 140.199,621.721 129.475,619.576 z" id="boundary" inkscape:connector-curvature="0" />
	<path style="fill:none;stroke:red;stroke-width:1px;stroke-linecap:butt;stroke-linejoin:miter;stroke-opacity:1" d="M 129.475,619.576 118.75,616.359 z" id="boundary" inkscape:connector-curvature="0" />
	<path style="fill:none;stroke:red;stroke-width:1px;stroke-linecap:butt;stroke-linejoin:miter;stroke-opacity:1" d="M 118.75,616.359 108.026,614.214 z" id="boundary" inkscape:connector-curvature="0" />
	<path style="fill:none;stroke:red;stroke-width:1px;stroke-linecap:butt;stroke-linejoin:miter;stroke-opacity:1" d="M 108.026,614.214 97.3016,610.997 z" id="boundary" inkscape:connector-curvature="0" />
	<path style="fill:none;stroke:red;stroke-width:1px;stroke-linecap:butt;stroke-linejoin:miter;stroke-opacity:1" d="M 97.3016,610.997 87.6497,605.635 z" id="boundary" inkscape:connector-curvature="0" />
	<path style="fill:none;stroke:red;stroke-width:1px;stroke-linecap:butt;stroke-linejoin:miter;stroke-opacity:1" d="M 87.6497,605.635 76.9254,604.562 z" id="boundary" inkscape:connector-curvature="0" />
	<path style="fill:none;stroke:red;stroke-width:1px;stroke-linecap:butt;stroke-linejoin:miter;stroke-opacity:1" d="M 76.9254,604.562 66.2011,600.272 z" id="boundary" inkscape:connector-curvature="0" />
	<path style="fill:none;stroke:red;stroke-width:1px;stroke-linecap:butt;stroke-linejoin:miter;stroke-opacity:1" d="M 66.2011,600.272 56.5492,594.91 z" id="boundary" inkscape:connector-curvature="0" />
	<path style="fill:none;stroke:red;stroke-width:1px;stroke-linecap:butt;stroke-linejoin:miter;stroke-opacity:1" d="M 56.5492,594.91 45.8249,594.91 z" id="boundary" inkscape:connector-curvature="0" />
	<path style="fill:none;stroke:red;stroke-width:1px;stroke-linecap:butt;stroke-linejoin:miter;stroke-opacity:1" d="M 45.8249,594.91 36.173,589.548 z" id="boundary" inkscape:connector-curvature="0" />
	<path style="fill:none;stroke:red;stroke-width:1px;stroke-linecap:butt;stroke-linejoin:miter;stroke-opacity:1" d="M 36.173,589.548 30.8108,579.896 z" id="boundary" inkscape:connector-curvature="0" />
	<path style="fill:none;stroke:red;stroke-width:1px;stroke-linecap:butt;stroke-linejoin:miter;stroke-opacity:1" d="M 30.8108,579.896 25.4486,570.244 z" id="boundary" inkscape:connector-curvature="0" />
	<path style="fill:none;stroke:red;stroke-width:1px;stroke-linecap:butt;stroke-linejoin:miter;stroke-opacity:1" d="M 25.4486,570.244 25.4486,559.52 z" id="boundary" inkscape:connector-curvature="0" />
	<path style="fill:none;stroke:red;stroke-width:1px;stroke-linecap:butt;stroke-linejoin:miter;stroke-opacity:1" d="M 25.4486,559.52 25.4486,548.796 z" id="boundary" inkscape:connector-curvature="0" />
	<path style="fill:none;stroke:red;stroke-width:1px;stroke-linecap:butt;stroke-linejoin:miter;stroke-opacity:1" d="M 25.4486,548.796 25.4486,538.071 z" id="boundary" inkscape:connector-curvature="0" />
	<path style="fill:none;stroke:red;stroke-width:1px;stroke-linecap:butt;stroke-linejoin:miter;stroke-opacity:1" d="M 25.4486,538.071 25.4486,527.347 z" id="boundary" inkscape:connector-curvature="0" />
	<path style="fill:none;stroke:red;stroke-width:1px;stroke-linecap:butt;stroke-linejoin:miter;stroke-opacity:1" d="M 25.4486,527.347 25.4486,516.623 z" id="boundary" inkscape:connector-curvature="0" />
	<path style="fill:none;stroke:red;stroke-width:1px;stroke-linecap:butt;stroke-linejoin:miter;stroke-opacity:1" d="M 25.4486,516.623 25.4486,505.898 z" id="boundary" inkscape:connector-curvature="0" />
	<path style="fill:none;stroke:red;stroke-width:1px;stroke-linecap:butt;stroke-linejoin:miter;stroke-opacity:1" d="M 25.4486,505.898 25.4486,495.174 z" id="boundary" inkscape:connector-curvature="0" />
	<path style="fill:none;stroke:red;stroke-width:1px;stroke-linecap:butt;stroke-linejoin:miter;stroke-opacity:1" d="M 25.4486,495.174 30.8108,479.088 z" id="boundary" inkscape:connector-curvature="0" />
	<path style="fill:none;stroke:red;stroke-width:1px;stroke-linecap:butt;stroke-linejoin:miter;stroke-opacity:1" d="M 30.8108,479.088 30.8108,468.363 z" id="boundary" inkscape:connector-curvature="0" />
	<path style="fill:none;stroke:red;stroke-width:1px;stroke-linecap:butt;stroke-linejoin:miter;stroke-opacity:1" d="M 30.8108,468.363 36.173,452.277 z" id="boundary" inkscape:connector-curvature="0" />
	<path style="fill:none;stroke:red;stroke-width:1px;stroke-linecap:butt;stroke-linejoin:miter;stroke-opacity:1" d="M 36.173,452.277 36.173,441.552 z" id="boundary" inkscape:connector-curvature="0" />
	<path style="fill:none;stroke:red;stroke-width:1px;stroke-linecap:butt;stroke-linejoin:miter;stroke-opacity:1" d="M 36.173,441.552 41.5351,425.466 z" id="boundary" inkscape:connector-curvature="0" />
	<path style="fill:none;stroke:red;stroke-width:1px;stroke-linecap:butt;stroke-linejoin:miter;stroke-opacity:1" d="M 41.5351,425.466 46.8973,414.742 z" id="boundary" inkscape:connector-curvature="0" />
	<path style="fill:none;stroke:red;stroke-width:1px;stroke-linecap:butt;stroke-linejoin:miter;stroke-opacity:1" d="M 46.8973,414.742 52.2595,398.655 z" id="boundary" inkscape:connector-curvature="0" />
	<path style="fill:none;stroke:red;stroke-width:1px;stroke-linecap:butt;stroke-linejoin:miter;stroke-opacity:1" d="M 52.2595,398.655 57.6216,387.931 z" id="boundary" inkscape:connector-curvature="0" />
	<path style="fill:none;stroke:red;stroke-width:1px;stroke-linecap:butt;stroke-linejoin:miter;stroke-opacity:1" d="M 57.6216,387.931 57.6216,377.206 z" id="boundary" inkscape:connector-curvature="0" />
	<path style="fill:none;stroke:red;stroke-width:1px;stroke-linecap:butt;stroke-linejoin:miter;stroke-opacity:1" d="M 57.6216,377.206 57.6216,366.482 z" id="boundary" inkscape:connector-curvature="0" />
	<path style="fill:none;stroke:red;stroke-width:1px;stroke-linecap:butt;stroke-linejoin:miter;stroke-opacity:1" d="M 57.6216,366.482 62.9838,355.758 z" id="boundary" inkscape:connector-curvature="0" />
	<path style="fill:none;stroke:red;stroke-width:1px;stroke-linecap:butt;stroke-linejoin:miter;stroke-opacity:1" d="M 62.9838,355.758 68.3459,339.671 z" id="boundary" inkscape:connector-curvature="0" />
	<path style="fill:none;stroke:red;stroke-width:1px;stroke-linecap:butt;stroke-linejoin:miter;stroke-opacity:1" d="M 68.3459,339.671 68.3459,328.947 z" id="boundary" inkscape:connector-curvature="0" />
	<path style="fill:none;stroke:red;stroke-width:1px;stroke-linecap:butt;stroke-linejoin:miter;stroke-opacity:1" d="M 68.3459,328.947 73.7081,318.223 z" id="boundary" inkscape:connector-curvature="0" />
	<path style="fill:none;stroke:red;stroke-width:1px;stroke-linecap:butt;stroke-linejoin:miter;stroke-opacity:1" d="M 73.7081,318.223 79.0703,307.498 z" id="boundary" inkscape:connector-curvature="0" />
	<path style="fill:none;stroke:red;stroke-width:1px;stroke-linecap:butt;stroke-linejoin:miter;stroke-opacity:1" d="M 79.0703,307.498 84.4324,296.774 z" id="boundary" inkscape:connector-curvature="0" />
	<path style="fill:none;stroke:red;stroke-width:1px;stroke-linecap:butt;stroke-linejoin:miter;stroke-opacity:1" d="M 84.4324,296.774 93.0119,288.195 z" id="boundary" inkscape:connector-curvature="0" />
	<path style="fill:none;stroke:red;stroke-width:1px;stroke-linecap:butt;stroke-linejoin:miter;stroke-opacity:1" d="M 93.0119,288.195 101.591,279.615 z" id="boundary" inkscape:connector-curvature="0" />
	<path style="fill:none;stroke:red;stroke-width:1px;stroke-linecap:butt;stroke-linejoin:miter;stroke-opacity:1" d="M 101.591,279.615 110.171,272.108 z" id="boundary" inkscape:connector-curvature="0" />
	<path style="fill:none;stroke:red;stroke-width:1px;stroke-linecap:butt;stroke-linejoin:miter;stroke-opacity:1" d="M 110.171,272.108 119.823,266.746 z" id="boundary" inkscape:connector-curvature="0" />
	<path style="fill:none;stroke:red;stroke-width:1px;stroke-linecap:butt;stroke-linejoin:miter;stroke-opacity:1" d="M 119.823,266.746 128.402,258.166 z" id="boundary" inkscape:connector-curvature="0" />
	<path style="fill:none;stroke:red;stroke-width:1px;stroke-linecap:butt;stroke-linejoin:miter;stroke-opacity:1" d="M 128.402,258.166 139.126,252.804 z" id="boundary" inkscape:connector-curvature="0" />
	<path style="fill:none;stroke:red;stroke-width:1px;stroke-linecap:butt;stroke-linejoin:miter;stroke-opacity:1" d="M 139.126,252.804 147.706,245.297 z" id="boundary" inkscape:connector-curvature="0" />
	<path style="fill:none;stroke:red;stroke-width:1px;stroke-linecap:butt;stroke-linejoin:miter;stroke-opacity:1" d="M 147.706,245.297 155.213,236.718 z" id="boundary" inkscape:connector-curvature="0" />
	<path style="fill:none;stroke:red;stroke-width:1px;stroke-linecap:butt;stroke-linejoin:miter;stroke-opacity:1" d="M 155.213,236.718 163.792,229.211 z" id="boundary" inkscape:connector-curvature="0" />
	<path style="fill:none;stroke:red;stroke-width:1px;stroke-linecap:butt;stroke-linejoin:miter;stroke-opacity:1" d="M 163.792,229.211 170.227,216.342 z" id="boundary" inkscape:connector-curvature="0" />
	<path style="fill:none;stroke:red;stroke-width:1px;stroke-linecap:butt;stroke-linejoin:miter;stroke-opacity:1" d="M 170.227,216.342 178.806,207.762 z" id="boundary" inkscape:connector-curvature="0" />
	<path style="fill:none;stroke:red;stroke-width:1px;stroke-linecap:butt;stroke-linejoin:miter;stroke-opacity:1" d="M 178.806,207.762 187.386,199.183 z" id="boundary" inkscape:connector-curvature="0" />
	<path style="fill:none;stroke:red;stroke-width:1px;stroke-linecap:butt;stroke-linejoin:miter;stroke-opacity:1" d="M 187.386,199.183 195.965,191.676 z" id="boundary" inkscape:connector-curvature="0" />
	<path style="fill:none;stroke:red;stroke-width:1px;stroke-linecap:butt;stroke-linejoin:miter;stroke-opacity:1" d="M 195.965,191.676 206.69,191.676 z" id="boundary" inkscape:connector-curvature="0" />
	<path style="fill:none;stroke:red;stroke-width:1px;stroke-linecap:butt;stroke-linejoin:miter;stroke-opacity:1" d="M 206.69,191.676 217.414,191.676 z" id="boundary" inkscape:connector-curvature="0" />
	<path style="fill:none;stroke:red;stroke-width:1px;stroke-linecap:butt;stroke-linejoin:miter;stroke-opacity:1" d="M 217.414,191.676 227.066,186.314 z" id="boundary" inkscape:connector-curvature="0" />
	<path style="fill:none;stroke:red;stroke-width:1px;stroke-linecap:butt;stroke-linejoin:miter;stroke-opacity:1" d="M 227.066,186.314 237.79,186.314 z" id="boundary" inkscape:connector-curvature="0" />
	<path style="fill:none;stroke:red;stroke-width:1px;stroke-linecap:butt;stroke-linejoin:miter;stroke-opacity:1" d="M 237.79,186.314 248.515,186.314 z" id="boundary" inkscape:connector-curvature="0" />
	<path style="fill:none;stroke:red;stroke-width:1px;stroke-linecap:butt;stroke-linejoin:miter;stroke-opacity:1" d="M 248.515,186.314 259.239,186.314 z" id="boundary" inkscape:connector-curvature="0" />
	<path style="fill:none;stroke:red;stroke-width:1px;stroke-linecap:butt;stroke-linejoin:miter;stroke-opacity:1" d="M 259.239,186.314 269.963,186.314 z" id="boundary" inkscape:connector-curvature="0" />
	<path style="fill:none;stroke:red;stroke-width:1px;stroke-linecap:butt;stroke-linejoin:miter;stroke-opacity:1" d="M 269.963,186.314 280.688,186.314 z" id="boundary" inkscape:connector-curvature="0" />
	<path style="fill:none;stroke:red;stroke-width:1px;stroke-linecap:butt;stroke-linejoin:miter;stroke-opacity:1" d="M 280.688,186.314 291.412,186.314 z" id="boundary" inkscape:connector-curvature="0" />
	<path style="fill:none;stroke:red;stroke-width:1px;stroke-linecap:butt;stroke-linejoin:miter;stroke-opacity:1" d="M 291.412,186.314 302.136,186.314 z" id="boundary" inkscape:connector-curvature="0" />
	<path style="fill:none;stroke:red;stroke-width:1px;stroke-linecap:butt;stroke-linejoin:miter;stroke-opacity:1" d="M 302.136,186.314 311.788,191.676 z" id="boundary" inkscape:connector-curvature="0" />
	<path style="fill:none;stroke:red;stroke-width:1px;stroke-linecap:butt;stroke-linejoin:miter;stroke-opacity:1" d="M 311.788,191.676 321.44,197.038 z" id="boundary" inkscape:connector-curvature="0" />
	<path style="fill:none;stroke:red;stroke-width:1px;stroke-linecap:butt;stroke-linejoin:miter;stroke-opacity:1" d="M 321.44,197.038 331.092,191.676 z" id="boundary" inkscape:connector-curvature="0" />
	<path style="fill:none;stroke:red;stroke-width:1px;stroke-linecap:butt;stroke-linejoin:miter;stroke-opacity:1" d="M 331.092,191.676 341.816,189.531 z" id="boundary" inkscape:connector-curvature="0" />
	<path style="fill:none;stroke:red;stroke-width:1px;stroke-linecap:butt;stroke-linejoin:miter;stroke-opacity:1" d="M 341.816,189.531 352.541,186.314 z" id="boundary" inkscape:connector-curvature="0" />
	<path style="fill:none;stroke:red;stroke-width:1px;stroke-linecap:butt;stroke-linejoin:miter;stroke-opacity:1" d="M 352.541,186.314 363.265,186.314 z" id="boundary" inkscape:connector-curvature="0" />
	<path style="fill:none;stroke:red;stroke-width:1px;stroke-linecap:butt;stroke-linejoin:miter;stroke-opacity:1" d="M 363.265,186.314 373.989,186.314 z" id="boundary" inkscape:connector-curvature="0" />
	<path style="fill:none;stroke:red;stroke-width:1px;stroke-linecap:butt;stroke-linejoin:miter;stroke-opacity:1" d="M 373.989,186.314 384.714,186.314 z" id="boundary" inkscape:connector-curvature="0" />
	<path style="fill:none;stroke:red;stroke-width:1px;stroke-linecap:butt;stroke-linejoin:miter;stroke-opacity:1" d="M 384.714,186.314 395.438,184.169 z" id="boundary" inkscape:connector-curvature="0" />
	<path style="fill:none;stroke:red;stroke-width:1px;stroke-linecap:butt;stroke-linejoin:miter;stroke-opacity:1" d="M 395.438,184.169 400.8,171.299 z" id="boundary" inkscape:connector-curvature="0" />
	<path style="fill:none;stroke:red;stroke-width:1px;stroke-linecap:butt;stroke-linejoin:miter;stroke-opacity:1" d="M 400.8,171.299 400.8,160.575 z" id="boundary" inkscape:connector-curvature="0" />
	<path style="fill:none;stroke:red;stroke-width:1px;stroke-linecap:butt;stroke-linejoin:miter;stroke-opacity:1" d="M 400.8,160.575 400.8,149.851 z" id="boundary" inkscape:connector-curvature="0" />
	<path style="fill:none;stroke:red;stroke-width:1px;stroke-linecap:butt;stroke-linejoin:miter;stroke-opacity:1" d="M 400.8,149.851 391.148,144.489 z" id="boundary" inkscape:connector-curvature="0" />
	<path style="fill:none;stroke:red;stroke-width:1px;stroke-linecap:butt;stroke-linejoin:miter;stroke-opacity:1" d="M 391.148,144.489 380.424,144.489 z" id="boundary" inkscape:connector-curvature="0" />
	<path style="fill:none;stroke:red;stroke-width:1px;stroke-linecap:butt;stroke-linejoin:miter;stroke-opacity:1" d="M 380.424,144.489 371.844,138.054 z" id="boundary" inkscape:connector-curvature="0" />
	<path style="fill:none;stroke:red;stroke-width:1px;stroke-linecap:butt;stroke-linejoin:miter;stroke-opacity:1" d="M 371.844,138.054 363.265,130.547 z" id="boundary" inkscape:connector-curvature="0" />
	<path style="fill:none;stroke:red;stroke-width:1px;stroke-linecap:butt;stroke-linejoin:miter;stroke-opacity:1" d="M 363.265,130.547 368.627,119.823 z" id="boundary" inkscape:connector-curvature="0" />
	<path style="fill:none;stroke:red;stroke-width:1px;stroke-linecap:butt;stroke-linejoin:miter;stroke-opacity:1" d="M 368.627,119.823 379.351,114.461 z" id="boundary" inkscape:connector-curvature="0" />
	<path style="fill:none;stroke:red;stroke-width:1px;stroke-linecap:butt;stroke-linejoin:miter;stroke-opacity:1" d="M 379.351,114.461 384.714,101.591 z" id="boundary" inkscape:connector-curvature="0" />
	<path style="fill:none;stroke:red;stroke-width:1px;stroke-linecap:butt;stroke-linejoin:miter;stroke-opacity:1" d="M 384.714,101.591 384.714,90.867 z" id="boundary" inkscape:connector-curvature="0" />
	<path style="fill:none;stroke:red;stroke-width:1px;stroke-linecap:butt;stroke-linejoin:miter;stroke-opacity:1" d="M 384.714,90.867 381.496,80.1427 z" id="boundary" inkscape:connector-curvature="0" />
	<path style="fill:none;stroke:red;stroke-width:1px;stroke-linecap:butt;stroke-linejoin:miter;stroke-opacity:1" d="M 381.496,80.1427 370.772,80.1427 z" id="boundary" inkscape:connector-curvature="0" />
	<path style="fill:none;stroke:red;stroke-width:1px;stroke-linecap:butt;stroke-linejoin:miter;stroke-opacity:1" d="M 370.772,80.1427 360.048,80.1427 z" id="boundary" inkscape:connector-curvature="0" />
	<path style="fill:none;stroke:red;stroke-width:1px;stroke-linecap:butt;stroke-linejoin:miter;stroke-opacity:1" d="M 360.048,80.1427 349.323,80.1427 z" id="boundary" inkscape:connector-curvature="0" />
	<path style="fill:none;stroke:red;stroke-width:1px;stroke-linecap:butt;stroke-linejoin:miter;stroke-opacity:1" d="M 349.323,80.1427 339.671,74.7805 z" id="boundary" inkscape:connector-curvature="0" />
	<path style="fill:none;stroke:red;stroke-width:1px;stroke-linecap:butt;stroke-linejoin:miter;stroke-opacity:1" d="M 339.671,74.7805 328.947,74.7805 z" id="boundary" inkscape:connector-curvature="0" />
	<path style="fill:none;stroke:red;stroke-width:1px;stroke-linecap:butt;stroke-linejoin:miter;stroke-opacity:1" d="M 328.947,74.7805 319.295,69.4184 z" id="boundary" inkscape:connector-curvature="0" />
	<path style="fill:none;stroke:red;stroke-width:1px;stroke-linecap:butt;stroke-linejoin:miter;stroke-opacity:1" d="M 319.295,69.4184 309.643,64.0562 z" id="boundary" inkscape:connector-curvature="0" />
	<path style="fill:none;stroke:red;stroke-width:1px;stroke-linecap:butt;stroke-linejoin:miter;stroke-opacity:1" d="M 309.643,64.0562 298.919,59.7665 z" id="boundary" inkscape:connector-curvature="0" />
	<path style="fill:none;stroke:red;stroke-width:1px;stroke-linecap:butt;stroke-linejoin:miter;stroke-opacity:1" d="M 298.919,59.7665 293.557,50.1146 z" id="boundary" inkscape:connector-curvature="0" />
	<path style="fill:none;stroke:red;stroke-width:1px;stroke-linecap:butt;stroke-linejoin:miter;stroke-opacity:1" d="M 293.557,50.1146 298.919,39.3903 z" id="boundary" inkscape:connector-curvature="0" />
	<path style="fill:none;stroke:red;stroke-width:1px;stroke-linecap:butt;stroke-linejoin:miter;stroke-opacity:1" d="M 298.919,39.3903 309.643,34.0281 z" id="boundary" inkscape:connector-curvature="0" />
	<path style="fill:none;stroke:red;stroke-width:1px;stroke-linecap:butt;stroke-linejoin:miter;stroke-opacity:1" d="M 309.643,34.0281 320.368,30.8108 z" id="boundary" inkscape:connector-curvature="0" />
	<path style="fill:none;stroke:red;stroke-width:1px;stroke-linecap:butt;stroke-linejoin:miter;stroke-opacity:1" d="M 320.368,30.8108 331.092,30.8108 z" id="boundary" inkscape:connector-curvature="0" />
	<path style="fill:none;stroke:red;stroke-width:1px;stroke-linecap:butt;stroke-linejoin:miter;stroke-opacity:1" d="M 331.092,30.8108 341.816,30.8108 z" id="boundary" inkscape:connector-curvature="0" />
	<path style="fill:none;stroke:red;stroke-width:1px;stroke-linecap:butt;stroke-linejoin:miter;stroke-opacity:1" d="M 341.816,30.8108 352.541,30.8108 z" id="boundary" inkscape:connector-curvature="0" />
	<path style="fill:none;stroke:red;stroke-width:1px;stroke-linecap:butt;stroke-linejoin:miter;stroke-opacity:1" d="M 352.541,30.8108 363.265,30.8108 z" id="boundary" inkscape:connector-curvature="0" />
	<path style="fill:none;stroke:red;stroke-width:1px;stroke-linecap:butt;stroke-linejoin:miter;stroke-opacity:1" d="M 363.265,30.8108 372.917,25.4486 z" id="boundary" inkscape:connector-curvature="0" />
	<path style="fill:none;stroke:red;stroke-width:1px;stroke-linecap:butt;stroke-linejoin:miter;stroke-opacity:1" d="M 372.917,25.4486 383.641,25.4486 z" id="boundary" inkscape:connector-curvature="0" />
	<path style="fill:none;stroke:red;stroke-width:1px;stroke-linecap:butt;stroke-linejoin:miter;stroke-opacity:1" d="M 383.641,25.4486 394.365,25.4486 z" id="boundary" inkscape:connector-curvature="0" />
	<path style="fill:none;stroke:red;stroke-width:1px;stroke-linecap:butt;stroke-linejoin:miter;stroke-opacity:1" d="M 394.365,25.4486 398.655,14.7243 z" id="boundary" inkscape:connector-curvature="0" />
	<path style="fill:none;stroke:red;stroke-width:1px;stroke-linecap:butt;stroke-linejoin:miter;stroke-opacity:1" d="M 398.655,14.7243 409.379,9.36216 z" id="boundary" inkscape:connector-curvature="0" />
	<path style="fill:none;stroke:red;stroke-width:1px;stroke-linecap:butt;stroke-linejoin:miter;stroke-opacity:1" d="M 409.379,9.36216 420.104,9.36216 z" id="boundary" inkscape:connector-curvature="0" />
	<path style="fill:none;stroke:red;stroke-width:1px;stroke-linecap:butt;stroke-linejoin:miter;stroke-opacity:1" d="M 420.104,9.36216 429.756,4 z" id="boundary" inkscape:connector-curvature="0" />
	<path style="fill:none;stroke:red;stroke-width:1px;stroke-linecap:butt;stroke-linejoin:miter;stroke-opacity:1" d="M 429.756,4 440.48,4 z" id="boundary" inkscape:connector-curvature="0" />
	<path style="fill:none;stroke:red;stroke-width:1px;stroke-linecap:butt;stroke-linejoin:miter;stroke-opacity:1" d="M 440.48,4 450.132,9.36216 z" id="boundary" inkscape:connector-curvature="0" />
	<path style="fill:none;stroke:red;stroke-width:1px;stroke-linecap:butt;stroke-linejoin:miter;stroke-opacity:1" d="M 450.132,9.36216 455.494,19.0141 z" id="boundary" inkscape:connector-curvature="0" />
	<path style="fill:none;stroke:red;stroke-width:1px;stroke-linecap:butt;stroke-linejoin:miter;stroke-opacity:1" d="M 455.494,19.0141 460.856,28.6659 z" id="boundary" inkscape:connector-curvature="0" />
	<path style="fill:none;stroke:red;stroke-width:1px;stroke-linecap:butt;stroke-linejoin:miter;stroke-opacity:1" d="M 686.067,251.732 686.067,233.501 z" id="boundary" inkscape:connector-curvature="0" />
	<path style="fill:none;stroke:red;stroke-width:1px;stroke-linecap:butt;stroke-linejoin:miter;stroke-opacity:1" d="M 686.067,233.501 686.067,222.776 z" id="boundary" inkscape:connector-curvature="0" />
	<path style="fill:none;stroke:red;stroke-width:1px;stroke-linecap:butt;stroke-linejoin:miter;stroke-opacity:1" d="M 686.067,222.776 680.705,213.124 z" id="boundary" inkscape:connector-curvature="0" />
	<path style="fill:none;stroke:red;stroke-width:1px;stroke-linecap:butt;stroke-linejoin:miter;stroke-opacity:1" d="M 680.705,213.124 675.343,203.472 z" id="boundary" inkscape:connector-curvature="0" />
	<path style="fill:none;stroke:red;stroke-width:1px;stroke-linecap:butt;stroke-linejoin:miter;stroke-opacity:1" d="M 675.343,203.472 668.908,194.893 z" id="boundary" inkscape:connector-curvature="0" />
	<path style="fill:none;stroke:red;stroke-width:1px;stroke-linecap:butt;stroke-linejoin:miter;stroke-opacity:1" d="M 668.908,194.893 659.256,189.531 z" id="boundary" inkscape:connector-curvature="0" />
	<path style="fill:none;stroke:red;stroke-width:1px;stroke-linecap:butt;stroke-linejoin:miter;stroke-opacity:1" d="M 659.256,189.531 648.532,186.314 z" id="boundary" inkscape:connector-curvature="0" />
	<path style="fill:none;stroke:red;stroke-width:1px;stroke-linecap:butt;stroke-linejoin:miter;stroke-opacity:1" d="M 648.532,186.314 637.808,186.314 z" id="boundary" inkscape:connector-curvature="0" />
	<path style="fill:none;stroke:red;stroke-width:1px;stroke-linecap:butt;stroke-linejoin:miter;stroke-opacity:1" d="M 637.808,186.314 627.083,186.314 z" id="boundary" inkscape:connector-curvature="0" />
	<path style="fill:none;stroke:red;stroke-width:1px;stroke-linecap:butt;stroke-linejoin:miter;stroke-opacity:1" d="M 627.083,186.314 616.359,184.169 z" id="boundary" inkscape:connector-curvature="0" />
	<path style="fill:none;stroke:red;stroke-width:1px;stroke-linecap:butt;stroke-linejoin:miter;stroke-opacity:1" d="M 616.359,184.169 607.779,176.662 z" id="boundary" inkscape:connector-curvature="0" />
	<path style="fill:none;stroke:red;stroke-width:1px;stroke-linecap:butt;stroke-linejoin:miter;stroke-opacity:1" d="M 607.779,176.662 599.2,170.227 z" id="boundary" inkscape:connector-curvature="0" />
	<path style="fill:none;stroke:red;stroke-width:1px;stroke-linecap:butt;stroke-linejoin:miter;stroke-opacity:1" d="M 599.2,170.227 588.476,170.227 z" id="boundary" inkscape:connector-curvature="0" />
	<path style="fill:none;stroke:red;stroke-width:1px;stroke-linecap:butt;stroke-linejoin:miter;stroke-opacity:1" d="M 588.476,170.227 577.751,170.227 z" id="boundary" inkscape:connector-curvature="0" />
	<path style="fill:none;stroke:red;stroke-width:1px;stroke-linecap:butt;stroke-linejoin:miter;stroke-opacity:1" d="M 577.751,170.227 567.027,170.227 z" id="boundary" inkscape:connector-curvature="0" />
	<path style="fill:none;stroke:red;stroke-width:1px;stroke-linecap:butt;stroke-linejoin:miter;stroke-opacity:1" d="M 567.027,170.227 556.303,170.227 z" id="boundary" inkscape:connector-curvature="0" />
	<path style="fill:none;stroke:red;stroke-width:1px;stroke-linecap:butt;stroke-linejoin:miter;stroke-opacity:1" d="M 556.303,170.227 545.578,170.227 z" id="boundary" inkscape:connector-curvature="0" />
	<path style="fill:none;stroke:red;stroke-width:1px;stroke-linecap:butt;stroke-linejoin:miter;stroke-opacity:1" d="M 545.578,170.227 534.854,167.01 z" id="boundary" inkscape:connector-curvature="0" />
	<path style="fill:none;stroke:red;stroke-width:1px;stroke-linecap:butt;stroke-linejoin:miter;stroke-opacity:1" d="M 534.854,167.01 524.13,164.865 z" id="boundary" inkscape:connector-curvature="0" />
	<path style="fill:none;stroke:red;stroke-width:1px;stroke-linecap:butt;stroke-linejoin:miter;stroke-opacity:1" d="M 524.13,164.865 513.405,164.865 z" id="boundary" inkscape:connector-curvature="0" />
	<path style="fill:none;stroke:red;stroke-width:1px;stroke-linecap:butt;stroke-linejoin:miter;stroke-opacity:1" d="M 513.405,164.865 502.681,164.865 z" id="boundary" inkscape:connector-curvature="0" />
	<path style="fill:none;stroke:red;stroke-width:1px;stroke-linecap:butt;stroke-linejoin:miter;stroke-opacity:1" d="M 502.681,164.865 491.957,164.865 z" id="boundary" inkscape:connector-curvature="0" />
	<path style="fill:none;stroke:red;stroke-width:1px;stroke-linecap:butt;stroke-linejoin:miter;stroke-opacity:1" d="M 491.957,164.865 481.232,164.865 z" id="boundary" inkscape:connector-curvature="0" />
	<path style="fill:none;stroke:red;stroke-width:1px;stroke-linecap:butt;stroke-linejoin:miter;stroke-opacity:1" d="M 481.232,164.865 470.508,164.865 z" id="boundary" inkscape:connector-curvature="0" />
	<path style="fill:none;stroke:red;stroke-width:1px;stroke-linecap:butt;stroke-linejoin:miter;stroke-opacity:1" d="M 470.508,164.865 460.856,159.503 z" id="boundary" inkscape:connector-curvature="0" />
	<path style="fill:none;stroke:red;stroke-width:1px;stroke-linecap:butt;stroke-linejoin:miter;stroke-opacity:1" d="M 460.856,159.503 450.132,159.503 z" id="boundary" inkscape:connector-curvature="0" />
	<path style="fill:none;stroke:red;stroke-width:1px;stroke-linecap:butt;stroke-linejoin:miter;stroke-opacity:1" d="M 450.132,159.503 444.77,149.851 z" id="boundary" inkscape:connector-curvature="0" />
	<path style="fill:none;stroke:red;stroke-width:1px;stroke-linecap:butt;stroke-linejoin:miter;stroke-opacity:1" d="M 444.77,149.851 441.552,139.126 z" id="boundary" inkscape:connector-curvature="0" />
	<path style="fill:none;stroke:red;stroke-width:1px;stroke-linecap:butt;stroke-linejoin:miter;stroke-opacity:1" d="M 441.552,139.126 439.408,128.402 z" id="boundary" inkscape:connector-curvature="0" />
	<path style="fill:none;stroke:red;stroke-width:1px;stroke-linecap:butt;stroke-linejoin:miter;stroke-opacity:1" d="M 439.408,128.402 439.408,117.678 z" id="boundary" inkscape:connector-curvature="0" />
	<path style="fill:none;stroke:red;stroke-width:1px;stroke-linecap:butt;stroke-linejoin:miter;stroke-opacity:1" d="M 439.408,117.678 438.335,100.519 z" id="boundary" inkscape:connector-curvature="0" />
	<path style="fill:none;stroke:red;stroke-width:1px;stroke-linecap:butt;stroke-linejoin:miter;stroke-opacity:1" d="M 438.335,100.519 428.683,95.1568 z" id="boundary" inkscape:connector-curvature="0" />
	<path style="fill:none;stroke:red;stroke-width:1px;stroke-linecap:butt;stroke-linejoin:miter;stroke-opacity:1" d="M 428.683,95.1568 423.321,85.5049 z" id="boundary" inkscape:connector-curvature="0" />
	<path style="fill:none;stroke:red;stroke-width:1px;stroke-linecap:butt;stroke-linejoin:miter;stroke-opacity:1" d="M 423.321,85.5049 423.321,74.7805 z" id="boundary" inkscape:connector-curvature="0" />
	<path style="fill:none;stroke:red;stroke-width:1px;stroke-linecap:butt;stroke-linejoin:miter;stroke-opacity:1" d="M 423.321,74.7805 434.045,69.4184 z" id="boundary" inkscape:connector-curvature="0" />
	<path style="fill:none;stroke:red;stroke-width:1px;stroke-linecap:butt;stroke-linejoin:miter;stroke-opacity:1" d="M 434.045,69.4184 443.697,64.0562 z" id="boundary" inkscape:connector-curvature="0" />
	<path style="fill:none;stroke:red;stroke-width:1px;stroke-linecap:butt;stroke-linejoin:miter;stroke-opacity:1" d="M 443.697,64.0562 452.277,57.6216 z" id="boundary" inkscape:connector-curvature="0" />
	<path style="fill:none;stroke:red;stroke-width:1px;stroke-linecap:butt;stroke-linejoin:miter;stroke-opacity:1" d="M 452.277,57.6216 457.639,46.8973 z" id="boundary" inkscape:connector-curvature="0" />
	<path style="fill:none;stroke:red;stroke-width:1px;stroke-linecap:butt;stroke-linejoin:miter;stroke-opacity:1" d="M 460.856,28.6659 457.639,46.8973 z" id="boundary" inkscape:connector-curvature="0" />
	<circle cx="4" cy="715.023" r="4" fill="#0" id="circle0"/>
	<circle cx="4" cy="725.747" r="4" fill="#0" id="circle1"/>
	<circle cx="9.36216" cy="735.399" r="4" fill="#0" id="circle2"/>
	<circle cx="14.7243" cy="711.805" r="4" fill="#0" id="circle3"/>
	<circle cx="16.8692" cy="743.978" r="4" fill="#0" id="circle4"/>
	<circle cx="21.1589" cy="720.385" r="4" fill="#0" id="circle5"/>
	<circle cx="25.4486" cy="495.174" r="4" fill="#0" id="circle6"/>
	<circle cx="25.4486" cy="505.898" r="4" fill="#0" id="circle7"/>
	<circle cx="25.4486" cy="516.623" r="4" fill="#0" id="circle8"/>
	<circle cx="25.4486" cy="527.347" r="4" fill="#0" id="circle9"/>
	<circle cx="25.4486" cy="538.071" r="4" fill="#0" id="circle10"/>
	<circle cx="25.4486" cy="548.796" r="4" fill="#0" id="circle11"/>
	<circle cx="25.4486" cy="559.52" r="4" fill="#0" id="circle12"/>
	<circle cx="25.4486" cy="570.244" r="4" fill="#0" id="circle13"/>
	<circle cx="27.5935" cy="745.051" r="4" fill="#0" id="circle14"/>
	<circle cx="30.8108" cy="468.363" r="4" fill="#0" id="circle15"/>
	<circle cx="30.8108" cy="479.088" r="4" fill="#0" id="circle16"/>
	<circle cx="30.8108" cy="579.896" r="4" fill="#0" id="circle17"/>
	<circle cx="31.8832" cy="722.53" r="4" fill="#0" id="circle18"/>
	<circle cx="36.173" cy="441.552" r="4" fill="#0" id="circle19"/>
	<circle cx="36.173" cy="452.277" r="4" fill="#0" id="circle20"/>
	<circle cx="36.173" cy="589.548" r="4" fill="#0" id="circle21"/>
	<circle cx="38.3178" cy="745.051" r="4" fill="#0" id="circle22"/>
	<circle cx="41.5351" cy="425.466" r="4" fill="#0" id="circle23"/>
	<circle cx="42.6076" cy="722.53" r="4" fill="#0" id="circle24"/>
	<circle cx="45.8249" cy="594.91" r="4" fill="#0" id="circle25"/>
	<circle cx="46.8973" cy="414.742" r="4" fill="#0" id="circle26"/>
	<circle cx="49.0422" cy="745.051" r="4" fill="#0" id="circle27"/>
	<circle cx="52.2595" cy="398.655" r="4" fill="#0" id="circle28"/>
	<circle cx="53.3319" cy="722.53" r="4" fill="#0" id="circle29"/>
	<circle cx="56.5492" cy="594.91" r="4" fill="#0" id="circle30"/>
	<circle cx="57.6216" cy="366.482" r="4" fill="#0" id="circle31"/>
	<circle cx="57.6216" cy="377.206" r="4" fill="#0" id="circle32"/>
	<circle cx="57.6216" cy="387.931" r="4" fill="#0" id="circle33"/>
	<circle cx="59.7665" cy="745.051" r="4" fill="#0" id="circle34"/>
	<circle cx="62.9838" cy="355.758" r="4" fill="#0" id="circle35"/>
	<circle cx="64.0562" cy="722.53" r="4" fill="#0" id="circle36"/>
	<circle cx="66.2011" cy="600.272" r="4" fill="#0" id="circle37"/>
	<circle cx="68.3459" cy="328.947" r="4" fill="#0" id="circle38"/>
	<circle cx="68.3459" cy="339.671" r="4" fill="#0" id="circle39"/>
	<circle cx="70.4908" cy="745.051" r="4" fill="#0" id="circle40"/>
	<circle cx="73.7081" cy="318.223" r="4" fill="#0" id="circle41"/>
	<circle cx="74.7805" cy="722.53" r="4" fill="#0" id="circle42"/>
	<circle cx="76.9254" cy="604.562" r="4" fill="#0" id="circle43"/>
	<circle cx="79.0703" cy="307.498" r="4" fill="#0" id="circle44"/>
	<circle cx="81.2151" cy="745.051" r="4" fill="#0" id="circle45"/>
	<circle cx="84.4324" cy="296.774" r="4" fill="#0" id="circle46"/>
	<circle cx="85.5049" cy="722.53" r="4" fill="#0" id="circle47"/>
	<circle cx="87.6497" cy="605.635" r="4" fill="#0" id="circle48"/>
	<circle cx="91.9395" cy="745.051" r="4" fill="#0" id="circle49"/>
	<circle cx="93.0119" cy="288.195" r="4" fill="#0" id="circle50"/>
	<circle cx="96.2292" cy="722.53" r="4" fill="#0" id="circle51"/>
	<circle cx="97.3016" cy="610.997" r="4" fill="#0" id="circle52"/>
	<circle cx="101.591" cy="279.615" r="4" fill="#0" id="circle53"/>
	<circle cx="102.664" cy="745.051" r="4" fill="#0" id="circle54"/>
	<circle cx="106.954" cy="722.53" r="4" fill="#0" id="circle55"/>
	<circle cx="108.026" cy="614.214" r="4" fill="#0" id="circle56"/>
	<circle cx="110.171" cy="272.108" r="4" fill="#0" id="circle57"/>
	<circle cx="113.388" cy="745.051" r="4" fill="#0" id="circle58"/>
	<circle cx="116.605" cy="717.168" r="4" fill="#0" id="circle59"/>
	<circle cx="118.75" cy="616.359" r="4" fill="#0" id="circle60"/>
	<circle cx="119.823" cy="266.746" r="4" fill="#0" id="circle61"/>
	<circle cx="124.112" cy="745.051" r="4" fill="#0" id="circle62"/>
	<circle cx="127.33" cy="717.168" r="4" fill="#0" id="circle63"/>
	<circle cx="128.402" cy="258.166" r="4" fill="#0" id="circle64"/>
	<circle cx="129.475" cy="619.576" r="4" fill="#0" id="circle65"/>
	<circle cx="134.837" cy="745.051" r="4" fill="#0" id="circle66"/>
	<circle cx="136.982" cy="711.805" r="4" fill="#0" id="circle67"/>
	<circle cx="139.126" cy="252.804" r="4" fill="#0" id="circle68"/>
	<circle cx="140.199" cy="621.721" r="4" fill="#0" id="circle69"/>
	<circle cx="145.561" cy="745.051" r="4" fill="#0" id="circle70"/>
	<circle cx="146.634" cy="706.443" r="4" fill="#0" id="circle71"/>
	<circle cx="147.706" cy="245.297" r="4" fill="#0" id="circle72"/>
	<circle cx="150.923" cy="621.721" r="4" fill="#0" id="circle73"/>
	<circle cx="155.213" cy="236.718" r="4" fill="#0" id="circle74"/>
	<circle cx="155.213" cy="739.689" r="4" fill="#0" id="circle75"/>
	<circle cx="157.358" cy="706.443" r="4" fill="#0" id="circle76"/>
	<circle cx="161.648" cy="621.721" r="4" fill="#0" id="circle77"/>
	<circle cx="163.792" cy="229.211" r="4" fill="#0" id="circle78"/>
	<circle cx="165.937" cy="739.689" r="4" fill="#0" id="circle79"/>
	<circle cx="167.01" cy="701.081" r="4" fill="#0" id="circle80"/>
	<circle cx="170.227" cy="216.342" r="4" fill="#0" id="circle81"/>
	<circle cx="172.372" cy="624.938" r="4" fill="#0" id="circle82"/>
	<circle cx="176.662" cy="734.326" r="4" fill="#0" id="circle83"/>
	<circle cx="177.734" cy="701.081" r="4" fill="#0" id="circle84"/>
	<circle cx="178.806" cy="207.762" r="4" fill="#0" id="circle85"/>
	<circle cx="180.951" cy="631.373" r="4" fill="#0" id="circle86"/>
	<circle cx="180.951" cy="642.097" r="4" fill="#0" id="circle87"/>
	<circle cx="180.951" cy="652.822" r="4" fill="#0" id="circle88"/>
	<circle cx="180.951" cy="663.546" r="4" fill="#0" id="circle89"/>
	<circle cx="180.951" cy="674.27" r="4" fill="#0" id="circle90"/>
	<circle cx="180.951" cy="684.995" r="4" fill="#0" id="circle91"/>
	<circle cx="187.386" cy="199.183" r="4" fill="#0" id="circle92"/>
	<circle cx="187.386" cy="734.326" r="4" fill="#0" id="circle93"/>
	<circle cx="195.965" cy="191.676" r="4" fill="#0" id="circle94"/>
	<circle cx="198.11" cy="728.964" r="4" fill="#0" id="circle95"/>
	<circle cx="206.69" cy="191.676" r="4" fill="#0" id="circle96"/>
	<circle cx="208.835" cy="728.964" r="4" fill="#0" id="circle97"/>
	<circle cx="217.414" cy="191.676" r="4" fill="#0" id="circle98"/>
	<circle cx="219.559" cy="723.602" r="4" fill="#0" id="circle99"/>
	<circle cx="227.066" cy="186.314" r="4" fill="#0" id="circle100"/>
	<circle cx="230.283" cy="723.602" r="4" fill="#0" id="circle101"/>
	<circle cx="237.79" cy="186.314" r="4" fill="#0" id="circle102"/>
	<circle cx="241.008" cy="718.24" r="4" fill="#0" id="circle103"/>
	<circle cx="248.515" cy="186.314" r="4" fill="#0" id="circle104"/>
	<circle cx="251.732" cy="718.24" r="4" fill="#0" id="circle105"/>
	<circle cx="259.239" cy="186.314" r="4" fill="#0" id="circle106"/>
	<circle cx="262.456" cy="718.24" r="4" fill="#0" id="circle107"/>
	<circle cx="269.963" cy="186.314" r="4" fill="#0" id="circle108"/>
	<circle cx="272.108" cy="712.878" r="4" fill="#0" id="circle109"/>
	<circle cx="280.688" cy="186.314" r="4" fill="#0" id="circle110"/>
	<circle cx="282.832" cy="712.878" r="4" fill="#0" id="circle111"/>
	<circle cx="291.412" cy="186.314" r="4" fill="#0" id="circle112"/>
	<circle cx="293.557" cy="50.1146" r="4" fill="#0" id="circle113"/>
	<circle cx="293.557" cy="709.661" r="4" fill="#0" id="circle114"/>
	<circle cx="298.919" cy="39.3903" r="4" fill="#0" id="circle115"/>
	<circle cx="298.919" cy="59.7665" r="4" fill="#0" id="circle116"/>
	<circle cx="302.136" cy="186.314" r="4" fill="#0" id="circle117"/>
	<circle cx="304.281" cy="707.516" r="4" fill="#0" id="circle118"/>
	<circle cx="309.643" cy="34.0281" r="4" fill="#0" id="circle119"/>
	<circle cx="309.643" cy="64.0562" r="4" fill="#0" id="circle120"/>
	<circle cx="311.788" cy="191.676" r="4" fill="#0" id="circle121"/>
	<circle cx="315.005" cy="704.298" r="4" fill="#0" id="circle122"/>
	<circle cx="319.295" cy="69.4184" r="4" fill="#0" id="circle123"/>
	<circle cx="320.368" cy="30.8108" r="4" fill="#0" id="circle124"/>
	<circle cx="321.44" cy="197.038" r="4" fill="#0" id="circle125"/>
	<circle cx="325.73" cy="702.154" r="4" fill="#0" id="circle126"/>
	<circle cx="328.947" cy="74.7805" r="4" fill="#0" id="circle127"/>
	<circle cx="331.092" cy="30.8108" r="4" fill="#0" id="circle128"/>
	<circle cx="331.092" cy="191.676" r="4" fill="#0" id="circle129"/>
	<circle cx="336.454" cy="702.154" r="4" fill="#0" id="circle130"/>
	<circle cx="339.671" cy="74.7805" r="4" fill="#0" id="circle131"/>
	<circle cx="341.816" cy="30.8108" r="4" fill="#0" id="circle132"/>
	<circle cx="341.816" cy="189.531" r="4" fill="#0" id="circle133"/>
	<circle cx="347.178" cy="698.936" r="4" fill="#0" id="circle134"/>
	<circle cx="349.323" cy="80.1427" r="4" fill="#0" id="circle135"/>
	<circle cx="352.541" cy="30.8108" r="4" fill="#0" id="circle136"/>
	<circle cx="352.541" cy="186.314" r="4" fill="#0" id="circle137"/>
	<circle cx="357.903" cy="696.791" r="4" fill="#0" id="circle138"/>
	<circle cx="360.048" cy="80.1427" r="4" fill="#0" id="circle139"/>
	<circle cx="363.265" cy="30.8108" r="4" fill="#0" id="circle140"/>
	<circle cx="363.265" cy="130.547" r="4" fill="#0" id="circle141"/>
	<circle cx="363.265" cy="186.314" r="4" fill="#0" id="circle142"/>
	<circle cx="368.627" cy="119.823" r="4" fill="#0" id="circle143"/>
	<circle cx="368.627" cy="696.791" r="4" fill="#0" id="circle144"/>
	<circle cx="370.772" cy="80.1427" r="4" fill="#0" id="circle145"/>
	<circle cx="371.844" cy="138.054" r="4" fill="#0" id="circle146"/>
	<circle cx="372.917" cy="25.4486" r="4" fill="#0" id="circle147"/>
	<circle cx="373.989" cy="186.314" r="4" fill="#0" id="circle148"/>
	<circle cx="379.351" cy="114.461" r="4" fill="#0" id="circle149"/>
	<circle cx="379.351" cy="693.574" r="4" fill="#0" id="circle150"/>
	<circle cx="380.424" cy="144.489" r="4" fill="#0" id="circle151"/>
	<circle cx="381.496" cy="80.1427" r="4" fill="#0" id="circle152"/>
	<circle cx="383.641" cy="25.4486" r="4" fill="#0" id="circle153"/>
	<circle cx="384.714" cy="90.867" r="4" fill="#0" id="circle154"/>
	<circle cx="384.714" cy="101.591" r="4" fill="#0" id="circle155"/>
	<circle cx="384.714" cy="186.314" r="4" fill="#0" id="circle156"/>
	<circle cx="390.076" cy="691.429" r="4" fill="#0" id="circle157"/>
	<circle cx="391.148" cy="144.489" r="4" fill="#0" id="circle158"/>
	<circle cx="394.365" cy="25.4486" r="4" fill="#0" id="circle159"/>
	<circle cx="395.438" cy="184.169" r="4" fill="#0" id="circle160"/>
	<circle cx="398.655" cy="14.7243" r="4" fill="#0" id="circle161"/>
	<circle cx="400.8" cy="149.851" r="4" fill="#0" id="circle162"/>
	<circle cx="400.8" cy="160.575" r="4" fill="#0" id="circle163"/>
	<circle cx="400.8" cy="171.299" r="4" fill="#0" id="circle164"/>
	<circle cx="400.8" cy="691.429" r="4" fill="#0" id="circle165"/>
	<circle cx="409.379" cy="9.36216" r="4" fill="#0" id="circle166"/>
	<circle cx="411.524" cy="688.212" r="4" fill="#0" id="circle167"/>
	<circle cx="420.104" cy="9.36216" r="4" fill="#0" id="circle168"/>
	<circle cx="422.249" cy="686.067" r="4" fill="#0" id="circle169"/>
	<circle cx="423.321" cy="74.7805" r="4" fill="#0" id="circle170"/>
	<circle cx="423.321" cy="85.5049" r="4" fill="#0" id="circle171"/>
	<circle cx="428.683" cy="95.1568" r="4" fill="#0" id="circle172"/>
	<circle cx="429.756" cy="4" r="4" fill="#0" id="circle173"/>
	<circle cx="432.973" cy="682.85" r="4" fill="#0" id="circle174"/>
	<circle cx="434.045" cy="69.4184" r="4" fill="#0" id="circle175"/>
	<circle cx="438.335" cy="100.519" r="4" fill="#0" id="circle176"/>
	<circle cx="439.408" cy="117.678" r="4" fill="#0" id="circle177"/>
	<circle cx="439.408" cy="128.402" r="4" fill="#0" id="circle178"/>
	<circle cx="440.48" cy="4" r="4" fill="#0" id="circle179"/>
	<circle cx="441.552" cy="139.126" r="4" fill="#0" id="circle180"/>
	<circle cx="441.552" cy="674.27" r="4" fill="#0" id="circle181"/>
	<circle cx="443.697" cy="64.0562" r="4" fill="#0" id="circle182"/>
	<circle cx="444.77" cy="149.851" r="4" fill="#0" id="circle183"/>
	<circle cx="444.77" cy="637.808" r="4" fill="#0" id="circle184"/>
	<circle cx="444.77" cy="648.532" r="4" fill="#0" id="circle185"/>
	<circle cx="444.77" cy="659.256" r="4" fill="#0" id="circle186"/>
	<circle cx="450.132" cy="9.36216" r="4" fill="#0" id="circle187"/>
	<circle cx="450.132" cy="159.503" r="4" fill="#0" id="circle188"/>
	<circle cx="452.277" cy="57.6216" r="4" fill="#0" id="circle189"/>
	<circle cx="455.494" cy="19.0141" r="4" fill="#0" id="circle190"/>
	<circle cx="455.494" cy="632.445" r="4" fill="#0" id="circle191"/>
	<circle cx="457.639" cy="46.8973" r="4" fill="#0" id="circle192"/>
	<circle cx="460.856" cy="28.6659" r="4" fill="#0" id="circle193"/>
	<circle cx="460.856" cy="159.503" r="4" fill="#0" id="circle194"/>
	<circle cx="466.218" cy="632.445" r="4" fill="#0" id="circle195"/>
	<circle cx="470.508" cy="164.865" r="4" fill="#0" id="circle196"/>
	<circle cx="476.943" cy="632.445" r="4" fill="#0" id="circle197"/>
	<circle cx="481.232" cy="164.865" r="4" fill="#0" id="circle198"/>
	<circle cx="487.667" cy="632.445" r="4" fill="#0" id="circle199"/>
	<circle cx="491.957" cy="164.865" r="4" fill="#0" id="circle200"/>
	<circle cx="498.391" cy="632.445" r="4" fill="#0" id="circle201"/>
	<circle cx="502.681" cy="164.865" r="4" fill="#0" id="circle202"/>
	<circle cx="509.116" cy="632.445" r="4" fill="#0" id="circle203"/>
	<circle cx="513.405" cy="164.865" r="4" fill="#0" id="circle204"/>
	<circle cx="518.768" cy="627.083" r="4" fill="#0" id="circle205"/>
	<circle cx="524.13" cy="164.865" r="4" fill="#0" id="circle206"/>
	<circle cx="529.492" cy="627.083" r="4" fill="#0" id="circle207"/>
	<circle cx="534.854" cy="167.01" r="4" fill="#0" id="circle208"/>
	<circle cx="540.216" cy="627.083" r="4" fill="#0" id="circle209"/>
	<circle cx="545.578" cy="170.227" r="4" fill="#0" id="circle210"/>
	<circle cx="550.941" cy="627.083" r="4" fill="#0" id="circle211"/>
	<circle cx="556.303" cy="170.227" r="4" fill="#0" id="circle212"/>
	<circle cx="561.665" cy="627.083" r="4" fill="#0" id="circle213"/>
	<circle cx="567.027" cy="170.227" r="4" fill="#0" id="circle214"/>
	<circle cx="572.389" cy="623.866" r="4" fill="#0" id="circle215"/>
	<circle cx="577.751" cy="170.227" r="4" fill="#0" id="circle216"/>
	<circle cx="583.114" cy="621.721" r="4" fill="#0" id="circle217"/>
	<circle cx="588.476" cy="170.227" r="4" fill="#0" id="circle218"/>
	<circle cx="593.838" cy="618.504" r="4" fill="#0" id="circle219"/>
	<circle cx="599.2" cy="170.227" r="4" fill="#0" id="circle220"/>
	<circle cx="604.562" cy="616.359" r="4" fill="#0" id="circle221"/>
	<circle cx="607.779" cy="176.662" r="4" fill="#0" id="circle222"/>
	<circle cx="615.286" cy="613.142" r="4" fill="#0" id="circle223"/>
	<circle cx="616.359" cy="184.169" r="4" fill="#0" id="circle224"/>
	<circle cx="626.011" cy="610.997" r="4" fill="#0" id="circle225"/>
	<circle cx="627.083" cy="186.314" r="4" fill="#0" id="circle226"/>
	<circle cx="627.083" cy="278.543" r="4" fill="#0" id="circle227"/>
	<circle cx="629.228" cy="289.267" r="4" fill="#0" id="circle228"/>
	<circle cx="636.735" cy="273.181" r="4" fill="#0" id="circle229"/>
	<circle cx="636.735" cy="610.997" r="4" fill="#0" id="circle230"/>
	<circle cx="637.808" cy="186.314" r="4" fill="#0" id="circle231"/>
	<circle cx="637.808" cy="296.774" r="4" fill="#0" id="circle232"/>
	<circle cx="645.315" cy="305.354" r="4" fill="#0" id="circle233"/>
	<circle cx="647.459" cy="273.181" r="4" fill="#0" id="circle234"/>
	<circle cx="647.459" cy="610.997" r="4" fill="#0" id="circle235"/>
	<circle cx="648.532" cy="186.314" r="4" fill="#0" id="circle236"/>
	<circle cx="656.039" cy="309.643" r="4" fill="#0" id="circle237"/>
	<circle cx="657.111" cy="605.635" r="4" fill="#0" id="circle238"/>
	<circle cx="658.184" cy="269.963" r="4" fill="#0" id="circle239"/>
	<circle cx="659.256" cy="189.531" r="4" fill="#0" id="circle240"/>
	<circle cx="666.763" cy="309.643" r="4" fill="#0" id="circle241"/>
	<circle cx="667.836" cy="605.635" r="4" fill="#0" id="circle242"/>
	<circle cx="668.908" cy="194.893" r="4" fill="#0" id="circle243"/>
	<circle cx="668.908" cy="267.818" r="4" fill="#0" id="circle244"/>
	<circle cx="675.343" cy="203.472" r="4" fill="#0" id="circle245"/>
	<circle cx="677.488" cy="309.643" r="4" fill="#0" id="circle246"/>
	<circle cx="678.56" cy="262.456" r="4" fill="#0" id="circle247"/>
	<circle cx="678.56" cy="605.635" r="4" fill="#0" id="circle248"/>
	<circle cx="680.705" cy="213.124" r="4" fill="#0" id="circle249"/>
	<circle cx="686.067" cy="222.776" r="4" fill="#0" id="circle250"/>
	<circle cx="686.067" cy="233.501" r="4" fill="#0" id="circle251"/>
	<circle cx="686.067" cy="251.732" r="4" fill="#0" id="circle252"/>
	<circle cx="688.212" cy="309.643" r="4" fill="#0" id="circle253"/>
	<circle cx="689.284" cy="605.635" r="4" fill="#0" id="circle254"/>
	<circle cx="698.936" cy="309.643" r="4" fill="#0" id="circle255"/>
	<circle cx="698.936" cy="600.272" r="4" fill="#0" id="circle256"/>
	<circle cx="707.516" cy="471.581" r="4" fill="#0" id="circle257"/>
	<circle cx="707.516" cy="482.305" r="4" fill="#0" id="circle258"/>
	<circle cx="709.661" cy="309.643" r="4" fill="#0" id="circle259"/>
	<circle cx="709.661" cy="600.272" r="4" fill="#0" id="circle260"/>
	<circle cx="712.878" cy="491.957" r="4" fill="#0" id="circle261"/>
	<circle cx="717.168" cy="466.218" r="4" fill="#0" id="circle262"/>
	<circle cx="720.385" cy="309.643" r="4" fill="#0" id="circle263"/>
	<circle cx="720.385" cy="600.272" r="4" fill="#0" id="circle264"/>
	<circle cx="723.602" cy="491.957" r="4" fill="#0" id="circle265"/>
	<circle cx="727.892" cy="466.218" r="4" fill="#0" id="circle266"/>
	<circle cx="731.109" cy="309.643" r="4" fill="#0" id="circle267"/>
	<circle cx="731.109" cy="600.272" r="4" fill="#0" id="circle268"/>
	<circle cx="734.326" cy="491.957" r="4" fill="#0" id="circle269"/>
	<circle cx="738.616" cy="463.001" r="4" fill="#0" id="circle270"/>
	<circle cx="741.834" cy="309.643" r="4" fill="#0" id="circle271"/>
	<circle cx="741.834" cy="599.2" r="4" fill="#0" id="circle272"/>
	<circle cx="745.051" cy="495.174" r="4" fill="#0" id="circle273"/>
	<circle cx="749.341" cy="457.639" r="4" fill="#0" id="circle274"/>
	<circle cx="752.558" cy="309.643" r="4" fill="#0" id="circle275"/>
	<circle cx="752.558" cy="503.754" r="4" fill="#0" id="circle276"/>
	<circle cx="752.558" cy="594.91" r="4" fill="#0" id="circle277"/>
	<circle cx="755.775" cy="514.478" r="4" fill="#0" id="circle278"/>
	<circle cx="760.065" cy="452.277" r="4" fill="#0" id="circle279"/>
	<circle cx="761.137" cy="524.13" r="4" fill="#0" id="circle280"/>
	<circle cx="763.282" cy="309.643" r="4" fill="#0" id="circle281"/>
	<circle cx="763.282" cy="593.838" r="4" fill="#0" id="circle282"/>
	<circle cx="769.717" cy="530.564" r="4" fill="#0" id="circle283"/>
	<circle cx="770.789" cy="446.915" r="4" fill="#0" id="circle284"/>
	<circle cx="771.862" cy="541.289" r="4" fill="#0" id="circle285"/>
	<circle cx="771.862" cy="552.013" r="4" fill="#0" id="circle286"/>
	<circle cx="774.006" cy="309.643" r="4" fill="#0" id="circle287"/>
	<circle cx="774.006" cy="588.476" r="4" fill="#0" id="circle288"/>
	<circle cx="777.224" cy="561.665" r="4" fill="#0" id="circle289"/>
	<circle cx="777.224" cy="572.389" r="4" fill="#0" id="circle290"/>
	<circle cx="779.369" cy="438.335" r="4" fill="#0" id="circle291"/>
	<circle cx="784.731" cy="309.643" r="4" fill="#0" id="circle292"/>
	<circle cx="787.948" cy="428.683" r="4" fill="#0" id="circle293"/>
	<circle cx="795.455" cy="309.643" r="4" fill="#0" id="circle294"/>
	<circle cx="798.672" cy="423.321" r="4" fill="#0" id="circle295"/>
	<circle cx="806.179" cy="309.643" r="4" fill="#0" id="circle296"/>
	<circle cx="808.324" cy="417.959" r="4" fill="#0" id="circle297"/>
	<circle cx="816.904" cy="309.643" r="4" fill="#0" id="circle298"/>
	<circle cx="816.904" cy="411.524" r="4" fill="#0" id="circle299"/>
	<circle cx="827.628" cy="304.281" r="4" fill="#0" id="circle300"/>
	<circle cx="827.628" cy="406.162" r="4" fill="#0" id="circle301"/>
	<circle cx="836.208" cy="396.51" r="4" fill="#0" id="circle302"/>
	<circle cx="838.352" cy="304.281" r="4" fill="#0" id="circle303"/>
	<circle cx="844.787" cy="389.003" r="4" fill="#0" id="circle304"/>
	<circle cx="849.077" cy="304.281" r="4" fill="#0" id="circle305"/>
	<circle cx="855.511" cy="385.786" r="4" fill="#0" id="circle306"/>
	<circle cx="859.801" cy="304.281" r="4" fill="#0" id="circle307"/>
	<circle cx="865.163" cy="380.424" r="4" fill="#0" id="circle308"/>
	<circle cx="869.453" cy="298.919" r="4" fill="#0" id="circle309"/>
	<circle cx="874.815" cy="375.062" r="4" fill="#0" id="circle310"/>
	<circle cx="880.177" cy="298.919" r="4" fill="#0" id="circle311"/>
	<circle cx="885.539" cy="375.062" r="4" fill="#0" id="circle312"/>
	<circle cx="889.829" cy="293.557" r="4" fill="#0" id="circle313"/>
	<circle cx="895.191" cy="369.699" r="4" fill="#0" id="circle314"/>
	<circle cx="900.554" cy="293.557" r="4" fill="#0" id="circle315"/>
	<circle cx="905.916" cy="364.337" r="4" fill="#0" id="circle316"/>
	<circle cx="910.205" cy="288.195" r="4" fill="#0" id="circle317"/>
	<circle cx="916.64" cy="358.975" r="4" fill="#0" id="circle318"/>
	<circle cx="920.93" cy="288.195" r="4" fill="#0" id="circle319"/>
	<circle cx="927.364" cy="353.613" r="4" fill="#0" id="circle320"/>
	<circle cx="931.654" cy="288.195" r="4" fill="#0" id="circle321"/>
	<circle cx="938.089" cy="353.613" r="4" fill="#0" id="circle322"/>
	<circle cx="942.378" cy="288.195" r="4" fill="#0" id="circle323"/>
	<circle cx="947.741" cy="348.251" r="4" fill="#0" id="circle324"/>
	<circle cx="953.103" cy="288.195" r="4" fill="#0" id="circle325"/>
	<circle cx="958.465" cy="345.034" r="4" fill="#0" id="circle326"/>
	<circle cx="963.827" cy="288.195" r="4" fill="#0" id="circle327"/>
	<circle cx="969.189" cy="339.671" r="4" fill="#0" id="circle328"/>
	<circle cx="974.551" cy="290.339" r="4" fill="#0" id="circle329"/>
	<circle cx="979.914" cy="334.309" r="4" fill="#0" id="circle330"/>
	<circle cx="984.203" cy="295.702" r="4" fill="#0" id="circle331"/>
	<circle cx="990.638" cy="328.947" r="4" fill="#0" id="circle332"/>
	<circle cx="991.71" cy="304.281" r="4" fill="#0" id="circle333"/>
	<circle cx="996" cy="318.223" r="4" fill="#0" id="circle334"/>
	</g>
</svg>