<?xml version="1.0" encoding="UTF-8" standalone="no"?>
<!-- Created with CurveBenchmark -->
<svg
	xmlns:dc="http://purl.org/dc/elements/1.1/"
	xmlns:cc="http://creativecommons.org/ns#"
	xmlns:rdf="http://www.w3.org/1999/02/22-rdf-syntax-ns#"
	xmlns:svg="http://www.w3.org/2000/svg"
	xmlns="http://www.w3.org/2000/svg"
	xmlns:sodipodi="http://sodipodi.sourceforge.net/DTD/sodipodi-0.dtd"
	xmlns:inkscape="http://www.inkscape.org/namespaces/inkscape"
	width="1000"
	height="1000"
	id="svg2"
	version="1.1"
	sodipodi:docname="manifold/crawl-woodenspoonbinary17.png.txt">
<defs
	id="defs4" />
<metadata
	id="metadata7">
	<rdf:RDF>
		<cc:Work
			rdf:about="">
			<dc:format>image/svg+xml</dc:format>
			<dc:type
				rdf:resource="http://purl.org/dc/dcmitype/StillImage" />
			<dc:title></dc:title>
		</cc:Work>
	</rdf:RDF>
</metadata>
<g
	inkscape:label="Layer 1"
	inkscape:groupmode="layer"
	id="layer1">
	<path style="fill:none;stroke:red;stroke-width:1px;stroke-linecap:butt;stroke-linejoin:miter;stroke-opacity:1" d="M 18.2648,122.874 14.6986,118.119 z" id="boundary" inkscape:connector-curvature="0" />
	<path style="fill:none;stroke:red;stroke-width:1px;stroke-linecap:butt;stroke-linejoin:miter;stroke-opacity:1" d="M 18.2648,122.874 21.831,127.629 z" id="boundary" inkscape:connector-curvature="0" />
	<path style="fill:none;stroke:red;stroke-width:1px;stroke-linecap:butt;stroke-linejoin:miter;stroke-opacity:1" d="M 14.6986,118.119 11.7268,112.769 z" id="boundary" inkscape:connector-curvature="0" />
	<path style="fill:none;stroke:red;stroke-width:1px;stroke-linecap:butt;stroke-linejoin:miter;stroke-opacity:1" d="M 21.831,127.629 25.9916,132.383 z" id="boundary" inkscape:connector-curvature="0" />
	<path style="fill:none;stroke:red;stroke-width:1px;stroke-linecap:butt;stroke-linejoin:miter;stroke-opacity:1" d="M 25.9916,132.383 30.1522,137.138 z" id="boundary" inkscape:connector-curvature="0" />
	<path style="fill:none;stroke:red;stroke-width:1px;stroke-linecap:butt;stroke-linejoin:miter;stroke-opacity:1" d="M 30.1522,137.138 33.7184,141.893 z" id="boundary" inkscape:connector-curvature="0" />
	<path style="fill:none;stroke:red;stroke-width:1px;stroke-linecap:butt;stroke-linejoin:miter;stroke-opacity:1" d="M 33.7184,141.893 37.879,146.648 z" id="boundary" inkscape:connector-curvature="0" />
	<path style="fill:none;stroke:red;stroke-width:1px;stroke-linecap:butt;stroke-linejoin:miter;stroke-opacity:1" d="M 37.879,146.648 43.2283,149.62 z" id="boundary" inkscape:connector-curvature="0" />
	<path style="fill:none;stroke:red;stroke-width:1px;stroke-linecap:butt;stroke-linejoin:miter;stroke-opacity:1" d="M 43.2283,149.62 47.9832,153.186 z" id="boundary" inkscape:connector-curvature="0" />
	<path style="fill:none;stroke:red;stroke-width:1px;stroke-linecap:butt;stroke-linejoin:miter;stroke-opacity:1" d="M 47.9832,153.186 52.7382,157.347 z" id="boundary" inkscape:connector-curvature="0" />
	<path style="fill:none;stroke:red;stroke-width:1px;stroke-linecap:butt;stroke-linejoin:miter;stroke-opacity:1" d="M 52.7382,157.347 57.4931,161.507 z" id="boundary" inkscape:connector-curvature="0" />
	<path style="fill:none;stroke:red;stroke-width:1px;stroke-linecap:butt;stroke-linejoin:miter;stroke-opacity:1" d="M 57.4931,161.507 62.8424,164.479 z" id="boundary" inkscape:connector-curvature="0" />
	<path style="fill:none;stroke:red;stroke-width:1px;stroke-linecap:butt;stroke-linejoin:miter;stroke-opacity:1" d="M 62.8424,164.479 67.5974,168.046 z" id="boundary" inkscape:connector-curvature="0" />
	<path style="fill:none;stroke:red;stroke-width:1px;stroke-linecap:butt;stroke-linejoin:miter;stroke-opacity:1" d="M 67.5974,168.046 72.9467,171.017 z" id="boundary" inkscape:connector-curvature="0" />
	<path style="fill:none;stroke:red;stroke-width:1px;stroke-linecap:butt;stroke-linejoin:miter;stroke-opacity:1" d="M 11.7268,112.769 9.34931,106.826 z" id="boundary" inkscape:connector-curvature="0" />
	<path style="fill:none;stroke:red;stroke-width:1px;stroke-linecap:butt;stroke-linejoin:miter;stroke-opacity:1" d="M 9.34931,106.826 8.16058,100.882 z" id="boundary" inkscape:connector-curvature="0" />
	<path style="fill:none;stroke:red;stroke-width:1px;stroke-linecap:butt;stroke-linejoin:miter;stroke-opacity:1" d="M 8.16058,100.882 6.37747,94.9383 z" id="boundary" inkscape:connector-curvature="0" />
	<path style="fill:none;stroke:red;stroke-width:1px;stroke-linecap:butt;stroke-linejoin:miter;stroke-opacity:1" d="M 6.37747,94.9383 5.7831,88.9946 z" id="boundary" inkscape:connector-curvature="0" />
	<path style="fill:none;stroke:red;stroke-width:1px;stroke-linecap:butt;stroke-linejoin:miter;stroke-opacity:1" d="M 72.9467,171.017 78.8904,173.395 z" id="boundary" inkscape:connector-curvature="0" />
	<path style="fill:none;stroke:red;stroke-width:1px;stroke-linecap:butt;stroke-linejoin:miter;stroke-opacity:1" d="M 78.8904,173.395 84.834,175.772 z" id="boundary" inkscape:connector-curvature="0" />
	<path style="fill:none;stroke:red;stroke-width:1px;stroke-linecap:butt;stroke-linejoin:miter;stroke-opacity:1" d="M 84.834,175.772 89.589,179.339 z" id="boundary" inkscape:connector-curvature="0" />
	<path style="fill:none;stroke:red;stroke-width:1px;stroke-linecap:butt;stroke-linejoin:miter;stroke-opacity:1" d="M 89.589,179.339 94.9383,182.31 z" id="boundary" inkscape:connector-curvature="0" />
	<path style="fill:none;stroke:red;stroke-width:1px;stroke-linecap:butt;stroke-linejoin:miter;stroke-opacity:1" d="M 94.9383,182.31 99.6932,185.877 z" id="boundary" inkscape:connector-curvature="0" />
	<path style="fill:none;stroke:red;stroke-width:1px;stroke-linecap:butt;stroke-linejoin:miter;stroke-opacity:1" d="M 99.6932,185.877 105.637,188.254 z" id="boundary" inkscape:connector-curvature="0" />
	<path style="fill:none;stroke:red;stroke-width:1px;stroke-linecap:butt;stroke-linejoin:miter;stroke-opacity:1" d="M 105.637,188.254 111.581,189.443 z" id="boundary" inkscape:connector-curvature="0" />
	<path style="fill:none;stroke:red;stroke-width:1px;stroke-linecap:butt;stroke-linejoin:miter;stroke-opacity:1" d="M 111.581,189.443 116.93,192.415 z" id="boundary" inkscape:connector-curvature="0" />
	<path style="fill:none;stroke:red;stroke-width:1px;stroke-linecap:butt;stroke-linejoin:miter;stroke-opacity:1" d="M 116.93,192.415 122.874,194.198 z" id="boundary" inkscape:connector-curvature="0" />
	<path style="fill:none;stroke:red;stroke-width:1px;stroke-linecap:butt;stroke-linejoin:miter;stroke-opacity:1" d="M 122.874,194.198 128.817,196.575 z" id="boundary" inkscape:connector-curvature="0" />
	<path style="fill:none;stroke:red;stroke-width:1px;stroke-linecap:butt;stroke-linejoin:miter;stroke-opacity:1" d="M 128.817,196.575 134.761,197.17 z" id="boundary" inkscape:connector-curvature="0" />
	<path style="fill:none;stroke:red;stroke-width:1px;stroke-linecap:butt;stroke-linejoin:miter;stroke-opacity:1" d="M 134.761,197.17 140.11,200.141 z" id="boundary" inkscape:connector-curvature="0" />
	<path style="fill:none;stroke:red;stroke-width:1px;stroke-linecap:butt;stroke-linejoin:miter;stroke-opacity:1" d="M 140.11,200.141 146.054,201.33 z" id="boundary" inkscape:connector-curvature="0" />
	<path style="fill:none;stroke:red;stroke-width:1px;stroke-linecap:butt;stroke-linejoin:miter;stroke-opacity:1" d="M 146.054,201.33 151.998,203.708 z" id="boundary" inkscape:connector-curvature="0" />
	<path style="fill:none;stroke:red;stroke-width:1px;stroke-linecap:butt;stroke-linejoin:miter;stroke-opacity:1" d="M 151.998,203.708 157.941,204.896 z" id="boundary" inkscape:connector-curvature="0" />
	<path style="fill:none;stroke:red;stroke-width:1px;stroke-linecap:butt;stroke-linejoin:miter;stroke-opacity:1" d="M 157.941,204.896 163.885,206.085 z" id="boundary" inkscape:connector-curvature="0" />
	<path style="fill:none;stroke:red;stroke-width:1px;stroke-linecap:butt;stroke-linejoin:miter;stroke-opacity:1" d="M 163.885,206.085 169.829,207.274 z" id="boundary" inkscape:connector-curvature="0" />
	<path style="fill:none;stroke:red;stroke-width:1px;stroke-linecap:butt;stroke-linejoin:miter;stroke-opacity:1" d="M 169.829,207.274 175.772,208.463 z" id="boundary" inkscape:connector-curvature="0" />
	<path style="fill:none;stroke:red;stroke-width:1px;stroke-linecap:butt;stroke-linejoin:miter;stroke-opacity:1" d="M 175.772,208.463 181.716,209.057 z" id="boundary" inkscape:connector-curvature="0" />
	<path style="fill:none;stroke:red;stroke-width:1px;stroke-linecap:butt;stroke-linejoin:miter;stroke-opacity:1" d="M 181.716,209.057 187.66,209.057 z" id="boundary" inkscape:connector-curvature="0" />
	<path style="fill:none;stroke:red;stroke-width:1px;stroke-linecap:butt;stroke-linejoin:miter;stroke-opacity:1" d="M 187.66,209.057 193.603,209.057 z" id="boundary" inkscape:connector-curvature="0" />
	<path style="fill:none;stroke:red;stroke-width:1px;stroke-linecap:butt;stroke-linejoin:miter;stroke-opacity:1" d="M 193.603,209.057 199.547,209.651 z" id="boundary" inkscape:connector-curvature="0" />
	<path style="fill:none;stroke:red;stroke-width:1px;stroke-linecap:butt;stroke-linejoin:miter;stroke-opacity:1" d="M 199.547,209.651 205.491,209.651 z" id="boundary" inkscape:connector-curvature="0" />
	<path style="fill:none;stroke:red;stroke-width:1px;stroke-linecap:butt;stroke-linejoin:miter;stroke-opacity:1" d="M 205.491,209.651 211.434,209.651 z" id="boundary" inkscape:connector-curvature="0" />
	<path style="fill:none;stroke:red;stroke-width:1px;stroke-linecap:butt;stroke-linejoin:miter;stroke-opacity:1" d="M 211.434,209.651 217.378,209.651 z" id="boundary" inkscape:connector-curvature="0" />
	<path style="fill:none;stroke:red;stroke-width:1px;stroke-linecap:butt;stroke-linejoin:miter;stroke-opacity:1" d="M 217.378,209.651 223.322,210.246 z" id="boundary" inkscape:connector-curvature="0" />
	<path style="fill:none;stroke:red;stroke-width:1px;stroke-linecap:butt;stroke-linejoin:miter;stroke-opacity:1" d="M 223.322,210.246 229.265,210.246 z" id="boundary" inkscape:connector-curvature="0" />
	<path style="fill:none;stroke:red;stroke-width:1px;stroke-linecap:butt;stroke-linejoin:miter;stroke-opacity:1" d="M 229.265,210.246 235.209,210.246 z" id="boundary" inkscape:connector-curvature="0" />
	<path style="fill:none;stroke:red;stroke-width:1px;stroke-linecap:butt;stroke-linejoin:miter;stroke-opacity:1" d="M 235.209,210.246 241.153,209.651 z" id="boundary" inkscape:connector-curvature="0" />
	<path style="fill:none;stroke:red;stroke-width:1px;stroke-linecap:butt;stroke-linejoin:miter;stroke-opacity:1" d="M 241.153,209.651 247.096,209.651 z" id="boundary" inkscape:connector-curvature="0" />
	<path style="fill:none;stroke:red;stroke-width:1px;stroke-linecap:butt;stroke-linejoin:miter;stroke-opacity:1" d="M 247.096,209.651 253.04,209.651 z" id="boundary" inkscape:connector-curvature="0" />
	<path style="fill:none;stroke:red;stroke-width:1px;stroke-linecap:butt;stroke-linejoin:miter;stroke-opacity:1" d="M 253.04,209.651 258.984,207.868 z" id="boundary" inkscape:connector-curvature="0" />
	<path style="fill:none;stroke:red;stroke-width:1px;stroke-linecap:butt;stroke-linejoin:miter;stroke-opacity:1" d="M 258.984,207.868 264.928,207.274 z" id="boundary" inkscape:connector-curvature="0" />
	<path style="fill:none;stroke:red;stroke-width:1px;stroke-linecap:butt;stroke-linejoin:miter;stroke-opacity:1" d="M 264.928,207.274 270.871,206.085 z" id="boundary" inkscape:connector-curvature="0" />
	<path style="fill:none;stroke:red;stroke-width:1px;stroke-linecap:butt;stroke-linejoin:miter;stroke-opacity:1" d="M 270.871,206.085 276.815,205.491 z" id="boundary" inkscape:connector-curvature="0" />
	<path style="fill:none;stroke:red;stroke-width:1px;stroke-linecap:butt;stroke-linejoin:miter;stroke-opacity:1" d="M 276.815,205.491 282.759,205.491 z" id="boundary" inkscape:connector-curvature="0" />
	<path style="fill:none;stroke:red;stroke-width:1px;stroke-linecap:butt;stroke-linejoin:miter;stroke-opacity:1" d="M 282.759,205.491 288.702,203.113 z" id="boundary" inkscape:connector-curvature="0" />
	<path style="fill:none;stroke:red;stroke-width:1px;stroke-linecap:butt;stroke-linejoin:miter;stroke-opacity:1" d="M 288.702,203.113 294.646,201.925 z" id="boundary" inkscape:connector-curvature="0" />
	<path style="fill:none;stroke:red;stroke-width:1px;stroke-linecap:butt;stroke-linejoin:miter;stroke-opacity:1" d="M 294.646,201.925 300.59,200.736 z" id="boundary" inkscape:connector-curvature="0" />
	<path style="fill:none;stroke:red;stroke-width:1px;stroke-linecap:butt;stroke-linejoin:miter;stroke-opacity:1" d="M 300.59,200.736 306.533,198.953 z" id="boundary" inkscape:connector-curvature="0" />
	<path style="fill:none;stroke:red;stroke-width:1px;stroke-linecap:butt;stroke-linejoin:miter;stroke-opacity:1" d="M 306.533,198.953 312.477,197.17 z" id="boundary" inkscape:connector-curvature="0" />
	<path style="fill:none;stroke:red;stroke-width:1px;stroke-linecap:butt;stroke-linejoin:miter;stroke-opacity:1" d="M 312.477,197.17 318.421,195.981 z" id="boundary" inkscape:connector-curvature="0" />
	<path style="fill:none;stroke:red;stroke-width:1px;stroke-linecap:butt;stroke-linejoin:miter;stroke-opacity:1" d="M 318.421,195.981 324.364,194.198 z" id="boundary" inkscape:connector-curvature="0" />
	<path style="fill:none;stroke:red;stroke-width:1px;stroke-linecap:butt;stroke-linejoin:miter;stroke-opacity:1" d="M 324.364,194.198 330.308,193.603 z" id="boundary" inkscape:connector-curvature="0" />
	<path style="fill:none;stroke:red;stroke-width:1px;stroke-linecap:butt;stroke-linejoin:miter;stroke-opacity:1" d="M 330.308,193.603 336.252,193.603 z" id="boundary" inkscape:connector-curvature="0" />
	<path style="fill:none;stroke:red;stroke-width:1px;stroke-linecap:butt;stroke-linejoin:miter;stroke-opacity:1" d="M 336.252,193.603 342.195,194.198 z" id="boundary" inkscape:connector-curvature="0" />
	<path style="fill:none;stroke:red;stroke-width:1px;stroke-linecap:butt;stroke-linejoin:miter;stroke-opacity:1" d="M 342.195,194.198 348.139,194.792 z" id="boundary" inkscape:connector-curvature="0" />
	<path style="fill:none;stroke:red;stroke-width:1px;stroke-linecap:butt;stroke-linejoin:miter;stroke-opacity:1" d="M 348.139,194.792 354.083,195.981 z" id="boundary" inkscape:connector-curvature="0" />
	<path style="fill:none;stroke:red;stroke-width:1px;stroke-linecap:butt;stroke-linejoin:miter;stroke-opacity:1" d="M 354.083,195.981 360.026,197.17 z" id="boundary" inkscape:connector-curvature="0" />
	<path style="fill:none;stroke:red;stroke-width:1px;stroke-linecap:butt;stroke-linejoin:miter;stroke-opacity:1" d="M 360.026,197.17 365.97,198.358 z" id="boundary" inkscape:connector-curvature="0" />
	<path style="fill:none;stroke:red;stroke-width:1px;stroke-linecap:butt;stroke-linejoin:miter;stroke-opacity:1" d="M 365.97,198.358 371.914,200.141 z" id="boundary" inkscape:connector-curvature="0" />
	<path style="fill:none;stroke:red;stroke-width:1px;stroke-linecap:butt;stroke-linejoin:miter;stroke-opacity:1" d="M 371.914,200.141 377.263,203.113 z" id="boundary" inkscape:connector-curvature="0" />
	<path style="fill:none;stroke:red;stroke-width:1px;stroke-linecap:butt;stroke-linejoin:miter;stroke-opacity:1" d="M 377.263,203.113 383.207,203.708 z" id="boundary" inkscape:connector-curvature="0" />
	<path style="fill:none;stroke:red;stroke-width:1px;stroke-linecap:butt;stroke-linejoin:miter;stroke-opacity:1" d="M 383.207,203.708 389.15,205.491 z" id="boundary" inkscape:connector-curvature="0" />
	<path style="fill:none;stroke:red;stroke-width:1px;stroke-linecap:butt;stroke-linejoin:miter;stroke-opacity:1" d="M 389.15,205.491 395.094,207.274 z" id="boundary" inkscape:connector-curvature="0" />
	<path style="fill:none;stroke:red;stroke-width:1px;stroke-linecap:butt;stroke-linejoin:miter;stroke-opacity:1" d="M 395.094,207.274 401.038,209.057 z" id="boundary" inkscape:connector-curvature="0" />
	<path style="fill:none;stroke:red;stroke-width:1px;stroke-linecap:butt;stroke-linejoin:miter;stroke-opacity:1" d="M 401.038,209.057 406.981,211.434 z" id="boundary" inkscape:connector-curvature="0" />
	<path style="fill:none;stroke:red;stroke-width:1px;stroke-linecap:butt;stroke-linejoin:miter;stroke-opacity:1" d="M 406.981,211.434 412.925,213.217 z" id="boundary" inkscape:connector-curvature="0" />
	<path style="fill:none;stroke:red;stroke-width:1px;stroke-linecap:butt;stroke-linejoin:miter;stroke-opacity:1" d="M 412.925,213.217 418.869,215.595 z" id="boundary" inkscape:connector-curvature="0" />
	<path style="fill:none;stroke:red;stroke-width:1px;stroke-linecap:butt;stroke-linejoin:miter;stroke-opacity:1" d="M 418.869,215.595 424.812,216.784 z" id="boundary" inkscape:connector-curvature="0" />
	<path style="fill:none;stroke:red;stroke-width:1px;stroke-linecap:butt;stroke-linejoin:miter;stroke-opacity:1" d="M 424.812,216.784 430.756,218.567 z" id="boundary" inkscape:connector-curvature="0" />
	<path style="fill:none;stroke:red;stroke-width:1px;stroke-linecap:butt;stroke-linejoin:miter;stroke-opacity:1" d="M 430.756,218.567 436.7,220.35 z" id="boundary" inkscape:connector-curvature="0" />
	<path style="fill:none;stroke:red;stroke-width:1px;stroke-linecap:butt;stroke-linejoin:miter;stroke-opacity:1" d="M 436.7,220.35 442.643,222.727 z" id="boundary" inkscape:connector-curvature="0" />
	<path style="fill:none;stroke:red;stroke-width:1px;stroke-linecap:butt;stroke-linejoin:miter;stroke-opacity:1" d="M 442.643,222.727 448.587,224.51 z" id="boundary" inkscape:connector-curvature="0" />
	<path style="fill:none;stroke:red;stroke-width:1px;stroke-linecap:butt;stroke-linejoin:miter;stroke-opacity:1" d="M 448.587,224.51 454.531,226.294 z" id="boundary" inkscape:connector-curvature="0" />
	<path style="fill:none;stroke:red;stroke-width:1px;stroke-linecap:butt;stroke-linejoin:miter;stroke-opacity:1" d="M 454.531,226.294 459.88,229.265 z" id="boundary" inkscape:connector-curvature="0" />
	<path style="fill:none;stroke:red;stroke-width:1px;stroke-linecap:butt;stroke-linejoin:miter;stroke-opacity:1" d="M 459.88,229.265 465.229,232.237 z" id="boundary" inkscape:connector-curvature="0" />
	<path style="fill:none;stroke:red;stroke-width:1px;stroke-linecap:butt;stroke-linejoin:miter;stroke-opacity:1" d="M 465.229,232.237 471.173,234.615 z" id="boundary" inkscape:connector-curvature="0" />
	<path style="fill:none;stroke:red;stroke-width:1px;stroke-linecap:butt;stroke-linejoin:miter;stroke-opacity:1" d="M 471.173,234.615 477.117,236.398 z" id="boundary" inkscape:connector-curvature="0" />
	<path style="fill:none;stroke:red;stroke-width:1px;stroke-linecap:butt;stroke-linejoin:miter;stroke-opacity:1" d="M 477.117,236.398 483.061,238.181 z" id="boundary" inkscape:connector-curvature="0" />
	<path style="fill:none;stroke:red;stroke-width:1px;stroke-linecap:butt;stroke-linejoin:miter;stroke-opacity:1" d="M 483.061,238.181 489.004,239.964 z" id="boundary" inkscape:connector-curvature="0" />
	<path style="fill:none;stroke:red;stroke-width:1px;stroke-linecap:butt;stroke-linejoin:miter;stroke-opacity:1" d="M 489.004,239.964 494.948,241.153 z" id="boundary" inkscape:connector-curvature="0" />
	<path style="fill:none;stroke:red;stroke-width:1px;stroke-linecap:butt;stroke-linejoin:miter;stroke-opacity:1" d="M 494.948,241.153 500.892,242.342 z" id="boundary" inkscape:connector-curvature="0" />
	<path style="fill:none;stroke:red;stroke-width:1px;stroke-linecap:butt;stroke-linejoin:miter;stroke-opacity:1" d="M 500.892,242.342 506.835,244.719 z" id="boundary" inkscape:connector-curvature="0" />
	<path style="fill:none;stroke:red;stroke-width:1px;stroke-linecap:butt;stroke-linejoin:miter;stroke-opacity:1" d="M 506.835,244.719 512.779,247.096 z" id="boundary" inkscape:connector-curvature="0" />
	<path style="fill:none;stroke:red;stroke-width:1px;stroke-linecap:butt;stroke-linejoin:miter;stroke-opacity:1" d="M 512.779,247.096 518.723,249.474 z" id="boundary" inkscape:connector-curvature="0" />
	<path style="fill:none;stroke:red;stroke-width:1px;stroke-linecap:butt;stroke-linejoin:miter;stroke-opacity:1" d="M 518.723,249.474 524.666,251.257 z" id="boundary" inkscape:connector-curvature="0" />
	<path style="fill:none;stroke:red;stroke-width:1px;stroke-linecap:butt;stroke-linejoin:miter;stroke-opacity:1" d="M 524.666,251.257 530.61,253.04 z" id="boundary" inkscape:connector-curvature="0" />
	<path style="fill:none;stroke:red;stroke-width:1px;stroke-linecap:butt;stroke-linejoin:miter;stroke-opacity:1" d="M 530.61,253.04 536.554,255.418 z" id="boundary" inkscape:connector-curvature="0" />
	<path style="fill:none;stroke:red;stroke-width:1px;stroke-linecap:butt;stroke-linejoin:miter;stroke-opacity:1" d="M 536.554,255.418 542.497,257.201 z" id="boundary" inkscape:connector-curvature="0" />
	<path style="fill:none;stroke:red;stroke-width:1px;stroke-linecap:butt;stroke-linejoin:miter;stroke-opacity:1" d="M 542.497,257.201 548.441,259.578 z" id="boundary" inkscape:connector-curvature="0" />
	<path style="fill:none;stroke:red;stroke-width:1px;stroke-linecap:butt;stroke-linejoin:miter;stroke-opacity:1" d="M 548.441,259.578 554.385,261.361 z" id="boundary" inkscape:connector-curvature="0" />
	<path style="fill:none;stroke:red;stroke-width:1px;stroke-linecap:butt;stroke-linejoin:miter;stroke-opacity:1" d="M 554.385,261.361 560.328,263.144 z" id="boundary" inkscape:connector-curvature="0" />
	<path style="fill:none;stroke:red;stroke-width:1px;stroke-linecap:butt;stroke-linejoin:miter;stroke-opacity:1" d="M 560.328,263.144 566.272,265.522 z" id="boundary" inkscape:connector-curvature="0" />
	<path style="fill:none;stroke:red;stroke-width:1px;stroke-linecap:butt;stroke-linejoin:miter;stroke-opacity:1" d="M 566.272,265.522 572.216,267.305 z" id="boundary" inkscape:connector-curvature="0" />
	<path style="fill:none;stroke:red;stroke-width:1px;stroke-linecap:butt;stroke-linejoin:miter;stroke-opacity:1" d="M 572.216,267.305 578.159,269.682 z" id="boundary" inkscape:connector-curvature="0" />
	<path style="fill:none;stroke:red;stroke-width:1px;stroke-linecap:butt;stroke-linejoin:miter;stroke-opacity:1" d="M 578.159,269.682 584.103,270.871 z" id="boundary" inkscape:connector-curvature="0" />
	<path style="fill:none;stroke:red;stroke-width:1px;stroke-linecap:butt;stroke-linejoin:miter;stroke-opacity:1" d="M 584.103,270.871 590.047,272.654 z" id="boundary" inkscape:connector-curvature="0" />
	<path style="fill:none;stroke:red;stroke-width:1px;stroke-linecap:butt;stroke-linejoin:miter;stroke-opacity:1" d="M 590.047,272.654 595.99,275.032 z" id="boundary" inkscape:connector-curvature="0" />
	<path style="fill:none;stroke:red;stroke-width:1px;stroke-linecap:butt;stroke-linejoin:miter;stroke-opacity:1" d="M 595.99,275.032 601.34,278.004 z" id="boundary" inkscape:connector-curvature="0" />
	<path style="fill:none;stroke:red;stroke-width:1px;stroke-linecap:butt;stroke-linejoin:miter;stroke-opacity:1" d="M 601.34,278.004 607.283,279.192 z" id="boundary" inkscape:connector-curvature="0" />
	<path style="fill:none;stroke:red;stroke-width:1px;stroke-linecap:butt;stroke-linejoin:miter;stroke-opacity:1" d="M 607.283,279.192 613.227,280.975 z" id="boundary" inkscape:connector-curvature="0" />
	<path style="fill:none;stroke:red;stroke-width:1px;stroke-linecap:butt;stroke-linejoin:miter;stroke-opacity:1" d="M 613.227,280.975 619.171,282.759 z" id="boundary" inkscape:connector-curvature="0" />
	<path style="fill:none;stroke:red;stroke-width:1px;stroke-linecap:butt;stroke-linejoin:miter;stroke-opacity:1" d="M 619.171,282.759 625.114,284.542 z" id="boundary" inkscape:connector-curvature="0" />
	<path style="fill:none;stroke:red;stroke-width:1px;stroke-linecap:butt;stroke-linejoin:miter;stroke-opacity:1" d="M 625.114,284.542 631.058,286.919 z" id="boundary" inkscape:connector-curvature="0" />
	<path style="fill:none;stroke:red;stroke-width:1px;stroke-linecap:butt;stroke-linejoin:miter;stroke-opacity:1" d="M 631.058,286.919 637.002,288.702 z" id="boundary" inkscape:connector-curvature="0" />
	<path style="fill:none;stroke:red;stroke-width:1px;stroke-linecap:butt;stroke-linejoin:miter;stroke-opacity:1" d="M 637.002,288.702 642.945,290.485 z" id="boundary" inkscape:connector-curvature="0" />
	<path style="fill:none;stroke:red;stroke-width:1px;stroke-linecap:butt;stroke-linejoin:miter;stroke-opacity:1" d="M 642.945,290.485 648.889,292.268 z" id="boundary" inkscape:connector-curvature="0" />
	<path style="fill:none;stroke:red;stroke-width:1px;stroke-linecap:butt;stroke-linejoin:miter;stroke-opacity:1" d="M 648.889,292.268 654.833,294.052 z" id="boundary" inkscape:connector-curvature="0" />
	<path style="fill:none;stroke:red;stroke-width:1px;stroke-linecap:butt;stroke-linejoin:miter;stroke-opacity:1" d="M 654.833,294.052 660.777,296.429 z" id="boundary" inkscape:connector-curvature="0" />
	<path style="fill:none;stroke:red;stroke-width:1px;stroke-linecap:butt;stroke-linejoin:miter;stroke-opacity:1" d="M 660.777,296.429 666.72,298.806 z" id="boundary" inkscape:connector-curvature="0" />
	<path style="fill:none;stroke:red;stroke-width:1px;stroke-linecap:butt;stroke-linejoin:miter;stroke-opacity:1" d="M 666.72,298.806 672.664,300.59 z" id="boundary" inkscape:connector-curvature="0" />
	<path style="fill:none;stroke:red;stroke-width:1px;stroke-linecap:butt;stroke-linejoin:miter;stroke-opacity:1" d="M 672.664,300.59 678.013,303.561 z" id="boundary" inkscape:connector-curvature="0" />
	<path style="fill:none;stroke:red;stroke-width:1px;stroke-linecap:butt;stroke-linejoin:miter;stroke-opacity:1" d="M 678.013,303.561 683.957,304.75 z" id="boundary" inkscape:connector-curvature="0" />
	<path style="fill:none;stroke:red;stroke-width:1px;stroke-linecap:butt;stroke-linejoin:miter;stroke-opacity:1" d="M 683.957,304.75 689.901,305.939 z" id="boundary" inkscape:connector-curvature="0" />
	<path style="fill:none;stroke:red;stroke-width:1px;stroke-linecap:butt;stroke-linejoin:miter;stroke-opacity:1" d="M 689.901,305.939 695.844,308.316 z" id="boundary" inkscape:connector-curvature="0" />
	<path style="fill:none;stroke:red;stroke-width:1px;stroke-linecap:butt;stroke-linejoin:miter;stroke-opacity:1" d="M 695.844,308.316 701.788,310.694 z" id="boundary" inkscape:connector-curvature="0" />
	<path style="fill:none;stroke:red;stroke-width:1px;stroke-linecap:butt;stroke-linejoin:miter;stroke-opacity:1" d="M 701.788,310.694 707.732,313.071 z" id="boundary" inkscape:connector-curvature="0" />
	<path style="fill:none;stroke:red;stroke-width:1px;stroke-linecap:butt;stroke-linejoin:miter;stroke-opacity:1" d="M 707.732,313.071 713.675,314.854 z" id="boundary" inkscape:connector-curvature="0" />
	<path style="fill:none;stroke:red;stroke-width:1px;stroke-linecap:butt;stroke-linejoin:miter;stroke-opacity:1" d="M 713.675,314.854 719.619,317.232 z" id="boundary" inkscape:connector-curvature="0" />
	<path style="fill:none;stroke:red;stroke-width:1px;stroke-linecap:butt;stroke-linejoin:miter;stroke-opacity:1" d="M 719.619,317.232 725.563,318.421 z" id="boundary" inkscape:connector-curvature="0" />
	<path style="fill:none;stroke:red;stroke-width:1px;stroke-linecap:butt;stroke-linejoin:miter;stroke-opacity:1" d="M 725.563,318.421 731.506,320.798 z" id="boundary" inkscape:connector-curvature="0" />
	<path style="fill:none;stroke:red;stroke-width:1px;stroke-linecap:butt;stroke-linejoin:miter;stroke-opacity:1" d="M 731.506,320.798 737.45,323.176 z" id="boundary" inkscape:connector-curvature="0" />
	<path style="fill:none;stroke:red;stroke-width:1px;stroke-linecap:butt;stroke-linejoin:miter;stroke-opacity:1" d="M 737.45,323.176 743.394,324.959 z" id="boundary" inkscape:connector-curvature="0" />
	<path style="fill:none;stroke:red;stroke-width:1px;stroke-linecap:butt;stroke-linejoin:miter;stroke-opacity:1" d="M 743.394,324.959 749.337,327.336 z" id="boundary" inkscape:connector-curvature="0" />
	<path style="fill:none;stroke:red;stroke-width:1px;stroke-linecap:butt;stroke-linejoin:miter;stroke-opacity:1" d="M 749.337,327.336 755.281,329.714 z" id="boundary" inkscape:connector-curvature="0" />
	<path style="fill:none;stroke:red;stroke-width:1px;stroke-linecap:butt;stroke-linejoin:miter;stroke-opacity:1" d="M 755.281,329.714 761.225,331.497 z" id="boundary" inkscape:connector-curvature="0" />
	<path style="fill:none;stroke:red;stroke-width:1px;stroke-linecap:butt;stroke-linejoin:miter;stroke-opacity:1" d="M 761.225,331.497 767.168,333.874 z" id="boundary" inkscape:connector-curvature="0" />
	<path style="fill:none;stroke:red;stroke-width:1px;stroke-linecap:butt;stroke-linejoin:miter;stroke-opacity:1" d="M 767.168,333.874 773.112,335.063 z" id="boundary" inkscape:connector-curvature="0" />
	<path style="fill:none;stroke:red;stroke-width:1px;stroke-linecap:butt;stroke-linejoin:miter;stroke-opacity:1" d="M 773.112,335.063 779.056,336.846 z" id="boundary" inkscape:connector-curvature="0" />
	<path style="fill:none;stroke:red;stroke-width:1px;stroke-linecap:butt;stroke-linejoin:miter;stroke-opacity:1" d="M 779.056,336.846 784.999,339.223 z" id="boundary" inkscape:connector-curvature="0" />
	<path style="fill:none;stroke:red;stroke-width:1px;stroke-linecap:butt;stroke-linejoin:miter;stroke-opacity:1" d="M 784.999,339.223 790.943,341.007 z" id="boundary" inkscape:connector-curvature="0" />
	<path style="fill:none;stroke:red;stroke-width:1px;stroke-linecap:butt;stroke-linejoin:miter;stroke-opacity:1" d="M 790.943,341.007 796.887,343.384 z" id="boundary" inkscape:connector-curvature="0" />
	<path style="fill:none;stroke:red;stroke-width:1px;stroke-linecap:butt;stroke-linejoin:miter;stroke-opacity:1" d="M 796.887,343.384 802.83,345.762 z" id="boundary" inkscape:connector-curvature="0" />
	<path style="fill:none;stroke:red;stroke-width:1px;stroke-linecap:butt;stroke-linejoin:miter;stroke-opacity:1" d="M 802.83,345.762 808.774,348.139 z" id="boundary" inkscape:connector-curvature="0" />
	<path style="fill:none;stroke:red;stroke-width:1px;stroke-linecap:butt;stroke-linejoin:miter;stroke-opacity:1" d="M 808.774,348.139 814.718,349.328 z" id="boundary" inkscape:connector-curvature="0" />
	<path style="fill:none;stroke:red;stroke-width:1px;stroke-linecap:butt;stroke-linejoin:miter;stroke-opacity:1" d="M 814.718,349.328 820.661,351.705 z" id="boundary" inkscape:connector-curvature="0" />
	<path style="fill:none;stroke:red;stroke-width:1px;stroke-linecap:butt;stroke-linejoin:miter;stroke-opacity:1" d="M 820.661,351.705 826.605,354.083 z" id="boundary" inkscape:connector-curvature="0" />
	<path style="fill:none;stroke:red;stroke-width:1px;stroke-linecap:butt;stroke-linejoin:miter;stroke-opacity:1" d="M 826.605,354.083 831.954,357.055 z" id="boundary" inkscape:connector-curvature="0" />
	<path style="fill:none;stroke:red;stroke-width:1px;stroke-linecap:butt;stroke-linejoin:miter;stroke-opacity:1" d="M 831.954,357.055 837.898,358.838 z" id="boundary" inkscape:connector-curvature="0" />
	<path style="fill:none;stroke:red;stroke-width:1px;stroke-linecap:butt;stroke-linejoin:miter;stroke-opacity:1" d="M 837.898,358.838 843.842,360.026 z" id="boundary" inkscape:connector-curvature="0" />
	<path style="fill:none;stroke:red;stroke-width:1px;stroke-linecap:butt;stroke-linejoin:miter;stroke-opacity:1" d="M 843.842,360.026 849.786,361.809 z" id="boundary" inkscape:connector-curvature="0" />
	<path style="fill:none;stroke:red;stroke-width:1px;stroke-linecap:butt;stroke-linejoin:miter;stroke-opacity:1" d="M 849.786,361.809 855.729,363.593 z" id="boundary" inkscape:connector-curvature="0" />
	<path style="fill:none;stroke:red;stroke-width:1px;stroke-linecap:butt;stroke-linejoin:miter;stroke-opacity:1" d="M 855.729,363.593 861.673,365.97 z" id="boundary" inkscape:connector-curvature="0" />
	<path style="fill:none;stroke:red;stroke-width:1px;stroke-linecap:butt;stroke-linejoin:miter;stroke-opacity:1" d="M 861.673,365.97 867.617,368.348 z" id="boundary" inkscape:connector-curvature="0" />
	<path style="fill:none;stroke:red;stroke-width:1px;stroke-linecap:butt;stroke-linejoin:miter;stroke-opacity:1" d="M 867.617,368.348 873.56,370.725 z" id="boundary" inkscape:connector-curvature="0" />
	<path style="fill:none;stroke:red;stroke-width:1px;stroke-linecap:butt;stroke-linejoin:miter;stroke-opacity:1" d="M 873.56,370.725 879.504,373.102 z" id="boundary" inkscape:connector-curvature="0" />
	<path style="fill:none;stroke:red;stroke-width:1px;stroke-linecap:butt;stroke-linejoin:miter;stroke-opacity:1" d="M 879.504,373.102 885.448,374.886 z" id="boundary" inkscape:connector-curvature="0" />
	<path style="fill:none;stroke:red;stroke-width:1px;stroke-linecap:butt;stroke-linejoin:miter;stroke-opacity:1" d="M 885.448,374.886 891.391,376.074 z" id="boundary" inkscape:connector-curvature="0" />
	<path style="fill:none;stroke:red;stroke-width:1px;stroke-linecap:butt;stroke-linejoin:miter;stroke-opacity:1" d="M 891.391,376.074 897.335,378.452 z" id="boundary" inkscape:connector-curvature="0" />
	<path style="fill:none;stroke:red;stroke-width:1px;stroke-linecap:butt;stroke-linejoin:miter;stroke-opacity:1" d="M 897.335,378.452 903.279,380.829 z" id="boundary" inkscape:connector-curvature="0" />
	<path style="fill:none;stroke:red;stroke-width:1px;stroke-linecap:butt;stroke-linejoin:miter;stroke-opacity:1" d="M 903.279,380.829 908.628,383.801 z" id="boundary" inkscape:connector-curvature="0" />
	<path style="fill:none;stroke:red;stroke-width:1px;stroke-linecap:butt;stroke-linejoin:miter;stroke-opacity:1" d="M 908.628,383.801 914.572,386.179 z" id="boundary" inkscape:connector-curvature="0" />
	<path style="fill:none;stroke:red;stroke-width:1px;stroke-linecap:butt;stroke-linejoin:miter;stroke-opacity:1" d="M 914.572,386.179 920.515,387.367 z" id="boundary" inkscape:connector-curvature="0" />
	<path style="fill:none;stroke:red;stroke-width:1px;stroke-linecap:butt;stroke-linejoin:miter;stroke-opacity:1" d="M 920.515,387.367 926.459,388.556 z" id="boundary" inkscape:connector-curvature="0" />
	<path style="fill:none;stroke:red;stroke-width:1px;stroke-linecap:butt;stroke-linejoin:miter;stroke-opacity:1" d="M 926.459,388.556 932.403,389.745 z" id="boundary" inkscape:connector-curvature="0" />
	<path style="fill:none;stroke:red;stroke-width:1px;stroke-linecap:butt;stroke-linejoin:miter;stroke-opacity:1" d="M 932.403,389.745 938.346,391.528 z" id="boundary" inkscape:connector-curvature="0" />
	<path style="fill:none;stroke:red;stroke-width:1px;stroke-linecap:butt;stroke-linejoin:miter;stroke-opacity:1" d="M 938.346,391.528 944.29,393.311 z" id="boundary" inkscape:connector-curvature="0" />
	<path style="fill:none;stroke:red;stroke-width:1px;stroke-linecap:butt;stroke-linejoin:miter;stroke-opacity:1" d="M 944.29,393.311 950.234,395.094 z" id="boundary" inkscape:connector-curvature="0" />
	<path style="fill:none;stroke:red;stroke-width:1px;stroke-linecap:butt;stroke-linejoin:miter;stroke-opacity:1" d="M 950.234,395.094 956.177,396.877 z" id="boundary" inkscape:connector-curvature="0" />
	<path style="fill:none;stroke:red;stroke-width:1px;stroke-linecap:butt;stroke-linejoin:miter;stroke-opacity:1" d="M 956.177,396.877 962.121,398.066 z" id="boundary" inkscape:connector-curvature="0" />
	<path style="fill:none;stroke:red;stroke-width:1px;stroke-linecap:butt;stroke-linejoin:miter;stroke-opacity:1" d="M 962.121,398.066 968.065,400.443 z" id="boundary" inkscape:connector-curvature="0" />
	<path style="fill:none;stroke:red;stroke-width:1px;stroke-linecap:butt;stroke-linejoin:miter;stroke-opacity:1" d="M 968.065,400.443 974.008,402.226 z" id="boundary" inkscape:connector-curvature="0" />
	<path style="fill:none;stroke:red;stroke-width:1px;stroke-linecap:butt;stroke-linejoin:miter;stroke-opacity:1" d="M 974.008,402.226 979.952,402.226 z" id="boundary" inkscape:connector-curvature="0" />
	<path style="fill:none;stroke:red;stroke-width:1px;stroke-linecap:butt;stroke-linejoin:miter;stroke-opacity:1" d="M 979.952,402.226 985.896,399.849 z" id="boundary" inkscape:connector-curvature="0" />
	<path style="fill:none;stroke:red;stroke-width:1px;stroke-linecap:butt;stroke-linejoin:miter;stroke-opacity:1" d="M 985.896,399.849 990.651,395.688 z" id="boundary" inkscape:connector-curvature="0" />
	<path style="fill:none;stroke:red;stroke-width:1px;stroke-linecap:butt;stroke-linejoin:miter;stroke-opacity:1" d="M 990.651,395.688 994.217,390.339 z" id="boundary" inkscape:connector-curvature="0" />
	<path style="fill:none;stroke:red;stroke-width:1px;stroke-linecap:butt;stroke-linejoin:miter;stroke-opacity:1" d="M 994.217,390.339 996,384.395 z" id="boundary" inkscape:connector-curvature="0" />
	<path style="fill:none;stroke:red;stroke-width:1px;stroke-linecap:butt;stroke-linejoin:miter;stroke-opacity:1" d="M 996,384.395 994.811,378.452 z" id="boundary" inkscape:connector-curvature="0" />
	<path style="fill:none;stroke:red;stroke-width:1px;stroke-linecap:butt;stroke-linejoin:miter;stroke-opacity:1" d="M 994.811,378.452 991.245,373.697 z" id="boundary" inkscape:connector-curvature="0" />
	<path style="fill:none;stroke:red;stroke-width:1px;stroke-linecap:butt;stroke-linejoin:miter;stroke-opacity:1" d="M 991.245,373.697 986.49,370.131 z" id="boundary" inkscape:connector-curvature="0" />
	<path style="fill:none;stroke:red;stroke-width:1px;stroke-linecap:butt;stroke-linejoin:miter;stroke-opacity:1" d="M 986.49,370.131 981.141,367.159 z" id="boundary" inkscape:connector-curvature="0" />
	<path style="fill:none;stroke:red;stroke-width:1px;stroke-linecap:butt;stroke-linejoin:miter;stroke-opacity:1" d="M 981.141,367.159 975.791,364.187 z" id="boundary" inkscape:connector-curvature="0" />
	<path style="fill:none;stroke:red;stroke-width:1px;stroke-linecap:butt;stroke-linejoin:miter;stroke-opacity:1" d="M 975.791,364.187 969.848,362.998 z" id="boundary" inkscape:connector-curvature="0" />
	<path style="fill:none;stroke:red;stroke-width:1px;stroke-linecap:butt;stroke-linejoin:miter;stroke-opacity:1" d="M 969.848,362.998 963.904,360.621 z" id="boundary" inkscape:connector-curvature="0" />
	<path style="fill:none;stroke:red;stroke-width:1px;stroke-linecap:butt;stroke-linejoin:miter;stroke-opacity:1" d="M 963.904,360.621 957.96,359.432 z" id="boundary" inkscape:connector-curvature="0" />
	<path style="fill:none;stroke:red;stroke-width:1px;stroke-linecap:butt;stroke-linejoin:miter;stroke-opacity:1" d="M 957.96,359.432 952.611,356.46 z" id="boundary" inkscape:connector-curvature="0" />
	<path style="fill:none;stroke:red;stroke-width:1px;stroke-linecap:butt;stroke-linejoin:miter;stroke-opacity:1" d="M 952.611,356.46 946.667,354.083 z" id="boundary" inkscape:connector-curvature="0" />
	<path style="fill:none;stroke:red;stroke-width:1px;stroke-linecap:butt;stroke-linejoin:miter;stroke-opacity:1" d="M 946.667,354.083 940.724,351.705 z" id="boundary" inkscape:connector-curvature="0" />
	<path style="fill:none;stroke:red;stroke-width:1px;stroke-linecap:butt;stroke-linejoin:miter;stroke-opacity:1" d="M 940.724,351.705 934.78,350.516 z" id="boundary" inkscape:connector-curvature="0" />
	<path style="fill:none;stroke:red;stroke-width:1px;stroke-linecap:butt;stroke-linejoin:miter;stroke-opacity:1" d="M 934.78,350.516 928.836,348.733 z" id="boundary" inkscape:connector-curvature="0" />
	<path style="fill:none;stroke:red;stroke-width:1px;stroke-linecap:butt;stroke-linejoin:miter;stroke-opacity:1" d="M 928.836,348.733 923.487,345.762 z" id="boundary" inkscape:connector-curvature="0" />
	<path style="fill:none;stroke:red;stroke-width:1px;stroke-linecap:butt;stroke-linejoin:miter;stroke-opacity:1" d="M 923.487,345.762 917.543,343.384 z" id="boundary" inkscape:connector-curvature="0" />
	<path style="fill:none;stroke:red;stroke-width:1px;stroke-linecap:butt;stroke-linejoin:miter;stroke-opacity:1" d="M 917.543,343.384 911.6,342.195 z" id="boundary" inkscape:connector-curvature="0" />
	<path style="fill:none;stroke:red;stroke-width:1px;stroke-linecap:butt;stroke-linejoin:miter;stroke-opacity:1" d="M 911.6,342.195 905.656,339.818 z" id="boundary" inkscape:connector-curvature="0" />
	<path style="fill:none;stroke:red;stroke-width:1px;stroke-linecap:butt;stroke-linejoin:miter;stroke-opacity:1" d="M 905.656,339.818 899.712,338.035 z" id="boundary" inkscape:connector-curvature="0" />
	<path style="fill:none;stroke:red;stroke-width:1px;stroke-linecap:butt;stroke-linejoin:miter;stroke-opacity:1" d="M 899.712,338.035 893.769,336.252 z" id="boundary" inkscape:connector-curvature="0" />
	<path style="fill:none;stroke:red;stroke-width:1px;stroke-linecap:butt;stroke-linejoin:miter;stroke-opacity:1" d="M 893.769,336.252 887.825,334.469 z" id="boundary" inkscape:connector-curvature="0" />
	<path style="fill:none;stroke:red;stroke-width:1px;stroke-linecap:butt;stroke-linejoin:miter;stroke-opacity:1" d="M 887.825,334.469 881.881,333.28 z" id="boundary" inkscape:connector-curvature="0" />
	<path style="fill:none;stroke:red;stroke-width:1px;stroke-linecap:butt;stroke-linejoin:miter;stroke-opacity:1" d="M 881.881,333.28 875.938,330.902 z" id="boundary" inkscape:connector-curvature="0" />
	<path style="fill:none;stroke:red;stroke-width:1px;stroke-linecap:butt;stroke-linejoin:miter;stroke-opacity:1" d="M 875.938,330.902 870.588,327.93 z" id="boundary" inkscape:connector-curvature="0" />
	<path style="fill:none;stroke:red;stroke-width:1px;stroke-linecap:butt;stroke-linejoin:miter;stroke-opacity:1" d="M 870.588,327.93 864.645,326.147 z" id="boundary" inkscape:connector-curvature="0" />
	<path style="fill:none;stroke:red;stroke-width:1px;stroke-linecap:butt;stroke-linejoin:miter;stroke-opacity:1" d="M 864.645,326.147 858.701,324.364 z" id="boundary" inkscape:connector-curvature="0" />
	<path style="fill:none;stroke:red;stroke-width:1px;stroke-linecap:butt;stroke-linejoin:miter;stroke-opacity:1" d="M 858.701,324.364 852.757,321.987 z" id="boundary" inkscape:connector-curvature="0" />
	<path style="fill:none;stroke:red;stroke-width:1px;stroke-linecap:butt;stroke-linejoin:miter;stroke-opacity:1" d="M 852.757,321.987 846.814,320.204 z" id="boundary" inkscape:connector-curvature="0" />
	<path style="fill:none;stroke:red;stroke-width:1px;stroke-linecap:butt;stroke-linejoin:miter;stroke-opacity:1" d="M 846.814,320.204 841.464,317.232 z" id="boundary" inkscape:connector-curvature="0" />
	<path style="fill:none;stroke:red;stroke-width:1px;stroke-linecap:butt;stroke-linejoin:miter;stroke-opacity:1" d="M 841.464,317.232 835.521,316.043 z" id="boundary" inkscape:connector-curvature="0" />
	<path style="fill:none;stroke:red;stroke-width:1px;stroke-linecap:butt;stroke-linejoin:miter;stroke-opacity:1" d="M 835.521,316.043 829.577,314.26 z" id="boundary" inkscape:connector-curvature="0" />
	<path style="fill:none;stroke:red;stroke-width:1px;stroke-linecap:butt;stroke-linejoin:miter;stroke-opacity:1" d="M 829.577,314.26 823.633,311.883 z" id="boundary" inkscape:connector-curvature="0" />
	<path style="fill:none;stroke:red;stroke-width:1px;stroke-linecap:butt;stroke-linejoin:miter;stroke-opacity:1" d="M 823.633,311.883 817.69,309.505 z" id="boundary" inkscape:connector-curvature="0" />
	<path style="fill:none;stroke:red;stroke-width:1px;stroke-linecap:butt;stroke-linejoin:miter;stroke-opacity:1" d="M 817.69,309.505 811.746,307.722 z" id="boundary" inkscape:connector-curvature="0" />
	<path style="fill:none;stroke:red;stroke-width:1px;stroke-linecap:butt;stroke-linejoin:miter;stroke-opacity:1" d="M 811.746,307.722 805.802,305.939 z" id="boundary" inkscape:connector-curvature="0" />
	<path style="fill:none;stroke:red;stroke-width:1px;stroke-linecap:butt;stroke-linejoin:miter;stroke-opacity:1" d="M 805.802,305.939 800.453,302.967 z" id="boundary" inkscape:connector-curvature="0" />
	<path style="fill:none;stroke:red;stroke-width:1px;stroke-linecap:butt;stroke-linejoin:miter;stroke-opacity:1" d="M 800.453,302.967 794.509,301.184 z" id="boundary" inkscape:connector-curvature="0" />
	<path style="fill:none;stroke:red;stroke-width:1px;stroke-linecap:butt;stroke-linejoin:miter;stroke-opacity:1" d="M 794.509,301.184 788.566,299.401 z" id="boundary" inkscape:connector-curvature="0" />
	<path style="fill:none;stroke:red;stroke-width:1px;stroke-linecap:butt;stroke-linejoin:miter;stroke-opacity:1" d="M 788.566,299.401 782.622,297.618 z" id="boundary" inkscape:connector-curvature="0" />
	<path style="fill:none;stroke:red;stroke-width:1px;stroke-linecap:butt;stroke-linejoin:miter;stroke-opacity:1" d="M 782.622,297.618 776.678,295.835 z" id="boundary" inkscape:connector-curvature="0" />
	<path style="fill:none;stroke:red;stroke-width:1px;stroke-linecap:butt;stroke-linejoin:miter;stroke-opacity:1" d="M 776.678,295.835 770.735,294.052 z" id="boundary" inkscape:connector-curvature="0" />
	<path style="fill:none;stroke:red;stroke-width:1px;stroke-linecap:butt;stroke-linejoin:miter;stroke-opacity:1" d="M 770.735,294.052 764.791,292.268 z" id="boundary" inkscape:connector-curvature="0" />
	<path style="fill:none;stroke:red;stroke-width:1px;stroke-linecap:butt;stroke-linejoin:miter;stroke-opacity:1" d="M 764.791,292.268 758.847,290.485 z" id="boundary" inkscape:connector-curvature="0" />
	<path style="fill:none;stroke:red;stroke-width:1px;stroke-linecap:butt;stroke-linejoin:miter;stroke-opacity:1" d="M 758.847,290.485 752.904,288.702 z" id="boundary" inkscape:connector-curvature="0" />
	<path style="fill:none;stroke:red;stroke-width:1px;stroke-linecap:butt;stroke-linejoin:miter;stroke-opacity:1" d="M 752.904,288.702 746.96,286.919 z" id="boundary" inkscape:connector-curvature="0" />
	<path style="fill:none;stroke:red;stroke-width:1px;stroke-linecap:butt;stroke-linejoin:miter;stroke-opacity:1" d="M 746.96,286.919 741.016,285.136 z" id="boundary" inkscape:connector-curvature="0" />
	<path style="fill:none;stroke:red;stroke-width:1px;stroke-linecap:butt;stroke-linejoin:miter;stroke-opacity:1" d="M 741.016,285.136 735.667,282.164 z" id="boundary" inkscape:connector-curvature="0" />
	<path style="fill:none;stroke:red;stroke-width:1px;stroke-linecap:butt;stroke-linejoin:miter;stroke-opacity:1" d="M 735.667,282.164 729.723,280.975 z" id="boundary" inkscape:connector-curvature="0" />
	<path style="fill:none;stroke:red;stroke-width:1px;stroke-linecap:butt;stroke-linejoin:miter;stroke-opacity:1" d="M 729.723,280.975 723.78,279.192 z" id="boundary" inkscape:connector-curvature="0" />
	<path style="fill:none;stroke:red;stroke-width:1px;stroke-linecap:butt;stroke-linejoin:miter;stroke-opacity:1" d="M 723.78,279.192 717.836,277.409 z" id="boundary" inkscape:connector-curvature="0" />
	<path style="fill:none;stroke:red;stroke-width:1px;stroke-linecap:butt;stroke-linejoin:miter;stroke-opacity:1" d="M 717.836,277.409 712.487,274.437 z" id="boundary" inkscape:connector-curvature="0" />
	<path style="fill:none;stroke:red;stroke-width:1px;stroke-linecap:butt;stroke-linejoin:miter;stroke-opacity:1" d="M 712.487,274.437 706.543,272.654 z" id="boundary" inkscape:connector-curvature="0" />
	<path style="fill:none;stroke:red;stroke-width:1px;stroke-linecap:butt;stroke-linejoin:miter;stroke-opacity:1" d="M 706.543,272.654 700.599,270.277 z" id="boundary" inkscape:connector-curvature="0" />
	<path style="fill:none;stroke:red;stroke-width:1px;stroke-linecap:butt;stroke-linejoin:miter;stroke-opacity:1" d="M 700.599,270.277 694.655,269.682 z" id="boundary" inkscape:connector-curvature="0" />
	<path style="fill:none;stroke:red;stroke-width:1px;stroke-linecap:butt;stroke-linejoin:miter;stroke-opacity:1" d="M 694.655,269.682 689.306,266.711 z" id="boundary" inkscape:connector-curvature="0" />
	<path style="fill:none;stroke:red;stroke-width:1px;stroke-linecap:butt;stroke-linejoin:miter;stroke-opacity:1" d="M 689.306,266.711 683.362,264.333 z" id="boundary" inkscape:connector-curvature="0" />
	<path style="fill:none;stroke:red;stroke-width:1px;stroke-linecap:butt;stroke-linejoin:miter;stroke-opacity:1" d="M 683.362,264.333 677.419,263.144 z" id="boundary" inkscape:connector-curvature="0" />
	<path style="fill:none;stroke:red;stroke-width:1px;stroke-linecap:butt;stroke-linejoin:miter;stroke-opacity:1" d="M 677.419,263.144 672.07,260.173 z" id="boundary" inkscape:connector-curvature="0" />
	<path style="fill:none;stroke:red;stroke-width:1px;stroke-linecap:butt;stroke-linejoin:miter;stroke-opacity:1" d="M 672.07,260.173 666.126,258.389 z" id="boundary" inkscape:connector-curvature="0" />
	<path style="fill:none;stroke:red;stroke-width:1px;stroke-linecap:butt;stroke-linejoin:miter;stroke-opacity:1" d="M 666.126,258.389 660.182,256.606 z" id="boundary" inkscape:connector-curvature="0" />
	<path style="fill:none;stroke:red;stroke-width:1px;stroke-linecap:butt;stroke-linejoin:miter;stroke-opacity:1" d="M 660.182,256.606 654.238,255.418 z" id="boundary" inkscape:connector-curvature="0" />
	<path style="fill:none;stroke:red;stroke-width:1px;stroke-linecap:butt;stroke-linejoin:miter;stroke-opacity:1" d="M 654.238,255.418 648.889,252.446 z" id="boundary" inkscape:connector-curvature="0" />
	<path style="fill:none;stroke:red;stroke-width:1px;stroke-linecap:butt;stroke-linejoin:miter;stroke-opacity:1" d="M 648.889,252.446 642.945,250.663 z" id="boundary" inkscape:connector-curvature="0" />
	<path style="fill:none;stroke:red;stroke-width:1px;stroke-linecap:butt;stroke-linejoin:miter;stroke-opacity:1" d="M 642.945,250.663 637.002,248.285 z" id="boundary" inkscape:connector-curvature="0" />
	<path style="fill:none;stroke:red;stroke-width:1px;stroke-linecap:butt;stroke-linejoin:miter;stroke-opacity:1" d="M 637.002,248.285 631.058,245.908 z" id="boundary" inkscape:connector-curvature="0" />
	<path style="fill:none;stroke:red;stroke-width:1px;stroke-linecap:butt;stroke-linejoin:miter;stroke-opacity:1" d="M 631.058,245.908 625.114,243.53 z" id="boundary" inkscape:connector-curvature="0" />
	<path style="fill:none;stroke:red;stroke-width:1px;stroke-linecap:butt;stroke-linejoin:miter;stroke-opacity:1" d="M 625.114,243.53 619.171,241.747 z" id="boundary" inkscape:connector-curvature="0" />
	<path style="fill:none;stroke:red;stroke-width:1px;stroke-linecap:butt;stroke-linejoin:miter;stroke-opacity:1" d="M 619.171,241.747 613.227,239.964 z" id="boundary" inkscape:connector-curvature="0" />
	<path style="fill:none;stroke:red;stroke-width:1px;stroke-linecap:butt;stroke-linejoin:miter;stroke-opacity:1" d="M 613.227,239.964 607.283,238.181 z" id="boundary" inkscape:connector-curvature="0" />
	<path style="fill:none;stroke:red;stroke-width:1px;stroke-linecap:butt;stroke-linejoin:miter;stroke-opacity:1" d="M 607.283,238.181 601.34,236.398 z" id="boundary" inkscape:connector-curvature="0" />
	<path style="fill:none;stroke:red;stroke-width:1px;stroke-linecap:butt;stroke-linejoin:miter;stroke-opacity:1" d="M 601.34,236.398 595.396,235.209 z" id="boundary" inkscape:connector-curvature="0" />
	<path style="fill:none;stroke:red;stroke-width:1px;stroke-linecap:butt;stroke-linejoin:miter;stroke-opacity:1" d="M 595.396,235.209 590.047,232.237 z" id="boundary" inkscape:connector-curvature="0" />
	<path style="fill:none;stroke:red;stroke-width:1px;stroke-linecap:butt;stroke-linejoin:miter;stroke-opacity:1" d="M 590.047,232.237 584.103,230.454 z" id="boundary" inkscape:connector-curvature="0" />
	<path style="fill:none;stroke:red;stroke-width:1px;stroke-linecap:butt;stroke-linejoin:miter;stroke-opacity:1" d="M 584.103,230.454 578.159,228.077 z" id="boundary" inkscape:connector-curvature="0" />
	<path style="fill:none;stroke:red;stroke-width:1px;stroke-linecap:butt;stroke-linejoin:miter;stroke-opacity:1" d="M 578.159,228.077 572.216,226.888 z" id="boundary" inkscape:connector-curvature="0" />
	<path style="fill:none;stroke:red;stroke-width:1px;stroke-linecap:butt;stroke-linejoin:miter;stroke-opacity:1" d="M 572.216,226.888 566.272,225.105 z" id="boundary" inkscape:connector-curvature="0" />
	<path style="fill:none;stroke:red;stroke-width:1px;stroke-linecap:butt;stroke-linejoin:miter;stroke-opacity:1" d="M 566.272,225.105 560.923,222.133 z" id="boundary" inkscape:connector-curvature="0" />
	<path style="fill:none;stroke:red;stroke-width:1px;stroke-linecap:butt;stroke-linejoin:miter;stroke-opacity:1" d="M 560.923,222.133 554.979,220.944 z" id="boundary" inkscape:connector-curvature="0" />
	<path style="fill:none;stroke:red;stroke-width:1px;stroke-linecap:butt;stroke-linejoin:miter;stroke-opacity:1" d="M 554.979,220.944 549.035,218.567 z" id="boundary" inkscape:connector-curvature="0" />
	<path style="fill:none;stroke:red;stroke-width:1px;stroke-linecap:butt;stroke-linejoin:miter;stroke-opacity:1" d="M 549.035,218.567 543.092,216.784 z" id="boundary" inkscape:connector-curvature="0" />
	<path style="fill:none;stroke:red;stroke-width:1px;stroke-linecap:butt;stroke-linejoin:miter;stroke-opacity:1" d="M 543.092,216.784 537.148,214.406 z" id="boundary" inkscape:connector-curvature="0" />
	<path style="fill:none;stroke:red;stroke-width:1px;stroke-linecap:butt;stroke-linejoin:miter;stroke-opacity:1" d="M 537.148,214.406 531.204,212.623 z" id="boundary" inkscape:connector-curvature="0" />
	<path style="fill:none;stroke:red;stroke-width:1px;stroke-linecap:butt;stroke-linejoin:miter;stroke-opacity:1" d="M 531.204,212.623 525.261,210.246 z" id="boundary" inkscape:connector-curvature="0" />
	<path style="fill:none;stroke:red;stroke-width:1px;stroke-linecap:butt;stroke-linejoin:miter;stroke-opacity:1" d="M 525.261,210.246 519.317,208.463 z" id="boundary" inkscape:connector-curvature="0" />
	<path style="fill:none;stroke:red;stroke-width:1px;stroke-linecap:butt;stroke-linejoin:miter;stroke-opacity:1" d="M 519.317,208.463 513.373,206.085 z" id="boundary" inkscape:connector-curvature="0" />
	<path style="fill:none;stroke:red;stroke-width:1px;stroke-linecap:butt;stroke-linejoin:miter;stroke-opacity:1" d="M 513.373,206.085 507.43,204.302 z" id="boundary" inkscape:connector-curvature="0" />
	<path style="fill:none;stroke:red;stroke-width:1px;stroke-linecap:butt;stroke-linejoin:miter;stroke-opacity:1" d="M 507.43,204.302 501.486,202.519 z" id="boundary" inkscape:connector-curvature="0" />
	<path style="fill:none;stroke:red;stroke-width:1px;stroke-linecap:butt;stroke-linejoin:miter;stroke-opacity:1" d="M 501.486,202.519 495.542,201.33 z" id="boundary" inkscape:connector-curvature="0" />
	<path style="fill:none;stroke:red;stroke-width:1px;stroke-linecap:butt;stroke-linejoin:miter;stroke-opacity:1" d="M 495.542,201.33 489.599,198.953 z" id="boundary" inkscape:connector-curvature="0" />
	<path style="fill:none;stroke:red;stroke-width:1px;stroke-linecap:butt;stroke-linejoin:miter;stroke-opacity:1" d="M 489.599,198.953 483.655,197.17 z" id="boundary" inkscape:connector-curvature="0" />
	<path style="fill:none;stroke:red;stroke-width:1px;stroke-linecap:butt;stroke-linejoin:miter;stroke-opacity:1" d="M 483.655,197.17 478.306,194.198 z" id="boundary" inkscape:connector-curvature="0" />
	<path style="fill:none;stroke:red;stroke-width:1px;stroke-linecap:butt;stroke-linejoin:miter;stroke-opacity:1" d="M 478.306,194.198 472.362,193.009 z" id="boundary" inkscape:connector-curvature="0" />
	<path style="fill:none;stroke:red;stroke-width:1px;stroke-linecap:butt;stroke-linejoin:miter;stroke-opacity:1" d="M 472.362,193.009 466.418,191.226 z" id="boundary" inkscape:connector-curvature="0" />
	<path style="fill:none;stroke:red;stroke-width:1px;stroke-linecap:butt;stroke-linejoin:miter;stroke-opacity:1" d="M 466.418,191.226 460.475,188.848 z" id="boundary" inkscape:connector-curvature="0" />
	<path style="fill:none;stroke:red;stroke-width:1px;stroke-linecap:butt;stroke-linejoin:miter;stroke-opacity:1" d="M 460.475,188.848 454.531,186.471 z" id="boundary" inkscape:connector-curvature="0" />
	<path style="fill:none;stroke:red;stroke-width:1px;stroke-linecap:butt;stroke-linejoin:miter;stroke-opacity:1" d="M 454.531,186.471 448.587,184.688 z" id="boundary" inkscape:connector-curvature="0" />
	<path style="fill:none;stroke:red;stroke-width:1px;stroke-linecap:butt;stroke-linejoin:miter;stroke-opacity:1" d="M 448.587,184.688 442.643,182.31 z" id="boundary" inkscape:connector-curvature="0" />
	<path style="fill:none;stroke:red;stroke-width:1px;stroke-linecap:butt;stroke-linejoin:miter;stroke-opacity:1" d="M 442.643,182.31 436.7,179.933 z" id="boundary" inkscape:connector-curvature="0" />
	<path style="fill:none;stroke:red;stroke-width:1px;stroke-linecap:butt;stroke-linejoin:miter;stroke-opacity:1" d="M 436.7,179.933 430.756,178.744 z" id="boundary" inkscape:connector-curvature="0" />
	<path style="fill:none;stroke:red;stroke-width:1px;stroke-linecap:butt;stroke-linejoin:miter;stroke-opacity:1" d="M 430.756,178.744 424.812,176.961 z" id="boundary" inkscape:connector-curvature="0" />
	<path style="fill:none;stroke:red;stroke-width:1px;stroke-linecap:butt;stroke-linejoin:miter;stroke-opacity:1" d="M 424.812,176.961 418.869,175.178 z" id="boundary" inkscape:connector-curvature="0" />
	<path style="fill:none;stroke:red;stroke-width:1px;stroke-linecap:butt;stroke-linejoin:miter;stroke-opacity:1" d="M 418.869,175.178 412.925,172.8 z" id="boundary" inkscape:connector-curvature="0" />
	<path style="fill:none;stroke:red;stroke-width:1px;stroke-linecap:butt;stroke-linejoin:miter;stroke-opacity:1" d="M 412.925,172.8 406.981,171.017 z" id="boundary" inkscape:connector-curvature="0" />
	<path style="fill:none;stroke:red;stroke-width:1px;stroke-linecap:butt;stroke-linejoin:miter;stroke-opacity:1" d="M 406.981,171.017 401.632,168.046 z" id="boundary" inkscape:connector-curvature="0" />
	<path style="fill:none;stroke:red;stroke-width:1px;stroke-linecap:butt;stroke-linejoin:miter;stroke-opacity:1" d="M 401.632,168.046 395.688,165.668 z" id="boundary" inkscape:connector-curvature="0" />
	<path style="fill:none;stroke:red;stroke-width:1px;stroke-linecap:butt;stroke-linejoin:miter;stroke-opacity:1" d="M 395.688,165.668 389.745,163.885 z" id="boundary" inkscape:connector-curvature="0" />
	<path style="fill:none;stroke:red;stroke-width:1px;stroke-linecap:butt;stroke-linejoin:miter;stroke-opacity:1" d="M 389.745,163.885 384.395,160.913 z" id="boundary" inkscape:connector-curvature="0" />
	<path style="fill:none;stroke:red;stroke-width:1px;stroke-linecap:butt;stroke-linejoin:miter;stroke-opacity:1" d="M 384.395,160.913 378.452,159.13 z" id="boundary" inkscape:connector-curvature="0" />
	<path style="fill:none;stroke:red;stroke-width:1px;stroke-linecap:butt;stroke-linejoin:miter;stroke-opacity:1" d="M 378.452,159.13 372.508,157.347 z" id="boundary" inkscape:connector-curvature="0" />
	<path style="fill:none;stroke:red;stroke-width:1px;stroke-linecap:butt;stroke-linejoin:miter;stroke-opacity:1" d="M 372.508,157.347 367.753,153.781 z" id="boundary" inkscape:connector-curvature="0" />
	<path style="fill:none;stroke:red;stroke-width:1px;stroke-linecap:butt;stroke-linejoin:miter;stroke-opacity:1" d="M 367.753,153.781 362.404,150.809 z" id="boundary" inkscape:connector-curvature="0" />
	<path style="fill:none;stroke:red;stroke-width:1px;stroke-linecap:butt;stroke-linejoin:miter;stroke-opacity:1" d="M 362.404,150.809 357.055,147.837 z" id="boundary" inkscape:connector-curvature="0" />
	<path style="fill:none;stroke:red;stroke-width:1px;stroke-linecap:butt;stroke-linejoin:miter;stroke-opacity:1" d="M 357.055,147.837 351.705,144.865 z" id="boundary" inkscape:connector-curvature="0" />
	<path style="fill:none;stroke:red;stroke-width:1px;stroke-linecap:butt;stroke-linejoin:miter;stroke-opacity:1" d="M 351.705,144.865 348.139,140.11 z" id="boundary" inkscape:connector-curvature="0" />
	<path style="fill:none;stroke:red;stroke-width:1px;stroke-linecap:butt;stroke-linejoin:miter;stroke-opacity:1" d="M 348.139,140.11 343.384,135.95 z" id="boundary" inkscape:connector-curvature="0" />
	<path style="fill:none;stroke:red;stroke-width:1px;stroke-linecap:butt;stroke-linejoin:miter;stroke-opacity:1" d="M 343.384,135.95 339.818,131.195 z" id="boundary" inkscape:connector-curvature="0" />
	<path style="fill:none;stroke:red;stroke-width:1px;stroke-linecap:butt;stroke-linejoin:miter;stroke-opacity:1" d="M 339.818,131.195 336.252,126.44 z" id="boundary" inkscape:connector-curvature="0" />
	<path style="fill:none;stroke:red;stroke-width:1px;stroke-linecap:butt;stroke-linejoin:miter;stroke-opacity:1" d="M 336.252,126.44 331.497,122.279 z" id="boundary" inkscape:connector-curvature="0" />
	<path style="fill:none;stroke:red;stroke-width:1px;stroke-linecap:butt;stroke-linejoin:miter;stroke-opacity:1" d="M 331.497,122.279 327.336,117.524 z" id="boundary" inkscape:connector-curvature="0" />
	<path style="fill:none;stroke:red;stroke-width:1px;stroke-linecap:butt;stroke-linejoin:miter;stroke-opacity:1" d="M 327.336,117.524 323.77,112.769 z" id="boundary" inkscape:connector-curvature="0" />
	<path style="fill:none;stroke:red;stroke-width:1px;stroke-linecap:butt;stroke-linejoin:miter;stroke-opacity:1" d="M 323.77,112.769 320.798,107.42 z" id="boundary" inkscape:connector-curvature="0" />
	<path style="fill:none;stroke:red;stroke-width:1px;stroke-linecap:butt;stroke-linejoin:miter;stroke-opacity:1" d="M 320.798,107.42 316.043,103.259 z" id="boundary" inkscape:connector-curvature="0" />
	<path style="fill:none;stroke:red;stroke-width:1px;stroke-linecap:butt;stroke-linejoin:miter;stroke-opacity:1" d="M 316.043,103.259 311.883,98.5045 z" id="boundary" inkscape:connector-curvature="0" />
	<path style="fill:none;stroke:red;stroke-width:1px;stroke-linecap:butt;stroke-linejoin:miter;stroke-opacity:1" d="M 311.883,98.5045 307.128,94.3439 z" id="boundary" inkscape:connector-curvature="0" />
	<path style="fill:none;stroke:red;stroke-width:1px;stroke-linecap:butt;stroke-linejoin:miter;stroke-opacity:1" d="M 307.128,94.3439 302.373,90.7777 z" id="boundary" inkscape:connector-curvature="0" />
	<path style="fill:none;stroke:red;stroke-width:1px;stroke-linecap:butt;stroke-linejoin:miter;stroke-opacity:1" d="M 302.373,90.7777 298.806,86.0228 z" id="boundary" inkscape:connector-curvature="0" />
	<path style="fill:none;stroke:red;stroke-width:1px;stroke-linecap:butt;stroke-linejoin:miter;stroke-opacity:1" d="M 298.806,86.0228 295.24,81.2678 z" id="boundary" inkscape:connector-curvature="0" />
	<path style="fill:none;stroke:red;stroke-width:1px;stroke-linecap:butt;stroke-linejoin:miter;stroke-opacity:1" d="M 295.24,81.2678 290.485,77.1072 z" id="boundary" inkscape:connector-curvature="0" />
	<path style="fill:none;stroke:red;stroke-width:1px;stroke-linecap:butt;stroke-linejoin:miter;stroke-opacity:1" d="M 290.485,77.1072 285.73,73.541 z" id="boundary" inkscape:connector-curvature="0" />
	<path style="fill:none;stroke:red;stroke-width:1px;stroke-linecap:butt;stroke-linejoin:miter;stroke-opacity:1" d="M 285.73,73.541 280.975,69.3805 z" id="boundary" inkscape:connector-curvature="0" />
	<path style="fill:none;stroke:red;stroke-width:1px;stroke-linecap:butt;stroke-linejoin:miter;stroke-opacity:1" d="M 280.975,69.3805 276.22,65.8143 z" id="boundary" inkscape:connector-curvature="0" />
	<path style="fill:none;stroke:red;stroke-width:1px;stroke-linecap:butt;stroke-linejoin:miter;stroke-opacity:1" d="M 276.22,65.8143 271.466,62.2481 z" id="boundary" inkscape:connector-curvature="0" />
	<path style="fill:none;stroke:red;stroke-width:1px;stroke-linecap:butt;stroke-linejoin:miter;stroke-opacity:1" d="M 271.466,62.2481 266.116,59.2762 z" id="boundary" inkscape:connector-curvature="0" />
	<path style="fill:none;stroke:red;stroke-width:1px;stroke-linecap:butt;stroke-linejoin:miter;stroke-opacity:1" d="M 266.116,59.2762 261.956,54.5213 z" id="boundary" inkscape:connector-curvature="0" />
	<path style="fill:none;stroke:red;stroke-width:1px;stroke-linecap:butt;stroke-linejoin:miter;stroke-opacity:1" d="M 261.956,54.5213 257.201,50.9551 z" id="boundary" inkscape:connector-curvature="0" />
	<path style="fill:none;stroke:red;stroke-width:1px;stroke-linecap:butt;stroke-linejoin:miter;stroke-opacity:1" d="M 257.201,50.9551 252.446,47.3889 z" id="boundary" inkscape:connector-curvature="0" />
	<path style="fill:none;stroke:red;stroke-width:1px;stroke-linecap:butt;stroke-linejoin:miter;stroke-opacity:1" d="M 252.446,47.3889 247.096,44.417 z" id="boundary" inkscape:connector-curvature="0" />
	<path style="fill:none;stroke:red;stroke-width:1px;stroke-linecap:butt;stroke-linejoin:miter;stroke-opacity:1" d="M 247.096,44.417 242.342,40.8508 z" id="boundary" inkscape:connector-curvature="0" />
	<path style="fill:none;stroke:red;stroke-width:1px;stroke-linecap:butt;stroke-linejoin:miter;stroke-opacity:1" d="M 242.342,40.8508 237.587,36.6902 z" id="boundary" inkscape:connector-curvature="0" />
	<path style="fill:none;stroke:red;stroke-width:1px;stroke-linecap:butt;stroke-linejoin:miter;stroke-opacity:1" d="M 237.587,36.6902 232.237,33.7184 z" id="boundary" inkscape:connector-curvature="0" />
	<path style="fill:none;stroke:red;stroke-width:1px;stroke-linecap:butt;stroke-linejoin:miter;stroke-opacity:1" d="M 232.237,33.7184 226.888,30.7466 z" id="boundary" inkscape:connector-curvature="0" />
	<path style="fill:none;stroke:red;stroke-width:1px;stroke-linecap:butt;stroke-linejoin:miter;stroke-opacity:1" d="M 226.888,30.7466 220.944,28.3691 z" id="boundary" inkscape:connector-curvature="0" />
	<path style="fill:none;stroke:red;stroke-width:1px;stroke-linecap:butt;stroke-linejoin:miter;stroke-opacity:1" d="M 220.944,28.3691 216.189,24.8029 z" id="boundary" inkscape:connector-curvature="0" />
	<path style="fill:none;stroke:red;stroke-width:1px;stroke-linecap:butt;stroke-linejoin:miter;stroke-opacity:1" d="M 216.189,24.8029 210.84,21.831 z" id="boundary" inkscape:connector-curvature="0" />
	<path style="fill:none;stroke:red;stroke-width:1px;stroke-linecap:butt;stroke-linejoin:miter;stroke-opacity:1" d="M 210.84,21.831 204.896,19.4536 z" id="boundary" inkscape:connector-curvature="0" />
	<path style="fill:none;stroke:red;stroke-width:1px;stroke-linecap:butt;stroke-linejoin:miter;stroke-opacity:1" d="M 204.896,19.4536 198.953,17.0761 z" id="boundary" inkscape:connector-curvature="0" />
	<path style="fill:none;stroke:red;stroke-width:1px;stroke-linecap:butt;stroke-linejoin:miter;stroke-opacity:1" d="M 198.953,17.0761 193.009,16.4817 z" id="boundary" inkscape:connector-curvature="0" />
	<path style="fill:none;stroke:red;stroke-width:1px;stroke-linecap:butt;stroke-linejoin:miter;stroke-opacity:1" d="M 193.009,16.4817 187.065,14.1043 z" id="boundary" inkscape:connector-curvature="0" />
	<path style="fill:none;stroke:red;stroke-width:1px;stroke-linecap:butt;stroke-linejoin:miter;stroke-opacity:1" d="M 187.065,14.1043 181.122,12.3212 z" id="boundary" inkscape:connector-curvature="0" />
	<path style="fill:none;stroke:red;stroke-width:1px;stroke-linecap:butt;stroke-linejoin:miter;stroke-opacity:1" d="M 181.122,12.3212 175.178,9.94368 z" id="boundary" inkscape:connector-curvature="0" />
	<path style="fill:none;stroke:red;stroke-width:1px;stroke-linecap:butt;stroke-linejoin:miter;stroke-opacity:1" d="M 175.178,9.94368 169.234,9.34931 z" id="boundary" inkscape:connector-curvature="0" />
	<path style="fill:none;stroke:red;stroke-width:1px;stroke-linecap:butt;stroke-linejoin:miter;stroke-opacity:1" d="M 169.234,9.34931 163.291,8.16058 z" id="boundary" inkscape:connector-curvature="0" />
	<path style="fill:none;stroke:red;stroke-width:1px;stroke-linecap:butt;stroke-linejoin:miter;stroke-opacity:1" d="M 163.291,8.16058 157.347,6.37747 z" id="boundary" inkscape:connector-curvature="0" />
	<path style="fill:none;stroke:red;stroke-width:1px;stroke-linecap:butt;stroke-linejoin:miter;stroke-opacity:1" d="M 157.347,6.37747 151.403,5.7831 z" id="boundary" inkscape:connector-curvature="0" />
	<path style="fill:none;stroke:red;stroke-width:1px;stroke-linecap:butt;stroke-linejoin:miter;stroke-opacity:1" d="M 151.403,5.7831 145.46,5.18874 z" id="boundary" inkscape:connector-curvature="0" />
	<path style="fill:none;stroke:red;stroke-width:1px;stroke-linecap:butt;stroke-linejoin:miter;stroke-opacity:1" d="M 145.46,5.18874 139.516,5.18874 z" id="boundary" inkscape:connector-curvature="0" />
	<path style="fill:none;stroke:red;stroke-width:1px;stroke-linecap:butt;stroke-linejoin:miter;stroke-opacity:1" d="M 139.516,5.18874 133.572,4.59437 z" id="boundary" inkscape:connector-curvature="0" />
	<path style="fill:none;stroke:red;stroke-width:1px;stroke-linecap:butt;stroke-linejoin:miter;stroke-opacity:1" d="M 133.572,4.59437 127.629,5.18874 z" id="boundary" inkscape:connector-curvature="0" />
	<path style="fill:none;stroke:red;stroke-width:1px;stroke-linecap:butt;stroke-linejoin:miter;stroke-opacity:1" d="M 127.629,5.18874 121.685,4 z" id="boundary" inkscape:connector-curvature="0" />
	<path style="fill:none;stroke:red;stroke-width:1px;stroke-linecap:butt;stroke-linejoin:miter;stroke-opacity:1" d="M 121.685,4 115.741,4.59437 z" id="boundary" inkscape:connector-curvature="0" />
	<path style="fill:none;stroke:red;stroke-width:1px;stroke-linecap:butt;stroke-linejoin:miter;stroke-opacity:1" d="M 115.741,4.59437 109.797,4.59437 z" id="boundary" inkscape:connector-curvature="0" />
	<path style="fill:none;stroke:red;stroke-width:1px;stroke-linecap:butt;stroke-linejoin:miter;stroke-opacity:1" d="M 109.797,4.59437 103.854,4.59437 z" id="boundary" inkscape:connector-curvature="0" />
	<path style="fill:none;stroke:red;stroke-width:1px;stroke-linecap:butt;stroke-linejoin:miter;stroke-opacity:1" d="M 103.854,4.59437 97.9101,5.18874 z" id="boundary" inkscape:connector-curvature="0" />
	<path style="fill:none;stroke:red;stroke-width:1px;stroke-linecap:butt;stroke-linejoin:miter;stroke-opacity:1" d="M 97.9101,5.18874 91.9664,5.7831 z" id="boundary" inkscape:connector-curvature="0" />
	<path style="fill:none;stroke:red;stroke-width:1px;stroke-linecap:butt;stroke-linejoin:miter;stroke-opacity:1" d="M 91.9664,5.7831 86.0228,6.37747 z" id="boundary" inkscape:connector-curvature="0" />
	<path style="fill:none;stroke:red;stroke-width:1px;stroke-linecap:butt;stroke-linejoin:miter;stroke-opacity:1" d="M 86.0228,6.37747 80.0791,6.97184 z" id="boundary" inkscape:connector-curvature="0" />
	<path style="fill:none;stroke:red;stroke-width:1px;stroke-linecap:butt;stroke-linejoin:miter;stroke-opacity:1" d="M 80.0791,6.97184 74.1354,7.56621 z" id="boundary" inkscape:connector-curvature="0" />
	<path style="fill:none;stroke:red;stroke-width:1px;stroke-linecap:butt;stroke-linejoin:miter;stroke-opacity:1" d="M 74.1354,7.56621 68.1917,8.75494 z" id="boundary" inkscape:connector-curvature="0" />
	<path style="fill:none;stroke:red;stroke-width:1px;stroke-linecap:butt;stroke-linejoin:miter;stroke-opacity:1" d="M 68.1917,8.75494 62.2481,11.1324 z" id="boundary" inkscape:connector-curvature="0" />
	<path style="fill:none;stroke:red;stroke-width:1px;stroke-linecap:butt;stroke-linejoin:miter;stroke-opacity:1" d="M 62.2481,11.1324 56.3044,12.9155 z" id="boundary" inkscape:connector-curvature="0" />
	<path style="fill:none;stroke:red;stroke-width:1px;stroke-linecap:butt;stroke-linejoin:miter;stroke-opacity:1" d="M 56.3044,12.9155 50.3607,14.6986 z" id="boundary" inkscape:connector-curvature="0" />
	<path style="fill:none;stroke:red;stroke-width:1px;stroke-linecap:butt;stroke-linejoin:miter;stroke-opacity:1" d="M 50.3607,14.6986 44.417,17.0761 z" id="boundary" inkscape:connector-curvature="0" />
	<path style="fill:none;stroke:red;stroke-width:1px;stroke-linecap:butt;stroke-linejoin:miter;stroke-opacity:1" d="M 44.417,17.0761 38.4733,19.4536 z" id="boundary" inkscape:connector-curvature="0" />
	<path style="fill:none;stroke:red;stroke-width:1px;stroke-linecap:butt;stroke-linejoin:miter;stroke-opacity:1" d="M 38.4733,19.4536 33.7184,23.0198 z" id="boundary" inkscape:connector-curvature="0" />
	<path style="fill:none;stroke:red;stroke-width:1px;stroke-linecap:butt;stroke-linejoin:miter;stroke-opacity:1" d="M 33.7184,23.0198 28.3691,26.586 z" id="boundary" inkscape:connector-curvature="0" />
	<path style="fill:none;stroke:red;stroke-width:1px;stroke-linecap:butt;stroke-linejoin:miter;stroke-opacity:1" d="M 28.3691,26.586 23.6141,30.7466 z" id="boundary" inkscape:connector-curvature="0" />
	<path style="fill:none;stroke:red;stroke-width:1px;stroke-linecap:butt;stroke-linejoin:miter;stroke-opacity:1" d="M 23.6141,30.7466 20.0479,36.0959 z" id="boundary" inkscape:connector-curvature="0" />
	<path style="fill:none;stroke:red;stroke-width:1px;stroke-linecap:butt;stroke-linejoin:miter;stroke-opacity:1" d="M 20.0479,36.0959 15.8874,40.8508 z" id="boundary" inkscape:connector-curvature="0" />
	<path style="fill:none;stroke:red;stroke-width:1px;stroke-linecap:butt;stroke-linejoin:miter;stroke-opacity:1" d="M 5.7831,88.9946 5.7831,82.4566 z" id="boundary" inkscape:connector-curvature="0" />
	<path style="fill:none;stroke:red;stroke-width:1px;stroke-linecap:butt;stroke-linejoin:miter;stroke-opacity:1" d="M 5.7831,82.4566 4.59437,76.5129 z" id="boundary" inkscape:connector-curvature="0" />
	<path style="fill:none;stroke:red;stroke-width:1px;stroke-linecap:butt;stroke-linejoin:miter;stroke-opacity:1" d="M 4.59437,76.5129 4,70.5692 z" id="boundary" inkscape:connector-curvature="0" />
	<path style="fill:none;stroke:red;stroke-width:1px;stroke-linecap:butt;stroke-linejoin:miter;stroke-opacity:1" d="M 15.8874,40.8508 11.1324,45.6058 z" id="boundary" inkscape:connector-curvature="0" />
	<path style="fill:none;stroke:red;stroke-width:1px;stroke-linecap:butt;stroke-linejoin:miter;stroke-opacity:1" d="M 11.1324,45.6058 8.16058,51.5494 z" id="boundary" inkscape:connector-curvature="0" />
	<path style="fill:none;stroke:red;stroke-width:1px;stroke-linecap:butt;stroke-linejoin:miter;stroke-opacity:1" d="M 8.16058,51.5494 6.37747,59.2762 z" id="boundary" inkscape:connector-curvature="0" />
	<path style="fill:none;stroke:red;stroke-width:1px;stroke-linecap:butt;stroke-linejoin:miter;stroke-opacity:1" d="M 6.37747,59.2762 4,70.5692 z" id="boundary" inkscape:connector-curvature="0" />
	<path style="fill:none;stroke:red;stroke-width:1px;stroke-linecap:butt;stroke-linejoin:miter;stroke-opacity:1" d="M 69.3805,31.3409 63.4368,31.3409 z" id="boundary" inkscape:connector-curvature="0" />
	<path style="fill:none;stroke:red;stroke-width:1px;stroke-linecap:butt;stroke-linejoin:miter;stroke-opacity:1" d="M 63.4368,31.3409 57.4931,33.124 z" id="boundary" inkscape:connector-curvature="0" />
	<path style="fill:none;stroke:red;stroke-width:1px;stroke-linecap:butt;stroke-linejoin:miter;stroke-opacity:1" d="M 57.4931,33.124 52.7382,37.2846 z" id="boundary" inkscape:connector-curvature="0" />
	<path style="fill:none;stroke:red;stroke-width:1px;stroke-linecap:butt;stroke-linejoin:miter;stroke-opacity:1" d="M 52.7382,37.2846 55.71,42.6339 z" id="boundary" inkscape:connector-curvature="0" />
	<path style="fill:none;stroke:red;stroke-width:1px;stroke-linecap:butt;stroke-linejoin:miter;stroke-opacity:1" d="M 55.71,42.6339 61.6537,44.417 z" id="boundary" inkscape:connector-curvature="0" />
	<path style="fill:none;stroke:red;stroke-width:1px;stroke-linecap:butt;stroke-linejoin:miter;stroke-opacity:1" d="M 61.6537,44.417 67.5974,42.6339 z" id="boundary" inkscape:connector-curvature="0" />
	<path style="fill:none;stroke:red;stroke-width:1px;stroke-linecap:butt;stroke-linejoin:miter;stroke-opacity:1" d="M 69.3805,31.3409 67.5974,42.6339 z" id="boundary" inkscape:connector-curvature="0" />
	<circle cx="4" cy="70.5692" r="4" fill="#0" id="circle0"/>
	<circle cx="4.59437" cy="76.5129" r="4" fill="#0" id="circle1"/>
	<circle cx="5.7831" cy="82.4566" r="4" fill="#0" id="circle2"/>
	<circle cx="5.7831" cy="88.9946" r="4" fill="#0" id="circle3"/>
	<circle cx="6.37747" cy="59.2762" r="4" fill="#0" id="circle4"/>
	<circle cx="6.37747" cy="94.9383" r="4" fill="#0" id="circle5"/>
	<circle cx="8.16058" cy="51.5494" r="4" fill="#0" id="circle6"/>
	<circle cx="8.16058" cy="100.882" r="4" fill="#0" id="circle7"/>
	<circle cx="9.34931" cy="106.826" r="4" fill="#0" id="circle8"/>
	<circle cx="11.1324" cy="45.6058" r="4" fill="#0" id="circle9"/>
	<circle cx="11.7268" cy="112.769" r="4" fill="#0" id="circle10"/>
	<circle cx="14.6986" cy="118.119" r="4" fill="#0" id="circle11"/>
	<circle cx="15.8874" cy="40.8508" r="4" fill="#0" id="circle12"/>
	<circle cx="18.2648" cy="122.874" r="4" fill="#0" id="circle13"/>
	<circle cx="20.0479" cy="36.0959" r="4" fill="#0" id="circle14"/>
	<circle cx="21.831" cy="127.629" r="4" fill="#0" id="circle15"/>
	<circle cx="23.6141" cy="30.7466" r="4" fill="#0" id="circle16"/>
	<circle cx="25.9916" cy="132.383" r="4" fill="#0" id="circle17"/>
	<circle cx="28.3691" cy="26.586" r="4" fill="#0" id="circle18"/>
	<circle cx="30.1522" cy="137.138" r="4" fill="#0" id="circle19"/>
	<circle cx="33.7184" cy="23.0198" r="4" fill="#0" id="circle20"/>
	<circle cx="33.7184" cy="141.893" r="4" fill="#0" id="circle21"/>
	<circle cx="37.879" cy="146.648" r="4" fill="#0" id="circle22"/>
	<circle cx="38.4733" cy="19.4536" r="4" fill="#0" id="circle23"/>
	<circle cx="43.2283" cy="149.62" r="4" fill="#0" id="circle24"/>
	<circle cx="44.417" cy="17.0761" r="4" fill="#0" id="circle25"/>
	<circle cx="47.9832" cy="153.186" r="4" fill="#0" id="circle26"/>
	<circle cx="50.3607" cy="14.6986" r="4" fill="#0" id="circle27"/>
	<circle cx="52.7382" cy="37.2846" r="4" fill="#0" id="circle28"/>
	<circle cx="52.7382" cy="157.347" r="4" fill="#0" id="circle29"/>
	<circle cx="55.71" cy="42.6339" r="4" fill="#0" id="circle30"/>
	<circle cx="56.3044" cy="12.9155" r="4" fill="#0" id="circle31"/>
	<circle cx="57.4931" cy="33.124" r="4" fill="#0" id="circle32"/>
	<circle cx="57.4931" cy="161.507" r="4" fill="#0" id="circle33"/>
	<circle cx="61.6537" cy="44.417" r="4" fill="#0" id="circle34"/>
	<circle cx="62.2481" cy="11.1324" r="4" fill="#0" id="circle35"/>
	<circle cx="62.8424" cy="164.479" r="4" fill="#0" id="circle36"/>
	<circle cx="63.4368" cy="31.3409" r="4" fill="#0" id="circle37"/>
	<circle cx="67.5974" cy="42.6339" r="4" fill="#0" id="circle38"/>
	<circle cx="67.5974" cy="168.046" r="4" fill="#0" id="circle39"/>
	<circle cx="68.1917" cy="8.75494" r="4" fill="#0" id="circle40"/>
	<circle cx="69.3805" cy="31.3409" r="4" fill="#0" id="circle41"/>
	<circle cx="72.9467" cy="171.017" r="4" fill="#0" id="circle42"/>
	<circle cx="74.1354" cy="7.56621" r="4" fill="#0" id="circle43"/>
	<circle cx="75.9185" cy="29.5578" r="4" fill="#0" id="circle44"/>
	<circle cx="78.8904" cy="173.395" r="4" fill="#0" id="circle45"/>
	<circle cx="80.0791" cy="6.97184" r="4" fill="#0" id="circle46"/>
	<circle cx="84.834" cy="175.772" r="4" fill="#0" id="circle47"/>
	<circle cx="86.0228" cy="6.37747" r="4" fill="#0" id="circle48"/>
	<circle cx="89.589" cy="179.339" r="4" fill="#0" id="circle49"/>
	<circle cx="91.9664" cy="5.7831" r="4" fill="#0" id="circle50"/>
	<circle cx="94.9383" cy="182.31" r="4" fill="#0" id="circle51"/>
	<circle cx="97.9101" cy="5.18874" r="4" fill="#0" id="circle52"/>
	<circle cx="99.6932" cy="185.877" r="4" fill="#0" id="circle53"/>
	<circle cx="103.854" cy="4.59437" r="4" fill="#0" id="circle54"/>
	<circle cx="105.637" cy="188.254" r="4" fill="#0" id="circle55"/>
	<circle cx="109.797" cy="4.59437" r="4" fill="#0" id="circle56"/>
	<circle cx="111.581" cy="189.443" r="4" fill="#0" id="circle57"/>
	<circle cx="115.741" cy="4.59437" r="4" fill="#0" id="circle58"/>
	<circle cx="116.93" cy="192.415" r="4" fill="#0" id="circle59"/>
	<circle cx="121.685" cy="4" r="4" fill="#0" id="circle60"/>
	<circle cx="122.874" cy="194.198" r="4" fill="#0" id="circle61"/>
	<circle cx="127.629" cy="5.18874" r="4" fill="#0" id="circle62"/>
	<circle cx="128.817" cy="196.575" r="4" fill="#0" id="circle63"/>
	<circle cx="133.572" cy="4.59437" r="4" fill="#0" id="circle64"/>
	<circle cx="134.761" cy="197.17" r="4" fill="#0" id="circle65"/>
	<circle cx="139.516" cy="5.18874" r="4" fill="#0" id="circle66"/>
	<circle cx="140.11" cy="200.141" r="4" fill="#0" id="circle67"/>
	<circle cx="145.46" cy="5.18874" r="4" fill="#0" id="circle68"/>
	<circle cx="146.054" cy="201.33" r="4" fill="#0" id="circle69"/>
	<circle cx="151.403" cy="5.7831" r="4" fill="#0" id="circle70"/>
	<circle cx="151.998" cy="203.708" r="4" fill="#0" id="circle71"/>
	<circle cx="157.347" cy="6.37747" r="4" fill="#0" id="circle72"/>
	<circle cx="157.941" cy="204.896" r="4" fill="#0" id="circle73"/>
	<circle cx="163.291" cy="8.16058" r="4" fill="#0" id="circle74"/>
	<circle cx="163.885" cy="206.085" r="4" fill="#0" id="circle75"/>
	<circle cx="169.234" cy="9.34931" r="4" fill="#0" id="circle76"/>
	<circle cx="169.829" cy="207.274" r="4" fill="#0" id="circle77"/>
	<circle cx="175.178" cy="9.94368" r="4" fill="#0" id="circle78"/>
	<circle cx="175.772" cy="208.463" r="4" fill="#0" id="circle79"/>
	<circle cx="181.122" cy="12.3212" r="4" fill="#0" id="circle80"/>
	<circle cx="181.716" cy="209.057" r="4" fill="#0" id="circle81"/>
	<circle cx="187.065" cy="14.1043" r="4" fill="#0" id="circle82"/>
	<circle cx="187.66" cy="209.057" r="4" fill="#0" id="circle83"/>
	<circle cx="193.009" cy="16.4817" r="4" fill="#0" id="circle84"/>
	<circle cx="193.603" cy="209.057" r="4" fill="#0" id="circle85"/>
	<circle cx="198.953" cy="17.0761" r="4" fill="#0" id="circle86"/>
	<circle cx="199.547" cy="209.651" r="4" fill="#0" id="circle87"/>
	<circle cx="204.896" cy="19.4536" r="4" fill="#0" id="circle88"/>
	<circle cx="205.491" cy="209.651" r="4" fill="#0" id="circle89"/>
	<circle cx="210.84" cy="21.831" r="4" fill="#0" id="circle90"/>
	<circle cx="211.434" cy="209.651" r="4" fill="#0" id="circle91"/>
	<circle cx="216.189" cy="24.8029" r="4" fill="#0" id="circle92"/>
	<circle cx="217.378" cy="209.651" r="4" fill="#0" id="circle93"/>
	<circle cx="220.944" cy="28.3691" r="4" fill="#0" id="circle94"/>
	<circle cx="223.322" cy="210.246" r="4" fill="#0" id="circle95"/>
	<circle cx="226.888" cy="30.7466" r="4" fill="#0" id="circle96"/>
	<circle cx="229.265" cy="210.246" r="4" fill="#0" id="circle97"/>
	<circle cx="232.237" cy="33.7184" r="4" fill="#0" id="circle98"/>
	<circle cx="235.209" cy="210.246" r="4" fill="#0" id="circle99"/>
	<circle cx="237.587" cy="36.6902" r="4" fill="#0" id="circle100"/>
	<circle cx="241.153" cy="209.651" r="4" fill="#0" id="circle101"/>
	<circle cx="242.342" cy="40.8508" r="4" fill="#0" id="circle102"/>
	<circle cx="247.096" cy="44.417" r="4" fill="#0" id="circle103"/>
	<circle cx="247.096" cy="209.651" r="4" fill="#0" id="circle104"/>
	<circle cx="252.446" cy="47.3889" r="4" fill="#0" id="circle105"/>
	<circle cx="253.04" cy="209.651" r="4" fill="#0" id="circle106"/>
	<circle cx="257.201" cy="50.9551" r="4" fill="#0" id="circle107"/>
	<circle cx="258.984" cy="207.868" r="4" fill="#0" id="circle108"/>
	<circle cx="261.956" cy="54.5213" r="4" fill="#0" id="circle109"/>
	<circle cx="264.928" cy="207.274" r="4" fill="#0" id="circle110"/>
	<circle cx="266.116" cy="59.2762" r="4" fill="#0" id="circle111"/>
	<circle cx="270.871" cy="206.085" r="4" fill="#0" id="circle112"/>
	<circle cx="271.466" cy="62.2481" r="4" fill="#0" id="circle113"/>
	<circle cx="276.22" cy="65.8143" r="4" fill="#0" id="circle114"/>
	<circle cx="276.815" cy="205.491" r="4" fill="#0" id="circle115"/>
	<circle cx="280.975" cy="69.3805" r="4" fill="#0" id="circle116"/>
	<circle cx="282.759" cy="205.491" r="4" fill="#0" id="circle117"/>
	<circle cx="285.73" cy="73.541" r="4" fill="#0" id="circle118"/>
	<circle cx="288.702" cy="203.113" r="4" fill="#0" id="circle119"/>
	<circle cx="290.485" cy="77.1072" r="4" fill="#0" id="circle120"/>
	<circle cx="294.646" cy="201.925" r="4" fill="#0" id="circle121"/>
	<circle cx="295.24" cy="81.2678" r="4" fill="#0" id="circle122"/>
	<circle cx="298.806" cy="86.0228" r="4" fill="#0" id="circle123"/>
	<circle cx="300.59" cy="200.736" r="4" fill="#0" id="circle124"/>
	<circle cx="302.373" cy="90.7777" r="4" fill="#0" id="circle125"/>
	<circle cx="306.533" cy="198.953" r="4" fill="#0" id="circle126"/>
	<circle cx="307.128" cy="94.3439" r="4" fill="#0" id="circle127"/>
	<circle cx="311.883" cy="98.5045" r="4" fill="#0" id="circle128"/>
	<circle cx="312.477" cy="197.17" r="4" fill="#0" id="circle129"/>
	<circle cx="316.043" cy="103.259" r="4" fill="#0" id="circle130"/>
	<circle cx="318.421" cy="195.981" r="4" fill="#0" id="circle131"/>
	<circle cx="320.798" cy="107.42" r="4" fill="#0" id="circle132"/>
	<circle cx="323.77" cy="112.769" r="4" fill="#0" id="circle133"/>
	<circle cx="324.364" cy="194.198" r="4" fill="#0" id="circle134"/>
	<circle cx="327.336" cy="117.524" r="4" fill="#0" id="circle135"/>
	<circle cx="330.308" cy="193.603" r="4" fill="#0" id="circle136"/>
	<circle cx="331.497" cy="122.279" r="4" fill="#0" id="circle137"/>
	<circle cx="336.252" cy="126.44" r="4" fill="#0" id="circle138"/>
	<circle cx="336.252" cy="193.603" r="4" fill="#0" id="circle139"/>
	<circle cx="339.818" cy="131.195" r="4" fill="#0" id="circle140"/>
	<circle cx="342.195" cy="194.198" r="4" fill="#0" id="circle141"/>
	<circle cx="343.384" cy="135.95" r="4" fill="#0" id="circle142"/>
	<circle cx="348.139" cy="140.11" r="4" fill="#0" id="circle143"/>
	<circle cx="348.139" cy="194.792" r="4" fill="#0" id="circle144"/>
	<circle cx="351.705" cy="144.865" r="4" fill="#0" id="circle145"/>
	<circle cx="354.083" cy="195.981" r="4" fill="#0" id="circle146"/>
	<circle cx="357.055" cy="147.837" r="4" fill="#0" id="circle147"/>
	<circle cx="360.026" cy="197.17" r="4" fill="#0" id="circle148"/>
	<circle cx="362.404" cy="150.809" r="4" fill="#0" id="circle149"/>
	<circle cx="365.97" cy="198.358" r="4" fill="#0" id="circle150"/>
	<circle cx="367.753" cy="153.781" r="4" fill="#0" id="circle151"/>
	<circle cx="371.914" cy="200.141" r="4" fill="#0" id="circle152"/>
	<circle cx="372.508" cy="157.347" r="4" fill="#0" id="circle153"/>
	<circle cx="377.263" cy="203.113" r="4" fill="#0" id="circle154"/>
	<circle cx="378.452" cy="159.13" r="4" fill="#0" id="circle155"/>
	<circle cx="383.207" cy="203.708" r="4" fill="#0" id="circle156"/>
	<circle cx="384.395" cy="160.913" r="4" fill="#0" id="circle157"/>
	<circle cx="389.15" cy="205.491" r="4" fill="#0" id="circle158"/>
	<circle cx="389.745" cy="163.885" r="4" fill="#0" id="circle159"/>
	<circle cx="395.094" cy="207.274" r="4" fill="#0" id="circle160"/>
	<circle cx="395.688" cy="165.668" r="4" fill="#0" id="circle161"/>
	<circle cx="401.038" cy="209.057" r="4" fill="#0" id="circle162"/>
	<circle cx="401.632" cy="168.046" r="4" fill="#0" id="circle163"/>
	<circle cx="406.981" cy="171.017" r="4" fill="#0" id="circle164"/>
	<circle cx="406.981" cy="211.434" r="4" fill="#0" id="circle165"/>
	<circle cx="412.925" cy="172.8" r="4" fill="#0" id="circle166"/>
	<circle cx="412.925" cy="213.217" r="4" fill="#0" id="circle167"/>
	<circle cx="418.869" cy="175.178" r="4" fill="#0" id="circle168"/>
	<circle cx="418.869" cy="215.595" r="4" fill="#0" id="circle169"/>
	<circle cx="424.812" cy="176.961" r="4" fill="#0" id="circle170"/>
	<circle cx="424.812" cy="216.784" r="4" fill="#0" id="circle171"/>
	<circle cx="430.756" cy="178.744" r="4" fill="#0" id="circle172"/>
	<circle cx="430.756" cy="218.567" r="4" fill="#0" id="circle173"/>
	<circle cx="436.7" cy="179.933" r="4" fill="#0" id="circle174"/>
	<circle cx="436.7" cy="220.35" r="4" fill="#0" id="circle175"/>
	<circle cx="442.643" cy="182.31" r="4" fill="#0" id="circle176"/>
	<circle cx="442.643" cy="222.727" r="4" fill="#0" id="circle177"/>
	<circle cx="448.587" cy="184.688" r="4" fill="#0" id="circle178"/>
	<circle cx="448.587" cy="224.51" r="4" fill="#0" id="circle179"/>
	<circle cx="454.531" cy="186.471" r="4" fill="#0" id="circle180"/>
	<circle cx="454.531" cy="226.294" r="4" fill="#0" id="circle181"/>
	<circle cx="459.88" cy="229.265" r="4" fill="#0" id="circle182"/>
	<circle cx="460.475" cy="188.848" r="4" fill="#0" id="circle183"/>
	<circle cx="465.229" cy="232.237" r="4" fill="#0" id="circle184"/>
	<circle cx="466.418" cy="191.226" r="4" fill="#0" id="circle185"/>
	<circle cx="471.173" cy="234.615" r="4" fill="#0" id="circle186"/>
	<circle cx="472.362" cy="193.009" r="4" fill="#0" id="circle187"/>
	<circle cx="477.117" cy="236.398" r="4" fill="#0" id="circle188"/>
	<circle cx="478.306" cy="194.198" r="4" fill="#0" id="circle189"/>
	<circle cx="483.061" cy="238.181" r="4" fill="#0" id="circle190"/>
	<circle cx="483.655" cy="197.17" r="4" fill="#0" id="circle191"/>
	<circle cx="489.004" cy="239.964" r="4" fill="#0" id="circle192"/>
	<circle cx="489.599" cy="198.953" r="4" fill="#0" id="circle193"/>
	<circle cx="494.948" cy="241.153" r="4" fill="#0" id="circle194"/>
	<circle cx="495.542" cy="201.33" r="4" fill="#0" id="circle195"/>
	<circle cx="500.892" cy="242.342" r="4" fill="#0" id="circle196"/>
	<circle cx="501.486" cy="202.519" r="4" fill="#0" id="circle197"/>
	<circle cx="506.835" cy="244.719" r="4" fill="#0" id="circle198"/>
	<circle cx="507.43" cy="204.302" r="4" fill="#0" id="circle199"/>
	<circle cx="512.779" cy="247.096" r="4" fill="#0" id="circle200"/>
	<circle cx="513.373" cy="206.085" r="4" fill="#0" id="circle201"/>
	<circle cx="518.723" cy="249.474" r="4" fill="#0" id="circle202"/>
	<circle cx="519.317" cy="208.463" r="4" fill="#0" id="circle203"/>
	<circle cx="524.666" cy="251.257" r="4" fill="#0" id="circle204"/>
	<circle cx="525.261" cy="210.246" r="4" fill="#0" id="circle205"/>
	<circle cx="530.61" cy="253.04" r="4" fill="#0" id="circle206"/>
	<circle cx="531.204" cy="212.623" r="4" fill="#0" id="circle207"/>
	<circle cx="536.554" cy="255.418" r="4" fill="#0" id="circle208"/>
	<circle cx="537.148" cy="214.406" r="4" fill="#0" id="circle209"/>
	<circle cx="542.497" cy="257.201" r="4" fill="#0" id="circle210"/>
	<circle cx="543.092" cy="216.784" r="4" fill="#0" id="circle211"/>
	<circle cx="548.441" cy="259.578" r="4" fill="#0" id="circle212"/>
	<circle cx="549.035" cy="218.567" r="4" fill="#0" id="circle213"/>
	<circle cx="554.385" cy="261.361" r="4" fill="#0" id="circle214"/>
	<circle cx="554.979" cy="220.944" r="4" fill="#0" id="circle215"/>
	<circle cx="560.328" cy="263.144" r="4" fill="#0" id="circle216"/>
	<circle cx="560.923" cy="222.133" r="4" fill="#0" id="circle217"/>
	<circle cx="566.272" cy="225.105" r="4" fill="#0" id="circle218"/>
	<circle cx="566.272" cy="265.522" r="4" fill="#0" id="circle219"/>
	<circle cx="572.216" cy="226.888" r="4" fill="#0" id="circle220"/>
	<circle cx="572.216" cy="267.305" r="4" fill="#0" id="circle221"/>
	<circle cx="578.159" cy="228.077" r="4" fill="#0" id="circle222"/>
	<circle cx="578.159" cy="269.682" r="4" fill="#0" id="circle223"/>
	<circle cx="584.103" cy="230.454" r="4" fill="#0" id="circle224"/>
	<circle cx="584.103" cy="270.871" r="4" fill="#0" id="circle225"/>
	<circle cx="590.047" cy="232.237" r="4" fill="#0" id="circle226"/>
	<circle cx="590.047" cy="272.654" r="4" fill="#0" id="circle227"/>
	<circle cx="595.396" cy="235.209" r="4" fill="#0" id="circle228"/>
	<circle cx="595.99" cy="275.032" r="4" fill="#0" id="circle229"/>
	<circle cx="601.34" cy="236.398" r="4" fill="#0" id="circle230"/>
	<circle cx="601.34" cy="278.004" r="4" fill="#0" id="circle231"/>
	<circle cx="607.283" cy="238.181" r="4" fill="#0" id="circle232"/>
	<circle cx="607.283" cy="279.192" r="4" fill="#0" id="circle233"/>
	<circle cx="613.227" cy="239.964" r="4" fill="#0" id="circle234"/>
	<circle cx="613.227" cy="280.975" r="4" fill="#0" id="circle235"/>
	<circle cx="619.171" cy="241.747" r="4" fill="#0" id="circle236"/>
	<circle cx="619.171" cy="282.759" r="4" fill="#0" id="circle237"/>
	<circle cx="625.114" cy="243.53" r="4" fill="#0" id="circle238"/>
	<circle cx="625.114" cy="284.542" r="4" fill="#0" id="circle239"/>
	<circle cx="631.058" cy="245.908" r="4" fill="#0" id="circle240"/>
	<circle cx="631.058" cy="286.919" r="4" fill="#0" id="circle241"/>
	<circle cx="637.002" cy="248.285" r="4" fill="#0" id="circle242"/>
	<circle cx="637.002" cy="288.702" r="4" fill="#0" id="circle243"/>
	<circle cx="642.945" cy="250.663" r="4" fill="#0" id="circle244"/>
	<circle cx="642.945" cy="290.485" r="4" fill="#0" id="circle245"/>
	<circle cx="648.889" cy="252.446" r="4" fill="#0" id="circle246"/>
	<circle cx="648.889" cy="292.268" r="4" fill="#0" id="circle247"/>
	<circle cx="654.238" cy="255.418" r="4" fill="#0" id="circle248"/>
	<circle cx="654.833" cy="294.052" r="4" fill="#0" id="circle249"/>
	<circle cx="660.182" cy="256.606" r="4" fill="#0" id="circle250"/>
	<circle cx="660.777" cy="296.429" r="4" fill="#0" id="circle251"/>
	<circle cx="666.126" cy="258.389" r="4" fill="#0" id="circle252"/>
	<circle cx="666.72" cy="298.806" r="4" fill="#0" id="circle253"/>
	<circle cx="672.07" cy="260.173" r="4" fill="#0" id="circle254"/>
	<circle cx="672.664" cy="300.59" r="4" fill="#0" id="circle255"/>
	<circle cx="677.419" cy="263.144" r="4" fill="#0" id="circle256"/>
	<circle cx="678.013" cy="303.561" r="4" fill="#0" id="circle257"/>
	<circle cx="683.362" cy="264.333" r="4" fill="#0" id="circle258"/>
	<circle cx="683.957" cy="304.75" r="4" fill="#0" id="circle259"/>
	<circle cx="689.306" cy="266.711" r="4" fill="#0" id="circle260"/>
	<circle cx="689.901" cy="305.939" r="4" fill="#0" id="circle261"/>
	<circle cx="694.655" cy="269.682" r="4" fill="#0" id="circle262"/>
	<circle cx="695.844" cy="308.316" r="4" fill="#0" id="circle263"/>
	<circle cx="700.599" cy="270.277" r="4" fill="#0" id="circle264"/>
	<circle cx="701.788" cy="310.694" r="4" fill="#0" id="circle265"/>
	<circle cx="706.543" cy="272.654" r="4" fill="#0" id="circle266"/>
	<circle cx="707.732" cy="313.071" r="4" fill="#0" id="circle267"/>
	<circle cx="712.487" cy="274.437" r="4" fill="#0" id="circle268"/>
	<circle cx="713.675" cy="314.854" r="4" fill="#0" id="circle269"/>
	<circle cx="717.836" cy="277.409" r="4" fill="#0" id="circle270"/>
	<circle cx="719.619" cy="317.232" r="4" fill="#0" id="circle271"/>
	<circle cx="723.78" cy="279.192" r="4" fill="#0" id="circle272"/>
	<circle cx="725.563" cy="318.421" r="4" fill="#0" id="circle273"/>
	<circle cx="729.723" cy="280.975" r="4" fill="#0" id="circle274"/>
	<circle cx="731.506" cy="320.798" r="4" fill="#0" id="circle275"/>
	<circle cx="735.667" cy="282.164" r="4" fill="#0" id="circle276"/>
	<circle cx="737.45" cy="323.176" r="4" fill="#0" id="circle277"/>
	<circle cx="741.016" cy="285.136" r="4" fill="#0" id="circle278"/>
	<circle cx="743.394" cy="324.959" r="4" fill="#0" id="circle279"/>
	<circle cx="746.96" cy="286.919" r="4" fill="#0" id="circle280"/>
	<circle cx="749.337" cy="327.336" r="4" fill="#0" id="circle281"/>
	<circle cx="752.904" cy="288.702" r="4" fill="#0" id="circle282"/>
	<circle cx="755.281" cy="329.714" r="4" fill="#0" id="circle283"/>
	<circle cx="758.847" cy="290.485" r="4" fill="#0" id="circle284"/>
	<circle cx="761.225" cy="331.497" r="4" fill="#0" id="circle285"/>
	<circle cx="764.791" cy="292.268" r="4" fill="#0" id="circle286"/>
	<circle cx="767.168" cy="333.874" r="4" fill="#0" id="circle287"/>
	<circle cx="770.735" cy="294.052" r="4" fill="#0" id="circle288"/>
	<circle cx="773.112" cy="335.063" r="4" fill="#0" id="circle289"/>
	<circle cx="776.678" cy="295.835" r="4" fill="#0" id="circle290"/>
	<circle cx="779.056" cy="336.846" r="4" fill="#0" id="circle291"/>
	<circle cx="782.622" cy="297.618" r="4" fill="#0" id="circle292"/>
	<circle cx="784.999" cy="339.223" r="4" fill="#0" id="circle293"/>
	<circle cx="788.566" cy="299.401" r="4" fill="#0" id="circle294"/>
	<circle cx="790.943" cy="341.007" r="4" fill="#0" id="circle295"/>
	<circle cx="794.509" cy="301.184" r="4" fill="#0" id="circle296"/>
	<circle cx="796.887" cy="343.384" r="4" fill="#0" id="circle297"/>
	<circle cx="800.453" cy="302.967" r="4" fill="#0" id="circle298"/>
	<circle cx="802.83" cy="345.762" r="4" fill="#0" id="circle299"/>
	<circle cx="805.802" cy="305.939" r="4" fill="#0" id="circle300"/>
	<circle cx="808.774" cy="348.139" r="4" fill="#0" id="circle301"/>
	<circle cx="811.746" cy="307.722" r="4" fill="#0" id="circle302"/>
	<circle cx="814.718" cy="349.328" r="4" fill="#0" id="circle303"/>
	<circle cx="817.69" cy="309.505" r="4" fill="#0" id="circle304"/>
	<circle cx="820.661" cy="351.705" r="4" fill="#0" id="circle305"/>
	<circle cx="823.633" cy="311.883" r="4" fill="#0" id="circle306"/>
	<circle cx="826.605" cy="354.083" r="4" fill="#0" id="circle307"/>
	<circle cx="829.577" cy="314.26" r="4" fill="#0" id="circle308"/>
	<circle cx="831.954" cy="357.055" r="4" fill="#0" id="circle309"/>
	<circle cx="835.521" cy="316.043" r="4" fill="#0" id="circle310"/>
	<circle cx="837.898" cy="358.838" r="4" fill="#0" id="circle311"/>
	<circle cx="841.464" cy="317.232" r="4" fill="#0" id="circle312"/>
	<circle cx="843.842" cy="360.026" r="4" fill="#0" id="circle313"/>
	<circle cx="846.814" cy="320.204" r="4" fill="#0" id="circle314"/>
	<circle cx="849.786" cy="361.809" r="4" fill="#0" id="circle315"/>
	<circle cx="852.757" cy="321.987" r="4" fill="#0" id="circle316"/>
	<circle cx="855.729" cy="363.593" r="4" fill="#0" id="circle317"/>
	<circle cx="858.701" cy="324.364" r="4" fill="#0" id="circle318"/>
	<circle cx="861.673" cy="365.97" r="4" fill="#0" id="circle319"/>
	<circle cx="864.645" cy="326.147" r="4" fill="#0" id="circle320"/>
	<circle cx="867.617" cy="368.348" r="4" fill="#0" id="circle321"/>
	<circle cx="870.588" cy="327.93" r="4" fill="#0" id="circle322"/>
	<circle cx="873.56" cy="370.725" r="4" fill="#0" id="circle323"/>
	<circle cx="875.938" cy="330.902" r="4" fill="#0" id="circle324"/>
	<circle cx="879.504" cy="373.102" r="4" fill="#0" id="circle325"/>
	<circle cx="881.881" cy="333.28" r="4" fill="#0" id="circle326"/>
	<circle cx="885.448" cy="374.886" r="4" fill="#0" id="circle327"/>
	<circle cx="887.825" cy="334.469" r="4" fill="#0" id="circle328"/>
	<circle cx="891.391" cy="376.074" r="4" fill="#0" id="circle329"/>
	<circle cx="893.769" cy="336.252" r="4" fill="#0" id="circle330"/>
	<circle cx="897.335" cy="378.452" r="4" fill="#0" id="circle331"/>
	<circle cx="899.712" cy="338.035" r="4" fill="#0" id="circle332"/>
	<circle cx="903.279" cy="380.829" r="4" fill="#0" id="circle333"/>
	<circle cx="905.656" cy="339.818" r="4" fill="#0" id="circle334"/>
	<circle cx="908.628" cy="383.801" r="4" fill="#0" id="circle335"/>
	<circle cx="911.6" cy="342.195" r="4" fill="#0" id="circle336"/>
	<circle cx="914.572" cy="386.179" r="4" fill="#0" id="circle337"/>
	<circle cx="917.543" cy="343.384" r="4" fill="#0" id="circle338"/>
	<circle cx="920.515" cy="387.367" r="4" fill="#0" id="circle339"/>
	<circle cx="923.487" cy="345.762" r="4" fill="#0" id="circle340"/>
	<circle cx="926.459" cy="388.556" r="4" fill="#0" id="circle341"/>
	<circle cx="928.836" cy="348.733" r="4" fill="#0" id="circle342"/>
	<circle cx="932.403" cy="389.745" r="4" fill="#0" id="circle343"/>
	<circle cx="934.78" cy="350.516" r="4" fill="#0" id="circle344"/>
	<circle cx="938.346" cy="391.528" r="4" fill="#0" id="circle345"/>
	<circle cx="940.724" cy="351.705" r="4" fill="#0" id="circle346"/>
	<circle cx="944.29" cy="393.311" r="4" fill="#0" id="circle347"/>
	<circle cx="946.667" cy="354.083" r="4" fill="#0" id="circle348"/>
	<circle cx="950.234" cy="395.094" r="4" fill="#0" id="circle349"/>
	<circle cx="952.611" cy="356.46" r="4" fill="#0" id="circle350"/>
	<circle cx="956.177" cy="396.877" r="4" fill="#0" id="circle351"/>
	<circle cx="957.96" cy="359.432" r="4" fill="#0" id="circle352"/>
	<circle cx="962.121" cy="398.066" r="4" fill="#0" id="circle353"/>
	<circle cx="963.904" cy="360.621" r="4" fill="#0" id="circle354"/>
	<circle cx="968.065" cy="400.443" r="4" fill="#0" id="circle355"/>
	<circle cx="969.848" cy="362.998" r="4" fill="#0" id="circle356"/>
	<circle cx="974.008" cy="402.226" r="4" fill="#0" id="circle357"/>
	<circle cx="975.791" cy="364.187" r="4" fill="#0" id="circle358"/>
	<circle cx="979.952" cy="402.226" r="4" fill="#0" id="circle359"/>
	<circle cx="981.141" cy="367.159" r="4" fill="#0" id="circle360"/>
	<circle cx="985.896" cy="399.849" r="4" fill="#0" id="circle361"/>
	<circle cx="986.49" cy="370.131" r="4" fill="#0" id="circle362"/>
	<circle cx="990.651" cy="395.688" r="4" fill="#0" id="circle363"/>
	<circle cx="991.245" cy="373.697" r="4" fill="#0" id="circle364"/>
	<circle cx="994.217" cy="390.339" r="4" fill="#0" id="circle365"/>
	<circle cx="994.811" cy="378.452" r="4" fill="#0" id="circle366"/>
	<circle cx="996" cy="384.395" r="4" fill="#0" id="circle367"/>
	</g>
</svg>