<?xml version="1.0" encoding="UTF-8" standalone="no"?>
<!-- Created with CurveBenchmark -->
<svg
	xmlns:dc="http://purl.org/dc/elements/1.1/"
	xmlns:cc="http://creativecommons.org/ns#"
	xmlns:rdf="http://www.w3.org/1999/02/22-rdf-syntax-ns#"
	xmlns:svg="http://www.w3.org/2000/svg"
	xmlns="http://www.w3.org/2000/svg"
	xmlns:sodipodi="http://sodipodi.sourceforge.net/DTD/sodipodi-0.dtd"
	xmlns:inkscape="http://www.inkscape.org/namespaces/inkscape"
	width="1000"
	height="1000"
	id="svg2"
	version="1.1"
	sodipodi:docname="manifold/crawl-cat41.png.txt">
<defs
	id="defs4" />
<metadata
	id="metadata7">
	<rdf:RDF>
		<cc:Work
			rdf:about="">
			<dc:format>image/svg+xml</dc:format>
			<dc:type
				rdf:resource="http://purl.org/dc/dcmitype/StillImage" />
			<dc:title></dc:title>
		</cc:Work>
	</rdf:RDF>
</metadata>
<g
	inkscape:label="Layer 1"
	inkscape:groupmode="layer"
	id="layer1">
	<path style="fill:none;stroke:red;stroke-width:1px;stroke-linecap:butt;stroke-linejoin:miter;stroke-opacity:1" d="M 4,694.902 4,707.395 z" id="boundary" inkscape:connector-curvature="0" />
	<path style="fill:none;stroke:red;stroke-width:1px;stroke-linecap:butt;stroke-linejoin:miter;stroke-opacity:1" d="M 4,694.902 4,682.408 z" id="boundary" inkscape:connector-curvature="0" />
	<path style="fill:none;stroke:red;stroke-width:1px;stroke-linecap:butt;stroke-linejoin:miter;stroke-opacity:1" d="M 4,707.395 10.2469,718.64 z" id="boundary" inkscape:connector-curvature="0" />
	<path style="fill:none;stroke:red;stroke-width:1px;stroke-linecap:butt;stroke-linejoin:miter;stroke-opacity:1" d="M 10.2469,718.64 16.4937,729.884 z" id="boundary" inkscape:connector-curvature="0" />
	<path style="fill:none;stroke:red;stroke-width:1px;stroke-linecap:butt;stroke-linejoin:miter;stroke-opacity:1" d="M 16.4937,729.884 27.738,736.131 z" id="boundary" inkscape:connector-curvature="0" />
	<path style="fill:none;stroke:red;stroke-width:1px;stroke-linecap:butt;stroke-linejoin:miter;stroke-opacity:1" d="M 27.738,736.131 36.4836,746.126 z" id="boundary" inkscape:connector-curvature="0" />
	<path style="fill:none;stroke:red;stroke-width:1px;stroke-linecap:butt;stroke-linejoin:miter;stroke-opacity:1" d="M 36.4836,746.126 48.9773,748.625 z" id="boundary" inkscape:connector-curvature="0" />
	<path style="fill:none;stroke:red;stroke-width:1px;stroke-linecap:butt;stroke-linejoin:miter;stroke-opacity:1" d="M 48.9773,748.625 61.471,748.625 z" id="boundary" inkscape:connector-curvature="0" />
	<path style="fill:none;stroke:red;stroke-width:1px;stroke-linecap:butt;stroke-linejoin:miter;stroke-opacity:1" d="M 61.471,748.625 73.9647,748.625 z" id="boundary" inkscape:connector-curvature="0" />
	<path style="fill:none;stroke:red;stroke-width:1px;stroke-linecap:butt;stroke-linejoin:miter;stroke-opacity:1" d="M 73.9647,748.625 86.4584,748.625 z" id="boundary" inkscape:connector-curvature="0" />
	<path style="fill:none;stroke:red;stroke-width:1px;stroke-linecap:butt;stroke-linejoin:miter;stroke-opacity:1" d="M 86.4584,748.625 98.9521,748.625 z" id="boundary" inkscape:connector-curvature="0" />
	<path style="fill:none;stroke:red;stroke-width:1px;stroke-linecap:butt;stroke-linejoin:miter;stroke-opacity:1" d="M 98.9521,748.625 111.446,748.625 z" id="boundary" inkscape:connector-curvature="0" />
	<path style="fill:none;stroke:red;stroke-width:1px;stroke-linecap:butt;stroke-linejoin:miter;stroke-opacity:1" d="M 111.446,748.625 123.94,748.625 z" id="boundary" inkscape:connector-curvature="0" />
	<path style="fill:none;stroke:red;stroke-width:1px;stroke-linecap:butt;stroke-linejoin:miter;stroke-opacity:1" d="M 123.94,748.625 135.184,742.378 z" id="boundary" inkscape:connector-curvature="0" />
	<path style="fill:none;stroke:red;stroke-width:1px;stroke-linecap:butt;stroke-linejoin:miter;stroke-opacity:1" d="M 135.184,742.378 147.678,738.63 z" id="boundary" inkscape:connector-curvature="0" />
	<path style="fill:none;stroke:red;stroke-width:1px;stroke-linecap:butt;stroke-linejoin:miter;stroke-opacity:1" d="M 147.678,738.63 157.673,729.884 z" id="boundary" inkscape:connector-curvature="0" />
	<path style="fill:none;stroke:red;stroke-width:1px;stroke-linecap:butt;stroke-linejoin:miter;stroke-opacity:1" d="M 157.673,729.884 170.166,729.884 z" id="boundary" inkscape:connector-curvature="0" />
	<path style="fill:none;stroke:red;stroke-width:1px;stroke-linecap:butt;stroke-linejoin:miter;stroke-opacity:1" d="M 170.166,729.884 182.66,728.635 z" id="boundary" inkscape:connector-curvature="0" />
	<path style="fill:none;stroke:red;stroke-width:1px;stroke-linecap:butt;stroke-linejoin:miter;stroke-opacity:1" d="M 182.66,728.635 195.154,722.388 z" id="boundary" inkscape:connector-curvature="0" />
	<path style="fill:none;stroke:red;stroke-width:1px;stroke-linecap:butt;stroke-linejoin:miter;stroke-opacity:1" d="M 195.154,722.388 207.647,716.141 z" id="boundary" inkscape:connector-curvature="0" />
	<path style="fill:none;stroke:red;stroke-width:1px;stroke-linecap:butt;stroke-linejoin:miter;stroke-opacity:1" d="M 207.647,716.141 220.141,709.894 z" id="boundary" inkscape:connector-curvature="0" />
	<path style="fill:none;stroke:red;stroke-width:1px;stroke-linecap:butt;stroke-linejoin:miter;stroke-opacity:1" d="M 220.141,709.894 232.635,704.897 z" id="boundary" inkscape:connector-curvature="0" />
	<path style="fill:none;stroke:red;stroke-width:1px;stroke-linecap:butt;stroke-linejoin:miter;stroke-opacity:1" d="M 232.635,704.897 243.879,698.65 z" id="boundary" inkscape:connector-curvature="0" />
	<path style="fill:none;stroke:red;stroke-width:1px;stroke-linecap:butt;stroke-linejoin:miter;stroke-opacity:1" d="M 243.879,698.65 256.373,698.65 z" id="boundary" inkscape:connector-curvature="0" />
	<path style="fill:none;stroke:red;stroke-width:1px;stroke-linecap:butt;stroke-linejoin:miter;stroke-opacity:1" d="M 256.373,698.65 267.617,692.403 z" id="boundary" inkscape:connector-curvature="0" />
	<path style="fill:none;stroke:red;stroke-width:1px;stroke-linecap:butt;stroke-linejoin:miter;stroke-opacity:1" d="M 267.617,692.403 280.111,686.156 z" id="boundary" inkscape:connector-curvature="0" />
	<path style="fill:none;stroke:red;stroke-width:1px;stroke-linecap:butt;stroke-linejoin:miter;stroke-opacity:1" d="M 280.111,686.156 291.355,679.909 z" id="boundary" inkscape:connector-curvature="0" />
	<path style="fill:none;stroke:red;stroke-width:1px;stroke-linecap:butt;stroke-linejoin:miter;stroke-opacity:1" d="M 291.355,679.909 302.599,673.662 z" id="boundary" inkscape:connector-curvature="0" />
	<path style="fill:none;stroke:red;stroke-width:1px;stroke-linecap:butt;stroke-linejoin:miter;stroke-opacity:1" d="M 4,682.408 13.995,672.413 z" id="boundary" inkscape:connector-curvature="0" />
	<path style="fill:none;stroke:red;stroke-width:1px;stroke-linecap:butt;stroke-linejoin:miter;stroke-opacity:1" d="M 13.995,672.413 25.2393,666.166 z" id="boundary" inkscape:connector-curvature="0" />
	<path style="fill:none;stroke:red;stroke-width:1px;stroke-linecap:butt;stroke-linejoin:miter;stroke-opacity:1" d="M 25.2393,666.166 35.2343,657.421 z" id="boundary" inkscape:connector-curvature="0" />
	<path style="fill:none;stroke:red;stroke-width:1px;stroke-linecap:butt;stroke-linejoin:miter;stroke-opacity:1" d="M 35.2343,657.421 47.728,653.673 z" id="boundary" inkscape:connector-curvature="0" />
	<path style="fill:none;stroke:red;stroke-width:1px;stroke-linecap:butt;stroke-linejoin:miter;stroke-opacity:1" d="M 47.728,653.673 60.2217,653.673 z" id="boundary" inkscape:connector-curvature="0" />
	<path style="fill:none;stroke:red;stroke-width:1px;stroke-linecap:butt;stroke-linejoin:miter;stroke-opacity:1" d="M 60.2217,653.673 72.7154,653.673 z" id="boundary" inkscape:connector-curvature="0" />
	<path style="fill:none;stroke:red;stroke-width:1px;stroke-linecap:butt;stroke-linejoin:miter;stroke-opacity:1" d="M 72.7154,653.673 85.2091,653.673 z" id="boundary" inkscape:connector-curvature="0" />
	<path style="fill:none;stroke:red;stroke-width:1px;stroke-linecap:butt;stroke-linejoin:miter;stroke-opacity:1" d="M 85.2091,653.673 97.7028,653.673 z" id="boundary" inkscape:connector-curvature="0" />
	<path style="fill:none;stroke:red;stroke-width:1px;stroke-linecap:butt;stroke-linejoin:miter;stroke-opacity:1" d="M 97.7028,653.673 110.196,653.673 z" id="boundary" inkscape:connector-curvature="0" />
	<path style="fill:none;stroke:red;stroke-width:1px;stroke-linecap:butt;stroke-linejoin:miter;stroke-opacity:1" d="M 110.196,653.673 122.69,653.673 z" id="boundary" inkscape:connector-curvature="0" />
	<path style="fill:none;stroke:red;stroke-width:1px;stroke-linecap:butt;stroke-linejoin:miter;stroke-opacity:1" d="M 122.69,653.673 135.184,653.673 z" id="boundary" inkscape:connector-curvature="0" />
	<path style="fill:none;stroke:red;stroke-width:1px;stroke-linecap:butt;stroke-linejoin:miter;stroke-opacity:1" d="M 135.184,653.673 147.678,653.673 z" id="boundary" inkscape:connector-curvature="0" />
	<path style="fill:none;stroke:red;stroke-width:1px;stroke-linecap:butt;stroke-linejoin:miter;stroke-opacity:1" d="M 147.678,653.673 160.171,651.174 z" id="boundary" inkscape:connector-curvature="0" />
	<path style="fill:none;stroke:red;stroke-width:1px;stroke-linecap:butt;stroke-linejoin:miter;stroke-opacity:1" d="M 160.171,651.174 172.665,644.927 z" id="boundary" inkscape:connector-curvature="0" />
	<path style="fill:none;stroke:red;stroke-width:1px;stroke-linecap:butt;stroke-linejoin:miter;stroke-opacity:1" d="M 172.665,644.927 185.159,638.68 z" id="boundary" inkscape:connector-curvature="0" />
	<path style="fill:none;stroke:red;stroke-width:1px;stroke-linecap:butt;stroke-linejoin:miter;stroke-opacity:1" d="M 185.159,638.68 197.652,632.433 z" id="boundary" inkscape:connector-curvature="0" />
	<path style="fill:none;stroke:red;stroke-width:1px;stroke-linecap:butt;stroke-linejoin:miter;stroke-opacity:1" d="M 197.652,632.433 207.647,622.438 z" id="boundary" inkscape:connector-curvature="0" />
	<path style="fill:none;stroke:red;stroke-width:1px;stroke-linecap:butt;stroke-linejoin:miter;stroke-opacity:1" d="M 207.647,622.438 218.892,616.191 z" id="boundary" inkscape:connector-curvature="0" />
	<path style="fill:none;stroke:red;stroke-width:1px;stroke-linecap:butt;stroke-linejoin:miter;stroke-opacity:1" d="M 302.599,673.662 311.345,661.169 z" id="boundary" inkscape:connector-curvature="0" />
	<path style="fill:none;stroke:red;stroke-width:1px;stroke-linecap:butt;stroke-linejoin:miter;stroke-opacity:1" d="M 311.345,661.169 323.839,648.675 z" id="boundary" inkscape:connector-curvature="0" />
	<path style="fill:none;stroke:red;stroke-width:1px;stroke-linecap:butt;stroke-linejoin:miter;stroke-opacity:1" d="M 323.839,648.675 336.332,642.428 z" id="boundary" inkscape:connector-curvature="0" />
	<path style="fill:none;stroke:red;stroke-width:1px;stroke-linecap:butt;stroke-linejoin:miter;stroke-opacity:1" d="M 336.332,642.428 348.826,636.181 z" id="boundary" inkscape:connector-curvature="0" />
	<path style="fill:none;stroke:red;stroke-width:1px;stroke-linecap:butt;stroke-linejoin:miter;stroke-opacity:1" d="M 348.826,636.181 361.32,629.935 z" id="boundary" inkscape:connector-curvature="0" />
	<path style="fill:none;stroke:red;stroke-width:1px;stroke-linecap:butt;stroke-linejoin:miter;stroke-opacity:1" d="M 361.32,629.935 361.32,617.441 z" id="boundary" inkscape:connector-curvature="0" />
	<path style="fill:none;stroke:red;stroke-width:1px;stroke-linecap:butt;stroke-linejoin:miter;stroke-opacity:1" d="M 361.32,617.441 367.567,604.947 z" id="boundary" inkscape:connector-curvature="0" />
	<path style="fill:none;stroke:red;stroke-width:1px;stroke-linecap:butt;stroke-linejoin:miter;stroke-opacity:1" d="M 367.567,604.947 380.06,604.947 z" id="boundary" inkscape:connector-curvature="0" />
	<path style="fill:none;stroke:red;stroke-width:1px;stroke-linecap:butt;stroke-linejoin:miter;stroke-opacity:1" d="M 380.06,604.947 392.554,604.947 z" id="boundary" inkscape:connector-curvature="0" />
	<path style="fill:none;stroke:red;stroke-width:1px;stroke-linecap:butt;stroke-linejoin:miter;stroke-opacity:1" d="M 392.554,604.947 405.048,604.947 z" id="boundary" inkscape:connector-curvature="0" />
	<path style="fill:none;stroke:red;stroke-width:1px;stroke-linecap:butt;stroke-linejoin:miter;stroke-opacity:1" d="M 405.048,604.947 417.542,604.947 z" id="boundary" inkscape:connector-curvature="0" />
	<path style="fill:none;stroke:red;stroke-width:1px;stroke-linecap:butt;stroke-linejoin:miter;stroke-opacity:1" d="M 417.542,604.947 430.035,604.947 z" id="boundary" inkscape:connector-curvature="0" />
	<path style="fill:none;stroke:red;stroke-width:1px;stroke-linecap:butt;stroke-linejoin:miter;stroke-opacity:1" d="M 430.035,604.947 442.529,598.7 z" id="boundary" inkscape:connector-curvature="0" />
	<path style="fill:none;stroke:red;stroke-width:1px;stroke-linecap:butt;stroke-linejoin:miter;stroke-opacity:1" d="M 442.529,598.7 455.023,598.7 z" id="boundary" inkscape:connector-curvature="0" />
	<path style="fill:none;stroke:red;stroke-width:1px;stroke-linecap:butt;stroke-linejoin:miter;stroke-opacity:1" d="M 455.023,598.7 466.267,592.453 z" id="boundary" inkscape:connector-curvature="0" />
	<path style="fill:none;stroke:red;stroke-width:1px;stroke-linecap:butt;stroke-linejoin:miter;stroke-opacity:1" d="M 466.267,592.453 478.761,588.705 z" id="boundary" inkscape:connector-curvature="0" />
	<path style="fill:none;stroke:red;stroke-width:1px;stroke-linecap:butt;stroke-linejoin:miter;stroke-opacity:1" d="M 478.761,588.705 491.254,586.207 z" id="boundary" inkscape:connector-curvature="0" />
	<path style="fill:none;stroke:red;stroke-width:1px;stroke-linecap:butt;stroke-linejoin:miter;stroke-opacity:1" d="M 491.254,586.207 495.003,598.7 z" id="boundary" inkscape:connector-curvature="0" />
	<path style="fill:none;stroke:red;stroke-width:1px;stroke-linecap:butt;stroke-linejoin:miter;stroke-opacity:1" d="M 495.003,598.7 501.249,609.945 z" id="boundary" inkscape:connector-curvature="0" />
	<path style="fill:none;stroke:red;stroke-width:1px;stroke-linecap:butt;stroke-linejoin:miter;stroke-opacity:1" d="M 501.249,609.945 509.995,619.94 z" id="boundary" inkscape:connector-curvature="0" />
	<path style="fill:none;stroke:red;stroke-width:1px;stroke-linecap:butt;stroke-linejoin:miter;stroke-opacity:1" d="M 509.995,619.94 516.242,631.184 z" id="boundary" inkscape:connector-curvature="0" />
	<path style="fill:none;stroke:red;stroke-width:1px;stroke-linecap:butt;stroke-linejoin:miter;stroke-opacity:1" d="M 516.242,631.184 522.489,642.428 z" id="boundary" inkscape:connector-curvature="0" />
	<path style="fill:none;stroke:red;stroke-width:1px;stroke-linecap:butt;stroke-linejoin:miter;stroke-opacity:1" d="M 522.489,642.428 522.489,654.922 z" id="boundary" inkscape:connector-curvature="0" />
	<path style="fill:none;stroke:red;stroke-width:1px;stroke-linecap:butt;stroke-linejoin:miter;stroke-opacity:1" d="M 522.489,654.922 519.99,672.413 z" id="boundary" inkscape:connector-curvature="0" />
	<path style="fill:none;stroke:red;stroke-width:1px;stroke-linecap:butt;stroke-linejoin:miter;stroke-opacity:1" d="M 519.99,672.413 514.992,684.907 z" id="boundary" inkscape:connector-curvature="0" />
	<path style="fill:none;stroke:red;stroke-width:1px;stroke-linecap:butt;stroke-linejoin:miter;stroke-opacity:1" d="M 514.992,684.907 504.997,693.652 z" id="boundary" inkscape:connector-curvature="0" />
	<path style="fill:none;stroke:red;stroke-width:1px;stroke-linecap:butt;stroke-linejoin:miter;stroke-opacity:1" d="M 504.997,693.652 496.252,703.647 z" id="boundary" inkscape:connector-curvature="0" />
	<path style="fill:none;stroke:red;stroke-width:1px;stroke-linecap:butt;stroke-linejoin:miter;stroke-opacity:1" d="M 496.252,703.647 486.257,712.393 z" id="boundary" inkscape:connector-curvature="0" />
	<path style="fill:none;stroke:red;stroke-width:1px;stroke-linecap:butt;stroke-linejoin:miter;stroke-opacity:1" d="M 486.257,712.393 476.262,722.388 z" id="boundary" inkscape:connector-curvature="0" />
	<path style="fill:none;stroke:red;stroke-width:1px;stroke-linecap:butt;stroke-linejoin:miter;stroke-opacity:1" d="M 476.262,722.388 466.267,732.383 z" id="boundary" inkscape:connector-curvature="0" />
	<path style="fill:none;stroke:red;stroke-width:1px;stroke-linecap:butt;stroke-linejoin:miter;stroke-opacity:1" d="M 466.267,732.383 455.023,741.128 z" id="boundary" inkscape:connector-curvature="0" />
	<path style="fill:none;stroke:red;stroke-width:1px;stroke-linecap:butt;stroke-linejoin:miter;stroke-opacity:1" d="M 455.023,741.128 442.529,743.627 z" id="boundary" inkscape:connector-curvature="0" />
	<path style="fill:none;stroke:red;stroke-width:1px;stroke-linecap:butt;stroke-linejoin:miter;stroke-opacity:1" d="M 442.529,743.627 432.534,753.622 z" id="boundary" inkscape:connector-curvature="0" />
	<path style="fill:none;stroke:red;stroke-width:1px;stroke-linecap:butt;stroke-linejoin:miter;stroke-opacity:1" d="M 432.534,753.622 422.539,763.617 z" id="boundary" inkscape:connector-curvature="0" />
	<path style="fill:none;stroke:red;stroke-width:1px;stroke-linecap:butt;stroke-linejoin:miter;stroke-opacity:1" d="M 422.539,763.617 422.539,776.111 z" id="boundary" inkscape:connector-curvature="0" />
	<path style="fill:none;stroke:red;stroke-width:1px;stroke-linecap:butt;stroke-linejoin:miter;stroke-opacity:1" d="M 422.539,776.111 432.534,784.856 z" id="boundary" inkscape:connector-curvature="0" />
	<path style="fill:none;stroke:red;stroke-width:1px;stroke-linecap:butt;stroke-linejoin:miter;stroke-opacity:1" d="M 432.534,784.856 442.529,792.353 z" id="boundary" inkscape:connector-curvature="0" />
	<path style="fill:none;stroke:red;stroke-width:1px;stroke-linecap:butt;stroke-linejoin:miter;stroke-opacity:1" d="M 442.529,792.353 455.023,792.353 z" id="boundary" inkscape:connector-curvature="0" />
	<path style="fill:none;stroke:red;stroke-width:1px;stroke-linecap:butt;stroke-linejoin:miter;stroke-opacity:1" d="M 455.023,792.353 467.516,792.353 z" id="boundary" inkscape:connector-curvature="0" />
	<path style="fill:none;stroke:red;stroke-width:1px;stroke-linecap:butt;stroke-linejoin:miter;stroke-opacity:1" d="M 467.516,792.353 480.01,792.353 z" id="boundary" inkscape:connector-curvature="0" />
	<path style="fill:none;stroke:red;stroke-width:1px;stroke-linecap:butt;stroke-linejoin:miter;stroke-opacity:1" d="M 480.01,792.353 491.254,786.106 z" id="boundary" inkscape:connector-curvature="0" />
	<path style="fill:none;stroke:red;stroke-width:1px;stroke-linecap:butt;stroke-linejoin:miter;stroke-opacity:1" d="M 491.254,786.106 503.748,782.358 z" id="boundary" inkscape:connector-curvature="0" />
	<path style="fill:none;stroke:red;stroke-width:1px;stroke-linecap:butt;stroke-linejoin:miter;stroke-opacity:1" d="M 503.748,782.358 516.242,776.111 z" id="boundary" inkscape:connector-curvature="0" />
	<path style="fill:none;stroke:red;stroke-width:1px;stroke-linecap:butt;stroke-linejoin:miter;stroke-opacity:1" d="M 516.242,776.111 526.237,766.116 z" id="boundary" inkscape:connector-curvature="0" />
	<path style="fill:none;stroke:red;stroke-width:1px;stroke-linecap:butt;stroke-linejoin:miter;stroke-opacity:1" d="M 526.237,766.116 536.232,754.872 z" id="boundary" inkscape:connector-curvature="0" />
	<path style="fill:none;stroke:red;stroke-width:1px;stroke-linecap:butt;stroke-linejoin:miter;stroke-opacity:1" d="M 536.232,754.872 546.227,746.126 z" id="boundary" inkscape:connector-curvature="0" />
	<path style="fill:none;stroke:red;stroke-width:1px;stroke-linecap:butt;stroke-linejoin:miter;stroke-opacity:1" d="M 546.227,746.126 554.972,736.131 z" id="boundary" inkscape:connector-curvature="0" />
	<path style="fill:none;stroke:red;stroke-width:1px;stroke-linecap:butt;stroke-linejoin:miter;stroke-opacity:1" d="M 554.972,736.131 564.967,727.385 z" id="boundary" inkscape:connector-curvature="0" />
	<path style="fill:none;stroke:red;stroke-width:1px;stroke-linecap:butt;stroke-linejoin:miter;stroke-opacity:1" d="M 564.967,727.385 573.713,717.39 z" id="boundary" inkscape:connector-curvature="0" />
	<path style="fill:none;stroke:red;stroke-width:1px;stroke-linecap:butt;stroke-linejoin:miter;stroke-opacity:1" d="M 573.713,717.39 583.708,708.645 z" id="boundary" inkscape:connector-curvature="0" />
	<path style="fill:none;stroke:red;stroke-width:1px;stroke-linecap:butt;stroke-linejoin:miter;stroke-opacity:1" d="M 583.708,708.645 592.453,692.403 z" id="boundary" inkscape:connector-curvature="0" />
	<path style="fill:none;stroke:red;stroke-width:1px;stroke-linecap:butt;stroke-linejoin:miter;stroke-opacity:1" d="M 592.453,692.403 598.7,679.909 z" id="boundary" inkscape:connector-curvature="0" />
	<path style="fill:none;stroke:red;stroke-width:1px;stroke-linecap:butt;stroke-linejoin:miter;stroke-opacity:1" d="M 598.7,679.909 598.7,667.416 z" id="boundary" inkscape:connector-curvature="0" />
	<path style="fill:none;stroke:red;stroke-width:1px;stroke-linecap:butt;stroke-linejoin:miter;stroke-opacity:1" d="M 598.7,667.416 604.947,648.675 z" id="boundary" inkscape:connector-curvature="0" />
	<path style="fill:none;stroke:red;stroke-width:1px;stroke-linecap:butt;stroke-linejoin:miter;stroke-opacity:1" d="M 604.947,648.675 604.947,636.181 z" id="boundary" inkscape:connector-curvature="0" />
	<path style="fill:none;stroke:red;stroke-width:1px;stroke-linecap:butt;stroke-linejoin:miter;stroke-opacity:1" d="M 604.947,636.181 604.947,623.688 z" id="boundary" inkscape:connector-curvature="0" />
	<path style="fill:none;stroke:red;stroke-width:1px;stroke-linecap:butt;stroke-linejoin:miter;stroke-opacity:1" d="M 604.947,623.688 604.947,611.194 z" id="boundary" inkscape:connector-curvature="0" />
	<path style="fill:none;stroke:red;stroke-width:1px;stroke-linecap:butt;stroke-linejoin:miter;stroke-opacity:1" d="M 604.947,611.194 604.947,598.7 z" id="boundary" inkscape:connector-curvature="0" />
	<path style="fill:none;stroke:red;stroke-width:1px;stroke-linecap:butt;stroke-linejoin:miter;stroke-opacity:1" d="M 604.947,598.7 604.947,586.207 z" id="boundary" inkscape:connector-curvature="0" />
	<path style="fill:none;stroke:red;stroke-width:1px;stroke-linecap:butt;stroke-linejoin:miter;stroke-opacity:1" d="M 604.947,586.207 611.194,567.466 z" id="boundary" inkscape:connector-curvature="0" />
	<path style="fill:none;stroke:red;stroke-width:1px;stroke-linecap:butt;stroke-linejoin:miter;stroke-opacity:1" d="M 611.194,567.466 617.441,554.972 z" id="boundary" inkscape:connector-curvature="0" />
	<path style="fill:none;stroke:red;stroke-width:1px;stroke-linecap:butt;stroke-linejoin:miter;stroke-opacity:1" d="M 617.441,554.972 629.935,554.972 z" id="boundary" inkscape:connector-curvature="0" />
	<path style="fill:none;stroke:red;stroke-width:1px;stroke-linecap:butt;stroke-linejoin:miter;stroke-opacity:1" d="M 629.935,554.972 637.431,564.967 z" id="boundary" inkscape:connector-curvature="0" />
	<path style="fill:none;stroke:red;stroke-width:1px;stroke-linecap:butt;stroke-linejoin:miter;stroke-opacity:1" d="M 637.431,564.967 642.428,577.461 z" id="boundary" inkscape:connector-curvature="0" />
	<path style="fill:none;stroke:red;stroke-width:1px;stroke-linecap:butt;stroke-linejoin:miter;stroke-opacity:1" d="M 642.428,577.461 648.675,588.705 z" id="boundary" inkscape:connector-curvature="0" />
	<path style="fill:none;stroke:red;stroke-width:1px;stroke-linecap:butt;stroke-linejoin:miter;stroke-opacity:1" d="M 648.675,588.705 653.673,601.199 z" id="boundary" inkscape:connector-curvature="0" />
	<path style="fill:none;stroke:red;stroke-width:1px;stroke-linecap:butt;stroke-linejoin:miter;stroke-opacity:1" d="M 653.673,601.199 653.673,613.693 z" id="boundary" inkscape:connector-curvature="0" />
	<path style="fill:none;stroke:red;stroke-width:1px;stroke-linecap:butt;stroke-linejoin:miter;stroke-opacity:1" d="M 653.673,613.693 659.919,624.937 z" id="boundary" inkscape:connector-curvature="0" />
	<path style="fill:none;stroke:red;stroke-width:1px;stroke-linecap:butt;stroke-linejoin:miter;stroke-opacity:1" d="M 659.919,624.937 666.166,636.181 z" id="boundary" inkscape:connector-curvature="0" />
	<path style="fill:none;stroke:red;stroke-width:1px;stroke-linecap:butt;stroke-linejoin:miter;stroke-opacity:1" d="M 666.166,636.181 672.413,647.426 z" id="boundary" inkscape:connector-curvature="0" />
	<path style="fill:none;stroke:red;stroke-width:1px;stroke-linecap:butt;stroke-linejoin:miter;stroke-opacity:1" d="M 672.413,647.426 672.413,659.919 z" id="boundary" inkscape:connector-curvature="0" />
	<path style="fill:none;stroke:red;stroke-width:1px;stroke-linecap:butt;stroke-linejoin:miter;stroke-opacity:1" d="M 672.413,659.919 672.413,672.413 z" id="boundary" inkscape:connector-curvature="0" />
	<path style="fill:none;stroke:red;stroke-width:1px;stroke-linecap:butt;stroke-linejoin:miter;stroke-opacity:1" d="M 672.413,672.413 672.413,684.907 z" id="boundary" inkscape:connector-curvature="0" />
	<path style="fill:none;stroke:red;stroke-width:1px;stroke-linecap:butt;stroke-linejoin:miter;stroke-opacity:1" d="M 672.413,684.907 672.413,697.401 z" id="boundary" inkscape:connector-curvature="0" />
	<path style="fill:none;stroke:red;stroke-width:1px;stroke-linecap:butt;stroke-linejoin:miter;stroke-opacity:1" d="M 672.413,697.401 672.413,709.894 z" id="boundary" inkscape:connector-curvature="0" />
	<path style="fill:none;stroke:red;stroke-width:1px;stroke-linecap:butt;stroke-linejoin:miter;stroke-opacity:1" d="M 672.413,709.894 666.166,726.136 z" id="boundary" inkscape:connector-curvature="0" />
	<path style="fill:none;stroke:red;stroke-width:1px;stroke-linecap:butt;stroke-linejoin:miter;stroke-opacity:1" d="M 666.166,726.136 653.673,732.383 z" id="boundary" inkscape:connector-curvature="0" />
	<path style="fill:none;stroke:red;stroke-width:1px;stroke-linecap:butt;stroke-linejoin:miter;stroke-opacity:1" d="M 653.673,732.383 641.179,738.63 z" id="boundary" inkscape:connector-curvature="0" />
	<path style="fill:none;stroke:red;stroke-width:1px;stroke-linecap:butt;stroke-linejoin:miter;stroke-opacity:1" d="M 641.179,738.63 641.179,751.123 z" id="boundary" inkscape:connector-curvature="0" />
	<path style="fill:none;stroke:red;stroke-width:1px;stroke-linecap:butt;stroke-linejoin:miter;stroke-opacity:1" d="M 641.179,751.123 647.426,762.368 z" id="boundary" inkscape:connector-curvature="0" />
	<path style="fill:none;stroke:red;stroke-width:1px;stroke-linecap:butt;stroke-linejoin:miter;stroke-opacity:1" d="M 647.426,762.368 659.919,767.365 z" id="boundary" inkscape:connector-curvature="0" />
	<path style="fill:none;stroke:red;stroke-width:1px;stroke-linecap:butt;stroke-linejoin:miter;stroke-opacity:1" d="M 659.919,767.365 671.164,773.612 z" id="boundary" inkscape:connector-curvature="0" />
	<path style="fill:none;stroke:red;stroke-width:1px;stroke-linecap:butt;stroke-linejoin:miter;stroke-opacity:1" d="M 671.164,773.612 683.657,773.612 z" id="boundary" inkscape:connector-curvature="0" />
	<path style="fill:none;stroke:red;stroke-width:1px;stroke-linecap:butt;stroke-linejoin:miter;stroke-opacity:1" d="M 683.657,773.612 696.151,771.113 z" id="boundary" inkscape:connector-curvature="0" />
	<path style="fill:none;stroke:red;stroke-width:1px;stroke-linecap:butt;stroke-linejoin:miter;stroke-opacity:1" d="M 696.151,771.113 708.645,767.365 z" id="boundary" inkscape:connector-curvature="0" />
	<path style="fill:none;stroke:red;stroke-width:1px;stroke-linecap:butt;stroke-linejoin:miter;stroke-opacity:1" d="M 708.645,767.365 719.889,761.118 z" id="boundary" inkscape:connector-curvature="0" />
	<path style="fill:none;stroke:red;stroke-width:1px;stroke-linecap:butt;stroke-linejoin:miter;stroke-opacity:1" d="M 719.889,761.118 732.383,759.869 z" id="boundary" inkscape:connector-curvature="0" />
	<path style="fill:none;stroke:red;stroke-width:1px;stroke-linecap:butt;stroke-linejoin:miter;stroke-opacity:1" d="M 732.383,759.869 738.63,747.375 z" id="boundary" inkscape:connector-curvature="0" />
	<path style="fill:none;stroke:red;stroke-width:1px;stroke-linecap:butt;stroke-linejoin:miter;stroke-opacity:1" d="M 738.63,747.375 748.625,736.131 z" id="boundary" inkscape:connector-curvature="0" />
	<path style="fill:none;stroke:red;stroke-width:1px;stroke-linecap:butt;stroke-linejoin:miter;stroke-opacity:1" d="M 748.625,736.131 748.625,723.637 z" id="boundary" inkscape:connector-curvature="0" />
	<path style="fill:none;stroke:red;stroke-width:1px;stroke-linecap:butt;stroke-linejoin:miter;stroke-opacity:1" d="M 748.625,723.637 748.625,711.144 z" id="boundary" inkscape:connector-curvature="0" />
	<path style="fill:none;stroke:red;stroke-width:1px;stroke-linecap:butt;stroke-linejoin:miter;stroke-opacity:1" d="M 218.892,616.191 222.64,594.952 z" id="boundary" inkscape:connector-curvature="0" />
	<path style="fill:none;stroke:red;stroke-width:1px;stroke-linecap:butt;stroke-linejoin:miter;stroke-opacity:1" d="M 222.64,594.952 228.887,573.713 z" id="boundary" inkscape:connector-curvature="0" />
	<path style="fill:none;stroke:red;stroke-width:1px;stroke-linecap:butt;stroke-linejoin:miter;stroke-opacity:1" d="M 228.887,573.713 226.388,561.219 z" id="boundary" inkscape:connector-curvature="0" />
	<path style="fill:none;stroke:red;stroke-width:1px;stroke-linecap:butt;stroke-linejoin:miter;stroke-opacity:1" d="M 226.388,561.219 213.894,561.219 z" id="boundary" inkscape:connector-curvature="0" />
	<path style="fill:none;stroke:red;stroke-width:1px;stroke-linecap:butt;stroke-linejoin:miter;stroke-opacity:1" d="M 213.894,561.219 207.647,572.463 z" id="boundary" inkscape:connector-curvature="0" />
	<path style="fill:none;stroke:red;stroke-width:1px;stroke-linecap:butt;stroke-linejoin:miter;stroke-opacity:1" d="M 207.647,572.463 195.154,578.71 z" id="boundary" inkscape:connector-curvature="0" />
	<path style="fill:none;stroke:red;stroke-width:1px;stroke-linecap:butt;stroke-linejoin:miter;stroke-opacity:1" d="M 195.154,578.71 182.66,579.96 z" id="boundary" inkscape:connector-curvature="0" />
	<path style="fill:none;stroke:red;stroke-width:1px;stroke-linecap:butt;stroke-linejoin:miter;stroke-opacity:1" d="M 182.66,579.96 170.166,579.96 z" id="boundary" inkscape:connector-curvature="0" />
	<path style="fill:none;stroke:red;stroke-width:1px;stroke-linecap:butt;stroke-linejoin:miter;stroke-opacity:1" d="M 170.166,579.96 158.922,573.713 z" id="boundary" inkscape:connector-curvature="0" />
	<path style="fill:none;stroke:red;stroke-width:1px;stroke-linecap:butt;stroke-linejoin:miter;stroke-opacity:1" d="M 158.922,573.713 148.927,564.967 z" id="boundary" inkscape:connector-curvature="0" />
	<path style="fill:none;stroke:red;stroke-width:1px;stroke-linecap:butt;stroke-linejoin:miter;stroke-opacity:1" d="M 148.927,564.967 141.431,554.972 z" id="boundary" inkscape:connector-curvature="0" />
	<path style="fill:none;stroke:red;stroke-width:1px;stroke-linecap:butt;stroke-linejoin:miter;stroke-opacity:1" d="M 141.431,554.972 135.184,543.728 z" id="boundary" inkscape:connector-curvature="0" />
	<path style="fill:none;stroke:red;stroke-width:1px;stroke-linecap:butt;stroke-linejoin:miter;stroke-opacity:1" d="M 135.184,543.728 125.189,536.232 z" id="boundary" inkscape:connector-curvature="0" />
	<path style="fill:none;stroke:red;stroke-width:1px;stroke-linecap:butt;stroke-linejoin:miter;stroke-opacity:1" d="M 125.189,536.232 113.945,529.985 z" id="boundary" inkscape:connector-curvature="0" />
	<path style="fill:none;stroke:red;stroke-width:1px;stroke-linecap:butt;stroke-linejoin:miter;stroke-opacity:1" d="M 113.945,529.985 110.196,517.491 z" id="boundary" inkscape:connector-curvature="0" />
	<path style="fill:none;stroke:red;stroke-width:1px;stroke-linecap:butt;stroke-linejoin:miter;stroke-opacity:1" d="M 110.196,517.491 100.202,509.995 z" id="boundary" inkscape:connector-curvature="0" />
	<path style="fill:none;stroke:red;stroke-width:1px;stroke-linecap:butt;stroke-linejoin:miter;stroke-opacity:1" d="M 100.202,509.995 95.204,497.501 z" id="boundary" inkscape:connector-curvature="0" />
	<path style="fill:none;stroke:red;stroke-width:1px;stroke-linecap:butt;stroke-linejoin:miter;stroke-opacity:1" d="M 95.204,497.501 88.9572,486.257 z" id="boundary" inkscape:connector-curvature="0" />
	<path style="fill:none;stroke:red;stroke-width:1px;stroke-linecap:butt;stroke-linejoin:miter;stroke-opacity:1" d="M 88.9572,486.257 85.2091,473.763 z" id="boundary" inkscape:connector-curvature="0" />
	<path style="fill:none;stroke:red;stroke-width:1px;stroke-linecap:butt;stroke-linejoin:miter;stroke-opacity:1" d="M 85.2091,473.763 85.2091,461.27 z" id="boundary" inkscape:connector-curvature="0" />
	<path style="fill:none;stroke:red;stroke-width:1px;stroke-linecap:butt;stroke-linejoin:miter;stroke-opacity:1" d="M 85.2091,461.27 82.7103,448.776 z" id="boundary" inkscape:connector-curvature="0" />
	<path style="fill:none;stroke:red;stroke-width:1px;stroke-linecap:butt;stroke-linejoin:miter;stroke-opacity:1" d="M 82.7103,448.776 70.2166,448.776 z" id="boundary" inkscape:connector-curvature="0" />
	<path style="fill:none;stroke:red;stroke-width:1px;stroke-linecap:butt;stroke-linejoin:miter;stroke-opacity:1" d="M 70.2166,448.776 58.9723,442.529 z" id="boundary" inkscape:connector-curvature="0" />
	<path style="fill:none;stroke:red;stroke-width:1px;stroke-linecap:butt;stroke-linejoin:miter;stroke-opacity:1" d="M 58.9723,442.529 46.4786,442.529 z" id="boundary" inkscape:connector-curvature="0" />
	<path style="fill:none;stroke:red;stroke-width:1px;stroke-linecap:butt;stroke-linejoin:miter;stroke-opacity:1" d="M 46.4786,442.529 35.2343,436.282 z" id="boundary" inkscape:connector-curvature="0" />
	<path style="fill:none;stroke:red;stroke-width:1px;stroke-linecap:butt;stroke-linejoin:miter;stroke-opacity:1" d="M 35.2343,436.282 22.7406,432.534 z" id="boundary" inkscape:connector-curvature="0" />
	<path style="fill:none;stroke:red;stroke-width:1px;stroke-linecap:butt;stroke-linejoin:miter;stroke-opacity:1" d="M 22.7406,432.534 32.7355,422.539 z" id="boundary" inkscape:connector-curvature="0" />
	<path style="fill:none;stroke:red;stroke-width:1px;stroke-linecap:butt;stroke-linejoin:miter;stroke-opacity:1" d="M 32.7355,422.539 38.9824,410.045 z" id="boundary" inkscape:connector-curvature="0" />
	<path style="fill:none;stroke:red;stroke-width:1px;stroke-linecap:butt;stroke-linejoin:miter;stroke-opacity:1" d="M 38.9824,410.045 51.4761,410.045 z" id="boundary" inkscape:connector-curvature="0" />
	<path style="fill:none;stroke:red;stroke-width:1px;stroke-linecap:butt;stroke-linejoin:miter;stroke-opacity:1" d="M 51.4761,410.045 61.471,400.05 z" id="boundary" inkscape:connector-curvature="0" />
	<path style="fill:none;stroke:red;stroke-width:1px;stroke-linecap:butt;stroke-linejoin:miter;stroke-opacity:1" d="M 61.471,400.05 73.9647,397.552 z" id="boundary" inkscape:connector-curvature="0" />
	<path style="fill:none;stroke:red;stroke-width:1px;stroke-linecap:butt;stroke-linejoin:miter;stroke-opacity:1" d="M 73.9647,397.552 86.4584,393.804 z" id="boundary" inkscape:connector-curvature="0" />
	<path style="fill:none;stroke:red;stroke-width:1px;stroke-linecap:butt;stroke-linejoin:miter;stroke-opacity:1" d="M 86.4584,393.804 98.9521,387.557 z" id="boundary" inkscape:connector-curvature="0" />
	<path style="fill:none;stroke:red;stroke-width:1px;stroke-linecap:butt;stroke-linejoin:miter;stroke-opacity:1" d="M 98.9521,387.557 111.446,381.31 z" id="boundary" inkscape:connector-curvature="0" />
	<path style="fill:none;stroke:red;stroke-width:1px;stroke-linecap:butt;stroke-linejoin:miter;stroke-opacity:1" d="M 111.446,381.31 123.94,378.811 z" id="boundary" inkscape:connector-curvature="0" />
	<path style="fill:none;stroke:red;stroke-width:1px;stroke-linecap:butt;stroke-linejoin:miter;stroke-opacity:1" d="M 123.94,378.811 135.184,372.564 z" id="boundary" inkscape:connector-curvature="0" />
	<path style="fill:none;stroke:red;stroke-width:1px;stroke-linecap:butt;stroke-linejoin:miter;stroke-opacity:1" d="M 135.184,372.564 146.428,366.317 z" id="boundary" inkscape:connector-curvature="0" />
	<path style="fill:none;stroke:red;stroke-width:1px;stroke-linecap:butt;stroke-linejoin:miter;stroke-opacity:1" d="M 146.428,366.317 157.673,360.071 z" id="boundary" inkscape:connector-curvature="0" />
	<path style="fill:none;stroke:red;stroke-width:1px;stroke-linecap:butt;stroke-linejoin:miter;stroke-opacity:1" d="M 157.673,360.071 168.917,353.824 z" id="boundary" inkscape:connector-curvature="0" />
	<path style="fill:none;stroke:red;stroke-width:1px;stroke-linecap:butt;stroke-linejoin:miter;stroke-opacity:1" d="M 168.917,353.824 180.161,347.577 z" id="boundary" inkscape:connector-curvature="0" />
	<path style="fill:none;stroke:red;stroke-width:1px;stroke-linecap:butt;stroke-linejoin:miter;stroke-opacity:1" d="M 180.161,347.577 191.406,341.33 z" id="boundary" inkscape:connector-curvature="0" />
	<path style="fill:none;stroke:red;stroke-width:1px;stroke-linecap:butt;stroke-linejoin:miter;stroke-opacity:1" d="M 191.406,341.33 203.899,341.33 z" id="boundary" inkscape:connector-curvature="0" />
	<path style="fill:none;stroke:red;stroke-width:1px;stroke-linecap:butt;stroke-linejoin:miter;stroke-opacity:1" d="M 203.899,341.33 216.393,341.33 z" id="boundary" inkscape:connector-curvature="0" />
	<path style="fill:none;stroke:red;stroke-width:1px;stroke-linecap:butt;stroke-linejoin:miter;stroke-opacity:1" d="M 216.393,341.33 228.887,343.829 z" id="boundary" inkscape:connector-curvature="0" />
	<path style="fill:none;stroke:red;stroke-width:1px;stroke-linecap:butt;stroke-linejoin:miter;stroke-opacity:1" d="M 228.887,343.829 241.38,347.577 z" id="boundary" inkscape:connector-curvature="0" />
	<path style="fill:none;stroke:red;stroke-width:1px;stroke-linecap:butt;stroke-linejoin:miter;stroke-opacity:1" d="M 241.38,347.577 253.874,347.577 z" id="boundary" inkscape:connector-curvature="0" />
	<path style="fill:none;stroke:red;stroke-width:1px;stroke-linecap:butt;stroke-linejoin:miter;stroke-opacity:1" d="M 253.874,347.577 263.869,355.073 z" id="boundary" inkscape:connector-curvature="0" />
	<path style="fill:none;stroke:red;stroke-width:1px;stroke-linecap:butt;stroke-linejoin:miter;stroke-opacity:1" d="M 263.869,355.073 276.363,360.071 z" id="boundary" inkscape:connector-curvature="0" />
	<path style="fill:none;stroke:red;stroke-width:1px;stroke-linecap:butt;stroke-linejoin:miter;stroke-opacity:1" d="M 276.363,360.071 288.856,360.071 z" id="boundary" inkscape:connector-curvature="0" />
	<path style="fill:none;stroke:red;stroke-width:1px;stroke-linecap:butt;stroke-linejoin:miter;stroke-opacity:1" d="M 288.856,360.071 301.35,360.071 z" id="boundary" inkscape:connector-curvature="0" />
	<path style="fill:none;stroke:red;stroke-width:1px;stroke-linecap:butt;stroke-linejoin:miter;stroke-opacity:1" d="M 301.35,360.071 312.594,366.317 z" id="boundary" inkscape:connector-curvature="0" />
	<path style="fill:none;stroke:red;stroke-width:1px;stroke-linecap:butt;stroke-linejoin:miter;stroke-opacity:1" d="M 312.594,366.317 325.088,366.317 z" id="boundary" inkscape:connector-curvature="0" />
	<path style="fill:none;stroke:red;stroke-width:1px;stroke-linecap:butt;stroke-linejoin:miter;stroke-opacity:1" d="M 325.088,366.317 336.332,372.564 z" id="boundary" inkscape:connector-curvature="0" />
	<path style="fill:none;stroke:red;stroke-width:1px;stroke-linecap:butt;stroke-linejoin:miter;stroke-opacity:1" d="M 336.332,372.564 348.826,372.564 z" id="boundary" inkscape:connector-curvature="0" />
	<path style="fill:none;stroke:red;stroke-width:1px;stroke-linecap:butt;stroke-linejoin:miter;stroke-opacity:1" d="M 348.826,372.564 361.32,372.564 z" id="boundary" inkscape:connector-curvature="0" />
	<path style="fill:none;stroke:red;stroke-width:1px;stroke-linecap:butt;stroke-linejoin:miter;stroke-opacity:1" d="M 361.32,372.564 372.564,366.317 z" id="boundary" inkscape:connector-curvature="0" />
	<path style="fill:none;stroke:red;stroke-width:1px;stroke-linecap:butt;stroke-linejoin:miter;stroke-opacity:1" d="M 372.564,366.317 383.809,360.071 z" id="boundary" inkscape:connector-curvature="0" />
	<path style="fill:none;stroke:red;stroke-width:1px;stroke-linecap:butt;stroke-linejoin:miter;stroke-opacity:1" d="M 383.809,360.071 392.554,350.076 z" id="boundary" inkscape:connector-curvature="0" />
	<path style="fill:none;stroke:red;stroke-width:1px;stroke-linecap:butt;stroke-linejoin:miter;stroke-opacity:1" d="M 392.554,350.076 402.549,341.33 z" id="boundary" inkscape:connector-curvature="0" />
	<path style="fill:none;stroke:red;stroke-width:1px;stroke-linecap:butt;stroke-linejoin:miter;stroke-opacity:1" d="M 402.549,341.33 411.295,331.335 z" id="boundary" inkscape:connector-curvature="0" />
	<path style="fill:none;stroke:red;stroke-width:1px;stroke-linecap:butt;stroke-linejoin:miter;stroke-opacity:1" d="M 411.295,331.335 421.29,322.589 z" id="boundary" inkscape:connector-curvature="0" />
	<path style="fill:none;stroke:red;stroke-width:1px;stroke-linecap:butt;stroke-linejoin:miter;stroke-opacity:1" d="M 421.29,322.589 426.287,310.096 z" id="boundary" inkscape:connector-curvature="0" />
	<path style="fill:none;stroke:red;stroke-width:1px;stroke-linecap:butt;stroke-linejoin:miter;stroke-opacity:1" d="M 426.287,310.096 436.282,300.101 z" id="boundary" inkscape:connector-curvature="0" />
	<path style="fill:none;stroke:red;stroke-width:1px;stroke-linecap:butt;stroke-linejoin:miter;stroke-opacity:1" d="M 436.282,300.101 446.277,291.355 z" id="boundary" inkscape:connector-curvature="0" />
	<path style="fill:none;stroke:red;stroke-width:1px;stroke-linecap:butt;stroke-linejoin:miter;stroke-opacity:1" d="M 446.277,291.355 455.023,281.36 z" id="boundary" inkscape:connector-curvature="0" />
	<path style="fill:none;stroke:red;stroke-width:1px;stroke-linecap:butt;stroke-linejoin:miter;stroke-opacity:1" d="M 455.023,281.36 465.018,272.615 z" id="boundary" inkscape:connector-curvature="0" />
	<path style="fill:none;stroke:red;stroke-width:1px;stroke-linecap:butt;stroke-linejoin:miter;stroke-opacity:1" d="M 465.018,272.615 473.763,262.62 z" id="boundary" inkscape:connector-curvature="0" />
	<path style="fill:none;stroke:red;stroke-width:1px;stroke-linecap:butt;stroke-linejoin:miter;stroke-opacity:1" d="M 473.763,262.62 483.758,253.874 z" id="boundary" inkscape:connector-curvature="0" />
	<path style="fill:none;stroke:red;stroke-width:1px;stroke-linecap:butt;stroke-linejoin:miter;stroke-opacity:1" d="M 483.758,253.874 495.003,247.627 z" id="boundary" inkscape:connector-curvature="0" />
	<path style="fill:none;stroke:red;stroke-width:1px;stroke-linecap:butt;stroke-linejoin:miter;stroke-opacity:1" d="M 495.003,247.627 507.496,241.38 z" id="boundary" inkscape:connector-curvature="0" />
	<path style="fill:none;stroke:red;stroke-width:1px;stroke-linecap:butt;stroke-linejoin:miter;stroke-opacity:1" d="M 507.496,241.38 519.99,241.38 z" id="boundary" inkscape:connector-curvature="0" />
	<path style="fill:none;stroke:red;stroke-width:1px;stroke-linecap:butt;stroke-linejoin:miter;stroke-opacity:1" d="M 519.99,241.38 532.484,235.134 z" id="boundary" inkscape:connector-curvature="0" />
	<path style="fill:none;stroke:red;stroke-width:1px;stroke-linecap:butt;stroke-linejoin:miter;stroke-opacity:1" d="M 532.484,235.134 544.977,228.887 z" id="boundary" inkscape:connector-curvature="0" />
	<path style="fill:none;stroke:red;stroke-width:1px;stroke-linecap:butt;stroke-linejoin:miter;stroke-opacity:1" d="M 544.977,228.887 557.471,228.887 z" id="boundary" inkscape:connector-curvature="0" />
	<path style="fill:none;stroke:red;stroke-width:1px;stroke-linecap:butt;stroke-linejoin:miter;stroke-opacity:1" d="M 557.471,228.887 569.965,228.887 z" id="boundary" inkscape:connector-curvature="0" />
	<path style="fill:none;stroke:red;stroke-width:1px;stroke-linecap:butt;stroke-linejoin:miter;stroke-opacity:1" d="M 569.965,228.887 582.458,228.887 z" id="boundary" inkscape:connector-curvature="0" />
	<path style="fill:none;stroke:red;stroke-width:1px;stroke-linecap:butt;stroke-linejoin:miter;stroke-opacity:1" d="M 582.458,228.887 594.952,228.887 z" id="boundary" inkscape:connector-curvature="0" />
	<path style="fill:none;stroke:red;stroke-width:1px;stroke-linecap:butt;stroke-linejoin:miter;stroke-opacity:1" d="M 594.952,228.887 607.446,228.887 z" id="boundary" inkscape:connector-curvature="0" />
	<path style="fill:none;stroke:red;stroke-width:1px;stroke-linecap:butt;stroke-linejoin:miter;stroke-opacity:1" d="M 607.446,228.887 619.94,228.887 z" id="boundary" inkscape:connector-curvature="0" />
	<path style="fill:none;stroke:red;stroke-width:1px;stroke-linecap:butt;stroke-linejoin:miter;stroke-opacity:1" d="M 619.94,228.887 631.184,235.134 z" id="boundary" inkscape:connector-curvature="0" />
	<path style="fill:none;stroke:red;stroke-width:1px;stroke-linecap:butt;stroke-linejoin:miter;stroke-opacity:1" d="M 631.184,235.134 641.179,243.879 z" id="boundary" inkscape:connector-curvature="0" />
	<path style="fill:none;stroke:red;stroke-width:1px;stroke-linecap:butt;stroke-linejoin:miter;stroke-opacity:1" d="M 641.179,243.879 653.673,247.627 z" id="boundary" inkscape:connector-curvature="0" />
	<path style="fill:none;stroke:red;stroke-width:1px;stroke-linecap:butt;stroke-linejoin:miter;stroke-opacity:1" d="M 653.673,247.627 666.166,247.627 z" id="boundary" inkscape:connector-curvature="0" />
	<path style="fill:none;stroke:red;stroke-width:1px;stroke-linecap:butt;stroke-linejoin:miter;stroke-opacity:1" d="M 666.166,247.627 678.66,245.128 z" id="boundary" inkscape:connector-curvature="0" />
	<path style="fill:none;stroke:red;stroke-width:1px;stroke-linecap:butt;stroke-linejoin:miter;stroke-opacity:1" d="M 678.66,245.128 688.655,235.134 z" id="boundary" inkscape:connector-curvature="0" />
	<path style="fill:none;stroke:red;stroke-width:1px;stroke-linecap:butt;stroke-linejoin:miter;stroke-opacity:1" d="M 688.655,235.134 698.65,225.139 z" id="boundary" inkscape:connector-curvature="0" />
	<path style="fill:none;stroke:red;stroke-width:1px;stroke-linecap:butt;stroke-linejoin:miter;stroke-opacity:1" d="M 698.65,225.139 708.645,216.393 z" id="boundary" inkscape:connector-curvature="0" />
	<path style="fill:none;stroke:red;stroke-width:1px;stroke-linecap:butt;stroke-linejoin:miter;stroke-opacity:1" d="M 708.645,216.393 713.642,203.899 z" id="boundary" inkscape:connector-curvature="0" />
	<path style="fill:none;stroke:red;stroke-width:1px;stroke-linecap:butt;stroke-linejoin:miter;stroke-opacity:1" d="M 713.642,203.899 719.889,191.406 z" id="boundary" inkscape:connector-curvature="0" />
	<path style="fill:none;stroke:red;stroke-width:1px;stroke-linecap:butt;stroke-linejoin:miter;stroke-opacity:1" d="M 719.889,191.406 726.136,178.912 z" id="boundary" inkscape:connector-curvature="0" />
	<path style="fill:none;stroke:red;stroke-width:1px;stroke-linecap:butt;stroke-linejoin:miter;stroke-opacity:1" d="M 726.136,178.912 734.882,163.919 z" id="boundary" inkscape:connector-curvature="0" />
	<path style="fill:none;stroke:red;stroke-width:1px;stroke-linecap:butt;stroke-linejoin:miter;stroke-opacity:1" d="M 734.882,163.919 744.877,153.924 z" id="boundary" inkscape:connector-curvature="0" />
	<path style="fill:none;stroke:red;stroke-width:1px;stroke-linecap:butt;stroke-linejoin:miter;stroke-opacity:1" d="M 744.877,153.924 754.872,143.929 z" id="boundary" inkscape:connector-curvature="0" />
	<path style="fill:none;stroke:red;stroke-width:1px;stroke-linecap:butt;stroke-linejoin:miter;stroke-opacity:1" d="M 754.872,143.929 764.866,135.184 z" id="boundary" inkscape:connector-curvature="0" />
	<path style="fill:none;stroke:red;stroke-width:1px;stroke-linecap:butt;stroke-linejoin:miter;stroke-opacity:1" d="M 764.866,135.184 769.864,122.69 z" id="boundary" inkscape:connector-curvature="0" />
	<path style="fill:none;stroke:red;stroke-width:1px;stroke-linecap:butt;stroke-linejoin:miter;stroke-opacity:1" d="M 769.864,122.69 779.859,112.695 z" id="boundary" inkscape:connector-curvature="0" />
	<path style="fill:none;stroke:red;stroke-width:1px;stroke-linecap:butt;stroke-linejoin:miter;stroke-opacity:1" d="M 779.859,112.695 789.854,103.95 z" id="boundary" inkscape:connector-curvature="0" />
	<path style="fill:none;stroke:red;stroke-width:1px;stroke-linecap:butt;stroke-linejoin:miter;stroke-opacity:1" d="M 789.854,103.95 801.098,97.7028 z" id="boundary" inkscape:connector-curvature="0" />
	<path style="fill:none;stroke:red;stroke-width:1px;stroke-linecap:butt;stroke-linejoin:miter;stroke-opacity:1" d="M 801.098,97.7028 811.093,87.7078 z" id="boundary" inkscape:connector-curvature="0" />
	<path style="fill:none;stroke:red;stroke-width:1px;stroke-linecap:butt;stroke-linejoin:miter;stroke-opacity:1" d="M 811.093,87.7078 821.088,78.9622 z" id="boundary" inkscape:connector-curvature="0" />
	<path style="fill:none;stroke:red;stroke-width:1px;stroke-linecap:butt;stroke-linejoin:miter;stroke-opacity:1" d="M 821.088,78.9622 833.582,78.9622 z" id="boundary" inkscape:connector-curvature="0" />
	<path style="fill:none;stroke:red;stroke-width:1px;stroke-linecap:butt;stroke-linejoin:miter;stroke-opacity:1" d="M 833.582,78.9622 842.327,68.9673 z" id="boundary" inkscape:connector-curvature="0" />
	<path style="fill:none;stroke:red;stroke-width:1px;stroke-linecap:butt;stroke-linejoin:miter;stroke-opacity:1" d="M 842.327,68.9673 854.821,62.7204 z" id="boundary" inkscape:connector-curvature="0" />
	<path style="fill:none;stroke:red;stroke-width:1px;stroke-linecap:butt;stroke-linejoin:miter;stroke-opacity:1" d="M 854.821,62.7204 867.315,60.2217 z" id="boundary" inkscape:connector-curvature="0" />
	<path style="fill:none;stroke:red;stroke-width:1px;stroke-linecap:butt;stroke-linejoin:miter;stroke-opacity:1" d="M 867.315,60.2217 878.559,53.9748 z" id="boundary" inkscape:connector-curvature="0" />
	<path style="fill:none;stroke:red;stroke-width:1px;stroke-linecap:butt;stroke-linejoin:miter;stroke-opacity:1" d="M 878.559,53.9748 889.804,47.728 z" id="boundary" inkscape:connector-curvature="0" />
	<path style="fill:none;stroke:red;stroke-width:1px;stroke-linecap:butt;stroke-linejoin:miter;stroke-opacity:1" d="M 889.804,47.728 901.048,41.4811 z" id="boundary" inkscape:connector-curvature="0" />
	<path style="fill:none;stroke:red;stroke-width:1px;stroke-linecap:butt;stroke-linejoin:miter;stroke-opacity:1" d="M 901.048,41.4811 913.542,35.2343 z" id="boundary" inkscape:connector-curvature="0" />
	<path style="fill:none;stroke:red;stroke-width:1px;stroke-linecap:butt;stroke-linejoin:miter;stroke-opacity:1" d="M 913.542,35.2343 926.035,35.2343 z" id="boundary" inkscape:connector-curvature="0" />
	<path style="fill:none;stroke:red;stroke-width:1px;stroke-linecap:butt;stroke-linejoin:miter;stroke-opacity:1" d="M 926.035,35.2343 938.529,35.2343 z" id="boundary" inkscape:connector-curvature="0" />
	<path style="fill:none;stroke:red;stroke-width:1px;stroke-linecap:butt;stroke-linejoin:miter;stroke-opacity:1" d="M 938.529,35.2343 948.524,25.2393 z" id="boundary" inkscape:connector-curvature="0" />
	<path style="fill:none;stroke:red;stroke-width:1px;stroke-linecap:butt;stroke-linejoin:miter;stroke-opacity:1" d="M 948.524,25.2393 961.018,18.9924 z" id="boundary" inkscape:connector-curvature="0" />
	<path style="fill:none;stroke:red;stroke-width:1px;stroke-linecap:butt;stroke-linejoin:miter;stroke-opacity:1" d="M 961.018,18.9924 971.013,10.2469 z" id="boundary" inkscape:connector-curvature="0" />
	<path style="fill:none;stroke:red;stroke-width:1px;stroke-linecap:butt;stroke-linejoin:miter;stroke-opacity:1" d="M 971.013,10.2469 982.257,4 z" id="boundary" inkscape:connector-curvature="0" />
	<path style="fill:none;stroke:red;stroke-width:1px;stroke-linecap:butt;stroke-linejoin:miter;stroke-opacity:1" d="M 982.257,4 994.751,4 z" id="boundary" inkscape:connector-curvature="0" />
	<path style="fill:none;stroke:red;stroke-width:1px;stroke-linecap:butt;stroke-linejoin:miter;stroke-opacity:1" d="M 748.625,711.144 754.872,688.655 z" id="boundary" inkscape:connector-curvature="0" />
	<path style="fill:none;stroke:red;stroke-width:1px;stroke-linecap:butt;stroke-linejoin:miter;stroke-opacity:1" d="M 754.872,688.655 754.872,676.161 z" id="boundary" inkscape:connector-curvature="0" />
	<path style="fill:none;stroke:red;stroke-width:1px;stroke-linecap:butt;stroke-linejoin:miter;stroke-opacity:1" d="M 754.872,676.161 754.872,663.668 z" id="boundary" inkscape:connector-curvature="0" />
	<path style="fill:none;stroke:red;stroke-width:1px;stroke-linecap:butt;stroke-linejoin:miter;stroke-opacity:1" d="M 754.872,663.668 754.872,651.174 z" id="boundary" inkscape:connector-curvature="0" />
	<path style="fill:none;stroke:red;stroke-width:1px;stroke-linecap:butt;stroke-linejoin:miter;stroke-opacity:1" d="M 754.872,651.174 754.872,638.68 z" id="boundary" inkscape:connector-curvature="0" />
	<path style="fill:none;stroke:red;stroke-width:1px;stroke-linecap:butt;stroke-linejoin:miter;stroke-opacity:1" d="M 754.872,638.68 754.872,626.186 z" id="boundary" inkscape:connector-curvature="0" />
	<path style="fill:none;stroke:red;stroke-width:1px;stroke-linecap:butt;stroke-linejoin:miter;stroke-opacity:1" d="M 754.872,626.186 754.872,613.693 z" id="boundary" inkscape:connector-curvature="0" />
	<path style="fill:none;stroke:red;stroke-width:1px;stroke-linecap:butt;stroke-linejoin:miter;stroke-opacity:1" d="M 754.872,613.693 748.625,602.448 z" id="boundary" inkscape:connector-curvature="0" />
	<path style="fill:none;stroke:red;stroke-width:1px;stroke-linecap:butt;stroke-linejoin:miter;stroke-opacity:1" d="M 748.625,602.448 742.378,591.204 z" id="boundary" inkscape:connector-curvature="0" />
	<path style="fill:none;stroke:red;stroke-width:1px;stroke-linecap:butt;stroke-linejoin:miter;stroke-opacity:1" d="M 742.378,591.204 736.131,579.96 z" id="boundary" inkscape:connector-curvature="0" />
	<path style="fill:none;stroke:red;stroke-width:1px;stroke-linecap:butt;stroke-linejoin:miter;stroke-opacity:1" d="M 736.131,579.96 736.131,567.466 z" id="boundary" inkscape:connector-curvature="0" />
	<path style="fill:none;stroke:red;stroke-width:1px;stroke-linecap:butt;stroke-linejoin:miter;stroke-opacity:1" d="M 736.131,567.466 736.131,554.972 z" id="boundary" inkscape:connector-curvature="0" />
	<path style="fill:none;stroke:red;stroke-width:1px;stroke-linecap:butt;stroke-linejoin:miter;stroke-opacity:1" d="M 736.131,554.972 736.131,542.479 z" id="boundary" inkscape:connector-curvature="0" />
	<path style="fill:none;stroke:red;stroke-width:1px;stroke-linecap:butt;stroke-linejoin:miter;stroke-opacity:1" d="M 736.131,542.479 742.378,523.738 z" id="boundary" inkscape:connector-curvature="0" />
	<path style="fill:none;stroke:red;stroke-width:1px;stroke-linecap:butt;stroke-linejoin:miter;stroke-opacity:1" d="M 742.378,523.738 748.625,504.997 z" id="boundary" inkscape:connector-curvature="0" />
	<path style="fill:none;stroke:red;stroke-width:1px;stroke-linecap:butt;stroke-linejoin:miter;stroke-opacity:1" d="M 748.625,504.997 748.625,492.504 z" id="boundary" inkscape:connector-curvature="0" />
	<path style="fill:none;stroke:red;stroke-width:1px;stroke-linecap:butt;stroke-linejoin:miter;stroke-opacity:1" d="M 748.625,492.504 748.625,480.01 z" id="boundary" inkscape:connector-curvature="0" />
	<path style="fill:none;stroke:red;stroke-width:1px;stroke-linecap:butt;stroke-linejoin:miter;stroke-opacity:1" d="M 748.625,480.01 758.62,471.264 z" id="boundary" inkscape:connector-curvature="0" />
	<path style="fill:none;stroke:red;stroke-width:1px;stroke-linecap:butt;stroke-linejoin:miter;stroke-opacity:1" d="M 758.62,471.264 761.118,453.773 z" id="boundary" inkscape:connector-curvature="0" />
	<path style="fill:none;stroke:red;stroke-width:1px;stroke-linecap:butt;stroke-linejoin:miter;stroke-opacity:1" d="M 761.118,453.773 761.118,441.28 z" id="boundary" inkscape:connector-curvature="0" />
	<path style="fill:none;stroke:red;stroke-width:1px;stroke-linecap:butt;stroke-linejoin:miter;stroke-opacity:1" d="M 761.118,441.28 761.118,428.786 z" id="boundary" inkscape:connector-curvature="0" />
	<path style="fill:none;stroke:red;stroke-width:1px;stroke-linecap:butt;stroke-linejoin:miter;stroke-opacity:1" d="M 761.118,428.786 761.118,416.292 z" id="boundary" inkscape:connector-curvature="0" />
	<path style="fill:none;stroke:red;stroke-width:1px;stroke-linecap:butt;stroke-linejoin:miter;stroke-opacity:1" d="M 761.118,416.292 761.118,403.798 z" id="boundary" inkscape:connector-curvature="0" />
	<path style="fill:none;stroke:red;stroke-width:1px;stroke-linecap:butt;stroke-linejoin:miter;stroke-opacity:1" d="M 761.118,403.798 761.118,391.305 z" id="boundary" inkscape:connector-curvature="0" />
	<path style="fill:none;stroke:red;stroke-width:1px;stroke-linecap:butt;stroke-linejoin:miter;stroke-opacity:1" d="M 761.118,391.305 761.118,378.811 z" id="boundary" inkscape:connector-curvature="0" />
	<path style="fill:none;stroke:red;stroke-width:1px;stroke-linecap:butt;stroke-linejoin:miter;stroke-opacity:1" d="M 761.118,378.811 761.118,366.317 z" id="boundary" inkscape:connector-curvature="0" />
	<path style="fill:none;stroke:red;stroke-width:1px;stroke-linecap:butt;stroke-linejoin:miter;stroke-opacity:1" d="M 761.118,366.317 757.37,353.824 z" id="boundary" inkscape:connector-curvature="0" />
	<path style="fill:none;stroke:red;stroke-width:1px;stroke-linecap:butt;stroke-linejoin:miter;stroke-opacity:1" d="M 757.37,353.824 751.123,342.579 z" id="boundary" inkscape:connector-curvature="0" />
	<path style="fill:none;stroke:red;stroke-width:1px;stroke-linecap:butt;stroke-linejoin:miter;stroke-opacity:1" d="M 751.123,342.579 748.625,330.086 z" id="boundary" inkscape:connector-curvature="0" />
	<path style="fill:none;stroke:red;stroke-width:1px;stroke-linecap:butt;stroke-linejoin:miter;stroke-opacity:1" d="M 748.625,330.086 748.625,317.592 z" id="boundary" inkscape:connector-curvature="0" />
	<path style="fill:none;stroke:red;stroke-width:1px;stroke-linecap:butt;stroke-linejoin:miter;stroke-opacity:1" d="M 748.625,317.592 748.625,305.098 z" id="boundary" inkscape:connector-curvature="0" />
	<path style="fill:none;stroke:red;stroke-width:1px;stroke-linecap:butt;stroke-linejoin:miter;stroke-opacity:1" d="M 748.625,305.098 761.118,292.605 z" id="boundary" inkscape:connector-curvature="0" />
	<path style="fill:none;stroke:red;stroke-width:1px;stroke-linecap:butt;stroke-linejoin:miter;stroke-opacity:1" d="M 761.118,292.605 761.118,280.111 z" id="boundary" inkscape:connector-curvature="0" />
	<path style="fill:none;stroke:red;stroke-width:1px;stroke-linecap:butt;stroke-linejoin:miter;stroke-opacity:1" d="M 761.118,280.111 761.118,267.617 z" id="boundary" inkscape:connector-curvature="0" />
	<path style="fill:none;stroke:red;stroke-width:1px;stroke-linecap:butt;stroke-linejoin:miter;stroke-opacity:1" d="M 761.118,267.617 767.365,255.123 z" id="boundary" inkscape:connector-curvature="0" />
	<path style="fill:none;stroke:red;stroke-width:1px;stroke-linecap:butt;stroke-linejoin:miter;stroke-opacity:1" d="M 767.365,255.123 773.612,242.63 z" id="boundary" inkscape:connector-curvature="0" />
	<path style="fill:none;stroke:red;stroke-width:1px;stroke-linecap:butt;stroke-linejoin:miter;stroke-opacity:1" d="M 773.612,242.63 773.612,230.136 z" id="boundary" inkscape:connector-curvature="0" />
	<path style="fill:none;stroke:red;stroke-width:1px;stroke-linecap:butt;stroke-linejoin:miter;stroke-opacity:1" d="M 773.612,230.136 773.612,217.642 z" id="boundary" inkscape:connector-curvature="0" />
	<path style="fill:none;stroke:red;stroke-width:1px;stroke-linecap:butt;stroke-linejoin:miter;stroke-opacity:1" d="M 773.612,217.642 783.607,208.897 z" id="boundary" inkscape:connector-curvature="0" />
	<path style="fill:none;stroke:red;stroke-width:1px;stroke-linecap:butt;stroke-linejoin:miter;stroke-opacity:1" d="M 783.607,208.897 792.353,192.655 z" id="boundary" inkscape:connector-curvature="0" />
	<path style="fill:none;stroke:red;stroke-width:1px;stroke-linecap:butt;stroke-linejoin:miter;stroke-opacity:1" d="M 792.353,192.655 798.599,180.161 z" id="boundary" inkscape:connector-curvature="0" />
	<path style="fill:none;stroke:red;stroke-width:1px;stroke-linecap:butt;stroke-linejoin:miter;stroke-opacity:1" d="M 798.599,180.161 811.093,167.668 z" id="boundary" inkscape:connector-curvature="0" />
	<path style="fill:none;stroke:red;stroke-width:1px;stroke-linecap:butt;stroke-linejoin:miter;stroke-opacity:1" d="M 811.093,167.668 823.587,155.174 z" id="boundary" inkscape:connector-curvature="0" />
	<path style="fill:none;stroke:red;stroke-width:1px;stroke-linecap:butt;stroke-linejoin:miter;stroke-opacity:1" d="M 823.587,155.174 836.081,142.68 z" id="boundary" inkscape:connector-curvature="0" />
	<path style="fill:none;stroke:red;stroke-width:1px;stroke-linecap:butt;stroke-linejoin:miter;stroke-opacity:1" d="M 836.081,142.68 848.574,130.186 z" id="boundary" inkscape:connector-curvature="0" />
	<path style="fill:none;stroke:red;stroke-width:1px;stroke-linecap:butt;stroke-linejoin:miter;stroke-opacity:1" d="M 848.574,130.186 861.068,117.693 z" id="boundary" inkscape:connector-curvature="0" />
	<path style="fill:none;stroke:red;stroke-width:1px;stroke-linecap:butt;stroke-linejoin:miter;stroke-opacity:1" d="M 861.068,117.693 873.562,111.446 z" id="boundary" inkscape:connector-curvature="0" />
	<path style="fill:none;stroke:red;stroke-width:1px;stroke-linecap:butt;stroke-linejoin:miter;stroke-opacity:1" d="M 873.562,111.446 886.055,111.446 z" id="boundary" inkscape:connector-curvature="0" />
	<path style="fill:none;stroke:red;stroke-width:1px;stroke-linecap:butt;stroke-linejoin:miter;stroke-opacity:1" d="M 886.055,111.446 896.05,102.7 z" id="boundary" inkscape:connector-curvature="0" />
	<path style="fill:none;stroke:red;stroke-width:1px;stroke-linecap:butt;stroke-linejoin:miter;stroke-opacity:1" d="M 896.05,102.7 904.796,92.7053 z" id="boundary" inkscape:connector-curvature="0" />
	<path style="fill:none;stroke:red;stroke-width:1px;stroke-linecap:butt;stroke-linejoin:miter;stroke-opacity:1" d="M 904.796,92.7053 917.29,86.4584 z" id="boundary" inkscape:connector-curvature="0" />
	<path style="fill:none;stroke:red;stroke-width:1px;stroke-linecap:butt;stroke-linejoin:miter;stroke-opacity:1" d="M 917.29,86.4584 929.783,86.4584 z" id="boundary" inkscape:connector-curvature="0" />
	<path style="fill:none;stroke:red;stroke-width:1px;stroke-linecap:butt;stroke-linejoin:miter;stroke-opacity:1" d="M 929.783,86.4584 939.778,77.7128 z" id="boundary" inkscape:connector-curvature="0" />
	<path style="fill:none;stroke:red;stroke-width:1px;stroke-linecap:butt;stroke-linejoin:miter;stroke-opacity:1" d="M 939.778,77.7128 948.524,67.7179 z" id="boundary" inkscape:connector-curvature="0" />
	<path style="fill:none;stroke:red;stroke-width:1px;stroke-linecap:butt;stroke-linejoin:miter;stroke-opacity:1" d="M 948.524,67.7179 961.018,61.471 z" id="boundary" inkscape:connector-curvature="0" />
	<path style="fill:none;stroke:red;stroke-width:1px;stroke-linecap:butt;stroke-linejoin:miter;stroke-opacity:1" d="M 961.018,61.471 973.511,48.9773 z" id="boundary" inkscape:connector-curvature="0" />
	<path style="fill:none;stroke:red;stroke-width:1px;stroke-linecap:butt;stroke-linejoin:miter;stroke-opacity:1" d="M 973.511,48.9773 986.005,36.4836 z" id="boundary" inkscape:connector-curvature="0" />
	<path style="fill:none;stroke:red;stroke-width:1px;stroke-linecap:butt;stroke-linejoin:miter;stroke-opacity:1" d="M 986.005,36.4836 996,27.738 z" id="boundary" inkscape:connector-curvature="0" />
	<path style="fill:none;stroke:red;stroke-width:1px;stroke-linecap:butt;stroke-linejoin:miter;stroke-opacity:1" d="M 994.751,4 996,27.738 z" id="boundary" inkscape:connector-curvature="0" />
	<circle cx="4" cy="682.408" r="4" fill="#0" id="circle0"/>
	<circle cx="4" cy="694.902" r="4" fill="#0" id="circle1"/>
	<circle cx="4" cy="707.395" r="4" fill="#0" id="circle2"/>
	<circle cx="10.2469" cy="718.64" r="4" fill="#0" id="circle3"/>
	<circle cx="13.995" cy="672.413" r="4" fill="#0" id="circle4"/>
	<circle cx="16.4937" cy="729.884" r="4" fill="#0" id="circle5"/>
	<circle cx="22.7406" cy="432.534" r="4" fill="#0" id="circle6"/>
	<circle cx="25.2393" cy="666.166" r="4" fill="#0" id="circle7"/>
	<circle cx="27.738" cy="736.131" r="4" fill="#0" id="circle8"/>
	<circle cx="32.7355" cy="422.539" r="4" fill="#0" id="circle9"/>
	<circle cx="35.2343" cy="436.282" r="4" fill="#0" id="circle10"/>
	<circle cx="35.2343" cy="657.421" r="4" fill="#0" id="circle11"/>
	<circle cx="36.4836" cy="746.126" r="4" fill="#0" id="circle12"/>
	<circle cx="38.9824" cy="410.045" r="4" fill="#0" id="circle13"/>
	<circle cx="46.4786" cy="442.529" r="4" fill="#0" id="circle14"/>
	<circle cx="47.728" cy="653.673" r="4" fill="#0" id="circle15"/>
	<circle cx="48.9773" cy="748.625" r="4" fill="#0" id="circle16"/>
	<circle cx="51.4761" cy="410.045" r="4" fill="#0" id="circle17"/>
	<circle cx="58.9723" cy="442.529" r="4" fill="#0" id="circle18"/>
	<circle cx="60.2217" cy="653.673" r="4" fill="#0" id="circle19"/>
	<circle cx="61.471" cy="400.05" r="4" fill="#0" id="circle20"/>
	<circle cx="61.471" cy="748.625" r="4" fill="#0" id="circle21"/>
	<circle cx="70.2166" cy="448.776" r="4" fill="#0" id="circle22"/>
	<circle cx="72.7154" cy="653.673" r="4" fill="#0" id="circle23"/>
	<circle cx="73.9647" cy="397.552" r="4" fill="#0" id="circle24"/>
	<circle cx="73.9647" cy="748.625" r="4" fill="#0" id="circle25"/>
	<circle cx="82.7103" cy="448.776" r="4" fill="#0" id="circle26"/>
	<circle cx="85.2091" cy="461.27" r="4" fill="#0" id="circle27"/>
	<circle cx="85.2091" cy="473.763" r="4" fill="#0" id="circle28"/>
	<circle cx="85.2091" cy="653.673" r="4" fill="#0" id="circle29"/>
	<circle cx="86.4584" cy="393.804" r="4" fill="#0" id="circle30"/>
	<circle cx="86.4584" cy="748.625" r="4" fill="#0" id="circle31"/>
	<circle cx="88.9572" cy="486.257" r="4" fill="#0" id="circle32"/>
	<circle cx="95.204" cy="497.501" r="4" fill="#0" id="circle33"/>
	<circle cx="97.7028" cy="653.673" r="4" fill="#0" id="circle34"/>
	<circle cx="98.9521" cy="387.557" r="4" fill="#0" id="circle35"/>
	<circle cx="98.9521" cy="748.625" r="4" fill="#0" id="circle36"/>
	<circle cx="100.202" cy="509.995" r="4" fill="#0" id="circle37"/>
	<circle cx="110.196" cy="517.491" r="4" fill="#0" id="circle38"/>
	<circle cx="110.196" cy="653.673" r="4" fill="#0" id="circle39"/>
	<circle cx="111.446" cy="381.31" r="4" fill="#0" id="circle40"/>
	<circle cx="111.446" cy="748.625" r="4" fill="#0" id="circle41"/>
	<circle cx="113.945" cy="529.985" r="4" fill="#0" id="circle42"/>
	<circle cx="122.69" cy="653.673" r="4" fill="#0" id="circle43"/>
	<circle cx="123.94" cy="378.811" r="4" fill="#0" id="circle44"/>
	<circle cx="123.94" cy="748.625" r="4" fill="#0" id="circle45"/>
	<circle cx="125.189" cy="536.232" r="4" fill="#0" id="circle46"/>
	<circle cx="135.184" cy="372.564" r="4" fill="#0" id="circle47"/>
	<circle cx="135.184" cy="543.728" r="4" fill="#0" id="circle48"/>
	<circle cx="135.184" cy="653.673" r="4" fill="#0" id="circle49"/>
	<circle cx="135.184" cy="742.378" r="4" fill="#0" id="circle50"/>
	<circle cx="141.431" cy="554.972" r="4" fill="#0" id="circle51"/>
	<circle cx="146.428" cy="366.317" r="4" fill="#0" id="circle52"/>
	<circle cx="147.678" cy="653.673" r="4" fill="#0" id="circle53"/>
	<circle cx="147.678" cy="738.63" r="4" fill="#0" id="circle54"/>
	<circle cx="148.927" cy="564.967" r="4" fill="#0" id="circle55"/>
	<circle cx="157.673" cy="360.071" r="4" fill="#0" id="circle56"/>
	<circle cx="157.673" cy="729.884" r="4" fill="#0" id="circle57"/>
	<circle cx="158.922" cy="573.713" r="4" fill="#0" id="circle58"/>
	<circle cx="160.171" cy="651.174" r="4" fill="#0" id="circle59"/>
	<circle cx="168.917" cy="353.824" r="4" fill="#0" id="circle60"/>
	<circle cx="170.166" cy="579.96" r="4" fill="#0" id="circle61"/>
	<circle cx="170.166" cy="729.884" r="4" fill="#0" id="circle62"/>
	<circle cx="172.665" cy="644.927" r="4" fill="#0" id="circle63"/>
	<circle cx="180.161" cy="347.577" r="4" fill="#0" id="circle64"/>
	<circle cx="182.66" cy="579.96" r="4" fill="#0" id="circle65"/>
	<circle cx="182.66" cy="728.635" r="4" fill="#0" id="circle66"/>
	<circle cx="185.159" cy="638.68" r="4" fill="#0" id="circle67"/>
	<circle cx="191.406" cy="341.33" r="4" fill="#0" id="circle68"/>
	<circle cx="195.154" cy="578.71" r="4" fill="#0" id="circle69"/>
	<circle cx="195.154" cy="722.388" r="4" fill="#0" id="circle70"/>
	<circle cx="197.652" cy="632.433" r="4" fill="#0" id="circle71"/>
	<circle cx="203.899" cy="341.33" r="4" fill="#0" id="circle72"/>
	<circle cx="207.647" cy="572.463" r="4" fill="#0" id="circle73"/>
	<circle cx="207.647" cy="622.438" r="4" fill="#0" id="circle74"/>
	<circle cx="207.647" cy="716.141" r="4" fill="#0" id="circle75"/>
	<circle cx="213.894" cy="561.219" r="4" fill="#0" id="circle76"/>
	<circle cx="216.393" cy="341.33" r="4" fill="#0" id="circle77"/>
	<circle cx="218.892" cy="616.191" r="4" fill="#0" id="circle78"/>
	<circle cx="220.141" cy="709.894" r="4" fill="#0" id="circle79"/>
	<circle cx="222.64" cy="594.952" r="4" fill="#0" id="circle80"/>
	<circle cx="226.388" cy="561.219" r="4" fill="#0" id="circle81"/>
	<circle cx="228.887" cy="343.829" r="4" fill="#0" id="circle82"/>
	<circle cx="228.887" cy="573.713" r="4" fill="#0" id="circle83"/>
	<circle cx="232.635" cy="704.897" r="4" fill="#0" id="circle84"/>
	<circle cx="241.38" cy="347.577" r="4" fill="#0" id="circle85"/>
	<circle cx="243.879" cy="698.65" r="4" fill="#0" id="circle86"/>
	<circle cx="253.874" cy="347.577" r="4" fill="#0" id="circle87"/>
	<circle cx="256.373" cy="698.65" r="4" fill="#0" id="circle88"/>
	<circle cx="263.869" cy="355.073" r="4" fill="#0" id="circle89"/>
	<circle cx="267.617" cy="692.403" r="4" fill="#0" id="circle90"/>
	<circle cx="276.363" cy="360.071" r="4" fill="#0" id="circle91"/>
	<circle cx="280.111" cy="686.156" r="4" fill="#0" id="circle92"/>
	<circle cx="288.856" cy="360.071" r="4" fill="#0" id="circle93"/>
	<circle cx="291.355" cy="679.909" r="4" fill="#0" id="circle94"/>
	<circle cx="301.35" cy="360.071" r="4" fill="#0" id="circle95"/>
	<circle cx="302.599" cy="673.662" r="4" fill="#0" id="circle96"/>
	<circle cx="311.345" cy="661.169" r="4" fill="#0" id="circle97"/>
	<circle cx="312.594" cy="366.317" r="4" fill="#0" id="circle98"/>
	<circle cx="323.839" cy="648.675" r="4" fill="#0" id="circle99"/>
	<circle cx="325.088" cy="366.317" r="4" fill="#0" id="circle100"/>
	<circle cx="336.332" cy="372.564" r="4" fill="#0" id="circle101"/>
	<circle cx="336.332" cy="642.428" r="4" fill="#0" id="circle102"/>
	<circle cx="348.826" cy="372.564" r="4" fill="#0" id="circle103"/>
	<circle cx="348.826" cy="636.181" r="4" fill="#0" id="circle104"/>
	<circle cx="361.32" cy="372.564" r="4" fill="#0" id="circle105"/>
	<circle cx="361.32" cy="617.441" r="4" fill="#0" id="circle106"/>
	<circle cx="361.32" cy="629.935" r="4" fill="#0" id="circle107"/>
	<circle cx="367.567" cy="604.947" r="4" fill="#0" id="circle108"/>
	<circle cx="372.564" cy="366.317" r="4" fill="#0" id="circle109"/>
	<circle cx="380.06" cy="604.947" r="4" fill="#0" id="circle110"/>
	<circle cx="383.809" cy="360.071" r="4" fill="#0" id="circle111"/>
	<circle cx="392.554" cy="350.076" r="4" fill="#0" id="circle112"/>
	<circle cx="392.554" cy="604.947" r="4" fill="#0" id="circle113"/>
	<circle cx="402.549" cy="341.33" r="4" fill="#0" id="circle114"/>
	<circle cx="405.048" cy="604.947" r="4" fill="#0" id="circle115"/>
	<circle cx="411.295" cy="331.335" r="4" fill="#0" id="circle116"/>
	<circle cx="417.542" cy="604.947" r="4" fill="#0" id="circle117"/>
	<circle cx="421.29" cy="322.589" r="4" fill="#0" id="circle118"/>
	<circle cx="422.539" cy="763.617" r="4" fill="#0" id="circle119"/>
	<circle cx="422.539" cy="776.111" r="4" fill="#0" id="circle120"/>
	<circle cx="426.287" cy="310.096" r="4" fill="#0" id="circle121"/>
	<circle cx="430.035" cy="604.947" r="4" fill="#0" id="circle122"/>
	<circle cx="432.534" cy="753.622" r="4" fill="#0" id="circle123"/>
	<circle cx="432.534" cy="784.856" r="4" fill="#0" id="circle124"/>
	<circle cx="436.282" cy="300.101" r="4" fill="#0" id="circle125"/>
	<circle cx="442.529" cy="598.7" r="4" fill="#0" id="circle126"/>
	<circle cx="442.529" cy="743.627" r="4" fill="#0" id="circle127"/>
	<circle cx="442.529" cy="792.353" r="4" fill="#0" id="circle128"/>
	<circle cx="446.277" cy="291.355" r="4" fill="#0" id="circle129"/>
	<circle cx="455.023" cy="281.36" r="4" fill="#0" id="circle130"/>
	<circle cx="455.023" cy="598.7" r="4" fill="#0" id="circle131"/>
	<circle cx="455.023" cy="741.128" r="4" fill="#0" id="circle132"/>
	<circle cx="455.023" cy="792.353" r="4" fill="#0" id="circle133"/>
	<circle cx="465.018" cy="272.615" r="4" fill="#0" id="circle134"/>
	<circle cx="466.267" cy="592.453" r="4" fill="#0" id="circle135"/>
	<circle cx="466.267" cy="732.383" r="4" fill="#0" id="circle136"/>
	<circle cx="467.516" cy="792.353" r="4" fill="#0" id="circle137"/>
	<circle cx="473.763" cy="262.62" r="4" fill="#0" id="circle138"/>
	<circle cx="476.262" cy="722.388" r="4" fill="#0" id="circle139"/>
	<circle cx="478.761" cy="588.705" r="4" fill="#0" id="circle140"/>
	<circle cx="480.01" cy="792.353" r="4" fill="#0" id="circle141"/>
	<circle cx="483.758" cy="253.874" r="4" fill="#0" id="circle142"/>
	<circle cx="486.257" cy="712.393" r="4" fill="#0" id="circle143"/>
	<circle cx="491.254" cy="586.207" r="4" fill="#0" id="circle144"/>
	<circle cx="491.254" cy="786.106" r="4" fill="#0" id="circle145"/>
	<circle cx="495.003" cy="247.627" r="4" fill="#0" id="circle146"/>
	<circle cx="495.003" cy="598.7" r="4" fill="#0" id="circle147"/>
	<circle cx="496.252" cy="703.647" r="4" fill="#0" id="circle148"/>
	<circle cx="501.249" cy="609.945" r="4" fill="#0" id="circle149"/>
	<circle cx="503.748" cy="782.358" r="4" fill="#0" id="circle150"/>
	<circle cx="504.997" cy="693.652" r="4" fill="#0" id="circle151"/>
	<circle cx="507.496" cy="241.38" r="4" fill="#0" id="circle152"/>
	<circle cx="509.995" cy="619.94" r="4" fill="#0" id="circle153"/>
	<circle cx="514.992" cy="684.907" r="4" fill="#0" id="circle154"/>
	<circle cx="516.242" cy="631.184" r="4" fill="#0" id="circle155"/>
	<circle cx="516.242" cy="776.111" r="4" fill="#0" id="circle156"/>
	<circle cx="519.99" cy="241.38" r="4" fill="#0" id="circle157"/>
	<circle cx="519.99" cy="672.413" r="4" fill="#0" id="circle158"/>
	<circle cx="522.489" cy="642.428" r="4" fill="#0" id="circle159"/>
	<circle cx="522.489" cy="654.922" r="4" fill="#0" id="circle160"/>
	<circle cx="526.237" cy="766.116" r="4" fill="#0" id="circle161"/>
	<circle cx="532.484" cy="235.134" r="4" fill="#0" id="circle162"/>
	<circle cx="536.232" cy="754.872" r="4" fill="#0" id="circle163"/>
	<circle cx="544.977" cy="228.887" r="4" fill="#0" id="circle164"/>
	<circle cx="546.227" cy="746.126" r="4" fill="#0" id="circle165"/>
	<circle cx="554.972" cy="736.131" r="4" fill="#0" id="circle166"/>
	<circle cx="557.471" cy="228.887" r="4" fill="#0" id="circle167"/>
	<circle cx="564.967" cy="727.385" r="4" fill="#0" id="circle168"/>
	<circle cx="569.965" cy="228.887" r="4" fill="#0" id="circle169"/>
	<circle cx="573.713" cy="717.39" r="4" fill="#0" id="circle170"/>
	<circle cx="582.458" cy="228.887" r="4" fill="#0" id="circle171"/>
	<circle cx="583.708" cy="708.645" r="4" fill="#0" id="circle172"/>
	<circle cx="592.453" cy="692.403" r="4" fill="#0" id="circle173"/>
	<circle cx="594.952" cy="228.887" r="4" fill="#0" id="circle174"/>
	<circle cx="598.7" cy="667.416" r="4" fill="#0" id="circle175"/>
	<circle cx="598.7" cy="679.909" r="4" fill="#0" id="circle176"/>
	<circle cx="604.947" cy="586.207" r="4" fill="#0" id="circle177"/>
	<circle cx="604.947" cy="598.7" r="4" fill="#0" id="circle178"/>
	<circle cx="604.947" cy="611.194" r="4" fill="#0" id="circle179"/>
	<circle cx="604.947" cy="623.688" r="4" fill="#0" id="circle180"/>
	<circle cx="604.947" cy="636.181" r="4" fill="#0" id="circle181"/>
	<circle cx="604.947" cy="648.675" r="4" fill="#0" id="circle182"/>
	<circle cx="607.446" cy="228.887" r="4" fill="#0" id="circle183"/>
	<circle cx="611.194" cy="567.466" r="4" fill="#0" id="circle184"/>
	<circle cx="617.441" cy="554.972" r="4" fill="#0" id="circle185"/>
	<circle cx="619.94" cy="228.887" r="4" fill="#0" id="circle186"/>
	<circle cx="629.935" cy="554.972" r="4" fill="#0" id="circle187"/>
	<circle cx="631.184" cy="235.134" r="4" fill="#0" id="circle188"/>
	<circle cx="637.431" cy="564.967" r="4" fill="#0" id="circle189"/>
	<circle cx="641.179" cy="243.879" r="4" fill="#0" id="circle190"/>
	<circle cx="641.179" cy="738.63" r="4" fill="#0" id="circle191"/>
	<circle cx="641.179" cy="751.123" r="4" fill="#0" id="circle192"/>
	<circle cx="642.428" cy="577.461" r="4" fill="#0" id="circle193"/>
	<circle cx="647.426" cy="762.368" r="4" fill="#0" id="circle194"/>
	<circle cx="648.675" cy="588.705" r="4" fill="#0" id="circle195"/>
	<circle cx="653.673" cy="247.627" r="4" fill="#0" id="circle196"/>
	<circle cx="653.673" cy="601.199" r="4" fill="#0" id="circle197"/>
	<circle cx="653.673" cy="613.693" r="4" fill="#0" id="circle198"/>
	<circle cx="653.673" cy="732.383" r="4" fill="#0" id="circle199"/>
	<circle cx="659.919" cy="624.937" r="4" fill="#0" id="circle200"/>
	<circle cx="659.919" cy="767.365" r="4" fill="#0" id="circle201"/>
	<circle cx="666.166" cy="247.627" r="4" fill="#0" id="circle202"/>
	<circle cx="666.166" cy="636.181" r="4" fill="#0" id="circle203"/>
	<circle cx="666.166" cy="726.136" r="4" fill="#0" id="circle204"/>
	<circle cx="671.164" cy="773.612" r="4" fill="#0" id="circle205"/>
	<circle cx="672.413" cy="647.426" r="4" fill="#0" id="circle206"/>
	<circle cx="672.413" cy="659.919" r="4" fill="#0" id="circle207"/>
	<circle cx="672.413" cy="672.413" r="4" fill="#0" id="circle208"/>
	<circle cx="672.413" cy="684.907" r="4" fill="#0" id="circle209"/>
	<circle cx="672.413" cy="697.401" r="4" fill="#0" id="circle210"/>
	<circle cx="672.413" cy="709.894" r="4" fill="#0" id="circle211"/>
	<circle cx="678.66" cy="245.128" r="4" fill="#0" id="circle212"/>
	<circle cx="683.657" cy="773.612" r="4" fill="#0" id="circle213"/>
	<circle cx="688.655" cy="235.134" r="4" fill="#0" id="circle214"/>
	<circle cx="696.151" cy="771.113" r="4" fill="#0" id="circle215"/>
	<circle cx="698.65" cy="225.139" r="4" fill="#0" id="circle216"/>
	<circle cx="708.645" cy="216.393" r="4" fill="#0" id="circle217"/>
	<circle cx="708.645" cy="767.365" r="4" fill="#0" id="circle218"/>
	<circle cx="713.642" cy="203.899" r="4" fill="#0" id="circle219"/>
	<circle cx="719.889" cy="191.406" r="4" fill="#0" id="circle220"/>
	<circle cx="719.889" cy="761.118" r="4" fill="#0" id="circle221"/>
	<circle cx="726.136" cy="178.912" r="4" fill="#0" id="circle222"/>
	<circle cx="732.383" cy="759.869" r="4" fill="#0" id="circle223"/>
	<circle cx="734.882" cy="163.919" r="4" fill="#0" id="circle224"/>
	<circle cx="736.131" cy="542.479" r="4" fill="#0" id="circle225"/>
	<circle cx="736.131" cy="554.972" r="4" fill="#0" id="circle226"/>
	<circle cx="736.131" cy="567.466" r="4" fill="#0" id="circle227"/>
	<circle cx="736.131" cy="579.96" r="4" fill="#0" id="circle228"/>
	<circle cx="738.63" cy="747.375" r="4" fill="#0" id="circle229"/>
	<circle cx="742.378" cy="523.738" r="4" fill="#0" id="circle230"/>
	<circle cx="742.378" cy="591.204" r="4" fill="#0" id="circle231"/>
	<circle cx="744.877" cy="153.924" r="4" fill="#0" id="circle232"/>
	<circle cx="748.625" cy="305.098" r="4" fill="#0" id="circle233"/>
	<circle cx="748.625" cy="317.592" r="4" fill="#0" id="circle234"/>
	<circle cx="748.625" cy="330.086" r="4" fill="#0" id="circle235"/>
	<circle cx="748.625" cy="480.01" r="4" fill="#0" id="circle236"/>
	<circle cx="748.625" cy="492.504" r="4" fill="#0" id="circle237"/>
	<circle cx="748.625" cy="504.997" r="4" fill="#0" id="circle238"/>
	<circle cx="748.625" cy="602.448" r="4" fill="#0" id="circle239"/>
	<circle cx="748.625" cy="711.144" r="4" fill="#0" id="circle240"/>
	<circle cx="748.625" cy="723.637" r="4" fill="#0" id="circle241"/>
	<circle cx="748.625" cy="736.131" r="4" fill="#0" id="circle242"/>
	<circle cx="751.123" cy="342.579" r="4" fill="#0" id="circle243"/>
	<circle cx="754.872" cy="143.929" r="4" fill="#0" id="circle244"/>
	<circle cx="754.872" cy="613.693" r="4" fill="#0" id="circle245"/>
	<circle cx="754.872" cy="626.186" r="4" fill="#0" id="circle246"/>
	<circle cx="754.872" cy="638.68" r="4" fill="#0" id="circle247"/>
	<circle cx="754.872" cy="651.174" r="4" fill="#0" id="circle248"/>
	<circle cx="754.872" cy="663.668" r="4" fill="#0" id="circle249"/>
	<circle cx="754.872" cy="676.161" r="4" fill="#0" id="circle250"/>
	<circle cx="754.872" cy="688.655" r="4" fill="#0" id="circle251"/>
	<circle cx="757.37" cy="353.824" r="4" fill="#0" id="circle252"/>
	<circle cx="758.62" cy="471.264" r="4" fill="#0" id="circle253"/>
	<circle cx="761.118" cy="267.617" r="4" fill="#0" id="circle254"/>
	<circle cx="761.118" cy="280.111" r="4" fill="#0" id="circle255"/>
	<circle cx="761.118" cy="292.605" r="4" fill="#0" id="circle256"/>
	<circle cx="761.118" cy="366.317" r="4" fill="#0" id="circle257"/>
	<circle cx="761.118" cy="378.811" r="4" fill="#0" id="circle258"/>
	<circle cx="761.118" cy="391.305" r="4" fill="#0" id="circle259"/>
	<circle cx="761.118" cy="403.798" r="4" fill="#0" id="circle260"/>
	<circle cx="761.118" cy="416.292" r="4" fill="#0" id="circle261"/>
	<circle cx="761.118" cy="428.786" r="4" fill="#0" id="circle262"/>
	<circle cx="761.118" cy="441.28" r="4" fill="#0" id="circle263"/>
	<circle cx="761.118" cy="453.773" r="4" fill="#0" id="circle264"/>
	<circle cx="764.866" cy="135.184" r="4" fill="#0" id="circle265"/>
	<circle cx="767.365" cy="255.123" r="4" fill="#0" id="circle266"/>
	<circle cx="769.864" cy="122.69" r="4" fill="#0" id="circle267"/>
	<circle cx="773.612" cy="217.642" r="4" fill="#0" id="circle268"/>
	<circle cx="773.612" cy="230.136" r="4" fill="#0" id="circle269"/>
	<circle cx="773.612" cy="242.63" r="4" fill="#0" id="circle270"/>
	<circle cx="779.859" cy="112.695" r="4" fill="#0" id="circle271"/>
	<circle cx="783.607" cy="208.897" r="4" fill="#0" id="circle272"/>
	<circle cx="789.854" cy="103.95" r="4" fill="#0" id="circle273"/>
	<circle cx="792.353" cy="192.655" r="4" fill="#0" id="circle274"/>
	<circle cx="798.599" cy="180.161" r="4" fill="#0" id="circle275"/>
	<circle cx="801.098" cy="97.7028" r="4" fill="#0" id="circle276"/>
	<circle cx="811.093" cy="87.7078" r="4" fill="#0" id="circle277"/>
	<circle cx="811.093" cy="167.668" r="4" fill="#0" id="circle278"/>
	<circle cx="821.088" cy="78.9622" r="4" fill="#0" id="circle279"/>
	<circle cx="823.587" cy="155.174" r="4" fill="#0" id="circle280"/>
	<circle cx="833.582" cy="78.9622" r="4" fill="#0" id="circle281"/>
	<circle cx="836.081" cy="142.68" r="4" fill="#0" id="circle282"/>
	<circle cx="842.327" cy="68.9673" r="4" fill="#0" id="circle283"/>
	<circle cx="848.574" cy="130.186" r="4" fill="#0" id="circle284"/>
	<circle cx="854.821" cy="62.7204" r="4" fill="#0" id="circle285"/>
	<circle cx="861.068" cy="117.693" r="4" fill="#0" id="circle286"/>
	<circle cx="867.315" cy="60.2217" r="4" fill="#0" id="circle287"/>
	<circle cx="873.562" cy="111.446" r="4" fill="#0" id="circle288"/>
	<circle cx="878.559" cy="53.9748" r="4" fill="#0" id="circle289"/>
	<circle cx="886.055" cy="111.446" r="4" fill="#0" id="circle290"/>
	<circle cx="889.804" cy="47.728" r="4" fill="#0" id="circle291"/>
	<circle cx="896.05" cy="102.7" r="4" fill="#0" id="circle292"/>
	<circle cx="901.048" cy="41.4811" r="4" fill="#0" id="circle293"/>
	<circle cx="904.796" cy="92.7053" r="4" fill="#0" id="circle294"/>
	<circle cx="913.542" cy="35.2343" r="4" fill="#0" id="circle295"/>
	<circle cx="917.29" cy="86.4584" r="4" fill="#0" id="circle296"/>
	<circle cx="926.035" cy="35.2343" r="4" fill="#0" id="circle297"/>
	<circle cx="929.783" cy="86.4584" r="4" fill="#0" id="circle298"/>
	<circle cx="938.529" cy="35.2343" r="4" fill="#0" id="circle299"/>
	<circle cx="939.778" cy="77.7128" r="4" fill="#0" id="circle300"/>
	<circle cx="948.524" cy="25.2393" r="4" fill="#0" id="circle301"/>
	<circle cx="948.524" cy="67.7179" r="4" fill="#0" id="circle302"/>
	<circle cx="961.018" cy="18.9924" r="4" fill="#0" id="circle303"/>
	<circle cx="961.018" cy="61.471" r="4" fill="#0" id="circle304"/>
	<circle cx="971.013" cy="10.2469" r="4" fill="#0" id="circle305"/>
	<circle cx="973.511" cy="48.9773" r="4" fill="#0" id="circle306"/>
	<circle cx="982.257" cy="4" r="4" fill="#0" id="circle307"/>
	<circle cx="986.005" cy="36.4836" r="4" fill="#0" id="circle308"/>
	<circle cx="994.751" cy="4" r="4" fill="#0" id="circle309"/>
	<circle cx="996" cy="27.738" r="4" fill="#0" id="circle310"/>
	</g>
</svg>