<?xml version="1.0" encoding="UTF-8" standalone="no"?>
<!-- Created with CurveBenchmark -->
<svg
	xmlns:dc="http://purl.org/dc/elements/1.1/"
	xmlns:cc="http://creativecommons.org/ns#"
	xmlns:rdf="http://www.w3.org/1999/02/22-rdf-syntax-ns#"
	xmlns:svg="http://www.w3.org/2000/svg"
	xmlns="http://www.w3.org/2000/svg"
	xmlns:sodipodi="http://sodipodi.sourceforge.net/DTD/sodipodi-0.dtd"
	xmlns:inkscape="http://www.inkscape.org/namespaces/inkscape"
	width="1000"
	height="1000"
	id="svg2"
	version="1.1"
	sodipodi:docname="manifold/crawl-rat17.png.txt">
<defs
	id="defs4" />
<metadata
	id="metadata7">
	<rdf:RDF>
		<cc:Work
			rdf:about="">
			<dc:format>image/svg+xml</dc:format>
			<dc:type
				rdf:resource="http://purl.org/dc/dcmitype/StillImage" />
			<dc:title></dc:title>
		</cc:Work>
	</rdf:RDF>
</metadata>
<g
	inkscape:label="Layer 1"
	inkscape:groupmode="layer"
	id="layer1">
	<path style="fill:none;stroke:red;stroke-width:1px;stroke-linecap:butt;stroke-linejoin:miter;stroke-opacity:1" d="M 4,947.778 4,965 z" id="boundary" inkscape:connector-curvature="0" />
	<path style="fill:none;stroke:red;stroke-width:1px;stroke-linecap:butt;stroke-linejoin:miter;stroke-opacity:1" d="M 4,947.778 21.2222,942.611 z" id="boundary" inkscape:connector-curvature="0" />
	<path style="fill:none;stroke:red;stroke-width:1px;stroke-linecap:butt;stroke-linejoin:miter;stroke-opacity:1" d="M 21.2222,942.611 31.5556,928.833 z" id="boundary" inkscape:connector-curvature="0" />
	<path style="fill:none;stroke:red;stroke-width:1px;stroke-linecap:butt;stroke-linejoin:miter;stroke-opacity:1" d="M 31.5556,928.833 48.7778,925.389 z" id="boundary" inkscape:connector-curvature="0" />
	<path style="fill:none;stroke:red;stroke-width:1px;stroke-linecap:butt;stroke-linejoin:miter;stroke-opacity:1" d="M 48.7778,925.389 66,925.389 z" id="boundary" inkscape:connector-curvature="0" />
	<path style="fill:none;stroke:red;stroke-width:1px;stroke-linecap:butt;stroke-linejoin:miter;stroke-opacity:1" d="M 66,925.389 83.2222,925.389 z" id="boundary" inkscape:connector-curvature="0" />
	<path style="fill:none;stroke:red;stroke-width:1px;stroke-linecap:butt;stroke-linejoin:miter;stroke-opacity:1" d="M 83.2222,925.389 100.444,925.389 z" id="boundary" inkscape:connector-curvature="0" />
	<path style="fill:none;stroke:red;stroke-width:1px;stroke-linecap:butt;stroke-linejoin:miter;stroke-opacity:1" d="M 100.444,925.389 117.667,925.389 z" id="boundary" inkscape:connector-curvature="0" />
	<path style="fill:none;stroke:red;stroke-width:1px;stroke-linecap:butt;stroke-linejoin:miter;stroke-opacity:1" d="M 117.667,925.389 133.167,934 z" id="boundary" inkscape:connector-curvature="0" />
	<path style="fill:none;stroke:red;stroke-width:1px;stroke-linecap:butt;stroke-linejoin:miter;stroke-opacity:1" d="M 133.167,934 150.389,937.444 z" id="boundary" inkscape:connector-curvature="0" />
	<path style="fill:none;stroke:red;stroke-width:1px;stroke-linecap:butt;stroke-linejoin:miter;stroke-opacity:1" d="M 150.389,937.444 160.722,951.222 z" id="boundary" inkscape:connector-curvature="0" />
	<path style="fill:none;stroke:red;stroke-width:1px;stroke-linecap:butt;stroke-linejoin:miter;stroke-opacity:1" d="M 160.722,951.222 177.944,951.222 z" id="boundary" inkscape:connector-curvature="0" />
	<path style="fill:none;stroke:red;stroke-width:1px;stroke-linecap:butt;stroke-linejoin:miter;stroke-opacity:1" d="M 177.944,951.222 195.167,956.389 z" id="boundary" inkscape:connector-curvature="0" />
	<path style="fill:none;stroke:red;stroke-width:1px;stroke-linecap:butt;stroke-linejoin:miter;stroke-opacity:1" d="M 4,965 17.7778,977.056 z" id="boundary" inkscape:connector-curvature="0" />
	<path style="fill:none;stroke:red;stroke-width:1px;stroke-linecap:butt;stroke-linejoin:miter;stroke-opacity:1" d="M 17.7778,977.056 35,970.167 z" id="boundary" inkscape:connector-curvature="0" />
	<path style="fill:none;stroke:red;stroke-width:1px;stroke-linecap:butt;stroke-linejoin:miter;stroke-opacity:1" d="M 35,970.167 52.2222,970.167 z" id="boundary" inkscape:connector-curvature="0" />
	<path style="fill:none;stroke:red;stroke-width:1px;stroke-linecap:butt;stroke-linejoin:miter;stroke-opacity:1" d="M 52.2222,970.167 69.4444,970.167 z" id="boundary" inkscape:connector-curvature="0" />
	<path style="fill:none;stroke:red;stroke-width:1px;stroke-linecap:butt;stroke-linejoin:miter;stroke-opacity:1" d="M 69.4444,970.167 86.6667,977.056 z" id="boundary" inkscape:connector-curvature="0" />
	<path style="fill:none;stroke:red;stroke-width:1px;stroke-linecap:butt;stroke-linejoin:miter;stroke-opacity:1" d="M 86.6667,977.056 103.889,977.056 z" id="boundary" inkscape:connector-curvature="0" />
	<path style="fill:none;stroke:red;stroke-width:1px;stroke-linecap:butt;stroke-linejoin:miter;stroke-opacity:1" d="M 103.889,977.056 121.111,977.056 z" id="boundary" inkscape:connector-curvature="0" />
	<path style="fill:none;stroke:red;stroke-width:1px;stroke-linecap:butt;stroke-linejoin:miter;stroke-opacity:1" d="M 121.111,977.056 134.889,987.389 z" id="boundary" inkscape:connector-curvature="0" />
	<path style="fill:none;stroke:red;stroke-width:1px;stroke-linecap:butt;stroke-linejoin:miter;stroke-opacity:1" d="M 134.889,987.389 152.111,987.389 z" id="boundary" inkscape:connector-curvature="0" />
	<path style="fill:none;stroke:red;stroke-width:1px;stroke-linecap:butt;stroke-linejoin:miter;stroke-opacity:1" d="M 152.111,987.389 169.333,987.389 z" id="boundary" inkscape:connector-curvature="0" />
	<path style="fill:none;stroke:red;stroke-width:1px;stroke-linecap:butt;stroke-linejoin:miter;stroke-opacity:1" d="M 169.333,987.389 186.556,987.389 z" id="boundary" inkscape:connector-curvature="0" />
	<path style="fill:none;stroke:red;stroke-width:1px;stroke-linecap:butt;stroke-linejoin:miter;stroke-opacity:1" d="M 186.556,987.389 203.778,987.389 z" id="boundary" inkscape:connector-curvature="0" />
	<path style="fill:none;stroke:red;stroke-width:1px;stroke-linecap:butt;stroke-linejoin:miter;stroke-opacity:1" d="M 203.778,987.389 221,987.389 z" id="boundary" inkscape:connector-curvature="0" />
	<path style="fill:none;stroke:red;stroke-width:1px;stroke-linecap:butt;stroke-linejoin:miter;stroke-opacity:1" d="M 221,987.389 238.222,987.389 z" id="boundary" inkscape:connector-curvature="0" />
	<path style="fill:none;stroke:red;stroke-width:1px;stroke-linecap:butt;stroke-linejoin:miter;stroke-opacity:1" d="M 238.222,987.389 255.444,978.778 z" id="boundary" inkscape:connector-curvature="0" />
	<path style="fill:none;stroke:red;stroke-width:1px;stroke-linecap:butt;stroke-linejoin:miter;stroke-opacity:1" d="M 195.167,956.389 210.667,939.167 z" id="boundary" inkscape:connector-curvature="0" />
	<path style="fill:none;stroke:red;stroke-width:1px;stroke-linecap:butt;stroke-linejoin:miter;stroke-opacity:1" d="M 210.667,939.167 210.667,921.944 z" id="boundary" inkscape:connector-curvature="0" />
	<path style="fill:none;stroke:red;stroke-width:1px;stroke-linecap:butt;stroke-linejoin:miter;stroke-opacity:1" d="M 210.667,921.944 198.611,908.167 z" id="boundary" inkscape:connector-curvature="0" />
	<path style="fill:none;stroke:red;stroke-width:1px;stroke-linecap:butt;stroke-linejoin:miter;stroke-opacity:1" d="M 198.611,908.167 184.833,896.111 z" id="boundary" inkscape:connector-curvature="0" />
	<path style="fill:none;stroke:red;stroke-width:1px;stroke-linecap:butt;stroke-linejoin:miter;stroke-opacity:1" d="M 184.833,896.111 184.833,878.889 z" id="boundary" inkscape:connector-curvature="0" />
	<path style="fill:none;stroke:red;stroke-width:1px;stroke-linecap:butt;stroke-linejoin:miter;stroke-opacity:1" d="M 184.833,878.889 193.444,861.667 z" id="boundary" inkscape:connector-curvature="0" />
	<path style="fill:none;stroke:red;stroke-width:1px;stroke-linecap:butt;stroke-linejoin:miter;stroke-opacity:1" d="M 255.444,978.778 264.056,952.944 z" id="boundary" inkscape:connector-curvature="0" />
	<path style="fill:none;stroke:red;stroke-width:1px;stroke-linecap:butt;stroke-linejoin:miter;stroke-opacity:1" d="M 264.056,952.944 264.056,935.722 z" id="boundary" inkscape:connector-curvature="0" />
	<path style="fill:none;stroke:red;stroke-width:1px;stroke-linecap:butt;stroke-linejoin:miter;stroke-opacity:1" d="M 264.056,935.722 264.056,918.5 z" id="boundary" inkscape:connector-curvature="0" />
	<path style="fill:none;stroke:red;stroke-width:1px;stroke-linecap:butt;stroke-linejoin:miter;stroke-opacity:1" d="M 264.056,918.5 264.056,901.278 z" id="boundary" inkscape:connector-curvature="0" />
	<path style="fill:none;stroke:red;stroke-width:1px;stroke-linecap:butt;stroke-linejoin:miter;stroke-opacity:1" d="M 264.056,901.278 264.056,884.056 z" id="boundary" inkscape:connector-curvature="0" />
	<path style="fill:none;stroke:red;stroke-width:1px;stroke-linecap:butt;stroke-linejoin:miter;stroke-opacity:1" d="M 264.056,884.056 264.056,866.833 z" id="boundary" inkscape:connector-curvature="0" />
	<path style="fill:none;stroke:red;stroke-width:1px;stroke-linecap:butt;stroke-linejoin:miter;stroke-opacity:1" d="M 264.056,866.833 281.278,866.833 z" id="boundary" inkscape:connector-curvature="0" />
	<path style="fill:none;stroke:red;stroke-width:1px;stroke-linecap:butt;stroke-linejoin:miter;stroke-opacity:1" d="M 281.278,866.833 298.5,866.833 z" id="boundary" inkscape:connector-curvature="0" />
	<path style="fill:none;stroke:red;stroke-width:1px;stroke-linecap:butt;stroke-linejoin:miter;stroke-opacity:1" d="M 298.5,866.833 315.722,866.833 z" id="boundary" inkscape:connector-curvature="0" />
	<path style="fill:none;stroke:red;stroke-width:1px;stroke-linecap:butt;stroke-linejoin:miter;stroke-opacity:1" d="M 315.722,866.833 332.944,866.833 z" id="boundary" inkscape:connector-curvature="0" />
	<path style="fill:none;stroke:red;stroke-width:1px;stroke-linecap:butt;stroke-linejoin:miter;stroke-opacity:1" d="M 332.944,866.833 350.167,866.833 z" id="boundary" inkscape:connector-curvature="0" />
	<path style="fill:none;stroke:red;stroke-width:1px;stroke-linecap:butt;stroke-linejoin:miter;stroke-opacity:1" d="M 350.167,866.833 365.667,875.444 z" id="boundary" inkscape:connector-curvature="0" />
	<path style="fill:none;stroke:red;stroke-width:1px;stroke-linecap:butt;stroke-linejoin:miter;stroke-opacity:1" d="M 365.667,875.444 374.278,890.944 z" id="boundary" inkscape:connector-curvature="0" />
	<path style="fill:none;stroke:red;stroke-width:1px;stroke-linecap:butt;stroke-linejoin:miter;stroke-opacity:1" d="M 374.278,890.944 374.278,908.167 z" id="boundary" inkscape:connector-curvature="0" />
	<path style="fill:none;stroke:red;stroke-width:1px;stroke-linecap:butt;stroke-linejoin:miter;stroke-opacity:1" d="M 374.278,908.167 370.833,934 z" id="boundary" inkscape:connector-curvature="0" />
	<path style="fill:none;stroke:red;stroke-width:1px;stroke-linecap:butt;stroke-linejoin:miter;stroke-opacity:1" d="M 370.833,934 357.056,947.778 z" id="boundary" inkscape:connector-curvature="0" />
	<path style="fill:none;stroke:red;stroke-width:1px;stroke-linecap:butt;stroke-linejoin:miter;stroke-opacity:1" d="M 357.056,947.778 357.056,965 z" id="boundary" inkscape:connector-curvature="0" />
	<path style="fill:none;stroke:red;stroke-width:1px;stroke-linecap:butt;stroke-linejoin:miter;stroke-opacity:1" d="M 357.056,965 357.056,982.222 z" id="boundary" inkscape:connector-curvature="0" />
	<path style="fill:none;stroke:red;stroke-width:1px;stroke-linecap:butt;stroke-linejoin:miter;stroke-opacity:1" d="M 357.056,982.222 374.278,987.389 z" id="boundary" inkscape:connector-curvature="0" />
	<path style="fill:none;stroke:red;stroke-width:1px;stroke-linecap:butt;stroke-linejoin:miter;stroke-opacity:1" d="M 374.278,987.389 391.5,987.389 z" id="boundary" inkscape:connector-curvature="0" />
	<path style="fill:none;stroke:red;stroke-width:1px;stroke-linecap:butt;stroke-linejoin:miter;stroke-opacity:1" d="M 391.5,987.389 408.722,987.389 z" id="boundary" inkscape:connector-curvature="0" />
	<path style="fill:none;stroke:red;stroke-width:1px;stroke-linecap:butt;stroke-linejoin:miter;stroke-opacity:1" d="M 408.722,987.389 425.944,987.389 z" id="boundary" inkscape:connector-curvature="0" />
	<path style="fill:none;stroke:red;stroke-width:1px;stroke-linecap:butt;stroke-linejoin:miter;stroke-opacity:1" d="M 425.944,987.389 443.167,987.389 z" id="boundary" inkscape:connector-curvature="0" />
	<path style="fill:none;stroke:red;stroke-width:1px;stroke-linecap:butt;stroke-linejoin:miter;stroke-opacity:1" d="M 443.167,987.389 460.389,987.389 z" id="boundary" inkscape:connector-curvature="0" />
	<path style="fill:none;stroke:red;stroke-width:1px;stroke-linecap:butt;stroke-linejoin:miter;stroke-opacity:1" d="M 460.389,987.389 477.611,987.389 z" id="boundary" inkscape:connector-curvature="0" />
	<path style="fill:none;stroke:red;stroke-width:1px;stroke-linecap:butt;stroke-linejoin:miter;stroke-opacity:1" d="M 477.611,987.389 494.833,987.389 z" id="boundary" inkscape:connector-curvature="0" />
	<path style="fill:none;stroke:red;stroke-width:1px;stroke-linecap:butt;stroke-linejoin:miter;stroke-opacity:1" d="M 494.833,987.389 512.056,987.389 z" id="boundary" inkscape:connector-curvature="0" />
	<path style="fill:none;stroke:red;stroke-width:1px;stroke-linecap:butt;stroke-linejoin:miter;stroke-opacity:1" d="M 512.056,987.389 529.278,987.389 z" id="boundary" inkscape:connector-curvature="0" />
	<path style="fill:none;stroke:red;stroke-width:1px;stroke-linecap:butt;stroke-linejoin:miter;stroke-opacity:1" d="M 529.278,987.389 544.778,996 z" id="boundary" inkscape:connector-curvature="0" />
	<path style="fill:none;stroke:red;stroke-width:1px;stroke-linecap:butt;stroke-linejoin:miter;stroke-opacity:1" d="M 544.778,996 562,996 z" id="boundary" inkscape:connector-curvature="0" />
	<path style="fill:none;stroke:red;stroke-width:1px;stroke-linecap:butt;stroke-linejoin:miter;stroke-opacity:1" d="M 562,996 579.222,996 z" id="boundary" inkscape:connector-curvature="0" />
	<path style="fill:none;stroke:red;stroke-width:1px;stroke-linecap:butt;stroke-linejoin:miter;stroke-opacity:1" d="M 579.222,996 591.278,978.778 z" id="boundary" inkscape:connector-curvature="0" />
	<path style="fill:none;stroke:red;stroke-width:1px;stroke-linecap:butt;stroke-linejoin:miter;stroke-opacity:1" d="M 591.278,978.778 594.722,959.833 z" id="boundary" inkscape:connector-curvature="0" />
	<path style="fill:none;stroke:red;stroke-width:1px;stroke-linecap:butt;stroke-linejoin:miter;stroke-opacity:1" d="M 594.722,959.833 579.222,951.222 z" id="boundary" inkscape:connector-curvature="0" />
	<path style="fill:none;stroke:red;stroke-width:1px;stroke-linecap:butt;stroke-linejoin:miter;stroke-opacity:1" d="M 579.222,951.222 562,944.333 z" id="boundary" inkscape:connector-curvature="0" />
	<path style="fill:none;stroke:red;stroke-width:1px;stroke-linecap:butt;stroke-linejoin:miter;stroke-opacity:1" d="M 562,944.333 544.778,942.611 z" id="boundary" inkscape:connector-curvature="0" />
	<path style="fill:none;stroke:red;stroke-width:1px;stroke-linecap:butt;stroke-linejoin:miter;stroke-opacity:1" d="M 544.778,942.611 527.556,942.611 z" id="boundary" inkscape:connector-curvature="0" />
	<path style="fill:none;stroke:red;stroke-width:1px;stroke-linecap:butt;stroke-linejoin:miter;stroke-opacity:1" d="M 527.556,942.611 510.333,942.611 z" id="boundary" inkscape:connector-curvature="0" />
	<path style="fill:none;stroke:red;stroke-width:1px;stroke-linecap:butt;stroke-linejoin:miter;stroke-opacity:1" d="M 510.333,942.611 493.111,942.611 z" id="boundary" inkscape:connector-curvature="0" />
	<path style="fill:none;stroke:red;stroke-width:1px;stroke-linecap:butt;stroke-linejoin:miter;stroke-opacity:1" d="M 493.111,942.611 475.889,942.611 z" id="boundary" inkscape:connector-curvature="0" />
	<path style="fill:none;stroke:red;stroke-width:1px;stroke-linecap:butt;stroke-linejoin:miter;stroke-opacity:1" d="M 475.889,942.611 458.667,942.611 z" id="boundary" inkscape:connector-curvature="0" />
	<path style="fill:none;stroke:red;stroke-width:1px;stroke-linecap:butt;stroke-linejoin:miter;stroke-opacity:1" d="M 458.667,942.611 441.444,942.611 z" id="boundary" inkscape:connector-curvature="0" />
	<path style="fill:none;stroke:red;stroke-width:1px;stroke-linecap:butt;stroke-linejoin:miter;stroke-opacity:1" d="M 441.444,942.611 424.222,937.444 z" id="boundary" inkscape:connector-curvature="0" />
	<path style="fill:none;stroke:red;stroke-width:1px;stroke-linecap:butt;stroke-linejoin:miter;stroke-opacity:1" d="M 424.222,937.444 410.444,927.111 z" id="boundary" inkscape:connector-curvature="0" />
	<path style="fill:none;stroke:red;stroke-width:1px;stroke-linecap:butt;stroke-linejoin:miter;stroke-opacity:1" d="M 410.444,927.111 410.444,909.889 z" id="boundary" inkscape:connector-curvature="0" />
	<path style="fill:none;stroke:red;stroke-width:1px;stroke-linecap:butt;stroke-linejoin:miter;stroke-opacity:1" d="M 410.444,909.889 410.444,892.667 z" id="boundary" inkscape:connector-curvature="0" />
	<path style="fill:none;stroke:red;stroke-width:1px;stroke-linecap:butt;stroke-linejoin:miter;stroke-opacity:1" d="M 410.444,892.667 410.444,875.444 z" id="boundary" inkscape:connector-curvature="0" />
	<path style="fill:none;stroke:red;stroke-width:1px;stroke-linecap:butt;stroke-linejoin:miter;stroke-opacity:1" d="M 410.444,875.444 410.444,858.222 z" id="boundary" inkscape:connector-curvature="0" />
	<path style="fill:none;stroke:red;stroke-width:1px;stroke-linecap:butt;stroke-linejoin:miter;stroke-opacity:1" d="M 410.444,858.222 427.667,841 z" id="boundary" inkscape:connector-curvature="0" />
	<path style="fill:none;stroke:red;stroke-width:1px;stroke-linecap:butt;stroke-linejoin:miter;stroke-opacity:1" d="M 427.667,841 444.889,841 z" id="boundary" inkscape:connector-curvature="0" />
	<path style="fill:none;stroke:red;stroke-width:1px;stroke-linecap:butt;stroke-linejoin:miter;stroke-opacity:1" d="M 444.889,841 462.111,841 z" id="boundary" inkscape:connector-curvature="0" />
	<path style="fill:none;stroke:red;stroke-width:1px;stroke-linecap:butt;stroke-linejoin:miter;stroke-opacity:1" d="M 462.111,841 479.333,841 z" id="boundary" inkscape:connector-curvature="0" />
	<path style="fill:none;stroke:red;stroke-width:1px;stroke-linecap:butt;stroke-linejoin:miter;stroke-opacity:1" d="M 479.333,841 496.556,844.444 z" id="boundary" inkscape:connector-curvature="0" />
	<path style="fill:none;stroke:red;stroke-width:1px;stroke-linecap:butt;stroke-linejoin:miter;stroke-opacity:1" d="M 496.556,844.444 508.611,858.222 z" id="boundary" inkscape:connector-curvature="0" />
	<path style="fill:none;stroke:red;stroke-width:1px;stroke-linecap:butt;stroke-linejoin:miter;stroke-opacity:1" d="M 508.611,858.222 524.111,849.611 z" id="boundary" inkscape:connector-curvature="0" />
	<path style="fill:none;stroke:red;stroke-width:1px;stroke-linecap:butt;stroke-linejoin:miter;stroke-opacity:1" d="M 524.111,849.611 541.333,854.778 z" id="boundary" inkscape:connector-curvature="0" />
	<path style="fill:none;stroke:red;stroke-width:1px;stroke-linecap:butt;stroke-linejoin:miter;stroke-opacity:1" d="M 541.333,854.778 558.556,858.222 z" id="boundary" inkscape:connector-curvature="0" />
	<path style="fill:none;stroke:red;stroke-width:1px;stroke-linecap:butt;stroke-linejoin:miter;stroke-opacity:1" d="M 558.556,858.222 575.778,858.222 z" id="boundary" inkscape:connector-curvature="0" />
	<path style="fill:none;stroke:red;stroke-width:1px;stroke-linecap:butt;stroke-linejoin:miter;stroke-opacity:1" d="M 575.778,858.222 593,863.389 z" id="boundary" inkscape:connector-curvature="0" />
	<path style="fill:none;stroke:red;stroke-width:1px;stroke-linecap:butt;stroke-linejoin:miter;stroke-opacity:1" d="M 593,863.389 610.222,858.222 z" id="boundary" inkscape:connector-curvature="0" />
	<path style="fill:none;stroke:red;stroke-width:1px;stroke-linecap:butt;stroke-linejoin:miter;stroke-opacity:1" d="M 610.222,858.222 627.444,858.222 z" id="boundary" inkscape:connector-curvature="0" />
	<path style="fill:none;stroke:red;stroke-width:1px;stroke-linecap:butt;stroke-linejoin:miter;stroke-opacity:1" d="M 627.444,858.222 641.222,844.444 z" id="boundary" inkscape:connector-curvature="0" />
	<path style="fill:none;stroke:red;stroke-width:1px;stroke-linecap:butt;stroke-linejoin:miter;stroke-opacity:1" d="M 641.222,844.444 651.556,823.778 z" id="boundary" inkscape:connector-curvature="0" />
	<path style="fill:none;stroke:red;stroke-width:1px;stroke-linecap:butt;stroke-linejoin:miter;stroke-opacity:1" d="M 651.556,823.778 660.167,806.556 z" id="boundary" inkscape:connector-curvature="0" />
	<path style="fill:none;stroke:red;stroke-width:1px;stroke-linecap:butt;stroke-linejoin:miter;stroke-opacity:1" d="M 660.167,806.556 668.778,789.333 z" id="boundary" inkscape:connector-curvature="0" />
	<path style="fill:none;stroke:red;stroke-width:1px;stroke-linecap:butt;stroke-linejoin:miter;stroke-opacity:1" d="M 668.778,789.333 668.778,772.111 z" id="boundary" inkscape:connector-curvature="0" />
	<path style="fill:none;stroke:red;stroke-width:1px;stroke-linecap:butt;stroke-linejoin:miter;stroke-opacity:1" d="M 668.778,772.111 668.778,754.889 z" id="boundary" inkscape:connector-curvature="0" />
	<path style="fill:none;stroke:red;stroke-width:1px;stroke-linecap:butt;stroke-linejoin:miter;stroke-opacity:1" d="M 668.778,754.889 668.778,737.667 z" id="boundary" inkscape:connector-curvature="0" />
	<path style="fill:none;stroke:red;stroke-width:1px;stroke-linecap:butt;stroke-linejoin:miter;stroke-opacity:1" d="M 668.778,737.667 677.389,720.444 z" id="boundary" inkscape:connector-curvature="0" />
	<path style="fill:none;stroke:red;stroke-width:1px;stroke-linecap:butt;stroke-linejoin:miter;stroke-opacity:1" d="M 677.389,720.444 691.167,708.389 z" id="boundary" inkscape:connector-curvature="0" />
	<path style="fill:none;stroke:red;stroke-width:1px;stroke-linecap:butt;stroke-linejoin:miter;stroke-opacity:1" d="M 193.444,861.667 202.056,835.833 z" id="boundary" inkscape:connector-curvature="0" />
	<path style="fill:none;stroke:red;stroke-width:1px;stroke-linecap:butt;stroke-linejoin:miter;stroke-opacity:1" d="M 202.056,835.833 202.056,818.611 z" id="boundary" inkscape:connector-curvature="0" />
	<path style="fill:none;stroke:red;stroke-width:1px;stroke-linecap:butt;stroke-linejoin:miter;stroke-opacity:1" d="M 202.056,818.611 202.056,801.389 z" id="boundary" inkscape:connector-curvature="0" />
	<path style="fill:none;stroke:red;stroke-width:1px;stroke-linecap:butt;stroke-linejoin:miter;stroke-opacity:1" d="M 202.056,801.389 202.056,784.167 z" id="boundary" inkscape:connector-curvature="0" />
	<path style="fill:none;stroke:red;stroke-width:1px;stroke-linecap:butt;stroke-linejoin:miter;stroke-opacity:1" d="M 202.056,784.167 202.056,766.944 z" id="boundary" inkscape:connector-curvature="0" />
	<path style="fill:none;stroke:red;stroke-width:1px;stroke-linecap:butt;stroke-linejoin:miter;stroke-opacity:1" d="M 202.056,766.944 202.056,749.722 z" id="boundary" inkscape:connector-curvature="0" />
	<path style="fill:none;stroke:red;stroke-width:1px;stroke-linecap:butt;stroke-linejoin:miter;stroke-opacity:1" d="M 202.056,749.722 210.667,732.5 z" id="boundary" inkscape:connector-curvature="0" />
	<path style="fill:none;stroke:red;stroke-width:1px;stroke-linecap:butt;stroke-linejoin:miter;stroke-opacity:1" d="M 210.667,732.5 210.667,715.278 z" id="boundary" inkscape:connector-curvature="0" />
	<path style="fill:none;stroke:red;stroke-width:1px;stroke-linecap:butt;stroke-linejoin:miter;stroke-opacity:1" d="M 210.667,715.278 224.444,701.5 z" id="boundary" inkscape:connector-curvature="0" />
	<path style="fill:none;stroke:red;stroke-width:1px;stroke-linecap:butt;stroke-linejoin:miter;stroke-opacity:1" d="M 224.444,701.5 227.889,680.833 z" id="boundary" inkscape:connector-curvature="0" />
	<path style="fill:none;stroke:red;stroke-width:1px;stroke-linecap:butt;stroke-linejoin:miter;stroke-opacity:1" d="M 227.889,680.833 236.5,663.611 z" id="boundary" inkscape:connector-curvature="0" />
	<path style="fill:none;stroke:red;stroke-width:1px;stroke-linecap:butt;stroke-linejoin:miter;stroke-opacity:1" d="M 236.5,663.611 245.111,646.389 z" id="boundary" inkscape:connector-curvature="0" />
	<path style="fill:none;stroke:red;stroke-width:1px;stroke-linecap:butt;stroke-linejoin:miter;stroke-opacity:1" d="M 245.111,646.389 253.722,629.167 z" id="boundary" inkscape:connector-curvature="0" />
	<path style="fill:none;stroke:red;stroke-width:1px;stroke-linecap:butt;stroke-linejoin:miter;stroke-opacity:1" d="M 253.722,629.167 262.333,611.944 z" id="boundary" inkscape:connector-curvature="0" />
	<path style="fill:none;stroke:red;stroke-width:1px;stroke-linecap:butt;stroke-linejoin:miter;stroke-opacity:1" d="M 262.333,611.944 262.333,594.722 z" id="boundary" inkscape:connector-curvature="0" />
	<path style="fill:none;stroke:red;stroke-width:1px;stroke-linecap:butt;stroke-linejoin:miter;stroke-opacity:1" d="M 262.333,594.722 267.5,574.056 z" id="boundary" inkscape:connector-curvature="0" />
	<path style="fill:none;stroke:red;stroke-width:1px;stroke-linecap:butt;stroke-linejoin:miter;stroke-opacity:1" d="M 267.5,574.056 250.278,574.056 z" id="boundary" inkscape:connector-curvature="0" />
	<path style="fill:none;stroke:red;stroke-width:1px;stroke-linecap:butt;stroke-linejoin:miter;stroke-opacity:1" d="M 250.278,574.056 233.056,574.056 z" id="boundary" inkscape:connector-curvature="0" />
	<path style="fill:none;stroke:red;stroke-width:1px;stroke-linecap:butt;stroke-linejoin:miter;stroke-opacity:1" d="M 233.056,574.056 215.833,574.056 z" id="boundary" inkscape:connector-curvature="0" />
	<path style="fill:none;stroke:red;stroke-width:1px;stroke-linecap:butt;stroke-linejoin:miter;stroke-opacity:1" d="M 215.833,574.056 198.611,580.944 z" id="boundary" inkscape:connector-curvature="0" />
	<path style="fill:none;stroke:red;stroke-width:1px;stroke-linecap:butt;stroke-linejoin:miter;stroke-opacity:1" d="M 198.611,580.944 181.389,582.667 z" id="boundary" inkscape:connector-curvature="0" />
	<path style="fill:none;stroke:red;stroke-width:1px;stroke-linecap:butt;stroke-linejoin:miter;stroke-opacity:1" d="M 181.389,582.667 165.889,591.278 z" id="boundary" inkscape:connector-curvature="0" />
	<path style="fill:none;stroke:red;stroke-width:1px;stroke-linecap:butt;stroke-linejoin:miter;stroke-opacity:1" d="M 165.889,591.278 148.667,591.278 z" id="boundary" inkscape:connector-curvature="0" />
	<path style="fill:none;stroke:red;stroke-width:1px;stroke-linecap:butt;stroke-linejoin:miter;stroke-opacity:1" d="M 148.667,591.278 131.444,596.444 z" id="boundary" inkscape:connector-curvature="0" />
	<path style="fill:none;stroke:red;stroke-width:1px;stroke-linecap:butt;stroke-linejoin:miter;stroke-opacity:1" d="M 131.444,596.444 114.222,599.889 z" id="boundary" inkscape:connector-curvature="0" />
	<path style="fill:none;stroke:red;stroke-width:1px;stroke-linecap:butt;stroke-linejoin:miter;stroke-opacity:1" d="M 114.222,599.889 98.7222,608.5 z" id="boundary" inkscape:connector-curvature="0" />
	<path style="fill:none;stroke:red;stroke-width:1px;stroke-linecap:butt;stroke-linejoin:miter;stroke-opacity:1" d="M 98.7222,608.5 83.2222,617.111 z" id="boundary" inkscape:connector-curvature="0" />
	<path style="fill:none;stroke:red;stroke-width:1px;stroke-linecap:butt;stroke-linejoin:miter;stroke-opacity:1" d="M 83.2222,617.111 72.8889,603.333 z" id="boundary" inkscape:connector-curvature="0" />
	<path style="fill:none;stroke:red;stroke-width:1px;stroke-linecap:butt;stroke-linejoin:miter;stroke-opacity:1" d="M 72.8889,603.333 81.5,586.111 z" id="boundary" inkscape:connector-curvature="0" />
	<path style="fill:none;stroke:red;stroke-width:1px;stroke-linecap:butt;stroke-linejoin:miter;stroke-opacity:1" d="M 81.5,586.111 81.5,568.889 z" id="boundary" inkscape:connector-curvature="0" />
	<path style="fill:none;stroke:red;stroke-width:1px;stroke-linecap:butt;stroke-linejoin:miter;stroke-opacity:1" d="M 81.5,568.889 90.1111,551.667 z" id="boundary" inkscape:connector-curvature="0" />
	<path style="fill:none;stroke:red;stroke-width:1px;stroke-linecap:butt;stroke-linejoin:miter;stroke-opacity:1" d="M 90.1111,551.667 98.7222,525.833 z" id="boundary" inkscape:connector-curvature="0" />
	<path style="fill:none;stroke:red;stroke-width:1px;stroke-linecap:butt;stroke-linejoin:miter;stroke-opacity:1" d="M 98.7222,525.833 98.7222,508.611 z" id="boundary" inkscape:connector-curvature="0" />
	<path style="fill:none;stroke:red;stroke-width:1px;stroke-linecap:butt;stroke-linejoin:miter;stroke-opacity:1" d="M 98.7222,508.611 115.944,500 z" id="boundary" inkscape:connector-curvature="0" />
	<path style="fill:none;stroke:red;stroke-width:1px;stroke-linecap:butt;stroke-linejoin:miter;stroke-opacity:1" d="M 115.944,500 115.944,482.778 z" id="boundary" inkscape:connector-curvature="0" />
	<path style="fill:none;stroke:red;stroke-width:1px;stroke-linecap:butt;stroke-linejoin:miter;stroke-opacity:1" d="M 115.944,482.778 115.944,465.556 z" id="boundary" inkscape:connector-curvature="0" />
	<path style="fill:none;stroke:red;stroke-width:1px;stroke-linecap:butt;stroke-linejoin:miter;stroke-opacity:1" d="M 115.944,465.556 124.556,448.333 z" id="boundary" inkscape:connector-curvature="0" />
	<path style="fill:none;stroke:red;stroke-width:1px;stroke-linecap:butt;stroke-linejoin:miter;stroke-opacity:1" d="M 124.556,448.333 133.167,431.111 z" id="boundary" inkscape:connector-curvature="0" />
	<path style="fill:none;stroke:red;stroke-width:1px;stroke-linecap:butt;stroke-linejoin:miter;stroke-opacity:1" d="M 133.167,431.111 141.778,413.889 z" id="boundary" inkscape:connector-curvature="0" />
	<path style="fill:none;stroke:red;stroke-width:1px;stroke-linecap:butt;stroke-linejoin:miter;stroke-opacity:1" d="M 141.778,413.889 150.389,396.667 z" id="boundary" inkscape:connector-curvature="0" />
	<path style="fill:none;stroke:red;stroke-width:1px;stroke-linecap:butt;stroke-linejoin:miter;stroke-opacity:1" d="M 150.389,396.667 159,379.444 z" id="boundary" inkscape:connector-curvature="0" />
	<path style="fill:none;stroke:red;stroke-width:1px;stroke-linecap:butt;stroke-linejoin:miter;stroke-opacity:1" d="M 159,379.444 167.611,353.611 z" id="boundary" inkscape:connector-curvature="0" />
	<path style="fill:none;stroke:red;stroke-width:1px;stroke-linecap:butt;stroke-linejoin:miter;stroke-opacity:1" d="M 167.611,353.611 176.222,336.389 z" id="boundary" inkscape:connector-curvature="0" />
	<path style="fill:none;stroke:red;stroke-width:1px;stroke-linecap:butt;stroke-linejoin:miter;stroke-opacity:1" d="M 176.222,336.389 190,322.611 z" id="boundary" inkscape:connector-curvature="0" />
	<path style="fill:none;stroke:red;stroke-width:1px;stroke-linecap:butt;stroke-linejoin:miter;stroke-opacity:1" d="M 190,322.611 202.056,301.944 z" id="boundary" inkscape:connector-curvature="0" />
	<path style="fill:none;stroke:red;stroke-width:1px;stroke-linecap:butt;stroke-linejoin:miter;stroke-opacity:1" d="M 202.056,301.944 193.444,286.444 z" id="boundary" inkscape:connector-curvature="0" />
	<path style="fill:none;stroke:red;stroke-width:1px;stroke-linecap:butt;stroke-linejoin:miter;stroke-opacity:1" d="M 193.444,286.444 181.389,272.667 z" id="boundary" inkscape:connector-curvature="0" />
	<path style="fill:none;stroke:red;stroke-width:1px;stroke-linecap:butt;stroke-linejoin:miter;stroke-opacity:1" d="M 181.389,272.667 176.222,255.444 z" id="boundary" inkscape:connector-curvature="0" />
	<path style="fill:none;stroke:red;stroke-width:1px;stroke-linecap:butt;stroke-linejoin:miter;stroke-opacity:1" d="M 176.222,255.444 167.611,239.944 z" id="boundary" inkscape:connector-curvature="0" />
	<path style="fill:none;stroke:red;stroke-width:1px;stroke-linecap:butt;stroke-linejoin:miter;stroke-opacity:1" d="M 167.611,239.944 159,224.444 z" id="boundary" inkscape:connector-curvature="0" />
	<path style="fill:none;stroke:red;stroke-width:1px;stroke-linecap:butt;stroke-linejoin:miter;stroke-opacity:1" d="M 159,224.444 159,207.222 z" id="boundary" inkscape:connector-curvature="0" />
	<path style="fill:none;stroke:red;stroke-width:1px;stroke-linecap:butt;stroke-linejoin:miter;stroke-opacity:1" d="M 159,207.222 159,190 z" id="boundary" inkscape:connector-curvature="0" />
	<path style="fill:none;stroke:red;stroke-width:1px;stroke-linecap:butt;stroke-linejoin:miter;stroke-opacity:1" d="M 159,190 159,172.778 z" id="boundary" inkscape:connector-curvature="0" />
	<path style="fill:none;stroke:red;stroke-width:1px;stroke-linecap:butt;stroke-linejoin:miter;stroke-opacity:1" d="M 159,172.778 159,155.556 z" id="boundary" inkscape:connector-curvature="0" />
	<path style="fill:none;stroke:red;stroke-width:1px;stroke-linecap:butt;stroke-linejoin:miter;stroke-opacity:1" d="M 159,155.556 159,138.333 z" id="boundary" inkscape:connector-curvature="0" />
	<path style="fill:none;stroke:red;stroke-width:1px;stroke-linecap:butt;stroke-linejoin:miter;stroke-opacity:1" d="M 159,138.333 172.778,124.556 z" id="boundary" inkscape:connector-curvature="0" />
	<path style="fill:none;stroke:red;stroke-width:1px;stroke-linecap:butt;stroke-linejoin:miter;stroke-opacity:1" d="M 172.778,124.556 176.222,95.2778 z" id="boundary" inkscape:connector-curvature="0" />
	<path style="fill:none;stroke:red;stroke-width:1px;stroke-linecap:butt;stroke-linejoin:miter;stroke-opacity:1" d="M 176.222,95.2778 190,81.5 z" id="boundary" inkscape:connector-curvature="0" />
	<path style="fill:none;stroke:red;stroke-width:1px;stroke-linecap:butt;stroke-linejoin:miter;stroke-opacity:1" d="M 190,81.5 203.778,67.7222 z" id="boundary" inkscape:connector-curvature="0" />
	<path style="fill:none;stroke:red;stroke-width:1px;stroke-linecap:butt;stroke-linejoin:miter;stroke-opacity:1" d="M 203.778,67.7222 217.556,55.6667 z" id="boundary" inkscape:connector-curvature="0" />
	<path style="fill:none;stroke:red;stroke-width:1px;stroke-linecap:butt;stroke-linejoin:miter;stroke-opacity:1" d="M 217.556,55.6667 224.444,38.4444 z" id="boundary" inkscape:connector-curvature="0" />
	<path style="fill:none;stroke:red;stroke-width:1px;stroke-linecap:butt;stroke-linejoin:miter;stroke-opacity:1" d="M 224.444,38.4444 241.667,29.8333 z" id="boundary" inkscape:connector-curvature="0" />
	<path style="fill:none;stroke:red;stroke-width:1px;stroke-linecap:butt;stroke-linejoin:miter;stroke-opacity:1" d="M 241.667,29.8333 258.889,29.8333 z" id="boundary" inkscape:connector-curvature="0" />
	<path style="fill:none;stroke:red;stroke-width:1px;stroke-linecap:butt;stroke-linejoin:miter;stroke-opacity:1" d="M 258.889,29.8333 267.5,12.6111 z" id="boundary" inkscape:connector-curvature="0" />
	<path style="fill:none;stroke:red;stroke-width:1px;stroke-linecap:butt;stroke-linejoin:miter;stroke-opacity:1" d="M 267.5,12.6111 284.722,12.6111 z" id="boundary" inkscape:connector-curvature="0" />
	<path style="fill:none;stroke:red;stroke-width:1px;stroke-linecap:butt;stroke-linejoin:miter;stroke-opacity:1" d="M 284.722,12.6111 301.944,12.6111 z" id="boundary" inkscape:connector-curvature="0" />
	<path style="fill:none;stroke:red;stroke-width:1px;stroke-linecap:butt;stroke-linejoin:miter;stroke-opacity:1" d="M 301.944,12.6111 317.444,4 z" id="boundary" inkscape:connector-curvature="0" />
	<path style="fill:none;stroke:red;stroke-width:1px;stroke-linecap:butt;stroke-linejoin:miter;stroke-opacity:1" d="M 317.444,4 334.667,4 z" id="boundary" inkscape:connector-curvature="0" />
	<path style="fill:none;stroke:red;stroke-width:1px;stroke-linecap:butt;stroke-linejoin:miter;stroke-opacity:1" d="M 334.667,4 350.167,12.6111 z" id="boundary" inkscape:connector-curvature="0" />
	<path style="fill:none;stroke:red;stroke-width:1px;stroke-linecap:butt;stroke-linejoin:miter;stroke-opacity:1" d="M 350.167,12.6111 367.389,17.7778 z" id="boundary" inkscape:connector-curvature="0" />
	<path style="fill:none;stroke:red;stroke-width:1px;stroke-linecap:butt;stroke-linejoin:miter;stroke-opacity:1" d="M 367.389,17.7778 379.444,31.5556 z" id="boundary" inkscape:connector-curvature="0" />
	<path style="fill:none;stroke:red;stroke-width:1px;stroke-linecap:butt;stroke-linejoin:miter;stroke-opacity:1" d="M 379.444,31.5556 393.222,43.6111 z" id="boundary" inkscape:connector-curvature="0" />
	<path style="fill:none;stroke:red;stroke-width:1px;stroke-linecap:butt;stroke-linejoin:miter;stroke-opacity:1" d="M 393.222,43.6111 393.222,66 z" id="boundary" inkscape:connector-curvature="0" />
	<path style="fill:none;stroke:red;stroke-width:1px;stroke-linecap:butt;stroke-linejoin:miter;stroke-opacity:1" d="M 393.222,66 401.833,81.5 z" id="boundary" inkscape:connector-curvature="0" />
	<path style="fill:none;stroke:red;stroke-width:1px;stroke-linecap:butt;stroke-linejoin:miter;stroke-opacity:1" d="M 401.833,81.5 410.444,97 z" id="boundary" inkscape:connector-curvature="0" />
	<path style="fill:none;stroke:red;stroke-width:1px;stroke-linecap:butt;stroke-linejoin:miter;stroke-opacity:1" d="M 410.444,97 427.667,103.889 z" id="boundary" inkscape:connector-curvature="0" />
	<path style="fill:none;stroke:red;stroke-width:1px;stroke-linecap:butt;stroke-linejoin:miter;stroke-opacity:1" d="M 427.667,103.889 419.056,126.278 z" id="boundary" inkscape:connector-curvature="0" />
	<path style="fill:none;stroke:red;stroke-width:1px;stroke-linecap:butt;stroke-linejoin:miter;stroke-opacity:1" d="M 419.056,126.278 410.444,152.111 z" id="boundary" inkscape:connector-curvature="0" />
	<path style="fill:none;stroke:red;stroke-width:1px;stroke-linecap:butt;stroke-linejoin:miter;stroke-opacity:1" d="M 410.444,152.111 401.833,169.333 z" id="boundary" inkscape:connector-curvature="0" />
	<path style="fill:none;stroke:red;stroke-width:1px;stroke-linecap:butt;stroke-linejoin:miter;stroke-opacity:1" d="M 401.833,169.333 393.222,195.167 z" id="boundary" inkscape:connector-curvature="0" />
	<path style="fill:none;stroke:red;stroke-width:1px;stroke-linecap:butt;stroke-linejoin:miter;stroke-opacity:1" d="M 393.222,195.167 384.611,221 z" id="boundary" inkscape:connector-curvature="0" />
	<path style="fill:none;stroke:red;stroke-width:1px;stroke-linecap:butt;stroke-linejoin:miter;stroke-opacity:1" d="M 384.611,221 401.833,227.889 z" id="boundary" inkscape:connector-curvature="0" />
	<path style="fill:none;stroke:red;stroke-width:1px;stroke-linecap:butt;stroke-linejoin:miter;stroke-opacity:1" d="M 401.833,227.889 419.056,227.889 z" id="boundary" inkscape:connector-curvature="0" />
	<path style="fill:none;stroke:red;stroke-width:1px;stroke-linecap:butt;stroke-linejoin:miter;stroke-opacity:1" d="M 419.056,227.889 436.278,227.889 z" id="boundary" inkscape:connector-curvature="0" />
	<path style="fill:none;stroke:red;stroke-width:1px;stroke-linecap:butt;stroke-linejoin:miter;stroke-opacity:1" d="M 436.278,227.889 453.5,227.889 z" id="boundary" inkscape:connector-curvature="0" />
	<path style="fill:none;stroke:red;stroke-width:1px;stroke-linecap:butt;stroke-linejoin:miter;stroke-opacity:1" d="M 453.5,227.889 469,215.833 z" id="boundary" inkscape:connector-curvature="0" />
	<path style="fill:none;stroke:red;stroke-width:1px;stroke-linecap:butt;stroke-linejoin:miter;stroke-opacity:1" d="M 469,215.833 469,190 z" id="boundary" inkscape:connector-curvature="0" />
	<path style="fill:none;stroke:red;stroke-width:1px;stroke-linecap:butt;stroke-linejoin:miter;stroke-opacity:1" d="M 469,190 482.778,176.222 z" id="boundary" inkscape:connector-curvature="0" />
	<path style="fill:none;stroke:red;stroke-width:1px;stroke-linecap:butt;stroke-linejoin:miter;stroke-opacity:1" d="M 482.778,176.222 486.222,146.944 z" id="boundary" inkscape:connector-curvature="0" />
	<path style="fill:none;stroke:red;stroke-width:1px;stroke-linecap:butt;stroke-linejoin:miter;stroke-opacity:1" d="M 486.222,146.944 486.222,129.722 z" id="boundary" inkscape:connector-curvature="0" />
	<path style="fill:none;stroke:red;stroke-width:1px;stroke-linecap:butt;stroke-linejoin:miter;stroke-opacity:1" d="M 486.222,129.722 503.444,121.111 z" id="boundary" inkscape:connector-curvature="0" />
	<path style="fill:none;stroke:red;stroke-width:1px;stroke-linecap:butt;stroke-linejoin:miter;stroke-opacity:1" d="M 503.444,121.111 512.056,103.889 z" id="boundary" inkscape:connector-curvature="0" />
	<path style="fill:none;stroke:red;stroke-width:1px;stroke-linecap:butt;stroke-linejoin:miter;stroke-opacity:1" d="M 512.056,103.889 529.278,98.7222 z" id="boundary" inkscape:connector-curvature="0" />
	<path style="fill:none;stroke:red;stroke-width:1px;stroke-linecap:butt;stroke-linejoin:miter;stroke-opacity:1" d="M 529.278,98.7222 546.5,98.7222 z" id="boundary" inkscape:connector-curvature="0" />
	<path style="fill:none;stroke:red;stroke-width:1px;stroke-linecap:butt;stroke-linejoin:miter;stroke-opacity:1" d="M 546.5,98.7222 563.722,98.7222 z" id="boundary" inkscape:connector-curvature="0" />
	<path style="fill:none;stroke:red;stroke-width:1px;stroke-linecap:butt;stroke-linejoin:miter;stroke-opacity:1" d="M 563.722,98.7222 580.944,98.7222 z" id="boundary" inkscape:connector-curvature="0" />
	<path style="fill:none;stroke:red;stroke-width:1px;stroke-linecap:butt;stroke-linejoin:miter;stroke-opacity:1" d="M 580.944,98.7222 598.167,98.7222 z" id="boundary" inkscape:connector-curvature="0" />
	<path style="fill:none;stroke:red;stroke-width:1px;stroke-linecap:butt;stroke-linejoin:miter;stroke-opacity:1" d="M 598.167,98.7222 615.389,98.7222 z" id="boundary" inkscape:connector-curvature="0" />
	<path style="fill:none;stroke:red;stroke-width:1px;stroke-linecap:butt;stroke-linejoin:miter;stroke-opacity:1" d="M 615.389,98.7222 632.611,102.167 z" id="boundary" inkscape:connector-curvature="0" />
	<path style="fill:none;stroke:red;stroke-width:1px;stroke-linecap:butt;stroke-linejoin:miter;stroke-opacity:1" d="M 632.611,102.167 649.833,107.333 z" id="boundary" inkscape:connector-curvature="0" />
	<path style="fill:none;stroke:red;stroke-width:1px;stroke-linecap:butt;stroke-linejoin:miter;stroke-opacity:1" d="M 649.833,107.333 667.056,102.167 z" id="boundary" inkscape:connector-curvature="0" />
	<path style="fill:none;stroke:red;stroke-width:1px;stroke-linecap:butt;stroke-linejoin:miter;stroke-opacity:1" d="M 667.056,102.167 677.389,115.944 z" id="boundary" inkscape:connector-curvature="0" />
	<path style="fill:none;stroke:red;stroke-width:1px;stroke-linecap:butt;stroke-linejoin:miter;stroke-opacity:1" d="M 677.389,115.944 694.611,121.111 z" id="boundary" inkscape:connector-curvature="0" />
	<path style="fill:none;stroke:red;stroke-width:1px;stroke-linecap:butt;stroke-linejoin:miter;stroke-opacity:1" d="M 694.611,121.111 711.833,124.556 z" id="boundary" inkscape:connector-curvature="0" />
	<path style="fill:none;stroke:red;stroke-width:1px;stroke-linecap:butt;stroke-linejoin:miter;stroke-opacity:1" d="M 711.833,124.556 720.444,140.056 z" id="boundary" inkscape:connector-curvature="0" />
	<path style="fill:none;stroke:red;stroke-width:1px;stroke-linecap:butt;stroke-linejoin:miter;stroke-opacity:1" d="M 720.444,140.056 729.056,155.556 z" id="boundary" inkscape:connector-curvature="0" />
	<path style="fill:none;stroke:red;stroke-width:1px;stroke-linecap:butt;stroke-linejoin:miter;stroke-opacity:1" d="M 729.056,155.556 729.056,172.778 z" id="boundary" inkscape:connector-curvature="0" />
	<path style="fill:none;stroke:red;stroke-width:1px;stroke-linecap:butt;stroke-linejoin:miter;stroke-opacity:1" d="M 729.056,172.778 737.667,188.278 z" id="boundary" inkscape:connector-curvature="0" />
	<path style="fill:none;stroke:red;stroke-width:1px;stroke-linecap:butt;stroke-linejoin:miter;stroke-opacity:1" d="M 737.667,188.278 737.667,205.5 z" id="boundary" inkscape:connector-curvature="0" />
	<path style="fill:none;stroke:red;stroke-width:1px;stroke-linecap:butt;stroke-linejoin:miter;stroke-opacity:1" d="M 737.667,205.5 737.667,222.722 z" id="boundary" inkscape:connector-curvature="0" />
	<path style="fill:none;stroke:red;stroke-width:1px;stroke-linecap:butt;stroke-linejoin:miter;stroke-opacity:1" d="M 737.667,222.722 729.056,246.833 z" id="boundary" inkscape:connector-curvature="0" />
	<path style="fill:none;stroke:red;stroke-width:1px;stroke-linecap:butt;stroke-linejoin:miter;stroke-opacity:1" d="M 729.056,246.833 720.444,264.056 z" id="boundary" inkscape:connector-curvature="0" />
	<path style="fill:none;stroke:red;stroke-width:1px;stroke-linecap:butt;stroke-linejoin:miter;stroke-opacity:1" d="M 720.444,264.056 720.444,289.889 z" id="boundary" inkscape:connector-curvature="0" />
	<path style="fill:none;stroke:red;stroke-width:1px;stroke-linecap:butt;stroke-linejoin:miter;stroke-opacity:1" d="M 720.444,289.889 711.833,315.722 z" id="boundary" inkscape:connector-curvature="0" />
	<path style="fill:none;stroke:red;stroke-width:1px;stroke-linecap:butt;stroke-linejoin:miter;stroke-opacity:1" d="M 711.833,315.722 703.222,332.944 z" id="boundary" inkscape:connector-curvature="0" />
	<path style="fill:none;stroke:red;stroke-width:1px;stroke-linecap:butt;stroke-linejoin:miter;stroke-opacity:1" d="M 703.222,332.944 691.167,355.333 z" id="boundary" inkscape:connector-curvature="0" />
	<path style="fill:none;stroke:red;stroke-width:1px;stroke-linecap:butt;stroke-linejoin:miter;stroke-opacity:1" d="M 691.167,355.333 677.389,367.389 z" id="boundary" inkscape:connector-curvature="0" />
	<path style="fill:none;stroke:red;stroke-width:1px;stroke-linecap:butt;stroke-linejoin:miter;stroke-opacity:1" d="M 677.389,367.389 660.167,376 z" id="boundary" inkscape:connector-curvature="0" />
	<path style="fill:none;stroke:red;stroke-width:1px;stroke-linecap:butt;stroke-linejoin:miter;stroke-opacity:1" d="M 660.167,376 648.111,389.778 z" id="boundary" inkscape:connector-curvature="0" />
	<path style="fill:none;stroke:red;stroke-width:1px;stroke-linecap:butt;stroke-linejoin:miter;stroke-opacity:1" d="M 648.111,389.778 630.889,393.222 z" id="boundary" inkscape:connector-curvature="0" />
	<path style="fill:none;stroke:red;stroke-width:1px;stroke-linecap:butt;stroke-linejoin:miter;stroke-opacity:1" d="M 630.889,393.222 613.667,398.389 z" id="boundary" inkscape:connector-curvature="0" />
	<path style="fill:none;stroke:red;stroke-width:1px;stroke-linecap:butt;stroke-linejoin:miter;stroke-opacity:1" d="M 613.667,398.389 599.889,410.444 z" id="boundary" inkscape:connector-curvature="0" />
	<path style="fill:none;stroke:red;stroke-width:1px;stroke-linecap:butt;stroke-linejoin:miter;stroke-opacity:1" d="M 599.889,410.444 582.667,410.444 z" id="boundary" inkscape:connector-curvature="0" />
	<path style="fill:none;stroke:red;stroke-width:1px;stroke-linecap:butt;stroke-linejoin:miter;stroke-opacity:1" d="M 582.667,410.444 565.444,410.444 z" id="boundary" inkscape:connector-curvature="0" />
	<path style="fill:none;stroke:red;stroke-width:1px;stroke-linecap:butt;stroke-linejoin:miter;stroke-opacity:1" d="M 565.444,410.444 548.222,410.444 z" id="boundary" inkscape:connector-curvature="0" />
	<path style="fill:none;stroke:red;stroke-width:1px;stroke-linecap:butt;stroke-linejoin:miter;stroke-opacity:1" d="M 548.222,410.444 531,410.444 z" id="boundary" inkscape:connector-curvature="0" />
	<path style="fill:none;stroke:red;stroke-width:1px;stroke-linecap:butt;stroke-linejoin:miter;stroke-opacity:1" d="M 531,410.444 513.778,410.444 z" id="boundary" inkscape:connector-curvature="0" />
	<path style="fill:none;stroke:red;stroke-width:1px;stroke-linecap:butt;stroke-linejoin:miter;stroke-opacity:1" d="M 513.778,410.444 496.556,419.056 z" id="boundary" inkscape:connector-curvature="0" />
	<path style="fill:none;stroke:red;stroke-width:1px;stroke-linecap:butt;stroke-linejoin:miter;stroke-opacity:1" d="M 496.556,419.056 484.5,441.444 z" id="boundary" inkscape:connector-curvature="0" />
	<path style="fill:none;stroke:red;stroke-width:1px;stroke-linecap:butt;stroke-linejoin:miter;stroke-opacity:1" d="M 484.5,441.444 467.278,450.056 z" id="boundary" inkscape:connector-curvature="0" />
	<path style="fill:none;stroke:red;stroke-width:1px;stroke-linecap:butt;stroke-linejoin:miter;stroke-opacity:1" d="M 467.278,450.056 453.5,462.111 z" id="boundary" inkscape:connector-curvature="0" />
	<path style="fill:none;stroke:red;stroke-width:1px;stroke-linecap:butt;stroke-linejoin:miter;stroke-opacity:1" d="M 453.5,462.111 436.278,462.111 z" id="boundary" inkscape:connector-curvature="0" />
	<path style="fill:none;stroke:red;stroke-width:1px;stroke-linecap:butt;stroke-linejoin:miter;stroke-opacity:1" d="M 436.278,462.111 422.5,477.611 z" id="boundary" inkscape:connector-curvature="0" />
	<path style="fill:none;stroke:red;stroke-width:1px;stroke-linecap:butt;stroke-linejoin:miter;stroke-opacity:1" d="M 422.5,477.611 408.722,487.944 z" id="boundary" inkscape:connector-curvature="0" />
	<path style="fill:none;stroke:red;stroke-width:1px;stroke-linecap:butt;stroke-linejoin:miter;stroke-opacity:1" d="M 408.722,487.944 393.222,496.556 z" id="boundary" inkscape:connector-curvature="0" />
	<path style="fill:none;stroke:red;stroke-width:1px;stroke-linecap:butt;stroke-linejoin:miter;stroke-opacity:1" d="M 393.222,496.556 401.833,512.056 z" id="boundary" inkscape:connector-curvature="0" />
	<path style="fill:none;stroke:red;stroke-width:1px;stroke-linecap:butt;stroke-linejoin:miter;stroke-opacity:1" d="M 401.833,512.056 419.056,508.611 z" id="boundary" inkscape:connector-curvature="0" />
	<path style="fill:none;stroke:red;stroke-width:1px;stroke-linecap:butt;stroke-linejoin:miter;stroke-opacity:1" d="M 419.056,508.611 432.833,520.667 z" id="boundary" inkscape:connector-curvature="0" />
	<path style="fill:none;stroke:red;stroke-width:1px;stroke-linecap:butt;stroke-linejoin:miter;stroke-opacity:1" d="M 432.833,520.667 448.333,529.278 z" id="boundary" inkscape:connector-curvature="0" />
	<path style="fill:none;stroke:red;stroke-width:1px;stroke-linecap:butt;stroke-linejoin:miter;stroke-opacity:1" d="M 448.333,529.278 463.833,537.889 z" id="boundary" inkscape:connector-curvature="0" />
	<path style="fill:none;stroke:red;stroke-width:1px;stroke-linecap:butt;stroke-linejoin:miter;stroke-opacity:1" d="M 463.833,537.889 479.333,546.5 z" id="boundary" inkscape:connector-curvature="0" />
	<path style="fill:none;stroke:red;stroke-width:1px;stroke-linecap:butt;stroke-linejoin:miter;stroke-opacity:1" d="M 479.333,546.5 496.556,551.667 z" id="boundary" inkscape:connector-curvature="0" />
	<path style="fill:none;stroke:red;stroke-width:1px;stroke-linecap:butt;stroke-linejoin:miter;stroke-opacity:1" d="M 496.556,551.667 505.167,567.167 z" id="boundary" inkscape:connector-curvature="0" />
	<path style="fill:none;stroke:red;stroke-width:1px;stroke-linecap:butt;stroke-linejoin:miter;stroke-opacity:1" d="M 505.167,567.167 520.667,575.778 z" id="boundary" inkscape:connector-curvature="0" />
	<path style="fill:none;stroke:red;stroke-width:1px;stroke-linecap:butt;stroke-linejoin:miter;stroke-opacity:1" d="M 520.667,575.778 531,589.556 z" id="boundary" inkscape:connector-curvature="0" />
	<path style="fill:none;stroke:red;stroke-width:1px;stroke-linecap:butt;stroke-linejoin:miter;stroke-opacity:1" d="M 531,589.556 548.222,589.556 z" id="boundary" inkscape:connector-curvature="0" />
	<path style="fill:none;stroke:red;stroke-width:1px;stroke-linecap:butt;stroke-linejoin:miter;stroke-opacity:1" d="M 548.222,589.556 565.444,589.556 z" id="boundary" inkscape:connector-curvature="0" />
	<path style="fill:none;stroke:red;stroke-width:1px;stroke-linecap:butt;stroke-linejoin:miter;stroke-opacity:1" d="M 565.444,589.556 582.667,589.556 z" id="boundary" inkscape:connector-curvature="0" />
	<path style="fill:none;stroke:red;stroke-width:1px;stroke-linecap:butt;stroke-linejoin:miter;stroke-opacity:1" d="M 582.667,589.556 596.444,599.889 z" id="boundary" inkscape:connector-curvature="0" />
	<path style="fill:none;stroke:red;stroke-width:1px;stroke-linecap:butt;stroke-linejoin:miter;stroke-opacity:1" d="M 596.444,599.889 608.5,613.667 z" id="boundary" inkscape:connector-curvature="0" />
	<path style="fill:none;stroke:red;stroke-width:1px;stroke-linecap:butt;stroke-linejoin:miter;stroke-opacity:1" d="M 608.5,613.667 611.944,641.222 z" id="boundary" inkscape:connector-curvature="0" />
	<path style="fill:none;stroke:red;stroke-width:1px;stroke-linecap:butt;stroke-linejoin:miter;stroke-opacity:1" d="M 611.944,641.222 594.722,649.833 z" id="boundary" inkscape:connector-curvature="0" />
	<path style="fill:none;stroke:red;stroke-width:1px;stroke-linecap:butt;stroke-linejoin:miter;stroke-opacity:1" d="M 594.722,649.833 577.5,651.556 z" id="boundary" inkscape:connector-curvature="0" />
	<path style="fill:none;stroke:red;stroke-width:1px;stroke-linecap:butt;stroke-linejoin:miter;stroke-opacity:1" d="M 577.5,651.556 560.278,651.556 z" id="boundary" inkscape:connector-curvature="0" />
	<path style="fill:none;stroke:red;stroke-width:1px;stroke-linecap:butt;stroke-linejoin:miter;stroke-opacity:1" d="M 560.278,651.556 551.667,667.056 z" id="boundary" inkscape:connector-curvature="0" />
	<path style="fill:none;stroke:red;stroke-width:1px;stroke-linecap:butt;stroke-linejoin:miter;stroke-opacity:1" d="M 551.667,667.056 539.611,680.833 z" id="boundary" inkscape:connector-curvature="0" />
	<path style="fill:none;stroke:red;stroke-width:1px;stroke-linecap:butt;stroke-linejoin:miter;stroke-opacity:1" d="M 539.611,680.833 525.833,668.778 z" id="boundary" inkscape:connector-curvature="0" />
	<path style="fill:none;stroke:red;stroke-width:1px;stroke-linecap:butt;stroke-linejoin:miter;stroke-opacity:1" d="M 525.833,668.778 510.333,660.167 z" id="boundary" inkscape:connector-curvature="0" />
	<path style="fill:none;stroke:red;stroke-width:1px;stroke-linecap:butt;stroke-linejoin:miter;stroke-opacity:1" d="M 510.333,660.167 494.833,651.556 z" id="boundary" inkscape:connector-curvature="0" />
	<path style="fill:none;stroke:red;stroke-width:1px;stroke-linecap:butt;stroke-linejoin:miter;stroke-opacity:1" d="M 494.833,651.556 494.833,634.333 z" id="boundary" inkscape:connector-curvature="0" />
	<path style="fill:none;stroke:red;stroke-width:1px;stroke-linecap:butt;stroke-linejoin:miter;stroke-opacity:1" d="M 494.833,634.333 477.611,629.167 z" id="boundary" inkscape:connector-curvature="0" />
	<path style="fill:none;stroke:red;stroke-width:1px;stroke-linecap:butt;stroke-linejoin:miter;stroke-opacity:1" d="M 477.611,629.167 474.167,608.5 z" id="boundary" inkscape:connector-curvature="0" />
	<path style="fill:none;stroke:red;stroke-width:1px;stroke-linecap:butt;stroke-linejoin:miter;stroke-opacity:1" d="M 474.167,608.5 469,591.278 z" id="boundary" inkscape:connector-curvature="0" />
	<path style="fill:none;stroke:red;stroke-width:1px;stroke-linecap:butt;stroke-linejoin:miter;stroke-opacity:1" d="M 469,591.278 451.778,591.278 z" id="boundary" inkscape:connector-curvature="0" />
	<path style="fill:none;stroke:red;stroke-width:1px;stroke-linecap:butt;stroke-linejoin:miter;stroke-opacity:1" d="M 451.778,591.278 434.556,591.278 z" id="boundary" inkscape:connector-curvature="0" />
	<path style="fill:none;stroke:red;stroke-width:1px;stroke-linecap:butt;stroke-linejoin:miter;stroke-opacity:1" d="M 434.556,591.278 419.056,599.889 z" id="boundary" inkscape:connector-curvature="0" />
	<path style="fill:none;stroke:red;stroke-width:1px;stroke-linecap:butt;stroke-linejoin:miter;stroke-opacity:1" d="M 419.056,599.889 419.056,582.667 z" id="boundary" inkscape:connector-curvature="0" />
	<path style="fill:none;stroke:red;stroke-width:1px;stroke-linecap:butt;stroke-linejoin:miter;stroke-opacity:1" d="M 691.167,708.389 694.611,677.389 z" id="boundary" inkscape:connector-curvature="0" />
	<path style="fill:none;stroke:red;stroke-width:1px;stroke-linecap:butt;stroke-linejoin:miter;stroke-opacity:1" d="M 694.611,677.389 672.222,667.056 z" id="boundary" inkscape:connector-curvature="0" />
	<path style="fill:none;stroke:red;stroke-width:1px;stroke-linecap:butt;stroke-linejoin:miter;stroke-opacity:1" d="M 672.222,667.056 680.833,649.833 z" id="boundary" inkscape:connector-curvature="0" />
	<path style="fill:none;stroke:red;stroke-width:1px;stroke-linecap:butt;stroke-linejoin:miter;stroke-opacity:1" d="M 680.833,649.833 689.444,632.611 z" id="boundary" inkscape:connector-curvature="0" />
	<path style="fill:none;stroke:red;stroke-width:1px;stroke-linecap:butt;stroke-linejoin:miter;stroke-opacity:1" d="M 689.444,632.611 698.056,615.389 z" id="boundary" inkscape:connector-curvature="0" />
	<path style="fill:none;stroke:red;stroke-width:1px;stroke-linecap:butt;stroke-linejoin:miter;stroke-opacity:1" d="M 698.056,615.389 701.5,594.722 z" id="boundary" inkscape:connector-curvature="0" />
	<path style="fill:none;stroke:red;stroke-width:1px;stroke-linecap:butt;stroke-linejoin:miter;stroke-opacity:1" d="M 701.5,594.722 701.5,577.5 z" id="boundary" inkscape:connector-curvature="0" />
	<path style="fill:none;stroke:red;stroke-width:1px;stroke-linecap:butt;stroke-linejoin:miter;stroke-opacity:1" d="M 701.5,577.5 710.111,560.278 z" id="boundary" inkscape:connector-curvature="0" />
	<path style="fill:none;stroke:red;stroke-width:1px;stroke-linecap:butt;stroke-linejoin:miter;stroke-opacity:1" d="M 710.111,560.278 723.889,546.5 z" id="boundary" inkscape:connector-curvature="0" />
	<path style="fill:none;stroke:red;stroke-width:1px;stroke-linecap:butt;stroke-linejoin:miter;stroke-opacity:1" d="M 723.889,546.5 737.667,532.722 z" id="boundary" inkscape:connector-curvature="0" />
	<path style="fill:none;stroke:red;stroke-width:1px;stroke-linecap:butt;stroke-linejoin:miter;stroke-opacity:1" d="M 737.667,532.722 754.889,529.278 z" id="boundary" inkscape:connector-curvature="0" />
	<path style="fill:none;stroke:red;stroke-width:1px;stroke-linecap:butt;stroke-linejoin:miter;stroke-opacity:1" d="M 754.889,529.278 772.111,529.278 z" id="boundary" inkscape:connector-curvature="0" />
	<path style="fill:none;stroke:red;stroke-width:1px;stroke-linecap:butt;stroke-linejoin:miter;stroke-opacity:1" d="M 772.111,529.278 789.333,529.278 z" id="boundary" inkscape:connector-curvature="0" />
	<path style="fill:none;stroke:red;stroke-width:1px;stroke-linecap:butt;stroke-linejoin:miter;stroke-opacity:1" d="M 789.333,529.278 796.222,548.222 z" id="boundary" inkscape:connector-curvature="0" />
	<path style="fill:none;stroke:red;stroke-width:1px;stroke-linecap:butt;stroke-linejoin:miter;stroke-opacity:1" d="M 796.222,548.222 779,548.222 z" id="boundary" inkscape:connector-curvature="0" />
	<path style="fill:none;stroke:red;stroke-width:1px;stroke-linecap:butt;stroke-linejoin:miter;stroke-opacity:1" d="M 779,548.222 763.5,556.833 z" id="boundary" inkscape:connector-curvature="0" />
	<path style="fill:none;stroke:red;stroke-width:1px;stroke-linecap:butt;stroke-linejoin:miter;stroke-opacity:1" d="M 763.5,556.833 746.278,556.833 z" id="boundary" inkscape:connector-curvature="0" />
	<path style="fill:none;stroke:red;stroke-width:1px;stroke-linecap:butt;stroke-linejoin:miter;stroke-opacity:1" d="M 746.278,556.833 729.056,574.056 z" id="boundary" inkscape:connector-curvature="0" />
	<path style="fill:none;stroke:red;stroke-width:1px;stroke-linecap:butt;stroke-linejoin:miter;stroke-opacity:1" d="M 729.056,574.056 720.444,591.278 z" id="boundary" inkscape:connector-curvature="0" />
	<path style="fill:none;stroke:red;stroke-width:1px;stroke-linecap:butt;stroke-linejoin:miter;stroke-opacity:1" d="M 720.444,591.278 720.444,608.5 z" id="boundary" inkscape:connector-curvature="0" />
	<path style="fill:none;stroke:red;stroke-width:1px;stroke-linecap:butt;stroke-linejoin:miter;stroke-opacity:1" d="M 720.444,608.5 717,639.5 z" id="boundary" inkscape:connector-curvature="0" />
	<path style="fill:none;stroke:red;stroke-width:1px;stroke-linecap:butt;stroke-linejoin:miter;stroke-opacity:1" d="M 717,639.5 703.222,651.556 z" id="boundary" inkscape:connector-curvature="0" />
	<path style="fill:none;stroke:red;stroke-width:1px;stroke-linecap:butt;stroke-linejoin:miter;stroke-opacity:1" d="M 419.056,651.556 419.056,634.333 z" id="boundary" inkscape:connector-curvature="0" />
	<path style="fill:none;stroke:red;stroke-width:1px;stroke-linecap:butt;stroke-linejoin:miter;stroke-opacity:1" d="M 419.056,634.333 419.056,617.111 z" id="boundary" inkscape:connector-curvature="0" />
	<path style="fill:none;stroke:red;stroke-width:1px;stroke-linecap:butt;stroke-linejoin:miter;stroke-opacity:1" d="M 419.056,651.556 419.056,668.778 z" id="boundary" inkscape:connector-curvature="0" />
	<path style="fill:none;stroke:red;stroke-width:1px;stroke-linecap:butt;stroke-linejoin:miter;stroke-opacity:1" d="M 419.056,668.778 419.056,686 z" id="boundary" inkscape:connector-curvature="0" />
	<path style="fill:none;stroke:red;stroke-width:1px;stroke-linecap:butt;stroke-linejoin:miter;stroke-opacity:1" d="M 419.056,686 419.056,711.833 z" id="boundary" inkscape:connector-curvature="0" />
	<path style="fill:none;stroke:red;stroke-width:1px;stroke-linecap:butt;stroke-linejoin:miter;stroke-opacity:1" d="M 419.056,711.833 427.667,727.333 z" id="boundary" inkscape:connector-curvature="0" />
	<path style="fill:none;stroke:red;stroke-width:1px;stroke-linecap:butt;stroke-linejoin:miter;stroke-opacity:1" d="M 427.667,727.333 427.667,746.278 z" id="boundary" inkscape:connector-curvature="0" />
	<path style="fill:none;stroke:red;stroke-width:1px;stroke-linecap:butt;stroke-linejoin:miter;stroke-opacity:1" d="M 427.667,746.278 436.278,761.778 z" id="boundary" inkscape:connector-curvature="0" />
	<path style="fill:none;stroke:red;stroke-width:1px;stroke-linecap:butt;stroke-linejoin:miter;stroke-opacity:1" d="M 436.278,761.778 444.889,777.278 z" id="boundary" inkscape:connector-curvature="0" />
	<path style="fill:none;stroke:red;stroke-width:1px;stroke-linecap:butt;stroke-linejoin:miter;stroke-opacity:1" d="M 444.889,777.278 453.5,792.778 z" id="boundary" inkscape:connector-curvature="0" />
	<path style="fill:none;stroke:red;stroke-width:1px;stroke-linecap:butt;stroke-linejoin:miter;stroke-opacity:1" d="M 453.5,792.778 470.722,796.222 z" id="boundary" inkscape:connector-curvature="0" />
	<path style="fill:none;stroke:red;stroke-width:1px;stroke-linecap:butt;stroke-linejoin:miter;stroke-opacity:1" d="M 470.722,796.222 487.944,796.222 z" id="boundary" inkscape:connector-curvature="0" />
	<path style="fill:none;stroke:red;stroke-width:1px;stroke-linecap:butt;stroke-linejoin:miter;stroke-opacity:1" d="M 487.944,796.222 505.167,796.222 z" id="boundary" inkscape:connector-curvature="0" />
	<path style="fill:none;stroke:red;stroke-width:1px;stroke-linecap:butt;stroke-linejoin:miter;stroke-opacity:1" d="M 505.167,796.222 522.389,791.056 z" id="boundary" inkscape:connector-curvature="0" />
	<path style="fill:none;stroke:red;stroke-width:1px;stroke-linecap:butt;stroke-linejoin:miter;stroke-opacity:1" d="M 522.389,791.056 539.611,791.056 z" id="boundary" inkscape:connector-curvature="0" />
	<path style="fill:none;stroke:red;stroke-width:1px;stroke-linecap:butt;stroke-linejoin:miter;stroke-opacity:1" d="M 539.611,791.056 556.833,787.611 z" id="boundary" inkscape:connector-curvature="0" />
	<path style="fill:none;stroke:red;stroke-width:1px;stroke-linecap:butt;stroke-linejoin:miter;stroke-opacity:1" d="M 556.833,787.611 572.333,796.222 z" id="boundary" inkscape:connector-curvature="0" />
	<path style="fill:none;stroke:red;stroke-width:1px;stroke-linecap:butt;stroke-linejoin:miter;stroke-opacity:1" d="M 572.333,796.222 589.556,792.778 z" id="boundary" inkscape:connector-curvature="0" />
	<path style="fill:none;stroke:red;stroke-width:1px;stroke-linecap:butt;stroke-linejoin:miter;stroke-opacity:1" d="M 589.556,792.778 603.333,779 z" id="boundary" inkscape:connector-curvature="0" />
	<path style="fill:none;stroke:red;stroke-width:1px;stroke-linecap:butt;stroke-linejoin:miter;stroke-opacity:1" d="M 603.333,779 618.833,770.389 z" id="boundary" inkscape:connector-curvature="0" />
	<path style="fill:none;stroke:red;stroke-width:1px;stroke-linecap:butt;stroke-linejoin:miter;stroke-opacity:1" d="M 618.833,770.389 632.611,749.722 z" id="boundary" inkscape:connector-curvature="0" />
	<path style="fill:none;stroke:red;stroke-width:1px;stroke-linecap:butt;stroke-linejoin:miter;stroke-opacity:1" d="M 632.611,749.722 632.611,732.5 z" id="boundary" inkscape:connector-curvature="0" />
	<path style="fill:none;stroke:red;stroke-width:1px;stroke-linecap:butt;stroke-linejoin:miter;stroke-opacity:1" d="M 632.611,732.5 649.833,715.278 z" id="boundary" inkscape:connector-curvature="0" />
	<path style="fill:none;stroke:red;stroke-width:1px;stroke-linecap:butt;stroke-linejoin:miter;stroke-opacity:1" d="M 649.833,715.278 649.833,698.056 z" id="boundary" inkscape:connector-curvature="0" />
	<path style="fill:none;stroke:red;stroke-width:1px;stroke-linecap:butt;stroke-linejoin:miter;stroke-opacity:1" d="M 649.833,698.056 658.444,680.833 z" id="boundary" inkscape:connector-curvature="0" />
	<circle cx="4" cy="947.778" r="4" fill="#0" id="circle0"/>
	<circle cx="4" cy="965" r="4" fill="#0" id="circle1"/>
	<circle cx="17.7778" cy="977.056" r="4" fill="#0" id="circle2"/>
	<circle cx="21.2222" cy="942.611" r="4" fill="#0" id="circle3"/>
	<circle cx="31.5556" cy="928.833" r="4" fill="#0" id="circle4"/>
	<circle cx="35" cy="970.167" r="4" fill="#0" id="circle5"/>
	<circle cx="48.7778" cy="925.389" r="4" fill="#0" id="circle6"/>
	<circle cx="52.2222" cy="970.167" r="4" fill="#0" id="circle7"/>
	<circle cx="66" cy="925.389" r="4" fill="#0" id="circle8"/>
	<circle cx="69.4444" cy="970.167" r="4" fill="#0" id="circle9"/>
	<circle cx="72.8889" cy="603.333" r="4" fill="#0" id="circle10"/>
	<circle cx="81.5" cy="568.889" r="4" fill="#0" id="circle11"/>
	<circle cx="81.5" cy="586.111" r="4" fill="#0" id="circle12"/>
	<circle cx="83.2222" cy="617.111" r="4" fill="#0" id="circle13"/>
	<circle cx="83.2222" cy="925.389" r="4" fill="#0" id="circle14"/>
	<circle cx="86.6667" cy="977.056" r="4" fill="#0" id="circle15"/>
	<circle cx="90.1111" cy="551.667" r="4" fill="#0" id="circle16"/>
	<circle cx="98.7222" cy="508.611" r="4" fill="#0" id="circle17"/>
	<circle cx="98.7222" cy="525.833" r="4" fill="#0" id="circle18"/>
	<circle cx="98.7222" cy="608.5" r="4" fill="#0" id="circle19"/>
	<circle cx="100.444" cy="925.389" r="4" fill="#0" id="circle20"/>
	<circle cx="103.889" cy="977.056" r="4" fill="#0" id="circle21"/>
	<circle cx="114.222" cy="599.889" r="4" fill="#0" id="circle22"/>
	<circle cx="115.944" cy="465.556" r="4" fill="#0" id="circle23"/>
	<circle cx="115.944" cy="482.778" r="4" fill="#0" id="circle24"/>
	<circle cx="115.944" cy="500" r="4" fill="#0" id="circle25"/>
	<circle cx="117.667" cy="925.389" r="4" fill="#0" id="circle26"/>
	<circle cx="121.111" cy="977.056" r="4" fill="#0" id="circle27"/>
	<circle cx="124.556" cy="448.333" r="4" fill="#0" id="circle28"/>
	<circle cx="131.444" cy="596.444" r="4" fill="#0" id="circle29"/>
	<circle cx="133.167" cy="431.111" r="4" fill="#0" id="circle30"/>
	<circle cx="133.167" cy="934" r="4" fill="#0" id="circle31"/>
	<circle cx="134.889" cy="987.389" r="4" fill="#0" id="circle32"/>
	<circle cx="141.778" cy="413.889" r="4" fill="#0" id="circle33"/>
	<circle cx="148.667" cy="591.278" r="4" fill="#0" id="circle34"/>
	<circle cx="150.389" cy="396.667" r="4" fill="#0" id="circle35"/>
	<circle cx="150.389" cy="937.444" r="4" fill="#0" id="circle36"/>
	<circle cx="152.111" cy="987.389" r="4" fill="#0" id="circle37"/>
	<circle cx="159" cy="138.333" r="4" fill="#0" id="circle38"/>
	<circle cx="159" cy="155.556" r="4" fill="#0" id="circle39"/>
	<circle cx="159" cy="172.778" r="4" fill="#0" id="circle40"/>
	<circle cx="159" cy="190" r="4" fill="#0" id="circle41"/>
	<circle cx="159" cy="207.222" r="4" fill="#0" id="circle42"/>
	<circle cx="159" cy="224.444" r="4" fill="#0" id="circle43"/>
	<circle cx="159" cy="379.444" r="4" fill="#0" id="circle44"/>
	<circle cx="160.722" cy="951.222" r="4" fill="#0" id="circle45"/>
	<circle cx="165.889" cy="591.278" r="4" fill="#0" id="circle46"/>
	<circle cx="167.611" cy="239.944" r="4" fill="#0" id="circle47"/>
	<circle cx="167.611" cy="353.611" r="4" fill="#0" id="circle48"/>
	<circle cx="169.333" cy="987.389" r="4" fill="#0" id="circle49"/>
	<circle cx="172.778" cy="124.556" r="4" fill="#0" id="circle50"/>
	<circle cx="176.222" cy="95.2778" r="4" fill="#0" id="circle51"/>
	<circle cx="176.222" cy="255.444" r="4" fill="#0" id="circle52"/>
	<circle cx="176.222" cy="336.389" r="4" fill="#0" id="circle53"/>
	<circle cx="177.944" cy="951.222" r="4" fill="#0" id="circle54"/>
	<circle cx="181.389" cy="272.667" r="4" fill="#0" id="circle55"/>
	<circle cx="181.389" cy="582.667" r="4" fill="#0" id="circle56"/>
	<circle cx="184.833" cy="878.889" r="4" fill="#0" id="circle57"/>
	<circle cx="184.833" cy="896.111" r="4" fill="#0" id="circle58"/>
	<circle cx="186.556" cy="987.389" r="4" fill="#0" id="circle59"/>
	<circle cx="190" cy="81.5" r="4" fill="#0" id="circle60"/>
	<circle cx="190" cy="322.611" r="4" fill="#0" id="circle61"/>
	<circle cx="193.444" cy="286.444" r="4" fill="#0" id="circle62"/>
	<circle cx="193.444" cy="861.667" r="4" fill="#0" id="circle63"/>
	<circle cx="195.167" cy="956.389" r="4" fill="#0" id="circle64"/>
	<circle cx="198.611" cy="580.944" r="4" fill="#0" id="circle65"/>
	<circle cx="198.611" cy="908.167" r="4" fill="#0" id="circle66"/>
	<circle cx="202.056" cy="301.944" r="4" fill="#0" id="circle67"/>
	<circle cx="202.056" cy="749.722" r="4" fill="#0" id="circle68"/>
	<circle cx="202.056" cy="766.944" r="4" fill="#0" id="circle69"/>
	<circle cx="202.056" cy="784.167" r="4" fill="#0" id="circle70"/>
	<circle cx="202.056" cy="801.389" r="4" fill="#0" id="circle71"/>
	<circle cx="202.056" cy="818.611" r="4" fill="#0" id="circle72"/>
	<circle cx="202.056" cy="835.833" r="4" fill="#0" id="circle73"/>
	<circle cx="203.778" cy="67.7222" r="4" fill="#0" id="circle74"/>
	<circle cx="203.778" cy="987.389" r="4" fill="#0" id="circle75"/>
	<circle cx="210.667" cy="715.278" r="4" fill="#0" id="circle76"/>
	<circle cx="210.667" cy="732.5" r="4" fill="#0" id="circle77"/>
	<circle cx="210.667" cy="921.944" r="4" fill="#0" id="circle78"/>
	<circle cx="210.667" cy="939.167" r="4" fill="#0" id="circle79"/>
	<circle cx="215.833" cy="574.056" r="4" fill="#0" id="circle80"/>
	<circle cx="217.556" cy="55.6667" r="4" fill="#0" id="circle81"/>
	<circle cx="221" cy="987.389" r="4" fill="#0" id="circle82"/>
	<circle cx="224.444" cy="38.4444" r="4" fill="#0" id="circle83"/>
	<circle cx="224.444" cy="701.5" r="4" fill="#0" id="circle84"/>
	<circle cx="224.444" cy="951.222" r="4" fill="#0" id="circle85"/>
	<circle cx="227.889" cy="680.833" r="4" fill="#0" id="circle86"/>
	<circle cx="233.056" cy="574.056" r="4" fill="#0" id="circle87"/>
	<circle cx="236.5" cy="663.611" r="4" fill="#0" id="circle88"/>
	<circle cx="238.222" cy="987.389" r="4" fill="#0" id="circle89"/>
	<circle cx="241.667" cy="29.8333" r="4" fill="#0" id="circle90"/>
	<circle cx="245.111" cy="646.389" r="4" fill="#0" id="circle91"/>
	<circle cx="250.278" cy="574.056" r="4" fill="#0" id="circle92"/>
	<circle cx="253.722" cy="629.167" r="4" fill="#0" id="circle93"/>
	<circle cx="255.444" cy="978.778" r="4" fill="#0" id="circle94"/>
	<circle cx="258.889" cy="29.8333" r="4" fill="#0" id="circle95"/>
	<circle cx="262.333" cy="594.722" r="4" fill="#0" id="circle96"/>
	<circle cx="262.333" cy="611.944" r="4" fill="#0" id="circle97"/>
	<circle cx="264.056" cy="866.833" r="4" fill="#0" id="circle98"/>
	<circle cx="264.056" cy="884.056" r="4" fill="#0" id="circle99"/>
	<circle cx="264.056" cy="901.278" r="4" fill="#0" id="circle100"/>
	<circle cx="264.056" cy="918.5" r="4" fill="#0" id="circle101"/>
	<circle cx="264.056" cy="935.722" r="4" fill="#0" id="circle102"/>
	<circle cx="264.056" cy="952.944" r="4" fill="#0" id="circle103"/>
	<circle cx="267.5" cy="12.6111" r="4" fill="#0" id="circle104"/>
	<circle cx="267.5" cy="574.056" r="4" fill="#0" id="circle105"/>
	<circle cx="281.278" cy="866.833" r="4" fill="#0" id="circle106"/>
	<circle cx="284.722" cy="12.6111" r="4" fill="#0" id="circle107"/>
	<circle cx="298.5" cy="866.833" r="4" fill="#0" id="circle108"/>
	<circle cx="301.944" cy="12.6111" r="4" fill="#0" id="circle109"/>
	<circle cx="315.722" cy="866.833" r="4" fill="#0" id="circle110"/>
	<circle cx="317.444" cy="4" r="4" fill="#0" id="circle111"/>
	<circle cx="332.944" cy="866.833" r="4" fill="#0" id="circle112"/>
	<circle cx="334.667" cy="4" r="4" fill="#0" id="circle113"/>
	<circle cx="350.167" cy="12.6111" r="4" fill="#0" id="circle114"/>
	<circle cx="350.167" cy="866.833" r="4" fill="#0" id="circle115"/>
	<circle cx="357.056" cy="947.778" r="4" fill="#0" id="circle116"/>
	<circle cx="357.056" cy="965" r="4" fill="#0" id="circle117"/>
	<circle cx="357.056" cy="982.222" r="4" fill="#0" id="circle118"/>
	<circle cx="365.667" cy="875.444" r="4" fill="#0" id="circle119"/>
	<circle cx="367.389" cy="17.7778" r="4" fill="#0" id="circle120"/>
	<circle cx="370.833" cy="934" r="4" fill="#0" id="circle121"/>
	<circle cx="374.278" cy="890.944" r="4" fill="#0" id="circle122"/>
	<circle cx="374.278" cy="908.167" r="4" fill="#0" id="circle123"/>
	<circle cx="374.278" cy="987.389" r="4" fill="#0" id="circle124"/>
	<circle cx="379.444" cy="31.5556" r="4" fill="#0" id="circle125"/>
	<circle cx="384.611" cy="221" r="4" fill="#0" id="circle126"/>
	<circle cx="391.5" cy="987.389" r="4" fill="#0" id="circle127"/>
	<circle cx="393.222" cy="43.6111" r="4" fill="#0" id="circle128"/>
	<circle cx="393.222" cy="66" r="4" fill="#0" id="circle129"/>
	<circle cx="393.222" cy="195.167" r="4" fill="#0" id="circle130"/>
	<circle cx="393.222" cy="496.556" r="4" fill="#0" id="circle131"/>
	<circle cx="401.833" cy="81.5" r="4" fill="#0" id="circle132"/>
	<circle cx="401.833" cy="169.333" r="4" fill="#0" id="circle133"/>
	<circle cx="401.833" cy="227.889" r="4" fill="#0" id="circle134"/>
	<circle cx="401.833" cy="512.056" r="4" fill="#0" id="circle135"/>
	<circle cx="408.722" cy="487.944" r="4" fill="#0" id="circle136"/>
	<circle cx="408.722" cy="987.389" r="4" fill="#0" id="circle137"/>
	<circle cx="410.444" cy="97" r="4" fill="#0" id="circle138"/>
	<circle cx="410.444" cy="152.111" r="4" fill="#0" id="circle139"/>
	<circle cx="410.444" cy="858.222" r="4" fill="#0" id="circle140"/>
	<circle cx="410.444" cy="875.444" r="4" fill="#0" id="circle141"/>
	<circle cx="410.444" cy="892.667" r="4" fill="#0" id="circle142"/>
	<circle cx="410.444" cy="909.889" r="4" fill="#0" id="circle143"/>
	<circle cx="410.444" cy="927.111" r="4" fill="#0" id="circle144"/>
	<circle cx="419.056" cy="126.278" r="4" fill="#0" id="circle145"/>
	<circle cx="419.056" cy="227.889" r="4" fill="#0" id="circle146"/>
	<circle cx="419.056" cy="508.611" r="4" fill="#0" id="circle147"/>
	<circle cx="419.056" cy="582.667" r="4" fill="#0" id="circle148"/>
	<circle cx="419.056" cy="599.889" r="4" fill="#0" id="circle149"/>
	<circle cx="419.056" cy="617.111" r="4" fill="#0" id="circle150"/>
	<circle cx="419.056" cy="634.333" r="4" fill="#0" id="circle151"/>
	<circle cx="419.056" cy="651.556" r="4" fill="#0" id="circle152"/>
	<circle cx="419.056" cy="668.778" r="4" fill="#0" id="circle153"/>
	<circle cx="419.056" cy="686" r="4" fill="#0" id="circle154"/>
	<circle cx="419.056" cy="711.833" r="4" fill="#0" id="circle155"/>
	<circle cx="422.5" cy="477.611" r="4" fill="#0" id="circle156"/>
	<circle cx="424.222" cy="937.444" r="4" fill="#0" id="circle157"/>
	<circle cx="425.944" cy="987.389" r="4" fill="#0" id="circle158"/>
	<circle cx="427.667" cy="103.889" r="4" fill="#0" id="circle159"/>
	<circle cx="427.667" cy="727.333" r="4" fill="#0" id="circle160"/>
	<circle cx="427.667" cy="746.278" r="4" fill="#0" id="circle161"/>
	<circle cx="427.667" cy="841" r="4" fill="#0" id="circle162"/>
	<circle cx="432.833" cy="520.667" r="4" fill="#0" id="circle163"/>
	<circle cx="434.556" cy="591.278" r="4" fill="#0" id="circle164"/>
	<circle cx="436.278" cy="227.889" r="4" fill="#0" id="circle165"/>
	<circle cx="436.278" cy="462.111" r="4" fill="#0" id="circle166"/>
	<circle cx="436.278" cy="761.778" r="4" fill="#0" id="circle167"/>
	<circle cx="441.444" cy="942.611" r="4" fill="#0" id="circle168"/>
	<circle cx="443.167" cy="987.389" r="4" fill="#0" id="circle169"/>
	<circle cx="444.889" cy="777.278" r="4" fill="#0" id="circle170"/>
	<circle cx="444.889" cy="841" r="4" fill="#0" id="circle171"/>
	<circle cx="448.333" cy="529.278" r="4" fill="#0" id="circle172"/>
	<circle cx="451.778" cy="591.278" r="4" fill="#0" id="circle173"/>
	<circle cx="453.5" cy="227.889" r="4" fill="#0" id="circle174"/>
	<circle cx="453.5" cy="462.111" r="4" fill="#0" id="circle175"/>
	<circle cx="453.5" cy="792.778" r="4" fill="#0" id="circle176"/>
	<circle cx="458.667" cy="942.611" r="4" fill="#0" id="circle177"/>
	<circle cx="460.389" cy="987.389" r="4" fill="#0" id="circle178"/>
	<circle cx="462.111" cy="841" r="4" fill="#0" id="circle179"/>
	<circle cx="463.833" cy="537.889" r="4" fill="#0" id="circle180"/>
	<circle cx="467.278" cy="450.056" r="4" fill="#0" id="circle181"/>
	<circle cx="469" cy="190" r="4" fill="#0" id="circle182"/>
	<circle cx="469" cy="215.833" r="4" fill="#0" id="circle183"/>
	<circle cx="469" cy="591.278" r="4" fill="#0" id="circle184"/>
	<circle cx="470.722" cy="796.222" r="4" fill="#0" id="circle185"/>
	<circle cx="474.167" cy="608.5" r="4" fill="#0" id="circle186"/>
	<circle cx="475.889" cy="942.611" r="4" fill="#0" id="circle187"/>
	<circle cx="477.611" cy="629.167" r="4" fill="#0" id="circle188"/>
	<circle cx="477.611" cy="987.389" r="4" fill="#0" id="circle189"/>
	<circle cx="479.333" cy="546.5" r="4" fill="#0" id="circle190"/>
	<circle cx="479.333" cy="841" r="4" fill="#0" id="circle191"/>
	<circle cx="482.778" cy="176.222" r="4" fill="#0" id="circle192"/>
	<circle cx="484.5" cy="441.444" r="4" fill="#0" id="circle193"/>
	<circle cx="486.222" cy="129.722" r="4" fill="#0" id="circle194"/>
	<circle cx="486.222" cy="146.944" r="4" fill="#0" id="circle195"/>
	<circle cx="487.944" cy="796.222" r="4" fill="#0" id="circle196"/>
	<circle cx="493.111" cy="942.611" r="4" fill="#0" id="circle197"/>
	<circle cx="494.833" cy="634.333" r="4" fill="#0" id="circle198"/>
	<circle cx="494.833" cy="651.556" r="4" fill="#0" id="circle199"/>
	<circle cx="494.833" cy="987.389" r="4" fill="#0" id="circle200"/>
	<circle cx="496.556" cy="419.056" r="4" fill="#0" id="circle201"/>
	<circle cx="496.556" cy="551.667" r="4" fill="#0" id="circle202"/>
	<circle cx="496.556" cy="844.444" r="4" fill="#0" id="circle203"/>
	<circle cx="503.444" cy="121.111" r="4" fill="#0" id="circle204"/>
	<circle cx="505.167" cy="567.167" r="4" fill="#0" id="circle205"/>
	<circle cx="505.167" cy="796.222" r="4" fill="#0" id="circle206"/>
	<circle cx="508.611" cy="858.222" r="4" fill="#0" id="circle207"/>
	<circle cx="510.333" cy="660.167" r="4" fill="#0" id="circle208"/>
	<circle cx="510.333" cy="942.611" r="4" fill="#0" id="circle209"/>
	<circle cx="512.056" cy="103.889" r="4" fill="#0" id="circle210"/>
	<circle cx="512.056" cy="987.389" r="4" fill="#0" id="circle211"/>
	<circle cx="513.778" cy="410.444" r="4" fill="#0" id="circle212"/>
	<circle cx="520.667" cy="575.778" r="4" fill="#0" id="circle213"/>
	<circle cx="522.389" cy="791.056" r="4" fill="#0" id="circle214"/>
	<circle cx="524.111" cy="849.611" r="4" fill="#0" id="circle215"/>
	<circle cx="525.833" cy="668.778" r="4" fill="#0" id="circle216"/>
	<circle cx="527.556" cy="942.611" r="4" fill="#0" id="circle217"/>
	<circle cx="529.278" cy="98.7222" r="4" fill="#0" id="circle218"/>
	<circle cx="529.278" cy="987.389" r="4" fill="#0" id="circle219"/>
	<circle cx="531" cy="410.444" r="4" fill="#0" id="circle220"/>
	<circle cx="531" cy="589.556" r="4" fill="#0" id="circle221"/>
	<circle cx="539.611" cy="680.833" r="4" fill="#0" id="circle222"/>
	<circle cx="539.611" cy="791.056" r="4" fill="#0" id="circle223"/>
	<circle cx="541.333" cy="854.778" r="4" fill="#0" id="circle224"/>
	<circle cx="544.778" cy="942.611" r="4" fill="#0" id="circle225"/>
	<circle cx="544.778" cy="996" r="4" fill="#0" id="circle226"/>
	<circle cx="546.5" cy="98.7222" r="4" fill="#0" id="circle227"/>
	<circle cx="548.222" cy="410.444" r="4" fill="#0" id="circle228"/>
	<circle cx="548.222" cy="589.556" r="4" fill="#0" id="circle229"/>
	<circle cx="551.667" cy="667.056" r="4" fill="#0" id="circle230"/>
	<circle cx="556.833" cy="787.611" r="4" fill="#0" id="circle231"/>
	<circle cx="558.556" cy="858.222" r="4" fill="#0" id="circle232"/>
	<circle cx="560.278" cy="651.556" r="4" fill="#0" id="circle233"/>
	<circle cx="562" cy="944.333" r="4" fill="#0" id="circle234"/>
	<circle cx="562" cy="996" r="4" fill="#0" id="circle235"/>
	<circle cx="563.722" cy="98.7222" r="4" fill="#0" id="circle236"/>
	<circle cx="565.444" cy="410.444" r="4" fill="#0" id="circle237"/>
	<circle cx="565.444" cy="589.556" r="4" fill="#0" id="circle238"/>
	<circle cx="572.333" cy="796.222" r="4" fill="#0" id="circle239"/>
	<circle cx="575.778" cy="858.222" r="4" fill="#0" id="circle240"/>
	<circle cx="577.5" cy="651.556" r="4" fill="#0" id="circle241"/>
	<circle cx="579.222" cy="951.222" r="4" fill="#0" id="circle242"/>
	<circle cx="579.222" cy="996" r="4" fill="#0" id="circle243"/>
	<circle cx="580.944" cy="98.7222" r="4" fill="#0" id="circle244"/>
	<circle cx="582.667" cy="410.444" r="4" fill="#0" id="circle245"/>
	<circle cx="582.667" cy="589.556" r="4" fill="#0" id="circle246"/>
	<circle cx="589.556" cy="792.778" r="4" fill="#0" id="circle247"/>
	<circle cx="591.278" cy="978.778" r="4" fill="#0" id="circle248"/>
	<circle cx="593" cy="863.389" r="4" fill="#0" id="circle249"/>
	<circle cx="594.722" cy="649.833" r="4" fill="#0" id="circle250"/>
	<circle cx="594.722" cy="959.833" r="4" fill="#0" id="circle251"/>
	<circle cx="596.444" cy="599.889" r="4" fill="#0" id="circle252"/>
	<circle cx="598.167" cy="98.7222" r="4" fill="#0" id="circle253"/>
	<circle cx="599.889" cy="410.444" r="4" fill="#0" id="circle254"/>
	<circle cx="603.333" cy="779" r="4" fill="#0" id="circle255"/>
	<circle cx="608.5" cy="613.667" r="4" fill="#0" id="circle256"/>
	<circle cx="610.222" cy="858.222" r="4" fill="#0" id="circle257"/>
	<circle cx="611.944" cy="641.222" r="4" fill="#0" id="circle258"/>
	<circle cx="613.667" cy="398.389" r="4" fill="#0" id="circle259"/>
	<circle cx="615.389" cy="98.7222" r="4" fill="#0" id="circle260"/>
	<circle cx="618.833" cy="770.389" r="4" fill="#0" id="circle261"/>
	<circle cx="627.444" cy="858.222" r="4" fill="#0" id="circle262"/>
	<circle cx="630.889" cy="393.222" r="4" fill="#0" id="circle263"/>
	<circle cx="632.611" cy="102.167" r="4" fill="#0" id="circle264"/>
	<circle cx="632.611" cy="732.5" r="4" fill="#0" id="circle265"/>
	<circle cx="632.611" cy="749.722" r="4" fill="#0" id="circle266"/>
	<circle cx="641.222" cy="844.444" r="4" fill="#0" id="circle267"/>
	<circle cx="648.111" cy="389.778" r="4" fill="#0" id="circle268"/>
	<circle cx="649.833" cy="107.333" r="4" fill="#0" id="circle269"/>
	<circle cx="649.833" cy="698.056" r="4" fill="#0" id="circle270"/>
	<circle cx="649.833" cy="715.278" r="4" fill="#0" id="circle271"/>
	<circle cx="651.556" cy="823.778" r="4" fill="#0" id="circle272"/>
	<circle cx="658.444" cy="680.833" r="4" fill="#0" id="circle273"/>
	<circle cx="660.167" cy="376" r="4" fill="#0" id="circle274"/>
	<circle cx="660.167" cy="806.556" r="4" fill="#0" id="circle275"/>
	<circle cx="667.056" cy="102.167" r="4" fill="#0" id="circle276"/>
	<circle cx="668.778" cy="737.667" r="4" fill="#0" id="circle277"/>
	<circle cx="668.778" cy="754.889" r="4" fill="#0" id="circle278"/>
	<circle cx="668.778" cy="772.111" r="4" fill="#0" id="circle279"/>
	<circle cx="668.778" cy="789.333" r="4" fill="#0" id="circle280"/>
	<circle cx="672.222" cy="667.056" r="4" fill="#0" id="circle281"/>
	<circle cx="677.389" cy="115.944" r="4" fill="#0" id="circle282"/>
	<circle cx="677.389" cy="367.389" r="4" fill="#0" id="circle283"/>
	<circle cx="677.389" cy="720.444" r="4" fill="#0" id="circle284"/>
	<circle cx="680.833" cy="649.833" r="4" fill="#0" id="circle285"/>
	<circle cx="689.444" cy="632.611" r="4" fill="#0" id="circle286"/>
	<circle cx="691.167" cy="355.333" r="4" fill="#0" id="circle287"/>
	<circle cx="691.167" cy="708.389" r="4" fill="#0" id="circle288"/>
	<circle cx="694.611" cy="121.111" r="4" fill="#0" id="circle289"/>
	<circle cx="694.611" cy="677.389" r="4" fill="#0" id="circle290"/>
	<circle cx="698.056" cy="615.389" r="4" fill="#0" id="circle291"/>
	<circle cx="701.5" cy="577.5" r="4" fill="#0" id="circle292"/>
	<circle cx="701.5" cy="594.722" r="4" fill="#0" id="circle293"/>
	<circle cx="703.222" cy="332.944" r="4" fill="#0" id="circle294"/>
	<circle cx="703.222" cy="651.556" r="4" fill="#0" id="circle295"/>
	<circle cx="710.111" cy="560.278" r="4" fill="#0" id="circle296"/>
	<circle cx="711.833" cy="124.556" r="4" fill="#0" id="circle297"/>
	<circle cx="711.833" cy="315.722" r="4" fill="#0" id="circle298"/>
	<circle cx="717" cy="639.5" r="4" fill="#0" id="circle299"/>
	<circle cx="720.444" cy="140.056" r="4" fill="#0" id="circle300"/>
	<circle cx="720.444" cy="264.056" r="4" fill="#0" id="circle301"/>
	<circle cx="720.444" cy="289.889" r="4" fill="#0" id="circle302"/>
	<circle cx="720.444" cy="591.278" r="4" fill="#0" id="circle303"/>
	<circle cx="720.444" cy="608.5" r="4" fill="#0" id="circle304"/>
	<circle cx="723.889" cy="546.5" r="4" fill="#0" id="circle305"/>
	<circle cx="729.056" cy="155.556" r="4" fill="#0" id="circle306"/>
	<circle cx="729.056" cy="172.778" r="4" fill="#0" id="circle307"/>
	<circle cx="729.056" cy="246.833" r="4" fill="#0" id="circle308"/>
	<circle cx="729.056" cy="574.056" r="4" fill="#0" id="circle309"/>
	<circle cx="737.667" cy="188.278" r="4" fill="#0" id="circle310"/>
	<circle cx="737.667" cy="205.5" r="4" fill="#0" id="circle311"/>
	<circle cx="737.667" cy="222.722" r="4" fill="#0" id="circle312"/>
	<circle cx="737.667" cy="532.722" r="4" fill="#0" id="circle313"/>
	<circle cx="746.278" cy="556.833" r="4" fill="#0" id="circle314"/>
	<circle cx="754.889" cy="529.278" r="4" fill="#0" id="circle315"/>
	<circle cx="763.5" cy="556.833" r="4" fill="#0" id="circle316"/>
	<circle cx="772.111" cy="529.278" r="4" fill="#0" id="circle317"/>
	<circle cx="779" cy="548.222" r="4" fill="#0" id="circle318"/>
	<circle cx="789.333" cy="529.278" r="4" fill="#0" id="circle319"/>
	<circle cx="796.222" cy="548.222" r="4" fill="#0" id="circle320"/>
	</g>
</svg>