<?xml version="1.0" encoding="UTF-8" standalone="no"?>
<!-- Created with CurveBenchmark -->
<svg
	xmlns:dc="http://purl.org/dc/elements/1.1/"
	xmlns:cc="http://creativecommons.org/ns#"
	xmlns:rdf="http://www.w3.org/1999/02/22-rdf-syntax-ns#"
	xmlns:svg="http://www.w3.org/2000/svg"
	xmlns="http://www.w3.org/2000/svg"
	xmlns:sodipodi="http://sodipodi.sourceforge.net/DTD/sodipodi-0.dtd"
	xmlns:inkscape="http://www.inkscape.org/namespaces/inkscape"
	width="1000"
	height="1000"
	id="svg2"
	version="1.1"
	sodipodi:docname="manifold/crawl-Glas11.png.txt">
<defs
	id="defs4" />
<metadata
	id="metadata7">
	<rdf:RDF>
		<cc:Work
			rdf:about="">
			<dc:format>image/svg+xml</dc:format>
			<dc:type
				rdf:resource="http://purl.org/dc/dcmitype/StillImage" />
			<dc:title></dc:title>
		</cc:Work>
	</rdf:RDF>
</metadata>
<g
	inkscape:label="Layer 1"
	inkscape:groupmode="layer"
	id="layer1">
	<path style="fill:none;stroke:red;stroke-width:1px;stroke-linecap:butt;stroke-linejoin:miter;stroke-opacity:1" d="M 47.8938,4 25.9469,4 z" id="boundary" inkscape:connector-curvature="0" />
	<path style="fill:none;stroke:red;stroke-width:1px;stroke-linecap:butt;stroke-linejoin:miter;stroke-opacity:1" d="M 47.8938,4 69.8407,4 z" id="boundary" inkscape:connector-curvature="0" />
	<path style="fill:none;stroke:red;stroke-width:1px;stroke-linecap:butt;stroke-linejoin:miter;stroke-opacity:1" d="M 69.8407,4 91.7876,4 z" id="boundary" inkscape:connector-curvature="0" />
	<path style="fill:none;stroke:red;stroke-width:1px;stroke-linecap:butt;stroke-linejoin:miter;stroke-opacity:1" d="M 91.7876,4 113.735,4 z" id="boundary" inkscape:connector-curvature="0" />
	<path style="fill:none;stroke:red;stroke-width:1px;stroke-linecap:butt;stroke-linejoin:miter;stroke-opacity:1" d="M 113.735,4 135.681,4 z" id="boundary" inkscape:connector-curvature="0" />
	<path style="fill:none;stroke:red;stroke-width:1px;stroke-linecap:butt;stroke-linejoin:miter;stroke-opacity:1" d="M 135.681,4 157.628,4 z" id="boundary" inkscape:connector-curvature="0" />
	<path style="fill:none;stroke:red;stroke-width:1px;stroke-linecap:butt;stroke-linejoin:miter;stroke-opacity:1" d="M 157.628,4 179.575,4 z" id="boundary" inkscape:connector-curvature="0" />
	<path style="fill:none;stroke:red;stroke-width:1px;stroke-linecap:butt;stroke-linejoin:miter;stroke-opacity:1" d="M 179.575,4 201.522,4 z" id="boundary" inkscape:connector-curvature="0" />
	<path style="fill:none;stroke:red;stroke-width:1px;stroke-linecap:butt;stroke-linejoin:miter;stroke-opacity:1" d="M 201.522,4 223.469,4 z" id="boundary" inkscape:connector-curvature="0" />
	<path style="fill:none;stroke:red;stroke-width:1px;stroke-linecap:butt;stroke-linejoin:miter;stroke-opacity:1" d="M 223.469,4 245.416,4 z" id="boundary" inkscape:connector-curvature="0" />
	<path style="fill:none;stroke:red;stroke-width:1px;stroke-linecap:butt;stroke-linejoin:miter;stroke-opacity:1" d="M 245.416,4 267.363,4 z" id="boundary" inkscape:connector-curvature="0" />
	<path style="fill:none;stroke:red;stroke-width:1px;stroke-linecap:butt;stroke-linejoin:miter;stroke-opacity:1" d="M 267.363,4 289.31,4 z" id="boundary" inkscape:connector-curvature="0" />
	<path style="fill:none;stroke:red;stroke-width:1px;stroke-linecap:butt;stroke-linejoin:miter;stroke-opacity:1" d="M 289.31,4 311.257,4 z" id="boundary" inkscape:connector-curvature="0" />
	<path style="fill:none;stroke:red;stroke-width:1px;stroke-linecap:butt;stroke-linejoin:miter;stroke-opacity:1" d="M 311.257,4 333.204,4 z" id="boundary" inkscape:connector-curvature="0" />
	<path style="fill:none;stroke:red;stroke-width:1px;stroke-linecap:butt;stroke-linejoin:miter;stroke-opacity:1" d="M 333.204,4 355.15,4 z" id="boundary" inkscape:connector-curvature="0" />
	<path style="fill:none;stroke:red;stroke-width:1px;stroke-linecap:butt;stroke-linejoin:miter;stroke-opacity:1" d="M 355.15,4 377.097,4 z" id="boundary" inkscape:connector-curvature="0" />
	<path style="fill:none;stroke:red;stroke-width:1px;stroke-linecap:butt;stroke-linejoin:miter;stroke-opacity:1" d="M 377.097,4 399.044,4 z" id="boundary" inkscape:connector-curvature="0" />
	<path style="fill:none;stroke:red;stroke-width:1px;stroke-linecap:butt;stroke-linejoin:miter;stroke-opacity:1" d="M 399.044,4 420.991,4 z" id="boundary" inkscape:connector-curvature="0" />
	<path style="fill:none;stroke:red;stroke-width:1px;stroke-linecap:butt;stroke-linejoin:miter;stroke-opacity:1" d="M 420.991,4 442.938,4 z" id="boundary" inkscape:connector-curvature="0" />
	<path style="fill:none;stroke:red;stroke-width:1px;stroke-linecap:butt;stroke-linejoin:miter;stroke-opacity:1" d="M 442.938,4 464.885,4 z" id="boundary" inkscape:connector-curvature="0" />
	<path style="fill:none;stroke:red;stroke-width:1px;stroke-linecap:butt;stroke-linejoin:miter;stroke-opacity:1" d="M 464.885,4 486.832,4 z" id="boundary" inkscape:connector-curvature="0" />
	<path style="fill:none;stroke:red;stroke-width:1px;stroke-linecap:butt;stroke-linejoin:miter;stroke-opacity:1" d="M 486.832,4 508.779,4 z" id="boundary" inkscape:connector-curvature="0" />
	<path style="fill:none;stroke:red;stroke-width:1px;stroke-linecap:butt;stroke-linejoin:miter;stroke-opacity:1" d="M 508.779,4 530.726,4 z" id="boundary" inkscape:connector-curvature="0" />
	<path style="fill:none;stroke:red;stroke-width:1px;stroke-linecap:butt;stroke-linejoin:miter;stroke-opacity:1" d="M 530.726,4 552.673,4 z" id="boundary" inkscape:connector-curvature="0" />
	<path style="fill:none;stroke:red;stroke-width:1px;stroke-linecap:butt;stroke-linejoin:miter;stroke-opacity:1" d="M 552.673,4 574.619,4 z" id="boundary" inkscape:connector-curvature="0" />
	<path style="fill:none;stroke:red;stroke-width:1px;stroke-linecap:butt;stroke-linejoin:miter;stroke-opacity:1" d="M 574.619,4 596.566,4 z" id="boundary" inkscape:connector-curvature="0" />
	<path style="fill:none;stroke:red;stroke-width:1px;stroke-linecap:butt;stroke-linejoin:miter;stroke-opacity:1" d="M 596.566,4 618.513,4 z" id="boundary" inkscape:connector-curvature="0" />
	<path style="fill:none;stroke:red;stroke-width:1px;stroke-linecap:butt;stroke-linejoin:miter;stroke-opacity:1" d="M 618.513,4 640.46,4 z" id="boundary" inkscape:connector-curvature="0" />
	<path style="fill:none;stroke:red;stroke-width:1px;stroke-linecap:butt;stroke-linejoin:miter;stroke-opacity:1" d="M 640.46,4 662.407,4 z" id="boundary" inkscape:connector-curvature="0" />
	<path style="fill:none;stroke:red;stroke-width:1px;stroke-linecap:butt;stroke-linejoin:miter;stroke-opacity:1" d="M 662.407,4 684.354,4 z" id="boundary" inkscape:connector-curvature="0" />
	<path style="fill:none;stroke:red;stroke-width:1px;stroke-linecap:butt;stroke-linejoin:miter;stroke-opacity:1" d="M 684.354,4 706.301,4 z" id="boundary" inkscape:connector-curvature="0" />
	<path style="fill:none;stroke:red;stroke-width:1px;stroke-linecap:butt;stroke-linejoin:miter;stroke-opacity:1" d="M 706.301,4 728.248,4 z" id="boundary" inkscape:connector-curvature="0" />
	<path style="fill:none;stroke:red;stroke-width:1px;stroke-linecap:butt;stroke-linejoin:miter;stroke-opacity:1" d="M 728.248,4 750.195,4 z" id="boundary" inkscape:connector-curvature="0" />
	<path style="fill:none;stroke:red;stroke-width:1px;stroke-linecap:butt;stroke-linejoin:miter;stroke-opacity:1" d="M 750.195,4 772.142,4 z" id="boundary" inkscape:connector-curvature="0" />
	<path style="fill:none;stroke:red;stroke-width:1px;stroke-linecap:butt;stroke-linejoin:miter;stroke-opacity:1" d="M 772.142,4 794.088,4 z" id="boundary" inkscape:connector-curvature="0" />
	<path style="fill:none;stroke:red;stroke-width:1px;stroke-linecap:butt;stroke-linejoin:miter;stroke-opacity:1" d="M 794.088,4 816.035,4 z" id="boundary" inkscape:connector-curvature="0" />
	<path style="fill:none;stroke:red;stroke-width:1px;stroke-linecap:butt;stroke-linejoin:miter;stroke-opacity:1" d="M 816.035,4 837.982,4 z" id="boundary" inkscape:connector-curvature="0" />
	<path style="fill:none;stroke:red;stroke-width:1px;stroke-linecap:butt;stroke-linejoin:miter;stroke-opacity:1" d="M 837.982,4 859.929,4 z" id="boundary" inkscape:connector-curvature="0" />
	<path style="fill:none;stroke:red;stroke-width:1px;stroke-linecap:butt;stroke-linejoin:miter;stroke-opacity:1" d="M 859.929,4 881.876,4 z" id="boundary" inkscape:connector-curvature="0" />
	<path style="fill:none;stroke:red;stroke-width:1px;stroke-linecap:butt;stroke-linejoin:miter;stroke-opacity:1" d="M 881.876,4 903.823,4 z" id="boundary" inkscape:connector-curvature="0" />
	<path style="fill:none;stroke:red;stroke-width:1px;stroke-linecap:butt;stroke-linejoin:miter;stroke-opacity:1" d="M 903.823,4 925.77,4 z" id="boundary" inkscape:connector-curvature="0" />
	<path style="fill:none;stroke:red;stroke-width:1px;stroke-linecap:butt;stroke-linejoin:miter;stroke-opacity:1" d="M 925.77,4 938.938,21.5575 z" id="boundary" inkscape:connector-curvature="0" />
	<path style="fill:none;stroke:red;stroke-width:1px;stroke-linecap:butt;stroke-linejoin:miter;stroke-opacity:1" d="M 25.9469,4 4,10.5841 z" id="boundary" inkscape:connector-curvature="0" />
	<path style="fill:none;stroke:red;stroke-width:1px;stroke-linecap:butt;stroke-linejoin:miter;stroke-opacity:1" d="M 4,10.5841 4,32.531 z" id="boundary" inkscape:connector-curvature="0" />
	<path style="fill:none;stroke:red;stroke-width:1px;stroke-linecap:butt;stroke-linejoin:miter;stroke-opacity:1" d="M 4,32.531 4,54.4779 z" id="boundary" inkscape:connector-curvature="0" />
	<path style="fill:none;stroke:red;stroke-width:1px;stroke-linecap:butt;stroke-linejoin:miter;stroke-opacity:1" d="M 4,54.4779 4,76.4248 z" id="boundary" inkscape:connector-curvature="0" />
	<path style="fill:none;stroke:red;stroke-width:1px;stroke-linecap:butt;stroke-linejoin:miter;stroke-opacity:1" d="M 4,76.4248 4,98.3717 z" id="boundary" inkscape:connector-curvature="0" />
	<path style="fill:none;stroke:red;stroke-width:1px;stroke-linecap:butt;stroke-linejoin:miter;stroke-opacity:1" d="M 4,98.3717 4,120.319 z" id="boundary" inkscape:connector-curvature="0" />
	<path style="fill:none;stroke:red;stroke-width:1px;stroke-linecap:butt;stroke-linejoin:miter;stroke-opacity:1" d="M 4,120.319 4,142.265 z" id="boundary" inkscape:connector-curvature="0" />
	<path style="fill:none;stroke:red;stroke-width:1px;stroke-linecap:butt;stroke-linejoin:miter;stroke-opacity:1" d="M 4,142.265 14.9735,162.018 z" id="boundary" inkscape:connector-curvature="0" />
	<path style="fill:none;stroke:red;stroke-width:1px;stroke-linecap:butt;stroke-linejoin:miter;stroke-opacity:1" d="M 14.9735,162.018 14.9735,183.965 z" id="boundary" inkscape:connector-curvature="0" />
	<path style="fill:none;stroke:red;stroke-width:1px;stroke-linecap:butt;stroke-linejoin:miter;stroke-opacity:1" d="M 14.9735,183.965 25.9469,203.717 z" id="boundary" inkscape:connector-curvature="0" />
	<path style="fill:none;stroke:red;stroke-width:1px;stroke-linecap:butt;stroke-linejoin:miter;stroke-opacity:1" d="M 25.9469,203.717 32.531,225.664 z" id="boundary" inkscape:connector-curvature="0" />
	<path style="fill:none;stroke:red;stroke-width:1px;stroke-linecap:butt;stroke-linejoin:miter;stroke-opacity:1" d="M 32.531,225.664 52.2832,236.637 z" id="boundary" inkscape:connector-curvature="0" />
	<path style="fill:none;stroke:red;stroke-width:1px;stroke-linecap:butt;stroke-linejoin:miter;stroke-opacity:1" d="M 52.2832,236.637 69.8407,249.805 z" id="boundary" inkscape:connector-curvature="0" />
	<path style="fill:none;stroke:red;stroke-width:1px;stroke-linecap:butt;stroke-linejoin:miter;stroke-opacity:1" d="M 69.8407,249.805 91.7876,258.584 z" id="boundary" inkscape:connector-curvature="0" />
	<path style="fill:none;stroke:red;stroke-width:1px;stroke-linecap:butt;stroke-linejoin:miter;stroke-opacity:1" d="M 91.7876,258.584 104.956,276.142 z" id="boundary" inkscape:connector-curvature="0" />
	<path style="fill:none;stroke:red;stroke-width:1px;stroke-linecap:butt;stroke-linejoin:miter;stroke-opacity:1" d="M 104.956,276.142 122.513,291.504 z" id="boundary" inkscape:connector-curvature="0" />
	<path style="fill:none;stroke:red;stroke-width:1px;stroke-linecap:butt;stroke-linejoin:miter;stroke-opacity:1" d="M 122.513,291.504 144.46,291.504 z" id="boundary" inkscape:connector-curvature="0" />
	<path style="fill:none;stroke:red;stroke-width:1px;stroke-linecap:butt;stroke-linejoin:miter;stroke-opacity:1" d="M 144.46,291.504 164.212,302.478 z" id="boundary" inkscape:connector-curvature="0" />
	<path style="fill:none;stroke:red;stroke-width:1px;stroke-linecap:butt;stroke-linejoin:miter;stroke-opacity:1" d="M 164.212,302.478 183.965,313.451 z" id="boundary" inkscape:connector-curvature="0" />
	<path style="fill:none;stroke:red;stroke-width:1px;stroke-linecap:butt;stroke-linejoin:miter;stroke-opacity:1" d="M 183.965,313.451 205.912,320.035 z" id="boundary" inkscape:connector-curvature="0" />
	<path style="fill:none;stroke:red;stroke-width:1px;stroke-linecap:butt;stroke-linejoin:miter;stroke-opacity:1" d="M 205.912,320.035 225.664,331.009 z" id="boundary" inkscape:connector-curvature="0" />
	<path style="fill:none;stroke:red;stroke-width:1px;stroke-linecap:butt;stroke-linejoin:miter;stroke-opacity:1" d="M 225.664,331.009 247.611,335.398 z" id="boundary" inkscape:connector-curvature="0" />
	<path style="fill:none;stroke:red;stroke-width:1px;stroke-linecap:butt;stroke-linejoin:miter;stroke-opacity:1" d="M 247.611,335.398 269.558,335.398 z" id="boundary" inkscape:connector-curvature="0" />
	<path style="fill:none;stroke:red;stroke-width:1px;stroke-linecap:butt;stroke-linejoin:miter;stroke-opacity:1" d="M 269.558,335.398 291.504,339.788 z" id="boundary" inkscape:connector-curvature="0" />
	<path style="fill:none;stroke:red;stroke-width:1px;stroke-linecap:butt;stroke-linejoin:miter;stroke-opacity:1" d="M 291.504,339.788 311.257,350.761 z" id="boundary" inkscape:connector-curvature="0" />
	<path style="fill:none;stroke:red;stroke-width:1px;stroke-linecap:butt;stroke-linejoin:miter;stroke-opacity:1" d="M 311.257,350.761 333.204,357.345 z" id="boundary" inkscape:connector-curvature="0" />
	<path style="fill:none;stroke:red;stroke-width:1px;stroke-linecap:butt;stroke-linejoin:miter;stroke-opacity:1" d="M 333.204,357.345 355.15,357.345 z" id="boundary" inkscape:connector-curvature="0" />
	<path style="fill:none;stroke:red;stroke-width:1px;stroke-linecap:butt;stroke-linejoin:miter;stroke-opacity:1" d="M 355.15,357.345 374.903,368.319 z" id="boundary" inkscape:connector-curvature="0" />
	<path style="fill:none;stroke:red;stroke-width:1px;stroke-linecap:butt;stroke-linejoin:miter;stroke-opacity:1" d="M 374.903,368.319 396.85,368.319 z" id="boundary" inkscape:connector-curvature="0" />
	<path style="fill:none;stroke:red;stroke-width:1px;stroke-linecap:butt;stroke-linejoin:miter;stroke-opacity:1" d="M 396.85,368.319 418.796,368.319 z" id="boundary" inkscape:connector-curvature="0" />
	<path style="fill:none;stroke:red;stroke-width:1px;stroke-linecap:butt;stroke-linejoin:miter;stroke-opacity:1" d="M 418.796,368.319 431.965,385.876 z" id="boundary" inkscape:connector-curvature="0" />
	<path style="fill:none;stroke:red;stroke-width:1px;stroke-linecap:butt;stroke-linejoin:miter;stroke-opacity:1" d="M 431.965,385.876 431.965,407.823 z" id="boundary" inkscape:connector-curvature="0" />
	<path style="fill:none;stroke:red;stroke-width:1px;stroke-linecap:butt;stroke-linejoin:miter;stroke-opacity:1" d="M 431.965,407.823 431.965,429.77 z" id="boundary" inkscape:connector-curvature="0" />
	<path style="fill:none;stroke:red;stroke-width:1px;stroke-linecap:butt;stroke-linejoin:miter;stroke-opacity:1" d="M 431.965,429.77 431.965,451.717 z" id="boundary" inkscape:connector-curvature="0" />
	<path style="fill:none;stroke:red;stroke-width:1px;stroke-linecap:butt;stroke-linejoin:miter;stroke-opacity:1" d="M 431.965,451.717 431.965,473.664 z" id="boundary" inkscape:connector-curvature="0" />
	<path style="fill:none;stroke:red;stroke-width:1px;stroke-linecap:butt;stroke-linejoin:miter;stroke-opacity:1" d="M 431.965,473.664 434.159,495.611 z" id="boundary" inkscape:connector-curvature="0" />
	<path style="fill:none;stroke:red;stroke-width:1px;stroke-linecap:butt;stroke-linejoin:miter;stroke-opacity:1" d="M 434.159,495.611 442.938,517.558 z" id="boundary" inkscape:connector-curvature="0" />
	<path style="fill:none;stroke:red;stroke-width:1px;stroke-linecap:butt;stroke-linejoin:miter;stroke-opacity:1" d="M 442.938,517.558 442.938,539.504 z" id="boundary" inkscape:connector-curvature="0" />
	<path style="fill:none;stroke:red;stroke-width:1px;stroke-linecap:butt;stroke-linejoin:miter;stroke-opacity:1" d="M 442.938,539.504 442.938,561.451 z" id="boundary" inkscape:connector-curvature="0" />
	<path style="fill:none;stroke:red;stroke-width:1px;stroke-linecap:butt;stroke-linejoin:miter;stroke-opacity:1" d="M 442.938,561.451 442.938,583.398 z" id="boundary" inkscape:connector-curvature="0" />
	<path style="fill:none;stroke:red;stroke-width:1px;stroke-linecap:butt;stroke-linejoin:miter;stroke-opacity:1" d="M 442.938,583.398 442.938,605.345 z" id="boundary" inkscape:connector-curvature="0" />
	<path style="fill:none;stroke:red;stroke-width:1px;stroke-linecap:butt;stroke-linejoin:miter;stroke-opacity:1" d="M 442.938,605.345 442.938,627.292 z" id="boundary" inkscape:connector-curvature="0" />
	<path style="fill:none;stroke:red;stroke-width:1px;stroke-linecap:butt;stroke-linejoin:miter;stroke-opacity:1" d="M 442.938,627.292 453.912,647.044 z" id="boundary" inkscape:connector-curvature="0" />
	<path style="fill:none;stroke:red;stroke-width:1px;stroke-linecap:butt;stroke-linejoin:miter;stroke-opacity:1" d="M 453.912,647.044 453.912,668.991 z" id="boundary" inkscape:connector-curvature="0" />
	<path style="fill:none;stroke:red;stroke-width:1px;stroke-linecap:butt;stroke-linejoin:miter;stroke-opacity:1" d="M 453.912,668.991 453.912,690.938 z" id="boundary" inkscape:connector-curvature="0" />
	<path style="fill:none;stroke:red;stroke-width:1px;stroke-linecap:butt;stroke-linejoin:miter;stroke-opacity:1" d="M 453.912,690.938 453.912,712.885 z" id="boundary" inkscape:connector-curvature="0" />
	<path style="fill:none;stroke:red;stroke-width:1px;stroke-linecap:butt;stroke-linejoin:miter;stroke-opacity:1" d="M 453.912,712.885 453.912,734.832 z" id="boundary" inkscape:connector-curvature="0" />
	<path style="fill:none;stroke:red;stroke-width:1px;stroke-linecap:butt;stroke-linejoin:miter;stroke-opacity:1" d="M 938.938,21.5575 947.717,43.5044 z" id="boundary" inkscape:connector-curvature="0" />
	<path style="fill:none;stroke:red;stroke-width:1px;stroke-linecap:butt;stroke-linejoin:miter;stroke-opacity:1" d="M 947.717,43.5044 949.912,65.4513 z" id="boundary" inkscape:connector-curvature="0" />
	<path style="fill:none;stroke:red;stroke-width:1px;stroke-linecap:butt;stroke-linejoin:miter;stroke-opacity:1" d="M 949.912,65.4513 949.912,87.3982 z" id="boundary" inkscape:connector-curvature="0" />
	<path style="fill:none;stroke:red;stroke-width:1px;stroke-linecap:butt;stroke-linejoin:miter;stroke-opacity:1" d="M 949.912,87.3982 949.912,109.345 z" id="boundary" inkscape:connector-curvature="0" />
	<path style="fill:none;stroke:red;stroke-width:1px;stroke-linecap:butt;stroke-linejoin:miter;stroke-opacity:1" d="M 949.912,109.345 949.912,131.292 z" id="boundary" inkscape:connector-curvature="0" />
	<path style="fill:none;stroke:red;stroke-width:1px;stroke-linecap:butt;stroke-linejoin:miter;stroke-opacity:1" d="M 453.912,734.832 447.327,774.336 z" id="boundary" inkscape:connector-curvature="0" />
	<path style="fill:none;stroke:red;stroke-width:1px;stroke-linecap:butt;stroke-linejoin:miter;stroke-opacity:1" d="M 447.327,774.336 425.381,785.31 z" id="boundary" inkscape:connector-curvature="0" />
	<path style="fill:none;stroke:red;stroke-width:1px;stroke-linecap:butt;stroke-linejoin:miter;stroke-opacity:1" d="M 425.381,785.31 403.434,794.088 z" id="boundary" inkscape:connector-curvature="0" />
	<path style="fill:none;stroke:red;stroke-width:1px;stroke-linecap:butt;stroke-linejoin:miter;stroke-opacity:1" d="M 403.434,794.088 383.681,805.062 z" id="boundary" inkscape:connector-curvature="0" />
	<path style="fill:none;stroke:red;stroke-width:1px;stroke-linecap:butt;stroke-linejoin:miter;stroke-opacity:1" d="M 383.681,805.062 361.735,805.062 z" id="boundary" inkscape:connector-curvature="0" />
	<path style="fill:none;stroke:red;stroke-width:1px;stroke-linecap:butt;stroke-linejoin:miter;stroke-opacity:1" d="M 361.735,805.062 339.788,805.062 z" id="boundary" inkscape:connector-curvature="0" />
	<path style="fill:none;stroke:red;stroke-width:1px;stroke-linecap:butt;stroke-linejoin:miter;stroke-opacity:1" d="M 339.788,805.062 320.035,816.035 z" id="boundary" inkscape:connector-curvature="0" />
	<path style="fill:none;stroke:red;stroke-width:1px;stroke-linecap:butt;stroke-linejoin:miter;stroke-opacity:1" d="M 320.035,816.035 300.283,827.009 z" id="boundary" inkscape:connector-curvature="0" />
	<path style="fill:none;stroke:red;stroke-width:1px;stroke-linecap:butt;stroke-linejoin:miter;stroke-opacity:1" d="M 300.283,827.009 278.336,827.009 z" id="boundary" inkscape:connector-curvature="0" />
	<path style="fill:none;stroke:red;stroke-width:1px;stroke-linecap:butt;stroke-linejoin:miter;stroke-opacity:1" d="M 278.336,827.009 256.389,833.593 z" id="boundary" inkscape:connector-curvature="0" />
	<path style="fill:none;stroke:red;stroke-width:1px;stroke-linecap:butt;stroke-linejoin:miter;stroke-opacity:1" d="M 256.389,833.593 234.442,837.982 z" id="boundary" inkscape:connector-curvature="0" />
	<path style="fill:none;stroke:red;stroke-width:1px;stroke-linecap:butt;stroke-linejoin:miter;stroke-opacity:1" d="M 234.442,837.982 214.69,848.956 z" id="boundary" inkscape:connector-curvature="0" />
	<path style="fill:none;stroke:red;stroke-width:1px;stroke-linecap:butt;stroke-linejoin:miter;stroke-opacity:1" d="M 214.69,848.956 194.938,859.929 z" id="boundary" inkscape:connector-curvature="0" />
	<path style="fill:none;stroke:red;stroke-width:1px;stroke-linecap:butt;stroke-linejoin:miter;stroke-opacity:1" d="M 194.938,859.929 172.991,859.929 z" id="boundary" inkscape:connector-curvature="0" />
	<path style="fill:none;stroke:red;stroke-width:1px;stroke-linecap:butt;stroke-linejoin:miter;stroke-opacity:1" d="M 172.991,859.929 151.044,862.124 z" id="boundary" inkscape:connector-curvature="0" />
	<path style="fill:none;stroke:red;stroke-width:1px;stroke-linecap:butt;stroke-linejoin:miter;stroke-opacity:1" d="M 151.044,862.124 129.097,870.903 z" id="boundary" inkscape:connector-curvature="0" />
	<path style="fill:none;stroke:red;stroke-width:1px;stroke-linecap:butt;stroke-linejoin:miter;stroke-opacity:1" d="M 129.097,870.903 109.345,881.876 z" id="boundary" inkscape:connector-curvature="0" />
	<path style="fill:none;stroke:red;stroke-width:1px;stroke-linecap:butt;stroke-linejoin:miter;stroke-opacity:1" d="M 109.345,881.876 87.3982,881.876 z" id="boundary" inkscape:connector-curvature="0" />
	<path style="fill:none;stroke:red;stroke-width:1px;stroke-linecap:butt;stroke-linejoin:miter;stroke-opacity:1" d="M 87.3982,881.876 65.4513,881.876 z" id="boundary" inkscape:connector-curvature="0" />
	<path style="fill:none;stroke:red;stroke-width:1px;stroke-linecap:butt;stroke-linejoin:miter;stroke-opacity:1" d="M 65.4513,881.876 61.0619,906.018 z" id="boundary" inkscape:connector-curvature="0" />
	<path style="fill:none;stroke:red;stroke-width:1px;stroke-linecap:butt;stroke-linejoin:miter;stroke-opacity:1" d="M 61.0619,906.018 83.0088,906.018 z" id="boundary" inkscape:connector-curvature="0" />
	<path style="fill:none;stroke:red;stroke-width:1px;stroke-linecap:butt;stroke-linejoin:miter;stroke-opacity:1" d="M 83.0088,906.018 104.956,906.018 z" id="boundary" inkscape:connector-curvature="0" />
	<path style="fill:none;stroke:red;stroke-width:1px;stroke-linecap:butt;stroke-linejoin:miter;stroke-opacity:1" d="M 104.956,906.018 126.903,906.018 z" id="boundary" inkscape:connector-curvature="0" />
	<path style="fill:none;stroke:red;stroke-width:1px;stroke-linecap:butt;stroke-linejoin:miter;stroke-opacity:1" d="M 126.903,906.018 148.85,906.018 z" id="boundary" inkscape:connector-curvature="0" />
	<path style="fill:none;stroke:red;stroke-width:1px;stroke-linecap:butt;stroke-linejoin:miter;stroke-opacity:1" d="M 148.85,906.018 170.796,906.018 z" id="boundary" inkscape:connector-curvature="0" />
	<path style="fill:none;stroke:red;stroke-width:1px;stroke-linecap:butt;stroke-linejoin:miter;stroke-opacity:1" d="M 170.796,906.018 192.743,906.018 z" id="boundary" inkscape:connector-curvature="0" />
	<path style="fill:none;stroke:red;stroke-width:1px;stroke-linecap:butt;stroke-linejoin:miter;stroke-opacity:1" d="M 192.743,906.018 214.69,906.018 z" id="boundary" inkscape:connector-curvature="0" />
	<path style="fill:none;stroke:red;stroke-width:1px;stroke-linecap:butt;stroke-linejoin:miter;stroke-opacity:1" d="M 214.69,906.018 236.637,906.018 z" id="boundary" inkscape:connector-curvature="0" />
	<path style="fill:none;stroke:red;stroke-width:1px;stroke-linecap:butt;stroke-linejoin:miter;stroke-opacity:1" d="M 236.637,906.018 258.584,906.018 z" id="boundary" inkscape:connector-curvature="0" />
	<path style="fill:none;stroke:red;stroke-width:1px;stroke-linecap:butt;stroke-linejoin:miter;stroke-opacity:1" d="M 258.584,906.018 280.531,906.018 z" id="boundary" inkscape:connector-curvature="0" />
	<path style="fill:none;stroke:red;stroke-width:1px;stroke-linecap:butt;stroke-linejoin:miter;stroke-opacity:1" d="M 280.531,906.018 302.478,906.018 z" id="boundary" inkscape:connector-curvature="0" />
	<path style="fill:none;stroke:red;stroke-width:1px;stroke-linecap:butt;stroke-linejoin:miter;stroke-opacity:1" d="M 302.478,906.018 324.425,906.018 z" id="boundary" inkscape:connector-curvature="0" />
	<path style="fill:none;stroke:red;stroke-width:1px;stroke-linecap:butt;stroke-linejoin:miter;stroke-opacity:1" d="M 324.425,906.018 346.372,906.018 z" id="boundary" inkscape:connector-curvature="0" />
	<path style="fill:none;stroke:red;stroke-width:1px;stroke-linecap:butt;stroke-linejoin:miter;stroke-opacity:1" d="M 346.372,906.018 368.319,906.018 z" id="boundary" inkscape:connector-curvature="0" />
	<path style="fill:none;stroke:red;stroke-width:1px;stroke-linecap:butt;stroke-linejoin:miter;stroke-opacity:1" d="M 368.319,906.018 390.265,906.018 z" id="boundary" inkscape:connector-curvature="0" />
	<path style="fill:none;stroke:red;stroke-width:1px;stroke-linecap:butt;stroke-linejoin:miter;stroke-opacity:1" d="M 390.265,906.018 412.212,906.018 z" id="boundary" inkscape:connector-curvature="0" />
	<path style="fill:none;stroke:red;stroke-width:1px;stroke-linecap:butt;stroke-linejoin:miter;stroke-opacity:1" d="M 412.212,906.018 434.159,906.018 z" id="boundary" inkscape:connector-curvature="0" />
	<path style="fill:none;stroke:red;stroke-width:1px;stroke-linecap:butt;stroke-linejoin:miter;stroke-opacity:1" d="M 434.159,906.018 456.106,906.018 z" id="boundary" inkscape:connector-curvature="0" />
	<path style="fill:none;stroke:red;stroke-width:1px;stroke-linecap:butt;stroke-linejoin:miter;stroke-opacity:1" d="M 456.106,906.018 478.053,906.018 z" id="boundary" inkscape:connector-curvature="0" />
	<path style="fill:none;stroke:red;stroke-width:1px;stroke-linecap:butt;stroke-linejoin:miter;stroke-opacity:1" d="M 478.053,906.018 500,906.018 z" id="boundary" inkscape:connector-curvature="0" />
	<path style="fill:none;stroke:red;stroke-width:1px;stroke-linecap:butt;stroke-linejoin:miter;stroke-opacity:1" d="M 500,906.018 521.947,906.018 z" id="boundary" inkscape:connector-curvature="0" />
	<path style="fill:none;stroke:red;stroke-width:1px;stroke-linecap:butt;stroke-linejoin:miter;stroke-opacity:1" d="M 521.947,906.018 543.894,906.018 z" id="boundary" inkscape:connector-curvature="0" />
	<path style="fill:none;stroke:red;stroke-width:1px;stroke-linecap:butt;stroke-linejoin:miter;stroke-opacity:1" d="M 543.894,906.018 565.841,906.018 z" id="boundary" inkscape:connector-curvature="0" />
	<path style="fill:none;stroke:red;stroke-width:1px;stroke-linecap:butt;stroke-linejoin:miter;stroke-opacity:1" d="M 565.841,906.018 587.788,906.018 z" id="boundary" inkscape:connector-curvature="0" />
	<path style="fill:none;stroke:red;stroke-width:1px;stroke-linecap:butt;stroke-linejoin:miter;stroke-opacity:1" d="M 587.788,906.018 609.735,906.018 z" id="boundary" inkscape:connector-curvature="0" />
	<path style="fill:none;stroke:red;stroke-width:1px;stroke-linecap:butt;stroke-linejoin:miter;stroke-opacity:1" d="M 609.735,906.018 631.681,906.018 z" id="boundary" inkscape:connector-curvature="0" />
	<path style="fill:none;stroke:red;stroke-width:1px;stroke-linecap:butt;stroke-linejoin:miter;stroke-opacity:1" d="M 631.681,906.018 653.628,906.018 z" id="boundary" inkscape:connector-curvature="0" />
	<path style="fill:none;stroke:red;stroke-width:1px;stroke-linecap:butt;stroke-linejoin:miter;stroke-opacity:1" d="M 653.628,906.018 675.575,906.018 z" id="boundary" inkscape:connector-curvature="0" />
	<path style="fill:none;stroke:red;stroke-width:1px;stroke-linecap:butt;stroke-linejoin:miter;stroke-opacity:1" d="M 675.575,906.018 697.522,906.018 z" id="boundary" inkscape:connector-curvature="0" />
	<path style="fill:none;stroke:red;stroke-width:1px;stroke-linecap:butt;stroke-linejoin:miter;stroke-opacity:1" d="M 697.522,906.018 719.469,906.018 z" id="boundary" inkscape:connector-curvature="0" />
	<path style="fill:none;stroke:red;stroke-width:1px;stroke-linecap:butt;stroke-linejoin:miter;stroke-opacity:1" d="M 719.469,906.018 741.416,906.018 z" id="boundary" inkscape:connector-curvature="0" />
	<path style="fill:none;stroke:red;stroke-width:1px;stroke-linecap:butt;stroke-linejoin:miter;stroke-opacity:1" d="M 741.416,906.018 763.363,906.018 z" id="boundary" inkscape:connector-curvature="0" />
	<path style="fill:none;stroke:red;stroke-width:1px;stroke-linecap:butt;stroke-linejoin:miter;stroke-opacity:1" d="M 763.363,906.018 785.31,906.018 z" id="boundary" inkscape:connector-curvature="0" />
	<path style="fill:none;stroke:red;stroke-width:1px;stroke-linecap:butt;stroke-linejoin:miter;stroke-opacity:1" d="M 785.31,906.018 807.257,906.018 z" id="boundary" inkscape:connector-curvature="0" />
	<path style="fill:none;stroke:red;stroke-width:1px;stroke-linecap:butt;stroke-linejoin:miter;stroke-opacity:1" d="M 807.257,906.018 829.204,906.018 z" id="boundary" inkscape:connector-curvature="0" />
	<path style="fill:none;stroke:red;stroke-width:1px;stroke-linecap:butt;stroke-linejoin:miter;stroke-opacity:1" d="M 829.204,906.018 851.15,906.018 z" id="boundary" inkscape:connector-curvature="0" />
	<path style="fill:none;stroke:red;stroke-width:1px;stroke-linecap:butt;stroke-linejoin:miter;stroke-opacity:1" d="M 851.15,906.018 873.097,906.018 z" id="boundary" inkscape:connector-curvature="0" />
	<path style="fill:none;stroke:red;stroke-width:1px;stroke-linecap:butt;stroke-linejoin:miter;stroke-opacity:1" d="M 873.097,906.018 895.044,906.018 z" id="boundary" inkscape:connector-curvature="0" />
	<path style="fill:none;stroke:red;stroke-width:1px;stroke-linecap:butt;stroke-linejoin:miter;stroke-opacity:1" d="M 895.044,906.018 916.991,906.018 z" id="boundary" inkscape:connector-curvature="0" />
	<path style="fill:none;stroke:red;stroke-width:1px;stroke-linecap:butt;stroke-linejoin:miter;stroke-opacity:1" d="M 916.991,906.018 938.938,906.018 z" id="boundary" inkscape:connector-curvature="0" />
	<path style="fill:none;stroke:red;stroke-width:1px;stroke-linecap:butt;stroke-linejoin:miter;stroke-opacity:1" d="M 938.938,906.018 960.885,906.018 z" id="boundary" inkscape:connector-curvature="0" />
	<path style="fill:none;stroke:red;stroke-width:1px;stroke-linecap:butt;stroke-linejoin:miter;stroke-opacity:1" d="M 960.885,906.018 960.885,881.876 z" id="boundary" inkscape:connector-curvature="0" />
	<path style="fill:none;stroke:red;stroke-width:1px;stroke-linecap:butt;stroke-linejoin:miter;stroke-opacity:1" d="M 960.885,881.876 941.133,870.903 z" id="boundary" inkscape:connector-curvature="0" />
	<path style="fill:none;stroke:red;stroke-width:1px;stroke-linecap:butt;stroke-linejoin:miter;stroke-opacity:1" d="M 941.133,870.903 919.186,870.903 z" id="boundary" inkscape:connector-curvature="0" />
	<path style="fill:none;stroke:red;stroke-width:1px;stroke-linecap:butt;stroke-linejoin:miter;stroke-opacity:1" d="M 919.186,870.903 897.239,870.903 z" id="boundary" inkscape:connector-curvature="0" />
	<path style="fill:none;stroke:red;stroke-width:1px;stroke-linecap:butt;stroke-linejoin:miter;stroke-opacity:1" d="M 897.239,870.903 877.487,859.929 z" id="boundary" inkscape:connector-curvature="0" />
	<path style="fill:none;stroke:red;stroke-width:1px;stroke-linecap:butt;stroke-linejoin:miter;stroke-opacity:1" d="M 877.487,859.929 855.54,851.15 z" id="boundary" inkscape:connector-curvature="0" />
	<path style="fill:none;stroke:red;stroke-width:1px;stroke-linecap:butt;stroke-linejoin:miter;stroke-opacity:1" d="M 855.54,851.15 835.788,840.177 z" id="boundary" inkscape:connector-curvature="0" />
	<path style="fill:none;stroke:red;stroke-width:1px;stroke-linecap:butt;stroke-linejoin:miter;stroke-opacity:1" d="M 835.788,840.177 813.841,837.982 z" id="boundary" inkscape:connector-curvature="0" />
	<path style="fill:none;stroke:red;stroke-width:1px;stroke-linecap:butt;stroke-linejoin:miter;stroke-opacity:1" d="M 813.841,837.982 794.088,827.009 z" id="boundary" inkscape:connector-curvature="0" />
	<path style="fill:none;stroke:red;stroke-width:1px;stroke-linecap:butt;stroke-linejoin:miter;stroke-opacity:1" d="M 794.088,827.009 772.142,822.619 z" id="boundary" inkscape:connector-curvature="0" />
	<path style="fill:none;stroke:red;stroke-width:1px;stroke-linecap:butt;stroke-linejoin:miter;stroke-opacity:1" d="M 772.142,822.619 752.389,811.646 z" id="boundary" inkscape:connector-curvature="0" />
	<path style="fill:none;stroke:red;stroke-width:1px;stroke-linecap:butt;stroke-linejoin:miter;stroke-opacity:1" d="M 752.389,811.646 730.442,805.062 z" id="boundary" inkscape:connector-curvature="0" />
	<path style="fill:none;stroke:red;stroke-width:1px;stroke-linecap:butt;stroke-linejoin:miter;stroke-opacity:1" d="M 730.442,805.062 708.496,805.062 z" id="boundary" inkscape:connector-curvature="0" />
	<path style="fill:none;stroke:red;stroke-width:1px;stroke-linecap:butt;stroke-linejoin:miter;stroke-opacity:1" d="M 708.496,805.062 688.743,794.088 z" id="boundary" inkscape:connector-curvature="0" />
	<path style="fill:none;stroke:red;stroke-width:1px;stroke-linecap:butt;stroke-linejoin:miter;stroke-opacity:1" d="M 688.743,794.088 666.796,794.088 z" id="boundary" inkscape:connector-curvature="0" />
	<path style="fill:none;stroke:red;stroke-width:1px;stroke-linecap:butt;stroke-linejoin:miter;stroke-opacity:1" d="M 666.796,794.088 647.044,783.115 z" id="boundary" inkscape:connector-curvature="0" />
	<path style="fill:none;stroke:red;stroke-width:1px;stroke-linecap:butt;stroke-linejoin:miter;stroke-opacity:1" d="M 647.044,783.115 636.071,763.363 z" id="boundary" inkscape:connector-curvature="0" />
	<path style="fill:none;stroke:red;stroke-width:1px;stroke-linecap:butt;stroke-linejoin:miter;stroke-opacity:1" d="M 636.071,763.363 631.681,741.416 z" id="boundary" inkscape:connector-curvature="0" />
	<path style="fill:none;stroke:red;stroke-width:1px;stroke-linecap:butt;stroke-linejoin:miter;stroke-opacity:1" d="M 631.681,741.416 631.681,719.469 z" id="boundary" inkscape:connector-curvature="0" />
	<path style="fill:none;stroke:red;stroke-width:1px;stroke-linecap:butt;stroke-linejoin:miter;stroke-opacity:1" d="M 631.681,719.469 631.681,697.522 z" id="boundary" inkscape:connector-curvature="0" />
	<path style="fill:none;stroke:red;stroke-width:1px;stroke-linecap:butt;stroke-linejoin:miter;stroke-opacity:1" d="M 631.681,697.522 631.681,675.575 z" id="boundary" inkscape:connector-curvature="0" />
	<path style="fill:none;stroke:red;stroke-width:1px;stroke-linecap:butt;stroke-linejoin:miter;stroke-opacity:1" d="M 631.681,675.575 631.681,653.628 z" id="boundary" inkscape:connector-curvature="0" />
	<path style="fill:none;stroke:red;stroke-width:1px;stroke-linecap:butt;stroke-linejoin:miter;stroke-opacity:1" d="M 631.681,653.628 631.681,631.681 z" id="boundary" inkscape:connector-curvature="0" />
	<path style="fill:none;stroke:red;stroke-width:1px;stroke-linecap:butt;stroke-linejoin:miter;stroke-opacity:1" d="M 631.681,631.681 631.681,609.735 z" id="boundary" inkscape:connector-curvature="0" />
	<path style="fill:none;stroke:red;stroke-width:1px;stroke-linecap:butt;stroke-linejoin:miter;stroke-opacity:1" d="M 631.681,609.735 631.681,587.788 z" id="boundary" inkscape:connector-curvature="0" />
	<path style="fill:none;stroke:red;stroke-width:1px;stroke-linecap:butt;stroke-linejoin:miter;stroke-opacity:1" d="M 631.681,587.788 631.681,565.841 z" id="boundary" inkscape:connector-curvature="0" />
	<path style="fill:none;stroke:red;stroke-width:1px;stroke-linecap:butt;stroke-linejoin:miter;stroke-opacity:1" d="M 631.681,565.841 631.681,543.894 z" id="boundary" inkscape:connector-curvature="0" />
	<path style="fill:none;stroke:red;stroke-width:1px;stroke-linecap:butt;stroke-linejoin:miter;stroke-opacity:1" d="M 631.681,543.894 631.681,521.947 z" id="boundary" inkscape:connector-curvature="0" />
	<path style="fill:none;stroke:red;stroke-width:1px;stroke-linecap:butt;stroke-linejoin:miter;stroke-opacity:1" d="M 631.681,521.947 631.681,500 z" id="boundary" inkscape:connector-curvature="0" />
	<path style="fill:none;stroke:red;stroke-width:1px;stroke-linecap:butt;stroke-linejoin:miter;stroke-opacity:1" d="M 631.681,500 631.681,478.053 z" id="boundary" inkscape:connector-curvature="0" />
	<path style="fill:none;stroke:red;stroke-width:1px;stroke-linecap:butt;stroke-linejoin:miter;stroke-opacity:1" d="M 631.681,478.053 631.681,456.106 z" id="boundary" inkscape:connector-curvature="0" />
	<path style="fill:none;stroke:red;stroke-width:1px;stroke-linecap:butt;stroke-linejoin:miter;stroke-opacity:1" d="M 631.681,456.106 631.681,434.159 z" id="boundary" inkscape:connector-curvature="0" />
	<path style="fill:none;stroke:red;stroke-width:1px;stroke-linecap:butt;stroke-linejoin:miter;stroke-opacity:1" d="M 631.681,434.159 631.681,412.212 z" id="boundary" inkscape:connector-curvature="0" />
	<path style="fill:none;stroke:red;stroke-width:1px;stroke-linecap:butt;stroke-linejoin:miter;stroke-opacity:1" d="M 631.681,412.212 631.681,390.265 z" id="boundary" inkscape:connector-curvature="0" />
	<path style="fill:none;stroke:red;stroke-width:1px;stroke-linecap:butt;stroke-linejoin:miter;stroke-opacity:1" d="M 631.681,390.265 631.681,368.319 z" id="boundary" inkscape:connector-curvature="0" />
	<path style="fill:none;stroke:red;stroke-width:1px;stroke-linecap:butt;stroke-linejoin:miter;stroke-opacity:1" d="M 631.681,368.319 653.628,357.345 z" id="boundary" inkscape:connector-curvature="0" />
	<path style="fill:none;stroke:red;stroke-width:1px;stroke-linecap:butt;stroke-linejoin:miter;stroke-opacity:1" d="M 653.628,357.345 675.575,357.345 z" id="boundary" inkscape:connector-curvature="0" />
	<path style="fill:none;stroke:red;stroke-width:1px;stroke-linecap:butt;stroke-linejoin:miter;stroke-opacity:1" d="M 675.575,357.345 695.327,346.372 z" id="boundary" inkscape:connector-curvature="0" />
	<path style="fill:none;stroke:red;stroke-width:1px;stroke-linecap:butt;stroke-linejoin:miter;stroke-opacity:1" d="M 695.327,346.372 715.08,335.398 z" id="boundary" inkscape:connector-curvature="0" />
	<path style="fill:none;stroke:red;stroke-width:1px;stroke-linecap:butt;stroke-linejoin:miter;stroke-opacity:1" d="M 715.08,335.398 734.832,324.425 z" id="boundary" inkscape:connector-curvature="0" />
	<path style="fill:none;stroke:red;stroke-width:1px;stroke-linecap:butt;stroke-linejoin:miter;stroke-opacity:1" d="M 734.832,324.425 756.779,322.23 z" id="boundary" inkscape:connector-curvature="0" />
	<path style="fill:none;stroke:red;stroke-width:1px;stroke-linecap:butt;stroke-linejoin:miter;stroke-opacity:1" d="M 756.779,322.23 778.726,311.257 z" id="boundary" inkscape:connector-curvature="0" />
	<path style="fill:none;stroke:red;stroke-width:1px;stroke-linecap:butt;stroke-linejoin:miter;stroke-opacity:1" d="M 778.726,311.257 800.673,302.478 z" id="boundary" inkscape:connector-curvature="0" />
	<path style="fill:none;stroke:red;stroke-width:1px;stroke-linecap:butt;stroke-linejoin:miter;stroke-opacity:1" d="M 800.673,302.478 820.425,291.504 z" id="boundary" inkscape:connector-curvature="0" />
	<path style="fill:none;stroke:red;stroke-width:1px;stroke-linecap:butt;stroke-linejoin:miter;stroke-opacity:1" d="M 820.425,291.504 840.177,280.531 z" id="boundary" inkscape:connector-curvature="0" />
	<path style="fill:none;stroke:red;stroke-width:1px;stroke-linecap:butt;stroke-linejoin:miter;stroke-opacity:1" d="M 840.177,280.531 857.735,265.168 z" id="boundary" inkscape:connector-curvature="0" />
	<path style="fill:none;stroke:red;stroke-width:1px;stroke-linecap:butt;stroke-linejoin:miter;stroke-opacity:1" d="M 857.735,265.168 873.097,247.611 z" id="boundary" inkscape:connector-curvature="0" />
	<path style="fill:none;stroke:red;stroke-width:1px;stroke-linecap:butt;stroke-linejoin:miter;stroke-opacity:1" d="M 873.097,247.611 892.85,236.637 z" id="boundary" inkscape:connector-curvature="0" />
	<path style="fill:none;stroke:red;stroke-width:1px;stroke-linecap:butt;stroke-linejoin:miter;stroke-opacity:1" d="M 892.85,236.637 910.407,223.469 z" id="boundary" inkscape:connector-curvature="0" />
	<path style="fill:none;stroke:red;stroke-width:1px;stroke-linecap:butt;stroke-linejoin:miter;stroke-opacity:1" d="M 910.407,223.469 927.965,203.717 z" id="boundary" inkscape:connector-curvature="0" />
	<path style="fill:none;stroke:red;stroke-width:1px;stroke-linecap:butt;stroke-linejoin:miter;stroke-opacity:1" d="M 927.965,203.717 938.938,170.796 z" id="boundary" inkscape:connector-curvature="0" />
	<path style="fill:none;stroke:red;stroke-width:1px;stroke-linecap:butt;stroke-linejoin:miter;stroke-opacity:1" d="M 949.912,131.292 938.938,170.796 z" id="boundary" inkscape:connector-curvature="0" />
	<path style="fill:none;stroke:red;stroke-width:1px;stroke-linecap:butt;stroke-linejoin:miter;stroke-opacity:1" d="M 996,906.018 982.832,888.46 z" id="boundary" inkscape:connector-curvature="0" />
	<path style="fill:none;stroke:red;stroke-width:1px;stroke-linecap:butt;stroke-linejoin:miter;stroke-opacity:1" d="M 996,906.018 25.9469,910.407 z" id="boundary" inkscape:connector-curvature="0" />
	<path style="fill:none;stroke:red;stroke-width:1px;stroke-linecap:butt;stroke-linejoin:miter;stroke-opacity:1" d="M 25.9469,910.407 43.5044,892.85 z" id="boundary" inkscape:connector-curvature="0" />
	<circle cx="4" cy="10.5841" r="4" fill="#0" id="circle0"/>
	<circle cx="4" cy="32.531" r="4" fill="#0" id="circle1"/>
	<circle cx="4" cy="54.4779" r="4" fill="#0" id="circle2"/>
	<circle cx="4" cy="76.4248" r="4" fill="#0" id="circle3"/>
	<circle cx="4" cy="98.3717" r="4" fill="#0" id="circle4"/>
	<circle cx="4" cy="120.319" r="4" fill="#0" id="circle5"/>
	<circle cx="4" cy="142.265" r="4" fill="#0" id="circle6"/>
	<circle cx="14.9735" cy="162.018" r="4" fill="#0" id="circle7"/>
	<circle cx="14.9735" cy="183.965" r="4" fill="#0" id="circle8"/>
	<circle cx="25.9469" cy="4" r="4" fill="#0" id="circle9"/>
	<circle cx="25.9469" cy="203.717" r="4" fill="#0" id="circle10"/>
	<circle cx="25.9469" cy="910.407" r="4" fill="#0" id="circle11"/>
	<circle cx="32.531" cy="225.664" r="4" fill="#0" id="circle12"/>
	<circle cx="43.5044" cy="892.85" r="4" fill="#0" id="circle13"/>
	<circle cx="47.8938" cy="4" r="4" fill="#0" id="circle14"/>
	<circle cx="52.2832" cy="236.637" r="4" fill="#0" id="circle15"/>
	<circle cx="61.0619" cy="906.018" r="4" fill="#0" id="circle16"/>
	<circle cx="65.4513" cy="881.876" r="4" fill="#0" id="circle17"/>
	<circle cx="69.8407" cy="4" r="4" fill="#0" id="circle18"/>
	<circle cx="69.8407" cy="249.805" r="4" fill="#0" id="circle19"/>
	<circle cx="83.0088" cy="906.018" r="4" fill="#0" id="circle20"/>
	<circle cx="87.3982" cy="881.876" r="4" fill="#0" id="circle21"/>
	<circle cx="91.7876" cy="4" r="4" fill="#0" id="circle22"/>
	<circle cx="91.7876" cy="258.584" r="4" fill="#0" id="circle23"/>
	<circle cx="104.956" cy="276.142" r="4" fill="#0" id="circle24"/>
	<circle cx="104.956" cy="906.018" r="4" fill="#0" id="circle25"/>
	<circle cx="109.345" cy="881.876" r="4" fill="#0" id="circle26"/>
	<circle cx="113.735" cy="4" r="4" fill="#0" id="circle27"/>
	<circle cx="122.513" cy="291.504" r="4" fill="#0" id="circle28"/>
	<circle cx="126.903" cy="906.018" r="4" fill="#0" id="circle29"/>
	<circle cx="129.097" cy="870.903" r="4" fill="#0" id="circle30"/>
	<circle cx="135.681" cy="4" r="4" fill="#0" id="circle31"/>
	<circle cx="144.46" cy="291.504" r="4" fill="#0" id="circle32"/>
	<circle cx="148.85" cy="906.018" r="4" fill="#0" id="circle33"/>
	<circle cx="151.044" cy="862.124" r="4" fill="#0" id="circle34"/>
	<circle cx="157.628" cy="4" r="4" fill="#0" id="circle35"/>
	<circle cx="164.212" cy="302.478" r="4" fill="#0" id="circle36"/>
	<circle cx="170.796" cy="906.018" r="4" fill="#0" id="circle37"/>
	<circle cx="172.991" cy="859.929" r="4" fill="#0" id="circle38"/>
	<circle cx="179.575" cy="4" r="4" fill="#0" id="circle39"/>
	<circle cx="183.965" cy="313.451" r="4" fill="#0" id="circle40"/>
	<circle cx="192.743" cy="906.018" r="4" fill="#0" id="circle41"/>
	<circle cx="194.938" cy="859.929" r="4" fill="#0" id="circle42"/>
	<circle cx="201.522" cy="4" r="4" fill="#0" id="circle43"/>
	<circle cx="205.912" cy="320.035" r="4" fill="#0" id="circle44"/>
	<circle cx="214.69" cy="848.956" r="4" fill="#0" id="circle45"/>
	<circle cx="214.69" cy="906.018" r="4" fill="#0" id="circle46"/>
	<circle cx="223.469" cy="4" r="4" fill="#0" id="circle47"/>
	<circle cx="225.664" cy="331.009" r="4" fill="#0" id="circle48"/>
	<circle cx="234.442" cy="837.982" r="4" fill="#0" id="circle49"/>
	<circle cx="236.637" cy="906.018" r="4" fill="#0" id="circle50"/>
	<circle cx="245.416" cy="4" r="4" fill="#0" id="circle51"/>
	<circle cx="247.611" cy="335.398" r="4" fill="#0" id="circle52"/>
	<circle cx="256.389" cy="833.593" r="4" fill="#0" id="circle53"/>
	<circle cx="258.584" cy="906.018" r="4" fill="#0" id="circle54"/>
	<circle cx="267.363" cy="4" r="4" fill="#0" id="circle55"/>
	<circle cx="269.558" cy="335.398" r="4" fill="#0" id="circle56"/>
	<circle cx="278.336" cy="827.009" r="4" fill="#0" id="circle57"/>
	<circle cx="280.531" cy="906.018" r="4" fill="#0" id="circle58"/>
	<circle cx="289.31" cy="4" r="4" fill="#0" id="circle59"/>
	<circle cx="291.504" cy="339.788" r="4" fill="#0" id="circle60"/>
	<circle cx="300.283" cy="827.009" r="4" fill="#0" id="circle61"/>
	<circle cx="302.478" cy="906.018" r="4" fill="#0" id="circle62"/>
	<circle cx="311.257" cy="4" r="4" fill="#0" id="circle63"/>
	<circle cx="311.257" cy="350.761" r="4" fill="#0" id="circle64"/>
	<circle cx="320.035" cy="816.035" r="4" fill="#0" id="circle65"/>
	<circle cx="324.425" cy="906.018" r="4" fill="#0" id="circle66"/>
	<circle cx="333.204" cy="4" r="4" fill="#0" id="circle67"/>
	<circle cx="333.204" cy="357.345" r="4" fill="#0" id="circle68"/>
	<circle cx="339.788" cy="805.062" r="4" fill="#0" id="circle69"/>
	<circle cx="346.372" cy="906.018" r="4" fill="#0" id="circle70"/>
	<circle cx="355.15" cy="4" r="4" fill="#0" id="circle71"/>
	<circle cx="355.15" cy="357.345" r="4" fill="#0" id="circle72"/>
	<circle cx="361.735" cy="805.062" r="4" fill="#0" id="circle73"/>
	<circle cx="368.319" cy="906.018" r="4" fill="#0" id="circle74"/>
	<circle cx="374.903" cy="368.319" r="4" fill="#0" id="circle75"/>
	<circle cx="377.097" cy="4" r="4" fill="#0" id="circle76"/>
	<circle cx="383.681" cy="805.062" r="4" fill="#0" id="circle77"/>
	<circle cx="390.265" cy="906.018" r="4" fill="#0" id="circle78"/>
	<circle cx="396.85" cy="368.319" r="4" fill="#0" id="circle79"/>
	<circle cx="399.044" cy="4" r="4" fill="#0" id="circle80"/>
	<circle cx="403.434" cy="794.088" r="4" fill="#0" id="circle81"/>
	<circle cx="412.212" cy="906.018" r="4" fill="#0" id="circle82"/>
	<circle cx="418.796" cy="368.319" r="4" fill="#0" id="circle83"/>
	<circle cx="420.991" cy="4" r="4" fill="#0" id="circle84"/>
	<circle cx="425.381" cy="785.31" r="4" fill="#0" id="circle85"/>
	<circle cx="431.965" cy="385.876" r="4" fill="#0" id="circle86"/>
	<circle cx="431.965" cy="407.823" r="4" fill="#0" id="circle87"/>
	<circle cx="431.965" cy="429.77" r="4" fill="#0" id="circle88"/>
	<circle cx="431.965" cy="451.717" r="4" fill="#0" id="circle89"/>
	<circle cx="431.965" cy="473.664" r="4" fill="#0" id="circle90"/>
	<circle cx="434.159" cy="495.611" r="4" fill="#0" id="circle91"/>
	<circle cx="434.159" cy="906.018" r="4" fill="#0" id="circle92"/>
	<circle cx="442.938" cy="4" r="4" fill="#0" id="circle93"/>
	<circle cx="442.938" cy="517.558" r="4" fill="#0" id="circle94"/>
	<circle cx="442.938" cy="539.504" r="4" fill="#0" id="circle95"/>
	<circle cx="442.938" cy="561.451" r="4" fill="#0" id="circle96"/>
	<circle cx="442.938" cy="583.398" r="4" fill="#0" id="circle97"/>
	<circle cx="442.938" cy="605.345" r="4" fill="#0" id="circle98"/>
	<circle cx="442.938" cy="627.292" r="4" fill="#0" id="circle99"/>
	<circle cx="447.327" cy="774.336" r="4" fill="#0" id="circle100"/>
	<circle cx="453.912" cy="647.044" r="4" fill="#0" id="circle101"/>
	<circle cx="453.912" cy="668.991" r="4" fill="#0" id="circle102"/>
	<circle cx="453.912" cy="690.938" r="4" fill="#0" id="circle103"/>
	<circle cx="453.912" cy="712.885" r="4" fill="#0" id="circle104"/>
	<circle cx="453.912" cy="734.832" r="4" fill="#0" id="circle105"/>
	<circle cx="456.106" cy="906.018" r="4" fill="#0" id="circle106"/>
	<circle cx="464.885" cy="4" r="4" fill="#0" id="circle107"/>
	<circle cx="478.053" cy="906.018" r="4" fill="#0" id="circle108"/>
	<circle cx="486.832" cy="4" r="4" fill="#0" id="circle109"/>
	<circle cx="500" cy="906.018" r="4" fill="#0" id="circle110"/>
	<circle cx="508.779" cy="4" r="4" fill="#0" id="circle111"/>
	<circle cx="521.947" cy="906.018" r="4" fill="#0" id="circle112"/>
	<circle cx="530.726" cy="4" r="4" fill="#0" id="circle113"/>
	<circle cx="543.894" cy="906.018" r="4" fill="#0" id="circle114"/>
	<circle cx="552.673" cy="4" r="4" fill="#0" id="circle115"/>
	<circle cx="565.841" cy="906.018" r="4" fill="#0" id="circle116"/>
	<circle cx="574.619" cy="4" r="4" fill="#0" id="circle117"/>
	<circle cx="587.788" cy="906.018" r="4" fill="#0" id="circle118"/>
	<circle cx="596.566" cy="4" r="4" fill="#0" id="circle119"/>
	<circle cx="609.735" cy="906.018" r="4" fill="#0" id="circle120"/>
	<circle cx="618.513" cy="4" r="4" fill="#0" id="circle121"/>
	<circle cx="631.681" cy="368.319" r="4" fill="#0" id="circle122"/>
	<circle cx="631.681" cy="390.265" r="4" fill="#0" id="circle123"/>
	<circle cx="631.681" cy="412.212" r="4" fill="#0" id="circle124"/>
	<circle cx="631.681" cy="434.159" r="4" fill="#0" id="circle125"/>
	<circle cx="631.681" cy="456.106" r="4" fill="#0" id="circle126"/>
	<circle cx="631.681" cy="478.053" r="4" fill="#0" id="circle127"/>
	<circle cx="631.681" cy="500" r="4" fill="#0" id="circle128"/>
	<circle cx="631.681" cy="521.947" r="4" fill="#0" id="circle129"/>
	<circle cx="631.681" cy="543.894" r="4" fill="#0" id="circle130"/>
	<circle cx="631.681" cy="565.841" r="4" fill="#0" id="circle131"/>
	<circle cx="631.681" cy="587.788" r="4" fill="#0" id="circle132"/>
	<circle cx="631.681" cy="609.735" r="4" fill="#0" id="circle133"/>
	<circle cx="631.681" cy="631.681" r="4" fill="#0" id="circle134"/>
	<circle cx="631.681" cy="653.628" r="4" fill="#0" id="circle135"/>
	<circle cx="631.681" cy="675.575" r="4" fill="#0" id="circle136"/>
	<circle cx="631.681" cy="697.522" r="4" fill="#0" id="circle137"/>
	<circle cx="631.681" cy="719.469" r="4" fill="#0" id="circle138"/>
	<circle cx="631.681" cy="741.416" r="4" fill="#0" id="circle139"/>
	<circle cx="631.681" cy="906.018" r="4" fill="#0" id="circle140"/>
	<circle cx="636.071" cy="763.363" r="4" fill="#0" id="circle141"/>
	<circle cx="640.46" cy="4" r="4" fill="#0" id="circle142"/>
	<circle cx="647.044" cy="783.115" r="4" fill="#0" id="circle143"/>
	<circle cx="653.628" cy="357.345" r="4" fill="#0" id="circle144"/>
	<circle cx="653.628" cy="906.018" r="4" fill="#0" id="circle145"/>
	<circle cx="662.407" cy="4" r="4" fill="#0" id="circle146"/>
	<circle cx="666.796" cy="794.088" r="4" fill="#0" id="circle147"/>
	<circle cx="675.575" cy="357.345" r="4" fill="#0" id="circle148"/>
	<circle cx="675.575" cy="906.018" r="4" fill="#0" id="circle149"/>
	<circle cx="684.354" cy="4" r="4" fill="#0" id="circle150"/>
	<circle cx="688.743" cy="794.088" r="4" fill="#0" id="circle151"/>
	<circle cx="695.327" cy="346.372" r="4" fill="#0" id="circle152"/>
	<circle cx="697.522" cy="906.018" r="4" fill="#0" id="circle153"/>
	<circle cx="706.301" cy="4" r="4" fill="#0" id="circle154"/>
	<circle cx="708.496" cy="805.062" r="4" fill="#0" id="circle155"/>
	<circle cx="715.08" cy="335.398" r="4" fill="#0" id="circle156"/>
	<circle cx="719.469" cy="906.018" r="4" fill="#0" id="circle157"/>
	<circle cx="728.248" cy="4" r="4" fill="#0" id="circle158"/>
	<circle cx="730.442" cy="805.062" r="4" fill="#0" id="circle159"/>
	<circle cx="734.832" cy="324.425" r="4" fill="#0" id="circle160"/>
	<circle cx="741.416" cy="906.018" r="4" fill="#0" id="circle161"/>
	<circle cx="750.195" cy="4" r="4" fill="#0" id="circle162"/>
	<circle cx="752.389" cy="811.646" r="4" fill="#0" id="circle163"/>
	<circle cx="756.779" cy="322.23" r="4" fill="#0" id="circle164"/>
	<circle cx="763.363" cy="906.018" r="4" fill="#0" id="circle165"/>
	<circle cx="772.142" cy="4" r="4" fill="#0" id="circle166"/>
	<circle cx="772.142" cy="822.619" r="4" fill="#0" id="circle167"/>
	<circle cx="778.726" cy="311.257" r="4" fill="#0" id="circle168"/>
	<circle cx="785.31" cy="906.018" r="4" fill="#0" id="circle169"/>
	<circle cx="794.088" cy="4" r="4" fill="#0" id="circle170"/>
	<circle cx="794.088" cy="827.009" r="4" fill="#0" id="circle171"/>
	<circle cx="800.673" cy="302.478" r="4" fill="#0" id="circle172"/>
	<circle cx="807.257" cy="906.018" r="4" fill="#0" id="circle173"/>
	<circle cx="813.841" cy="837.982" r="4" fill="#0" id="circle174"/>
	<circle cx="816.035" cy="4" r="4" fill="#0" id="circle175"/>
	<circle cx="820.425" cy="291.504" r="4" fill="#0" id="circle176"/>
	<circle cx="829.204" cy="906.018" r="4" fill="#0" id="circle177"/>
	<circle cx="835.788" cy="840.177" r="4" fill="#0" id="circle178"/>
	<circle cx="837.982" cy="4" r="4" fill="#0" id="circle179"/>
	<circle cx="840.177" cy="280.531" r="4" fill="#0" id="circle180"/>
	<circle cx="851.15" cy="906.018" r="4" fill="#0" id="circle181"/>
	<circle cx="855.54" cy="851.15" r="4" fill="#0" id="circle182"/>
	<circle cx="857.735" cy="265.168" r="4" fill="#0" id="circle183"/>
	<circle cx="859.929" cy="4" r="4" fill="#0" id="circle184"/>
	<circle cx="873.097" cy="247.611" r="4" fill="#0" id="circle185"/>
	<circle cx="873.097" cy="906.018" r="4" fill="#0" id="circle186"/>
	<circle cx="877.487" cy="859.929" r="4" fill="#0" id="circle187"/>
	<circle cx="881.876" cy="4" r="4" fill="#0" id="circle188"/>
	<circle cx="892.85" cy="236.637" r="4" fill="#0" id="circle189"/>
	<circle cx="895.044" cy="906.018" r="4" fill="#0" id="circle190"/>
	<circle cx="897.239" cy="870.903" r="4" fill="#0" id="circle191"/>
	<circle cx="903.823" cy="4" r="4" fill="#0" id="circle192"/>
	<circle cx="910.407" cy="223.469" r="4" fill="#0" id="circle193"/>
	<circle cx="916.991" cy="906.018" r="4" fill="#0" id="circle194"/>
	<circle cx="919.186" cy="870.903" r="4" fill="#0" id="circle195"/>
	<circle cx="925.77" cy="4" r="4" fill="#0" id="circle196"/>
	<circle cx="927.965" cy="203.717" r="4" fill="#0" id="circle197"/>
	<circle cx="938.938" cy="21.5575" r="4" fill="#0" id="circle198"/>
	<circle cx="938.938" cy="170.796" r="4" fill="#0" id="circle199"/>
	<circle cx="938.938" cy="906.018" r="4" fill="#0" id="circle200"/>
	<circle cx="941.133" cy="870.903" r="4" fill="#0" id="circle201"/>
	<circle cx="947.717" cy="43.5044" r="4" fill="#0" id="circle202"/>
	<circle cx="949.912" cy="65.4513" r="4" fill="#0" id="circle203"/>
	<circle cx="949.912" cy="87.3982" r="4" fill="#0" id="circle204"/>
	<circle cx="949.912" cy="109.345" r="4" fill="#0" id="circle205"/>
	<circle cx="949.912" cy="131.292" r="4" fill="#0" id="circle206"/>
	<circle cx="960.885" cy="881.876" r="4" fill="#0" id="circle207"/>
	<circle cx="960.885" cy="906.018" r="4" fill="#0" id="circle208"/>
	<circle cx="982.832" cy="888.46" r="4" fill="#0" id="circle209"/>
	<circle cx="996" cy="906.018" r="4" fill="#0" id="circle210"/>
	</g>
</svg>