<?xml version="1.0" encoding="UTF-8" standalone="no"?>
<!-- Created with CurveBenchmark -->
<svg
	xmlns:dc="http://purl.org/dc/elements/1.1/"
	xmlns:cc="http://creativecommons.org/ns#"
	xmlns:rdf="http://www.w3.org/1999/02/22-rdf-syntax-ns#"
	xmlns:svg="http://www.w3.org/2000/svg"
	xmlns="http://www.w3.org/2000/svg"
	xmlns:sodipodi="http://sodipodi.sourceforge.net/DTD/sodipodi-0.dtd"
	xmlns:inkscape="http://www.inkscape.org/namespaces/inkscape"
	width="1000"
	height="1000"
	id="svg2"
	version="1.1"
	sodipodi:docname="manifold/crawl-Misk08.png.txt">
<defs
	id="defs4" />
<metadata
	id="metadata7">
	<rdf:RDF>
		<cc:Work
			rdf:about="">
			<dc:format>image/svg+xml</dc:format>
			<dc:type
				rdf:resource="http://purl.org/dc/dcmitype/StillImage" />
			<dc:title></dc:title>
		</cc:Work>
	</rdf:RDF>
</metadata>
<g
	inkscape:label="Layer 1"
	inkscape:groupmode="layer"
	id="layer1">
	<path style="fill:none;stroke:red;stroke-width:1px;stroke-linecap:butt;stroke-linejoin:miter;stroke-opacity:1" d="M 37.0116,693.943 37.0116,677.438 z" id="boundary" inkscape:connector-curvature="0" />
	<path style="fill:none;stroke:red;stroke-width:1px;stroke-linecap:butt;stroke-linejoin:miter;stroke-opacity:1" d="M 37.0116,693.943 37.0116,710.449 z" id="boundary" inkscape:connector-curvature="0" />
	<path style="fill:none;stroke:red;stroke-width:1px;stroke-linecap:butt;stroke-linejoin:miter;stroke-opacity:1" d="M 37.0116,710.449 45.2646,725.304 z" id="boundary" inkscape:connector-curvature="0" />
	<path style="fill:none;stroke:red;stroke-width:1px;stroke-linecap:butt;stroke-linejoin:miter;stroke-opacity:1" d="M 45.2646,725.304 53.5175,740.16 z" id="boundary" inkscape:connector-curvature="0" />
	<path style="fill:none;stroke:red;stroke-width:1px;stroke-linecap:butt;stroke-linejoin:miter;stroke-opacity:1" d="M 53.5175,740.16 58.4692,756.666 z" id="boundary" inkscape:connector-curvature="0" />
	<path style="fill:none;stroke:red;stroke-width:1px;stroke-linecap:butt;stroke-linejoin:miter;stroke-opacity:1" d="M 58.4692,756.666 66.7221,771.521 z" id="boundary" inkscape:connector-curvature="0" />
	<path style="fill:none;stroke:red;stroke-width:1px;stroke-linecap:butt;stroke-linejoin:miter;stroke-opacity:1" d="M 66.7221,771.521 79.9268,781.424 z" id="boundary" inkscape:connector-curvature="0" />
	<path style="fill:none;stroke:red;stroke-width:1px;stroke-linecap:butt;stroke-linejoin:miter;stroke-opacity:1" d="M 79.9268,781.424 96.4326,781.424 z" id="boundary" inkscape:connector-curvature="0" />
	<path style="fill:none;stroke:red;stroke-width:1px;stroke-linecap:butt;stroke-linejoin:miter;stroke-opacity:1" d="M 96.4326,781.424 112.938,781.424 z" id="boundary" inkscape:connector-curvature="0" />
	<path style="fill:none;stroke:red;stroke-width:1px;stroke-linecap:butt;stroke-linejoin:miter;stroke-opacity:1" d="M 112.938,781.424 127.794,789.677 z" id="boundary" inkscape:connector-curvature="0" />
	<path style="fill:none;stroke:red;stroke-width:1px;stroke-linecap:butt;stroke-linejoin:miter;stroke-opacity:1" d="M 127.794,789.677 142.649,797.93 z" id="boundary" inkscape:connector-curvature="0" />
	<path style="fill:none;stroke:red;stroke-width:1px;stroke-linecap:butt;stroke-linejoin:miter;stroke-opacity:1" d="M 142.649,797.93 152.552,811.135 z" id="boundary" inkscape:connector-curvature="0" />
	<path style="fill:none;stroke:red;stroke-width:1px;stroke-linecap:butt;stroke-linejoin:miter;stroke-opacity:1" d="M 152.552,811.135 160.805,825.99 z" id="boundary" inkscape:connector-curvature="0" />
	<path style="fill:none;stroke:red;stroke-width:1px;stroke-linecap:butt;stroke-linejoin:miter;stroke-opacity:1" d="M 160.805,825.99 174.01,837.544 z" id="boundary" inkscape:connector-curvature="0" />
	<path style="fill:none;stroke:red;stroke-width:1px;stroke-linecap:butt;stroke-linejoin:miter;stroke-opacity:1" d="M 174.01,837.544 180.612,854.05 z" id="boundary" inkscape:connector-curvature="0" />
	<path style="fill:none;stroke:red;stroke-width:1px;stroke-linecap:butt;stroke-linejoin:miter;stroke-opacity:1" d="M 180.612,854.05 188.865,868.905 z" id="boundary" inkscape:connector-curvature="0" />
	<path style="fill:none;stroke:red;stroke-width:1px;stroke-linecap:butt;stroke-linejoin:miter;stroke-opacity:1" d="M 188.865,868.905 195.468,885.411 z" id="boundary" inkscape:connector-curvature="0" />
	<path style="fill:none;stroke:red;stroke-width:1px;stroke-linecap:butt;stroke-linejoin:miter;stroke-opacity:1" d="M 195.468,885.411 208.672,896.965 z" id="boundary" inkscape:connector-curvature="0" />
	<path style="fill:none;stroke:red;stroke-width:1px;stroke-linecap:butt;stroke-linejoin:miter;stroke-opacity:1" d="M 208.672,896.965 223.527,905.218 z" id="boundary" inkscape:connector-curvature="0" />
	<path style="fill:none;stroke:red;stroke-width:1px;stroke-linecap:butt;stroke-linejoin:miter;stroke-opacity:1" d="M 223.527,905.218 238.383,913.471 z" id="boundary" inkscape:connector-curvature="0" />
	<path style="fill:none;stroke:red;stroke-width:1px;stroke-linecap:butt;stroke-linejoin:miter;stroke-opacity:1" d="M 238.383,913.471 253.238,921.724 z" id="boundary" inkscape:connector-curvature="0" />
	<path style="fill:none;stroke:red;stroke-width:1px;stroke-linecap:butt;stroke-linejoin:miter;stroke-opacity:1" d="M 253.238,921.724 269.744,921.724 z" id="boundary" inkscape:connector-curvature="0" />
	<path style="fill:none;stroke:red;stroke-width:1px;stroke-linecap:butt;stroke-linejoin:miter;stroke-opacity:1" d="M 269.744,921.724 284.599,929.977 z" id="boundary" inkscape:connector-curvature="0" />
	<path style="fill:none;stroke:red;stroke-width:1px;stroke-linecap:butt;stroke-linejoin:miter;stroke-opacity:1" d="M 284.599,929.977 301.105,929.977 z" id="boundary" inkscape:connector-curvature="0" />
	<path style="fill:none;stroke:red;stroke-width:1px;stroke-linecap:butt;stroke-linejoin:miter;stroke-opacity:1" d="M 301.105,929.977 317.611,929.977 z" id="boundary" inkscape:connector-curvature="0" />
	<path style="fill:none;stroke:red;stroke-width:1px;stroke-linecap:butt;stroke-linejoin:miter;stroke-opacity:1" d="M 317.611,929.977 332.466,938.23 z" id="boundary" inkscape:connector-curvature="0" />
	<path style="fill:none;stroke:red;stroke-width:1px;stroke-linecap:butt;stroke-linejoin:miter;stroke-opacity:1" d="M 332.466,938.23 347.321,946.483 z" id="boundary" inkscape:connector-curvature="0" />
	<path style="fill:none;stroke:red;stroke-width:1px;stroke-linecap:butt;stroke-linejoin:miter;stroke-opacity:1" d="M 347.321,946.483 363.827,953.085 z" id="boundary" inkscape:connector-curvature="0" />
	<path style="fill:none;stroke:red;stroke-width:1px;stroke-linecap:butt;stroke-linejoin:miter;stroke-opacity:1" d="M 363.827,953.085 378.682,961.338 z" id="boundary" inkscape:connector-curvature="0" />
	<path style="fill:none;stroke:red;stroke-width:1px;stroke-linecap:butt;stroke-linejoin:miter;stroke-opacity:1" d="M 378.682,961.338 395.188,967.94 z" id="boundary" inkscape:connector-curvature="0" />
	<path style="fill:none;stroke:red;stroke-width:1px;stroke-linecap:butt;stroke-linejoin:miter;stroke-opacity:1" d="M 395.188,967.94 411.694,971.241 z" id="boundary" inkscape:connector-curvature="0" />
	<path style="fill:none;stroke:red;stroke-width:1px;stroke-linecap:butt;stroke-linejoin:miter;stroke-opacity:1" d="M 411.694,971.241 426.549,979.494 z" id="boundary" inkscape:connector-curvature="0" />
	<path style="fill:none;stroke:red;stroke-width:1px;stroke-linecap:butt;stroke-linejoin:miter;stroke-opacity:1" d="M 426.549,979.494 441.404,987.747 z" id="boundary" inkscape:connector-curvature="0" />
	<path style="fill:none;stroke:red;stroke-width:1px;stroke-linecap:butt;stroke-linejoin:miter;stroke-opacity:1" d="M 441.404,987.747 457.91,987.747 z" id="boundary" inkscape:connector-curvature="0" />
	<path style="fill:none;stroke:red;stroke-width:1px;stroke-linecap:butt;stroke-linejoin:miter;stroke-opacity:1" d="M 457.91,987.747 472.765,996 z" id="boundary" inkscape:connector-curvature="0" />
	<path style="fill:none;stroke:red;stroke-width:1px;stroke-linecap:butt;stroke-linejoin:miter;stroke-opacity:1" d="M 472.765,996 489.271,996 z" id="boundary" inkscape:connector-curvature="0" />
	<path style="fill:none;stroke:red;stroke-width:1px;stroke-linecap:butt;stroke-linejoin:miter;stroke-opacity:1" d="M 489.271,996 505.777,996 z" id="boundary" inkscape:connector-curvature="0" />
	<path style="fill:none;stroke:red;stroke-width:1px;stroke-linecap:butt;stroke-linejoin:miter;stroke-opacity:1" d="M 505.777,996 522.283,996 z" id="boundary" inkscape:connector-curvature="0" />
	<path style="fill:none;stroke:red;stroke-width:1px;stroke-linecap:butt;stroke-linejoin:miter;stroke-opacity:1" d="M 522.283,996 538.789,996 z" id="boundary" inkscape:connector-curvature="0" />
	<path style="fill:none;stroke:red;stroke-width:1px;stroke-linecap:butt;stroke-linejoin:miter;stroke-opacity:1" d="M 538.789,996 553.644,987.747 z" id="boundary" inkscape:connector-curvature="0" />
	<path style="fill:none;stroke:red;stroke-width:1px;stroke-linecap:butt;stroke-linejoin:miter;stroke-opacity:1" d="M 553.644,987.747 570.15,987.747 z" id="boundary" inkscape:connector-curvature="0" />
	<path style="fill:none;stroke:red;stroke-width:1px;stroke-linecap:butt;stroke-linejoin:miter;stroke-opacity:1" d="M 570.15,987.747 586.656,986.097 z" id="boundary" inkscape:connector-curvature="0" />
	<path style="fill:none;stroke:red;stroke-width:1px;stroke-linecap:butt;stroke-linejoin:miter;stroke-opacity:1" d="M 586.656,986.097 603.161,979.494 z" id="boundary" inkscape:connector-curvature="0" />
	<path style="fill:none;stroke:red;stroke-width:1px;stroke-linecap:butt;stroke-linejoin:miter;stroke-opacity:1" d="M 603.161,979.494 618.017,971.241 z" id="boundary" inkscape:connector-curvature="0" />
	<path style="fill:none;stroke:red;stroke-width:1px;stroke-linecap:butt;stroke-linejoin:miter;stroke-opacity:1" d="M 618.017,971.241 632.872,962.988 z" id="boundary" inkscape:connector-curvature="0" />
	<path style="fill:none;stroke:red;stroke-width:1px;stroke-linecap:butt;stroke-linejoin:miter;stroke-opacity:1" d="M 632.872,962.988 649.378,962.988 z" id="boundary" inkscape:connector-curvature="0" />
	<path style="fill:none;stroke:red;stroke-width:1px;stroke-linecap:butt;stroke-linejoin:miter;stroke-opacity:1" d="M 649.378,962.988 664.233,954.735 z" id="boundary" inkscape:connector-curvature="0" />
	<path style="fill:none;stroke:red;stroke-width:1px;stroke-linecap:butt;stroke-linejoin:miter;stroke-opacity:1" d="M 664.233,954.735 679.088,946.483 z" id="boundary" inkscape:connector-curvature="0" />
	<path style="fill:none;stroke:red;stroke-width:1px;stroke-linecap:butt;stroke-linejoin:miter;stroke-opacity:1" d="M 679.088,946.483 693.943,938.23 z" id="boundary" inkscape:connector-curvature="0" />
	<path style="fill:none;stroke:red;stroke-width:1px;stroke-linecap:butt;stroke-linejoin:miter;stroke-opacity:1" d="M 693.943,938.23 708.799,929.977 z" id="boundary" inkscape:connector-curvature="0" />
	<path style="fill:none;stroke:red;stroke-width:1px;stroke-linecap:butt;stroke-linejoin:miter;stroke-opacity:1" d="M 708.799,929.977 723.654,921.724 z" id="boundary" inkscape:connector-curvature="0" />
	<path style="fill:none;stroke:red;stroke-width:1px;stroke-linecap:butt;stroke-linejoin:miter;stroke-opacity:1" d="M 723.654,921.724 738.509,913.471 z" id="boundary" inkscape:connector-curvature="0" />
	<path style="fill:none;stroke:red;stroke-width:1px;stroke-linecap:butt;stroke-linejoin:miter;stroke-opacity:1" d="M 738.509,913.471 753.364,905.218 z" id="boundary" inkscape:connector-curvature="0" />
	<path style="fill:none;stroke:red;stroke-width:1px;stroke-linecap:butt;stroke-linejoin:miter;stroke-opacity:1" d="M 753.364,905.218 768.22,895.314 z" id="boundary" inkscape:connector-curvature="0" />
	<path style="fill:none;stroke:red;stroke-width:1px;stroke-linecap:butt;stroke-linejoin:miter;stroke-opacity:1" d="M 37.0116,677.438 45.2646,652.679 z" id="boundary" inkscape:connector-curvature="0" />
	<path style="fill:none;stroke:red;stroke-width:1px;stroke-linecap:butt;stroke-linejoin:miter;stroke-opacity:1" d="M 45.2646,652.679 53.5175,636.173 z" id="boundary" inkscape:connector-curvature="0" />
	<path style="fill:none;stroke:red;stroke-width:1px;stroke-linecap:butt;stroke-linejoin:miter;stroke-opacity:1" d="M 53.5175,636.173 66.7221,622.968 z" id="boundary" inkscape:connector-curvature="0" />
	<path style="fill:none;stroke:red;stroke-width:1px;stroke-linecap:butt;stroke-linejoin:miter;stroke-opacity:1" d="M 66.7221,622.968 74.975,606.463 z" id="boundary" inkscape:connector-curvature="0" />
	<path style="fill:none;stroke:red;stroke-width:1px;stroke-linecap:butt;stroke-linejoin:miter;stroke-opacity:1" d="M 74.975,606.463 83.228,589.957 z" id="boundary" inkscape:connector-curvature="0" />
	<path style="fill:none;stroke:red;stroke-width:1px;stroke-linecap:butt;stroke-linejoin:miter;stroke-opacity:1" d="M 83.228,589.957 91.4809,573.451 z" id="boundary" inkscape:connector-curvature="0" />
	<path style="fill:none;stroke:red;stroke-width:1px;stroke-linecap:butt;stroke-linejoin:miter;stroke-opacity:1" d="M 91.4809,573.451 94.782,553.644 z" id="boundary" inkscape:connector-curvature="0" />
	<path style="fill:none;stroke:red;stroke-width:1px;stroke-linecap:butt;stroke-linejoin:miter;stroke-opacity:1" d="M 94.782,553.644 103.035,537.138 z" id="boundary" inkscape:connector-curvature="0" />
	<path style="fill:none;stroke:red;stroke-width:1px;stroke-linecap:butt;stroke-linejoin:miter;stroke-opacity:1" d="M 103.035,537.138 111.288,512.379 z" id="boundary" inkscape:connector-curvature="0" />
	<path style="fill:none;stroke:red;stroke-width:1px;stroke-linecap:butt;stroke-linejoin:miter;stroke-opacity:1" d="M 111.288,512.379 119.541,487.621 z" id="boundary" inkscape:connector-curvature="0" />
	<path style="fill:none;stroke:red;stroke-width:1px;stroke-linecap:butt;stroke-linejoin:miter;stroke-opacity:1" d="M 119.541,487.621 127.794,467.814 z" id="boundary" inkscape:connector-curvature="0" />
	<path style="fill:none;stroke:red;stroke-width:1px;stroke-linecap:butt;stroke-linejoin:miter;stroke-opacity:1" d="M 127.794,467.814 127.794,451.308 z" id="boundary" inkscape:connector-curvature="0" />
	<path style="fill:none;stroke:red;stroke-width:1px;stroke-linecap:butt;stroke-linejoin:miter;stroke-opacity:1" d="M 127.794,451.308 127.794,434.802 z" id="boundary" inkscape:connector-curvature="0" />
	<path style="fill:none;stroke:red;stroke-width:1px;stroke-linecap:butt;stroke-linejoin:miter;stroke-opacity:1" d="M 127.794,434.802 127.794,418.296 z" id="boundary" inkscape:connector-curvature="0" />
	<path style="fill:none;stroke:red;stroke-width:1px;stroke-linecap:butt;stroke-linejoin:miter;stroke-opacity:1" d="M 127.794,418.296 127.794,401.79 z" id="boundary" inkscape:connector-curvature="0" />
	<path style="fill:none;stroke:red;stroke-width:1px;stroke-linecap:butt;stroke-linejoin:miter;stroke-opacity:1" d="M 127.794,401.79 127.794,385.285 z" id="boundary" inkscape:connector-curvature="0" />
	<path style="fill:none;stroke:red;stroke-width:1px;stroke-linecap:butt;stroke-linejoin:miter;stroke-opacity:1" d="M 127.794,385.285 124.493,368.779 z" id="boundary" inkscape:connector-curvature="0" />
	<path style="fill:none;stroke:red;stroke-width:1px;stroke-linecap:butt;stroke-linejoin:miter;stroke-opacity:1" d="M 124.493,368.779 119.541,352.273 z" id="boundary" inkscape:connector-curvature="0" />
	<path style="fill:none;stroke:red;stroke-width:1px;stroke-linecap:butt;stroke-linejoin:miter;stroke-opacity:1" d="M 119.541,352.273 119.541,335.767 z" id="boundary" inkscape:connector-curvature="0" />
	<path style="fill:none;stroke:red;stroke-width:1px;stroke-linecap:butt;stroke-linejoin:miter;stroke-opacity:1" d="M 119.541,335.767 111.288,320.912 z" id="boundary" inkscape:connector-curvature="0" />
	<path style="fill:none;stroke:red;stroke-width:1px;stroke-linecap:butt;stroke-linejoin:miter;stroke-opacity:1" d="M 111.288,320.912 103.035,306.057 z" id="boundary" inkscape:connector-curvature="0" />
	<path style="fill:none;stroke:red;stroke-width:1px;stroke-linecap:butt;stroke-linejoin:miter;stroke-opacity:1" d="M 103.035,306.057 91.4809,292.852 z" id="boundary" inkscape:connector-curvature="0" />
	<path style="fill:none;stroke:red;stroke-width:1px;stroke-linecap:butt;stroke-linejoin:miter;stroke-opacity:1" d="M 91.4809,292.852 78.2762,281.298 z" id="boundary" inkscape:connector-curvature="0" />
	<path style="fill:none;stroke:red;stroke-width:1px;stroke-linecap:butt;stroke-linejoin:miter;stroke-opacity:1" d="M 78.2762,281.298 66.7221,268.093 z" id="boundary" inkscape:connector-curvature="0" />
	<path style="fill:none;stroke:red;stroke-width:1px;stroke-linecap:butt;stroke-linejoin:miter;stroke-opacity:1" d="M 66.7221,268.093 53.5175,256.539 z" id="boundary" inkscape:connector-curvature="0" />
	<path style="fill:none;stroke:red;stroke-width:1px;stroke-linecap:butt;stroke-linejoin:miter;stroke-opacity:1" d="M 53.5175,256.539 41.9634,243.334 z" id="boundary" inkscape:connector-curvature="0" />
	<path style="fill:none;stroke:red;stroke-width:1px;stroke-linecap:butt;stroke-linejoin:miter;stroke-opacity:1" d="M 41.9634,243.334 28.7587,231.78 z" id="boundary" inkscape:connector-curvature="0" />
	<path style="fill:none;stroke:red;stroke-width:1px;stroke-linecap:butt;stroke-linejoin:miter;stroke-opacity:1" d="M 28.7587,231.78 17.2047,218.576 z" id="boundary" inkscape:connector-curvature="0" />
	<path style="fill:none;stroke:red;stroke-width:1px;stroke-linecap:butt;stroke-linejoin:miter;stroke-opacity:1" d="M 17.2047,218.576 4,207.022 z" id="boundary" inkscape:connector-curvature="0" />
	<path style="fill:none;stroke:red;stroke-width:1px;stroke-linecap:butt;stroke-linejoin:miter;stroke-opacity:1" d="M 4,207.022 12.2529,190.516 z" id="boundary" inkscape:connector-curvature="0" />
	<path style="fill:none;stroke:red;stroke-width:1px;stroke-linecap:butt;stroke-linejoin:miter;stroke-opacity:1" d="M 12.2529,190.516 25.4576,177.311 z" id="boundary" inkscape:connector-curvature="0" />
	<path style="fill:none;stroke:red;stroke-width:1px;stroke-linecap:butt;stroke-linejoin:miter;stroke-opacity:1" d="M 25.4576,177.311 40.3128,169.058 z" id="boundary" inkscape:connector-curvature="0" />
	<path style="fill:none;stroke:red;stroke-width:1px;stroke-linecap:butt;stroke-linejoin:miter;stroke-opacity:1" d="M 40.3128,169.058 55.1681,160.805 z" id="boundary" inkscape:connector-curvature="0" />
	<path style="fill:none;stroke:red;stroke-width:1px;stroke-linecap:butt;stroke-linejoin:miter;stroke-opacity:1" d="M 55.1681,160.805 70.0233,149.251 z" id="boundary" inkscape:connector-curvature="0" />
	<path style="fill:none;stroke:red;stroke-width:1px;stroke-linecap:butt;stroke-linejoin:miter;stroke-opacity:1" d="M 70.0233,149.251 83.228,136.047 z" id="boundary" inkscape:connector-curvature="0" />
	<path style="fill:none;stroke:red;stroke-width:1px;stroke-linecap:butt;stroke-linejoin:miter;stroke-opacity:1" d="M 83.228,136.047 96.4326,122.842 z" id="boundary" inkscape:connector-curvature="0" />
	<path style="fill:none;stroke:red;stroke-width:1px;stroke-linecap:butt;stroke-linejoin:miter;stroke-opacity:1" d="M 96.4326,122.842 109.637,111.288 z" id="boundary" inkscape:connector-curvature="0" />
	<path style="fill:none;stroke:red;stroke-width:1px;stroke-linecap:butt;stroke-linejoin:miter;stroke-opacity:1" d="M 109.637,111.288 121.191,98.0832 z" id="boundary" inkscape:connector-curvature="0" />
	<path style="fill:none;stroke:red;stroke-width:1px;stroke-linecap:butt;stroke-linejoin:miter;stroke-opacity:1" d="M 121.191,98.0832 134.396,86.5291 z" id="boundary" inkscape:connector-curvature="0" />
	<path style="fill:none;stroke:red;stroke-width:1px;stroke-linecap:butt;stroke-linejoin:miter;stroke-opacity:1" d="M 134.396,86.5291 149.251,78.2762 z" id="boundary" inkscape:connector-curvature="0" />
	<path style="fill:none;stroke:red;stroke-width:1px;stroke-linecap:butt;stroke-linejoin:miter;stroke-opacity:1" d="M 149.251,78.2762 162.456,65.0715 z" id="boundary" inkscape:connector-curvature="0" />
	<path style="fill:none;stroke:red;stroke-width:1px;stroke-linecap:butt;stroke-linejoin:miter;stroke-opacity:1" d="M 162.456,65.0715 178.962,56.8186 z" id="boundary" inkscape:connector-curvature="0" />
	<path style="fill:none;stroke:red;stroke-width:1px;stroke-linecap:butt;stroke-linejoin:miter;stroke-opacity:1" d="M 178.962,56.8186 195.468,48.5657 z" id="boundary" inkscape:connector-curvature="0" />
	<path style="fill:none;stroke:red;stroke-width:1px;stroke-linecap:butt;stroke-linejoin:miter;stroke-opacity:1" d="M 195.468,48.5657 211.973,40.3128 z" id="boundary" inkscape:connector-curvature="0" />
	<path style="fill:none;stroke:red;stroke-width:1px;stroke-linecap:butt;stroke-linejoin:miter;stroke-opacity:1" d="M 211.973,40.3128 225.178,28.7587 z" id="boundary" inkscape:connector-curvature="0" />
	<path style="fill:none;stroke:red;stroke-width:1px;stroke-linecap:butt;stroke-linejoin:miter;stroke-opacity:1" d="M 225.178,28.7587 240.033,20.5058 z" id="boundary" inkscape:connector-curvature="0" />
	<path style="fill:none;stroke:red;stroke-width:1px;stroke-linecap:butt;stroke-linejoin:miter;stroke-opacity:1" d="M 240.033,20.5058 256.539,12.2529 z" id="boundary" inkscape:connector-curvature="0" />
	<path style="fill:none;stroke:red;stroke-width:1px;stroke-linecap:butt;stroke-linejoin:miter;stroke-opacity:1" d="M 256.539,12.2529 273.045,12.2529 z" id="boundary" inkscape:connector-curvature="0" />
	<path style="fill:none;stroke:red;stroke-width:1px;stroke-linecap:butt;stroke-linejoin:miter;stroke-opacity:1" d="M 273.045,12.2529 287.9,4 z" id="boundary" inkscape:connector-curvature="0" />
	<path style="fill:none;stroke:red;stroke-width:1px;stroke-linecap:butt;stroke-linejoin:miter;stroke-opacity:1" d="M 287.9,4 304.406,4 z" id="boundary" inkscape:connector-curvature="0" />
	<path style="fill:none;stroke:red;stroke-width:1px;stroke-linecap:butt;stroke-linejoin:miter;stroke-opacity:1" d="M 304.406,4 320.912,4 z" id="boundary" inkscape:connector-curvature="0" />
	<path style="fill:none;stroke:red;stroke-width:1px;stroke-linecap:butt;stroke-linejoin:miter;stroke-opacity:1" d="M 320.912,4 337.418,4 z" id="boundary" inkscape:connector-curvature="0" />
	<path style="fill:none;stroke:red;stroke-width:1px;stroke-linecap:butt;stroke-linejoin:miter;stroke-opacity:1" d="M 337.418,4 353.923,4 z" id="boundary" inkscape:connector-curvature="0" />
	<path style="fill:none;stroke:red;stroke-width:1px;stroke-linecap:butt;stroke-linejoin:miter;stroke-opacity:1" d="M 353.923,4 370.429,4 z" id="boundary" inkscape:connector-curvature="0" />
	<path style="fill:none;stroke:red;stroke-width:1px;stroke-linecap:butt;stroke-linejoin:miter;stroke-opacity:1" d="M 370.429,4 386.935,4 z" id="boundary" inkscape:connector-curvature="0" />
	<path style="fill:none;stroke:red;stroke-width:1px;stroke-linecap:butt;stroke-linejoin:miter;stroke-opacity:1" d="M 386.935,4 403.441,4 z" id="boundary" inkscape:connector-curvature="0" />
	<path style="fill:none;stroke:red;stroke-width:1px;stroke-linecap:butt;stroke-linejoin:miter;stroke-opacity:1" d="M 403.441,4 419.947,4 z" id="boundary" inkscape:connector-curvature="0" />
	<path style="fill:none;stroke:red;stroke-width:1px;stroke-linecap:butt;stroke-linejoin:miter;stroke-opacity:1" d="M 419.947,4 434.802,12.2529 z" id="boundary" inkscape:connector-curvature="0" />
	<path style="fill:none;stroke:red;stroke-width:1px;stroke-linecap:butt;stroke-linejoin:miter;stroke-opacity:1" d="M 434.802,12.2529 451.308,12.2529 z" id="boundary" inkscape:connector-curvature="0" />
	<path style="fill:none;stroke:red;stroke-width:1px;stroke-linecap:butt;stroke-linejoin:miter;stroke-opacity:1" d="M 451.308,12.2529 467.814,12.2529 z" id="boundary" inkscape:connector-curvature="0" />
	<path style="fill:none;stroke:red;stroke-width:1px;stroke-linecap:butt;stroke-linejoin:miter;stroke-opacity:1" d="M 467.814,12.2529 482.669,20.5058 z" id="boundary" inkscape:connector-curvature="0" />
	<path style="fill:none;stroke:red;stroke-width:1px;stroke-linecap:butt;stroke-linejoin:miter;stroke-opacity:1" d="M 482.669,20.5058 497.524,28.7587 z" id="boundary" inkscape:connector-curvature="0" />
	<path style="fill:none;stroke:red;stroke-width:1px;stroke-linecap:butt;stroke-linejoin:miter;stroke-opacity:1" d="M 497.524,28.7587 512.379,37.0116 z" id="boundary" inkscape:connector-curvature="0" />
	<path style="fill:none;stroke:red;stroke-width:1px;stroke-linecap:butt;stroke-linejoin:miter;stroke-opacity:1" d="M 512.379,37.0116 523.933,50.2163 z" id="boundary" inkscape:connector-curvature="0" />
	<path style="fill:none;stroke:red;stroke-width:1px;stroke-linecap:butt;stroke-linejoin:miter;stroke-opacity:1" d="M 523.933,50.2163 540.439,56.8186 z" id="boundary" inkscape:connector-curvature="0" />
	<path style="fill:none;stroke:red;stroke-width:1px;stroke-linecap:butt;stroke-linejoin:miter;stroke-opacity:1" d="M 540.439,56.8186 550.343,70.0233 z" id="boundary" inkscape:connector-curvature="0" />
	<path style="fill:none;stroke:red;stroke-width:1px;stroke-linecap:butt;stroke-linejoin:miter;stroke-opacity:1" d="M 550.343,70.0233 563.547,79.9268 z" id="boundary" inkscape:connector-curvature="0" />
	<path style="fill:none;stroke:red;stroke-width:1px;stroke-linecap:butt;stroke-linejoin:miter;stroke-opacity:1" d="M 563.547,79.9268 575.101,93.1314 z" id="boundary" inkscape:connector-curvature="0" />
	<path style="fill:none;stroke:red;stroke-width:1px;stroke-linecap:butt;stroke-linejoin:miter;stroke-opacity:1" d="M 575.101,93.1314 588.306,104.686 z" id="boundary" inkscape:connector-curvature="0" />
	<path style="fill:none;stroke:red;stroke-width:1px;stroke-linecap:butt;stroke-linejoin:miter;stroke-opacity:1" d="M 588.306,104.686 603.161,112.938 z" id="boundary" inkscape:connector-curvature="0" />
	<path style="fill:none;stroke:red;stroke-width:1px;stroke-linecap:butt;stroke-linejoin:miter;stroke-opacity:1" d="M 603.161,112.938 616.366,124.493 z" id="boundary" inkscape:connector-curvature="0" />
	<path style="fill:none;stroke:red;stroke-width:1px;stroke-linecap:butt;stroke-linejoin:miter;stroke-opacity:1" d="M 616.366,124.493 629.571,136.047 z" id="boundary" inkscape:connector-curvature="0" />
	<path style="fill:none;stroke:red;stroke-width:1px;stroke-linecap:butt;stroke-linejoin:miter;stroke-opacity:1" d="M 629.571,136.047 644.426,144.3 z" id="boundary" inkscape:connector-curvature="0" />
	<path style="fill:none;stroke:red;stroke-width:1px;stroke-linecap:butt;stroke-linejoin:miter;stroke-opacity:1" d="M 644.426,144.3 659.281,152.552 z" id="boundary" inkscape:connector-curvature="0" />
	<path style="fill:none;stroke:red;stroke-width:1px;stroke-linecap:butt;stroke-linejoin:miter;stroke-opacity:1" d="M 659.281,152.552 675.787,152.552 z" id="boundary" inkscape:connector-curvature="0" />
	<path style="fill:none;stroke:red;stroke-width:1px;stroke-linecap:butt;stroke-linejoin:miter;stroke-opacity:1" d="M 675.787,152.552 692.293,152.552 z" id="boundary" inkscape:connector-curvature="0" />
	<path style="fill:none;stroke:red;stroke-width:1px;stroke-linecap:butt;stroke-linejoin:miter;stroke-opacity:1" d="M 692.293,152.552 708.799,152.552 z" id="boundary" inkscape:connector-curvature="0" />
	<path style="fill:none;stroke:red;stroke-width:1px;stroke-linecap:butt;stroke-linejoin:miter;stroke-opacity:1" d="M 708.799,152.552 723.654,144.3 z" id="boundary" inkscape:connector-curvature="0" />
	<path style="fill:none;stroke:red;stroke-width:1px;stroke-linecap:butt;stroke-linejoin:miter;stroke-opacity:1" d="M 723.654,144.3 738.509,136.047 z" id="boundary" inkscape:connector-curvature="0" />
	<path style="fill:none;stroke:red;stroke-width:1px;stroke-linecap:butt;stroke-linejoin:miter;stroke-opacity:1" d="M 738.509,136.047 755.015,136.047 z" id="boundary" inkscape:connector-curvature="0" />
	<path style="fill:none;stroke:red;stroke-width:1px;stroke-linecap:butt;stroke-linejoin:miter;stroke-opacity:1" d="M 755.015,136.047 771.521,136.047 z" id="boundary" inkscape:connector-curvature="0" />
	<path style="fill:none;stroke:red;stroke-width:1px;stroke-linecap:butt;stroke-linejoin:miter;stroke-opacity:1" d="M 771.521,136.047 788.027,139.348 z" id="boundary" inkscape:connector-curvature="0" />
	<path style="fill:none;stroke:red;stroke-width:1px;stroke-linecap:butt;stroke-linejoin:miter;stroke-opacity:1" d="M 788.027,139.348 797.93,152.552 z" id="boundary" inkscape:connector-curvature="0" />
	<path style="fill:none;stroke:red;stroke-width:1px;stroke-linecap:butt;stroke-linejoin:miter;stroke-opacity:1" d="M 797.93,152.552 797.93,169.058 z" id="boundary" inkscape:connector-curvature="0" />
	<path style="fill:none;stroke:red;stroke-width:1px;stroke-linecap:butt;stroke-linejoin:miter;stroke-opacity:1" d="M 797.93,169.058 797.93,185.564 z" id="boundary" inkscape:connector-curvature="0" />
	<path style="fill:none;stroke:red;stroke-width:1px;stroke-linecap:butt;stroke-linejoin:miter;stroke-opacity:1" d="M 797.93,185.564 794.629,208.672 z" id="boundary" inkscape:connector-curvature="0" />
	<path style="fill:none;stroke:red;stroke-width:1px;stroke-linecap:butt;stroke-linejoin:miter;stroke-opacity:1" d="M 794.629,208.672 781.424,220.226 z" id="boundary" inkscape:connector-curvature="0" />
	<path style="fill:none;stroke:red;stroke-width:1px;stroke-linecap:butt;stroke-linejoin:miter;stroke-opacity:1" d="M 781.424,220.226 773.171,236.732 z" id="boundary" inkscape:connector-curvature="0" />
	<path style="fill:none;stroke:red;stroke-width:1px;stroke-linecap:butt;stroke-linejoin:miter;stroke-opacity:1" d="M 773.171,236.732 773.171,253.238 z" id="boundary" inkscape:connector-curvature="0" />
	<path style="fill:none;stroke:red;stroke-width:1px;stroke-linecap:butt;stroke-linejoin:miter;stroke-opacity:1" d="M 773.171,253.238 776.473,269.744 z" id="boundary" inkscape:connector-curvature="0" />
	<path style="fill:none;stroke:red;stroke-width:1px;stroke-linecap:butt;stroke-linejoin:miter;stroke-opacity:1" d="M 776.473,269.744 789.677,281.298 z" id="boundary" inkscape:connector-curvature="0" />
	<path style="fill:none;stroke:red;stroke-width:1px;stroke-linecap:butt;stroke-linejoin:miter;stroke-opacity:1" d="M 789.677,281.298 801.231,294.502 z" id="boundary" inkscape:connector-curvature="0" />
	<path style="fill:none;stroke:red;stroke-width:1px;stroke-linecap:butt;stroke-linejoin:miter;stroke-opacity:1" d="M 801.231,294.502 814.436,306.057 z" id="boundary" inkscape:connector-curvature="0" />
	<path style="fill:none;stroke:red;stroke-width:1px;stroke-linecap:butt;stroke-linejoin:miter;stroke-opacity:1" d="M 814.436,306.057 814.436,322.562 z" id="boundary" inkscape:connector-curvature="0" />
	<path style="fill:none;stroke:red;stroke-width:1px;stroke-linecap:butt;stroke-linejoin:miter;stroke-opacity:1" d="M 814.436,322.562 822.689,337.418 z" id="boundary" inkscape:connector-curvature="0" />
	<path style="fill:none;stroke:red;stroke-width:1px;stroke-linecap:butt;stroke-linejoin:miter;stroke-opacity:1" d="M 822.689,337.418 819.388,357.225 z" id="boundary" inkscape:connector-curvature="0" />
	<path style="fill:none;stroke:red;stroke-width:1px;stroke-linecap:butt;stroke-linejoin:miter;stroke-opacity:1" d="M 819.388,357.225 806.183,368.779 z" id="boundary" inkscape:connector-curvature="0" />
	<path style="fill:none;stroke:red;stroke-width:1px;stroke-linecap:butt;stroke-linejoin:miter;stroke-opacity:1" d="M 806.183,368.779 794.629,381.983 z" id="boundary" inkscape:connector-curvature="0" />
	<path style="fill:none;stroke:red;stroke-width:1px;stroke-linecap:butt;stroke-linejoin:miter;stroke-opacity:1" d="M 794.629,381.983 781.424,393.537 z" id="boundary" inkscape:connector-curvature="0" />
	<path style="fill:none;stroke:red;stroke-width:1px;stroke-linecap:butt;stroke-linejoin:miter;stroke-opacity:1" d="M 781.424,393.537 768.22,408.393 z" id="boundary" inkscape:connector-curvature="0" />
	<path style="fill:none;stroke:red;stroke-width:1px;stroke-linecap:butt;stroke-linejoin:miter;stroke-opacity:1" d="M 768.22,408.393 755.015,418.296 z" id="boundary" inkscape:connector-curvature="0" />
	<path style="fill:none;stroke:red;stroke-width:1px;stroke-linecap:butt;stroke-linejoin:miter;stroke-opacity:1" d="M 755.015,418.296 740.16,426.549 z" id="boundary" inkscape:connector-curvature="0" />
	<path style="fill:none;stroke:red;stroke-width:1px;stroke-linecap:butt;stroke-linejoin:miter;stroke-opacity:1" d="M 740.16,426.549 723.654,434.802 z" id="boundary" inkscape:connector-curvature="0" />
	<path style="fill:none;stroke:red;stroke-width:1px;stroke-linecap:butt;stroke-linejoin:miter;stroke-opacity:1" d="M 723.654,434.802 707.148,443.055 z" id="boundary" inkscape:connector-curvature="0" />
	<path style="fill:none;stroke:red;stroke-width:1px;stroke-linecap:butt;stroke-linejoin:miter;stroke-opacity:1" d="M 707.148,443.055 707.148,459.561 z" id="boundary" inkscape:connector-curvature="0" />
	<path style="fill:none;stroke:red;stroke-width:1px;stroke-linecap:butt;stroke-linejoin:miter;stroke-opacity:1" d="M 707.148,459.561 715.401,474.416 z" id="boundary" inkscape:connector-curvature="0" />
	<path style="fill:none;stroke:red;stroke-width:1px;stroke-linecap:butt;stroke-linejoin:miter;stroke-opacity:1" d="M 715.401,474.416 723.654,489.271 z" id="boundary" inkscape:connector-curvature="0" />
	<path style="fill:none;stroke:red;stroke-width:1px;stroke-linecap:butt;stroke-linejoin:miter;stroke-opacity:1" d="M 723.654,489.271 736.859,500.825 z" id="boundary" inkscape:connector-curvature="0" />
	<path style="fill:none;stroke:red;stroke-width:1px;stroke-linecap:butt;stroke-linejoin:miter;stroke-opacity:1" d="M 736.859,500.825 743.461,517.331 z" id="boundary" inkscape:connector-curvature="0" />
	<path style="fill:none;stroke:red;stroke-width:1px;stroke-linecap:butt;stroke-linejoin:miter;stroke-opacity:1" d="M 743.461,517.331 756.666,528.885 z" id="boundary" inkscape:connector-curvature="0" />
	<path style="fill:none;stroke:red;stroke-width:1px;stroke-linecap:butt;stroke-linejoin:miter;stroke-opacity:1" d="M 756.666,528.885 768.22,542.09 z" id="boundary" inkscape:connector-curvature="0" />
	<path style="fill:none;stroke:red;stroke-width:1px;stroke-linecap:butt;stroke-linejoin:miter;stroke-opacity:1" d="M 768.22,542.09 781.424,553.644 z" id="boundary" inkscape:connector-curvature="0" />
	<path style="fill:none;stroke:red;stroke-width:1px;stroke-linecap:butt;stroke-linejoin:miter;stroke-opacity:1" d="M 781.424,553.644 788.027,570.15 z" id="boundary" inkscape:connector-curvature="0" />
	<path style="fill:none;stroke:red;stroke-width:1px;stroke-linecap:butt;stroke-linejoin:miter;stroke-opacity:1" d="M 788.027,570.15 801.231,581.704 z" id="boundary" inkscape:connector-curvature="0" />
	<path style="fill:none;stroke:red;stroke-width:1px;stroke-linecap:butt;stroke-linejoin:miter;stroke-opacity:1" d="M 801.231,581.704 806.183,598.21 z" id="boundary" inkscape:connector-curvature="0" />
	<path style="fill:none;stroke:red;stroke-width:1px;stroke-linecap:butt;stroke-linejoin:miter;stroke-opacity:1" d="M 806.183,598.21 814.436,613.065 z" id="boundary" inkscape:connector-curvature="0" />
	<path style="fill:none;stroke:red;stroke-width:1px;stroke-linecap:butt;stroke-linejoin:miter;stroke-opacity:1" d="M 814.436,613.065 814.436,629.571 z" id="boundary" inkscape:connector-curvature="0" />
	<path style="fill:none;stroke:red;stroke-width:1px;stroke-linecap:butt;stroke-linejoin:miter;stroke-opacity:1" d="M 814.436,629.571 822.689,644.426 z" id="boundary" inkscape:connector-curvature="0" />
	<path style="fill:none;stroke:red;stroke-width:1px;stroke-linecap:butt;stroke-linejoin:miter;stroke-opacity:1" d="M 822.689,644.426 814.436,665.884 z" id="boundary" inkscape:connector-curvature="0" />
	<path style="fill:none;stroke:red;stroke-width:1px;stroke-linecap:butt;stroke-linejoin:miter;stroke-opacity:1" d="M 814.436,665.884 814.436,682.389 z" id="boundary" inkscape:connector-curvature="0" />
	<path style="fill:none;stroke:red;stroke-width:1px;stroke-linecap:butt;stroke-linejoin:miter;stroke-opacity:1" d="M 814.436,682.389 806.183,707.148 z" id="boundary" inkscape:connector-curvature="0" />
	<path style="fill:none;stroke:red;stroke-width:1px;stroke-linecap:butt;stroke-linejoin:miter;stroke-opacity:1" d="M 806.183,707.148 797.93,731.907 z" id="boundary" inkscape:connector-curvature="0" />
	<path style="fill:none;stroke:red;stroke-width:1px;stroke-linecap:butt;stroke-linejoin:miter;stroke-opacity:1" d="M 797.93,731.907 781.424,731.907 z" id="boundary" inkscape:connector-curvature="0" />
	<path style="fill:none;stroke:red;stroke-width:1px;stroke-linecap:butt;stroke-linejoin:miter;stroke-opacity:1" d="M 781.424,731.907 764.918,731.907 z" id="boundary" inkscape:connector-curvature="0" />
	<path style="fill:none;stroke:red;stroke-width:1px;stroke-linecap:butt;stroke-linejoin:miter;stroke-opacity:1" d="M 764.918,731.907 748.413,740.16 z" id="boundary" inkscape:connector-curvature="0" />
	<path style="fill:none;stroke:red;stroke-width:1px;stroke-linecap:butt;stroke-linejoin:miter;stroke-opacity:1" d="M 748.413,740.16 740.16,756.666 z" id="boundary" inkscape:connector-curvature="0" />
	<path style="fill:none;stroke:red;stroke-width:1px;stroke-linecap:butt;stroke-linejoin:miter;stroke-opacity:1" d="M 740.16,756.666 731.907,781.424 z" id="boundary" inkscape:connector-curvature="0" />
	<path style="fill:none;stroke:red;stroke-width:1px;stroke-linecap:butt;stroke-linejoin:miter;stroke-opacity:1" d="M 731.907,781.424 723.654,797.93 z" id="boundary" inkscape:connector-curvature="0" />
	<path style="fill:none;stroke:red;stroke-width:1px;stroke-linecap:butt;stroke-linejoin:miter;stroke-opacity:1" d="M 723.654,797.93 715.401,814.436 z" id="boundary" inkscape:connector-curvature="0" />
	<path style="fill:none;stroke:red;stroke-width:1px;stroke-linecap:butt;stroke-linejoin:miter;stroke-opacity:1" d="M 715.401,814.436 715.401,830.942 z" id="boundary" inkscape:connector-curvature="0" />
	<path style="fill:none;stroke:red;stroke-width:1px;stroke-linecap:butt;stroke-linejoin:miter;stroke-opacity:1" d="M 715.401,830.942 723.654,845.797 z" id="boundary" inkscape:connector-curvature="0" />
	<path style="fill:none;stroke:red;stroke-width:1px;stroke-linecap:butt;stroke-linejoin:miter;stroke-opacity:1" d="M 723.654,845.797 740.16,845.797 z" id="boundary" inkscape:connector-curvature="0" />
	<path style="fill:none;stroke:red;stroke-width:1px;stroke-linecap:butt;stroke-linejoin:miter;stroke-opacity:1" d="M 740.16,845.797 755.015,854.05 z" id="boundary" inkscape:connector-curvature="0" />
	<path style="fill:none;stroke:red;stroke-width:1px;stroke-linecap:butt;stroke-linejoin:miter;stroke-opacity:1" d="M 755.015,854.05 768.22,863.953 z" id="boundary" inkscape:connector-curvature="0" />
	<path style="fill:none;stroke:red;stroke-width:1px;stroke-linecap:butt;stroke-linejoin:miter;stroke-opacity:1" d="M 768.22,895.314 768.22,863.953 z" id="boundary" inkscape:connector-curvature="0" />
	<circle cx="4" cy="207.022" r="4" fill="#0" id="circle0"/>
	<circle cx="12.2529" cy="190.516" r="4" fill="#0" id="circle1"/>
	<circle cx="17.2047" cy="218.576" r="4" fill="#0" id="circle2"/>
	<circle cx="25.4576" cy="177.311" r="4" fill="#0" id="circle3"/>
	<circle cx="28.7587" cy="231.78" r="4" fill="#0" id="circle4"/>
	<circle cx="37.0116" cy="677.438" r="4" fill="#0" id="circle5"/>
	<circle cx="37.0116" cy="693.943" r="4" fill="#0" id="circle6"/>
	<circle cx="37.0116" cy="710.449" r="4" fill="#0" id="circle7"/>
	<circle cx="40.3128" cy="169.058" r="4" fill="#0" id="circle8"/>
	<circle cx="41.9634" cy="243.334" r="4" fill="#0" id="circle9"/>
	<circle cx="45.2646" cy="652.679" r="4" fill="#0" id="circle10"/>
	<circle cx="45.2646" cy="725.304" r="4" fill="#0" id="circle11"/>
	<circle cx="53.5175" cy="256.539" r="4" fill="#0" id="circle12"/>
	<circle cx="53.5175" cy="636.173" r="4" fill="#0" id="circle13"/>
	<circle cx="53.5175" cy="740.16" r="4" fill="#0" id="circle14"/>
	<circle cx="55.1681" cy="160.805" r="4" fill="#0" id="circle15"/>
	<circle cx="58.4692" cy="756.666" r="4" fill="#0" id="circle16"/>
	<circle cx="66.7221" cy="268.093" r="4" fill="#0" id="circle17"/>
	<circle cx="66.7221" cy="622.968" r="4" fill="#0" id="circle18"/>
	<circle cx="66.7221" cy="771.521" r="4" fill="#0" id="circle19"/>
	<circle cx="70.0233" cy="149.251" r="4" fill="#0" id="circle20"/>
	<circle cx="74.975" cy="606.463" r="4" fill="#0" id="circle21"/>
	<circle cx="78.2762" cy="281.298" r="4" fill="#0" id="circle22"/>
	<circle cx="79.9268" cy="781.424" r="4" fill="#0" id="circle23"/>
	<circle cx="83.228" cy="136.047" r="4" fill="#0" id="circle24"/>
	<circle cx="83.228" cy="589.957" r="4" fill="#0" id="circle25"/>
	<circle cx="91.4809" cy="292.852" r="4" fill="#0" id="circle26"/>
	<circle cx="91.4809" cy="573.451" r="4" fill="#0" id="circle27"/>
	<circle cx="94.782" cy="553.644" r="4" fill="#0" id="circle28"/>
	<circle cx="96.4326" cy="122.842" r="4" fill="#0" id="circle29"/>
	<circle cx="96.4326" cy="781.424" r="4" fill="#0" id="circle30"/>
	<circle cx="103.035" cy="306.057" r="4" fill="#0" id="circle31"/>
	<circle cx="103.035" cy="537.138" r="4" fill="#0" id="circle32"/>
	<circle cx="109.637" cy="111.288" r="4" fill="#0" id="circle33"/>
	<circle cx="111.288" cy="320.912" r="4" fill="#0" id="circle34"/>
	<circle cx="111.288" cy="512.379" r="4" fill="#0" id="circle35"/>
	<circle cx="112.938" cy="781.424" r="4" fill="#0" id="circle36"/>
	<circle cx="119.541" cy="335.767" r="4" fill="#0" id="circle37"/>
	<circle cx="119.541" cy="352.273" r="4" fill="#0" id="circle38"/>
	<circle cx="119.541" cy="487.621" r="4" fill="#0" id="circle39"/>
	<circle cx="121.191" cy="98.0832" r="4" fill="#0" id="circle40"/>
	<circle cx="124.493" cy="368.779" r="4" fill="#0" id="circle41"/>
	<circle cx="127.794" cy="385.285" r="4" fill="#0" id="circle42"/>
	<circle cx="127.794" cy="401.79" r="4" fill="#0" id="circle43"/>
	<circle cx="127.794" cy="418.296" r="4" fill="#0" id="circle44"/>
	<circle cx="127.794" cy="434.802" r="4" fill="#0" id="circle45"/>
	<circle cx="127.794" cy="451.308" r="4" fill="#0" id="circle46"/>
	<circle cx="127.794" cy="467.814" r="4" fill="#0" id="circle47"/>
	<circle cx="127.794" cy="789.677" r="4" fill="#0" id="circle48"/>
	<circle cx="134.396" cy="86.5291" r="4" fill="#0" id="circle49"/>
	<circle cx="142.649" cy="797.93" r="4" fill="#0" id="circle50"/>
	<circle cx="149.251" cy="78.2762" r="4" fill="#0" id="circle51"/>
	<circle cx="152.552" cy="811.135" r="4" fill="#0" id="circle52"/>
	<circle cx="160.805" cy="825.99" r="4" fill="#0" id="circle53"/>
	<circle cx="162.456" cy="65.0715" r="4" fill="#0" id="circle54"/>
	<circle cx="174.01" cy="837.544" r="4" fill="#0" id="circle55"/>
	<circle cx="178.962" cy="56.8186" r="4" fill="#0" id="circle56"/>
	<circle cx="180.612" cy="854.05" r="4" fill="#0" id="circle57"/>
	<circle cx="188.865" cy="868.905" r="4" fill="#0" id="circle58"/>
	<circle cx="195.468" cy="48.5657" r="4" fill="#0" id="circle59"/>
	<circle cx="195.468" cy="885.411" r="4" fill="#0" id="circle60"/>
	<circle cx="208.672" cy="896.965" r="4" fill="#0" id="circle61"/>
	<circle cx="211.973" cy="40.3128" r="4" fill="#0" id="circle62"/>
	<circle cx="223.527" cy="905.218" r="4" fill="#0" id="circle63"/>
	<circle cx="225.178" cy="28.7587" r="4" fill="#0" id="circle64"/>
	<circle cx="238.383" cy="913.471" r="4" fill="#0" id="circle65"/>
	<circle cx="240.033" cy="20.5058" r="4" fill="#0" id="circle66"/>
	<circle cx="253.238" cy="921.724" r="4" fill="#0" id="circle67"/>
	<circle cx="256.539" cy="12.2529" r="4" fill="#0" id="circle68"/>
	<circle cx="269.744" cy="921.724" r="4" fill="#0" id="circle69"/>
	<circle cx="273.045" cy="12.2529" r="4" fill="#0" id="circle70"/>
	<circle cx="284.599" cy="929.977" r="4" fill="#0" id="circle71"/>
	<circle cx="287.9" cy="4" r="4" fill="#0" id="circle72"/>
	<circle cx="301.105" cy="929.977" r="4" fill="#0" id="circle73"/>
	<circle cx="304.406" cy="4" r="4" fill="#0" id="circle74"/>
	<circle cx="317.611" cy="929.977" r="4" fill="#0" id="circle75"/>
	<circle cx="320.912" cy="4" r="4" fill="#0" id="circle76"/>
	<circle cx="332.466" cy="938.23" r="4" fill="#0" id="circle77"/>
	<circle cx="337.418" cy="4" r="4" fill="#0" id="circle78"/>
	<circle cx="347.321" cy="946.483" r="4" fill="#0" id="circle79"/>
	<circle cx="353.923" cy="4" r="4" fill="#0" id="circle80"/>
	<circle cx="363.827" cy="953.085" r="4" fill="#0" id="circle81"/>
	<circle cx="370.429" cy="4" r="4" fill="#0" id="circle82"/>
	<circle cx="378.682" cy="961.338" r="4" fill="#0" id="circle83"/>
	<circle cx="386.935" cy="4" r="4" fill="#0" id="circle84"/>
	<circle cx="395.188" cy="967.94" r="4" fill="#0" id="circle85"/>
	<circle cx="403.441" cy="4" r="4" fill="#0" id="circle86"/>
	<circle cx="411.694" cy="971.241" r="4" fill="#0" id="circle87"/>
	<circle cx="419.947" cy="4" r="4" fill="#0" id="circle88"/>
	<circle cx="426.549" cy="979.494" r="4" fill="#0" id="circle89"/>
	<circle cx="434.802" cy="12.2529" r="4" fill="#0" id="circle90"/>
	<circle cx="441.404" cy="987.747" r="4" fill="#0" id="circle91"/>
	<circle cx="451.308" cy="12.2529" r="4" fill="#0" id="circle92"/>
	<circle cx="457.91" cy="987.747" r="4" fill="#0" id="circle93"/>
	<circle cx="467.814" cy="12.2529" r="4" fill="#0" id="circle94"/>
	<circle cx="472.765" cy="996" r="4" fill="#0" id="circle95"/>
	<circle cx="482.669" cy="20.5058" r="4" fill="#0" id="circle96"/>
	<circle cx="489.271" cy="996" r="4" fill="#0" id="circle97"/>
	<circle cx="497.524" cy="28.7587" r="4" fill="#0" id="circle98"/>
	<circle cx="505.777" cy="996" r="4" fill="#0" id="circle99"/>
	<circle cx="512.379" cy="37.0116" r="4" fill="#0" id="circle100"/>
	<circle cx="522.283" cy="996" r="4" fill="#0" id="circle101"/>
	<circle cx="523.933" cy="50.2163" r="4" fill="#0" id="circle102"/>
	<circle cx="538.789" cy="996" r="4" fill="#0" id="circle103"/>
	<circle cx="540.439" cy="56.8186" r="4" fill="#0" id="circle104"/>
	<circle cx="550.343" cy="70.0233" r="4" fill="#0" id="circle105"/>
	<circle cx="553.644" cy="987.747" r="4" fill="#0" id="circle106"/>
	<circle cx="563.547" cy="79.9268" r="4" fill="#0" id="circle107"/>
	<circle cx="570.15" cy="987.747" r="4" fill="#0" id="circle108"/>
	<circle cx="575.101" cy="93.1314" r="4" fill="#0" id="circle109"/>
	<circle cx="586.656" cy="986.097" r="4" fill="#0" id="circle110"/>
	<circle cx="588.306" cy="104.686" r="4" fill="#0" id="circle111"/>
	<circle cx="603.161" cy="112.938" r="4" fill="#0" id="circle112"/>
	<circle cx="603.161" cy="979.494" r="4" fill="#0" id="circle113"/>
	<circle cx="616.366" cy="124.493" r="4" fill="#0" id="circle114"/>
	<circle cx="618.017" cy="971.241" r="4" fill="#0" id="circle115"/>
	<circle cx="629.571" cy="136.047" r="4" fill="#0" id="circle116"/>
	<circle cx="632.872" cy="962.988" r="4" fill="#0" id="circle117"/>
	<circle cx="644.426" cy="144.3" r="4" fill="#0" id="circle118"/>
	<circle cx="649.378" cy="962.988" r="4" fill="#0" id="circle119"/>
	<circle cx="659.281" cy="152.552" r="4" fill="#0" id="circle120"/>
	<circle cx="664.233" cy="954.735" r="4" fill="#0" id="circle121"/>
	<circle cx="675.787" cy="152.552" r="4" fill="#0" id="circle122"/>
	<circle cx="679.088" cy="946.483" r="4" fill="#0" id="circle123"/>
	<circle cx="692.293" cy="152.552" r="4" fill="#0" id="circle124"/>
	<circle cx="693.943" cy="938.23" r="4" fill="#0" id="circle125"/>
	<circle cx="707.148" cy="443.055" r="4" fill="#0" id="circle126"/>
	<circle cx="707.148" cy="459.561" r="4" fill="#0" id="circle127"/>
	<circle cx="708.799" cy="152.552" r="4" fill="#0" id="circle128"/>
	<circle cx="708.799" cy="929.977" r="4" fill="#0" id="circle129"/>
	<circle cx="715.401" cy="474.416" r="4" fill="#0" id="circle130"/>
	<circle cx="715.401" cy="814.436" r="4" fill="#0" id="circle131"/>
	<circle cx="715.401" cy="830.942" r="4" fill="#0" id="circle132"/>
	<circle cx="723.654" cy="144.3" r="4" fill="#0" id="circle133"/>
	<circle cx="723.654" cy="434.802" r="4" fill="#0" id="circle134"/>
	<circle cx="723.654" cy="489.271" r="4" fill="#0" id="circle135"/>
	<circle cx="723.654" cy="797.93" r="4" fill="#0" id="circle136"/>
	<circle cx="723.654" cy="845.797" r="4" fill="#0" id="circle137"/>
	<circle cx="723.654" cy="921.724" r="4" fill="#0" id="circle138"/>
	<circle cx="731.907" cy="781.424" r="4" fill="#0" id="circle139"/>
	<circle cx="736.859" cy="500.825" r="4" fill="#0" id="circle140"/>
	<circle cx="738.509" cy="136.047" r="4" fill="#0" id="circle141"/>
	<circle cx="738.509" cy="913.471" r="4" fill="#0" id="circle142"/>
	<circle cx="740.16" cy="426.549" r="4" fill="#0" id="circle143"/>
	<circle cx="740.16" cy="756.666" r="4" fill="#0" id="circle144"/>
	<circle cx="740.16" cy="845.797" r="4" fill="#0" id="circle145"/>
	<circle cx="743.461" cy="517.331" r="4" fill="#0" id="circle146"/>
	<circle cx="748.413" cy="740.16" r="4" fill="#0" id="circle147"/>
	<circle cx="753.364" cy="905.218" r="4" fill="#0" id="circle148"/>
	<circle cx="755.015" cy="136.047" r="4" fill="#0" id="circle149"/>
	<circle cx="755.015" cy="418.296" r="4" fill="#0" id="circle150"/>
	<circle cx="755.015" cy="854.05" r="4" fill="#0" id="circle151"/>
	<circle cx="756.666" cy="528.885" r="4" fill="#0" id="circle152"/>
	<circle cx="764.918" cy="731.907" r="4" fill="#0" id="circle153"/>
	<circle cx="768.22" cy="408.393" r="4" fill="#0" id="circle154"/>
	<circle cx="768.22" cy="542.09" r="4" fill="#0" id="circle155"/>
	<circle cx="768.22" cy="863.953" r="4" fill="#0" id="circle156"/>
	<circle cx="768.22" cy="895.314" r="4" fill="#0" id="circle157"/>
	<circle cx="771.521" cy="136.047" r="4" fill="#0" id="circle158"/>
	<circle cx="773.171" cy="236.732" r="4" fill="#0" id="circle159"/>
	<circle cx="773.171" cy="253.238" r="4" fill="#0" id="circle160"/>
	<circle cx="776.473" cy="269.744" r="4" fill="#0" id="circle161"/>
	<circle cx="781.424" cy="220.226" r="4" fill="#0" id="circle162"/>
	<circle cx="781.424" cy="393.537" r="4" fill="#0" id="circle163"/>
	<circle cx="781.424" cy="553.644" r="4" fill="#0" id="circle164"/>
	<circle cx="781.424" cy="731.907" r="4" fill="#0" id="circle165"/>
	<circle cx="788.027" cy="139.348" r="4" fill="#0" id="circle166"/>
	<circle cx="788.027" cy="570.15" r="4" fill="#0" id="circle167"/>
	<circle cx="789.677" cy="281.298" r="4" fill="#0" id="circle168"/>
	<circle cx="794.629" cy="208.672" r="4" fill="#0" id="circle169"/>
	<circle cx="794.629" cy="381.983" r="4" fill="#0" id="circle170"/>
	<circle cx="797.93" cy="152.552" r="4" fill="#0" id="circle171"/>
	<circle cx="797.93" cy="169.058" r="4" fill="#0" id="circle172"/>
	<circle cx="797.93" cy="185.564" r="4" fill="#0" id="circle173"/>
	<circle cx="797.93" cy="731.907" r="4" fill="#0" id="circle174"/>
	<circle cx="801.231" cy="294.502" r="4" fill="#0" id="circle175"/>
	<circle cx="801.231" cy="581.704" r="4" fill="#0" id="circle176"/>
	<circle cx="806.183" cy="368.779" r="4" fill="#0" id="circle177"/>
	<circle cx="806.183" cy="598.21" r="4" fill="#0" id="circle178"/>
	<circle cx="806.183" cy="707.148" r="4" fill="#0" id="circle179"/>
	<circle cx="814.436" cy="306.057" r="4" fill="#0" id="circle180"/>
	<circle cx="814.436" cy="322.562" r="4" fill="#0" id="circle181"/>
	<circle cx="814.436" cy="613.065" r="4" fill="#0" id="circle182"/>
	<circle cx="814.436" cy="629.571" r="4" fill="#0" id="circle183"/>
	<circle cx="814.436" cy="665.884" r="4" fill="#0" id="circle184"/>
	<circle cx="814.436" cy="682.389" r="4" fill="#0" id="circle185"/>
	<circle cx="819.388" cy="357.225" r="4" fill="#0" id="circle186"/>
	<circle cx="822.689" cy="337.418" r="4" fill="#0" id="circle187"/>
	<circle cx="822.689" cy="644.426" r="4" fill="#0" id="circle188"/>
	</g>
</svg>