<?xml version="1.0" encoding="UTF-8" standalone="no"?>
<!-- Created with CurveBenchmark -->
<svg
	xmlns:dc="http://purl.org/dc/elements/1.1/"
	xmlns:cc="http://creativecommons.org/ns#"
	xmlns:rdf="http://www.w3.org/1999/02/22-rdf-syntax-ns#"
	xmlns:svg="http://www.w3.org/2000/svg"
	xmlns="http://www.w3.org/2000/svg"
	xmlns:sodipodi="http://sodipodi.sourceforge.net/DTD/sodipodi-0.dtd"
	xmlns:inkscape="http://www.inkscape.org/namespaces/inkscape"
	width="1000"
	height="1000"
	id="svg2"
	version="1.1"
	sodipodi:docname="manifold/crawl-Misk11.png.txt">
<defs
	id="defs4" />
<metadata
	id="metadata7">
	<rdf:RDF>
		<cc:Work
			rdf:about="">
			<dc:format>image/svg+xml</dc:format>
			<dc:type
				rdf:resource="http://purl.org/dc/dcmitype/StillImage" />
			<dc:title></dc:title>
		</cc:Work>
	</rdf:RDF>
</metadata>
<g
	inkscape:label="Layer 1"
	inkscape:groupmode="layer"
	id="layer1">
	<path style="fill:none;stroke:red;stroke-width:1px;stroke-linecap:butt;stroke-linejoin:miter;stroke-opacity:1" d="M 129.888,400.129 129.888,383.343 z" id="boundary" inkscape:connector-curvature="0" />
	<path style="fill:none;stroke:red;stroke-width:1px;stroke-linecap:butt;stroke-linejoin:miter;stroke-opacity:1" d="M 129.888,383.343 129.888,366.558 z" id="boundary" inkscape:connector-curvature="0" />
	<path style="fill:none;stroke:red;stroke-width:1px;stroke-linecap:butt;stroke-linejoin:miter;stroke-opacity:1" d="M 129.888,366.558 121.496,351.452 z" id="boundary" inkscape:connector-curvature="0" />
	<path style="fill:none;stroke:red;stroke-width:1px;stroke-linecap:butt;stroke-linejoin:miter;stroke-opacity:1" d="M 121.496,351.452 113.103,336.345 z" id="boundary" inkscape:connector-curvature="0" />
	<path style="fill:none;stroke:red;stroke-width:1px;stroke-linecap:butt;stroke-linejoin:miter;stroke-opacity:1" d="M 113.103,336.345 106.389,319.56 z" id="boundary" inkscape:connector-curvature="0" />
	<path style="fill:none;stroke:red;stroke-width:1px;stroke-linecap:butt;stroke-linejoin:miter;stroke-opacity:1" d="M 106.389,319.56 97.9966,304.453 z" id="boundary" inkscape:connector-curvature="0" />
	<path style="fill:none;stroke:red;stroke-width:1px;stroke-linecap:butt;stroke-linejoin:miter;stroke-opacity:1" d="M 97.9966,304.453 86.247,291.025 z" id="boundary" inkscape:connector-curvature="0" />
	<path style="fill:none;stroke:red;stroke-width:1px;stroke-linecap:butt;stroke-linejoin:miter;stroke-opacity:1" d="M 86.247,291.025 72.819,279.276 z" id="boundary" inkscape:connector-curvature="0" />
	<path style="fill:none;stroke:red;stroke-width:1px;stroke-linecap:butt;stroke-linejoin:miter;stroke-opacity:1" d="M 72.819,279.276 61.0694,265.848 z" id="boundary" inkscape:connector-curvature="0" />
	<path style="fill:none;stroke:red;stroke-width:1px;stroke-linecap:butt;stroke-linejoin:miter;stroke-opacity:1" d="M 61.0694,265.848 47.6413,254.098 z" id="boundary" inkscape:connector-curvature="0" />
	<path style="fill:none;stroke:red;stroke-width:1px;stroke-linecap:butt;stroke-linejoin:miter;stroke-opacity:1" d="M 47.6413,254.098 35.8917,240.67 z" id="boundary" inkscape:connector-curvature="0" />
	<path style="fill:none;stroke:red;stroke-width:1px;stroke-linecap:butt;stroke-linejoin:miter;stroke-opacity:1" d="M 35.8917,240.67 20.7851,232.277 z" id="boundary" inkscape:connector-curvature="0" />
	<path style="fill:none;stroke:red;stroke-width:1px;stroke-linecap:butt;stroke-linejoin:miter;stroke-opacity:1" d="M 20.7851,232.277 12.3926,217.171 z" id="boundary" inkscape:connector-curvature="0" />
	<path style="fill:none;stroke:red;stroke-width:1px;stroke-linecap:butt;stroke-linejoin:miter;stroke-opacity:1" d="M 12.3926,217.171 4,202.064 z" id="boundary" inkscape:connector-curvature="0" />
	<path style="fill:none;stroke:red;stroke-width:1px;stroke-linecap:butt;stroke-linejoin:miter;stroke-opacity:1" d="M 4,202.064 17.4281,188.636 z" id="boundary" inkscape:connector-curvature="0" />
	<path style="fill:none;stroke:red;stroke-width:1px;stroke-linecap:butt;stroke-linejoin:miter;stroke-opacity:1" d="M 17.4281,188.636 30.8562,175.208 z" id="boundary" inkscape:connector-curvature="0" />
	<path style="fill:none;stroke:red;stroke-width:1px;stroke-linecap:butt;stroke-linejoin:miter;stroke-opacity:1" d="M 30.8562,175.208 44.2843,163.459 z" id="boundary" inkscape:connector-curvature="0" />
	<path style="fill:none;stroke:red;stroke-width:1px;stroke-linecap:butt;stroke-linejoin:miter;stroke-opacity:1" d="M 44.2843,163.459 59.3909,155.066 z" id="boundary" inkscape:connector-curvature="0" />
	<path style="fill:none;stroke:red;stroke-width:1px;stroke-linecap:butt;stroke-linejoin:miter;stroke-opacity:1" d="M 59.3909,155.066 76.176,146.673 z" id="boundary" inkscape:connector-curvature="0" />
	<path style="fill:none;stroke:red;stroke-width:1px;stroke-linecap:butt;stroke-linejoin:miter;stroke-opacity:1" d="M 76.176,146.673 89.6041,133.245 z" id="boundary" inkscape:connector-curvature="0" />
	<path style="fill:none;stroke:red;stroke-width:1px;stroke-linecap:butt;stroke-linejoin:miter;stroke-opacity:1" d="M 89.6041,133.245 103.032,121.496 z" id="boundary" inkscape:connector-curvature="0" />
	<path style="fill:none;stroke:red;stroke-width:1px;stroke-linecap:butt;stroke-linejoin:miter;stroke-opacity:1" d="M 103.032,121.496 114.782,108.068 z" id="boundary" inkscape:connector-curvature="0" />
	<path style="fill:none;stroke:red;stroke-width:1px;stroke-linecap:butt;stroke-linejoin:miter;stroke-opacity:1" d="M 114.782,108.068 128.21,96.3181 z" id="boundary" inkscape:connector-curvature="0" />
	<path style="fill:none;stroke:red;stroke-width:1px;stroke-linecap:butt;stroke-linejoin:miter;stroke-opacity:1" d="M 128.21,96.3181 143.316,87.9255 z" id="boundary" inkscape:connector-curvature="0" />
	<path style="fill:none;stroke:red;stroke-width:1px;stroke-linecap:butt;stroke-linejoin:miter;stroke-opacity:1" d="M 143.316,87.9255 158.423,79.533 z" id="boundary" inkscape:connector-curvature="0" />
	<path style="fill:none;stroke:red;stroke-width:1px;stroke-linecap:butt;stroke-linejoin:miter;stroke-opacity:1" d="M 158.423,79.533 171.851,67.7834 z" id="boundary" inkscape:connector-curvature="0" />
	<path style="fill:none;stroke:red;stroke-width:1px;stroke-linecap:butt;stroke-linejoin:miter;stroke-opacity:1" d="M 171.851,67.7834 185.279,54.3553 z" id="boundary" inkscape:connector-curvature="0" />
	<path style="fill:none;stroke:red;stroke-width:1px;stroke-linecap:butt;stroke-linejoin:miter;stroke-opacity:1" d="M 185.279,54.3553 202.064,45.9628 z" id="boundary" inkscape:connector-curvature="0" />
	<path style="fill:none;stroke:red;stroke-width:1px;stroke-linecap:butt;stroke-linejoin:miter;stroke-opacity:1" d="M 202.064,45.9628 218.849,37.5702 z" id="boundary" inkscape:connector-curvature="0" />
	<path style="fill:none;stroke:red;stroke-width:1px;stroke-linecap:butt;stroke-linejoin:miter;stroke-opacity:1" d="M 218.849,37.5702 235.635,29.1777 z" id="boundary" inkscape:connector-curvature="0" />
	<path style="fill:none;stroke:red;stroke-width:1px;stroke-linecap:butt;stroke-linejoin:miter;stroke-opacity:1" d="M 235.635,29.1777 252.42,20.7851 z" id="boundary" inkscape:connector-curvature="0" />
	<path style="fill:none;stroke:red;stroke-width:1px;stroke-linecap:butt;stroke-linejoin:miter;stroke-opacity:1" d="M 252.42,20.7851 269.205,12.3926 z" id="boundary" inkscape:connector-curvature="0" />
	<path style="fill:none;stroke:red;stroke-width:1px;stroke-linecap:butt;stroke-linejoin:miter;stroke-opacity:1" d="M 269.205,12.3926 285.99,4 z" id="boundary" inkscape:connector-curvature="0" />
	<path style="fill:none;stroke:red;stroke-width:1px;stroke-linecap:butt;stroke-linejoin:miter;stroke-opacity:1" d="M 285.99,4 302.775,4 z" id="boundary" inkscape:connector-curvature="0" />
	<path style="fill:none;stroke:red;stroke-width:1px;stroke-linecap:butt;stroke-linejoin:miter;stroke-opacity:1" d="M 302.775,4 319.56,4 z" id="boundary" inkscape:connector-curvature="0" />
	<path style="fill:none;stroke:red;stroke-width:1px;stroke-linecap:butt;stroke-linejoin:miter;stroke-opacity:1" d="M 319.56,4 336.345,4 z" id="boundary" inkscape:connector-curvature="0" />
	<path style="fill:none;stroke:red;stroke-width:1px;stroke-linecap:butt;stroke-linejoin:miter;stroke-opacity:1" d="M 336.345,4 353.13,4 z" id="boundary" inkscape:connector-curvature="0" />
	<path style="fill:none;stroke:red;stroke-width:1px;stroke-linecap:butt;stroke-linejoin:miter;stroke-opacity:1" d="M 353.13,4 369.915,4 z" id="boundary" inkscape:connector-curvature="0" />
	<path style="fill:none;stroke:red;stroke-width:1px;stroke-linecap:butt;stroke-linejoin:miter;stroke-opacity:1" d="M 369.915,4 386.701,4 z" id="boundary" inkscape:connector-curvature="0" />
	<path style="fill:none;stroke:red;stroke-width:1px;stroke-linecap:butt;stroke-linejoin:miter;stroke-opacity:1" d="M 386.701,4 403.486,4 z" id="boundary" inkscape:connector-curvature="0" />
	<path style="fill:none;stroke:red;stroke-width:1px;stroke-linecap:butt;stroke-linejoin:miter;stroke-opacity:1" d="M 403.486,4 418.592,12.3926 z" id="boundary" inkscape:connector-curvature="0" />
	<path style="fill:none;stroke:red;stroke-width:1px;stroke-linecap:butt;stroke-linejoin:miter;stroke-opacity:1" d="M 418.592,12.3926 435.377,12.3926 z" id="boundary" inkscape:connector-curvature="0" />
	<path style="fill:none;stroke:red;stroke-width:1px;stroke-linecap:butt;stroke-linejoin:miter;stroke-opacity:1" d="M 435.377,12.3926 450.484,20.7851 z" id="boundary" inkscape:connector-curvature="0" />
	<path style="fill:none;stroke:red;stroke-width:1px;stroke-linecap:butt;stroke-linejoin:miter;stroke-opacity:1" d="M 450.484,20.7851 467.269,20.7851 z" id="boundary" inkscape:connector-curvature="0" />
	<path style="fill:none;stroke:red;stroke-width:1px;stroke-linecap:butt;stroke-linejoin:miter;stroke-opacity:1" d="M 467.269,20.7851 480.697,30.8562 z" id="boundary" inkscape:connector-curvature="0" />
	<path style="fill:none;stroke:red;stroke-width:1px;stroke-linecap:butt;stroke-linejoin:miter;stroke-opacity:1" d="M 480.697,30.8562 497.482,30.8562 z" id="boundary" inkscape:connector-curvature="0" />
	<path style="fill:none;stroke:red;stroke-width:1px;stroke-linecap:butt;stroke-linejoin:miter;stroke-opacity:1" d="M 497.482,30.8562 509.232,44.2843 z" id="boundary" inkscape:connector-curvature="0" />
	<path style="fill:none;stroke:red;stroke-width:1px;stroke-linecap:butt;stroke-linejoin:miter;stroke-opacity:1" d="M 509.232,44.2843 522.66,54.3553 z" id="boundary" inkscape:connector-curvature="0" />
	<path style="fill:none;stroke:red;stroke-width:1px;stroke-linecap:butt;stroke-linejoin:miter;stroke-opacity:1" d="M 522.66,54.3553 537.766,62.7479 z" id="boundary" inkscape:connector-curvature="0" />
	<path style="fill:none;stroke:red;stroke-width:1px;stroke-linecap:butt;stroke-linejoin:miter;stroke-opacity:1" d="M 537.766,62.7479 549.516,76.176 z" id="boundary" inkscape:connector-curvature="0" />
	<path style="fill:none;stroke:red;stroke-width:1px;stroke-linecap:butt;stroke-linejoin:miter;stroke-opacity:1" d="M 549.516,76.176 562.944,87.9255 z" id="boundary" inkscape:connector-curvature="0" />
	<path style="fill:none;stroke:red;stroke-width:1px;stroke-linecap:butt;stroke-linejoin:miter;stroke-opacity:1" d="M 562.944,87.9255 576.372,97.9966 z" id="boundary" inkscape:connector-curvature="0" />
	<path style="fill:none;stroke:red;stroke-width:1px;stroke-linecap:butt;stroke-linejoin:miter;stroke-opacity:1" d="M 576.372,97.9966 589.8,108.068 z" id="boundary" inkscape:connector-curvature="0" />
	<path style="fill:none;stroke:red;stroke-width:1px;stroke-linecap:butt;stroke-linejoin:miter;stroke-opacity:1" d="M 589.8,108.068 601.55,121.496 z" id="boundary" inkscape:connector-curvature="0" />
	<path style="fill:none;stroke:red;stroke-width:1px;stroke-linecap:butt;stroke-linejoin:miter;stroke-opacity:1" d="M 601.55,121.496 614.978,131.567 z" id="boundary" inkscape:connector-curvature="0" />
	<path style="fill:none;stroke:red;stroke-width:1px;stroke-linecap:butt;stroke-linejoin:miter;stroke-opacity:1" d="M 614.978,131.567 630.085,139.959 z" id="boundary" inkscape:connector-curvature="0" />
	<path style="fill:none;stroke:red;stroke-width:1px;stroke-linecap:butt;stroke-linejoin:miter;stroke-opacity:1" d="M 630.085,139.959 646.87,146.673 z" id="boundary" inkscape:connector-curvature="0" />
	<path style="fill:none;stroke:red;stroke-width:1px;stroke-linecap:butt;stroke-linejoin:miter;stroke-opacity:1" d="M 646.87,146.673 661.976,155.066 z" id="boundary" inkscape:connector-curvature="0" />
	<path style="fill:none;stroke:red;stroke-width:1px;stroke-linecap:butt;stroke-linejoin:miter;stroke-opacity:1" d="M 661.976,155.066 678.761,155.066 z" id="boundary" inkscape:connector-curvature="0" />
	<path style="fill:none;stroke:red;stroke-width:1px;stroke-linecap:butt;stroke-linejoin:miter;stroke-opacity:1" d="M 678.761,155.066 695.547,155.066 z" id="boundary" inkscape:connector-curvature="0" />
	<path style="fill:none;stroke:red;stroke-width:1px;stroke-linecap:butt;stroke-linejoin:miter;stroke-opacity:1" d="M 695.547,155.066 712.332,155.066 z" id="boundary" inkscape:connector-curvature="0" />
	<path style="fill:none;stroke:red;stroke-width:1px;stroke-linecap:butt;stroke-linejoin:miter;stroke-opacity:1" d="M 712.332,155.066 727.438,146.673 z" id="boundary" inkscape:connector-curvature="0" />
	<path style="fill:none;stroke:red;stroke-width:1px;stroke-linecap:butt;stroke-linejoin:miter;stroke-opacity:1" d="M 727.438,146.673 744.223,146.673 z" id="boundary" inkscape:connector-curvature="0" />
	<path style="fill:none;stroke:red;stroke-width:1px;stroke-linecap:butt;stroke-linejoin:miter;stroke-opacity:1" d="M 744.223,146.673 761.008,143.316 z" id="boundary" inkscape:connector-curvature="0" />
	<path style="fill:none;stroke:red;stroke-width:1px;stroke-linecap:butt;stroke-linejoin:miter;stroke-opacity:1" d="M 761.008,143.316 777.794,143.316 z" id="boundary" inkscape:connector-curvature="0" />
	<path style="fill:none;stroke:red;stroke-width:1px;stroke-linecap:butt;stroke-linejoin:miter;stroke-opacity:1" d="M 777.794,143.316 794.579,143.316 z" id="boundary" inkscape:connector-curvature="0" />
	<path style="fill:none;stroke:red;stroke-width:1px;stroke-linecap:butt;stroke-linejoin:miter;stroke-opacity:1" d="M 794.579,143.316 801.293,160.102 z" id="boundary" inkscape:connector-curvature="0" />
	<path style="fill:none;stroke:red;stroke-width:1px;stroke-linecap:butt;stroke-linejoin:miter;stroke-opacity:1" d="M 129.888,400.129 129.888,420.271 z" id="boundary" inkscape:connector-curvature="0" />
	<path style="fill:none;stroke:red;stroke-width:1px;stroke-linecap:butt;stroke-linejoin:miter;stroke-opacity:1" d="M 129.888,420.271 129.888,437.056 z" id="boundary" inkscape:connector-curvature="0" />
	<path style="fill:none;stroke:red;stroke-width:1px;stroke-linecap:butt;stroke-linejoin:miter;stroke-opacity:1" d="M 801.293,160.102 794.579,181.922 z" id="boundary" inkscape:connector-curvature="0" />
	<path style="fill:none;stroke:red;stroke-width:1px;stroke-linecap:butt;stroke-linejoin:miter;stroke-opacity:1" d="M 129.888,437.056 129.888,462.234 z" id="boundary" inkscape:connector-curvature="0" />
	<path style="fill:none;stroke:red;stroke-width:1px;stroke-linecap:butt;stroke-linejoin:miter;stroke-opacity:1" d="M 129.888,462.234 138.281,477.34 z" id="boundary" inkscape:connector-curvature="0" />
	<path style="fill:none;stroke:red;stroke-width:1px;stroke-linecap:butt;stroke-linejoin:miter;stroke-opacity:1" d="M 138.281,477.34 129.888,495.804 z" id="boundary" inkscape:connector-curvature="0" />
	<path style="fill:none;stroke:red;stroke-width:1px;stroke-linecap:butt;stroke-linejoin:miter;stroke-opacity:1" d="M 129.888,495.804 143.316,507.553 z" id="boundary" inkscape:connector-curvature="0" />
	<path style="fill:none;stroke:red;stroke-width:1px;stroke-linecap:butt;stroke-linejoin:miter;stroke-opacity:1" d="M 143.316,507.553 160.102,509.232 z" id="boundary" inkscape:connector-curvature="0" />
	<path style="fill:none;stroke:red;stroke-width:1px;stroke-linecap:butt;stroke-linejoin:miter;stroke-opacity:1" d="M 160.102,509.232 175.208,500.839 z" id="boundary" inkscape:connector-curvature="0" />
	<path style="fill:none;stroke:red;stroke-width:1px;stroke-linecap:butt;stroke-linejoin:miter;stroke-opacity:1" d="M 175.208,500.839 191.993,500.839 z" id="boundary" inkscape:connector-curvature="0" />
	<path style="fill:none;stroke:red;stroke-width:1px;stroke-linecap:butt;stroke-linejoin:miter;stroke-opacity:1" d="M 191.993,500.839 208.778,500.839 z" id="boundary" inkscape:connector-curvature="0" />
	<path style="fill:none;stroke:red;stroke-width:1px;stroke-linecap:butt;stroke-linejoin:miter;stroke-opacity:1" d="M 208.778,500.839 225.563,500.839 z" id="boundary" inkscape:connector-curvature="0" />
	<path style="fill:none;stroke:red;stroke-width:1px;stroke-linecap:butt;stroke-linejoin:miter;stroke-opacity:1" d="M 225.563,500.839 238.992,510.91 z" id="boundary" inkscape:connector-curvature="0" />
	<path style="fill:none;stroke:red;stroke-width:1px;stroke-linecap:butt;stroke-linejoin:miter;stroke-opacity:1" d="M 238.992,510.91 255.777,517.624 z" id="boundary" inkscape:connector-curvature="0" />
	<path style="fill:none;stroke:red;stroke-width:1px;stroke-linecap:butt;stroke-linejoin:miter;stroke-opacity:1" d="M 255.777,517.624 265.848,531.052 z" id="boundary" inkscape:connector-curvature="0" />
	<path style="fill:none;stroke:red;stroke-width:1px;stroke-linecap:butt;stroke-linejoin:miter;stroke-opacity:1" d="M 265.848,531.052 279.276,542.802 z" id="boundary" inkscape:connector-curvature="0" />
	<path style="fill:none;stroke:red;stroke-width:1px;stroke-linecap:butt;stroke-linejoin:miter;stroke-opacity:1" d="M 279.276,542.802 296.061,542.802 z" id="boundary" inkscape:connector-curvature="0" />
	<path style="fill:none;stroke:red;stroke-width:1px;stroke-linecap:butt;stroke-linejoin:miter;stroke-opacity:1" d="M 296.061,542.802 306.132,556.23 z" id="boundary" inkscape:connector-curvature="0" />
	<path style="fill:none;stroke:red;stroke-width:1px;stroke-linecap:butt;stroke-linejoin:miter;stroke-opacity:1" d="M 306.132,556.23 306.132,573.015 z" id="boundary" inkscape:connector-curvature="0" />
	<path style="fill:none;stroke:red;stroke-width:1px;stroke-linecap:butt;stroke-linejoin:miter;stroke-opacity:1" d="M 306.132,573.015 297.739,588.122 z" id="boundary" inkscape:connector-curvature="0" />
	<path style="fill:none;stroke:red;stroke-width:1px;stroke-linecap:butt;stroke-linejoin:miter;stroke-opacity:1" d="M 794.579,181.922 786.186,207.1 z" id="boundary" inkscape:connector-curvature="0" />
	<path style="fill:none;stroke:red;stroke-width:1px;stroke-linecap:butt;stroke-linejoin:miter;stroke-opacity:1" d="M 786.186,207.1 777.794,223.885 z" id="boundary" inkscape:connector-curvature="0" />
	<path style="fill:none;stroke:red;stroke-width:1px;stroke-linecap:butt;stroke-linejoin:miter;stroke-opacity:1" d="M 777.794,223.885 769.401,240.67 z" id="boundary" inkscape:connector-curvature="0" />
	<path style="fill:none;stroke:red;stroke-width:1px;stroke-linecap:butt;stroke-linejoin:miter;stroke-opacity:1" d="M 769.401,240.67 761.008,257.455 z" id="boundary" inkscape:connector-curvature="0" />
	<path style="fill:none;stroke:red;stroke-width:1px;stroke-linecap:butt;stroke-linejoin:miter;stroke-opacity:1" d="M 761.008,257.455 769.401,272.562 z" id="boundary" inkscape:connector-curvature="0" />
	<path style="fill:none;stroke:red;stroke-width:1px;stroke-linecap:butt;stroke-linejoin:miter;stroke-opacity:1" d="M 769.401,272.562 777.794,287.668 z" id="boundary" inkscape:connector-curvature="0" />
	<path style="fill:none;stroke:red;stroke-width:1px;stroke-linecap:butt;stroke-linejoin:miter;stroke-opacity:1" d="M 777.794,287.668 794.579,294.382 z" id="boundary" inkscape:connector-curvature="0" />
	<path style="fill:none;stroke:red;stroke-width:1px;stroke-linecap:butt;stroke-linejoin:miter;stroke-opacity:1" d="M 794.579,294.382 806.328,307.81 z" id="boundary" inkscape:connector-curvature="0" />
	<path style="fill:none;stroke:red;stroke-width:1px;stroke-linecap:butt;stroke-linejoin:miter;stroke-opacity:1" d="M 806.328,307.81 814.721,322.917 z" id="boundary" inkscape:connector-curvature="0" />
	<path style="fill:none;stroke:red;stroke-width:1px;stroke-linecap:butt;stroke-linejoin:miter;stroke-opacity:1" d="M 297.739,588.122 289.347,613.299 z" id="boundary" inkscape:connector-curvature="0" />
	<path style="fill:none;stroke:red;stroke-width:1px;stroke-linecap:butt;stroke-linejoin:miter;stroke-opacity:1" d="M 289.347,613.299 289.347,630.085 z" id="boundary" inkscape:connector-curvature="0" />
	<path style="fill:none;stroke:red;stroke-width:1px;stroke-linecap:butt;stroke-linejoin:miter;stroke-opacity:1" d="M 289.347,630.085 280.954,646.87 z" id="boundary" inkscape:connector-curvature="0" />
	<path style="fill:none;stroke:red;stroke-width:1px;stroke-linecap:butt;stroke-linejoin:miter;stroke-opacity:1" d="M 280.954,646.87 280.954,663.655 z" id="boundary" inkscape:connector-curvature="0" />
	<path style="fill:none;stroke:red;stroke-width:1px;stroke-linecap:butt;stroke-linejoin:miter;stroke-opacity:1" d="M 280.954,663.655 272.562,680.44 z" id="boundary" inkscape:connector-curvature="0" />
	<path style="fill:none;stroke:red;stroke-width:1px;stroke-linecap:butt;stroke-linejoin:miter;stroke-opacity:1" d="M 272.562,680.44 272.562,697.225 z" id="boundary" inkscape:connector-curvature="0" />
	<path style="fill:none;stroke:red;stroke-width:1px;stroke-linecap:butt;stroke-linejoin:miter;stroke-opacity:1" d="M 272.562,697.225 264.169,722.403 z" id="boundary" inkscape:connector-curvature="0" />
	<path style="fill:none;stroke:red;stroke-width:1px;stroke-linecap:butt;stroke-linejoin:miter;stroke-opacity:1" d="M 264.169,722.403 255.777,747.58 z" id="boundary" inkscape:connector-curvature="0" />
	<path style="fill:none;stroke:red;stroke-width:1px;stroke-linecap:butt;stroke-linejoin:miter;stroke-opacity:1" d="M 255.777,747.58 255.777,764.365 z" id="boundary" inkscape:connector-curvature="0" />
	<path style="fill:none;stroke:red;stroke-width:1px;stroke-linecap:butt;stroke-linejoin:miter;stroke-opacity:1" d="M 255.777,764.365 247.384,781.151 z" id="boundary" inkscape:connector-curvature="0" />
	<path style="fill:none;stroke:red;stroke-width:1px;stroke-linecap:butt;stroke-linejoin:miter;stroke-opacity:1" d="M 247.384,781.151 247.384,797.936 z" id="boundary" inkscape:connector-curvature="0" />
	<path style="fill:none;stroke:red;stroke-width:1px;stroke-linecap:butt;stroke-linejoin:miter;stroke-opacity:1" d="M 247.384,797.936 238.992,814.721 z" id="boundary" inkscape:connector-curvature="0" />
	<path style="fill:none;stroke:red;stroke-width:1px;stroke-linecap:butt;stroke-linejoin:miter;stroke-opacity:1" d="M 238.992,814.721 238.992,831.506 z" id="boundary" inkscape:connector-curvature="0" />
	<path style="fill:none;stroke:red;stroke-width:1px;stroke-linecap:butt;stroke-linejoin:miter;stroke-opacity:1" d="M 238.992,831.506 238.992,848.291 z" id="boundary" inkscape:connector-curvature="0" />
	<path style="fill:none;stroke:red;stroke-width:1px;stroke-linecap:butt;stroke-linejoin:miter;stroke-opacity:1" d="M 238.992,848.291 238.992,865.076 z" id="boundary" inkscape:connector-curvature="0" />
	<path style="fill:none;stroke:red;stroke-width:1px;stroke-linecap:butt;stroke-linejoin:miter;stroke-opacity:1" d="M 238.992,865.076 238.992,881.861 z" id="boundary" inkscape:connector-curvature="0" />
	<path style="fill:none;stroke:red;stroke-width:1px;stroke-linecap:butt;stroke-linejoin:miter;stroke-opacity:1" d="M 238.992,881.861 238.992,898.646 z" id="boundary" inkscape:connector-curvature="0" />
	<path style="fill:none;stroke:red;stroke-width:1px;stroke-linecap:butt;stroke-linejoin:miter;stroke-opacity:1" d="M 238.992,898.646 247.384,913.753 z" id="boundary" inkscape:connector-curvature="0" />
	<path style="fill:none;stroke:red;stroke-width:1px;stroke-linecap:butt;stroke-linejoin:miter;stroke-opacity:1" d="M 247.384,913.753 264.169,920.467 z" id="boundary" inkscape:connector-curvature="0" />
	<path style="fill:none;stroke:red;stroke-width:1px;stroke-linecap:butt;stroke-linejoin:miter;stroke-opacity:1" d="M 264.169,920.467 279.276,928.86 z" id="boundary" inkscape:connector-curvature="0" />
	<path style="fill:none;stroke:red;stroke-width:1px;stroke-linecap:butt;stroke-linejoin:miter;stroke-opacity:1" d="M 279.276,928.86 296.061,928.86 z" id="boundary" inkscape:connector-curvature="0" />
	<path style="fill:none;stroke:red;stroke-width:1px;stroke-linecap:butt;stroke-linejoin:miter;stroke-opacity:1" d="M 296.061,928.86 311.168,937.252 z" id="boundary" inkscape:connector-curvature="0" />
	<path style="fill:none;stroke:red;stroke-width:1px;stroke-linecap:butt;stroke-linejoin:miter;stroke-opacity:1" d="M 311.168,937.252 327.953,943.966 z" id="boundary" inkscape:connector-curvature="0" />
	<path style="fill:none;stroke:red;stroke-width:1px;stroke-linecap:butt;stroke-linejoin:miter;stroke-opacity:1" d="M 327.953,943.966 343.059,952.359 z" id="boundary" inkscape:connector-curvature="0" />
	<path style="fill:none;stroke:red;stroke-width:1px;stroke-linecap:butt;stroke-linejoin:miter;stroke-opacity:1" d="M 343.059,952.359 359.844,959.073 z" id="boundary" inkscape:connector-curvature="0" />
	<path style="fill:none;stroke:red;stroke-width:1px;stroke-linecap:butt;stroke-linejoin:miter;stroke-opacity:1" d="M 359.844,959.073 376.629,962.43 z" id="boundary" inkscape:connector-curvature="0" />
	<path style="fill:none;stroke:red;stroke-width:1px;stroke-linecap:butt;stroke-linejoin:miter;stroke-opacity:1" d="M 376.629,962.43 391.736,970.822 z" id="boundary" inkscape:connector-curvature="0" />
	<path style="fill:none;stroke:red;stroke-width:1px;stroke-linecap:butt;stroke-linejoin:miter;stroke-opacity:1" d="M 391.736,970.822 408.521,974.179 z" id="boundary" inkscape:connector-curvature="0" />
	<path style="fill:none;stroke:red;stroke-width:1px;stroke-linecap:butt;stroke-linejoin:miter;stroke-opacity:1" d="M 408.521,974.179 423.628,982.572 z" id="boundary" inkscape:connector-curvature="0" />
	<path style="fill:none;stroke:red;stroke-width:1px;stroke-linecap:butt;stroke-linejoin:miter;stroke-opacity:1" d="M 423.628,982.572 440.413,987.607 z" id="boundary" inkscape:connector-curvature="0" />
	<path style="fill:none;stroke:red;stroke-width:1px;stroke-linecap:butt;stroke-linejoin:miter;stroke-opacity:1" d="M 440.413,987.607 455.519,996 z" id="boundary" inkscape:connector-curvature="0" />
	<path style="fill:none;stroke:red;stroke-width:1px;stroke-linecap:butt;stroke-linejoin:miter;stroke-opacity:1" d="M 455.519,996 472.305,996 z" id="boundary" inkscape:connector-curvature="0" />
	<path style="fill:none;stroke:red;stroke-width:1px;stroke-linecap:butt;stroke-linejoin:miter;stroke-opacity:1" d="M 472.305,996 489.09,996 z" id="boundary" inkscape:connector-curvature="0" />
	<path style="fill:none;stroke:red;stroke-width:1px;stroke-linecap:butt;stroke-linejoin:miter;stroke-opacity:1" d="M 489.09,996 505.875,996 z" id="boundary" inkscape:connector-curvature="0" />
	<path style="fill:none;stroke:red;stroke-width:1px;stroke-linecap:butt;stroke-linejoin:miter;stroke-opacity:1" d="M 505.875,996 522.66,996 z" id="boundary" inkscape:connector-curvature="0" />
	<path style="fill:none;stroke:red;stroke-width:1px;stroke-linecap:butt;stroke-linejoin:miter;stroke-opacity:1" d="M 522.66,996 539.445,996 z" id="boundary" inkscape:connector-curvature="0" />
	<path style="fill:none;stroke:red;stroke-width:1px;stroke-linecap:butt;stroke-linejoin:miter;stroke-opacity:1" d="M 539.445,996 556.23,992.643 z" id="boundary" inkscape:connector-curvature="0" />
	<path style="fill:none;stroke:red;stroke-width:1px;stroke-linecap:butt;stroke-linejoin:miter;stroke-opacity:1" d="M 556.23,992.643 573.015,987.607 z" id="boundary" inkscape:connector-curvature="0" />
	<path style="fill:none;stroke:red;stroke-width:1px;stroke-linecap:butt;stroke-linejoin:miter;stroke-opacity:1" d="M 573.015,987.607 589.8,984.25 z" id="boundary" inkscape:connector-curvature="0" />
	<path style="fill:none;stroke:red;stroke-width:1px;stroke-linecap:butt;stroke-linejoin:miter;stroke-opacity:1" d="M 589.8,984.25 606.585,975.858 z" id="boundary" inkscape:connector-curvature="0" />
	<path style="fill:none;stroke:red;stroke-width:1px;stroke-linecap:butt;stroke-linejoin:miter;stroke-opacity:1" d="M 606.585,975.858 623.371,970.822 z" id="boundary" inkscape:connector-curvature="0" />
	<path style="fill:none;stroke:red;stroke-width:1px;stroke-linecap:butt;stroke-linejoin:miter;stroke-opacity:1" d="M 623.371,970.822 638.477,962.43 z" id="boundary" inkscape:connector-curvature="0" />
	<path style="fill:none;stroke:red;stroke-width:1px;stroke-linecap:butt;stroke-linejoin:miter;stroke-opacity:1" d="M 638.477,962.43 653.584,954.037 z" id="boundary" inkscape:connector-curvature="0" />
	<path style="fill:none;stroke:red;stroke-width:1px;stroke-linecap:butt;stroke-linejoin:miter;stroke-opacity:1" d="M 653.584,954.037 668.69,945.645 z" id="boundary" inkscape:connector-curvature="0" />
	<path style="fill:none;stroke:red;stroke-width:1px;stroke-linecap:butt;stroke-linejoin:miter;stroke-opacity:1" d="M 668.69,945.645 685.475,945.645 z" id="boundary" inkscape:connector-curvature="0" />
	<path style="fill:none;stroke:red;stroke-width:1px;stroke-linecap:butt;stroke-linejoin:miter;stroke-opacity:1" d="M 685.475,945.645 698.904,933.895 z" id="boundary" inkscape:connector-curvature="0" />
	<path style="fill:none;stroke:red;stroke-width:1px;stroke-linecap:butt;stroke-linejoin:miter;stroke-opacity:1" d="M 698.904,933.895 715.689,925.503 z" id="boundary" inkscape:connector-curvature="0" />
	<path style="fill:none;stroke:red;stroke-width:1px;stroke-linecap:butt;stroke-linejoin:miter;stroke-opacity:1" d="M 715.689,925.503 732.474,917.11 z" id="boundary" inkscape:connector-curvature="0" />
	<path style="fill:none;stroke:red;stroke-width:1px;stroke-linecap:butt;stroke-linejoin:miter;stroke-opacity:1" d="M 732.474,917.11 744.223,903.682 z" id="boundary" inkscape:connector-curvature="0" />
	<path style="fill:none;stroke:red;stroke-width:1px;stroke-linecap:butt;stroke-linejoin:miter;stroke-opacity:1" d="M 744.223,903.682 761.008,885.218 z" id="boundary" inkscape:connector-curvature="0" />
	<path style="fill:none;stroke:red;stroke-width:1px;stroke-linecap:butt;stroke-linejoin:miter;stroke-opacity:1" d="M 761.008,885.218 755.973,868.433 z" id="boundary" inkscape:connector-curvature="0" />
	<path style="fill:none;stroke:red;stroke-width:1px;stroke-linecap:butt;stroke-linejoin:miter;stroke-opacity:1" d="M 755.973,868.433 739.188,861.719 z" id="boundary" inkscape:connector-curvature="0" />
	<path style="fill:none;stroke:red;stroke-width:1px;stroke-linecap:butt;stroke-linejoin:miter;stroke-opacity:1" d="M 739.188,861.719 725.76,851.648 z" id="boundary" inkscape:connector-curvature="0" />
	<path style="fill:none;stroke:red;stroke-width:1px;stroke-linecap:butt;stroke-linejoin:miter;stroke-opacity:1" d="M 725.76,851.648 710.653,843.255 z" id="boundary" inkscape:connector-curvature="0" />
	<path style="fill:none;stroke:red;stroke-width:1px;stroke-linecap:butt;stroke-linejoin:miter;stroke-opacity:1" d="M 710.653,843.255 693.868,839.898 z" id="boundary" inkscape:connector-curvature="0" />
	<path style="fill:none;stroke:red;stroke-width:1px;stroke-linecap:butt;stroke-linejoin:miter;stroke-opacity:1" d="M 693.868,839.898 677.083,834.863 z" id="boundary" inkscape:connector-curvature="0" />
	<path style="fill:none;stroke:red;stroke-width:1px;stroke-linecap:butt;stroke-linejoin:miter;stroke-opacity:1" d="M 677.083,834.863 661.976,826.47 z" id="boundary" inkscape:connector-curvature="0" />
	<path style="fill:none;stroke:red;stroke-width:1px;stroke-linecap:butt;stroke-linejoin:miter;stroke-opacity:1" d="M 661.976,826.47 646.87,818.078 z" id="boundary" inkscape:connector-curvature="0" />
	<path style="fill:none;stroke:red;stroke-width:1px;stroke-linecap:butt;stroke-linejoin:miter;stroke-opacity:1" d="M 646.87,818.078 630.085,818.078 z" id="boundary" inkscape:connector-curvature="0" />
	<path style="fill:none;stroke:red;stroke-width:1px;stroke-linecap:butt;stroke-linejoin:miter;stroke-opacity:1" d="M 630.085,818.078 614.978,809.685 z" id="boundary" inkscape:connector-curvature="0" />
	<path style="fill:none;stroke:red;stroke-width:1px;stroke-linecap:butt;stroke-linejoin:miter;stroke-opacity:1" d="M 614.978,809.685 598.193,809.685 z" id="boundary" inkscape:connector-curvature="0" />
	<path style="fill:none;stroke:red;stroke-width:1px;stroke-linecap:butt;stroke-linejoin:miter;stroke-opacity:1" d="M 598.193,809.685 583.086,801.293 z" id="boundary" inkscape:connector-curvature="0" />
	<path style="fill:none;stroke:red;stroke-width:1px;stroke-linecap:butt;stroke-linejoin:miter;stroke-opacity:1" d="M 583.086,801.293 566.301,796.257 z" id="boundary" inkscape:connector-curvature="0" />
	<path style="fill:none;stroke:red;stroke-width:1px;stroke-linecap:butt;stroke-linejoin:miter;stroke-opacity:1" d="M 566.301,796.257 549.516,797.936 z" id="boundary" inkscape:connector-curvature="0" />
	<path style="fill:none;stroke:red;stroke-width:1px;stroke-linecap:butt;stroke-linejoin:miter;stroke-opacity:1" d="M 549.516,797.936 534.409,789.543 z" id="boundary" inkscape:connector-curvature="0" />
	<path style="fill:none;stroke:red;stroke-width:1px;stroke-linecap:butt;stroke-linejoin:miter;stroke-opacity:1" d="M 534.409,789.543 517.624,784.508 z" id="boundary" inkscape:connector-curvature="0" />
	<path style="fill:none;stroke:red;stroke-width:1px;stroke-linecap:butt;stroke-linejoin:miter;stroke-opacity:1" d="M 517.624,784.508 500.839,777.794 z" id="boundary" inkscape:connector-curvature="0" />
	<path style="fill:none;stroke:red;stroke-width:1px;stroke-linecap:butt;stroke-linejoin:miter;stroke-opacity:1" d="M 500.839,777.794 500.839,761.008 z" id="boundary" inkscape:connector-curvature="0" />
	<path style="fill:none;stroke:red;stroke-width:1px;stroke-linecap:butt;stroke-linejoin:miter;stroke-opacity:1" d="M 500.839,761.008 509.232,744.223 z" id="boundary" inkscape:connector-curvature="0" />
	<path style="fill:none;stroke:red;stroke-width:1px;stroke-linecap:butt;stroke-linejoin:miter;stroke-opacity:1" d="M 509.232,744.223 522.66,732.474 z" id="boundary" inkscape:connector-curvature="0" />
	<path style="fill:none;stroke:red;stroke-width:1px;stroke-linecap:butt;stroke-linejoin:miter;stroke-opacity:1" d="M 522.66,732.474 531.052,715.689 z" id="boundary" inkscape:connector-curvature="0" />
	<path style="fill:none;stroke:red;stroke-width:1px;stroke-linecap:butt;stroke-linejoin:miter;stroke-opacity:1" d="M 531.052,715.689 542.802,702.261 z" id="boundary" inkscape:connector-curvature="0" />
	<path style="fill:none;stroke:red;stroke-width:1px;stroke-linecap:butt;stroke-linejoin:miter;stroke-opacity:1" d="M 542.802,702.261 559.587,693.868 z" id="boundary" inkscape:connector-curvature="0" />
	<path style="fill:none;stroke:red;stroke-width:1px;stroke-linecap:butt;stroke-linejoin:miter;stroke-opacity:1" d="M 559.587,693.868 576.372,685.475 z" id="boundary" inkscape:connector-curvature="0" />
	<path style="fill:none;stroke:red;stroke-width:1px;stroke-linecap:butt;stroke-linejoin:miter;stroke-opacity:1" d="M 576.372,685.475 593.157,685.475 z" id="boundary" inkscape:connector-curvature="0" />
	<path style="fill:none;stroke:red;stroke-width:1px;stroke-linecap:butt;stroke-linejoin:miter;stroke-opacity:1" d="M 593.157,685.475 609.942,685.475 z" id="boundary" inkscape:connector-curvature="0" />
	<path style="fill:none;stroke:red;stroke-width:1px;stroke-linecap:butt;stroke-linejoin:miter;stroke-opacity:1" d="M 609.942,685.475 626.728,685.475 z" id="boundary" inkscape:connector-curvature="0" />
	<path style="fill:none;stroke:red;stroke-width:1px;stroke-linecap:butt;stroke-linejoin:miter;stroke-opacity:1" d="M 626.728,685.475 641.834,693.868 z" id="boundary" inkscape:connector-curvature="0" />
	<path style="fill:none;stroke:red;stroke-width:1px;stroke-linecap:butt;stroke-linejoin:miter;stroke-opacity:1" d="M 641.834,693.868 656.941,702.261 z" id="boundary" inkscape:connector-curvature="0" />
	<path style="fill:none;stroke:red;stroke-width:1px;stroke-linecap:butt;stroke-linejoin:miter;stroke-opacity:1" d="M 656.941,702.261 673.726,702.261 z" id="boundary" inkscape:connector-curvature="0" />
	<path style="fill:none;stroke:red;stroke-width:1px;stroke-linecap:butt;stroke-linejoin:miter;stroke-opacity:1" d="M 673.726,702.261 688.832,710.653 z" id="boundary" inkscape:connector-curvature="0" />
	<path style="fill:none;stroke:red;stroke-width:1px;stroke-linecap:butt;stroke-linejoin:miter;stroke-opacity:1" d="M 688.832,710.653 705.618,717.367 z" id="boundary" inkscape:connector-curvature="0" />
	<path style="fill:none;stroke:red;stroke-width:1px;stroke-linecap:butt;stroke-linejoin:miter;stroke-opacity:1" d="M 705.618,717.367 722.403,719.046 z" id="boundary" inkscape:connector-curvature="0" />
	<path style="fill:none;stroke:red;stroke-width:1px;stroke-linecap:butt;stroke-linejoin:miter;stroke-opacity:1" d="M 722.403,719.046 737.509,727.438 z" id="boundary" inkscape:connector-curvature="0" />
	<path style="fill:none;stroke:red;stroke-width:1px;stroke-linecap:butt;stroke-linejoin:miter;stroke-opacity:1" d="M 737.509,727.438 754.294,727.438 z" id="boundary" inkscape:connector-curvature="0" />
	<path style="fill:none;stroke:red;stroke-width:1px;stroke-linecap:butt;stroke-linejoin:miter;stroke-opacity:1" d="M 754.294,727.438 769.401,735.831 z" id="boundary" inkscape:connector-curvature="0" />
	<path style="fill:none;stroke:red;stroke-width:1px;stroke-linecap:butt;stroke-linejoin:miter;stroke-opacity:1" d="M 769.401,735.831 784.508,727.438 z" id="boundary" inkscape:connector-curvature="0" />
	<path style="fill:none;stroke:red;stroke-width:1px;stroke-linecap:butt;stroke-linejoin:miter;stroke-opacity:1" d="M 784.508,727.438 797.936,717.367 z" id="boundary" inkscape:connector-curvature="0" />
	<path style="fill:none;stroke:red;stroke-width:1px;stroke-linecap:butt;stroke-linejoin:miter;stroke-opacity:1" d="M 797.936,717.367 811.364,702.261 z" id="boundary" inkscape:connector-curvature="0" />
	<path style="fill:none;stroke:red;stroke-width:1px;stroke-linecap:butt;stroke-linejoin:miter;stroke-opacity:1" d="M 811.364,702.261 811.364,685.475 z" id="boundary" inkscape:connector-curvature="0" />
	<path style="fill:none;stroke:red;stroke-width:1px;stroke-linecap:butt;stroke-linejoin:miter;stroke-opacity:1" d="M 811.364,685.475 811.364,660.298 z" id="boundary" inkscape:connector-curvature="0" />
	<path style="fill:none;stroke:red;stroke-width:1px;stroke-linecap:butt;stroke-linejoin:miter;stroke-opacity:1" d="M 811.364,660.298 811.364,635.12 z" id="boundary" inkscape:connector-curvature="0" />
	<path style="fill:none;stroke:red;stroke-width:1px;stroke-linecap:butt;stroke-linejoin:miter;stroke-opacity:1" d="M 811.364,635.12 811.364,614.978 z" id="boundary" inkscape:connector-curvature="0" />
	<path style="fill:none;stroke:red;stroke-width:1px;stroke-linecap:butt;stroke-linejoin:miter;stroke-opacity:1" d="M 811.364,614.978 802.971,599.871 z" id="boundary" inkscape:connector-curvature="0" />
	<path style="fill:none;stroke:red;stroke-width:1px;stroke-linecap:butt;stroke-linejoin:miter;stroke-opacity:1" d="M 802.971,599.871 797.936,583.086 z" id="boundary" inkscape:connector-curvature="0" />
	<path style="fill:none;stroke:red;stroke-width:1px;stroke-linecap:butt;stroke-linejoin:miter;stroke-opacity:1" d="M 797.936,583.086 784.508,571.337 z" id="boundary" inkscape:connector-curvature="0" />
	<path style="fill:none;stroke:red;stroke-width:1px;stroke-linecap:butt;stroke-linejoin:miter;stroke-opacity:1" d="M 784.508,571.337 772.758,557.909 z" id="boundary" inkscape:connector-curvature="0" />
	<path style="fill:none;stroke:red;stroke-width:1px;stroke-linecap:butt;stroke-linejoin:miter;stroke-opacity:1" d="M 772.758,557.909 759.33,546.159 z" id="boundary" inkscape:connector-curvature="0" />
	<path style="fill:none;stroke:red;stroke-width:1px;stroke-linecap:butt;stroke-linejoin:miter;stroke-opacity:1" d="M 759.33,546.159 747.58,532.731 z" id="boundary" inkscape:connector-curvature="0" />
	<path style="fill:none;stroke:red;stroke-width:1px;stroke-linecap:butt;stroke-linejoin:miter;stroke-opacity:1" d="M 747.58,532.731 739.188,517.624 z" id="boundary" inkscape:connector-curvature="0" />
	<path style="fill:none;stroke:red;stroke-width:1px;stroke-linecap:butt;stroke-linejoin:miter;stroke-opacity:1" d="M 739.188,517.624 727.438,504.196 z" id="boundary" inkscape:connector-curvature="0" />
	<path style="fill:none;stroke:red;stroke-width:1px;stroke-linecap:butt;stroke-linejoin:miter;stroke-opacity:1" d="M 727.438,504.196 719.046,489.09 z" id="boundary" inkscape:connector-curvature="0" />
	<path style="fill:none;stroke:red;stroke-width:1px;stroke-linecap:butt;stroke-linejoin:miter;stroke-opacity:1" d="M 719.046,489.09 710.653,473.983 z" id="boundary" inkscape:connector-curvature="0" />
	<path style="fill:none;stroke:red;stroke-width:1px;stroke-linecap:butt;stroke-linejoin:miter;stroke-opacity:1" d="M 710.653,473.983 710.653,457.198 z" id="boundary" inkscape:connector-curvature="0" />
	<path style="fill:none;stroke:red;stroke-width:1px;stroke-linecap:butt;stroke-linejoin:miter;stroke-opacity:1" d="M 710.653,457.198 702.261,442.091 z" id="boundary" inkscape:connector-curvature="0" />
	<path style="fill:none;stroke:red;stroke-width:1px;stroke-linecap:butt;stroke-linejoin:miter;stroke-opacity:1" d="M 702.261,442.091 719.046,442.091 z" id="boundary" inkscape:connector-curvature="0" />
	<path style="fill:none;stroke:red;stroke-width:1px;stroke-linecap:butt;stroke-linejoin:miter;stroke-opacity:1" d="M 719.046,442.091 734.152,433.699 z" id="boundary" inkscape:connector-curvature="0" />
	<path style="fill:none;stroke:red;stroke-width:1px;stroke-linecap:butt;stroke-linejoin:miter;stroke-opacity:1" d="M 734.152,433.699 747.58,423.628 z" id="boundary" inkscape:connector-curvature="0" />
	<path style="fill:none;stroke:red;stroke-width:1px;stroke-linecap:butt;stroke-linejoin:miter;stroke-opacity:1" d="M 747.58,423.628 764.365,415.235 z" id="boundary" inkscape:connector-curvature="0" />
	<path style="fill:none;stroke:red;stroke-width:1px;stroke-linecap:butt;stroke-linejoin:miter;stroke-opacity:1" d="M 764.365,415.235 777.794,400.129 z" id="boundary" inkscape:connector-curvature="0" />
	<path style="fill:none;stroke:red;stroke-width:1px;stroke-linecap:butt;stroke-linejoin:miter;stroke-opacity:1" d="M 777.794,400.129 794.579,383.343 z" id="boundary" inkscape:connector-curvature="0" />
	<path style="fill:none;stroke:red;stroke-width:1px;stroke-linecap:butt;stroke-linejoin:miter;stroke-opacity:1" d="M 794.579,383.343 808.007,371.594 z" id="boundary" inkscape:connector-curvature="0" />
	<path style="fill:none;stroke:red;stroke-width:1px;stroke-linecap:butt;stroke-linejoin:miter;stroke-opacity:1" d="M 808.007,371.594 811.364,349.773 z" id="boundary" inkscape:connector-curvature="0" />
	<path style="fill:none;stroke:red;stroke-width:1px;stroke-linecap:butt;stroke-linejoin:miter;stroke-opacity:1" d="M 811.364,349.773 814.721,322.917 z" id="boundary" inkscape:connector-curvature="0" />
	<circle cx="4" cy="202.064" r="4" fill="#0" id="circle0"/>
	<circle cx="12.3926" cy="217.171" r="4" fill="#0" id="circle1"/>
	<circle cx="17.4281" cy="188.636" r="4" fill="#0" id="circle2"/>
	<circle cx="20.7851" cy="232.277" r="4" fill="#0" id="circle3"/>
	<circle cx="30.8562" cy="175.208" r="4" fill="#0" id="circle4"/>
	<circle cx="35.8917" cy="240.67" r="4" fill="#0" id="circle5"/>
	<circle cx="44.2843" cy="163.459" r="4" fill="#0" id="circle6"/>
	<circle cx="47.6413" cy="254.098" r="4" fill="#0" id="circle7"/>
	<circle cx="59.3909" cy="155.066" r="4" fill="#0" id="circle8"/>
	<circle cx="61.0694" cy="265.848" r="4" fill="#0" id="circle9"/>
	<circle cx="72.819" cy="279.276" r="4" fill="#0" id="circle10"/>
	<circle cx="76.176" cy="146.673" r="4" fill="#0" id="circle11"/>
	<circle cx="86.247" cy="291.025" r="4" fill="#0" id="circle12"/>
	<circle cx="89.6041" cy="133.245" r="4" fill="#0" id="circle13"/>
	<circle cx="97.9966" cy="304.453" r="4" fill="#0" id="circle14"/>
	<circle cx="103.032" cy="121.496" r="4" fill="#0" id="circle15"/>
	<circle cx="106.389" cy="319.56" r="4" fill="#0" id="circle16"/>
	<circle cx="113.103" cy="336.345" r="4" fill="#0" id="circle17"/>
	<circle cx="114.782" cy="108.068" r="4" fill="#0" id="circle18"/>
	<circle cx="121.496" cy="351.452" r="4" fill="#0" id="circle19"/>
	<circle cx="128.21" cy="96.3181" r="4" fill="#0" id="circle20"/>
	<circle cx="129.888" cy="366.558" r="4" fill="#0" id="circle21"/>
	<circle cx="129.888" cy="383.343" r="4" fill="#0" id="circle22"/>
	<circle cx="129.888" cy="400.129" r="4" fill="#0" id="circle23"/>
	<circle cx="129.888" cy="420.271" r="4" fill="#0" id="circle24"/>
	<circle cx="129.888" cy="437.056" r="4" fill="#0" id="circle25"/>
	<circle cx="129.888" cy="462.234" r="4" fill="#0" id="circle26"/>
	<circle cx="129.888" cy="495.804" r="4" fill="#0" id="circle27"/>
	<circle cx="138.281" cy="477.34" r="4" fill="#0" id="circle28"/>
	<circle cx="143.316" cy="87.9255" r="4" fill="#0" id="circle29"/>
	<circle cx="143.316" cy="507.553" r="4" fill="#0" id="circle30"/>
	<circle cx="158.423" cy="79.533" r="4" fill="#0" id="circle31"/>
	<circle cx="160.102" cy="509.232" r="4" fill="#0" id="circle32"/>
	<circle cx="171.851" cy="67.7834" r="4" fill="#0" id="circle33"/>
	<circle cx="175.208" cy="500.839" r="4" fill="#0" id="circle34"/>
	<circle cx="185.279" cy="54.3553" r="4" fill="#0" id="circle35"/>
	<circle cx="191.993" cy="500.839" r="4" fill="#0" id="circle36"/>
	<circle cx="202.064" cy="45.9628" r="4" fill="#0" id="circle37"/>
	<circle cx="208.778" cy="500.839" r="4" fill="#0" id="circle38"/>
	<circle cx="218.849" cy="37.5702" r="4" fill="#0" id="circle39"/>
	<circle cx="225.563" cy="500.839" r="4" fill="#0" id="circle40"/>
	<circle cx="235.635" cy="29.1777" r="4" fill="#0" id="circle41"/>
	<circle cx="238.992" cy="510.91" r="4" fill="#0" id="circle42"/>
	<circle cx="238.992" cy="814.721" r="4" fill="#0" id="circle43"/>
	<circle cx="238.992" cy="831.506" r="4" fill="#0" id="circle44"/>
	<circle cx="238.992" cy="848.291" r="4" fill="#0" id="circle45"/>
	<circle cx="238.992" cy="865.076" r="4" fill="#0" id="circle46"/>
	<circle cx="238.992" cy="881.861" r="4" fill="#0" id="circle47"/>
	<circle cx="238.992" cy="898.646" r="4" fill="#0" id="circle48"/>
	<circle cx="247.384" cy="781.151" r="4" fill="#0" id="circle49"/>
	<circle cx="247.384" cy="797.936" r="4" fill="#0" id="circle50"/>
	<circle cx="247.384" cy="913.753" r="4" fill="#0" id="circle51"/>
	<circle cx="252.42" cy="20.7851" r="4" fill="#0" id="circle52"/>
	<circle cx="255.777" cy="517.624" r="4" fill="#0" id="circle53"/>
	<circle cx="255.777" cy="747.58" r="4" fill="#0" id="circle54"/>
	<circle cx="255.777" cy="764.365" r="4" fill="#0" id="circle55"/>
	<circle cx="264.169" cy="722.403" r="4" fill="#0" id="circle56"/>
	<circle cx="264.169" cy="920.467" r="4" fill="#0" id="circle57"/>
	<circle cx="265.848" cy="531.052" r="4" fill="#0" id="circle58"/>
	<circle cx="269.205" cy="12.3926" r="4" fill="#0" id="circle59"/>
	<circle cx="272.562" cy="680.44" r="4" fill="#0" id="circle60"/>
	<circle cx="272.562" cy="697.225" r="4" fill="#0" id="circle61"/>
	<circle cx="279.276" cy="542.802" r="4" fill="#0" id="circle62"/>
	<circle cx="279.276" cy="928.86" r="4" fill="#0" id="circle63"/>
	<circle cx="280.954" cy="646.87" r="4" fill="#0" id="circle64"/>
	<circle cx="280.954" cy="663.655" r="4" fill="#0" id="circle65"/>
	<circle cx="285.99" cy="4" r="4" fill="#0" id="circle66"/>
	<circle cx="289.347" cy="613.299" r="4" fill="#0" id="circle67"/>
	<circle cx="289.347" cy="630.085" r="4" fill="#0" id="circle68"/>
	<circle cx="296.061" cy="542.802" r="4" fill="#0" id="circle69"/>
	<circle cx="296.061" cy="928.86" r="4" fill="#0" id="circle70"/>
	<circle cx="297.739" cy="588.122" r="4" fill="#0" id="circle71"/>
	<circle cx="302.775" cy="4" r="4" fill="#0" id="circle72"/>
	<circle cx="306.132" cy="556.23" r="4" fill="#0" id="circle73"/>
	<circle cx="306.132" cy="573.015" r="4" fill="#0" id="circle74"/>
	<circle cx="311.168" cy="937.252" r="4" fill="#0" id="circle75"/>
	<circle cx="319.56" cy="4" r="4" fill="#0" id="circle76"/>
	<circle cx="327.953" cy="943.966" r="4" fill="#0" id="circle77"/>
	<circle cx="336.345" cy="4" r="4" fill="#0" id="circle78"/>
	<circle cx="343.059" cy="952.359" r="4" fill="#0" id="circle79"/>
	<circle cx="353.13" cy="4" r="4" fill="#0" id="circle80"/>
	<circle cx="359.844" cy="959.073" r="4" fill="#0" id="circle81"/>
	<circle cx="369.915" cy="4" r="4" fill="#0" id="circle82"/>
	<circle cx="376.629" cy="962.43" r="4" fill="#0" id="circle83"/>
	<circle cx="386.701" cy="4" r="4" fill="#0" id="circle84"/>
	<circle cx="391.736" cy="970.822" r="4" fill="#0" id="circle85"/>
	<circle cx="403.486" cy="4" r="4" fill="#0" id="circle86"/>
	<circle cx="408.521" cy="974.179" r="4" fill="#0" id="circle87"/>
	<circle cx="418.592" cy="12.3926" r="4" fill="#0" id="circle88"/>
	<circle cx="423.628" cy="982.572" r="4" fill="#0" id="circle89"/>
	<circle cx="435.377" cy="12.3926" r="4" fill="#0" id="circle90"/>
	<circle cx="440.413" cy="987.607" r="4" fill="#0" id="circle91"/>
	<circle cx="450.484" cy="20.7851" r="4" fill="#0" id="circle92"/>
	<circle cx="455.519" cy="996" r="4" fill="#0" id="circle93"/>
	<circle cx="467.269" cy="20.7851" r="4" fill="#0" id="circle94"/>
	<circle cx="472.305" cy="996" r="4" fill="#0" id="circle95"/>
	<circle cx="480.697" cy="30.8562" r="4" fill="#0" id="circle96"/>
	<circle cx="489.09" cy="996" r="4" fill="#0" id="circle97"/>
	<circle cx="497.482" cy="30.8562" r="4" fill="#0" id="circle98"/>
	<circle cx="500.839" cy="761.008" r="4" fill="#0" id="circle99"/>
	<circle cx="500.839" cy="777.794" r="4" fill="#0" id="circle100"/>
	<circle cx="505.875" cy="996" r="4" fill="#0" id="circle101"/>
	<circle cx="509.232" cy="44.2843" r="4" fill="#0" id="circle102"/>
	<circle cx="509.232" cy="744.223" r="4" fill="#0" id="circle103"/>
	<circle cx="517.624" cy="784.508" r="4" fill="#0" id="circle104"/>
	<circle cx="522.66" cy="54.3553" r="4" fill="#0" id="circle105"/>
	<circle cx="522.66" cy="732.474" r="4" fill="#0" id="circle106"/>
	<circle cx="522.66" cy="996" r="4" fill="#0" id="circle107"/>
	<circle cx="531.052" cy="715.689" r="4" fill="#0" id="circle108"/>
	<circle cx="534.409" cy="789.543" r="4" fill="#0" id="circle109"/>
	<circle cx="537.766" cy="62.7479" r="4" fill="#0" id="circle110"/>
	<circle cx="539.445" cy="996" r="4" fill="#0" id="circle111"/>
	<circle cx="542.802" cy="702.261" r="4" fill="#0" id="circle112"/>
	<circle cx="549.516" cy="76.176" r="4" fill="#0" id="circle113"/>
	<circle cx="549.516" cy="797.936" r="4" fill="#0" id="circle114"/>
	<circle cx="556.23" cy="992.643" r="4" fill="#0" id="circle115"/>
	<circle cx="559.587" cy="693.868" r="4" fill="#0" id="circle116"/>
	<circle cx="562.944" cy="87.9255" r="4" fill="#0" id="circle117"/>
	<circle cx="566.301" cy="796.257" r="4" fill="#0" id="circle118"/>
	<circle cx="573.015" cy="987.607" r="4" fill="#0" id="circle119"/>
	<circle cx="576.372" cy="97.9966" r="4" fill="#0" id="circle120"/>
	<circle cx="576.372" cy="685.475" r="4" fill="#0" id="circle121"/>
	<circle cx="583.086" cy="801.293" r="4" fill="#0" id="circle122"/>
	<circle cx="589.8" cy="108.068" r="4" fill="#0" id="circle123"/>
	<circle cx="589.8" cy="984.25" r="4" fill="#0" id="circle124"/>
	<circle cx="593.157" cy="685.475" r="4" fill="#0" id="circle125"/>
	<circle cx="598.193" cy="809.685" r="4" fill="#0" id="circle126"/>
	<circle cx="601.55" cy="121.496" r="4" fill="#0" id="circle127"/>
	<circle cx="606.585" cy="975.858" r="4" fill="#0" id="circle128"/>
	<circle cx="609.942" cy="685.475" r="4" fill="#0" id="circle129"/>
	<circle cx="614.978" cy="131.567" r="4" fill="#0" id="circle130"/>
	<circle cx="614.978" cy="809.685" r="4" fill="#0" id="circle131"/>
	<circle cx="623.371" cy="970.822" r="4" fill="#0" id="circle132"/>
	<circle cx="626.728" cy="685.475" r="4" fill="#0" id="circle133"/>
	<circle cx="630.085" cy="139.959" r="4" fill="#0" id="circle134"/>
	<circle cx="630.085" cy="818.078" r="4" fill="#0" id="circle135"/>
	<circle cx="638.477" cy="962.43" r="4" fill="#0" id="circle136"/>
	<circle cx="641.834" cy="693.868" r="4" fill="#0" id="circle137"/>
	<circle cx="646.87" cy="146.673" r="4" fill="#0" id="circle138"/>
	<circle cx="646.87" cy="818.078" r="4" fill="#0" id="circle139"/>
	<circle cx="653.584" cy="954.037" r="4" fill="#0" id="circle140"/>
	<circle cx="656.941" cy="702.261" r="4" fill="#0" id="circle141"/>
	<circle cx="661.976" cy="155.066" r="4" fill="#0" id="circle142"/>
	<circle cx="661.976" cy="826.47" r="4" fill="#0" id="circle143"/>
	<circle cx="668.69" cy="945.645" r="4" fill="#0" id="circle144"/>
	<circle cx="673.726" cy="702.261" r="4" fill="#0" id="circle145"/>
	<circle cx="677.083" cy="834.863" r="4" fill="#0" id="circle146"/>
	<circle cx="678.761" cy="155.066" r="4" fill="#0" id="circle147"/>
	<circle cx="685.475" cy="945.645" r="4" fill="#0" id="circle148"/>
	<circle cx="688.832" cy="710.653" r="4" fill="#0" id="circle149"/>
	<circle cx="693.868" cy="839.898" r="4" fill="#0" id="circle150"/>
	<circle cx="695.547" cy="155.066" r="4" fill="#0" id="circle151"/>
	<circle cx="698.904" cy="933.895" r="4" fill="#0" id="circle152"/>
	<circle cx="702.261" cy="442.091" r="4" fill="#0" id="circle153"/>
	<circle cx="705.618" cy="717.367" r="4" fill="#0" id="circle154"/>
	<circle cx="710.653" cy="457.198" r="4" fill="#0" id="circle155"/>
	<circle cx="710.653" cy="473.983" r="4" fill="#0" id="circle156"/>
	<circle cx="710.653" cy="843.255" r="4" fill="#0" id="circle157"/>
	<circle cx="712.332" cy="155.066" r="4" fill="#0" id="circle158"/>
	<circle cx="715.689" cy="925.503" r="4" fill="#0" id="circle159"/>
	<circle cx="719.046" cy="442.091" r="4" fill="#0" id="circle160"/>
	<circle cx="719.046" cy="489.09" r="4" fill="#0" id="circle161"/>
	<circle cx="722.403" cy="719.046" r="4" fill="#0" id="circle162"/>
	<circle cx="725.76" cy="851.648" r="4" fill="#0" id="circle163"/>
	<circle cx="727.438" cy="146.673" r="4" fill="#0" id="circle164"/>
	<circle cx="727.438" cy="504.196" r="4" fill="#0" id="circle165"/>
	<circle cx="732.474" cy="917.11" r="4" fill="#0" id="circle166"/>
	<circle cx="734.152" cy="433.699" r="4" fill="#0" id="circle167"/>
	<circle cx="737.509" cy="727.438" r="4" fill="#0" id="circle168"/>
	<circle cx="739.188" cy="517.624" r="4" fill="#0" id="circle169"/>
	<circle cx="739.188" cy="861.719" r="4" fill="#0" id="circle170"/>
	<circle cx="744.223" cy="146.673" r="4" fill="#0" id="circle171"/>
	<circle cx="744.223" cy="903.682" r="4" fill="#0" id="circle172"/>
	<circle cx="747.58" cy="423.628" r="4" fill="#0" id="circle173"/>
	<circle cx="747.58" cy="532.731" r="4" fill="#0" id="circle174"/>
	<circle cx="754.294" cy="727.438" r="4" fill="#0" id="circle175"/>
	<circle cx="755.973" cy="868.433" r="4" fill="#0" id="circle176"/>
	<circle cx="759.33" cy="546.159" r="4" fill="#0" id="circle177"/>
	<circle cx="761.008" cy="143.316" r="4" fill="#0" id="circle178"/>
	<circle cx="761.008" cy="257.455" r="4" fill="#0" id="circle179"/>
	<circle cx="761.008" cy="885.218" r="4" fill="#0" id="circle180"/>
	<circle cx="764.365" cy="415.235" r="4" fill="#0" id="circle181"/>
	<circle cx="769.401" cy="240.67" r="4" fill="#0" id="circle182"/>
	<circle cx="769.401" cy="272.562" r="4" fill="#0" id="circle183"/>
	<circle cx="769.401" cy="735.831" r="4" fill="#0" id="circle184"/>
	<circle cx="772.758" cy="557.909" r="4" fill="#0" id="circle185"/>
	<circle cx="777.794" cy="143.316" r="4" fill="#0" id="circle186"/>
	<circle cx="777.794" cy="223.885" r="4" fill="#0" id="circle187"/>
	<circle cx="777.794" cy="287.668" r="4" fill="#0" id="circle188"/>
	<circle cx="777.794" cy="400.129" r="4" fill="#0" id="circle189"/>
	<circle cx="784.508" cy="571.337" r="4" fill="#0" id="circle190"/>
	<circle cx="784.508" cy="727.438" r="4" fill="#0" id="circle191"/>
	<circle cx="786.186" cy="207.1" r="4" fill="#0" id="circle192"/>
	<circle cx="794.579" cy="143.316" r="4" fill="#0" id="circle193"/>
	<circle cx="794.579" cy="181.922" r="4" fill="#0" id="circle194"/>
	<circle cx="794.579" cy="294.382" r="4" fill="#0" id="circle195"/>
	<circle cx="794.579" cy="383.343" r="4" fill="#0" id="circle196"/>
	<circle cx="797.936" cy="583.086" r="4" fill="#0" id="circle197"/>
	<circle cx="797.936" cy="717.367" r="4" fill="#0" id="circle198"/>
	<circle cx="801.293" cy="160.102" r="4" fill="#0" id="circle199"/>
	<circle cx="802.971" cy="599.871" r="4" fill="#0" id="circle200"/>
	<circle cx="806.328" cy="307.81" r="4" fill="#0" id="circle201"/>
	<circle cx="808.007" cy="371.594" r="4" fill="#0" id="circle202"/>
	<circle cx="811.364" cy="349.773" r="4" fill="#0" id="circle203"/>
	<circle cx="811.364" cy="614.978" r="4" fill="#0" id="circle204"/>
	<circle cx="811.364" cy="635.12" r="4" fill="#0" id="circle205"/>
	<circle cx="811.364" cy="660.298" r="4" fill="#0" id="circle206"/>
	<circle cx="811.364" cy="685.475" r="4" fill="#0" id="circle207"/>
	<circle cx="811.364" cy="702.261" r="4" fill="#0" id="circle208"/>
	<circle cx="814.721" cy="322.917" r="4" fill="#0" id="circle209"/>
	</g>
</svg>