<?xml version="1.0" encoding="UTF-8" standalone="no"?>
<!-- Created with CurveBenchmark -->
<svg
	xmlns:dc="http://purl.org/dc/elements/1.1/"
	xmlns:cc="http://creativecommons.org/ns#"
	xmlns:rdf="http://www.w3.org/1999/02/22-rdf-syntax-ns#"
	xmlns:svg="http://www.w3.org/2000/svg"
	xmlns="http://www.w3.org/2000/svg"
	xmlns:sodipodi="http://sodipodi.sourceforge.net/DTD/sodipodi-0.dtd"
	xmlns:inkscape="http://www.inkscape.org/namespaces/inkscape"
	width="1000"
	height="1000"
	id="svg2"
	version="1.1"
	sodipodi:docname="manifold/crawl-stef-11.png.txt">
<defs
	id="defs4" />
<metadata
	id="metadata7">
	<rdf:RDF>
		<cc:Work
			rdf:about="">
			<dc:format>image/svg+xml</dc:format>
			<dc:type
				rdf:resource="http://purl.org/dc/dcmitype/StillImage" />
			<dc:title></dc:title>
		</cc:Work>
	</rdf:RDF>
</metadata>
<g
	inkscape:label="Layer 1"
	inkscape:groupmode="layer"
	id="layer1">
	<path style="fill:none;stroke:red;stroke-width:1px;stroke-linecap:butt;stroke-linejoin:miter;stroke-opacity:1" d="M 13.6311,77.1961 13.6311,57.934 z" id="boundary" inkscape:connector-curvature="0" />
	<path style="fill:none;stroke:red;stroke-width:1px;stroke-linecap:butt;stroke-linejoin:miter;stroke-opacity:1" d="M 13.6311,77.1961 13.6311,96.4583 z" id="boundary" inkscape:connector-curvature="0" />
	<path style="fill:none;stroke:red;stroke-width:1px;stroke-linecap:butt;stroke-linejoin:miter;stroke-opacity:1" d="M 13.6311,96.4583 29.0408,109.942 z" id="boundary" inkscape:connector-curvature="0" />
	<path style="fill:none;stroke:red;stroke-width:1px;stroke-linecap:butt;stroke-linejoin:miter;stroke-opacity:1" d="M 29.0408,109.942 44.4505,121.499 z" id="boundary" inkscape:connector-curvature="0" />
	<path style="fill:none;stroke:red;stroke-width:1px;stroke-linecap:butt;stroke-linejoin:miter;stroke-opacity:1" d="M 44.4505,121.499 61.7864,131.13 z" id="boundary" inkscape:connector-curvature="0" />
	<path style="fill:none;stroke:red;stroke-width:1px;stroke-linecap:butt;stroke-linejoin:miter;stroke-opacity:1" d="M 61.7864,131.13 79.1223,140.761 z" id="boundary" inkscape:connector-curvature="0" />
	<path style="fill:none;stroke:red;stroke-width:1px;stroke-linecap:butt;stroke-linejoin:miter;stroke-opacity:1" d="M 79.1223,140.761 98.3845,140.761 z" id="boundary" inkscape:connector-curvature="0" />
	<path style="fill:none;stroke:red;stroke-width:1px;stroke-linecap:butt;stroke-linejoin:miter;stroke-opacity:1" d="M 98.3845,140.761 109.942,156.171 z" id="boundary" inkscape:connector-curvature="0" />
	<path style="fill:none;stroke:red;stroke-width:1px;stroke-linecap:butt;stroke-linejoin:miter;stroke-opacity:1" d="M 109.942,156.171 111.868,175.433 z" id="boundary" inkscape:connector-curvature="0" />
	<path style="fill:none;stroke:red;stroke-width:1px;stroke-linecap:butt;stroke-linejoin:miter;stroke-opacity:1" d="M 111.868,175.433 121.499,192.769 z" id="boundary" inkscape:connector-curvature="0" />
	<path style="fill:none;stroke:red;stroke-width:1px;stroke-linecap:butt;stroke-linejoin:miter;stroke-opacity:1" d="M 121.499,192.769 134.983,208.179 z" id="boundary" inkscape:connector-curvature="0" />
	<path style="fill:none;stroke:red;stroke-width:1px;stroke-linecap:butt;stroke-linejoin:miter;stroke-opacity:1" d="M 134.983,208.179 152.318,217.81 z" id="boundary" inkscape:connector-curvature="0" />
	<path style="fill:none;stroke:red;stroke-width:1px;stroke-linecap:butt;stroke-linejoin:miter;stroke-opacity:1" d="M 152.318,217.81 169.654,227.441 z" id="boundary" inkscape:connector-curvature="0" />
	<path style="fill:none;stroke:red;stroke-width:1px;stroke-linecap:butt;stroke-linejoin:miter;stroke-opacity:1" d="M 169.654,227.441 186.99,237.072 z" id="boundary" inkscape:connector-curvature="0" />
	<path style="fill:none;stroke:red;stroke-width:1px;stroke-linecap:butt;stroke-linejoin:miter;stroke-opacity:1" d="M 186.99,237.072 204.326,246.703 z" id="boundary" inkscape:connector-curvature="0" />
	<path style="fill:none;stroke:red;stroke-width:1px;stroke-linecap:butt;stroke-linejoin:miter;stroke-opacity:1" d="M 204.326,246.703 221.662,256.334 z" id="boundary" inkscape:connector-curvature="0" />
	<path style="fill:none;stroke:red;stroke-width:1px;stroke-linecap:butt;stroke-linejoin:miter;stroke-opacity:1" d="M 221.662,256.334 237.072,269.817 z" id="boundary" inkscape:connector-curvature="0" />
	<path style="fill:none;stroke:red;stroke-width:1px;stroke-linecap:butt;stroke-linejoin:miter;stroke-opacity:1" d="M 237.072,269.817 254.408,279.449 z" id="boundary" inkscape:connector-curvature="0" />
	<path style="fill:none;stroke:red;stroke-width:1px;stroke-linecap:butt;stroke-linejoin:miter;stroke-opacity:1" d="M 254.408,279.449 273.67,285.227 z" id="boundary" inkscape:connector-curvature="0" />
	<path style="fill:none;stroke:red;stroke-width:1px;stroke-linecap:butt;stroke-linejoin:miter;stroke-opacity:1" d="M 273.67,285.227 291.006,294.858 z" id="boundary" inkscape:connector-curvature="0" />
	<path style="fill:none;stroke:red;stroke-width:1px;stroke-linecap:butt;stroke-linejoin:miter;stroke-opacity:1" d="M 13.6311,57.934 23.2621,38.6718 z" id="boundary" inkscape:connector-curvature="0" />
	<path style="fill:none;stroke:red;stroke-width:1px;stroke-linecap:butt;stroke-linejoin:miter;stroke-opacity:1" d="M 23.2621,38.6718 32.8932,19.4097 z" id="boundary" inkscape:connector-curvature="0" />
	<path style="fill:none;stroke:red;stroke-width:1px;stroke-linecap:butt;stroke-linejoin:miter;stroke-opacity:1" d="M 32.8932,19.4097 52.1553,9.77864 z" id="boundary" inkscape:connector-curvature="0" />
	<path style="fill:none;stroke:red;stroke-width:1px;stroke-linecap:butt;stroke-linejoin:miter;stroke-opacity:1" d="M 52.1553,9.77864 71.4175,4 z" id="boundary" inkscape:connector-curvature="0" />
	<path style="fill:none;stroke:red;stroke-width:1px;stroke-linecap:butt;stroke-linejoin:miter;stroke-opacity:1" d="M 71.4175,4 90.6796,4 z" id="boundary" inkscape:connector-curvature="0" />
	<path style="fill:none;stroke:red;stroke-width:1px;stroke-linecap:butt;stroke-linejoin:miter;stroke-opacity:1" d="M 90.6796,4 109.942,7.85243 z" id="boundary" inkscape:connector-curvature="0" />
	<path style="fill:none;stroke:red;stroke-width:1px;stroke-linecap:butt;stroke-linejoin:miter;stroke-opacity:1" d="M 109.942,7.85243 127.278,17.4835 z" id="boundary" inkscape:connector-curvature="0" />
	<path style="fill:none;stroke:red;stroke-width:1px;stroke-linecap:butt;stroke-linejoin:miter;stroke-opacity:1" d="M 127.278,17.4835 140.761,32.8932 z" id="boundary" inkscape:connector-curvature="0" />
	<path style="fill:none;stroke:red;stroke-width:1px;stroke-linecap:butt;stroke-linejoin:miter;stroke-opacity:1" d="M 140.761,32.8932 156.171,44.4505 z" id="boundary" inkscape:connector-curvature="0" />
	<path style="fill:none;stroke:red;stroke-width:1px;stroke-linecap:butt;stroke-linejoin:miter;stroke-opacity:1" d="M 156.171,44.4505 169.654,59.8602 z" id="boundary" inkscape:connector-curvature="0" />
	<path style="fill:none;stroke:red;stroke-width:1px;stroke-linecap:butt;stroke-linejoin:miter;stroke-opacity:1" d="M 169.654,59.8602 185.064,71.4175 z" id="boundary" inkscape:connector-curvature="0" />
	<path style="fill:none;stroke:red;stroke-width:1px;stroke-linecap:butt;stroke-linejoin:miter;stroke-opacity:1" d="M 185.064,71.4175 202.4,61.7864 z" id="boundary" inkscape:connector-curvature="0" />
	<path style="fill:none;stroke:red;stroke-width:1px;stroke-linecap:butt;stroke-linejoin:miter;stroke-opacity:1" d="M 202.4,61.7864 221.662,52.1553 z" id="boundary" inkscape:connector-curvature="0" />
	<path style="fill:none;stroke:red;stroke-width:1px;stroke-linecap:butt;stroke-linejoin:miter;stroke-opacity:1" d="M 221.662,52.1553 240.924,52.1553 z" id="boundary" inkscape:connector-curvature="0" />
	<path style="fill:none;stroke:red;stroke-width:1px;stroke-linecap:butt;stroke-linejoin:miter;stroke-opacity:1" d="M 240.924,52.1553 260.186,52.1553 z" id="boundary" inkscape:connector-curvature="0" />
	<path style="fill:none;stroke:red;stroke-width:1px;stroke-linecap:butt;stroke-linejoin:miter;stroke-opacity:1" d="M 260.186,52.1553 279.449,52.1553 z" id="boundary" inkscape:connector-curvature="0" />
	<path style="fill:none;stroke:red;stroke-width:1px;stroke-linecap:butt;stroke-linejoin:miter;stroke-opacity:1" d="M 279.449,52.1553 296.784,61.7864 z" id="boundary" inkscape:connector-curvature="0" />
	<path style="fill:none;stroke:red;stroke-width:1px;stroke-linecap:butt;stroke-linejoin:miter;stroke-opacity:1" d="M 296.784,61.7864 314.12,71.4175 z" id="boundary" inkscape:connector-curvature="0" />
	<path style="fill:none;stroke:red;stroke-width:1px;stroke-linecap:butt;stroke-linejoin:miter;stroke-opacity:1" d="M 314.12,71.4175 331.456,81.0485 z" id="boundary" inkscape:connector-curvature="0" />
	<path style="fill:none;stroke:red;stroke-width:1px;stroke-linecap:butt;stroke-linejoin:miter;stroke-opacity:1" d="M 331.456,81.0485 346.866,92.6058 z" id="boundary" inkscape:connector-curvature="0" />
	<path style="fill:none;stroke:red;stroke-width:1px;stroke-linecap:butt;stroke-linejoin:miter;stroke-opacity:1" d="M 346.866,92.6058 366.128,100.311 z" id="boundary" inkscape:connector-curvature="0" />
	<path style="fill:none;stroke:red;stroke-width:1px;stroke-linecap:butt;stroke-linejoin:miter;stroke-opacity:1" d="M 366.128,100.311 379.612,115.72 z" id="boundary" inkscape:connector-curvature="0" />
	<path style="fill:none;stroke:red;stroke-width:1px;stroke-linecap:butt;stroke-linejoin:miter;stroke-opacity:1" d="M 379.612,115.72 395.021,129.204 z" id="boundary" inkscape:connector-curvature="0" />
	<path style="fill:none;stroke:red;stroke-width:1px;stroke-linecap:butt;stroke-linejoin:miter;stroke-opacity:1" d="M 395.021,129.204 408.505,144.614 z" id="boundary" inkscape:connector-curvature="0" />
	<path style="fill:none;stroke:red;stroke-width:1px;stroke-linecap:butt;stroke-linejoin:miter;stroke-opacity:1" d="M 408.505,144.614 423.915,158.097 z" id="boundary" inkscape:connector-curvature="0" />
	<path style="fill:none;stroke:red;stroke-width:1px;stroke-linecap:butt;stroke-linejoin:miter;stroke-opacity:1" d="M 423.915,158.097 437.398,173.507 z" id="boundary" inkscape:connector-curvature="0" />
	<path style="fill:none;stroke:red;stroke-width:1px;stroke-linecap:butt;stroke-linejoin:miter;stroke-opacity:1" d="M 437.398,173.507 448.955,188.917 z" id="boundary" inkscape:connector-curvature="0" />
	<path style="fill:none;stroke:red;stroke-width:1px;stroke-linecap:butt;stroke-linejoin:miter;stroke-opacity:1" d="M 448.955,188.917 458.586,206.252 z" id="boundary" inkscape:connector-curvature="0" />
	<path style="fill:none;stroke:red;stroke-width:1px;stroke-linecap:butt;stroke-linejoin:miter;stroke-opacity:1" d="M 458.586,206.252 473.996,217.81 z" id="boundary" inkscape:connector-curvature="0" />
	<path style="fill:none;stroke:red;stroke-width:1px;stroke-linecap:butt;stroke-linejoin:miter;stroke-opacity:1" d="M 473.996,217.81 487.48,233.219 z" id="boundary" inkscape:connector-curvature="0" />
	<path style="fill:none;stroke:red;stroke-width:1px;stroke-linecap:butt;stroke-linejoin:miter;stroke-opacity:1" d="M 487.48,233.219 502.889,246.703 z" id="boundary" inkscape:connector-curvature="0" />
	<path style="fill:none;stroke:red;stroke-width:1px;stroke-linecap:butt;stroke-linejoin:miter;stroke-opacity:1" d="M 502.889,246.703 516.373,262.113 z" id="boundary" inkscape:connector-curvature="0" />
	<path style="fill:none;stroke:red;stroke-width:1px;stroke-linecap:butt;stroke-linejoin:miter;stroke-opacity:1" d="M 516.373,262.113 531.783,275.596 z" id="boundary" inkscape:connector-curvature="0" />
	<path style="fill:none;stroke:red;stroke-width:1px;stroke-linecap:butt;stroke-linejoin:miter;stroke-opacity:1" d="M 531.783,275.596 545.266,291.006 z" id="boundary" inkscape:connector-curvature="0" />
	<path style="fill:none;stroke:red;stroke-width:1px;stroke-linecap:butt;stroke-linejoin:miter;stroke-opacity:1" d="M 545.266,291.006 554.897,308.342 z" id="boundary" inkscape:connector-curvature="0" />
	<path style="fill:none;stroke:red;stroke-width:1px;stroke-linecap:butt;stroke-linejoin:miter;stroke-opacity:1" d="M 554.897,308.342 562.602,327.604 z" id="boundary" inkscape:connector-curvature="0" />
	<path style="fill:none;stroke:red;stroke-width:1px;stroke-linecap:butt;stroke-linejoin:miter;stroke-opacity:1" d="M 562.602,327.604 564.528,346.866 z" id="boundary" inkscape:connector-curvature="0" />
	<path style="fill:none;stroke:red;stroke-width:1px;stroke-linecap:butt;stroke-linejoin:miter;stroke-opacity:1" d="M 564.528,346.866 578.012,362.276 z" id="boundary" inkscape:connector-curvature="0" />
	<path style="fill:none;stroke:red;stroke-width:1px;stroke-linecap:butt;stroke-linejoin:miter;stroke-opacity:1" d="M 578.012,362.276 593.421,375.759 z" id="boundary" inkscape:connector-curvature="0" />
	<path style="fill:none;stroke:red;stroke-width:1px;stroke-linecap:butt;stroke-linejoin:miter;stroke-opacity:1" d="M 593.421,375.759 601.126,395.021 z" id="boundary" inkscape:connector-curvature="0" />
	<path style="fill:none;stroke:red;stroke-width:1px;stroke-linecap:butt;stroke-linejoin:miter;stroke-opacity:1" d="M 601.126,395.021 603.052,414.283 z" id="boundary" inkscape:connector-curvature="0" />
	<path style="fill:none;stroke:red;stroke-width:1px;stroke-linecap:butt;stroke-linejoin:miter;stroke-opacity:1" d="M 603.052,414.283 603.052,433.546 z" id="boundary" inkscape:connector-curvature="0" />
	<path style="fill:none;stroke:red;stroke-width:1px;stroke-linecap:butt;stroke-linejoin:miter;stroke-opacity:1" d="M 603.052,433.546 603.052,452.808 z" id="boundary" inkscape:connector-curvature="0" />
	<path style="fill:none;stroke:red;stroke-width:1px;stroke-linecap:butt;stroke-linejoin:miter;stroke-opacity:1" d="M 603.052,452.808 622.315,456.66 z" id="boundary" inkscape:connector-curvature="0" />
	<path style="fill:none;stroke:red;stroke-width:1px;stroke-linecap:butt;stroke-linejoin:miter;stroke-opacity:1" d="M 622.315,456.66 641.577,450.882 z" id="boundary" inkscape:connector-curvature="0" />
	<path style="fill:none;stroke:red;stroke-width:1px;stroke-linecap:butt;stroke-linejoin:miter;stroke-opacity:1" d="M 641.577,450.882 656.986,437.398 z" id="boundary" inkscape:connector-curvature="0" />
	<path style="fill:none;stroke:red;stroke-width:1px;stroke-linecap:butt;stroke-linejoin:miter;stroke-opacity:1" d="M 656.986,437.398 674.322,427.767 z" id="boundary" inkscape:connector-curvature="0" />
	<path style="fill:none;stroke:red;stroke-width:1px;stroke-linecap:butt;stroke-linejoin:miter;stroke-opacity:1" d="M 674.322,427.767 691.658,418.136 z" id="boundary" inkscape:connector-curvature="0" />
	<path style="fill:none;stroke:red;stroke-width:1px;stroke-linecap:butt;stroke-linejoin:miter;stroke-opacity:1" d="M 691.658,418.136 708.994,408.505 z" id="boundary" inkscape:connector-curvature="0" />
	<path style="fill:none;stroke:red;stroke-width:1px;stroke-linecap:butt;stroke-linejoin:miter;stroke-opacity:1" d="M 708.994,408.505 728.256,402.726 z" id="boundary" inkscape:connector-curvature="0" />
	<path style="fill:none;stroke:red;stroke-width:1px;stroke-linecap:butt;stroke-linejoin:miter;stroke-opacity:1" d="M 728.256,402.726 747.518,393.095 z" id="boundary" inkscape:connector-curvature="0" />
	<path style="fill:none;stroke:red;stroke-width:1px;stroke-linecap:butt;stroke-linejoin:miter;stroke-opacity:1" d="M 747.518,393.095 766.781,383.464 z" id="boundary" inkscape:connector-curvature="0" />
	<path style="fill:none;stroke:red;stroke-width:1px;stroke-linecap:butt;stroke-linejoin:miter;stroke-opacity:1" d="M 766.781,383.464 782.19,369.981 z" id="boundary" inkscape:connector-curvature="0" />
	<path style="fill:none;stroke:red;stroke-width:1px;stroke-linecap:butt;stroke-linejoin:miter;stroke-opacity:1" d="M 782.19,369.981 793.748,346.866 z" id="boundary" inkscape:connector-curvature="0" />
	<path style="fill:none;stroke:red;stroke-width:1px;stroke-linecap:butt;stroke-linejoin:miter;stroke-opacity:1" d="M 793.748,346.866 803.379,327.604 z" id="boundary" inkscape:connector-curvature="0" />
	<path style="fill:none;stroke:red;stroke-width:1px;stroke-linecap:butt;stroke-linejoin:miter;stroke-opacity:1" d="M 803.379,327.604 818.788,312.194 z" id="boundary" inkscape:connector-curvature="0" />
	<path style="fill:none;stroke:red;stroke-width:1px;stroke-linecap:butt;stroke-linejoin:miter;stroke-opacity:1" d="M 818.788,312.194 838.05,302.563 z" id="boundary" inkscape:connector-curvature="0" />
	<path style="fill:none;stroke:red;stroke-width:1px;stroke-linecap:butt;stroke-linejoin:miter;stroke-opacity:1" d="M 838.05,302.563 855.386,312.194 z" id="boundary" inkscape:connector-curvature="0" />
	<path style="fill:none;stroke:red;stroke-width:1px;stroke-linecap:butt;stroke-linejoin:miter;stroke-opacity:1" d="M 855.386,312.194 872.722,321.825 z" id="boundary" inkscape:connector-curvature="0" />
	<path style="fill:none;stroke:red;stroke-width:1px;stroke-linecap:butt;stroke-linejoin:miter;stroke-opacity:1" d="M 872.722,321.825 888.132,333.383 z" id="boundary" inkscape:connector-curvature="0" />
	<path style="fill:none;stroke:red;stroke-width:1px;stroke-linecap:butt;stroke-linejoin:miter;stroke-opacity:1" d="M 888.132,333.383 901.616,348.792 z" id="boundary" inkscape:connector-curvature="0" />
	<path style="fill:none;stroke:red;stroke-width:1px;stroke-linecap:butt;stroke-linejoin:miter;stroke-opacity:1" d="M 901.616,348.792 917.025,362.276 z" id="boundary" inkscape:connector-curvature="0" />
	<path style="fill:none;stroke:red;stroke-width:1px;stroke-linecap:butt;stroke-linejoin:miter;stroke-opacity:1" d="M 917.025,362.276 934.361,371.907 z" id="boundary" inkscape:connector-curvature="0" />
	<path style="fill:none;stroke:red;stroke-width:1px;stroke-linecap:butt;stroke-linejoin:miter;stroke-opacity:1" d="M 934.361,371.907 949.771,385.39 z" id="boundary" inkscape:connector-curvature="0" />
	<path style="fill:none;stroke:red;stroke-width:1px;stroke-linecap:butt;stroke-linejoin:miter;stroke-opacity:1" d="M 949.771,385.39 963.254,400.8 z" id="boundary" inkscape:connector-curvature="0" />
	<path style="fill:none;stroke:red;stroke-width:1px;stroke-linecap:butt;stroke-linejoin:miter;stroke-opacity:1" d="M 963.254,400.8 982.517,408.505 z" id="boundary" inkscape:connector-curvature="0" />
	<path style="fill:none;stroke:red;stroke-width:1px;stroke-linecap:butt;stroke-linejoin:miter;stroke-opacity:1" d="M 982.517,408.505 996,423.915 z" id="boundary" inkscape:connector-curvature="0" />
	<path style="fill:none;stroke:red;stroke-width:1px;stroke-linecap:butt;stroke-linejoin:miter;stroke-opacity:1" d="M 996,423.915 984.443,445.103 z" id="boundary" inkscape:connector-curvature="0" />
	<path style="fill:none;stroke:red;stroke-width:1px;stroke-linecap:butt;stroke-linejoin:miter;stroke-opacity:1" d="M 984.443,445.103 965.181,448.955 z" id="boundary" inkscape:connector-curvature="0" />
	<path style="fill:none;stroke:red;stroke-width:1px;stroke-linecap:butt;stroke-linejoin:miter;stroke-opacity:1" d="M 965.181,448.955 945.918,448.955 z" id="boundary" inkscape:connector-curvature="0" />
	<path style="fill:none;stroke:red;stroke-width:1px;stroke-linecap:butt;stroke-linejoin:miter;stroke-opacity:1" d="M 945.918,448.955 926.656,448.955 z" id="boundary" inkscape:connector-curvature="0" />
	<path style="fill:none;stroke:red;stroke-width:1px;stroke-linecap:butt;stroke-linejoin:miter;stroke-opacity:1" d="M 926.656,448.955 907.394,448.955 z" id="boundary" inkscape:connector-curvature="0" />
	<path style="fill:none;stroke:red;stroke-width:1px;stroke-linecap:butt;stroke-linejoin:miter;stroke-opacity:1" d="M 907.394,448.955 888.132,448.955 z" id="boundary" inkscape:connector-curvature="0" />
	<path style="fill:none;stroke:red;stroke-width:1px;stroke-linecap:butt;stroke-linejoin:miter;stroke-opacity:1" d="M 888.132,448.955 868.87,448.955 z" id="boundary" inkscape:connector-curvature="0" />
	<path style="fill:none;stroke:red;stroke-width:1px;stroke-linecap:butt;stroke-linejoin:miter;stroke-opacity:1" d="M 868.87,448.955 849.608,454.734 z" id="boundary" inkscape:connector-curvature="0" />
	<path style="fill:none;stroke:red;stroke-width:1px;stroke-linecap:butt;stroke-linejoin:miter;stroke-opacity:1" d="M 849.608,454.734 830.346,458.586 z" id="boundary" inkscape:connector-curvature="0" />
	<path style="fill:none;stroke:red;stroke-width:1px;stroke-linecap:butt;stroke-linejoin:miter;stroke-opacity:1" d="M 830.346,458.586 811.083,458.586 z" id="boundary" inkscape:connector-curvature="0" />
	<path style="fill:none;stroke:red;stroke-width:1px;stroke-linecap:butt;stroke-linejoin:miter;stroke-opacity:1" d="M 811.083,458.586 791.821,464.365 z" id="boundary" inkscape:connector-curvature="0" />
	<path style="fill:none;stroke:red;stroke-width:1px;stroke-linecap:butt;stroke-linejoin:miter;stroke-opacity:1" d="M 791.821,464.365 772.559,468.217 z" id="boundary" inkscape:connector-curvature="0" />
	<path style="fill:none;stroke:red;stroke-width:1px;stroke-linecap:butt;stroke-linejoin:miter;stroke-opacity:1" d="M 772.559,468.217 753.297,473.996 z" id="boundary" inkscape:connector-curvature="0" />
	<path style="fill:none;stroke:red;stroke-width:1px;stroke-linecap:butt;stroke-linejoin:miter;stroke-opacity:1" d="M 753.297,473.996 737.887,487.48 z" id="boundary" inkscape:connector-curvature="0" />
	<path style="fill:none;stroke:red;stroke-width:1px;stroke-linecap:butt;stroke-linejoin:miter;stroke-opacity:1" d="M 291.006,294.858 294.858,321.825 z" id="boundary" inkscape:connector-curvature="0" />
	<path style="fill:none;stroke:red;stroke-width:1px;stroke-linecap:butt;stroke-linejoin:miter;stroke-opacity:1" d="M 294.858,321.825 275.596,325.678 z" id="boundary" inkscape:connector-curvature="0" />
	<path style="fill:none;stroke:red;stroke-width:1px;stroke-linecap:butt;stroke-linejoin:miter;stroke-opacity:1" d="M 275.596,325.678 256.334,335.309 z" id="boundary" inkscape:connector-curvature="0" />
	<path style="fill:none;stroke:red;stroke-width:1px;stroke-linecap:butt;stroke-linejoin:miter;stroke-opacity:1" d="M 256.334,335.309 242.85,350.718 z" id="boundary" inkscape:connector-curvature="0" />
	<path style="fill:none;stroke:red;stroke-width:1px;stroke-linecap:butt;stroke-linejoin:miter;stroke-opacity:1" d="M 242.85,350.718 227.441,364.202 z" id="boundary" inkscape:connector-curvature="0" />
	<path style="fill:none;stroke:red;stroke-width:1px;stroke-linecap:butt;stroke-linejoin:miter;stroke-opacity:1" d="M 227.441,364.202 212.031,379.612 z" id="boundary" inkscape:connector-curvature="0" />
	<path style="fill:none;stroke:red;stroke-width:1px;stroke-linecap:butt;stroke-linejoin:miter;stroke-opacity:1" d="M 212.031,379.612 196.621,395.021 z" id="boundary" inkscape:connector-curvature="0" />
	<path style="fill:none;stroke:red;stroke-width:1px;stroke-linecap:butt;stroke-linejoin:miter;stroke-opacity:1" d="M 196.621,395.021 181.212,408.505 z" id="boundary" inkscape:connector-curvature="0" />
	<path style="fill:none;stroke:red;stroke-width:1px;stroke-linecap:butt;stroke-linejoin:miter;stroke-opacity:1" d="M 181.212,408.505 163.876,418.136 z" id="boundary" inkscape:connector-curvature="0" />
	<path style="fill:none;stroke:red;stroke-width:1px;stroke-linecap:butt;stroke-linejoin:miter;stroke-opacity:1" d="M 163.876,418.136 148.466,433.546 z" id="boundary" inkscape:connector-curvature="0" />
	<path style="fill:none;stroke:red;stroke-width:1px;stroke-linecap:butt;stroke-linejoin:miter;stroke-opacity:1" d="M 148.466,433.546 138.835,452.808 z" id="boundary" inkscape:connector-curvature="0" />
	<path style="fill:none;stroke:red;stroke-width:1px;stroke-linecap:butt;stroke-linejoin:miter;stroke-opacity:1" d="M 138.835,452.808 138.835,472.07 z" id="boundary" inkscape:connector-curvature="0" />
	<path style="fill:none;stroke:red;stroke-width:1px;stroke-linecap:butt;stroke-linejoin:miter;stroke-opacity:1" d="M 138.835,472.07 129.204,491.332 z" id="boundary" inkscape:connector-curvature="0" />
	<path style="fill:none;stroke:red;stroke-width:1px;stroke-linecap:butt;stroke-linejoin:miter;stroke-opacity:1" d="M 129.204,491.332 125.351,514.447 z" id="boundary" inkscape:connector-curvature="0" />
	<path style="fill:none;stroke:red;stroke-width:1px;stroke-linecap:butt;stroke-linejoin:miter;stroke-opacity:1" d="M 125.351,514.447 115.72,533.709 z" id="boundary" inkscape:connector-curvature="0" />
	<path style="fill:none;stroke:red;stroke-width:1px;stroke-linecap:butt;stroke-linejoin:miter;stroke-opacity:1" d="M 115.72,533.709 106.089,552.971 z" id="boundary" inkscape:connector-curvature="0" />
	<path style="fill:none;stroke:red;stroke-width:1px;stroke-linecap:butt;stroke-linejoin:miter;stroke-opacity:1" d="M 106.089,552.971 90.6796,568.381 z" id="boundary" inkscape:connector-curvature="0" />
	<path style="fill:none;stroke:red;stroke-width:1px;stroke-linecap:butt;stroke-linejoin:miter;stroke-opacity:1" d="M 90.6796,568.381 81.0485,587.643 z" id="boundary" inkscape:connector-curvature="0" />
	<path style="fill:none;stroke:red;stroke-width:1px;stroke-linecap:butt;stroke-linejoin:miter;stroke-opacity:1" d="M 737.887,487.48 724.404,512.52 z" id="boundary" inkscape:connector-curvature="0" />
	<path style="fill:none;stroke:red;stroke-width:1px;stroke-linecap:butt;stroke-linejoin:miter;stroke-opacity:1" d="M 724.404,512.52 708.994,526.004 z" id="boundary" inkscape:connector-curvature="0" />
	<path style="fill:none;stroke:red;stroke-width:1px;stroke-linecap:butt;stroke-linejoin:miter;stroke-opacity:1" d="M 708.994,526.004 699.363,545.266 z" id="boundary" inkscape:connector-curvature="0" />
	<path style="fill:none;stroke:red;stroke-width:1px;stroke-linecap:butt;stroke-linejoin:miter;stroke-opacity:1" d="M 699.363,545.266 680.101,554.897 z" id="boundary" inkscape:connector-curvature="0" />
	<path style="fill:none;stroke:red;stroke-width:1px;stroke-linecap:butt;stroke-linejoin:miter;stroke-opacity:1" d="M 680.101,554.897 660.839,564.528 z" id="boundary" inkscape:connector-curvature="0" />
	<path style="fill:none;stroke:red;stroke-width:1px;stroke-linecap:butt;stroke-linejoin:miter;stroke-opacity:1" d="M 660.839,564.528 643.503,574.159 z" id="boundary" inkscape:connector-curvature="0" />
	<path style="fill:none;stroke:red;stroke-width:1px;stroke-linecap:butt;stroke-linejoin:miter;stroke-opacity:1" d="M 643.503,574.159 624.241,574.159 z" id="boundary" inkscape:connector-curvature="0" />
	<path style="fill:none;stroke:red;stroke-width:1px;stroke-linecap:butt;stroke-linejoin:miter;stroke-opacity:1" d="M 624.241,574.159 604.979,570.307 z" id="boundary" inkscape:connector-curvature="0" />
	<path style="fill:none;stroke:red;stroke-width:1px;stroke-linecap:butt;stroke-linejoin:miter;stroke-opacity:1" d="M 604.979,570.307 585.717,562.602 z" id="boundary" inkscape:connector-curvature="0" />
	<path style="fill:none;stroke:red;stroke-width:1px;stroke-linecap:butt;stroke-linejoin:miter;stroke-opacity:1" d="M 585.717,562.602 568.381,552.971 z" id="boundary" inkscape:connector-curvature="0" />
	<path style="fill:none;stroke:red;stroke-width:1px;stroke-linecap:butt;stroke-linejoin:miter;stroke-opacity:1" d="M 568.381,552.971 549.118,545.266 z" id="boundary" inkscape:connector-curvature="0" />
	<path style="fill:none;stroke:red;stroke-width:1px;stroke-linecap:butt;stroke-linejoin:miter;stroke-opacity:1" d="M 549.118,545.266 535.635,529.856 z" id="boundary" inkscape:connector-curvature="0" />
	<path style="fill:none;stroke:red;stroke-width:1px;stroke-linecap:butt;stroke-linejoin:miter;stroke-opacity:1" d="M 535.635,529.856 520.225,516.373 z" id="boundary" inkscape:connector-curvature="0" />
	<path style="fill:none;stroke:red;stroke-width:1px;stroke-linecap:butt;stroke-linejoin:miter;stroke-opacity:1" d="M 520.225,516.373 506.742,500.963 z" id="boundary" inkscape:connector-curvature="0" />
	<path style="fill:none;stroke:red;stroke-width:1px;stroke-linecap:butt;stroke-linejoin:miter;stroke-opacity:1" d="M 506.742,500.963 487.48,493.258 z" id="boundary" inkscape:connector-curvature="0" />
	<path style="fill:none;stroke:red;stroke-width:1px;stroke-linecap:butt;stroke-linejoin:miter;stroke-opacity:1" d="M 487.48,493.258 475.922,477.849 z" id="boundary" inkscape:connector-curvature="0" />
	<path style="fill:none;stroke:red;stroke-width:1px;stroke-linecap:butt;stroke-linejoin:miter;stroke-opacity:1" d="M 475.922,477.849 460.513,466.291 z" id="boundary" inkscape:connector-curvature="0" />
	<path style="fill:none;stroke:red;stroke-width:1px;stroke-linecap:butt;stroke-linejoin:miter;stroke-opacity:1" d="M 460.513,466.291 447.029,450.882 z" id="boundary" inkscape:connector-curvature="0" />
	<path style="fill:none;stroke:red;stroke-width:1px;stroke-linecap:butt;stroke-linejoin:miter;stroke-opacity:1" d="M 447.029,450.882 437.398,433.546 z" id="boundary" inkscape:connector-curvature="0" />
	<path style="fill:none;stroke:red;stroke-width:1px;stroke-linecap:butt;stroke-linejoin:miter;stroke-opacity:1" d="M 437.398,433.546 427.767,416.21 z" id="boundary" inkscape:connector-curvature="0" />
	<path style="fill:none;stroke:red;stroke-width:1px;stroke-linecap:butt;stroke-linejoin:miter;stroke-opacity:1" d="M 427.767,416.21 421.988,396.948 z" id="boundary" inkscape:connector-curvature="0" />
	<path style="fill:none;stroke:red;stroke-width:1px;stroke-linecap:butt;stroke-linejoin:miter;stroke-opacity:1" d="M 421.988,396.948 410.431,381.538 z" id="boundary" inkscape:connector-curvature="0" />
	<path style="fill:none;stroke:red;stroke-width:1px;stroke-linecap:butt;stroke-linejoin:miter;stroke-opacity:1" d="M 410.431,381.538 391.169,381.538 z" id="boundary" inkscape:connector-curvature="0" />
	<path style="fill:none;stroke:red;stroke-width:1px;stroke-linecap:butt;stroke-linejoin:miter;stroke-opacity:1" d="M 391.169,381.538 371.907,391.169 z" id="boundary" inkscape:connector-curvature="0" />
	<path style="fill:none;stroke:red;stroke-width:1px;stroke-linecap:butt;stroke-linejoin:miter;stroke-opacity:1" d="M 371.907,391.169 352.645,400.8 z" id="boundary" inkscape:connector-curvature="0" />
	<path style="fill:none;stroke:red;stroke-width:1px;stroke-linecap:butt;stroke-linejoin:miter;stroke-opacity:1" d="M 352.645,400.8 335.309,410.431 z" id="boundary" inkscape:connector-curvature="0" />
	<path style="fill:none;stroke:red;stroke-width:1px;stroke-linecap:butt;stroke-linejoin:miter;stroke-opacity:1" d="M 335.309,410.431 317.973,420.062 z" id="boundary" inkscape:connector-curvature="0" />
	<path style="fill:none;stroke:red;stroke-width:1px;stroke-linecap:butt;stroke-linejoin:miter;stroke-opacity:1" d="M 317.973,420.062 300.637,429.693 z" id="boundary" inkscape:connector-curvature="0" />
	<path style="fill:none;stroke:red;stroke-width:1px;stroke-linecap:butt;stroke-linejoin:miter;stroke-opacity:1" d="M 300.637,429.693 283.301,439.324 z" id="boundary" inkscape:connector-curvature="0" />
	<path style="fill:none;stroke:red;stroke-width:1px;stroke-linecap:butt;stroke-linejoin:miter;stroke-opacity:1" d="M 283.301,439.324 265.965,448.955 z" id="boundary" inkscape:connector-curvature="0" />
	<path style="fill:none;stroke:red;stroke-width:1px;stroke-linecap:butt;stroke-linejoin:miter;stroke-opacity:1" d="M 265.965,448.955 246.703,448.955 z" id="boundary" inkscape:connector-curvature="0" />
	<path style="fill:none;stroke:red;stroke-width:1px;stroke-linecap:butt;stroke-linejoin:miter;stroke-opacity:1" d="M 246.703,448.955 227.441,448.955 z" id="boundary" inkscape:connector-curvature="0" />
	<path style="fill:none;stroke:red;stroke-width:1px;stroke-linecap:butt;stroke-linejoin:miter;stroke-opacity:1" d="M 227.441,448.955 208.179,448.955 z" id="boundary" inkscape:connector-curvature="0" />
	<path style="fill:none;stroke:red;stroke-width:1px;stroke-linecap:butt;stroke-linejoin:miter;stroke-opacity:1" d="M 208.179,448.955 208.179,468.217 z" id="boundary" inkscape:connector-curvature="0" />
	<path style="fill:none;stroke:red;stroke-width:1px;stroke-linecap:butt;stroke-linejoin:miter;stroke-opacity:1" d="M 208.179,468.217 204.326,493.258 z" id="boundary" inkscape:connector-curvature="0" />
	<path style="fill:none;stroke:red;stroke-width:1px;stroke-linecap:butt;stroke-linejoin:miter;stroke-opacity:1" d="M 204.326,493.258 194.695,512.52 z" id="boundary" inkscape:connector-curvature="0" />
	<path style="fill:none;stroke:red;stroke-width:1px;stroke-linecap:butt;stroke-linejoin:miter;stroke-opacity:1" d="M 194.695,512.52 185.064,531.783 z" id="boundary" inkscape:connector-curvature="0" />
	<path style="fill:none;stroke:red;stroke-width:1px;stroke-linecap:butt;stroke-linejoin:miter;stroke-opacity:1" d="M 185.064,531.783 175.433,551.045 z" id="boundary" inkscape:connector-curvature="0" />
	<path style="fill:none;stroke:red;stroke-width:1px;stroke-linecap:butt;stroke-linejoin:miter;stroke-opacity:1" d="M 175.433,551.045 165.802,570.307 z" id="boundary" inkscape:connector-curvature="0" />
	<path style="fill:none;stroke:red;stroke-width:1px;stroke-linecap:butt;stroke-linejoin:miter;stroke-opacity:1" d="M 165.802,570.307 150.392,583.79 z" id="boundary" inkscape:connector-curvature="0" />
	<path style="fill:none;stroke:red;stroke-width:1px;stroke-linecap:butt;stroke-linejoin:miter;stroke-opacity:1" d="M 150.392,583.79 136.909,599.2 z" id="boundary" inkscape:connector-curvature="0" />
	<path style="fill:none;stroke:red;stroke-width:1px;stroke-linecap:butt;stroke-linejoin:miter;stroke-opacity:1" d="M 136.909,599.2 121.499,612.683 z" id="boundary" inkscape:connector-curvature="0" />
	<path style="fill:none;stroke:red;stroke-width:1px;stroke-linecap:butt;stroke-linejoin:miter;stroke-opacity:1" d="M 121.499,612.683 121.499,631.946 z" id="boundary" inkscape:connector-curvature="0" />
	<path style="fill:none;stroke:red;stroke-width:1px;stroke-linecap:butt;stroke-linejoin:miter;stroke-opacity:1" d="M 121.499,631.946 121.499,651.208 z" id="boundary" inkscape:connector-curvature="0" />
	<path style="fill:none;stroke:red;stroke-width:1px;stroke-linecap:butt;stroke-linejoin:miter;stroke-opacity:1" d="M 121.499,651.208 121.499,670.47 z" id="boundary" inkscape:connector-curvature="0" />
	<path style="fill:none;stroke:red;stroke-width:1px;stroke-linecap:butt;stroke-linejoin:miter;stroke-opacity:1" d="M 121.499,670.47 121.499,689.732 z" id="boundary" inkscape:connector-curvature="0" />
	<path style="fill:none;stroke:red;stroke-width:1px;stroke-linecap:butt;stroke-linejoin:miter;stroke-opacity:1" d="M 121.499,689.732 115.72,716.699 z" id="boundary" inkscape:connector-curvature="0" />
	<path style="fill:none;stroke:red;stroke-width:1px;stroke-linecap:butt;stroke-linejoin:miter;stroke-opacity:1" d="M 115.72,716.699 100.311,732.109 z" id="boundary" inkscape:connector-curvature="0" />
	<path style="fill:none;stroke:red;stroke-width:1px;stroke-linecap:butt;stroke-linejoin:miter;stroke-opacity:1" d="M 100.311,732.109 81.0485,737.887 z" id="boundary" inkscape:connector-curvature="0" />
	<path style="fill:none;stroke:red;stroke-width:1px;stroke-linecap:butt;stroke-linejoin:miter;stroke-opacity:1" d="M 81.0485,737.887 61.7864,737.887 z" id="boundary" inkscape:connector-curvature="0" />
	<path style="fill:none;stroke:red;stroke-width:1px;stroke-linecap:butt;stroke-linejoin:miter;stroke-opacity:1" d="M 61.7864,737.887 42.5243,737.887 z" id="boundary" inkscape:connector-curvature="0" />
	<path style="fill:none;stroke:red;stroke-width:1px;stroke-linecap:butt;stroke-linejoin:miter;stroke-opacity:1" d="M 42.5243,737.887 23.2621,737.887 z" id="boundary" inkscape:connector-curvature="0" />
	<path style="fill:none;stroke:red;stroke-width:1px;stroke-linecap:butt;stroke-linejoin:miter;stroke-opacity:1" d="M 23.2621,737.887 4,732.109 z" id="boundary" inkscape:connector-curvature="0" />
	<path style="fill:none;stroke:red;stroke-width:1px;stroke-linecap:butt;stroke-linejoin:miter;stroke-opacity:1" d="M 4,732.109 13.6311,712.847 z" id="boundary" inkscape:connector-curvature="0" />
	<path style="fill:none;stroke:red;stroke-width:1px;stroke-linecap:butt;stroke-linejoin:miter;stroke-opacity:1" d="M 13.6311,712.847 29.0408,697.437 z" id="boundary" inkscape:connector-curvature="0" />
	<path style="fill:none;stroke:red;stroke-width:1px;stroke-linecap:butt;stroke-linejoin:miter;stroke-opacity:1" d="M 29.0408,697.437 48.3029,687.806 z" id="boundary" inkscape:connector-curvature="0" />
	<path style="fill:none;stroke:red;stroke-width:1px;stroke-linecap:butt;stroke-linejoin:miter;stroke-opacity:1" d="M 48.3029,687.806 57.934,668.544 z" id="boundary" inkscape:connector-curvature="0" />
	<path style="fill:none;stroke:red;stroke-width:1px;stroke-linecap:butt;stroke-linejoin:miter;stroke-opacity:1" d="M 57.934,668.544 61.7864,645.429 z" id="boundary" inkscape:connector-curvature="0" />
	<path style="fill:none;stroke:red;stroke-width:1px;stroke-linecap:butt;stroke-linejoin:miter;stroke-opacity:1" d="M 61.7864,645.429 71.4175,616.536 z" id="boundary" inkscape:connector-curvature="0" />
	<path style="fill:none;stroke:red;stroke-width:1px;stroke-linecap:butt;stroke-linejoin:miter;stroke-opacity:1" d="M 81.0485,587.643 71.4175,616.536 z" id="boundary" inkscape:connector-curvature="0" />
	<circle cx="4" cy="732.109" r="4" fill="#0" id="circle0"/>
	<circle cx="13.6311" cy="57.934" r="4" fill="#0" id="circle1"/>
	<circle cx="13.6311" cy="77.1961" r="4" fill="#0" id="circle2"/>
	<circle cx="13.6311" cy="96.4583" r="4" fill="#0" id="circle3"/>
	<circle cx="13.6311" cy="712.847" r="4" fill="#0" id="circle4"/>
	<circle cx="23.2621" cy="38.6718" r="4" fill="#0" id="circle5"/>
	<circle cx="23.2621" cy="737.887" r="4" fill="#0" id="circle6"/>
	<circle cx="29.0408" cy="109.942" r="4" fill="#0" id="circle7"/>
	<circle cx="29.0408" cy="697.437" r="4" fill="#0" id="circle8"/>
	<circle cx="32.8932" cy="19.4097" r="4" fill="#0" id="circle9"/>
	<circle cx="42.5243" cy="737.887" r="4" fill="#0" id="circle10"/>
	<circle cx="44.4505" cy="121.499" r="4" fill="#0" id="circle11"/>
	<circle cx="48.3029" cy="687.806" r="4" fill="#0" id="circle12"/>
	<circle cx="52.1553" cy="9.77864" r="4" fill="#0" id="circle13"/>
	<circle cx="57.934" cy="668.544" r="4" fill="#0" id="circle14"/>
	<circle cx="61.7864" cy="131.13" r="4" fill="#0" id="circle15"/>
	<circle cx="61.7864" cy="645.429" r="4" fill="#0" id="circle16"/>
	<circle cx="61.7864" cy="737.887" r="4" fill="#0" id="circle17"/>
	<circle cx="71.4175" cy="4" r="4" fill="#0" id="circle18"/>
	<circle cx="71.4175" cy="616.536" r="4" fill="#0" id="circle19"/>
	<circle cx="79.1223" cy="140.761" r="4" fill="#0" id="circle20"/>
	<circle cx="81.0485" cy="587.643" r="4" fill="#0" id="circle21"/>
	<circle cx="81.0485" cy="737.887" r="4" fill="#0" id="circle22"/>
	<circle cx="90.6796" cy="4" r="4" fill="#0" id="circle23"/>
	<circle cx="90.6796" cy="568.381" r="4" fill="#0" id="circle24"/>
	<circle cx="98.3845" cy="140.761" r="4" fill="#0" id="circle25"/>
	<circle cx="100.311" cy="732.109" r="4" fill="#0" id="circle26"/>
	<circle cx="106.089" cy="552.971" r="4" fill="#0" id="circle27"/>
	<circle cx="109.942" cy="7.85243" r="4" fill="#0" id="circle28"/>
	<circle cx="109.942" cy="156.171" r="4" fill="#0" id="circle29"/>
	<circle cx="111.868" cy="175.433" r="4" fill="#0" id="circle30"/>
	<circle cx="115.72" cy="533.709" r="4" fill="#0" id="circle31"/>
	<circle cx="115.72" cy="716.699" r="4" fill="#0" id="circle32"/>
	<circle cx="121.499" cy="192.769" r="4" fill="#0" id="circle33"/>
	<circle cx="121.499" cy="612.683" r="4" fill="#0" id="circle34"/>
	<circle cx="121.499" cy="631.946" r="4" fill="#0" id="circle35"/>
	<circle cx="121.499" cy="651.208" r="4" fill="#0" id="circle36"/>
	<circle cx="121.499" cy="670.47" r="4" fill="#0" id="circle37"/>
	<circle cx="121.499" cy="689.732" r="4" fill="#0" id="circle38"/>
	<circle cx="125.351" cy="514.447" r="4" fill="#0" id="circle39"/>
	<circle cx="127.278" cy="17.4835" r="4" fill="#0" id="circle40"/>
	<circle cx="129.204" cy="491.332" r="4" fill="#0" id="circle41"/>
	<circle cx="134.983" cy="208.179" r="4" fill="#0" id="circle42"/>
	<circle cx="136.909" cy="599.2" r="4" fill="#0" id="circle43"/>
	<circle cx="138.835" cy="452.808" r="4" fill="#0" id="circle44"/>
	<circle cx="138.835" cy="472.07" r="4" fill="#0" id="circle45"/>
	<circle cx="140.761" cy="32.8932" r="4" fill="#0" id="circle46"/>
	<circle cx="148.466" cy="433.546" r="4" fill="#0" id="circle47"/>
	<circle cx="150.392" cy="583.79" r="4" fill="#0" id="circle48"/>
	<circle cx="152.318" cy="217.81" r="4" fill="#0" id="circle49"/>
	<circle cx="156.171" cy="44.4505" r="4" fill="#0" id="circle50"/>
	<circle cx="163.876" cy="418.136" r="4" fill="#0" id="circle51"/>
	<circle cx="165.802" cy="570.307" r="4" fill="#0" id="circle52"/>
	<circle cx="169.654" cy="59.8602" r="4" fill="#0" id="circle53"/>
	<circle cx="169.654" cy="227.441" r="4" fill="#0" id="circle54"/>
	<circle cx="175.433" cy="551.045" r="4" fill="#0" id="circle55"/>
	<circle cx="181.212" cy="408.505" r="4" fill="#0" id="circle56"/>
	<circle cx="185.064" cy="71.4175" r="4" fill="#0" id="circle57"/>
	<circle cx="185.064" cy="531.783" r="4" fill="#0" id="circle58"/>
	<circle cx="186.99" cy="237.072" r="4" fill="#0" id="circle59"/>
	<circle cx="194.695" cy="512.52" r="4" fill="#0" id="circle60"/>
	<circle cx="196.621" cy="395.021" r="4" fill="#0" id="circle61"/>
	<circle cx="202.4" cy="61.7864" r="4" fill="#0" id="circle62"/>
	<circle cx="204.326" cy="246.703" r="4" fill="#0" id="circle63"/>
	<circle cx="204.326" cy="493.258" r="4" fill="#0" id="circle64"/>
	<circle cx="208.179" cy="448.955" r="4" fill="#0" id="circle65"/>
	<circle cx="208.179" cy="468.217" r="4" fill="#0" id="circle66"/>
	<circle cx="212.031" cy="379.612" r="4" fill="#0" id="circle67"/>
	<circle cx="221.662" cy="52.1553" r="4" fill="#0" id="circle68"/>
	<circle cx="221.662" cy="256.334" r="4" fill="#0" id="circle69"/>
	<circle cx="227.441" cy="364.202" r="4" fill="#0" id="circle70"/>
	<circle cx="227.441" cy="448.955" r="4" fill="#0" id="circle71"/>
	<circle cx="237.072" cy="269.817" r="4" fill="#0" id="circle72"/>
	<circle cx="240.924" cy="52.1553" r="4" fill="#0" id="circle73"/>
	<circle cx="242.85" cy="350.718" r="4" fill="#0" id="circle74"/>
	<circle cx="246.703" cy="448.955" r="4" fill="#0" id="circle75"/>
	<circle cx="254.408" cy="279.449" r="4" fill="#0" id="circle76"/>
	<circle cx="256.334" cy="335.309" r="4" fill="#0" id="circle77"/>
	<circle cx="260.186" cy="52.1553" r="4" fill="#0" id="circle78"/>
	<circle cx="265.965" cy="448.955" r="4" fill="#0" id="circle79"/>
	<circle cx="273.67" cy="285.227" r="4" fill="#0" id="circle80"/>
	<circle cx="275.596" cy="325.678" r="4" fill="#0" id="circle81"/>
	<circle cx="279.449" cy="52.1553" r="4" fill="#0" id="circle82"/>
	<circle cx="283.301" cy="439.324" r="4" fill="#0" id="circle83"/>
	<circle cx="291.006" cy="294.858" r="4" fill="#0" id="circle84"/>
	<circle cx="294.858" cy="321.825" r="4" fill="#0" id="circle85"/>
	<circle cx="296.784" cy="61.7864" r="4" fill="#0" id="circle86"/>
	<circle cx="300.637" cy="429.693" r="4" fill="#0" id="circle87"/>
	<circle cx="314.12" cy="71.4175" r="4" fill="#0" id="circle88"/>
	<circle cx="317.973" cy="420.062" r="4" fill="#0" id="circle89"/>
	<circle cx="331.456" cy="81.0485" r="4" fill="#0" id="circle90"/>
	<circle cx="335.309" cy="410.431" r="4" fill="#0" id="circle91"/>
	<circle cx="346.866" cy="92.6058" r="4" fill="#0" id="circle92"/>
	<circle cx="352.645" cy="400.8" r="4" fill="#0" id="circle93"/>
	<circle cx="366.128" cy="100.311" r="4" fill="#0" id="circle94"/>
	<circle cx="371.907" cy="391.169" r="4" fill="#0" id="circle95"/>
	<circle cx="379.612" cy="115.72" r="4" fill="#0" id="circle96"/>
	<circle cx="391.169" cy="381.538" r="4" fill="#0" id="circle97"/>
	<circle cx="395.021" cy="129.204" r="4" fill="#0" id="circle98"/>
	<circle cx="408.505" cy="144.614" r="4" fill="#0" id="circle99"/>
	<circle cx="410.431" cy="381.538" r="4" fill="#0" id="circle100"/>
	<circle cx="421.988" cy="396.948" r="4" fill="#0" id="circle101"/>
	<circle cx="423.915" cy="158.097" r="4" fill="#0" id="circle102"/>
	<circle cx="427.767" cy="416.21" r="4" fill="#0" id="circle103"/>
	<circle cx="437.398" cy="173.507" r="4" fill="#0" id="circle104"/>
	<circle cx="437.398" cy="433.546" r="4" fill="#0" id="circle105"/>
	<circle cx="447.029" cy="450.882" r="4" fill="#0" id="circle106"/>
	<circle cx="448.955" cy="188.917" r="4" fill="#0" id="circle107"/>
	<circle cx="458.586" cy="206.252" r="4" fill="#0" id="circle108"/>
	<circle cx="460.513" cy="466.291" r="4" fill="#0" id="circle109"/>
	<circle cx="473.996" cy="217.81" r="4" fill="#0" id="circle110"/>
	<circle cx="475.922" cy="477.849" r="4" fill="#0" id="circle111"/>
	<circle cx="487.48" cy="233.219" r="4" fill="#0" id="circle112"/>
	<circle cx="487.48" cy="493.258" r="4" fill="#0" id="circle113"/>
	<circle cx="502.889" cy="246.703" r="4" fill="#0" id="circle114"/>
	<circle cx="506.742" cy="500.963" r="4" fill="#0" id="circle115"/>
	<circle cx="516.373" cy="262.113" r="4" fill="#0" id="circle116"/>
	<circle cx="520.225" cy="516.373" r="4" fill="#0" id="circle117"/>
	<circle cx="531.783" cy="275.596" r="4" fill="#0" id="circle118"/>
	<circle cx="535.635" cy="529.856" r="4" fill="#0" id="circle119"/>
	<circle cx="545.266" cy="291.006" r="4" fill="#0" id="circle120"/>
	<circle cx="549.118" cy="545.266" r="4" fill="#0" id="circle121"/>
	<circle cx="554.897" cy="308.342" r="4" fill="#0" id="circle122"/>
	<circle cx="562.602" cy="327.604" r="4" fill="#0" id="circle123"/>
	<circle cx="564.528" cy="346.866" r="4" fill="#0" id="circle124"/>
	<circle cx="568.381" cy="552.971" r="4" fill="#0" id="circle125"/>
	<circle cx="578.012" cy="362.276" r="4" fill="#0" id="circle126"/>
	<circle cx="585.717" cy="562.602" r="4" fill="#0" id="circle127"/>
	<circle cx="593.421" cy="375.759" r="4" fill="#0" id="circle128"/>
	<circle cx="601.126" cy="395.021" r="4" fill="#0" id="circle129"/>
	<circle cx="603.052" cy="414.283" r="4" fill="#0" id="circle130"/>
	<circle cx="603.052" cy="433.546" r="4" fill="#0" id="circle131"/>
	<circle cx="603.052" cy="452.808" r="4" fill="#0" id="circle132"/>
	<circle cx="604.979" cy="570.307" r="4" fill="#0" id="circle133"/>
	<circle cx="622.315" cy="456.66" r="4" fill="#0" id="circle134"/>
	<circle cx="624.241" cy="574.159" r="4" fill="#0" id="circle135"/>
	<circle cx="641.577" cy="450.882" r="4" fill="#0" id="circle136"/>
	<circle cx="643.503" cy="574.159" r="4" fill="#0" id="circle137"/>
	<circle cx="656.986" cy="437.398" r="4" fill="#0" id="circle138"/>
	<circle cx="660.839" cy="564.528" r="4" fill="#0" id="circle139"/>
	<circle cx="674.322" cy="427.767" r="4" fill="#0" id="circle140"/>
	<circle cx="680.101" cy="554.897" r="4" fill="#0" id="circle141"/>
	<circle cx="691.658" cy="418.136" r="4" fill="#0" id="circle142"/>
	<circle cx="699.363" cy="545.266" r="4" fill="#0" id="circle143"/>
	<circle cx="708.994" cy="408.505" r="4" fill="#0" id="circle144"/>
	<circle cx="708.994" cy="526.004" r="4" fill="#0" id="circle145"/>
	<circle cx="724.404" cy="512.52" r="4" fill="#0" id="circle146"/>
	<circle cx="728.256" cy="402.726" r="4" fill="#0" id="circle147"/>
	<circle cx="737.887" cy="487.48" r="4" fill="#0" id="circle148"/>
	<circle cx="747.518" cy="393.095" r="4" fill="#0" id="circle149"/>
	<circle cx="753.297" cy="473.996" r="4" fill="#0" id="circle150"/>
	<circle cx="766.781" cy="383.464" r="4" fill="#0" id="circle151"/>
	<circle cx="772.559" cy="468.217" r="4" fill="#0" id="circle152"/>
	<circle cx="782.19" cy="369.981" r="4" fill="#0" id="circle153"/>
	<circle cx="791.821" cy="464.365" r="4" fill="#0" id="circle154"/>
	<circle cx="793.748" cy="346.866" r="4" fill="#0" id="circle155"/>
	<circle cx="803.379" cy="327.604" r="4" fill="#0" id="circle156"/>
	<circle cx="811.083" cy="458.586" r="4" fill="#0" id="circle157"/>
	<circle cx="818.788" cy="312.194" r="4" fill="#0" id="circle158"/>
	<circle cx="830.346" cy="458.586" r="4" fill="#0" id="circle159"/>
	<circle cx="838.05" cy="302.563" r="4" fill="#0" id="circle160"/>
	<circle cx="849.608" cy="454.734" r="4" fill="#0" id="circle161"/>
	<circle cx="855.386" cy="312.194" r="4" fill="#0" id="circle162"/>
	<circle cx="868.87" cy="448.955" r="4" fill="#0" id="circle163"/>
	<circle cx="872.722" cy="321.825" r="4" fill="#0" id="circle164"/>
	<circle cx="888.132" cy="333.383" r="4" fill="#0" id="circle165"/>
	<circle cx="888.132" cy="448.955" r="4" fill="#0" id="circle166"/>
	<circle cx="901.616" cy="348.792" r="4" fill="#0" id="circle167"/>
	<circle cx="907.394" cy="448.955" r="4" fill="#0" id="circle168"/>
	<circle cx="917.025" cy="362.276" r="4" fill="#0" id="circle169"/>
	<circle cx="926.656" cy="448.955" r="4" fill="#0" id="circle170"/>
	<circle cx="934.361" cy="371.907" r="4" fill="#0" id="circle171"/>
	<circle cx="945.918" cy="448.955" r="4" fill="#0" id="circle172"/>
	<circle cx="949.771" cy="385.39" r="4" fill="#0" id="circle173"/>
	<circle cx="963.254" cy="400.8" r="4" fill="#0" id="circle174"/>
	<circle cx="965.181" cy="448.955" r="4" fill="#0" id="circle175"/>
	<circle cx="982.517" cy="408.505" r="4" fill="#0" id="circle176"/>
	<circle cx="984.443" cy="445.103" r="4" fill="#0" id="circle177"/>
	<circle cx="996" cy="423.915" r="4" fill="#0" id="circle178"/>
	</g>
</svg>