<?xml version="1.0" encoding="UTF-8" standalone="no"?>
<!-- Created with CurveBenchmark -->
<svg
	xmlns:dc="http://purl.org/dc/elements/1.1/"
	xmlns:cc="http://creativecommons.org/ns#"
	xmlns:rdf="http://www.w3.org/1999/02/22-rdf-syntax-ns#"
	xmlns:svg="http://www.w3.org/2000/svg"
	xmlns="http://www.w3.org/2000/svg"
	xmlns:sodipodi="http://sodipodi.sourceforge.net/DTD/sodipodi-0.dtd"
	xmlns:inkscape="http://www.inkscape.org/namespaces/inkscape"
	width="1000"
	height="1000"
	id="svg2"
	version="1.1"
	sodipodi:docname="manifold/crawl-Misk14.png.txt">
<defs
	id="defs4" />
<metadata
	id="metadata7">
	<rdf:RDF>
		<cc:Work
			rdf:about="">
			<dc:format>image/svg+xml</dc:format>
			<dc:type
				rdf:resource="http://purl.org/dc/dcmitype/StillImage" />
			<dc:title></dc:title>
		</cc:Work>
	</rdf:RDF>
</metadata>
<g
	inkscape:label="Layer 1"
	inkscape:groupmode="layer"
	id="layer1">
	<path style="fill:none;stroke:red;stroke-width:1px;stroke-linecap:butt;stroke-linejoin:miter;stroke-opacity:1" d="M 4,273.045 4,289.551 z" id="boundary" inkscape:connector-curvature="0" />
	<path style="fill:none;stroke:red;stroke-width:1px;stroke-linecap:butt;stroke-linejoin:miter;stroke-opacity:1" d="M 4,289.551 4,306.057 z" id="boundary" inkscape:connector-curvature="0" />
	<path style="fill:none;stroke:red;stroke-width:1px;stroke-linecap:butt;stroke-linejoin:miter;stroke-opacity:1" d="M 4,306.057 4,322.562 z" id="boundary" inkscape:connector-curvature="0" />
	<path style="fill:none;stroke:red;stroke-width:1px;stroke-linecap:butt;stroke-linejoin:miter;stroke-opacity:1" d="M 4,322.562 4,339.068 z" id="boundary" inkscape:connector-curvature="0" />
	<path style="fill:none;stroke:red;stroke-width:1px;stroke-linecap:butt;stroke-linejoin:miter;stroke-opacity:1" d="M 4,339.068 4,355.574 z" id="boundary" inkscape:connector-curvature="0" />
	<path style="fill:none;stroke:red;stroke-width:1px;stroke-linecap:butt;stroke-linejoin:miter;stroke-opacity:1" d="M 4,355.574 12.2529,370.429 z" id="boundary" inkscape:connector-curvature="0" />
	<path style="fill:none;stroke:red;stroke-width:1px;stroke-linecap:butt;stroke-linejoin:miter;stroke-opacity:1" d="M 12.2529,370.429 23.807,383.634 z" id="boundary" inkscape:connector-curvature="0" />
	<path style="fill:none;stroke:red;stroke-width:1px;stroke-linecap:butt;stroke-linejoin:miter;stroke-opacity:1" d="M 23.807,383.634 37.0116,393.537 z" id="boundary" inkscape:connector-curvature="0" />
	<path style="fill:none;stroke:red;stroke-width:1px;stroke-linecap:butt;stroke-linejoin:miter;stroke-opacity:1" d="M 37.0116,393.537 46.9151,406.742 z" id="boundary" inkscape:connector-curvature="0" />
	<path style="fill:none;stroke:red;stroke-width:1px;stroke-linecap:butt;stroke-linejoin:miter;stroke-opacity:1" d="M 46.9151,406.742 60.1198,418.296 z" id="boundary" inkscape:connector-curvature="0" />
	<path style="fill:none;stroke:red;stroke-width:1px;stroke-linecap:butt;stroke-linejoin:miter;stroke-opacity:1" d="M 60.1198,418.296 76.6256,418.296 z" id="boundary" inkscape:connector-curvature="0" />
	<path style="fill:none;stroke:red;stroke-width:1px;stroke-linecap:butt;stroke-linejoin:miter;stroke-opacity:1" d="M 76.6256,418.296 91.4809,426.549 z" id="boundary" inkscape:connector-curvature="0" />
	<path style="fill:none;stroke:red;stroke-width:1px;stroke-linecap:butt;stroke-linejoin:miter;stroke-opacity:1" d="M 91.4809,426.549 106.336,434.802 z" id="boundary" inkscape:connector-curvature="0" />
	<path style="fill:none;stroke:red;stroke-width:1px;stroke-linecap:butt;stroke-linejoin:miter;stroke-opacity:1" d="M 106.336,434.802 122.842,434.802 z" id="boundary" inkscape:connector-curvature="0" />
	<path style="fill:none;stroke:red;stroke-width:1px;stroke-linecap:butt;stroke-linejoin:miter;stroke-opacity:1" d="M 122.842,434.802 139.348,434.802 z" id="boundary" inkscape:connector-curvature="0" />
	<path style="fill:none;stroke:red;stroke-width:1px;stroke-linecap:butt;stroke-linejoin:miter;stroke-opacity:1" d="M 139.348,434.802 155.854,434.802 z" id="boundary" inkscape:connector-curvature="0" />
	<path style="fill:none;stroke:red;stroke-width:1px;stroke-linecap:butt;stroke-linejoin:miter;stroke-opacity:1" d="M 155.854,434.802 170.709,426.549 z" id="boundary" inkscape:connector-curvature="0" />
	<path style="fill:none;stroke:red;stroke-width:1px;stroke-linecap:butt;stroke-linejoin:miter;stroke-opacity:1" d="M 170.709,426.549 180.612,439.754 z" id="boundary" inkscape:connector-curvature="0" />
	<path style="fill:none;stroke:red;stroke-width:1px;stroke-linecap:butt;stroke-linejoin:miter;stroke-opacity:1" d="M 180.612,439.754 193.817,451.308 z" id="boundary" inkscape:connector-curvature="0" />
	<path style="fill:none;stroke:red;stroke-width:1px;stroke-linecap:butt;stroke-linejoin:miter;stroke-opacity:1" d="M 193.817,451.308 198.769,467.814 z" id="boundary" inkscape:connector-curvature="0" />
	<path style="fill:none;stroke:red;stroke-width:1px;stroke-linecap:butt;stroke-linejoin:miter;stroke-opacity:1" d="M 198.769,467.814 202.07,484.319 z" id="boundary" inkscape:connector-curvature="0" />
	<path style="fill:none;stroke:red;stroke-width:1px;stroke-linecap:butt;stroke-linejoin:miter;stroke-opacity:1" d="M 202.07,484.319 210.323,499.175 z" id="boundary" inkscape:connector-curvature="0" />
	<path style="fill:none;stroke:red;stroke-width:1px;stroke-linecap:butt;stroke-linejoin:miter;stroke-opacity:1" d="M 210.323,499.175 220.226,512.379 z" id="boundary" inkscape:connector-curvature="0" />
	<path style="fill:none;stroke:red;stroke-width:1px;stroke-linecap:butt;stroke-linejoin:miter;stroke-opacity:1" d="M 220.226,512.379 231.78,525.584 z" id="boundary" inkscape:connector-curvature="0" />
	<path style="fill:none;stroke:red;stroke-width:1px;stroke-linecap:butt;stroke-linejoin:miter;stroke-opacity:1" d="M 231.78,525.584 240.033,540.439 z" id="boundary" inkscape:connector-curvature="0" />
	<path style="fill:none;stroke:red;stroke-width:1px;stroke-linecap:butt;stroke-linejoin:miter;stroke-opacity:1" d="M 240.033,540.439 251.587,553.644 z" id="boundary" inkscape:connector-curvature="0" />
	<path style="fill:none;stroke:red;stroke-width:1px;stroke-linecap:butt;stroke-linejoin:miter;stroke-opacity:1" d="M 251.587,553.644 259.84,568.499 z" id="boundary" inkscape:connector-curvature="0" />
	<path style="fill:none;stroke:red;stroke-width:1px;stroke-linecap:butt;stroke-linejoin:miter;stroke-opacity:1" d="M 259.84,568.499 271.394,581.704 z" id="boundary" inkscape:connector-curvature="0" />
	<path style="fill:none;stroke:red;stroke-width:1px;stroke-linecap:butt;stroke-linejoin:miter;stroke-opacity:1" d="M 271.394,581.704 284.599,591.607 z" id="boundary" inkscape:connector-curvature="0" />
	<path style="fill:none;stroke:red;stroke-width:1px;stroke-linecap:butt;stroke-linejoin:miter;stroke-opacity:1" d="M 284.599,591.607 284.599,608.113 z" id="boundary" inkscape:connector-curvature="0" />
	<path style="fill:none;stroke:red;stroke-width:1px;stroke-linecap:butt;stroke-linejoin:miter;stroke-opacity:1" d="M 284.599,608.113 292.852,622.968 z" id="boundary" inkscape:connector-curvature="0" />
	<path style="fill:none;stroke:red;stroke-width:1px;stroke-linecap:butt;stroke-linejoin:miter;stroke-opacity:1" d="M 292.852,622.968 292.852,639.474 z" id="boundary" inkscape:connector-curvature="0" />
	<path style="fill:none;stroke:red;stroke-width:1px;stroke-linecap:butt;stroke-linejoin:miter;stroke-opacity:1" d="M 292.852,639.474 292.852,655.98 z" id="boundary" inkscape:connector-curvature="0" />
	<path style="fill:none;stroke:red;stroke-width:1px;stroke-linecap:butt;stroke-linejoin:miter;stroke-opacity:1" d="M 292.852,655.98 276.346,669.185 z" id="boundary" inkscape:connector-curvature="0" />
	<path style="fill:none;stroke:red;stroke-width:1px;stroke-linecap:butt;stroke-linejoin:miter;stroke-opacity:1" d="M 276.346,669.185 259.84,677.438 z" id="boundary" inkscape:connector-curvature="0" />
	<path style="fill:none;stroke:red;stroke-width:1px;stroke-linecap:butt;stroke-linejoin:miter;stroke-opacity:1" d="M 259.84,677.438 243.334,680.739 z" id="boundary" inkscape:connector-curvature="0" />
	<path style="fill:none;stroke:red;stroke-width:1px;stroke-linecap:butt;stroke-linejoin:miter;stroke-opacity:1" d="M 243.334,680.739 226.829,680.739 z" id="boundary" inkscape:connector-curvature="0" />
	<path style="fill:none;stroke:red;stroke-width:1px;stroke-linecap:butt;stroke-linejoin:miter;stroke-opacity:1" d="M 226.829,680.739 210.323,680.739 z" id="boundary" inkscape:connector-curvature="0" />
	<path style="fill:none;stroke:red;stroke-width:1px;stroke-linecap:butt;stroke-linejoin:miter;stroke-opacity:1" d="M 210.323,680.739 193.817,685.691 z" id="boundary" inkscape:connector-curvature="0" />
	<path style="fill:none;stroke:red;stroke-width:1px;stroke-linecap:butt;stroke-linejoin:miter;stroke-opacity:1" d="M 193.817,685.691 177.311,688.992 z" id="boundary" inkscape:connector-curvature="0" />
	<path style="fill:none;stroke:red;stroke-width:1px;stroke-linecap:butt;stroke-linejoin:miter;stroke-opacity:1" d="M 177.311,688.992 160.805,688.992 z" id="boundary" inkscape:connector-curvature="0" />
	<path style="fill:none;stroke:red;stroke-width:1px;stroke-linecap:butt;stroke-linejoin:miter;stroke-opacity:1" d="M 160.805,688.992 144.3,688.992 z" id="boundary" inkscape:connector-curvature="0" />
	<path style="fill:none;stroke:red;stroke-width:1px;stroke-linecap:butt;stroke-linejoin:miter;stroke-opacity:1" d="M 144.3,688.992 127.794,688.992 z" id="boundary" inkscape:connector-curvature="0" />
	<path style="fill:none;stroke:red;stroke-width:1px;stroke-linecap:butt;stroke-linejoin:miter;stroke-opacity:1" d="M 127.794,688.992 111.288,693.943 z" id="boundary" inkscape:connector-curvature="0" />
	<path style="fill:none;stroke:red;stroke-width:1px;stroke-linecap:butt;stroke-linejoin:miter;stroke-opacity:1" d="M 111.288,693.943 103.035,710.449 z" id="boundary" inkscape:connector-curvature="0" />
	<path style="fill:none;stroke:red;stroke-width:1px;stroke-linecap:butt;stroke-linejoin:miter;stroke-opacity:1" d="M 103.035,710.449 116.24,722.003 z" id="boundary" inkscape:connector-curvature="0" />
	<path style="fill:none;stroke:red;stroke-width:1px;stroke-linecap:butt;stroke-linejoin:miter;stroke-opacity:1" d="M 116.24,722.003 132.745,723.654 z" id="boundary" inkscape:connector-curvature="0" />
	<path style="fill:none;stroke:red;stroke-width:1px;stroke-linecap:butt;stroke-linejoin:miter;stroke-opacity:1" d="M 132.745,723.654 149.251,723.654 z" id="boundary" inkscape:connector-curvature="0" />
	<path style="fill:none;stroke:red;stroke-width:1px;stroke-linecap:butt;stroke-linejoin:miter;stroke-opacity:1" d="M 149.251,723.654 164.106,731.907 z" id="boundary" inkscape:connector-curvature="0" />
	<path style="fill:none;stroke:red;stroke-width:1px;stroke-linecap:butt;stroke-linejoin:miter;stroke-opacity:1" d="M 164.106,731.907 177.311,741.81 z" id="boundary" inkscape:connector-curvature="0" />
	<path style="fill:none;stroke:red;stroke-width:1px;stroke-linecap:butt;stroke-linejoin:miter;stroke-opacity:1" d="M 177.311,741.81 185.564,756.666 z" id="boundary" inkscape:connector-curvature="0" />
	<path style="fill:none;stroke:red;stroke-width:1px;stroke-linecap:butt;stroke-linejoin:miter;stroke-opacity:1" d="M 185.564,756.666 193.817,771.521 z" id="boundary" inkscape:connector-curvature="0" />
	<path style="fill:none;stroke:red;stroke-width:1px;stroke-linecap:butt;stroke-linejoin:miter;stroke-opacity:1" d="M 193.817,771.521 197.118,788.027 z" id="boundary" inkscape:connector-curvature="0" />
	<path style="fill:none;stroke:red;stroke-width:1px;stroke-linecap:butt;stroke-linejoin:miter;stroke-opacity:1" d="M 197.118,788.027 205.371,802.882 z" id="boundary" inkscape:connector-curvature="0" />
	<path style="fill:none;stroke:red;stroke-width:1px;stroke-linecap:butt;stroke-linejoin:miter;stroke-opacity:1" d="M 205.371,802.882 211.973,819.388 z" id="boundary" inkscape:connector-curvature="0" />
	<path style="fill:none;stroke:red;stroke-width:1px;stroke-linecap:butt;stroke-linejoin:miter;stroke-opacity:1" d="M 211.973,819.388 220.226,834.243 z" id="boundary" inkscape:connector-curvature="0" />
	<path style="fill:none;stroke:red;stroke-width:1px;stroke-linecap:butt;stroke-linejoin:miter;stroke-opacity:1" d="M 220.226,834.243 231.78,847.448 z" id="boundary" inkscape:connector-curvature="0" />
	<path style="fill:none;stroke:red;stroke-width:1px;stroke-linecap:butt;stroke-linejoin:miter;stroke-opacity:1" d="M 231.78,847.448 240.033,862.303 z" id="boundary" inkscape:connector-curvature="0" />
	<path style="fill:none;stroke:red;stroke-width:1px;stroke-linecap:butt;stroke-linejoin:miter;stroke-opacity:1" d="M 240.033,862.303 246.636,878.809 z" id="boundary" inkscape:connector-curvature="0" />
	<path style="fill:none;stroke:red;stroke-width:1px;stroke-linecap:butt;stroke-linejoin:miter;stroke-opacity:1" d="M 246.636,878.809 254.889,893.664 z" id="boundary" inkscape:connector-curvature="0" />
	<path style="fill:none;stroke:red;stroke-width:1px;stroke-linecap:butt;stroke-linejoin:miter;stroke-opacity:1" d="M 254.889,893.664 268.093,905.218 z" id="boundary" inkscape:connector-curvature="0" />
	<path style="fill:none;stroke:red;stroke-width:1px;stroke-linecap:butt;stroke-linejoin:miter;stroke-opacity:1" d="M 268.093,905.218 282.948,913.471 z" id="boundary" inkscape:connector-curvature="0" />
	<path style="fill:none;stroke:red;stroke-width:1px;stroke-linecap:butt;stroke-linejoin:miter;stroke-opacity:1" d="M 282.948,913.471 297.804,921.724 z" id="boundary" inkscape:connector-curvature="0" />
	<path style="fill:none;stroke:red;stroke-width:1px;stroke-linecap:butt;stroke-linejoin:miter;stroke-opacity:1" d="M 297.804,921.724 314.309,928.326 z" id="boundary" inkscape:connector-curvature="0" />
	<path style="fill:none;stroke:red;stroke-width:1px;stroke-linecap:butt;stroke-linejoin:miter;stroke-opacity:1" d="M 314.309,928.326 330.815,929.977 z" id="boundary" inkscape:connector-curvature="0" />
	<path style="fill:none;stroke:red;stroke-width:1px;stroke-linecap:butt;stroke-linejoin:miter;stroke-opacity:1" d="M 330.815,929.977 347.321,929.977 z" id="boundary" inkscape:connector-curvature="0" />
	<path style="fill:none;stroke:red;stroke-width:1px;stroke-linecap:butt;stroke-linejoin:miter;stroke-opacity:1" d="M 347.321,929.977 362.176,938.23 z" id="boundary" inkscape:connector-curvature="0" />
	<path style="fill:none;stroke:red;stroke-width:1px;stroke-linecap:butt;stroke-linejoin:miter;stroke-opacity:1" d="M 362.176,938.23 378.682,943.181 z" id="boundary" inkscape:connector-curvature="0" />
	<path style="fill:none;stroke:red;stroke-width:1px;stroke-linecap:butt;stroke-linejoin:miter;stroke-opacity:1" d="M 378.682,943.181 393.537,951.434 z" id="boundary" inkscape:connector-curvature="0" />
	<path style="fill:none;stroke:red;stroke-width:1px;stroke-linecap:butt;stroke-linejoin:miter;stroke-opacity:1" d="M 393.537,951.434 410.043,958.037 z" id="boundary" inkscape:connector-curvature="0" />
	<path style="fill:none;stroke:red;stroke-width:1px;stroke-linecap:butt;stroke-linejoin:miter;stroke-opacity:1" d="M 410.043,958.037 426.549,962.988 z" id="boundary" inkscape:connector-curvature="0" />
	<path style="fill:none;stroke:red;stroke-width:1px;stroke-linecap:butt;stroke-linejoin:miter;stroke-opacity:1" d="M 426.549,962.988 441.404,971.241 z" id="boundary" inkscape:connector-curvature="0" />
	<path style="fill:none;stroke:red;stroke-width:1px;stroke-linecap:butt;stroke-linejoin:miter;stroke-opacity:1" d="M 441.404,971.241 456.26,979.494 z" id="boundary" inkscape:connector-curvature="0" />
	<path style="fill:none;stroke:red;stroke-width:1px;stroke-linecap:butt;stroke-linejoin:miter;stroke-opacity:1" d="M 456.26,979.494 472.765,979.494 z" id="boundary" inkscape:connector-curvature="0" />
	<path style="fill:none;stroke:red;stroke-width:1px;stroke-linecap:butt;stroke-linejoin:miter;stroke-opacity:1" d="M 472.765,979.494 487.621,987.747 z" id="boundary" inkscape:connector-curvature="0" />
	<path style="fill:none;stroke:red;stroke-width:1px;stroke-linecap:butt;stroke-linejoin:miter;stroke-opacity:1" d="M 487.621,987.747 502.476,996 z" id="boundary" inkscape:connector-curvature="0" />
	<path style="fill:none;stroke:red;stroke-width:1px;stroke-linecap:butt;stroke-linejoin:miter;stroke-opacity:1" d="M 502.476,996 518.982,996 z" id="boundary" inkscape:connector-curvature="0" />
	<path style="fill:none;stroke:red;stroke-width:1px;stroke-linecap:butt;stroke-linejoin:miter;stroke-opacity:1" d="M 518.982,996 535.488,996 z" id="boundary" inkscape:connector-curvature="0" />
	<path style="fill:none;stroke:red;stroke-width:1px;stroke-linecap:butt;stroke-linejoin:miter;stroke-opacity:1" d="M 535.488,996 551.993,996 z" id="boundary" inkscape:connector-curvature="0" />
	<path style="fill:none;stroke:red;stroke-width:1px;stroke-linecap:butt;stroke-linejoin:miter;stroke-opacity:1" d="M 551.993,996 568.499,996 z" id="boundary" inkscape:connector-curvature="0" />
	<path style="fill:none;stroke:red;stroke-width:1px;stroke-linecap:butt;stroke-linejoin:miter;stroke-opacity:1" d="M 568.499,996 585.005,996 z" id="boundary" inkscape:connector-curvature="0" />
	<path style="fill:none;stroke:red;stroke-width:1px;stroke-linecap:butt;stroke-linejoin:miter;stroke-opacity:1" d="M 585.005,996 601.511,996 z" id="boundary" inkscape:connector-curvature="0" />
	<path style="fill:none;stroke:red;stroke-width:1px;stroke-linecap:butt;stroke-linejoin:miter;stroke-opacity:1" d="M 601.511,996 618.017,996 z" id="boundary" inkscape:connector-curvature="0" />
	<path style="fill:none;stroke:red;stroke-width:1px;stroke-linecap:butt;stroke-linejoin:miter;stroke-opacity:1" d="M 618.017,996 632.872,987.747 z" id="boundary" inkscape:connector-curvature="0" />
	<path style="fill:none;stroke:red;stroke-width:1px;stroke-linecap:butt;stroke-linejoin:miter;stroke-opacity:1" d="M 632.872,987.747 649.378,979.494 z" id="boundary" inkscape:connector-curvature="0" />
	<path style="fill:none;stroke:red;stroke-width:1px;stroke-linecap:butt;stroke-linejoin:miter;stroke-opacity:1" d="M 649.378,979.494 665.884,979.494 z" id="boundary" inkscape:connector-curvature="0" />
	<path style="fill:none;stroke:red;stroke-width:1px;stroke-linecap:butt;stroke-linejoin:miter;stroke-opacity:1" d="M 665.884,979.494 680.739,971.241 z" id="boundary" inkscape:connector-curvature="0" />
	<path style="fill:none;stroke:red;stroke-width:1px;stroke-linecap:butt;stroke-linejoin:miter;stroke-opacity:1" d="M 680.739,971.241 695.594,962.988 z" id="boundary" inkscape:connector-curvature="0" />
	<path style="fill:none;stroke:red;stroke-width:1px;stroke-linecap:butt;stroke-linejoin:miter;stroke-opacity:1" d="M 695.594,962.988 712.1,959.687 z" id="boundary" inkscape:connector-curvature="0" />
	<path style="fill:none;stroke:red;stroke-width:1px;stroke-linecap:butt;stroke-linejoin:miter;stroke-opacity:1" d="M 712.1,959.687 728.606,951.434 z" id="boundary" inkscape:connector-curvature="0" />
	<path style="fill:none;stroke:red;stroke-width:1px;stroke-linecap:butt;stroke-linejoin:miter;stroke-opacity:1" d="M 728.606,951.434 745.111,943.181 z" id="boundary" inkscape:connector-curvature="0" />
	<path style="fill:none;stroke:red;stroke-width:1px;stroke-linecap:butt;stroke-linejoin:miter;stroke-opacity:1" d="M 745.111,943.181 761.617,934.928 z" id="boundary" inkscape:connector-curvature="0" />
	<path style="fill:none;stroke:red;stroke-width:1px;stroke-linecap:butt;stroke-linejoin:miter;stroke-opacity:1" d="M 761.617,934.928 773.171,921.724 z" id="boundary" inkscape:connector-curvature="0" />
	<path style="fill:none;stroke:red;stroke-width:1px;stroke-linecap:butt;stroke-linejoin:miter;stroke-opacity:1" d="M 773.171,921.724 789.677,913.471 z" id="boundary" inkscape:connector-curvature="0" />
	<path style="fill:none;stroke:red;stroke-width:1px;stroke-linecap:butt;stroke-linejoin:miter;stroke-opacity:1" d="M 789.677,913.471 806.183,896.965 z" id="boundary" inkscape:connector-curvature="0" />
	<path style="fill:none;stroke:red;stroke-width:1px;stroke-linecap:butt;stroke-linejoin:miter;stroke-opacity:1" d="M 4,273.045 12.2529,248.286 z" id="boundary" inkscape:connector-curvature="0" />
	<path style="fill:none;stroke:red;stroke-width:1px;stroke-linecap:butt;stroke-linejoin:miter;stroke-opacity:1" d="M 12.2529,248.286 20.5058,231.78 z" id="boundary" inkscape:connector-curvature="0" />
	<path style="fill:none;stroke:red;stroke-width:1px;stroke-linecap:butt;stroke-linejoin:miter;stroke-opacity:1" d="M 20.5058,231.78 33.7105,218.576 z" id="boundary" inkscape:connector-curvature="0" />
	<path style="fill:none;stroke:red;stroke-width:1px;stroke-linecap:butt;stroke-linejoin:miter;stroke-opacity:1" d="M 33.7105,218.576 46.9151,205.371 z" id="boundary" inkscape:connector-curvature="0" />
	<path style="fill:none;stroke:red;stroke-width:1px;stroke-linecap:butt;stroke-linejoin:miter;stroke-opacity:1" d="M 46.9151,205.371 60.1198,193.817 z" id="boundary" inkscape:connector-curvature="0" />
	<path style="fill:none;stroke:red;stroke-width:1px;stroke-linecap:butt;stroke-linejoin:miter;stroke-opacity:1" d="M 60.1198,193.817 71.6739,180.612 z" id="boundary" inkscape:connector-curvature="0" />
	<path style="fill:none;stroke:red;stroke-width:1px;stroke-linecap:butt;stroke-linejoin:miter;stroke-opacity:1" d="M 71.6739,180.612 88.1797,172.359 z" id="boundary" inkscape:connector-curvature="0" />
	<path style="fill:none;stroke:red;stroke-width:1px;stroke-linecap:butt;stroke-linejoin:miter;stroke-opacity:1" d="M 88.1797,172.359 101.384,160.805 z" id="boundary" inkscape:connector-curvature="0" />
	<path style="fill:none;stroke:red;stroke-width:1px;stroke-linecap:butt;stroke-linejoin:miter;stroke-opacity:1" d="M 101.384,160.805 116.24,152.552 z" id="boundary" inkscape:connector-curvature="0" />
	<path style="fill:none;stroke:red;stroke-width:1px;stroke-linecap:butt;stroke-linejoin:miter;stroke-opacity:1" d="M 116.24,152.552 129.444,139.348 z" id="boundary" inkscape:connector-curvature="0" />
	<path style="fill:none;stroke:red;stroke-width:1px;stroke-linecap:butt;stroke-linejoin:miter;stroke-opacity:1" d="M 129.444,139.348 142.649,127.794 z" id="boundary" inkscape:connector-curvature="0" />
	<path style="fill:none;stroke:red;stroke-width:1px;stroke-linecap:butt;stroke-linejoin:miter;stroke-opacity:1" d="M 142.649,127.794 154.203,114.589 z" id="boundary" inkscape:connector-curvature="0" />
	<path style="fill:none;stroke:red;stroke-width:1px;stroke-linecap:butt;stroke-linejoin:miter;stroke-opacity:1" d="M 154.203,114.589 167.408,103.035 z" id="boundary" inkscape:connector-curvature="0" />
	<path style="fill:none;stroke:red;stroke-width:1px;stroke-linecap:butt;stroke-linejoin:miter;stroke-opacity:1" d="M 167.408,103.035 182.263,94.782 z" id="boundary" inkscape:connector-curvature="0" />
	<path style="fill:none;stroke:red;stroke-width:1px;stroke-linecap:butt;stroke-linejoin:miter;stroke-opacity:1" d="M 182.263,94.782 195.468,81.5774 z" id="boundary" inkscape:connector-curvature="0" />
	<path style="fill:none;stroke:red;stroke-width:1px;stroke-linecap:butt;stroke-linejoin:miter;stroke-opacity:1" d="M 195.468,81.5774 208.672,70.0233 z" id="boundary" inkscape:connector-curvature="0" />
	<path style="fill:none;stroke:red;stroke-width:1px;stroke-linecap:butt;stroke-linejoin:miter;stroke-opacity:1" d="M 208.672,70.0233 223.527,61.7704 z" id="boundary" inkscape:connector-curvature="0" />
	<path style="fill:none;stroke:red;stroke-width:1px;stroke-linecap:butt;stroke-linejoin:miter;stroke-opacity:1" d="M 223.527,61.7704 236.732,48.5657 z" id="boundary" inkscape:connector-curvature="0" />
	<path style="fill:none;stroke:red;stroke-width:1px;stroke-linecap:butt;stroke-linejoin:miter;stroke-opacity:1" d="M 236.732,48.5657 253.238,40.3128 z" id="boundary" inkscape:connector-curvature="0" />
	<path style="fill:none;stroke:red;stroke-width:1px;stroke-linecap:butt;stroke-linejoin:miter;stroke-opacity:1" d="M 253.238,40.3128 269.744,32.0599 z" id="boundary" inkscape:connector-curvature="0" />
	<path style="fill:none;stroke:red;stroke-width:1px;stroke-linecap:butt;stroke-linejoin:miter;stroke-opacity:1" d="M 269.744,32.0599 286.25,28.7587 z" id="boundary" inkscape:connector-curvature="0" />
	<path style="fill:none;stroke:red;stroke-width:1px;stroke-linecap:butt;stroke-linejoin:miter;stroke-opacity:1" d="M 286.25,28.7587 301.105,20.5058 z" id="boundary" inkscape:connector-curvature="0" />
	<path style="fill:none;stroke:red;stroke-width:1px;stroke-linecap:butt;stroke-linejoin:miter;stroke-opacity:1" d="M 301.105,20.5058 315.96,12.2529 z" id="boundary" inkscape:connector-curvature="0" />
	<path style="fill:none;stroke:red;stroke-width:1px;stroke-linecap:butt;stroke-linejoin:miter;stroke-opacity:1" d="M 315.96,12.2529 330.815,4 z" id="boundary" inkscape:connector-curvature="0" />
	<path style="fill:none;stroke:red;stroke-width:1px;stroke-linecap:butt;stroke-linejoin:miter;stroke-opacity:1" d="M 330.815,4 347.321,4 z" id="boundary" inkscape:connector-curvature="0" />
	<path style="fill:none;stroke:red;stroke-width:1px;stroke-linecap:butt;stroke-linejoin:miter;stroke-opacity:1" d="M 347.321,4 363.827,4 z" id="boundary" inkscape:connector-curvature="0" />
	<path style="fill:none;stroke:red;stroke-width:1px;stroke-linecap:butt;stroke-linejoin:miter;stroke-opacity:1" d="M 363.827,4 380.333,4 z" id="boundary" inkscape:connector-curvature="0" />
	<path style="fill:none;stroke:red;stroke-width:1px;stroke-linecap:butt;stroke-linejoin:miter;stroke-opacity:1" d="M 380.333,4 396.839,4 z" id="boundary" inkscape:connector-curvature="0" />
	<path style="fill:none;stroke:red;stroke-width:1px;stroke-linecap:butt;stroke-linejoin:miter;stroke-opacity:1" d="M 396.839,4 413.344,4 z" id="boundary" inkscape:connector-curvature="0" />
	<path style="fill:none;stroke:red;stroke-width:1px;stroke-linecap:butt;stroke-linejoin:miter;stroke-opacity:1" d="M 413.344,4 429.85,4 z" id="boundary" inkscape:connector-curvature="0" />
	<path style="fill:none;stroke:red;stroke-width:1px;stroke-linecap:butt;stroke-linejoin:miter;stroke-opacity:1" d="M 429.85,4 446.356,4 z" id="boundary" inkscape:connector-curvature="0" />
	<path style="fill:none;stroke:red;stroke-width:1px;stroke-linecap:butt;stroke-linejoin:miter;stroke-opacity:1" d="M 446.356,4 462.862,4 z" id="boundary" inkscape:connector-curvature="0" />
	<path style="fill:none;stroke:red;stroke-width:1px;stroke-linecap:butt;stroke-linejoin:miter;stroke-opacity:1" d="M 462.862,4 477.717,12.2529 z" id="boundary" inkscape:connector-curvature="0" />
	<path style="fill:none;stroke:red;stroke-width:1px;stroke-linecap:butt;stroke-linejoin:miter;stroke-opacity:1" d="M 477.717,12.2529 494.223,12.2529 z" id="boundary" inkscape:connector-curvature="0" />
	<path style="fill:none;stroke:red;stroke-width:1px;stroke-linecap:butt;stroke-linejoin:miter;stroke-opacity:1" d="M 494.223,12.2529 510.729,12.2529 z" id="boundary" inkscape:connector-curvature="0" />
	<path style="fill:none;stroke:red;stroke-width:1px;stroke-linecap:butt;stroke-linejoin:miter;stroke-opacity:1" d="M 510.729,12.2529 525.584,20.5058 z" id="boundary" inkscape:connector-curvature="0" />
	<path style="fill:none;stroke:red;stroke-width:1px;stroke-linecap:butt;stroke-linejoin:miter;stroke-opacity:1" d="M 525.584,20.5058 542.09,25.4576 z" id="boundary" inkscape:connector-curvature="0" />
	<path style="fill:none;stroke:red;stroke-width:1px;stroke-linecap:butt;stroke-linejoin:miter;stroke-opacity:1" d="M 542.09,25.4576 556.945,33.7105 z" id="boundary" inkscape:connector-curvature="0" />
	<path style="fill:none;stroke:red;stroke-width:1px;stroke-linecap:butt;stroke-linejoin:miter;stroke-opacity:1" d="M 556.945,33.7105 570.15,45.2646 z" id="boundary" inkscape:connector-curvature="0" />
	<path style="fill:none;stroke:red;stroke-width:1px;stroke-linecap:butt;stroke-linejoin:miter;stroke-opacity:1" d="M 570.15,45.2646 585.005,53.5175 z" id="boundary" inkscape:connector-curvature="0" />
	<path style="fill:none;stroke:red;stroke-width:1px;stroke-linecap:butt;stroke-linejoin:miter;stroke-opacity:1" d="M 585.005,53.5175 598.21,65.0715 z" id="boundary" inkscape:connector-curvature="0" />
	<path style="fill:none;stroke:red;stroke-width:1px;stroke-linecap:butt;stroke-linejoin:miter;stroke-opacity:1" d="M 598.21,65.0715 608.113,78.2762 z" id="boundary" inkscape:connector-curvature="0" />
	<path style="fill:none;stroke:red;stroke-width:1px;stroke-linecap:butt;stroke-linejoin:miter;stroke-opacity:1" d="M 608.113,78.2762 621.318,88.1797 z" id="boundary" inkscape:connector-curvature="0" />
	<path style="fill:none;stroke:red;stroke-width:1px;stroke-linecap:butt;stroke-linejoin:miter;stroke-opacity:1" d="M 621.318,88.1797 632.872,101.384 z" id="boundary" inkscape:connector-curvature="0" />
	<path style="fill:none;stroke:red;stroke-width:1px;stroke-linecap:butt;stroke-linejoin:miter;stroke-opacity:1" d="M 632.872,101.384 646.077,111.288 z" id="boundary" inkscape:connector-curvature="0" />
	<path style="fill:none;stroke:red;stroke-width:1px;stroke-linecap:butt;stroke-linejoin:miter;stroke-opacity:1" d="M 646.077,111.288 660.932,119.541 z" id="boundary" inkscape:connector-curvature="0" />
	<path style="fill:none;stroke:red;stroke-width:1px;stroke-linecap:butt;stroke-linejoin:miter;stroke-opacity:1" d="M 660.932,119.541 672.486,132.745 z" id="boundary" inkscape:connector-curvature="0" />
	<path style="fill:none;stroke:red;stroke-width:1px;stroke-linecap:butt;stroke-linejoin:miter;stroke-opacity:1" d="M 672.486,132.745 688.992,139.348 z" id="boundary" inkscape:connector-curvature="0" />
	<path style="fill:none;stroke:red;stroke-width:1px;stroke-linecap:butt;stroke-linejoin:miter;stroke-opacity:1" d="M 688.992,139.348 703.847,147.601 z" id="boundary" inkscape:connector-curvature="0" />
	<path style="fill:none;stroke:red;stroke-width:1px;stroke-linecap:butt;stroke-linejoin:miter;stroke-opacity:1" d="M 703.847,147.601 720.353,152.552 z" id="boundary" inkscape:connector-curvature="0" />
	<path style="fill:none;stroke:red;stroke-width:1px;stroke-linecap:butt;stroke-linejoin:miter;stroke-opacity:1" d="M 720.353,152.552 736.859,152.552 z" id="boundary" inkscape:connector-curvature="0" />
	<path style="fill:none;stroke:red;stroke-width:1px;stroke-linecap:butt;stroke-linejoin:miter;stroke-opacity:1" d="M 736.859,152.552 753.364,152.552 z" id="boundary" inkscape:connector-curvature="0" />
	<path style="fill:none;stroke:red;stroke-width:1px;stroke-linecap:butt;stroke-linejoin:miter;stroke-opacity:1" d="M 753.364,152.552 768.22,144.3 z" id="boundary" inkscape:connector-curvature="0" />
	<path style="fill:none;stroke:red;stroke-width:1px;stroke-linecap:butt;stroke-linejoin:miter;stroke-opacity:1" d="M 768.22,144.3 784.725,136.047 z" id="boundary" inkscape:connector-curvature="0" />
	<path style="fill:none;stroke:red;stroke-width:1px;stroke-linecap:butt;stroke-linejoin:miter;stroke-opacity:1" d="M 784.725,136.047 801.231,136.047 z" id="boundary" inkscape:connector-curvature="0" />
	<path style="fill:none;stroke:red;stroke-width:1px;stroke-linecap:butt;stroke-linejoin:miter;stroke-opacity:1" d="M 801.231,136.047 817.737,136.047 z" id="boundary" inkscape:connector-curvature="0" />
	<path style="fill:none;stroke:red;stroke-width:1px;stroke-linecap:butt;stroke-linejoin:miter;stroke-opacity:1" d="M 817.737,136.047 834.243,136.047 z" id="boundary" inkscape:connector-curvature="0" />
	<path style="fill:none;stroke:red;stroke-width:1px;stroke-linecap:butt;stroke-linejoin:miter;stroke-opacity:1" d="M 834.243,136.047 845.797,149.251 z" id="boundary" inkscape:connector-curvature="0" />
	<path style="fill:none;stroke:red;stroke-width:1px;stroke-linecap:butt;stroke-linejoin:miter;stroke-opacity:1" d="M 845.797,149.251 847.448,165.757 z" id="boundary" inkscape:connector-curvature="0" />
	<path style="fill:none;stroke:red;stroke-width:1px;stroke-linecap:butt;stroke-linejoin:miter;stroke-opacity:1" d="M 847.448,165.757 847.448,182.263 z" id="boundary" inkscape:connector-curvature="0" />
	<path style="fill:none;stroke:red;stroke-width:1px;stroke-linecap:butt;stroke-linejoin:miter;stroke-opacity:1" d="M 806.183,896.965 809.484,870.556 z" id="boundary" inkscape:connector-curvature="0" />
	<path style="fill:none;stroke:red;stroke-width:1px;stroke-linecap:butt;stroke-linejoin:miter;stroke-opacity:1" d="M 809.484,870.556 794.629,862.303 z" id="boundary" inkscape:connector-curvature="0" />
	<path style="fill:none;stroke:red;stroke-width:1px;stroke-linecap:butt;stroke-linejoin:miter;stroke-opacity:1" d="M 794.629,862.303 779.774,854.05 z" id="boundary" inkscape:connector-curvature="0" />
	<path style="fill:none;stroke:red;stroke-width:1px;stroke-linecap:butt;stroke-linejoin:miter;stroke-opacity:1" d="M 779.774,854.05 764.918,845.797 z" id="boundary" inkscape:connector-curvature="0" />
	<path style="fill:none;stroke:red;stroke-width:1px;stroke-linecap:butt;stroke-linejoin:miter;stroke-opacity:1" d="M 764.918,845.797 748.413,845.797 z" id="boundary" inkscape:connector-curvature="0" />
	<path style="fill:none;stroke:red;stroke-width:1px;stroke-linecap:butt;stroke-linejoin:miter;stroke-opacity:1" d="M 748.413,845.797 733.557,837.544 z" id="boundary" inkscape:connector-curvature="0" />
	<path style="fill:none;stroke:red;stroke-width:1px;stroke-linecap:butt;stroke-linejoin:miter;stroke-opacity:1" d="M 733.557,837.544 718.702,829.291 z" id="boundary" inkscape:connector-curvature="0" />
	<path style="fill:none;stroke:red;stroke-width:1px;stroke-linecap:butt;stroke-linejoin:miter;stroke-opacity:1" d="M 718.702,829.291 702.196,822.689 z" id="boundary" inkscape:connector-curvature="0" />
	<path style="fill:none;stroke:red;stroke-width:1px;stroke-linecap:butt;stroke-linejoin:miter;stroke-opacity:1" d="M 702.196,822.689 687.341,814.436 z" id="boundary" inkscape:connector-curvature="0" />
	<path style="fill:none;stroke:red;stroke-width:1px;stroke-linecap:butt;stroke-linejoin:miter;stroke-opacity:1" d="M 687.341,814.436 670.835,812.785 z" id="boundary" inkscape:connector-curvature="0" />
	<path style="fill:none;stroke:red;stroke-width:1px;stroke-linecap:butt;stroke-linejoin:miter;stroke-opacity:1" d="M 670.835,812.785 655.98,804.532 z" id="boundary" inkscape:connector-curvature="0" />
	<path style="fill:none;stroke:red;stroke-width:1px;stroke-linecap:butt;stroke-linejoin:miter;stroke-opacity:1" d="M 655.98,804.532 639.474,804.532 z" id="boundary" inkscape:connector-curvature="0" />
	<path style="fill:none;stroke:red;stroke-width:1px;stroke-linecap:butt;stroke-linejoin:miter;stroke-opacity:1" d="M 639.474,804.532 622.968,799.581 z" id="boundary" inkscape:connector-curvature="0" />
	<path style="fill:none;stroke:red;stroke-width:1px;stroke-linecap:butt;stroke-linejoin:miter;stroke-opacity:1" d="M 622.968,799.581 606.463,796.28 z" id="boundary" inkscape:connector-curvature="0" />
	<path style="fill:none;stroke:red;stroke-width:1px;stroke-linecap:butt;stroke-linejoin:miter;stroke-opacity:1" d="M 606.463,796.28 591.607,788.027 z" id="boundary" inkscape:connector-curvature="0" />
	<path style="fill:none;stroke:red;stroke-width:1px;stroke-linecap:butt;stroke-linejoin:miter;stroke-opacity:1" d="M 591.607,788.027 575.101,788.027 z" id="boundary" inkscape:connector-curvature="0" />
	<path style="fill:none;stroke:red;stroke-width:1px;stroke-linecap:butt;stroke-linejoin:miter;stroke-opacity:1" d="M 575.101,788.027 558.596,788.027 z" id="boundary" inkscape:connector-curvature="0" />
	<path style="fill:none;stroke:red;stroke-width:1px;stroke-linecap:butt;stroke-linejoin:miter;stroke-opacity:1" d="M 558.596,788.027 550.343,773.171 z" id="boundary" inkscape:connector-curvature="0" />
	<path style="fill:none;stroke:red;stroke-width:1px;stroke-linecap:butt;stroke-linejoin:miter;stroke-opacity:1" d="M 550.343,773.171 558.596,756.666 z" id="boundary" inkscape:connector-curvature="0" />
	<path style="fill:none;stroke:red;stroke-width:1px;stroke-linecap:butt;stroke-linejoin:miter;stroke-opacity:1" d="M 558.596,756.666 566.849,740.16 z" id="boundary" inkscape:connector-curvature="0" />
	<path style="fill:none;stroke:red;stroke-width:1px;stroke-linecap:butt;stroke-linejoin:miter;stroke-opacity:1" d="M 566.849,740.16 575.101,723.654 z" id="boundary" inkscape:connector-curvature="0" />
	<path style="fill:none;stroke:red;stroke-width:1px;stroke-linecap:butt;stroke-linejoin:miter;stroke-opacity:1" d="M 575.101,723.654 588.306,712.1 z" id="boundary" inkscape:connector-curvature="0" />
	<path style="fill:none;stroke:red;stroke-width:1px;stroke-linecap:butt;stroke-linejoin:miter;stroke-opacity:1" d="M 588.306,712.1 599.86,698.895 z" id="boundary" inkscape:connector-curvature="0" />
	<path style="fill:none;stroke:red;stroke-width:1px;stroke-linecap:butt;stroke-linejoin:miter;stroke-opacity:1" d="M 599.86,698.895 616.366,690.642 z" id="boundary" inkscape:connector-curvature="0" />
	<path style="fill:none;stroke:red;stroke-width:1px;stroke-linecap:butt;stroke-linejoin:miter;stroke-opacity:1" d="M 616.366,690.642 632.872,690.642 z" id="boundary" inkscape:connector-curvature="0" />
	<path style="fill:none;stroke:red;stroke-width:1px;stroke-linecap:butt;stroke-linejoin:miter;stroke-opacity:1" d="M 632.872,690.642 649.378,690.642 z" id="boundary" inkscape:connector-curvature="0" />
	<path style="fill:none;stroke:red;stroke-width:1px;stroke-linecap:butt;stroke-linejoin:miter;stroke-opacity:1" d="M 649.378,690.642 665.884,690.642 z" id="boundary" inkscape:connector-curvature="0" />
	<path style="fill:none;stroke:red;stroke-width:1px;stroke-linecap:butt;stroke-linejoin:miter;stroke-opacity:1" d="M 665.884,690.642 682.389,690.642 z" id="boundary" inkscape:connector-curvature="0" />
	<path style="fill:none;stroke:red;stroke-width:1px;stroke-linecap:butt;stroke-linejoin:miter;stroke-opacity:1" d="M 682.389,690.642 697.245,698.895 z" id="boundary" inkscape:connector-curvature="0" />
	<path style="fill:none;stroke:red;stroke-width:1px;stroke-linecap:butt;stroke-linejoin:miter;stroke-opacity:1" d="M 697.245,698.895 713.75,698.895 z" id="boundary" inkscape:connector-curvature="0" />
	<path style="fill:none;stroke:red;stroke-width:1px;stroke-linecap:butt;stroke-linejoin:miter;stroke-opacity:1" d="M 713.75,698.895 728.606,707.148 z" id="boundary" inkscape:connector-curvature="0" />
	<path style="fill:none;stroke:red;stroke-width:1px;stroke-linecap:butt;stroke-linejoin:miter;stroke-opacity:1" d="M 728.606,707.148 745.111,707.148 z" id="boundary" inkscape:connector-curvature="0" />
	<path style="fill:none;stroke:red;stroke-width:1px;stroke-linecap:butt;stroke-linejoin:miter;stroke-opacity:1" d="M 745.111,707.148 759.967,715.401 z" id="boundary" inkscape:connector-curvature="0" />
	<path style="fill:none;stroke:red;stroke-width:1px;stroke-linecap:butt;stroke-linejoin:miter;stroke-opacity:1" d="M 759.967,715.401 776.473,722.003 z" id="boundary" inkscape:connector-curvature="0" />
	<path style="fill:none;stroke:red;stroke-width:1px;stroke-linecap:butt;stroke-linejoin:miter;stroke-opacity:1" d="M 776.473,722.003 791.328,730.256 z" id="boundary" inkscape:connector-curvature="0" />
	<path style="fill:none;stroke:red;stroke-width:1px;stroke-linecap:butt;stroke-linejoin:miter;stroke-opacity:1" d="M 791.328,730.256 807.834,731.907 z" id="boundary" inkscape:connector-curvature="0" />
	<path style="fill:none;stroke:red;stroke-width:1px;stroke-linecap:butt;stroke-linejoin:miter;stroke-opacity:1" d="M 807.834,731.907 824.339,731.907 z" id="boundary" inkscape:connector-curvature="0" />
	<path style="fill:none;stroke:red;stroke-width:1px;stroke-linecap:butt;stroke-linejoin:miter;stroke-opacity:1" d="M 824.339,731.907 839.195,723.654 z" id="boundary" inkscape:connector-curvature="0" />
	<path style="fill:none;stroke:red;stroke-width:1px;stroke-linecap:butt;stroke-linejoin:miter;stroke-opacity:1" d="M 839.195,723.654 852.399,712.1 z" id="boundary" inkscape:connector-curvature="0" />
	<path style="fill:none;stroke:red;stroke-width:1px;stroke-linecap:butt;stroke-linejoin:miter;stroke-opacity:1" d="M 852.399,712.1 863.953,698.895 z" id="boundary" inkscape:connector-curvature="0" />
	<path style="fill:none;stroke:red;stroke-width:1px;stroke-linecap:butt;stroke-linejoin:miter;stroke-opacity:1" d="M 863.953,698.895 863.953,682.389 z" id="boundary" inkscape:connector-curvature="0" />
	<path style="fill:none;stroke:red;stroke-width:1px;stroke-linecap:butt;stroke-linejoin:miter;stroke-opacity:1" d="M 863.953,682.389 872.206,657.631 z" id="boundary" inkscape:connector-curvature="0" />
	<path style="fill:none;stroke:red;stroke-width:1px;stroke-linecap:butt;stroke-linejoin:miter;stroke-opacity:1" d="M 872.206,657.631 872.206,641.125 z" id="boundary" inkscape:connector-curvature="0" />
	<path style="fill:none;stroke:red;stroke-width:1px;stroke-linecap:butt;stroke-linejoin:miter;stroke-opacity:1" d="M 872.206,641.125 863.953,626.27 z" id="boundary" inkscape:connector-curvature="0" />
	<path style="fill:none;stroke:red;stroke-width:1px;stroke-linecap:butt;stroke-linejoin:miter;stroke-opacity:1" d="M 863.953,626.27 863.953,609.764 z" id="boundary" inkscape:connector-curvature="0" />
	<path style="fill:none;stroke:red;stroke-width:1px;stroke-linecap:butt;stroke-linejoin:miter;stroke-opacity:1" d="M 863.953,609.764 855.7,594.908 z" id="boundary" inkscape:connector-curvature="0" />
	<path style="fill:none;stroke:red;stroke-width:1px;stroke-linecap:butt;stroke-linejoin:miter;stroke-opacity:1" d="M 855.7,594.908 847.448,580.053 z" id="boundary" inkscape:connector-curvature="0" />
	<path style="fill:none;stroke:red;stroke-width:1px;stroke-linecap:butt;stroke-linejoin:miter;stroke-opacity:1" d="M 847.448,580.053 839.195,565.198 z" id="boundary" inkscape:connector-curvature="0" />
	<path style="fill:none;stroke:red;stroke-width:1px;stroke-linecap:butt;stroke-linejoin:miter;stroke-opacity:1" d="M 839.195,565.198 827.641,551.993 z" id="boundary" inkscape:connector-curvature="0" />
	<path style="fill:none;stroke:red;stroke-width:1px;stroke-linecap:butt;stroke-linejoin:miter;stroke-opacity:1" d="M 827.641,551.993 812.785,543.74 z" id="boundary" inkscape:connector-curvature="0" />
	<path style="fill:none;stroke:red;stroke-width:1px;stroke-linecap:butt;stroke-linejoin:miter;stroke-opacity:1" d="M 812.785,543.74 799.581,532.186 z" id="boundary" inkscape:connector-curvature="0" />
	<path style="fill:none;stroke:red;stroke-width:1px;stroke-linecap:butt;stroke-linejoin:miter;stroke-opacity:1" d="M 799.581,532.186 789.677,518.982 z" id="boundary" inkscape:connector-curvature="0" />
	<path style="fill:none;stroke:red;stroke-width:1px;stroke-linecap:butt;stroke-linejoin:miter;stroke-opacity:1" d="M 789.677,518.982 781.424,504.126 z" id="boundary" inkscape:connector-curvature="0" />
	<path style="fill:none;stroke:red;stroke-width:1px;stroke-linecap:butt;stroke-linejoin:miter;stroke-opacity:1" d="M 781.424,504.126 773.171,489.271 z" id="boundary" inkscape:connector-curvature="0" />
	<path style="fill:none;stroke:red;stroke-width:1px;stroke-linecap:butt;stroke-linejoin:miter;stroke-opacity:1" d="M 773.171,489.271 764.918,474.416 z" id="boundary" inkscape:connector-curvature="0" />
	<path style="fill:none;stroke:red;stroke-width:1px;stroke-linecap:butt;stroke-linejoin:miter;stroke-opacity:1" d="M 764.918,474.416 764.918,457.91 z" id="boundary" inkscape:connector-curvature="0" />
	<path style="fill:none;stroke:red;stroke-width:1px;stroke-linecap:butt;stroke-linejoin:miter;stroke-opacity:1" d="M 764.918,457.91 756.666,443.055 z" id="boundary" inkscape:connector-curvature="0" />
	<path style="fill:none;stroke:red;stroke-width:1px;stroke-linecap:butt;stroke-linejoin:miter;stroke-opacity:1" d="M 756.666,443.055 773.171,434.802 z" id="boundary" inkscape:connector-curvature="0" />
	<path style="fill:none;stroke:red;stroke-width:1px;stroke-linecap:butt;stroke-linejoin:miter;stroke-opacity:1" d="M 773.171,434.802 789.677,434.802 z" id="boundary" inkscape:connector-curvature="0" />
	<path style="fill:none;stroke:red;stroke-width:1px;stroke-linecap:butt;stroke-linejoin:miter;stroke-opacity:1" d="M 789.677,434.802 802.882,423.248 z" id="boundary" inkscape:connector-curvature="0" />
	<path style="fill:none;stroke:red;stroke-width:1px;stroke-linecap:butt;stroke-linejoin:miter;stroke-opacity:1" d="M 802.882,423.248 814.436,410.043 z" id="boundary" inkscape:connector-curvature="0" />
	<path style="fill:none;stroke:red;stroke-width:1px;stroke-linecap:butt;stroke-linejoin:miter;stroke-opacity:1" d="M 814.436,410.043 830.942,401.79 z" id="boundary" inkscape:connector-curvature="0" />
	<path style="fill:none;stroke:red;stroke-width:1px;stroke-linecap:butt;stroke-linejoin:miter;stroke-opacity:1" d="M 830.942,401.79 844.146,390.236 z" id="boundary" inkscape:connector-curvature="0" />
	<path style="fill:none;stroke:red;stroke-width:1px;stroke-linecap:butt;stroke-linejoin:miter;stroke-opacity:1" d="M 844.146,390.236 855.7,368.779 z" id="boundary" inkscape:connector-curvature="0" />
	<path style="fill:none;stroke:red;stroke-width:1px;stroke-linecap:butt;stroke-linejoin:miter;stroke-opacity:1" d="M 855.7,368.779 868.905,357.225 z" id="boundary" inkscape:connector-curvature="0" />
	<path style="fill:none;stroke:red;stroke-width:1px;stroke-linecap:butt;stroke-linejoin:miter;stroke-opacity:1" d="M 868.905,357.225 872.206,334.116 z" id="boundary" inkscape:connector-curvature="0" />
	<path style="fill:none;stroke:red;stroke-width:1px;stroke-linecap:butt;stroke-linejoin:miter;stroke-opacity:1" d="M 872.206,334.116 863.953,319.261 z" id="boundary" inkscape:connector-curvature="0" />
	<path style="fill:none;stroke:red;stroke-width:1px;stroke-linecap:butt;stroke-linejoin:miter;stroke-opacity:1" d="M 863.953,319.261 859.002,302.755 z" id="boundary" inkscape:connector-curvature="0" />
	<path style="fill:none;stroke:red;stroke-width:1px;stroke-linecap:butt;stroke-linejoin:miter;stroke-opacity:1" d="M 859.002,302.755 847.448,289.551 z" id="boundary" inkscape:connector-curvature="0" />
	<path style="fill:none;stroke:red;stroke-width:1px;stroke-linecap:butt;stroke-linejoin:miter;stroke-opacity:1" d="M 847.448,289.551 830.942,282.948 z" id="boundary" inkscape:connector-curvature="0" />
	<path style="fill:none;stroke:red;stroke-width:1px;stroke-linecap:butt;stroke-linejoin:miter;stroke-opacity:1" d="M 830.942,282.948 822.689,268.093 z" id="boundary" inkscape:connector-curvature="0" />
	<path style="fill:none;stroke:red;stroke-width:1px;stroke-linecap:butt;stroke-linejoin:miter;stroke-opacity:1" d="M 822.689,268.093 814.436,253.238 z" id="boundary" inkscape:connector-curvature="0" />
	<path style="fill:none;stroke:red;stroke-width:1px;stroke-linecap:butt;stroke-linejoin:miter;stroke-opacity:1" d="M 814.436,253.238 822.689,236.732 z" id="boundary" inkscape:connector-curvature="0" />
	<path style="fill:none;stroke:red;stroke-width:1px;stroke-linecap:butt;stroke-linejoin:miter;stroke-opacity:1" d="M 822.689,236.732 830.942,220.226 z" id="boundary" inkscape:connector-curvature="0" />
	<path style="fill:none;stroke:red;stroke-width:1px;stroke-linecap:butt;stroke-linejoin:miter;stroke-opacity:1" d="M 830.942,220.226 844.146,208.672 z" id="boundary" inkscape:connector-curvature="0" />
	<path style="fill:none;stroke:red;stroke-width:1px;stroke-linecap:butt;stroke-linejoin:miter;stroke-opacity:1" d="M 847.448,182.263 844.146,208.672 z" id="boundary" inkscape:connector-curvature="0" />
	<circle cx="4" cy="273.045" r="4" fill="#0" id="circle0"/>
	<circle cx="4" cy="289.551" r="4" fill="#0" id="circle1"/>
	<circle cx="4" cy="306.057" r="4" fill="#0" id="circle2"/>
	<circle cx="4" cy="322.562" r="4" fill="#0" id="circle3"/>
	<circle cx="4" cy="339.068" r="4" fill="#0" id="circle4"/>
	<circle cx="4" cy="355.574" r="4" fill="#0" id="circle5"/>
	<circle cx="12.2529" cy="248.286" r="4" fill="#0" id="circle6"/>
	<circle cx="12.2529" cy="370.429" r="4" fill="#0" id="circle7"/>
	<circle cx="20.5058" cy="231.78" r="4" fill="#0" id="circle8"/>
	<circle cx="23.807" cy="383.634" r="4" fill="#0" id="circle9"/>
	<circle cx="33.7105" cy="218.576" r="4" fill="#0" id="circle10"/>
	<circle cx="37.0116" cy="393.537" r="4" fill="#0" id="circle11"/>
	<circle cx="46.9151" cy="205.371" r="4" fill="#0" id="circle12"/>
	<circle cx="46.9151" cy="406.742" r="4" fill="#0" id="circle13"/>
	<circle cx="60.1198" cy="193.817" r="4" fill="#0" id="circle14"/>
	<circle cx="60.1198" cy="418.296" r="4" fill="#0" id="circle15"/>
	<circle cx="71.6739" cy="180.612" r="4" fill="#0" id="circle16"/>
	<circle cx="76.6256" cy="418.296" r="4" fill="#0" id="circle17"/>
	<circle cx="88.1797" cy="172.359" r="4" fill="#0" id="circle18"/>
	<circle cx="91.4809" cy="426.549" r="4" fill="#0" id="circle19"/>
	<circle cx="101.384" cy="160.805" r="4" fill="#0" id="circle20"/>
	<circle cx="103.035" cy="710.449" r="4" fill="#0" id="circle21"/>
	<circle cx="106.336" cy="434.802" r="4" fill="#0" id="circle22"/>
	<circle cx="111.288" cy="693.943" r="4" fill="#0" id="circle23"/>
	<circle cx="116.24" cy="152.552" r="4" fill="#0" id="circle24"/>
	<circle cx="116.24" cy="722.003" r="4" fill="#0" id="circle25"/>
	<circle cx="122.842" cy="434.802" r="4" fill="#0" id="circle26"/>
	<circle cx="127.794" cy="688.992" r="4" fill="#0" id="circle27"/>
	<circle cx="129.444" cy="139.348" r="4" fill="#0" id="circle28"/>
	<circle cx="132.745" cy="723.654" r="4" fill="#0" id="circle29"/>
	<circle cx="139.348" cy="434.802" r="4" fill="#0" id="circle30"/>
	<circle cx="142.649" cy="127.794" r="4" fill="#0" id="circle31"/>
	<circle cx="144.3" cy="688.992" r="4" fill="#0" id="circle32"/>
	<circle cx="149.251" cy="723.654" r="4" fill="#0" id="circle33"/>
	<circle cx="154.203" cy="114.589" r="4" fill="#0" id="circle34"/>
	<circle cx="155.854" cy="434.802" r="4" fill="#0" id="circle35"/>
	<circle cx="160.805" cy="688.992" r="4" fill="#0" id="circle36"/>
	<circle cx="164.106" cy="731.907" r="4" fill="#0" id="circle37"/>
	<circle cx="167.408" cy="103.035" r="4" fill="#0" id="circle38"/>
	<circle cx="170.709" cy="426.549" r="4" fill="#0" id="circle39"/>
	<circle cx="177.311" cy="688.992" r="4" fill="#0" id="circle40"/>
	<circle cx="177.311" cy="741.81" r="4" fill="#0" id="circle41"/>
	<circle cx="180.612" cy="439.754" r="4" fill="#0" id="circle42"/>
	<circle cx="182.263" cy="94.782" r="4" fill="#0" id="circle43"/>
	<circle cx="185.564" cy="756.666" r="4" fill="#0" id="circle44"/>
	<circle cx="193.817" cy="451.308" r="4" fill="#0" id="circle45"/>
	<circle cx="193.817" cy="685.691" r="4" fill="#0" id="circle46"/>
	<circle cx="193.817" cy="771.521" r="4" fill="#0" id="circle47"/>
	<circle cx="195.468" cy="81.5774" r="4" fill="#0" id="circle48"/>
	<circle cx="197.118" cy="788.027" r="4" fill="#0" id="circle49"/>
	<circle cx="198.769" cy="467.814" r="4" fill="#0" id="circle50"/>
	<circle cx="202.07" cy="484.319" r="4" fill="#0" id="circle51"/>
	<circle cx="205.371" cy="802.882" r="4" fill="#0" id="circle52"/>
	<circle cx="208.672" cy="70.0233" r="4" fill="#0" id="circle53"/>
	<circle cx="210.323" cy="499.175" r="4" fill="#0" id="circle54"/>
	<circle cx="210.323" cy="680.739" r="4" fill="#0" id="circle55"/>
	<circle cx="211.973" cy="819.388" r="4" fill="#0" id="circle56"/>
	<circle cx="220.226" cy="512.379" r="4" fill="#0" id="circle57"/>
	<circle cx="220.226" cy="834.243" r="4" fill="#0" id="circle58"/>
	<circle cx="223.527" cy="61.7704" r="4" fill="#0" id="circle59"/>
	<circle cx="226.829" cy="680.739" r="4" fill="#0" id="circle60"/>
	<circle cx="231.78" cy="525.584" r="4" fill="#0" id="circle61"/>
	<circle cx="231.78" cy="847.448" r="4" fill="#0" id="circle62"/>
	<circle cx="236.732" cy="48.5657" r="4" fill="#0" id="circle63"/>
	<circle cx="240.033" cy="540.439" r="4" fill="#0" id="circle64"/>
	<circle cx="240.033" cy="862.303" r="4" fill="#0" id="circle65"/>
	<circle cx="243.334" cy="680.739" r="4" fill="#0" id="circle66"/>
	<circle cx="246.636" cy="878.809" r="4" fill="#0" id="circle67"/>
	<circle cx="251.587" cy="553.644" r="4" fill="#0" id="circle68"/>
	<circle cx="253.238" cy="40.3128" r="4" fill="#0" id="circle69"/>
	<circle cx="254.889" cy="893.664" r="4" fill="#0" id="circle70"/>
	<circle cx="259.84" cy="568.499" r="4" fill="#0" id="circle71"/>
	<circle cx="259.84" cy="677.438" r="4" fill="#0" id="circle72"/>
	<circle cx="268.093" cy="905.218" r="4" fill="#0" id="circle73"/>
	<circle cx="269.744" cy="32.0599" r="4" fill="#0" id="circle74"/>
	<circle cx="271.394" cy="581.704" r="4" fill="#0" id="circle75"/>
	<circle cx="276.346" cy="669.185" r="4" fill="#0" id="circle76"/>
	<circle cx="282.948" cy="913.471" r="4" fill="#0" id="circle77"/>
	<circle cx="284.599" cy="591.607" r="4" fill="#0" id="circle78"/>
	<circle cx="284.599" cy="608.113" r="4" fill="#0" id="circle79"/>
	<circle cx="286.25" cy="28.7587" r="4" fill="#0" id="circle80"/>
	<circle cx="292.852" cy="622.968" r="4" fill="#0" id="circle81"/>
	<circle cx="292.852" cy="639.474" r="4" fill="#0" id="circle82"/>
	<circle cx="292.852" cy="655.98" r="4" fill="#0" id="circle83"/>
	<circle cx="297.804" cy="921.724" r="4" fill="#0" id="circle84"/>
	<circle cx="301.105" cy="20.5058" r="4" fill="#0" id="circle85"/>
	<circle cx="314.309" cy="928.326" r="4" fill="#0" id="circle86"/>
	<circle cx="315.96" cy="12.2529" r="4" fill="#0" id="circle87"/>
	<circle cx="330.815" cy="4" r="4" fill="#0" id="circle88"/>
	<circle cx="330.815" cy="929.977" r="4" fill="#0" id="circle89"/>
	<circle cx="347.321" cy="4" r="4" fill="#0" id="circle90"/>
	<circle cx="347.321" cy="929.977" r="4" fill="#0" id="circle91"/>
	<circle cx="362.176" cy="938.23" r="4" fill="#0" id="circle92"/>
	<circle cx="363.827" cy="4" r="4" fill="#0" id="circle93"/>
	<circle cx="378.682" cy="943.181" r="4" fill="#0" id="circle94"/>
	<circle cx="380.333" cy="4" r="4" fill="#0" id="circle95"/>
	<circle cx="393.537" cy="951.434" r="4" fill="#0" id="circle96"/>
	<circle cx="396.839" cy="4" r="4" fill="#0" id="circle97"/>
	<circle cx="410.043" cy="958.037" r="4" fill="#0" id="circle98"/>
	<circle cx="413.344" cy="4" r="4" fill="#0" id="circle99"/>
	<circle cx="426.549" cy="962.988" r="4" fill="#0" id="circle100"/>
	<circle cx="429.85" cy="4" r="4" fill="#0" id="circle101"/>
	<circle cx="441.404" cy="971.241" r="4" fill="#0" id="circle102"/>
	<circle cx="446.356" cy="4" r="4" fill="#0" id="circle103"/>
	<circle cx="456.26" cy="979.494" r="4" fill="#0" id="circle104"/>
	<circle cx="462.862" cy="4" r="4" fill="#0" id="circle105"/>
	<circle cx="472.765" cy="979.494" r="4" fill="#0" id="circle106"/>
	<circle cx="477.717" cy="12.2529" r="4" fill="#0" id="circle107"/>
	<circle cx="487.621" cy="987.747" r="4" fill="#0" id="circle108"/>
	<circle cx="494.223" cy="12.2529" r="4" fill="#0" id="circle109"/>
	<circle cx="502.476" cy="996" r="4" fill="#0" id="circle110"/>
	<circle cx="510.729" cy="12.2529" r="4" fill="#0" id="circle111"/>
	<circle cx="518.982" cy="996" r="4" fill="#0" id="circle112"/>
	<circle cx="525.584" cy="20.5058" r="4" fill="#0" id="circle113"/>
	<circle cx="535.488" cy="996" r="4" fill="#0" id="circle114"/>
	<circle cx="542.09" cy="25.4576" r="4" fill="#0" id="circle115"/>
	<circle cx="550.343" cy="773.171" r="4" fill="#0" id="circle116"/>
	<circle cx="551.993" cy="996" r="4" fill="#0" id="circle117"/>
	<circle cx="556.945" cy="33.7105" r="4" fill="#0" id="circle118"/>
	<circle cx="558.596" cy="756.666" r="4" fill="#0" id="circle119"/>
	<circle cx="558.596" cy="788.027" r="4" fill="#0" id="circle120"/>
	<circle cx="566.849" cy="740.16" r="4" fill="#0" id="circle121"/>
	<circle cx="568.499" cy="996" r="4" fill="#0" id="circle122"/>
	<circle cx="570.15" cy="45.2646" r="4" fill="#0" id="circle123"/>
	<circle cx="575.101" cy="723.654" r="4" fill="#0" id="circle124"/>
	<circle cx="575.101" cy="788.027" r="4" fill="#0" id="circle125"/>
	<circle cx="585.005" cy="53.5175" r="4" fill="#0" id="circle126"/>
	<circle cx="585.005" cy="996" r="4" fill="#0" id="circle127"/>
	<circle cx="588.306" cy="712.1" r="4" fill="#0" id="circle128"/>
	<circle cx="591.607" cy="788.027" r="4" fill="#0" id="circle129"/>
	<circle cx="598.21" cy="65.0715" r="4" fill="#0" id="circle130"/>
	<circle cx="599.86" cy="698.895" r="4" fill="#0" id="circle131"/>
	<circle cx="601.511" cy="996" r="4" fill="#0" id="circle132"/>
	<circle cx="606.463" cy="796.28" r="4" fill="#0" id="circle133"/>
	<circle cx="608.113" cy="78.2762" r="4" fill="#0" id="circle134"/>
	<circle cx="616.366" cy="690.642" r="4" fill="#0" id="circle135"/>
	<circle cx="618.017" cy="996" r="4" fill="#0" id="circle136"/>
	<circle cx="621.318" cy="88.1797" r="4" fill="#0" id="circle137"/>
	<circle cx="622.968" cy="799.581" r="4" fill="#0" id="circle138"/>
	<circle cx="632.872" cy="101.384" r="4" fill="#0" id="circle139"/>
	<circle cx="632.872" cy="690.642" r="4" fill="#0" id="circle140"/>
	<circle cx="632.872" cy="987.747" r="4" fill="#0" id="circle141"/>
	<circle cx="639.474" cy="804.532" r="4" fill="#0" id="circle142"/>
	<circle cx="646.077" cy="111.288" r="4" fill="#0" id="circle143"/>
	<circle cx="649.378" cy="690.642" r="4" fill="#0" id="circle144"/>
	<circle cx="649.378" cy="979.494" r="4" fill="#0" id="circle145"/>
	<circle cx="655.98" cy="804.532" r="4" fill="#0" id="circle146"/>
	<circle cx="660.932" cy="119.541" r="4" fill="#0" id="circle147"/>
	<circle cx="665.884" cy="690.642" r="4" fill="#0" id="circle148"/>
	<circle cx="665.884" cy="979.494" r="4" fill="#0" id="circle149"/>
	<circle cx="670.835" cy="812.785" r="4" fill="#0" id="circle150"/>
	<circle cx="672.486" cy="132.745" r="4" fill="#0" id="circle151"/>
	<circle cx="680.739" cy="971.241" r="4" fill="#0" id="circle152"/>
	<circle cx="682.389" cy="690.642" r="4" fill="#0" id="circle153"/>
	<circle cx="687.341" cy="814.436" r="4" fill="#0" id="circle154"/>
	<circle cx="688.992" cy="139.348" r="4" fill="#0" id="circle155"/>
	<circle cx="695.594" cy="962.988" r="4" fill="#0" id="circle156"/>
	<circle cx="697.245" cy="698.895" r="4" fill="#0" id="circle157"/>
	<circle cx="702.196" cy="822.689" r="4" fill="#0" id="circle158"/>
	<circle cx="703.847" cy="147.601" r="4" fill="#0" id="circle159"/>
	<circle cx="712.1" cy="959.687" r="4" fill="#0" id="circle160"/>
	<circle cx="713.75" cy="698.895" r="4" fill="#0" id="circle161"/>
	<circle cx="718.702" cy="829.291" r="4" fill="#0" id="circle162"/>
	<circle cx="720.353" cy="152.552" r="4" fill="#0" id="circle163"/>
	<circle cx="728.606" cy="707.148" r="4" fill="#0" id="circle164"/>
	<circle cx="728.606" cy="951.434" r="4" fill="#0" id="circle165"/>
	<circle cx="733.557" cy="837.544" r="4" fill="#0" id="circle166"/>
	<circle cx="736.859" cy="152.552" r="4" fill="#0" id="circle167"/>
	<circle cx="745.111" cy="707.148" r="4" fill="#0" id="circle168"/>
	<circle cx="745.111" cy="943.181" r="4" fill="#0" id="circle169"/>
	<circle cx="748.413" cy="845.797" r="4" fill="#0" id="circle170"/>
	<circle cx="753.364" cy="152.552" r="4" fill="#0" id="circle171"/>
	<circle cx="756.666" cy="443.055" r="4" fill="#0" id="circle172"/>
	<circle cx="759.967" cy="715.401" r="4" fill="#0" id="circle173"/>
	<circle cx="761.617" cy="934.928" r="4" fill="#0" id="circle174"/>
	<circle cx="764.918" cy="457.91" r="4" fill="#0" id="circle175"/>
	<circle cx="764.918" cy="474.416" r="4" fill="#0" id="circle176"/>
	<circle cx="764.918" cy="845.797" r="4" fill="#0" id="circle177"/>
	<circle cx="768.22" cy="144.3" r="4" fill="#0" id="circle178"/>
	<circle cx="773.171" cy="434.802" r="4" fill="#0" id="circle179"/>
	<circle cx="773.171" cy="489.271" r="4" fill="#0" id="circle180"/>
	<circle cx="773.171" cy="921.724" r="4" fill="#0" id="circle181"/>
	<circle cx="776.473" cy="722.003" r="4" fill="#0" id="circle182"/>
	<circle cx="779.774" cy="854.05" r="4" fill="#0" id="circle183"/>
	<circle cx="781.424" cy="504.126" r="4" fill="#0" id="circle184"/>
	<circle cx="784.725" cy="136.047" r="4" fill="#0" id="circle185"/>
	<circle cx="789.677" cy="434.802" r="4" fill="#0" id="circle186"/>
	<circle cx="789.677" cy="518.982" r="4" fill="#0" id="circle187"/>
	<circle cx="789.677" cy="913.471" r="4" fill="#0" id="circle188"/>
	<circle cx="791.328" cy="730.256" r="4" fill="#0" id="circle189"/>
	<circle cx="794.629" cy="862.303" r="4" fill="#0" id="circle190"/>
	<circle cx="799.581" cy="532.186" r="4" fill="#0" id="circle191"/>
	<circle cx="801.231" cy="136.047" r="4" fill="#0" id="circle192"/>
	<circle cx="802.882" cy="423.248" r="4" fill="#0" id="circle193"/>
	<circle cx="806.183" cy="896.965" r="4" fill="#0" id="circle194"/>
	<circle cx="807.834" cy="731.907" r="4" fill="#0" id="circle195"/>
	<circle cx="809.484" cy="870.556" r="4" fill="#0" id="circle196"/>
	<circle cx="812.785" cy="543.74" r="4" fill="#0" id="circle197"/>
	<circle cx="814.436" cy="253.238" r="4" fill="#0" id="circle198"/>
	<circle cx="814.436" cy="410.043" r="4" fill="#0" id="circle199"/>
	<circle cx="817.737" cy="136.047" r="4" fill="#0" id="circle200"/>
	<circle cx="822.689" cy="236.732" r="4" fill="#0" id="circle201"/>
	<circle cx="822.689" cy="268.093" r="4" fill="#0" id="circle202"/>
	<circle cx="824.339" cy="731.907" r="4" fill="#0" id="circle203"/>
	<circle cx="827.641" cy="551.993" r="4" fill="#0" id="circle204"/>
	<circle cx="830.942" cy="220.226" r="4" fill="#0" id="circle205"/>
	<circle cx="830.942" cy="282.948" r="4" fill="#0" id="circle206"/>
	<circle cx="830.942" cy="401.79" r="4" fill="#0" id="circle207"/>
	<circle cx="834.243" cy="136.047" r="4" fill="#0" id="circle208"/>
	<circle cx="839.195" cy="565.198" r="4" fill="#0" id="circle209"/>
	<circle cx="839.195" cy="723.654" r="4" fill="#0" id="circle210"/>
	<circle cx="844.146" cy="208.672" r="4" fill="#0" id="circle211"/>
	<circle cx="844.146" cy="390.236" r="4" fill="#0" id="circle212"/>
	<circle cx="845.797" cy="149.251" r="4" fill="#0" id="circle213"/>
	<circle cx="847.448" cy="165.757" r="4" fill="#0" id="circle214"/>
	<circle cx="847.448" cy="182.263" r="4" fill="#0" id="circle215"/>
	<circle cx="847.448" cy="289.551" r="4" fill="#0" id="circle216"/>
	<circle cx="847.448" cy="580.053" r="4" fill="#0" id="circle217"/>
	<circle cx="852.399" cy="712.1" r="4" fill="#0" id="circle218"/>
	<circle cx="855.7" cy="368.779" r="4" fill="#0" id="circle219"/>
	<circle cx="855.7" cy="594.908" r="4" fill="#0" id="circle220"/>
	<circle cx="859.002" cy="302.755" r="4" fill="#0" id="circle221"/>
	<circle cx="863.953" cy="319.261" r="4" fill="#0" id="circle222"/>
	<circle cx="863.953" cy="609.764" r="4" fill="#0" id="circle223"/>
	<circle cx="863.953" cy="626.27" r="4" fill="#0" id="circle224"/>
	<circle cx="863.953" cy="682.389" r="4" fill="#0" id="circle225"/>
	<circle cx="863.953" cy="698.895" r="4" fill="#0" id="circle226"/>
	<circle cx="868.905" cy="357.225" r="4" fill="#0" id="circle227"/>
	<circle cx="872.206" cy="334.116" r="4" fill="#0" id="circle228"/>
	<circle cx="872.206" cy="641.125" r="4" fill="#0" id="circle229"/>
	<circle cx="872.206" cy="657.631" r="4" fill="#0" id="circle230"/>
	</g>
</svg>