<?xml version="1.0" encoding="UTF-8" standalone="no"?>
<!-- Created with CurveBenchmark -->
<svg
	xmlns:dc="http://purl.org/dc/elements/1.1/"
	xmlns:cc="http://creativecommons.org/ns#"
	xmlns:rdf="http://www.w3.org/1999/02/22-rdf-syntax-ns#"
	xmlns:svg="http://www.w3.org/2000/svg"
	xmlns="http://www.w3.org/2000/svg"
	xmlns:sodipodi="http://sodipodi.sourceforge.net/DTD/sodipodi-0.dtd"
	xmlns:inkscape="http://www.inkscape.org/namespaces/inkscape"
	width="1000"
	height="1000"
	id="svg2"
	version="1.1"
	sodipodi:docname="manifold/crawl-tree-12.png.txt">
<defs
	id="defs4" />
<metadata
	id="metadata7">
	<rdf:RDF>
		<cc:Work
			rdf:about="">
			<dc:format>image/svg+xml</dc:format>
			<dc:type
				rdf:resource="http://purl.org/dc/dcmitype/StillImage" />
			<dc:title></dc:title>
		</cc:Work>
	</rdf:RDF>
</metadata>
<g
	inkscape:label="Layer 1"
	inkscape:groupmode="layer"
	id="layer1">
	<path style="fill:none;stroke:red;stroke-width:1px;stroke-linecap:butt;stroke-linejoin:miter;stroke-opacity:1" d="M 4,835.92 4,844.214 z" id="boundary" inkscape:connector-curvature="0" />
	<path style="fill:none;stroke:red;stroke-width:1px;stroke-linecap:butt;stroke-linejoin:miter;stroke-opacity:1" d="M 4,844.214 8.14716,851.679 z" id="boundary" inkscape:connector-curvature="0" />
	<path style="fill:none;stroke:red;stroke-width:1px;stroke-linecap:butt;stroke-linejoin:miter;stroke-opacity:1" d="M 8.14716,851.679 13.9532,858.314 z" id="boundary" inkscape:connector-curvature="0" />
	<path style="fill:none;stroke:red;stroke-width:1px;stroke-linecap:butt;stroke-linejoin:miter;stroke-opacity:1" d="M 13.9532,858.314 22.2475,859.144 z" id="boundary" inkscape:connector-curvature="0" />
	<path style="fill:none;stroke:red;stroke-width:1px;stroke-linecap:butt;stroke-linejoin:miter;stroke-opacity:1" d="M 22.2475,859.144 30.5418,859.144 z" id="boundary" inkscape:connector-curvature="0" />
	<path style="fill:none;stroke:red;stroke-width:1px;stroke-linecap:butt;stroke-linejoin:miter;stroke-opacity:1" d="M 30.5418,859.144 38.8361,859.144 z" id="boundary" inkscape:connector-curvature="0" />
	<path style="fill:none;stroke:red;stroke-width:1px;stroke-linecap:butt;stroke-linejoin:miter;stroke-opacity:1" d="M 38.8361,859.144 47.1304,859.144 z" id="boundary" inkscape:connector-curvature="0" />
	<path style="fill:none;stroke:red;stroke-width:1px;stroke-linecap:butt;stroke-linejoin:miter;stroke-opacity:1" d="M 47.1304,859.144 55.4247,859.144 z" id="boundary" inkscape:connector-curvature="0" />
	<path style="fill:none;stroke:red;stroke-width:1px;stroke-linecap:butt;stroke-linejoin:miter;stroke-opacity:1" d="M 55.4247,859.144 63.7191,859.144 z" id="boundary" inkscape:connector-curvature="0" />
	<path style="fill:none;stroke:red;stroke-width:1px;stroke-linecap:butt;stroke-linejoin:miter;stroke-opacity:1" d="M 63.7191,859.144 72.0134,859.144 z" id="boundary" inkscape:connector-curvature="0" />
	<path style="fill:none;stroke:red;stroke-width:1px;stroke-linecap:butt;stroke-linejoin:miter;stroke-opacity:1" d="M 72.0134,859.144 80.3077,859.144 z" id="boundary" inkscape:connector-curvature="0" />
	<path style="fill:none;stroke:red;stroke-width:1px;stroke-linecap:butt;stroke-linejoin:miter;stroke-opacity:1" d="M 80.3077,859.144 88.602,859.144 z" id="boundary" inkscape:connector-curvature="0" />
	<path style="fill:none;stroke:red;stroke-width:1px;stroke-linecap:butt;stroke-linejoin:miter;stroke-opacity:1" d="M 88.602,859.144 96.8963,859.144 z" id="boundary" inkscape:connector-curvature="0" />
	<path style="fill:none;stroke:red;stroke-width:1px;stroke-linecap:butt;stroke-linejoin:miter;stroke-opacity:1" d="M 96.8963,859.144 105.191,859.144 z" id="boundary" inkscape:connector-curvature="0" />
	<path style="fill:none;stroke:red;stroke-width:1px;stroke-linecap:butt;stroke-linejoin:miter;stroke-opacity:1" d="M 105.191,859.144 113.485,859.144 z" id="boundary" inkscape:connector-curvature="0" />
	<path style="fill:none;stroke:red;stroke-width:1px;stroke-linecap:butt;stroke-linejoin:miter;stroke-opacity:1" d="M 113.485,859.144 121.779,859.144 z" id="boundary" inkscape:connector-curvature="0" />
	<path style="fill:none;stroke:red;stroke-width:1px;stroke-linecap:butt;stroke-linejoin:miter;stroke-opacity:1" d="M 121.779,859.144 130.074,859.144 z" id="boundary" inkscape:connector-curvature="0" />
	<path style="fill:none;stroke:red;stroke-width:1px;stroke-linecap:butt;stroke-linejoin:miter;stroke-opacity:1" d="M 130.074,859.144 132.562,867.438 z" id="boundary" inkscape:connector-curvature="0" />
	<path style="fill:none;stroke:red;stroke-width:1px;stroke-linecap:butt;stroke-linejoin:miter;stroke-opacity:1" d="M 132.562,867.438 132.562,875.732 z" id="boundary" inkscape:connector-curvature="0" />
	<path style="fill:none;stroke:red;stroke-width:1px;stroke-linecap:butt;stroke-linejoin:miter;stroke-opacity:1" d="M 132.562,875.732 132.562,884.027 z" id="boundary" inkscape:connector-curvature="0" />
	<path style="fill:none;stroke:red;stroke-width:1px;stroke-linecap:butt;stroke-linejoin:miter;stroke-opacity:1" d="M 132.562,884.027 132.562,892.321 z" id="boundary" inkscape:connector-curvature="0" />
	<path style="fill:none;stroke:red;stroke-width:1px;stroke-linecap:butt;stroke-linejoin:miter;stroke-opacity:1" d="M 132.562,892.321 132.562,900.615 z" id="boundary" inkscape:connector-curvature="0" />
	<path style="fill:none;stroke:red;stroke-width:1px;stroke-linecap:butt;stroke-linejoin:miter;stroke-opacity:1" d="M 132.562,900.615 132.562,908.91 z" id="boundary" inkscape:connector-curvature="0" />
	<path style="fill:none;stroke:red;stroke-width:1px;stroke-linecap:butt;stroke-linejoin:miter;stroke-opacity:1" d="M 132.562,908.91 132.562,917.204 z" id="boundary" inkscape:connector-curvature="0" />
	<path style="fill:none;stroke:red;stroke-width:1px;stroke-linecap:butt;stroke-linejoin:miter;stroke-opacity:1" d="M 132.562,917.204 132.562,925.498 z" id="boundary" inkscape:connector-curvature="0" />
	<path style="fill:none;stroke:red;stroke-width:1px;stroke-linecap:butt;stroke-linejoin:miter;stroke-opacity:1" d="M 132.562,925.498 132.562,933.793 z" id="boundary" inkscape:connector-curvature="0" />
	<path style="fill:none;stroke:red;stroke-width:1px;stroke-linecap:butt;stroke-linejoin:miter;stroke-opacity:1" d="M 132.562,933.793 135.05,942.087 z" id="boundary" inkscape:connector-curvature="0" />
	<path style="fill:none;stroke:red;stroke-width:1px;stroke-linecap:butt;stroke-linejoin:miter;stroke-opacity:1" d="M 135.05,942.087 136.709,950.381 z" id="boundary" inkscape:connector-curvature="0" />
	<path style="fill:none;stroke:red;stroke-width:1px;stroke-linecap:butt;stroke-linejoin:miter;stroke-opacity:1" d="M 136.709,950.381 136.709,958.676 z" id="boundary" inkscape:connector-curvature="0" />
	<path style="fill:none;stroke:red;stroke-width:1px;stroke-linecap:butt;stroke-linejoin:miter;stroke-opacity:1" d="M 136.709,958.676 140.856,966.14 z" id="boundary" inkscape:connector-curvature="0" />
	<path style="fill:none;stroke:red;stroke-width:1px;stroke-linecap:butt;stroke-linejoin:miter;stroke-opacity:1" d="M 140.856,966.14 145.833,972.776 z" id="boundary" inkscape:connector-curvature="0" />
	<path style="fill:none;stroke:red;stroke-width:1px;stroke-linecap:butt;stroke-linejoin:miter;stroke-opacity:1" d="M 145.833,972.776 151.639,979.411 z" id="boundary" inkscape:connector-curvature="0" />
	<path style="fill:none;stroke:red;stroke-width:1px;stroke-linecap:butt;stroke-linejoin:miter;stroke-opacity:1" d="M 151.639,979.411 158.274,985.217 z" id="boundary" inkscape:connector-curvature="0" />
	<path style="fill:none;stroke:red;stroke-width:1px;stroke-linecap:butt;stroke-linejoin:miter;stroke-opacity:1" d="M 158.274,985.217 165.739,989.365 z" id="boundary" inkscape:connector-curvature="0" />
	<path style="fill:none;stroke:red;stroke-width:1px;stroke-linecap:butt;stroke-linejoin:miter;stroke-opacity:1" d="M 165.739,989.365 174.033,991.853 z" id="boundary" inkscape:connector-curvature="0" />
	<path style="fill:none;stroke:red;stroke-width:1px;stroke-linecap:butt;stroke-linejoin:miter;stroke-opacity:1" d="M 174.033,991.853 181.498,996 z" id="boundary" inkscape:connector-curvature="0" />
	<path style="fill:none;stroke:red;stroke-width:1px;stroke-linecap:butt;stroke-linejoin:miter;stroke-opacity:1" d="M 181.498,996 188.963,991.853 z" id="boundary" inkscape:connector-curvature="0" />
	<path style="fill:none;stroke:red;stroke-width:1px;stroke-linecap:butt;stroke-linejoin:miter;stroke-opacity:1" d="M 188.963,991.853 197.258,991.023 z" id="boundary" inkscape:connector-curvature="0" />
	<path style="fill:none;stroke:red;stroke-width:1px;stroke-linecap:butt;stroke-linejoin:miter;stroke-opacity:1" d="M 197.258,991.023 203.893,983.559 z" id="boundary" inkscape:connector-curvature="0" />
	<path style="fill:none;stroke:red;stroke-width:1px;stroke-linecap:butt;stroke-linejoin:miter;stroke-opacity:1" d="M 203.893,983.559 212.187,979.411 z" id="boundary" inkscape:connector-curvature="0" />
	<path style="fill:none;stroke:red;stroke-width:1px;stroke-linecap:butt;stroke-linejoin:miter;stroke-opacity:1" d="M 212.187,979.411 218.823,973.605 z" id="boundary" inkscape:connector-curvature="0" />
	<path style="fill:none;stroke:red;stroke-width:1px;stroke-linecap:butt;stroke-linejoin:miter;stroke-opacity:1" d="M 218.823,973.605 224.629,962.823 z" id="boundary" inkscape:connector-curvature="0" />
	<path style="fill:none;stroke:red;stroke-width:1px;stroke-linecap:butt;stroke-linejoin:miter;stroke-opacity:1" d="M 224.629,962.823 224.629,954.528 z" id="boundary" inkscape:connector-curvature="0" />
	<path style="fill:none;stroke:red;stroke-width:1px;stroke-linecap:butt;stroke-linejoin:miter;stroke-opacity:1" d="M 224.629,954.528 224.629,946.234 z" id="boundary" inkscape:connector-curvature="0" />
	<path style="fill:none;stroke:red;stroke-width:1px;stroke-linecap:butt;stroke-linejoin:miter;stroke-opacity:1" d="M 224.629,946.234 224.629,937.94 z" id="boundary" inkscape:connector-curvature="0" />
	<path style="fill:none;stroke:red;stroke-width:1px;stroke-linecap:butt;stroke-linejoin:miter;stroke-opacity:1" d="M 224.629,937.94 222.14,929.645 z" id="boundary" inkscape:connector-curvature="0" />
	<path style="fill:none;stroke:red;stroke-width:1px;stroke-linecap:butt;stroke-linejoin:miter;stroke-opacity:1" d="M 222.14,929.645 220.482,921.351 z" id="boundary" inkscape:connector-curvature="0" />
	<path style="fill:none;stroke:red;stroke-width:1px;stroke-linecap:butt;stroke-linejoin:miter;stroke-opacity:1" d="M 220.482,921.351 220.482,913.057 z" id="boundary" inkscape:connector-curvature="0" />
	<path style="fill:none;stroke:red;stroke-width:1px;stroke-linecap:butt;stroke-linejoin:miter;stroke-opacity:1" d="M 220.482,913.057 220.482,904.763 z" id="boundary" inkscape:connector-curvature="0" />
	<path style="fill:none;stroke:red;stroke-width:1px;stroke-linecap:butt;stroke-linejoin:miter;stroke-opacity:1" d="M 220.482,904.763 220.482,896.468 z" id="boundary" inkscape:connector-curvature="0" />
	<path style="fill:none;stroke:red;stroke-width:1px;stroke-linecap:butt;stroke-linejoin:miter;stroke-opacity:1" d="M 220.482,896.468 220.482,888.174 z" id="boundary" inkscape:connector-curvature="0" />
	<path style="fill:none;stroke:red;stroke-width:1px;stroke-linecap:butt;stroke-linejoin:miter;stroke-opacity:1" d="M 220.482,888.174 220.482,879.88 z" id="boundary" inkscape:connector-curvature="0" />
	<path style="fill:none;stroke:red;stroke-width:1px;stroke-linecap:butt;stroke-linejoin:miter;stroke-opacity:1" d="M 220.482,879.88 224.629,867.438 z" id="boundary" inkscape:connector-curvature="0" />
	<path style="fill:none;stroke:red;stroke-width:1px;stroke-linecap:butt;stroke-linejoin:miter;stroke-opacity:1" d="M 224.629,867.438 232.923,869.097 z" id="boundary" inkscape:connector-curvature="0" />
	<path style="fill:none;stroke:red;stroke-width:1px;stroke-linecap:butt;stroke-linejoin:miter;stroke-opacity:1" d="M 232.923,869.097 241.217,871.585 z" id="boundary" inkscape:connector-curvature="0" />
	<path style="fill:none;stroke:red;stroke-width:1px;stroke-linecap:butt;stroke-linejoin:miter;stroke-opacity:1" d="M 241.217,871.585 249.512,871.585 z" id="boundary" inkscape:connector-curvature="0" />
	<path style="fill:none;stroke:red;stroke-width:1px;stroke-linecap:butt;stroke-linejoin:miter;stroke-opacity:1" d="M 249.512,871.585 257.806,871.585 z" id="boundary" inkscape:connector-curvature="0" />
	<path style="fill:none;stroke:red;stroke-width:1px;stroke-linecap:butt;stroke-linejoin:miter;stroke-opacity:1" d="M 257.806,871.585 266.1,871.585 z" id="boundary" inkscape:connector-curvature="0" />
	<path style="fill:none;stroke:red;stroke-width:1px;stroke-linecap:butt;stroke-linejoin:miter;stroke-opacity:1" d="M 266.1,871.585 274.395,871.585 z" id="boundary" inkscape:connector-curvature="0" />
	<path style="fill:none;stroke:red;stroke-width:1px;stroke-linecap:butt;stroke-linejoin:miter;stroke-opacity:1" d="M 274.395,871.585 282.689,871.585 z" id="boundary" inkscape:connector-curvature="0" />
	<path style="fill:none;stroke:red;stroke-width:1px;stroke-linecap:butt;stroke-linejoin:miter;stroke-opacity:1" d="M 282.689,871.585 290.983,871.585 z" id="boundary" inkscape:connector-curvature="0" />
	<path style="fill:none;stroke:red;stroke-width:1px;stroke-linecap:butt;stroke-linejoin:miter;stroke-opacity:1" d="M 290.983,871.585 299.278,871.585 z" id="boundary" inkscape:connector-curvature="0" />
	<path style="fill:none;stroke:red;stroke-width:1px;stroke-linecap:butt;stroke-linejoin:miter;stroke-opacity:1" d="M 299.278,871.585 307.572,871.585 z" id="boundary" inkscape:connector-curvature="0" />
	<path style="fill:none;stroke:red;stroke-width:1px;stroke-linecap:butt;stroke-linejoin:miter;stroke-opacity:1" d="M 307.572,871.585 315.866,871.585 z" id="boundary" inkscape:connector-curvature="0" />
	<path style="fill:none;stroke:red;stroke-width:1px;stroke-linecap:butt;stroke-linejoin:miter;stroke-opacity:1" d="M 315.866,871.585 324.161,871.585 z" id="boundary" inkscape:connector-curvature="0" />
	<path style="fill:none;stroke:red;stroke-width:1px;stroke-linecap:butt;stroke-linejoin:miter;stroke-opacity:1" d="M 324.161,871.585 331.625,875.732 z" id="boundary" inkscape:connector-curvature="0" />
	<path style="fill:none;stroke:red;stroke-width:1px;stroke-linecap:butt;stroke-linejoin:miter;stroke-opacity:1" d="M 331.625,875.732 339.92,873.244 z" id="boundary" inkscape:connector-curvature="0" />
	<path style="fill:none;stroke:red;stroke-width:1px;stroke-linecap:butt;stroke-linejoin:miter;stroke-opacity:1" d="M 339.92,873.244 346.555,866.609 z" id="boundary" inkscape:connector-curvature="0" />
	<path style="fill:none;stroke:red;stroke-width:1px;stroke-linecap:butt;stroke-linejoin:miter;stroke-opacity:1" d="M 346.555,866.609 349.043,856.656 z" id="boundary" inkscape:connector-curvature="0" />
	<path style="fill:none;stroke:red;stroke-width:1px;stroke-linecap:butt;stroke-linejoin:miter;stroke-opacity:1" d="M 349.043,856.656 344.896,849.191 z" id="boundary" inkscape:connector-curvature="0" />
	<path style="fill:none;stroke:red;stroke-width:1px;stroke-linecap:butt;stroke-linejoin:miter;stroke-opacity:1" d="M 344.896,849.191 340.749,841.726 z" id="boundary" inkscape:connector-curvature="0" />
	<path style="fill:none;stroke:red;stroke-width:1px;stroke-linecap:butt;stroke-linejoin:miter;stroke-opacity:1" d="M 340.749,841.726 340.749,833.431 z" id="boundary" inkscape:connector-curvature="0" />
	<path style="fill:none;stroke:red;stroke-width:1px;stroke-linecap:butt;stroke-linejoin:miter;stroke-opacity:1" d="M 340.749,833.431 336.602,825.967 z" id="boundary" inkscape:connector-curvature="0" />
	<path style="fill:none;stroke:red;stroke-width:1px;stroke-linecap:butt;stroke-linejoin:miter;stroke-opacity:1" d="M 336.602,825.967 336.602,817.672 z" id="boundary" inkscape:connector-curvature="0" />
	<path style="fill:none;stroke:red;stroke-width:1px;stroke-linecap:butt;stroke-linejoin:miter;stroke-opacity:1" d="M 336.602,817.672 334.114,809.378 z" id="boundary" inkscape:connector-curvature="0" />
	<path style="fill:none;stroke:red;stroke-width:1px;stroke-linecap:butt;stroke-linejoin:miter;stroke-opacity:1" d="M 334.114,809.378 332.455,801.084 z" id="boundary" inkscape:connector-curvature="0" />
	<path style="fill:none;stroke:red;stroke-width:1px;stroke-linecap:butt;stroke-linejoin:miter;stroke-opacity:1" d="M 332.455,801.084 327.478,794.448 z" id="boundary" inkscape:connector-curvature="0" />
	<path style="fill:none;stroke:red;stroke-width:1px;stroke-linecap:butt;stroke-linejoin:miter;stroke-opacity:1" d="M 327.478,794.448 324.161,786.154 z" id="boundary" inkscape:connector-curvature="0" />
	<path style="fill:none;stroke:red;stroke-width:1px;stroke-linecap:butt;stroke-linejoin:miter;stroke-opacity:1" d="M 324.161,786.154 323.331,777.86 z" id="boundary" inkscape:connector-curvature="0" />
	<path style="fill:none;stroke:red;stroke-width:1px;stroke-linecap:butt;stroke-linejoin:miter;stroke-opacity:1" d="M 323.331,777.86 320.013,769.565 z" id="boundary" inkscape:connector-curvature="0" />
	<path style="fill:none;stroke:red;stroke-width:1px;stroke-linecap:butt;stroke-linejoin:miter;stroke-opacity:1" d="M 320.013,769.565 319.184,761.271 z" id="boundary" inkscape:connector-curvature="0" />
	<path style="fill:none;stroke:red;stroke-width:1px;stroke-linecap:butt;stroke-linejoin:miter;stroke-opacity:1" d="M 319.184,761.271 315.866,752.977 z" id="boundary" inkscape:connector-curvature="0" />
	<path style="fill:none;stroke:red;stroke-width:1px;stroke-linecap:butt;stroke-linejoin:miter;stroke-opacity:1" d="M 315.866,752.977 315.866,744.682 z" id="boundary" inkscape:connector-curvature="0" />
	<path style="fill:none;stroke:red;stroke-width:1px;stroke-linecap:butt;stroke-linejoin:miter;stroke-opacity:1" d="M 315.866,744.682 311.719,737.217 z" id="boundary" inkscape:connector-curvature="0" />
	<path style="fill:none;stroke:red;stroke-width:1px;stroke-linecap:butt;stroke-linejoin:miter;stroke-opacity:1" d="M 311.719,737.217 311.719,728.923 z" id="boundary" inkscape:connector-curvature="0" />
	<path style="fill:none;stroke:red;stroke-width:1px;stroke-linecap:butt;stroke-linejoin:miter;stroke-opacity:1" d="M 311.719,728.923 307.572,721.458 z" id="boundary" inkscape:connector-curvature="0" />
	<path style="fill:none;stroke:red;stroke-width:1px;stroke-linecap:butt;stroke-linejoin:miter;stroke-opacity:1" d="M 307.572,721.458 307.572,713.164 z" id="boundary" inkscape:connector-curvature="0" />
	<path style="fill:none;stroke:red;stroke-width:1px;stroke-linecap:butt;stroke-linejoin:miter;stroke-opacity:1" d="M 307.572,713.164 307.572,704.87 z" id="boundary" inkscape:connector-curvature="0" />
	<path style="fill:none;stroke:red;stroke-width:1px;stroke-linecap:butt;stroke-linejoin:miter;stroke-opacity:1" d="M 307.572,704.87 303.425,697.405 z" id="boundary" inkscape:connector-curvature="0" />
	<path style="fill:none;stroke:red;stroke-width:1px;stroke-linecap:butt;stroke-linejoin:miter;stroke-opacity:1" d="M 303.425,697.405 303.425,689.11 z" id="boundary" inkscape:connector-curvature="0" />
	<path style="fill:none;stroke:red;stroke-width:1px;stroke-linecap:butt;stroke-linejoin:miter;stroke-opacity:1" d="M 303.425,689.11 303.425,680.816 z" id="boundary" inkscape:connector-curvature="0" />
	<path style="fill:none;stroke:red;stroke-width:1px;stroke-linecap:butt;stroke-linejoin:miter;stroke-opacity:1" d="M 303.425,680.816 300.936,672.522 z" id="boundary" inkscape:connector-curvature="0" />
	<path style="fill:none;stroke:red;stroke-width:1px;stroke-linecap:butt;stroke-linejoin:miter;stroke-opacity:1" d="M 300.936,672.522 299.278,664.227 z" id="boundary" inkscape:connector-curvature="0" />
	<path style="fill:none;stroke:red;stroke-width:1px;stroke-linecap:butt;stroke-linejoin:miter;stroke-opacity:1" d="M 299.278,664.227 299.278,655.933 z" id="boundary" inkscape:connector-curvature="0" />
	<path style="fill:none;stroke:red;stroke-width:1px;stroke-linecap:butt;stroke-linejoin:miter;stroke-opacity:1" d="M 299.278,655.933 296.789,647.639 z" id="boundary" inkscape:connector-curvature="0" />
	<path style="fill:none;stroke:red;stroke-width:1px;stroke-linecap:butt;stroke-linejoin:miter;stroke-opacity:1" d="M 296.789,647.639 295.13,639.344 z" id="boundary" inkscape:connector-curvature="0" />
	<path style="fill:none;stroke:red;stroke-width:1px;stroke-linecap:butt;stroke-linejoin:miter;stroke-opacity:1" d="M 295.13,639.344 295.13,631.05 z" id="boundary" inkscape:connector-curvature="0" />
	<path style="fill:none;stroke:red;stroke-width:1px;stroke-linecap:butt;stroke-linejoin:miter;stroke-opacity:1" d="M 295.13,631.05 295.13,622.756 z" id="boundary" inkscape:connector-curvature="0" />
	<path style="fill:none;stroke:red;stroke-width:1px;stroke-linecap:butt;stroke-linejoin:miter;stroke-opacity:1" d="M 295.13,622.756 295.13,614.462 z" id="boundary" inkscape:connector-curvature="0" />
	<path style="fill:none;stroke:red;stroke-width:1px;stroke-linecap:butt;stroke-linejoin:miter;stroke-opacity:1" d="M 295.13,614.462 295.13,606.167 z" id="boundary" inkscape:connector-curvature="0" />
	<path style="fill:none;stroke:red;stroke-width:1px;stroke-linecap:butt;stroke-linejoin:miter;stroke-opacity:1" d="M 295.13,606.167 295.13,597.873 z" id="boundary" inkscape:connector-curvature="0" />
	<path style="fill:none;stroke:red;stroke-width:1px;stroke-linecap:butt;stroke-linejoin:miter;stroke-opacity:1" d="M 295.13,597.873 295.13,589.579 z" id="boundary" inkscape:connector-curvature="0" />
	<path style="fill:none;stroke:red;stroke-width:1px;stroke-linecap:butt;stroke-linejoin:miter;stroke-opacity:1" d="M 295.13,589.579 301.766,583.773 z" id="boundary" inkscape:connector-curvature="0" />
	<path style="fill:none;stroke:red;stroke-width:1px;stroke-linecap:butt;stroke-linejoin:miter;stroke-opacity:1" d="M 301.766,583.773 307.572,576.308 z" id="boundary" inkscape:connector-curvature="0" />
	<path style="fill:none;stroke:red;stroke-width:1px;stroke-linecap:butt;stroke-linejoin:miter;stroke-opacity:1" d="M 307.572,576.308 305.084,568.013 z" id="boundary" inkscape:connector-curvature="0" />
	<path style="fill:none;stroke:red;stroke-width:1px;stroke-linecap:butt;stroke-linejoin:miter;stroke-opacity:1" d="M 305.084,568.013 300.936,560.548 z" id="boundary" inkscape:connector-curvature="0" />
	<path style="fill:none;stroke:red;stroke-width:1px;stroke-linecap:butt;stroke-linejoin:miter;stroke-opacity:1" d="M 300.936,560.548 299.278,552.254 z" id="boundary" inkscape:connector-curvature="0" />
	<path style="fill:none;stroke:red;stroke-width:1px;stroke-linecap:butt;stroke-linejoin:miter;stroke-opacity:1" d="M 299.278,552.254 295.13,544.789 z" id="boundary" inkscape:connector-curvature="0" />
	<path style="fill:none;stroke:red;stroke-width:1px;stroke-linecap:butt;stroke-linejoin:miter;stroke-opacity:1" d="M 295.13,544.789 295.13,536.495 z" id="boundary" inkscape:connector-curvature="0" />
	<path style="fill:none;stroke:red;stroke-width:1px;stroke-linecap:butt;stroke-linejoin:miter;stroke-opacity:1" d="M 295.13,536.495 293.472,528.201 z" id="boundary" inkscape:connector-curvature="0" />
	<path style="fill:none;stroke:red;stroke-width:1px;stroke-linecap:butt;stroke-linejoin:miter;stroke-opacity:1" d="M 293.472,528.201 290.983,519.906 z" id="boundary" inkscape:connector-curvature="0" />
	<path style="fill:none;stroke:red;stroke-width:1px;stroke-linecap:butt;stroke-linejoin:miter;stroke-opacity:1" d="M 290.983,519.906 289.324,511.612 z" id="boundary" inkscape:connector-curvature="0" />
	<path style="fill:none;stroke:red;stroke-width:1px;stroke-linecap:butt;stroke-linejoin:miter;stroke-opacity:1" d="M 289.324,511.612 286.836,503.318 z" id="boundary" inkscape:connector-curvature="0" />
	<path style="fill:none;stroke:red;stroke-width:1px;stroke-linecap:butt;stroke-linejoin:miter;stroke-opacity:1" d="M 286.836,503.318 286.007,495.023 z" id="boundary" inkscape:connector-curvature="0" />
	<path style="fill:none;stroke:red;stroke-width:1px;stroke-linecap:butt;stroke-linejoin:miter;stroke-opacity:1" d="M 286.007,495.023 281.86,487.559 z" id="boundary" inkscape:connector-curvature="0" />
	<path style="fill:none;stroke:red;stroke-width:1px;stroke-linecap:butt;stroke-linejoin:miter;stroke-opacity:1" d="M 281.86,487.559 278.542,479.264 z" id="boundary" inkscape:connector-curvature="0" />
	<path style="fill:none;stroke:red;stroke-width:1px;stroke-linecap:butt;stroke-linejoin:miter;stroke-opacity:1" d="M 278.542,479.264 274.395,471.799 z" id="boundary" inkscape:connector-curvature="0" />
	<path style="fill:none;stroke:red;stroke-width:1px;stroke-linecap:butt;stroke-linejoin:miter;stroke-opacity:1" d="M 274.395,471.799 274.395,463.505 z" id="boundary" inkscape:connector-curvature="0" />
	<path style="fill:none;stroke:red;stroke-width:1px;stroke-linecap:butt;stroke-linejoin:miter;stroke-opacity:1" d="M 274.395,463.505 270.247,456.04 z" id="boundary" inkscape:connector-curvature="0" />
	<path style="fill:none;stroke:red;stroke-width:1px;stroke-linecap:butt;stroke-linejoin:miter;stroke-opacity:1" d="M 270.247,456.04 270.247,447.746 z" id="boundary" inkscape:connector-curvature="0" />
	<path style="fill:none;stroke:red;stroke-width:1px;stroke-linecap:butt;stroke-linejoin:miter;stroke-opacity:1" d="M 270.247,447.746 266.1,440.281 z" id="boundary" inkscape:connector-curvature="0" />
	<path style="fill:none;stroke:red;stroke-width:1px;stroke-linecap:butt;stroke-linejoin:miter;stroke-opacity:1" d="M 266.1,440.281 266.1,431.987 z" id="boundary" inkscape:connector-curvature="0" />
	<path style="fill:none;stroke:red;stroke-width:1px;stroke-linecap:butt;stroke-linejoin:miter;stroke-opacity:1" d="M 266.1,431.987 263.612,423.692 z" id="boundary" inkscape:connector-curvature="0" />
	<path style="fill:none;stroke:red;stroke-width:1px;stroke-linecap:butt;stroke-linejoin:miter;stroke-opacity:1" d="M 263.612,423.692 261.953,415.398 z" id="boundary" inkscape:connector-curvature="0" />
	<path style="fill:none;stroke:red;stroke-width:1px;stroke-linecap:butt;stroke-linejoin:miter;stroke-opacity:1" d="M 261.953,415.398 261.953,407.104 z" id="boundary" inkscape:connector-curvature="0" />
	<path style="fill:none;stroke:red;stroke-width:1px;stroke-linecap:butt;stroke-linejoin:miter;stroke-opacity:1" d="M 261.953,407.104 261.953,398.809 z" id="boundary" inkscape:connector-curvature="0" />
	<path style="fill:none;stroke:red;stroke-width:1px;stroke-linecap:butt;stroke-linejoin:miter;stroke-opacity:1" d="M 261.953,398.809 261.953,390.515 z" id="boundary" inkscape:connector-curvature="0" />
	<path style="fill:none;stroke:red;stroke-width:1px;stroke-linecap:butt;stroke-linejoin:miter;stroke-opacity:1" d="M 261.953,390.515 266.1,382.221 z" id="boundary" inkscape:connector-curvature="0" />
	<path style="fill:none;stroke:red;stroke-width:1px;stroke-linecap:butt;stroke-linejoin:miter;stroke-opacity:1" d="M 266.1,382.221 266.1,373.926 z" id="boundary" inkscape:connector-curvature="0" />
	<path style="fill:none;stroke:red;stroke-width:1px;stroke-linecap:butt;stroke-linejoin:miter;stroke-opacity:1" d="M 266.1,373.926 270.247,365.632 z" id="boundary" inkscape:connector-curvature="0" />
	<path style="fill:none;stroke:red;stroke-width:1px;stroke-linecap:butt;stroke-linejoin:miter;stroke-opacity:1" d="M 270.247,365.632 276.883,359.826 z" id="boundary" inkscape:connector-curvature="0" />
	<path style="fill:none;stroke:red;stroke-width:1px;stroke-linecap:butt;stroke-linejoin:miter;stroke-opacity:1" d="M 276.883,359.826 282.689,353.191 z" id="boundary" inkscape:connector-curvature="0" />
	<path style="fill:none;stroke:red;stroke-width:1px;stroke-linecap:butt;stroke-linejoin:miter;stroke-opacity:1" d="M 282.689,353.191 289.324,347.385 z" id="boundary" inkscape:connector-curvature="0" />
	<path style="fill:none;stroke:red;stroke-width:1px;stroke-linecap:butt;stroke-linejoin:miter;stroke-opacity:1" d="M 4,835.92 8.14716,823.478 z" id="boundary" inkscape:connector-curvature="0" />
	<path style="fill:none;stroke:red;stroke-width:1px;stroke-linecap:butt;stroke-linejoin:miter;stroke-opacity:1" d="M 8.14716,823.478 12.2943,815.184 z" id="boundary" inkscape:connector-curvature="0" />
	<path style="fill:none;stroke:red;stroke-width:1px;stroke-linecap:butt;stroke-linejoin:miter;stroke-opacity:1" d="M 12.2943,815.184 16.4415,802.742 z" id="boundary" inkscape:connector-curvature="0" />
	<path style="fill:none;stroke:red;stroke-width:1px;stroke-linecap:butt;stroke-linejoin:miter;stroke-opacity:1" d="M 16.4415,802.742 23.0769,796.107 z" id="boundary" inkscape:connector-curvature="0" />
	<path style="fill:none;stroke:red;stroke-width:1px;stroke-linecap:butt;stroke-linejoin:miter;stroke-opacity:1" d="M 289.324,347.385 286.836,334.114 z" id="boundary" inkscape:connector-curvature="0" />
	<path style="fill:none;stroke:red;stroke-width:1px;stroke-linecap:butt;stroke-linejoin:miter;stroke-opacity:1" d="M 286.836,334.114 282.689,326.649 z" id="boundary" inkscape:connector-curvature="0" />
	<path style="fill:none;stroke:red;stroke-width:1px;stroke-linecap:butt;stroke-linejoin:miter;stroke-opacity:1" d="M 282.689,326.649 278.542,319.184 z" id="boundary" inkscape:connector-curvature="0" />
	<path style="fill:none;stroke:red;stroke-width:1px;stroke-linecap:butt;stroke-linejoin:miter;stroke-opacity:1" d="M 278.542,319.184 274.395,311.719 z" id="boundary" inkscape:connector-curvature="0" />
	<path style="fill:none;stroke:red;stroke-width:1px;stroke-linecap:butt;stroke-linejoin:miter;stroke-opacity:1" d="M 274.395,311.719 271.906,303.425 z" id="boundary" inkscape:connector-curvature="0" />
	<path style="fill:none;stroke:red;stroke-width:1px;stroke-linecap:butt;stroke-linejoin:miter;stroke-opacity:1" d="M 271.906,303.425 270.247,295.13 z" id="boundary" inkscape:connector-curvature="0" />
	<path style="fill:none;stroke:red;stroke-width:1px;stroke-linecap:butt;stroke-linejoin:miter;stroke-opacity:1" d="M 270.247,295.13 266.1,287.666 z" id="boundary" inkscape:connector-curvature="0" />
	<path style="fill:none;stroke:red;stroke-width:1px;stroke-linecap:butt;stroke-linejoin:miter;stroke-opacity:1" d="M 266.1,287.666 266.1,279.371 z" id="boundary" inkscape:connector-curvature="0" />
	<path style="fill:none;stroke:red;stroke-width:1px;stroke-linecap:butt;stroke-linejoin:miter;stroke-opacity:1" d="M 266.1,279.371 264.441,271.077 z" id="boundary" inkscape:connector-curvature="0" />
	<path style="fill:none;stroke:red;stroke-width:1px;stroke-linecap:butt;stroke-linejoin:miter;stroke-opacity:1" d="M 264.441,271.077 261.953,262.783 z" id="boundary" inkscape:connector-curvature="0" />
	<path style="fill:none;stroke:red;stroke-width:1px;stroke-linecap:butt;stroke-linejoin:miter;stroke-opacity:1" d="M 261.953,262.783 260.294,254.488 z" id="boundary" inkscape:connector-curvature="0" />
	<path style="fill:none;stroke:red;stroke-width:1px;stroke-linecap:butt;stroke-linejoin:miter;stroke-opacity:1" d="M 260.294,254.488 257.806,246.194 z" id="boundary" inkscape:connector-curvature="0" />
	<path style="fill:none;stroke:red;stroke-width:1px;stroke-linecap:butt;stroke-linejoin:miter;stroke-opacity:1" d="M 257.806,246.194 257.806,237.9 z" id="boundary" inkscape:connector-curvature="0" />
	<path style="fill:none;stroke:red;stroke-width:1px;stroke-linecap:butt;stroke-linejoin:miter;stroke-opacity:1" d="M 257.806,237.9 253.659,230.435 z" id="boundary" inkscape:connector-curvature="0" />
	<path style="fill:none;stroke:red;stroke-width:1px;stroke-linecap:butt;stroke-linejoin:miter;stroke-opacity:1" d="M 253.659,230.435 252.829,222.14 z" id="boundary" inkscape:connector-curvature="0" />
	<path style="fill:none;stroke:red;stroke-width:1px;stroke-linecap:butt;stroke-linejoin:miter;stroke-opacity:1" d="M 252.829,222.14 249.512,213.846 z" id="boundary" inkscape:connector-curvature="0" />
	<path style="fill:none;stroke:red;stroke-width:1px;stroke-linecap:butt;stroke-linejoin:miter;stroke-opacity:1" d="M 249.512,213.846 245.365,206.381 z" id="boundary" inkscape:connector-curvature="0" />
	<path style="fill:none;stroke:red;stroke-width:1px;stroke-linecap:butt;stroke-linejoin:miter;stroke-opacity:1" d="M 245.365,206.381 245.365,198.087 z" id="boundary" inkscape:connector-curvature="0" />
	<path style="fill:none;stroke:red;stroke-width:1px;stroke-linecap:butt;stroke-linejoin:miter;stroke-opacity:1" d="M 245.365,198.087 241.217,190.622 z" id="boundary" inkscape:connector-curvature="0" />
	<path style="fill:none;stroke:red;stroke-width:1px;stroke-linecap:butt;stroke-linejoin:miter;stroke-opacity:1" d="M 241.217,190.622 241.217,182.328 z" id="boundary" inkscape:connector-curvature="0" />
	<path style="fill:none;stroke:red;stroke-width:1px;stroke-linecap:butt;stroke-linejoin:miter;stroke-opacity:1" d="M 241.217,182.328 237.07,174.863 z" id="boundary" inkscape:connector-curvature="0" />
	<path style="fill:none;stroke:red;stroke-width:1px;stroke-linecap:butt;stroke-linejoin:miter;stroke-opacity:1" d="M 237.07,174.863 237.07,166.569 z" id="boundary" inkscape:connector-curvature="0" />
	<path style="fill:none;stroke:red;stroke-width:1px;stroke-linecap:butt;stroke-linejoin:miter;stroke-opacity:1" d="M 237.07,166.569 234.582,158.274 z" id="boundary" inkscape:connector-curvature="0" />
	<path style="fill:none;stroke:red;stroke-width:1px;stroke-linecap:butt;stroke-linejoin:miter;stroke-opacity:1" d="M 234.582,158.274 232.923,149.98 z" id="boundary" inkscape:connector-curvature="0" />
	<path style="fill:none;stroke:red;stroke-width:1px;stroke-linecap:butt;stroke-linejoin:miter;stroke-opacity:1" d="M 232.923,149.98 241.217,145.833 z" id="boundary" inkscape:connector-curvature="0" />
	<path style="fill:none;stroke:red;stroke-width:1px;stroke-linecap:butt;stroke-linejoin:miter;stroke-opacity:1" d="M 241.217,145.833 247.853,140.027 z" id="boundary" inkscape:connector-curvature="0" />
	<path style="fill:none;stroke:red;stroke-width:1px;stroke-linecap:butt;stroke-linejoin:miter;stroke-opacity:1" d="M 247.853,140.027 249.512,129.244 z" id="boundary" inkscape:connector-curvature="0" />
	<path style="fill:none;stroke:red;stroke-width:1px;stroke-linecap:butt;stroke-linejoin:miter;stroke-opacity:1" d="M 249.512,129.244 244.535,122.609 z" id="boundary" inkscape:connector-curvature="0" />
	<path style="fill:none;stroke:red;stroke-width:1px;stroke-linecap:butt;stroke-linejoin:miter;stroke-opacity:1" d="M 244.535,122.609 241.217,114.314 z" id="boundary" inkscape:connector-curvature="0" />
	<path style="fill:none;stroke:red;stroke-width:1px;stroke-linecap:butt;stroke-linejoin:miter;stroke-opacity:1" d="M 241.217,114.314 234.582,108.508 z" id="boundary" inkscape:connector-curvature="0" />
	<path style="fill:none;stroke:red;stroke-width:1px;stroke-linecap:butt;stroke-linejoin:miter;stroke-opacity:1" d="M 234.582,108.508 231.264,100.214 z" id="boundary" inkscape:connector-curvature="0" />
	<path style="fill:none;stroke:red;stroke-width:1px;stroke-linecap:butt;stroke-linejoin:miter;stroke-opacity:1" d="M 231.264,100.214 224.629,95.2375 z" id="boundary" inkscape:connector-curvature="0" />
	<path style="fill:none;stroke:red;stroke-width:1px;stroke-linecap:butt;stroke-linejoin:miter;stroke-opacity:1" d="M 224.629,95.2375 224.629,86.9431 z" id="boundary" inkscape:connector-curvature="0" />
	<path style="fill:none;stroke:red;stroke-width:1px;stroke-linecap:butt;stroke-linejoin:miter;stroke-opacity:1" d="M 224.629,86.9431 220.482,79.4783 z" id="boundary" inkscape:connector-curvature="0" />
	<path style="fill:none;stroke:red;stroke-width:1px;stroke-linecap:butt;stroke-linejoin:miter;stroke-opacity:1" d="M 220.482,79.4783 217.993,71.1839 z" id="boundary" inkscape:connector-curvature="0" />
	<path style="fill:none;stroke:red;stroke-width:1px;stroke-linecap:butt;stroke-linejoin:miter;stroke-opacity:1" d="M 217.993,71.1839 216.334,62.8896 z" id="boundary" inkscape:connector-curvature="0" />
	<path style="fill:none;stroke:red;stroke-width:1px;stroke-linecap:butt;stroke-linejoin:miter;stroke-opacity:1" d="M 216.334,62.8896 212.187,55.4247 z" id="boundary" inkscape:connector-curvature="0" />
	<path style="fill:none;stroke:red;stroke-width:1px;stroke-linecap:butt;stroke-linejoin:miter;stroke-opacity:1" d="M 212.187,55.4247 208.04,47.9599 z" id="boundary" inkscape:connector-curvature="0" />
	<path style="fill:none;stroke:red;stroke-width:1px;stroke-linecap:butt;stroke-linejoin:miter;stroke-opacity:1" d="M 208.04,47.9599 207.211,39.6656 z" id="boundary" inkscape:connector-curvature="0" />
	<path style="fill:none;stroke:red;stroke-width:1px;stroke-linecap:butt;stroke-linejoin:miter;stroke-opacity:1" d="M 207.211,39.6656 203.893,31.3712 z" id="boundary" inkscape:connector-curvature="0" />
	<path style="fill:none;stroke:red;stroke-width:1px;stroke-linecap:butt;stroke-linejoin:miter;stroke-opacity:1" d="M 203.893,31.3712 199.746,23.9064 z" id="boundary" inkscape:connector-curvature="0" />
	<path style="fill:none;stroke:red;stroke-width:1px;stroke-linecap:butt;stroke-linejoin:miter;stroke-opacity:1" d="M 199.746,23.9064 199.746,15.612 z" id="boundary" inkscape:connector-curvature="0" />
	<path style="fill:none;stroke:red;stroke-width:1px;stroke-linecap:butt;stroke-linejoin:miter;stroke-opacity:1" d="M 199.746,15.612 193.94,8.97659 z" id="boundary" inkscape:connector-curvature="0" />
	<path style="fill:none;stroke:red;stroke-width:1px;stroke-linecap:butt;stroke-linejoin:miter;stroke-opacity:1" d="M 193.94,8.97659 187.304,4 z" id="boundary" inkscape:connector-curvature="0" />
	<path style="fill:none;stroke:red;stroke-width:1px;stroke-linecap:butt;stroke-linejoin:miter;stroke-opacity:1" d="M 187.304,4 179.01,5.65886 z" id="boundary" inkscape:connector-curvature="0" />
	<path style="fill:none;stroke:red;stroke-width:1px;stroke-linecap:butt;stroke-linejoin:miter;stroke-opacity:1" d="M 179.01,5.65886 172.375,12.2943 z" id="boundary" inkscape:connector-curvature="0" />
	<path style="fill:none;stroke:red;stroke-width:1px;stroke-linecap:butt;stroke-linejoin:miter;stroke-opacity:1" d="M 172.375,12.2943 165.739,18.9298 z" id="boundary" inkscape:connector-curvature="0" />
	<path style="fill:none;stroke:red;stroke-width:1px;stroke-linecap:butt;stroke-linejoin:miter;stroke-opacity:1" d="M 165.739,18.9298 161.592,31.3712 z" id="boundary" inkscape:connector-curvature="0" />
	<path style="fill:none;stroke:red;stroke-width:1px;stroke-linecap:butt;stroke-linejoin:miter;stroke-opacity:1" d="M 161.592,31.3712 159.933,45.4716 z" id="boundary" inkscape:connector-curvature="0" />
	<path style="fill:none;stroke:red;stroke-width:1px;stroke-linecap:butt;stroke-linejoin:miter;stroke-opacity:1" d="M 159.933,45.4716 153.298,52.107 z" id="boundary" inkscape:connector-curvature="0" />
	<path style="fill:none;stroke:red;stroke-width:1px;stroke-linecap:butt;stroke-linejoin:miter;stroke-opacity:1" d="M 153.298,52.107 149.151,64.5485 z" id="boundary" inkscape:connector-curvature="0" />
	<path style="fill:none;stroke:red;stroke-width:1px;stroke-linecap:butt;stroke-linejoin:miter;stroke-opacity:1" d="M 149.151,64.5485 143.344,74.5017 z" id="boundary" inkscape:connector-curvature="0" />
	<path style="fill:none;stroke:red;stroke-width:1px;stroke-linecap:butt;stroke-linejoin:miter;stroke-opacity:1" d="M 143.344,74.5017 139.197,82.796 z" id="boundary" inkscape:connector-curvature="0" />
	<path style="fill:none;stroke:red;stroke-width:1px;stroke-linecap:butt;stroke-linejoin:miter;stroke-opacity:1" d="M 139.197,82.796 132.562,89.4314 z" id="boundary" inkscape:connector-curvature="0" />
	<path style="fill:none;stroke:red;stroke-width:1px;stroke-linecap:butt;stroke-linejoin:miter;stroke-opacity:1" d="M 132.562,89.4314 130.903,99.3846 z" id="boundary" inkscape:connector-curvature="0" />
	<path style="fill:none;stroke:red;stroke-width:1px;stroke-linecap:butt;stroke-linejoin:miter;stroke-opacity:1" d="M 130.903,99.3846 126.756,107.679 z" id="boundary" inkscape:connector-curvature="0" />
	<path style="fill:none;stroke:red;stroke-width:1px;stroke-linecap:butt;stroke-linejoin:miter;stroke-opacity:1" d="M 126.756,107.679 120.12,114.314 z" id="boundary" inkscape:connector-curvature="0" />
	<path style="fill:none;stroke:red;stroke-width:1px;stroke-linecap:butt;stroke-linejoin:miter;stroke-opacity:1" d="M 120.12,114.314 115.973,122.609 z" id="boundary" inkscape:connector-curvature="0" />
	<path style="fill:none;stroke:red;stroke-width:1px;stroke-linecap:butt;stroke-linejoin:miter;stroke-opacity:1" d="M 115.973,122.609 115.973,130.903 z" id="boundary" inkscape:connector-curvature="0" />
	<path style="fill:none;stroke:red;stroke-width:1px;stroke-linecap:butt;stroke-linejoin:miter;stroke-opacity:1" d="M 115.973,130.903 115.973,139.197 z" id="boundary" inkscape:connector-curvature="0" />
	<path style="fill:none;stroke:red;stroke-width:1px;stroke-linecap:butt;stroke-linejoin:miter;stroke-opacity:1" d="M 115.973,139.197 115.973,147.492 z" id="boundary" inkscape:connector-curvature="0" />
	<path style="fill:none;stroke:red;stroke-width:1px;stroke-linecap:butt;stroke-linejoin:miter;stroke-opacity:1" d="M 115.973,147.492 122.609,153.298 z" id="boundary" inkscape:connector-curvature="0" />
	<path style="fill:none;stroke:red;stroke-width:1px;stroke-linecap:butt;stroke-linejoin:miter;stroke-opacity:1" d="M 122.609,153.298 124.268,161.592 z" id="boundary" inkscape:connector-curvature="0" />
	<path style="fill:none;stroke:red;stroke-width:1px;stroke-linecap:butt;stroke-linejoin:miter;stroke-opacity:1" d="M 124.268,161.592 124.268,169.886 z" id="boundary" inkscape:connector-curvature="0" />
	<path style="fill:none;stroke:red;stroke-width:1px;stroke-linecap:butt;stroke-linejoin:miter;stroke-opacity:1" d="M 124.268,169.886 124.268,178.181 z" id="boundary" inkscape:connector-curvature="0" />
	<path style="fill:none;stroke:red;stroke-width:1px;stroke-linecap:butt;stroke-linejoin:miter;stroke-opacity:1" d="M 23.0769,796.107 24.7358,782.007 z" id="boundary" inkscape:connector-curvature="0" />
	<path style="fill:none;stroke:red;stroke-width:1px;stroke-linecap:butt;stroke-linejoin:miter;stroke-opacity:1" d="M 24.7358,782.007 31.3712,775.371 z" id="boundary" inkscape:connector-curvature="0" />
	<path style="fill:none;stroke:red;stroke-width:1px;stroke-linecap:butt;stroke-linejoin:miter;stroke-opacity:1" d="M 31.3712,775.371 33.0301,765.418 z" id="boundary" inkscape:connector-curvature="0" />
	<path style="fill:none;stroke:red;stroke-width:1px;stroke-linecap:butt;stroke-linejoin:miter;stroke-opacity:1" d="M 33.0301,765.418 37.1773,757.124 z" id="boundary" inkscape:connector-curvature="0" />
	<path style="fill:none;stroke:red;stroke-width:1px;stroke-linecap:butt;stroke-linejoin:miter;stroke-opacity:1" d="M 37.1773,757.124 41.3244,744.682 z" id="boundary" inkscape:connector-curvature="0" />
	<path style="fill:none;stroke:red;stroke-width:1px;stroke-linecap:butt;stroke-linejoin:miter;stroke-opacity:1" d="M 41.3244,744.682 45.4716,736.388 z" id="boundary" inkscape:connector-curvature="0" />
	<path style="fill:none;stroke:red;stroke-width:1px;stroke-linecap:butt;stroke-linejoin:miter;stroke-opacity:1" d="M 45.4716,736.388 49.6187,723.946 z" id="boundary" inkscape:connector-curvature="0" />
	<path style="fill:none;stroke:red;stroke-width:1px;stroke-linecap:butt;stroke-linejoin:miter;stroke-opacity:1" d="M 49.6187,723.946 53.7659,711.505 z" id="boundary" inkscape:connector-curvature="0" />
	<path style="fill:none;stroke:red;stroke-width:1px;stroke-linecap:butt;stroke-linejoin:miter;stroke-opacity:1" d="M 53.7659,711.505 57.913,699.064 z" id="boundary" inkscape:connector-curvature="0" />
	<path style="fill:none;stroke:red;stroke-width:1px;stroke-linecap:butt;stroke-linejoin:miter;stroke-opacity:1" d="M 57.913,699.064 57.913,690.769 z" id="boundary" inkscape:connector-curvature="0" />
	<path style="fill:none;stroke:red;stroke-width:1px;stroke-linecap:butt;stroke-linejoin:miter;stroke-opacity:1" d="M 57.913,690.769 62.0602,679.987 z" id="boundary" inkscape:connector-curvature="0" />
	<path style="fill:none;stroke:red;stroke-width:1px;stroke-linecap:butt;stroke-linejoin:miter;stroke-opacity:1" d="M 62.0602,679.987 62.0602,671.692 z" id="boundary" inkscape:connector-curvature="0" />
	<path style="fill:none;stroke:red;stroke-width:1px;stroke-linecap:butt;stroke-linejoin:miter;stroke-opacity:1" d="M 62.0602,671.692 62.0602,663.398 z" id="boundary" inkscape:connector-curvature="0" />
	<path style="fill:none;stroke:red;stroke-width:1px;stroke-linecap:butt;stroke-linejoin:miter;stroke-opacity:1" d="M 62.0602,663.398 62.0602,655.104 z" id="boundary" inkscape:connector-curvature="0" />
	<path style="fill:none;stroke:red;stroke-width:1px;stroke-linecap:butt;stroke-linejoin:miter;stroke-opacity:1" d="M 62.0602,655.104 62.0602,646.809 z" id="boundary" inkscape:connector-curvature="0" />
	<path style="fill:none;stroke:red;stroke-width:1px;stroke-linecap:butt;stroke-linejoin:miter;stroke-opacity:1" d="M 62.0602,646.809 62.0602,638.515 z" id="boundary" inkscape:connector-curvature="0" />
	<path style="fill:none;stroke:red;stroke-width:1px;stroke-linecap:butt;stroke-linejoin:miter;stroke-opacity:1" d="M 62.0602,638.515 62.0602,630.221 z" id="boundary" inkscape:connector-curvature="0" />
	<path style="fill:none;stroke:red;stroke-width:1px;stroke-linecap:butt;stroke-linejoin:miter;stroke-opacity:1" d="M 62.0602,630.221 62.0602,621.926 z" id="boundary" inkscape:connector-curvature="0" />
	<path style="fill:none;stroke:red;stroke-width:1px;stroke-linecap:butt;stroke-linejoin:miter;stroke-opacity:1" d="M 62.0602,621.926 62.0602,613.632 z" id="boundary" inkscape:connector-curvature="0" />
	<path style="fill:none;stroke:red;stroke-width:1px;stroke-linecap:butt;stroke-linejoin:miter;stroke-opacity:1" d="M 62.0602,613.632 62.0602,605.338 z" id="boundary" inkscape:connector-curvature="0" />
	<path style="fill:none;stroke:red;stroke-width:1px;stroke-linecap:butt;stroke-linejoin:miter;stroke-opacity:1" d="M 62.0602,605.338 60.4013,597.043 z" id="boundary" inkscape:connector-curvature="0" />
	<path style="fill:none;stroke:red;stroke-width:1px;stroke-linecap:butt;stroke-linejoin:miter;stroke-opacity:1" d="M 60.4013,597.043 53.7659,591.237 z" id="boundary" inkscape:connector-curvature="0" />
	<path style="fill:none;stroke:red;stroke-width:1px;stroke-linecap:butt;stroke-linejoin:miter;stroke-opacity:1" d="M 53.7659,591.237 47.9599,584.602 z" id="boundary" inkscape:connector-curvature="0" />
	<path style="fill:none;stroke:red;stroke-width:1px;stroke-linecap:butt;stroke-linejoin:miter;stroke-opacity:1" d="M 47.9599,584.602 41.3244,578.796 z" id="boundary" inkscape:connector-curvature="0" />
	<path style="fill:none;stroke:red;stroke-width:1px;stroke-linecap:butt;stroke-linejoin:miter;stroke-opacity:1" d="M 41.3244,578.796 41.3244,570.502 z" id="boundary" inkscape:connector-curvature="0" />
	<path style="fill:none;stroke:red;stroke-width:1px;stroke-linecap:butt;stroke-linejoin:miter;stroke-opacity:1" d="M 41.3244,570.502 45.4716,558.06 z" id="boundary" inkscape:connector-curvature="0" />
	<path style="fill:none;stroke:red;stroke-width:1px;stroke-linecap:butt;stroke-linejoin:miter;stroke-opacity:1" d="M 45.4716,558.06 45.4716,549.766 z" id="boundary" inkscape:connector-curvature="0" />
	<path style="fill:none;stroke:red;stroke-width:1px;stroke-linecap:butt;stroke-linejoin:miter;stroke-opacity:1" d="M 45.4716,549.766 49.6187,537.324 z" id="boundary" inkscape:connector-curvature="0" />
	<path style="fill:none;stroke:red;stroke-width:1px;stroke-linecap:butt;stroke-linejoin:miter;stroke-opacity:1" d="M 49.6187,537.324 49.6187,529.03 z" id="boundary" inkscape:connector-curvature="0" />
	<path style="fill:none;stroke:red;stroke-width:1px;stroke-linecap:butt;stroke-linejoin:miter;stroke-opacity:1" d="M 49.6187,529.03 53.7659,516.589 z" id="boundary" inkscape:connector-curvature="0" />
	<path style="fill:none;stroke:red;stroke-width:1px;stroke-linecap:butt;stroke-linejoin:miter;stroke-opacity:1" d="M 53.7659,516.589 53.7659,508.294 z" id="boundary" inkscape:connector-curvature="0" />
	<path style="fill:none;stroke:red;stroke-width:1px;stroke-linecap:butt;stroke-linejoin:miter;stroke-opacity:1" d="M 53.7659,508.294 57.913,500 z" id="boundary" inkscape:connector-curvature="0" />
	<path style="fill:none;stroke:red;stroke-width:1px;stroke-linecap:butt;stroke-linejoin:miter;stroke-opacity:1" d="M 57.913,500 57.913,491.706 z" id="boundary" inkscape:connector-curvature="0" />
	<path style="fill:none;stroke:red;stroke-width:1px;stroke-linecap:butt;stroke-linejoin:miter;stroke-opacity:1" d="M 57.913,491.706 57.913,483.411 z" id="boundary" inkscape:connector-curvature="0" />
	<path style="fill:none;stroke:red;stroke-width:1px;stroke-linecap:butt;stroke-linejoin:miter;stroke-opacity:1" d="M 57.913,483.411 62.0602,475.117 z" id="boundary" inkscape:connector-curvature="0" />
	<path style="fill:none;stroke:red;stroke-width:1px;stroke-linecap:butt;stroke-linejoin:miter;stroke-opacity:1" d="M 62.0602,475.117 62.0602,466.823 z" id="boundary" inkscape:connector-curvature="0" />
	<path style="fill:none;stroke:red;stroke-width:1px;stroke-linecap:butt;stroke-linejoin:miter;stroke-opacity:1" d="M 62.0602,466.823 66.2074,454.381 z" id="boundary" inkscape:connector-curvature="0" />
	<path style="fill:none;stroke:red;stroke-width:1px;stroke-linecap:butt;stroke-linejoin:miter;stroke-opacity:1" d="M 66.2074,454.381 66.2074,446.087 z" id="boundary" inkscape:connector-curvature="0" />
	<path style="fill:none;stroke:red;stroke-width:1px;stroke-linecap:butt;stroke-linejoin:miter;stroke-opacity:1" d="M 66.2074,446.087 70.3545,433.645 z" id="boundary" inkscape:connector-curvature="0" />
	<path style="fill:none;stroke:red;stroke-width:1px;stroke-linecap:butt;stroke-linejoin:miter;stroke-opacity:1" d="M 70.3545,433.645 74.5017,425.351 z" id="boundary" inkscape:connector-curvature="0" />
	<path style="fill:none;stroke:red;stroke-width:1px;stroke-linecap:butt;stroke-linejoin:miter;stroke-opacity:1" d="M 74.5017,425.351 74.5017,417.057 z" id="boundary" inkscape:connector-curvature="0" />
	<path style="fill:none;stroke:red;stroke-width:1px;stroke-linecap:butt;stroke-linejoin:miter;stroke-opacity:1" d="M 74.5017,417.057 78.6488,404.615 z" id="boundary" inkscape:connector-curvature="0" />
	<path style="fill:none;stroke:red;stroke-width:1px;stroke-linecap:butt;stroke-linejoin:miter;stroke-opacity:1" d="M 78.6488,404.615 82.796,392.174 z" id="boundary" inkscape:connector-curvature="0" />
	<path style="fill:none;stroke:red;stroke-width:1px;stroke-linecap:butt;stroke-linejoin:miter;stroke-opacity:1" d="M 82.796,392.174 86.9431,378.074 z" id="boundary" inkscape:connector-curvature="0" />
	<path style="fill:none;stroke:red;stroke-width:1px;stroke-linecap:butt;stroke-linejoin:miter;stroke-opacity:1" d="M 86.9431,378.074 86.9431,369.779 z" id="boundary" inkscape:connector-curvature="0" />
	<path style="fill:none;stroke:red;stroke-width:1px;stroke-linecap:butt;stroke-linejoin:miter;stroke-opacity:1" d="M 86.9431,369.779 86.9431,361.485 z" id="boundary" inkscape:connector-curvature="0" />
	<path style="fill:none;stroke:red;stroke-width:1px;stroke-linecap:butt;stroke-linejoin:miter;stroke-opacity:1" d="M 86.9431,361.485 82.796,354.02 z" id="boundary" inkscape:connector-curvature="0" />
	<path style="fill:none;stroke:red;stroke-width:1px;stroke-linecap:butt;stroke-linejoin:miter;stroke-opacity:1" d="M 82.796,354.02 78.6488,346.555 z" id="boundary" inkscape:connector-curvature="0" />
	<path style="fill:none;stroke:red;stroke-width:1px;stroke-linecap:butt;stroke-linejoin:miter;stroke-opacity:1" d="M 78.6488,346.555 78.6488,338.261 z" id="boundary" inkscape:connector-curvature="0" />
	<path style="fill:none;stroke:red;stroke-width:1px;stroke-linecap:butt;stroke-linejoin:miter;stroke-opacity:1" d="M 78.6488,338.261 78.6488,329.967 z" id="boundary" inkscape:connector-curvature="0" />
	<path style="fill:none;stroke:red;stroke-width:1px;stroke-linecap:butt;stroke-linejoin:miter;stroke-opacity:1" d="M 78.6488,329.967 78.6488,321.672 z" id="boundary" inkscape:connector-curvature="0" />
	<path style="fill:none;stroke:red;stroke-width:1px;stroke-linecap:butt;stroke-linejoin:miter;stroke-opacity:1" d="M 78.6488,321.672 85.2843,315.037 z" id="boundary" inkscape:connector-curvature="0" />
	<path style="fill:none;stroke:red;stroke-width:1px;stroke-linecap:butt;stroke-linejoin:miter;stroke-opacity:1" d="M 85.2843,315.037 86.9431,305.084 z" id="boundary" inkscape:connector-curvature="0" />
	<path style="fill:none;stroke:red;stroke-width:1px;stroke-linecap:butt;stroke-linejoin:miter;stroke-opacity:1" d="M 86.9431,305.084 86.9431,296.789 z" id="boundary" inkscape:connector-curvature="0" />
	<path style="fill:none;stroke:red;stroke-width:1px;stroke-linecap:butt;stroke-linejoin:miter;stroke-opacity:1" d="M 86.9431,296.789 91.0903,288.495 z" id="boundary" inkscape:connector-curvature="0" />
	<path style="fill:none;stroke:red;stroke-width:1px;stroke-linecap:butt;stroke-linejoin:miter;stroke-opacity:1" d="M 91.0903,288.495 97.7258,281.86 z" id="boundary" inkscape:connector-curvature="0" />
	<path style="fill:none;stroke:red;stroke-width:1px;stroke-linecap:butt;stroke-linejoin:miter;stroke-opacity:1" d="M 97.7258,281.86 99.3846,267.759 z" id="boundary" inkscape:connector-curvature="0" />
	<path style="fill:none;stroke:red;stroke-width:1px;stroke-linecap:butt;stroke-linejoin:miter;stroke-opacity:1" d="M 99.3846,267.759 103.532,255.318 z" id="boundary" inkscape:connector-curvature="0" />
	<path style="fill:none;stroke:red;stroke-width:1px;stroke-linecap:butt;stroke-linejoin:miter;stroke-opacity:1" d="M 103.532,255.318 107.679,242.876 z" id="boundary" inkscape:connector-curvature="0" />
	<path style="fill:none;stroke:red;stroke-width:1px;stroke-linecap:butt;stroke-linejoin:miter;stroke-opacity:1" d="M 107.679,242.876 111.826,234.582 z" id="boundary" inkscape:connector-curvature="0" />
	<path style="fill:none;stroke:red;stroke-width:1px;stroke-linecap:butt;stroke-linejoin:miter;stroke-opacity:1" d="M 111.826,234.582 111.826,226.288 z" id="boundary" inkscape:connector-curvature="0" />
	<path style="fill:none;stroke:red;stroke-width:1px;stroke-linecap:butt;stroke-linejoin:miter;stroke-opacity:1" d="M 111.826,226.288 115.973,213.846 z" id="boundary" inkscape:connector-curvature="0" />
	<path style="fill:none;stroke:red;stroke-width:1px;stroke-linecap:butt;stroke-linejoin:miter;stroke-opacity:1" d="M 115.973,213.846 120.12,201.405 z" id="boundary" inkscape:connector-curvature="0" />
	<path style="fill:none;stroke:red;stroke-width:1px;stroke-linecap:butt;stroke-linejoin:miter;stroke-opacity:1" d="M 120.12,201.405 120.12,193.11 z" id="boundary" inkscape:connector-curvature="0" />
	<path style="fill:none;stroke:red;stroke-width:1px;stroke-linecap:butt;stroke-linejoin:miter;stroke-opacity:1" d="M 120.12,193.11 124.268,178.181 z" id="boundary" inkscape:connector-curvature="0" />
	<circle cx="4" cy="835.92" r="4" fill="#0" id="circle0"/>
	<circle cx="4" cy="844.214" r="4" fill="#0" id="circle1"/>
	<circle cx="8.14716" cy="823.478" r="4" fill="#0" id="circle2"/>
	<circle cx="8.14716" cy="851.679" r="4" fill="#0" id="circle3"/>
	<circle cx="12.2943" cy="815.184" r="4" fill="#0" id="circle4"/>
	<circle cx="13.9532" cy="858.314" r="4" fill="#0" id="circle5"/>
	<circle cx="16.4415" cy="802.742" r="4" fill="#0" id="circle6"/>
	<circle cx="22.2475" cy="859.144" r="4" fill="#0" id="circle7"/>
	<circle cx="23.0769" cy="796.107" r="4" fill="#0" id="circle8"/>
	<circle cx="24.7358" cy="782.007" r="4" fill="#0" id="circle9"/>
	<circle cx="30.5418" cy="859.144" r="4" fill="#0" id="circle10"/>
	<circle cx="31.3712" cy="775.371" r="4" fill="#0" id="circle11"/>
	<circle cx="33.0301" cy="765.418" r="4" fill="#0" id="circle12"/>
	<circle cx="37.1773" cy="757.124" r="4" fill="#0" id="circle13"/>
	<circle cx="38.8361" cy="859.144" r="4" fill="#0" id="circle14"/>
	<circle cx="41.3244" cy="570.502" r="4" fill="#0" id="circle15"/>
	<circle cx="41.3244" cy="578.796" r="4" fill="#0" id="circle16"/>
	<circle cx="41.3244" cy="744.682" r="4" fill="#0" id="circle17"/>
	<circle cx="45.4716" cy="549.766" r="4" fill="#0" id="circle18"/>
	<circle cx="45.4716" cy="558.06" r="4" fill="#0" id="circle19"/>
	<circle cx="45.4716" cy="736.388" r="4" fill="#0" id="circle20"/>
	<circle cx="47.1304" cy="859.144" r="4" fill="#0" id="circle21"/>
	<circle cx="47.9599" cy="584.602" r="4" fill="#0" id="circle22"/>
	<circle cx="49.6187" cy="529.03" r="4" fill="#0" id="circle23"/>
	<circle cx="49.6187" cy="537.324" r="4" fill="#0" id="circle24"/>
	<circle cx="49.6187" cy="723.946" r="4" fill="#0" id="circle25"/>
	<circle cx="53.7659" cy="508.294" r="4" fill="#0" id="circle26"/>
	<circle cx="53.7659" cy="516.589" r="4" fill="#0" id="circle27"/>
	<circle cx="53.7659" cy="591.237" r="4" fill="#0" id="circle28"/>
	<circle cx="53.7659" cy="711.505" r="4" fill="#0" id="circle29"/>
	<circle cx="55.4247" cy="859.144" r="4" fill="#0" id="circle30"/>
	<circle cx="57.913" cy="483.411" r="4" fill="#0" id="circle31"/>
	<circle cx="57.913" cy="491.706" r="4" fill="#0" id="circle32"/>
	<circle cx="57.913" cy="500" r="4" fill="#0" id="circle33"/>
	<circle cx="57.913" cy="690.769" r="4" fill="#0" id="circle34"/>
	<circle cx="57.913" cy="699.064" r="4" fill="#0" id="circle35"/>
	<circle cx="60.4013" cy="597.043" r="4" fill="#0" id="circle36"/>
	<circle cx="62.0602" cy="466.823" r="4" fill="#0" id="circle37"/>
	<circle cx="62.0602" cy="475.117" r="4" fill="#0" id="circle38"/>
	<circle cx="62.0602" cy="605.338" r="4" fill="#0" id="circle39"/>
	<circle cx="62.0602" cy="613.632" r="4" fill="#0" id="circle40"/>
	<circle cx="62.0602" cy="621.926" r="4" fill="#0" id="circle41"/>
	<circle cx="62.0602" cy="630.221" r="4" fill="#0" id="circle42"/>
	<circle cx="62.0602" cy="638.515" r="4" fill="#0" id="circle43"/>
	<circle cx="62.0602" cy="646.809" r="4" fill="#0" id="circle44"/>
	<circle cx="62.0602" cy="655.104" r="4" fill="#0" id="circle45"/>
	<circle cx="62.0602" cy="663.398" r="4" fill="#0" id="circle46"/>
	<circle cx="62.0602" cy="671.692" r="4" fill="#0" id="circle47"/>
	<circle cx="62.0602" cy="679.987" r="4" fill="#0" id="circle48"/>
	<circle cx="63.7191" cy="859.144" r="4" fill="#0" id="circle49"/>
	<circle cx="66.2074" cy="446.087" r="4" fill="#0" id="circle50"/>
	<circle cx="66.2074" cy="454.381" r="4" fill="#0" id="circle51"/>
	<circle cx="70.3545" cy="433.645" r="4" fill="#0" id="circle52"/>
	<circle cx="72.0134" cy="859.144" r="4" fill="#0" id="circle53"/>
	<circle cx="74.5017" cy="417.057" r="4" fill="#0" id="circle54"/>
	<circle cx="74.5017" cy="425.351" r="4" fill="#0" id="circle55"/>
	<circle cx="78.6488" cy="321.672" r="4" fill="#0" id="circle56"/>
	<circle cx="78.6488" cy="329.967" r="4" fill="#0" id="circle57"/>
	<circle cx="78.6488" cy="338.261" r="4" fill="#0" id="circle58"/>
	<circle cx="78.6488" cy="346.555" r="4" fill="#0" id="circle59"/>
	<circle cx="78.6488" cy="404.615" r="4" fill="#0" id="circle60"/>
	<circle cx="80.3077" cy="859.144" r="4" fill="#0" id="circle61"/>
	<circle cx="82.796" cy="354.02" r="4" fill="#0" id="circle62"/>
	<circle cx="82.796" cy="392.174" r="4" fill="#0" id="circle63"/>
	<circle cx="85.2843" cy="315.037" r="4" fill="#0" id="circle64"/>
	<circle cx="86.9431" cy="296.789" r="4" fill="#0" id="circle65"/>
	<circle cx="86.9431" cy="305.084" r="4" fill="#0" id="circle66"/>
	<circle cx="86.9431" cy="361.485" r="4" fill="#0" id="circle67"/>
	<circle cx="86.9431" cy="369.779" r="4" fill="#0" id="circle68"/>
	<circle cx="86.9431" cy="378.074" r="4" fill="#0" id="circle69"/>
	<circle cx="88.602" cy="859.144" r="4" fill="#0" id="circle70"/>
	<circle cx="91.0903" cy="288.495" r="4" fill="#0" id="circle71"/>
	<circle cx="96.8963" cy="859.144" r="4" fill="#0" id="circle72"/>
	<circle cx="97.7258" cy="281.86" r="4" fill="#0" id="circle73"/>
	<circle cx="99.3846" cy="267.759" r="4" fill="#0" id="circle74"/>
	<circle cx="103.532" cy="255.318" r="4" fill="#0" id="circle75"/>
	<circle cx="105.191" cy="859.144" r="4" fill="#0" id="circle76"/>
	<circle cx="107.679" cy="242.876" r="4" fill="#0" id="circle77"/>
	<circle cx="111.826" cy="226.288" r="4" fill="#0" id="circle78"/>
	<circle cx="111.826" cy="234.582" r="4" fill="#0" id="circle79"/>
	<circle cx="113.485" cy="859.144" r="4" fill="#0" id="circle80"/>
	<circle cx="115.973" cy="122.609" r="4" fill="#0" id="circle81"/>
	<circle cx="115.973" cy="130.903" r="4" fill="#0" id="circle82"/>
	<circle cx="115.973" cy="139.197" r="4" fill="#0" id="circle83"/>
	<circle cx="115.973" cy="147.492" r="4" fill="#0" id="circle84"/>
	<circle cx="115.973" cy="213.846" r="4" fill="#0" id="circle85"/>
	<circle cx="120.12" cy="114.314" r="4" fill="#0" id="circle86"/>
	<circle cx="120.12" cy="193.11" r="4" fill="#0" id="circle87"/>
	<circle cx="120.12" cy="201.405" r="4" fill="#0" id="circle88"/>
	<circle cx="121.779" cy="859.144" r="4" fill="#0" id="circle89"/>
	<circle cx="122.609" cy="153.298" r="4" fill="#0" id="circle90"/>
	<circle cx="124.268" cy="161.592" r="4" fill="#0" id="circle91"/>
	<circle cx="124.268" cy="169.886" r="4" fill="#0" id="circle92"/>
	<circle cx="124.268" cy="178.181" r="4" fill="#0" id="circle93"/>
	<circle cx="126.756" cy="107.679" r="4" fill="#0" id="circle94"/>
	<circle cx="130.074" cy="859.144" r="4" fill="#0" id="circle95"/>
	<circle cx="130.903" cy="99.3846" r="4" fill="#0" id="circle96"/>
	<circle cx="132.562" cy="89.4314" r="4" fill="#0" id="circle97"/>
	<circle cx="132.562" cy="867.438" r="4" fill="#0" id="circle98"/>
	<circle cx="132.562" cy="875.732" r="4" fill="#0" id="circle99"/>
	<circle cx="132.562" cy="884.027" r="4" fill="#0" id="circle100"/>
	<circle cx="132.562" cy="892.321" r="4" fill="#0" id="circle101"/>
	<circle cx="132.562" cy="900.615" r="4" fill="#0" id="circle102"/>
	<circle cx="132.562" cy="908.91" r="4" fill="#0" id="circle103"/>
	<circle cx="132.562" cy="917.204" r="4" fill="#0" id="circle104"/>
	<circle cx="132.562" cy="925.498" r="4" fill="#0" id="circle105"/>
	<circle cx="132.562" cy="933.793" r="4" fill="#0" id="circle106"/>
	<circle cx="135.05" cy="942.087" r="4" fill="#0" id="circle107"/>
	<circle cx="136.709" cy="950.381" r="4" fill="#0" id="circle108"/>
	<circle cx="136.709" cy="958.676" r="4" fill="#0" id="circle109"/>
	<circle cx="139.197" cy="82.796" r="4" fill="#0" id="circle110"/>
	<circle cx="140.856" cy="966.14" r="4" fill="#0" id="circle111"/>
	<circle cx="143.344" cy="74.5017" r="4" fill="#0" id="circle112"/>
	<circle cx="145.833" cy="972.776" r="4" fill="#0" id="circle113"/>
	<circle cx="149.151" cy="64.5485" r="4" fill="#0" id="circle114"/>
	<circle cx="151.639" cy="979.411" r="4" fill="#0" id="circle115"/>
	<circle cx="153.298" cy="52.107" r="4" fill="#0" id="circle116"/>
	<circle cx="158.274" cy="985.217" r="4" fill="#0" id="circle117"/>
	<circle cx="159.933" cy="45.4716" r="4" fill="#0" id="circle118"/>
	<circle cx="161.592" cy="31.3712" r="4" fill="#0" id="circle119"/>
	<circle cx="165.739" cy="18.9298" r="4" fill="#0" id="circle120"/>
	<circle cx="165.739" cy="989.365" r="4" fill="#0" id="circle121"/>
	<circle cx="172.375" cy="12.2943" r="4" fill="#0" id="circle122"/>
	<circle cx="174.033" cy="991.853" r="4" fill="#0" id="circle123"/>
	<circle cx="179.01" cy="5.65886" r="4" fill="#0" id="circle124"/>
	<circle cx="181.498" cy="996" r="4" fill="#0" id="circle125"/>
	<circle cx="187.304" cy="4" r="4" fill="#0" id="circle126"/>
	<circle cx="188.963" cy="991.853" r="4" fill="#0" id="circle127"/>
	<circle cx="193.94" cy="8.97659" r="4" fill="#0" id="circle128"/>
	<circle cx="197.258" cy="991.023" r="4" fill="#0" id="circle129"/>
	<circle cx="199.746" cy="15.612" r="4" fill="#0" id="circle130"/>
	<circle cx="199.746" cy="23.9064" r="4" fill="#0" id="circle131"/>
	<circle cx="203.893" cy="31.3712" r="4" fill="#0" id="circle132"/>
	<circle cx="203.893" cy="983.559" r="4" fill="#0" id="circle133"/>
	<circle cx="207.211" cy="39.6656" r="4" fill="#0" id="circle134"/>
	<circle cx="208.04" cy="47.9599" r="4" fill="#0" id="circle135"/>
	<circle cx="212.187" cy="55.4247" r="4" fill="#0" id="circle136"/>
	<circle cx="212.187" cy="979.411" r="4" fill="#0" id="circle137"/>
	<circle cx="216.334" cy="62.8896" r="4" fill="#0" id="circle138"/>
	<circle cx="217.993" cy="71.1839" r="4" fill="#0" id="circle139"/>
	<circle cx="218.823" cy="973.605" r="4" fill="#0" id="circle140"/>
	<circle cx="220.482" cy="79.4783" r="4" fill="#0" id="circle141"/>
	<circle cx="220.482" cy="879.88" r="4" fill="#0" id="circle142"/>
	<circle cx="220.482" cy="888.174" r="4" fill="#0" id="circle143"/>
	<circle cx="220.482" cy="896.468" r="4" fill="#0" id="circle144"/>
	<circle cx="220.482" cy="904.763" r="4" fill="#0" id="circle145"/>
	<circle cx="220.482" cy="913.057" r="4" fill="#0" id="circle146"/>
	<circle cx="220.482" cy="921.351" r="4" fill="#0" id="circle147"/>
	<circle cx="222.14" cy="929.645" r="4" fill="#0" id="circle148"/>
	<circle cx="224.629" cy="86.9431" r="4" fill="#0" id="circle149"/>
	<circle cx="224.629" cy="95.2375" r="4" fill="#0" id="circle150"/>
	<circle cx="224.629" cy="867.438" r="4" fill="#0" id="circle151"/>
	<circle cx="224.629" cy="937.94" r="4" fill="#0" id="circle152"/>
	<circle cx="224.629" cy="946.234" r="4" fill="#0" id="circle153"/>
	<circle cx="224.629" cy="954.528" r="4" fill="#0" id="circle154"/>
	<circle cx="224.629" cy="962.823" r="4" fill="#0" id="circle155"/>
	<circle cx="231.264" cy="100.214" r="4" fill="#0" id="circle156"/>
	<circle cx="232.923" cy="149.98" r="4" fill="#0" id="circle157"/>
	<circle cx="232.923" cy="869.097" r="4" fill="#0" id="circle158"/>
	<circle cx="234.582" cy="108.508" r="4" fill="#0" id="circle159"/>
	<circle cx="234.582" cy="158.274" r="4" fill="#0" id="circle160"/>
	<circle cx="237.07" cy="166.569" r="4" fill="#0" id="circle161"/>
	<circle cx="237.07" cy="174.863" r="4" fill="#0" id="circle162"/>
	<circle cx="241.217" cy="114.314" r="4" fill="#0" id="circle163"/>
	<circle cx="241.217" cy="145.833" r="4" fill="#0" id="circle164"/>
	<circle cx="241.217" cy="182.328" r="4" fill="#0" id="circle165"/>
	<circle cx="241.217" cy="190.622" r="4" fill="#0" id="circle166"/>
	<circle cx="241.217" cy="871.585" r="4" fill="#0" id="circle167"/>
	<circle cx="244.535" cy="122.609" r="4" fill="#0" id="circle168"/>
	<circle cx="245.365" cy="198.087" r="4" fill="#0" id="circle169"/>
	<circle cx="245.365" cy="206.381" r="4" fill="#0" id="circle170"/>
	<circle cx="247.853" cy="140.027" r="4" fill="#0" id="circle171"/>
	<circle cx="249.512" cy="129.244" r="4" fill="#0" id="circle172"/>
	<circle cx="249.512" cy="213.846" r="4" fill="#0" id="circle173"/>
	<circle cx="249.512" cy="871.585" r="4" fill="#0" id="circle174"/>
	<circle cx="252.829" cy="222.14" r="4" fill="#0" id="circle175"/>
	<circle cx="253.659" cy="230.435" r="4" fill="#0" id="circle176"/>
	<circle cx="257.806" cy="237.9" r="4" fill="#0" id="circle177"/>
	<circle cx="257.806" cy="246.194" r="4" fill="#0" id="circle178"/>
	<circle cx="257.806" cy="871.585" r="4" fill="#0" id="circle179"/>
	<circle cx="260.294" cy="254.488" r="4" fill="#0" id="circle180"/>
	<circle cx="261.953" cy="262.783" r="4" fill="#0" id="circle181"/>
	<circle cx="261.953" cy="390.515" r="4" fill="#0" id="circle182"/>
	<circle cx="261.953" cy="398.809" r="4" fill="#0" id="circle183"/>
	<circle cx="261.953" cy="407.104" r="4" fill="#0" id="circle184"/>
	<circle cx="261.953" cy="415.398" r="4" fill="#0" id="circle185"/>
	<circle cx="263.612" cy="423.692" r="4" fill="#0" id="circle186"/>
	<circle cx="264.441" cy="271.077" r="4" fill="#0" id="circle187"/>
	<circle cx="266.1" cy="279.371" r="4" fill="#0" id="circle188"/>
	<circle cx="266.1" cy="287.666" r="4" fill="#0" id="circle189"/>
	<circle cx="266.1" cy="373.926" r="4" fill="#0" id="circle190"/>
	<circle cx="266.1" cy="382.221" r="4" fill="#0" id="circle191"/>
	<circle cx="266.1" cy="431.987" r="4" fill="#0" id="circle192"/>
	<circle cx="266.1" cy="440.281" r="4" fill="#0" id="circle193"/>
	<circle cx="266.1" cy="871.585" r="4" fill="#0" id="circle194"/>
	<circle cx="270.247" cy="295.13" r="4" fill="#0" id="circle195"/>
	<circle cx="270.247" cy="365.632" r="4" fill="#0" id="circle196"/>
	<circle cx="270.247" cy="447.746" r="4" fill="#0" id="circle197"/>
	<circle cx="270.247" cy="456.04" r="4" fill="#0" id="circle198"/>
	<circle cx="271.906" cy="303.425" r="4" fill="#0" id="circle199"/>
	<circle cx="274.395" cy="311.719" r="4" fill="#0" id="circle200"/>
	<circle cx="274.395" cy="463.505" r="4" fill="#0" id="circle201"/>
	<circle cx="274.395" cy="471.799" r="4" fill="#0" id="circle202"/>
	<circle cx="274.395" cy="871.585" r="4" fill="#0" id="circle203"/>
	<circle cx="276.883" cy="359.826" r="4" fill="#0" id="circle204"/>
	<circle cx="278.542" cy="319.184" r="4" fill="#0" id="circle205"/>
	<circle cx="278.542" cy="479.264" r="4" fill="#0" id="circle206"/>
	<circle cx="281.86" cy="487.559" r="4" fill="#0" id="circle207"/>
	<circle cx="282.689" cy="326.649" r="4" fill="#0" id="circle208"/>
	<circle cx="282.689" cy="353.191" r="4" fill="#0" id="circle209"/>
	<circle cx="282.689" cy="871.585" r="4" fill="#0" id="circle210"/>
	<circle cx="286.007" cy="495.023" r="4" fill="#0" id="circle211"/>
	<circle cx="286.836" cy="334.114" r="4" fill="#0" id="circle212"/>
	<circle cx="286.836" cy="503.318" r="4" fill="#0" id="circle213"/>
	<circle cx="289.324" cy="347.385" r="4" fill="#0" id="circle214"/>
	<circle cx="289.324" cy="511.612" r="4" fill="#0" id="circle215"/>
	<circle cx="290.983" cy="519.906" r="4" fill="#0" id="circle216"/>
	<circle cx="290.983" cy="871.585" r="4" fill="#0" id="circle217"/>
	<circle cx="293.472" cy="528.201" r="4" fill="#0" id="circle218"/>
	<circle cx="295.13" cy="536.495" r="4" fill="#0" id="circle219"/>
	<circle cx="295.13" cy="544.789" r="4" fill="#0" id="circle220"/>
	<circle cx="295.13" cy="589.579" r="4" fill="#0" id="circle221"/>
	<circle cx="295.13" cy="597.873" r="4" fill="#0" id="circle222"/>
	<circle cx="295.13" cy="606.167" r="4" fill="#0" id="circle223"/>
	<circle cx="295.13" cy="614.462" r="4" fill="#0" id="circle224"/>
	<circle cx="295.13" cy="622.756" r="4" fill="#0" id="circle225"/>
	<circle cx="295.13" cy="631.05" r="4" fill="#0" id="circle226"/>
	<circle cx="295.13" cy="639.344" r="4" fill="#0" id="circle227"/>
	<circle cx="296.789" cy="647.639" r="4" fill="#0" id="circle228"/>
	<circle cx="299.278" cy="552.254" r="4" fill="#0" id="circle229"/>
	<circle cx="299.278" cy="655.933" r="4" fill="#0" id="circle230"/>
	<circle cx="299.278" cy="664.227" r="4" fill="#0" id="circle231"/>
	<circle cx="299.278" cy="871.585" r="4" fill="#0" id="circle232"/>
	<circle cx="300.936" cy="560.548" r="4" fill="#0" id="circle233"/>
	<circle cx="300.936" cy="672.522" r="4" fill="#0" id="circle234"/>
	<circle cx="301.766" cy="583.773" r="4" fill="#0" id="circle235"/>
	<circle cx="303.425" cy="680.816" r="4" fill="#0" id="circle236"/>
	<circle cx="303.425" cy="689.11" r="4" fill="#0" id="circle237"/>
	<circle cx="303.425" cy="697.405" r="4" fill="#0" id="circle238"/>
	<circle cx="305.084" cy="568.013" r="4" fill="#0" id="circle239"/>
	<circle cx="307.572" cy="576.308" r="4" fill="#0" id="circle240"/>
	<circle cx="307.572" cy="704.87" r="4" fill="#0" id="circle241"/>
	<circle cx="307.572" cy="713.164" r="4" fill="#0" id="circle242"/>
	<circle cx="307.572" cy="721.458" r="4" fill="#0" id="circle243"/>
	<circle cx="307.572" cy="871.585" r="4" fill="#0" id="circle244"/>
	<circle cx="311.719" cy="728.923" r="4" fill="#0" id="circle245"/>
	<circle cx="311.719" cy="737.217" r="4" fill="#0" id="circle246"/>
	<circle cx="315.866" cy="744.682" r="4" fill="#0" id="circle247"/>
	<circle cx="315.866" cy="752.977" r="4" fill="#0" id="circle248"/>
	<circle cx="315.866" cy="871.585" r="4" fill="#0" id="circle249"/>
	<circle cx="319.184" cy="761.271" r="4" fill="#0" id="circle250"/>
	<circle cx="320.013" cy="769.565" r="4" fill="#0" id="circle251"/>
	<circle cx="323.331" cy="777.86" r="4" fill="#0" id="circle252"/>
	<circle cx="324.161" cy="786.154" r="4" fill="#0" id="circle253"/>
	<circle cx="324.161" cy="871.585" r="4" fill="#0" id="circle254"/>
	<circle cx="327.478" cy="794.448" r="4" fill="#0" id="circle255"/>
	<circle cx="331.625" cy="875.732" r="4" fill="#0" id="circle256"/>
	<circle cx="332.455" cy="801.084" r="4" fill="#0" id="circle257"/>
	<circle cx="334.114" cy="809.378" r="4" fill="#0" id="circle258"/>
	<circle cx="336.602" cy="817.672" r="4" fill="#0" id="circle259"/>
	<circle cx="336.602" cy="825.967" r="4" fill="#0" id="circle260"/>
	<circle cx="339.92" cy="873.244" r="4" fill="#0" id="circle261"/>
	<circle cx="340.749" cy="833.431" r="4" fill="#0" id="circle262"/>
	<circle cx="340.749" cy="841.726" r="4" fill="#0" id="circle263"/>
	<circle cx="344.896" cy="849.191" r="4" fill="#0" id="circle264"/>
	<circle cx="346.555" cy="866.609" r="4" fill="#0" id="circle265"/>
	<circle cx="349.043" cy="856.656" r="4" fill="#0" id="circle266"/>
	</g>
</svg>