<?xml version="1.0" encoding="UTF-8" standalone="no"?>
<!-- Created with CurveBenchmark -->
<svg
	xmlns:dc="http://purl.org/dc/elements/1.1/"
	xmlns:cc="http://creativecommons.org/ns#"
	xmlns:rdf="http://www.w3.org/1999/02/22-rdf-syntax-ns#"
	xmlns:svg="http://www.w3.org/2000/svg"
	xmlns="http://www.w3.org/2000/svg"
	xmlns:sodipodi="http://sodipodi.sourceforge.net/DTD/sodipodi-0.dtd"
	xmlns:inkscape="http://www.inkscape.org/namespaces/inkscape"
	width="1000"
	height="1000"
	id="svg2"
	version="1.1"
	sodipodi:docname="manifold/crawl-bed075.png.txt">
<defs
	id="defs4" />
<metadata
	id="metadata7">
	<rdf:RDF>
		<cc:Work
			rdf:about="">
			<dc:format>image/svg+xml</dc:format>
			<dc:type
				rdf:resource="http://purl.org/dc/dcmitype/StillImage" />
			<dc:title></dc:title>
		</cc:Work>
	</rdf:RDF>
</metadata>
<g
	inkscape:label="Layer 1"
	inkscape:groupmode="layer"
	id="layer1">
	<path style="fill:none;stroke:red;stroke-width:1px;stroke-linecap:butt;stroke-linejoin:miter;stroke-opacity:1" d="M 4,375.783 4,393.156 z" id="boundary" inkscape:connector-curvature="0" />
	<path style="fill:none;stroke:red;stroke-width:1px;stroke-linecap:butt;stroke-linejoin:miter;stroke-opacity:1" d="M 4,393.156 4,410.529 z" id="boundary" inkscape:connector-curvature="0" />
	<path style="fill:none;stroke:red;stroke-width:1px;stroke-linecap:butt;stroke-linejoin:miter;stroke-opacity:1" d="M 4,410.529 4,427.902 z" id="boundary" inkscape:connector-curvature="0" />
	<path style="fill:none;stroke:red;stroke-width:1px;stroke-linecap:butt;stroke-linejoin:miter;stroke-opacity:1" d="M 4,427.902 5.7373,445.275 z" id="boundary" inkscape:connector-curvature="0" />
	<path style="fill:none;stroke:red;stroke-width:1px;stroke-linecap:butt;stroke-linejoin:miter;stroke-opacity:1" d="M 5.7373,445.275 7.47461,462.648 z" id="boundary" inkscape:connector-curvature="0" />
	<path style="fill:none;stroke:red;stroke-width:1px;stroke-linecap:butt;stroke-linejoin:miter;stroke-opacity:1" d="M 7.47461,462.648 10.9492,480.021 z" id="boundary" inkscape:connector-curvature="0" />
	<path style="fill:none;stroke:red;stroke-width:1px;stroke-linecap:butt;stroke-linejoin:miter;stroke-opacity:1" d="M 4,375.783 7.47461,354.935 z" id="boundary" inkscape:connector-curvature="0" />
	<path style="fill:none;stroke:red;stroke-width:1px;stroke-linecap:butt;stroke-linejoin:miter;stroke-opacity:1" d="M 7.47461,354.935 7.47461,337.562 z" id="boundary" inkscape:connector-curvature="0" />
	<path style="fill:none;stroke:red;stroke-width:1px;stroke-linecap:butt;stroke-linejoin:miter;stroke-opacity:1" d="M 7.47461,337.562 7.47461,320.189 z" id="boundary" inkscape:connector-curvature="0" />
	<path style="fill:none;stroke:red;stroke-width:1px;stroke-linecap:butt;stroke-linejoin:miter;stroke-opacity:1" d="M 7.47461,320.189 7.47461,302.816 z" id="boundary" inkscape:connector-curvature="0" />
	<path style="fill:none;stroke:red;stroke-width:1px;stroke-linecap:butt;stroke-linejoin:miter;stroke-opacity:1" d="M 7.47461,302.816 10.9492,285.443 z" id="boundary" inkscape:connector-curvature="0" />
	<path style="fill:none;stroke:red;stroke-width:1px;stroke-linecap:butt;stroke-linejoin:miter;stroke-opacity:1" d="M 10.9492,285.443 10.9492,268.07 z" id="boundary" inkscape:connector-curvature="0" />
	<path style="fill:none;stroke:red;stroke-width:1px;stroke-linecap:butt;stroke-linejoin:miter;stroke-opacity:1" d="M 10.9492,268.07 10.9492,250.697 z" id="boundary" inkscape:connector-curvature="0" />
	<path style="fill:none;stroke:red;stroke-width:1px;stroke-linecap:butt;stroke-linejoin:miter;stroke-opacity:1" d="M 10.9492,250.697 10.9492,233.324 z" id="boundary" inkscape:connector-curvature="0" />
	<path style="fill:none;stroke:red;stroke-width:1px;stroke-linecap:butt;stroke-linejoin:miter;stroke-opacity:1" d="M 10.9492,233.324 10.9492,215.951 z" id="boundary" inkscape:connector-curvature="0" />
	<path style="fill:none;stroke:red;stroke-width:1px;stroke-linecap:butt;stroke-linejoin:miter;stroke-opacity:1" d="M 10.9492,215.951 10.9492,198.578 z" id="boundary" inkscape:connector-curvature="0" />
	<path style="fill:none;stroke:red;stroke-width:1px;stroke-linecap:butt;stroke-linejoin:miter;stroke-opacity:1" d="M 10.9492,198.578 10.9492,181.205 z" id="boundary" inkscape:connector-curvature="0" />
	<path style="fill:none;stroke:red;stroke-width:1px;stroke-linecap:butt;stroke-linejoin:miter;stroke-opacity:1" d="M 10.9492,181.205 7.47461,163.832 z" id="boundary" inkscape:connector-curvature="0" />
	<path style="fill:none;stroke:red;stroke-width:1px;stroke-linecap:butt;stroke-linejoin:miter;stroke-opacity:1" d="M 7.47461,163.832 7.47461,146.459 z" id="boundary" inkscape:connector-curvature="0" />
	<path style="fill:none;stroke:red;stroke-width:1px;stroke-linecap:butt;stroke-linejoin:miter;stroke-opacity:1" d="M 7.47461,146.459 7.47461,129.086 z" id="boundary" inkscape:connector-curvature="0" />
	<path style="fill:none;stroke:red;stroke-width:1px;stroke-linecap:butt;stroke-linejoin:miter;stroke-opacity:1" d="M 7.47461,129.086 14.4238,111.713 z" id="boundary" inkscape:connector-curvature="0" />
	<path style="fill:none;stroke:red;stroke-width:1px;stroke-linecap:butt;stroke-linejoin:miter;stroke-opacity:1" d="M 14.4238,111.713 24.8476,97.8144 z" id="boundary" inkscape:connector-curvature="0" />
	<path style="fill:none;stroke:red;stroke-width:1px;stroke-linecap:butt;stroke-linejoin:miter;stroke-opacity:1" d="M 24.8476,97.8144 38.7461,83.9159 z" id="boundary" inkscape:connector-curvature="0" />
	<path style="fill:none;stroke:red;stroke-width:1px;stroke-linecap:butt;stroke-linejoin:miter;stroke-opacity:1" d="M 38.7461,83.9159 52.6445,73.4921 z" id="boundary" inkscape:connector-curvature="0" />
	<path style="fill:none;stroke:red;stroke-width:1px;stroke-linecap:butt;stroke-linejoin:miter;stroke-opacity:1" d="M 52.6445,73.4921 66.5429,63.0683 z" id="boundary" inkscape:connector-curvature="0" />
	<path style="fill:none;stroke:red;stroke-width:1px;stroke-linecap:butt;stroke-linejoin:miter;stroke-opacity:1" d="M 66.5429,63.0683 76.9667,49.1699 z" id="boundary" inkscape:connector-curvature="0" />
	<path style="fill:none;stroke:red;stroke-width:1px;stroke-linecap:butt;stroke-linejoin:miter;stroke-opacity:1" d="M 76.9667,49.1699 87.3905,35.2715 z" id="boundary" inkscape:connector-curvature="0" />
	<path style="fill:none;stroke:red;stroke-width:1px;stroke-linecap:butt;stroke-linejoin:miter;stroke-opacity:1" d="M 87.3905,35.2715 90.8651,17.8984 z" id="boundary" inkscape:connector-curvature="0" />
	<path style="fill:none;stroke:red;stroke-width:1px;stroke-linecap:butt;stroke-linejoin:miter;stroke-opacity:1" d="M 90.8651,17.8984 101.289,4 z" id="boundary" inkscape:connector-curvature="0" />
	<path style="fill:none;stroke:red;stroke-width:1px;stroke-linecap:butt;stroke-linejoin:miter;stroke-opacity:1" d="M 101.289,4 118.662,4 z" id="boundary" inkscape:connector-curvature="0" />
	<path style="fill:none;stroke:red;stroke-width:1px;stroke-linecap:butt;stroke-linejoin:miter;stroke-opacity:1" d="M 118.662,4 123.874,21.373 z" id="boundary" inkscape:connector-curvature="0" />
	<path style="fill:none;stroke:red;stroke-width:1px;stroke-linecap:butt;stroke-linejoin:miter;stroke-opacity:1" d="M 123.874,21.373 129.086,38.7461 z" id="boundary" inkscape:connector-curvature="0" />
	<path style="fill:none;stroke:red;stroke-width:1px;stroke-linecap:butt;stroke-linejoin:miter;stroke-opacity:1" d="M 129.086,38.7461 137.772,54.3818 z" id="boundary" inkscape:connector-curvature="0" />
	<path style="fill:none;stroke:red;stroke-width:1px;stroke-linecap:butt;stroke-linejoin:miter;stroke-opacity:1" d="M 137.772,54.3818 141.247,71.7548 z" id="boundary" inkscape:connector-curvature="0" />
	<path style="fill:none;stroke:red;stroke-width:1px;stroke-linecap:butt;stroke-linejoin:miter;stroke-opacity:1" d="M 141.247,71.7548 155.145,82.1786 z" id="boundary" inkscape:connector-curvature="0" />
	<path style="fill:none;stroke:red;stroke-width:1px;stroke-linecap:butt;stroke-linejoin:miter;stroke-opacity:1" d="M 155.145,82.1786 169.044,94.3398 z" id="boundary" inkscape:connector-curvature="0" />
	<path style="fill:none;stroke:red;stroke-width:1px;stroke-linecap:butt;stroke-linejoin:miter;stroke-opacity:1" d="M 169.044,94.3398 179.468,108.238 z" id="boundary" inkscape:connector-curvature="0" />
	<path style="fill:none;stroke:red;stroke-width:1px;stroke-linecap:butt;stroke-linejoin:miter;stroke-opacity:1" d="M 179.468,108.238 188.154,123.874 z" id="boundary" inkscape:connector-curvature="0" />
	<path style="fill:none;stroke:red;stroke-width:1px;stroke-linecap:butt;stroke-linejoin:miter;stroke-opacity:1" d="M 188.154,123.874 189.891,141.247 z" id="boundary" inkscape:connector-curvature="0" />
	<path style="fill:none;stroke:red;stroke-width:1px;stroke-linecap:butt;stroke-linejoin:miter;stroke-opacity:1" d="M 189.891,141.247 182.942,167.306 z" id="boundary" inkscape:connector-curvature="0" />
	<path style="fill:none;stroke:red;stroke-width:1px;stroke-linecap:butt;stroke-linejoin:miter;stroke-opacity:1" d="M 182.942,167.306 182.942,184.68 z" id="boundary" inkscape:connector-curvature="0" />
	<path style="fill:none;stroke:red;stroke-width:1px;stroke-linecap:butt;stroke-linejoin:miter;stroke-opacity:1" d="M 182.942,184.68 200.315,191.629 z" id="boundary" inkscape:connector-curvature="0" />
	<path style="fill:none;stroke:red;stroke-width:1px;stroke-linecap:butt;stroke-linejoin:miter;stroke-opacity:1" d="M 200.315,191.629 217.688,191.629 z" id="boundary" inkscape:connector-curvature="0" />
	<path style="fill:none;stroke:red;stroke-width:1px;stroke-linecap:butt;stroke-linejoin:miter;stroke-opacity:1" d="M 217.688,191.629 235.061,198.578 z" id="boundary" inkscape:connector-curvature="0" />
	<path style="fill:none;stroke:red;stroke-width:1px;stroke-linecap:butt;stroke-linejoin:miter;stroke-opacity:1" d="M 235.061,198.578 248.96,209.002 z" id="boundary" inkscape:connector-curvature="0" />
	<path style="fill:none;stroke:red;stroke-width:1px;stroke-linecap:butt;stroke-linejoin:miter;stroke-opacity:1" d="M 248.96,209.002 264.595,217.688 z" id="boundary" inkscape:connector-curvature="0" />
	<path style="fill:none;stroke:red;stroke-width:1px;stroke-linecap:butt;stroke-linejoin:miter;stroke-opacity:1" d="M 264.595,217.688 281.968,215.951 z" id="boundary" inkscape:connector-curvature="0" />
	<path style="fill:none;stroke:red;stroke-width:1px;stroke-linecap:butt;stroke-linejoin:miter;stroke-opacity:1" d="M 281.968,215.951 299.342,212.476 z" id="boundary" inkscape:connector-curvature="0" />
	<path style="fill:none;stroke:red;stroke-width:1px;stroke-linecap:butt;stroke-linejoin:miter;stroke-opacity:1" d="M 299.342,212.476 316.715,212.476 z" id="boundary" inkscape:connector-curvature="0" />
	<path style="fill:none;stroke:red;stroke-width:1px;stroke-linecap:butt;stroke-linejoin:miter;stroke-opacity:1" d="M 316.715,212.476 334.088,215.951 z" id="boundary" inkscape:connector-curvature="0" />
	<path style="fill:none;stroke:red;stroke-width:1px;stroke-linecap:butt;stroke-linejoin:miter;stroke-opacity:1" d="M 334.088,215.951 351.461,222.9 z" id="boundary" inkscape:connector-curvature="0" />
	<path style="fill:none;stroke:red;stroke-width:1px;stroke-linecap:butt;stroke-linejoin:miter;stroke-opacity:1" d="M 351.461,222.9 368.834,229.849 z" id="boundary" inkscape:connector-curvature="0" />
	<path style="fill:none;stroke:red;stroke-width:1px;stroke-linecap:butt;stroke-linejoin:miter;stroke-opacity:1" d="M 368.834,229.849 384.469,238.536 z" id="boundary" inkscape:connector-curvature="0" />
	<path style="fill:none;stroke:red;stroke-width:1px;stroke-linecap:butt;stroke-linejoin:miter;stroke-opacity:1" d="M 384.469,238.536 398.368,248.96 z" id="boundary" inkscape:connector-curvature="0" />
	<path style="fill:none;stroke:red;stroke-width:1px;stroke-linecap:butt;stroke-linejoin:miter;stroke-opacity:1" d="M 398.368,248.96 412.266,261.121 z" id="boundary" inkscape:connector-curvature="0" />
	<path style="fill:none;stroke:red;stroke-width:1px;stroke-linecap:butt;stroke-linejoin:miter;stroke-opacity:1" d="M 412.266,261.121 422.69,275.019 z" id="boundary" inkscape:connector-curvature="0" />
	<path style="fill:none;stroke:red;stroke-width:1px;stroke-linecap:butt;stroke-linejoin:miter;stroke-opacity:1" d="M 422.69,275.019 433.114,288.918 z" id="boundary" inkscape:connector-curvature="0" />
	<path style="fill:none;stroke:red;stroke-width:1px;stroke-linecap:butt;stroke-linejoin:miter;stroke-opacity:1" d="M 433.114,288.918 443.538,302.816 z" id="boundary" inkscape:connector-curvature="0" />
	<path style="fill:none;stroke:red;stroke-width:1px;stroke-linecap:butt;stroke-linejoin:miter;stroke-opacity:1" d="M 443.538,302.816 460.911,309.765 z" id="boundary" inkscape:connector-curvature="0" />
	<path style="fill:none;stroke:red;stroke-width:1px;stroke-linecap:butt;stroke-linejoin:miter;stroke-opacity:1" d="M 460.911,309.765 478.284,309.765 z" id="boundary" inkscape:connector-curvature="0" />
	<path style="fill:none;stroke:red;stroke-width:1px;stroke-linecap:butt;stroke-linejoin:miter;stroke-opacity:1" d="M 478.284,309.765 495.657,309.765 z" id="boundary" inkscape:connector-curvature="0" />
	<path style="fill:none;stroke:red;stroke-width:1px;stroke-linecap:butt;stroke-linejoin:miter;stroke-opacity:1" d="M 495.657,309.765 513.03,309.765 z" id="boundary" inkscape:connector-curvature="0" />
	<path style="fill:none;stroke:red;stroke-width:1px;stroke-linecap:butt;stroke-linejoin:miter;stroke-opacity:1" d="M 513.03,309.765 530.403,309.765 z" id="boundary" inkscape:connector-curvature="0" />
	<path style="fill:none;stroke:red;stroke-width:1px;stroke-linecap:butt;stroke-linejoin:miter;stroke-opacity:1" d="M 530.403,309.765 547.776,309.765 z" id="boundary" inkscape:connector-curvature="0" />
	<path style="fill:none;stroke:red;stroke-width:1px;stroke-linecap:butt;stroke-linejoin:miter;stroke-opacity:1" d="M 547.776,309.765 565.149,309.765 z" id="boundary" inkscape:connector-curvature="0" />
	<path style="fill:none;stroke:red;stroke-width:1px;stroke-linecap:butt;stroke-linejoin:miter;stroke-opacity:1" d="M 565.149,309.765 582.522,309.765 z" id="boundary" inkscape:connector-curvature="0" />
	<path style="fill:none;stroke:red;stroke-width:1px;stroke-linecap:butt;stroke-linejoin:miter;stroke-opacity:1" d="M 582.522,309.765 599.895,309.765 z" id="boundary" inkscape:connector-curvature="0" />
	<path style="fill:none;stroke:red;stroke-width:1px;stroke-linecap:butt;stroke-linejoin:miter;stroke-opacity:1" d="M 599.895,309.765 617.268,309.765 z" id="boundary" inkscape:connector-curvature="0" />
	<path style="fill:none;stroke:red;stroke-width:1px;stroke-linecap:butt;stroke-linejoin:miter;stroke-opacity:1" d="M 617.268,309.765 634.641,309.765 z" id="boundary" inkscape:connector-curvature="0" />
	<path style="fill:none;stroke:red;stroke-width:1px;stroke-linecap:butt;stroke-linejoin:miter;stroke-opacity:1" d="M 634.641,309.765 652.014,309.765 z" id="boundary" inkscape:connector-curvature="0" />
	<path style="fill:none;stroke:red;stroke-width:1px;stroke-linecap:butt;stroke-linejoin:miter;stroke-opacity:1" d="M 652.014,309.765 669.387,309.765 z" id="boundary" inkscape:connector-curvature="0" />
	<path style="fill:none;stroke:red;stroke-width:1px;stroke-linecap:butt;stroke-linejoin:miter;stroke-opacity:1" d="M 669.387,309.765 686.76,309.765 z" id="boundary" inkscape:connector-curvature="0" />
	<path style="fill:none;stroke:red;stroke-width:1px;stroke-linecap:butt;stroke-linejoin:miter;stroke-opacity:1" d="M 686.76,309.765 704.133,313.24 z" id="boundary" inkscape:connector-curvature="0" />
	<path style="fill:none;stroke:red;stroke-width:1px;stroke-linecap:butt;stroke-linejoin:miter;stroke-opacity:1" d="M 704.133,313.24 721.506,313.24 z" id="boundary" inkscape:connector-curvature="0" />
	<path style="fill:none;stroke:red;stroke-width:1px;stroke-linecap:butt;stroke-linejoin:miter;stroke-opacity:1" d="M 721.506,313.24 738.879,313.24 z" id="boundary" inkscape:connector-curvature="0" />
	<path style="fill:none;stroke:red;stroke-width:1px;stroke-linecap:butt;stroke-linejoin:miter;stroke-opacity:1" d="M 738.879,313.24 756.252,313.24 z" id="boundary" inkscape:connector-curvature="0" />
	<path style="fill:none;stroke:red;stroke-width:1px;stroke-linecap:butt;stroke-linejoin:miter;stroke-opacity:1" d="M 756.252,313.24 773.625,313.24 z" id="boundary" inkscape:connector-curvature="0" />
	<path style="fill:none;stroke:red;stroke-width:1px;stroke-linecap:butt;stroke-linejoin:miter;stroke-opacity:1" d="M 773.625,313.24 790.998,313.24 z" id="boundary" inkscape:connector-curvature="0" />
	<path style="fill:none;stroke:red;stroke-width:1px;stroke-linecap:butt;stroke-linejoin:miter;stroke-opacity:1" d="M 790.998,313.24 808.371,304.553 z" id="boundary" inkscape:connector-curvature="0" />
	<path style="fill:none;stroke:red;stroke-width:1px;stroke-linecap:butt;stroke-linejoin:miter;stroke-opacity:1" d="M 808.371,304.553 822.27,290.655 z" id="boundary" inkscape:connector-curvature="0" />
	<path style="fill:none;stroke:red;stroke-width:1px;stroke-linecap:butt;stroke-linejoin:miter;stroke-opacity:1" d="M 822.27,290.655 837.905,281.968 z" id="boundary" inkscape:connector-curvature="0" />
	<path style="fill:none;stroke:red;stroke-width:1px;stroke-linecap:butt;stroke-linejoin:miter;stroke-opacity:1" d="M 837.905,281.968 855.278,278.494 z" id="boundary" inkscape:connector-curvature="0" />
	<path style="fill:none;stroke:red;stroke-width:1px;stroke-linecap:butt;stroke-linejoin:miter;stroke-opacity:1" d="M 855.278,278.494 865.702,261.121 z" id="boundary" inkscape:connector-curvature="0" />
	<path style="fill:none;stroke:red;stroke-width:1px;stroke-linecap:butt;stroke-linejoin:miter;stroke-opacity:1" d="M 865.702,261.121 876.126,247.222 z" id="boundary" inkscape:connector-curvature="0" />
	<path style="fill:none;stroke:red;stroke-width:1px;stroke-linecap:butt;stroke-linejoin:miter;stroke-opacity:1" d="M 876.126,247.222 886.55,233.324 z" id="boundary" inkscape:connector-curvature="0" />
	<path style="fill:none;stroke:red;stroke-width:1px;stroke-linecap:butt;stroke-linejoin:miter;stroke-opacity:1" d="M 886.55,233.324 903.923,233.324 z" id="boundary" inkscape:connector-curvature="0" />
	<path style="fill:none;stroke:red;stroke-width:1px;stroke-linecap:butt;stroke-linejoin:miter;stroke-opacity:1" d="M 903.923,233.324 912.609,248.96 z" id="boundary" inkscape:connector-curvature="0" />
	<path style="fill:none;stroke:red;stroke-width:1px;stroke-linecap:butt;stroke-linejoin:miter;stroke-opacity:1" d="M 912.609,248.96 923.033,262.858 z" id="boundary" inkscape:connector-curvature="0" />
	<path style="fill:none;stroke:red;stroke-width:1px;stroke-linecap:butt;stroke-linejoin:miter;stroke-opacity:1" d="M 923.033,262.858 931.72,278.494 z" id="boundary" inkscape:connector-curvature="0" />
	<path style="fill:none;stroke:red;stroke-width:1px;stroke-linecap:butt;stroke-linejoin:miter;stroke-opacity:1" d="M 931.72,278.494 949.093,283.706 z" id="boundary" inkscape:connector-curvature="0" />
	<path style="fill:none;stroke:red;stroke-width:1px;stroke-linecap:butt;stroke-linejoin:miter;stroke-opacity:1" d="M 949.093,283.706 964.729,292.392 z" id="boundary" inkscape:connector-curvature="0" />
	<path style="fill:none;stroke:red;stroke-width:1px;stroke-linecap:butt;stroke-linejoin:miter;stroke-opacity:1" d="M 964.729,292.392 978.627,302.816 z" id="boundary" inkscape:connector-curvature="0" />
	<path style="fill:none;stroke:red;stroke-width:1px;stroke-linecap:butt;stroke-linejoin:miter;stroke-opacity:1" d="M 978.627,302.816 989.051,316.715 z" id="boundary" inkscape:connector-curvature="0" />
	<path style="fill:none;stroke:red;stroke-width:1px;stroke-linecap:butt;stroke-linejoin:miter;stroke-opacity:1" d="M 989.051,316.715 996,334.088 z" id="boundary" inkscape:connector-curvature="0" />
	<path style="fill:none;stroke:red;stroke-width:1px;stroke-linecap:butt;stroke-linejoin:miter;stroke-opacity:1" d="M 10.9492,480.021 14.4238,507.818 z" id="boundary" inkscape:connector-curvature="0" />
	<path style="fill:none;stroke:red;stroke-width:1px;stroke-linecap:butt;stroke-linejoin:miter;stroke-opacity:1" d="M 14.4238,507.818 14.4238,525.191 z" id="boundary" inkscape:connector-curvature="0" />
	<path style="fill:none;stroke:red;stroke-width:1px;stroke-linecap:butt;stroke-linejoin:miter;stroke-opacity:1" d="M 14.4238,525.191 24.8476,539.089 z" id="boundary" inkscape:connector-curvature="0" />
	<path style="fill:none;stroke:red;stroke-width:1px;stroke-linecap:butt;stroke-linejoin:miter;stroke-opacity:1" d="M 24.8476,539.089 42.2207,533.877 z" id="boundary" inkscape:connector-curvature="0" />
	<path style="fill:none;stroke:red;stroke-width:1px;stroke-linecap:butt;stroke-linejoin:miter;stroke-opacity:1" d="M 42.2207,533.877 37.0088,514.767 z" id="boundary" inkscape:connector-curvature="0" />
	<path style="fill:none;stroke:red;stroke-width:1px;stroke-linecap:butt;stroke-linejoin:miter;stroke-opacity:1" d="M 37.0088,514.767 40.4834,486.97 z" id="boundary" inkscape:connector-curvature="0" />
	<path style="fill:none;stroke:red;stroke-width:1px;stroke-linecap:butt;stroke-linejoin:miter;stroke-opacity:1" d="M 40.4834,486.97 40.4834,469.597 z" id="boundary" inkscape:connector-curvature="0" />
	<path style="fill:none;stroke:red;stroke-width:1px;stroke-linecap:butt;stroke-linejoin:miter;stroke-opacity:1" d="M 40.4834,469.597 57.8564,467.86 z" id="boundary" inkscape:connector-curvature="0" />
	<path style="fill:none;stroke:red;stroke-width:1px;stroke-linecap:butt;stroke-linejoin:miter;stroke-opacity:1" d="M 57.8564,467.86 75.2294,471.335 z" id="boundary" inkscape:connector-curvature="0" />
	<path style="fill:none;stroke:red;stroke-width:1px;stroke-linecap:butt;stroke-linejoin:miter;stroke-opacity:1" d="M 75.2294,471.335 92.6025,471.335 z" id="boundary" inkscape:connector-curvature="0" />
	<path style="fill:none;stroke:red;stroke-width:1px;stroke-linecap:butt;stroke-linejoin:miter;stroke-opacity:1" d="M 92.6025,471.335 109.975,471.335 z" id="boundary" inkscape:connector-curvature="0" />
	<path style="fill:none;stroke:red;stroke-width:1px;stroke-linecap:butt;stroke-linejoin:miter;stroke-opacity:1" d="M 109.975,471.335 127.349,471.335 z" id="boundary" inkscape:connector-curvature="0" />
	<path style="fill:none;stroke:red;stroke-width:1px;stroke-linecap:butt;stroke-linejoin:miter;stroke-opacity:1" d="M 127.349,471.335 144.722,471.335 z" id="boundary" inkscape:connector-curvature="0" />
	<path style="fill:none;stroke:red;stroke-width:1px;stroke-linecap:butt;stroke-linejoin:miter;stroke-opacity:1" d="M 144.722,471.335 160.357,480.021 z" id="boundary" inkscape:connector-curvature="0" />
	<path style="fill:none;stroke:red;stroke-width:1px;stroke-linecap:butt;stroke-linejoin:miter;stroke-opacity:1" d="M 160.357,480.021 163.832,504.343 z" id="boundary" inkscape:connector-curvature="0" />
	<path style="fill:none;stroke:red;stroke-width:1px;stroke-linecap:butt;stroke-linejoin:miter;stroke-opacity:1" d="M 163.832,504.343 163.832,521.716 z" id="boundary" inkscape:connector-curvature="0" />
	<path style="fill:none;stroke:red;stroke-width:1px;stroke-linecap:butt;stroke-linejoin:miter;stroke-opacity:1" d="M 163.832,521.716 172.518,537.352 z" id="boundary" inkscape:connector-curvature="0" />
	<path style="fill:none;stroke:red;stroke-width:1px;stroke-linecap:butt;stroke-linejoin:miter;stroke-opacity:1" d="M 172.518,537.352 189.891,532.14 z" id="boundary" inkscape:connector-curvature="0" />
	<path style="fill:none;stroke:red;stroke-width:1px;stroke-linecap:butt;stroke-linejoin:miter;stroke-opacity:1" d="M 189.891,532.14 182.942,514.767 z" id="boundary" inkscape:connector-curvature="0" />
	<path style="fill:none;stroke:red;stroke-width:1px;stroke-linecap:butt;stroke-linejoin:miter;stroke-opacity:1" d="M 182.942,514.767 188.154,488.708 z" id="boundary" inkscape:connector-curvature="0" />
	<path style="fill:none;stroke:red;stroke-width:1px;stroke-linecap:butt;stroke-linejoin:miter;stroke-opacity:1" d="M 188.154,488.708 188.154,471.335 z" id="boundary" inkscape:connector-curvature="0" />
	<path style="fill:none;stroke:red;stroke-width:1px;stroke-linecap:butt;stroke-linejoin:miter;stroke-opacity:1" d="M 188.154,471.335 205.527,471.335 z" id="boundary" inkscape:connector-curvature="0" />
	<path style="fill:none;stroke:red;stroke-width:1px;stroke-linecap:butt;stroke-linejoin:miter;stroke-opacity:1" d="M 205.527,471.335 222.9,471.335 z" id="boundary" inkscape:connector-curvature="0" />
	<path style="fill:none;stroke:red;stroke-width:1px;stroke-linecap:butt;stroke-linejoin:miter;stroke-opacity:1" d="M 222.9,471.335 240.273,471.335 z" id="boundary" inkscape:connector-curvature="0" />
	<path style="fill:none;stroke:red;stroke-width:1px;stroke-linecap:butt;stroke-linejoin:miter;stroke-opacity:1" d="M 240.273,471.335 257.646,471.335 z" id="boundary" inkscape:connector-curvature="0" />
	<path style="fill:none;stroke:red;stroke-width:1px;stroke-linecap:butt;stroke-linejoin:miter;stroke-opacity:1" d="M 257.646,471.335 275.019,471.335 z" id="boundary" inkscape:connector-curvature="0" />
	<path style="fill:none;stroke:red;stroke-width:1px;stroke-linecap:butt;stroke-linejoin:miter;stroke-opacity:1" d="M 275.019,471.335 292.392,471.335 z" id="boundary" inkscape:connector-curvature="0" />
	<path style="fill:none;stroke:red;stroke-width:1px;stroke-linecap:butt;stroke-linejoin:miter;stroke-opacity:1" d="M 292.392,471.335 309.765,471.335 z" id="boundary" inkscape:connector-curvature="0" />
	<path style="fill:none;stroke:red;stroke-width:1px;stroke-linecap:butt;stroke-linejoin:miter;stroke-opacity:1" d="M 309.765,471.335 327.138,471.335 z" id="boundary" inkscape:connector-curvature="0" />
	<path style="fill:none;stroke:red;stroke-width:1px;stroke-linecap:butt;stroke-linejoin:miter;stroke-opacity:1" d="M 327.138,471.335 344.511,471.335 z" id="boundary" inkscape:connector-curvature="0" />
	<path style="fill:none;stroke:red;stroke-width:1px;stroke-linecap:butt;stroke-linejoin:miter;stroke-opacity:1" d="M 344.511,471.335 361.884,471.335 z" id="boundary" inkscape:connector-curvature="0" />
	<path style="fill:none;stroke:red;stroke-width:1px;stroke-linecap:butt;stroke-linejoin:miter;stroke-opacity:1" d="M 361.884,471.335 379.257,471.335 z" id="boundary" inkscape:connector-curvature="0" />
	<path style="fill:none;stroke:red;stroke-width:1px;stroke-linecap:butt;stroke-linejoin:miter;stroke-opacity:1" d="M 379.257,471.335 396.63,471.335 z" id="boundary" inkscape:connector-curvature="0" />
	<path style="fill:none;stroke:red;stroke-width:1px;stroke-linecap:butt;stroke-linejoin:miter;stroke-opacity:1" d="M 396.63,471.335 414.004,471.335 z" id="boundary" inkscape:connector-curvature="0" />
	<path style="fill:none;stroke:red;stroke-width:1px;stroke-linecap:butt;stroke-linejoin:miter;stroke-opacity:1" d="M 414.004,471.335 431.377,471.335 z" id="boundary" inkscape:connector-curvature="0" />
	<path style="fill:none;stroke:red;stroke-width:1px;stroke-linecap:butt;stroke-linejoin:miter;stroke-opacity:1" d="M 431.377,471.335 448.75,471.335 z" id="boundary" inkscape:connector-curvature="0" />
	<path style="fill:none;stroke:red;stroke-width:1px;stroke-linecap:butt;stroke-linejoin:miter;stroke-opacity:1" d="M 448.75,471.335 466.123,471.335 z" id="boundary" inkscape:connector-curvature="0" />
	<path style="fill:none;stroke:red;stroke-width:1px;stroke-linecap:butt;stroke-linejoin:miter;stroke-opacity:1" d="M 466.123,471.335 483.496,471.335 z" id="boundary" inkscape:connector-curvature="0" />
	<path style="fill:none;stroke:red;stroke-width:1px;stroke-linecap:butt;stroke-linejoin:miter;stroke-opacity:1" d="M 483.496,471.335 500.869,471.335 z" id="boundary" inkscape:connector-curvature="0" />
	<path style="fill:none;stroke:red;stroke-width:1px;stroke-linecap:butt;stroke-linejoin:miter;stroke-opacity:1" d="M 500.869,471.335 518.242,471.335 z" id="boundary" inkscape:connector-curvature="0" />
	<path style="fill:none;stroke:red;stroke-width:1px;stroke-linecap:butt;stroke-linejoin:miter;stroke-opacity:1" d="M 518.242,471.335 535.615,471.335 z" id="boundary" inkscape:connector-curvature="0" />
	<path style="fill:none;stroke:red;stroke-width:1px;stroke-linecap:butt;stroke-linejoin:miter;stroke-opacity:1" d="M 535.615,471.335 552.988,471.335 z" id="boundary" inkscape:connector-curvature="0" />
	<path style="fill:none;stroke:red;stroke-width:1px;stroke-linecap:butt;stroke-linejoin:miter;stroke-opacity:1" d="M 552.988,471.335 570.361,471.335 z" id="boundary" inkscape:connector-curvature="0" />
	<path style="fill:none;stroke:red;stroke-width:1px;stroke-linecap:butt;stroke-linejoin:miter;stroke-opacity:1" d="M 570.361,471.335 587.734,471.335 z" id="boundary" inkscape:connector-curvature="0" />
	<path style="fill:none;stroke:red;stroke-width:1px;stroke-linecap:butt;stroke-linejoin:miter;stroke-opacity:1" d="M 587.734,471.335 605.107,471.335 z" id="boundary" inkscape:connector-curvature="0" />
	<path style="fill:none;stroke:red;stroke-width:1px;stroke-linecap:butt;stroke-linejoin:miter;stroke-opacity:1" d="M 605.107,471.335 622.48,471.335 z" id="boundary" inkscape:connector-curvature="0" />
	<path style="fill:none;stroke:red;stroke-width:1px;stroke-linecap:butt;stroke-linejoin:miter;stroke-opacity:1" d="M 622.48,471.335 639.853,471.335 z" id="boundary" inkscape:connector-curvature="0" />
	<path style="fill:none;stroke:red;stroke-width:1px;stroke-linecap:butt;stroke-linejoin:miter;stroke-opacity:1" d="M 639.853,471.335 657.226,471.335 z" id="boundary" inkscape:connector-curvature="0" />
	<path style="fill:none;stroke:red;stroke-width:1px;stroke-linecap:butt;stroke-linejoin:miter;stroke-opacity:1" d="M 657.226,471.335 674.599,471.335 z" id="boundary" inkscape:connector-curvature="0" />
	<path style="fill:none;stroke:red;stroke-width:1px;stroke-linecap:butt;stroke-linejoin:miter;stroke-opacity:1" d="M 674.599,471.335 691.972,471.335 z" id="boundary" inkscape:connector-curvature="0" />
	<path style="fill:none;stroke:red;stroke-width:1px;stroke-linecap:butt;stroke-linejoin:miter;stroke-opacity:1" d="M 691.972,471.335 709.345,471.335 z" id="boundary" inkscape:connector-curvature="0" />
	<path style="fill:none;stroke:red;stroke-width:1px;stroke-linecap:butt;stroke-linejoin:miter;stroke-opacity:1" d="M 709.345,471.335 726.718,471.335 z" id="boundary" inkscape:connector-curvature="0" />
	<path style="fill:none;stroke:red;stroke-width:1px;stroke-linecap:butt;stroke-linejoin:miter;stroke-opacity:1" d="M 726.718,471.335 744.091,471.335 z" id="boundary" inkscape:connector-curvature="0" />
	<path style="fill:none;stroke:red;stroke-width:1px;stroke-linecap:butt;stroke-linejoin:miter;stroke-opacity:1" d="M 744.091,471.335 761.464,471.335 z" id="boundary" inkscape:connector-curvature="0" />
	<path style="fill:none;stroke:red;stroke-width:1px;stroke-linecap:butt;stroke-linejoin:miter;stroke-opacity:1" d="M 761.464,471.335 778.837,471.335 z" id="boundary" inkscape:connector-curvature="0" />
	<path style="fill:none;stroke:red;stroke-width:1px;stroke-linecap:butt;stroke-linejoin:miter;stroke-opacity:1" d="M 778.837,471.335 796.21,473.072 z" id="boundary" inkscape:connector-curvature="0" />
	<path style="fill:none;stroke:red;stroke-width:1px;stroke-linecap:butt;stroke-linejoin:miter;stroke-opacity:1" d="M 796.21,473.072 799.685,490.445 z" id="boundary" inkscape:connector-curvature="0" />
	<path style="fill:none;stroke:red;stroke-width:1px;stroke-linecap:butt;stroke-linejoin:miter;stroke-opacity:1" d="M 799.685,490.445 803.159,507.818 z" id="boundary" inkscape:connector-curvature="0" />
	<path style="fill:none;stroke:red;stroke-width:1px;stroke-linecap:butt;stroke-linejoin:miter;stroke-opacity:1" d="M 803.159,507.818 803.159,525.191 z" id="boundary" inkscape:connector-curvature="0" />
	<path style="fill:none;stroke:red;stroke-width:1px;stroke-linecap:butt;stroke-linejoin:miter;stroke-opacity:1" d="M 803.159,525.191 811.846,540.827 z" id="boundary" inkscape:connector-curvature="0" />
	<path style="fill:none;stroke:red;stroke-width:1px;stroke-linecap:butt;stroke-linejoin:miter;stroke-opacity:1" d="M 811.846,540.827 829.219,532.14 z" id="boundary" inkscape:connector-curvature="0" />
	<path style="fill:none;stroke:red;stroke-width:1px;stroke-linecap:butt;stroke-linejoin:miter;stroke-opacity:1" d="M 829.219,532.14 825.744,514.767 z" id="boundary" inkscape:connector-curvature="0" />
	<path style="fill:none;stroke:red;stroke-width:1px;stroke-linecap:butt;stroke-linejoin:miter;stroke-opacity:1" d="M 825.744,514.767 844.855,492.182 z" id="boundary" inkscape:connector-curvature="0" />
	<path style="fill:none;stroke:red;stroke-width:1px;stroke-linecap:butt;stroke-linejoin:miter;stroke-opacity:1" d="M 844.855,492.182 829.219,483.496 z" id="boundary" inkscape:connector-curvature="0" />
	<path style="fill:none;stroke:red;stroke-width:1px;stroke-linecap:butt;stroke-linejoin:miter;stroke-opacity:1" d="M 829.219,483.496 858.753,480.021 z" id="boundary" inkscape:connector-curvature="0" />
	<path style="fill:none;stroke:red;stroke-width:1px;stroke-linecap:butt;stroke-linejoin:miter;stroke-opacity:1" d="M 858.753,480.021 872.651,490.445 z" id="boundary" inkscape:connector-curvature="0" />
	<path style="fill:none;stroke:red;stroke-width:1px;stroke-linecap:butt;stroke-linejoin:miter;stroke-opacity:1" d="M 872.651,490.445 883.075,504.343 z" id="boundary" inkscape:connector-curvature="0" />
	<path style="fill:none;stroke:red;stroke-width:1px;stroke-linecap:butt;stroke-linejoin:miter;stroke-opacity:1" d="M 883.075,504.343 900.448,509.555 z" id="boundary" inkscape:connector-curvature="0" />
	<path style="fill:none;stroke:red;stroke-width:1px;stroke-linecap:butt;stroke-linejoin:miter;stroke-opacity:1" d="M 900.448,509.555 916.084,500.869 z" id="boundary" inkscape:connector-curvature="0" />
	<path style="fill:none;stroke:red;stroke-width:1px;stroke-linecap:butt;stroke-linejoin:miter;stroke-opacity:1" d="M 916.084,500.869 926.508,486.97 z" id="boundary" inkscape:connector-curvature="0" />
	<path style="fill:none;stroke:red;stroke-width:1px;stroke-linecap:butt;stroke-linejoin:miter;stroke-opacity:1" d="M 926.508,486.97 943.881,488.708 z" id="boundary" inkscape:connector-curvature="0" />
	<path style="fill:none;stroke:red;stroke-width:1px;stroke-linecap:butt;stroke-linejoin:miter;stroke-opacity:1" d="M 943.881,488.708 961.254,486.97 z" id="boundary" inkscape:connector-curvature="0" />
	<path style="fill:none;stroke:red;stroke-width:1px;stroke-linecap:butt;stroke-linejoin:miter;stroke-opacity:1" d="M 961.254,486.97 966.466,504.343 z" id="boundary" inkscape:connector-curvature="0" />
	<path style="fill:none;stroke:red;stroke-width:1px;stroke-linecap:butt;stroke-linejoin:miter;stroke-opacity:1" d="M 966.466,504.343 966.466,521.716 z" id="boundary" inkscape:connector-curvature="0" />
	<path style="fill:none;stroke:red;stroke-width:1px;stroke-linecap:butt;stroke-linejoin:miter;stroke-opacity:1" d="M 966.466,521.716 971.678,539.089 z" id="boundary" inkscape:connector-curvature="0" />
	<path style="fill:none;stroke:red;stroke-width:1px;stroke-linecap:butt;stroke-linejoin:miter;stroke-opacity:1" d="M 971.678,539.089 989.051,539.089 z" id="boundary" inkscape:connector-curvature="0" />
	<path style="fill:none;stroke:red;stroke-width:1px;stroke-linecap:butt;stroke-linejoin:miter;stroke-opacity:1" d="M 989.051,539.089 987.313,519.979 z" id="boundary" inkscape:connector-curvature="0" />
	<path style="fill:none;stroke:red;stroke-width:1px;stroke-linecap:butt;stroke-linejoin:miter;stroke-opacity:1" d="M 996,334.088 989.051,365.359 z" id="boundary" inkscape:connector-curvature="0" />
	<path style="fill:none;stroke:red;stroke-width:1px;stroke-linecap:butt;stroke-linejoin:miter;stroke-opacity:1" d="M 989.051,365.359 989.051,382.732 z" id="boundary" inkscape:connector-curvature="0" />
	<path style="fill:none;stroke:red;stroke-width:1px;stroke-linecap:butt;stroke-linejoin:miter;stroke-opacity:1" d="M 989.051,382.732 985.576,400.105 z" id="boundary" inkscape:connector-curvature="0" />
	<path style="fill:none;stroke:red;stroke-width:1px;stroke-linecap:butt;stroke-linejoin:miter;stroke-opacity:1" d="M 985.576,400.105 985.576,417.478 z" id="boundary" inkscape:connector-curvature="0" />
	<path style="fill:none;stroke:red;stroke-width:1px;stroke-linecap:butt;stroke-linejoin:miter;stroke-opacity:1" d="M 985.576,417.478 985.576,434.851 z" id="boundary" inkscape:connector-curvature="0" />
	<path style="fill:none;stroke:red;stroke-width:1px;stroke-linecap:butt;stroke-linejoin:miter;stroke-opacity:1" d="M 985.576,434.851 985.576,452.224 z" id="boundary" inkscape:connector-curvature="0" />
	<path style="fill:none;stroke:red;stroke-width:1px;stroke-linecap:butt;stroke-linejoin:miter;stroke-opacity:1" d="M 985.576,452.224 985.576,469.597 z" id="boundary" inkscape:connector-curvature="0" />
	<path style="fill:none;stroke:red;stroke-width:1px;stroke-linecap:butt;stroke-linejoin:miter;stroke-opacity:1" d="M 985.576,469.597 992.525,486.97 z" id="boundary" inkscape:connector-curvature="0" />
	<circle cx="4" cy="375.783" r="4" fill="#0" id="circle0"/>
	<circle cx="4" cy="393.156" r="4" fill="#0" id="circle1"/>
	<circle cx="4" cy="410.529" r="4" fill="#0" id="circle2"/>
	<circle cx="4" cy="427.902" r="4" fill="#0" id="circle3"/>
	<circle cx="5.7373" cy="445.275" r="4" fill="#0" id="circle4"/>
	<circle cx="7.47461" cy="129.086" r="4" fill="#0" id="circle5"/>
	<circle cx="7.47461" cy="146.459" r="4" fill="#0" id="circle6"/>
	<circle cx="7.47461" cy="163.832" r="4" fill="#0" id="circle7"/>
	<circle cx="7.47461" cy="302.816" r="4" fill="#0" id="circle8"/>
	<circle cx="7.47461" cy="320.189" r="4" fill="#0" id="circle9"/>
	<circle cx="7.47461" cy="337.562" r="4" fill="#0" id="circle10"/>
	<circle cx="7.47461" cy="354.935" r="4" fill="#0" id="circle11"/>
	<circle cx="7.47461" cy="462.648" r="4" fill="#0" id="circle12"/>
	<circle cx="10.9492" cy="181.205" r="4" fill="#0" id="circle13"/>
	<circle cx="10.9492" cy="198.578" r="4" fill="#0" id="circle14"/>
	<circle cx="10.9492" cy="215.951" r="4" fill="#0" id="circle15"/>
	<circle cx="10.9492" cy="233.324" r="4" fill="#0" id="circle16"/>
	<circle cx="10.9492" cy="250.697" r="4" fill="#0" id="circle17"/>
	<circle cx="10.9492" cy="268.07" r="4" fill="#0" id="circle18"/>
	<circle cx="10.9492" cy="285.443" r="4" fill="#0" id="circle19"/>
	<circle cx="10.9492" cy="480.021" r="4" fill="#0" id="circle20"/>
	<circle cx="14.4238" cy="111.713" r="4" fill="#0" id="circle21"/>
	<circle cx="14.4238" cy="507.818" r="4" fill="#0" id="circle22"/>
	<circle cx="14.4238" cy="525.191" r="4" fill="#0" id="circle23"/>
	<circle cx="24.8476" cy="97.8144" r="4" fill="#0" id="circle24"/>
	<circle cx="24.8476" cy="539.089" r="4" fill="#0" id="circle25"/>
	<circle cx="37.0088" cy="514.767" r="4" fill="#0" id="circle26"/>
	<circle cx="38.7461" cy="83.9159" r="4" fill="#0" id="circle27"/>
	<circle cx="40.4834" cy="469.597" r="4" fill="#0" id="circle28"/>
	<circle cx="40.4834" cy="486.97" r="4" fill="#0" id="circle29"/>
	<circle cx="42.2207" cy="533.877" r="4" fill="#0" id="circle30"/>
	<circle cx="52.6445" cy="73.4921" r="4" fill="#0" id="circle31"/>
	<circle cx="57.8564" cy="467.86" r="4" fill="#0" id="circle32"/>
	<circle cx="66.5429" cy="63.0683" r="4" fill="#0" id="circle33"/>
	<circle cx="75.2294" cy="471.335" r="4" fill="#0" id="circle34"/>
	<circle cx="76.9667" cy="49.1699" r="4" fill="#0" id="circle35"/>
	<circle cx="87.3905" cy="35.2715" r="4" fill="#0" id="circle36"/>
	<circle cx="90.8651" cy="17.8984" r="4" fill="#0" id="circle37"/>
	<circle cx="92.6025" cy="471.335" r="4" fill="#0" id="circle38"/>
	<circle cx="101.289" cy="4" r="4" fill="#0" id="circle39"/>
	<circle cx="109.975" cy="471.335" r="4" fill="#0" id="circle40"/>
	<circle cx="118.662" cy="4" r="4" fill="#0" id="circle41"/>
	<circle cx="123.874" cy="21.373" r="4" fill="#0" id="circle42"/>
	<circle cx="127.349" cy="471.335" r="4" fill="#0" id="circle43"/>
	<circle cx="129.086" cy="38.7461" r="4" fill="#0" id="circle44"/>
	<circle cx="137.772" cy="54.3818" r="4" fill="#0" id="circle45"/>
	<circle cx="141.247" cy="71.7548" r="4" fill="#0" id="circle46"/>
	<circle cx="144.722" cy="471.335" r="4" fill="#0" id="circle47"/>
	<circle cx="155.145" cy="82.1786" r="4" fill="#0" id="circle48"/>
	<circle cx="160.357" cy="480.021" r="4" fill="#0" id="circle49"/>
	<circle cx="163.832" cy="504.343" r="4" fill="#0" id="circle50"/>
	<circle cx="163.832" cy="521.716" r="4" fill="#0" id="circle51"/>
	<circle cx="169.044" cy="94.3398" r="4" fill="#0" id="circle52"/>
	<circle cx="172.518" cy="537.352" r="4" fill="#0" id="circle53"/>
	<circle cx="179.468" cy="108.238" r="4" fill="#0" id="circle54"/>
	<circle cx="182.942" cy="167.306" r="4" fill="#0" id="circle55"/>
	<circle cx="182.942" cy="184.68" r="4" fill="#0" id="circle56"/>
	<circle cx="182.942" cy="514.767" r="4" fill="#0" id="circle57"/>
	<circle cx="188.154" cy="123.874" r="4" fill="#0" id="circle58"/>
	<circle cx="188.154" cy="471.335" r="4" fill="#0" id="circle59"/>
	<circle cx="188.154" cy="488.708" r="4" fill="#0" id="circle60"/>
	<circle cx="189.891" cy="141.247" r="4" fill="#0" id="circle61"/>
	<circle cx="189.891" cy="532.14" r="4" fill="#0" id="circle62"/>
	<circle cx="200.315" cy="191.629" r="4" fill="#0" id="circle63"/>
	<circle cx="205.527" cy="471.335" r="4" fill="#0" id="circle64"/>
	<circle cx="217.688" cy="191.629" r="4" fill="#0" id="circle65"/>
	<circle cx="222.9" cy="471.335" r="4" fill="#0" id="circle66"/>
	<circle cx="235.061" cy="198.578" r="4" fill="#0" id="circle67"/>
	<circle cx="240.273" cy="471.335" r="4" fill="#0" id="circle68"/>
	<circle cx="248.96" cy="209.002" r="4" fill="#0" id="circle69"/>
	<circle cx="257.646" cy="471.335" r="4" fill="#0" id="circle70"/>
	<circle cx="264.595" cy="217.688" r="4" fill="#0" id="circle71"/>
	<circle cx="275.019" cy="471.335" r="4" fill="#0" id="circle72"/>
	<circle cx="281.968" cy="215.951" r="4" fill="#0" id="circle73"/>
	<circle cx="292.392" cy="471.335" r="4" fill="#0" id="circle74"/>
	<circle cx="299.342" cy="212.476" r="4" fill="#0" id="circle75"/>
	<circle cx="309.765" cy="471.335" r="4" fill="#0" id="circle76"/>
	<circle cx="316.715" cy="212.476" r="4" fill="#0" id="circle77"/>
	<circle cx="327.138" cy="471.335" r="4" fill="#0" id="circle78"/>
	<circle cx="334.088" cy="215.951" r="4" fill="#0" id="circle79"/>
	<circle cx="344.511" cy="471.335" r="4" fill="#0" id="circle80"/>
	<circle cx="351.461" cy="222.9" r="4" fill="#0" id="circle81"/>
	<circle cx="361.884" cy="471.335" r="4" fill="#0" id="circle82"/>
	<circle cx="368.834" cy="229.849" r="4" fill="#0" id="circle83"/>
	<circle cx="379.257" cy="471.335" r="4" fill="#0" id="circle84"/>
	<circle cx="384.469" cy="238.536" r="4" fill="#0" id="circle85"/>
	<circle cx="396.63" cy="471.335" r="4" fill="#0" id="circle86"/>
	<circle cx="398.368" cy="248.96" r="4" fill="#0" id="circle87"/>
	<circle cx="412.266" cy="261.121" r="4" fill="#0" id="circle88"/>
	<circle cx="414.004" cy="471.335" r="4" fill="#0" id="circle89"/>
	<circle cx="422.69" cy="275.019" r="4" fill="#0" id="circle90"/>
	<circle cx="431.377" cy="471.335" r="4" fill="#0" id="circle91"/>
	<circle cx="433.114" cy="288.918" r="4" fill="#0" id="circle92"/>
	<circle cx="443.538" cy="302.816" r="4" fill="#0" id="circle93"/>
	<circle cx="448.75" cy="471.335" r="4" fill="#0" id="circle94"/>
	<circle cx="460.911" cy="309.765" r="4" fill="#0" id="circle95"/>
	<circle cx="466.123" cy="471.335" r="4" fill="#0" id="circle96"/>
	<circle cx="478.284" cy="309.765" r="4" fill="#0" id="circle97"/>
	<circle cx="483.496" cy="471.335" r="4" fill="#0" id="circle98"/>
	<circle cx="495.657" cy="309.765" r="4" fill="#0" id="circle99"/>
	<circle cx="500.869" cy="471.335" r="4" fill="#0" id="circle100"/>
	<circle cx="513.03" cy="309.765" r="4" fill="#0" id="circle101"/>
	<circle cx="518.242" cy="471.335" r="4" fill="#0" id="circle102"/>
	<circle cx="530.403" cy="309.765" r="4" fill="#0" id="circle103"/>
	<circle cx="535.615" cy="471.335" r="4" fill="#0" id="circle104"/>
	<circle cx="547.776" cy="309.765" r="4" fill="#0" id="circle105"/>
	<circle cx="552.988" cy="471.335" r="4" fill="#0" id="circle106"/>
	<circle cx="565.149" cy="309.765" r="4" fill="#0" id="circle107"/>
	<circle cx="570.361" cy="471.335" r="4" fill="#0" id="circle108"/>
	<circle cx="582.522" cy="309.765" r="4" fill="#0" id="circle109"/>
	<circle cx="587.734" cy="471.335" r="4" fill="#0" id="circle110"/>
	<circle cx="599.895" cy="309.765" r="4" fill="#0" id="circle111"/>
	<circle cx="605.107" cy="471.335" r="4" fill="#0" id="circle112"/>
	<circle cx="617.268" cy="309.765" r="4" fill="#0" id="circle113"/>
	<circle cx="622.48" cy="471.335" r="4" fill="#0" id="circle114"/>
	<circle cx="634.641" cy="309.765" r="4" fill="#0" id="circle115"/>
	<circle cx="639.853" cy="471.335" r="4" fill="#0" id="circle116"/>
	<circle cx="652.014" cy="309.765" r="4" fill="#0" id="circle117"/>
	<circle cx="657.226" cy="471.335" r="4" fill="#0" id="circle118"/>
	<circle cx="669.387" cy="309.765" r="4" fill="#0" id="circle119"/>
	<circle cx="674.599" cy="471.335" r="4" fill="#0" id="circle120"/>
	<circle cx="686.76" cy="309.765" r="4" fill="#0" id="circle121"/>
	<circle cx="691.972" cy="471.335" r="4" fill="#0" id="circle122"/>
	<circle cx="704.133" cy="313.24" r="4" fill="#0" id="circle123"/>
	<circle cx="709.345" cy="471.335" r="4" fill="#0" id="circle124"/>
	<circle cx="721.506" cy="313.24" r="4" fill="#0" id="circle125"/>
	<circle cx="726.718" cy="471.335" r="4" fill="#0" id="circle126"/>
	<circle cx="738.879" cy="313.24" r="4" fill="#0" id="circle127"/>
	<circle cx="744.091" cy="471.335" r="4" fill="#0" id="circle128"/>
	<circle cx="756.252" cy="313.24" r="4" fill="#0" id="circle129"/>
	<circle cx="761.464" cy="471.335" r="4" fill="#0" id="circle130"/>
	<circle cx="773.625" cy="313.24" r="4" fill="#0" id="circle131"/>
	<circle cx="778.837" cy="471.335" r="4" fill="#0" id="circle132"/>
	<circle cx="790.998" cy="313.24" r="4" fill="#0" id="circle133"/>
	<circle cx="796.21" cy="473.072" r="4" fill="#0" id="circle134"/>
	<circle cx="799.685" cy="490.445" r="4" fill="#0" id="circle135"/>
	<circle cx="803.159" cy="507.818" r="4" fill="#0" id="circle136"/>
	<circle cx="803.159" cy="525.191" r="4" fill="#0" id="circle137"/>
	<circle cx="808.371" cy="304.553" r="4" fill="#0" id="circle138"/>
	<circle cx="811.846" cy="540.827" r="4" fill="#0" id="circle139"/>
	<circle cx="822.27" cy="290.655" r="4" fill="#0" id="circle140"/>
	<circle cx="825.744" cy="514.767" r="4" fill="#0" id="circle141"/>
	<circle cx="829.219" cy="483.496" r="4" fill="#0" id="circle142"/>
	<circle cx="829.219" cy="532.14" r="4" fill="#0" id="circle143"/>
	<circle cx="837.905" cy="281.968" r="4" fill="#0" id="circle144"/>
	<circle cx="844.855" cy="492.182" r="4" fill="#0" id="circle145"/>
	<circle cx="855.278" cy="278.494" r="4" fill="#0" id="circle146"/>
	<circle cx="858.753" cy="480.021" r="4" fill="#0" id="circle147"/>
	<circle cx="865.702" cy="261.121" r="4" fill="#0" id="circle148"/>
	<circle cx="872.651" cy="490.445" r="4" fill="#0" id="circle149"/>
	<circle cx="876.126" cy="247.222" r="4" fill="#0" id="circle150"/>
	<circle cx="883.075" cy="504.343" r="4" fill="#0" id="circle151"/>
	<circle cx="886.55" cy="233.324" r="4" fill="#0" id="circle152"/>
	<circle cx="900.448" cy="509.555" r="4" fill="#0" id="circle153"/>
	<circle cx="903.923" cy="233.324" r="4" fill="#0" id="circle154"/>
	<circle cx="912.609" cy="248.96" r="4" fill="#0" id="circle155"/>
	<circle cx="916.084" cy="500.869" r="4" fill="#0" id="circle156"/>
	<circle cx="923.033" cy="262.858" r="4" fill="#0" id="circle157"/>
	<circle cx="926.508" cy="486.97" r="4" fill="#0" id="circle158"/>
	<circle cx="931.72" cy="278.494" r="4" fill="#0" id="circle159"/>
	<circle cx="943.881" cy="488.708" r="4" fill="#0" id="circle160"/>
	<circle cx="949.093" cy="283.706" r="4" fill="#0" id="circle161"/>
	<circle cx="961.254" cy="486.97" r="4" fill="#0" id="circle162"/>
	<circle cx="964.729" cy="292.392" r="4" fill="#0" id="circle163"/>
	<circle cx="966.466" cy="504.343" r="4" fill="#0" id="circle164"/>
	<circle cx="966.466" cy="521.716" r="4" fill="#0" id="circle165"/>
	<circle cx="971.678" cy="539.089" r="4" fill="#0" id="circle166"/>
	<circle cx="978.627" cy="302.816" r="4" fill="#0" id="circle167"/>
	<circle cx="985.576" cy="400.105" r="4" fill="#0" id="circle168"/>
	<circle cx="985.576" cy="417.478" r="4" fill="#0" id="circle169"/>
	<circle cx="985.576" cy="434.851" r="4" fill="#0" id="circle170"/>
	<circle cx="985.576" cy="452.224" r="4" fill="#0" id="circle171"/>
	<circle cx="985.576" cy="469.597" r="4" fill="#0" id="circle172"/>
	<circle cx="987.313" cy="519.979" r="4" fill="#0" id="circle173"/>
	<circle cx="989.051" cy="316.715" r="4" fill="#0" id="circle174"/>
	<circle cx="989.051" cy="365.359" r="4" fill="#0" id="circle175"/>
	<circle cx="989.051" cy="382.732" r="4" fill="#0" id="circle176"/>
	<circle cx="989.051" cy="539.089" r="4" fill="#0" id="circle177"/>
	<circle cx="992.525" cy="486.97" r="4" fill="#0" id="circle178"/>
	<circle cx="996" cy="334.088" r="4" fill="#0" id="circle179"/>
	</g>
</svg>