<?xml version="1.0" encoding="UTF-8" standalone="no"?>
<!-- Created with CurveBenchmark -->
<svg
	xmlns:dc="http://purl.org/dc/elements/1.1/"
	xmlns:cc="http://creativecommons.org/ns#"
	xmlns:rdf="http://www.w3.org/1999/02/22-rdf-syntax-ns#"
	xmlns:svg="http://www.w3.org/2000/svg"
	xmlns="http://www.w3.org/2000/svg"
	xmlns:sodipodi="http://sodipodi.sourceforge.net/DTD/sodipodi-0.dtd"
	xmlns:inkscape="http://www.inkscape.org/namespaces/inkscape"
	width="1000"
	height="1000"
	id="svg2"
	version="1.1"
	sodipodi:docname="manifold/crawl-television325.png.txt">
<defs
	id="defs4" />
<metadata
	id="metadata7">
	<rdf:RDF>
		<cc:Work
			rdf:about="">
			<dc:format>image/svg+xml</dc:format>
			<dc:type
				rdf:resource="http://purl.org/dc/dcmitype/StillImage" />
			<dc:title></dc:title>
		</cc:Work>
	</rdf:RDF>
</metadata>
<g
	inkscape:label="Layer 1"
	inkscape:groupmode="layer"
	id="layer1">
	<path style="fill:none;stroke:red;stroke-width:1px;stroke-linecap:butt;stroke-linejoin:miter;stroke-opacity:1" d="M 4,788.055 4,822.144 z" id="boundary" inkscape:connector-curvature="0" />
	<path style="fill:none;stroke:red;stroke-width:1px;stroke-linecap:butt;stroke-linejoin:miter;stroke-opacity:1" d="M 4,788.055 38.0893,781.237 z" id="boundary" inkscape:connector-curvature="0" />
	<path style="fill:none;stroke:red;stroke-width:1px;stroke-linecap:butt;stroke-linejoin:miter;stroke-opacity:1" d="M 38.0893,781.237 72.1787,781.237 z" id="boundary" inkscape:connector-curvature="0" />
	<path style="fill:none;stroke:red;stroke-width:1px;stroke-linecap:butt;stroke-linejoin:miter;stroke-opacity:1" d="M 72.1787,781.237 106.268,781.237 z" id="boundary" inkscape:connector-curvature="0" />
	<path style="fill:none;stroke:red;stroke-width:1px;stroke-linecap:butt;stroke-linejoin:miter;stroke-opacity:1" d="M 106.268,781.237 140.357,781.237 z" id="boundary" inkscape:connector-curvature="0" />
	<path style="fill:none;stroke:red;stroke-width:1px;stroke-linecap:butt;stroke-linejoin:miter;stroke-opacity:1" d="M 140.357,781.237 174.447,781.237 z" id="boundary" inkscape:connector-curvature="0" />
	<path style="fill:none;stroke:red;stroke-width:1px;stroke-linecap:butt;stroke-linejoin:miter;stroke-opacity:1" d="M 174.447,781.237 208.536,781.237 z" id="boundary" inkscape:connector-curvature="0" />
	<path style="fill:none;stroke:red;stroke-width:1px;stroke-linecap:butt;stroke-linejoin:miter;stroke-opacity:1" d="M 208.536,781.237 242.625,781.237 z" id="boundary" inkscape:connector-curvature="0" />
	<path style="fill:none;stroke:red;stroke-width:1px;stroke-linecap:butt;stroke-linejoin:miter;stroke-opacity:1" d="M 242.625,781.237 276.715,781.237 z" id="boundary" inkscape:connector-curvature="0" />
	<path style="fill:none;stroke:red;stroke-width:1px;stroke-linecap:butt;stroke-linejoin:miter;stroke-opacity:1" d="M 276.715,781.237 310.804,781.237 z" id="boundary" inkscape:connector-curvature="0" />
	<path style="fill:none;stroke:red;stroke-width:1px;stroke-linecap:butt;stroke-linejoin:miter;stroke-opacity:1" d="M 310.804,781.237 344.893,781.237 z" id="boundary" inkscape:connector-curvature="0" />
	<path style="fill:none;stroke:red;stroke-width:1px;stroke-linecap:butt;stroke-linejoin:miter;stroke-opacity:1" d="M 4,822.144 21.0447,852.825 z" id="boundary" inkscape:connector-curvature="0" />
	<path style="fill:none;stroke:red;stroke-width:1px;stroke-linecap:butt;stroke-linejoin:miter;stroke-opacity:1" d="M 21.0447,852.825 55.134,863.052 z" id="boundary" inkscape:connector-curvature="0" />
	<path style="fill:none;stroke:red;stroke-width:1px;stroke-linecap:butt;stroke-linejoin:miter;stroke-opacity:1" d="M 55.134,863.052 89.2234,852.825 z" id="boundary" inkscape:connector-curvature="0" />
	<path style="fill:none;stroke:red;stroke-width:1px;stroke-linecap:butt;stroke-linejoin:miter;stroke-opacity:1" d="M 89.2234,852.825 123.313,852.825 z" id="boundary" inkscape:connector-curvature="0" />
	<path style="fill:none;stroke:red;stroke-width:1px;stroke-linecap:butt;stroke-linejoin:miter;stroke-opacity:1" d="M 123.313,852.825 157.402,852.825 z" id="boundary" inkscape:connector-curvature="0" />
	<path style="fill:none;stroke:red;stroke-width:1px;stroke-linecap:butt;stroke-linejoin:miter;stroke-opacity:1" d="M 157.402,852.825 191.491,866.46 z" id="boundary" inkscape:connector-curvature="0" />
	<path style="fill:none;stroke:red;stroke-width:1px;stroke-linecap:butt;stroke-linejoin:miter;stroke-opacity:1" d="M 191.491,866.46 225.581,852.825 z" id="boundary" inkscape:connector-curvature="0" />
	<path style="fill:none;stroke:red;stroke-width:1px;stroke-linecap:butt;stroke-linejoin:miter;stroke-opacity:1" d="M 225.581,852.825 259.67,852.825 z" id="boundary" inkscape:connector-curvature="0" />
	<path style="fill:none;stroke:red;stroke-width:1px;stroke-linecap:butt;stroke-linejoin:miter;stroke-opacity:1" d="M 259.67,852.825 293.759,852.825 z" id="boundary" inkscape:connector-curvature="0" />
	<path style="fill:none;stroke:red;stroke-width:1px;stroke-linecap:butt;stroke-linejoin:miter;stroke-opacity:1" d="M 293.759,852.825 327.849,852.825 z" id="boundary" inkscape:connector-curvature="0" />
	<path style="fill:none;stroke:red;stroke-width:1px;stroke-linecap:butt;stroke-linejoin:miter;stroke-opacity:1" d="M 327.849,852.825 361.938,852.825 z" id="boundary" inkscape:connector-curvature="0" />
	<path style="fill:none;stroke:red;stroke-width:1px;stroke-linecap:butt;stroke-linejoin:miter;stroke-opacity:1" d="M 361.938,852.825 396.027,852.825 z" id="boundary" inkscape:connector-curvature="0" />
	<path style="fill:none;stroke:red;stroke-width:1px;stroke-linecap:butt;stroke-linejoin:miter;stroke-opacity:1" d="M 396.027,852.825 430.117,852.825 z" id="boundary" inkscape:connector-curvature="0" />
	<path style="fill:none;stroke:red;stroke-width:1px;stroke-linecap:butt;stroke-linejoin:miter;stroke-opacity:1" d="M 430.117,852.825 464.206,852.825 z" id="boundary" inkscape:connector-curvature="0" />
	<path style="fill:none;stroke:red;stroke-width:1px;stroke-linecap:butt;stroke-linejoin:miter;stroke-opacity:1" d="M 464.206,852.825 498.296,852.825 z" id="boundary" inkscape:connector-curvature="0" />
	<path style="fill:none;stroke:red;stroke-width:1px;stroke-linecap:butt;stroke-linejoin:miter;stroke-opacity:1" d="M 498.296,852.825 532.385,852.825 z" id="boundary" inkscape:connector-curvature="0" />
	<path style="fill:none;stroke:red;stroke-width:1px;stroke-linecap:butt;stroke-linejoin:miter;stroke-opacity:1" d="M 532.385,852.825 566.474,852.825 z" id="boundary" inkscape:connector-curvature="0" />
	<path style="fill:none;stroke:red;stroke-width:1px;stroke-linecap:butt;stroke-linejoin:miter;stroke-opacity:1" d="M 566.474,852.825 600.564,852.825 z" id="boundary" inkscape:connector-curvature="0" />
	<path style="fill:none;stroke:red;stroke-width:1px;stroke-linecap:butt;stroke-linejoin:miter;stroke-opacity:1" d="M 600.564,852.825 634.653,852.825 z" id="boundary" inkscape:connector-curvature="0" />
	<path style="fill:none;stroke:red;stroke-width:1px;stroke-linecap:butt;stroke-linejoin:miter;stroke-opacity:1" d="M 634.653,852.825 668.742,852.825 z" id="boundary" inkscape:connector-curvature="0" />
	<path style="fill:none;stroke:red;stroke-width:1px;stroke-linecap:butt;stroke-linejoin:miter;stroke-opacity:1" d="M 668.742,852.825 702.832,852.825 z" id="boundary" inkscape:connector-curvature="0" />
	<path style="fill:none;stroke:red;stroke-width:1px;stroke-linecap:butt;stroke-linejoin:miter;stroke-opacity:1" d="M 702.832,852.825 736.921,852.825 z" id="boundary" inkscape:connector-curvature="0" />
	<path style="fill:none;stroke:red;stroke-width:1px;stroke-linecap:butt;stroke-linejoin:miter;stroke-opacity:1" d="M 736.921,852.825 771.01,852.825 z" id="boundary" inkscape:connector-curvature="0" />
	<path style="fill:none;stroke:red;stroke-width:1px;stroke-linecap:butt;stroke-linejoin:miter;stroke-opacity:1" d="M 771.01,852.825 805.1,852.825 z" id="boundary" inkscape:connector-curvature="0" />
	<path style="fill:none;stroke:red;stroke-width:1px;stroke-linecap:butt;stroke-linejoin:miter;stroke-opacity:1" d="M 805.1,852.825 839.189,852.825 z" id="boundary" inkscape:connector-curvature="0" />
	<path style="fill:none;stroke:red;stroke-width:1px;stroke-linecap:butt;stroke-linejoin:miter;stroke-opacity:1" d="M 839.189,852.825 873.278,852.825 z" id="boundary" inkscape:connector-curvature="0" />
	<path style="fill:none;stroke:red;stroke-width:1px;stroke-linecap:butt;stroke-linejoin:miter;stroke-opacity:1" d="M 873.278,852.825 907.368,852.825 z" id="boundary" inkscape:connector-curvature="0" />
	<path style="fill:none;stroke:red;stroke-width:1px;stroke-linecap:butt;stroke-linejoin:miter;stroke-opacity:1" d="M 907.368,852.825 941.457,859.643 z" id="boundary" inkscape:connector-curvature="0" />
	<path style="fill:none;stroke:red;stroke-width:1px;stroke-linecap:butt;stroke-linejoin:miter;stroke-opacity:1" d="M 941.457,859.643 975.546,852.825 z" id="boundary" inkscape:connector-curvature="0" />
	<path style="fill:none;stroke:red;stroke-width:1px;stroke-linecap:butt;stroke-linejoin:miter;stroke-opacity:1" d="M 344.893,781.237 358.529,726.694 z" id="boundary" inkscape:connector-curvature="0" />
	<path style="fill:none;stroke:red;stroke-width:1px;stroke-linecap:butt;stroke-linejoin:miter;stroke-opacity:1" d="M 358.529,726.694 327.849,709.649 z" id="boundary" inkscape:connector-curvature="0" />
	<path style="fill:none;stroke:red;stroke-width:1px;stroke-linecap:butt;stroke-linejoin:miter;stroke-opacity:1" d="M 327.849,709.649 293.759,709.649 z" id="boundary" inkscape:connector-curvature="0" />
	<path style="fill:none;stroke:red;stroke-width:1px;stroke-linecap:butt;stroke-linejoin:miter;stroke-opacity:1" d="M 293.759,709.649 259.67,709.649 z" id="boundary" inkscape:connector-curvature="0" />
	<path style="fill:none;stroke:red;stroke-width:1px;stroke-linecap:butt;stroke-linejoin:miter;stroke-opacity:1" d="M 259.67,709.649 225.581,709.649 z" id="boundary" inkscape:connector-curvature="0" />
	<path style="fill:none;stroke:red;stroke-width:1px;stroke-linecap:butt;stroke-linejoin:miter;stroke-opacity:1" d="M 225.581,709.649 191.491,709.649 z" id="boundary" inkscape:connector-curvature="0" />
	<path style="fill:none;stroke:red;stroke-width:1px;stroke-linecap:butt;stroke-linejoin:miter;stroke-opacity:1" d="M 191.491,709.649 157.402,709.649 z" id="boundary" inkscape:connector-curvature="0" />
	<path style="fill:none;stroke:red;stroke-width:1px;stroke-linecap:butt;stroke-linejoin:miter;stroke-opacity:1" d="M 157.402,709.649 123.313,709.649 z" id="boundary" inkscape:connector-curvature="0" />
	<path style="fill:none;stroke:red;stroke-width:1px;stroke-linecap:butt;stroke-linejoin:miter;stroke-opacity:1" d="M 123.313,709.649 106.268,678.969 z" id="boundary" inkscape:connector-curvature="0" />
	<path style="fill:none;stroke:red;stroke-width:1px;stroke-linecap:butt;stroke-linejoin:miter;stroke-opacity:1" d="M 106.268,678.969 140.357,678.969 z" id="boundary" inkscape:connector-curvature="0" />
	<path style="fill:none;stroke:red;stroke-width:1px;stroke-linecap:butt;stroke-linejoin:miter;stroke-opacity:1" d="M 140.357,678.969 174.447,678.969 z" id="boundary" inkscape:connector-curvature="0" />
	<path style="fill:none;stroke:red;stroke-width:1px;stroke-linecap:butt;stroke-linejoin:miter;stroke-opacity:1" d="M 174.447,678.969 208.536,678.969 z" id="boundary" inkscape:connector-curvature="0" />
	<path style="fill:none;stroke:red;stroke-width:1px;stroke-linecap:butt;stroke-linejoin:miter;stroke-opacity:1" d="M 208.536,678.969 242.625,678.969 z" id="boundary" inkscape:connector-curvature="0" />
	<path style="fill:none;stroke:red;stroke-width:1px;stroke-linecap:butt;stroke-linejoin:miter;stroke-opacity:1" d="M 242.625,678.969 276.715,678.969 z" id="boundary" inkscape:connector-curvature="0" />
	<path style="fill:none;stroke:red;stroke-width:1px;stroke-linecap:butt;stroke-linejoin:miter;stroke-opacity:1" d="M 276.715,678.969 310.804,678.969 z" id="boundary" inkscape:connector-curvature="0" />
	<path style="fill:none;stroke:red;stroke-width:1px;stroke-linecap:butt;stroke-linejoin:miter;stroke-opacity:1" d="M 310.804,678.969 344.893,678.969 z" id="boundary" inkscape:connector-curvature="0" />
	<path style="fill:none;stroke:red;stroke-width:1px;stroke-linecap:butt;stroke-linejoin:miter;stroke-opacity:1" d="M 344.893,678.969 358.529,627.835 z" id="boundary" inkscape:connector-curvature="0" />
	<path style="fill:none;stroke:red;stroke-width:1px;stroke-linecap:butt;stroke-linejoin:miter;stroke-opacity:1" d="M 358.529,627.835 338.076,600.564 z" id="boundary" inkscape:connector-curvature="0" />
	<path style="fill:none;stroke:red;stroke-width:1px;stroke-linecap:butt;stroke-linejoin:miter;stroke-opacity:1" d="M 338.076,600.564 303.986,600.564 z" id="boundary" inkscape:connector-curvature="0" />
	<path style="fill:none;stroke:red;stroke-width:1px;stroke-linecap:butt;stroke-linejoin:miter;stroke-opacity:1" d="M 303.986,600.564 269.897,600.564 z" id="boundary" inkscape:connector-curvature="0" />
	<path style="fill:none;stroke:red;stroke-width:1px;stroke-linecap:butt;stroke-linejoin:miter;stroke-opacity:1" d="M 269.897,600.564 235.808,600.564 z" id="boundary" inkscape:connector-curvature="0" />
	<path style="fill:none;stroke:red;stroke-width:1px;stroke-linecap:butt;stroke-linejoin:miter;stroke-opacity:1" d="M 235.808,600.564 201.718,600.564 z" id="boundary" inkscape:connector-curvature="0" />
	<path style="fill:none;stroke:red;stroke-width:1px;stroke-linecap:butt;stroke-linejoin:miter;stroke-opacity:1" d="M 201.718,600.564 167.629,600.564 z" id="boundary" inkscape:connector-curvature="0" />
	<path style="fill:none;stroke:red;stroke-width:1px;stroke-linecap:butt;stroke-linejoin:miter;stroke-opacity:1" d="M 167.629,600.564 133.54,600.564 z" id="boundary" inkscape:connector-curvature="0" />
	<path style="fill:none;stroke:red;stroke-width:1px;stroke-linecap:butt;stroke-linejoin:miter;stroke-opacity:1" d="M 133.54,600.564 150.584,569.883 z" id="boundary" inkscape:connector-curvature="0" />
	<path style="fill:none;stroke:red;stroke-width:1px;stroke-linecap:butt;stroke-linejoin:miter;stroke-opacity:1" d="M 150.584,569.883 184.674,569.883 z" id="boundary" inkscape:connector-curvature="0" />
	<path style="fill:none;stroke:red;stroke-width:1px;stroke-linecap:butt;stroke-linejoin:miter;stroke-opacity:1" d="M 184.674,569.883 218.763,569.883 z" id="boundary" inkscape:connector-curvature="0" />
	<path style="fill:none;stroke:red;stroke-width:1px;stroke-linecap:butt;stroke-linejoin:miter;stroke-opacity:1" d="M 218.763,569.883 252.852,569.883 z" id="boundary" inkscape:connector-curvature="0" />
	<path style="fill:none;stroke:red;stroke-width:1px;stroke-linecap:butt;stroke-linejoin:miter;stroke-opacity:1" d="M 252.852,569.883 286.942,569.883 z" id="boundary" inkscape:connector-curvature="0" />
	<path style="fill:none;stroke:red;stroke-width:1px;stroke-linecap:butt;stroke-linejoin:miter;stroke-opacity:1" d="M 286.942,569.883 321.031,569.883 z" id="boundary" inkscape:connector-curvature="0" />
	<path style="fill:none;stroke:red;stroke-width:1px;stroke-linecap:butt;stroke-linejoin:miter;stroke-opacity:1" d="M 321.031,569.883 355.12,566.474 z" id="boundary" inkscape:connector-curvature="0" />
	<path style="fill:none;stroke:red;stroke-width:1px;stroke-linecap:butt;stroke-linejoin:miter;stroke-opacity:1" d="M 355.12,566.474 358.529,525.567 z" id="boundary" inkscape:connector-curvature="0" />
	<path style="fill:none;stroke:red;stroke-width:1px;stroke-linecap:butt;stroke-linejoin:miter;stroke-opacity:1" d="M 358.529,525.567 358.529,491.478 z" id="boundary" inkscape:connector-curvature="0" />
	<path style="fill:none;stroke:red;stroke-width:1px;stroke-linecap:butt;stroke-linejoin:miter;stroke-opacity:1" d="M 358.529,491.478 355.12,457.388 z" id="boundary" inkscape:connector-curvature="0" />
	<path style="fill:none;stroke:red;stroke-width:1px;stroke-linecap:butt;stroke-linejoin:miter;stroke-opacity:1" d="M 355.12,457.388 321.031,457.388 z" id="boundary" inkscape:connector-curvature="0" />
	<path style="fill:none;stroke:red;stroke-width:1px;stroke-linecap:butt;stroke-linejoin:miter;stroke-opacity:1" d="M 321.031,457.388 286.942,457.388 z" id="boundary" inkscape:connector-curvature="0" />
	<path style="fill:none;stroke:red;stroke-width:1px;stroke-linecap:butt;stroke-linejoin:miter;stroke-opacity:1" d="M 286.942,457.388 252.852,457.388 z" id="boundary" inkscape:connector-curvature="0" />
	<path style="fill:none;stroke:red;stroke-width:1px;stroke-linecap:butt;stroke-linejoin:miter;stroke-opacity:1" d="M 252.852,457.388 218.763,457.388 z" id="boundary" inkscape:connector-curvature="0" />
	<path style="fill:none;stroke:red;stroke-width:1px;stroke-linecap:butt;stroke-linejoin:miter;stroke-opacity:1" d="M 218.763,457.388 184.674,457.388 z" id="boundary" inkscape:connector-curvature="0" />
	<path style="fill:none;stroke:red;stroke-width:1px;stroke-linecap:butt;stroke-linejoin:miter;stroke-opacity:1" d="M 184.674,457.388 150.584,453.979 z" id="boundary" inkscape:connector-curvature="0" />
	<path style="fill:none;stroke:red;stroke-width:1px;stroke-linecap:butt;stroke-linejoin:miter;stroke-opacity:1" d="M 150.584,453.979 147.175,419.89 z" id="boundary" inkscape:connector-curvature="0" />
	<path style="fill:none;stroke:red;stroke-width:1px;stroke-linecap:butt;stroke-linejoin:miter;stroke-opacity:1" d="M 147.175,419.89 147.175,385.801 z" id="boundary" inkscape:connector-curvature="0" />
	<path style="fill:none;stroke:red;stroke-width:1px;stroke-linecap:butt;stroke-linejoin:miter;stroke-opacity:1" d="M 147.175,385.801 147.175,351.711 z" id="boundary" inkscape:connector-curvature="0" />
	<path style="fill:none;stroke:red;stroke-width:1px;stroke-linecap:butt;stroke-linejoin:miter;stroke-opacity:1" d="M 147.175,351.711 147.175,317.622 z" id="boundary" inkscape:connector-curvature="0" />
	<path style="fill:none;stroke:red;stroke-width:1px;stroke-linecap:butt;stroke-linejoin:miter;stroke-opacity:1" d="M 147.175,317.622 147.175,283.533 z" id="boundary" inkscape:connector-curvature="0" />
	<path style="fill:none;stroke:red;stroke-width:1px;stroke-linecap:butt;stroke-linejoin:miter;stroke-opacity:1" d="M 147.175,283.533 147.175,249.443 z" id="boundary" inkscape:connector-curvature="0" />
	<path style="fill:none;stroke:red;stroke-width:1px;stroke-linecap:butt;stroke-linejoin:miter;stroke-opacity:1" d="M 147.175,249.443 147.175,215.354 z" id="boundary" inkscape:connector-curvature="0" />
	<path style="fill:none;stroke:red;stroke-width:1px;stroke-linecap:butt;stroke-linejoin:miter;stroke-opacity:1" d="M 147.175,215.354 147.175,181.265 z" id="boundary" inkscape:connector-curvature="0" />
	<path style="fill:none;stroke:red;stroke-width:1px;stroke-linecap:butt;stroke-linejoin:miter;stroke-opacity:1" d="M 147.175,181.265 147.175,147.175 z" id="boundary" inkscape:connector-curvature="0" />
	<path style="fill:none;stroke:red;stroke-width:1px;stroke-linecap:butt;stroke-linejoin:miter;stroke-opacity:1" d="M 147.175,147.175 147.175,113.086 z" id="boundary" inkscape:connector-curvature="0" />
	<path style="fill:none;stroke:red;stroke-width:1px;stroke-linecap:butt;stroke-linejoin:miter;stroke-opacity:1" d="M 147.175,113.086 147.175,78.9966 z" id="boundary" inkscape:connector-curvature="0" />
	<path style="fill:none;stroke:red;stroke-width:1px;stroke-linecap:butt;stroke-linejoin:miter;stroke-opacity:1" d="M 147.175,78.9966 147.175,44.9072 z" id="boundary" inkscape:connector-curvature="0" />
	<path style="fill:none;stroke:red;stroke-width:1px;stroke-linecap:butt;stroke-linejoin:miter;stroke-opacity:1" d="M 147.175,44.9072 147.175,10.8179 z" id="boundary" inkscape:connector-curvature="0" />
	<path style="fill:none;stroke:red;stroke-width:1px;stroke-linecap:butt;stroke-linejoin:miter;stroke-opacity:1" d="M 147.175,10.8179 181.265,4 z" id="boundary" inkscape:connector-curvature="0" />
	<path style="fill:none;stroke:red;stroke-width:1px;stroke-linecap:butt;stroke-linejoin:miter;stroke-opacity:1" d="M 181.265,4 215.354,4 z" id="boundary" inkscape:connector-curvature="0" />
	<path style="fill:none;stroke:red;stroke-width:1px;stroke-linecap:butt;stroke-linejoin:miter;stroke-opacity:1" d="M 215.354,4 249.443,4 z" id="boundary" inkscape:connector-curvature="0" />
	<path style="fill:none;stroke:red;stroke-width:1px;stroke-linecap:butt;stroke-linejoin:miter;stroke-opacity:1" d="M 249.443,4 283.533,4 z" id="boundary" inkscape:connector-curvature="0" />
	<path style="fill:none;stroke:red;stroke-width:1px;stroke-linecap:butt;stroke-linejoin:miter;stroke-opacity:1" d="M 283.533,4 317.622,4 z" id="boundary" inkscape:connector-curvature="0" />
	<path style="fill:none;stroke:red;stroke-width:1px;stroke-linecap:butt;stroke-linejoin:miter;stroke-opacity:1" d="M 317.622,4 351.711,4 z" id="boundary" inkscape:connector-curvature="0" />
	<path style="fill:none;stroke:red;stroke-width:1px;stroke-linecap:butt;stroke-linejoin:miter;stroke-opacity:1" d="M 351.711,4 385.801,4 z" id="boundary" inkscape:connector-curvature="0" />
	<path style="fill:none;stroke:red;stroke-width:1px;stroke-linecap:butt;stroke-linejoin:miter;stroke-opacity:1" d="M 385.801,4 419.89,4 z" id="boundary" inkscape:connector-curvature="0" />
	<path style="fill:none;stroke:red;stroke-width:1px;stroke-linecap:butt;stroke-linejoin:miter;stroke-opacity:1" d="M 419.89,4 453.979,4 z" id="boundary" inkscape:connector-curvature="0" />
	<path style="fill:none;stroke:red;stroke-width:1px;stroke-linecap:butt;stroke-linejoin:miter;stroke-opacity:1" d="M 453.979,4 488.069,4 z" id="boundary" inkscape:connector-curvature="0" />
	<path style="fill:none;stroke:red;stroke-width:1px;stroke-linecap:butt;stroke-linejoin:miter;stroke-opacity:1" d="M 488.069,4 522.158,4 z" id="boundary" inkscape:connector-curvature="0" />
	<path style="fill:none;stroke:red;stroke-width:1px;stroke-linecap:butt;stroke-linejoin:miter;stroke-opacity:1" d="M 522.158,4 556.247,4 z" id="boundary" inkscape:connector-curvature="0" />
	<path style="fill:none;stroke:red;stroke-width:1px;stroke-linecap:butt;stroke-linejoin:miter;stroke-opacity:1" d="M 556.247,4 590.337,4 z" id="boundary" inkscape:connector-curvature="0" />
	<path style="fill:none;stroke:red;stroke-width:1px;stroke-linecap:butt;stroke-linejoin:miter;stroke-opacity:1" d="M 590.337,4 624.426,4 z" id="boundary" inkscape:connector-curvature="0" />
	<path style="fill:none;stroke:red;stroke-width:1px;stroke-linecap:butt;stroke-linejoin:miter;stroke-opacity:1" d="M 624.426,4 658.515,4 z" id="boundary" inkscape:connector-curvature="0" />
	<path style="fill:none;stroke:red;stroke-width:1px;stroke-linecap:butt;stroke-linejoin:miter;stroke-opacity:1" d="M 658.515,4 692.605,4 z" id="boundary" inkscape:connector-curvature="0" />
	<path style="fill:none;stroke:red;stroke-width:1px;stroke-linecap:butt;stroke-linejoin:miter;stroke-opacity:1" d="M 692.605,4 726.694,4 z" id="boundary" inkscape:connector-curvature="0" />
	<path style="fill:none;stroke:red;stroke-width:1px;stroke-linecap:butt;stroke-linejoin:miter;stroke-opacity:1" d="M 726.694,4 760.784,4 z" id="boundary" inkscape:connector-curvature="0" />
	<path style="fill:none;stroke:red;stroke-width:1px;stroke-linecap:butt;stroke-linejoin:miter;stroke-opacity:1" d="M 760.784,4 794.873,4 z" id="boundary" inkscape:connector-curvature="0" />
	<path style="fill:none;stroke:red;stroke-width:1px;stroke-linecap:butt;stroke-linejoin:miter;stroke-opacity:1" d="M 794.873,4 828.962,10.8179 z" id="boundary" inkscape:connector-curvature="0" />
	<path style="fill:none;stroke:red;stroke-width:1px;stroke-linecap:butt;stroke-linejoin:miter;stroke-opacity:1" d="M 828.962,10.8179 832.371,44.9072 z" id="boundary" inkscape:connector-curvature="0" />
	<path style="fill:none;stroke:red;stroke-width:1px;stroke-linecap:butt;stroke-linejoin:miter;stroke-opacity:1" d="M 832.371,44.9072 832.371,78.9966 z" id="boundary" inkscape:connector-curvature="0" />
	<path style="fill:none;stroke:red;stroke-width:1px;stroke-linecap:butt;stroke-linejoin:miter;stroke-opacity:1" d="M 832.371,78.9966 832.371,113.086 z" id="boundary" inkscape:connector-curvature="0" />
	<path style="fill:none;stroke:red;stroke-width:1px;stroke-linecap:butt;stroke-linejoin:miter;stroke-opacity:1" d="M 832.371,113.086 832.371,147.175 z" id="boundary" inkscape:connector-curvature="0" />
	<path style="fill:none;stroke:red;stroke-width:1px;stroke-linecap:butt;stroke-linejoin:miter;stroke-opacity:1" d="M 832.371,147.175 832.371,181.265 z" id="boundary" inkscape:connector-curvature="0" />
	<path style="fill:none;stroke:red;stroke-width:1px;stroke-linecap:butt;stroke-linejoin:miter;stroke-opacity:1" d="M 832.371,181.265 832.371,215.354 z" id="boundary" inkscape:connector-curvature="0" />
	<path style="fill:none;stroke:red;stroke-width:1px;stroke-linecap:butt;stroke-linejoin:miter;stroke-opacity:1" d="M 832.371,215.354 832.371,249.443 z" id="boundary" inkscape:connector-curvature="0" />
	<path style="fill:none;stroke:red;stroke-width:1px;stroke-linecap:butt;stroke-linejoin:miter;stroke-opacity:1" d="M 832.371,249.443 832.371,283.533 z" id="boundary" inkscape:connector-curvature="0" />
	<path style="fill:none;stroke:red;stroke-width:1px;stroke-linecap:butt;stroke-linejoin:miter;stroke-opacity:1" d="M 832.371,283.533 832.371,317.622 z" id="boundary" inkscape:connector-curvature="0" />
	<path style="fill:none;stroke:red;stroke-width:1px;stroke-linecap:butt;stroke-linejoin:miter;stroke-opacity:1" d="M 832.371,317.622 832.371,351.711 z" id="boundary" inkscape:connector-curvature="0" />
	<path style="fill:none;stroke:red;stroke-width:1px;stroke-linecap:butt;stroke-linejoin:miter;stroke-opacity:1" d="M 832.371,351.711 832.371,385.801 z" id="boundary" inkscape:connector-curvature="0" />
	<path style="fill:none;stroke:red;stroke-width:1px;stroke-linecap:butt;stroke-linejoin:miter;stroke-opacity:1" d="M 832.371,385.801 832.371,419.89 z" id="boundary" inkscape:connector-curvature="0" />
	<path style="fill:none;stroke:red;stroke-width:1px;stroke-linecap:butt;stroke-linejoin:miter;stroke-opacity:1" d="M 832.371,419.89 825.553,453.979 z" id="boundary" inkscape:connector-curvature="0" />
	<path style="fill:none;stroke:red;stroke-width:1px;stroke-linecap:butt;stroke-linejoin:miter;stroke-opacity:1" d="M 825.553,453.979 791.464,457.388 z" id="boundary" inkscape:connector-curvature="0" />
	<path style="fill:none;stroke:red;stroke-width:1px;stroke-linecap:butt;stroke-linejoin:miter;stroke-opacity:1" d="M 791.464,457.388 757.375,457.388 z" id="boundary" inkscape:connector-curvature="0" />
	<path style="fill:none;stroke:red;stroke-width:1px;stroke-linecap:butt;stroke-linejoin:miter;stroke-opacity:1" d="M 757.375,457.388 723.285,457.388 z" id="boundary" inkscape:connector-curvature="0" />
	<path style="fill:none;stroke:red;stroke-width:1px;stroke-linecap:butt;stroke-linejoin:miter;stroke-opacity:1" d="M 723.285,457.388 689.196,457.388 z" id="boundary" inkscape:connector-curvature="0" />
	<path style="fill:none;stroke:red;stroke-width:1px;stroke-linecap:butt;stroke-linejoin:miter;stroke-opacity:1" d="M 689.196,457.388 655.107,457.388 z" id="boundary" inkscape:connector-curvature="0" />
	<path style="fill:none;stroke:red;stroke-width:1px;stroke-linecap:butt;stroke-linejoin:miter;stroke-opacity:1" d="M 655.107,457.388 621.017,457.388 z" id="boundary" inkscape:connector-curvature="0" />
	<path style="fill:none;stroke:red;stroke-width:1px;stroke-linecap:butt;stroke-linejoin:miter;stroke-opacity:1" d="M 621.017,457.388 586.928,457.388 z" id="boundary" inkscape:connector-curvature="0" />
	<path style="fill:none;stroke:red;stroke-width:1px;stroke-linecap:butt;stroke-linejoin:miter;stroke-opacity:1" d="M 586.928,457.388 552.838,460.797 z" id="boundary" inkscape:connector-curvature="0" />
	<path style="fill:none;stroke:red;stroke-width:1px;stroke-linecap:butt;stroke-linejoin:miter;stroke-opacity:1" d="M 552.838,460.797 552.838,494.887 z" id="boundary" inkscape:connector-curvature="0" />
	<path style="fill:none;stroke:red;stroke-width:1px;stroke-linecap:butt;stroke-linejoin:miter;stroke-opacity:1" d="M 552.838,494.887 552.838,528.976 z" id="boundary" inkscape:connector-curvature="0" />
	<path style="fill:none;stroke:red;stroke-width:1px;stroke-linecap:butt;stroke-linejoin:miter;stroke-opacity:1" d="M 552.838,528.976 552.838,563.065 z" id="boundary" inkscape:connector-curvature="0" />
	<path style="fill:none;stroke:red;stroke-width:1px;stroke-linecap:butt;stroke-linejoin:miter;stroke-opacity:1" d="M 552.838,563.065 586.928,569.883 z" id="boundary" inkscape:connector-curvature="0" />
	<path style="fill:none;stroke:red;stroke-width:1px;stroke-linecap:butt;stroke-linejoin:miter;stroke-opacity:1" d="M 586.928,569.883 621.017,569.883 z" id="boundary" inkscape:connector-curvature="0" />
	<path style="fill:none;stroke:red;stroke-width:1px;stroke-linecap:butt;stroke-linejoin:miter;stroke-opacity:1" d="M 621.017,569.883 655.107,569.883 z" id="boundary" inkscape:connector-curvature="0" />
	<path style="fill:none;stroke:red;stroke-width:1px;stroke-linecap:butt;stroke-linejoin:miter;stroke-opacity:1" d="M 655.107,569.883 689.196,569.883 z" id="boundary" inkscape:connector-curvature="0" />
	<path style="fill:none;stroke:red;stroke-width:1px;stroke-linecap:butt;stroke-linejoin:miter;stroke-opacity:1" d="M 689.196,569.883 723.285,569.883 z" id="boundary" inkscape:connector-curvature="0" />
	<path style="fill:none;stroke:red;stroke-width:1px;stroke-linecap:butt;stroke-linejoin:miter;stroke-opacity:1" d="M 723.285,569.883 757.375,569.883 z" id="boundary" inkscape:connector-curvature="0" />
	<path style="fill:none;stroke:red;stroke-width:1px;stroke-linecap:butt;stroke-linejoin:miter;stroke-opacity:1" d="M 757.375,569.883 791.464,569.883 z" id="boundary" inkscape:connector-curvature="0" />
	<path style="fill:none;stroke:red;stroke-width:1px;stroke-linecap:butt;stroke-linejoin:miter;stroke-opacity:1" d="M 791.464,569.883 825.553,569.883 z" id="boundary" inkscape:connector-curvature="0" />
	<path style="fill:none;stroke:red;stroke-width:1px;stroke-linecap:butt;stroke-linejoin:miter;stroke-opacity:1" d="M 825.553,569.883 859.643,569.883 z" id="boundary" inkscape:connector-curvature="0" />
	<path style="fill:none;stroke:red;stroke-width:1px;stroke-linecap:butt;stroke-linejoin:miter;stroke-opacity:1" d="M 859.643,569.883 893.732,569.883 z" id="boundary" inkscape:connector-curvature="0" />
	<path style="fill:none;stroke:red;stroke-width:1px;stroke-linecap:butt;stroke-linejoin:miter;stroke-opacity:1" d="M 893.732,569.883 927.821,569.883 z" id="boundary" inkscape:connector-curvature="0" />
	<path style="fill:none;stroke:red;stroke-width:1px;stroke-linecap:butt;stroke-linejoin:miter;stroke-opacity:1" d="M 927.821,569.883 944.866,600.564 z" id="boundary" inkscape:connector-curvature="0" />
	<path style="fill:none;stroke:red;stroke-width:1px;stroke-linecap:butt;stroke-linejoin:miter;stroke-opacity:1" d="M 944.866,600.564 910.777,600.564 z" id="boundary" inkscape:connector-curvature="0" />
	<path style="fill:none;stroke:red;stroke-width:1px;stroke-linecap:butt;stroke-linejoin:miter;stroke-opacity:1" d="M 910.777,600.564 876.687,600.564 z" id="boundary" inkscape:connector-curvature="0" />
	<path style="fill:none;stroke:red;stroke-width:1px;stroke-linecap:butt;stroke-linejoin:miter;stroke-opacity:1" d="M 876.687,600.564 842.598,600.564 z" id="boundary" inkscape:connector-curvature="0" />
	<path style="fill:none;stroke:red;stroke-width:1px;stroke-linecap:butt;stroke-linejoin:miter;stroke-opacity:1" d="M 842.598,600.564 808.509,600.564 z" id="boundary" inkscape:connector-curvature="0" />
	<path style="fill:none;stroke:red;stroke-width:1px;stroke-linecap:butt;stroke-linejoin:miter;stroke-opacity:1" d="M 808.509,600.564 774.419,600.564 z" id="boundary" inkscape:connector-curvature="0" />
	<path style="fill:none;stroke:red;stroke-width:1px;stroke-linecap:butt;stroke-linejoin:miter;stroke-opacity:1" d="M 774.419,600.564 740.33,600.564 z" id="boundary" inkscape:connector-curvature="0" />
	<path style="fill:none;stroke:red;stroke-width:1px;stroke-linecap:butt;stroke-linejoin:miter;stroke-opacity:1" d="M 740.33,600.564 706.241,600.564 z" id="boundary" inkscape:connector-curvature="0" />
	<path style="fill:none;stroke:red;stroke-width:1px;stroke-linecap:butt;stroke-linejoin:miter;stroke-opacity:1" d="M 706.241,600.564 672.151,600.564 z" id="boundary" inkscape:connector-curvature="0" />
	<path style="fill:none;stroke:red;stroke-width:1px;stroke-linecap:butt;stroke-linejoin:miter;stroke-opacity:1" d="M 672.151,600.564 638.062,600.564 z" id="boundary" inkscape:connector-curvature="0" />
	<path style="fill:none;stroke:red;stroke-width:1px;stroke-linecap:butt;stroke-linejoin:miter;stroke-opacity:1" d="M 638.062,600.564 603.973,600.564 z" id="boundary" inkscape:connector-curvature="0" />
	<path style="fill:none;stroke:red;stroke-width:1px;stroke-linecap:butt;stroke-linejoin:miter;stroke-opacity:1" d="M 603.973,600.564 552.838,603.973 z" id="boundary" inkscape:connector-curvature="0" />
	<path style="fill:none;stroke:red;stroke-width:1px;stroke-linecap:butt;stroke-linejoin:miter;stroke-opacity:1" d="M 552.838,603.973 552.838,638.062 z" id="boundary" inkscape:connector-curvature="0" />
	<path style="fill:none;stroke:red;stroke-width:1px;stroke-linecap:butt;stroke-linejoin:miter;stroke-opacity:1" d="M 552.838,638.062 552.838,672.151 z" id="boundary" inkscape:connector-curvature="0" />
	<path style="fill:none;stroke:red;stroke-width:1px;stroke-linecap:butt;stroke-linejoin:miter;stroke-opacity:1" d="M 552.838,672.151 586.928,678.969 z" id="boundary" inkscape:connector-curvature="0" />
	<path style="fill:none;stroke:red;stroke-width:1px;stroke-linecap:butt;stroke-linejoin:miter;stroke-opacity:1" d="M 586.928,678.969 621.017,678.969 z" id="boundary" inkscape:connector-curvature="0" />
	<path style="fill:none;stroke:red;stroke-width:1px;stroke-linecap:butt;stroke-linejoin:miter;stroke-opacity:1" d="M 621.017,678.969 655.107,678.969 z" id="boundary" inkscape:connector-curvature="0" />
	<path style="fill:none;stroke:red;stroke-width:1px;stroke-linecap:butt;stroke-linejoin:miter;stroke-opacity:1" d="M 655.107,678.969 689.196,678.969 z" id="boundary" inkscape:connector-curvature="0" />
	<path style="fill:none;stroke:red;stroke-width:1px;stroke-linecap:butt;stroke-linejoin:miter;stroke-opacity:1" d="M 689.196,678.969 723.285,678.969 z" id="boundary" inkscape:connector-curvature="0" />
	<path style="fill:none;stroke:red;stroke-width:1px;stroke-linecap:butt;stroke-linejoin:miter;stroke-opacity:1" d="M 723.285,678.969 757.375,678.969 z" id="boundary" inkscape:connector-curvature="0" />
	<path style="fill:none;stroke:red;stroke-width:1px;stroke-linecap:butt;stroke-linejoin:miter;stroke-opacity:1" d="M 757.375,678.969 791.464,678.969 z" id="boundary" inkscape:connector-curvature="0" />
	<path style="fill:none;stroke:red;stroke-width:1px;stroke-linecap:butt;stroke-linejoin:miter;stroke-opacity:1" d="M 791.464,678.969 825.553,678.969 z" id="boundary" inkscape:connector-curvature="0" />
	<path style="fill:none;stroke:red;stroke-width:1px;stroke-linecap:butt;stroke-linejoin:miter;stroke-opacity:1" d="M 825.553,678.969 859.643,678.969 z" id="boundary" inkscape:connector-curvature="0" />
	<path style="fill:none;stroke:red;stroke-width:1px;stroke-linecap:butt;stroke-linejoin:miter;stroke-opacity:1" d="M 859.643,678.969 893.732,678.969 z" id="boundary" inkscape:connector-curvature="0" />
	<path style="fill:none;stroke:red;stroke-width:1px;stroke-linecap:butt;stroke-linejoin:miter;stroke-opacity:1" d="M 893.732,678.969 927.821,678.969 z" id="boundary" inkscape:connector-curvature="0" />
	<path style="fill:none;stroke:red;stroke-width:1px;stroke-linecap:butt;stroke-linejoin:miter;stroke-opacity:1" d="M 927.821,678.969 955.093,699.423 z" id="boundary" inkscape:connector-curvature="0" />
	<path style="fill:none;stroke:red;stroke-width:1px;stroke-linecap:butt;stroke-linejoin:miter;stroke-opacity:1" d="M 955.093,699.423 910.777,709.649 z" id="boundary" inkscape:connector-curvature="0" />
	<path style="fill:none;stroke:red;stroke-width:1px;stroke-linecap:butt;stroke-linejoin:miter;stroke-opacity:1" d="M 910.777,709.649 876.687,709.649 z" id="boundary" inkscape:connector-curvature="0" />
	<path style="fill:none;stroke:red;stroke-width:1px;stroke-linecap:butt;stroke-linejoin:miter;stroke-opacity:1" d="M 876.687,709.649 842.598,709.649 z" id="boundary" inkscape:connector-curvature="0" />
	<path style="fill:none;stroke:red;stroke-width:1px;stroke-linecap:butt;stroke-linejoin:miter;stroke-opacity:1" d="M 842.598,709.649 808.509,709.649 z" id="boundary" inkscape:connector-curvature="0" />
	<path style="fill:none;stroke:red;stroke-width:1px;stroke-linecap:butt;stroke-linejoin:miter;stroke-opacity:1" d="M 808.509,709.649 774.419,709.649 z" id="boundary" inkscape:connector-curvature="0" />
	<path style="fill:none;stroke:red;stroke-width:1px;stroke-linecap:butt;stroke-linejoin:miter;stroke-opacity:1" d="M 774.419,709.649 740.33,709.649 z" id="boundary" inkscape:connector-curvature="0" />
	<path style="fill:none;stroke:red;stroke-width:1px;stroke-linecap:butt;stroke-linejoin:miter;stroke-opacity:1" d="M 740.33,709.649 706.241,709.649 z" id="boundary" inkscape:connector-curvature="0" />
	<path style="fill:none;stroke:red;stroke-width:1px;stroke-linecap:butt;stroke-linejoin:miter;stroke-opacity:1" d="M 706.241,709.649 672.151,709.649 z" id="boundary" inkscape:connector-curvature="0" />
	<path style="fill:none;stroke:red;stroke-width:1px;stroke-linecap:butt;stroke-linejoin:miter;stroke-opacity:1" d="M 672.151,709.649 638.062,709.649 z" id="boundary" inkscape:connector-curvature="0" />
	<path style="fill:none;stroke:red;stroke-width:1px;stroke-linecap:butt;stroke-linejoin:miter;stroke-opacity:1" d="M 638.062,709.649 603.973,709.649 z" id="boundary" inkscape:connector-curvature="0" />
	<path style="fill:none;stroke:red;stroke-width:1px;stroke-linecap:butt;stroke-linejoin:miter;stroke-opacity:1" d="M 603.973,709.649 552.838,713.058 z" id="boundary" inkscape:connector-curvature="0" />
	<path style="fill:none;stroke:red;stroke-width:1px;stroke-linecap:butt;stroke-linejoin:miter;stroke-opacity:1" d="M 552.838,713.058 552.838,747.148 z" id="boundary" inkscape:connector-curvature="0" />
	<path style="fill:none;stroke:red;stroke-width:1px;stroke-linecap:butt;stroke-linejoin:miter;stroke-opacity:1" d="M 552.838,747.148 556.247,781.237 z" id="boundary" inkscape:connector-curvature="0" />
	<path style="fill:none;stroke:red;stroke-width:1px;stroke-linecap:butt;stroke-linejoin:miter;stroke-opacity:1" d="M 556.247,781.237 590.337,781.237 z" id="boundary" inkscape:connector-curvature="0" />
	<path style="fill:none;stroke:red;stroke-width:1px;stroke-linecap:butt;stroke-linejoin:miter;stroke-opacity:1" d="M 590.337,781.237 624.426,781.237 z" id="boundary" inkscape:connector-curvature="0" />
	<path style="fill:none;stroke:red;stroke-width:1px;stroke-linecap:butt;stroke-linejoin:miter;stroke-opacity:1" d="M 624.426,781.237 658.515,781.237 z" id="boundary" inkscape:connector-curvature="0" />
	<path style="fill:none;stroke:red;stroke-width:1px;stroke-linecap:butt;stroke-linejoin:miter;stroke-opacity:1" d="M 658.515,781.237 692.605,781.237 z" id="boundary" inkscape:connector-curvature="0" />
	<path style="fill:none;stroke:red;stroke-width:1px;stroke-linecap:butt;stroke-linejoin:miter;stroke-opacity:1" d="M 692.605,781.237 726.694,781.237 z" id="boundary" inkscape:connector-curvature="0" />
	<path style="fill:none;stroke:red;stroke-width:1px;stroke-linecap:butt;stroke-linejoin:miter;stroke-opacity:1" d="M 726.694,781.237 760.784,781.237 z" id="boundary" inkscape:connector-curvature="0" />
	<path style="fill:none;stroke:red;stroke-width:1px;stroke-linecap:butt;stroke-linejoin:miter;stroke-opacity:1" d="M 760.784,781.237 794.873,781.237 z" id="boundary" inkscape:connector-curvature="0" />
	<path style="fill:none;stroke:red;stroke-width:1px;stroke-linecap:butt;stroke-linejoin:miter;stroke-opacity:1" d="M 794.873,781.237 828.962,781.237 z" id="boundary" inkscape:connector-curvature="0" />
	<path style="fill:none;stroke:red;stroke-width:1px;stroke-linecap:butt;stroke-linejoin:miter;stroke-opacity:1" d="M 828.962,781.237 863.052,781.237 z" id="boundary" inkscape:connector-curvature="0" />
	<path style="fill:none;stroke:red;stroke-width:1px;stroke-linecap:butt;stroke-linejoin:miter;stroke-opacity:1" d="M 863.052,781.237 897.141,781.237 z" id="boundary" inkscape:connector-curvature="0" />
	<path style="fill:none;stroke:red;stroke-width:1px;stroke-linecap:butt;stroke-linejoin:miter;stroke-opacity:1" d="M 897.141,781.237 931.23,781.237 z" id="boundary" inkscape:connector-curvature="0" />
	<path style="fill:none;stroke:red;stroke-width:1px;stroke-linecap:butt;stroke-linejoin:miter;stroke-opacity:1" d="M 931.23,781.237 965.32,781.237 z" id="boundary" inkscape:connector-curvature="0" />
	<path style="fill:none;stroke:red;stroke-width:1px;stroke-linecap:butt;stroke-linejoin:miter;stroke-opacity:1" d="M 965.32,781.237 996,798.282 z" id="boundary" inkscape:connector-curvature="0" />
	<path style="fill:none;stroke:red;stroke-width:1px;stroke-linecap:butt;stroke-linejoin:miter;stroke-opacity:1" d="M 996,798.282 975.546,852.825 z" id="boundary" inkscape:connector-curvature="0" />
	<circle cx="4" cy="788.055" r="4" fill="#0" id="circle0"/>
	<circle cx="4" cy="822.144" r="4" fill="#0" id="circle1"/>
	<circle cx="21.0447" cy="852.825" r="4" fill="#0" id="circle2"/>
	<circle cx="38.0893" cy="781.237" r="4" fill="#0" id="circle3"/>
	<circle cx="55.134" cy="863.052" r="4" fill="#0" id="circle4"/>
	<circle cx="72.1787" cy="781.237" r="4" fill="#0" id="circle5"/>
	<circle cx="89.2234" cy="852.825" r="4" fill="#0" id="circle6"/>
	<circle cx="106.268" cy="576.701" r="4" fill="#0" id="circle7"/>
	<circle cx="106.268" cy="678.969" r="4" fill="#0" id="circle8"/>
	<circle cx="106.268" cy="781.237" r="4" fill="#0" id="circle9"/>
	<circle cx="123.313" cy="709.649" r="4" fill="#0" id="circle10"/>
	<circle cx="123.313" cy="852.825" r="4" fill="#0" id="circle11"/>
	<circle cx="133.54" cy="600.564" r="4" fill="#0" id="circle12"/>
	<circle cx="140.357" cy="678.969" r="4" fill="#0" id="circle13"/>
	<circle cx="140.357" cy="781.237" r="4" fill="#0" id="circle14"/>
	<circle cx="147.175" cy="10.8179" r="4" fill="#0" id="circle15"/>
	<circle cx="147.175" cy="44.9072" r="4" fill="#0" id="circle16"/>
	<circle cx="147.175" cy="78.9966" r="4" fill="#0" id="circle17"/>
	<circle cx="147.175" cy="113.086" r="4" fill="#0" id="circle18"/>
	<circle cx="147.175" cy="147.175" r="4" fill="#0" id="circle19"/>
	<circle cx="147.175" cy="181.265" r="4" fill="#0" id="circle20"/>
	<circle cx="147.175" cy="215.354" r="4" fill="#0" id="circle21"/>
	<circle cx="147.175" cy="249.443" r="4" fill="#0" id="circle22"/>
	<circle cx="147.175" cy="283.533" r="4" fill="#0" id="circle23"/>
	<circle cx="147.175" cy="317.622" r="4" fill="#0" id="circle24"/>
	<circle cx="147.175" cy="351.711" r="4" fill="#0" id="circle25"/>
	<circle cx="147.175" cy="385.801" r="4" fill="#0" id="circle26"/>
	<circle cx="147.175" cy="419.89" r="4" fill="#0" id="circle27"/>
	<circle cx="150.584" cy="453.979" r="4" fill="#0" id="circle28"/>
	<circle cx="150.584" cy="569.883" r="4" fill="#0" id="circle29"/>
	<circle cx="157.402" cy="709.649" r="4" fill="#0" id="circle30"/>
	<circle cx="157.402" cy="852.825" r="4" fill="#0" id="circle31"/>
	<circle cx="167.629" cy="600.564" r="4" fill="#0" id="circle32"/>
	<circle cx="174.447" cy="678.969" r="4" fill="#0" id="circle33"/>
	<circle cx="174.447" cy="781.237" r="4" fill="#0" id="circle34"/>
	<circle cx="181.265" cy="4" r="4" fill="#0" id="circle35"/>
	<circle cx="184.674" cy="457.388" r="4" fill="#0" id="circle36"/>
	<circle cx="184.674" cy="569.883" r="4" fill="#0" id="circle37"/>
	<circle cx="191.491" cy="709.649" r="4" fill="#0" id="circle38"/>
	<circle cx="191.491" cy="866.46" r="4" fill="#0" id="circle39"/>
	<circle cx="201.718" cy="600.564" r="4" fill="#0" id="circle40"/>
	<circle cx="208.536" cy="678.969" r="4" fill="#0" id="circle41"/>
	<circle cx="208.536" cy="781.237" r="4" fill="#0" id="circle42"/>
	<circle cx="215.354" cy="4" r="4" fill="#0" id="circle43"/>
	<circle cx="218.763" cy="457.388" r="4" fill="#0" id="circle44"/>
	<circle cx="218.763" cy="569.883" r="4" fill="#0" id="circle45"/>
	<circle cx="225.581" cy="709.649" r="4" fill="#0" id="circle46"/>
	<circle cx="225.581" cy="852.825" r="4" fill="#0" id="circle47"/>
	<circle cx="235.808" cy="600.564" r="4" fill="#0" id="circle48"/>
	<circle cx="242.625" cy="678.969" r="4" fill="#0" id="circle49"/>
	<circle cx="242.625" cy="781.237" r="4" fill="#0" id="circle50"/>
	<circle cx="249.443" cy="4" r="4" fill="#0" id="circle51"/>
	<circle cx="252.852" cy="457.388" r="4" fill="#0" id="circle52"/>
	<circle cx="252.852" cy="569.883" r="4" fill="#0" id="circle53"/>
	<circle cx="259.67" cy="709.649" r="4" fill="#0" id="circle54"/>
	<circle cx="259.67" cy="852.825" r="4" fill="#0" id="circle55"/>
	<circle cx="269.897" cy="600.564" r="4" fill="#0" id="circle56"/>
	<circle cx="276.715" cy="678.969" r="4" fill="#0" id="circle57"/>
	<circle cx="276.715" cy="781.237" r="4" fill="#0" id="circle58"/>
	<circle cx="283.533" cy="4" r="4" fill="#0" id="circle59"/>
	<circle cx="286.942" cy="457.388" r="4" fill="#0" id="circle60"/>
	<circle cx="286.942" cy="569.883" r="4" fill="#0" id="circle61"/>
	<circle cx="293.759" cy="709.649" r="4" fill="#0" id="circle62"/>
	<circle cx="293.759" cy="852.825" r="4" fill="#0" id="circle63"/>
	<circle cx="303.986" cy="600.564" r="4" fill="#0" id="circle64"/>
	<circle cx="310.804" cy="678.969" r="4" fill="#0" id="circle65"/>
	<circle cx="310.804" cy="781.237" r="4" fill="#0" id="circle66"/>
	<circle cx="317.622" cy="4" r="4" fill="#0" id="circle67"/>
	<circle cx="321.031" cy="457.388" r="4" fill="#0" id="circle68"/>
	<circle cx="321.031" cy="569.883" r="4" fill="#0" id="circle69"/>
	<circle cx="327.849" cy="709.649" r="4" fill="#0" id="circle70"/>
	<circle cx="327.849" cy="852.825" r="4" fill="#0" id="circle71"/>
	<circle cx="338.076" cy="600.564" r="4" fill="#0" id="circle72"/>
	<circle cx="344.893" cy="678.969" r="4" fill="#0" id="circle73"/>
	<circle cx="344.893" cy="781.237" r="4" fill="#0" id="circle74"/>
	<circle cx="351.711" cy="4" r="4" fill="#0" id="circle75"/>
	<circle cx="355.12" cy="457.388" r="4" fill="#0" id="circle76"/>
	<circle cx="355.12" cy="566.474" r="4" fill="#0" id="circle77"/>
	<circle cx="358.529" cy="491.478" r="4" fill="#0" id="circle78"/>
	<circle cx="358.529" cy="525.567" r="4" fill="#0" id="circle79"/>
	<circle cx="358.529" cy="627.835" r="4" fill="#0" id="circle80"/>
	<circle cx="358.529" cy="726.694" r="4" fill="#0" id="circle81"/>
	<circle cx="361.938" cy="852.825" r="4" fill="#0" id="circle82"/>
	<circle cx="385.801" cy="4" r="4" fill="#0" id="circle83"/>
	<circle cx="396.027" cy="852.825" r="4" fill="#0" id="circle84"/>
	<circle cx="419.89" cy="4" r="4" fill="#0" id="circle85"/>
	<circle cx="430.117" cy="852.825" r="4" fill="#0" id="circle86"/>
	<circle cx="453.979" cy="4" r="4" fill="#0" id="circle87"/>
	<circle cx="464.206" cy="852.825" r="4" fill="#0" id="circle88"/>
	<circle cx="488.069" cy="4" r="4" fill="#0" id="circle89"/>
	<circle cx="498.296" cy="852.825" r="4" fill="#0" id="circle90"/>
	<circle cx="522.158" cy="4" r="4" fill="#0" id="circle91"/>
	<circle cx="532.385" cy="852.825" r="4" fill="#0" id="circle92"/>
	<circle cx="552.838" cy="460.797" r="4" fill="#0" id="circle93"/>
	<circle cx="552.838" cy="494.887" r="4" fill="#0" id="circle94"/>
	<circle cx="552.838" cy="528.976" r="4" fill="#0" id="circle95"/>
	<circle cx="552.838" cy="563.065" r="4" fill="#0" id="circle96"/>
	<circle cx="552.838" cy="603.973" r="4" fill="#0" id="circle97"/>
	<circle cx="552.838" cy="638.062" r="4" fill="#0" id="circle98"/>
	<circle cx="552.838" cy="672.151" r="4" fill="#0" id="circle99"/>
	<circle cx="552.838" cy="713.058" r="4" fill="#0" id="circle100"/>
	<circle cx="552.838" cy="747.148" r="4" fill="#0" id="circle101"/>
	<circle cx="556.247" cy="4" r="4" fill="#0" id="circle102"/>
	<circle cx="556.247" cy="781.237" r="4" fill="#0" id="circle103"/>
	<circle cx="566.474" cy="852.825" r="4" fill="#0" id="circle104"/>
	<circle cx="586.928" cy="457.388" r="4" fill="#0" id="circle105"/>
	<circle cx="586.928" cy="569.883" r="4" fill="#0" id="circle106"/>
	<circle cx="586.928" cy="678.969" r="4" fill="#0" id="circle107"/>
	<circle cx="590.337" cy="4" r="4" fill="#0" id="circle108"/>
	<circle cx="590.337" cy="781.237" r="4" fill="#0" id="circle109"/>
	<circle cx="600.564" cy="852.825" r="4" fill="#0" id="circle110"/>
	<circle cx="603.973" cy="600.564" r="4" fill="#0" id="circle111"/>
	<circle cx="603.973" cy="709.649" r="4" fill="#0" id="circle112"/>
	<circle cx="621.017" cy="457.388" r="4" fill="#0" id="circle113"/>
	<circle cx="621.017" cy="569.883" r="4" fill="#0" id="circle114"/>
	<circle cx="621.017" cy="678.969" r="4" fill="#0" id="circle115"/>
	<circle cx="624.426" cy="4" r="4" fill="#0" id="circle116"/>
	<circle cx="624.426" cy="781.237" r="4" fill="#0" id="circle117"/>
	<circle cx="634.653" cy="852.825" r="4" fill="#0" id="circle118"/>
	<circle cx="638.062" cy="600.564" r="4" fill="#0" id="circle119"/>
	<circle cx="638.062" cy="709.649" r="4" fill="#0" id="circle120"/>
	<circle cx="655.107" cy="457.388" r="4" fill="#0" id="circle121"/>
	<circle cx="655.107" cy="569.883" r="4" fill="#0" id="circle122"/>
	<circle cx="655.107" cy="678.969" r="4" fill="#0" id="circle123"/>
	<circle cx="658.515" cy="4" r="4" fill="#0" id="circle124"/>
	<circle cx="658.515" cy="781.237" r="4" fill="#0" id="circle125"/>
	<circle cx="668.742" cy="852.825" r="4" fill="#0" id="circle126"/>
	<circle cx="672.151" cy="600.564" r="4" fill="#0" id="circle127"/>
	<circle cx="672.151" cy="709.649" r="4" fill="#0" id="circle128"/>
	<circle cx="689.196" cy="457.388" r="4" fill="#0" id="circle129"/>
	<circle cx="689.196" cy="569.883" r="4" fill="#0" id="circle130"/>
	<circle cx="689.196" cy="678.969" r="4" fill="#0" id="circle131"/>
	<circle cx="692.605" cy="4" r="4" fill="#0" id="circle132"/>
	<circle cx="692.605" cy="781.237" r="4" fill="#0" id="circle133"/>
	<circle cx="702.832" cy="852.825" r="4" fill="#0" id="circle134"/>
	<circle cx="706.241" cy="600.564" r="4" fill="#0" id="circle135"/>
	<circle cx="706.241" cy="709.649" r="4" fill="#0" id="circle136"/>
	<circle cx="723.285" cy="457.388" r="4" fill="#0" id="circle137"/>
	<circle cx="723.285" cy="569.883" r="4" fill="#0" id="circle138"/>
	<circle cx="723.285" cy="678.969" r="4" fill="#0" id="circle139"/>
	<circle cx="726.694" cy="4" r="4" fill="#0" id="circle140"/>
	<circle cx="726.694" cy="781.237" r="4" fill="#0" id="circle141"/>
	<circle cx="736.921" cy="852.825" r="4" fill="#0" id="circle142"/>
	<circle cx="740.33" cy="600.564" r="4" fill="#0" id="circle143"/>
	<circle cx="740.33" cy="709.649" r="4" fill="#0" id="circle144"/>
	<circle cx="757.375" cy="457.388" r="4" fill="#0" id="circle145"/>
	<circle cx="757.375" cy="569.883" r="4" fill="#0" id="circle146"/>
	<circle cx="757.375" cy="678.969" r="4" fill="#0" id="circle147"/>
	<circle cx="760.784" cy="4" r="4" fill="#0" id="circle148"/>
	<circle cx="760.784" cy="781.237" r="4" fill="#0" id="circle149"/>
	<circle cx="771.01" cy="852.825" r="4" fill="#0" id="circle150"/>
	<circle cx="774.419" cy="600.564" r="4" fill="#0" id="circle151"/>
	<circle cx="774.419" cy="709.649" r="4" fill="#0" id="circle152"/>
	<circle cx="791.464" cy="457.388" r="4" fill="#0" id="circle153"/>
	<circle cx="791.464" cy="569.883" r="4" fill="#0" id="circle154"/>
	<circle cx="791.464" cy="678.969" r="4" fill="#0" id="circle155"/>
	<circle cx="794.873" cy="4" r="4" fill="#0" id="circle156"/>
	<circle cx="794.873" cy="781.237" r="4" fill="#0" id="circle157"/>
	<circle cx="805.1" cy="852.825" r="4" fill="#0" id="circle158"/>
	<circle cx="808.509" cy="600.564" r="4" fill="#0" id="circle159"/>
	<circle cx="808.509" cy="709.649" r="4" fill="#0" id="circle160"/>
	<circle cx="825.553" cy="453.979" r="4" fill="#0" id="circle161"/>
	<circle cx="825.553" cy="569.883" r="4" fill="#0" id="circle162"/>
	<circle cx="825.553" cy="678.969" r="4" fill="#0" id="circle163"/>
	<circle cx="828.962" cy="10.8179" r="4" fill="#0" id="circle164"/>
	<circle cx="828.962" cy="781.237" r="4" fill="#0" id="circle165"/>
	<circle cx="832.371" cy="44.9072" r="4" fill="#0" id="circle166"/>
	<circle cx="832.371" cy="78.9966" r="4" fill="#0" id="circle167"/>
	<circle cx="832.371" cy="113.086" r="4" fill="#0" id="circle168"/>
	<circle cx="832.371" cy="147.175" r="4" fill="#0" id="circle169"/>
	<circle cx="832.371" cy="181.265" r="4" fill="#0" id="circle170"/>
	<circle cx="832.371" cy="215.354" r="4" fill="#0" id="circle171"/>
	<circle cx="832.371" cy="249.443" r="4" fill="#0" id="circle172"/>
	<circle cx="832.371" cy="283.533" r="4" fill="#0" id="circle173"/>
	<circle cx="832.371" cy="317.622" r="4" fill="#0" id="circle174"/>
	<circle cx="832.371" cy="351.711" r="4" fill="#0" id="circle175"/>
	<circle cx="832.371" cy="385.801" r="4" fill="#0" id="circle176"/>
	<circle cx="832.371" cy="419.89" r="4" fill="#0" id="circle177"/>
	<circle cx="839.189" cy="852.825" r="4" fill="#0" id="circle178"/>
	<circle cx="842.598" cy="600.564" r="4" fill="#0" id="circle179"/>
	<circle cx="842.598" cy="709.649" r="4" fill="#0" id="circle180"/>
	<circle cx="859.643" cy="569.883" r="4" fill="#0" id="circle181"/>
	<circle cx="859.643" cy="678.969" r="4" fill="#0" id="circle182"/>
	<circle cx="863.052" cy="781.237" r="4" fill="#0" id="circle183"/>
	<circle cx="873.278" cy="852.825" r="4" fill="#0" id="circle184"/>
	<circle cx="876.687" cy="600.564" r="4" fill="#0" id="circle185"/>
	<circle cx="876.687" cy="709.649" r="4" fill="#0" id="circle186"/>
	<circle cx="893.732" cy="569.883" r="4" fill="#0" id="circle187"/>
	<circle cx="893.732" cy="678.969" r="4" fill="#0" id="circle188"/>
	<circle cx="897.141" cy="781.237" r="4" fill="#0" id="circle189"/>
	<circle cx="907.368" cy="852.825" r="4" fill="#0" id="circle190"/>
	<circle cx="910.777" cy="600.564" r="4" fill="#0" id="circle191"/>
	<circle cx="910.777" cy="709.649" r="4" fill="#0" id="circle192"/>
	<circle cx="927.821" cy="569.883" r="4" fill="#0" id="circle193"/>
	<circle cx="927.821" cy="678.969" r="4" fill="#0" id="circle194"/>
	<circle cx="931.23" cy="781.237" r="4" fill="#0" id="circle195"/>
	<circle cx="941.457" cy="859.643" r="4" fill="#0" id="circle196"/>
	<circle cx="944.866" cy="600.564" r="4" fill="#0" id="circle197"/>
	<circle cx="955.093" cy="699.423" r="4" fill="#0" id="circle198"/>
	<circle cx="965.32" cy="781.237" r="4" fill="#0" id="circle199"/>
	<circle cx="975.546" cy="852.825" r="4" fill="#0" id="circle200"/>
	<circle cx="996" cy="798.282" r="4" fill="#0" id="circle201"/>
	</g>
</svg>