<?xml version="1.0" encoding="UTF-8" standalone="no"?>
<!-- Created with CurveBenchmark -->
<svg
	xmlns:dc="http://purl.org/dc/elements/1.1/"
	xmlns:cc="http://creativecommons.org/ns#"
	xmlns:rdf="http://www.w3.org/1999/02/22-rdf-syntax-ns#"
	xmlns:svg="http://www.w3.org/2000/svg"
	xmlns="http://www.w3.org/2000/svg"
	xmlns:sodipodi="http://sodipodi.sourceforge.net/DTD/sodipodi-0.dtd"
	xmlns:inkscape="http://www.inkscape.org/namespaces/inkscape"
	width="1000"
	height="1000"
	id="svg2"
	version="1.1"
	sodipodi:docname="manifold/crust-children01.png.txt">
<defs
	id="defs4" />
<metadata
	id="metadata7">
	<rdf:RDF>
		<cc:Work
			rdf:about="">
			<dc:format>image/svg+xml</dc:format>
			<dc:type
				rdf:resource="http://purl.org/dc/dcmitype/StillImage" />
			<dc:title></dc:title>
		</cc:Work>
	</rdf:RDF>
</metadata>
<g
	inkscape:label="Layer 1"
	inkscape:groupmode="layer"
	id="layer1">
	<path style="fill:none;stroke:red;stroke-width:1px;stroke-linecap:butt;stroke-linejoin:miter;stroke-opacity:1" d="M 28.7587,99.7338 28.7587,83.228 z" id="boundary" inkscape:connector-curvature="0" />
	<path style="fill:none;stroke:red;stroke-width:1px;stroke-linecap:butt;stroke-linejoin:miter;stroke-opacity:1" d="M 28.7587,116.24 28.7587,99.7338 z" id="boundary" inkscape:connector-curvature="0" />
	<path style="fill:none;stroke:red;stroke-width:1px;stroke-linecap:butt;stroke-linejoin:miter;stroke-opacity:1" d="M 37.0116,66.7221 28.7587,83.228 z" id="boundary" inkscape:connector-curvature="0" />
	<path style="fill:none;stroke:red;stroke-width:1px;stroke-linecap:butt;stroke-linejoin:miter;stroke-opacity:1" d="M 28.7587,116.24 28.7587,132.745 z" id="boundary" inkscape:connector-curvature="0" />
	<path style="fill:none;stroke:red;stroke-width:1px;stroke-linecap:butt;stroke-linejoin:miter;stroke-opacity:1" d="M 37.0116,66.7221 45.2646,50.2163 z" id="boundary" inkscape:connector-curvature="0" />
	<path style="fill:none;stroke:red;stroke-width:1px;stroke-linecap:butt;stroke-linejoin:miter;stroke-opacity:1" d="M 58.4692,37.0116 45.2646,50.2163 z" id="boundary" inkscape:connector-curvature="0" />
	<path style="fill:none;stroke:red;stroke-width:1px;stroke-linecap:butt;stroke-linejoin:miter;stroke-opacity:1" d="M 73.3245,28.7587 58.4692,37.0116 z" id="boundary" inkscape:connector-curvature="0" />
	<path style="fill:none;stroke:red;stroke-width:1px;stroke-linecap:butt;stroke-linejoin:miter;stroke-opacity:1" d="M 37.0116,147.601 28.7587,132.745 z" id="boundary" inkscape:connector-curvature="0" />
	<path style="fill:none;stroke:red;stroke-width:1px;stroke-linecap:butt;stroke-linejoin:miter;stroke-opacity:1" d="M 37.0116,147.601 48.5657,160.805 z" id="boundary" inkscape:connector-curvature="0" />
	<path style="fill:none;stroke:red;stroke-width:1px;stroke-linecap:butt;stroke-linejoin:miter;stroke-opacity:1" d="M 48.5657,160.805 61.7704,170.709 z" id="boundary" inkscape:connector-curvature="0" />
	<path style="fill:none;stroke:red;stroke-width:1px;stroke-linecap:butt;stroke-linejoin:miter;stroke-opacity:1" d="M 70.0233,185.564 73.3245,202.07 z" id="boundary" inkscape:connector-curvature="0" />
	<path style="fill:none;stroke:red;stroke-width:1px;stroke-linecap:butt;stroke-linejoin:miter;stroke-opacity:1" d="M 70.0233,185.564 61.7704,170.709 z" id="boundary" inkscape:connector-curvature="0" />
	<path style="fill:none;stroke:red;stroke-width:1px;stroke-linecap:butt;stroke-linejoin:miter;stroke-opacity:1" d="M 86.5291,17.2047 73.3245,28.7587 z" id="boundary" inkscape:connector-curvature="0" />
	<path style="fill:none;stroke:red;stroke-width:1px;stroke-linecap:butt;stroke-linejoin:miter;stroke-opacity:1" d="M 12.2529,306.057 4,330.815 z" id="boundary" inkscape:connector-curvature="0" />
	<path style="fill:none;stroke:red;stroke-width:1px;stroke-linecap:butt;stroke-linejoin:miter;stroke-opacity:1" d="M 28.7587,273.045 20.5058,289.551 z" id="boundary" inkscape:connector-curvature="0" />
	<path style="fill:none;stroke:red;stroke-width:1px;stroke-linecap:butt;stroke-linejoin:miter;stroke-opacity:1" d="M 20.5058,289.551 12.2529,306.057 z" id="boundary" inkscape:connector-curvature="0" />
	<path style="fill:none;stroke:red;stroke-width:1px;stroke-linecap:butt;stroke-linejoin:miter;stroke-opacity:1" d="M 4,347.321 4,330.815 z" id="boundary" inkscape:connector-curvature="0" />
	<path style="fill:none;stroke:red;stroke-width:1px;stroke-linecap:butt;stroke-linejoin:miter;stroke-opacity:1" d="M 4,347.321 12.2529,362.176 z" id="boundary" inkscape:connector-curvature="0" />
	<path style="fill:none;stroke:red;stroke-width:1px;stroke-linecap:butt;stroke-linejoin:miter;stroke-opacity:1" d="M 20.5058,377.032 12.2529,362.176 z" id="boundary" inkscape:connector-curvature="0" />
	<path style="fill:none;stroke:red;stroke-width:1px;stroke-linecap:butt;stroke-linejoin:miter;stroke-opacity:1" d="M 20.5058,377.032 20.5058,393.537 z" id="boundary" inkscape:connector-curvature="0" />
	<path style="fill:none;stroke:red;stroke-width:1px;stroke-linecap:butt;stroke-linejoin:miter;stroke-opacity:1" d="M 71.6739,238.383 58.4692,251.587 z" id="boundary" inkscape:connector-curvature="0" />
	<path style="fill:none;stroke:red;stroke-width:1px;stroke-linecap:butt;stroke-linejoin:miter;stroke-opacity:1" d="M 78.2762,218.576 71.6739,238.383 z" id="boundary" inkscape:connector-curvature="0" />
	<path style="fill:none;stroke:red;stroke-width:1px;stroke-linecap:butt;stroke-linejoin:miter;stroke-opacity:1" d="M 41.9634,259.84 58.4692,251.587 z" id="boundary" inkscape:connector-curvature="0" />
	<path style="fill:none;stroke:red;stroke-width:1px;stroke-linecap:butt;stroke-linejoin:miter;stroke-opacity:1" d="M 20.5058,410.043 20.5058,393.537 z" id="boundary" inkscape:connector-curvature="0" />
	<path style="fill:none;stroke:red;stroke-width:1px;stroke-linecap:butt;stroke-linejoin:miter;stroke-opacity:1" d="M 28.7587,273.045 41.9634,259.84 z" id="boundary" inkscape:connector-curvature="0" />
	<path style="fill:none;stroke:red;stroke-width:1px;stroke-linecap:butt;stroke-linejoin:miter;stroke-opacity:1" d="M 20.5058,410.043 20.5058,426.549 z" id="boundary" inkscape:connector-curvature="0" />
	<path style="fill:none;stroke:red;stroke-width:1px;stroke-linecap:butt;stroke-linejoin:miter;stroke-opacity:1" d="M 73.3245,202.07 78.2762,218.576 z" id="boundary" inkscape:connector-curvature="0" />
	<path style="fill:none;stroke:red;stroke-width:1px;stroke-linecap:butt;stroke-linejoin:miter;stroke-opacity:1" d="M 103.035,8.95175 86.5291,17.2047 z" id="boundary" inkscape:connector-curvature="0" />
	<path style="fill:none;stroke:red;stroke-width:1px;stroke-linecap:butt;stroke-linejoin:miter;stroke-opacity:1" d="M 119.541,4 136.047,4 z" id="boundary" inkscape:connector-curvature="0" />
	<path style="fill:none;stroke:red;stroke-width:1px;stroke-linecap:butt;stroke-linejoin:miter;stroke-opacity:1" d="M 103.035,8.95175 119.541,4 z" id="boundary" inkscape:connector-curvature="0" />
	<path style="fill:none;stroke:red;stroke-width:1px;stroke-linecap:butt;stroke-linejoin:miter;stroke-opacity:1" d="M 136.047,4 152.552,4 z" id="boundary" inkscape:connector-curvature="0" />
	<path style="fill:none;stroke:red;stroke-width:1px;stroke-linecap:butt;stroke-linejoin:miter;stroke-opacity:1" d="M 152.552,4 169.058,7.30116 z" id="boundary" inkscape:connector-curvature="0" />
	<path style="fill:none;stroke:red;stroke-width:1px;stroke-linecap:butt;stroke-linejoin:miter;stroke-opacity:1" d="M 169.058,7.30116 185.564,12.2529 z" id="boundary" inkscape:connector-curvature="0" />
	<path style="fill:none;stroke:red;stroke-width:1px;stroke-linecap:butt;stroke-linejoin:miter;stroke-opacity:1" d="M 20.5058,443.055 20.5058,459.561 z" id="boundary" inkscape:connector-curvature="0" />
	<path style="fill:none;stroke:red;stroke-width:1px;stroke-linecap:butt;stroke-linejoin:miter;stroke-opacity:1" d="M 20.5058,459.561 25.4576,476.067 z" id="boundary" inkscape:connector-curvature="0" />
	<path style="fill:none;stroke:red;stroke-width:1px;stroke-linecap:butt;stroke-linejoin:miter;stroke-opacity:1" d="M 20.5058,426.549 20.5058,443.055 z" id="boundary" inkscape:connector-curvature="0" />
	<path style="fill:none;stroke:red;stroke-width:1px;stroke-linecap:butt;stroke-linejoin:miter;stroke-opacity:1" d="M 37.0116,507.428 28.7587,492.572 z" id="boundary" inkscape:connector-curvature="0" />
	<path style="fill:none;stroke:red;stroke-width:1px;stroke-linecap:butt;stroke-linejoin:miter;stroke-opacity:1" d="M 28.7587,492.572 25.4576,476.067 z" id="boundary" inkscape:connector-curvature="0" />
	<path style="fill:none;stroke:red;stroke-width:1px;stroke-linecap:butt;stroke-linejoin:miter;stroke-opacity:1" d="M 37.0116,507.428 40.3128,523.933 z" id="boundary" inkscape:connector-curvature="0" />
	<path style="fill:none;stroke:red;stroke-width:1px;stroke-linecap:butt;stroke-linejoin:miter;stroke-opacity:1" d="M 45.2646,540.439 40.3128,523.933 z" id="boundary" inkscape:connector-curvature="0" />
	<path style="fill:none;stroke:red;stroke-width:1px;stroke-linecap:butt;stroke-linejoin:miter;stroke-opacity:1" d="M 45.2646,540.439 45.2646,556.945 z" id="boundary" inkscape:connector-curvature="0" />
	<path style="fill:none;stroke:red;stroke-width:1px;stroke-linecap:butt;stroke-linejoin:miter;stroke-opacity:1" d="M 53.5175,571.8 53.5175,588.306 z" id="boundary" inkscape:connector-curvature="0" />
	<path style="fill:none;stroke:red;stroke-width:1px;stroke-linecap:butt;stroke-linejoin:miter;stroke-opacity:1" d="M 53.5175,571.8 45.2646,556.945 z" id="boundary" inkscape:connector-curvature="0" />
	<path style="fill:none;stroke:red;stroke-width:1px;stroke-linecap:butt;stroke-linejoin:miter;stroke-opacity:1" d="M 53.5175,588.306 53.5175,604.812 z" id="boundary" inkscape:connector-curvature="0" />
	<path style="fill:none;stroke:red;stroke-width:1px;stroke-linecap:butt;stroke-linejoin:miter;stroke-opacity:1" d="M 61.7704,619.667 53.5175,604.812 z" id="boundary" inkscape:connector-curvature="0" />
	<path style="fill:none;stroke:red;stroke-width:1px;stroke-linecap:butt;stroke-linejoin:miter;stroke-opacity:1" d="M 61.7704,636.173 61.7704,619.667 z" id="boundary" inkscape:connector-curvature="0" />
	<path style="fill:none;stroke:red;stroke-width:1px;stroke-linecap:butt;stroke-linejoin:miter;stroke-opacity:1" d="M 70.0233,651.028 61.7704,636.173 z" id="boundary" inkscape:connector-curvature="0" />
	<path style="fill:none;stroke:red;stroke-width:1px;stroke-linecap:butt;stroke-linejoin:miter;stroke-opacity:1" d="M 70.0233,651.028 78.2762,665.884 z" id="boundary" inkscape:connector-curvature="0" />
	<path style="fill:none;stroke:red;stroke-width:1px;stroke-linecap:butt;stroke-linejoin:miter;stroke-opacity:1" d="M 101.384,690.642 88.1797,679.088 z" id="boundary" inkscape:connector-curvature="0" />
	<path style="fill:none;stroke:red;stroke-width:1px;stroke-linecap:butt;stroke-linejoin:miter;stroke-opacity:1" d="M 88.1797,679.088 78.2762,665.884 z" id="boundary" inkscape:connector-curvature="0" />
	<path style="fill:none;stroke:red;stroke-width:1px;stroke-linecap:butt;stroke-linejoin:miter;stroke-opacity:1" d="M 111.288,703.847 101.384,690.642 z" id="boundary" inkscape:connector-curvature="0" />
	<path style="fill:none;stroke:red;stroke-width:1px;stroke-linecap:butt;stroke-linejoin:miter;stroke-opacity:1" d="M 103.035,776.473 94.782,801.231 z" id="boundary" inkscape:connector-curvature="0" />
	<path style="fill:none;stroke:red;stroke-width:1px;stroke-linecap:butt;stroke-linejoin:miter;stroke-opacity:1" d="M 111.288,753.364 103.035,776.473 z" id="boundary" inkscape:connector-curvature="0" />
	<path style="fill:none;stroke:red;stroke-width:1px;stroke-linecap:butt;stroke-linejoin:miter;stroke-opacity:1" d="M 111.288,703.847 111.288,720.353 z" id="boundary" inkscape:connector-curvature="0" />
	<path style="fill:none;stroke:red;stroke-width:1px;stroke-linecap:butt;stroke-linejoin:miter;stroke-opacity:1" d="M 111.288,753.364 111.288,736.859 z" id="boundary" inkscape:connector-curvature="0" />
	<path style="fill:none;stroke:red;stroke-width:1px;stroke-linecap:butt;stroke-linejoin:miter;stroke-opacity:1" d="M 111.288,720.353 111.288,736.859 z" id="boundary" inkscape:connector-curvature="0" />
	<path style="fill:none;stroke:red;stroke-width:1px;stroke-linecap:butt;stroke-linejoin:miter;stroke-opacity:1" d="M 94.782,801.231 94.782,817.737 z" id="boundary" inkscape:connector-curvature="0" />
	<path style="fill:none;stroke:red;stroke-width:1px;stroke-linecap:butt;stroke-linejoin:miter;stroke-opacity:1" d="M 103.035,849.098 103.035,865.604 z" id="boundary" inkscape:connector-curvature="0" />
	<path style="fill:none;stroke:red;stroke-width:1px;stroke-linecap:butt;stroke-linejoin:miter;stroke-opacity:1" d="M 94.782,817.737 103.035,832.592 z" id="boundary" inkscape:connector-curvature="0" />
	<path style="fill:none;stroke:red;stroke-width:1px;stroke-linecap:butt;stroke-linejoin:miter;stroke-opacity:1" d="M 103.035,832.592 103.035,849.098 z" id="boundary" inkscape:connector-curvature="0" />
	<path style="fill:none;stroke:red;stroke-width:1px;stroke-linecap:butt;stroke-linejoin:miter;stroke-opacity:1" d="M 111.288,880.459 103.035,865.604 z" id="boundary" inkscape:connector-curvature="0" />
	<path style="fill:none;stroke:red;stroke-width:1px;stroke-linecap:butt;stroke-linejoin:miter;stroke-opacity:1" d="M 111.288,880.459 111.288,896.965 z" id="boundary" inkscape:connector-curvature="0" />
	<path style="fill:none;stroke:red;stroke-width:1px;stroke-linecap:butt;stroke-linejoin:miter;stroke-opacity:1" d="M 116.24,961.338 103.035,949.784 z" id="boundary" inkscape:connector-curvature="0" />
	<path style="fill:none;stroke:red;stroke-width:1px;stroke-linecap:butt;stroke-linejoin:miter;stroke-opacity:1" d="M 111.288,896.965 111.288,913.471 z" id="boundary" inkscape:connector-curvature="0" />
	<path style="fill:none;stroke:red;stroke-width:1px;stroke-linecap:butt;stroke-linejoin:miter;stroke-opacity:1" d="M 111.288,913.471 103.035,933.278 z" id="boundary" inkscape:connector-curvature="0" />
	<path style="fill:none;stroke:red;stroke-width:1px;stroke-linecap:butt;stroke-linejoin:miter;stroke-opacity:1" d="M 103.035,933.278 103.035,949.784 z" id="boundary" inkscape:connector-curvature="0" />
	<path style="fill:none;stroke:red;stroke-width:1px;stroke-linecap:butt;stroke-linejoin:miter;stroke-opacity:1" d="M 116.24,961.338 127.794,974.542 z" id="boundary" inkscape:connector-curvature="0" />
	<path style="fill:none;stroke:red;stroke-width:1px;stroke-linecap:butt;stroke-linejoin:miter;stroke-opacity:1" d="M 144.3,979.494 127.794,974.542 z" id="boundary" inkscape:connector-curvature="0" />
	<path style="fill:none;stroke:red;stroke-width:1px;stroke-linecap:butt;stroke-linejoin:miter;stroke-opacity:1" d="M 175.661,987.747 159.155,987.747 z" id="boundary" inkscape:connector-curvature="0" />
	<path style="fill:none;stroke:red;stroke-width:1px;stroke-linecap:butt;stroke-linejoin:miter;stroke-opacity:1" d="M 159.155,987.747 144.3,979.494 z" id="boundary" inkscape:connector-curvature="0" />
	<path style="fill:none;stroke:red;stroke-width:1px;stroke-linecap:butt;stroke-linejoin:miter;stroke-opacity:1" d="M 175.661,987.747 190.516,996 z" id="boundary" inkscape:connector-curvature="0" />
	<path style="fill:none;stroke:red;stroke-width:1px;stroke-linecap:butt;stroke-linejoin:miter;stroke-opacity:1" d="M 200.419,20.5058 185.564,12.2529 z" id="boundary" inkscape:connector-curvature="0" />
	<path style="fill:none;stroke:red;stroke-width:1px;stroke-linecap:butt;stroke-linejoin:miter;stroke-opacity:1" d="M 215.275,28.7587 200.419,20.5058 z" id="boundary" inkscape:connector-curvature="0" />
	<path style="fill:none;stroke:red;stroke-width:1px;stroke-linecap:butt;stroke-linejoin:miter;stroke-opacity:1" d="M 230.13,37.0116 244.985,45.2646 z" id="boundary" inkscape:connector-curvature="0" />
	<path style="fill:none;stroke:red;stroke-width:1px;stroke-linecap:butt;stroke-linejoin:miter;stroke-opacity:1" d="M 258.19,55.1681 244.985,45.2646 z" id="boundary" inkscape:connector-curvature="0" />
	<path style="fill:none;stroke:red;stroke-width:1px;stroke-linecap:butt;stroke-linejoin:miter;stroke-opacity:1" d="M 215.275,28.7587 230.13,37.0116 z" id="boundary" inkscape:connector-curvature="0" />
	<path style="fill:none;stroke:red;stroke-width:1px;stroke-linecap:butt;stroke-linejoin:miter;stroke-opacity:1" d="M 261.491,211.973 253.238,228.479 z" id="boundary" inkscape:connector-curvature="0" />
	<path style="fill:none;stroke:red;stroke-width:1px;stroke-linecap:butt;stroke-linejoin:miter;stroke-opacity:1" d="M 253.238,228.479 261.491,243.334 z" id="boundary" inkscape:connector-curvature="0" />
	<path style="fill:none;stroke:red;stroke-width:1px;stroke-linecap:butt;stroke-linejoin:miter;stroke-opacity:1" d="M 258.19,55.1681 264.792,71.6739 z" id="boundary" inkscape:connector-curvature="0" />
	<path style="fill:none;stroke:red;stroke-width:1px;stroke-linecap:butt;stroke-linejoin:miter;stroke-opacity:1" d="M 269.744,88.1797 269.744,104.686 z" id="boundary" inkscape:connector-curvature="0" />
	<path style="fill:none;stroke:red;stroke-width:1px;stroke-linecap:butt;stroke-linejoin:miter;stroke-opacity:1" d="M 269.744,88.1797 264.792,71.6739 z" id="boundary" inkscape:connector-curvature="0" />
	<path style="fill:none;stroke:red;stroke-width:1px;stroke-linecap:butt;stroke-linejoin:miter;stroke-opacity:1" d="M 269.744,137.697 269.744,121.191 z" id="boundary" inkscape:connector-curvature="0" />
	<path style="fill:none;stroke:red;stroke-width:1px;stroke-linecap:butt;stroke-linejoin:miter;stroke-opacity:1" d="M 269.744,104.686 269.744,121.191 z" id="boundary" inkscape:connector-curvature="0" />
	<path style="fill:none;stroke:red;stroke-width:1px;stroke-linecap:butt;stroke-linejoin:miter;stroke-opacity:1" d="M 269.744,170.709 269.744,154.203 z" id="boundary" inkscape:connector-curvature="0" />
	<path style="fill:none;stroke:red;stroke-width:1px;stroke-linecap:butt;stroke-linejoin:miter;stroke-opacity:1" d="M 269.744,187.215 269.744,170.709 z" id="boundary" inkscape:connector-curvature="0" />
	<path style="fill:none;stroke:red;stroke-width:1px;stroke-linecap:butt;stroke-linejoin:miter;stroke-opacity:1" d="M 269.744,137.697 269.744,154.203 z" id="boundary" inkscape:connector-curvature="0" />
	<path style="fill:none;stroke:red;stroke-width:1px;stroke-linecap:butt;stroke-linejoin:miter;stroke-opacity:1" d="M 269.744,187.215 261.491,211.973 z" id="boundary" inkscape:connector-curvature="0" />
	<path style="fill:none;stroke:red;stroke-width:1px;stroke-linecap:butt;stroke-linejoin:miter;stroke-opacity:1" d="M 269.744,258.19 261.491,243.334 z" id="boundary" inkscape:connector-curvature="0" />
	<path style="fill:none;stroke:red;stroke-width:1px;stroke-linecap:butt;stroke-linejoin:miter;stroke-opacity:1" d="M 282.948,269.744 269.744,258.19 z" id="boundary" inkscape:connector-curvature="0" />
	<path style="fill:none;stroke:red;stroke-width:1px;stroke-linecap:butt;stroke-linejoin:miter;stroke-opacity:1" d="M 294.502,301.105 286.25,286.25 z" id="boundary" inkscape:connector-curvature="0" />
	<path style="fill:none;stroke:red;stroke-width:1px;stroke-linecap:butt;stroke-linejoin:miter;stroke-opacity:1" d="M 286.25,286.25 282.948,269.744 z" id="boundary" inkscape:connector-curvature="0" />
	<path style="fill:none;stroke:red;stroke-width:1px;stroke-linecap:butt;stroke-linejoin:miter;stroke-opacity:1" d="M 294.502,301.105 294.502,317.611 z" id="boundary" inkscape:connector-curvature="0" />
	<path style="fill:none;stroke:red;stroke-width:1px;stroke-linecap:butt;stroke-linejoin:miter;stroke-opacity:1" d="M 294.502,317.611 294.502,334.116 z" id="boundary" inkscape:connector-curvature="0" />
	<path style="fill:none;stroke:red;stroke-width:1px;stroke-linecap:butt;stroke-linejoin:miter;stroke-opacity:1" d="M 302.755,348.972 294.502,368.779 z" id="boundary" inkscape:connector-curvature="0" />
	<path style="fill:none;stroke:red;stroke-width:1px;stroke-linecap:butt;stroke-linejoin:miter;stroke-opacity:1" d="M 294.502,334.116 302.755,348.972 z" id="boundary" inkscape:connector-curvature="0" />
	<path style="fill:none;stroke:red;stroke-width:1px;stroke-linecap:butt;stroke-linejoin:miter;stroke-opacity:1" d="M 311.008,416.646 302.755,401.79 z" id="boundary" inkscape:connector-curvature="0" />
	<path style="fill:none;stroke:red;stroke-width:1px;stroke-linecap:butt;stroke-linejoin:miter;stroke-opacity:1" d="M 302.755,401.79 297.804,385.285 z" id="boundary" inkscape:connector-curvature="0" />
	<path style="fill:none;stroke:red;stroke-width:1px;stroke-linecap:butt;stroke-linejoin:miter;stroke-opacity:1" d="M 311.008,416.646 319.261,431.501 z" id="boundary" inkscape:connector-curvature="0" />
	<path style="fill:none;stroke:red;stroke-width:1px;stroke-linecap:butt;stroke-linejoin:miter;stroke-opacity:1" d="M 319.261,464.512 319.261,448.007 z" id="boundary" inkscape:connector-curvature="0" />
	<path style="fill:none;stroke:red;stroke-width:1px;stroke-linecap:butt;stroke-linejoin:miter;stroke-opacity:1" d="M 319.261,448.007 319.261,431.501 z" id="boundary" inkscape:connector-curvature="0" />
	<path style="fill:none;stroke:red;stroke-width:1px;stroke-linecap:butt;stroke-linejoin:miter;stroke-opacity:1" d="M 297.804,385.285 294.502,368.779 z" id="boundary" inkscape:connector-curvature="0" />
	<path style="fill:none;stroke:red;stroke-width:1px;stroke-linecap:butt;stroke-linejoin:miter;stroke-opacity:1" d="M 319.261,464.512 327.514,479.368 z" id="boundary" inkscape:connector-curvature="0" />
	<path style="fill:none;stroke:red;stroke-width:1px;stroke-linecap:butt;stroke-linejoin:miter;stroke-opacity:1" d="M 327.514,479.368 334.116,495.874 z" id="boundary" inkscape:connector-curvature="0" />
	<path style="fill:none;stroke:red;stroke-width:1px;stroke-linecap:butt;stroke-linejoin:miter;stroke-opacity:1" d="M 335.767,512.379 344.02,527.235 z" id="boundary" inkscape:connector-curvature="0" />
	<path style="fill:none;stroke:red;stroke-width:1px;stroke-linecap:butt;stroke-linejoin:miter;stroke-opacity:1" d="M 334.116,495.874 335.767,512.379 z" id="boundary" inkscape:connector-curvature="0" />
	<path style="fill:none;stroke:red;stroke-width:1px;stroke-linecap:butt;stroke-linejoin:miter;stroke-opacity:1" d="M 348.972,543.74 352.273,560.246 z" id="boundary" inkscape:connector-curvature="0" />
	<path style="fill:none;stroke:red;stroke-width:1px;stroke-linecap:butt;stroke-linejoin:miter;stroke-opacity:1" d="M 344.02,527.235 348.972,543.74 z" id="boundary" inkscape:connector-curvature="0" />
	<path style="fill:none;stroke:red;stroke-width:1px;stroke-linecap:butt;stroke-linejoin:miter;stroke-opacity:1" d="M 352.273,560.246 352.273,576.752 z" id="boundary" inkscape:connector-curvature="0" />
	<path style="fill:none;stroke:red;stroke-width:1px;stroke-linecap:butt;stroke-linejoin:miter;stroke-opacity:1" d="M 352.273,576.752 347.321,598.21 z" id="boundary" inkscape:connector-curvature="0" />
	<path style="fill:none;stroke:red;stroke-width:1px;stroke-linecap:butt;stroke-linejoin:miter;stroke-opacity:1" d="M 347.321,598.21 334.116,608.113 z" id="boundary" inkscape:connector-curvature="0" />
	<path style="fill:none;stroke:red;stroke-width:1px;stroke-linecap:butt;stroke-linejoin:miter;stroke-opacity:1" d="M 286.25,756.666 277.997,773.171 z" id="boundary" inkscape:connector-curvature="0" />
	<path style="fill:none;stroke:red;stroke-width:1px;stroke-linecap:butt;stroke-linejoin:miter;stroke-opacity:1" d="M 261.491,839.195 253.238,863.953 z" id="boundary" inkscape:connector-curvature="0" />
	<path style="fill:none;stroke:red;stroke-width:1px;stroke-linecap:butt;stroke-linejoin:miter;stroke-opacity:1" d="M 269.744,814.436 261.491,839.195 z" id="boundary" inkscape:connector-curvature="0" />
	<path style="fill:none;stroke:red;stroke-width:1px;stroke-linecap:butt;stroke-linejoin:miter;stroke-opacity:1" d="M 277.997,789.677 269.744,814.436 z" id="boundary" inkscape:connector-curvature="0" />
	<path style="fill:none;stroke:red;stroke-width:1px;stroke-linecap:butt;stroke-linejoin:miter;stroke-opacity:1" d="M 277.997,773.171 277.997,789.677 z" id="boundary" inkscape:connector-curvature="0" />
	<path style="fill:none;stroke:red;stroke-width:1px;stroke-linecap:butt;stroke-linejoin:miter;stroke-opacity:1" d="M 207.022,996 190.516,996 z" id="boundary" inkscape:connector-curvature="0" />
	<path style="fill:none;stroke:red;stroke-width:1px;stroke-linecap:butt;stroke-linejoin:miter;stroke-opacity:1" d="M 223.527,996 207.022,996 z" id="boundary" inkscape:connector-curvature="0" />
	<path style="fill:none;stroke:red;stroke-width:1px;stroke-linecap:butt;stroke-linejoin:miter;stroke-opacity:1" d="M 223.527,996 240.033,996 z" id="boundary" inkscape:connector-curvature="0" />
	<path style="fill:none;stroke:red;stroke-width:1px;stroke-linecap:butt;stroke-linejoin:miter;stroke-opacity:1" d="M 261.491,895.314 253.238,880.459 z" id="boundary" inkscape:connector-curvature="0" />
	<path style="fill:none;stroke:red;stroke-width:1px;stroke-linecap:butt;stroke-linejoin:miter;stroke-opacity:1" d="M 253.238,863.953 253.238,880.459 z" id="boundary" inkscape:connector-curvature="0" />
	<path style="fill:none;stroke:red;stroke-width:1px;stroke-linecap:butt;stroke-linejoin:miter;stroke-opacity:1" d="M 261.491,895.314 277.997,900.266 z" id="boundary" inkscape:connector-curvature="0" />
	<path style="fill:none;stroke:red;stroke-width:1px;stroke-linecap:butt;stroke-linejoin:miter;stroke-opacity:1" d="M 256.539,996 240.033,996 z" id="boundary" inkscape:connector-curvature="0" />
	<path style="fill:none;stroke:red;stroke-width:1px;stroke-linecap:butt;stroke-linejoin:miter;stroke-opacity:1" d="M 271.394,987.747 256.539,996 z" id="boundary" inkscape:connector-curvature="0" />
	<path style="fill:none;stroke:red;stroke-width:1px;stroke-linecap:butt;stroke-linejoin:miter;stroke-opacity:1" d="M 286.25,979.494 271.394,987.747 z" id="boundary" inkscape:connector-curvature="0" />
	<path style="fill:none;stroke:red;stroke-width:1px;stroke-linecap:butt;stroke-linejoin:miter;stroke-opacity:1" d="M 307.707,662.582 294.502,674.136 z" id="boundary" inkscape:connector-curvature="0" />
	<path style="fill:none;stroke:red;stroke-width:1px;stroke-linecap:butt;stroke-linejoin:miter;stroke-opacity:1" d="M 294.502,674.136 294.502,690.642 z" id="boundary" inkscape:connector-curvature="0" />
	<path style="fill:none;stroke:red;stroke-width:1px;stroke-linecap:butt;stroke-linejoin:miter;stroke-opacity:1" d="M 319.261,649.378 307.707,662.582 z" id="boundary" inkscape:connector-curvature="0" />
	<path style="fill:none;stroke:red;stroke-width:1px;stroke-linecap:butt;stroke-linejoin:miter;stroke-opacity:1" d="M 319.261,616.366 319.261,632.872 z" id="boundary" inkscape:connector-curvature="0" />
	<path style="fill:none;stroke:red;stroke-width:1px;stroke-linecap:butt;stroke-linejoin:miter;stroke-opacity:1" d="M 319.261,649.378 319.261,632.872 z" id="boundary" inkscape:connector-curvature="0" />
	<path style="fill:none;stroke:red;stroke-width:1px;stroke-linecap:butt;stroke-linejoin:miter;stroke-opacity:1" d="M 294.502,731.907 286.25,756.666 z" id="boundary" inkscape:connector-curvature="0" />
	<path style="fill:none;stroke:red;stroke-width:1px;stroke-linecap:butt;stroke-linejoin:miter;stroke-opacity:1" d="M 294.502,690.642 302.755,705.498 z" id="boundary" inkscape:connector-curvature="0" />
	<path style="fill:none;stroke:red;stroke-width:1px;stroke-linecap:butt;stroke-linejoin:miter;stroke-opacity:1" d="M 302.755,705.498 294.502,731.907 z" id="boundary" inkscape:connector-curvature="0" />
	<path style="fill:none;stroke:red;stroke-width:1px;stroke-linecap:butt;stroke-linejoin:miter;stroke-opacity:1" d="M 319.261,616.366 334.116,608.113 z" id="boundary" inkscape:connector-curvature="0" />
	<path style="fill:none;stroke:red;stroke-width:1px;stroke-linecap:butt;stroke-linejoin:miter;stroke-opacity:1" d="M 291.201,911.82 277.997,900.266 z" id="boundary" inkscape:connector-curvature="0" />
	<path style="fill:none;stroke:red;stroke-width:1px;stroke-linecap:butt;stroke-linejoin:miter;stroke-opacity:1" d="M 307.707,913.471 291.201,911.82 z" id="boundary" inkscape:connector-curvature="0" />
	<path style="fill:none;stroke:red;stroke-width:1px;stroke-linecap:butt;stroke-linejoin:miter;stroke-opacity:1" d="M 322.562,921.724 307.707,913.471 z" id="boundary" inkscape:connector-curvature="0" />
	<path style="fill:none;stroke:red;stroke-width:1px;stroke-linecap:butt;stroke-linejoin:miter;stroke-opacity:1" d="M 301.105,971.241 286.25,979.494 z" id="boundary" inkscape:connector-curvature="0" />
	<path style="fill:none;stroke:red;stroke-width:1px;stroke-linecap:butt;stroke-linejoin:miter;stroke-opacity:1" d="M 317.611,971.241 301.105,971.241 z" id="boundary" inkscape:connector-curvature="0" />
	<path style="fill:none;stroke:red;stroke-width:1px;stroke-linecap:butt;stroke-linejoin:miter;stroke-opacity:1" d="M 335.767,933.278 322.562,921.724 z" id="boundary" inkscape:connector-curvature="0" />
	<path style="fill:none;stroke:red;stroke-width:1px;stroke-linecap:butt;stroke-linejoin:miter;stroke-opacity:1" d="M 330.815,961.338 317.611,971.241 z" id="boundary" inkscape:connector-curvature="0" />
	<path style="fill:none;stroke:red;stroke-width:1px;stroke-linecap:butt;stroke-linejoin:miter;stroke-opacity:1" d="M 335.767,933.278 330.815,961.338 z" id="boundary" inkscape:connector-curvature="0" />
	<circle cx="4" cy="330.815" r="4" fill="#0" id="circle0"/>
	<circle cx="4" cy="347.321" r="4" fill="#0" id="circle1"/>
	<circle cx="12.2529" cy="306.057" r="4" fill="#0" id="circle2"/>
	<circle cx="12.2529" cy="362.176" r="4" fill="#0" id="circle3"/>
	<circle cx="20.5058" cy="289.551" r="4" fill="#0" id="circle4"/>
	<circle cx="20.5058" cy="377.032" r="4" fill="#0" id="circle5"/>
	<circle cx="20.5058" cy="393.537" r="4" fill="#0" id="circle6"/>
	<circle cx="20.5058" cy="410.043" r="4" fill="#0" id="circle7"/>
	<circle cx="20.5058" cy="426.549" r="4" fill="#0" id="circle8"/>
	<circle cx="20.5058" cy="443.055" r="4" fill="#0" id="circle9"/>
	<circle cx="20.5058" cy="459.561" r="4" fill="#0" id="circle10"/>
	<circle cx="25.4576" cy="476.067" r="4" fill="#0" id="circle11"/>
	<circle cx="28.7587" cy="83.228" r="4" fill="#0" id="circle12"/>
	<circle cx="28.7587" cy="99.7338" r="4" fill="#0" id="circle13"/>
	<circle cx="28.7587" cy="116.24" r="4" fill="#0" id="circle14"/>
	<circle cx="28.7587" cy="132.745" r="4" fill="#0" id="circle15"/>
	<circle cx="28.7587" cy="273.045" r="4" fill="#0" id="circle16"/>
	<circle cx="28.7587" cy="492.572" r="4" fill="#0" id="circle17"/>
	<circle cx="37.0116" cy="66.7221" r="4" fill="#0" id="circle18"/>
	<circle cx="37.0116" cy="147.601" r="4" fill="#0" id="circle19"/>
	<circle cx="37.0116" cy="507.428" r="4" fill="#0" id="circle20"/>
	<circle cx="40.3128" cy="523.933" r="4" fill="#0" id="circle21"/>
	<circle cx="41.9634" cy="259.84" r="4" fill="#0" id="circle22"/>
	<circle cx="45.2646" cy="50.2163" r="4" fill="#0" id="circle23"/>
	<circle cx="45.2646" cy="540.439" r="4" fill="#0" id="circle24"/>
	<circle cx="45.2646" cy="556.945" r="4" fill="#0" id="circle25"/>
	<circle cx="48.5657" cy="160.805" r="4" fill="#0" id="circle26"/>
	<circle cx="53.5175" cy="571.8" r="4" fill="#0" id="circle27"/>
	<circle cx="53.5175" cy="588.306" r="4" fill="#0" id="circle28"/>
	<circle cx="53.5175" cy="604.812" r="4" fill="#0" id="circle29"/>
	<circle cx="58.4692" cy="37.0116" r="4" fill="#0" id="circle30"/>
	<circle cx="58.4692" cy="251.587" r="4" fill="#0" id="circle31"/>
	<circle cx="61.7704" cy="170.709" r="4" fill="#0" id="circle32"/>
	<circle cx="61.7704" cy="619.667" r="4" fill="#0" id="circle33"/>
	<circle cx="61.7704" cy="636.173" r="4" fill="#0" id="circle34"/>
	<circle cx="70.0233" cy="185.564" r="4" fill="#0" id="circle35"/>
	<circle cx="70.0233" cy="651.028" r="4" fill="#0" id="circle36"/>
	<circle cx="71.6739" cy="238.383" r="4" fill="#0" id="circle37"/>
	<circle cx="73.3245" cy="28.7587" r="4" fill="#0" id="circle38"/>
	<circle cx="73.3245" cy="202.07" r="4" fill="#0" id="circle39"/>
	<circle cx="78.2762" cy="218.576" r="4" fill="#0" id="circle40"/>
	<circle cx="78.2762" cy="665.884" r="4" fill="#0" id="circle41"/>
	<circle cx="86.5291" cy="17.2047" r="4" fill="#0" id="circle42"/>
	<circle cx="88.1797" cy="679.088" r="4" fill="#0" id="circle43"/>
	<circle cx="94.782" cy="801.231" r="4" fill="#0" id="circle44"/>
	<circle cx="94.782" cy="817.737" r="4" fill="#0" id="circle45"/>
	<circle cx="101.384" cy="690.642" r="4" fill="#0" id="circle46"/>
	<circle cx="103.035" cy="8.95175" r="4" fill="#0" id="circle47"/>
	<circle cx="103.035" cy="776.473" r="4" fill="#0" id="circle48"/>
	<circle cx="103.035" cy="832.592" r="4" fill="#0" id="circle49"/>
	<circle cx="103.035" cy="849.098" r="4" fill="#0" id="circle50"/>
	<circle cx="103.035" cy="865.604" r="4" fill="#0" id="circle51"/>
	<circle cx="103.035" cy="933.278" r="4" fill="#0" id="circle52"/>
	<circle cx="103.035" cy="949.784" r="4" fill="#0" id="circle53"/>
	<circle cx="111.288" cy="703.847" r="4" fill="#0" id="circle54"/>
	<circle cx="111.288" cy="720.353" r="4" fill="#0" id="circle55"/>
	<circle cx="111.288" cy="736.859" r="4" fill="#0" id="circle56"/>
	<circle cx="111.288" cy="753.364" r="4" fill="#0" id="circle57"/>
	<circle cx="111.288" cy="880.459" r="4" fill="#0" id="circle58"/>
	<circle cx="111.288" cy="896.965" r="4" fill="#0" id="circle59"/>
	<circle cx="111.288" cy="913.471" r="4" fill="#0" id="circle60"/>
	<circle cx="116.24" cy="961.338" r="4" fill="#0" id="circle61"/>
	<circle cx="119.541" cy="4" r="4" fill="#0" id="circle62"/>
	<circle cx="127.794" cy="974.542" r="4" fill="#0" id="circle63"/>
	<circle cx="136.047" cy="4" r="4" fill="#0" id="circle64"/>
	<circle cx="144.3" cy="979.494" r="4" fill="#0" id="circle65"/>
	<circle cx="152.552" cy="4" r="4" fill="#0" id="circle66"/>
	<circle cx="159.155" cy="987.747" r="4" fill="#0" id="circle67"/>
	<circle cx="169.058" cy="7.30116" r="4" fill="#0" id="circle68"/>
	<circle cx="175.661" cy="987.747" r="4" fill="#0" id="circle69"/>
	<circle cx="185.564" cy="12.2529" r="4" fill="#0" id="circle70"/>
	<circle cx="190.516" cy="996" r="4" fill="#0" id="circle71"/>
	<circle cx="200.419" cy="20.5058" r="4" fill="#0" id="circle72"/>
	<circle cx="207.022" cy="996" r="4" fill="#0" id="circle73"/>
	<circle cx="215.275" cy="28.7587" r="4" fill="#0" id="circle74"/>
	<circle cx="223.527" cy="996" r="4" fill="#0" id="circle75"/>
	<circle cx="230.13" cy="37.0116" r="4" fill="#0" id="circle76"/>
	<circle cx="240.033" cy="996" r="4" fill="#0" id="circle77"/>
	<circle cx="244.985" cy="45.2646" r="4" fill="#0" id="circle78"/>
	<circle cx="253.238" cy="228.479" r="4" fill="#0" id="circle79"/>
	<circle cx="253.238" cy="863.953" r="4" fill="#0" id="circle80"/>
	<circle cx="253.238" cy="880.459" r="4" fill="#0" id="circle81"/>
	<circle cx="256.539" cy="996" r="4" fill="#0" id="circle82"/>
	<circle cx="258.19" cy="55.1681" r="4" fill="#0" id="circle83"/>
	<circle cx="261.491" cy="211.973" r="4" fill="#0" id="circle84"/>
	<circle cx="261.491" cy="243.334" r="4" fill="#0" id="circle85"/>
	<circle cx="261.491" cy="839.195" r="4" fill="#0" id="circle86"/>
	<circle cx="261.491" cy="895.314" r="4" fill="#0" id="circle87"/>
	<circle cx="264.792" cy="71.6739" r="4" fill="#0" id="circle88"/>
	<circle cx="269.744" cy="88.1797" r="4" fill="#0" id="circle89"/>
	<circle cx="269.744" cy="104.686" r="4" fill="#0" id="circle90"/>
	<circle cx="269.744" cy="121.191" r="4" fill="#0" id="circle91"/>
	<circle cx="269.744" cy="137.697" r="4" fill="#0" id="circle92"/>
	<circle cx="269.744" cy="154.203" r="4" fill="#0" id="circle93"/>
	<circle cx="269.744" cy="170.709" r="4" fill="#0" id="circle94"/>
	<circle cx="269.744" cy="187.215" r="4" fill="#0" id="circle95"/>
	<circle cx="269.744" cy="258.19" r="4" fill="#0" id="circle96"/>
	<circle cx="269.744" cy="814.436" r="4" fill="#0" id="circle97"/>
	<circle cx="271.394" cy="987.747" r="4" fill="#0" id="circle98"/>
	<circle cx="277.997" cy="773.171" r="4" fill="#0" id="circle99"/>
	<circle cx="277.997" cy="789.677" r="4" fill="#0" id="circle100"/>
	<circle cx="277.997" cy="900.266" r="4" fill="#0" id="circle101"/>
	<circle cx="282.948" cy="269.744" r="4" fill="#0" id="circle102"/>
	<circle cx="286.25" cy="286.25" r="4" fill="#0" id="circle103"/>
	<circle cx="286.25" cy="756.666" r="4" fill="#0" id="circle104"/>
	<circle cx="286.25" cy="979.494" r="4" fill="#0" id="circle105"/>
	<circle cx="291.201" cy="911.82" r="4" fill="#0" id="circle106"/>
	<circle cx="294.502" cy="301.105" r="4" fill="#0" id="circle107"/>
	<circle cx="294.502" cy="317.611" r="4" fill="#0" id="circle108"/>
	<circle cx="294.502" cy="334.116" r="4" fill="#0" id="circle109"/>
	<circle cx="294.502" cy="368.779" r="4" fill="#0" id="circle110"/>
	<circle cx="294.502" cy="674.136" r="4" fill="#0" id="circle111"/>
	<circle cx="294.502" cy="690.642" r="4" fill="#0" id="circle112"/>
	<circle cx="294.502" cy="731.907" r="4" fill="#0" id="circle113"/>
	<circle cx="297.804" cy="385.285" r="4" fill="#0" id="circle114"/>
	<circle cx="301.105" cy="971.241" r="4" fill="#0" id="circle115"/>
	<circle cx="302.755" cy="348.972" r="4" fill="#0" id="circle116"/>
	<circle cx="302.755" cy="401.79" r="4" fill="#0" id="circle117"/>
	<circle cx="302.755" cy="705.498" r="4" fill="#0" id="circle118"/>
	<circle cx="307.707" cy="662.582" r="4" fill="#0" id="circle119"/>
	<circle cx="307.707" cy="913.471" r="4" fill="#0" id="circle120"/>
	<circle cx="311.008" cy="416.646" r="4" fill="#0" id="circle121"/>
	<circle cx="317.611" cy="971.241" r="4" fill="#0" id="circle122"/>
	<circle cx="319.261" cy="431.501" r="4" fill="#0" id="circle123"/>
	<circle cx="319.261" cy="448.007" r="4" fill="#0" id="circle124"/>
	<circle cx="319.261" cy="464.512" r="4" fill="#0" id="circle125"/>
	<circle cx="319.261" cy="616.366" r="4" fill="#0" id="circle126"/>
	<circle cx="319.261" cy="632.872" r="4" fill="#0" id="circle127"/>
	<circle cx="319.261" cy="649.378" r="4" fill="#0" id="circle128"/>
	<circle cx="322.562" cy="921.724" r="4" fill="#0" id="circle129"/>
	<circle cx="327.514" cy="479.368" r="4" fill="#0" id="circle130"/>
	<circle cx="330.815" cy="961.338" r="4" fill="#0" id="circle131"/>
	<circle cx="334.116" cy="495.874" r="4" fill="#0" id="circle132"/>
	<circle cx="334.116" cy="608.113" r="4" fill="#0" id="circle133"/>
	<circle cx="335.767" cy="512.379" r="4" fill="#0" id="circle134"/>
	<circle cx="335.767" cy="933.278" r="4" fill="#0" id="circle135"/>
	<circle cx="344.02" cy="527.235" r="4" fill="#0" id="circle136"/>
	<circle cx="347.321" cy="598.21" r="4" fill="#0" id="circle137"/>
	<circle cx="348.972" cy="543.74" r="4" fill="#0" id="circle138"/>
	<circle cx="352.273" cy="560.246" r="4" fill="#0" id="circle139"/>
	<circle cx="352.273" cy="576.752" r="4" fill="#0" id="circle140"/>
	</g>
</svg>