<?xml version="1.0" encoding="UTF-8" standalone="no"?>
<!-- Created with CurveBenchmark -->
<svg
	xmlns:dc="http://purl.org/dc/elements/1.1/"
	xmlns:cc="http://creativecommons.org/ns#"
	xmlns:rdf="http://www.w3.org/1999/02/22-rdf-syntax-ns#"
	xmlns:svg="http://www.w3.org/2000/svg"
	xmlns="http://www.w3.org/2000/svg"
	xmlns:sodipodi="http://sodipodi.sourceforge.net/DTD/sodipodi-0.dtd"
	xmlns:inkscape="http://www.inkscape.org/namespaces/inkscape"
	width="1000"
	height="1000"
	id="svg2"
	version="1.1"
	sodipodi:docname="manifold/crust-carriage10.png.txt">
<defs
	id="defs4" />
<metadata
	id="metadata7">
	<rdf:RDF>
		<cc:Work
			rdf:about="">
			<dc:format>image/svg+xml</dc:format>
			<dc:type
				rdf:resource="http://purl.org/dc/dcmitype/StillImage" />
			<dc:title></dc:title>
		</cc:Work>
	</rdf:RDF>
</metadata>
<g
	inkscape:label="Layer 1"
	inkscape:groupmode="layer"
	id="layer1">
	<path style="fill:none;stroke:red;stroke-width:1px;stroke-linecap:butt;stroke-linejoin:miter;stroke-opacity:1" d="M 42.2819,87.2215 33.9597,103.866 z" id="boundary" inkscape:connector-curvature="0" />
	<path style="fill:none;stroke:red;stroke-width:1px;stroke-linecap:butt;stroke-linejoin:miter;stroke-opacity:1" d="M 45.6107,67.2483 42.2819,87.2215 z" id="boundary" inkscape:connector-curvature="0" />
	<path style="fill:none;stroke:red;stroke-width:1px;stroke-linecap:butt;stroke-linejoin:miter;stroke-opacity:1" d="M 45.6107,67.2483 58.9262,53.9329 z" id="boundary" inkscape:connector-curvature="0" />
	<path style="fill:none;stroke:red;stroke-width:1px;stroke-linecap:butt;stroke-linejoin:miter;stroke-opacity:1" d="M 58.9262,53.9329 75.5705,45.6107 z" id="boundary" inkscape:connector-curvature="0" />
	<path style="fill:none;stroke:red;stroke-width:1px;stroke-linecap:butt;stroke-linejoin:miter;stroke-opacity:1" d="M 4,117.181 17.3154,103.866 z" id="boundary" inkscape:connector-curvature="0" />
	<path style="fill:none;stroke:red;stroke-width:1px;stroke-linecap:butt;stroke-linejoin:miter;stroke-opacity:1" d="M 12.3221,132.161 4,117.181 z" id="boundary" inkscape:connector-curvature="0" />
	<path style="fill:none;stroke:red;stroke-width:1px;stroke-linecap:butt;stroke-linejoin:miter;stroke-opacity:1" d="M 17.3154,103.866 33.9597,103.866 z" id="boundary" inkscape:connector-curvature="0" />
	<path style="fill:none;stroke:red;stroke-width:1px;stroke-linecap:butt;stroke-linejoin:miter;stroke-opacity:1" d="M 90.5503,53.9329 103.866,65.5839 z" id="boundary" inkscape:connector-curvature="0" />
	<path style="fill:none;stroke:red;stroke-width:1px;stroke-linecap:butt;stroke-linejoin:miter;stroke-opacity:1" d="M 90.5503,53.9329 75.5705,45.6107 z" id="boundary" inkscape:connector-curvature="0" />
	<path style="fill:none;stroke:red;stroke-width:1px;stroke-linecap:butt;stroke-linejoin:miter;stroke-opacity:1" d="M 113.852,78.8993 103.866,65.5839 z" id="boundary" inkscape:connector-curvature="0" />
	<path style="fill:none;stroke:red;stroke-width:1px;stroke-linecap:butt;stroke-linejoin:miter;stroke-opacity:1" d="M 122.174,93.8792 113.852,78.8993 z" id="boundary" inkscape:connector-curvature="0" />
	<path style="fill:none;stroke:red;stroke-width:1px;stroke-linecap:butt;stroke-linejoin:miter;stroke-opacity:1" d="M 135.49,105.53 122.174,93.8792 z" id="boundary" inkscape:connector-curvature="0" />
	<path style="fill:none;stroke:red;stroke-width:1px;stroke-linecap:butt;stroke-linejoin:miter;stroke-opacity:1" d="M 147.141,118.846 135.49,105.53 z" id="boundary" inkscape:connector-curvature="0" />
	<path style="fill:none;stroke:red;stroke-width:1px;stroke-linecap:butt;stroke-linejoin:miter;stroke-opacity:1" d="M 160.456,128.832 147.141,118.846 z" id="boundary" inkscape:connector-curvature="0" />
	<path style="fill:none;stroke:red;stroke-width:1px;stroke-linecap:butt;stroke-linejoin:miter;stroke-opacity:1" d="M 177.101,128.832 160.456,128.832 z" id="boundary" inkscape:connector-curvature="0" />
	<path style="fill:none;stroke:red;stroke-width:1px;stroke-linecap:butt;stroke-linejoin:miter;stroke-opacity:1" d="M 35.6242,155.463 20.6443,147.141 z" id="boundary" inkscape:connector-curvature="0" />
	<path style="fill:none;stroke:red;stroke-width:1px;stroke-linecap:butt;stroke-linejoin:miter;stroke-opacity:1" d="M 20.6443,147.141 12.3221,132.161 z" id="boundary" inkscape:connector-curvature="0" />
	<path style="fill:none;stroke:red;stroke-width:1px;stroke-linecap:butt;stroke-linejoin:miter;stroke-opacity:1" d="M 67.2483,137.154 83.8926,130.497 z" id="boundary" inkscape:connector-curvature="0" />
	<path style="fill:none;stroke:red;stroke-width:1px;stroke-linecap:butt;stroke-linejoin:miter;stroke-opacity:1" d="M 67.2483,137.154 50.604,145.477 z" id="boundary" inkscape:connector-curvature="0" />
	<path style="fill:none;stroke:red;stroke-width:1px;stroke-linecap:butt;stroke-linejoin:miter;stroke-opacity:1" d="M 83.8926,130.497 87.2215,147.141 z" id="boundary" inkscape:connector-curvature="0" />
	<path style="fill:none;stroke:red;stroke-width:1px;stroke-linecap:butt;stroke-linejoin:miter;stroke-opacity:1" d="M 50.604,145.477 35.6242,155.463 z" id="boundary" inkscape:connector-curvature="0" />
	<path style="fill:none;stroke:red;stroke-width:1px;stroke-linecap:butt;stroke-linejoin:miter;stroke-opacity:1" d="M 95.5436,162.121 87.2215,147.141 z" id="boundary" inkscape:connector-curvature="0" />
	<path style="fill:none;stroke:red;stroke-width:1px;stroke-linecap:butt;stroke-linejoin:miter;stroke-opacity:1" d="M 95.5436,162.121 95.5436,183.758 z" id="boundary" inkscape:connector-curvature="0" />
	<path style="fill:none;stroke:red;stroke-width:1px;stroke-linecap:butt;stroke-linejoin:miter;stroke-opacity:1" d="M 95.5436,183.758 103.866,198.738 z" id="boundary" inkscape:connector-curvature="0" />
	<path style="fill:none;stroke:red;stroke-width:1px;stroke-linecap:butt;stroke-linejoin:miter;stroke-opacity:1" d="M 103.866,198.738 115.517,212.054 z" id="boundary" inkscape:connector-curvature="0" />
	<path style="fill:none;stroke:red;stroke-width:1px;stroke-linecap:butt;stroke-linejoin:miter;stroke-opacity:1" d="M 177.101,128.832 193.745,128.832 z" id="boundary" inkscape:connector-curvature="0" />
	<path style="fill:none;stroke:red;stroke-width:1px;stroke-linecap:butt;stroke-linejoin:miter;stroke-opacity:1" d="M 193.745,128.832 210.389,128.832 z" id="boundary" inkscape:connector-curvature="0" />
	<path style="fill:none;stroke:red;stroke-width:1px;stroke-linecap:butt;stroke-linejoin:miter;stroke-opacity:1" d="M 210.389,128.832 225.369,137.154 z" id="boundary" inkscape:connector-curvature="0" />
	<path style="fill:none;stroke:red;stroke-width:1px;stroke-linecap:butt;stroke-linejoin:miter;stroke-opacity:1" d="M 120.51,228.698 115.517,212.054 z" id="boundary" inkscape:connector-curvature="0" />
	<path style="fill:none;stroke:red;stroke-width:1px;stroke-linecap:butt;stroke-linejoin:miter;stroke-opacity:1" d="M 120.51,228.698 120.51,245.342 z" id="boundary" inkscape:connector-curvature="0" />
	<path style="fill:none;stroke:red;stroke-width:1px;stroke-linecap:butt;stroke-linejoin:miter;stroke-opacity:1" d="M 242.013,137.154 225.369,137.154 z" id="boundary" inkscape:connector-curvature="0" />
	<path style="fill:none;stroke:red;stroke-width:1px;stroke-linecap:butt;stroke-linejoin:miter;stroke-opacity:1" d="M 258.658,137.154 242.013,137.154 z" id="boundary" inkscape:connector-curvature="0" />
	<path style="fill:none;stroke:red;stroke-width:1px;stroke-linecap:butt;stroke-linejoin:miter;stroke-opacity:1" d="M 258.658,137.154 275.302,137.154 z" id="boundary" inkscape:connector-curvature="0" />
	<path style="fill:none;stroke:red;stroke-width:1px;stroke-linecap:butt;stroke-linejoin:miter;stroke-opacity:1" d="M 291.946,137.154 308.591,137.154 z" id="boundary" inkscape:connector-curvature="0" />
	<path style="fill:none;stroke:red;stroke-width:1px;stroke-linecap:butt;stroke-linejoin:miter;stroke-opacity:1" d="M 325.235,137.154 308.591,137.154 z" id="boundary" inkscape:connector-curvature="0" />
	<path style="fill:none;stroke:red;stroke-width:1px;stroke-linecap:butt;stroke-linejoin:miter;stroke-opacity:1" d="M 291.946,137.154 275.302,137.154 z" id="boundary" inkscape:connector-curvature="0" />
	<path style="fill:none;stroke:red;stroke-width:1px;stroke-linecap:butt;stroke-linejoin:miter;stroke-opacity:1" d="M 341.879,137.154 325.235,137.154 z" id="boundary" inkscape:connector-curvature="0" />
	<path style="fill:none;stroke:red;stroke-width:1px;stroke-linecap:butt;stroke-linejoin:miter;stroke-opacity:1" d="M 341.879,137.154 358.523,137.154 z" id="boundary" inkscape:connector-curvature="0" />
	<path style="fill:none;stroke:red;stroke-width:1px;stroke-linecap:butt;stroke-linejoin:miter;stroke-opacity:1" d="M 375.168,137.154 390.148,145.477 z" id="boundary" inkscape:connector-curvature="0" />
	<path style="fill:none;stroke:red;stroke-width:1px;stroke-linecap:butt;stroke-linejoin:miter;stroke-opacity:1" d="M 396.805,162.121 390.148,145.477 z" id="boundary" inkscape:connector-curvature="0" />
	<path style="fill:none;stroke:red;stroke-width:1px;stroke-linecap:butt;stroke-linejoin:miter;stroke-opacity:1" d="M 358.523,137.154 375.168,137.154 z" id="boundary" inkscape:connector-curvature="0" />
	<path style="fill:none;stroke:red;stroke-width:1px;stroke-linecap:butt;stroke-linejoin:miter;stroke-opacity:1" d="M 405.128,177.101 396.805,162.121 z" id="boundary" inkscape:connector-curvature="0" />
	<path style="fill:none;stroke:red;stroke-width:1px;stroke-linecap:butt;stroke-linejoin:miter;stroke-opacity:1" d="M 511.651,150.47 503.329,167.114 z" id="boundary" inkscape:connector-curvature="0" />
	<path style="fill:none;stroke:red;stroke-width:1px;stroke-linecap:butt;stroke-linejoin:miter;stroke-opacity:1" d="M 413.45,192.081 405.128,177.101 z" id="boundary" inkscape:connector-curvature="0" />
	<path style="fill:none;stroke:red;stroke-width:1px;stroke-linecap:butt;stroke-linejoin:miter;stroke-opacity:1" d="M 503.329,167.114 495.007,192.081 z" id="boundary" inkscape:connector-curvature="0" />
	<path style="fill:none;stroke:red;stroke-width:1px;stroke-linecap:butt;stroke-linejoin:miter;stroke-opacity:1" d="M 493.342,212.054 495.007,192.081 z" id="boundary" inkscape:connector-curvature="0" />
	<path style="fill:none;stroke:red;stroke-width:1px;stroke-linecap:butt;stroke-linejoin:miter;stroke-opacity:1" d="M 413.45,192.081 413.45,208.725 z" id="boundary" inkscape:connector-curvature="0" />
	<path style="fill:none;stroke:red;stroke-width:1px;stroke-linecap:butt;stroke-linejoin:miter;stroke-opacity:1" d="M 430.094,212.054 413.45,208.725 z" id="boundary" inkscape:connector-curvature="0" />
	<path style="fill:none;stroke:red;stroke-width:1px;stroke-linecap:butt;stroke-linejoin:miter;stroke-opacity:1" d="M 445.074,220.376 430.094,212.054 z" id="boundary" inkscape:connector-curvature="0" />
	<path style="fill:none;stroke:red;stroke-width:1px;stroke-linecap:butt;stroke-linejoin:miter;stroke-opacity:1" d="M 476.698,212.054 460.054,212.054 z" id="boundary" inkscape:connector-curvature="0" />
	<path style="fill:none;stroke:red;stroke-width:1px;stroke-linecap:butt;stroke-linejoin:miter;stroke-opacity:1" d="M 445.074,220.376 460.054,212.054 z" id="boundary" inkscape:connector-curvature="0" />
	<path style="fill:none;stroke:red;stroke-width:1px;stroke-linecap:butt;stroke-linejoin:miter;stroke-opacity:1" d="M 493.342,212.054 476.698,212.054 z" id="boundary" inkscape:connector-curvature="0" />
	<path style="fill:none;stroke:red;stroke-width:1px;stroke-linecap:butt;stroke-linejoin:miter;stroke-opacity:1" d="M 185.423,260.322 172.107,271.973 z" id="boundary" inkscape:connector-curvature="0" />
	<path style="fill:none;stroke:red;stroke-width:1px;stroke-linecap:butt;stroke-linejoin:miter;stroke-opacity:1" d="M 120.51,261.987 120.51,245.342 z" id="boundary" inkscape:connector-curvature="0" />
	<path style="fill:none;stroke:red;stroke-width:1px;stroke-linecap:butt;stroke-linejoin:miter;stroke-opacity:1" d="M 120.51,261.987 120.51,278.631 z" id="boundary" inkscape:connector-curvature="0" />
	<path style="fill:none;stroke:red;stroke-width:1px;stroke-linecap:butt;stroke-linejoin:miter;stroke-opacity:1" d="M 120.51,278.631 112.188,308.591 z" id="boundary" inkscape:connector-curvature="0" />
	<path style="fill:none;stroke:red;stroke-width:1px;stroke-linecap:butt;stroke-linejoin:miter;stroke-opacity:1" d="M 112.188,308.591 112.188,325.235 z" id="boundary" inkscape:connector-curvature="0" />
	<path style="fill:none;stroke:red;stroke-width:1px;stroke-linecap:butt;stroke-linejoin:miter;stroke-opacity:1" d="M 172.107,271.973 163.785,296.94 z" id="boundary" inkscape:connector-curvature="0" />
	<path style="fill:none;stroke:red;stroke-width:1px;stroke-linecap:butt;stroke-linejoin:miter;stroke-opacity:1" d="M 163.785,296.94 163.785,313.584 z" id="boundary" inkscape:connector-curvature="0" />
	<path style="fill:none;stroke:red;stroke-width:1px;stroke-linecap:butt;stroke-linejoin:miter;stroke-opacity:1" d="M 185.423,260.322 202.067,255.329 z" id="boundary" inkscape:connector-curvature="0" />
	<path style="fill:none;stroke:red;stroke-width:1px;stroke-linecap:butt;stroke-linejoin:miter;stroke-opacity:1" d="M 218.711,255.329 235.356,255.329 z" id="boundary" inkscape:connector-curvature="0" />
	<path style="fill:none;stroke:red;stroke-width:1px;stroke-linecap:butt;stroke-linejoin:miter;stroke-opacity:1" d="M 202.067,255.329 218.711,255.329 z" id="boundary" inkscape:connector-curvature="0" />
	<path style="fill:none;stroke:red;stroke-width:1px;stroke-linecap:butt;stroke-linejoin:miter;stroke-opacity:1" d="M 235.356,255.329 252,255.329 z" id="boundary" inkscape:connector-curvature="0" />
	<path style="fill:none;stroke:red;stroke-width:1px;stroke-linecap:butt;stroke-linejoin:miter;stroke-opacity:1" d="M 266.98,263.651 252,255.329 z" id="boundary" inkscape:connector-curvature="0" />
	<path style="fill:none;stroke:red;stroke-width:1px;stroke-linecap:butt;stroke-linejoin:miter;stroke-opacity:1" d="M 283.624,263.651 300.268,263.651 z" id="boundary" inkscape:connector-curvature="0" />
	<path style="fill:none;stroke:red;stroke-width:1px;stroke-linecap:butt;stroke-linejoin:miter;stroke-opacity:1" d="M 300.268,263.651 295.275,283.624 z" id="boundary" inkscape:connector-curvature="0" />
	<path style="fill:none;stroke:red;stroke-width:1px;stroke-linecap:butt;stroke-linejoin:miter;stroke-opacity:1" d="M 266.98,263.651 283.624,263.651 z" id="boundary" inkscape:connector-curvature="0" />
	<path style="fill:none;stroke:red;stroke-width:1px;stroke-linecap:butt;stroke-linejoin:miter;stroke-opacity:1" d="M 295.275,283.624 303.597,298.604 z" id="boundary" inkscape:connector-curvature="0" />
	<path style="fill:none;stroke:red;stroke-width:1px;stroke-linecap:butt;stroke-linejoin:miter;stroke-opacity:1" d="M 303.597,298.604 295.275,316.913 z" id="boundary" inkscape:connector-curvature="0" />
	<path style="fill:none;stroke:red;stroke-width:1px;stroke-linecap:butt;stroke-linejoin:miter;stroke-opacity:1" d="M 112.188,341.879 120.51,356.859 z" id="boundary" inkscape:connector-curvature="0" />
	<path style="fill:none;stroke:red;stroke-width:1px;stroke-linecap:butt;stroke-linejoin:miter;stroke-opacity:1" d="M 112.188,325.235 112.188,341.879 z" id="boundary" inkscape:connector-curvature="0" />
	<path style="fill:none;stroke:red;stroke-width:1px;stroke-linecap:butt;stroke-linejoin:miter;stroke-opacity:1" d="M 128.832,371.839 143.812,380.161 z" id="boundary" inkscape:connector-curvature="0" />
	<path style="fill:none;stroke:red;stroke-width:1px;stroke-linecap:butt;stroke-linejoin:miter;stroke-opacity:1" d="M 128.832,371.839 120.51,356.859 z" id="boundary" inkscape:connector-curvature="0" />
	<path style="fill:none;stroke:red;stroke-width:1px;stroke-linecap:butt;stroke-linejoin:miter;stroke-opacity:1" d="M 155.463,363.517 143.812,380.161 z" id="boundary" inkscape:connector-curvature="0" />
	<path style="fill:none;stroke:red;stroke-width:1px;stroke-linecap:butt;stroke-linejoin:miter;stroke-opacity:1" d="M 163.785,346.872 155.463,363.517 z" id="boundary" inkscape:connector-curvature="0" />
	<path style="fill:none;stroke:red;stroke-width:1px;stroke-linecap:butt;stroke-linejoin:miter;stroke-opacity:1" d="M 163.785,330.228 163.785,313.584 z" id="boundary" inkscape:connector-curvature="0" />
	<path style="fill:none;stroke:red;stroke-width:1px;stroke-linecap:butt;stroke-linejoin:miter;stroke-opacity:1" d="M 295.275,316.913 295.275,333.557 z" id="boundary" inkscape:connector-curvature="0" />
	<path style="fill:none;stroke:red;stroke-width:1px;stroke-linecap:butt;stroke-linejoin:miter;stroke-opacity:1" d="M 295.275,350.201 295.275,366.846 z" id="boundary" inkscape:connector-curvature="0" />
	<path style="fill:none;stroke:red;stroke-width:1px;stroke-linecap:butt;stroke-linejoin:miter;stroke-opacity:1" d="M 295.275,333.557 295.275,350.201 z" id="boundary" inkscape:connector-curvature="0" />
	<path style="fill:none;stroke:red;stroke-width:1px;stroke-linecap:butt;stroke-linejoin:miter;stroke-opacity:1" d="M 163.785,346.872 163.785,330.228 z" id="boundary" inkscape:connector-curvature="0" />
	<path style="fill:none;stroke:red;stroke-width:1px;stroke-linecap:butt;stroke-linejoin:miter;stroke-opacity:1" d="M 295.275,366.846 308.591,378.497 z" id="boundary" inkscape:connector-curvature="0" />
	<path style="fill:none;stroke:red;stroke-width:1px;stroke-linecap:butt;stroke-linejoin:miter;stroke-opacity:1" d="M 393.477,288.617 378.497,280.295 z" id="boundary" inkscape:connector-curvature="0" />
	<path style="fill:none;stroke:red;stroke-width:1px;stroke-linecap:butt;stroke-linejoin:miter;stroke-opacity:1" d="M 378.497,280.295 363.517,288.617 z" id="boundary" inkscape:connector-curvature="0" />
	<path style="fill:none;stroke:red;stroke-width:1px;stroke-linecap:butt;stroke-linejoin:miter;stroke-opacity:1" d="M 363.517,288.617 363.517,305.262 z" id="boundary" inkscape:connector-curvature="0" />
	<path style="fill:none;stroke:red;stroke-width:1px;stroke-linecap:butt;stroke-linejoin:miter;stroke-opacity:1" d="M 363.517,305.262 363.517,321.906 z" id="boundary" inkscape:connector-curvature="0" />
	<path style="fill:none;stroke:red;stroke-width:1px;stroke-linecap:butt;stroke-linejoin:miter;stroke-opacity:1" d="M 363.517,338.55 363.517,321.906 z" id="boundary" inkscape:connector-curvature="0" />
	<path style="fill:none;stroke:red;stroke-width:1px;stroke-linecap:butt;stroke-linejoin:miter;stroke-opacity:1" d="M 410.121,288.617 393.477,288.617 z" id="boundary" inkscape:connector-curvature="0" />
	<path style="fill:none;stroke:red;stroke-width:1px;stroke-linecap:butt;stroke-linejoin:miter;stroke-opacity:1" d="M 426.765,288.617 436.752,308.591 z" id="boundary" inkscape:connector-curvature="0" />
	<path style="fill:none;stroke:red;stroke-width:1px;stroke-linecap:butt;stroke-linejoin:miter;stroke-opacity:1" d="M 410.121,288.617 426.765,288.617 z" id="boundary" inkscape:connector-curvature="0" />
	<path style="fill:none;stroke:red;stroke-width:1px;stroke-linecap:butt;stroke-linejoin:miter;stroke-opacity:1" d="M 445.074,323.57 445.074,340.215 z" id="boundary" inkscape:connector-curvature="0" />
	<path style="fill:none;stroke:red;stroke-width:1px;stroke-linecap:butt;stroke-linejoin:miter;stroke-opacity:1" d="M 436.752,308.591 445.074,323.57 z" id="boundary" inkscape:connector-curvature="0" />
	<path style="fill:none;stroke:red;stroke-width:1px;stroke-linecap:butt;stroke-linejoin:miter;stroke-opacity:1" d="M 363.517,355.195 355.195,371.839 z" id="boundary" inkscape:connector-curvature="0" />
	<path style="fill:none;stroke:red;stroke-width:1px;stroke-linecap:butt;stroke-linejoin:miter;stroke-opacity:1" d="M 355.195,371.839 348.537,388.483 z" id="boundary" inkscape:connector-curvature="0" />
	<path style="fill:none;stroke:red;stroke-width:1px;stroke-linecap:butt;stroke-linejoin:miter;stroke-opacity:1" d="M 363.517,338.55 363.517,355.195 z" id="boundary" inkscape:connector-curvature="0" />
	<path style="fill:none;stroke:red;stroke-width:1px;stroke-linecap:butt;stroke-linejoin:miter;stroke-opacity:1" d="M 315.248,395.141 308.591,378.497 z" id="boundary" inkscape:connector-curvature="0" />
	<path style="fill:none;stroke:red;stroke-width:1px;stroke-linecap:butt;stroke-linejoin:miter;stroke-opacity:1" d="M 315.248,395.141 331.893,388.483 z" id="boundary" inkscape:connector-curvature="0" />
	<path style="fill:none;stroke:red;stroke-width:1px;stroke-linecap:butt;stroke-linejoin:miter;stroke-opacity:1" d="M 331.893,388.483 348.537,388.483 z" id="boundary" inkscape:connector-curvature="0" />
	<path style="fill:none;stroke:red;stroke-width:1px;stroke-linecap:butt;stroke-linejoin:miter;stroke-opacity:1" d="M 453.396,371.839 445.074,356.859 z" id="boundary" inkscape:connector-curvature="0" />
	<path style="fill:none;stroke:red;stroke-width:1px;stroke-linecap:butt;stroke-linejoin:miter;stroke-opacity:1" d="M 445.074,340.215 445.074,356.859 z" id="boundary" inkscape:connector-curvature="0" />
	<path style="fill:none;stroke:red;stroke-width:1px;stroke-linecap:butt;stroke-linejoin:miter;stroke-opacity:1" d="M 453.396,371.839 445.074,391.812 z" id="boundary" inkscape:connector-curvature="0" />
	<path style="fill:none;stroke:red;stroke-width:1px;stroke-linecap:butt;stroke-linejoin:miter;stroke-opacity:1" d="M 453.396,406.792 445.074,391.812 z" id="boundary" inkscape:connector-curvature="0" />
	<path style="fill:none;stroke:red;stroke-width:1px;stroke-linecap:butt;stroke-linejoin:miter;stroke-opacity:1" d="M 470.04,413.45 453.396,406.792 z" id="boundary" inkscape:connector-curvature="0" />
	<path style="fill:none;stroke:red;stroke-width:1px;stroke-linecap:butt;stroke-linejoin:miter;stroke-opacity:1" d="M 470.04,413.45 486.685,413.45 z" id="boundary" inkscape:connector-curvature="0" />
	<path style="fill:none;stroke:red;stroke-width:1px;stroke-linecap:butt;stroke-linejoin:miter;stroke-opacity:1" d="M 486.685,413.45 503.329,413.45 z" id="boundary" inkscape:connector-curvature="0" />
	<path style="fill:none;stroke:red;stroke-width:1px;stroke-linecap:butt;stroke-linejoin:miter;stroke-opacity:1" d="M 503.329,413.45 519.973,413.45 z" id="boundary" inkscape:connector-curvature="0" />
	<path style="fill:none;stroke:red;stroke-width:1px;stroke-linecap:butt;stroke-linejoin:miter;stroke-opacity:1" d="M 553.262,33.9597 553.262,17.3154 z" id="boundary" inkscape:connector-curvature="0" />
	<path style="fill:none;stroke:red;stroke-width:1px;stroke-linecap:butt;stroke-linejoin:miter;stroke-opacity:1" d="M 553.262,33.9597 553.262,50.604 z" id="boundary" inkscape:connector-curvature="0" />
	<path style="fill:none;stroke:red;stroke-width:1px;stroke-linecap:butt;stroke-linejoin:miter;stroke-opacity:1" d="M 553.262,17.3154 566.577,4 z" id="boundary" inkscape:connector-curvature="0" />
	<path style="fill:none;stroke:red;stroke-width:1px;stroke-linecap:butt;stroke-linejoin:miter;stroke-opacity:1" d="M 566.577,4 579.893,13.9866 z" id="boundary" inkscape:connector-curvature="0" />
	<path style="fill:none;stroke:red;stroke-width:1px;stroke-linecap:butt;stroke-linejoin:miter;stroke-opacity:1" d="M 511.651,117.181 524.966,103.866 z" id="boundary" inkscape:connector-curvature="0" />
	<path style="fill:none;stroke:red;stroke-width:1px;stroke-linecap:butt;stroke-linejoin:miter;stroke-opacity:1" d="M 541.611,95.5436 524.966,103.866 z" id="boundary" inkscape:connector-curvature="0" />
	<path style="fill:none;stroke:red;stroke-width:1px;stroke-linecap:butt;stroke-linejoin:miter;stroke-opacity:1" d="M 511.651,117.181 511.651,133.826 z" id="boundary" inkscape:connector-curvature="0" />
	<path style="fill:none;stroke:red;stroke-width:1px;stroke-linecap:butt;stroke-linejoin:miter;stroke-opacity:1" d="M 553.262,50.604 553.262,67.2483 z" id="boundary" inkscape:connector-curvature="0" />
	<path style="fill:none;stroke:red;stroke-width:1px;stroke-linecap:butt;stroke-linejoin:miter;stroke-opacity:1" d="M 541.611,95.5436 553.262,67.2483 z" id="boundary" inkscape:connector-curvature="0" />
	<path style="fill:none;stroke:red;stroke-width:1px;stroke-linecap:butt;stroke-linejoin:miter;stroke-opacity:1" d="M 588.215,28.9664 596.537,43.9463 z" id="boundary" inkscape:connector-curvature="0" />
	<path style="fill:none;stroke:red;stroke-width:1px;stroke-linecap:butt;stroke-linejoin:miter;stroke-opacity:1" d="M 588.215,28.9664 579.893,13.9866 z" id="boundary" inkscape:connector-curvature="0" />
	<path style="fill:none;stroke:red;stroke-width:1px;stroke-linecap:butt;stroke-linejoin:miter;stroke-opacity:1" d="M 609.852,55.5973 596.537,43.9463 z" id="boundary" inkscape:connector-curvature="0" />
	<path style="fill:none;stroke:red;stroke-width:1px;stroke-linecap:butt;stroke-linejoin:miter;stroke-opacity:1" d="M 609.852,55.5973 613.181,80.5638 z" id="boundary" inkscape:connector-curvature="0" />
	<path style="fill:none;stroke:red;stroke-width:1px;stroke-linecap:butt;stroke-linejoin:miter;stroke-opacity:1" d="M 613.181,80.5638 613.181,97.2081 z" id="boundary" inkscape:connector-curvature="0" />
	<path style="fill:none;stroke:red;stroke-width:1px;stroke-linecap:butt;stroke-linejoin:miter;stroke-opacity:1" d="M 613.181,113.852 613.181,97.2081 z" id="boundary" inkscape:connector-curvature="0" />
	<path style="fill:none;stroke:red;stroke-width:1px;stroke-linecap:butt;stroke-linejoin:miter;stroke-opacity:1" d="M 621.503,128.832 613.181,113.852 z" id="boundary" inkscape:connector-curvature="0" />
	<path style="fill:none;stroke:red;stroke-width:1px;stroke-linecap:butt;stroke-linejoin:miter;stroke-opacity:1" d="M 511.651,133.826 511.651,150.47 z" id="boundary" inkscape:connector-curvature="0" />
	<path style="fill:none;stroke:red;stroke-width:1px;stroke-linecap:butt;stroke-linejoin:miter;stroke-opacity:1" d="M 621.503,128.832 638.148,133.826 z" id="boundary" inkscape:connector-curvature="0" />
	<path style="fill:none;stroke:red;stroke-width:1px;stroke-linecap:butt;stroke-linejoin:miter;stroke-opacity:1" d="M 646.47,148.805 646.47,165.45 z" id="boundary" inkscape:connector-curvature="0" />
	<path style="fill:none;stroke:red;stroke-width:1px;stroke-linecap:butt;stroke-linejoin:miter;stroke-opacity:1" d="M 646.47,148.805 638.148,133.826 z" id="boundary" inkscape:connector-curvature="0" />
	<path style="fill:none;stroke:red;stroke-width:1px;stroke-linecap:butt;stroke-linejoin:miter;stroke-opacity:1" d="M 646.47,165.45 646.47,182.094 z" id="boundary" inkscape:connector-curvature="0" />
	<path style="fill:none;stroke:red;stroke-width:1px;stroke-linecap:butt;stroke-linejoin:miter;stroke-opacity:1" d="M 646.47,182.094 646.47,198.738 z" id="boundary" inkscape:connector-curvature="0" />
	<path style="fill:none;stroke:red;stroke-width:1px;stroke-linecap:butt;stroke-linejoin:miter;stroke-opacity:1" d="M 651.463,215.383 646.47,198.738 z" id="boundary" inkscape:connector-curvature="0" />
	<path style="fill:none;stroke:red;stroke-width:1px;stroke-linecap:butt;stroke-linejoin:miter;stroke-opacity:1" d="M 663.114,228.698 651.463,215.383 z" id="boundary" inkscape:connector-curvature="0" />
	<path style="fill:none;stroke:red;stroke-width:1px;stroke-linecap:butt;stroke-linejoin:miter;stroke-opacity:1" d="M 694.738,220.376 678.094,220.376 z" id="boundary" inkscape:connector-curvature="0" />
	<path style="fill:none;stroke:red;stroke-width:1px;stroke-linecap:butt;stroke-linejoin:miter;stroke-opacity:1" d="M 711.383,220.376 694.738,220.376 z" id="boundary" inkscape:connector-curvature="0" />
	<path style="fill:none;stroke:red;stroke-width:1px;stroke-linecap:butt;stroke-linejoin:miter;stroke-opacity:1" d="M 678.094,220.376 663.114,228.698 z" id="boundary" inkscape:connector-curvature="0" />
	<path style="fill:none;stroke:red;stroke-width:1px;stroke-linecap:butt;stroke-linejoin:miter;stroke-opacity:1" d="M 791.275,62.255 807.919,62.255 z" id="boundary" inkscape:connector-curvature="0" />
	<path style="fill:none;stroke:red;stroke-width:1px;stroke-linecap:butt;stroke-linejoin:miter;stroke-opacity:1" d="M 824.564,62.255 807.919,62.255 z" id="boundary" inkscape:connector-curvature="0" />
	<path style="fill:none;stroke:red;stroke-width:1px;stroke-linecap:butt;stroke-linejoin:miter;stroke-opacity:1" d="M 839.544,53.9329 824.564,62.255 z" id="boundary" inkscape:connector-curvature="0" />
	<path style="fill:none;stroke:red;stroke-width:1px;stroke-linecap:butt;stroke-linejoin:miter;stroke-opacity:1" d="M 791.275,62.255 777.96,75.5705 z" id="boundary" inkscape:connector-curvature="0" />
	<path style="fill:none;stroke:red;stroke-width:1px;stroke-linecap:butt;stroke-linejoin:miter;stroke-opacity:1" d="M 777.96,75.5705 777.96,92.2148 z" id="boundary" inkscape:connector-curvature="0" />
	<path style="fill:none;stroke:red;stroke-width:1px;stroke-linecap:butt;stroke-linejoin:miter;stroke-opacity:1" d="M 777.96,117.181 777.96,92.2148 z" id="boundary" inkscape:connector-curvature="0" />
	<path style="fill:none;stroke:red;stroke-width:1px;stroke-linecap:butt;stroke-linejoin:miter;stroke-opacity:1" d="M 854.523,62.255 839.544,53.9329 z" id="boundary" inkscape:connector-curvature="0" />
	<path style="fill:none;stroke:red;stroke-width:1px;stroke-linecap:butt;stroke-linejoin:miter;stroke-opacity:1" d="M 854.523,62.255 867.839,72.2416 z" id="boundary" inkscape:connector-curvature="0" />
	<path style="fill:none;stroke:red;stroke-width:1px;stroke-linecap:butt;stroke-linejoin:miter;stroke-opacity:1" d="M 949.396,120.51 934.416,112.188 z" id="boundary" inkscape:connector-curvature="0" />
	<path style="fill:none;stroke:red;stroke-width:1px;stroke-linecap:butt;stroke-linejoin:miter;stroke-opacity:1" d="M 867.839,72.2416 879.49,85.557 z" id="boundary" inkscape:connector-curvature="0" />
	<path style="fill:none;stroke:red;stroke-width:1px;stroke-linecap:butt;stroke-linejoin:miter;stroke-opacity:1" d="M 879.49,85.557 887.812,100.537 z" id="boundary" inkscape:connector-curvature="0" />
	<path style="fill:none;stroke:red;stroke-width:1px;stroke-linecap:butt;stroke-linejoin:miter;stroke-opacity:1" d="M 887.812,100.537 904.456,95.5436 z" id="boundary" inkscape:connector-curvature="0" />
	<path style="fill:none;stroke:red;stroke-width:1px;stroke-linecap:butt;stroke-linejoin:miter;stroke-opacity:1" d="M 919.436,103.866 934.416,112.188 z" id="boundary" inkscape:connector-curvature="0" />
	<path style="fill:none;stroke:red;stroke-width:1px;stroke-linecap:butt;stroke-linejoin:miter;stroke-opacity:1" d="M 904.456,95.5436 919.436,103.866 z" id="boundary" inkscape:connector-curvature="0" />
	<path style="fill:none;stroke:red;stroke-width:1px;stroke-linecap:butt;stroke-linejoin:miter;stroke-opacity:1" d="M 769.638,137.154 752.993,142.148 z" id="boundary" inkscape:connector-curvature="0" />
	<path style="fill:none;stroke:red;stroke-width:1px;stroke-linecap:butt;stroke-linejoin:miter;stroke-opacity:1" d="M 752.993,142.148 736.349,150.47 z" id="boundary" inkscape:connector-curvature="0" />
	<path style="fill:none;stroke:red;stroke-width:1px;stroke-linecap:butt;stroke-linejoin:miter;stroke-opacity:1" d="M 728.027,167.114 736.349,150.47 z" id="boundary" inkscape:connector-curvature="0" />
	<path style="fill:none;stroke:red;stroke-width:1px;stroke-linecap:butt;stroke-linejoin:miter;stroke-opacity:1" d="M 777.96,117.181 769.638,137.154 z" id="boundary" inkscape:connector-curvature="0" />
	<path style="fill:none;stroke:red;stroke-width:1px;stroke-linecap:butt;stroke-linejoin:miter;stroke-opacity:1" d="M 719.705,183.758 728.027,167.114 z" id="boundary" inkscape:connector-curvature="0" />
	<path style="fill:none;stroke:red;stroke-width:1px;stroke-linecap:butt;stroke-linejoin:miter;stroke-opacity:1" d="M 711.383,220.376 719.705,200.403 z" id="boundary" inkscape:connector-curvature="0" />
	<path style="fill:none;stroke:red;stroke-width:1px;stroke-linecap:butt;stroke-linejoin:miter;stroke-opacity:1" d="M 719.705,200.403 719.705,183.758 z" id="boundary" inkscape:connector-curvature="0" />
	<path style="fill:none;stroke:red;stroke-width:1px;stroke-linecap:butt;stroke-linejoin:miter;stroke-opacity:1" d="M 961.047,133.826 949.396,120.51 z" id="boundary" inkscape:connector-curvature="0" />
	<path style="fill:none;stroke:red;stroke-width:1px;stroke-linecap:butt;stroke-linejoin:miter;stroke-opacity:1" d="M 974.362,145.477 979.356,162.121 z" id="boundary" inkscape:connector-curvature="0" />
	<path style="fill:none;stroke:red;stroke-width:1px;stroke-linecap:butt;stroke-linejoin:miter;stroke-opacity:1" d="M 961.047,133.826 974.362,145.477 z" id="boundary" inkscape:connector-curvature="0" />
	<path style="fill:none;stroke:red;stroke-width:1px;stroke-linecap:butt;stroke-linejoin:miter;stroke-opacity:1" d="M 979.356,162.121 971.034,180.43 z" id="boundary" inkscape:connector-curvature="0" />
	<path style="fill:none;stroke:red;stroke-width:1px;stroke-linecap:butt;stroke-linejoin:miter;stroke-opacity:1" d="M 962.711,197.074 971.034,180.43 z" id="boundary" inkscape:connector-curvature="0" />
	<path style="fill:none;stroke:red;stroke-width:1px;stroke-linecap:butt;stroke-linejoin:miter;stroke-opacity:1" d="M 962.711,213.718 962.711,197.074 z" id="boundary" inkscape:connector-curvature="0" />
	<path style="fill:none;stroke:red;stroke-width:1px;stroke-linecap:butt;stroke-linejoin:miter;stroke-opacity:1" d="M 962.711,213.718 962.711,230.362 z" id="boundary" inkscape:connector-curvature="0" />
	<path style="fill:none;stroke:red;stroke-width:1px;stroke-linecap:butt;stroke-linejoin:miter;stroke-opacity:1" d="M 596.537,280.295 596.537,263.651 z" id="boundary" inkscape:connector-curvature="0" />
	<path style="fill:none;stroke:red;stroke-width:1px;stroke-linecap:butt;stroke-linejoin:miter;stroke-opacity:1" d="M 609.852,252 596.537,263.651 z" id="boundary" inkscape:connector-curvature="0" />
	<path style="fill:none;stroke:red;stroke-width:1px;stroke-linecap:butt;stroke-linejoin:miter;stroke-opacity:1" d="M 609.852,252 626.497,255.329 z" id="boundary" inkscape:connector-curvature="0" />
	<path style="fill:none;stroke:red;stroke-width:1px;stroke-linecap:butt;stroke-linejoin:miter;stroke-opacity:1" d="M 599.866,296.94 596.537,280.295 z" id="boundary" inkscape:connector-curvature="0" />
	<path style="fill:none;stroke:red;stroke-width:1px;stroke-linecap:butt;stroke-linejoin:miter;stroke-opacity:1" d="M 599.866,296.94 613.181,308.591 z" id="boundary" inkscape:connector-curvature="0" />
	<path style="fill:none;stroke:red;stroke-width:1px;stroke-linecap:butt;stroke-linejoin:miter;stroke-opacity:1" d="M 613.181,308.591 613.181,325.235 z" id="boundary" inkscape:connector-curvature="0" />
	<path style="fill:none;stroke:red;stroke-width:1px;stroke-linecap:butt;stroke-linejoin:miter;stroke-opacity:1" d="M 613.181,325.235 613.181,341.879 z" id="boundary" inkscape:connector-curvature="0" />
	<path style="fill:none;stroke:red;stroke-width:1px;stroke-linecap:butt;stroke-linejoin:miter;stroke-opacity:1" d="M 636.483,268.644 636.483,285.289 z" id="boundary" inkscape:connector-curvature="0" />
	<path style="fill:none;stroke:red;stroke-width:1px;stroke-linecap:butt;stroke-linejoin:miter;stroke-opacity:1" d="M 636.483,268.644 626.497,255.329 z" id="boundary" inkscape:connector-curvature="0" />
	<path style="fill:none;stroke:red;stroke-width:1px;stroke-linecap:butt;stroke-linejoin:miter;stroke-opacity:1" d="M 636.483,285.289 644.805,300.268 z" id="boundary" inkscape:connector-curvature="0" />
	<path style="fill:none;stroke:red;stroke-width:1px;stroke-linecap:butt;stroke-linejoin:miter;stroke-opacity:1" d="M 658.121,328.564 644.805,316.913 z" id="boundary" inkscape:connector-curvature="0" />
	<path style="fill:none;stroke:red;stroke-width:1px;stroke-linecap:butt;stroke-linejoin:miter;stroke-opacity:1" d="M 644.805,316.913 644.805,300.268 z" id="boundary" inkscape:connector-curvature="0" />
	<path style="fill:none;stroke:red;stroke-width:1px;stroke-linecap:butt;stroke-linejoin:miter;stroke-opacity:1" d="M 664.779,345.208 658.121,328.564 z" id="boundary" inkscape:connector-curvature="0" />
	<path style="fill:none;stroke:red;stroke-width:1px;stroke-linecap:butt;stroke-linejoin:miter;stroke-opacity:1" d="M 613.181,358.523 611.517,375.168 z" id="boundary" inkscape:connector-curvature="0" />
	<path style="fill:none;stroke:red;stroke-width:1px;stroke-linecap:butt;stroke-linejoin:miter;stroke-opacity:1" d="M 536.617,413.45 519.973,413.45 z" id="boundary" inkscape:connector-curvature="0" />
	<path style="fill:none;stroke:red;stroke-width:1px;stroke-linecap:butt;stroke-linejoin:miter;stroke-opacity:1" d="M 583.221,396.805 598.201,388.483 z" id="boundary" inkscape:connector-curvature="0" />
	<path style="fill:none;stroke:red;stroke-width:1px;stroke-linecap:butt;stroke-linejoin:miter;stroke-opacity:1" d="M 569.906,408.456 553.262,413.45 z" id="boundary" inkscape:connector-curvature="0" />
	<path style="fill:none;stroke:red;stroke-width:1px;stroke-linecap:butt;stroke-linejoin:miter;stroke-opacity:1" d="M 553.262,413.45 536.617,413.45 z" id="boundary" inkscape:connector-curvature="0" />
	<path style="fill:none;stroke:red;stroke-width:1px;stroke-linecap:butt;stroke-linejoin:miter;stroke-opacity:1" d="M 569.906,408.456 583.221,396.805 z" id="boundary" inkscape:connector-curvature="0" />
	<path style="fill:none;stroke:red;stroke-width:1px;stroke-linecap:butt;stroke-linejoin:miter;stroke-opacity:1" d="M 611.517,375.168 598.201,388.483 z" id="boundary" inkscape:connector-curvature="0" />
	<path style="fill:none;stroke:red;stroke-width:1px;stroke-linecap:butt;stroke-linejoin:miter;stroke-opacity:1" d="M 613.181,341.879 613.181,358.523 z" id="boundary" inkscape:connector-curvature="0" />
	<path style="fill:none;stroke:red;stroke-width:1px;stroke-linecap:butt;stroke-linejoin:miter;stroke-opacity:1" d="M 664.779,345.208 673.101,360.188 z" id="boundary" inkscape:connector-curvature="0" />
	<path style="fill:none;stroke:red;stroke-width:1px;stroke-linecap:butt;stroke-linejoin:miter;stroke-opacity:1" d="M 686.416,371.839 673.101,360.188 z" id="boundary" inkscape:connector-curvature="0" />
	<path style="fill:none;stroke:red;stroke-width:1px;stroke-linecap:butt;stroke-linejoin:miter;stroke-opacity:1" d="M 686.416,371.839 703.06,371.839 z" id="boundary" inkscape:connector-curvature="0" />
	<path style="fill:none;stroke:red;stroke-width:1px;stroke-linecap:butt;stroke-linejoin:miter;stroke-opacity:1" d="M 962.711,230.362 971.034,245.342 z" id="boundary" inkscape:connector-curvature="0" />
	<path style="fill:none;stroke:red;stroke-width:1px;stroke-linecap:butt;stroke-linejoin:miter;stroke-opacity:1" d="M 979.356,260.322 987.678,275.302 z" id="boundary" inkscape:connector-curvature="0" />
	<path style="fill:none;stroke:red;stroke-width:1px;stroke-linecap:butt;stroke-linejoin:miter;stroke-opacity:1" d="M 979.356,260.322 971.034,245.342 z" id="boundary" inkscape:connector-curvature="0" />
	<path style="fill:none;stroke:red;stroke-width:1px;stroke-linecap:butt;stroke-linejoin:miter;stroke-opacity:1" d="M 994.336,291.946 996,308.591 z" id="boundary" inkscape:connector-curvature="0" />
	<path style="fill:none;stroke:red;stroke-width:1px;stroke-linecap:butt;stroke-linejoin:miter;stroke-opacity:1" d="M 994.336,291.946 987.678,275.302 z" id="boundary" inkscape:connector-curvature="0" />
	<path style="fill:none;stroke:red;stroke-width:1px;stroke-linecap:butt;stroke-linejoin:miter;stroke-opacity:1" d="M 996,308.591 996,325.235 z" id="boundary" inkscape:connector-curvature="0" />
	<path style="fill:none;stroke:red;stroke-width:1px;stroke-linecap:butt;stroke-linejoin:miter;stroke-opacity:1" d="M 996,325.235 996,341.879 z" id="boundary" inkscape:connector-curvature="0" />
	<path style="fill:none;stroke:red;stroke-width:1px;stroke-linecap:butt;stroke-linejoin:miter;stroke-opacity:1" d="M 996,341.879 996,358.523 z" id="boundary" inkscape:connector-curvature="0" />
	<path style="fill:none;stroke:red;stroke-width:1px;stroke-linecap:butt;stroke-linejoin:miter;stroke-opacity:1" d="M 703.06,371.839 719.705,371.839 z" id="boundary" inkscape:connector-curvature="0" />
	<path style="fill:none;stroke:red;stroke-width:1px;stroke-linecap:butt;stroke-linejoin:miter;stroke-opacity:1" d="M 736.349,371.839 752.993,371.839 z" id="boundary" inkscape:connector-curvature="0" />
	<path style="fill:none;stroke:red;stroke-width:1px;stroke-linecap:butt;stroke-linejoin:miter;stroke-opacity:1" d="M 736.349,371.839 719.705,371.839 z" id="boundary" inkscape:connector-curvature="0" />
	<path style="fill:none;stroke:red;stroke-width:1px;stroke-linecap:butt;stroke-linejoin:miter;stroke-opacity:1" d="M 769.638,371.839 786.282,371.839 z" id="boundary" inkscape:connector-curvature="0" />
	<path style="fill:none;stroke:red;stroke-width:1px;stroke-linecap:butt;stroke-linejoin:miter;stroke-opacity:1" d="M 801.262,380.161 811.248,393.477 z" id="boundary" inkscape:connector-curvature="0" />
	<path style="fill:none;stroke:red;stroke-width:1px;stroke-linecap:butt;stroke-linejoin:miter;stroke-opacity:1" d="M 786.282,371.839 801.262,380.161 z" id="boundary" inkscape:connector-curvature="0" />
	<path style="fill:none;stroke:red;stroke-width:1px;stroke-linecap:butt;stroke-linejoin:miter;stroke-opacity:1" d="M 819.57,408.456 811.248,393.477 z" id="boundary" inkscape:connector-curvature="0" />
	<path style="fill:none;stroke:red;stroke-width:1px;stroke-linecap:butt;stroke-linejoin:miter;stroke-opacity:1" d="M 752.993,371.839 769.638,371.839 z" id="boundary" inkscape:connector-curvature="0" />
	<path style="fill:none;stroke:red;stroke-width:1px;stroke-linecap:butt;stroke-linejoin:miter;stroke-opacity:1" d="M 819.57,408.456 832.886,420.107 z" id="boundary" inkscape:connector-curvature="0" />
	<path style="fill:none;stroke:red;stroke-width:1px;stroke-linecap:butt;stroke-linejoin:miter;stroke-opacity:1" d="M 832.886,420.107 846.201,430.094 z" id="boundary" inkscape:connector-curvature="0" />
	<path style="fill:none;stroke:red;stroke-width:1px;stroke-linecap:butt;stroke-linejoin:miter;stroke-opacity:1" d="M 987.678,380.161 979.356,396.805 z" id="boundary" inkscape:connector-curvature="0" />
	<path style="fill:none;stroke:red;stroke-width:1px;stroke-linecap:butt;stroke-linejoin:miter;stroke-opacity:1" d="M 987.678,380.161 996,358.523 z" id="boundary" inkscape:connector-curvature="0" />
	<path style="fill:none;stroke:red;stroke-width:1px;stroke-linecap:butt;stroke-linejoin:miter;stroke-opacity:1" d="M 979.356,396.805 971.034,413.45 z" id="boundary" inkscape:connector-curvature="0" />
	<path style="fill:none;stroke:red;stroke-width:1px;stroke-linecap:butt;stroke-linejoin:miter;stroke-opacity:1" d="M 846.201,430.094 861.181,438.416 z" id="boundary" inkscape:connector-curvature="0" />
	<path style="fill:none;stroke:red;stroke-width:1px;stroke-linecap:butt;stroke-linejoin:miter;stroke-opacity:1" d="M 877.826,438.416 894.47,438.416 z" id="boundary" inkscape:connector-curvature="0" />
	<path style="fill:none;stroke:red;stroke-width:1px;stroke-linecap:butt;stroke-linejoin:miter;stroke-opacity:1" d="M 911.114,438.416 894.47,438.416 z" id="boundary" inkscape:connector-curvature="0" />
	<path style="fill:none;stroke:red;stroke-width:1px;stroke-linecap:butt;stroke-linejoin:miter;stroke-opacity:1" d="M 877.826,438.416 861.181,438.416 z" id="boundary" inkscape:connector-curvature="0" />
	<path style="fill:none;stroke:red;stroke-width:1px;stroke-linecap:butt;stroke-linejoin:miter;stroke-opacity:1" d="M 971.034,413.45 959.383,430.094 z" id="boundary" inkscape:connector-curvature="0" />
	<path style="fill:none;stroke:red;stroke-width:1px;stroke-linecap:butt;stroke-linejoin:miter;stroke-opacity:1" d="M 944.403,438.416 927.758,438.416 z" id="boundary" inkscape:connector-curvature="0" />
	<path style="fill:none;stroke:red;stroke-width:1px;stroke-linecap:butt;stroke-linejoin:miter;stroke-opacity:1" d="M 959.383,430.094 944.403,438.416 z" id="boundary" inkscape:connector-curvature="0" />
	<path style="fill:none;stroke:red;stroke-width:1px;stroke-linecap:butt;stroke-linejoin:miter;stroke-opacity:1" d="M 927.758,438.416 911.114,438.416 z" id="boundary" inkscape:connector-curvature="0" />
	<circle cx="4" cy="117.181" r="4" fill="#0" id="circle0"/>
	<circle cx="12.3221" cy="132.161" r="4" fill="#0" id="circle1"/>
	<circle cx="17.3154" cy="103.866" r="4" fill="#0" id="circle2"/>
	<circle cx="20.6443" cy="147.141" r="4" fill="#0" id="circle3"/>
	<circle cx="33.9597" cy="103.866" r="4" fill="#0" id="circle4"/>
	<circle cx="35.6242" cy="155.463" r="4" fill="#0" id="circle5"/>
	<circle cx="42.2819" cy="87.2215" r="4" fill="#0" id="circle6"/>
	<circle cx="45.6107" cy="67.2483" r="4" fill="#0" id="circle7"/>
	<circle cx="50.604" cy="145.477" r="4" fill="#0" id="circle8"/>
	<circle cx="58.9262" cy="53.9329" r="4" fill="#0" id="circle9"/>
	<circle cx="67.2483" cy="137.154" r="4" fill="#0" id="circle10"/>
	<circle cx="75.5705" cy="45.6107" r="4" fill="#0" id="circle11"/>
	<circle cx="83.8926" cy="130.497" r="4" fill="#0" id="circle12"/>
	<circle cx="87.2215" cy="147.141" r="4" fill="#0" id="circle13"/>
	<circle cx="90.5503" cy="53.9329" r="4" fill="#0" id="circle14"/>
	<circle cx="95.5436" cy="162.121" r="4" fill="#0" id="circle15"/>
	<circle cx="95.5436" cy="183.758" r="4" fill="#0" id="circle16"/>
	<circle cx="103.866" cy="65.5839" r="4" fill="#0" id="circle17"/>
	<circle cx="103.866" cy="198.738" r="4" fill="#0" id="circle18"/>
	<circle cx="112.188" cy="308.591" r="4" fill="#0" id="circle19"/>
	<circle cx="112.188" cy="325.235" r="4" fill="#0" id="circle20"/>
	<circle cx="112.188" cy="341.879" r="4" fill="#0" id="circle21"/>
	<circle cx="113.852" cy="78.8993" r="4" fill="#0" id="circle22"/>
	<circle cx="115.517" cy="212.054" r="4" fill="#0" id="circle23"/>
	<circle cx="120.51" cy="228.698" r="4" fill="#0" id="circle24"/>
	<circle cx="120.51" cy="245.342" r="4" fill="#0" id="circle25"/>
	<circle cx="120.51" cy="261.987" r="4" fill="#0" id="circle26"/>
	<circle cx="120.51" cy="278.631" r="4" fill="#0" id="circle27"/>
	<circle cx="120.51" cy="356.859" r="4" fill="#0" id="circle28"/>
	<circle cx="122.174" cy="93.8792" r="4" fill="#0" id="circle29"/>
	<circle cx="128.832" cy="371.839" r="4" fill="#0" id="circle30"/>
	<circle cx="135.49" cy="105.53" r="4" fill="#0" id="circle31"/>
	<circle cx="143.812" cy="380.161" r="4" fill="#0" id="circle32"/>
	<circle cx="147.141" cy="118.846" r="4" fill="#0" id="circle33"/>
	<circle cx="155.463" cy="363.517" r="4" fill="#0" id="circle34"/>
	<circle cx="160.456" cy="128.832" r="4" fill="#0" id="circle35"/>
	<circle cx="163.785" cy="296.94" r="4" fill="#0" id="circle36"/>
	<circle cx="163.785" cy="313.584" r="4" fill="#0" id="circle37"/>
	<circle cx="163.785" cy="330.228" r="4" fill="#0" id="circle38"/>
	<circle cx="163.785" cy="346.872" r="4" fill="#0" id="circle39"/>
	<circle cx="172.107" cy="271.973" r="4" fill="#0" id="circle40"/>
	<circle cx="177.101" cy="128.832" r="4" fill="#0" id="circle41"/>
	<circle cx="185.423" cy="260.322" r="4" fill="#0" id="circle42"/>
	<circle cx="193.745" cy="128.832" r="4" fill="#0" id="circle43"/>
	<circle cx="202.067" cy="255.329" r="4" fill="#0" id="circle44"/>
	<circle cx="210.389" cy="128.832" r="4" fill="#0" id="circle45"/>
	<circle cx="218.711" cy="255.329" r="4" fill="#0" id="circle46"/>
	<circle cx="225.369" cy="137.154" r="4" fill="#0" id="circle47"/>
	<circle cx="235.356" cy="255.329" r="4" fill="#0" id="circle48"/>
	<circle cx="242.013" cy="137.154" r="4" fill="#0" id="circle49"/>
	<circle cx="252" cy="255.329" r="4" fill="#0" id="circle50"/>
	<circle cx="258.658" cy="137.154" r="4" fill="#0" id="circle51"/>
	<circle cx="266.98" cy="263.651" r="4" fill="#0" id="circle52"/>
	<circle cx="275.302" cy="137.154" r="4" fill="#0" id="circle53"/>
	<circle cx="283.624" cy="263.651" r="4" fill="#0" id="circle54"/>
	<circle cx="291.946" cy="137.154" r="4" fill="#0" id="circle55"/>
	<circle cx="295.275" cy="283.624" r="4" fill="#0" id="circle56"/>
	<circle cx="295.275" cy="316.913" r="4" fill="#0" id="circle57"/>
	<circle cx="295.275" cy="333.557" r="4" fill="#0" id="circle58"/>
	<circle cx="295.275" cy="350.201" r="4" fill="#0" id="circle59"/>
	<circle cx="295.275" cy="366.846" r="4" fill="#0" id="circle60"/>
	<circle cx="300.268" cy="263.651" r="4" fill="#0" id="circle61"/>
	<circle cx="303.597" cy="298.604" r="4" fill="#0" id="circle62"/>
	<circle cx="308.591" cy="137.154" r="4" fill="#0" id="circle63"/>
	<circle cx="308.591" cy="378.497" r="4" fill="#0" id="circle64"/>
	<circle cx="315.248" cy="395.141" r="4" fill="#0" id="circle65"/>
	<circle cx="325.235" cy="137.154" r="4" fill="#0" id="circle66"/>
	<circle cx="331.893" cy="388.483" r="4" fill="#0" id="circle67"/>
	<circle cx="341.879" cy="137.154" r="4" fill="#0" id="circle68"/>
	<circle cx="348.537" cy="388.483" r="4" fill="#0" id="circle69"/>
	<circle cx="355.195" cy="371.839" r="4" fill="#0" id="circle70"/>
	<circle cx="358.523" cy="137.154" r="4" fill="#0" id="circle71"/>
	<circle cx="363.517" cy="288.617" r="4" fill="#0" id="circle72"/>
	<circle cx="363.517" cy="305.262" r="4" fill="#0" id="circle73"/>
	<circle cx="363.517" cy="321.906" r="4" fill="#0" id="circle74"/>
	<circle cx="363.517" cy="338.55" r="4" fill="#0" id="circle75"/>
	<circle cx="363.517" cy="355.195" r="4" fill="#0" id="circle76"/>
	<circle cx="375.168" cy="137.154" r="4" fill="#0" id="circle77"/>
	<circle cx="378.497" cy="280.295" r="4" fill="#0" id="circle78"/>
	<circle cx="390.148" cy="145.477" r="4" fill="#0" id="circle79"/>
	<circle cx="393.477" cy="288.617" r="4" fill="#0" id="circle80"/>
	<circle cx="396.805" cy="162.121" r="4" fill="#0" id="circle81"/>
	<circle cx="405.128" cy="177.101" r="4" fill="#0" id="circle82"/>
	<circle cx="410.121" cy="288.617" r="4" fill="#0" id="circle83"/>
	<circle cx="413.45" cy="192.081" r="4" fill="#0" id="circle84"/>
	<circle cx="413.45" cy="208.725" r="4" fill="#0" id="circle85"/>
	<circle cx="426.765" cy="288.617" r="4" fill="#0" id="circle86"/>
	<circle cx="430.094" cy="212.054" r="4" fill="#0" id="circle87"/>
	<circle cx="436.752" cy="308.591" r="4" fill="#0" id="circle88"/>
	<circle cx="445.074" cy="220.376" r="4" fill="#0" id="circle89"/>
	<circle cx="445.074" cy="323.57" r="4" fill="#0" id="circle90"/>
	<circle cx="445.074" cy="340.215" r="4" fill="#0" id="circle91"/>
	<circle cx="445.074" cy="356.859" r="4" fill="#0" id="circle92"/>
	<circle cx="445.074" cy="391.812" r="4" fill="#0" id="circle93"/>
	<circle cx="453.396" cy="371.839" r="4" fill="#0" id="circle94"/>
	<circle cx="453.396" cy="406.792" r="4" fill="#0" id="circle95"/>
	<circle cx="460.054" cy="212.054" r="4" fill="#0" id="circle96"/>
	<circle cx="470.04" cy="413.45" r="4" fill="#0" id="circle97"/>
	<circle cx="476.698" cy="212.054" r="4" fill="#0" id="circle98"/>
	<circle cx="486.685" cy="413.45" r="4" fill="#0" id="circle99"/>
	<circle cx="493.342" cy="212.054" r="4" fill="#0" id="circle100"/>
	<circle cx="495.007" cy="192.081" r="4" fill="#0" id="circle101"/>
	<circle cx="503.329" cy="167.114" r="4" fill="#0" id="circle102"/>
	<circle cx="503.329" cy="413.45" r="4" fill="#0" id="circle103"/>
	<circle cx="511.651" cy="117.181" r="4" fill="#0" id="circle104"/>
	<circle cx="511.651" cy="133.826" r="4" fill="#0" id="circle105"/>
	<circle cx="511.651" cy="150.47" r="4" fill="#0" id="circle106"/>
	<circle cx="519.973" cy="413.45" r="4" fill="#0" id="circle107"/>
	<circle cx="524.966" cy="103.866" r="4" fill="#0" id="circle108"/>
	<circle cx="536.617" cy="413.45" r="4" fill="#0" id="circle109"/>
	<circle cx="541.611" cy="95.5436" r="4" fill="#0" id="circle110"/>
	<circle cx="553.262" cy="17.3154" r="4" fill="#0" id="circle111"/>
	<circle cx="553.262" cy="33.9597" r="4" fill="#0" id="circle112"/>
	<circle cx="553.262" cy="50.604" r="4" fill="#0" id="circle113"/>
	<circle cx="553.262" cy="67.2483" r="4" fill="#0" id="circle114"/>
	<circle cx="553.262" cy="413.45" r="4" fill="#0" id="circle115"/>
	<circle cx="566.577" cy="4" r="4" fill="#0" id="circle116"/>
	<circle cx="569.906" cy="408.456" r="4" fill="#0" id="circle117"/>
	<circle cx="579.893" cy="13.9866" r="4" fill="#0" id="circle118"/>
	<circle cx="583.221" cy="396.805" r="4" fill="#0" id="circle119"/>
	<circle cx="588.215" cy="28.9664" r="4" fill="#0" id="circle120"/>
	<circle cx="596.537" cy="43.9463" r="4" fill="#0" id="circle121"/>
	<circle cx="596.537" cy="263.651" r="4" fill="#0" id="circle122"/>
	<circle cx="596.537" cy="280.295" r="4" fill="#0" id="circle123"/>
	<circle cx="598.201" cy="388.483" r="4" fill="#0" id="circle124"/>
	<circle cx="599.866" cy="296.94" r="4" fill="#0" id="circle125"/>
	<circle cx="609.852" cy="55.5973" r="4" fill="#0" id="circle126"/>
	<circle cx="609.852" cy="252" r="4" fill="#0" id="circle127"/>
	<circle cx="611.517" cy="375.168" r="4" fill="#0" id="circle128"/>
	<circle cx="613.181" cy="80.5638" r="4" fill="#0" id="circle129"/>
	<circle cx="613.181" cy="97.2081" r="4" fill="#0" id="circle130"/>
	<circle cx="613.181" cy="113.852" r="4" fill="#0" id="circle131"/>
	<circle cx="613.181" cy="308.591" r="4" fill="#0" id="circle132"/>
	<circle cx="613.181" cy="325.235" r="4" fill="#0" id="circle133"/>
	<circle cx="613.181" cy="341.879" r="4" fill="#0" id="circle134"/>
	<circle cx="613.181" cy="358.523" r="4" fill="#0" id="circle135"/>
	<circle cx="621.503" cy="128.832" r="4" fill="#0" id="circle136"/>
	<circle cx="626.497" cy="255.329" r="4" fill="#0" id="circle137"/>
	<circle cx="636.483" cy="268.644" r="4" fill="#0" id="circle138"/>
	<circle cx="636.483" cy="285.289" r="4" fill="#0" id="circle139"/>
	<circle cx="638.148" cy="133.826" r="4" fill="#0" id="circle140"/>
	<circle cx="644.805" cy="300.268" r="4" fill="#0" id="circle141"/>
	<circle cx="644.805" cy="316.913" r="4" fill="#0" id="circle142"/>
	<circle cx="646.47" cy="148.805" r="4" fill="#0" id="circle143"/>
	<circle cx="646.47" cy="165.45" r="4" fill="#0" id="circle144"/>
	<circle cx="646.47" cy="182.094" r="4" fill="#0" id="circle145"/>
	<circle cx="646.47" cy="198.738" r="4" fill="#0" id="circle146"/>
	<circle cx="651.463" cy="215.383" r="4" fill="#0" id="circle147"/>
	<circle cx="658.121" cy="328.564" r="4" fill="#0" id="circle148"/>
	<circle cx="663.114" cy="228.698" r="4" fill="#0" id="circle149"/>
	<circle cx="664.779" cy="345.208" r="4" fill="#0" id="circle150"/>
	<circle cx="673.101" cy="360.188" r="4" fill="#0" id="circle151"/>
	<circle cx="678.094" cy="220.376" r="4" fill="#0" id="circle152"/>
	<circle cx="686.416" cy="371.839" r="4" fill="#0" id="circle153"/>
	<circle cx="694.738" cy="220.376" r="4" fill="#0" id="circle154"/>
	<circle cx="703.06" cy="371.839" r="4" fill="#0" id="circle155"/>
	<circle cx="711.383" cy="220.376" r="4" fill="#0" id="circle156"/>
	<circle cx="719.705" cy="183.758" r="4" fill="#0" id="circle157"/>
	<circle cx="719.705" cy="200.403" r="4" fill="#0" id="circle158"/>
	<circle cx="719.705" cy="371.839" r="4" fill="#0" id="circle159"/>
	<circle cx="728.027" cy="167.114" r="4" fill="#0" id="circle160"/>
	<circle cx="736.349" cy="150.47" r="4" fill="#0" id="circle161"/>
	<circle cx="736.349" cy="371.839" r="4" fill="#0" id="circle162"/>
	<circle cx="752.993" cy="142.148" r="4" fill="#0" id="circle163"/>
	<circle cx="752.993" cy="371.839" r="4" fill="#0" id="circle164"/>
	<circle cx="769.638" cy="137.154" r="4" fill="#0" id="circle165"/>
	<circle cx="769.638" cy="371.839" r="4" fill="#0" id="circle166"/>
	<circle cx="777.96" cy="75.5705" r="4" fill="#0" id="circle167"/>
	<circle cx="777.96" cy="92.2148" r="4" fill="#0" id="circle168"/>
	<circle cx="777.96" cy="117.181" r="4" fill="#0" id="circle169"/>
	<circle cx="786.282" cy="371.839" r="4" fill="#0" id="circle170"/>
	<circle cx="791.275" cy="62.255" r="4" fill="#0" id="circle171"/>
	<circle cx="801.262" cy="380.161" r="4" fill="#0" id="circle172"/>
	<circle cx="807.919" cy="62.255" r="4" fill="#0" id="circle173"/>
	<circle cx="811.248" cy="393.477" r="4" fill="#0" id="circle174"/>
	<circle cx="819.57" cy="408.456" r="4" fill="#0" id="circle175"/>
	<circle cx="824.564" cy="62.255" r="4" fill="#0" id="circle176"/>
	<circle cx="832.886" cy="420.107" r="4" fill="#0" id="circle177"/>
	<circle cx="839.544" cy="53.9329" r="4" fill="#0" id="circle178"/>
	<circle cx="846.201" cy="430.094" r="4" fill="#0" id="circle179"/>
	<circle cx="854.523" cy="62.255" r="4" fill="#0" id="circle180"/>
	<circle cx="861.181" cy="438.416" r="4" fill="#0" id="circle181"/>
	<circle cx="867.839" cy="72.2416" r="4" fill="#0" id="circle182"/>
	<circle cx="877.826" cy="438.416" r="4" fill="#0" id="circle183"/>
	<circle cx="879.49" cy="85.557" r="4" fill="#0" id="circle184"/>
	<circle cx="887.812" cy="100.537" r="4" fill="#0" id="circle185"/>
	<circle cx="894.47" cy="438.416" r="4" fill="#0" id="circle186"/>
	<circle cx="904.456" cy="95.5436" r="4" fill="#0" id="circle187"/>
	<circle cx="911.114" cy="438.416" r="4" fill="#0" id="circle188"/>
	<circle cx="919.436" cy="103.866" r="4" fill="#0" id="circle189"/>
	<circle cx="927.758" cy="438.416" r="4" fill="#0" id="circle190"/>
	<circle cx="934.416" cy="112.188" r="4" fill="#0" id="circle191"/>
	<circle cx="944.403" cy="438.416" r="4" fill="#0" id="circle192"/>
	<circle cx="949.396" cy="120.51" r="4" fill="#0" id="circle193"/>
	<circle cx="959.383" cy="430.094" r="4" fill="#0" id="circle194"/>
	<circle cx="961.047" cy="133.826" r="4" fill="#0" id="circle195"/>
	<circle cx="962.711" cy="197.074" r="4" fill="#0" id="circle196"/>
	<circle cx="962.711" cy="213.718" r="4" fill="#0" id="circle197"/>
	<circle cx="962.711" cy="230.362" r="4" fill="#0" id="circle198"/>
	<circle cx="971.034" cy="180.43" r="4" fill="#0" id="circle199"/>
	<circle cx="971.034" cy="245.342" r="4" fill="#0" id="circle200"/>
	<circle cx="971.034" cy="413.45" r="4" fill="#0" id="circle201"/>
	<circle cx="974.362" cy="145.477" r="4" fill="#0" id="circle202"/>
	<circle cx="979.356" cy="162.121" r="4" fill="#0" id="circle203"/>
	<circle cx="979.356" cy="260.322" r="4" fill="#0" id="circle204"/>
	<circle cx="979.356" cy="396.805" r="4" fill="#0" id="circle205"/>
	<circle cx="987.678" cy="275.302" r="4" fill="#0" id="circle206"/>
	<circle cx="987.678" cy="380.161" r="4" fill="#0" id="circle207"/>
	<circle cx="994.336" cy="291.946" r="4" fill="#0" id="circle208"/>
	<circle cx="996" cy="308.591" r="4" fill="#0" id="circle209"/>
	<circle cx="996" cy="325.235" r="4" fill="#0" id="circle210"/>
	<circle cx="996" cy="341.879" r="4" fill="#0" id="circle211"/>
	<circle cx="996" cy="358.523" r="4" fill="#0" id="circle212"/>
	</g>
</svg>