<?xml version="1.0" encoding="UTF-8" standalone="no"?>
<!-- Created with CurveBenchmark -->
<svg
	xmlns:dc="http://purl.org/dc/elements/1.1/"
	xmlns:cc="http://creativecommons.org/ns#"
	xmlns:rdf="http://www.w3.org/1999/02/22-rdf-syntax-ns#"
	xmlns:svg="http://www.w3.org/2000/svg"
	xmlns="http://www.w3.org/2000/svg"
	xmlns:sodipodi="http://sodipodi.sourceforge.net/DTD/sodipodi-0.dtd"
	xmlns:inkscape="http://www.inkscape.org/namespaces/inkscape"
	width="1000"
	height="1000"
	id="svg2"
	version="1.1"
	sodipodi:docname="manifold/crust-fish195.png.txt">
<defs
	id="defs4" />
<metadata
	id="metadata7">
	<rdf:RDF>
		<cc:Work
			rdf:about="">
			<dc:format>image/svg+xml</dc:format>
			<dc:type
				rdf:resource="http://purl.org/dc/dcmitype/StillImage" />
			<dc:title></dc:title>
		</cc:Work>
	</rdf:RDF>
</metadata>
<g
	inkscape:label="Layer 1"
	inkscape:groupmode="layer"
	id="layer1">
	<path style="fill:none;stroke:red;stroke-width:1px;stroke-linecap:butt;stroke-linejoin:miter;stroke-opacity:1" d="M 9.75072,159.27 4,130.516 z" id="boundary" inkscape:connector-curvature="0" />
	<path style="fill:none;stroke:red;stroke-width:1px;stroke-linecap:butt;stroke-linejoin:miter;stroke-opacity:1" d="M 4,130.516 32.7536,124.765 z" id="boundary" inkscape:connector-curvature="0" />
	<path style="fill:none;stroke:red;stroke-width:1px;stroke-linecap:butt;stroke-linejoin:miter;stroke-opacity:1" d="M 61.5072,133.391 32.7536,124.765 z" id="boundary" inkscape:connector-curvature="0" />
	<path style="fill:none;stroke:red;stroke-width:1px;stroke-linecap:butt;stroke-linejoin:miter;stroke-opacity:1" d="M 90.2609,142.017 61.5072,133.391 z" id="boundary" inkscape:connector-curvature="0" />
	<path style="fill:none;stroke:red;stroke-width:1px;stroke-linecap:butt;stroke-linejoin:miter;stroke-opacity:1" d="M 15.5014,188.023 9.75072,159.27 z" id="boundary" inkscape:connector-curvature="0" />
	<path style="fill:none;stroke:red;stroke-width:1px;stroke-linecap:butt;stroke-linejoin:miter;stroke-opacity:1" d="M 15.5014,188.023 21.2522,216.777 z" id="boundary" inkscape:connector-curvature="0" />
	<path style="fill:none;stroke:red;stroke-width:1px;stroke-linecap:butt;stroke-linejoin:miter;stroke-opacity:1" d="M 21.2522,216.777 21.2522,245.53 z" id="boundary" inkscape:connector-curvature="0" />
	<path style="fill:none;stroke:red;stroke-width:1px;stroke-linecap:butt;stroke-linejoin:miter;stroke-opacity:1" d="M 90.2609,142.017 116.139,156.394 z" id="boundary" inkscape:connector-curvature="0" />
	<path style="fill:none;stroke:red;stroke-width:1px;stroke-linecap:butt;stroke-linejoin:miter;stroke-opacity:1" d="M 170.771,179.397 144.893,165.02 z" id="boundary" inkscape:connector-curvature="0" />
	<path style="fill:none;stroke:red;stroke-width:1px;stroke-linecap:butt;stroke-linejoin:miter;stroke-opacity:1" d="M 144.893,165.02 116.139,156.394 z" id="boundary" inkscape:connector-curvature="0" />
	<path style="fill:none;stroke:red;stroke-width:1px;stroke-linecap:butt;stroke-linejoin:miter;stroke-opacity:1" d="M 337.542,78.7594 308.788,84.5101 z" id="boundary" inkscape:connector-curvature="0" />
	<path style="fill:none;stroke:red;stroke-width:1px;stroke-linecap:butt;stroke-linejoin:miter;stroke-opacity:1" d="M 366.296,87.3855 337.542,78.7594 z" id="boundary" inkscape:connector-curvature="0" />
	<path style="fill:none;stroke:red;stroke-width:1px;stroke-linecap:butt;stroke-linejoin:miter;stroke-opacity:1" d="M 262.783,119.014 285.786,101.762 z" id="boundary" inkscape:connector-curvature="0" />
	<path style="fill:none;stroke:red;stroke-width:1px;stroke-linecap:butt;stroke-linejoin:miter;stroke-opacity:1" d="M 285.786,101.762 308.788,84.5101 z" id="boundary" inkscape:connector-curvature="0" />
	<path style="fill:none;stroke:red;stroke-width:1px;stroke-linecap:butt;stroke-linejoin:miter;stroke-opacity:1" d="M 262.783,119.014 239.78,142.017 z" id="boundary" inkscape:connector-curvature="0" />
	<path style="fill:none;stroke:red;stroke-width:1px;stroke-linecap:butt;stroke-linejoin:miter;stroke-opacity:1" d="M 423.803,101.762 395.049,98.887 z" id="boundary" inkscape:connector-curvature="0" />
	<path style="fill:none;stroke:red;stroke-width:1px;stroke-linecap:butt;stroke-linejoin:miter;stroke-opacity:1" d="M 395.049,98.887 366.296,87.3855 z" id="boundary" inkscape:connector-curvature="0" />
	<path style="fill:none;stroke:red;stroke-width:1px;stroke-linecap:butt;stroke-linejoin:miter;stroke-opacity:1" d="M 446.806,84.5101 423.803,101.762 z" id="boundary" inkscape:connector-curvature="0" />
	<path style="fill:none;stroke:red;stroke-width:1px;stroke-linecap:butt;stroke-linejoin:miter;stroke-opacity:1" d="M 469.809,67.258 446.806,84.5101 z" id="boundary" inkscape:connector-curvature="0" />
	<path style="fill:none;stroke:red;stroke-width:1px;stroke-linecap:butt;stroke-linejoin:miter;stroke-opacity:1" d="M 222.528,165.02 239.78,142.017 z" id="boundary" inkscape:connector-curvature="0" />
	<path style="fill:none;stroke:red;stroke-width:1px;stroke-linecap:butt;stroke-linejoin:miter;stroke-opacity:1" d="M 199.525,188.023 170.771,179.397 z" id="boundary" inkscape:connector-curvature="0" />
	<path style="fill:none;stroke:red;stroke-width:1px;stroke-linecap:butt;stroke-linejoin:miter;stroke-opacity:1" d="M 222.528,165.02 199.525,188.023 z" id="boundary" inkscape:connector-curvature="0" />
	<path style="fill:none;stroke:red;stroke-width:1px;stroke-linecap:butt;stroke-linejoin:miter;stroke-opacity:1" d="M 21.2522,245.53 15.5014,285.786 z" id="boundary" inkscape:connector-curvature="0" />
	<path style="fill:none;stroke:red;stroke-width:1px;stroke-linecap:butt;stroke-linejoin:miter;stroke-opacity:1" d="M 15.5014,285.786 4,326.041 z" id="boundary" inkscape:connector-curvature="0" />
	<path style="fill:none;stroke:red;stroke-width:1px;stroke-linecap:butt;stroke-linejoin:miter;stroke-opacity:1" d="M 193.774,282.91 165.02,294.412 z" id="boundary" inkscape:connector-curvature="0" />
	<path style="fill:none;stroke:red;stroke-width:1px;stroke-linecap:butt;stroke-linejoin:miter;stroke-opacity:1" d="M 165.02,294.412 139.142,308.788 z" id="boundary" inkscape:connector-curvature="0" />
	<path style="fill:none;stroke:red;stroke-width:1px;stroke-linecap:butt;stroke-linejoin:miter;stroke-opacity:1" d="M 27.0029,346.168 4,326.041 z" id="boundary" inkscape:connector-curvature="0" />
	<path style="fill:none;stroke:red;stroke-width:1px;stroke-linecap:butt;stroke-linejoin:miter;stroke-opacity:1" d="M 27.0029,346.168 55.7565,346.168 z" id="boundary" inkscape:connector-curvature="0" />
	<path style="fill:none;stroke:red;stroke-width:1px;stroke-linecap:butt;stroke-linejoin:miter;stroke-opacity:1" d="M 84.5101,334.667 113.264,323.165 z" id="boundary" inkscape:connector-curvature="0" />
	<path style="fill:none;stroke:red;stroke-width:1px;stroke-linecap:butt;stroke-linejoin:miter;stroke-opacity:1" d="M 84.5101,334.667 55.7565,346.168 z" id="boundary" inkscape:connector-curvature="0" />
	<path style="fill:none;stroke:red;stroke-width:1px;stroke-linecap:butt;stroke-linejoin:miter;stroke-opacity:1" d="M 113.264,323.165 139.142,308.788 z" id="boundary" inkscape:connector-curvature="0" />
	<path style="fill:none;stroke:red;stroke-width:1px;stroke-linecap:butt;stroke-linejoin:miter;stroke-opacity:1" d="M 216.777,300.162 193.774,282.91 z" id="boundary" inkscape:connector-curvature="0" />
	<path style="fill:none;stroke:red;stroke-width:1px;stroke-linecap:butt;stroke-linejoin:miter;stroke-opacity:1" d="M 216.777,300.162 222.528,328.916 z" id="boundary" inkscape:connector-curvature="0" />
	<path style="fill:none;stroke:red;stroke-width:1px;stroke-linecap:butt;stroke-linejoin:miter;stroke-opacity:1" d="M 236.904,354.794 222.528,328.916 z" id="boundary" inkscape:connector-curvature="0" />
	<path style="fill:none;stroke:red;stroke-width:1px;stroke-linecap:butt;stroke-linejoin:miter;stroke-opacity:1" d="M 236.904,354.794 259.907,374.922 z" id="boundary" inkscape:connector-curvature="0" />
	<path style="fill:none;stroke:red;stroke-width:1px;stroke-linecap:butt;stroke-linejoin:miter;stroke-opacity:1" d="M 288.661,374.922 259.907,374.922 z" id="boundary" inkscape:connector-curvature="0" />
	<path style="fill:none;stroke:red;stroke-width:1px;stroke-linecap:butt;stroke-linejoin:miter;stroke-opacity:1" d="M 317.414,372.046 288.661,374.922 z" id="boundary" inkscape:connector-curvature="0" />
	<path style="fill:none;stroke:red;stroke-width:1px;stroke-linecap:butt;stroke-linejoin:miter;stroke-opacity:1" d="M 346.168,363.42 374.922,351.919 z" id="boundary" inkscape:connector-curvature="0" />
	<path style="fill:none;stroke:red;stroke-width:1px;stroke-linecap:butt;stroke-linejoin:miter;stroke-opacity:1" d="M 346.168,363.42 317.414,372.046 z" id="boundary" inkscape:connector-curvature="0" />
	<path style="fill:none;stroke:red;stroke-width:1px;stroke-linecap:butt;stroke-linejoin:miter;stroke-opacity:1" d="M 374.922,351.919 403.675,357.67 z" id="boundary" inkscape:connector-curvature="0" />
	<path style="fill:none;stroke:red;stroke-width:1px;stroke-linecap:butt;stroke-linejoin:miter;stroke-opacity:1" d="M 403.675,357.67 432.429,357.67 z" id="boundary" inkscape:connector-curvature="0" />
	<path style="fill:none;stroke:red;stroke-width:1px;stroke-linecap:butt;stroke-linejoin:miter;stroke-opacity:1" d="M 461.183,357.67 432.429,357.67 z" id="boundary" inkscape:connector-curvature="0" />
	<path style="fill:none;stroke:red;stroke-width:1px;stroke-linecap:butt;stroke-linejoin:miter;stroke-opacity:1" d="M 607.826,9.75072 579.072,21.2522 z" id="boundary" inkscape:connector-curvature="0" />
	<path style="fill:none;stroke:red;stroke-width:1px;stroke-linecap:butt;stroke-linejoin:miter;stroke-opacity:1" d="M 636.58,4 607.826,9.75072 z" id="boundary" inkscape:connector-curvature="0" />
	<path style="fill:none;stroke:red;stroke-width:1px;stroke-linecap:butt;stroke-linejoin:miter;stroke-opacity:1" d="M 550.319,27.0029 579.072,21.2522 z" id="boundary" inkscape:connector-curvature="0" />
	<path style="fill:none;stroke:red;stroke-width:1px;stroke-linecap:butt;stroke-linejoin:miter;stroke-opacity:1" d="M 469.809,67.258 498.562,55.7565 z" id="boundary" inkscape:connector-curvature="0" />
	<path style="fill:none;stroke:red;stroke-width:1px;stroke-linecap:butt;stroke-linejoin:miter;stroke-opacity:1" d="M 524.441,41.3797 550.319,27.0029 z" id="boundary" inkscape:connector-curvature="0" />
	<path style="fill:none;stroke:red;stroke-width:1px;stroke-linecap:butt;stroke-linejoin:miter;stroke-opacity:1" d="M 524.441,41.3797 498.562,55.7565 z" id="boundary" inkscape:connector-curvature="0" />
	<path style="fill:none;stroke:red;stroke-width:1px;stroke-linecap:butt;stroke-linejoin:miter;stroke-opacity:1" d="M 636.58,4 659.583,21.2522 z" id="boundary" inkscape:connector-curvature="0" />
	<path style="fill:none;stroke:red;stroke-width:1px;stroke-linecap:butt;stroke-linejoin:miter;stroke-opacity:1" d="M 659.583,21.2522 673.959,47.1304 z" id="boundary" inkscape:connector-curvature="0" />
	<path style="fill:none;stroke:red;stroke-width:1px;stroke-linecap:butt;stroke-linejoin:miter;stroke-opacity:1" d="M 702.713,55.7565 702.713,84.5101 z" id="boundary" inkscape:connector-curvature="0" />
	<path style="fill:none;stroke:red;stroke-width:1px;stroke-linecap:butt;stroke-linejoin:miter;stroke-opacity:1" d="M 673.959,47.1304 702.713,55.7565 z" id="boundary" inkscape:connector-curvature="0" />
	<path style="fill:none;stroke:red;stroke-width:1px;stroke-linecap:butt;stroke-linejoin:miter;stroke-opacity:1" d="M 702.713,84.5101 722.841,107.513 z" id="boundary" inkscape:connector-curvature="0" />
	<path style="fill:none;stroke:red;stroke-width:1px;stroke-linecap:butt;stroke-linejoin:miter;stroke-opacity:1" d="M 809.101,127.641 780.348,119.014 z" id="boundary" inkscape:connector-curvature="0" />
	<path style="fill:none;stroke:red;stroke-width:1px;stroke-linecap:butt;stroke-linejoin:miter;stroke-opacity:1" d="M 751.594,110.388 722.841,107.513 z" id="boundary" inkscape:connector-curvature="0" />
	<path style="fill:none;stroke:red;stroke-width:1px;stroke-linecap:butt;stroke-linejoin:miter;stroke-opacity:1" d="M 780.348,119.014 751.594,110.388 z" id="boundary" inkscape:connector-curvature="0" />
	<path style="fill:none;stroke:red;stroke-width:1px;stroke-linecap:butt;stroke-linejoin:miter;stroke-opacity:1" d="M 837.855,139.142 809.101,127.641 z" id="boundary" inkscape:connector-curvature="0" />
	<path style="fill:none;stroke:red;stroke-width:1px;stroke-linecap:butt;stroke-linejoin:miter;stroke-opacity:1" d="M 866.609,147.768 837.855,139.142 z" id="boundary" inkscape:connector-curvature="0" />
	<path style="fill:none;stroke:red;stroke-width:1px;stroke-linecap:butt;stroke-linejoin:miter;stroke-opacity:1" d="M 866.609,147.768 892.487,162.145 z" id="boundary" inkscape:connector-curvature="0" />
	<path style="fill:none;stroke:red;stroke-width:1px;stroke-linecap:butt;stroke-linejoin:miter;stroke-opacity:1" d="M 921.241,170.771 947.119,185.148 z" id="boundary" inkscape:connector-curvature="0" />
	<path style="fill:none;stroke:red;stroke-width:1px;stroke-linecap:butt;stroke-linejoin:miter;stroke-opacity:1" d="M 947.119,185.148 972.997,199.525 z" id="boundary" inkscape:connector-curvature="0" />
	<path style="fill:none;stroke:red;stroke-width:1px;stroke-linecap:butt;stroke-linejoin:miter;stroke-opacity:1" d="M 996,216.777 972.997,199.525 z" id="boundary" inkscape:connector-curvature="0" />
	<path style="fill:none;stroke:red;stroke-width:1px;stroke-linecap:butt;stroke-linejoin:miter;stroke-opacity:1" d="M 996,216.777 978.748,245.53 z" id="boundary" inkscape:connector-curvature="0" />
	<path style="fill:none;stroke:red;stroke-width:1px;stroke-linecap:butt;stroke-linejoin:miter;stroke-opacity:1" d="M 892.487,162.145 921.241,170.771 z" id="boundary" inkscape:connector-curvature="0" />
	<path style="fill:none;stroke:red;stroke-width:1px;stroke-linecap:butt;stroke-linejoin:miter;stroke-opacity:1" d="M 489.936,363.42 461.183,357.67 z" id="boundary" inkscape:connector-curvature="0" />
	<path style="fill:none;stroke:red;stroke-width:1px;stroke-linecap:butt;stroke-linejoin:miter;stroke-opacity:1" d="M 547.443,363.42 518.69,363.42 z" id="boundary" inkscape:connector-curvature="0" />
	<path style="fill:none;stroke:red;stroke-width:1px;stroke-linecap:butt;stroke-linejoin:miter;stroke-opacity:1" d="M 489.936,363.42 518.69,363.42 z" id="boundary" inkscape:connector-curvature="0" />
	<path style="fill:none;stroke:red;stroke-width:1px;stroke-linecap:butt;stroke-linejoin:miter;stroke-opacity:1" d="M 544.568,395.049 547.443,363.42 z" id="boundary" inkscape:connector-curvature="0" />
	<path style="fill:none;stroke:red;stroke-width:1px;stroke-linecap:butt;stroke-linejoin:miter;stroke-opacity:1" d="M 544.568,395.049 547.443,423.803 z" id="boundary" inkscape:connector-curvature="0" />
	<path style="fill:none;stroke:red;stroke-width:1px;stroke-linecap:butt;stroke-linejoin:miter;stroke-opacity:1" d="M 742.968,369.171 714.214,372.046 z" id="boundary" inkscape:connector-curvature="0" />
	<path style="fill:none;stroke:red;stroke-width:1px;stroke-linecap:butt;stroke-linejoin:miter;stroke-opacity:1" d="M 714.214,372.046 699.838,403.675 z" id="boundary" inkscape:connector-curvature="0" />
	<path style="fill:none;stroke:red;stroke-width:1px;stroke-linecap:butt;stroke-linejoin:miter;stroke-opacity:1" d="M 547.443,423.803 553.194,452.557 z" id="boundary" inkscape:connector-curvature="0" />
	<path style="fill:none;stroke:red;stroke-width:1px;stroke-linecap:butt;stroke-linejoin:miter;stroke-opacity:1" d="M 553.194,452.557 579.072,466.933 z" id="boundary" inkscape:connector-curvature="0" />
	<path style="fill:none;stroke:red;stroke-width:1px;stroke-linecap:butt;stroke-linejoin:miter;stroke-opacity:1" d="M 579.072,466.933 607.826,466.933 z" id="boundary" inkscape:connector-curvature="0" />
	<path style="fill:none;stroke:red;stroke-width:1px;stroke-linecap:butt;stroke-linejoin:miter;stroke-opacity:1" d="M 685.461,429.554 699.838,403.675 z" id="boundary" inkscape:connector-curvature="0" />
	<path style="fill:none;stroke:red;stroke-width:1px;stroke-linecap:butt;stroke-linejoin:miter;stroke-opacity:1" d="M 685.461,429.554 662.458,452.557 z" id="boundary" inkscape:connector-curvature="0" />
	<path style="fill:none;stroke:red;stroke-width:1px;stroke-linecap:butt;stroke-linejoin:miter;stroke-opacity:1" d="M 636.58,466.933 662.458,452.557 z" id="boundary" inkscape:connector-curvature="0" />
	<path style="fill:none;stroke:red;stroke-width:1px;stroke-linecap:butt;stroke-linejoin:miter;stroke-opacity:1" d="M 636.58,466.933 607.826,466.933 z" id="boundary" inkscape:connector-curvature="0" />
	<path style="fill:none;stroke:red;stroke-width:1px;stroke-linecap:butt;stroke-linejoin:miter;stroke-opacity:1" d="M 826.354,340.417 800.475,354.794 z" id="boundary" inkscape:connector-curvature="0" />
	<path style="fill:none;stroke:red;stroke-width:1px;stroke-linecap:butt;stroke-linejoin:miter;stroke-opacity:1" d="M 955.745,268.533 978.748,245.53 z" id="boundary" inkscape:connector-curvature="0" />
	<path style="fill:none;stroke:red;stroke-width:1px;stroke-linecap:butt;stroke-linejoin:miter;stroke-opacity:1" d="M 932.742,291.536 909.739,308.788 z" id="boundary" inkscape:connector-curvature="0" />
	<path style="fill:none;stroke:red;stroke-width:1px;stroke-linecap:butt;stroke-linejoin:miter;stroke-opacity:1" d="M 955.745,268.533 932.742,291.536 z" id="boundary" inkscape:connector-curvature="0" />
	<path style="fill:none;stroke:red;stroke-width:1px;stroke-linecap:butt;stroke-linejoin:miter;stroke-opacity:1" d="M 742.968,369.171 771.722,363.42 z" id="boundary" inkscape:connector-curvature="0" />
	<path style="fill:none;stroke:red;stroke-width:1px;stroke-linecap:butt;stroke-linejoin:miter;stroke-opacity:1" d="M 800.475,354.794 771.722,363.42 z" id="boundary" inkscape:connector-curvature="0" />
	<path style="fill:none;stroke:red;stroke-width:1px;stroke-linecap:butt;stroke-linejoin:miter;stroke-opacity:1" d="M 826.354,340.417 855.107,334.667 z" id="boundary" inkscape:connector-curvature="0" />
	<path style="fill:none;stroke:red;stroke-width:1px;stroke-linecap:butt;stroke-linejoin:miter;stroke-opacity:1" d="M 855.107,334.667 883.861,323.165 z" id="boundary" inkscape:connector-curvature="0" />
	<path style="fill:none;stroke:red;stroke-width:1px;stroke-linecap:butt;stroke-linejoin:miter;stroke-opacity:1" d="M 883.861,323.165 909.739,308.788 z" id="boundary" inkscape:connector-curvature="0" />
	<circle cx="4" cy="130.516" r="4" fill="#0" id="circle0"/>
	<circle cx="4" cy="326.041" r="4" fill="#0" id="circle1"/>
	<circle cx="9.75072" cy="159.27" r="4" fill="#0" id="circle2"/>
	<circle cx="15.5014" cy="188.023" r="4" fill="#0" id="circle3"/>
	<circle cx="15.5014" cy="285.786" r="4" fill="#0" id="circle4"/>
	<circle cx="21.2522" cy="216.777" r="4" fill="#0" id="circle5"/>
	<circle cx="21.2522" cy="245.53" r="4" fill="#0" id="circle6"/>
	<circle cx="27.0029" cy="346.168" r="4" fill="#0" id="circle7"/>
	<circle cx="32.7536" cy="124.765" r="4" fill="#0" id="circle8"/>
	<circle cx="55.7565" cy="346.168" r="4" fill="#0" id="circle9"/>
	<circle cx="61.5072" cy="133.391" r="4" fill="#0" id="circle10"/>
	<circle cx="84.5101" cy="334.667" r="4" fill="#0" id="circle11"/>
	<circle cx="90.2609" cy="142.017" r="4" fill="#0" id="circle12"/>
	<circle cx="113.264" cy="323.165" r="4" fill="#0" id="circle13"/>
	<circle cx="116.139" cy="156.394" r="4" fill="#0" id="circle14"/>
	<circle cx="139.142" cy="308.788" r="4" fill="#0" id="circle15"/>
	<circle cx="144.893" cy="165.02" r="4" fill="#0" id="circle16"/>
	<circle cx="165.02" cy="294.412" r="4" fill="#0" id="circle17"/>
	<circle cx="170.771" cy="179.397" r="4" fill="#0" id="circle18"/>
	<circle cx="193.774" cy="282.91" r="4" fill="#0" id="circle19"/>
	<circle cx="199.525" cy="188.023" r="4" fill="#0" id="circle20"/>
	<circle cx="216.777" cy="300.162" r="4" fill="#0" id="circle21"/>
	<circle cx="222.528" cy="165.02" r="4" fill="#0" id="circle22"/>
	<circle cx="222.528" cy="328.916" r="4" fill="#0" id="circle23"/>
	<circle cx="236.904" cy="354.794" r="4" fill="#0" id="circle24"/>
	<circle cx="239.78" cy="142.017" r="4" fill="#0" id="circle25"/>
	<circle cx="259.907" cy="374.922" r="4" fill="#0" id="circle26"/>
	<circle cx="262.783" cy="119.014" r="4" fill="#0" id="circle27"/>
	<circle cx="285.786" cy="101.762" r="4" fill="#0" id="circle28"/>
	<circle cx="288.661" cy="374.922" r="4" fill="#0" id="circle29"/>
	<circle cx="308.788" cy="84.5101" r="4" fill="#0" id="circle30"/>
	<circle cx="317.414" cy="372.046" r="4" fill="#0" id="circle31"/>
	<circle cx="337.542" cy="78.7594" r="4" fill="#0" id="circle32"/>
	<circle cx="346.168" cy="363.42" r="4" fill="#0" id="circle33"/>
	<circle cx="366.296" cy="87.3855" r="4" fill="#0" id="circle34"/>
	<circle cx="374.922" cy="351.919" r="4" fill="#0" id="circle35"/>
	<circle cx="395.049" cy="98.887" r="4" fill="#0" id="circle36"/>
	<circle cx="403.675" cy="357.67" r="4" fill="#0" id="circle37"/>
	<circle cx="423.803" cy="101.762" r="4" fill="#0" id="circle38"/>
	<circle cx="432.429" cy="357.67" r="4" fill="#0" id="circle39"/>
	<circle cx="446.806" cy="84.5101" r="4" fill="#0" id="circle40"/>
	<circle cx="461.183" cy="357.67" r="4" fill="#0" id="circle41"/>
	<circle cx="469.809" cy="67.258" r="4" fill="#0" id="circle42"/>
	<circle cx="489.936" cy="363.42" r="4" fill="#0" id="circle43"/>
	<circle cx="498.562" cy="55.7565" r="4" fill="#0" id="circle44"/>
	<circle cx="518.69" cy="363.42" r="4" fill="#0" id="circle45"/>
	<circle cx="524.441" cy="41.3797" r="4" fill="#0" id="circle46"/>
	<circle cx="544.568" cy="395.049" r="4" fill="#0" id="circle47"/>
	<circle cx="547.443" cy="363.42" r="4" fill="#0" id="circle48"/>
	<circle cx="547.443" cy="423.803" r="4" fill="#0" id="circle49"/>
	<circle cx="550.319" cy="27.0029" r="4" fill="#0" id="circle50"/>
	<circle cx="553.194" cy="452.557" r="4" fill="#0" id="circle51"/>
	<circle cx="579.072" cy="21.2522" r="4" fill="#0" id="circle52"/>
	<circle cx="579.072" cy="466.933" r="4" fill="#0" id="circle53"/>
	<circle cx="607.826" cy="9.75072" r="4" fill="#0" id="circle54"/>
	<circle cx="607.826" cy="466.933" r="4" fill="#0" id="circle55"/>
	<circle cx="636.58" cy="4" r="4" fill="#0" id="circle56"/>
	<circle cx="636.58" cy="466.933" r="4" fill="#0" id="circle57"/>
	<circle cx="659.583" cy="21.2522" r="4" fill="#0" id="circle58"/>
	<circle cx="662.458" cy="452.557" r="4" fill="#0" id="circle59"/>
	<circle cx="673.959" cy="47.1304" r="4" fill="#0" id="circle60"/>
	<circle cx="685.461" cy="429.554" r="4" fill="#0" id="circle61"/>
	<circle cx="699.838" cy="403.675" r="4" fill="#0" id="circle62"/>
	<circle cx="702.713" cy="55.7565" r="4" fill="#0" id="circle63"/>
	<circle cx="702.713" cy="84.5101" r="4" fill="#0" id="circle64"/>
	<circle cx="714.214" cy="372.046" r="4" fill="#0" id="circle65"/>
	<circle cx="722.841" cy="107.513" r="4" fill="#0" id="circle66"/>
	<circle cx="742.968" cy="369.171" r="4" fill="#0" id="circle67"/>
	<circle cx="751.594" cy="110.388" r="4" fill="#0" id="circle68"/>
	<circle cx="771.722" cy="363.42" r="4" fill="#0" id="circle69"/>
	<circle cx="780.348" cy="119.014" r="4" fill="#0" id="circle70"/>
	<circle cx="800.475" cy="354.794" r="4" fill="#0" id="circle71"/>
	<circle cx="809.101" cy="127.641" r="4" fill="#0" id="circle72"/>
	<circle cx="826.354" cy="340.417" r="4" fill="#0" id="circle73"/>
	<circle cx="837.855" cy="139.142" r="4" fill="#0" id="circle74"/>
	<circle cx="855.107" cy="334.667" r="4" fill="#0" id="circle75"/>
	<circle cx="866.609" cy="147.768" r="4" fill="#0" id="circle76"/>
	<circle cx="883.861" cy="323.165" r="4" fill="#0" id="circle77"/>
	<circle cx="892.487" cy="162.145" r="4" fill="#0" id="circle78"/>
	<circle cx="909.739" cy="308.788" r="4" fill="#0" id="circle79"/>
	<circle cx="921.241" cy="170.771" r="4" fill="#0" id="circle80"/>
	<circle cx="932.742" cy="291.536" r="4" fill="#0" id="circle81"/>
	<circle cx="947.119" cy="185.148" r="4" fill="#0" id="circle82"/>
	<circle cx="955.745" cy="268.533" r="4" fill="#0" id="circle83"/>
	<circle cx="972.997" cy="199.525" r="4" fill="#0" id="circle84"/>
	<circle cx="978.748" cy="245.53" r="4" fill="#0" id="circle85"/>
	<circle cx="996" cy="216.777" r="4" fill="#0" id="circle86"/>
	</g>
</svg>