<?xml version="1.0" encoding="UTF-8" standalone="no"?>
<!-- Created with CurveBenchmark -->
<svg
	xmlns:dc="http://purl.org/dc/elements/1.1/"
	xmlns:cc="http://creativecommons.org/ns#"
	xmlns:rdf="http://www.w3.org/1999/02/22-rdf-syntax-ns#"
	xmlns:svg="http://www.w3.org/2000/svg"
	xmlns="http://www.w3.org/2000/svg"
	xmlns:sodipodi="http://sodipodi.sourceforge.net/DTD/sodipodi-0.dtd"
	xmlns:inkscape="http://www.inkscape.org/namespaces/inkscape"
	width="1000"
	height="1000"
	id="svg2"
	version="1.1"
	sodipodi:docname="manifold/crust-spoon-9.png.txt">
<defs
	id="defs4" />
<metadata
	id="metadata7">
	<rdf:RDF>
		<cc:Work
			rdf:about="">
			<dc:format>image/svg+xml</dc:format>
			<dc:type
				rdf:resource="http://purl.org/dc/dcmitype/StillImage" />
			<dc:title></dc:title>
		</cc:Work>
	</rdf:RDF>
</metadata>
<g
	inkscape:label="Layer 1"
	inkscape:groupmode="layer"
	id="layer1">
	<path style="fill:none;stroke:red;stroke-width:1px;stroke-linecap:butt;stroke-linejoin:miter;stroke-opacity:1" d="M 24.3947,275.658 20.3158,283.816 z" id="boundary" inkscape:connector-curvature="0" />
	<path style="fill:none;stroke:red;stroke-width:1px;stroke-linecap:butt;stroke-linejoin:miter;stroke-opacity:1" d="M 20.3158,283.816 20.3158,291.974 z" id="boundary" inkscape:connector-curvature="0" />
	<path style="fill:none;stroke:red;stroke-width:1px;stroke-linecap:butt;stroke-linejoin:miter;stroke-opacity:1" d="M 36.6316,169.605 36.6316,177.763 z" id="boundary" inkscape:connector-curvature="0" />
	<path style="fill:none;stroke:red;stroke-width:1px;stroke-linecap:butt;stroke-linejoin:miter;stroke-opacity:1" d="M 32.5526,198.158 28.4737,206.316 z" id="boundary" inkscape:connector-curvature="0" />
	<path style="fill:none;stroke:red;stroke-width:1px;stroke-linecap:butt;stroke-linejoin:miter;stroke-opacity:1" d="M 32.5526,190 32.5526,198.158 z" id="boundary" inkscape:connector-curvature="0" />
	<path style="fill:none;stroke:red;stroke-width:1px;stroke-linecap:butt;stroke-linejoin:miter;stroke-opacity:1" d="M 28.4737,214.474 28.4737,206.316 z" id="boundary" inkscape:connector-curvature="0" />
	<path style="fill:none;stroke:red;stroke-width:1px;stroke-linecap:butt;stroke-linejoin:miter;stroke-opacity:1" d="M 40.7105,157.368 40.7105,149.211 z" id="boundary" inkscape:connector-curvature="0" />
	<path style="fill:none;stroke:red;stroke-width:1px;stroke-linecap:butt;stroke-linejoin:miter;stroke-opacity:1" d="M 40.7105,157.368 36.6316,169.605 z" id="boundary" inkscape:connector-curvature="0" />
	<path style="fill:none;stroke:red;stroke-width:1px;stroke-linecap:butt;stroke-linejoin:miter;stroke-opacity:1" d="M 32.5526,190 36.6316,177.763 z" id="boundary" inkscape:connector-curvature="0" />
	<path style="fill:none;stroke:red;stroke-width:1px;stroke-linecap:butt;stroke-linejoin:miter;stroke-opacity:1" d="M 44.7895,141.053 40.7105,149.211 z" id="boundary" inkscape:connector-curvature="0" />
	<path style="fill:none;stroke:red;stroke-width:1px;stroke-linecap:butt;stroke-linejoin:miter;stroke-opacity:1" d="M 24.3947,251.184 24.3947,259.342 z" id="boundary" inkscape:connector-curvature="0" />
	<path style="fill:none;stroke:red;stroke-width:1px;stroke-linecap:butt;stroke-linejoin:miter;stroke-opacity:1" d="M 24.3947,251.184 24.3947,243.026 z" id="boundary" inkscape:connector-curvature="0" />
	<path style="fill:none;stroke:red;stroke-width:1px;stroke-linecap:butt;stroke-linejoin:miter;stroke-opacity:1" d="M 20.3158,300.132 20.3158,291.974 z" id="boundary" inkscape:connector-curvature="0" />
	<path style="fill:none;stroke:red;stroke-width:1px;stroke-linecap:butt;stroke-linejoin:miter;stroke-opacity:1" d="M 24.3947,259.342 24.3947,267.5 z" id="boundary" inkscape:connector-curvature="0" />
	<path style="fill:none;stroke:red;stroke-width:1px;stroke-linecap:butt;stroke-linejoin:miter;stroke-opacity:1" d="M 24.3947,267.5 24.3947,275.658 z" id="boundary" inkscape:connector-curvature="0" />
	<path style="fill:none;stroke:red;stroke-width:1px;stroke-linecap:butt;stroke-linejoin:miter;stroke-opacity:1" d="M 28.4737,230.789 24.3947,243.026 z" id="boundary" inkscape:connector-curvature="0" />
	<path style="fill:none;stroke:red;stroke-width:1px;stroke-linecap:butt;stroke-linejoin:miter;stroke-opacity:1" d="M 28.4737,222.632 28.4737,214.474 z" id="boundary" inkscape:connector-curvature="0" />
	<path style="fill:none;stroke:red;stroke-width:1px;stroke-linecap:butt;stroke-linejoin:miter;stroke-opacity:1" d="M 28.4737,230.789 28.4737,222.632 z" id="boundary" inkscape:connector-curvature="0" />
	<path style="fill:none;stroke:red;stroke-width:1px;stroke-linecap:butt;stroke-linejoin:miter;stroke-opacity:1" d="M 20.3158,308.289 20.3158,300.132 z" id="boundary" inkscape:connector-curvature="0" />
	<path style="fill:none;stroke:red;stroke-width:1px;stroke-linecap:butt;stroke-linejoin:miter;stroke-opacity:1" d="M 16.2368,345 12.1579,357.237 z" id="boundary" inkscape:connector-curvature="0" />
	<path style="fill:none;stroke:red;stroke-width:1px;stroke-linecap:butt;stroke-linejoin:miter;stroke-opacity:1" d="M 12.1579,357.237 12.1579,365.395 z" id="boundary" inkscape:connector-curvature="0" />
	<path style="fill:none;stroke:red;stroke-width:1px;stroke-linecap:butt;stroke-linejoin:miter;stroke-opacity:1" d="M 12.1579,365.395 12.1579,373.553 z" id="boundary" inkscape:connector-curvature="0" />
	<path style="fill:none;stroke:red;stroke-width:1px;stroke-linecap:butt;stroke-linejoin:miter;stroke-opacity:1" d="M 12.1579,381.711 12.1579,389.868 z" id="boundary" inkscape:connector-curvature="0" />
	<path style="fill:none;stroke:red;stroke-width:1px;stroke-linecap:butt;stroke-linejoin:miter;stroke-opacity:1" d="M 12.1579,389.868 12.1579,398.026 z" id="boundary" inkscape:connector-curvature="0" />
	<path style="fill:none;stroke:red;stroke-width:1px;stroke-linecap:butt;stroke-linejoin:miter;stroke-opacity:1" d="M 12.1579,381.711 12.1579,373.553 z" id="boundary" inkscape:connector-curvature="0" />
	<path style="fill:none;stroke:red;stroke-width:1px;stroke-linecap:butt;stroke-linejoin:miter;stroke-opacity:1" d="M 16.2368,328.684 16.2368,320.526 z" id="boundary" inkscape:connector-curvature="0" />
	<path style="fill:none;stroke:red;stroke-width:1px;stroke-linecap:butt;stroke-linejoin:miter;stroke-opacity:1" d="M 16.2368,320.526 20.3158,308.289 z" id="boundary" inkscape:connector-curvature="0" />
	<path style="fill:none;stroke:red;stroke-width:1px;stroke-linecap:butt;stroke-linejoin:miter;stroke-opacity:1" d="M 16.2368,336.842 16.2368,345 z" id="boundary" inkscape:connector-curvature="0" />
	<path style="fill:none;stroke:red;stroke-width:1px;stroke-linecap:butt;stroke-linejoin:miter;stroke-opacity:1" d="M 16.2368,336.842 16.2368,328.684 z" id="boundary" inkscape:connector-curvature="0" />
	<path style="fill:none;stroke:red;stroke-width:1px;stroke-linecap:butt;stroke-linejoin:miter;stroke-opacity:1" d="M 12.1579,406.184 12.1579,398.026 z" id="boundary" inkscape:connector-curvature="0" />
	<path style="fill:none;stroke:red;stroke-width:1px;stroke-linecap:butt;stroke-linejoin:miter;stroke-opacity:1" d="M 12.1579,414.342 12.1579,422.5 z" id="boundary" inkscape:connector-curvature="0" />
	<path style="fill:none;stroke:red;stroke-width:1px;stroke-linecap:butt;stroke-linejoin:miter;stroke-opacity:1" d="M 12.1579,414.342 12.1579,406.184 z" id="boundary" inkscape:connector-curvature="0" />
	<path style="fill:none;stroke:red;stroke-width:1px;stroke-linecap:butt;stroke-linejoin:miter;stroke-opacity:1" d="M 12.1579,430.658 12.1579,422.5 z" id="boundary" inkscape:connector-curvature="0" />
	<path style="fill:none;stroke:red;stroke-width:1px;stroke-linecap:butt;stroke-linejoin:miter;stroke-opacity:1" d="M 12.1579,438.816 12.1579,430.658 z" id="boundary" inkscape:connector-curvature="0" />
	<path style="fill:none;stroke:red;stroke-width:1px;stroke-linecap:butt;stroke-linejoin:miter;stroke-opacity:1" d="M 12.1579,446.974 12.1579,455.132 z" id="boundary" inkscape:connector-curvature="0" />
	<path style="fill:none;stroke:red;stroke-width:1px;stroke-linecap:butt;stroke-linejoin:miter;stroke-opacity:1" d="M 12.1579,463.289 12.1579,455.132 z" id="boundary" inkscape:connector-curvature="0" />
	<path style="fill:none;stroke:red;stroke-width:1px;stroke-linecap:butt;stroke-linejoin:miter;stroke-opacity:1" d="M 12.1579,471.447 12.1579,479.605 z" id="boundary" inkscape:connector-curvature="0" />
	<path style="fill:none;stroke:red;stroke-width:1px;stroke-linecap:butt;stroke-linejoin:miter;stroke-opacity:1" d="M 12.1579,487.763 12.1579,479.605 z" id="boundary" inkscape:connector-curvature="0" />
	<path style="fill:none;stroke:red;stroke-width:1px;stroke-linecap:butt;stroke-linejoin:miter;stroke-opacity:1" d="M 12.1579,471.447 12.1579,463.289 z" id="boundary" inkscape:connector-curvature="0" />
	<path style="fill:none;stroke:red;stroke-width:1px;stroke-linecap:butt;stroke-linejoin:miter;stroke-opacity:1" d="M 12.1579,446.974 12.1579,438.816 z" id="boundary" inkscape:connector-curvature="0" />
	<path style="fill:none;stroke:red;stroke-width:1px;stroke-linecap:butt;stroke-linejoin:miter;stroke-opacity:1" d="M 12.1579,495.921 12.1579,487.763 z" id="boundary" inkscape:connector-curvature="0" />
	<path style="fill:none;stroke:red;stroke-width:1px;stroke-linecap:butt;stroke-linejoin:miter;stroke-opacity:1" d="M 52.9474,96.1842 52.9474,104.342 z" id="boundary" inkscape:connector-curvature="0" />
	<path style="fill:none;stroke:red;stroke-width:1px;stroke-linecap:butt;stroke-linejoin:miter;stroke-opacity:1" d="M 48.8684,120.658 44.7895,132.895 z" id="boundary" inkscape:connector-curvature="0" />
	<path style="fill:none;stroke:red;stroke-width:1px;stroke-linecap:butt;stroke-linejoin:miter;stroke-opacity:1" d="M 48.8684,112.5 48.8684,120.658 z" id="boundary" inkscape:connector-curvature="0" />
	<path style="fill:none;stroke:red;stroke-width:1px;stroke-linecap:butt;stroke-linejoin:miter;stroke-opacity:1" d="M 44.7895,132.895 44.7895,141.053 z" id="boundary" inkscape:connector-curvature="0" />
	<path style="fill:none;stroke:red;stroke-width:1px;stroke-linecap:butt;stroke-linejoin:miter;stroke-opacity:1" d="M 61.1053,67.6316 57.0263,75.7895 z" id="boundary" inkscape:connector-curvature="0" />
	<path style="fill:none;stroke:red;stroke-width:1px;stroke-linecap:butt;stroke-linejoin:miter;stroke-opacity:1" d="M 61.1053,59.4737 61.1053,67.6316 z" id="boundary" inkscape:connector-curvature="0" />
	<path style="fill:none;stroke:red;stroke-width:1px;stroke-linecap:butt;stroke-linejoin:miter;stroke-opacity:1" d="M 57.0263,83.9474 57.0263,75.7895 z" id="boundary" inkscape:connector-curvature="0" />
	<path style="fill:none;stroke:red;stroke-width:1px;stroke-linecap:butt;stroke-linejoin:miter;stroke-opacity:1" d="M 57.0263,83.9474 52.9474,96.1842 z" id="boundary" inkscape:connector-curvature="0" />
	<path style="fill:none;stroke:red;stroke-width:1px;stroke-linecap:butt;stroke-linejoin:miter;stroke-opacity:1" d="M 48.8684,112.5 52.9474,104.342 z" id="boundary" inkscape:connector-curvature="0" />
	<path style="fill:none;stroke:red;stroke-width:1px;stroke-linecap:butt;stroke-linejoin:miter;stroke-opacity:1" d="M 65.1842,51.3158 61.1053,59.4737 z" id="boundary" inkscape:connector-curvature="0" />
	<path style="fill:none;stroke:red;stroke-width:1px;stroke-linecap:butt;stroke-linejoin:miter;stroke-opacity:1" d="M 65.1842,51.3158 65.1842,43.1579 z" id="boundary" inkscape:connector-curvature="0" />
	<path style="fill:none;stroke:red;stroke-width:1px;stroke-linecap:butt;stroke-linejoin:miter;stroke-opacity:1" d="M 65.1842,43.1579 69.2632,35 z" id="boundary" inkscape:connector-curvature="0" />
	<path style="fill:none;stroke:red;stroke-width:1px;stroke-linecap:butt;stroke-linejoin:miter;stroke-opacity:1" d="M 75.7895,28.4737 69.2632,35 z" id="boundary" inkscape:connector-curvature="0" />
	<path style="fill:none;stroke:red;stroke-width:1px;stroke-linecap:butt;stroke-linejoin:miter;stroke-opacity:1" d="M 12.1579,504.079 12.1579,512.237 z" id="boundary" inkscape:connector-curvature="0" />
	<path style="fill:none;stroke:red;stroke-width:1px;stroke-linecap:butt;stroke-linejoin:miter;stroke-opacity:1" d="M 16.2368,519.579 12.1579,512.237 z" id="boundary" inkscape:connector-curvature="0" />
	<path style="fill:none;stroke:red;stroke-width:1px;stroke-linecap:butt;stroke-linejoin:miter;stroke-opacity:1" d="M 16.2368,519.579 16.2368,527.737 z" id="boundary" inkscape:connector-curvature="0" />
	<path style="fill:none;stroke:red;stroke-width:1px;stroke-linecap:butt;stroke-linejoin:miter;stroke-opacity:1" d="M 16.2368,527.737 16.2368,535.895 z" id="boundary" inkscape:connector-curvature="0" />
	<path style="fill:none;stroke:red;stroke-width:1px;stroke-linecap:butt;stroke-linejoin:miter;stroke-opacity:1" d="M 16.2368,544.053 16.2368,535.895 z" id="boundary" inkscape:connector-curvature="0" />
	<path style="fill:none;stroke:red;stroke-width:1px;stroke-linecap:butt;stroke-linejoin:miter;stroke-opacity:1" d="M 16.2368,552.211 16.2368,544.053 z" id="boundary" inkscape:connector-curvature="0" />
	<path style="fill:none;stroke:red;stroke-width:1px;stroke-linecap:butt;stroke-linejoin:miter;stroke-opacity:1" d="M 20.3158,559.553 20.3158,567.711 z" id="boundary" inkscape:connector-curvature="0" />
	<path style="fill:none;stroke:red;stroke-width:1px;stroke-linecap:butt;stroke-linejoin:miter;stroke-opacity:1" d="M 20.3158,559.553 16.2368,552.211 z" id="boundary" inkscape:connector-curvature="0" />
	<path style="fill:none;stroke:red;stroke-width:1px;stroke-linecap:butt;stroke-linejoin:miter;stroke-opacity:1" d="M 20.3158,575.868 20.3158,567.711 z" id="boundary" inkscape:connector-curvature="0" />
	<path style="fill:none;stroke:red;stroke-width:1px;stroke-linecap:butt;stroke-linejoin:miter;stroke-opacity:1" d="M 20.3158,592.184 20.3158,584.026 z" id="boundary" inkscape:connector-curvature="0" />
	<path style="fill:none;stroke:red;stroke-width:1px;stroke-linecap:butt;stroke-linejoin:miter;stroke-opacity:1" d="M 20.3158,575.868 20.3158,584.026 z" id="boundary" inkscape:connector-curvature="0" />
	<path style="fill:none;stroke:red;stroke-width:1px;stroke-linecap:butt;stroke-linejoin:miter;stroke-opacity:1" d="M 24.3947,599.526 24.3947,607.684 z" id="boundary" inkscape:connector-curvature="0" />
	<path style="fill:none;stroke:red;stroke-width:1px;stroke-linecap:butt;stroke-linejoin:miter;stroke-opacity:1" d="M 24.3947,599.526 20.3158,592.184 z" id="boundary" inkscape:connector-curvature="0" />
	<path style="fill:none;stroke:red;stroke-width:1px;stroke-linecap:butt;stroke-linejoin:miter;stroke-opacity:1" d="M 24.3947,615.842 24.3947,607.684 z" id="boundary" inkscape:connector-curvature="0" />
	<path style="fill:none;stroke:red;stroke-width:1px;stroke-linecap:butt;stroke-linejoin:miter;stroke-opacity:1" d="M 26.0263,632.158 24.3947,624 z" id="boundary" inkscape:connector-curvature="0" />
	<path style="fill:none;stroke:red;stroke-width:1px;stroke-linecap:butt;stroke-linejoin:miter;stroke-opacity:1" d="M 24.3947,624 24.3947,615.842 z" id="boundary" inkscape:connector-curvature="0" />
	<path style="fill:none;stroke:red;stroke-width:1px;stroke-linecap:butt;stroke-linejoin:miter;stroke-opacity:1" d="M 12.1579,495.921 12.1579,504.079 z" id="boundary" inkscape:connector-curvature="0" />
	<path style="fill:none;stroke:red;stroke-width:1px;stroke-linecap:butt;stroke-linejoin:miter;stroke-opacity:1" d="M 20.3158,879.342 16.2368,891.579 z" id="boundary" inkscape:connector-curvature="0" />
	<path style="fill:none;stroke:red;stroke-width:1px;stroke-linecap:butt;stroke-linejoin:miter;stroke-opacity:1" d="M 12.1579,907.895 12.1579,916.053 z" id="boundary" inkscape:connector-curvature="0" />
	<path style="fill:none;stroke:red;stroke-width:1px;stroke-linecap:butt;stroke-linejoin:miter;stroke-opacity:1" d="M 16.2368,899.737 12.1579,907.895 z" id="boundary" inkscape:connector-curvature="0" />
	<path style="fill:none;stroke:red;stroke-width:1px;stroke-linecap:butt;stroke-linejoin:miter;stroke-opacity:1" d="M 12.1579,916.053 8.07895,924.211 z" id="boundary" inkscape:connector-curvature="0" />
	<path style="fill:none;stroke:red;stroke-width:1px;stroke-linecap:butt;stroke-linejoin:miter;stroke-opacity:1" d="M 16.2368,891.579 16.2368,899.737 z" id="boundary" inkscape:connector-curvature="0" />
	<path style="fill:none;stroke:red;stroke-width:1px;stroke-linecap:butt;stroke-linejoin:miter;stroke-opacity:1" d="M 24.3947,854.868 24.3947,863.026 z" id="boundary" inkscape:connector-curvature="0" />
	<path style="fill:none;stroke:red;stroke-width:1px;stroke-linecap:butt;stroke-linejoin:miter;stroke-opacity:1" d="M 20.3158,871.184 24.3947,863.026 z" id="boundary" inkscape:connector-curvature="0" />
	<path style="fill:none;stroke:red;stroke-width:1px;stroke-linecap:butt;stroke-linejoin:miter;stroke-opacity:1" d="M 20.3158,871.184 20.3158,879.342 z" id="boundary" inkscape:connector-curvature="0" />
	<path style="fill:none;stroke:red;stroke-width:1px;stroke-linecap:butt;stroke-linejoin:miter;stroke-opacity:1" d="M 28.4737,842.632 24.3947,854.868 z" id="boundary" inkscape:connector-curvature="0" />
	<path style="fill:none;stroke:red;stroke-width:1px;stroke-linecap:butt;stroke-linejoin:miter;stroke-opacity:1" d="M 4,952.763 4,944.605 z" id="boundary" inkscape:connector-curvature="0" />
	<path style="fill:none;stroke:red;stroke-width:1px;stroke-linecap:butt;stroke-linejoin:miter;stroke-opacity:1" d="M 8.07895,924.211 8.07895,932.368 z" id="boundary" inkscape:connector-curvature="0" />
	<path style="fill:none;stroke:red;stroke-width:1px;stroke-linecap:butt;stroke-linejoin:miter;stroke-opacity:1" d="M 4,952.763 4,960.921 z" id="boundary" inkscape:connector-curvature="0" />
	<path style="fill:none;stroke:red;stroke-width:1px;stroke-linecap:butt;stroke-linejoin:miter;stroke-opacity:1" d="M 4,969.079 4,960.921 z" id="boundary" inkscape:connector-curvature="0" />
	<path style="fill:none;stroke:red;stroke-width:1px;stroke-linecap:butt;stroke-linejoin:miter;stroke-opacity:1" d="M 8.07895,932.368 4,944.605 z" id="boundary" inkscape:connector-curvature="0" />
	<path style="fill:none;stroke:red;stroke-width:1px;stroke-linecap:butt;stroke-linejoin:miter;stroke-opacity:1" d="M 8.07895,976.421 4,969.079 z" id="boundary" inkscape:connector-curvature="0" />
	<path style="fill:none;stroke:red;stroke-width:1px;stroke-linecap:butt;stroke-linejoin:miter;stroke-opacity:1" d="M 13.7895,982.947 8.07895,976.421 z" id="boundary" inkscape:connector-curvature="0" />
	<path style="fill:none;stroke:red;stroke-width:1px;stroke-linecap:butt;stroke-linejoin:miter;stroke-opacity:1" d="M 20.3158,987.842 13.7895,982.947 z" id="boundary" inkscape:connector-curvature="0" />
	<path style="fill:none;stroke:red;stroke-width:1px;stroke-linecap:butt;stroke-linejoin:miter;stroke-opacity:1" d="M 26.0263,632.158 28.4737,640.316 z" id="boundary" inkscape:connector-curvature="0" />
	<path style="fill:none;stroke:red;stroke-width:1px;stroke-linecap:butt;stroke-linejoin:miter;stroke-opacity:1" d="M 20.3158,987.842 27.6579,991.921 z" id="boundary" inkscape:connector-curvature="0" />
	<path style="fill:none;stroke:red;stroke-width:1px;stroke-linecap:butt;stroke-linejoin:miter;stroke-opacity:1" d="M 28.4737,640.316 28.4737,648.474 z" id="boundary" inkscape:connector-curvature="0" />
	<path style="fill:none;stroke:red;stroke-width:1px;stroke-linecap:butt;stroke-linejoin:miter;stroke-opacity:1" d="M 28.4737,656.632 28.4737,648.474 z" id="boundary" inkscape:connector-curvature="0" />
	<path style="fill:none;stroke:red;stroke-width:1px;stroke-linecap:butt;stroke-linejoin:miter;stroke-opacity:1" d="M 28.4737,656.632 28.4737,664.789 z" id="boundary" inkscape:connector-curvature="0" />
	<path style="fill:none;stroke:red;stroke-width:1px;stroke-linecap:butt;stroke-linejoin:miter;stroke-opacity:1" d="M 32.5526,672.132 32.5526,680.289 z" id="boundary" inkscape:connector-curvature="0" />
	<path style="fill:none;stroke:red;stroke-width:1px;stroke-linecap:butt;stroke-linejoin:miter;stroke-opacity:1" d="M 32.5526,672.132 28.4737,664.789 z" id="boundary" inkscape:connector-curvature="0" />
	<path style="fill:none;stroke:red;stroke-width:1px;stroke-linecap:butt;stroke-linejoin:miter;stroke-opacity:1" d="M 32.5526,680.289 32.5526,688.447 z" id="boundary" inkscape:connector-curvature="0" />
	<path style="fill:none;stroke:red;stroke-width:1px;stroke-linecap:butt;stroke-linejoin:miter;stroke-opacity:1" d="M 32.5526,696.605 32.5526,688.447 z" id="boundary" inkscape:connector-curvature="0" />
	<path style="fill:none;stroke:red;stroke-width:1px;stroke-linecap:butt;stroke-linejoin:miter;stroke-opacity:1" d="M 32.5526,696.605 32.5526,704.763 z" id="boundary" inkscape:connector-curvature="0" />
	<path style="fill:none;stroke:red;stroke-width:1px;stroke-linecap:butt;stroke-linejoin:miter;stroke-opacity:1" d="M 32.5526,704.763 32.5526,712.921 z" id="boundary" inkscape:connector-curvature="0" />
	<path style="fill:none;stroke:red;stroke-width:1px;stroke-linecap:butt;stroke-linejoin:miter;stroke-opacity:1" d="M 32.5526,721.079 32.5526,712.921 z" id="boundary" inkscape:connector-curvature="0" />
	<path style="fill:none;stroke:red;stroke-width:1px;stroke-linecap:butt;stroke-linejoin:miter;stroke-opacity:1" d="M 32.5526,729.237 32.5526,737.395 z" id="boundary" inkscape:connector-curvature="0" />
	<path style="fill:none;stroke:red;stroke-width:1px;stroke-linecap:butt;stroke-linejoin:miter;stroke-opacity:1" d="M 32.5526,745.553 32.5526,737.395 z" id="boundary" inkscape:connector-curvature="0" />
	<path style="fill:none;stroke:red;stroke-width:1px;stroke-linecap:butt;stroke-linejoin:miter;stroke-opacity:1" d="M 32.5526,729.237 32.5526,721.079 z" id="boundary" inkscape:connector-curvature="0" />
	<path style="fill:none;stroke:red;stroke-width:1px;stroke-linecap:butt;stroke-linejoin:miter;stroke-opacity:1" d="M 32.5526,745.553 32.5526,753.711 z" id="boundary" inkscape:connector-curvature="0" />
	<path style="fill:none;stroke:red;stroke-width:1px;stroke-linecap:butt;stroke-linejoin:miter;stroke-opacity:1" d="M 32.5526,761.868 32.5526,770.026 z" id="boundary" inkscape:connector-curvature="0" />
	<path style="fill:none;stroke:red;stroke-width:1px;stroke-linecap:butt;stroke-linejoin:miter;stroke-opacity:1" d="M 32.5526,778.184 32.5526,770.026 z" id="boundary" inkscape:connector-curvature="0" />
	<path style="fill:none;stroke:red;stroke-width:1px;stroke-linecap:butt;stroke-linejoin:miter;stroke-opacity:1" d="M 28.4737,826.316 28.4737,834.474 z" id="boundary" inkscape:connector-curvature="0" />
	<path style="fill:none;stroke:red;stroke-width:1px;stroke-linecap:butt;stroke-linejoin:miter;stroke-opacity:1" d="M 28.4737,826.316 28.4737,818.158 z" id="boundary" inkscape:connector-curvature="0" />
	<path style="fill:none;stroke:red;stroke-width:1px;stroke-linecap:butt;stroke-linejoin:miter;stroke-opacity:1" d="M 28.4737,834.474 28.4737,842.632 z" id="boundary" inkscape:connector-curvature="0" />
	<path style="fill:none;stroke:red;stroke-width:1px;stroke-linecap:butt;stroke-linejoin:miter;stroke-opacity:1" d="M 32.5526,753.711 32.5526,761.868 z" id="boundary" inkscape:connector-curvature="0" />
	<path style="fill:none;stroke:red;stroke-width:1px;stroke-linecap:butt;stroke-linejoin:miter;stroke-opacity:1" d="M 32.5526,778.184 32.5526,786.342 z" id="boundary" inkscape:connector-curvature="0" />
	<path style="fill:none;stroke:red;stroke-width:1px;stroke-linecap:butt;stroke-linejoin:miter;stroke-opacity:1" d="M 32.5526,794.5 32.5526,786.342 z" id="boundary" inkscape:connector-curvature="0" />
	<path style="fill:none;stroke:red;stroke-width:1px;stroke-linecap:butt;stroke-linejoin:miter;stroke-opacity:1" d="M 32.5526,802.658 32.5526,810.816 z" id="boundary" inkscape:connector-curvature="0" />
	<path style="fill:none;stroke:red;stroke-width:1px;stroke-linecap:butt;stroke-linejoin:miter;stroke-opacity:1" d="M 28.4737,818.158 32.5526,810.816 z" id="boundary" inkscape:connector-curvature="0" />
	<path style="fill:none;stroke:red;stroke-width:1px;stroke-linecap:butt;stroke-linejoin:miter;stroke-opacity:1" d="M 32.5526,802.658 32.5526,794.5 z" id="boundary" inkscape:connector-curvature="0" />
	<path style="fill:none;stroke:red;stroke-width:1px;stroke-linecap:butt;stroke-linejoin:miter;stroke-opacity:1" d="M 35,996 27.6579,991.921 z" id="boundary" inkscape:connector-curvature="0" />
	<path style="fill:none;stroke:red;stroke-width:1px;stroke-linecap:butt;stroke-linejoin:miter;stroke-opacity:1" d="M 43.1579,996 35,996 z" id="boundary" inkscape:connector-curvature="0" />
	<path style="fill:none;stroke:red;stroke-width:1px;stroke-linecap:butt;stroke-linejoin:miter;stroke-opacity:1" d="M 51.3158,996 43.1579,996 z" id="boundary" inkscape:connector-curvature="0" />
	<path style="fill:none;stroke:red;stroke-width:1px;stroke-linecap:butt;stroke-linejoin:miter;stroke-opacity:1" d="M 66.8158,991.921 58.6579,991.921 z" id="boundary" inkscape:connector-curvature="0" />
	<path style="fill:none;stroke:red;stroke-width:1px;stroke-linecap:butt;stroke-linejoin:miter;stroke-opacity:1" d="M 58.6579,991.921 51.3158,996 z" id="boundary" inkscape:connector-curvature="0" />
	<path style="fill:none;stroke:red;stroke-width:1px;stroke-linecap:butt;stroke-linejoin:miter;stroke-opacity:1" d="M 74.1579,987.842 66.8158,991.921 z" id="boundary" inkscape:connector-curvature="0" />
	<path style="fill:none;stroke:red;stroke-width:1px;stroke-linecap:butt;stroke-linejoin:miter;stroke-opacity:1" d="M 74.1579,987.842 81.5,983.763 z" id="boundary" inkscape:connector-curvature="0" />
	<path style="fill:none;stroke:red;stroke-width:1px;stroke-linecap:butt;stroke-linejoin:miter;stroke-opacity:1" d="M 75.7895,28.4737 82.3158,21.9474 z" id="boundary" inkscape:connector-curvature="0" />
	<path style="fill:none;stroke:red;stroke-width:1px;stroke-linecap:butt;stroke-linejoin:miter;stroke-opacity:1" d="M 82.3158,21.9474 88.8421,16.2368 z" id="boundary" inkscape:connector-curvature="0" />
	<path style="fill:none;stroke:red;stroke-width:1px;stroke-linecap:butt;stroke-linejoin:miter;stroke-opacity:1" d="M 88.8421,16.2368 94.5526,9.71053 z" id="boundary" inkscape:connector-curvature="0" />
	<path style="fill:none;stroke:red;stroke-width:1px;stroke-linecap:butt;stroke-linejoin:miter;stroke-opacity:1" d="M 102.711,5.63158 110.868,4 z" id="boundary" inkscape:connector-curvature="0" />
	<path style="fill:none;stroke:red;stroke-width:1px;stroke-linecap:butt;stroke-linejoin:miter;stroke-opacity:1" d="M 110.868,4 119.026,4 z" id="boundary" inkscape:connector-curvature="0" />
	<path style="fill:none;stroke:red;stroke-width:1px;stroke-linecap:butt;stroke-linejoin:miter;stroke-opacity:1" d="M 114.947,184.289 114.947,176.132 z" id="boundary" inkscape:connector-curvature="0" />
	<path style="fill:none;stroke:red;stroke-width:1px;stroke-linecap:butt;stroke-linejoin:miter;stroke-opacity:1" d="M 119.026,167.974 114.947,176.132 z" id="boundary" inkscape:connector-curvature="0" />
	<path style="fill:none;stroke:red;stroke-width:1px;stroke-linecap:butt;stroke-linejoin:miter;stroke-opacity:1" d="M 94.5526,9.71053 102.711,5.63158 z" id="boundary" inkscape:connector-curvature="0" />
	<path style="fill:none;stroke:red;stroke-width:1px;stroke-linecap:butt;stroke-linejoin:miter;stroke-opacity:1" d="M 98.6316,322.974 94.5526,331.132 z" id="boundary" inkscape:connector-curvature="0" />
	<path style="fill:none;stroke:red;stroke-width:1px;stroke-linecap:butt;stroke-linejoin:miter;stroke-opacity:1" d="M 90.4737,367.842 90.4737,376 z" id="boundary" inkscape:connector-curvature="0" />
	<path style="fill:none;stroke:red;stroke-width:1px;stroke-linecap:butt;stroke-linejoin:miter;stroke-opacity:1" d="M 94.5526,347.447 94.5526,355.605 z" id="boundary" inkscape:connector-curvature="0" />
	<path style="fill:none;stroke:red;stroke-width:1px;stroke-linecap:butt;stroke-linejoin:miter;stroke-opacity:1" d="M 90.4737,376 90.4737,384.158 z" id="boundary" inkscape:connector-curvature="0" />
	<path style="fill:none;stroke:red;stroke-width:1px;stroke-linecap:butt;stroke-linejoin:miter;stroke-opacity:1" d="M 102.711,261.789 102.711,269.947 z" id="boundary" inkscape:connector-curvature="0" />
	<path style="fill:none;stroke:red;stroke-width:1px;stroke-linecap:butt;stroke-linejoin:miter;stroke-opacity:1" d="M 90.4737,392.316 90.4737,384.158 z" id="boundary" inkscape:connector-curvature="0" />
	<path style="fill:none;stroke:red;stroke-width:1px;stroke-linecap:butt;stroke-linejoin:miter;stroke-opacity:1" d="M 90.4737,400.474 90.4737,392.316 z" id="boundary" inkscape:connector-curvature="0" />
	<path style="fill:none;stroke:red;stroke-width:1px;stroke-linecap:butt;stroke-linejoin:miter;stroke-opacity:1" d="M 90.4737,400.474 90.4737,408.632 z" id="boundary" inkscape:connector-curvature="0" />
	<path style="fill:none;stroke:red;stroke-width:1px;stroke-linecap:butt;stroke-linejoin:miter;stroke-opacity:1" d="M 90.4737,416.789 90.4737,408.632 z" id="boundary" inkscape:connector-curvature="0" />
	<path style="fill:none;stroke:red;stroke-width:1px;stroke-linecap:butt;stroke-linejoin:miter;stroke-opacity:1" d="M 90.4737,424.947 90.4737,416.789 z" id="boundary" inkscape:connector-curvature="0" />
	<path style="fill:none;stroke:red;stroke-width:1px;stroke-linecap:butt;stroke-linejoin:miter;stroke-opacity:1" d="M 90.4737,424.947 90.4737,433.105 z" id="boundary" inkscape:connector-curvature="0" />
	<path style="fill:none;stroke:red;stroke-width:1px;stroke-linecap:butt;stroke-linejoin:miter;stroke-opacity:1" d="M 90.4737,441.263 90.4737,433.105 z" id="boundary" inkscape:connector-curvature="0" />
	<path style="fill:none;stroke:red;stroke-width:1px;stroke-linecap:butt;stroke-linejoin:miter;stroke-opacity:1" d="M 90.4737,441.263 90.4737,449.421 z" id="boundary" inkscape:connector-curvature="0" />
	<path style="fill:none;stroke:red;stroke-width:1px;stroke-linecap:butt;stroke-linejoin:miter;stroke-opacity:1" d="M 90.4737,457.579 90.4737,449.421 z" id="boundary" inkscape:connector-curvature="0" />
	<path style="fill:none;stroke:red;stroke-width:1px;stroke-linecap:butt;stroke-linejoin:miter;stroke-opacity:1" d="M 90.4737,465.737 90.4737,457.579 z" id="boundary" inkscape:connector-curvature="0" />
	<path style="fill:none;stroke:red;stroke-width:1px;stroke-linecap:butt;stroke-linejoin:miter;stroke-opacity:1" d="M 90.4737,465.737 90.4737,473.895 z" id="boundary" inkscape:connector-curvature="0" />
	<path style="fill:none;stroke:red;stroke-width:1px;stroke-linecap:butt;stroke-linejoin:miter;stroke-opacity:1" d="M 90.4737,482.053 90.4737,473.895 z" id="boundary" inkscape:connector-curvature="0" />
	<path style="fill:none;stroke:red;stroke-width:1px;stroke-linecap:butt;stroke-linejoin:miter;stroke-opacity:1" d="M 90.4737,490.211 90.4737,498.368 z" id="boundary" inkscape:connector-curvature="0" />
	<path style="fill:none;stroke:red;stroke-width:1px;stroke-linecap:butt;stroke-linejoin:miter;stroke-opacity:1" d="M 90.4737,506.526 90.4737,498.368 z" id="boundary" inkscape:connector-curvature="0" />
	<path style="fill:none;stroke:red;stroke-width:1px;stroke-linecap:butt;stroke-linejoin:miter;stroke-opacity:1" d="M 90.4737,490.211 90.4737,482.053 z" id="boundary" inkscape:connector-curvature="0" />
	<path style="fill:none;stroke:red;stroke-width:1px;stroke-linecap:butt;stroke-linejoin:miter;stroke-opacity:1" d="M 94.5526,331.132 94.5526,339.289 z" id="boundary" inkscape:connector-curvature="0" />
	<path style="fill:none;stroke:red;stroke-width:1px;stroke-linecap:butt;stroke-linejoin:miter;stroke-opacity:1" d="M 102.711,261.789 102.711,253.632 z" id="boundary" inkscape:connector-curvature="0" />
	<path style="fill:none;stroke:red;stroke-width:1px;stroke-linecap:butt;stroke-linejoin:miter;stroke-opacity:1" d="M 106.789,216.921 106.789,225.079 z" id="boundary" inkscape:connector-curvature="0" />
	<path style="fill:none;stroke:red;stroke-width:1px;stroke-linecap:butt;stroke-linejoin:miter;stroke-opacity:1" d="M 102.711,269.947 102.711,278.105 z" id="boundary" inkscape:connector-curvature="0" />
	<path style="fill:none;stroke:red;stroke-width:1px;stroke-linecap:butt;stroke-linejoin:miter;stroke-opacity:1" d="M 102.711,278.105 98.6316,290.342 z" id="boundary" inkscape:connector-curvature="0" />
	<path style="fill:none;stroke:red;stroke-width:1px;stroke-linecap:butt;stroke-linejoin:miter;stroke-opacity:1" d="M 106.789,225.079 106.789,233.237 z" id="boundary" inkscape:connector-curvature="0" />
	<path style="fill:none;stroke:red;stroke-width:1px;stroke-linecap:butt;stroke-linejoin:miter;stroke-opacity:1" d="M 98.6316,290.342 98.6316,298.5 z" id="boundary" inkscape:connector-curvature="0" />
	<path style="fill:none;stroke:red;stroke-width:1px;stroke-linecap:butt;stroke-linejoin:miter;stroke-opacity:1" d="M 110.868,204.684 110.868,196.526 z" id="boundary" inkscape:connector-curvature="0" />
	<path style="fill:none;stroke:red;stroke-width:1px;stroke-linecap:butt;stroke-linejoin:miter;stroke-opacity:1" d="M 114.947,184.289 110.868,196.526 z" id="boundary" inkscape:connector-curvature="0" />
	<path style="fill:none;stroke:red;stroke-width:1px;stroke-linecap:butt;stroke-linejoin:miter;stroke-opacity:1" d="M 106.789,216.921 110.868,204.684 z" id="boundary" inkscape:connector-curvature="0" />
	<path style="fill:none;stroke:red;stroke-width:1px;stroke-linecap:butt;stroke-linejoin:miter;stroke-opacity:1" d="M 106.789,233.237 106.789,241.395 z" id="boundary" inkscape:connector-curvature="0" />
	<path style="fill:none;stroke:red;stroke-width:1px;stroke-linecap:butt;stroke-linejoin:miter;stroke-opacity:1" d="M 106.789,241.395 102.711,253.632 z" id="boundary" inkscape:connector-curvature="0" />
	<path style="fill:none;stroke:red;stroke-width:1px;stroke-linecap:butt;stroke-linejoin:miter;stroke-opacity:1" d="M 94.5526,347.447 94.5526,339.289 z" id="boundary" inkscape:connector-curvature="0" />
	<path style="fill:none;stroke:red;stroke-width:1px;stroke-linecap:butt;stroke-linejoin:miter;stroke-opacity:1" d="M 94.5526,355.605 90.4737,367.842 z" id="boundary" inkscape:connector-curvature="0" />
	<path style="fill:none;stroke:red;stroke-width:1px;stroke-linecap:butt;stroke-linejoin:miter;stroke-opacity:1" d="M 94.5526,513.868 90.4737,506.526 z" id="boundary" inkscape:connector-curvature="0" />
	<path style="fill:none;stroke:red;stroke-width:1px;stroke-linecap:butt;stroke-linejoin:miter;stroke-opacity:1" d="M 98.6316,298.5 98.6316,306.658 z" id="boundary" inkscape:connector-curvature="0" />
	<path style="fill:none;stroke:red;stroke-width:1px;stroke-linecap:butt;stroke-linejoin:miter;stroke-opacity:1" d="M 98.6316,306.658 98.6316,314.816 z" id="boundary" inkscape:connector-curvature="0" />
	<path style="fill:none;stroke:red;stroke-width:1px;stroke-linecap:butt;stroke-linejoin:miter;stroke-opacity:1" d="M 98.6316,314.816 98.6316,322.974 z" id="boundary" inkscape:connector-curvature="0" />
	<path style="fill:none;stroke:red;stroke-width:1px;stroke-linecap:butt;stroke-linejoin:miter;stroke-opacity:1" d="M 94.5526,522.026 94.5526,513.868 z" id="boundary" inkscape:connector-curvature="0" />
	<path style="fill:none;stroke:red;stroke-width:1px;stroke-linecap:butt;stroke-linejoin:miter;stroke-opacity:1" d="M 119.026,4 127.184,4 z" id="boundary" inkscape:connector-curvature="0" />
	<path style="fill:none;stroke:red;stroke-width:1px;stroke-linecap:butt;stroke-linejoin:miter;stroke-opacity:1" d="M 127.184,4 134.526,8.07895 z" id="boundary" inkscape:connector-curvature="0" />
	<path style="fill:none;stroke:red;stroke-width:1px;stroke-linecap:butt;stroke-linejoin:miter;stroke-opacity:1" d="M 139.421,74.1579 135.342,86.3947 z" id="boundary" inkscape:connector-curvature="0" />
	<path style="fill:none;stroke:red;stroke-width:1px;stroke-linecap:butt;stroke-linejoin:miter;stroke-opacity:1" d="M 145.947,68.4474 139.421,74.1579 z" id="boundary" inkscape:connector-curvature="0" />
	<path style="fill:none;stroke:red;stroke-width:1px;stroke-linecap:butt;stroke-linejoin:miter;stroke-opacity:1" d="M 135.342,94.5526 135.342,86.3947 z" id="boundary" inkscape:connector-curvature="0" />
	<path style="fill:none;stroke:red;stroke-width:1px;stroke-linecap:butt;stroke-linejoin:miter;stroke-opacity:1" d="M 134.526,8.07895 141.053,12.9737 z" id="boundary" inkscape:connector-curvature="0" />
	<path style="fill:none;stroke:red;stroke-width:1px;stroke-linecap:butt;stroke-linejoin:miter;stroke-opacity:1" d="M 123.105,147.579 123.105,139.421 z" id="boundary" inkscape:connector-curvature="0" />
	<path style="fill:none;stroke:red;stroke-width:1px;stroke-linecap:butt;stroke-linejoin:miter;stroke-opacity:1" d="M 127.184,123.105 127.184,131.263 z" id="boundary" inkscape:connector-curvature="0" />
	<path style="fill:none;stroke:red;stroke-width:1px;stroke-linecap:butt;stroke-linejoin:miter;stroke-opacity:1" d="M 119.026,167.974 119.026,159.816 z" id="boundary" inkscape:connector-curvature="0" />
	<path style="fill:none;stroke:red;stroke-width:1px;stroke-linecap:butt;stroke-linejoin:miter;stroke-opacity:1" d="M 123.105,147.579 119.026,159.816 z" id="boundary" inkscape:connector-curvature="0" />
	<path style="fill:none;stroke:red;stroke-width:1px;stroke-linecap:butt;stroke-linejoin:miter;stroke-opacity:1" d="M 127.184,131.263 123.105,139.421 z" id="boundary" inkscape:connector-curvature="0" />
	<path style="fill:none;stroke:red;stroke-width:1px;stroke-linecap:butt;stroke-linejoin:miter;stroke-opacity:1" d="M 131.263,110.868 131.263,102.711 z" id="boundary" inkscape:connector-curvature="0" />
	<path style="fill:none;stroke:red;stroke-width:1px;stroke-linecap:butt;stroke-linejoin:miter;stroke-opacity:1" d="M 135.342,94.5526 131.263,102.711 z" id="boundary" inkscape:connector-curvature="0" />
	<path style="fill:none;stroke:red;stroke-width:1px;stroke-linecap:butt;stroke-linejoin:miter;stroke-opacity:1" d="M 127.184,123.105 131.263,110.868 z" id="boundary" inkscape:connector-curvature="0" />
	<path style="fill:none;stroke:red;stroke-width:1px;stroke-linecap:butt;stroke-linejoin:miter;stroke-opacity:1" d="M 141.053,12.9737 147.579,18.6842 z" id="boundary" inkscape:connector-curvature="0" />
	<path style="fill:none;stroke:red;stroke-width:1px;stroke-linecap:butt;stroke-linejoin:miter;stroke-opacity:1" d="M 151.658,26.0263 155.737,33.3684 z" id="boundary" inkscape:connector-curvature="0" />
	<path style="fill:none;stroke:red;stroke-width:1px;stroke-linecap:butt;stroke-linejoin:miter;stroke-opacity:1" d="M 151.658,26.0263 147.579,18.6842 z" id="boundary" inkscape:connector-curvature="0" />
	<path style="fill:none;stroke:red;stroke-width:1px;stroke-linecap:butt;stroke-linejoin:miter;stroke-opacity:1" d="M 151.658,57.8421 145.947,68.4474 z" id="boundary" inkscape:connector-curvature="0" />
	<path style="fill:none;stroke:red;stroke-width:1px;stroke-linecap:butt;stroke-linejoin:miter;stroke-opacity:1" d="M 155.737,41.5263 155.737,49.6842 z" id="boundary" inkscape:connector-curvature="0" />
	<path style="fill:none;stroke:red;stroke-width:1px;stroke-linecap:butt;stroke-linejoin:miter;stroke-opacity:1" d="M 155.737,33.3684 155.737,41.5263 z" id="boundary" inkscape:connector-curvature="0" />
	<path style="fill:none;stroke:red;stroke-width:1px;stroke-linecap:butt;stroke-linejoin:miter;stroke-opacity:1" d="M 151.658,57.8421 155.737,49.6842 z" id="boundary" inkscape:connector-curvature="0" />
	<path style="fill:none;stroke:red;stroke-width:1px;stroke-linecap:butt;stroke-linejoin:miter;stroke-opacity:1" d="M 94.5526,522.026 94.5526,530.184 z" id="boundary" inkscape:connector-curvature="0" />
	<path style="fill:none;stroke:red;stroke-width:1px;stroke-linecap:butt;stroke-linejoin:miter;stroke-opacity:1" d="M 98.6316,578.316 105.158,584.026 z" id="boundary" inkscape:connector-curvature="0" />
	<path style="fill:none;stroke:red;stroke-width:1px;stroke-linecap:butt;stroke-linejoin:miter;stroke-opacity:1" d="M 94.5526,530.184 94.5526,538.342 z" id="boundary" inkscape:connector-curvature="0" />
	<path style="fill:none;stroke:red;stroke-width:1px;stroke-linecap:butt;stroke-linejoin:miter;stroke-opacity:1" d="M 98.6316,553.842 94.5526,546.5 z" id="boundary" inkscape:connector-curvature="0" />
	<path style="fill:none;stroke:red;stroke-width:1px;stroke-linecap:butt;stroke-linejoin:miter;stroke-opacity:1" d="M 94.5526,546.5 94.5526,538.342 z" id="boundary" inkscape:connector-curvature="0" />
	<path style="fill:none;stroke:red;stroke-width:1px;stroke-linecap:butt;stroke-linejoin:miter;stroke-opacity:1" d="M 98.6316,553.842 98.6316,562 z" id="boundary" inkscape:connector-curvature="0" />
	<path style="fill:none;stroke:red;stroke-width:1px;stroke-linecap:butt;stroke-linejoin:miter;stroke-opacity:1" d="M 98.6316,562 98.6316,570.158 z" id="boundary" inkscape:connector-curvature="0" />
	<path style="fill:none;stroke:red;stroke-width:1px;stroke-linecap:butt;stroke-linejoin:miter;stroke-opacity:1" d="M 98.6316,578.316 98.6316,570.158 z" id="boundary" inkscape:connector-curvature="0" />
	<path style="fill:none;stroke:red;stroke-width:1px;stroke-linecap:butt;stroke-linejoin:miter;stroke-opacity:1" d="M 105.158,584.026 110.868,590.553 z" id="boundary" inkscape:connector-curvature="0" />
	<path style="fill:none;stroke:red;stroke-width:1px;stroke-linecap:butt;stroke-linejoin:miter;stroke-opacity:1" d="M 110.868,590.553 117.395,596.263 z" id="boundary" inkscape:connector-curvature="0" />
	<path style="fill:none;stroke:red;stroke-width:1px;stroke-linecap:butt;stroke-linejoin:miter;stroke-opacity:1" d="M 123.105,602.789 117.395,596.263 z" id="boundary" inkscape:connector-curvature="0" />
	<path style="fill:none;stroke:red;stroke-width:1px;stroke-linecap:butt;stroke-linejoin:miter;stroke-opacity:1" d="M 129.632,608.5 123.105,602.789 z" id="boundary" inkscape:connector-curvature="0" />
	<path style="fill:none;stroke:red;stroke-width:1px;stroke-linecap:butt;stroke-linejoin:miter;stroke-opacity:1" d="M 129.632,608.5 132.895,616.658 z" id="boundary" inkscape:connector-curvature="0" />
	<path style="fill:none;stroke:red;stroke-width:1px;stroke-linecap:butt;stroke-linejoin:miter;stroke-opacity:1" d="M 88.8421,979.684 81.5,983.763 z" id="boundary" inkscape:connector-curvature="0" />
	<path style="fill:none;stroke:red;stroke-width:1px;stroke-linecap:butt;stroke-linejoin:miter;stroke-opacity:1" d="M 88.8421,979.684 96.1842,975.605 z" id="boundary" inkscape:connector-curvature="0" />
	<path style="fill:none;stroke:red;stroke-width:1px;stroke-linecap:butt;stroke-linejoin:miter;stroke-opacity:1" d="M 103.526,971.526 96.1842,975.605 z" id="boundary" inkscape:connector-curvature="0" />
	<path style="fill:none;stroke:red;stroke-width:1px;stroke-linecap:butt;stroke-linejoin:miter;stroke-opacity:1" d="M 110.868,967.447 103.526,971.526 z" id="boundary" inkscape:connector-curvature="0" />
	<path style="fill:none;stroke:red;stroke-width:1px;stroke-linecap:butt;stroke-linejoin:miter;stroke-opacity:1" d="M 117.395,961.737 110.868,967.447 z" id="boundary" inkscape:connector-curvature="0" />
	<path style="fill:none;stroke:red;stroke-width:1px;stroke-linecap:butt;stroke-linejoin:miter;stroke-opacity:1" d="M 137.789,945.421 131.263,951.132 z" id="boundary" inkscape:connector-curvature="0" />
	<path style="fill:none;stroke:red;stroke-width:1px;stroke-linecap:butt;stroke-linejoin:miter;stroke-opacity:1" d="M 125.553,957.658 117.395,961.737 z" id="boundary" inkscape:connector-curvature="0" />
	<path style="fill:none;stroke:red;stroke-width:1px;stroke-linecap:butt;stroke-linejoin:miter;stroke-opacity:1" d="M 131.263,951.132 125.553,957.658 z" id="boundary" inkscape:connector-curvature="0" />
	<path style="fill:none;stroke:red;stroke-width:1px;stroke-linecap:butt;stroke-linejoin:miter;stroke-opacity:1" d="M 139.421,622.368 132.895,616.658 z" id="boundary" inkscape:connector-curvature="0" />
	<path style="fill:none;stroke:red;stroke-width:1px;stroke-linecap:butt;stroke-linejoin:miter;stroke-opacity:1" d="M 139.421,622.368 145.132,628.895 z" id="boundary" inkscape:connector-curvature="0" />
	<path style="fill:none;stroke:red;stroke-width:1px;stroke-linecap:butt;stroke-linejoin:miter;stroke-opacity:1" d="M 151.658,634.605 155.737,641.947 z" id="boundary" inkscape:connector-curvature="0" />
	<path style="fill:none;stroke:red;stroke-width:1px;stroke-linecap:butt;stroke-linejoin:miter;stroke-opacity:1" d="M 151.658,634.605 145.132,628.895 z" id="boundary" inkscape:connector-curvature="0" />
	<path style="fill:none;stroke:red;stroke-width:1px;stroke-linecap:butt;stroke-linejoin:miter;stroke-opacity:1" d="M 159.816,649.289 155.737,641.947 z" id="boundary" inkscape:connector-curvature="0" />
	<path style="fill:none;stroke:red;stroke-width:1px;stroke-linecap:butt;stroke-linejoin:miter;stroke-opacity:1" d="M 159.816,649.289 163.895,656.632 z" id="boundary" inkscape:connector-curvature="0" />
	<path style="fill:none;stroke:red;stroke-width:1px;stroke-linecap:butt;stroke-linejoin:miter;stroke-opacity:1" d="M 163.895,656.632 167.974,663.974 z" id="boundary" inkscape:connector-curvature="0" />
	<path style="fill:none;stroke:red;stroke-width:1px;stroke-linecap:butt;stroke-linejoin:miter;stroke-opacity:1" d="M 172.053,679.474 167.974,672.132 z" id="boundary" inkscape:connector-curvature="0" />
	<path style="fill:none;stroke:red;stroke-width:1px;stroke-linecap:butt;stroke-linejoin:miter;stroke-opacity:1" d="M 176.132,686.816 172.053,679.474 z" id="boundary" inkscape:connector-curvature="0" />
	<path style="fill:none;stroke:red;stroke-width:1px;stroke-linecap:butt;stroke-linejoin:miter;stroke-opacity:1" d="M 176.132,686.816 176.132,694.974 z" id="boundary" inkscape:connector-curvature="0" />
	<path style="fill:none;stroke:red;stroke-width:1px;stroke-linecap:butt;stroke-linejoin:miter;stroke-opacity:1" d="M 167.974,672.132 167.974,663.974 z" id="boundary" inkscape:connector-curvature="0" />
	<path style="fill:none;stroke:red;stroke-width:1px;stroke-linecap:butt;stroke-linejoin:miter;stroke-opacity:1" d="M 176.132,694.974 180.211,702.316 z" id="boundary" inkscape:connector-curvature="0" />
	<path style="fill:none;stroke:red;stroke-width:1px;stroke-linecap:butt;stroke-linejoin:miter;stroke-opacity:1" d="M 180.211,702.316 180.211,710.474 z" id="boundary" inkscape:connector-curvature="0" />
	<path style="fill:none;stroke:red;stroke-width:1px;stroke-linecap:butt;stroke-linejoin:miter;stroke-opacity:1" d="M 181.842,718.632 180.211,710.474 z" id="boundary" inkscape:connector-curvature="0" />
	<path style="fill:none;stroke:red;stroke-width:1px;stroke-linecap:butt;stroke-linejoin:miter;stroke-opacity:1" d="M 184.289,726.789 185.921,734.947 z" id="boundary" inkscape:connector-curvature="0" />
	<path style="fill:none;stroke:red;stroke-width:1px;stroke-linecap:butt;stroke-linejoin:miter;stroke-opacity:1" d="M 184.289,726.789 181.842,718.632 z" id="boundary" inkscape:connector-curvature="0" />
	<path style="fill:none;stroke:red;stroke-width:1px;stroke-linecap:butt;stroke-linejoin:miter;stroke-opacity:1" d="M 185.921,734.947 188.368,743.105 z" id="boundary" inkscape:connector-curvature="0" />
	<path style="fill:none;stroke:red;stroke-width:1px;stroke-linecap:butt;stroke-linejoin:miter;stroke-opacity:1" d="M 188.368,751.263 188.368,743.105 z" id="boundary" inkscape:connector-curvature="0" />
	<path style="fill:none;stroke:red;stroke-width:1px;stroke-linecap:butt;stroke-linejoin:miter;stroke-opacity:1" d="M 192.447,758.605 188.368,751.263 z" id="boundary" inkscape:connector-curvature="0" />
	<path style="fill:none;stroke:red;stroke-width:1px;stroke-linecap:butt;stroke-linejoin:miter;stroke-opacity:1" d="M 180.211,877.711 180.211,885.868 z" id="boundary" inkscape:connector-curvature="0" />
	<path style="fill:none;stroke:red;stroke-width:1px;stroke-linecap:butt;stroke-linejoin:miter;stroke-opacity:1" d="M 184.289,865.474 180.211,877.711 z" id="boundary" inkscape:connector-curvature="0" />
	<path style="fill:none;stroke:red;stroke-width:1px;stroke-linecap:butt;stroke-linejoin:miter;stroke-opacity:1" d="M 176.132,894.026 180.211,885.868 z" id="boundary" inkscape:connector-curvature="0" />
	<path style="fill:none;stroke:red;stroke-width:1px;stroke-linecap:butt;stroke-linejoin:miter;stroke-opacity:1" d="M 137.789,945.421 143.5,938.895 z" id="boundary" inkscape:connector-curvature="0" />
	<path style="fill:none;stroke:red;stroke-width:1px;stroke-linecap:butt;stroke-linejoin:miter;stroke-opacity:1" d="M 150.026,933.184 143.5,938.895 z" id="boundary" inkscape:connector-curvature="0" />
	<path style="fill:none;stroke:red;stroke-width:1px;stroke-linecap:butt;stroke-linejoin:miter;stroke-opacity:1" d="M 150.026,933.184 154.105,925.026 z" id="boundary" inkscape:connector-curvature="0" />
	<path style="fill:none;stroke:red;stroke-width:1px;stroke-linecap:butt;stroke-linejoin:miter;stroke-opacity:1" d="M 170.421,904.632 163.895,910.342 z" id="boundary" inkscape:connector-curvature="0" />
	<path style="fill:none;stroke:red;stroke-width:1px;stroke-linecap:butt;stroke-linejoin:miter;stroke-opacity:1" d="M 176.132,894.026 170.421,904.632 z" id="boundary" inkscape:connector-curvature="0" />
	<path style="fill:none;stroke:red;stroke-width:1px;stroke-linecap:butt;stroke-linejoin:miter;stroke-opacity:1" d="M 159.816,918.5 163.895,910.342 z" id="boundary" inkscape:connector-curvature="0" />
	<path style="fill:none;stroke:red;stroke-width:1px;stroke-linecap:butt;stroke-linejoin:miter;stroke-opacity:1" d="M 154.105,925.026 159.816,918.5 z" id="boundary" inkscape:connector-curvature="0" />
	<path style="fill:none;stroke:red;stroke-width:1px;stroke-linecap:butt;stroke-linejoin:miter;stroke-opacity:1" d="M 192.447,766.763 192.447,774.921 z" id="boundary" inkscape:connector-curvature="0" />
	<path style="fill:none;stroke:red;stroke-width:1px;stroke-linecap:butt;stroke-linejoin:miter;stroke-opacity:1" d="M 192.447,766.763 192.447,758.605 z" id="boundary" inkscape:connector-curvature="0" />
	<path style="fill:none;stroke:red;stroke-width:1px;stroke-linecap:butt;stroke-linejoin:miter;stroke-opacity:1" d="M 192.447,783.079 192.447,791.237 z" id="boundary" inkscape:connector-curvature="0" />
	<path style="fill:none;stroke:red;stroke-width:1px;stroke-linecap:butt;stroke-linejoin:miter;stroke-opacity:1" d="M 192.447,774.921 192.447,783.079 z" id="boundary" inkscape:connector-curvature="0" />
	<path style="fill:none;stroke:red;stroke-width:1px;stroke-linecap:butt;stroke-linejoin:miter;stroke-opacity:1" d="M 192.447,791.237 192.447,799.395 z" id="boundary" inkscape:connector-curvature="0" />
	<path style="fill:none;stroke:red;stroke-width:1px;stroke-linecap:butt;stroke-linejoin:miter;stroke-opacity:1" d="M 188.368,841 188.368,849.158 z" id="boundary" inkscape:connector-curvature="0" />
	<path style="fill:none;stroke:red;stroke-width:1px;stroke-linecap:butt;stroke-linejoin:miter;stroke-opacity:1" d="M 192.447,799.395 192.447,807.553 z" id="boundary" inkscape:connector-curvature="0" />
	<path style="fill:none;stroke:red;stroke-width:1px;stroke-linecap:butt;stroke-linejoin:miter;stroke-opacity:1" d="M 192.447,807.553 192.447,815.711 z" id="boundary" inkscape:connector-curvature="0" />
	<path style="fill:none;stroke:red;stroke-width:1px;stroke-linecap:butt;stroke-linejoin:miter;stroke-opacity:1" d="M 192.447,823.868 192.447,832.026 z" id="boundary" inkscape:connector-curvature="0" />
	<path style="fill:none;stroke:red;stroke-width:1px;stroke-linecap:butt;stroke-linejoin:miter;stroke-opacity:1" d="M 192.447,823.868 192.447,815.711 z" id="boundary" inkscape:connector-curvature="0" />
	<path style="fill:none;stroke:red;stroke-width:1px;stroke-linecap:butt;stroke-linejoin:miter;stroke-opacity:1" d="M 192.447,832.026 188.368,841 z" id="boundary" inkscape:connector-curvature="0" />
	<path style="fill:none;stroke:red;stroke-width:1px;stroke-linecap:butt;stroke-linejoin:miter;stroke-opacity:1" d="M 184.289,865.474 184.289,857.316 z" id="boundary" inkscape:connector-curvature="0" />
	<path style="fill:none;stroke:red;stroke-width:1px;stroke-linecap:butt;stroke-linejoin:miter;stroke-opacity:1" d="M 188.368,849.158 184.289,857.316 z" id="boundary" inkscape:connector-curvature="0" />
	<circle cx="4" cy="944.605" r="4" fill="#0" id="circle0"/>
	<circle cx="4" cy="952.763" r="4" fill="#0" id="circle1"/>
	<circle cx="4" cy="960.921" r="4" fill="#0" id="circle2"/>
	<circle cx="4" cy="969.079" r="4" fill="#0" id="circle3"/>
	<circle cx="8.07895" cy="924.211" r="4" fill="#0" id="circle4"/>
	<circle cx="8.07895" cy="932.368" r="4" fill="#0" id="circle5"/>
	<circle cx="8.07895" cy="976.421" r="4" fill="#0" id="circle6"/>
	<circle cx="12.1579" cy="357.237" r="4" fill="#0" id="circle7"/>
	<circle cx="12.1579" cy="365.395" r="4" fill="#0" id="circle8"/>
	<circle cx="12.1579" cy="373.553" r="4" fill="#0" id="circle9"/>
	<circle cx="12.1579" cy="381.711" r="4" fill="#0" id="circle10"/>
	<circle cx="12.1579" cy="389.868" r="4" fill="#0" id="circle11"/>
	<circle cx="12.1579" cy="398.026" r="4" fill="#0" id="circle12"/>
	<circle cx="12.1579" cy="406.184" r="4" fill="#0" id="circle13"/>
	<circle cx="12.1579" cy="414.342" r="4" fill="#0" id="circle14"/>
	<circle cx="12.1579" cy="422.5" r="4" fill="#0" id="circle15"/>
	<circle cx="12.1579" cy="430.658" r="4" fill="#0" id="circle16"/>
	<circle cx="12.1579" cy="438.816" r="4" fill="#0" id="circle17"/>
	<circle cx="12.1579" cy="446.974" r="4" fill="#0" id="circle18"/>
	<circle cx="12.1579" cy="455.132" r="4" fill="#0" id="circle19"/>
	<circle cx="12.1579" cy="463.289" r="4" fill="#0" id="circle20"/>
	<circle cx="12.1579" cy="471.447" r="4" fill="#0" id="circle21"/>
	<circle cx="12.1579" cy="479.605" r="4" fill="#0" id="circle22"/>
	<circle cx="12.1579" cy="487.763" r="4" fill="#0" id="circle23"/>
	<circle cx="12.1579" cy="495.921" r="4" fill="#0" id="circle24"/>
	<circle cx="12.1579" cy="504.079" r="4" fill="#0" id="circle25"/>
	<circle cx="12.1579" cy="512.237" r="4" fill="#0" id="circle26"/>
	<circle cx="12.1579" cy="907.895" r="4" fill="#0" id="circle27"/>
	<circle cx="12.1579" cy="916.053" r="4" fill="#0" id="circle28"/>
	<circle cx="13.7895" cy="982.947" r="4" fill="#0" id="circle29"/>
	<circle cx="16.2368" cy="320.526" r="4" fill="#0" id="circle30"/>
	<circle cx="16.2368" cy="328.684" r="4" fill="#0" id="circle31"/>
	<circle cx="16.2368" cy="336.842" r="4" fill="#0" id="circle32"/>
	<circle cx="16.2368" cy="345" r="4" fill="#0" id="circle33"/>
	<circle cx="16.2368" cy="519.579" r="4" fill="#0" id="circle34"/>
	<circle cx="16.2368" cy="527.737" r="4" fill="#0" id="circle35"/>
	<circle cx="16.2368" cy="535.895" r="4" fill="#0" id="circle36"/>
	<circle cx="16.2368" cy="544.053" r="4" fill="#0" id="circle37"/>
	<circle cx="16.2368" cy="552.211" r="4" fill="#0" id="circle38"/>
	<circle cx="16.2368" cy="891.579" r="4" fill="#0" id="circle39"/>
	<circle cx="16.2368" cy="899.737" r="4" fill="#0" id="circle40"/>
	<circle cx="20.3158" cy="283.816" r="4" fill="#0" id="circle41"/>
	<circle cx="20.3158" cy="291.974" r="4" fill="#0" id="circle42"/>
	<circle cx="20.3158" cy="300.132" r="4" fill="#0" id="circle43"/>
	<circle cx="20.3158" cy="308.289" r="4" fill="#0" id="circle44"/>
	<circle cx="20.3158" cy="559.553" r="4" fill="#0" id="circle45"/>
	<circle cx="20.3158" cy="567.711" r="4" fill="#0" id="circle46"/>
	<circle cx="20.3158" cy="575.868" r="4" fill="#0" id="circle47"/>
	<circle cx="20.3158" cy="584.026" r="4" fill="#0" id="circle48"/>
	<circle cx="20.3158" cy="592.184" r="4" fill="#0" id="circle49"/>
	<circle cx="20.3158" cy="871.184" r="4" fill="#0" id="circle50"/>
	<circle cx="20.3158" cy="879.342" r="4" fill="#0" id="circle51"/>
	<circle cx="20.3158" cy="987.842" r="4" fill="#0" id="circle52"/>
	<circle cx="24.3947" cy="243.026" r="4" fill="#0" id="circle53"/>
	<circle cx="24.3947" cy="251.184" r="4" fill="#0" id="circle54"/>
	<circle cx="24.3947" cy="259.342" r="4" fill="#0" id="circle55"/>
	<circle cx="24.3947" cy="267.5" r="4" fill="#0" id="circle56"/>
	<circle cx="24.3947" cy="275.658" r="4" fill="#0" id="circle57"/>
	<circle cx="24.3947" cy="599.526" r="4" fill="#0" id="circle58"/>
	<circle cx="24.3947" cy="607.684" r="4" fill="#0" id="circle59"/>
	<circle cx="24.3947" cy="615.842" r="4" fill="#0" id="circle60"/>
	<circle cx="24.3947" cy="624" r="4" fill="#0" id="circle61"/>
	<circle cx="24.3947" cy="854.868" r="4" fill="#0" id="circle62"/>
	<circle cx="24.3947" cy="863.026" r="4" fill="#0" id="circle63"/>
	<circle cx="26.0263" cy="632.158" r="4" fill="#0" id="circle64"/>
	<circle cx="27.6579" cy="991.921" r="4" fill="#0" id="circle65"/>
	<circle cx="28.4737" cy="206.316" r="4" fill="#0" id="circle66"/>
	<circle cx="28.4737" cy="214.474" r="4" fill="#0" id="circle67"/>
	<circle cx="28.4737" cy="222.632" r="4" fill="#0" id="circle68"/>
	<circle cx="28.4737" cy="230.789" r="4" fill="#0" id="circle69"/>
	<circle cx="28.4737" cy="640.316" r="4" fill="#0" id="circle70"/>
	<circle cx="28.4737" cy="648.474" r="4" fill="#0" id="circle71"/>
	<circle cx="28.4737" cy="656.632" r="4" fill="#0" id="circle72"/>
	<circle cx="28.4737" cy="664.789" r="4" fill="#0" id="circle73"/>
	<circle cx="28.4737" cy="818.158" r="4" fill="#0" id="circle74"/>
	<circle cx="28.4737" cy="826.316" r="4" fill="#0" id="circle75"/>
	<circle cx="28.4737" cy="834.474" r="4" fill="#0" id="circle76"/>
	<circle cx="28.4737" cy="842.632" r="4" fill="#0" id="circle77"/>
	<circle cx="32.5526" cy="190" r="4" fill="#0" id="circle78"/>
	<circle cx="32.5526" cy="198.158" r="4" fill="#0" id="circle79"/>
	<circle cx="32.5526" cy="672.132" r="4" fill="#0" id="circle80"/>
	<circle cx="32.5526" cy="680.289" r="4" fill="#0" id="circle81"/>
	<circle cx="32.5526" cy="688.447" r="4" fill="#0" id="circle82"/>
	<circle cx="32.5526" cy="696.605" r="4" fill="#0" id="circle83"/>
	<circle cx="32.5526" cy="704.763" r="4" fill="#0" id="circle84"/>
	<circle cx="32.5526" cy="712.921" r="4" fill="#0" id="circle85"/>
	<circle cx="32.5526" cy="721.079" r="4" fill="#0" id="circle86"/>
	<circle cx="32.5526" cy="729.237" r="4" fill="#0" id="circle87"/>
	<circle cx="32.5526" cy="737.395" r="4" fill="#0" id="circle88"/>
	<circle cx="32.5526" cy="745.553" r="4" fill="#0" id="circle89"/>
	<circle cx="32.5526" cy="753.711" r="4" fill="#0" id="circle90"/>
	<circle cx="32.5526" cy="761.868" r="4" fill="#0" id="circle91"/>
	<circle cx="32.5526" cy="770.026" r="4" fill="#0" id="circle92"/>
	<circle cx="32.5526" cy="778.184" r="4" fill="#0" id="circle93"/>
	<circle cx="32.5526" cy="786.342" r="4" fill="#0" id="circle94"/>
	<circle cx="32.5526" cy="794.5" r="4" fill="#0" id="circle95"/>
	<circle cx="32.5526" cy="802.658" r="4" fill="#0" id="circle96"/>
	<circle cx="32.5526" cy="810.816" r="4" fill="#0" id="circle97"/>
	<circle cx="35" cy="996" r="4" fill="#0" id="circle98"/>
	<circle cx="36.6316" cy="169.605" r="4" fill="#0" id="circle99"/>
	<circle cx="36.6316" cy="177.763" r="4" fill="#0" id="circle100"/>
	<circle cx="40.7105" cy="149.211" r="4" fill="#0" id="circle101"/>
	<circle cx="40.7105" cy="157.368" r="4" fill="#0" id="circle102"/>
	<circle cx="43.1579" cy="996" r="4" fill="#0" id="circle103"/>
	<circle cx="44.7895" cy="132.895" r="4" fill="#0" id="circle104"/>
	<circle cx="44.7895" cy="141.053" r="4" fill="#0" id="circle105"/>
	<circle cx="48.8684" cy="112.5" r="4" fill="#0" id="circle106"/>
	<circle cx="48.8684" cy="120.658" r="4" fill="#0" id="circle107"/>
	<circle cx="51.3158" cy="996" r="4" fill="#0" id="circle108"/>
	<circle cx="52.9474" cy="96.1842" r="4" fill="#0" id="circle109"/>
	<circle cx="52.9474" cy="104.342" r="4" fill="#0" id="circle110"/>
	<circle cx="57.0263" cy="75.7895" r="4" fill="#0" id="circle111"/>
	<circle cx="57.0263" cy="83.9474" r="4" fill="#0" id="circle112"/>
	<circle cx="58.6579" cy="991.921" r="4" fill="#0" id="circle113"/>
	<circle cx="61.1053" cy="59.4737" r="4" fill="#0" id="circle114"/>
	<circle cx="61.1053" cy="67.6316" r="4" fill="#0" id="circle115"/>
	<circle cx="65.1842" cy="43.1579" r="4" fill="#0" id="circle116"/>
	<circle cx="65.1842" cy="51.3158" r="4" fill="#0" id="circle117"/>
	<circle cx="66.8158" cy="991.921" r="4" fill="#0" id="circle118"/>
	<circle cx="69.2632" cy="35" r="4" fill="#0" id="circle119"/>
	<circle cx="74.1579" cy="987.842" r="4" fill="#0" id="circle120"/>
	<circle cx="75.7895" cy="28.4737" r="4" fill="#0" id="circle121"/>
	<circle cx="81.5" cy="983.763" r="4" fill="#0" id="circle122"/>
	<circle cx="82.3158" cy="21.9474" r="4" fill="#0" id="circle123"/>
	<circle cx="88.8421" cy="16.2368" r="4" fill="#0" id="circle124"/>
	<circle cx="88.8421" cy="979.684" r="4" fill="#0" id="circle125"/>
	<circle cx="90.4737" cy="367.842" r="4" fill="#0" id="circle126"/>
	<circle cx="90.4737" cy="376" r="4" fill="#0" id="circle127"/>
	<circle cx="90.4737" cy="384.158" r="4" fill="#0" id="circle128"/>
	<circle cx="90.4737" cy="392.316" r="4" fill="#0" id="circle129"/>
	<circle cx="90.4737" cy="400.474" r="4" fill="#0" id="circle130"/>
	<circle cx="90.4737" cy="408.632" r="4" fill="#0" id="circle131"/>
	<circle cx="90.4737" cy="416.789" r="4" fill="#0" id="circle132"/>
	<circle cx="90.4737" cy="424.947" r="4" fill="#0" id="circle133"/>
	<circle cx="90.4737" cy="433.105" r="4" fill="#0" id="circle134"/>
	<circle cx="90.4737" cy="441.263" r="4" fill="#0" id="circle135"/>
	<circle cx="90.4737" cy="449.421" r="4" fill="#0" id="circle136"/>
	<circle cx="90.4737" cy="457.579" r="4" fill="#0" id="circle137"/>
	<circle cx="90.4737" cy="465.737" r="4" fill="#0" id="circle138"/>
	<circle cx="90.4737" cy="473.895" r="4" fill="#0" id="circle139"/>
	<circle cx="90.4737" cy="482.053" r="4" fill="#0" id="circle140"/>
	<circle cx="90.4737" cy="490.211" r="4" fill="#0" id="circle141"/>
	<circle cx="90.4737" cy="498.368" r="4" fill="#0" id="circle142"/>
	<circle cx="90.4737" cy="506.526" r="4" fill="#0" id="circle143"/>
	<circle cx="94.5526" cy="9.71053" r="4" fill="#0" id="circle144"/>
	<circle cx="94.5526" cy="331.132" r="4" fill="#0" id="circle145"/>
	<circle cx="94.5526" cy="339.289" r="4" fill="#0" id="circle146"/>
	<circle cx="94.5526" cy="347.447" r="4" fill="#0" id="circle147"/>
	<circle cx="94.5526" cy="355.605" r="4" fill="#0" id="circle148"/>
	<circle cx="94.5526" cy="513.868" r="4" fill="#0" id="circle149"/>
	<circle cx="94.5526" cy="522.026" r="4" fill="#0" id="circle150"/>
	<circle cx="94.5526" cy="530.184" r="4" fill="#0" id="circle151"/>
	<circle cx="94.5526" cy="538.342" r="4" fill="#0" id="circle152"/>
	<circle cx="94.5526" cy="546.5" r="4" fill="#0" id="circle153"/>
	<circle cx="96.1842" cy="975.605" r="4" fill="#0" id="circle154"/>
	<circle cx="98.6316" cy="290.342" r="4" fill="#0" id="circle155"/>
	<circle cx="98.6316" cy="298.5" r="4" fill="#0" id="circle156"/>
	<circle cx="98.6316" cy="306.658" r="4" fill="#0" id="circle157"/>
	<circle cx="98.6316" cy="314.816" r="4" fill="#0" id="circle158"/>
	<circle cx="98.6316" cy="322.974" r="4" fill="#0" id="circle159"/>
	<circle cx="98.6316" cy="553.842" r="4" fill="#0" id="circle160"/>
	<circle cx="98.6316" cy="562" r="4" fill="#0" id="circle161"/>
	<circle cx="98.6316" cy="570.158" r="4" fill="#0" id="circle162"/>
	<circle cx="98.6316" cy="578.316" r="4" fill="#0" id="circle163"/>
	<circle cx="102.711" cy="5.63158" r="4" fill="#0" id="circle164"/>
	<circle cx="102.711" cy="253.632" r="4" fill="#0" id="circle165"/>
	<circle cx="102.711" cy="261.789" r="4" fill="#0" id="circle166"/>
	<circle cx="102.711" cy="269.947" r="4" fill="#0" id="circle167"/>
	<circle cx="102.711" cy="278.105" r="4" fill="#0" id="circle168"/>
	<circle cx="103.526" cy="971.526" r="4" fill="#0" id="circle169"/>
	<circle cx="105.158" cy="584.026" r="4" fill="#0" id="circle170"/>
	<circle cx="106.789" cy="216.921" r="4" fill="#0" id="circle171"/>
	<circle cx="106.789" cy="225.079" r="4" fill="#0" id="circle172"/>
	<circle cx="106.789" cy="233.237" r="4" fill="#0" id="circle173"/>
	<circle cx="106.789" cy="241.395" r="4" fill="#0" id="circle174"/>
	<circle cx="110.868" cy="4" r="4" fill="#0" id="circle175"/>
	<circle cx="110.868" cy="196.526" r="4" fill="#0" id="circle176"/>
	<circle cx="110.868" cy="204.684" r="4" fill="#0" id="circle177"/>
	<circle cx="110.868" cy="590.553" r="4" fill="#0" id="circle178"/>
	<circle cx="110.868" cy="967.447" r="4" fill="#0" id="circle179"/>
	<circle cx="114.947" cy="176.132" r="4" fill="#0" id="circle180"/>
	<circle cx="114.947" cy="184.289" r="4" fill="#0" id="circle181"/>
	<circle cx="117.395" cy="596.263" r="4" fill="#0" id="circle182"/>
	<circle cx="117.395" cy="961.737" r="4" fill="#0" id="circle183"/>
	<circle cx="119.026" cy="4" r="4" fill="#0" id="circle184"/>
	<circle cx="119.026" cy="159.816" r="4" fill="#0" id="circle185"/>
	<circle cx="119.026" cy="167.974" r="4" fill="#0" id="circle186"/>
	<circle cx="123.105" cy="139.421" r="4" fill="#0" id="circle187"/>
	<circle cx="123.105" cy="147.579" r="4" fill="#0" id="circle188"/>
	<circle cx="123.105" cy="602.789" r="4" fill="#0" id="circle189"/>
	<circle cx="125.553" cy="957.658" r="4" fill="#0" id="circle190"/>
	<circle cx="127.184" cy="4" r="4" fill="#0" id="circle191"/>
	<circle cx="127.184" cy="123.105" r="4" fill="#0" id="circle192"/>
	<circle cx="127.184" cy="131.263" r="4" fill="#0" id="circle193"/>
	<circle cx="129.632" cy="608.5" r="4" fill="#0" id="circle194"/>
	<circle cx="131.263" cy="102.711" r="4" fill="#0" id="circle195"/>
	<circle cx="131.263" cy="110.868" r="4" fill="#0" id="circle196"/>
	<circle cx="131.263" cy="951.132" r="4" fill="#0" id="circle197"/>
	<circle cx="132.895" cy="616.658" r="4" fill="#0" id="circle198"/>
	<circle cx="134.526" cy="8.07895" r="4" fill="#0" id="circle199"/>
	<circle cx="135.342" cy="86.3947" r="4" fill="#0" id="circle200"/>
	<circle cx="135.342" cy="94.5526" r="4" fill="#0" id="circle201"/>
	<circle cx="137.789" cy="945.421" r="4" fill="#0" id="circle202"/>
	<circle cx="139.421" cy="74.1579" r="4" fill="#0" id="circle203"/>
	<circle cx="139.421" cy="622.368" r="4" fill="#0" id="circle204"/>
	<circle cx="141.053" cy="12.9737" r="4" fill="#0" id="circle205"/>
	<circle cx="143.5" cy="938.895" r="4" fill="#0" id="circle206"/>
	<circle cx="145.132" cy="628.895" r="4" fill="#0" id="circle207"/>
	<circle cx="145.947" cy="68.4474" r="4" fill="#0" id="circle208"/>
	<circle cx="147.579" cy="18.6842" r="4" fill="#0" id="circle209"/>
	<circle cx="150.026" cy="933.184" r="4" fill="#0" id="circle210"/>
	<circle cx="151.658" cy="26.0263" r="4" fill="#0" id="circle211"/>
	<circle cx="151.658" cy="57.8421" r="4" fill="#0" id="circle212"/>
	<circle cx="151.658" cy="634.605" r="4" fill="#0" id="circle213"/>
	<circle cx="154.105" cy="925.026" r="4" fill="#0" id="circle214"/>
	<circle cx="155.737" cy="33.3684" r="4" fill="#0" id="circle215"/>
	<circle cx="155.737" cy="41.5263" r="4" fill="#0" id="circle216"/>
	<circle cx="155.737" cy="49.6842" r="4" fill="#0" id="circle217"/>
	<circle cx="155.737" cy="641.947" r="4" fill="#0" id="circle218"/>
	<circle cx="159.816" cy="649.289" r="4" fill="#0" id="circle219"/>
	<circle cx="159.816" cy="918.5" r="4" fill="#0" id="circle220"/>
	<circle cx="163.895" cy="656.632" r="4" fill="#0" id="circle221"/>
	<circle cx="163.895" cy="910.342" r="4" fill="#0" id="circle222"/>
	<circle cx="167.974" cy="663.974" r="4" fill="#0" id="circle223"/>
	<circle cx="167.974" cy="672.132" r="4" fill="#0" id="circle224"/>
	<circle cx="170.421" cy="904.632" r="4" fill="#0" id="circle225"/>
	<circle cx="172.053" cy="679.474" r="4" fill="#0" id="circle226"/>
	<circle cx="176.132" cy="686.816" r="4" fill="#0" id="circle227"/>
	<circle cx="176.132" cy="694.974" r="4" fill="#0" id="circle228"/>
	<circle cx="176.132" cy="894.026" r="4" fill="#0" id="circle229"/>
	<circle cx="180.211" cy="702.316" r="4" fill="#0" id="circle230"/>
	<circle cx="180.211" cy="710.474" r="4" fill="#0" id="circle231"/>
	<circle cx="180.211" cy="877.711" r="4" fill="#0" id="circle232"/>
	<circle cx="180.211" cy="885.868" r="4" fill="#0" id="circle233"/>
	<circle cx="181.842" cy="718.632" r="4" fill="#0" id="circle234"/>
	<circle cx="184.289" cy="726.789" r="4" fill="#0" id="circle235"/>
	<circle cx="184.289" cy="857.316" r="4" fill="#0" id="circle236"/>
	<circle cx="184.289" cy="865.474" r="4" fill="#0" id="circle237"/>
	<circle cx="185.921" cy="734.947" r="4" fill="#0" id="circle238"/>
	<circle cx="188.368" cy="743.105" r="4" fill="#0" id="circle239"/>
	<circle cx="188.368" cy="751.263" r="4" fill="#0" id="circle240"/>
	<circle cx="188.368" cy="841" r="4" fill="#0" id="circle241"/>
	<circle cx="188.368" cy="849.158" r="4" fill="#0" id="circle242"/>
	<circle cx="192.447" cy="758.605" r="4" fill="#0" id="circle243"/>
	<circle cx="192.447" cy="766.763" r="4" fill="#0" id="circle244"/>
	<circle cx="192.447" cy="774.921" r="4" fill="#0" id="circle245"/>
	<circle cx="192.447" cy="783.079" r="4" fill="#0" id="circle246"/>
	<circle cx="192.447" cy="791.237" r="4" fill="#0" id="circle247"/>
	<circle cx="192.447" cy="799.395" r="4" fill="#0" id="circle248"/>
	<circle cx="192.447" cy="807.553" r="4" fill="#0" id="circle249"/>
	<circle cx="192.447" cy="815.711" r="4" fill="#0" id="circle250"/>
	<circle cx="192.447" cy="823.868" r="4" fill="#0" id="circle251"/>
	<circle cx="192.447" cy="832.026" r="4" fill="#0" id="circle252"/>
	</g>
</svg>