<?xml version="1.0" encoding="UTF-8" standalone="no"?>
<!-- Created with CurveBenchmark -->
<svg
	xmlns:dc="http://purl.org/dc/elements/1.1/"
	xmlns:cc="http://creativecommons.org/ns#"
	xmlns:rdf="http://www.w3.org/1999/02/22-rdf-syntax-ns#"
	xmlns:svg="http://www.w3.org/2000/svg"
	xmlns="http://www.w3.org/2000/svg"
	xmlns:sodipodi="http://sodipodi.sourceforge.net/DTD/sodipodi-0.dtd"
	xmlns:inkscape="http://www.inkscape.org/namespaces/inkscape"
	width="1000"
	height="1000"
	id="svg2"
	version="1.1"
	sodipodi:docname="manifold/crust-key10.png.txt">
<defs
	id="defs4" />
<metadata
	id="metadata7">
	<rdf:RDF>
		<cc:Work
			rdf:about="">
			<dc:format>image/svg+xml</dc:format>
			<dc:type
				rdf:resource="http://purl.org/dc/dcmitype/StillImage" />
			<dc:title></dc:title>
		</cc:Work>
	</rdf:RDF>
</metadata>
<g
	inkscape:label="Layer 1"
	inkscape:groupmode="layer"
	id="layer1">
	<path style="fill:none;stroke:red;stroke-width:1px;stroke-linecap:butt;stroke-linejoin:miter;stroke-opacity:1" d="M 72.5451,45.8887 57.3129,61.1209 z" id="boundary" inkscape:connector-curvature="0" />
	<path style="fill:none;stroke:red;stroke-width:1px;stroke-linecap:butt;stroke-linejoin:miter;stroke-opacity:1" d="M 91.5854,42.0806 72.5451,45.8887 z" id="boundary" inkscape:connector-curvature="0" />
	<path style="fill:none;stroke:red;stroke-width:1px;stroke-linecap:butt;stroke-linejoin:miter;stroke-opacity:1" d="M 57.3129,61.1209 38.2726,70.6411 z" id="boundary" inkscape:connector-curvature="0" />
	<path style="fill:none;stroke:red;stroke-width:1px;stroke-linecap:butt;stroke-linejoin:miter;stroke-opacity:1" d="M 23.0403,85.8733 23.0403,104.914 z" id="boundary" inkscape:connector-curvature="0" />
	<path style="fill:none;stroke:red;stroke-width:1px;stroke-linecap:butt;stroke-linejoin:miter;stroke-opacity:1" d="M 23.0403,104.914 4,114.434 z" id="boundary" inkscape:connector-curvature="0" />
	<path style="fill:none;stroke:red;stroke-width:1px;stroke-linecap:butt;stroke-linejoin:miter;stroke-opacity:1" d="M 23.0403,85.8733 38.2726,70.6411 z" id="boundary" inkscape:connector-curvature="0" />
	<path style="fill:none;stroke:red;stroke-width:1px;stroke-linecap:butt;stroke-linejoin:miter;stroke-opacity:1" d="M 148.706,23.0403 129.666,26.8484 z" id="boundary" inkscape:connector-curvature="0" />
	<path style="fill:none;stroke:red;stroke-width:1px;stroke-linecap:butt;stroke-linejoin:miter;stroke-opacity:1" d="M 203.923,4 184.883,9.71209 z" id="boundary" inkscape:connector-curvature="0" />
	<path style="fill:none;stroke:red;stroke-width:1px;stroke-linecap:butt;stroke-linejoin:miter;stroke-opacity:1" d="M 184.883,9.71209 167.747,23.0403 z" id="boundary" inkscape:connector-curvature="0" />
	<path style="fill:none;stroke:red;stroke-width:1px;stroke-linecap:butt;stroke-linejoin:miter;stroke-opacity:1" d="M 167.747,23.0403 148.706,23.0403 z" id="boundary" inkscape:connector-curvature="0" />
	<path style="fill:none;stroke:red;stroke-width:1px;stroke-linecap:butt;stroke-linejoin:miter;stroke-opacity:1" d="M 222.964,4 203.923,4 z" id="boundary" inkscape:connector-curvature="0" />
	<path style="fill:none;stroke:red;stroke-width:1px;stroke-linecap:butt;stroke-linejoin:miter;stroke-opacity:1" d="M 91.5854,42.0806 110.626,36.3685 z" id="boundary" inkscape:connector-curvature="0" />
	<path style="fill:none;stroke:red;stroke-width:1px;stroke-linecap:butt;stroke-linejoin:miter;stroke-opacity:1" d="M 110.626,36.3685 129.666,26.8484 z" id="boundary" inkscape:connector-curvature="0" />
	<path style="fill:none;stroke:red;stroke-width:1px;stroke-linecap:butt;stroke-linejoin:miter;stroke-opacity:1" d="M 4,114.434 4,133.474 z" id="boundary" inkscape:connector-curvature="0" />
	<path style="fill:none;stroke:red;stroke-width:1px;stroke-linecap:butt;stroke-linejoin:miter;stroke-opacity:1" d="M 4,152.514 4,133.474 z" id="boundary" inkscape:connector-curvature="0" />
	<path style="fill:none;stroke:red;stroke-width:1px;stroke-linecap:butt;stroke-linejoin:miter;stroke-opacity:1" d="M 4,171.555 4,152.514 z" id="boundary" inkscape:connector-curvature="0" />
	<path style="fill:none;stroke:red;stroke-width:1px;stroke-linecap:butt;stroke-linejoin:miter;stroke-opacity:1" d="M 4,171.555 4,190.595 z" id="boundary" inkscape:connector-curvature="0" />
	<path style="fill:none;stroke:red;stroke-width:1px;stroke-linecap:butt;stroke-linejoin:miter;stroke-opacity:1" d="M 4,209.635 4,190.595 z" id="boundary" inkscape:connector-curvature="0" />
	<path style="fill:none;stroke:red;stroke-width:1px;stroke-linecap:butt;stroke-linejoin:miter;stroke-opacity:1" d="M 4,247.716 4,228.676 z" id="boundary" inkscape:connector-curvature="0" />
	<path style="fill:none;stroke:red;stroke-width:1px;stroke-linecap:butt;stroke-linejoin:miter;stroke-opacity:1" d="M 4,228.676 4,209.635 z" id="boundary" inkscape:connector-curvature="0" />
	<path style="fill:none;stroke:red;stroke-width:1px;stroke-linecap:butt;stroke-linejoin:miter;stroke-opacity:1" d="M 222.964,4 242.004,4 z" id="boundary" inkscape:connector-curvature="0" />
	<path style="fill:none;stroke:red;stroke-width:1px;stroke-linecap:butt;stroke-linejoin:miter;stroke-opacity:1" d="M 261.044,4 280.084,4 z" id="boundary" inkscape:connector-curvature="0" />
	<path style="fill:none;stroke:red;stroke-width:1px;stroke-linecap:butt;stroke-linejoin:miter;stroke-opacity:1" d="M 280.084,4 299.125,4 z" id="boundary" inkscape:connector-curvature="0" />
	<path style="fill:none;stroke:red;stroke-width:1px;stroke-linecap:butt;stroke-linejoin:miter;stroke-opacity:1" d="M 242.004,4 261.044,4 z" id="boundary" inkscape:connector-curvature="0" />
	<path style="fill:none;stroke:red;stroke-width:1px;stroke-linecap:butt;stroke-linejoin:miter;stroke-opacity:1" d="M 314.357,15.4242 329.589,28.7524 z" id="boundary" inkscape:connector-curvature="0" />
	<path style="fill:none;stroke:red;stroke-width:1px;stroke-linecap:butt;stroke-linejoin:miter;stroke-opacity:1" d="M 314.357,15.4242 299.125,4 z" id="boundary" inkscape:connector-curvature="0" />
	<path style="fill:none;stroke:red;stroke-width:1px;stroke-linecap:butt;stroke-linejoin:miter;stroke-opacity:1" d="M 342.917,43.9846 329.589,28.7524 z" id="boundary" inkscape:connector-curvature="0" />
	<path style="fill:none;stroke:red;stroke-width:1px;stroke-linecap:butt;stroke-linejoin:miter;stroke-opacity:1" d="M 358.15,57.3129 358.15,82.0653 z" id="boundary" inkscape:connector-curvature="0" />
	<path style="fill:none;stroke:red;stroke-width:1px;stroke-linecap:butt;stroke-linejoin:miter;stroke-opacity:1" d="M 342.917,43.9846 358.15,57.3129 z" id="boundary" inkscape:connector-curvature="0" />
	<path style="fill:none;stroke:red;stroke-width:1px;stroke-linecap:butt;stroke-linejoin:miter;stroke-opacity:1" d="M 367.67,99.2015 358.15,82.0653 z" id="boundary" inkscape:connector-curvature="0" />
	<path style="fill:none;stroke:red;stroke-width:1px;stroke-linecap:butt;stroke-linejoin:miter;stroke-opacity:1" d="M 367.67,99.2015 377.19,116.338 z" id="boundary" inkscape:connector-curvature="0" />
	<path style="fill:none;stroke:red;stroke-width:1px;stroke-linecap:butt;stroke-linejoin:miter;stroke-opacity:1" d="M 377.19,116.338 377.19,135.378 z" id="boundary" inkscape:connector-curvature="0" />
	<path style="fill:none;stroke:red;stroke-width:1px;stroke-linecap:butt;stroke-linejoin:miter;stroke-opacity:1" d="M 377.19,135.378 386.71,152.514 z" id="boundary" inkscape:connector-curvature="0" />
	<path style="fill:none;stroke:red;stroke-width:1px;stroke-linecap:butt;stroke-linejoin:miter;stroke-opacity:1" d="M 394.326,171.555 386.71,152.514 z" id="boundary" inkscape:connector-curvature="0" />
	<path style="fill:none;stroke:red;stroke-width:1px;stroke-linecap:butt;stroke-linejoin:miter;stroke-opacity:1" d="M 413.367,175.363 394.326,171.555 z" id="boundary" inkscape:connector-curvature="0" />
	<path style="fill:none;stroke:red;stroke-width:1px;stroke-linecap:butt;stroke-linejoin:miter;stroke-opacity:1" d="M 432.407,175.363 413.367,175.363 z" id="boundary" inkscape:connector-curvature="0" />
	<path style="fill:none;stroke:red;stroke-width:1px;stroke-linecap:butt;stroke-linejoin:miter;stroke-opacity:1" d="M 432.407,175.363 451.447,175.363 z" id="boundary" inkscape:connector-curvature="0" />
	<path style="fill:none;stroke:red;stroke-width:1px;stroke-linecap:butt;stroke-linejoin:miter;stroke-opacity:1" d="M 451.447,175.363 470.488,175.363 z" id="boundary" inkscape:connector-curvature="0" />
	<path style="fill:none;stroke:red;stroke-width:1px;stroke-linecap:butt;stroke-linejoin:miter;stroke-opacity:1" d="M 4,266.756 4,285.797 z" id="boundary" inkscape:connector-curvature="0" />
	<path style="fill:none;stroke:red;stroke-width:1px;stroke-linecap:butt;stroke-linejoin:miter;stroke-opacity:1" d="M 4,323.877 4,304.837 z" id="boundary" inkscape:connector-curvature="0" />
	<path style="fill:none;stroke:red;stroke-width:1px;stroke-linecap:butt;stroke-linejoin:miter;stroke-opacity:1" d="M 4,304.837 4,285.797 z" id="boundary" inkscape:connector-curvature="0" />
	<path style="fill:none;stroke:red;stroke-width:1px;stroke-linecap:butt;stroke-linejoin:miter;stroke-opacity:1" d="M 4,342.917 4,323.877 z" id="boundary" inkscape:connector-curvature="0" />
	<path style="fill:none;stroke:red;stroke-width:1px;stroke-linecap:butt;stroke-linejoin:miter;stroke-opacity:1" d="M 4,342.917 15.4242,358.15 z" id="boundary" inkscape:connector-curvature="0" />
	<path style="fill:none;stroke:red;stroke-width:1px;stroke-linecap:butt;stroke-linejoin:miter;stroke-opacity:1" d="M 15.4242,358.15 23.0403,377.19 z" id="boundary" inkscape:connector-curvature="0" />
	<path style="fill:none;stroke:red;stroke-width:1px;stroke-linecap:butt;stroke-linejoin:miter;stroke-opacity:1" d="M 28.7524,396.23 23.0403,377.19 z" id="boundary" inkscape:connector-curvature="0" />
	<path style="fill:none;stroke:red;stroke-width:1px;stroke-linecap:butt;stroke-linejoin:miter;stroke-opacity:1" d="M 28.7524,396.23 32.5605,415.271 z" id="boundary" inkscape:connector-curvature="0" />
	<path style="fill:none;stroke:red;stroke-width:1px;stroke-linecap:butt;stroke-linejoin:miter;stroke-opacity:1" d="M 4,266.756 4,247.716 z" id="boundary" inkscape:connector-curvature="0" />
	<path style="fill:none;stroke:red;stroke-width:1px;stroke-linecap:butt;stroke-linejoin:miter;stroke-opacity:1" d="M 66.833,434.311 49.6967,424.791 z" id="boundary" inkscape:connector-curvature="0" />
	<path style="fill:none;stroke:red;stroke-width:1px;stroke-linecap:butt;stroke-linejoin:miter;stroke-opacity:1" d="M 49.6967,424.791 32.5605,415.271 z" id="boundary" inkscape:connector-curvature="0" />
	<path style="fill:none;stroke:red;stroke-width:1px;stroke-linecap:butt;stroke-linejoin:miter;stroke-opacity:1" d="M 66.833,434.311 83.9693,443.831 z" id="boundary" inkscape:connector-curvature="0" />
	<path style="fill:none;stroke:red;stroke-width:1px;stroke-linecap:butt;stroke-linejoin:miter;stroke-opacity:1" d="M 118.242,462.871 99.2015,455.255 z" id="boundary" inkscape:connector-curvature="0" />
	<path style="fill:none;stroke:red;stroke-width:1px;stroke-linecap:butt;stroke-linejoin:miter;stroke-opacity:1" d="M 99.2015,455.255 83.9693,443.831 z" id="boundary" inkscape:connector-curvature="0" />
	<path style="fill:none;stroke:red;stroke-width:1px;stroke-linecap:butt;stroke-linejoin:miter;stroke-opacity:1" d="M 118.242,462.871 135.378,472.392 z" id="boundary" inkscape:connector-curvature="0" />
	<path style="fill:none;stroke:red;stroke-width:1px;stroke-linecap:butt;stroke-linejoin:miter;stroke-opacity:1" d="M 152.514,481.912 135.378,472.392 z" id="boundary" inkscape:connector-curvature="0" />
	<path style="fill:none;stroke:red;stroke-width:1px;stroke-linecap:butt;stroke-linejoin:miter;stroke-opacity:1" d="M 171.555,481.912 152.514,481.912 z" id="boundary" inkscape:connector-curvature="0" />
	<path style="fill:none;stroke:red;stroke-width:1px;stroke-linecap:butt;stroke-linejoin:miter;stroke-opacity:1" d="M 190.595,481.912 207.731,491.432 z" id="boundary" inkscape:connector-curvature="0" />
	<path style="fill:none;stroke:red;stroke-width:1px;stroke-linecap:butt;stroke-linejoin:miter;stroke-opacity:1" d="M 171.555,481.912 190.595,481.912 z" id="boundary" inkscape:connector-curvature="0" />
	<path style="fill:none;stroke:red;stroke-width:1px;stroke-linecap:butt;stroke-linejoin:miter;stroke-opacity:1" d="M 207.731,491.432 226.772,497.144 z" id="boundary" inkscape:connector-curvature="0" />
	<path style="fill:none;stroke:red;stroke-width:1px;stroke-linecap:butt;stroke-linejoin:miter;stroke-opacity:1" d="M 386.71,386.71 386.71,405.75 z" id="boundary" inkscape:connector-curvature="0" />
	<path style="fill:none;stroke:red;stroke-width:1px;stroke-linecap:butt;stroke-linejoin:miter;stroke-opacity:1" d="M 401.942,373.382 386.71,386.71 z" id="boundary" inkscape:connector-curvature="0" />
	<path style="fill:none;stroke:red;stroke-width:1px;stroke-linecap:butt;stroke-linejoin:miter;stroke-opacity:1" d="M 415.271,358.15 401.942,373.382 z" id="boundary" inkscape:connector-curvature="0" />
	<path style="fill:none;stroke:red;stroke-width:1px;stroke-linecap:butt;stroke-linejoin:miter;stroke-opacity:1" d="M 434.311,358.15 453.351,348.63 z" id="boundary" inkscape:connector-curvature="0" />
	<path style="fill:none;stroke:red;stroke-width:1px;stroke-linecap:butt;stroke-linejoin:miter;stroke-opacity:1" d="M 415.271,358.15 434.311,358.15 z" id="boundary" inkscape:connector-curvature="0" />
	<path style="fill:none;stroke:red;stroke-width:1px;stroke-linecap:butt;stroke-linejoin:miter;stroke-opacity:1" d="M 470.488,339.109 453.351,348.63 z" id="boundary" inkscape:connector-curvature="0" />
	<path style="fill:none;stroke:red;stroke-width:1px;stroke-linecap:butt;stroke-linejoin:miter;stroke-opacity:1" d="M 245.812,500.952 226.772,497.144 z" id="boundary" inkscape:connector-curvature="0" />
	<path style="fill:none;stroke:red;stroke-width:1px;stroke-linecap:butt;stroke-linejoin:miter;stroke-opacity:1" d="M 264.852,500.952 245.812,500.952 z" id="boundary" inkscape:connector-curvature="0" />
	<path style="fill:none;stroke:red;stroke-width:1px;stroke-linecap:butt;stroke-linejoin:miter;stroke-opacity:1" d="M 281.988,491.432 264.852,500.952 z" id="boundary" inkscape:connector-curvature="0" />
	<path style="fill:none;stroke:red;stroke-width:1px;stroke-linecap:butt;stroke-linejoin:miter;stroke-opacity:1" d="M 301.029,491.432 281.988,491.432 z" id="boundary" inkscape:connector-curvature="0" />
	<path style="fill:none;stroke:red;stroke-width:1px;stroke-linecap:butt;stroke-linejoin:miter;stroke-opacity:1" d="M 363.862,440.023 348.63,453.351 z" id="boundary" inkscape:connector-curvature="0" />
	<path style="fill:none;stroke:red;stroke-width:1px;stroke-linecap:butt;stroke-linejoin:miter;stroke-opacity:1" d="M 348.63,453.351 333.397,470.488 z" id="boundary" inkscape:connector-curvature="0" />
	<path style="fill:none;stroke:red;stroke-width:1px;stroke-linecap:butt;stroke-linejoin:miter;stroke-opacity:1" d="M 373.382,420.983 386.71,405.75 z" id="boundary" inkscape:connector-curvature="0" />
	<path style="fill:none;stroke:red;stroke-width:1px;stroke-linecap:butt;stroke-linejoin:miter;stroke-opacity:1" d="M 373.382,420.983 363.862,440.023 z" id="boundary" inkscape:connector-curvature="0" />
	<path style="fill:none;stroke:red;stroke-width:1px;stroke-linecap:butt;stroke-linejoin:miter;stroke-opacity:1" d="M 301.029,491.432 318.165,481.912 z" id="boundary" inkscape:connector-curvature="0" />
	<path style="fill:none;stroke:red;stroke-width:1px;stroke-linecap:butt;stroke-linejoin:miter;stroke-opacity:1" d="M 318.165,481.912 333.397,470.488 z" id="boundary" inkscape:connector-curvature="0" />
	<path style="fill:none;stroke:red;stroke-width:1px;stroke-linecap:butt;stroke-linejoin:miter;stroke-opacity:1" d="M 489.528,175.363 470.488,175.363 z" id="boundary" inkscape:connector-curvature="0" />
	<path style="fill:none;stroke:red;stroke-width:1px;stroke-linecap:butt;stroke-linejoin:miter;stroke-opacity:1" d="M 508.568,175.363 489.528,175.363 z" id="boundary" inkscape:connector-curvature="0" />
	<path style="fill:none;stroke:red;stroke-width:1px;stroke-linecap:butt;stroke-linejoin:miter;stroke-opacity:1" d="M 527.608,175.363 508.568,175.363 z" id="boundary" inkscape:connector-curvature="0" />
	<path style="fill:none;stroke:red;stroke-width:1px;stroke-linecap:butt;stroke-linejoin:miter;stroke-opacity:1" d="M 775.132,175.363 756.092,175.363 z" id="boundary" inkscape:connector-curvature="0" />
	<path style="fill:none;stroke:red;stroke-width:1px;stroke-linecap:butt;stroke-linejoin:miter;stroke-opacity:1" d="M 527.608,175.363 546.649,175.363 z" id="boundary" inkscape:connector-curvature="0" />
	<path style="fill:none;stroke:red;stroke-width:1px;stroke-linecap:butt;stroke-linejoin:miter;stroke-opacity:1" d="M 565.689,175.363 584.729,175.363 z" id="boundary" inkscape:connector-curvature="0" />
	<path style="fill:none;stroke:red;stroke-width:1px;stroke-linecap:butt;stroke-linejoin:miter;stroke-opacity:1" d="M 603.77,175.363 584.729,175.363 z" id="boundary" inkscape:connector-curvature="0" />
	<path style="fill:none;stroke:red;stroke-width:1px;stroke-linecap:butt;stroke-linejoin:miter;stroke-opacity:1" d="M 565.689,175.363 546.649,175.363 z" id="boundary" inkscape:connector-curvature="0" />
	<path style="fill:none;stroke:red;stroke-width:1px;stroke-linecap:butt;stroke-linejoin:miter;stroke-opacity:1" d="M 622.81,175.363 641.85,175.363 z" id="boundary" inkscape:connector-curvature="0" />
	<path style="fill:none;stroke:red;stroke-width:1px;stroke-linecap:butt;stroke-linejoin:miter;stroke-opacity:1" d="M 603.77,175.363 622.81,175.363 z" id="boundary" inkscape:connector-curvature="0" />
	<path style="fill:none;stroke:red;stroke-width:1px;stroke-linecap:butt;stroke-linejoin:miter;stroke-opacity:1" d="M 641.85,175.363 660.891,175.363 z" id="boundary" inkscape:connector-curvature="0" />
	<path style="fill:none;stroke:red;stroke-width:1px;stroke-linecap:butt;stroke-linejoin:miter;stroke-opacity:1" d="M 660.891,175.363 679.931,175.363 z" id="boundary" inkscape:connector-curvature="0" />
	<path style="fill:none;stroke:red;stroke-width:1px;stroke-linecap:butt;stroke-linejoin:miter;stroke-opacity:1" d="M 679.931,175.363 698.971,175.363 z" id="boundary" inkscape:connector-curvature="0" />
	<path style="fill:none;stroke:red;stroke-width:1px;stroke-linecap:butt;stroke-linejoin:miter;stroke-opacity:1" d="M 698.971,175.363 718.012,175.363 z" id="boundary" inkscape:connector-curvature="0" />
	<path style="fill:none;stroke:red;stroke-width:1px;stroke-linecap:butt;stroke-linejoin:miter;stroke-opacity:1" d="M 737.052,175.363 718.012,175.363 z" id="boundary" inkscape:connector-curvature="0" />
	<path style="fill:none;stroke:red;stroke-width:1px;stroke-linecap:butt;stroke-linejoin:miter;stroke-opacity:1" d="M 756.092,175.363 737.052,175.363 z" id="boundary" inkscape:connector-curvature="0" />
	<path style="fill:none;stroke:red;stroke-width:1px;stroke-linecap:butt;stroke-linejoin:miter;stroke-opacity:1" d="M 794.173,175.363 775.132,175.363 z" id="boundary" inkscape:connector-curvature="0" />
	<path style="fill:none;stroke:red;stroke-width:1px;stroke-linecap:butt;stroke-linejoin:miter;stroke-opacity:1" d="M 813.213,175.363 794.173,175.363 z" id="boundary" inkscape:connector-curvature="0" />
	<path style="fill:none;stroke:red;stroke-width:1px;stroke-linecap:butt;stroke-linejoin:miter;stroke-opacity:1" d="M 813.213,175.363 832.253,175.363 z" id="boundary" inkscape:connector-curvature="0" />
	<path style="fill:none;stroke:red;stroke-width:1px;stroke-linecap:butt;stroke-linejoin:miter;stroke-opacity:1" d="M 851.294,175.363 832.253,175.363 z" id="boundary" inkscape:connector-curvature="0" />
	<path style="fill:none;stroke:red;stroke-width:1px;stroke-linecap:butt;stroke-linejoin:miter;stroke-opacity:1" d="M 870.334,175.363 851.294,175.363 z" id="boundary" inkscape:connector-curvature="0" />
	<path style="fill:none;stroke:red;stroke-width:1px;stroke-linecap:butt;stroke-linejoin:miter;stroke-opacity:1" d="M 870.334,175.363 889.374,175.363 z" id="boundary" inkscape:connector-curvature="0" />
	<path style="fill:none;stroke:red;stroke-width:1px;stroke-linecap:butt;stroke-linejoin:miter;stroke-opacity:1" d="M 908.415,175.363 889.374,175.363 z" id="boundary" inkscape:connector-curvature="0" />
	<path style="fill:none;stroke:red;stroke-width:1px;stroke-linecap:butt;stroke-linejoin:miter;stroke-opacity:1" d="M 944.591,184.883 927.455,175.363 z" id="boundary" inkscape:connector-curvature="0" />
	<path style="fill:none;stroke:red;stroke-width:1px;stroke-linecap:butt;stroke-linejoin:miter;stroke-opacity:1" d="M 963.631,184.883 944.591,184.883 z" id="boundary" inkscape:connector-curvature="0" />
	<path style="fill:none;stroke:red;stroke-width:1px;stroke-linecap:butt;stroke-linejoin:miter;stroke-opacity:1" d="M 908.415,175.363 927.455,175.363 z" id="boundary" inkscape:connector-curvature="0" />
	<path style="fill:none;stroke:red;stroke-width:1px;stroke-linecap:butt;stroke-linejoin:miter;stroke-opacity:1" d="M 963.631,184.883 976.96,200.115 z" id="boundary" inkscape:connector-curvature="0" />
	<path style="fill:none;stroke:red;stroke-width:1px;stroke-linecap:butt;stroke-linejoin:miter;stroke-opacity:1" d="M 976.96,200.115 996,200.115 z" id="boundary" inkscape:connector-curvature="0" />
	<path style="fill:none;stroke:red;stroke-width:1px;stroke-linecap:butt;stroke-linejoin:miter;stroke-opacity:1" d="M 996,200.115 996,234.388 z" id="boundary" inkscape:connector-curvature="0" />
	<path style="fill:none;stroke:red;stroke-width:1px;stroke-linecap:butt;stroke-linejoin:miter;stroke-opacity:1" d="M 996,234.388 986.48,262.948 z" id="boundary" inkscape:connector-curvature="0" />
	<path style="fill:none;stroke:red;stroke-width:1px;stroke-linecap:butt;stroke-linejoin:miter;stroke-opacity:1" d="M 539.033,310.549 558.073,314.357 z" id="boundary" inkscape:connector-curvature="0" />
	<path style="fill:none;stroke:red;stroke-width:1px;stroke-linecap:butt;stroke-linejoin:miter;stroke-opacity:1" d="M 539.033,310.549 525.704,325.781 z" id="boundary" inkscape:connector-curvature="0" />
	<path style="fill:none;stroke:red;stroke-width:1px;stroke-linecap:butt;stroke-linejoin:miter;stroke-opacity:1" d="M 577.113,320.069 558.073,314.357 z" id="boundary" inkscape:connector-curvature="0" />
	<path style="fill:none;stroke:red;stroke-width:1px;stroke-linecap:butt;stroke-linejoin:miter;stroke-opacity:1" d="M 594.25,329.589 577.113,320.069 z" id="boundary" inkscape:connector-curvature="0" />
	<path style="fill:none;stroke:red;stroke-width:1px;stroke-linecap:butt;stroke-linejoin:miter;stroke-opacity:1" d="M 662.795,301.029 651.37,329.589 z" id="boundary" inkscape:connector-curvature="0" />
	<path style="fill:none;stroke:red;stroke-width:1px;stroke-linecap:butt;stroke-linejoin:miter;stroke-opacity:1" d="M 470.488,339.109 487.624,329.589 z" id="boundary" inkscape:connector-curvature="0" />
	<path style="fill:none;stroke:red;stroke-width:1px;stroke-linecap:butt;stroke-linejoin:miter;stroke-opacity:1" d="M 506.664,329.589 525.704,325.781 z" id="boundary" inkscape:connector-curvature="0" />
	<path style="fill:none;stroke:red;stroke-width:1px;stroke-linecap:butt;stroke-linejoin:miter;stroke-opacity:1" d="M 506.664,329.589 487.624,329.589 z" id="boundary" inkscape:connector-curvature="0" />
	<path style="fill:none;stroke:red;stroke-width:1px;stroke-linecap:butt;stroke-linejoin:miter;stroke-opacity:1" d="M 613.29,329.589 594.25,329.589 z" id="boundary" inkscape:connector-curvature="0" />
	<path style="fill:none;stroke:red;stroke-width:1px;stroke-linecap:butt;stroke-linejoin:miter;stroke-opacity:1" d="M 651.37,329.589 632.33,329.589 z" id="boundary" inkscape:connector-curvature="0" />
	<path style="fill:none;stroke:red;stroke-width:1px;stroke-linecap:butt;stroke-linejoin:miter;stroke-opacity:1" d="M 632.33,329.589 613.29,329.589 z" id="boundary" inkscape:connector-curvature="0" />
	<path style="fill:none;stroke:red;stroke-width:1px;stroke-linecap:butt;stroke-linejoin:miter;stroke-opacity:1" d="M 662.795,301.029 681.835,301.029 z" id="boundary" inkscape:connector-curvature="0" />
	<path style="fill:none;stroke:red;stroke-width:1px;stroke-linecap:butt;stroke-linejoin:miter;stroke-opacity:1" d="M 700.875,301.029 681.835,301.029 z" id="boundary" inkscape:connector-curvature="0" />
	<path style="fill:none;stroke:red;stroke-width:1px;stroke-linecap:butt;stroke-linejoin:miter;stroke-opacity:1" d="M 719.916,301.029 700.875,301.029 z" id="boundary" inkscape:connector-curvature="0" />
	<path style="fill:none;stroke:red;stroke-width:1px;stroke-linecap:butt;stroke-linejoin:miter;stroke-opacity:1" d="M 737.052,310.549 719.916,301.029 z" id="boundary" inkscape:connector-curvature="0" />
	<path style="fill:none;stroke:red;stroke-width:1px;stroke-linecap:butt;stroke-linejoin:miter;stroke-opacity:1" d="M 822.733,301.029 805.597,310.549 z" id="boundary" inkscape:connector-curvature="0" />
	<path style="fill:none;stroke:red;stroke-width:1px;stroke-linecap:butt;stroke-linejoin:miter;stroke-opacity:1" d="M 971.248,280.084 956.015,295.317 z" id="boundary" inkscape:connector-curvature="0" />
	<path style="fill:none;stroke:red;stroke-width:1px;stroke-linecap:butt;stroke-linejoin:miter;stroke-opacity:1" d="M 971.248,280.084 986.48,262.948 z" id="boundary" inkscape:connector-curvature="0" />
	<path style="fill:none;stroke:red;stroke-width:1px;stroke-linecap:butt;stroke-linejoin:miter;stroke-opacity:1" d="M 956.015,295.317 936.975,301.029 z" id="boundary" inkscape:connector-curvature="0" />
	<path style="fill:none;stroke:red;stroke-width:1px;stroke-linecap:butt;stroke-linejoin:miter;stroke-opacity:1" d="M 841.774,301.029 860.814,301.029 z" id="boundary" inkscape:connector-curvature="0" />
	<path style="fill:none;stroke:red;stroke-width:1px;stroke-linecap:butt;stroke-linejoin:miter;stroke-opacity:1" d="M 841.774,301.029 822.733,301.029 z" id="boundary" inkscape:connector-curvature="0" />
	<path style="fill:none;stroke:red;stroke-width:1px;stroke-linecap:butt;stroke-linejoin:miter;stroke-opacity:1" d="M 879.854,301.029 860.814,301.029 z" id="boundary" inkscape:connector-curvature="0" />
	<path style="fill:none;stroke:red;stroke-width:1px;stroke-linecap:butt;stroke-linejoin:miter;stroke-opacity:1" d="M 898.894,301.029 917.935,301.029 z" id="boundary" inkscape:connector-curvature="0" />
	<path style="fill:none;stroke:red;stroke-width:1px;stroke-linecap:butt;stroke-linejoin:miter;stroke-opacity:1" d="M 936.975,301.029 917.935,301.029 z" id="boundary" inkscape:connector-curvature="0" />
	<path style="fill:none;stroke:red;stroke-width:1px;stroke-linecap:butt;stroke-linejoin:miter;stroke-opacity:1" d="M 898.894,301.029 879.854,301.029 z" id="boundary" inkscape:connector-curvature="0" />
	<path style="fill:none;stroke:red;stroke-width:1px;stroke-linecap:butt;stroke-linejoin:miter;stroke-opacity:1" d="M 737.052,310.549 754.188,320.069 z" id="boundary" inkscape:connector-curvature="0" />
	<path style="fill:none;stroke:red;stroke-width:1px;stroke-linecap:butt;stroke-linejoin:miter;stroke-opacity:1" d="M 771.324,329.589 754.188,320.069 z" id="boundary" inkscape:connector-curvature="0" />
	<path style="fill:none;stroke:red;stroke-width:1px;stroke-linecap:butt;stroke-linejoin:miter;stroke-opacity:1" d="M 790.365,327.685 771.324,329.589 z" id="boundary" inkscape:connector-curvature="0" />
	<path style="fill:none;stroke:red;stroke-width:1px;stroke-linecap:butt;stroke-linejoin:miter;stroke-opacity:1" d="M 790.365,327.685 805.597,310.549 z" id="boundary" inkscape:connector-curvature="0" />
	<circle cx="4" cy="114.434" r="4" fill="#0" id="circle0"/>
	<circle cx="4" cy="133.474" r="4" fill="#0" id="circle1"/>
	<circle cx="4" cy="152.514" r="4" fill="#0" id="circle2"/>
	<circle cx="4" cy="171.555" r="4" fill="#0" id="circle3"/>
	<circle cx="4" cy="190.595" r="4" fill="#0" id="circle4"/>
	<circle cx="4" cy="209.635" r="4" fill="#0" id="circle5"/>
	<circle cx="4" cy="228.676" r="4" fill="#0" id="circle6"/>
	<circle cx="4" cy="247.716" r="4" fill="#0" id="circle7"/>
	<circle cx="4" cy="266.756" r="4" fill="#0" id="circle8"/>
	<circle cx="4" cy="285.797" r="4" fill="#0" id="circle9"/>
	<circle cx="4" cy="304.837" r="4" fill="#0" id="circle10"/>
	<circle cx="4" cy="323.877" r="4" fill="#0" id="circle11"/>
	<circle cx="4" cy="342.917" r="4" fill="#0" id="circle12"/>
	<circle cx="15.4242" cy="358.15" r="4" fill="#0" id="circle13"/>
	<circle cx="23.0403" cy="85.8733" r="4" fill="#0" id="circle14"/>
	<circle cx="23.0403" cy="104.914" r="4" fill="#0" id="circle15"/>
	<circle cx="23.0403" cy="377.19" r="4" fill="#0" id="circle16"/>
	<circle cx="28.7524" cy="396.23" r="4" fill="#0" id="circle17"/>
	<circle cx="32.5605" cy="415.271" r="4" fill="#0" id="circle18"/>
	<circle cx="38.2726" cy="70.6411" r="4" fill="#0" id="circle19"/>
	<circle cx="49.6967" cy="424.791" r="4" fill="#0" id="circle20"/>
	<circle cx="57.3129" cy="61.1209" r="4" fill="#0" id="circle21"/>
	<circle cx="66.833" cy="434.311" r="4" fill="#0" id="circle22"/>
	<circle cx="72.5451" cy="45.8887" r="4" fill="#0" id="circle23"/>
	<circle cx="83.9693" cy="443.831" r="4" fill="#0" id="circle24"/>
	<circle cx="91.5854" cy="42.0806" r="4" fill="#0" id="circle25"/>
	<circle cx="99.2015" cy="455.255" r="4" fill="#0" id="circle26"/>
	<circle cx="110.626" cy="36.3685" r="4" fill="#0" id="circle27"/>
	<circle cx="118.242" cy="462.871" r="4" fill="#0" id="circle28"/>
	<circle cx="129.666" cy="26.8484" r="4" fill="#0" id="circle29"/>
	<circle cx="135.378" cy="472.392" r="4" fill="#0" id="circle30"/>
	<circle cx="148.706" cy="23.0403" r="4" fill="#0" id="circle31"/>
	<circle cx="152.514" cy="481.912" r="4" fill="#0" id="circle32"/>
	<circle cx="167.747" cy="23.0403" r="4" fill="#0" id="circle33"/>
	<circle cx="171.555" cy="481.912" r="4" fill="#0" id="circle34"/>
	<circle cx="184.883" cy="9.71209" r="4" fill="#0" id="circle35"/>
	<circle cx="190.595" cy="481.912" r="4" fill="#0" id="circle36"/>
	<circle cx="203.923" cy="4" r="4" fill="#0" id="circle37"/>
	<circle cx="207.731" cy="491.432" r="4" fill="#0" id="circle38"/>
	<circle cx="222.964" cy="4" r="4" fill="#0" id="circle39"/>
	<circle cx="226.772" cy="497.144" r="4" fill="#0" id="circle40"/>
	<circle cx="242.004" cy="4" r="4" fill="#0" id="circle41"/>
	<circle cx="245.812" cy="500.952" r="4" fill="#0" id="circle42"/>
	<circle cx="261.044" cy="4" r="4" fill="#0" id="circle43"/>
	<circle cx="264.852" cy="500.952" r="4" fill="#0" id="circle44"/>
	<circle cx="280.084" cy="4" r="4" fill="#0" id="circle45"/>
	<circle cx="281.988" cy="491.432" r="4" fill="#0" id="circle46"/>
	<circle cx="299.125" cy="4" r="4" fill="#0" id="circle47"/>
	<circle cx="301.029" cy="491.432" r="4" fill="#0" id="circle48"/>
	<circle cx="314.357" cy="15.4242" r="4" fill="#0" id="circle49"/>
	<circle cx="318.165" cy="481.912" r="4" fill="#0" id="circle50"/>
	<circle cx="329.589" cy="28.7524" r="4" fill="#0" id="circle51"/>
	<circle cx="333.397" cy="470.488" r="4" fill="#0" id="circle52"/>
	<circle cx="342.917" cy="43.9846" r="4" fill="#0" id="circle53"/>
	<circle cx="348.63" cy="453.351" r="4" fill="#0" id="circle54"/>
	<circle cx="358.15" cy="57.3129" r="4" fill="#0" id="circle55"/>
	<circle cx="358.15" cy="82.0653" r="4" fill="#0" id="circle56"/>
	<circle cx="363.862" cy="440.023" r="4" fill="#0" id="circle57"/>
	<circle cx="367.67" cy="99.2015" r="4" fill="#0" id="circle58"/>
	<circle cx="373.382" cy="420.983" r="4" fill="#0" id="circle59"/>
	<circle cx="377.19" cy="116.338" r="4" fill="#0" id="circle60"/>
	<circle cx="377.19" cy="135.378" r="4" fill="#0" id="circle61"/>
	<circle cx="386.71" cy="152.514" r="4" fill="#0" id="circle62"/>
	<circle cx="386.71" cy="386.71" r="4" fill="#0" id="circle63"/>
	<circle cx="386.71" cy="405.75" r="4" fill="#0" id="circle64"/>
	<circle cx="394.326" cy="171.555" r="4" fill="#0" id="circle65"/>
	<circle cx="401.942" cy="373.382" r="4" fill="#0" id="circle66"/>
	<circle cx="413.367" cy="175.363" r="4" fill="#0" id="circle67"/>
	<circle cx="415.271" cy="358.15" r="4" fill="#0" id="circle68"/>
	<circle cx="432.407" cy="175.363" r="4" fill="#0" id="circle69"/>
	<circle cx="434.311" cy="358.15" r="4" fill="#0" id="circle70"/>
	<circle cx="451.447" cy="175.363" r="4" fill="#0" id="circle71"/>
	<circle cx="453.351" cy="348.63" r="4" fill="#0" id="circle72"/>
	<circle cx="470.488" cy="175.363" r="4" fill="#0" id="circle73"/>
	<circle cx="470.488" cy="339.109" r="4" fill="#0" id="circle74"/>
	<circle cx="487.624" cy="329.589" r="4" fill="#0" id="circle75"/>
	<circle cx="489.528" cy="175.363" r="4" fill="#0" id="circle76"/>
	<circle cx="506.664" cy="329.589" r="4" fill="#0" id="circle77"/>
	<circle cx="508.568" cy="175.363" r="4" fill="#0" id="circle78"/>
	<circle cx="525.704" cy="325.781" r="4" fill="#0" id="circle79"/>
	<circle cx="527.608" cy="175.363" r="4" fill="#0" id="circle80"/>
	<circle cx="539.033" cy="310.549" r="4" fill="#0" id="circle81"/>
	<circle cx="546.649" cy="175.363" r="4" fill="#0" id="circle82"/>
	<circle cx="558.073" cy="314.357" r="4" fill="#0" id="circle83"/>
	<circle cx="565.689" cy="175.363" r="4" fill="#0" id="circle84"/>
	<circle cx="577.113" cy="320.069" r="4" fill="#0" id="circle85"/>
	<circle cx="584.729" cy="175.363" r="4" fill="#0" id="circle86"/>
	<circle cx="594.25" cy="329.589" r="4" fill="#0" id="circle87"/>
	<circle cx="603.77" cy="175.363" r="4" fill="#0" id="circle88"/>
	<circle cx="613.29" cy="329.589" r="4" fill="#0" id="circle89"/>
	<circle cx="622.81" cy="175.363" r="4" fill="#0" id="circle90"/>
	<circle cx="632.33" cy="329.589" r="4" fill="#0" id="circle91"/>
	<circle cx="641.85" cy="175.363" r="4" fill="#0" id="circle92"/>
	<circle cx="651.37" cy="329.589" r="4" fill="#0" id="circle93"/>
	<circle cx="660.891" cy="175.363" r="4" fill="#0" id="circle94"/>
	<circle cx="662.795" cy="301.029" r="4" fill="#0" id="circle95"/>
	<circle cx="679.931" cy="175.363" r="4" fill="#0" id="circle96"/>
	<circle cx="681.835" cy="301.029" r="4" fill="#0" id="circle97"/>
	<circle cx="698.971" cy="175.363" r="4" fill="#0" id="circle98"/>
	<circle cx="700.875" cy="301.029" r="4" fill="#0" id="circle99"/>
	<circle cx="718.012" cy="175.363" r="4" fill="#0" id="circle100"/>
	<circle cx="719.916" cy="301.029" r="4" fill="#0" id="circle101"/>
	<circle cx="737.052" cy="175.363" r="4" fill="#0" id="circle102"/>
	<circle cx="737.052" cy="310.549" r="4" fill="#0" id="circle103"/>
	<circle cx="754.188" cy="320.069" r="4" fill="#0" id="circle104"/>
	<circle cx="756.092" cy="175.363" r="4" fill="#0" id="circle105"/>
	<circle cx="771.324" cy="329.589" r="4" fill="#0" id="circle106"/>
	<circle cx="775.132" cy="175.363" r="4" fill="#0" id="circle107"/>
	<circle cx="790.365" cy="327.685" r="4" fill="#0" id="circle108"/>
	<circle cx="794.173" cy="175.363" r="4" fill="#0" id="circle109"/>
	<circle cx="805.597" cy="310.549" r="4" fill="#0" id="circle110"/>
	<circle cx="813.213" cy="175.363" r="4" fill="#0" id="circle111"/>
	<circle cx="822.733" cy="301.029" r="4" fill="#0" id="circle112"/>
	<circle cx="832.253" cy="175.363" r="4" fill="#0" id="circle113"/>
	<circle cx="841.774" cy="301.029" r="4" fill="#0" id="circle114"/>
	<circle cx="851.294" cy="175.363" r="4" fill="#0" id="circle115"/>
	<circle cx="860.814" cy="301.029" r="4" fill="#0" id="circle116"/>
	<circle cx="870.334" cy="175.363" r="4" fill="#0" id="circle117"/>
	<circle cx="879.854" cy="301.029" r="4" fill="#0" id="circle118"/>
	<circle cx="889.374" cy="175.363" r="4" fill="#0" id="circle119"/>
	<circle cx="898.894" cy="301.029" r="4" fill="#0" id="circle120"/>
	<circle cx="908.415" cy="175.363" r="4" fill="#0" id="circle121"/>
	<circle cx="917.935" cy="301.029" r="4" fill="#0" id="circle122"/>
	<circle cx="927.455" cy="175.363" r="4" fill="#0" id="circle123"/>
	<circle cx="936.975" cy="301.029" r="4" fill="#0" id="circle124"/>
	<circle cx="944.591" cy="184.883" r="4" fill="#0" id="circle125"/>
	<circle cx="956.015" cy="295.317" r="4" fill="#0" id="circle126"/>
	<circle cx="963.631" cy="184.883" r="4" fill="#0" id="circle127"/>
	<circle cx="971.248" cy="280.084" r="4" fill="#0" id="circle128"/>
	<circle cx="976.96" cy="200.115" r="4" fill="#0" id="circle129"/>
	<circle cx="986.48" cy="262.948" r="4" fill="#0" id="circle130"/>
	<circle cx="996" cy="200.115" r="4" fill="#0" id="circle131"/>
	<circle cx="996" cy="234.388" r="4" fill="#0" id="circle132"/>
	</g>
</svg>