<?xml version="1.0" encoding="UTF-8" standalone="no"?>
<!-- Created with CurveBenchmark -->
<svg
	xmlns:dc="http://purl.org/dc/elements/1.1/"
	xmlns:cc="http://creativecommons.org/ns#"
	xmlns:rdf="http://www.w3.org/1999/02/22-rdf-syntax-ns#"
	xmlns:svg="http://www.w3.org/2000/svg"
	xmlns="http://www.w3.org/2000/svg"
	xmlns:sodipodi="http://sodipodi.sourceforge.net/DTD/sodipodi-0.dtd"
	xmlns:inkscape="http://www.inkscape.org/namespaces/inkscape"
	width="1000"
	height="1000"
	id="svg2"
	version="1.1"
	sodipodi:docname="manifold/crust-bed205.png.txt">
<defs
	id="defs4" />
<metadata
	id="metadata7">
	<rdf:RDF>
		<cc:Work
			rdf:about="">
			<dc:format>image/svg+xml</dc:format>
			<dc:type
				rdf:resource="http://purl.org/dc/dcmitype/StillImage" />
			<dc:title></dc:title>
		</cc:Work>
	</rdf:RDF>
</metadata>
<g
	inkscape:label="Layer 1"
	inkscape:groupmode="layer"
	id="layer1">
	<path style="fill:none;stroke:red;stroke-width:1px;stroke-linecap:butt;stroke-linejoin:miter;stroke-opacity:1" d="M 299.216,266.211 282.713,275.379 z" id="boundary" inkscape:connector-curvature="0" />
	<path style="fill:none;stroke:red;stroke-width:1px;stroke-linecap:butt;stroke-linejoin:miter;stroke-opacity:1" d="M 213.035,297.383 194.699,297.383 z" id="boundary" inkscape:connector-curvature="0" />
	<path style="fill:none;stroke:red;stroke-width:1px;stroke-linecap:butt;stroke-linejoin:miter;stroke-opacity:1" d="M 176.362,301.05 158.026,301.05 z" id="boundary" inkscape:connector-curvature="0" />
	<path style="fill:none;stroke:red;stroke-width:1px;stroke-linecap:butt;stroke-linejoin:miter;stroke-opacity:1" d="M 194.699,297.383 176.362,301.05 z" id="boundary" inkscape:connector-curvature="0" />
	<path style="fill:none;stroke:red;stroke-width:1px;stroke-linecap:butt;stroke-linejoin:miter;stroke-opacity:1" d="M 231.372,297.383 213.035,297.383 z" id="boundary" inkscape:connector-curvature="0" />
	<path style="fill:none;stroke:red;stroke-width:1px;stroke-linecap:butt;stroke-linejoin:miter;stroke-opacity:1" d="M 247.874,288.214 264.377,279.046 z" id="boundary" inkscape:connector-curvature="0" />
	<path style="fill:none;stroke:red;stroke-width:1px;stroke-linecap:butt;stroke-linejoin:miter;stroke-opacity:1" d="M 231.372,297.383 247.874,288.214 z" id="boundary" inkscape:connector-curvature="0" />
	<path style="fill:none;stroke:red;stroke-width:1px;stroke-linecap:butt;stroke-linejoin:miter;stroke-opacity:1" d="M 264.377,279.046 282.713,275.379 z" id="boundary" inkscape:connector-curvature="0" />
	<path style="fill:none;stroke:red;stroke-width:1px;stroke-linecap:butt;stroke-linejoin:miter;stroke-opacity:1" d="M 158.026,301.05 139.689,304.717 z" id="boundary" inkscape:connector-curvature="0" />
	<path style="fill:none;stroke:red;stroke-width:1px;stroke-linecap:butt;stroke-linejoin:miter;stroke-opacity:1" d="M 4,359.726 15.0018,345.057 z" id="boundary" inkscape:connector-curvature="0" />
	<path style="fill:none;stroke:red;stroke-width:1px;stroke-linecap:butt;stroke-linejoin:miter;stroke-opacity:1" d="M 29.671,334.055 15.0018,345.057 z" id="boundary" inkscape:connector-curvature="0" />
	<path style="fill:none;stroke:red;stroke-width:1px;stroke-linecap:butt;stroke-linejoin:miter;stroke-opacity:1" d="M 66.3438,323.054 84.6802,315.719 z" id="boundary" inkscape:connector-curvature="0" />
	<path style="fill:none;stroke:red;stroke-width:1px;stroke-linecap:butt;stroke-linejoin:miter;stroke-opacity:1" d="M 103.017,312.052 84.6802,315.719 z" id="boundary" inkscape:connector-curvature="0" />
	<path style="fill:none;stroke:red;stroke-width:1px;stroke-linecap:butt;stroke-linejoin:miter;stroke-opacity:1" d="M 29.671,334.055 48.0074,326.721 z" id="boundary" inkscape:connector-curvature="0" />
	<path style="fill:none;stroke:red;stroke-width:1px;stroke-linecap:butt;stroke-linejoin:miter;stroke-opacity:1" d="M 66.3438,323.054 48.0074,326.721 z" id="boundary" inkscape:connector-curvature="0" />
	<path style="fill:none;stroke:red;stroke-width:1px;stroke-linecap:butt;stroke-linejoin:miter;stroke-opacity:1" d="M 7.66728,378.063 22.3364,389.065 z" id="boundary" inkscape:connector-curvature="0" />
	<path style="fill:none;stroke:red;stroke-width:1px;stroke-linecap:butt;stroke-linejoin:miter;stroke-opacity:1" d="M 7.66728,378.063 4,359.726 z" id="boundary" inkscape:connector-curvature="0" />
	<path style="fill:none;stroke:red;stroke-width:1px;stroke-linecap:butt;stroke-linejoin:miter;stroke-opacity:1" d="M 26.0037,407.401 22.3364,389.065 z" id="boundary" inkscape:connector-curvature="0" />
	<path style="fill:none;stroke:red;stroke-width:1px;stroke-linecap:butt;stroke-linejoin:miter;stroke-opacity:1" d="M 103.017,312.052 121.353,312.052 z" id="boundary" inkscape:connector-curvature="0" />
	<path style="fill:none;stroke:red;stroke-width:1px;stroke-linecap:butt;stroke-linejoin:miter;stroke-opacity:1" d="M 121.353,312.052 139.689,304.717 z" id="boundary" inkscape:connector-curvature="0" />
	<path style="fill:none;stroke:red;stroke-width:1px;stroke-linecap:butt;stroke-linejoin:miter;stroke-opacity:1" d="M 423.904,163.527 414.736,147.024 z" id="boundary" inkscape:connector-curvature="0" />
	<path style="fill:none;stroke:red;stroke-width:1px;stroke-linecap:butt;stroke-linejoin:miter;stroke-opacity:1" d="M 425.738,128.688 414.736,147.024 z" id="boundary" inkscape:connector-curvature="0" />
	<path style="fill:none;stroke:red;stroke-width:1px;stroke-linecap:butt;stroke-linejoin:miter;stroke-opacity:1" d="M 425.738,128.688 440.407,117.686 z" id="boundary" inkscape:connector-curvature="0" />
	<path style="fill:none;stroke:red;stroke-width:1px;stroke-linecap:butt;stroke-linejoin:miter;stroke-opacity:1" d="M 436.739,198.366 433.072,180.03 z" id="boundary" inkscape:connector-curvature="0" />
	<path style="fill:none;stroke:red;stroke-width:1px;stroke-linecap:butt;stroke-linejoin:miter;stroke-opacity:1" d="M 433.072,180.03 423.904,163.527 z" id="boundary" inkscape:connector-curvature="0" />
	<path style="fill:none;stroke:red;stroke-width:1px;stroke-linecap:butt;stroke-linejoin:miter;stroke-opacity:1" d="M 458.743,110.351 440.407,117.686 z" id="boundary" inkscape:connector-curvature="0" />
	<path style="fill:none;stroke:red;stroke-width:1px;stroke-linecap:butt;stroke-linejoin:miter;stroke-opacity:1" d="M 495.416,95.6821 477.079,103.017 z" id="boundary" inkscape:connector-curvature="0" />
	<path style="fill:none;stroke:red;stroke-width:1px;stroke-linecap:butt;stroke-linejoin:miter;stroke-opacity:1" d="M 477.079,103.017 458.743,110.351 z" id="boundary" inkscape:connector-curvature="0" />
	<path style="fill:none;stroke:red;stroke-width:1px;stroke-linecap:butt;stroke-linejoin:miter;stroke-opacity:1" d="M 532.089,84.6802 513.752,92.0148 z" id="boundary" inkscape:connector-curvature="0" />
	<path style="fill:none;stroke:red;stroke-width:1px;stroke-linecap:butt;stroke-linejoin:miter;stroke-opacity:1" d="M 513.752,92.0148 495.416,95.6821 z" id="boundary" inkscape:connector-curvature="0" />
	<path style="fill:none;stroke:red;stroke-width:1px;stroke-linecap:butt;stroke-linejoin:miter;stroke-opacity:1" d="M 436.739,216.702 436.739,198.366 z" id="boundary" inkscape:connector-curvature="0" />
	<path style="fill:none;stroke:red;stroke-width:1px;stroke-linecap:butt;stroke-linejoin:miter;stroke-opacity:1" d="M 299.216,266.211 315.719,257.043 z" id="boundary" inkscape:connector-curvature="0" />
	<path style="fill:none;stroke:red;stroke-width:1px;stroke-linecap:butt;stroke-linejoin:miter;stroke-opacity:1" d="M 315.719,257.043 334.055,249.708 z" id="boundary" inkscape:connector-curvature="0" />
	<path style="fill:none;stroke:red;stroke-width:1px;stroke-linecap:butt;stroke-linejoin:miter;stroke-opacity:1" d="M 334.055,249.708 350.558,258.876 z" id="boundary" inkscape:connector-curvature="0" />
	<path style="fill:none;stroke:red;stroke-width:1px;stroke-linecap:butt;stroke-linejoin:miter;stroke-opacity:1" d="M 368.895,264.377 350.558,258.876 z" id="boundary" inkscape:connector-curvature="0" />
	<path style="fill:none;stroke:red;stroke-width:1px;stroke-linecap:butt;stroke-linejoin:miter;stroke-opacity:1" d="M 385.397,273.545 368.895,264.377 z" id="boundary" inkscape:connector-curvature="0" />
	<path style="fill:none;stroke:red;stroke-width:1px;stroke-linecap:butt;stroke-linejoin:miter;stroke-opacity:1" d="M 385.397,273.545 403.734,279.046 z" id="boundary" inkscape:connector-curvature="0" />
	<path style="fill:none;stroke:red;stroke-width:1px;stroke-linecap:butt;stroke-linejoin:miter;stroke-opacity:1" d="M 436.739,216.702 436.739,235.039 z" id="boundary" inkscape:connector-curvature="0" />
	<path style="fill:none;stroke:red;stroke-width:1px;stroke-linecap:butt;stroke-linejoin:miter;stroke-opacity:1" d="M 436.739,235.039 433.072,253.375 z" id="boundary" inkscape:connector-curvature="0" />
	<path style="fill:none;stroke:red;stroke-width:1px;stroke-linecap:butt;stroke-linejoin:miter;stroke-opacity:1" d="M 433.072,253.375 418.403,264.377 z" id="boundary" inkscape:connector-curvature="0" />
	<path style="fill:none;stroke:red;stroke-width:1px;stroke-linecap:butt;stroke-linejoin:miter;stroke-opacity:1" d="M 418.403,264.377 403.734,279.046 z" id="boundary" inkscape:connector-curvature="0" />
	<path style="fill:none;stroke:red;stroke-width:1px;stroke-linecap:butt;stroke-linejoin:miter;stroke-opacity:1" d="M 26.0037,407.401 26.0037,425.738 z" id="boundary" inkscape:connector-curvature="0" />
	<path style="fill:none;stroke:red;stroke-width:1px;stroke-linecap:butt;stroke-linejoin:miter;stroke-opacity:1" d="M 26.0037,425.738 29.671,444.074 z" id="boundary" inkscape:connector-curvature="0" />
	<path style="fill:none;stroke:red;stroke-width:1px;stroke-linecap:butt;stroke-linejoin:miter;stroke-opacity:1" d="M 29.671,462.41 29.671,444.074 z" id="boundary" inkscape:connector-curvature="0" />
	<path style="fill:none;stroke:red;stroke-width:1px;stroke-linecap:butt;stroke-linejoin:miter;stroke-opacity:1" d="M 26.0037,495.416 29.671,462.41 z" id="boundary" inkscape:connector-curvature="0" />
	<path style="fill:none;stroke:red;stroke-width:1px;stroke-linecap:butt;stroke-linejoin:miter;stroke-opacity:1" d="M 26.0037,495.416 15.0018,521.087 z" id="boundary" inkscape:connector-curvature="0" />
	<path style="fill:none;stroke:red;stroke-width:1px;stroke-linecap:butt;stroke-linejoin:miter;stroke-opacity:1" d="M 44.3401,504.584 26.0037,495.416 z" id="boundary" inkscape:connector-curvature="0" />
	<path style="fill:none;stroke:red;stroke-width:1px;stroke-linecap:butt;stroke-linejoin:miter;stroke-opacity:1" d="M 187.364,497.25 169.028,497.25 z" id="boundary" inkscape:connector-curvature="0" />
	<path style="fill:none;stroke:red;stroke-width:1px;stroke-linecap:butt;stroke-linejoin:miter;stroke-opacity:1" d="M 62.6765,500.917 81.0129,500.917 z" id="boundary" inkscape:connector-curvature="0" />
	<path style="fill:none;stroke:red;stroke-width:1px;stroke-linecap:butt;stroke-linejoin:miter;stroke-opacity:1" d="M 99.3494,504.584 81.0129,500.917 z" id="boundary" inkscape:connector-curvature="0" />
	<path style="fill:none;stroke:red;stroke-width:1px;stroke-linecap:butt;stroke-linejoin:miter;stroke-opacity:1" d="M 62.6765,500.917 44.3401,504.584 z" id="boundary" inkscape:connector-curvature="0" />
	<path style="fill:none;stroke:red;stroke-width:1px;stroke-linecap:butt;stroke-linejoin:miter;stroke-opacity:1" d="M 169.028,497.25 150.691,504.584 z" id="boundary" inkscape:connector-curvature="0" />
	<path style="fill:none;stroke:red;stroke-width:1px;stroke-linecap:butt;stroke-linejoin:miter;stroke-opacity:1" d="M 16.8355,539.423 15.0018,521.087 z" id="boundary" inkscape:connector-curvature="0" />
	<path style="fill:none;stroke:red;stroke-width:1px;stroke-linecap:butt;stroke-linejoin:miter;stroke-opacity:1" d="M 44.3401,504.584 35.1719,521.087 z" id="boundary" inkscape:connector-curvature="0" />
	<path style="fill:none;stroke:red;stroke-width:1px;stroke-linecap:butt;stroke-linejoin:miter;stroke-opacity:1" d="M 35.1719,539.423 35.1719,521.087 z" id="boundary" inkscape:connector-curvature="0" />
	<path style="fill:none;stroke:red;stroke-width:1px;stroke-linecap:butt;stroke-linejoin:miter;stroke-opacity:1" d="M 16.8355,539.423 15.0018,565.094 z" id="boundary" inkscape:connector-curvature="0" />
	<path style="fill:none;stroke:red;stroke-width:1px;stroke-linecap:butt;stroke-linejoin:miter;stroke-opacity:1" d="M 35.1719,539.423 33.3383,566.928 z" id="boundary" inkscape:connector-curvature="0" />
	<path style="fill:none;stroke:red;stroke-width:1px;stroke-linecap:butt;stroke-linejoin:miter;stroke-opacity:1" d="M 33.3383,566.928 15.0018,565.094 z" id="boundary" inkscape:connector-curvature="0" />
	<path style="fill:none;stroke:red;stroke-width:1px;stroke-linecap:butt;stroke-linejoin:miter;stroke-opacity:1" d="M 16.8355,539.423 35.1719,539.423 z" id="boundary" inkscape:connector-curvature="0" />
	<path style="fill:none;stroke:red;stroke-width:1px;stroke-linecap:butt;stroke-linejoin:miter;stroke-opacity:1" d="M 136.022,519.253 117.686,511.919 z" id="boundary" inkscape:connector-curvature="0" />
	<path style="fill:none;stroke:red;stroke-width:1px;stroke-linecap:butt;stroke-linejoin:miter;stroke-opacity:1" d="M 117.686,511.919 99.3494,504.584 z" id="boundary" inkscape:connector-curvature="0" />
	<path style="fill:none;stroke:red;stroke-width:1px;stroke-linecap:butt;stroke-linejoin:miter;stroke-opacity:1" d="M 136.022,519.253 150.691,504.584 z" id="boundary" inkscape:connector-curvature="0" />
	<path style="fill:none;stroke:red;stroke-width:1px;stroke-linecap:butt;stroke-linejoin:miter;stroke-opacity:1" d="M 187.364,497.25 205.701,500.917 z" id="boundary" inkscape:connector-curvature="0" />
	<path style="fill:none;stroke:red;stroke-width:1px;stroke-linecap:butt;stroke-linejoin:miter;stroke-opacity:1" d="M 224.037,506.418 240.54,515.586 z" id="boundary" inkscape:connector-curvature="0" />
	<path style="fill:none;stroke:red;stroke-width:1px;stroke-linecap:butt;stroke-linejoin:miter;stroke-opacity:1" d="M 224.037,506.418 205.701,500.917 z" id="boundary" inkscape:connector-curvature="0" />
	<path style="fill:none;stroke:red;stroke-width:1px;stroke-linecap:butt;stroke-linejoin:miter;stroke-opacity:1" d="M 258.876,522.921 240.54,515.586 z" id="boundary" inkscape:connector-curvature="0" />
	<path style="fill:none;stroke:red;stroke-width:1px;stroke-linecap:butt;stroke-linejoin:miter;stroke-opacity:1" d="M 277.213,526.588 258.876,522.921 z" id="boundary" inkscape:connector-curvature="0" />
	<path style="fill:none;stroke:red;stroke-width:1px;stroke-linecap:butt;stroke-linejoin:miter;stroke-opacity:1" d="M 295.549,533.922 277.213,526.588 z" id="boundary" inkscape:connector-curvature="0" />
	<path style="fill:none;stroke:red;stroke-width:1px;stroke-linecap:butt;stroke-linejoin:miter;stroke-opacity:1" d="M 456.909,500.917 438.573,506.418 z" id="boundary" inkscape:connector-curvature="0" />
	<path style="fill:none;stroke:red;stroke-width:1px;stroke-linecap:butt;stroke-linejoin:miter;stroke-opacity:1" d="M 493.582,500.917 475.246,497.25 z" id="boundary" inkscape:connector-curvature="0" />
	<path style="fill:none;stroke:red;stroke-width:1px;stroke-linecap:butt;stroke-linejoin:miter;stroke-opacity:1" d="M 475.246,497.25 456.909,500.917 z" id="boundary" inkscape:connector-curvature="0" />
	<path style="fill:none;stroke:red;stroke-width:1px;stroke-linecap:butt;stroke-linejoin:miter;stroke-opacity:1" d="M 543.091,510.085 526.588,519.253 z" id="boundary" inkscape:connector-curvature="0" />
	<path style="fill:none;stroke:red;stroke-width:1px;stroke-linecap:butt;stroke-linejoin:miter;stroke-opacity:1" d="M 511.919,508.251 493.582,500.917 z" id="boundary" inkscape:connector-curvature="0" />
	<path style="fill:none;stroke:red;stroke-width:1px;stroke-linecap:butt;stroke-linejoin:miter;stroke-opacity:1" d="M 405.567,521.087 387.231,526.588 z" id="boundary" inkscape:connector-curvature="0" />
	<path style="fill:none;stroke:red;stroke-width:1px;stroke-linecap:butt;stroke-linejoin:miter;stroke-opacity:1" d="M 418.403,535.756 405.567,521.087 z" id="boundary" inkscape:connector-curvature="0" />
	<path style="fill:none;stroke:red;stroke-width:1px;stroke-linecap:butt;stroke-linejoin:miter;stroke-opacity:1" d="M 438.573,506.418 434.906,524.754 z" id="boundary" inkscape:connector-curvature="0" />
	<path style="fill:none;stroke:red;stroke-width:1px;stroke-linecap:butt;stroke-linejoin:miter;stroke-opacity:1" d="M 434.906,544.924 434.906,524.754 z" id="boundary" inkscape:connector-curvature="0" />
	<path style="fill:none;stroke:red;stroke-width:1px;stroke-linecap:butt;stroke-linejoin:miter;stroke-opacity:1" d="M 526.588,519.253 511.919,508.251 z" id="boundary" inkscape:connector-curvature="0" />
	<path style="fill:none;stroke:red;stroke-width:1px;stroke-linecap:butt;stroke-linejoin:miter;stroke-opacity:1" d="M 295.549,533.922 313.885,533.922 z" id="boundary" inkscape:connector-curvature="0" />
	<path style="fill:none;stroke:red;stroke-width:1px;stroke-linecap:butt;stroke-linejoin:miter;stroke-opacity:1" d="M 368.895,530.255 350.558,533.922 z" id="boundary" inkscape:connector-curvature="0" />
	<path style="fill:none;stroke:red;stroke-width:1px;stroke-linecap:butt;stroke-linejoin:miter;stroke-opacity:1" d="M 332.222,537.59 313.885,533.922 z" id="boundary" inkscape:connector-curvature="0" />
	<path style="fill:none;stroke:red;stroke-width:1px;stroke-linecap:butt;stroke-linejoin:miter;stroke-opacity:1" d="M 350.558,533.922 332.222,537.59 z" id="boundary" inkscape:connector-curvature="0" />
	<path style="fill:none;stroke:red;stroke-width:1px;stroke-linecap:butt;stroke-linejoin:miter;stroke-opacity:1" d="M 434.906,544.924 418.403,565.094 z" id="boundary" inkscape:connector-curvature="0" />
	<path style="fill:none;stroke:red;stroke-width:1px;stroke-linecap:butt;stroke-linejoin:miter;stroke-opacity:1" d="M 368.895,530.255 387.231,526.588 z" id="boundary" inkscape:connector-curvature="0" />
	<path style="fill:none;stroke:red;stroke-width:1px;stroke-linecap:butt;stroke-linejoin:miter;stroke-opacity:1" d="M 616.436,59.0092 631.105,48.0074 z" id="boundary" inkscape:connector-curvature="0" />
	<path style="fill:none;stroke:red;stroke-width:1px;stroke-linecap:butt;stroke-linejoin:miter;stroke-opacity:1" d="M 649.442,44.3401 631.105,48.0074 z" id="boundary" inkscape:connector-curvature="0" />
	<path style="fill:none;stroke:red;stroke-width:1px;stroke-linecap:butt;stroke-linejoin:miter;stroke-opacity:1" d="M 667.778,40.6728 649.442,44.3401 z" id="boundary" inkscape:connector-curvature="0" />
	<path style="fill:none;stroke:red;stroke-width:1px;stroke-linecap:butt;stroke-linejoin:miter;stroke-opacity:1" d="M 532.089,84.6802 550.425,81.0129 z" id="boundary" inkscape:connector-curvature="0" />
	<path style="fill:none;stroke:red;stroke-width:1px;stroke-linecap:butt;stroke-linejoin:miter;stroke-opacity:1" d="M 568.762,77.3457 550.425,81.0129 z" id="boundary" inkscape:connector-curvature="0" />
	<path style="fill:none;stroke:red;stroke-width:1px;stroke-linecap:butt;stroke-linejoin:miter;stroke-opacity:1" d="M 616.436,59.0092 605.434,73.6784 z" id="boundary" inkscape:connector-curvature="0" />
	<path style="fill:none;stroke:red;stroke-width:1px;stroke-linecap:butt;stroke-linejoin:miter;stroke-opacity:1" d="M 587.098,77.3457 605.434,73.6784 z" id="boundary" inkscape:connector-curvature="0" />
	<path style="fill:none;stroke:red;stroke-width:1px;stroke-linecap:butt;stroke-linejoin:miter;stroke-opacity:1" d="M 587.098,77.3457 568.762,77.3457 z" id="boundary" inkscape:connector-curvature="0" />
	<path style="fill:none;stroke:red;stroke-width:1px;stroke-linecap:butt;stroke-linejoin:miter;stroke-opacity:1" d="M 689.782,4 675.113,18.6691 z" id="boundary" inkscape:connector-curvature="0" />
	<path style="fill:none;stroke:red;stroke-width:1px;stroke-linecap:butt;stroke-linejoin:miter;stroke-opacity:1" d="M 719.12,18.6691 708.118,4 z" id="boundary" inkscape:connector-curvature="0" />
	<path style="fill:none;stroke:red;stroke-width:1px;stroke-linecap:butt;stroke-linejoin:miter;stroke-opacity:1" d="M 689.782,4 708.118,4 z" id="boundary" inkscape:connector-curvature="0" />
	<path style="fill:none;stroke:red;stroke-width:1px;stroke-linecap:butt;stroke-linejoin:miter;stroke-opacity:1" d="M 728.288,35.1719 719.12,18.6691 z" id="boundary" inkscape:connector-curvature="0" />
	<path style="fill:none;stroke:red;stroke-width:1px;stroke-linecap:butt;stroke-linejoin:miter;stroke-opacity:1" d="M 667.778,40.6728 675.113,18.6691 z" id="boundary" inkscape:connector-curvature="0" />
	<path style="fill:none;stroke:red;stroke-width:1px;stroke-linecap:butt;stroke-linejoin:miter;stroke-opacity:1" d="M 746.625,40.6728 764.961,48.0074 z" id="boundary" inkscape:connector-curvature="0" />
	<path style="fill:none;stroke:red;stroke-width:1px;stroke-linecap:butt;stroke-linejoin:miter;stroke-opacity:1" d="M 764.961,48.0074 783.298,55.342 z" id="boundary" inkscape:connector-curvature="0" />
	<path style="fill:none;stroke:red;stroke-width:1px;stroke-linecap:butt;stroke-linejoin:miter;stroke-opacity:1" d="M 728.288,35.1719 746.625,40.6728 z" id="boundary" inkscape:connector-curvature="0" />
	<path style="fill:none;stroke:red;stroke-width:1px;stroke-linecap:butt;stroke-linejoin:miter;stroke-opacity:1" d="M 783.298,55.342 794.299,70.0111 z" id="boundary" inkscape:connector-curvature="0" />
	<path style="fill:none;stroke:red;stroke-width:1px;stroke-linecap:butt;stroke-linejoin:miter;stroke-opacity:1" d="M 922.654,95.6821 904.318,92.0148 z" id="boundary" inkscape:connector-curvature="0" />
	<path style="fill:none;stroke:red;stroke-width:1px;stroke-linecap:butt;stroke-linejoin:miter;stroke-opacity:1" d="M 812.636,73.6784 794.299,70.0111 z" id="boundary" inkscape:connector-curvature="0" />
	<path style="fill:none;stroke:red;stroke-width:1px;stroke-linecap:butt;stroke-linejoin:miter;stroke-opacity:1" d="M 830.972,77.3457 849.309,81.0129 z" id="boundary" inkscape:connector-curvature="0" />
	<path style="fill:none;stroke:red;stroke-width:1px;stroke-linecap:butt;stroke-linejoin:miter;stroke-opacity:1" d="M 830.972,77.3457 812.636,73.6784 z" id="boundary" inkscape:connector-curvature="0" />
	<path style="fill:none;stroke:red;stroke-width:1px;stroke-linecap:butt;stroke-linejoin:miter;stroke-opacity:1" d="M 867.645,84.6802 885.982,88.3475 z" id="boundary" inkscape:connector-curvature="0" />
	<path style="fill:none;stroke:red;stroke-width:1px;stroke-linecap:butt;stroke-linejoin:miter;stroke-opacity:1" d="M 885.982,88.3475 904.318,92.0148 z" id="boundary" inkscape:connector-curvature="0" />
	<path style="fill:none;stroke:red;stroke-width:1px;stroke-linecap:butt;stroke-linejoin:miter;stroke-opacity:1" d="M 849.309,81.0129 867.645,84.6802 z" id="boundary" inkscape:connector-curvature="0" />
	<path style="fill:none;stroke:red;stroke-width:1px;stroke-linecap:butt;stroke-linejoin:miter;stroke-opacity:1" d="M 940.991,103.017 922.654,95.6821 z" id="boundary" inkscape:connector-curvature="0" />
	<path style="fill:none;stroke:red;stroke-width:1px;stroke-linecap:butt;stroke-linejoin:miter;stroke-opacity:1" d="M 957.494,112.185 940.991,103.017 z" id="boundary" inkscape:connector-curvature="0" />
	<path style="fill:none;stroke:red;stroke-width:1px;stroke-linecap:butt;stroke-linejoin:miter;stroke-opacity:1" d="M 973.996,121.353 990.499,130.521 z" id="boundary" inkscape:connector-curvature="0" />
	<path style="fill:none;stroke:red;stroke-width:1px;stroke-linecap:butt;stroke-linejoin:miter;stroke-opacity:1" d="M 990.499,130.521 996,148.858 z" id="boundary" inkscape:connector-curvature="0" />
	<path style="fill:none;stroke:red;stroke-width:1px;stroke-linecap:butt;stroke-linejoin:miter;stroke-opacity:1" d="M 957.494,112.185 973.996,121.353 z" id="boundary" inkscape:connector-curvature="0" />
	<path style="fill:none;stroke:red;stroke-width:1px;stroke-linecap:butt;stroke-linejoin:miter;stroke-opacity:1" d="M 996,148.858 984.998,172.695 z" id="boundary" inkscape:connector-curvature="0" />
	<path style="fill:none;stroke:red;stroke-width:1px;stroke-linecap:butt;stroke-linejoin:miter;stroke-opacity:1" d="M 981.331,209.368 981.331,191.031 z" id="boundary" inkscape:connector-curvature="0" />
	<path style="fill:none;stroke:red;stroke-width:1px;stroke-linecap:butt;stroke-linejoin:miter;stroke-opacity:1" d="M 981.331,209.368 981.331,227.704 z" id="boundary" inkscape:connector-curvature="0" />
	<path style="fill:none;stroke:red;stroke-width:1px;stroke-linecap:butt;stroke-linejoin:miter;stroke-opacity:1" d="M 981.331,227.704 981.331,246.041 z" id="boundary" inkscape:connector-curvature="0" />
	<path style="fill:none;stroke:red;stroke-width:1px;stroke-linecap:butt;stroke-linejoin:miter;stroke-opacity:1" d="M 981.331,191.031 984.998,172.695 z" id="boundary" inkscape:connector-curvature="0" />
	<path style="fill:none;stroke:red;stroke-width:1px;stroke-linecap:butt;stroke-linejoin:miter;stroke-opacity:1" d="M 981.331,282.713 981.331,264.377 z" id="boundary" inkscape:connector-curvature="0" />
	<path style="fill:none;stroke:red;stroke-width:1px;stroke-linecap:butt;stroke-linejoin:miter;stroke-opacity:1" d="M 984.998,319.386 981.331,301.05 z" id="boundary" inkscape:connector-curvature="0" />
	<path style="fill:none;stroke:red;stroke-width:1px;stroke-linecap:butt;stroke-linejoin:miter;stroke-opacity:1" d="M 981.331,301.05 981.331,282.713 z" id="boundary" inkscape:connector-curvature="0" />
	<path style="fill:none;stroke:red;stroke-width:1px;stroke-linecap:butt;stroke-linejoin:miter;stroke-opacity:1" d="M 981.331,264.377 981.331,246.041 z" id="boundary" inkscape:connector-curvature="0" />
	<path style="fill:none;stroke:red;stroke-width:1px;stroke-linecap:butt;stroke-linejoin:miter;stroke-opacity:1" d="M 665.945,493.582 647.608,495.416 z" id="boundary" inkscape:connector-curvature="0" />
	<path style="fill:none;stroke:red;stroke-width:1px;stroke-linecap:butt;stroke-linejoin:miter;stroke-opacity:1" d="M 598.1,500.917 579.763,500.917 z" id="boundary" inkscape:connector-curvature="0" />
	<path style="fill:none;stroke:red;stroke-width:1px;stroke-linecap:butt;stroke-linejoin:miter;stroke-opacity:1" d="M 579.763,500.917 561.427,504.584 z" id="boundary" inkscape:connector-curvature="0" />
	<path style="fill:none;stroke:red;stroke-width:1px;stroke-linecap:butt;stroke-linejoin:miter;stroke-opacity:1" d="M 543.091,510.085 561.427,504.584 z" id="boundary" inkscape:connector-curvature="0" />
	<path style="fill:none;stroke:red;stroke-width:1px;stroke-linecap:butt;stroke-linejoin:miter;stroke-opacity:1" d="M 627.438,517.42 616.436,502.75 z" id="boundary" inkscape:connector-curvature="0" />
	<path style="fill:none;stroke:red;stroke-width:1px;stroke-linecap:butt;stroke-linejoin:miter;stroke-opacity:1" d="M 616.436,502.75 598.1,500.917 z" id="boundary" inkscape:connector-curvature="0" />
	<path style="fill:none;stroke:red;stroke-width:1px;stroke-linecap:butt;stroke-linejoin:miter;stroke-opacity:1" d="M 647.608,495.416 651.275,513.752 z" id="boundary" inkscape:connector-curvature="0" />
	<path style="fill:none;stroke:red;stroke-width:1px;stroke-linecap:butt;stroke-linejoin:miter;stroke-opacity:1" d="M 684.281,493.582 665.945,493.582 z" id="boundary" inkscape:connector-curvature="0" />
	<path style="fill:none;stroke:red;stroke-width:1px;stroke-linecap:butt;stroke-linejoin:miter;stroke-opacity:1" d="M 702.617,493.582 684.281,493.582 z" id="boundary" inkscape:connector-curvature="0" />
	<path style="fill:none;stroke:red;stroke-width:1px;stroke-linecap:butt;stroke-linejoin:miter;stroke-opacity:1" d="M 739.29,493.582 720.954,493.582 z" id="boundary" inkscape:connector-curvature="0" />
	<path style="fill:none;stroke:red;stroke-width:1px;stroke-linecap:butt;stroke-linejoin:miter;stroke-opacity:1" d="M 720.954,493.582 702.617,493.582 z" id="boundary" inkscape:connector-curvature="0" />
	<path style="fill:none;stroke:red;stroke-width:1px;stroke-linecap:butt;stroke-linejoin:miter;stroke-opacity:1" d="M 757.627,493.582 739.29,493.582 z" id="boundary" inkscape:connector-curvature="0" />
	<path style="fill:none;stroke:red;stroke-width:1px;stroke-linecap:butt;stroke-linejoin:miter;stroke-opacity:1" d="M 757.627,493.582 775.963,493.582 z" id="boundary" inkscape:connector-curvature="0" />
	<path style="fill:none;stroke:red;stroke-width:1px;stroke-linecap:butt;stroke-linejoin:miter;stroke-opacity:1" d="M 775.963,493.582 794.299,493.582 z" id="boundary" inkscape:connector-curvature="0" />
	<path style="fill:none;stroke:red;stroke-width:1px;stroke-linecap:butt;stroke-linejoin:miter;stroke-opacity:1" d="M 812.636,493.582 794.299,493.582 z" id="boundary" inkscape:connector-curvature="0" />
	<path style="fill:none;stroke:red;stroke-width:1px;stroke-linecap:butt;stroke-linejoin:miter;stroke-opacity:1" d="M 849.309,493.582 830.972,493.582 z" id="boundary" inkscape:connector-curvature="0" />
	<path style="fill:none;stroke:red;stroke-width:1px;stroke-linecap:butt;stroke-linejoin:miter;stroke-opacity:1" d="M 830.972,493.582 812.636,493.582 z" id="boundary" inkscape:connector-curvature="0" />
	<path style="fill:none;stroke:red;stroke-width:1px;stroke-linecap:butt;stroke-linejoin:miter;stroke-opacity:1" d="M 631.105,535.756 627.438,517.42 z" id="boundary" inkscape:connector-curvature="0" />
	<path style="fill:none;stroke:red;stroke-width:1px;stroke-linecap:butt;stroke-linejoin:miter;stroke-opacity:1" d="M 631.105,535.756 634.773,554.092 z" id="boundary" inkscape:connector-curvature="0" />
	<path style="fill:none;stroke:red;stroke-width:1px;stroke-linecap:butt;stroke-linejoin:miter;stroke-opacity:1" d="M 643.941,570.595 634.773,554.092 z" id="boundary" inkscape:connector-curvature="0" />
	<path style="fill:none;stroke:red;stroke-width:1px;stroke-linecap:butt;stroke-linejoin:miter;stroke-opacity:1" d="M 651.275,513.752 649.442,537.59 z" id="boundary" inkscape:connector-curvature="0" />
	<path style="fill:none;stroke:red;stroke-width:1px;stroke-linecap:butt;stroke-linejoin:miter;stroke-opacity:1" d="M 867.645,493.582 849.309,493.582 z" id="boundary" inkscape:connector-curvature="0" />
	<path style="fill:none;stroke:red;stroke-width:1px;stroke-linecap:butt;stroke-linejoin:miter;stroke-opacity:1" d="M 988.665,356.059 984.998,337.723 z" id="boundary" inkscape:connector-curvature="0" />
	<path style="fill:none;stroke:red;stroke-width:1px;stroke-linecap:butt;stroke-linejoin:miter;stroke-opacity:1" d="M 984.998,337.723 984.998,319.386 z" id="boundary" inkscape:connector-curvature="0" />
	<path style="fill:none;stroke:red;stroke-width:1px;stroke-linecap:butt;stroke-linejoin:miter;stroke-opacity:1" d="M 988.665,356.059 988.665,374.396 z" id="boundary" inkscape:connector-curvature="0" />
	<path style="fill:none;stroke:red;stroke-width:1px;stroke-linecap:butt;stroke-linejoin:miter;stroke-opacity:1" d="M 992.333,392.732 992.333,411.068 z" id="boundary" inkscape:connector-curvature="0" />
	<path style="fill:none;stroke:red;stroke-width:1px;stroke-linecap:butt;stroke-linejoin:miter;stroke-opacity:1" d="M 992.333,392.732 988.665,374.396 z" id="boundary" inkscape:connector-curvature="0" />
	<path style="fill:none;stroke:red;stroke-width:1px;stroke-linecap:butt;stroke-linejoin:miter;stroke-opacity:1" d="M 992.333,411.068 992.333,429.405 z" id="boundary" inkscape:connector-curvature="0" />
	<path style="fill:none;stroke:red;stroke-width:1px;stroke-linecap:butt;stroke-linejoin:miter;stroke-opacity:1" d="M 992.333,447.741 992.333,466.078 z" id="boundary" inkscape:connector-curvature="0" />
	<path style="fill:none;stroke:red;stroke-width:1px;stroke-linecap:butt;stroke-linejoin:miter;stroke-opacity:1" d="M 992.333,447.741 992.333,429.405 z" id="boundary" inkscape:connector-curvature="0" />
	<path style="fill:none;stroke:red;stroke-width:1px;stroke-linecap:butt;stroke-linejoin:miter;stroke-opacity:1" d="M 992.333,466.078 992.333,484.414 z" id="boundary" inkscape:connector-curvature="0" />
	<path style="fill:none;stroke:red;stroke-width:1px;stroke-linecap:butt;stroke-linejoin:miter;stroke-opacity:1" d="M 867.645,493.582 885.982,493.582 z" id="boundary" inkscape:connector-curvature="0" />
	<path style="fill:none;stroke:red;stroke-width:1px;stroke-linecap:butt;stroke-linejoin:miter;stroke-opacity:1" d="M 904.318,493.582 885.982,493.582 z" id="boundary" inkscape:connector-curvature="0" />
	<path style="fill:none;stroke:red;stroke-width:1px;stroke-linecap:butt;stroke-linejoin:miter;stroke-opacity:1" d="M 922.654,493.582 940.991,493.582 z" id="boundary" inkscape:connector-curvature="0" />
	<path style="fill:none;stroke:red;stroke-width:1px;stroke-linecap:butt;stroke-linejoin:miter;stroke-opacity:1" d="M 940.991,493.582 959.327,493.582 z" id="boundary" inkscape:connector-curvature="0" />
	<path style="fill:none;stroke:red;stroke-width:1px;stroke-linecap:butt;stroke-linejoin:miter;stroke-opacity:1" d="M 904.318,493.582 922.654,493.582 z" id="boundary" inkscape:connector-curvature="0" />
	<path style="fill:none;stroke:red;stroke-width:1px;stroke-linecap:butt;stroke-linejoin:miter;stroke-opacity:1" d="M 968.495,524.754 972.163,543.091 z" id="boundary" inkscape:connector-curvature="0" />
	<path style="fill:none;stroke:red;stroke-width:1px;stroke-linecap:butt;stroke-linejoin:miter;stroke-opacity:1" d="M 992.333,502.75 992.333,484.414 z" id="boundary" inkscape:connector-curvature="0" />
	<path style="fill:none;stroke:red;stroke-width:1px;stroke-linecap:butt;stroke-linejoin:miter;stroke-opacity:1" d="M 992.333,502.75 988.665,528.421 z" id="boundary" inkscape:connector-curvature="0" />
	<path style="fill:none;stroke:red;stroke-width:1px;stroke-linecap:butt;stroke-linejoin:miter;stroke-opacity:1" d="M 988.665,552.259 972.163,565.094 z" id="boundary" inkscape:connector-curvature="0" />
	<path style="fill:none;stroke:red;stroke-width:1px;stroke-linecap:butt;stroke-linejoin:miter;stroke-opacity:1" d="M 972.163,565.094 972.163,543.091 z" id="boundary" inkscape:connector-curvature="0" />
	<path style="fill:none;stroke:red;stroke-width:1px;stroke-linecap:butt;stroke-linejoin:miter;stroke-opacity:1" d="M 988.665,528.421 988.665,552.259 z" id="boundary" inkscape:connector-curvature="0" />
	<circle cx="4" cy="359.726" r="4" fill="#0" id="circle0"/>
	<circle cx="7.66728" cy="378.063" r="4" fill="#0" id="circle1"/>
	<circle cx="15.0018" cy="345.057" r="4" fill="#0" id="circle2"/>
	<circle cx="15.0018" cy="521.087" r="4" fill="#0" id="circle3"/>
	<circle cx="15.0018" cy="565.094" r="4" fill="#0" id="circle4"/>
	<circle cx="16.8355" cy="539.423" r="4" fill="#0" id="circle5"/>
	<circle cx="22.3364" cy="389.065" r="4" fill="#0" id="circle6"/>
	<circle cx="26.0037" cy="407.401" r="4" fill="#0" id="circle7"/>
	<circle cx="26.0037" cy="425.738" r="4" fill="#0" id="circle8"/>
	<circle cx="26.0037" cy="495.416" r="4" fill="#0" id="circle9"/>
	<circle cx="29.671" cy="334.055" r="4" fill="#0" id="circle10"/>
	<circle cx="29.671" cy="444.074" r="4" fill="#0" id="circle11"/>
	<circle cx="29.671" cy="462.41" r="4" fill="#0" id="circle12"/>
	<circle cx="33.3383" cy="566.928" r="4" fill="#0" id="circle13"/>
	<circle cx="35.1719" cy="521.087" r="4" fill="#0" id="circle14"/>
	<circle cx="35.1719" cy="539.423" r="4" fill="#0" id="circle15"/>
	<circle cx="44.3401" cy="504.584" r="4" fill="#0" id="circle16"/>
	<circle cx="48.0074" cy="326.721" r="4" fill="#0" id="circle17"/>
	<circle cx="62.6765" cy="500.917" r="4" fill="#0" id="circle18"/>
	<circle cx="66.3438" cy="323.054" r="4" fill="#0" id="circle19"/>
	<circle cx="81.0129" cy="500.917" r="4" fill="#0" id="circle20"/>
	<circle cx="84.6802" cy="315.719" r="4" fill="#0" id="circle21"/>
	<circle cx="99.3494" cy="504.584" r="4" fill="#0" id="circle22"/>
	<circle cx="103.017" cy="312.052" r="4" fill="#0" id="circle23"/>
	<circle cx="117.686" cy="511.919" r="4" fill="#0" id="circle24"/>
	<circle cx="121.353" cy="312.052" r="4" fill="#0" id="circle25"/>
	<circle cx="136.022" cy="519.253" r="4" fill="#0" id="circle26"/>
	<circle cx="139.689" cy="304.717" r="4" fill="#0" id="circle27"/>
	<circle cx="150.691" cy="504.584" r="4" fill="#0" id="circle28"/>
	<circle cx="158.026" cy="301.05" r="4" fill="#0" id="circle29"/>
	<circle cx="169.028" cy="497.25" r="4" fill="#0" id="circle30"/>
	<circle cx="176.362" cy="301.05" r="4" fill="#0" id="circle31"/>
	<circle cx="187.364" cy="497.25" r="4" fill="#0" id="circle32"/>
	<circle cx="194.699" cy="297.383" r="4" fill="#0" id="circle33"/>
	<circle cx="205.701" cy="500.917" r="4" fill="#0" id="circle34"/>
	<circle cx="213.035" cy="297.383" r="4" fill="#0" id="circle35"/>
	<circle cx="224.037" cy="506.418" r="4" fill="#0" id="circle36"/>
	<circle cx="231.372" cy="297.383" r="4" fill="#0" id="circle37"/>
	<circle cx="240.54" cy="515.586" r="4" fill="#0" id="circle38"/>
	<circle cx="247.874" cy="288.214" r="4" fill="#0" id="circle39"/>
	<circle cx="258.876" cy="522.921" r="4" fill="#0" id="circle40"/>
	<circle cx="264.377" cy="279.046" r="4" fill="#0" id="circle41"/>
	<circle cx="277.213" cy="526.588" r="4" fill="#0" id="circle42"/>
	<circle cx="282.713" cy="275.379" r="4" fill="#0" id="circle43"/>
	<circle cx="295.549" cy="533.922" r="4" fill="#0" id="circle44"/>
	<circle cx="299.216" cy="266.211" r="4" fill="#0" id="circle45"/>
	<circle cx="313.885" cy="533.922" r="4" fill="#0" id="circle46"/>
	<circle cx="315.719" cy="257.043" r="4" fill="#0" id="circle47"/>
	<circle cx="332.222" cy="537.59" r="4" fill="#0" id="circle48"/>
	<circle cx="334.055" cy="249.708" r="4" fill="#0" id="circle49"/>
	<circle cx="350.558" cy="258.876" r="4" fill="#0" id="circle50"/>
	<circle cx="350.558" cy="533.922" r="4" fill="#0" id="circle51"/>
	<circle cx="368.895" cy="264.377" r="4" fill="#0" id="circle52"/>
	<circle cx="368.895" cy="530.255" r="4" fill="#0" id="circle53"/>
	<circle cx="385.397" cy="273.545" r="4" fill="#0" id="circle54"/>
	<circle cx="387.231" cy="526.588" r="4" fill="#0" id="circle55"/>
	<circle cx="403.734" cy="279.046" r="4" fill="#0" id="circle56"/>
	<circle cx="405.567" cy="521.087" r="4" fill="#0" id="circle57"/>
	<circle cx="414.736" cy="147.024" r="4" fill="#0" id="circle58"/>
	<circle cx="418.403" cy="264.377" r="4" fill="#0" id="circle59"/>
	<circle cx="418.403" cy="535.756" r="4" fill="#0" id="circle60"/>
	<circle cx="418.403" cy="565.094" r="4" fill="#0" id="circle61"/>
	<circle cx="423.904" cy="163.527" r="4" fill="#0" id="circle62"/>
	<circle cx="425.738" cy="128.688" r="4" fill="#0" id="circle63"/>
	<circle cx="433.072" cy="180.03" r="4" fill="#0" id="circle64"/>
	<circle cx="433.072" cy="253.375" r="4" fill="#0" id="circle65"/>
	<circle cx="434.906" cy="524.754" r="4" fill="#0" id="circle66"/>
	<circle cx="434.906" cy="544.924" r="4" fill="#0" id="circle67"/>
	<circle cx="436.739" cy="198.366" r="4" fill="#0" id="circle68"/>
	<circle cx="436.739" cy="216.702" r="4" fill="#0" id="circle69"/>
	<circle cx="436.739" cy="235.039" r="4" fill="#0" id="circle70"/>
	<circle cx="438.573" cy="506.418" r="4" fill="#0" id="circle71"/>
	<circle cx="440.407" cy="117.686" r="4" fill="#0" id="circle72"/>
	<circle cx="456.909" cy="500.917" r="4" fill="#0" id="circle73"/>
	<circle cx="458.743" cy="110.351" r="4" fill="#0" id="circle74"/>
	<circle cx="475.246" cy="497.25" r="4" fill="#0" id="circle75"/>
	<circle cx="477.079" cy="103.017" r="4" fill="#0" id="circle76"/>
	<circle cx="493.582" cy="500.917" r="4" fill="#0" id="circle77"/>
	<circle cx="495.416" cy="95.6821" r="4" fill="#0" id="circle78"/>
	<circle cx="511.919" cy="508.251" r="4" fill="#0" id="circle79"/>
	<circle cx="513.752" cy="92.0148" r="4" fill="#0" id="circle80"/>
	<circle cx="526.588" cy="519.253" r="4" fill="#0" id="circle81"/>
	<circle cx="532.089" cy="84.6802" r="4" fill="#0" id="circle82"/>
	<circle cx="543.091" cy="510.085" r="4" fill="#0" id="circle83"/>
	<circle cx="550.425" cy="81.0129" r="4" fill="#0" id="circle84"/>
	<circle cx="561.427" cy="504.584" r="4" fill="#0" id="circle85"/>
	<circle cx="568.762" cy="77.3457" r="4" fill="#0" id="circle86"/>
	<circle cx="579.763" cy="500.917" r="4" fill="#0" id="circle87"/>
	<circle cx="587.098" cy="77.3457" r="4" fill="#0" id="circle88"/>
	<circle cx="598.1" cy="500.917" r="4" fill="#0" id="circle89"/>
	<circle cx="605.434" cy="73.6784" r="4" fill="#0" id="circle90"/>
	<circle cx="616.436" cy="59.0092" r="4" fill="#0" id="circle91"/>
	<circle cx="616.436" cy="502.75" r="4" fill="#0" id="circle92"/>
	<circle cx="627.438" cy="517.42" r="4" fill="#0" id="circle93"/>
	<circle cx="631.105" cy="48.0074" r="4" fill="#0" id="circle94"/>
	<circle cx="631.105" cy="535.756" r="4" fill="#0" id="circle95"/>
	<circle cx="634.773" cy="554.092" r="4" fill="#0" id="circle96"/>
	<circle cx="643.941" cy="570.595" r="4" fill="#0" id="circle97"/>
	<circle cx="647.608" cy="495.416" r="4" fill="#0" id="circle98"/>
	<circle cx="649.442" cy="44.3401" r="4" fill="#0" id="circle99"/>
	<circle cx="649.442" cy="537.59" r="4" fill="#0" id="circle100"/>
	<circle cx="651.275" cy="513.752" r="4" fill="#0" id="circle101"/>
	<circle cx="665.945" cy="493.582" r="4" fill="#0" id="circle102"/>
	<circle cx="667.778" cy="40.6728" r="4" fill="#0" id="circle103"/>
	<circle cx="675.113" cy="18.6691" r="4" fill="#0" id="circle104"/>
	<circle cx="684.281" cy="493.582" r="4" fill="#0" id="circle105"/>
	<circle cx="689.782" cy="4" r="4" fill="#0" id="circle106"/>
	<circle cx="702.617" cy="493.582" r="4" fill="#0" id="circle107"/>
	<circle cx="708.118" cy="4" r="4" fill="#0" id="circle108"/>
	<circle cx="719.12" cy="18.6691" r="4" fill="#0" id="circle109"/>
	<circle cx="720.954" cy="493.582" r="4" fill="#0" id="circle110"/>
	<circle cx="728.288" cy="35.1719" r="4" fill="#0" id="circle111"/>
	<circle cx="739.29" cy="493.582" r="4" fill="#0" id="circle112"/>
	<circle cx="746.625" cy="40.6728" r="4" fill="#0" id="circle113"/>
	<circle cx="757.627" cy="493.582" r="4" fill="#0" id="circle114"/>
	<circle cx="764.961" cy="48.0074" r="4" fill="#0" id="circle115"/>
	<circle cx="775.963" cy="493.582" r="4" fill="#0" id="circle116"/>
	<circle cx="783.298" cy="55.342" r="4" fill="#0" id="circle117"/>
	<circle cx="794.299" cy="70.0111" r="4" fill="#0" id="circle118"/>
	<circle cx="794.299" cy="493.582" r="4" fill="#0" id="circle119"/>
	<circle cx="812.636" cy="73.6784" r="4" fill="#0" id="circle120"/>
	<circle cx="812.636" cy="493.582" r="4" fill="#0" id="circle121"/>
	<circle cx="830.972" cy="77.3457" r="4" fill="#0" id="circle122"/>
	<circle cx="830.972" cy="493.582" r="4" fill="#0" id="circle123"/>
	<circle cx="849.309" cy="81.0129" r="4" fill="#0" id="circle124"/>
	<circle cx="849.309" cy="493.582" r="4" fill="#0" id="circle125"/>
	<circle cx="867.645" cy="84.6802" r="4" fill="#0" id="circle126"/>
	<circle cx="867.645" cy="493.582" r="4" fill="#0" id="circle127"/>
	<circle cx="885.982" cy="88.3475" r="4" fill="#0" id="circle128"/>
	<circle cx="885.982" cy="493.582" r="4" fill="#0" id="circle129"/>
	<circle cx="904.318" cy="92.0148" r="4" fill="#0" id="circle130"/>
	<circle cx="904.318" cy="493.582" r="4" fill="#0" id="circle131"/>
	<circle cx="922.654" cy="95.6821" r="4" fill="#0" id="circle132"/>
	<circle cx="922.654" cy="493.582" r="4" fill="#0" id="circle133"/>
	<circle cx="940.991" cy="103.017" r="4" fill="#0" id="circle134"/>
	<circle cx="940.991" cy="493.582" r="4" fill="#0" id="circle135"/>
	<circle cx="957.494" cy="112.185" r="4" fill="#0" id="circle136"/>
	<circle cx="959.327" cy="493.582" r="4" fill="#0" id="circle137"/>
	<circle cx="968.495" cy="524.754" r="4" fill="#0" id="circle138"/>
	<circle cx="972.163" cy="543.091" r="4" fill="#0" id="circle139"/>
	<circle cx="972.163" cy="565.094" r="4" fill="#0" id="circle140"/>
	<circle cx="973.996" cy="121.353" r="4" fill="#0" id="circle141"/>
	<circle cx="981.331" cy="191.031" r="4" fill="#0" id="circle142"/>
	<circle cx="981.331" cy="209.368" r="4" fill="#0" id="circle143"/>
	<circle cx="981.331" cy="227.704" r="4" fill="#0" id="circle144"/>
	<circle cx="981.331" cy="246.041" r="4" fill="#0" id="circle145"/>
	<circle cx="981.331" cy="264.377" r="4" fill="#0" id="circle146"/>
	<circle cx="981.331" cy="282.713" r="4" fill="#0" id="circle147"/>
	<circle cx="981.331" cy="301.05" r="4" fill="#0" id="circle148"/>
	<circle cx="984.998" cy="172.695" r="4" fill="#0" id="circle149"/>
	<circle cx="984.998" cy="319.386" r="4" fill="#0" id="circle150"/>
	<circle cx="984.998" cy="337.723" r="4" fill="#0" id="circle151"/>
	<circle cx="988.665" cy="356.059" r="4" fill="#0" id="circle152"/>
	<circle cx="988.665" cy="374.396" r="4" fill="#0" id="circle153"/>
	<circle cx="988.665" cy="528.421" r="4" fill="#0" id="circle154"/>
	<circle cx="988.665" cy="552.259" r="4" fill="#0" id="circle155"/>
	<circle cx="990.499" cy="130.521" r="4" fill="#0" id="circle156"/>
	<circle cx="992.333" cy="392.732" r="4" fill="#0" id="circle157"/>
	<circle cx="992.333" cy="411.068" r="4" fill="#0" id="circle158"/>
	<circle cx="992.333" cy="429.405" r="4" fill="#0" id="circle159"/>
	<circle cx="992.333" cy="447.741" r="4" fill="#0" id="circle160"/>
	<circle cx="992.333" cy="466.078" r="4" fill="#0" id="circle161"/>
	<circle cx="992.333" cy="484.414" r="4" fill="#0" id="circle162"/>
	<circle cx="992.333" cy="502.75" r="4" fill="#0" id="circle163"/>
	<circle cx="996" cy="148.858" r="4" fill="#0" id="circle164"/>
	</g>
</svg>