<?xml version="1.0" encoding="UTF-8" standalone="no"?>
<!-- Created with CurveBenchmark -->
<svg
	xmlns:dc="http://purl.org/dc/elements/1.1/"
	xmlns:cc="http://creativecommons.org/ns#"
	xmlns:rdf="http://www.w3.org/1999/02/22-rdf-syntax-ns#"
	xmlns:svg="http://www.w3.org/2000/svg"
	xmlns="http://www.w3.org/2000/svg"
	xmlns:sodipodi="http://sodipodi.sourceforge.net/DTD/sodipodi-0.dtd"
	xmlns:inkscape="http://www.inkscape.org/namespaces/inkscape"
	width="1000"
	height="1000"
	id="svg2"
	version="1.1"
	sodipodi:docname="manifold/crust-dude8.png.txt">
<defs
	id="defs4" />
<metadata
	id="metadata7">
	<rdf:RDF>
		<cc:Work
			rdf:about="">
			<dc:format>image/svg+xml</dc:format>
			<dc:type
				rdf:resource="http://purl.org/dc/dcmitype/StillImage" />
			<dc:title></dc:title>
		</cc:Work>
	</rdf:RDF>
</metadata>
<g
	inkscape:label="Layer 1"
	inkscape:groupmode="layer"
	id="layer1">
	<path style="fill:none;stroke:red;stroke-width:1px;stroke-linecap:butt;stroke-linejoin:miter;stroke-opacity:1" d="M 153.408,233.324 144.722,250.697 z" id="boundary" inkscape:connector-curvature="0" />
	<path style="fill:none;stroke:red;stroke-width:1px;stroke-linecap:butt;stroke-linejoin:miter;stroke-opacity:1" d="M 109.975,294.13 101.289,311.503 z" id="boundary" inkscape:connector-curvature="0" />
	<path style="fill:none;stroke:red;stroke-width:1px;stroke-linecap:butt;stroke-linejoin:miter;stroke-opacity:1" d="M 101.289,311.503 87.3905,325.401 z" id="boundary" inkscape:connector-curvature="0" />
	<path style="fill:none;stroke:red;stroke-width:1px;stroke-linecap:butt;stroke-linejoin:miter;stroke-opacity:1" d="M 123.874,281.968 109.975,294.13 z" id="boundary" inkscape:connector-curvature="0" />
	<path style="fill:none;stroke:red;stroke-width:1px;stroke-linecap:butt;stroke-linejoin:miter;stroke-opacity:1" d="M 123.874,281.968 130.823,264.595 z" id="boundary" inkscape:connector-curvature="0" />
	<path style="fill:none;stroke:red;stroke-width:1px;stroke-linecap:butt;stroke-linejoin:miter;stroke-opacity:1" d="M 130.823,264.595 144.722,250.697 z" id="boundary" inkscape:connector-curvature="0" />
	<path style="fill:none;stroke:red;stroke-width:1px;stroke-linecap:butt;stroke-linejoin:miter;stroke-opacity:1" d="M 191.629,195.103 175.993,203.79 z" id="boundary" inkscape:connector-curvature="0" />
	<path style="fill:none;stroke:red;stroke-width:1px;stroke-linecap:butt;stroke-linejoin:miter;stroke-opacity:1" d="M 153.408,233.324 162.095,215.951 z" id="boundary" inkscape:connector-curvature="0" />
	<path style="fill:none;stroke:red;stroke-width:1px;stroke-linecap:butt;stroke-linejoin:miter;stroke-opacity:1" d="M 162.095,215.951 175.993,203.79 z" id="boundary" inkscape:connector-curvature="0" />
	<path style="fill:none;stroke:red;stroke-width:1px;stroke-linecap:butt;stroke-linejoin:miter;stroke-opacity:1" d="M 191.629,195.103 205.527,181.205 z" id="boundary" inkscape:connector-curvature="0" />
	<path style="fill:none;stroke:red;stroke-width:1px;stroke-linecap:butt;stroke-linejoin:miter;stroke-opacity:1" d="M 219.426,169.044 205.527,181.205 z" id="boundary" inkscape:connector-curvature="0" />
	<path style="fill:none;stroke:red;stroke-width:1px;stroke-linecap:butt;stroke-linejoin:miter;stroke-opacity:1" d="M 210.739,288.918 193.366,297.604 z" id="boundary" inkscape:connector-curvature="0" />
	<path style="fill:none;stroke:red;stroke-width:1px;stroke-linecap:butt;stroke-linejoin:miter;stroke-opacity:1" d="M 222.9,275.019 210.739,288.918 z" id="boundary" inkscape:connector-curvature="0" />
	<path style="fill:none;stroke:red;stroke-width:1px;stroke-linecap:butt;stroke-linejoin:miter;stroke-opacity:1" d="M 391.419,4 374.046,4 z" id="boundary" inkscape:connector-curvature="0" />
	<path style="fill:none;stroke:red;stroke-width:1px;stroke-linecap:butt;stroke-linejoin:miter;stroke-opacity:1" d="M 193.366,297.604 184.68,314.977 z" id="boundary" inkscape:connector-curvature="0" />
	<path style="fill:none;stroke:red;stroke-width:1px;stroke-linecap:butt;stroke-linejoin:miter;stroke-opacity:1" d="M 78.704,342.774 64.8056,356.673 z" id="boundary" inkscape:connector-curvature="0" />
	<path style="fill:none;stroke:red;stroke-width:1px;stroke-linecap:butt;stroke-linejoin:miter;stroke-opacity:1" d="M 56.1191,374.046 64.8056,356.673 z" id="boundary" inkscape:connector-curvature="0" />
	<path style="fill:none;stroke:red;stroke-width:1px;stroke-linecap:butt;stroke-linejoin:miter;stroke-opacity:1" d="M 78.704,342.774 87.3905,325.401 z" id="boundary" inkscape:connector-curvature="0" />
	<path style="fill:none;stroke:red;stroke-width:1px;stroke-linecap:butt;stroke-linejoin:miter;stroke-opacity:1" d="M 132.56,367.096 115.187,375.783 z" id="boundary" inkscape:connector-curvature="0" />
	<path style="fill:none;stroke:red;stroke-width:1px;stroke-linecap:butt;stroke-linejoin:miter;stroke-opacity:1" d="M 61.331,403.58 47.4326,391.419 z" id="boundary" inkscape:connector-curvature="0" />
	<path style="fill:none;stroke:red;stroke-width:1px;stroke-linecap:butt;stroke-linejoin:miter;stroke-opacity:1" d="M 75.2294,414.004 61.331,403.58 z" id="boundary" inkscape:connector-curvature="0" />
	<path style="fill:none;stroke:red;stroke-width:1px;stroke-linecap:butt;stroke-linejoin:miter;stroke-opacity:1" d="M 47.4326,391.419 56.1191,374.046 z" id="boundary" inkscape:connector-curvature="0" />
	<path style="fill:none;stroke:red;stroke-width:1px;stroke-linecap:butt;stroke-linejoin:miter;stroke-opacity:1" d="M 115.187,375.783 101.289,387.944 z" id="boundary" inkscape:connector-curvature="0" />
	<path style="fill:none;stroke:red;stroke-width:1px;stroke-linecap:butt;stroke-linejoin:miter;stroke-opacity:1" d="M 89.1278,401.842 75.2294,414.004 z" id="boundary" inkscape:connector-curvature="0" />
	<path style="fill:none;stroke:red;stroke-width:1px;stroke-linecap:butt;stroke-linejoin:miter;stroke-opacity:1" d="M 101.289,387.944 89.1278,401.842 z" id="boundary" inkscape:connector-curvature="0" />
	<path style="fill:none;stroke:red;stroke-width:1px;stroke-linecap:butt;stroke-linejoin:miter;stroke-opacity:1" d="M 132.56,367.096 144.722,353.198 z" id="boundary" inkscape:connector-curvature="0" />
	<path style="fill:none;stroke:red;stroke-width:1px;stroke-linecap:butt;stroke-linejoin:miter;stroke-opacity:1" d="M 158.62,341.037 144.722,353.198 z" id="boundary" inkscape:connector-curvature="0" />
	<path style="fill:none;stroke:red;stroke-width:1px;stroke-linecap:butt;stroke-linejoin:miter;stroke-opacity:1" d="M 170.781,327.138 184.68,314.977 z" id="boundary" inkscape:connector-curvature="0" />
	<path style="fill:none;stroke:red;stroke-width:1px;stroke-linecap:butt;stroke-linejoin:miter;stroke-opacity:1" d="M 158.62,341.037 170.781,327.138 z" id="boundary" inkscape:connector-curvature="0" />
	<path style="fill:none;stroke:red;stroke-width:1px;stroke-linecap:butt;stroke-linejoin:miter;stroke-opacity:1" d="M 308.028,87.3905 308.028,70.0175 z" id="boundary" inkscape:connector-curvature="0" />
	<path style="fill:none;stroke:red;stroke-width:1px;stroke-linecap:butt;stroke-linejoin:miter;stroke-opacity:1" d="M 308.028,87.3905 308.028,104.764 z" id="boundary" inkscape:connector-curvature="0" />
	<path style="fill:none;stroke:red;stroke-width:1px;stroke-linecap:butt;stroke-linejoin:miter;stroke-opacity:1" d="M 316.715,137.772 304.553,151.671 z" id="boundary" inkscape:connector-curvature="0" />
	<path style="fill:none;stroke:red;stroke-width:1px;stroke-linecap:butt;stroke-linejoin:miter;stroke-opacity:1" d="M 308.028,104.764 316.715,120.399 z" id="boundary" inkscape:connector-curvature="0" />
	<path style="fill:none;stroke:red;stroke-width:1px;stroke-linecap:butt;stroke-linejoin:miter;stroke-opacity:1" d="M 316.715,52.6445 308.028,70.0175 z" id="boundary" inkscape:connector-curvature="0" />
	<path style="fill:none;stroke:red;stroke-width:1px;stroke-linecap:butt;stroke-linejoin:miter;stroke-opacity:1" d="M 252.434,160.357 236.799,169.044 z" id="boundary" inkscape:connector-curvature="0" />
	<path style="fill:none;stroke:red;stroke-width:1px;stroke-linecap:butt;stroke-linejoin:miter;stroke-opacity:1" d="M 219.426,169.044 236.799,169.044 z" id="boundary" inkscape:connector-curvature="0" />
	<path style="fill:none;stroke:red;stroke-width:1px;stroke-linecap:butt;stroke-linejoin:miter;stroke-opacity:1" d="M 287.18,160.357 269.807,160.357 z" id="boundary" inkscape:connector-curvature="0" />
	<path style="fill:none;stroke:red;stroke-width:1px;stroke-linecap:butt;stroke-linejoin:miter;stroke-opacity:1" d="M 269.807,160.357 252.434,160.357 z" id="boundary" inkscape:connector-curvature="0" />
	<path style="fill:none;stroke:red;stroke-width:1px;stroke-linecap:butt;stroke-linejoin:miter;stroke-opacity:1" d="M 287.18,160.357 304.553,151.671 z" id="boundary" inkscape:connector-curvature="0" />
	<path style="fill:none;stroke:red;stroke-width:1px;stroke-linecap:butt;stroke-linejoin:miter;stroke-opacity:1" d="M 330.613,38.7461 344.511,24.8476 z" id="boundary" inkscape:connector-curvature="0" />
	<path style="fill:none;stroke:red;stroke-width:1px;stroke-linecap:butt;stroke-linejoin:miter;stroke-opacity:1" d="M 344.511,24.8476 358.41,12.6865 z" id="boundary" inkscape:connector-curvature="0" />
	<path style="fill:none;stroke:red;stroke-width:1px;stroke-linecap:butt;stroke-linejoin:miter;stroke-opacity:1" d="M 330.613,38.7461 316.715,52.6445 z" id="boundary" inkscape:connector-curvature="0" />
	<path style="fill:none;stroke:red;stroke-width:1px;stroke-linecap:butt;stroke-linejoin:miter;stroke-opacity:1" d="M 358.41,12.6865 374.046,4 z" id="boundary" inkscape:connector-curvature="0" />
	<path style="fill:none;stroke:red;stroke-width:1px;stroke-linecap:butt;stroke-linejoin:miter;stroke-opacity:1" d="M 316.715,137.772 316.715,120.399 z" id="boundary" inkscape:connector-curvature="0" />
	<path style="fill:none;stroke:red;stroke-width:1px;stroke-linecap:butt;stroke-linejoin:miter;stroke-opacity:1" d="M 222.9,275.019 240.273,275.019 z" id="boundary" inkscape:connector-curvature="0" />
	<path style="fill:none;stroke:red;stroke-width:1px;stroke-linecap:butt;stroke-linejoin:miter;stroke-opacity:1" d="M 255.909,283.706 264.595,299.342 z" id="boundary" inkscape:connector-curvature="0" />
	<path style="fill:none;stroke:red;stroke-width:1px;stroke-linecap:butt;stroke-linejoin:miter;stroke-opacity:1" d="M 255.909,283.706 240.273,275.019 z" id="boundary" inkscape:connector-curvature="0" />
	<path style="fill:none;stroke:red;stroke-width:1px;stroke-linecap:butt;stroke-linejoin:miter;stroke-opacity:1" d="M 264.595,316.715 264.595,299.342 z" id="boundary" inkscape:connector-curvature="0" />
	<path style="fill:none;stroke:red;stroke-width:1px;stroke-linecap:butt;stroke-linejoin:miter;stroke-opacity:1" d="M 273.282,332.35 275.019,349.723 z" id="boundary" inkscape:connector-curvature="0" />
	<path style="fill:none;stroke:red;stroke-width:1px;stroke-linecap:butt;stroke-linejoin:miter;stroke-opacity:1" d="M 273.282,332.35 264.595,316.715 z" id="boundary" inkscape:connector-curvature="0" />
	<path style="fill:none;stroke:red;stroke-width:1px;stroke-linecap:butt;stroke-linejoin:miter;stroke-opacity:1" d="M 281.968,367.096 275.019,349.723 z" id="boundary" inkscape:connector-curvature="0" />
	<path style="fill:none;stroke:red;stroke-width:1px;stroke-linecap:butt;stroke-linejoin:miter;stroke-opacity:1" d="M 281.968,367.096 290.655,382.732 z" id="boundary" inkscape:connector-curvature="0" />
	<path style="fill:none;stroke:red;stroke-width:1px;stroke-linecap:butt;stroke-linejoin:miter;stroke-opacity:1" d="M 290.655,382.732 290.655,400.105 z" id="boundary" inkscape:connector-curvature="0" />
	<path style="fill:none;stroke:red;stroke-width:1px;stroke-linecap:butt;stroke-linejoin:miter;stroke-opacity:1" d="M 299.342,415.741 290.655,400.105 z" id="boundary" inkscape:connector-curvature="0" />
	<path style="fill:none;stroke:red;stroke-width:1px;stroke-linecap:butt;stroke-linejoin:miter;stroke-opacity:1" d="M 308.028,448.75 299.342,433.114 z" id="boundary" inkscape:connector-curvature="0" />
	<path style="fill:none;stroke:red;stroke-width:1px;stroke-linecap:butt;stroke-linejoin:miter;stroke-opacity:1" d="M 299.342,433.114 299.342,415.741 z" id="boundary" inkscape:connector-curvature="0" />
	<path style="fill:none;stroke:red;stroke-width:1px;stroke-linecap:butt;stroke-linejoin:miter;stroke-opacity:1" d="M 308.028,448.75 308.028,466.123 z" id="boundary" inkscape:connector-curvature="0" />
	<path style="fill:none;stroke:red;stroke-width:1px;stroke-linecap:butt;stroke-linejoin:miter;stroke-opacity:1" d="M 308.028,483.496 308.028,466.123 z" id="boundary" inkscape:connector-curvature="0" />
	<path style="fill:none;stroke:red;stroke-width:1px;stroke-linecap:butt;stroke-linejoin:miter;stroke-opacity:1" d="M 308.028,500.869 308.028,483.496 z" id="boundary" inkscape:connector-curvature="0" />
	<path style="fill:none;stroke:red;stroke-width:1px;stroke-linecap:butt;stroke-linejoin:miter;stroke-opacity:1" d="M 106.501,733.667 92.6025,745.828 z" id="boundary" inkscape:connector-curvature="0" />
	<path style="fill:none;stroke:red;stroke-width:1px;stroke-linecap:butt;stroke-linejoin:miter;stroke-opacity:1" d="M 118.662,719.769 106.501,733.667 z" id="boundary" inkscape:connector-curvature="0" />
	<path style="fill:none;stroke:red;stroke-width:1px;stroke-linecap:butt;stroke-linejoin:miter;stroke-opacity:1" d="M 132.56,707.608 118.662,719.769 z" id="boundary" inkscape:connector-curvature="0" />
	<path style="fill:none;stroke:red;stroke-width:1px;stroke-linecap:butt;stroke-linejoin:miter;stroke-opacity:1" d="M 92.6025,745.828 80.4413,759.727 z" id="boundary" inkscape:connector-curvature="0" />
	<path style="fill:none;stroke:red;stroke-width:1px;stroke-linecap:butt;stroke-linejoin:miter;stroke-opacity:1" d="M 158.62,681.548 144.722,693.709 z" id="boundary" inkscape:connector-curvature="0" />
	<path style="fill:none;stroke:red;stroke-width:1px;stroke-linecap:butt;stroke-linejoin:miter;stroke-opacity:1" d="M 170.781,667.65 158.62,681.548 z" id="boundary" inkscape:connector-curvature="0" />
	<path style="fill:none;stroke:red;stroke-width:1px;stroke-linecap:butt;stroke-linejoin:miter;stroke-opacity:1" d="M 144.722,693.709 132.56,707.608 z" id="boundary" inkscape:connector-curvature="0" />
	<path style="fill:none;stroke:red;stroke-width:1px;stroke-linecap:butt;stroke-linejoin:miter;stroke-opacity:1" d="M 184.68,655.489 170.781,667.65 z" id="boundary" inkscape:connector-curvature="0" />
	<path style="fill:none;stroke:red;stroke-width:1px;stroke-linecap:butt;stroke-linejoin:miter;stroke-opacity:1" d="M 205.527,735.405 193.366,749.303 z" id="boundary" inkscape:connector-curvature="0" />
	<path style="fill:none;stroke:red;stroke-width:1px;stroke-linecap:butt;stroke-linejoin:miter;stroke-opacity:1" d="M 193.366,749.303 179.468,761.464 z" id="boundary" inkscape:connector-curvature="0" />
	<path style="fill:none;stroke:red;stroke-width:1px;stroke-linecap:butt;stroke-linejoin:miter;stroke-opacity:1" d="M 196.841,641.59 184.68,655.489 z" id="boundary" inkscape:connector-curvature="0" />
	<path style="fill:none;stroke:red;stroke-width:1px;stroke-linecap:butt;stroke-linejoin:miter;stroke-opacity:1" d="M 38.7461,799.685 26.5849,820.532 z" id="boundary" inkscape:connector-curvature="0" />
	<path style="fill:none;stroke:red;stroke-width:1px;stroke-linecap:butt;stroke-linejoin:miter;stroke-opacity:1" d="M 52.6445,785.786 38.7461,799.685 z" id="boundary" inkscape:connector-curvature="0" />
	<path style="fill:none;stroke:red;stroke-width:1px;stroke-linecap:butt;stroke-linejoin:miter;stroke-opacity:1" d="M 12.6865,834.431 26.5849,820.532 z" id="boundary" inkscape:connector-curvature="0" />
	<path style="fill:none;stroke:red;stroke-width:1px;stroke-linecap:butt;stroke-linejoin:miter;stroke-opacity:1" d="M 12.6865,834.431 4,860.49 z" id="boundary" inkscape:connector-curvature="0" />
	<path style="fill:none;stroke:red;stroke-width:1px;stroke-linecap:butt;stroke-linejoin:miter;stroke-opacity:1" d="M 66.5429,771.888 52.6445,785.786 z" id="boundary" inkscape:connector-curvature="0" />
	<path style="fill:none;stroke:red;stroke-width:1px;stroke-linecap:butt;stroke-linejoin:miter;stroke-opacity:1" d="M 75.2294,839.643 61.331,855.278 z" id="boundary" inkscape:connector-curvature="0" />
	<path style="fill:none;stroke:red;stroke-width:1px;stroke-linecap:butt;stroke-linejoin:miter;stroke-opacity:1" d="M 31.7968,874.389 14.4238,874.389 z" id="boundary" inkscape:connector-curvature="0" />
	<path style="fill:none;stroke:red;stroke-width:1px;stroke-linecap:butt;stroke-linejoin:miter;stroke-opacity:1" d="M 14.4238,874.389 4,860.49 z" id="boundary" inkscape:connector-curvature="0" />
	<path style="fill:none;stroke:red;stroke-width:1px;stroke-linecap:butt;stroke-linejoin:miter;stroke-opacity:1" d="M 47.4326,865.702 31.7968,874.389 z" id="boundary" inkscape:connector-curvature="0" />
	<path style="fill:none;stroke:red;stroke-width:1px;stroke-linecap:butt;stroke-linejoin:miter;stroke-opacity:1" d="M 61.331,855.278 47.4326,865.702 z" id="boundary" inkscape:connector-curvature="0" />
	<path style="fill:none;stroke:red;stroke-width:1px;stroke-linecap:butt;stroke-linejoin:miter;stroke-opacity:1" d="M 179.468,761.464 162.095,770.151 z" id="boundary" inkscape:connector-curvature="0" />
	<path style="fill:none;stroke:red;stroke-width:1px;stroke-linecap:butt;stroke-linejoin:miter;stroke-opacity:1" d="M 162.095,770.151 148.196,785.786 z" id="boundary" inkscape:connector-curvature="0" />
	<path style="fill:none;stroke:red;stroke-width:1px;stroke-linecap:butt;stroke-linejoin:miter;stroke-opacity:1" d="M 148.196,785.786 134.298,796.21 z" id="boundary" inkscape:connector-curvature="0" />
	<path style="fill:none;stroke:red;stroke-width:1px;stroke-linecap:butt;stroke-linejoin:miter;stroke-opacity:1" d="M 92.6025,830.956 75.2294,839.643 z" id="boundary" inkscape:connector-curvature="0" />
	<path style="fill:none;stroke:red;stroke-width:1px;stroke-linecap:butt;stroke-linejoin:miter;stroke-opacity:1" d="M 106.501,818.795 92.6025,830.956 z" id="boundary" inkscape:connector-curvature="0" />
	<path style="fill:none;stroke:red;stroke-width:1px;stroke-linecap:butt;stroke-linejoin:miter;stroke-opacity:1" d="M 123.874,810.109 106.501,818.795 z" id="boundary" inkscape:connector-curvature="0" />
	<path style="fill:none;stroke:red;stroke-width:1px;stroke-linecap:butt;stroke-linejoin:miter;stroke-opacity:1" d="M 123.874,810.109 134.298,796.21 z" id="boundary" inkscape:connector-curvature="0" />
	<path style="fill:none;stroke:red;stroke-width:1px;stroke-linecap:butt;stroke-linejoin:miter;stroke-opacity:1" d="M 66.5429,771.888 80.4413,759.727 z" id="boundary" inkscape:connector-curvature="0" />
	<path style="fill:none;stroke:red;stroke-width:1px;stroke-linecap:butt;stroke-linejoin:miter;stroke-opacity:1" d="M 248.96,589.471 236.799,603.37 z" id="boundary" inkscape:connector-curvature="0" />
	<path style="fill:none;stroke:red;stroke-width:1px;stroke-linecap:butt;stroke-linejoin:miter;stroke-opacity:1" d="M 262.858,577.31 248.96,589.471 z" id="boundary" inkscape:connector-curvature="0" />
	<path style="fill:none;stroke:red;stroke-width:1px;stroke-linecap:butt;stroke-linejoin:miter;stroke-opacity:1" d="M 236.799,603.37 222.9,615.531 z" id="boundary" inkscape:connector-curvature="0" />
	<path style="fill:none;stroke:red;stroke-width:1px;stroke-linecap:butt;stroke-linejoin:miter;stroke-opacity:1" d="M 283.706,546.039 275.019,563.412 z" id="boundary" inkscape:connector-curvature="0" />
	<path style="fill:none;stroke:red;stroke-width:1px;stroke-linecap:butt;stroke-linejoin:miter;stroke-opacity:1" d="M 297.604,533.877 283.706,546.039 z" id="boundary" inkscape:connector-curvature="0" />
	<path style="fill:none;stroke:red;stroke-width:1px;stroke-linecap:butt;stroke-linejoin:miter;stroke-opacity:1" d="M 275.019,563.412 262.858,577.31 z" id="boundary" inkscape:connector-curvature="0" />
	<path style="fill:none;stroke:red;stroke-width:1px;stroke-linecap:butt;stroke-linejoin:miter;stroke-opacity:1" d="M 210.739,629.429 196.841,641.59 z" id="boundary" inkscape:connector-curvature="0" />
	<path style="fill:none;stroke:red;stroke-width:1px;stroke-linecap:butt;stroke-linejoin:miter;stroke-opacity:1" d="M 210.739,629.429 222.9,615.531 z" id="boundary" inkscape:connector-curvature="0" />
	<path style="fill:none;stroke:red;stroke-width:1px;stroke-linecap:butt;stroke-linejoin:miter;stroke-opacity:1" d="M 308.028,518.242 297.604,533.877 z" id="boundary" inkscape:connector-curvature="0" />
	<path style="fill:none;stroke:red;stroke-width:1px;stroke-linecap:butt;stroke-linejoin:miter;stroke-opacity:1" d="M 308.028,500.869 308.028,518.242 z" id="boundary" inkscape:connector-curvature="0" />
	<path style="fill:none;stroke:red;stroke-width:1px;stroke-linecap:butt;stroke-linejoin:miter;stroke-opacity:1" d="M 379.257,596.42 361.884,605.107 z" id="boundary" inkscape:connector-curvature="0" />
	<path style="fill:none;stroke:red;stroke-width:1px;stroke-linecap:butt;stroke-linejoin:miter;stroke-opacity:1" d="M 332.35,627.692 318.452,639.853 z" id="boundary" inkscape:connector-curvature="0" />
	<path style="fill:none;stroke:red;stroke-width:1px;stroke-linecap:butt;stroke-linejoin:miter;stroke-opacity:1" d="M 306.291,653.751 288.918,662.438 z" id="boundary" inkscape:connector-curvature="0" />
	<path style="fill:none;stroke:red;stroke-width:1px;stroke-linecap:butt;stroke-linejoin:miter;stroke-opacity:1" d="M 318.452,639.853 306.291,653.751 z" id="boundary" inkscape:connector-curvature="0" />
	<path style="fill:none;stroke:red;stroke-width:1px;stroke-linecap:butt;stroke-linejoin:miter;stroke-opacity:1" d="M 349.723,619.005 361.884,605.107 z" id="boundary" inkscape:connector-curvature="0" />
	<path style="fill:none;stroke:red;stroke-width:1px;stroke-linecap:butt;stroke-linejoin:miter;stroke-opacity:1" d="M 332.35,627.692 349.723,619.005 z" id="boundary" inkscape:connector-curvature="0" />
	<path style="fill:none;stroke:red;stroke-width:1px;stroke-linecap:butt;stroke-linejoin:miter;stroke-opacity:1" d="M 379.257,596.42 394.893,605.107 z" id="boundary" inkscape:connector-curvature="0" />
	<path style="fill:none;stroke:red;stroke-width:1px;stroke-linecap:butt;stroke-linejoin:miter;stroke-opacity:1" d="M 288.918,662.438 275.019,674.599 z" id="boundary" inkscape:connector-curvature="0" />
	<path style="fill:none;stroke:red;stroke-width:1px;stroke-linecap:butt;stroke-linejoin:miter;stroke-opacity:1" d="M 231.587,709.345 219.426,723.243 z" id="boundary" inkscape:connector-curvature="0" />
	<path style="fill:none;stroke:red;stroke-width:1px;stroke-linecap:butt;stroke-linejoin:miter;stroke-opacity:1" d="M 219.426,723.243 205.527,735.405 z" id="boundary" inkscape:connector-curvature="0" />
	<path style="fill:none;stroke:red;stroke-width:1px;stroke-linecap:butt;stroke-linejoin:miter;stroke-opacity:1" d="M 262.858,688.497 248.96,700.658 z" id="boundary" inkscape:connector-curvature="0" />
	<path style="fill:none;stroke:red;stroke-width:1px;stroke-linecap:butt;stroke-linejoin:miter;stroke-opacity:1" d="M 275.019,674.599 262.858,688.497 z" id="boundary" inkscape:connector-curvature="0" />
	<path style="fill:none;stroke:red;stroke-width:1px;stroke-linecap:butt;stroke-linejoin:miter;stroke-opacity:1" d="M 248.96,700.658 231.587,709.345 z" id="boundary" inkscape:connector-curvature="0" />
	<path style="fill:none;stroke:red;stroke-width:1px;stroke-linecap:butt;stroke-linejoin:miter;stroke-opacity:1" d="M 407.054,12.6865 391.419,4 z" id="boundary" inkscape:connector-curvature="0" />
	<path style="fill:none;stroke:red;stroke-width:1px;stroke-linecap:butt;stroke-linejoin:miter;stroke-opacity:1" d="M 407.054,12.6865 422.69,21.373 z" id="boundary" inkscape:connector-curvature="0" />
	<path style="fill:none;stroke:red;stroke-width:1px;stroke-linecap:butt;stroke-linejoin:miter;stroke-opacity:1" d="M 422.69,21.373 431.377,37.0088 z" id="boundary" inkscape:connector-curvature="0" />
	<path style="fill:none;stroke:red;stroke-width:1px;stroke-linecap:butt;stroke-linejoin:miter;stroke-opacity:1" d="M 445.275,49.1699 431.377,37.0088 z" id="boundary" inkscape:connector-curvature="0" />
	<path style="fill:none;stroke:red;stroke-width:1px;stroke-linecap:butt;stroke-linejoin:miter;stroke-opacity:1" d="M 448.75,66.5429 445.275,49.1699 z" id="boundary" inkscape:connector-curvature="0" />
	<path style="fill:none;stroke:red;stroke-width:1px;stroke-linecap:butt;stroke-linejoin:miter;stroke-opacity:1" d="M 457.436,82.1786 448.75,66.5429 z" id="boundary" inkscape:connector-curvature="0" />
	<path style="fill:none;stroke:red;stroke-width:1px;stroke-linecap:butt;stroke-linejoin:miter;stroke-opacity:1" d="M 457.436,99.5517 457.436,82.1786 z" id="boundary" inkscape:connector-curvature="0" />
	<path style="fill:none;stroke:red;stroke-width:1px;stroke-linecap:butt;stroke-linejoin:miter;stroke-opacity:1" d="M 448.75,136.035 457.436,151.671 z" id="boundary" inkscape:connector-curvature="0" />
	<path style="fill:none;stroke:red;stroke-width:1px;stroke-linecap:butt;stroke-linejoin:miter;stroke-opacity:1" d="M 448.75,118.662 448.75,136.035 z" id="boundary" inkscape:connector-curvature="0" />
	<path style="fill:none;stroke:red;stroke-width:1px;stroke-linecap:butt;stroke-linejoin:miter;stroke-opacity:1" d="M 457.436,99.5517 448.75,118.662 z" id="boundary" inkscape:connector-curvature="0" />
	<path style="fill:none;stroke:red;stroke-width:1px;stroke-linecap:butt;stroke-linejoin:miter;stroke-opacity:1" d="M 473.072,160.357 457.436,151.671 z" id="boundary" inkscape:connector-curvature="0" />
	<path style="fill:none;stroke:red;stroke-width:1px;stroke-linecap:butt;stroke-linejoin:miter;stroke-opacity:1" d="M 490.445,160.357 473.072,160.357 z" id="boundary" inkscape:connector-curvature="0" />
	<path style="fill:none;stroke:red;stroke-width:1px;stroke-linecap:butt;stroke-linejoin:miter;stroke-opacity:1" d="M 507.818,160.357 490.445,160.357 z" id="boundary" inkscape:connector-curvature="0" />
	<path style="fill:none;stroke:red;stroke-width:1px;stroke-linecap:butt;stroke-linejoin:miter;stroke-opacity:1" d="M 507.818,160.357 525.191,160.357 z" id="boundary" inkscape:connector-curvature="0" />
	<path style="fill:none;stroke:red;stroke-width:1px;stroke-linecap:butt;stroke-linejoin:miter;stroke-opacity:1" d="M 540.827,169.044 525.191,160.357 z" id="boundary" inkscape:connector-curvature="0" />
	<path style="fill:none;stroke:red;stroke-width:1px;stroke-linecap:butt;stroke-linejoin:miter;stroke-opacity:1" d="M 556.462,177.73 540.827,169.044 z" id="boundary" inkscape:connector-curvature="0" />
	<path style="fill:none;stroke:red;stroke-width:1px;stroke-linecap:butt;stroke-linejoin:miter;stroke-opacity:1" d="M 572.098,186.417 556.462,177.73 z" id="boundary" inkscape:connector-curvature="0" />
	<path style="fill:none;stroke:red;stroke-width:1px;stroke-linecap:butt;stroke-linejoin:miter;stroke-opacity:1" d="M 492.182,344.511 492.182,327.138 z" id="boundary" inkscape:connector-curvature="0" />
	<path style="fill:none;stroke:red;stroke-width:1px;stroke-linecap:butt;stroke-linejoin:miter;stroke-opacity:1" d="M 500.869,309.765 492.182,327.138 z" id="boundary" inkscape:connector-curvature="0" />
	<path style="fill:none;stroke:red;stroke-width:1px;stroke-linecap:butt;stroke-linejoin:miter;stroke-opacity:1" d="M 483.496,387.944 483.496,370.571 z" id="boundary" inkscape:connector-curvature="0" />
	<path style="fill:none;stroke:red;stroke-width:1px;stroke-linecap:butt;stroke-linejoin:miter;stroke-opacity:1" d="M 492.182,344.511 483.496,370.571 z" id="boundary" inkscape:connector-curvature="0" />
	<path style="fill:none;stroke:red;stroke-width:1px;stroke-linecap:butt;stroke-linejoin:miter;stroke-opacity:1" d="M 474.809,414.004 483.496,387.944 z" id="boundary" inkscape:connector-curvature="0" />
	<path style="fill:none;stroke:red;stroke-width:1px;stroke-linecap:butt;stroke-linejoin:miter;stroke-opacity:1" d="M 509.555,275.019 500.869,292.392 z" id="boundary" inkscape:connector-curvature="0" />
	<path style="fill:none;stroke:red;stroke-width:1px;stroke-linecap:butt;stroke-linejoin:miter;stroke-opacity:1" d="M 474.809,431.377 466.123,448.75 z" id="boundary" inkscape:connector-curvature="0" />
	<path style="fill:none;stroke:red;stroke-width:1px;stroke-linecap:butt;stroke-linejoin:miter;stroke-opacity:1" d="M 474.809,414.004 474.809,431.377 z" id="boundary" inkscape:connector-curvature="0" />
	<path style="fill:none;stroke:red;stroke-width:1px;stroke-linecap:butt;stroke-linejoin:miter;stroke-opacity:1" d="M 466.123,466.123 466.123,448.75 z" id="boundary" inkscape:connector-curvature="0" />
	<path style="fill:none;stroke:red;stroke-width:1px;stroke-linecap:butt;stroke-linejoin:miter;stroke-opacity:1" d="M 469.597,500.869 466.123,483.496 z" id="boundary" inkscape:connector-curvature="0" />
	<path style="fill:none;stroke:red;stroke-width:1px;stroke-linecap:butt;stroke-linejoin:miter;stroke-opacity:1" d="M 466.123,483.496 466.123,466.123 z" id="boundary" inkscape:connector-curvature="0" />
	<path style="fill:none;stroke:red;stroke-width:1px;stroke-linecap:butt;stroke-linejoin:miter;stroke-opacity:1" d="M 500.869,292.392 500.869,309.765 z" id="boundary" inkscape:connector-curvature="0" />
	<path style="fill:none;stroke:red;stroke-width:1px;stroke-linecap:butt;stroke-linejoin:miter;stroke-opacity:1" d="M 509.555,275.019 526.928,275.019 z" id="boundary" inkscape:connector-curvature="0" />
	<path style="fill:none;stroke:red;stroke-width:1px;stroke-linecap:butt;stroke-linejoin:miter;stroke-opacity:1" d="M 526.928,275.019 544.301,278.494 z" id="boundary" inkscape:connector-curvature="0" />
	<path style="fill:none;stroke:red;stroke-width:1px;stroke-linecap:butt;stroke-linejoin:miter;stroke-opacity:1" d="M 544.301,278.494 559.937,287.18 z" id="boundary" inkscape:connector-curvature="0" />
	<path style="fill:none;stroke:red;stroke-width:1px;stroke-linecap:butt;stroke-linejoin:miter;stroke-opacity:1" d="M 585.996,198.578 596.42,212.476 z" id="boundary" inkscape:connector-curvature="0" />
	<path style="fill:none;stroke:red;stroke-width:1px;stroke-linecap:butt;stroke-linejoin:miter;stroke-opacity:1" d="M 585.996,198.578 572.098,186.417 z" id="boundary" inkscape:connector-curvature="0" />
	<path style="fill:none;stroke:red;stroke-width:1px;stroke-linecap:butt;stroke-linejoin:miter;stroke-opacity:1" d="M 619.005,240.273 605.107,228.112 z" id="boundary" inkscape:connector-curvature="0" />
	<path style="fill:none;stroke:red;stroke-width:1px;stroke-linecap:butt;stroke-linejoin:miter;stroke-opacity:1" d="M 605.107,228.112 596.42,212.476 z" id="boundary" inkscape:connector-curvature="0" />
	<path style="fill:none;stroke:red;stroke-width:1px;stroke-linecap:butt;stroke-linejoin:miter;stroke-opacity:1" d="M 619.005,240.273 631.166,254.172 z" id="boundary" inkscape:connector-curvature="0" />
	<path style="fill:none;stroke:red;stroke-width:1px;stroke-linecap:butt;stroke-linejoin:miter;stroke-opacity:1" d="M 573.835,299.342 580.785,316.715 z" id="boundary" inkscape:connector-curvature="0" />
	<path style="fill:none;stroke:red;stroke-width:1px;stroke-linecap:butt;stroke-linejoin:miter;stroke-opacity:1" d="M 573.835,299.342 559.937,287.18 z" id="boundary" inkscape:connector-curvature="0" />
	<path style="fill:none;stroke:red;stroke-width:1px;stroke-linecap:butt;stroke-linejoin:miter;stroke-opacity:1" d="M 580.785,316.715 594.683,327.138 z" id="boundary" inkscape:connector-curvature="0" />
	<path style="fill:none;stroke:red;stroke-width:1px;stroke-linecap:butt;stroke-linejoin:miter;stroke-opacity:1" d="M 639.853,269.807 652.014,283.706 z" id="boundary" inkscape:connector-curvature="0" />
	<path style="fill:none;stroke:red;stroke-width:1px;stroke-linecap:butt;stroke-linejoin:miter;stroke-opacity:1" d="M 652.014,283.706 660.701,299.342 z" id="boundary" inkscape:connector-curvature="0" />
	<path style="fill:none;stroke:red;stroke-width:1px;stroke-linecap:butt;stroke-linejoin:miter;stroke-opacity:1" d="M 639.853,269.807 631.166,254.172 z" id="boundary" inkscape:connector-curvature="0" />
	<path style="fill:none;stroke:red;stroke-width:1px;stroke-linecap:butt;stroke-linejoin:miter;stroke-opacity:1" d="M 672.862,313.24 660.701,299.342 z" id="boundary" inkscape:connector-curvature="0" />
	<path style="fill:none;stroke:red;stroke-width:1px;stroke-linecap:butt;stroke-linejoin:miter;stroke-opacity:1" d="M 681.548,328.876 672.862,313.24 z" id="boundary" inkscape:connector-curvature="0" />
	<path style="fill:none;stroke:red;stroke-width:1px;stroke-linecap:butt;stroke-linejoin:miter;stroke-opacity:1" d="M 605.107,341.037 619.005,353.198 z" id="boundary" inkscape:connector-curvature="0" />
	<path style="fill:none;stroke:red;stroke-width:1px;stroke-linecap:butt;stroke-linejoin:miter;stroke-opacity:1" d="M 619.005,353.198 629.429,367.096 z" id="boundary" inkscape:connector-curvature="0" />
	<path style="fill:none;stroke:red;stroke-width:1px;stroke-linecap:butt;stroke-linejoin:miter;stroke-opacity:1" d="M 638.116,382.732 629.429,367.096 z" id="boundary" inkscape:connector-curvature="0" />
	<path style="fill:none;stroke:red;stroke-width:1px;stroke-linecap:butt;stroke-linejoin:miter;stroke-opacity:1" d="M 605.107,341.037 594.683,327.138 z" id="boundary" inkscape:connector-curvature="0" />
	<path style="fill:none;stroke:red;stroke-width:1px;stroke-linecap:butt;stroke-linejoin:miter;stroke-opacity:1" d="M 652.014,394.893 638.116,382.732 z" id="boundary" inkscape:connector-curvature="0" />
	<path style="fill:none;stroke:red;stroke-width:1px;stroke-linecap:butt;stroke-linejoin:miter;stroke-opacity:1" d="M 664.175,408.792 652.014,394.893 z" id="boundary" inkscape:connector-curvature="0" />
	<path style="fill:none;stroke:red;stroke-width:1px;stroke-linecap:butt;stroke-linejoin:miter;stroke-opacity:1" d="M 681.548,328.876 691.972,342.774 z" id="boundary" inkscape:connector-curvature="0" />
	<path style="fill:none;stroke:red;stroke-width:1px;stroke-linecap:butt;stroke-linejoin:miter;stroke-opacity:1" d="M 681.548,414.004 664.175,408.792 z" id="boundary" inkscape:connector-curvature="0" />
	<path style="fill:none;stroke:red;stroke-width:1px;stroke-linecap:butt;stroke-linejoin:miter;stroke-opacity:1" d="M 700.658,358.41 691.972,342.774 z" id="boundary" inkscape:connector-curvature="0" />
	<path style="fill:none;stroke:red;stroke-width:1px;stroke-linecap:butt;stroke-linejoin:miter;stroke-opacity:1" d="M 700.658,358.41 714.557,370.571 z" id="boundary" inkscape:connector-curvature="0" />
	<path style="fill:none;stroke:red;stroke-width:1px;stroke-linecap:butt;stroke-linejoin:miter;stroke-opacity:1" d="M 721.506,387.944 714.557,370.571 z" id="boundary" inkscape:connector-curvature="0" />
	<path style="fill:none;stroke:red;stroke-width:1px;stroke-linecap:butt;stroke-linejoin:miter;stroke-opacity:1" d="M 681.548,414.004 691.972,427.902 z" id="boundary" inkscape:connector-curvature="0" />
	<path style="fill:none;stroke:red;stroke-width:1px;stroke-linecap:butt;stroke-linejoin:miter;stroke-opacity:1" d="M 691.972,427.902 709.345,431.377 z" id="boundary" inkscape:connector-curvature="0" />
	<path style="fill:none;stroke:red;stroke-width:1px;stroke-linecap:butt;stroke-linejoin:miter;stroke-opacity:1" d="M 726.718,431.377 709.345,431.377 z" id="boundary" inkscape:connector-curvature="0" />
	<path style="fill:none;stroke:red;stroke-width:1px;stroke-linecap:butt;stroke-linejoin:miter;stroke-opacity:1" d="M 730.193,403.58 726.718,431.377 z" id="boundary" inkscape:connector-curvature="0" />
	<path style="fill:none;stroke:red;stroke-width:1px;stroke-linecap:butt;stroke-linejoin:miter;stroke-opacity:1" d="M 721.506,387.944 730.193,403.58 z" id="boundary" inkscape:connector-curvature="0" />
	<path style="fill:none;stroke:red;stroke-width:1px;stroke-linecap:butt;stroke-linejoin:miter;stroke-opacity:1" d="M 469.597,500.869 478.284,516.504 z" id="boundary" inkscape:connector-curvature="0" />
	<path style="fill:none;stroke:red;stroke-width:1px;stroke-linecap:butt;stroke-linejoin:miter;stroke-opacity:1" d="M 410.529,613.793 426.165,622.48 z" id="boundary" inkscape:connector-curvature="0" />
	<path style="fill:none;stroke:red;stroke-width:1px;stroke-linecap:butt;stroke-linejoin:miter;stroke-opacity:1" d="M 410.529,613.793 394.893,605.107 z" id="boundary" inkscape:connector-curvature="0" />
	<path style="fill:none;stroke:red;stroke-width:1px;stroke-linecap:butt;stroke-linejoin:miter;stroke-opacity:1" d="M 440.063,634.641 426.165,622.48 z" id="boundary" inkscape:connector-curvature="0" />
	<path style="fill:none;stroke:red;stroke-width:1px;stroke-linecap:butt;stroke-linejoin:miter;stroke-opacity:1" d="M 452.224,648.539 440.063,634.641 z" id="boundary" inkscape:connector-curvature="0" />
	<path style="fill:none;stroke:red;stroke-width:1px;stroke-linecap:butt;stroke-linejoin:miter;stroke-opacity:1" d="M 469.597,655.489 452.224,648.539 z" id="boundary" inkscape:connector-curvature="0" />
	<path style="fill:none;stroke:red;stroke-width:1px;stroke-linecap:butt;stroke-linejoin:miter;stroke-opacity:1" d="M 478.284,516.504 483.496,533.877 z" id="boundary" inkscape:connector-curvature="0" />
	<path style="fill:none;stroke:red;stroke-width:1px;stroke-linecap:butt;stroke-linejoin:miter;stroke-opacity:1" d="M 497.394,544.301 483.496,533.877 z" id="boundary" inkscape:connector-curvature="0" />
	<path style="fill:none;stroke:red;stroke-width:1px;stroke-linecap:butt;stroke-linejoin:miter;stroke-opacity:1" d="M 509.555,558.2 518.242,573.835 z" id="boundary" inkscape:connector-curvature="0" />
	<path style="fill:none;stroke:red;stroke-width:1px;stroke-linecap:butt;stroke-linejoin:miter;stroke-opacity:1" d="M 509.555,558.2 497.394,544.301 z" id="boundary" inkscape:connector-curvature="0" />
	<path style="fill:none;stroke:red;stroke-width:1px;stroke-linecap:butt;stroke-linejoin:miter;stroke-opacity:1" d="M 544.301,599.895 530.403,587.734 z" id="boundary" inkscape:connector-curvature="0" />
	<path style="fill:none;stroke:red;stroke-width:1px;stroke-linecap:butt;stroke-linejoin:miter;stroke-opacity:1" d="M 530.403,587.734 518.242,573.835 z" id="boundary" inkscape:connector-curvature="0" />
	<path style="fill:none;stroke:red;stroke-width:1px;stroke-linecap:butt;stroke-linejoin:miter;stroke-opacity:1" d="M 556.462,613.793 544.301,599.895 z" id="boundary" inkscape:connector-curvature="0" />
	<path style="fill:none;stroke:red;stroke-width:1px;stroke-linecap:butt;stroke-linejoin:miter;stroke-opacity:1" d="M 570.361,625.954 556.462,613.793 z" id="boundary" inkscape:connector-curvature="0" />
	<path style="fill:none;stroke:red;stroke-width:1px;stroke-linecap:butt;stroke-linejoin:miter;stroke-opacity:1" d="M 582.522,639.853 570.361,625.954 z" id="boundary" inkscape:connector-curvature="0" />
	<path style="fill:none;stroke:red;stroke-width:1px;stroke-linecap:butt;stroke-linejoin:miter;stroke-opacity:1" d="M 599.895,646.802 582.522,639.853 z" id="boundary" inkscape:connector-curvature="0" />
	<path style="fill:none;stroke:red;stroke-width:1px;stroke-linecap:butt;stroke-linejoin:miter;stroke-opacity:1" d="M 605.107,664.175 599.895,646.802 z" id="boundary" inkscape:connector-curvature="0" />
	<path style="fill:none;stroke:red;stroke-width:1px;stroke-linecap:butt;stroke-linejoin:miter;stroke-opacity:1" d="M 469.597,655.489 481.758,669.387 z" id="boundary" inkscape:connector-curvature="0" />
	<path style="fill:none;stroke:red;stroke-width:1px;stroke-linecap:butt;stroke-linejoin:miter;stroke-opacity:1" d="M 495.657,681.548 481.758,669.387 z" id="boundary" inkscape:connector-curvature="0" />
	<path style="fill:none;stroke:red;stroke-width:1px;stroke-linecap:butt;stroke-linejoin:miter;stroke-opacity:1" d="M 507.818,695.447 495.657,681.548 z" id="boundary" inkscape:connector-curvature="0" />
	<path style="fill:none;stroke:red;stroke-width:1px;stroke-linecap:butt;stroke-linejoin:miter;stroke-opacity:1" d="M 535.615,714.557 525.191,700.658 z" id="boundary" inkscape:connector-curvature="0" />
	<path style="fill:none;stroke:red;stroke-width:1px;stroke-linecap:butt;stroke-linejoin:miter;stroke-opacity:1" d="M 525.191,700.658 507.818,695.447 z" id="boundary" inkscape:connector-curvature="0" />
	<path style="fill:none;stroke:red;stroke-width:1px;stroke-linecap:butt;stroke-linejoin:miter;stroke-opacity:1" d="M 535.615,714.557 549.513,726.718 z" id="boundary" inkscape:connector-curvature="0" />
	<path style="fill:none;stroke:red;stroke-width:1px;stroke-linecap:butt;stroke-linejoin:miter;stroke-opacity:1" d="M 561.674,740.616 575.573,752.778 z" id="boundary" inkscape:connector-curvature="0" />
	<path style="fill:none;stroke:red;stroke-width:1px;stroke-linecap:butt;stroke-linejoin:miter;stroke-opacity:1" d="M 582.522,770.151 594.683,784.049 z" id="boundary" inkscape:connector-curvature="0" />
	<path style="fill:none;stroke:red;stroke-width:1px;stroke-linecap:butt;stroke-linejoin:miter;stroke-opacity:1" d="M 575.573,752.778 582.522,770.151 z" id="boundary" inkscape:connector-curvature="0" />
	<path style="fill:none;stroke:red;stroke-width:1px;stroke-linecap:butt;stroke-linejoin:miter;stroke-opacity:1" d="M 594.683,784.049 603.37,799.685 z" id="boundary" inkscape:connector-curvature="0" />
	<path style="fill:none;stroke:red;stroke-width:1px;stroke-linecap:butt;stroke-linejoin:miter;stroke-opacity:1" d="M 561.674,740.616 549.513,726.718 z" id="boundary" inkscape:connector-curvature="0" />
	<path style="fill:none;stroke:red;stroke-width:1px;stroke-linecap:butt;stroke-linejoin:miter;stroke-opacity:1" d="M 612.056,815.32 603.37,799.685 z" id="boundary" inkscape:connector-curvature="0" />
	<path style="fill:none;stroke:red;stroke-width:1px;stroke-linecap:butt;stroke-linejoin:miter;stroke-opacity:1" d="M 612.056,815.32 620.743,830.956 z" id="boundary" inkscape:connector-curvature="0" />
	<path style="fill:none;stroke:red;stroke-width:1px;stroke-linecap:butt;stroke-linejoin:miter;stroke-opacity:1" d="M 605.107,664.175 619.005,674.599 z" id="boundary" inkscape:connector-curvature="0" />
	<path style="fill:none;stroke:red;stroke-width:1px;stroke-linecap:butt;stroke-linejoin:miter;stroke-opacity:1" d="M 639.853,704.133 631.166,688.497 z" id="boundary" inkscape:connector-curvature="0" />
	<path style="fill:none;stroke:red;stroke-width:1px;stroke-linecap:butt;stroke-linejoin:miter;stroke-opacity:1" d="M 619.005,674.599 631.166,688.497 z" id="boundary" inkscape:connector-curvature="0" />
	<path style="fill:none;stroke:red;stroke-width:1px;stroke-linecap:butt;stroke-linejoin:miter;stroke-opacity:1" d="M 652.014,718.032 639.853,704.133 z" id="boundary" inkscape:connector-curvature="0" />
	<path style="fill:none;stroke:red;stroke-width:1px;stroke-linecap:butt;stroke-linejoin:miter;stroke-opacity:1" d="M 660.701,733.667 652.014,718.032 z" id="boundary" inkscape:connector-curvature="0" />
	<path style="fill:none;stroke:red;stroke-width:1px;stroke-linecap:butt;stroke-linejoin:miter;stroke-opacity:1" d="M 660.701,733.667 665.912,751.04 z" id="boundary" inkscape:connector-curvature="0" />
	<path style="fill:none;stroke:red;stroke-width:1px;stroke-linecap:butt;stroke-linejoin:miter;stroke-opacity:1" d="M 674.599,766.676 688.497,778.837 z" id="boundary" inkscape:connector-curvature="0" />
	<path style="fill:none;stroke:red;stroke-width:1px;stroke-linecap:butt;stroke-linejoin:miter;stroke-opacity:1" d="M 688.497,778.837 691.972,796.21 z" id="boundary" inkscape:connector-curvature="0" />
	<path style="fill:none;stroke:red;stroke-width:1px;stroke-linecap:butt;stroke-linejoin:miter;stroke-opacity:1" d="M 691.972,796.21 700.658,811.846 z" id="boundary" inkscape:connector-curvature="0" />
	<path style="fill:none;stroke:red;stroke-width:1px;stroke-linecap:butt;stroke-linejoin:miter;stroke-opacity:1" d="M 674.599,766.676 665.912,751.04 z" id="boundary" inkscape:connector-curvature="0" />
	<path style="fill:none;stroke:red;stroke-width:1px;stroke-linecap:butt;stroke-linejoin:miter;stroke-opacity:1" d="M 700.658,811.846 700.658,829.219 z" id="boundary" inkscape:connector-curvature="0" />
	<path style="fill:none;stroke:red;stroke-width:1px;stroke-linecap:butt;stroke-linejoin:miter;stroke-opacity:1" d="M 625.954,848.329 620.743,830.956 z" id="boundary" inkscape:connector-curvature="0" />
	<path style="fill:none;stroke:red;stroke-width:1px;stroke-linecap:butt;stroke-linejoin:miter;stroke-opacity:1" d="M 629.429,865.702 625.954,848.329 z" id="boundary" inkscape:connector-curvature="0" />
	<path style="fill:none;stroke:red;stroke-width:1px;stroke-linecap:butt;stroke-linejoin:miter;stroke-opacity:1" d="M 638.116,881.338 629.429,865.702 z" id="boundary" inkscape:connector-curvature="0" />
	<path style="fill:none;stroke:red;stroke-width:1px;stroke-linecap:butt;stroke-linejoin:miter;stroke-opacity:1" d="M 638.116,881.338 638.116,898.711 z" id="boundary" inkscape:connector-curvature="0" />
	<path style="fill:none;stroke:red;stroke-width:1px;stroke-linecap:butt;stroke-linejoin:miter;stroke-opacity:1" d="M 646.802,914.347 646.802,931.72 z" id="boundary" inkscape:connector-curvature="0" />
	<path style="fill:none;stroke:red;stroke-width:1px;stroke-linecap:butt;stroke-linejoin:miter;stroke-opacity:1" d="M 646.802,914.347 638.116,898.711 z" id="boundary" inkscape:connector-curvature="0" />
	<path style="fill:none;stroke:red;stroke-width:1px;stroke-linecap:butt;stroke-linejoin:miter;stroke-opacity:1" d="M 655.489,966.466 648.539,949.093 z" id="boundary" inkscape:connector-curvature="0" />
	<path style="fill:none;stroke:red;stroke-width:1px;stroke-linecap:butt;stroke-linejoin:miter;stroke-opacity:1" d="M 646.802,931.72 648.539,949.093 z" id="boundary" inkscape:connector-curvature="0" />
	<path style="fill:none;stroke:red;stroke-width:1px;stroke-linecap:butt;stroke-linejoin:miter;stroke-opacity:1" d="M 674.599,996 664.175,982.102 z" id="boundary" inkscape:connector-curvature="0" />
	<path style="fill:none;stroke:red;stroke-width:1px;stroke-linecap:butt;stroke-linejoin:miter;stroke-opacity:1" d="M 664.175,982.102 655.489,966.466 z" id="boundary" inkscape:connector-curvature="0" />
	<path style="fill:none;stroke:red;stroke-width:1px;stroke-linecap:butt;stroke-linejoin:miter;stroke-opacity:1" d="M 709.345,844.855 709.345,862.228 z" id="boundary" inkscape:connector-curvature="0" />
	<path style="fill:none;stroke:red;stroke-width:1px;stroke-linecap:butt;stroke-linejoin:miter;stroke-opacity:1" d="M 709.345,844.855 700.658,829.219 z" id="boundary" inkscape:connector-curvature="0" />
	<path style="fill:none;stroke:red;stroke-width:1px;stroke-linecap:butt;stroke-linejoin:miter;stroke-opacity:1" d="M 709.345,879.601 709.345,896.974 z" id="boundary" inkscape:connector-curvature="0" />
	<path style="fill:none;stroke:red;stroke-width:1px;stroke-linecap:butt;stroke-linejoin:miter;stroke-opacity:1" d="M 709.345,862.228 709.345,879.601 z" id="boundary" inkscape:connector-curvature="0" />
	<path style="fill:none;stroke:red;stroke-width:1px;stroke-linecap:butt;stroke-linejoin:miter;stroke-opacity:1" d="M 709.345,914.347 709.345,896.974 z" id="boundary" inkscape:connector-curvature="0" />
	<path style="fill:none;stroke:red;stroke-width:1px;stroke-linecap:butt;stroke-linejoin:miter;stroke-opacity:1" d="M 709.345,931.72 709.345,914.347 z" id="boundary" inkscape:connector-curvature="0" />
	<path style="fill:none;stroke:red;stroke-width:1px;stroke-linecap:butt;stroke-linejoin:miter;stroke-opacity:1" d="M 700.658,961.254 709.345,931.72 z" id="boundary" inkscape:connector-curvature="0" />
	<path style="fill:none;stroke:red;stroke-width:1px;stroke-linecap:butt;stroke-linejoin:miter;stroke-opacity:1" d="M 700.658,961.254 688.497,983.839 z" id="boundary" inkscape:connector-curvature="0" />
	<path style="fill:none;stroke:red;stroke-width:1px;stroke-linecap:butt;stroke-linejoin:miter;stroke-opacity:1" d="M 674.599,996 688.497,983.839 z" id="boundary" inkscape:connector-curvature="0" />
	<circle cx="4" cy="860.49" r="4" fill="#0" id="circle0"/>
	<circle cx="12.6865" cy="834.431" r="4" fill="#0" id="circle1"/>
	<circle cx="14.4238" cy="874.389" r="4" fill="#0" id="circle2"/>
	<circle cx="26.5849" cy="820.532" r="4" fill="#0" id="circle3"/>
	<circle cx="31.7968" cy="874.389" r="4" fill="#0" id="circle4"/>
	<circle cx="38.7461" cy="799.685" r="4" fill="#0" id="circle5"/>
	<circle cx="47.4326" cy="391.419" r="4" fill="#0" id="circle6"/>
	<circle cx="47.4326" cy="865.702" r="4" fill="#0" id="circle7"/>
	<circle cx="52.6445" cy="785.786" r="4" fill="#0" id="circle8"/>
	<circle cx="56.1191" cy="374.046" r="4" fill="#0" id="circle9"/>
	<circle cx="61.331" cy="403.58" r="4" fill="#0" id="circle10"/>
	<circle cx="61.331" cy="855.278" r="4" fill="#0" id="circle11"/>
	<circle cx="64.8056" cy="356.673" r="4" fill="#0" id="circle12"/>
	<circle cx="66.5429" cy="771.888" r="4" fill="#0" id="circle13"/>
	<circle cx="75.2294" cy="414.004" r="4" fill="#0" id="circle14"/>
	<circle cx="75.2294" cy="839.643" r="4" fill="#0" id="circle15"/>
	<circle cx="78.704" cy="342.774" r="4" fill="#0" id="circle16"/>
	<circle cx="80.4413" cy="759.727" r="4" fill="#0" id="circle17"/>
	<circle cx="87.3905" cy="325.401" r="4" fill="#0" id="circle18"/>
	<circle cx="89.1278" cy="401.842" r="4" fill="#0" id="circle19"/>
	<circle cx="92.6025" cy="745.828" r="4" fill="#0" id="circle20"/>
	<circle cx="92.6025" cy="830.956" r="4" fill="#0" id="circle21"/>
	<circle cx="101.289" cy="311.503" r="4" fill="#0" id="circle22"/>
	<circle cx="101.289" cy="387.944" r="4" fill="#0" id="circle23"/>
	<circle cx="106.501" cy="733.667" r="4" fill="#0" id="circle24"/>
	<circle cx="106.501" cy="818.795" r="4" fill="#0" id="circle25"/>
	<circle cx="109.975" cy="294.13" r="4" fill="#0" id="circle26"/>
	<circle cx="115.187" cy="375.783" r="4" fill="#0" id="circle27"/>
	<circle cx="118.662" cy="719.769" r="4" fill="#0" id="circle28"/>
	<circle cx="123.874" cy="281.968" r="4" fill="#0" id="circle29"/>
	<circle cx="123.874" cy="810.109" r="4" fill="#0" id="circle30"/>
	<circle cx="130.823" cy="264.595" r="4" fill="#0" id="circle31"/>
	<circle cx="132.56" cy="367.096" r="4" fill="#0" id="circle32"/>
	<circle cx="132.56" cy="707.608" r="4" fill="#0" id="circle33"/>
	<circle cx="134.298" cy="796.21" r="4" fill="#0" id="circle34"/>
	<circle cx="144.722" cy="250.697" r="4" fill="#0" id="circle35"/>
	<circle cx="144.722" cy="353.198" r="4" fill="#0" id="circle36"/>
	<circle cx="144.722" cy="693.709" r="4" fill="#0" id="circle37"/>
	<circle cx="148.196" cy="785.786" r="4" fill="#0" id="circle38"/>
	<circle cx="153.408" cy="233.324" r="4" fill="#0" id="circle39"/>
	<circle cx="158.62" cy="341.037" r="4" fill="#0" id="circle40"/>
	<circle cx="158.62" cy="681.548" r="4" fill="#0" id="circle41"/>
	<circle cx="162.095" cy="215.951" r="4" fill="#0" id="circle42"/>
	<circle cx="162.095" cy="770.151" r="4" fill="#0" id="circle43"/>
	<circle cx="170.781" cy="327.138" r="4" fill="#0" id="circle44"/>
	<circle cx="170.781" cy="667.65" r="4" fill="#0" id="circle45"/>
	<circle cx="175.993" cy="203.79" r="4" fill="#0" id="circle46"/>
	<circle cx="179.468" cy="761.464" r="4" fill="#0" id="circle47"/>
	<circle cx="184.68" cy="314.977" r="4" fill="#0" id="circle48"/>
	<circle cx="184.68" cy="655.489" r="4" fill="#0" id="circle49"/>
	<circle cx="191.629" cy="195.103" r="4" fill="#0" id="circle50"/>
	<circle cx="193.366" cy="297.604" r="4" fill="#0" id="circle51"/>
	<circle cx="193.366" cy="749.303" r="4" fill="#0" id="circle52"/>
	<circle cx="196.841" cy="641.59" r="4" fill="#0" id="circle53"/>
	<circle cx="205.527" cy="181.205" r="4" fill="#0" id="circle54"/>
	<circle cx="205.527" cy="735.405" r="4" fill="#0" id="circle55"/>
	<circle cx="210.739" cy="288.918" r="4" fill="#0" id="circle56"/>
	<circle cx="210.739" cy="629.429" r="4" fill="#0" id="circle57"/>
	<circle cx="219.426" cy="169.044" r="4" fill="#0" id="circle58"/>
	<circle cx="219.426" cy="723.243" r="4" fill="#0" id="circle59"/>
	<circle cx="222.9" cy="275.019" r="4" fill="#0" id="circle60"/>
	<circle cx="222.9" cy="615.531" r="4" fill="#0" id="circle61"/>
	<circle cx="231.587" cy="709.345" r="4" fill="#0" id="circle62"/>
	<circle cx="236.799" cy="169.044" r="4" fill="#0" id="circle63"/>
	<circle cx="236.799" cy="603.37" r="4" fill="#0" id="circle64"/>
	<circle cx="240.273" cy="275.019" r="4" fill="#0" id="circle65"/>
	<circle cx="248.96" cy="589.471" r="4" fill="#0" id="circle66"/>
	<circle cx="248.96" cy="700.658" r="4" fill="#0" id="circle67"/>
	<circle cx="252.434" cy="160.357" r="4" fill="#0" id="circle68"/>
	<circle cx="255.909" cy="283.706" r="4" fill="#0" id="circle69"/>
	<circle cx="262.858" cy="577.31" r="4" fill="#0" id="circle70"/>
	<circle cx="262.858" cy="688.497" r="4" fill="#0" id="circle71"/>
	<circle cx="264.595" cy="299.342" r="4" fill="#0" id="circle72"/>
	<circle cx="264.595" cy="316.715" r="4" fill="#0" id="circle73"/>
	<circle cx="269.807" cy="160.357" r="4" fill="#0" id="circle74"/>
	<circle cx="273.282" cy="332.35" r="4" fill="#0" id="circle75"/>
	<circle cx="275.019" cy="349.723" r="4" fill="#0" id="circle76"/>
	<circle cx="275.019" cy="563.412" r="4" fill="#0" id="circle77"/>
	<circle cx="275.019" cy="674.599" r="4" fill="#0" id="circle78"/>
	<circle cx="281.968" cy="367.096" r="4" fill="#0" id="circle79"/>
	<circle cx="283.706" cy="546.039" r="4" fill="#0" id="circle80"/>
	<circle cx="287.18" cy="160.357" r="4" fill="#0" id="circle81"/>
	<circle cx="288.918" cy="662.438" r="4" fill="#0" id="circle82"/>
	<circle cx="290.655" cy="382.732" r="4" fill="#0" id="circle83"/>
	<circle cx="290.655" cy="400.105" r="4" fill="#0" id="circle84"/>
	<circle cx="297.604" cy="533.877" r="4" fill="#0" id="circle85"/>
	<circle cx="299.342" cy="415.741" r="4" fill="#0" id="circle86"/>
	<circle cx="299.342" cy="433.114" r="4" fill="#0" id="circle87"/>
	<circle cx="304.553" cy="151.671" r="4" fill="#0" id="circle88"/>
	<circle cx="306.291" cy="653.751" r="4" fill="#0" id="circle89"/>
	<circle cx="308.028" cy="70.0175" r="4" fill="#0" id="circle90"/>
	<circle cx="308.028" cy="87.3905" r="4" fill="#0" id="circle91"/>
	<circle cx="308.028" cy="104.764" r="4" fill="#0" id="circle92"/>
	<circle cx="308.028" cy="448.75" r="4" fill="#0" id="circle93"/>
	<circle cx="308.028" cy="466.123" r="4" fill="#0" id="circle94"/>
	<circle cx="308.028" cy="483.496" r="4" fill="#0" id="circle95"/>
	<circle cx="308.028" cy="500.869" r="4" fill="#0" id="circle96"/>
	<circle cx="308.028" cy="518.242" r="4" fill="#0" id="circle97"/>
	<circle cx="316.715" cy="52.6445" r="4" fill="#0" id="circle98"/>
	<circle cx="316.715" cy="120.399" r="4" fill="#0" id="circle99"/>
	<circle cx="316.715" cy="137.772" r="4" fill="#0" id="circle100"/>
	<circle cx="318.452" cy="639.853" r="4" fill="#0" id="circle101"/>
	<circle cx="330.613" cy="38.7461" r="4" fill="#0" id="circle102"/>
	<circle cx="332.35" cy="627.692" r="4" fill="#0" id="circle103"/>
	<circle cx="344.511" cy="24.8476" r="4" fill="#0" id="circle104"/>
	<circle cx="349.723" cy="619.005" r="4" fill="#0" id="circle105"/>
	<circle cx="358.41" cy="12.6865" r="4" fill="#0" id="circle106"/>
	<circle cx="361.884" cy="605.107" r="4" fill="#0" id="circle107"/>
	<circle cx="374.046" cy="4" r="4" fill="#0" id="circle108"/>
	<circle cx="379.257" cy="596.42" r="4" fill="#0" id="circle109"/>
	<circle cx="391.419" cy="4" r="4" fill="#0" id="circle110"/>
	<circle cx="394.893" cy="605.107" r="4" fill="#0" id="circle111"/>
	<circle cx="407.054" cy="12.6865" r="4" fill="#0" id="circle112"/>
	<circle cx="410.529" cy="613.793" r="4" fill="#0" id="circle113"/>
	<circle cx="422.69" cy="21.373" r="4" fill="#0" id="circle114"/>
	<circle cx="426.165" cy="622.48" r="4" fill="#0" id="circle115"/>
	<circle cx="431.377" cy="37.0088" r="4" fill="#0" id="circle116"/>
	<circle cx="440.063" cy="634.641" r="4" fill="#0" id="circle117"/>
	<circle cx="445.275" cy="49.1699" r="4" fill="#0" id="circle118"/>
	<circle cx="448.75" cy="66.5429" r="4" fill="#0" id="circle119"/>
	<circle cx="448.75" cy="118.662" r="4" fill="#0" id="circle120"/>
	<circle cx="448.75" cy="136.035" r="4" fill="#0" id="circle121"/>
	<circle cx="452.224" cy="648.539" r="4" fill="#0" id="circle122"/>
	<circle cx="457.436" cy="82.1786" r="4" fill="#0" id="circle123"/>
	<circle cx="457.436" cy="99.5517" r="4" fill="#0" id="circle124"/>
	<circle cx="457.436" cy="151.671" r="4" fill="#0" id="circle125"/>
	<circle cx="466.123" cy="448.75" r="4" fill="#0" id="circle126"/>
	<circle cx="466.123" cy="466.123" r="4" fill="#0" id="circle127"/>
	<circle cx="466.123" cy="483.496" r="4" fill="#0" id="circle128"/>
	<circle cx="469.597" cy="500.869" r="4" fill="#0" id="circle129"/>
	<circle cx="469.597" cy="655.489" r="4" fill="#0" id="circle130"/>
	<circle cx="473.072" cy="160.357" r="4" fill="#0" id="circle131"/>
	<circle cx="474.809" cy="414.004" r="4" fill="#0" id="circle132"/>
	<circle cx="474.809" cy="431.377" r="4" fill="#0" id="circle133"/>
	<circle cx="478.284" cy="516.504" r="4" fill="#0" id="circle134"/>
	<circle cx="481.758" cy="669.387" r="4" fill="#0" id="circle135"/>
	<circle cx="483.496" cy="370.571" r="4" fill="#0" id="circle136"/>
	<circle cx="483.496" cy="387.944" r="4" fill="#0" id="circle137"/>
	<circle cx="483.496" cy="533.877" r="4" fill="#0" id="circle138"/>
	<circle cx="490.445" cy="160.357" r="4" fill="#0" id="circle139"/>
	<circle cx="492.182" cy="327.138" r="4" fill="#0" id="circle140"/>
	<circle cx="492.182" cy="344.511" r="4" fill="#0" id="circle141"/>
	<circle cx="495.657" cy="681.548" r="4" fill="#0" id="circle142"/>
	<circle cx="497.394" cy="544.301" r="4" fill="#0" id="circle143"/>
	<circle cx="500.869" cy="292.392" r="4" fill="#0" id="circle144"/>
	<circle cx="500.869" cy="309.765" r="4" fill="#0" id="circle145"/>
	<circle cx="507.818" cy="160.357" r="4" fill="#0" id="circle146"/>
	<circle cx="507.818" cy="695.447" r="4" fill="#0" id="circle147"/>
	<circle cx="509.555" cy="275.019" r="4" fill="#0" id="circle148"/>
	<circle cx="509.555" cy="558.2" r="4" fill="#0" id="circle149"/>
	<circle cx="518.242" cy="573.835" r="4" fill="#0" id="circle150"/>
	<circle cx="525.191" cy="160.357" r="4" fill="#0" id="circle151"/>
	<circle cx="525.191" cy="700.658" r="4" fill="#0" id="circle152"/>
	<circle cx="526.928" cy="275.019" r="4" fill="#0" id="circle153"/>
	<circle cx="530.403" cy="587.734" r="4" fill="#0" id="circle154"/>
	<circle cx="535.615" cy="714.557" r="4" fill="#0" id="circle155"/>
	<circle cx="540.827" cy="169.044" r="4" fill="#0" id="circle156"/>
	<circle cx="544.301" cy="278.494" r="4" fill="#0" id="circle157"/>
	<circle cx="544.301" cy="599.895" r="4" fill="#0" id="circle158"/>
	<circle cx="549.513" cy="726.718" r="4" fill="#0" id="circle159"/>
	<circle cx="556.462" cy="177.73" r="4" fill="#0" id="circle160"/>
	<circle cx="556.462" cy="613.793" r="4" fill="#0" id="circle161"/>
	<circle cx="559.937" cy="287.18" r="4" fill="#0" id="circle162"/>
	<circle cx="561.674" cy="740.616" r="4" fill="#0" id="circle163"/>
	<circle cx="570.361" cy="625.954" r="4" fill="#0" id="circle164"/>
	<circle cx="572.098" cy="186.417" r="4" fill="#0" id="circle165"/>
	<circle cx="573.835" cy="299.342" r="4" fill="#0" id="circle166"/>
	<circle cx="575.573" cy="752.778" r="4" fill="#0" id="circle167"/>
	<circle cx="580.785" cy="316.715" r="4" fill="#0" id="circle168"/>
	<circle cx="582.522" cy="639.853" r="4" fill="#0" id="circle169"/>
	<circle cx="582.522" cy="770.151" r="4" fill="#0" id="circle170"/>
	<circle cx="585.996" cy="198.578" r="4" fill="#0" id="circle171"/>
	<circle cx="594.683" cy="327.138" r="4" fill="#0" id="circle172"/>
	<circle cx="594.683" cy="784.049" r="4" fill="#0" id="circle173"/>
	<circle cx="596.42" cy="212.476" r="4" fill="#0" id="circle174"/>
	<circle cx="599.895" cy="646.802" r="4" fill="#0" id="circle175"/>
	<circle cx="603.37" cy="799.685" r="4" fill="#0" id="circle176"/>
	<circle cx="605.107" cy="228.112" r="4" fill="#0" id="circle177"/>
	<circle cx="605.107" cy="341.037" r="4" fill="#0" id="circle178"/>
	<circle cx="605.107" cy="664.175" r="4" fill="#0" id="circle179"/>
	<circle cx="612.056" cy="815.32" r="4" fill="#0" id="circle180"/>
	<circle cx="619.005" cy="240.273" r="4" fill="#0" id="circle181"/>
	<circle cx="619.005" cy="353.198" r="4" fill="#0" id="circle182"/>
	<circle cx="619.005" cy="674.599" r="4" fill="#0" id="circle183"/>
	<circle cx="620.743" cy="830.956" r="4" fill="#0" id="circle184"/>
	<circle cx="625.954" cy="848.329" r="4" fill="#0" id="circle185"/>
	<circle cx="629.429" cy="367.096" r="4" fill="#0" id="circle186"/>
	<circle cx="629.429" cy="865.702" r="4" fill="#0" id="circle187"/>
	<circle cx="631.166" cy="254.172" r="4" fill="#0" id="circle188"/>
	<circle cx="631.166" cy="688.497" r="4" fill="#0" id="circle189"/>
	<circle cx="638.116" cy="382.732" r="4" fill="#0" id="circle190"/>
	<circle cx="638.116" cy="881.338" r="4" fill="#0" id="circle191"/>
	<circle cx="638.116" cy="898.711" r="4" fill="#0" id="circle192"/>
	<circle cx="639.853" cy="269.807" r="4" fill="#0" id="circle193"/>
	<circle cx="639.853" cy="704.133" r="4" fill="#0" id="circle194"/>
	<circle cx="646.802" cy="914.347" r="4" fill="#0" id="circle195"/>
	<circle cx="646.802" cy="931.72" r="4" fill="#0" id="circle196"/>
	<circle cx="648.539" cy="949.093" r="4" fill="#0" id="circle197"/>
	<circle cx="652.014" cy="283.706" r="4" fill="#0" id="circle198"/>
	<circle cx="652.014" cy="394.893" r="4" fill="#0" id="circle199"/>
	<circle cx="652.014" cy="718.032" r="4" fill="#0" id="circle200"/>
	<circle cx="655.489" cy="966.466" r="4" fill="#0" id="circle201"/>
	<circle cx="660.701" cy="299.342" r="4" fill="#0" id="circle202"/>
	<circle cx="660.701" cy="733.667" r="4" fill="#0" id="circle203"/>
	<circle cx="664.175" cy="408.792" r="4" fill="#0" id="circle204"/>
	<circle cx="664.175" cy="982.102" r="4" fill="#0" id="circle205"/>
	<circle cx="665.912" cy="751.04" r="4" fill="#0" id="circle206"/>
	<circle cx="672.862" cy="313.24" r="4" fill="#0" id="circle207"/>
	<circle cx="674.599" cy="766.676" r="4" fill="#0" id="circle208"/>
	<circle cx="674.599" cy="996" r="4" fill="#0" id="circle209"/>
	<circle cx="681.548" cy="328.876" r="4" fill="#0" id="circle210"/>
	<circle cx="681.548" cy="414.004" r="4" fill="#0" id="circle211"/>
	<circle cx="688.497" cy="778.837" r="4" fill="#0" id="circle212"/>
	<circle cx="688.497" cy="983.839" r="4" fill="#0" id="circle213"/>
	<circle cx="691.972" cy="342.774" r="4" fill="#0" id="circle214"/>
	<circle cx="691.972" cy="427.902" r="4" fill="#0" id="circle215"/>
	<circle cx="691.972" cy="796.21" r="4" fill="#0" id="circle216"/>
	<circle cx="700.658" cy="358.41" r="4" fill="#0" id="circle217"/>
	<circle cx="700.658" cy="811.846" r="4" fill="#0" id="circle218"/>
	<circle cx="700.658" cy="829.219" r="4" fill="#0" id="circle219"/>
	<circle cx="700.658" cy="961.254" r="4" fill="#0" id="circle220"/>
	<circle cx="709.345" cy="431.377" r="4" fill="#0" id="circle221"/>
	<circle cx="709.345" cy="844.855" r="4" fill="#0" id="circle222"/>
	<circle cx="709.345" cy="862.228" r="4" fill="#0" id="circle223"/>
	<circle cx="709.345" cy="879.601" r="4" fill="#0" id="circle224"/>
	<circle cx="709.345" cy="896.974" r="4" fill="#0" id="circle225"/>
	<circle cx="709.345" cy="914.347" r="4" fill="#0" id="circle226"/>
	<circle cx="709.345" cy="931.72" r="4" fill="#0" id="circle227"/>
	<circle cx="714.557" cy="370.571" r="4" fill="#0" id="circle228"/>
	<circle cx="721.506" cy="387.944" r="4" fill="#0" id="circle229"/>
	<circle cx="726.718" cy="431.377" r="4" fill="#0" id="circle230"/>
	<circle cx="730.193" cy="403.58" r="4" fill="#0" id="circle231"/>
	</g>
</svg>