<?xml version="1.0" encoding="UTF-8" standalone="no"?>
<!-- Created with CurveBenchmark -->
<svg
	xmlns:dc="http://purl.org/dc/elements/1.1/"
	xmlns:cc="http://creativecommons.org/ns#"
	xmlns:rdf="http://www.w3.org/1999/02/22-rdf-syntax-ns#"
	xmlns:svg="http://www.w3.org/2000/svg"
	xmlns="http://www.w3.org/2000/svg"
	xmlns:sodipodi="http://sodipodi.sourceforge.net/DTD/sodipodi-0.dtd"
	xmlns:inkscape="http://www.inkscape.org/namespaces/inkscape"
	width="1000"
	height="1000"
	id="svg2"
	version="1.1"
	sodipodi:docname="manifold/crust-textbox15.png.txt">
<defs
	id="defs4" />
<metadata
	id="metadata7">
	<rdf:RDF>
		<cc:Work
			rdf:about="">
			<dc:format>image/svg+xml</dc:format>
			<dc:type
				rdf:resource="http://purl.org/dc/dcmitype/StillImage" />
			<dc:title></dc:title>
		</cc:Work>
	</rdf:RDF>
</metadata>
<g
	inkscape:label="Layer 1"
	inkscape:groupmode="layer"
	id="layer1">
	<path style="fill:none;stroke:red;stroke-width:1px;stroke-linecap:butt;stroke-linejoin:miter;stroke-opacity:1" d="M 24.4115,34.6173 4,40.7407 z" id="boundary" inkscape:connector-curvature="0" />
	<path style="fill:none;stroke:red;stroke-width:1px;stroke-linecap:butt;stroke-linejoin:miter;stroke-opacity:1" d="M 44.823,34.6173 24.4115,34.6173 z" id="boundary" inkscape:connector-curvature="0" />
	<path style="fill:none;stroke:red;stroke-width:1px;stroke-linecap:butt;stroke-linejoin:miter;stroke-opacity:1" d="M 44.823,34.6173 65.2346,34.6173 z" id="boundary" inkscape:connector-curvature="0" />
	<path style="fill:none;stroke:red;stroke-width:1px;stroke-linecap:butt;stroke-linejoin:miter;stroke-opacity:1" d="M 4,81.5638 4,61.1523 z" id="boundary" inkscape:connector-curvature="0" />
	<path style="fill:none;stroke:red;stroke-width:1px;stroke-linecap:butt;stroke-linejoin:miter;stroke-opacity:1" d="M 4,61.1523 4,40.7407 z" id="boundary" inkscape:connector-curvature="0" />
	<path style="fill:none;stroke:red;stroke-width:1px;stroke-linecap:butt;stroke-linejoin:miter;stroke-opacity:1" d="M 4,101.975 4,81.5638 z" id="boundary" inkscape:connector-curvature="0" />
	<path style="fill:none;stroke:red;stroke-width:1px;stroke-linecap:butt;stroke-linejoin:miter;stroke-opacity:1" d="M 199.951,14.2058 179.539,14.2058 z" id="boundary" inkscape:connector-curvature="0" />
	<path style="fill:none;stroke:red;stroke-width:1px;stroke-linecap:butt;stroke-linejoin:miter;stroke-opacity:1" d="M 179.539,14.2058 159.128,18.2881 z" id="boundary" inkscape:connector-curvature="0" />
	<path style="fill:none;stroke:red;stroke-width:1px;stroke-linecap:butt;stroke-linejoin:miter;stroke-opacity:1" d="M 159.128,18.2881 146.881,34.6173 z" id="boundary" inkscape:connector-curvature="0" />
	<path style="fill:none;stroke:red;stroke-width:1px;stroke-linecap:butt;stroke-linejoin:miter;stroke-opacity:1" d="M 85.6461,34.6173 65.2346,34.6173 z" id="boundary" inkscape:connector-curvature="0" />
	<path style="fill:none;stroke:red;stroke-width:1px;stroke-linecap:butt;stroke-linejoin:miter;stroke-opacity:1" d="M 106.058,34.6173 85.6461,34.6173 z" id="boundary" inkscape:connector-curvature="0" />
	<path style="fill:none;stroke:red;stroke-width:1px;stroke-linecap:butt;stroke-linejoin:miter;stroke-opacity:1" d="M 126.469,34.6173 146.881,34.6173 z" id="boundary" inkscape:connector-curvature="0" />
	<path style="fill:none;stroke:red;stroke-width:1px;stroke-linecap:butt;stroke-linejoin:miter;stroke-opacity:1" d="M 106.058,34.6173 126.469,34.6173 z" id="boundary" inkscape:connector-curvature="0" />
	<path style="fill:none;stroke:red;stroke-width:1px;stroke-linecap:butt;stroke-linejoin:miter;stroke-opacity:1" d="M 4,122.387 4,101.975 z" id="boundary" inkscape:connector-curvature="0" />
	<path style="fill:none;stroke:red;stroke-width:1px;stroke-linecap:butt;stroke-linejoin:miter;stroke-opacity:1" d="M 4,142.798 4,122.387 z" id="boundary" inkscape:connector-curvature="0" />
	<path style="fill:none;stroke:red;stroke-width:1px;stroke-linecap:butt;stroke-linejoin:miter;stroke-opacity:1" d="M 4,142.798 4,163.21 z" id="boundary" inkscape:connector-curvature="0" />
	<path style="fill:none;stroke:red;stroke-width:1px;stroke-linecap:butt;stroke-linejoin:miter;stroke-opacity:1" d="M 4,183.621 4,163.21 z" id="boundary" inkscape:connector-curvature="0" />
	<path style="fill:none;stroke:red;stroke-width:1px;stroke-linecap:butt;stroke-linejoin:miter;stroke-opacity:1" d="M 4,204.033 4,183.621 z" id="boundary" inkscape:connector-curvature="0" />
	<path style="fill:none;stroke:red;stroke-width:1px;stroke-linecap:butt;stroke-linejoin:miter;stroke-opacity:1" d="M 4,204.033 4,224.444 z" id="boundary" inkscape:connector-curvature="0" />
	<path style="fill:none;stroke:red;stroke-width:1px;stroke-linecap:butt;stroke-linejoin:miter;stroke-opacity:1" d="M 4,244.856 4,224.444 z" id="boundary" inkscape:connector-curvature="0" />
	<path style="fill:none;stroke:red;stroke-width:1px;stroke-linecap:butt;stroke-linejoin:miter;stroke-opacity:1" d="M 4,265.267 4,244.856 z" id="boundary" inkscape:connector-curvature="0" />
	<path style="fill:none;stroke:red;stroke-width:1px;stroke-linecap:butt;stroke-linejoin:miter;stroke-opacity:1" d="M 4,265.267 4,285.679 z" id="boundary" inkscape:connector-curvature="0" />
	<path style="fill:none;stroke:red;stroke-width:1px;stroke-linecap:butt;stroke-linejoin:miter;stroke-opacity:1" d="M 4,306.091 4,285.679 z" id="boundary" inkscape:connector-curvature="0" />
	<path style="fill:none;stroke:red;stroke-width:1px;stroke-linecap:butt;stroke-linejoin:miter;stroke-opacity:1" d="M 4,306.091 4,326.502 z" id="boundary" inkscape:connector-curvature="0" />
	<path style="fill:none;stroke:red;stroke-width:1px;stroke-linecap:butt;stroke-linejoin:miter;stroke-opacity:1" d="M 4,346.914 4,326.502 z" id="boundary" inkscape:connector-curvature="0" />
	<path style="fill:none;stroke:red;stroke-width:1px;stroke-linecap:butt;stroke-linejoin:miter;stroke-opacity:1" d="M 4,367.325 4,346.914 z" id="boundary" inkscape:connector-curvature="0" />
	<path style="fill:none;stroke:red;stroke-width:1px;stroke-linecap:butt;stroke-linejoin:miter;stroke-opacity:1" d="M 220.362,14.2058 240.774,14.2058 z" id="boundary" inkscape:connector-curvature="0" />
	<path style="fill:none;stroke:red;stroke-width:1px;stroke-linecap:butt;stroke-linejoin:miter;stroke-opacity:1" d="M 220.362,14.2058 199.951,14.2058 z" id="boundary" inkscape:connector-curvature="0" />
	<path style="fill:none;stroke:red;stroke-width:1px;stroke-linecap:butt;stroke-linejoin:miter;stroke-opacity:1" d="M 261.185,14.2058 281.597,14.2058 z" id="boundary" inkscape:connector-curvature="0" />
	<path style="fill:none;stroke:red;stroke-width:1px;stroke-linecap:butt;stroke-linejoin:miter;stroke-opacity:1" d="M 302.008,14.2058 322.42,14.2058 z" id="boundary" inkscape:connector-curvature="0" />
	<path style="fill:none;stroke:red;stroke-width:1px;stroke-linecap:butt;stroke-linejoin:miter;stroke-opacity:1" d="M 302.008,14.2058 281.597,14.2058 z" id="boundary" inkscape:connector-curvature="0" />
	<path style="fill:none;stroke:red;stroke-width:1px;stroke-linecap:butt;stroke-linejoin:miter;stroke-opacity:1" d="M 261.185,14.2058 240.774,14.2058 z" id="boundary" inkscape:connector-curvature="0" />
	<path style="fill:none;stroke:red;stroke-width:1px;stroke-linecap:butt;stroke-linejoin:miter;stroke-opacity:1" d="M 342.831,14.2058 363.243,14.2058 z" id="boundary" inkscape:connector-curvature="0" />
	<path style="fill:none;stroke:red;stroke-width:1px;stroke-linecap:butt;stroke-linejoin:miter;stroke-opacity:1" d="M 383.654,14.2058 363.243,14.2058 z" id="boundary" inkscape:connector-curvature="0" />
	<path style="fill:none;stroke:red;stroke-width:1px;stroke-linecap:butt;stroke-linejoin:miter;stroke-opacity:1" d="M 342.831,14.2058 322.42,14.2058 z" id="boundary" inkscape:connector-curvature="0" />
	<path style="fill:none;stroke:red;stroke-width:1px;stroke-linecap:butt;stroke-linejoin:miter;stroke-opacity:1" d="M 424.477,14.2058 404.066,14.2058 z" id="boundary" inkscape:connector-curvature="0" />
	<path style="fill:none;stroke:red;stroke-width:1px;stroke-linecap:butt;stroke-linejoin:miter;stroke-opacity:1" d="M 404.066,14.2058 383.654,14.2058 z" id="boundary" inkscape:connector-curvature="0" />
	<path style="fill:none;stroke:red;stroke-width:1px;stroke-linecap:butt;stroke-linejoin:miter;stroke-opacity:1" d="M 424.477,14.2058 444.889,14.2058 z" id="boundary" inkscape:connector-curvature="0" />
	<path style="fill:none;stroke:red;stroke-width:1px;stroke-linecap:butt;stroke-linejoin:miter;stroke-opacity:1" d="M 465.3,14.2058 444.889,14.2058 z" id="boundary" inkscape:connector-curvature="0" />
	<path style="fill:none;stroke:red;stroke-width:1px;stroke-linecap:butt;stroke-linejoin:miter;stroke-opacity:1" d="M 465.3,14.2058 485.712,14.2058 z" id="boundary" inkscape:connector-curvature="0" />
	<path style="fill:none;stroke:red;stroke-width:1px;stroke-linecap:butt;stroke-linejoin:miter;stroke-opacity:1" d="M 506.123,14.2058 485.712,14.2058 z" id="boundary" inkscape:connector-curvature="0" />
	<path style="fill:none;stroke:red;stroke-width:1px;stroke-linecap:butt;stroke-linejoin:miter;stroke-opacity:1" d="M 4,367.325 24.4115,373.449 z" id="boundary" inkscape:connector-curvature="0" />
	<path style="fill:none;stroke:red;stroke-width:1px;stroke-linecap:butt;stroke-linejoin:miter;stroke-opacity:1" d="M 24.4115,373.449 24.4115,393.86 z" id="boundary" inkscape:connector-curvature="0" />
	<path style="fill:none;stroke:red;stroke-width:1px;stroke-linecap:butt;stroke-linejoin:miter;stroke-opacity:1" d="M 24.4115,414.272 24.4115,393.86 z" id="boundary" inkscape:connector-curvature="0" />
	<path style="fill:none;stroke:red;stroke-width:1px;stroke-linecap:butt;stroke-linejoin:miter;stroke-opacity:1" d="M 24.4115,414.272 24.4115,434.683 z" id="boundary" inkscape:connector-curvature="0" />
	<path style="fill:none;stroke:red;stroke-width:1px;stroke-linecap:butt;stroke-linejoin:miter;stroke-opacity:1" d="M 24.4115,434.683 24.4115,455.095 z" id="boundary" inkscape:connector-curvature="0" />
	<path style="fill:none;stroke:red;stroke-width:1px;stroke-linecap:butt;stroke-linejoin:miter;stroke-opacity:1" d="M 24.4115,475.506 24.4115,455.095 z" id="boundary" inkscape:connector-curvature="0" />
	<path style="fill:none;stroke:red;stroke-width:1px;stroke-linecap:butt;stroke-linejoin:miter;stroke-opacity:1" d="M 24.4115,495.918 24.4115,475.506 z" id="boundary" inkscape:connector-curvature="0" />
	<path style="fill:none;stroke:red;stroke-width:1px;stroke-linecap:butt;stroke-linejoin:miter;stroke-opacity:1" d="M 24.4115,536.741 24.4115,516.329 z" id="boundary" inkscape:connector-curvature="0" />
	<path style="fill:none;stroke:red;stroke-width:1px;stroke-linecap:butt;stroke-linejoin:miter;stroke-opacity:1" d="M 24.4115,516.329 24.4115,495.918 z" id="boundary" inkscape:connector-curvature="0" />
	<path style="fill:none;stroke:red;stroke-width:1px;stroke-linecap:butt;stroke-linejoin:miter;stroke-opacity:1" d="M 24.4115,536.741 24.4115,557.152 z" id="boundary" inkscape:connector-curvature="0" />
	<path style="fill:none;stroke:red;stroke-width:1px;stroke-linecap:butt;stroke-linejoin:miter;stroke-opacity:1" d="M 24.4115,557.152 24.4115,577.564 z" id="boundary" inkscape:connector-curvature="0" />
	<path style="fill:none;stroke:red;stroke-width:1px;stroke-linecap:butt;stroke-linejoin:miter;stroke-opacity:1" d="M 24.4115,577.564 24.4115,597.975 z" id="boundary" inkscape:connector-curvature="0" />
	<path style="fill:none;stroke:red;stroke-width:1px;stroke-linecap:butt;stroke-linejoin:miter;stroke-opacity:1" d="M 24.4115,597.975 24.4115,618.387 z" id="boundary" inkscape:connector-curvature="0" />
	<path style="fill:none;stroke:red;stroke-width:1px;stroke-linecap:butt;stroke-linejoin:miter;stroke-opacity:1" d="M 42.7819,628.593 24.4115,618.387 z" id="boundary" inkscape:connector-curvature="0" />
	<path style="fill:none;stroke:red;stroke-width:1px;stroke-linecap:butt;stroke-linejoin:miter;stroke-opacity:1" d="M 63.1934,628.593 42.7819,628.593 z" id="boundary" inkscape:connector-curvature="0" />
	<path style="fill:none;stroke:red;stroke-width:1px;stroke-linecap:butt;stroke-linejoin:miter;stroke-opacity:1" d="M 83.6049,628.593 63.1934,628.593 z" id="boundary" inkscape:connector-curvature="0" />
	<path style="fill:none;stroke:red;stroke-width:1px;stroke-linecap:butt;stroke-linejoin:miter;stroke-opacity:1" d="M 104.016,628.593 83.6049,628.593 z" id="boundary" inkscape:connector-curvature="0" />
	<path style="fill:none;stroke:red;stroke-width:1px;stroke-linecap:butt;stroke-linejoin:miter;stroke-opacity:1" d="M 124.428,628.593 104.016,628.593 z" id="boundary" inkscape:connector-curvature="0" />
	<path style="fill:none;stroke:red;stroke-width:1px;stroke-linecap:butt;stroke-linejoin:miter;stroke-opacity:1" d="M 144.84,628.593 124.428,628.593 z" id="boundary" inkscape:connector-curvature="0" />
	<path style="fill:none;stroke:red;stroke-width:1px;stroke-linecap:butt;stroke-linejoin:miter;stroke-opacity:1" d="M 144.84,628.593 165.251,628.593 z" id="boundary" inkscape:connector-curvature="0" />
	<path style="fill:none;stroke:red;stroke-width:1px;stroke-linecap:butt;stroke-linejoin:miter;stroke-opacity:1" d="M 206.074,628.593 185.663,628.593 z" id="boundary" inkscape:connector-curvature="0" />
	<path style="fill:none;stroke:red;stroke-width:1px;stroke-linecap:butt;stroke-linejoin:miter;stroke-opacity:1" d="M 226.486,628.593 206.074,628.593 z" id="boundary" inkscape:connector-curvature="0" />
	<path style="fill:none;stroke:red;stroke-width:1px;stroke-linecap:butt;stroke-linejoin:miter;stroke-opacity:1" d="M 226.486,628.593 246.897,628.593 z" id="boundary" inkscape:connector-curvature="0" />
	<path style="fill:none;stroke:red;stroke-width:1px;stroke-linecap:butt;stroke-linejoin:miter;stroke-opacity:1" d="M 185.663,628.593 165.251,628.593 z" id="boundary" inkscape:connector-curvature="0" />
	<path style="fill:none;stroke:red;stroke-width:1px;stroke-linecap:butt;stroke-linejoin:miter;stroke-opacity:1" d="M 302.008,608.181 281.597,608.181 z" id="boundary" inkscape:connector-curvature="0" />
	<path style="fill:none;stroke:red;stroke-width:1px;stroke-linecap:butt;stroke-linejoin:miter;stroke-opacity:1" d="M 267.309,628.593 281.597,608.181 z" id="boundary" inkscape:connector-curvature="0" />
	<path style="fill:none;stroke:red;stroke-width:1px;stroke-linecap:butt;stroke-linejoin:miter;stroke-opacity:1" d="M 302.008,608.181 322.42,608.181 z" id="boundary" inkscape:connector-curvature="0" />
	<path style="fill:none;stroke:red;stroke-width:1px;stroke-linecap:butt;stroke-linejoin:miter;stroke-opacity:1" d="M 342.831,608.181 363.243,608.181 z" id="boundary" inkscape:connector-curvature="0" />
	<path style="fill:none;stroke:red;stroke-width:1px;stroke-linecap:butt;stroke-linejoin:miter;stroke-opacity:1" d="M 342.831,608.181 322.42,608.181 z" id="boundary" inkscape:connector-curvature="0" />
	<path style="fill:none;stroke:red;stroke-width:1px;stroke-linecap:butt;stroke-linejoin:miter;stroke-opacity:1" d="M 383.654,608.181 363.243,608.181 z" id="boundary" inkscape:connector-curvature="0" />
	<path style="fill:none;stroke:red;stroke-width:1px;stroke-linecap:butt;stroke-linejoin:miter;stroke-opacity:1" d="M 383.654,608.181 404.066,608.181 z" id="boundary" inkscape:connector-curvature="0" />
	<path style="fill:none;stroke:red;stroke-width:1px;stroke-linecap:butt;stroke-linejoin:miter;stroke-opacity:1" d="M 404.066,608.181 424.477,608.181 z" id="boundary" inkscape:connector-curvature="0" />
	<path style="fill:none;stroke:red;stroke-width:1px;stroke-linecap:butt;stroke-linejoin:miter;stroke-opacity:1" d="M 424.477,608.181 444.889,608.181 z" id="boundary" inkscape:connector-curvature="0" />
	<path style="fill:none;stroke:red;stroke-width:1px;stroke-linecap:butt;stroke-linejoin:miter;stroke-opacity:1" d="M 465.3,608.181 485.712,608.181 z" id="boundary" inkscape:connector-curvature="0" />
	<path style="fill:none;stroke:red;stroke-width:1px;stroke-linecap:butt;stroke-linejoin:miter;stroke-opacity:1" d="M 465.3,608.181 444.889,608.181 z" id="boundary" inkscape:connector-curvature="0" />
	<path style="fill:none;stroke:red;stroke-width:1px;stroke-linecap:butt;stroke-linejoin:miter;stroke-opacity:1" d="M 485.712,608.181 506.123,608.181 z" id="boundary" inkscape:connector-curvature="0" />
	<path style="fill:none;stroke:red;stroke-width:1px;stroke-linecap:butt;stroke-linejoin:miter;stroke-opacity:1" d="M 267.309,628.593 246.897,628.593 z" id="boundary" inkscape:connector-curvature="0" />
	<path style="fill:none;stroke:red;stroke-width:1px;stroke-linecap:butt;stroke-linejoin:miter;stroke-opacity:1" d="M 514.288,765.35 514.288,785.761 z" id="boundary" inkscape:connector-curvature="0" />
	<path style="fill:none;stroke:red;stroke-width:1px;stroke-linecap:butt;stroke-linejoin:miter;stroke-opacity:1" d="M 514.288,806.173 514.288,826.584 z" id="boundary" inkscape:connector-curvature="0" />
	<path style="fill:none;stroke:red;stroke-width:1px;stroke-linecap:butt;stroke-linejoin:miter;stroke-opacity:1" d="M 514.288,806.173 514.288,785.761 z" id="boundary" inkscape:connector-curvature="0" />
	<path style="fill:none;stroke:red;stroke-width:1px;stroke-linecap:butt;stroke-linejoin:miter;stroke-opacity:1" d="M 524.494,744.938 514.288,765.35 z" id="boundary" inkscape:connector-curvature="0" />
	<path style="fill:none;stroke:red;stroke-width:1px;stroke-linecap:butt;stroke-linejoin:miter;stroke-opacity:1" d="M 669.416,4 649.004,4 z" id="boundary" inkscape:connector-curvature="0" />
	<path style="fill:none;stroke:red;stroke-width:1px;stroke-linecap:butt;stroke-linejoin:miter;stroke-opacity:1" d="M 526.535,14.2058 506.123,14.2058 z" id="boundary" inkscape:connector-curvature="0" />
	<path style="fill:none;stroke:red;stroke-width:1px;stroke-linecap:butt;stroke-linejoin:miter;stroke-opacity:1" d="M 608.181,4 628.593,4 z" id="boundary" inkscape:connector-curvature="0" />
	<path style="fill:none;stroke:red;stroke-width:1px;stroke-linecap:butt;stroke-linejoin:miter;stroke-opacity:1" d="M 649.004,4 628.593,4 z" id="boundary" inkscape:connector-curvature="0" />
	<path style="fill:none;stroke:red;stroke-width:1px;stroke-linecap:butt;stroke-linejoin:miter;stroke-opacity:1" d="M 689.827,4 669.416,4 z" id="boundary" inkscape:connector-curvature="0" />
	<path style="fill:none;stroke:red;stroke-width:1px;stroke-linecap:butt;stroke-linejoin:miter;stroke-opacity:1" d="M 608.181,4 587.77,8.0823 z" id="boundary" inkscape:connector-curvature="0" />
	<path style="fill:none;stroke:red;stroke-width:1px;stroke-linecap:butt;stroke-linejoin:miter;stroke-opacity:1" d="M 526.535,14.2058 546.947,14.2058 z" id="boundary" inkscape:connector-curvature="0" />
	<path style="fill:none;stroke:red;stroke-width:1px;stroke-linecap:butt;stroke-linejoin:miter;stroke-opacity:1" d="M 567.358,14.2058 546.947,14.2058 z" id="boundary" inkscape:connector-curvature="0" />
	<path style="fill:none;stroke:red;stroke-width:1px;stroke-linecap:butt;stroke-linejoin:miter;stroke-opacity:1" d="M 567.358,14.2058 587.77,8.0823 z" id="boundary" inkscape:connector-curvature="0" />
	<path style="fill:none;stroke:red;stroke-width:1px;stroke-linecap:butt;stroke-linejoin:miter;stroke-opacity:1" d="M 710.239,4 730.65,4 z" id="boundary" inkscape:connector-curvature="0" />
	<path style="fill:none;stroke:red;stroke-width:1px;stroke-linecap:butt;stroke-linejoin:miter;stroke-opacity:1" d="M 710.239,4 689.827,4 z" id="boundary" inkscape:connector-curvature="0" />
	<path style="fill:none;stroke:red;stroke-width:1px;stroke-linecap:butt;stroke-linejoin:miter;stroke-opacity:1" d="M 751.062,4 771.473,4 z" id="boundary" inkscape:connector-curvature="0" />
	<path style="fill:none;stroke:red;stroke-width:1px;stroke-linecap:butt;stroke-linejoin:miter;stroke-opacity:1" d="M 812.296,4 791.885,4 z" id="boundary" inkscape:connector-curvature="0" />
	<path style="fill:none;stroke:red;stroke-width:1px;stroke-linecap:butt;stroke-linejoin:miter;stroke-opacity:1" d="M 791.885,4 771.473,4 z" id="boundary" inkscape:connector-curvature="0" />
	<path style="fill:none;stroke:red;stroke-width:1px;stroke-linecap:butt;stroke-linejoin:miter;stroke-opacity:1" d="M 751.062,4 730.65,4 z" id="boundary" inkscape:connector-curvature="0" />
	<path style="fill:none;stroke:red;stroke-width:1px;stroke-linecap:butt;stroke-linejoin:miter;stroke-opacity:1" d="M 812.296,4 832.708,4 z" id="boundary" inkscape:connector-curvature="0" />
	<path style="fill:none;stroke:red;stroke-width:1px;stroke-linecap:butt;stroke-linejoin:miter;stroke-opacity:1" d="M 853.119,4 832.708,4 z" id="boundary" inkscape:connector-curvature="0" />
	<path style="fill:none;stroke:red;stroke-width:1px;stroke-linecap:butt;stroke-linejoin:miter;stroke-opacity:1" d="M 853.119,4 873.531,4 z" id="boundary" inkscape:connector-curvature="0" />
	<path style="fill:none;stroke:red;stroke-width:1px;stroke-linecap:butt;stroke-linejoin:miter;stroke-opacity:1" d="M 893.942,4 873.531,4 z" id="boundary" inkscape:connector-curvature="0" />
	<path style="fill:none;stroke:red;stroke-width:1px;stroke-linecap:butt;stroke-linejoin:miter;stroke-opacity:1" d="M 934.765,4 914.354,4 z" id="boundary" inkscape:connector-curvature="0" />
	<path style="fill:none;stroke:red;stroke-width:1px;stroke-linecap:butt;stroke-linejoin:miter;stroke-opacity:1" d="M 893.942,4 914.354,4 z" id="boundary" inkscape:connector-curvature="0" />
	<path style="fill:none;stroke:red;stroke-width:1px;stroke-linecap:butt;stroke-linejoin:miter;stroke-opacity:1" d="M 934.765,4 955.177,4 z" id="boundary" inkscape:connector-curvature="0" />
	<path style="fill:none;stroke:red;stroke-width:1px;stroke-linecap:butt;stroke-linejoin:miter;stroke-opacity:1" d="M 955.177,4 975.588,10.1235 z" id="boundary" inkscape:connector-curvature="0" />
	<path style="fill:none;stroke:red;stroke-width:1px;stroke-linecap:butt;stroke-linejoin:miter;stroke-opacity:1" d="M 975.588,30.535 975.588,50.9465 z" id="boundary" inkscape:connector-curvature="0" />
	<path style="fill:none;stroke:red;stroke-width:1px;stroke-linecap:butt;stroke-linejoin:miter;stroke-opacity:1" d="M 975.588,30.535 975.588,10.1235 z" id="boundary" inkscape:connector-curvature="0" />
	<path style="fill:none;stroke:red;stroke-width:1px;stroke-linecap:butt;stroke-linejoin:miter;stroke-opacity:1" d="M 975.588,50.9465 975.588,71.358 z" id="boundary" inkscape:connector-curvature="0" />
	<path style="fill:none;stroke:red;stroke-width:1px;stroke-linecap:butt;stroke-linejoin:miter;stroke-opacity:1" d="M 975.588,91.7695 975.588,71.358 z" id="boundary" inkscape:connector-curvature="0" />
	<path style="fill:none;stroke:red;stroke-width:1px;stroke-linecap:butt;stroke-linejoin:miter;stroke-opacity:1" d="M 975.588,112.181 975.588,132.593 z" id="boundary" inkscape:connector-curvature="0" />
	<path style="fill:none;stroke:red;stroke-width:1px;stroke-linecap:butt;stroke-linejoin:miter;stroke-opacity:1" d="M 975.588,112.181 975.588,91.7695 z" id="boundary" inkscape:connector-curvature="0" />
	<path style="fill:none;stroke:red;stroke-width:1px;stroke-linecap:butt;stroke-linejoin:miter;stroke-opacity:1" d="M 975.588,132.593 975.588,153.004 z" id="boundary" inkscape:connector-curvature="0" />
	<path style="fill:none;stroke:red;stroke-width:1px;stroke-linecap:butt;stroke-linejoin:miter;stroke-opacity:1" d="M 975.588,173.416 975.588,153.004 z" id="boundary" inkscape:connector-curvature="0" />
	<path style="fill:none;stroke:red;stroke-width:1px;stroke-linecap:butt;stroke-linejoin:miter;stroke-opacity:1" d="M 975.588,173.416 975.588,193.827 z" id="boundary" inkscape:connector-curvature="0" />
	<path style="fill:none;stroke:red;stroke-width:1px;stroke-linecap:butt;stroke-linejoin:miter;stroke-opacity:1" d="M 975.588,214.239 975.588,193.827 z" id="boundary" inkscape:connector-curvature="0" />
	<path style="fill:none;stroke:red;stroke-width:1px;stroke-linecap:butt;stroke-linejoin:miter;stroke-opacity:1" d="M 989.877,250.979 975.588,234.65 z" id="boundary" inkscape:connector-curvature="0" />
	<path style="fill:none;stroke:red;stroke-width:1px;stroke-linecap:butt;stroke-linejoin:miter;stroke-opacity:1" d="M 975.588,234.65 975.588,214.239 z" id="boundary" inkscape:connector-curvature="0" />
	<path style="fill:none;stroke:red;stroke-width:1px;stroke-linecap:butt;stroke-linejoin:miter;stroke-opacity:1" d="M 996,271.391 996,291.802 z" id="boundary" inkscape:connector-curvature="0" />
	<path style="fill:none;stroke:red;stroke-width:1px;stroke-linecap:butt;stroke-linejoin:miter;stroke-opacity:1" d="M 996,271.391 989.877,250.979 z" id="boundary" inkscape:connector-curvature="0" />
	<path style="fill:none;stroke:red;stroke-width:1px;stroke-linecap:butt;stroke-linejoin:miter;stroke-opacity:1" d="M 996,291.802 996,312.214 z" id="boundary" inkscape:connector-curvature="0" />
	<path style="fill:none;stroke:red;stroke-width:1px;stroke-linecap:butt;stroke-linejoin:miter;stroke-opacity:1" d="M 996,312.214 996,332.626 z" id="boundary" inkscape:connector-curvature="0" />
	<path style="fill:none;stroke:red;stroke-width:1px;stroke-linecap:butt;stroke-linejoin:miter;stroke-opacity:1" d="M 996,475.506 996,455.095 z" id="boundary" inkscape:connector-curvature="0" />
	<path style="fill:none;stroke:red;stroke-width:1px;stroke-linecap:butt;stroke-linejoin:miter;stroke-opacity:1" d="M 996,332.626 996,353.037 z" id="boundary" inkscape:connector-curvature="0" />
	<path style="fill:none;stroke:red;stroke-width:1px;stroke-linecap:butt;stroke-linejoin:miter;stroke-opacity:1" d="M 996,373.449 996,353.037 z" id="boundary" inkscape:connector-curvature="0" />
	<path style="fill:none;stroke:red;stroke-width:1px;stroke-linecap:butt;stroke-linejoin:miter;stroke-opacity:1" d="M 996,414.272 996,393.86 z" id="boundary" inkscape:connector-curvature="0" />
	<path style="fill:none;stroke:red;stroke-width:1px;stroke-linecap:butt;stroke-linejoin:miter;stroke-opacity:1" d="M 996,414.272 996,434.683 z" id="boundary" inkscape:connector-curvature="0" />
	<path style="fill:none;stroke:red;stroke-width:1px;stroke-linecap:butt;stroke-linejoin:miter;stroke-opacity:1" d="M 996,455.095 996,434.683 z" id="boundary" inkscape:connector-curvature="0" />
	<path style="fill:none;stroke:red;stroke-width:1px;stroke-linecap:butt;stroke-linejoin:miter;stroke-opacity:1" d="M 996,393.86 996,373.449 z" id="boundary" inkscape:connector-curvature="0" />
	<path style="fill:none;stroke:red;stroke-width:1px;stroke-linecap:butt;stroke-linejoin:miter;stroke-opacity:1" d="M 526.535,608.181 546.947,608.181 z" id="boundary" inkscape:connector-curvature="0" />
	<path style="fill:none;stroke:red;stroke-width:1px;stroke-linecap:butt;stroke-linejoin:miter;stroke-opacity:1" d="M 567.358,608.181 555.111,632.675 z" id="boundary" inkscape:connector-curvature="0" />
	<path style="fill:none;stroke:red;stroke-width:1px;stroke-linecap:butt;stroke-linejoin:miter;stroke-opacity:1" d="M 546.947,608.181 567.358,608.181 z" id="boundary" inkscape:connector-curvature="0" />
	<path style="fill:none;stroke:red;stroke-width:1px;stroke-linecap:butt;stroke-linejoin:miter;stroke-opacity:1" d="M 555.111,653.086 555.111,632.675 z" id="boundary" inkscape:connector-curvature="0" />
	<path style="fill:none;stroke:red;stroke-width:1px;stroke-linecap:butt;stroke-linejoin:miter;stroke-opacity:1" d="M 544.905,673.498 555.111,653.086 z" id="boundary" inkscape:connector-curvature="0" />
	<path style="fill:none;stroke:red;stroke-width:1px;stroke-linecap:butt;stroke-linejoin:miter;stroke-opacity:1" d="M 544.905,693.909 544.905,714.321 z" id="boundary" inkscape:connector-curvature="0" />
	<path style="fill:none;stroke:red;stroke-width:1px;stroke-linecap:butt;stroke-linejoin:miter;stroke-opacity:1" d="M 544.905,693.909 544.905,673.498 z" id="boundary" inkscape:connector-curvature="0" />
	<path style="fill:none;stroke:red;stroke-width:1px;stroke-linecap:butt;stroke-linejoin:miter;stroke-opacity:1" d="M 506.123,608.181 526.535,608.181 z" id="boundary" inkscape:connector-curvature="0" />
	<path style="fill:none;stroke:red;stroke-width:1px;stroke-linecap:butt;stroke-linejoin:miter;stroke-opacity:1" d="M 704.115,689.827 683.704,697.992 z" id="boundary" inkscape:connector-curvature="0" />
	<path style="fill:none;stroke:red;stroke-width:1px;stroke-linecap:butt;stroke-linejoin:miter;stroke-opacity:1" d="M 720.444,669.416 704.115,689.827 z" id="boundary" inkscape:connector-curvature="0" />
	<path style="fill:none;stroke:red;stroke-width:1px;stroke-linecap:butt;stroke-linejoin:miter;stroke-opacity:1" d="M 683.704,697.992 673.498,718.403 z" id="boundary" inkscape:connector-curvature="0" />
	<path style="fill:none;stroke:red;stroke-width:1px;stroke-linecap:butt;stroke-linejoin:miter;stroke-opacity:1" d="M 524.494,744.938 524.494,724.527 z" id="boundary" inkscape:connector-curvature="0" />
	<path style="fill:none;stroke:red;stroke-width:1px;stroke-linecap:butt;stroke-linejoin:miter;stroke-opacity:1" d="M 524.494,724.527 544.905,714.321 z" id="boundary" inkscape:connector-curvature="0" />
	<path style="fill:none;stroke:red;stroke-width:1px;stroke-linecap:butt;stroke-linejoin:miter;stroke-opacity:1" d="M 555.111,816.379 534.7,822.502 z" id="boundary" inkscape:connector-curvature="0" />
	<path style="fill:none;stroke:red;stroke-width:1px;stroke-linecap:butt;stroke-linejoin:miter;stroke-opacity:1" d="M 514.288,826.584 534.7,822.502 z" id="boundary" inkscape:connector-curvature="0" />
	<path style="fill:none;stroke:red;stroke-width:1px;stroke-linecap:butt;stroke-linejoin:miter;stroke-opacity:1" d="M 571.44,800.049 555.111,816.379 z" id="boundary" inkscape:connector-curvature="0" />
	<path style="fill:none;stroke:red;stroke-width:1px;stroke-linecap:butt;stroke-linejoin:miter;stroke-opacity:1" d="M 653.086,728.609 642.881,749.021 z" id="boundary" inkscape:connector-curvature="0" />
	<path style="fill:none;stroke:red;stroke-width:1px;stroke-linecap:butt;stroke-linejoin:miter;stroke-opacity:1" d="M 653.086,728.609 673.498,718.403 z" id="boundary" inkscape:connector-curvature="0" />
	<path style="fill:none;stroke:red;stroke-width:1px;stroke-linecap:butt;stroke-linejoin:miter;stroke-opacity:1" d="M 571.44,800.049 587.77,771.473 z" id="boundary" inkscape:connector-curvature="0" />
	<path style="fill:none;stroke:red;stroke-width:1px;stroke-linecap:butt;stroke-linejoin:miter;stroke-opacity:1" d="M 587.77,771.473 608.181,771.473 z" id="boundary" inkscape:connector-curvature="0" />
	<path style="fill:none;stroke:red;stroke-width:1px;stroke-linecap:butt;stroke-linejoin:miter;stroke-opacity:1" d="M 626.551,761.267 642.881,749.021 z" id="boundary" inkscape:connector-curvature="0" />
	<path style="fill:none;stroke:red;stroke-width:1px;stroke-linecap:butt;stroke-linejoin:miter;stroke-opacity:1" d="M 608.181,771.473 626.551,761.267 z" id="boundary" inkscape:connector-curvature="0" />
	<path style="fill:none;stroke:red;stroke-width:1px;stroke-linecap:butt;stroke-linejoin:miter;stroke-opacity:1" d="M 840.872,597.975 820.461,597.975 z" id="boundary" inkscape:connector-curvature="0" />
	<path style="fill:none;stroke:red;stroke-width:1px;stroke-linecap:butt;stroke-linejoin:miter;stroke-opacity:1" d="M 820.461,597.975 802.091,608.181 z" id="boundary" inkscape:connector-curvature="0" />
	<path style="fill:none;stroke:red;stroke-width:1px;stroke-linecap:butt;stroke-linejoin:miter;stroke-opacity:1" d="M 861.284,597.975 881.695,597.975 z" id="boundary" inkscape:connector-curvature="0" />
	<path style="fill:none;stroke:red;stroke-width:1px;stroke-linecap:butt;stroke-linejoin:miter;stroke-opacity:1" d="M 861.284,597.975 840.872,597.975 z" id="boundary" inkscape:connector-curvature="0" />
	<path style="fill:none;stroke:red;stroke-width:1px;stroke-linecap:butt;stroke-linejoin:miter;stroke-opacity:1" d="M 902.107,597.975 922.519,597.975 z" id="boundary" inkscape:connector-curvature="0" />
	<path style="fill:none;stroke:red;stroke-width:1px;stroke-linecap:butt;stroke-linejoin:miter;stroke-opacity:1" d="M 902.107,597.975 881.695,597.975 z" id="boundary" inkscape:connector-curvature="0" />
	<path style="fill:none;stroke:red;stroke-width:1px;stroke-linecap:butt;stroke-linejoin:miter;stroke-opacity:1" d="M 996,495.918 996,475.506 z" id="boundary" inkscape:connector-curvature="0" />
	<path style="fill:none;stroke:red;stroke-width:1px;stroke-linecap:butt;stroke-linejoin:miter;stroke-opacity:1" d="M 996,516.329 996,536.741 z" id="boundary" inkscape:connector-curvature="0" />
	<path style="fill:none;stroke:red;stroke-width:1px;stroke-linecap:butt;stroke-linejoin:miter;stroke-opacity:1" d="M 996,516.329 996,495.918 z" id="boundary" inkscape:connector-curvature="0" />
	<path style="fill:none;stroke:red;stroke-width:1px;stroke-linecap:butt;stroke-linejoin:miter;stroke-opacity:1" d="M 963.342,597.975 942.93,597.975 z" id="boundary" inkscape:connector-curvature="0" />
	<path style="fill:none;stroke:red;stroke-width:1px;stroke-linecap:butt;stroke-linejoin:miter;stroke-opacity:1" d="M 942.93,597.975 922.519,597.975 z" id="boundary" inkscape:connector-curvature="0" />
	<path style="fill:none;stroke:red;stroke-width:1px;stroke-linecap:butt;stroke-linejoin:miter;stroke-opacity:1" d="M 983.753,597.975 963.342,597.975 z" id="boundary" inkscape:connector-curvature="0" />
	<path style="fill:none;stroke:red;stroke-width:1px;stroke-linecap:butt;stroke-linejoin:miter;stroke-opacity:1" d="M 996,557.152 996,577.564 z" id="boundary" inkscape:connector-curvature="0" />
	<path style="fill:none;stroke:red;stroke-width:1px;stroke-linecap:butt;stroke-linejoin:miter;stroke-opacity:1" d="M 996,536.741 996,557.152 z" id="boundary" inkscape:connector-curvature="0" />
	<path style="fill:none;stroke:red;stroke-width:1px;stroke-linecap:butt;stroke-linejoin:miter;stroke-opacity:1" d="M 996,577.564 983.753,597.975 z" id="boundary" inkscape:connector-curvature="0" />
	<path style="fill:none;stroke:red;stroke-width:1px;stroke-linecap:butt;stroke-linejoin:miter;stroke-opacity:1" d="M 781.679,608.181 771.473,638.798 z" id="boundary" inkscape:connector-curvature="0" />
	<path style="fill:none;stroke:red;stroke-width:1px;stroke-linecap:butt;stroke-linejoin:miter;stroke-opacity:1" d="M 771.473,638.798 761.267,659.21 z" id="boundary" inkscape:connector-curvature="0" />
	<path style="fill:none;stroke:red;stroke-width:1px;stroke-linecap:butt;stroke-linejoin:miter;stroke-opacity:1" d="M 781.679,608.181 802.091,608.181 z" id="boundary" inkscape:connector-curvature="0" />
	<path style="fill:none;stroke:red;stroke-width:1px;stroke-linecap:butt;stroke-linejoin:miter;stroke-opacity:1" d="M 720.444,669.416 740.856,659.21 z" id="boundary" inkscape:connector-curvature="0" />
	<path style="fill:none;stroke:red;stroke-width:1px;stroke-linecap:butt;stroke-linejoin:miter;stroke-opacity:1" d="M 740.856,659.21 761.267,659.21 z" id="boundary" inkscape:connector-curvature="0" />
	<circle cx="4" cy="40.7407" r="4" fill="#0" id="circle0"/>
	<circle cx="4" cy="61.1523" r="4" fill="#0" id="circle1"/>
	<circle cx="4" cy="81.5638" r="4" fill="#0" id="circle2"/>
	<circle cx="4" cy="101.975" r="4" fill="#0" id="circle3"/>
	<circle cx="4" cy="122.387" r="4" fill="#0" id="circle4"/>
	<circle cx="4" cy="142.798" r="4" fill="#0" id="circle5"/>
	<circle cx="4" cy="163.21" r="4" fill="#0" id="circle6"/>
	<circle cx="4" cy="183.621" r="4" fill="#0" id="circle7"/>
	<circle cx="4" cy="204.033" r="4" fill="#0" id="circle8"/>
	<circle cx="4" cy="224.444" r="4" fill="#0" id="circle9"/>
	<circle cx="4" cy="244.856" r="4" fill="#0" id="circle10"/>
	<circle cx="4" cy="265.267" r="4" fill="#0" id="circle11"/>
	<circle cx="4" cy="285.679" r="4" fill="#0" id="circle12"/>
	<circle cx="4" cy="306.091" r="4" fill="#0" id="circle13"/>
	<circle cx="4" cy="326.502" r="4" fill="#0" id="circle14"/>
	<circle cx="4" cy="346.914" r="4" fill="#0" id="circle15"/>
	<circle cx="4" cy="367.325" r="4" fill="#0" id="circle16"/>
	<circle cx="24.4115" cy="34.6173" r="4" fill="#0" id="circle17"/>
	<circle cx="24.4115" cy="373.449" r="4" fill="#0" id="circle18"/>
	<circle cx="24.4115" cy="393.86" r="4" fill="#0" id="circle19"/>
	<circle cx="24.4115" cy="414.272" r="4" fill="#0" id="circle20"/>
	<circle cx="24.4115" cy="434.683" r="4" fill="#0" id="circle21"/>
	<circle cx="24.4115" cy="455.095" r="4" fill="#0" id="circle22"/>
	<circle cx="24.4115" cy="475.506" r="4" fill="#0" id="circle23"/>
	<circle cx="24.4115" cy="495.918" r="4" fill="#0" id="circle24"/>
	<circle cx="24.4115" cy="516.329" r="4" fill="#0" id="circle25"/>
	<circle cx="24.4115" cy="536.741" r="4" fill="#0" id="circle26"/>
	<circle cx="24.4115" cy="557.152" r="4" fill="#0" id="circle27"/>
	<circle cx="24.4115" cy="577.564" r="4" fill="#0" id="circle28"/>
	<circle cx="24.4115" cy="597.975" r="4" fill="#0" id="circle29"/>
	<circle cx="24.4115" cy="618.387" r="4" fill="#0" id="circle30"/>
	<circle cx="42.7819" cy="628.593" r="4" fill="#0" id="circle31"/>
	<circle cx="44.823" cy="34.6173" r="4" fill="#0" id="circle32"/>
	<circle cx="63.1934" cy="628.593" r="4" fill="#0" id="circle33"/>
	<circle cx="65.2346" cy="34.6173" r="4" fill="#0" id="circle34"/>
	<circle cx="83.6049" cy="628.593" r="4" fill="#0" id="circle35"/>
	<circle cx="85.6461" cy="34.6173" r="4" fill="#0" id="circle36"/>
	<circle cx="104.016" cy="628.593" r="4" fill="#0" id="circle37"/>
	<circle cx="106.058" cy="34.6173" r="4" fill="#0" id="circle38"/>
	<circle cx="124.428" cy="628.593" r="4" fill="#0" id="circle39"/>
	<circle cx="126.469" cy="34.6173" r="4" fill="#0" id="circle40"/>
	<circle cx="144.84" cy="628.593" r="4" fill="#0" id="circle41"/>
	<circle cx="146.881" cy="34.6173" r="4" fill="#0" id="circle42"/>
	<circle cx="159.128" cy="18.2881" r="4" fill="#0" id="circle43"/>
	<circle cx="165.251" cy="628.593" r="4" fill="#0" id="circle44"/>
	<circle cx="179.539" cy="14.2058" r="4" fill="#0" id="circle45"/>
	<circle cx="185.663" cy="628.593" r="4" fill="#0" id="circle46"/>
	<circle cx="199.951" cy="14.2058" r="4" fill="#0" id="circle47"/>
	<circle cx="206.074" cy="628.593" r="4" fill="#0" id="circle48"/>
	<circle cx="220.362" cy="14.2058" r="4" fill="#0" id="circle49"/>
	<circle cx="226.486" cy="628.593" r="4" fill="#0" id="circle50"/>
	<circle cx="240.774" cy="14.2058" r="4" fill="#0" id="circle51"/>
	<circle cx="246.897" cy="628.593" r="4" fill="#0" id="circle52"/>
	<circle cx="261.185" cy="14.2058" r="4" fill="#0" id="circle53"/>
	<circle cx="267.309" cy="628.593" r="4" fill="#0" id="circle54"/>
	<circle cx="281.597" cy="14.2058" r="4" fill="#0" id="circle55"/>
	<circle cx="281.597" cy="608.181" r="4" fill="#0" id="circle56"/>
	<circle cx="302.008" cy="14.2058" r="4" fill="#0" id="circle57"/>
	<circle cx="302.008" cy="608.181" r="4" fill="#0" id="circle58"/>
	<circle cx="322.42" cy="14.2058" r="4" fill="#0" id="circle59"/>
	<circle cx="322.42" cy="608.181" r="4" fill="#0" id="circle60"/>
	<circle cx="342.831" cy="14.2058" r="4" fill="#0" id="circle61"/>
	<circle cx="342.831" cy="608.181" r="4" fill="#0" id="circle62"/>
	<circle cx="363.243" cy="14.2058" r="4" fill="#0" id="circle63"/>
	<circle cx="363.243" cy="608.181" r="4" fill="#0" id="circle64"/>
	<circle cx="383.654" cy="14.2058" r="4" fill="#0" id="circle65"/>
	<circle cx="383.654" cy="608.181" r="4" fill="#0" id="circle66"/>
	<circle cx="404.066" cy="14.2058" r="4" fill="#0" id="circle67"/>
	<circle cx="404.066" cy="608.181" r="4" fill="#0" id="circle68"/>
	<circle cx="424.477" cy="14.2058" r="4" fill="#0" id="circle69"/>
	<circle cx="424.477" cy="608.181" r="4" fill="#0" id="circle70"/>
	<circle cx="444.889" cy="14.2058" r="4" fill="#0" id="circle71"/>
	<circle cx="444.889" cy="608.181" r="4" fill="#0" id="circle72"/>
	<circle cx="465.3" cy="14.2058" r="4" fill="#0" id="circle73"/>
	<circle cx="465.3" cy="608.181" r="4" fill="#0" id="circle74"/>
	<circle cx="485.712" cy="14.2058" r="4" fill="#0" id="circle75"/>
	<circle cx="485.712" cy="608.181" r="4" fill="#0" id="circle76"/>
	<circle cx="506.123" cy="14.2058" r="4" fill="#0" id="circle77"/>
	<circle cx="506.123" cy="608.181" r="4" fill="#0" id="circle78"/>
	<circle cx="514.288" cy="765.35" r="4" fill="#0" id="circle79"/>
	<circle cx="514.288" cy="785.761" r="4" fill="#0" id="circle80"/>
	<circle cx="514.288" cy="806.173" r="4" fill="#0" id="circle81"/>
	<circle cx="514.288" cy="826.584" r="4" fill="#0" id="circle82"/>
	<circle cx="524.494" cy="724.527" r="4" fill="#0" id="circle83"/>
	<circle cx="524.494" cy="744.938" r="4" fill="#0" id="circle84"/>
	<circle cx="526.535" cy="14.2058" r="4" fill="#0" id="circle85"/>
	<circle cx="526.535" cy="608.181" r="4" fill="#0" id="circle86"/>
	<circle cx="534.7" cy="822.502" r="4" fill="#0" id="circle87"/>
	<circle cx="544.905" cy="673.498" r="4" fill="#0" id="circle88"/>
	<circle cx="544.905" cy="693.909" r="4" fill="#0" id="circle89"/>
	<circle cx="544.905" cy="714.321" r="4" fill="#0" id="circle90"/>
	<circle cx="546.947" cy="14.2058" r="4" fill="#0" id="circle91"/>
	<circle cx="546.947" cy="608.181" r="4" fill="#0" id="circle92"/>
	<circle cx="555.111" cy="632.675" r="4" fill="#0" id="circle93"/>
	<circle cx="555.111" cy="653.086" r="4" fill="#0" id="circle94"/>
	<circle cx="555.111" cy="816.379" r="4" fill="#0" id="circle95"/>
	<circle cx="567.358" cy="14.2058" r="4" fill="#0" id="circle96"/>
	<circle cx="567.358" cy="608.181" r="4" fill="#0" id="circle97"/>
	<circle cx="571.44" cy="800.049" r="4" fill="#0" id="circle98"/>
	<circle cx="587.77" cy="8.0823" r="4" fill="#0" id="circle99"/>
	<circle cx="587.77" cy="771.473" r="4" fill="#0" id="circle100"/>
	<circle cx="608.181" cy="4" r="4" fill="#0" id="circle101"/>
	<circle cx="608.181" cy="771.473" r="4" fill="#0" id="circle102"/>
	<circle cx="626.551" cy="761.267" r="4" fill="#0" id="circle103"/>
	<circle cx="628.593" cy="4" r="4" fill="#0" id="circle104"/>
	<circle cx="642.881" cy="749.021" r="4" fill="#0" id="circle105"/>
	<circle cx="649.004" cy="4" r="4" fill="#0" id="circle106"/>
	<circle cx="653.086" cy="728.609" r="4" fill="#0" id="circle107"/>
	<circle cx="669.416" cy="4" r="4" fill="#0" id="circle108"/>
	<circle cx="673.498" cy="718.403" r="4" fill="#0" id="circle109"/>
	<circle cx="683.704" cy="697.992" r="4" fill="#0" id="circle110"/>
	<circle cx="689.827" cy="4" r="4" fill="#0" id="circle111"/>
	<circle cx="704.115" cy="689.827" r="4" fill="#0" id="circle112"/>
	<circle cx="710.239" cy="4" r="4" fill="#0" id="circle113"/>
	<circle cx="720.444" cy="669.416" r="4" fill="#0" id="circle114"/>
	<circle cx="730.65" cy="4" r="4" fill="#0" id="circle115"/>
	<circle cx="740.856" cy="659.21" r="4" fill="#0" id="circle116"/>
	<circle cx="751.062" cy="4" r="4" fill="#0" id="circle117"/>
	<circle cx="761.267" cy="659.21" r="4" fill="#0" id="circle118"/>
	<circle cx="771.473" cy="4" r="4" fill="#0" id="circle119"/>
	<circle cx="771.473" cy="638.798" r="4" fill="#0" id="circle120"/>
	<circle cx="781.679" cy="608.181" r="4" fill="#0" id="circle121"/>
	<circle cx="791.885" cy="4" r="4" fill="#0" id="circle122"/>
	<circle cx="802.091" cy="608.181" r="4" fill="#0" id="circle123"/>
	<circle cx="812.296" cy="4" r="4" fill="#0" id="circle124"/>
	<circle cx="820.461" cy="597.975" r="4" fill="#0" id="circle125"/>
	<circle cx="832.708" cy="4" r="4" fill="#0" id="circle126"/>
	<circle cx="840.872" cy="597.975" r="4" fill="#0" id="circle127"/>
	<circle cx="853.119" cy="4" r="4" fill="#0" id="circle128"/>
	<circle cx="861.284" cy="597.975" r="4" fill="#0" id="circle129"/>
	<circle cx="873.531" cy="4" r="4" fill="#0" id="circle130"/>
	<circle cx="881.695" cy="597.975" r="4" fill="#0" id="circle131"/>
	<circle cx="893.942" cy="4" r="4" fill="#0" id="circle132"/>
	<circle cx="902.107" cy="597.975" r="4" fill="#0" id="circle133"/>
	<circle cx="914.354" cy="4" r="4" fill="#0" id="circle134"/>
	<circle cx="922.519" cy="597.975" r="4" fill="#0" id="circle135"/>
	<circle cx="934.765" cy="4" r="4" fill="#0" id="circle136"/>
	<circle cx="942.93" cy="597.975" r="4" fill="#0" id="circle137"/>
	<circle cx="955.177" cy="4" r="4" fill="#0" id="circle138"/>
	<circle cx="963.342" cy="597.975" r="4" fill="#0" id="circle139"/>
	<circle cx="975.588" cy="10.1235" r="4" fill="#0" id="circle140"/>
	<circle cx="975.588" cy="30.535" r="4" fill="#0" id="circle141"/>
	<circle cx="975.588" cy="50.9465" r="4" fill="#0" id="circle142"/>
	<circle cx="975.588" cy="71.358" r="4" fill="#0" id="circle143"/>
	<circle cx="975.588" cy="91.7695" r="4" fill="#0" id="circle144"/>
	<circle cx="975.588" cy="112.181" r="4" fill="#0" id="circle145"/>
	<circle cx="975.588" cy="132.593" r="4" fill="#0" id="circle146"/>
	<circle cx="975.588" cy="153.004" r="4" fill="#0" id="circle147"/>
	<circle cx="975.588" cy="173.416" r="4" fill="#0" id="circle148"/>
	<circle cx="975.588" cy="193.827" r="4" fill="#0" id="circle149"/>
	<circle cx="975.588" cy="214.239" r="4" fill="#0" id="circle150"/>
	<circle cx="975.588" cy="234.65" r="4" fill="#0" id="circle151"/>
	<circle cx="983.753" cy="597.975" r="4" fill="#0" id="circle152"/>
	<circle cx="989.877" cy="250.979" r="4" fill="#0" id="circle153"/>
	<circle cx="996" cy="271.391" r="4" fill="#0" id="circle154"/>
	<circle cx="996" cy="291.802" r="4" fill="#0" id="circle155"/>
	<circle cx="996" cy="312.214" r="4" fill="#0" id="circle156"/>
	<circle cx="996" cy="332.626" r="4" fill="#0" id="circle157"/>
	<circle cx="996" cy="353.037" r="4" fill="#0" id="circle158"/>
	<circle cx="996" cy="373.449" r="4" fill="#0" id="circle159"/>
	<circle cx="996" cy="393.86" r="4" fill="#0" id="circle160"/>
	<circle cx="996" cy="414.272" r="4" fill="#0" id="circle161"/>
	<circle cx="996" cy="434.683" r="4" fill="#0" id="circle162"/>
	<circle cx="996" cy="455.095" r="4" fill="#0" id="circle163"/>
	<circle cx="996" cy="475.506" r="4" fill="#0" id="circle164"/>
	<circle cx="996" cy="495.918" r="4" fill="#0" id="circle165"/>
	<circle cx="996" cy="516.329" r="4" fill="#0" id="circle166"/>
	<circle cx="996" cy="536.741" r="4" fill="#0" id="circle167"/>
	<circle cx="996" cy="557.152" r="4" fill="#0" id="circle168"/>
	<circle cx="996" cy="577.564" r="4" fill="#0" id="circle169"/>
	</g>
</svg>