<?xml version="1.0" encoding="UTF-8" standalone="no"?>
<!-- Created with CurveBenchmark -->
<svg
	xmlns:dc="http://purl.org/dc/elements/1.1/"
	xmlns:cc="http://creativecommons.org/ns#"
	xmlns:rdf="http://www.w3.org/1999/02/22-rdf-syntax-ns#"
	xmlns:svg="http://www.w3.org/2000/svg"
	xmlns="http://www.w3.org/2000/svg"
	xmlns:sodipodi="http://sodipodi.sourceforge.net/DTD/sodipodi-0.dtd"
	xmlns:inkscape="http://www.inkscape.org/namespaces/inkscape"
	width="1000"
	height="1000"
	id="svg2"
	version="1.1"
	sodipodi:docname="manifold/crust-sink205.png.txt">
<defs
	id="defs4" />
<metadata
	id="metadata7">
	<rdf:RDF>
		<cc:Work
			rdf:about="">
			<dc:format>image/svg+xml</dc:format>
			<dc:type
				rdf:resource="http://purl.org/dc/dcmitype/StillImage" />
			<dc:title></dc:title>
		</cc:Work>
	</rdf:RDF>
</metadata>
<g
	inkscape:label="Layer 1"
	inkscape:groupmode="layer"
	id="layer1">
	<path style="fill:none;stroke:red;stroke-width:1px;stroke-linecap:butt;stroke-linejoin:miter;stroke-opacity:1" d="M 33.0341,265.307 4,304.02 z" id="boundary" inkscape:connector-curvature="0" />
	<path style="fill:none;stroke:red;stroke-width:1px;stroke-linecap:butt;stroke-linejoin:miter;stroke-opacity:1" d="M 52.3902,318.537 4,304.02 z" id="boundary" inkscape:connector-curvature="0" />
	<path style="fill:none;stroke:red;stroke-width:1px;stroke-linecap:butt;stroke-linejoin:miter;stroke-opacity:1" d="M 81.4244,265.307 33.0341,265.307 z" id="boundary" inkscape:connector-curvature="0" />
	<path style="fill:none;stroke:red;stroke-width:1px;stroke-linecap:butt;stroke-linejoin:miter;stroke-opacity:1" d="M 81.4244,265.307 129.815,265.307 z" id="boundary" inkscape:connector-curvature="0" />
	<path style="fill:none;stroke:red;stroke-width:1px;stroke-linecap:butt;stroke-linejoin:miter;stroke-opacity:1" d="M 81.4244,357.249 52.3902,318.537 z" id="boundary" inkscape:connector-curvature="0" />
	<path style="fill:none;stroke:red;stroke-width:1px;stroke-linecap:butt;stroke-linejoin:miter;stroke-opacity:1" d="M 81.4244,357.249 100.78,405.639 z" id="boundary" inkscape:connector-curvature="0" />
	<path style="fill:none;stroke:red;stroke-width:1px;stroke-linecap:butt;stroke-linejoin:miter;stroke-opacity:1" d="M 100.78,405.639 110.459,454.029 z" id="boundary" inkscape:connector-curvature="0" />
	<path style="fill:none;stroke:red;stroke-width:1px;stroke-linecap:butt;stroke-linejoin:miter;stroke-opacity:1" d="M 129.815,265.307 178.205,265.307 z" id="boundary" inkscape:connector-curvature="0" />
	<path style="fill:none;stroke:red;stroke-width:1px;stroke-linecap:butt;stroke-linejoin:miter;stroke-opacity:1" d="M 294.341,168.527 265.307,226.595 z" id="boundary" inkscape:connector-curvature="0" />
	<path style="fill:none;stroke:red;stroke-width:1px;stroke-linecap:butt;stroke-linejoin:miter;stroke-opacity:1" d="M 226.595,265.307 178.205,265.307 z" id="boundary" inkscape:connector-curvature="0" />
	<path style="fill:none;stroke:red;stroke-width:1px;stroke-linecap:butt;stroke-linejoin:miter;stroke-opacity:1" d="M 265.307,226.595 226.595,265.307 z" id="boundary" inkscape:connector-curvature="0" />
	<path style="fill:none;stroke:red;stroke-width:1px;stroke-linecap:butt;stroke-linejoin:miter;stroke-opacity:1" d="M 110.459,502.42 110.459,454.029 z" id="boundary" inkscape:connector-curvature="0" />
	<path style="fill:none;stroke:red;stroke-width:1px;stroke-linecap:butt;stroke-linejoin:miter;stroke-opacity:1" d="M 110.459,550.81 110.459,502.42 z" id="boundary" inkscape:connector-curvature="0" />
	<path style="fill:none;stroke:red;stroke-width:1px;stroke-linecap:butt;stroke-linejoin:miter;stroke-opacity:1" d="M 110.459,550.81 110.459,599.2 z" id="boundary" inkscape:connector-curvature="0" />
	<path style="fill:none;stroke:red;stroke-width:1px;stroke-linecap:butt;stroke-linejoin:miter;stroke-opacity:1" d="M 110.459,695.98 110.459,647.59 z" id="boundary" inkscape:connector-curvature="0" />
	<path style="fill:none;stroke:red;stroke-width:1px;stroke-linecap:butt;stroke-linejoin:miter;stroke-opacity:1" d="M 110.459,792.761 110.459,744.371 z" id="boundary" inkscape:connector-curvature="0" />
	<path style="fill:none;stroke:red;stroke-width:1px;stroke-linecap:butt;stroke-linejoin:miter;stroke-opacity:1" d="M 110.459,841.151 110.459,792.761 z" id="boundary" inkscape:connector-curvature="0" />
	<path style="fill:none;stroke:red;stroke-width:1px;stroke-linecap:butt;stroke-linejoin:miter;stroke-opacity:1" d="M 110.459,695.98 110.459,744.371 z" id="boundary" inkscape:connector-curvature="0" />
	<path style="fill:none;stroke:red;stroke-width:1px;stroke-linecap:butt;stroke-linejoin:miter;stroke-opacity:1" d="M 110.459,599.2 110.459,647.59 z" id="boundary" inkscape:connector-curvature="0" />
	<path style="fill:none;stroke:red;stroke-width:1px;stroke-linecap:butt;stroke-linejoin:miter;stroke-opacity:1" d="M 86.2634,996 62.0683,952.449 z" id="boundary" inkscape:connector-curvature="0" />
	<path style="fill:none;stroke:red;stroke-width:1px;stroke-linecap:butt;stroke-linejoin:miter;stroke-opacity:1" d="M 91.1024,904.059 62.0683,952.449 z" id="boundary" inkscape:connector-curvature="0" />
	<path style="fill:none;stroke:red;stroke-width:1px;stroke-linecap:butt;stroke-linejoin:miter;stroke-opacity:1" d="M 110.459,841.151 91.1024,904.059 z" id="boundary" inkscape:connector-curvature="0" />
	<path style="fill:none;stroke:red;stroke-width:1px;stroke-linecap:butt;stroke-linejoin:miter;stroke-opacity:1" d="M 134.654,996 86.2634,996 z" id="boundary" inkscape:connector-curvature="0" />
	<path style="fill:none;stroke:red;stroke-width:1px;stroke-linecap:butt;stroke-linejoin:miter;stroke-opacity:1" d="M 183.044,996 134.654,996 z" id="boundary" inkscape:connector-curvature="0" />
	<path style="fill:none;stroke:red;stroke-width:1px;stroke-linecap:butt;stroke-linejoin:miter;stroke-opacity:1" d="M 231.434,996 183.044,996 z" id="boundary" inkscape:connector-curvature="0" />
	<path style="fill:none;stroke:red;stroke-width:1px;stroke-linecap:butt;stroke-linejoin:miter;stroke-opacity:1" d="M 279.824,996 231.434,996 z" id="boundary" inkscape:connector-curvature="0" />
	<path style="fill:none;stroke:red;stroke-width:1px;stroke-linecap:butt;stroke-linejoin:miter;stroke-opacity:1" d="M 313.698,23.3561 284.663,62.0683 z" id="boundary" inkscape:connector-curvature="0" />
	<path style="fill:none;stroke:red;stroke-width:1px;stroke-linecap:butt;stroke-linejoin:miter;stroke-opacity:1" d="M 362.088,4 400.8,37.8732 z" id="boundary" inkscape:connector-curvature="0" />
	<path style="fill:none;stroke:red;stroke-width:1px;stroke-linecap:butt;stroke-linejoin:miter;stroke-opacity:1" d="M 313.698,23.3561 362.088,4 z" id="boundary" inkscape:connector-curvature="0" />
	<path style="fill:none;stroke:red;stroke-width:1px;stroke-linecap:butt;stroke-linejoin:miter;stroke-opacity:1" d="M 342.732,168.527 294.341,168.527 z" id="boundary" inkscape:connector-curvature="0" />
	<path style="fill:none;stroke:red;stroke-width:1px;stroke-linecap:butt;stroke-linejoin:miter;stroke-opacity:1" d="M 294.341,168.527 284.663,62.0683 z" id="boundary" inkscape:connector-curvature="0" />
	<path style="fill:none;stroke:red;stroke-width:1px;stroke-linecap:butt;stroke-linejoin:miter;stroke-opacity:1" d="M 342.732,168.527 391.122,168.527 z" id="boundary" inkscape:connector-curvature="0" />
	<path style="fill:none;stroke:red;stroke-width:1px;stroke-linecap:butt;stroke-linejoin:miter;stroke-opacity:1" d="M 439.512,168.527 391.122,168.527 z" id="boundary" inkscape:connector-curvature="0" />
	<path style="fill:none;stroke:red;stroke-width:1px;stroke-linecap:butt;stroke-linejoin:miter;stroke-opacity:1" d="M 400.8,37.8732 439.512,71.7463 z" id="boundary" inkscape:connector-curvature="0" />
	<path style="fill:none;stroke:red;stroke-width:1px;stroke-linecap:butt;stroke-linejoin:miter;stroke-opacity:1" d="M 487.902,168.527 439.512,168.527 z" id="boundary" inkscape:connector-curvature="0" />
	<path style="fill:none;stroke:red;stroke-width:1px;stroke-linecap:butt;stroke-linejoin:miter;stroke-opacity:1" d="M 449.19,120.137 439.512,71.7463 z" id="boundary" inkscape:connector-curvature="0" />
	<path style="fill:none;stroke:red;stroke-width:1px;stroke-linecap:butt;stroke-linejoin:miter;stroke-opacity:1" d="M 536.293,168.527 550.81,216.917 z" id="boundary" inkscape:connector-curvature="0" />
	<path style="fill:none;stroke:red;stroke-width:1px;stroke-linecap:butt;stroke-linejoin:miter;stroke-opacity:1" d="M 487.902,168.527 536.293,168.527 z" id="boundary" inkscape:connector-curvature="0" />
	<path style="fill:none;stroke:red;stroke-width:1px;stroke-linecap:butt;stroke-linejoin:miter;stroke-opacity:1" d="M 497.58,318.537 449.19,318.537 z" id="boundary" inkscape:connector-curvature="0" />
	<path style="fill:none;stroke:red;stroke-width:1px;stroke-linecap:butt;stroke-linejoin:miter;stroke-opacity:1" d="M 550.81,216.917 550.81,265.307 z" id="boundary" inkscape:connector-curvature="0" />
	<path style="fill:none;stroke:red;stroke-width:1px;stroke-linecap:butt;stroke-linejoin:miter;stroke-opacity:1" d="M 545.971,318.537 497.58,318.537 z" id="boundary" inkscape:connector-curvature="0" />
	<path style="fill:none;stroke:red;stroke-width:1px;stroke-linecap:butt;stroke-linejoin:miter;stroke-opacity:1" d="M 550.81,265.307 545.971,318.537 z" id="boundary" inkscape:connector-curvature="0" />
	<path style="fill:none;stroke:red;stroke-width:1px;stroke-linecap:butt;stroke-linejoin:miter;stroke-opacity:1" d="M 449.19,318.537 424.995,362.088 z" id="boundary" inkscape:connector-curvature="0" />
	<path style="fill:none;stroke:red;stroke-width:1px;stroke-linecap:butt;stroke-linejoin:miter;stroke-opacity:1" d="M 279.824,516.937 279.824,468.546 z" id="boundary" inkscape:connector-curvature="0" />
	<path style="fill:none;stroke:red;stroke-width:1px;stroke-linecap:butt;stroke-linejoin:miter;stroke-opacity:1" d="M 279.824,516.937 279.824,565.327 z" id="boundary" inkscape:connector-curvature="0" />
	<path style="fill:none;stroke:red;stroke-width:1px;stroke-linecap:butt;stroke-linejoin:miter;stroke-opacity:1" d="M 279.824,613.717 279.824,565.327 z" id="boundary" inkscape:connector-curvature="0" />
	<path style="fill:none;stroke:red;stroke-width:1px;stroke-linecap:butt;stroke-linejoin:miter;stroke-opacity:1" d="M 328.215,458.868 279.824,468.546 z" id="boundary" inkscape:connector-curvature="0" />
	<path style="fill:none;stroke:red;stroke-width:1px;stroke-linecap:butt;stroke-linejoin:miter;stroke-opacity:1" d="M 279.824,662.107 279.824,613.717 z" id="boundary" inkscape:connector-curvature="0" />
	<path style="fill:none;stroke:red;stroke-width:1px;stroke-linecap:butt;stroke-linejoin:miter;stroke-opacity:1" d="M 279.824,662.107 279.824,710.498 z" id="boundary" inkscape:connector-curvature="0" />
	<path style="fill:none;stroke:red;stroke-width:1px;stroke-linecap:butt;stroke-linejoin:miter;stroke-opacity:1" d="M 279.824,758.888 279.824,807.278 z" id="boundary" inkscape:connector-curvature="0" />
	<path style="fill:none;stroke:red;stroke-width:1px;stroke-linecap:butt;stroke-linejoin:miter;stroke-opacity:1" d="M 279.824,855.668 279.824,807.278 z" id="boundary" inkscape:connector-curvature="0" />
	<path style="fill:none;stroke:red;stroke-width:1px;stroke-linecap:butt;stroke-linejoin:miter;stroke-opacity:1" d="M 299.18,904.059 279.824,855.668 z" id="boundary" inkscape:connector-curvature="0" />
	<path style="fill:none;stroke:red;stroke-width:1px;stroke-linecap:butt;stroke-linejoin:miter;stroke-opacity:1" d="M 279.824,710.498 279.824,758.888 z" id="boundary" inkscape:connector-curvature="0" />
	<path style="fill:none;stroke:red;stroke-width:1px;stroke-linecap:butt;stroke-linejoin:miter;stroke-opacity:1" d="M 323.376,947.61 299.18,904.059 z" id="boundary" inkscape:connector-curvature="0" />
	<path style="fill:none;stroke:red;stroke-width:1px;stroke-linecap:butt;stroke-linejoin:miter;stroke-opacity:1" d="M 328.215,996 279.824,996 z" id="boundary" inkscape:connector-curvature="0" />
	<path style="fill:none;stroke:red;stroke-width:1px;stroke-linecap:butt;stroke-linejoin:miter;stroke-opacity:1" d="M 323.376,947.61 328.215,996 z" id="boundary" inkscape:connector-curvature="0" />
	<path style="fill:none;stroke:red;stroke-width:1px;stroke-linecap:butt;stroke-linejoin:miter;stroke-opacity:1" d="M 415.317,410.478 376.605,444.351 z" id="boundary" inkscape:connector-curvature="0" />
	<path style="fill:none;stroke:red;stroke-width:1px;stroke-linecap:butt;stroke-linejoin:miter;stroke-opacity:1" d="M 424.995,362.088 415.317,410.478 z" id="boundary" inkscape:connector-curvature="0" />
	<path style="fill:none;stroke:red;stroke-width:1px;stroke-linecap:butt;stroke-linejoin:miter;stroke-opacity:1" d="M 328.215,458.868 376.605,444.351 z" id="boundary" inkscape:connector-curvature="0" />
	<circle cx="4" cy="304.02" r="4" fill="#0" id="circle0"/>
	<circle cx="33.0341" cy="265.307" r="4" fill="#0" id="circle1"/>
	<circle cx="52.3902" cy="318.537" r="4" fill="#0" id="circle2"/>
	<circle cx="62.0683" cy="952.449" r="4" fill="#0" id="circle3"/>
	<circle cx="81.4244" cy="265.307" r="4" fill="#0" id="circle4"/>
	<circle cx="81.4244" cy="357.249" r="4" fill="#0" id="circle5"/>
	<circle cx="86.2634" cy="996" r="4" fill="#0" id="circle6"/>
	<circle cx="91.1024" cy="904.059" r="4" fill="#0" id="circle7"/>
	<circle cx="100.78" cy="405.639" r="4" fill="#0" id="circle8"/>
	<circle cx="110.459" cy="454.029" r="4" fill="#0" id="circle9"/>
	<circle cx="110.459" cy="502.42" r="4" fill="#0" id="circle10"/>
	<circle cx="110.459" cy="550.81" r="4" fill="#0" id="circle11"/>
	<circle cx="110.459" cy="599.2" r="4" fill="#0" id="circle12"/>
	<circle cx="110.459" cy="647.59" r="4" fill="#0" id="circle13"/>
	<circle cx="110.459" cy="695.98" r="4" fill="#0" id="circle14"/>
	<circle cx="110.459" cy="744.371" r="4" fill="#0" id="circle15"/>
	<circle cx="110.459" cy="792.761" r="4" fill="#0" id="circle16"/>
	<circle cx="110.459" cy="841.151" r="4" fill="#0" id="circle17"/>
	<circle cx="129.815" cy="265.307" r="4" fill="#0" id="circle18"/>
	<circle cx="134.654" cy="996" r="4" fill="#0" id="circle19"/>
	<circle cx="178.205" cy="265.307" r="4" fill="#0" id="circle20"/>
	<circle cx="183.044" cy="996" r="4" fill="#0" id="circle21"/>
	<circle cx="226.595" cy="265.307" r="4" fill="#0" id="circle22"/>
	<circle cx="231.434" cy="996" r="4" fill="#0" id="circle23"/>
	<circle cx="265.307" cy="226.595" r="4" fill="#0" id="circle24"/>
	<circle cx="279.824" cy="468.546" r="4" fill="#0" id="circle25"/>
	<circle cx="279.824" cy="516.937" r="4" fill="#0" id="circle26"/>
	<circle cx="279.824" cy="565.327" r="4" fill="#0" id="circle27"/>
	<circle cx="279.824" cy="613.717" r="4" fill="#0" id="circle28"/>
	<circle cx="279.824" cy="662.107" r="4" fill="#0" id="circle29"/>
	<circle cx="279.824" cy="710.498" r="4" fill="#0" id="circle30"/>
	<circle cx="279.824" cy="758.888" r="4" fill="#0" id="circle31"/>
	<circle cx="279.824" cy="807.278" r="4" fill="#0" id="circle32"/>
	<circle cx="279.824" cy="855.668" r="4" fill="#0" id="circle33"/>
	<circle cx="279.824" cy="996" r="4" fill="#0" id="circle34"/>
	<circle cx="284.663" cy="62.0683" r="4" fill="#0" id="circle35"/>
	<circle cx="294.341" cy="168.527" r="4" fill="#0" id="circle36"/>
	<circle cx="299.18" cy="904.059" r="4" fill="#0" id="circle37"/>
	<circle cx="313.698" cy="23.3561" r="4" fill="#0" id="circle38"/>
	<circle cx="323.376" cy="947.61" r="4" fill="#0" id="circle39"/>
	<circle cx="328.215" cy="458.868" r="4" fill="#0" id="circle40"/>
	<circle cx="328.215" cy="996" r="4" fill="#0" id="circle41"/>
	<circle cx="342.732" cy="168.527" r="4" fill="#0" id="circle42"/>
	<circle cx="362.088" cy="4" r="4" fill="#0" id="circle43"/>
	<circle cx="376.605" cy="444.351" r="4" fill="#0" id="circle44"/>
	<circle cx="391.122" cy="168.527" r="4" fill="#0" id="circle45"/>
	<circle cx="400.8" cy="37.8732" r="4" fill="#0" id="circle46"/>
	<circle cx="415.317" cy="410.478" r="4" fill="#0" id="circle47"/>
	<circle cx="424.995" cy="362.088" r="4" fill="#0" id="circle48"/>
	<circle cx="439.512" cy="71.7463" r="4" fill="#0" id="circle49"/>
	<circle cx="439.512" cy="168.527" r="4" fill="#0" id="circle50"/>
	<circle cx="449.19" cy="120.137" r="4" fill="#0" id="circle51"/>
	<circle cx="449.19" cy="318.537" r="4" fill="#0" id="circle52"/>
	<circle cx="487.902" cy="168.527" r="4" fill="#0" id="circle53"/>
	<circle cx="497.58" cy="318.537" r="4" fill="#0" id="circle54"/>
	<circle cx="536.293" cy="168.527" r="4" fill="#0" id="circle55"/>
	<circle cx="545.971" cy="318.537" r="4" fill="#0" id="circle56"/>
	<circle cx="550.81" cy="216.917" r="4" fill="#0" id="circle57"/>
	<circle cx="550.81" cy="265.307" r="4" fill="#0" id="circle58"/>
	</g>
</svg>