<?xml version="1.0" encoding="UTF-8" standalone="no"?>
<!-- Created with CurveBenchmark -->
<svg
	xmlns:dc="http://purl.org/dc/elements/1.1/"
	xmlns:cc="http://creativecommons.org/ns#"
	xmlns:rdf="http://www.w3.org/1999/02/22-rdf-syntax-ns#"
	xmlns:svg="http://www.w3.org/2000/svg"
	xmlns="http://www.w3.org/2000/svg"
	xmlns:sodipodi="http://sodipodi.sourceforge.net/DTD/sodipodi-0.dtd"
	xmlns:inkscape="http://www.inkscape.org/namespaces/inkscape"
	width="1000"
	height="1000"
	id="svg2"
	version="1.1"
	sodipodi:docname="manifold/crust-children15.png.txt">
<defs
	id="defs4" />
<metadata
	id="metadata7">
	<rdf:RDF>
		<cc:Work
			rdf:about="">
			<dc:format>image/svg+xml</dc:format>
			<dc:type
				rdf:resource="http://purl.org/dc/dcmitype/StillImage" />
			<dc:title></dc:title>
		</cc:Work>
	</rdf:RDF>
</metadata>
<g
	inkscape:label="Layer 1"
	inkscape:groupmode="layer"
	id="layer1">
	<path style="fill:none;stroke:red;stroke-width:1px;stroke-linecap:butt;stroke-linejoin:miter;stroke-opacity:1" d="M 20.5058,99.7338 20.5058,83.228 z" id="boundary" inkscape:connector-curvature="0" />
	<path style="fill:none;stroke:red;stroke-width:1px;stroke-linecap:butt;stroke-linejoin:miter;stroke-opacity:1" d="M 20.5058,116.24 20.5058,99.7338 z" id="boundary" inkscape:connector-curvature="0" />
	<path style="fill:none;stroke:red;stroke-width:1px;stroke-linecap:butt;stroke-linejoin:miter;stroke-opacity:1" d="M 28.7587,66.7221 20.5058,83.228 z" id="boundary" inkscape:connector-curvature="0" />
	<path style="fill:none;stroke:red;stroke-width:1px;stroke-linecap:butt;stroke-linejoin:miter;stroke-opacity:1" d="M 20.5058,116.24 20.5058,132.745 z" id="boundary" inkscape:connector-curvature="0" />
	<path style="fill:none;stroke:red;stroke-width:1px;stroke-linecap:butt;stroke-linejoin:miter;stroke-opacity:1" d="M 41.9634,53.5175 28.7587,66.7221 z" id="boundary" inkscape:connector-curvature="0" />
	<path style="fill:none;stroke:red;stroke-width:1px;stroke-linecap:butt;stroke-linejoin:miter;stroke-opacity:1" d="M 68.3727,28.7587 55.1681,40.3128 z" id="boundary" inkscape:connector-curvature="0" />
	<path style="fill:none;stroke:red;stroke-width:1px;stroke-linecap:butt;stroke-linejoin:miter;stroke-opacity:1" d="M 41.9634,53.5175 55.1681,40.3128 z" id="boundary" inkscape:connector-curvature="0" />
	<path style="fill:none;stroke:red;stroke-width:1px;stroke-linecap:butt;stroke-linejoin:miter;stroke-opacity:1" d="M 28.7587,147.601 37.0116,162.456 z" id="boundary" inkscape:connector-curvature="0" />
	<path style="fill:none;stroke:red;stroke-width:1px;stroke-linecap:butt;stroke-linejoin:miter;stroke-opacity:1" d="M 28.7587,147.601 20.5058,132.745 z" id="boundary" inkscape:connector-curvature="0" />
	<path style="fill:none;stroke:red;stroke-width:1px;stroke-linecap:butt;stroke-linejoin:miter;stroke-opacity:1" d="M 46.9151,175.661 60.1198,187.215 z" id="boundary" inkscape:connector-curvature="0" />
	<path style="fill:none;stroke:red;stroke-width:1px;stroke-linecap:butt;stroke-linejoin:miter;stroke-opacity:1" d="M 37.0116,162.456 46.9151,175.661 z" id="boundary" inkscape:connector-curvature="0" />
	<path style="fill:none;stroke:red;stroke-width:1px;stroke-linecap:butt;stroke-linejoin:miter;stroke-opacity:1" d="M 70.0233,216.925 63.421,238.383 z" id="boundary" inkscape:connector-curvature="0" />
	<path style="fill:none;stroke:red;stroke-width:1px;stroke-linecap:butt;stroke-linejoin:miter;stroke-opacity:1" d="M 60.1198,187.215 70.0233,200.419 z" id="boundary" inkscape:connector-curvature="0" />
	<path style="fill:none;stroke:red;stroke-width:1px;stroke-linecap:butt;stroke-linejoin:miter;stroke-opacity:1" d="M 79.9268,15.5541 68.3727,28.7587 z" id="boundary" inkscape:connector-curvature="0" />
	<path style="fill:none;stroke:red;stroke-width:1px;stroke-linecap:butt;stroke-linejoin:miter;stroke-opacity:1" d="M 4,306.057 4,322.562 z" id="boundary" inkscape:connector-curvature="0" />
	<path style="fill:none;stroke:red;stroke-width:1px;stroke-linecap:butt;stroke-linejoin:miter;stroke-opacity:1" d="M 12.2529,289.551 4,306.057 z" id="boundary" inkscape:connector-curvature="0" />
	<path style="fill:none;stroke:red;stroke-width:1px;stroke-linecap:butt;stroke-linejoin:miter;stroke-opacity:1" d="M 4,339.068 4,322.562 z" id="boundary" inkscape:connector-curvature="0" />
	<path style="fill:none;stroke:red;stroke-width:1px;stroke-linecap:butt;stroke-linejoin:miter;stroke-opacity:1" d="M 25.4576,276.346 12.2529,289.551 z" id="boundary" inkscape:connector-curvature="0" />
	<path style="fill:none;stroke:red;stroke-width:1px;stroke-linecap:butt;stroke-linejoin:miter;stroke-opacity:1" d="M 4,355.574 4,339.068 z" id="boundary" inkscape:connector-curvature="0" />
	<path style="fill:none;stroke:red;stroke-width:1px;stroke-linecap:butt;stroke-linejoin:miter;stroke-opacity:1" d="M 12.2529,386.935 4,372.08 z" id="boundary" inkscape:connector-curvature="0" />
	<path style="fill:none;stroke:red;stroke-width:1px;stroke-linecap:butt;stroke-linejoin:miter;stroke-opacity:1" d="M 4,372.08 4,355.574 z" id="boundary" inkscape:connector-curvature="0" />
	<path style="fill:none;stroke:red;stroke-width:1px;stroke-linecap:butt;stroke-linejoin:miter;stroke-opacity:1" d="M 12.2529,386.935 20.5058,401.79 z" id="boundary" inkscape:connector-curvature="0" />
	<path style="fill:none;stroke:red;stroke-width:1px;stroke-linecap:butt;stroke-linejoin:miter;stroke-opacity:1" d="M 51.8669,251.587 38.6622,263.141 z" id="boundary" inkscape:connector-curvature="0" />
	<path style="fill:none;stroke:red;stroke-width:1px;stroke-linecap:butt;stroke-linejoin:miter;stroke-opacity:1" d="M 63.421,238.383 51.8669,251.587 z" id="boundary" inkscape:connector-curvature="0" />
	<path style="fill:none;stroke:red;stroke-width:1px;stroke-linecap:butt;stroke-linejoin:miter;stroke-opacity:1" d="M 38.6622,263.141 25.4576,276.346 z" id="boundary" inkscape:connector-curvature="0" />
	<path style="fill:none;stroke:red;stroke-width:1px;stroke-linecap:butt;stroke-linejoin:miter;stroke-opacity:1" d="M 20.5058,418.296 20.5058,401.79 z" id="boundary" inkscape:connector-curvature="0" />
	<path style="fill:none;stroke:red;stroke-width:1px;stroke-linecap:butt;stroke-linejoin:miter;stroke-opacity:1" d="M 20.5058,418.296 20.5058,434.802 z" id="boundary" inkscape:connector-curvature="0" />
	<path style="fill:none;stroke:red;stroke-width:1px;stroke-linecap:butt;stroke-linejoin:miter;stroke-opacity:1" d="M 96.4326,7.30116 79.9268,15.5541 z" id="boundary" inkscape:connector-curvature="0" />
	<path style="fill:none;stroke:red;stroke-width:1px;stroke-linecap:butt;stroke-linejoin:miter;stroke-opacity:1" d="M 96.4326,7.30116 112.938,4 z" id="boundary" inkscape:connector-curvature="0" />
	<path style="fill:none;stroke:red;stroke-width:1px;stroke-linecap:butt;stroke-linejoin:miter;stroke-opacity:1" d="M 112.938,4 129.444,4 z" id="boundary" inkscape:connector-curvature="0" />
	<path style="fill:none;stroke:red;stroke-width:1px;stroke-linecap:butt;stroke-linejoin:miter;stroke-opacity:1" d="M 162.456,12.2529 145.95,8.95175 z" id="boundary" inkscape:connector-curvature="0" />
	<path style="fill:none;stroke:red;stroke-width:1px;stroke-linecap:butt;stroke-linejoin:miter;stroke-opacity:1" d="M 145.95,8.95175 129.444,4 z" id="boundary" inkscape:connector-curvature="0" />
	<path style="fill:none;stroke:red;stroke-width:1px;stroke-linecap:butt;stroke-linejoin:miter;stroke-opacity:1" d="M 70.0233,200.419 70.0233,216.925 z" id="boundary" inkscape:connector-curvature="0" />
	<path style="fill:none;stroke:red;stroke-width:1px;stroke-linecap:butt;stroke-linejoin:miter;stroke-opacity:1" d="M 20.5058,451.308 20.5058,434.802 z" id="boundary" inkscape:connector-curvature="0" />
	<path style="fill:none;stroke:red;stroke-width:1px;stroke-linecap:butt;stroke-linejoin:miter;stroke-opacity:1" d="M 20.5058,467.814 20.5058,451.308 z" id="boundary" inkscape:connector-curvature="0" />
	<path style="fill:none;stroke:red;stroke-width:1px;stroke-linecap:butt;stroke-linejoin:miter;stroke-opacity:1" d="M 20.5058,467.814 28.7587,482.669 z" id="boundary" inkscape:connector-curvature="0" />
	<path style="fill:none;stroke:red;stroke-width:1px;stroke-linecap:butt;stroke-linejoin:miter;stroke-opacity:1" d="M 37.0116,497.524 37.0116,514.03 z" id="boundary" inkscape:connector-curvature="0" />
	<path style="fill:none;stroke:red;stroke-width:1px;stroke-linecap:butt;stroke-linejoin:miter;stroke-opacity:1" d="M 37.0116,497.524 28.7587,482.669 z" id="boundary" inkscape:connector-curvature="0" />
	<path style="fill:none;stroke:red;stroke-width:1px;stroke-linecap:butt;stroke-linejoin:miter;stroke-opacity:1" d="M 37.0116,514.03 28.7587,528.885 z" id="boundary" inkscape:connector-curvature="0" />
	<path style="fill:none;stroke:red;stroke-width:1px;stroke-linecap:butt;stroke-linejoin:miter;stroke-opacity:1" d="M 45.2646,624.619 45.2646,608.113 z" id="boundary" inkscape:connector-curvature="0" />
	<path style="fill:none;stroke:red;stroke-width:1px;stroke-linecap:butt;stroke-linejoin:miter;stroke-opacity:1" d="M 37.0116,543.74 28.7587,528.885 z" id="boundary" inkscape:connector-curvature="0" />
	<path style="fill:none;stroke:red;stroke-width:1px;stroke-linecap:butt;stroke-linejoin:miter;stroke-opacity:1" d="M 37.0116,543.74 37.0116,560.246 z" id="boundary" inkscape:connector-curvature="0" />
	<path style="fill:none;stroke:red;stroke-width:1px;stroke-linecap:butt;stroke-linejoin:miter;stroke-opacity:1" d="M 37.0116,576.752 37.0116,560.246 z" id="boundary" inkscape:connector-curvature="0" />
	<path style="fill:none;stroke:red;stroke-width:1px;stroke-linecap:butt;stroke-linejoin:miter;stroke-opacity:1" d="M 45.2646,608.113 37.0116,593.258 z" id="boundary" inkscape:connector-curvature="0" />
	<path style="fill:none;stroke:red;stroke-width:1px;stroke-linecap:butt;stroke-linejoin:miter;stroke-opacity:1" d="M 45.2646,641.125 45.2646,624.619 z" id="boundary" inkscape:connector-curvature="0" />
	<path style="fill:none;stroke:red;stroke-width:1px;stroke-linecap:butt;stroke-linejoin:miter;stroke-opacity:1" d="M 37.0116,593.258 37.0116,576.752 z" id="boundary" inkscape:connector-curvature="0" />
	<path style="fill:none;stroke:red;stroke-width:1px;stroke-linecap:butt;stroke-linejoin:miter;stroke-opacity:1" d="M 53.5175,655.98 45.2646,641.125 z" id="boundary" inkscape:connector-curvature="0" />
	<path style="fill:none;stroke:red;stroke-width:1px;stroke-linecap:butt;stroke-linejoin:miter;stroke-opacity:1" d="M 53.5175,655.98 63.421,669.185 z" id="boundary" inkscape:connector-curvature="0" />
	<path style="fill:none;stroke:red;stroke-width:1px;stroke-linecap:butt;stroke-linejoin:miter;stroke-opacity:1" d="M 74.975,682.389 63.421,669.185 z" id="boundary" inkscape:connector-curvature="0" />
	<path style="fill:none;stroke:red;stroke-width:1px;stroke-linecap:butt;stroke-linejoin:miter;stroke-opacity:1" d="M 74.975,682.389 86.5291,695.594 z" id="boundary" inkscape:connector-curvature="0" />
	<path style="fill:none;stroke:red;stroke-width:1px;stroke-linecap:butt;stroke-linejoin:miter;stroke-opacity:1" d="M 94.782,710.449 86.5291,695.594 z" id="boundary" inkscape:connector-curvature="0" />
	<path style="fill:none;stroke:red;stroke-width:1px;stroke-linecap:butt;stroke-linejoin:miter;stroke-opacity:1" d="M 94.782,710.449 94.782,726.955 z" id="boundary" inkscape:connector-curvature="0" />
	<path style="fill:none;stroke:red;stroke-width:1px;stroke-linecap:butt;stroke-linejoin:miter;stroke-opacity:1" d="M 78.2762,824.339 70.0233,809.484 z" id="boundary" inkscape:connector-curvature="0" />
	<path style="fill:none;stroke:red;stroke-width:1px;stroke-linecap:butt;stroke-linejoin:miter;stroke-opacity:1" d="M 78.2762,784.725 70.0233,809.484 z" id="boundary" inkscape:connector-curvature="0" />
	<path style="fill:none;stroke:red;stroke-width:1px;stroke-linecap:butt;stroke-linejoin:miter;stroke-opacity:1" d="M 78.2762,824.339 78.2762,840.845 z" id="boundary" inkscape:connector-curvature="0" />
	<path style="fill:none;stroke:red;stroke-width:1px;stroke-linecap:butt;stroke-linejoin:miter;stroke-opacity:1" d="M 94.782,743.461 86.5291,768.22 z" id="boundary" inkscape:connector-curvature="0" />
	<path style="fill:none;stroke:red;stroke-width:1px;stroke-linecap:butt;stroke-linejoin:miter;stroke-opacity:1" d="M 86.5291,768.22 78.2762,784.725 z" id="boundary" inkscape:connector-curvature="0" />
	<path style="fill:none;stroke:red;stroke-width:1px;stroke-linecap:butt;stroke-linejoin:miter;stroke-opacity:1" d="M 94.782,726.955 94.782,743.461 z" id="boundary" inkscape:connector-curvature="0" />
	<path style="fill:none;stroke:red;stroke-width:1px;stroke-linecap:butt;stroke-linejoin:miter;stroke-opacity:1" d="M 91.4809,872.206 94.782,888.712 z" id="boundary" inkscape:connector-curvature="0" />
	<path style="fill:none;stroke:red;stroke-width:1px;stroke-linecap:butt;stroke-linejoin:miter;stroke-opacity:1" d="M 86.5291,855.7 78.2762,840.845 z" id="boundary" inkscape:connector-curvature="0" />
	<path style="fill:none;stroke:red;stroke-width:1px;stroke-linecap:butt;stroke-linejoin:miter;stroke-opacity:1" d="M 86.5291,855.7 91.4809,872.206 z" id="boundary" inkscape:connector-curvature="0" />
	<path style="fill:none;stroke:red;stroke-width:1px;stroke-linecap:butt;stroke-linejoin:miter;stroke-opacity:1" d="M 86.5291,925.025 86.5291,941.531 z" id="boundary" inkscape:connector-curvature="0" />
	<path style="fill:none;stroke:red;stroke-width:1px;stroke-linecap:butt;stroke-linejoin:miter;stroke-opacity:1" d="M 94.782,905.218 86.5291,925.025 z" id="boundary" inkscape:connector-curvature="0" />
	<path style="fill:none;stroke:red;stroke-width:1px;stroke-linecap:butt;stroke-linejoin:miter;stroke-opacity:1" d="M 94.782,905.218 94.782,888.712 z" id="boundary" inkscape:connector-curvature="0" />
	<path style="fill:none;stroke:red;stroke-width:1px;stroke-linecap:butt;stroke-linejoin:miter;stroke-opacity:1" d="M 86.5291,941.531 94.782,956.386 z" id="boundary" inkscape:connector-curvature="0" />
	<path style="fill:none;stroke:red;stroke-width:1px;stroke-linecap:butt;stroke-linejoin:miter;stroke-opacity:1" d="M 103.035,971.241 94.782,956.386 z" id="boundary" inkscape:connector-curvature="0" />
	<path style="fill:none;stroke:red;stroke-width:1px;stroke-linecap:butt;stroke-linejoin:miter;stroke-opacity:1" d="M 117.89,979.494 103.035,971.241 z" id="boundary" inkscape:connector-curvature="0" />
	<path style="fill:none;stroke:red;stroke-width:1px;stroke-linecap:butt;stroke-linejoin:miter;stroke-opacity:1" d="M 132.745,987.747 117.89,979.494 z" id="boundary" inkscape:connector-curvature="0" />
	<path style="fill:none;stroke:red;stroke-width:1px;stroke-linecap:butt;stroke-linejoin:miter;stroke-opacity:1" d="M 149.251,987.747 132.745,987.747 z" id="boundary" inkscape:connector-curvature="0" />
	<path style="fill:none;stroke:red;stroke-width:1px;stroke-linecap:butt;stroke-linejoin:miter;stroke-opacity:1" d="M 164.106,996 149.251,987.747 z" id="boundary" inkscape:connector-curvature="0" />
	<path style="fill:none;stroke:red;stroke-width:1px;stroke-linecap:butt;stroke-linejoin:miter;stroke-opacity:1" d="M 164.106,996 180.612,996 z" id="boundary" inkscape:connector-curvature="0" />
	<path style="fill:none;stroke:red;stroke-width:1px;stroke-linecap:butt;stroke-linejoin:miter;stroke-opacity:1" d="M 178.962,12.2529 162.456,12.2529 z" id="boundary" inkscape:connector-curvature="0" />
	<path style="fill:none;stroke:red;stroke-width:1px;stroke-linecap:butt;stroke-linejoin:miter;stroke-opacity:1" d="M 210.323,23.807 193.817,20.5058 z" id="boundary" inkscape:connector-curvature="0" />
	<path style="fill:none;stroke:red;stroke-width:1px;stroke-linecap:butt;stroke-linejoin:miter;stroke-opacity:1" d="M 193.817,20.5058 178.962,12.2529 z" id="boundary" inkscape:connector-curvature="0" />
	<path style="fill:none;stroke:red;stroke-width:1px;stroke-linecap:butt;stroke-linejoin:miter;stroke-opacity:1" d="M 210.323,23.807 225.178,32.0599 z" id="boundary" inkscape:connector-curvature="0" />
	<path style="fill:none;stroke:red;stroke-width:1px;stroke-linecap:butt;stroke-linejoin:miter;stroke-opacity:1" d="M 236.732,45.2646 225.178,32.0599 z" id="boundary" inkscape:connector-curvature="0" />
	<path style="fill:none;stroke:red;stroke-width:1px;stroke-linecap:butt;stroke-linejoin:miter;stroke-opacity:1" d="M 236.732,45.2646 249.937,55.1681 z" id="boundary" inkscape:connector-curvature="0" />
	<path style="fill:none;stroke:red;stroke-width:1px;stroke-linecap:butt;stroke-linejoin:miter;stroke-opacity:1" d="M 261.491,68.3727 261.491,84.8785 z" id="boundary" inkscape:connector-curvature="0" />
	<path style="fill:none;stroke:red;stroke-width:1px;stroke-linecap:butt;stroke-linejoin:miter;stroke-opacity:1" d="M 261.491,68.3727 249.937,55.1681 z" id="boundary" inkscape:connector-curvature="0" />
	<path style="fill:none;stroke:red;stroke-width:1px;stroke-linecap:butt;stroke-linejoin:miter;stroke-opacity:1" d="M 269.744,99.7338 261.491,84.8785 z" id="boundary" inkscape:connector-curvature="0" />
	<path style="fill:none;stroke:red;stroke-width:1px;stroke-linecap:butt;stroke-linejoin:miter;stroke-opacity:1" d="M 261.491,121.191 261.491,137.697 z" id="boundary" inkscape:connector-curvature="0" />
	<path style="fill:none;stroke:red;stroke-width:1px;stroke-linecap:butt;stroke-linejoin:miter;stroke-opacity:1" d="M 269.744,99.7338 261.491,121.191 z" id="boundary" inkscape:connector-curvature="0" />
	<path style="fill:none;stroke:red;stroke-width:1px;stroke-linecap:butt;stroke-linejoin:miter;stroke-opacity:1" d="M 261.491,170.709 261.491,154.203 z" id="boundary" inkscape:connector-curvature="0" />
	<path style="fill:none;stroke:red;stroke-width:1px;stroke-linecap:butt;stroke-linejoin:miter;stroke-opacity:1" d="M 261.491,154.203 261.491,137.697 z" id="boundary" inkscape:connector-curvature="0" />
	<path style="fill:none;stroke:red;stroke-width:1px;stroke-linecap:butt;stroke-linejoin:miter;stroke-opacity:1" d="M 261.491,187.215 261.491,170.709 z" id="boundary" inkscape:connector-curvature="0" />
	<path style="fill:none;stroke:red;stroke-width:1px;stroke-linecap:butt;stroke-linejoin:miter;stroke-opacity:1" d="M 253.238,243.334 244.985,228.479 z" id="boundary" inkscape:connector-curvature="0" />
	<path style="fill:none;stroke:red;stroke-width:1px;stroke-linecap:butt;stroke-linejoin:miter;stroke-opacity:1" d="M 253.238,203.72 244.985,228.479 z" id="boundary" inkscape:connector-curvature="0" />
	<path style="fill:none;stroke:red;stroke-width:1px;stroke-linecap:butt;stroke-linejoin:miter;stroke-opacity:1" d="M 261.491,258.19 253.238,243.334 z" id="boundary" inkscape:connector-curvature="0" />
	<path style="fill:none;stroke:red;stroke-width:1px;stroke-linecap:butt;stroke-linejoin:miter;stroke-opacity:1" d="M 269.744,273.045 261.491,258.19 z" id="boundary" inkscape:connector-curvature="0" />
	<path style="fill:none;stroke:red;stroke-width:1px;stroke-linecap:butt;stroke-linejoin:miter;stroke-opacity:1" d="M 253.238,203.72 261.491,187.215 z" id="boundary" inkscape:connector-curvature="0" />
	<path style="fill:none;stroke:red;stroke-width:1px;stroke-linecap:butt;stroke-linejoin:miter;stroke-opacity:1" d="M 269.744,273.045 269.744,289.551 z" id="boundary" inkscape:connector-curvature="0" />
	<path style="fill:none;stroke:red;stroke-width:1px;stroke-linecap:butt;stroke-linejoin:miter;stroke-opacity:1" d="M 277.997,304.406 277.997,320.912 z" id="boundary" inkscape:connector-curvature="0" />
	<path style="fill:none;stroke:red;stroke-width:1px;stroke-linecap:butt;stroke-linejoin:miter;stroke-opacity:1" d="M 277.997,304.406 269.744,289.551 z" id="boundary" inkscape:connector-curvature="0" />
	<path style="fill:none;stroke:red;stroke-width:1px;stroke-linecap:butt;stroke-linejoin:miter;stroke-opacity:1" d="M 277.997,320.912 277.997,337.418 z" id="boundary" inkscape:connector-curvature="0" />
	<path style="fill:none;stroke:red;stroke-width:1px;stroke-linecap:butt;stroke-linejoin:miter;stroke-opacity:1" d="M 281.298,393.537 277.997,377.032 z" id="boundary" inkscape:connector-curvature="0" />
	<path style="fill:none;stroke:red;stroke-width:1px;stroke-linecap:butt;stroke-linejoin:miter;stroke-opacity:1" d="M 286.25,352.273 277.997,377.032 z" id="boundary" inkscape:connector-curvature="0" />
	<path style="fill:none;stroke:red;stroke-width:1px;stroke-linecap:butt;stroke-linejoin:miter;stroke-opacity:1" d="M 301.105,421.597 289.551,408.393 z" id="boundary" inkscape:connector-curvature="0" />
	<path style="fill:none;stroke:red;stroke-width:1px;stroke-linecap:butt;stroke-linejoin:miter;stroke-opacity:1" d="M 302.755,438.103 301.105,421.597 z" id="boundary" inkscape:connector-curvature="0" />
	<path style="fill:none;stroke:red;stroke-width:1px;stroke-linecap:butt;stroke-linejoin:miter;stroke-opacity:1" d="M 289.551,408.393 281.298,393.537 z" id="boundary" inkscape:connector-curvature="0" />
	<path style="fill:none;stroke:red;stroke-width:1px;stroke-linecap:butt;stroke-linejoin:miter;stroke-opacity:1" d="M 286.25,352.273 277.997,337.418 z" id="boundary" inkscape:connector-curvature="0" />
	<path style="fill:none;stroke:red;stroke-width:1px;stroke-linecap:butt;stroke-linejoin:miter;stroke-opacity:1" d="M 317.611,469.464 324.213,485.97 z" id="boundary" inkscape:connector-curvature="0" />
	<path style="fill:none;stroke:red;stroke-width:1px;stroke-linecap:butt;stroke-linejoin:miter;stroke-opacity:1" d="M 302.755,438.103 309.358,454.609 z" id="boundary" inkscape:connector-curvature="0" />
	<path style="fill:none;stroke:red;stroke-width:1px;stroke-linecap:butt;stroke-linejoin:miter;stroke-opacity:1" d="M 309.358,454.609 317.611,469.464 z" id="boundary" inkscape:connector-curvature="0" />
	<path style="fill:none;stroke:red;stroke-width:1px;stroke-linecap:butt;stroke-linejoin:miter;stroke-opacity:1" d="M 332.466,500.825 324.213,485.97 z" id="boundary" inkscape:connector-curvature="0" />
	<path style="fill:none;stroke:red;stroke-width:1px;stroke-linecap:butt;stroke-linejoin:miter;stroke-opacity:1" d="M 332.466,500.825 339.068,517.331 z" id="boundary" inkscape:connector-curvature="0" />
	<path style="fill:none;stroke:red;stroke-width:1px;stroke-linecap:butt;stroke-linejoin:miter;stroke-opacity:1" d="M 347.321,532.186 339.068,517.331 z" id="boundary" inkscape:connector-curvature="0" />
	<path style="fill:none;stroke:red;stroke-width:1px;stroke-linecap:butt;stroke-linejoin:miter;stroke-opacity:1" d="M 352.273,548.692 347.321,532.186 z" id="boundary" inkscape:connector-curvature="0" />
	<path style="fill:none;stroke:red;stroke-width:1px;stroke-linecap:butt;stroke-linejoin:miter;stroke-opacity:1" d="M 352.273,565.198 352.273,548.692 z" id="boundary" inkscape:connector-curvature="0" />
	<path style="fill:none;stroke:red;stroke-width:1px;stroke-linecap:butt;stroke-linejoin:miter;stroke-opacity:1" d="M 269.744,715.401 261.491,740.16 z" id="boundary" inkscape:connector-curvature="0" />
	<path style="fill:none;stroke:red;stroke-width:1px;stroke-linecap:butt;stroke-linejoin:miter;stroke-opacity:1" d="M 253.238,797.93 244.985,814.436 z" id="boundary" inkscape:connector-curvature="0" />
	<path style="fill:none;stroke:red;stroke-width:1px;stroke-linecap:butt;stroke-linejoin:miter;stroke-opacity:1" d="M 253.238,764.918 253.238,781.424 z" id="boundary" inkscape:connector-curvature="0" />
	<path style="fill:none;stroke:red;stroke-width:1px;stroke-linecap:butt;stroke-linejoin:miter;stroke-opacity:1" d="M 253.238,797.93 253.238,781.424 z" id="boundary" inkscape:connector-curvature="0" />
	<path style="fill:none;stroke:red;stroke-width:1px;stroke-linecap:butt;stroke-linejoin:miter;stroke-opacity:1" d="M 261.491,740.16 253.238,764.918 z" id="boundary" inkscape:connector-curvature="0" />
	<path style="fill:none;stroke:red;stroke-width:1px;stroke-linecap:butt;stroke-linejoin:miter;stroke-opacity:1" d="M 244.985,830.942 244.985,814.436 z" id="boundary" inkscape:connector-curvature="0" />
	<path style="fill:none;stroke:red;stroke-width:1px;stroke-linecap:butt;stroke-linejoin:miter;stroke-opacity:1" d="M 197.118,996 180.612,996 z" id="boundary" inkscape:connector-curvature="0" />
	<path style="fill:none;stroke:red;stroke-width:1px;stroke-linecap:butt;stroke-linejoin:miter;stroke-opacity:1" d="M 197.118,996 213.624,996 z" id="boundary" inkscape:connector-curvature="0" />
	<path style="fill:none;stroke:red;stroke-width:1px;stroke-linecap:butt;stroke-linejoin:miter;stroke-opacity:1" d="M 230.13,996 213.624,996 z" id="boundary" inkscape:connector-curvature="0" />
	<path style="fill:none;stroke:red;stroke-width:1px;stroke-linecap:butt;stroke-linejoin:miter;stroke-opacity:1" d="M 228.479,880.459 236.732,895.314 z" id="boundary" inkscape:connector-curvature="0" />
	<path style="fill:none;stroke:red;stroke-width:1px;stroke-linecap:butt;stroke-linejoin:miter;stroke-opacity:1" d="M 236.732,855.7 228.479,880.459 z" id="boundary" inkscape:connector-curvature="0" />
	<path style="fill:none;stroke:red;stroke-width:1px;stroke-linecap:butt;stroke-linejoin:miter;stroke-opacity:1" d="M 236.732,855.7 244.985,830.942 z" id="boundary" inkscape:connector-curvature="0" />
	<path style="fill:none;stroke:red;stroke-width:1px;stroke-linecap:butt;stroke-linejoin:miter;stroke-opacity:1" d="M 236.732,895.314 249.937,905.218 z" id="boundary" inkscape:connector-curvature="0" />
	<path style="fill:none;stroke:red;stroke-width:1px;stroke-linecap:butt;stroke-linejoin:miter;stroke-opacity:1" d="M 249.937,905.218 264.792,913.471 z" id="boundary" inkscape:connector-curvature="0" />
	<path style="fill:none;stroke:red;stroke-width:1px;stroke-linecap:butt;stroke-linejoin:miter;stroke-opacity:1" d="M 246.636,996 230.13,996 z" id="boundary" inkscape:connector-curvature="0" />
	<path style="fill:none;stroke:red;stroke-width:1px;stroke-linecap:butt;stroke-linejoin:miter;stroke-opacity:1" d="M 263.141,996 246.636,996 z" id="boundary" inkscape:connector-curvature="0" />
	<path style="fill:none;stroke:red;stroke-width:1px;stroke-linecap:butt;stroke-linejoin:miter;stroke-opacity:1" d="M 294.502,657.631 282.948,670.835 z" id="boundary" inkscape:connector-curvature="0" />
	<path style="fill:none;stroke:red;stroke-width:1px;stroke-linecap:butt;stroke-linejoin:miter;stroke-opacity:1" d="M 302.755,641.125 294.502,657.631 z" id="boundary" inkscape:connector-curvature="0" />
	<path style="fill:none;stroke:red;stroke-width:1px;stroke-linecap:butt;stroke-linejoin:miter;stroke-opacity:1" d="M 302.755,641.125 311.008,624.619 z" id="boundary" inkscape:connector-curvature="0" />
	<path style="fill:none;stroke:red;stroke-width:1px;stroke-linecap:butt;stroke-linejoin:miter;stroke-opacity:1" d="M 282.948,670.835 269.744,682.389 z" id="boundary" inkscape:connector-curvature="0" />
	<path style="fill:none;stroke:red;stroke-width:1px;stroke-linecap:butt;stroke-linejoin:miter;stroke-opacity:1" d="M 269.744,698.895 269.744,715.401 z" id="boundary" inkscape:connector-curvature="0" />
	<path style="fill:none;stroke:red;stroke-width:1px;stroke-linecap:butt;stroke-linejoin:miter;stroke-opacity:1" d="M 269.744,698.895 269.744,682.389 z" id="boundary" inkscape:connector-curvature="0" />
	<path style="fill:none;stroke:red;stroke-width:1px;stroke-linecap:butt;stroke-linejoin:miter;stroke-opacity:1" d="M 324.213,613.065 311.008,624.619 z" id="boundary" inkscape:connector-curvature="0" />
	<path style="fill:none;stroke:red;stroke-width:1px;stroke-linecap:butt;stroke-linejoin:miter;stroke-opacity:1" d="M 324.213,613.065 340.719,604.812 z" id="boundary" inkscape:connector-curvature="0" />
	<path style="fill:none;stroke:red;stroke-width:1px;stroke-linecap:butt;stroke-linejoin:miter;stroke-opacity:1" d="M 348.972,588.306 340.719,604.812 z" id="boundary" inkscape:connector-curvature="0" />
	<path style="fill:none;stroke:red;stroke-width:1px;stroke-linecap:butt;stroke-linejoin:miter;stroke-opacity:1" d="M 348.972,588.306 352.273,565.198 z" id="boundary" inkscape:connector-curvature="0" />
	<path style="fill:none;stroke:red;stroke-width:1px;stroke-linecap:butt;stroke-linejoin:miter;stroke-opacity:1" d="M 264.792,913.471 277.997,925.025 z" id="boundary" inkscape:connector-curvature="0" />
	<path style="fill:none;stroke:red;stroke-width:1px;stroke-linecap:butt;stroke-linejoin:miter;stroke-opacity:1" d="M 291.201,936.579 306.057,944.832 z" id="boundary" inkscape:connector-curvature="0" />
	<path style="fill:none;stroke:red;stroke-width:1px;stroke-linecap:butt;stroke-linejoin:miter;stroke-opacity:1" d="M 291.201,936.579 277.997,925.025 z" id="boundary" inkscape:connector-curvature="0" />
	<path style="fill:none;stroke:red;stroke-width:1px;stroke-linecap:butt;stroke-linejoin:miter;stroke-opacity:1" d="M 277.997,987.747 263.141,996 z" id="boundary" inkscape:connector-curvature="0" />
	<path style="fill:none;stroke:red;stroke-width:1px;stroke-linecap:butt;stroke-linejoin:miter;stroke-opacity:1" d="M 292.852,979.494 277.997,987.747 z" id="boundary" inkscape:connector-curvature="0" />
	<path style="fill:none;stroke:red;stroke-width:1px;stroke-linecap:butt;stroke-linejoin:miter;stroke-opacity:1" d="M 309.358,974.542 292.852,979.494 z" id="boundary" inkscape:connector-curvature="0" />
	<path style="fill:none;stroke:red;stroke-width:1px;stroke-linecap:butt;stroke-linejoin:miter;stroke-opacity:1" d="M 309.358,974.542 306.057,944.832 z" id="boundary" inkscape:connector-curvature="0" />
	<circle cx="4" cy="306.057" r="4" fill="#0" id="circle0"/>
	<circle cx="4" cy="322.562" r="4" fill="#0" id="circle1"/>
	<circle cx="4" cy="339.068" r="4" fill="#0" id="circle2"/>
	<circle cx="4" cy="355.574" r="4" fill="#0" id="circle3"/>
	<circle cx="4" cy="372.08" r="4" fill="#0" id="circle4"/>
	<circle cx="12.2529" cy="289.551" r="4" fill="#0" id="circle5"/>
	<circle cx="12.2529" cy="386.935" r="4" fill="#0" id="circle6"/>
	<circle cx="20.5058" cy="83.228" r="4" fill="#0" id="circle7"/>
	<circle cx="20.5058" cy="99.7338" r="4" fill="#0" id="circle8"/>
	<circle cx="20.5058" cy="116.24" r="4" fill="#0" id="circle9"/>
	<circle cx="20.5058" cy="132.745" r="4" fill="#0" id="circle10"/>
	<circle cx="20.5058" cy="401.79" r="4" fill="#0" id="circle11"/>
	<circle cx="20.5058" cy="418.296" r="4" fill="#0" id="circle12"/>
	<circle cx="20.5058" cy="434.802" r="4" fill="#0" id="circle13"/>
	<circle cx="20.5058" cy="451.308" r="4" fill="#0" id="circle14"/>
	<circle cx="20.5058" cy="467.814" r="4" fill="#0" id="circle15"/>
	<circle cx="25.4576" cy="276.346" r="4" fill="#0" id="circle16"/>
	<circle cx="28.7587" cy="66.7221" r="4" fill="#0" id="circle17"/>
	<circle cx="28.7587" cy="147.601" r="4" fill="#0" id="circle18"/>
	<circle cx="28.7587" cy="482.669" r="4" fill="#0" id="circle19"/>
	<circle cx="28.7587" cy="528.885" r="4" fill="#0" id="circle20"/>
	<circle cx="37.0116" cy="162.456" r="4" fill="#0" id="circle21"/>
	<circle cx="37.0116" cy="497.524" r="4" fill="#0" id="circle22"/>
	<circle cx="37.0116" cy="514.03" r="4" fill="#0" id="circle23"/>
	<circle cx="37.0116" cy="543.74" r="4" fill="#0" id="circle24"/>
	<circle cx="37.0116" cy="560.246" r="4" fill="#0" id="circle25"/>
	<circle cx="37.0116" cy="576.752" r="4" fill="#0" id="circle26"/>
	<circle cx="37.0116" cy="593.258" r="4" fill="#0" id="circle27"/>
	<circle cx="38.6622" cy="263.141" r="4" fill="#0" id="circle28"/>
	<circle cx="41.9634" cy="53.5175" r="4" fill="#0" id="circle29"/>
	<circle cx="45.2646" cy="608.113" r="4" fill="#0" id="circle30"/>
	<circle cx="45.2646" cy="624.619" r="4" fill="#0" id="circle31"/>
	<circle cx="45.2646" cy="641.125" r="4" fill="#0" id="circle32"/>
	<circle cx="46.9151" cy="175.661" r="4" fill="#0" id="circle33"/>
	<circle cx="51.8669" cy="251.587" r="4" fill="#0" id="circle34"/>
	<circle cx="53.5175" cy="655.98" r="4" fill="#0" id="circle35"/>
	<circle cx="55.1681" cy="40.3128" r="4" fill="#0" id="circle36"/>
	<circle cx="60.1198" cy="187.215" r="4" fill="#0" id="circle37"/>
	<circle cx="63.421" cy="238.383" r="4" fill="#0" id="circle38"/>
	<circle cx="63.421" cy="669.185" r="4" fill="#0" id="circle39"/>
	<circle cx="68.3727" cy="28.7587" r="4" fill="#0" id="circle40"/>
	<circle cx="70.0233" cy="200.419" r="4" fill="#0" id="circle41"/>
	<circle cx="70.0233" cy="216.925" r="4" fill="#0" id="circle42"/>
	<circle cx="70.0233" cy="809.484" r="4" fill="#0" id="circle43"/>
	<circle cx="74.975" cy="682.389" r="4" fill="#0" id="circle44"/>
	<circle cx="78.2762" cy="784.725" r="4" fill="#0" id="circle45"/>
	<circle cx="78.2762" cy="824.339" r="4" fill="#0" id="circle46"/>
	<circle cx="78.2762" cy="840.845" r="4" fill="#0" id="circle47"/>
	<circle cx="79.9268" cy="15.5541" r="4" fill="#0" id="circle48"/>
	<circle cx="86.5291" cy="695.594" r="4" fill="#0" id="circle49"/>
	<circle cx="86.5291" cy="768.22" r="4" fill="#0" id="circle50"/>
	<circle cx="86.5291" cy="855.7" r="4" fill="#0" id="circle51"/>
	<circle cx="86.5291" cy="925.025" r="4" fill="#0" id="circle52"/>
	<circle cx="86.5291" cy="941.531" r="4" fill="#0" id="circle53"/>
	<circle cx="91.4809" cy="872.206" r="4" fill="#0" id="circle54"/>
	<circle cx="94.782" cy="710.449" r="4" fill="#0" id="circle55"/>
	<circle cx="94.782" cy="726.955" r="4" fill="#0" id="circle56"/>
	<circle cx="94.782" cy="743.461" r="4" fill="#0" id="circle57"/>
	<circle cx="94.782" cy="888.712" r="4" fill="#0" id="circle58"/>
	<circle cx="94.782" cy="905.218" r="4" fill="#0" id="circle59"/>
	<circle cx="94.782" cy="956.386" r="4" fill="#0" id="circle60"/>
	<circle cx="96.4326" cy="7.30116" r="4" fill="#0" id="circle61"/>
	<circle cx="103.035" cy="971.241" r="4" fill="#0" id="circle62"/>
	<circle cx="112.938" cy="4" r="4" fill="#0" id="circle63"/>
	<circle cx="117.89" cy="979.494" r="4" fill="#0" id="circle64"/>
	<circle cx="129.444" cy="4" r="4" fill="#0" id="circle65"/>
	<circle cx="132.745" cy="987.747" r="4" fill="#0" id="circle66"/>
	<circle cx="145.95" cy="8.95175" r="4" fill="#0" id="circle67"/>
	<circle cx="149.251" cy="987.747" r="4" fill="#0" id="circle68"/>
	<circle cx="162.456" cy="12.2529" r="4" fill="#0" id="circle69"/>
	<circle cx="164.106" cy="996" r="4" fill="#0" id="circle70"/>
	<circle cx="178.962" cy="12.2529" r="4" fill="#0" id="circle71"/>
	<circle cx="180.612" cy="996" r="4" fill="#0" id="circle72"/>
	<circle cx="193.817" cy="20.5058" r="4" fill="#0" id="circle73"/>
	<circle cx="197.118" cy="996" r="4" fill="#0" id="circle74"/>
	<circle cx="210.323" cy="23.807" r="4" fill="#0" id="circle75"/>
	<circle cx="213.624" cy="996" r="4" fill="#0" id="circle76"/>
	<circle cx="225.178" cy="32.0599" r="4" fill="#0" id="circle77"/>
	<circle cx="228.479" cy="880.459" r="4" fill="#0" id="circle78"/>
	<circle cx="230.13" cy="996" r="4" fill="#0" id="circle79"/>
	<circle cx="236.732" cy="45.2646" r="4" fill="#0" id="circle80"/>
	<circle cx="236.732" cy="855.7" r="4" fill="#0" id="circle81"/>
	<circle cx="236.732" cy="895.314" r="4" fill="#0" id="circle82"/>
	<circle cx="244.985" cy="228.479" r="4" fill="#0" id="circle83"/>
	<circle cx="244.985" cy="814.436" r="4" fill="#0" id="circle84"/>
	<circle cx="244.985" cy="830.942" r="4" fill="#0" id="circle85"/>
	<circle cx="246.636" cy="996" r="4" fill="#0" id="circle86"/>
	<circle cx="249.937" cy="55.1681" r="4" fill="#0" id="circle87"/>
	<circle cx="249.937" cy="905.218" r="4" fill="#0" id="circle88"/>
	<circle cx="253.238" cy="203.72" r="4" fill="#0" id="circle89"/>
	<circle cx="253.238" cy="243.334" r="4" fill="#0" id="circle90"/>
	<circle cx="253.238" cy="764.918" r="4" fill="#0" id="circle91"/>
	<circle cx="253.238" cy="781.424" r="4" fill="#0" id="circle92"/>
	<circle cx="253.238" cy="797.93" r="4" fill="#0" id="circle93"/>
	<circle cx="261.491" cy="68.3727" r="4" fill="#0" id="circle94"/>
	<circle cx="261.491" cy="84.8785" r="4" fill="#0" id="circle95"/>
	<circle cx="261.491" cy="121.191" r="4" fill="#0" id="circle96"/>
	<circle cx="261.491" cy="137.697" r="4" fill="#0" id="circle97"/>
	<circle cx="261.491" cy="154.203" r="4" fill="#0" id="circle98"/>
	<circle cx="261.491" cy="170.709" r="4" fill="#0" id="circle99"/>
	<circle cx="261.491" cy="187.215" r="4" fill="#0" id="circle100"/>
	<circle cx="261.491" cy="258.19" r="4" fill="#0" id="circle101"/>
	<circle cx="261.491" cy="740.16" r="4" fill="#0" id="circle102"/>
	<circle cx="263.141" cy="996" r="4" fill="#0" id="circle103"/>
	<circle cx="264.792" cy="913.471" r="4" fill="#0" id="circle104"/>
	<circle cx="269.744" cy="99.7338" r="4" fill="#0" id="circle105"/>
	<circle cx="269.744" cy="273.045" r="4" fill="#0" id="circle106"/>
	<circle cx="269.744" cy="289.551" r="4" fill="#0" id="circle107"/>
	<circle cx="269.744" cy="682.389" r="4" fill="#0" id="circle108"/>
	<circle cx="269.744" cy="698.895" r="4" fill="#0" id="circle109"/>
	<circle cx="269.744" cy="715.401" r="4" fill="#0" id="circle110"/>
	<circle cx="277.997" cy="304.406" r="4" fill="#0" id="circle111"/>
	<circle cx="277.997" cy="320.912" r="4" fill="#0" id="circle112"/>
	<circle cx="277.997" cy="337.418" r="4" fill="#0" id="circle113"/>
	<circle cx="277.997" cy="377.032" r="4" fill="#0" id="circle114"/>
	<circle cx="277.997" cy="925.025" r="4" fill="#0" id="circle115"/>
	<circle cx="277.997" cy="987.747" r="4" fill="#0" id="circle116"/>
	<circle cx="281.298" cy="393.537" r="4" fill="#0" id="circle117"/>
	<circle cx="282.948" cy="670.835" r="4" fill="#0" id="circle118"/>
	<circle cx="286.25" cy="352.273" r="4" fill="#0" id="circle119"/>
	<circle cx="289.551" cy="408.393" r="4" fill="#0" id="circle120"/>
	<circle cx="291.201" cy="936.579" r="4" fill="#0" id="circle121"/>
	<circle cx="292.852" cy="979.494" r="4" fill="#0" id="circle122"/>
	<circle cx="294.502" cy="657.631" r="4" fill="#0" id="circle123"/>
	<circle cx="301.105" cy="421.597" r="4" fill="#0" id="circle124"/>
	<circle cx="302.755" cy="438.103" r="4" fill="#0" id="circle125"/>
	<circle cx="302.755" cy="641.125" r="4" fill="#0" id="circle126"/>
	<circle cx="306.057" cy="944.832" r="4" fill="#0" id="circle127"/>
	<circle cx="309.358" cy="454.609" r="4" fill="#0" id="circle128"/>
	<circle cx="309.358" cy="974.542" r="4" fill="#0" id="circle129"/>
	<circle cx="311.008" cy="624.619" r="4" fill="#0" id="circle130"/>
	<circle cx="317.611" cy="469.464" r="4" fill="#0" id="circle131"/>
	<circle cx="324.213" cy="485.97" r="4" fill="#0" id="circle132"/>
	<circle cx="324.213" cy="613.065" r="4" fill="#0" id="circle133"/>
	<circle cx="332.466" cy="500.825" r="4" fill="#0" id="circle134"/>
	<circle cx="339.068" cy="517.331" r="4" fill="#0" id="circle135"/>
	<circle cx="340.719" cy="604.812" r="4" fill="#0" id="circle136"/>
	<circle cx="347.321" cy="532.186" r="4" fill="#0" id="circle137"/>
	<circle cx="348.972" cy="588.306" r="4" fill="#0" id="circle138"/>
	<circle cx="352.273" cy="548.692" r="4" fill="#0" id="circle139"/>
	<circle cx="352.273" cy="565.198" r="4" fill="#0" id="circle140"/>
	</g>
</svg>