<?xml version="1.0" encoding="UTF-8" standalone="no"?>
<!-- Created with CurveBenchmark -->
<svg
	xmlns:dc="http://purl.org/dc/elements/1.1/"
	xmlns:cc="http://creativecommons.org/ns#"
	xmlns:rdf="http://www.w3.org/1999/02/22-rdf-syntax-ns#"
	xmlns:svg="http://www.w3.org/2000/svg"
	xmlns="http://www.w3.org/2000/svg"
	xmlns:sodipodi="http://sodipodi.sourceforge.net/DTD/sodipodi-0.dtd"
	xmlns:inkscape="http://www.inkscape.org/namespaces/inkscape"
	width="1000"
	height="1000"
	id="svg2"
	version="1.1"
	sodipodi:docname="manifold/crust-fgen5ep.png.txt">
<defs
	id="defs4" />
<metadata
	id="metadata7">
	<rdf:RDF>
		<cc:Work
			rdf:about="">
			<dc:format>image/svg+xml</dc:format>
			<dc:type
				rdf:resource="http://purl.org/dc/dcmitype/StillImage" />
			<dc:title></dc:title>
		</cc:Work>
	</rdf:RDF>
</metadata>
<g
	inkscape:label="Layer 1"
	inkscape:groupmode="layer"
	id="layer1">
	<path style="fill:none;stroke:red;stroke-width:1px;stroke-linecap:butt;stroke-linejoin:miter;stroke-opacity:1" d="M 4,150.888 24.1217,144.852 z" id="boundary" inkscape:connector-curvature="0" />
	<path style="fill:none;stroke:red;stroke-width:1px;stroke-linecap:butt;stroke-linejoin:miter;stroke-opacity:1" d="M 16.073,166.986 4,150.888 z" id="boundary" inkscape:connector-curvature="0" />
	<path style="fill:none;stroke:red;stroke-width:1px;stroke-linecap:butt;stroke-linejoin:miter;stroke-opacity:1" d="M 34.1826,177.047 16.073,166.986 z" id="boundary" inkscape:connector-curvature="0" />
	<path style="fill:none;stroke:red;stroke-width:1px;stroke-linecap:butt;stroke-linejoin:miter;stroke-opacity:1" d="M 24.1217,144.852 44.2434,138.815 z" id="boundary" inkscape:connector-curvature="0" />
	<path style="fill:none;stroke:red;stroke-width:1px;stroke-linecap:butt;stroke-linejoin:miter;stroke-opacity:1" d="M 64.3651,134.791 44.2434,138.815 z" id="boundary" inkscape:connector-curvature="0" />
	<path style="fill:none;stroke:red;stroke-width:1px;stroke-linecap:butt;stroke-linejoin:miter;stroke-opacity:1" d="M 82.4746,124.73 64.3651,134.791 z" id="boundary" inkscape:connector-curvature="0" />
	<path style="fill:none;stroke:red;stroke-width:1px;stroke-linecap:butt;stroke-linejoin:miter;stroke-opacity:1" d="M 120.706,104.609 100.584,114.669 z" id="boundary" inkscape:connector-curvature="0" />
	<path style="fill:none;stroke:red;stroke-width:1px;stroke-linecap:butt;stroke-linejoin:miter;stroke-opacity:1" d="M 82.4746,124.73 100.584,114.669 z" id="boundary" inkscape:connector-curvature="0" />
	<path style="fill:none;stroke:red;stroke-width:1px;stroke-linecap:butt;stroke-linejoin:miter;stroke-opacity:1" d="M 130.767,207.229 110.645,205.217 z" id="boundary" inkscape:connector-curvature="0" />
	<path style="fill:none;stroke:red;stroke-width:1px;stroke-linecap:butt;stroke-linejoin:miter;stroke-opacity:1" d="M 140.828,94.5477 120.706,104.609 z" id="boundary" inkscape:connector-curvature="0" />
	<path style="fill:none;stroke:red;stroke-width:1px;stroke-linecap:butt;stroke-linejoin:miter;stroke-opacity:1" d="M 54.3043,177.047 72.4138,187.108 z" id="boundary" inkscape:connector-curvature="0" />
	<path style="fill:none;stroke:red;stroke-width:1px;stroke-linecap:butt;stroke-linejoin:miter;stroke-opacity:1" d="M 34.1826,177.047 54.3043,177.047 z" id="boundary" inkscape:connector-curvature="0" />
	<path style="fill:none;stroke:red;stroke-width:1px;stroke-linecap:butt;stroke-linejoin:miter;stroke-opacity:1" d="M 72.4138,187.108 90.5233,197.168 z" id="boundary" inkscape:connector-curvature="0" />
	<path style="fill:none;stroke:red;stroke-width:1px;stroke-linecap:butt;stroke-linejoin:miter;stroke-opacity:1" d="M 134.791,271.619 124.73,291.74 z" id="boundary" inkscape:connector-curvature="0" />
	<path style="fill:none;stroke:red;stroke-width:1px;stroke-linecap:butt;stroke-linejoin:miter;stroke-opacity:1" d="M 90.5233,197.168 110.645,205.217 z" id="boundary" inkscape:connector-curvature="0" />
	<path style="fill:none;stroke:red;stroke-width:1px;stroke-linecap:butt;stroke-linejoin:miter;stroke-opacity:1" d="M 104.609,352.105 94.5477,382.288 z" id="boundary" inkscape:connector-curvature="0" />
	<path style="fill:none;stroke:red;stroke-width:1px;stroke-linecap:butt;stroke-linejoin:miter;stroke-opacity:1" d="M 84.4868,422.531 94.5477,402.41 z" id="boundary" inkscape:connector-curvature="0" />
	<path style="fill:none;stroke:red;stroke-width:1px;stroke-linecap:butt;stroke-linejoin:miter;stroke-opacity:1" d="M 94.5477,402.41 94.5477,382.288 z" id="boundary" inkscape:connector-curvature="0" />
	<path style="fill:none;stroke:red;stroke-width:1px;stroke-linecap:butt;stroke-linejoin:miter;stroke-opacity:1" d="M 114.669,331.984 114.669,311.862 z" id="boundary" inkscape:connector-curvature="0" />
	<path style="fill:none;stroke:red;stroke-width:1px;stroke-linecap:butt;stroke-linejoin:miter;stroke-opacity:1" d="M 124.73,291.74 114.669,311.862 z" id="boundary" inkscape:connector-curvature="0" />
	<path style="fill:none;stroke:red;stroke-width:1px;stroke-linecap:butt;stroke-linejoin:miter;stroke-opacity:1" d="M 104.609,352.105 114.669,331.984 z" id="boundary" inkscape:connector-curvature="0" />
	<path style="fill:none;stroke:red;stroke-width:1px;stroke-linecap:butt;stroke-linejoin:miter;stroke-opacity:1" d="M 84.4868,422.531 84.4868,442.653 z" id="boundary" inkscape:connector-curvature="0" />
	<path style="fill:none;stroke:red;stroke-width:1px;stroke-linecap:butt;stroke-linejoin:miter;stroke-opacity:1" d="M 237.412,44.2434 217.29,48.2677 z" id="boundary" inkscape:connector-curvature="0" />
	<path style="fill:none;stroke:red;stroke-width:1px;stroke-linecap:butt;stroke-linejoin:miter;stroke-opacity:1" d="M 217.29,48.2677 197.168,58.3286 z" id="boundary" inkscape:connector-curvature="0" />
	<path style="fill:none;stroke:red;stroke-width:1px;stroke-linecap:butt;stroke-linejoin:miter;stroke-opacity:1" d="M 273.631,24.1217 255.521,34.1826 z" id="boundary" inkscape:connector-curvature="0" />
	<path style="fill:none;stroke:red;stroke-width:1px;stroke-linecap:butt;stroke-linejoin:miter;stroke-opacity:1" d="M 255.521,34.1826 237.412,44.2434 z" id="boundary" inkscape:connector-curvature="0" />
	<path style="fill:none;stroke:red;stroke-width:1px;stroke-linecap:butt;stroke-linejoin:miter;stroke-opacity:1" d="M 140.828,94.5477 160.949,84.4868 z" id="boundary" inkscape:connector-curvature="0" />
	<path style="fill:none;stroke:red;stroke-width:1px;stroke-linecap:butt;stroke-linejoin:miter;stroke-opacity:1" d="M 177.047,68.3895 197.168,58.3286 z" id="boundary" inkscape:connector-curvature="0" />
	<path style="fill:none;stroke:red;stroke-width:1px;stroke-linecap:butt;stroke-linejoin:miter;stroke-opacity:1" d="M 160.949,84.4868 177.047,68.3895 z" id="boundary" inkscape:connector-curvature="0" />
	<path style="fill:none;stroke:red;stroke-width:1px;stroke-linecap:butt;stroke-linejoin:miter;stroke-opacity:1" d="M 331.984,4 311.862,14.0609 z" id="boundary" inkscape:connector-curvature="0" />
	<path style="fill:none;stroke:red;stroke-width:1px;stroke-linecap:butt;stroke-linejoin:miter;stroke-opacity:1" d="M 311.862,14.0609 293.753,24.1217 z" id="boundary" inkscape:connector-curvature="0" />
	<path style="fill:none;stroke:red;stroke-width:1px;stroke-linecap:butt;stroke-linejoin:miter;stroke-opacity:1" d="M 350.093,14.0609 331.984,4 z" id="boundary" inkscape:connector-curvature="0" />
	<path style="fill:none;stroke:red;stroke-width:1px;stroke-linecap:butt;stroke-linejoin:miter;stroke-opacity:1" d="M 388.325,4 368.203,4 z" id="boundary" inkscape:connector-curvature="0" />
	<path style="fill:none;stroke:red;stroke-width:1px;stroke-linecap:butt;stroke-linejoin:miter;stroke-opacity:1" d="M 408.446,4 388.325,4 z" id="boundary" inkscape:connector-curvature="0" />
	<path style="fill:none;stroke:red;stroke-width:1px;stroke-linecap:butt;stroke-linejoin:miter;stroke-opacity:1" d="M 368.203,4 350.093,14.0609 z" id="boundary" inkscape:connector-curvature="0" />
	<path style="fill:none;stroke:red;stroke-width:1px;stroke-linecap:butt;stroke-linejoin:miter;stroke-opacity:1" d="M 273.631,24.1217 293.753,24.1217 z" id="boundary" inkscape:connector-curvature="0" />
	<path style="fill:none;stroke:red;stroke-width:1px;stroke-linecap:butt;stroke-linejoin:miter;stroke-opacity:1" d="M 144.852,251.497 134.791,271.619 z" id="boundary" inkscape:connector-curvature="0" />
	<path style="fill:none;stroke:red;stroke-width:1px;stroke-linecap:butt;stroke-linejoin:miter;stroke-opacity:1" d="M 144.852,223.327 130.767,207.229 z" id="boundary" inkscape:connector-curvature="0" />
	<path style="fill:none;stroke:red;stroke-width:1px;stroke-linecap:butt;stroke-linejoin:miter;stroke-opacity:1" d="M 144.852,223.327 144.852,251.497 z" id="boundary" inkscape:connector-curvature="0" />
	<path style="fill:none;stroke:red;stroke-width:1px;stroke-linecap:butt;stroke-linejoin:miter;stroke-opacity:1" d="M 195.156,388.325 177.047,398.385 z" id="boundary" inkscape:connector-curvature="0" />
	<path style="fill:none;stroke:red;stroke-width:1px;stroke-linecap:butt;stroke-linejoin:miter;stroke-opacity:1" d="M 177.047,398.385 162.961,414.483 z" id="boundary" inkscape:connector-curvature="0" />
	<path style="fill:none;stroke:red;stroke-width:1px;stroke-linecap:butt;stroke-linejoin:miter;stroke-opacity:1" d="M 162.961,414.483 146.864,428.568 z" id="boundary" inkscape:connector-curvature="0" />
	<path style="fill:none;stroke:red;stroke-width:1px;stroke-linecap:butt;stroke-linejoin:miter;stroke-opacity:1" d="M 96.5598,458.751 84.4868,442.653 z" id="boundary" inkscape:connector-curvature="0" />
	<path style="fill:none;stroke:red;stroke-width:1px;stroke-linecap:butt;stroke-linejoin:miter;stroke-opacity:1" d="M 130.767,446.677 116.682,462.775 z" id="boundary" inkscape:connector-curvature="0" />
	<path style="fill:none;stroke:red;stroke-width:1px;stroke-linecap:butt;stroke-linejoin:miter;stroke-opacity:1" d="M 96.5598,458.751 116.682,462.775 z" id="boundary" inkscape:connector-curvature="0" />
	<path style="fill:none;stroke:red;stroke-width:1px;stroke-linecap:butt;stroke-linejoin:miter;stroke-opacity:1" d="M 175.034,452.714 175.034,472.836 z" id="boundary" inkscape:connector-curvature="0" />
	<path style="fill:none;stroke:red;stroke-width:1px;stroke-linecap:butt;stroke-linejoin:miter;stroke-opacity:1" d="M 185.095,422.531 175.034,452.714 z" id="boundary" inkscape:connector-curvature="0" />
	<path style="fill:none;stroke:red;stroke-width:1px;stroke-linecap:butt;stroke-linejoin:miter;stroke-opacity:1" d="M 175.034,492.957 175.034,513.079 z" id="boundary" inkscape:connector-curvature="0" />
	<path style="fill:none;stroke:red;stroke-width:1px;stroke-linecap:butt;stroke-linejoin:miter;stroke-opacity:1" d="M 175.034,472.836 175.034,492.957 z" id="boundary" inkscape:connector-curvature="0" />
	<path style="fill:none;stroke:red;stroke-width:1px;stroke-linecap:butt;stroke-linejoin:miter;stroke-opacity:1" d="M 175.034,513.079 175.034,533.201 z" id="boundary" inkscape:connector-curvature="0" />
	<path style="fill:none;stroke:red;stroke-width:1px;stroke-linecap:butt;stroke-linejoin:miter;stroke-opacity:1" d="M 175.034,553.323 175.034,573.444 z" id="boundary" inkscape:connector-curvature="0" />
	<path style="fill:none;stroke:red;stroke-width:1px;stroke-linecap:butt;stroke-linejoin:miter;stroke-opacity:1" d="M 175.034,553.323 175.034,533.201 z" id="boundary" inkscape:connector-curvature="0" />
	<path style="fill:none;stroke:red;stroke-width:1px;stroke-linecap:butt;stroke-linejoin:miter;stroke-opacity:1" d="M 130.767,446.677 146.864,428.568 z" id="boundary" inkscape:connector-curvature="0" />
	<path style="fill:none;stroke:red;stroke-width:1px;stroke-linecap:butt;stroke-linejoin:miter;stroke-opacity:1" d="M 144.852,764.6 144.852,744.479 z" id="boundary" inkscape:connector-curvature="0" />
	<path style="fill:none;stroke:red;stroke-width:1px;stroke-linecap:butt;stroke-linejoin:miter;stroke-opacity:1" d="M 154.913,674.053 154.913,694.174 z" id="boundary" inkscape:connector-curvature="0" />
	<path style="fill:none;stroke:red;stroke-width:1px;stroke-linecap:butt;stroke-linejoin:miter;stroke-opacity:1" d="M 154.913,694.174 144.852,724.357 z" id="boundary" inkscape:connector-curvature="0" />
	<path style="fill:none;stroke:red;stroke-width:1px;stroke-linecap:butt;stroke-linejoin:miter;stroke-opacity:1" d="M 144.852,724.357 144.852,744.479 z" id="boundary" inkscape:connector-curvature="0" />
	<path style="fill:none;stroke:red;stroke-width:1px;stroke-linecap:butt;stroke-linejoin:miter;stroke-opacity:1" d="M 164.974,653.931 164.974,633.809 z" id="boundary" inkscape:connector-curvature="0" />
	<path style="fill:none;stroke:red;stroke-width:1px;stroke-linecap:butt;stroke-linejoin:miter;stroke-opacity:1" d="M 175.034,603.627 164.974,633.809 z" id="boundary" inkscape:connector-curvature="0" />
	<path style="fill:none;stroke:red;stroke-width:1px;stroke-linecap:butt;stroke-linejoin:miter;stroke-opacity:1" d="M 154.913,674.053 164.974,653.931 z" id="boundary" inkscape:connector-curvature="0" />
	<path style="fill:none;stroke:red;stroke-width:1px;stroke-linecap:butt;stroke-linejoin:miter;stroke-opacity:1" d="M 144.852,764.6 144.852,784.722 z" id="boundary" inkscape:connector-curvature="0" />
	<path style="fill:none;stroke:red;stroke-width:1px;stroke-linecap:butt;stroke-linejoin:miter;stroke-opacity:1" d="M 144.852,804.844 144.852,784.722 z" id="boundary" inkscape:connector-curvature="0" />
	<path style="fill:none;stroke:red;stroke-width:1px;stroke-linecap:butt;stroke-linejoin:miter;stroke-opacity:1" d="M 144.852,804.844 156.925,820.941 z" id="boundary" inkscape:connector-curvature="0" />
	<path style="fill:none;stroke:red;stroke-width:1px;stroke-linecap:butt;stroke-linejoin:miter;stroke-opacity:1" d="M 175.034,810.88 156.925,820.941 z" id="boundary" inkscape:connector-curvature="0" />
	<path style="fill:none;stroke:red;stroke-width:1px;stroke-linecap:butt;stroke-linejoin:miter;stroke-opacity:1" d="M 175.034,573.444 175.034,603.627 z" id="boundary" inkscape:connector-curvature="0" />
	<path style="fill:none;stroke:red;stroke-width:1px;stroke-linecap:butt;stroke-linejoin:miter;stroke-opacity:1" d="M 217.29,760.576 235.4,770.637 z" id="boundary" inkscape:connector-curvature="0" />
	<path style="fill:none;stroke:red;stroke-width:1px;stroke-linecap:butt;stroke-linejoin:miter;stroke-opacity:1" d="M 217.29,760.576 203.205,776.673 z" id="boundary" inkscape:connector-curvature="0" />
	<path style="fill:none;stroke:red;stroke-width:1px;stroke-linecap:butt;stroke-linejoin:miter;stroke-opacity:1" d="M 203.205,776.673 187.108,790.759 z" id="boundary" inkscape:connector-curvature="0" />
	<path style="fill:none;stroke:red;stroke-width:1px;stroke-linecap:butt;stroke-linejoin:miter;stroke-opacity:1" d="M 187.108,790.759 175.034,810.88 z" id="boundary" inkscape:connector-curvature="0" />
	<path style="fill:none;stroke:red;stroke-width:1px;stroke-linecap:butt;stroke-linejoin:miter;stroke-opacity:1" d="M 235.4,790.759 235.4,824.966 z" id="boundary" inkscape:connector-curvature="0" />
	<path style="fill:none;stroke:red;stroke-width:1px;stroke-linecap:butt;stroke-linejoin:miter;stroke-opacity:1" d="M 235.4,790.759 235.4,770.637 z" id="boundary" inkscape:connector-curvature="0" />
	<path style="fill:none;stroke:red;stroke-width:1px;stroke-linecap:butt;stroke-linejoin:miter;stroke-opacity:1" d="M 235.4,824.966 245.46,843.075 z" id="boundary" inkscape:connector-curvature="0" />
	<path style="fill:none;stroke:red;stroke-width:1px;stroke-linecap:butt;stroke-linejoin:miter;stroke-opacity:1" d="M 255.521,861.185 245.46,843.075 z" id="boundary" inkscape:connector-curvature="0" />
	<path style="fill:none;stroke:red;stroke-width:1px;stroke-linecap:butt;stroke-linejoin:miter;stroke-opacity:1" d="M 255.521,895.391 271.619,909.477 z" id="boundary" inkscape:connector-curvature="0" />
	<path style="fill:none;stroke:red;stroke-width:1px;stroke-linecap:butt;stroke-linejoin:miter;stroke-opacity:1" d="M 255.521,861.185 255.521,895.391 z" id="boundary" inkscape:connector-curvature="0" />
	<path style="fill:none;stroke:red;stroke-width:1px;stroke-linecap:butt;stroke-linejoin:miter;stroke-opacity:1" d="M 275.643,929.598 271.619,909.477 z" id="boundary" inkscape:connector-curvature="0" />
	<path style="fill:none;stroke:red;stroke-width:1px;stroke-linecap:butt;stroke-linejoin:miter;stroke-opacity:1" d="M 275.643,929.598 287.716,945.696 z" id="boundary" inkscape:connector-curvature="0" />
	<path style="fill:none;stroke:red;stroke-width:1px;stroke-linecap:butt;stroke-linejoin:miter;stroke-opacity:1" d="M 287.716,945.696 301.801,961.793 z" id="boundary" inkscape:connector-curvature="0" />
	<path style="fill:none;stroke:red;stroke-width:1px;stroke-linecap:butt;stroke-linejoin:miter;stroke-opacity:1" d="M 319.911,971.854 301.801,961.793 z" id="boundary" inkscape:connector-curvature="0" />
	<path style="fill:none;stroke:red;stroke-width:1px;stroke-linecap:butt;stroke-linejoin:miter;stroke-opacity:1" d="M 319.911,971.854 338.02,981.915 z" id="boundary" inkscape:connector-curvature="0" />
	<path style="fill:none;stroke:red;stroke-width:1px;stroke-linecap:butt;stroke-linejoin:miter;stroke-opacity:1" d="M 358.142,985.939 338.02,981.915 z" id="boundary" inkscape:connector-curvature="0" />
	<path style="fill:none;stroke:red;stroke-width:1px;stroke-linecap:butt;stroke-linejoin:miter;stroke-opacity:1" d="M 358.142,985.939 376.252,996 z" id="boundary" inkscape:connector-curvature="0" />
	<path style="fill:none;stroke:red;stroke-width:1px;stroke-linecap:butt;stroke-linejoin:miter;stroke-opacity:1" d="M 396.373,991.976 376.252,996 z" id="boundary" inkscape:connector-curvature="0" />
	<path style="fill:none;stroke:red;stroke-width:1px;stroke-linecap:butt;stroke-linejoin:miter;stroke-opacity:1" d="M 416.495,996 396.373,991.976 z" id="boundary" inkscape:connector-curvature="0" />
	<path style="fill:none;stroke:red;stroke-width:1px;stroke-linecap:butt;stroke-linejoin:miter;stroke-opacity:1" d="M 408.446,4 428.568,4 z" id="boundary" inkscape:connector-curvature="0" />
	<path style="fill:none;stroke:red;stroke-width:1px;stroke-linecap:butt;stroke-linejoin:miter;stroke-opacity:1" d="M 428.568,4 448.69,4 z" id="boundary" inkscape:connector-curvature="0" />
	<path style="fill:none;stroke:red;stroke-width:1px;stroke-linecap:butt;stroke-linejoin:miter;stroke-opacity:1" d="M 468.811,4 448.69,4 z" id="boundary" inkscape:connector-curvature="0" />
	<path style="fill:none;stroke:red;stroke-width:1px;stroke-linecap:butt;stroke-linejoin:miter;stroke-opacity:1" d="M 527.164,14.0609 507.043,14.0609 z" id="boundary" inkscape:connector-curvature="0" />
	<path style="fill:none;stroke:red;stroke-width:1px;stroke-linecap:butt;stroke-linejoin:miter;stroke-opacity:1" d="M 486.921,14.0609 507.043,14.0609 z" id="boundary" inkscape:connector-curvature="0" />
	<path style="fill:none;stroke:red;stroke-width:1px;stroke-linecap:butt;stroke-linejoin:miter;stroke-opacity:1" d="M 486.921,14.0609 468.811,4 z" id="boundary" inkscape:connector-curvature="0" />
	<path style="fill:none;stroke:red;stroke-width:1px;stroke-linecap:butt;stroke-linejoin:miter;stroke-opacity:1" d="M 527.164,14.0609 545.274,24.1217 z" id="boundary" inkscape:connector-curvature="0" />
	<path style="fill:none;stroke:red;stroke-width:1px;stroke-linecap:butt;stroke-linejoin:miter;stroke-opacity:1" d="M 545.274,24.1217 565.396,26.1339 z" id="boundary" inkscape:connector-curvature="0" />
	<path style="fill:none;stroke:red;stroke-width:1px;stroke-linecap:butt;stroke-linejoin:miter;stroke-opacity:1" d="M 583.505,36.1947 565.396,26.1339 z" id="boundary" inkscape:connector-curvature="0" />
	<path style="fill:none;stroke:red;stroke-width:1px;stroke-linecap:butt;stroke-linejoin:miter;stroke-opacity:1" d="M 583.505,36.1947 603.627,44.2434 z" id="boundary" inkscape:connector-curvature="0" />
	<path style="fill:none;stroke:red;stroke-width:1px;stroke-linecap:butt;stroke-linejoin:miter;stroke-opacity:1" d="M 621.736,54.3043 603.627,44.2434 z" id="boundary" inkscape:connector-curvature="0" />
	<path style="fill:none;stroke:red;stroke-width:1px;stroke-linecap:butt;stroke-linejoin:miter;stroke-opacity:1" d="M 621.736,54.3043 641.858,54.3043 z" id="boundary" inkscape:connector-curvature="0" />
	<path style="fill:none;stroke:red;stroke-width:1px;stroke-linecap:butt;stroke-linejoin:miter;stroke-opacity:1" d="M 641.858,54.3043 657.955,68.3895 z" id="boundary" inkscape:connector-curvature="0" />
	<path style="fill:none;stroke:red;stroke-width:1px;stroke-linecap:butt;stroke-linejoin:miter;stroke-opacity:1" d="M 686.126,96.5598 670.028,84.4868 z" id="boundary" inkscape:connector-curvature="0" />
	<path style="fill:none;stroke:red;stroke-width:1px;stroke-linecap:butt;stroke-linejoin:miter;stroke-opacity:1" d="M 670.028,84.4868 657.955,68.3895 z" id="boundary" inkscape:connector-curvature="0" />
	<path style="fill:none;stroke:red;stroke-width:1px;stroke-linecap:butt;stroke-linejoin:miter;stroke-opacity:1" d="M 599.602,327.959 619.724,317.899 z" id="boundary" inkscape:connector-curvature="0" />
	<path style="fill:none;stroke:red;stroke-width:1px;stroke-linecap:butt;stroke-linejoin:miter;stroke-opacity:1" d="M 609.663,346.069 599.602,327.959 z" id="boundary" inkscape:connector-curvature="0" />
	<path style="fill:none;stroke:red;stroke-width:1px;stroke-linecap:butt;stroke-linejoin:miter;stroke-opacity:1" d="M 619.724,364.178 609.663,346.069 z" id="boundary" inkscape:connector-curvature="0" />
	<path style="fill:none;stroke:red;stroke-width:1px;stroke-linecap:butt;stroke-linejoin:miter;stroke-opacity:1" d="M 619.724,317.899 639.846,317.899 z" id="boundary" inkscape:connector-curvature="0" />
	<path style="fill:none;stroke:red;stroke-width:1px;stroke-linecap:butt;stroke-linejoin:miter;stroke-opacity:1" d="M 657.955,327.959 639.846,317.899 z" id="boundary" inkscape:connector-curvature="0" />
	<path style="fill:none;stroke:red;stroke-width:1px;stroke-linecap:butt;stroke-linejoin:miter;stroke-opacity:1" d="M 678.077,327.959 657.955,327.959 z" id="boundary" inkscape:connector-curvature="0" />
	<path style="fill:none;stroke:red;stroke-width:1px;stroke-linecap:butt;stroke-linejoin:miter;stroke-opacity:1" d="M 698.199,327.959 678.077,327.959 z" id="boundary" inkscape:connector-curvature="0" />
	<path style="fill:none;stroke:red;stroke-width:1px;stroke-linecap:butt;stroke-linejoin:miter;stroke-opacity:1" d="M 686.126,96.5598 700.211,112.657 z" id="boundary" inkscape:connector-curvature="0" />
	<path style="fill:none;stroke:red;stroke-width:1px;stroke-linecap:butt;stroke-linejoin:miter;stroke-opacity:1" d="M 710.272,130.767 710.272,150.888 z" id="boundary" inkscape:connector-curvature="0" />
	<path style="fill:none;stroke:red;stroke-width:1px;stroke-linecap:butt;stroke-linejoin:miter;stroke-opacity:1" d="M 710.272,130.767 700.211,112.657 z" id="boundary" inkscape:connector-curvature="0" />
	<path style="fill:none;stroke:red;stroke-width:1px;stroke-linecap:butt;stroke-linejoin:miter;stroke-opacity:1" d="M 710.272,150.888 718.32,171.01 z" id="boundary" inkscape:connector-curvature="0" />
	<path style="fill:none;stroke:red;stroke-width:1px;stroke-linecap:butt;stroke-linejoin:miter;stroke-opacity:1" d="M 734.418,185.095 718.32,171.01 z" id="boundary" inkscape:connector-curvature="0" />
	<path style="fill:none;stroke:red;stroke-width:1px;stroke-linecap:butt;stroke-linejoin:miter;stroke-opacity:1" d="M 748.503,201.193 734.418,185.095 z" id="boundary" inkscape:connector-curvature="0" />
	<path style="fill:none;stroke:red;stroke-width:1px;stroke-linecap:butt;stroke-linejoin:miter;stroke-opacity:1" d="M 764.6,215.278 778.686,231.375 z" id="boundary" inkscape:connector-curvature="0" />
	<path style="fill:none;stroke:red;stroke-width:1px;stroke-linecap:butt;stroke-linejoin:miter;stroke-opacity:1" d="M 764.6,215.278 748.503,201.193 z" id="boundary" inkscape:connector-curvature="0" />
	<path style="fill:none;stroke:red;stroke-width:1px;stroke-linecap:butt;stroke-linejoin:miter;stroke-opacity:1" d="M 915.513,348.081 913.501,325.947 z" id="boundary" inkscape:connector-curvature="0" />
	<path style="fill:none;stroke:red;stroke-width:1px;stroke-linecap:butt;stroke-linejoin:miter;stroke-opacity:1" d="M 794.783,245.46 778.686,231.375 z" id="boundary" inkscape:connector-curvature="0" />
	<path style="fill:none;stroke:red;stroke-width:1px;stroke-linecap:butt;stroke-linejoin:miter;stroke-opacity:1" d="M 812.892,255.521 794.783,245.46 z" id="boundary" inkscape:connector-curvature="0" />
	<path style="fill:none;stroke:red;stroke-width:1px;stroke-linecap:butt;stroke-linejoin:miter;stroke-opacity:1" d="M 828.99,269.606 812.892,255.521 z" id="boundary" inkscape:connector-curvature="0" />
	<path style="fill:none;stroke:red;stroke-width:1px;stroke-linecap:butt;stroke-linejoin:miter;stroke-opacity:1" d="M 698.199,327.959 718.32,327.959 z" id="boundary" inkscape:connector-curvature="0" />
	<path style="fill:none;stroke:red;stroke-width:1px;stroke-linecap:butt;stroke-linejoin:miter;stroke-opacity:1" d="M 736.43,338.02 756.552,338.02 z" id="boundary" inkscape:connector-curvature="0" />
	<path style="fill:none;stroke:red;stroke-width:1px;stroke-linecap:butt;stroke-linejoin:miter;stroke-opacity:1" d="M 736.43,338.02 718.32,327.959 z" id="boundary" inkscape:connector-curvature="0" />
	<path style="fill:none;stroke:red;stroke-width:1px;stroke-linecap:butt;stroke-linejoin:miter;stroke-opacity:1" d="M 814.905,348.081 794.783,348.081 z" id="boundary" inkscape:connector-curvature="0" />
	<path style="fill:none;stroke:red;stroke-width:1px;stroke-linecap:butt;stroke-linejoin:miter;stroke-opacity:1" d="M 776.673,338.02 756.552,338.02 z" id="boundary" inkscape:connector-curvature="0" />
	<path style="fill:none;stroke:red;stroke-width:1px;stroke-linecap:butt;stroke-linejoin:miter;stroke-opacity:1" d="M 794.783,348.081 776.673,338.02 z" id="boundary" inkscape:connector-curvature="0" />
	<path style="fill:none;stroke:red;stroke-width:1px;stroke-linecap:butt;stroke-linejoin:miter;stroke-opacity:1" d="M 828.99,269.606 841.063,285.704 z" id="boundary" inkscape:connector-curvature="0" />
	<path style="fill:none;stroke:red;stroke-width:1px;stroke-linecap:butt;stroke-linejoin:miter;stroke-opacity:1" d="M 841.063,285.704 859.172,295.765 z" id="boundary" inkscape:connector-curvature="0" />
	<path style="fill:none;stroke:red;stroke-width:1px;stroke-linecap:butt;stroke-linejoin:miter;stroke-opacity:1" d="M 859.172,295.765 877.282,305.826 z" id="boundary" inkscape:connector-curvature="0" />
	<path style="fill:none;stroke:red;stroke-width:1px;stroke-linecap:butt;stroke-linejoin:miter;stroke-opacity:1" d="M 895.391,315.886 877.282,305.826 z" id="boundary" inkscape:connector-curvature="0" />
	<path style="fill:none;stroke:red;stroke-width:1px;stroke-linecap:butt;stroke-linejoin:miter;stroke-opacity:1" d="M 895.391,315.886 913.501,325.947 z" id="boundary" inkscape:connector-curvature="0" />
	<path style="fill:none;stroke:red;stroke-width:1px;stroke-linecap:butt;stroke-linejoin:miter;stroke-opacity:1" d="M 609.663,700.211 599.602,730.394 z" id="boundary" inkscape:connector-curvature="0" />
	<path style="fill:none;stroke:red;stroke-width:1px;stroke-linecap:butt;stroke-linejoin:miter;stroke-opacity:1" d="M 599.602,730.394 599.602,760.576 z" id="boundary" inkscape:connector-curvature="0" />
	<path style="fill:none;stroke:red;stroke-width:1px;stroke-linecap:butt;stroke-linejoin:miter;stroke-opacity:1" d="M 609.663,680.089 609.663,700.211 z" id="boundary" inkscape:connector-curvature="0" />
	<path style="fill:none;stroke:red;stroke-width:1px;stroke-linecap:butt;stroke-linejoin:miter;stroke-opacity:1" d="M 619.724,659.968 609.663,680.089 z" id="boundary" inkscape:connector-curvature="0" />
	<path style="fill:none;stroke:red;stroke-width:1px;stroke-linecap:butt;stroke-linejoin:miter;stroke-opacity:1" d="M 599.602,760.576 589.542,790.759 z" id="boundary" inkscape:connector-curvature="0" />
	<path style="fill:none;stroke:red;stroke-width:1px;stroke-linecap:butt;stroke-linejoin:miter;stroke-opacity:1" d="M 619.724,364.178 629.785,382.288 z" id="boundary" inkscape:connector-curvature="0" />
	<path style="fill:none;stroke:red;stroke-width:1px;stroke-linecap:butt;stroke-linejoin:miter;stroke-opacity:1" d="M 436.617,996 416.495,996 z" id="boundary" inkscape:connector-curvature="0" />
	<path style="fill:none;stroke:red;stroke-width:1px;stroke-linecap:butt;stroke-linejoin:miter;stroke-opacity:1" d="M 476.86,985.939 456.738,991.976 z" id="boundary" inkscape:connector-curvature="0" />
	<path style="fill:none;stroke:red;stroke-width:1px;stroke-linecap:butt;stroke-linejoin:miter;stroke-opacity:1" d="M 436.617,996 456.738,991.976 z" id="boundary" inkscape:connector-curvature="0" />
	<path style="fill:none;stroke:red;stroke-width:1px;stroke-linecap:butt;stroke-linejoin:miter;stroke-opacity:1" d="M 579.481,861.185 569.42,881.306 z" id="boundary" inkscape:connector-curvature="0" />
	<path style="fill:none;stroke:red;stroke-width:1px;stroke-linecap:butt;stroke-linejoin:miter;stroke-opacity:1" d="M 569.42,881.306 559.359,911.489 z" id="boundary" inkscape:connector-curvature="0" />
	<path style="fill:none;stroke:red;stroke-width:1px;stroke-linecap:butt;stroke-linejoin:miter;stroke-opacity:1" d="M 589.542,810.88 579.481,841.063 z" id="boundary" inkscape:connector-curvature="0" />
	<path style="fill:none;stroke:red;stroke-width:1px;stroke-linecap:butt;stroke-linejoin:miter;stroke-opacity:1" d="M 589.542,810.88 589.542,790.759 z" id="boundary" inkscape:connector-curvature="0" />
	<path style="fill:none;stroke:red;stroke-width:1px;stroke-linecap:butt;stroke-linejoin:miter;stroke-opacity:1" d="M 579.481,841.063 579.481,861.185 z" id="boundary" inkscape:connector-curvature="0" />
	<path style="fill:none;stroke:red;stroke-width:1px;stroke-linecap:butt;stroke-linejoin:miter;stroke-opacity:1" d="M 496.982,975.878 476.86,985.939 z" id="boundary" inkscape:connector-curvature="0" />
	<path style="fill:none;stroke:red;stroke-width:1px;stroke-linecap:butt;stroke-linejoin:miter;stroke-opacity:1" d="M 496.982,975.878 517.103,975.878 z" id="boundary" inkscape:connector-curvature="0" />
	<path style="fill:none;stroke:red;stroke-width:1px;stroke-linecap:butt;stroke-linejoin:miter;stroke-opacity:1" d="M 549.298,941.671 559.359,911.489 z" id="boundary" inkscape:connector-curvature="0" />
	<path style="fill:none;stroke:red;stroke-width:1px;stroke-linecap:butt;stroke-linejoin:miter;stroke-opacity:1" d="M 549.298,941.671 533.201,959.781 z" id="boundary" inkscape:connector-curvature="0" />
	<path style="fill:none;stroke:red;stroke-width:1px;stroke-linecap:butt;stroke-linejoin:miter;stroke-opacity:1" d="M 517.103,975.878 533.201,959.781 z" id="boundary" inkscape:connector-curvature="0" />
	<path style="fill:none;stroke:red;stroke-width:1px;stroke-linecap:butt;stroke-linejoin:miter;stroke-opacity:1" d="M 639.846,400.398 629.785,382.288 z" id="boundary" inkscape:connector-curvature="0" />
	<path style="fill:none;stroke:red;stroke-width:1px;stroke-linecap:butt;stroke-linejoin:miter;stroke-opacity:1" d="M 649.907,418.507 653.931,438.629 z" id="boundary" inkscape:connector-curvature="0" />
	<path style="fill:none;stroke:red;stroke-width:1px;stroke-linecap:butt;stroke-linejoin:miter;stroke-opacity:1" d="M 649.907,418.507 639.846,400.398 z" id="boundary" inkscape:connector-curvature="0" />
	<path style="fill:none;stroke:red;stroke-width:1px;stroke-linecap:butt;stroke-linejoin:miter;stroke-opacity:1" d="M 653.931,438.629 659.968,458.751 z" id="boundary" inkscape:connector-curvature="0" />
	<path style="fill:none;stroke:red;stroke-width:1px;stroke-linecap:butt;stroke-linejoin:miter;stroke-opacity:1" d="M 659.968,478.872 659.968,458.751 z" id="boundary" inkscape:connector-curvature="0" />
	<path style="fill:none;stroke:red;stroke-width:1px;stroke-linecap:butt;stroke-linejoin:miter;stroke-opacity:1" d="M 659.968,478.872 659.968,498.994 z" id="boundary" inkscape:connector-curvature="0" />
	<path style="fill:none;stroke:red;stroke-width:1px;stroke-linecap:butt;stroke-linejoin:miter;stroke-opacity:1" d="M 659.968,498.994 659.968,519.116 z" id="boundary" inkscape:connector-curvature="0" />
	<path style="fill:none;stroke:red;stroke-width:1px;stroke-linecap:butt;stroke-linejoin:miter;stroke-opacity:1" d="M 835.026,348.081 814.905,348.081 z" id="boundary" inkscape:connector-curvature="0" />
	<path style="fill:none;stroke:red;stroke-width:1px;stroke-linecap:butt;stroke-linejoin:miter;stroke-opacity:1" d="M 835.026,348.081 855.148,348.081 z" id="boundary" inkscape:connector-curvature="0" />
	<path style="fill:none;stroke:red;stroke-width:1px;stroke-linecap:butt;stroke-linejoin:miter;stroke-opacity:1" d="M 875.27,348.081 855.148,348.081 z" id="boundary" inkscape:connector-curvature="0" />
	<path style="fill:none;stroke:red;stroke-width:1px;stroke-linecap:butt;stroke-linejoin:miter;stroke-opacity:1" d="M 875.27,348.081 895.391,348.081 z" id="boundary" inkscape:connector-curvature="0" />
	<path style="fill:none;stroke:red;stroke-width:1px;stroke-linecap:butt;stroke-linejoin:miter;stroke-opacity:1" d="M 915.513,348.081 895.391,348.081 z" id="boundary" inkscape:connector-curvature="0" />
	<path style="fill:none;stroke:red;stroke-width:1px;stroke-linecap:butt;stroke-linejoin:miter;stroke-opacity:1" d="M 639.846,609.663 629.785,639.846 z" id="boundary" inkscape:connector-curvature="0" />
	<path style="fill:none;stroke:red;stroke-width:1px;stroke-linecap:butt;stroke-linejoin:miter;stroke-opacity:1" d="M 649.907,569.42 649.907,589.542 z" id="boundary" inkscape:connector-curvature="0" />
	<path style="fill:none;stroke:red;stroke-width:1px;stroke-linecap:butt;stroke-linejoin:miter;stroke-opacity:1" d="M 649.907,589.542 639.846,609.663 z" id="boundary" inkscape:connector-curvature="0" />
	<path style="fill:none;stroke:red;stroke-width:1px;stroke-linecap:butt;stroke-linejoin:miter;stroke-opacity:1" d="M 649.907,569.42 659.968,539.237 z" id="boundary" inkscape:connector-curvature="0" />
	<path style="fill:none;stroke:red;stroke-width:1px;stroke-linecap:butt;stroke-linejoin:miter;stroke-opacity:1" d="M 659.968,539.237 659.968,519.116 z" id="boundary" inkscape:connector-curvature="0" />
	<path style="fill:none;stroke:red;stroke-width:1px;stroke-linecap:butt;stroke-linejoin:miter;stroke-opacity:1" d="M 629.785,639.846 619.724,659.968 z" id="boundary" inkscape:connector-curvature="0" />
	<circle cx="4" cy="150.888" r="4" fill="#0" id="circle0"/>
	<circle cx="16.073" cy="166.986" r="4" fill="#0" id="circle1"/>
	<circle cx="24.1217" cy="144.852" r="4" fill="#0" id="circle2"/>
	<circle cx="34.1826" cy="177.047" r="4" fill="#0" id="circle3"/>
	<circle cx="44.2434" cy="138.815" r="4" fill="#0" id="circle4"/>
	<circle cx="54.3043" cy="177.047" r="4" fill="#0" id="circle5"/>
	<circle cx="64.3651" cy="134.791" r="4" fill="#0" id="circle6"/>
	<circle cx="72.4138" cy="187.108" r="4" fill="#0" id="circle7"/>
	<circle cx="82.4746" cy="124.73" r="4" fill="#0" id="circle8"/>
	<circle cx="84.4868" cy="422.531" r="4" fill="#0" id="circle9"/>
	<circle cx="84.4868" cy="442.653" r="4" fill="#0" id="circle10"/>
	<circle cx="90.5233" cy="197.168" r="4" fill="#0" id="circle11"/>
	<circle cx="94.5477" cy="382.288" r="4" fill="#0" id="circle12"/>
	<circle cx="94.5477" cy="402.41" r="4" fill="#0" id="circle13"/>
	<circle cx="96.5598" cy="458.751" r="4" fill="#0" id="circle14"/>
	<circle cx="100.584" cy="114.669" r="4" fill="#0" id="circle15"/>
	<circle cx="104.609" cy="352.105" r="4" fill="#0" id="circle16"/>
	<circle cx="110.645" cy="205.217" r="4" fill="#0" id="circle17"/>
	<circle cx="114.669" cy="311.862" r="4" fill="#0" id="circle18"/>
	<circle cx="114.669" cy="331.984" r="4" fill="#0" id="circle19"/>
	<circle cx="116.682" cy="462.775" r="4" fill="#0" id="circle20"/>
	<circle cx="120.706" cy="104.609" r="4" fill="#0" id="circle21"/>
	<circle cx="124.73" cy="291.74" r="4" fill="#0" id="circle22"/>
	<circle cx="130.767" cy="207.229" r="4" fill="#0" id="circle23"/>
	<circle cx="130.767" cy="446.677" r="4" fill="#0" id="circle24"/>
	<circle cx="134.791" cy="271.619" r="4" fill="#0" id="circle25"/>
	<circle cx="140.828" cy="94.5477" r="4" fill="#0" id="circle26"/>
	<circle cx="144.852" cy="223.327" r="4" fill="#0" id="circle27"/>
	<circle cx="144.852" cy="251.497" r="4" fill="#0" id="circle28"/>
	<circle cx="144.852" cy="724.357" r="4" fill="#0" id="circle29"/>
	<circle cx="144.852" cy="744.479" r="4" fill="#0" id="circle30"/>
	<circle cx="144.852" cy="764.6" r="4" fill="#0" id="circle31"/>
	<circle cx="144.852" cy="784.722" r="4" fill="#0" id="circle32"/>
	<circle cx="144.852" cy="804.844" r="4" fill="#0" id="circle33"/>
	<circle cx="146.864" cy="428.568" r="4" fill="#0" id="circle34"/>
	<circle cx="154.913" cy="674.053" r="4" fill="#0" id="circle35"/>
	<circle cx="154.913" cy="694.174" r="4" fill="#0" id="circle36"/>
	<circle cx="156.925" cy="820.941" r="4" fill="#0" id="circle37"/>
	<circle cx="160.949" cy="84.4868" r="4" fill="#0" id="circle38"/>
	<circle cx="162.961" cy="414.483" r="4" fill="#0" id="circle39"/>
	<circle cx="164.974" cy="633.809" r="4" fill="#0" id="circle40"/>
	<circle cx="164.974" cy="653.931" r="4" fill="#0" id="circle41"/>
	<circle cx="175.034" cy="452.714" r="4" fill="#0" id="circle42"/>
	<circle cx="175.034" cy="472.836" r="4" fill="#0" id="circle43"/>
	<circle cx="175.034" cy="492.957" r="4" fill="#0" id="circle44"/>
	<circle cx="175.034" cy="513.079" r="4" fill="#0" id="circle45"/>
	<circle cx="175.034" cy="533.201" r="4" fill="#0" id="circle46"/>
	<circle cx="175.034" cy="553.323" r="4" fill="#0" id="circle47"/>
	<circle cx="175.034" cy="573.444" r="4" fill="#0" id="circle48"/>
	<circle cx="175.034" cy="603.627" r="4" fill="#0" id="circle49"/>
	<circle cx="175.034" cy="810.88" r="4" fill="#0" id="circle50"/>
	<circle cx="177.047" cy="68.3895" r="4" fill="#0" id="circle51"/>
	<circle cx="177.047" cy="398.385" r="4" fill="#0" id="circle52"/>
	<circle cx="185.095" cy="422.531" r="4" fill="#0" id="circle53"/>
	<circle cx="187.108" cy="790.759" r="4" fill="#0" id="circle54"/>
	<circle cx="195.156" cy="388.325" r="4" fill="#0" id="circle55"/>
	<circle cx="197.168" cy="58.3286" r="4" fill="#0" id="circle56"/>
	<circle cx="203.205" cy="776.673" r="4" fill="#0" id="circle57"/>
	<circle cx="217.29" cy="48.2677" r="4" fill="#0" id="circle58"/>
	<circle cx="217.29" cy="760.576" r="4" fill="#0" id="circle59"/>
	<circle cx="235.4" cy="770.637" r="4" fill="#0" id="circle60"/>
	<circle cx="235.4" cy="790.759" r="4" fill="#0" id="circle61"/>
	<circle cx="235.4" cy="824.966" r="4" fill="#0" id="circle62"/>
	<circle cx="237.412" cy="44.2434" r="4" fill="#0" id="circle63"/>
	<circle cx="245.46" cy="843.075" r="4" fill="#0" id="circle64"/>
	<circle cx="255.521" cy="34.1826" r="4" fill="#0" id="circle65"/>
	<circle cx="255.521" cy="861.185" r="4" fill="#0" id="circle66"/>
	<circle cx="255.521" cy="895.391" r="4" fill="#0" id="circle67"/>
	<circle cx="271.619" cy="909.477" r="4" fill="#0" id="circle68"/>
	<circle cx="273.631" cy="24.1217" r="4" fill="#0" id="circle69"/>
	<circle cx="275.643" cy="929.598" r="4" fill="#0" id="circle70"/>
	<circle cx="287.716" cy="945.696" r="4" fill="#0" id="circle71"/>
	<circle cx="293.753" cy="24.1217" r="4" fill="#0" id="circle72"/>
	<circle cx="301.801" cy="961.793" r="4" fill="#0" id="circle73"/>
	<circle cx="311.862" cy="14.0609" r="4" fill="#0" id="circle74"/>
	<circle cx="319.911" cy="971.854" r="4" fill="#0" id="circle75"/>
	<circle cx="331.984" cy="4" r="4" fill="#0" id="circle76"/>
	<circle cx="338.02" cy="981.915" r="4" fill="#0" id="circle77"/>
	<circle cx="350.093" cy="14.0609" r="4" fill="#0" id="circle78"/>
	<circle cx="358.142" cy="985.939" r="4" fill="#0" id="circle79"/>
	<circle cx="368.203" cy="4" r="4" fill="#0" id="circle80"/>
	<circle cx="376.252" cy="996" r="4" fill="#0" id="circle81"/>
	<circle cx="388.325" cy="4" r="4" fill="#0" id="circle82"/>
	<circle cx="396.373" cy="991.976" r="4" fill="#0" id="circle83"/>
	<circle cx="408.446" cy="4" r="4" fill="#0" id="circle84"/>
	<circle cx="416.495" cy="996" r="4" fill="#0" id="circle85"/>
	<circle cx="428.568" cy="4" r="4" fill="#0" id="circle86"/>
	<circle cx="436.617" cy="996" r="4" fill="#0" id="circle87"/>
	<circle cx="448.69" cy="4" r="4" fill="#0" id="circle88"/>
	<circle cx="456.738" cy="991.976" r="4" fill="#0" id="circle89"/>
	<circle cx="468.811" cy="4" r="4" fill="#0" id="circle90"/>
	<circle cx="476.86" cy="985.939" r="4" fill="#0" id="circle91"/>
	<circle cx="486.921" cy="14.0609" r="4" fill="#0" id="circle92"/>
	<circle cx="496.982" cy="975.878" r="4" fill="#0" id="circle93"/>
	<circle cx="507.043" cy="14.0609" r="4" fill="#0" id="circle94"/>
	<circle cx="517.103" cy="975.878" r="4" fill="#0" id="circle95"/>
	<circle cx="527.164" cy="14.0609" r="4" fill="#0" id="circle96"/>
	<circle cx="533.201" cy="959.781" r="4" fill="#0" id="circle97"/>
	<circle cx="545.274" cy="24.1217" r="4" fill="#0" id="circle98"/>
	<circle cx="549.298" cy="941.671" r="4" fill="#0" id="circle99"/>
	<circle cx="559.359" cy="911.489" r="4" fill="#0" id="circle100"/>
	<circle cx="565.396" cy="26.1339" r="4" fill="#0" id="circle101"/>
	<circle cx="569.42" cy="881.306" r="4" fill="#0" id="circle102"/>
	<circle cx="579.481" cy="841.063" r="4" fill="#0" id="circle103"/>
	<circle cx="579.481" cy="861.185" r="4" fill="#0" id="circle104"/>
	<circle cx="583.505" cy="36.1947" r="4" fill="#0" id="circle105"/>
	<circle cx="589.542" cy="790.759" r="4" fill="#0" id="circle106"/>
	<circle cx="589.542" cy="810.88" r="4" fill="#0" id="circle107"/>
	<circle cx="599.602" cy="327.959" r="4" fill="#0" id="circle108"/>
	<circle cx="599.602" cy="730.394" r="4" fill="#0" id="circle109"/>
	<circle cx="599.602" cy="760.576" r="4" fill="#0" id="circle110"/>
	<circle cx="603.627" cy="44.2434" r="4" fill="#0" id="circle111"/>
	<circle cx="609.663" cy="346.069" r="4" fill="#0" id="circle112"/>
	<circle cx="609.663" cy="680.089" r="4" fill="#0" id="circle113"/>
	<circle cx="609.663" cy="700.211" r="4" fill="#0" id="circle114"/>
	<circle cx="619.724" cy="317.899" r="4" fill="#0" id="circle115"/>
	<circle cx="619.724" cy="364.178" r="4" fill="#0" id="circle116"/>
	<circle cx="619.724" cy="659.968" r="4" fill="#0" id="circle117"/>
	<circle cx="621.736" cy="54.3043" r="4" fill="#0" id="circle118"/>
	<circle cx="629.785" cy="382.288" r="4" fill="#0" id="circle119"/>
	<circle cx="629.785" cy="639.846" r="4" fill="#0" id="circle120"/>
	<circle cx="639.846" cy="317.899" r="4" fill="#0" id="circle121"/>
	<circle cx="639.846" cy="400.398" r="4" fill="#0" id="circle122"/>
	<circle cx="639.846" cy="609.663" r="4" fill="#0" id="circle123"/>
	<circle cx="641.858" cy="54.3043" r="4" fill="#0" id="circle124"/>
	<circle cx="649.907" cy="418.507" r="4" fill="#0" id="circle125"/>
	<circle cx="649.907" cy="569.42" r="4" fill="#0" id="circle126"/>
	<circle cx="649.907" cy="589.542" r="4" fill="#0" id="circle127"/>
	<circle cx="653.931" cy="438.629" r="4" fill="#0" id="circle128"/>
	<circle cx="657.955" cy="68.3895" r="4" fill="#0" id="circle129"/>
	<circle cx="657.955" cy="327.959" r="4" fill="#0" id="circle130"/>
	<circle cx="659.968" cy="458.751" r="4" fill="#0" id="circle131"/>
	<circle cx="659.968" cy="478.872" r="4" fill="#0" id="circle132"/>
	<circle cx="659.968" cy="498.994" r="4" fill="#0" id="circle133"/>
	<circle cx="659.968" cy="519.116" r="4" fill="#0" id="circle134"/>
	<circle cx="659.968" cy="539.237" r="4" fill="#0" id="circle135"/>
	<circle cx="670.028" cy="84.4868" r="4" fill="#0" id="circle136"/>
	<circle cx="678.077" cy="327.959" r="4" fill="#0" id="circle137"/>
	<circle cx="686.126" cy="96.5598" r="4" fill="#0" id="circle138"/>
	<circle cx="698.199" cy="327.959" r="4" fill="#0" id="circle139"/>
	<circle cx="700.211" cy="112.657" r="4" fill="#0" id="circle140"/>
	<circle cx="710.272" cy="130.767" r="4" fill="#0" id="circle141"/>
	<circle cx="710.272" cy="150.888" r="4" fill="#0" id="circle142"/>
	<circle cx="718.32" cy="171.01" r="4" fill="#0" id="circle143"/>
	<circle cx="718.32" cy="327.959" r="4" fill="#0" id="circle144"/>
	<circle cx="734.418" cy="185.095" r="4" fill="#0" id="circle145"/>
	<circle cx="736.43" cy="338.02" r="4" fill="#0" id="circle146"/>
	<circle cx="748.503" cy="201.193" r="4" fill="#0" id="circle147"/>
	<circle cx="756.552" cy="338.02" r="4" fill="#0" id="circle148"/>
	<circle cx="764.6" cy="215.278" r="4" fill="#0" id="circle149"/>
	<circle cx="776.673" cy="338.02" r="4" fill="#0" id="circle150"/>
	<circle cx="778.686" cy="231.375" r="4" fill="#0" id="circle151"/>
	<circle cx="794.783" cy="245.46" r="4" fill="#0" id="circle152"/>
	<circle cx="794.783" cy="348.081" r="4" fill="#0" id="circle153"/>
	<circle cx="812.892" cy="255.521" r="4" fill="#0" id="circle154"/>
	<circle cx="814.905" cy="348.081" r="4" fill="#0" id="circle155"/>
	<circle cx="828.99" cy="269.606" r="4" fill="#0" id="circle156"/>
	<circle cx="835.026" cy="348.081" r="4" fill="#0" id="circle157"/>
	<circle cx="841.063" cy="285.704" r="4" fill="#0" id="circle158"/>
	<circle cx="855.148" cy="348.081" r="4" fill="#0" id="circle159"/>
	<circle cx="859.172" cy="295.765" r="4" fill="#0" id="circle160"/>
	<circle cx="875.27" cy="348.081" r="4" fill="#0" id="circle161"/>
	<circle cx="877.282" cy="305.826" r="4" fill="#0" id="circle162"/>
	<circle cx="895.391" cy="315.886" r="4" fill="#0" id="circle163"/>
	<circle cx="895.391" cy="348.081" r="4" fill="#0" id="circle164"/>
	<circle cx="913.501" cy="325.947" r="4" fill="#0" id="circle165"/>
	<circle cx="915.513" cy="348.081" r="4" fill="#0" id="circle166"/>
	</g>
</svg>