<?xml version="1.0" encoding="UTF-8" standalone="no"?>
<!-- Created with CurveBenchmark -->
<svg
	xmlns:dc="http://purl.org/dc/elements/1.1/"
	xmlns:cc="http://creativecommons.org/ns#"
	xmlns:rdf="http://www.w3.org/1999/02/22-rdf-syntax-ns#"
	xmlns:svg="http://www.w3.org/2000/svg"
	xmlns="http://www.w3.org/2000/svg"
	xmlns:sodipodi="http://sodipodi.sourceforge.net/DTD/sodipodi-0.dtd"
	xmlns:inkscape="http://www.inkscape.org/namespaces/inkscape"
	width="1000"
	height="1000"
	id="svg2"
	version="1.1"
	sodipodi:docname="manifold/crust-bird17.png.txt">
<defs
	id="defs4" />
<metadata
	id="metadata7">
	<rdf:RDF>
		<cc:Work
			rdf:about="">
			<dc:format>image/svg+xml</dc:format>
			<dc:type
				rdf:resource="http://purl.org/dc/dcmitype/StillImage" />
			<dc:title></dc:title>
		</cc:Work>
	</rdf:RDF>
</metadata>
<g
	inkscape:label="Layer 1"
	inkscape:groupmode="layer"
	id="layer1">
	<path style="fill:none;stroke:red;stroke-width:1px;stroke-linecap:butt;stroke-linejoin:miter;stroke-opacity:1" d="M 55.1529,49.6722 47.8453,67.9411 z" id="boundary" inkscape:connector-curvature="0" />
	<path style="fill:none;stroke:red;stroke-width:1px;stroke-linecap:butt;stroke-linejoin:miter;stroke-opacity:1" d="M 33.2302,80.7293 47.8453,67.9411 z" id="boundary" inkscape:connector-curvature="0" />
	<path style="fill:none;stroke:red;stroke-width:1px;stroke-linecap:butt;stroke-linejoin:miter;stroke-opacity:1" d="M 69.768,35.0571 55.1529,49.6722 z" id="boundary" inkscape:connector-curvature="0" />
	<path style="fill:none;stroke:red;stroke-width:1px;stroke-linecap:butt;stroke-linejoin:miter;stroke-opacity:1" d="M 33.2302,80.7293 18.6151,95.3444 z" id="boundary" inkscape:connector-curvature="0" />
	<path style="fill:none;stroke:red;stroke-width:1px;stroke-linecap:butt;stroke-linejoin:miter;stroke-opacity:1" d="M 4,109.959 18.6151,95.3444 z" id="boundary" inkscape:connector-curvature="0" />
	<path style="fill:none;stroke:red;stroke-width:1px;stroke-linecap:butt;stroke-linejoin:miter;stroke-opacity:1" d="M 18.6151,122.748 4,109.959 z" id="boundary" inkscape:connector-curvature="0" />
	<path style="fill:none;stroke:red;stroke-width:1px;stroke-linecap:butt;stroke-linejoin:miter;stroke-opacity:1" d="M 88.0368,25.9227 69.768,35.0571 z" id="boundary" inkscape:connector-curvature="0" />
	<path style="fill:none;stroke:red;stroke-width:1px;stroke-linecap:butt;stroke-linejoin:miter;stroke-opacity:1" d="M 102.652,13.1344 88.0368,25.9227 z" id="boundary" inkscape:connector-curvature="0" />
	<path style="fill:none;stroke:red;stroke-width:1px;stroke-linecap:butt;stroke-linejoin:miter;stroke-opacity:1" d="M 120.921,13.1344 102.652,13.1344 z" id="boundary" inkscape:connector-curvature="0" />
	<path style="fill:none;stroke:red;stroke-width:1px;stroke-linecap:butt;stroke-linejoin:miter;stroke-opacity:1" d="M 120.921,13.1344 139.19,13.1344 z" id="boundary" inkscape:connector-curvature="0" />
	<path style="fill:none;stroke:red;stroke-width:1px;stroke-linecap:butt;stroke-linejoin:miter;stroke-opacity:1" d="M 36.884,124.575 18.6151,122.748 z" id="boundary" inkscape:connector-curvature="0" />
	<path style="fill:none;stroke:red;stroke-width:1px;stroke-linecap:butt;stroke-linejoin:miter;stroke-opacity:1" d="M 36.884,124.575 55.1529,124.575 z" id="boundary" inkscape:connector-curvature="0" />
	<path style="fill:none;stroke:red;stroke-width:1px;stroke-linecap:butt;stroke-linejoin:miter;stroke-opacity:1" d="M 55.1529,124.575 73.4217,124.575 z" id="boundary" inkscape:connector-curvature="0" />
	<path style="fill:none;stroke:red;stroke-width:1px;stroke-linecap:butt;stroke-linejoin:miter;stroke-opacity:1" d="M 91.6906,131.882 108.133,141.017 z" id="boundary" inkscape:connector-curvature="0" />
	<path style="fill:none;stroke:red;stroke-width:1px;stroke-linecap:butt;stroke-linejoin:miter;stroke-opacity:1" d="M 108.133,141.017 113.613,159.285 z" id="boundary" inkscape:connector-curvature="0" />
	<path style="fill:none;stroke:red;stroke-width:1px;stroke-linecap:butt;stroke-linejoin:miter;stroke-opacity:1" d="M 73.4217,124.575 91.6906,131.882 z" id="boundary" inkscape:connector-curvature="0" />
	<path style="fill:none;stroke:red;stroke-width:1px;stroke-linecap:butt;stroke-linejoin:miter;stroke-opacity:1" d="M 113.613,159.285 113.613,177.554 z" id="boundary" inkscape:connector-curvature="0" />
	<path style="fill:none;stroke:red;stroke-width:1px;stroke-linecap:butt;stroke-linejoin:miter;stroke-opacity:1" d="M 95.3444,292.648 86.2099,320.052 z" id="boundary" inkscape:connector-curvature="0" />
	<path style="fill:none;stroke:red;stroke-width:1px;stroke-linecap:butt;stroke-linejoin:miter;stroke-opacity:1" d="M 95.3444,292.648 95.3444,274.379 z" id="boundary" inkscape:connector-curvature="0" />
	<path style="fill:none;stroke:red;stroke-width:1px;stroke-linecap:butt;stroke-linejoin:miter;stroke-opacity:1" d="M 86.2099,320.052 86.2099,338.32 z" id="boundary" inkscape:connector-curvature="0" />
	<path style="fill:none;stroke:red;stroke-width:1px;stroke-linecap:butt;stroke-linejoin:miter;stroke-opacity:1" d="M 113.613,195.823 104.479,228.707 z" id="boundary" inkscape:connector-curvature="0" />
	<path style="fill:none;stroke:red;stroke-width:1px;stroke-linecap:butt;stroke-linejoin:miter;stroke-opacity:1" d="M 113.613,195.823 113.613,177.554 z" id="boundary" inkscape:connector-curvature="0" />
	<path style="fill:none;stroke:red;stroke-width:1px;stroke-linecap:butt;stroke-linejoin:miter;stroke-opacity:1" d="M 104.479,246.976 95.3444,274.379 z" id="boundary" inkscape:connector-curvature="0" />
	<path style="fill:none;stroke:red;stroke-width:1px;stroke-linecap:butt;stroke-linejoin:miter;stroke-opacity:1" d="M 104.479,246.976 104.479,228.707 z" id="boundary" inkscape:connector-curvature="0" />
	<path style="fill:none;stroke:red;stroke-width:1px;stroke-linecap:butt;stroke-linejoin:miter;stroke-opacity:1" d="M 86.2099,338.32 86.2099,356.589 z" id="boundary" inkscape:connector-curvature="0" />
	<path style="fill:none;stroke:red;stroke-width:1px;stroke-linecap:butt;stroke-linejoin:miter;stroke-opacity:1" d="M 139.19,13.1344 155.632,4 z" id="boundary" inkscape:connector-curvature="0" />
	<path style="fill:none;stroke:red;stroke-width:1px;stroke-linecap:butt;stroke-linejoin:miter;stroke-opacity:1" d="M 155.632,4 173.901,4 z" id="boundary" inkscape:connector-curvature="0" />
	<path style="fill:none;stroke:red;stroke-width:1px;stroke-linecap:butt;stroke-linejoin:miter;stroke-opacity:1" d="M 190.343,13.1344 173.901,4 z" id="boundary" inkscape:connector-curvature="0" />
	<path style="fill:none;stroke:red;stroke-width:1px;stroke-linecap:butt;stroke-linejoin:miter;stroke-opacity:1" d="M 190.343,13.1344 206.785,22.2689 z" id="boundary" inkscape:connector-curvature="0" />
	<path style="fill:none;stroke:red;stroke-width:1px;stroke-linecap:butt;stroke-linejoin:miter;stroke-opacity:1" d="M 206.785,22.2689 223.227,31.4033 z" id="boundary" inkscape:connector-curvature="0" />
	<path style="fill:none;stroke:red;stroke-width:1px;stroke-linecap:butt;stroke-linejoin:miter;stroke-opacity:1" d="M 223.227,31.4033 237.842,42.3646 z" id="boundary" inkscape:connector-curvature="0" />
	<path style="fill:none;stroke:red;stroke-width:1px;stroke-linecap:butt;stroke-linejoin:miter;stroke-opacity:1" d="M 246.976,58.8066 237.842,42.3646 z" id="boundary" inkscape:connector-curvature="0" />
	<path style="fill:none;stroke:red;stroke-width:1px;stroke-linecap:butt;stroke-linejoin:miter;stroke-opacity:1" d="M 246.976,58.8066 252.457,77.0755 z" id="boundary" inkscape:connector-curvature="0" />
	<path style="fill:none;stroke:red;stroke-width:1px;stroke-linecap:butt;stroke-linejoin:miter;stroke-opacity:1" d="M 261.591,93.5175 252.457,77.0755 z" id="boundary" inkscape:connector-curvature="0" />
	<path style="fill:none;stroke:red;stroke-width:1px;stroke-linecap:butt;stroke-linejoin:miter;stroke-opacity:1" d="M 261.591,93.5175 270.726,109.959 z" id="boundary" inkscape:connector-curvature="0" />
	<path style="fill:none;stroke:red;stroke-width:1px;stroke-linecap:butt;stroke-linejoin:miter;stroke-opacity:1" d="M 270.726,109.959 270.726,128.228 z" id="boundary" inkscape:connector-curvature="0" />
	<path style="fill:none;stroke:red;stroke-width:1px;stroke-linecap:butt;stroke-linejoin:miter;stroke-opacity:1" d="M 270.726,146.497 270.726,128.228 z" id="boundary" inkscape:connector-curvature="0" />
	<path style="fill:none;stroke:red;stroke-width:1px;stroke-linecap:butt;stroke-linejoin:miter;stroke-opacity:1" d="M 270.726,164.766 270.726,146.497 z" id="boundary" inkscape:connector-curvature="0" />
	<path style="fill:none;stroke:red;stroke-width:1px;stroke-linecap:butt;stroke-linejoin:miter;stroke-opacity:1" d="M 270.726,164.766 279.86,181.208 z" id="boundary" inkscape:connector-curvature="0" />
	<path style="fill:none;stroke:red;stroke-width:1px;stroke-linecap:butt;stroke-linejoin:miter;stroke-opacity:1" d="M 279.86,181.208 279.86,199.477 z" id="boundary" inkscape:connector-curvature="0" />
	<path style="fill:none;stroke:red;stroke-width:1px;stroke-linecap:butt;stroke-linejoin:miter;stroke-opacity:1" d="M 288.994,215.919 279.86,199.477 z" id="boundary" inkscape:connector-curvature="0" />
	<path style="fill:none;stroke:red;stroke-width:1px;stroke-linecap:butt;stroke-linejoin:miter;stroke-opacity:1" d="M 298.129,232.361 288.994,215.919 z" id="boundary" inkscape:connector-curvature="0" />
	<path style="fill:none;stroke:red;stroke-width:1px;stroke-linecap:butt;stroke-linejoin:miter;stroke-opacity:1" d="M 312.744,243.322 298.129,232.361 z" id="boundary" inkscape:connector-curvature="0" />
	<path style="fill:none;stroke:red;stroke-width:1px;stroke-linecap:butt;stroke-linejoin:miter;stroke-opacity:1" d="M 312.744,243.322 320.052,261.591 z" id="boundary" inkscape:connector-curvature="0" />
	<path style="fill:none;stroke:red;stroke-width:1px;stroke-linecap:butt;stroke-linejoin:miter;stroke-opacity:1" d="M 334.667,274.379 320.052,261.591 z" id="boundary" inkscape:connector-curvature="0" />
	<path style="fill:none;stroke:red;stroke-width:1px;stroke-linecap:butt;stroke-linejoin:miter;stroke-opacity:1" d="M 365.724,296.302 351.109,283.514 z" id="boundary" inkscape:connector-curvature="0" />
	<path style="fill:none;stroke:red;stroke-width:1px;stroke-linecap:butt;stroke-linejoin:miter;stroke-opacity:1" d="M 351.109,283.514 334.667,274.379 z" id="boundary" inkscape:connector-curvature="0" />
	<path style="fill:none;stroke:red;stroke-width:1px;stroke-linecap:butt;stroke-linejoin:miter;stroke-opacity:1" d="M 378.512,310.917 365.724,296.302 z" id="boundary" inkscape:connector-curvature="0" />
	<path style="fill:none;stroke:red;stroke-width:1px;stroke-linecap:butt;stroke-linejoin:miter;stroke-opacity:1" d="M 86.2099,356.589 86.2099,374.858 z" id="boundary" inkscape:connector-curvature="0" />
	<path style="fill:none;stroke:red;stroke-width:1px;stroke-linecap:butt;stroke-linejoin:miter;stroke-opacity:1" d="M 86.2099,411.396 86.2099,393.127 z" id="boundary" inkscape:connector-curvature="0" />
	<path style="fill:none;stroke:red;stroke-width:1px;stroke-linecap:butt;stroke-linejoin:miter;stroke-opacity:1" d="M 86.2099,393.127 86.2099,374.858 z" id="boundary" inkscape:connector-curvature="0" />
	<path style="fill:none;stroke:red;stroke-width:1px;stroke-linecap:butt;stroke-linejoin:miter;stroke-opacity:1" d="M 86.2099,411.396 86.2099,429.665 z" id="boundary" inkscape:connector-curvature="0" />
	<path style="fill:none;stroke:red;stroke-width:1px;stroke-linecap:butt;stroke-linejoin:miter;stroke-opacity:1" d="M 95.3444,446.107 86.2099,429.665 z" id="boundary" inkscape:connector-curvature="0" />
	<path style="fill:none;stroke:red;stroke-width:1px;stroke-linecap:butt;stroke-linejoin:miter;stroke-opacity:1" d="M 95.3444,446.107 95.3444,475.337 z" id="boundary" inkscape:connector-curvature="0" />
	<path style="fill:none;stroke:red;stroke-width:1px;stroke-linecap:butt;stroke-linejoin:miter;stroke-opacity:1" d="M 95.3444,475.337 109.959,488.125 z" id="boundary" inkscape:connector-curvature="0" />
	<path style="fill:none;stroke:red;stroke-width:1px;stroke-linecap:butt;stroke-linejoin:miter;stroke-opacity:1" d="M 109.959,488.125 117.267,506.394 z" id="boundary" inkscape:connector-curvature="0" />
	<path style="fill:none;stroke:red;stroke-width:1px;stroke-linecap:butt;stroke-linejoin:miter;stroke-opacity:1" d="M 131.882,517.355 117.267,506.394 z" id="boundary" inkscape:connector-curvature="0" />
	<path style="fill:none;stroke:red;stroke-width:1px;stroke-linecap:butt;stroke-linejoin:miter;stroke-opacity:1" d="M 131.882,517.355 137.363,535.624 z" id="boundary" inkscape:connector-curvature="0" />
	<path style="fill:none;stroke:red;stroke-width:1px;stroke-linecap:butt;stroke-linejoin:miter;stroke-opacity:1" d="M 151.978,548.413 137.363,535.624 z" id="boundary" inkscape:connector-curvature="0" />
	<path style="fill:none;stroke:red;stroke-width:1px;stroke-linecap:butt;stroke-linejoin:miter;stroke-opacity:1" d="M 151.978,548.413 164.766,563.028 z" id="boundary" inkscape:connector-curvature="0" />
	<path style="fill:none;stroke:red;stroke-width:1px;stroke-linecap:butt;stroke-linejoin:miter;stroke-opacity:1" d="M 164.766,563.028 179.381,575.816 z" id="boundary" inkscape:connector-curvature="0" />
	<path style="fill:none;stroke:red;stroke-width:1px;stroke-linecap:butt;stroke-linejoin:miter;stroke-opacity:1" d="M 192.169,590.431 179.381,575.816 z" id="boundary" inkscape:connector-curvature="0" />
	<path style="fill:none;stroke:red;stroke-width:1px;stroke-linecap:butt;stroke-linejoin:miter;stroke-opacity:1" d="M 223.227,612.354 206.785,603.219 z" id="boundary" inkscape:connector-curvature="0" />
	<path style="fill:none;stroke:red;stroke-width:1px;stroke-linecap:butt;stroke-linejoin:miter;stroke-opacity:1" d="M 206.785,603.219 192.169,590.431 z" id="boundary" inkscape:connector-curvature="0" />
	<path style="fill:none;stroke:red;stroke-width:1px;stroke-linecap:butt;stroke-linejoin:miter;stroke-opacity:1" d="M 237.842,625.142 223.227,612.354 z" id="boundary" inkscape:connector-curvature="0" />
	<path style="fill:none;stroke:red;stroke-width:1px;stroke-linecap:butt;stroke-linejoin:miter;stroke-opacity:1" d="M 237.842,625.142 250.63,639.757 z" id="boundary" inkscape:connector-curvature="0" />
	<path style="fill:none;stroke:red;stroke-width:1px;stroke-linecap:butt;stroke-linejoin:miter;stroke-opacity:1" d="M 250.63,639.757 268.899,645.238 z" id="boundary" inkscape:connector-curvature="0" />
	<path style="fill:none;stroke:red;stroke-width:1px;stroke-linecap:butt;stroke-linejoin:miter;stroke-opacity:1" d="M 268.899,645.238 285.341,654.372 z" id="boundary" inkscape:connector-curvature="0" />
	<path style="fill:none;stroke:red;stroke-width:1px;stroke-linecap:butt;stroke-linejoin:miter;stroke-opacity:1" d="M 301.783,663.506 285.341,654.372 z" id="boundary" inkscape:connector-curvature="0" />
	<path style="fill:none;stroke:red;stroke-width:1px;stroke-linecap:butt;stroke-linejoin:miter;stroke-opacity:1" d="M 301.783,663.506 318.225,672.641 z" id="boundary" inkscape:connector-curvature="0" />
	<path style="fill:none;stroke:red;stroke-width:1px;stroke-linecap:butt;stroke-linejoin:miter;stroke-opacity:1" d="M 318.225,672.641 336.494,678.122 z" id="boundary" inkscape:connector-curvature="0" />
	<path style="fill:none;stroke:red;stroke-width:1px;stroke-linecap:butt;stroke-linejoin:miter;stroke-opacity:1" d="M 336.494,678.122 354.762,681.775 z" id="boundary" inkscape:connector-curvature="0" />
	<path style="fill:none;stroke:red;stroke-width:1px;stroke-linecap:butt;stroke-linejoin:miter;stroke-opacity:1" d="M 363.897,698.217 354.762,681.775 z" id="boundary" inkscape:connector-curvature="0" />
	<path style="fill:none;stroke:red;stroke-width:1px;stroke-linecap:butt;stroke-linejoin:miter;stroke-opacity:1" d="M 363.897,698.217 362.07,720.14 z" id="boundary" inkscape:connector-curvature="0" />
	<path style="fill:none;stroke:red;stroke-width:1px;stroke-linecap:butt;stroke-linejoin:miter;stroke-opacity:1" d="M 278.033,758.505 292.648,743.89 z" id="boundary" inkscape:connector-curvature="0" />
	<path style="fill:none;stroke:red;stroke-width:1px;stroke-linecap:butt;stroke-linejoin:miter;stroke-opacity:1" d="M 292.648,743.89 310.917,743.89 z" id="boundary" inkscape:connector-curvature="0" />
	<path style="fill:none;stroke:red;stroke-width:1px;stroke-linecap:butt;stroke-linejoin:miter;stroke-opacity:1" d="M 310.917,743.89 329.186,734.755 z" id="boundary" inkscape:connector-curvature="0" />
	<path style="fill:none;stroke:red;stroke-width:1px;stroke-linecap:butt;stroke-linejoin:miter;stroke-opacity:1" d="M 296.302,763.985 278.033,758.505 z" id="boundary" inkscape:connector-curvature="0" />
	<path style="fill:none;stroke:red;stroke-width:1px;stroke-linecap:butt;stroke-linejoin:miter;stroke-opacity:1" d="M 314.571,763.985 296.302,763.985 z" id="boundary" inkscape:connector-curvature="0" />
	<path style="fill:none;stroke:red;stroke-width:1px;stroke-linecap:butt;stroke-linejoin:miter;stroke-opacity:1" d="M 314.571,763.985 332.84,763.985 z" id="boundary" inkscape:connector-curvature="0" />
	<path style="fill:none;stroke:red;stroke-width:1px;stroke-linecap:butt;stroke-linejoin:miter;stroke-opacity:1" d="M 362.07,720.14 347.455,734.755 z" id="boundary" inkscape:connector-curvature="0" />
	<path style="fill:none;stroke:red;stroke-width:1px;stroke-linecap:butt;stroke-linejoin:miter;stroke-opacity:1" d="M 329.186,734.755 347.455,734.755 z" id="boundary" inkscape:connector-curvature="0" />
	<path style="fill:none;stroke:red;stroke-width:1px;stroke-linecap:butt;stroke-linejoin:miter;stroke-opacity:1" d="M 362.07,720.14 389.473,727.448 z" id="boundary" inkscape:connector-curvature="0" />
	<path style="fill:none;stroke:red;stroke-width:1px;stroke-linecap:butt;stroke-linejoin:miter;stroke-opacity:1" d="M 351.109,763.985 332.84,763.985 z" id="boundary" inkscape:connector-curvature="0" />
	<path style="fill:none;stroke:red;stroke-width:1px;stroke-linecap:butt;stroke-linejoin:miter;stroke-opacity:1" d="M 351.109,763.985 367.551,773.12 z" id="boundary" inkscape:connector-curvature="0" />
	<path style="fill:none;stroke:red;stroke-width:1px;stroke-linecap:butt;stroke-linejoin:miter;stroke-opacity:1" d="M 367.551,773.12 385.82,773.12 z" id="boundary" inkscape:connector-curvature="0" />
	<path style="fill:none;stroke:red;stroke-width:1px;stroke-linecap:butt;stroke-linejoin:miter;stroke-opacity:1" d="M 378.512,310.917 396.781,314.571 z" id="boundary" inkscape:connector-curvature="0" />
	<path style="fill:none;stroke:red;stroke-width:1px;stroke-linecap:butt;stroke-linejoin:miter;stroke-opacity:1" d="M 413.223,323.705 396.781,314.571 z" id="boundary" inkscape:connector-curvature="0" />
	<path style="fill:none;stroke:red;stroke-width:1px;stroke-linecap:butt;stroke-linejoin:miter;stroke-opacity:1" d="M 413.223,323.705 429.665,332.84 z" id="boundary" inkscape:connector-curvature="0" />
	<path style="fill:none;stroke:red;stroke-width:1px;stroke-linecap:butt;stroke-linejoin:miter;stroke-opacity:1" d="M 429.665,332.84 447.934,332.84 z" id="boundary" inkscape:connector-curvature="0" />
	<path style="fill:none;stroke:red;stroke-width:1px;stroke-linecap:butt;stroke-linejoin:miter;stroke-opacity:1" d="M 460.722,347.455 447.934,332.84 z" id="boundary" inkscape:connector-curvature="0" />
	<path style="fill:none;stroke:red;stroke-width:1px;stroke-linecap:butt;stroke-linejoin:miter;stroke-opacity:1" d="M 478.991,351.109 460.722,347.455 z" id="boundary" inkscape:connector-curvature="0" />
	<path style="fill:none;stroke:red;stroke-width:1px;stroke-linecap:butt;stroke-linejoin:miter;stroke-opacity:1" d="M 511.875,369.378 495.433,360.243 z" id="boundary" inkscape:connector-curvature="0" />
	<path style="fill:none;stroke:red;stroke-width:1px;stroke-linecap:butt;stroke-linejoin:miter;stroke-opacity:1" d="M 495.433,360.243 478.991,351.109 z" id="boundary" inkscape:connector-curvature="0" />
	<path style="fill:none;stroke:red;stroke-width:1px;stroke-linecap:butt;stroke-linejoin:miter;stroke-opacity:1" d="M 511.875,369.378 530.144,369.378 z" id="boundary" inkscape:connector-curvature="0" />
	<path style="fill:none;stroke:red;stroke-width:1px;stroke-linecap:butt;stroke-linejoin:miter;stroke-opacity:1" d="M 546.586,378.512 530.144,369.378 z" id="boundary" inkscape:connector-curvature="0" />
	<path style="fill:none;stroke:red;stroke-width:1px;stroke-linecap:butt;stroke-linejoin:miter;stroke-opacity:1" d="M 563.028,387.646 546.586,378.512 z" id="boundary" inkscape:connector-curvature="0" />
	<path style="fill:none;stroke:red;stroke-width:1px;stroke-linecap:butt;stroke-linejoin:miter;stroke-opacity:1" d="M 579.47,396.781 563.028,387.646 z" id="boundary" inkscape:connector-curvature="0" />
	<path style="fill:none;stroke:red;stroke-width:1px;stroke-linecap:butt;stroke-linejoin:miter;stroke-opacity:1" d="M 579.47,396.781 595.912,405.915 z" id="boundary" inkscape:connector-curvature="0" />
	<path style="fill:none;stroke:red;stroke-width:1px;stroke-linecap:butt;stroke-linejoin:miter;stroke-opacity:1" d="M 595.912,405.915 614.18,407.742 z" id="boundary" inkscape:connector-curvature="0" />
	<path style="fill:none;stroke:red;stroke-width:1px;stroke-linecap:butt;stroke-linejoin:miter;stroke-opacity:1" d="M 614.18,407.742 630.622,416.877 z" id="boundary" inkscape:connector-curvature="0" />
	<path style="fill:none;stroke:red;stroke-width:1px;stroke-linecap:butt;stroke-linejoin:miter;stroke-opacity:1" d="M 648.891,424.184 665.333,433.319 z" id="boundary" inkscape:connector-curvature="0" />
	<path style="fill:none;stroke:red;stroke-width:1px;stroke-linecap:butt;stroke-linejoin:miter;stroke-opacity:1" d="M 648.891,424.184 630.622,416.877 z" id="boundary" inkscape:connector-curvature="0" />
	<path style="fill:none;stroke:red;stroke-width:1px;stroke-linecap:butt;stroke-linejoin:miter;stroke-opacity:1" d="M 700.044,442.453 681.775,442.453 z" id="boundary" inkscape:connector-curvature="0" />
	<path style="fill:none;stroke:red;stroke-width:1px;stroke-linecap:butt;stroke-linejoin:miter;stroke-opacity:1" d="M 681.775,442.453 665.333,433.319 z" id="boundary" inkscape:connector-curvature="0" />
	<path style="fill:none;stroke:red;stroke-width:1px;stroke-linecap:butt;stroke-linejoin:miter;stroke-opacity:1" d="M 753.024,451.587 734.755,451.587 z" id="boundary" inkscape:connector-curvature="0" />
	<path style="fill:none;stroke:red;stroke-width:1px;stroke-linecap:butt;stroke-linejoin:miter;stroke-opacity:1" d="M 716.486,451.587 734.755,451.587 z" id="boundary" inkscape:connector-curvature="0" />
	<path style="fill:none;stroke:red;stroke-width:1px;stroke-linecap:butt;stroke-linejoin:miter;stroke-opacity:1" d="M 716.486,451.587 700.044,442.453 z" id="boundary" inkscape:connector-curvature="0" />
	<path style="fill:none;stroke:red;stroke-width:1px;stroke-linecap:butt;stroke-linejoin:miter;stroke-opacity:1" d="M 771.293,451.587 753.024,451.587 z" id="boundary" inkscape:connector-curvature="0" />
	<path style="fill:none;stroke:red;stroke-width:1px;stroke-linecap:butt;stroke-linejoin:miter;stroke-opacity:1" d="M 789.562,455.241 771.293,451.587 z" id="boundary" inkscape:connector-curvature="0" />
	<path style="fill:none;stroke:red;stroke-width:1px;stroke-linecap:butt;stroke-linejoin:miter;stroke-opacity:1" d="M 807.831,460.722 826.099,457.068 z" id="boundary" inkscape:connector-curvature="0" />
	<path style="fill:none;stroke:red;stroke-width:1px;stroke-linecap:butt;stroke-linejoin:miter;stroke-opacity:1" d="M 807.831,460.722 789.562,455.241 z" id="boundary" inkscape:connector-curvature="0" />
	<path style="fill:none;stroke:red;stroke-width:1px;stroke-linecap:butt;stroke-linejoin:miter;stroke-opacity:1" d="M 844.368,460.722 862.637,460.722 z" id="boundary" inkscape:connector-curvature="0" />
	<path style="fill:none;stroke:red;stroke-width:1px;stroke-linecap:butt;stroke-linejoin:miter;stroke-opacity:1" d="M 844.368,460.722 826.099,457.068 z" id="boundary" inkscape:connector-curvature="0" />
	<path style="fill:none;stroke:red;stroke-width:1px;stroke-linecap:butt;stroke-linejoin:miter;stroke-opacity:1" d="M 880.906,460.722 862.637,460.722 z" id="boundary" inkscape:connector-curvature="0" />
	<path style="fill:none;stroke:red;stroke-width:1px;stroke-linecap:butt;stroke-linejoin:miter;stroke-opacity:1" d="M 899.175,460.722 917.444,460.722 z" id="boundary" inkscape:connector-curvature="0" />
	<path style="fill:none;stroke:red;stroke-width:1px;stroke-linecap:butt;stroke-linejoin:miter;stroke-opacity:1" d="M 932.059,471.683 941.193,488.125 z" id="boundary" inkscape:connector-curvature="0" />
	<path style="fill:none;stroke:red;stroke-width:1px;stroke-linecap:butt;stroke-linejoin:miter;stroke-opacity:1" d="M 932.059,471.683 917.444,460.722 z" id="boundary" inkscape:connector-curvature="0" />
	<path style="fill:none;stroke:red;stroke-width:1px;stroke-linecap:butt;stroke-linejoin:miter;stroke-opacity:1" d="M 899.175,460.722 880.906,460.722 z" id="boundary" inkscape:connector-curvature="0" />
	<path style="fill:none;stroke:red;stroke-width:1px;stroke-linecap:butt;stroke-linejoin:miter;stroke-opacity:1" d="M 953.982,502.74 941.193,488.125 z" id="boundary" inkscape:connector-curvature="0" />
	<path style="fill:none;stroke:red;stroke-width:1px;stroke-linecap:butt;stroke-linejoin:miter;stroke-opacity:1" d="M 953.982,502.74 964.943,517.355 z" id="boundary" inkscape:connector-curvature="0" />
	<path style="fill:none;stroke:red;stroke-width:1px;stroke-linecap:butt;stroke-linejoin:miter;stroke-opacity:1" d="M 961.289,537.451 946.674,526.49 z" id="boundary" inkscape:connector-curvature="0" />
	<path style="fill:none;stroke:red;stroke-width:1px;stroke-linecap:butt;stroke-linejoin:miter;stroke-opacity:1" d="M 426.011,681.775 413.223,696.39 z" id="boundary" inkscape:connector-curvature="0" />
	<path style="fill:none;stroke:red;stroke-width:1px;stroke-linecap:butt;stroke-linejoin:miter;stroke-opacity:1" d="M 478.991,690.91 460.722,690.91 z" id="boundary" inkscape:connector-curvature="0" />
	<path style="fill:none;stroke:red;stroke-width:1px;stroke-linecap:butt;stroke-linejoin:miter;stroke-opacity:1" d="M 444.28,681.775 426.011,681.775 z" id="boundary" inkscape:connector-curvature="0" />
	<path style="fill:none;stroke:red;stroke-width:1px;stroke-linecap:butt;stroke-linejoin:miter;stroke-opacity:1" d="M 460.722,690.91 444.28,681.775 z" id="boundary" inkscape:connector-curvature="0" />
	<path style="fill:none;stroke:red;stroke-width:1px;stroke-linecap:butt;stroke-linejoin:miter;stroke-opacity:1" d="M 513.702,681.775 497.26,690.91 z" id="boundary" inkscape:connector-curvature="0" />
	<path style="fill:none;stroke:red;stroke-width:1px;stroke-linecap:butt;stroke-linejoin:miter;stroke-opacity:1" d="M 497.26,690.91 478.991,690.91 z" id="boundary" inkscape:connector-curvature="0" />
	<path style="fill:none;stroke:red;stroke-width:1px;stroke-linecap:butt;stroke-linejoin:miter;stroke-opacity:1" d="M 531.971,678.122 513.702,681.775 z" id="boundary" inkscape:connector-curvature="0" />
	<path style="fill:none;stroke:red;stroke-width:1px;stroke-linecap:butt;stroke-linejoin:miter;stroke-opacity:1" d="M 636.103,617.834 617.834,626.969 z" id="boundary" inkscape:connector-curvature="0" />
	<path style="fill:none;stroke:red;stroke-width:1px;stroke-linecap:butt;stroke-linejoin:miter;stroke-opacity:1" d="M 617.834,626.969 599.565,636.103 z" id="boundary" inkscape:connector-curvature="0" />
	<path style="fill:none;stroke:red;stroke-width:1px;stroke-linecap:butt;stroke-linejoin:miter;stroke-opacity:1" d="M 636.103,617.834 652.545,608.7 z" id="boundary" inkscape:connector-curvature="0" />
	<path style="fill:none;stroke:red;stroke-width:1px;stroke-linecap:butt;stroke-linejoin:miter;stroke-opacity:1" d="M 705.525,599.565 689.083,608.7 z" id="boundary" inkscape:connector-curvature="0" />
	<path style="fill:none;stroke:red;stroke-width:1px;stroke-linecap:butt;stroke-linejoin:miter;stroke-opacity:1" d="M 723.794,599.565 705.525,599.565 z" id="boundary" inkscape:connector-curvature="0" />
	<path style="fill:none;stroke:red;stroke-width:1px;stroke-linecap:butt;stroke-linejoin:miter;stroke-opacity:1" d="M 652.545,608.7 670.814,603.219 z" id="boundary" inkscape:connector-curvature="0" />
	<path style="fill:none;stroke:red;stroke-width:1px;stroke-linecap:butt;stroke-linejoin:miter;stroke-opacity:1" d="M 689.083,608.7 670.814,603.219 z" id="boundary" inkscape:connector-curvature="0" />
	<path style="fill:none;stroke:red;stroke-width:1px;stroke-linecap:butt;stroke-linejoin:miter;stroke-opacity:1" d="M 550.239,668.987 563.028,654.372 z" id="boundary" inkscape:connector-curvature="0" />
	<path style="fill:none;stroke:red;stroke-width:1px;stroke-linecap:butt;stroke-linejoin:miter;stroke-opacity:1" d="M 581.297,645.238 563.028,654.372 z" id="boundary" inkscape:connector-curvature="0" />
	<path style="fill:none;stroke:red;stroke-width:1px;stroke-linecap:butt;stroke-linejoin:miter;stroke-opacity:1" d="M 531.971,678.122 550.239,668.987 z" id="boundary" inkscape:connector-curvature="0" />
	<path style="fill:none;stroke:red;stroke-width:1px;stroke-linecap:butt;stroke-linejoin:miter;stroke-opacity:1" d="M 581.297,645.238 599.565,636.103 z" id="boundary" inkscape:connector-curvature="0" />
	<path style="fill:none;stroke:red;stroke-width:1px;stroke-linecap:butt;stroke-linejoin:miter;stroke-opacity:1" d="M 389.473,727.448 398.608,709.179 z" id="boundary" inkscape:connector-curvature="0" />
	<path style="fill:none;stroke:red;stroke-width:1px;stroke-linecap:butt;stroke-linejoin:miter;stroke-opacity:1" d="M 398.608,709.179 413.223,696.39 z" id="boundary" inkscape:connector-curvature="0" />
	<path style="fill:none;stroke:red;stroke-width:1px;stroke-linecap:butt;stroke-linejoin:miter;stroke-opacity:1" d="M 398.608,743.89 389.473,727.448 z" id="boundary" inkscape:connector-curvature="0" />
	<path style="fill:none;stroke:red;stroke-width:1px;stroke-linecap:butt;stroke-linejoin:miter;stroke-opacity:1" d="M 402.262,782.254 385.82,773.12 z" id="boundary" inkscape:connector-curvature="0" />
	<path style="fill:none;stroke:red;stroke-width:1px;stroke-linecap:butt;stroke-linejoin:miter;stroke-opacity:1" d="M 398.608,743.89 407.742,760.331 z" id="boundary" inkscape:connector-curvature="0" />
	<path style="fill:none;stroke:red;stroke-width:1px;stroke-linecap:butt;stroke-linejoin:miter;stroke-opacity:1" d="M 402.262,782.254 407.742,760.331 z" id="boundary" inkscape:connector-curvature="0" />
	<path style="fill:none;stroke:red;stroke-width:1px;stroke-linecap:butt;stroke-linejoin:miter;stroke-opacity:1" d="M 961.289,537.451 979.558,544.759 z" id="boundary" inkscape:connector-curvature="0" />
	<path style="fill:none;stroke:red;stroke-width:1px;stroke-linecap:butt;stroke-linejoin:miter;stroke-opacity:1" d="M 992.346,559.374 979.558,544.759 z" id="boundary" inkscape:connector-curvature="0" />
	<path style="fill:none;stroke:red;stroke-width:1px;stroke-linecap:butt;stroke-linejoin:miter;stroke-opacity:1" d="M 992.346,559.374 996,579.47 z" id="boundary" inkscape:connector-curvature="0" />
	<path style="fill:none;stroke:red;stroke-width:1px;stroke-linecap:butt;stroke-linejoin:miter;stroke-opacity:1" d="M 996,579.47 986.866,597.738 z" id="boundary" inkscape:connector-curvature="0" />
	<path style="fill:none;stroke:red;stroke-width:1px;stroke-linecap:butt;stroke-linejoin:miter;stroke-opacity:1" d="M 758.505,616.007 740.236,608.7 z" id="boundary" inkscape:connector-curvature="0" />
	<path style="fill:none;stroke:red;stroke-width:1px;stroke-linecap:butt;stroke-linejoin:miter;stroke-opacity:1" d="M 740.236,608.7 723.794,599.565 z" id="boundary" inkscape:connector-curvature="0" />
	<path style="fill:none;stroke:red;stroke-width:1px;stroke-linecap:butt;stroke-linejoin:miter;stroke-opacity:1" d="M 758.505,616.007 776.773,617.834 z" id="boundary" inkscape:connector-curvature="0" />
	<path style="fill:none;stroke:red;stroke-width:1px;stroke-linecap:butt;stroke-linejoin:miter;stroke-opacity:1" d="M 811.484,632.449 793.215,626.969 z" id="boundary" inkscape:connector-curvature="0" />
	<path style="fill:none;stroke:red;stroke-width:1px;stroke-linecap:butt;stroke-linejoin:miter;stroke-opacity:1" d="M 811.484,632.449 829.753,636.103 z" id="boundary" inkscape:connector-curvature="0" />
	<path style="fill:none;stroke:red;stroke-width:1px;stroke-linecap:butt;stroke-linejoin:miter;stroke-opacity:1" d="M 793.215,626.969 776.773,617.834 z" id="boundary" inkscape:connector-curvature="0" />
	<path style="fill:none;stroke:red;stroke-width:1px;stroke-linecap:butt;stroke-linejoin:miter;stroke-opacity:1" d="M 829.753,636.103 848.022,641.584 z" id="boundary" inkscape:connector-curvature="0" />
	<path style="fill:none;stroke:red;stroke-width:1px;stroke-linecap:butt;stroke-linejoin:miter;stroke-opacity:1" d="M 864.464,650.718 848.022,641.584 z" id="boundary" inkscape:connector-curvature="0" />
	<path style="fill:none;stroke:red;stroke-width:1px;stroke-linecap:butt;stroke-linejoin:miter;stroke-opacity:1" d="M 968.597,634.276 977.731,616.007 z" id="boundary" inkscape:connector-curvature="0" />
	<path style="fill:none;stroke:red;stroke-width:1px;stroke-linecap:butt;stroke-linejoin:miter;stroke-opacity:1" d="M 977.731,616.007 986.866,597.738 z" id="boundary" inkscape:connector-curvature="0" />
	<path style="fill:none;stroke:red;stroke-width:1px;stroke-linecap:butt;stroke-linejoin:miter;stroke-opacity:1" d="M 968.597,634.276 953.982,645.238 z" id="boundary" inkscape:connector-curvature="0" />
	<path style="fill:none;stroke:red;stroke-width:1px;stroke-linecap:butt;stroke-linejoin:miter;stroke-opacity:1" d="M 882.733,654.372 901.002,658.026 z" id="boundary" inkscape:connector-curvature="0" />
	<path style="fill:none;stroke:red;stroke-width:1px;stroke-linecap:butt;stroke-linejoin:miter;stroke-opacity:1" d="M 882.733,654.372 864.464,650.718 z" id="boundary" inkscape:connector-curvature="0" />
	<path style="fill:none;stroke:red;stroke-width:1px;stroke-linecap:butt;stroke-linejoin:miter;stroke-opacity:1" d="M 901.002,658.026 919.271,658.026 z" id="boundary" inkscape:connector-curvature="0" />
	<path style="fill:none;stroke:red;stroke-width:1px;stroke-linecap:butt;stroke-linejoin:miter;stroke-opacity:1" d="M 919.271,658.026 937.54,654.372 z" id="boundary" inkscape:connector-curvature="0" />
	<path style="fill:none;stroke:red;stroke-width:1px;stroke-linecap:butt;stroke-linejoin:miter;stroke-opacity:1" d="M 937.54,654.372 953.982,645.238 z" id="boundary" inkscape:connector-curvature="0" />
	<circle cx="4" cy="109.959" r="4" fill="#0" id="circle0"/>
	<circle cx="18.6151" cy="95.3444" r="4" fill="#0" id="circle1"/>
	<circle cx="18.6151" cy="122.748" r="4" fill="#0" id="circle2"/>
	<circle cx="33.2302" cy="80.7293" r="4" fill="#0" id="circle3"/>
	<circle cx="36.884" cy="124.575" r="4" fill="#0" id="circle4"/>
	<circle cx="47.8453" cy="67.9411" r="4" fill="#0" id="circle5"/>
	<circle cx="55.1529" cy="49.6722" r="4" fill="#0" id="circle6"/>
	<circle cx="55.1529" cy="124.575" r="4" fill="#0" id="circle7"/>
	<circle cx="69.768" cy="35.0571" r="4" fill="#0" id="circle8"/>
	<circle cx="73.4217" cy="124.575" r="4" fill="#0" id="circle9"/>
	<circle cx="86.2099" cy="320.052" r="4" fill="#0" id="circle10"/>
	<circle cx="86.2099" cy="338.32" r="4" fill="#0" id="circle11"/>
	<circle cx="86.2099" cy="356.589" r="4" fill="#0" id="circle12"/>
	<circle cx="86.2099" cy="374.858" r="4" fill="#0" id="circle13"/>
	<circle cx="86.2099" cy="393.127" r="4" fill="#0" id="circle14"/>
	<circle cx="86.2099" cy="411.396" r="4" fill="#0" id="circle15"/>
	<circle cx="86.2099" cy="429.665" r="4" fill="#0" id="circle16"/>
	<circle cx="88.0368" cy="25.9227" r="4" fill="#0" id="circle17"/>
	<circle cx="91.6906" cy="131.882" r="4" fill="#0" id="circle18"/>
	<circle cx="95.3444" cy="274.379" r="4" fill="#0" id="circle19"/>
	<circle cx="95.3444" cy="292.648" r="4" fill="#0" id="circle20"/>
	<circle cx="95.3444" cy="446.107" r="4" fill="#0" id="circle21"/>
	<circle cx="95.3444" cy="475.337" r="4" fill="#0" id="circle22"/>
	<circle cx="102.652" cy="13.1344" r="4" fill="#0" id="circle23"/>
	<circle cx="104.479" cy="228.707" r="4" fill="#0" id="circle24"/>
	<circle cx="104.479" cy="246.976" r="4" fill="#0" id="circle25"/>
	<circle cx="108.133" cy="141.017" r="4" fill="#0" id="circle26"/>
	<circle cx="109.959" cy="488.125" r="4" fill="#0" id="circle27"/>
	<circle cx="113.613" cy="159.285" r="4" fill="#0" id="circle28"/>
	<circle cx="113.613" cy="177.554" r="4" fill="#0" id="circle29"/>
	<circle cx="113.613" cy="195.823" r="4" fill="#0" id="circle30"/>
	<circle cx="117.267" cy="506.394" r="4" fill="#0" id="circle31"/>
	<circle cx="120.921" cy="13.1344" r="4" fill="#0" id="circle32"/>
	<circle cx="131.882" cy="517.355" r="4" fill="#0" id="circle33"/>
	<circle cx="137.363" cy="535.624" r="4" fill="#0" id="circle34"/>
	<circle cx="139.19" cy="13.1344" r="4" fill="#0" id="circle35"/>
	<circle cx="151.978" cy="548.413" r="4" fill="#0" id="circle36"/>
	<circle cx="155.632" cy="4" r="4" fill="#0" id="circle37"/>
	<circle cx="164.766" cy="563.028" r="4" fill="#0" id="circle38"/>
	<circle cx="173.901" cy="4" r="4" fill="#0" id="circle39"/>
	<circle cx="179.381" cy="575.816" r="4" fill="#0" id="circle40"/>
	<circle cx="190.343" cy="13.1344" r="4" fill="#0" id="circle41"/>
	<circle cx="192.169" cy="590.431" r="4" fill="#0" id="circle42"/>
	<circle cx="206.785" cy="22.2689" r="4" fill="#0" id="circle43"/>
	<circle cx="206.785" cy="603.219" r="4" fill="#0" id="circle44"/>
	<circle cx="223.227" cy="31.4033" r="4" fill="#0" id="circle45"/>
	<circle cx="223.227" cy="612.354" r="4" fill="#0" id="circle46"/>
	<circle cx="237.842" cy="42.3646" r="4" fill="#0" id="circle47"/>
	<circle cx="237.842" cy="625.142" r="4" fill="#0" id="circle48"/>
	<circle cx="246.976" cy="58.8066" r="4" fill="#0" id="circle49"/>
	<circle cx="250.63" cy="639.757" r="4" fill="#0" id="circle50"/>
	<circle cx="252.457" cy="77.0755" r="4" fill="#0" id="circle51"/>
	<circle cx="261.591" cy="93.5175" r="4" fill="#0" id="circle52"/>
	<circle cx="268.899" cy="645.238" r="4" fill="#0" id="circle53"/>
	<circle cx="270.726" cy="109.959" r="4" fill="#0" id="circle54"/>
	<circle cx="270.726" cy="128.228" r="4" fill="#0" id="circle55"/>
	<circle cx="270.726" cy="146.497" r="4" fill="#0" id="circle56"/>
	<circle cx="270.726" cy="164.766" r="4" fill="#0" id="circle57"/>
	<circle cx="278.033" cy="758.505" r="4" fill="#0" id="circle58"/>
	<circle cx="279.86" cy="181.208" r="4" fill="#0" id="circle59"/>
	<circle cx="279.86" cy="199.477" r="4" fill="#0" id="circle60"/>
	<circle cx="285.341" cy="654.372" r="4" fill="#0" id="circle61"/>
	<circle cx="288.994" cy="215.919" r="4" fill="#0" id="circle62"/>
	<circle cx="292.648" cy="743.89" r="4" fill="#0" id="circle63"/>
	<circle cx="296.302" cy="763.985" r="4" fill="#0" id="circle64"/>
	<circle cx="298.129" cy="232.361" r="4" fill="#0" id="circle65"/>
	<circle cx="301.783" cy="663.506" r="4" fill="#0" id="circle66"/>
	<circle cx="310.917" cy="743.89" r="4" fill="#0" id="circle67"/>
	<circle cx="312.744" cy="243.322" r="4" fill="#0" id="circle68"/>
	<circle cx="314.571" cy="763.985" r="4" fill="#0" id="circle69"/>
	<circle cx="318.225" cy="672.641" r="4" fill="#0" id="circle70"/>
	<circle cx="320.052" cy="261.591" r="4" fill="#0" id="circle71"/>
	<circle cx="329.186" cy="734.755" r="4" fill="#0" id="circle72"/>
	<circle cx="332.84" cy="763.985" r="4" fill="#0" id="circle73"/>
	<circle cx="334.667" cy="274.379" r="4" fill="#0" id="circle74"/>
	<circle cx="336.494" cy="678.122" r="4" fill="#0" id="circle75"/>
	<circle cx="347.455" cy="734.755" r="4" fill="#0" id="circle76"/>
	<circle cx="351.109" cy="283.514" r="4" fill="#0" id="circle77"/>
	<circle cx="351.109" cy="763.985" r="4" fill="#0" id="circle78"/>
	<circle cx="354.762" cy="681.775" r="4" fill="#0" id="circle79"/>
	<circle cx="362.07" cy="720.14" r="4" fill="#0" id="circle80"/>
	<circle cx="363.897" cy="698.217" r="4" fill="#0" id="circle81"/>
	<circle cx="365.724" cy="296.302" r="4" fill="#0" id="circle82"/>
	<circle cx="367.551" cy="773.12" r="4" fill="#0" id="circle83"/>
	<circle cx="378.512" cy="310.917" r="4" fill="#0" id="circle84"/>
	<circle cx="385.82" cy="773.12" r="4" fill="#0" id="circle85"/>
	<circle cx="389.473" cy="727.448" r="4" fill="#0" id="circle86"/>
	<circle cx="396.781" cy="314.571" r="4" fill="#0" id="circle87"/>
	<circle cx="398.608" cy="709.179" r="4" fill="#0" id="circle88"/>
	<circle cx="398.608" cy="743.89" r="4" fill="#0" id="circle89"/>
	<circle cx="402.262" cy="782.254" r="4" fill="#0" id="circle90"/>
	<circle cx="407.742" cy="760.331" r="4" fill="#0" id="circle91"/>
	<circle cx="413.223" cy="323.705" r="4" fill="#0" id="circle92"/>
	<circle cx="413.223" cy="696.39" r="4" fill="#0" id="circle93"/>
	<circle cx="426.011" cy="681.775" r="4" fill="#0" id="circle94"/>
	<circle cx="429.665" cy="332.84" r="4" fill="#0" id="circle95"/>
	<circle cx="444.28" cy="681.775" r="4" fill="#0" id="circle96"/>
	<circle cx="447.934" cy="332.84" r="4" fill="#0" id="circle97"/>
	<circle cx="460.722" cy="347.455" r="4" fill="#0" id="circle98"/>
	<circle cx="460.722" cy="690.91" r="4" fill="#0" id="circle99"/>
	<circle cx="478.991" cy="351.109" r="4" fill="#0" id="circle100"/>
	<circle cx="478.991" cy="690.91" r="4" fill="#0" id="circle101"/>
	<circle cx="495.433" cy="360.243" r="4" fill="#0" id="circle102"/>
	<circle cx="497.26" cy="690.91" r="4" fill="#0" id="circle103"/>
	<circle cx="511.875" cy="369.378" r="4" fill="#0" id="circle104"/>
	<circle cx="513.702" cy="681.775" r="4" fill="#0" id="circle105"/>
	<circle cx="530.144" cy="369.378" r="4" fill="#0" id="circle106"/>
	<circle cx="531.971" cy="678.122" r="4" fill="#0" id="circle107"/>
	<circle cx="546.586" cy="378.512" r="4" fill="#0" id="circle108"/>
	<circle cx="550.239" cy="668.987" r="4" fill="#0" id="circle109"/>
	<circle cx="563.028" cy="387.646" r="4" fill="#0" id="circle110"/>
	<circle cx="563.028" cy="654.372" r="4" fill="#0" id="circle111"/>
	<circle cx="579.47" cy="396.781" r="4" fill="#0" id="circle112"/>
	<circle cx="581.297" cy="645.238" r="4" fill="#0" id="circle113"/>
	<circle cx="595.912" cy="405.915" r="4" fill="#0" id="circle114"/>
	<circle cx="599.565" cy="636.103" r="4" fill="#0" id="circle115"/>
	<circle cx="614.18" cy="407.742" r="4" fill="#0" id="circle116"/>
	<circle cx="617.834" cy="626.969" r="4" fill="#0" id="circle117"/>
	<circle cx="630.622" cy="416.877" r="4" fill="#0" id="circle118"/>
	<circle cx="636.103" cy="617.834" r="4" fill="#0" id="circle119"/>
	<circle cx="648.891" cy="424.184" r="4" fill="#0" id="circle120"/>
	<circle cx="652.545" cy="608.7" r="4" fill="#0" id="circle121"/>
	<circle cx="665.333" cy="433.319" r="4" fill="#0" id="circle122"/>
	<circle cx="670.814" cy="603.219" r="4" fill="#0" id="circle123"/>
	<circle cx="681.775" cy="442.453" r="4" fill="#0" id="circle124"/>
	<circle cx="689.083" cy="608.7" r="4" fill="#0" id="circle125"/>
	<circle cx="700.044" cy="442.453" r="4" fill="#0" id="circle126"/>
	<circle cx="705.525" cy="599.565" r="4" fill="#0" id="circle127"/>
	<circle cx="716.486" cy="451.587" r="4" fill="#0" id="circle128"/>
	<circle cx="723.794" cy="599.565" r="4" fill="#0" id="circle129"/>
	<circle cx="734.755" cy="451.587" r="4" fill="#0" id="circle130"/>
	<circle cx="740.236" cy="608.7" r="4" fill="#0" id="circle131"/>
	<circle cx="753.024" cy="451.587" r="4" fill="#0" id="circle132"/>
	<circle cx="758.505" cy="616.007" r="4" fill="#0" id="circle133"/>
	<circle cx="771.293" cy="451.587" r="4" fill="#0" id="circle134"/>
	<circle cx="776.773" cy="617.834" r="4" fill="#0" id="circle135"/>
	<circle cx="789.562" cy="455.241" r="4" fill="#0" id="circle136"/>
	<circle cx="793.215" cy="626.969" r="4" fill="#0" id="circle137"/>
	<circle cx="807.831" cy="460.722" r="4" fill="#0" id="circle138"/>
	<circle cx="811.484" cy="632.449" r="4" fill="#0" id="circle139"/>
	<circle cx="826.099" cy="457.068" r="4" fill="#0" id="circle140"/>
	<circle cx="829.753" cy="636.103" r="4" fill="#0" id="circle141"/>
	<circle cx="844.368" cy="460.722" r="4" fill="#0" id="circle142"/>
	<circle cx="848.022" cy="641.584" r="4" fill="#0" id="circle143"/>
	<circle cx="862.637" cy="460.722" r="4" fill="#0" id="circle144"/>
	<circle cx="864.464" cy="650.718" r="4" fill="#0" id="circle145"/>
	<circle cx="880.906" cy="460.722" r="4" fill="#0" id="circle146"/>
	<circle cx="882.733" cy="654.372" r="4" fill="#0" id="circle147"/>
	<circle cx="899.175" cy="460.722" r="4" fill="#0" id="circle148"/>
	<circle cx="901.002" cy="658.026" r="4" fill="#0" id="circle149"/>
	<circle cx="917.444" cy="460.722" r="4" fill="#0" id="circle150"/>
	<circle cx="919.271" cy="658.026" r="4" fill="#0" id="circle151"/>
	<circle cx="932.059" cy="471.683" r="4" fill="#0" id="circle152"/>
	<circle cx="937.54" cy="654.372" r="4" fill="#0" id="circle153"/>
	<circle cx="941.193" cy="488.125" r="4" fill="#0" id="circle154"/>
	<circle cx="946.674" cy="526.49" r="4" fill="#0" id="circle155"/>
	<circle cx="953.982" cy="502.74" r="4" fill="#0" id="circle156"/>
	<circle cx="953.982" cy="645.238" r="4" fill="#0" id="circle157"/>
	<circle cx="961.289" cy="537.451" r="4" fill="#0" id="circle158"/>
	<circle cx="964.943" cy="517.355" r="4" fill="#0" id="circle159"/>
	<circle cx="968.597" cy="634.276" r="4" fill="#0" id="circle160"/>
	<circle cx="977.731" cy="616.007" r="4" fill="#0" id="circle161"/>
	<circle cx="979.558" cy="544.759" r="4" fill="#0" id="circle162"/>
	<circle cx="986.866" cy="597.738" r="4" fill="#0" id="circle163"/>
	<circle cx="992.346" cy="559.374" r="4" fill="#0" id="circle164"/>
	<circle cx="996" cy="579.47" r="4" fill="#0" id="circle165"/>
	</g>
</svg>