<?xml version="1.0" encoding="UTF-8" standalone="no"?>
<!-- Created with CurveBenchmark -->
<svg
	xmlns:dc="http://purl.org/dc/elements/1.1/"
	xmlns:cc="http://creativecommons.org/ns#"
	xmlns:rdf="http://www.w3.org/1999/02/22-rdf-syntax-ns#"
	xmlns:svg="http://www.w3.org/2000/svg"
	xmlns="http://www.w3.org/2000/svg"
	xmlns:sodipodi="http://sodipodi.sourceforge.net/DTD/sodipodi-0.dtd"
	xmlns:inkscape="http://www.inkscape.org/namespaces/inkscape"
	width="1000"
	height="1000"
	id="svg2"
	version="1.1"
	sodipodi:docname="manifold/crust-cthand01.png.txt">
<defs
	id="defs4" />
<metadata
	id="metadata7">
	<rdf:RDF>
		<cc:Work
			rdf:about="">
			<dc:format>image/svg+xml</dc:format>
			<dc:type
				rdf:resource="http://purl.org/dc/dcmitype/StillImage" />
			<dc:title></dc:title>
		</cc:Work>
	</rdf:RDF>
</metadata>
<g
	inkscape:label="Layer 1"
	inkscape:groupmode="layer"
	id="layer1">
	<path style="fill:none;stroke:red;stroke-width:1px;stroke-linecap:butt;stroke-linejoin:miter;stroke-opacity:1" d="M 26.5797,208.722 38.6222,196.68 z" id="boundary" inkscape:connector-curvature="0" />
	<path style="fill:none;stroke:red;stroke-width:1px;stroke-linecap:butt;stroke-linejoin:miter;stroke-opacity:1" d="M 38.6222,196.68 49.1593,208.722 z" id="boundary" inkscape:connector-curvature="0" />
	<path style="fill:none;stroke:red;stroke-width:1px;stroke-linecap:butt;stroke-linejoin:miter;stroke-opacity:1" d="M 174.1,61.2018 162.058,73.2443 z" id="boundary" inkscape:connector-curvature="0" />
	<path style="fill:none;stroke:red;stroke-width:1px;stroke-linecap:butt;stroke-linejoin:miter;stroke-opacity:1" d="M 19.0531,223.775 26.5797,208.722 z" id="boundary" inkscape:connector-curvature="0" />
	<path style="fill:none;stroke:red;stroke-width:1px;stroke-linecap:butt;stroke-linejoin:miter;stroke-opacity:1" d="M 11.5266,238.829 19.0531,223.775 z" id="boundary" inkscape:connector-curvature="0" />
	<path style="fill:none;stroke:red;stroke-width:1px;stroke-linecap:butt;stroke-linejoin:miter;stroke-opacity:1" d="M 64.2124,214.744 49.1593,208.722 z" id="boundary" inkscape:connector-curvature="0" />
	<path style="fill:none;stroke:red;stroke-width:1px;stroke-linecap:butt;stroke-linejoin:miter;stroke-opacity:1" d="M 65.7178,229.797 64.2124,214.744 z" id="boundary" inkscape:connector-curvature="0" />
	<path style="fill:none;stroke:red;stroke-width:1px;stroke-linecap:butt;stroke-linejoin:miter;stroke-opacity:1" d="M 65.7178,244.85 65.7178,229.797 z" id="boundary" inkscape:connector-curvature="0" />
	<path style="fill:none;stroke:red;stroke-width:1px;stroke-linecap:butt;stroke-linejoin:miter;stroke-opacity:1" d="M 139.478,118.404 139.478,103.351 z" id="boundary" inkscape:connector-curvature="0" />
	<path style="fill:none;stroke:red;stroke-width:1px;stroke-linecap:butt;stroke-linejoin:miter;stroke-opacity:1" d="M 151.52,91.308 139.478,103.351 z" id="boundary" inkscape:connector-curvature="0" />
	<path style="fill:none;stroke:red;stroke-width:1px;stroke-linecap:butt;stroke-linejoin:miter;stroke-opacity:1" d="M 131.951,140.983 139.478,118.404 z" id="boundary" inkscape:connector-curvature="0" />
	<path style="fill:none;stroke:red;stroke-width:1px;stroke-linecap:butt;stroke-linejoin:miter;stroke-opacity:1" d="M 131.951,156.036 131.951,171.09 z" id="boundary" inkscape:connector-curvature="0" />
	<path style="fill:none;stroke:red;stroke-width:1px;stroke-linecap:butt;stroke-linejoin:miter;stroke-opacity:1" d="M 131.951,156.036 131.951,140.983 z" id="boundary" inkscape:connector-curvature="0" />
	<path style="fill:none;stroke:red;stroke-width:1px;stroke-linecap:butt;stroke-linejoin:miter;stroke-opacity:1" d="M 131.951,171.09 131.951,186.143 z" id="boundary" inkscape:connector-curvature="0" />
	<path style="fill:none;stroke:red;stroke-width:1px;stroke-linecap:butt;stroke-linejoin:miter;stroke-opacity:1" d="M 151.52,91.308 162.058,73.2443 z" id="boundary" inkscape:connector-curvature="0" />
	<path style="fill:none;stroke:red;stroke-width:1px;stroke-linecap:butt;stroke-linejoin:miter;stroke-opacity:1" d="M 131.951,186.143 131.951,201.196 z" id="boundary" inkscape:connector-curvature="0" />
	<path style="fill:none;stroke:red;stroke-width:1px;stroke-linecap:butt;stroke-linejoin:miter;stroke-opacity:1" d="M 124.425,223.775 131.951,201.196 z" id="boundary" inkscape:connector-curvature="0" />
	<path style="fill:none;stroke:red;stroke-width:1px;stroke-linecap:butt;stroke-linejoin:miter;stroke-opacity:1" d="M 124.425,223.775 124.425,238.829 z" id="boundary" inkscape:connector-curvature="0" />
	<path style="fill:none;stroke:red;stroke-width:1px;stroke-linecap:butt;stroke-linejoin:miter;stroke-opacity:1" d="M 4,268.935 4,253.882 z" id="boundary" inkscape:connector-curvature="0" />
	<path style="fill:none;stroke:red;stroke-width:1px;stroke-linecap:butt;stroke-linejoin:miter;stroke-opacity:1" d="M 4,253.882 11.5266,238.829 z" id="boundary" inkscape:connector-curvature="0" />
	<path style="fill:none;stroke:red;stroke-width:1px;stroke-linecap:butt;stroke-linejoin:miter;stroke-opacity:1" d="M 4,283.988 4,268.935 z" id="boundary" inkscape:connector-curvature="0" />
	<path style="fill:none;stroke:red;stroke-width:1px;stroke-linecap:butt;stroke-linejoin:miter;stroke-opacity:1" d="M 11.5266,297.536 4,283.988 z" id="boundary" inkscape:connector-curvature="0" />
	<path style="fill:none;stroke:red;stroke-width:1px;stroke-linecap:butt;stroke-linejoin:miter;stroke-opacity:1" d="M 65.7178,244.85 73.2443,258.398 z" id="boundary" inkscape:connector-curvature="0" />
	<path style="fill:none;stroke:red;stroke-width:1px;stroke-linecap:butt;stroke-linejoin:miter;stroke-opacity:1" d="M 73.2443,258.398 73.2443,273.451 z" id="boundary" inkscape:connector-curvature="0" />
	<path style="fill:none;stroke:red;stroke-width:1px;stroke-linecap:butt;stroke-linejoin:miter;stroke-opacity:1" d="M 73.2443,273.451 73.2443,288.504 z" id="boundary" inkscape:connector-curvature="0" />
	<path style="fill:none;stroke:red;stroke-width:1px;stroke-linecap:butt;stroke-linejoin:miter;stroke-opacity:1" d="M 11.5266,297.536 11.5266,312.589 z" id="boundary" inkscape:connector-curvature="0" />
	<path style="fill:none;stroke:red;stroke-width:1px;stroke-linecap:butt;stroke-linejoin:miter;stroke-opacity:1" d="M 11.5266,312.589 11.5266,327.642 z" id="boundary" inkscape:connector-curvature="0" />
	<path style="fill:none;stroke:red;stroke-width:1px;stroke-linecap:butt;stroke-linejoin:miter;stroke-opacity:1" d="M 73.2443,288.504 80.7709,302.052 z" id="boundary" inkscape:connector-curvature="0" />
	<path style="fill:none;stroke:red;stroke-width:1px;stroke-linecap:butt;stroke-linejoin:miter;stroke-opacity:1" d="M 80.7709,302.052 80.7709,317.105 z" id="boundary" inkscape:connector-curvature="0" />
	<path style="fill:none;stroke:red;stroke-width:1px;stroke-linecap:butt;stroke-linejoin:miter;stroke-opacity:1" d="M 80.7709,317.105 80.7709,332.158 z" id="boundary" inkscape:connector-curvature="0" />
	<path style="fill:none;stroke:red;stroke-width:1px;stroke-linecap:butt;stroke-linejoin:miter;stroke-opacity:1" d="M 124.425,253.882 116.898,276.461 z" id="boundary" inkscape:connector-curvature="0" />
	<path style="fill:none;stroke:red;stroke-width:1px;stroke-linecap:butt;stroke-linejoin:miter;stroke-opacity:1" d="M 116.898,276.461 116.898,291.514 z" id="boundary" inkscape:connector-curvature="0" />
	<path style="fill:none;stroke:red;stroke-width:1px;stroke-linecap:butt;stroke-linejoin:miter;stroke-opacity:1" d="M 124.425,238.829 124.425,253.882 z" id="boundary" inkscape:connector-curvature="0" />
	<path style="fill:none;stroke:red;stroke-width:1px;stroke-linecap:butt;stroke-linejoin:miter;stroke-opacity:1" d="M 116.898,291.514 124.425,305.062 z" id="boundary" inkscape:connector-curvature="0" />
	<path style="fill:none;stroke:red;stroke-width:1px;stroke-linecap:butt;stroke-linejoin:miter;stroke-opacity:1" d="M 131.951,333.663 124.425,320.115 z" id="boundary" inkscape:connector-curvature="0" />
	<path style="fill:none;stroke:red;stroke-width:1px;stroke-linecap:butt;stroke-linejoin:miter;stroke-opacity:1" d="M 124.425,320.115 124.425,305.062 z" id="boundary" inkscape:connector-curvature="0" />
	<path style="fill:none;stroke:red;stroke-width:1px;stroke-linecap:butt;stroke-linejoin:miter;stroke-opacity:1" d="M 88.2974,345.706 80.7709,332.158 z" id="boundary" inkscape:connector-curvature="0" />
	<path style="fill:none;stroke:red;stroke-width:1px;stroke-linecap:butt;stroke-linejoin:miter;stroke-opacity:1" d="M 174.1,61.2018 186.143,49.1593 z" id="boundary" inkscape:connector-curvature="0" />
	<path style="fill:none;stroke:red;stroke-width:1px;stroke-linecap:butt;stroke-linejoin:miter;stroke-opacity:1" d="M 186.143,49.1593 193.669,62.7071 z" id="boundary" inkscape:connector-curvature="0" />
	<path style="fill:none;stroke:red;stroke-width:1px;stroke-linecap:butt;stroke-linejoin:miter;stroke-opacity:1" d="M 205.712,71.739 213.238,85.2868 z" id="boundary" inkscape:connector-curvature="0" />
	<path style="fill:none;stroke:red;stroke-width:1px;stroke-linecap:butt;stroke-linejoin:miter;stroke-opacity:1" d="M 205.712,71.739 193.669,62.7071 z" id="boundary" inkscape:connector-curvature="0" />
	<path style="fill:none;stroke:red;stroke-width:1px;stroke-linecap:butt;stroke-linejoin:miter;stroke-opacity:1" d="M 216.249,100.34 213.238,85.2868 z" id="boundary" inkscape:connector-curvature="0" />
	<path style="fill:none;stroke:red;stroke-width:1px;stroke-linecap:butt;stroke-linejoin:miter;stroke-opacity:1" d="M 216.249,115.393 208.722,130.446 z" id="boundary" inkscape:connector-curvature="0" />
	<path style="fill:none;stroke:red;stroke-width:1px;stroke-linecap:butt;stroke-linejoin:miter;stroke-opacity:1" d="M 216.249,100.34 216.249,115.393 z" id="boundary" inkscape:connector-curvature="0" />
	<path style="fill:none;stroke:red;stroke-width:1px;stroke-linecap:butt;stroke-linejoin:miter;stroke-opacity:1" d="M 208.722,145.499 208.722,130.446 z" id="boundary" inkscape:connector-curvature="0" />
	<path style="fill:none;stroke:red;stroke-width:1px;stroke-linecap:butt;stroke-linejoin:miter;stroke-opacity:1" d="M 208.722,145.499 208.722,160.552 z" id="boundary" inkscape:connector-curvature="0" />
	<path style="fill:none;stroke:red;stroke-width:1px;stroke-linecap:butt;stroke-linejoin:miter;stroke-opacity:1" d="M 208.722,160.552 201.196,183.132 z" id="boundary" inkscape:connector-curvature="0" />
	<path style="fill:none;stroke:red;stroke-width:1px;stroke-linecap:butt;stroke-linejoin:miter;stroke-opacity:1" d="M 271.945,31.0956 259.903,43.1381 z" id="boundary" inkscape:connector-curvature="0" />
	<path style="fill:none;stroke:red;stroke-width:1px;stroke-linecap:butt;stroke-linejoin:miter;stroke-opacity:1" d="M 279.472,16.0425 271.945,31.0956 z" id="boundary" inkscape:connector-curvature="0" />
	<path style="fill:none;stroke:red;stroke-width:1px;stroke-linecap:butt;stroke-linejoin:miter;stroke-opacity:1" d="M 259.903,58.1912 259.903,73.2443 z" id="boundary" inkscape:connector-curvature="0" />
	<path style="fill:none;stroke:red;stroke-width:1px;stroke-linecap:butt;stroke-linejoin:miter;stroke-opacity:1" d="M 259.903,103.351 259.903,88.2974 z" id="boundary" inkscape:connector-curvature="0" />
	<path style="fill:none;stroke:red;stroke-width:1px;stroke-linecap:butt;stroke-linejoin:miter;stroke-opacity:1" d="M 259.903,88.2974 259.903,73.2443 z" id="boundary" inkscape:connector-curvature="0" />
	<path style="fill:none;stroke:red;stroke-width:1px;stroke-linecap:butt;stroke-linejoin:miter;stroke-opacity:1" d="M 259.903,58.1912 259.903,43.1381 z" id="boundary" inkscape:connector-curvature="0" />
	<path style="fill:none;stroke:red;stroke-width:1px;stroke-linecap:butt;stroke-linejoin:miter;stroke-opacity:1" d="M 291.514,4 279.472,16.0425 z" id="boundary" inkscape:connector-curvature="0" />
	<path style="fill:none;stroke:red;stroke-width:1px;stroke-linecap:butt;stroke-linejoin:miter;stroke-opacity:1" d="M 259.903,103.351 259.903,118.404 z" id="boundary" inkscape:connector-curvature="0" />
	<path style="fill:none;stroke:red;stroke-width:1px;stroke-linecap:butt;stroke-linejoin:miter;stroke-opacity:1" d="M 252.376,156.036 252.376,171.09 z" id="boundary" inkscape:connector-curvature="0" />
	<path style="fill:none;stroke:red;stroke-width:1px;stroke-linecap:butt;stroke-linejoin:miter;stroke-opacity:1" d="M 252.376,186.143 252.376,171.09 z" id="boundary" inkscape:connector-curvature="0" />
	<path style="fill:none;stroke:red;stroke-width:1px;stroke-linecap:butt;stroke-linejoin:miter;stroke-opacity:1" d="M 259.903,133.457 252.376,156.036 z" id="boundary" inkscape:connector-curvature="0" />
	<path style="fill:none;stroke:red;stroke-width:1px;stroke-linecap:butt;stroke-linejoin:miter;stroke-opacity:1" d="M 259.903,133.457 259.903,118.404 z" id="boundary" inkscape:connector-curvature="0" />
	<path style="fill:none;stroke:red;stroke-width:1px;stroke-linecap:butt;stroke-linejoin:miter;stroke-opacity:1" d="M 201.196,198.185 201.196,183.132 z" id="boundary" inkscape:connector-curvature="0" />
	<path style="fill:none;stroke:red;stroke-width:1px;stroke-linecap:butt;stroke-linejoin:miter;stroke-opacity:1" d="M 201.196,213.238 201.196,198.185 z" id="boundary" inkscape:connector-curvature="0" />
	<path style="fill:none;stroke:red;stroke-width:1px;stroke-linecap:butt;stroke-linejoin:miter;stroke-opacity:1" d="M 201.196,228.291 201.196,243.344 z" id="boundary" inkscape:connector-curvature="0" />
	<path style="fill:none;stroke:red;stroke-width:1px;stroke-linecap:butt;stroke-linejoin:miter;stroke-opacity:1" d="M 201.196,228.291 201.196,213.238 z" id="boundary" inkscape:connector-curvature="0" />
	<path style="fill:none;stroke:red;stroke-width:1px;stroke-linecap:butt;stroke-linejoin:miter;stroke-opacity:1" d="M 208.722,256.892 201.196,243.344 z" id="boundary" inkscape:connector-curvature="0" />
	<path style="fill:none;stroke:red;stroke-width:1px;stroke-linecap:butt;stroke-linejoin:miter;stroke-opacity:1" d="M 208.722,256.892 208.722,271.945 z" id="boundary" inkscape:connector-curvature="0" />
	<path style="fill:none;stroke:red;stroke-width:1px;stroke-linecap:butt;stroke-linejoin:miter;stroke-opacity:1" d="M 208.722,271.945 208.722,286.998 z" id="boundary" inkscape:connector-curvature="0" />
	<path style="fill:none;stroke:red;stroke-width:1px;stroke-linecap:butt;stroke-linejoin:miter;stroke-opacity:1" d="M 208.722,286.998 208.722,302.052 z" id="boundary" inkscape:connector-curvature="0" />
	<path style="fill:none;stroke:red;stroke-width:1px;stroke-linecap:butt;stroke-linejoin:miter;stroke-opacity:1" d="M 208.722,317.105 208.722,332.158 z" id="boundary" inkscape:connector-curvature="0" />
	<path style="fill:none;stroke:red;stroke-width:1px;stroke-linecap:butt;stroke-linejoin:miter;stroke-opacity:1" d="M 208.722,317.105 208.722,302.052 z" id="boundary" inkscape:connector-curvature="0" />
	<path style="fill:none;stroke:red;stroke-width:1px;stroke-linecap:butt;stroke-linejoin:miter;stroke-opacity:1" d="M 244.85,201.196 244.85,216.249 z" id="boundary" inkscape:connector-curvature="0" />
	<path style="fill:none;stroke:red;stroke-width:1px;stroke-linecap:butt;stroke-linejoin:miter;stroke-opacity:1" d="M 252.376,186.143 244.85,201.196 z" id="boundary" inkscape:connector-curvature="0" />
	<path style="fill:none;stroke:red;stroke-width:1px;stroke-linecap:butt;stroke-linejoin:miter;stroke-opacity:1" d="M 244.85,216.249 244.85,231.302 z" id="boundary" inkscape:connector-curvature="0" />
	<path style="fill:none;stroke:red;stroke-width:1px;stroke-linecap:butt;stroke-linejoin:miter;stroke-opacity:1" d="M 244.85,231.302 244.85,246.355 z" id="boundary" inkscape:connector-curvature="0" />
	<path style="fill:none;stroke:red;stroke-width:1px;stroke-linecap:butt;stroke-linejoin:miter;stroke-opacity:1" d="M 244.85,246.355 244.85,261.408 z" id="boundary" inkscape:connector-curvature="0" />
	<path style="fill:none;stroke:red;stroke-width:1px;stroke-linecap:butt;stroke-linejoin:miter;stroke-opacity:1" d="M 244.85,261.408 244.85,276.461 z" id="boundary" inkscape:connector-curvature="0" />
	<path style="fill:none;stroke:red;stroke-width:1px;stroke-linecap:butt;stroke-linejoin:miter;stroke-opacity:1" d="M 244.85,276.461 244.85,291.514 z" id="boundary" inkscape:connector-curvature="0" />
	<path style="fill:none;stroke:red;stroke-width:1px;stroke-linecap:butt;stroke-linejoin:miter;stroke-opacity:1" d="M 237.323,314.094 244.85,291.514 z" id="boundary" inkscape:connector-curvature="0" />
	<path style="fill:none;stroke:red;stroke-width:1px;stroke-linecap:butt;stroke-linejoin:miter;stroke-opacity:1" d="M 237.323,314.094 237.323,329.147 z" id="boundary" inkscape:connector-curvature="0" />
	<path style="fill:none;stroke:red;stroke-width:1px;stroke-linecap:butt;stroke-linejoin:miter;stroke-opacity:1" d="M 216.249,345.706 208.722,332.158 z" id="boundary" inkscape:connector-curvature="0" />
	<path style="fill:none;stroke:red;stroke-width:1px;stroke-linecap:butt;stroke-linejoin:miter;stroke-opacity:1" d="M 11.5266,327.642 11.5266,342.695 z" id="boundary" inkscape:connector-curvature="0" />
	<path style="fill:none;stroke:red;stroke-width:1px;stroke-linecap:butt;stroke-linejoin:miter;stroke-opacity:1" d="M 19.0531,356.243 11.5266,342.695 z" id="boundary" inkscape:connector-curvature="0" />
	<path style="fill:none;stroke:red;stroke-width:1px;stroke-linecap:butt;stroke-linejoin:miter;stroke-opacity:1" d="M 19.0531,356.243 19.0531,371.296 z" id="boundary" inkscape:connector-curvature="0" />
	<path style="fill:none;stroke:red;stroke-width:1px;stroke-linecap:butt;stroke-linejoin:miter;stroke-opacity:1" d="M 19.0531,371.296 23.569,386.349 z" id="boundary" inkscape:connector-curvature="0" />
	<path style="fill:none;stroke:red;stroke-width:1px;stroke-linecap:butt;stroke-linejoin:miter;stroke-opacity:1" d="M 26.5797,401.402 23.569,386.349 z" id="boundary" inkscape:connector-curvature="0" />
	<path style="fill:none;stroke:red;stroke-width:1px;stroke-linecap:butt;stroke-linejoin:miter;stroke-opacity:1" d="M 26.5797,401.402 31.0956,416.455 z" id="boundary" inkscape:connector-curvature="0" />
	<path style="fill:none;stroke:red;stroke-width:1px;stroke-linecap:butt;stroke-linejoin:miter;stroke-opacity:1" d="M 31.0956,416.455 34.1062,431.508 z" id="boundary" inkscape:connector-curvature="0" />
	<path style="fill:none;stroke:red;stroke-width:1px;stroke-linecap:butt;stroke-linejoin:miter;stroke-opacity:1" d="M 38.6222,446.561 34.1062,431.508 z" id="boundary" inkscape:connector-curvature="0" />
	<path style="fill:none;stroke:red;stroke-width:1px;stroke-linecap:butt;stroke-linejoin:miter;stroke-opacity:1" d="M 46.1487,460.109 38.6222,446.561 z" id="boundary" inkscape:connector-curvature="0" />
	<path style="fill:none;stroke:red;stroke-width:1px;stroke-linecap:butt;stroke-linejoin:miter;stroke-opacity:1" d="M 46.1487,460.109 49.1593,475.162 z" id="boundary" inkscape:connector-curvature="0" />
	<path style="fill:none;stroke:red;stroke-width:1px;stroke-linecap:butt;stroke-linejoin:miter;stroke-opacity:1" d="M 49.1593,475.162 49.1593,490.215 z" id="boundary" inkscape:connector-curvature="0" />
	<path style="fill:none;stroke:red;stroke-width:1px;stroke-linecap:butt;stroke-linejoin:miter;stroke-opacity:1" d="M 56.6859,518.816 49.1593,505.269 z" id="boundary" inkscape:connector-curvature="0" />
	<path style="fill:none;stroke:red;stroke-width:1px;stroke-linecap:butt;stroke-linejoin:miter;stroke-opacity:1" d="M 49.1593,505.269 49.1593,490.215 z" id="boundary" inkscape:connector-curvature="0" />
	<path style="fill:none;stroke:red;stroke-width:1px;stroke-linecap:butt;stroke-linejoin:miter;stroke-opacity:1" d="M 56.6859,518.816 56.6859,533.869 z" id="boundary" inkscape:connector-curvature="0" />
	<path style="fill:none;stroke:red;stroke-width:1px;stroke-linecap:butt;stroke-linejoin:miter;stroke-opacity:1" d="M 56.6859,533.869 56.6859,548.923 z" id="boundary" inkscape:connector-curvature="0" />
	<path style="fill:none;stroke:red;stroke-width:1px;stroke-linecap:butt;stroke-linejoin:miter;stroke-opacity:1" d="M 56.6859,563.976 56.6859,579.029 z" id="boundary" inkscape:connector-curvature="0" />
	<path style="fill:none;stroke:red;stroke-width:1px;stroke-linecap:butt;stroke-linejoin:miter;stroke-opacity:1" d="M 56.6859,563.976 56.6859,548.923 z" id="boundary" inkscape:connector-curvature="0" />
	<path style="fill:none;stroke:red;stroke-width:1px;stroke-linecap:butt;stroke-linejoin:miter;stroke-opacity:1" d="M 64.2124,592.577 64.2124,607.63 z" id="boundary" inkscape:connector-curvature="0" />
	<path style="fill:none;stroke:red;stroke-width:1px;stroke-linecap:butt;stroke-linejoin:miter;stroke-opacity:1" d="M 64.2124,592.577 56.6859,579.029 z" id="boundary" inkscape:connector-curvature="0" />
	<path style="fill:none;stroke:red;stroke-width:1px;stroke-linecap:butt;stroke-linejoin:miter;stroke-opacity:1" d="M 64.2124,622.683 64.2124,607.63 z" id="boundary" inkscape:connector-curvature="0" />
	<path style="fill:none;stroke:red;stroke-width:1px;stroke-linecap:butt;stroke-linejoin:miter;stroke-opacity:1" d="M 64.2124,652.789 64.2124,667.842 z" id="boundary" inkscape:connector-curvature="0" />
	<path style="fill:none;stroke:red;stroke-width:1px;stroke-linecap:butt;stroke-linejoin:miter;stroke-opacity:1" d="M 64.2124,637.736 64.2124,622.683 z" id="boundary" inkscape:connector-curvature="0" />
	<path style="fill:none;stroke:red;stroke-width:1px;stroke-linecap:butt;stroke-linejoin:miter;stroke-opacity:1" d="M 64.2124,652.789 64.2124,637.736 z" id="boundary" inkscape:connector-curvature="0" />
	<path style="fill:none;stroke:red;stroke-width:1px;stroke-linecap:butt;stroke-linejoin:miter;stroke-opacity:1" d="M 64.2124,667.842 64.2124,682.895 z" id="boundary" inkscape:connector-curvature="0" />
	<path style="fill:none;stroke:red;stroke-width:1px;stroke-linecap:butt;stroke-linejoin:miter;stroke-opacity:1" d="M 64.2124,697.948 64.2124,713.002 z" id="boundary" inkscape:connector-curvature="0" />
	<path style="fill:none;stroke:red;stroke-width:1px;stroke-linecap:butt;stroke-linejoin:miter;stroke-opacity:1" d="M 64.2124,697.948 64.2124,682.895 z" id="boundary" inkscape:connector-curvature="0" />
	<path style="fill:none;stroke:red;stroke-width:1px;stroke-linecap:butt;stroke-linejoin:miter;stroke-opacity:1" d="M 64.2124,713.002 64.2124,728.055 z" id="boundary" inkscape:connector-curvature="0" />
	<path style="fill:none;stroke:red;stroke-width:1px;stroke-linecap:butt;stroke-linejoin:miter;stroke-opacity:1" d="M 64.2124,728.055 64.2124,743.108 z" id="boundary" inkscape:connector-curvature="0" />
	<path style="fill:none;stroke:red;stroke-width:1px;stroke-linecap:butt;stroke-linejoin:miter;stroke-opacity:1" d="M 64.2124,743.108 64.2124,758.161 z" id="boundary" inkscape:connector-curvature="0" />
	<path style="fill:none;stroke:red;stroke-width:1px;stroke-linecap:butt;stroke-linejoin:miter;stroke-opacity:1" d="M 64.2124,773.214 64.2124,788.267 z" id="boundary" inkscape:connector-curvature="0" />
	<path style="fill:none;stroke:red;stroke-width:1px;stroke-linecap:butt;stroke-linejoin:miter;stroke-opacity:1" d="M 64.2124,773.214 64.2124,758.161 z" id="boundary" inkscape:connector-curvature="0" />
	<path style="fill:none;stroke:red;stroke-width:1px;stroke-linecap:butt;stroke-linejoin:miter;stroke-opacity:1" d="M 71.739,801.815 64.2124,788.267 z" id="boundary" inkscape:connector-curvature="0" />
	<path style="fill:none;stroke:red;stroke-width:1px;stroke-linecap:butt;stroke-linejoin:miter;stroke-opacity:1" d="M 71.739,801.815 79.2656,815.363 z" id="boundary" inkscape:connector-curvature="0" />
	<path style="fill:none;stroke:red;stroke-width:1px;stroke-linecap:butt;stroke-linejoin:miter;stroke-opacity:1" d="M 86.7921,953.851 79.2656,968.904 z" id="boundary" inkscape:connector-curvature="0" />
	<path style="fill:none;stroke:red;stroke-width:1px;stroke-linecap:butt;stroke-linejoin:miter;stroke-opacity:1" d="M 71.739,991.484 79.2656,968.904 z" id="boundary" inkscape:connector-curvature="0" />
	<path style="fill:none;stroke:red;stroke-width:1px;stroke-linecap:butt;stroke-linejoin:miter;stroke-opacity:1" d="M 79.2656,815.363 83.7815,830.416 z" id="boundary" inkscape:connector-curvature="0" />
	<path style="fill:none;stroke:red;stroke-width:1px;stroke-linecap:butt;stroke-linejoin:miter;stroke-opacity:1" d="M 91.308,843.964 94.3187,859.017 z" id="boundary" inkscape:connector-curvature="0" />
	<path style="fill:none;stroke:red;stroke-width:1px;stroke-linecap:butt;stroke-linejoin:miter;stroke-opacity:1" d="M 94.3187,919.229 86.7921,938.798 z" id="boundary" inkscape:connector-curvature="0" />
	<path style="fill:none;stroke:red;stroke-width:1px;stroke-linecap:butt;stroke-linejoin:miter;stroke-opacity:1" d="M 86.7921,938.798 86.7921,953.851 z" id="boundary" inkscape:connector-curvature="0" />
	<path style="fill:none;stroke:red;stroke-width:1px;stroke-linecap:butt;stroke-linejoin:miter;stroke-opacity:1" d="M 86.7921,996 71.739,991.484 z" id="boundary" inkscape:connector-curvature="0" />
	<path style="fill:none;stroke:red;stroke-width:1px;stroke-linecap:butt;stroke-linejoin:miter;stroke-opacity:1" d="M 94.3187,859.017 94.3187,874.07 z" id="boundary" inkscape:connector-curvature="0" />
	<path style="fill:none;stroke:red;stroke-width:1px;stroke-linecap:butt;stroke-linejoin:miter;stroke-opacity:1" d="M 83.7815,830.416 91.308,843.964 z" id="boundary" inkscape:connector-curvature="0" />
	<path style="fill:none;stroke:red;stroke-width:1px;stroke-linecap:butt;stroke-linejoin:miter;stroke-opacity:1" d="M 88.2974,345.706 95.824,359.253 z" id="boundary" inkscape:connector-curvature="0" />
	<path style="fill:none;stroke:red;stroke-width:1px;stroke-linecap:butt;stroke-linejoin:miter;stroke-opacity:1" d="M 95.824,374.307 95.824,359.253 z" id="boundary" inkscape:connector-curvature="0" />
	<path style="fill:none;stroke:red;stroke-width:1px;stroke-linecap:butt;stroke-linejoin:miter;stroke-opacity:1" d="M 95.824,374.307 103.351,387.854 z" id="boundary" inkscape:connector-curvature="0" />
	<path style="fill:none;stroke:red;stroke-width:1px;stroke-linecap:butt;stroke-linejoin:miter;stroke-opacity:1" d="M 131.951,333.663 131.951,348.716 z" id="boundary" inkscape:connector-curvature="0" />
	<path style="fill:none;stroke:red;stroke-width:1px;stroke-linecap:butt;stroke-linejoin:miter;stroke-opacity:1" d="M 131.951,363.769 131.951,348.716 z" id="boundary" inkscape:connector-curvature="0" />
	<path style="fill:none;stroke:red;stroke-width:1px;stroke-linecap:butt;stroke-linejoin:miter;stroke-opacity:1" d="M 131.951,363.769 131.951,378.822 z" id="boundary" inkscape:connector-curvature="0" />
	<path style="fill:none;stroke:red;stroke-width:1px;stroke-linecap:butt;stroke-linejoin:miter;stroke-opacity:1" d="M 131.951,393.876 131.951,378.822 z" id="boundary" inkscape:connector-curvature="0" />
	<path style="fill:none;stroke:red;stroke-width:1px;stroke-linecap:butt;stroke-linejoin:miter;stroke-opacity:1" d="M 107.866,402.907 103.351,387.854 z" id="boundary" inkscape:connector-curvature="0" />
	<path style="fill:none;stroke:red;stroke-width:1px;stroke-linecap:butt;stroke-linejoin:miter;stroke-opacity:1" d="M 110.877,417.961 119.909,430.003 z" id="boundary" inkscape:connector-curvature="0" />
	<path style="fill:none;stroke:red;stroke-width:1px;stroke-linecap:butt;stroke-linejoin:miter;stroke-opacity:1" d="M 107.866,402.907 110.877,417.961 z" id="boundary" inkscape:connector-curvature="0" />
	<path style="fill:none;stroke:red;stroke-width:1px;stroke-linecap:butt;stroke-linejoin:miter;stroke-opacity:1" d="M 131.951,393.876 131.951,408.929 z" id="boundary" inkscape:connector-curvature="0" />
	<path style="fill:none;stroke:red;stroke-width:1px;stroke-linecap:butt;stroke-linejoin:miter;stroke-opacity:1" d="M 131.951,408.929 119.909,430.003 z" id="boundary" inkscape:connector-curvature="0" />
	<path style="fill:none;stroke:red;stroke-width:1px;stroke-linecap:butt;stroke-linejoin:miter;stroke-opacity:1" d="M 216.249,345.706 223.775,359.253 z" id="boundary" inkscape:connector-curvature="0" />
	<path style="fill:none;stroke:red;stroke-width:1px;stroke-linecap:butt;stroke-linejoin:miter;stroke-opacity:1" d="M 237.323,329.147 237.323,344.2 z" id="boundary" inkscape:connector-curvature="0" />
	<path style="fill:none;stroke:red;stroke-width:1px;stroke-linecap:butt;stroke-linejoin:miter;stroke-opacity:1" d="M 237.323,344.2 223.775,359.253 z" id="boundary" inkscape:connector-curvature="0" />
	<path style="fill:none;stroke:red;stroke-width:1px;stroke-linecap:butt;stroke-linejoin:miter;stroke-opacity:1" d="M 94.3187,889.123 94.3187,874.07 z" id="boundary" inkscape:connector-curvature="0" />
	<path style="fill:none;stroke:red;stroke-width:1px;stroke-linecap:butt;stroke-linejoin:miter;stroke-opacity:1" d="M 94.3187,889.123 94.3187,904.176 z" id="boundary" inkscape:connector-curvature="0" />
	<path style="fill:none;stroke:red;stroke-width:1px;stroke-linecap:butt;stroke-linejoin:miter;stroke-opacity:1" d="M 94.3187,919.229 94.3187,904.176 z" id="boundary" inkscape:connector-curvature="0" />
	<path style="fill:none;stroke:red;stroke-width:1px;stroke-linecap:butt;stroke-linejoin:miter;stroke-opacity:1" d="M 207.217,996 192.164,996 z" id="boundary" inkscape:connector-curvature="0" />
	<path style="fill:none;stroke:red;stroke-width:1px;stroke-linecap:butt;stroke-linejoin:miter;stroke-opacity:1" d="M 101.845,996 86.7921,996 z" id="boundary" inkscape:connector-curvature="0" />
	<path style="fill:none;stroke:red;stroke-width:1px;stroke-linecap:butt;stroke-linejoin:miter;stroke-opacity:1" d="M 101.845,996 116.898,996 z" id="boundary" inkscape:connector-curvature="0" />
	<path style="fill:none;stroke:red;stroke-width:1px;stroke-linecap:butt;stroke-linejoin:miter;stroke-opacity:1" d="M 131.951,996 116.898,996 z" id="boundary" inkscape:connector-curvature="0" />
	<path style="fill:none;stroke:red;stroke-width:1px;stroke-linecap:butt;stroke-linejoin:miter;stroke-opacity:1" d="M 147.005,996 131.951,996 z" id="boundary" inkscape:connector-curvature="0" />
	<path style="fill:none;stroke:red;stroke-width:1px;stroke-linecap:butt;stroke-linejoin:miter;stroke-opacity:1" d="M 162.058,996 147.005,996 z" id="boundary" inkscape:connector-curvature="0" />
	<path style="fill:none;stroke:red;stroke-width:1px;stroke-linecap:butt;stroke-linejoin:miter;stroke-opacity:1" d="M 162.058,996 177.111,996 z" id="boundary" inkscape:connector-curvature="0" />
	<path style="fill:none;stroke:red;stroke-width:1px;stroke-linecap:butt;stroke-linejoin:miter;stroke-opacity:1" d="M 192.164,996 177.111,996 z" id="boundary" inkscape:connector-curvature="0" />
	<path style="fill:none;stroke:red;stroke-width:1px;stroke-linecap:butt;stroke-linejoin:miter;stroke-opacity:1" d="M 222.27,996 207.217,996 z" id="boundary" inkscape:connector-curvature="0" />
	<path style="fill:none;stroke:red;stroke-width:1px;stroke-linecap:butt;stroke-linejoin:miter;stroke-opacity:1" d="M 237.323,996 222.27,996 z" id="boundary" inkscape:connector-curvature="0" />
	<path style="fill:none;stroke:red;stroke-width:1px;stroke-linecap:butt;stroke-linejoin:miter;stroke-opacity:1" d="M 252.376,996 237.323,996 z" id="boundary" inkscape:connector-curvature="0" />
	<path style="fill:none;stroke:red;stroke-width:1px;stroke-linecap:butt;stroke-linejoin:miter;stroke-opacity:1" d="M 267.429,996 252.376,996 z" id="boundary" inkscape:connector-curvature="0" />
	<path style="fill:none;stroke:red;stroke-width:1px;stroke-linecap:butt;stroke-linejoin:miter;stroke-opacity:1" d="M 282.483,996 267.429,996 z" id="boundary" inkscape:connector-curvature="0" />
	<path style="fill:none;stroke:red;stroke-width:1px;stroke-linecap:butt;stroke-linejoin:miter;stroke-opacity:1" d="M 291.514,4 306.568,8.51593 z" id="boundary" inkscape:connector-curvature="0" />
	<path style="fill:none;stroke:red;stroke-width:1px;stroke-linecap:butt;stroke-linejoin:miter;stroke-opacity:1" d="M 306.568,8.51593 318.61,17.5478 z" id="boundary" inkscape:connector-curvature="0" />
	<path style="fill:none;stroke:red;stroke-width:1px;stroke-linecap:butt;stroke-linejoin:miter;stroke-opacity:1" d="M 318.61,17.5478 321.621,32.6009 z" id="boundary" inkscape:connector-curvature="0" />
	<path style="fill:none;stroke:red;stroke-width:1px;stroke-linecap:butt;stroke-linejoin:miter;stroke-opacity:1" d="M 333.663,41.6328 336.674,56.6859 z" id="boundary" inkscape:connector-curvature="0" />
	<path style="fill:none;stroke:red;stroke-width:1px;stroke-linecap:butt;stroke-linejoin:miter;stroke-opacity:1" d="M 333.663,41.6328 321.621,32.6009 z" id="boundary" inkscape:connector-curvature="0" />
	<path style="fill:none;stroke:red;stroke-width:1px;stroke-linecap:butt;stroke-linejoin:miter;stroke-opacity:1" d="M 336.674,56.6859 336.674,71.739 z" id="boundary" inkscape:connector-curvature="0" />
	<path style="fill:none;stroke:red;stroke-width:1px;stroke-linecap:butt;stroke-linejoin:miter;stroke-opacity:1" d="M 336.674,71.739 336.674,86.7921 z" id="boundary" inkscape:connector-curvature="0" />
	<path style="fill:none;stroke:red;stroke-width:1px;stroke-linecap:butt;stroke-linejoin:miter;stroke-opacity:1" d="M 336.674,101.845 336.674,86.7921 z" id="boundary" inkscape:connector-curvature="0" />
	<path style="fill:none;stroke:red;stroke-width:1px;stroke-linecap:butt;stroke-linejoin:miter;stroke-opacity:1" d="M 336.674,101.845 336.674,116.898 z" id="boundary" inkscape:connector-curvature="0" />
	<path style="fill:none;stroke:red;stroke-width:1px;stroke-linecap:butt;stroke-linejoin:miter;stroke-opacity:1" d="M 336.674,131.951 336.674,147.005 z" id="boundary" inkscape:connector-curvature="0" />
	<path style="fill:none;stroke:red;stroke-width:1px;stroke-linecap:butt;stroke-linejoin:miter;stroke-opacity:1" d="M 329.147,160.552 336.674,147.005 z" id="boundary" inkscape:connector-curvature="0" />
	<path style="fill:none;stroke:red;stroke-width:1px;stroke-linecap:butt;stroke-linejoin:miter;stroke-opacity:1" d="M 329.147,160.552 329.147,175.605 z" id="boundary" inkscape:connector-curvature="0" />
	<path style="fill:none;stroke:red;stroke-width:1px;stroke-linecap:butt;stroke-linejoin:miter;stroke-opacity:1" d="M 336.674,131.951 336.674,116.898 z" id="boundary" inkscape:connector-curvature="0" />
	<path style="fill:none;stroke:red;stroke-width:1px;stroke-linecap:butt;stroke-linejoin:miter;stroke-opacity:1" d="M 329.147,205.712 329.147,220.765 z" id="boundary" inkscape:connector-curvature="0" />
	<path style="fill:none;stroke:red;stroke-width:1px;stroke-linecap:butt;stroke-linejoin:miter;stroke-opacity:1" d="M 329.147,235.818 329.147,220.765 z" id="boundary" inkscape:connector-curvature="0" />
	<path style="fill:none;stroke:red;stroke-width:1px;stroke-linecap:butt;stroke-linejoin:miter;stroke-opacity:1" d="M 329.147,250.871 321.621,265.924 z" id="boundary" inkscape:connector-curvature="0" />
	<path style="fill:none;stroke:red;stroke-width:1px;stroke-linecap:butt;stroke-linejoin:miter;stroke-opacity:1" d="M 329.147,235.818 329.147,250.871 z" id="boundary" inkscape:connector-curvature="0" />
	<path style="fill:none;stroke:red;stroke-width:1px;stroke-linecap:butt;stroke-linejoin:miter;stroke-opacity:1" d="M 321.621,280.977 321.621,265.924 z" id="boundary" inkscape:connector-curvature="0" />
	<path style="fill:none;stroke:red;stroke-width:1px;stroke-linecap:butt;stroke-linejoin:miter;stroke-opacity:1" d="M 329.147,190.659 329.147,205.712 z" id="boundary" inkscape:connector-curvature="0" />
	<path style="fill:none;stroke:red;stroke-width:1px;stroke-linecap:butt;stroke-linejoin:miter;stroke-opacity:1" d="M 329.147,175.605 329.147,190.659 z" id="boundary" inkscape:connector-curvature="0" />
	<path style="fill:none;stroke:red;stroke-width:1px;stroke-linecap:butt;stroke-linejoin:miter;stroke-opacity:1" d="M 321.621,296.03 321.621,311.083 z" id="boundary" inkscape:connector-curvature="0" />
	<path style="fill:none;stroke:red;stroke-width:1px;stroke-linecap:butt;stroke-linejoin:miter;stroke-opacity:1" d="M 321.621,326.137 321.621,311.083 z" id="boundary" inkscape:connector-curvature="0" />
	<path style="fill:none;stroke:red;stroke-width:1px;stroke-linecap:butt;stroke-linejoin:miter;stroke-opacity:1" d="M 321.621,326.137 321.621,341.19 z" id="boundary" inkscape:connector-curvature="0" />
	<path style="fill:none;stroke:red;stroke-width:1px;stroke-linecap:butt;stroke-linejoin:miter;stroke-opacity:1" d="M 321.621,341.19 329.147,354.737 z" id="boundary" inkscape:connector-curvature="0" />
	<path style="fill:none;stroke:red;stroke-width:1px;stroke-linecap:butt;stroke-linejoin:miter;stroke-opacity:1" d="M 329.147,354.737 329.147,369.791 z" id="boundary" inkscape:connector-curvature="0" />
	<path style="fill:none;stroke:red;stroke-width:1px;stroke-linecap:butt;stroke-linejoin:miter;stroke-opacity:1" d="M 321.621,280.977 321.621,296.03 z" id="boundary" inkscape:connector-curvature="0" />
	<path style="fill:none;stroke:red;stroke-width:1px;stroke-linecap:butt;stroke-linejoin:miter;stroke-opacity:1" d="M 329.147,369.791 336.674,383.338 z" id="boundary" inkscape:connector-curvature="0" />
	<path style="fill:none;stroke:red;stroke-width:1px;stroke-linecap:butt;stroke-linejoin:miter;stroke-opacity:1" d="M 365.275,238.829 365.275,253.882 z" id="boundary" inkscape:connector-curvature="0" />
	<path style="fill:none;stroke:red;stroke-width:1px;stroke-linecap:butt;stroke-linejoin:miter;stroke-opacity:1" d="M 372.801,216.249 365.275,238.829 z" id="boundary" inkscape:connector-curvature="0" />
	<path style="fill:none;stroke:red;stroke-width:1px;stroke-linecap:butt;stroke-linejoin:miter;stroke-opacity:1" d="M 365.275,253.882 365.275,268.935 z" id="boundary" inkscape:connector-curvature="0" />
	<path style="fill:none;stroke:red;stroke-width:1px;stroke-linecap:butt;stroke-linejoin:miter;stroke-opacity:1" d="M 365.275,283.988 365.275,299.041 z" id="boundary" inkscape:connector-curvature="0" />
	<path style="fill:none;stroke:red;stroke-width:1px;stroke-linecap:butt;stroke-linejoin:miter;stroke-opacity:1" d="M 365.275,283.988 365.275,268.935 z" id="boundary" inkscape:connector-curvature="0" />
	<path style="fill:none;stroke:red;stroke-width:1px;stroke-linecap:butt;stroke-linejoin:miter;stroke-opacity:1" d="M 350.222,359.253 350.222,374.307 z" id="boundary" inkscape:connector-curvature="0" />
	<path style="fill:none;stroke:red;stroke-width:1px;stroke-linecap:butt;stroke-linejoin:miter;stroke-opacity:1" d="M 357.748,336.674 350.222,359.253 z" id="boundary" inkscape:connector-curvature="0" />
	<path style="fill:none;stroke:red;stroke-width:1px;stroke-linecap:butt;stroke-linejoin:miter;stroke-opacity:1" d="M 365.275,314.094 357.748,336.674 z" id="boundary" inkscape:connector-curvature="0" />
	<path style="fill:none;stroke:red;stroke-width:1px;stroke-linecap:butt;stroke-linejoin:miter;stroke-opacity:1" d="M 365.275,299.041 365.275,314.094 z" id="boundary" inkscape:connector-curvature="0" />
	<path style="fill:none;stroke:red;stroke-width:1px;stroke-linecap:butt;stroke-linejoin:miter;stroke-opacity:1" d="M 350.222,374.307 336.674,383.338 z" id="boundary" inkscape:connector-curvature="0" />
	<path style="fill:none;stroke:red;stroke-width:1px;stroke-linecap:butt;stroke-linejoin:miter;stroke-opacity:1" d="M 380.328,88.2974 380.328,103.351 z" id="boundary" inkscape:connector-curvature="0" />
	<path style="fill:none;stroke:red;stroke-width:1px;stroke-linecap:butt;stroke-linejoin:miter;stroke-opacity:1" d="M 387.854,73.2443 380.328,88.2974 z" id="boundary" inkscape:connector-curvature="0" />
	<path style="fill:none;stroke:red;stroke-width:1px;stroke-linecap:butt;stroke-linejoin:miter;stroke-opacity:1" d="M 380.328,103.351 380.328,118.404 z" id="boundary" inkscape:connector-curvature="0" />
	<path style="fill:none;stroke:red;stroke-width:1px;stroke-linecap:butt;stroke-linejoin:miter;stroke-opacity:1" d="M 402.907,65.7178 414.95,53.6753 z" id="boundary" inkscape:connector-curvature="0" />
	<path style="fill:none;stroke:red;stroke-width:1px;stroke-linecap:butt;stroke-linejoin:miter;stroke-opacity:1" d="M 402.907,65.7178 387.854,73.2443 z" id="boundary" inkscape:connector-curvature="0" />
	<path style="fill:none;stroke:red;stroke-width:1px;stroke-linecap:butt;stroke-linejoin:miter;stroke-opacity:1" d="M 414.95,53.6753 428.498,61.2018 z" id="boundary" inkscape:connector-curvature="0" />
	<path style="fill:none;stroke:red;stroke-width:1px;stroke-linecap:butt;stroke-linejoin:miter;stroke-opacity:1" d="M 380.328,133.457 380.328,148.51 z" id="boundary" inkscape:connector-curvature="0" />
	<path style="fill:none;stroke:red;stroke-width:1px;stroke-linecap:butt;stroke-linejoin:miter;stroke-opacity:1" d="M 380.328,163.563 380.328,148.51 z" id="boundary" inkscape:connector-curvature="0" />
	<path style="fill:none;stroke:red;stroke-width:1px;stroke-linecap:butt;stroke-linejoin:miter;stroke-opacity:1" d="M 380.328,163.563 372.801,186.143 z" id="boundary" inkscape:connector-curvature="0" />
	<path style="fill:none;stroke:red;stroke-width:1px;stroke-linecap:butt;stroke-linejoin:miter;stroke-opacity:1" d="M 372.801,201.196 372.801,186.143 z" id="boundary" inkscape:connector-curvature="0" />
	<path style="fill:none;stroke:red;stroke-width:1px;stroke-linecap:butt;stroke-linejoin:miter;stroke-opacity:1" d="M 380.328,133.457 380.328,118.404 z" id="boundary" inkscape:connector-curvature="0" />
	<path style="fill:none;stroke:red;stroke-width:1px;stroke-linecap:butt;stroke-linejoin:miter;stroke-opacity:1" d="M 440.54,71.739 428.498,61.2018 z" id="boundary" inkscape:connector-curvature="0" />
	<path style="fill:none;stroke:red;stroke-width:1px;stroke-linecap:butt;stroke-linejoin:miter;stroke-opacity:1" d="M 442.046,86.7921 440.54,71.739 z" id="boundary" inkscape:connector-curvature="0" />
	<path style="fill:none;stroke:red;stroke-width:1px;stroke-linecap:butt;stroke-linejoin:miter;stroke-opacity:1" d="M 442.046,86.7921 449.572,100.34 z" id="boundary" inkscape:connector-curvature="0" />
	<path style="fill:none;stroke:red;stroke-width:1px;stroke-linecap:butt;stroke-linejoin:miter;stroke-opacity:1" d="M 449.572,100.34 452.583,115.393 z" id="boundary" inkscape:connector-curvature="0" />
	<path style="fill:none;stroke:red;stroke-width:1px;stroke-linecap:butt;stroke-linejoin:miter;stroke-opacity:1" d="M 457.099,130.446 452.583,115.393 z" id="boundary" inkscape:connector-curvature="0" />
	<path style="fill:none;stroke:red;stroke-width:1px;stroke-linecap:butt;stroke-linejoin:miter;stroke-opacity:1" d="M 457.099,130.446 457.099,145.499 z" id="boundary" inkscape:connector-curvature="0" />
	<path style="fill:none;stroke:red;stroke-width:1px;stroke-linecap:butt;stroke-linejoin:miter;stroke-opacity:1" d="M 457.099,145.499 457.099,160.552 z" id="boundary" inkscape:connector-curvature="0" />
	<path style="fill:none;stroke:red;stroke-width:1px;stroke-linecap:butt;stroke-linejoin:miter;stroke-opacity:1" d="M 457.099,175.605 457.099,190.659 z" id="boundary" inkscape:connector-curvature="0" />
	<path style="fill:none;stroke:red;stroke-width:1px;stroke-linecap:butt;stroke-linejoin:miter;stroke-opacity:1" d="M 457.099,175.605 457.099,160.552 z" id="boundary" inkscape:connector-curvature="0" />
	<path style="fill:none;stroke:red;stroke-width:1px;stroke-linecap:butt;stroke-linejoin:miter;stroke-opacity:1" d="M 372.801,216.249 372.801,201.196 z" id="boundary" inkscape:connector-curvature="0" />
	<path style="fill:none;stroke:red;stroke-width:1px;stroke-linecap:butt;stroke-linejoin:miter;stroke-opacity:1" d="M 457.099,265.924 449.572,280.977 z" id="boundary" inkscape:connector-curvature="0" />
	<path style="fill:none;stroke:red;stroke-width:1px;stroke-linecap:butt;stroke-linejoin:miter;stroke-opacity:1" d="M 449.572,280.977 449.572,296.03 z" id="boundary" inkscape:connector-curvature="0" />
	<path style="fill:none;stroke:red;stroke-width:1px;stroke-linecap:butt;stroke-linejoin:miter;stroke-opacity:1" d="M 457.099,220.765 457.099,235.818 z" id="boundary" inkscape:connector-curvature="0" />
	<path style="fill:none;stroke:red;stroke-width:1px;stroke-linecap:butt;stroke-linejoin:miter;stroke-opacity:1" d="M 457.099,220.765 457.099,205.712 z" id="boundary" inkscape:connector-curvature="0" />
	<path style="fill:none;stroke:red;stroke-width:1px;stroke-linecap:butt;stroke-linejoin:miter;stroke-opacity:1" d="M 457.099,235.818 457.099,250.871 z" id="boundary" inkscape:connector-curvature="0" />
	<path style="fill:none;stroke:red;stroke-width:1px;stroke-linecap:butt;stroke-linejoin:miter;stroke-opacity:1" d="M 457.099,250.871 457.099,265.924 z" id="boundary" inkscape:connector-curvature="0" />
	<path style="fill:none;stroke:red;stroke-width:1px;stroke-linecap:butt;stroke-linejoin:miter;stroke-opacity:1" d="M 457.099,205.712 457.099,190.659 z" id="boundary" inkscape:connector-curvature="0" />
	<path style="fill:none;stroke:red;stroke-width:1px;stroke-linecap:butt;stroke-linejoin:miter;stroke-opacity:1" d="M 449.572,311.083 449.572,296.03 z" id="boundary" inkscape:connector-curvature="0" />
	<path style="fill:none;stroke:red;stroke-width:1px;stroke-linecap:butt;stroke-linejoin:miter;stroke-opacity:1" d="M 449.572,311.083 449.572,326.137 z" id="boundary" inkscape:connector-curvature="0" />
	<path style="fill:none;stroke:red;stroke-width:1px;stroke-linecap:butt;stroke-linejoin:miter;stroke-opacity:1" d="M 449.572,341.19 449.572,326.137 z" id="boundary" inkscape:connector-curvature="0" />
	<path style="fill:none;stroke:red;stroke-width:1px;stroke-linecap:butt;stroke-linejoin:miter;stroke-opacity:1" d="M 449.572,356.243 449.572,371.296 z" id="boundary" inkscape:connector-curvature="0" />
	<path style="fill:none;stroke:red;stroke-width:1px;stroke-linecap:butt;stroke-linejoin:miter;stroke-opacity:1" d="M 449.572,356.243 449.572,341.19 z" id="boundary" inkscape:connector-curvature="0" />
	<path style="fill:none;stroke:red;stroke-width:1px;stroke-linecap:butt;stroke-linejoin:miter;stroke-opacity:1" d="M 449.572,371.296 449.572,386.349 z" id="boundary" inkscape:connector-curvature="0" />
	<path style="fill:none;stroke:red;stroke-width:1px;stroke-linecap:butt;stroke-linejoin:miter;stroke-opacity:1" d="M 449.572,386.349 449.572,401.402 z" id="boundary" inkscape:connector-curvature="0" />
	<path style="fill:none;stroke:red;stroke-width:1px;stroke-linecap:butt;stroke-linejoin:miter;stroke-opacity:1" d="M 449.572,401.402 449.572,416.455 z" id="boundary" inkscape:connector-curvature="0" />
	<path style="fill:none;stroke:red;stroke-width:1px;stroke-linecap:butt;stroke-linejoin:miter;stroke-opacity:1" d="M 449.572,416.455 449.572,431.508 z" id="boundary" inkscape:connector-curvature="0" />
	<path style="fill:none;stroke:red;stroke-width:1px;stroke-linecap:butt;stroke-linejoin:miter;stroke-opacity:1" d="M 449.572,446.561 449.572,431.508 z" id="boundary" inkscape:connector-curvature="0" />
	<path style="fill:none;stroke:red;stroke-width:1px;stroke-linecap:butt;stroke-linejoin:miter;stroke-opacity:1" d="M 457.099,475.162 449.572,461.615 z" id="boundary" inkscape:connector-curvature="0" />
	<path style="fill:none;stroke:red;stroke-width:1px;stroke-linecap:butt;stroke-linejoin:miter;stroke-opacity:1" d="M 449.572,461.615 449.572,446.561 z" id="boundary" inkscape:connector-curvature="0" />
	<path style="fill:none;stroke:red;stroke-width:1px;stroke-linecap:butt;stroke-linejoin:miter;stroke-opacity:1" d="M 457.099,475.162 457.099,490.215 z" id="boundary" inkscape:connector-curvature="0" />
	<path style="fill:none;stroke:red;stroke-width:1px;stroke-linecap:butt;stroke-linejoin:miter;stroke-opacity:1" d="M 457.099,505.269 457.099,490.215 z" id="boundary" inkscape:connector-curvature="0" />
	<path style="fill:none;stroke:red;stroke-width:1px;stroke-linecap:butt;stroke-linejoin:miter;stroke-opacity:1" d="M 464.625,518.816 457.099,505.269 z" id="boundary" inkscape:connector-curvature="0" />
	<path style="fill:none;stroke:red;stroke-width:1px;stroke-linecap:butt;stroke-linejoin:miter;stroke-opacity:1" d="M 464.625,518.816 472.152,532.364 z" id="boundary" inkscape:connector-curvature="0" />
	<path style="fill:none;stroke:red;stroke-width:1px;stroke-linecap:butt;stroke-linejoin:miter;stroke-opacity:1" d="M 472.152,532.364 472.152,547.417 z" id="boundary" inkscape:connector-curvature="0" />
	<path style="fill:none;stroke:red;stroke-width:1px;stroke-linecap:butt;stroke-linejoin:miter;stroke-opacity:1" d="M 472.152,547.417 479.678,560.965 z" id="boundary" inkscape:connector-curvature="0" />
	<path style="fill:none;stroke:red;stroke-width:1px;stroke-linecap:butt;stroke-linejoin:miter;stroke-opacity:1" d="M 479.678,576.018 479.678,560.965 z" id="boundary" inkscape:connector-curvature="0" />
	<path style="fill:none;stroke:red;stroke-width:1px;stroke-linecap:butt;stroke-linejoin:miter;stroke-opacity:1" d="M 487.205,589.566 479.678,576.018 z" id="boundary" inkscape:connector-curvature="0" />
	<path style="fill:none;stroke:red;stroke-width:1px;stroke-linecap:butt;stroke-linejoin:miter;stroke-opacity:1" d="M 487.205,589.566 487.205,604.619 z" id="boundary" inkscape:connector-curvature="0" />
	<path style="fill:none;stroke:red;stroke-width:1px;stroke-linecap:butt;stroke-linejoin:miter;stroke-opacity:1" d="M 502.258,606.124 487.205,604.619 z" id="boundary" inkscape:connector-curvature="0" />
	<path style="fill:none;stroke:red;stroke-width:1px;stroke-linecap:butt;stroke-linejoin:miter;stroke-opacity:1" d="M 509.785,591.071 502.258,606.124 z" id="boundary" inkscape:connector-curvature="0" />
	<path style="fill:none;stroke:red;stroke-width:1px;stroke-linecap:butt;stroke-linejoin:miter;stroke-opacity:1" d="M 402.907,928.261 389.36,935.788 z" id="boundary" inkscape:connector-curvature="0" />
	<path style="fill:none;stroke:red;stroke-width:1px;stroke-linecap:butt;stroke-linejoin:miter;stroke-opacity:1" d="M 297.536,996 312.589,996 z" id="boundary" inkscape:connector-curvature="0" />
	<path style="fill:none;stroke:red;stroke-width:1px;stroke-linecap:butt;stroke-linejoin:miter;stroke-opacity:1" d="M 327.642,996 312.589,996 z" id="boundary" inkscape:connector-curvature="0" />
	<path style="fill:none;stroke:red;stroke-width:1px;stroke-linecap:butt;stroke-linejoin:miter;stroke-opacity:1" d="M 297.536,996 282.483,996 z" id="boundary" inkscape:connector-curvature="0" />
	<path style="fill:none;stroke:red;stroke-width:1px;stroke-linecap:butt;stroke-linejoin:miter;stroke-opacity:1" d="M 389.36,950.841 381.833,973.42 z" id="boundary" inkscape:connector-curvature="0" />
	<path style="fill:none;stroke:red;stroke-width:1px;stroke-linecap:butt;stroke-linejoin:miter;stroke-opacity:1" d="M 342.695,996 357.748,996 z" id="boundary" inkscape:connector-curvature="0" />
	<path style="fill:none;stroke:red;stroke-width:1px;stroke-linecap:butt;stroke-linejoin:miter;stroke-opacity:1" d="M 372.801,991.484 381.833,973.42 z" id="boundary" inkscape:connector-curvature="0" />
	<path style="fill:none;stroke:red;stroke-width:1px;stroke-linecap:butt;stroke-linejoin:miter;stroke-opacity:1" d="M 372.801,991.484 357.748,996 z" id="boundary" inkscape:connector-curvature="0" />
	<path style="fill:none;stroke:red;stroke-width:1px;stroke-linecap:butt;stroke-linejoin:miter;stroke-opacity:1" d="M 389.36,935.788 389.36,950.841 z" id="boundary" inkscape:connector-curvature="0" />
	<path style="fill:none;stroke:red;stroke-width:1px;stroke-linecap:butt;stroke-linejoin:miter;stroke-opacity:1" d="M 342.695,996 327.642,996 z" id="boundary" inkscape:connector-curvature="0" />
	<path style="fill:none;stroke:red;stroke-width:1px;stroke-linecap:butt;stroke-linejoin:miter;stroke-opacity:1" d="M 476.668,872.564 461.615,880.091 z" id="boundary" inkscape:connector-curvature="0" />
	<path style="fill:none;stroke:red;stroke-width:1px;stroke-linecap:butt;stroke-linejoin:miter;stroke-opacity:1" d="M 461.615,880.091 449.572,890.628 z" id="boundary" inkscape:connector-curvature="0" />
	<path style="fill:none;stroke:red;stroke-width:1px;stroke-linecap:butt;stroke-linejoin:miter;stroke-opacity:1" d="M 487.205,860.522 476.668,872.564 z" id="boundary" inkscape:connector-curvature="0" />
	<path style="fill:none;stroke:red;stroke-width:1px;stroke-linecap:butt;stroke-linejoin:miter;stroke-opacity:1" d="M 487.205,845.469 487.205,860.522 z" id="boundary" inkscape:connector-curvature="0" />
	<path style="fill:none;stroke:red;stroke-width:1px;stroke-linecap:butt;stroke-linejoin:miter;stroke-opacity:1" d="M 502.258,830.416 487.205,845.469 z" id="boundary" inkscape:connector-curvature="0" />
	<path style="fill:none;stroke:red;stroke-width:1px;stroke-linecap:butt;stroke-linejoin:miter;stroke-opacity:1" d="M 509.785,815.363 502.258,830.416 z" id="boundary" inkscape:connector-curvature="0" />
	<path style="fill:none;stroke:red;stroke-width:1px;stroke-linecap:butt;stroke-linejoin:miter;stroke-opacity:1" d="M 426.992,905.681 414.95,919.229 z" id="boundary" inkscape:connector-curvature="0" />
	<path style="fill:none;stroke:red;stroke-width:1px;stroke-linecap:butt;stroke-linejoin:miter;stroke-opacity:1" d="M 414.95,919.229 402.907,928.261 z" id="boundary" inkscape:connector-curvature="0" />
	<path style="fill:none;stroke:red;stroke-width:1px;stroke-linecap:butt;stroke-linejoin:miter;stroke-opacity:1" d="M 426.992,905.681 442.046,905.681 z" id="boundary" inkscape:connector-curvature="0" />
	<path style="fill:none;stroke:red;stroke-width:1px;stroke-linecap:butt;stroke-linejoin:miter;stroke-opacity:1" d="M 442.046,905.681 449.572,890.628 z" id="boundary" inkscape:connector-curvature="0" />
	<path style="fill:none;stroke:red;stroke-width:1px;stroke-linecap:butt;stroke-linejoin:miter;stroke-opacity:1" d="M 553.439,442.046 545.912,457.099 z" id="boundary" inkscape:connector-curvature="0" />
	<path style="fill:none;stroke:red;stroke-width:1px;stroke-linecap:butt;stroke-linejoin:miter;stroke-opacity:1" d="M 576.018,396.886 591.071,392.37 z" id="boundary" inkscape:connector-curvature="0" />
	<path style="fill:none;stroke:red;stroke-width:1px;stroke-linecap:butt;stroke-linejoin:miter;stroke-opacity:1" d="M 560.965,426.992 573.008,414.95 z" id="boundary" inkscape:connector-curvature="0" />
	<path style="fill:none;stroke:red;stroke-width:1px;stroke-linecap:butt;stroke-linejoin:miter;stroke-opacity:1" d="M 573.008,414.95 576.018,396.886 z" id="boundary" inkscape:connector-curvature="0" />
	<path style="fill:none;stroke:red;stroke-width:1px;stroke-linecap:butt;stroke-linejoin:miter;stroke-opacity:1" d="M 553.439,442.046 560.965,426.992 z" id="boundary" inkscape:connector-curvature="0" />
	<path style="fill:none;stroke:red;stroke-width:1px;stroke-linecap:butt;stroke-linejoin:miter;stroke-opacity:1" d="M 545.912,472.152 545.912,457.099 z" id="boundary" inkscape:connector-curvature="0" />
	<path style="fill:none;stroke:red;stroke-width:1px;stroke-linecap:butt;stroke-linejoin:miter;stroke-opacity:1" d="M 545.912,472.152 545.912,487.205 z" id="boundary" inkscape:connector-curvature="0" />
	<path style="fill:none;stroke:red;stroke-width:1px;stroke-linecap:butt;stroke-linejoin:miter;stroke-opacity:1" d="M 538.385,502.258 545.912,487.205 z" id="boundary" inkscape:connector-curvature="0" />
	<path style="fill:none;stroke:red;stroke-width:1px;stroke-linecap:butt;stroke-linejoin:miter;stroke-opacity:1" d="M 538.385,502.258 530.859,524.838 z" id="boundary" inkscape:connector-curvature="0" />
	<path style="fill:none;stroke:red;stroke-width:1px;stroke-linecap:butt;stroke-linejoin:miter;stroke-opacity:1" d="M 530.859,539.891 530.859,524.838 z" id="boundary" inkscape:connector-curvature="0" />
	<path style="fill:none;stroke:red;stroke-width:1px;stroke-linecap:butt;stroke-linejoin:miter;stroke-opacity:1" d="M 591.071,392.37 606.124,392.37 z" id="boundary" inkscape:connector-curvature="0" />
	<path style="fill:none;stroke:red;stroke-width:1px;stroke-linecap:butt;stroke-linejoin:miter;stroke-opacity:1" d="M 621.178,387.854 630.209,399.897 z" id="boundary" inkscape:connector-curvature="0" />
	<path style="fill:none;stroke:red;stroke-width:1px;stroke-linecap:butt;stroke-linejoin:miter;stroke-opacity:1" d="M 606.124,392.37 621.178,387.854 z" id="boundary" inkscape:connector-curvature="0" />
	<path style="fill:none;stroke:red;stroke-width:1px;stroke-linecap:butt;stroke-linejoin:miter;stroke-opacity:1" d="M 630.209,399.897 637.736,413.445 z" id="boundary" inkscape:connector-curvature="0" />
	<path style="fill:none;stroke:red;stroke-width:1px;stroke-linecap:butt;stroke-linejoin:miter;stroke-opacity:1" d="M 637.736,413.445 645.263,426.992 z" id="boundary" inkscape:connector-curvature="0" />
	<path style="fill:none;stroke:red;stroke-width:1px;stroke-linecap:butt;stroke-linejoin:miter;stroke-opacity:1" d="M 645.263,426.992 637.736,454.088 z" id="boundary" inkscape:connector-curvature="0" />
	<path style="fill:none;stroke:red;stroke-width:1px;stroke-linecap:butt;stroke-linejoin:miter;stroke-opacity:1" d="M 637.736,469.141 630.209,484.194 z" id="boundary" inkscape:connector-curvature="0" />
	<path style="fill:none;stroke:red;stroke-width:1px;stroke-linecap:butt;stroke-linejoin:miter;stroke-opacity:1" d="M 630.209,484.194 630.209,499.247 z" id="boundary" inkscape:connector-curvature="0" />
	<path style="fill:none;stroke:red;stroke-width:1px;stroke-linecap:butt;stroke-linejoin:miter;stroke-opacity:1" d="M 630.209,499.247 630.209,514.3 z" id="boundary" inkscape:connector-curvature="0" />
	<path style="fill:none;stroke:red;stroke-width:1px;stroke-linecap:butt;stroke-linejoin:miter;stroke-opacity:1" d="M 630.209,514.3 630.209,529.354 z" id="boundary" inkscape:connector-curvature="0" />
	<path style="fill:none;stroke:red;stroke-width:1px;stroke-linecap:butt;stroke-linejoin:miter;stroke-opacity:1" d="M 630.209,529.354 630.209,544.407 z" id="boundary" inkscape:connector-curvature="0" />
	<path style="fill:none;stroke:red;stroke-width:1px;stroke-linecap:butt;stroke-linejoin:miter;stroke-opacity:1" d="M 637.736,469.141 637.736,454.088 z" id="boundary" inkscape:connector-curvature="0" />
	<path style="fill:none;stroke:red;stroke-width:1px;stroke-linecap:butt;stroke-linejoin:miter;stroke-opacity:1" d="M 509.785,591.071 517.311,576.018 z" id="boundary" inkscape:connector-curvature="0" />
	<path style="fill:none;stroke:red;stroke-width:1px;stroke-linecap:butt;stroke-linejoin:miter;stroke-opacity:1" d="M 530.859,539.891 523.332,554.944 z" id="boundary" inkscape:connector-curvature="0" />
	<path style="fill:none;stroke:red;stroke-width:1px;stroke-linecap:butt;stroke-linejoin:miter;stroke-opacity:1" d="M 517.311,576.018 523.332,554.944 z" id="boundary" inkscape:connector-curvature="0" />
	<path style="fill:none;stroke:red;stroke-width:1px;stroke-linecap:butt;stroke-linejoin:miter;stroke-opacity:1" d="M 544.407,759.666 536.88,774.719 z" id="boundary" inkscape:connector-curvature="0" />
	<path style="fill:none;stroke:red;stroke-width:1px;stroke-linecap:butt;stroke-linejoin:miter;stroke-opacity:1" d="M 536.88,774.719 524.838,785.256 z" id="boundary" inkscape:connector-curvature="0" />
	<path style="fill:none;stroke:red;stroke-width:1px;stroke-linecap:butt;stroke-linejoin:miter;stroke-opacity:1" d="M 517.311,800.31 524.838,785.256 z" id="boundary" inkscape:connector-curvature="0" />
	<path style="fill:none;stroke:red;stroke-width:1px;stroke-linecap:butt;stroke-linejoin:miter;stroke-opacity:1" d="M 517.311,800.31 509.785,815.363 z" id="boundary" inkscape:connector-curvature="0" />
	<path style="fill:none;stroke:red;stroke-width:1px;stroke-linecap:butt;stroke-linejoin:miter;stroke-opacity:1" d="M 574.513,722.033 562.47,732.571 z" id="boundary" inkscape:connector-curvature="0" />
	<path style="fill:none;stroke:red;stroke-width:1px;stroke-linecap:butt;stroke-linejoin:miter;stroke-opacity:1" d="M 551.933,744.613 562.47,732.571 z" id="boundary" inkscape:connector-curvature="0" />
	<path style="fill:none;stroke:red;stroke-width:1px;stroke-linecap:butt;stroke-linejoin:miter;stroke-opacity:1" d="M 551.933,744.613 544.407,759.666 z" id="boundary" inkscape:connector-curvature="0" />
	<path style="fill:none;stroke:red;stroke-width:1px;stroke-linecap:butt;stroke-linejoin:miter;stroke-opacity:1" d="M 577.524,694.938 574.513,722.033 z" id="boundary" inkscape:connector-curvature="0" />
	<path style="fill:none;stroke:red;stroke-width:1px;stroke-linecap:butt;stroke-linejoin:miter;stroke-opacity:1" d="M 615.156,597.093 607.63,612.146 z" id="boundary" inkscape:connector-curvature="0" />
	<path style="fill:none;stroke:red;stroke-width:1px;stroke-linecap:butt;stroke-linejoin:miter;stroke-opacity:1" d="M 615.156,582.039 615.156,597.093 z" id="boundary" inkscape:connector-curvature="0" />
	<path style="fill:none;stroke:red;stroke-width:1px;stroke-linecap:butt;stroke-linejoin:miter;stroke-opacity:1" d="M 607.63,612.146 600.103,627.199 z" id="boundary" inkscape:connector-curvature="0" />
	<path style="fill:none;stroke:red;stroke-width:1px;stroke-linecap:butt;stroke-linejoin:miter;stroke-opacity:1" d="M 585.05,672.358 592.577,649.778 z" id="boundary" inkscape:connector-curvature="0" />
	<path style="fill:none;stroke:red;stroke-width:1px;stroke-linecap:butt;stroke-linejoin:miter;stroke-opacity:1" d="M 600.103,627.199 592.577,649.778 z" id="boundary" inkscape:connector-curvature="0" />
	<path style="fill:none;stroke:red;stroke-width:1px;stroke-linecap:butt;stroke-linejoin:miter;stroke-opacity:1" d="M 585.05,672.358 577.524,694.938 z" id="boundary" inkscape:connector-curvature="0" />
	<path style="fill:none;stroke:red;stroke-width:1px;stroke-linecap:butt;stroke-linejoin:miter;stroke-opacity:1" d="M 622.683,559.46 630.209,544.407 z" id="boundary" inkscape:connector-curvature="0" />
	<path style="fill:none;stroke:red;stroke-width:1px;stroke-linecap:butt;stroke-linejoin:miter;stroke-opacity:1" d="M 622.683,559.46 615.156,582.039 z" id="boundary" inkscape:connector-curvature="0" />
	<circle cx="4" cy="253.882" r="4" fill="#0" id="circle0"/>
	<circle cx="4" cy="268.935" r="4" fill="#0" id="circle1"/>
	<circle cx="4" cy="283.988" r="4" fill="#0" id="circle2"/>
	<circle cx="11.5266" cy="238.829" r="4" fill="#0" id="circle3"/>
	<circle cx="11.5266" cy="297.536" r="4" fill="#0" id="circle4"/>
	<circle cx="11.5266" cy="312.589" r="4" fill="#0" id="circle5"/>
	<circle cx="11.5266" cy="327.642" r="4" fill="#0" id="circle6"/>
	<circle cx="11.5266" cy="342.695" r="4" fill="#0" id="circle7"/>
	<circle cx="19.0531" cy="223.775" r="4" fill="#0" id="circle8"/>
	<circle cx="19.0531" cy="356.243" r="4" fill="#0" id="circle9"/>
	<circle cx="19.0531" cy="371.296" r="4" fill="#0" id="circle10"/>
	<circle cx="23.569" cy="386.349" r="4" fill="#0" id="circle11"/>
	<circle cx="26.5797" cy="208.722" r="4" fill="#0" id="circle12"/>
	<circle cx="26.5797" cy="401.402" r="4" fill="#0" id="circle13"/>
	<circle cx="31.0956" cy="416.455" r="4" fill="#0" id="circle14"/>
	<circle cx="34.1062" cy="431.508" r="4" fill="#0" id="circle15"/>
	<circle cx="38.6222" cy="196.68" r="4" fill="#0" id="circle16"/>
	<circle cx="38.6222" cy="446.561" r="4" fill="#0" id="circle17"/>
	<circle cx="46.1487" cy="460.109" r="4" fill="#0" id="circle18"/>
	<circle cx="49.1593" cy="208.722" r="4" fill="#0" id="circle19"/>
	<circle cx="49.1593" cy="475.162" r="4" fill="#0" id="circle20"/>
	<circle cx="49.1593" cy="490.215" r="4" fill="#0" id="circle21"/>
	<circle cx="49.1593" cy="505.269" r="4" fill="#0" id="circle22"/>
	<circle cx="56.6859" cy="518.816" r="4" fill="#0" id="circle23"/>
	<circle cx="56.6859" cy="533.869" r="4" fill="#0" id="circle24"/>
	<circle cx="56.6859" cy="548.923" r="4" fill="#0" id="circle25"/>
	<circle cx="56.6859" cy="563.976" r="4" fill="#0" id="circle26"/>
	<circle cx="56.6859" cy="579.029" r="4" fill="#0" id="circle27"/>
	<circle cx="64.2124" cy="214.744" r="4" fill="#0" id="circle28"/>
	<circle cx="64.2124" cy="592.577" r="4" fill="#0" id="circle29"/>
	<circle cx="64.2124" cy="607.63" r="4" fill="#0" id="circle30"/>
	<circle cx="64.2124" cy="622.683" r="4" fill="#0" id="circle31"/>
	<circle cx="64.2124" cy="637.736" r="4" fill="#0" id="circle32"/>
	<circle cx="64.2124" cy="652.789" r="4" fill="#0" id="circle33"/>
	<circle cx="64.2124" cy="667.842" r="4" fill="#0" id="circle34"/>
	<circle cx="64.2124" cy="682.895" r="4" fill="#0" id="circle35"/>
	<circle cx="64.2124" cy="697.948" r="4" fill="#0" id="circle36"/>
	<circle cx="64.2124" cy="713.002" r="4" fill="#0" id="circle37"/>
	<circle cx="64.2124" cy="728.055" r="4" fill="#0" id="circle38"/>
	<circle cx="64.2124" cy="743.108" r="4" fill="#0" id="circle39"/>
	<circle cx="64.2124" cy="758.161" r="4" fill="#0" id="circle40"/>
	<circle cx="64.2124" cy="773.214" r="4" fill="#0" id="circle41"/>
	<circle cx="64.2124" cy="788.267" r="4" fill="#0" id="circle42"/>
	<circle cx="65.7178" cy="229.797" r="4" fill="#0" id="circle43"/>
	<circle cx="65.7178" cy="244.85" r="4" fill="#0" id="circle44"/>
	<circle cx="71.739" cy="801.815" r="4" fill="#0" id="circle45"/>
	<circle cx="71.739" cy="991.484" r="4" fill="#0" id="circle46"/>
	<circle cx="73.2443" cy="258.398" r="4" fill="#0" id="circle47"/>
	<circle cx="73.2443" cy="273.451" r="4" fill="#0" id="circle48"/>
	<circle cx="73.2443" cy="288.504" r="4" fill="#0" id="circle49"/>
	<circle cx="79.2656" cy="815.363" r="4" fill="#0" id="circle50"/>
	<circle cx="79.2656" cy="968.904" r="4" fill="#0" id="circle51"/>
	<circle cx="80.7709" cy="302.052" r="4" fill="#0" id="circle52"/>
	<circle cx="80.7709" cy="317.105" r="4" fill="#0" id="circle53"/>
	<circle cx="80.7709" cy="332.158" r="4" fill="#0" id="circle54"/>
	<circle cx="83.7815" cy="830.416" r="4" fill="#0" id="circle55"/>
	<circle cx="86.7921" cy="938.798" r="4" fill="#0" id="circle56"/>
	<circle cx="86.7921" cy="953.851" r="4" fill="#0" id="circle57"/>
	<circle cx="86.7921" cy="996" r="4" fill="#0" id="circle58"/>
	<circle cx="88.2974" cy="345.706" r="4" fill="#0" id="circle59"/>
	<circle cx="91.308" cy="843.964" r="4" fill="#0" id="circle60"/>
	<circle cx="94.3187" cy="859.017" r="4" fill="#0" id="circle61"/>
	<circle cx="94.3187" cy="874.07" r="4" fill="#0" id="circle62"/>
	<circle cx="94.3187" cy="889.123" r="4" fill="#0" id="circle63"/>
	<circle cx="94.3187" cy="904.176" r="4" fill="#0" id="circle64"/>
	<circle cx="94.3187" cy="919.229" r="4" fill="#0" id="circle65"/>
	<circle cx="95.824" cy="359.253" r="4" fill="#0" id="circle66"/>
	<circle cx="95.824" cy="374.307" r="4" fill="#0" id="circle67"/>
	<circle cx="101.845" cy="996" r="4" fill="#0" id="circle68"/>
	<circle cx="103.351" cy="387.854" r="4" fill="#0" id="circle69"/>
	<circle cx="107.866" cy="402.907" r="4" fill="#0" id="circle70"/>
	<circle cx="110.877" cy="417.961" r="4" fill="#0" id="circle71"/>
	<circle cx="116.898" cy="276.461" r="4" fill="#0" id="circle72"/>
	<circle cx="116.898" cy="291.514" r="4" fill="#0" id="circle73"/>
	<circle cx="116.898" cy="996" r="4" fill="#0" id="circle74"/>
	<circle cx="119.909" cy="430.003" r="4" fill="#0" id="circle75"/>
	<circle cx="124.425" cy="223.775" r="4" fill="#0" id="circle76"/>
	<circle cx="124.425" cy="238.829" r="4" fill="#0" id="circle77"/>
	<circle cx="124.425" cy="253.882" r="4" fill="#0" id="circle78"/>
	<circle cx="124.425" cy="305.062" r="4" fill="#0" id="circle79"/>
	<circle cx="124.425" cy="320.115" r="4" fill="#0" id="circle80"/>
	<circle cx="131.951" cy="140.983" r="4" fill="#0" id="circle81"/>
	<circle cx="131.951" cy="156.036" r="4" fill="#0" id="circle82"/>
	<circle cx="131.951" cy="171.09" r="4" fill="#0" id="circle83"/>
	<circle cx="131.951" cy="186.143" r="4" fill="#0" id="circle84"/>
	<circle cx="131.951" cy="201.196" r="4" fill="#0" id="circle85"/>
	<circle cx="131.951" cy="333.663" r="4" fill="#0" id="circle86"/>
	<circle cx="131.951" cy="348.716" r="4" fill="#0" id="circle87"/>
	<circle cx="131.951" cy="363.769" r="4" fill="#0" id="circle88"/>
	<circle cx="131.951" cy="378.822" r="4" fill="#0" id="circle89"/>
	<circle cx="131.951" cy="393.876" r="4" fill="#0" id="circle90"/>
	<circle cx="131.951" cy="408.929" r="4" fill="#0" id="circle91"/>
	<circle cx="131.951" cy="996" r="4" fill="#0" id="circle92"/>
	<circle cx="139.478" cy="103.351" r="4" fill="#0" id="circle93"/>
	<circle cx="139.478" cy="118.404" r="4" fill="#0" id="circle94"/>
	<circle cx="147.005" cy="996" r="4" fill="#0" id="circle95"/>
	<circle cx="151.52" cy="91.308" r="4" fill="#0" id="circle96"/>
	<circle cx="162.058" cy="73.2443" r="4" fill="#0" id="circle97"/>
	<circle cx="162.058" cy="996" r="4" fill="#0" id="circle98"/>
	<circle cx="174.1" cy="61.2018" r="4" fill="#0" id="circle99"/>
	<circle cx="177.111" cy="996" r="4" fill="#0" id="circle100"/>
	<circle cx="186.143" cy="49.1593" r="4" fill="#0" id="circle101"/>
	<circle cx="192.164" cy="996" r="4" fill="#0" id="circle102"/>
	<circle cx="193.669" cy="62.7071" r="4" fill="#0" id="circle103"/>
	<circle cx="201.196" cy="183.132" r="4" fill="#0" id="circle104"/>
	<circle cx="201.196" cy="198.185" r="4" fill="#0" id="circle105"/>
	<circle cx="201.196" cy="213.238" r="4" fill="#0" id="circle106"/>
	<circle cx="201.196" cy="228.291" r="4" fill="#0" id="circle107"/>
	<circle cx="201.196" cy="243.344" r="4" fill="#0" id="circle108"/>
	<circle cx="205.712" cy="71.739" r="4" fill="#0" id="circle109"/>
	<circle cx="207.217" cy="996" r="4" fill="#0" id="circle110"/>
	<circle cx="208.722" cy="130.446" r="4" fill="#0" id="circle111"/>
	<circle cx="208.722" cy="145.499" r="4" fill="#0" id="circle112"/>
	<circle cx="208.722" cy="160.552" r="4" fill="#0" id="circle113"/>
	<circle cx="208.722" cy="256.892" r="4" fill="#0" id="circle114"/>
	<circle cx="208.722" cy="271.945" r="4" fill="#0" id="circle115"/>
	<circle cx="208.722" cy="286.998" r="4" fill="#0" id="circle116"/>
	<circle cx="208.722" cy="302.052" r="4" fill="#0" id="circle117"/>
	<circle cx="208.722" cy="317.105" r="4" fill="#0" id="circle118"/>
	<circle cx="208.722" cy="332.158" r="4" fill="#0" id="circle119"/>
	<circle cx="213.238" cy="85.2868" r="4" fill="#0" id="circle120"/>
	<circle cx="216.249" cy="100.34" r="4" fill="#0" id="circle121"/>
	<circle cx="216.249" cy="115.393" r="4" fill="#0" id="circle122"/>
	<circle cx="216.249" cy="345.706" r="4" fill="#0" id="circle123"/>
	<circle cx="222.27" cy="996" r="4" fill="#0" id="circle124"/>
	<circle cx="223.775" cy="359.253" r="4" fill="#0" id="circle125"/>
	<circle cx="237.323" cy="314.094" r="4" fill="#0" id="circle126"/>
	<circle cx="237.323" cy="329.147" r="4" fill="#0" id="circle127"/>
	<circle cx="237.323" cy="344.2" r="4" fill="#0" id="circle128"/>
	<circle cx="237.323" cy="996" r="4" fill="#0" id="circle129"/>
	<circle cx="244.85" cy="201.196" r="4" fill="#0" id="circle130"/>
	<circle cx="244.85" cy="216.249" r="4" fill="#0" id="circle131"/>
	<circle cx="244.85" cy="231.302" r="4" fill="#0" id="circle132"/>
	<circle cx="244.85" cy="246.355" r="4" fill="#0" id="circle133"/>
	<circle cx="244.85" cy="261.408" r="4" fill="#0" id="circle134"/>
	<circle cx="244.85" cy="276.461" r="4" fill="#0" id="circle135"/>
	<circle cx="244.85" cy="291.514" r="4" fill="#0" id="circle136"/>
	<circle cx="252.376" cy="156.036" r="4" fill="#0" id="circle137"/>
	<circle cx="252.376" cy="171.09" r="4" fill="#0" id="circle138"/>
	<circle cx="252.376" cy="186.143" r="4" fill="#0" id="circle139"/>
	<circle cx="252.376" cy="996" r="4" fill="#0" id="circle140"/>
	<circle cx="259.903" cy="43.1381" r="4" fill="#0" id="circle141"/>
	<circle cx="259.903" cy="58.1912" r="4" fill="#0" id="circle142"/>
	<circle cx="259.903" cy="73.2443" r="4" fill="#0" id="circle143"/>
	<circle cx="259.903" cy="88.2974" r="4" fill="#0" id="circle144"/>
	<circle cx="259.903" cy="103.351" r="4" fill="#0" id="circle145"/>
	<circle cx="259.903" cy="118.404" r="4" fill="#0" id="circle146"/>
	<circle cx="259.903" cy="133.457" r="4" fill="#0" id="circle147"/>
	<circle cx="267.429" cy="996" r="4" fill="#0" id="circle148"/>
	<circle cx="271.945" cy="31.0956" r="4" fill="#0" id="circle149"/>
	<circle cx="279.472" cy="16.0425" r="4" fill="#0" id="circle150"/>
	<circle cx="282.483" cy="996" r="4" fill="#0" id="circle151"/>
	<circle cx="291.514" cy="4" r="4" fill="#0" id="circle152"/>
	<circle cx="297.536" cy="996" r="4" fill="#0" id="circle153"/>
	<circle cx="306.568" cy="8.51593" r="4" fill="#0" id="circle154"/>
	<circle cx="312.589" cy="996" r="4" fill="#0" id="circle155"/>
	<circle cx="318.61" cy="17.5478" r="4" fill="#0" id="circle156"/>
	<circle cx="321.621" cy="32.6009" r="4" fill="#0" id="circle157"/>
	<circle cx="321.621" cy="265.924" r="4" fill="#0" id="circle158"/>
	<circle cx="321.621" cy="280.977" r="4" fill="#0" id="circle159"/>
	<circle cx="321.621" cy="296.03" r="4" fill="#0" id="circle160"/>
	<circle cx="321.621" cy="311.083" r="4" fill="#0" id="circle161"/>
	<circle cx="321.621" cy="326.137" r="4" fill="#0" id="circle162"/>
	<circle cx="321.621" cy="341.19" r="4" fill="#0" id="circle163"/>
	<circle cx="327.642" cy="996" r="4" fill="#0" id="circle164"/>
	<circle cx="329.147" cy="160.552" r="4" fill="#0" id="circle165"/>
	<circle cx="329.147" cy="175.605" r="4" fill="#0" id="circle166"/>
	<circle cx="329.147" cy="190.659" r="4" fill="#0" id="circle167"/>
	<circle cx="329.147" cy="205.712" r="4" fill="#0" id="circle168"/>
	<circle cx="329.147" cy="220.765" r="4" fill="#0" id="circle169"/>
	<circle cx="329.147" cy="235.818" r="4" fill="#0" id="circle170"/>
	<circle cx="329.147" cy="250.871" r="4" fill="#0" id="circle171"/>
	<circle cx="329.147" cy="354.737" r="4" fill="#0" id="circle172"/>
	<circle cx="329.147" cy="369.791" r="4" fill="#0" id="circle173"/>
	<circle cx="333.663" cy="41.6328" r="4" fill="#0" id="circle174"/>
	<circle cx="336.674" cy="56.6859" r="4" fill="#0" id="circle175"/>
	<circle cx="336.674" cy="71.739" r="4" fill="#0" id="circle176"/>
	<circle cx="336.674" cy="86.7921" r="4" fill="#0" id="circle177"/>
	<circle cx="336.674" cy="101.845" r="4" fill="#0" id="circle178"/>
	<circle cx="336.674" cy="116.898" r="4" fill="#0" id="circle179"/>
	<circle cx="336.674" cy="131.951" r="4" fill="#0" id="circle180"/>
	<circle cx="336.674" cy="147.005" r="4" fill="#0" id="circle181"/>
	<circle cx="336.674" cy="383.338" r="4" fill="#0" id="circle182"/>
	<circle cx="342.695" cy="996" r="4" fill="#0" id="circle183"/>
	<circle cx="350.222" cy="359.253" r="4" fill="#0" id="circle184"/>
	<circle cx="350.222" cy="374.307" r="4" fill="#0" id="circle185"/>
	<circle cx="357.748" cy="336.674" r="4" fill="#0" id="circle186"/>
	<circle cx="357.748" cy="996" r="4" fill="#0" id="circle187"/>
	<circle cx="365.275" cy="238.829" r="4" fill="#0" id="circle188"/>
	<circle cx="365.275" cy="253.882" r="4" fill="#0" id="circle189"/>
	<circle cx="365.275" cy="268.935" r="4" fill="#0" id="circle190"/>
	<circle cx="365.275" cy="283.988" r="4" fill="#0" id="circle191"/>
	<circle cx="365.275" cy="299.041" r="4" fill="#0" id="circle192"/>
	<circle cx="365.275" cy="314.094" r="4" fill="#0" id="circle193"/>
	<circle cx="372.801" cy="186.143" r="4" fill="#0" id="circle194"/>
	<circle cx="372.801" cy="201.196" r="4" fill="#0" id="circle195"/>
	<circle cx="372.801" cy="216.249" r="4" fill="#0" id="circle196"/>
	<circle cx="372.801" cy="991.484" r="4" fill="#0" id="circle197"/>
	<circle cx="380.328" cy="88.2974" r="4" fill="#0" id="circle198"/>
	<circle cx="380.328" cy="103.351" r="4" fill="#0" id="circle199"/>
	<circle cx="380.328" cy="118.404" r="4" fill="#0" id="circle200"/>
	<circle cx="380.328" cy="133.457" r="4" fill="#0" id="circle201"/>
	<circle cx="380.328" cy="148.51" r="4" fill="#0" id="circle202"/>
	<circle cx="380.328" cy="163.563" r="4" fill="#0" id="circle203"/>
	<circle cx="381.833" cy="973.42" r="4" fill="#0" id="circle204"/>
	<circle cx="387.854" cy="73.2443" r="4" fill="#0" id="circle205"/>
	<circle cx="389.36" cy="935.788" r="4" fill="#0" id="circle206"/>
	<circle cx="389.36" cy="950.841" r="4" fill="#0" id="circle207"/>
	<circle cx="402.907" cy="65.7178" r="4" fill="#0" id="circle208"/>
	<circle cx="402.907" cy="928.261" r="4" fill="#0" id="circle209"/>
	<circle cx="414.95" cy="53.6753" r="4" fill="#0" id="circle210"/>
	<circle cx="414.95" cy="919.229" r="4" fill="#0" id="circle211"/>
	<circle cx="426.992" cy="905.681" r="4" fill="#0" id="circle212"/>
	<circle cx="428.498" cy="61.2018" r="4" fill="#0" id="circle213"/>
	<circle cx="440.54" cy="71.739" r="4" fill="#0" id="circle214"/>
	<circle cx="442.046" cy="86.7921" r="4" fill="#0" id="circle215"/>
	<circle cx="442.046" cy="905.681" r="4" fill="#0" id="circle216"/>
	<circle cx="449.572" cy="100.34" r="4" fill="#0" id="circle217"/>
	<circle cx="449.572" cy="280.977" r="4" fill="#0" id="circle218"/>
	<circle cx="449.572" cy="296.03" r="4" fill="#0" id="circle219"/>
	<circle cx="449.572" cy="311.083" r="4" fill="#0" id="circle220"/>
	<circle cx="449.572" cy="326.137" r="4" fill="#0" id="circle221"/>
	<circle cx="449.572" cy="341.19" r="4" fill="#0" id="circle222"/>
	<circle cx="449.572" cy="356.243" r="4" fill="#0" id="circle223"/>
	<circle cx="449.572" cy="371.296" r="4" fill="#0" id="circle224"/>
	<circle cx="449.572" cy="386.349" r="4" fill="#0" id="circle225"/>
	<circle cx="449.572" cy="401.402" r="4" fill="#0" id="circle226"/>
	<circle cx="449.572" cy="416.455" r="4" fill="#0" id="circle227"/>
	<circle cx="449.572" cy="431.508" r="4" fill="#0" id="circle228"/>
	<circle cx="449.572" cy="446.561" r="4" fill="#0" id="circle229"/>
	<circle cx="449.572" cy="461.615" r="4" fill="#0" id="circle230"/>
	<circle cx="449.572" cy="890.628" r="4" fill="#0" id="circle231"/>
	<circle cx="452.583" cy="115.393" r="4" fill="#0" id="circle232"/>
	<circle cx="457.099" cy="130.446" r="4" fill="#0" id="circle233"/>
	<circle cx="457.099" cy="145.499" r="4" fill="#0" id="circle234"/>
	<circle cx="457.099" cy="160.552" r="4" fill="#0" id="circle235"/>
	<circle cx="457.099" cy="175.605" r="4" fill="#0" id="circle236"/>
	<circle cx="457.099" cy="190.659" r="4" fill="#0" id="circle237"/>
	<circle cx="457.099" cy="205.712" r="4" fill="#0" id="circle238"/>
	<circle cx="457.099" cy="220.765" r="4" fill="#0" id="circle239"/>
	<circle cx="457.099" cy="235.818" r="4" fill="#0" id="circle240"/>
	<circle cx="457.099" cy="250.871" r="4" fill="#0" id="circle241"/>
	<circle cx="457.099" cy="265.924" r="4" fill="#0" id="circle242"/>
	<circle cx="457.099" cy="475.162" r="4" fill="#0" id="circle243"/>
	<circle cx="457.099" cy="490.215" r="4" fill="#0" id="circle244"/>
	<circle cx="457.099" cy="505.269" r="4" fill="#0" id="circle245"/>
	<circle cx="461.615" cy="880.091" r="4" fill="#0" id="circle246"/>
	<circle cx="464.625" cy="518.816" r="4" fill="#0" id="circle247"/>
	<circle cx="472.152" cy="532.364" r="4" fill="#0" id="circle248"/>
	<circle cx="472.152" cy="547.417" r="4" fill="#0" id="circle249"/>
	<circle cx="476.668" cy="872.564" r="4" fill="#0" id="circle250"/>
	<circle cx="479.678" cy="560.965" r="4" fill="#0" id="circle251"/>
	<circle cx="479.678" cy="576.018" r="4" fill="#0" id="circle252"/>
	<circle cx="487.205" cy="589.566" r="4" fill="#0" id="circle253"/>
	<circle cx="487.205" cy="604.619" r="4" fill="#0" id="circle254"/>
	<circle cx="487.205" cy="845.469" r="4" fill="#0" id="circle255"/>
	<circle cx="487.205" cy="860.522" r="4" fill="#0" id="circle256"/>
	<circle cx="502.258" cy="606.124" r="4" fill="#0" id="circle257"/>
	<circle cx="502.258" cy="830.416" r="4" fill="#0" id="circle258"/>
	<circle cx="509.785" cy="591.071" r="4" fill="#0" id="circle259"/>
	<circle cx="509.785" cy="815.363" r="4" fill="#0" id="circle260"/>
	<circle cx="517.311" cy="576.018" r="4" fill="#0" id="circle261"/>
	<circle cx="517.311" cy="800.31" r="4" fill="#0" id="circle262"/>
	<circle cx="523.332" cy="554.944" r="4" fill="#0" id="circle263"/>
	<circle cx="524.838" cy="785.256" r="4" fill="#0" id="circle264"/>
	<circle cx="530.859" cy="524.838" r="4" fill="#0" id="circle265"/>
	<circle cx="530.859" cy="539.891" r="4" fill="#0" id="circle266"/>
	<circle cx="536.88" cy="774.719" r="4" fill="#0" id="circle267"/>
	<circle cx="538.385" cy="502.258" r="4" fill="#0" id="circle268"/>
	<circle cx="544.407" cy="759.666" r="4" fill="#0" id="circle269"/>
	<circle cx="545.912" cy="457.099" r="4" fill="#0" id="circle270"/>
	<circle cx="545.912" cy="472.152" r="4" fill="#0" id="circle271"/>
	<circle cx="545.912" cy="487.205" r="4" fill="#0" id="circle272"/>
	<circle cx="551.933" cy="744.613" r="4" fill="#0" id="circle273"/>
	<circle cx="553.439" cy="442.046" r="4" fill="#0" id="circle274"/>
	<circle cx="560.965" cy="426.992" r="4" fill="#0" id="circle275"/>
	<circle cx="562.47" cy="732.571" r="4" fill="#0" id="circle276"/>
	<circle cx="573.008" cy="414.95" r="4" fill="#0" id="circle277"/>
	<circle cx="574.513" cy="722.033" r="4" fill="#0" id="circle278"/>
	<circle cx="576.018" cy="396.886" r="4" fill="#0" id="circle279"/>
	<circle cx="577.524" cy="694.938" r="4" fill="#0" id="circle280"/>
	<circle cx="585.05" cy="672.358" r="4" fill="#0" id="circle281"/>
	<circle cx="591.071" cy="392.37" r="4" fill="#0" id="circle282"/>
	<circle cx="592.577" cy="649.778" r="4" fill="#0" id="circle283"/>
	<circle cx="600.103" cy="627.199" r="4" fill="#0" id="circle284"/>
	<circle cx="606.124" cy="392.37" r="4" fill="#0" id="circle285"/>
	<circle cx="607.63" cy="612.146" r="4" fill="#0" id="circle286"/>
	<circle cx="615.156" cy="582.039" r="4" fill="#0" id="circle287"/>
	<circle cx="615.156" cy="597.093" r="4" fill="#0" id="circle288"/>
	<circle cx="621.178" cy="387.854" r="4" fill="#0" id="circle289"/>
	<circle cx="622.683" cy="559.46" r="4" fill="#0" id="circle290"/>
	<circle cx="630.209" cy="399.897" r="4" fill="#0" id="circle291"/>
	<circle cx="630.209" cy="484.194" r="4" fill="#0" id="circle292"/>
	<circle cx="630.209" cy="499.247" r="4" fill="#0" id="circle293"/>
	<circle cx="630.209" cy="514.3" r="4" fill="#0" id="circle294"/>
	<circle cx="630.209" cy="529.354" r="4" fill="#0" id="circle295"/>
	<circle cx="630.209" cy="544.407" r="4" fill="#0" id="circle296"/>
	<circle cx="637.736" cy="413.445" r="4" fill="#0" id="circle297"/>
	<circle cx="637.736" cy="454.088" r="4" fill="#0" id="circle298"/>
	<circle cx="637.736" cy="469.141" r="4" fill="#0" id="circle299"/>
	<circle cx="645.263" cy="426.992" r="4" fill="#0" id="circle300"/>
	</g>
</svg>