<?xml version="1.0" encoding="UTF-8" standalone="no"?>
<!-- Created with CurveBenchmark -->
<svg
	xmlns:dc="http://purl.org/dc/elements/1.1/"
	xmlns:cc="http://creativecommons.org/ns#"
	xmlns:rdf="http://www.w3.org/1999/02/22-rdf-syntax-ns#"
	xmlns:svg="http://www.w3.org/2000/svg"
	xmlns="http://www.w3.org/2000/svg"
	xmlns:sodipodi="http://sodipodi.sourceforge.net/DTD/sodipodi-0.dtd"
	xmlns:inkscape="http://www.inkscape.org/namespaces/inkscape"
	width="1000"
	height="1000"
	id="svg2"
	version="1.1"
	sodipodi:docname="manifold/crust-teddy055.png.txt">
<defs
	id="defs4" />
<metadata
	id="metadata7">
	<rdf:RDF>
		<cc:Work
			rdf:about="">
			<dc:format>image/svg+xml</dc:format>
			<dc:type
				rdf:resource="http://purl.org/dc/dcmitype/StillImage" />
			<dc:title></dc:title>
		</cc:Work>
	</rdf:RDF>
</metadata>
<g
	inkscape:label="Layer 1"
	inkscape:groupmode="layer"
	id="layer1">
	<path style="fill:none;stroke:red;stroke-width:1px;stroke-linecap:butt;stroke-linejoin:miter;stroke-opacity:1" d="M 125.527,117.048 122.701,88.7863 z" id="boundary" inkscape:connector-curvature="0" />
	<path style="fill:none;stroke:red;stroke-width:1px;stroke-linecap:butt;stroke-linejoin:miter;stroke-opacity:1" d="M 122.701,88.7863 122.701,60.5242 z" id="boundary" inkscape:connector-curvature="0" />
	<path style="fill:none;stroke:red;stroke-width:1px;stroke-linecap:butt;stroke-linejoin:miter;stroke-opacity:1" d="M 139.658,37.9145 162.268,20.9573 z" id="boundary" inkscape:connector-curvature="0" />
	<path style="fill:none;stroke:red;stroke-width:1px;stroke-linecap:butt;stroke-linejoin:miter;stroke-opacity:1" d="M 122.701,60.5242 139.658,37.9145 z" id="boundary" inkscape:connector-curvature="0" />
	<path style="fill:none;stroke:red;stroke-width:1px;stroke-linecap:butt;stroke-linejoin:miter;stroke-opacity:1" d="M 136.832,145.311 125.527,117.048 z" id="boundary" inkscape:connector-curvature="0" />
	<path style="fill:none;stroke:red;stroke-width:1px;stroke-linecap:butt;stroke-linejoin:miter;stroke-opacity:1" d="M 150.963,170.746 162.268,199.009 z" id="boundary" inkscape:connector-curvature="0" />
	<path style="fill:none;stroke:red;stroke-width:1px;stroke-linecap:butt;stroke-linejoin:miter;stroke-opacity:1" d="M 150.963,170.746 136.832,145.311 z" id="boundary" inkscape:connector-curvature="0" />
	<path style="fill:none;stroke:red;stroke-width:1px;stroke-linecap:butt;stroke-linejoin:miter;stroke-opacity:1" d="M 162.268,199.009 162.268,227.271 z" id="boundary" inkscape:connector-curvature="0" />
	<path style="fill:none;stroke:red;stroke-width:1px;stroke-linecap:butt;stroke-linejoin:miter;stroke-opacity:1" d="M 167.92,283.795 162.268,255.533 z" id="boundary" inkscape:connector-curvature="0" />
	<path style="fill:none;stroke:red;stroke-width:1px;stroke-linecap:butt;stroke-linejoin:miter;stroke-opacity:1" d="M 162.268,255.533 162.268,227.271 z" id="boundary" inkscape:connector-curvature="0" />
	<path style="fill:none;stroke:red;stroke-width:1px;stroke-linecap:butt;stroke-linejoin:miter;stroke-opacity:1" d="M 167.92,312.057 167.92,283.795 z" id="boundary" inkscape:connector-curvature="0" />
	<path style="fill:none;stroke:red;stroke-width:1px;stroke-linecap:butt;stroke-linejoin:miter;stroke-opacity:1" d="M 102.917,402.496 80.3077,419.453 z" id="boundary" inkscape:connector-curvature="0" />
	<path style="fill:none;stroke:red;stroke-width:1px;stroke-linecap:butt;stroke-linejoin:miter;stroke-opacity:1" d="M 63.3504,442.063 80.3077,419.453 z" id="boundary" inkscape:connector-curvature="0" />
	<path style="fill:none;stroke:red;stroke-width:1px;stroke-linecap:butt;stroke-linejoin:miter;stroke-opacity:1" d="M 4,512.718 15.3048,484.456 z" id="boundary" inkscape:connector-curvature="0" />
	<path style="fill:none;stroke:red;stroke-width:1px;stroke-linecap:butt;stroke-linejoin:miter;stroke-opacity:1" d="M 37.9145,456.194 15.3048,484.456 z" id="boundary" inkscape:connector-curvature="0" />
	<path style="fill:none;stroke:red;stroke-width:1px;stroke-linecap:butt;stroke-linejoin:miter;stroke-opacity:1" d="M 37.9145,456.194 63.3504,442.063 z" id="boundary" inkscape:connector-curvature="0" />
	<path style="fill:none;stroke:red;stroke-width:1px;stroke-linecap:butt;stroke-linejoin:miter;stroke-opacity:1" d="M 9.65242,540.98 4,512.718 z" id="boundary" inkscape:connector-curvature="0" />
	<path style="fill:none;stroke:red;stroke-width:1px;stroke-linecap:butt;stroke-linejoin:miter;stroke-opacity:1" d="M 159.442,382.712 131.179,391.191 z" id="boundary" inkscape:connector-curvature="0" />
	<path style="fill:none;stroke:red;stroke-width:1px;stroke-linecap:butt;stroke-linejoin:miter;stroke-opacity:1" d="M 179.225,340.319 167.92,312.057 z" id="boundary" inkscape:connector-curvature="0" />
	<path style="fill:none;stroke:red;stroke-width:1px;stroke-linecap:butt;stroke-linejoin:miter;stroke-opacity:1" d="M 179.225,340.319 187.704,382.712 z" id="boundary" inkscape:connector-curvature="0" />
	<path style="fill:none;stroke:red;stroke-width:1px;stroke-linecap:butt;stroke-linejoin:miter;stroke-opacity:1" d="M 187.704,382.712 159.442,382.712 z" id="boundary" inkscape:connector-curvature="0" />
	<path style="fill:none;stroke:red;stroke-width:1px;stroke-linecap:butt;stroke-linejoin:miter;stroke-opacity:1" d="M 102.917,402.496 131.179,391.191 z" id="boundary" inkscape:connector-curvature="0" />
	<path style="fill:none;stroke:red;stroke-width:1px;stroke-linecap:butt;stroke-linejoin:miter;stroke-opacity:1" d="M 162.268,20.9573 190.53,9.65242 z" id="boundary" inkscape:connector-curvature="0" />
	<path style="fill:none;stroke:red;stroke-width:1px;stroke-linecap:butt;stroke-linejoin:miter;stroke-opacity:1" d="M 190.53,9.65242 218.792,4 z" id="boundary" inkscape:connector-curvature="0" />
	<path style="fill:none;stroke:red;stroke-width:1px;stroke-linecap:butt;stroke-linejoin:miter;stroke-opacity:1" d="M 247.054,9.65242 218.792,4 z" id="boundary" inkscape:connector-curvature="0" />
	<path style="fill:none;stroke:red;stroke-width:1px;stroke-linecap:butt;stroke-linejoin:miter;stroke-opacity:1" d="M 382.712,43.567 354.45,43.567 z" id="boundary" inkscape:connector-curvature="0" />
	<path style="fill:none;stroke:red;stroke-width:1px;stroke-linecap:butt;stroke-linejoin:miter;stroke-opacity:1" d="M 275.316,15.3048 247.054,9.65242 z" id="boundary" inkscape:connector-curvature="0" />
	<path style="fill:none;stroke:red;stroke-width:1px;stroke-linecap:butt;stroke-linejoin:miter;stroke-opacity:1" d="M 326.188,43.567 300.752,29.4359 z" id="boundary" inkscape:connector-curvature="0" />
	<path style="fill:none;stroke:red;stroke-width:1px;stroke-linecap:butt;stroke-linejoin:miter;stroke-opacity:1" d="M 300.752,29.4359 275.316,15.3048 z" id="boundary" inkscape:connector-curvature="0" />
	<path style="fill:none;stroke:red;stroke-width:1px;stroke-linecap:butt;stroke-linejoin:miter;stroke-opacity:1" d="M 354.45,43.567 326.188,43.567 z" id="boundary" inkscape:connector-curvature="0" />
	<path style="fill:none;stroke:red;stroke-width:1px;stroke-linecap:butt;stroke-linejoin:miter;stroke-opacity:1" d="M 410.974,37.9145 382.712,43.567 z" id="boundary" inkscape:connector-curvature="0" />
	<path style="fill:none;stroke:red;stroke-width:1px;stroke-linecap:butt;stroke-linejoin:miter;stroke-opacity:1" d="M 410.974,37.9145 439.236,43.567 z" id="boundary" inkscape:connector-curvature="0" />
	<path style="fill:none;stroke:red;stroke-width:1px;stroke-linecap:butt;stroke-linejoin:miter;stroke-opacity:1" d="M 9.65242,540.98 15.3048,569.242 z" id="boundary" inkscape:connector-curvature="0" />
	<path style="fill:none;stroke:red;stroke-width:1px;stroke-linecap:butt;stroke-linejoin:miter;stroke-opacity:1" d="M 52.0456,614.462 32.2621,591.852 z" id="boundary" inkscape:connector-curvature="0" />
	<path style="fill:none;stroke:red;stroke-width:1px;stroke-linecap:butt;stroke-linejoin:miter;stroke-opacity:1" d="M 32.2621,591.852 15.3048,569.242 z" id="boundary" inkscape:connector-curvature="0" />
	<path style="fill:none;stroke:red;stroke-width:1px;stroke-linecap:butt;stroke-linejoin:miter;stroke-opacity:1" d="M 77.4815,628.593 52.0456,614.462 z" id="boundary" inkscape:connector-curvature="0" />
	<path style="fill:none;stroke:red;stroke-width:1px;stroke-linecap:butt;stroke-linejoin:miter;stroke-opacity:1" d="M 77.4815,628.593 100.091,645.55 z" id="boundary" inkscape:connector-curvature="0" />
	<path style="fill:none;stroke:red;stroke-width:1px;stroke-linecap:butt;stroke-linejoin:miter;stroke-opacity:1" d="M 128.353,656.855 100.091,645.55 z" id="boundary" inkscape:connector-curvature="0" />
	<path style="fill:none;stroke:red;stroke-width:1px;stroke-linecap:butt;stroke-linejoin:miter;stroke-opacity:1" d="M 153.789,670.986 128.353,656.855 z" id="boundary" inkscape:connector-curvature="0" />
	<path style="fill:none;stroke:red;stroke-width:1px;stroke-linecap:butt;stroke-linejoin:miter;stroke-opacity:1" d="M 122.701,738.815 150.963,727.51 z" id="boundary" inkscape:connector-curvature="0" />
	<path style="fill:none;stroke:red;stroke-width:1px;stroke-linecap:butt;stroke-linejoin:miter;stroke-opacity:1" d="M 60.5242,857.516 66.1766,885.778 z" id="boundary" inkscape:connector-curvature="0" />
	<path style="fill:none;stroke:red;stroke-width:1px;stroke-linecap:butt;stroke-linejoin:miter;stroke-opacity:1" d="M 71.8291,817.949 60.5242,857.516 z" id="boundary" inkscape:connector-curvature="0" />
	<path style="fill:none;stroke:red;stroke-width:1px;stroke-linecap:butt;stroke-linejoin:miter;stroke-opacity:1" d="M 66.1766,885.778 66.1766,914.04 z" id="boundary" inkscape:connector-curvature="0" />
	<path style="fill:none;stroke:red;stroke-width:1px;stroke-linecap:butt;stroke-linejoin:miter;stroke-opacity:1" d="M 66.1766,914.04 66.1766,942.302 z" id="boundary" inkscape:connector-curvature="0" />
	<path style="fill:none;stroke:red;stroke-width:1px;stroke-linecap:butt;stroke-linejoin:miter;stroke-opacity:1" d="M 66.1766,942.302 80.3077,967.738 z" id="boundary" inkscape:connector-curvature="0" />
	<path style="fill:none;stroke:red;stroke-width:1px;stroke-linecap:butt;stroke-linejoin:miter;stroke-opacity:1" d="M 83.1339,778.382 71.8291,817.949 z" id="boundary" inkscape:connector-curvature="0" />
	<path style="fill:none;stroke:red;stroke-width:1px;stroke-linecap:butt;stroke-linejoin:miter;stroke-opacity:1" d="M 100.091,755.772 122.701,738.815 z" id="boundary" inkscape:connector-curvature="0" />
	<path style="fill:none;stroke:red;stroke-width:1px;stroke-linecap:butt;stroke-linejoin:miter;stroke-opacity:1" d="M 83.1339,778.382 100.091,755.772 z" id="boundary" inkscape:connector-curvature="0" />
	<path style="fill:none;stroke:red;stroke-width:1px;stroke-linecap:butt;stroke-linejoin:miter;stroke-opacity:1" d="M 102.917,984.695 80.3077,967.738 z" id="boundary" inkscape:connector-curvature="0" />
	<path style="fill:none;stroke:red;stroke-width:1px;stroke-linecap:butt;stroke-linejoin:miter;stroke-opacity:1" d="M 131.179,996 102.917,984.695 z" id="boundary" inkscape:connector-curvature="0" />
	<path style="fill:none;stroke:red;stroke-width:1px;stroke-linecap:butt;stroke-linejoin:miter;stroke-opacity:1" d="M 159.442,996 131.179,996 z" id="boundary" inkscape:connector-curvature="0" />
	<path style="fill:none;stroke:red;stroke-width:1px;stroke-linecap:butt;stroke-linejoin:miter;stroke-opacity:1" d="M 182.051,668.16 153.789,670.986 z" id="boundary" inkscape:connector-curvature="0" />
	<path style="fill:none;stroke:red;stroke-width:1px;stroke-linecap:butt;stroke-linejoin:miter;stroke-opacity:1" d="M 150.963,727.51 179.225,716.205 z" id="boundary" inkscape:connector-curvature="0" />
	<path style="fill:none;stroke:red;stroke-width:1px;stroke-linecap:butt;stroke-linejoin:miter;stroke-opacity:1" d="M 182.051,668.16 196.182,693.595 z" id="boundary" inkscape:connector-curvature="0" />
	<path style="fill:none;stroke:red;stroke-width:1px;stroke-linecap:butt;stroke-linejoin:miter;stroke-opacity:1" d="M 196.182,693.595 179.225,716.205 z" id="boundary" inkscape:connector-curvature="0" />
	<path style="fill:none;stroke:red;stroke-width:1px;stroke-linecap:butt;stroke-linejoin:miter;stroke-opacity:1" d="M 187.704,996 159.442,996 z" id="boundary" inkscape:connector-curvature="0" />
	<path style="fill:none;stroke:red;stroke-width:1px;stroke-linecap:butt;stroke-linejoin:miter;stroke-opacity:1" d="M 215.966,996 187.704,996 z" id="boundary" inkscape:connector-curvature="0" />
	<path style="fill:none;stroke:red;stroke-width:1px;stroke-linecap:butt;stroke-linejoin:miter;stroke-opacity:1" d="M 272.49,984.695 244.228,996 z" id="boundary" inkscape:connector-curvature="0" />
	<path style="fill:none;stroke:red;stroke-width:1px;stroke-linecap:butt;stroke-linejoin:miter;stroke-opacity:1" d="M 300.752,990.348 272.49,984.695 z" id="boundary" inkscape:connector-curvature="0" />
	<path style="fill:none;stroke:red;stroke-width:1px;stroke-linecap:butt;stroke-linejoin:miter;stroke-opacity:1" d="M 244.228,996 215.966,996 z" id="boundary" inkscape:connector-curvature="0" />
	<path style="fill:none;stroke:red;stroke-width:1px;stroke-linecap:butt;stroke-linejoin:miter;stroke-opacity:1" d="M 329.014,996 300.752,990.348 z" id="boundary" inkscape:connector-curvature="0" />
	<path style="fill:none;stroke:red;stroke-width:1px;stroke-linecap:butt;stroke-linejoin:miter;stroke-opacity:1" d="M 329.014,996 357.276,996 z" id="boundary" inkscape:connector-curvature="0" />
	<path style="fill:none;stroke:red;stroke-width:1px;stroke-linecap:butt;stroke-linejoin:miter;stroke-opacity:1" d="M 357.276,996 385.538,996 z" id="boundary" inkscape:connector-curvature="0" />
	<path style="fill:none;stroke:red;stroke-width:1px;stroke-linecap:butt;stroke-linejoin:miter;stroke-opacity:1" d="M 413.801,996 385.538,996 z" id="boundary" inkscape:connector-curvature="0" />
	<path style="fill:none;stroke:red;stroke-width:1px;stroke-linecap:butt;stroke-linejoin:miter;stroke-opacity:1" d="M 442.063,996 413.801,996 z" id="boundary" inkscape:connector-curvature="0" />
	<path style="fill:none;stroke:red;stroke-width:1px;stroke-linecap:butt;stroke-linejoin:miter;stroke-opacity:1" d="M 467.499,37.9145 439.236,43.567 z" id="boundary" inkscape:connector-curvature="0" />
	<path style="fill:none;stroke:red;stroke-width:1px;stroke-linecap:butt;stroke-linejoin:miter;stroke-opacity:1" d="M 495.761,26.6097 521.197,12.4786 z" id="boundary" inkscape:connector-curvature="0" />
	<path style="fill:none;stroke:red;stroke-width:1px;stroke-linecap:butt;stroke-linejoin:miter;stroke-opacity:1" d="M 495.761,26.6097 467.499,37.9145 z" id="boundary" inkscape:connector-curvature="0" />
	<path style="fill:none;stroke:red;stroke-width:1px;stroke-linecap:butt;stroke-linejoin:miter;stroke-opacity:1" d="M 549.459,6.82621 521.197,12.4786 z" id="boundary" inkscape:connector-curvature="0" />
	<path style="fill:none;stroke:red;stroke-width:1px;stroke-linecap:butt;stroke-linejoin:miter;stroke-opacity:1" d="M 577.721,4 605.983,9.65242 z" id="boundary" inkscape:connector-curvature="0" />
	<path style="fill:none;stroke:red;stroke-width:1px;stroke-linecap:butt;stroke-linejoin:miter;stroke-opacity:1" d="M 605.983,9.65242 634.245,20.9573 z" id="boundary" inkscape:connector-curvature="0" />
	<path style="fill:none;stroke:red;stroke-width:1px;stroke-linecap:butt;stroke-linejoin:miter;stroke-opacity:1" d="M 654.028,43.567 662.507,71.8291 z" id="boundary" inkscape:connector-curvature="0" />
	<path style="fill:none;stroke:red;stroke-width:1px;stroke-linecap:butt;stroke-linejoin:miter;stroke-opacity:1" d="M 654.028,43.567 634.245,20.9573 z" id="boundary" inkscape:connector-curvature="0" />
	<path style="fill:none;stroke:red;stroke-width:1px;stroke-linecap:butt;stroke-linejoin:miter;stroke-opacity:1" d="M 662.507,71.8291 656.855,117.048 z" id="boundary" inkscape:connector-curvature="0" />
	<path style="fill:none;stroke:red;stroke-width:1px;stroke-linecap:butt;stroke-linejoin:miter;stroke-opacity:1" d="M 634.245,201.835 634.245,173.573 z" id="boundary" inkscape:connector-curvature="0" />
	<path style="fill:none;stroke:red;stroke-width:1px;stroke-linecap:butt;stroke-linejoin:miter;stroke-opacity:1" d="M 645.55,145.311 634.245,173.573 z" id="boundary" inkscape:connector-curvature="0" />
	<path style="fill:none;stroke:red;stroke-width:1px;stroke-linecap:butt;stroke-linejoin:miter;stroke-opacity:1" d="M 656.855,117.048 645.55,145.311 z" id="boundary" inkscape:connector-curvature="0" />
	<path style="fill:none;stroke:red;stroke-width:1px;stroke-linecap:butt;stroke-linejoin:miter;stroke-opacity:1" d="M 549.459,6.82621 577.721,4 z" id="boundary" inkscape:connector-curvature="0" />
	<path style="fill:none;stroke:red;stroke-width:1px;stroke-linecap:butt;stroke-linejoin:miter;stroke-opacity:1" d="M 634.245,303.578 622.94,337.493 z" id="boundary" inkscape:connector-curvature="0" />
	<path style="fill:none;stroke:red;stroke-width:1px;stroke-linecap:butt;stroke-linejoin:miter;stroke-opacity:1" d="M 639.897,258.359 634.245,303.578 z" id="boundary" inkscape:connector-curvature="0" />
	<path style="fill:none;stroke:red;stroke-width:1px;stroke-linecap:butt;stroke-linejoin:miter;stroke-opacity:1" d="M 634.245,201.835 639.897,230.097 z" id="boundary" inkscape:connector-curvature="0" />
	<path style="fill:none;stroke:red;stroke-width:1px;stroke-linecap:butt;stroke-linejoin:miter;stroke-opacity:1" d="M 622.94,337.493 608.809,368.581 z" id="boundary" inkscape:connector-curvature="0" />
	<path style="fill:none;stroke:red;stroke-width:1px;stroke-linecap:butt;stroke-linejoin:miter;stroke-opacity:1" d="M 634.245,382.712 608.809,368.581 z" id="boundary" inkscape:connector-curvature="0" />
	<path style="fill:none;stroke:red;stroke-width:1px;stroke-linecap:butt;stroke-linejoin:miter;stroke-opacity:1" d="M 662.507,382.712 634.245,382.712 z" id="boundary" inkscape:connector-curvature="0" />
	<path style="fill:none;stroke:red;stroke-width:1px;stroke-linecap:butt;stroke-linejoin:miter;stroke-opacity:1" d="M 690.769,394.017 662.507,382.712 z" id="boundary" inkscape:connector-curvature="0" />
	<path style="fill:none;stroke:red;stroke-width:1px;stroke-linecap:butt;stroke-linejoin:miter;stroke-opacity:1" d="M 690.769,394.017 719.031,405.322 z" id="boundary" inkscape:connector-curvature="0" />
	<path style="fill:none;stroke:red;stroke-width:1px;stroke-linecap:butt;stroke-linejoin:miter;stroke-opacity:1" d="M 679.464,656.855 654.028,670.986 z" id="boundary" inkscape:connector-curvature="0" />
	<path style="fill:none;stroke:red;stroke-width:1px;stroke-linecap:butt;stroke-linejoin:miter;stroke-opacity:1" d="M 639.897,230.097 639.897,258.359 z" id="boundary" inkscape:connector-curvature="0" />
	<path style="fill:none;stroke:red;stroke-width:1px;stroke-linecap:butt;stroke-linejoin:miter;stroke-opacity:1" d="M 735.989,427.932 719.031,405.322 z" id="boundary" inkscape:connector-curvature="0" />
	<path style="fill:none;stroke:red;stroke-width:1px;stroke-linecap:butt;stroke-linejoin:miter;stroke-opacity:1" d="M 764.251,433.584 735.989,427.932 z" id="boundary" inkscape:connector-curvature="0" />
	<path style="fill:none;stroke:red;stroke-width:1px;stroke-linecap:butt;stroke-linejoin:miter;stroke-opacity:1" d="M 792.513,433.584 764.251,433.584 z" id="boundary" inkscape:connector-curvature="0" />
	<path style="fill:none;stroke:red;stroke-width:1px;stroke-linecap:butt;stroke-linejoin:miter;stroke-opacity:1" d="M 820.775,444.889 792.513,433.584 z" id="boundary" inkscape:connector-curvature="0" />
	<path style="fill:none;stroke:red;stroke-width:1px;stroke-linecap:butt;stroke-linejoin:miter;stroke-opacity:1" d="M 888.604,524.023 882.952,495.761 z" id="boundary" inkscape:connector-curvature="0" />
	<path style="fill:none;stroke:red;stroke-width:1px;stroke-linecap:butt;stroke-linejoin:miter;stroke-opacity:1" d="M 849.037,450.541 820.775,444.889 z" id="boundary" inkscape:connector-curvature="0" />
	<path style="fill:none;stroke:red;stroke-width:1px;stroke-linecap:butt;stroke-linejoin:miter;stroke-opacity:1" d="M 882.952,495.761 871.647,467.499 z" id="boundary" inkscape:connector-curvature="0" />
	<path style="fill:none;stroke:red;stroke-width:1px;stroke-linecap:butt;stroke-linejoin:miter;stroke-opacity:1" d="M 849.037,450.541 871.647,467.499 z" id="boundary" inkscape:connector-curvature="0" />
	<path style="fill:none;stroke:red;stroke-width:1px;stroke-linecap:butt;stroke-linejoin:miter;stroke-opacity:1" d="M 792.513,637.071 764.251,645.55 z" id="boundary" inkscape:connector-curvature="0" />
	<path style="fill:none;stroke:red;stroke-width:1px;stroke-linecap:butt;stroke-linejoin:miter;stroke-opacity:1" d="M 707.726,662.507 679.464,656.855 z" id="boundary" inkscape:connector-curvature="0" />
	<path style="fill:none;stroke:red;stroke-width:1px;stroke-linecap:butt;stroke-linejoin:miter;stroke-opacity:1" d="M 735.989,656.855 707.726,662.507 z" id="boundary" inkscape:connector-curvature="0" />
	<path style="fill:none;stroke:red;stroke-width:1px;stroke-linecap:butt;stroke-linejoin:miter;stroke-opacity:1" d="M 764.251,645.55 735.989,656.855 z" id="boundary" inkscape:connector-curvature="0" />
	<path style="fill:none;stroke:red;stroke-width:1px;stroke-linecap:butt;stroke-linejoin:miter;stroke-opacity:1" d="M 888.604,524.023 877.299,557.937 z" id="boundary" inkscape:connector-curvature="0" />
	<path style="fill:none;stroke:red;stroke-width:1px;stroke-linecap:butt;stroke-linejoin:miter;stroke-opacity:1" d="M 817.949,622.94 792.513,637.071 z" id="boundary" inkscape:connector-curvature="0" />
	<path style="fill:none;stroke:red;stroke-width:1px;stroke-linecap:butt;stroke-linejoin:miter;stroke-opacity:1" d="M 840.558,605.983 817.949,622.94 z" id="boundary" inkscape:connector-curvature="0" />
	<path style="fill:none;stroke:red;stroke-width:1px;stroke-linecap:butt;stroke-linejoin:miter;stroke-opacity:1" d="M 863.168,583.373 840.558,605.983 z" id="boundary" inkscape:connector-curvature="0" />
	<path style="fill:none;stroke:red;stroke-width:1px;stroke-linecap:butt;stroke-linejoin:miter;stroke-opacity:1" d="M 863.168,583.373 877.299,557.937 z" id="boundary" inkscape:connector-curvature="0" />
	<path style="fill:none;stroke:red;stroke-width:1px;stroke-linecap:butt;stroke-linejoin:miter;stroke-opacity:1" d="M 625.766,665.333 634.245,693.595 z" id="boundary" inkscape:connector-curvature="0" />
	<path style="fill:none;stroke:red;stroke-width:1px;stroke-linecap:butt;stroke-linejoin:miter;stroke-opacity:1" d="M 651.202,716.205 634.245,693.595 z" id="boundary" inkscape:connector-curvature="0" />
	<path style="fill:none;stroke:red;stroke-width:1px;stroke-linecap:butt;stroke-linejoin:miter;stroke-opacity:1" d="M 625.766,665.333 654.028,670.986 z" id="boundary" inkscape:connector-curvature="0" />
	<path style="fill:none;stroke:red;stroke-width:1px;stroke-linecap:butt;stroke-linejoin:miter;stroke-opacity:1" d="M 679.464,716.205 651.202,716.205 z" id="boundary" inkscape:connector-curvature="0" />
	<path style="fill:none;stroke:red;stroke-width:1px;stroke-linecap:butt;stroke-linejoin:miter;stroke-opacity:1" d="M 679.464,716.205 707.726,727.51 z" id="boundary" inkscape:connector-curvature="0" />
	<path style="fill:none;stroke:red;stroke-width:1px;stroke-linecap:butt;stroke-linejoin:miter;stroke-opacity:1" d="M 735.989,727.51 707.726,727.51 z" id="boundary" inkscape:connector-curvature="0" />
	<path style="fill:none;stroke:red;stroke-width:1px;stroke-linecap:butt;stroke-linejoin:miter;stroke-opacity:1" d="M 498.587,990.348 470.325,990.348 z" id="boundary" inkscape:connector-curvature="0" />
	<path style="fill:none;stroke:red;stroke-width:1px;stroke-linecap:butt;stroke-linejoin:miter;stroke-opacity:1" d="M 470.325,990.348 442.063,996 z" id="boundary" inkscape:connector-curvature="0" />
	<path style="fill:none;stroke:red;stroke-width:1px;stroke-linecap:butt;stroke-linejoin:miter;stroke-opacity:1" d="M 526.849,984.695 498.587,990.348 z" id="boundary" inkscape:connector-curvature="0" />
	<path style="fill:none;stroke:red;stroke-width:1px;stroke-linecap:butt;stroke-linejoin:miter;stroke-opacity:1" d="M 555.111,979.043 526.849,984.695 z" id="boundary" inkscape:connector-curvature="0" />
	<path style="fill:none;stroke:red;stroke-width:1px;stroke-linecap:butt;stroke-linejoin:miter;stroke-opacity:1" d="M 583.373,973.39 555.111,979.043 z" id="boundary" inkscape:connector-curvature="0" />
	<path style="fill:none;stroke:red;stroke-width:1px;stroke-linecap:butt;stroke-linejoin:miter;stroke-opacity:1" d="M 639.897,973.39 611.635,973.39 z" id="boundary" inkscape:connector-curvature="0" />
	<path style="fill:none;stroke:red;stroke-width:1px;stroke-linecap:butt;stroke-linejoin:miter;stroke-opacity:1" d="M 611.635,973.39 583.373,973.39 z" id="boundary" inkscape:connector-curvature="0" />
	<path style="fill:none;stroke:red;stroke-width:1px;stroke-linecap:butt;stroke-linejoin:miter;stroke-opacity:1" d="M 752.946,996 724.684,996 z" id="boundary" inkscape:connector-curvature="0" />
	<path style="fill:none;stroke:red;stroke-width:1px;stroke-linecap:butt;stroke-linejoin:miter;stroke-opacity:1" d="M 668.16,984.695 639.897,973.39 z" id="boundary" inkscape:connector-curvature="0" />
	<path style="fill:none;stroke:red;stroke-width:1px;stroke-linecap:butt;stroke-linejoin:miter;stroke-opacity:1" d="M 696.422,996 668.16,984.695 z" id="boundary" inkscape:connector-curvature="0" />
	<path style="fill:none;stroke:red;stroke-width:1px;stroke-linecap:butt;stroke-linejoin:miter;stroke-opacity:1" d="M 724.684,996 696.422,996 z" id="boundary" inkscape:connector-curvature="0" />
	<path style="fill:none;stroke:red;stroke-width:1px;stroke-linecap:butt;stroke-linejoin:miter;stroke-opacity:1" d="M 735.989,727.51 764.251,727.51 z" id="boundary" inkscape:connector-curvature="0" />
	<path style="fill:none;stroke:red;stroke-width:1px;stroke-linecap:butt;stroke-linejoin:miter;stroke-opacity:1" d="M 792.513,727.51 820.775,733.162 z" id="boundary" inkscape:connector-curvature="0" />
	<path style="fill:none;stroke:red;stroke-width:1px;stroke-linecap:butt;stroke-linejoin:miter;stroke-opacity:1" d="M 764.251,727.51 792.513,727.51 z" id="boundary" inkscape:connector-curvature="0" />
	<path style="fill:none;stroke:red;stroke-width:1px;stroke-linecap:butt;stroke-linejoin:miter;stroke-opacity:1" d="M 820.775,733.162 846.211,747.293 z" id="boundary" inkscape:connector-curvature="0" />
	<path style="fill:none;stroke:red;stroke-width:1px;stroke-linecap:butt;stroke-linejoin:miter;stroke-opacity:1" d="M 882.952,826.427 877.299,798.165 z" id="boundary" inkscape:connector-curvature="0" />
	<path style="fill:none;stroke:red;stroke-width:1px;stroke-linecap:butt;stroke-linejoin:miter;stroke-opacity:1" d="M 865.994,769.903 877.299,798.165 z" id="boundary" inkscape:connector-curvature="0" />
	<path style="fill:none;stroke:red;stroke-width:1px;stroke-linecap:butt;stroke-linejoin:miter;stroke-opacity:1" d="M 865.994,769.903 846.211,747.293 z" id="boundary" inkscape:connector-curvature="0" />
	<path style="fill:none;stroke:red;stroke-width:1px;stroke-linecap:butt;stroke-linejoin:miter;stroke-opacity:1" d="M 781.208,996 752.946,996 z" id="boundary" inkscape:connector-curvature="0" />
	<path style="fill:none;stroke:red;stroke-width:1px;stroke-linecap:butt;stroke-linejoin:miter;stroke-opacity:1" d="M 882.952,826.427 888.604,854.689 z" id="boundary" inkscape:connector-curvature="0" />
	<path style="fill:none;stroke:red;stroke-width:1px;stroke-linecap:butt;stroke-linejoin:miter;stroke-opacity:1" d="M 888.604,854.689 888.604,882.952 z" id="boundary" inkscape:connector-curvature="0" />
	<path style="fill:none;stroke:red;stroke-width:1px;stroke-linecap:butt;stroke-linejoin:miter;stroke-opacity:1" d="M 888.604,911.214 888.604,882.952 z" id="boundary" inkscape:connector-curvature="0" />
	<path style="fill:none;stroke:red;stroke-width:1px;stroke-linecap:butt;stroke-linejoin:miter;stroke-opacity:1" d="M 834.906,979.043 809.47,993.174 z" id="boundary" inkscape:connector-curvature="0" />
	<path style="fill:none;stroke:red;stroke-width:1px;stroke-linecap:butt;stroke-linejoin:miter;stroke-opacity:1" d="M 834.906,979.043 857.516,962.085 z" id="boundary" inkscape:connector-curvature="0" />
	<path style="fill:none;stroke:red;stroke-width:1px;stroke-linecap:butt;stroke-linejoin:miter;stroke-opacity:1" d="M 809.47,993.174 781.208,996 z" id="boundary" inkscape:connector-curvature="0" />
	<path style="fill:none;stroke:red;stroke-width:1px;stroke-linecap:butt;stroke-linejoin:miter;stroke-opacity:1" d="M 880.125,945.128 857.516,962.085 z" id="boundary" inkscape:connector-curvature="0" />
	<path style="fill:none;stroke:red;stroke-width:1px;stroke-linecap:butt;stroke-linejoin:miter;stroke-opacity:1" d="M 888.604,911.214 880.125,945.128 z" id="boundary" inkscape:connector-curvature="0" />
	<circle cx="4" cy="512.718" r="4" fill="#0" id="circle0"/>
	<circle cx="9.65242" cy="540.98" r="4" fill="#0" id="circle1"/>
	<circle cx="15.3048" cy="484.456" r="4" fill="#0" id="circle2"/>
	<circle cx="15.3048" cy="569.242" r="4" fill="#0" id="circle3"/>
	<circle cx="32.2621" cy="591.852" r="4" fill="#0" id="circle4"/>
	<circle cx="37.9145" cy="456.194" r="4" fill="#0" id="circle5"/>
	<circle cx="52.0456" cy="614.462" r="4" fill="#0" id="circle6"/>
	<circle cx="60.5242" cy="857.516" r="4" fill="#0" id="circle7"/>
	<circle cx="63.3504" cy="442.063" r="4" fill="#0" id="circle8"/>
	<circle cx="66.1766" cy="885.778" r="4" fill="#0" id="circle9"/>
	<circle cx="66.1766" cy="914.04" r="4" fill="#0" id="circle10"/>
	<circle cx="66.1766" cy="942.302" r="4" fill="#0" id="circle11"/>
	<circle cx="71.8291" cy="817.949" r="4" fill="#0" id="circle12"/>
	<circle cx="77.4815" cy="628.593" r="4" fill="#0" id="circle13"/>
	<circle cx="80.3077" cy="419.453" r="4" fill="#0" id="circle14"/>
	<circle cx="80.3077" cy="967.738" r="4" fill="#0" id="circle15"/>
	<circle cx="83.1339" cy="778.382" r="4" fill="#0" id="circle16"/>
	<circle cx="100.091" cy="645.55" r="4" fill="#0" id="circle17"/>
	<circle cx="100.091" cy="755.772" r="4" fill="#0" id="circle18"/>
	<circle cx="102.917" cy="402.496" r="4" fill="#0" id="circle19"/>
	<circle cx="102.917" cy="984.695" r="4" fill="#0" id="circle20"/>
	<circle cx="122.701" cy="60.5242" r="4" fill="#0" id="circle21"/>
	<circle cx="122.701" cy="88.7863" r="4" fill="#0" id="circle22"/>
	<circle cx="122.701" cy="738.815" r="4" fill="#0" id="circle23"/>
	<circle cx="125.527" cy="117.048" r="4" fill="#0" id="circle24"/>
	<circle cx="128.353" cy="656.855" r="4" fill="#0" id="circle25"/>
	<circle cx="131.179" cy="391.191" r="4" fill="#0" id="circle26"/>
	<circle cx="131.179" cy="996" r="4" fill="#0" id="circle27"/>
	<circle cx="136.832" cy="145.311" r="4" fill="#0" id="circle28"/>
	<circle cx="139.658" cy="37.9145" r="4" fill="#0" id="circle29"/>
	<circle cx="150.963" cy="170.746" r="4" fill="#0" id="circle30"/>
	<circle cx="150.963" cy="727.51" r="4" fill="#0" id="circle31"/>
	<circle cx="153.789" cy="670.986" r="4" fill="#0" id="circle32"/>
	<circle cx="159.442" cy="382.712" r="4" fill="#0" id="circle33"/>
	<circle cx="159.442" cy="996" r="4" fill="#0" id="circle34"/>
	<circle cx="162.268" cy="20.9573" r="4" fill="#0" id="circle35"/>
	<circle cx="162.268" cy="199.009" r="4" fill="#0" id="circle36"/>
	<circle cx="162.268" cy="227.271" r="4" fill="#0" id="circle37"/>
	<circle cx="162.268" cy="255.533" r="4" fill="#0" id="circle38"/>
	<circle cx="167.92" cy="283.795" r="4" fill="#0" id="circle39"/>
	<circle cx="167.92" cy="312.057" r="4" fill="#0" id="circle40"/>
	<circle cx="179.225" cy="340.319" r="4" fill="#0" id="circle41"/>
	<circle cx="179.225" cy="716.205" r="4" fill="#0" id="circle42"/>
	<circle cx="182.051" cy="668.16" r="4" fill="#0" id="circle43"/>
	<circle cx="187.704" cy="382.712" r="4" fill="#0" id="circle44"/>
	<circle cx="187.704" cy="996" r="4" fill="#0" id="circle45"/>
	<circle cx="190.53" cy="9.65242" r="4" fill="#0" id="circle46"/>
	<circle cx="196.182" cy="693.595" r="4" fill="#0" id="circle47"/>
	<circle cx="215.966" cy="996" r="4" fill="#0" id="circle48"/>
	<circle cx="218.792" cy="4" r="4" fill="#0" id="circle49"/>
	<circle cx="244.228" cy="996" r="4" fill="#0" id="circle50"/>
	<circle cx="247.054" cy="9.65242" r="4" fill="#0" id="circle51"/>
	<circle cx="272.49" cy="984.695" r="4" fill="#0" id="circle52"/>
	<circle cx="275.316" cy="15.3048" r="4" fill="#0" id="circle53"/>
	<circle cx="300.752" cy="29.4359" r="4" fill="#0" id="circle54"/>
	<circle cx="300.752" cy="990.348" r="4" fill="#0" id="circle55"/>
	<circle cx="326.188" cy="43.567" r="4" fill="#0" id="circle56"/>
	<circle cx="329.014" cy="996" r="4" fill="#0" id="circle57"/>
	<circle cx="354.45" cy="43.567" r="4" fill="#0" id="circle58"/>
	<circle cx="357.276" cy="996" r="4" fill="#0" id="circle59"/>
	<circle cx="382.712" cy="43.567" r="4" fill="#0" id="circle60"/>
	<circle cx="385.538" cy="996" r="4" fill="#0" id="circle61"/>
	<circle cx="410.974" cy="37.9145" r="4" fill="#0" id="circle62"/>
	<circle cx="413.801" cy="996" r="4" fill="#0" id="circle63"/>
	<circle cx="439.236" cy="43.567" r="4" fill="#0" id="circle64"/>
	<circle cx="442.063" cy="996" r="4" fill="#0" id="circle65"/>
	<circle cx="467.499" cy="37.9145" r="4" fill="#0" id="circle66"/>
	<circle cx="470.325" cy="990.348" r="4" fill="#0" id="circle67"/>
	<circle cx="495.761" cy="26.6097" r="4" fill="#0" id="circle68"/>
	<circle cx="498.587" cy="990.348" r="4" fill="#0" id="circle69"/>
	<circle cx="521.197" cy="12.4786" r="4" fill="#0" id="circle70"/>
	<circle cx="526.849" cy="984.695" r="4" fill="#0" id="circle71"/>
	<circle cx="549.459" cy="6.82621" r="4" fill="#0" id="circle72"/>
	<circle cx="555.111" cy="979.043" r="4" fill="#0" id="circle73"/>
	<circle cx="577.721" cy="4" r="4" fill="#0" id="circle74"/>
	<circle cx="583.373" cy="973.39" r="4" fill="#0" id="circle75"/>
	<circle cx="605.983" cy="9.65242" r="4" fill="#0" id="circle76"/>
	<circle cx="608.809" cy="368.581" r="4" fill="#0" id="circle77"/>
	<circle cx="611.635" cy="973.39" r="4" fill="#0" id="circle78"/>
	<circle cx="622.94" cy="337.493" r="4" fill="#0" id="circle79"/>
	<circle cx="625.766" cy="665.333" r="4" fill="#0" id="circle80"/>
	<circle cx="634.245" cy="20.9573" r="4" fill="#0" id="circle81"/>
	<circle cx="634.245" cy="173.573" r="4" fill="#0" id="circle82"/>
	<circle cx="634.245" cy="201.835" r="4" fill="#0" id="circle83"/>
	<circle cx="634.245" cy="303.578" r="4" fill="#0" id="circle84"/>
	<circle cx="634.245" cy="382.712" r="4" fill="#0" id="circle85"/>
	<circle cx="634.245" cy="693.595" r="4" fill="#0" id="circle86"/>
	<circle cx="639.897" cy="230.097" r="4" fill="#0" id="circle87"/>
	<circle cx="639.897" cy="258.359" r="4" fill="#0" id="circle88"/>
	<circle cx="639.897" cy="973.39" r="4" fill="#0" id="circle89"/>
	<circle cx="645.55" cy="145.311" r="4" fill="#0" id="circle90"/>
	<circle cx="651.202" cy="716.205" r="4" fill="#0" id="circle91"/>
	<circle cx="654.028" cy="43.567" r="4" fill="#0" id="circle92"/>
	<circle cx="654.028" cy="670.986" r="4" fill="#0" id="circle93"/>
	<circle cx="656.855" cy="117.048" r="4" fill="#0" id="circle94"/>
	<circle cx="662.507" cy="71.8291" r="4" fill="#0" id="circle95"/>
	<circle cx="662.507" cy="382.712" r="4" fill="#0" id="circle96"/>
	<circle cx="668.16" cy="984.695" r="4" fill="#0" id="circle97"/>
	<circle cx="679.464" cy="656.855" r="4" fill="#0" id="circle98"/>
	<circle cx="679.464" cy="716.205" r="4" fill="#0" id="circle99"/>
	<circle cx="690.769" cy="394.017" r="4" fill="#0" id="circle100"/>
	<circle cx="696.422" cy="996" r="4" fill="#0" id="circle101"/>
	<circle cx="707.726" cy="662.507" r="4" fill="#0" id="circle102"/>
	<circle cx="707.726" cy="727.51" r="4" fill="#0" id="circle103"/>
	<circle cx="719.031" cy="405.322" r="4" fill="#0" id="circle104"/>
	<circle cx="724.684" cy="996" r="4" fill="#0" id="circle105"/>
	<circle cx="735.989" cy="427.932" r="4" fill="#0" id="circle106"/>
	<circle cx="735.989" cy="656.855" r="4" fill="#0" id="circle107"/>
	<circle cx="735.989" cy="727.51" r="4" fill="#0" id="circle108"/>
	<circle cx="752.946" cy="996" r="4" fill="#0" id="circle109"/>
	<circle cx="764.251" cy="433.584" r="4" fill="#0" id="circle110"/>
	<circle cx="764.251" cy="645.55" r="4" fill="#0" id="circle111"/>
	<circle cx="764.251" cy="727.51" r="4" fill="#0" id="circle112"/>
	<circle cx="781.208" cy="996" r="4" fill="#0" id="circle113"/>
	<circle cx="792.513" cy="433.584" r="4" fill="#0" id="circle114"/>
	<circle cx="792.513" cy="637.071" r="4" fill="#0" id="circle115"/>
	<circle cx="792.513" cy="727.51" r="4" fill="#0" id="circle116"/>
	<circle cx="809.47" cy="993.174" r="4" fill="#0" id="circle117"/>
	<circle cx="817.949" cy="622.94" r="4" fill="#0" id="circle118"/>
	<circle cx="820.775" cy="444.889" r="4" fill="#0" id="circle119"/>
	<circle cx="820.775" cy="733.162" r="4" fill="#0" id="circle120"/>
	<circle cx="834.906" cy="979.043" r="4" fill="#0" id="circle121"/>
	<circle cx="840.558" cy="605.983" r="4" fill="#0" id="circle122"/>
	<circle cx="846.211" cy="747.293" r="4" fill="#0" id="circle123"/>
	<circle cx="849.037" cy="450.541" r="4" fill="#0" id="circle124"/>
	<circle cx="857.516" cy="962.085" r="4" fill="#0" id="circle125"/>
	<circle cx="863.168" cy="583.373" r="4" fill="#0" id="circle126"/>
	<circle cx="865.994" cy="769.903" r="4" fill="#0" id="circle127"/>
	<circle cx="871.647" cy="467.499" r="4" fill="#0" id="circle128"/>
	<circle cx="877.299" cy="557.937" r="4" fill="#0" id="circle129"/>
	<circle cx="877.299" cy="798.165" r="4" fill="#0" id="circle130"/>
	<circle cx="880.125" cy="945.128" r="4" fill="#0" id="circle131"/>
	<circle cx="882.952" cy="495.761" r="4" fill="#0" id="circle132"/>
	<circle cx="882.952" cy="826.427" r="4" fill="#0" id="circle133"/>
	<circle cx="888.604" cy="524.023" r="4" fill="#0" id="circle134"/>
	<circle cx="888.604" cy="854.689" r="4" fill="#0" id="circle135"/>
	<circle cx="888.604" cy="882.952" r="4" fill="#0" id="circle136"/>
	<circle cx="888.604" cy="911.214" r="4" fill="#0" id="circle137"/>
	</g>
</svg>