<?xml version="1.0" encoding="UTF-8" standalone="no"?>
<!-- Created with CurveBenchmark -->
<svg
	xmlns:dc="http://purl.org/dc/elements/1.1/"
	xmlns:cc="http://creativecommons.org/ns#"
	xmlns:rdf="http://www.w3.org/1999/02/22-rdf-syntax-ns#"
	xmlns:svg="http://www.w3.org/2000/svg"
	xmlns="http://www.w3.org/2000/svg"
	xmlns:sodipodi="http://sodipodi.sourceforge.net/DTD/sodipodi-0.dtd"
	xmlns:inkscape="http://www.inkscape.org/namespaces/inkscape"
	width="1000"
	height="1000"
	id="svg2"
	version="1.1"
	sodipodi:docname="manifold/crust-mgen2bp.png.txt">
<defs
	id="defs4" />
<metadata
	id="metadata7">
	<rdf:RDF>
		<cc:Work
			rdf:about="">
			<dc:format>image/svg+xml</dc:format>
			<dc:type
				rdf:resource="http://purl.org/dc/dcmitype/StillImage" />
			<dc:title></dc:title>
		</cc:Work>
	</rdf:RDF>
</metadata>
<g
	inkscape:label="Layer 1"
	inkscape:groupmode="layer"
	id="layer1">
	<path style="fill:none;stroke:red;stroke-width:1px;stroke-linecap:butt;stroke-linejoin:miter;stroke-opacity:1" d="M 77.4815,62.0117 62.0117,48.4756 z" id="boundary" inkscape:connector-curvature="0" />
	<path style="fill:none;stroke:red;stroke-width:1px;stroke-linecap:butt;stroke-linejoin:miter;stroke-opacity:1" d="M 71.6803,29.1384 62.0117,48.4756 z" id="boundary" inkscape:connector-curvature="0" />
	<path style="fill:none;stroke:red;stroke-width:1px;stroke-linecap:butt;stroke-linejoin:miter;stroke-opacity:1" d="M 87.1501,13.6686 104.554,4 z" id="boundary" inkscape:connector-curvature="0" />
	<path style="fill:none;stroke:red;stroke-width:1px;stroke-linecap:butt;stroke-linejoin:miter;stroke-opacity:1" d="M 71.6803,29.1384 87.1501,13.6686 z" id="boundary" inkscape:connector-curvature="0" />
	<path style="fill:none;stroke:red;stroke-width:1px;stroke-linecap:butt;stroke-linejoin:miter;stroke-opacity:1" d="M 85.2164,81.3489 77.4815,62.0117 z" id="boundary" inkscape:connector-curvature="0" />
	<path style="fill:none;stroke:red;stroke-width:1px;stroke-linecap:butt;stroke-linejoin:miter;stroke-opacity:1" d="M 85.2164,81.3489 100.686,92.9513 z" id="boundary" inkscape:connector-curvature="0" />
	<path style="fill:none;stroke:red;stroke-width:1px;stroke-linecap:butt;stroke-linejoin:miter;stroke-opacity:1" d="M 100.686,92.9513 112.288,108.421 z" id="boundary" inkscape:connector-curvature="0" />
	<path style="fill:none;stroke:red;stroke-width:1px;stroke-linecap:butt;stroke-linejoin:miter;stroke-opacity:1" d="M 141.294,13.6686 123.891,4 z" id="boundary" inkscape:connector-curvature="0" />
	<path style="fill:none;stroke:red;stroke-width:1px;stroke-linecap:butt;stroke-linejoin:miter;stroke-opacity:1" d="M 104.554,4 123.891,4 z" id="boundary" inkscape:connector-curvature="0" />
	<path style="fill:none;stroke:red;stroke-width:1px;stroke-linecap:butt;stroke-linejoin:miter;stroke-opacity:1" d="M 112.288,108.421 127.758,121.957 z" id="boundary" inkscape:connector-curvature="0" />
	<path style="fill:none;stroke:red;stroke-width:1px;stroke-linecap:butt;stroke-linejoin:miter;stroke-opacity:1" d="M 127.758,121.957 131.626,143.228 z" id="boundary" inkscape:connector-curvature="0" />
	<path style="fill:none;stroke:red;stroke-width:1px;stroke-linecap:butt;stroke-linejoin:miter;stroke-opacity:1" d="M 141.294,13.6686 160.632,19.4698 z" id="boundary" inkscape:connector-curvature="0" />
	<path style="fill:none;stroke:red;stroke-width:1px;stroke-linecap:butt;stroke-linejoin:miter;stroke-opacity:1" d="M 131.626,143.228 112.288,152.897 z" id="boundary" inkscape:connector-curvature="0" />
	<path style="fill:none;stroke:red;stroke-width:1px;stroke-linecap:butt;stroke-linejoin:miter;stroke-opacity:1" d="M 81.3489,203.173 81.3489,183.836 z" id="boundary" inkscape:connector-curvature="0" />
	<path style="fill:none;stroke:red;stroke-width:1px;stroke-linecap:butt;stroke-linejoin:miter;stroke-opacity:1" d="M 81.3489,203.173 81.3489,222.511 z" id="boundary" inkscape:connector-curvature="0" />
	<path style="fill:none;stroke:red;stroke-width:1px;stroke-linecap:butt;stroke-linejoin:miter;stroke-opacity:1" d="M 81.3489,241.848 81.3489,222.511 z" id="boundary" inkscape:connector-curvature="0" />
	<path style="fill:none;stroke:red;stroke-width:1px;stroke-linecap:butt;stroke-linejoin:miter;stroke-opacity:1" d="M 96.8187,168.366 81.3489,183.836 z" id="boundary" inkscape:connector-curvature="0" />
	<path style="fill:none;stroke:red;stroke-width:1px;stroke-linecap:butt;stroke-linejoin:miter;stroke-opacity:1" d="M 81.3489,241.848 96.8187,255.384 z" id="boundary" inkscape:connector-curvature="0" />
	<path style="fill:none;stroke:red;stroke-width:1px;stroke-linecap:butt;stroke-linejoin:miter;stroke-opacity:1" d="M 110.355,270.854 96.8187,255.384 z" id="boundary" inkscape:connector-curvature="0" />
	<path style="fill:none;stroke:red;stroke-width:1px;stroke-linecap:butt;stroke-linejoin:miter;stroke-opacity:1" d="M 96.8187,168.366 112.288,152.897 z" id="boundary" inkscape:connector-curvature="0" />
	<path style="fill:none;stroke:red;stroke-width:1px;stroke-linecap:butt;stroke-linejoin:miter;stroke-opacity:1" d="M 120.023,288.257 133.559,303.727 z" id="boundary" inkscape:connector-curvature="0" />
	<path style="fill:none;stroke:red;stroke-width:1px;stroke-linecap:butt;stroke-linejoin:miter;stroke-opacity:1" d="M 120.023,288.257 110.355,270.854 z" id="boundary" inkscape:connector-curvature="0" />
	<path style="fill:none;stroke:red;stroke-width:1px;stroke-linecap:butt;stroke-linejoin:miter;stroke-opacity:1" d="M 133.559,303.727 149.029,315.329 z" id="boundary" inkscape:connector-curvature="0" />
	<path style="fill:none;stroke:red;stroke-width:1px;stroke-linecap:butt;stroke-linejoin:miter;stroke-opacity:1" d="M 149.029,315.329 166.433,324.998 z" id="boundary" inkscape:connector-curvature="0" />
	<path style="fill:none;stroke:red;stroke-width:1px;stroke-linecap:butt;stroke-linejoin:miter;stroke-opacity:1" d="M 176.101,33.0058 160.632,19.4698 z" id="boundary" inkscape:connector-curvature="0" />
	<path style="fill:none;stroke:red;stroke-width:1px;stroke-linecap:butt;stroke-linejoin:miter;stroke-opacity:1" d="M 176.101,33.0058 189.637,48.4756 z" id="boundary" inkscape:connector-curvature="0" />
	<path style="fill:none;stroke:red;stroke-width:1px;stroke-linecap:butt;stroke-linejoin:miter;stroke-opacity:1" d="M 203.173,63.9454 189.637,48.4756 z" id="boundary" inkscape:connector-curvature="0" />
	<path style="fill:none;stroke:red;stroke-width:1px;stroke-linecap:butt;stroke-linejoin:miter;stroke-opacity:1" d="M 218.643,77.4815 203.173,63.9454 z" id="boundary" inkscape:connector-curvature="0" />
	<path style="fill:none;stroke:red;stroke-width:1px;stroke-linecap:butt;stroke-linejoin:miter;stroke-opacity:1" d="M 218.643,77.4815 232.179,92.9513 z" id="boundary" inkscape:connector-curvature="0" />
	<path style="fill:none;stroke:red;stroke-width:1px;stroke-linecap:butt;stroke-linejoin:miter;stroke-opacity:1" d="M 247.649,106.487 232.179,92.9513 z" id="boundary" inkscape:connector-curvature="0" />
	<path style="fill:none;stroke:red;stroke-width:1px;stroke-linecap:butt;stroke-linejoin:miter;stroke-opacity:1" d="M 313.396,77.4815 297.926,91.0175 z" id="boundary" inkscape:connector-curvature="0" />
	<path style="fill:none;stroke:red;stroke-width:1px;stroke-linecap:butt;stroke-linejoin:miter;stroke-opacity:1" d="M 332.733,67.8129 313.396,77.4815 z" id="boundary" inkscape:connector-curvature="0" />
	<path style="fill:none;stroke:red;stroke-width:1px;stroke-linecap:butt;stroke-linejoin:miter;stroke-opacity:1" d="M 280.522,100.686 297.926,91.0175 z" id="boundary" inkscape:connector-curvature="0" />
	<path style="fill:none;stroke:red;stroke-width:1px;stroke-linecap:butt;stroke-linejoin:miter;stroke-opacity:1" d="M 332.733,67.8129 352.07,58.1442 z" id="boundary" inkscape:connector-curvature="0" />
	<path style="fill:none;stroke:red;stroke-width:1px;stroke-linecap:butt;stroke-linejoin:miter;stroke-opacity:1" d="M 371.407,48.4756 352.07,58.1442 z" id="boundary" inkscape:connector-curvature="0" />
	<path style="fill:none;stroke:red;stroke-width:1px;stroke-linecap:butt;stroke-linejoin:miter;stroke-opacity:1" d="M 390.745,38.807 371.407,48.4756 z" id="boundary" inkscape:connector-curvature="0" />
	<path style="fill:none;stroke:red;stroke-width:1px;stroke-linecap:butt;stroke-linejoin:miter;stroke-opacity:1" d="M 280.522,100.686 265.053,116.156 z" id="boundary" inkscape:connector-curvature="0" />
	<path style="fill:none;stroke:red;stroke-width:1px;stroke-linecap:butt;stroke-linejoin:miter;stroke-opacity:1" d="M 220.577,344.335 203.173,334.667 z" id="boundary" inkscape:connector-curvature="0" />
	<path style="fill:none;stroke:red;stroke-width:1px;stroke-linecap:butt;stroke-linejoin:miter;stroke-opacity:1" d="M 166.433,324.998 183.836,334.667 z" id="boundary" inkscape:connector-curvature="0" />
	<path style="fill:none;stroke:red;stroke-width:1px;stroke-linecap:butt;stroke-linejoin:miter;stroke-opacity:1" d="M 203.173,381.076 187.704,396.546 z" id="boundary" inkscape:connector-curvature="0" />
	<path style="fill:none;stroke:red;stroke-width:1px;stroke-linecap:butt;stroke-linejoin:miter;stroke-opacity:1" d="M 183.836,334.667 203.173,334.667 z" id="boundary" inkscape:connector-curvature="0" />
	<path style="fill:none;stroke:red;stroke-width:1px;stroke-linecap:butt;stroke-linejoin:miter;stroke-opacity:1" d="M 220.577,371.407 203.173,381.076 z" id="boundary" inkscape:connector-curvature="0" />
	<path style="fill:none;stroke:red;stroke-width:1px;stroke-linecap:butt;stroke-linejoin:miter;stroke-opacity:1" d="M 265.053,116.156 247.649,106.487 z" id="boundary" inkscape:connector-curvature="0" />
	<path style="fill:none;stroke:red;stroke-width:1px;stroke-linecap:butt;stroke-linejoin:miter;stroke-opacity:1" d="M 220.577,344.335 236.047,355.938 z" id="boundary" inkscape:connector-curvature="0" />
	<path style="fill:none;stroke:red;stroke-width:1px;stroke-linecap:butt;stroke-linejoin:miter;stroke-opacity:1" d="M 236.047,355.938 220.577,371.407 z" id="boundary" inkscape:connector-curvature="0" />
	<path style="fill:none;stroke:red;stroke-width:1px;stroke-linecap:butt;stroke-linejoin:miter;stroke-opacity:1" d="M 187.704,396.546 178.035,415.883 z" id="boundary" inkscape:connector-curvature="0" />
	<path style="fill:none;stroke:red;stroke-width:1px;stroke-linecap:butt;stroke-linejoin:miter;stroke-opacity:1" d="M 33.0058,638.261 13.6686,647.93 z" id="boundary" inkscape:connector-curvature="0" />
	<path style="fill:none;stroke:red;stroke-width:1px;stroke-linecap:butt;stroke-linejoin:miter;stroke-opacity:1" d="M 48.4756,622.791 33.0058,638.261 z" id="boundary" inkscape:connector-curvature="0" />
	<path style="fill:none;stroke:red;stroke-width:1px;stroke-linecap:butt;stroke-linejoin:miter;stroke-opacity:1" d="M 4,667.267 13.6686,647.93 z" id="boundary" inkscape:connector-curvature="0" />
	<path style="fill:none;stroke:red;stroke-width:1px;stroke-linecap:butt;stroke-linejoin:miter;stroke-opacity:1" d="M 65.8791,613.123 48.4756,622.791 z" id="boundary" inkscape:connector-curvature="0" />
	<path style="fill:none;stroke:red;stroke-width:1px;stroke-linecap:butt;stroke-linejoin:miter;stroke-opacity:1" d="M 139.361,493.232 139.361,512.569 z" id="boundary" inkscape:connector-curvature="0" />
	<path style="fill:none;stroke:red;stroke-width:1px;stroke-linecap:butt;stroke-linejoin:miter;stroke-opacity:1" d="M 139.361,531.906 139.361,512.569 z" id="boundary" inkscape:connector-curvature="0" />
	<path style="fill:none;stroke:red;stroke-width:1px;stroke-linecap:butt;stroke-linejoin:miter;stroke-opacity:1" d="M 139.361,531.906 139.361,551.244 z" id="boundary" inkscape:connector-curvature="0" />
	<path style="fill:none;stroke:red;stroke-width:1px;stroke-linecap:butt;stroke-linejoin:miter;stroke-opacity:1" d="M 139.361,570.581 139.361,551.244 z" id="boundary" inkscape:connector-curvature="0" />
	<path style="fill:none;stroke:red;stroke-width:1px;stroke-linecap:butt;stroke-linejoin:miter;stroke-opacity:1" d="M 149.029,473.895 139.361,493.232 z" id="boundary" inkscape:connector-curvature="0" />
	<path style="fill:none;stroke:red;stroke-width:1px;stroke-linecap:butt;stroke-linejoin:miter;stroke-opacity:1" d="M 83.2827,603.454 100.686,593.786 z" id="boundary" inkscape:connector-curvature="0" />
	<path style="fill:none;stroke:red;stroke-width:1px;stroke-linecap:butt;stroke-linejoin:miter;stroke-opacity:1" d="M 120.023,589.918 100.686,593.786 z" id="boundary" inkscape:connector-curvature="0" />
	<path style="fill:none;stroke:red;stroke-width:1px;stroke-linecap:butt;stroke-linejoin:miter;stroke-opacity:1" d="M 65.8791,613.123 83.2827,603.454 z" id="boundary" inkscape:connector-curvature="0" />
	<path style="fill:none;stroke:red;stroke-width:1px;stroke-linecap:butt;stroke-linejoin:miter;stroke-opacity:1" d="M 139.361,570.581 139.361,589.918 z" id="boundary" inkscape:connector-curvature="0" />
	<path style="fill:none;stroke:red;stroke-width:1px;stroke-linecap:butt;stroke-linejoin:miter;stroke-opacity:1" d="M 120.023,589.918 139.361,589.918 z" id="boundary" inkscape:connector-curvature="0" />
	<path style="fill:none;stroke:red;stroke-width:1px;stroke-linecap:butt;stroke-linejoin:miter;stroke-opacity:1" d="M 4,667.267 13.6686,684.671 z" id="boundary" inkscape:connector-curvature="0" />
	<path style="fill:none;stroke:red;stroke-width:1px;stroke-linecap:butt;stroke-linejoin:miter;stroke-opacity:1" d="M 13.6686,684.671 23.3372,702.074 z" id="boundary" inkscape:connector-curvature="0" />
	<path style="fill:none;stroke:red;stroke-width:1px;stroke-linecap:butt;stroke-linejoin:miter;stroke-opacity:1" d="M 23.3372,702.074 34.9396,717.544 z" id="boundary" inkscape:connector-curvature="0" />
	<path style="fill:none;stroke:red;stroke-width:1px;stroke-linecap:butt;stroke-linejoin:miter;stroke-opacity:1" d="M 34.9396,717.544 54.2768,725.279 z" id="boundary" inkscape:connector-curvature="0" />
	<path style="fill:none;stroke:red;stroke-width:1px;stroke-linecap:butt;stroke-linejoin:miter;stroke-opacity:1" d="M 54.2768,725.279 67.8129,740.749 z" id="boundary" inkscape:connector-curvature="0" />
	<path style="fill:none;stroke:red;stroke-width:1px;stroke-linecap:butt;stroke-linejoin:miter;stroke-opacity:1" d="M 85.2164,750.417 67.8129,740.749 z" id="boundary" inkscape:connector-curvature="0" />
	<path style="fill:none;stroke:red;stroke-width:1px;stroke-linecap:butt;stroke-linejoin:miter;stroke-opacity:1" d="M 85.2164,750.417 100.686,762.019 z" id="boundary" inkscape:connector-curvature="0" />
	<path style="fill:none;stroke:red;stroke-width:1px;stroke-linecap:butt;stroke-linejoin:miter;stroke-opacity:1" d="M 120.023,769.754 100.686,762.019 z" id="boundary" inkscape:connector-curvature="0" />
	<path style="fill:none;stroke:red;stroke-width:1px;stroke-linecap:butt;stroke-linejoin:miter;stroke-opacity:1" d="M 137.427,779.423 120.023,769.754 z" id="boundary" inkscape:connector-curvature="0" />
	<path style="fill:none;stroke:red;stroke-width:1px;stroke-linecap:butt;stroke-linejoin:miter;stroke-opacity:1" d="M 156.764,779.423 137.427,779.423 z" id="boundary" inkscape:connector-curvature="0" />
	<path style="fill:none;stroke:red;stroke-width:1px;stroke-linecap:butt;stroke-linejoin:miter;stroke-opacity:1" d="M 149.029,473.895 149.029,454.558 z" id="boundary" inkscape:connector-curvature="0" />
	<path style="fill:none;stroke:red;stroke-width:1px;stroke-linecap:butt;stroke-linejoin:miter;stroke-opacity:1" d="M 149.029,454.558 164.499,439.088 z" id="boundary" inkscape:connector-curvature="0" />
	<path style="fill:none;stroke:red;stroke-width:1px;stroke-linecap:butt;stroke-linejoin:miter;stroke-opacity:1" d="M 164.499,439.088 178.035,415.883 z" id="boundary" inkscape:connector-curvature="0" />
	<path style="fill:none;stroke:red;stroke-width:1px;stroke-linecap:butt;stroke-linejoin:miter;stroke-opacity:1" d="M 176.101,779.423 156.764,779.423 z" id="boundary" inkscape:connector-curvature="0" />
	<path style="fill:none;stroke:red;stroke-width:1px;stroke-linecap:butt;stroke-linejoin:miter;stroke-opacity:1" d="M 195.439,775.556 176.101,779.423 z" id="boundary" inkscape:connector-curvature="0" />
	<path style="fill:none;stroke:red;stroke-width:1px;stroke-linecap:butt;stroke-linejoin:miter;stroke-opacity:1" d="M 214.776,769.754 195.439,775.556 z" id="boundary" inkscape:connector-curvature="0" />
	<path style="fill:none;stroke:red;stroke-width:1px;stroke-linecap:butt;stroke-linejoin:miter;stroke-opacity:1" d="M 216.71,792.959 216.71,812.296 z" id="boundary" inkscape:connector-curvature="0" />
	<path style="fill:none;stroke:red;stroke-width:1px;stroke-linecap:butt;stroke-linejoin:miter;stroke-opacity:1" d="M 214.776,769.754 216.71,792.959 z" id="boundary" inkscape:connector-curvature="0" />
	<path style="fill:none;stroke:red;stroke-width:1px;stroke-linecap:butt;stroke-linejoin:miter;stroke-opacity:1" d="M 216.71,812.296 216.71,831.634 z" id="boundary" inkscape:connector-curvature="0" />
	<path style="fill:none;stroke:red;stroke-width:1px;stroke-linecap:butt;stroke-linejoin:miter;stroke-opacity:1" d="M 216.71,831.634 216.71,860.639 z" id="boundary" inkscape:connector-curvature="0" />
	<path style="fill:none;stroke:red;stroke-width:1px;stroke-linecap:butt;stroke-linejoin:miter;stroke-opacity:1" d="M 226.378,878.043 216.71,860.639 z" id="boundary" inkscape:connector-curvature="0" />
	<path style="fill:none;stroke:red;stroke-width:1px;stroke-linecap:butt;stroke-linejoin:miter;stroke-opacity:1" d="M 236.047,895.446 226.378,878.043 z" id="boundary" inkscape:connector-curvature="0" />
	<path style="fill:none;stroke:red;stroke-width:1px;stroke-linecap:butt;stroke-linejoin:miter;stroke-opacity:1" d="M 236.047,895.446 241.848,914.784 z" id="boundary" inkscape:connector-curvature="0" />
	<path style="fill:none;stroke:red;stroke-width:1px;stroke-linecap:butt;stroke-linejoin:miter;stroke-opacity:1" d="M 241.848,914.784 257.318,928.32 z" id="boundary" inkscape:connector-curvature="0" />
	<path style="fill:none;stroke:red;stroke-width:1px;stroke-linecap:butt;stroke-linejoin:miter;stroke-opacity:1" d="M 265.053,947.657 257.318,928.32 z" id="boundary" inkscape:connector-curvature="0" />
	<path style="fill:none;stroke:red;stroke-width:1px;stroke-linecap:butt;stroke-linejoin:miter;stroke-opacity:1" d="M 265.053,947.657 284.39,953.458 z" id="boundary" inkscape:connector-curvature="0" />
	<path style="fill:none;stroke:red;stroke-width:1px;stroke-linecap:butt;stroke-linejoin:miter;stroke-opacity:1" d="M 295.992,968.928 315.329,976.663 z" id="boundary" inkscape:connector-curvature="0" />
	<path style="fill:none;stroke:red;stroke-width:1px;stroke-linecap:butt;stroke-linejoin:miter;stroke-opacity:1" d="M 295.992,968.928 284.39,953.458 z" id="boundary" inkscape:connector-curvature="0" />
	<path style="fill:none;stroke:red;stroke-width:1px;stroke-linecap:butt;stroke-linejoin:miter;stroke-opacity:1" d="M 315.329,976.663 334.667,982.464 z" id="boundary" inkscape:connector-curvature="0" />
	<path style="fill:none;stroke:red;stroke-width:1px;stroke-linecap:butt;stroke-linejoin:miter;stroke-opacity:1" d="M 334.667,982.464 352.07,992.133 z" id="boundary" inkscape:connector-curvature="0" />
	<path style="fill:none;stroke:red;stroke-width:1px;stroke-linecap:butt;stroke-linejoin:miter;stroke-opacity:1" d="M 371.407,992.133 352.07,992.133 z" id="boundary" inkscape:connector-curvature="0" />
	<path style="fill:none;stroke:red;stroke-width:1px;stroke-linecap:butt;stroke-linejoin:miter;stroke-opacity:1" d="M 371.407,992.133 390.745,992.133 z" id="boundary" inkscape:connector-curvature="0" />
	<path style="fill:none;stroke:red;stroke-width:1px;stroke-linecap:butt;stroke-linejoin:miter;stroke-opacity:1" d="M 410.082,38.807 390.745,38.807 z" id="boundary" inkscape:connector-curvature="0" />
	<path style="fill:none;stroke:red;stroke-width:1px;stroke-linecap:butt;stroke-linejoin:miter;stroke-opacity:1" d="M 448.756,33.0058 429.419,33.0058 z" id="boundary" inkscape:connector-curvature="0" />
	<path style="fill:none;stroke:red;stroke-width:1px;stroke-linecap:butt;stroke-linejoin:miter;stroke-opacity:1" d="M 429.419,33.0058 410.082,38.807 z" id="boundary" inkscape:connector-curvature="0" />
	<path style="fill:none;stroke:red;stroke-width:1px;stroke-linecap:butt;stroke-linejoin:miter;stroke-opacity:1" d="M 487.431,33.0058 468.094,33.0058 z" id="boundary" inkscape:connector-curvature="0" />
	<path style="fill:none;stroke:red;stroke-width:1px;stroke-linecap:butt;stroke-linejoin:miter;stroke-opacity:1" d="M 468.094,33.0058 448.756,33.0058 z" id="boundary" inkscape:connector-curvature="0" />
	<path style="fill:none;stroke:red;stroke-width:1px;stroke-linecap:butt;stroke-linejoin:miter;stroke-opacity:1" d="M 541.575,54.2768 524.172,44.6082 z" id="boundary" inkscape:connector-curvature="0" />
	<path style="fill:none;stroke:red;stroke-width:1px;stroke-linecap:butt;stroke-linejoin:miter;stroke-opacity:1" d="M 504.834,42.6745 487.431,33.0058 z" id="boundary" inkscape:connector-curvature="0" />
	<path style="fill:none;stroke:red;stroke-width:1px;stroke-linecap:butt;stroke-linejoin:miter;stroke-opacity:1" d="M 504.834,42.6745 524.172,44.6082 z" id="boundary" inkscape:connector-curvature="0" />
	<path style="fill:none;stroke:red;stroke-width:1px;stroke-linecap:butt;stroke-linejoin:miter;stroke-opacity:1" d="M 541.575,54.2768 560.912,62.0117 z" id="boundary" inkscape:connector-curvature="0" />
	<path style="fill:none;stroke:red;stroke-width:1px;stroke-linecap:butt;stroke-linejoin:miter;stroke-opacity:1" d="M 560.912,62.0117 574.448,77.4815 z" id="boundary" inkscape:connector-curvature="0" />
	<path style="fill:none;stroke:red;stroke-width:1px;stroke-linecap:butt;stroke-linejoin:miter;stroke-opacity:1" d="M 593.786,85.2164 574.448,77.4815 z" id="boundary" inkscape:connector-curvature="0" />
	<path style="fill:none;stroke:red;stroke-width:1px;stroke-linecap:butt;stroke-linejoin:miter;stroke-opacity:1" d="M 605.388,100.686 593.786,85.2164 z" id="boundary" inkscape:connector-curvature="0" />
	<path style="fill:none;stroke:red;stroke-width:1px;stroke-linecap:butt;stroke-linejoin:miter;stroke-opacity:1" d="M 605.388,100.686 615.057,118.09 z" id="boundary" inkscape:connector-curvature="0" />
	<path style="fill:none;stroke:red;stroke-width:1px;stroke-linecap:butt;stroke-linejoin:miter;stroke-opacity:1" d="M 615.057,118.09 624.725,135.493 z" id="boundary" inkscape:connector-curvature="0" />
	<path style="fill:none;stroke:red;stroke-width:1px;stroke-linecap:butt;stroke-linejoin:miter;stroke-opacity:1" d="M 634.394,152.897 624.725,135.493 z" id="boundary" inkscape:connector-curvature="0" />
	<path style="fill:none;stroke:red;stroke-width:1px;stroke-linecap:butt;stroke-linejoin:miter;stroke-opacity:1" d="M 634.394,152.897 644.062,170.3 z" id="boundary" inkscape:connector-curvature="0" />
	<path style="fill:none;stroke:red;stroke-width:1px;stroke-linecap:butt;stroke-linejoin:miter;stroke-opacity:1" d="M 644.062,170.3 663.4,168.366 z" id="boundary" inkscape:connector-curvature="0" />
	<path style="fill:none;stroke:red;stroke-width:1px;stroke-linecap:butt;stroke-linejoin:miter;stroke-opacity:1" d="M 682.737,162.565 663.4,168.366 z" id="boundary" inkscape:connector-curvature="0" />
	<path style="fill:none;stroke:red;stroke-width:1px;stroke-linecap:butt;stroke-linejoin:miter;stroke-opacity:1" d="M 634.394,305.661 624.725,324.998 z" id="boundary" inkscape:connector-curvature="0" />
	<path style="fill:none;stroke:red;stroke-width:1px;stroke-linecap:butt;stroke-linejoin:miter;stroke-opacity:1" d="M 640.195,336.6 624.725,324.998 z" id="boundary" inkscape:connector-curvature="0" />
	<path style="fill:none;stroke:red;stroke-width:1px;stroke-linecap:butt;stroke-linejoin:miter;stroke-opacity:1" d="M 651.797,295.992 669.201,286.324 z" id="boundary" inkscape:connector-curvature="0" />
	<path style="fill:none;stroke:red;stroke-width:1px;stroke-linecap:butt;stroke-linejoin:miter;stroke-opacity:1" d="M 651.797,295.992 634.394,305.661 z" id="boundary" inkscape:connector-curvature="0" />
	<path style="fill:none;stroke:red;stroke-width:1px;stroke-linecap:butt;stroke-linejoin:miter;stroke-opacity:1" d="M 810.363,110.355 791.025,110.355 z" id="boundary" inkscape:connector-curvature="0" />
	<path style="fill:none;stroke:red;stroke-width:1px;stroke-linecap:butt;stroke-linejoin:miter;stroke-opacity:1" d="M 702.074,152.897 717.544,139.361 z" id="boundary" inkscape:connector-curvature="0" />
	<path style="fill:none;stroke:red;stroke-width:1px;stroke-linecap:butt;stroke-linejoin:miter;stroke-opacity:1" d="M 734.947,129.692 717.544,139.361 z" id="boundary" inkscape:connector-curvature="0" />
	<path style="fill:none;stroke:red;stroke-width:1px;stroke-linecap:butt;stroke-linejoin:miter;stroke-opacity:1" d="M 682.737,162.565 702.074,152.897 z" id="boundary" inkscape:connector-curvature="0" />
	<path style="fill:none;stroke:red;stroke-width:1px;stroke-linecap:butt;stroke-linejoin:miter;stroke-opacity:1" d="M 773.622,120.023 754.285,120.023 z" id="boundary" inkscape:connector-curvature="0" />
	<path style="fill:none;stroke:red;stroke-width:1px;stroke-linecap:butt;stroke-linejoin:miter;stroke-opacity:1" d="M 791.025,110.355 773.622,120.023 z" id="boundary" inkscape:connector-curvature="0" />
	<path style="fill:none;stroke:red;stroke-width:1px;stroke-linecap:butt;stroke-linejoin:miter;stroke-opacity:1" d="M 734.947,129.692 754.285,120.023 z" id="boundary" inkscape:connector-curvature="0" />
	<path style="fill:none;stroke:red;stroke-width:1px;stroke-linecap:butt;stroke-linejoin:miter;stroke-opacity:1" d="M 810.363,110.355 827.766,120.023 z" id="boundary" inkscape:connector-curvature="0" />
	<path style="fill:none;stroke:red;stroke-width:1px;stroke-linecap:butt;stroke-linejoin:miter;stroke-opacity:1" d="M 879.977,149.029 864.507,135.493 z" id="boundary" inkscape:connector-curvature="0" />
	<path style="fill:none;stroke:red;stroke-width:1px;stroke-linecap:butt;stroke-linejoin:miter;stroke-opacity:1" d="M 847.103,125.825 827.766,120.023 z" id="boundary" inkscape:connector-curvature="0" />
	<path style="fill:none;stroke:red;stroke-width:1px;stroke-linecap:butt;stroke-linejoin:miter;stroke-opacity:1" d="M 864.507,135.493 847.103,125.825 z" id="boundary" inkscape:connector-curvature="0" />
	<path style="fill:none;stroke:red;stroke-width:1px;stroke-linecap:butt;stroke-linejoin:miter;stroke-opacity:1" d="M 879.977,149.029 883.844,183.836 z" id="boundary" inkscape:connector-curvature="0" />
	<path style="fill:none;stroke:red;stroke-width:1px;stroke-linecap:butt;stroke-linejoin:miter;stroke-opacity:1" d="M 763.953,265.053 744.616,266.986 z" id="boundary" inkscape:connector-curvature="0" />
	<path style="fill:none;stroke:red;stroke-width:1px;stroke-linecap:butt;stroke-linejoin:miter;stroke-opacity:1" d="M 744.616,266.986 725.279,274.721 z" id="boundary" inkscape:connector-curvature="0" />
	<path style="fill:none;stroke:red;stroke-width:1px;stroke-linecap:butt;stroke-linejoin:miter;stroke-opacity:1" d="M 669.201,286.324 688.538,286.324 z" id="boundary" inkscape:connector-curvature="0" />
	<path style="fill:none;stroke:red;stroke-width:1px;stroke-linecap:butt;stroke-linejoin:miter;stroke-opacity:1" d="M 705.942,276.655 725.279,274.721 z" id="boundary" inkscape:connector-curvature="0" />
	<path style="fill:none;stroke:red;stroke-width:1px;stroke-linecap:butt;stroke-linejoin:miter;stroke-opacity:1" d="M 688.538,286.324 705.942,276.655 z" id="boundary" inkscape:connector-curvature="0" />
	<path style="fill:none;stroke:red;stroke-width:1px;stroke-linecap:butt;stroke-linejoin:miter;stroke-opacity:1" d="M 868.374,199.306 850.971,208.975 z" id="boundary" inkscape:connector-curvature="0" />
	<path style="fill:none;stroke:red;stroke-width:1px;stroke-linecap:butt;stroke-linejoin:miter;stroke-opacity:1" d="M 883.844,183.836 868.374,199.306 z" id="boundary" inkscape:connector-curvature="0" />
	<path style="fill:none;stroke:red;stroke-width:1px;stroke-linecap:butt;stroke-linejoin:miter;stroke-opacity:1" d="M 821.965,236.047 802.628,245.715 z" id="boundary" inkscape:connector-curvature="0" />
	<path style="fill:none;stroke:red;stroke-width:1px;stroke-linecap:butt;stroke-linejoin:miter;stroke-opacity:1" d="M 802.628,245.715 783.29,255.384 z" id="boundary" inkscape:connector-curvature="0" />
	<path style="fill:none;stroke:red;stroke-width:1px;stroke-linecap:butt;stroke-linejoin:miter;stroke-opacity:1" d="M 763.953,265.053 783.29,255.384 z" id="boundary" inkscape:connector-curvature="0" />
	<path style="fill:none;stroke:red;stroke-width:1px;stroke-linecap:butt;stroke-linejoin:miter;stroke-opacity:1" d="M 841.302,226.378 850.971,208.975 z" id="boundary" inkscape:connector-curvature="0" />
	<path style="fill:none;stroke:red;stroke-width:1px;stroke-linecap:butt;stroke-linejoin:miter;stroke-opacity:1" d="M 841.302,226.378 821.965,236.047 z" id="boundary" inkscape:connector-curvature="0" />
	<path style="fill:none;stroke:red;stroke-width:1px;stroke-linecap:butt;stroke-linejoin:miter;stroke-opacity:1" d="M 410.082,992.133 390.745,992.133 z" id="boundary" inkscape:connector-curvature="0" />
	<path style="fill:none;stroke:red;stroke-width:1px;stroke-linecap:butt;stroke-linejoin:miter;stroke-opacity:1" d="M 429.419,996 410.082,992.133 z" id="boundary" inkscape:connector-curvature="0" />
	<path style="fill:none;stroke:red;stroke-width:1px;stroke-linecap:butt;stroke-linejoin:miter;stroke-opacity:1" d="M 448.756,992.133 429.419,996 z" id="boundary" inkscape:connector-curvature="0" />
	<path style="fill:none;stroke:red;stroke-width:1px;stroke-linecap:butt;stroke-linejoin:miter;stroke-opacity:1" d="M 487.431,986.331 468.094,986.331 z" id="boundary" inkscape:connector-curvature="0" />
	<path style="fill:none;stroke:red;stroke-width:1px;stroke-linecap:butt;stroke-linejoin:miter;stroke-opacity:1" d="M 468.094,986.331 448.756,992.133 z" id="boundary" inkscape:connector-curvature="0" />
	<path style="fill:none;stroke:red;stroke-width:1px;stroke-linecap:butt;stroke-linejoin:miter;stroke-opacity:1" d="M 487.431,986.331 502.901,972.795 z" id="boundary" inkscape:connector-curvature="0" />
	<path style="fill:none;stroke:red;stroke-width:1px;stroke-linecap:butt;stroke-linejoin:miter;stroke-opacity:1" d="M 634.394,866.441 620.858,881.91 z" id="boundary" inkscape:connector-curvature="0" />
	<path style="fill:none;stroke:red;stroke-width:1px;stroke-linecap:butt;stroke-linejoin:miter;stroke-opacity:1" d="M 591.852,920.585 605.388,895.446 z" id="boundary" inkscape:connector-curvature="0" />
	<path style="fill:none;stroke:red;stroke-width:1px;stroke-linecap:butt;stroke-linejoin:miter;stroke-opacity:1" d="M 620.858,881.91 605.388,895.446 z" id="boundary" inkscape:connector-curvature="0" />
	<path style="fill:none;stroke:red;stroke-width:1px;stroke-linecap:butt;stroke-linejoin:miter;stroke-opacity:1" d="M 541.575,961.193 522.238,970.862 z" id="boundary" inkscape:connector-curvature="0" />
	<path style="fill:none;stroke:red;stroke-width:1px;stroke-linecap:butt;stroke-linejoin:miter;stroke-opacity:1" d="M 502.901,972.795 522.238,970.862 z" id="boundary" inkscape:connector-curvature="0" />
	<path style="fill:none;stroke:red;stroke-width:1px;stroke-linecap:butt;stroke-linejoin:miter;stroke-opacity:1" d="M 541.575,961.193 557.045,943.789 z" id="boundary" inkscape:connector-curvature="0" />
	<path style="fill:none;stroke:red;stroke-width:1px;stroke-linecap:butt;stroke-linejoin:miter;stroke-opacity:1" d="M 576.382,934.121 591.852,920.585 z" id="boundary" inkscape:connector-curvature="0" />
	<path style="fill:none;stroke:red;stroke-width:1px;stroke-linecap:butt;stroke-linejoin:miter;stroke-opacity:1" d="M 576.382,934.121 557.045,943.789 z" id="boundary" inkscape:connector-curvature="0" />
	<path style="fill:none;stroke:red;stroke-width:1px;stroke-linecap:butt;stroke-linejoin:miter;stroke-opacity:1" d="M 669.201,363.673 653.731,352.07 z" id="boundary" inkscape:connector-curvature="0" />
	<path style="fill:none;stroke:red;stroke-width:1px;stroke-linecap:butt;stroke-linejoin:miter;stroke-opacity:1" d="M 653.731,352.07 640.195,336.6 z" id="boundary" inkscape:connector-curvature="0" />
	<path style="fill:none;stroke:red;stroke-width:1px;stroke-linecap:butt;stroke-linejoin:miter;stroke-opacity:1" d="M 669.201,363.673 682.737,379.142 z" id="boundary" inkscape:connector-curvature="0" />
	<path style="fill:none;stroke:red;stroke-width:1px;stroke-linecap:butt;stroke-linejoin:miter;stroke-opacity:1" d="M 692.405,396.546 682.737,379.142 z" id="boundary" inkscape:connector-curvature="0" />
	<path style="fill:none;stroke:red;stroke-width:1px;stroke-linecap:butt;stroke-linejoin:miter;stroke-opacity:1" d="M 692.405,396.546 702.074,413.949 z" id="boundary" inkscape:connector-curvature="0" />
	<path style="fill:none;stroke:red;stroke-width:1px;stroke-linecap:butt;stroke-linejoin:miter;stroke-opacity:1" d="M 711.743,431.353 702.074,413.949 z" id="boundary" inkscape:connector-curvature="0" />
	<path style="fill:none;stroke:red;stroke-width:1px;stroke-linecap:butt;stroke-linejoin:miter;stroke-opacity:1" d="M 711.743,518.37 702.074,547.376 z" id="boundary" inkscape:connector-curvature="0" />
	<path style="fill:none;stroke:red;stroke-width:1px;stroke-linecap:butt;stroke-linejoin:miter;stroke-opacity:1" d="M 702.074,566.713 702.074,547.376 z" id="boundary" inkscape:connector-curvature="0" />
	<path style="fill:none;stroke:red;stroke-width:1px;stroke-linecap:butt;stroke-linejoin:miter;stroke-opacity:1" d="M 711.743,499.033 711.743,479.696 z" id="boundary" inkscape:connector-curvature="0" />
	<path style="fill:none;stroke:red;stroke-width:1px;stroke-linecap:butt;stroke-linejoin:miter;stroke-opacity:1" d="M 721.411,448.756 711.743,479.696 z" id="boundary" inkscape:connector-curvature="0" />
	<path style="fill:none;stroke:red;stroke-width:1px;stroke-linecap:butt;stroke-linejoin:miter;stroke-opacity:1" d="M 711.743,499.033 711.743,518.37 z" id="boundary" inkscape:connector-curvature="0" />
	<path style="fill:none;stroke:red;stroke-width:1px;stroke-linecap:butt;stroke-linejoin:miter;stroke-opacity:1" d="M 711.743,431.353 721.411,448.756 z" id="boundary" inkscape:connector-curvature="0" />
	<path style="fill:none;stroke:red;stroke-width:1px;stroke-linecap:butt;stroke-linejoin:miter;stroke-opacity:1" d="M 663.4,692.405 653.731,711.743 z" id="boundary" inkscape:connector-curvature="0" />
	<path style="fill:none;stroke:red;stroke-width:1px;stroke-linecap:butt;stroke-linejoin:miter;stroke-opacity:1" d="M 673.068,673.068 663.4,692.405 z" id="boundary" inkscape:connector-curvature="0" />
	<path style="fill:none;stroke:red;stroke-width:1px;stroke-linecap:butt;stroke-linejoin:miter;stroke-opacity:1" d="M 644.062,731.08 653.731,711.743 z" id="boundary" inkscape:connector-curvature="0" />
	<path style="fill:none;stroke:red;stroke-width:1px;stroke-linecap:butt;stroke-linejoin:miter;stroke-opacity:1" d="M 682.737,653.731 673.068,673.068 z" id="boundary" inkscape:connector-curvature="0" />
	<path style="fill:none;stroke:red;stroke-width:1px;stroke-linecap:butt;stroke-linejoin:miter;stroke-opacity:1" d="M 692.405,605.388 692.405,624.725 z" id="boundary" inkscape:connector-curvature="0" />
	<path style="fill:none;stroke:red;stroke-width:1px;stroke-linecap:butt;stroke-linejoin:miter;stroke-opacity:1" d="M 692.405,624.725 682.737,653.731 z" id="boundary" inkscape:connector-curvature="0" />
	<path style="fill:none;stroke:red;stroke-width:1px;stroke-linecap:butt;stroke-linejoin:miter;stroke-opacity:1" d="M 702.074,586.051 692.405,605.388 z" id="boundary" inkscape:connector-curvature="0" />
	<path style="fill:none;stroke:red;stroke-width:1px;stroke-linecap:butt;stroke-linejoin:miter;stroke-opacity:1" d="M 644.062,750.417 644.062,731.08 z" id="boundary" inkscape:connector-curvature="0" />
	<path style="fill:none;stroke:red;stroke-width:1px;stroke-linecap:butt;stroke-linejoin:miter;stroke-opacity:1" d="M 644.062,779.423 644.062,808.429 z" id="boundary" inkscape:connector-curvature="0" />
	<path style="fill:none;stroke:red;stroke-width:1px;stroke-linecap:butt;stroke-linejoin:miter;stroke-opacity:1" d="M 644.062,779.423 644.062,750.417 z" id="boundary" inkscape:connector-curvature="0" />
	<path style="fill:none;stroke:red;stroke-width:1px;stroke-linecap:butt;stroke-linejoin:miter;stroke-opacity:1" d="M 634.394,847.103 634.394,866.441 z" id="boundary" inkscape:connector-curvature="0" />
	<path style="fill:none;stroke:red;stroke-width:1px;stroke-linecap:butt;stroke-linejoin:miter;stroke-opacity:1" d="M 644.062,808.429 644.062,827.766 z" id="boundary" inkscape:connector-curvature="0" />
	<path style="fill:none;stroke:red;stroke-width:1px;stroke-linecap:butt;stroke-linejoin:miter;stroke-opacity:1" d="M 644.062,827.766 634.394,847.103 z" id="boundary" inkscape:connector-curvature="0" />
	<path style="fill:none;stroke:red;stroke-width:1px;stroke-linecap:butt;stroke-linejoin:miter;stroke-opacity:1" d="M 702.074,586.051 702.074,566.713 z" id="boundary" inkscape:connector-curvature="0" />
	<circle cx="4" cy="667.267" r="4" fill="#0" id="circle0"/>
	<circle cx="13.6686" cy="647.93" r="4" fill="#0" id="circle1"/>
	<circle cx="13.6686" cy="684.671" r="4" fill="#0" id="circle2"/>
	<circle cx="23.3372" cy="702.074" r="4" fill="#0" id="circle3"/>
	<circle cx="33.0058" cy="638.261" r="4" fill="#0" id="circle4"/>
	<circle cx="34.9396" cy="717.544" r="4" fill="#0" id="circle5"/>
	<circle cx="48.4756" cy="622.791" r="4" fill="#0" id="circle6"/>
	<circle cx="54.2768" cy="725.279" r="4" fill="#0" id="circle7"/>
	<circle cx="62.0117" cy="48.4756" r="4" fill="#0" id="circle8"/>
	<circle cx="65.8791" cy="613.123" r="4" fill="#0" id="circle9"/>
	<circle cx="67.8129" cy="740.749" r="4" fill="#0" id="circle10"/>
	<circle cx="71.6803" cy="29.1384" r="4" fill="#0" id="circle11"/>
	<circle cx="77.4815" cy="62.0117" r="4" fill="#0" id="circle12"/>
	<circle cx="81.3489" cy="183.836" r="4" fill="#0" id="circle13"/>
	<circle cx="81.3489" cy="203.173" r="4" fill="#0" id="circle14"/>
	<circle cx="81.3489" cy="222.511" r="4" fill="#0" id="circle15"/>
	<circle cx="81.3489" cy="241.848" r="4" fill="#0" id="circle16"/>
	<circle cx="83.2827" cy="603.454" r="4" fill="#0" id="circle17"/>
	<circle cx="85.2164" cy="81.3489" r="4" fill="#0" id="circle18"/>
	<circle cx="85.2164" cy="750.417" r="4" fill="#0" id="circle19"/>
	<circle cx="87.1501" cy="13.6686" r="4" fill="#0" id="circle20"/>
	<circle cx="96.8187" cy="168.366" r="4" fill="#0" id="circle21"/>
	<circle cx="96.8187" cy="255.384" r="4" fill="#0" id="circle22"/>
	<circle cx="100.686" cy="92.9513" r="4" fill="#0" id="circle23"/>
	<circle cx="100.686" cy="593.786" r="4" fill="#0" id="circle24"/>
	<circle cx="100.686" cy="762.019" r="4" fill="#0" id="circle25"/>
	<circle cx="104.554" cy="4" r="4" fill="#0" id="circle26"/>
	<circle cx="110.355" cy="270.854" r="4" fill="#0" id="circle27"/>
	<circle cx="112.288" cy="108.421" r="4" fill="#0" id="circle28"/>
	<circle cx="112.288" cy="152.897" r="4" fill="#0" id="circle29"/>
	<circle cx="120.023" cy="288.257" r="4" fill="#0" id="circle30"/>
	<circle cx="120.023" cy="589.918" r="4" fill="#0" id="circle31"/>
	<circle cx="120.023" cy="769.754" r="4" fill="#0" id="circle32"/>
	<circle cx="123.891" cy="4" r="4" fill="#0" id="circle33"/>
	<circle cx="127.758" cy="121.957" r="4" fill="#0" id="circle34"/>
	<circle cx="131.626" cy="143.228" r="4" fill="#0" id="circle35"/>
	<circle cx="133.559" cy="303.727" r="4" fill="#0" id="circle36"/>
	<circle cx="137.427" cy="779.423" r="4" fill="#0" id="circle37"/>
	<circle cx="139.361" cy="493.232" r="4" fill="#0" id="circle38"/>
	<circle cx="139.361" cy="512.569" r="4" fill="#0" id="circle39"/>
	<circle cx="139.361" cy="531.906" r="4" fill="#0" id="circle40"/>
	<circle cx="139.361" cy="551.244" r="4" fill="#0" id="circle41"/>
	<circle cx="139.361" cy="570.581" r="4" fill="#0" id="circle42"/>
	<circle cx="139.361" cy="589.918" r="4" fill="#0" id="circle43"/>
	<circle cx="141.294" cy="13.6686" r="4" fill="#0" id="circle44"/>
	<circle cx="149.029" cy="315.329" r="4" fill="#0" id="circle45"/>
	<circle cx="149.029" cy="454.558" r="4" fill="#0" id="circle46"/>
	<circle cx="149.029" cy="473.895" r="4" fill="#0" id="circle47"/>
	<circle cx="156.764" cy="779.423" r="4" fill="#0" id="circle48"/>
	<circle cx="160.632" cy="19.4698" r="4" fill="#0" id="circle49"/>
	<circle cx="164.499" cy="439.088" r="4" fill="#0" id="circle50"/>
	<circle cx="166.433" cy="324.998" r="4" fill="#0" id="circle51"/>
	<circle cx="176.101" cy="33.0058" r="4" fill="#0" id="circle52"/>
	<circle cx="176.101" cy="779.423" r="4" fill="#0" id="circle53"/>
	<circle cx="178.035" cy="415.883" r="4" fill="#0" id="circle54"/>
	<circle cx="183.836" cy="334.667" r="4" fill="#0" id="circle55"/>
	<circle cx="187.704" cy="396.546" r="4" fill="#0" id="circle56"/>
	<circle cx="189.637" cy="48.4756" r="4" fill="#0" id="circle57"/>
	<circle cx="195.439" cy="775.556" r="4" fill="#0" id="circle58"/>
	<circle cx="203.173" cy="63.9454" r="4" fill="#0" id="circle59"/>
	<circle cx="203.173" cy="334.667" r="4" fill="#0" id="circle60"/>
	<circle cx="203.173" cy="381.076" r="4" fill="#0" id="circle61"/>
	<circle cx="214.776" cy="769.754" r="4" fill="#0" id="circle62"/>
	<circle cx="216.71" cy="792.959" r="4" fill="#0" id="circle63"/>
	<circle cx="216.71" cy="812.296" r="4" fill="#0" id="circle64"/>
	<circle cx="216.71" cy="831.634" r="4" fill="#0" id="circle65"/>
	<circle cx="216.71" cy="860.639" r="4" fill="#0" id="circle66"/>
	<circle cx="218.643" cy="77.4815" r="4" fill="#0" id="circle67"/>
	<circle cx="220.577" cy="344.335" r="4" fill="#0" id="circle68"/>
	<circle cx="220.577" cy="371.407" r="4" fill="#0" id="circle69"/>
	<circle cx="226.378" cy="878.043" r="4" fill="#0" id="circle70"/>
	<circle cx="232.179" cy="92.9513" r="4" fill="#0" id="circle71"/>
	<circle cx="236.047" cy="355.938" r="4" fill="#0" id="circle72"/>
	<circle cx="236.047" cy="895.446" r="4" fill="#0" id="circle73"/>
	<circle cx="241.848" cy="914.784" r="4" fill="#0" id="circle74"/>
	<circle cx="247.649" cy="106.487" r="4" fill="#0" id="circle75"/>
	<circle cx="257.318" cy="928.32" r="4" fill="#0" id="circle76"/>
	<circle cx="265.053" cy="116.156" r="4" fill="#0" id="circle77"/>
	<circle cx="265.053" cy="947.657" r="4" fill="#0" id="circle78"/>
	<circle cx="280.522" cy="100.686" r="4" fill="#0" id="circle79"/>
	<circle cx="284.39" cy="953.458" r="4" fill="#0" id="circle80"/>
	<circle cx="295.992" cy="968.928" r="4" fill="#0" id="circle81"/>
	<circle cx="297.926" cy="91.0175" r="4" fill="#0" id="circle82"/>
	<circle cx="313.396" cy="77.4815" r="4" fill="#0" id="circle83"/>
	<circle cx="315.329" cy="976.663" r="4" fill="#0" id="circle84"/>
	<circle cx="332.733" cy="67.8129" r="4" fill="#0" id="circle85"/>
	<circle cx="334.667" cy="982.464" r="4" fill="#0" id="circle86"/>
	<circle cx="352.07" cy="58.1442" r="4" fill="#0" id="circle87"/>
	<circle cx="352.07" cy="992.133" r="4" fill="#0" id="circle88"/>
	<circle cx="371.407" cy="48.4756" r="4" fill="#0" id="circle89"/>
	<circle cx="371.407" cy="992.133" r="4" fill="#0" id="circle90"/>
	<circle cx="390.745" cy="38.807" r="4" fill="#0" id="circle91"/>
	<circle cx="390.745" cy="992.133" r="4" fill="#0" id="circle92"/>
	<circle cx="410.082" cy="38.807" r="4" fill="#0" id="circle93"/>
	<circle cx="410.082" cy="992.133" r="4" fill="#0" id="circle94"/>
	<circle cx="429.419" cy="33.0058" r="4" fill="#0" id="circle95"/>
	<circle cx="429.419" cy="996" r="4" fill="#0" id="circle96"/>
	<circle cx="448.756" cy="33.0058" r="4" fill="#0" id="circle97"/>
	<circle cx="448.756" cy="992.133" r="4" fill="#0" id="circle98"/>
	<circle cx="468.094" cy="33.0058" r="4" fill="#0" id="circle99"/>
	<circle cx="468.094" cy="986.331" r="4" fill="#0" id="circle100"/>
	<circle cx="487.431" cy="33.0058" r="4" fill="#0" id="circle101"/>
	<circle cx="487.431" cy="986.331" r="4" fill="#0" id="circle102"/>
	<circle cx="502.901" cy="972.795" r="4" fill="#0" id="circle103"/>
	<circle cx="504.834" cy="42.6745" r="4" fill="#0" id="circle104"/>
	<circle cx="522.238" cy="970.862" r="4" fill="#0" id="circle105"/>
	<circle cx="524.172" cy="44.6082" r="4" fill="#0" id="circle106"/>
	<circle cx="541.575" cy="54.2768" r="4" fill="#0" id="circle107"/>
	<circle cx="541.575" cy="961.193" r="4" fill="#0" id="circle108"/>
	<circle cx="557.045" cy="943.789" r="4" fill="#0" id="circle109"/>
	<circle cx="560.912" cy="62.0117" r="4" fill="#0" id="circle110"/>
	<circle cx="574.448" cy="77.4815" r="4" fill="#0" id="circle111"/>
	<circle cx="576.382" cy="934.121" r="4" fill="#0" id="circle112"/>
	<circle cx="591.852" cy="920.585" r="4" fill="#0" id="circle113"/>
	<circle cx="593.786" cy="85.2164" r="4" fill="#0" id="circle114"/>
	<circle cx="605.388" cy="100.686" r="4" fill="#0" id="circle115"/>
	<circle cx="605.388" cy="895.446" r="4" fill="#0" id="circle116"/>
	<circle cx="615.057" cy="118.09" r="4" fill="#0" id="circle117"/>
	<circle cx="620.858" cy="881.91" r="4" fill="#0" id="circle118"/>
	<circle cx="624.725" cy="135.493" r="4" fill="#0" id="circle119"/>
	<circle cx="624.725" cy="324.998" r="4" fill="#0" id="circle120"/>
	<circle cx="634.394" cy="152.897" r="4" fill="#0" id="circle121"/>
	<circle cx="634.394" cy="305.661" r="4" fill="#0" id="circle122"/>
	<circle cx="634.394" cy="847.103" r="4" fill="#0" id="circle123"/>
	<circle cx="634.394" cy="866.441" r="4" fill="#0" id="circle124"/>
	<circle cx="640.195" cy="336.6" r="4" fill="#0" id="circle125"/>
	<circle cx="644.062" cy="170.3" r="4" fill="#0" id="circle126"/>
	<circle cx="644.062" cy="731.08" r="4" fill="#0" id="circle127"/>
	<circle cx="644.062" cy="750.417" r="4" fill="#0" id="circle128"/>
	<circle cx="644.062" cy="779.423" r="4" fill="#0" id="circle129"/>
	<circle cx="644.062" cy="808.429" r="4" fill="#0" id="circle130"/>
	<circle cx="644.062" cy="827.766" r="4" fill="#0" id="circle131"/>
	<circle cx="651.797" cy="295.992" r="4" fill="#0" id="circle132"/>
	<circle cx="653.731" cy="352.07" r="4" fill="#0" id="circle133"/>
	<circle cx="653.731" cy="711.743" r="4" fill="#0" id="circle134"/>
	<circle cx="663.4" cy="168.366" r="4" fill="#0" id="circle135"/>
	<circle cx="663.4" cy="692.405" r="4" fill="#0" id="circle136"/>
	<circle cx="669.201" cy="286.324" r="4" fill="#0" id="circle137"/>
	<circle cx="669.201" cy="363.673" r="4" fill="#0" id="circle138"/>
	<circle cx="673.068" cy="673.068" r="4" fill="#0" id="circle139"/>
	<circle cx="682.737" cy="162.565" r="4" fill="#0" id="circle140"/>
	<circle cx="682.737" cy="379.142" r="4" fill="#0" id="circle141"/>
	<circle cx="682.737" cy="653.731" r="4" fill="#0" id="circle142"/>
	<circle cx="688.538" cy="286.324" r="4" fill="#0" id="circle143"/>
	<circle cx="692.405" cy="396.546" r="4" fill="#0" id="circle144"/>
	<circle cx="692.405" cy="605.388" r="4" fill="#0" id="circle145"/>
	<circle cx="692.405" cy="624.725" r="4" fill="#0" id="circle146"/>
	<circle cx="702.074" cy="152.897" r="4" fill="#0" id="circle147"/>
	<circle cx="702.074" cy="413.949" r="4" fill="#0" id="circle148"/>
	<circle cx="702.074" cy="547.376" r="4" fill="#0" id="circle149"/>
	<circle cx="702.074" cy="566.713" r="4" fill="#0" id="circle150"/>
	<circle cx="702.074" cy="586.051" r="4" fill="#0" id="circle151"/>
	<circle cx="705.942" cy="276.655" r="4" fill="#0" id="circle152"/>
	<circle cx="711.743" cy="431.353" r="4" fill="#0" id="circle153"/>
	<circle cx="711.743" cy="479.696" r="4" fill="#0" id="circle154"/>
	<circle cx="711.743" cy="499.033" r="4" fill="#0" id="circle155"/>
	<circle cx="711.743" cy="518.37" r="4" fill="#0" id="circle156"/>
	<circle cx="717.544" cy="139.361" r="4" fill="#0" id="circle157"/>
	<circle cx="721.411" cy="448.756" r="4" fill="#0" id="circle158"/>
	<circle cx="725.279" cy="274.721" r="4" fill="#0" id="circle159"/>
	<circle cx="734.947" cy="129.692" r="4" fill="#0" id="circle160"/>
	<circle cx="744.616" cy="266.986" r="4" fill="#0" id="circle161"/>
	<circle cx="754.285" cy="120.023" r="4" fill="#0" id="circle162"/>
	<circle cx="763.953" cy="265.053" r="4" fill="#0" id="circle163"/>
	<circle cx="773.622" cy="120.023" r="4" fill="#0" id="circle164"/>
	<circle cx="783.29" cy="255.384" r="4" fill="#0" id="circle165"/>
	<circle cx="791.025" cy="110.355" r="4" fill="#0" id="circle166"/>
	<circle cx="802.628" cy="245.715" r="4" fill="#0" id="circle167"/>
	<circle cx="810.363" cy="110.355" r="4" fill="#0" id="circle168"/>
	<circle cx="821.965" cy="236.047" r="4" fill="#0" id="circle169"/>
	<circle cx="827.766" cy="120.023" r="4" fill="#0" id="circle170"/>
	<circle cx="841.302" cy="226.378" r="4" fill="#0" id="circle171"/>
	<circle cx="847.103" cy="125.825" r="4" fill="#0" id="circle172"/>
	<circle cx="850.971" cy="208.975" r="4" fill="#0" id="circle173"/>
	<circle cx="864.507" cy="135.493" r="4" fill="#0" id="circle174"/>
	<circle cx="868.374" cy="199.306" r="4" fill="#0" id="circle175"/>
	<circle cx="879.977" cy="149.029" r="4" fill="#0" id="circle176"/>
	<circle cx="883.844" cy="183.836" r="4" fill="#0" id="circle177"/>
	</g>
</svg>