<?xml version="1.0" encoding="UTF-8" standalone="no"?>
<!-- Created with CurveBenchmark -->
<svg
	xmlns:dc="http://purl.org/dc/elements/1.1/"
	xmlns:cc="http://creativecommons.org/ns#"
	xmlns:rdf="http://www.w3.org/1999/02/22-rdf-syntax-ns#"
	xmlns:svg="http://www.w3.org/2000/svg"
	xmlns="http://www.w3.org/2000/svg"
	xmlns:sodipodi="http://sodipodi.sourceforge.net/DTD/sodipodi-0.dtd"
	xmlns:inkscape="http://www.inkscape.org/namespaces/inkscape"
	width="1000"
	height="1000"
	id="svg2"
	version="1.1"
	sodipodi:docname="manifold/crust-television055.png.txt">
<defs
	id="defs4" />
<metadata
	id="metadata7">
	<rdf:RDF>
		<cc:Work
			rdf:about="">
			<dc:format>image/svg+xml</dc:format>
			<dc:type
				rdf:resource="http://purl.org/dc/dcmitype/StillImage" />
			<dc:title></dc:title>
		</cc:Work>
	</rdf:RDF>
</metadata>
<g
	inkscape:label="Layer 1"
	inkscape:groupmode="layer"
	id="layer1">
	<path style="fill:none;stroke:red;stroke-width:1px;stroke-linecap:butt;stroke-linejoin:miter;stroke-opacity:1" d="M 247.099,4 207.889,19.6838 z" id="boundary" inkscape:connector-curvature="0" />
	<path style="fill:none;stroke:red;stroke-width:1px;stroke-linecap:butt;stroke-linejoin:miter;stroke-opacity:1" d="M 207.889,19.6838 207.889,58.8933 z" id="boundary" inkscape:connector-curvature="0" />
	<path style="fill:none;stroke:red;stroke-width:1px;stroke-linecap:butt;stroke-linejoin:miter;stroke-opacity:1" d="M 207.889,98.1028 207.889,58.8933 z" id="boundary" inkscape:connector-curvature="0" />
	<path style="fill:none;stroke:red;stroke-width:1px;stroke-linecap:butt;stroke-linejoin:miter;stroke-opacity:1" d="M 207.889,176.522 207.889,137.312 z" id="boundary" inkscape:connector-curvature="0" />
	<path style="fill:none;stroke:red;stroke-width:1px;stroke-linecap:butt;stroke-linejoin:miter;stroke-opacity:1" d="M 207.889,137.312 207.889,98.1028 z" id="boundary" inkscape:connector-curvature="0" />
	<path style="fill:none;stroke:red;stroke-width:1px;stroke-linecap:butt;stroke-linejoin:miter;stroke-opacity:1" d="M 207.889,176.522 207.889,215.731 z" id="boundary" inkscape:connector-curvature="0" />
	<path style="fill:none;stroke:red;stroke-width:1px;stroke-linecap:butt;stroke-linejoin:miter;stroke-opacity:1" d="M 207.889,254.941 207.889,215.731 z" id="boundary" inkscape:connector-curvature="0" />
	<path style="fill:none;stroke:red;stroke-width:1px;stroke-linecap:butt;stroke-linejoin:miter;stroke-opacity:1" d="M 207.889,254.941 207.889,294.15 z" id="boundary" inkscape:connector-curvature="0" />
	<path style="fill:none;stroke:red;stroke-width:1px;stroke-linecap:butt;stroke-linejoin:miter;stroke-opacity:1" d="M 207.889,333.36 207.889,372.569 z" id="boundary" inkscape:connector-curvature="0" />
	<path style="fill:none;stroke:red;stroke-width:1px;stroke-linecap:butt;stroke-linejoin:miter;stroke-opacity:1" d="M 207.889,411.779 207.889,372.569 z" id="boundary" inkscape:connector-curvature="0" />
	<path style="fill:none;stroke:red;stroke-width:1px;stroke-linecap:butt;stroke-linejoin:miter;stroke-opacity:1" d="M 207.889,294.15 207.889,333.36 z" id="boundary" inkscape:connector-curvature="0" />
	<path style="fill:none;stroke:red;stroke-width:1px;stroke-linecap:butt;stroke-linejoin:miter;stroke-opacity:1" d="M 207.889,411.779 207.889,450.988 z" id="boundary" inkscape:connector-curvature="0" />
	<path style="fill:none;stroke:red;stroke-width:1px;stroke-linecap:butt;stroke-linejoin:miter;stroke-opacity:1" d="M 207.889,490.198 207.889,450.988 z" id="boundary" inkscape:connector-curvature="0" />
	<path style="fill:none;stroke:red;stroke-width:1px;stroke-linecap:butt;stroke-linejoin:miter;stroke-opacity:1" d="M 227.494,525.486 207.889,490.198 z" id="boundary" inkscape:connector-curvature="0" />
	<path style="fill:none;stroke:red;stroke-width:1px;stroke-linecap:butt;stroke-linejoin:miter;stroke-opacity:1" d="M 35.3676,662.719 86.3399,654.877 z" id="boundary" inkscape:connector-curvature="0" />
	<path style="fill:none;stroke:red;stroke-width:1px;stroke-linecap:butt;stroke-linejoin:miter;stroke-opacity:1" d="M 66.7352,690.166 35.3676,662.719 z" id="boundary" inkscape:connector-curvature="0" />
	<path style="fill:none;stroke:red;stroke-width:1px;stroke-linecap:butt;stroke-linejoin:miter;stroke-opacity:1" d="M 86.3399,654.877 125.549,654.877 z" id="boundary" inkscape:connector-curvature="0" />
	<path style="fill:none;stroke:red;stroke-width:1px;stroke-linecap:butt;stroke-linejoin:miter;stroke-opacity:1" d="M 105.945,690.166 145.154,690.166 z" id="boundary" inkscape:connector-curvature="0" />
	<path style="fill:none;stroke:red;stroke-width:1px;stroke-linecap:butt;stroke-linejoin:miter;stroke-opacity:1" d="M 105.945,690.166 66.7352,690.166 z" id="boundary" inkscape:connector-curvature="0" />
	<path style="fill:none;stroke:red;stroke-width:1px;stroke-linecap:butt;stroke-linejoin:miter;stroke-opacity:1" d="M 125.549,654.877 164.759,654.877 z" id="boundary" inkscape:connector-curvature="0" />
	<path style="fill:none;stroke:red;stroke-width:1px;stroke-linecap:butt;stroke-linejoin:miter;stroke-opacity:1" d="M 164.759,654.877 203.968,654.877 z" id="boundary" inkscape:connector-curvature="0" />
	<path style="fill:none;stroke:red;stroke-width:1px;stroke-linecap:butt;stroke-linejoin:miter;stroke-opacity:1" d="M 203.968,654.877 243.178,654.877 z" id="boundary" inkscape:connector-curvature="0" />
	<path style="fill:none;stroke:red;stroke-width:1px;stroke-linecap:butt;stroke-linejoin:miter;stroke-opacity:1" d="M 184.364,690.166 145.154,690.166 z" id="boundary" inkscape:connector-curvature="0" />
	<path style="fill:none;stroke:red;stroke-width:1px;stroke-linecap:butt;stroke-linejoin:miter;stroke-opacity:1" d="M 184.364,690.166 223.573,690.166 z" id="boundary" inkscape:connector-curvature="0" />
	<path style="fill:none;stroke:red;stroke-width:1px;stroke-linecap:butt;stroke-linejoin:miter;stroke-opacity:1" d="M 286.308,4 325.518,4 z" id="boundary" inkscape:connector-curvature="0" />
	<path style="fill:none;stroke:red;stroke-width:1px;stroke-linecap:butt;stroke-linejoin:miter;stroke-opacity:1" d="M 227.494,525.486 266.704,525.486 z" id="boundary" inkscape:connector-curvature="0" />
	<path style="fill:none;stroke:red;stroke-width:1px;stroke-linecap:butt;stroke-linejoin:miter;stroke-opacity:1" d="M 305.913,525.486 266.704,525.486 z" id="boundary" inkscape:connector-curvature="0" />
	<path style="fill:none;stroke:red;stroke-width:1px;stroke-linecap:butt;stroke-linejoin:miter;stroke-opacity:1" d="M 345.123,525.486 305.913,525.486 z" id="boundary" inkscape:connector-curvature="0" />
	<path style="fill:none;stroke:red;stroke-width:1px;stroke-linecap:butt;stroke-linejoin:miter;stroke-opacity:1" d="M 364.727,4 403.937,4 z" id="boundary" inkscape:connector-curvature="0" />
	<path style="fill:none;stroke:red;stroke-width:1px;stroke-linecap:butt;stroke-linejoin:miter;stroke-opacity:1" d="M 384.332,525.486 345.123,525.486 z" id="boundary" inkscape:connector-curvature="0" />
	<path style="fill:none;stroke:red;stroke-width:1px;stroke-linecap:butt;stroke-linejoin:miter;stroke-opacity:1" d="M 423.542,525.486 384.332,525.486 z" id="boundary" inkscape:connector-curvature="0" />
	<path style="fill:none;stroke:red;stroke-width:1px;stroke-linecap:butt;stroke-linejoin:miter;stroke-opacity:1" d="M 325.518,4 364.727,4 z" id="boundary" inkscape:connector-curvature="0" />
	<path style="fill:none;stroke:red;stroke-width:1px;stroke-linecap:butt;stroke-linejoin:miter;stroke-opacity:1" d="M 243.178,654.877 282.387,654.877 z" id="boundary" inkscape:connector-curvature="0" />
	<path style="fill:none;stroke:red;stroke-width:1px;stroke-linecap:butt;stroke-linejoin:miter;stroke-opacity:1" d="M 321.597,654.877 282.387,654.877 z" id="boundary" inkscape:connector-curvature="0" />
	<path style="fill:none;stroke:red;stroke-width:1px;stroke-linecap:butt;stroke-linejoin:miter;stroke-opacity:1" d="M 223.573,690.166 262.783,690.166 z" id="boundary" inkscape:connector-curvature="0" />
	<path style="fill:none;stroke:red;stroke-width:1px;stroke-linecap:butt;stroke-linejoin:miter;stroke-opacity:1" d="M 301.992,690.166 262.783,690.166 z" id="boundary" inkscape:connector-curvature="0" />
	<path style="fill:none;stroke:red;stroke-width:1px;stroke-linecap:butt;stroke-linejoin:miter;stroke-opacity:1" d="M 301.992,690.166 341.202,690.166 z" id="boundary" inkscape:connector-curvature="0" />
	<path style="fill:none;stroke:red;stroke-width:1px;stroke-linecap:butt;stroke-linejoin:miter;stroke-opacity:1" d="M 360.806,654.877 321.597,654.877 z" id="boundary" inkscape:connector-curvature="0" />
	<path style="fill:none;stroke:red;stroke-width:1px;stroke-linecap:butt;stroke-linejoin:miter;stroke-opacity:1" d="M 400.016,654.877 360.806,654.877 z" id="boundary" inkscape:connector-curvature="0" />
	<path style="fill:none;stroke:red;stroke-width:1px;stroke-linecap:butt;stroke-linejoin:miter;stroke-opacity:1" d="M 341.202,690.166 380.411,690.166 z" id="boundary" inkscape:connector-curvature="0" />
	<path style="fill:none;stroke:red;stroke-width:1px;stroke-linecap:butt;stroke-linejoin:miter;stroke-opacity:1" d="M 380.411,690.166 419.621,690.166 z" id="boundary" inkscape:connector-curvature="0" />
	<path style="fill:none;stroke:red;stroke-width:1px;stroke-linecap:butt;stroke-linejoin:miter;stroke-opacity:1" d="M 247.099,4 286.308,4 z" id="boundary" inkscape:connector-curvature="0" />
	<path style="fill:none;stroke:red;stroke-width:1px;stroke-linecap:butt;stroke-linejoin:miter;stroke-opacity:1" d="M 66.7352,815.636 35.3676,788.19 z" id="boundary" inkscape:connector-curvature="0" />
	<path style="fill:none;stroke:red;stroke-width:1px;stroke-linecap:butt;stroke-linejoin:miter;stroke-opacity:1" d="M 86.3399,780.348 125.549,780.348 z" id="boundary" inkscape:connector-curvature="0" />
	<path style="fill:none;stroke:red;stroke-width:1px;stroke-linecap:butt;stroke-linejoin:miter;stroke-opacity:1" d="M 66.7352,815.636 105.945,815.636 z" id="boundary" inkscape:connector-curvature="0" />
	<path style="fill:none;stroke:red;stroke-width:1px;stroke-linecap:butt;stroke-linejoin:miter;stroke-opacity:1" d="M 125.549,780.348 164.759,780.348 z" id="boundary" inkscape:connector-curvature="0" />
	<path style="fill:none;stroke:red;stroke-width:1px;stroke-linecap:butt;stroke-linejoin:miter;stroke-opacity:1" d="M 203.968,780.348 164.759,780.348 z" id="boundary" inkscape:connector-curvature="0" />
	<path style="fill:none;stroke:red;stroke-width:1px;stroke-linecap:butt;stroke-linejoin:miter;stroke-opacity:1" d="M 105.945,815.636 145.154,815.636 z" id="boundary" inkscape:connector-curvature="0" />
	<path style="fill:none;stroke:red;stroke-width:1px;stroke-linecap:butt;stroke-linejoin:miter;stroke-opacity:1" d="M 184.364,815.636 145.154,815.636 z" id="boundary" inkscape:connector-curvature="0" />
	<path style="fill:none;stroke:red;stroke-width:1px;stroke-linecap:butt;stroke-linejoin:miter;stroke-opacity:1" d="M 184.364,815.636 223.573,815.636 z" id="boundary" inkscape:connector-curvature="0" />
	<path style="fill:none;stroke:red;stroke-width:1px;stroke-linecap:butt;stroke-linejoin:miter;stroke-opacity:1" d="M 4,905.818 43.2095,897.976 z" id="boundary" inkscape:connector-curvature="0" />
	<path style="fill:none;stroke:red;stroke-width:1px;stroke-linecap:butt;stroke-linejoin:miter;stroke-opacity:1" d="M 4,945.028 4,905.818 z" id="boundary" inkscape:connector-curvature="0" />
	<path style="fill:none;stroke:red;stroke-width:1px;stroke-linecap:butt;stroke-linejoin:miter;stroke-opacity:1" d="M 82.419,897.976 121.628,897.976 z" id="boundary" inkscape:connector-curvature="0" />
	<path style="fill:none;stroke:red;stroke-width:1px;stroke-linecap:butt;stroke-linejoin:miter;stroke-opacity:1" d="M 43.2095,897.976 82.419,897.976 z" id="boundary" inkscape:connector-curvature="0" />
	<path style="fill:none;stroke:red;stroke-width:1px;stroke-linecap:butt;stroke-linejoin:miter;stroke-opacity:1" d="M 23.6047,980.316 4,945.028 z" id="boundary" inkscape:connector-curvature="0" />
	<path style="fill:none;stroke:red;stroke-width:1px;stroke-linecap:butt;stroke-linejoin:miter;stroke-opacity:1" d="M 62.8142,996 23.6047,980.316 z" id="boundary" inkscape:connector-curvature="0" />
	<path style="fill:none;stroke:red;stroke-width:1px;stroke-linecap:butt;stroke-linejoin:miter;stroke-opacity:1" d="M 62.8142,996 102.024,980.316 z" id="boundary" inkscape:connector-curvature="0" />
	<path style="fill:none;stroke:red;stroke-width:1px;stroke-linecap:butt;stroke-linejoin:miter;stroke-opacity:1" d="M 160.838,897.976 121.628,897.976 z" id="boundary" inkscape:connector-curvature="0" />
	<path style="fill:none;stroke:red;stroke-width:1px;stroke-linecap:butt;stroke-linejoin:miter;stroke-opacity:1" d="M 200.047,897.976 160.838,897.976 z" id="boundary" inkscape:connector-curvature="0" />
	<path style="fill:none;stroke:red;stroke-width:1px;stroke-linecap:butt;stroke-linejoin:miter;stroke-opacity:1" d="M 141.233,980.316 180.443,980.316 z" id="boundary" inkscape:connector-curvature="0" />
	<path style="fill:none;stroke:red;stroke-width:1px;stroke-linecap:butt;stroke-linejoin:miter;stroke-opacity:1" d="M 102.024,980.316 141.233,980.316 z" id="boundary" inkscape:connector-curvature="0" />
	<path style="fill:none;stroke:red;stroke-width:1px;stroke-linecap:butt;stroke-linejoin:miter;stroke-opacity:1" d="M 219.652,980.316 180.443,980.316 z" id="boundary" inkscape:connector-curvature="0" />
	<path style="fill:none;stroke:red;stroke-width:1px;stroke-linecap:butt;stroke-linejoin:miter;stroke-opacity:1" d="M 203.968,780.348 243.178,780.348 z" id="boundary" inkscape:connector-curvature="0" />
	<path style="fill:none;stroke:red;stroke-width:1px;stroke-linecap:butt;stroke-linejoin:miter;stroke-opacity:1" d="M 243.178,780.348 282.387,780.348 z" id="boundary" inkscape:connector-curvature="0" />
	<path style="fill:none;stroke:red;stroke-width:1px;stroke-linecap:butt;stroke-linejoin:miter;stroke-opacity:1" d="M 282.387,780.348 321.597,780.348 z" id="boundary" inkscape:connector-curvature="0" />
	<path style="fill:none;stroke:red;stroke-width:1px;stroke-linecap:butt;stroke-linejoin:miter;stroke-opacity:1" d="M 223.573,815.636 262.783,815.636 z" id="boundary" inkscape:connector-curvature="0" />
	<path style="fill:none;stroke:red;stroke-width:1px;stroke-linecap:butt;stroke-linejoin:miter;stroke-opacity:1" d="M 301.992,815.636 262.783,815.636 z" id="boundary" inkscape:connector-curvature="0" />
	<path style="fill:none;stroke:red;stroke-width:1px;stroke-linecap:butt;stroke-linejoin:miter;stroke-opacity:1" d="M 321.597,780.348 360.806,780.348 z" id="boundary" inkscape:connector-curvature="0" />
	<path style="fill:none;stroke:red;stroke-width:1px;stroke-linecap:butt;stroke-linejoin:miter;stroke-opacity:1" d="M 400.016,780.348 360.806,780.348 z" id="boundary" inkscape:connector-curvature="0" />
	<path style="fill:none;stroke:red;stroke-width:1px;stroke-linecap:butt;stroke-linejoin:miter;stroke-opacity:1" d="M 341.202,815.636 301.992,815.636 z" id="boundary" inkscape:connector-curvature="0" />
	<path style="fill:none;stroke:red;stroke-width:1px;stroke-linecap:butt;stroke-linejoin:miter;stroke-opacity:1" d="M 341.202,815.636 380.411,815.636 z" id="boundary" inkscape:connector-curvature="0" />
	<path style="fill:none;stroke:red;stroke-width:1px;stroke-linecap:butt;stroke-linejoin:miter;stroke-opacity:1" d="M 380.411,815.636 419.621,815.636 z" id="boundary" inkscape:connector-curvature="0" />
	<path style="fill:none;stroke:red;stroke-width:1px;stroke-linecap:butt;stroke-linejoin:miter;stroke-opacity:1" d="M 200.047,897.976 239.257,897.976 z" id="boundary" inkscape:connector-curvature="0" />
	<path style="fill:none;stroke:red;stroke-width:1px;stroke-linecap:butt;stroke-linejoin:miter;stroke-opacity:1" d="M 239.257,897.976 278.466,897.976 z" id="boundary" inkscape:connector-curvature="0" />
	<path style="fill:none;stroke:red;stroke-width:1px;stroke-linecap:butt;stroke-linejoin:miter;stroke-opacity:1" d="M 278.466,897.976 317.676,897.976 z" id="boundary" inkscape:connector-curvature="0" />
	<path style="fill:none;stroke:red;stroke-width:1px;stroke-linecap:butt;stroke-linejoin:miter;stroke-opacity:1" d="M 258.862,980.316 219.652,980.316 z" id="boundary" inkscape:connector-curvature="0" />
	<path style="fill:none;stroke:red;stroke-width:1px;stroke-linecap:butt;stroke-linejoin:miter;stroke-opacity:1" d="M 258.862,980.316 298.071,996 z" id="boundary" inkscape:connector-curvature="0" />
	<path style="fill:none;stroke:red;stroke-width:1px;stroke-linecap:butt;stroke-linejoin:miter;stroke-opacity:1" d="M 337.281,980.316 298.071,996 z" id="boundary" inkscape:connector-curvature="0" />
	<path style="fill:none;stroke:red;stroke-width:1px;stroke-linecap:butt;stroke-linejoin:miter;stroke-opacity:1" d="M 356.885,897.976 317.676,897.976 z" id="boundary" inkscape:connector-curvature="0" />
	<path style="fill:none;stroke:red;stroke-width:1px;stroke-linecap:butt;stroke-linejoin:miter;stroke-opacity:1" d="M 396.095,897.976 356.885,897.976 z" id="boundary" inkscape:connector-curvature="0" />
	<path style="fill:none;stroke:red;stroke-width:1px;stroke-linecap:butt;stroke-linejoin:miter;stroke-opacity:1" d="M 337.281,980.316 376.49,980.316 z" id="boundary" inkscape:connector-curvature="0" />
	<path style="fill:none;stroke:red;stroke-width:1px;stroke-linecap:butt;stroke-linejoin:miter;stroke-opacity:1" d="M 376.49,980.316 415.7,980.316 z" id="boundary" inkscape:connector-curvature="0" />
	<path style="fill:none;stroke:red;stroke-width:1px;stroke-linecap:butt;stroke-linejoin:miter;stroke-opacity:1" d="M 403.937,4 443.146,4 z" id="boundary" inkscape:connector-curvature="0" />
	<path style="fill:none;stroke:red;stroke-width:1px;stroke-linecap:butt;stroke-linejoin:miter;stroke-opacity:1" d="M 443.146,4 482.356,4 z" id="boundary" inkscape:connector-curvature="0" />
	<path style="fill:none;stroke:red;stroke-width:1px;stroke-linecap:butt;stroke-linejoin:miter;stroke-opacity:1" d="M 482.356,4 521.565,4 z" id="boundary" inkscape:connector-curvature="0" />
	<path style="fill:none;stroke:red;stroke-width:1px;stroke-linecap:butt;stroke-linejoin:miter;stroke-opacity:1" d="M 560.775,4 599.984,4 z" id="boundary" inkscape:connector-curvature="0" />
	<path style="fill:none;stroke:red;stroke-width:1px;stroke-linecap:butt;stroke-linejoin:miter;stroke-opacity:1" d="M 599.984,4 639.194,4 z" id="boundary" inkscape:connector-curvature="0" />
	<path style="fill:none;stroke:red;stroke-width:1px;stroke-linecap:butt;stroke-linejoin:miter;stroke-opacity:1" d="M 521.565,4 560.775,4 z" id="boundary" inkscape:connector-curvature="0" />
	<path style="fill:none;stroke:red;stroke-width:1px;stroke-linecap:butt;stroke-linejoin:miter;stroke-opacity:1" d="M 423.542,525.486 458.83,545.091 z" id="boundary" inkscape:connector-curvature="0" />
	<path style="fill:none;stroke:red;stroke-width:1px;stroke-linecap:butt;stroke-linejoin:miter;stroke-opacity:1" d="M 458.83,545.091 458.83,584.3 z" id="boundary" inkscape:connector-curvature="0" />
	<path style="fill:none;stroke:red;stroke-width:1px;stroke-linecap:butt;stroke-linejoin:miter;stroke-opacity:1" d="M 458.83,584.3 439.225,654.877 z" id="boundary" inkscape:connector-curvature="0" />
	<path style="fill:none;stroke:red;stroke-width:1px;stroke-linecap:butt;stroke-linejoin:miter;stroke-opacity:1" d="M 458.83,694.087 439.225,654.877 z" id="boundary" inkscape:connector-curvature="0" />
	<path style="fill:none;stroke:red;stroke-width:1px;stroke-linecap:butt;stroke-linejoin:miter;stroke-opacity:1" d="M 458.83,694.087 458.83,733.296 z" id="boundary" inkscape:connector-curvature="0" />
	<path style="fill:none;stroke:red;stroke-width:1px;stroke-linecap:butt;stroke-linejoin:miter;stroke-opacity:1" d="M 400.016,654.877 439.225,654.877 z" id="boundary" inkscape:connector-curvature="0" />
	<path style="fill:none;stroke:red;stroke-width:1px;stroke-linecap:butt;stroke-linejoin:miter;stroke-opacity:1" d="M 650.957,529.407 690.166,525.486 z" id="boundary" inkscape:connector-curvature="0" />
	<path style="fill:none;stroke:red;stroke-width:1px;stroke-linecap:butt;stroke-linejoin:miter;stroke-opacity:1" d="M 650.957,607.826 650.957,568.617 z" id="boundary" inkscape:connector-curvature="0" />
	<path style="fill:none;stroke:red;stroke-width:1px;stroke-linecap:butt;stroke-linejoin:miter;stroke-opacity:1" d="M 650.957,568.617 650.957,529.407 z" id="boundary" inkscape:connector-curvature="0" />
	<path style="fill:none;stroke:red;stroke-width:1px;stroke-linecap:butt;stroke-linejoin:miter;stroke-opacity:1" d="M 650.957,647.036 650.957,607.826 z" id="boundary" inkscape:connector-curvature="0" />
	<path style="fill:none;stroke:red;stroke-width:1px;stroke-linecap:butt;stroke-linejoin:miter;stroke-opacity:1" d="M 650.957,647.036 650.957,694.087 z" id="boundary" inkscape:connector-curvature="0" />
	<path style="fill:none;stroke:red;stroke-width:1px;stroke-linecap:butt;stroke-linejoin:miter;stroke-opacity:1" d="M 690.166,654.877 650.957,647.036 z" id="boundary" inkscape:connector-curvature="0" />
	<path style="fill:none;stroke:red;stroke-width:1px;stroke-linecap:butt;stroke-linejoin:miter;stroke-opacity:1" d="M 650.957,694.087 650.957,733.296 z" id="boundary" inkscape:connector-curvature="0" />
	<path style="fill:none;stroke:red;stroke-width:1px;stroke-linecap:butt;stroke-linejoin:miter;stroke-opacity:1" d="M 639.194,4 678.403,4 z" id="boundary" inkscape:connector-curvature="0" />
	<path style="fill:none;stroke:red;stroke-width:1px;stroke-linecap:butt;stroke-linejoin:miter;stroke-opacity:1" d="M 756.822,4 776.427,39.2885 z" id="boundary" inkscape:connector-curvature="0" />
	<path style="fill:none;stroke:red;stroke-width:1px;stroke-linecap:butt;stroke-linejoin:miter;stroke-opacity:1" d="M 717.613,4 756.822,4 z" id="boundary" inkscape:connector-curvature="0" />
	<path style="fill:none;stroke:red;stroke-width:1px;stroke-linecap:butt;stroke-linejoin:miter;stroke-opacity:1" d="M 776.427,39.2885 776.427,78.498 z" id="boundary" inkscape:connector-curvature="0" />
	<path style="fill:none;stroke:red;stroke-width:1px;stroke-linecap:butt;stroke-linejoin:miter;stroke-opacity:1" d="M 776.427,78.498 776.427,117.708 z" id="boundary" inkscape:connector-curvature="0" />
	<path style="fill:none;stroke:red;stroke-width:1px;stroke-linecap:butt;stroke-linejoin:miter;stroke-opacity:1" d="M 776.427,274.545 776.427,313.755 z" id="boundary" inkscape:connector-curvature="0" />
	<path style="fill:none;stroke:red;stroke-width:1px;stroke-linecap:butt;stroke-linejoin:miter;stroke-opacity:1" d="M 776.427,117.708 776.427,156.917 z" id="boundary" inkscape:connector-curvature="0" />
	<path style="fill:none;stroke:red;stroke-width:1px;stroke-linecap:butt;stroke-linejoin:miter;stroke-opacity:1" d="M 776.427,156.917 776.427,196.126 z" id="boundary" inkscape:connector-curvature="0" />
	<path style="fill:none;stroke:red;stroke-width:1px;stroke-linecap:butt;stroke-linejoin:miter;stroke-opacity:1" d="M 776.427,235.336 776.427,274.545 z" id="boundary" inkscape:connector-curvature="0" />
	<path style="fill:none;stroke:red;stroke-width:1px;stroke-linecap:butt;stroke-linejoin:miter;stroke-opacity:1" d="M 776.427,235.336 776.427,196.126 z" id="boundary" inkscape:connector-curvature="0" />
	<path style="fill:none;stroke:red;stroke-width:1px;stroke-linecap:butt;stroke-linejoin:miter;stroke-opacity:1" d="M 776.427,313.755 776.427,352.964 z" id="boundary" inkscape:connector-curvature="0" />
	<path style="fill:none;stroke:red;stroke-width:1px;stroke-linecap:butt;stroke-linejoin:miter;stroke-opacity:1" d="M 678.403,4 717.613,4 z" id="boundary" inkscape:connector-curvature="0" />
	<path style="fill:none;stroke:red;stroke-width:1px;stroke-linecap:butt;stroke-linejoin:miter;stroke-opacity:1" d="M 776.427,352.964 776.427,392.174 z" id="boundary" inkscape:connector-curvature="0" />
	<path style="fill:none;stroke:red;stroke-width:1px;stroke-linecap:butt;stroke-linejoin:miter;stroke-opacity:1" d="M 776.427,392.174 776.427,431.383 z" id="boundary" inkscape:connector-curvature="0" />
	<path style="fill:none;stroke:red;stroke-width:1px;stroke-linecap:butt;stroke-linejoin:miter;stroke-opacity:1" d="M 690.166,525.486 729.375,525.486 z" id="boundary" inkscape:connector-curvature="0" />
	<path style="fill:none;stroke:red;stroke-width:1px;stroke-linecap:butt;stroke-linejoin:miter;stroke-opacity:1" d="M 690.166,654.877 729.375,654.877 z" id="boundary" inkscape:connector-curvature="0" />
	<path style="fill:none;stroke:red;stroke-width:1px;stroke-linecap:butt;stroke-linejoin:miter;stroke-opacity:1" d="M 768.585,654.877 729.375,654.877 z" id="boundary" inkscape:connector-curvature="0" />
	<path style="fill:none;stroke:red;stroke-width:1px;stroke-linecap:butt;stroke-linejoin:miter;stroke-opacity:1" d="M 748.98,690.166 709.771,690.166 z" id="boundary" inkscape:connector-curvature="0" />
	<path style="fill:none;stroke:red;stroke-width:1px;stroke-linecap:butt;stroke-linejoin:miter;stroke-opacity:1" d="M 768.585,521.565 729.375,525.486 z" id="boundary" inkscape:connector-curvature="0" />
	<path style="fill:none;stroke:red;stroke-width:1px;stroke-linecap:butt;stroke-linejoin:miter;stroke-opacity:1" d="M 776.427,470.593 776.427,431.383 z" id="boundary" inkscape:connector-curvature="0" />
	<path style="fill:none;stroke:red;stroke-width:1px;stroke-linecap:butt;stroke-linejoin:miter;stroke-opacity:1" d="M 807.794,654.877 768.585,654.877 z" id="boundary" inkscape:connector-curvature="0" />
	<path style="fill:none;stroke:red;stroke-width:1px;stroke-linecap:butt;stroke-linejoin:miter;stroke-opacity:1" d="M 768.585,521.565 776.427,470.593 z" id="boundary" inkscape:connector-curvature="0" />
	<path style="fill:none;stroke:red;stroke-width:1px;stroke-linecap:butt;stroke-linejoin:miter;stroke-opacity:1" d="M 788.19,690.166 748.98,690.166 z" id="boundary" inkscape:connector-curvature="0" />
	<path style="fill:none;stroke:red;stroke-width:1px;stroke-linecap:butt;stroke-linejoin:miter;stroke-opacity:1" d="M 788.19,690.166 807.794,654.877 z" id="boundary" inkscape:connector-curvature="0" />
	<path style="fill:none;stroke:red;stroke-width:1px;stroke-linecap:butt;stroke-linejoin:miter;stroke-opacity:1" d="M 400.016,780.348 439.225,780.348 z" id="boundary" inkscape:connector-curvature="0" />
	<path style="fill:none;stroke:red;stroke-width:1px;stroke-linecap:butt;stroke-linejoin:miter;stroke-opacity:1" d="M 458.83,733.296 439.225,780.348 z" id="boundary" inkscape:connector-curvature="0" />
	<path style="fill:none;stroke:red;stroke-width:1px;stroke-linecap:butt;stroke-linejoin:miter;stroke-opacity:1" d="M 458.83,819.557 439.225,780.348 z" id="boundary" inkscape:connector-curvature="0" />
	<path style="fill:none;stroke:red;stroke-width:1px;stroke-linecap:butt;stroke-linejoin:miter;stroke-opacity:1" d="M 435.304,897.976 396.095,897.976 z" id="boundary" inkscape:connector-curvature="0" />
	<path style="fill:none;stroke:red;stroke-width:1px;stroke-linecap:butt;stroke-linejoin:miter;stroke-opacity:1" d="M 458.83,819.557 458.83,858.767 z" id="boundary" inkscape:connector-curvature="0" />
	<path style="fill:none;stroke:red;stroke-width:1px;stroke-linecap:butt;stroke-linejoin:miter;stroke-opacity:1" d="M 458.83,858.767 435.304,897.976 z" id="boundary" inkscape:connector-curvature="0" />
	<path style="fill:none;stroke:red;stroke-width:1px;stroke-linecap:butt;stroke-linejoin:miter;stroke-opacity:1" d="M 650.957,733.296 650.957,772.506 z" id="boundary" inkscape:connector-curvature="0" />
	<path style="fill:none;stroke:red;stroke-width:1px;stroke-linecap:butt;stroke-linejoin:miter;stroke-opacity:1" d="M 650.957,772.506 650.957,819.557 z" id="boundary" inkscape:connector-curvature="0" />
	<path style="fill:none;stroke:red;stroke-width:1px;stroke-linecap:butt;stroke-linejoin:miter;stroke-opacity:1" d="M 650.957,772.506 690.166,780.348 z" id="boundary" inkscape:connector-curvature="0" />
	<path style="fill:none;stroke:red;stroke-width:1px;stroke-linecap:butt;stroke-linejoin:miter;stroke-opacity:1" d="M 650.957,819.557 650.957,858.767 z" id="boundary" inkscape:connector-curvature="0" />
	<path style="fill:none;stroke:red;stroke-width:1px;stroke-linecap:butt;stroke-linejoin:miter;stroke-opacity:1" d="M 654.877,897.976 650.957,858.767 z" id="boundary" inkscape:connector-curvature="0" />
	<path style="fill:none;stroke:red;stroke-width:1px;stroke-linecap:butt;stroke-linejoin:miter;stroke-opacity:1" d="M 454.909,980.316 415.7,980.316 z" id="boundary" inkscape:connector-curvature="0" />
	<path style="fill:none;stroke:red;stroke-width:1px;stroke-linecap:butt;stroke-linejoin:miter;stroke-opacity:1" d="M 454.909,980.316 494.119,980.316 z" id="boundary" inkscape:connector-curvature="0" />
	<path style="fill:none;stroke:red;stroke-width:1px;stroke-linecap:butt;stroke-linejoin:miter;stroke-opacity:1" d="M 533.328,980.316 494.119,980.316 z" id="boundary" inkscape:connector-curvature="0" />
	<path style="fill:none;stroke:red;stroke-width:1px;stroke-linecap:butt;stroke-linejoin:miter;stroke-opacity:1" d="M 572.538,980.316 533.328,980.316 z" id="boundary" inkscape:connector-curvature="0" />
	<path style="fill:none;stroke:red;stroke-width:1px;stroke-linecap:butt;stroke-linejoin:miter;stroke-opacity:1" d="M 654.877,897.976 694.087,897.976 z" id="boundary" inkscape:connector-curvature="0" />
	<path style="fill:none;stroke:red;stroke-width:1px;stroke-linecap:butt;stroke-linejoin:miter;stroke-opacity:1" d="M 572.538,980.316 611.747,980.316 z" id="boundary" inkscape:connector-curvature="0" />
	<path style="fill:none;stroke:red;stroke-width:1px;stroke-linecap:butt;stroke-linejoin:miter;stroke-opacity:1" d="M 611.747,980.316 650.957,988.158 z" id="boundary" inkscape:connector-curvature="0" />
	<path style="fill:none;stroke:red;stroke-width:1px;stroke-linecap:butt;stroke-linejoin:miter;stroke-opacity:1" d="M 650.957,988.158 690.166,984.237 z" id="boundary" inkscape:connector-curvature="0" />
	<path style="fill:none;stroke:red;stroke-width:1px;stroke-linecap:butt;stroke-linejoin:miter;stroke-opacity:1" d="M 690.166,984.237 729.375,980.316 z" id="boundary" inkscape:connector-curvature="0" />
	<path style="fill:none;stroke:red;stroke-width:1px;stroke-linecap:butt;stroke-linejoin:miter;stroke-opacity:1" d="M 690.166,780.348 729.375,780.348 z" id="boundary" inkscape:connector-curvature="0" />
	<path style="fill:none;stroke:red;stroke-width:1px;stroke-linecap:butt;stroke-linejoin:miter;stroke-opacity:1" d="M 768.585,780.348 729.375,780.348 z" id="boundary" inkscape:connector-curvature="0" />
	<path style="fill:none;stroke:red;stroke-width:1px;stroke-linecap:butt;stroke-linejoin:miter;stroke-opacity:1" d="M 748.98,815.636 709.771,815.636 z" id="boundary" inkscape:connector-curvature="0" />
	<path style="fill:none;stroke:red;stroke-width:1px;stroke-linecap:butt;stroke-linejoin:miter;stroke-opacity:1" d="M 733.296,897.976 694.087,897.976 z" id="boundary" inkscape:connector-curvature="0" />
	<path style="fill:none;stroke:red;stroke-width:1px;stroke-linecap:butt;stroke-linejoin:miter;stroke-opacity:1" d="M 772.506,897.976 733.296,897.976 z" id="boundary" inkscape:connector-curvature="0" />
	<path style="fill:none;stroke:red;stroke-width:1px;stroke-linecap:butt;stroke-linejoin:miter;stroke-opacity:1" d="M 807.794,780.348 768.585,780.348 z" id="boundary" inkscape:connector-curvature="0" />
	<path style="fill:none;stroke:red;stroke-width:1px;stroke-linecap:butt;stroke-linejoin:miter;stroke-opacity:1" d="M 807.794,780.348 788.19,815.636 z" id="boundary" inkscape:connector-curvature="0" />
	<path style="fill:none;stroke:red;stroke-width:1px;stroke-linecap:butt;stroke-linejoin:miter;stroke-opacity:1" d="M 748.98,815.636 788.19,815.636 z" id="boundary" inkscape:connector-curvature="0" />
	<path style="fill:none;stroke:red;stroke-width:1px;stroke-linecap:butt;stroke-linejoin:miter;stroke-opacity:1" d="M 811.715,897.976 772.506,897.976 z" id="boundary" inkscape:connector-curvature="0" />
	<path style="fill:none;stroke:red;stroke-width:1px;stroke-linecap:butt;stroke-linejoin:miter;stroke-opacity:1" d="M 850.925,897.976 811.715,897.976 z" id="boundary" inkscape:connector-curvature="0" />
	<path style="fill:none;stroke:red;stroke-width:1px;stroke-linecap:butt;stroke-linejoin:miter;stroke-opacity:1" d="M 768.585,980.316 807.794,980.316 z" id="boundary" inkscape:connector-curvature="0" />
	<path style="fill:none;stroke:red;stroke-width:1px;stroke-linecap:butt;stroke-linejoin:miter;stroke-opacity:1" d="M 768.585,980.316 729.375,980.316 z" id="boundary" inkscape:connector-curvature="0" />
	<path style="fill:none;stroke:red;stroke-width:1px;stroke-linecap:butt;stroke-linejoin:miter;stroke-opacity:1" d="M 847.004,980.316 807.794,980.316 z" id="boundary" inkscape:connector-curvature="0" />
	<path style="fill:none;stroke:red;stroke-width:1px;stroke-linecap:butt;stroke-linejoin:miter;stroke-opacity:1" d="M 847.004,980.316 886.213,980.316 z" id="boundary" inkscape:connector-curvature="0" />
	<path style="fill:none;stroke:red;stroke-width:1px;stroke-linecap:butt;stroke-linejoin:miter;stroke-opacity:1" d="M 850.925,897.976 890.134,897.976 z" id="boundary" inkscape:connector-curvature="0" />
	<path style="fill:none;stroke:red;stroke-width:1px;stroke-linecap:butt;stroke-linejoin:miter;stroke-opacity:1" d="M 929.344,897.976 964.632,917.581 z" id="boundary" inkscape:connector-curvature="0" />
	<path style="fill:none;stroke:red;stroke-width:1px;stroke-linecap:butt;stroke-linejoin:miter;stroke-opacity:1" d="M 964.632,917.581 964.632,956.791 z" id="boundary" inkscape:connector-curvature="0" />
	<path style="fill:none;stroke:red;stroke-width:1px;stroke-linecap:butt;stroke-linejoin:miter;stroke-opacity:1" d="M 890.134,897.976 929.344,897.976 z" id="boundary" inkscape:connector-curvature="0" />
	<path style="fill:none;stroke:red;stroke-width:1px;stroke-linecap:butt;stroke-linejoin:miter;stroke-opacity:1" d="M 925.423,980.316 964.632,956.791 z" id="boundary" inkscape:connector-curvature="0" />
	<path style="fill:none;stroke:red;stroke-width:1px;stroke-linecap:butt;stroke-linejoin:miter;stroke-opacity:1" d="M 886.213,980.316 925.423,980.316 z" id="boundary" inkscape:connector-curvature="0" />
	<circle cx="4" cy="905.818" r="4" fill="#0" id="circle0"/>
	<circle cx="4" cy="945.028" r="4" fill="#0" id="circle1"/>
	<circle cx="23.6047" cy="980.316" r="4" fill="#0" id="circle2"/>
	<circle cx="35.3676" cy="662.719" r="4" fill="#0" id="circle3"/>
	<circle cx="35.3676" cy="788.19" r="4" fill="#0" id="circle4"/>
	<circle cx="43.2095" cy="897.976" r="4" fill="#0" id="circle5"/>
	<circle cx="62.8142" cy="996" r="4" fill="#0" id="circle6"/>
	<circle cx="66.7352" cy="690.166" r="4" fill="#0" id="circle7"/>
	<circle cx="66.7352" cy="815.636" r="4" fill="#0" id="circle8"/>
	<circle cx="82.419" cy="897.976" r="4" fill="#0" id="circle9"/>
	<circle cx="86.3399" cy="654.877" r="4" fill="#0" id="circle10"/>
	<circle cx="86.3399" cy="780.348" r="4" fill="#0" id="circle11"/>
	<circle cx="102.024" cy="980.316" r="4" fill="#0" id="circle12"/>
	<circle cx="105.945" cy="690.166" r="4" fill="#0" id="circle13"/>
	<circle cx="105.945" cy="815.636" r="4" fill="#0" id="circle14"/>
	<circle cx="121.628" cy="897.976" r="4" fill="#0" id="circle15"/>
	<circle cx="125.549" cy="654.877" r="4" fill="#0" id="circle16"/>
	<circle cx="125.549" cy="780.348" r="4" fill="#0" id="circle17"/>
	<circle cx="141.233" cy="980.316" r="4" fill="#0" id="circle18"/>
	<circle cx="145.154" cy="690.166" r="4" fill="#0" id="circle19"/>
	<circle cx="145.154" cy="815.636" r="4" fill="#0" id="circle20"/>
	<circle cx="160.838" cy="897.976" r="4" fill="#0" id="circle21"/>
	<circle cx="164.759" cy="654.877" r="4" fill="#0" id="circle22"/>
	<circle cx="164.759" cy="780.348" r="4" fill="#0" id="circle23"/>
	<circle cx="180.443" cy="980.316" r="4" fill="#0" id="circle24"/>
	<circle cx="184.364" cy="690.166" r="4" fill="#0" id="circle25"/>
	<circle cx="184.364" cy="815.636" r="4" fill="#0" id="circle26"/>
	<circle cx="200.047" cy="897.976" r="4" fill="#0" id="circle27"/>
	<circle cx="203.968" cy="654.877" r="4" fill="#0" id="circle28"/>
	<circle cx="203.968" cy="780.348" r="4" fill="#0" id="circle29"/>
	<circle cx="207.889" cy="19.6838" r="4" fill="#0" id="circle30"/>
	<circle cx="207.889" cy="58.8933" r="4" fill="#0" id="circle31"/>
	<circle cx="207.889" cy="98.1028" r="4" fill="#0" id="circle32"/>
	<circle cx="207.889" cy="137.312" r="4" fill="#0" id="circle33"/>
	<circle cx="207.889" cy="176.522" r="4" fill="#0" id="circle34"/>
	<circle cx="207.889" cy="215.731" r="4" fill="#0" id="circle35"/>
	<circle cx="207.889" cy="254.941" r="4" fill="#0" id="circle36"/>
	<circle cx="207.889" cy="294.15" r="4" fill="#0" id="circle37"/>
	<circle cx="207.889" cy="333.36" r="4" fill="#0" id="circle38"/>
	<circle cx="207.889" cy="372.569" r="4" fill="#0" id="circle39"/>
	<circle cx="207.889" cy="411.779" r="4" fill="#0" id="circle40"/>
	<circle cx="207.889" cy="450.988" r="4" fill="#0" id="circle41"/>
	<circle cx="207.889" cy="490.198" r="4" fill="#0" id="circle42"/>
	<circle cx="219.652" cy="980.316" r="4" fill="#0" id="circle43"/>
	<circle cx="223.573" cy="690.166" r="4" fill="#0" id="circle44"/>
	<circle cx="223.573" cy="815.636" r="4" fill="#0" id="circle45"/>
	<circle cx="227.494" cy="525.486" r="4" fill="#0" id="circle46"/>
	<circle cx="239.257" cy="897.976" r="4" fill="#0" id="circle47"/>
	<circle cx="243.178" cy="654.877" r="4" fill="#0" id="circle48"/>
	<circle cx="243.178" cy="780.348" r="4" fill="#0" id="circle49"/>
	<circle cx="247.099" cy="4" r="4" fill="#0" id="circle50"/>
	<circle cx="258.862" cy="980.316" r="4" fill="#0" id="circle51"/>
	<circle cx="262.783" cy="690.166" r="4" fill="#0" id="circle52"/>
	<circle cx="262.783" cy="815.636" r="4" fill="#0" id="circle53"/>
	<circle cx="266.704" cy="525.486" r="4" fill="#0" id="circle54"/>
	<circle cx="278.466" cy="897.976" r="4" fill="#0" id="circle55"/>
	<circle cx="282.387" cy="654.877" r="4" fill="#0" id="circle56"/>
	<circle cx="282.387" cy="780.348" r="4" fill="#0" id="circle57"/>
	<circle cx="286.308" cy="4" r="4" fill="#0" id="circle58"/>
	<circle cx="298.071" cy="996" r="4" fill="#0" id="circle59"/>
	<circle cx="301.992" cy="690.166" r="4" fill="#0" id="circle60"/>
	<circle cx="301.992" cy="815.636" r="4" fill="#0" id="circle61"/>
	<circle cx="305.913" cy="525.486" r="4" fill="#0" id="circle62"/>
	<circle cx="317.676" cy="897.976" r="4" fill="#0" id="circle63"/>
	<circle cx="321.597" cy="654.877" r="4" fill="#0" id="circle64"/>
	<circle cx="321.597" cy="780.348" r="4" fill="#0" id="circle65"/>
	<circle cx="325.518" cy="4" r="4" fill="#0" id="circle66"/>
	<circle cx="337.281" cy="980.316" r="4" fill="#0" id="circle67"/>
	<circle cx="341.202" cy="690.166" r="4" fill="#0" id="circle68"/>
	<circle cx="341.202" cy="815.636" r="4" fill="#0" id="circle69"/>
	<circle cx="345.123" cy="525.486" r="4" fill="#0" id="circle70"/>
	<circle cx="356.885" cy="897.976" r="4" fill="#0" id="circle71"/>
	<circle cx="360.806" cy="654.877" r="4" fill="#0" id="circle72"/>
	<circle cx="360.806" cy="780.348" r="4" fill="#0" id="circle73"/>
	<circle cx="364.727" cy="4" r="4" fill="#0" id="circle74"/>
	<circle cx="376.49" cy="980.316" r="4" fill="#0" id="circle75"/>
	<circle cx="380.411" cy="690.166" r="4" fill="#0" id="circle76"/>
	<circle cx="380.411" cy="815.636" r="4" fill="#0" id="circle77"/>
	<circle cx="384.332" cy="525.486" r="4" fill="#0" id="circle78"/>
	<circle cx="396.095" cy="897.976" r="4" fill="#0" id="circle79"/>
	<circle cx="400.016" cy="654.877" r="4" fill="#0" id="circle80"/>
	<circle cx="400.016" cy="780.348" r="4" fill="#0" id="circle81"/>
	<circle cx="403.937" cy="4" r="4" fill="#0" id="circle82"/>
	<circle cx="415.7" cy="980.316" r="4" fill="#0" id="circle83"/>
	<circle cx="419.621" cy="690.166" r="4" fill="#0" id="circle84"/>
	<circle cx="419.621" cy="815.636" r="4" fill="#0" id="circle85"/>
	<circle cx="423.542" cy="525.486" r="4" fill="#0" id="circle86"/>
	<circle cx="435.304" cy="897.976" r="4" fill="#0" id="circle87"/>
	<circle cx="439.225" cy="654.877" r="4" fill="#0" id="circle88"/>
	<circle cx="439.225" cy="780.348" r="4" fill="#0" id="circle89"/>
	<circle cx="443.146" cy="4" r="4" fill="#0" id="circle90"/>
	<circle cx="454.909" cy="980.316" r="4" fill="#0" id="circle91"/>
	<circle cx="458.83" cy="545.091" r="4" fill="#0" id="circle92"/>
	<circle cx="458.83" cy="584.3" r="4" fill="#0" id="circle93"/>
	<circle cx="458.83" cy="694.087" r="4" fill="#0" id="circle94"/>
	<circle cx="458.83" cy="733.296" r="4" fill="#0" id="circle95"/>
	<circle cx="458.83" cy="819.557" r="4" fill="#0" id="circle96"/>
	<circle cx="458.83" cy="858.767" r="4" fill="#0" id="circle97"/>
	<circle cx="482.356" cy="4" r="4" fill="#0" id="circle98"/>
	<circle cx="494.119" cy="980.316" r="4" fill="#0" id="circle99"/>
	<circle cx="521.565" cy="4" r="4" fill="#0" id="circle100"/>
	<circle cx="533.328" cy="980.316" r="4" fill="#0" id="circle101"/>
	<circle cx="560.775" cy="4" r="4" fill="#0" id="circle102"/>
	<circle cx="572.538" cy="980.316" r="4" fill="#0" id="circle103"/>
	<circle cx="599.984" cy="4" r="4" fill="#0" id="circle104"/>
	<circle cx="611.747" cy="980.316" r="4" fill="#0" id="circle105"/>
	<circle cx="639.194" cy="4" r="4" fill="#0" id="circle106"/>
	<circle cx="650.957" cy="529.407" r="4" fill="#0" id="circle107"/>
	<circle cx="650.957" cy="568.617" r="4" fill="#0" id="circle108"/>
	<circle cx="650.957" cy="607.826" r="4" fill="#0" id="circle109"/>
	<circle cx="650.957" cy="647.036" r="4" fill="#0" id="circle110"/>
	<circle cx="650.957" cy="694.087" r="4" fill="#0" id="circle111"/>
	<circle cx="650.957" cy="733.296" r="4" fill="#0" id="circle112"/>
	<circle cx="650.957" cy="772.506" r="4" fill="#0" id="circle113"/>
	<circle cx="650.957" cy="819.557" r="4" fill="#0" id="circle114"/>
	<circle cx="650.957" cy="858.767" r="4" fill="#0" id="circle115"/>
	<circle cx="650.957" cy="988.158" r="4" fill="#0" id="circle116"/>
	<circle cx="654.877" cy="897.976" r="4" fill="#0" id="circle117"/>
	<circle cx="678.403" cy="4" r="4" fill="#0" id="circle118"/>
	<circle cx="690.166" cy="525.486" r="4" fill="#0" id="circle119"/>
	<circle cx="690.166" cy="654.877" r="4" fill="#0" id="circle120"/>
	<circle cx="690.166" cy="780.348" r="4" fill="#0" id="circle121"/>
	<circle cx="690.166" cy="984.237" r="4" fill="#0" id="circle122"/>
	<circle cx="694.087" cy="897.976" r="4" fill="#0" id="circle123"/>
	<circle cx="709.771" cy="690.166" r="4" fill="#0" id="circle124"/>
	<circle cx="709.771" cy="815.636" r="4" fill="#0" id="circle125"/>
	<circle cx="717.613" cy="4" r="4" fill="#0" id="circle126"/>
	<circle cx="729.375" cy="525.486" r="4" fill="#0" id="circle127"/>
	<circle cx="729.375" cy="654.877" r="4" fill="#0" id="circle128"/>
	<circle cx="729.375" cy="780.348" r="4" fill="#0" id="circle129"/>
	<circle cx="729.375" cy="980.316" r="4" fill="#0" id="circle130"/>
	<circle cx="733.296" cy="897.976" r="4" fill="#0" id="circle131"/>
	<circle cx="748.98" cy="690.166" r="4" fill="#0" id="circle132"/>
	<circle cx="748.98" cy="815.636" r="4" fill="#0" id="circle133"/>
	<circle cx="756.822" cy="4" r="4" fill="#0" id="circle134"/>
	<circle cx="768.585" cy="521.565" r="4" fill="#0" id="circle135"/>
	<circle cx="768.585" cy="654.877" r="4" fill="#0" id="circle136"/>
	<circle cx="768.585" cy="780.348" r="4" fill="#0" id="circle137"/>
	<circle cx="768.585" cy="980.316" r="4" fill="#0" id="circle138"/>
	<circle cx="772.506" cy="897.976" r="4" fill="#0" id="circle139"/>
	<circle cx="776.427" cy="39.2885" r="4" fill="#0" id="circle140"/>
	<circle cx="776.427" cy="78.498" r="4" fill="#0" id="circle141"/>
	<circle cx="776.427" cy="117.708" r="4" fill="#0" id="circle142"/>
	<circle cx="776.427" cy="156.917" r="4" fill="#0" id="circle143"/>
	<circle cx="776.427" cy="196.126" r="4" fill="#0" id="circle144"/>
	<circle cx="776.427" cy="235.336" r="4" fill="#0" id="circle145"/>
	<circle cx="776.427" cy="274.545" r="4" fill="#0" id="circle146"/>
	<circle cx="776.427" cy="313.755" r="4" fill="#0" id="circle147"/>
	<circle cx="776.427" cy="352.964" r="4" fill="#0" id="circle148"/>
	<circle cx="776.427" cy="392.174" r="4" fill="#0" id="circle149"/>
	<circle cx="776.427" cy="431.383" r="4" fill="#0" id="circle150"/>
	<circle cx="776.427" cy="470.593" r="4" fill="#0" id="circle151"/>
	<circle cx="788.19" cy="690.166" r="4" fill="#0" id="circle152"/>
	<circle cx="788.19" cy="815.636" r="4" fill="#0" id="circle153"/>
	<circle cx="807.794" cy="654.877" r="4" fill="#0" id="circle154"/>
	<circle cx="807.794" cy="780.348" r="4" fill="#0" id="circle155"/>
	<circle cx="807.794" cy="980.316" r="4" fill="#0" id="circle156"/>
	<circle cx="811.715" cy="897.976" r="4" fill="#0" id="circle157"/>
	<circle cx="847.004" cy="980.316" r="4" fill="#0" id="circle158"/>
	<circle cx="850.925" cy="897.976" r="4" fill="#0" id="circle159"/>
	<circle cx="886.213" cy="980.316" r="4" fill="#0" id="circle160"/>
	<circle cx="890.134" cy="897.976" r="4" fill="#0" id="circle161"/>
	<circle cx="925.423" cy="980.316" r="4" fill="#0" id="circle162"/>
	<circle cx="929.344" cy="897.976" r="4" fill="#0" id="circle163"/>
	<circle cx="964.632" cy="917.581" r="4" fill="#0" id="circle164"/>
	<circle cx="964.632" cy="956.791" r="4" fill="#0" id="circle165"/>
	</g>
</svg>