<?xml version="1.0" encoding="UTF-8" standalone="no"?>
<!-- Created with CurveBenchmark -->
<svg
	xmlns:dc="http://purl.org/dc/elements/1.1/"
	xmlns:cc="http://creativecommons.org/ns#"
	xmlns:rdf="http://www.w3.org/1999/02/22-rdf-syntax-ns#"
	xmlns:svg="http://www.w3.org/2000/svg"
	xmlns="http://www.w3.org/2000/svg"
	xmlns:sodipodi="http://sodipodi.sourceforge.net/DTD/sodipodi-0.dtd"
	xmlns:inkscape="http://www.inkscape.org/namespaces/inkscape"
	width="1000"
	height="1000"
	id="svg2"
	version="1.1"
	sodipodi:docname="manifold/crust-sink245.png.txt">
<defs
	id="defs4" />
<metadata
	id="metadata7">
	<rdf:RDF>
		<cc:Work
			rdf:about="">
			<dc:format>image/svg+xml</dc:format>
			<dc:type
				rdf:resource="http://purl.org/dc/dcmitype/StillImage" />
			<dc:title></dc:title>
		</cc:Work>
	</rdf:RDF>
</metadata>
<g
	inkscape:label="Layer 1"
	inkscape:groupmode="layer"
	id="layer1">
	<path style="fill:none;stroke:red;stroke-width:1px;stroke-linecap:butt;stroke-linejoin:miter;stroke-opacity:1" d="M 33.3202,258.108 82.1872,258.108 z" id="boundary" inkscape:connector-curvature="0" />
	<path style="fill:none;stroke:red;stroke-width:1px;stroke-linecap:butt;stroke-linejoin:miter;stroke-opacity:1" d="M 33.3202,258.108 4,297.202 z" id="boundary" inkscape:connector-curvature="0" />
	<path style="fill:none;stroke:red;stroke-width:1px;stroke-linecap:butt;stroke-linejoin:miter;stroke-opacity:1" d="M 131.054,258.108 82.1872,258.108 z" id="boundary" inkscape:connector-curvature="0" />
	<path style="fill:none;stroke:red;stroke-width:1px;stroke-linecap:butt;stroke-linejoin:miter;stroke-opacity:1" d="M 179.921,258.108 131.054,258.108 z" id="boundary" inkscape:connector-curvature="0" />
	<path style="fill:none;stroke:red;stroke-width:1px;stroke-linecap:butt;stroke-linejoin:miter;stroke-opacity:1" d="M 219.015,209.241 179.921,258.108 z" id="boundary" inkscape:connector-curvature="0" />
	<path style="fill:none;stroke:red;stroke-width:1px;stroke-linecap:butt;stroke-linejoin:miter;stroke-opacity:1" d="M 52.867,311.862 4,297.202 z" id="boundary" inkscape:connector-curvature="0" />
	<path style="fill:none;stroke:red;stroke-width:1px;stroke-linecap:butt;stroke-linejoin:miter;stroke-opacity:1" d="M 101.734,311.862 52.867,311.862 z" id="boundary" inkscape:connector-curvature="0" />
	<path style="fill:none;stroke:red;stroke-width:1px;stroke-linecap:butt;stroke-linejoin:miter;stroke-opacity:1" d="M 150.601,311.862 101.734,311.862 z" id="boundary" inkscape:connector-curvature="0" />
	<path style="fill:none;stroke:red;stroke-width:1px;stroke-linecap:butt;stroke-linejoin:miter;stroke-opacity:1" d="M 150.601,311.862 189.695,341.182 z" id="boundary" inkscape:connector-curvature="0" />
	<path style="fill:none;stroke:red;stroke-width:1px;stroke-linecap:butt;stroke-linejoin:miter;stroke-opacity:1" d="M 287.429,160.374 238.562,160.374 z" id="boundary" inkscape:connector-curvature="0" />
	<path style="fill:none;stroke:red;stroke-width:1px;stroke-linecap:butt;stroke-linejoin:miter;stroke-opacity:1" d="M 238.562,160.374 219.015,209.241 z" id="boundary" inkscape:connector-curvature="0" />
	<path style="fill:none;stroke:red;stroke-width:1px;stroke-linecap:butt;stroke-linejoin:miter;stroke-opacity:1" d="M 287.429,160.374 336.296,160.374 z" id="boundary" inkscape:connector-curvature="0" />
	<path style="fill:none;stroke:red;stroke-width:1px;stroke-linecap:butt;stroke-linejoin:miter;stroke-opacity:1" d="M 336.296,160.374 385.163,160.374 z" id="boundary" inkscape:connector-curvature="0" />
	<path style="fill:none;stroke:red;stroke-width:1px;stroke-linecap:butt;stroke-linejoin:miter;stroke-opacity:1" d="M 214.128,385.163 189.695,341.182 z" id="boundary" inkscape:connector-curvature="0" />
	<path style="fill:none;stroke:red;stroke-width:1px;stroke-linecap:butt;stroke-linejoin:miter;stroke-opacity:1" d="M 248.335,424.256 214.128,385.163 z" id="boundary" inkscape:connector-curvature="0" />
	<path style="fill:none;stroke:red;stroke-width:1px;stroke-linecap:butt;stroke-linejoin:miter;stroke-opacity:1" d="M 248.335,424.256 248.335,473.123 z" id="boundary" inkscape:connector-curvature="0" />
	<path style="fill:none;stroke:red;stroke-width:1px;stroke-linecap:butt;stroke-linejoin:miter;stroke-opacity:1" d="M 248.335,473.123 248.335,521.99 z" id="boundary" inkscape:connector-curvature="0" />
	<path style="fill:none;stroke:red;stroke-width:1px;stroke-linecap:butt;stroke-linejoin:miter;stroke-opacity:1" d="M 248.335,521.99 248.335,570.857 z" id="boundary" inkscape:connector-curvature="0" />
	<path style="fill:none;stroke:red;stroke-width:1px;stroke-linecap:butt;stroke-linejoin:miter;stroke-opacity:1" d="M 248.335,570.857 248.335,619.724 z" id="boundary" inkscape:connector-curvature="0" />
	<path style="fill:none;stroke:red;stroke-width:1px;stroke-linecap:butt;stroke-linejoin:miter;stroke-opacity:1" d="M 248.335,668.591 248.335,619.724 z" id="boundary" inkscape:connector-curvature="0" />
	<path style="fill:none;stroke:red;stroke-width:1px;stroke-linecap:butt;stroke-linejoin:miter;stroke-opacity:1" d="M 189.695,952.02 214.128,996 z" id="boundary" inkscape:connector-curvature="0" />
	<path style="fill:none;stroke:red;stroke-width:1px;stroke-linecap:butt;stroke-linejoin:miter;stroke-opacity:1" d="M 228.788,893.379 189.695,952.02 z" id="boundary" inkscape:connector-curvature="0" />
	<path style="fill:none;stroke:red;stroke-width:1px;stroke-linecap:butt;stroke-linejoin:miter;stroke-opacity:1" d="M 248.335,766.325 248.335,815.192 z" id="boundary" inkscape:connector-curvature="0" />
	<path style="fill:none;stroke:red;stroke-width:1px;stroke-linecap:butt;stroke-linejoin:miter;stroke-opacity:1" d="M 248.335,766.325 248.335,717.458 z" id="boundary" inkscape:connector-curvature="0" />
	<path style="fill:none;stroke:red;stroke-width:1px;stroke-linecap:butt;stroke-linejoin:miter;stroke-opacity:1" d="M 248.335,815.192 228.788,893.379 z" id="boundary" inkscape:connector-curvature="0" />
	<path style="fill:none;stroke:red;stroke-width:1px;stroke-linecap:butt;stroke-linejoin:miter;stroke-opacity:1" d="M 262.995,996 214.128,996 z" id="boundary" inkscape:connector-curvature="0" />
	<path style="fill:none;stroke:red;stroke-width:1px;stroke-linecap:butt;stroke-linejoin:miter;stroke-opacity:1" d="M 248.335,668.591 248.335,717.458 z" id="boundary" inkscape:connector-curvature="0" />
	<path style="fill:none;stroke:red;stroke-width:1px;stroke-linecap:butt;stroke-linejoin:miter;stroke-opacity:1" d="M 311.862,996 262.995,996 z" id="boundary" inkscape:connector-curvature="0" />
	<path style="fill:none;stroke:red;stroke-width:1px;stroke-linecap:butt;stroke-linejoin:miter;stroke-opacity:1" d="M 409.596,996 360.729,996 z" id="boundary" inkscape:connector-curvature="0" />
	<path style="fill:none;stroke:red;stroke-width:1px;stroke-linecap:butt;stroke-linejoin:miter;stroke-opacity:1" d="M 360.729,996 311.862,996 z" id="boundary" inkscape:connector-curvature="0" />
	<path style="fill:none;stroke:red;stroke-width:1px;stroke-linecap:butt;stroke-linejoin:miter;stroke-opacity:1" d="M 404.709,43.0936 443.803,4 z" id="boundary" inkscape:connector-curvature="0" />
	<path style="fill:none;stroke:red;stroke-width:1px;stroke-linecap:butt;stroke-linejoin:miter;stroke-opacity:1" d="M 429.143,87.0739 404.709,43.0936 z" id="boundary" inkscape:connector-curvature="0" />
	<path style="fill:none;stroke:red;stroke-width:1px;stroke-linecap:butt;stroke-linejoin:miter;stroke-opacity:1" d="M 443.803,4 487.783,28.4335 z" id="boundary" inkscape:connector-curvature="0" />
	<path style="fill:none;stroke:red;stroke-width:1px;stroke-linecap:butt;stroke-linejoin:miter;stroke-opacity:1" d="M 487.783,28.4335 531.764,52.867 z" id="boundary" inkscape:connector-curvature="0" />
	<path style="fill:none;stroke:red;stroke-width:1px;stroke-linecap:butt;stroke-linejoin:miter;stroke-opacity:1" d="M 531.764,52.867 531.764,101.734 z" id="boundary" inkscape:connector-curvature="0" />
	<path style="fill:none;stroke:red;stroke-width:1px;stroke-linecap:butt;stroke-linejoin:miter;stroke-opacity:1" d="M 482.897,160.374 434.03,160.374 z" id="boundary" inkscape:connector-curvature="0" />
	<path style="fill:none;stroke:red;stroke-width:1px;stroke-linecap:butt;stroke-linejoin:miter;stroke-opacity:1" d="M 385.163,160.374 434.03,160.374 z" id="boundary" inkscape:connector-curvature="0" />
	<path style="fill:none;stroke:red;stroke-width:1px;stroke-linecap:butt;stroke-linejoin:miter;stroke-opacity:1" d="M 531.764,101.734 531.764,150.601 z" id="boundary" inkscape:connector-curvature="0" />
	<path style="fill:none;stroke:red;stroke-width:1px;stroke-linecap:butt;stroke-linejoin:miter;stroke-opacity:1" d="M 580.631,160.374 531.764,150.601 z" id="boundary" inkscape:connector-curvature="0" />
	<path style="fill:none;stroke:red;stroke-width:1px;stroke-linecap:butt;stroke-linejoin:miter;stroke-opacity:1" d="M 482.897,160.374 531.764,150.601 z" id="boundary" inkscape:connector-curvature="0" />
	<path style="fill:none;stroke:red;stroke-width:1px;stroke-linecap:butt;stroke-linejoin:miter;stroke-opacity:1" d="M 629.498,160.374 580.631,160.374 z" id="boundary" inkscape:connector-curvature="0" />
	<path style="fill:none;stroke:red;stroke-width:1px;stroke-linecap:butt;stroke-linejoin:miter;stroke-opacity:1" d="M 776.099,160.374 727.232,160.374 z" id="boundary" inkscape:connector-curvature="0" />
	<path style="fill:none;stroke:red;stroke-width:1px;stroke-linecap:butt;stroke-linejoin:miter;stroke-opacity:1" d="M 629.498,160.374 678.365,160.374 z" id="boundary" inkscape:connector-curvature="0" />
	<path style="fill:none;stroke:red;stroke-width:1px;stroke-linecap:butt;stroke-linejoin:miter;stroke-opacity:1" d="M 727.232,160.374 678.365,160.374 z" id="boundary" inkscape:connector-curvature="0" />
	<path style="fill:none;stroke:red;stroke-width:1px;stroke-linecap:butt;stroke-linejoin:miter;stroke-opacity:1" d="M 776.099,160.374 800.532,204.355 z" id="boundary" inkscape:connector-curvature="0" />
	<path style="fill:none;stroke:red;stroke-width:1px;stroke-linecap:butt;stroke-linejoin:miter;stroke-opacity:1" d="M 800.532,204.355 800.532,253.222 z" id="boundary" inkscape:connector-curvature="0" />
	<path style="fill:none;stroke:red;stroke-width:1px;stroke-linecap:butt;stroke-linejoin:miter;stroke-opacity:1" d="M 800.532,253.222 805.419,302.089 z" id="boundary" inkscape:connector-curvature="0" />
	<path style="fill:none;stroke:red;stroke-width:1px;stroke-linecap:butt;stroke-linejoin:miter;stroke-opacity:1" d="M 805.419,302.089 756.552,311.862 z" id="boundary" inkscape:connector-curvature="0" />
	<path style="fill:none;stroke:red;stroke-width:1px;stroke-linecap:butt;stroke-linejoin:miter;stroke-opacity:1" d="M 468.236,448.69 419.369,463.35 z" id="boundary" inkscape:connector-curvature="0" />
	<path style="fill:none;stroke:red;stroke-width:1px;stroke-linecap:butt;stroke-linejoin:miter;stroke-opacity:1" d="M 419.369,463.35 419.369,512.217 z" id="boundary" inkscape:connector-curvature="0" />
	<path style="fill:none;stroke:red;stroke-width:1px;stroke-linecap:butt;stroke-linejoin:miter;stroke-opacity:1" d="M 419.369,561.084 419.369,512.217 z" id="boundary" inkscape:connector-curvature="0" />
	<path style="fill:none;stroke:red;stroke-width:1px;stroke-linecap:butt;stroke-linejoin:miter;stroke-opacity:1" d="M 419.369,561.084 419.369,609.951 z" id="boundary" inkscape:connector-curvature="0" />
	<path style="fill:none;stroke:red;stroke-width:1px;stroke-linecap:butt;stroke-linejoin:miter;stroke-opacity:1" d="M 468.236,448.69 517.103,434.03 z" id="boundary" inkscape:connector-curvature="0" />
	<path style="fill:none;stroke:red;stroke-width:1px;stroke-linecap:butt;stroke-linejoin:miter;stroke-opacity:1" d="M 419.369,658.818 419.369,707.685 z" id="boundary" inkscape:connector-curvature="0" />
	<path style="fill:none;stroke:red;stroke-width:1px;stroke-linecap:butt;stroke-linejoin:miter;stroke-opacity:1" d="M 419.369,658.818 419.369,609.951 z" id="boundary" inkscape:connector-curvature="0" />
	<path style="fill:none;stroke:red;stroke-width:1px;stroke-linecap:butt;stroke-linejoin:miter;stroke-opacity:1" d="M 419.369,707.685 419.369,756.552 z" id="boundary" inkscape:connector-curvature="0" />
	<path style="fill:none;stroke:red;stroke-width:1px;stroke-linecap:butt;stroke-linejoin:miter;stroke-opacity:1" d="M 419.369,805.419 419.369,854.286 z" id="boundary" inkscape:connector-curvature="0" />
	<path style="fill:none;stroke:red;stroke-width:1px;stroke-linecap:butt;stroke-linejoin:miter;stroke-opacity:1" d="M 419.369,756.552 419.369,805.419 z" id="boundary" inkscape:connector-curvature="0" />
	<path style="fill:none;stroke:red;stroke-width:1px;stroke-linecap:butt;stroke-linejoin:miter;stroke-opacity:1" d="M 419.369,854.286 438.916,903.153 z" id="boundary" inkscape:connector-curvature="0" />
	<path style="fill:none;stroke:red;stroke-width:1px;stroke-linecap:butt;stroke-linejoin:miter;stroke-opacity:1" d="M 468.236,942.246 438.916,903.153 z" id="boundary" inkscape:connector-curvature="0" />
	<path style="fill:none;stroke:red;stroke-width:1px;stroke-linecap:butt;stroke-linejoin:miter;stroke-opacity:1" d="M 458.463,996 409.596,996 z" id="boundary" inkscape:connector-curvature="0" />
	<path style="fill:none;stroke:red;stroke-width:1px;stroke-linecap:butt;stroke-linejoin:miter;stroke-opacity:1" d="M 468.236,942.246 458.463,996 z" id="boundary" inkscape:connector-curvature="0" />
	<path style="fill:none;stroke:red;stroke-width:1px;stroke-linecap:butt;stroke-linejoin:miter;stroke-opacity:1" d="M 585.517,355.842 609.951,311.862 z" id="boundary" inkscape:connector-curvature="0" />
	<path style="fill:none;stroke:red;stroke-width:1px;stroke-linecap:butt;stroke-linejoin:miter;stroke-opacity:1" d="M 585.517,355.842 556.197,404.709 z" id="boundary" inkscape:connector-curvature="0" />
	<path style="fill:none;stroke:red;stroke-width:1px;stroke-linecap:butt;stroke-linejoin:miter;stroke-opacity:1" d="M 609.951,311.862 658.818,311.862 z" id="boundary" inkscape:connector-curvature="0" />
	<path style="fill:none;stroke:red;stroke-width:1px;stroke-linecap:butt;stroke-linejoin:miter;stroke-opacity:1" d="M 517.103,434.03 556.197,404.709 z" id="boundary" inkscape:connector-curvature="0" />
	<path style="fill:none;stroke:red;stroke-width:1px;stroke-linecap:butt;stroke-linejoin:miter;stroke-opacity:1" d="M 707.685,311.862 658.818,311.862 z" id="boundary" inkscape:connector-curvature="0" />
	<path style="fill:none;stroke:red;stroke-width:1px;stroke-linecap:butt;stroke-linejoin:miter;stroke-opacity:1" d="M 707.685,311.862 756.552,311.862 z" id="boundary" inkscape:connector-curvature="0" />
	<circle cx="4" cy="297.202" r="4" fill="#0" id="circle0"/>
	<circle cx="33.3202" cy="258.108" r="4" fill="#0" id="circle1"/>
	<circle cx="52.867" cy="311.862" r="4" fill="#0" id="circle2"/>
	<circle cx="82.1872" cy="258.108" r="4" fill="#0" id="circle3"/>
	<circle cx="101.734" cy="311.862" r="4" fill="#0" id="circle4"/>
	<circle cx="131.054" cy="258.108" r="4" fill="#0" id="circle5"/>
	<circle cx="150.601" cy="311.862" r="4" fill="#0" id="circle6"/>
	<circle cx="179.921" cy="258.108" r="4" fill="#0" id="circle7"/>
	<circle cx="189.695" cy="341.182" r="4" fill="#0" id="circle8"/>
	<circle cx="189.695" cy="952.02" r="4" fill="#0" id="circle9"/>
	<circle cx="214.128" cy="385.163" r="4" fill="#0" id="circle10"/>
	<circle cx="214.128" cy="996" r="4" fill="#0" id="circle11"/>
	<circle cx="219.015" cy="209.241" r="4" fill="#0" id="circle12"/>
	<circle cx="228.788" cy="893.379" r="4" fill="#0" id="circle13"/>
	<circle cx="238.562" cy="160.374" r="4" fill="#0" id="circle14"/>
	<circle cx="248.335" cy="424.256" r="4" fill="#0" id="circle15"/>
	<circle cx="248.335" cy="473.123" r="4" fill="#0" id="circle16"/>
	<circle cx="248.335" cy="521.99" r="4" fill="#0" id="circle17"/>
	<circle cx="248.335" cy="570.857" r="4" fill="#0" id="circle18"/>
	<circle cx="248.335" cy="619.724" r="4" fill="#0" id="circle19"/>
	<circle cx="248.335" cy="668.591" r="4" fill="#0" id="circle20"/>
	<circle cx="248.335" cy="717.458" r="4" fill="#0" id="circle21"/>
	<circle cx="248.335" cy="766.325" r="4" fill="#0" id="circle22"/>
	<circle cx="248.335" cy="815.192" r="4" fill="#0" id="circle23"/>
	<circle cx="262.995" cy="996" r="4" fill="#0" id="circle24"/>
	<circle cx="287.429" cy="160.374" r="4" fill="#0" id="circle25"/>
	<circle cx="311.862" cy="996" r="4" fill="#0" id="circle26"/>
	<circle cx="336.296" cy="160.374" r="4" fill="#0" id="circle27"/>
	<circle cx="360.729" cy="996" r="4" fill="#0" id="circle28"/>
	<circle cx="385.163" cy="160.374" r="4" fill="#0" id="circle29"/>
	<circle cx="404.709" cy="43.0936" r="4" fill="#0" id="circle30"/>
	<circle cx="409.596" cy="996" r="4" fill="#0" id="circle31"/>
	<circle cx="419.369" cy="463.35" r="4" fill="#0" id="circle32"/>
	<circle cx="419.369" cy="512.217" r="4" fill="#0" id="circle33"/>
	<circle cx="419.369" cy="561.084" r="4" fill="#0" id="circle34"/>
	<circle cx="419.369" cy="609.951" r="4" fill="#0" id="circle35"/>
	<circle cx="419.369" cy="658.818" r="4" fill="#0" id="circle36"/>
	<circle cx="419.369" cy="707.685" r="4" fill="#0" id="circle37"/>
	<circle cx="419.369" cy="756.552" r="4" fill="#0" id="circle38"/>
	<circle cx="419.369" cy="805.419" r="4" fill="#0" id="circle39"/>
	<circle cx="419.369" cy="854.286" r="4" fill="#0" id="circle40"/>
	<circle cx="429.143" cy="87.0739" r="4" fill="#0" id="circle41"/>
	<circle cx="434.03" cy="160.374" r="4" fill="#0" id="circle42"/>
	<circle cx="438.916" cy="903.153" r="4" fill="#0" id="circle43"/>
	<circle cx="443.803" cy="4" r="4" fill="#0" id="circle44"/>
	<circle cx="458.463" cy="996" r="4" fill="#0" id="circle45"/>
	<circle cx="468.236" cy="448.69" r="4" fill="#0" id="circle46"/>
	<circle cx="468.236" cy="942.246" r="4" fill="#0" id="circle47"/>
	<circle cx="482.897" cy="160.374" r="4" fill="#0" id="circle48"/>
	<circle cx="487.783" cy="28.4335" r="4" fill="#0" id="circle49"/>
	<circle cx="517.103" cy="434.03" r="4" fill="#0" id="circle50"/>
	<circle cx="531.764" cy="52.867" r="4" fill="#0" id="circle51"/>
	<circle cx="531.764" cy="101.734" r="4" fill="#0" id="circle52"/>
	<circle cx="531.764" cy="150.601" r="4" fill="#0" id="circle53"/>
	<circle cx="556.197" cy="404.709" r="4" fill="#0" id="circle54"/>
	<circle cx="580.631" cy="160.374" r="4" fill="#0" id="circle55"/>
	<circle cx="585.517" cy="355.842" r="4" fill="#0" id="circle56"/>
	<circle cx="609.951" cy="311.862" r="4" fill="#0" id="circle57"/>
	<circle cx="629.498" cy="160.374" r="4" fill="#0" id="circle58"/>
	<circle cx="658.818" cy="311.862" r="4" fill="#0" id="circle59"/>
	<circle cx="678.365" cy="160.374" r="4" fill="#0" id="circle60"/>
	<circle cx="707.685" cy="311.862" r="4" fill="#0" id="circle61"/>
	<circle cx="727.232" cy="160.374" r="4" fill="#0" id="circle62"/>
	<circle cx="756.552" cy="311.862" r="4" fill="#0" id="circle63"/>
	<circle cx="776.099" cy="160.374" r="4" fill="#0" id="circle64"/>
	<circle cx="800.532" cy="204.355" r="4" fill="#0" id="circle65"/>
	<circle cx="800.532" cy="253.222" r="4" fill="#0" id="circle66"/>
	<circle cx="805.419" cy="302.089" r="4" fill="#0" id="circle67"/>
	</g>
</svg>